 2017-02-08 21:50:10.119747+01 | 1486587010.11975 | pgbench_branches_pkey |            16384
 2017-02-08 21:50:10.119747+01 | 1486587010.11975 | pgbench_tellers_pkey  |            32768
 2017-02-08 21:50:10.119747+01 | 1486587010.11975 | pgbench_accounts_pkey |        112336896

 2017-02-08 21:50:11.298546+01 | 1486587011.29855 | pgbench_branches_pkey |            16384
 2017-02-08 21:50:11.298546+01 | 1486587011.29855 | pgbench_tellers_pkey  |            32768
 2017-02-08 21:50:11.298546+01 | 1486587011.29855 | pgbench_accounts_pkey |        112336896

 2017-02-08 21:50:12.510422+01 | 1486587012.51042 | pgbench_branches_pkey |            16384
 2017-02-08 21:50:12.510422+01 | 1486587012.51042 | pgbench_tellers_pkey  |            32768
 2017-02-08 21:50:12.510422+01 | 1486587012.51042 | pgbench_accounts_pkey |        112336896

 2017-02-08 21:50:13.691751+01 | 1486587013.69175 | pgbench_branches_pkey |            16384
 2017-02-08 21:50:13.691751+01 | 1486587013.69175 | pgbench_tellers_pkey  |            32768
 2017-02-08 21:50:13.691751+01 | 1486587013.69175 | pgbench_accounts_pkey |        112336896

 2017-02-08 21:50:14.888954+01 | 1486587014.88895 | pgbench_branches_pkey |            16384
 2017-02-08 21:50:14.888954+01 | 1486587014.88895 | pgbench_tellers_pkey  |            32768
 2017-02-08 21:50:14.888954+01 | 1486587014.88895 | pgbench_accounts_pkey |        112336896

 2017-02-08 21:50:16.071148+01 | 1486587016.07115 | pgbench_branches_pkey |            16384
 2017-02-08 21:50:16.071148+01 | 1486587016.07115 | pgbench_tellers_pkey  |            32768
 2017-02-08 21:50:16.071148+01 | 1486587016.07115 | pgbench_accounts_pkey |        112336896

 2017-02-08 21:50:17.339544+01 | 1486587017.33954 | pgbench_branches_pkey |            16384
 2017-02-08 21:50:17.339544+01 | 1486587017.33954 | pgbench_tellers_pkey  |            32768
 2017-02-08 21:50:17.339544+01 | 1486587017.33954 | pgbench_accounts_pkey |        112336896

 2017-02-08 21:50:18.498874+01 | 1486587018.49887 | pgbench_branches_pkey |            16384
 2017-02-08 21:50:18.498874+01 | 1486587018.49887 | pgbench_tellers_pkey  |            32768
 2017-02-08 21:50:18.498874+01 | 1486587018.49887 | pgbench_accounts_pkey |        112336896

 2017-02-08 21:50:19.712969+01 | 1486587019.71297 | pgbench_branches_pkey |            16384
 2017-02-08 21:50:19.712969+01 | 1486587019.71297 | pgbench_tellers_pkey  |            32768
 2017-02-08 21:50:19.712969+01 | 1486587019.71297 | pgbench_accounts_pkey |        112336896

 2017-02-08 21:50:20.970838+01 | 1486587020.97084 | pgbench_branches_pkey |            16384
 2017-02-08 21:50:20.970838+01 | 1486587020.97084 | pgbench_tellers_pkey  |            32768
 2017-02-08 21:50:20.970838+01 | 1486587020.97084 | pgbench_accounts_pkey |        112336896

 2017-02-08 21:50:22.211073+01 | 1486587022.21107 | pgbench_branches_pkey |            16384
 2017-02-08 21:50:22.211073+01 | 1486587022.21107 | pgbench_tellers_pkey  |            32768
 2017-02-08 21:50:22.211073+01 | 1486587022.21107 | pgbench_accounts_pkey |        112336896

 2017-02-08 21:50:23.418696+01 | 1486587023.4187 | pgbench_branches_pkey |            16384
 2017-02-08 21:50:23.418696+01 | 1486587023.4187 | pgbench_tellers_pkey  |            32768
 2017-02-08 21:50:23.418696+01 | 1486587023.4187 | pgbench_accounts_pkey |        112336896

 2017-02-08 21:50:24.602793+01 | 1486587024.60279 | pgbench_branches_pkey |            16384
 2017-02-08 21:50:24.602793+01 | 1486587024.60279 | pgbench_tellers_pkey  |            32768
 2017-02-08 21:50:24.602793+01 | 1486587024.60279 | pgbench_accounts_pkey |        112336896

 2017-02-08 21:50:25.767712+01 | 1486587025.76771 | pgbench_branches_pkey |            16384
 2017-02-08 21:50:25.767712+01 | 1486587025.76771 | pgbench_tellers_pkey  |            32768
 2017-02-08 21:50:25.767712+01 | 1486587025.76771 | pgbench_accounts_pkey |        112336896

 2017-02-08 21:50:26.896296+01 | 1486587026.8963 | pgbench_branches_pkey |            16384
 2017-02-08 21:50:26.896296+01 | 1486587026.8963 | pgbench_tellers_pkey  |            32768
 2017-02-08 21:50:26.896296+01 | 1486587026.8963 | pgbench_accounts_pkey |        112336896

 2017-02-08 21:50:28.058432+01 | 1486587028.05843 | pgbench_branches_pkey |            16384
 2017-02-08 21:50:28.058432+01 | 1486587028.05843 | pgbench_tellers_pkey  |            32768
 2017-02-08 21:50:28.058432+01 | 1486587028.05843 | pgbench_accounts_pkey |        112336896

 2017-02-08 21:50:29.302179+01 | 1486587029.30218 | pgbench_branches_pkey |            16384
 2017-02-08 21:50:29.302179+01 | 1486587029.30218 | pgbench_tellers_pkey  |            32768
 2017-02-08 21:50:29.302179+01 | 1486587029.30218 | pgbench_accounts_pkey |        112336896

 2017-02-08 21:50:30.439842+01 | 1486587030.43984 | pgbench_branches_pkey |            16384
 2017-02-08 21:50:30.439842+01 | 1486587030.43984 | pgbench_tellers_pkey  |            32768
 2017-02-08 21:50:30.439842+01 | 1486587030.43984 | pgbench_accounts_pkey |        112336896

 2017-02-08 21:50:31.618674+01 | 1486587031.61867 | pgbench_branches_pkey |            16384
 2017-02-08 21:50:31.618674+01 | 1486587031.61867 | pgbench_tellers_pkey  |            32768
 2017-02-08 21:50:31.618674+01 | 1486587031.61867 | pgbench_accounts_pkey |        112336896

 2017-02-08 21:50:32.768848+01 | 1486587032.76885 | pgbench_branches_pkey |            16384
 2017-02-08 21:50:32.768848+01 | 1486587032.76885 | pgbench_tellers_pkey  |            32768
 2017-02-08 21:50:32.768848+01 | 1486587032.76885 | pgbench_accounts_pkey |        112336896

 2017-02-08 21:50:33.914865+01 | 1486587033.91487 | pgbench_branches_pkey |            16384
 2017-02-08 21:50:33.914865+01 | 1486587033.91487 | pgbench_tellers_pkey  |            32768
 2017-02-08 21:50:33.914865+01 | 1486587033.91487 | pgbench_accounts_pkey |        112336896

 2017-02-08 21:50:35.114449+01 | 1486587035.11445 | pgbench_branches_pkey |            16384
 2017-02-08 21:50:35.114449+01 | 1486587035.11445 | pgbench_tellers_pkey  |            32768
 2017-02-08 21:50:35.114449+01 | 1486587035.11445 | pgbench_accounts_pkey |        112336896

 2017-02-08 21:50:36.30042+01 | 1486587036.30042 | pgbench_branches_pkey |            16384
 2017-02-08 21:50:36.30042+01 | 1486587036.30042 | pgbench_tellers_pkey  |            32768
 2017-02-08 21:50:36.30042+01 | 1486587036.30042 | pgbench_accounts_pkey |        112336896

 2017-02-08 21:50:37.529645+01 | 1486587037.52964 | pgbench_branches_pkey |            16384
 2017-02-08 21:50:37.529645+01 | 1486587037.52964 | pgbench_tellers_pkey  |            32768
 2017-02-08 21:50:37.529645+01 | 1486587037.52964 | pgbench_accounts_pkey |        112336896

 2017-02-08 21:50:38.79741+01 | 1486587038.79741 | pgbench_branches_pkey |            16384
 2017-02-08 21:50:38.79741+01 | 1486587038.79741 | pgbench_tellers_pkey  |            32768
 2017-02-08 21:50:38.79741+01 | 1486587038.79741 | pgbench_accounts_pkey |        112336896

 2017-02-08 21:50:40.00164+01 | 1486587040.00164 | pgbench_branches_pkey |            16384
 2017-02-08 21:50:40.00164+01 | 1486587040.00164 | pgbench_tellers_pkey  |            32768
 2017-02-08 21:50:40.00164+01 | 1486587040.00164 | pgbench_accounts_pkey |        112336896

 2017-02-08 21:50:41.236631+01 | 1486587041.23663 | pgbench_branches_pkey |            16384
 2017-02-08 21:50:41.236631+01 | 1486587041.23663 | pgbench_tellers_pkey  |            32768
 2017-02-08 21:50:41.236631+01 | 1486587041.23663 | pgbench_accounts_pkey |        112336896

 2017-02-08 21:50:42.457853+01 | 1486587042.45785 | pgbench_branches_pkey |            16384
 2017-02-08 21:50:42.457853+01 | 1486587042.45785 | pgbench_tellers_pkey  |            32768
 2017-02-08 21:50:42.457853+01 | 1486587042.45785 | pgbench_accounts_pkey |        112336896

 2017-02-08 21:50:43.647509+01 | 1486587043.64751 | pgbench_branches_pkey |            16384
 2017-02-08 21:50:43.647509+01 | 1486587043.64751 | pgbench_tellers_pkey  |            32768
 2017-02-08 21:50:43.647509+01 | 1486587043.64751 | pgbench_accounts_pkey |        112336896

 2017-02-08 21:50:44.867854+01 | 1486587044.86785 | pgbench_branches_pkey |            16384
 2017-02-08 21:50:44.867854+01 | 1486587044.86785 | pgbench_tellers_pkey  |            32768
 2017-02-08 21:50:44.867854+01 | 1486587044.86785 | pgbench_accounts_pkey |        112336896

 2017-02-08 21:50:46.098436+01 | 1486587046.09844 | pgbench_branches_pkey |            16384
 2017-02-08 21:50:46.098436+01 | 1486587046.09844 | pgbench_tellers_pkey  |            32768
 2017-02-08 21:50:46.098436+01 | 1486587046.09844 | pgbench_accounts_pkey |        112336896

 2017-02-08 21:50:47.378158+01 | 1486587047.37816 | pgbench_branches_pkey |            16384
 2017-02-08 21:50:47.378158+01 | 1486587047.37816 | pgbench_tellers_pkey  |            32768
 2017-02-08 21:50:47.378158+01 | 1486587047.37816 | pgbench_accounts_pkey |        112336896

 2017-02-08 21:50:48.583239+01 | 1486587048.58324 | pgbench_branches_pkey |            16384
 2017-02-08 21:50:48.583239+01 | 1486587048.58324 | pgbench_tellers_pkey  |            32768
 2017-02-08 21:50:48.583239+01 | 1486587048.58324 | pgbench_accounts_pkey |        112336896

 2017-02-08 21:50:49.80126+01 | 1486587049.80126 | pgbench_branches_pkey |            16384
 2017-02-08 21:50:49.80126+01 | 1486587049.80126 | pgbench_tellers_pkey  |            32768
 2017-02-08 21:50:49.80126+01 | 1486587049.80126 | pgbench_accounts_pkey |        112336896

 2017-02-08 21:50:51.001405+01 | 1486587051.00141 | pgbench_branches_pkey |            16384
 2017-02-08 21:50:51.001405+01 | 1486587051.00141 | pgbench_tellers_pkey  |            32768
 2017-02-08 21:50:51.001405+01 | 1486587051.00141 | pgbench_accounts_pkey |        112336896

 2017-02-08 21:50:52.179133+01 | 1486587052.17913 | pgbench_branches_pkey |            16384
 2017-02-08 21:50:52.179133+01 | 1486587052.17913 | pgbench_tellers_pkey  |            32768
 2017-02-08 21:50:52.179133+01 | 1486587052.17913 | pgbench_accounts_pkey |        112336896

 2017-02-08 21:50:53.412574+01 | 1486587053.41257 | pgbench_branches_pkey |            16384
 2017-02-08 21:50:53.412574+01 | 1486587053.41257 | pgbench_tellers_pkey  |            32768
 2017-02-08 21:50:53.412574+01 | 1486587053.41257 | pgbench_accounts_pkey |        112336896

 2017-02-08 21:50:54.678058+01 | 1486587054.67806 | pgbench_branches_pkey |            16384
 2017-02-08 21:50:54.678058+01 | 1486587054.67806 | pgbench_tellers_pkey  |            32768
 2017-02-08 21:50:54.678058+01 | 1486587054.67806 | pgbench_accounts_pkey |        112336896

 2017-02-08 21:50:55.963508+01 | 1486587055.96351 | pgbench_branches_pkey |            16384
 2017-02-08 21:50:55.963508+01 | 1486587055.96351 | pgbench_tellers_pkey  |            32768
 2017-02-08 21:50:55.963508+01 | 1486587055.96351 | pgbench_accounts_pkey |        112336896

 2017-02-08 21:50:57.192431+01 | 1486587057.19243 | pgbench_branches_pkey |            16384
 2017-02-08 21:50:57.192431+01 | 1486587057.19243 | pgbench_tellers_pkey  |            32768
 2017-02-08 21:50:57.192431+01 | 1486587057.19243 | pgbench_accounts_pkey |        112336896

 2017-02-08 21:50:58.35703+01 | 1486587058.35703 | pgbench_branches_pkey |            16384
 2017-02-08 21:50:58.35703+01 | 1486587058.35703 | pgbench_tellers_pkey  |            32768
 2017-02-08 21:50:58.35703+01 | 1486587058.35703 | pgbench_accounts_pkey |        112336896

 2017-02-08 21:50:59.596111+01 | 1486587059.59611 | pgbench_branches_pkey |            16384
 2017-02-08 21:50:59.596111+01 | 1486587059.59611 | pgbench_tellers_pkey  |            32768
 2017-02-08 21:50:59.596111+01 | 1486587059.59611 | pgbench_accounts_pkey |        112336896

 2017-02-08 21:51:00.820265+01 | 1486587060.82027 | pgbench_branches_pkey |            16384
 2017-02-08 21:51:00.820265+01 | 1486587060.82027 | pgbench_tellers_pkey  |            32768
 2017-02-08 21:51:00.820265+01 | 1486587060.82027 | pgbench_accounts_pkey |        112336896

 2017-02-08 21:51:02.006507+01 | 1486587062.00651 | pgbench_branches_pkey |            16384
 2017-02-08 21:51:02.006507+01 | 1486587062.00651 | pgbench_tellers_pkey  |            32768
 2017-02-08 21:51:02.006507+01 | 1486587062.00651 | pgbench_accounts_pkey |        112336896

 2017-02-08 21:51:03.204606+01 | 1486587063.20461 | pgbench_branches_pkey |            16384
 2017-02-08 21:51:03.204606+01 | 1486587063.20461 | pgbench_tellers_pkey  |            32768
 2017-02-08 21:51:03.204606+01 | 1486587063.20461 | pgbench_accounts_pkey |        112336896

 2017-02-08 21:51:04.432304+01 | 1486587064.4323 | pgbench_branches_pkey |            16384
 2017-02-08 21:51:04.432304+01 | 1486587064.4323 | pgbench_tellers_pkey  |            32768
 2017-02-08 21:51:04.432304+01 | 1486587064.4323 | pgbench_accounts_pkey |        112336896

 2017-02-08 21:51:05.697486+01 | 1486587065.69749 | pgbench_branches_pkey |            16384
 2017-02-08 21:51:05.697486+01 | 1486587065.69749 | pgbench_tellers_pkey  |            32768
 2017-02-08 21:51:05.697486+01 | 1486587065.69749 | pgbench_accounts_pkey |        112336896

 2017-02-08 21:51:06.930405+01 | 1486587066.9304 | pgbench_branches_pkey |            16384
 2017-02-08 21:51:06.930405+01 | 1486587066.9304 | pgbench_tellers_pkey  |            32768
 2017-02-08 21:51:06.930405+01 | 1486587066.9304 | pgbench_accounts_pkey |        112336896

 2017-02-08 21:51:08.123901+01 | 1486587068.1239 | pgbench_branches_pkey |            16384
 2017-02-08 21:51:08.123901+01 | 1486587068.1239 | pgbench_tellers_pkey  |            32768
 2017-02-08 21:51:08.123901+01 | 1486587068.1239 | pgbench_accounts_pkey |        112336896

 2017-02-08 21:51:09.313626+01 | 1486587069.31363 | pgbench_branches_pkey |            16384
 2017-02-08 21:51:09.313626+01 | 1486587069.31363 | pgbench_tellers_pkey  |            32768
 2017-02-08 21:51:09.313626+01 | 1486587069.31363 | pgbench_accounts_pkey |        112336896

 2017-02-08 21:51:10.55085+01 | 1486587070.55085 | pgbench_branches_pkey |            16384
 2017-02-08 21:51:10.55085+01 | 1486587070.55085 | pgbench_tellers_pkey  |            32768
 2017-02-08 21:51:10.55085+01 | 1486587070.55085 | pgbench_accounts_pkey |        112336896

 2017-02-08 21:51:11.791781+01 | 1486587071.79178 | pgbench_branches_pkey |            16384
 2017-02-08 21:51:11.791781+01 | 1486587071.79178 | pgbench_tellers_pkey  |            32768
 2017-02-08 21:51:11.791781+01 | 1486587071.79178 | pgbench_accounts_pkey |        112336896

 2017-02-08 21:51:13.057539+01 | 1486587073.05754 | pgbench_branches_pkey |            16384
 2017-02-08 21:51:13.057539+01 | 1486587073.05754 | pgbench_tellers_pkey  |            32768
 2017-02-08 21:51:13.057539+01 | 1486587073.05754 | pgbench_accounts_pkey |        112336896

 2017-02-08 21:51:14.242129+01 | 1486587074.24213 | pgbench_branches_pkey |            16384
 2017-02-08 21:51:14.242129+01 | 1486587074.24213 | pgbench_tellers_pkey  |            32768
 2017-02-08 21:51:14.242129+01 | 1486587074.24213 | pgbench_accounts_pkey |        112336896

 2017-02-08 21:51:15.445152+01 | 1486587075.44515 | pgbench_branches_pkey |            16384
 2017-02-08 21:51:15.445152+01 | 1486587075.44515 | pgbench_tellers_pkey  |            32768
 2017-02-08 21:51:15.445152+01 | 1486587075.44515 | pgbench_accounts_pkey |        112336896

 2017-02-08 21:51:16.65293+01 | 1486587076.65293 | pgbench_branches_pkey |            16384
 2017-02-08 21:51:16.65293+01 | 1486587076.65293 | pgbench_tellers_pkey  |            32768
 2017-02-08 21:51:16.65293+01 | 1486587076.65293 | pgbench_accounts_pkey |        112336896

 2017-02-08 21:51:17.925532+01 | 1486587077.92553 | pgbench_branches_pkey |            16384
 2017-02-08 21:51:17.925532+01 | 1486587077.92553 | pgbench_tellers_pkey  |            32768
 2017-02-08 21:51:17.925532+01 | 1486587077.92553 | pgbench_accounts_pkey |        112336896

 2017-02-08 21:51:19.177984+01 | 1486587079.17798 | pgbench_branches_pkey |            16384
 2017-02-08 21:51:19.177984+01 | 1486587079.17798 | pgbench_tellers_pkey  |            32768
 2017-02-08 21:51:19.177984+01 | 1486587079.17798 | pgbench_accounts_pkey |        112336896

 2017-02-08 21:51:20.418045+01 | 1486587080.41805 | pgbench_branches_pkey |            16384
 2017-02-08 21:51:20.418045+01 | 1486587080.41805 | pgbench_tellers_pkey  |            32768
 2017-02-08 21:51:20.418045+01 | 1486587080.41805 | pgbench_accounts_pkey |        112336896

 2017-02-08 21:51:21.620796+01 | 1486587081.6208 | pgbench_branches_pkey |            16384
 2017-02-08 21:51:21.620796+01 | 1486587081.6208 | pgbench_tellers_pkey  |            32768
 2017-02-08 21:51:21.620796+01 | 1486587081.6208 | pgbench_accounts_pkey |        112336896

 2017-02-08 21:51:22.824449+01 | 1486587082.82445 | pgbench_branches_pkey |            16384
 2017-02-08 21:51:22.824449+01 | 1486587082.82445 | pgbench_tellers_pkey  |            32768
 2017-02-08 21:51:22.824449+01 | 1486587082.82445 | pgbench_accounts_pkey |        112336896

 2017-02-08 21:51:24.042206+01 | 1486587084.04221 | pgbench_branches_pkey |            16384
 2017-02-08 21:51:24.042206+01 | 1486587084.04221 | pgbench_tellers_pkey  |            32768
 2017-02-08 21:51:24.042206+01 | 1486587084.04221 | pgbench_accounts_pkey |        112336896

 2017-02-08 21:51:25.275732+01 | 1486587085.27573 | pgbench_branches_pkey |            16384
 2017-02-08 21:51:25.275732+01 | 1486587085.27573 | pgbench_tellers_pkey  |            32768
 2017-02-08 21:51:25.275732+01 | 1486587085.27573 | pgbench_accounts_pkey |        112336896

 2017-02-08 21:51:26.538367+01 | 1486587086.53837 | pgbench_branches_pkey |            16384
 2017-02-08 21:51:26.538367+01 | 1486587086.53837 | pgbench_tellers_pkey  |            32768
 2017-02-08 21:51:26.538367+01 | 1486587086.53837 | pgbench_accounts_pkey |        112336896

 2017-02-08 21:51:27.767135+01 | 1486587087.76713 | pgbench_branches_pkey |            16384
 2017-02-08 21:51:27.767135+01 | 1486587087.76713 | pgbench_tellers_pkey  |            32768
 2017-02-08 21:51:27.767135+01 | 1486587087.76713 | pgbench_accounts_pkey |        112336896

 2017-02-08 21:51:29.009229+01 | 1486587089.00923 | pgbench_branches_pkey |            16384
 2017-02-08 21:51:29.009229+01 | 1486587089.00923 | pgbench_tellers_pkey  |            32768
 2017-02-08 21:51:29.009229+01 | 1486587089.00923 | pgbench_accounts_pkey |        112336896

 2017-02-08 21:51:30.236072+01 | 1486587090.23607 | pgbench_branches_pkey |            16384
 2017-02-08 21:51:30.236072+01 | 1486587090.23607 | pgbench_tellers_pkey  |            32768
 2017-02-08 21:51:30.236072+01 | 1486587090.23607 | pgbench_accounts_pkey |        112336896

 2017-02-08 21:51:31.476839+01 | 1486587091.47684 | pgbench_branches_pkey |            16384
 2017-02-08 21:51:31.476839+01 | 1486587091.47684 | pgbench_tellers_pkey  |            32768
 2017-02-08 21:51:31.476839+01 | 1486587091.47684 | pgbench_accounts_pkey |        112336896

 2017-02-08 21:51:32.783458+01 | 1486587092.78346 | pgbench_branches_pkey |            16384
 2017-02-08 21:51:32.783458+01 | 1486587092.78346 | pgbench_tellers_pkey  |            32768
 2017-02-08 21:51:32.783458+01 | 1486587092.78346 | pgbench_accounts_pkey |        112336896

 2017-02-08 21:51:34.019084+01 | 1486587094.01908 | pgbench_branches_pkey |            16384
 2017-02-08 21:51:34.019084+01 | 1486587094.01908 | pgbench_tellers_pkey  |            32768
 2017-02-08 21:51:34.019084+01 | 1486587094.01908 | pgbench_accounts_pkey |        112336896

 2017-02-08 21:51:35.283517+01 | 1486587095.28352 | pgbench_branches_pkey |            16384
 2017-02-08 21:51:35.283517+01 | 1486587095.28352 | pgbench_tellers_pkey  |            32768
 2017-02-08 21:51:35.283517+01 | 1486587095.28352 | pgbench_accounts_pkey |        112336896

 2017-02-08 21:51:36.454412+01 | 1486587096.45441 | pgbench_branches_pkey |            16384
 2017-02-08 21:51:36.454412+01 | 1486587096.45441 | pgbench_tellers_pkey  |            32768
 2017-02-08 21:51:36.454412+01 | 1486587096.45441 | pgbench_accounts_pkey |        112336896

 2017-02-08 21:51:37.637263+01 | 1486587097.63726 | pgbench_branches_pkey |            16384
 2017-02-08 21:51:37.637263+01 | 1486587097.63726 | pgbench_tellers_pkey  |            32768
 2017-02-08 21:51:37.637263+01 | 1486587097.63726 | pgbench_accounts_pkey |        112336896

 2017-02-08 21:51:38.867808+01 | 1486587098.86781 | pgbench_branches_pkey |            16384
 2017-02-08 21:51:38.867808+01 | 1486587098.86781 | pgbench_tellers_pkey  |            32768
 2017-02-08 21:51:38.867808+01 | 1486587098.86781 | pgbench_accounts_pkey |        112336896

 2017-02-08 21:51:40.077251+01 | 1486587100.07725 | pgbench_branches_pkey |            16384
 2017-02-08 21:51:40.077251+01 | 1486587100.07725 | pgbench_tellers_pkey  |            32768
 2017-02-08 21:51:40.077251+01 | 1486587100.07725 | pgbench_accounts_pkey |        112336896

 2017-02-08 21:51:41.334187+01 | 1486587101.33419 | pgbench_branches_pkey |            16384
 2017-02-08 21:51:41.334187+01 | 1486587101.33419 | pgbench_tellers_pkey  |            32768
 2017-02-08 21:51:41.334187+01 | 1486587101.33419 | pgbench_accounts_pkey |        112336896

 2017-02-08 21:51:42.574817+01 | 1486587102.57482 | pgbench_branches_pkey |            16384
 2017-02-08 21:51:42.574817+01 | 1486587102.57482 | pgbench_tellers_pkey  |            32768
 2017-02-08 21:51:42.574817+01 | 1486587102.57482 | pgbench_accounts_pkey |        112336896

 2017-02-08 21:51:43.739288+01 | 1486587103.73929 | pgbench_branches_pkey |            16384
 2017-02-08 21:51:43.739288+01 | 1486587103.73929 | pgbench_tellers_pkey  |            32768
 2017-02-08 21:51:43.739288+01 | 1486587103.73929 | pgbench_accounts_pkey |        112336896

 2017-02-08 21:51:44.974551+01 | 1486587104.97455 | pgbench_branches_pkey |            16384
 2017-02-08 21:51:44.974551+01 | 1486587104.97455 | pgbench_tellers_pkey  |            32768
 2017-02-08 21:51:44.974551+01 | 1486587104.97455 | pgbench_accounts_pkey |        112336896

 2017-02-08 21:51:46.13257+01 | 1486587106.13257 | pgbench_branches_pkey |            16384
 2017-02-08 21:51:46.13257+01 | 1486587106.13257 | pgbench_tellers_pkey  |            32768
 2017-02-08 21:51:46.13257+01 | 1486587106.13257 | pgbench_accounts_pkey |        112336896

 2017-02-08 21:51:47.319518+01 | 1486587107.31952 | pgbench_branches_pkey |            16384
 2017-02-08 21:51:47.319518+01 | 1486587107.31952 | pgbench_tellers_pkey  |            32768
 2017-02-08 21:51:47.319518+01 | 1486587107.31952 | pgbench_accounts_pkey |        112336896

 2017-02-08 21:51:48.560194+01 | 1486587108.56019 | pgbench_branches_pkey |            16384
 2017-02-08 21:51:48.560194+01 | 1486587108.56019 | pgbench_tellers_pkey  |            32768
 2017-02-08 21:51:48.560194+01 | 1486587108.56019 | pgbench_accounts_pkey |        112336896

 2017-02-08 21:51:49.846683+01 | 1486587109.84668 | pgbench_branches_pkey |            16384
 2017-02-08 21:51:49.846683+01 | 1486587109.84668 | pgbench_tellers_pkey  |            32768
 2017-02-08 21:51:49.846683+01 | 1486587109.84668 | pgbench_accounts_pkey |        112336896

 2017-02-08 21:51:51.030097+01 | 1486587111.0301 | pgbench_branches_pkey |            16384
 2017-02-08 21:51:51.030097+01 | 1486587111.0301 | pgbench_tellers_pkey  |            32768
 2017-02-08 21:51:51.030097+01 | 1486587111.0301 | pgbench_accounts_pkey |        112336896

 2017-02-08 21:51:52.203525+01 | 1486587112.20353 | pgbench_branches_pkey |            16384
 2017-02-08 21:51:52.203525+01 | 1486587112.20353 | pgbench_tellers_pkey  |            32768
 2017-02-08 21:51:52.203525+01 | 1486587112.20353 | pgbench_accounts_pkey |        112336896

 2017-02-08 21:51:53.408278+01 | 1486587113.40828 | pgbench_branches_pkey |            16384
 2017-02-08 21:51:53.408278+01 | 1486587113.40828 | pgbench_tellers_pkey  |            32768
 2017-02-08 21:51:53.408278+01 | 1486587113.40828 | pgbench_accounts_pkey |        112336896

 2017-02-08 21:51:54.591537+01 | 1486587114.59154 | pgbench_branches_pkey |            16384
 2017-02-08 21:51:54.591537+01 | 1486587114.59154 | pgbench_tellers_pkey  |            32768
 2017-02-08 21:51:54.591537+01 | 1486587114.59154 | pgbench_accounts_pkey |        112336896

 2017-02-08 21:51:55.818913+01 | 1486587115.81891 | pgbench_branches_pkey |            16384
 2017-02-08 21:51:55.818913+01 | 1486587115.81891 | pgbench_tellers_pkey  |            32768
 2017-02-08 21:51:55.818913+01 | 1486587115.81891 | pgbench_accounts_pkey |        112336896

 2017-02-08 21:51:57.060395+01 | 1486587117.0604 | pgbench_branches_pkey |            16384
 2017-02-08 21:51:57.060395+01 | 1486587117.0604 | pgbench_tellers_pkey  |            32768
 2017-02-08 21:51:57.060395+01 | 1486587117.0604 | pgbench_accounts_pkey |        112336896

 2017-02-08 21:51:58.25824+01 | 1486587118.25824 | pgbench_branches_pkey |            16384
 2017-02-08 21:51:58.25824+01 | 1486587118.25824 | pgbench_tellers_pkey  |            32768
 2017-02-08 21:51:58.25824+01 | 1486587118.25824 | pgbench_accounts_pkey |        112336896

 2017-02-08 21:51:59.493858+01 | 1486587119.49386 | pgbench_branches_pkey |            16384
 2017-02-08 21:51:59.493858+01 | 1486587119.49386 | pgbench_tellers_pkey  |            32768
 2017-02-08 21:51:59.493858+01 | 1486587119.49386 | pgbench_accounts_pkey |        112336896

 2017-02-08 21:52:00.718379+01 | 1486587120.71838 | pgbench_branches_pkey |            16384
 2017-02-08 21:52:00.718379+01 | 1486587120.71838 | pgbench_tellers_pkey  |            32768
 2017-02-08 21:52:00.718379+01 | 1486587120.71838 | pgbench_accounts_pkey |        112336896

 2017-02-08 21:52:01.918976+01 | 1486587121.91898 | pgbench_branches_pkey |            16384
 2017-02-08 21:52:01.918976+01 | 1486587121.91898 | pgbench_tellers_pkey  |            32768
 2017-02-08 21:52:01.918976+01 | 1486587121.91898 | pgbench_accounts_pkey |        112336896

 2017-02-08 21:52:03.115523+01 | 1486587123.11552 | pgbench_branches_pkey |            16384
 2017-02-08 21:52:03.115523+01 | 1486587123.11552 | pgbench_tellers_pkey  |            32768
 2017-02-08 21:52:03.115523+01 | 1486587123.11552 | pgbench_accounts_pkey |        112336896

 2017-02-08 21:52:04.38825+01 | 1486587124.38825 | pgbench_branches_pkey |            16384
 2017-02-08 21:52:04.38825+01 | 1486587124.38825 | pgbench_tellers_pkey  |            32768
 2017-02-08 21:52:04.38825+01 | 1486587124.38825 | pgbench_accounts_pkey |        112336896

 2017-02-08 21:52:05.507771+01 | 1486587125.50777 | pgbench_branches_pkey |            16384
 2017-02-08 21:52:05.507771+01 | 1486587125.50777 | pgbench_tellers_pkey  |            32768
 2017-02-08 21:52:05.507771+01 | 1486587125.50777 | pgbench_accounts_pkey |        112336896

 2017-02-08 21:52:06.732805+01 | 1486587126.73281 | pgbench_branches_pkey |            16384
 2017-02-08 21:52:06.732805+01 | 1486587126.73281 | pgbench_tellers_pkey  |            32768
 2017-02-08 21:52:06.732805+01 | 1486587126.73281 | pgbench_accounts_pkey |        112336896

 2017-02-08 21:52:07.996995+01 | 1486587127.99699 | pgbench_branches_pkey |            16384
 2017-02-08 21:52:07.996995+01 | 1486587127.99699 | pgbench_tellers_pkey  |            32768
 2017-02-08 21:52:07.996995+01 | 1486587127.99699 | pgbench_accounts_pkey |        112336896

 2017-02-08 21:52:09.215823+01 | 1486587129.21582 | pgbench_branches_pkey |            16384
 2017-02-08 21:52:09.215823+01 | 1486587129.21582 | pgbench_tellers_pkey  |            32768
 2017-02-08 21:52:09.215823+01 | 1486587129.21582 | pgbench_accounts_pkey |        112336896

 2017-02-08 21:52:10.412199+01 | 1486587130.4122 | pgbench_branches_pkey |            16384
 2017-02-08 21:52:10.412199+01 | 1486587130.4122 | pgbench_tellers_pkey  |            32768
 2017-02-08 21:52:10.412199+01 | 1486587130.4122 | pgbench_accounts_pkey |        112336896

 2017-02-08 21:52:11.590157+01 | 1486587131.59016 | pgbench_branches_pkey |            16384
 2017-02-08 21:52:11.590157+01 | 1486587131.59016 | pgbench_tellers_pkey  |            32768
 2017-02-08 21:52:11.590157+01 | 1486587131.59016 | pgbench_accounts_pkey |        112336896

 2017-02-08 21:52:12.811083+01 | 1486587132.81108 | pgbench_branches_pkey |            16384
 2017-02-08 21:52:12.811083+01 | 1486587132.81108 | pgbench_tellers_pkey  |            32768
 2017-02-08 21:52:12.811083+01 | 1486587132.81108 | pgbench_accounts_pkey |        112336896

 2017-02-08 21:52:13.999284+01 | 1486587133.99928 | pgbench_branches_pkey |            16384
 2017-02-08 21:52:13.999284+01 | 1486587133.99928 | pgbench_tellers_pkey  |            32768
 2017-02-08 21:52:13.999284+01 | 1486587133.99928 | pgbench_accounts_pkey |        112336896

 2017-02-08 21:52:15.305223+01 | 1486587135.30522 | pgbench_branches_pkey |            16384
 2017-02-08 21:52:15.305223+01 | 1486587135.30522 | pgbench_tellers_pkey  |            32768
 2017-02-08 21:52:15.305223+01 | 1486587135.30522 | pgbench_accounts_pkey |        112336896

 2017-02-08 21:52:16.519748+01 | 1486587136.51975 | pgbench_branches_pkey |            16384
 2017-02-08 21:52:16.519748+01 | 1486587136.51975 | pgbench_tellers_pkey  |            32768
 2017-02-08 21:52:16.519748+01 | 1486587136.51975 | pgbench_accounts_pkey |        112336896

 2017-02-08 21:52:17.739732+01 | 1486587137.73973 | pgbench_branches_pkey |            16384
 2017-02-08 21:52:17.739732+01 | 1486587137.73973 | pgbench_tellers_pkey  |            32768
 2017-02-08 21:52:17.739732+01 | 1486587137.73973 | pgbench_accounts_pkey |        112336896

 2017-02-08 21:52:19.016484+01 | 1486587139.01648 | pgbench_branches_pkey |            16384
 2017-02-08 21:52:19.016484+01 | 1486587139.01648 | pgbench_tellers_pkey  |            32768
 2017-02-08 21:52:19.016484+01 | 1486587139.01648 | pgbench_accounts_pkey |        112336896

 2017-02-08 21:52:20.284915+01 | 1486587140.28491 | pgbench_branches_pkey |            16384
 2017-02-08 21:52:20.284915+01 | 1486587140.28491 | pgbench_tellers_pkey  |            32768
 2017-02-08 21:52:20.284915+01 | 1486587140.28491 | pgbench_accounts_pkey |        112336896

 2017-02-08 21:52:21.495227+01 | 1486587141.49523 | pgbench_branches_pkey |            16384
 2017-02-08 21:52:21.495227+01 | 1486587141.49523 | pgbench_tellers_pkey  |            32768
 2017-02-08 21:52:21.495227+01 | 1486587141.49523 | pgbench_accounts_pkey |        112336896

 2017-02-08 21:52:22.686284+01 | 1486587142.68628 | pgbench_branches_pkey |            16384
 2017-02-08 21:52:22.686284+01 | 1486587142.68628 | pgbench_tellers_pkey  |            32768
 2017-02-08 21:52:22.686284+01 | 1486587142.68628 | pgbench_accounts_pkey |        112336896

 2017-02-08 21:52:23.895839+01 | 1486587143.89584 | pgbench_branches_pkey |            16384
 2017-02-08 21:52:23.895839+01 | 1486587143.89584 | pgbench_tellers_pkey  |            32768
 2017-02-08 21:52:23.895839+01 | 1486587143.89584 | pgbench_accounts_pkey |        112336896

 2017-02-08 21:52:25.113997+01 | 1486587145.114 | pgbench_branches_pkey |            16384
 2017-02-08 21:52:25.113997+01 | 1486587145.114 | pgbench_tellers_pkey  |            32768
 2017-02-08 21:52:25.113997+01 | 1486587145.114 | pgbench_accounts_pkey |        112336896

 2017-02-08 21:52:26.327231+01 | 1486587146.32723 | pgbench_branches_pkey |            16384
 2017-02-08 21:52:26.327231+01 | 1486587146.32723 | pgbench_tellers_pkey  |            32768
 2017-02-08 21:52:26.327231+01 | 1486587146.32723 | pgbench_accounts_pkey |        112336896

 2017-02-08 21:52:27.564758+01 | 1486587147.56476 | pgbench_branches_pkey |            16384
 2017-02-08 21:52:27.564758+01 | 1486587147.56476 | pgbench_tellers_pkey  |            32768
 2017-02-08 21:52:27.564758+01 | 1486587147.56476 | pgbench_accounts_pkey |        112336896

 2017-02-08 21:52:28.811193+01 | 1486587148.81119 | pgbench_branches_pkey |            16384
 2017-02-08 21:52:28.811193+01 | 1486587148.81119 | pgbench_tellers_pkey  |            32768
 2017-02-08 21:52:28.811193+01 | 1486587148.81119 | pgbench_accounts_pkey |        112336896

 2017-02-08 21:52:29.964894+01 | 1486587149.96489 | pgbench_branches_pkey |            16384
 2017-02-08 21:52:29.964894+01 | 1486587149.96489 | pgbench_tellers_pkey  |            32768
 2017-02-08 21:52:29.964894+01 | 1486587149.96489 | pgbench_accounts_pkey |        112336896

 2017-02-08 21:52:31.158954+01 | 1486587151.15895 | pgbench_branches_pkey |            16384
 2017-02-08 21:52:31.158954+01 | 1486587151.15895 | pgbench_tellers_pkey  |            32768
 2017-02-08 21:52:31.158954+01 | 1486587151.15895 | pgbench_accounts_pkey |        112336896

 2017-02-08 21:52:32.3582+01 | 1486587152.3582 | pgbench_branches_pkey |            16384
 2017-02-08 21:52:32.3582+01 | 1486587152.3582 | pgbench_tellers_pkey  |            32768
 2017-02-08 21:52:32.3582+01 | 1486587152.3582 | pgbench_accounts_pkey |        112336896

 2017-02-08 21:52:33.520923+01 | 1486587153.52092 | pgbench_branches_pkey |            16384
 2017-02-08 21:52:33.520923+01 | 1486587153.52092 | pgbench_tellers_pkey  |            32768
 2017-02-08 21:52:33.520923+01 | 1486587153.52092 | pgbench_accounts_pkey |        112336896

 2017-02-08 21:52:34.678794+01 | 1486587154.67879 | pgbench_branches_pkey |            16384
 2017-02-08 21:52:34.678794+01 | 1486587154.67879 | pgbench_tellers_pkey  |            32768
 2017-02-08 21:52:34.678794+01 | 1486587154.67879 | pgbench_accounts_pkey |        112336896

 2017-02-08 21:52:35.842964+01 | 1486587155.84296 | pgbench_branches_pkey |            16384
 2017-02-08 21:52:35.842964+01 | 1486587155.84296 | pgbench_tellers_pkey  |            32768
 2017-02-08 21:52:35.842964+01 | 1486587155.84296 | pgbench_accounts_pkey |        112336896

 2017-02-08 21:52:37.046447+01 | 1486587157.04645 | pgbench_branches_pkey |            16384
 2017-02-08 21:52:37.046447+01 | 1486587157.04645 | pgbench_tellers_pkey  |            32768
 2017-02-08 21:52:37.046447+01 | 1486587157.04645 | pgbench_accounts_pkey |        112336896

 2017-02-08 21:52:38.268022+01 | 1486587158.26802 | pgbench_branches_pkey |            16384
 2017-02-08 21:52:38.268022+01 | 1486587158.26802 | pgbench_tellers_pkey  |            32768
 2017-02-08 21:52:38.268022+01 | 1486587158.26802 | pgbench_accounts_pkey |        112336896

 2017-02-08 21:52:39.478031+01 | 1486587159.47803 | pgbench_branches_pkey |            16384
 2017-02-08 21:52:39.478031+01 | 1486587159.47803 | pgbench_tellers_pkey  |            32768
 2017-02-08 21:52:39.478031+01 | 1486587159.47803 | pgbench_accounts_pkey |        112336896

 2017-02-08 21:52:40.714549+01 | 1486587160.71455 | pgbench_branches_pkey |            16384
 2017-02-08 21:52:40.714549+01 | 1486587160.71455 | pgbench_tellers_pkey  |            32768
 2017-02-08 21:52:40.714549+01 | 1486587160.71455 | pgbench_accounts_pkey |        112336896

 2017-02-08 21:52:41.948076+01 | 1486587161.94808 | pgbench_branches_pkey |            16384
 2017-02-08 21:52:41.948076+01 | 1486587161.94808 | pgbench_tellers_pkey  |            32768
 2017-02-08 21:52:41.948076+01 | 1486587161.94808 | pgbench_accounts_pkey |        112336896

 2017-02-08 21:52:43.129523+01 | 1486587163.12952 | pgbench_branches_pkey |            16384
 2017-02-08 21:52:43.129523+01 | 1486587163.12952 | pgbench_tellers_pkey  |            32768
 2017-02-08 21:52:43.129523+01 | 1486587163.12952 | pgbench_accounts_pkey |        112336896

 2017-02-08 21:52:44.401734+01 | 1486587164.40173 | pgbench_branches_pkey |            16384
 2017-02-08 21:52:44.401734+01 | 1486587164.40173 | pgbench_tellers_pkey  |            32768
 2017-02-08 21:52:44.401734+01 | 1486587164.40173 | pgbench_accounts_pkey |        112336896

 2017-02-08 21:52:45.659805+01 | 1486587165.65981 | pgbench_branches_pkey |            16384
 2017-02-08 21:52:45.659805+01 | 1486587165.65981 | pgbench_tellers_pkey  |            32768
 2017-02-08 21:52:45.659805+01 | 1486587165.65981 | pgbench_accounts_pkey |        112336896

 2017-02-08 21:52:46.856628+01 | 1486587166.85663 | pgbench_branches_pkey |            16384
 2017-02-08 21:52:46.856628+01 | 1486587166.85663 | pgbench_tellers_pkey  |            32768
 2017-02-08 21:52:46.856628+01 | 1486587166.85663 | pgbench_accounts_pkey |        112336896

 2017-02-08 21:52:48.017666+01 | 1486587168.01767 | pgbench_branches_pkey |            16384
 2017-02-08 21:52:48.017666+01 | 1486587168.01767 | pgbench_tellers_pkey  |            32768
 2017-02-08 21:52:48.017666+01 | 1486587168.01767 | pgbench_accounts_pkey |        112336896

 2017-02-08 21:52:49.204796+01 | 1486587169.2048 | pgbench_branches_pkey |            16384
 2017-02-08 21:52:49.204796+01 | 1486587169.2048 | pgbench_tellers_pkey  |            32768
 2017-02-08 21:52:49.204796+01 | 1486587169.2048 | pgbench_accounts_pkey |        112336896

 2017-02-08 21:52:50.38645+01 | 1486587170.38645 | pgbench_branches_pkey |            16384
 2017-02-08 21:52:50.38645+01 | 1486587170.38645 | pgbench_tellers_pkey  |            32768
 2017-02-08 21:52:50.38645+01 | 1486587170.38645 | pgbench_accounts_pkey |        112336896

 2017-02-08 21:52:51.636081+01 | 1486587171.63608 | pgbench_branches_pkey |            16384
 2017-02-08 21:52:51.636081+01 | 1486587171.63608 | pgbench_tellers_pkey  |            32768
 2017-02-08 21:52:51.636081+01 | 1486587171.63608 | pgbench_accounts_pkey |        112336896

 2017-02-08 21:52:52.864669+01 | 1486587172.86467 | pgbench_branches_pkey |            16384
 2017-02-08 21:52:52.864669+01 | 1486587172.86467 | pgbench_tellers_pkey  |            32768
 2017-02-08 21:52:52.864669+01 | 1486587172.86467 | pgbench_accounts_pkey |        112336896

 2017-02-08 21:52:54.121964+01 | 1486587174.12196 | pgbench_branches_pkey |            16384
 2017-02-08 21:52:54.121964+01 | 1486587174.12196 | pgbench_tellers_pkey  |            32768
 2017-02-08 21:52:54.121964+01 | 1486587174.12196 | pgbench_accounts_pkey |        112336896

 2017-02-08 21:52:55.379922+01 | 1486587175.37992 | pgbench_branches_pkey |            16384
 2017-02-08 21:52:55.379922+01 | 1486587175.37992 | pgbench_tellers_pkey  |            32768
 2017-02-08 21:52:55.379922+01 | 1486587175.37992 | pgbench_accounts_pkey |        112336896

 2017-02-08 21:52:56.615223+01 | 1486587176.61522 | pgbench_branches_pkey |            16384
 2017-02-08 21:52:56.615223+01 | 1486587176.61522 | pgbench_tellers_pkey  |            32768
 2017-02-08 21:52:56.615223+01 | 1486587176.61522 | pgbench_accounts_pkey |        112336896

 2017-02-08 21:52:57.799514+01 | 1486587177.79951 | pgbench_branches_pkey |            16384
 2017-02-08 21:52:57.799514+01 | 1486587177.79951 | pgbench_tellers_pkey  |            32768
 2017-02-08 21:52:57.799514+01 | 1486587177.79951 | pgbench_accounts_pkey |        112336896

 2017-02-08 21:52:58.945509+01 | 1486587178.94551 | pgbench_branches_pkey |            16384
 2017-02-08 21:52:58.945509+01 | 1486587178.94551 | pgbench_tellers_pkey  |            32768
 2017-02-08 21:52:58.945509+01 | 1486587178.94551 | pgbench_accounts_pkey |        112336896

 2017-02-08 21:53:00.193056+01 | 1486587180.19306 | pgbench_branches_pkey |            16384
 2017-02-08 21:53:00.193056+01 | 1486587180.19306 | pgbench_tellers_pkey  |            32768
 2017-02-08 21:53:00.193056+01 | 1486587180.19306 | pgbench_accounts_pkey |        112336896

 2017-02-08 21:53:01.409206+01 | 1486587181.40921 | pgbench_branches_pkey |            16384
 2017-02-08 21:53:01.409206+01 | 1486587181.40921 | pgbench_tellers_pkey  |            32768
 2017-02-08 21:53:01.409206+01 | 1486587181.40921 | pgbench_accounts_pkey |        112336896

 2017-02-08 21:53:02.629733+01 | 1486587182.62973 | pgbench_branches_pkey |            16384
 2017-02-08 21:53:02.629733+01 | 1486587182.62973 | pgbench_tellers_pkey  |            32768
 2017-02-08 21:53:02.629733+01 | 1486587182.62973 | pgbench_accounts_pkey |        112336896

 2017-02-08 21:53:03.883687+01 | 1486587183.88369 | pgbench_branches_pkey |            16384
 2017-02-08 21:53:03.883687+01 | 1486587183.88369 | pgbench_tellers_pkey  |            32768
 2017-02-08 21:53:03.883687+01 | 1486587183.88369 | pgbench_accounts_pkey |        112336896

 2017-02-08 21:53:05.144097+01 | 1486587185.1441 | pgbench_branches_pkey |            16384
 2017-02-08 21:53:05.144097+01 | 1486587185.1441 | pgbench_tellers_pkey  |            32768
 2017-02-08 21:53:05.144097+01 | 1486587185.1441 | pgbench_accounts_pkey |        112336896

 2017-02-08 21:53:06.370795+01 | 1486587186.3708 | pgbench_branches_pkey |            16384
 2017-02-08 21:53:06.370795+01 | 1486587186.3708 | pgbench_tellers_pkey  |            32768
 2017-02-08 21:53:06.370795+01 | 1486587186.3708 | pgbench_accounts_pkey |        112336896

 2017-02-08 21:53:07.595599+01 | 1486587187.5956 | pgbench_branches_pkey |            16384
 2017-02-08 21:53:07.595599+01 | 1486587187.5956 | pgbench_tellers_pkey  |            32768
 2017-02-08 21:53:07.595599+01 | 1486587187.5956 | pgbench_accounts_pkey |        112336896

 2017-02-08 21:53:08.801657+01 | 1486587188.80166 | pgbench_branches_pkey |            16384
 2017-02-08 21:53:08.801657+01 | 1486587188.80166 | pgbench_tellers_pkey  |            32768
 2017-02-08 21:53:08.801657+01 | 1486587188.80166 | pgbench_accounts_pkey |        112336896

 2017-02-08 21:53:10.006844+01 | 1486587190.00684 | pgbench_branches_pkey |            16384
 2017-02-08 21:53:10.006844+01 | 1486587190.00684 | pgbench_tellers_pkey  |            32768
 2017-02-08 21:53:10.006844+01 | 1486587190.00684 | pgbench_accounts_pkey |        112336896

 2017-02-08 21:53:11.172764+01 | 1486587191.17276 | pgbench_branches_pkey |            16384
 2017-02-08 21:53:11.172764+01 | 1486587191.17276 | pgbench_tellers_pkey  |            32768
 2017-02-08 21:53:11.172764+01 | 1486587191.17276 | pgbench_accounts_pkey |        112336896

 2017-02-08 21:53:12.408279+01 | 1486587192.40828 | pgbench_branches_pkey |            16384
 2017-02-08 21:53:12.408279+01 | 1486587192.40828 | pgbench_tellers_pkey  |            32768
 2017-02-08 21:53:12.408279+01 | 1486587192.40828 | pgbench_accounts_pkey |        112336896

 2017-02-08 21:53:13.647148+01 | 1486587193.64715 | pgbench_branches_pkey |            16384
 2017-02-08 21:53:13.647148+01 | 1486587193.64715 | pgbench_tellers_pkey  |            32768
 2017-02-08 21:53:13.647148+01 | 1486587193.64715 | pgbench_accounts_pkey |        112336896

 2017-02-08 21:53:14.823132+01 | 1486587194.82313 | pgbench_branches_pkey |            16384
 2017-02-08 21:53:14.823132+01 | 1486587194.82313 | pgbench_tellers_pkey  |            32768
 2017-02-08 21:53:14.823132+01 | 1486587194.82313 | pgbench_accounts_pkey |        112336896

 2017-02-08 21:53:16.027658+01 | 1486587196.02766 | pgbench_branches_pkey |            16384
 2017-02-08 21:53:16.027658+01 | 1486587196.02766 | pgbench_tellers_pkey  |            32768
 2017-02-08 21:53:16.027658+01 | 1486587196.02766 | pgbench_accounts_pkey |        112336896

 2017-02-08 21:53:17.226641+01 | 1486587197.22664 | pgbench_branches_pkey |            16384
 2017-02-08 21:53:17.226641+01 | 1486587197.22664 | pgbench_tellers_pkey  |            32768
 2017-02-08 21:53:17.226641+01 | 1486587197.22664 | pgbench_accounts_pkey |        112336896

 2017-02-08 21:53:18.476124+01 | 1486587198.47612 | pgbench_branches_pkey |            16384
 2017-02-08 21:53:18.476124+01 | 1486587198.47612 | pgbench_tellers_pkey  |            32768
 2017-02-08 21:53:18.476124+01 | 1486587198.47612 | pgbench_accounts_pkey |        112336896

 2017-02-08 21:53:19.669587+01 | 1486587199.66959 | pgbench_branches_pkey |            16384
 2017-02-08 21:53:19.669587+01 | 1486587199.66959 | pgbench_tellers_pkey  |            32768
 2017-02-08 21:53:19.669587+01 | 1486587199.66959 | pgbench_accounts_pkey |        112336896

 2017-02-08 21:53:20.910134+01 | 1486587200.91013 | pgbench_branches_pkey |            16384
 2017-02-08 21:53:20.910134+01 | 1486587200.91013 | pgbench_tellers_pkey  |            32768
 2017-02-08 21:53:20.910134+01 | 1486587200.91013 | pgbench_accounts_pkey |        112336896

 2017-02-08 21:53:22.137035+01 | 1486587202.13703 | pgbench_branches_pkey |            16384
 2017-02-08 21:53:22.137035+01 | 1486587202.13703 | pgbench_tellers_pkey  |            32768
 2017-02-08 21:53:22.137035+01 | 1486587202.13703 | pgbench_accounts_pkey |        112336896

 2017-02-08 21:53:23.372476+01 | 1486587203.37248 | pgbench_branches_pkey |            16384
 2017-02-08 21:53:23.372476+01 | 1486587203.37248 | pgbench_tellers_pkey  |            32768
 2017-02-08 21:53:23.372476+01 | 1486587203.37248 | pgbench_accounts_pkey |        112336896

 2017-02-08 21:53:24.64434+01 | 1486587204.64434 | pgbench_branches_pkey |            16384
 2017-02-08 21:53:24.64434+01 | 1486587204.64434 | pgbench_tellers_pkey  |            32768
 2017-02-08 21:53:24.64434+01 | 1486587204.64434 | pgbench_accounts_pkey |        112336896

 2017-02-08 21:53:25.805106+01 | 1486587205.80511 | pgbench_branches_pkey |            16384
 2017-02-08 21:53:25.805106+01 | 1486587205.80511 | pgbench_tellers_pkey  |            32768
 2017-02-08 21:53:25.805106+01 | 1486587205.80511 | pgbench_accounts_pkey |        112336896

 2017-02-08 21:53:27.047098+01 | 1486587207.0471 | pgbench_branches_pkey |            16384
 2017-02-08 21:53:27.047098+01 | 1486587207.0471 | pgbench_tellers_pkey  |            32768
 2017-02-08 21:53:27.047098+01 | 1486587207.0471 | pgbench_accounts_pkey |        112336896

 2017-02-08 21:53:28.23342+01 | 1486587208.23342 | pgbench_branches_pkey |            16384
 2017-02-08 21:53:28.23342+01 | 1486587208.23342 | pgbench_tellers_pkey  |            32768
 2017-02-08 21:53:28.23342+01 | 1486587208.23342 | pgbench_accounts_pkey |        112336896

 2017-02-08 21:53:29.466944+01 | 1486587209.46694 | pgbench_branches_pkey |            16384
 2017-02-08 21:53:29.466944+01 | 1486587209.46694 | pgbench_tellers_pkey  |            32768
 2017-02-08 21:53:29.466944+01 | 1486587209.46694 | pgbench_accounts_pkey |        112336896

 2017-02-08 21:53:30.693059+01 | 1486587210.69306 | pgbench_branches_pkey |            16384
 2017-02-08 21:53:30.693059+01 | 1486587210.69306 | pgbench_tellers_pkey  |            32768
 2017-02-08 21:53:30.693059+01 | 1486587210.69306 | pgbench_accounts_pkey |        112336896

 2017-02-08 21:53:31.879196+01 | 1486587211.8792 | pgbench_branches_pkey |            16384
 2017-02-08 21:53:31.879196+01 | 1486587211.8792 | pgbench_tellers_pkey  |            32768
 2017-02-08 21:53:31.879196+01 | 1486587211.8792 | pgbench_accounts_pkey |        112336896

 2017-02-08 21:53:33.118942+01 | 1486587213.11894 | pgbench_branches_pkey |            16384
 2017-02-08 21:53:33.118942+01 | 1486587213.11894 | pgbench_tellers_pkey  |            32768
 2017-02-08 21:53:33.118942+01 | 1486587213.11894 | pgbench_accounts_pkey |        112336896

 2017-02-08 21:53:34.314444+01 | 1486587214.31444 | pgbench_branches_pkey |            16384
 2017-02-08 21:53:34.314444+01 | 1486587214.31444 | pgbench_tellers_pkey  |            32768
 2017-02-08 21:53:34.314444+01 | 1486587214.31444 | pgbench_accounts_pkey |        112336896

 2017-02-08 21:53:35.574399+01 | 1486587215.5744 | pgbench_branches_pkey |            16384
 2017-02-08 21:53:35.574399+01 | 1486587215.5744 | pgbench_tellers_pkey  |            32768
 2017-02-08 21:53:35.574399+01 | 1486587215.5744 | pgbench_accounts_pkey |        112336896

 2017-02-08 21:53:36.772078+01 | 1486587216.77208 | pgbench_branches_pkey |            16384
 2017-02-08 21:53:36.772078+01 | 1486587216.77208 | pgbench_tellers_pkey  |            32768
 2017-02-08 21:53:36.772078+01 | 1486587216.77208 | pgbench_accounts_pkey |        112336896

 2017-02-08 21:53:38.038155+01 | 1486587218.03816 | pgbench_branches_pkey |            16384
 2017-02-08 21:53:38.038155+01 | 1486587218.03816 | pgbench_tellers_pkey  |            32768
 2017-02-08 21:53:38.038155+01 | 1486587218.03816 | pgbench_accounts_pkey |        112336896

 2017-02-08 21:53:39.258311+01 | 1486587219.25831 | pgbench_branches_pkey |            16384
 2017-02-08 21:53:39.258311+01 | 1486587219.25831 | pgbench_tellers_pkey  |            32768
 2017-02-08 21:53:39.258311+01 | 1486587219.25831 | pgbench_accounts_pkey |        112336896

 2017-02-08 21:53:40.522177+01 | 1486587220.52218 | pgbench_branches_pkey |            16384
 2017-02-08 21:53:40.522177+01 | 1486587220.52218 | pgbench_tellers_pkey  |            32768
 2017-02-08 21:53:40.522177+01 | 1486587220.52218 | pgbench_accounts_pkey |        112336896

 2017-02-08 21:53:41.674986+01 | 1486587221.67499 | pgbench_branches_pkey |            16384
 2017-02-08 21:53:41.674986+01 | 1486587221.67499 | pgbench_tellers_pkey  |            32768
 2017-02-08 21:53:41.674986+01 | 1486587221.67499 | pgbench_accounts_pkey |        112336896

 2017-02-08 21:53:42.897557+01 | 1486587222.89756 | pgbench_branches_pkey |            16384
 2017-02-08 21:53:42.897557+01 | 1486587222.89756 | pgbench_tellers_pkey  |            32768
 2017-02-08 21:53:42.897557+01 | 1486587222.89756 | pgbench_accounts_pkey |        112336896

 2017-02-08 21:53:44.036215+01 | 1486587224.03622 | pgbench_branches_pkey |            16384
 2017-02-08 21:53:44.036215+01 | 1486587224.03622 | pgbench_tellers_pkey  |            32768
 2017-02-08 21:53:44.036215+01 | 1486587224.03622 | pgbench_accounts_pkey |        112336896

 2017-02-08 21:53:45.172415+01 | 1486587225.17242 | pgbench_branches_pkey |            16384
 2017-02-08 21:53:45.172415+01 | 1486587225.17242 | pgbench_tellers_pkey  |            32768
 2017-02-08 21:53:45.172415+01 | 1486587225.17242 | pgbench_accounts_pkey |        112336896

 2017-02-08 21:53:46.388673+01 | 1486587226.38867 | pgbench_branches_pkey |            16384
 2017-02-08 21:53:46.388673+01 | 1486587226.38867 | pgbench_tellers_pkey  |            32768
 2017-02-08 21:53:46.388673+01 | 1486587226.38867 | pgbench_accounts_pkey |        112336896

 2017-02-08 21:53:47.616406+01 | 1486587227.61641 | pgbench_branches_pkey |            16384
 2017-02-08 21:53:47.616406+01 | 1486587227.61641 | pgbench_tellers_pkey  |            32768
 2017-02-08 21:53:47.616406+01 | 1486587227.61641 | pgbench_accounts_pkey |        112336896

 2017-02-08 21:53:48.803055+01 | 1486587228.80306 | pgbench_branches_pkey |            16384
 2017-02-08 21:53:48.803055+01 | 1486587228.80306 | pgbench_tellers_pkey  |            32768
 2017-02-08 21:53:48.803055+01 | 1486587228.80306 | pgbench_accounts_pkey |        112336896

 2017-02-08 21:53:50.019214+01 | 1486587230.01921 | pgbench_branches_pkey |            16384
 2017-02-08 21:53:50.019214+01 | 1486587230.01921 | pgbench_tellers_pkey  |            32768
 2017-02-08 21:53:50.019214+01 | 1486587230.01921 | pgbench_accounts_pkey |        112336896

 2017-02-08 21:53:51.197441+01 | 1486587231.19744 | pgbench_branches_pkey |            16384
 2017-02-08 21:53:51.197441+01 | 1486587231.19744 | pgbench_tellers_pkey  |            32768
 2017-02-08 21:53:51.197441+01 | 1486587231.19744 | pgbench_accounts_pkey |        112336896

 2017-02-08 21:53:52.398119+01 | 1486587232.39812 | pgbench_branches_pkey |            16384
 2017-02-08 21:53:52.398119+01 | 1486587232.39812 | pgbench_tellers_pkey  |            32768
 2017-02-08 21:53:52.398119+01 | 1486587232.39812 | pgbench_accounts_pkey |        112336896

 2017-02-08 21:53:53.642882+01 | 1486587233.64288 | pgbench_branches_pkey |            16384
 2017-02-08 21:53:53.642882+01 | 1486587233.64288 | pgbench_tellers_pkey  |            32768
 2017-02-08 21:53:53.642882+01 | 1486587233.64288 | pgbench_accounts_pkey |        112336896

 2017-02-08 21:53:54.870105+01 | 1486587234.87011 | pgbench_branches_pkey |            16384
 2017-02-08 21:53:54.870105+01 | 1486587234.87011 | pgbench_tellers_pkey  |            32768
 2017-02-08 21:53:54.870105+01 | 1486587234.87011 | pgbench_accounts_pkey |        112336896

 2017-02-08 21:53:56.026211+01 | 1486587236.02621 | pgbench_branches_pkey |            16384
 2017-02-08 21:53:56.026211+01 | 1486587236.02621 | pgbench_tellers_pkey  |            32768
 2017-02-08 21:53:56.026211+01 | 1486587236.02621 | pgbench_accounts_pkey |        112336896

 2017-02-08 21:53:57.258132+01 | 1486587237.25813 | pgbench_branches_pkey |            16384
 2017-02-08 21:53:57.258132+01 | 1486587237.25813 | pgbench_tellers_pkey  |            32768
 2017-02-08 21:53:57.258132+01 | 1486587237.25813 | pgbench_accounts_pkey |        112336896

 2017-02-08 21:53:58.519443+01 | 1486587238.51944 | pgbench_branches_pkey |            16384
 2017-02-08 21:53:58.519443+01 | 1486587238.51944 | pgbench_tellers_pkey  |            32768
 2017-02-08 21:53:58.519443+01 | 1486587238.51944 | pgbench_accounts_pkey |        112336896

 2017-02-08 21:53:59.759586+01 | 1486587239.75959 | pgbench_branches_pkey |            16384
 2017-02-08 21:53:59.759586+01 | 1486587239.75959 | pgbench_tellers_pkey  |            32768
 2017-02-08 21:53:59.759586+01 | 1486587239.75959 | pgbench_accounts_pkey |        112336896

 2017-02-08 21:54:00.982044+01 | 1486587240.98204 | pgbench_branches_pkey |            16384
 2017-02-08 21:54:00.982044+01 | 1486587240.98204 | pgbench_tellers_pkey  |            32768
 2017-02-08 21:54:00.982044+01 | 1486587240.98204 | pgbench_accounts_pkey |        112336896

 2017-02-08 21:54:02.180454+01 | 1486587242.18045 | pgbench_branches_pkey |            16384
 2017-02-08 21:54:02.180454+01 | 1486587242.18045 | pgbench_tellers_pkey  |            32768
 2017-02-08 21:54:02.180454+01 | 1486587242.18045 | pgbench_accounts_pkey |        112336896

 2017-02-08 21:54:03.389398+01 | 1486587243.3894 | pgbench_branches_pkey |            16384
 2017-02-08 21:54:03.389398+01 | 1486587243.3894 | pgbench_tellers_pkey  |            32768
 2017-02-08 21:54:03.389398+01 | 1486587243.3894 | pgbench_accounts_pkey |        112336896

 2017-02-08 21:54:04.605363+01 | 1486587244.60536 | pgbench_branches_pkey |            16384
 2017-02-08 21:54:04.605363+01 | 1486587244.60536 | pgbench_tellers_pkey  |            32768
 2017-02-08 21:54:04.605363+01 | 1486587244.60536 | pgbench_accounts_pkey |        112336896

 2017-02-08 21:54:05.778785+01 | 1486587245.77878 | pgbench_branches_pkey |            16384
 2017-02-08 21:54:05.778785+01 | 1486587245.77878 | pgbench_tellers_pkey  |            32768
 2017-02-08 21:54:05.778785+01 | 1486587245.77878 | pgbench_accounts_pkey |        112336896

 2017-02-08 21:54:06.919068+01 | 1486587246.91907 | pgbench_branches_pkey |            16384
 2017-02-08 21:54:06.919068+01 | 1486587246.91907 | pgbench_tellers_pkey  |            32768
 2017-02-08 21:54:06.919068+01 | 1486587246.91907 | pgbench_accounts_pkey |        112336896

 2017-02-08 21:54:08.075394+01 | 1486587248.07539 | pgbench_branches_pkey |            16384
 2017-02-08 21:54:08.075394+01 | 1486587248.07539 | pgbench_tellers_pkey  |            32768
 2017-02-08 21:54:08.075394+01 | 1486587248.07539 | pgbench_accounts_pkey |        112336896

 2017-02-08 21:54:09.32517+01 | 1486587249.32517 | pgbench_branches_pkey |            16384
 2017-02-08 21:54:09.32517+01 | 1486587249.32517 | pgbench_tellers_pkey  |            32768
 2017-02-08 21:54:09.32517+01 | 1486587249.32517 | pgbench_accounts_pkey |        112336896

 2017-02-08 21:54:10.52366+01 | 1486587250.52366 | pgbench_branches_pkey |            16384
 2017-02-08 21:54:10.52366+01 | 1486587250.52366 | pgbench_tellers_pkey  |            32768
 2017-02-08 21:54:10.52366+01 | 1486587250.52366 | pgbench_accounts_pkey |        112336896

 2017-02-08 21:54:11.738431+01 | 1486587251.73843 | pgbench_branches_pkey |            16384
 2017-02-08 21:54:11.738431+01 | 1486587251.73843 | pgbench_tellers_pkey  |            32768
 2017-02-08 21:54:11.738431+01 | 1486587251.73843 | pgbench_accounts_pkey |        112336896

 2017-02-08 21:54:12.990597+01 | 1486587252.9906 | pgbench_branches_pkey |            16384
 2017-02-08 21:54:12.990597+01 | 1486587252.9906 | pgbench_tellers_pkey  |            32768
 2017-02-08 21:54:12.990597+01 | 1486587252.9906 | pgbench_accounts_pkey |        112336896

 2017-02-08 21:54:14.194469+01 | 1486587254.19447 | pgbench_branches_pkey |            16384
 2017-02-08 21:54:14.194469+01 | 1486587254.19447 | pgbench_tellers_pkey  |            32768
 2017-02-08 21:54:14.194469+01 | 1486587254.19447 | pgbench_accounts_pkey |        112336896

 2017-02-08 21:54:15.417007+01 | 1486587255.41701 | pgbench_branches_pkey |            16384
 2017-02-08 21:54:15.417007+01 | 1486587255.41701 | pgbench_tellers_pkey  |            32768
 2017-02-08 21:54:15.417007+01 | 1486587255.41701 | pgbench_accounts_pkey |        112336896

 2017-02-08 21:54:16.597767+01 | 1486587256.59777 | pgbench_branches_pkey |            16384
 2017-02-08 21:54:16.597767+01 | 1486587256.59777 | pgbench_tellers_pkey  |            32768
 2017-02-08 21:54:16.597767+01 | 1486587256.59777 | pgbench_accounts_pkey |        112336896

 2017-02-08 21:54:17.820243+01 | 1486587257.82024 | pgbench_branches_pkey |            16384
 2017-02-08 21:54:17.820243+01 | 1486587257.82024 | pgbench_tellers_pkey  |            32768
 2017-02-08 21:54:17.820243+01 | 1486587257.82024 | pgbench_accounts_pkey |        112336896

 2017-02-08 21:54:19.046943+01 | 1486587259.04694 | pgbench_branches_pkey |            16384
 2017-02-08 21:54:19.046943+01 | 1486587259.04694 | pgbench_tellers_pkey  |            32768
 2017-02-08 21:54:19.046943+01 | 1486587259.04694 | pgbench_accounts_pkey |        112336896

 2017-02-08 21:54:20.323511+01 | 1486587260.32351 | pgbench_branches_pkey |            16384
 2017-02-08 21:54:20.323511+01 | 1486587260.32351 | pgbench_tellers_pkey  |            32768
 2017-02-08 21:54:20.323511+01 | 1486587260.32351 | pgbench_accounts_pkey |        112336896

 2017-02-08 21:54:21.537933+01 | 1486587261.53793 | pgbench_branches_pkey |            16384
 2017-02-08 21:54:21.537933+01 | 1486587261.53793 | pgbench_tellers_pkey  |            32768
 2017-02-08 21:54:21.537933+01 | 1486587261.53793 | pgbench_accounts_pkey |        112336896

 2017-02-08 21:54:22.72924+01 | 1486587262.72924 | pgbench_branches_pkey |            16384
 2017-02-08 21:54:22.72924+01 | 1486587262.72924 | pgbench_tellers_pkey  |            32768
 2017-02-08 21:54:22.72924+01 | 1486587262.72924 | pgbench_accounts_pkey |        112336896

 2017-02-08 21:54:24.006988+01 | 1486587264.00699 | pgbench_branches_pkey |            16384
 2017-02-08 21:54:24.006988+01 | 1486587264.00699 | pgbench_tellers_pkey  |            32768
 2017-02-08 21:54:24.006988+01 | 1486587264.00699 | pgbench_accounts_pkey |        112336896

 2017-02-08 21:54:25.218009+01 | 1486587265.21801 | pgbench_branches_pkey |            16384
 2017-02-08 21:54:25.218009+01 | 1486587265.21801 | pgbench_tellers_pkey  |            32768
 2017-02-08 21:54:25.218009+01 | 1486587265.21801 | pgbench_accounts_pkey |        112336896

 2017-02-08 21:54:26.423158+01 | 1486587266.42316 | pgbench_branches_pkey |            16384
 2017-02-08 21:54:26.423158+01 | 1486587266.42316 | pgbench_tellers_pkey  |            32768
 2017-02-08 21:54:26.423158+01 | 1486587266.42316 | pgbench_accounts_pkey |        112336896

 2017-02-08 21:54:27.648762+01 | 1486587267.64876 | pgbench_branches_pkey |            16384
 2017-02-08 21:54:27.648762+01 | 1486587267.64876 | pgbench_tellers_pkey  |            32768
 2017-02-08 21:54:27.648762+01 | 1486587267.64876 | pgbench_accounts_pkey |        112336896

 2017-02-08 21:54:28.847471+01 | 1486587268.84747 | pgbench_branches_pkey |            16384
 2017-02-08 21:54:28.847471+01 | 1486587268.84747 | pgbench_tellers_pkey  |            32768
 2017-02-08 21:54:28.847471+01 | 1486587268.84747 | pgbench_accounts_pkey |        112336896

 2017-02-08 21:54:29.98794+01 | 1486587269.98794 | pgbench_branches_pkey |            16384
 2017-02-08 21:54:29.98794+01 | 1486587269.98794 | pgbench_tellers_pkey  |            32768
 2017-02-08 21:54:29.98794+01 | 1486587269.98794 | pgbench_accounts_pkey |        112336896

 2017-02-08 21:54:31.144223+01 | 1486587271.14422 | pgbench_branches_pkey |            16384
 2017-02-08 21:54:31.144223+01 | 1486587271.14422 | pgbench_tellers_pkey  |            32768
 2017-02-08 21:54:31.144223+01 | 1486587271.14422 | pgbench_accounts_pkey |        112336896

 2017-02-08 21:54:32.351115+01 | 1486587272.35111 | pgbench_branches_pkey |            16384
 2017-02-08 21:54:32.351115+01 | 1486587272.35111 | pgbench_tellers_pkey  |            32768
 2017-02-08 21:54:32.351115+01 | 1486587272.35111 | pgbench_accounts_pkey |        112336896

 2017-02-08 21:54:33.582712+01 | 1486587273.58271 | pgbench_branches_pkey |            16384
 2017-02-08 21:54:33.582712+01 | 1486587273.58271 | pgbench_tellers_pkey  |            32768
 2017-02-08 21:54:33.582712+01 | 1486587273.58271 | pgbench_accounts_pkey |        112336896

 2017-02-08 21:54:34.742808+01 | 1486587274.74281 | pgbench_branches_pkey |            16384
 2017-02-08 21:54:34.742808+01 | 1486587274.74281 | pgbench_tellers_pkey  |            32768
 2017-02-08 21:54:34.742808+01 | 1486587274.74281 | pgbench_accounts_pkey |        112336896

 2017-02-08 21:54:35.94992+01 | 1486587275.94992 | pgbench_branches_pkey |            16384
 2017-02-08 21:54:35.94992+01 | 1486587275.94992 | pgbench_tellers_pkey  |            32768
 2017-02-08 21:54:35.94992+01 | 1486587275.94992 | pgbench_accounts_pkey |        112336896

 2017-02-08 21:54:37.122128+01 | 1486587277.12213 | pgbench_branches_pkey |            16384
 2017-02-08 21:54:37.122128+01 | 1486587277.12213 | pgbench_tellers_pkey  |            32768
 2017-02-08 21:54:37.122128+01 | 1486587277.12213 | pgbench_accounts_pkey |        112336896

 2017-02-08 21:54:38.304327+01 | 1486587278.30433 | pgbench_branches_pkey |            16384
 2017-02-08 21:54:38.304327+01 | 1486587278.30433 | pgbench_tellers_pkey  |            32768
 2017-02-08 21:54:38.304327+01 | 1486587278.30433 | pgbench_accounts_pkey |        112336896

 2017-02-08 21:54:39.457483+01 | 1486587279.45748 | pgbench_branches_pkey |            16384
 2017-02-08 21:54:39.457483+01 | 1486587279.45748 | pgbench_tellers_pkey  |            32768
 2017-02-08 21:54:39.457483+01 | 1486587279.45748 | pgbench_accounts_pkey |        112336896

 2017-02-08 21:54:40.690337+01 | 1486587280.69034 | pgbench_branches_pkey |            16384
 2017-02-08 21:54:40.690337+01 | 1486587280.69034 | pgbench_tellers_pkey  |            32768
 2017-02-08 21:54:40.690337+01 | 1486587280.69034 | pgbench_accounts_pkey |        112336896

 2017-02-08 21:54:41.934108+01 | 1486587281.93411 | pgbench_branches_pkey |            16384
 2017-02-08 21:54:41.934108+01 | 1486587281.93411 | pgbench_tellers_pkey  |            32768
 2017-02-08 21:54:41.934108+01 | 1486587281.93411 | pgbench_accounts_pkey |        112336896

 2017-02-08 21:54:43.104532+01 | 1486587283.10453 | pgbench_branches_pkey |            16384
 2017-02-08 21:54:43.104532+01 | 1486587283.10453 | pgbench_tellers_pkey  |            32768
 2017-02-08 21:54:43.104532+01 | 1486587283.10453 | pgbench_accounts_pkey |        112336896

 2017-02-08 21:54:44.257668+01 | 1486587284.25767 | pgbench_branches_pkey |            16384
 2017-02-08 21:54:44.257668+01 | 1486587284.25767 | pgbench_tellers_pkey  |            32768
 2017-02-08 21:54:44.257668+01 | 1486587284.25767 | pgbench_accounts_pkey |        112336896

 2017-02-08 21:54:45.434716+01 | 1486587285.43472 | pgbench_branches_pkey |            16384
 2017-02-08 21:54:45.434716+01 | 1486587285.43472 | pgbench_tellers_pkey  |            32768
 2017-02-08 21:54:45.434716+01 | 1486587285.43472 | pgbench_accounts_pkey |        112336896

 2017-02-08 21:54:46.649401+01 | 1486587286.6494 | pgbench_branches_pkey |            16384
 2017-02-08 21:54:46.649401+01 | 1486587286.6494 | pgbench_tellers_pkey  |            32768
 2017-02-08 21:54:46.649401+01 | 1486587286.6494 | pgbench_accounts_pkey |        112336896

 2017-02-08 21:54:47.891363+01 | 1486587287.89136 | pgbench_branches_pkey |            16384
 2017-02-08 21:54:47.891363+01 | 1486587287.89136 | pgbench_tellers_pkey  |            32768
 2017-02-08 21:54:47.891363+01 | 1486587287.89136 | pgbench_accounts_pkey |        112336896

 2017-02-08 21:54:49.123496+01 | 1486587289.1235 | pgbench_branches_pkey |            16384
 2017-02-08 21:54:49.123496+01 | 1486587289.1235 | pgbench_tellers_pkey  |            32768
 2017-02-08 21:54:49.123496+01 | 1486587289.1235 | pgbench_accounts_pkey |        112336896

 2017-02-08 21:54:50.371848+01 | 1486587290.37185 | pgbench_branches_pkey |            16384
 2017-02-08 21:54:50.371848+01 | 1486587290.37185 | pgbench_tellers_pkey  |            32768
 2017-02-08 21:54:50.371848+01 | 1486587290.37185 | pgbench_accounts_pkey |        112336896

 2017-02-08 21:54:51.538338+01 | 1486587291.53834 | pgbench_branches_pkey |            16384
 2017-02-08 21:54:51.538338+01 | 1486587291.53834 | pgbench_tellers_pkey  |            32768
 2017-02-08 21:54:51.538338+01 | 1486587291.53834 | pgbench_accounts_pkey |        112336896

 2017-02-08 21:54:52.728176+01 | 1486587292.72818 | pgbench_branches_pkey |            16384
 2017-02-08 21:54:52.728176+01 | 1486587292.72818 | pgbench_tellers_pkey  |            32768
 2017-02-08 21:54:52.728176+01 | 1486587292.72818 | pgbench_accounts_pkey |        112336896

 2017-02-08 21:54:53.906214+01 | 1486587293.90621 | pgbench_branches_pkey |            16384
 2017-02-08 21:54:53.906214+01 | 1486587293.90621 | pgbench_tellers_pkey  |            32768
 2017-02-08 21:54:53.906214+01 | 1486587293.90621 | pgbench_accounts_pkey |        112336896

 2017-02-08 21:54:55.166193+01 | 1486587295.16619 | pgbench_branches_pkey |            16384
 2017-02-08 21:54:55.166193+01 | 1486587295.16619 | pgbench_tellers_pkey  |            32768
 2017-02-08 21:54:55.166193+01 | 1486587295.16619 | pgbench_accounts_pkey |        112336896

 2017-02-08 21:54:56.403303+01 | 1486587296.4033 | pgbench_branches_pkey |            16384
 2017-02-08 21:54:56.403303+01 | 1486587296.4033 | pgbench_tellers_pkey  |            32768
 2017-02-08 21:54:56.403303+01 | 1486587296.4033 | pgbench_accounts_pkey |        112336896

 2017-02-08 21:54:57.594207+01 | 1486587297.59421 | pgbench_branches_pkey |            16384
 2017-02-08 21:54:57.594207+01 | 1486587297.59421 | pgbench_tellers_pkey  |            32768
 2017-02-08 21:54:57.594207+01 | 1486587297.59421 | pgbench_accounts_pkey |        112336896

 2017-02-08 21:54:58.86908+01 | 1486587298.86908 | pgbench_branches_pkey |            16384
 2017-02-08 21:54:58.86908+01 | 1486587298.86908 | pgbench_tellers_pkey  |            32768
 2017-02-08 21:54:58.86908+01 | 1486587298.86908 | pgbench_accounts_pkey |        112336896

 2017-02-08 21:55:00.153243+01 | 1486587300.15324 | pgbench_branches_pkey |            16384
 2017-02-08 21:55:00.153243+01 | 1486587300.15324 | pgbench_tellers_pkey  |            32768
 2017-02-08 21:55:00.153243+01 | 1486587300.15324 | pgbench_accounts_pkey |        112336896

 2017-02-08 21:55:01.399091+01 | 1486587301.39909 | pgbench_branches_pkey |            16384
 2017-02-08 21:55:01.399091+01 | 1486587301.39909 | pgbench_tellers_pkey  |            32768
 2017-02-08 21:55:01.399091+01 | 1486587301.39909 | pgbench_accounts_pkey |        112336896

 2017-02-08 21:55:02.663995+01 | 1486587302.664 | pgbench_branches_pkey |            16384
 2017-02-08 21:55:02.663995+01 | 1486587302.664 | pgbench_tellers_pkey  |            32768
 2017-02-08 21:55:02.663995+01 | 1486587302.664 | pgbench_accounts_pkey |        112336896

 2017-02-08 21:55:03.894237+01 | 1486587303.89424 | pgbench_branches_pkey |            16384
 2017-02-08 21:55:03.894237+01 | 1486587303.89424 | pgbench_tellers_pkey  |            32768
 2017-02-08 21:55:03.894237+01 | 1486587303.89424 | pgbench_accounts_pkey |        112336896

 2017-02-08 21:55:05.074289+01 | 1486587305.07429 | pgbench_branches_pkey |            16384
 2017-02-08 21:55:05.074289+01 | 1486587305.07429 | pgbench_tellers_pkey  |            32768
 2017-02-08 21:55:05.074289+01 | 1486587305.07429 | pgbench_accounts_pkey |        112336896

 2017-02-08 21:55:06.308634+01 | 1486587306.30863 | pgbench_branches_pkey |            16384
 2017-02-08 21:55:06.308634+01 | 1486587306.30863 | pgbench_tellers_pkey  |            32768
 2017-02-08 21:55:06.308634+01 | 1486587306.30863 | pgbench_accounts_pkey |        112336896

 2017-02-08 21:55:07.509006+01 | 1486587307.50901 | pgbench_branches_pkey |            16384
 2017-02-08 21:55:07.509006+01 | 1486587307.50901 | pgbench_tellers_pkey  |            32768
 2017-02-08 21:55:07.509006+01 | 1486587307.50901 | pgbench_accounts_pkey |        112336896

 2017-02-08 21:55:08.739839+01 | 1486587308.73984 | pgbench_branches_pkey |            16384
 2017-02-08 21:55:08.739839+01 | 1486587308.73984 | pgbench_tellers_pkey  |            32768
 2017-02-08 21:55:08.739839+01 | 1486587308.73984 | pgbench_accounts_pkey |        112336896

 2017-02-08 21:55:09.892666+01 | 1486587309.89267 | pgbench_branches_pkey |            16384
 2017-02-08 21:55:09.892666+01 | 1486587309.89267 | pgbench_tellers_pkey  |            32768
 2017-02-08 21:55:09.892666+01 | 1486587309.89267 | pgbench_accounts_pkey |        112336896

