starting vacuum...end.
transaction type: skewed-n.sql
scaling factor: 50
query mode: prepared
number of clients: 16
number of threads: 4
duration: 300 s
number of transactions actually processed: 5555888
latency average = 0.864 ms
tps = 18519.183220 (including connections establishing)
tps = 18519.301055 (excluding connections establishing)
