 2017-02-08 01:24:10.562102+01 | 1486513450.5621 |                 0 |               7 |                    18 |                   23 |               2164 |             0 |                0 |          241878 |                     0 |         96137 | 2017-02-08 00:54:00.126408+01

 2017-02-08 01:24:11.857704+01 | 1486513451.8577 |                 0 |               7 |                    18 |                   23 |               2164 |             0 |                0 |          241878 |                     0 |         96137 | 2017-02-08 00:54:00.126408+01

 2017-02-08 01:24:13.108974+01 | 1486513453.10897 |                 0 |               7 |                    18 |                   23 |               2164 |             0 |                0 |          241878 |                     0 |         96137 | 2017-02-08 00:54:00.126408+01

 2017-02-08 01:24:14.382453+01 | 1486513454.38245 |                 0 |               7 |                    18 |                   23 |               2164 |             0 |                0 |          241878 |                     0 |         96137 | 2017-02-08 00:54:00.126408+01

 2017-02-08 01:24:15.658255+01 | 1486513455.65826 |                 0 |               7 |                    18 |                   23 |               2164 |             0 |                0 |          241878 |                     0 |         96137 | 2017-02-08 00:54:00.126408+01

 2017-02-08 01:24:16.934572+01 | 1486513456.93457 |                 0 |               7 |                    18 |                   23 |               2164 |             0 |                0 |          241878 |                     0 |         96137 | 2017-02-08 00:54:00.126408+01

 2017-02-08 01:24:18.207173+01 | 1486513458.20717 |                 0 |               7 |                    18 |                   23 |               2164 |             0 |                0 |          241878 |                     0 |         96137 | 2017-02-08 00:54:00.126408+01

 2017-02-08 01:24:19.480007+01 | 1486513459.48001 |                 0 |               7 |                    18 |                   23 |               2164 |             0 |                0 |          241878 |                     0 |         96137 | 2017-02-08 00:54:00.126408+01

 2017-02-08 01:24:20.756767+01 | 1486513460.75677 |                 0 |               7 |                    18 |                   23 |               2164 |             0 |                0 |          241878 |                     0 |         96137 | 2017-02-08 00:54:00.126408+01

 2017-02-08 01:24:22.033435+01 | 1486513462.03344 |                 0 |               7 |                    18 |                   23 |               2164 |             0 |                0 |          241878 |                     0 |         96137 | 2017-02-08 00:54:00.126408+01

 2017-02-08 01:24:23.310265+01 | 1486513463.31027 |                 0 |               7 |                    18 |                   23 |               2164 |             0 |                0 |          241878 |                     0 |         96137 | 2017-02-08 00:54:00.126408+01

 2017-02-08 01:24:24.601971+01 | 1486513464.60197 |                 0 |               7 |                    18 |                   23 |               2164 |             0 |                0 |          241878 |                     0 |         96137 | 2017-02-08 00:54:00.126408+01

 2017-02-08 01:24:25.863761+01 | 1486513465.86376 |                 0 |               7 |                    18 |                   23 |               2164 |             0 |                0 |          241878 |                     0 |         96137 | 2017-02-08 00:54:00.126408+01

 2017-02-08 01:24:27.136665+01 | 1486513467.13667 |                 0 |               7 |                    18 |                   23 |               2164 |             0 |                0 |          241878 |                     0 |         96137 | 2017-02-08 00:54:00.126408+01

 2017-02-08 01:24:28.404025+01 | 1486513468.40403 |                 0 |               7 |                    18 |                   23 |               2164 |             0 |                0 |          241878 |                     0 |         96137 | 2017-02-08 00:54:00.126408+01

 2017-02-08 01:24:29.675243+01 | 1486513469.67524 |                 0 |               7 |                    18 |                   23 |               2164 |             0 |                0 |          241878 |                     0 |         96137 | 2017-02-08 00:54:00.126408+01

 2017-02-08 01:24:30.931291+01 | 1486513470.93129 |                 0 |               7 |                    18 |                   23 |               2164 |             0 |                0 |          241878 |                     0 |         96137 | 2017-02-08 00:54:00.126408+01

 2017-02-08 01:24:32.206269+01 | 1486513472.20627 |                 0 |               7 |                    18 |                   23 |               2164 |             0 |                0 |          241878 |                     0 |         96137 | 2017-02-08 00:54:00.126408+01

 2017-02-08 01:24:33.502487+01 | 1486513473.50249 |                 0 |               7 |                    18 |                   23 |               2164 |             0 |                0 |          241878 |                     0 |         96137 | 2017-02-08 00:54:00.126408+01

 2017-02-08 01:24:34.774477+01 | 1486513474.77448 |                 0 |               7 |                    18 |                   23 |               2164 |             0 |                0 |          241878 |                     0 |         96137 | 2017-02-08 00:54:00.126408+01

 2017-02-08 01:24:36.063131+01 | 1486513476.06313 |                 0 |               7 |                    18 |                   23 |               2164 |             0 |                0 |          241878 |                     0 |         96137 | 2017-02-08 00:54:00.126408+01

 2017-02-08 01:24:37.340921+01 | 1486513477.34092 |                 0 |               7 |                    18 |                   23 |               2164 |             0 |                0 |          241878 |                     0 |         96137 | 2017-02-08 00:54:00.126408+01

 2017-02-08 01:24:38.623476+01 | 1486513478.62348 |                 0 |               7 |                    18 |                   23 |               2164 |             0 |                0 |          241878 |                     0 |         96137 | 2017-02-08 00:54:00.126408+01

 2017-02-08 01:24:39.900682+01 | 1486513479.90068 |                 0 |               7 |                    18 |                   23 |               2164 |             0 |                0 |          241878 |                     0 |         96137 | 2017-02-08 00:54:00.126408+01

 2017-02-08 01:24:41.178187+01 | 1486513481.17819 |                 0 |               7 |                    18 |                   23 |               2164 |             0 |                0 |          241878 |                     0 |         96137 | 2017-02-08 00:54:00.126408+01

 2017-02-08 01:24:42.455473+01 | 1486513482.45547 |                 0 |               7 |                    18 |                   23 |               2164 |             0 |                0 |          241878 |                     0 |         96137 | 2017-02-08 00:54:00.126408+01

 2017-02-08 01:24:43.736195+01 | 1486513483.7362 |                 0 |               7 |                    18 |                   23 |               2164 |             0 |                0 |          241878 |                     0 |         96137 | 2017-02-08 00:54:00.126408+01

 2017-02-08 01:24:45.01249+01 | 1486513485.01249 |                 0 |               7 |                    18 |                   23 |               2164 |             0 |                0 |          241878 |                     0 |         96137 | 2017-02-08 00:54:00.126408+01

 2017-02-08 01:24:46.288896+01 | 1486513486.2889 |                 0 |               7 |                    18 |                   23 |               2164 |             0 |                0 |          241878 |                     0 |         96137 | 2017-02-08 00:54:00.126408+01

 2017-02-08 01:24:47.568933+01 | 1486513487.56893 |                 0 |               7 |                    18 |                   23 |               2164 |             0 |                0 |          241878 |                     0 |         96137 | 2017-02-08 00:54:00.126408+01

 2017-02-08 01:24:48.849103+01 | 1486513488.8491 |                 0 |               7 |                    18 |                   23 |               2164 |             0 |                0 |          241878 |                     0 |         96137 | 2017-02-08 00:54:00.126408+01

 2017-02-08 01:24:50.131655+01 | 1486513490.13165 |                 0 |               7 |                    18 |                   23 |               2164 |             0 |                0 |          241878 |                     0 |         96137 | 2017-02-08 00:54:00.126408+01

 2017-02-08 01:24:51.405851+01 | 1486513491.40585 |                 0 |               7 |                    18 |                   23 |               2164 |             0 |                0 |          241878 |                     0 |         96137 | 2017-02-08 00:54:00.126408+01

 2017-02-08 01:24:52.685209+01 | 1486513492.68521 |                 0 |               7 |                    18 |                   23 |               2164 |             0 |                0 |          241878 |                     0 |         96137 | 2017-02-08 00:54:00.126408+01

 2017-02-08 01:24:53.965828+01 | 1486513493.96583 |                 0 |               7 |                    18 |                   23 |               2164 |             0 |                0 |          241878 |                     0 |         96137 | 2017-02-08 00:54:00.126408+01

 2017-02-08 01:24:55.251251+01 | 1486513495.25125 |                 0 |               7 |                    18 |                   23 |               2164 |             0 |                0 |          241878 |                     0 |         96137 | 2017-02-08 00:54:00.126408+01

 2017-02-08 01:24:56.529116+01 | 1486513496.52912 |                 0 |               7 |                    18 |                   23 |               2164 |             0 |                0 |          241878 |                     0 |         96137 | 2017-02-08 00:54:00.126408+01

 2017-02-08 01:24:57.80598+01 | 1486513497.80598 |                 0 |               7 |                    18 |                   23 |               2164 |             0 |                0 |          241878 |                     0 |         96137 | 2017-02-08 00:54:00.126408+01

 2017-02-08 01:24:59.086219+01 | 1486513499.08622 |                 0 |               7 |                    18 |                   23 |               2164 |             0 |                0 |          241878 |                     0 |         96137 | 2017-02-08 00:54:00.126408+01

 2017-02-08 01:25:00.34944+01 | 1486513500.34944 |                 0 |               7 |                    18 |                   23 |               2164 |             0 |                0 |          241878 |                     0 |         96137 | 2017-02-08 00:54:00.126408+01

 2017-02-08 01:25:01.627442+01 | 1486513501.62744 |                 0 |               7 |                    18 |                   23 |               2164 |             0 |                0 |          241878 |                     0 |         96137 | 2017-02-08 00:54:00.126408+01

 2017-02-08 01:25:02.893687+01 | 1486513502.89369 |                 0 |               7 |                    18 |                   23 |               2164 |             0 |                0 |          241878 |                     0 |         96137 | 2017-02-08 00:54:00.126408+01

 2017-02-08 01:25:04.171001+01 | 1486513504.171 |                 0 |               7 |                    18 |                   23 |               2164 |             0 |                0 |          241878 |                     0 |         96137 | 2017-02-08 00:54:00.126408+01

 2017-02-08 01:25:05.450988+01 | 1486513505.45099 |                 0 |               7 |                    18 |                   23 |               2164 |             0 |                0 |          241878 |                     0 |         96137 | 2017-02-08 00:54:00.126408+01

 2017-02-08 01:25:06.729297+01 | 1486513506.7293 |                 0 |               7 |                    18 |                   23 |               2164 |             0 |                0 |          241878 |                     0 |         96137 | 2017-02-08 00:54:00.126408+01

 2017-02-08 01:25:08.013356+01 | 1486513508.01336 |                 0 |               7 |                    18 |                   23 |               2164 |             0 |                0 |          241878 |                     0 |         96137 | 2017-02-08 00:54:00.126408+01

 2017-02-08 01:25:09.293449+01 | 1486513509.29345 |                 0 |               7 |                    18 |                   23 |               2164 |             0 |                0 |          241878 |                     0 |         96137 | 2017-02-08 00:54:00.126408+01

 2017-02-08 01:25:10.573755+01 | 1486513510.57376 |                 0 |               7 |                    18 |                   23 |               2164 |             0 |                0 |          241878 |                     0 |         96137 | 2017-02-08 00:54:00.126408+01

 2017-02-08 01:25:11.892642+01 | 1486513511.89264 |                 0 |               7 |                    18 |                   23 |               2164 |             0 |                0 |          241878 |                     0 |         96137 | 2017-02-08 00:54:00.126408+01

 2017-02-08 01:25:13.163808+01 | 1486513513.16381 |                 0 |               7 |                    18 |                   23 |               2164 |             0 |                0 |          241878 |                     0 |         96137 | 2017-02-08 00:54:00.126408+01

 2017-02-08 01:25:14.445588+01 | 1486513514.44559 |                 0 |               7 |                    18 |                   23 |               2164 |             0 |                0 |          241878 |                     0 |         96137 | 2017-02-08 00:54:00.126408+01

 2017-02-08 01:25:15.65773+01 | 1486513515.65773 |                 0 |               7 |                    18 |                   23 |               2164 |             0 |                0 |          241878 |                     0 |         96137 | 2017-02-08 00:54:00.126408+01

 2017-02-08 01:25:16.933072+01 | 1486513516.93307 |                 0 |               7 |                    18 |                   23 |               2164 |             0 |                0 |          241878 |                     0 |         96137 | 2017-02-08 00:54:00.126408+01

 2017-02-08 01:25:18.207948+01 | 1486513518.20795 |                 0 |               7 |                    18 |                   23 |               2164 |             0 |                0 |          241878 |                     0 |         96137 | 2017-02-08 00:54:00.126408+01

 2017-02-08 01:25:19.480159+01 | 1486513519.48016 |                 0 |               7 |                    18 |                   23 |               2164 |             0 |                0 |          241878 |                     0 |         96137 | 2017-02-08 00:54:00.126408+01

 2017-02-08 01:25:20.760548+01 | 1486513520.76055 |                 0 |               7 |                    18 |                   23 |               2164 |             0 |                0 |          241878 |                     0 |         96137 | 2017-02-08 00:54:00.126408+01

 2017-02-08 01:25:22.044281+01 | 1486513522.04428 |                 0 |               7 |                    18 |                   23 |               2164 |             0 |                0 |          241878 |                     0 |         96137 | 2017-02-08 00:54:00.126408+01

 2017-02-08 01:25:23.329653+01 | 1486513523.32965 |                 0 |               7 |                    18 |                   23 |               2164 |             0 |                0 |          241878 |                     0 |         96137 | 2017-02-08 00:54:00.126408+01

 2017-02-08 01:25:24.608922+01 | 1486513524.60892 |                 0 |               7 |                    18 |                   23 |               2164 |             0 |                0 |          241878 |                     0 |         96137 | 2017-02-08 00:54:00.126408+01

 2017-02-08 01:25:25.893301+01 | 1486513525.8933 |                 0 |               7 |                    18 |                   23 |               2164 |             0 |                0 |          241878 |                     0 |         96137 | 2017-02-08 00:54:00.126408+01

 2017-02-08 01:25:27.170121+01 | 1486513527.17012 |                 0 |               7 |                    18 |                   23 |               2164 |             0 |                0 |          241878 |                     0 |         96137 | 2017-02-08 00:54:00.126408+01

 2017-02-08 01:25:28.449591+01 | 1486513528.44959 |                 0 |               7 |                    18 |                   23 |               2164 |             0 |                0 |          241878 |                     0 |         96137 | 2017-02-08 00:54:00.126408+01

 2017-02-08 01:25:29.729691+01 | 1486513529.72969 |                 0 |               7 |                    18 |                   23 |               2164 |             0 |                0 |          241878 |                     0 |         96137 | 2017-02-08 00:54:00.126408+01

 2017-02-08 01:25:31.005079+01 | 1486513531.00508 |                 0 |               7 |                    18 |                   23 |               2164 |             0 |                0 |          241878 |                     0 |         96137 | 2017-02-08 00:54:00.126408+01

 2017-02-08 01:25:32.290091+01 | 1486513532.29009 |                 0 |               7 |                    18 |                   23 |               2164 |             0 |                0 |          241878 |                     0 |         96137 | 2017-02-08 00:54:00.126408+01

 2017-02-08 01:25:33.566798+01 | 1486513533.5668 |                 0 |               7 |                    18 |                   23 |               2164 |             0 |                0 |          241878 |                     0 |         96137 | 2017-02-08 00:54:00.126408+01

 2017-02-08 01:25:34.820468+01 | 1486513534.82047 |                 0 |               7 |                    18 |                   23 |               2164 |             0 |                0 |          241878 |                     0 |         96137 | 2017-02-08 00:54:00.126408+01

 2017-02-08 01:25:36.09231+01 | 1486513536.09231 |                 0 |               7 |                    18 |                   23 |               2164 |             0 |                0 |          241878 |                     0 |         96137 | 2017-02-08 00:54:00.126408+01

 2017-02-08 01:25:37.373544+01 | 1486513537.37354 |                 0 |               7 |                    18 |                   23 |               2164 |             0 |                0 |          241878 |                     0 |         96137 | 2017-02-08 00:54:00.126408+01

 2017-02-08 01:25:38.655782+01 | 1486513538.65578 |                 0 |               7 |                    18 |                   23 |               2164 |             0 |                0 |          241878 |                     0 |         96137 | 2017-02-08 00:54:00.126408+01

 2017-02-08 01:25:39.942209+01 | 1486513539.94221 |                 0 |               7 |                    18 |                   23 |               2164 |             0 |                0 |          241878 |                     0 |         96137 | 2017-02-08 00:54:00.126408+01

 2017-02-08 01:25:41.219812+01 | 1486513541.21981 |                 0 |               7 |                    18 |                   23 |               2164 |             0 |                0 |          241878 |                     0 |         96137 | 2017-02-08 00:54:00.126408+01

 2017-02-08 01:25:42.500083+01 | 1486513542.50008 |                 0 |               7 |                    18 |                   23 |               2164 |             0 |                0 |          241878 |                     0 |         96137 | 2017-02-08 00:54:00.126408+01

 2017-02-08 01:25:43.779206+01 | 1486513543.77921 |                 0 |               7 |                    18 |                   23 |               2164 |             0 |                0 |          241878 |                     0 |         96137 | 2017-02-08 00:54:00.126408+01

 2017-02-08 01:25:45.056354+01 | 1486513545.05635 |                 0 |               7 |                    18 |                   23 |               2164 |             0 |                0 |          241878 |                     0 |         96137 | 2017-02-08 00:54:00.126408+01

 2017-02-08 01:25:46.3335+01 | 1486513546.3335 |                 0 |               7 |                    18 |                   23 |               2164 |             0 |                0 |          241878 |                     0 |         96137 | 2017-02-08 00:54:00.126408+01

 2017-02-08 01:25:47.594919+01 | 1486513547.59492 |                 0 |               7 |                    18 |                   23 |               2164 |             0 |                0 |          241878 |                     0 |         96137 | 2017-02-08 00:54:00.126408+01

 2017-02-08 01:25:48.87152+01 | 1486513548.87152 |                 0 |               7 |                    18 |                   23 |               2164 |             0 |                0 |          241878 |                     0 |         96137 | 2017-02-08 00:54:00.126408+01

 2017-02-08 01:25:50.146265+01 | 1486513550.14627 |                 0 |               7 |                    18 |                   23 |               2164 |             0 |                0 |          241878 |                     0 |         96137 | 2017-02-08 00:54:00.126408+01

 2017-02-08 01:25:51.428954+01 | 1486513551.42895 |                 0 |               7 |                    18 |                   23 |               2164 |             0 |                0 |          241878 |                     0 |         96137 | 2017-02-08 00:54:00.126408+01

 2017-02-08 01:25:52.711548+01 | 1486513552.71155 |                 0 |               7 |                    18 |                   23 |               2164 |             0 |                0 |          241878 |                     0 |         96137 | 2017-02-08 00:54:00.126408+01

 2017-02-08 01:25:53.992772+01 | 1486513553.99277 |                 0 |               7 |                    18 |                   23 |               2164 |             0 |                0 |          241878 |                     0 |         96137 | 2017-02-08 00:54:00.126408+01

 2017-02-08 01:25:55.270986+01 | 1486513555.27099 |                 0 |               7 |                    18 |                   23 |               2164 |             0 |                0 |          241878 |                     0 |         96137 | 2017-02-08 00:54:00.126408+01

 2017-02-08 01:25:56.554935+01 | 1486513556.55493 |                 0 |               7 |                    18 |                   23 |               2164 |             0 |                0 |          241878 |                     0 |         96137 | 2017-02-08 00:54:00.126408+01

 2017-02-08 01:25:57.839901+01 | 1486513557.8399 |                 0 |               7 |                    18 |                   23 |               2164 |             0 |                0 |          241878 |                     0 |         96137 | 2017-02-08 00:54:00.126408+01

 2017-02-08 01:25:59.117981+01 | 1486513559.11798 |                 0 |               7 |                    18 |                   23 |               2164 |             0 |                0 |          241878 |                     0 |         96137 | 2017-02-08 00:54:00.126408+01

 2017-02-08 01:26:00.39357+01 | 1486513560.39357 |                 0 |               7 |                    18 |                   23 |               2164 |             0 |                0 |          241878 |                     0 |         96137 | 2017-02-08 00:54:00.126408+01

 2017-02-08 01:26:01.680684+01 | 1486513561.68068 |                 0 |               7 |                    18 |                   23 |               2164 |             0 |                0 |          241878 |                     0 |         96137 | 2017-02-08 00:54:00.126408+01

 2017-02-08 01:26:02.948785+01 | 1486513562.94879 |                 0 |               7 |                    18 |                   23 |               2164 |             0 |                0 |          241878 |                     0 |         96137 | 2017-02-08 00:54:00.126408+01

 2017-02-08 01:26:04.220414+01 | 1486513564.22041 |                 0 |               7 |                    18 |                   23 |               2164 |             0 |                0 |          241878 |                     0 |         96137 | 2017-02-08 00:54:00.126408+01

 2017-02-08 01:26:05.501028+01 | 1486513565.50103 |                 0 |               7 |                    18 |                   23 |               2164 |             0 |                0 |          241878 |                     0 |         96137 | 2017-02-08 00:54:00.126408+01

 2017-02-08 01:26:06.77098+01 | 1486513566.77098 |                 0 |               7 |                    18 |                   23 |               2164 |             0 |                0 |          241878 |                     0 |         96137 | 2017-02-08 00:54:00.126408+01

 2017-02-08 01:26:08.026868+01 | 1486513568.02687 |                 0 |               7 |                    18 |                   23 |               2164 |             0 |                0 |          241878 |                     0 |         96137 | 2017-02-08 00:54:00.126408+01

 2017-02-08 01:26:09.295796+01 | 1486513569.2958 |                 0 |               7 |                    18 |                   23 |               2164 |             0 |                0 |          241878 |                     0 |         96137 | 2017-02-08 00:54:00.126408+01

 2017-02-08 01:26:10.556214+01 | 1486513570.55621 |                 0 |               7 |                    18 |                   23 |               2164 |             0 |                0 |          241878 |                     0 |         96137 | 2017-02-08 00:54:00.126408+01

 2017-02-08 01:26:11.842292+01 | 1486513571.84229 |                 0 |               7 |                    18 |                   23 |               2164 |             0 |                0 |          241878 |                     0 |         96137 | 2017-02-08 00:54:00.126408+01

 2017-02-08 01:26:13.135299+01 | 1486513573.1353 |                 0 |               7 |                    18 |                   23 |               2164 |             0 |                0 |          241878 |                     0 |         96137 | 2017-02-08 00:54:00.126408+01

 2017-02-08 01:26:14.419676+01 | 1486513574.41968 |                 0 |               7 |                    18 |                   23 |               2164 |             0 |                0 |          241878 |                     0 |         96137 | 2017-02-08 00:54:00.126408+01

 2017-02-08 01:26:15.704771+01 | 1486513575.70477 |                 0 |               7 |                    18 |                   23 |               2164 |             0 |                0 |          241878 |                     0 |         96137 | 2017-02-08 00:54:00.126408+01

 2017-02-08 01:26:16.986972+01 | 1486513576.98697 |                 0 |               7 |                    18 |                   23 |               2164 |             0 |                0 |          241878 |                     0 |         96137 | 2017-02-08 00:54:00.126408+01

 2017-02-08 01:26:18.259035+01 | 1486513578.25904 |                 0 |               7 |                    18 |                   23 |               2164 |             0 |                0 |          241878 |                     0 |         96137 | 2017-02-08 00:54:00.126408+01

 2017-02-08 01:26:19.536854+01 | 1486513579.53685 |                 0 |               7 |                    18 |                   23 |               2164 |             0 |                0 |          241878 |                     0 |         96137 | 2017-02-08 00:54:00.126408+01

 2017-02-08 01:26:20.818042+01 | 1486513580.81804 |                 0 |               7 |                    18 |                   23 |               2164 |             0 |                0 |          241878 |                     0 |         96137 | 2017-02-08 00:54:00.126408+01

 2017-02-08 01:26:22.102043+01 | 1486513582.10204 |                 0 |               7 |                    18 |                   23 |               2164 |             0 |                0 |          241878 |                     0 |         96137 | 2017-02-08 00:54:00.126408+01

 2017-02-08 01:26:23.38071+01 | 1486513583.38071 |                 0 |               7 |                    18 |                   23 |               2164 |             0 |                0 |          241878 |                     0 |         96137 | 2017-02-08 00:54:00.126408+01

 2017-02-08 01:26:24.649712+01 | 1486513584.64971 |                 0 |               7 |                    18 |                   23 |               2164 |             0 |                0 |          241878 |                     0 |         96137 | 2017-02-08 00:54:00.126408+01

 2017-02-08 01:26:25.921654+01 | 1486513585.92165 |                 0 |               7 |                    18 |                   23 |               2164 |             0 |                0 |          241878 |                     0 |         96137 | 2017-02-08 00:54:00.126408+01

 2017-02-08 01:26:27.188658+01 | 1486513587.18866 |                 0 |               7 |                    18 |                   23 |               2164 |             0 |                0 |          241878 |                     0 |         96137 | 2017-02-08 00:54:00.126408+01

 2017-02-08 01:26:28.466929+01 | 1486513588.46693 |                 0 |               7 |                    18 |                   23 |               2164 |             0 |                0 |          241878 |                     0 |         96137 | 2017-02-08 00:54:00.126408+01

 2017-02-08 01:26:29.749595+01 | 1486513589.74959 |                 0 |               7 |                    18 |                   23 |               2164 |             0 |                0 |          241878 |                     0 |         96137 | 2017-02-08 00:54:00.126408+01

 2017-02-08 01:26:31.027856+01 | 1486513591.02786 |                 0 |               7 |                    18 |                   23 |               2164 |             0 |                0 |          241878 |                     0 |         96137 | 2017-02-08 00:54:00.126408+01

 2017-02-08 01:26:32.300918+01 | 1486513592.30092 |                 0 |               7 |                    18 |                   23 |               2164 |             0 |                0 |          241878 |                     0 |         96137 | 2017-02-08 00:54:00.126408+01

 2017-02-08 01:26:33.574795+01 | 1486513593.5748 |                 0 |               7 |                    18 |                   23 |               2164 |             0 |                0 |          241878 |                     0 |         96137 | 2017-02-08 00:54:00.126408+01

 2017-02-08 01:26:34.846048+01 | 1486513594.84605 |                 0 |               7 |                    18 |                   23 |               2164 |             0 |                0 |          241878 |                     0 |         96137 | 2017-02-08 00:54:00.126408+01

 2017-02-08 01:26:36.126962+01 | 1486513596.12696 |                 0 |               7 |                    18 |                   23 |               2164 |             0 |                0 |          241878 |                     0 |         96137 | 2017-02-08 00:54:00.126408+01

 2017-02-08 01:26:37.4053+01 | 1486513597.4053 |                 0 |               7 |                    18 |                   23 |               2164 |             0 |                0 |          241878 |                     0 |         96137 | 2017-02-08 00:54:00.126408+01

 2017-02-08 01:26:38.681365+01 | 1486513598.68137 |                 0 |               7 |                    18 |                   23 |               2164 |             0 |                0 |          241878 |                     0 |         96137 | 2017-02-08 00:54:00.126408+01

 2017-02-08 01:26:39.958195+01 | 1486513599.95819 |                 0 |               7 |                    18 |                   23 |               2164 |             0 |                0 |          241878 |                     0 |         96137 | 2017-02-08 00:54:00.126408+01

 2017-02-08 01:26:41.233565+01 | 1486513601.23357 |                 0 |               7 |                    18 |                   23 |               2164 |             0 |                0 |          241878 |                     0 |         96137 | 2017-02-08 00:54:00.126408+01

 2017-02-08 01:26:42.508882+01 | 1486513602.50888 |                 0 |               7 |                    18 |                   23 |               2164 |             0 |                0 |          241878 |                     0 |         96137 | 2017-02-08 00:54:00.126408+01

 2017-02-08 01:26:43.787576+01 | 1486513603.78758 |                 0 |               7 |                    18 |                   23 |               2164 |             0 |                0 |          241878 |                     0 |         96137 | 2017-02-08 00:54:00.126408+01

 2017-02-08 01:26:45.067786+01 | 1486513605.06779 |                 0 |               7 |                    18 |                   23 |               2164 |             0 |                0 |          241878 |                     0 |         96137 | 2017-02-08 00:54:00.126408+01

 2017-02-08 01:26:46.350154+01 | 1486513606.35015 |                 0 |               7 |                    18 |                   23 |               2164 |             0 |                0 |          241878 |                     0 |         96137 | 2017-02-08 00:54:00.126408+01

 2017-02-08 01:26:47.626257+01 | 1486513607.62626 |                 0 |               7 |                    18 |                   23 |               2164 |             0 |                0 |          241878 |                     0 |         96137 | 2017-02-08 00:54:00.126408+01

 2017-02-08 01:26:48.904607+01 | 1486513608.90461 |                 0 |               7 |                    18 |                   23 |               2164 |             0 |                0 |          241878 |                     0 |         96137 | 2017-02-08 00:54:00.126408+01

 2017-02-08 01:26:50.182313+01 | 1486513610.18231 |                 0 |               7 |                    18 |                   23 |               2164 |             0 |                0 |          241878 |                     0 |         96137 | 2017-02-08 00:54:00.126408+01

 2017-02-08 01:26:51.467002+01 | 1486513611.467 |                 0 |               7 |                    18 |                   23 |               2164 |             0 |                0 |          241878 |                     0 |         96137 | 2017-02-08 00:54:00.126408+01

 2017-02-08 01:26:52.74317+01 | 1486513612.74317 |                 0 |               7 |                    18 |                   23 |               2164 |             0 |                0 |          241878 |                     0 |         96137 | 2017-02-08 00:54:00.126408+01

 2017-02-08 01:26:54.011408+01 | 1486513614.01141 |                 0 |               7 |                    18 |                   23 |               2164 |             0 |                0 |          241878 |                     0 |         96137 | 2017-02-08 00:54:00.126408+01

 2017-02-08 01:26:55.277246+01 | 1486513615.27725 |                 0 |               7 |                    18 |                   23 |               2164 |             0 |                0 |          241878 |                     0 |         96137 | 2017-02-08 00:54:00.126408+01

 2017-02-08 01:26:56.583396+01 | 1486513616.5834 |                 0 |               7 |                    18 |                   23 |               2164 |             0 |                0 |          241878 |                     0 |         96137 | 2017-02-08 00:54:00.126408+01

 2017-02-08 01:26:57.90455+01 | 1486513617.90455 |                 0 |               7 |                    18 |                   23 |               2164 |             0 |                0 |          241878 |                     0 |         96137 | 2017-02-08 00:54:00.126408+01

 2017-02-08 01:26:59.18292+01 | 1486513619.18292 |                 0 |               7 |                    18 |                   23 |               2164 |             0 |                0 |          241878 |                     0 |         96137 | 2017-02-08 00:54:00.126408+01

 2017-02-08 01:27:00.446232+01 | 1486513620.44623 |                 0 |               7 |                    18 |                   23 |               2164 |             0 |                0 |          241878 |                     0 |         96137 | 2017-02-08 00:54:00.126408+01

 2017-02-08 01:27:01.725302+01 | 1486513621.7253 |                 0 |               7 |                    18 |                   23 |               2164 |             0 |                0 |          241878 |                     0 |         96137 | 2017-02-08 00:54:00.126408+01

 2017-02-08 01:27:02.919781+01 | 1486513622.91978 |                 0 |               7 |                    18 |                   23 |               2164 |             0 |                0 |          241878 |                     0 |         96137 | 2017-02-08 00:54:00.126408+01

 2017-02-08 01:27:04.194203+01 | 1486513624.1942 |                 0 |               7 |                    18 |                   23 |               2164 |             0 |                0 |          241878 |                     0 |         96137 | 2017-02-08 00:54:00.126408+01

 2017-02-08 01:27:05.472492+01 | 1486513625.47249 |                 0 |               7 |                    18 |                   23 |               2164 |             0 |                0 |          241878 |                     0 |         96137 | 2017-02-08 00:54:00.126408+01

 2017-02-08 01:27:06.752753+01 | 1486513626.75275 |                 0 |               7 |                    18 |                   23 |               2164 |             0 |                0 |          241878 |                     0 |         96137 | 2017-02-08 00:54:00.126408+01

 2017-02-08 01:27:08.034304+01 | 1486513628.0343 |                 0 |               7 |                    18 |                   23 |               2164 |             0 |                0 |          241878 |                     0 |         96137 | 2017-02-08 00:54:00.126408+01

 2017-02-08 01:27:09.319991+01 | 1486513629.31999 |                 0 |               7 |                    18 |                   23 |               2164 |             0 |                0 |          241878 |                     0 |         96137 | 2017-02-08 00:54:00.126408+01

 2017-02-08 01:27:10.595856+01 | 1486513630.59586 |                 0 |               7 |                    18 |                   23 |               2164 |             0 |                0 |          241878 |                     0 |         96137 | 2017-02-08 00:54:00.126408+01

 2017-02-08 01:27:11.8776+01 | 1486513631.8776 |                 0 |               7 |                    18 |                   23 |               2164 |             0 |                0 |          241878 |                     0 |         96137 | 2017-02-08 00:54:00.126408+01

 2017-02-08 01:27:13.160025+01 | 1486513633.16002 |                 0 |               7 |                    18 |                   23 |               2164 |             0 |                0 |          241878 |                     0 |         96137 | 2017-02-08 00:54:00.126408+01

 2017-02-08 01:27:14.440814+01 | 1486513634.44081 |                 0 |               7 |                    18 |                   23 |               2164 |             0 |                0 |          241878 |                     0 |         96137 | 2017-02-08 00:54:00.126408+01

 2017-02-08 01:27:15.716855+01 | 1486513635.71686 |                 0 |               7 |                    18 |                   23 |               2164 |             0 |                0 |          241878 |                     0 |         96137 | 2017-02-08 00:54:00.126408+01

 2017-02-08 01:27:17.00845+01 | 1486513637.00845 |                 0 |               7 |                    18 |                   23 |               2164 |             0 |                0 |          241878 |                     0 |         96137 | 2017-02-08 00:54:00.126408+01

 2017-02-08 01:27:18.288452+01 | 1486513638.28845 |                 0 |               7 |                    18 |                   23 |               2164 |             0 |                0 |          241878 |                     0 |         96137 | 2017-02-08 00:54:00.126408+01

 2017-02-08 01:27:19.566617+01 | 1486513639.56662 |                 0 |               7 |                    18 |                   23 |               2164 |             0 |                0 |          241878 |                     0 |         96137 | 2017-02-08 00:54:00.126408+01

 2017-02-08 01:27:20.842558+01 | 1486513640.84256 |                 0 |               7 |                    18 |                   23 |               2164 |             0 |                0 |          241878 |                     0 |         96137 | 2017-02-08 00:54:00.126408+01

 2017-02-08 01:27:22.119915+01 | 1486513642.11992 |                 0 |               7 |                    18 |                   23 |               2164 |             0 |                0 |          241878 |                     0 |         96137 | 2017-02-08 00:54:00.126408+01

 2017-02-08 01:27:23.398659+01 | 1486513643.39866 |                 0 |               7 |                    18 |                   23 |               2164 |             0 |                0 |          241878 |                     0 |         96137 | 2017-02-08 00:54:00.126408+01

 2017-02-08 01:27:24.656862+01 | 1486513644.65686 |                 0 |               7 |                    18 |                   23 |               2164 |             0 |                0 |          241878 |                     0 |         96137 | 2017-02-08 00:54:00.126408+01

 2017-02-08 01:27:25.941602+01 | 1486513645.9416 |                 0 |               7 |                    18 |                   23 |               2164 |             0 |                0 |          241878 |                     0 |         96137 | 2017-02-08 00:54:00.126408+01

 2017-02-08 01:27:27.221988+01 | 1486513647.22199 |                 0 |               7 |                    18 |                   23 |               2164 |             0 |                0 |          241878 |                     0 |         96137 | 2017-02-08 00:54:00.126408+01

 2017-02-08 01:27:28.489035+01 | 1486513648.48903 |                 0 |               7 |                    18 |                   23 |               2164 |             0 |                0 |          241878 |                     0 |         96137 | 2017-02-08 00:54:00.126408+01

 2017-02-08 01:27:29.742263+01 | 1486513649.74226 |                 0 |               7 |                    18 |                   23 |               2164 |             0 |                0 |          241878 |                     0 |         96137 | 2017-02-08 00:54:00.126408+01

 2017-02-08 01:27:31.0138+01 | 1486513651.0138 |                 0 |               7 |                    18 |                   23 |               2164 |             0 |                0 |          241878 |                     0 |         96137 | 2017-02-08 00:54:00.126408+01

 2017-02-08 01:27:32.287397+01 | 1486513652.2874 |                 0 |               7 |                    18 |                   23 |               2164 |             0 |                0 |          241878 |                     0 |         96137 | 2017-02-08 00:54:00.126408+01

 2017-02-08 01:27:33.560238+01 | 1486513653.56024 |                 0 |               7 |                    18 |                   23 |               2164 |             0 |                0 |          241878 |                     0 |         96137 | 2017-02-08 00:54:00.126408+01

 2017-02-08 01:27:34.83993+01 | 1486513654.83993 |                 0 |               7 |                    18 |                   23 |               2164 |             0 |                0 |          241878 |                     0 |         96137 | 2017-02-08 00:54:00.126408+01

 2017-02-08 01:27:36.120183+01 | 1486513656.12018 |                 0 |               7 |                    18 |                   23 |               2164 |             0 |                0 |          241878 |                     0 |         96137 | 2017-02-08 00:54:00.126408+01

 2017-02-08 01:27:37.395371+01 | 1486513657.39537 |                 0 |               7 |                    18 |                   23 |               2164 |             0 |                0 |          241878 |                     0 |         96137 | 2017-02-08 00:54:00.126408+01

 2017-02-08 01:27:38.67309+01 | 1486513658.67309 |                 0 |               7 |                    18 |                   23 |               2164 |             0 |                0 |          241878 |                     0 |         96137 | 2017-02-08 00:54:00.126408+01

 2017-02-08 01:27:39.958396+01 | 1486513659.9584 |                 0 |               7 |                    18 |                   23 |               2164 |             0 |                0 |          241878 |                     0 |         96137 | 2017-02-08 00:54:00.126408+01

 2017-02-08 01:27:41.239236+01 | 1486513661.23924 |                 0 |               7 |                    18 |                   23 |               2164 |             0 |                0 |          241878 |                     0 |         96137 | 2017-02-08 00:54:00.126408+01

 2017-02-08 01:27:42.520778+01 | 1486513662.52078 |                 0 |               7 |                    18 |                   23 |               2164 |             0 |                0 |          241878 |                     0 |         96137 | 2017-02-08 00:54:00.126408+01

 2017-02-08 01:27:43.802069+01 | 1486513663.80207 |                 0 |               7 |                    18 |                   23 |               2164 |             0 |                0 |          241878 |                     0 |         96137 | 2017-02-08 00:54:00.126408+01

 2017-02-08 01:27:45.084182+01 | 1486513665.08418 |                 0 |               7 |                    18 |                   23 |               2164 |             0 |                0 |          241878 |                     0 |         96137 | 2017-02-08 00:54:00.126408+01

 2017-02-08 01:27:46.36538+01 | 1486513666.36538 |                 0 |               7 |                    18 |                   23 |               2164 |             0 |                0 |          241878 |                     0 |         96137 | 2017-02-08 00:54:00.126408+01

 2017-02-08 01:27:47.645859+01 | 1486513667.64586 |                 0 |               7 |                    18 |                   23 |               2164 |             0 |                0 |          241878 |                     0 |         96137 | 2017-02-08 00:54:00.126408+01

 2017-02-08 01:27:48.925645+01 | 1486513668.92565 |                 0 |               7 |                    18 |                   23 |               2164 |             0 |                0 |          241878 |                     0 |         96137 | 2017-02-08 00:54:00.126408+01

 2017-02-08 01:27:50.205564+01 | 1486513670.20556 |                 0 |               7 |                    18 |                   23 |               2164 |             0 |                0 |          241878 |                     0 |         96137 | 2017-02-08 00:54:00.126408+01

 2017-02-08 01:27:51.490053+01 | 1486513671.49005 |                 0 |               7 |                    18 |                   23 |               2164 |             0 |                0 |          241878 |                     0 |         96137 | 2017-02-08 00:54:00.126408+01

 2017-02-08 01:27:52.774719+01 | 1486513672.77472 |                 0 |               7 |                    18 |                   23 |               2164 |             0 |                0 |          241878 |                     0 |         96137 | 2017-02-08 00:54:00.126408+01

 2017-02-08 01:27:54.041674+01 | 1486513674.04167 |                 0 |               7 |                    18 |                   23 |               2164 |             0 |                0 |          241878 |                     0 |         96137 | 2017-02-08 00:54:00.126408+01

 2017-02-08 01:27:55.328294+01 | 1486513675.32829 |                 0 |               7 |                    18 |                   23 |               2164 |             0 |                0 |          241878 |                     0 |         96137 | 2017-02-08 00:54:00.126408+01

 2017-02-08 01:27:56.600527+01 | 1486513676.60053 |                 0 |               7 |                    18 |                   23 |               2164 |             0 |                0 |          241878 |                     0 |         96137 | 2017-02-08 00:54:00.126408+01

 2017-02-08 01:27:57.8809+01 | 1486513677.8809 |                 0 |               7 |                    18 |                   23 |               2164 |             0 |                0 |          241878 |                     0 |         96137 | 2017-02-08 00:54:00.126408+01

 2017-02-08 01:27:59.165191+01 | 1486513679.16519 |                 0 |               7 |                    18 |                   23 |               2164 |             0 |                0 |          241878 |                     0 |         96137 | 2017-02-08 00:54:00.126408+01

 2017-02-08 01:28:00.452702+01 | 1486513680.4527 |                 0 |               7 |                    18 |                   23 |               2164 |             0 |                0 |          241878 |                     0 |         96137 | 2017-02-08 00:54:00.126408+01

 2017-02-08 01:28:01.72409+01 | 1486513681.72409 |                 0 |               7 |                    18 |                   23 |               2164 |             0 |                0 |          241878 |                     0 |         96137 | 2017-02-08 00:54:00.126408+01

 2017-02-08 01:28:03.001131+01 | 1486513683.00113 |                 0 |               7 |                    18 |                   23 |               2164 |             0 |                0 |          241878 |                     0 |         96137 | 2017-02-08 00:54:00.126408+01

 2017-02-08 01:28:04.27415+01 | 1486513684.27415 |                 0 |               7 |                    18 |                   23 |               2164 |             0 |                0 |          241878 |                     0 |         96137 | 2017-02-08 00:54:00.126408+01

 2017-02-08 01:28:05.541468+01 | 1486513685.54147 |                 0 |               7 |                    18 |                   23 |               2164 |             0 |                0 |          241878 |                     0 |         96137 | 2017-02-08 00:54:00.126408+01

 2017-02-08 01:28:06.818176+01 | 1486513686.81818 |                 0 |               7 |                    18 |                   23 |               2164 |             0 |                0 |          241878 |                     0 |         96137 | 2017-02-08 00:54:00.126408+01

 2017-02-08 01:28:08.096078+01 | 1486513688.09608 |                 0 |               7 |                    18 |                   23 |               2164 |             0 |                0 |          241878 |                     0 |         96137 | 2017-02-08 00:54:00.126408+01

 2017-02-08 01:28:09.369554+01 | 1486513689.36955 |                 0 |               7 |                    18 |                   23 |               2164 |             0 |                0 |          241878 |                     0 |         96137 | 2017-02-08 00:54:00.126408+01

 2017-02-08 01:28:10.649541+01 | 1486513690.64954 |                 0 |               7 |                    18 |                   23 |               2164 |             0 |                0 |          241878 |                     0 |         96137 | 2017-02-08 00:54:00.126408+01

 2017-02-08 01:28:11.913321+01 | 1486513691.91332 |                 0 |               7 |                    18 |                   23 |               2164 |             0 |                0 |          241878 |                     0 |         96137 | 2017-02-08 00:54:00.126408+01

 2017-02-08 01:28:13.193195+01 | 1486513693.1932 |                 0 |               7 |                    18 |                   23 |               2164 |             0 |                0 |          241878 |                     0 |         96137 | 2017-02-08 00:54:00.126408+01

 2017-02-08 01:28:14.470726+01 | 1486513694.47073 |                 0 |               7 |                    18 |                   23 |               2164 |             0 |                0 |          241878 |                     0 |         96137 | 2017-02-08 00:54:00.126408+01

 2017-02-08 01:28:15.747711+01 | 1486513695.74771 |                 0 |               7 |                    18 |                   23 |               2164 |             0 |                0 |          241878 |                     0 |         96137 | 2017-02-08 00:54:00.126408+01

 2017-02-08 01:28:17.027968+01 | 1486513697.02797 |                 0 |               7 |                    18 |                   23 |               2164 |             0 |                0 |          241878 |                     0 |         96137 | 2017-02-08 00:54:00.126408+01

 2017-02-08 01:28:18.310329+01 | 1486513698.31033 |                 0 |               7 |                    18 |                   23 |               2164 |             0 |                0 |          241878 |                     0 |         96137 | 2017-02-08 00:54:00.126408+01

 2017-02-08 01:28:19.575232+01 | 1486513699.57523 |                 0 |               7 |                    18 |                   23 |               2164 |             0 |                0 |          241878 |                     0 |         96137 | 2017-02-08 00:54:00.126408+01

 2017-02-08 01:28:20.852389+01 | 1486513700.85239 |                 0 |               7 |                    18 |                   23 |               2164 |             0 |                0 |          241878 |                     0 |         96137 | 2017-02-08 00:54:00.126408+01

 2017-02-08 01:28:22.131657+01 | 1486513702.13166 |                 0 |               7 |                    18 |                   23 |               2164 |             0 |                0 |          241878 |                     0 |         96137 | 2017-02-08 00:54:00.126408+01

 2017-02-08 01:28:23.418574+01 | 1486513703.41857 |                 0 |               7 |                    18 |                   23 |               2164 |             0 |                0 |          241878 |                     0 |         96137 | 2017-02-08 00:54:00.126408+01

 2017-02-08 01:28:24.693736+01 | 1486513704.69374 |                 0 |               7 |                    18 |                   23 |               2164 |             0 |                0 |          241878 |                     0 |         96137 | 2017-02-08 00:54:00.126408+01

 2017-02-08 01:28:25.939985+01 | 1486513705.93999 |                 0 |               7 |                    18 |                   23 |               2164 |             0 |                0 |          241878 |                     0 |         96137 | 2017-02-08 00:54:00.126408+01

 2017-02-08 01:28:27.198683+01 | 1486513707.19868 |                 0 |               7 |                    18 |                   23 |               2164 |             0 |                0 |          241878 |                     0 |         96137 | 2017-02-08 00:54:00.126408+01

 2017-02-08 01:28:28.489488+01 | 1486513708.48949 |                 0 |               7 |                    18 |                   23 |               2164 |             0 |                0 |          241878 |                     0 |         96137 | 2017-02-08 00:54:00.126408+01

 2017-02-08 01:28:29.782304+01 | 1486513709.7823 |                 0 |               7 |                    18 |                   23 |               2164 |             0 |                0 |          241878 |                     0 |         96137 | 2017-02-08 00:54:00.126408+01

 2017-02-08 01:28:31.057189+01 | 1486513711.05719 |                 0 |               7 |                    18 |                   23 |               2164 |             0 |                0 |          241878 |                     0 |         96137 | 2017-02-08 00:54:00.126408+01

 2017-02-08 01:28:32.293183+01 | 1486513712.29318 |                 0 |               7 |                    18 |                   23 |               2164 |             0 |                0 |          241878 |                     0 |         96137 | 2017-02-08 00:54:00.126408+01

 2017-02-08 01:28:33.549163+01 | 1486513713.54916 |                 0 |               7 |                    18 |                   23 |               2164 |             0 |                0 |          241878 |                     0 |         96137 | 2017-02-08 00:54:00.126408+01

 2017-02-08 01:28:34.805015+01 | 1486513714.80502 |                 0 |               7 |                    18 |                   23 |               2164 |             0 |                0 |          241878 |                     0 |         96137 | 2017-02-08 00:54:00.126408+01

 2017-02-08 01:28:36.087183+01 | 1486513716.08718 |                 0 |               7 |                    18 |                   23 |               2164 |             0 |                0 |          241878 |                     0 |         96137 | 2017-02-08 00:54:00.126408+01

 2017-02-08 01:28:37.361725+01 | 1486513717.36173 |                 0 |               7 |                    18 |                   23 |               2164 |             0 |                0 |          241878 |                     0 |         96137 | 2017-02-08 00:54:00.126408+01

 2017-02-08 01:28:38.622492+01 | 1486513718.62249 |                 0 |               7 |                    18 |                   23 |               2164 |             0 |                0 |          241878 |                     0 |         96137 | 2017-02-08 00:54:00.126408+01

 2017-02-08 01:28:39.904608+01 | 1486513719.90461 |                 0 |               7 |                    18 |                   23 |               2164 |             0 |                0 |          241878 |                     0 |         96137 | 2017-02-08 00:54:00.126408+01

 2017-02-08 01:28:41.173255+01 | 1486513721.17325 |                 0 |               7 |                    18 |                   23 |               2164 |             0 |                0 |          241878 |                     0 |         96137 | 2017-02-08 00:54:00.126408+01

 2017-02-08 01:28:42.455283+01 | 1486513722.45528 |                 0 |               7 |                    18 |                   23 |               2164 |             0 |                0 |          241878 |                     0 |         96137 | 2017-02-08 00:54:00.126408+01

 2017-02-08 01:28:43.736698+01 | 1486513723.7367 |                 0 |               7 |                    18 |                   23 |               2164 |             0 |                0 |          241878 |                     0 |         96137 | 2017-02-08 00:54:00.126408+01

 2017-02-08 01:28:45.023804+01 | 1486513725.0238 |                 0 |               7 |                    18 |                   23 |               2164 |             0 |                0 |          241878 |                     0 |         96137 | 2017-02-08 00:54:00.126408+01

 2017-02-08 01:28:46.306148+01 | 1486513726.30615 |                 0 |               7 |                    18 |                   23 |               2164 |             0 |                0 |          241878 |                     0 |         96137 | 2017-02-08 00:54:00.126408+01

 2017-02-08 01:28:47.593983+01 | 1486513727.59398 |                 0 |               7 |                    18 |                   23 |               2164 |             0 |                0 |          241878 |                     0 |         96137 | 2017-02-08 00:54:00.126408+01

 2017-02-08 01:28:48.894171+01 | 1486513728.89417 |                 0 |               7 |                    18 |                   23 |               2164 |             0 |                0 |          241878 |                     0 |         96137 | 2017-02-08 00:54:00.126408+01

 2017-02-08 01:28:50.17587+01 | 1486513730.17587 |                 0 |               7 |                    18 |                   23 |               2164 |             0 |                0 |          241878 |                     0 |         96137 | 2017-02-08 00:54:00.126408+01

 2017-02-08 01:28:51.450492+01 | 1486513731.45049 |                 0 |               7 |                    18 |                   23 |               2164 |             0 |                0 |          241878 |                     0 |         96137 | 2017-02-08 00:54:00.126408+01

 2017-02-08 01:28:52.729622+01 | 1486513732.72962 |                 0 |               7 |                    18 |                   23 |               2164 |             0 |                0 |          241878 |                     0 |         96137 | 2017-02-08 00:54:00.126408+01

 2017-02-08 01:28:54.008399+01 | 1486513734.0084 |                 0 |               7 |                    18 |                   23 |               2164 |             0 |                0 |          241878 |                     0 |         96137 | 2017-02-08 00:54:00.126408+01

 2017-02-08 01:28:55.292136+01 | 1486513735.29214 |                 0 |               7 |                    18 |                   23 |               2164 |             0 |                0 |          241878 |                     0 |         96137 | 2017-02-08 00:54:00.126408+01

 2017-02-08 01:28:56.568731+01 | 1486513736.56873 |                 0 |               7 |                    18 |                   23 |               2164 |             0 |                0 |          241878 |                     0 |         96137 | 2017-02-08 00:54:00.126408+01

 2017-02-08 01:28:57.890496+01 | 1486513737.8905 |                 0 |               7 |                    18 |                   23 |               2164 |             0 |                0 |          241878 |                     0 |         96137 | 2017-02-08 00:54:00.126408+01

 2017-02-08 01:28:59.147404+01 | 1486513739.1474 |                 0 |               7 |                    18 |                   23 |               2164 |             0 |                0 |          241878 |                     0 |         96137 | 2017-02-08 00:54:00.126408+01

 2017-02-08 01:29:00.409266+01 | 1486513740.40927 |                 0 |               7 |                    18 |                   23 |               2164 |             0 |                0 |          241878 |                     0 |         96137 | 2017-02-08 00:54:00.126408+01

 2017-02-08 01:29:01.669763+01 | 1486513741.66976 |                 0 |               7 |                    18 |                   23 |               2164 |             0 |                0 |          241878 |                     0 |         96137 | 2017-02-08 00:54:00.126408+01

 2017-02-08 01:29:02.941853+01 | 1486513742.94185 |                 0 |               7 |                    18 |                   23 |               2164 |             0 |                0 |          241878 |                     0 |         96137 | 2017-02-08 00:54:00.126408+01

 2017-02-08 01:29:04.224725+01 | 1486513744.22473 |                 0 |               7 |                    18 |                   23 |               2164 |             0 |                0 |          241878 |                     0 |         96137 | 2017-02-08 00:54:00.126408+01

 2017-02-08 01:29:05.502823+01 | 1486513745.50282 |                 0 |               7 |                    18 |                   23 |               2164 |             0 |                0 |          241878 |                     0 |         96137 | 2017-02-08 00:54:00.126408+01

 2017-02-08 01:29:06.785706+01 | 1486513746.78571 |                 0 |               7 |                    18 |                   23 |               2164 |             0 |                0 |          241878 |                     0 |         96137 | 2017-02-08 00:54:00.126408+01

 2017-02-08 01:29:08.068371+01 | 1486513748.06837 |                 0 |               7 |                    18 |                   23 |               2164 |             0 |                0 |          241878 |                     0 |         96137 | 2017-02-08 00:54:00.126408+01

 2017-02-08 01:29:09.343864+01 | 1486513749.34386 |                 0 |               7 |                    18 |                   23 |               2164 |             0 |                0 |          241878 |                     0 |         96137 | 2017-02-08 00:54:00.126408+01

