 2017-02-09 01:58:34.639914+01 | 1486601914.63991 | pgbench_branches_pkey |            16384
 2017-02-09 01:58:34.639914+01 | 1486601914.63991 | pgbench_tellers_pkey  |            90112
 2017-02-09 01:58:34.639914+01 | 1486601914.63991 | pgbench_accounts_pkey |        673882112

 2017-02-09 01:58:35.718069+01 | 1486601915.71807 | pgbench_branches_pkey |            16384
 2017-02-09 01:58:35.718069+01 | 1486601915.71807 | pgbench_tellers_pkey  |            90112
 2017-02-09 01:58:35.718069+01 | 1486601915.71807 | pgbench_accounts_pkey |        673882112

 2017-02-09 01:58:36.866081+01 | 1486601916.86608 | pgbench_branches_pkey |            16384
 2017-02-09 01:58:36.866081+01 | 1486601916.86608 | pgbench_tellers_pkey  |            90112
 2017-02-09 01:58:36.866081+01 | 1486601916.86608 | pgbench_accounts_pkey |        673882112

 2017-02-09 01:58:38.046695+01 | 1486601918.04669 | pgbench_branches_pkey |            16384
 2017-02-09 01:58:38.046695+01 | 1486601918.04669 | pgbench_tellers_pkey  |            90112
 2017-02-09 01:58:38.046695+01 | 1486601918.04669 | pgbench_accounts_pkey |        673882112

 2017-02-09 01:58:39.220731+01 | 1486601919.22073 | pgbench_branches_pkey |            16384
 2017-02-09 01:58:39.220731+01 | 1486601919.22073 | pgbench_tellers_pkey  |            90112
 2017-02-09 01:58:39.220731+01 | 1486601919.22073 | pgbench_accounts_pkey |        673882112

 2017-02-09 01:58:40.401394+01 | 1486601920.40139 | pgbench_branches_pkey |            16384
 2017-02-09 01:58:40.401394+01 | 1486601920.40139 | pgbench_tellers_pkey  |            90112
 2017-02-09 01:58:40.401394+01 | 1486601920.40139 | pgbench_accounts_pkey |        673882112

 2017-02-09 01:58:41.583567+01 | 1486601921.58357 | pgbench_branches_pkey |            16384
 2017-02-09 01:58:41.583567+01 | 1486601921.58357 | pgbench_tellers_pkey  |            90112
 2017-02-09 01:58:41.583567+01 | 1486601921.58357 | pgbench_accounts_pkey |        673882112

 2017-02-09 01:58:42.765218+01 | 1486601922.76522 | pgbench_branches_pkey |            16384
 2017-02-09 01:58:42.765218+01 | 1486601922.76522 | pgbench_tellers_pkey  |            90112
 2017-02-09 01:58:42.765218+01 | 1486601922.76522 | pgbench_accounts_pkey |        673882112

 2017-02-09 01:58:43.948482+01 | 1486601923.94848 | pgbench_branches_pkey |            16384
 2017-02-09 01:58:43.948482+01 | 1486601923.94848 | pgbench_tellers_pkey  |            90112
 2017-02-09 01:58:43.948482+01 | 1486601923.94848 | pgbench_accounts_pkey |        673882112

 2017-02-09 01:58:45.127959+01 | 1486601925.12796 | pgbench_branches_pkey |            16384
 2017-02-09 01:58:45.127959+01 | 1486601925.12796 | pgbench_tellers_pkey  |            90112
 2017-02-09 01:58:45.127959+01 | 1486601925.12796 | pgbench_accounts_pkey |        673882112

 2017-02-09 01:58:46.313798+01 | 1486601926.3138 | pgbench_branches_pkey |            16384
 2017-02-09 01:58:46.313798+01 | 1486601926.3138 | pgbench_tellers_pkey  |            90112
 2017-02-09 01:58:46.313798+01 | 1486601926.3138 | pgbench_accounts_pkey |        673882112

 2017-02-09 01:58:47.495996+01 | 1486601927.496 | pgbench_branches_pkey |            16384
 2017-02-09 01:58:47.495996+01 | 1486601927.496 | pgbench_tellers_pkey  |            90112
 2017-02-09 01:58:47.495996+01 | 1486601927.496 | pgbench_accounts_pkey |        673882112

 2017-02-09 01:58:48.667693+01 | 1486601928.66769 | pgbench_branches_pkey |            16384
 2017-02-09 01:58:48.667693+01 | 1486601928.66769 | pgbench_tellers_pkey  |            90112
 2017-02-09 01:58:48.667693+01 | 1486601928.66769 | pgbench_accounts_pkey |        673882112

 2017-02-09 01:58:49.831737+01 | 1486601929.83174 | pgbench_branches_pkey |            16384
 2017-02-09 01:58:49.831737+01 | 1486601929.83174 | pgbench_tellers_pkey  |            90112
 2017-02-09 01:58:49.831737+01 | 1486601929.83174 | pgbench_accounts_pkey |        673882112

 2017-02-09 01:58:51.012895+01 | 1486601931.0129 | pgbench_branches_pkey |            16384
 2017-02-09 01:58:51.012895+01 | 1486601931.0129 | pgbench_tellers_pkey  |            90112
 2017-02-09 01:58:51.012895+01 | 1486601931.0129 | pgbench_accounts_pkey |        673882112

 2017-02-09 01:58:52.195618+01 | 1486601932.19562 | pgbench_branches_pkey |            16384
 2017-02-09 01:58:52.195618+01 | 1486601932.19562 | pgbench_tellers_pkey  |            90112
 2017-02-09 01:58:52.195618+01 | 1486601932.19562 | pgbench_accounts_pkey |        673882112

 2017-02-09 01:58:53.356112+01 | 1486601933.35611 | pgbench_branches_pkey |            16384
 2017-02-09 01:58:53.356112+01 | 1486601933.35611 | pgbench_tellers_pkey  |            90112
 2017-02-09 01:58:53.356112+01 | 1486601933.35611 | pgbench_accounts_pkey |        673882112

 2017-02-09 01:58:54.486263+01 | 1486601934.48626 | pgbench_branches_pkey |            16384
 2017-02-09 01:58:54.486263+01 | 1486601934.48626 | pgbench_tellers_pkey  |            90112
 2017-02-09 01:58:54.486263+01 | 1486601934.48626 | pgbench_accounts_pkey |        673882112

 2017-02-09 01:58:55.643026+01 | 1486601935.64303 | pgbench_branches_pkey |            16384
 2017-02-09 01:58:55.643026+01 | 1486601935.64303 | pgbench_tellers_pkey  |            90112
 2017-02-09 01:58:55.643026+01 | 1486601935.64303 | pgbench_accounts_pkey |        673882112

 2017-02-09 01:58:56.82639+01 | 1486601936.82639 | pgbench_branches_pkey |            16384
 2017-02-09 01:58:56.82639+01 | 1486601936.82639 | pgbench_tellers_pkey  |            90112
 2017-02-09 01:58:56.82639+01 | 1486601936.82639 | pgbench_accounts_pkey |        673882112

 2017-02-09 01:58:58.008737+01 | 1486601938.00874 | pgbench_branches_pkey |            16384
 2017-02-09 01:58:58.008737+01 | 1486601938.00874 | pgbench_tellers_pkey  |            90112
 2017-02-09 01:58:58.008737+01 | 1486601938.00874 | pgbench_accounts_pkey |        673882112

 2017-02-09 01:58:59.190315+01 | 1486601939.19032 | pgbench_branches_pkey |            16384
 2017-02-09 01:58:59.190315+01 | 1486601939.19032 | pgbench_tellers_pkey  |            90112
 2017-02-09 01:58:59.190315+01 | 1486601939.19032 | pgbench_accounts_pkey |        673882112

 2017-02-09 01:59:00.37191+01 | 1486601940.37191 | pgbench_branches_pkey |            16384
 2017-02-09 01:59:00.37191+01 | 1486601940.37191 | pgbench_tellers_pkey  |            90112
 2017-02-09 01:59:00.37191+01 | 1486601940.37191 | pgbench_accounts_pkey |        673882112

 2017-02-09 01:59:01.557811+01 | 1486601941.55781 | pgbench_branches_pkey |            16384
 2017-02-09 01:59:01.557811+01 | 1486601941.55781 | pgbench_tellers_pkey  |            90112
 2017-02-09 01:59:01.557811+01 | 1486601941.55781 | pgbench_accounts_pkey |        673882112

 2017-02-09 01:59:02.739956+01 | 1486601942.73996 | pgbench_branches_pkey |            16384
 2017-02-09 01:59:02.739956+01 | 1486601942.73996 | pgbench_tellers_pkey  |            90112
 2017-02-09 01:59:02.739956+01 | 1486601942.73996 | pgbench_accounts_pkey |        673882112

 2017-02-09 01:59:03.923302+01 | 1486601943.9233 | pgbench_branches_pkey |            16384
 2017-02-09 01:59:03.923302+01 | 1486601943.9233 | pgbench_tellers_pkey  |            90112
 2017-02-09 01:59:03.923302+01 | 1486601943.9233 | pgbench_accounts_pkey |        673882112

 2017-02-09 01:59:05.105513+01 | 1486601945.10551 | pgbench_branches_pkey |            16384
 2017-02-09 01:59:05.105513+01 | 1486601945.10551 | pgbench_tellers_pkey  |            90112
 2017-02-09 01:59:05.105513+01 | 1486601945.10551 | pgbench_accounts_pkey |        673882112

 2017-02-09 01:59:06.28835+01 | 1486601946.28835 | pgbench_branches_pkey |            16384
 2017-02-09 01:59:06.28835+01 | 1486601946.28835 | pgbench_tellers_pkey  |            90112
 2017-02-09 01:59:06.28835+01 | 1486601946.28835 | pgbench_accounts_pkey |        673882112

 2017-02-09 01:59:07.472993+01 | 1486601947.47299 | pgbench_branches_pkey |            16384
 2017-02-09 01:59:07.472993+01 | 1486601947.47299 | pgbench_tellers_pkey  |            90112
 2017-02-09 01:59:07.472993+01 | 1486601947.47299 | pgbench_accounts_pkey |        673882112

 2017-02-09 01:59:08.650963+01 | 1486601948.65096 | pgbench_branches_pkey |            16384
 2017-02-09 01:59:08.650963+01 | 1486601948.65096 | pgbench_tellers_pkey  |            90112
 2017-02-09 01:59:08.650963+01 | 1486601948.65096 | pgbench_accounts_pkey |        673882112

 2017-02-09 01:59:09.833375+01 | 1486601949.83337 | pgbench_branches_pkey |            16384
 2017-02-09 01:59:09.833375+01 | 1486601949.83337 | pgbench_tellers_pkey  |            90112
 2017-02-09 01:59:09.833375+01 | 1486601949.83337 | pgbench_accounts_pkey |        673882112

 2017-02-09 01:59:11.013513+01 | 1486601951.01351 | pgbench_branches_pkey |            16384
 2017-02-09 01:59:11.013513+01 | 1486601951.01351 | pgbench_tellers_pkey  |            90112
 2017-02-09 01:59:11.013513+01 | 1486601951.01351 | pgbench_accounts_pkey |        673882112

 2017-02-09 01:59:12.197331+01 | 1486601952.19733 | pgbench_branches_pkey |            16384
 2017-02-09 01:59:12.197331+01 | 1486601952.19733 | pgbench_tellers_pkey  |            90112
 2017-02-09 01:59:12.197331+01 | 1486601952.19733 | pgbench_accounts_pkey |        673882112

 2017-02-09 01:59:13.344984+01 | 1486601953.34498 | pgbench_branches_pkey |            16384
 2017-02-09 01:59:13.344984+01 | 1486601953.34498 | pgbench_tellers_pkey  |            90112
 2017-02-09 01:59:13.344984+01 | 1486601953.34498 | pgbench_accounts_pkey |        673882112

 2017-02-09 01:59:14.493883+01 | 1486601954.49388 | pgbench_branches_pkey |            16384
 2017-02-09 01:59:14.493883+01 | 1486601954.49388 | pgbench_tellers_pkey  |            90112
 2017-02-09 01:59:14.493883+01 | 1486601954.49388 | pgbench_accounts_pkey |        673882112

 2017-02-09 01:59:15.673926+01 | 1486601955.67393 | pgbench_branches_pkey |            16384
 2017-02-09 01:59:15.673926+01 | 1486601955.67393 | pgbench_tellers_pkey  |            90112
 2017-02-09 01:59:15.673926+01 | 1486601955.67393 | pgbench_accounts_pkey |        673882112

 2017-02-09 01:59:16.844292+01 | 1486601956.84429 | pgbench_branches_pkey |            16384
 2017-02-09 01:59:16.844292+01 | 1486601956.84429 | pgbench_tellers_pkey  |            90112
 2017-02-09 01:59:16.844292+01 | 1486601956.84429 | pgbench_accounts_pkey |        673882112

 2017-02-09 01:59:18.025825+01 | 1486601958.02583 | pgbench_branches_pkey |            16384
 2017-02-09 01:59:18.025825+01 | 1486601958.02583 | pgbench_tellers_pkey  |            90112
 2017-02-09 01:59:18.025825+01 | 1486601958.02583 | pgbench_accounts_pkey |        673882112

 2017-02-09 01:59:19.208825+01 | 1486601959.20883 | pgbench_branches_pkey |            16384
 2017-02-09 01:59:19.208825+01 | 1486601959.20883 | pgbench_tellers_pkey  |            90112
 2017-02-09 01:59:19.208825+01 | 1486601959.20883 | pgbench_accounts_pkey |        673882112

 2017-02-09 01:59:20.39019+01 | 1486601960.39019 | pgbench_branches_pkey |            16384
 2017-02-09 01:59:20.39019+01 | 1486601960.39019 | pgbench_tellers_pkey  |            90112
 2017-02-09 01:59:20.39019+01 | 1486601960.39019 | pgbench_accounts_pkey |        673882112

 2017-02-09 01:59:21.55853+01 | 1486601961.55853 | pgbench_branches_pkey |            16384
 2017-02-09 01:59:21.55853+01 | 1486601961.55853 | pgbench_tellers_pkey  |            90112
 2017-02-09 01:59:21.55853+01 | 1486601961.55853 | pgbench_accounts_pkey |        673882112

 2017-02-09 01:59:22.678241+01 | 1486601962.67824 | pgbench_branches_pkey |            16384
 2017-02-09 01:59:22.678241+01 | 1486601962.67824 | pgbench_tellers_pkey  |            90112
 2017-02-09 01:59:22.678241+01 | 1486601962.67824 | pgbench_accounts_pkey |        673882112

 2017-02-09 01:59:23.775383+01 | 1486601963.77538 | pgbench_branches_pkey |            16384
 2017-02-09 01:59:23.775383+01 | 1486601963.77538 | pgbench_tellers_pkey  |            90112
 2017-02-09 01:59:23.775383+01 | 1486601963.77538 | pgbench_accounts_pkey |        673882112

 2017-02-09 01:59:24.917396+01 | 1486601964.9174 | pgbench_branches_pkey |            16384
 2017-02-09 01:59:24.917396+01 | 1486601964.9174 | pgbench_tellers_pkey  |            90112
 2017-02-09 01:59:24.917396+01 | 1486601964.9174 | pgbench_accounts_pkey |        673882112

 2017-02-09 01:59:26.088033+01 | 1486601966.08803 | pgbench_branches_pkey |            16384
 2017-02-09 01:59:26.088033+01 | 1486601966.08803 | pgbench_tellers_pkey  |            90112
 2017-02-09 01:59:26.088033+01 | 1486601966.08803 | pgbench_accounts_pkey |        673882112

 2017-02-09 01:59:27.272201+01 | 1486601967.2722 | pgbench_branches_pkey |            16384
 2017-02-09 01:59:27.272201+01 | 1486601967.2722 | pgbench_tellers_pkey  |            90112
 2017-02-09 01:59:27.272201+01 | 1486601967.2722 | pgbench_accounts_pkey |        673882112

 2017-02-09 01:59:28.454319+01 | 1486601968.45432 | pgbench_branches_pkey |            16384
 2017-02-09 01:59:28.454319+01 | 1486601968.45432 | pgbench_tellers_pkey  |            90112
 2017-02-09 01:59:28.454319+01 | 1486601968.45432 | pgbench_accounts_pkey |        673882112

 2017-02-09 01:59:29.635371+01 | 1486601969.63537 | pgbench_branches_pkey |            16384
 2017-02-09 01:59:29.635371+01 | 1486601969.63537 | pgbench_tellers_pkey  |            90112
 2017-02-09 01:59:29.635371+01 | 1486601969.63537 | pgbench_accounts_pkey |        673882112

 2017-02-09 01:59:30.806025+01 | 1486601970.80603 | pgbench_branches_pkey |            16384
 2017-02-09 01:59:30.806025+01 | 1486601970.80603 | pgbench_tellers_pkey  |            90112
 2017-02-09 01:59:30.806025+01 | 1486601970.80603 | pgbench_accounts_pkey |        673882112

 2017-02-09 01:59:31.988297+01 | 1486601971.9883 | pgbench_branches_pkey |            16384
 2017-02-09 01:59:31.988297+01 | 1486601971.9883 | pgbench_tellers_pkey  |            90112
 2017-02-09 01:59:31.988297+01 | 1486601971.9883 | pgbench_accounts_pkey |        673882112

 2017-02-09 01:59:33.166311+01 | 1486601973.16631 | pgbench_branches_pkey |            16384
 2017-02-09 01:59:33.166311+01 | 1486601973.16631 | pgbench_tellers_pkey  |            90112
 2017-02-09 01:59:33.166311+01 | 1486601973.16631 | pgbench_accounts_pkey |        673882112

 2017-02-09 01:59:34.350025+01 | 1486601974.35002 | pgbench_branches_pkey |            16384
 2017-02-09 01:59:34.350025+01 | 1486601974.35002 | pgbench_tellers_pkey  |            90112
 2017-02-09 01:59:34.350025+01 | 1486601974.35002 | pgbench_accounts_pkey |        673882112

 2017-02-09 01:59:35.488282+01 | 1486601975.48828 | pgbench_branches_pkey |            16384
 2017-02-09 01:59:35.488282+01 | 1486601975.48828 | pgbench_tellers_pkey  |            90112
 2017-02-09 01:59:35.488282+01 | 1486601975.48828 | pgbench_accounts_pkey |        673882112

 2017-02-09 01:59:36.591459+01 | 1486601976.59146 | pgbench_branches_pkey |            16384
 2017-02-09 01:59:36.591459+01 | 1486601976.59146 | pgbench_tellers_pkey  |            90112
 2017-02-09 01:59:36.591459+01 | 1486601976.59146 | pgbench_accounts_pkey |        673882112

 2017-02-09 01:59:37.679858+01 | 1486601977.67986 | pgbench_branches_pkey |            16384
 2017-02-09 01:59:37.679858+01 | 1486601977.67986 | pgbench_tellers_pkey  |            90112
 2017-02-09 01:59:37.679858+01 | 1486601977.67986 | pgbench_accounts_pkey |        673882112

 2017-02-09 01:59:38.769525+01 | 1486601978.76953 | pgbench_branches_pkey |            16384
 2017-02-09 01:59:38.769525+01 | 1486601978.76953 | pgbench_tellers_pkey  |            90112
 2017-02-09 01:59:38.769525+01 | 1486601978.76953 | pgbench_accounts_pkey |        673882112

 2017-02-09 01:59:39.909616+01 | 1486601979.90962 | pgbench_branches_pkey |            16384
 2017-02-09 01:59:39.909616+01 | 1486601979.90962 | pgbench_tellers_pkey  |            90112
 2017-02-09 01:59:39.909616+01 | 1486601979.90962 | pgbench_accounts_pkey |        673882112

 2017-02-09 01:59:41.094188+01 | 1486601981.09419 | pgbench_branches_pkey |            16384
 2017-02-09 01:59:41.094188+01 | 1486601981.09419 | pgbench_tellers_pkey  |            90112
 2017-02-09 01:59:41.094188+01 | 1486601981.09419 | pgbench_accounts_pkey |        673882112

 2017-02-09 01:59:42.275794+01 | 1486601982.27579 | pgbench_branches_pkey |            16384
 2017-02-09 01:59:42.275794+01 | 1486601982.27579 | pgbench_tellers_pkey  |            90112
 2017-02-09 01:59:42.275794+01 | 1486601982.27579 | pgbench_accounts_pkey |        673882112

 2017-02-09 01:59:43.457172+01 | 1486601983.45717 | pgbench_branches_pkey |            16384
 2017-02-09 01:59:43.457172+01 | 1486601983.45717 | pgbench_tellers_pkey  |            90112
 2017-02-09 01:59:43.457172+01 | 1486601983.45717 | pgbench_accounts_pkey |        673882112

 2017-02-09 01:59:44.63085+01 | 1486601984.63085 | pgbench_branches_pkey |            16384
 2017-02-09 01:59:44.63085+01 | 1486601984.63085 | pgbench_tellers_pkey  |            90112
 2017-02-09 01:59:44.63085+01 | 1486601984.63085 | pgbench_accounts_pkey |        673882112

 2017-02-09 01:59:45.814864+01 | 1486601985.81486 | pgbench_branches_pkey |            16384
 2017-02-09 01:59:45.814864+01 | 1486601985.81486 | pgbench_tellers_pkey  |            90112
 2017-02-09 01:59:45.814864+01 | 1486601985.81486 | pgbench_accounts_pkey |        673882112

 2017-02-09 01:59:46.90526+01 | 1486601986.90526 | pgbench_branches_pkey |            16384
 2017-02-09 01:59:46.90526+01 | 1486601986.90526 | pgbench_tellers_pkey  |            90112
 2017-02-09 01:59:46.90526+01 | 1486601986.90526 | pgbench_accounts_pkey |        673882112

 2017-02-09 01:59:48.051479+01 | 1486601988.05148 | pgbench_branches_pkey |            16384
 2017-02-09 01:59:48.051479+01 | 1486601988.05148 | pgbench_tellers_pkey  |            90112
 2017-02-09 01:59:48.051479+01 | 1486601988.05148 | pgbench_accounts_pkey |        673882112

 2017-02-09 01:59:49.234459+01 | 1486601989.23446 | pgbench_branches_pkey |            16384
 2017-02-09 01:59:49.234459+01 | 1486601989.23446 | pgbench_tellers_pkey  |            90112
 2017-02-09 01:59:49.234459+01 | 1486601989.23446 | pgbench_accounts_pkey |        673882112

 2017-02-09 01:59:50.417218+01 | 1486601990.41722 | pgbench_branches_pkey |            16384
 2017-02-09 01:59:50.417218+01 | 1486601990.41722 | pgbench_tellers_pkey  |            90112
 2017-02-09 01:59:50.417218+01 | 1486601990.41722 | pgbench_accounts_pkey |        673882112

 2017-02-09 01:59:51.597434+01 | 1486601991.59743 | pgbench_branches_pkey |            16384
 2017-02-09 01:59:51.597434+01 | 1486601991.59743 | pgbench_tellers_pkey  |            90112
 2017-02-09 01:59:51.597434+01 | 1486601991.59743 | pgbench_accounts_pkey |        673882112

 2017-02-09 01:59:52.779352+01 | 1486601992.77935 | pgbench_branches_pkey |            16384
 2017-02-09 01:59:52.779352+01 | 1486601992.77935 | pgbench_tellers_pkey  |            90112
 2017-02-09 01:59:52.779352+01 | 1486601992.77935 | pgbench_accounts_pkey |        673882112

 2017-02-09 01:59:53.961303+01 | 1486601993.9613 | pgbench_branches_pkey |            16384
 2017-02-09 01:59:53.961303+01 | 1486601993.9613 | pgbench_tellers_pkey  |            90112
 2017-02-09 01:59:53.961303+01 | 1486601993.9613 | pgbench_accounts_pkey |        673882112

 2017-02-09 01:59:55.141538+01 | 1486601995.14154 | pgbench_branches_pkey |            16384
 2017-02-09 01:59:55.141538+01 | 1486601995.14154 | pgbench_tellers_pkey  |            90112
 2017-02-09 01:59:55.141538+01 | 1486601995.14154 | pgbench_accounts_pkey |        673882112

 2017-02-09 01:59:56.322654+01 | 1486601996.32265 | pgbench_branches_pkey |            16384
 2017-02-09 01:59:56.322654+01 | 1486601996.32265 | pgbench_tellers_pkey  |            90112
 2017-02-09 01:59:56.322654+01 | 1486601996.32265 | pgbench_accounts_pkey |        673882112

 2017-02-09 01:59:57.505338+01 | 1486601997.50534 | pgbench_branches_pkey |            16384
 2017-02-09 01:59:57.505338+01 | 1486601997.50534 | pgbench_tellers_pkey  |            90112
 2017-02-09 01:59:57.505338+01 | 1486601997.50534 | pgbench_accounts_pkey |        673882112

 2017-02-09 01:59:58.68615+01 | 1486601998.68615 | pgbench_branches_pkey |            16384
 2017-02-09 01:59:58.68615+01 | 1486601998.68615 | pgbench_tellers_pkey  |            90112
 2017-02-09 01:59:58.68615+01 | 1486601998.68615 | pgbench_accounts_pkey |        673882112

 2017-02-09 01:59:59.868356+01 | 1486601999.86836 | pgbench_branches_pkey |            16384
 2017-02-09 01:59:59.868356+01 | 1486601999.86836 | pgbench_tellers_pkey  |            90112
 2017-02-09 01:59:59.868356+01 | 1486601999.86836 | pgbench_accounts_pkey |        673882112

 2017-02-09 02:00:01.043636+01 | 1486602001.04364 | pgbench_branches_pkey |            16384
 2017-02-09 02:00:01.043636+01 | 1486602001.04364 | pgbench_tellers_pkey  |            90112
 2017-02-09 02:00:01.043636+01 | 1486602001.04364 | pgbench_accounts_pkey |        673882112

 2017-02-09 02:00:02.213055+01 | 1486602002.21305 | pgbench_branches_pkey |            16384
 2017-02-09 02:00:02.213055+01 | 1486602002.21305 | pgbench_tellers_pkey  |            90112
 2017-02-09 02:00:02.213055+01 | 1486602002.21305 | pgbench_accounts_pkey |        673882112

 2017-02-09 02:00:03.369536+01 | 1486602003.36954 | pgbench_branches_pkey |            16384
 2017-02-09 02:00:03.369536+01 | 1486602003.36954 | pgbench_tellers_pkey  |            90112
 2017-02-09 02:00:03.369536+01 | 1486602003.36954 | pgbench_accounts_pkey |        673882112

 2017-02-09 02:00:04.556868+01 | 1486602004.55687 | pgbench_branches_pkey |            16384
 2017-02-09 02:00:04.556868+01 | 1486602004.55687 | pgbench_tellers_pkey  |            90112
 2017-02-09 02:00:04.556868+01 | 1486602004.55687 | pgbench_accounts_pkey |        673882112

 2017-02-09 02:00:05.738042+01 | 1486602005.73804 | pgbench_branches_pkey |            16384
 2017-02-09 02:00:05.738042+01 | 1486602005.73804 | pgbench_tellers_pkey  |            90112
 2017-02-09 02:00:05.738042+01 | 1486602005.73804 | pgbench_accounts_pkey |        673882112

 2017-02-09 02:00:06.923513+01 | 1486602006.92351 | pgbench_branches_pkey |            16384
 2017-02-09 02:00:06.923513+01 | 1486602006.92351 | pgbench_tellers_pkey  |            90112
 2017-02-09 02:00:06.923513+01 | 1486602006.92351 | pgbench_accounts_pkey |        673882112

 2017-02-09 02:00:08.104522+01 | 1486602008.10452 | pgbench_branches_pkey |            16384
 2017-02-09 02:00:08.104522+01 | 1486602008.10452 | pgbench_tellers_pkey  |            90112
 2017-02-09 02:00:08.104522+01 | 1486602008.10452 | pgbench_accounts_pkey |        673882112

 2017-02-09 02:00:09.288547+01 | 1486602009.28855 | pgbench_branches_pkey |            16384
 2017-02-09 02:00:09.288547+01 | 1486602009.28855 | pgbench_tellers_pkey  |            90112
 2017-02-09 02:00:09.288547+01 | 1486602009.28855 | pgbench_accounts_pkey |        673882112

 2017-02-09 02:00:10.471971+01 | 1486602010.47197 | pgbench_branches_pkey |            16384
 2017-02-09 02:00:10.471971+01 | 1486602010.47197 | pgbench_tellers_pkey  |            90112
 2017-02-09 02:00:10.471971+01 | 1486602010.47197 | pgbench_accounts_pkey |        673882112

 2017-02-09 02:00:11.65336+01 | 1486602011.65336 | pgbench_branches_pkey |            16384
 2017-02-09 02:00:11.65336+01 | 1486602011.65336 | pgbench_tellers_pkey  |            90112
 2017-02-09 02:00:11.65336+01 | 1486602011.65336 | pgbench_accounts_pkey |        673882112

 2017-02-09 02:00:12.83764+01 | 1486602012.83764 | pgbench_branches_pkey |            16384
 2017-02-09 02:00:12.83764+01 | 1486602012.83764 | pgbench_tellers_pkey  |            90112
 2017-02-09 02:00:12.83764+01 | 1486602012.83764 | pgbench_accounts_pkey |        673882112

 2017-02-09 02:00:14.018556+01 | 1486602014.01856 | pgbench_branches_pkey |            16384
 2017-02-09 02:00:14.018556+01 | 1486602014.01856 | pgbench_tellers_pkey  |            90112
 2017-02-09 02:00:14.018556+01 | 1486602014.01856 | pgbench_accounts_pkey |        673882112

 2017-02-09 02:00:15.188671+01 | 1486602015.18867 | pgbench_branches_pkey |            16384
 2017-02-09 02:00:15.188671+01 | 1486602015.18867 | pgbench_tellers_pkey  |            90112
 2017-02-09 02:00:15.188671+01 | 1486602015.18867 | pgbench_accounts_pkey |        673882112

 2017-02-09 02:00:16.3703+01 | 1486602016.3703 | pgbench_branches_pkey |            16384
 2017-02-09 02:00:16.3703+01 | 1486602016.3703 | pgbench_tellers_pkey  |            90112
 2017-02-09 02:00:16.3703+01 | 1486602016.3703 | pgbench_accounts_pkey |        673882112

 2017-02-09 02:00:17.532325+01 | 1486602017.53233 | pgbench_branches_pkey |            16384
 2017-02-09 02:00:17.532325+01 | 1486602017.53233 | pgbench_tellers_pkey  |            90112
 2017-02-09 02:00:17.532325+01 | 1486602017.53233 | pgbench_accounts_pkey |        673882112

 2017-02-09 02:00:18.706454+01 | 1486602018.70645 | pgbench_branches_pkey |            16384
 2017-02-09 02:00:18.706454+01 | 1486602018.70645 | pgbench_tellers_pkey  |            90112
 2017-02-09 02:00:18.706454+01 | 1486602018.70645 | pgbench_accounts_pkey |        673882112

 2017-02-09 02:00:19.888774+01 | 1486602019.88877 | pgbench_branches_pkey |            16384
 2017-02-09 02:00:19.888774+01 | 1486602019.88877 | pgbench_tellers_pkey  |            90112
 2017-02-09 02:00:19.888774+01 | 1486602019.88877 | pgbench_accounts_pkey |        673882112

 2017-02-09 02:00:21.070065+01 | 1486602021.07007 | pgbench_branches_pkey |            16384
 2017-02-09 02:00:21.070065+01 | 1486602021.07007 | pgbench_tellers_pkey  |            90112
 2017-02-09 02:00:21.070065+01 | 1486602021.07007 | pgbench_accounts_pkey |        673882112

 2017-02-09 02:00:22.255892+01 | 1486602022.25589 | pgbench_branches_pkey |            16384
 2017-02-09 02:00:22.255892+01 | 1486602022.25589 | pgbench_tellers_pkey  |            90112
 2017-02-09 02:00:22.255892+01 | 1486602022.25589 | pgbench_accounts_pkey |        673882112

 2017-02-09 02:00:23.439765+01 | 1486602023.43976 | pgbench_branches_pkey |            16384
 2017-02-09 02:00:23.439765+01 | 1486602023.43976 | pgbench_tellers_pkey  |            90112
 2017-02-09 02:00:23.439765+01 | 1486602023.43976 | pgbench_accounts_pkey |        673882112

 2017-02-09 02:00:24.622955+01 | 1486602024.62296 | pgbench_branches_pkey |            16384
 2017-02-09 02:00:24.622955+01 | 1486602024.62296 | pgbench_tellers_pkey  |            90112
 2017-02-09 02:00:24.622955+01 | 1486602024.62296 | pgbench_accounts_pkey |        673882112

 2017-02-09 02:00:25.807291+01 | 1486602025.80729 | pgbench_branches_pkey |            16384
 2017-02-09 02:00:25.807291+01 | 1486602025.80729 | pgbench_tellers_pkey  |            90112
 2017-02-09 02:00:25.807291+01 | 1486602025.80729 | pgbench_accounts_pkey |        673882112

 2017-02-09 02:00:26.990765+01 | 1486602026.99077 | pgbench_branches_pkey |            16384
 2017-02-09 02:00:26.990765+01 | 1486602026.99077 | pgbench_tellers_pkey  |            90112
 2017-02-09 02:00:26.990765+01 | 1486602026.99077 | pgbench_accounts_pkey |        673882112

 2017-02-09 02:00:28.172844+01 | 1486602028.17284 | pgbench_branches_pkey |            16384
 2017-02-09 02:00:28.172844+01 | 1486602028.17284 | pgbench_tellers_pkey  |            90112
 2017-02-09 02:00:28.172844+01 | 1486602028.17284 | pgbench_accounts_pkey |        673882112

 2017-02-09 02:00:29.354574+01 | 1486602029.35457 | pgbench_branches_pkey |            16384
 2017-02-09 02:00:29.354574+01 | 1486602029.35457 | pgbench_tellers_pkey  |            90112
 2017-02-09 02:00:29.354574+01 | 1486602029.35457 | pgbench_accounts_pkey |        673882112

 2017-02-09 02:00:30.5361+01 | 1486602030.5361 | pgbench_branches_pkey |            16384
 2017-02-09 02:00:30.5361+01 | 1486602030.5361 | pgbench_tellers_pkey  |            90112
 2017-02-09 02:00:30.5361+01 | 1486602030.5361 | pgbench_accounts_pkey |        673882112

 2017-02-09 02:00:31.71905+01 | 1486602031.71905 | pgbench_branches_pkey |            16384
 2017-02-09 02:00:31.71905+01 | 1486602031.71905 | pgbench_tellers_pkey  |            90112
 2017-02-09 02:00:31.71905+01 | 1486602031.71905 | pgbench_accounts_pkey |        673882112

 2017-02-09 02:00:32.902093+01 | 1486602032.90209 | pgbench_branches_pkey |            16384
 2017-02-09 02:00:32.902093+01 | 1486602032.90209 | pgbench_tellers_pkey  |            90112
 2017-02-09 02:00:32.902093+01 | 1486602032.90209 | pgbench_accounts_pkey |        673882112

 2017-02-09 02:00:34.084389+01 | 1486602034.08439 | pgbench_branches_pkey |            16384
 2017-02-09 02:00:34.084389+01 | 1486602034.08439 | pgbench_tellers_pkey  |            90112
 2017-02-09 02:00:34.084389+01 | 1486602034.08439 | pgbench_accounts_pkey |        673882112

 2017-02-09 02:00:35.267674+01 | 1486602035.26767 | pgbench_branches_pkey |            16384
 2017-02-09 02:00:35.267674+01 | 1486602035.26767 | pgbench_tellers_pkey  |            90112
 2017-02-09 02:00:35.267674+01 | 1486602035.26767 | pgbench_accounts_pkey |        673882112

 2017-02-09 02:00:36.445781+01 | 1486602036.44578 | pgbench_branches_pkey |            16384
 2017-02-09 02:00:36.445781+01 | 1486602036.44578 | pgbench_tellers_pkey  |            90112
 2017-02-09 02:00:36.445781+01 | 1486602036.44578 | pgbench_accounts_pkey |        673882112

 2017-02-09 02:00:37.627809+01 | 1486602037.62781 | pgbench_branches_pkey |            16384
 2017-02-09 02:00:37.627809+01 | 1486602037.62781 | pgbench_tellers_pkey  |            90112
 2017-02-09 02:00:37.627809+01 | 1486602037.62781 | pgbench_accounts_pkey |        673882112

 2017-02-09 02:00:38.80664+01 | 1486602038.80664 | pgbench_branches_pkey |            16384
 2017-02-09 02:00:38.80664+01 | 1486602038.80664 | pgbench_tellers_pkey  |            90112
 2017-02-09 02:00:38.80664+01 | 1486602038.80664 | pgbench_accounts_pkey |        673882112

 2017-02-09 02:00:39.993043+01 | 1486602039.99304 | pgbench_branches_pkey |            16384
 2017-02-09 02:00:39.993043+01 | 1486602039.99304 | pgbench_tellers_pkey  |            90112
 2017-02-09 02:00:39.993043+01 | 1486602039.99304 | pgbench_accounts_pkey |        673882112

 2017-02-09 02:00:41.175097+01 | 1486602041.1751 | pgbench_branches_pkey |            16384
 2017-02-09 02:00:41.175097+01 | 1486602041.1751 | pgbench_tellers_pkey  |            90112
 2017-02-09 02:00:41.175097+01 | 1486602041.1751 | pgbench_accounts_pkey |        673882112

 2017-02-09 02:00:42.357606+01 | 1486602042.35761 | pgbench_branches_pkey |            16384
 2017-02-09 02:00:42.357606+01 | 1486602042.35761 | pgbench_tellers_pkey  |            90112
 2017-02-09 02:00:42.357606+01 | 1486602042.35761 | pgbench_accounts_pkey |        673882112

 2017-02-09 02:00:43.535476+01 | 1486602043.53548 | pgbench_branches_pkey |            16384
 2017-02-09 02:00:43.535476+01 | 1486602043.53548 | pgbench_tellers_pkey  |            90112
 2017-02-09 02:00:43.535476+01 | 1486602043.53548 | pgbench_accounts_pkey |        673882112

 2017-02-09 02:00:44.718668+01 | 1486602044.71867 | pgbench_branches_pkey |            16384
 2017-02-09 02:00:44.718668+01 | 1486602044.71867 | pgbench_tellers_pkey  |            90112
 2017-02-09 02:00:44.718668+01 | 1486602044.71867 | pgbench_accounts_pkey |        673882112

 2017-02-09 02:00:45.899056+01 | 1486602045.89906 | pgbench_branches_pkey |            16384
 2017-02-09 02:00:45.899056+01 | 1486602045.89906 | pgbench_tellers_pkey  |            90112
 2017-02-09 02:00:45.899056+01 | 1486602045.89906 | pgbench_accounts_pkey |        673882112

 2017-02-09 02:00:47.08123+01 | 1486602047.08123 | pgbench_branches_pkey |            16384
 2017-02-09 02:00:47.08123+01 | 1486602047.08123 | pgbench_tellers_pkey  |            90112
 2017-02-09 02:00:47.08123+01 | 1486602047.08123 | pgbench_accounts_pkey |        673882112

 2017-02-09 02:00:48.262722+01 | 1486602048.26272 | pgbench_branches_pkey |            16384
 2017-02-09 02:00:48.262722+01 | 1486602048.26272 | pgbench_tellers_pkey  |            90112
 2017-02-09 02:00:48.262722+01 | 1486602048.26272 | pgbench_accounts_pkey |        673882112

 2017-02-09 02:00:49.447012+01 | 1486602049.44701 | pgbench_branches_pkey |            16384
 2017-02-09 02:00:49.447012+01 | 1486602049.44701 | pgbench_tellers_pkey  |            90112
 2017-02-09 02:00:49.447012+01 | 1486602049.44701 | pgbench_accounts_pkey |        673882112

 2017-02-09 02:00:50.605117+01 | 1486602050.60512 | pgbench_branches_pkey |            16384
 2017-02-09 02:00:50.605117+01 | 1486602050.60512 | pgbench_tellers_pkey  |            90112
 2017-02-09 02:00:50.605117+01 | 1486602050.60512 | pgbench_accounts_pkey |        673882112

 2017-02-09 02:00:51.770098+01 | 1486602051.7701 | pgbench_branches_pkey |            16384
 2017-02-09 02:00:51.770098+01 | 1486602051.7701 | pgbench_tellers_pkey  |            90112
 2017-02-09 02:00:51.770098+01 | 1486602051.7701 | pgbench_accounts_pkey |        673882112

 2017-02-09 02:00:52.949427+01 | 1486602052.94943 | pgbench_branches_pkey |            16384
 2017-02-09 02:00:52.949427+01 | 1486602052.94943 | pgbench_tellers_pkey  |            90112
 2017-02-09 02:00:52.949427+01 | 1486602052.94943 | pgbench_accounts_pkey |        673882112

 2017-02-09 02:00:54.130242+01 | 1486602054.13024 | pgbench_branches_pkey |            16384
 2017-02-09 02:00:54.130242+01 | 1486602054.13024 | pgbench_tellers_pkey  |            90112
 2017-02-09 02:00:54.130242+01 | 1486602054.13024 | pgbench_accounts_pkey |        673882112

 2017-02-09 02:00:55.281058+01 | 1486602055.28106 | pgbench_branches_pkey |            16384
 2017-02-09 02:00:55.281058+01 | 1486602055.28106 | pgbench_tellers_pkey  |            90112
 2017-02-09 02:00:55.281058+01 | 1486602055.28106 | pgbench_accounts_pkey |        673882112

 2017-02-09 02:00:56.454257+01 | 1486602056.45426 | pgbench_branches_pkey |            16384
 2017-02-09 02:00:56.454257+01 | 1486602056.45426 | pgbench_tellers_pkey  |            90112
 2017-02-09 02:00:56.454257+01 | 1486602056.45426 | pgbench_accounts_pkey |        673882112

 2017-02-09 02:00:57.623705+01 | 1486602057.6237 | pgbench_branches_pkey |            16384
 2017-02-09 02:00:57.623705+01 | 1486602057.6237 | pgbench_tellers_pkey  |            90112
 2017-02-09 02:00:57.623705+01 | 1486602057.6237 | pgbench_accounts_pkey |        673882112

 2017-02-09 02:00:58.800048+01 | 1486602058.80005 | pgbench_branches_pkey |            16384
 2017-02-09 02:00:58.800048+01 | 1486602058.80005 | pgbench_tellers_pkey  |            90112
 2017-02-09 02:00:58.800048+01 | 1486602058.80005 | pgbench_accounts_pkey |        673882112

 2017-02-09 02:00:59.976232+01 | 1486602059.97623 | pgbench_branches_pkey |            16384
 2017-02-09 02:00:59.976232+01 | 1486602059.97623 | pgbench_tellers_pkey  |            90112
 2017-02-09 02:00:59.976232+01 | 1486602059.97623 | pgbench_accounts_pkey |        673882112

 2017-02-09 02:01:01.158767+01 | 1486602061.15877 | pgbench_branches_pkey |            16384
 2017-02-09 02:01:01.158767+01 | 1486602061.15877 | pgbench_tellers_pkey  |            90112
 2017-02-09 02:01:01.158767+01 | 1486602061.15877 | pgbench_accounts_pkey |        673882112

 2017-02-09 02:01:02.331807+01 | 1486602062.33181 | pgbench_branches_pkey |            16384
 2017-02-09 02:01:02.331807+01 | 1486602062.33181 | pgbench_tellers_pkey  |            90112
 2017-02-09 02:01:02.331807+01 | 1486602062.33181 | pgbench_accounts_pkey |        673882112

 2017-02-09 02:01:03.494412+01 | 1486602063.49441 | pgbench_branches_pkey |            16384
 2017-02-09 02:01:03.494412+01 | 1486602063.49441 | pgbench_tellers_pkey  |            90112
 2017-02-09 02:01:03.494412+01 | 1486602063.49441 | pgbench_accounts_pkey |        673882112

 2017-02-09 02:01:04.676771+01 | 1486602064.67677 | pgbench_branches_pkey |            16384
 2017-02-09 02:01:04.676771+01 | 1486602064.67677 | pgbench_tellers_pkey  |            90112
 2017-02-09 02:01:04.676771+01 | 1486602064.67677 | pgbench_accounts_pkey |        673882112

 2017-02-09 02:01:05.81326+01 | 1486602065.81326 | pgbench_branches_pkey |            16384
 2017-02-09 02:01:05.81326+01 | 1486602065.81326 | pgbench_tellers_pkey  |            90112
 2017-02-09 02:01:05.81326+01 | 1486602065.81326 | pgbench_accounts_pkey |        673882112

 2017-02-09 02:01:06.962523+01 | 1486602066.96252 | pgbench_branches_pkey |            16384
 2017-02-09 02:01:06.962523+01 | 1486602066.96252 | pgbench_tellers_pkey  |            90112
 2017-02-09 02:01:06.962523+01 | 1486602066.96252 | pgbench_accounts_pkey |        673882112

 2017-02-09 02:01:08.139968+01 | 1486602068.13997 | pgbench_branches_pkey |            16384
 2017-02-09 02:01:08.139968+01 | 1486602068.13997 | pgbench_tellers_pkey  |            90112
 2017-02-09 02:01:08.139968+01 | 1486602068.13997 | pgbench_accounts_pkey |        673882112

 2017-02-09 02:01:09.324355+01 | 1486602069.32435 | pgbench_branches_pkey |            16384
 2017-02-09 02:01:09.324355+01 | 1486602069.32435 | pgbench_tellers_pkey  |            90112
 2017-02-09 02:01:09.324355+01 | 1486602069.32435 | pgbench_accounts_pkey |        673882112

 2017-02-09 02:01:10.504708+01 | 1486602070.50471 | pgbench_branches_pkey |            16384
 2017-02-09 02:01:10.504708+01 | 1486602070.50471 | pgbench_tellers_pkey  |            90112
 2017-02-09 02:01:10.504708+01 | 1486602070.50471 | pgbench_accounts_pkey |        673882112

 2017-02-09 02:01:11.685803+01 | 1486602071.6858 | pgbench_branches_pkey |            16384
 2017-02-09 02:01:11.685803+01 | 1486602071.6858 | pgbench_tellers_pkey  |            90112
 2017-02-09 02:01:11.685803+01 | 1486602071.6858 | pgbench_accounts_pkey |        673882112

 2017-02-09 02:01:12.853737+01 | 1486602072.85374 | pgbench_branches_pkey |            16384
 2017-02-09 02:01:12.853737+01 | 1486602072.85374 | pgbench_tellers_pkey  |            90112
 2017-02-09 02:01:12.853737+01 | 1486602072.85374 | pgbench_accounts_pkey |        673882112

 2017-02-09 02:01:13.953009+01 | 1486602073.95301 | pgbench_branches_pkey |            16384
 2017-02-09 02:01:13.953009+01 | 1486602073.95301 | pgbench_tellers_pkey  |            90112
 2017-02-09 02:01:13.953009+01 | 1486602073.95301 | pgbench_accounts_pkey |        673882112

 2017-02-09 02:01:15.08278+01 | 1486602075.08278 | pgbench_branches_pkey |            16384
 2017-02-09 02:01:15.08278+01 | 1486602075.08278 | pgbench_tellers_pkey  |            90112
 2017-02-09 02:01:15.08278+01 | 1486602075.08278 | pgbench_accounts_pkey |        673882112

 2017-02-09 02:01:16.23539+01 | 1486602076.23539 | pgbench_branches_pkey |            16384
 2017-02-09 02:01:16.23539+01 | 1486602076.23539 | pgbench_tellers_pkey  |            90112
 2017-02-09 02:01:16.23539+01 | 1486602076.23539 | pgbench_accounts_pkey |        673882112

 2017-02-09 02:01:17.418908+01 | 1486602077.41891 | pgbench_branches_pkey |            16384
 2017-02-09 02:01:17.418908+01 | 1486602077.41891 | pgbench_tellers_pkey  |            90112
 2017-02-09 02:01:17.418908+01 | 1486602077.41891 | pgbench_accounts_pkey |        673882112

 2017-02-09 02:01:18.606826+01 | 1486602078.60683 | pgbench_branches_pkey |            16384
 2017-02-09 02:01:18.606826+01 | 1486602078.60683 | pgbench_tellers_pkey  |            90112
 2017-02-09 02:01:18.606826+01 | 1486602078.60683 | pgbench_accounts_pkey |        673882112

 2017-02-09 02:01:19.763155+01 | 1486602079.76315 | pgbench_branches_pkey |            16384
 2017-02-09 02:01:19.763155+01 | 1486602079.76315 | pgbench_tellers_pkey  |            90112
 2017-02-09 02:01:19.763155+01 | 1486602079.76315 | pgbench_accounts_pkey |        673882112

 2017-02-09 02:01:20.913457+01 | 1486602080.91346 | pgbench_branches_pkey |            16384
 2017-02-09 02:01:20.913457+01 | 1486602080.91346 | pgbench_tellers_pkey  |            90112
 2017-02-09 02:01:20.913457+01 | 1486602080.91346 | pgbench_accounts_pkey |        673882112

 2017-02-09 02:01:22.059184+01 | 1486602082.05918 | pgbench_branches_pkey |            16384
 2017-02-09 02:01:22.059184+01 | 1486602082.05918 | pgbench_tellers_pkey  |            90112
 2017-02-09 02:01:22.059184+01 | 1486602082.05918 | pgbench_accounts_pkey |        673882112

 2017-02-09 02:01:23.183697+01 | 1486602083.1837 | pgbench_branches_pkey |            16384
 2017-02-09 02:01:23.183697+01 | 1486602083.1837 | pgbench_tellers_pkey  |            90112
 2017-02-09 02:01:23.183697+01 | 1486602083.1837 | pgbench_accounts_pkey |        673882112

 2017-02-09 02:01:24.331381+01 | 1486602084.33138 | pgbench_branches_pkey |            16384
 2017-02-09 02:01:24.331381+01 | 1486602084.33138 | pgbench_tellers_pkey  |            90112
 2017-02-09 02:01:24.331381+01 | 1486602084.33138 | pgbench_accounts_pkey |        673882112

 2017-02-09 02:01:25.477585+01 | 1486602085.47759 | pgbench_branches_pkey |            16384
 2017-02-09 02:01:25.477585+01 | 1486602085.47759 | pgbench_tellers_pkey  |            90112
 2017-02-09 02:01:25.477585+01 | 1486602085.47759 | pgbench_accounts_pkey |        673882112

 2017-02-09 02:01:26.59918+01 | 1486602086.59918 | pgbench_branches_pkey |            16384
 2017-02-09 02:01:26.59918+01 | 1486602086.59918 | pgbench_tellers_pkey  |            90112
 2017-02-09 02:01:26.59918+01 | 1486602086.59918 | pgbench_accounts_pkey |        673882112

 2017-02-09 02:01:27.753681+01 | 1486602087.75368 | pgbench_branches_pkey |            16384
 2017-02-09 02:01:27.753681+01 | 1486602087.75368 | pgbench_tellers_pkey  |            90112
 2017-02-09 02:01:27.753681+01 | 1486602087.75368 | pgbench_accounts_pkey |        673882112

 2017-02-09 02:01:28.935562+01 | 1486602088.93556 | pgbench_branches_pkey |            16384
 2017-02-09 02:01:28.935562+01 | 1486602088.93556 | pgbench_tellers_pkey  |            90112
 2017-02-09 02:01:28.935562+01 | 1486602088.93556 | pgbench_accounts_pkey |        673882112

 2017-02-09 02:01:30.117013+01 | 1486602090.11701 | pgbench_branches_pkey |            16384
 2017-02-09 02:01:30.117013+01 | 1486602090.11701 | pgbench_tellers_pkey  |            90112
 2017-02-09 02:01:30.117013+01 | 1486602090.11701 | pgbench_accounts_pkey |        673882112

 2017-02-09 02:01:31.259053+01 | 1486602091.25905 | pgbench_branches_pkey |            16384
 2017-02-09 02:01:31.259053+01 | 1486602091.25905 | pgbench_tellers_pkey  |            90112
 2017-02-09 02:01:31.259053+01 | 1486602091.25905 | pgbench_accounts_pkey |        673882112

 2017-02-09 02:01:32.408106+01 | 1486602092.40811 | pgbench_branches_pkey |            16384
 2017-02-09 02:01:32.408106+01 | 1486602092.40811 | pgbench_tellers_pkey  |            90112
 2017-02-09 02:01:32.408106+01 | 1486602092.40811 | pgbench_accounts_pkey |        673882112

 2017-02-09 02:01:33.590496+01 | 1486602093.5905 | pgbench_branches_pkey |            16384
 2017-02-09 02:01:33.590496+01 | 1486602093.5905 | pgbench_tellers_pkey  |            90112
 2017-02-09 02:01:33.590496+01 | 1486602093.5905 | pgbench_accounts_pkey |        673882112

 2017-02-09 02:01:34.701767+01 | 1486602094.70177 | pgbench_branches_pkey |            16384
 2017-02-09 02:01:34.701767+01 | 1486602094.70177 | pgbench_tellers_pkey  |            90112
 2017-02-09 02:01:34.701767+01 | 1486602094.70177 | pgbench_accounts_pkey |        673882112

 2017-02-09 02:01:35.820622+01 | 1486602095.82062 | pgbench_branches_pkey |            16384
 2017-02-09 02:01:35.820622+01 | 1486602095.82062 | pgbench_tellers_pkey  |            90112
 2017-02-09 02:01:35.820622+01 | 1486602095.82062 | pgbench_accounts_pkey |        673882112

 2017-02-09 02:01:36.932866+01 | 1486602096.93287 | pgbench_branches_pkey |            16384
 2017-02-09 02:01:36.932866+01 | 1486602096.93287 | pgbench_tellers_pkey  |            90112
 2017-02-09 02:01:36.932866+01 | 1486602096.93287 | pgbench_accounts_pkey |        673882112

 2017-02-09 02:01:38.086287+01 | 1486602098.08629 | pgbench_branches_pkey |            16384
 2017-02-09 02:01:38.086287+01 | 1486602098.08629 | pgbench_tellers_pkey  |            90112
 2017-02-09 02:01:38.086287+01 | 1486602098.08629 | pgbench_accounts_pkey |        673882112

 2017-02-09 02:01:39.268013+01 | 1486602099.26801 | pgbench_branches_pkey |            16384
 2017-02-09 02:01:39.268013+01 | 1486602099.26801 | pgbench_tellers_pkey  |            90112
 2017-02-09 02:01:39.268013+01 | 1486602099.26801 | pgbench_accounts_pkey |        673882112

 2017-02-09 02:01:40.449462+01 | 1486602100.44946 | pgbench_branches_pkey |            16384
 2017-02-09 02:01:40.449462+01 | 1486602100.44946 | pgbench_tellers_pkey  |            90112
 2017-02-09 02:01:40.449462+01 | 1486602100.44946 | pgbench_accounts_pkey |        673882112

 2017-02-09 02:01:41.631636+01 | 1486602101.63164 | pgbench_branches_pkey |            16384
 2017-02-09 02:01:41.631636+01 | 1486602101.63164 | pgbench_tellers_pkey  |            90112
 2017-02-09 02:01:41.631636+01 | 1486602101.63164 | pgbench_accounts_pkey |        673882112

 2017-02-09 02:01:42.800022+01 | 1486602102.80002 | pgbench_branches_pkey |            16384
 2017-02-09 02:01:42.800022+01 | 1486602102.80002 | pgbench_tellers_pkey  |            90112
 2017-02-09 02:01:42.800022+01 | 1486602102.80002 | pgbench_accounts_pkey |        673882112

 2017-02-09 02:01:43.985681+01 | 1486602103.98568 | pgbench_branches_pkey |            16384
 2017-02-09 02:01:43.985681+01 | 1486602103.98568 | pgbench_tellers_pkey  |            90112
 2017-02-09 02:01:43.985681+01 | 1486602103.98568 | pgbench_accounts_pkey |        673882112

 2017-02-09 02:01:45.169398+01 | 1486602105.1694 | pgbench_branches_pkey |            16384
 2017-02-09 02:01:45.169398+01 | 1486602105.1694 | pgbench_tellers_pkey  |            90112
 2017-02-09 02:01:45.169398+01 | 1486602105.1694 | pgbench_accounts_pkey |        673882112

 2017-02-09 02:01:46.349213+01 | 1486602106.34921 | pgbench_branches_pkey |            16384
 2017-02-09 02:01:46.349213+01 | 1486602106.34921 | pgbench_tellers_pkey  |            90112
 2017-02-09 02:01:46.349213+01 | 1486602106.34921 | pgbench_accounts_pkey |        673882112

 2017-02-09 02:01:47.478228+01 | 1486602107.47823 | pgbench_branches_pkey |            16384
 2017-02-09 02:01:47.478228+01 | 1486602107.47823 | pgbench_tellers_pkey  |            90112
 2017-02-09 02:01:47.478228+01 | 1486602107.47823 | pgbench_accounts_pkey |        673882112

 2017-02-09 02:01:48.63305+01 | 1486602108.63305 | pgbench_branches_pkey |            16384
 2017-02-09 02:01:48.63305+01 | 1486602108.63305 | pgbench_tellers_pkey  |            90112
 2017-02-09 02:01:48.63305+01 | 1486602108.63305 | pgbench_accounts_pkey |        673882112

 2017-02-09 02:01:49.810035+01 | 1486602109.81003 | pgbench_branches_pkey |            16384
 2017-02-09 02:01:49.810035+01 | 1486602109.81003 | pgbench_tellers_pkey  |            90112
 2017-02-09 02:01:49.810035+01 | 1486602109.81003 | pgbench_accounts_pkey |        673882112

 2017-02-09 02:01:50.979145+01 | 1486602110.97915 | pgbench_branches_pkey |            16384
 2017-02-09 02:01:50.979145+01 | 1486602110.97915 | pgbench_tellers_pkey  |            90112
 2017-02-09 02:01:50.979145+01 | 1486602110.97915 | pgbench_accounts_pkey |        673882112

 2017-02-09 02:01:52.161281+01 | 1486602112.16128 | pgbench_branches_pkey |            16384
 2017-02-09 02:01:52.161281+01 | 1486602112.16128 | pgbench_tellers_pkey  |            90112
 2017-02-09 02:01:52.161281+01 | 1486602112.16128 | pgbench_accounts_pkey |        673882112

 2017-02-09 02:01:53.319687+01 | 1486602113.31969 | pgbench_branches_pkey |            16384
 2017-02-09 02:01:53.319687+01 | 1486602113.31969 | pgbench_tellers_pkey  |            90112
 2017-02-09 02:01:53.319687+01 | 1486602113.31969 | pgbench_accounts_pkey |        673882112

 2017-02-09 02:01:54.429373+01 | 1486602114.42937 | pgbench_branches_pkey |            16384
 2017-02-09 02:01:54.429373+01 | 1486602114.42937 | pgbench_tellers_pkey  |            90112
 2017-02-09 02:01:54.429373+01 | 1486602114.42937 | pgbench_accounts_pkey |        673882112

 2017-02-09 02:01:55.573228+01 | 1486602115.57323 | pgbench_branches_pkey |            16384
 2017-02-09 02:01:55.573228+01 | 1486602115.57323 | pgbench_tellers_pkey  |            90112
 2017-02-09 02:01:55.573228+01 | 1486602115.57323 | pgbench_accounts_pkey |        673882112

 2017-02-09 02:01:56.731715+01 | 1486602116.73171 | pgbench_branches_pkey |            16384
 2017-02-09 02:01:56.731715+01 | 1486602116.73171 | pgbench_tellers_pkey  |            90112
 2017-02-09 02:01:56.731715+01 | 1486602116.73171 | pgbench_accounts_pkey |        673882112

 2017-02-09 02:01:57.914979+01 | 1486602117.91498 | pgbench_branches_pkey |            16384
 2017-02-09 02:01:57.914979+01 | 1486602117.91498 | pgbench_tellers_pkey  |            90112
 2017-02-09 02:01:57.914979+01 | 1486602117.91498 | pgbench_accounts_pkey |        673882112

 2017-02-09 02:01:59.099343+01 | 1486602119.09934 | pgbench_branches_pkey |            16384
 2017-02-09 02:01:59.099343+01 | 1486602119.09934 | pgbench_tellers_pkey  |            90112
 2017-02-09 02:01:59.099343+01 | 1486602119.09934 | pgbench_accounts_pkey |        673882112

 2017-02-09 02:02:00.282752+01 | 1486602120.28275 | pgbench_branches_pkey |            16384
 2017-02-09 02:02:00.282752+01 | 1486602120.28275 | pgbench_tellers_pkey  |            90112
 2017-02-09 02:02:00.282752+01 | 1486602120.28275 | pgbench_accounts_pkey |        673882112

 2017-02-09 02:02:01.453695+01 | 1486602121.4537 | pgbench_branches_pkey |            16384
 2017-02-09 02:02:01.453695+01 | 1486602121.4537 | pgbench_tellers_pkey  |            90112
 2017-02-09 02:02:01.453695+01 | 1486602121.4537 | pgbench_accounts_pkey |        673882112

 2017-02-09 02:02:02.628166+01 | 1486602122.62817 | pgbench_branches_pkey |            16384
 2017-02-09 02:02:02.628166+01 | 1486602122.62817 | pgbench_tellers_pkey  |            90112
 2017-02-09 02:02:02.628166+01 | 1486602122.62817 | pgbench_accounts_pkey |        673882112

 2017-02-09 02:02:03.809288+01 | 1486602123.80929 | pgbench_branches_pkey |            16384
 2017-02-09 02:02:03.809288+01 | 1486602123.80929 | pgbench_tellers_pkey  |            90112
 2017-02-09 02:02:03.809288+01 | 1486602123.80929 | pgbench_accounts_pkey |        673882112

 2017-02-09 02:02:04.94381+01 | 1486602124.94381 | pgbench_branches_pkey |            16384
 2017-02-09 02:02:04.94381+01 | 1486602124.94381 | pgbench_tellers_pkey  |            90112
 2017-02-09 02:02:04.94381+01 | 1486602124.94381 | pgbench_accounts_pkey |        673882112

 2017-02-09 02:02:06.095277+01 | 1486602126.09528 | pgbench_branches_pkey |            16384
 2017-02-09 02:02:06.095277+01 | 1486602126.09528 | pgbench_tellers_pkey  |            90112
 2017-02-09 02:02:06.095277+01 | 1486602126.09528 | pgbench_accounts_pkey |        673882112

 2017-02-09 02:02:07.277063+01 | 1486602127.27706 | pgbench_branches_pkey |            16384
 2017-02-09 02:02:07.277063+01 | 1486602127.27706 | pgbench_tellers_pkey  |            90112
 2017-02-09 02:02:07.277063+01 | 1486602127.27706 | pgbench_accounts_pkey |        673882112

 2017-02-09 02:02:08.460008+01 | 1486602128.46001 | pgbench_branches_pkey |            16384
 2017-02-09 02:02:08.460008+01 | 1486602128.46001 | pgbench_tellers_pkey  |            90112
 2017-02-09 02:02:08.460008+01 | 1486602128.46001 | pgbench_accounts_pkey |        673882112

 2017-02-09 02:02:09.638273+01 | 1486602129.63827 | pgbench_branches_pkey |            16384
 2017-02-09 02:02:09.638273+01 | 1486602129.63827 | pgbench_tellers_pkey  |            90112
 2017-02-09 02:02:09.638273+01 | 1486602129.63827 | pgbench_accounts_pkey |        673882112

 2017-02-09 02:02:10.818497+01 | 1486602130.8185 | pgbench_branches_pkey |            16384
 2017-02-09 02:02:10.818497+01 | 1486602130.8185 | pgbench_tellers_pkey  |            90112
 2017-02-09 02:02:10.818497+01 | 1486602130.8185 | pgbench_accounts_pkey |        673882112

 2017-02-09 02:02:12.000737+01 | 1486602132.00074 | pgbench_branches_pkey |            16384
 2017-02-09 02:02:12.000737+01 | 1486602132.00074 | pgbench_tellers_pkey  |            90112
 2017-02-09 02:02:12.000737+01 | 1486602132.00074 | pgbench_accounts_pkey |        673882112

 2017-02-09 02:02:13.181529+01 | 1486602133.18153 | pgbench_branches_pkey |            16384
 2017-02-09 02:02:13.181529+01 | 1486602133.18153 | pgbench_tellers_pkey  |            90112
 2017-02-09 02:02:13.181529+01 | 1486602133.18153 | pgbench_accounts_pkey |        673882112

 2017-02-09 02:02:14.353944+01 | 1486602134.35394 | pgbench_branches_pkey |            16384
 2017-02-09 02:02:14.353944+01 | 1486602134.35394 | pgbench_tellers_pkey  |            90112
 2017-02-09 02:02:14.353944+01 | 1486602134.35394 | pgbench_accounts_pkey |        673882112

 2017-02-09 02:02:15.530348+01 | 1486602135.53035 | pgbench_branches_pkey |            16384
 2017-02-09 02:02:15.530348+01 | 1486602135.53035 | pgbench_tellers_pkey  |            90112
 2017-02-09 02:02:15.530348+01 | 1486602135.53035 | pgbench_accounts_pkey |        673882112

 2017-02-09 02:02:16.708614+01 | 1486602136.70861 | pgbench_branches_pkey |            16384
 2017-02-09 02:02:16.708614+01 | 1486602136.70861 | pgbench_tellers_pkey  |            90112
 2017-02-09 02:02:16.708614+01 | 1486602136.70861 | pgbench_accounts_pkey |        673882112

 2017-02-09 02:02:17.858392+01 | 1486602137.85839 | pgbench_branches_pkey |            16384
 2017-02-09 02:02:17.858392+01 | 1486602137.85839 | pgbench_tellers_pkey  |            90112
 2017-02-09 02:02:17.858392+01 | 1486602137.85839 | pgbench_accounts_pkey |        673882112

 2017-02-09 02:02:19.041145+01 | 1486602139.04115 | pgbench_branches_pkey |            16384
 2017-02-09 02:02:19.041145+01 | 1486602139.04115 | pgbench_tellers_pkey  |            90112
 2017-02-09 02:02:19.041145+01 | 1486602139.04115 | pgbench_accounts_pkey |        673882112

 2017-02-09 02:02:20.218711+01 | 1486602140.21871 | pgbench_branches_pkey |            16384
 2017-02-09 02:02:20.218711+01 | 1486602140.21871 | pgbench_tellers_pkey  |            90112
 2017-02-09 02:02:20.218711+01 | 1486602140.21871 | pgbench_accounts_pkey |        673882112

 2017-02-09 02:02:21.401277+01 | 1486602141.40128 | pgbench_branches_pkey |            16384
 2017-02-09 02:02:21.401277+01 | 1486602141.40128 | pgbench_tellers_pkey  |            90112
 2017-02-09 02:02:21.401277+01 | 1486602141.40128 | pgbench_accounts_pkey |        673882112

 2017-02-09 02:02:22.583309+01 | 1486602142.58331 | pgbench_branches_pkey |            16384
 2017-02-09 02:02:22.583309+01 | 1486602142.58331 | pgbench_tellers_pkey  |            90112
 2017-02-09 02:02:22.583309+01 | 1486602142.58331 | pgbench_accounts_pkey |        673882112

 2017-02-09 02:02:23.763416+01 | 1486602143.76342 | pgbench_branches_pkey |            16384
 2017-02-09 02:02:23.763416+01 | 1486602143.76342 | pgbench_tellers_pkey  |            90112
 2017-02-09 02:02:23.763416+01 | 1486602143.76342 | pgbench_accounts_pkey |        673882112

 2017-02-09 02:02:24.944104+01 | 1486602144.9441 | pgbench_branches_pkey |            16384
 2017-02-09 02:02:24.944104+01 | 1486602144.9441 | pgbench_tellers_pkey  |            90112
 2017-02-09 02:02:24.944104+01 | 1486602144.9441 | pgbench_accounts_pkey |        673882112

 2017-02-09 02:02:26.126162+01 | 1486602146.12616 | pgbench_branches_pkey |            16384
 2017-02-09 02:02:26.126162+01 | 1486602146.12616 | pgbench_tellers_pkey  |            90112
 2017-02-09 02:02:26.126162+01 | 1486602146.12616 | pgbench_accounts_pkey |        673882112

 2017-02-09 02:02:27.306463+01 | 1486602147.30646 | pgbench_branches_pkey |            16384
 2017-02-09 02:02:27.306463+01 | 1486602147.30646 | pgbench_tellers_pkey  |            90112
 2017-02-09 02:02:27.306463+01 | 1486602147.30646 | pgbench_accounts_pkey |        673882112

 2017-02-09 02:02:28.431211+01 | 1486602148.43121 | pgbench_branches_pkey |            16384
 2017-02-09 02:02:28.431211+01 | 1486602148.43121 | pgbench_tellers_pkey  |            90112
 2017-02-09 02:02:28.431211+01 | 1486602148.43121 | pgbench_accounts_pkey |        673882112

 2017-02-09 02:02:29.608746+01 | 1486602149.60875 | pgbench_branches_pkey |            16384
 2017-02-09 02:02:29.608746+01 | 1486602149.60875 | pgbench_tellers_pkey  |            90112
 2017-02-09 02:02:29.608746+01 | 1486602149.60875 | pgbench_accounts_pkey |        673882112

 2017-02-09 02:02:30.790144+01 | 1486602150.79014 | pgbench_branches_pkey |            16384
 2017-02-09 02:02:30.790144+01 | 1486602150.79014 | pgbench_tellers_pkey  |            90112
 2017-02-09 02:02:30.790144+01 | 1486602150.79014 | pgbench_accounts_pkey |        673882112

 2017-02-09 02:02:31.972333+01 | 1486602151.97233 | pgbench_branches_pkey |            16384
 2017-02-09 02:02:31.972333+01 | 1486602151.97233 | pgbench_tellers_pkey  |            90112
 2017-02-09 02:02:31.972333+01 | 1486602151.97233 | pgbench_accounts_pkey |        673882112

 2017-02-09 02:02:33.151385+01 | 1486602153.15139 | pgbench_branches_pkey |            16384
 2017-02-09 02:02:33.151385+01 | 1486602153.15139 | pgbench_tellers_pkey  |            90112
 2017-02-09 02:02:33.151385+01 | 1486602153.15139 | pgbench_accounts_pkey |        673882112

 2017-02-09 02:02:34.33092+01 | 1486602154.33092 | pgbench_branches_pkey |            16384
 2017-02-09 02:02:34.33092+01 | 1486602154.33092 | pgbench_tellers_pkey  |            90112
 2017-02-09 02:02:34.33092+01 | 1486602154.33092 | pgbench_accounts_pkey |        673882112

 2017-02-09 02:02:35.512642+01 | 1486602155.51264 | pgbench_branches_pkey |            16384
 2017-02-09 02:02:35.512642+01 | 1486602155.51264 | pgbench_tellers_pkey  |            90112
 2017-02-09 02:02:35.512642+01 | 1486602155.51264 | pgbench_accounts_pkey |        673882112

 2017-02-09 02:02:36.694658+01 | 1486602156.69466 | pgbench_branches_pkey |            16384
 2017-02-09 02:02:36.694658+01 | 1486602156.69466 | pgbench_tellers_pkey  |            90112
 2017-02-09 02:02:36.694658+01 | 1486602156.69466 | pgbench_accounts_pkey |        673882112

 2017-02-09 02:02:37.877079+01 | 1486602157.87708 | pgbench_branches_pkey |            16384
 2017-02-09 02:02:37.877079+01 | 1486602157.87708 | pgbench_tellers_pkey  |            90112
 2017-02-09 02:02:37.877079+01 | 1486602157.87708 | pgbench_accounts_pkey |        673882112

 2017-02-09 02:02:39.058837+01 | 1486602159.05884 | pgbench_branches_pkey |            16384
 2017-02-09 02:02:39.058837+01 | 1486602159.05884 | pgbench_tellers_pkey  |            90112
 2017-02-09 02:02:39.058837+01 | 1486602159.05884 | pgbench_accounts_pkey |        673882112

 2017-02-09 02:02:40.243931+01 | 1486602160.24393 | pgbench_branches_pkey |            16384
 2017-02-09 02:02:40.243931+01 | 1486602160.24393 | pgbench_tellers_pkey  |            90112
 2017-02-09 02:02:40.243931+01 | 1486602160.24393 | pgbench_accounts_pkey |        673882112

 2017-02-09 02:02:41.428249+01 | 1486602161.42825 | pgbench_branches_pkey |            16384
 2017-02-09 02:02:41.428249+01 | 1486602161.42825 | pgbench_tellers_pkey  |            90112
 2017-02-09 02:02:41.428249+01 | 1486602161.42825 | pgbench_accounts_pkey |        673882112

 2017-02-09 02:02:42.547187+01 | 1486602162.54719 | pgbench_branches_pkey |            16384
 2017-02-09 02:02:42.547187+01 | 1486602162.54719 | pgbench_tellers_pkey  |            90112
 2017-02-09 02:02:42.547187+01 | 1486602162.54719 | pgbench_accounts_pkey |        673882112

 2017-02-09 02:02:43.710463+01 | 1486602163.71046 | pgbench_branches_pkey |            16384
 2017-02-09 02:02:43.710463+01 | 1486602163.71046 | pgbench_tellers_pkey  |            90112
 2017-02-09 02:02:43.710463+01 | 1486602163.71046 | pgbench_accounts_pkey |        673882112

 2017-02-09 02:02:44.890953+01 | 1486602164.89095 | pgbench_branches_pkey |            16384
 2017-02-09 02:02:44.890953+01 | 1486602164.89095 | pgbench_tellers_pkey  |            90112
 2017-02-09 02:02:44.890953+01 | 1486602164.89095 | pgbench_accounts_pkey |        673882112

 2017-02-09 02:02:46.072088+01 | 1486602166.07209 | pgbench_branches_pkey |            16384
 2017-02-09 02:02:46.072088+01 | 1486602166.07209 | pgbench_tellers_pkey  |            90112
 2017-02-09 02:02:46.072088+01 | 1486602166.07209 | pgbench_accounts_pkey |        673882112

 2017-02-09 02:02:47.252371+01 | 1486602167.25237 | pgbench_branches_pkey |            16384
 2017-02-09 02:02:47.252371+01 | 1486602167.25237 | pgbench_tellers_pkey  |            90112
 2017-02-09 02:02:47.252371+01 | 1486602167.25237 | pgbench_accounts_pkey |        673882112

 2017-02-09 02:02:48.435308+01 | 1486602168.43531 | pgbench_branches_pkey |            16384
 2017-02-09 02:02:48.435308+01 | 1486602168.43531 | pgbench_tellers_pkey  |            90112
 2017-02-09 02:02:48.435308+01 | 1486602168.43531 | pgbench_accounts_pkey |        673882112

 2017-02-09 02:02:49.618785+01 | 1486602169.61878 | pgbench_branches_pkey |            16384
 2017-02-09 02:02:49.618785+01 | 1486602169.61878 | pgbench_tellers_pkey  |            90112
 2017-02-09 02:02:49.618785+01 | 1486602169.61878 | pgbench_accounts_pkey |        673882112

 2017-02-09 02:02:50.800553+01 | 1486602170.80055 | pgbench_branches_pkey |            16384
 2017-02-09 02:02:50.800553+01 | 1486602170.80055 | pgbench_tellers_pkey  |            90112
 2017-02-09 02:02:50.800553+01 | 1486602170.80055 | pgbench_accounts_pkey |        673882112

 2017-02-09 02:02:51.984221+01 | 1486602171.98422 | pgbench_branches_pkey |            16384
 2017-02-09 02:02:51.984221+01 | 1486602171.98422 | pgbench_tellers_pkey  |            90112
 2017-02-09 02:02:51.984221+01 | 1486602171.98422 | pgbench_accounts_pkey |        673882112

 2017-02-09 02:02:53.15227+01 | 1486602173.15227 | pgbench_branches_pkey |            16384
 2017-02-09 02:02:53.15227+01 | 1486602173.15227 | pgbench_tellers_pkey  |            90112
 2017-02-09 02:02:53.15227+01 | 1486602173.15227 | pgbench_accounts_pkey |        673882112

 2017-02-09 02:02:54.305426+01 | 1486602174.30543 | pgbench_branches_pkey |            16384
 2017-02-09 02:02:54.305426+01 | 1486602174.30543 | pgbench_tellers_pkey  |            90112
 2017-02-09 02:02:54.305426+01 | 1486602174.30543 | pgbench_accounts_pkey |        673882112

 2017-02-09 02:02:55.487726+01 | 1486602175.48773 | pgbench_branches_pkey |            16384
 2017-02-09 02:02:55.487726+01 | 1486602175.48773 | pgbench_tellers_pkey  |            90112
 2017-02-09 02:02:55.487726+01 | 1486602175.48773 | pgbench_accounts_pkey |        673882112

 2017-02-09 02:02:56.645283+01 | 1486602176.64528 | pgbench_branches_pkey |            16384
 2017-02-09 02:02:56.645283+01 | 1486602176.64528 | pgbench_tellers_pkey  |            90112
 2017-02-09 02:02:56.645283+01 | 1486602176.64528 | pgbench_accounts_pkey |        673882112

 2017-02-09 02:02:57.802307+01 | 1486602177.80231 | pgbench_branches_pkey |            16384
 2017-02-09 02:02:57.802307+01 | 1486602177.80231 | pgbench_tellers_pkey  |            90112
 2017-02-09 02:02:57.802307+01 | 1486602177.80231 | pgbench_accounts_pkey |        673882112

 2017-02-09 02:02:58.983093+01 | 1486602178.98309 | pgbench_branches_pkey |            16384
 2017-02-09 02:02:58.983093+01 | 1486602178.98309 | pgbench_tellers_pkey  |            90112
 2017-02-09 02:02:58.983093+01 | 1486602178.98309 | pgbench_accounts_pkey |        673882112

 2017-02-09 02:03:00.160566+01 | 1486602180.16057 | pgbench_branches_pkey |            16384
 2017-02-09 02:03:00.160566+01 | 1486602180.16057 | pgbench_tellers_pkey  |            90112
 2017-02-09 02:03:00.160566+01 | 1486602180.16057 | pgbench_accounts_pkey |        673882112

 2017-02-09 02:03:01.308257+01 | 1486602181.30826 | pgbench_branches_pkey |            16384
 2017-02-09 02:03:01.308257+01 | 1486602181.30826 | pgbench_tellers_pkey  |            90112
 2017-02-09 02:03:01.308257+01 | 1486602181.30826 | pgbench_accounts_pkey |        673882112

 2017-02-09 02:03:02.42488+01 | 1486602182.42488 | pgbench_branches_pkey |            16384
 2017-02-09 02:03:02.42488+01 | 1486602182.42488 | pgbench_tellers_pkey  |            90112
 2017-02-09 02:03:02.42488+01 | 1486602182.42488 | pgbench_accounts_pkey |        673882112

 2017-02-09 02:03:03.594741+01 | 1486602183.59474 | pgbench_branches_pkey |            16384
 2017-02-09 02:03:03.594741+01 | 1486602183.59474 | pgbench_tellers_pkey  |            90112
 2017-02-09 02:03:03.594741+01 | 1486602183.59474 | pgbench_accounts_pkey |        673882112

 2017-02-09 02:03:04.77425+01 | 1486602184.77425 | pgbench_branches_pkey |            16384
 2017-02-09 02:03:04.77425+01 | 1486602184.77425 | pgbench_tellers_pkey  |            90112
 2017-02-09 02:03:04.77425+01 | 1486602184.77425 | pgbench_accounts_pkey |        673882112

 2017-02-09 02:03:05.922971+01 | 1486602185.92297 | pgbench_branches_pkey |            16384
 2017-02-09 02:03:05.922971+01 | 1486602185.92297 | pgbench_tellers_pkey  |            90112
 2017-02-09 02:03:05.922971+01 | 1486602185.92297 | pgbench_accounts_pkey |        673882112

 2017-02-09 02:03:07.109602+01 | 1486602187.1096 | pgbench_branches_pkey |            16384
 2017-02-09 02:03:07.109602+01 | 1486602187.1096 | pgbench_tellers_pkey  |            90112
 2017-02-09 02:03:07.109602+01 | 1486602187.1096 | pgbench_accounts_pkey |        673882112

 2017-02-09 02:03:08.289746+01 | 1486602188.28975 | pgbench_branches_pkey |            16384
 2017-02-09 02:03:08.289746+01 | 1486602188.28975 | pgbench_tellers_pkey  |            90112
 2017-02-09 02:03:08.289746+01 | 1486602188.28975 | pgbench_accounts_pkey |        673882112

 2017-02-09 02:03:09.462803+01 | 1486602189.4628 | pgbench_branches_pkey |            16384
 2017-02-09 02:03:09.462803+01 | 1486602189.4628 | pgbench_tellers_pkey  |            90112
 2017-02-09 02:03:09.462803+01 | 1486602189.4628 | pgbench_accounts_pkey |        673882112

 2017-02-09 02:03:10.645664+01 | 1486602190.64566 | pgbench_branches_pkey |            16384
 2017-02-09 02:03:10.645664+01 | 1486602190.64566 | pgbench_tellers_pkey  |            90112
 2017-02-09 02:03:10.645664+01 | 1486602190.64566 | pgbench_accounts_pkey |        673882112

 2017-02-09 02:03:11.828796+01 | 1486602191.8288 | pgbench_branches_pkey |            16384
 2017-02-09 02:03:11.828796+01 | 1486602191.8288 | pgbench_tellers_pkey  |            90112
 2017-02-09 02:03:11.828796+01 | 1486602191.8288 | pgbench_accounts_pkey |        673882112

 2017-02-09 02:03:13.010269+01 | 1486602193.01027 | pgbench_branches_pkey |            16384
 2017-02-09 02:03:13.010269+01 | 1486602193.01027 | pgbench_tellers_pkey  |            90112
 2017-02-09 02:03:13.010269+01 | 1486602193.01027 | pgbench_accounts_pkey |        673882112

 2017-02-09 02:03:14.190126+01 | 1486602194.19013 | pgbench_branches_pkey |            16384
 2017-02-09 02:03:14.190126+01 | 1486602194.19013 | pgbench_tellers_pkey  |            90112
 2017-02-09 02:03:14.190126+01 | 1486602194.19013 | pgbench_accounts_pkey |        673882112

 2017-02-09 02:03:15.361525+01 | 1486602195.36153 | pgbench_branches_pkey |            16384
 2017-02-09 02:03:15.361525+01 | 1486602195.36153 | pgbench_tellers_pkey  |            90112
 2017-02-09 02:03:15.361525+01 | 1486602195.36153 | pgbench_accounts_pkey |        673882112

 2017-02-09 02:03:16.553232+01 | 1486602196.55323 | pgbench_branches_pkey |            16384
 2017-02-09 02:03:16.553232+01 | 1486602196.55323 | pgbench_tellers_pkey  |            90112
 2017-02-09 02:03:16.553232+01 | 1486602196.55323 | pgbench_accounts_pkey |        673882112

 2017-02-09 02:03:17.694643+01 | 1486602197.69464 | pgbench_branches_pkey |            16384
 2017-02-09 02:03:17.694643+01 | 1486602197.69464 | pgbench_tellers_pkey  |            90112
 2017-02-09 02:03:17.694643+01 | 1486602197.69464 | pgbench_accounts_pkey |        673882112

 2017-02-09 02:03:18.814639+01 | 1486602198.81464 | pgbench_branches_pkey |            16384
 2017-02-09 02:03:18.814639+01 | 1486602198.81464 | pgbench_tellers_pkey  |            90112
 2017-02-09 02:03:18.814639+01 | 1486602198.81464 | pgbench_accounts_pkey |        673882112

 2017-02-09 02:03:19.991604+01 | 1486602199.9916 | pgbench_branches_pkey |            16384
 2017-02-09 02:03:19.991604+01 | 1486602199.9916 | pgbench_tellers_pkey  |            90112
 2017-02-09 02:03:19.991604+01 | 1486602199.9916 | pgbench_accounts_pkey |        673882112

 2017-02-09 02:03:21.172535+01 | 1486602201.17253 | pgbench_branches_pkey |            16384
 2017-02-09 02:03:21.172535+01 | 1486602201.17253 | pgbench_tellers_pkey  |            90112
 2017-02-09 02:03:21.172535+01 | 1486602201.17253 | pgbench_accounts_pkey |        673882112

 2017-02-09 02:03:22.351619+01 | 1486602202.35162 | pgbench_branches_pkey |            16384
 2017-02-09 02:03:22.351619+01 | 1486602202.35162 | pgbench_tellers_pkey  |            90112
 2017-02-09 02:03:22.351619+01 | 1486602202.35162 | pgbench_accounts_pkey |        673882112

 2017-02-09 02:03:23.531849+01 | 1486602203.53185 | pgbench_branches_pkey |            16384
 2017-02-09 02:03:23.531849+01 | 1486602203.53185 | pgbench_tellers_pkey  |            90112
 2017-02-09 02:03:23.531849+01 | 1486602203.53185 | pgbench_accounts_pkey |        673882112

 2017-02-09 02:03:24.7126+01 | 1486602204.7126 | pgbench_branches_pkey |            16384
 2017-02-09 02:03:24.7126+01 | 1486602204.7126 | pgbench_tellers_pkey  |            90112
 2017-02-09 02:03:24.7126+01 | 1486602204.7126 | pgbench_accounts_pkey |        673882112

 2017-02-09 02:03:25.898516+01 | 1486602205.89852 | pgbench_branches_pkey |            16384
 2017-02-09 02:03:25.898516+01 | 1486602205.89852 | pgbench_tellers_pkey  |            90112
 2017-02-09 02:03:25.898516+01 | 1486602205.89852 | pgbench_accounts_pkey |        673882112

 2017-02-09 02:03:27.054238+01 | 1486602207.05424 | pgbench_branches_pkey |            16384
 2017-02-09 02:03:27.054238+01 | 1486602207.05424 | pgbench_tellers_pkey  |            90112
 2017-02-09 02:03:27.054238+01 | 1486602207.05424 | pgbench_accounts_pkey |        673882112

 2017-02-09 02:03:28.211233+01 | 1486602208.21123 | pgbench_branches_pkey |            16384
 2017-02-09 02:03:28.211233+01 | 1486602208.21123 | pgbench_tellers_pkey  |            90112
 2017-02-09 02:03:28.211233+01 | 1486602208.21123 | pgbench_accounts_pkey |        673882112

 2017-02-09 02:03:29.392768+01 | 1486602209.39277 | pgbench_branches_pkey |            16384
 2017-02-09 02:03:29.392768+01 | 1486602209.39277 | pgbench_tellers_pkey  |            90112
 2017-02-09 02:03:29.392768+01 | 1486602209.39277 | pgbench_accounts_pkey |        673882112

 2017-02-09 02:03:30.56369+01 | 1486602210.56369 | pgbench_branches_pkey |            16384
 2017-02-09 02:03:30.56369+01 | 1486602210.56369 | pgbench_tellers_pkey  |            90112
 2017-02-09 02:03:30.56369+01 | 1486602210.56369 | pgbench_accounts_pkey |        673882112

 2017-02-09 02:03:31.740018+01 | 1486602211.74002 | pgbench_branches_pkey |            16384
 2017-02-09 02:03:31.740018+01 | 1486602211.74002 | pgbench_tellers_pkey  |            90112
 2017-02-09 02:03:31.740018+01 | 1486602211.74002 | pgbench_accounts_pkey |        673882112

 2017-02-09 02:03:32.922238+01 | 1486602212.92224 | pgbench_branches_pkey |            16384
 2017-02-09 02:03:32.922238+01 | 1486602212.92224 | pgbench_tellers_pkey  |            90112
 2017-02-09 02:03:32.922238+01 | 1486602212.92224 | pgbench_accounts_pkey |        673882112

 2017-02-09 02:03:34.104708+01 | 1486602214.10471 | pgbench_branches_pkey |            16384
 2017-02-09 02:03:34.104708+01 | 1486602214.10471 | pgbench_tellers_pkey  |            90112
 2017-02-09 02:03:34.104708+01 | 1486602214.10471 | pgbench_accounts_pkey |        673882112

