 2017-02-08 03:30:32.725608+01 | 1486521032.72561 |                 0 |              15 |                    19 |                   34 |                 36 |           604 |                5 |         1473254 |                     0 |     490543237 | 2017-02-08 02:19:40.96972+01

 2017-02-08 03:30:33.916099+01 | 1486521033.9161 |                 0 |              15 |                    19 |                   34 |                 36 |           607 |                5 |         1473254 |                     0 |     490655480 | 2017-02-08 02:19:40.96972+01

 2017-02-08 03:30:35.10706+01 | 1486521035.10706 |                 0 |              15 |                    19 |                   34 |                 36 |           608 |                5 |         1473254 |                     0 |     490796950 | 2017-02-08 02:19:40.96972+01

 2017-02-08 03:30:36.296962+01 | 1486521036.29696 |                 0 |              15 |                    19 |                   34 |                 36 |           608 |                5 |         1473254 |                     0 |     490940671 | 2017-02-08 02:19:40.96972+01

 2017-02-08 03:30:37.49088+01 | 1486521037.49088 |                 0 |              15 |                    19 |                   34 |                 36 |           608 |                5 |         1473254 |                     0 |     491085223 | 2017-02-08 02:19:40.96972+01

 2017-02-08 03:30:38.660049+01 | 1486521038.66005 |                 0 |              15 |                    19 |                   34 |                 36 |           608 |                5 |         1473254 |                     0 |     491229545 | 2017-02-08 02:19:40.96972+01

 2017-02-08 03:30:39.7607+01 | 1486521039.7607 |                 0 |              15 |                    19 |                   34 |                 36 |           608 |                5 |         1473254 |                     0 |     491339211 | 2017-02-08 02:19:40.96972+01

 2017-02-08 03:30:40.920815+01 | 1486521040.92081 |                 0 |              15 |                    19 |                   34 |                 36 |           608 |                5 |         1473254 |                     0 |     491464484 | 2017-02-08 02:19:40.96972+01

 2017-02-08 03:30:42.100907+01 | 1486521042.10091 |                 0 |              15 |                    19 |                   34 |                 36 |           608 |                5 |         1473254 |                     0 |     491592032 | 2017-02-08 02:19:40.96972+01

 2017-02-08 03:30:43.301113+01 | 1486521043.30111 |                 0 |              15 |                    19 |                   34 |                 36 |           608 |                5 |         1473254 |                     0 |     491737234 | 2017-02-08 02:19:40.96972+01

 2017-02-08 03:30:44.49496+01 | 1486521044.49496 |                 0 |              15 |                    19 |                   34 |                 36 |           608 |                5 |         1473254 |                     0 |     491882369 | 2017-02-08 02:19:40.96972+01

 2017-02-08 03:30:45.693619+01 | 1486521045.69362 |                 0 |              15 |                    19 |                   34 |                 36 |           608 |                5 |         1473254 |                     0 |     492027386 | 2017-02-08 02:19:40.96972+01

 2017-02-08 03:30:46.885808+01 | 1486521046.88581 |                 0 |              15 |                    19 |                   34 |                 36 |           608 |                5 |         1473254 |                     0 |     492171113 | 2017-02-08 02:19:40.96972+01

 2017-02-08 03:30:48.070894+01 | 1486521048.07089 |                 0 |              15 |                    19 |                   34 |                 36 |           608 |                5 |         1473254 |                     0 |     492290119 | 2017-02-08 02:19:40.96972+01

 2017-02-08 03:30:49.265288+01 | 1486521049.26529 |                 0 |              15 |                    19 |                   34 |                 36 |           608 |                5 |         1473254 |                     0 |     492435868 | 2017-02-08 02:19:40.96972+01

 2017-02-08 03:30:50.46215+01 | 1486521050.46215 |                 0 |              15 |                    19 |                   34 |                 36 |           608 |                5 |         1473254 |                     0 |     492581028 | 2017-02-08 02:19:40.96972+01

 2017-02-08 03:30:51.612764+01 | 1486521051.61276 |                 0 |              15 |                    19 |                   34 |                 36 |           608 |                5 |         1473254 |                     0 |     492726415 | 2017-02-08 02:19:40.96972+01

 2017-02-08 03:30:52.724739+01 | 1486521052.72474 |                 0 |              15 |                    19 |                   34 |                 36 |           608 |                5 |         1473254 |                     0 |     492864441 | 2017-02-08 02:19:40.96972+01

 2017-02-08 03:30:53.89009+01 | 1486521053.89009 |                 0 |              15 |                    19 |                   34 |                 36 |           608 |                5 |         1473254 |                     0 |     492975722 | 2017-02-08 02:19:40.96972+01

 2017-02-08 03:30:55.078767+01 | 1486521055.07877 |                 0 |              15 |                    19 |                   34 |                 36 |           608 |                5 |         1473254 |                     0 |     493116270 | 2017-02-08 02:19:40.96972+01

 2017-02-08 03:30:56.278303+01 | 1486521056.2783 |                 0 |              15 |                    19 |                   34 |                 36 |           608 |                5 |         1473254 |                     0 |     493261570 | 2017-02-08 02:19:40.96972+01

 2017-02-08 03:30:57.47613+01 | 1486521057.47613 |                 0 |              15 |                    19 |                   34 |                 36 |           608 |                5 |         1473254 |                     0 |     493407497 | 2017-02-08 02:19:40.96972+01

 2017-02-08 03:30:58.67126+01 | 1486521058.67126 |                 0 |              15 |                    19 |                   34 |                 36 |           608 |                5 |         1473254 |                     0 |     493553072 | 2017-02-08 02:19:40.96972+01

 2017-02-08 03:30:59.851287+01 | 1486521059.85129 |                 0 |              15 |                    19 |                   34 |                 36 |           608 |                5 |         1473254 |                     0 |     493698709 | 2017-02-08 02:19:40.96972+01

 2017-02-08 03:31:01.038683+01 | 1486521061.03868 |                 0 |              15 |                    19 |                   34 |                 36 |           608 |                5 |         1473254 |                     0 |     493843060 | 2017-02-08 02:19:40.96972+01

 2017-02-08 03:31:02.218832+01 | 1486521062.21883 |                 0 |              15 |                    19 |                   34 |                 36 |           608 |                5 |         1473254 |                     0 |     493988456 | 2017-02-08 02:19:40.96972+01

 2017-02-08 03:31:03.361118+01 | 1486521063.36112 |                 0 |              15 |                    19 |                   34 |                 36 |           608 |                5 |         1473254 |                     0 |     494102266 | 2017-02-08 02:19:40.96972+01

 2017-02-08 03:31:04.545361+01 | 1486521064.54536 |                 0 |              15 |                    19 |                   34 |                 36 |           608 |                5 |         1473254 |                     0 |     494242416 | 2017-02-08 02:19:40.96972+01

 2017-02-08 03:31:05.726795+01 | 1486521065.72679 |                 0 |              15 |                    19 |                   34 |                 36 |           608 |                5 |         1473254 |                     0 |     494382483 | 2017-02-08 02:19:40.96972+01

 2017-02-08 03:31:06.876296+01 | 1486521066.8763 |                 0 |              15 |                    19 |                   34 |                 36 |           608 |                5 |         1473254 |                     0 |     494506856 | 2017-02-08 02:19:40.96972+01

 2017-02-08 03:31:08.061884+01 | 1486521068.06188 |                 0 |              15 |                    19 |                   34 |                 36 |           608 |                5 |         1473254 |                     0 |     494640554 | 2017-02-08 02:19:40.96972+01

 2017-02-08 03:31:09.229388+01 | 1486521069.22939 |                 0 |              15 |                    19 |                   34 |                 36 |           608 |                5 |         1473254 |                     0 |     494761897 | 2017-02-08 02:19:40.96972+01

 2017-02-08 03:31:10.368723+01 | 1486521070.36872 |                 0 |              15 |                    19 |                   34 |                 36 |           608 |                5 |         1473254 |                     0 |     494887493 | 2017-02-08 02:19:40.96972+01

 2017-02-08 03:31:11.560229+01 | 1486521071.56023 |                 0 |              15 |                    19 |                   34 |                 36 |           608 |                5 |         1473254 |                     0 |     495021687 | 2017-02-08 02:19:40.96972+01

 2017-02-08 03:31:12.75739+01 | 1486521072.75739 |                 0 |              15 |                    19 |                   34 |                 36 |           608 |                5 |         1473254 |                     0 |     495167351 | 2017-02-08 02:19:40.96972+01

 2017-02-08 03:31:13.955255+01 | 1486521073.95526 |                 0 |              15 |                    19 |                   34 |                 36 |           608 |                5 |         1473254 |                     0 |     495312704 | 2017-02-08 02:19:40.96972+01

 2017-02-08 03:31:15.145668+01 | 1486521075.14567 |                 0 |              15 |                    19 |                   34 |                 36 |           608 |                5 |         1473254 |                     0 |     495458487 | 2017-02-08 02:19:40.96972+01

 2017-02-08 03:31:16.341908+01 | 1486521076.34191 |                 0 |              15 |                    19 |                   34 |                 36 |           608 |                5 |         1473254 |                     0 |     495604003 | 2017-02-08 02:19:40.96972+01

 2017-02-08 03:31:17.536622+01 | 1486521077.53662 |                 0 |              15 |                    19 |                   34 |                 36 |           608 |                5 |         1473254 |                     0 |     495749323 | 2017-02-08 02:19:40.96972+01

 2017-02-08 03:31:18.699379+01 | 1486521078.69938 |                 0 |              15 |                    19 |                   34 |                 36 |           608 |                5 |         1473254 |                     0 |     495870434 | 2017-02-08 02:19:40.96972+01

 2017-02-08 03:31:19.836345+01 | 1486521079.83634 |                 0 |              15 |                    19 |                   34 |                 36 |           608 |                5 |         1473254 |                     0 |     496007380 | 2017-02-08 02:19:40.96972+01

 2017-02-08 03:31:21.012508+01 | 1486521081.01251 |                 0 |              15 |                    19 |                   34 |                 36 |           608 |                5 |         1473254 |                     0 |     496142419 | 2017-02-08 02:19:40.96972+01

 2017-02-08 03:31:22.207553+01 | 1486521082.20755 |                 0 |              15 |                    19 |                   34 |                 36 |           608 |                5 |         1473254 |                     0 |     496287951 | 2017-02-08 02:19:40.96972+01

 2017-02-08 03:31:23.372322+01 | 1486521083.37232 |                 0 |              15 |                    19 |                   34 |                 36 |           608 |                5 |         1473254 |                     0 |     496433518 | 2017-02-08 02:19:40.96972+01

 2017-02-08 03:31:24.487364+01 | 1486521084.48736 |                 0 |              15 |                    19 |                   34 |                 36 |           608 |                5 |         1473254 |                     0 |     496534627 | 2017-02-08 02:19:40.96972+01

 2017-02-08 03:31:25.663019+01 | 1486521085.66302 |                 0 |              15 |                    19 |                   34 |                 36 |           608 |                5 |         1473254 |                     0 |     496673936 | 2017-02-08 02:19:40.96972+01

 2017-02-08 03:31:26.856228+01 | 1486521086.85623 |                 0 |              15 |                    19 |                   34 |                 36 |           608 |                5 |         1473254 |                     0 |     496819457 | 2017-02-08 02:19:40.96972+01

 2017-02-08 03:31:28.053717+01 | 1486521088.05372 |                 0 |              15 |                    19 |                   34 |                 36 |           608 |                5 |         1473254 |                     0 |     496964701 | 2017-02-08 02:19:40.96972+01

 2017-02-08 03:31:29.25071+01 | 1486521089.25071 |                 0 |              15 |                    19 |                   34 |                 36 |           608 |                5 |         1473254 |                     0 |     497110066 | 2017-02-08 02:19:40.96972+01

 2017-02-08 03:31:30.413303+01 | 1486521090.4133 |                 0 |              15 |                    19 |                   34 |                 36 |           608 |                5 |         1473254 |                     0 |     497255233 | 2017-02-08 02:19:40.96972+01

 2017-02-08 03:31:31.6023+01 | 1486521091.6023 |                 0 |              15 |                    19 |                   34 |                 36 |           608 |                5 |         1473254 |                     0 |     497375669 | 2017-02-08 02:19:40.96972+01

 2017-02-08 03:31:32.746309+01 | 1486521092.74631 |                 0 |              15 |                    19 |                   34 |                 36 |           608 |                5 |         1473254 |                     0 |     497521073 | 2017-02-08 02:19:40.96972+01

 2017-02-08 03:31:33.921524+01 | 1486521093.92152 |                 0 |              15 |                    19 |                   34 |                 36 |           608 |                5 |         1473254 |                     0 |     497664627 | 2017-02-08 02:19:40.96972+01

 2017-02-08 03:31:35.118715+01 | 1486521095.11872 |                 0 |              15 |                    19 |                   34 |                 36 |           608 |                5 |         1473254 |                     0 |     497794150 | 2017-02-08 02:19:40.96972+01

 2017-02-08 03:31:36.306361+01 | 1486521096.30636 |                 0 |              15 |                    19 |                   34 |                 36 |           608 |                5 |         1473254 |                     0 |     497937017 | 2017-02-08 02:19:40.96972+01

 2017-02-08 03:31:37.442326+01 | 1486521097.44233 |                 0 |              15 |                    19 |                   34 |                 36 |           608 |                5 |         1473254 |                     0 |     498043604 | 2017-02-08 02:19:40.96972+01

 2017-02-08 03:31:38.545639+01 | 1486521098.54564 |                 0 |              15 |                    19 |                   34 |                 36 |           608 |                5 |         1473254 |                     0 |     498182269 | 2017-02-08 02:19:40.96972+01

 2017-02-08 03:31:39.720118+01 | 1486521099.72012 |                 0 |              15 |                    19 |                   34 |                 36 |           608 |                5 |         1473254 |                     0 |     498321434 | 2017-02-08 02:19:40.96972+01

 2017-02-08 03:31:40.811864+01 | 1486521100.81186 |                 0 |              15 |                    19 |                   34 |                 36 |           608 |                5 |         1473254 |                     0 |     498439443 | 2017-02-08 02:19:40.96972+01

 2017-02-08 03:31:41.953795+01 | 1486521101.95379 |                 0 |              15 |                    19 |                   34 |                 36 |           608 |                5 |         1473254 |                     0 |     498567241 | 2017-02-08 02:19:40.96972+01

 2017-02-08 03:31:43.107073+01 | 1486521103.10707 |                 0 |              15 |                    19 |                   34 |                 36 |           608 |                5 |         1473254 |                     0 |     498693900 | 2017-02-08 02:19:40.96972+01

 2017-02-08 03:31:44.288403+01 | 1486521104.2884 |                 0 |              15 |                    19 |                   34 |                 36 |           608 |                5 |         1473254 |                     0 |     498814686 | 2017-02-08 02:19:40.96972+01

 2017-02-08 03:31:45.482938+01 | 1486521105.48294 |                 0 |              15 |                    19 |                   34 |                 36 |           608 |                5 |         1473254 |                     0 |     498960411 | 2017-02-08 02:19:40.96972+01

 2017-02-08 03:31:46.677076+01 | 1486521106.67708 |                 0 |              15 |                    19 |                   34 |                 36 |           608 |                5 |         1473254 |                     0 |     499105724 | 2017-02-08 02:19:40.96972+01

 2017-02-08 03:31:47.862322+01 | 1486521107.86232 |                 0 |              15 |                    19 |                   34 |                 36 |           608 |                5 |         1473254 |                     0 |     499247360 | 2017-02-08 02:19:40.96972+01

 2017-02-08 03:31:49.036072+01 | 1486521109.03607 |                 0 |              15 |                    19 |                   34 |                 36 |           608 |                5 |         1473254 |                     0 |     499391722 | 2017-02-08 02:19:40.96972+01

 2017-02-08 03:31:50.230234+01 | 1486521110.23023 |                 0 |              15 |                    19 |                   34 |                 36 |           608 |                5 |         1473254 |                     0 |     499536103 | 2017-02-08 02:19:40.96972+01

 2017-02-08 03:31:51.423219+01 | 1486521111.42322 |                 0 |              15 |                    19 |                   34 |                 36 |           608 |                5 |         1473254 |                     0 |     499681342 | 2017-02-08 02:19:40.96972+01

 2017-02-08 03:31:52.625194+01 | 1486521112.62519 |                 0 |              15 |                    19 |                   34 |                 36 |           608 |                5 |         1473254 |                     0 |     499826605 | 2017-02-08 02:19:40.96972+01

 2017-02-08 03:31:53.817872+01 | 1486521113.81787 |                 0 |              15 |                    19 |                   34 |                 36 |           608 |                5 |         1473254 |                     0 |     499971665 | 2017-02-08 02:19:40.96972+01

 2017-02-08 03:31:55.008648+01 | 1486521115.00865 |                 0 |              15 |                    19 |                   34 |                 36 |           608 |                5 |         1473254 |                     0 |     500092641 | 2017-02-08 02:19:40.96972+01

 2017-02-08 03:31:56.146689+01 | 1486521116.14669 |                 0 |              15 |                    19 |                   34 |                 36 |           608 |                5 |         1473254 |                     0 |     500228010 | 2017-02-08 02:19:40.96972+01

 2017-02-08 03:31:57.316121+01 | 1486521117.31612 |                 0 |              15 |                    19 |                   34 |                 36 |           608 |                5 |         1473254 |                     0 |     500366011 | 2017-02-08 02:19:40.96972+01

 2017-02-08 03:31:58.511117+01 | 1486521118.51112 |                 0 |              15 |                    19 |                   34 |                 36 |           608 |                5 |         1473254 |                     0 |     500510921 | 2017-02-08 02:19:40.96972+01

 2017-02-08 03:31:59.70512+01 | 1486521119.70512 |                 0 |              15 |                    19 |                   34 |                 36 |           608 |                5 |         1473254 |                     0 |     500656524 | 2017-02-08 02:19:40.96972+01

 2017-02-08 03:32:00.906018+01 | 1486521120.90602 |                 0 |              15 |                    19 |                   34 |                 36 |           608 |                5 |         1473254 |                     0 |     500802208 | 2017-02-08 02:19:40.96972+01

 2017-02-08 03:32:02.084876+01 | 1486521122.08488 |                 0 |              15 |                    19 |                   34 |                 36 |           608 |                5 |         1473254 |                     0 |     500947879 | 2017-02-08 02:19:40.96972+01

 2017-02-08 03:32:03.279414+01 | 1486521123.27941 |                 0 |              15 |                    19 |                   34 |                 36 |           608 |                5 |         1473254 |                     0 |     501068910 | 2017-02-08 02:19:40.96972+01

 2017-02-08 03:32:04.479967+01 | 1486521124.47997 |                 0 |              15 |                    19 |                   34 |                 36 |           608 |                5 |         1473254 |                     0 |     501212579 | 2017-02-08 02:19:40.96972+01

 2017-02-08 03:32:05.650584+01 | 1486521125.65058 |                 0 |              15 |                    19 |                   34 |                 36 |           608 |                5 |         1473254 |                     0 |     501358065 | 2017-02-08 02:19:40.96972+01

 2017-02-08 03:32:06.845727+01 | 1486521126.84573 |                 0 |              15 |                    19 |                   34 |                 36 |           608 |                5 |         1473254 |                     0 |     501502056 | 2017-02-08 02:19:40.96972+01

 2017-02-08 03:32:08.040168+01 | 1486521128.04017 |                 0 |              15 |                    19 |                   34 |                 36 |           608 |                5 |         1473254 |                     0 |     501647490 | 2017-02-08 02:19:40.96972+01

 2017-02-08 03:32:09.236455+01 | 1486521129.23645 |                 0 |              15 |                    19 |                   34 |                 36 |           608 |                5 |         1473254 |                     0 |     501793022 | 2017-02-08 02:19:40.96972+01

 2017-02-08 03:32:10.431479+01 | 1486521130.43148 |                 0 |              15 |                    19 |                   34 |                 36 |           608 |                5 |         1473254 |                     0 |     501938323 | 2017-02-08 02:19:40.96972+01

 2017-02-08 03:32:11.622955+01 | 1486521131.62296 |                 0 |              15 |                    19 |                   34 |                 36 |           608 |                5 |         1473254 |                     0 |     502083661 | 2017-02-08 02:19:40.96972+01

 2017-02-08 03:32:12.815828+01 | 1486521132.81583 |                 0 |              15 |                    19 |                   34 |                 36 |           608 |                5 |         1473254 |                     0 |     502229087 | 2017-02-08 02:19:40.96972+01

 2017-02-08 03:32:14.012859+01 | 1486521134.01286 |                 0 |              15 |                    19 |                   34 |                 36 |           608 |                5 |         1473254 |                     0 |     502374782 | 2017-02-08 02:19:40.96972+01

 2017-02-08 03:32:15.209796+01 | 1486521135.2098 |                 0 |              15 |                    19 |                   34 |                 36 |           608 |                5 |         1473254 |                     0 |     502520297 | 2017-02-08 02:19:40.96972+01

 2017-02-08 03:32:16.404795+01 | 1486521136.40479 |                 0 |              15 |                    19 |                   34 |                 36 |           608 |                5 |         1473254 |                     0 |     502665871 | 2017-02-08 02:19:40.96972+01

 2017-02-08 03:32:17.587323+01 | 1486521137.58732 |                 0 |              15 |                    19 |                   34 |                 36 |           608 |                5 |         1473254 |                     0 |     502786961 | 2017-02-08 02:19:40.96972+01

 2017-02-08 03:32:18.779229+01 | 1486521138.77923 |                 0 |              15 |                    19 |                   34 |                 36 |           608 |                5 |         1473254 |                     0 |     502932007 | 2017-02-08 02:19:40.96972+01

 2017-02-08 03:32:19.895347+01 | 1486521139.89535 |                 0 |              15 |                    19 |                   34 |                 36 |           608 |                5 |         1473254 |                     0 |     503073320 | 2017-02-08 02:19:40.96972+01

 2017-02-08 03:32:21.069835+01 | 1486521141.06983 |                 0 |              15 |                    19 |                   34 |                 36 |           608 |                5 |         1473254 |                     0 |     503207621 | 2017-02-08 02:19:40.96972+01

 2017-02-08 03:32:22.222127+01 | 1486521142.22213 |                 0 |              15 |                    19 |                   34 |                 36 |           608 |                5 |         1473254 |                     0 |     503339385 | 2017-02-08 02:19:40.96972+01

 2017-02-08 03:32:23.356239+01 | 1486521143.35624 |                 0 |              15 |                    19 |                   34 |                 36 |           608 |                5 |         1473254 |                     0 |     503445167 | 2017-02-08 02:19:40.96972+01

 2017-02-08 03:32:24.53737+01 | 1486521144.53737 |                 0 |              15 |                    19 |                   34 |                 36 |           608 |                5 |         1473254 |                     0 |     503579415 | 2017-02-08 02:19:40.96972+01

 2017-02-08 03:32:25.69249+01 | 1486521145.69249 |                 0 |              15 |                    19 |                   34 |                 36 |           608 |                5 |         1473254 |                     0 |     503718458 | 2017-02-08 02:19:40.96972+01

 2017-02-08 03:32:26.865849+01 | 1486521146.86585 |                 0 |              15 |                    19 |                   34 |                 36 |           608 |                5 |         1473254 |                     0 |     503834336 | 2017-02-08 02:19:40.96972+01

 2017-02-08 03:32:28.064782+01 | 1486521148.06478 |                 0 |              15 |                    19 |                   34 |                 36 |           608 |                5 |         1473254 |                     0 |     503979866 | 2017-02-08 02:19:40.96972+01

 2017-02-08 03:32:29.26016+01 | 1486521149.26016 |                 0 |              15 |                    19 |                   34 |                 36 |           608 |                5 |         1473254 |                     0 |     504125283 | 2017-02-08 02:19:40.96972+01

 2017-02-08 03:32:30.455571+01 | 1486521150.45557 |                 0 |              15 |                    19 |                   34 |                 36 |           608 |                5 |         1473254 |                     0 |     504270473 | 2017-02-08 02:19:40.96972+01

 2017-02-08 03:32:31.649347+01 | 1486521151.64935 |                 0 |              15 |                    19 |                   34 |                 36 |           608 |                5 |         1473254 |                     0 |     504415641 | 2017-02-08 02:19:40.96972+01

 2017-02-08 03:32:32.832512+01 | 1486521152.83251 |                 0 |              15 |                    19 |                   34 |                 36 |           608 |                5 |         1473254 |                     0 |     504557972 | 2017-02-08 02:19:40.96972+01

 2017-02-08 03:32:34.001428+01 | 1486521154.00143 |                 0 |              15 |                    19 |                   34 |                 36 |           608 |                5 |         1473254 |                     0 |     504694018 | 2017-02-08 02:19:40.96972+01

 2017-02-08 03:32:35.198099+01 | 1486521155.1981 |                 0 |              15 |                    19 |                   34 |                 36 |           608 |                5 |         1473254 |                     0 |     504839550 | 2017-02-08 02:19:40.96972+01

 2017-02-08 03:32:36.363015+01 | 1486521156.36301 |                 0 |              15 |                    19 |                   34 |                 36 |           608 |                5 |         1473254 |                     0 |     504978402 | 2017-02-08 02:19:40.96972+01

 2017-02-08 03:32:37.522288+01 | 1486521157.52229 |                 0 |              15 |                    19 |                   34 |                 36 |           608 |                5 |         1473254 |                     0 |     505093483 | 2017-02-08 02:19:40.96972+01

 2017-02-08 03:32:38.703013+01 | 1486521158.70301 |                 0 |              15 |                    19 |                   34 |                 36 |           608 |                5 |         1473254 |                     0 |     505236530 | 2017-02-08 02:19:40.96972+01

 2017-02-08 03:32:39.900181+01 | 1486521159.90018 |                 0 |              15 |                    19 |                   34 |                 36 |           608 |                5 |         1473254 |                     0 |     505381989 | 2017-02-08 02:19:40.96972+01

 2017-02-08 03:32:41.096086+01 | 1486521161.09609 |                 0 |              15 |                    19 |                   34 |                 36 |           608 |                5 |         1473254 |                     0 |     505527138 | 2017-02-08 02:19:40.96972+01

 2017-02-08 03:32:42.29429+01 | 1486521162.29429 |                 0 |              15 |                    19 |                   34 |                 36 |           608 |                5 |         1473254 |                     0 |     505672493 | 2017-02-08 02:19:40.96972+01

 2017-02-08 03:32:43.490977+01 | 1486521163.49098 |                 0 |              15 |                    19 |                   34 |                 36 |           608 |                5 |         1473254 |                     0 |     505817611 | 2017-02-08 02:19:40.96972+01

 2017-02-08 03:32:44.690073+01 | 1486521164.69007 |                 0 |              15 |                    19 |                   34 |                 36 |           608 |                5 |         1473254 |                     0 |     505962821 | 2017-02-08 02:19:40.96972+01

 2017-02-08 03:32:45.884517+01 | 1486521165.88452 |                 0 |              15 |                    19 |                   34 |                 36 |           608 |                5 |         1473254 |                     0 |     506107957 | 2017-02-08 02:19:40.96972+01

 2017-02-08 03:32:47.079207+01 | 1486521167.07921 |                 0 |              15 |                    19 |                   34 |                 36 |           608 |                5 |         1473254 |                     0 |     506252622 | 2017-02-08 02:19:40.96972+01

 2017-02-08 03:32:48.214608+01 | 1486521168.21461 |                 0 |              15 |                    19 |                   34 |                 36 |           608 |                5 |         1473254 |                     0 |     506397557 | 2017-02-08 02:19:40.96972+01

 2017-02-08 03:32:49.346649+01 | 1486521169.34665 |                 0 |              15 |                    19 |                   34 |                 36 |           608 |                5 |         1473254 |                     0 |     506499834 | 2017-02-08 02:19:40.96972+01

 2017-02-08 03:32:50.454137+01 | 1486521170.45414 |                 0 |              15 |                    19 |                   34 |                 36 |           608 |                5 |         1473254 |                     0 |     506625349 | 2017-02-08 02:19:40.96972+01

 2017-02-08 03:32:51.592291+01 | 1486521171.59229 |                 0 |              15 |                    19 |                   34 |                 36 |           608 |                5 |         1473254 |                     0 |     506738290 | 2017-02-08 02:19:40.96972+01

 2017-02-08 03:32:52.778818+01 | 1486521172.77882 |                 0 |              15 |                    19 |                   34 |                 36 |           608 |                5 |         1473254 |                     0 |     506879428 | 2017-02-08 02:19:40.96972+01

 2017-02-08 03:32:53.935305+01 | 1486521173.93531 |                 0 |              15 |                    19 |                   34 |                 36 |           608 |                5 |         1473254 |                     0 |     507024765 | 2017-02-08 02:19:40.96972+01

 2017-02-08 03:32:55.133404+01 | 1486521175.1334 |                 0 |              15 |                    19 |                   34 |                 36 |           608 |                5 |         1473254 |                     0 |     507169401 | 2017-02-08 02:19:40.96972+01

 2017-02-08 03:32:56.324457+01 | 1486521176.32446 |                 0 |              15 |                    19 |                   34 |                 36 |           608 |                5 |         1473254 |                     0 |     507314926 | 2017-02-08 02:19:40.96972+01

 2017-02-08 03:32:57.524096+01 | 1486521177.5241 |                 0 |              15 |                    19 |                   34 |                 36 |           608 |                5 |         1473254 |                     0 |     507460782 | 2017-02-08 02:19:40.96972+01

 2017-02-08 03:32:58.713848+01 | 1486521178.71385 |                 0 |              15 |                    19 |                   34 |                 36 |           608 |                5 |         1473254 |                     0 |     507581705 | 2017-02-08 02:19:40.96972+01

 2017-02-08 03:32:59.907375+01 | 1486521179.90738 |                 0 |              15 |                    19 |                   34 |                 36 |           608 |                5 |         1473254 |                     0 |     507722124 | 2017-02-08 02:19:40.96972+01

 2017-02-08 03:33:01.066394+01 | 1486521181.06639 |                 0 |              15 |                    19 |                   34 |                 36 |           608 |                5 |         1473254 |                     0 |     507850392 | 2017-02-08 02:19:40.96972+01

 2017-02-08 03:33:02.236748+01 | 1486521182.23675 |                 0 |              15 |                    19 |                   34 |                 36 |           608 |                5 |         1473254 |                     0 |     507975639 | 2017-02-08 02:19:40.96972+01

 2017-02-08 03:33:03.328261+01 | 1486521183.32826 |                 0 |              15 |                    19 |                   34 |                 36 |           608 |                5 |         1473254 |                     0 |     508109178 | 2017-02-08 02:19:40.96972+01

 2017-02-08 03:33:04.460183+01 | 1486521184.46018 |                 0 |              15 |                    19 |                   34 |                 36 |           608 |                5 |         1473254 |                     0 |     508216319 | 2017-02-08 02:19:40.96972+01

 2017-02-08 03:33:05.649073+01 | 1486521185.64907 |                 0 |              15 |                    19 |                   34 |                 36 |           608 |                5 |         1473254 |                     0 |     508356313 | 2017-02-08 02:19:40.96972+01

 2017-02-08 03:33:06.838271+01 | 1486521186.83827 |                 0 |              15 |                    19 |                   34 |                 36 |           608 |                5 |         1473254 |                     0 |     508501793 | 2017-02-08 02:19:40.96972+01

 2017-02-08 03:33:07.993516+01 | 1486521187.99352 |                 0 |              15 |                    19 |                   34 |                 36 |           608 |                5 |         1473254 |                     0 |     508625483 | 2017-02-08 02:19:40.96972+01

 2017-02-08 03:33:09.144202+01 | 1486521189.1442 |                 0 |              15 |                    19 |                   34 |                 36 |           608 |                5 |         1473254 |                     0 |     508736944 | 2017-02-08 02:19:40.96972+01

 2017-02-08 03:33:10.32595+01 | 1486521190.32595 |                 0 |              15 |                    19 |                   34 |                 36 |           608 |                5 |         1473254 |                     0 |     508877917 | 2017-02-08 02:19:40.96972+01

 2017-02-08 03:33:11.524785+01 | 1486521191.52479 |                 0 |              15 |                    19 |                   34 |                 36 |           608 |                5 |         1473254 |                     0 |     509023473 | 2017-02-08 02:19:40.96972+01

 2017-02-08 03:33:12.721108+01 | 1486521192.72111 |                 0 |              15 |                    19 |                   34 |                 36 |           608 |                5 |         1473254 |                     0 |     509169094 | 2017-02-08 02:19:40.96972+01

 2017-02-08 03:33:13.913712+01 | 1486521193.91371 |                 0 |              15 |                    19 |                   34 |                 36 |           608 |                5 |         1473254 |                     0 |     509314162 | 2017-02-08 02:19:40.96972+01

 2017-02-08 03:33:15.109097+01 | 1486521195.1091 |                 0 |              15 |                    19 |                   34 |                 36 |           608 |                5 |         1473254 |                     0 |     509459475 | 2017-02-08 02:19:40.96972+01

 2017-02-08 03:33:16.301724+01 | 1486521196.30172 |                 0 |              15 |                    19 |                   34 |                 36 |           608 |                5 |         1473254 |                     0 |     509605264 | 2017-02-08 02:19:40.96972+01

 2017-02-08 03:33:17.500655+01 | 1486521197.50065 |                 0 |              15 |                    19 |                   34 |                 36 |           608 |                5 |         1473254 |                     0 |     509750273 | 2017-02-08 02:19:40.96972+01

 2017-02-08 03:33:18.615829+01 | 1486521198.61583 |                 0 |              15 |                    19 |                   34 |                 36 |           608 |                5 |         1473254 |                     0 |     509884837 | 2017-02-08 02:19:40.96972+01

 2017-02-08 03:33:19.793302+01 | 1486521199.7933 |                 0 |              15 |                    19 |                   34 |                 36 |           608 |                5 |         1473254 |                     0 |     510001206 | 2017-02-08 02:19:40.96972+01

 2017-02-08 03:33:20.988542+01 | 1486521200.98854 |                 0 |              15 |                    19 |                   34 |                 36 |           608 |                5 |         1473254 |                     0 |     510146707 | 2017-02-08 02:19:40.96972+01

 2017-02-08 03:33:22.179316+01 | 1486521202.17932 |                 0 |              15 |                    19 |                   34 |                 36 |           608 |                5 |         1473254 |                     0 |     510291872 | 2017-02-08 02:19:40.96972+01

 2017-02-08 03:33:23.374897+01 | 1486521203.3749 |                 0 |              15 |                    19 |                   34 |                 36 |           608 |                5 |         1473254 |                     0 |     510425387 | 2017-02-08 02:19:40.96972+01

 2017-02-08 03:33:24.575209+01 | 1486521204.57521 |                 0 |              15 |                    19 |                   34 |                 36 |           608 |                5 |         1473254 |                     0 |     510568806 | 2017-02-08 02:19:40.96972+01

 2017-02-08 03:33:25.770665+01 | 1486521205.77066 |                 0 |              15 |                    19 |                   34 |                 36 |           608 |                5 |         1473254 |                     0 |     510714326 | 2017-02-08 02:19:40.96972+01

 2017-02-08 03:33:26.951292+01 | 1486521206.95129 |                 0 |              15 |                    19 |                   34 |                 36 |           608 |                5 |         1473254 |                     0 |     510860299 | 2017-02-08 02:19:40.96972+01

 2017-02-08 03:33:28.127752+01 | 1486521208.12775 |                 0 |              15 |                    19 |                   34 |                 36 |           608 |                5 |         1473254 |                     0 |     510975470 | 2017-02-08 02:19:40.96972+01

 2017-02-08 03:33:29.300526+01 | 1486521209.30053 |                 0 |              15 |                    19 |                   34 |                 36 |           608 |                5 |         1473254 |                     0 |     511114176 | 2017-02-08 02:19:40.96972+01

 2017-02-08 03:33:30.498498+01 | 1486521210.4985 |                 0 |              15 |                    19 |                   34 |                 36 |           608 |                5 |         1473254 |                     0 |     511240900 | 2017-02-08 02:19:40.96972+01

 2017-02-08 03:33:31.702325+01 | 1486521211.70233 |                 0 |              15 |                    19 |                   34 |                 36 |           608 |                5 |         1473254 |                     0 |     511385918 | 2017-02-08 02:19:40.96972+01

 2017-02-08 03:33:32.844668+01 | 1486521212.84467 |                 0 |              15 |                    19 |                   34 |                 36 |           608 |                5 |         1473254 |                     0 |     511523469 | 2017-02-08 02:19:40.96972+01

 2017-02-08 03:33:34.027971+01 | 1486521214.02797 |                 0 |              15 |                    19 |                   34 |                 36 |           608 |                5 |         1473254 |                     0 |     511661085 | 2017-02-08 02:19:40.96972+01

 2017-02-08 03:33:35.22268+01 | 1486521215.22268 |                 0 |              15 |                    19 |                   34 |                 36 |           608 |                5 |         1473254 |                     0 |     511806790 | 2017-02-08 02:19:40.96972+01

 2017-02-08 03:33:36.380325+01 | 1486521216.38033 |                 0 |              15 |                    19 |                   34 |                 36 |           608 |                5 |         1473254 |                     0 |     511927553 | 2017-02-08 02:19:40.96972+01

 2017-02-08 03:33:37.554765+01 | 1486521217.55476 |                 0 |              15 |                    19 |                   34 |                 36 |           608 |                5 |         1473254 |                     0 |     512071804 | 2017-02-08 02:19:40.96972+01

 2017-02-08 03:33:38.750002+01 | 1486521218.75 |                 0 |              15 |                    19 |                   34 |                 36 |           608 |                5 |         1473254 |                     0 |     512217422 | 2017-02-08 02:19:40.96972+01

 2017-02-08 03:33:39.945936+01 | 1486521219.94594 |                 0 |              15 |                    19 |                   34 |                 36 |           608 |                5 |         1473254 |                     0 |     512363099 | 2017-02-08 02:19:40.96972+01

 2017-02-08 03:33:41.088381+01 | 1486521221.08838 |                 0 |              15 |                    19 |                   34 |                 36 |           608 |                5 |         1473254 |                     0 |     512507921 | 2017-02-08 02:19:40.96972+01

 2017-02-08 03:33:42.199249+01 | 1486521222.19925 |                 0 |              15 |                    19 |                   34 |                 36 |           608 |                5 |         1473254 |                     0 |     512611543 | 2017-02-08 02:19:40.96972+01

 2017-02-08 03:33:43.385745+01 | 1486521223.38575 |                 0 |              15 |                    19 |                   34 |                 36 |           608 |                5 |         1473254 |                     0 |     512750784 | 2017-02-08 02:19:40.96972+01

 2017-02-08 03:33:44.579175+01 | 1486521224.57917 |                 0 |              15 |                    19 |                   34 |                 36 |           608 |                5 |         1473254 |                     0 |     512896242 | 2017-02-08 02:19:40.96972+01

 2017-02-08 03:33:45.773695+01 | 1486521225.77369 |                 0 |              15 |                    19 |                   34 |                 36 |           608 |                5 |         1473254 |                     0 |     513041600 | 2017-02-08 02:19:40.96972+01

 2017-02-08 03:33:46.884328+01 | 1486521226.88433 |                 0 |              15 |                    19 |                   34 |                 36 |           608 |                5 |         1473254 |                     0 |     513178391 | 2017-02-08 02:19:40.96972+01

 2017-02-08 03:33:48.00834+01 | 1486521228.00834 |                 0 |              15 |                    19 |                   34 |                 36 |           608 |                5 |         1473254 |                     0 |     513286769 | 2017-02-08 02:19:40.96972+01

 2017-02-08 03:33:49.186236+01 | 1486521229.18624 |                 0 |              15 |                    19 |                   34 |                 36 |           608 |                5 |         1473254 |                     0 |     513427574 | 2017-02-08 02:19:40.96972+01

 2017-02-08 03:33:50.335374+01 | 1486521230.33537 |                 0 |              15 |                    19 |                   34 |                 36 |           608 |                5 |         1473254 |                     0 |     513562971 | 2017-02-08 02:19:40.96972+01

 2017-02-08 03:33:51.518717+01 | 1486521231.51872 |                 0 |              15 |                    19 |                   34 |                 36 |           608 |                5 |         1473254 |                     0 |     513676866 | 2017-02-08 02:19:40.96972+01

 2017-02-08 03:33:52.706234+01 | 1486521232.70623 |                 0 |              15 |                    19 |                   34 |                 36 |           608 |                5 |         1473254 |                     0 |     513821964 | 2017-02-08 02:19:40.96972+01

 2017-02-08 03:33:53.828161+01 | 1486521233.82816 |                 0 |              15 |                    19 |                   34 |                 36 |           608 |                5 |         1473254 |                     0 |     513949375 | 2017-02-08 02:19:40.96972+01

 2017-02-08 03:33:54.947376+01 | 1486521234.94738 |                 0 |              15 |                    19 |                   34 |                 36 |           608 |                5 |         1473254 |                     0 |     514086762 | 2017-02-08 02:19:40.96972+01

 2017-02-08 03:33:56.117999+01 | 1486521236.118 |                 0 |              15 |                    19 |                   34 |                 36 |           608 |                5 |         1473254 |                     0 |     514199294 | 2017-02-08 02:19:40.96972+01

 2017-02-08 03:33:57.203156+01 | 1486521237.20316 |                 0 |              15 |                    19 |                   34 |                 36 |           608 |                5 |         1473254 |                     0 |     514342888 | 2017-02-08 02:19:40.96972+01

 2017-02-08 03:33:58.37917+01 | 1486521238.37917 |                 0 |              15 |                    19 |                   34 |                 36 |           608 |                5 |         1473254 |                     0 |     514454107 | 2017-02-08 02:19:40.96972+01

 2017-02-08 03:33:59.575894+01 | 1486521239.57589 |                 0 |              15 |                    19 |                   34 |                 36 |           608 |                5 |         1473254 |                     0 |     514599549 | 2017-02-08 02:19:40.96972+01

 2017-02-08 03:34:00.770622+01 | 1486521240.77062 |                 0 |              15 |                    19 |                   34 |                 36 |           608 |                5 |         1473254 |                     0 |     514744645 | 2017-02-08 02:19:40.96972+01

 2017-02-08 03:34:01.914507+01 | 1486521241.91451 |                 0 |              15 |                    19 |                   34 |                 36 |           608 |                5 |         1473254 |                     0 |     514890127 | 2017-02-08 02:19:40.96972+01

 2017-02-08 03:34:03.072075+01 | 1486521243.07207 |                 0 |              15 |                    19 |                   34 |                 36 |           608 |                5 |         1473254 |                     0 |     515017018 | 2017-02-08 02:19:40.96972+01

 2017-02-08 03:34:04.210378+01 | 1486521244.21038 |                 0 |              15 |                    19 |                   34 |                 36 |           608 |                5 |         1473254 |                     0 |     515141137 | 2017-02-08 02:19:40.96972+01

 2017-02-08 03:34:05.389925+01 | 1486521245.38993 |                 0 |              15 |                    19 |                   34 |                 36 |           608 |                5 |         1473254 |                     0 |     515248200 | 2017-02-08 02:19:40.96972+01

 2017-02-08 03:34:06.579658+01 | 1486521246.57966 |                 0 |              15 |                    19 |                   34 |                 36 |           608 |                5 |         1473254 |                     0 |     515391285 | 2017-02-08 02:19:40.96972+01

 2017-02-08 03:34:07.732385+01 | 1486521247.73238 |                 0 |              15 |                    19 |                   34 |                 36 |           608 |                5 |         1473254 |                     0 |     515533215 | 2017-02-08 02:19:40.96972+01

 2017-02-08 03:34:08.912083+01 | 1486521248.91208 |                 0 |              15 |                    19 |                   34 |                 36 |           608 |                5 |         1473254 |                     0 |     515672609 | 2017-02-08 02:19:40.96972+01

 2017-02-08 03:34:10.103268+01 | 1486521250.10327 |                 0 |              15 |                    19 |                   34 |                 36 |           608 |                5 |         1473254 |                     0 |     515817855 | 2017-02-08 02:19:40.96972+01

 2017-02-08 03:34:11.298809+01 | 1486521251.29881 |                 0 |              15 |                    19 |                   34 |                 36 |           608 |                5 |         1473254 |                     0 |     515963275 | 2017-02-08 02:19:40.96972+01

 2017-02-08 03:34:12.446316+01 | 1486521252.44632 |                 0 |              15 |                    19 |                   34 |                 36 |           608 |                5 |         1473254 |                     0 |     516084438 | 2017-02-08 02:19:40.96972+01

 2017-02-08 03:34:13.569545+01 | 1486521253.56955 |                 0 |              15 |                    19 |                   34 |                 36 |           608 |                5 |         1473254 |                     0 |     516203627 | 2017-02-08 02:19:40.96972+01

 2017-02-08 03:34:14.706374+01 | 1486521254.70637 |                 0 |              15 |                    19 |                   34 |                 36 |           608 |                5 |         1473254 |                     0 |     516354214 | 2017-02-08 02:19:40.96972+01

 2017-02-08 03:34:15.881108+01 | 1486521255.88111 |                 0 |              15 |                    19 |                   34 |                 36 |           608 |                5 |         1473254 |                     0 |     516471429 | 2017-02-08 02:19:40.96972+01

 2017-02-08 03:34:17.052345+01 | 1486521257.05235 |                 0 |              15 |                    19 |                   34 |                 36 |           608 |                5 |         1473254 |                     0 |     516614507 | 2017-02-08 02:19:40.96972+01

 2017-02-08 03:34:18.230486+01 | 1486521258.23049 |                 0 |              15 |                    19 |                   34 |                 36 |           608 |                5 |         1473254 |                     0 |     516751829 | 2017-02-08 02:19:40.96972+01

 2017-02-08 03:34:19.428984+01 | 1486521259.42898 |                 0 |              15 |                    19 |                   34 |                 36 |           608 |                5 |         1473254 |                     0 |     516893973 | 2017-02-08 02:19:40.96972+01

 2017-02-08 03:34:20.622143+01 | 1486521260.62214 |                 0 |              15 |                    19 |                   34 |                 36 |           608 |                5 |         1473254 |                     0 |     517039208 | 2017-02-08 02:19:40.96972+01

 2017-02-08 03:34:21.817868+01 | 1486521261.81787 |                 0 |              15 |                    19 |                   34 |                 36 |           608 |                5 |         1473254 |                     0 |     517184468 | 2017-02-08 02:19:40.96972+01

 2017-02-08 03:34:23.015256+01 | 1486521263.01526 |                 0 |              15 |                    19 |                   34 |                 36 |           608 |                5 |         1473254 |                     0 |     517325506 | 2017-02-08 02:19:40.96972+01

 2017-02-08 03:34:24.21541+01 | 1486521264.21541 |                 0 |              15 |                    19 |                   34 |                 36 |           608 |                5 |         1473254 |                     0 |     517470491 | 2017-02-08 02:19:40.96972+01

 2017-02-08 03:34:25.411237+01 | 1486521265.41124 |                 0 |              15 |                    19 |                   34 |                 36 |           608 |                5 |         1473254 |                     0 |     517615509 | 2017-02-08 02:19:40.96972+01

 2017-02-08 03:34:26.606373+01 | 1486521266.60637 |                 0 |              15 |                    19 |                   34 |                 36 |           608 |                5 |         1473254 |                     0 |     517736234 | 2017-02-08 02:19:40.96972+01

 2017-02-08 03:34:27.80139+01 | 1486521267.80139 |                 0 |              15 |                    19 |                   34 |                 36 |           608 |                5 |         1473254 |                     0 |     517881878 | 2017-02-08 02:19:40.96972+01

 2017-02-08 03:34:28.992937+01 | 1486521268.99294 |                 0 |              15 |                    19 |                   34 |                 36 |           608 |                5 |         1473254 |                     0 |     518027047 | 2017-02-08 02:19:40.96972+01

 2017-02-08 03:34:30.188523+01 | 1486521270.18852 |                 0 |              15 |                    19 |                   34 |                 36 |           608 |                5 |         1473254 |                     0 |     518170530 | 2017-02-08 02:19:40.96972+01

 2017-02-08 03:34:31.366302+01 | 1486521271.3663 |                 0 |              15 |                    19 |                   34 |                 36 |           608 |                5 |         1473254 |                     0 |     518315935 | 2017-02-08 02:19:40.96972+01

 2017-02-08 03:34:32.545984+01 | 1486521272.54598 |                 0 |              15 |                    19 |                   34 |                 36 |           608 |                5 |         1473254 |                     0 |     518460634 | 2017-02-08 02:19:40.96972+01

 2017-02-08 03:34:33.740758+01 | 1486521273.74076 |                 0 |              15 |                    19 |                   34 |                 36 |           608 |                5 |         1473254 |                     0 |     518605926 | 2017-02-08 02:19:40.96972+01

 2017-02-08 03:34:34.937211+01 | 1486521274.93721 |                 0 |              15 |                    19 |                   34 |                 36 |           608 |                5 |         1473254 |                     0 |     518750953 | 2017-02-08 02:19:40.96972+01

 2017-02-08 03:34:36.129919+01 | 1486521276.12992 |                 0 |              15 |                    19 |                   34 |                 36 |           608 |                5 |         1473254 |                     0 |     518896117 | 2017-02-08 02:19:40.96972+01

 2017-02-08 03:34:37.323557+01 | 1486521277.32356 |                 0 |              15 |                    19 |                   34 |                 36 |           608 |                5 |         1473254 |                     0 |     519040882 | 2017-02-08 02:19:40.96972+01

 2017-02-08 03:34:38.419132+01 | 1486521278.41913 |                 0 |              15 |                    19 |                   34 |                 36 |           608 |                5 |         1473254 |                     0 |     519157594 | 2017-02-08 02:19:40.96972+01

 2017-02-08 03:34:39.592626+01 | 1486521279.59263 |                 0 |              15 |                    19 |                   34 |                 36 |           608 |                5 |         1473254 |                     0 |     519285332 | 2017-02-08 02:19:40.96972+01

 2017-02-08 03:34:40.787911+01 | 1486521280.78791 |                 0 |              15 |                    19 |                   34 |                 36 |           608 |                5 |         1473254 |                     0 |     519429190 | 2017-02-08 02:19:40.96972+01

 2017-02-08 03:34:41.979405+01 | 1486521281.9794 |                 0 |              15 |                    19 |                   34 |                 36 |           608 |                5 |         1473254 |                     0 |     519574580 | 2017-02-08 02:19:40.96972+01

 2017-02-08 03:34:43.175393+01 | 1486521283.17539 |                 0 |              15 |                    19 |                   34 |                 36 |           608 |                5 |         1473254 |                     0 |     519719869 | 2017-02-08 02:19:40.96972+01

 2017-02-08 03:34:44.349678+01 | 1486521284.34968 |                 0 |              15 |                    19 |                   34 |                 36 |           608 |                5 |         1473254 |                     0 |     519865236 | 2017-02-08 02:19:40.96972+01

 2017-02-08 03:34:45.481726+01 | 1486521285.48173 |                 0 |              15 |                    19 |                   34 |                 36 |           608 |                5 |         1473254 |                     0 |     519968497 | 2017-02-08 02:19:40.96972+01

 2017-02-08 03:34:46.645366+01 | 1486521286.64537 |                 0 |              15 |                    19 |                   34 |                 36 |           608 |                5 |         1473254 |                     0 |     520102767 | 2017-02-08 02:19:40.96972+01

 2017-02-08 03:34:47.811223+01 | 1486521287.81122 |                 0 |              15 |                    19 |                   34 |                 36 |           608 |                5 |         1473254 |                     0 |     520243786 | 2017-02-08 02:19:40.96972+01

 2017-02-08 03:34:48.998083+01 | 1486521288.99808 |                 0 |              15 |                    19 |                   34 |                 36 |           608 |                5 |         1473254 |                     0 |     520387905 | 2017-02-08 02:19:40.96972+01

 2017-02-08 03:34:50.129367+01 | 1486521290.12937 |                 0 |              15 |                    19 |                   34 |                 36 |           608 |                5 |         1473254 |                     0 |     520508137 | 2017-02-08 02:19:40.96972+01

 2017-02-08 03:34:51.273078+01 | 1486521291.27308 |                 0 |              15 |                    19 |                   34 |                 36 |           608 |                5 |         1473254 |                     0 |     520636373 | 2017-02-08 02:19:40.96972+01

 2017-02-08 03:34:52.402233+01 | 1486521292.40223 |                 0 |              15 |                    19 |                   34 |                 36 |           608 |                5 |         1473254 |                     0 |     520765105 | 2017-02-08 02:19:40.96972+01

 2017-02-08 03:34:53.536318+01 | 1486521293.53632 |                 0 |              15 |                    19 |                   34 |                 36 |           608 |                5 |         1473254 |                     0 |     520860853 | 2017-02-08 02:19:40.96972+01

 2017-02-08 03:34:54.715599+01 | 1486521294.7156 |                 0 |              15 |                    19 |                   34 |                 36 |           608 |                5 |         1473254 |                     0 |     520995494 | 2017-02-08 02:19:40.96972+01

 2017-02-08 03:34:55.909415+01 | 1486521295.90942 |                 0 |              15 |                    19 |                   34 |                 36 |           608 |                5 |         1473254 |                     0 |     521140172 | 2017-02-08 02:19:40.96972+01

 2017-02-08 03:34:57.099712+01 | 1486521297.09971 |                 0 |              15 |                    19 |                   34 |                 36 |           608 |                5 |         1473254 |                     0 |     521276716 | 2017-02-08 02:19:40.96972+01

 2017-02-08 03:34:58.280235+01 | 1486521298.28024 |                 0 |              15 |                    19 |                   34 |                 36 |           608 |                5 |         1473254 |                     0 |     521422333 | 2017-02-08 02:19:40.96972+01

 2017-02-08 03:34:59.428125+01 | 1486521299.42812 |                 0 |              15 |                    19 |                   34 |                 36 |           608 |                5 |         1473254 |                     0 |     521542746 | 2017-02-08 02:19:40.96972+01

 2017-02-08 03:35:00.582291+01 | 1486521300.58229 |                 0 |              15 |                    19 |                   34 |                 36 |           608 |                5 |         1473254 |                     0 |     521682872 | 2017-02-08 02:19:40.96972+01

 2017-02-08 03:35:01.715336+01 | 1486521301.71534 |                 0 |              15 |                    19 |                   34 |                 36 |           608 |                5 |         1473254 |                     0 |     521826702 | 2017-02-08 02:19:40.96972+01

 2017-02-08 03:35:02.900978+01 | 1486521302.90098 |                 0 |              15 |                    19 |                   34 |                 36 |           608 |                5 |         1473254 |                     0 |     521970206 | 2017-02-08 02:19:40.96972+01

 2017-02-08 03:35:04.094457+01 | 1486521304.09446 |                 0 |              15 |                    19 |                   34 |                 36 |           608 |                5 |         1473254 |                     0 |     522091193 | 2017-02-08 02:19:40.96972+01

 2017-02-08 03:35:05.275349+01 | 1486521305.27535 |                 0 |              15 |                    19 |                   34 |                 36 |           608 |                5 |         1473254 |                     0 |     522236011 | 2017-02-08 02:19:40.96972+01

 2017-02-08 03:35:06.457605+01 | 1486521306.4576 |                 0 |              15 |                    19 |                   34 |                 36 |           608 |                5 |         1473254 |                     0 |     522379992 | 2017-02-08 02:19:40.96972+01

 2017-02-08 03:35:07.65377+01 | 1486521307.65377 |                 0 |              15 |                    19 |                   34 |                 36 |           608 |                5 |         1473254 |                     0 |     522525202 | 2017-02-08 02:19:40.96972+01

 2017-02-08 03:35:08.850902+01 | 1486521308.8509 |                 0 |              15 |                    19 |                   34 |                 36 |           608 |                5 |         1473254 |                     0 |     522670490 | 2017-02-08 02:19:40.96972+01

 2017-02-08 03:35:10.040734+01 | 1486521310.04073 |                 0 |              15 |                    19 |                   34 |                 36 |           608 |                5 |         1473254 |                     0 |     522815857 | 2017-02-08 02:19:40.96972+01

 2017-02-08 03:35:11.232169+01 | 1486521311.23217 |                 0 |              15 |                    19 |                   34 |                 36 |           608 |                5 |         1473254 |                     0 |     522960985 | 2017-02-08 02:19:40.96972+01

 2017-02-08 03:35:12.427949+01 | 1486521312.42795 |                 0 |              15 |                    19 |                   34 |                 36 |           608 |                5 |         1473254 |                     0 |     523106252 | 2017-02-08 02:19:40.96972+01

 2017-02-08 03:35:13.609639+01 | 1486521313.60964 |                 0 |              15 |                    19 |                   34 |                 36 |           608 |                5 |         1473254 |                     0 |     523201158 | 2017-02-08 02:19:40.96972+01

 2017-02-08 03:35:14.801488+01 | 1486521314.80149 |                 0 |              15 |                    19 |                   34 |                 36 |           608 |                5 |         1473254 |                     0 |     523394908 | 2017-02-08 02:19:40.96972+01

 2017-02-08 03:35:15.971015+01 | 1486521315.97101 |                 0 |              15 |                    19 |                   34 |                 36 |           608 |                5 |         1473254 |                     0 |     523515682 | 2017-02-08 02:19:40.96972+01

 2017-02-08 03:35:17.08659+01 | 1486521317.08659 |                 0 |              15 |                    19 |                   34 |                 36 |           608 |                5 |         1473254 |                     0 |     523646197 | 2017-02-08 02:19:40.96972+01

 2017-02-08 03:35:18.259769+01 | 1486521318.25977 |                 0 |              15 |                    19 |                   34 |                 36 |           608 |                5 |         1473254 |                     0 |     523775990 | 2017-02-08 02:19:40.96972+01

 2017-02-08 03:35:19.455698+01 | 1486521319.4557 |                 0 |              15 |                    19 |                   34 |                 36 |           608 |                5 |         1473254 |                     0 |     523921296 | 2017-02-08 02:19:40.96972+01

 2017-02-08 03:35:20.649696+01 | 1486521320.6497 |                 0 |              15 |                    19 |                   34 |                 36 |           608 |                5 |         1473254 |                     0 |     524066770 | 2017-02-08 02:19:40.96972+01

 2017-02-08 03:35:21.827785+01 | 1486521321.82779 |                 0 |              15 |                    19 |                   34 |                 36 |           608 |                5 |         1473254 |                     0 |     524184969 | 2017-02-08 02:19:40.96972+01

 2017-02-08 03:35:23.025126+01 | 1486521323.02513 |                 0 |              15 |                    19 |                   34 |                 36 |           608 |                5 |         1473254 |                     0 |     524320401 | 2017-02-08 02:19:40.96972+01

 2017-02-08 03:35:24.214798+01 | 1486521324.2148 |                 0 |              15 |                    19 |                   34 |                 36 |           608 |                5 |         1473254 |                     0 |     524465673 | 2017-02-08 02:19:40.96972+01

 2017-02-08 03:35:25.326317+01 | 1486521325.32632 |                 0 |              15 |                    19 |                   34 |                 36 |           608 |                5 |         1473254 |                     0 |     524611089 | 2017-02-08 02:19:40.96972+01

 2017-02-08 03:35:26.46865+01 | 1486521326.46865 |                 0 |              15 |                    19 |                   34 |                 36 |           608 |                5 |         1473254 |                     0 |     524734867 | 2017-02-08 02:19:40.96972+01

 2017-02-08 03:35:27.657796+01 | 1486521327.6578 |                 0 |              15 |                    19 |                   34 |                 36 |           608 |                5 |         1473254 |                     0 |     524854254 | 2017-02-08 02:19:40.96972+01

 2017-02-08 03:35:28.850527+01 | 1486521328.85053 |                 0 |              15 |                    19 |                   34 |                 36 |           608 |                5 |         1473254 |                     0 |     524999283 | 2017-02-08 02:19:40.96972+01

 2017-02-08 03:35:30.017516+01 | 1486521330.01752 |                 0 |              15 |                    19 |                   34 |                 36 |           608 |                5 |         1473254 |                     0 |     525144747 | 2017-02-08 02:19:40.96972+01

 2017-02-08 03:35:31.161318+01 | 1486521331.16132 |                 0 |              15 |                    19 |                   34 |                 36 |           608 |                5 |         1473254 |                     0 |     525288766 | 2017-02-08 02:19:40.96972+01

 2017-02-08 03:35:32.332329+01 | 1486521332.33233 |                 0 |              15 |                    19 |                   34 |                 36 |           608 |                5 |         1473254 |                     0 |     525427179 | 2017-02-08 02:19:40.96972+01

