 2017-02-08 02:45:31.427111+01 | 1486518331.42711 |                 0 |               6 |                     9 |                   11 |                 18 |           568 |                5 |         1473209 |                     0 |     177378522 | 2017-02-08 02:19:40.96972+01

 2017-02-08 02:45:32.56427+01 | 1486518332.56427 |                 0 |               6 |                     9 |                   11 |                 18 |           571 |                5 |         1473209 |                     0 |     177506222 | 2017-02-08 02:19:40.96972+01

 2017-02-08 02:45:33.740942+01 | 1486518333.74094 |                 0 |               6 |                     9 |                   11 |                 18 |           572 |                5 |         1473209 |                     0 |     177642798 | 2017-02-08 02:19:40.96972+01

 2017-02-08 02:45:34.934777+01 | 1486518334.93478 |                 0 |               6 |                     9 |                   11 |                 18 |           572 |                5 |         1473209 |                     0 |     177763854 | 2017-02-08 02:19:40.96972+01

 2017-02-08 02:45:36.118936+01 | 1486518336.11894 |                 0 |               6 |                     9 |                   11 |                 18 |           572 |                5 |         1473209 |                     0 |     177907610 | 2017-02-08 02:19:40.96972+01

 2017-02-08 02:45:37.271833+01 | 1486518337.27183 |                 0 |               6 |                     9 |                   11 |                 18 |           572 |                5 |         1473209 |                     0 |     178040157 | 2017-02-08 02:19:40.96972+01

 2017-02-08 02:45:38.417337+01 | 1486518338.41734 |                 0 |               6 |                     9 |                   11 |                 18 |           572 |                5 |         1473209 |                     0 |     178179957 | 2017-02-08 02:19:40.96972+01

 2017-02-08 02:45:39.525588+01 | 1486518339.52559 |                 0 |               6 |                     9 |                   11 |                 18 |           572 |                5 |         1473209 |                     0 |     178309179 | 2017-02-08 02:19:40.96972+01

 2017-02-08 02:45:40.698127+01 | 1486518340.69813 |                 0 |               6 |                     9 |                   11 |                 18 |           572 |                5 |         1473209 |                     0 |     178421201 | 2017-02-08 02:19:40.96972+01

 2017-02-08 02:45:41.845756+01 | 1486518341.84576 |                 0 |               6 |                     9 |                   11 |                 18 |           572 |                5 |         1473209 |                     0 |     178544237 | 2017-02-08 02:19:40.96972+01

 2017-02-08 02:45:43.040179+01 | 1486518343.04018 |                 0 |               6 |                     9 |                   11 |                 18 |           572 |                5 |         1473209 |                     0 |     178686696 | 2017-02-08 02:19:40.96972+01

 2017-02-08 02:45:44.23477+01 | 1486518344.23477 |                 0 |               6 |                     9 |                   11 |                 18 |           572 |                5 |         1473209 |                     0 |     178832522 | 2017-02-08 02:19:40.96972+01

 2017-02-08 02:45:45.423496+01 | 1486518345.4235 |                 0 |               6 |                     9 |                   11 |                 18 |           572 |                5 |         1473209 |                     0 |     178975042 | 2017-02-08 02:19:40.96972+01

 2017-02-08 02:45:46.6206+01 | 1486518346.6206 |                 0 |               6 |                     9 |                   11 |                 18 |           572 |                5 |         1473209 |                     0 |     179095215 | 2017-02-08 02:19:40.96972+01

 2017-02-08 02:45:47.814648+01 | 1486518347.81465 |                 0 |               6 |                     9 |                   11 |                 18 |           572 |                5 |         1473209 |                     0 |     179236618 | 2017-02-08 02:19:40.96972+01

 2017-02-08 02:45:49.010143+01 | 1486518349.01014 |                 0 |               6 |                     9 |                   11 |                 18 |           572 |                5 |         1473209 |                     0 |     179382760 | 2017-02-08 02:19:40.96972+01

 2017-02-08 02:45:50.150371+01 | 1486518350.15037 |                 0 |               6 |                     9 |                   11 |                 18 |           572 |                5 |         1473209 |                     0 |     179528529 | 2017-02-08 02:19:40.96972+01

 2017-02-08 02:45:51.254987+01 | 1486518351.25499 |                 0 |               6 |                     9 |                   11 |                 18 |           572 |                5 |         1473209 |                     0 |     179660601 | 2017-02-08 02:19:40.96972+01

 2017-02-08 02:45:52.394338+01 | 1486518352.39434 |                 0 |               6 |                     9 |                   11 |                 18 |           572 |                5 |         1473209 |                     0 |     179764794 | 2017-02-08 02:19:40.96972+01

 2017-02-08 02:45:53.573484+01 | 1486518353.57348 |                 0 |               6 |                     9 |                   11 |                 18 |           572 |                5 |         1473209 |                     0 |     179909498 | 2017-02-08 02:19:40.96972+01

 2017-02-08 02:45:54.765611+01 | 1486518354.76561 |                 0 |               6 |                     9 |                   11 |                 18 |           572 |                5 |         1473209 |                     0 |     180055718 | 2017-02-08 02:19:40.96972+01

 2017-02-08 02:45:55.946978+01 | 1486518355.94698 |                 0 |               6 |                     9 |                   11 |                 18 |           572 |                5 |         1473209 |                     0 |     180202022 | 2017-02-08 02:19:40.96972+01

 2017-02-08 02:45:57.138868+01 | 1486518357.13887 |                 0 |               6 |                     9 |                   11 |                 18 |           572 |                5 |         1473209 |                     0 |     180348531 | 2017-02-08 02:19:40.96972+01

 2017-02-08 02:45:58.287823+01 | 1486518358.28782 |                 0 |               6 |                     9 |                   11 |                 18 |           572 |                5 |         1473209 |                     0 |     180470601 | 2017-02-08 02:19:40.96972+01

 2017-02-08 02:45:59.440074+01 | 1486518359.44007 |                 0 |               6 |                     9 |                   11 |                 18 |           572 |                5 |         1473209 |                     0 |     180599183 | 2017-02-08 02:19:40.96972+01

 2017-02-08 02:46:00.629981+01 | 1486518360.62998 |                 0 |               6 |                     9 |                   11 |                 18 |           572 |                5 |         1473209 |                     0 |     180742234 | 2017-02-08 02:19:40.96972+01

 2017-02-08 02:46:01.826399+01 | 1486518361.8264 |                 0 |               6 |                     9 |                   11 |                 18 |           572 |                5 |         1473209 |                     0 |     180889282 | 2017-02-08 02:19:40.96972+01

 2017-02-08 02:46:03.007209+01 | 1486518363.00721 |                 0 |               6 |                     9 |                   11 |                 18 |           572 |                5 |         1473209 |                     0 |     181033702 | 2017-02-08 02:19:40.96972+01

 2017-02-08 02:46:04.205541+01 | 1486518364.20554 |                 0 |               6 |                     9 |                   11 |                 18 |           572 |                5 |         1473209 |                     0 |     181179420 | 2017-02-08 02:19:40.96972+01

 2017-02-08 02:46:05.335536+01 | 1486518365.33554 |                 0 |               6 |                     9 |                   11 |                 18 |           572 |                5 |         1473209 |                     0 |     181326672 | 2017-02-08 02:19:40.96972+01

 2017-02-08 02:46:06.507676+01 | 1486518366.50768 |                 0 |               6 |                     9 |                   11 |                 18 |           572 |                5 |         1473209 |                     0 |     181445923 | 2017-02-08 02:19:40.96972+01

 2017-02-08 02:46:07.702167+01 | 1486518367.70217 |                 0 |               6 |                     9 |                   11 |                 18 |           572 |                5 |         1473209 |                     0 |     181592649 | 2017-02-08 02:19:40.96972+01

 2017-02-08 02:46:08.857336+01 | 1486518368.85734 |                 0 |               6 |                     9 |                   11 |                 18 |           572 |                5 |         1473209 |                     0 |     181739956 | 2017-02-08 02:19:40.96972+01

 2017-02-08 02:46:10.02303+01 | 1486518370.02303 |                 0 |               6 |                     9 |                   11 |                 18 |           572 |                5 |         1473209 |                     0 |     181868650 | 2017-02-08 02:19:40.96972+01

 2017-02-08 02:46:11.212986+01 | 1486518371.21299 |                 0 |               6 |                     9 |                   11 |                 18 |           572 |                5 |         1473209 |                     0 |     181989058 | 2017-02-08 02:19:40.96972+01

 2017-02-08 02:46:12.405065+01 | 1486518372.40507 |                 0 |               6 |                     9 |                   11 |                 18 |           572 |                5 |         1473209 |                     0 |     182159566 | 2017-02-08 02:19:40.96972+01

 2017-02-08 02:46:13.594186+01 | 1486518373.59419 |                 0 |               6 |                     9 |                   11 |                 18 |           572 |                5 |         1473209 |                     0 |     182280039 | 2017-02-08 02:19:40.96972+01

 2017-02-08 02:46:14.74061+01 | 1486518374.74061 |                 0 |               6 |                     9 |                   11 |                 18 |           572 |                5 |         1473209 |                     0 |     182427132 | 2017-02-08 02:19:40.96972+01

 2017-02-08 02:46:15.927368+01 | 1486518375.92737 |                 0 |               6 |                     9 |                   11 |                 18 |           572 |                5 |         1473209 |                     0 |     182570460 | 2017-02-08 02:19:40.96972+01

 2017-02-08 02:46:17.074318+01 | 1486518377.07432 |                 0 |               6 |                     9 |                   11 |                 18 |           572 |                5 |         1473209 |                     0 |     182704295 | 2017-02-08 02:19:40.96972+01

 2017-02-08 02:46:18.206357+01 | 1486518378.20636 |                 0 |               6 |                     9 |                   11 |                 18 |           572 |                5 |         1473209 |                     0 |     182807249 | 2017-02-08 02:19:40.96972+01

 2017-02-08 02:46:19.393913+01 | 1486518379.39391 |                 0 |               6 |                     9 |                   11 |                 18 |           572 |                5 |         1473209 |                     0 |     182941577 | 2017-02-08 02:19:40.96972+01

 2017-02-08 02:46:20.589036+01 | 1486518380.58904 |                 0 |               6 |                     9 |                   11 |                 18 |           572 |                5 |         1473209 |                     0 |     183088295 | 2017-02-08 02:19:40.96972+01

 2017-02-08 02:46:21.781936+01 | 1486518381.78194 |                 0 |               6 |                     9 |                   11 |                 18 |           572 |                5 |         1473209 |                     0 |     183234302 | 2017-02-08 02:19:40.96972+01

 2017-02-08 02:46:22.977516+01 | 1486518382.97752 |                 0 |               6 |                     9 |                   11 |                 18 |           572 |                5 |         1473209 |                     0 |     183381059 | 2017-02-08 02:19:40.96972+01

 2017-02-08 02:46:24.172859+01 | 1486518384.17286 |                 0 |               6 |                     9 |                   11 |                 18 |           572 |                5 |         1473209 |                     0 |     183527426 | 2017-02-08 02:19:40.96972+01

 2017-02-08 02:46:25.370051+01 | 1486518385.37005 |                 0 |               6 |                     9 |                   11 |                 18 |           572 |                5 |         1473209 |                     0 |     183674150 | 2017-02-08 02:19:40.96972+01

 2017-02-08 02:46:26.558108+01 | 1486518386.55811 |                 0 |               6 |                     9 |                   11 |                 18 |           572 |                5 |         1473209 |                     0 |     183820297 | 2017-02-08 02:19:40.96972+01

 2017-02-08 02:46:27.751599+01 | 1486518387.7516 |                 0 |               6 |                     9 |                   11 |                 18 |           572 |                5 |         1473209 |                     0 |     183942344 | 2017-02-08 02:19:40.96972+01

 2017-02-08 02:46:28.942821+01 | 1486518388.94282 |                 0 |               6 |                     9 |                   11 |                 18 |           572 |                5 |         1473209 |                     0 |     184088924 | 2017-02-08 02:19:40.96972+01

 2017-02-08 02:46:30.138814+01 | 1486518390.13881 |                 0 |               6 |                     9 |                   11 |                 18 |           572 |                5 |         1473209 |                     0 |     184235885 | 2017-02-08 02:19:40.96972+01

 2017-02-08 02:46:31.330158+01 | 1486518391.33016 |                 0 |               6 |                     9 |                   11 |                 18 |           572 |                5 |         1473209 |                     0 |     184378712 | 2017-02-08 02:19:40.96972+01

 2017-02-08 02:46:32.523825+01 | 1486518392.52382 |                 0 |               6 |                     9 |                   11 |                 18 |           572 |                5 |         1473209 |                     0 |     184525658 | 2017-02-08 02:19:40.96972+01

 2017-02-08 02:46:33.720641+01 | 1486518393.72064 |                 0 |               6 |                     9 |                   11 |                 18 |           572 |                5 |         1473209 |                     0 |     184672734 | 2017-02-08 02:19:40.96972+01

 2017-02-08 02:46:34.913731+01 | 1486518394.91373 |                 0 |               6 |                     9 |                   11 |                 18 |           572 |                5 |         1473209 |                     0 |     184812644 | 2017-02-08 02:19:40.96972+01

 2017-02-08 02:46:36.107976+01 | 1486518396.10798 |                 0 |               6 |                     9 |                   11 |                 18 |           572 |                5 |         1473209 |                     0 |     184952475 | 2017-02-08 02:19:40.96972+01

 2017-02-08 02:46:37.304667+01 | 1486518397.30467 |                 0 |               6 |                     9 |                   11 |                 18 |           572 |                5 |         1473209 |                     0 |     185099425 | 2017-02-08 02:19:40.96972+01

 2017-02-08 02:46:38.501703+01 | 1486518398.5017 |                 0 |               6 |                     9 |                   11 |                 18 |           572 |                5 |         1473209 |                     0 |     185246254 | 2017-02-08 02:19:40.96972+01

 2017-02-08 02:46:39.693151+01 | 1486518399.69315 |                 0 |               6 |                     9 |                   11 |                 18 |           572 |                5 |         1473209 |                     0 |     185393191 | 2017-02-08 02:19:40.96972+01

 2017-02-08 02:46:40.891048+01 | 1486518400.89105 |                 0 |               6 |                     9 |                   11 |                 18 |           572 |                5 |         1473209 |                     0 |     185539715 | 2017-02-08 02:19:40.96972+01

 2017-02-08 02:46:42.085213+01 | 1486518402.08521 |                 0 |               6 |                     9 |                   11 |                 18 |           572 |                5 |         1473209 |                     0 |     185683620 | 2017-02-08 02:19:40.96972+01

 2017-02-08 02:46:43.284377+01 | 1486518403.28438 |                 0 |               6 |                     9 |                   11 |                 18 |           572 |                5 |         1473209 |                     0 |     185798363 | 2017-02-08 02:19:40.96972+01

 2017-02-08 02:46:44.39471+01 | 1486518404.39471 |                 0 |               6 |                     9 |                   11 |                 18 |           572 |                5 |         1473209 |                     0 |     185942500 | 2017-02-08 02:19:40.96972+01

 2017-02-08 02:46:45.568894+01 | 1486518405.56889 |                 0 |               6 |                     9 |                   11 |                 18 |           572 |                5 |         1473209 |                     0 |     186079289 | 2017-02-08 02:19:40.96972+01

 2017-02-08 02:46:46.760932+01 | 1486518406.76093 |                 0 |               6 |                     9 |                   11 |                 18 |           572 |                5 |         1473209 |                     0 |     186220388 | 2017-02-08 02:19:40.96972+01

 2017-02-08 02:46:47.954297+01 | 1486518407.9543 |                 0 |               6 |                     9 |                   11 |                 18 |           572 |                5 |         1473209 |                     0 |     186366140 | 2017-02-08 02:19:40.96972+01

 2017-02-08 02:46:49.080692+01 | 1486518409.08069 |                 0 |               6 |                     9 |                   11 |                 18 |           572 |                5 |         1473209 |                     0 |     186472074 | 2017-02-08 02:19:40.96972+01

 2017-02-08 02:46:50.242348+01 | 1486518410.24235 |                 0 |               6 |                     9 |                   11 |                 18 |           572 |                5 |         1473209 |                     0 |     186610947 | 2017-02-08 02:19:40.96972+01

 2017-02-08 02:46:51.373382+01 | 1486518411.37338 |                 0 |               6 |                     9 |                   11 |                 18 |           572 |                5 |         1473209 |                     0 |     186741910 | 2017-02-08 02:19:40.96972+01

 2017-02-08 02:46:52.550462+01 | 1486518412.55046 |                 0 |               6 |                     9 |                   11 |                 18 |           572 |                5 |         1473209 |                     0 |     186855941 | 2017-02-08 02:19:40.96972+01

 2017-02-08 02:46:53.743425+01 | 1486518413.74342 |                 0 |               6 |                     9 |                   11 |                 18 |           572 |                5 |         1473209 |                     0 |     187002832 | 2017-02-08 02:19:40.96972+01

 2017-02-08 02:46:54.938541+01 | 1486518414.93854 |                 0 |               6 |                     9 |                   11 |                 18 |           572 |                5 |         1473209 |                     0 |     187149825 | 2017-02-08 02:19:40.96972+01

 2017-02-08 02:46:56.089667+01 | 1486518416.08967 |                 0 |               6 |                     9 |                   11 |                 18 |           572 |                5 |         1473209 |                     0 |     187296541 | 2017-02-08 02:19:40.96972+01

 2017-02-08 02:46:57.266142+01 | 1486518417.26614 |                 0 |               6 |                     9 |                   11 |                 18 |           572 |                5 |         1473209 |                     0 |     187433213 | 2017-02-08 02:19:40.96972+01

 2017-02-08 02:46:58.451889+01 | 1486518418.45189 |                 0 |               6 |                     9 |                   11 |                 18 |           572 |                5 |         1473209 |                     0 |     187576565 | 2017-02-08 02:19:40.96972+01

 2017-02-08 02:46:59.649479+01 | 1486518419.64948 |                 0 |               6 |                     9 |                   11 |                 18 |           572 |                5 |         1473209 |                     0 |     187723391 | 2017-02-08 02:19:40.96972+01

 2017-02-08 02:47:00.848634+01 | 1486518420.84863 |                 0 |               6 |                     9 |                   11 |                 18 |           572 |                5 |         1473209 |                     0 |     187869923 | 2017-02-08 02:19:40.96972+01

 2017-02-08 02:47:02.041171+01 | 1486518422.04117 |                 0 |               6 |                     9 |                   11 |                 18 |           572 |                5 |         1473209 |                     0 |     188016454 | 2017-02-08 02:19:40.96972+01

 2017-02-08 02:47:03.232886+01 | 1486518423.23289 |                 0 |               6 |                     9 |                   11 |                 18 |           572 |                5 |         1473209 |                     0 |     188138665 | 2017-02-08 02:19:40.96972+01

 2017-02-08 02:47:04.380232+01 | 1486518424.38023 |                 0 |               6 |                     9 |                   11 |                 18 |           572 |                5 |         1473209 |                     0 |     188267982 | 2017-02-08 02:19:40.96972+01

 2017-02-08 02:47:05.563894+01 | 1486518425.56389 |                 0 |               6 |                     9 |                   11 |                 18 |           572 |                5 |         1473209 |                     0 |     188398309 | 2017-02-08 02:19:40.96972+01

 2017-02-08 02:47:06.760352+01 | 1486518426.76035 |                 0 |               6 |                     9 |                   11 |                 18 |           572 |                5 |         1473209 |                     0 |     188544785 | 2017-02-08 02:19:40.96972+01

 2017-02-08 02:47:07.957431+01 | 1486518427.95743 |                 0 |               6 |                     9 |                   11 |                 18 |           572 |                5 |         1473209 |                     0 |     188691290 | 2017-02-08 02:19:40.96972+01

 2017-02-08 02:47:09.153195+01 | 1486518429.15319 |                 0 |               6 |                     9 |                   11 |                 18 |           572 |                5 |         1473209 |                     0 |     188838133 | 2017-02-08 02:19:40.96972+01

 2017-02-08 02:47:10.348015+01 | 1486518430.34802 |                 0 |               6 |                     9 |                   11 |                 18 |           572 |                5 |         1473209 |                     0 |     188984889 | 2017-02-08 02:19:40.96972+01

 2017-02-08 02:47:11.540047+01 | 1486518431.54005 |                 0 |               6 |                     9 |                   11 |                 18 |           572 |                5 |         1473209 |                     0 |     189131547 | 2017-02-08 02:19:40.96972+01

 2017-02-08 02:47:12.737226+01 | 1486518432.73723 |                 0 |               6 |                     9 |                   11 |                 18 |           572 |                5 |         1473209 |                     0 |     189278081 | 2017-02-08 02:19:40.96972+01

 2017-02-08 02:47:13.932165+01 | 1486518433.93216 |                 0 |               6 |                     9 |                   11 |                 18 |           572 |                5 |         1473209 |                     0 |     189424599 | 2017-02-08 02:19:40.96972+01

 2017-02-08 02:47:15.123901+01 | 1486518435.1239 |                 0 |               6 |                     9 |                   11 |                 18 |           572 |                5 |         1473209 |                     0 |     189545145 | 2017-02-08 02:19:40.96972+01

 2017-02-08 02:47:16.316711+01 | 1486518436.31671 |                 0 |               6 |                     9 |                   11 |                 18 |           572 |                5 |         1473209 |                     0 |     189691899 | 2017-02-08 02:19:40.96972+01

 2017-02-08 02:47:17.496902+01 | 1486518437.4969 |                 0 |               6 |                     9 |                   11 |                 18 |           572 |                5 |         1473209 |                     0 |     189838481 | 2017-02-08 02:19:40.96972+01

 2017-02-08 02:47:18.688015+01 | 1486518438.68801 |                 0 |               6 |                     9 |                   11 |                 18 |           572 |                5 |         1473209 |                     0 |     189985154 | 2017-02-08 02:19:40.96972+01

 2017-02-08 02:47:19.881556+01 | 1486518439.88156 |                 0 |               6 |                     9 |                   11 |                 18 |           572 |                5 |         1473209 |                     0 |     190131943 | 2017-02-08 02:19:40.96972+01

 2017-02-08 02:47:21.073325+01 | 1486518441.07332 |                 0 |               6 |                     9 |                   11 |                 18 |           572 |                5 |         1473209 |                     0 |     190278934 | 2017-02-08 02:19:40.96972+01

 2017-02-08 02:47:22.265914+01 | 1486518442.26591 |                 0 |               6 |                     9 |                   11 |                 18 |           572 |                5 |         1473209 |                     0 |     190425725 | 2017-02-08 02:19:40.96972+01

 2017-02-08 02:47:23.460989+01 | 1486518443.46099 |                 0 |               6 |                     9 |                   11 |                 18 |           572 |                5 |         1473209 |                     0 |     190571613 | 2017-02-08 02:19:40.96972+01

 2017-02-08 02:47:24.530865+01 | 1486518444.53086 |                 0 |               6 |                     9 |                   11 |                 18 |           572 |                5 |         1473209 |                     0 |     190693084 | 2017-02-08 02:19:40.96972+01

 2017-02-08 02:47:25.699741+01 | 1486518445.69974 |                 0 |               6 |                     9 |                   11 |                 18 |           572 |                5 |         1473209 |                     0 |     190834906 | 2017-02-08 02:19:40.96972+01

 2017-02-08 02:47:26.895487+01 | 1486518446.89549 |                 0 |               6 |                     9 |                   11 |                 18 |           572 |                5 |         1473209 |                     0 |     190981419 | 2017-02-08 02:19:40.96972+01

 2017-02-08 02:47:28.090644+01 | 1486518448.09064 |                 0 |               6 |                     9 |                   11 |                 18 |           572 |                5 |         1473209 |                     0 |     191128487 | 2017-02-08 02:19:40.96972+01

 2017-02-08 02:47:29.287503+01 | 1486518449.2875 |                 0 |               6 |                     9 |                   11 |                 18 |           572 |                5 |         1473209 |                     0 |     191275416 | 2017-02-08 02:19:40.96972+01

 2017-02-08 02:47:30.481012+01 | 1486518450.48101 |                 0 |               6 |                     9 |                   11 |                 18 |           572 |                5 |         1473209 |                     0 |     191421694 | 2017-02-08 02:19:40.96972+01

 2017-02-08 02:47:31.675306+01 | 1486518451.67531 |                 0 |               6 |                     9 |                   11 |                 18 |           572 |                5 |         1473209 |                     0 |     191568645 | 2017-02-08 02:19:40.96972+01

 2017-02-08 02:47:32.778095+01 | 1486518452.7781 |                 0 |               6 |                     9 |                   11 |                 18 |           572 |                5 |         1473209 |                     0 |     191687495 | 2017-02-08 02:19:40.96972+01

 2017-02-08 02:47:33.95228+01 | 1486518453.95228 |                 0 |               6 |                     9 |                   11 |                 18 |           572 |                5 |         1473209 |                     0 |     191827043 | 2017-02-08 02:19:40.96972+01

 2017-02-08 02:47:35.143745+01 | 1486518455.14374 |                 0 |               6 |                     9 |                   11 |                 18 |           572 |                5 |         1473209 |                     0 |     191973621 | 2017-02-08 02:19:40.96972+01

 2017-02-08 02:47:36.316406+01 | 1486518456.31641 |                 0 |               6 |                     9 |                   11 |                 18 |           572 |                5 |         1473209 |                     0 |     192120182 | 2017-02-08 02:19:40.96972+01

 2017-02-08 02:47:37.434354+01 | 1486518457.43435 |                 0 |               6 |                     9 |                   11 |                 18 |           572 |                5 |         1473209 |                     0 |     192228921 | 2017-02-08 02:19:40.96972+01

 2017-02-08 02:47:38.557397+01 | 1486518458.5574 |                 0 |               6 |                     9 |                   11 |                 18 |           572 |                5 |         1473209 |                     0 |     192346205 | 2017-02-08 02:19:40.96972+01

 2017-02-08 02:47:39.688884+01 | 1486518459.68888 |                 0 |               6 |                     9 |                   11 |                 18 |           572 |                5 |         1473209 |                     0 |     192451608 | 2017-02-08 02:19:40.96972+01

 2017-02-08 02:47:40.843375+01 | 1486518460.84337 |                 0 |               6 |                     9 |                   11 |                 18 |           572 |                5 |         1473209 |                     0 |     192596949 | 2017-02-08 02:19:40.96972+01

 2017-02-08 02:47:42.028816+01 | 1486518462.02882 |                 0 |               6 |                     9 |                   11 |                 18 |           572 |                5 |         1473209 |                     0 |     192731239 | 2017-02-08 02:19:40.96972+01

 2017-02-08 02:47:43.213278+01 | 1486518463.21328 |                 0 |               6 |                     9 |                   11 |                 18 |           572 |                5 |         1473209 |                     0 |     192876921 | 2017-02-08 02:19:40.96972+01

 2017-02-08 02:47:44.40538+01 | 1486518464.40538 |                 0 |               6 |                     9 |                   11 |                 18 |           572 |                5 |         1473209 |                     0 |     193019699 | 2017-02-08 02:19:40.96972+01

 2017-02-08 02:47:45.597269+01 | 1486518465.59727 |                 0 |               6 |                     9 |                   11 |                 18 |           572 |                5 |         1473209 |                     0 |     193164514 | 2017-02-08 02:19:40.96972+01

 2017-02-08 02:47:46.781055+01 | 1486518466.78105 |                 0 |               6 |                     9 |                   11 |                 18 |           572 |                5 |         1473209 |                     0 |     193279153 | 2017-02-08 02:19:40.96972+01

 2017-02-08 02:47:47.970066+01 | 1486518467.97007 |                 0 |               6 |                     9 |                   11 |                 18 |           572 |                5 |         1473209 |                     0 |     193425964 | 2017-02-08 02:19:40.96972+01

 2017-02-08 02:47:49.145336+01 | 1486518469.14534 |                 0 |               6 |                     9 |                   11 |                 18 |           572 |                5 |         1473209 |                     0 |     193572150 | 2017-02-08 02:19:40.96972+01

 2017-02-08 02:47:50.317722+01 | 1486518470.31772 |                 0 |               6 |                     9 |                   11 |                 18 |           572 |                5 |         1473209 |                     0 |     193715131 | 2017-02-08 02:19:40.96972+01

 2017-02-08 02:47:51.50771+01 | 1486518471.50771 |                 0 |               6 |                     9 |                   11 |                 18 |           572 |                5 |         1473209 |                     0 |     193861934 | 2017-02-08 02:19:40.96972+01

 2017-02-08 02:47:52.702123+01 | 1486518472.70212 |                 0 |               6 |                     9 |                   11 |                 18 |           572 |                5 |         1473209 |                     0 |     194008644 | 2017-02-08 02:19:40.96972+01

 2017-02-08 02:47:53.879361+01 | 1486518473.87936 |                 0 |               6 |                     9 |                   11 |                 18 |           572 |                5 |         1473209 |                     0 |     194154337 | 2017-02-08 02:19:40.96972+01

 2017-02-08 02:47:54.976114+01 | 1486518474.97611 |                 0 |               6 |                     9 |                   11 |                 18 |           572 |                5 |         1473209 |                     0 |     194275559 | 2017-02-08 02:19:40.96972+01

 2017-02-08 02:47:56.135296+01 | 1486518476.1353 |                 0 |               6 |                     9 |                   11 |                 18 |           572 |                5 |         1473209 |                     0 |     194395156 | 2017-02-08 02:19:40.96972+01

 2017-02-08 02:47:57.333826+01 | 1486518477.33383 |                 0 |               6 |                     9 |                   11 |                 18 |           572 |                5 |         1473209 |                     0 |     194541361 | 2017-02-08 02:19:40.96972+01

 2017-02-08 02:47:58.524762+01 | 1486518478.52476 |                 0 |               6 |                     9 |                   11 |                 18 |           572 |                5 |         1473209 |                     0 |     194687957 | 2017-02-08 02:19:40.96972+01

 2017-02-08 02:47:59.713828+01 | 1486518479.71383 |                 0 |               6 |                     9 |                   11 |                 18 |           572 |                5 |         1473209 |                     0 |     194834699 | 2017-02-08 02:19:40.96972+01

 2017-02-08 02:48:00.839327+01 | 1486518480.83933 |                 0 |               6 |                     9 |                   11 |                 18 |           572 |                5 |         1473209 |                     0 |     194940800 | 2017-02-08 02:19:40.96972+01

 2017-02-08 02:48:02.005331+01 | 1486518482.00533 |                 0 |               6 |                     9 |                   11 |                 18 |           572 |                5 |         1473209 |                     0 |     195075298 | 2017-02-08 02:19:40.96972+01

 2017-02-08 02:48:03.191937+01 | 1486518483.19194 |                 0 |               6 |                     9 |                   11 |                 18 |           572 |                5 |         1473209 |                     0 |     195222389 | 2017-02-08 02:19:40.96972+01

 2017-02-08 02:48:04.377593+01 | 1486518484.37759 |                 0 |               6 |                     9 |                   11 |                 18 |           572 |                5 |         1473209 |                     0 |     195361149 | 2017-02-08 02:19:40.96972+01

 2017-02-08 02:48:05.498398+01 | 1486518485.4984 |                 0 |               6 |                     9 |                   11 |                 18 |           572 |                5 |         1473209 |                     0 |     195494019 | 2017-02-08 02:19:40.96972+01

 2017-02-08 02:48:06.676303+01 | 1486518486.6763 |                 0 |               6 |                     9 |                   11 |                 18 |           572 |                5 |         1473209 |                     0 |     195613877 | 2017-02-08 02:19:40.96972+01

 2017-02-08 02:48:07.870339+01 | 1486518487.87034 |                 0 |               6 |                     9 |                   11 |                 18 |           572 |                5 |         1473209 |                     0 |     195760580 | 2017-02-08 02:19:40.96972+01

 2017-02-08 02:48:09.064479+01 | 1486518489.06448 |                 0 |               6 |                     9 |                   11 |                 18 |           572 |                5 |         1473209 |                     0 |     195907485 | 2017-02-08 02:19:40.96972+01

 2017-02-08 02:48:10.260129+01 | 1486518490.26013 |                 0 |               6 |                     9 |                   11 |                 18 |           572 |                5 |         1473209 |                     0 |     196054235 | 2017-02-08 02:19:40.96972+01

 2017-02-08 02:48:11.453039+01 | 1486518491.45304 |                 0 |               6 |                     9 |                   11 |                 18 |           572 |                5 |         1473209 |                     0 |     196200969 | 2017-02-08 02:19:40.96972+01

 2017-02-08 02:48:12.648119+01 | 1486518492.64812 |                 0 |               6 |                     9 |                   11 |                 18 |           572 |                5 |         1473209 |                     0 |     196348065 | 2017-02-08 02:19:40.96972+01

 2017-02-08 02:48:13.846022+01 | 1486518493.84602 |                 0 |               6 |                     9 |                   11 |                 18 |           572 |                5 |         1473209 |                     0 |     196494677 | 2017-02-08 02:19:40.96972+01

 2017-02-08 02:48:15.039665+01 | 1486518495.03966 |                 0 |               6 |                     9 |                   11 |                 18 |           572 |                5 |         1473209 |                     0 |     196641169 | 2017-02-08 02:19:40.96972+01

 2017-02-08 02:48:16.233575+01 | 1486518496.23358 |                 0 |               6 |                     9 |                   11 |                 18 |           572 |                5 |         1473209 |                     0 |     196787299 | 2017-02-08 02:19:40.96972+01

 2017-02-08 02:48:17.425779+01 | 1486518497.42578 |                 0 |               6 |                     9 |                   11 |                 18 |           572 |                5 |         1473209 |                     0 |     196909772 | 2017-02-08 02:19:40.96972+01

 2017-02-08 02:48:18.599086+01 | 1486518498.59909 |                 0 |               6 |                     9 |                   11 |                 18 |           572 |                5 |         1473209 |                     0 |     197056231 | 2017-02-08 02:19:40.96972+01

 2017-02-08 02:48:19.790218+01 | 1486518499.79022 |                 0 |               6 |                     9 |                   11 |                 18 |           572 |                5 |         1473209 |                     0 |     197201394 | 2017-02-08 02:19:40.96972+01

 2017-02-08 02:48:20.984966+01 | 1486518500.98497 |                 0 |               6 |                     9 |                   11 |                 18 |           572 |                5 |         1473209 |                     0 |     197348072 | 2017-02-08 02:19:40.96972+01

 2017-02-08 02:48:22.178522+01 | 1486518502.17852 |                 0 |               6 |                     9 |                   11 |                 18 |           572 |                5 |         1473209 |                     0 |     197494183 | 2017-02-08 02:19:40.96972+01

 2017-02-08 02:48:23.374952+01 | 1486518503.37495 |                 0 |               6 |                     9 |                   11 |                 18 |           572 |                5 |         1473209 |                     0 |     197636518 | 2017-02-08 02:19:40.96972+01

 2017-02-08 02:48:24.571774+01 | 1486518504.57177 |                 0 |               6 |                     9 |                   11 |                 18 |           572 |                5 |         1473209 |                     0 |     197783507 | 2017-02-08 02:19:40.96972+01

 2017-02-08 02:48:25.702355+01 | 1486518505.70235 |                 0 |               6 |                     9 |                   11 |                 18 |           572 |                5 |         1473209 |                     0 |     197928846 | 2017-02-08 02:19:40.96972+01

 2017-02-08 02:48:26.867277+01 | 1486518506.86728 |                 0 |               6 |                     9 |                   11 |                 18 |           572 |                5 |         1473209 |                     0 |     198048933 | 2017-02-08 02:19:40.96972+01

 2017-02-08 02:48:28.042276+01 | 1486518508.04228 |                 0 |               6 |                     9 |                   11 |                 18 |           572 |                5 |         1473209 |                     0 |     198194735 | 2017-02-08 02:19:40.96972+01

 2017-02-08 02:48:29.233974+01 | 1486518509.23397 |                 0 |               6 |                     9 |                   11 |                 18 |           572 |                5 |         1473209 |                     0 |     198341816 | 2017-02-08 02:19:40.96972+01

 2017-02-08 02:48:30.428435+01 | 1486518510.42844 |                 0 |               6 |                     9 |                   11 |                 18 |           572 |                5 |         1473209 |                     0 |     198488553 | 2017-02-08 02:19:40.96972+01

 2017-02-08 02:48:31.542519+01 | 1486518511.54252 |                 0 |               6 |                     9 |                   11 |                 18 |           572 |                5 |         1473209 |                     0 |     198635257 | 2017-02-08 02:19:40.96972+01

 2017-02-08 02:48:32.622743+01 | 1486518512.62274 |                 0 |               6 |                     9 |                   11 |                 18 |           572 |                5 |         1473209 |                     0 |     198737856 | 2017-02-08 02:19:40.96972+01

 2017-02-08 02:48:33.796328+01 | 1486518513.79633 |                 0 |               6 |                     9 |                   11 |                 18 |           572 |                5 |         1473209 |                     0 |     198877586 | 2017-02-08 02:19:40.96972+01

 2017-02-08 02:48:34.992784+01 | 1486518514.99278 |                 0 |               6 |                     9 |                   11 |                 18 |           572 |                5 |         1473209 |                     0 |     199024436 | 2017-02-08 02:19:40.96972+01

 2017-02-08 02:48:36.178336+01 | 1486518516.17834 |                 0 |               6 |                     9 |                   11 |                 18 |           572 |                5 |         1473209 |                     0 |     199146405 | 2017-02-08 02:19:40.96972+01

 2017-02-08 02:48:37.316674+01 | 1486518517.31667 |                 0 |               6 |                     9 |                   11 |                 18 |           572 |                5 |         1473209 |                     0 |     199292661 | 2017-02-08 02:19:40.96972+01

 2017-02-08 02:48:38.483263+01 | 1486518518.48326 |                 0 |               6 |                     9 |                   11 |                 18 |           572 |                5 |         1473209 |                     0 |     199429060 | 2017-02-08 02:19:40.96972+01

 2017-02-08 02:48:39.614742+01 | 1486518519.61474 |                 0 |               6 |                     9 |                   11 |                 18 |           572 |                5 |         1473209 |                     0 |     199569389 | 2017-02-08 02:19:40.96972+01

 2017-02-08 02:48:40.725098+01 | 1486518520.7251 |                 0 |               6 |                     9 |                   11 |                 18 |           572 |                5 |         1473209 |                     0 |     199676049 | 2017-02-08 02:19:40.96972+01

 2017-02-08 02:48:41.894108+01 | 1486518521.89411 |                 0 |               6 |                     9 |                   11 |                 18 |           572 |                5 |         1473209 |                     0 |     199813311 | 2017-02-08 02:19:40.96972+01

 2017-02-08 02:48:43.088863+01 | 1486518523.08886 |                 0 |               6 |                     9 |                   11 |                 18 |           572 |                5 |         1473209 |                     0 |     199959664 | 2017-02-08 02:19:40.96972+01

 2017-02-08 02:48:44.28441+01 | 1486518524.28441 |                 0 |               6 |                     9 |                   11 |                 18 |           572 |                5 |         1473209 |                     0 |     200106521 | 2017-02-08 02:19:40.96972+01

 2017-02-08 02:48:45.475923+01 | 1486518525.47592 |                 0 |               6 |                     9 |                   11 |                 18 |           572 |                5 |         1473209 |                     0 |     200253267 | 2017-02-08 02:19:40.96972+01

 2017-02-08 02:48:46.669453+01 | 1486518526.66945 |                 0 |               6 |                     9 |                   11 |                 18 |           572 |                5 |         1473209 |                     0 |     200375463 | 2017-02-08 02:19:40.96972+01

 2017-02-08 02:48:47.86794+01 | 1486518527.86794 |                 0 |               6 |                     9 |                   11 |                 18 |           572 |                5 |         1473209 |                     0 |     200516235 | 2017-02-08 02:19:40.96972+01

 2017-02-08 02:48:49.064744+01 | 1486518529.06474 |                 0 |               6 |                     9 |                   11 |                 18 |           572 |                5 |         1473209 |                     0 |     200661659 | 2017-02-08 02:19:40.96972+01

 2017-02-08 02:48:50.257066+01 | 1486518530.25707 |                 0 |               6 |                     9 |                   11 |                 18 |           572 |                5 |         1473209 |                     0 |     200808422 | 2017-02-08 02:19:40.96972+01

 2017-02-08 02:48:51.450807+01 | 1486518531.45081 |                 0 |               6 |                     9 |                   11 |                 18 |           572 |                5 |         1473209 |                     0 |     200955558 | 2017-02-08 02:19:40.96972+01

 2017-02-08 02:48:52.642508+01 | 1486518532.64251 |                 0 |               6 |                     9 |                   11 |                 18 |           572 |                5 |         1473209 |                     0 |     201102198 | 2017-02-08 02:19:40.96972+01

 2017-02-08 02:48:53.829928+01 | 1486518533.82993 |                 0 |               6 |                     9 |                   11 |                 18 |           572 |                5 |         1473209 |                     0 |     201249444 | 2017-02-08 02:19:40.96972+01

 2017-02-08 02:48:55.022308+01 | 1486518535.02231 |                 0 |               6 |                     9 |                   11 |                 18 |           572 |                5 |         1473209 |                     0 |     201396211 | 2017-02-08 02:19:40.96972+01

 2017-02-08 02:48:56.215116+01 | 1486518536.21512 |                 0 |               6 |                     9 |                   11 |                 18 |           572 |                5 |         1473209 |                     0 |     201542999 | 2017-02-08 02:19:40.96972+01

 2017-02-08 02:48:57.348256+01 | 1486518537.34826 |                 0 |               6 |                     9 |                   11 |                 18 |           572 |                5 |         1473209 |                     0 |     201686510 | 2017-02-08 02:19:40.96972+01

 2017-02-08 02:48:58.468107+01 | 1486518538.46811 |                 0 |               6 |                     9 |                   11 |                 18 |           572 |                5 |         1473209 |                     0 |     201797168 | 2017-02-08 02:19:40.96972+01

 2017-02-08 02:48:59.638294+01 | 1486518539.63829 |                 0 |               6 |                     9 |                   11 |                 18 |           572 |                5 |         1473209 |                     0 |     201939434 | 2017-02-08 02:19:40.96972+01

 2017-02-08 02:49:00.81924+01 | 1486518540.81924 |                 0 |               6 |                     9 |                   11 |                 18 |           572 |                5 |         1473209 |                     0 |     202080377 | 2017-02-08 02:19:40.96972+01

 2017-02-08 02:49:02.016408+01 | 1486518542.01641 |                 0 |               6 |                     9 |                   11 |                 18 |           572 |                5 |         1473209 |                     0 |     202226919 | 2017-02-08 02:19:40.96972+01

 2017-02-08 02:49:03.154372+01 | 1486518543.15437 |                 0 |               6 |                     9 |                   11 |                 18 |           572 |                5 |         1473209 |                     0 |     202345972 | 2017-02-08 02:19:40.96972+01

 2017-02-08 02:49:04.320522+01 | 1486518544.32052 |                 0 |               6 |                     9 |                   11 |                 18 |           572 |                5 |         1473209 |                     0 |     202472986 | 2017-02-08 02:19:40.96972+01

 2017-02-08 02:49:05.472329+01 | 1486518545.47233 |                 0 |               6 |                     9 |                   11 |                 18 |           572 |                5 |         1473209 |                     0 |     202612660 | 2017-02-08 02:19:40.96972+01

 2017-02-08 02:49:06.658402+01 | 1486518546.6584 |                 0 |               6 |                     9 |                   11 |                 18 |           572 |                5 |         1473209 |                     0 |     202758479 | 2017-02-08 02:19:40.96972+01

 2017-02-08 02:49:07.853102+01 | 1486518547.8531 |                 0 |               6 |                     9 |                   11 |                 18 |           572 |                5 |         1473209 |                     0 |     202905542 | 2017-02-08 02:19:40.96972+01

 2017-02-08 02:49:09.034307+01 | 1486518549.03431 |                 0 |               6 |                     9 |                   11 |                 18 |           572 |                5 |         1473209 |                     0 |     203026822 | 2017-02-08 02:19:40.96972+01

 2017-02-08 02:49:10.220661+01 | 1486518550.22066 |                 0 |               6 |                     9 |                   11 |                 18 |           572 |                5 |         1473209 |                     0 |     203170000 | 2017-02-08 02:19:40.96972+01

 2017-02-08 02:49:11.371339+01 | 1486518551.37134 |                 0 |               6 |                     9 |                   11 |                 18 |           572 |                5 |         1473209 |                     0 |     203311158 | 2017-02-08 02:19:40.96972+01

 2017-02-08 02:49:12.543974+01 | 1486518552.54397 |                 0 |               6 |                     9 |                   11 |                 18 |           572 |                5 |         1473209 |                     0 |     203450444 | 2017-02-08 02:19:40.96972+01

 2017-02-08 02:49:13.734333+01 | 1486518553.73433 |                 0 |               6 |                     9 |                   11 |                 18 |           572 |                5 |         1473209 |                     0 |     203596913 | 2017-02-08 02:19:40.96972+01

 2017-02-08 02:49:14.884918+01 | 1486518554.88492 |                 0 |               6 |                     9 |                   11 |                 18 |           572 |                5 |         1473209 |                     0 |     203734660 | 2017-02-08 02:19:40.96972+01

 2017-02-08 02:49:16.034626+01 | 1486518556.03463 |                 0 |               6 |                     9 |                   11 |                 18 |           572 |                5 |         1473209 |                     0 |     203834208 | 2017-02-08 02:19:40.96972+01

 2017-02-08 02:49:17.175698+01 | 1486518557.1757 |                 0 |               6 |                     9 |                   11 |                 18 |           572 |                5 |         1473209 |                     0 |     203954207 | 2017-02-08 02:19:40.96972+01

 2017-02-08 02:49:18.319832+01 | 1486518558.31983 |                 0 |               6 |                     9 |                   11 |                 18 |           572 |                5 |         1473209 |                     0 |     204082296 | 2017-02-08 02:19:40.96972+01

 2017-02-08 02:49:19.506613+01 | 1486518559.50661 |                 0 |               6 |                     9 |                   11 |                 18 |           572 |                5 |         1473209 |                     0 |     204199266 | 2017-02-08 02:19:40.96972+01

 2017-02-08 02:49:20.697114+01 | 1486518560.69711 |                 0 |               6 |                     9 |                   11 |                 18 |           572 |                5 |         1473209 |                     0 |     204346421 | 2017-02-08 02:19:40.96972+01

 2017-02-08 02:49:21.89443+01 | 1486518561.89443 |                 0 |               6 |                     9 |                   11 |                 18 |           572 |                5 |         1473209 |                     0 |     204493626 | 2017-02-08 02:19:40.96972+01

 2017-02-08 02:49:23.084875+01 | 1486518563.08488 |                 0 |               6 |                     9 |                   11 |                 18 |           572 |                5 |         1473209 |                     0 |     204638207 | 2017-02-08 02:19:40.96972+01

 2017-02-08 02:49:24.282894+01 | 1486518564.28289 |                 0 |               6 |                     9 |                   11 |                 18 |           572 |                5 |         1473209 |                     0 |     204785000 | 2017-02-08 02:19:40.96972+01

 2017-02-08 02:49:25.478486+01 | 1486518565.47849 |                 0 |               6 |                     9 |                   11 |                 18 |           572 |                5 |         1473209 |                     0 |     204928232 | 2017-02-08 02:19:40.96972+01

 2017-02-08 02:49:26.625605+01 | 1486518566.62561 |                 0 |               6 |                     9 |                   11 |                 18 |           572 |                5 |         1473209 |                     0 |     205067221 | 2017-02-08 02:19:40.96972+01

 2017-02-08 02:49:27.762307+01 | 1486518567.76231 |                 0 |               6 |                     9 |                   11 |                 18 |           572 |                5 |         1473209 |                     0 |     205165753 | 2017-02-08 02:19:40.96972+01

 2017-02-08 02:49:28.939659+01 | 1486518568.93966 |                 0 |               6 |                     9 |                   11 |                 18 |           572 |                5 |         1473209 |                     0 |     205302952 | 2017-02-08 02:19:40.96972+01

 2017-02-08 02:49:30.079378+01 | 1486518570.07938 |                 0 |               6 |                     9 |                   11 |                 18 |           572 |                5 |         1473209 |                     0 |     205440380 | 2017-02-08 02:19:40.96972+01

 2017-02-08 02:49:31.192388+01 | 1486518571.19239 |                 0 |               6 |                     9 |                   11 |                 18 |           572 |                5 |         1473209 |                     0 |     205567150 | 2017-02-08 02:19:40.96972+01

 2017-02-08 02:49:32.346359+01 | 1486518572.34636 |                 0 |               6 |                     9 |                   11 |                 18 |           572 |                5 |         1473209 |                     0 |     205682074 | 2017-02-08 02:19:40.96972+01

 2017-02-08 02:49:33.491051+01 | 1486518573.49105 |                 0 |               6 |                     9 |                   11 |                 18 |           572 |                5 |         1473209 |                     0 |     205812794 | 2017-02-08 02:19:40.96972+01

 2017-02-08 02:49:34.662313+01 | 1486518574.66231 |                 0 |               6 |                     9 |                   11 |                 18 |           572 |                5 |         1473209 |                     0 |     205954313 | 2017-02-08 02:19:40.96972+01

 2017-02-08 02:49:35.840316+01 | 1486518575.84032 |                 0 |               6 |                     9 |                   11 |                 18 |           572 |                5 |         1473209 |                     0 |     206075636 | 2017-02-08 02:19:40.96972+01

 2017-02-08 02:49:37.03142+01 | 1486518577.03142 |                 0 |               6 |                     9 |                   11 |                 18 |           572 |                5 |         1473209 |                     0 |     206222187 | 2017-02-08 02:19:40.96972+01

 2017-02-08 02:49:38.203004+01 | 1486518578.203 |                 0 |               6 |                     9 |                   11 |                 18 |           572 |                5 |         1473209 |                     0 |     206364836 | 2017-02-08 02:19:40.96972+01

 2017-02-08 02:49:39.365309+01 | 1486518579.36531 |                 0 |               6 |                     9 |                   11 |                 18 |           572 |                5 |         1473209 |                     0 |     206497755 | 2017-02-08 02:19:40.96972+01

 2017-02-08 02:49:40.543824+01 | 1486518580.54382 |                 0 |               6 |                     9 |                   11 |                 18 |           572 |                5 |         1473209 |                     0 |     206641246 | 2017-02-08 02:19:40.96972+01

 2017-02-08 02:49:41.739998+01 | 1486518581.74 |                 0 |               6 |                     9 |                   11 |                 18 |           572 |                5 |         1473209 |                     0 |     206772276 | 2017-02-08 02:19:40.96972+01

 2017-02-08 02:49:42.935192+01 | 1486518582.93519 |                 0 |               6 |                     9 |                   11 |                 18 |           572 |                5 |         1473209 |                     0 |     206918657 | 2017-02-08 02:19:40.96972+01

 2017-02-08 02:49:44.118138+01 | 1486518584.11814 |                 0 |               6 |                     9 |                   11 |                 18 |           572 |                5 |         1473209 |                     0 |     207065446 | 2017-02-08 02:19:40.96972+01

 2017-02-08 02:49:45.302551+01 | 1486518585.30255 |                 0 |               6 |                     9 |                   11 |                 18 |           572 |                5 |         1473209 |                     0 |     207182548 | 2017-02-08 02:19:40.96972+01

 2017-02-08 02:49:46.501111+01 | 1486518586.50111 |                 0 |               6 |                     9 |                   11 |                 18 |           572 |                5 |         1473209 |                     0 |     207329415 | 2017-02-08 02:19:40.96972+01

 2017-02-08 02:49:47.689799+01 | 1486518587.6898 |                 0 |               6 |                     9 |                   11 |                 18 |           572 |                5 |         1473209 |                     0 |     207476390 | 2017-02-08 02:19:40.96972+01

 2017-02-08 02:49:48.882816+01 | 1486518588.88282 |                 0 |               6 |                     9 |                   11 |                 18 |           572 |                5 |         1473209 |                     0 |     207623105 | 2017-02-08 02:19:40.96972+01

 2017-02-08 02:49:50.078287+01 | 1486518590.07829 |                 0 |               6 |                     9 |                   11 |                 18 |           572 |                5 |         1473209 |                     0 |     207770248 | 2017-02-08 02:19:40.96972+01

 2017-02-08 02:49:51.273068+01 | 1486518591.27307 |                 0 |               6 |                     9 |                   11 |                 18 |           572 |                5 |         1473209 |                     0 |     207916455 | 2017-02-08 02:19:40.96972+01

 2017-02-08 02:49:52.466431+01 | 1486518592.46643 |                 0 |               6 |                     9 |                   11 |                 18 |           572 |                5 |         1473209 |                     0 |     208062372 | 2017-02-08 02:19:40.96972+01

 2017-02-08 02:49:53.660799+01 | 1486518593.6608 |                 0 |               6 |                     9 |                   11 |                 18 |           572 |                5 |         1473209 |                     0 |     208208993 | 2017-02-08 02:19:40.96972+01

 2017-02-08 02:49:54.85491+01 | 1486518594.85491 |                 0 |               6 |                     9 |                   11 |                 18 |           572 |                5 |         1473209 |                     0 |     208356018 | 2017-02-08 02:19:40.96972+01

 2017-02-08 02:49:56.050798+01 | 1486518596.0508 |                 0 |               6 |                     9 |                   11 |                 18 |           572 |                5 |         1473209 |                     0 |     208502589 | 2017-02-08 02:19:40.96972+01

 2017-02-08 02:49:57.24554+01 | 1486518597.24554 |                 0 |               6 |                     9 |                   11 |                 18 |           572 |                5 |         1473209 |                     0 |     208649118 | 2017-02-08 02:19:40.96972+01

 2017-02-08 02:49:58.384331+01 | 1486518598.38433 |                 0 |               6 |                     9 |                   11 |                 18 |           572 |                5 |         1473209 |                     0 |     208767681 | 2017-02-08 02:19:40.96972+01

 2017-02-08 02:49:59.561155+01 | 1486518599.56116 |                 0 |               6 |                     9 |                   11 |                 18 |           572 |                5 |         1473209 |                     0 |     208913148 | 2017-02-08 02:19:40.96972+01

 2017-02-08 02:50:00.757232+01 | 1486518600.75723 |                 0 |               6 |                     9 |                   11 |                 18 |           572 |                5 |         1473209 |                     0 |     209059834 | 2017-02-08 02:19:40.96972+01

 2017-02-08 02:50:01.951476+01 | 1486518601.95148 |                 0 |               6 |                     9 |                   11 |                 18 |           572 |                5 |         1473209 |                     0 |     209206058 | 2017-02-08 02:19:40.96972+01

 2017-02-08 02:50:03.14665+01 | 1486518603.14665 |                 0 |               6 |                     9 |                   11 |                 18 |           572 |                5 |         1473209 |                     0 |     209350652 | 2017-02-08 02:19:40.96972+01

 2017-02-08 02:50:04.342154+01 | 1486518604.34215 |                 0 |               6 |                     9 |                   11 |                 18 |           572 |                5 |         1473209 |                     0 |     209497576 | 2017-02-08 02:19:40.96972+01

 2017-02-08 02:50:05.53896+01 | 1486518605.53896 |                 0 |               6 |                     9 |                   11 |                 18 |           572 |                5 |         1473209 |                     0 |     209644428 | 2017-02-08 02:19:40.96972+01

 2017-02-08 02:50:06.734085+01 | 1486518606.73409 |                 0 |               6 |                     9 |                   11 |                 18 |           572 |                5 |         1473209 |                     0 |     209791259 | 2017-02-08 02:19:40.96972+01

 2017-02-08 02:50:07.929177+01 | 1486518607.92918 |                 0 |               6 |                     9 |                   11 |                 18 |           572 |                5 |         1473209 |                     0 |     209937776 | 2017-02-08 02:19:40.96972+01

 2017-02-08 02:50:09.124518+01 | 1486518609.12452 |                 0 |               6 |                     9 |                   11 |                 18 |           572 |                5 |         1473209 |                     0 |     210059424 | 2017-02-08 02:19:40.96972+01

 2017-02-08 02:50:10.260365+01 | 1486518610.26037 |                 0 |               6 |                     9 |                   11 |                 18 |           572 |                5 |         1473209 |                     0 |     210205632 | 2017-02-08 02:19:40.96972+01

 2017-02-08 02:50:11.438357+01 | 1486518611.43836 |                 0 |               6 |                     9 |                   11 |                 18 |           572 |                5 |         1473209 |                     0 |     210345231 | 2017-02-08 02:19:40.96972+01

 2017-02-08 02:50:12.634203+01 | 1486518612.6342 |                 0 |               6 |                     9 |                   11 |                 18 |           572 |                5 |         1473209 |                     0 |     210492050 | 2017-02-08 02:19:40.96972+01

 2017-02-08 02:50:13.827756+01 | 1486518613.82776 |                 0 |               6 |                     9 |                   11 |                 18 |           572 |                5 |         1473209 |                     0 |     210639375 | 2017-02-08 02:19:40.96972+01

 2017-02-08 02:50:15.019852+01 | 1486518615.01985 |                 0 |               6 |                     9 |                   11 |                 18 |           572 |                5 |         1473209 |                     0 |     210779973 | 2017-02-08 02:19:40.96972+01

 2017-02-08 02:50:16.149364+01 | 1486518616.14936 |                 0 |               6 |                     9 |                   11 |                 18 |           572 |                5 |         1473209 |                     0 |     210914177 | 2017-02-08 02:19:40.96972+01

 2017-02-08 02:50:17.271526+01 | 1486518617.27153 |                 0 |               6 |                     9 |                   11 |                 18 |           572 |                5 |         1473209 |                     0 |     211017021 | 2017-02-08 02:19:40.96972+01

 2017-02-08 02:50:18.400328+01 | 1486518618.40033 |                 0 |               6 |                     9 |                   11 |                 18 |           572 |                5 |         1473209 |                     0 |     211159047 | 2017-02-08 02:19:40.96972+01

 2017-02-08 02:50:19.519921+01 | 1486518619.51992 |                 0 |               6 |                     9 |                   11 |                 18 |           572 |                5 |         1473209 |                     0 |     211279285 | 2017-02-08 02:19:40.96972+01

 2017-02-08 02:50:20.69079+01 | 1486518620.69079 |                 0 |               6 |                     9 |                   11 |                 18 |           572 |                5 |         1473209 |                     0 |     211420752 | 2017-02-08 02:19:40.96972+01

 2017-02-08 02:50:21.885498+01 | 1486518621.8855 |                 0 |               6 |                     9 |                   11 |                 18 |           572 |                5 |         1473209 |                     0 |     211567595 | 2017-02-08 02:19:40.96972+01

 2017-02-08 02:50:23.080444+01 | 1486518623.08044 |                 0 |               6 |                     9 |                   11 |                 18 |           572 |                5 |         1473209 |                     0 |     211714188 | 2017-02-08 02:19:40.96972+01

 2017-02-08 02:50:24.260647+01 | 1486518624.26065 |                 0 |               6 |                     9 |                   11 |                 18 |           572 |                5 |         1473209 |                     0 |     211860599 | 2017-02-08 02:19:40.96972+01

 2017-02-08 02:50:25.432551+01 | 1486518625.43255 |                 0 |               6 |                     9 |                   11 |                 18 |           572 |                5 |         1473209 |                     0 |     211981834 | 2017-02-08 02:19:40.96972+01

 2017-02-08 02:50:26.621517+01 | 1486518626.62152 |                 0 |               6 |                     9 |                   11 |                 18 |           572 |                5 |         1473209 |                     0 |     212124957 | 2017-02-08 02:19:40.96972+01

 2017-02-08 02:50:27.815787+01 | 1486518627.81579 |                 0 |               6 |                     9 |                   11 |                 18 |           572 |                5 |         1473209 |                     0 |     212271885 | 2017-02-08 02:19:40.96972+01

 2017-02-08 02:50:29.008826+01 | 1486518629.00883 |                 0 |               6 |                     9 |                   11 |                 18 |           572 |                5 |         1473209 |                     0 |     212417952 | 2017-02-08 02:19:40.96972+01

 2017-02-08 02:50:30.176889+01 | 1486518630.17689 |                 0 |               6 |                     9 |                   11 |                 18 |           572 |                5 |         1473209 |                     0 |     212564760 | 2017-02-08 02:19:40.96972+01

