1486518331.2288|||2
1486518331.34844|||6
1486518331.48308|||5
1486518331.61958|||5
1486518331.7513|||5
1486518331.88793|||5
1486518332.02478|||5
1486518332.16144|||5
1486518332.29524|||5
1486518332.42419|||5
1486518332.5625|Client|ClientRead|1
1486518332.5625|||4
1486518332.67349|Client|ClientRead|1
1486518332.67349|||4
1486518332.78855|||4
1486518332.78855|Client|ClientRead|1
1486518332.90458|Client|ClientRead|1
1486518332.90458|||4
1486518333.03438|||5
1486518333.17015|||5
1486518333.3072|||5
1486518333.4434|||5
1486518333.58064|||5
1486518333.71654|||5
1486518333.85178|||5
1486518333.98789|||5
1486518334.1249|||5
1486518334.26186|||5
1486518334.39904|||5
1486518334.53611|||5
1486518334.67346|||5
1486518334.8125|||6
1486518334.95048|||5
1486518334.95048|Client|ClientRead|1
1486518335.0888|||5
1486518335.2261|||5
1486518335.36321|||5
1486518335.50056|||5
1486518335.63263|Client|ClientRead|2
1486518335.63263|||3
1486518335.75495|||4
1486518335.75495|Client|ClientRead|1
1486518335.87716|||4
1486518335.87716|Client|ClientRead|1
1486518336.00427|Client|ClientRead|1
1486518336.00427|||4
1486518336.13635|||6
1486518336.27177|||5
1486518336.40907|||5
1486518336.53766|||4
1486518336.53766|Client|ClientRead|1
1486518336.64885|Client|ClientRead|1
1486518336.64885|||4
1486518336.75837|||5
1486518336.88294|Client|ClientRead|1
1486518336.88294|||4
1486518337.0033|||4
1486518337.0033|Client|ClientRead|1
1486518337.12975|||4
1486518337.12975|Client|ClientRead|1
1486518337.25576|||6
1486518337.38332|Client|ClientRead|1
1486518337.38332|||4
1486518337.50155|||4
1486518337.50155|Client|ClientRead|1
1486518337.61544|||4
1486518337.61544|Client|ClientRead|1
1486518337.73864|||5
1486518337.87583|||5
1486518338.01318|||5
1486518338.1505|||5
1486518338.28776|||5
1486518338.41674|Client|ClientRead|1
1486518338.41674|||4
1486518338.53916|||4
1486518338.53916|Client|ClientRead|1
1486518338.66526|Client|ClientRead|1
1486518338.66526|||4
1486518338.79314|Client|ClientRead|1
1486518338.79314|||4
1486518338.91458|||4
1486518338.91458|Client|ClientRead|1
1486518339.03543|Client|ClientRead|1
1486518339.03543|||4
1486518339.157|Client|ClientRead|1
1486518339.157|||4
1486518339.27637|||4
1486518339.27637|Client|ClientRead|1
1486518339.39197|Client|ClientRead|1
1486518339.39197|||4
1486518339.50399|||2
1486518339.50399|Client|ClientRead|3
1486518339.62388|||5
1486518339.74822|||4
1486518339.74822|Client|ClientRead|1
1486518339.87188|||5
1486518340.0095|Client|ClientRead|1
1486518340.0095|||4
1486518340.1221|Client|ClientRead|2
1486518340.1221|||3
1486518340.23447|||4
1486518340.23447|Client|ClientRead|1
1486518340.36951|||5
1486518340.50366|||5
1486518340.64081|Client|ClientRead|1
1486518340.64081|||5
1486518340.76948|||3
1486518340.76948|Client|ClientRead|2
1486518340.88671|Client|ClientRead|1
1486518340.88671|||4
1486518341.00495|||5
1486518341.11877|||3
1486518341.11877|Client|ClientRead|2
1486518341.23344|Client|ClientRead|1
1486518341.23344|||4
1486518341.3587|||4
1486518341.3587|Client|ClientRead|1
1486518341.48324|Client|ClientRead|1
1486518341.48324|||4
1486518341.5997|Client|ClientRead|1
1486518341.5997|||4
1486518341.7297|||5
1486518341.85773|||5
1486518341.99513|||5
1486518342.11822|Client|ClientRead|1
1486518342.11822|||4
1486518342.24977|||5
1486518342.38868|||5
1486518342.52595|||5
1486518342.66231|||5
1486518342.80019|||5
1486518342.93745|||6
1486518343.07462|||5
1486518343.21006|||5
1486518343.34725|||5
1486518343.48219|||5
1486518343.61936|||5
1486518343.75664|||5
1486518343.89408|||5
1486518344.03151|||5
1486518344.16663|||5
1486518344.29345|Client|ClientRead|1
1486518344.29345|||4
1486518344.42488|||5
1486518344.54632|Client|ClientRead|2
1486518344.54632|||3
1486518344.68906|||5
1486518344.82658|||5
1486518344.96392|||5
1486518345.10277|||5
1486518345.23806|||5
1486518345.37522|||5
1486518345.51244|||5
1486518345.64958|||5
1486518345.78691|||5
1486518345.91816|Client|ClientRead|1
1486518345.91816|||4
1486518346.03774|||4
1486518346.03774|Client|ClientRead|1
1486518346.16873|||5
1486518346.30602|||5
1486518346.44338|||5
1486518346.57811|||5
1486518346.71245|||5
1486518346.84977|||5
1486518346.98594|||5
1486518347.1134|||4
1486518347.1134|Client|ClientRead|1
1486518347.24311|Client|ClientRead|2
1486518347.24311|||3
1486518347.3803|||5
1486518347.51758|||5
1486518347.65313|||5
1486518347.78872|||5
1486518347.92639|||5
1486518348.06377|||5
1486518348.19796|||5
1486518348.33274|||5
1486518348.46837|||5
1486518348.60559|||5
1486518348.74163|||5
1486518348.87702|||5
1486518349.01381|||5
1486518349.1508|||5
1486518349.28538|||5
1486518349.42069|||5
1486518349.55608|||5
1486518349.69231|||5
1486518349.82976|||5
1486518349.95896|||5
1486518350.08752|Client|ClientRead|1
1486518350.08752|||5
1486518350.2162|Client|ClientRead|1
1486518350.2162|||4
1486518350.34989|||4
1486518350.34989|Client|ClientRead|1
1486518350.47619|||4
1486518350.47619|Client|ClientRead|1
1486518350.60333|||4
1486518350.60333|Client|ClientRead|1
1486518350.73305|||4
1486518350.73305|Client|ClientRead|1
1486518350.84959|||4
1486518350.84959|Client|ClientRead|1
1486518350.96791|Client|ClientRead|1
1486518350.96791|||4
1486518351.09379|||3
1486518351.09379|Client|ClientRead|2
1486518351.22144|||5
1486518351.22144|Client|ClientRead|1
1486518351.33704|||4
1486518351.33704|Client|ClientRead|1
1486518351.46067|||4
1486518351.46067|Client|ClientRead|1
1486518351.58506|||4
1486518351.58506|Client|ClientRead|1
1486518351.70212|||4
1486518351.70212|Client|ClientRead|1
1486518351.82544|||4
1486518351.82544|Client|ClientRead|1
1486518351.94944|Client|ClientRead|2
1486518351.94944|||3
1486518352.08228|||4
1486518352.08228|Client|ClientRead|1
1486518352.22077|||5
1486518352.35633|Client|ClientRead|1
1486518352.35633|||4
1486518352.48361|||5
1486518352.62072|||5
1486518352.75624|||5
1486518352.89163|||5
1486518353.02892|||5
1486518353.16619|||5
1486518353.30159|||5
1486518353.4389|||5
1486518353.57257|||6
1486518353.71159|||5
1486518353.84906|||5
1486518353.98639|||5
1486518354.115|||5
1486518354.25137|||5
1486518354.38871|||5
1486518354.52506|||5
1486518354.66228|||5
1486518354.78628|||4
1486518354.78628|Client|ClientRead|1
1486518354.9089|||5
1486518355.04535|||5
1486518355.1845|||5
1486518355.32074|||5
1486518355.45606|||5
1486518355.59145|||5
1486518355.72784|||5
1486518355.86395|||4
1486518355.86395|LWLock|buffer_mapping|1
1486518356.00167|||5
1486518356.13902|||5
1486518356.27621|||5
1486518356.41362|||5
1486518356.55096|||5
1486518356.68831|||5
1486518356.82575|||5
1486518356.96337|||5
1486518357.0997|||6
1486518357.23772|||5
1486518357.37533|||5
1486518357.51145|||5
1486518357.6505|||5
1486518357.78801|||5
1486518357.9253|||5
1486518358.06273|||5
1486518358.19784|Client|ClientRead|1
1486518358.19784|||5
1486518358.32325|||4
1486518358.32325|Client|ClientRead|1
1486518358.44637|Client|ClientRead|1
1486518358.44637|||4
1486518358.57217|Client|ClientRead|1
1486518358.57217|||4
1486518358.68635|||4
1486518358.68635|Client|ClientRead|1
1486518358.8028|||5
1486518358.93422|||4
1486518358.93422|Client|ClientRead|1
1486518359.05651|Client|ClientRead|2
1486518359.05651|||3
1486518359.17228|||5
1486518359.2856|||4
1486518359.2856|Client|ClientRead|1
1486518359.41859|Client|ClientRead|1
1486518359.41859|||5
1486518359.55364|Client|ClientRead|1
1486518359.55364|||4
1486518359.68364|||5
1486518359.82001|||5
1486518359.95756|||5
1486518360.0969|||5
1486518360.23396|||5
1486518360.37123|||5
1486518360.50814|||6
1486518360.64543|||5
1486518360.7814|||5
1486518360.91901|||5
1486518361.0542|||5
1486518361.18342|||5
1486518361.3209|||5
1486518361.45626|||5
1486518361.59371|||5
1486518361.73093|Client|ClientRead|1
1486518361.73093|||5
1486518361.86149|Client|ClientRead|1
1486518361.86149|||4
1486518361.99536|||5
1486518362.12797|||5
1486518362.26146|||5
1486518362.39891|||5
1486518362.53616|||5
1486518362.67317|||5
1486518362.81031|||5
1486518362.94498|||6
1486518363.0822|||5
1486518363.21949|||5
1486518363.35684|||5
1486518363.49423|||5
1486518363.63154|||5
1486518363.77043|||5
1486518363.89794|||5
1486518364.03318|||5
1486518364.16866|||5
1486518364.16866|Client|ClientRead|1
1486518364.30527|||5
1486518364.44251|||5
1486518364.57876|||5
1486518364.71603|||5
1486518364.85333|||5
1486518364.99186|||5
1486518365.12919|||5
1486518365.25429|||5
1486518365.37941|||5
1486518365.50886|||5
1486518365.64623|||5
1486518365.78504|||5
1486518365.9229|||5
1486518366.06155|||5
1486518366.19898|||5
1486518366.33627|||5
1486518366.47166|||5
1486518366.60922|||5
1486518366.74442|||5
1486518366.88194|||5
1486518367.0195|||5
1486518367.15684|||5
1486518367.29412|||5
1486518367.43138|||5
1486518367.5668|||5
1486518367.7021|Client|ClientRead|1
1486518367.7021|||5
1486518367.83874|||5
1486518367.9758|||5
1486518368.11311|||5
1486518368.25024|||5
1486518368.38748|||5
1486518368.52478|||5
1486518368.66224|||5
1486518368.79559|Client|ClientRead|1
1486518368.79559|||5
1486518368.90508|Client|ClientRead|1
1486518368.90508|||4
1486518369.02852|||4
1486518369.02852|Client|ClientRead|1
1486518369.15926|||4
1486518369.15926|Client|ClientRead|1
1486518369.28402|||5
1486518369.41196|||4
1486518369.41196|Client|ClientRead|1
1486518369.53807|Client|ClientRead|1
1486518369.53807|||4
1486518369.66364|||3
1486518369.66364|Client|ClientRead|2
1486518369.783|||4
1486518369.783|Client|ClientRead|1
1486518369.91809|||5
1486518370.05227|||5
1486518370.18545|||5
1486518370.32179|||5
1486518370.45896|||5
1486518370.5963|||5
1486518370.73254|||5
1486518370.86894|||5
1486518371.00626|||5
1486518371.14404|||5
1486518371.2791|||5
1486518371.41634|||5
1486518371.55368|||5
1486518371.68311|||5
1486518371.82103|||5
1486518371.95829|||5
1486518372.09559|||5
1486518372.23297|||5
1486518372.36831|||3
1486518372.36831|LWLock|buffer_mapping|2
1486518372.50854|||5
1486518372.64683|||5
1486518372.78434|||5
1486518372.92163|||5
1486518373.0594|||5
1486518373.19381|||5
1486518373.31219|||4
1486518373.31219|Client|ClientRead|1
1486518373.435|||5
1486518373.56983|||5
1486518373.70738|||5
1486518373.84485|||5
1486518373.98195|||5
1486518374.11935|||5
1486518374.25816|||5
1486518374.39451|||5
1486518374.53176|||5
1486518374.66327|||6
1486518374.78529|Client|ClientRead|1
1486518374.78529|||4
1486518374.90637|Client|ClientRead|1
1486518374.90637|||4
1486518375.04195|||5
1486518375.17982|||5
1486518375.31731|||5
1486518375.45473|||5
1486518375.59087|||5
1486518375.72832|||5
1486518375.86562|Client|ClientRead|1
1486518375.86562|||5
1486518375.98668|||5
1486518376.10437|Client|ClientRead|1
1486518376.10437|||4
1486518376.21991|||4
1486518376.21991|Client|ClientRead|1
1486518376.34313|||4
1486518376.34313|Client|ClientRead|1
1486518376.47679|Client|ClientRead|1
1486518376.47679|||4
1486518376.59565|Client|ClientRead|1
1486518376.59565|||4
1486518376.7227|||5
1486518376.84086|||5
1486518376.95758|||4
1486518376.95758|Client|ClientRead|2
1486518377.08324|Client|ClientRead|1
1486518377.08324|||4
1486518377.19824|||5
1486518377.31723|Client|ClientRead|1
1486518377.31723|||4
1486518377.43875|||4
1486518377.43875|Client|ClientRead|1
1486518377.56845|Client|ClientRead|1
1486518377.56845|||4
1486518377.68641|LWLock|buffer_mapping|1
1486518377.68641|||2
1486518377.68641|Client|ClientRead|2
1486518377.80442|||4
1486518377.80442|Client|ClientRead|1
1486518377.91894|Client|ClientRead|1
1486518377.91894|||4
1486518378.03989|Client|ClientRead|1
1486518378.03989|||4
1486518378.16627|Client|ClientRead|1
1486518378.16627|||4
1486518378.28716|Client|ClientRead|2
1486518378.28716|||3
1486518378.41173|||4
1486518378.41173|Client|ClientRead|1
1486518378.54484|||5
1486518378.6823|||5
1486518378.81966|||5
1486518378.95789|||5
1486518379.09528|||5
1486518379.23268|||5
1486518379.37058|||5
1486518379.50597|||5
1486518379.64339|||5
1486518379.78069|||5
1486518379.91787|||5
1486518380.05534|||5
1486518380.18991|||5
1486518380.32622|||5
1486518380.46258|||6
1486518380.59969|||5
1486518380.73597|||5
1486518380.87337|||5
1486518381.01153|||5
1486518381.14889|||5
1486518381.27422|||5
1486518381.40347|||5
1486518381.5389|||5
1486518381.67743|||5
1486518381.81219|||5
1486518381.94853|||5
1486518382.08641|||5
1486518382.22385|||5
1486518382.36174|||5
1486518382.49889|||5
1486518382.63621|||5
1486518382.77366|||5
1486518382.90993|||5
1486518383.04597|||5
1486518383.18425|||5
1486518383.32106|||5
1486518383.45638|||5
1486518383.59272|||4
1486518383.59272|Client|ClientRead|1
1486518383.71721|||5
1486518383.85367|||5
1486518383.98887|||5
1486518384.12862|||5
1486518384.26587|||5
1486518384.40235|||5
1486518384.54092|||5
1486518384.67816|||5
1486518384.81662|||5
1486518384.95397|||5
1486518385.09029|||5
1486518385.22439|||5
1486518385.35933|||5
1486518385.49271|||5
1486518385.63|||5
1486518385.76738|||5
1486518385.90491|||5
1486518386.034|||5
1486518386.17144|||5
1486518386.29329|||5
1486518386.42831|||6
1486518386.56383|||5
1486518386.70116|||5
1486518386.83969|||5
1486518386.97703|||5
1486518387.11429|||5
1486518387.25171|||5
1486518387.38891|||5
1486518387.5262|||5
1486518387.66105|||5
1486518387.79795|||5
1486518387.93528|||5
1486518388.07275|||5
1486518388.2101|||5
1486518388.33975|||5
1486518388.47514|||5
1486518388.61218|||5
1486518388.74928|||5
1486518388.88412|||6
1486518389.02143|||5
1486518389.15901|||5
1486518389.29434|||5
1486518389.43172|||5
1486518389.57107|||5
1486518389.70766|||5
1486518389.84529|||5
1486518389.98249|||5
1486518390.11867|||6
1486518390.2563|||5
1486518390.3938|||5
1486518390.53117|||5
1486518390.659|||5
1486518390.7732|||4
1486518390.7732|Client|ClientRead|1
1486518390.89893|||4
1486518390.89893|Client|ClientRead|1
1486518391.02423|||5
1486518391.15979|||5
1486518391.2954|||5
1486518391.43322|||5
1486518391.57071|||5
1486518391.70439|||5
1486518391.84171|||5
1486518391.97925|||5
1486518392.1167|||5
1486518392.25393|||5
1486518392.3907|LWLock|ProcArrayLock|1
1486518392.3907|Client|ClientRead|1
1486518392.3907|||4
1486518392.52566|||5
1486518392.66092|||5
1486518392.79724|||5
1486518392.93441|||5
1486518393.07157|||5
1486518393.207|||5
1486518393.34434|||5
1486518393.48162|||5
1486518393.61721|||6
1486518393.75457|||5
1486518393.89197|||5
1486518394.02794|||5
1486518394.16271|||5
1486518394.29601|||5
1486518394.42615|||4
1486518394.42615|Client|ClientRead|1
1486518394.56153|||5
1486518394.69901|||5
1486518394.83344|||6
1486518394.96612|||5
1486518395.09025|||4
1486518395.09025|Client|ClientRead|1
1486518395.2122|||5
1486518395.34922|||5
1486518395.48638|||5
1486518395.62366|||5
1486518395.75899|||5
1486518395.89715|||5
1486518396.0343|||5
1486518396.17153|||5
1486518396.30917|||5
1486518396.44652|||5
1486518396.58376|||5
1486518396.71906|||5
1486518396.85636|||5
1486518396.99389|||5
1486518397.12826|||5
1486518397.26253|||6
1486518397.39585|||5
1486518397.53432|||5
1486518397.67164|||5
1486518397.80907|||5
1486518397.94645|||5
1486518398.08381|||5
1486518398.2209|||5
1486518398.35814|||5
1486518398.4975|||5
1486518398.6346|||5
1486518398.7709|||5
1486518398.90809|||5
1486518399.0454|||5
1486518399.18304|||5
1486518399.31851|||5
1486518399.45711|||5
1486518399.59504|||6
1486518399.73244|||5
1486518399.8676|||5
1486518400.0041|||5
1486518400.142|||5
1486518400.27952|||5
1486518400.4168|||5
1486518400.55411|||5
1486518400.6917|||5
1486518400.82743|||6
1486518400.95767|||5
1486518401.09489|||5
1486518401.23216|||5
1486518401.35719|||5
1486518401.47685|||3
1486518401.47685|Client|ClientRead|2
1486518401.60934|||5
1486518401.74688|||5
1486518401.88486|||5
1486518402.02025|||5
1486518402.15308|||3
1486518402.15308|Client|ClientRead|2
1486518402.26233|Client|ClientRead|1
1486518402.26233|||4
1486518402.38228|Client|ClientRead|1
1486518402.38228|||4
1486518402.5084|||5
1486518402.63656|||5
1486518402.77388|||5
1486518402.91113|||5
1486518403.04758|||5
1486518403.18486|||5
1486518403.18486|Client|ClientRead|1
1486518403.31991|||5
1486518403.45673|||5
1486518403.59217|||5
1486518403.7286|||5
1486518403.8659|||5
1486518403.99404|||5
1486518404.11414|Client|ClientRead|1
1486518404.11414|||4
1486518404.23823|||4
1486518404.23823|Client|ClientRead|1
1486518404.36326|Client|ClientRead|2
1486518404.36326|||3
1486518404.47687|Client|ClientRead|2
1486518404.47687|||3
1486518404.60425|||5
1486518404.74164|||5
1486518404.87888|||5
1486518405.01623|||5
1486518405.15359|||5
1486518405.29103|||5
1486518405.42806|||5
1486518405.56324|||5
1486518405.70001|||5
1486518405.83749|||5
1486518405.97379|||5
1486518406.09944|Client|ClientRead|1
1486518406.09944|||4
1486518406.22022|Client|ClientRead|1
1486518406.22022|||4
1486518406.34647|||4
1486518406.34647|Client|ClientRead|1
1486518406.47875|||5
1486518406.61572|||5
1486518406.75113|||5
1486518406.88756|||5
1486518407.02267|||4
1486518407.02267|Client|ClientRead|1
1486518407.14593|||5
1486518407.28213|||5
1486518407.41943|||5
1486518407.55715|||5
1486518407.69438|||5
1486518407.82967|||6
1486518407.96688|||5
1486518408.08548|Client|ClientRead|1
1486518408.08548|||4
1486518408.21544|||4
1486518408.21544|Client|ClientRead|1
1486518408.34077|||4
1486518408.34077|Client|ClientRead|1
1486518408.47127|Client|ClientRead|1
1486518408.47127|||4
1486518408.59626|Client|ClientRead|1
1486518408.59626|||4
1486518408.71776|||4
1486518408.71776|Client|ClientRead|1
1486518408.83105|Client|ClientRead|2
1486518408.83105|||3
1486518408.94703|Client|ClientRead|2
1486518408.94703|||3
1486518409.05727|||4
1486518409.05727|Client|ClientRead|1
1486518409.17288|Client|ClientRead|1
1486518409.17288|||4
1486518409.29328|||5
1486518409.42201|||5
1486518409.55945|||5
1486518409.69671|||5
1486518409.83387|||5
1486518409.97124|||5
1486518410.10774|||5
1486518410.24458|||5
1486518410.37188|||4
1486518410.37188|Client|ClientRead|1
1486518410.49491|||4
1486518410.49491|Client|ClientRead|1
1486518410.61801|Client|ClientRead|1
1486518410.61801|||4
1486518410.73084|Client|ClientRead|1
1486518410.73084|||4
1486518410.8568|||4
1486518410.8568|Client|ClientRead|1
1486518410.98108|||4
1486518410.98108|Client|ClientRead|1
1486518411.10496|||3
1486518411.10496|Client|ClientRead|2
1486518411.23277|Client|ClientRead|1
1486518411.23277|||4
1486518411.34915|Client|ClientRead|1
1486518411.34915|||4
1486518411.48027|Client|ClientRead|2
1486518411.48027|||3
1486518411.60152|Client|ClientRead|1
1486518411.60152|||4
1486518411.73139|||5
1486518411.86656|||5
1486518412.00386|||5
1486518412.14102|||5
1486518412.27839|||5
1486518412.41478|||5
1486518412.55187|||5
1486518412.689|||5
1486518412.82664|||5
1486518412.96388|||5
1486518413.10109|||5
1486518413.23844|||5
1486518413.37587|||5
1486518413.51139|||5
1486518413.64351|||5
1486518413.64351|LWLock|buffer_mapping|1
1486518413.77883|||5
1486518413.91401|||5
1486518414.05272|||5
1486518414.18815|||5
1486518414.32536|||5
1486518414.46283|||5
1486518414.59837|||5
1486518414.73458|||5
1486518414.87194|||5
1486518415.009|||5
1486518415.14644|||5
1486518415.28295|||5
1486518415.42022|||5
1486518415.55759|||5
1486518415.69465|||5
1486518415.83196|||5
1486518415.96373|||4
1486518415.96373|Client|ClientRead|1
1486518416.09004|||5
1486518416.21122|||4
1486518416.21122|Client|ClientRead|1
1486518416.33932|||4
1486518416.33932|Client|ClientRead|1
1486518416.4722|Client|ClientRead|1
1486518416.4722|||4
1486518416.59669|||4
1486518416.59669|Client|ClientRead|1
1486518416.72686|||5
1486518416.86393|||5
1486518417.00213|||5
1486518417.13925|||6
1486518417.27315|||4
1486518417.27315|Client|ClientRead|1
1486518417.39549|Client|ClientRead|1
1486518417.39549|||4
1486518417.52224|||4
1486518417.52224|Client|ClientRead|1
1486518417.65722|||5
1486518417.79413|||5
1486518417.93133|||5
1486518418.06865|||5
1486518418.20506|||5
1486518418.33961|||5
1486518418.47648|||5
1486518418.61482|||5
1486518418.75122|||5
1486518418.8905|||5
1486518419.02803|||5
1486518419.16526|||5
1486518419.30284|||5
1486518419.4401|||5
1486518419.57503|||5
1486518419.7121|||5
1486518419.84948|||5
1486518419.98823|||5
1486518420.12478|||5
1486518420.26003|||5
1486518420.3971|||5
1486518420.53369|||5
1486518420.67119|||5
1486518420.79503|||5
1486518420.9322|||5
1486518421.06966|||5
1486518421.20691|||5
1486518421.34217|||5
1486518421.47866|||5
1486518421.61609|||5
1486518421.7533|||5
1486518421.89059|||5
1486518422.0295|||5
1486518422.16466|||5
1486518422.30226|||5
1486518422.43954|||5
1486518422.57686|||5
1486518422.71329|||5
1486518422.85258|||5
1486518422.98986|||5
1486518423.12877|||5
1486518423.25964|||4
1486518423.25964|Client|ClientRead|1
1486518423.38441|||4
1486518423.38441|Client|ClientRead|1
1486518423.51471|||5
1486518423.63604|Client|ClientRead|1
1486518423.63604|||4
1486518423.76168|Client|ClientRead|1
1486518423.76168|||4
1486518423.88536|Client|ClientRead|1
1486518423.88536|||4
1486518424.00457|Client|ClientRead|3
1486518424.00457|||2
1486518424.12534|||3
1486518424.12534|Client|ClientRead|2
1486518424.24493|||4
1486518424.24493|Client|ClientRead|1
1486518424.37553|||3
1486518424.37553|Client|ClientRead|2
1486518424.49909|||4
1486518424.49909|Client|ClientRead|1
1486518424.62733|||3
1486518424.62733|Client|ClientRead|2
1486518424.74756|Client|ClientRead|2
1486518424.74756|||3
1486518424.86808|||5
1486518424.97875|||4
1486518424.97875|Client|ClientRead|1
1486518425.10017|||5
1486518425.23749|||5
1486518425.37498|||5
1486518425.51198|||5
1486518425.64934|||5
1486518425.78667|||5
1486518425.92412|||5
1486518426.06143|||5
1486518426.19881|||5
1486518426.33613|||5
1486518426.47237|||5
1486518426.60995|||5
1486518426.74657|||5
1486518426.88182|||5
1486518427.01909|||5
1486518427.15647|||5
1486518427.29375|||5
1486518427.43124|||5
1486518427.5693|||5
1486518427.70661|||5
1486518427.84275|||5
1486518427.97795|Client|ClientRead|1
1486518427.97795|||5
1486518428.11485|||5
1486518428.25202|||5
1486518428.38935|||5
1486518428.52679|||5
1486518428.66132|||5
1486518428.79852|||5
1486518428.93569|||5
1486518429.07112|||6
1486518429.20835|||5
1486518429.34369|||5
1486518429.47894|||5
1486518429.61537|||5
1486518429.75262|||5
1486518429.89008|||5
1486518430.02731|||5
1486518430.16482|||5
1486518430.30357|||5
1486518430.44138|||5
1486518430.5689|||5
1486518430.70619|||5
1486518430.84349|||5
1486518430.98258|||5
1486518431.1189|||5
1486518431.25588|||5
1486518431.39306|||5
1486518431.52653|||5
1486518431.66336|||5
1486518431.79983|||5
1486518431.9371|||5
1486518432.0724|||5
1486518432.20986|||5
1486518432.34618|||5
1486518432.48361|||5
1486518432.62076|||5
1486518432.75731|Client|ClientRead|1
1486518432.75731|||5
1486518432.89553|||5
1486518433.03284|||5
1486518433.17023|||5
1486518433.30762|||5
1486518433.44503|||5
1486518433.58328|||5
1486518433.72057|||5
1486518433.85416|||6
1486518433.99141|||5
1486518434.12667|||5
1486518434.26414|||5
1486518434.4002|||5
1486518434.5243|||4
1486518434.5243|Client|ClientRead|1
1486518434.65496|||5
1486518434.79228|||5
1486518434.92956|||5
1486518435.06586|||6
1486518435.20179|||5
1486518435.33726|||5
1486518435.47288|||5
1486518435.61016|||5
1486518435.74886|||5
1486518435.88633|||5
1486518436.0227|||5
1486518436.15985|||5
1486518436.29524|||6
1486518436.43366|||5
1486518436.5702|||5
1486518436.70969|||5
1486518436.84716|||5
1486518436.98348|||5
1486518437.11977|||5
1486518437.25608|||5
1486518437.39356|||5
1486518437.52315|||5
1486518437.66049|||5
1486518437.79764|||5
1486518437.93201|||5
1486518438.06962|||5
1486518438.20606|||5
1486518438.34348|||5
1486518438.48086|||5
1486518438.61619|||6
1486518438.75076|||5
1486518438.888|||5
1486518439.02541|||5
1486518439.16275|||5
1486518439.29888|||5
1486518439.43407|||5
1486518439.57292|||5
1486518439.71029|||5
1486518439.84261|||6
1486518439.97717|||5
1486518440.11458|||5
1486518440.24997|||5
1486518440.38878|||5
1486518440.52633|||5
1486518440.66375|||5
1486518440.80091|||5
1486518440.93614|||5
1486518441.07047|||5
1486518441.20596|||5
1486518441.34337|||5
1486518441.48067|||5
1486518441.61796|||5
1486518441.75509|||5
1486518441.89247|||5
1486518442.02992|||5
1486518442.16724|||5
1486518442.30117|||5
1486518442.43855|||5
1486518442.56802|||5
1486518442.70513|||5
1486518442.82695|||5
1486518442.96424|||5
1486518443.10069|||5
1486518443.23809|||5
1486518443.37519|||5
1486518443.51233|||5
1486518443.64975|||5
1486518443.78725|||5
1486518443.92371|||5
1486518444.06011|||5
1486518444.19753|||5
1486518444.33478|||5
1486518444.47016|||5
1486518444.59809|||5
1486518444.72016|Client|ClientRead|1
1486518444.72016|||4
1486518444.84983|||5
1486518444.97556|Client|ClientRead|1
1486518444.97556|||4
1486518445.10426|||5
1486518445.24177|||5
1486518445.37881|||5
1486518445.51588|||5
1486518445.65139|||5
1486518445.78646|||5
1486518445.92243|||5
1486518446.05984|||5
1486518446.19733|||5
1486518446.33445|||5
1486518446.47165|||5
1486518446.60899|||5
1486518446.74593|||5
1486518446.88099|||5
1486518447.01918|||5
1486518447.15672|||5
1486518447.29136|||5
1486518447.4286|||5
1486518447.56401|||5
1486518447.7015|||5
1486518447.83777|||5
1486518447.97312|||5
1486518448.10904|||6
1486518448.24614|||5
1486518448.38348|||5
1486518448.52081|||5
1486518448.65869|||5
1486518448.79592|||5
1486518448.93319|||5
1486518449.07056|||5
1486518449.20796|||6
1486518449.3444|||5
1486518449.48198|||5
1486518449.61909|||5
1486518449.75617|||5
1486518449.89258|||5
1486518450.02669|||5
1486518450.16276|||5
1486518450.29812|||5
1486518450.43573|||5
1486518450.57358|||5
1486518450.71103|||5
1486518450.84914|||5
1486518450.98652|||5
1486518451.12325|||5
1486518451.26043|||5
1486518451.39584|||5
1486518451.53308|||5
1486518451.67005|||5
1486518451.80531|||5
1486518451.94242|||5
1486518452.07859|||5
1486518452.21022|||5
1486518452.32473|||4
1486518452.32473|Client|ClientRead|1
1486518452.44827|Client|ClientRead|1
1486518452.44827|||4
1486518452.57298|||4
1486518452.57298|Client|ClientRead|1
1486518452.69197|Client|ClientRead|1
1486518452.69197|||4
1486518452.81774|Client|ClientRead|1
1486518452.81774|||4
1486518452.94178|Client|ClientRead|1
1486518452.94178|||4
1486518453.06031|Client|ClientRead|1
1486518453.06031|||4
1486518453.19326|||5
1486518453.33067|||5
1486518453.46799|||5
1486518453.60525|||5
1486518453.74261|||5
1486518453.87815|||5
1486518454.01539|||5
1486518454.14949|Client|ClientRead|1
1486518454.14949|||4
1486518454.28605|||5
1486518454.42349|||5
1486518454.56087|||5
1486518454.69992|||5
1486518454.83741|||5
1486518454.97499|||5
1486518455.1123|||5
1486518455.2495|||5
1486518455.38808|||5
1486518455.52545|||5
1486518455.66291|||5
1486518455.80069|||5
1486518455.93795|||5
1486518456.07519|||5
1486518456.21249|||6
1486518456.33521|||4
1486518456.33521|Client|ClientRead|1
1486518456.44838|Client|ClientRead|2
1486518456.44838|||3
1486518456.57343|||4
1486518456.57343|Client|ClientRead|1
1486518456.69829|||4
1486518456.69829|Client|ClientRead|1
1486518456.82832|||5
1486518456.95003|||4
1486518456.95003|Client|ClientRead|1
1486518457.07982|Client|ClientRead|1
1486518457.07982|||4
1486518457.20682|Client|ClientRead|1
1486518457.20682|||4
1486518457.33171|||2
1486518457.33171|Client|ClientRead|3
1486518457.45436|Client|ClientRead|1
1486518457.45436|||4
1486518457.5751|||5
1486518457.7085|Client|ClientRead|1
1486518457.7085|||4
1486518457.82242|Client|ClientRead|2
1486518457.82242|||3
1486518457.94265|Client|ClientRead|2
1486518457.94265|||3
1486518458.06179|||4
1486518458.06179|Client|ClientRead|1
1486518458.18673|Client|ClientRead|2
1486518458.18673|||3
1486518458.30889|Client|ClientRead|1
1486518458.30889|||4
1486518458.43289|||4
1486518458.43289|Client|ClientRead|1
1486518458.55218|Client|ClientRead|1
1486518458.55218|||4
1486518458.67464|||4
1486518458.67464|Client|ClientRead|1
1486518458.79812|Client|ClientRead|1
1486518458.79812|||4
1486518458.92076|Client|ClientRead|1
1486518458.92076|||4
1486518459.04369|||5
1486518459.15637|||4
1486518459.15637|Client|ClientRead|1
1486518459.27435|||4
1486518459.27435|Client|ClientRead|1
1486518459.39705|||5
1486518459.53474|||5
1486518459.6694|Client|ClientRead|1
1486518459.6694|||5
1486518459.80603|||5
1486518459.93611|||5
1486518460.07357|||5
1486518460.211|||5
1486518460.34839|||5
1486518460.48582|||5
1486518460.62267|||5
1486518460.75182|||4
1486518460.75182|Client|ClientRead|1
1486518460.88138|||4
1486518460.88138|Client|ClientRead|1
1486518461.00658|Client|ClientRead|1
1486518461.00658|||4
1486518461.13509|Client|ClientRead|1
1486518461.13509|||4
1486518461.26775|||5
1486518461.39321|Client|ClientRead|1
1486518461.39321|||4
1486518461.53465|||5
1486518461.67213|||5
1486518461.8097|||5
1486518461.95015|||5
1486518461.95015|Client|ClientRead|1
1486518462.0807|Client|ClientRead|1
1486518462.0807|||4
1486518462.21006|||5
1486518462.34453|||5
1486518462.48201|||5
1486518462.61829|||5
1486518462.75555|||5
1486518462.89305|||5
1486518463.0302|||5
1486518463.16429|||5
1486518463.29798|Client|ClientRead|1
1486518463.29798|||4
1486518463.41966|Client|ClientRead|1
1486518463.41966|||4
1486518463.54437|Client|ClientRead|1
1486518463.54437|||4
1486518463.67301|||5
1486518463.81041|||5
1486518463.94794|||5
1486518464.08555|||5
1486518464.22312|||5
1486518464.36053|||5
1486518464.49781|||5
1486518464.63499|||5
1486518464.7739|||5
1486518464.90842|||5
1486518465.04565|||5
1486518465.17482|Client|ClientRead|1
1486518465.17482|||4
1486518465.30379|||5
1486518465.44023|||5
1486518465.57934|||5
1486518465.70923|||4
1486518465.70923|Client|ClientRead|1
1486518465.82907|Client|ClientRead|1
1486518465.82907|||4
1486518465.94987|||4
1486518465.94987|Client|ClientRead|1
1486518466.06977|||4
1486518466.06977|Client|ClientRead|1
1486518466.20216|||5
1486518466.3396|||5
1486518466.47686|||5
1486518466.6142|||5
1486518466.74913|||5
1486518466.88647|||5
1486518467.02357|||5
1486518467.16084|||5
1486518467.29716|||5
1486518467.43481|||5
1486518467.57196|||5
1486518467.70912|||5
1486518467.84444|||6
1486518467.96727|||5
1486518467.96727|Client|ClientRead|1
1486518468.09997|||5
1486518468.23748|||5
1486518468.37499|||5
1486518468.5128|||5
1486518468.65011|||5
1486518468.78753|||5
1486518468.9248|||5
1486518469.06194|||5
1486518469.19101|Client|ClientRead|1
1486518469.19101|||4
1486518469.32108|||4
1486518469.32108|Client|ClientRead|1
1486518469.45036|||5
1486518469.57875|||5
1486518469.7132|||5
1486518469.85035|||5
1486518469.98798|||5
1486518470.12418|||5
1486518470.26099|||6
1486518470.39684|||5
1486518470.53397|||5
1486518470.67142|||5
1486518470.80891|||5
1486518470.94605|||5
1486518471.08042|||5
1486518471.22018|||5
1486518471.35749|||5
1486518471.49046|||6
1486518471.62405|||5
1486518471.76138|||5
1486518471.89907|||5
1486518472.03653|||5
1486518472.17386|||5
1486518472.3101|||5
1486518472.44649|||5
1486518472.58382|||6
1486518472.71917|||6
1486518472.84841|||5
1486518472.98369|||5
1486518473.12244|||5
1486518473.25812|||5
1486518473.39578|||5
1486518473.53304|||5
1486518473.67067|||5
1486518473.80807|||6
1486518473.93964|||4
1486518473.93964|Client|ClientRead|1
1486518474.06092|Client|ClientRead|1
1486518474.06092|||4
1486518474.17514|||4
1486518474.17514|Client|ClientRead|1
1486518474.29313|Client|ClientRead|1
1486518474.29313|||4
1486518474.40863|Client|ClientRead|2
1486518474.40863|||3
1486518474.51709|Client|ClientRead|2
1486518474.51709|||3
1486518474.63909|Client|ClientRead|1
1486518474.63909|||4
1486518474.75268|Client|ClientRead|2
1486518474.75268|||3
1486518474.87585|||3
1486518474.87585|Client|ClientRead|2
1486518474.98487|Client|ClientRead|1
1486518474.98487|||4
1486518475.11672|||5
1486518475.25534|||5
1486518475.39268|||5
1486518475.52986|||5
1486518475.66877|||5
1486518475.801|||5
1486518475.94|||5
1486518476.07573|||6
1486518476.21462|||5
1486518476.35221|||5
1486518476.48941|||5
1486518476.62669|||5
1486518476.76112|||5
1486518476.89842|||5
1486518477.03397|||5
1486518477.17154|||5
1486518477.30791|||5
1486518477.44602|||5
1486518477.58233|||5
1486518477.71976|||5
1486518477.85687|||5
1486518477.99332|||5
1486518478.12992|||5
1486518478.26714|||5
1486518478.40443|||6
1486518478.54205|||6
1486518478.67932|||5
1486518478.81548|||5
1486518478.95282|||5
1486518479.09165|||5
1486518479.2288|||4
1486518479.2288|LWLock|buffer_mapping|1
1486518479.3642|||5
1486518479.50266|||5
1486518479.64001|||6
1486518479.7737|||5
1486518479.8861|Client|ClientRead|1
1486518479.8861|||4
1486518480.00039|Client|ClientRead|1
1486518480.00039|||4
1486518480.11828|||5
1486518480.24617|Client|ClientRead|1
1486518480.24617|||4
1486518480.37205|Client|ClientRead|2
1486518480.37205|||3
1486518480.49006|||4
1486518480.49006|Client|ClientRead|1
1486518480.6138|||4
1486518480.6138|Client|ClientRead|1
1486518480.73744|Client|ClientRead|2
1486518480.73744|||4
1486518480.85833|||5
1486518480.98039|Client|ClientRead|1
1486518480.98039|||4
1486518481.10205|||4
1486518481.10205|Client|ClientRead|1
1486518481.21845|||4
1486518481.21845|Client|ClientRead|1
1486518481.34624|||5
1486518481.48363|||5
1486518481.62108|||5
1486518481.75834|||5
1486518481.89549|LWLock|buffer_mapping|3
1486518481.89549|||2
1486518482.04334|||5
1486518482.18047|||5
1486518482.31573|||5
1486518482.45278|||5
1486518482.59188|||5
1486518482.72927|||5
1486518482.86673|||5
1486518483.00403|||5
1486518483.13492|||5
1486518483.13492|Client|ClientRead|1
1486518483.2653|||4
1486518483.2653|Client|ClientRead|1
1486518483.38994|Client|ClientRead|1
1486518483.38994|||4
1486518483.51027|Client|ClientRead|1
1486518483.51027|||4
1486518483.63038|||4
1486518483.63038|Client|ClientRead|1
1486518483.74812|||4
1486518483.74812|Client|ClientRead|1
1486518483.88161|||5
1486518484.02034|||5
1486518484.15788|||5
1486518484.29513|||5
1486518484.42613|||4
1486518484.42613|Client|ClientRead|1
1486518484.53969|||4
1486518484.53969|Client|ClientRead|1
1486518484.66392|Client|ClientRead|1
1486518484.66392|||4
1486518484.77933|||4
1486518484.77933|Client|ClientRead|1
1486518484.90074|||5
1486518485.02305|||4
1486518485.02305|Client|ClientRead|1
1486518485.14786|||5
1486518485.27059|||4
1486518485.27059|Client|ClientRead|1
1486518485.39403|Client|ClientRead|1
1486518485.39403|||4
1486518485.51729|||5
1486518485.64192|||5
1486518485.77738|||5
1486518485.91489|||5
1486518486.05223|||5
1486518486.18962|||5
1486518486.32698|||5
1486518486.46228|||5
1486518486.59656|Client|ClientRead|1
1486518486.59656|||5
1486518486.73177|||5
1486518486.86789|||5
1486518487.00535|||5
1486518487.14265|||5
1486518487.28012|||5
1486518487.41775|||5
1486518487.55494|||5
1486518487.69224|||5
1486518487.82963|||6
1486518487.96697|||5
1486518488.10317|||5
1486518488.24188|||5
1486518488.37722|||5
1486518488.51454|||5
1486518488.65081|||5
1486518488.78504|||5
1486518488.92092|||5
1486518489.05772|||5
1486518489.19486|||5
1486518489.332|||5
1486518489.46815|||5
1486518489.60561|||5
1486518489.74304|||5
1486518489.88043|||5
1486518490.01697|||5
1486518490.15565|||5
1486518490.29302|Client|ClientRead|1
1486518490.29302|||4
1486518490.41833|||5
1486518490.5556|||5
1486518490.69294|||5
1486518490.8291|||5
1486518490.96634|||5
1486518491.1038|||5
1486518491.23929|||5
1486518491.37396|||6
1486518491.5111|||5
1486518491.6473|||5
1486518491.78588|||5
1486518491.92338|||5
1486518492.06071|||5
1486518492.19807|||5
1486518492.3326|||5
1486518492.47039|||5
1486518492.60726|||6
1486518492.74631|||5
1486518492.88368|||5
1486518493.02079|||5
1486518493.15794|||5
1486518493.29435|||5
1486518493.43186|LWLock|buffer_mapping|1
1486518493.43186|||4
1486518493.56918|||5
1486518493.70431|||5
1486518493.84172|||5
1486518493.97891|||5
1486518494.11631|||5
1486518494.25299|||5
1486518494.3903|||5
1486518494.5276|||5
1486518494.66508|||5
1486518494.80238|||5
1486518494.9416|||6
1486518495.08046|||5
1486518495.2167|||5
1486518495.33658|||5
1486518495.4729|||5
1486518495.60572|||5
1486518495.74288|||5
1486518495.88011|||5
1486518496.01583|||5
1486518496.15437|||6
1486518496.29163|||5
1486518496.42806|||5
1486518496.56532|||5
1486518496.70264|||5
1486518496.84083|||5
1486518496.97816|||5
1486518497.11677|||5
1486518497.25386|||5
1486518497.38909|||5
1486518497.38909|Client|ClientRead|1
1486518497.52608|||5
1486518497.6635|||5
1486518497.80114|||5
1486518497.9383|||5
1486518498.07575|||5
1486518498.21093|||5
1486518498.34812|||5
1486518498.48353|||5
1486518498.61611|Client|ClientRead|1
1486518498.61611|||5
1486518498.74821|||5
1486518498.88377|||5
1486518499.02099|||5
1486518499.15965|||5
1486518499.29684|||5
1486518499.43216|||5
1486518499.56766|||5
1486518499.70273|||5
1486518499.83695|||5
1486518499.97456|||5
1486518500.10989|||5
1486518500.24724|||5
1486518500.38357|||5
1486518500.51999|||5
1486518500.65733|||5
1486518500.79275|||5
1486518500.92789|Client|ClientRead|1
1486518500.92789|||5
1486518501.06642|||5
1486518501.20258|||5
1486518501.33978|||5
1486518501.47681|||5
1486518501.61418|||5
1486518501.75041|||5
1486518501.88574|||5
1486518502.02429|||5
1486518502.16519|||5
1486518502.29414|||5
1486518502.43021|||5
1486518502.55492|||4
1486518502.55492|Client|ClientRead|1
1486518502.68257|||4
1486518502.68257|Client|ClientRead|1
1486518502.80566|||5
1486518502.93998|||5
1486518503.0764|||5
1486518503.2128|LWLock|buffer_mapping|1
1486518503.2128|||4
1486518503.35009|||5
1486518503.48446|||5
1486518503.62181|||5
1486518503.75892|||5
1486518503.8961|||5
1486518504.02791|||5
1486518504.16324|||5
1486518504.30045|||5
1486518504.43784|||6
1486518504.57139|Client|ClientRead|1
1486518504.57139|||5
1486518504.70839|||5
1486518504.84582|||5
1486518504.98477|||5
1486518505.12212|||5
1486518505.25933|||5
1486518505.38761|||4
1486518505.38761|Client|ClientRead|1
1486518505.51565|||4
1486518505.51565|Client|ClientRead|1
1486518505.64327|Client|ClientRead|1
1486518505.64327|||4
1486518505.77129|||5
1486518505.91014|||5
1486518506.04536|||5
1486518506.18284|||5
1486518506.31936|||5
1486518506.45716|||4
1486518506.45716|Client|ClientRead|1
1486518506.58112|||5
1486518506.71865|||5
1486518506.85744|Client|ClientRead|1
1486518506.85744|||4
1486518506.97788|||5
1486518507.11524|Client|ClientRead|1
1486518507.11524|||4
1486518507.24009|||5
1486518507.37636|||5
1486518507.51182|||5
1486518507.64813|||5
1486518507.78573|||5
1486518507.92283|||5
1486518508.05993|||6
1486518508.19719|||5
1486518508.33448|||5
1486518508.47203|||5
1486518508.60826|||5
1486518508.74457|||5
1486518508.88187|||5
1486518509.01814|||5
1486518509.1545|||6
1486518509.29074|||5
1486518509.4281|||5
1486518509.56535|||5
1486518509.70279|||5
1486518509.83819|||5
1486518509.97447|||5
1486518510.1117|||5
1486518510.24891|||5
1486518510.38608|||5
1486518510.52336|||5
1486518510.66053|||5
1486518510.79599|||5
1486518510.93325|||5
1486518511.06864|||5
1486518511.20403|||5
1486518511.34145|||5
1486518511.47763|Client|ClientRead|1
1486518511.47763|||5
1486518511.59161|Client|ClientRead|1
1486518511.59161|||4
1486518511.7138|||4
1486518511.7138|Client|ClientRead|1
1486518511.84228|||5
1486518511.95681|||3
1486518511.95681|Client|ClientRead|2
1486518512.07724|||3
1486518512.07724|Client|ClientRead|2
1486518512.20922|||4
1486518512.20922|Client|ClientRead|1
1486518512.32819|Client|ClientRead|1
1486518512.32819|||4
1486518512.44373|||5
1486518512.56635|Client|ClientRead|1
1486518512.56635|||4
1486518512.69227|||4
1486518512.69227|Client|ClientRead|1
1486518512.81108|Client|ClientRead|1
1486518512.81108|||4
1486518512.93912|||5
1486518513.07637|||5
1486518513.21397|||5
1486518513.35175|||5
1486518513.4891|||5
1486518513.62633|||5
1486518513.76146|||5
1486518513.89871|||5
1486518514.03745|||5
1486518514.17488|||5
1486518514.31234|||5
1486518514.45032|||5
1486518514.58656|||5
1486518514.72299|||5
1486518514.86132|||6
1486518514.9949|||5
1486518515.13117|||5
1486518515.26763|||5
1486518515.40491|||5
1486518515.54226|||5
1486518515.67962|||5
1486518515.81497|||5
1486518515.95231|||5
1486518516.08761|Client|ClientRead|1
1486518516.08761|||5
1486518516.22456|||5
1486518516.36187|||5
1486518516.49793|||5
1486518516.63518|||5
1486518516.77263|||5
1486518516.90984|||5
1486518517.04624|||5
1486518517.15754|||4
1486518517.15754|Client|ClientRead|1
1486518517.28236|||4
1486518517.28236|Client|ClientRead|1
1486518517.39418|||4
1486518517.39418|Client|ClientRead|1
1486518517.52262|Client|ClientRead|1
1486518517.52262|||4
1486518517.64465|||3
1486518517.64465|Client|ClientRead|2
1486518517.77172|||5
1486518517.90888|||5
1486518518.04622|||5
1486518518.18262|||5
1486518518.32025|||5
1486518518.45556|||5
1486518518.59265|||5
1486518518.73025|||5
1486518518.86758|||5
1486518519.00594|||5
1486518519.14326|||5
1486518519.27509|Client|ClientRead|1
1486518519.27509|||4
1486518519.40957|Client|ClientRead|1
1486518519.40957|||4
1486518519.54313|||5
1486518519.67612|Client|ClientRead|1
1486518519.67612|||4
1486518519.8004|Client|ClientRead|1
1486518519.8004|||4
1486518519.92155|||5
1486518520.04841|Client|ClientRead|1
1486518520.04841|||4
1486518520.17016|||4
1486518520.17016|Client|ClientRead|1
1486518520.29179|||4
1486518520.29179|Client|ClientRead|1
1486518520.42326|||4
1486518520.42326|Client|ClientRead|1
1486518520.54357|||4
1486518520.54357|Client|ClientRead|1
1486518520.67127|||4
1486518520.67127|Client|ClientRead|2
1486518520.78903|||5
1486518520.9144|Client|ClientRead|1
1486518520.9144|||4
1486518521.03427|||4
1486518521.03427|Client|ClientRead|1
1486518521.16438|||5
1486518521.29968|||5
1486518521.43724|||5
1486518521.57464|||5
1486518521.71382|||5
1486518521.8514|||5
1486518521.97413|Client|ClientRead|2
1486518521.97413|||3
1486518522.09894|||5
1486518522.23675|||5
1486518522.37207|||5
1486518522.50955|||5
1486518522.64686|||5
1486518522.78422|||5
1486518522.92358|||5
1486518523.05788|||5
1486518523.19286|||5
1486518523.33177|||5
1486518523.46812|||5
1486518523.60537|||5
1486518523.7428|||5
1486518523.87805|||5
1486518524.0144|||5
1486518524.15178|||6
1486518524.28763|||5
1486518524.41914|||5
1486518524.55679|||5
1486518524.69397|||5
1486518524.83107|||5
1486518524.96463|||5
1486518525.10209|||5
1486518525.23934|||5
1486518525.3768|||6
1486518525.51455|||5
1486518525.64985|||5
1486518525.78731|||5
1486518525.92375|||5
1486518526.06097|||5
1486518526.19842|||5
1486518526.33589|||5
1486518526.47319|||5
1486518526.60963|||6
1486518526.74292|||5
1486518526.88171|||5
1486518527.01903|||5
1486518527.14224|Client|ClientRead|2
1486518527.14224|||3
1486518527.25994|Client|ClientRead|1
1486518527.25994|||4
1486518527.38402|Client|ClientRead|1
1486518527.38402|||4
1486518527.51232|||4
1486518527.51232|Client|ClientRead|1
1486518527.6468|||5
1486518527.78115|||5
1486518527.91759|||5
1486518528.04921|Client|ClientRead|1
1486518528.04921|||4
1486518528.17896|||5
1486518528.3163|||5
1486518528.4536|||5
1486518528.59122|||5
1486518528.72863|||5
1486518528.86583|||5
1486518529.00217|||5
1486518529.00217|Client|ClientRead|1
1486518529.13847|||5
1486518529.27462|||5
1486518529.40997|||5
1486518529.54628|||5
1486518529.68158|||5
1486518529.81867|||5
1486518529.95605|||5
1486518530.0948|||5
1486518530.23042|||5
1486518530.36752|||5
1486518530.50629|||5
1486518530.6437|||5
1486518530.78097|||5
1486518530.9173|||5
1486518531.05391|||5
1486518531.19125|||5
1486518531.32647|||6
1486518531.46393|||5
1486518531.60232|||5
1486518531.73988|||5
1486518531.87316|||5
1486518532.00936|||5
1486518532.14672|||5
1486518532.28415|||5
1486518532.42138|||5
1486518532.55892|||6
1486518532.6964|||5
1486518532.83387|||5
1486518532.97017|||5
1486518533.10749|||5
1486518533.24482|||5
1486518533.38194|||5
1486518533.51952|||5
1486518533.65688|||5
1486518533.7905|||6
1486518533.92514|||5
1486518534.06068|||5
1486518534.19805|||5
1486518534.33552|||5
1486518534.47295|||5
1486518534.60999|||5
1486518534.74738|||5
1486518534.8826|||5
1486518535.02103|||5
1486518535.02103|Client|ClientRead|1
1486518535.15655|||5
1486518535.29417|||5
1486518535.43134|||5
1486518535.56878|||5
1486518535.70396|||5
1486518535.84142|||5
1486518535.97888|||5
1486518536.11607|||6
1486518536.24314|||5
1486518536.37867|||5
1486518536.51594|||5
1486518536.65335|||5
1486518536.79085|||5
1486518536.92822|||5
1486518537.06134|Client|ClientRead|1
1486518537.06134|||4
1486518537.18638|Client|ClientRead|1
1486518537.18638|||4
1486518537.30583|Client|ClientRead|1
1486518537.30583|||4
1486518537.42204|||5
1486518537.54256|||4
1486518537.54256|Client|ClientRead|1
1486518537.66691|||4
1486518537.66691|Client|ClientRead|1
1486518537.78842|Client|ClientRead|1
1486518537.78842|||4
1486518537.9161|||5
1486518538.03456|||4
1486518538.03456|Client|ClientRead|1
1486518538.15343|||4
1486518538.15343|Client|ClientRead|1
1486518538.27436|||3
1486518538.27436|Client|ClientRead|2
1486518538.40061|||5
1486518538.40061|Client|ClientRead|1
1486518538.5406|||5
1486518538.67778|||5
1486518538.81319|||5
1486518538.95039|||5
1486518539.08008|||5
1486518539.21655|||5
1486518539.35287|||5
1486518539.49027|Client|ClientRead|1
1486518539.49027|||5
1486518539.62825|||5
1486518539.75417|||5
1486518539.87614|Client|ClientRead|1
1486518539.87614|||4
1486518540.00522|||4
1486518540.00522|Client|ClientRead|1
1486518540.13428|||5
1486518540.27213|||5
1486518540.40949|||5
1486518540.54687|||5
1486518540.68407|||5
1486518540.82277|||5
1486518540.96039|||5
1486518541.09592|||5
1486518541.23319|||5
1486518541.36942|||5
1486518541.49871|||5
1486518541.63401|||5
1486518541.77034|||5
1486518541.90775|||5
1486518542.04286|||5
1486518542.18025|||5
1486518542.31767|||5
1486518542.45413|||5
1486518542.59146|||5
1486518542.71807|||5
1486518542.83757|Client|ClientRead|1
1486518542.83757|||4
1486518542.96039|||3
1486518542.96039|Client|ClientRead|2
1486518543.09083|||5
1486518543.09083|Client|ClientRead|1
1486518543.21739|||4
1486518543.21739|Client|ClientRead|1
1486518543.33198|Client|ClientRead|1
1486518543.33198|||4
1486518543.45212|||4
1486518543.45212|Client|ClientRead|1
1486518543.57015|||3
1486518543.57015|Client|ClientRead|2
1486518543.69424|Client|ClientRead|1
1486518543.69424|||4
1486518543.81173|Client|ClientRead|1
1486518543.81173|||4
1486518543.93215|||5
1486518544.06037|||5
1486518544.19759|||5
1486518544.33041|Client|ClientRead|1
1486518544.33041|||5
1486518544.45524|||3
1486518544.45524|Client|ClientRead|2
1486518544.5792|||4
1486518544.5792|Client|ClientRead|1
1486518544.70492|||4
1486518544.70492|Client|ClientRead|1
1486518544.8399|||5
1486518544.97733|||5
1486518545.11447|||5
1486518545.25201|||5
1486518545.38731|||5
1486518545.52236|||5
1486518545.6598|||5
1486518545.79614|||5
1486518545.93351|||5
1486518546.07106|||5
1486518546.2084|||5
1486518546.34585|||5
1486518546.48309|||5
1486518546.61857|||6
1486518546.75578|||5
1486518546.89295|||5
1486518547.03033|||5
1486518547.16773|||5
1486518547.30311|||5
1486518547.4405|||5
1486518547.57801|||5
1486518547.71585|||5
1486518547.85133|||6
1486518547.98871|||5
1486518548.11704|||5
1486518548.25465|||5
1486518548.39201|||5
1486518548.52956|||5
1486518548.66691|||5
1486518548.80443|||5
1486518548.94196|||5
1486518549.06422|||4
1486518549.06422|Client|ClientRead|1
1486518549.18848|Client|ClientRead|1
1486518549.18848|||4
1486518549.32384|||5
1486518549.46215|||5
1486518549.5995|||5
1486518549.73887|||5
1486518549.85986|||4
1486518549.85986|Client|ClientRead|1
1486518549.99129|||5
1486518550.1286|||5
1486518550.26365|||5
1486518550.40092|||5
1486518550.53831|||5
1486518550.67579|||5
1486518550.81314|Client|ClientRead|1
1486518550.81314|||4
1486518550.94115|Client|ClientRead|1
1486518550.94115|||4
1486518551.05582|||5
1486518551.16721|||4
1486518551.16721|Client|ClientRead|1
1486518551.294|||5
1486518551.42019|||4
1486518551.42019|Client|ClientRead|1
1486518551.55008|||4
1486518551.55008|Client|ClientRead|1
1486518551.67762|||4
1486518551.67762|Client|ClientRead|1
1486518551.80631|||5
1486518551.93572|||5
1486518552.06933|||5
1486518552.20768|||5
1486518552.34377|||5
1486518552.47977|||5
1486518552.61917|||5
1486518552.75311|||5
1486518552.89054|||5
1486518553.02789|||5
1486518553.1663|||5
1486518553.30354|||5
1486518553.43892|||5
1486518553.57534|||5
1486518553.71007|||5
1486518553.84417|||5
1486518553.98175|||5
1486518554.11913|||5
1486518554.25635|||5
1486518554.38176|Client|ClientRead|2
1486518554.38176|||3
1486518554.50622|Client|ClientRead|2
1486518554.50622|||3
1486518554.63377|||4
1486518554.63377|Client|ClientRead|1
1486518554.76485|Client|ClientRead|2
1486518554.76485|||3
1486518554.88138|Client|ClientRead|2
1486518554.88138|||4
1486518554.99147|||3
1486518554.99147|Client|ClientRead|2
1486518555.11027|||4
1486518555.11027|Client|ClientRead|1
1486518555.24197|||4
1486518555.24197|Client|ClientRead|1
1486518555.36161|Client|ClientRead|1
1486518555.36161|||4
1486518555.48625|Client|ClientRead|1
1486518555.48625|||4
1486518555.60848|Client|ClientRead|1
1486518555.60848|||4
1486518555.72901|Client|ClientRead|1
1486518555.72901|||4
1486518555.84867|||4
1486518555.84867|Client|ClientRead|1
1486518555.97611|||3
1486518555.97611|Client|ClientRead|3
1486518556.10097|||3
1486518556.10097|Client|ClientRead|2
1486518556.22675|||3
1486518556.22675|Client|ClientRead|2
1486518556.34213|Client|ClientRead|1
1486518556.34213|||4
1486518556.47356|Client|ClientRead|1
1486518556.47356|||4
1486518556.59309|||5
1486518556.71147|||3
1486518556.71147|Client|ClientRead|2
1486518556.82963|Client|ClientRead|1
1486518556.82963|||4
1486518556.95621|||5
1486518557.08503|||4
1486518557.08503|Client|ClientRead|1
1486518557.21692|Client|ClientRead|1
1486518557.21692|||4
1486518557.34897|Client|ClientRead|1
1486518557.34897|||4
1486518557.48245|Client|ClientRead|1
1486518557.48245|||4
1486518557.6226|||5
1486518557.74887|Client|ClientRead|1
1486518557.74887|||4
1486518557.87795|Client|ClientRead|1
1486518557.87795|||4
1486518557.99823|Client|ClientRead|1
1486518557.99823|||4
1486518558.11905|Client|ClientRead|1
1486518558.11905|||4
1486518558.25359|||5
1486518558.25359|Client|ClientRead|1
1486518558.37929|||4
1486518558.37929|Client|ClientRead|1
1486518558.5018|||4
1486518558.5018|Client|ClientRead|1
1486518558.61813|Client|ClientRead|1
1486518558.61813|||4
1486518558.75242|||5
1486518558.88875|||5
1486518559.02609|||5
1486518559.16354|||5
1486518559.30112|||5
1486518559.43827|||5
1486518559.57357|||5
1486518559.70992|||5
1486518559.84635|||5
1486518559.98396|||5
1486518560.12128|||5
1486518560.25853|||5
1486518560.39596|||5
1486518560.53345|||5
1486518560.66946|||5
1486518560.80568|||5
1486518560.94137|||5
1486518561.07863|||5
1486518561.21631|||5
1486518561.35571|||5
1486518561.493|||5
1486518561.6308|||5
1486518561.76308|||6
1486518561.89784|||5
1486518562.03387|||5
1486518562.16942|||5
1486518562.30684|||5
1486518562.44235|||5
1486518562.57014|||5
1486518562.70541|||5
1486518562.8427|||5
1486518562.98009|||5
1486518563.1175|||5
1486518563.24869|||5
1486518563.38589|||5
1486518563.52126|||5
1486518563.65695|||5
1486518563.79433|||5
1486518563.93152|||5
1486518564.06898|||5
1486518564.20421|||5
1486518564.34134|||5
1486518564.47758|||5
1486518564.61485|||5
1486518564.75127|Client|ClientRead|1
1486518564.75127|||4
1486518564.87034|Client|ClientRead|1
1486518564.87034|||4
1486518565.0113|||5
1486518565.14756|||5
1486518565.28384|||5
1486518565.4204|||6
1486518565.5574|||5
1486518565.69381|||5
1486518565.82921|||5
1486518565.9666|||5
1486518566.09808|Client|ClientRead|1
1486518566.09808|||4
1486518566.2285|Client|ClientRead|1
1486518566.2285|||4
1486518566.3521|Client|ClientRead|1
1486518566.3521|||4
1486518566.47686|||4
1486518566.47686|Client|ClientRead|1
1486518566.59202|Client|ClientRead|1
1486518566.59202|||5
1486518566.70782|||4
1486518566.70782|Client|ClientRead|1
1486518566.82728|Client|ClientRead|2
1486518566.82728|||3
1486518566.95227|||4
1486518566.95227|Client|ClientRead|1
1486518567.05987|||4
1486518567.05987|Client|ClientRead|1
1486518567.1783|||4
1486518567.1783|Client|ClientRead|1
1486518567.30072|Client|ClientRead|3
1486518567.30072|||2
1486518567.41954|||3
1486518567.41954|Client|ClientRead|2
1486518567.54018|||4
1486518567.54018|Client|ClientRead|1
1486518567.66645|||3
1486518567.66645|Client|ClientRead|3
1486518567.78333|||4
1486518567.78333|Client|ClientRead|1
1486518567.90611|Client|ClientRead|1
1486518567.90611|||4
1486518568.03567|||5
1486518568.17547|||5
1486518568.31195|||5
1486518568.44947|||5
1486518568.58481|||5
1486518568.71921|||5
1486518568.85646|||5
1486518568.99342|||5
1486518569.12978|||5
1486518569.26506|||5
1486518569.39744|||5
1486518569.5212|||4
1486518569.5212|Client|ClientRead|1
1486518569.6504|Client|ClientRead|1
1486518569.6504|||4
1486518569.76569|||4
1486518569.76569|Client|ClientRead|1
1486518569.89454|Client|ClientRead|1
1486518569.89454|||4
1486518570.0113|Client|ClientRead|1
1486518570.0113|||4
1486518570.13407|Client|ClientRead|2
1486518570.13407|||3
1486518570.26315|||4
1486518570.26315|Client|ClientRead|1
1486518570.3975|LWLock|buffer_mapping|1
1486518570.3975|||4
1486518570.5203|Client|ClientRead|1
1486518570.5203|||4
1486518570.64488|Client|ClientRead|2
1486518570.64488|||3
1486518570.76614|Client|ClientRead|1
1486518570.76614|||4
1486518570.87726|Client|ClientRead|1
1486518570.87726|||4
1486518570.99129|Client|ClientRead|2
1486518570.99129|||3
1486518571.11404|||5
1486518571.24069|||4
1486518571.24069|Client|ClientRead|1
1486518571.36137|||4
1486518571.36137|Client|ClientRead|1
1486518571.48624|||4
1486518571.48624|Client|ClientRead|1
1486518571.62126|||5
1486518571.75858|||5
1486518571.89506|||5
1486518572.03418|||5
1486518572.17188|||5
1486518572.3041|||5
1486518572.3041|Client|ClientRead|1
1486518572.42886|Client|ClientRead|1
1486518572.42886|||4
1486518572.55408|Client|ClientRead|1
1486518572.55408|||4
1486518572.68739|||5
1486518572.80826|Client|ClientRead|1
1486518572.80826|||4
1486518572.93352|Client|ClientRead|1
1486518572.93352|||4
1486518573.05529|||4
1486518573.05529|Client|ClientRead|1
1486518573.17239|Client|ClientRead|1
1486518573.17239|||4
1486518573.29316|||4
1486518573.29316|Client|ClientRead|1
1486518573.40748|Client|ClientRead|1
1486518573.40748|||4
1486518573.53316|Client|ClientRead|1
1486518573.53316|||4
1486518573.66309|Client|ClientRead|1
1486518573.66309|||4
1486518573.79166|||5
1486518573.92717|||5
1486518574.06475|||5
1486518574.20198|||5
1486518574.33746|||5
1486518574.47493|||5
1486518574.61125|||6
1486518574.74819|||5
1486518574.8826|||5
1486518575.02003|||5
1486518575.15725|||5
1486518575.29464|||5
1486518575.43214|||5
1486518575.56925|||5
1486518575.70649|||5
1486518575.84342|||5
1486518575.97976|||5
1486518576.11684|||5
1486518576.25585|||5
1486518576.39307|||5
1486518576.53016|||3
1486518576.53016|LWLock|buffer_mapping|2
1486518576.64986|||5
1486518576.78733|||5
1486518576.92441|||5
1486518577.0616|||5
1486518577.19884|||5
1486518577.33614|||5
1486518577.47235|||4
1486518577.47235|Client|ClientRead|1
1486518577.59744|||5
1486518577.7341|||5
1486518577.86333|Client|ClientRead|1
1486518577.86333|||4
1486518577.99172|||4
1486518577.99172|Client|ClientRead|1
1486518578.11808|||6
1486518578.25097|||4
1486518578.25097|Client|ClientRead|1
1486518578.38471|||5
1486518578.51263|Client|ClientRead|1
1486518578.51263|||4
1486518578.63732|Client|ClientRead|1
1486518578.63732|||4
1486518578.76104|||4
1486518578.76104|Client|ClientRead|1
1486518578.88916|Client|ClientRead|1
1486518578.88916|||4
1486518579.00876|||4
1486518579.00876|Client|ClientRead|1
1486518579.13653|Client|ClientRead|1
1486518579.13653|||4
1486518579.26104|||4
1486518579.26104|Client|ClientRead|1
1486518579.39319|||5
1486518579.51716|Client|ClientRead|1
1486518579.51716|||4
1486518579.64745|||5
1486518579.78497|||5
1486518579.92232|||5
1486518580.05958|||5
1486518580.1969|||5
1486518580.33436|||5
1486518580.45863|Client|ClientRead|1
1486518580.45863|||4
1486518580.5832|Client|ClientRead|1
1486518580.5832|||4
1486518580.70972|||5
1486518580.83999|Client|ClientRead|1
1486518580.83999|||4
1486518580.95686|||4
1486518580.95686|Client|ClientRead|1
1486518581.07433|||5
1486518581.18551|Client|ClientRead|1
1486518581.18551|||4
1486518581.30958|Client|ClientRead|1
1486518581.30958|||4
1486518581.43751|||5
1486518581.57472|||5
1486518581.70954|||5
1486518581.84562|||5
1486518581.96897|||5
1486518582.10631|||5
1486518582.24358|||5
1486518582.38254|||5
1486518582.51988|||5
1486518582.65816|||5
1486518582.79529|||5
1486518582.9325|||5
1486518583.06984|||5
1486518583.20431|||5
1486518583.34194|||5
1486518583.47957|||5
1486518583.617|||5
1486518583.75437|||5
1486518583.89193|||5
1486518584.02886|||6
1486518584.16042|||5
1486518584.28218|||4
1486518584.28218|Client|ClientRead|1
1486518584.40564|||4
1486518584.40564|Client|ClientRead|1
1486518584.52755|||4
1486518584.52755|Client|ClientRead|1
1486518584.6614|||5
1486518584.79874|||5
1486518584.93747|||5
1486518585.07483|||5
1486518585.21289|||5
1486518585.34898|||5
1486518585.48641|||5
1486518585.6234|||5
1486518585.75875|||5
1486518585.89512|||5
1486518586.03277|||5
1486518586.16997|||5
1486518586.30721|||5
1486518586.44452|||5
1486518586.5794|||5
1486518586.7167|||5
1486518586.85137|||5
1486518586.98878|||5
1486518587.12598|||5
1486518587.2633|||5
1486518587.40079|||5
1486518587.53803|||5
1486518587.67531|||5
1486518587.81253|||5
1486518587.94982|||5
1486518588.08522|||5
1486518588.22249|||5
1486518588.35981|||5
1486518588.49694|||5
1486518588.63435|||5
1486518588.77162|||5
1486518588.90678|||5
1486518589.04562|||5
1486518589.18314|||5
1486518589.32053|||5
1486518589.45802|||5
1486518589.59539|||5
1486518589.73294|||5
1486518589.87015|||5
1486518590.00746|||5
1486518590.14452|||5
1486518590.28239|||5
1486518590.41978|||5
1486518590.53967|||5
1486518590.67706|||5
1486518590.81158|||5
1486518590.94898|||5
1486518591.08633|||5
1486518591.22036|||5
1486518591.35754|||5
1486518591.48577|||4
1486518591.48577|Client|ClientRead|1
1486518591.61739|||5
1486518591.75505|||5
1486518591.89054|||5
1486518592.02793|||5
1486518592.16529|||5
1486518592.30295|||5
1486518592.43557|||5
1486518592.57257|||5
1486518592.7099|||5
1486518592.84533|||5
1486518592.98188|||5
1486518593.11926|||5
1486518593.25563|||5
1486518593.39301|||5
1486518593.5295|||6
1486518593.66613|||5
1486518593.80313|||5
1486518593.94057|||5
1486518594.07816|||5
1486518594.21569|||5
1486518594.35113|||5
1486518594.48842|||5
1486518594.623|||5
1486518594.76059|Client|ClientRead|1
1486518594.76059|||5
1486518594.89423|||5
1486518595.02981|||5
1486518595.16528|||5
1486518595.30274|||5
1486518595.43829|||5
1486518595.57575|||5
1486518595.71295|||5
1486518595.85028|||5
1486518595.98812|||6
1486518596.12366|||5
1486518596.26099|||5
1486518596.39837|||5
1486518596.53562|||5
1486518596.67302|||5
1486518596.81036|||5
1486518596.94701|||5
1486518597.0841|||5
1486518597.22015|||5
1486518597.35758|||5
1486518597.49495|Client|ClientRead|1
1486518597.49495|||4
1486518597.62391|||5
1486518597.76139|||5
1486518597.88192|Client|ClientRead|1
1486518597.88192|||4
1486518598.01113|||5
1486518598.14824|||5
1486518598.28579|||5
1486518598.4239|||5
1486518598.55809|||5
1486518598.69341|||5
1486518598.8309|||5
1486518598.96845|||5
1486518599.10586|||5
1486518599.24334|||5
1486518599.37959|||5
1486518599.51749|||5
1486518599.65492|||5
1486518599.7922|||5
1486518599.92956|||5
1486518600.06681|||5
1486518600.20319|||5
1486518600.34218|||5
1486518600.47961|||5
1486518600.61667|||5
1486518600.75417|||5
1486518600.89166|||5
1486518601.02662|||5
1486518601.16384|||5
1486518601.29905|||5
1486518601.43544|||5
1486518601.57265|||5
1486518601.71004|||5
1486518601.84738|||5
1486518601.98492|||5
1486518602.12239|||5
1486518602.25989|||5
1486518602.39711|||5
1486518602.53446|||5
1486518602.65764|||5
1486518602.79357|||5
1486518602.92806|||5
1486518603.06716|||6
1486518603.20458|||5
1486518603.34196|||5
1486518603.48043|||5
1486518603.61779|||5
1486518603.75199|||5
1486518603.89091|||5
1486518604.02826|||5
1486518604.16546|||5
1486518604.30332|||6
1486518604.44058|||5
1486518604.57681|||5
1486518604.714|||5
1486518604.85134|||5
1486518604.98674|||5
1486518605.12416|||5
1486518605.26162|||5
1486518605.39692|||5
1486518605.53419|||5
1486518605.67037|||5
1486518605.80771|||5
1486518605.94487|||5
1486518606.08229|||5
1486518606.21955|||5
1486518606.35688|||5
1486518606.49419|||5
1486518606.6314|||5
1486518606.76829|||5
1486518606.90554|||5
1486518607.04287|||5
1486518607.18033|||5
1486518607.31471|||5
1486518607.45178|||5
1486518607.58721|||5
1486518607.72455|||5
1486518607.86179|||5
1486518607.99664|||5
1486518608.1339|||5
1486518608.26318|||5
1486518608.40173|||5
1486518608.53827|||5
1486518608.67558|||5
1486518608.81408|||5
1486518608.94956|||5
1486518609.08666|Client|ClientRead|1
1486518609.08666|||5
1486518609.22333|||5
1486518609.3608|||5
1486518609.49792|||5
1486518609.63535|||4
1486518609.63535|LWLock|buffer_mapping|1
1486518609.77663|||4
1486518609.77663|Client|ClientRead|1
1486518609.90599|||5
1486518610.04323|||5
1486518610.1726|||5
1486518610.29874|||4
1486518610.29874|Client|ClientRead|1
1486518610.42031|||4
1486518610.42031|Client|ClientRead|1
1486518610.53035|||5
1486518610.65831|||5
1486518610.79584|||5
1486518610.9333|||5
1486518611.07059|||5
1486518611.20671|||5
1486518611.34276|Client|ClientRead|1
1486518611.34276|||5
1486518611.47784|||5
1486518611.61534|||5
1486518611.75405|||5
1486518611.88929|||5
1486518612.02785|||5
1486518612.16533|||5
1486518612.30272|||5
1486518612.43995|||5
1486518612.57549|||6
1486518612.71107|||5
1486518612.84852|||5
1486518612.98399|||5
1486518613.12131|||5
1486518613.25851|||5
1486518613.39566|||5
1486518613.53305|||5
1486518613.67072|||5
1486518613.80308|||5
1486518613.94052|||5
1486518614.08034|||5
1486518614.21682|||5
1486518614.34111|||5
1486518614.46012|||4
1486518614.46012|Client|ClientRead|1
1486518614.5813|||5
1486518614.70586|||5
1486518614.84106|||5
1486518614.97848|||5
1486518615.11374|||5
1486518615.25048|||5
1486518615.3865|Client|ClientRead|1
1486518615.3865|||4
1486518615.50501|Client|ClientRead|1
1486518615.50501|||4
1486518615.63142|||4
1486518615.63142|Client|ClientRead|1
1486518615.75587|||4
1486518615.75587|Client|ClientRead|1
1486518615.87521|Client|ClientRead|1
1486518615.87521|||4
1486518615.99391|Client|ClientRead|1
1486518615.99391|||4
1486518616.11257|||3
1486518616.11257|Client|ClientRead|2
1486518616.23109|Client|ClientRead|1
1486518616.23109|||4
1486518616.36225|Client|ClientRead|1
1486518616.36225|||4
1486518616.49113|||4
1486518616.49113|Client|ClientRead|1
1486518616.62007|||4
1486518616.62007|Client|ClientRead|1
1486518616.74262|||5
1486518616.86577|||4
1486518616.86577|Client|ClientRead|1
1486518616.98607|Client|ClientRead|1
1486518616.98607|||4
1486518617.10469|||3
1486518617.10469|Client|ClientRead|2
1486518617.21396|Client|ClientRead|2
1486518617.21396|||4
1486518617.34176|||5
1486518617.47915|||5
1486518617.61674|||5
1486518617.75389|||5
1486518617.88956|||5
1486518618.02698|||5
1486518618.16429|||5
1486518618.29916|||5
1486518618.42128|||5
1486518618.54533|||5
1486518618.68365|||5
1486518618.82103|||5
1486518618.95839|||5
1486518619.09575|||5
1486518619.233|||5
1486518619.37056|||5
1486518619.49914|Client|ClientRead|1
1486518619.49914|||4
1486518619.60617|Client|ClientRead|1
1486518619.60617|||4
1486518619.72869|Client|ClientRead|1
1486518619.72869|||4
1486518619.85084|||5
1486518619.98879|||5
1486518620.12596|||5
1486518620.26319|||5
1486518620.40064|||5
1486518620.53792|||5
1486518620.67176|||6
1486518620.80839|||5
1486518620.94584|||5
1486518621.08464|||5
1486518621.22189|||5
1486518621.35999|||5
1486518621.49759|||5
1486518621.63491|||5
1486518621.77056|||5
1486518621.90574|||6
1486518622.04086|||5
1486518622.17832|||5
1486518622.31293|||5
1486518622.44809|||5
1486518622.58517|||5
1486518622.72596|||5
1486518622.86343|||5
1486518622.99964|||6
1486518623.13538|||5
1486518623.27166|||5
1486518623.40926|||5
1486518623.54672|||5
1486518623.6841|||5
1486518623.82137|||5
1486518623.95799|||5
1486518624.07776|||5
1486518624.2158|Client|ClientRead|2
1486518624.2158|||4
1486518624.34347|||5
1486518624.48068|||5
1486518624.61596|||5
1486518624.75235|||5
1486518624.88962|||5
1486518625.02707|||5
1486518625.16453|||5
1486518625.30186|||5
1486518625.43625|Client|ClientRead|1
1486518625.43625|||4
1486518625.55357|Client|ClientRead|1
1486518625.55357|||4
1486518625.67674|||4
1486518625.67674|Client|ClientRead|1
1486518625.80745|||5
1486518625.94492|||5
1486518626.08222|||5
1486518626.21855|||5
1486518626.35592|||5
1486518626.49322|||6
1486518626.62841|||5
1486518626.76257|||5
1486518626.89699|||5
1486518627.03453|||5
1486518627.17204|||5
1486518627.30936|||5
1486518627.44702|||5
1486518627.58286|||5
1486518627.71805|Client|ClientRead|1
1486518627.71805|||5
1486518627.85111|||5
1486518627.98091|||4
1486518627.98091|Client|ClientRead|1
1486518628.11563|||5
1486518628.25207|||5
1486518628.38922|||5
1486518628.5237|||5
1486518628.65927|||5
1486518628.79652|||5
1486518628.93056|||6
1486518629.06806|||5
1486518629.20443|||5
1486518629.34172|||5
1486518629.4807|||5
1486518629.61834|||5
1486518629.75572|||5
1486518629.8911|||5
1486518630.02762|||5
1486518630.15789|||6
1486518630.28616|Client|ClientRead|1
1486518630.28616|||4
1486518630.41696|Client|ClientRead|1
1486518630.41696|||4
1486518630.53853|Client|ClientRead|1
1486518630.53853|||4
1486518630.66731|Client|ClientRead|2
1486518630.66731|||3
1486518630.78389|||4
1486518630.78389|Client|ClientRead|1
1486518630.91911|||5
1486518631.05665|||5
1486518631.19397|||5
