 2017-02-09 10:40:03.659055+01 | 1486633203.65905 | pgbench_branches_pkey |           630784
 2017-02-09 10:40:03.659055+01 | 1486633203.65905 | pgbench_tellers_pkey  |          2129920
 2017-02-09 10:40:03.659055+01 | 1486633203.65905 | pgbench_accounts_pkey |        673882112

 2017-02-09 10:40:04.723097+01 | 1486633204.7231 | pgbench_branches_pkey |           630784
 2017-02-09 10:40:04.723097+01 | 1486633204.7231 | pgbench_tellers_pkey  |          2129920
 2017-02-09 10:40:04.723097+01 | 1486633204.7231 | pgbench_accounts_pkey |        673882112

 2017-02-09 10:40:05.782789+01 | 1486633205.78279 | pgbench_branches_pkey |           630784
 2017-02-09 10:40:05.782789+01 | 1486633205.78279 | pgbench_tellers_pkey  |          2129920
 2017-02-09 10:40:05.782789+01 | 1486633205.78279 | pgbench_accounts_pkey |        673882112

 2017-02-09 10:40:06.851626+01 | 1486633206.85163 | pgbench_branches_pkey |           630784
 2017-02-09 10:40:06.851626+01 | 1486633206.85163 | pgbench_tellers_pkey  |          2129920
 2017-02-09 10:40:06.851626+01 | 1486633206.85163 | pgbench_accounts_pkey |        673882112

 2017-02-09 10:40:07.912248+01 | 1486633207.91225 | pgbench_branches_pkey |           630784
 2017-02-09 10:40:07.912248+01 | 1486633207.91225 | pgbench_tellers_pkey  |          2129920
 2017-02-09 10:40:07.912248+01 | 1486633207.91225 | pgbench_accounts_pkey |        673882112

 2017-02-09 10:40:08.984088+01 | 1486633208.98409 | pgbench_branches_pkey |           630784
 2017-02-09 10:40:08.984088+01 | 1486633208.98409 | pgbench_tellers_pkey  |          2129920
 2017-02-09 10:40:08.984088+01 | 1486633208.98409 | pgbench_accounts_pkey |        673882112

 2017-02-09 10:40:10.047815+01 | 1486633210.04782 | pgbench_branches_pkey |           630784
 2017-02-09 10:40:10.047815+01 | 1486633210.04782 | pgbench_tellers_pkey  |          2129920
 2017-02-09 10:40:10.047815+01 | 1486633210.04782 | pgbench_accounts_pkey |        673882112

 2017-02-09 10:40:11.116351+01 | 1486633211.11635 | pgbench_branches_pkey |           630784
 2017-02-09 10:40:11.116351+01 | 1486633211.11635 | pgbench_tellers_pkey  |          2129920
 2017-02-09 10:40:11.116351+01 | 1486633211.11635 | pgbench_accounts_pkey |        673882112

 2017-02-09 10:40:12.181962+01 | 1486633212.18196 | pgbench_branches_pkey |           630784
 2017-02-09 10:40:12.181962+01 | 1486633212.18196 | pgbench_tellers_pkey  |          2129920
 2017-02-09 10:40:12.181962+01 | 1486633212.18196 | pgbench_accounts_pkey |        673882112

 2017-02-09 10:40:13.239536+01 | 1486633213.23954 | pgbench_branches_pkey |           630784
 2017-02-09 10:40:13.239536+01 | 1486633213.23954 | pgbench_tellers_pkey  |          2129920
 2017-02-09 10:40:13.239536+01 | 1486633213.23954 | pgbench_accounts_pkey |        673882112

 2017-02-09 10:40:14.308726+01 | 1486633214.30873 | pgbench_branches_pkey |           630784
 2017-02-09 10:40:14.308726+01 | 1486633214.30873 | pgbench_tellers_pkey  |          2129920
 2017-02-09 10:40:14.308726+01 | 1486633214.30873 | pgbench_accounts_pkey |        673882112

 2017-02-09 10:40:15.374612+01 | 1486633215.37461 | pgbench_branches_pkey |           630784
 2017-02-09 10:40:15.374612+01 | 1486633215.37461 | pgbench_tellers_pkey  |          2129920
 2017-02-09 10:40:15.374612+01 | 1486633215.37461 | pgbench_accounts_pkey |        673882112

 2017-02-09 10:40:16.434355+01 | 1486633216.43436 | pgbench_branches_pkey |           630784
 2017-02-09 10:40:16.434355+01 | 1486633216.43436 | pgbench_tellers_pkey  |          2129920
 2017-02-09 10:40:16.434355+01 | 1486633216.43436 | pgbench_accounts_pkey |        673882112

 2017-02-09 10:40:17.504586+01 | 1486633217.50459 | pgbench_branches_pkey |           630784
 2017-02-09 10:40:17.504586+01 | 1486633217.50459 | pgbench_tellers_pkey  |          2129920
 2017-02-09 10:40:17.504586+01 | 1486633217.50459 | pgbench_accounts_pkey |        673882112

 2017-02-09 10:40:18.568379+01 | 1486633218.56838 | pgbench_branches_pkey |           630784
 2017-02-09 10:40:18.568379+01 | 1486633218.56838 | pgbench_tellers_pkey  |          2129920
 2017-02-09 10:40:18.568379+01 | 1486633218.56838 | pgbench_accounts_pkey |        673882112

 2017-02-09 10:40:19.636968+01 | 1486633219.63697 | pgbench_branches_pkey |           630784
 2017-02-09 10:40:19.636968+01 | 1486633219.63697 | pgbench_tellers_pkey  |          2129920
 2017-02-09 10:40:19.636968+01 | 1486633219.63697 | pgbench_accounts_pkey |        673882112

 2017-02-09 10:40:20.697007+01 | 1486633220.69701 | pgbench_branches_pkey |           630784
 2017-02-09 10:40:20.697007+01 | 1486633220.69701 | pgbench_tellers_pkey  |          2129920
 2017-02-09 10:40:20.697007+01 | 1486633220.69701 | pgbench_accounts_pkey |        673882112

 2017-02-09 10:40:21.767724+01 | 1486633221.76772 | pgbench_branches_pkey |           630784
 2017-02-09 10:40:21.767724+01 | 1486633221.76772 | pgbench_tellers_pkey  |          2129920
 2017-02-09 10:40:21.767724+01 | 1486633221.76772 | pgbench_accounts_pkey |        673882112

 2017-02-09 10:40:22.835051+01 | 1486633222.83505 | pgbench_branches_pkey |           630784
 2017-02-09 10:40:22.835051+01 | 1486633222.83505 | pgbench_tellers_pkey  |          2129920
 2017-02-09 10:40:22.835051+01 | 1486633222.83505 | pgbench_accounts_pkey |        673882112

 2017-02-09 10:40:23.892899+01 | 1486633223.8929 | pgbench_branches_pkey |           630784
 2017-02-09 10:40:23.892899+01 | 1486633223.8929 | pgbench_tellers_pkey  |          2129920
 2017-02-09 10:40:23.892899+01 | 1486633223.8929 | pgbench_accounts_pkey |        673882112

 2017-02-09 10:40:24.973252+01 | 1486633224.97325 | pgbench_branches_pkey |           630784
 2017-02-09 10:40:24.973252+01 | 1486633224.97325 | pgbench_tellers_pkey  |          2129920
 2017-02-09 10:40:24.973252+01 | 1486633224.97325 | pgbench_accounts_pkey |        673882112

 2017-02-09 10:40:26.040577+01 | 1486633226.04058 | pgbench_branches_pkey |           630784
 2017-02-09 10:40:26.040577+01 | 1486633226.04058 | pgbench_tellers_pkey  |          2129920
 2017-02-09 10:40:26.040577+01 | 1486633226.04058 | pgbench_accounts_pkey |        673882112

 2017-02-09 10:40:27.108256+01 | 1486633227.10826 | pgbench_branches_pkey |           630784
 2017-02-09 10:40:27.108256+01 | 1486633227.10826 | pgbench_tellers_pkey  |          2129920
 2017-02-09 10:40:27.108256+01 | 1486633227.10826 | pgbench_accounts_pkey |        673882112

 2017-02-09 10:40:28.170884+01 | 1486633228.17088 | pgbench_branches_pkey |           630784
 2017-02-09 10:40:28.170884+01 | 1486633228.17088 | pgbench_tellers_pkey  |          2129920
 2017-02-09 10:40:28.170884+01 | 1486633228.17088 | pgbench_accounts_pkey |        673882112

 2017-02-09 10:40:29.230745+01 | 1486633229.23075 | pgbench_branches_pkey |           630784
 2017-02-09 10:40:29.230745+01 | 1486633229.23075 | pgbench_tellers_pkey  |          2129920
 2017-02-09 10:40:29.230745+01 | 1486633229.23075 | pgbench_accounts_pkey |        673882112

 2017-02-09 10:40:30.299539+01 | 1486633230.29954 | pgbench_branches_pkey |           630784
 2017-02-09 10:40:30.299539+01 | 1486633230.29954 | pgbench_tellers_pkey  |          2129920
 2017-02-09 10:40:30.299539+01 | 1486633230.29954 | pgbench_accounts_pkey |        673882112

 2017-02-09 10:40:31.360746+01 | 1486633231.36075 | pgbench_branches_pkey |           630784
 2017-02-09 10:40:31.360746+01 | 1486633231.36075 | pgbench_tellers_pkey  |          2129920
 2017-02-09 10:40:31.360746+01 | 1486633231.36075 | pgbench_accounts_pkey |        673882112

 2017-02-09 10:40:32.421+01 | 1486633232.421 | pgbench_branches_pkey |           630784
 2017-02-09 10:40:32.421+01 | 1486633232.421 | pgbench_tellers_pkey  |          2129920
 2017-02-09 10:40:32.421+01 | 1486633232.421 | pgbench_accounts_pkey |        673882112

 2017-02-09 10:40:33.484722+01 | 1486633233.48472 | pgbench_branches_pkey |           630784
 2017-02-09 10:40:33.484722+01 | 1486633233.48472 | pgbench_tellers_pkey  |          2129920
 2017-02-09 10:40:33.484722+01 | 1486633233.48472 | pgbench_accounts_pkey |        673882112

 2017-02-09 10:40:34.553427+01 | 1486633234.55343 | pgbench_branches_pkey |           630784
 2017-02-09 10:40:34.553427+01 | 1486633234.55343 | pgbench_tellers_pkey  |          2129920
 2017-02-09 10:40:34.553427+01 | 1486633234.55343 | pgbench_accounts_pkey |        673882112

 2017-02-09 10:40:35.61695+01 | 1486633235.61695 | pgbench_branches_pkey |           630784
 2017-02-09 10:40:35.61695+01 | 1486633235.61695 | pgbench_tellers_pkey  |          2129920
 2017-02-09 10:40:35.61695+01 | 1486633235.61695 | pgbench_accounts_pkey |        673882112

 2017-02-09 10:40:36.68005+01 | 1486633236.68005 | pgbench_branches_pkey |           630784
 2017-02-09 10:40:36.68005+01 | 1486633236.68005 | pgbench_tellers_pkey  |          2129920
 2017-02-09 10:40:36.68005+01 | 1486633236.68005 | pgbench_accounts_pkey |        673882112

 2017-02-09 10:40:37.731507+01 | 1486633237.73151 | pgbench_branches_pkey |           630784
 2017-02-09 10:40:37.731507+01 | 1486633237.73151 | pgbench_tellers_pkey  |          2129920
 2017-02-09 10:40:37.731507+01 | 1486633237.73151 | pgbench_accounts_pkey |        673882112

 2017-02-09 10:40:38.798671+01 | 1486633238.79867 | pgbench_branches_pkey |           630784
 2017-02-09 10:40:38.798671+01 | 1486633238.79867 | pgbench_tellers_pkey  |          2129920
 2017-02-09 10:40:38.798671+01 | 1486633238.79867 | pgbench_accounts_pkey |        673882112

 2017-02-09 10:40:39.860982+01 | 1486633239.86098 | pgbench_branches_pkey |           630784
 2017-02-09 10:40:39.860982+01 | 1486633239.86098 | pgbench_tellers_pkey  |          2129920
 2017-02-09 10:40:39.860982+01 | 1486633239.86098 | pgbench_accounts_pkey |        673882112

 2017-02-09 10:40:40.934284+01 | 1486633240.93428 | pgbench_branches_pkey |           630784
 2017-02-09 10:40:40.934284+01 | 1486633240.93428 | pgbench_tellers_pkey  |          2129920
 2017-02-09 10:40:40.934284+01 | 1486633240.93428 | pgbench_accounts_pkey |        673882112

 2017-02-09 10:40:42.00175+01 | 1486633242.00175 | pgbench_branches_pkey |           630784
 2017-02-09 10:40:42.00175+01 | 1486633242.00175 | pgbench_tellers_pkey  |          2129920
 2017-02-09 10:40:42.00175+01 | 1486633242.00175 | pgbench_accounts_pkey |        673882112

 2017-02-09 10:40:43.069535+01 | 1486633243.06954 | pgbench_branches_pkey |           630784
 2017-02-09 10:40:43.069535+01 | 1486633243.06954 | pgbench_tellers_pkey  |          2129920
 2017-02-09 10:40:43.069535+01 | 1486633243.06954 | pgbench_accounts_pkey |        673882112

 2017-02-09 10:40:44.13668+01 | 1486633244.13668 | pgbench_branches_pkey |           630784
 2017-02-09 10:40:44.13668+01 | 1486633244.13668 | pgbench_tellers_pkey  |          2129920
 2017-02-09 10:40:44.13668+01 | 1486633244.13668 | pgbench_accounts_pkey |        673882112

 2017-02-09 10:40:45.199424+01 | 1486633245.19942 | pgbench_branches_pkey |           630784
 2017-02-09 10:40:45.199424+01 | 1486633245.19942 | pgbench_tellers_pkey  |          2129920
 2017-02-09 10:40:45.199424+01 | 1486633245.19942 | pgbench_accounts_pkey |        673882112

 2017-02-09 10:40:46.268048+01 | 1486633246.26805 | pgbench_branches_pkey |           630784
 2017-02-09 10:40:46.268048+01 | 1486633246.26805 | pgbench_tellers_pkey  |          2129920
 2017-02-09 10:40:46.268048+01 | 1486633246.26805 | pgbench_accounts_pkey |        673882112

 2017-02-09 10:40:47.336312+01 | 1486633247.33631 | pgbench_branches_pkey |           630784
 2017-02-09 10:40:47.336312+01 | 1486633247.33631 | pgbench_tellers_pkey  |          2129920
 2017-02-09 10:40:47.336312+01 | 1486633247.33631 | pgbench_accounts_pkey |        673882112

 2017-02-09 10:40:48.398434+01 | 1486633248.39843 | pgbench_branches_pkey |           630784
 2017-02-09 10:40:48.398434+01 | 1486633248.39843 | pgbench_tellers_pkey  |          2129920
 2017-02-09 10:40:48.398434+01 | 1486633248.39843 | pgbench_accounts_pkey |        673882112

 2017-02-09 10:40:49.469824+01 | 1486633249.46982 | pgbench_branches_pkey |           630784
 2017-02-09 10:40:49.469824+01 | 1486633249.46982 | pgbench_tellers_pkey  |          2129920
 2017-02-09 10:40:49.469824+01 | 1486633249.46982 | pgbench_accounts_pkey |        673882112

 2017-02-09 10:40:50.539448+01 | 1486633250.53945 | pgbench_branches_pkey |           630784
 2017-02-09 10:40:50.539448+01 | 1486633250.53945 | pgbench_tellers_pkey  |          2129920
 2017-02-09 10:40:50.539448+01 | 1486633250.53945 | pgbench_accounts_pkey |        673882112

 2017-02-09 10:40:51.612228+01 | 1486633251.61223 | pgbench_branches_pkey |           630784
 2017-02-09 10:40:51.612228+01 | 1486633251.61223 | pgbench_tellers_pkey  |          2129920
 2017-02-09 10:40:51.612228+01 | 1486633251.61223 | pgbench_accounts_pkey |        673882112

 2017-02-09 10:40:52.67899+01 | 1486633252.67899 | pgbench_branches_pkey |           630784
 2017-02-09 10:40:52.67899+01 | 1486633252.67899 | pgbench_tellers_pkey  |          2129920
 2017-02-09 10:40:52.67899+01 | 1486633252.67899 | pgbench_accounts_pkey |        673882112

 2017-02-09 10:40:53.748862+01 | 1486633253.74886 | pgbench_branches_pkey |           630784
 2017-02-09 10:40:53.748862+01 | 1486633253.74886 | pgbench_tellers_pkey  |          2129920
 2017-02-09 10:40:53.748862+01 | 1486633253.74886 | pgbench_accounts_pkey |        673882112

 2017-02-09 10:40:54.823262+01 | 1486633254.82326 | pgbench_branches_pkey |           630784
 2017-02-09 10:40:54.823262+01 | 1486633254.82326 | pgbench_tellers_pkey  |          2129920
 2017-02-09 10:40:54.823262+01 | 1486633254.82326 | pgbench_accounts_pkey |        673882112

 2017-02-09 10:40:55.884348+01 | 1486633255.88435 | pgbench_branches_pkey |           630784
 2017-02-09 10:40:55.884348+01 | 1486633255.88435 | pgbench_tellers_pkey  |          2129920
 2017-02-09 10:40:55.884348+01 | 1486633255.88435 | pgbench_accounts_pkey |        673882112

 2017-02-09 10:40:56.957412+01 | 1486633256.95741 | pgbench_branches_pkey |           630784
 2017-02-09 10:40:56.957412+01 | 1486633256.95741 | pgbench_tellers_pkey  |          2129920
 2017-02-09 10:40:56.957412+01 | 1486633256.95741 | pgbench_accounts_pkey |        673882112

 2017-02-09 10:40:58.020059+01 | 1486633258.02006 | pgbench_branches_pkey |           630784
 2017-02-09 10:40:58.020059+01 | 1486633258.02006 | pgbench_tellers_pkey  |          2129920
 2017-02-09 10:40:58.020059+01 | 1486633258.02006 | pgbench_accounts_pkey |        673882112

 2017-02-09 10:40:59.076948+01 | 1486633259.07695 | pgbench_branches_pkey |           630784
 2017-02-09 10:40:59.076948+01 | 1486633259.07695 | pgbench_tellers_pkey  |          2129920
 2017-02-09 10:40:59.076948+01 | 1486633259.07695 | pgbench_accounts_pkey |        673882112

 2017-02-09 10:41:00.138865+01 | 1486633260.13886 | pgbench_branches_pkey |           630784
 2017-02-09 10:41:00.138865+01 | 1486633260.13886 | pgbench_tellers_pkey  |          2129920
 2017-02-09 10:41:00.138865+01 | 1486633260.13886 | pgbench_accounts_pkey |        673882112

 2017-02-09 10:41:01.204306+01 | 1486633261.20431 | pgbench_branches_pkey |           630784
 2017-02-09 10:41:01.204306+01 | 1486633261.20431 | pgbench_tellers_pkey  |          2129920
 2017-02-09 10:41:01.204306+01 | 1486633261.20431 | pgbench_accounts_pkey |        673882112

 2017-02-09 10:41:02.274326+01 | 1486633262.27433 | pgbench_branches_pkey |           630784
 2017-02-09 10:41:02.274326+01 | 1486633262.27433 | pgbench_tellers_pkey  |          2129920
 2017-02-09 10:41:02.274326+01 | 1486633262.27433 | pgbench_accounts_pkey |        673882112

 2017-02-09 10:41:03.331355+01 | 1486633263.33136 | pgbench_branches_pkey |           630784
 2017-02-09 10:41:03.331355+01 | 1486633263.33136 | pgbench_tellers_pkey  |          2129920
 2017-02-09 10:41:03.331355+01 | 1486633263.33136 | pgbench_accounts_pkey |        673882112

 2017-02-09 10:41:04.397591+01 | 1486633264.39759 | pgbench_branches_pkey |           630784
 2017-02-09 10:41:04.397591+01 | 1486633264.39759 | pgbench_tellers_pkey  |          2129920
 2017-02-09 10:41:04.397591+01 | 1486633264.39759 | pgbench_accounts_pkey |        673882112

 2017-02-09 10:41:05.457118+01 | 1486633265.45712 | pgbench_branches_pkey |           630784
 2017-02-09 10:41:05.457118+01 | 1486633265.45712 | pgbench_tellers_pkey  |          2129920
 2017-02-09 10:41:05.457118+01 | 1486633265.45712 | pgbench_accounts_pkey |        673882112

 2017-02-09 10:41:06.516854+01 | 1486633266.51685 | pgbench_branches_pkey |           630784
 2017-02-09 10:41:06.516854+01 | 1486633266.51685 | pgbench_tellers_pkey  |          2129920
 2017-02-09 10:41:06.516854+01 | 1486633266.51685 | pgbench_accounts_pkey |        673882112

 2017-02-09 10:41:07.579528+01 | 1486633267.57953 | pgbench_branches_pkey |           630784
 2017-02-09 10:41:07.579528+01 | 1486633267.57953 | pgbench_tellers_pkey  |          2129920
 2017-02-09 10:41:07.579528+01 | 1486633267.57953 | pgbench_accounts_pkey |        673882112

 2017-02-09 10:41:08.643544+01 | 1486633268.64354 | pgbench_branches_pkey |           630784
 2017-02-09 10:41:08.643544+01 | 1486633268.64354 | pgbench_tellers_pkey  |          2129920
 2017-02-09 10:41:08.643544+01 | 1486633268.64354 | pgbench_accounts_pkey |        673882112

 2017-02-09 10:41:09.702009+01 | 1486633269.70201 | pgbench_branches_pkey |           630784
 2017-02-09 10:41:09.702009+01 | 1486633269.70201 | pgbench_tellers_pkey  |          2129920
 2017-02-09 10:41:09.702009+01 | 1486633269.70201 | pgbench_accounts_pkey |        673882112

 2017-02-09 10:41:10.761849+01 | 1486633270.76185 | pgbench_branches_pkey |           630784
 2017-02-09 10:41:10.761849+01 | 1486633270.76185 | pgbench_tellers_pkey  |          2129920
 2017-02-09 10:41:10.761849+01 | 1486633270.76185 | pgbench_accounts_pkey |        673882112

 2017-02-09 10:41:11.838962+01 | 1486633271.83896 | pgbench_branches_pkey |           630784
 2017-02-09 10:41:11.838962+01 | 1486633271.83896 | pgbench_tellers_pkey  |          2129920
 2017-02-09 10:41:11.838962+01 | 1486633271.83896 | pgbench_accounts_pkey |        673882112

 2017-02-09 10:41:12.900972+01 | 1486633272.90097 | pgbench_branches_pkey |           630784
 2017-02-09 10:41:12.900972+01 | 1486633272.90097 | pgbench_tellers_pkey  |          2129920
 2017-02-09 10:41:12.900972+01 | 1486633272.90097 | pgbench_accounts_pkey |        673882112

 2017-02-09 10:41:13.966989+01 | 1486633273.96699 | pgbench_branches_pkey |           630784
 2017-02-09 10:41:13.966989+01 | 1486633273.96699 | pgbench_tellers_pkey  |          2129920
 2017-02-09 10:41:13.966989+01 | 1486633273.96699 | pgbench_accounts_pkey |        673882112

 2017-02-09 10:41:15.026994+01 | 1486633275.02699 | pgbench_branches_pkey |           630784
 2017-02-09 10:41:15.026994+01 | 1486633275.02699 | pgbench_tellers_pkey  |          2129920
 2017-02-09 10:41:15.026994+01 | 1486633275.02699 | pgbench_accounts_pkey |        673882112

 2017-02-09 10:41:16.099119+01 | 1486633276.09912 | pgbench_branches_pkey |           630784
 2017-02-09 10:41:16.099119+01 | 1486633276.09912 | pgbench_tellers_pkey  |          2129920
 2017-02-09 10:41:16.099119+01 | 1486633276.09912 | pgbench_accounts_pkey |        673882112

 2017-02-09 10:41:17.160563+01 | 1486633277.16056 | pgbench_branches_pkey |           630784
 2017-02-09 10:41:17.160563+01 | 1486633277.16056 | pgbench_tellers_pkey  |          2129920
 2017-02-09 10:41:17.160563+01 | 1486633277.16056 | pgbench_accounts_pkey |        673882112

 2017-02-09 10:41:18.230725+01 | 1486633278.23073 | pgbench_branches_pkey |           630784
 2017-02-09 10:41:18.230725+01 | 1486633278.23073 | pgbench_tellers_pkey  |          2129920
 2017-02-09 10:41:18.230725+01 | 1486633278.23073 | pgbench_accounts_pkey |        673882112

 2017-02-09 10:41:19.299759+01 | 1486633279.29976 | pgbench_branches_pkey |           630784
 2017-02-09 10:41:19.299759+01 | 1486633279.29976 | pgbench_tellers_pkey  |          2129920
 2017-02-09 10:41:19.299759+01 | 1486633279.29976 | pgbench_accounts_pkey |        673882112

 2017-02-09 10:41:20.358198+01 | 1486633280.3582 | pgbench_branches_pkey |           630784
 2017-02-09 10:41:20.358198+01 | 1486633280.3582 | pgbench_tellers_pkey  |          2129920
 2017-02-09 10:41:20.358198+01 | 1486633280.3582 | pgbench_accounts_pkey |        673882112

 2017-02-09 10:41:21.422404+01 | 1486633281.4224 | pgbench_branches_pkey |           630784
 2017-02-09 10:41:21.422404+01 | 1486633281.4224 | pgbench_tellers_pkey  |          2129920
 2017-02-09 10:41:21.422404+01 | 1486633281.4224 | pgbench_accounts_pkey |        673882112

 2017-02-09 10:41:22.49169+01 | 1486633282.49169 | pgbench_branches_pkey |           630784
 2017-02-09 10:41:22.49169+01 | 1486633282.49169 | pgbench_tellers_pkey  |          2129920
 2017-02-09 10:41:22.49169+01 | 1486633282.49169 | pgbench_accounts_pkey |        673882112

 2017-02-09 10:41:23.558023+01 | 1486633283.55802 | pgbench_branches_pkey |           630784
 2017-02-09 10:41:23.558023+01 | 1486633283.55802 | pgbench_tellers_pkey  |          2129920
 2017-02-09 10:41:23.558023+01 | 1486633283.55802 | pgbench_accounts_pkey |        673882112

 2017-02-09 10:41:24.615339+01 | 1486633284.61534 | pgbench_branches_pkey |           630784
 2017-02-09 10:41:24.615339+01 | 1486633284.61534 | pgbench_tellers_pkey  |          2129920
 2017-02-09 10:41:24.615339+01 | 1486633284.61534 | pgbench_accounts_pkey |        673882112

 2017-02-09 10:41:25.691646+01 | 1486633285.69165 | pgbench_branches_pkey |           630784
 2017-02-09 10:41:25.691646+01 | 1486633285.69165 | pgbench_tellers_pkey  |          2129920
 2017-02-09 10:41:25.691646+01 | 1486633285.69165 | pgbench_accounts_pkey |        673882112

 2017-02-09 10:41:26.751988+01 | 1486633286.75199 | pgbench_branches_pkey |           630784
 2017-02-09 10:41:26.751988+01 | 1486633286.75199 | pgbench_tellers_pkey  |          2129920
 2017-02-09 10:41:26.751988+01 | 1486633286.75199 | pgbench_accounts_pkey |        673882112

 2017-02-09 10:41:27.818979+01 | 1486633287.81898 | pgbench_branches_pkey |           630784
 2017-02-09 10:41:27.818979+01 | 1486633287.81898 | pgbench_tellers_pkey  |          2129920
 2017-02-09 10:41:27.818979+01 | 1486633287.81898 | pgbench_accounts_pkey |        673882112

 2017-02-09 10:41:28.879182+01 | 1486633288.87918 | pgbench_branches_pkey |           630784
 2017-02-09 10:41:28.879182+01 | 1486633288.87918 | pgbench_tellers_pkey  |          2129920
 2017-02-09 10:41:28.879182+01 | 1486633288.87918 | pgbench_accounts_pkey |        673882112

 2017-02-09 10:41:29.978102+01 | 1486633289.9781 | pgbench_branches_pkey |           630784
 2017-02-09 10:41:29.978102+01 | 1486633289.9781 | pgbench_tellers_pkey  |          2129920
 2017-02-09 10:41:29.978102+01 | 1486633289.9781 | pgbench_accounts_pkey |        673882112

 2017-02-09 10:41:31.040557+01 | 1486633291.04056 | pgbench_branches_pkey |           630784
 2017-02-09 10:41:31.040557+01 | 1486633291.04056 | pgbench_tellers_pkey  |          2129920
 2017-02-09 10:41:31.040557+01 | 1486633291.04056 | pgbench_accounts_pkey |        673882112

 2017-02-09 10:41:32.107934+01 | 1486633292.10793 | pgbench_branches_pkey |           630784
 2017-02-09 10:41:32.107934+01 | 1486633292.10793 | pgbench_tellers_pkey  |          2129920
 2017-02-09 10:41:32.107934+01 | 1486633292.10793 | pgbench_accounts_pkey |        673882112

 2017-02-09 10:41:33.174952+01 | 1486633293.17495 | pgbench_branches_pkey |           630784
 2017-02-09 10:41:33.174952+01 | 1486633293.17495 | pgbench_tellers_pkey  |          2129920
 2017-02-09 10:41:33.174952+01 | 1486633293.17495 | pgbench_accounts_pkey |        673882112

 2017-02-09 10:41:34.238149+01 | 1486633294.23815 | pgbench_branches_pkey |           630784
 2017-02-09 10:41:34.238149+01 | 1486633294.23815 | pgbench_tellers_pkey  |          2129920
 2017-02-09 10:41:34.238149+01 | 1486633294.23815 | pgbench_accounts_pkey |        673882112

 2017-02-09 10:41:35.306698+01 | 1486633295.3067 | pgbench_branches_pkey |           630784
 2017-02-09 10:41:35.306698+01 | 1486633295.3067 | pgbench_tellers_pkey  |          2129920
 2017-02-09 10:41:35.306698+01 | 1486633295.3067 | pgbench_accounts_pkey |        673882112

 2017-02-09 10:41:36.369649+01 | 1486633296.36965 | pgbench_branches_pkey |           630784
 2017-02-09 10:41:36.369649+01 | 1486633296.36965 | pgbench_tellers_pkey  |          2129920
 2017-02-09 10:41:36.369649+01 | 1486633296.36965 | pgbench_accounts_pkey |        673882112

 2017-02-09 10:41:37.422913+01 | 1486633297.42291 | pgbench_branches_pkey |           630784
 2017-02-09 10:41:37.422913+01 | 1486633297.42291 | pgbench_tellers_pkey  |          2129920
 2017-02-09 10:41:37.422913+01 | 1486633297.42291 | pgbench_accounts_pkey |        673882112

 2017-02-09 10:41:38.491444+01 | 1486633298.49144 | pgbench_branches_pkey |           630784
 2017-02-09 10:41:38.491444+01 | 1486633298.49144 | pgbench_tellers_pkey  |          2129920
 2017-02-09 10:41:38.491444+01 | 1486633298.49144 | pgbench_accounts_pkey |        673882112

 2017-02-09 10:41:39.559294+01 | 1486633299.55929 | pgbench_branches_pkey |           630784
 2017-02-09 10:41:39.559294+01 | 1486633299.55929 | pgbench_tellers_pkey  |          2129920
 2017-02-09 10:41:39.559294+01 | 1486633299.55929 | pgbench_accounts_pkey |        673882112

 2017-02-09 10:41:40.640231+01 | 1486633300.64023 | pgbench_branches_pkey |           630784
 2017-02-09 10:41:40.640231+01 | 1486633300.64023 | pgbench_tellers_pkey  |          2129920
 2017-02-09 10:41:40.640231+01 | 1486633300.64023 | pgbench_accounts_pkey |        673882112

 2017-02-09 10:41:41.701365+01 | 1486633301.70136 | pgbench_branches_pkey |           630784
 2017-02-09 10:41:41.701365+01 | 1486633301.70136 | pgbench_tellers_pkey  |          2129920
 2017-02-09 10:41:41.701365+01 | 1486633301.70136 | pgbench_accounts_pkey |        673882112

 2017-02-09 10:41:42.763863+01 | 1486633302.76386 | pgbench_branches_pkey |           630784
 2017-02-09 10:41:42.763863+01 | 1486633302.76386 | pgbench_tellers_pkey  |          2129920
 2017-02-09 10:41:42.763863+01 | 1486633302.76386 | pgbench_accounts_pkey |        673882112

 2017-02-09 10:41:43.823609+01 | 1486633303.82361 | pgbench_branches_pkey |           630784
 2017-02-09 10:41:43.823609+01 | 1486633303.82361 | pgbench_tellers_pkey  |          2129920
 2017-02-09 10:41:43.823609+01 | 1486633303.82361 | pgbench_accounts_pkey |        673882112

 2017-02-09 10:41:44.88392+01 | 1486633304.88392 | pgbench_branches_pkey |           630784
 2017-02-09 10:41:44.88392+01 | 1486633304.88392 | pgbench_tellers_pkey  |          2129920
 2017-02-09 10:41:44.88392+01 | 1486633304.88392 | pgbench_accounts_pkey |        673882112

 2017-02-09 10:41:45.939834+01 | 1486633305.93983 | pgbench_branches_pkey |           630784
 2017-02-09 10:41:45.939834+01 | 1486633305.93983 | pgbench_tellers_pkey  |          2129920
 2017-02-09 10:41:45.939834+01 | 1486633305.93983 | pgbench_accounts_pkey |        673882112

 2017-02-09 10:41:47.003945+01 | 1486633307.00395 | pgbench_branches_pkey |           630784
 2017-02-09 10:41:47.003945+01 | 1486633307.00395 | pgbench_tellers_pkey  |          2129920
 2017-02-09 10:41:47.003945+01 | 1486633307.00395 | pgbench_accounts_pkey |        673882112

 2017-02-09 10:41:48.079078+01 | 1486633308.07908 | pgbench_branches_pkey |           630784
 2017-02-09 10:41:48.079078+01 | 1486633308.07908 | pgbench_tellers_pkey  |          2129920
 2017-02-09 10:41:48.079078+01 | 1486633308.07908 | pgbench_accounts_pkey |        673882112

 2017-02-09 10:41:49.140618+01 | 1486633309.14062 | pgbench_branches_pkey |           630784
 2017-02-09 10:41:49.140618+01 | 1486633309.14062 | pgbench_tellers_pkey  |          2129920
 2017-02-09 10:41:49.140618+01 | 1486633309.14062 | pgbench_accounts_pkey |        673882112

 2017-02-09 10:41:50.203774+01 | 1486633310.20377 | pgbench_branches_pkey |           630784
 2017-02-09 10:41:50.203774+01 | 1486633310.20377 | pgbench_tellers_pkey  |          2129920
 2017-02-09 10:41:50.203774+01 | 1486633310.20377 | pgbench_accounts_pkey |        673882112

 2017-02-09 10:41:51.260972+01 | 1486633311.26097 | pgbench_branches_pkey |           630784
 2017-02-09 10:41:51.260972+01 | 1486633311.26097 | pgbench_tellers_pkey  |          2129920
 2017-02-09 10:41:51.260972+01 | 1486633311.26097 | pgbench_accounts_pkey |        673882112

 2017-02-09 10:41:52.333666+01 | 1486633312.33367 | pgbench_branches_pkey |           630784
 2017-02-09 10:41:52.333666+01 | 1486633312.33367 | pgbench_tellers_pkey  |          2129920
 2017-02-09 10:41:52.333666+01 | 1486633312.33367 | pgbench_accounts_pkey |        673882112

 2017-02-09 10:41:53.398771+01 | 1486633313.39877 | pgbench_branches_pkey |           630784
 2017-02-09 10:41:53.398771+01 | 1486633313.39877 | pgbench_tellers_pkey  |          2129920
 2017-02-09 10:41:53.398771+01 | 1486633313.39877 | pgbench_accounts_pkey |        673882112

 2017-02-09 10:41:54.474352+01 | 1486633314.47435 | pgbench_branches_pkey |           630784
 2017-02-09 10:41:54.474352+01 | 1486633314.47435 | pgbench_tellers_pkey  |          2129920
 2017-02-09 10:41:54.474352+01 | 1486633314.47435 | pgbench_accounts_pkey |        673882112

 2017-02-09 10:41:55.539082+01 | 1486633315.53908 | pgbench_branches_pkey |           630784
 2017-02-09 10:41:55.539082+01 | 1486633315.53908 | pgbench_tellers_pkey  |          2129920
 2017-02-09 10:41:55.539082+01 | 1486633315.53908 | pgbench_accounts_pkey |        673882112

 2017-02-09 10:41:56.608975+01 | 1486633316.60897 | pgbench_branches_pkey |           630784
 2017-02-09 10:41:56.608975+01 | 1486633316.60897 | pgbench_tellers_pkey  |          2129920
 2017-02-09 10:41:56.608975+01 | 1486633316.60897 | pgbench_accounts_pkey |        673882112

 2017-02-09 10:41:57.671002+01 | 1486633317.671 | pgbench_branches_pkey |           630784
 2017-02-09 10:41:57.671002+01 | 1486633317.671 | pgbench_tellers_pkey  |          2129920
 2017-02-09 10:41:57.671002+01 | 1486633317.671 | pgbench_accounts_pkey |        673882112

 2017-02-09 10:41:58.735153+01 | 1486633318.73515 | pgbench_branches_pkey |           630784
 2017-02-09 10:41:58.735153+01 | 1486633318.73515 | pgbench_tellers_pkey  |          2129920
 2017-02-09 10:41:58.735153+01 | 1486633318.73515 | pgbench_accounts_pkey |        673882112

 2017-02-09 10:41:59.794627+01 | 1486633319.79463 | pgbench_branches_pkey |           630784
 2017-02-09 10:41:59.794627+01 | 1486633319.79463 | pgbench_tellers_pkey  |          2129920
 2017-02-09 10:41:59.794627+01 | 1486633319.79463 | pgbench_accounts_pkey |        673882112

 2017-02-09 10:42:00.849582+01 | 1486633320.84958 | pgbench_branches_pkey |           630784
 2017-02-09 10:42:00.849582+01 | 1486633320.84958 | pgbench_tellers_pkey  |          2129920
 2017-02-09 10:42:00.849582+01 | 1486633320.84958 | pgbench_accounts_pkey |        673882112

 2017-02-09 10:42:01.924866+01 | 1486633321.92487 | pgbench_branches_pkey |           630784
 2017-02-09 10:42:01.924866+01 | 1486633321.92487 | pgbench_tellers_pkey  |          2129920
 2017-02-09 10:42:01.924866+01 | 1486633321.92487 | pgbench_accounts_pkey |        673882112

 2017-02-09 10:42:02.9906+01 | 1486633322.9906 | pgbench_branches_pkey |           630784
 2017-02-09 10:42:02.9906+01 | 1486633322.9906 | pgbench_tellers_pkey  |          2129920
 2017-02-09 10:42:02.9906+01 | 1486633322.9906 | pgbench_accounts_pkey |        673882112

 2017-02-09 10:42:04.053913+01 | 1486633324.05391 | pgbench_branches_pkey |           630784
 2017-02-09 10:42:04.053913+01 | 1486633324.05391 | pgbench_tellers_pkey  |          2129920
 2017-02-09 10:42:04.053913+01 | 1486633324.05391 | pgbench_accounts_pkey |        673882112

 2017-02-09 10:42:05.133266+01 | 1486633325.13327 | pgbench_branches_pkey |           630784
 2017-02-09 10:42:05.133266+01 | 1486633325.13327 | pgbench_tellers_pkey  |          2129920
 2017-02-09 10:42:05.133266+01 | 1486633325.13327 | pgbench_accounts_pkey |        673882112

 2017-02-09 10:42:06.197744+01 | 1486633326.19774 | pgbench_branches_pkey |           630784
 2017-02-09 10:42:06.197744+01 | 1486633326.19774 | pgbench_tellers_pkey  |          2129920
 2017-02-09 10:42:06.197744+01 | 1486633326.19774 | pgbench_accounts_pkey |        673882112

 2017-02-09 10:42:07.258332+01 | 1486633327.25833 | pgbench_branches_pkey |           630784
 2017-02-09 10:42:07.258332+01 | 1486633327.25833 | pgbench_tellers_pkey  |          2129920
 2017-02-09 10:42:07.258332+01 | 1486633327.25833 | pgbench_accounts_pkey |        673882112

 2017-02-09 10:42:08.322616+01 | 1486633328.32262 | pgbench_branches_pkey |           630784
 2017-02-09 10:42:08.322616+01 | 1486633328.32262 | pgbench_tellers_pkey  |          2129920
 2017-02-09 10:42:08.322616+01 | 1486633328.32262 | pgbench_accounts_pkey |        673882112

 2017-02-09 10:42:09.384447+01 | 1486633329.38445 | pgbench_branches_pkey |           630784
 2017-02-09 10:42:09.384447+01 | 1486633329.38445 | pgbench_tellers_pkey  |          2129920
 2017-02-09 10:42:09.384447+01 | 1486633329.38445 | pgbench_accounts_pkey |        673882112

 2017-02-09 10:42:10.442014+01 | 1486633330.44201 | pgbench_branches_pkey |           630784
 2017-02-09 10:42:10.442014+01 | 1486633330.44201 | pgbench_tellers_pkey  |          2129920
 2017-02-09 10:42:10.442014+01 | 1486633330.44201 | pgbench_accounts_pkey |        673882112

 2017-02-09 10:42:11.518116+01 | 1486633331.51812 | pgbench_branches_pkey |           630784
 2017-02-09 10:42:11.518116+01 | 1486633331.51812 | pgbench_tellers_pkey  |          2129920
 2017-02-09 10:42:11.518116+01 | 1486633331.51812 | pgbench_accounts_pkey |        673882112

 2017-02-09 10:42:12.575122+01 | 1486633332.57512 | pgbench_branches_pkey |           630784
 2017-02-09 10:42:12.575122+01 | 1486633332.57512 | pgbench_tellers_pkey  |          2129920
 2017-02-09 10:42:12.575122+01 | 1486633332.57512 | pgbench_accounts_pkey |        673882112

 2017-02-09 10:42:13.645705+01 | 1486633333.6457 | pgbench_branches_pkey |           630784
 2017-02-09 10:42:13.645705+01 | 1486633333.6457 | pgbench_tellers_pkey  |          2129920
 2017-02-09 10:42:13.645705+01 | 1486633333.6457 | pgbench_accounts_pkey |        673882112

 2017-02-09 10:42:14.708722+01 | 1486633334.70872 | pgbench_branches_pkey |           630784
 2017-02-09 10:42:14.708722+01 | 1486633334.70872 | pgbench_tellers_pkey  |          2129920
 2017-02-09 10:42:14.708722+01 | 1486633334.70872 | pgbench_accounts_pkey |        673882112

 2017-02-09 10:42:15.771486+01 | 1486633335.77149 | pgbench_branches_pkey |           630784
 2017-02-09 10:42:15.771486+01 | 1486633335.77149 | pgbench_tellers_pkey  |          2129920
 2017-02-09 10:42:15.771486+01 | 1486633335.77149 | pgbench_accounts_pkey |        673882112

 2017-02-09 10:42:16.838882+01 | 1486633336.83888 | pgbench_branches_pkey |           630784
 2017-02-09 10:42:16.838882+01 | 1486633336.83888 | pgbench_tellers_pkey  |          2129920
 2017-02-09 10:42:16.838882+01 | 1486633336.83888 | pgbench_accounts_pkey |        673882112

 2017-02-09 10:42:17.911869+01 | 1486633337.91187 | pgbench_branches_pkey |           630784
 2017-02-09 10:42:17.911869+01 | 1486633337.91187 | pgbench_tellers_pkey  |          2129920
 2017-02-09 10:42:17.911869+01 | 1486633337.91187 | pgbench_accounts_pkey |        673882112

 2017-02-09 10:42:18.990589+01 | 1486633338.99059 | pgbench_branches_pkey |           630784
 2017-02-09 10:42:18.990589+01 | 1486633338.99059 | pgbench_tellers_pkey  |          2129920
 2017-02-09 10:42:18.990589+01 | 1486633338.99059 | pgbench_accounts_pkey |        673882112

 2017-02-09 10:42:20.063524+01 | 1486633340.06352 | pgbench_branches_pkey |           630784
 2017-02-09 10:42:20.063524+01 | 1486633340.06352 | pgbench_tellers_pkey  |          2129920
 2017-02-09 10:42:20.063524+01 | 1486633340.06352 | pgbench_accounts_pkey |        673882112

 2017-02-09 10:42:21.137819+01 | 1486633341.13782 | pgbench_branches_pkey |           630784
 2017-02-09 10:42:21.137819+01 | 1486633341.13782 | pgbench_tellers_pkey  |          2129920
 2017-02-09 10:42:21.137819+01 | 1486633341.13782 | pgbench_accounts_pkey |        673882112

 2017-02-09 10:42:22.196721+01 | 1486633342.19672 | pgbench_branches_pkey |           630784
 2017-02-09 10:42:22.196721+01 | 1486633342.19672 | pgbench_tellers_pkey  |          2129920
 2017-02-09 10:42:22.196721+01 | 1486633342.19672 | pgbench_accounts_pkey |        673882112

 2017-02-09 10:42:23.254011+01 | 1486633343.25401 | pgbench_branches_pkey |           630784
 2017-02-09 10:42:23.254011+01 | 1486633343.25401 | pgbench_tellers_pkey  |          2129920
 2017-02-09 10:42:23.254011+01 | 1486633343.25401 | pgbench_accounts_pkey |        673882112

 2017-02-09 10:42:24.325215+01 | 1486633344.32522 | pgbench_branches_pkey |           630784
 2017-02-09 10:42:24.325215+01 | 1486633344.32522 | pgbench_tellers_pkey  |          2129920
 2017-02-09 10:42:24.325215+01 | 1486633344.32522 | pgbench_accounts_pkey |        673882112

 2017-02-09 10:42:25.383977+01 | 1486633345.38398 | pgbench_branches_pkey |           630784
 2017-02-09 10:42:25.383977+01 | 1486633345.38398 | pgbench_tellers_pkey  |          2129920
 2017-02-09 10:42:25.383977+01 | 1486633345.38398 | pgbench_accounts_pkey |        673882112

 2017-02-09 10:42:26.454478+01 | 1486633346.45448 | pgbench_branches_pkey |           630784
 2017-02-09 10:42:26.454478+01 | 1486633346.45448 | pgbench_tellers_pkey  |          2129920
 2017-02-09 10:42:26.454478+01 | 1486633346.45448 | pgbench_accounts_pkey |        673882112

 2017-02-09 10:42:27.517826+01 | 1486633347.51783 | pgbench_branches_pkey |           630784
 2017-02-09 10:42:27.517826+01 | 1486633347.51783 | pgbench_tellers_pkey  |          2129920
 2017-02-09 10:42:27.517826+01 | 1486633347.51783 | pgbench_accounts_pkey |        673882112

 2017-02-09 10:42:28.58326+01 | 1486633348.58326 | pgbench_branches_pkey |           630784
 2017-02-09 10:42:28.58326+01 | 1486633348.58326 | pgbench_tellers_pkey  |          2129920
 2017-02-09 10:42:28.58326+01 | 1486633348.58326 | pgbench_accounts_pkey |        673882112

 2017-02-09 10:42:29.650234+01 | 1486633349.65023 | pgbench_branches_pkey |           630784
 2017-02-09 10:42:29.650234+01 | 1486633349.65023 | pgbench_tellers_pkey  |          2129920
 2017-02-09 10:42:29.650234+01 | 1486633349.65023 | pgbench_accounts_pkey |        673882112

 2017-02-09 10:42:30.708713+01 | 1486633350.70871 | pgbench_branches_pkey |           630784
 2017-02-09 10:42:30.708713+01 | 1486633350.70871 | pgbench_tellers_pkey  |          2129920
 2017-02-09 10:42:30.708713+01 | 1486633350.70871 | pgbench_accounts_pkey |        673882112

 2017-02-09 10:42:31.776+01 | 1486633351.776 | pgbench_branches_pkey |           630784
 2017-02-09 10:42:31.776+01 | 1486633351.776 | pgbench_tellers_pkey  |          2129920
 2017-02-09 10:42:31.776+01 | 1486633351.776 | pgbench_accounts_pkey |        673882112

 2017-02-09 10:42:32.849431+01 | 1486633352.84943 | pgbench_branches_pkey |           630784
 2017-02-09 10:42:32.849431+01 | 1486633352.84943 | pgbench_tellers_pkey  |          2129920
 2017-02-09 10:42:32.849431+01 | 1486633352.84943 | pgbench_accounts_pkey |        673882112

 2017-02-09 10:42:33.911706+01 | 1486633353.91171 | pgbench_branches_pkey |           630784
 2017-02-09 10:42:33.911706+01 | 1486633353.91171 | pgbench_tellers_pkey  |          2129920
 2017-02-09 10:42:33.911706+01 | 1486633353.91171 | pgbench_accounts_pkey |        673882112

 2017-02-09 10:42:34.983507+01 | 1486633354.98351 | pgbench_branches_pkey |           630784
 2017-02-09 10:42:34.983507+01 | 1486633354.98351 | pgbench_tellers_pkey  |          2129920
 2017-02-09 10:42:34.983507+01 | 1486633354.98351 | pgbench_accounts_pkey |        673882112

 2017-02-09 10:42:36.052162+01 | 1486633356.05216 | pgbench_branches_pkey |           630784
 2017-02-09 10:42:36.052162+01 | 1486633356.05216 | pgbench_tellers_pkey  |          2129920
 2017-02-09 10:42:36.052162+01 | 1486633356.05216 | pgbench_accounts_pkey |        673882112

 2017-02-09 10:42:37.11859+01 | 1486633357.11859 | pgbench_branches_pkey |           630784
 2017-02-09 10:42:37.11859+01 | 1486633357.11859 | pgbench_tellers_pkey  |          2129920
 2017-02-09 10:42:37.11859+01 | 1486633357.11859 | pgbench_accounts_pkey |        673882112

 2017-02-09 10:42:38.178747+01 | 1486633358.17875 | pgbench_branches_pkey |           630784
 2017-02-09 10:42:38.178747+01 | 1486633358.17875 | pgbench_tellers_pkey  |          2129920
 2017-02-09 10:42:38.178747+01 | 1486633358.17875 | pgbench_accounts_pkey |        673882112

 2017-02-09 10:42:39.246676+01 | 1486633359.24668 | pgbench_branches_pkey |           630784
 2017-02-09 10:42:39.246676+01 | 1486633359.24668 | pgbench_tellers_pkey  |          2129920
 2017-02-09 10:42:39.246676+01 | 1486633359.24668 | pgbench_accounts_pkey |        673882112

 2017-02-09 10:42:40.314988+01 | 1486633360.31499 | pgbench_branches_pkey |           630784
 2017-02-09 10:42:40.314988+01 | 1486633360.31499 | pgbench_tellers_pkey  |          2129920
 2017-02-09 10:42:40.314988+01 | 1486633360.31499 | pgbench_accounts_pkey |        673882112

 2017-02-09 10:42:41.384511+01 | 1486633361.38451 | pgbench_branches_pkey |           630784
 2017-02-09 10:42:41.384511+01 | 1486633361.38451 | pgbench_tellers_pkey  |          2129920
 2017-02-09 10:42:41.384511+01 | 1486633361.38451 | pgbench_accounts_pkey |        673882112

 2017-02-09 10:42:42.459768+01 | 1486633362.45977 | pgbench_branches_pkey |           630784
 2017-02-09 10:42:42.459768+01 | 1486633362.45977 | pgbench_tellers_pkey  |          2129920
 2017-02-09 10:42:42.459768+01 | 1486633362.45977 | pgbench_accounts_pkey |        673882112

 2017-02-09 10:42:43.525705+01 | 1486633363.52571 | pgbench_branches_pkey |           630784
 2017-02-09 10:42:43.525705+01 | 1486633363.52571 | pgbench_tellers_pkey  |          2129920
 2017-02-09 10:42:43.525705+01 | 1486633363.52571 | pgbench_accounts_pkey |        673882112

 2017-02-09 10:42:44.588317+01 | 1486633364.58832 | pgbench_branches_pkey |           630784
 2017-02-09 10:42:44.588317+01 | 1486633364.58832 | pgbench_tellers_pkey  |          2138112
 2017-02-09 10:42:44.588317+01 | 1486633364.58832 | pgbench_accounts_pkey |        673882112

 2017-02-09 10:42:45.65625+01 | 1486633365.65625 | pgbench_branches_pkey |           688128
 2017-02-09 10:42:45.65625+01 | 1486633365.65625 | pgbench_tellers_pkey  |          2146304
 2017-02-09 10:42:45.65625+01 | 1486633365.65625 | pgbench_accounts_pkey |        673882112

 2017-02-09 10:42:46.717253+01 | 1486633366.71725 | pgbench_branches_pkey |           737280
 2017-02-09 10:42:46.717253+01 | 1486633366.71725 | pgbench_tellers_pkey  |          2170880
 2017-02-09 10:42:46.717253+01 | 1486633366.71725 | pgbench_accounts_pkey |        673882112

 2017-02-09 10:42:47.779783+01 | 1486633367.77978 | pgbench_branches_pkey |           737280
 2017-02-09 10:42:47.779783+01 | 1486633367.77978 | pgbench_tellers_pkey  |          2170880
 2017-02-09 10:42:47.779783+01 | 1486633367.77978 | pgbench_accounts_pkey |        673882112

 2017-02-09 10:42:48.839135+01 | 1486633368.83913 | pgbench_branches_pkey |           737280
 2017-02-09 10:42:48.839135+01 | 1486633368.83913 | pgbench_tellers_pkey  |          2170880
 2017-02-09 10:42:48.839135+01 | 1486633368.83913 | pgbench_accounts_pkey |        673882112

 2017-02-09 10:42:49.903576+01 | 1486633369.90358 | pgbench_branches_pkey |           737280
 2017-02-09 10:42:49.903576+01 | 1486633369.90358 | pgbench_tellers_pkey  |          2170880
 2017-02-09 10:42:49.903576+01 | 1486633369.90358 | pgbench_accounts_pkey |        673882112

 2017-02-09 10:42:50.976167+01 | 1486633370.97617 | pgbench_branches_pkey |           737280
 2017-02-09 10:42:50.976167+01 | 1486633370.97617 | pgbench_tellers_pkey  |          2170880
 2017-02-09 10:42:50.976167+01 | 1486633370.97617 | pgbench_accounts_pkey |        673882112

 2017-02-09 10:42:52.043868+01 | 1486633372.04387 | pgbench_branches_pkey |           737280
 2017-02-09 10:42:52.043868+01 | 1486633372.04387 | pgbench_tellers_pkey  |          2170880
 2017-02-09 10:42:52.043868+01 | 1486633372.04387 | pgbench_accounts_pkey |        673882112

 2017-02-09 10:42:53.120862+01 | 1486633373.12086 | pgbench_branches_pkey |           737280
 2017-02-09 10:42:53.120862+01 | 1486633373.12086 | pgbench_tellers_pkey  |          2170880
 2017-02-09 10:42:53.120862+01 | 1486633373.12086 | pgbench_accounts_pkey |        673882112

 2017-02-09 10:42:54.192175+01 | 1486633374.19217 | pgbench_branches_pkey |           737280
 2017-02-09 10:42:54.192175+01 | 1486633374.19217 | pgbench_tellers_pkey  |          2170880
 2017-02-09 10:42:54.192175+01 | 1486633374.19217 | pgbench_accounts_pkey |        673882112

 2017-02-09 10:42:55.263069+01 | 1486633375.26307 | pgbench_branches_pkey |           737280
 2017-02-09 10:42:55.263069+01 | 1486633375.26307 | pgbench_tellers_pkey  |          2170880
 2017-02-09 10:42:55.263069+01 | 1486633375.26307 | pgbench_accounts_pkey |        673882112

 2017-02-09 10:42:56.329243+01 | 1486633376.32924 | pgbench_branches_pkey |           737280
 2017-02-09 10:42:56.329243+01 | 1486633376.32924 | pgbench_tellers_pkey  |          2170880
 2017-02-09 10:42:56.329243+01 | 1486633376.32924 | pgbench_accounts_pkey |        673882112

 2017-02-09 10:42:57.39881+01 | 1486633377.39881 | pgbench_branches_pkey |           737280
 2017-02-09 10:42:57.39881+01 | 1486633377.39881 | pgbench_tellers_pkey  |          2170880
 2017-02-09 10:42:57.39881+01 | 1486633377.39881 | pgbench_accounts_pkey |        673882112

 2017-02-09 10:42:58.469963+01 | 1486633378.46996 | pgbench_branches_pkey |           737280
 2017-02-09 10:42:58.469963+01 | 1486633378.46996 | pgbench_tellers_pkey  |          2170880
 2017-02-09 10:42:58.469963+01 | 1486633378.46996 | pgbench_accounts_pkey |        673882112

 2017-02-09 10:42:59.540117+01 | 1486633379.54012 | pgbench_branches_pkey |           737280
 2017-02-09 10:42:59.540117+01 | 1486633379.54012 | pgbench_tellers_pkey  |          2170880
 2017-02-09 10:42:59.540117+01 | 1486633379.54012 | pgbench_accounts_pkey |        673882112

 2017-02-09 10:43:00.620149+01 | 1486633380.62015 | pgbench_branches_pkey |           737280
 2017-02-09 10:43:00.620149+01 | 1486633380.62015 | pgbench_tellers_pkey  |          2170880
 2017-02-09 10:43:00.620149+01 | 1486633380.62015 | pgbench_accounts_pkey |        673882112

 2017-02-09 10:43:01.690444+01 | 1486633381.69044 | pgbench_branches_pkey |           737280
 2017-02-09 10:43:01.690444+01 | 1486633381.69044 | pgbench_tellers_pkey  |          2170880
 2017-02-09 10:43:01.690444+01 | 1486633381.69044 | pgbench_accounts_pkey |        673882112

 2017-02-09 10:43:02.748659+01 | 1486633382.74866 | pgbench_branches_pkey |           737280
 2017-02-09 10:43:02.748659+01 | 1486633382.74866 | pgbench_tellers_pkey  |          2170880
 2017-02-09 10:43:02.748659+01 | 1486633382.74866 | pgbench_accounts_pkey |        673882112

 2017-02-09 10:43:03.824111+01 | 1486633383.82411 | pgbench_branches_pkey |           737280
 2017-02-09 10:43:03.824111+01 | 1486633383.82411 | pgbench_tellers_pkey  |          2170880
 2017-02-09 10:43:03.824111+01 | 1486633383.82411 | pgbench_accounts_pkey |        673882112

 2017-02-09 10:43:04.894956+01 | 1486633384.89496 | pgbench_branches_pkey |           737280
 2017-02-09 10:43:04.894956+01 | 1486633384.89496 | pgbench_tellers_pkey  |          2170880
 2017-02-09 10:43:04.894956+01 | 1486633384.89496 | pgbench_accounts_pkey |        673882112

 2017-02-09 10:43:05.968999+01 | 1486633385.969 | pgbench_branches_pkey |           737280
 2017-02-09 10:43:05.968999+01 | 1486633385.969 | pgbench_tellers_pkey  |          2170880
 2017-02-09 10:43:05.968999+01 | 1486633385.969 | pgbench_accounts_pkey |        673882112

 2017-02-09 10:43:07.023067+01 | 1486633387.02307 | pgbench_branches_pkey |           737280
 2017-02-09 10:43:07.023067+01 | 1486633387.02307 | pgbench_tellers_pkey  |          2170880
 2017-02-09 10:43:07.023067+01 | 1486633387.02307 | pgbench_accounts_pkey |        673882112

 2017-02-09 10:43:08.108657+01 | 1486633388.10866 | pgbench_branches_pkey |           737280
 2017-02-09 10:43:08.108657+01 | 1486633388.10866 | pgbench_tellers_pkey  |          2170880
 2017-02-09 10:43:08.108657+01 | 1486633388.10866 | pgbench_accounts_pkey |        673882112

 2017-02-09 10:43:09.169826+01 | 1486633389.16983 | pgbench_branches_pkey |           737280
 2017-02-09 10:43:09.169826+01 | 1486633389.16983 | pgbench_tellers_pkey  |          2170880
 2017-02-09 10:43:09.169826+01 | 1486633389.16983 | pgbench_accounts_pkey |        673882112

 2017-02-09 10:43:10.230229+01 | 1486633390.23023 | pgbench_branches_pkey |           737280
 2017-02-09 10:43:10.230229+01 | 1486633390.23023 | pgbench_tellers_pkey  |          2170880
 2017-02-09 10:43:10.230229+01 | 1486633390.23023 | pgbench_accounts_pkey |        673882112

 2017-02-09 10:43:11.290904+01 | 1486633391.2909 | pgbench_branches_pkey |           737280
 2017-02-09 10:43:11.290904+01 | 1486633391.2909 | pgbench_tellers_pkey  |          2170880
 2017-02-09 10:43:11.290904+01 | 1486633391.2909 | pgbench_accounts_pkey |        673882112

 2017-02-09 10:43:12.347364+01 | 1486633392.34736 | pgbench_branches_pkey |           737280
 2017-02-09 10:43:12.347364+01 | 1486633392.34736 | pgbench_tellers_pkey  |          2170880
 2017-02-09 10:43:12.347364+01 | 1486633392.34736 | pgbench_accounts_pkey |        673882112

 2017-02-09 10:43:13.415294+01 | 1486633393.41529 | pgbench_branches_pkey |           737280
 2017-02-09 10:43:13.415294+01 | 1486633393.41529 | pgbench_tellers_pkey  |          2170880
 2017-02-09 10:43:13.415294+01 | 1486633393.41529 | pgbench_accounts_pkey |        673882112

 2017-02-09 10:43:14.480875+01 | 1486633394.48088 | pgbench_branches_pkey |           737280
 2017-02-09 10:43:14.480875+01 | 1486633394.48088 | pgbench_tellers_pkey  |          2170880
 2017-02-09 10:43:14.480875+01 | 1486633394.48088 | pgbench_accounts_pkey |        673882112

 2017-02-09 10:43:15.547348+01 | 1486633395.54735 | pgbench_branches_pkey |           737280
 2017-02-09 10:43:15.547348+01 | 1486633395.54735 | pgbench_tellers_pkey  |          2170880
 2017-02-09 10:43:15.547348+01 | 1486633395.54735 | pgbench_accounts_pkey |        673882112

 2017-02-09 10:43:16.610731+01 | 1486633396.61073 | pgbench_branches_pkey |           737280
 2017-02-09 10:43:16.610731+01 | 1486633396.61073 | pgbench_tellers_pkey  |          2170880
 2017-02-09 10:43:16.610731+01 | 1486633396.61073 | pgbench_accounts_pkey |        673882112

 2017-02-09 10:43:17.684621+01 | 1486633397.68462 | pgbench_branches_pkey |           737280
 2017-02-09 10:43:17.684621+01 | 1486633397.68462 | pgbench_tellers_pkey  |          2170880
 2017-02-09 10:43:17.684621+01 | 1486633397.68462 | pgbench_accounts_pkey |        673882112

 2017-02-09 10:43:18.752401+01 | 1486633398.7524 | pgbench_branches_pkey |           737280
 2017-02-09 10:43:18.752401+01 | 1486633398.7524 | pgbench_tellers_pkey  |          2170880
 2017-02-09 10:43:18.752401+01 | 1486633398.7524 | pgbench_accounts_pkey |        673882112

 2017-02-09 10:43:19.821716+01 | 1486633399.82172 | pgbench_branches_pkey |           737280
 2017-02-09 10:43:19.821716+01 | 1486633399.82172 | pgbench_tellers_pkey  |          2170880
 2017-02-09 10:43:19.821716+01 | 1486633399.82172 | pgbench_accounts_pkey |        673882112

 2017-02-09 10:43:20.882551+01 | 1486633400.88255 | pgbench_branches_pkey |           737280
 2017-02-09 10:43:20.882551+01 | 1486633400.88255 | pgbench_tellers_pkey  |          2170880
 2017-02-09 10:43:20.882551+01 | 1486633400.88255 | pgbench_accounts_pkey |        673882112

 2017-02-09 10:43:21.976142+01 | 1486633401.97614 | pgbench_branches_pkey |           737280
 2017-02-09 10:43:21.976142+01 | 1486633401.97614 | pgbench_tellers_pkey  |          2170880
 2017-02-09 10:43:21.976142+01 | 1486633401.97614 | pgbench_accounts_pkey |        673882112

 2017-02-09 10:43:23.035374+01 | 1486633403.03537 | pgbench_branches_pkey |           737280
 2017-02-09 10:43:23.035374+01 | 1486633403.03537 | pgbench_tellers_pkey  |          2170880
 2017-02-09 10:43:23.035374+01 | 1486633403.03537 | pgbench_accounts_pkey |        673882112

 2017-02-09 10:43:24.109275+01 | 1486633404.10928 | pgbench_branches_pkey |           737280
 2017-02-09 10:43:24.109275+01 | 1486633404.10928 | pgbench_tellers_pkey  |          2170880
 2017-02-09 10:43:24.109275+01 | 1486633404.10928 | pgbench_accounts_pkey |        673882112

 2017-02-09 10:43:25.178427+01 | 1486633405.17843 | pgbench_branches_pkey |           737280
 2017-02-09 10:43:25.178427+01 | 1486633405.17843 | pgbench_tellers_pkey  |          2170880
 2017-02-09 10:43:25.178427+01 | 1486633405.17843 | pgbench_accounts_pkey |        673882112

 2017-02-09 10:43:26.239712+01 | 1486633406.23971 | pgbench_branches_pkey |           737280
 2017-02-09 10:43:26.239712+01 | 1486633406.23971 | pgbench_tellers_pkey  |          2170880
 2017-02-09 10:43:26.239712+01 | 1486633406.23971 | pgbench_accounts_pkey |        673882112

 2017-02-09 10:43:27.298997+01 | 1486633407.299 | pgbench_branches_pkey |           737280
 2017-02-09 10:43:27.298997+01 | 1486633407.299 | pgbench_tellers_pkey  |          2170880
 2017-02-09 10:43:27.298997+01 | 1486633407.299 | pgbench_accounts_pkey |        673882112

 2017-02-09 10:43:28.366132+01 | 1486633408.36613 | pgbench_branches_pkey |           737280
 2017-02-09 10:43:28.366132+01 | 1486633408.36613 | pgbench_tellers_pkey  |          2170880
 2017-02-09 10:43:28.366132+01 | 1486633408.36613 | pgbench_accounts_pkey |        673882112

 2017-02-09 10:43:29.423004+01 | 1486633409.423 | pgbench_branches_pkey |           737280
 2017-02-09 10:43:29.423004+01 | 1486633409.423 | pgbench_tellers_pkey  |          2170880
 2017-02-09 10:43:29.423004+01 | 1486633409.423 | pgbench_accounts_pkey |        673882112

 2017-02-09 10:43:30.497569+01 | 1486633410.49757 | pgbench_branches_pkey |           737280
 2017-02-09 10:43:30.497569+01 | 1486633410.49757 | pgbench_tellers_pkey  |          2170880
 2017-02-09 10:43:30.497569+01 | 1486633410.49757 | pgbench_accounts_pkey |        673882112

 2017-02-09 10:43:31.560125+01 | 1486633411.56013 | pgbench_branches_pkey |           737280
 2017-02-09 10:43:31.560125+01 | 1486633411.56013 | pgbench_tellers_pkey  |          2170880
 2017-02-09 10:43:31.560125+01 | 1486633411.56013 | pgbench_accounts_pkey |        673882112

 2017-02-09 10:43:32.629713+01 | 1486633412.62971 | pgbench_branches_pkey |           737280
 2017-02-09 10:43:32.629713+01 | 1486633412.62971 | pgbench_tellers_pkey  |          2170880
 2017-02-09 10:43:32.629713+01 | 1486633412.62971 | pgbench_accounts_pkey |        673882112

 2017-02-09 10:43:33.706664+01 | 1486633413.70666 | pgbench_branches_pkey |           737280
 2017-02-09 10:43:33.706664+01 | 1486633413.70666 | pgbench_tellers_pkey  |          2170880
 2017-02-09 10:43:33.706664+01 | 1486633413.70666 | pgbench_accounts_pkey |        673882112

 2017-02-09 10:43:34.769446+01 | 1486633414.76945 | pgbench_branches_pkey |           737280
 2017-02-09 10:43:34.769446+01 | 1486633414.76945 | pgbench_tellers_pkey  |          2170880
 2017-02-09 10:43:34.769446+01 | 1486633414.76945 | pgbench_accounts_pkey |        673882112

 2017-02-09 10:43:35.843008+01 | 1486633415.84301 | pgbench_branches_pkey |           737280
 2017-02-09 10:43:35.843008+01 | 1486633415.84301 | pgbench_tellers_pkey  |          2170880
 2017-02-09 10:43:35.843008+01 | 1486633415.84301 | pgbench_accounts_pkey |        673882112

 2017-02-09 10:43:36.912416+01 | 1486633416.91242 | pgbench_branches_pkey |           737280
 2017-02-09 10:43:36.912416+01 | 1486633416.91242 | pgbench_tellers_pkey  |          2170880
 2017-02-09 10:43:36.912416+01 | 1486633416.91242 | pgbench_accounts_pkey |        673882112

 2017-02-09 10:43:37.974476+01 | 1486633417.97448 | pgbench_branches_pkey |           737280
 2017-02-09 10:43:37.974476+01 | 1486633417.97448 | pgbench_tellers_pkey  |          2170880
 2017-02-09 10:43:37.974476+01 | 1486633417.97448 | pgbench_accounts_pkey |        673882112

 2017-02-09 10:43:39.033695+01 | 1486633419.03369 | pgbench_branches_pkey |           737280
 2017-02-09 10:43:39.033695+01 | 1486633419.03369 | pgbench_tellers_pkey  |          2170880
 2017-02-09 10:43:39.033695+01 | 1486633419.03369 | pgbench_accounts_pkey |        673882112

 2017-02-09 10:43:40.101426+01 | 1486633420.10143 | pgbench_branches_pkey |           737280
 2017-02-09 10:43:40.101426+01 | 1486633420.10143 | pgbench_tellers_pkey  |          2170880
 2017-02-09 10:43:40.101426+01 | 1486633420.10143 | pgbench_accounts_pkey |        673882112

 2017-02-09 10:43:41.167716+01 | 1486633421.16772 | pgbench_branches_pkey |           737280
 2017-02-09 10:43:41.167716+01 | 1486633421.16772 | pgbench_tellers_pkey  |          2170880
 2017-02-09 10:43:41.167716+01 | 1486633421.16772 | pgbench_accounts_pkey |        673882112

 2017-02-09 10:43:42.226224+01 | 1486633422.22622 | pgbench_branches_pkey |           737280
 2017-02-09 10:43:42.226224+01 | 1486633422.22622 | pgbench_tellers_pkey  |          2170880
 2017-02-09 10:43:42.226224+01 | 1486633422.22622 | pgbench_accounts_pkey |        673882112

 2017-02-09 10:43:43.292087+01 | 1486633423.29209 | pgbench_branches_pkey |           737280
 2017-02-09 10:43:43.292087+01 | 1486633423.29209 | pgbench_tellers_pkey  |          2170880
 2017-02-09 10:43:43.292087+01 | 1486633423.29209 | pgbench_accounts_pkey |        673882112

 2017-02-09 10:43:44.347785+01 | 1486633424.34778 | pgbench_branches_pkey |           737280
 2017-02-09 10:43:44.347785+01 | 1486633424.34778 | pgbench_tellers_pkey  |          2170880
 2017-02-09 10:43:44.347785+01 | 1486633424.34778 | pgbench_accounts_pkey |        673882112

 2017-02-09 10:43:45.422013+01 | 1486633425.42201 | pgbench_branches_pkey |           737280
 2017-02-09 10:43:45.422013+01 | 1486633425.42201 | pgbench_tellers_pkey  |          2170880
 2017-02-09 10:43:45.422013+01 | 1486633425.42201 | pgbench_accounts_pkey |        673882112

 2017-02-09 10:43:46.482572+01 | 1486633426.48257 | pgbench_branches_pkey |           737280
 2017-02-09 10:43:46.482572+01 | 1486633426.48257 | pgbench_tellers_pkey  |          2170880
 2017-02-09 10:43:46.482572+01 | 1486633426.48257 | pgbench_accounts_pkey |        673882112

 2017-02-09 10:43:47.549783+01 | 1486633427.54978 | pgbench_branches_pkey |           737280
 2017-02-09 10:43:47.549783+01 | 1486633427.54978 | pgbench_tellers_pkey  |          2170880
 2017-02-09 10:43:47.549783+01 | 1486633427.54978 | pgbench_accounts_pkey |        673882112

 2017-02-09 10:43:48.631282+01 | 1486633428.63128 | pgbench_branches_pkey |           737280
 2017-02-09 10:43:48.631282+01 | 1486633428.63128 | pgbench_tellers_pkey  |          2170880
 2017-02-09 10:43:48.631282+01 | 1486633428.63128 | pgbench_accounts_pkey |        673882112

 2017-02-09 10:43:49.691994+01 | 1486633429.69199 | pgbench_branches_pkey |           737280
 2017-02-09 10:43:49.691994+01 | 1486633429.69199 | pgbench_tellers_pkey  |          2170880
 2017-02-09 10:43:49.691994+01 | 1486633429.69199 | pgbench_accounts_pkey |        673882112

 2017-02-09 10:43:50.744683+01 | 1486633430.74468 | pgbench_branches_pkey |           737280
 2017-02-09 10:43:50.744683+01 | 1486633430.74468 | pgbench_tellers_pkey  |          2170880
 2017-02-09 10:43:50.744683+01 | 1486633430.74468 | pgbench_accounts_pkey |        673882112

 2017-02-09 10:43:51.813907+01 | 1486633431.81391 | pgbench_branches_pkey |           737280
 2017-02-09 10:43:51.813907+01 | 1486633431.81391 | pgbench_tellers_pkey  |          2170880
 2017-02-09 10:43:51.813907+01 | 1486633431.81391 | pgbench_accounts_pkey |        673882112

 2017-02-09 10:43:52.888344+01 | 1486633432.88834 | pgbench_branches_pkey |           737280
 2017-02-09 10:43:52.888344+01 | 1486633432.88834 | pgbench_tellers_pkey  |          2170880
 2017-02-09 10:43:52.888344+01 | 1486633432.88834 | pgbench_accounts_pkey |        673882112

 2017-02-09 10:43:53.961212+01 | 1486633433.96121 | pgbench_branches_pkey |           737280
 2017-02-09 10:43:53.961212+01 | 1486633433.96121 | pgbench_tellers_pkey  |          2170880
 2017-02-09 10:43:53.961212+01 | 1486633433.96121 | pgbench_accounts_pkey |        673882112

 2017-02-09 10:43:55.032728+01 | 1486633435.03273 | pgbench_branches_pkey |           737280
 2017-02-09 10:43:55.032728+01 | 1486633435.03273 | pgbench_tellers_pkey  |          2170880
 2017-02-09 10:43:55.032728+01 | 1486633435.03273 | pgbench_accounts_pkey |        673882112

 2017-02-09 10:43:56.093022+01 | 1486633436.09302 | pgbench_branches_pkey |           737280
 2017-02-09 10:43:56.093022+01 | 1486633436.09302 | pgbench_tellers_pkey  |          2170880
 2017-02-09 10:43:56.093022+01 | 1486633436.09302 | pgbench_accounts_pkey |        673882112

 2017-02-09 10:43:57.154926+01 | 1486633437.15493 | pgbench_branches_pkey |           737280
 2017-02-09 10:43:57.154926+01 | 1486633437.15493 | pgbench_tellers_pkey  |          2170880
 2017-02-09 10:43:57.154926+01 | 1486633437.15493 | pgbench_accounts_pkey |        673882112

 2017-02-09 10:43:58.212706+01 | 1486633438.21271 | pgbench_branches_pkey |           737280
 2017-02-09 10:43:58.212706+01 | 1486633438.21271 | pgbench_tellers_pkey  |          2170880
 2017-02-09 10:43:58.212706+01 | 1486633438.21271 | pgbench_accounts_pkey |        673882112

 2017-02-09 10:43:59.28612+01 | 1486633439.28612 | pgbench_branches_pkey |           737280
 2017-02-09 10:43:59.28612+01 | 1486633439.28612 | pgbench_tellers_pkey  |          2170880
 2017-02-09 10:43:59.28612+01 | 1486633439.28612 | pgbench_accounts_pkey |        673882112

 2017-02-09 10:44:00.351582+01 | 1486633440.35158 | pgbench_branches_pkey |           737280
 2017-02-09 10:44:00.351582+01 | 1486633440.35158 | pgbench_tellers_pkey  |          2170880
 2017-02-09 10:44:00.351582+01 | 1486633440.35158 | pgbench_accounts_pkey |        673882112

 2017-02-09 10:44:01.415582+01 | 1486633441.41558 | pgbench_branches_pkey |           737280
 2017-02-09 10:44:01.415582+01 | 1486633441.41558 | pgbench_tellers_pkey  |          2170880
 2017-02-09 10:44:01.415582+01 | 1486633441.41558 | pgbench_accounts_pkey |        673882112

 2017-02-09 10:44:02.476113+01 | 1486633442.47611 | pgbench_branches_pkey |           737280
 2017-02-09 10:44:02.476113+01 | 1486633442.47611 | pgbench_tellers_pkey  |          2170880
 2017-02-09 10:44:02.476113+01 | 1486633442.47611 | pgbench_accounts_pkey |        673882112

 2017-02-09 10:44:03.534443+01 | 1486633443.53444 | pgbench_branches_pkey |           737280
 2017-02-09 10:44:03.534443+01 | 1486633443.53444 | pgbench_tellers_pkey  |          2170880
 2017-02-09 10:44:03.534443+01 | 1486633443.53444 | pgbench_accounts_pkey |        673882112

 2017-02-09 10:44:04.59414+01 | 1486633444.59414 | pgbench_branches_pkey |           737280
 2017-02-09 10:44:04.59414+01 | 1486633444.59414 | pgbench_tellers_pkey  |          2170880
 2017-02-09 10:44:04.59414+01 | 1486633444.59414 | pgbench_accounts_pkey |        673882112

 2017-02-09 10:44:05.668923+01 | 1486633445.66892 | pgbench_branches_pkey |           737280
 2017-02-09 10:44:05.668923+01 | 1486633445.66892 | pgbench_tellers_pkey  |          2170880
 2017-02-09 10:44:05.668923+01 | 1486633445.66892 | pgbench_accounts_pkey |        673882112

 2017-02-09 10:44:06.735665+01 | 1486633446.73567 | pgbench_branches_pkey |           737280
 2017-02-09 10:44:06.735665+01 | 1486633446.73567 | pgbench_tellers_pkey  |          2170880
 2017-02-09 10:44:06.735665+01 | 1486633446.73567 | pgbench_accounts_pkey |        673882112

 2017-02-09 10:44:07.799787+01 | 1486633447.79979 | pgbench_branches_pkey |           737280
 2017-02-09 10:44:07.799787+01 | 1486633447.79979 | pgbench_tellers_pkey  |          2170880
 2017-02-09 10:44:07.799787+01 | 1486633447.79979 | pgbench_accounts_pkey |        673882112

 2017-02-09 10:44:08.870641+01 | 1486633448.87064 | pgbench_branches_pkey |           737280
 2017-02-09 10:44:08.870641+01 | 1486633448.87064 | pgbench_tellers_pkey  |          2170880
 2017-02-09 10:44:08.870641+01 | 1486633448.87064 | pgbench_accounts_pkey |        673882112

 2017-02-09 10:44:09.935867+01 | 1486633449.93587 | pgbench_branches_pkey |           737280
 2017-02-09 10:44:09.935867+01 | 1486633449.93587 | pgbench_tellers_pkey  |          2170880
 2017-02-09 10:44:09.935867+01 | 1486633449.93587 | pgbench_accounts_pkey |        673882112

 2017-02-09 10:44:10.999027+01 | 1486633450.99903 | pgbench_branches_pkey |           737280
 2017-02-09 10:44:10.999027+01 | 1486633450.99903 | pgbench_tellers_pkey  |          2170880
 2017-02-09 10:44:10.999027+01 | 1486633450.99903 | pgbench_accounts_pkey |        673882112

 2017-02-09 10:44:12.066052+01 | 1486633452.06605 | pgbench_branches_pkey |           737280
 2017-02-09 10:44:12.066052+01 | 1486633452.06605 | pgbench_tellers_pkey  |          2170880
 2017-02-09 10:44:12.066052+01 | 1486633452.06605 | pgbench_accounts_pkey |        673882112

 2017-02-09 10:44:13.126175+01 | 1486633453.12617 | pgbench_branches_pkey |           737280
 2017-02-09 10:44:13.126175+01 | 1486633453.12617 | pgbench_tellers_pkey  |          2170880
 2017-02-09 10:44:13.126175+01 | 1486633453.12617 | pgbench_accounts_pkey |        673882112

 2017-02-09 10:44:14.199537+01 | 1486633454.19954 | pgbench_branches_pkey |           737280
 2017-02-09 10:44:14.199537+01 | 1486633454.19954 | pgbench_tellers_pkey  |          2170880
 2017-02-09 10:44:14.199537+01 | 1486633454.19954 | pgbench_accounts_pkey |        673882112

 2017-02-09 10:44:15.261563+01 | 1486633455.26156 | pgbench_branches_pkey |           737280
 2017-02-09 10:44:15.261563+01 | 1486633455.26156 | pgbench_tellers_pkey  |          2170880
 2017-02-09 10:44:15.261563+01 | 1486633455.26156 | pgbench_accounts_pkey |        673882112

 2017-02-09 10:44:16.323945+01 | 1486633456.32395 | pgbench_branches_pkey |           737280
 2017-02-09 10:44:16.323945+01 | 1486633456.32395 | pgbench_tellers_pkey  |          2170880
 2017-02-09 10:44:16.323945+01 | 1486633456.32395 | pgbench_accounts_pkey |        673882112

 2017-02-09 10:44:17.383478+01 | 1486633457.38348 | pgbench_branches_pkey |           737280
 2017-02-09 10:44:17.383478+01 | 1486633457.38348 | pgbench_tellers_pkey  |          2170880
 2017-02-09 10:44:17.383478+01 | 1486633457.38348 | pgbench_accounts_pkey |        673882112

 2017-02-09 10:44:18.465334+01 | 1486633458.46533 | pgbench_branches_pkey |           737280
 2017-02-09 10:44:18.465334+01 | 1486633458.46533 | pgbench_tellers_pkey  |          2170880
 2017-02-09 10:44:18.465334+01 | 1486633458.46533 | pgbench_accounts_pkey |        673882112

 2017-02-09 10:44:19.529124+01 | 1486633459.52912 | pgbench_branches_pkey |           737280
 2017-02-09 10:44:19.529124+01 | 1486633459.52912 | pgbench_tellers_pkey  |          2170880
 2017-02-09 10:44:19.529124+01 | 1486633459.52912 | pgbench_accounts_pkey |        673882112

 2017-02-09 10:44:20.594442+01 | 1486633460.59444 | pgbench_branches_pkey |           737280
 2017-02-09 10:44:20.594442+01 | 1486633460.59444 | pgbench_tellers_pkey  |          2170880
 2017-02-09 10:44:20.594442+01 | 1486633460.59444 | pgbench_accounts_pkey |        673882112

 2017-02-09 10:44:21.660754+01 | 1486633461.66075 | pgbench_branches_pkey |           737280
 2017-02-09 10:44:21.660754+01 | 1486633461.66075 | pgbench_tellers_pkey  |          2170880
 2017-02-09 10:44:21.660754+01 | 1486633461.66075 | pgbench_accounts_pkey |        673882112

 2017-02-09 10:44:22.729266+01 | 1486633462.72927 | pgbench_branches_pkey |           737280
 2017-02-09 10:44:22.729266+01 | 1486633462.72927 | pgbench_tellers_pkey  |          2170880
 2017-02-09 10:44:22.729266+01 | 1486633462.72927 | pgbench_accounts_pkey |        673882112

 2017-02-09 10:44:23.784651+01 | 1486633463.78465 | pgbench_branches_pkey |           737280
 2017-02-09 10:44:23.784651+01 | 1486633463.78465 | pgbench_tellers_pkey  |          2170880
 2017-02-09 10:44:23.784651+01 | 1486633463.78465 | pgbench_accounts_pkey |        673882112

 2017-02-09 10:44:24.861218+01 | 1486633464.86122 | pgbench_branches_pkey |           737280
 2017-02-09 10:44:24.861218+01 | 1486633464.86122 | pgbench_tellers_pkey  |          2170880
 2017-02-09 10:44:24.861218+01 | 1486633464.86122 | pgbench_accounts_pkey |        673882112

 2017-02-09 10:44:25.935172+01 | 1486633465.93517 | pgbench_branches_pkey |           737280
 2017-02-09 10:44:25.935172+01 | 1486633465.93517 | pgbench_tellers_pkey  |          2170880
 2017-02-09 10:44:25.935172+01 | 1486633465.93517 | pgbench_accounts_pkey |        673882112

 2017-02-09 10:44:27.009688+01 | 1486633467.00969 | pgbench_branches_pkey |           737280
 2017-02-09 10:44:27.009688+01 | 1486633467.00969 | pgbench_tellers_pkey  |          2170880
 2017-02-09 10:44:27.009688+01 | 1486633467.00969 | pgbench_accounts_pkey |        673882112

 2017-02-09 10:44:28.075462+01 | 1486633468.07546 | pgbench_branches_pkey |           737280
 2017-02-09 10:44:28.075462+01 | 1486633468.07546 | pgbench_tellers_pkey  |          2170880
 2017-02-09 10:44:28.075462+01 | 1486633468.07546 | pgbench_accounts_pkey |        673882112

 2017-02-09 10:44:29.141478+01 | 1486633469.14148 | pgbench_branches_pkey |           737280
 2017-02-09 10:44:29.141478+01 | 1486633469.14148 | pgbench_tellers_pkey  |          2170880
 2017-02-09 10:44:29.141478+01 | 1486633469.14148 | pgbench_accounts_pkey |        673882112

 2017-02-09 10:44:30.209335+01 | 1486633470.20934 | pgbench_branches_pkey |           737280
 2017-02-09 10:44:30.209335+01 | 1486633470.20934 | pgbench_tellers_pkey  |          2170880
 2017-02-09 10:44:30.209335+01 | 1486633470.20934 | pgbench_accounts_pkey |        673882112

 2017-02-09 10:44:31.270174+01 | 1486633471.27017 | pgbench_branches_pkey |           737280
 2017-02-09 10:44:31.270174+01 | 1486633471.27017 | pgbench_tellers_pkey  |          2170880
 2017-02-09 10:44:31.270174+01 | 1486633471.27017 | pgbench_accounts_pkey |        673882112

 2017-02-09 10:44:32.339286+01 | 1486633472.33929 | pgbench_branches_pkey |           737280
 2017-02-09 10:44:32.339286+01 | 1486633472.33929 | pgbench_tellers_pkey  |          2170880
 2017-02-09 10:44:32.339286+01 | 1486633472.33929 | pgbench_accounts_pkey |        673882112

 2017-02-09 10:44:33.404423+01 | 1486633473.40442 | pgbench_branches_pkey |           737280
 2017-02-09 10:44:33.404423+01 | 1486633473.40442 | pgbench_tellers_pkey  |          2170880
 2017-02-09 10:44:33.404423+01 | 1486633473.40442 | pgbench_accounts_pkey |        673882112

 2017-02-09 10:44:34.469745+01 | 1486633474.46974 | pgbench_branches_pkey |           737280
 2017-02-09 10:44:34.469745+01 | 1486633474.46974 | pgbench_tellers_pkey  |          2170880
 2017-02-09 10:44:34.469745+01 | 1486633474.46974 | pgbench_accounts_pkey |        673882112

 2017-02-09 10:44:35.538914+01 | 1486633475.53891 | pgbench_branches_pkey |           737280
 2017-02-09 10:44:35.538914+01 | 1486633475.53891 | pgbench_tellers_pkey  |          2170880
 2017-02-09 10:44:35.538914+01 | 1486633475.53891 | pgbench_accounts_pkey |        673882112

 2017-02-09 10:44:36.614678+01 | 1486633476.61468 | pgbench_branches_pkey |           737280
 2017-02-09 10:44:36.614678+01 | 1486633476.61468 | pgbench_tellers_pkey  |          2170880
 2017-02-09 10:44:36.614678+01 | 1486633476.61468 | pgbench_accounts_pkey |        673882112

 2017-02-09 10:44:37.665456+01 | 1486633477.66546 | pgbench_branches_pkey |           737280
 2017-02-09 10:44:37.665456+01 | 1486633477.66546 | pgbench_tellers_pkey  |          2170880
 2017-02-09 10:44:37.665456+01 | 1486633477.66546 | pgbench_accounts_pkey |        673882112

 2017-02-09 10:44:38.752582+01 | 1486633478.75258 | pgbench_branches_pkey |           737280
 2017-02-09 10:44:38.752582+01 | 1486633478.75258 | pgbench_tellers_pkey  |          2170880
 2017-02-09 10:44:38.752582+01 | 1486633478.75258 | pgbench_accounts_pkey |        673882112

 2017-02-09 10:44:39.822739+01 | 1486633479.82274 | pgbench_branches_pkey |           737280
 2017-02-09 10:44:39.822739+01 | 1486633479.82274 | pgbench_tellers_pkey  |          2170880
 2017-02-09 10:44:39.822739+01 | 1486633479.82274 | pgbench_accounts_pkey |        673882112

 2017-02-09 10:44:40.886318+01 | 1486633480.88632 | pgbench_branches_pkey |           737280
 2017-02-09 10:44:40.886318+01 | 1486633480.88632 | pgbench_tellers_pkey  |          2170880
 2017-02-09 10:44:40.886318+01 | 1486633480.88632 | pgbench_accounts_pkey |        673882112

 2017-02-09 10:44:41.958243+01 | 1486633481.95824 | pgbench_branches_pkey |           737280
 2017-02-09 10:44:41.958243+01 | 1486633481.95824 | pgbench_tellers_pkey  |          2170880
 2017-02-09 10:44:41.958243+01 | 1486633481.95824 | pgbench_accounts_pkey |        673882112

 2017-02-09 10:44:43.032135+01 | 1486633483.03214 | pgbench_branches_pkey |           737280
 2017-02-09 10:44:43.032135+01 | 1486633483.03214 | pgbench_tellers_pkey  |          2170880
 2017-02-09 10:44:43.032135+01 | 1486633483.03214 | pgbench_accounts_pkey |        673882112

 2017-02-09 10:44:44.097825+01 | 1486633484.09783 | pgbench_branches_pkey |           737280
 2017-02-09 10:44:44.097825+01 | 1486633484.09783 | pgbench_tellers_pkey  |          2170880
 2017-02-09 10:44:44.097825+01 | 1486633484.09783 | pgbench_accounts_pkey |        673882112

 2017-02-09 10:44:45.164153+01 | 1486633485.16415 | pgbench_branches_pkey |           737280
 2017-02-09 10:44:45.164153+01 | 1486633485.16415 | pgbench_tellers_pkey  |          2170880
 2017-02-09 10:44:45.164153+01 | 1486633485.16415 | pgbench_accounts_pkey |        673882112

 2017-02-09 10:44:46.227253+01 | 1486633486.22725 | pgbench_branches_pkey |           737280
 2017-02-09 10:44:46.227253+01 | 1486633486.22725 | pgbench_tellers_pkey  |          2170880
 2017-02-09 10:44:46.227253+01 | 1486633486.22725 | pgbench_accounts_pkey |        673882112

 2017-02-09 10:44:47.304332+01 | 1486633487.30433 | pgbench_branches_pkey |           737280
 2017-02-09 10:44:47.304332+01 | 1486633487.30433 | pgbench_tellers_pkey  |          2170880
 2017-02-09 10:44:47.304332+01 | 1486633487.30433 | pgbench_accounts_pkey |        673882112

 2017-02-09 10:44:48.370823+01 | 1486633488.37082 | pgbench_branches_pkey |           737280
 2017-02-09 10:44:48.370823+01 | 1486633488.37082 | pgbench_tellers_pkey  |          2170880
 2017-02-09 10:44:48.370823+01 | 1486633488.37082 | pgbench_accounts_pkey |        673882112

 2017-02-09 10:44:49.453199+01 | 1486633489.4532 | pgbench_branches_pkey |           737280
 2017-02-09 10:44:49.453199+01 | 1486633489.4532 | pgbench_tellers_pkey  |          2170880
 2017-02-09 10:44:49.453199+01 | 1486633489.4532 | pgbench_accounts_pkey |        673882112

 2017-02-09 10:44:50.510585+01 | 1486633490.51059 | pgbench_branches_pkey |           737280
 2017-02-09 10:44:50.510585+01 | 1486633490.51059 | pgbench_tellers_pkey  |          2170880
 2017-02-09 10:44:50.510585+01 | 1486633490.51059 | pgbench_accounts_pkey |        673882112

 2017-02-09 10:44:51.586922+01 | 1486633491.58692 | pgbench_branches_pkey |           737280
 2017-02-09 10:44:51.586922+01 | 1486633491.58692 | pgbench_tellers_pkey  |          2170880
 2017-02-09 10:44:51.586922+01 | 1486633491.58692 | pgbench_accounts_pkey |        673882112

 2017-02-09 10:44:52.657907+01 | 1486633492.65791 | pgbench_branches_pkey |           737280
 2017-02-09 10:44:52.657907+01 | 1486633492.65791 | pgbench_tellers_pkey  |          2170880
 2017-02-09 10:44:52.657907+01 | 1486633492.65791 | pgbench_accounts_pkey |        673882112

 2017-02-09 10:44:53.720487+01 | 1486633493.72049 | pgbench_branches_pkey |           737280
 2017-02-09 10:44:53.720487+01 | 1486633493.72049 | pgbench_tellers_pkey  |          2170880
 2017-02-09 10:44:53.720487+01 | 1486633493.72049 | pgbench_accounts_pkey |        673882112

 2017-02-09 10:44:54.793032+01 | 1486633494.79303 | pgbench_branches_pkey |           737280
 2017-02-09 10:44:54.793032+01 | 1486633494.79303 | pgbench_tellers_pkey  |          2170880
 2017-02-09 10:44:54.793032+01 | 1486633494.79303 | pgbench_accounts_pkey |        673882112

 2017-02-09 10:44:55.869581+01 | 1486633495.86958 | pgbench_branches_pkey |           737280
 2017-02-09 10:44:55.869581+01 | 1486633495.86958 | pgbench_tellers_pkey  |          2170880
 2017-02-09 10:44:55.869581+01 | 1486633495.86958 | pgbench_accounts_pkey |        673882112

 2017-02-09 10:44:56.939653+01 | 1486633496.93965 | pgbench_branches_pkey |           737280
 2017-02-09 10:44:56.939653+01 | 1486633496.93965 | pgbench_tellers_pkey  |          2170880
 2017-02-09 10:44:56.939653+01 | 1486633496.93965 | pgbench_accounts_pkey |        673882112

 2017-02-09 10:44:58.007137+01 | 1486633498.00714 | pgbench_branches_pkey |           737280
 2017-02-09 10:44:58.007137+01 | 1486633498.00714 | pgbench_tellers_pkey  |          2170880
 2017-02-09 10:44:58.007137+01 | 1486633498.00714 | pgbench_accounts_pkey |        673882112

 2017-02-09 10:44:59.062122+01 | 1486633499.06212 | pgbench_branches_pkey |           737280
 2017-02-09 10:44:59.062122+01 | 1486633499.06212 | pgbench_tellers_pkey  |          2170880
 2017-02-09 10:44:59.062122+01 | 1486633499.06212 | pgbench_accounts_pkey |        673882112

 2017-02-09 10:45:00.125184+01 | 1486633500.12518 | pgbench_branches_pkey |           737280
 2017-02-09 10:45:00.125184+01 | 1486633500.12518 | pgbench_tellers_pkey  |          2170880
 2017-02-09 10:45:00.125184+01 | 1486633500.12518 | pgbench_accounts_pkey |        673882112

 2017-02-09 10:45:01.192258+01 | 1486633501.19226 | pgbench_branches_pkey |           737280
 2017-02-09 10:45:01.192258+01 | 1486633501.19226 | pgbench_tellers_pkey  |          2170880
 2017-02-09 10:45:01.192258+01 | 1486633501.19226 | pgbench_accounts_pkey |        673882112

 2017-02-09 10:45:02.254203+01 | 1486633502.2542 | pgbench_branches_pkey |           737280
 2017-02-09 10:45:02.254203+01 | 1486633502.2542 | pgbench_tellers_pkey  |          2170880
 2017-02-09 10:45:02.254203+01 | 1486633502.2542 | pgbench_accounts_pkey |        673882112

 2017-02-09 10:45:03.318666+01 | 1486633503.31867 | pgbench_branches_pkey |           737280
 2017-02-09 10:45:03.318666+01 | 1486633503.31867 | pgbench_tellers_pkey  |          2170880
 2017-02-09 10:45:03.318666+01 | 1486633503.31867 | pgbench_accounts_pkey |        673882112

