 2017-02-09 10:40:03.663885+01 | 1486633203.66389 |                 0 |              10 |                  5341 |                  383 |             661151 |       1308632 |            13003 |        20032333 |                     0 |      22217793 | 2017-02-09 09:54:05.959359+01

 2017-02-09 10:40:04.728115+01 | 1486633204.72812 |                 0 |              10 |                  5341 |                  383 |             661151 |       1308632 |            13003 |        20032333 |                     0 |      22225147 | 2017-02-09 09:54:05.959359+01

 2017-02-09 10:40:05.789697+01 | 1486633205.7897 |                 0 |              10 |                  5341 |                  383 |             661151 |       1308632 |            13003 |        20032333 |                     0 |      22234777 | 2017-02-09 09:54:05.959359+01

 2017-02-09 10:40:06.857374+01 | 1486633206.85737 |                 0 |              10 |                  5341 |                  383 |             661151 |       1308632 |            13003 |        20032333 |                     0 |      22242976 | 2017-02-09 09:54:05.959359+01

 2017-02-09 10:40:07.919519+01 | 1486633207.91952 |                 0 |              10 |                  5341 |                  383 |             661151 |       1308650 |            13003 |        20032333 |                     0 |      22251097 | 2017-02-09 09:54:05.959359+01

 2017-02-09 10:40:08.988944+01 | 1486633208.98894 |                 0 |              10 |                  5341 |                  383 |             661151 |       1308697 |            13003 |        20032333 |                     0 |      22260477 | 2017-02-09 09:54:05.959359+01

 2017-02-09 10:40:10.054019+01 | 1486633210.05402 |                 0 |              10 |                  5341 |                  383 |             661151 |       1308749 |            13003 |        20032333 |                     0 |      22268673 | 2017-02-09 09:54:05.959359+01

 2017-02-09 10:40:11.12464+01 | 1486633211.12464 |                 0 |              10 |                  5341 |                  383 |             661151 |       1308898 |            13003 |        20032333 |                     0 |      22276943 | 2017-02-09 09:54:05.959359+01

 2017-02-09 10:40:12.18848+01 | 1486633212.18848 |                 0 |              10 |                  5341 |                  383 |             661151 |       1309327 |            13003 |        20032333 |                     0 |      22286840 | 2017-02-09 09:54:05.959359+01

 2017-02-09 10:40:13.247594+01 | 1486633213.24759 |                 0 |              10 |                  5341 |                  383 |             661151 |       1309748 |            13004 |        20032333 |                     0 |      22294623 | 2017-02-09 09:54:05.959359+01

 2017-02-09 10:40:14.315189+01 | 1486633214.31519 |                 0 |              10 |                  5341 |                  383 |             661151 |       1310248 |            13009 |        20032333 |                     0 |      22302973 | 2017-02-09 09:54:05.959359+01

 2017-02-09 10:40:15.379788+01 | 1486633215.37979 |                 0 |              10 |                  5341 |                  383 |             661151 |       1310748 |            13014 |        20032333 |                     0 |      22311239 | 2017-02-09 09:54:05.959359+01

 2017-02-09 10:40:16.44053+01 | 1486633216.44053 |                 0 |              10 |                  5341 |                  383 |             661151 |       1311348 |            13020 |        20032333 |                     0 |      22320647 | 2017-02-09 09:54:05.959359+01

 2017-02-09 10:40:17.510181+01 | 1486633217.51018 |                 0 |              10 |                  5341 |                  383 |             661151 |       1311848 |            13025 |        20032333 |                     0 |      22328458 | 2017-02-09 09:54:05.959359+01

 2017-02-09 10:40:18.57313+01 | 1486633218.57313 |                 0 |              10 |                  5341 |                  383 |             661151 |       1312348 |            13030 |        20032333 |                     0 |      22336266 | 2017-02-09 09:54:05.959359+01

 2017-02-09 10:40:19.644598+01 | 1486633219.6446 |                 0 |              10 |                  5341 |                  383 |             661151 |       1312948 |            13036 |        20032333 |                     0 |      22345697 | 2017-02-09 09:54:05.959359+01

 2017-02-09 10:40:20.702461+01 | 1486633220.70246 |                 0 |              10 |                  5341 |                  383 |             661151 |       1313448 |            13041 |        20032333 |                     0 |      22354010 | 2017-02-09 09:54:05.959359+01

 2017-02-09 10:40:21.773062+01 | 1486633221.77306 |                 0 |              10 |                  5341 |                  383 |             661151 |       1313948 |            13046 |        20092753 |                     0 |      22362105 | 2017-02-09 09:54:05.959359+01

 2017-02-09 10:40:22.840632+01 | 1486633222.84063 |                 0 |              10 |                  5341 |                  383 |             661151 |       1314448 |            13051 |        20092753 |                     0 |      22369877 | 2017-02-09 09:54:05.959359+01

 2017-02-09 10:40:23.898049+01 | 1486633223.89805 |                 0 |              10 |                  5341 |                  383 |             661151 |       1315048 |            13057 |        20092753 |                     0 |      22379526 | 2017-02-09 09:54:05.959359+01

 2017-02-09 10:40:24.980699+01 | 1486633224.9807 |                 0 |              10 |                  5341 |                  383 |             661151 |       1315548 |            13062 |        20092753 |                     0 |      22387368 | 2017-02-09 09:54:05.959359+01

 2017-02-09 10:40:26.048432+01 | 1486633226.04843 |                 0 |              10 |                  5341 |                  383 |             661151 |       1316048 |            13067 |        20092753 |                     0 |      22395181 | 2017-02-09 09:54:05.959359+01

 2017-02-09 10:40:27.11383+01 | 1486633227.11383 |                 0 |              10 |                  5341 |                  383 |             661151 |       1316648 |            13073 |        20092753 |                     0 |      22404836 | 2017-02-09 09:54:05.959359+01

 2017-02-09 10:40:28.176507+01 | 1486633228.17651 |                 0 |              10 |                  5341 |                  383 |             661151 |       1317148 |            13078 |        20092753 |                     0 |      22412755 | 2017-02-09 09:54:05.959359+01

 2017-02-09 10:40:29.238587+01 | 1486633229.23859 |                 0 |              10 |                  5341 |                  383 |             661151 |       1317648 |            13083 |        20092753 |                     0 |      22420796 | 2017-02-09 09:54:05.959359+01

 2017-02-09 10:40:30.304635+01 | 1486633230.30464 |                 0 |              10 |                  5341 |                  383 |             661151 |       1318248 |            13089 |        20153989 |                     0 |      22430493 | 2017-02-09 09:54:05.959359+01

 2017-02-09 10:40:31.366642+01 | 1486633231.36664 |                 0 |              10 |                  5341 |                  383 |             661151 |       1318748 |            13094 |        20153989 |                     0 |      22438316 | 2017-02-09 09:54:05.959359+01

 2017-02-09 10:40:32.427487+01 | 1486633232.42749 |                 0 |              10 |                  5341 |                  383 |             661151 |       1319248 |            13099 |        20153989 |                     0 |      22446670 | 2017-02-09 09:54:05.959359+01

 2017-02-09 10:40:33.48993+01 | 1486633233.48993 |                 0 |              10 |                  5341 |                  383 |             661151 |       1319748 |            13104 |        20153989 |                     0 |      22454836 | 2017-02-09 09:54:05.959359+01

 2017-02-09 10:40:34.558503+01 | 1486633234.5585 |                 0 |              10 |                  5341 |                  383 |             661151 |       1320348 |            13110 |        20153989 |                     0 |      22464536 | 2017-02-09 09:54:05.959359+01

 2017-02-09 10:40:35.624112+01 | 1486633235.62411 |                 0 |              10 |                  5341 |                  383 |             661151 |       1320848 |            13115 |        20153989 |                     0 |      22472574 | 2017-02-09 09:54:05.959359+01

 2017-02-09 10:40:36.68486+01 | 1486633236.68486 |                 0 |              10 |                  5341 |                  383 |             661151 |       1321348 |            13120 |        20153989 |                     0 |      22480402 | 2017-02-09 09:54:05.959359+01

 2017-02-09 10:40:37.73666+01 | 1486633237.73666 |                 0 |              10 |                  5341 |                  383 |             661151 |       1321948 |            13126 |        20153989 |                     0 |      22490067 | 2017-02-09 09:54:05.959359+01

 2017-02-09 10:40:38.804673+01 | 1486633238.80467 |                 0 |              10 |                  5341 |                  383 |             661151 |       1322448 |            13131 |        20215225 |                     0 |      22497760 | 2017-02-09 09:54:05.959359+01

 2017-02-09 10:40:39.867293+01 | 1486633239.86729 |                 0 |              10 |                  5341 |                  383 |             661151 |       1322948 |            13136 |        20215225 |                     0 |      22505768 | 2017-02-09 09:54:05.959359+01

 2017-02-09 10:40:40.940886+01 | 1486633240.94089 |                 0 |              10 |                  5341 |                  383 |             661151 |       1323448 |            13141 |        20215225 |                     0 |      22513936 | 2017-02-09 09:54:05.959359+01

 2017-02-09 10:40:42.008659+01 | 1486633242.00866 |                 0 |              10 |                  5341 |                  383 |             661151 |       1324048 |            13147 |        20215225 |                     0 |      22523940 | 2017-02-09 09:54:05.959359+01

 2017-02-09 10:40:43.074598+01 | 1486633243.0746 |                 0 |              10 |                  5341 |                  383 |             661151 |       1324548 |            13152 |        20215225 |                     0 |      22531991 | 2017-02-09 09:54:05.959359+01

 2017-02-09 10:40:44.142007+01 | 1486633244.14201 |                 0 |              10 |                  5341 |                  383 |             661151 |       1325048 |            13157 |        20215225 |                     0 |      22540223 | 2017-02-09 09:54:05.959359+01

 2017-02-09 10:40:45.206097+01 | 1486633245.2061 |                 0 |              10 |                  5341 |                  383 |             661151 |       1325648 |            13163 |        20215225 |                     0 |      22549923 | 2017-02-09 09:54:05.959359+01

 2017-02-09 10:40:46.274431+01 | 1486633246.27443 |                 0 |              10 |                  5341 |                  383 |             661151 |       1326148 |            13168 |        20215225 |                     0 |      22558434 | 2017-02-09 09:54:05.959359+01

 2017-02-09 10:40:47.341883+01 | 1486633247.34188 |                 0 |              10 |                  5341 |                  383 |             661151 |       1326648 |            13173 |        20276561 |                     0 |      22566731 | 2017-02-09 09:54:05.959359+01

 2017-02-09 10:40:48.403575+01 | 1486633248.40357 |                 0 |              10 |                  5341 |                  383 |             661151 |       1327248 |            13179 |        20276561 |                     0 |      22576512 | 2017-02-09 09:54:05.959359+01

 2017-02-09 10:40:49.47539+01 | 1486633249.47539 |                 0 |              10 |                  5341 |                  383 |             661151 |       1327748 |            13184 |        20276561 |                     0 |      22584668 | 2017-02-09 09:54:05.959359+01

 2017-02-09 10:40:50.545411+01 | 1486633250.54541 |                 0 |              10 |                  5341 |                  383 |             661151 |       1328248 |            13189 |        20276561 |                     0 |      22592836 | 2017-02-09 09:54:05.959359+01

 2017-02-09 10:40:51.620139+01 | 1486633251.62014 |                 0 |              10 |                  5341 |                  383 |             661151 |       1328848 |            13195 |        20276561 |                     0 |      22602518 | 2017-02-09 09:54:05.959359+01

 2017-02-09 10:40:52.683928+01 | 1486633252.68393 |                 0 |              10 |                  5341 |                  383 |             661151 |       1329348 |            13200 |        20276561 |                     0 |      22610693 | 2017-02-09 09:54:05.959359+01

 2017-02-09 10:40:53.756846+01 | 1486633253.75685 |                 0 |              10 |                  5341 |                  383 |             661151 |       1329848 |            13205 |        20276561 |                     0 |      22618754 | 2017-02-09 09:54:05.959359+01

 2017-02-09 10:40:54.83015+01 | 1486633254.83015 |                 0 |              10 |                  5341 |                  383 |             661151 |       1330348 |            13210 |        20276561 |                     0 |      22626822 | 2017-02-09 09:54:05.959359+01

 2017-02-09 10:40:55.892283+01 | 1486633255.89228 |                 0 |              10 |                  5341 |                  383 |             661151 |       1330948 |            13216 |        20337897 |                     0 |      22636769 | 2017-02-09 09:54:05.959359+01

 2017-02-09 10:40:56.963526+01 | 1486633256.96353 |                 0 |              10 |                  5341 |                  383 |             661151 |       1331448 |            13221 |        20337897 |                     0 |      22644906 | 2017-02-09 09:54:05.959359+01

 2017-02-09 10:40:58.025548+01 | 1486633258.02555 |                 0 |              10 |                  5341 |                  383 |             661151 |       1331948 |            13226 |        20337897 |                     0 |      22653119 | 2017-02-09 09:54:05.959359+01

 2017-02-09 10:40:59.08231+01 | 1486633259.08231 |                 0 |              10 |                  5341 |                  383 |             661151 |       1332548 |            13232 |        20337897 |                     0 |      22663089 | 2017-02-09 09:54:05.959359+01

 2017-02-09 10:41:00.143722+01 | 1486633260.14372 |                 0 |              10 |                  5341 |                  383 |             661151 |       1333048 |            13237 |        20337897 |                     0 |      22671276 | 2017-02-09 09:54:05.959359+01

 2017-02-09 10:41:01.209409+01 | 1486633261.20941 |                 0 |              10 |                  5341 |                  383 |             661151 |       1333548 |            13242 |        20337897 |                     0 |      22679333 | 2017-02-09 09:54:05.959359+01

 2017-02-09 10:41:02.281568+01 | 1486633262.28157 |                 0 |              10 |                  5341 |                  383 |             661151 |       1334148 |            13248 |        20337897 |                     0 |      22689297 | 2017-02-09 09:54:05.959359+01

 2017-02-09 10:41:03.338388+01 | 1486633263.33839 |                 0 |              10 |                  5341 |                  383 |             661151 |       1334648 |            13253 |        20337897 |                     0 |      22697398 | 2017-02-09 09:54:05.959359+01

 2017-02-09 10:41:04.402931+01 | 1486633264.40293 |                 0 |              10 |                  5341 |                  383 |             661151 |       1335148 |            13258 |        20399334 |                     0 |      22705587 | 2017-02-09 09:54:05.959359+01

 2017-02-09 10:41:05.462224+01 | 1486633265.46222 |                 0 |              10 |                  5341 |                  383 |             661151 |       1335648 |            13263 |        20399334 |                     0 |      22714110 | 2017-02-09 09:54:05.959359+01

 2017-02-09 10:41:06.522091+01 | 1486633266.52209 |                 0 |              10 |                  5341 |                  383 |             661151 |       1336248 |            13269 |        20399334 |                     0 |      22724011 | 2017-02-09 09:54:05.959359+01

 2017-02-09 10:41:07.587931+01 | 1486633267.58793 |                 0 |              10 |                  5341 |                  383 |             661151 |       1336748 |            13274 |        20399334 |                     0 |      22732555 | 2017-02-09 09:54:05.959359+01

 2017-02-09 10:41:08.649114+01 | 1486633268.64911 |                 0 |              10 |                  5341 |                  383 |             661151 |       1337248 |            13279 |        20399334 |                     0 |      22740880 | 2017-02-09 09:54:05.959359+01

 2017-02-09 10:41:09.707116+01 | 1486633269.70712 |                 0 |              10 |                  5341 |                  383 |             661151 |       1337848 |            13285 |        20399334 |                     0 |      22750672 | 2017-02-09 09:54:05.959359+01

 2017-02-09 10:41:10.777298+01 | 1486633270.7773 |                 0 |              10 |                  5341 |                  383 |             661151 |       1338348 |            13290 |        20399334 |                     0 |      22759051 | 2017-02-09 09:54:05.959359+01

 2017-02-09 10:41:11.845943+01 | 1486633271.84594 |                 0 |              10 |                  5341 |                  383 |             661151 |       1338848 |            13295 |        20399334 |                     0 |      22767255 | 2017-02-09 09:54:05.959359+01

 2017-02-09 10:41:12.905815+01 | 1486633272.90581 |                 0 |              10 |                  5341 |                  383 |             661151 |       1339348 |            13300 |        20460771 |                     0 |      22775478 | 2017-02-09 09:54:05.959359+01

 2017-02-09 10:41:13.973008+01 | 1486633273.97301 |                 0 |              10 |                  5341 |                  383 |             661151 |       1339948 |            13306 |        20460771 |                     0 |      22785300 | 2017-02-09 09:54:05.959359+01

 2017-02-09 10:41:15.032627+01 | 1486633275.03263 |                 0 |              10 |                  5341 |                  383 |             661151 |       1340448 |            13311 |        20460771 |                     0 |      22793606 | 2017-02-09 09:54:05.959359+01

 2017-02-09 10:41:16.103907+01 | 1486633276.10391 |                 0 |              10 |                  5341 |                  383 |             661151 |       1340948 |            13316 |        20460771 |                     0 |      22801766 | 2017-02-09 09:54:05.959359+01

 2017-02-09 10:41:17.166945+01 | 1486633277.16694 |                 0 |              10 |                  5341 |                  383 |             661151 |       1341548 |            13322 |        20460771 |                     0 |      22811500 | 2017-02-09 09:54:05.959359+01

 2017-02-09 10:41:18.23898+01 | 1486633278.23898 |                 0 |              10 |                  5341 |                  383 |             661151 |       1342048 |            13327 |        20460771 |                     0 |      22819526 | 2017-02-09 09:54:05.959359+01

 2017-02-09 10:41:19.306913+01 | 1486633279.30691 |                 0 |              10 |                  5341 |                  383 |             661151 |       1342548 |            13332 |        20460771 |                     0 |      22827589 | 2017-02-09 09:54:05.959359+01

 2017-02-09 10:41:20.362884+01 | 1486633280.36288 |                 0 |              10 |                  5341 |                  383 |             661151 |       1343148 |            13338 |        20460771 |                     0 |      22837159 | 2017-02-09 09:54:05.959359+01

 2017-02-09 10:41:21.427652+01 | 1486633281.42765 |                 0 |              10 |                  5341 |                  383 |             661151 |       1343648 |            13343 |        20521907 |                     0 |      22845514 | 2017-02-09 09:54:05.959359+01

 2017-02-09 10:41:22.498971+01 | 1486633282.49897 |                 0 |              10 |                  5341 |                  383 |             661151 |       1344148 |            13348 |        20521907 |                     0 |      22853441 | 2017-02-09 09:54:05.959359+01

 2017-02-09 10:41:23.563898+01 | 1486633283.5639 |                 0 |              10 |                  5341 |                  383 |             661151 |       1344648 |            13353 |        20521907 |                     0 |      22861332 | 2017-02-09 09:54:05.959359+01

 2017-02-09 10:41:24.620678+01 | 1486633284.62068 |                 0 |              10 |                  5341 |                  383 |             661151 |       1345248 |            13359 |        20521907 |                     0 |      22870985 | 2017-02-09 09:54:05.959359+01

 2017-02-09 10:41:25.697447+01 | 1486633285.69745 |                 0 |              10 |                  5341 |                  383 |             661151 |       1345748 |            13364 |        20521907 |                     0 |      22878747 | 2017-02-09 09:54:05.959359+01

 2017-02-09 10:41:26.7567+01 | 1486633286.7567 |                 0 |              10 |                  5341 |                  383 |             661151 |       1346248 |            13369 |        20521907 |                     0 |      22886699 | 2017-02-09 09:54:05.959359+01

 2017-02-09 10:41:27.82359+01 | 1486633287.82359 |                 0 |              10 |                  5341 |                  383 |             661151 |       1346848 |            13375 |        20521907 |                     0 |      22896265 | 2017-02-09 09:54:05.959359+01

 2017-02-09 10:41:28.88644+01 | 1486633288.88644 |                 0 |              10 |                  5341 |                  383 |             661151 |       1347348 |            13380 |        20521907 |                     0 |      22904491 | 2017-02-09 09:54:05.959359+01

 2017-02-09 10:41:29.983139+01 | 1486633289.98314 |                 0 |              10 |                  5341 |                  383 |             661151 |       1347848 |            13385 |        20582944 |                     0 |      22912505 | 2017-02-09 09:54:05.959359+01

 2017-02-09 10:41:31.046419+01 | 1486633291.04642 |                 0 |              10 |                  5341 |                  383 |             661151 |       1348448 |            13391 |        20582944 |                     0 |      22922189 | 2017-02-09 09:54:05.959359+01

 2017-02-09 10:41:32.112595+01 | 1486633292.1126 |                 0 |              10 |                  5341 |                  383 |             661151 |       1348948 |            13396 |        20582944 |                     0 |      22929955 | 2017-02-09 09:54:05.959359+01

 2017-02-09 10:41:33.181983+01 | 1486633293.18198 |                 0 |              10 |                  5341 |                  383 |             661151 |       1349448 |            13401 |        20582944 |                     0 |      22937834 | 2017-02-09 09:54:05.959359+01

 2017-02-09 10:41:34.243249+01 | 1486633294.24325 |                 0 |              10 |                  5341 |                  383 |             661151 |       1350048 |            13407 |        20582944 |                     0 |      22947370 | 2017-02-09 09:54:05.959359+01

 2017-02-09 10:41:35.312263+01 | 1486633295.31226 |                 0 |              10 |                  5341 |                  383 |             661151 |       1350548 |            13412 |        20582944 |                     0 |      22955104 | 2017-02-09 09:54:05.959359+01

 2017-02-09 10:41:36.374732+01 | 1486633296.37473 |                 0 |              10 |                  5341 |                  383 |             661151 |       1351048 |            13417 |        20582944 |                     0 |      22962350 | 2017-02-09 09:54:05.959359+01

 2017-02-09 10:41:37.429543+01 | 1486633297.42954 |                 0 |              10 |                  5341 |                  383 |             661151 |       1351548 |            13422 |        20582944 |                     0 |      22970146 | 2017-02-09 09:54:05.959359+01

 2017-02-09 10:41:38.501164+01 | 1486633298.50116 |                 0 |              10 |                  5341 |                  383 |             661151 |       1352148 |            13428 |        20582944 |                     0 |      22979481 | 2017-02-09 09:54:05.959359+01

 2017-02-09 10:41:39.564003+01 | 1486633299.564 |                 0 |              10 |                  5341 |                  383 |             661151 |       1352648 |            13433 |        20644080 |                     0 |      22987785 | 2017-02-09 09:54:05.959359+01

 2017-02-09 10:41:40.647058+01 | 1486633300.64706 |                 0 |              10 |                  5341 |                  383 |             661151 |       1353148 |            13438 |        20644080 |                     0 |      22995683 | 2017-02-09 09:54:05.959359+01

 2017-02-09 10:41:41.705989+01 | 1486633301.70599 |                 0 |              10 |                  5341 |                  383 |             661151 |       1353748 |            13444 |        20644080 |                     0 |      23005110 | 2017-02-09 09:54:05.959359+01

 2017-02-09 10:41:42.76843+01 | 1486633302.76843 |                 0 |              10 |                  5341 |                  383 |             661151 |       1354248 |            13449 |        20644080 |                     0 |      23013001 | 2017-02-09 09:54:05.959359+01

 2017-02-09 10:41:43.828723+01 | 1486633303.82872 |                 0 |              10 |                  5341 |                  383 |             661151 |       1354748 |            13454 |        20644080 |                     0 |      23020969 | 2017-02-09 09:54:05.959359+01

 2017-02-09 10:41:44.889599+01 | 1486633304.8896 |                 0 |              10 |                  5341 |                  383 |             661151 |       1355348 |            13460 |        20644080 |                     0 |      23030848 | 2017-02-09 09:54:05.959359+01

 2017-02-09 10:41:45.944917+01 | 1486633305.94492 |                 0 |              10 |                  5341 |                  383 |             661151 |       1355848 |            13465 |        20644080 |                     0 |      23038856 | 2017-02-09 09:54:05.959359+01

 2017-02-09 10:41:47.009711+01 | 1486633307.00971 |                 0 |              10 |                  5341 |                  383 |             661151 |       1356348 |            13470 |        20705617 |                     0 |      23047076 | 2017-02-09 09:54:05.959359+01

 2017-02-09 10:41:48.084323+01 | 1486633308.08432 |                 0 |              10 |                  5341 |                  383 |             661151 |       1356848 |            13475 |        20705617 |                     0 |      23055236 | 2017-02-09 09:54:05.959359+01

 2017-02-09 10:41:49.145337+01 | 1486633309.14534 |                 0 |              10 |                  5341 |                  383 |             661151 |       1357448 |            13481 |        20705617 |                     0 |      23065029 | 2017-02-09 09:54:05.959359+01

 2017-02-09 10:41:50.211285+01 | 1486633310.21129 |                 0 |              10 |                  5341 |                  383 |             661151 |       1357948 |            13486 |        20705617 |                     0 |      23073430 | 2017-02-09 09:54:05.959359+01

 2017-02-09 10:41:51.265994+01 | 1486633311.26599 |                 0 |              10 |                  5341 |                  383 |             661151 |       1358448 |            13491 |        20705617 |                     0 |      23081658 | 2017-02-09 09:54:05.959359+01

 2017-02-09 10:41:52.339735+01 | 1486633312.33974 |                 0 |              10 |                  5341 |                  383 |             661151 |       1359048 |            13497 |        20705617 |                     0 |      23091111 | 2017-02-09 09:54:05.959359+01

 2017-02-09 10:41:53.403908+01 | 1486633313.40391 |                 0 |              10 |                  5341 |                  383 |             661151 |       1359548 |            13502 |        20705617 |                     0 |      23099359 | 2017-02-09 09:54:05.959359+01

 2017-02-09 10:41:54.481812+01 | 1486633314.48181 |                 0 |              10 |                  5341 |                  383 |             661151 |       1360048 |            13507 |        20705617 |                     0 |      23107677 | 2017-02-09 09:54:05.959359+01

 2017-02-09 10:41:55.543685+01 | 1486633315.54368 |                 0 |              10 |                  5341 |                  383 |             661151 |       1360548 |            13512 |        20767354 |                     0 |      23116150 | 2017-02-09 09:54:05.959359+01

 2017-02-09 10:41:56.614009+01 | 1486633316.61401 |                 0 |              10 |                  5341 |                  383 |             661151 |       1361148 |            13518 |        20767354 |                     0 |      23126128 | 2017-02-09 09:54:05.959359+01

 2017-02-09 10:41:57.679034+01 | 1486633317.67903 |                 0 |              10 |                  5341 |                  383 |             661151 |       1361648 |            13523 |        20767354 |                     0 |      23134361 | 2017-02-09 09:54:05.959359+01

 2017-02-09 10:41:58.740217+01 | 1486633318.74022 |                 0 |              10 |                  5341 |                  383 |             661151 |       1362148 |            13528 |        20767354 |                     0 |      23142717 | 2017-02-09 09:54:05.959359+01

 2017-02-09 10:41:59.799761+01 | 1486633319.79976 |                 0 |              10 |                  5341 |                  383 |             661151 |       1362748 |            13534 |        20767354 |                     0 |      23152852 | 2017-02-09 09:54:05.959359+01

 2017-02-09 10:42:00.857119+01 | 1486633320.85712 |                 0 |              10 |                  5341 |                  383 |             661151 |       1363248 |            13539 |        20767354 |                     0 |      23161196 | 2017-02-09 09:54:05.959359+01

 2017-02-09 10:42:01.929995+01 | 1486633321.93 |                 0 |              10 |                  5341 |                  383 |             661151 |       1363748 |            13544 |        20767354 |                     0 |      23169630 | 2017-02-09 09:54:05.959359+01

 2017-02-09 10:42:02.995156+01 | 1486633322.99516 |                 0 |              10 |                  5341 |                  383 |             661151 |       1364348 |            13550 |        20828990 |                     0 |      23179629 | 2017-02-09 09:54:05.959359+01

 2017-02-09 10:42:04.06296+01 | 1486633324.06296 |                 0 |              10 |                  5341 |                  383 |             661151 |       1364848 |            13555 |        20828990 |                     0 |      23187979 | 2017-02-09 09:54:05.959359+01

 2017-02-09 10:42:05.138951+01 | 1486633325.13895 |                 0 |              10 |                  5341 |                  383 |             661151 |       1365348 |            13560 |        20828990 |                     0 |      23196369 | 2017-02-09 09:54:05.959359+01

 2017-02-09 10:42:06.202428+01 | 1486633326.20243 |                 0 |              10 |                  5341 |                  383 |             661151 |       1365948 |            13566 |        20828990 |                     0 |      23206595 | 2017-02-09 09:54:05.959359+01

 2017-02-09 10:42:07.263494+01 | 1486633327.26349 |                 0 |              10 |                  5341 |                  383 |             661151 |       1366448 |            13571 |        20828990 |                     0 |      23215083 | 2017-02-09 09:54:05.959359+01

 2017-02-09 10:42:08.327343+01 | 1486633328.32734 |                 0 |              10 |                  5341 |                  383 |             661151 |       1366948 |            13576 |        20828990 |                     0 |      23223410 | 2017-02-09 09:54:05.959359+01

 2017-02-09 10:42:09.389744+01 | 1486633329.38974 |                 0 |              10 |                  5341 |                  383 |             661151 |       1367448 |            13581 |        20828990 |                     0 |      23231783 | 2017-02-09 09:54:05.959359+01

 2017-02-09 10:42:10.446875+01 | 1486633330.44688 |                 0 |              10 |                  5341 |                  383 |             661151 |       1368048 |            13587 |        20890626 |                     0 |      23241987 | 2017-02-09 09:54:05.959359+01

 2017-02-09 10:42:11.523401+01 | 1486633331.5234 |                 0 |              10 |                  5341 |                  383 |             661151 |       1368548 |            13592 |        20890626 |                     0 |      23250303 | 2017-02-09 09:54:05.959359+01

 2017-02-09 10:42:12.582608+01 | 1486633332.58261 |                 0 |              10 |                  5341 |                  383 |             661151 |       1369048 |            13597 |        20890626 |                     0 |      23258744 | 2017-02-09 09:54:05.959359+01

 2017-02-09 10:42:13.651931+01 | 1486633333.65193 |                 0 |              10 |                  5341 |                  383 |             661151 |       1369648 |            13603 |        20890626 |                     0 |      23268965 | 2017-02-09 09:54:05.959359+01

 2017-02-09 10:42:14.714092+01 | 1486633334.71409 |                 0 |              10 |                  5341 |                  383 |             661151 |       1370148 |            13608 |        20890626 |                     0 |      23277461 | 2017-02-09 09:54:05.959359+01

 2017-02-09 10:42:15.778901+01 | 1486633335.7789 |                 0 |              10 |                  5341 |                  383 |             661151 |       1370648 |            13613 |        20890626 |                     0 |      23285814 | 2017-02-09 09:54:05.959359+01

 2017-02-09 10:42:16.844949+01 | 1486633336.84495 |                 0 |              10 |                  5341 |                  383 |             661151 |       1371148 |            13618 |        20890626 |                     0 |      23294309 | 2017-02-09 09:54:05.959359+01

 2017-02-09 10:42:17.917042+01 | 1486633337.91704 |                 0 |              10 |                  5341 |                  383 |             661151 |       1371748 |            13624 |        20890626 |                     0 |      23304464 | 2017-02-09 09:54:05.959359+01

 2017-02-09 10:42:18.99599+01 | 1486633338.99599 |                 0 |              10 |                  5341 |                  383 |             661151 |       1372248 |            13629 |        20952262 |                     0 |      23312898 | 2017-02-09 09:54:05.959359+01

 2017-02-09 10:42:20.071798+01 | 1486633340.0718 |                 0 |              10 |                  5341 |                  383 |             661151 |       1372748 |            13634 |        20952262 |                     0 |      23321448 | 2017-02-09 09:54:05.959359+01

 2017-02-09 10:42:21.143694+01 | 1486633341.14369 |                 0 |              10 |                  5341 |                  383 |             661151 |       1373348 |            13640 |        20952262 |                     0 |      23331626 | 2017-02-09 09:54:05.959359+01

 2017-02-09 10:42:22.20187+01 | 1486633342.20187 |                 0 |              10 |                  5341 |                  383 |             661151 |       1373848 |            13645 |        20952262 |                     0 |      23340049 | 2017-02-09 09:54:05.959359+01

 2017-02-09 10:42:23.259103+01 | 1486633343.2591 |                 0 |              10 |                  5341 |                  383 |             661151 |       1374348 |            13650 |        20952262 |                     0 |      23348468 | 2017-02-09 09:54:05.959359+01

 2017-02-09 10:42:24.330416+01 | 1486633344.33042 |                 0 |              10 |                  5341 |                  383 |             661151 |       1374948 |            13656 |        20952262 |                     0 |      23358679 | 2017-02-09 09:54:05.959359+01

 2017-02-09 10:42:25.389421+01 | 1486633345.38942 |                 0 |              10 |                  5341 |                  383 |             661151 |       1375448 |            13661 |        20952262 |                     0 |      23367289 | 2017-02-09 09:54:05.959359+01

 2017-02-09 10:42:26.459905+01 | 1486633346.4599 |                 0 |              10 |                  5341 |                  383 |             661151 |       1375948 |            13666 |        21013798 |                     0 |      23375726 | 2017-02-09 09:54:05.959359+01

 2017-02-09 10:42:27.522965+01 | 1486633347.52296 |                 0 |              10 |                  5341 |                  383 |             661151 |       1376548 |            13672 |        21013798 |                     0 |      23385983 | 2017-02-09 09:54:05.959359+01

 2017-02-09 10:42:28.591202+01 | 1486633348.5912 |                 0 |              10 |                  5341 |                  383 |             661151 |       1377048 |            13677 |        21013798 |                     0 |      23394408 | 2017-02-09 09:54:05.959359+01

 2017-02-09 10:42:29.656364+01 | 1486633349.65636 |                 0 |              10 |                  5341 |                  383 |             661151 |       1377548 |            13682 |        21013798 |                     0 |      23407609 | 2017-02-09 09:54:05.959359+01

 2017-02-09 10:42:30.713888+01 | 1486633350.71389 |                 0 |              10 |                  5341 |                  383 |             661151 |       1378048 |            13687 |        21013798 |                     0 |      23424605 | 2017-02-09 09:54:05.959359+01

 2017-02-09 10:42:31.784792+01 | 1486633351.78479 |                 0 |              10 |                  5341 |                  383 |             661151 |       1378648 |            13693 |        21076434 |                     0 |      23445674 | 2017-02-09 09:54:05.959359+01

 2017-02-09 10:42:32.854733+01 | 1486633352.85473 |                 0 |              10 |                  5341 |                  383 |             661151 |       1379148 |            13698 |        21076434 |                     0 |      23463719 | 2017-02-09 09:54:05.959359+01

 2017-02-09 10:42:33.921195+01 | 1486633353.9212 |                 0 |              10 |                  5341 |                  383 |             661151 |       1379648 |            13703 |        21076434 |                     0 |      23482716 | 2017-02-09 09:54:05.959359+01

 2017-02-09 10:42:34.99167+01 | 1486633354.99167 |                 0 |              10 |                  5341 |                  383 |             661151 |       1380248 |            13709 |        21076434 |                     0 |      23504070 | 2017-02-09 09:54:05.959359+01

 2017-02-09 10:42:36.058006+01 | 1486633356.05801 |                 0 |              10 |                  5341 |                  383 |             661151 |       1380748 |            13714 |        21076434 |                     0 |      23522038 | 2017-02-09 09:54:05.959359+01

 2017-02-09 10:42:37.123603+01 | 1486633357.1236 |                 0 |              10 |                  5341 |                  383 |             661151 |       1381248 |            13719 |        21076434 |                     0 |      23539963 | 2017-02-09 09:54:05.959359+01

 2017-02-09 10:42:38.186055+01 | 1486633358.18605 |                 0 |              10 |                  5341 |                  383 |             661151 |       1381548 |            13722 |        21076434 |                     0 |      23550643 | 2017-02-09 09:54:05.959359+01

 2017-02-09 10:42:39.255287+01 | 1486633359.25529 |                 0 |              10 |                  5341 |                  383 |             661151 |       1382348 |            13730 |        21138670 |                     0 |      23576824 | 2017-02-09 09:54:05.959359+01

 2017-02-09 10:42:40.320372+01 | 1486633360.32037 |                 0 |              10 |                  5341 |                  383 |             661151 |       1382848 |            13735 |        21138670 |                     0 |      23593952 | 2017-02-09 09:54:05.959359+01

 2017-02-09 10:42:41.388978+01 | 1486633361.38898 |                 0 |              10 |                  5341 |                  383 |             661151 |       1383348 |            13740 |        21138670 |                     0 |      23609523 | 2017-02-09 09:54:05.959359+01

 2017-02-09 10:42:42.465774+01 | 1486633362.46577 |                 0 |              10 |                  5341 |                  383 |             661151 |       1383948 |            13746 |        21138670 |                     0 |      23627081 | 2017-02-09 09:54:05.959359+01

 2017-02-09 10:42:43.530916+01 | 1486633363.53092 |                 0 |              10 |                  5341 |                  383 |             661151 |       1384448 |            13751 |        21138670 |                     0 |      23640548 | 2017-02-09 09:54:05.959359+01

 2017-02-09 10:42:44.594221+01 | 1486633364.59422 |                 0 |              10 |                  5341 |                  383 |             661151 |       1384948 |            13756 |        21138670 |                     0 |      23653927 | 2017-02-09 09:54:05.959359+01

 2017-02-09 10:42:45.661504+01 | 1486633365.6615 |                 0 |              10 |                  5341 |                  383 |             661151 |       1385548 |            13762 |        21138670 |                     0 |      23668672 | 2017-02-09 09:54:05.959359+01

 2017-02-09 10:42:46.723321+01 | 1486633366.72332 |                 0 |              10 |                  5341 |                  383 |             661151 |       1386048 |            13767 |        21138670 |                     0 |      23680557 | 2017-02-09 09:54:05.959359+01

 2017-02-09 10:42:47.78469+01 | 1486633367.78469 |                 0 |              10 |                  5341 |                  383 |             661151 |       1386548 |            13772 |        21138670 |                     0 |      23690491 | 2017-02-09 09:54:05.959359+01

 2017-02-09 10:42:48.844193+01 | 1486633368.84419 |                 0 |              10 |                  5341 |                  383 |             661151 |       1387148 |            13778 |        21199306 |                     0 |      23702040 | 2017-02-09 09:54:05.959359+01

 2017-02-09 10:42:49.908588+01 | 1486633369.90859 |                 0 |              10 |                  5341 |                  383 |             661151 |       1387648 |            13783 |        21199306 |                     0 |      23711764 | 2017-02-09 09:54:05.959359+01

 2017-02-09 10:42:50.986405+01 | 1486633370.9864 |                 0 |              10 |                  5341 |                  383 |             661151 |       1388148 |            13788 |        21199306 |                     0 |      23721006 | 2017-02-09 09:54:05.959359+01

 2017-02-09 10:42:52.049686+01 | 1486633372.04969 |                 0 |              10 |                  5341 |                  383 |             661151 |       1388748 |            13794 |        21199306 |                     0 |      23732527 | 2017-02-09 09:54:05.959359+01

 2017-02-09 10:42:53.132677+01 | 1486633373.13268 |                 0 |              10 |                  5341 |                  383 |             661151 |       1389248 |            13799 |        21199306 |                     0 |      23741295 | 2017-02-09 09:54:05.959359+01

 2017-02-09 10:42:54.199578+01 | 1486633374.19958 |                 0 |              10 |                  5341 |                  383 |             661151 |       1389748 |            13804 |        21199306 |                     0 |      23750248 | 2017-02-09 09:54:05.959359+01

 2017-02-09 10:42:55.272287+01 | 1486633375.27229 |                 0 |              10 |                  5341 |                  383 |             661151 |       1390348 |            13810 |        21199306 |                     0 |      23761012 | 2017-02-09 09:54:05.959359+01

 2017-02-09 10:42:56.334408+01 | 1486633376.33441 |                 0 |              10 |                  5341 |                  383 |             661151 |       1390848 |            13815 |        21199306 |                     0 |      23770256 | 2017-02-09 09:54:05.959359+01

 2017-02-09 10:42:57.406978+01 | 1486633377.40698 |                 0 |              10 |                  5341 |                  383 |             661151 |       1391348 |            13820 |        21199306 |                     0 |      23779133 | 2017-02-09 09:54:05.959359+01

 2017-02-09 10:42:58.476839+01 | 1486633378.47684 |                 0 |              10 |                  5341 |                  383 |             661151 |       1391848 |            13825 |        21199306 |                     0 |      23787998 | 2017-02-09 09:54:05.959359+01

 2017-02-09 10:42:59.545181+01 | 1486633379.54518 |                 0 |              10 |                  5341 |                  383 |             661151 |       1392448 |            13831 |        21259542 |                     0 |      23798613 | 2017-02-09 09:54:05.959359+01

 2017-02-09 10:43:00.630976+01 | 1486633380.63098 |                 0 |              10 |                  5341 |                  383 |             661151 |       1392948 |            13836 |        21259542 |                     0 |      23807359 | 2017-02-09 09:54:05.959359+01

 2017-02-09 10:43:01.69558+01 | 1486633381.69558 |                 0 |              10 |                  5341 |                  383 |             661151 |       1393548 |            13842 |        21259542 |                     0 |      23817979 | 2017-02-09 09:54:05.959359+01

 2017-02-09 10:43:02.754836+01 | 1486633382.75484 |                 0 |              10 |                  5341 |                  383 |             661151 |       1394048 |            13847 |        21259542 |                     0 |      23826664 | 2017-02-09 09:54:05.959359+01

 2017-02-09 10:43:03.831234+01 | 1486633383.83123 |                 0 |              10 |                  5341 |                  383 |             661151 |       1394548 |            13852 |        21259542 |                     0 |      23835826 | 2017-02-09 09:54:05.959359+01

 2017-02-09 10:43:04.900082+01 | 1486633384.90008 |                 0 |              10 |                  5341 |                  383 |             661151 |       1395048 |            13857 |        21259542 |                     0 |      23844406 | 2017-02-09 09:54:05.959359+01

 2017-02-09 10:43:05.974421+01 | 1486633385.97442 |                 0 |              10 |                  5341 |                  383 |             661151 |       1395648 |            13863 |        21259542 |                     0 |      23854673 | 2017-02-09 09:54:05.959359+01

 2017-02-09 10:43:07.028065+01 | 1486633387.02806 |                 0 |              10 |                  5341 |                  383 |             661151 |       1396148 |            13868 |        21259542 |                     0 |      23863223 | 2017-02-09 09:54:05.959359+01

 2017-02-09 10:43:08.114414+01 | 1486633388.11441 |                 0 |              10 |                  5341 |                  383 |             661151 |       1396648 |            13873 |        21259542 |                     0 |      23871935 | 2017-02-09 09:54:05.959359+01

 2017-02-09 10:43:09.17455+01 | 1486633389.17455 |                 0 |              10 |                  5341 |                  383 |             661151 |       1397248 |            13879 |        21320478 |                     0 |      23882414 | 2017-02-09 09:54:05.959359+01

 2017-02-09 10:43:10.235158+01 | 1486633390.23516 |                 0 |              10 |                  5341 |                  383 |             661151 |       1397748 |            13884 |        21320478 |                     0 |      23891427 | 2017-02-09 09:54:05.959359+01

 2017-02-09 10:43:11.296705+01 | 1486633391.29671 |                 0 |              10 |                  5341 |                  383 |             661151 |       1398248 |            13889 |        21320478 |                     0 |      23899982 | 2017-02-09 09:54:05.959359+01

 2017-02-09 10:43:12.352596+01 | 1486633392.3526 |                 0 |              10 |                  5341 |                  383 |             661151 |       1398848 |            13895 |        21320478 |                     0 |      23910383 | 2017-02-09 09:54:05.959359+01

 2017-02-09 10:43:13.420426+01 | 1486633393.42043 |                 0 |              10 |                  5341 |                  383 |             661151 |       1399348 |            13900 |        21320478 |                     0 |      23918885 | 2017-02-09 09:54:05.959359+01

 2017-02-09 10:43:14.485978+01 | 1486633394.48598 |                 0 |              10 |                  5341 |                  383 |             661151 |       1399848 |            13905 |        21320478 |                     0 |      23927343 | 2017-02-09 09:54:05.959359+01

 2017-02-09 10:43:15.553825+01 | 1486633395.55382 |                 0 |              10 |                  5341 |                  383 |             661151 |       1400348 |            13910 |        21320478 |                     0 |      23936378 | 2017-02-09 09:54:05.959359+01

 2017-02-09 10:43:16.61566+01 | 1486633396.61566 |                 0 |              10 |                  5341 |                  383 |             661151 |       1400948 |            13916 |        21320478 |                     0 |      23946712 | 2017-02-09 09:54:05.959359+01

 2017-02-09 10:43:17.689817+01 | 1486633397.68982 |                 0 |              10 |                  5341 |                  383 |             661151 |       1401448 |            13921 |        21320478 |                     0 |      23955379 | 2017-02-09 09:54:05.959359+01

 2017-02-09 10:43:18.759764+01 | 1486633398.75976 |                 0 |              10 |                  5341 |                  383 |             661151 |       1401948 |            13926 |        21381214 |                     0 |      23964082 | 2017-02-09 09:54:05.959359+01

 2017-02-09 10:43:19.82694+01 | 1486633399.82694 |                 0 |              10 |                  5341 |                  383 |             661151 |       1402548 |            13932 |        21381214 |                     0 |      23974519 | 2017-02-09 09:54:05.959359+01

 2017-02-09 10:43:20.887672+01 | 1486633400.88767 |                 0 |              10 |                  5341 |                  383 |             661151 |       1403048 |            13937 |        21381214 |                     0 |      23982979 | 2017-02-09 09:54:05.959359+01

 2017-02-09 10:43:21.984764+01 | 1486633401.98476 |                 0 |              10 |                  5341 |                  383 |             661151 |       1403548 |            13942 |        21381214 |                     0 |      23992000 | 2017-02-09 09:54:05.959359+01

 2017-02-09 10:43:23.04042+01 | 1486633403.04042 |                 0 |              10 |                  5341 |                  383 |             661151 |       1404148 |            13948 |        21381214 |                     0 |      24002612 | 2017-02-09 09:54:05.959359+01

 2017-02-09 10:43:24.115536+01 | 1486633404.11554 |                 0 |              10 |                  5341 |                  383 |             661151 |       1404648 |            13953 |        21381214 |                     0 |      24011261 | 2017-02-09 09:54:05.959359+01

 2017-02-09 10:43:25.183511+01 | 1486633405.18351 |                 0 |              10 |                  5341 |                  383 |             661151 |       1405148 |            13958 |        21381214 |                     0 |      24019724 | 2017-02-09 09:54:05.959359+01

 2017-02-09 10:43:26.24443+01 | 1486633406.24443 |                 0 |              10 |                  5341 |                  383 |             661151 |       1405748 |            13964 |        21381214 |                     0 |      24030029 | 2017-02-09 09:54:05.959359+01

 2017-02-09 10:43:27.30748+01 | 1486633407.30748 |                 0 |              10 |                  5341 |                  383 |             661151 |       1406248 |            13969 |        21381214 |                     0 |      24038709 | 2017-02-09 09:54:05.959359+01

 2017-02-09 10:43:28.371507+01 | 1486633408.37151 |                 0 |              10 |                  5341 |                  383 |             661151 |       1406748 |            13974 |        21442050 |                     0 |      24047611 | 2017-02-09 09:54:05.959359+01

 2017-02-09 10:43:29.432067+01 | 1486633409.43207 |                 0 |              10 |                  5341 |                  383 |             661151 |       1407248 |            13979 |        21442050 |                     0 |      24056142 | 2017-02-09 09:54:05.959359+01

 2017-02-09 10:43:30.502618+01 | 1486633410.50262 |                 0 |              10 |                  5341 |                  383 |             661151 |       1407848 |            13985 |        21442050 |                     0 |      24066704 | 2017-02-09 09:54:05.959359+01

 2017-02-09 10:43:31.566133+01 | 1486633411.56613 |                 0 |              10 |                  5341 |                  383 |             661151 |       1408348 |            13990 |        21442050 |                     0 |      24075240 | 2017-02-09 09:54:05.959359+01

 2017-02-09 10:43:32.635184+01 | 1486633412.63518 |                 0 |              10 |                  5341 |                  383 |             661151 |       1408848 |            13995 |        21442050 |                     0 |      24083796 | 2017-02-09 09:54:05.959359+01

 2017-02-09 10:43:33.71124+01 | 1486633413.71124 |                 0 |              10 |                  5341 |                  383 |             661151 |       1409448 |            14001 |        21442050 |                     0 |      24094655 | 2017-02-09 09:54:05.959359+01

 2017-02-09 10:43:34.778364+01 | 1486633414.77836 |                 0 |              10 |                  5341 |                  383 |             661151 |       1409948 |            14006 |        21442050 |                     0 |      24103369 | 2017-02-09 09:54:05.959359+01

 2017-02-09 10:43:35.848319+01 | 1486633415.84832 |                 0 |              10 |                  5341 |                  383 |             661151 |       1410448 |            14011 |        21442050 |                     0 |      24111783 | 2017-02-09 09:54:05.959359+01

 2017-02-09 10:43:36.917451+01 | 1486633416.91745 |                 0 |              10 |                  5341 |                  383 |             661151 |       1411048 |            14017 |        21442050 |                     0 |      24122265 | 2017-02-09 09:54:05.959359+01

 2017-02-09 10:43:37.980335+01 | 1486633417.98033 |                 0 |              10 |                  5341 |                  383 |             661151 |       1411548 |            14022 |        21502786 |                     0 |      24130683 | 2017-02-09 09:54:05.959359+01

 2017-02-09 10:43:39.040723+01 | 1486633419.04072 |                 0 |              10 |                  5341 |                  383 |             661151 |       1412048 |            14027 |        21502786 |                     0 |      24138864 | 2017-02-09 09:54:05.959359+01

 2017-02-09 10:43:40.106267+01 | 1486633420.10627 |                 0 |              10 |                  5341 |                  383 |             661151 |       1412548 |            14032 |        21502786 |                     0 |      24147138 | 2017-02-09 09:54:05.959359+01

 2017-02-09 10:43:41.172288+01 | 1486633421.17229 |                 0 |              10 |                  5341 |                  383 |             661151 |       1413148 |            14038 |        21502786 |                     0 |      24157172 | 2017-02-09 09:54:05.959359+01

 2017-02-09 10:43:42.231082+01 | 1486633422.23108 |                 0 |              10 |                  5341 |                  383 |             661151 |       1413648 |            14043 |        21502786 |                     0 |      24165626 | 2017-02-09 09:54:05.959359+01

 2017-02-09 10:43:43.296832+01 | 1486633423.29683 |                 0 |              10 |                  5341 |                  383 |             661151 |       1414148 |            14048 |        21502786 |                     0 |      24174207 | 2017-02-09 09:54:05.959359+01

 2017-02-09 10:43:44.352669+01 | 1486633424.35267 |                 0 |              10 |                  5341 |                  383 |             661151 |       1414748 |            14054 |        21502786 |                     0 |      24183877 | 2017-02-09 09:54:05.959359+01

 2017-02-09 10:43:45.42673+01 | 1486633425.42673 |                 0 |              10 |                  5341 |                  383 |             661151 |       1415248 |            14059 |        21564222 |                     0 |      24192578 | 2017-02-09 09:54:05.959359+01

 2017-02-09 10:43:46.486969+01 | 1486633426.48697 |                 0 |              10 |                  5341 |                  383 |             661151 |       1415748 |            14064 |        21564222 |                     0 |      24201088 | 2017-02-09 09:54:05.959359+01

 2017-02-09 10:43:47.5545+01 | 1486633427.5545 |                 0 |              10 |                  5341 |                  383 |             661151 |       1416248 |            14069 |        21564222 |                     0 |      24209469 | 2017-02-09 09:54:05.959359+01

 2017-02-09 10:43:48.636433+01 | 1486633428.63643 |                 0 |              10 |                  5341 |                  383 |             661151 |       1416848 |            14075 |        21564222 |                     0 |      24219676 | 2017-02-09 09:54:05.959359+01

 2017-02-09 10:43:49.696673+01 | 1486633429.69667 |                 0 |              10 |                  5341 |                  383 |             661151 |       1417348 |            14080 |        21564222 |                     0 |      24228202 | 2017-02-09 09:54:05.959359+01

 2017-02-09 10:43:50.750309+01 | 1486633430.75031 |                 0 |              10 |                  5341 |                  383 |             661151 |       1417848 |            14085 |        21564222 |                     0 |      24236477 | 2017-02-09 09:54:05.959359+01

 2017-02-09 10:43:51.820884+01 | 1486633431.82088 |                 0 |              10 |                  5341 |                  383 |             661151 |       1418448 |            14091 |        21564222 |                     0 |      24246683 | 2017-02-09 09:54:05.959359+01

 2017-02-09 10:43:52.894402+01 | 1486633432.8944 |                 0 |              10 |                  5341 |                  383 |             661151 |       1418948 |            14096 |        21564222 |                     0 |      24255120 | 2017-02-09 09:54:05.959359+01

 2017-02-09 10:43:53.966776+01 | 1486633433.96678 |                 0 |              10 |                  5341 |                  383 |             661151 |       1419448 |            14101 |        21625758 |                     0 |      24263708 | 2017-02-09 09:54:05.959359+01

 2017-02-09 10:43:55.039716+01 | 1486633435.03972 |                 0 |              10 |                  5341 |                  383 |             661151 |       1420048 |            14107 |        21625758 |                     0 |      24274057 | 2017-02-09 09:54:05.959359+01

 2017-02-09 10:43:56.10013+01 | 1486633436.10013 |                 0 |              10 |                  5341 |                  383 |             661151 |       1420548 |            14112 |        21625758 |                     0 |      24282501 | 2017-02-09 09:54:05.959359+01

 2017-02-09 10:43:57.159985+01 | 1486633437.15999 |                 0 |              10 |                  5341 |                  383 |             661151 |       1421048 |            14117 |        21625758 |                     0 |      24290900 | 2017-02-09 09:54:05.959359+01

 2017-02-09 10:43:58.217638+01 | 1486633438.21764 |                 0 |              10 |                  5341 |                  383 |             661151 |       1421548 |            14122 |        21625758 |                     0 |      24299479 | 2017-02-09 09:54:05.959359+01

 2017-02-09 10:43:59.291096+01 | 1486633439.2911 |                 0 |              10 |                  5341 |                  383 |             661151 |       1422148 |            14128 |        21625758 |                     0 |      24309870 | 2017-02-09 09:54:05.959359+01

 2017-02-09 10:44:00.357712+01 | 1486633440.35771 |                 0 |              10 |                  5341 |                  383 |             661151 |       1422648 |            14133 |        21625758 |                     0 |      24318338 | 2017-02-09 09:54:05.959359+01

 2017-02-09 10:44:01.42147+01 | 1486633441.42147 |                 0 |              10 |                  5341 |                  383 |             661151 |       1423148 |            14138 |        21687395 |                     0 |      24326882 | 2017-02-09 09:54:05.959359+01

 2017-02-09 10:44:02.481284+01 | 1486633442.48128 |                 0 |              10 |                  5341 |                  383 |             661151 |       1423748 |            14144 |        21687395 |                     0 |      24337253 | 2017-02-09 09:54:05.959359+01

 2017-02-09 10:44:03.539017+01 | 1486633443.53902 |                 0 |              10 |                  5341 |                  383 |             661151 |       1424248 |            14149 |        21687395 |                     0 |      24345741 | 2017-02-09 09:54:05.959359+01

 2017-02-09 10:44:04.600316+01 | 1486633444.60032 |                 0 |              10 |                  5341 |                  383 |             661151 |       1424748 |            14154 |        21687395 |                     0 |      24354297 | 2017-02-09 09:54:05.959359+01

 2017-02-09 10:44:05.676025+01 | 1486633445.67602 |                 0 |              10 |                  5341 |                  383 |             661151 |       1425248 |            14159 |        21687395 |                     0 |      24362792 | 2017-02-09 09:54:05.959359+01

 2017-02-09 10:44:06.740836+01 | 1486633446.74084 |                 0 |              10 |                  5341 |                  383 |             661151 |       1425848 |            14165 |        21687395 |                     0 |      24373145 | 2017-02-09 09:54:05.959359+01

 2017-02-09 10:44:07.807057+01 | 1486633447.80706 |                 0 |              10 |                  5341 |                  383 |             661151 |       1426348 |            14170 |        21687395 |                     0 |      24381881 | 2017-02-09 09:54:05.959359+01

 2017-02-09 10:44:08.876775+01 | 1486633448.87678 |                 0 |              10 |                  5341 |                  383 |             661151 |       1426848 |            14175 |        21687395 |                     0 |      24390585 | 2017-02-09 09:54:05.959359+01

 2017-02-09 10:44:09.940994+01 | 1486633449.94099 |                 0 |              10 |                  5341 |                  383 |             661151 |       1427448 |            14181 |        21748931 |                     0 |      24400579 | 2017-02-09 09:54:05.959359+01

 2017-02-09 10:44:11.009795+01 | 1486633451.00979 |                 0 |              10 |                  5341 |                  383 |             661151 |       1427948 |            14186 |        21748931 |                     0 |      24409184 | 2017-02-09 09:54:05.959359+01

 2017-02-09 10:44:12.070771+01 | 1486633452.07077 |                 0 |              10 |                  5341 |                  383 |             661151 |       1428448 |            14191 |        21748931 |                     0 |      24417664 | 2017-02-09 09:54:05.959359+01

 2017-02-09 10:44:13.134171+01 | 1486633453.13417 |                 0 |              10 |                  5341 |                  383 |             661151 |       1429048 |            14197 |        21748931 |                     0 |      24427914 | 2017-02-09 09:54:05.959359+01

 2017-02-09 10:44:14.211049+01 | 1486633454.21105 |                 0 |              10 |                  5341 |                  383 |             661151 |       1429548 |            14202 |        21748931 |                     0 |      24436341 | 2017-02-09 09:54:05.959359+01

 2017-02-09 10:44:15.266691+01 | 1486633455.26669 |                 0 |              10 |                  5341 |                  383 |             661151 |       1430048 |            14207 |        21748931 |                     0 |      24445006 | 2017-02-09 09:54:05.959359+01

 2017-02-09 10:44:16.329139+01 | 1486633456.32914 |                 0 |              10 |                  5341 |                  383 |             661151 |       1430548 |            14212 |        21748931 |                     0 |      24453394 | 2017-02-09 09:54:05.959359+01

 2017-02-09 10:44:17.397297+01 | 1486633457.3973 |                 0 |              10 |                  5341 |                  383 |             661151 |       1431148 |            14218 |        21810567 |                     0 |      24463730 | 2017-02-09 09:54:05.959359+01

 2017-02-09 10:44:18.4707+01 | 1486633458.4707 |                 0 |              10 |                  5341 |                  383 |             661151 |       1431648 |            14223 |        21810567 |                     0 |      24472253 | 2017-02-09 09:54:05.959359+01

 2017-02-09 10:44:19.533741+01 | 1486633459.53374 |                 0 |              10 |                  5341 |                  383 |             661151 |       1432148 |            14228 |        21810567 |                     0 |      24480780 | 2017-02-09 09:54:05.959359+01

 2017-02-09 10:44:20.600384+01 | 1486633460.60038 |                 0 |              10 |                  5341 |                  383 |             661151 |       1432748 |            14234 |        21810567 |                     0 |      24491091 | 2017-02-09 09:54:05.959359+01

 2017-02-09 10:44:21.670301+01 | 1486633461.6703 |                 0 |              10 |                  5341 |                  383 |             661151 |       1433248 |            14239 |        21810567 |                     0 |      24499647 | 2017-02-09 09:54:05.959359+01

 2017-02-09 10:44:22.735179+01 | 1486633462.73518 |                 0 |              10 |                  5341 |                  383 |             661151 |       1433748 |            14244 |        21810567 |                     0 |      24508061 | 2017-02-09 09:54:05.959359+01

 2017-02-09 10:44:23.79234+01 | 1486633463.79234 |                 0 |              10 |                  5341 |                  383 |             661151 |       1434348 |            14250 |        21810567 |                     0 |      24518234 | 2017-02-09 09:54:05.959359+01

 2017-02-09 10:44:24.867452+01 | 1486633464.86745 |                 0 |              10 |                  5341 |                  383 |             661151 |       1434848 |            14255 |        21810567 |                     0 |      24526735 | 2017-02-09 09:54:05.959359+01

 2017-02-09 10:44:25.940281+01 | 1486633465.94028 |                 0 |              10 |                  5341 |                  383 |             661151 |       1435348 |            14260 |        21872104 |                     0 |      24535176 | 2017-02-09 09:54:05.959359+01

 2017-02-09 10:44:27.017814+01 | 1486633467.01781 |                 0 |              10 |                  5341 |                  383 |             661151 |       1435948 |            14266 |        21872104 |                     0 |      24545423 | 2017-02-09 09:54:05.959359+01

 2017-02-09 10:44:28.080552+01 | 1486633468.08055 |                 0 |              10 |                  5341 |                  383 |             661151 |       1436448 |            14271 |        21872104 |                     0 |      24553875 | 2017-02-09 09:54:05.959359+01

 2017-02-09 10:44:29.146197+01 | 1486633469.1462 |                 0 |              10 |                  5341 |                  383 |             661151 |       1436948 |            14276 |        21872104 |                     0 |      24562479 | 2017-02-09 09:54:05.959359+01

 2017-02-09 10:44:30.216658+01 | 1486633470.21666 |                 0 |              10 |                  5341 |                  383 |             661151 |       1437448 |            14281 |        21872104 |                     0 |      24570954 | 2017-02-09 09:54:05.959359+01

 2017-02-09 10:44:31.275556+01 | 1486633471.27556 |                 0 |              10 |                  5341 |                  383 |             661151 |       1438048 |            14287 |        21872104 |                     0 |      24581335 | 2017-02-09 09:54:05.959359+01

 2017-02-09 10:44:32.346023+01 | 1486633472.34602 |                 0 |              10 |                  5341 |                  383 |             661151 |       1438548 |            14292 |        21872104 |                     0 |      24589870 | 2017-02-09 09:54:05.959359+01

 2017-02-09 10:44:33.410167+01 | 1486633473.41017 |                 0 |              10 |                  5341 |                  383 |             661151 |       1439048 |            14297 |        21933641 |                     0 |      24598299 | 2017-02-09 09:54:05.959359+01

 2017-02-09 10:44:34.47521+01 | 1486633474.47521 |                 0 |              10 |                  5341 |                  383 |             661151 |       1439648 |            14303 |        21933641 |                     0 |      24608712 | 2017-02-09 09:54:05.959359+01

 2017-02-09 10:44:35.546506+01 | 1486633475.54651 |                 0 |              10 |                  5341 |                  383 |             661151 |       1440148 |            14308 |        21933641 |                     0 |      24617297 | 2017-02-09 09:54:05.959359+01

 2017-02-09 10:44:36.62155+01 | 1486633476.62155 |                 0 |              10 |                  5341 |                  383 |             661151 |       1440648 |            14313 |        21933641 |                     0 |      24625709 | 2017-02-09 09:54:05.959359+01

 2017-02-09 10:44:37.674417+01 | 1486633477.67442 |                 0 |              10 |                  5341 |                  383 |             661151 |       1441248 |            14319 |        21933641 |                     0 |      24635994 | 2017-02-09 09:54:05.959359+01

 2017-02-09 10:44:38.763726+01 | 1486633478.76373 |                 0 |              10 |                  5341 |                  383 |             661151 |       1441748 |            14324 |        21933641 |                     0 |      24644384 | 2017-02-09 09:54:05.959359+01

 2017-02-09 10:44:39.828682+01 | 1486633479.82868 |                 0 |              10 |                  5341 |                  383 |             661151 |       1442248 |            14329 |        21933641 |                     0 |      24652653 | 2017-02-09 09:54:05.959359+01

 2017-02-09 10:44:40.89375+01 | 1486633480.89375 |                 0 |              10 |                  5341 |                  383 |             661151 |       1442848 |            14335 |        21933641 |                     0 |      24662819 | 2017-02-09 09:54:05.959359+01

 2017-02-09 10:44:41.969877+01 | 1486633481.96988 |                 0 |              10 |                  5341 |                  383 |             661151 |       1443348 |            14340 |        21995077 |                     0 |      24670975 | 2017-02-09 09:54:05.959359+01

 2017-02-09 10:44:43.038751+01 | 1486633483.03875 |                 0 |              10 |                  5341 |                  383 |             661151 |       1443848 |            14345 |        21995077 |                     0 |      24679204 | 2017-02-09 09:54:05.959359+01

 2017-02-09 10:44:44.106985+01 | 1486633484.10699 |                 0 |              10 |                  5341 |                  383 |             661151 |       1444448 |            14351 |        21995077 |                     0 |      24688750 | 2017-02-09 09:54:05.959359+01

 2017-02-09 10:44:45.169523+01 | 1486633485.16952 |                 0 |              10 |                  5341 |                  383 |             661151 |       1444948 |            14356 |        21995077 |                     0 |      24697111 | 2017-02-09 09:54:05.959359+01

 2017-02-09 10:44:46.233639+01 | 1486633486.23364 |                 0 |              10 |                  5341 |                  383 |             661151 |       1445448 |            14361 |        21995077 |                     0 |      24704859 | 2017-02-09 09:54:05.959359+01

 2017-02-09 10:44:47.314902+01 | 1486633487.3149 |                 0 |              10 |                  5341 |                  383 |             661151 |       1445948 |            14366 |        21995077 |                     0 |      24712744 | 2017-02-09 09:54:05.959359+01

 2017-02-09 10:44:48.380178+01 | 1486633488.38018 |                 0 |              10 |                  5341 |                  383 |             661151 |       1446548 |            14372 |        21995077 |                     0 |      24722861 | 2017-02-09 09:54:05.959359+01

 2017-02-09 10:44:49.459513+01 | 1486633489.45951 |                 0 |              10 |                  5341 |                  383 |             661151 |       1447048 |            14377 |        21995077 |                     0 |      24731244 | 2017-02-09 09:54:05.959359+01

 2017-02-09 10:44:50.519965+01 | 1486633490.51996 |                 0 |              10 |                  5341 |                  383 |             661151 |       1447648 |            14383 |        22056514 |                     0 |      24741499 | 2017-02-09 09:54:05.959359+01

 2017-02-09 10:44:51.59941+01 | 1486633491.59941 |                 0 |              10 |                  5341 |                  383 |             661151 |       1448148 |            14388 |        22056514 |                     0 |      24749990 | 2017-02-09 09:54:05.959359+01

 2017-02-09 10:44:52.664209+01 | 1486633492.66421 |                 0 |              10 |                  5341 |                  383 |             661151 |       1448648 |            14393 |        22056514 |                     0 |      24758431 | 2017-02-09 09:54:05.959359+01

 2017-02-09 10:44:53.725668+01 | 1486633493.72567 |                 0 |              10 |                  5341 |                  383 |             661151 |       1449148 |            14398 |        22056514 |                     0 |      24766884 | 2017-02-09 09:54:05.959359+01

 2017-02-09 10:44:54.806435+01 | 1486633494.80644 |                 0 |              10 |                  5341 |                  383 |             661151 |       1449748 |            14404 |        22056514 |                     0 |      24777179 | 2017-02-09 09:54:05.959359+01

 2017-02-09 10:44:55.876282+01 | 1486633495.87628 |                 0 |              10 |                  5341 |                  383 |             661151 |       1450248 |            14409 |        22056514 |                     0 |      24785606 | 2017-02-09 09:54:05.959359+01

 2017-02-09 10:44:56.945567+01 | 1486633496.94557 |                 0 |              10 |                  5341 |                  383 |             661151 |       1450748 |            14414 |        22056514 |                     0 |      24794055 | 2017-02-09 09:54:05.959359+01

 2017-02-09 10:44:58.012245+01 | 1486633498.01224 |                 0 |              10 |                  5341 |                  383 |             661151 |       1451348 |            14420 |        22118050 |                     0 |      24804325 | 2017-02-09 09:54:05.959359+01

 2017-02-09 10:44:59.069689+01 | 1486633499.06969 |                 0 |              10 |                  5341 |                  383 |             661151 |       1451848 |            14425 |        22118050 |                     0 |      24812763 | 2017-02-09 09:54:05.959359+01

 2017-02-09 10:45:00.136575+01 | 1486633500.13657 |                 0 |              10 |                  5341 |                  383 |             661151 |       1452348 |            14430 |        22118050 |                     0 |      24821317 | 2017-02-09 09:54:05.959359+01

 2017-02-09 10:45:01.197481+01 | 1486633501.19748 |                 0 |              10 |                  5341 |                  383 |             661151 |       1452948 |            14436 |        22118050 |                     0 |      24831648 | 2017-02-09 09:54:05.959359+01

 2017-02-09 10:45:02.260947+01 | 1486633502.26095 |                 0 |              10 |                  5341 |                  383 |             661151 |       1453448 |            14441 |        22118050 |                     0 |      24839897 | 2017-02-09 09:54:05.959359+01

 2017-02-09 10:45:03.328814+01 | 1486633503.32881 |                 0 |              10 |                  5341 |                  383 |             661151 |       1453948 |            14446 |        22118050 |                     0 |      24848372 | 2017-02-09 09:54:05.959359+01

