 2017-02-10 15:16:19.437699+01 | 1486736179.4377 | pgbench_branches_pkey |            16384
 2017-02-10 15:16:19.437699+01 | 1486736179.4377 | pgbench_tellers_pkey  |            90112
 2017-02-10 15:16:19.437699+01 | 1486736179.4377 | pgbench_accounts_pkey |        690159616

 2017-02-10 15:16:20.490162+01 | 1486736180.49016 | pgbench_branches_pkey |            16384
 2017-02-10 15:16:20.490162+01 | 1486736180.49016 | pgbench_tellers_pkey  |            90112
 2017-02-10 15:16:20.490162+01 | 1486736180.49016 | pgbench_accounts_pkey |        690159616

 2017-02-10 15:16:21.54238+01 | 1486736181.54238 | pgbench_branches_pkey |            16384
 2017-02-10 15:16:21.54238+01 | 1486736181.54238 | pgbench_tellers_pkey  |            90112
 2017-02-10 15:16:21.54238+01 | 1486736181.54238 | pgbench_accounts_pkey |        690159616

 2017-02-10 15:16:22.597776+01 | 1486736182.59778 | pgbench_branches_pkey |            16384
 2017-02-10 15:16:22.597776+01 | 1486736182.59778 | pgbench_tellers_pkey  |            90112
 2017-02-10 15:16:22.597776+01 | 1486736182.59778 | pgbench_accounts_pkey |        690159616

 2017-02-10 15:16:23.64856+01 | 1486736183.64856 | pgbench_branches_pkey |            16384
 2017-02-10 15:16:23.64856+01 | 1486736183.64856 | pgbench_tellers_pkey  |            90112
 2017-02-10 15:16:23.64856+01 | 1486736183.64856 | pgbench_accounts_pkey |        690159616

 2017-02-10 15:16:24.700539+01 | 1486736184.70054 | pgbench_branches_pkey |            16384
 2017-02-10 15:16:24.700539+01 | 1486736184.70054 | pgbench_tellers_pkey  |            90112
 2017-02-10 15:16:24.700539+01 | 1486736184.70054 | pgbench_accounts_pkey |        690159616

 2017-02-10 15:16:25.751565+01 | 1486736185.75156 | pgbench_branches_pkey |            16384
 2017-02-10 15:16:25.751565+01 | 1486736185.75156 | pgbench_tellers_pkey  |            90112
 2017-02-10 15:16:25.751565+01 | 1486736185.75156 | pgbench_accounts_pkey |        690159616

 2017-02-10 15:16:26.802224+01 | 1486736186.80222 | pgbench_branches_pkey |            16384
 2017-02-10 15:16:26.802224+01 | 1486736186.80222 | pgbench_tellers_pkey  |            90112
 2017-02-10 15:16:26.802224+01 | 1486736186.80222 | pgbench_accounts_pkey |        690159616

 2017-02-10 15:16:27.853981+01 | 1486736187.85398 | pgbench_branches_pkey |            16384
 2017-02-10 15:16:27.853981+01 | 1486736187.85398 | pgbench_tellers_pkey  |            90112
 2017-02-10 15:16:27.853981+01 | 1486736187.85398 | pgbench_accounts_pkey |        690159616

 2017-02-10 15:16:28.904078+01 | 1486736188.90408 | pgbench_branches_pkey |            16384
 2017-02-10 15:16:28.904078+01 | 1486736188.90408 | pgbench_tellers_pkey  |            90112
 2017-02-10 15:16:28.904078+01 | 1486736188.90408 | pgbench_accounts_pkey |        690159616

 2017-02-10 15:16:29.956457+01 | 1486736189.95646 | pgbench_branches_pkey |            16384
 2017-02-10 15:16:29.956457+01 | 1486736189.95646 | pgbench_tellers_pkey  |            90112
 2017-02-10 15:16:29.956457+01 | 1486736189.95646 | pgbench_accounts_pkey |        690159616

 2017-02-10 15:16:31.006765+01 | 1486736191.00676 | pgbench_branches_pkey |            16384
 2017-02-10 15:16:31.006765+01 | 1486736191.00676 | pgbench_tellers_pkey  |            90112
 2017-02-10 15:16:31.006765+01 | 1486736191.00676 | pgbench_accounts_pkey |        690159616

 2017-02-10 15:16:32.058279+01 | 1486736192.05828 | pgbench_branches_pkey |            16384
 2017-02-10 15:16:32.058279+01 | 1486736192.05828 | pgbench_tellers_pkey  |            90112
 2017-02-10 15:16:32.058279+01 | 1486736192.05828 | pgbench_accounts_pkey |        690159616

 2017-02-10 15:16:33.112396+01 | 1486736193.1124 | pgbench_branches_pkey |            16384
 2017-02-10 15:16:33.112396+01 | 1486736193.1124 | pgbench_tellers_pkey  |            90112
 2017-02-10 15:16:33.112396+01 | 1486736193.1124 | pgbench_accounts_pkey |        690159616

 2017-02-10 15:16:34.162447+01 | 1486736194.16245 | pgbench_branches_pkey |            16384
 2017-02-10 15:16:34.162447+01 | 1486736194.16245 | pgbench_tellers_pkey  |            90112
 2017-02-10 15:16:34.162447+01 | 1486736194.16245 | pgbench_accounts_pkey |        690159616

 2017-02-10 15:16:35.212727+01 | 1486736195.21273 | pgbench_branches_pkey |            16384
 2017-02-10 15:16:35.212727+01 | 1486736195.21273 | pgbench_tellers_pkey  |            90112
 2017-02-10 15:16:35.212727+01 | 1486736195.21273 | pgbench_accounts_pkey |        690159616

 2017-02-10 15:16:36.265917+01 | 1486736196.26592 | pgbench_branches_pkey |            16384
 2017-02-10 15:16:36.265917+01 | 1486736196.26592 | pgbench_tellers_pkey  |            90112
 2017-02-10 15:16:36.265917+01 | 1486736196.26592 | pgbench_accounts_pkey |        690159616

 2017-02-10 15:16:37.327149+01 | 1486736197.32715 | pgbench_branches_pkey |            16384
 2017-02-10 15:16:37.327149+01 | 1486736197.32715 | pgbench_tellers_pkey  |            90112
 2017-02-10 15:16:37.327149+01 | 1486736197.32715 | pgbench_accounts_pkey |        690159616

 2017-02-10 15:16:38.387646+01 | 1486736198.38765 | pgbench_branches_pkey |            16384
 2017-02-10 15:16:38.387646+01 | 1486736198.38765 | pgbench_tellers_pkey  |            90112
 2017-02-10 15:16:38.387646+01 | 1486736198.38765 | pgbench_accounts_pkey |        690159616

 2017-02-10 15:16:39.439687+01 | 1486736199.43969 | pgbench_branches_pkey |            16384
 2017-02-10 15:16:39.439687+01 | 1486736199.43969 | pgbench_tellers_pkey  |            90112
 2017-02-10 15:16:39.439687+01 | 1486736199.43969 | pgbench_accounts_pkey |        690159616

 2017-02-10 15:16:40.491838+01 | 1486736200.49184 | pgbench_branches_pkey |            16384
 2017-02-10 15:16:40.491838+01 | 1486736200.49184 | pgbench_tellers_pkey  |            90112
 2017-02-10 15:16:40.491838+01 | 1486736200.49184 | pgbench_accounts_pkey |        690159616

 2017-02-10 15:16:41.549374+01 | 1486736201.54937 | pgbench_branches_pkey |            16384
 2017-02-10 15:16:41.549374+01 | 1486736201.54937 | pgbench_tellers_pkey  |            90112
 2017-02-10 15:16:41.549374+01 | 1486736201.54937 | pgbench_accounts_pkey |        690159616

 2017-02-10 15:16:42.601192+01 | 1486736202.60119 | pgbench_branches_pkey |            16384
 2017-02-10 15:16:42.601192+01 | 1486736202.60119 | pgbench_tellers_pkey  |            90112
 2017-02-10 15:16:42.601192+01 | 1486736202.60119 | pgbench_accounts_pkey |        690159616

 2017-02-10 15:16:43.658143+01 | 1486736203.65814 | pgbench_branches_pkey |            16384
 2017-02-10 15:16:43.658143+01 | 1486736203.65814 | pgbench_tellers_pkey  |            90112
 2017-02-10 15:16:43.658143+01 | 1486736203.65814 | pgbench_accounts_pkey |        690159616

 2017-02-10 15:16:44.711366+01 | 1486736204.71137 | pgbench_branches_pkey |            16384
 2017-02-10 15:16:44.711366+01 | 1486736204.71137 | pgbench_tellers_pkey  |            90112
 2017-02-10 15:16:44.711366+01 | 1486736204.71137 | pgbench_accounts_pkey |        690159616

 2017-02-10 15:16:45.763197+01 | 1486736205.7632 | pgbench_branches_pkey |            16384
 2017-02-10 15:16:45.763197+01 | 1486736205.7632 | pgbench_tellers_pkey  |            90112
 2017-02-10 15:16:45.763197+01 | 1486736205.7632 | pgbench_accounts_pkey |        690159616

 2017-02-10 15:16:46.814109+01 | 1486736206.81411 | pgbench_branches_pkey |            16384
 2017-02-10 15:16:46.814109+01 | 1486736206.81411 | pgbench_tellers_pkey  |            90112
 2017-02-10 15:16:46.814109+01 | 1486736206.81411 | pgbench_accounts_pkey |        690159616

 2017-02-10 15:16:47.866562+01 | 1486736207.86656 | pgbench_branches_pkey |            16384
 2017-02-10 15:16:47.866562+01 | 1486736207.86656 | pgbench_tellers_pkey  |            90112
 2017-02-10 15:16:47.866562+01 | 1486736207.86656 | pgbench_accounts_pkey |        690159616

 2017-02-10 15:16:48.917655+01 | 1486736208.91765 | pgbench_branches_pkey |            16384
 2017-02-10 15:16:48.917655+01 | 1486736208.91765 | pgbench_tellers_pkey  |            90112
 2017-02-10 15:16:48.917655+01 | 1486736208.91765 | pgbench_accounts_pkey |        690159616

 2017-02-10 15:16:49.968013+01 | 1486736209.96801 | pgbench_branches_pkey |            16384
 2017-02-10 15:16:49.968013+01 | 1486736209.96801 | pgbench_tellers_pkey  |            90112
 2017-02-10 15:16:49.968013+01 | 1486736209.96801 | pgbench_accounts_pkey |        690159616

 2017-02-10 15:16:51.021106+01 | 1486736211.02111 | pgbench_branches_pkey |            16384
 2017-02-10 15:16:51.021106+01 | 1486736211.02111 | pgbench_tellers_pkey  |            90112
 2017-02-10 15:16:51.021106+01 | 1486736211.02111 | pgbench_accounts_pkey |        690159616

 2017-02-10 15:16:52.072359+01 | 1486736212.07236 | pgbench_branches_pkey |            16384
 2017-02-10 15:16:52.072359+01 | 1486736212.07236 | pgbench_tellers_pkey  |            90112
 2017-02-10 15:16:52.072359+01 | 1486736212.07236 | pgbench_accounts_pkey |        690159616

 2017-02-10 15:16:53.124448+01 | 1486736213.12445 | pgbench_branches_pkey |            16384
 2017-02-10 15:16:53.124448+01 | 1486736213.12445 | pgbench_tellers_pkey  |            90112
 2017-02-10 15:16:53.124448+01 | 1486736213.12445 | pgbench_accounts_pkey |        690159616

 2017-02-10 15:16:54.176453+01 | 1486736214.17645 | pgbench_branches_pkey |            16384
 2017-02-10 15:16:54.176453+01 | 1486736214.17645 | pgbench_tellers_pkey  |            90112
 2017-02-10 15:16:54.176453+01 | 1486736214.17645 | pgbench_accounts_pkey |        690159616

 2017-02-10 15:16:55.228293+01 | 1486736215.22829 | pgbench_branches_pkey |            16384
 2017-02-10 15:16:55.228293+01 | 1486736215.22829 | pgbench_tellers_pkey  |            90112
 2017-02-10 15:16:55.228293+01 | 1486736215.22829 | pgbench_accounts_pkey |        690159616

 2017-02-10 15:16:56.280426+01 | 1486736216.28043 | pgbench_branches_pkey |            16384
 2017-02-10 15:16:56.280426+01 | 1486736216.28043 | pgbench_tellers_pkey  |            90112
 2017-02-10 15:16:56.280426+01 | 1486736216.28043 | pgbench_accounts_pkey |        690159616

 2017-02-10 15:16:57.332734+01 | 1486736217.33273 | pgbench_branches_pkey |            16384
 2017-02-10 15:16:57.332734+01 | 1486736217.33273 | pgbench_tellers_pkey  |            90112
 2017-02-10 15:16:57.332734+01 | 1486736217.33273 | pgbench_accounts_pkey |        690159616

 2017-02-10 15:16:58.38763+01 | 1486736218.38763 | pgbench_branches_pkey |            16384
 2017-02-10 15:16:58.38763+01 | 1486736218.38763 | pgbench_tellers_pkey  |            90112
 2017-02-10 15:16:58.38763+01 | 1486736218.38763 | pgbench_accounts_pkey |        690159616

 2017-02-10 15:16:59.445968+01 | 1486736219.44597 | pgbench_branches_pkey |            16384
 2017-02-10 15:16:59.445968+01 | 1486736219.44597 | pgbench_tellers_pkey  |            90112
 2017-02-10 15:16:59.445968+01 | 1486736219.44597 | pgbench_accounts_pkey |        690159616

 2017-02-10 15:17:00.497825+01 | 1486736220.49782 | pgbench_branches_pkey |            16384
 2017-02-10 15:17:00.497825+01 | 1486736220.49782 | pgbench_tellers_pkey  |            90112
 2017-02-10 15:17:00.497825+01 | 1486736220.49782 | pgbench_accounts_pkey |        690159616

 2017-02-10 15:17:01.552805+01 | 1486736221.5528 | pgbench_branches_pkey |            16384
 2017-02-10 15:17:01.552805+01 | 1486736221.5528 | pgbench_tellers_pkey  |            90112
 2017-02-10 15:17:01.552805+01 | 1486736221.5528 | pgbench_accounts_pkey |        690159616

 2017-02-10 15:17:02.60596+01 | 1486736222.60596 | pgbench_branches_pkey |            16384
 2017-02-10 15:17:02.60596+01 | 1486736222.60596 | pgbench_tellers_pkey  |            90112
 2017-02-10 15:17:02.60596+01 | 1486736222.60596 | pgbench_accounts_pkey |        690159616

 2017-02-10 15:17:03.658082+01 | 1486736223.65808 | pgbench_branches_pkey |            16384
 2017-02-10 15:17:03.658082+01 | 1486736223.65808 | pgbench_tellers_pkey  |            90112
 2017-02-10 15:17:03.658082+01 | 1486736223.65808 | pgbench_accounts_pkey |        690159616

 2017-02-10 15:17:04.715933+01 | 1486736224.71593 | pgbench_branches_pkey |            16384
 2017-02-10 15:17:04.715933+01 | 1486736224.71593 | pgbench_tellers_pkey  |            90112
 2017-02-10 15:17:04.715933+01 | 1486736224.71593 | pgbench_accounts_pkey |        690159616

 2017-02-10 15:17:05.770991+01 | 1486736225.77099 | pgbench_branches_pkey |            16384
 2017-02-10 15:17:05.770991+01 | 1486736225.77099 | pgbench_tellers_pkey  |            90112
 2017-02-10 15:17:05.770991+01 | 1486736225.77099 | pgbench_accounts_pkey |        690159616

 2017-02-10 15:17:06.823538+01 | 1486736226.82354 | pgbench_branches_pkey |            16384
 2017-02-10 15:17:06.823538+01 | 1486736226.82354 | pgbench_tellers_pkey  |            90112
 2017-02-10 15:17:06.823538+01 | 1486736226.82354 | pgbench_accounts_pkey |        690159616

 2017-02-10 15:17:07.874421+01 | 1486736227.87442 | pgbench_branches_pkey |            16384
 2017-02-10 15:17:07.874421+01 | 1486736227.87442 | pgbench_tellers_pkey  |            90112
 2017-02-10 15:17:07.874421+01 | 1486736227.87442 | pgbench_accounts_pkey |        690159616

 2017-02-10 15:17:08.925377+01 | 1486736228.92538 | pgbench_branches_pkey |            16384
 2017-02-10 15:17:08.925377+01 | 1486736228.92538 | pgbench_tellers_pkey  |            90112
 2017-02-10 15:17:08.925377+01 | 1486736228.92538 | pgbench_accounts_pkey |        690159616

 2017-02-10 15:17:09.977531+01 | 1486736229.97753 | pgbench_branches_pkey |            16384
 2017-02-10 15:17:09.977531+01 | 1486736229.97753 | pgbench_tellers_pkey  |            90112
 2017-02-10 15:17:09.977531+01 | 1486736229.97753 | pgbench_accounts_pkey |        690159616

 2017-02-10 15:17:11.033999+01 | 1486736231.034 | pgbench_branches_pkey |            16384
 2017-02-10 15:17:11.033999+01 | 1486736231.034 | pgbench_tellers_pkey  |            90112
 2017-02-10 15:17:11.033999+01 | 1486736231.034 | pgbench_accounts_pkey |        690159616

 2017-02-10 15:17:12.084962+01 | 1486736232.08496 | pgbench_branches_pkey |            16384
 2017-02-10 15:17:12.084962+01 | 1486736232.08496 | pgbench_tellers_pkey  |            90112
 2017-02-10 15:17:12.084962+01 | 1486736232.08496 | pgbench_accounts_pkey |        690159616

 2017-02-10 15:17:13.140832+01 | 1486736233.14083 | pgbench_branches_pkey |            16384
 2017-02-10 15:17:13.140832+01 | 1486736233.14083 | pgbench_tellers_pkey  |            90112
 2017-02-10 15:17:13.140832+01 | 1486736233.14083 | pgbench_accounts_pkey |        690159616

 2017-02-10 15:17:14.194997+01 | 1486736234.195 | pgbench_branches_pkey |            16384
 2017-02-10 15:17:14.194997+01 | 1486736234.195 | pgbench_tellers_pkey  |            90112
 2017-02-10 15:17:14.194997+01 | 1486736234.195 | pgbench_accounts_pkey |        690159616

 2017-02-10 15:17:15.246229+01 | 1486736235.24623 | pgbench_branches_pkey |            16384
 2017-02-10 15:17:15.246229+01 | 1486736235.24623 | pgbench_tellers_pkey  |            90112
 2017-02-10 15:17:15.246229+01 | 1486736235.24623 | pgbench_accounts_pkey |        690159616

 2017-02-10 15:17:16.297688+01 | 1486736236.29769 | pgbench_branches_pkey |            16384
 2017-02-10 15:17:16.297688+01 | 1486736236.29769 | pgbench_tellers_pkey  |            90112
 2017-02-10 15:17:16.297688+01 | 1486736236.29769 | pgbench_accounts_pkey |        690159616

 2017-02-10 15:17:17.351101+01 | 1486736237.3511 | pgbench_branches_pkey |            16384
 2017-02-10 15:17:17.351101+01 | 1486736237.3511 | pgbench_tellers_pkey  |            90112
 2017-02-10 15:17:17.351101+01 | 1486736237.3511 | pgbench_accounts_pkey |        690159616

 2017-02-10 15:17:18.403136+01 | 1486736238.40314 | pgbench_branches_pkey |            16384
 2017-02-10 15:17:18.403136+01 | 1486736238.40314 | pgbench_tellers_pkey  |            90112
 2017-02-10 15:17:18.403136+01 | 1486736238.40314 | pgbench_accounts_pkey |        690159616

 2017-02-10 15:17:19.459852+01 | 1486736239.45985 | pgbench_branches_pkey |            16384
 2017-02-10 15:17:19.459852+01 | 1486736239.45985 | pgbench_tellers_pkey  |            90112
 2017-02-10 15:17:19.459852+01 | 1486736239.45985 | pgbench_accounts_pkey |        690159616

 2017-02-10 15:17:20.516759+01 | 1486736240.51676 | pgbench_branches_pkey |            16384
 2017-02-10 15:17:20.516759+01 | 1486736240.51676 | pgbench_tellers_pkey  |            90112
 2017-02-10 15:17:20.516759+01 | 1486736240.51676 | pgbench_accounts_pkey |        690159616

 2017-02-10 15:17:21.570622+01 | 1486736241.57062 | pgbench_branches_pkey |            16384
 2017-02-10 15:17:21.570622+01 | 1486736241.57062 | pgbench_tellers_pkey  |            90112
 2017-02-10 15:17:21.570622+01 | 1486736241.57062 | pgbench_accounts_pkey |        690159616

 2017-02-10 15:17:22.624674+01 | 1486736242.62467 | pgbench_branches_pkey |            16384
 2017-02-10 15:17:22.624674+01 | 1486736242.62467 | pgbench_tellers_pkey  |            90112
 2017-02-10 15:17:22.624674+01 | 1486736242.62467 | pgbench_accounts_pkey |        690159616

 2017-02-10 15:17:23.677937+01 | 1486736243.67794 | pgbench_branches_pkey |            16384
 2017-02-10 15:17:23.677937+01 | 1486736243.67794 | pgbench_tellers_pkey  |            90112
 2017-02-10 15:17:23.677937+01 | 1486736243.67794 | pgbench_accounts_pkey |        690159616

 2017-02-10 15:17:24.730542+01 | 1486736244.73054 | pgbench_branches_pkey |            16384
 2017-02-10 15:17:24.730542+01 | 1486736244.73054 | pgbench_tellers_pkey  |            90112
 2017-02-10 15:17:24.730542+01 | 1486736244.73054 | pgbench_accounts_pkey |        690159616

 2017-02-10 15:17:25.783943+01 | 1486736245.78394 | pgbench_branches_pkey |            16384
 2017-02-10 15:17:25.783943+01 | 1486736245.78394 | pgbench_tellers_pkey  |            90112
 2017-02-10 15:17:25.783943+01 | 1486736245.78394 | pgbench_accounts_pkey |        690159616

 2017-02-10 15:17:26.84057+01 | 1486736246.84057 | pgbench_branches_pkey |            16384
 2017-02-10 15:17:26.84057+01 | 1486736246.84057 | pgbench_tellers_pkey  |            90112
 2017-02-10 15:17:26.84057+01 | 1486736246.84057 | pgbench_accounts_pkey |        690159616

 2017-02-10 15:17:27.891662+01 | 1486736247.89166 | pgbench_branches_pkey |            16384
 2017-02-10 15:17:27.891662+01 | 1486736247.89166 | pgbench_tellers_pkey  |            90112
 2017-02-10 15:17:27.891662+01 | 1486736247.89166 | pgbench_accounts_pkey |        690159616

 2017-02-10 15:17:28.944319+01 | 1486736248.94432 | pgbench_branches_pkey |            16384
 2017-02-10 15:17:28.944319+01 | 1486736248.94432 | pgbench_tellers_pkey  |            90112
 2017-02-10 15:17:28.944319+01 | 1486736248.94432 | pgbench_accounts_pkey |        690159616

 2017-02-10 15:17:29.998345+01 | 1486736249.99834 | pgbench_branches_pkey |            16384
 2017-02-10 15:17:29.998345+01 | 1486736249.99834 | pgbench_tellers_pkey  |            90112
 2017-02-10 15:17:29.998345+01 | 1486736249.99834 | pgbench_accounts_pkey |        690159616

 2017-02-10 15:17:31.05195+01 | 1486736251.05195 | pgbench_branches_pkey |            16384
 2017-02-10 15:17:31.05195+01 | 1486736251.05195 | pgbench_tellers_pkey  |            90112
 2017-02-10 15:17:31.05195+01 | 1486736251.05195 | pgbench_accounts_pkey |        690159616

 2017-02-10 15:17:32.104513+01 | 1486736252.10451 | pgbench_branches_pkey |            16384
 2017-02-10 15:17:32.104513+01 | 1486736252.10451 | pgbench_tellers_pkey  |            90112
 2017-02-10 15:17:32.104513+01 | 1486736252.10451 | pgbench_accounts_pkey |        690159616

 2017-02-10 15:17:33.168264+01 | 1486736253.16826 | pgbench_branches_pkey |            16384
 2017-02-10 15:17:33.168264+01 | 1486736253.16826 | pgbench_tellers_pkey  |            90112
 2017-02-10 15:17:33.168264+01 | 1486736253.16826 | pgbench_accounts_pkey |        690159616

 2017-02-10 15:17:34.220123+01 | 1486736254.22012 | pgbench_branches_pkey |            16384
 2017-02-10 15:17:34.220123+01 | 1486736254.22012 | pgbench_tellers_pkey  |            90112
 2017-02-10 15:17:34.220123+01 | 1486736254.22012 | pgbench_accounts_pkey |        690159616

 2017-02-10 15:17:35.273572+01 | 1486736255.27357 | pgbench_branches_pkey |            16384
 2017-02-10 15:17:35.273572+01 | 1486736255.27357 | pgbench_tellers_pkey  |            90112
 2017-02-10 15:17:35.273572+01 | 1486736255.27357 | pgbench_accounts_pkey |        690159616

 2017-02-10 15:17:36.326759+01 | 1486736256.32676 | pgbench_branches_pkey |            16384
 2017-02-10 15:17:36.326759+01 | 1486736256.32676 | pgbench_tellers_pkey  |            90112
 2017-02-10 15:17:36.326759+01 | 1486736256.32676 | pgbench_accounts_pkey |        690159616

 2017-02-10 15:17:37.379499+01 | 1486736257.3795 | pgbench_branches_pkey |            16384
 2017-02-10 15:17:37.379499+01 | 1486736257.3795 | pgbench_tellers_pkey  |            90112
 2017-02-10 15:17:37.379499+01 | 1486736257.3795 | pgbench_accounts_pkey |        690159616

 2017-02-10 15:17:38.430463+01 | 1486736258.43046 | pgbench_branches_pkey |            16384
 2017-02-10 15:17:38.430463+01 | 1486736258.43046 | pgbench_tellers_pkey  |            90112
 2017-02-10 15:17:38.430463+01 | 1486736258.43046 | pgbench_accounts_pkey |        690159616

 2017-02-10 15:17:39.484764+01 | 1486736259.48476 | pgbench_branches_pkey |            16384
 2017-02-10 15:17:39.484764+01 | 1486736259.48476 | pgbench_tellers_pkey  |            90112
 2017-02-10 15:17:39.484764+01 | 1486736259.48476 | pgbench_accounts_pkey |        690159616

 2017-02-10 15:17:40.540645+01 | 1486736260.54064 | pgbench_branches_pkey |            16384
 2017-02-10 15:17:40.540645+01 | 1486736260.54064 | pgbench_tellers_pkey  |            90112
 2017-02-10 15:17:40.540645+01 | 1486736260.54064 | pgbench_accounts_pkey |        690159616

 2017-02-10 15:17:41.593109+01 | 1486736261.59311 | pgbench_branches_pkey |            16384
 2017-02-10 15:17:41.593109+01 | 1486736261.59311 | pgbench_tellers_pkey  |            90112
 2017-02-10 15:17:41.593109+01 | 1486736261.59311 | pgbench_accounts_pkey |        690159616

 2017-02-10 15:17:42.64554+01 | 1486736262.64554 | pgbench_branches_pkey |            16384
 2017-02-10 15:17:42.64554+01 | 1486736262.64554 | pgbench_tellers_pkey  |            90112
 2017-02-10 15:17:42.64554+01 | 1486736262.64554 | pgbench_accounts_pkey |        690159616

 2017-02-10 15:17:43.69704+01 | 1486736263.69704 | pgbench_branches_pkey |            16384
 2017-02-10 15:17:43.69704+01 | 1486736263.69704 | pgbench_tellers_pkey  |            90112
 2017-02-10 15:17:43.69704+01 | 1486736263.69704 | pgbench_accounts_pkey |        690159616

 2017-02-10 15:17:44.749727+01 | 1486736264.74973 | pgbench_branches_pkey |            16384
 2017-02-10 15:17:44.749727+01 | 1486736264.74973 | pgbench_tellers_pkey  |            90112
 2017-02-10 15:17:44.749727+01 | 1486736264.74973 | pgbench_accounts_pkey |        690159616

 2017-02-10 15:17:45.800533+01 | 1486736265.80053 | pgbench_branches_pkey |            16384
 2017-02-10 15:17:45.800533+01 | 1486736265.80053 | pgbench_tellers_pkey  |            90112
 2017-02-10 15:17:45.800533+01 | 1486736265.80053 | pgbench_accounts_pkey |        690159616

 2017-02-10 15:17:46.852551+01 | 1486736266.85255 | pgbench_branches_pkey |            16384
 2017-02-10 15:17:46.852551+01 | 1486736266.85255 | pgbench_tellers_pkey  |            90112
 2017-02-10 15:17:46.852551+01 | 1486736266.85255 | pgbench_accounts_pkey |        690159616

 2017-02-10 15:17:47.909011+01 | 1486736267.90901 | pgbench_branches_pkey |            16384
 2017-02-10 15:17:47.909011+01 | 1486736267.90901 | pgbench_tellers_pkey  |            90112
 2017-02-10 15:17:47.909011+01 | 1486736267.90901 | pgbench_accounts_pkey |        690159616

 2017-02-10 15:17:48.964204+01 | 1486736268.9642 | pgbench_branches_pkey |            16384
 2017-02-10 15:17:48.964204+01 | 1486736268.9642 | pgbench_tellers_pkey  |            90112
 2017-02-10 15:17:48.964204+01 | 1486736268.9642 | pgbench_accounts_pkey |        690159616

 2017-02-10 15:17:50.017822+01 | 1486736270.01782 | pgbench_branches_pkey |            16384
 2017-02-10 15:17:50.017822+01 | 1486736270.01782 | pgbench_tellers_pkey  |            90112
 2017-02-10 15:17:50.017822+01 | 1486736270.01782 | pgbench_accounts_pkey |        690159616

 2017-02-10 15:17:51.062331+01 | 1486736271.06233 | pgbench_branches_pkey |            16384
 2017-02-10 15:17:51.062331+01 | 1486736271.06233 | pgbench_tellers_pkey  |            90112
 2017-02-10 15:17:51.062331+01 | 1486736271.06233 | pgbench_accounts_pkey |        690159616

 2017-02-10 15:17:52.12083+01 | 1486736272.12083 | pgbench_branches_pkey |            16384
 2017-02-10 15:17:52.12083+01 | 1486736272.12083 | pgbench_tellers_pkey  |            90112
 2017-02-10 15:17:52.12083+01 | 1486736272.12083 | pgbench_accounts_pkey |        690159616

 2017-02-10 15:17:53.173423+01 | 1486736273.17342 | pgbench_branches_pkey |            16384
 2017-02-10 15:17:53.173423+01 | 1486736273.17342 | pgbench_tellers_pkey  |            90112
 2017-02-10 15:17:53.173423+01 | 1486736273.17342 | pgbench_accounts_pkey |        690159616

 2017-02-10 15:17:54.225475+01 | 1486736274.22548 | pgbench_branches_pkey |            16384
 2017-02-10 15:17:54.225475+01 | 1486736274.22548 | pgbench_tellers_pkey  |            90112
 2017-02-10 15:17:54.225475+01 | 1486736274.22548 | pgbench_accounts_pkey |        690159616

 2017-02-10 15:17:55.291764+01 | 1486736275.29176 | pgbench_branches_pkey |            16384
 2017-02-10 15:17:55.291764+01 | 1486736275.29176 | pgbench_tellers_pkey  |            90112
 2017-02-10 15:17:55.291764+01 | 1486736275.29176 | pgbench_accounts_pkey |        690159616

 2017-02-10 15:17:56.343381+01 | 1486736276.34338 | pgbench_branches_pkey |            16384
 2017-02-10 15:17:56.343381+01 | 1486736276.34338 | pgbench_tellers_pkey  |            90112
 2017-02-10 15:17:56.343381+01 | 1486736276.34338 | pgbench_accounts_pkey |        690159616

 2017-02-10 15:17:57.396942+01 | 1486736277.39694 | pgbench_branches_pkey |            16384
 2017-02-10 15:17:57.396942+01 | 1486736277.39694 | pgbench_tellers_pkey  |            90112
 2017-02-10 15:17:57.396942+01 | 1486736277.39694 | pgbench_accounts_pkey |        690159616

 2017-02-10 15:17:58.452167+01 | 1486736278.45217 | pgbench_branches_pkey |            16384
 2017-02-10 15:17:58.452167+01 | 1486736278.45217 | pgbench_tellers_pkey  |            90112
 2017-02-10 15:17:58.452167+01 | 1486736278.45217 | pgbench_accounts_pkey |        690159616

 2017-02-10 15:17:59.504698+01 | 1486736279.5047 | pgbench_branches_pkey |            16384
 2017-02-10 15:17:59.504698+01 | 1486736279.5047 | pgbench_tellers_pkey  |            90112
 2017-02-10 15:17:59.504698+01 | 1486736279.5047 | pgbench_accounts_pkey |        690159616

 2017-02-10 15:18:00.558734+01 | 1486736280.55873 | pgbench_branches_pkey |            16384
 2017-02-10 15:18:00.558734+01 | 1486736280.55873 | pgbench_tellers_pkey  |            90112
 2017-02-10 15:18:00.558734+01 | 1486736280.55873 | pgbench_accounts_pkey |        690159616

 2017-02-10 15:18:01.610876+01 | 1486736281.61088 | pgbench_branches_pkey |            16384
 2017-02-10 15:18:01.610876+01 | 1486736281.61088 | pgbench_tellers_pkey  |            90112
 2017-02-10 15:18:01.610876+01 | 1486736281.61088 | pgbench_accounts_pkey |        690159616

 2017-02-10 15:18:02.666877+01 | 1486736282.66688 | pgbench_branches_pkey |            16384
 2017-02-10 15:18:02.666877+01 | 1486736282.66688 | pgbench_tellers_pkey  |            90112
 2017-02-10 15:18:02.666877+01 | 1486736282.66688 | pgbench_accounts_pkey |        690159616

 2017-02-10 15:18:03.754822+01 | 1486736283.75482 | pgbench_branches_pkey |            16384
 2017-02-10 15:18:03.754822+01 | 1486736283.75482 | pgbench_tellers_pkey  |            90112
 2017-02-10 15:18:03.754822+01 | 1486736283.75482 | pgbench_accounts_pkey |        690159616

 2017-02-10 15:18:04.808444+01 | 1486736284.80844 | pgbench_branches_pkey |            16384
 2017-02-10 15:18:04.808444+01 | 1486736284.80844 | pgbench_tellers_pkey  |            90112
 2017-02-10 15:18:04.808444+01 | 1486736284.80844 | pgbench_accounts_pkey |        690159616

 2017-02-10 15:18:05.860566+01 | 1486736285.86057 | pgbench_branches_pkey |            16384
 2017-02-10 15:18:05.860566+01 | 1486736285.86057 | pgbench_tellers_pkey  |            90112
 2017-02-10 15:18:05.860566+01 | 1486736285.86057 | pgbench_accounts_pkey |        690159616

 2017-02-10 15:18:06.914442+01 | 1486736286.91444 | pgbench_branches_pkey |            16384
 2017-02-10 15:18:06.914442+01 | 1486736286.91444 | pgbench_tellers_pkey  |            90112
 2017-02-10 15:18:06.914442+01 | 1486736286.91444 | pgbench_accounts_pkey |        690159616

 2017-02-10 15:18:07.969956+01 | 1486736287.96996 | pgbench_branches_pkey |            16384
 2017-02-10 15:18:07.969956+01 | 1486736287.96996 | pgbench_tellers_pkey  |            90112
 2017-02-10 15:18:07.969956+01 | 1486736287.96996 | pgbench_accounts_pkey |        690159616

 2017-02-10 15:18:09.024255+01 | 1486736289.02426 | pgbench_branches_pkey |            16384
 2017-02-10 15:18:09.024255+01 | 1486736289.02426 | pgbench_tellers_pkey  |            90112
 2017-02-10 15:18:09.024255+01 | 1486736289.02426 | pgbench_accounts_pkey |        690159616

 2017-02-10 15:18:10.076788+01 | 1486736290.07679 | pgbench_branches_pkey |            16384
 2017-02-10 15:18:10.076788+01 | 1486736290.07679 | pgbench_tellers_pkey  |            90112
 2017-02-10 15:18:10.076788+01 | 1486736290.07679 | pgbench_accounts_pkey |        690159616

 2017-02-10 15:18:11.132499+01 | 1486736291.1325 | pgbench_branches_pkey |            16384
 2017-02-10 15:18:11.132499+01 | 1486736291.1325 | pgbench_tellers_pkey  |            90112
 2017-02-10 15:18:11.132499+01 | 1486736291.1325 | pgbench_accounts_pkey |        690159616

 2017-02-10 15:18:12.186777+01 | 1486736292.18678 | pgbench_branches_pkey |            16384
 2017-02-10 15:18:12.186777+01 | 1486736292.18678 | pgbench_tellers_pkey  |            90112
 2017-02-10 15:18:12.186777+01 | 1486736292.18678 | pgbench_accounts_pkey |        690159616

 2017-02-10 15:18:13.238725+01 | 1486736293.23872 | pgbench_branches_pkey |            16384
 2017-02-10 15:18:13.238725+01 | 1486736293.23872 | pgbench_tellers_pkey  |            90112
 2017-02-10 15:18:13.238725+01 | 1486736293.23872 | pgbench_accounts_pkey |        690159616

 2017-02-10 15:18:14.294985+01 | 1486736294.29499 | pgbench_branches_pkey |            16384
 2017-02-10 15:18:14.294985+01 | 1486736294.29499 | pgbench_tellers_pkey  |            90112
 2017-02-10 15:18:14.294985+01 | 1486736294.29499 | pgbench_accounts_pkey |        690159616

 2017-02-10 15:18:15.346993+01 | 1486736295.34699 | pgbench_branches_pkey |            16384
 2017-02-10 15:18:15.346993+01 | 1486736295.34699 | pgbench_tellers_pkey  |            90112
 2017-02-10 15:18:15.346993+01 | 1486736295.34699 | pgbench_accounts_pkey |        690159616

 2017-02-10 15:18:16.399153+01 | 1486736296.39915 | pgbench_branches_pkey |            16384
 2017-02-10 15:18:16.399153+01 | 1486736296.39915 | pgbench_tellers_pkey  |            90112
 2017-02-10 15:18:16.399153+01 | 1486736296.39915 | pgbench_accounts_pkey |        690159616

 2017-02-10 15:18:17.453469+01 | 1486736297.45347 | pgbench_branches_pkey |            16384
 2017-02-10 15:18:17.453469+01 | 1486736297.45347 | pgbench_tellers_pkey  |            90112
 2017-02-10 15:18:17.453469+01 | 1486736297.45347 | pgbench_accounts_pkey |        690159616

 2017-02-10 15:18:18.513669+01 | 1486736298.51367 | pgbench_branches_pkey |            16384
 2017-02-10 15:18:18.513669+01 | 1486736298.51367 | pgbench_tellers_pkey  |            90112
 2017-02-10 15:18:18.513669+01 | 1486736298.51367 | pgbench_accounts_pkey |        690159616

 2017-02-10 15:18:19.568288+01 | 1486736299.56829 | pgbench_branches_pkey |            16384
 2017-02-10 15:18:19.568288+01 | 1486736299.56829 | pgbench_tellers_pkey  |            90112
 2017-02-10 15:18:19.568288+01 | 1486736299.56829 | pgbench_accounts_pkey |        690159616

 2017-02-10 15:18:20.621714+01 | 1486736300.62171 | pgbench_branches_pkey |            16384
 2017-02-10 15:18:20.621714+01 | 1486736300.62171 | pgbench_tellers_pkey  |            90112
 2017-02-10 15:18:20.621714+01 | 1486736300.62171 | pgbench_accounts_pkey |        690159616

 2017-02-10 15:18:21.682627+01 | 1486736301.68263 | pgbench_branches_pkey |            16384
 2017-02-10 15:18:21.682627+01 | 1486736301.68263 | pgbench_tellers_pkey  |            90112
 2017-02-10 15:18:21.682627+01 | 1486736301.68263 | pgbench_accounts_pkey |        690159616

 2017-02-10 15:18:22.736454+01 | 1486736302.73645 | pgbench_branches_pkey |            16384
 2017-02-10 15:18:22.736454+01 | 1486736302.73645 | pgbench_tellers_pkey  |            90112
 2017-02-10 15:18:22.736454+01 | 1486736302.73645 | pgbench_accounts_pkey |        690159616

 2017-02-10 15:18:23.78815+01 | 1486736303.78815 | pgbench_branches_pkey |            16384
 2017-02-10 15:18:23.78815+01 | 1486736303.78815 | pgbench_tellers_pkey  |            90112
 2017-02-10 15:18:23.78815+01 | 1486736303.78815 | pgbench_accounts_pkey |        690159616

 2017-02-10 15:18:24.840541+01 | 1486736304.84054 | pgbench_branches_pkey |            16384
 2017-02-10 15:18:24.840541+01 | 1486736304.84054 | pgbench_tellers_pkey  |            90112
 2017-02-10 15:18:24.840541+01 | 1486736304.84054 | pgbench_accounts_pkey |        690159616

 2017-02-10 15:18:25.895552+01 | 1486736305.89555 | pgbench_branches_pkey |            16384
 2017-02-10 15:18:25.895552+01 | 1486736305.89555 | pgbench_tellers_pkey  |            90112
 2017-02-10 15:18:25.895552+01 | 1486736305.89555 | pgbench_accounts_pkey |        690159616

 2017-02-10 15:18:26.945382+01 | 1486736306.94538 | pgbench_branches_pkey |            16384
 2017-02-10 15:18:26.945382+01 | 1486736306.94538 | pgbench_tellers_pkey  |            90112
 2017-02-10 15:18:26.945382+01 | 1486736306.94538 | pgbench_accounts_pkey |        690159616

 2017-02-10 15:18:27.99703+01 | 1486736307.99703 | pgbench_branches_pkey |            16384
 2017-02-10 15:18:27.99703+01 | 1486736307.99703 | pgbench_tellers_pkey  |            90112
 2017-02-10 15:18:27.99703+01 | 1486736307.99703 | pgbench_accounts_pkey |        690159616

 2017-02-10 15:18:29.050673+01 | 1486736309.05067 | pgbench_branches_pkey |            16384
 2017-02-10 15:18:29.050673+01 | 1486736309.05067 | pgbench_tellers_pkey  |            90112
 2017-02-10 15:18:29.050673+01 | 1486736309.05067 | pgbench_accounts_pkey |        690159616

 2017-02-10 15:18:30.103565+01 | 1486736310.10356 | pgbench_branches_pkey |            16384
 2017-02-10 15:18:30.103565+01 | 1486736310.10356 | pgbench_tellers_pkey  |            90112
 2017-02-10 15:18:30.103565+01 | 1486736310.10356 | pgbench_accounts_pkey |        690159616

 2017-02-10 15:18:31.15684+01 | 1486736311.15684 | pgbench_branches_pkey |            16384
 2017-02-10 15:18:31.15684+01 | 1486736311.15684 | pgbench_tellers_pkey  |            90112
 2017-02-10 15:18:31.15684+01 | 1486736311.15684 | pgbench_accounts_pkey |        690159616

 2017-02-10 15:18:32.217461+01 | 1486736312.21746 | pgbench_branches_pkey |            16384
 2017-02-10 15:18:32.217461+01 | 1486736312.21746 | pgbench_tellers_pkey  |            90112
 2017-02-10 15:18:32.217461+01 | 1486736312.21746 | pgbench_accounts_pkey |        690159616

 2017-02-10 15:18:33.270448+01 | 1486736313.27045 | pgbench_branches_pkey |            16384
 2017-02-10 15:18:33.270448+01 | 1486736313.27045 | pgbench_tellers_pkey  |            90112
 2017-02-10 15:18:33.270448+01 | 1486736313.27045 | pgbench_accounts_pkey |        690159616

 2017-02-10 15:18:34.325292+01 | 1486736314.32529 | pgbench_branches_pkey |            16384
 2017-02-10 15:18:34.325292+01 | 1486736314.32529 | pgbench_tellers_pkey  |            90112
 2017-02-10 15:18:34.325292+01 | 1486736314.32529 | pgbench_accounts_pkey |        690159616

 2017-02-10 15:18:35.379742+01 | 1486736315.37974 | pgbench_branches_pkey |            16384
 2017-02-10 15:18:35.379742+01 | 1486736315.37974 | pgbench_tellers_pkey  |            90112
 2017-02-10 15:18:35.379742+01 | 1486736315.37974 | pgbench_accounts_pkey |        690159616

 2017-02-10 15:18:36.433273+01 | 1486736316.43327 | pgbench_branches_pkey |            16384
 2017-02-10 15:18:36.433273+01 | 1486736316.43327 | pgbench_tellers_pkey  |            90112
 2017-02-10 15:18:36.433273+01 | 1486736316.43327 | pgbench_accounts_pkey |        690159616

 2017-02-10 15:18:37.486173+01 | 1486736317.48617 | pgbench_branches_pkey |            16384
 2017-02-10 15:18:37.486173+01 | 1486736317.48617 | pgbench_tellers_pkey  |            90112
 2017-02-10 15:18:37.486173+01 | 1486736317.48617 | pgbench_accounts_pkey |        690159616

 2017-02-10 15:18:38.5394+01 | 1486736318.5394 | pgbench_branches_pkey |            16384
 2017-02-10 15:18:38.5394+01 | 1486736318.5394 | pgbench_tellers_pkey  |            90112
 2017-02-10 15:18:38.5394+01 | 1486736318.5394 | pgbench_accounts_pkey |        690159616

 2017-02-10 15:18:39.59267+01 | 1486736319.59267 | pgbench_branches_pkey |            16384
 2017-02-10 15:18:39.59267+01 | 1486736319.59267 | pgbench_tellers_pkey  |            90112
 2017-02-10 15:18:39.59267+01 | 1486736319.59267 | pgbench_accounts_pkey |        690159616

 2017-02-10 15:18:40.652546+01 | 1486736320.65255 | pgbench_branches_pkey |            16384
 2017-02-10 15:18:40.652546+01 | 1486736320.65255 | pgbench_tellers_pkey  |            90112
 2017-02-10 15:18:40.652546+01 | 1486736320.65255 | pgbench_accounts_pkey |        690159616

 2017-02-10 15:18:41.706171+01 | 1486736321.70617 | pgbench_branches_pkey |            16384
 2017-02-10 15:18:41.706171+01 | 1486736321.70617 | pgbench_tellers_pkey  |            90112
 2017-02-10 15:18:41.706171+01 | 1486736321.70617 | pgbench_accounts_pkey |        690159616

 2017-02-10 15:18:42.759197+01 | 1486736322.7592 | pgbench_branches_pkey |            16384
 2017-02-10 15:18:42.759197+01 | 1486736322.7592 | pgbench_tellers_pkey  |            90112
 2017-02-10 15:18:42.759197+01 | 1486736322.7592 | pgbench_accounts_pkey |        690159616

 2017-02-10 15:18:43.810583+01 | 1486736323.81058 | pgbench_branches_pkey |            16384
 2017-02-10 15:18:43.810583+01 | 1486736323.81058 | pgbench_tellers_pkey  |            90112
 2017-02-10 15:18:43.810583+01 | 1486736323.81058 | pgbench_accounts_pkey |        690159616

 2017-02-10 15:18:44.871116+01 | 1486736324.87112 | pgbench_branches_pkey |            16384
 2017-02-10 15:18:44.871116+01 | 1486736324.87112 | pgbench_tellers_pkey  |            90112
 2017-02-10 15:18:44.871116+01 | 1486736324.87112 | pgbench_accounts_pkey |        690159616

 2017-02-10 15:18:45.927453+01 | 1486736325.92745 | pgbench_branches_pkey |            16384
 2017-02-10 15:18:45.927453+01 | 1486736325.92745 | pgbench_tellers_pkey  |            90112
 2017-02-10 15:18:45.927453+01 | 1486736325.92745 | pgbench_accounts_pkey |        690159616

 2017-02-10 15:18:46.978744+01 | 1486736326.97874 | pgbench_branches_pkey |            16384
 2017-02-10 15:18:46.978744+01 | 1486736326.97874 | pgbench_tellers_pkey  |            90112
 2017-02-10 15:18:46.978744+01 | 1486736326.97874 | pgbench_accounts_pkey |        690159616

 2017-02-10 15:18:48.031706+01 | 1486736328.03171 | pgbench_branches_pkey |            16384
 2017-02-10 15:18:48.031706+01 | 1486736328.03171 | pgbench_tellers_pkey  |            90112
 2017-02-10 15:18:48.031706+01 | 1486736328.03171 | pgbench_accounts_pkey |        690159616

 2017-02-10 15:18:49.087518+01 | 1486736329.08752 | pgbench_branches_pkey |            16384
 2017-02-10 15:18:49.087518+01 | 1486736329.08752 | pgbench_tellers_pkey  |            90112
 2017-02-10 15:18:49.087518+01 | 1486736329.08752 | pgbench_accounts_pkey |        690159616

 2017-02-10 15:18:50.144084+01 | 1486736330.14408 | pgbench_branches_pkey |            16384
 2017-02-10 15:18:50.144084+01 | 1486736330.14408 | pgbench_tellers_pkey  |            90112
 2017-02-10 15:18:50.144084+01 | 1486736330.14408 | pgbench_accounts_pkey |        690159616

 2017-02-10 15:18:51.195882+01 | 1486736331.19588 | pgbench_branches_pkey |            16384
 2017-02-10 15:18:51.195882+01 | 1486736331.19588 | pgbench_tellers_pkey  |            90112
 2017-02-10 15:18:51.195882+01 | 1486736331.19588 | pgbench_accounts_pkey |        690159616

 2017-02-10 15:18:52.248451+01 | 1486736332.24845 | pgbench_branches_pkey |            16384
 2017-02-10 15:18:52.248451+01 | 1486736332.24845 | pgbench_tellers_pkey  |            90112
 2017-02-10 15:18:52.248451+01 | 1486736332.24845 | pgbench_accounts_pkey |        690159616

 2017-02-10 15:18:53.303466+01 | 1486736333.30347 | pgbench_branches_pkey |            16384
 2017-02-10 15:18:53.303466+01 | 1486736333.30347 | pgbench_tellers_pkey  |            90112
 2017-02-10 15:18:53.303466+01 | 1486736333.30347 | pgbench_accounts_pkey |        690159616

 2017-02-10 15:18:54.354625+01 | 1486736334.35462 | pgbench_branches_pkey |            16384
 2017-02-10 15:18:54.354625+01 | 1486736334.35462 | pgbench_tellers_pkey  |            90112
 2017-02-10 15:18:54.354625+01 | 1486736334.35462 | pgbench_accounts_pkey |        690159616

 2017-02-10 15:18:55.40626+01 | 1486736335.40626 | pgbench_branches_pkey |            16384
 2017-02-10 15:18:55.40626+01 | 1486736335.40626 | pgbench_tellers_pkey  |            90112
 2017-02-10 15:18:55.40626+01 | 1486736335.40626 | pgbench_accounts_pkey |        690159616

 2017-02-10 15:18:56.45661+01 | 1486736336.45661 | pgbench_branches_pkey |            16384
 2017-02-10 15:18:56.45661+01 | 1486736336.45661 | pgbench_tellers_pkey  |            90112
 2017-02-10 15:18:56.45661+01 | 1486736336.45661 | pgbench_accounts_pkey |        690159616

 2017-02-10 15:18:57.508954+01 | 1486736337.50895 | pgbench_branches_pkey |            16384
 2017-02-10 15:18:57.508954+01 | 1486736337.50895 | pgbench_tellers_pkey  |            90112
 2017-02-10 15:18:57.508954+01 | 1486736337.50895 | pgbench_accounts_pkey |        690159616

 2017-02-10 15:18:58.562634+01 | 1486736338.56263 | pgbench_branches_pkey |            16384
 2017-02-10 15:18:58.562634+01 | 1486736338.56263 | pgbench_tellers_pkey  |            90112
 2017-02-10 15:18:58.562634+01 | 1486736338.56263 | pgbench_accounts_pkey |        690159616

 2017-02-10 15:18:59.603848+01 | 1486736339.60385 | pgbench_branches_pkey |            16384
 2017-02-10 15:18:59.603848+01 | 1486736339.60385 | pgbench_tellers_pkey  |            90112
 2017-02-10 15:18:59.603848+01 | 1486736339.60385 | pgbench_accounts_pkey |        690159616

 2017-02-10 15:19:00.658086+01 | 1486736340.65809 | pgbench_branches_pkey |            16384
 2017-02-10 15:19:00.658086+01 | 1486736340.65809 | pgbench_tellers_pkey  |            90112
 2017-02-10 15:19:00.658086+01 | 1486736340.65809 | pgbench_accounts_pkey |        690159616

 2017-02-10 15:19:01.710955+01 | 1486736341.71095 | pgbench_branches_pkey |            16384
 2017-02-10 15:19:01.710955+01 | 1486736341.71095 | pgbench_tellers_pkey  |            90112
 2017-02-10 15:19:01.710955+01 | 1486736341.71095 | pgbench_accounts_pkey |        690159616

 2017-02-10 15:19:02.773375+01 | 1486736342.77338 | pgbench_branches_pkey |            16384
 2017-02-10 15:19:02.773375+01 | 1486736342.77338 | pgbench_tellers_pkey  |            90112
 2017-02-10 15:19:02.773375+01 | 1486736342.77338 | pgbench_accounts_pkey |        690159616

 2017-02-10 15:19:03.825743+01 | 1486736343.82574 | pgbench_branches_pkey |            16384
 2017-02-10 15:19:03.825743+01 | 1486736343.82574 | pgbench_tellers_pkey  |            90112
 2017-02-10 15:19:03.825743+01 | 1486736343.82574 | pgbench_accounts_pkey |        690159616

 2017-02-10 15:19:04.87741+01 | 1486736344.87741 | pgbench_branches_pkey |            16384
 2017-02-10 15:19:04.87741+01 | 1486736344.87741 | pgbench_tellers_pkey  |            90112
 2017-02-10 15:19:04.87741+01 | 1486736344.87741 | pgbench_accounts_pkey |        690159616

 2017-02-10 15:19:05.93005+01 | 1486736345.93005 | pgbench_branches_pkey |            16384
 2017-02-10 15:19:05.93005+01 | 1486736345.93005 | pgbench_tellers_pkey  |            90112
 2017-02-10 15:19:05.93005+01 | 1486736345.93005 | pgbench_accounts_pkey |        690159616

 2017-02-10 15:19:06.986877+01 | 1486736346.98688 | pgbench_branches_pkey |            16384
 2017-02-10 15:19:06.986877+01 | 1486736346.98688 | pgbench_tellers_pkey  |            90112
 2017-02-10 15:19:06.986877+01 | 1486736346.98688 | pgbench_accounts_pkey |        690159616

 2017-02-10 15:19:08.036724+01 | 1486736348.03672 | pgbench_branches_pkey |            16384
 2017-02-10 15:19:08.036724+01 | 1486736348.03672 | pgbench_tellers_pkey  |            90112
 2017-02-10 15:19:08.036724+01 | 1486736348.03672 | pgbench_accounts_pkey |        690159616

 2017-02-10 15:19:09.087943+01 | 1486736349.08794 | pgbench_branches_pkey |            16384
 2017-02-10 15:19:09.087943+01 | 1486736349.08794 | pgbench_tellers_pkey  |            90112
 2017-02-10 15:19:09.087943+01 | 1486736349.08794 | pgbench_accounts_pkey |        690159616

 2017-02-10 15:19:10.141424+01 | 1486736350.14142 | pgbench_branches_pkey |            16384
 2017-02-10 15:19:10.141424+01 | 1486736350.14142 | pgbench_tellers_pkey  |            90112
 2017-02-10 15:19:10.141424+01 | 1486736350.14142 | pgbench_accounts_pkey |        690159616

 2017-02-10 15:19:11.194093+01 | 1486736351.19409 | pgbench_branches_pkey |            16384
 2017-02-10 15:19:11.194093+01 | 1486736351.19409 | pgbench_tellers_pkey  |            90112
 2017-02-10 15:19:11.194093+01 | 1486736351.19409 | pgbench_accounts_pkey |        690159616

 2017-02-10 15:19:12.246665+01 | 1486736352.24667 | pgbench_branches_pkey |            16384
 2017-02-10 15:19:12.246665+01 | 1486736352.24667 | pgbench_tellers_pkey  |            90112
 2017-02-10 15:19:12.246665+01 | 1486736352.24667 | pgbench_accounts_pkey |        690159616

 2017-02-10 15:19:13.302974+01 | 1486736353.30297 | pgbench_branches_pkey |            16384
 2017-02-10 15:19:13.302974+01 | 1486736353.30297 | pgbench_tellers_pkey  |            90112
 2017-02-10 15:19:13.302974+01 | 1486736353.30297 | pgbench_accounts_pkey |        690159616

 2017-02-10 15:19:14.353476+01 | 1486736354.35348 | pgbench_branches_pkey |            16384
 2017-02-10 15:19:14.353476+01 | 1486736354.35348 | pgbench_tellers_pkey  |            90112
 2017-02-10 15:19:14.353476+01 | 1486736354.35348 | pgbench_accounts_pkey |        690159616

 2017-02-10 15:19:15.410467+01 | 1486736355.41047 | pgbench_branches_pkey |            16384
 2017-02-10 15:19:15.410467+01 | 1486736355.41047 | pgbench_tellers_pkey  |            90112
 2017-02-10 15:19:15.410467+01 | 1486736355.41047 | pgbench_accounts_pkey |        690159616

 2017-02-10 15:19:16.465397+01 | 1486736356.4654 | pgbench_branches_pkey |            16384
 2017-02-10 15:19:16.465397+01 | 1486736356.4654 | pgbench_tellers_pkey  |            90112
 2017-02-10 15:19:16.465397+01 | 1486736356.4654 | pgbench_accounts_pkey |        690159616

 2017-02-10 15:19:17.516816+01 | 1486736357.51682 | pgbench_branches_pkey |            16384
 2017-02-10 15:19:17.516816+01 | 1486736357.51682 | pgbench_tellers_pkey  |            90112
 2017-02-10 15:19:17.516816+01 | 1486736357.51682 | pgbench_accounts_pkey |        690159616

 2017-02-10 15:19:18.570718+01 | 1486736358.57072 | pgbench_branches_pkey |            16384
 2017-02-10 15:19:18.570718+01 | 1486736358.57072 | pgbench_tellers_pkey  |            90112
 2017-02-10 15:19:18.570718+01 | 1486736358.57072 | pgbench_accounts_pkey |        690159616

 2017-02-10 15:19:19.625319+01 | 1486736359.62532 | pgbench_branches_pkey |            16384
 2017-02-10 15:19:19.625319+01 | 1486736359.62532 | pgbench_tellers_pkey  |            90112
 2017-02-10 15:19:19.625319+01 | 1486736359.62532 | pgbench_accounts_pkey |        690159616

 2017-02-10 15:19:20.688694+01 | 1486736360.68869 | pgbench_branches_pkey |            16384
 2017-02-10 15:19:20.688694+01 | 1486736360.68869 | pgbench_tellers_pkey  |            90112
 2017-02-10 15:19:20.688694+01 | 1486736360.68869 | pgbench_accounts_pkey |        690159616

 2017-02-10 15:19:21.738587+01 | 1486736361.73859 | pgbench_branches_pkey |            16384
 2017-02-10 15:19:21.738587+01 | 1486736361.73859 | pgbench_tellers_pkey  |            90112
 2017-02-10 15:19:21.738587+01 | 1486736361.73859 | pgbench_accounts_pkey |        690159616

 2017-02-10 15:19:22.791387+01 | 1486736362.79139 | pgbench_branches_pkey |            16384
 2017-02-10 15:19:22.791387+01 | 1486736362.79139 | pgbench_tellers_pkey  |            90112
 2017-02-10 15:19:22.791387+01 | 1486736362.79139 | pgbench_accounts_pkey |        690159616

 2017-02-10 15:19:23.842544+01 | 1486736363.84254 | pgbench_branches_pkey |            16384
 2017-02-10 15:19:23.842544+01 | 1486736363.84254 | pgbench_tellers_pkey  |            90112
 2017-02-10 15:19:23.842544+01 | 1486736363.84254 | pgbench_accounts_pkey |        690159616

 2017-02-10 15:19:24.894821+01 | 1486736364.89482 | pgbench_branches_pkey |            16384
 2017-02-10 15:19:24.894821+01 | 1486736364.89482 | pgbench_tellers_pkey  |            90112
 2017-02-10 15:19:24.894821+01 | 1486736364.89482 | pgbench_accounts_pkey |        690159616

 2017-02-10 15:19:25.946342+01 | 1486736365.94634 | pgbench_branches_pkey |            16384
 2017-02-10 15:19:25.946342+01 | 1486736365.94634 | pgbench_tellers_pkey  |            90112
 2017-02-10 15:19:25.946342+01 | 1486736365.94634 | pgbench_accounts_pkey |        690159616

 2017-02-10 15:19:26.997497+01 | 1486736366.9975 | pgbench_branches_pkey |            16384
 2017-02-10 15:19:26.997497+01 | 1486736366.9975 | pgbench_tellers_pkey  |            90112
 2017-02-10 15:19:26.997497+01 | 1486736366.9975 | pgbench_accounts_pkey |        690159616

 2017-02-10 15:19:28.048463+01 | 1486736368.04846 | pgbench_branches_pkey |            16384
 2017-02-10 15:19:28.048463+01 | 1486736368.04846 | pgbench_tellers_pkey  |            90112
 2017-02-10 15:19:28.048463+01 | 1486736368.04846 | pgbench_accounts_pkey |        690159616

 2017-02-10 15:19:29.100741+01 | 1486736369.10074 | pgbench_branches_pkey |            16384
 2017-02-10 15:19:29.100741+01 | 1486736369.10074 | pgbench_tellers_pkey  |            90112
 2017-02-10 15:19:29.100741+01 | 1486736369.10074 | pgbench_accounts_pkey |        690159616

 2017-02-10 15:19:30.158426+01 | 1486736370.15843 | pgbench_branches_pkey |            16384
 2017-02-10 15:19:30.158426+01 | 1486736370.15843 | pgbench_tellers_pkey  |            90112
 2017-02-10 15:19:30.158426+01 | 1486736370.15843 | pgbench_accounts_pkey |        690159616

 2017-02-10 15:19:31.209692+01 | 1486736371.20969 | pgbench_branches_pkey |            16384
 2017-02-10 15:19:31.209692+01 | 1486736371.20969 | pgbench_tellers_pkey  |            90112
 2017-02-10 15:19:31.209692+01 | 1486736371.20969 | pgbench_accounts_pkey |        690159616

 2017-02-10 15:19:32.263052+01 | 1486736372.26305 | pgbench_branches_pkey |            16384
 2017-02-10 15:19:32.263052+01 | 1486736372.26305 | pgbench_tellers_pkey  |            90112
 2017-02-10 15:19:32.263052+01 | 1486736372.26305 | pgbench_accounts_pkey |        690159616

 2017-02-10 15:19:33.315751+01 | 1486736373.31575 | pgbench_branches_pkey |            16384
 2017-02-10 15:19:33.315751+01 | 1486736373.31575 | pgbench_tellers_pkey  |            90112
 2017-02-10 15:19:33.315751+01 | 1486736373.31575 | pgbench_accounts_pkey |        690159616

 2017-02-10 15:19:34.370438+01 | 1486736374.37044 | pgbench_branches_pkey |            16384
 2017-02-10 15:19:34.370438+01 | 1486736374.37044 | pgbench_tellers_pkey  |            90112
 2017-02-10 15:19:34.370438+01 | 1486736374.37044 | pgbench_accounts_pkey |        690159616

 2017-02-10 15:19:35.427631+01 | 1486736375.42763 | pgbench_branches_pkey |            16384
 2017-02-10 15:19:35.427631+01 | 1486736375.42763 | pgbench_tellers_pkey  |            90112
 2017-02-10 15:19:35.427631+01 | 1486736375.42763 | pgbench_accounts_pkey |        690159616

 2017-02-10 15:19:36.491747+01 | 1486736376.49175 | pgbench_branches_pkey |            16384
 2017-02-10 15:19:36.491747+01 | 1486736376.49175 | pgbench_tellers_pkey  |            90112
 2017-02-10 15:19:36.491747+01 | 1486736376.49175 | pgbench_accounts_pkey |        690159616

 2017-02-10 15:19:37.545189+01 | 1486736377.54519 | pgbench_branches_pkey |            16384
 2017-02-10 15:19:37.545189+01 | 1486736377.54519 | pgbench_tellers_pkey  |            90112
 2017-02-10 15:19:37.545189+01 | 1486736377.54519 | pgbench_accounts_pkey |        690159616

 2017-02-10 15:19:38.596963+01 | 1486736378.59696 | pgbench_branches_pkey |            16384
 2017-02-10 15:19:38.596963+01 | 1486736378.59696 | pgbench_tellers_pkey  |            90112
 2017-02-10 15:19:38.596963+01 | 1486736378.59696 | pgbench_accounts_pkey |        690159616

 2017-02-10 15:19:39.651011+01 | 1486736379.65101 | pgbench_branches_pkey |            16384
 2017-02-10 15:19:39.651011+01 | 1486736379.65101 | pgbench_tellers_pkey  |            90112
 2017-02-10 15:19:39.651011+01 | 1486736379.65101 | pgbench_accounts_pkey |        690159616

 2017-02-10 15:19:40.701916+01 | 1486736380.70192 | pgbench_branches_pkey |            16384
 2017-02-10 15:19:40.701916+01 | 1486736380.70192 | pgbench_tellers_pkey  |            90112
 2017-02-10 15:19:40.701916+01 | 1486736380.70192 | pgbench_accounts_pkey |        690159616

 2017-02-10 15:19:41.753814+01 | 1486736381.75381 | pgbench_branches_pkey |            16384
 2017-02-10 15:19:41.753814+01 | 1486736381.75381 | pgbench_tellers_pkey  |            90112
 2017-02-10 15:19:41.753814+01 | 1486736381.75381 | pgbench_accounts_pkey |        690159616

 2017-02-10 15:19:42.806917+01 | 1486736382.80692 | pgbench_branches_pkey |            16384
 2017-02-10 15:19:42.806917+01 | 1486736382.80692 | pgbench_tellers_pkey  |            90112
 2017-02-10 15:19:42.806917+01 | 1486736382.80692 | pgbench_accounts_pkey |        690159616

 2017-02-10 15:19:43.858861+01 | 1486736383.85886 | pgbench_branches_pkey |            16384
 2017-02-10 15:19:43.858861+01 | 1486736383.85886 | pgbench_tellers_pkey  |            90112
 2017-02-10 15:19:43.858861+01 | 1486736383.85886 | pgbench_accounts_pkey |        690159616

 2017-02-10 15:19:44.910128+01 | 1486736384.91013 | pgbench_branches_pkey |            16384
 2017-02-10 15:19:44.910128+01 | 1486736384.91013 | pgbench_tellers_pkey  |            90112
 2017-02-10 15:19:44.910128+01 | 1486736384.91013 | pgbench_accounts_pkey |        690159616

 2017-02-10 15:19:45.962786+01 | 1486736385.96279 | pgbench_branches_pkey |            16384
 2017-02-10 15:19:45.962786+01 | 1486736385.96279 | pgbench_tellers_pkey  |            90112
 2017-02-10 15:19:45.962786+01 | 1486736385.96279 | pgbench_accounts_pkey |        690159616

 2017-02-10 15:19:47.01408+01 | 1486736387.01408 | pgbench_branches_pkey |            16384
 2017-02-10 15:19:47.01408+01 | 1486736387.01408 | pgbench_tellers_pkey  |            90112
 2017-02-10 15:19:47.01408+01 | 1486736387.01408 | pgbench_accounts_pkey |        690159616

 2017-02-10 15:19:48.064603+01 | 1486736388.0646 | pgbench_branches_pkey |            16384
 2017-02-10 15:19:48.064603+01 | 1486736388.0646 | pgbench_tellers_pkey  |            90112
 2017-02-10 15:19:48.064603+01 | 1486736388.0646 | pgbench_accounts_pkey |        690159616

 2017-02-10 15:19:49.120466+01 | 1486736389.12047 | pgbench_branches_pkey |            16384
 2017-02-10 15:19:49.120466+01 | 1486736389.12047 | pgbench_tellers_pkey  |            90112
 2017-02-10 15:19:49.120466+01 | 1486736389.12047 | pgbench_accounts_pkey |        690159616

 2017-02-10 15:19:50.171863+01 | 1486736390.17186 | pgbench_branches_pkey |            16384
 2017-02-10 15:19:50.171863+01 | 1486736390.17186 | pgbench_tellers_pkey  |            90112
 2017-02-10 15:19:50.171863+01 | 1486736390.17186 | pgbench_accounts_pkey |        690159616

 2017-02-10 15:19:51.214546+01 | 1486736391.21455 | pgbench_branches_pkey |            16384
 2017-02-10 15:19:51.214546+01 | 1486736391.21455 | pgbench_tellers_pkey  |            90112
 2017-02-10 15:19:51.214546+01 | 1486736391.21455 | pgbench_accounts_pkey |        690159616

 2017-02-10 15:19:52.271657+01 | 1486736392.27166 | pgbench_branches_pkey |            16384
 2017-02-10 15:19:52.271657+01 | 1486736392.27166 | pgbench_tellers_pkey  |            90112
 2017-02-10 15:19:52.271657+01 | 1486736392.27166 | pgbench_accounts_pkey |        690159616

 2017-02-10 15:19:53.324996+01 | 1486736393.325 | pgbench_branches_pkey |            16384
 2017-02-10 15:19:53.324996+01 | 1486736393.325 | pgbench_tellers_pkey  |            90112
 2017-02-10 15:19:53.324996+01 | 1486736393.325 | pgbench_accounts_pkey |        690159616

 2017-02-10 15:19:54.382055+01 | 1486736394.38206 | pgbench_branches_pkey |            16384
 2017-02-10 15:19:54.382055+01 | 1486736394.38206 | pgbench_tellers_pkey  |            90112
 2017-02-10 15:19:54.382055+01 | 1486736394.38206 | pgbench_accounts_pkey |        690159616

 2017-02-10 15:19:55.435359+01 | 1486736395.43536 | pgbench_branches_pkey |            16384
 2017-02-10 15:19:55.435359+01 | 1486736395.43536 | pgbench_tellers_pkey  |            90112
 2017-02-10 15:19:55.435359+01 | 1486736395.43536 | pgbench_accounts_pkey |        690159616

 2017-02-10 15:19:56.49493+01 | 1486736396.49493 | pgbench_branches_pkey |            16384
 2017-02-10 15:19:56.49493+01 | 1486736396.49493 | pgbench_tellers_pkey  |            90112
 2017-02-10 15:19:56.49493+01 | 1486736396.49493 | pgbench_accounts_pkey |        690159616

 2017-02-10 15:19:57.544765+01 | 1486736397.54476 | pgbench_branches_pkey |            16384
 2017-02-10 15:19:57.544765+01 | 1486736397.54476 | pgbench_tellers_pkey  |            90112
 2017-02-10 15:19:57.544765+01 | 1486736397.54476 | pgbench_accounts_pkey |        690159616

 2017-02-10 15:19:58.598769+01 | 1486736398.59877 | pgbench_branches_pkey |            16384
 2017-02-10 15:19:58.598769+01 | 1486736398.59877 | pgbench_tellers_pkey  |            90112
 2017-02-10 15:19:58.598769+01 | 1486736398.59877 | pgbench_accounts_pkey |        690159616

 2017-02-10 15:19:59.650683+01 | 1486736399.65068 | pgbench_branches_pkey |            16384
 2017-02-10 15:19:59.650683+01 | 1486736399.65068 | pgbench_tellers_pkey  |            90112
 2017-02-10 15:19:59.650683+01 | 1486736399.65068 | pgbench_accounts_pkey |        690159616

 2017-02-10 15:20:00.70574+01 | 1486736400.70574 | pgbench_branches_pkey |            16384
 2017-02-10 15:20:00.70574+01 | 1486736400.70574 | pgbench_tellers_pkey  |            90112
 2017-02-10 15:20:00.70574+01 | 1486736400.70574 | pgbench_accounts_pkey |        690159616

 2017-02-10 15:20:01.756744+01 | 1486736401.75674 | pgbench_branches_pkey |            16384
 2017-02-10 15:20:01.756744+01 | 1486736401.75674 | pgbench_tellers_pkey  |            90112
 2017-02-10 15:20:01.756744+01 | 1486736401.75674 | pgbench_accounts_pkey |        690159616

 2017-02-10 15:20:02.812554+01 | 1486736402.81255 | pgbench_branches_pkey |            16384
 2017-02-10 15:20:02.812554+01 | 1486736402.81255 | pgbench_tellers_pkey  |            90112
 2017-02-10 15:20:02.812554+01 | 1486736402.81255 | pgbench_accounts_pkey |        690159616

 2017-02-10 15:20:03.864309+01 | 1486736403.86431 | pgbench_branches_pkey |            16384
 2017-02-10 15:20:03.864309+01 | 1486736403.86431 | pgbench_tellers_pkey  |            90112
 2017-02-10 15:20:03.864309+01 | 1486736403.86431 | pgbench_accounts_pkey |        690159616

 2017-02-10 15:20:04.915957+01 | 1486736404.91596 | pgbench_branches_pkey |            16384
 2017-02-10 15:20:04.915957+01 | 1486736404.91596 | pgbench_tellers_pkey  |            90112
 2017-02-10 15:20:04.915957+01 | 1486736404.91596 | pgbench_accounts_pkey |        690159616

 2017-02-10 15:20:05.968638+01 | 1486736405.96864 | pgbench_branches_pkey |            16384
 2017-02-10 15:20:05.968638+01 | 1486736405.96864 | pgbench_tellers_pkey  |            90112
 2017-02-10 15:20:05.968638+01 | 1486736405.96864 | pgbench_accounts_pkey |        690159616

 2017-02-10 15:20:07.0214+01 | 1486736407.0214 | pgbench_branches_pkey |            16384
 2017-02-10 15:20:07.0214+01 | 1486736407.0214 | pgbench_tellers_pkey  |            90112
 2017-02-10 15:20:07.0214+01 | 1486736407.0214 | pgbench_accounts_pkey |        690159616

 2017-02-10 15:20:08.073917+01 | 1486736408.07392 | pgbench_branches_pkey |            16384
 2017-02-10 15:20:08.073917+01 | 1486736408.07392 | pgbench_tellers_pkey  |            90112
 2017-02-10 15:20:08.073917+01 | 1486736408.07392 | pgbench_accounts_pkey |        690159616

 2017-02-10 15:20:09.12507+01 | 1486736409.12507 | pgbench_branches_pkey |            16384
 2017-02-10 15:20:09.12507+01 | 1486736409.12507 | pgbench_tellers_pkey  |            90112
 2017-02-10 15:20:09.12507+01 | 1486736409.12507 | pgbench_accounts_pkey |        690159616

 2017-02-10 15:20:10.17743+01 | 1486736410.17743 | pgbench_branches_pkey |            16384
 2017-02-10 15:20:10.17743+01 | 1486736410.17743 | pgbench_tellers_pkey  |            90112
 2017-02-10 15:20:10.17743+01 | 1486736410.17743 | pgbench_accounts_pkey |        690159616

 2017-02-10 15:20:11.228761+01 | 1486736411.22876 | pgbench_branches_pkey |            16384
 2017-02-10 15:20:11.228761+01 | 1486736411.22876 | pgbench_tellers_pkey  |            90112
 2017-02-10 15:20:11.228761+01 | 1486736411.22876 | pgbench_accounts_pkey |        690159616

 2017-02-10 15:20:12.280288+01 | 1486736412.28029 | pgbench_branches_pkey |            16384
 2017-02-10 15:20:12.280288+01 | 1486736412.28029 | pgbench_tellers_pkey  |            90112
 2017-02-10 15:20:12.280288+01 | 1486736412.28029 | pgbench_accounts_pkey |        690159616

 2017-02-10 15:20:13.333281+01 | 1486736413.33328 | pgbench_branches_pkey |            16384
 2017-02-10 15:20:13.333281+01 | 1486736413.33328 | pgbench_tellers_pkey  |            90112
 2017-02-10 15:20:13.333281+01 | 1486736413.33328 | pgbench_accounts_pkey |        690159616

 2017-02-10 15:20:14.387183+01 | 1486736414.38718 | pgbench_branches_pkey |            16384
 2017-02-10 15:20:14.387183+01 | 1486736414.38718 | pgbench_tellers_pkey  |            90112
 2017-02-10 15:20:14.387183+01 | 1486736414.38718 | pgbench_accounts_pkey |        690159616

 2017-02-10 15:20:15.438343+01 | 1486736415.43834 | pgbench_branches_pkey |            16384
 2017-02-10 15:20:15.438343+01 | 1486736415.43834 | pgbench_tellers_pkey  |            90112
 2017-02-10 15:20:15.438343+01 | 1486736415.43834 | pgbench_accounts_pkey |        690159616

 2017-02-10 15:20:16.488422+01 | 1486736416.48842 | pgbench_branches_pkey |            16384
 2017-02-10 15:20:16.488422+01 | 1486736416.48842 | pgbench_tellers_pkey  |            90112
 2017-02-10 15:20:16.488422+01 | 1486736416.48842 | pgbench_accounts_pkey |        690159616

 2017-02-10 15:20:17.540583+01 | 1486736417.54058 | pgbench_branches_pkey |            16384
 2017-02-10 15:20:17.540583+01 | 1486736417.54058 | pgbench_tellers_pkey  |            90112
 2017-02-10 15:20:17.540583+01 | 1486736417.54058 | pgbench_accounts_pkey |        690159616

 2017-02-10 15:20:18.591118+01 | 1486736418.59112 | pgbench_branches_pkey |            16384
 2017-02-10 15:20:18.591118+01 | 1486736418.59112 | pgbench_tellers_pkey  |            90112
 2017-02-10 15:20:18.591118+01 | 1486736418.59112 | pgbench_accounts_pkey |        690159616

 2017-02-10 15:20:19.646162+01 | 1486736419.64616 | pgbench_branches_pkey |            16384
 2017-02-10 15:20:19.646162+01 | 1486736419.64616 | pgbench_tellers_pkey  |            90112
 2017-02-10 15:20:19.646162+01 | 1486736419.64616 | pgbench_accounts_pkey |        690159616

 2017-02-10 15:20:20.697607+01 | 1486736420.69761 | pgbench_branches_pkey |            16384
 2017-02-10 15:20:20.697607+01 | 1486736420.69761 | pgbench_tellers_pkey  |            90112
 2017-02-10 15:20:20.697607+01 | 1486736420.69761 | pgbench_accounts_pkey |        690159616

 2017-02-10 15:20:21.748597+01 | 1486736421.7486 | pgbench_branches_pkey |            16384
 2017-02-10 15:20:21.748597+01 | 1486736421.7486 | pgbench_tellers_pkey  |            90112
 2017-02-10 15:20:21.748597+01 | 1486736421.7486 | pgbench_accounts_pkey |        690159616

 2017-02-10 15:20:22.806967+01 | 1486736422.80697 | pgbench_branches_pkey |            16384
 2017-02-10 15:20:22.806967+01 | 1486736422.80697 | pgbench_tellers_pkey  |            90112
 2017-02-10 15:20:22.806967+01 | 1486736422.80697 | pgbench_accounts_pkey |        690159616

 2017-02-10 15:20:23.862448+01 | 1486736423.86245 | pgbench_branches_pkey |            16384
 2017-02-10 15:20:23.862448+01 | 1486736423.86245 | pgbench_tellers_pkey  |            90112
 2017-02-10 15:20:23.862448+01 | 1486736423.86245 | pgbench_accounts_pkey |        690159616

 2017-02-10 15:20:24.914469+01 | 1486736424.91447 | pgbench_branches_pkey |            16384
 2017-02-10 15:20:24.914469+01 | 1486736424.91447 | pgbench_tellers_pkey  |            90112
 2017-02-10 15:20:24.914469+01 | 1486736424.91447 | pgbench_accounts_pkey |        690159616

 2017-02-10 15:20:25.965948+01 | 1486736425.96595 | pgbench_branches_pkey |            16384
 2017-02-10 15:20:25.965948+01 | 1486736425.96595 | pgbench_tellers_pkey  |            90112
 2017-02-10 15:20:25.965948+01 | 1486736425.96595 | pgbench_accounts_pkey |        690159616

 2017-02-10 15:20:27.019472+01 | 1486736427.01947 | pgbench_branches_pkey |            16384
 2017-02-10 15:20:27.019472+01 | 1486736427.01947 | pgbench_tellers_pkey  |            90112
 2017-02-10 15:20:27.019472+01 | 1486736427.01947 | pgbench_accounts_pkey |        690159616

 2017-02-10 15:20:28.075836+01 | 1486736428.07584 | pgbench_branches_pkey |            16384
 2017-02-10 15:20:28.075836+01 | 1486736428.07584 | pgbench_tellers_pkey  |            90112
 2017-02-10 15:20:28.075836+01 | 1486736428.07584 | pgbench_accounts_pkey |        690159616

 2017-02-10 15:20:29.129338+01 | 1486736429.12934 | pgbench_branches_pkey |            16384
 2017-02-10 15:20:29.129338+01 | 1486736429.12934 | pgbench_tellers_pkey  |            90112
 2017-02-10 15:20:29.129338+01 | 1486736429.12934 | pgbench_accounts_pkey |        690159616

 2017-02-10 15:20:30.181421+01 | 1486736430.18142 | pgbench_branches_pkey |            16384
 2017-02-10 15:20:30.181421+01 | 1486736430.18142 | pgbench_tellers_pkey  |            90112
 2017-02-10 15:20:30.181421+01 | 1486736430.18142 | pgbench_accounts_pkey |        690159616

 2017-02-10 15:20:31.233017+01 | 1486736431.23302 | pgbench_branches_pkey |            16384
 2017-02-10 15:20:31.233017+01 | 1486736431.23302 | pgbench_tellers_pkey  |            90112
 2017-02-10 15:20:31.233017+01 | 1486736431.23302 | pgbench_accounts_pkey |        690159616

 2017-02-10 15:20:32.284984+01 | 1486736432.28498 | pgbench_branches_pkey |            16384
 2017-02-10 15:20:32.284984+01 | 1486736432.28498 | pgbench_tellers_pkey  |            90112
 2017-02-10 15:20:32.284984+01 | 1486736432.28498 | pgbench_accounts_pkey |        690159616

 2017-02-10 15:20:33.336287+01 | 1486736433.33629 | pgbench_branches_pkey |            16384
 2017-02-10 15:20:33.336287+01 | 1486736433.33629 | pgbench_tellers_pkey  |            90112
 2017-02-10 15:20:33.336287+01 | 1486736433.33629 | pgbench_accounts_pkey |        690159616

 2017-02-10 15:20:34.388094+01 | 1486736434.38809 | pgbench_branches_pkey |            16384
 2017-02-10 15:20:34.388094+01 | 1486736434.38809 | pgbench_tellers_pkey  |            90112
 2017-02-10 15:20:34.388094+01 | 1486736434.38809 | pgbench_accounts_pkey |        690159616

 2017-02-10 15:20:35.440092+01 | 1486736435.44009 | pgbench_branches_pkey |            16384
 2017-02-10 15:20:35.440092+01 | 1486736435.44009 | pgbench_tellers_pkey  |            90112
 2017-02-10 15:20:35.440092+01 | 1486736435.44009 | pgbench_accounts_pkey |        690159616

 2017-02-10 15:20:36.493953+01 | 1486736436.49395 | pgbench_branches_pkey |            16384
 2017-02-10 15:20:36.493953+01 | 1486736436.49395 | pgbench_tellers_pkey  |            90112
 2017-02-10 15:20:36.493953+01 | 1486736436.49395 | pgbench_accounts_pkey |        690159616

 2017-02-10 15:20:37.547699+01 | 1486736437.5477 | pgbench_branches_pkey |            16384
 2017-02-10 15:20:37.547699+01 | 1486736437.5477 | pgbench_tellers_pkey  |            90112
 2017-02-10 15:20:37.547699+01 | 1486736437.5477 | pgbench_accounts_pkey |        690159616

 2017-02-10 15:20:38.600671+01 | 1486736438.60067 | pgbench_branches_pkey |            16384
 2017-02-10 15:20:38.600671+01 | 1486736438.60067 | pgbench_tellers_pkey  |            90112
 2017-02-10 15:20:38.600671+01 | 1486736438.60067 | pgbench_accounts_pkey |        690159616

 2017-02-10 15:20:39.652943+01 | 1486736439.65294 | pgbench_branches_pkey |            16384
 2017-02-10 15:20:39.652943+01 | 1486736439.65294 | pgbench_tellers_pkey  |            90112
 2017-02-10 15:20:39.652943+01 | 1486736439.65294 | pgbench_accounts_pkey |        690159616

 2017-02-10 15:20:40.70499+01 | 1486736440.70499 | pgbench_branches_pkey |            16384
 2017-02-10 15:20:40.70499+01 | 1486736440.70499 | pgbench_tellers_pkey  |            90112
 2017-02-10 15:20:40.70499+01 | 1486736440.70499 | pgbench_accounts_pkey |        690159616

 2017-02-10 15:20:41.760172+01 | 1486736441.76017 | pgbench_branches_pkey |            16384
 2017-02-10 15:20:41.760172+01 | 1486736441.76017 | pgbench_tellers_pkey  |            90112
 2017-02-10 15:20:41.760172+01 | 1486736441.76017 | pgbench_accounts_pkey |        690159616

 2017-02-10 15:20:42.814291+01 | 1486736442.81429 | pgbench_branches_pkey |            16384
 2017-02-10 15:20:42.814291+01 | 1486736442.81429 | pgbench_tellers_pkey  |            90112
 2017-02-10 15:20:42.814291+01 | 1486736442.81429 | pgbench_accounts_pkey |        690159616

 2017-02-10 15:20:43.867549+01 | 1486736443.86755 | pgbench_branches_pkey |            16384
 2017-02-10 15:20:43.867549+01 | 1486736443.86755 | pgbench_tellers_pkey  |            90112
 2017-02-10 15:20:43.867549+01 | 1486736443.86755 | pgbench_accounts_pkey |        690159616

 2017-02-10 15:20:44.919333+01 | 1486736444.91933 | pgbench_branches_pkey |            16384
 2017-02-10 15:20:44.919333+01 | 1486736444.91933 | pgbench_tellers_pkey  |            90112
 2017-02-10 15:20:44.919333+01 | 1486736444.91933 | pgbench_accounts_pkey |        690159616

 2017-02-10 15:20:45.969029+01 | 1486736445.96903 | pgbench_branches_pkey |            16384
 2017-02-10 15:20:45.969029+01 | 1486736445.96903 | pgbench_tellers_pkey  |            90112
 2017-02-10 15:20:45.969029+01 | 1486736445.96903 | pgbench_accounts_pkey |        690159616

 2017-02-10 15:20:47.021183+01 | 1486736447.02118 | pgbench_branches_pkey |            16384
 2017-02-10 15:20:47.021183+01 | 1486736447.02118 | pgbench_tellers_pkey  |            90112
 2017-02-10 15:20:47.021183+01 | 1486736447.02118 | pgbench_accounts_pkey |        690159616

 2017-02-10 15:20:48.074032+01 | 1486736448.07403 | pgbench_branches_pkey |            16384
 2017-02-10 15:20:48.074032+01 | 1486736448.07403 | pgbench_tellers_pkey  |            90112
 2017-02-10 15:20:48.074032+01 | 1486736448.07403 | pgbench_accounts_pkey |        690159616

 2017-02-10 15:20:49.126602+01 | 1486736449.1266 | pgbench_branches_pkey |            16384
 2017-02-10 15:20:49.126602+01 | 1486736449.1266 | pgbench_tellers_pkey  |            90112
 2017-02-10 15:20:49.126602+01 | 1486736449.1266 | pgbench_accounts_pkey |        690159616

 2017-02-10 15:20:50.179031+01 | 1486736450.17903 | pgbench_branches_pkey |            16384
 2017-02-10 15:20:50.179031+01 | 1486736450.17903 | pgbench_tellers_pkey  |            90112
 2017-02-10 15:20:50.179031+01 | 1486736450.17903 | pgbench_accounts_pkey |        690159616

 2017-02-10 15:20:51.220517+01 | 1486736451.22052 | pgbench_branches_pkey |            16384
 2017-02-10 15:20:51.220517+01 | 1486736451.22052 | pgbench_tellers_pkey  |            90112
 2017-02-10 15:20:51.220517+01 | 1486736451.22052 | pgbench_accounts_pkey |        690159616

 2017-02-10 15:20:52.277922+01 | 1486736452.27792 | pgbench_branches_pkey |            16384
 2017-02-10 15:20:52.277922+01 | 1486736452.27792 | pgbench_tellers_pkey  |            90112
 2017-02-10 15:20:52.277922+01 | 1486736452.27792 | pgbench_accounts_pkey |        690159616

 2017-02-10 15:20:53.329841+01 | 1486736453.32984 | pgbench_branches_pkey |            16384
 2017-02-10 15:20:53.329841+01 | 1486736453.32984 | pgbench_tellers_pkey  |            90112
 2017-02-10 15:20:53.329841+01 | 1486736453.32984 | pgbench_accounts_pkey |        690159616

 2017-02-10 15:20:54.380734+01 | 1486736454.38073 | pgbench_branches_pkey |            16384
 2017-02-10 15:20:54.380734+01 | 1486736454.38073 | pgbench_tellers_pkey  |            90112
 2017-02-10 15:20:54.380734+01 | 1486736454.38073 | pgbench_accounts_pkey |        690159616

 2017-02-10 15:20:55.435518+01 | 1486736455.43552 | pgbench_branches_pkey |            16384
 2017-02-10 15:20:55.435518+01 | 1486736455.43552 | pgbench_tellers_pkey  |            90112
 2017-02-10 15:20:55.435518+01 | 1486736455.43552 | pgbench_accounts_pkey |        690159616

 2017-02-10 15:20:56.486598+01 | 1486736456.4866 | pgbench_branches_pkey |            16384
 2017-02-10 15:20:56.486598+01 | 1486736456.4866 | pgbench_tellers_pkey  |            90112
 2017-02-10 15:20:56.486598+01 | 1486736456.4866 | pgbench_accounts_pkey |        690159616

 2017-02-10 15:20:57.537599+01 | 1486736457.5376 | pgbench_branches_pkey |            16384
 2017-02-10 15:20:57.537599+01 | 1486736457.5376 | pgbench_tellers_pkey  |            90112
 2017-02-10 15:20:57.537599+01 | 1486736457.5376 | pgbench_accounts_pkey |        690159616

 2017-02-10 15:20:58.591547+01 | 1486736458.59155 | pgbench_branches_pkey |            16384
 2017-02-10 15:20:58.591547+01 | 1486736458.59155 | pgbench_tellers_pkey  |            90112
 2017-02-10 15:20:58.591547+01 | 1486736458.59155 | pgbench_accounts_pkey |        690159616

 2017-02-10 15:20:59.641327+01 | 1486736459.64133 | pgbench_branches_pkey |            16384
 2017-02-10 15:20:59.641327+01 | 1486736459.64133 | pgbench_tellers_pkey  |            90112
 2017-02-10 15:20:59.641327+01 | 1486736459.64133 | pgbench_accounts_pkey |        690159616

 2017-02-10 15:21:00.696727+01 | 1486736460.69673 | pgbench_branches_pkey |            16384
 2017-02-10 15:21:00.696727+01 | 1486736460.69673 | pgbench_tellers_pkey  |            90112
 2017-02-10 15:21:00.696727+01 | 1486736460.69673 | pgbench_accounts_pkey |        690159616

 2017-02-10 15:21:01.748673+01 | 1486736461.74867 | pgbench_branches_pkey |            16384
 2017-02-10 15:21:01.748673+01 | 1486736461.74867 | pgbench_tellers_pkey  |            90112
 2017-02-10 15:21:01.748673+01 | 1486736461.74867 | pgbench_accounts_pkey |        690159616

 2017-02-10 15:21:02.801519+01 | 1486736462.80152 | pgbench_branches_pkey |            16384
 2017-02-10 15:21:02.801519+01 | 1486736462.80152 | pgbench_tellers_pkey  |            90112
 2017-02-10 15:21:02.801519+01 | 1486736462.80152 | pgbench_accounts_pkey |        690159616

 2017-02-10 15:21:03.857527+01 | 1486736463.85753 | pgbench_branches_pkey |            16384
 2017-02-10 15:21:03.857527+01 | 1486736463.85753 | pgbench_tellers_pkey  |            90112
 2017-02-10 15:21:03.857527+01 | 1486736463.85753 | pgbench_accounts_pkey |        690159616

 2017-02-10 15:21:04.909819+01 | 1486736464.90982 | pgbench_branches_pkey |            16384
 2017-02-10 15:21:04.909819+01 | 1486736464.90982 | pgbench_tellers_pkey  |            90112
 2017-02-10 15:21:04.909819+01 | 1486736464.90982 | pgbench_accounts_pkey |        690159616

 2017-02-10 15:21:05.965117+01 | 1486736465.96512 | pgbench_branches_pkey |            16384
 2017-02-10 15:21:05.965117+01 | 1486736465.96512 | pgbench_tellers_pkey  |            90112
 2017-02-10 15:21:05.965117+01 | 1486736465.96512 | pgbench_accounts_pkey |        690159616

 2017-02-10 15:21:07.016819+01 | 1486736467.01682 | pgbench_branches_pkey |            16384
 2017-02-10 15:21:07.016819+01 | 1486736467.01682 | pgbench_tellers_pkey  |            90112
 2017-02-10 15:21:07.016819+01 | 1486736467.01682 | pgbench_accounts_pkey |        690159616

 2017-02-10 15:21:08.069827+01 | 1486736468.06983 | pgbench_branches_pkey |            16384
 2017-02-10 15:21:08.069827+01 | 1486736468.06983 | pgbench_tellers_pkey  |            90112
 2017-02-10 15:21:08.069827+01 | 1486736468.06983 | pgbench_accounts_pkey |        690159616

 2017-02-10 15:21:09.120854+01 | 1486736469.12085 | pgbench_branches_pkey |            16384
 2017-02-10 15:21:09.120854+01 | 1486736469.12085 | pgbench_tellers_pkey  |            90112
 2017-02-10 15:21:09.120854+01 | 1486736469.12085 | pgbench_accounts_pkey |        690159616

 2017-02-10 15:21:10.172257+01 | 1486736470.17226 | pgbench_branches_pkey |            16384
 2017-02-10 15:21:10.172257+01 | 1486736470.17226 | pgbench_tellers_pkey  |            90112
 2017-02-10 15:21:10.172257+01 | 1486736470.17226 | pgbench_accounts_pkey |        690159616

 2017-02-10 15:21:11.223844+01 | 1486736471.22384 | pgbench_branches_pkey |            16384
 2017-02-10 15:21:11.223844+01 | 1486736471.22384 | pgbench_tellers_pkey  |            90112
 2017-02-10 15:21:11.223844+01 | 1486736471.22384 | pgbench_accounts_pkey |        690159616

 2017-02-10 15:21:12.279896+01 | 1486736472.2799 | pgbench_branches_pkey |            16384
 2017-02-10 15:21:12.279896+01 | 1486736472.2799 | pgbench_tellers_pkey  |            90112
 2017-02-10 15:21:12.279896+01 | 1486736472.2799 | pgbench_accounts_pkey |        690159616

 2017-02-10 15:21:13.335526+01 | 1486736473.33553 | pgbench_branches_pkey |            16384
 2017-02-10 15:21:13.335526+01 | 1486736473.33553 | pgbench_tellers_pkey  |            90112
 2017-02-10 15:21:13.335526+01 | 1486736473.33553 | pgbench_accounts_pkey |        690159616

 2017-02-10 15:21:14.38934+01 | 1486736474.38934 | pgbench_branches_pkey |            16384
 2017-02-10 15:21:14.38934+01 | 1486736474.38934 | pgbench_tellers_pkey  |            90112
 2017-02-10 15:21:14.38934+01 | 1486736474.38934 | pgbench_accounts_pkey |        690159616

 2017-02-10 15:21:15.443685+01 | 1486736475.44369 | pgbench_branches_pkey |            16384
 2017-02-10 15:21:15.443685+01 | 1486736475.44369 | pgbench_tellers_pkey  |            90112
 2017-02-10 15:21:15.443685+01 | 1486736475.44369 | pgbench_accounts_pkey |        690159616

 2017-02-10 15:21:16.500481+01 | 1486736476.50048 | pgbench_branches_pkey |            16384
 2017-02-10 15:21:16.500481+01 | 1486736476.50048 | pgbench_tellers_pkey  |            90112
 2017-02-10 15:21:16.500481+01 | 1486736476.50048 | pgbench_accounts_pkey |        690159616

 2017-02-10 15:21:17.55476+01 | 1486736477.55476 | pgbench_branches_pkey |            16384
 2017-02-10 15:21:17.55476+01 | 1486736477.55476 | pgbench_tellers_pkey  |            90112
 2017-02-10 15:21:17.55476+01 | 1486736477.55476 | pgbench_accounts_pkey |        690159616

 2017-02-10 15:21:18.607043+01 | 1486736478.60704 | pgbench_branches_pkey |            16384
 2017-02-10 15:21:18.607043+01 | 1486736478.60704 | pgbench_tellers_pkey  |            90112
 2017-02-10 15:21:18.607043+01 | 1486736478.60704 | pgbench_accounts_pkey |        690159616

