 2017-02-10 15:16:19.442369+01 | 1486736179.44237 |                 0 |               7 |                  4275 |                  344 |             590409 |        868508 |             8645 |         9454306 |                     0 |       8423014 | 2017-02-10 14:45:20.166902+01

 2017-02-10 15:16:20.494746+01 | 1486736180.49475 |                 0 |               7 |                  4275 |                  344 |             590409 |        868508 |             8645 |         9454306 |                     0 |       8426656 | 2017-02-10 14:45:20.166902+01

 2017-02-10 15:16:21.546968+01 | 1486736181.54697 |                 0 |               7 |                  4275 |                  344 |             590409 |        868508 |             8645 |         9454306 |                     0 |       8430090 | 2017-02-10 14:45:20.166902+01

 2017-02-10 15:16:22.602604+01 | 1486736182.6026 |                 0 |               7 |                  4275 |                  344 |             590409 |        868508 |             8645 |         9454306 |                     0 |       8433619 | 2017-02-10 14:45:20.166902+01

 2017-02-10 15:16:23.653416+01 | 1486736183.65342 |                 0 |               7 |                  4275 |                  344 |             590409 |        868508 |             8645 |         9454306 |                     0 |       8437329 | 2017-02-10 14:45:20.166902+01

 2017-02-10 15:16:24.7054+01 | 1486736184.7054 |                 0 |               7 |                  4275 |                  344 |             590409 |        868518 |             8645 |         9454306 |                     0 |       8441748 | 2017-02-10 14:45:20.166902+01

 2017-02-10 15:16:25.756318+01 | 1486736185.75632 |                 0 |               7 |                  4275 |                  344 |             590409 |        868532 |             8645 |         9454306 |                     0 |       8445606 | 2017-02-10 14:45:20.166902+01

 2017-02-10 15:16:26.807034+01 | 1486736186.80703 |                 0 |               7 |                  4275 |                  344 |             590409 |        868547 |             8645 |         9454306 |                     0 |       8449406 | 2017-02-10 14:45:20.166902+01

 2017-02-10 15:16:27.858702+01 | 1486736187.8587 |                 0 |               7 |                  4275 |                  344 |             590409 |        868572 |             8645 |         9454306 |                     0 |       8453500 | 2017-02-10 14:45:20.166902+01

 2017-02-10 15:16:28.908794+01 | 1486736188.90879 |                 0 |               7 |                  4275 |                  344 |             590409 |        868840 |             8645 |         9454306 |                     0 |       8457532 | 2017-02-10 14:45:20.166902+01

 2017-02-10 15:16:29.96095+01 | 1486736189.96095 |                 0 |               7 |                  4275 |                  344 |             590409 |        869381 |             8647 |         9454306 |                     0 |       8462353 | 2017-02-10 14:45:20.166902+01

 2017-02-10 15:16:31.011492+01 | 1486736191.01149 |                 0 |               7 |                  4275 |                  344 |             590409 |        869881 |             8652 |         9454306 |                     0 |       8466645 | 2017-02-10 14:45:20.166902+01

 2017-02-10 15:16:32.06286+01 | 1486736192.06286 |                 0 |               7 |                  4275 |                  344 |             590409 |        870381 |             8657 |         9454306 |                     0 |       8470797 | 2017-02-10 14:45:20.166902+01

 2017-02-10 15:16:33.117262+01 | 1486736193.11726 |                 0 |               7 |                  4275 |                  344 |             590409 |        870881 |             8662 |         9454306 |                     0 |       8474746 | 2017-02-10 14:45:20.166902+01

 2017-02-10 15:16:34.16697+01 | 1486736194.16697 |                 0 |               7 |                  4275 |                  344 |             590409 |        871481 |             8668 |         9454306 |                     0 |       8479626 | 2017-02-10 14:45:20.166902+01

 2017-02-10 15:16:35.217604+01 | 1486736195.2176 |                 0 |               7 |                  4275 |                  344 |             590409 |        871981 |             8673 |         9454306 |                     0 |       8483932 | 2017-02-10 14:45:20.166902+01

 2017-02-10 15:16:36.270731+01 | 1486736196.27073 |                 0 |               7 |                  4275 |                  344 |             590409 |        872481 |             8678 |         9454306 |                     0 |       8487895 | 2017-02-10 14:45:20.166902+01

 2017-02-10 15:16:37.338813+01 | 1486736197.33881 |                 0 |               7 |                  4275 |                  344 |             590409 |        872981 |             8683 |         9454306 |                     0 |       8491941 | 2017-02-10 14:45:20.166902+01

 2017-02-10 15:16:38.392221+01 | 1486736198.39222 |                 0 |               7 |                  4275 |                  344 |             590409 |        873581 |             8689 |         9454306 |                     0 |       8496853 | 2017-02-10 14:45:20.166902+01

 2017-02-10 15:16:39.444418+01 | 1486736199.44442 |                 0 |               7 |                  4275 |                  344 |             590409 |        874081 |             8694 |         9454306 |                     0 |       8500954 | 2017-02-10 14:45:20.166902+01

 2017-02-10 15:16:40.497166+01 | 1486736200.49717 |                 0 |               7 |                  4275 |                  344 |             590409 |        874581 |             8699 |         9454306 |                     0 |       8505349 | 2017-02-10 14:45:20.166902+01

 2017-02-10 15:16:41.554126+01 | 1486736201.55413 |                 0 |               7 |                  4275 |                  344 |             590409 |        875081 |             8704 |         9454306 |                     0 |       8509380 | 2017-02-10 14:45:20.166902+01

 2017-02-10 15:16:42.606007+01 | 1486736202.60601 |                 0 |               7 |                  4275 |                  344 |             590409 |        875681 |             8710 |         9454306 |                     0 |       8514662 | 2017-02-10 14:45:20.166902+01

 2017-02-10 15:16:43.663767+01 | 1486736203.66377 |                 0 |               7 |                  4275 |                  344 |             590409 |        876181 |             8715 |         9454306 |                     0 |       8518701 | 2017-02-10 14:45:20.166902+01

 2017-02-10 15:16:44.716553+01 | 1486736204.71655 |                 0 |               7 |                  4275 |                  344 |             590409 |        876681 |             8720 |         9511769 |                     0 |       8523128 | 2017-02-10 14:45:20.166902+01

 2017-02-10 15:16:45.767986+01 | 1486736205.76799 |                 0 |               7 |                  4275 |                  344 |             590409 |        877181 |             8725 |         9511769 |                     0 |       8527268 | 2017-02-10 14:45:20.166902+01

 2017-02-10 15:16:46.821604+01 | 1486736206.8216 |                 0 |               7 |                  4275 |                  344 |             590409 |        877781 |             8731 |         9511769 |                     0 |       8532428 | 2017-02-10 14:45:20.166902+01

 2017-02-10 15:16:47.871372+01 | 1486736207.87137 |                 0 |               7 |                  4275 |                  344 |             590409 |        878281 |             8736 |         9511769 |                     0 |       8536447 | 2017-02-10 14:45:20.166902+01

 2017-02-10 15:16:48.922205+01 | 1486736208.9222 |                 0 |               7 |                  4275 |                  344 |             590409 |        878781 |             8741 |         9511769 |                     0 |       8540963 | 2017-02-10 14:45:20.166902+01

 2017-02-10 15:16:49.972561+01 | 1486736209.97256 |                 0 |               7 |                  4275 |                  344 |             590409 |        879281 |             8746 |         9511769 |                     0 |       8545003 | 2017-02-10 14:45:20.166902+01

 2017-02-10 15:16:51.026227+01 | 1486736211.02623 |                 0 |               7 |                  4275 |                  344 |             590409 |        879881 |             8752 |         9511769 |                     0 |       8550399 | 2017-02-10 14:45:20.166902+01

 2017-02-10 15:16:52.077291+01 | 1486736212.07729 |                 0 |               7 |                  4275 |                  344 |             590409 |        880381 |             8757 |         9511769 |                     0 |       8554548 | 2017-02-10 14:45:20.166902+01

 2017-02-10 15:16:53.129061+01 | 1486736213.12906 |                 0 |               7 |                  4275 |                  344 |             590409 |        880881 |             8762 |         9511769 |                     0 |       8558914 | 2017-02-10 14:45:20.166902+01

 2017-02-10 15:16:54.180975+01 | 1486736214.18097 |                 0 |               7 |                  4275 |                  344 |             590409 |        881381 |             8767 |         9511769 |                     0 |       8563132 | 2017-02-10 14:45:20.166902+01

 2017-02-10 15:16:55.233934+01 | 1486736215.23393 |                 0 |               7 |                  4275 |                  344 |             590409 |        881881 |             8772 |         9511769 |                     0 |       8567706 | 2017-02-10 14:45:20.166902+01

 2017-02-10 15:16:56.285604+01 | 1486736216.2856 |                 0 |               7 |                  4275 |                  344 |             590409 |        882481 |             8778 |         9511769 |                     0 |       8572875 | 2017-02-10 14:45:20.166902+01

 2017-02-10 15:16:57.338353+01 | 1486736217.33835 |                 0 |               7 |                  4275 |                  344 |             590409 |        882981 |             8783 |         9511769 |                     0 |       8577469 | 2017-02-10 14:45:20.166902+01

 2017-02-10 15:16:58.392133+01 | 1486736218.39213 |                 0 |               7 |                  4275 |                  344 |             590409 |        883481 |             8788 |         9511769 |                     0 |       8581702 | 2017-02-10 14:45:20.166902+01

 2017-02-10 15:16:59.450687+01 | 1486736219.45069 |                 0 |               7 |                  4275 |                  344 |             590409 |        883981 |             8793 |         9511769 |                     0 |       8586268 | 2017-02-10 14:45:20.166902+01

 2017-02-10 15:17:00.503134+01 | 1486736220.50313 |                 0 |               7 |                  4275 |                  344 |             590409 |        884581 |             8799 |         9569805 |                     0 |       8591425 | 2017-02-10 14:45:20.166902+01

 2017-02-10 15:17:01.558527+01 | 1486736221.55853 |                 0 |               7 |                  4275 |                  344 |             590409 |        885081 |             8804 |         9569805 |                     0 |       8595960 | 2017-02-10 14:45:20.166902+01

 2017-02-10 15:17:02.610709+01 | 1486736222.61071 |                 0 |               7 |                  4275 |                  344 |             590409 |        885581 |             8809 |         9569805 |                     0 |       8600176 | 2017-02-10 14:45:20.166902+01

 2017-02-10 15:17:03.663101+01 | 1486736223.6631 |                 0 |               7 |                  4275 |                  344 |             590409 |        886081 |             8814 |         9569805 |                     0 |       8604678 | 2017-02-10 14:45:20.166902+01

 2017-02-10 15:17:04.72089+01 | 1486736224.72089 |                 0 |               7 |                  4275 |                  344 |             590409 |        886681 |             8820 |         9569805 |                     0 |       8609987 | 2017-02-10 14:45:20.166902+01

 2017-02-10 15:17:05.775875+01 | 1486736225.77588 |                 0 |               7 |                  4275 |                  344 |             590409 |        887181 |             8825 |         9569805 |                     0 |       8614705 | 2017-02-10 14:45:20.166902+01

 2017-02-10 15:17:06.828264+01 | 1486736226.82826 |                 0 |               7 |                  4275 |                  344 |             590409 |        887681 |             8830 |         9569805 |                     0 |       8619055 | 2017-02-10 14:45:20.166902+01

 2017-02-10 15:17:07.879035+01 | 1486736227.87903 |                 0 |               7 |                  4275 |                  344 |             590409 |        888181 |             8835 |         9569805 |                     0 |       8623818 | 2017-02-10 14:45:20.166902+01

 2017-02-10 15:17:08.930086+01 | 1486736228.93009 |                 0 |               7 |                  4275 |                  344 |             590409 |        888781 |             8841 |         9569805 |                     0 |       8628965 | 2017-02-10 14:45:20.166902+01

 2017-02-10 15:17:09.983746+01 | 1486736229.98375 |                 0 |               7 |                  4275 |                  344 |             590409 |        889281 |             8846 |         9569805 |                     0 |       8633355 | 2017-02-10 14:45:20.166902+01

 2017-02-10 15:17:11.038816+01 | 1486736231.03882 |                 0 |               7 |                  4275 |                  344 |             590409 |        889781 |             8851 |         9569805 |                     0 |       8637950 | 2017-02-10 14:45:20.166902+01

 2017-02-10 15:17:12.089781+01 | 1486736232.08978 |                 0 |               7 |                  4275 |                  344 |             590409 |        890281 |             8856 |         9569805 |                     0 |       8641920 | 2017-02-10 14:45:20.166902+01

 2017-02-10 15:17:13.145481+01 | 1486736233.14548 |                 0 |               7 |                  4275 |                  344 |             590409 |        890781 |             8861 |         9569805 |                     0 |       8646027 | 2017-02-10 14:45:20.166902+01

 2017-02-10 15:17:14.199932+01 | 1486736234.19993 |                 0 |               7 |                  4275 |                  344 |             590409 |        891381 |             8867 |         9569805 |                     0 |       8651203 | 2017-02-10 14:45:20.166902+01

 2017-02-10 15:17:15.25102+01 | 1486736235.25102 |                 0 |               7 |                  4275 |                  344 |             590409 |        891881 |             8872 |         9627941 |                     0 |       8655216 | 2017-02-10 14:45:20.166902+01

 2017-02-10 15:17:16.303971+01 | 1486736236.30397 |                 0 |               7 |                  4275 |                  344 |             590409 |        892381 |             8877 |         9627941 |                     0 |       8659551 | 2017-02-10 14:45:20.166902+01

 2017-02-10 15:17:17.356281+01 | 1486736237.35628 |                 0 |               7 |                  4275 |                  344 |             590409 |        892881 |             8882 |         9627941 |                     0 |       8663671 | 2017-02-10 14:45:20.166902+01

 2017-02-10 15:17:18.408965+01 | 1486736238.40897 |                 0 |               7 |                  4275 |                  344 |             590409 |        893481 |             8888 |         9627941 |                     0 |       8668876 | 2017-02-10 14:45:20.166902+01

 2017-02-10 15:17:19.464596+01 | 1486736239.4646 |                 0 |               7 |                  4275 |                  344 |             590409 |        893981 |             8893 |         9627941 |                     0 |       8673167 | 2017-02-10 14:45:20.166902+01

 2017-02-10 15:17:20.521752+01 | 1486736240.52175 |                 0 |               7 |                  4275 |                  344 |             590409 |        894481 |             8898 |         9627941 |                     0 |       8677617 | 2017-02-10 14:45:20.166902+01

 2017-02-10 15:17:21.575207+01 | 1486736241.57521 |                 0 |               7 |                  4275 |                  344 |             590409 |        894981 |             8903 |         9627941 |                     0 |       8681776 | 2017-02-10 14:45:20.166902+01

 2017-02-10 15:17:22.62963+01 | 1486736242.62963 |                 0 |               7 |                  4275 |                  344 |             590409 |        895581 |             8909 |         9627941 |                     0 |       8687204 | 2017-02-10 14:45:20.166902+01

 2017-02-10 15:17:23.683343+01 | 1486736243.68334 |                 0 |               7 |                  4275 |                  344 |             590409 |        896081 |             8914 |         9627941 |                     0 |       8691536 | 2017-02-10 14:45:20.166902+01

 2017-02-10 15:17:24.735134+01 | 1486736244.73513 |                 0 |               7 |                  4275 |                  344 |             590409 |        896581 |             8919 |         9627941 |                     0 |       8695896 | 2017-02-10 14:45:20.166902+01

 2017-02-10 15:17:25.788586+01 | 1486736245.78859 |                 0 |               7 |                  4275 |                  344 |             590409 |        897081 |             8924 |         9627941 |                     0 |       8700040 | 2017-02-10 14:45:20.166902+01

 2017-02-10 15:17:26.845193+01 | 1486736246.84519 |                 0 |               7 |                  4275 |                  344 |             590409 |        897681 |             8930 |         9627941 |                     0 |       8705348 | 2017-02-10 14:45:20.166902+01

 2017-02-10 15:17:27.896891+01 | 1486736247.89689 |                 0 |               7 |                  4275 |                  344 |             590409 |        898181 |             8935 |         9627941 |                     0 |       8709605 | 2017-02-10 14:45:20.166902+01

 2017-02-10 15:17:28.948856+01 | 1486736248.94886 |                 0 |               7 |                  4275 |                  344 |             590409 |        898681 |             8940 |         9627941 |                     0 |       8714009 | 2017-02-10 14:45:20.166902+01

 2017-02-10 15:17:30.003072+01 | 1486736250.00307 |                 0 |               7 |                  4275 |                  344 |             590409 |        899181 |             8945 |         9686177 |                     0 |       8718181 | 2017-02-10 14:45:20.166902+01

 2017-02-10 15:17:31.0565+01 | 1486736251.0565 |                 0 |               7 |                  4275 |                  344 |             590409 |        899681 |             8950 |         9686177 |                     0 |       8722693 | 2017-02-10 14:45:20.166902+01

 2017-02-10 15:17:32.118+01 | 1486736252.118 |                 0 |               7 |                  4275 |                  344 |             590409 |        900281 |             8956 |         9686177 |                     0 |       8727894 | 2017-02-10 14:45:20.166902+01

 2017-02-10 15:17:33.173122+01 | 1486736253.17312 |                 0 |               7 |                  4275 |                  344 |             590409 |        900781 |             8961 |         9686177 |                     0 |       8732309 | 2017-02-10 14:45:20.166902+01

 2017-02-10 15:17:34.224885+01 | 1486736254.22488 |                 0 |               7 |                  4275 |                  344 |             590409 |        901281 |             8966 |         9686177 |                     0 |       8736529 | 2017-02-10 14:45:20.166902+01

 2017-02-10 15:17:35.278231+01 | 1486736255.27823 |                 0 |               7 |                  4275 |                  344 |             590409 |        901881 |             8972 |         9686177 |                     0 |       8742012 | 2017-02-10 14:45:20.166902+01

 2017-02-10 15:17:36.332165+01 | 1486736256.33217 |                 0 |               7 |                  4275 |                  344 |             590409 |        902381 |             8977 |         9686177 |                     0 |       8746391 | 2017-02-10 14:45:20.166902+01

 2017-02-10 15:17:37.384126+01 | 1486736257.38413 |                 0 |               7 |                  4275 |                  344 |             590409 |        902881 |             8982 |         9686177 |                     0 |       8750578 | 2017-02-10 14:45:20.166902+01

 2017-02-10 15:17:38.435105+01 | 1486736258.43511 |                 0 |               7 |                  4275 |                  344 |             590409 |        903381 |             8987 |         9686177 |                     0 |       8755128 | 2017-02-10 14:45:20.166902+01

 2017-02-10 15:17:39.489924+01 | 1486736259.48992 |                 0 |               7 |                  4275 |                  344 |             590409 |        903881 |             8992 |         9686177 |                     0 |       8759404 | 2017-02-10 14:45:20.166902+01

 2017-02-10 15:17:40.546438+01 | 1486736260.54644 |                 0 |               7 |                  4275 |                  344 |             590409 |        904481 |             8998 |         9686177 |                     0 |       8764807 | 2017-02-10 14:45:20.166902+01

 2017-02-10 15:17:41.598415+01 | 1486736261.59841 |                 0 |               7 |                  4275 |                  344 |             590409 |        904981 |             9003 |         9686177 |                     0 |       8769109 | 2017-02-10 14:45:20.166902+01

 2017-02-10 15:17:42.650253+01 | 1486736262.65025 |                 0 |               7 |                  4275 |                  344 |             590409 |        905481 |             9008 |         9745013 |                     0 |       8773417 | 2017-02-10 14:45:20.166902+01

 2017-02-10 15:17:43.701708+01 | 1486736263.70171 |                 0 |               7 |                  4275 |                  344 |             590409 |        905981 |             9013 |         9745013 |                     0 |       8778079 | 2017-02-10 14:45:20.166902+01

 2017-02-10 15:17:44.754878+01 | 1486736264.75488 |                 0 |               7 |                  4275 |                  344 |             590409 |        906581 |             9019 |         9745013 |                     0 |       8783151 | 2017-02-10 14:45:20.166902+01

 2017-02-10 15:17:45.805928+01 | 1486736265.80593 |                 0 |               7 |                  4275 |                  344 |             590409 |        907081 |             9024 |         9745013 |                     0 |       8787264 | 2017-02-10 14:45:20.166902+01

 2017-02-10 15:17:46.857358+01 | 1486736266.85736 |                 0 |               7 |                  4275 |                  344 |             590409 |        907581 |             9029 |         9745013 |                     0 |       8791734 | 2017-02-10 14:45:20.166902+01

 2017-02-10 15:17:47.913592+01 | 1486736267.91359 |                 0 |               7 |                  4275 |                  344 |             590409 |        908081 |             9034 |         9745013 |                     0 |       8795919 | 2017-02-10 14:45:20.166902+01

 2017-02-10 15:17:48.96912+01 | 1486736268.96912 |                 0 |               7 |                  4275 |                  344 |             590409 |        908681 |             9040 |         9745013 |                     0 |       8801141 | 2017-02-10 14:45:20.166902+01

 2017-02-10 15:17:50.022442+01 | 1486736270.02244 |                 0 |               7 |                  4275 |                  344 |             590409 |        909181 |             9045 |         9745013 |                     0 |       8805688 | 2017-02-10 14:45:20.166902+01

 2017-02-10 15:17:51.067148+01 | 1486736271.06715 |                 0 |               7 |                  4275 |                  344 |             590409 |        909681 |             9050 |         9745013 |                     0 |       8809918 | 2017-02-10 14:45:20.166902+01

 2017-02-10 15:17:52.125554+01 | 1486736272.12555 |                 0 |               7 |                  4275 |                  344 |             590409 |        910181 |             9055 |         9745013 |                     0 |       8814528 | 2017-02-10 14:45:20.166902+01

 2017-02-10 15:17:53.17814+01 | 1486736273.17814 |                 0 |               7 |                  4275 |                  344 |             590409 |        910781 |             9061 |         9745013 |                     0 |       8819848 | 2017-02-10 14:45:20.166902+01

 2017-02-10 15:17:54.230926+01 | 1486736274.23093 |                 0 |               7 |                  4275 |                  344 |             590409 |        911281 |             9066 |         9745013 |                     0 |       8824188 | 2017-02-10 14:45:20.166902+01

 2017-02-10 15:17:55.297516+01 | 1486736275.29752 |                 0 |               7 |                  4275 |                  344 |             590409 |        911781 |             9071 |         9804649 |                     0 |       8828827 | 2017-02-10 14:45:20.166902+01

 2017-02-10 15:17:56.348494+01 | 1486736276.34849 |                 0 |               7 |                  4275 |                  344 |             590409 |        912281 |             9076 |         9804649 |                     0 |       8833238 | 2017-02-10 14:45:20.166902+01

 2017-02-10 15:17:57.401803+01 | 1486736277.4018 |                 0 |               7 |                  4275 |                  344 |             590409 |        912881 |             9082 |         9804649 |                     0 |       8838757 | 2017-02-10 14:45:20.166902+01

 2017-02-10 15:17:58.457008+01 | 1486736278.45701 |                 0 |               7 |                  4275 |                  344 |             590409 |        913381 |             9087 |         9804649 |                     0 |       8843341 | 2017-02-10 14:45:20.166902+01

 2017-02-10 15:17:59.5096+01 | 1486736279.5096 |                 0 |               7 |                  4275 |                  344 |             590409 |        913881 |             9092 |         9804649 |                     0 |       8847833 | 2017-02-10 14:45:20.166902+01

 2017-02-10 15:18:00.563295+01 | 1486736280.56329 |                 0 |               7 |                  4275 |                  344 |             590409 |        914381 |             9097 |         9804649 |                     0 |       8852494 | 2017-02-10 14:45:20.166902+01

 2017-02-10 15:18:01.615691+01 | 1486736281.61569 |                 0 |               7 |                  4275 |                  344 |             590409 |        914981 |             9103 |         9804649 |                     0 |       8857971 | 2017-02-10 14:45:20.166902+01

 2017-02-10 15:18:02.672091+01 | 1486736282.67209 |                 0 |               7 |                  4275 |                  344 |             590409 |        915481 |             9108 |         9804649 |                     0 |       8862626 | 2017-02-10 14:45:20.166902+01

 2017-02-10 15:18:03.75937+01 | 1486736283.75937 |                 0 |               7 |                  4275 |                  344 |             590409 |        915981 |             9113 |         9804649 |                     0 |       8867265 | 2017-02-10 14:45:20.166902+01

 2017-02-10 15:18:04.813707+01 | 1486736284.81371 |                 0 |               7 |                  4275 |                  344 |             590409 |        916481 |             9118 |         9804649 |                     0 |       8871753 | 2017-02-10 14:45:20.166902+01

 2017-02-10 15:18:05.865463+01 | 1486736285.86546 |                 0 |               7 |                  4275 |                  344 |             590409 |        917081 |             9124 |         9804649 |                     0 |       8877448 | 2017-02-10 14:45:20.166902+01

 2017-02-10 15:18:06.918936+01 | 1486736286.91894 |                 0 |               7 |                  4275 |                  344 |             590409 |        917581 |             9129 |         9804649 |                     0 |       8881828 | 2017-02-10 14:45:20.166902+01

 2017-02-10 15:18:07.974514+01 | 1486736287.97451 |                 0 |               7 |                  4275 |                  344 |             590409 |        918081 |             9134 |         9804649 |                     0 |       8886561 | 2017-02-10 14:45:20.166902+01

 2017-02-10 15:18:09.028803+01 | 1486736289.0288 |                 0 |               7 |                  4275 |                  344 |             590409 |        918581 |             9139 |         9804649 |                     0 |       8891123 | 2017-02-10 14:45:20.166902+01

 2017-02-10 15:18:10.08451+01 | 1486736290.08451 |                 0 |               7 |                  4275 |                  344 |             590409 |        919181 |             9145 |         9862685 |                     0 |       8896725 | 2017-02-10 14:45:20.166902+01

 2017-02-10 15:18:11.136993+01 | 1486736291.13699 |                 0 |               7 |                  4275 |                  344 |             590409 |        919681 |             9150 |         9862685 |                     0 |       8901199 | 2017-02-10 14:45:20.166902+01

 2017-02-10 15:18:12.191297+01 | 1486736292.1913 |                 0 |               7 |                  4275 |                  344 |             590409 |        920181 |             9155 |         9862685 |                     0 |       8906024 | 2017-02-10 14:45:20.166902+01

 2017-02-10 15:18:13.244013+01 | 1486736293.24401 |                 0 |               7 |                  4275 |                  344 |             590409 |        920681 |             9160 |         9862685 |                     0 |       8910461 | 2017-02-10 14:45:20.166902+01

 2017-02-10 15:18:14.299469+01 | 1486736294.29947 |                 0 |               7 |                  4275 |                  344 |             590409 |        921281 |             9166 |         9862685 |                     0 |       8916201 | 2017-02-10 14:45:20.166902+01

 2017-02-10 15:18:15.351657+01 | 1486736295.35166 |                 0 |               7 |                  4275 |                  344 |             590409 |        921781 |             9171 |         9862685 |                     0 |       8920662 | 2017-02-10 14:45:20.166902+01

 2017-02-10 15:18:16.40463+01 | 1486736296.40463 |                 0 |               7 |                  4275 |                  344 |             590409 |        922281 |             9176 |         9862685 |                     0 |       8925404 | 2017-02-10 14:45:20.166902+01

 2017-02-10 15:18:17.460568+01 | 1486736297.46057 |                 0 |               7 |                  4275 |                  344 |             590409 |        922781 |             9181 |         9862685 |                     0 |       8929900 | 2017-02-10 14:45:20.166902+01

 2017-02-10 15:18:18.518196+01 | 1486736298.5182 |                 0 |               7 |                  4275 |                  344 |             590409 |        923381 |             9187 |         9862685 |                     0 |       8935440 | 2017-02-10 14:45:20.166902+01

 2017-02-10 15:18:19.575272+01 | 1486736299.57527 |                 0 |               7 |                  4275 |                  344 |             590409 |        923881 |             9192 |         9862685 |                     0 |       8939892 | 2017-02-10 14:45:20.166902+01

 2017-02-10 15:18:20.626346+01 | 1486736300.62635 |                 0 |               7 |                  4275 |                  344 |             590409 |        924381 |             9197 |         9862685 |                     0 |       8944570 | 2017-02-10 14:45:20.166902+01

 2017-02-10 15:18:21.687363+01 | 1486736301.68736 |                 0 |               7 |                  4275 |                  344 |             590409 |        924881 |             9202 |         9862685 |                     0 |       8949357 | 2017-02-10 14:45:20.166902+01

 2017-02-10 15:18:22.740915+01 | 1486736302.74092 |                 0 |               7 |                  4275 |                  344 |             590409 |        925481 |             9208 |         9862685 |                     0 |       8954581 | 2017-02-10 14:45:20.166902+01

 2017-02-10 15:18:23.793096+01 | 1486736303.7931 |                 0 |               7 |                  4275 |                  344 |             590409 |        925981 |             9213 |         9862685 |                     0 |       8959359 | 2017-02-10 14:45:20.166902+01

 2017-02-10 15:18:24.84877+01 | 1486736304.84877 |                 0 |               7 |                  4275 |                  344 |             590409 |        926481 |             9218 |         9862685 |                     0 |       8963800 | 2017-02-10 14:45:20.166902+01

 2017-02-10 15:18:25.900015+01 | 1486736305.90002 |                 0 |               7 |                  4275 |                  344 |             590409 |        926981 |             9223 |         9920321 |                     0 |       8968546 | 2017-02-10 14:45:20.166902+01

 2017-02-10 15:18:26.950297+01 | 1486736306.9503 |                 0 |               7 |                  4275 |                  344 |             590409 |        927481 |             9228 |         9920321 |                     0 |       8972939 | 2017-02-10 14:45:20.166902+01

 2017-02-10 15:18:28.001668+01 | 1486736308.00167 |                 0 |               7 |                  4275 |                  344 |             590409 |        928081 |             9234 |         9920321 |                     0 |       8978527 | 2017-02-10 14:45:20.166902+01

 2017-02-10 15:18:29.055681+01 | 1486736309.05568 |                 0 |               7 |                  4275 |                  344 |             590409 |        928581 |             9239 |         9920321 |                     0 |       8983009 | 2017-02-10 14:45:20.166902+01

 2017-02-10 15:18:30.108506+01 | 1486736310.10851 |                 0 |               7 |                  4275 |                  344 |             590409 |        929081 |             9244 |         9920321 |                     0 |       8987747 | 2017-02-10 14:45:20.166902+01

 2017-02-10 15:18:31.161366+01 | 1486736311.16137 |                 0 |               7 |                  4275 |                  344 |             590409 |        929581 |             9249 |         9920321 |                     0 |       8992150 | 2017-02-10 14:45:20.166902+01

 2017-02-10 15:18:32.222274+01 | 1486736312.22227 |                 0 |               7 |                  4275 |                  344 |             590409 |        930181 |             9255 |         9920321 |                     0 |       8997806 | 2017-02-10 14:45:20.166902+01

 2017-02-10 15:18:33.275472+01 | 1486736313.27547 |                 0 |               7 |                  4275 |                  344 |             590409 |        930681 |             9260 |         9920321 |                     0 |       9002102 | 2017-02-10 14:45:20.166902+01

 2017-02-10 15:18:34.330056+01 | 1486736314.33006 |                 0 |               7 |                  4275 |                  344 |             590409 |        931181 |             9265 |         9920321 |                     0 |       9006669 | 2017-02-10 14:45:20.166902+01

 2017-02-10 15:18:35.38447+01 | 1486736315.38447 |                 0 |               7 |                  4275 |                  344 |             590409 |        931681 |             9270 |         9920321 |                     0 |       9011295 | 2017-02-10 14:45:20.166902+01

 2017-02-10 15:18:36.438498+01 | 1486736316.4385 |                 0 |               7 |                  4275 |                  344 |             590409 |        932281 |             9276 |         9920321 |                     0 |       9016700 | 2017-02-10 14:45:20.166902+01

 2017-02-10 15:18:37.491161+01 | 1486736317.49116 |                 0 |               7 |                  4275 |                  344 |             590409 |        932781 |             9281 |         9920321 |                     0 |       9021267 | 2017-02-10 14:45:20.166902+01

 2017-02-10 15:18:38.544026+01 | 1486736318.54403 |                 0 |               7 |                  4275 |                  344 |             590409 |        933281 |             9286 |         9920321 |                     0 |       9025451 | 2017-02-10 14:45:20.166902+01

 2017-02-10 15:18:39.599972+01 | 1486736319.59997 |                 0 |               7 |                  4275 |                  344 |             590409 |        933781 |             9291 |         9920321 |                     0 |       9030129 | 2017-02-10 14:45:20.166902+01

 2017-02-10 15:18:40.657291+01 | 1486736320.65729 |                 0 |               7 |                  4275 |                  344 |             590409 |        934381 |             9297 |         9920321 |                     0 |       9035373 | 2017-02-10 14:45:20.166902+01

 2017-02-10 15:18:41.711368+01 | 1486736321.71137 |                 0 |               7 |                  4275 |                  344 |             590409 |        934881 |             9302 |         9977857 |                     0 |       9039955 | 2017-02-10 14:45:20.166902+01

 2017-02-10 15:18:42.763717+01 | 1486736322.76372 |                 0 |               7 |                  4275 |                  344 |             590409 |        935381 |             9307 |         9977857 |                     0 |       9044410 | 2017-02-10 14:45:20.166902+01

 2017-02-10 15:18:43.817418+01 | 1486736323.81742 |                 0 |               7 |                  4275 |                  344 |             590409 |        935881 |             9312 |         9977857 |                     0 |       9049051 | 2017-02-10 14:45:20.166902+01

 2017-02-10 15:18:44.876139+01 | 1486736324.87614 |                 0 |               7 |                  4275 |                  344 |             590409 |        936481 |             9318 |         9977857 |                     0 |       9054485 | 2017-02-10 14:45:20.166902+01

 2017-02-10 15:18:45.933454+01 | 1486736325.93345 |                 0 |               7 |                  4275 |                  344 |             590409 |        936981 |             9323 |         9977857 |                     0 |       9058910 | 2017-02-10 14:45:20.166902+01

 2017-02-10 15:18:46.983489+01 | 1486736326.98349 |                 0 |               7 |                  4275 |                  344 |             590409 |        937481 |             9328 |         9977857 |                     0 |       9063541 | 2017-02-10 14:45:20.166902+01

 2017-02-10 15:18:48.036626+01 | 1486736328.03663 |                 0 |               7 |                  4275 |                  344 |             590409 |        937981 |             9333 |         9977857 |                     0 |       9068112 | 2017-02-10 14:45:20.166902+01

 2017-02-10 15:18:49.094076+01 | 1486736329.09408 |                 0 |               7 |                  4275 |                  344 |             590409 |        938481 |             9338 |         9977857 |                     0 |       9072824 | 2017-02-10 14:45:20.166902+01

 2017-02-10 15:18:50.148557+01 | 1486736330.14856 |                 0 |               7 |                  4275 |                  344 |             590409 |        939081 |             9344 |         9977857 |                     0 |       9077939 | 2017-02-10 14:45:20.166902+01

 2017-02-10 15:18:51.200811+01 | 1486736331.20081 |                 0 |               7 |                  4275 |                  344 |             590409 |        939581 |             9349 |         9977857 |                     0 |       9082618 | 2017-02-10 14:45:20.166902+01

 2017-02-10 15:18:52.253479+01 | 1486736332.25348 |                 0 |               7 |                  4275 |                  344 |             590409 |        940081 |             9354 |         9977857 |                     0 |       9086978 | 2017-02-10 14:45:20.166902+01

 2017-02-10 15:18:53.308563+01 | 1486736333.30856 |                 0 |               7 |                  4275 |                  344 |             590409 |        940581 |             9359 |         9977857 |                     0 |       9091504 | 2017-02-10 14:45:20.166902+01

 2017-02-10 15:18:54.359675+01 | 1486736334.35967 |                 0 |               7 |                  4275 |                  344 |             590409 |        941181 |             9365 |         9977857 |                     0 |       9096718 | 2017-02-10 14:45:20.166902+01

 2017-02-10 15:18:55.411269+01 | 1486736335.41127 |                 0 |               7 |                  4275 |                  344 |             590409 |        941681 |             9370 |         9977857 |                     0 |       9101139 | 2017-02-10 14:45:20.166902+01

 2017-02-10 15:18:56.461878+01 | 1486736336.46188 |                 0 |               7 |                  4275 |                  344 |             590409 |        942181 |             9375 |        10036193 |                     0 |       9105899 | 2017-02-10 14:45:20.166902+01

 2017-02-10 15:18:57.513992+01 | 1486736337.51399 |                 0 |               7 |                  4275 |                  344 |             590409 |        942681 |             9380 |        10036193 |                     0 |       9110131 | 2017-02-10 14:45:20.166902+01

 2017-02-10 15:18:58.568131+01 | 1486736338.56813 |                 0 |               7 |                  4275 |                  344 |             590409 |        943281 |             9386 |        10036193 |                     0 |       9115757 | 2017-02-10 14:45:20.166902+01

 2017-02-10 15:18:59.608425+01 | 1486736339.60842 |                 0 |               7 |                  4275 |                  344 |             590409 |        943581 |             9389 |        10036193 |                     0 |       9118347 | 2017-02-10 14:45:20.166902+01

 2017-02-10 15:19:00.663927+01 | 1486736340.66393 |                 0 |               7 |                  4275 |                  344 |             590409 |        944281 |             9396 |        10036193 |                     0 |       9124608 | 2017-02-10 14:45:20.166902+01

 2017-02-10 15:19:01.716615+01 | 1486736341.71661 |                 0 |               7 |                  4275 |                  344 |             590409 |        944781 |             9401 |        10036193 |                     0 |       9128865 | 2017-02-10 14:45:20.166902+01

 2017-02-10 15:19:02.778033+01 | 1486736342.77803 |                 0 |               7 |                  4275 |                  344 |             590409 |        945381 |             9407 |        10036193 |                     0 |       9134466 | 2017-02-10 14:45:20.166902+01

 2017-02-10 15:19:03.830296+01 | 1486736343.8303 |                 0 |               7 |                  4275 |                  344 |             590409 |        945881 |             9412 |        10036193 |                     0 |       9138775 | 2017-02-10 14:45:20.166902+01

 2017-02-10 15:19:04.882276+01 | 1486736344.88228 |                 0 |               7 |                  4275 |                  344 |             590409 |        946381 |             9417 |        10036193 |                     0 |       9143361 | 2017-02-10 14:45:20.166902+01

 2017-02-10 15:19:05.93469+01 | 1486736345.93469 |                 0 |               7 |                  4275 |                  344 |             590409 |        946881 |             9422 |        10036193 |                     0 |       9147970 | 2017-02-10 14:45:20.166902+01

 2017-02-10 15:19:06.991613+01 | 1486736346.99161 |                 0 |               7 |                  4275 |                  344 |             590409 |        947381 |             9427 |        10036193 |                     0 |       9152826 | 2017-02-10 14:45:20.166902+01

 2017-02-10 15:19:08.041249+01 | 1486736348.04125 |                 0 |               7 |                  4275 |                  344 |             590409 |        947981 |             9433 |        10036193 |                     0 |       9158206 | 2017-02-10 14:45:20.166902+01

 2017-02-10 15:19:09.092764+01 | 1486736349.09276 |                 0 |               7 |                  4275 |                  344 |             590409 |        948481 |             9438 |        10036193 |                     0 |       9162927 | 2017-02-10 14:45:20.166902+01

 2017-02-10 15:19:10.146071+01 | 1486736350.14607 |                 0 |               7 |                  4275 |                  344 |             590409 |        948981 |             9443 |        10036193 |                     0 |       9167226 | 2017-02-10 14:45:20.166902+01

 2017-02-10 15:19:11.198621+01 | 1486736351.19862 |                 0 |               7 |                  4275 |                  344 |             590409 |        949481 |             9448 |        10094329 |                     0 |       9171917 | 2017-02-10 14:45:20.166902+01

 2017-02-10 15:19:12.251571+01 | 1486736352.25157 |                 0 |               7 |                  4275 |                  344 |             590409 |        950081 |             9454 |        10094329 |                     0 |       9177174 | 2017-02-10 14:45:20.166902+01

 2017-02-10 15:19:13.307704+01 | 1486736353.3077 |                 0 |               7 |                  4275 |                  344 |             590409 |        950581 |             9459 |        10094329 |                     0 |       9181769 | 2017-02-10 14:45:20.166902+01

 2017-02-10 15:19:14.358368+01 | 1486736354.35837 |                 0 |               7 |                  4275 |                  344 |             590409 |        951081 |             9464 |        10094329 |                     0 |       9186277 | 2017-02-10 14:45:20.166902+01

 2017-02-10 15:19:15.415454+01 | 1486736355.41545 |                 0 |               7 |                  4275 |                  344 |             590409 |        951581 |             9469 |        10094329 |                     0 |       9191064 | 2017-02-10 14:45:20.166902+01

 2017-02-10 15:19:16.470379+01 | 1486736356.47038 |                 0 |               7 |                  4275 |                  344 |             590409 |        952181 |             9475 |        10094329 |                     0 |       9196541 | 2017-02-10 14:45:20.166902+01

 2017-02-10 15:19:17.521372+01 | 1486736357.52137 |                 0 |               7 |                  4275 |                  344 |             590409 |        952681 |             9480 |        10094329 |                     0 |       9201126 | 2017-02-10 14:45:20.166902+01

 2017-02-10 15:19:18.577006+01 | 1486736358.57701 |                 0 |               7 |                  4275 |                  344 |             590409 |        953181 |             9485 |        10094329 |                     0 |       9205777 | 2017-02-10 14:45:20.166902+01

 2017-02-10 15:19:19.629793+01 | 1486736359.62979 |                 0 |               7 |                  4275 |                  344 |             590409 |        953681 |             9490 |        10094329 |                     0 |       9210394 | 2017-02-10 14:45:20.166902+01

 2017-02-10 15:19:20.693368+01 | 1486736360.69337 |                 0 |               7 |                  4275 |                  344 |             590409 |        954281 |             9496 |        10094329 |                     0 |       9216212 | 2017-02-10 14:45:20.166902+01

 2017-02-10 15:19:21.74405+01 | 1486736361.74405 |                 0 |               7 |                  4275 |                  344 |             590409 |        954781 |             9501 |        10094329 |                     0 |       9220749 | 2017-02-10 14:45:20.166902+01

 2017-02-10 15:19:22.796049+01 | 1486736362.79605 |                 0 |               7 |                  4275 |                  344 |             590409 |        955281 |             9506 |        10094329 |                     0 |       9225556 | 2017-02-10 14:45:20.166902+01

 2017-02-10 15:19:23.847412+01 | 1486736363.84741 |                 0 |               7 |                  4275 |                  344 |             590409 |        955781 |             9511 |        10094329 |                     0 |       9229877 | 2017-02-10 14:45:20.166902+01

 2017-02-10 15:19:24.899443+01 | 1486736364.89944 |                 0 |               7 |                  4275 |                  344 |             590409 |        956381 |             9517 |        10094329 |                     0 |       9235422 | 2017-02-10 14:45:20.166902+01

 2017-02-10 15:19:25.951257+01 | 1486736365.95126 |                 0 |               7 |                  4275 |                  344 |             590409 |        956881 |             9522 |        10094329 |                     0 |       9239877 | 2017-02-10 14:45:20.166902+01

 2017-02-10 15:19:27.001975+01 | 1486736367.00198 |                 0 |               7 |                  4275 |                  344 |             590409 |        957381 |             9527 |        10151965 |                     0 |       9244427 | 2017-02-10 14:45:20.166902+01

 2017-02-10 15:19:28.053008+01 | 1486736368.05301 |                 0 |               7 |                  4275 |                  344 |             590409 |        957881 |             9532 |        10151965 |                     0 |       9248909 | 2017-02-10 14:45:20.166902+01

 2017-02-10 15:19:29.10668+01 | 1486736369.10668 |                 0 |               7 |                  4275 |                  344 |             590409 |        958381 |             9537 |        10151965 |                     0 |       9253555 | 2017-02-10 14:45:20.166902+01

 2017-02-10 15:19:30.163052+01 | 1486736370.16305 |                 0 |               7 |                  4275 |                  344 |             590409 |        958981 |             9543 |        10151965 |                     0 |       9258985 | 2017-02-10 14:45:20.166902+01

 2017-02-10 15:19:31.214955+01 | 1486736371.21496 |                 0 |               7 |                  4275 |                  344 |             590409 |        959481 |             9548 |        10151965 |                     0 |       9263674 | 2017-02-10 14:45:20.166902+01

 2017-02-10 15:19:32.267607+01 | 1486736372.26761 |                 0 |               7 |                  4275 |                  344 |             590409 |        959981 |             9553 |        10151965 |                     0 |       9268184 | 2017-02-10 14:45:20.166902+01

 2017-02-10 15:19:33.320345+01 | 1486736373.32034 |                 0 |               7 |                  4275 |                  344 |             590409 |        960481 |             9558 |        10151965 |                     0 |       9272921 | 2017-02-10 14:45:20.166902+01

 2017-02-10 15:19:34.374913+01 | 1486736374.37491 |                 0 |               7 |                  4275 |                  344 |             590409 |        961081 |             9564 |        10151965 |                     0 |       9278258 | 2017-02-10 14:45:20.166902+01

 2017-02-10 15:19:35.433178+01 | 1486736375.43318 |                 0 |               7 |                  4275 |                  344 |             590409 |        961581 |             9569 |        10151965 |                     0 |       9282979 | 2017-02-10 14:45:20.166902+01

 2017-02-10 15:19:36.496335+01 | 1486736376.49634 |                 0 |               7 |                  4275 |                  344 |             590409 |        962081 |             9574 |        10151965 |                     0 |       9287635 | 2017-02-10 14:45:20.166902+01

 2017-02-10 15:19:37.550608+01 | 1486736377.55061 |                 0 |               7 |                  4275 |                  344 |             590409 |        962581 |             9579 |        10151965 |                     0 |       9292158 | 2017-02-10 14:45:20.166902+01

 2017-02-10 15:19:38.601529+01 | 1486736378.60153 |                 0 |               7 |                  4275 |                  344 |             590409 |        963181 |             9585 |        10151965 |                     0 |       9297939 | 2017-02-10 14:45:20.166902+01

 2017-02-10 15:19:39.656144+01 | 1486736379.65614 |                 0 |               7 |                  4275 |                  344 |             590409 |        963681 |             9590 |        10151965 |                     0 |       9302311 | 2017-02-10 14:45:20.166902+01

 2017-02-10 15:19:40.706836+01 | 1486736380.70684 |                 0 |               7 |                  4275 |                  344 |             590409 |        964181 |             9595 |        10151965 |                     0 |       9307040 | 2017-02-10 14:45:20.166902+01

 2017-02-10 15:19:41.758295+01 | 1486736381.7583 |                 0 |               7 |                  4275 |                  344 |             590409 |        964681 |             9600 |        10151965 |                     0 |       9311406 | 2017-02-10 14:45:20.166902+01

 2017-02-10 15:19:42.811516+01 | 1486736382.81152 |                 0 |               7 |                  4275 |                  344 |             590409 |        965281 |             9606 |        10209601 |                     0 |       9316939 | 2017-02-10 14:45:20.166902+01

 2017-02-10 15:19:43.863695+01 | 1486736383.86369 |                 0 |               7 |                  4275 |                  344 |             590409 |        965781 |             9611 |        10209601 |                     0 |       9321334 | 2017-02-10 14:45:20.166902+01

 2017-02-10 15:19:44.915404+01 | 1486736384.9154 |                 0 |               7 |                  4275 |                  344 |             590409 |        966281 |             9616 |        10209601 |                     0 |       9325992 | 2017-02-10 14:45:20.166902+01

 2017-02-10 15:19:45.968482+01 | 1486736385.96848 |                 0 |               7 |                  4275 |                  344 |             590409 |        966781 |             9621 |        10209601 |                     0 |       9330448 | 2017-02-10 14:45:20.166902+01

 2017-02-10 15:19:47.018787+01 | 1486736387.01879 |                 0 |               7 |                  4275 |                  344 |             590409 |        967281 |             9626 |        10209601 |                     0 |       9335105 | 2017-02-10 14:45:20.166902+01

 2017-02-10 15:19:48.069612+01 | 1486736388.06961 |                 0 |               7 |                  4275 |                  344 |             590409 |        967881 |             9632 |        10209601 |                     0 |       9340405 | 2017-02-10 14:45:20.166902+01

 2017-02-10 15:19:49.125442+01 | 1486736389.12544 |                 0 |               7 |                  4275 |                  344 |             590409 |        968381 |             9637 |        10209601 |                     0 |       9345057 | 2017-02-10 14:45:20.166902+01

 2017-02-10 15:19:50.176618+01 | 1486736390.17662 |                 0 |               7 |                  4275 |                  344 |             590409 |        968881 |             9642 |        10209601 |                     0 |       9349743 | 2017-02-10 14:45:20.166902+01

 2017-02-10 15:19:51.221047+01 | 1486736391.22105 |                 0 |               7 |                  4275 |                  344 |             590409 |        969381 |             9647 |        10209601 |                     0 |       9354134 | 2017-02-10 14:45:20.166902+01

 2017-02-10 15:19:52.276185+01 | 1486736392.27619 |                 0 |               7 |                  4275 |                  344 |             590409 |        969981 |             9653 |        10209601 |                     0 |       9359737 | 2017-02-10 14:45:20.166902+01

 2017-02-10 15:19:53.331168+01 | 1486736393.33117 |                 0 |               7 |                  4275 |                  344 |             590409 |        970481 |             9658 |        10209601 |                     0 |       9364021 | 2017-02-10 14:45:20.166902+01

 2017-02-10 15:19:54.387736+01 | 1486736394.38774 |                 0 |               7 |                  4275 |                  344 |             590409 |        970981 |             9663 |        10209601 |                     0 |       9368600 | 2017-02-10 14:45:20.166902+01

 2017-02-10 15:19:55.440995+01 | 1486736395.44099 |                 0 |               7 |                  4275 |                  344 |             590409 |        971481 |             9668 |        10209601 |                     0 |       9372718 | 2017-02-10 14:45:20.166902+01

 2017-02-10 15:19:56.499507+01 | 1486736396.49951 |                 0 |               7 |                  4275 |                  344 |             590409 |        972081 |             9674 |        10209601 |                     0 |       9377938 | 2017-02-10 14:45:20.166902+01

 2017-02-10 15:19:57.549692+01 | 1486736397.54969 |                 0 |               7 |                  4275 |                  344 |             590409 |        972581 |             9679 |        10209601 |                     0 |       9382641 | 2017-02-10 14:45:20.166902+01

 2017-02-10 15:19:58.604063+01 | 1486736398.60406 |                 0 |               7 |                  4275 |                  344 |             590409 |        973081 |             9684 |        10267438 |                     0 |       9387327 | 2017-02-10 14:45:20.166902+01

 2017-02-10 15:19:59.656085+01 | 1486736399.65609 |                 0 |               7 |                  4275 |                  344 |             590409 |        973581 |             9689 |        10267438 |                     0 |       9391653 | 2017-02-10 14:45:20.166902+01

 2017-02-10 15:20:00.710572+01 | 1486736400.71057 |                 0 |               7 |                  4275 |                  344 |             590409 |        974181 |             9695 |        10267438 |                     0 |       9397248 | 2017-02-10 14:45:20.166902+01

 2017-02-10 15:20:01.761311+01 | 1486736401.76131 |                 0 |               7 |                  4275 |                  344 |             590409 |        974681 |             9700 |        10267438 |                     0 |       9401665 | 2017-02-10 14:45:20.166902+01

 2017-02-10 15:20:02.817142+01 | 1486736402.81714 |                 0 |               7 |                  4275 |                  344 |             590409 |        975181 |             9705 |        10267438 |                     0 |       9406254 | 2017-02-10 14:45:20.166902+01

 2017-02-10 15:20:03.869216+01 | 1486736403.86922 |                 0 |               7 |                  4275 |                  344 |             590409 |        975681 |             9710 |        10267438 |                     0 |       9410612 | 2017-02-10 14:45:20.166902+01

 2017-02-10 15:20:04.921277+01 | 1486736404.92128 |                 0 |               7 |                  4275 |                  344 |             590409 |        976181 |             9715 |        10267438 |                     0 |       9415202 | 2017-02-10 14:45:20.166902+01

 2017-02-10 15:20:05.974576+01 | 1486736405.97458 |                 0 |               7 |                  4275 |                  344 |             590409 |        976781 |             9721 |        10267438 |                     0 |       9420685 | 2017-02-10 14:45:20.166902+01

 2017-02-10 15:20:07.026734+01 | 1486736407.02673 |                 0 |               7 |                  4275 |                  344 |             590409 |        977281 |             9726 |        10267438 |                     0 |       9425371 | 2017-02-10 14:45:20.166902+01

 2017-02-10 15:20:08.078943+01 | 1486736408.07894 |                 0 |               7 |                  4275 |                  344 |             590409 |        977781 |             9731 |        10267438 |                     0 |       9429748 | 2017-02-10 14:45:20.166902+01

 2017-02-10 15:20:09.129758+01 | 1486736409.12976 |                 0 |               7 |                  4275 |                  344 |             590409 |        978281 |             9736 |        10267438 |                     0 |       9434382 | 2017-02-10 14:45:20.166902+01

 2017-02-10 15:20:10.182583+01 | 1486736410.18258 |                 0 |               7 |                  4275 |                  344 |             590409 |        978881 |             9742 |        10267438 |                     0 |       9439992 | 2017-02-10 14:45:20.166902+01

 2017-02-10 15:20:11.233627+01 | 1486736411.23363 |                 0 |               7 |                  4275 |                  344 |             590409 |        979381 |             9747 |        10267438 |                     0 |       9444421 | 2017-02-10 14:45:20.166902+01

 2017-02-10 15:20:12.286207+01 | 1486736412.28621 |                 0 |               7 |                  4275 |                  344 |             590409 |        979881 |             9752 |        10267438 |                     0 |       9448985 | 2017-02-10 14:45:20.166902+01

 2017-02-10 15:20:13.337964+01 | 1486736413.33796 |                 0 |               7 |                  4275 |                  344 |             590409 |        980381 |             9757 |        10267438 |                     0 |       9453445 | 2017-02-10 14:45:20.166902+01

 2017-02-10 15:20:14.391672+01 | 1486736414.39167 |                 0 |               7 |                  4275 |                  344 |             590409 |        980981 |             9763 |        10324974 |                     0 |       9459114 | 2017-02-10 14:45:20.166902+01

 2017-02-10 15:20:15.443265+01 | 1486736415.44326 |                 0 |               7 |                  4275 |                  344 |             590409 |        981481 |             9768 |        10324974 |                     0 |       9463554 | 2017-02-10 14:45:20.166902+01

 2017-02-10 15:20:16.492938+01 | 1486736416.49294 |                 0 |               7 |                  4275 |                  344 |             590409 |        981981 |             9773 |        10324974 |                     0 |       9468356 | 2017-02-10 14:45:20.166902+01

 2017-02-10 15:20:17.545503+01 | 1486736417.5455 |                 0 |               7 |                  4275 |                  344 |             590409 |        982481 |             9778 |        10324974 |                     0 |       9472718 | 2017-02-10 14:45:20.166902+01

 2017-02-10 15:20:18.596097+01 | 1486736418.5961 |                 0 |               7 |                  4275 |                  344 |             590409 |        982981 |             9783 |        10324974 |                     0 |       9477447 | 2017-02-10 14:45:20.166902+01

 2017-02-10 15:20:19.651239+01 | 1486736419.65124 |                 0 |               7 |                  4275 |                  344 |             590409 |        983581 |             9789 |        10324974 |                     0 |       9482586 | 2017-02-10 14:45:20.166902+01

 2017-02-10 15:20:20.702567+01 | 1486736420.70257 |                 0 |               7 |                  4275 |                  344 |             590409 |        984081 |             9794 |        10324974 |                     0 |       9487259 | 2017-02-10 14:45:20.166902+01

 2017-02-10 15:20:21.754073+01 | 1486736421.75407 |                 0 |               7 |                  4275 |                  344 |             590409 |        984581 |             9799 |        10324974 |                     0 |       9491870 | 2017-02-10 14:45:20.166902+01

 2017-02-10 15:20:22.811679+01 | 1486736422.81168 |                 0 |               7 |                  4275 |                  344 |             590409 |        985081 |             9804 |        10324974 |                     0 |       9496192 | 2017-02-10 14:45:20.166902+01

 2017-02-10 15:20:23.867014+01 | 1486736423.86701 |                 0 |               7 |                  4275 |                  344 |             590409 |        985681 |             9810 |        10324974 |                     0 |       9501733 | 2017-02-10 14:45:20.166902+01

 2017-02-10 15:20:24.918969+01 | 1486736424.91897 |                 0 |               7 |                  4275 |                  344 |             590409 |        986181 |             9815 |        10324974 |                     0 |       9506146 | 2017-02-10 14:45:20.166902+01

 2017-02-10 15:20:25.970971+01 | 1486736425.97097 |                 0 |               7 |                  4275 |                  344 |             590409 |        986681 |             9820 |        10324974 |                     0 |       9510709 | 2017-02-10 14:45:20.166902+01

 2017-02-10 15:20:27.024031+01 | 1486736427.02403 |                 0 |               7 |                  4275 |                  344 |             590409 |        987181 |             9825 |        10324974 |                     0 |       9514965 | 2017-02-10 14:45:20.166902+01

 2017-02-10 15:20:28.081751+01 | 1486736428.08175 |                 0 |               7 |                  4275 |                  344 |             590409 |        987781 |             9831 |        10324974 |                     0 |       9520603 | 2017-02-10 14:45:20.166902+01

 2017-02-10 15:20:29.134212+01 | 1486736429.13421 |                 0 |               7 |                  4275 |                  344 |             590409 |        988281 |             9836 |        10324974 |                     0 |       9524824 | 2017-02-10 14:45:20.166902+01

 2017-02-10 15:20:30.186059+01 | 1486736430.18606 |                 0 |               7 |                  4275 |                  344 |             590409 |        988781 |             9841 |        10324974 |                     0 |       9529373 | 2017-02-10 14:45:20.166902+01

 2017-02-10 15:20:31.238097+01 | 1486736431.2381 |                 0 |               7 |                  4275 |                  344 |             590409 |        989281 |             9846 |        10382412 |                     0 |       9533836 | 2017-02-10 14:45:20.166902+01

 2017-02-10 15:20:32.290144+01 | 1486736432.29014 |                 0 |               7 |                  4275 |                  344 |             590409 |        989881 |             9852 |        10382412 |                     0 |       9539534 | 2017-02-10 14:45:20.166902+01

 2017-02-10 15:20:33.34091+01 | 1486736433.34091 |                 0 |               7 |                  4275 |                  344 |             590409 |        990381 |             9857 |        10382412 |                     0 |       9544124 | 2017-02-10 14:45:20.166902+01

 2017-02-10 15:20:34.392754+01 | 1486736434.39275 |                 0 |               7 |                  4275 |                  344 |             590409 |        990881 |             9862 |        10382412 |                     0 |       9548543 | 2017-02-10 14:45:20.166902+01

 2017-02-10 15:20:35.445007+01 | 1486736435.44501 |                 0 |               7 |                  4275 |                  344 |             590409 |        991381 |             9867 |        10382412 |                     0 |       9553098 | 2017-02-10 14:45:20.166902+01

 2017-02-10 15:20:36.498543+01 | 1486736436.49854 |                 0 |               7 |                  4275 |                  344 |             590409 |        991881 |             9872 |        10382412 |                     0 |       9557411 | 2017-02-10 14:45:20.166902+01

 2017-02-10 15:20:37.55264+01 | 1486736437.55264 |                 0 |               7 |                  4275 |                  344 |             590409 |        992481 |             9878 |        10382412 |                     0 |       9562857 | 2017-02-10 14:45:20.166902+01

 2017-02-10 15:20:38.605469+01 | 1486736438.60547 |                 0 |               7 |                  4275 |                  344 |             590409 |        992981 |             9883 |        10382412 |                     0 |       9567309 | 2017-02-10 14:45:20.166902+01

 2017-02-10 15:20:39.657666+01 | 1486736439.65767 |                 0 |               7 |                  4275 |                  344 |             590409 |        993481 |             9888 |        10382412 |                     0 |       9571837 | 2017-02-10 14:45:20.166902+01

 2017-02-10 15:20:40.71034+01 | 1486736440.71034 |                 0 |               7 |                  4275 |                  344 |             590409 |        993981 |             9893 |        10382412 |                     0 |       9576262 | 2017-02-10 14:45:20.166902+01

 2017-02-10 15:20:41.765112+01 | 1486736441.76511 |                 0 |               7 |                  4275 |                  344 |             590409 |        994581 |             9899 |        10382412 |                     0 |       9581752 | 2017-02-10 14:45:20.166902+01

 2017-02-10 15:20:42.820276+01 | 1486736442.82028 |                 0 |               7 |                  4275 |                  344 |             590409 |        995081 |             9904 |        10382412 |                     0 |       9586153 | 2017-02-10 14:45:20.166902+01

 2017-02-10 15:20:43.872606+01 | 1486736443.87261 |                 0 |               7 |                  4275 |                  344 |             590409 |        995581 |             9909 |        10382412 |                     0 |       9590771 | 2017-02-10 14:45:20.166902+01

 2017-02-10 15:20:44.923822+01 | 1486736444.92382 |                 0 |               7 |                  4275 |                  344 |             590409 |        996081 |             9914 |        10382412 |                     0 |       9595457 | 2017-02-10 14:45:20.166902+01

 2017-02-10 15:20:45.973692+01 | 1486736445.97369 |                 0 |               7 |                  4275 |                  344 |             590409 |        996681 |             9920 |        10382412 |                     0 |       9600711 | 2017-02-10 14:45:20.166902+01

 2017-02-10 15:20:47.025547+01 | 1486736447.02555 |                 0 |               7 |                  4275 |                  344 |             590409 |        997181 |             9925 |        10439938 |                     0 |       9605453 | 2017-02-10 14:45:20.166902+01

 2017-02-10 15:20:48.080142+01 | 1486736448.08014 |                 0 |               7 |                  4275 |                  344 |             590409 |        997681 |             9930 |        10439938 |                     0 |       9609906 | 2017-02-10 14:45:20.166902+01

 2017-02-10 15:20:49.132128+01 | 1486736449.13213 |                 0 |               7 |                  4275 |                  344 |             590409 |        998181 |             9935 |        10439938 |                     0 |       9614210 | 2017-02-10 14:45:20.166902+01

 2017-02-10 15:20:50.18345+01 | 1486736450.18345 |                 0 |               7 |                  4275 |                  344 |             590409 |        998781 |             9941 |        10439938 |                     0 |       9619776 | 2017-02-10 14:45:20.166902+01

 2017-02-10 15:20:51.22518+01 | 1486736451.22518 |                 0 |               7 |                  4275 |                  344 |             590409 |        999181 |             9945 |        10439938 |                     0 |       9623525 | 2017-02-10 14:45:20.166902+01

 2017-02-10 15:20:52.283397+01 | 1486736452.2834 |                 0 |               7 |                  4275 |                  344 |             590409 |        999781 |             9951 |        10439938 |                     0 |       9628825 | 2017-02-10 14:45:20.166902+01

 2017-02-10 15:20:53.334455+01 | 1486736453.33446 |                 0 |               7 |                  4275 |                  344 |             590409 |       1000281 |             9956 |        10439938 |                     0 |       9633386 | 2017-02-10 14:45:20.166902+01

 2017-02-10 15:20:54.385951+01 | 1486736454.38595 |                 0 |               7 |                  4275 |                  344 |             590409 |       1000781 |             9961 |        10439938 |                     0 |       9637669 | 2017-02-10 14:45:20.166902+01

 2017-02-10 15:20:55.44079+01 | 1486736455.44079 |                 0 |               7 |                  4275 |                  344 |             590409 |       1001381 |             9967 |        10439938 |                     0 |       9643253 | 2017-02-10 14:45:20.166902+01

 2017-02-10 15:20:56.491351+01 | 1486736456.49135 |                 0 |               7 |                  4275 |                  344 |             590409 |       1001881 |             9972 |        10439938 |                     0 |       9647571 | 2017-02-10 14:45:20.166902+01

 2017-02-10 15:20:57.542347+01 | 1486736457.54235 |                 0 |               7 |                  4275 |                  344 |             590409 |       1002381 |             9977 |        10439938 |                     0 |       9651894 | 2017-02-10 14:45:20.166902+01

 2017-02-10 15:20:58.596358+01 | 1486736458.59636 |                 0 |               7 |                  4275 |                  344 |             590409 |       1002881 |             9982 |        10439938 |                     0 |       9656619 | 2017-02-10 14:45:20.166902+01

 2017-02-10 15:20:59.646744+01 | 1486736459.64674 |                 0 |               7 |                  4275 |                  344 |             590409 |       1003481 |             9988 |        10439938 |                     0 |       9661965 | 2017-02-10 14:45:20.166902+01

 2017-02-10 15:21:00.701692+01 | 1486736460.70169 |                 0 |               7 |                  4275 |                  344 |             590409 |       1003981 |             9993 |        10439938 |                     0 |       9666724 | 2017-02-10 14:45:20.166902+01

 2017-02-10 15:21:01.753609+01 | 1486736461.75361 |                 0 |               7 |                  4275 |                  344 |             590409 |       1004481 |             9998 |        10439938 |                     0 |       9671307 | 2017-02-10 14:45:20.166902+01

 2017-02-10 15:21:02.806334+01 | 1486736462.80633 |                 0 |               7 |                  4275 |                  344 |             590409 |       1004981 |            10003 |        10497885 |                     0 |       9675971 | 2017-02-10 14:45:20.166902+01

 2017-02-10 15:21:03.862476+01 | 1486736463.86248 |                 0 |               7 |                  4275 |                  344 |             590409 |       1005581 |            10009 |        10497885 |                     0 |       9681437 | 2017-02-10 14:45:20.166902+01

 2017-02-10 15:21:04.914297+01 | 1486736464.9143 |                 0 |               7 |                  4275 |                  344 |             590409 |       1006081 |            10014 |        10497885 |                     0 |       9686015 | 2017-02-10 14:45:20.166902+01

 2017-02-10 15:21:05.96961+01 | 1486736465.96961 |                 0 |               7 |                  4275 |                  344 |             590409 |       1006581 |            10019 |        10497885 |                     0 |       9690843 | 2017-02-10 14:45:20.166902+01

 2017-02-10 15:21:07.021501+01 | 1486736467.0215 |                 0 |               7 |                  4275 |                  344 |             590409 |       1007081 |            10024 |        10497885 |                     0 |       9695410 | 2017-02-10 14:45:20.166902+01

 2017-02-10 15:21:08.074645+01 | 1486736468.07465 |                 0 |               7 |                  4275 |                  344 |             590409 |       1007581 |            10029 |        10497885 |                     0 |       9700175 | 2017-02-10 14:45:20.166902+01

 2017-02-10 15:21:09.125672+01 | 1486736469.12567 |                 0 |               7 |                  4275 |                  344 |             590409 |       1008181 |            10035 |        10497885 |                     0 |       9705645 | 2017-02-10 14:45:20.166902+01

 2017-02-10 15:21:10.176882+01 | 1486736470.17688 |                 0 |               7 |                  4275 |                  344 |             590409 |       1008681 |            10040 |        10497885 |                     0 |       9710299 | 2017-02-10 14:45:20.166902+01

 2017-02-10 15:21:11.228567+01 | 1486736471.22857 |                 0 |               7 |                  4275 |                  344 |             590409 |       1009181 |            10045 |        10497885 |                     0 |       9714815 | 2017-02-10 14:45:20.166902+01

 2017-02-10 15:21:12.284643+01 | 1486736472.28464 |                 0 |               7 |                  4275 |                  344 |             590409 |       1009681 |            10050 |        10497885 |                     0 |       9719477 | 2017-02-10 14:45:20.166902+01

 2017-02-10 15:21:13.340365+01 | 1486736473.34036 |                 0 |               7 |                  4275 |                  344 |             590409 |       1010281 |            10056 |        10497885 |                     0 |       9724959 | 2017-02-10 14:45:20.166902+01

 2017-02-10 15:21:14.394046+01 | 1486736474.39405 |                 0 |               7 |                  4275 |                  344 |             590409 |       1010781 |            10061 |        10497885 |                     0 |       9729427 | 2017-02-10 14:45:20.166902+01

 2017-02-10 15:21:15.448435+01 | 1486736475.44844 |                 0 |               7 |                  4275 |                  344 |             590409 |       1011281 |            10066 |        10497885 |                     0 |       9733866 | 2017-02-10 14:45:20.166902+01

 2017-02-10 15:21:16.50642+01 | 1486736476.50642 |                 0 |               7 |                  4275 |                  344 |             590409 |       1011781 |            10071 |        10497885 |                     0 |       9738653 | 2017-02-10 14:45:20.166902+01

 2017-02-10 15:21:17.559506+01 | 1486736477.55951 |                 0 |               7 |                  4275 |                  344 |             590409 |       1012381 |            10077 |        10497885 |                     0 |       9743964 | 2017-02-10 14:45:20.166902+01

 2017-02-10 15:21:18.611584+01 | 1486736478.61158 |                 0 |               7 |                  4275 |                  344 |             590409 |       1012881 |            10082 |        10555471 |                     0 |       9748501 | 2017-02-10 14:45:20.166902+01

