 2017-02-08 14:34:38.03131+01 | 1486560878.03131 |                 0 |              10 |                  7090 |                  400 |             968341 |       1288847 |            12780 |        10316003 |                     0 |       9186820 | 2017-02-08 13:48:37.24488+01

 2017-02-08 14:34:39.083844+01 | 1486560879.08384 |                 0 |              10 |                  7090 |                  400 |             968341 |       1288847 |            12780 |        10316003 |                     0 |       9189863 | 2017-02-08 13:48:37.24488+01

 2017-02-08 14:34:40.135018+01 | 1486560880.13502 |                 0 |              10 |                  7090 |                  400 |             968341 |       1288847 |            12780 |        10316003 |                     0 |       9192910 | 2017-02-08 13:48:37.24488+01

 2017-02-08 14:34:41.19369+01 | 1486560881.19369 |                 0 |              10 |                  7090 |                  400 |             968341 |       1288847 |            12780 |        10316003 |                     0 |       9195991 | 2017-02-08 13:48:37.24488+01

 2017-02-08 14:34:42.252992+01 | 1486560882.25299 |                 0 |              10 |                  7090 |                  400 |             968341 |       1288847 |            12780 |        10316003 |                     0 |       9199999 | 2017-02-08 13:48:37.24488+01

 2017-02-08 14:34:43.306522+01 | 1486560883.30652 |                 0 |              10 |                  7090 |                  400 |             968341 |       1288847 |            12780 |        10316003 |                     0 |       9203306 | 2017-02-08 13:48:37.24488+01

 2017-02-08 14:34:44.360606+01 | 1486560884.36061 |                 0 |              10 |                  7090 |                  400 |             968341 |       1288863 |            12780 |        10316003 |                     0 |       9206537 | 2017-02-08 13:48:37.24488+01

 2017-02-08 14:34:45.416972+01 | 1486560885.41697 |                 0 |              10 |                  7090 |                  400 |             968341 |       1288894 |            12780 |        10316003 |                     0 |       9210390 | 2017-02-08 13:48:37.24488+01

 2017-02-08 14:34:46.47245+01 | 1486560886.47245 |                 0 |              10 |                  7090 |                  400 |             968341 |       1288913 |            12780 |        10316003 |                     0 |       9213736 | 2017-02-08 13:48:37.24488+01

 2017-02-08 14:34:47.525788+01 | 1486560887.52579 |                 0 |              10 |                  7090 |                  400 |             968341 |       1288945 |            12780 |        10316003 |                     0 |       9217077 | 2017-02-08 13:48:37.24488+01

 2017-02-08 14:34:48.583109+01 | 1486560888.58311 |                 0 |              10 |                  7090 |                  400 |             968341 |       1289018 |            12780 |        10316003 |                     0 |       9220356 | 2017-02-08 13:48:37.24488+01

 2017-02-08 14:34:49.642641+01 | 1486560889.64264 |                 0 |              10 |                  7090 |                  400 |             968341 |       1289455 |            12780 |        10316003 |                     0 |       9224478 | 2017-02-08 13:48:37.24488+01

 2017-02-08 14:34:50.701238+01 | 1486560890.70124 |                 0 |              10 |                  7090 |                  400 |             968341 |       1289888 |            12781 |        10316003 |                     0 |       9227973 | 2017-02-08 13:48:37.24488+01

 2017-02-08 14:34:51.758562+01 | 1486560891.75856 |                 0 |              10 |                  7090 |                  400 |             968341 |       1290340 |            12783 |        10316003 |                     0 |       9231226 | 2017-02-08 13:48:37.24488+01

 2017-02-08 14:34:52.814104+01 | 1486560892.8141 |                 0 |              10 |                  7090 |                  400 |             968341 |       1290840 |            12788 |        10316003 |                     0 |       9234827 | 2017-02-08 13:48:37.24488+01

 2017-02-08 14:34:53.874929+01 | 1486560893.87493 |                 0 |              10 |                  7090 |                  400 |             968341 |       1291440 |            12794 |        10316003 |                     0 |       9239010 | 2017-02-08 13:48:37.24488+01

 2017-02-08 14:34:54.931002+01 | 1486560894.931 |                 0 |              10 |                  7090 |                  400 |             968341 |       1291940 |            12799 |        10316003 |                     0 |       9242491 | 2017-02-08 13:48:37.24488+01

 2017-02-08 14:34:55.982893+01 | 1486560895.98289 |                 0 |              10 |                  7090 |                  400 |             968341 |       1292440 |            12804 |        10316003 |                     0 |       9245844 | 2017-02-08 13:48:37.24488+01

 2017-02-08 14:34:57.040142+01 | 1486560897.04014 |                 0 |              10 |                  7090 |                  400 |             968341 |       1292940 |            12809 |        10316003 |                     0 |       9249341 | 2017-02-08 13:48:37.24488+01

 2017-02-08 14:34:58.094429+01 | 1486560898.09443 |                 0 |              10 |                  7090 |                  400 |             968341 |       1293540 |            12815 |        10316003 |                     0 |       9253606 | 2017-02-08 13:48:37.24488+01

 2017-02-08 14:34:59.155763+01 | 1486560899.15576 |                 0 |              10 |                  7090 |                  400 |             968341 |       1294040 |            12820 |        10316003 |                     0 |       9256880 | 2017-02-08 13:48:37.24488+01

 2017-02-08 14:35:00.210906+01 | 1486560900.21091 |                 0 |              10 |                  7090 |                  400 |             968341 |       1294540 |            12825 |        10316003 |                     0 |       9260352 | 2017-02-08 13:48:37.24488+01

 2017-02-08 14:35:01.268968+01 | 1486560901.26897 |                 0 |              10 |                  7090 |                  400 |             968341 |       1295040 |            12830 |        10316003 |                     0 |       9263640 | 2017-02-08 13:48:37.24488+01

 2017-02-08 14:35:02.324254+01 | 1486560902.32425 |                 0 |              10 |                  7090 |                  400 |             968341 |       1295640 |            12836 |        10316003 |                     0 |       9267971 | 2017-02-08 13:48:37.24488+01

 2017-02-08 14:35:03.380616+01 | 1486560903.38062 |                 0 |              10 |                  7090 |                  400 |             968341 |       1296140 |            12841 |        10316003 |                     0 |       9271360 | 2017-02-08 13:48:37.24488+01

 2017-02-08 14:35:04.439502+01 | 1486560904.4395 |                 0 |              10 |                  7090 |                  400 |             968341 |       1296640 |            12846 |        10316003 |                     0 |       9274868 | 2017-02-08 13:48:37.24488+01

 2017-02-08 14:35:05.498625+01 | 1486560905.49863 |                 0 |              10 |                  7090 |                  400 |             968341 |       1297140 |            12851 |        10373246 |                     0 |       9278430 | 2017-02-08 13:48:37.24488+01

 2017-02-08 14:35:06.558699+01 | 1486560906.5587 |                 0 |              10 |                  7090 |                  400 |             968341 |       1297740 |            12857 |        10373246 |                     0 |       9282585 | 2017-02-08 13:48:37.24488+01

 2017-02-08 14:35:07.624602+01 | 1486560907.6246 |                 0 |              10 |                  7090 |                  400 |             968341 |       1298240 |            12862 |        10373246 |                     0 |       9286172 | 2017-02-08 13:48:37.24488+01

 2017-02-08 14:35:08.669383+01 | 1486560908.66938 |                 0 |              10 |                  7090 |                  400 |             968341 |       1298740 |            12867 |        10373246 |                     0 |       9289616 | 2017-02-08 13:48:37.24488+01

 2017-02-08 14:35:09.722227+01 | 1486560909.72223 |                 0 |              10 |                  7090 |                  400 |             968341 |       1299140 |            12871 |        10373246 |                     0 |       9292577 | 2017-02-08 13:48:37.24488+01

 2017-02-08 14:35:10.783966+01 | 1486560910.78397 |                 0 |              10 |                  7090 |                  400 |             968341 |       1299840 |            12878 |        10373246 |                     0 |       9297296 | 2017-02-08 13:48:37.24488+01

 2017-02-08 14:35:11.845095+01 | 1486560911.84509 |                 0 |              10 |                  7090 |                  400 |             968341 |       1300340 |            12883 |        10373246 |                     0 |       9300846 | 2017-02-08 13:48:37.24488+01

 2017-02-08 14:35:12.901126+01 | 1486560912.90113 |                 0 |              10 |                  7090 |                  400 |             968341 |       1300840 |            12888 |        10373246 |                     0 |       9304234 | 2017-02-08 13:48:37.24488+01

 2017-02-08 14:35:13.957834+01 | 1486560913.95783 |                 0 |              10 |                  7090 |                  400 |             968341 |       1301340 |            12893 |        10373246 |                     0 |       9307963 | 2017-02-08 13:48:37.24488+01

 2017-02-08 14:35:15.012274+01 | 1486560915.01227 |                 0 |              10 |                  7090 |                  400 |             968341 |       1301940 |            12899 |        10373246 |                     0 |       9311949 | 2017-02-08 13:48:37.24488+01

 2017-02-08 14:35:16.067629+01 | 1486560916.06763 |                 0 |              10 |                  7090 |                  400 |             968341 |       1302440 |            12904 |        10373246 |                     0 |       9315548 | 2017-02-08 13:48:37.24488+01

 2017-02-08 14:35:17.126398+01 | 1486560917.1264 |                 0 |              10 |                  7090 |                  400 |             968341 |       1302940 |            12909 |        10373246 |                     0 |       9319011 | 2017-02-08 13:48:37.24488+01

 2017-02-08 14:35:18.181609+01 | 1486560918.18161 |                 0 |              10 |                  7090 |                  400 |             968341 |       1303440 |            12914 |        10373246 |                     0 |       9322634 | 2017-02-08 13:48:37.24488+01

 2017-02-08 14:35:19.235332+01 | 1486560919.23533 |                 0 |              10 |                  7090 |                  400 |             968341 |       1304040 |            12920 |        10373246 |                     0 |       9326824 | 2017-02-08 13:48:37.24488+01

 2017-02-08 14:35:20.292794+01 | 1486560920.29279 |                 0 |              10 |                  7090 |                  400 |             968341 |       1304540 |            12925 |        10373246 |                     0 |       9330509 | 2017-02-08 13:48:37.24488+01

 2017-02-08 14:35:21.353165+01 | 1486560921.35316 |                 0 |              10 |                  7090 |                  400 |             968341 |       1305040 |            12930 |        10431182 |                     0 |       9333900 | 2017-02-08 13:48:37.24488+01

 2017-02-08 14:35:22.408012+01 | 1486560922.40801 |                 0 |              10 |                  7090 |                  400 |             968341 |       1305540 |            12935 |        10431182 |                     0 |       9337481 | 2017-02-08 13:48:37.24488+01

 2017-02-08 14:35:23.467296+01 | 1486560923.4673 |                 0 |              10 |                  7090 |                  400 |             968341 |       1306140 |            12941 |        10431182 |                     0 |       9341661 | 2017-02-08 13:48:37.24488+01

 2017-02-08 14:35:24.53171+01 | 1486560924.53171 |                 0 |              10 |                  7090 |                  400 |             968341 |       1306640 |            12946 |        10431182 |                     0 |       9345346 | 2017-02-08 13:48:37.24488+01

 2017-02-08 14:35:25.588333+01 | 1486560925.58833 |                 0 |              10 |                  7090 |                  400 |             968341 |       1307140 |            12951 |        10431182 |                     0 |       9348661 | 2017-02-08 13:48:37.24488+01

 2017-02-08 14:35:26.642543+01 | 1486560926.64254 |                 0 |              10 |                  7090 |                  400 |             968341 |       1307740 |            12957 |        10431182 |                     0 |       9353074 | 2017-02-08 13:48:37.24488+01

 2017-02-08 14:35:27.70357+01 | 1486560927.70357 |                 0 |              10 |                  7090 |                  400 |             968341 |       1308240 |            12962 |        10431182 |                     0 |       9356703 | 2017-02-08 13:48:37.24488+01

 2017-02-08 14:35:28.76278+01 | 1486560928.76278 |                 0 |              10 |                  7090 |                  400 |             968341 |       1308740 |            12967 |        10431182 |                     0 |       9360130 | 2017-02-08 13:48:37.24488+01

 2017-02-08 14:35:29.816121+01 | 1486560929.81612 |                 0 |              10 |                  7090 |                  400 |             968341 |       1309240 |            12972 |        10431182 |                     0 |       9363840 | 2017-02-08 13:48:37.24488+01

 2017-02-08 14:35:30.87213+01 | 1486560930.87213 |                 0 |              10 |                  7090 |                  400 |             968341 |       1309840 |            12978 |        10431182 |                     0 |       9367984 | 2017-02-08 13:48:37.24488+01

 2017-02-08 14:35:31.932128+01 | 1486560931.93213 |                 0 |              10 |                  7090 |                  400 |             968341 |       1310340 |            12983 |        10431182 |                     0 |       9371541 | 2017-02-08 13:48:37.24488+01

 2017-02-08 14:35:32.98774+01 | 1486560932.98774 |                 0 |              10 |                  7090 |                  400 |             968341 |       1310840 |            12988 |        10431182 |                     0 |       9375158 | 2017-02-08 13:48:37.24488+01

 2017-02-08 14:35:34.047224+01 | 1486560934.04722 |                 0 |              10 |                  7090 |                  400 |             968341 |       1311340 |            12993 |        10431182 |                     0 |       9378583 | 2017-02-08 13:48:37.24488+01

 2017-02-08 14:35:35.115435+01 | 1486560935.11543 |                 0 |              10 |                  7090 |                  400 |             968341 |       1311940 |            12999 |        10431182 |                     0 |       9383027 | 2017-02-08 13:48:37.24488+01

 2017-02-08 14:35:36.17143+01 | 1486560936.17143 |                 0 |              10 |                  7090 |                  400 |             968341 |       1312440 |            13004 |        10431182 |                     0 |       9386486 | 2017-02-08 13:48:37.24488+01

 2017-02-08 14:35:37.230714+01 | 1486560937.23071 |                 0 |              10 |                  7090 |                  400 |             968341 |       1312940 |            13009 |        10488818 |                     0 |       9390090 | 2017-02-08 13:48:37.24488+01

 2017-02-08 14:35:38.288382+01 | 1486560938.28838 |                 0 |              10 |                  7090 |                  400 |             968341 |       1313440 |            13014 |        10488818 |                     0 |       9393483 | 2017-02-08 13:48:37.24488+01

 2017-02-08 14:35:39.346123+01 | 1486560939.34612 |                 0 |              10 |                  7090 |                  400 |             968341 |       1314040 |            13020 |        10488818 |                     0 |       9397897 | 2017-02-08 13:48:37.24488+01

 2017-02-08 14:35:40.40583+01 | 1486560940.40583 |                 0 |              10 |                  7090 |                  400 |             968341 |       1314540 |            13025 |        10488818 |                     0 |       9401429 | 2017-02-08 13:48:37.24488+01

 2017-02-08 14:35:41.465949+01 | 1486560941.46595 |                 0 |              10 |                  7090 |                  400 |             968341 |       1315040 |            13030 |        10488818 |                     0 |       9405092 | 2017-02-08 13:48:37.24488+01

 2017-02-08 14:35:42.528989+01 | 1486560942.52899 |                 0 |              10 |                  7090 |                  400 |             968341 |       1315540 |            13035 |        10488818 |                     0 |       9408800 | 2017-02-08 13:48:37.24488+01

 2017-02-08 14:35:43.585194+01 | 1486560943.58519 |                 0 |              10 |                  7090 |                  400 |             968341 |       1316140 |            13041 |        10488818 |                     0 |       9413039 | 2017-02-08 13:48:37.24488+01

 2017-02-08 14:35:44.644798+01 | 1486560944.6448 |                 0 |              10 |                  7090 |                  400 |             968341 |       1316640 |            13046 |        10488818 |                     0 |       9416739 | 2017-02-08 13:48:37.24488+01

 2017-02-08 14:35:45.699262+01 | 1486560945.69926 |                 0 |              10 |                  7090 |                  400 |             968341 |       1317140 |            13051 |        10488818 |                     0 |       9420212 | 2017-02-08 13:48:37.24488+01

 2017-02-08 14:35:46.755378+01 | 1486560946.75538 |                 0 |              10 |                  7090 |                  400 |             968341 |       1317640 |            13056 |        10488818 |                     0 |       9423669 | 2017-02-08 13:48:37.24488+01

 2017-02-08 14:35:47.813471+01 | 1486560947.81347 |                 0 |              10 |                  7090 |                  400 |             968341 |       1318240 |            13062 |        10488818 |                     0 |       9427813 | 2017-02-08 13:48:37.24488+01

 2017-02-08 14:35:48.870025+01 | 1486560948.87002 |                 0 |              10 |                  7090 |                  400 |             968341 |       1318740 |            13067 |        10488818 |                     0 |       9431567 | 2017-02-08 13:48:37.24488+01

 2017-02-08 14:35:49.926453+01 | 1486560949.92645 |                 0 |              10 |                  7090 |                  400 |             968341 |       1319240 |            13072 |        10488818 |                     0 |       9435293 | 2017-02-08 13:48:37.24488+01

 2017-02-08 14:35:50.981636+01 | 1486560950.98164 |                 0 |              10 |                  7090 |                  400 |             968341 |       1319840 |            13078 |        10488818 |                     0 |       9439609 | 2017-02-08 13:48:37.24488+01

 2017-02-08 14:35:52.038682+01 | 1486560952.03868 |                 0 |              10 |                  7090 |                  400 |             968341 |       1320340 |            13083 |        10488818 |                     0 |       9443353 | 2017-02-08 13:48:37.24488+01

 2017-02-08 14:35:53.093296+01 | 1486560953.0933 |                 0 |              10 |                  7090 |                  400 |             968341 |       1320840 |            13088 |        10488818 |                     0 |       9446806 | 2017-02-08 13:48:37.24488+01

 2017-02-08 14:35:54.150708+01 | 1486560954.15071 |                 0 |              10 |                  7090 |                  400 |             968341 |       1321340 |            13093 |        10545654 |                     0 |       9450468 | 2017-02-08 13:48:37.24488+01

 2017-02-08 14:35:55.208967+01 | 1486560955.20897 |                 0 |              10 |                  7090 |                  400 |             968341 |       1321940 |            13099 |        10545654 |                     0 |       9454766 | 2017-02-08 13:48:37.24488+01

 2017-02-08 14:35:56.266575+01 | 1486560956.26658 |                 0 |              10 |                  7090 |                  400 |             968341 |       1322440 |            13104 |        10545654 |                     0 |       9458285 | 2017-02-08 13:48:37.24488+01

 2017-02-08 14:35:57.318723+01 | 1486560957.31872 |                 0 |              10 |                  7090 |                  400 |             968341 |       1322940 |            13109 |        10545654 |                     0 |       9461914 | 2017-02-08 13:48:37.24488+01

 2017-02-08 14:35:58.380977+01 | 1486560958.38098 |                 0 |              10 |                  7090 |                  400 |             968341 |       1323440 |            13114 |        10545654 |                     0 |       9465347 | 2017-02-08 13:48:37.24488+01

 2017-02-08 14:35:59.436832+01 | 1486560959.43683 |                 0 |              10 |                  7090 |                  400 |             968341 |       1324040 |            13120 |        10545654 |                     0 |       9469713 | 2017-02-08 13:48:37.24488+01

 2017-02-08 14:36:00.49549+01 | 1486560960.49549 |                 0 |              10 |                  7090 |                  400 |             968341 |       1324540 |            13125 |        10545654 |                     0 |       9473271 | 2017-02-08 13:48:37.24488+01

 2017-02-08 14:36:01.55875+01 | 1486560961.55875 |                 0 |              10 |                  7090 |                  400 |             968341 |       1325040 |            13130 |        10545654 |                     0 |       9476728 | 2017-02-08 13:48:37.24488+01

 2017-02-08 14:36:02.627333+01 | 1486560962.62733 |                 0 |              10 |                  7090 |                  400 |             968341 |       1325540 |            13135 |        10545654 |                     0 |       9480384 | 2017-02-08 13:48:37.24488+01

 2017-02-08 14:36:03.688274+01 | 1486560963.68827 |                 0 |              10 |                  7090 |                  400 |             968341 |       1326140 |            13141 |        10545654 |                     0 |       9484057 | 2017-02-08 13:48:37.24488+01

 2017-02-08 14:36:04.744275+01 | 1486560964.74428 |                 0 |              10 |                  7090 |                  400 |             968341 |       1326640 |            13146 |        10545654 |                     0 |       9487394 | 2017-02-08 13:48:37.24488+01

 2017-02-08 14:36:05.803517+01 | 1486560965.80352 |                 0 |              10 |                  7090 |                  400 |             968341 |       1327140 |            13151 |        10545654 |                     0 |       9490807 | 2017-02-08 13:48:37.24488+01

 2017-02-08 14:36:06.862696+01 | 1486560966.8627 |                 0 |              10 |                  7090 |                  400 |             968341 |       1327640 |            13156 |        10545654 |                     0 |       9494062 | 2017-02-08 13:48:37.24488+01

 2017-02-08 14:36:07.92113+01 | 1486560967.92113 |                 0 |              10 |                  7090 |                  400 |             968341 |       1328240 |            13162 |        10545654 |                     0 |       9498099 | 2017-02-08 13:48:37.24488+01

 2017-02-08 14:36:08.962848+01 | 1486560968.96285 |                 0 |              10 |                  7090 |                  400 |             968341 |       1328540 |            13165 |        10545654 |                     0 |       9500002 | 2017-02-08 13:48:37.24488+01

 2017-02-08 14:36:10.023059+01 | 1486560970.02306 |                 0 |              10 |                  7090 |                  400 |             968341 |       1329240 |            13172 |        10545654 |                     0 |       9504673 | 2017-02-08 13:48:37.24488+01

 2017-02-08 14:36:11.077279+01 | 1486560971.07728 |                 0 |              10 |                  7090 |                  400 |             968341 |       1329740 |            13177 |        10545654 |                     0 |       9508161 | 2017-02-08 13:48:37.24488+01

 2017-02-08 14:36:12.137092+01 | 1486560972.13709 |                 0 |              10 |                  7090 |                  400 |             968341 |       1330340 |            13183 |        10545654 |                     0 |       9512106 | 2017-02-08 13:48:37.24488+01

 2017-02-08 14:36:13.209937+01 | 1486560973.20994 |                 0 |              10 |                  7090 |                  400 |             968341 |       1330840 |            13188 |        10602091 |                     0 |       9515467 | 2017-02-08 13:48:37.24488+01

 2017-02-08 14:36:14.262702+01 | 1486560974.2627 |                 0 |              10 |                  7090 |                  400 |             968341 |       1331340 |            13193 |        10602091 |                     0 |       9518673 | 2017-02-08 13:48:37.24488+01

 2017-02-08 14:36:15.316694+01 | 1486560975.31669 |                 0 |              10 |                  7090 |                  400 |             968341 |       1331940 |            13199 |        10602091 |                     0 |       9522784 | 2017-02-08 13:48:37.24488+01

 2017-02-08 14:36:16.379252+01 | 1486560976.37925 |                 0 |              10 |                  7090 |                  400 |             968341 |       1332440 |            13204 |        10602091 |                     0 |       9526082 | 2017-02-08 13:48:37.24488+01

 2017-02-08 14:36:17.440369+01 | 1486560977.44037 |                 0 |              10 |                  7090 |                  400 |             968341 |       1332940 |            13209 |        10602091 |                     0 |       9529538 | 2017-02-08 13:48:37.24488+01

 2017-02-08 14:36:18.498378+01 | 1486560978.49838 |                 0 |              10 |                  7090 |                  400 |             968341 |       1333440 |            13214 |        10602091 |                     0 |       9532790 | 2017-02-08 13:48:37.24488+01

 2017-02-08 14:36:19.562098+01 | 1486560979.5621 |                 0 |              10 |                  7090 |                  400 |             968341 |       1334040 |            13220 |        10602091 |                     0 |       9536941 | 2017-02-08 13:48:37.24488+01

 2017-02-08 14:36:20.617278+01 | 1486560980.61728 |                 0 |              10 |                  7090 |                  400 |             968341 |       1334540 |            13225 |        10602091 |                     0 |       9540298 | 2017-02-08 13:48:37.24488+01

 2017-02-08 14:36:21.671431+01 | 1486560981.67143 |                 0 |              10 |                  7090 |                  400 |             968341 |       1335040 |            13230 |        10602091 |                     0 |       9543900 | 2017-02-08 13:48:37.24488+01

 2017-02-08 14:36:22.730843+01 | 1486560982.73084 |                 0 |              10 |                  7090 |                  400 |             968341 |       1335540 |            13235 |        10602091 |                     0 |       9547174 | 2017-02-08 13:48:37.24488+01

 2017-02-08 14:36:23.785753+01 | 1486560983.78575 |                 0 |              10 |                  7090 |                  400 |             968341 |       1336140 |            13241 |        10602091 |                     0 |       9551420 | 2017-02-08 13:48:37.24488+01

 2017-02-08 14:36:24.841059+01 | 1486560984.84106 |                 0 |              10 |                  7090 |                  400 |             968341 |       1336640 |            13246 |        10602091 |                     0 |       9554748 | 2017-02-08 13:48:37.24488+01

 2017-02-08 14:36:25.896288+01 | 1486560985.89629 |                 0 |              10 |                  7090 |                  400 |             968341 |       1337140 |            13251 |        10602091 |                     0 |       9558377 | 2017-02-08 13:48:37.24488+01

 2017-02-08 14:36:26.950959+01 | 1486560986.95096 |                 0 |              10 |                  7090 |                  400 |             968341 |       1337640 |            13256 |        10602091 |                     0 |       9561810 | 2017-02-08 13:48:37.24488+01

 2017-02-08 14:36:28.012595+01 | 1486560988.01259 |                 0 |              10 |                  7090 |                  400 |             968341 |       1338240 |            13262 |        10660127 |                     0 |       9566081 | 2017-02-08 13:48:37.24488+01

 2017-02-08 14:36:29.076707+01 | 1486560989.07671 |                 0 |              10 |                  7090 |                  400 |             968341 |       1338740 |            13267 |        10660127 |                     0 |       9569668 | 2017-02-08 13:48:37.24488+01

 2017-02-08 14:36:30.134554+01 | 1486560990.13455 |                 0 |              10 |                  7090 |                  400 |             968341 |       1339240 |            13272 |        10660127 |                     0 |       9573194 | 2017-02-08 13:48:37.24488+01

 2017-02-08 14:36:31.194342+01 | 1486560991.19434 |                 0 |              10 |                  7090 |                  400 |             968341 |       1339840 |            13278 |        10660127 |                     0 |       9577590 | 2017-02-08 13:48:37.24488+01

 2017-02-08 14:36:32.258864+01 | 1486560992.25886 |                 0 |              10 |                  7090 |                  400 |             968341 |       1340340 |            13283 |        10660127 |                     0 |       9580959 | 2017-02-08 13:48:37.24488+01

 2017-02-08 14:36:33.315646+01 | 1486560993.31565 |                 0 |              10 |                  7090 |                  400 |             968341 |       1340840 |            13288 |        10660127 |                     0 |       9584582 | 2017-02-08 13:48:37.24488+01

 2017-02-08 14:36:34.376196+01 | 1486560994.3762 |                 0 |              10 |                  7090 |                  400 |             968341 |       1341340 |            13293 |        10660127 |                     0 |       9587982 | 2017-02-08 13:48:37.24488+01

 2017-02-08 14:36:35.450051+01 | 1486560995.45005 |                 0 |              10 |                  7090 |                  400 |             968341 |       1341940 |            13299 |        10660127 |                     0 |       9592078 | 2017-02-08 13:48:37.24488+01

 2017-02-08 14:36:36.509386+01 | 1486560996.50939 |                 0 |              10 |                  7090 |                  400 |             968341 |       1342440 |            13304 |        10660127 |                     0 |       9595382 | 2017-02-08 13:48:37.24488+01

 2017-02-08 14:36:37.569511+01 | 1486560997.56951 |                 0 |              10 |                  7090 |                  400 |             968341 |       1342940 |            13309 |        10660127 |                     0 |       9598945 | 2017-02-08 13:48:37.24488+01

 2017-02-08 14:36:38.624092+01 | 1486560998.62409 |                 0 |              10 |                  7090 |                  400 |             968341 |       1343440 |            13314 |        10660127 |                     0 |       9602311 | 2017-02-08 13:48:37.24488+01

 2017-02-08 14:36:39.688719+01 | 1486560999.68872 |                 0 |              10 |                  7090 |                  400 |             968341 |       1344040 |            13320 |        10660127 |                     0 |       9606727 | 2017-02-08 13:48:37.24488+01

 2017-02-08 14:36:40.748492+01 | 1486561000.74849 |                 0 |              10 |                  7090 |                  400 |             968341 |       1344540 |            13325 |        10660127 |                     0 |       9610090 | 2017-02-08 13:48:37.24488+01

 2017-02-08 14:36:41.80243+01 | 1486561001.80243 |                 0 |              10 |                  7090 |                  400 |             968341 |       1345040 |            13330 |        10660127 |                     0 |       9613672 | 2017-02-08 13:48:37.24488+01

 2017-02-08 14:36:42.856259+01 | 1486561002.85626 |                 0 |              10 |                  7090 |                  400 |             968341 |       1345640 |            13336 |        10718163 |                     0 |       9617789 | 2017-02-08 13:48:37.24488+01

 2017-02-08 14:36:43.912695+01 | 1486561003.91269 |                 0 |              10 |                  7090 |                  400 |             968341 |       1346140 |            13341 |        10718163 |                     0 |       9621245 | 2017-02-08 13:48:37.24488+01

 2017-02-08 14:36:44.975938+01 | 1486561004.97594 |                 0 |              10 |                  7090 |                  400 |             968341 |       1346640 |            13346 |        10718163 |                     0 |       9624699 | 2017-02-08 13:48:37.24488+01

 2017-02-08 14:36:46.034852+01 | 1486561006.03485 |                 0 |              10 |                  7090 |                  400 |             968341 |       1347140 |            13351 |        10718163 |                     0 |       9628158 | 2017-02-08 13:48:37.24488+01

 2017-02-08 14:36:47.098835+01 | 1486561007.09883 |                 0 |              10 |                  7090 |                  400 |             968341 |       1347740 |            13357 |        10718163 |                     0 |       9632327 | 2017-02-08 13:48:37.24488+01

 2017-02-08 14:36:48.152311+01 | 1486561008.15231 |                 0 |              10 |                  7090 |                  400 |             968341 |       1348240 |            13362 |        10718163 |                     0 |       9635700 | 2017-02-08 13:48:37.24488+01

 2017-02-08 14:36:49.213553+01 | 1486561009.21355 |                 0 |              10 |                  7090 |                  400 |             968341 |       1348740 |            13367 |        10718163 |                     0 |       9639211 | 2017-02-08 13:48:37.24488+01

 2017-02-08 14:36:50.271792+01 | 1486561010.27179 |                 0 |              10 |                  7090 |                  400 |             968341 |       1349240 |            13372 |        10718163 |                     0 |       9642551 | 2017-02-08 13:48:37.24488+01

 2017-02-08 14:36:51.335322+01 | 1486561011.33532 |                 0 |              10 |                  7090 |                  400 |             968341 |       1349840 |            13378 |        10718163 |                     0 |       9646838 | 2017-02-08 13:48:37.24488+01

 2017-02-08 14:36:52.39037+01 | 1486561012.39037 |                 0 |              10 |                  7090 |                  400 |             968341 |       1350340 |            13383 |        10718163 |                     0 |       9650204 | 2017-02-08 13:48:37.24488+01

 2017-02-08 14:36:53.447825+01 | 1486561013.44782 |                 0 |              10 |                  7090 |                  400 |             968341 |       1350840 |            13388 |        10718163 |                     0 |       9653652 | 2017-02-08 13:48:37.24488+01

 2017-02-08 14:36:54.508015+01 | 1486561014.50801 |                 0 |              10 |                  7090 |                  400 |             968341 |       1351340 |            13393 |        10718163 |                     0 |       9657071 | 2017-02-08 13:48:37.24488+01

 2017-02-08 14:36:55.563629+01 | 1486561015.56363 |                 0 |              10 |                  7090 |                  400 |             968341 |       1351940 |            13399 |        10718163 |                     0 |       9661305 | 2017-02-08 13:48:37.24488+01

 2017-02-08 14:36:56.62251+01 | 1486561016.62251 |                 0 |              10 |                  7090 |                  400 |             968341 |       1352440 |            13404 |        10776799 |                     0 |       9664604 | 2017-02-08 13:48:37.24488+01

 2017-02-08 14:36:57.676885+01 | 1486561017.67688 |                 0 |              10 |                  7090 |                  400 |             968341 |       1352940 |            13409 |        10776799 |                     0 |       9668189 | 2017-02-08 13:48:37.24488+01

 2017-02-08 14:36:58.736908+01 | 1486561018.73691 |                 0 |              10 |                  7090 |                  400 |             968341 |       1353540 |            13415 |        10776799 |                     0 |       9671986 | 2017-02-08 13:48:37.24488+01

 2017-02-08 14:36:59.791093+01 | 1486561019.79109 |                 0 |              10 |                  7090 |                  400 |             968341 |       1354040 |            13420 |        10776799 |                     0 |       9675356 | 2017-02-08 13:48:37.24488+01

 2017-02-08 14:37:00.847926+01 | 1486561020.84793 |                 0 |              10 |                  7090 |                  400 |             968341 |       1354540 |            13425 |        10776799 |                     0 |       9679068 | 2017-02-08 13:48:37.24488+01

 2017-02-08 14:37:01.903135+01 | 1486561021.90314 |                 0 |              10 |                  7090 |                  400 |             968341 |       1355040 |            13430 |        10776799 |                     0 |       9682332 | 2017-02-08 13:48:37.24488+01

 2017-02-08 14:37:02.966384+01 | 1486561022.96638 |                 0 |              10 |                  7090 |                  400 |             968341 |       1355640 |            13436 |        10776799 |                     0 |       9686446 | 2017-02-08 13:48:37.24488+01

 2017-02-08 14:37:04.029706+01 | 1486561024.02971 |                 0 |              10 |                  7090 |                  400 |             968341 |       1356140 |            13441 |        10776799 |                     0 |       9689751 | 2017-02-08 13:48:37.24488+01

 2017-02-08 14:37:05.090069+01 | 1486561025.09007 |                 0 |              10 |                  7090 |                  400 |             968341 |       1356640 |            13446 |        10776799 |                     0 |       9693394 | 2017-02-08 13:48:37.24488+01

 2017-02-08 14:37:06.144184+01 | 1486561026.14418 |                 0 |              10 |                  7090 |                  400 |             968341 |       1357140 |            13451 |        10776799 |                     0 |       9696789 | 2017-02-08 13:48:37.24488+01

 2017-02-08 14:37:07.197485+01 | 1486561027.19748 |                 0 |              10 |                  7090 |                  400 |             968341 |       1357740 |            13457 |        10776799 |                     0 |       9701192 | 2017-02-08 13:48:37.24488+01

 2017-02-08 14:37:08.252099+01 | 1486561028.2521 |                 0 |              10 |                  7090 |                  400 |             968341 |       1358240 |            13462 |        10776799 |                     0 |       9704429 | 2017-02-08 13:48:37.24488+01

 2017-02-08 14:37:09.329827+01 | 1486561029.32983 |                 0 |              10 |                  7090 |                  400 |             968341 |       1358740 |            13467 |        10776799 |                     0 |       9707924 | 2017-02-08 13:48:37.24488+01

 2017-02-08 14:37:10.370874+01 | 1486561030.37087 |                 0 |              10 |                  7090 |                  400 |             968341 |       1359040 |            13470 |        10776799 |                     0 |       9709799 | 2017-02-08 13:48:37.24488+01

 2017-02-08 14:37:11.423653+01 | 1486561031.42365 |                 0 |              10 |                  7090 |                  400 |             968341 |       1359840 |            13478 |        10835335 |                     0 |       9715531 | 2017-02-08 13:48:37.24488+01

 2017-02-08 14:37:12.482902+01 | 1486561032.4829 |                 0 |              10 |                  7090 |                  400 |             968341 |       1360340 |            13483 |        10835335 |                     0 |       9718780 | 2017-02-08 13:48:37.24488+01

 2017-02-08 14:37:13.543024+01 | 1486561033.54302 |                 0 |              10 |                  7090 |                  400 |             968341 |       1360840 |            13488 |        10835335 |                     0 |       9722267 | 2017-02-08 13:48:37.24488+01

 2017-02-08 14:37:14.607178+01 | 1486561034.60718 |                 0 |              10 |                  7090 |                  400 |             968341 |       1361340 |            13493 |        10835335 |                     0 |       9725581 | 2017-02-08 13:48:37.24488+01

 2017-02-08 14:37:15.661456+01 | 1486561035.66146 |                 0 |              10 |                  7090 |                  400 |             968341 |       1361840 |            13498 |        10835335 |                     0 |       9728822 | 2017-02-08 13:48:37.24488+01

 2017-02-08 14:37:16.717652+01 | 1486561036.71765 |                 0 |              10 |                  7090 |                  400 |             968341 |       1362440 |            13504 |        10835335 |                     0 |       9732881 | 2017-02-08 13:48:37.24488+01

 2017-02-08 14:37:17.776015+01 | 1486561037.77602 |                 0 |              10 |                  7090 |                  400 |             968341 |       1362940 |            13509 |        10835335 |                     0 |       9736466 | 2017-02-08 13:48:37.24488+01

 2017-02-08 14:37:18.833232+01 | 1486561038.83323 |                 0 |              10 |                  7090 |                  400 |             968341 |       1363540 |            13515 |        10835335 |                     0 |       9740466 | 2017-02-08 13:48:37.24488+01

 2017-02-08 14:37:19.885644+01 | 1486561039.88564 |                 0 |              10 |                  7090 |                  400 |             968341 |       1364040 |            13520 |        10835335 |                     0 |       9743864 | 2017-02-08 13:48:37.24488+01

 2017-02-08 14:37:20.940649+01 | 1486561040.94065 |                 0 |              10 |                  7090 |                  400 |             968341 |       1364540 |            13525 |        10835335 |                     0 |       9747597 | 2017-02-08 13:48:37.24488+01

 2017-02-08 14:37:22.001957+01 | 1486561042.00196 |                 0 |              10 |                  7090 |                  400 |             968341 |       1365040 |            13530 |        10835335 |                     0 |       9751193 | 2017-02-08 13:48:37.24488+01

 2017-02-08 14:37:23.05947+01 | 1486561043.05947 |                 0 |              10 |                  7090 |                  400 |             968341 |       1365640 |            13536 |        10835335 |                     0 |       9755305 | 2017-02-08 13:48:37.24488+01

 2017-02-08 14:37:24.119717+01 | 1486561044.11972 |                 0 |              10 |                  7090 |                  400 |             968341 |       1366140 |            13541 |        10835335 |                     0 |       9758850 | 2017-02-08 13:48:37.24488+01

 2017-02-08 14:37:25.176701+01 | 1486561045.1767 |                 0 |              10 |                  7090 |                  400 |             968341 |       1366640 |            13546 |        10835335 |                     0 |       9762394 | 2017-02-08 13:48:37.24488+01

 2017-02-08 14:37:26.239144+01 | 1486561046.23914 |                 0 |              10 |                  7090 |                  400 |             968341 |       1367140 |            13551 |        10835335 |                     0 |       9765888 | 2017-02-08 13:48:37.24488+01

 2017-02-08 14:37:27.299883+01 | 1486561047.29988 |                 0 |              10 |                  7090 |                  400 |             968341 |       1367740 |            13557 |        10892698 |                     0 |       9770077 | 2017-02-08 13:48:37.24488+01

 2017-02-08 14:37:28.35716+01 | 1486561048.35716 |                 0 |              10 |                  7090 |                  400 |             968341 |       1368240 |            13562 |        10892698 |                     0 |       9773780 | 2017-02-08 13:48:37.24488+01

 2017-02-08 14:37:29.416369+01 | 1486561049.41637 |                 0 |              10 |                  7090 |                  400 |             968341 |       1368740 |            13567 |        10892698 |                     0 |       9777265 | 2017-02-08 13:48:37.24488+01

 2017-02-08 14:37:30.477206+01 | 1486561050.47721 |                 0 |              10 |                  7090 |                  400 |             968341 |       1369240 |            13572 |        10892698 |                     0 |       9780982 | 2017-02-08 13:48:37.24488+01

 2017-02-08 14:37:31.534052+01 | 1486561051.53405 |                 0 |              10 |                  7090 |                  400 |             968341 |       1369840 |            13578 |        10892698 |                     0 |       9785121 | 2017-02-08 13:48:37.24488+01

 2017-02-08 14:37:32.598488+01 | 1486561052.59849 |                 0 |              10 |                  7090 |                  400 |             968341 |       1370340 |            13583 |        10892698 |                     0 |       9788757 | 2017-02-08 13:48:37.24488+01

 2017-02-08 14:37:33.657957+01 | 1486561053.65796 |                 0 |              10 |                  7090 |                  400 |             968341 |       1370840 |            13588 |        10892698 |                     0 |       9792301 | 2017-02-08 13:48:37.24488+01

 2017-02-08 14:37:34.71178+01 | 1486561054.71178 |                 0 |              10 |                  7090 |                  400 |             968341 |       1371340 |            13593 |        10892698 |                     0 |       9795693 | 2017-02-08 13:48:37.24488+01

 2017-02-08 14:37:35.771709+01 | 1486561055.77171 |                 0 |              10 |                  7090 |                  400 |             968341 |       1371940 |            13599 |        10892698 |                     0 |       9800013 | 2017-02-08 13:48:37.24488+01

 2017-02-08 14:37:36.830391+01 | 1486561056.83039 |                 0 |              10 |                  7090 |                  400 |             968341 |       1372440 |            13604 |        10892698 |                     0 |       9803613 | 2017-02-08 13:48:37.24488+01

 2017-02-08 14:37:37.887084+01 | 1486561057.88708 |                 0 |              10 |                  7090 |                  400 |             968341 |       1372940 |            13609 |        10892698 |                     0 |       9806944 | 2017-02-08 13:48:37.24488+01

 2017-02-08 14:37:38.945807+01 | 1486561058.94581 |                 0 |              10 |                  7090 |                  400 |             968341 |       1373440 |            13614 |        10892698 |                     0 |       9810643 | 2017-02-08 13:48:37.24488+01

 2017-02-08 14:37:40.006571+01 | 1486561060.00657 |                 0 |              10 |                  7090 |                  400 |             968341 |       1374040 |            13620 |        10892698 |                     0 |       9815103 | 2017-02-08 13:48:37.24488+01

 2017-02-08 14:37:41.061072+01 | 1486561061.06107 |                 0 |              10 |                  7090 |                  400 |             968341 |       1374540 |            13625 |        10892698 |                     0 |       9818638 | 2017-02-08 13:48:37.24488+01

 2017-02-08 14:37:42.11518+01 | 1486561062.11518 |                 0 |              10 |                  7090 |                  400 |             968341 |       1375040 |            13630 |        10892698 |                     0 |       9822261 | 2017-02-08 13:48:37.24488+01

 2017-02-08 14:37:43.177933+01 | 1486561063.17793 |                 0 |              10 |                  7090 |                  400 |             968341 |       1375640 |            13636 |        10892698 |                     0 |       9826620 | 2017-02-08 13:48:37.24488+01

 2017-02-08 14:37:44.236046+01 | 1486561064.23605 |                 0 |              10 |                  7090 |                  400 |             968341 |       1376140 |            13641 |        10892698 |                     0 |       9830076 | 2017-02-08 13:48:37.24488+01

 2017-02-08 14:37:45.296122+01 | 1486561065.29612 |                 0 |              10 |                  7090 |                  400 |             968341 |       1376640 |            13646 |        10892698 |                     0 |       9833599 | 2017-02-08 13:48:37.24488+01

 2017-02-08 14:37:46.349291+01 | 1486561066.34929 |                 0 |              10 |                  7090 |                  400 |             968341 |       1377140 |            13651 |        10892698 |                     0 |       9837100 | 2017-02-08 13:48:37.24488+01

 2017-02-08 14:37:47.405223+01 | 1486561067.40522 |                 0 |              10 |                  7090 |                  400 |             968341 |       1377740 |            13657 |        10948234 |                     0 |       9841284 | 2017-02-08 13:48:37.24488+01

 2017-02-08 14:37:48.467338+01 | 1486561068.46734 |                 0 |              10 |                  7090 |                  400 |             968341 |       1378240 |            13662 |        10948234 |                     0 |       9844948 | 2017-02-08 13:48:37.24488+01

 2017-02-08 14:37:49.528476+01 | 1486561069.52848 |                 0 |              10 |                  7090 |                  400 |             968341 |       1378740 |            13667 |        10948234 |                     0 |       9848391 | 2017-02-08 13:48:37.24488+01

 2017-02-08 14:37:50.58326+01 | 1486561070.58326 |                 0 |              10 |                  7090 |                  400 |             968341 |       1379240 |            13672 |        10948234 |                     0 |       9851887 | 2017-02-08 13:48:37.24488+01

 2017-02-08 14:37:51.642522+01 | 1486561071.64252 |                 0 |              10 |                  7090 |                  400 |             968341 |       1379840 |            13678 |        10948234 |                     0 |       9856173 | 2017-02-08 13:48:37.24488+01

 2017-02-08 14:37:52.698112+01 | 1486561072.69811 |                 0 |              10 |                  7090 |                  400 |             968341 |       1380340 |            13683 |        10948234 |                     0 |       9859574 | 2017-02-08 13:48:37.24488+01

 2017-02-08 14:37:53.754284+01 | 1486561073.75428 |                 0 |              10 |                  7090 |                  400 |             968341 |       1380840 |            13688 |        10948234 |                     0 |       9863070 | 2017-02-08 13:48:37.24488+01

 2017-02-08 14:37:54.807001+01 | 1486561074.807 |                 0 |              10 |                  7090 |                  400 |             968341 |       1381340 |            13693 |        10948234 |                     0 |       9866711 | 2017-02-08 13:48:37.24488+01

 2017-02-08 14:37:55.868393+01 | 1486561075.86839 |                 0 |              10 |                  7090 |                  400 |             968341 |       1381940 |            13699 |        10948234 |                     0 |       9870827 | 2017-02-08 13:48:37.24488+01

 2017-02-08 14:37:56.927277+01 | 1486561076.92728 |                 0 |              10 |                  7090 |                  400 |             968341 |       1382440 |            13704 |        10948234 |                     0 |       9874447 | 2017-02-08 13:48:37.24488+01

 2017-02-08 14:37:57.988026+01 | 1486561077.98803 |                 0 |              10 |                  7090 |                  400 |             968341 |       1382940 |            13709 |        10948234 |                     0 |       9878094 | 2017-02-08 13:48:37.24488+01

 2017-02-08 14:37:59.053159+01 | 1486561079.05316 |                 0 |              10 |                  7090 |                  400 |             968341 |       1383440 |            13714 |        10948234 |                     0 |       9881462 | 2017-02-08 13:48:37.24488+01

 2017-02-08 14:38:00.105725+01 | 1486561080.10573 |                 0 |              10 |                  7090 |                  400 |             968341 |       1384040 |            13720 |        10948234 |                     0 |       9885887 | 2017-02-08 13:48:37.24488+01

 2017-02-08 14:38:01.165302+01 | 1486561081.1653 |                 0 |              10 |                  7090 |                  400 |             968341 |       1384540 |            13725 |        10948234 |                     0 |       9889443 | 2017-02-08 13:48:37.24488+01

 2017-02-08 14:38:02.226208+01 | 1486561082.22621 |                 0 |              10 |                  7090 |                  400 |             968341 |       1385040 |            13730 |        10948234 |                     0 |       9892956 | 2017-02-08 13:48:37.24488+01

 2017-02-08 14:38:03.285756+01 | 1486561083.28576 |                 0 |              10 |                  7090 |                  400 |             968341 |       1385640 |            13736 |        10948234 |                     0 |       9897502 | 2017-02-08 13:48:37.24488+01

 2017-02-08 14:38:04.385437+01 | 1486561084.38544 |                 0 |              10 |                  7090 |                  400 |             968341 |       1386140 |            13741 |        10948234 |                     0 |       9901098 | 2017-02-08 13:48:37.24488+01

 2017-02-08 14:38:05.444995+01 | 1486561085.44499 |                 0 |              10 |                  7090 |                  400 |             968341 |       1386640 |            13746 |        10948234 |                     0 |       9904432 | 2017-02-08 13:48:37.24488+01

 2017-02-08 14:38:06.505172+01 | 1486561086.50517 |                 0 |              10 |                  7090 |                  400 |             968341 |       1387240 |            13752 |        10948234 |                     0 |       9909040 | 2017-02-08 13:48:37.24488+01

 2017-02-08 14:38:07.557215+01 | 1486561087.55721 |                 0 |              10 |                  7090 |                  400 |             968341 |       1387740 |            13757 |        11003698 |                     0 |       9912498 | 2017-02-08 13:48:37.24488+01

 2017-02-08 14:38:08.614301+01 | 1486561088.6143 |                 0 |              10 |                  7090 |                  400 |             968341 |       1388240 |            13762 |        11003698 |                     0 |       9916095 | 2017-02-08 13:48:37.24488+01

 2017-02-08 14:38:09.658645+01 | 1486561089.65864 |                 0 |              10 |                  7090 |                  400 |             968341 |       1388640 |            13766 |        11003698 |                     0 |       9919111 | 2017-02-08 13:48:37.24488+01

 2017-02-08 14:38:10.718635+01 | 1486561090.71864 |                 0 |              10 |                  7090 |                  400 |             968341 |       1389340 |            13773 |        11003698 |                     0 |       9924035 | 2017-02-08 13:48:37.24488+01

 2017-02-08 14:38:11.772907+01 | 1486561091.77291 |                 0 |              10 |                  7090 |                  400 |             968341 |       1389840 |            13778 |        11003698 |                     0 |       9927647 | 2017-02-08 13:48:37.24488+01

 2017-02-08 14:38:12.83252+01 | 1486561092.83252 |                 0 |              10 |                  7090 |                  400 |             968341 |       1390340 |            13783 |        11003698 |                     0 |       9931056 | 2017-02-08 13:48:37.24488+01

 2017-02-08 14:38:13.909734+01 | 1486561093.90973 |                 0 |              10 |                  7090 |                  400 |             968341 |       1390840 |            13788 |        11003698 |                     0 |       9934519 | 2017-02-08 13:48:37.24488+01

 2017-02-08 14:38:14.967818+01 | 1486561094.96782 |                 0 |              10 |                  7090 |                  400 |             968341 |       1391440 |            13794 |        11003698 |                     0 |       9938512 | 2017-02-08 13:48:37.24488+01

 2017-02-08 14:38:16.020342+01 | 1486561096.02034 |                 0 |              10 |                  7090 |                  400 |             968341 |       1391940 |            13799 |        11003698 |                     0 |       9942016 | 2017-02-08 13:48:37.24488+01

 2017-02-08 14:38:17.079982+01 | 1486561097.07998 |                 0 |              10 |                  7090 |                  400 |             968341 |       1392440 |            13804 |        11003698 |                     0 |       9945395 | 2017-02-08 13:48:37.24488+01

 2017-02-08 14:38:18.128883+01 | 1486561098.12888 |                 0 |              10 |                  7090 |                  400 |             968341 |       1392840 |            13808 |        11003698 |                     0 |       9948084 | 2017-02-08 13:48:37.24488+01

 2017-02-08 14:38:19.185146+01 | 1486561099.18515 |                 0 |              10 |                  7090 |                  400 |             968341 |       1393540 |            13815 |        11003698 |                     0 |       9952982 | 2017-02-08 13:48:37.24488+01

 2017-02-08 14:38:20.243847+01 | 1486561100.24385 |                 0 |              10 |                  7090 |                  400 |             968341 |       1394040 |            13820 |        11003698 |                     0 |       9956338 | 2017-02-08 13:48:37.24488+01

 2017-02-08 14:38:21.303961+01 | 1486561101.30396 |                 0 |              10 |                  7090 |                  400 |             968341 |       1394540 |            13825 |        11003698 |                     0 |       9959799 | 2017-02-08 13:48:37.24488+01

 2017-02-08 14:38:22.357389+01 | 1486561102.35739 |                 0 |              10 |                  7090 |                  400 |             968341 |       1395040 |            13830 |        11003698 |                     0 |       9962976 | 2017-02-08 13:48:37.24488+01

 2017-02-08 14:38:23.417363+01 | 1486561103.41736 |                 0 |              10 |                  7090 |                  400 |             968341 |       1395640 |            13836 |        11003698 |                     0 |       9967281 | 2017-02-08 13:48:37.24488+01

 2017-02-08 14:38:24.470936+01 | 1486561104.47094 |                 0 |              10 |                  7090 |                  400 |             968341 |       1396140 |            13841 |        11003698 |                     0 |       9970803 | 2017-02-08 13:48:37.24488+01

 2017-02-08 14:38:25.535484+01 | 1486561105.53548 |                 0 |              10 |                  7090 |                  400 |             968341 |       1396640 |            13846 |        11060734 |                     0 |       9974206 | 2017-02-08 13:48:37.24488+01

 2017-02-08 14:38:26.593155+01 | 1486561106.59315 |                 0 |              10 |                  7090 |                  400 |             968341 |       1397140 |            13851 |        11060734 |                     0 |       9977830 | 2017-02-08 13:48:37.24488+01

 2017-02-08 14:38:27.655919+01 | 1486561107.65592 |                 0 |              10 |                  7090 |                  400 |             968341 |       1397740 |            13857 |        11060734 |                     0 |       9982208 | 2017-02-08 13:48:37.24488+01

 2017-02-08 14:38:28.711168+01 | 1486561108.71117 |                 0 |              10 |                  7090 |                  400 |             968341 |       1398240 |            13862 |        11060734 |                     0 |       9985631 | 2017-02-08 13:48:37.24488+01

 2017-02-08 14:38:29.764158+01 | 1486561109.76416 |                 0 |              10 |                  7090 |                  400 |             968341 |       1398740 |            13867 |        11060734 |                     0 |       9989275 | 2017-02-08 13:48:37.24488+01

 2017-02-08 14:38:30.820617+01 | 1486561110.82062 |                 0 |              10 |                  7090 |                  400 |             968341 |       1399240 |            13872 |        11060734 |                     0 |       9992898 | 2017-02-08 13:48:37.24488+01

 2017-02-08 14:38:31.874782+01 | 1486561111.87478 |                 0 |              10 |                  7090 |                  400 |             968341 |       1399840 |            13878 |        11060734 |                     0 |       9996986 | 2017-02-08 13:48:37.24488+01

 2017-02-08 14:38:32.929202+01 | 1486561112.9292 |                 0 |              10 |                  7090 |                  400 |             968341 |       1400340 |            13883 |        11060734 |                     0 |      10000695 | 2017-02-08 13:48:37.24488+01

 2017-02-08 14:38:33.985587+01 | 1486561113.98559 |                 0 |              10 |                  7090 |                  400 |             968341 |       1400840 |            13888 |        11060734 |                     0 |      10004160 | 2017-02-08 13:48:37.24488+01

 2017-02-08 14:38:35.04521+01 | 1486561115.04521 |                 0 |              10 |                  7090 |                  400 |             968341 |       1401340 |            13893 |        11060734 |                     0 |      10007646 | 2017-02-08 13:48:37.24488+01

 2017-02-08 14:38:36.104533+01 | 1486561116.10453 |                 0 |              10 |                  7090 |                  400 |             968341 |       1401940 |            13899 |        11060734 |                     0 |      10011889 | 2017-02-08 13:48:37.24488+01

 2017-02-08 14:38:37.161107+01 | 1486561117.16111 |                 0 |              10 |                  7090 |                  400 |             968341 |       1402440 |            13904 |        11060734 |                     0 |      10015303 | 2017-02-08 13:48:37.24488+01

 2017-02-08 14:38:38.214285+01 | 1486561118.21428 |                 0 |              10 |                  7090 |                  400 |             968341 |       1402940 |            13909 |        11060734 |                     0 |      10018906 | 2017-02-08 13:48:37.24488+01

 2017-02-08 14:38:39.270714+01 | 1486561119.27071 |                 0 |              10 |                  7090 |                  400 |             968341 |       1403440 |            13914 |        11060734 |                     0 |      10022510 | 2017-02-08 13:48:37.24488+01

 2017-02-08 14:38:40.327013+01 | 1486561120.32701 |                 0 |              10 |                  7090 |                  400 |             968341 |       1404040 |            13920 |        11060734 |                     0 |      10026610 | 2017-02-08 13:48:37.24488+01

 2017-02-08 14:38:41.386822+01 | 1486561121.38682 |                 0 |              10 |                  7090 |                  400 |             968341 |       1404540 |            13925 |        11060734 |                     0 |      10030214 | 2017-02-08 13:48:37.24488+01

 2017-02-08 14:38:42.453735+01 | 1486561122.45374 |                 0 |              10 |                  7090 |                  400 |             968341 |       1405040 |            13930 |        11060734 |                     0 |      10033813 | 2017-02-08 13:48:37.24488+01

 2017-02-08 14:38:43.512916+01 | 1486561123.51292 |                 0 |              10 |                  7090 |                  400 |             968341 |       1405640 |            13936 |        11060734 |                     0 |      10037910 | 2017-02-08 13:48:37.24488+01

 2017-02-08 14:38:44.564343+01 | 1486561124.56434 |                 0 |              10 |                  7090 |                  400 |             968341 |       1406140 |            13941 |        11060734 |                     0 |      10041577 | 2017-02-08 13:48:37.24488+01

 2017-02-08 14:38:45.626596+01 | 1486561125.6266 |                 0 |              10 |                  7090 |                  400 |             968341 |       1406640 |            13946 |        11116070 |                     0 |      10045167 | 2017-02-08 13:48:37.24488+01

 2017-02-08 14:38:46.683288+01 | 1486561126.68329 |                 0 |              10 |                  7090 |                  400 |             968341 |       1407140 |            13951 |        11116070 |                     0 |      10048534 | 2017-02-08 13:48:37.24488+01

 2017-02-08 14:38:47.740645+01 | 1486561127.74064 |                 0 |              10 |                  7090 |                  400 |             968341 |       1407740 |            13957 |        11116070 |                     0 |      10052815 | 2017-02-08 13:48:37.24488+01

 2017-02-08 14:38:48.800359+01 | 1486561128.80036 |                 0 |              10 |                  7090 |                  400 |             968341 |       1408240 |            13962 |        11116070 |                     0 |      10056416 | 2017-02-08 13:48:37.24488+01

 2017-02-08 14:38:49.862324+01 | 1486561129.86232 |                 0 |              10 |                  7090 |                  400 |             968341 |       1408740 |            13967 |        11116070 |                     0 |      10059915 | 2017-02-08 13:48:37.24488+01

 2017-02-08 14:38:50.924334+01 | 1486561130.92433 |                 0 |              10 |                  7090 |                  400 |             968341 |       1409240 |            13972 |        11116070 |                     0 |      10063483 | 2017-02-08 13:48:37.24488+01

 2017-02-08 14:38:51.983352+01 | 1486561131.98335 |                 0 |              10 |                  7090 |                  400 |             968341 |       1409840 |            13978 |        11116070 |                     0 |      10067807 | 2017-02-08 13:48:37.24488+01

 2017-02-08 14:38:53.043062+01 | 1486561133.04306 |                 0 |              10 |                  7090 |                  400 |             968341 |       1410340 |            13983 |        11116070 |                     0 |      10071211 | 2017-02-08 13:48:37.24488+01

 2017-02-08 14:38:54.099908+01 | 1486561134.09991 |                 0 |              10 |                  7090 |                  400 |             968341 |       1410840 |            13988 |        11116070 |                     0 |      10074791 | 2017-02-08 13:48:37.24488+01

 2017-02-08 14:38:55.151577+01 | 1486561135.15158 |                 0 |              10 |                  7090 |                  400 |             968341 |       1411340 |            13993 |        11116070 |                     0 |      10078457 | 2017-02-08 13:48:37.24488+01

 2017-02-08 14:38:56.20414+01 | 1486561136.20414 |                 0 |              10 |                  7090 |                  400 |             968341 |       1411940 |            13999 |        11116070 |                     0 |      10082699 | 2017-02-08 13:48:37.24488+01

 2017-02-08 14:38:57.257113+01 | 1486561137.25711 |                 0 |              10 |                  7090 |                  400 |             968341 |       1412440 |            14004 |        11116070 |                     0 |      10086425 | 2017-02-08 13:48:37.24488+01

 2017-02-08 14:38:58.313569+01 | 1486561138.31357 |                 0 |              10 |                  7090 |                  400 |             968341 |       1412940 |            14009 |        11116070 |                     0 |      10089851 | 2017-02-08 13:48:37.24488+01

 2017-02-08 14:38:59.376218+01 | 1486561139.37622 |                 0 |              10 |                  7090 |                  400 |             968341 |       1413440 |            14014 |        11116070 |                     0 |      10093528 | 2017-02-08 13:48:37.24488+01

 2017-02-08 14:39:00.431265+01 | 1486561140.43127 |                 0 |              10 |                  7090 |                  400 |             968341 |       1414040 |            14020 |        11116070 |                     0 |      10097996 | 2017-02-08 13:48:37.24488+01

 2017-02-08 14:39:01.493317+01 | 1486561141.49332 |                 0 |              10 |                  7090 |                  400 |             968341 |       1414540 |            14025 |        11116070 |                     0 |      10101383 | 2017-02-08 13:48:37.24488+01

 2017-02-08 14:39:02.551089+01 | 1486561142.55109 |                 0 |              10 |                  7090 |                  400 |             968341 |       1415040 |            14030 |        11116070 |                     0 |      10104988 | 2017-02-08 13:48:37.24488+01

 2017-02-08 14:39:03.602528+01 | 1486561143.60253 |                 0 |              10 |                  7090 |                  400 |             968341 |       1415540 |            14035 |        11116070 |                     0 |      10108565 | 2017-02-08 13:48:37.24488+01

 2017-02-08 14:39:04.664193+01 | 1486561144.66419 |                 0 |              10 |                  7090 |                  400 |             968341 |       1416140 |            14041 |        11116070 |                     0 |      10112766 | 2017-02-08 13:48:37.24488+01

 2017-02-08 14:39:05.730557+01 | 1486561145.73056 |                 0 |              10 |                  7090 |                  400 |             968341 |       1416640 |            14046 |        11171506 |                     0 |      10116329 | 2017-02-08 13:48:37.24488+01

 2017-02-08 14:39:06.787262+01 | 1486561146.78726 |                 0 |              10 |                  7090 |                  400 |             968341 |       1417140 |            14051 |        11171506 |                     0 |      10119936 | 2017-02-08 13:48:37.24488+01

 2017-02-08 14:39:07.846227+01 | 1486561147.84623 |                 0 |              10 |                  7090 |                  400 |             968341 |       1417740 |            14057 |        11171506 |                     0 |      10124063 | 2017-02-08 13:48:37.24488+01

 2017-02-08 14:39:08.893228+01 | 1486561148.89323 |                 0 |              10 |                  7090 |                  400 |             968341 |       1418140 |            14061 |        11171506 |                     0 |      10127059 | 2017-02-08 13:48:37.24488+01

 2017-02-08 14:39:09.94207+01 | 1486561149.94207 |                 0 |              10 |                  7090 |                  400 |             968341 |       1418740 |            14067 |        11171506 |                     0 |      10131219 | 2017-02-08 13:48:37.24488+01

 2017-02-08 14:39:11.001365+01 | 1486561151.00136 |                 0 |              10 |                  7090 |                  400 |             968341 |       1419240 |            14072 |        11171506 |                     0 |      10134583 | 2017-02-08 13:48:37.24488+01

 2017-02-08 14:39:12.055469+01 | 1486561152.05547 |                 0 |              10 |                  7090 |                  400 |             968341 |       1419840 |            14078 |        11171506 |                     0 |      10138813 | 2017-02-08 13:48:37.24488+01

 2017-02-08 14:39:13.115866+01 | 1486561153.11587 |                 0 |              10 |                  7090 |                  400 |             968341 |       1420340 |            14083 |        11171506 |                     0 |      10142228 | 2017-02-08 13:48:37.24488+01

 2017-02-08 14:39:14.177644+01 | 1486561154.17764 |                 0 |              10 |                  7090 |                  400 |             968341 |       1420840 |            14088 |        11171506 |                     0 |      10145769 | 2017-02-08 13:48:37.24488+01

 2017-02-08 14:39:15.230138+01 | 1486561155.23014 |                 0 |              10 |                  7090 |                  400 |             968341 |       1421340 |            14093 |        11171506 |                     0 |      10149013 | 2017-02-08 13:48:37.24488+01

 2017-02-08 14:39:16.2898+01 | 1486561156.2898 |                 0 |              10 |                  7090 |                  400 |             968341 |       1421940 |            14099 |        11171506 |                     0 |      10153117 | 2017-02-08 13:48:37.24488+01

 2017-02-08 14:39:17.349216+01 | 1486561157.34922 |                 0 |              10 |                  7090 |                  400 |             968341 |       1422440 |            14104 |        11171506 |                     0 |      10156387 | 2017-02-08 13:48:37.24488+01

 2017-02-08 14:39:18.408624+01 | 1486561158.40862 |                 0 |              10 |                  7090 |                  400 |             968341 |       1422940 |            14109 |        11171506 |                     0 |      10159772 | 2017-02-08 13:48:37.24488+01

 2017-02-08 14:39:19.468877+01 | 1486561159.46888 |                 0 |              10 |                  7090 |                  400 |             968341 |       1423440 |            14114 |        11171506 |                     0 |      10162870 | 2017-02-08 13:48:37.24488+01

 2017-02-08 14:39:20.527458+01 | 1486561160.52746 |                 0 |              10 |                  7090 |                  400 |             968341 |       1424040 |            14120 |        11171506 |                     0 |      10166885 | 2017-02-08 13:48:37.24488+01

 2017-02-08 14:39:21.584662+01 | 1486561161.58466 |                 0 |              10 |                  7090 |                  400 |             968341 |       1424540 |            14125 |        11171506 |                     0 |      10170057 | 2017-02-08 13:48:37.24488+01

 2017-02-08 14:39:22.63971+01 | 1486561162.63971 |                 0 |              10 |                  7090 |                  400 |             968341 |       1425040 |            14130 |        11228942 |                     0 |      10173512 | 2017-02-08 13:48:37.24488+01

 2017-02-08 14:39:23.696829+01 | 1486561163.69683 |                 0 |              10 |                  7090 |                  400 |             968341 |       1425540 |            14135 |        11228942 |                     0 |      10176655 | 2017-02-08 13:48:37.24488+01

 2017-02-08 14:39:24.761882+01 | 1486561164.76188 |                 0 |              10 |                  7090 |                  400 |             968341 |       1426140 |            14141 |        11228942 |                     0 |      10180710 | 2017-02-08 13:48:37.24488+01

 2017-02-08 14:39:25.819091+01 | 1486561165.81909 |                 0 |              10 |                  7090 |                  400 |             968341 |       1426640 |            14146 |        11228942 |                     0 |      10183899 | 2017-02-08 13:48:37.24488+01

 2017-02-08 14:39:26.877085+01 | 1486561166.87708 |                 0 |              10 |                  7090 |                  400 |             968341 |       1427140 |            14151 |        11228942 |                     0 |      10187386 | 2017-02-08 13:48:37.24488+01

 2017-02-08 14:39:27.93923+01 | 1486561167.93923 |                 0 |              10 |                  7090 |                  400 |             968341 |       1427640 |            14156 |        11228942 |                     0 |      10190667 | 2017-02-08 13:48:37.24488+01

 2017-02-08 14:39:28.99702+01 | 1486561168.99702 |                 0 |              10 |                  7090 |                  400 |             968341 |       1428240 |            14162 |        11228942 |                     0 |      10194786 | 2017-02-08 13:48:37.24488+01

 2017-02-08 14:39:30.050225+01 | 1486561170.05023 |                 0 |              10 |                  7090 |                  400 |             968341 |       1428740 |            14167 |        11228942 |                     0 |      10198169 | 2017-02-08 13:48:37.24488+01

 2017-02-08 14:39:31.108616+01 | 1486561171.10862 |                 0 |              10 |                  7090 |                  400 |             968341 |       1429240 |            14172 |        11228942 |                     0 |      10201735 | 2017-02-08 13:48:37.24488+01

 2017-02-08 14:39:32.171926+01 | 1486561172.17193 |                 0 |              10 |                  7090 |                  400 |             968341 |       1429740 |            14177 |        11228942 |                     0 |      10205159 | 2017-02-08 13:48:37.24488+01

 2017-02-08 14:39:33.230733+01 | 1486561173.23073 |                 0 |              10 |                  7090 |                  400 |             968341 |       1430340 |            14183 |        11228942 |                     0 |      10209389 | 2017-02-08 13:48:37.24488+01

 2017-02-08 14:39:34.285731+01 | 1486561174.28573 |                 0 |              10 |                  7090 |                  400 |             968341 |       1430840 |            14188 |        11228942 |                     0 |      10212726 | 2017-02-08 13:48:37.24488+01

 2017-02-08 14:39:35.348406+01 | 1486561175.34841 |                 0 |              10 |                  7090 |                  400 |             968341 |       1431340 |            14193 |        11228942 |                     0 |      10216290 | 2017-02-08 13:48:37.24488+01

 2017-02-08 14:39:36.406151+01 | 1486561176.40615 |                 0 |              10 |                  7090 |                  400 |             968341 |       1431840 |            14198 |        11287278 |                     0 |      10219624 | 2017-02-08 13:48:37.24488+01

 2017-02-08 14:39:37.464852+01 | 1486561177.46485 |                 0 |              10 |                  7090 |                  400 |             968341 |       1432440 |            14204 |        11287278 |                     0 |      10223722 | 2017-02-08 13:48:37.24488+01

