 2017-02-09 06:26:12.986557+01 | 1486617972.98656 | pgbench_branches_pkey |            16384
 2017-02-09 06:26:12.986557+01 | 1486617972.98656 | pgbench_tellers_pkey  |            65536
 2017-02-09 06:26:12.986557+01 | 1486617972.98656 | pgbench_accounts_pkey |        112336896

 2017-02-09 06:26:14.117438+01 | 1486617974.11744 | pgbench_branches_pkey |            16384
 2017-02-09 06:26:14.117438+01 | 1486617974.11744 | pgbench_tellers_pkey  |            65536
 2017-02-09 06:26:14.117438+01 | 1486617974.11744 | pgbench_accounts_pkey |        112336896

 2017-02-09 06:26:15.198816+01 | 1486617975.19882 | pgbench_branches_pkey |            16384
 2017-02-09 06:26:15.198816+01 | 1486617975.19882 | pgbench_tellers_pkey  |            65536
 2017-02-09 06:26:15.198816+01 | 1486617975.19882 | pgbench_accounts_pkey |        112336896

 2017-02-09 06:26:16.331611+01 | 1486617976.33161 | pgbench_branches_pkey |            16384
 2017-02-09 06:26:16.331611+01 | 1486617976.33161 | pgbench_tellers_pkey  |            65536
 2017-02-09 06:26:16.331611+01 | 1486617976.33161 | pgbench_accounts_pkey |        112336896

 2017-02-09 06:26:17.488007+01 | 1486617977.48801 | pgbench_branches_pkey |            16384
 2017-02-09 06:26:17.488007+01 | 1486617977.48801 | pgbench_tellers_pkey  |            65536
 2017-02-09 06:26:17.488007+01 | 1486617977.48801 | pgbench_accounts_pkey |        112336896

 2017-02-09 06:26:18.569138+01 | 1486617978.56914 | pgbench_branches_pkey |            16384
 2017-02-09 06:26:18.569138+01 | 1486617978.56914 | pgbench_tellers_pkey  |            65536
 2017-02-09 06:26:18.569138+01 | 1486617978.56914 | pgbench_accounts_pkey |        112336896

 2017-02-09 06:26:19.657288+01 | 1486617979.65729 | pgbench_branches_pkey |            16384
 2017-02-09 06:26:19.657288+01 | 1486617979.65729 | pgbench_tellers_pkey  |            65536
 2017-02-09 06:26:19.657288+01 | 1486617979.65729 | pgbench_accounts_pkey |        112336896

 2017-02-09 06:26:20.771145+01 | 1486617980.77115 | pgbench_branches_pkey |            16384
 2017-02-09 06:26:20.771145+01 | 1486617980.77115 | pgbench_tellers_pkey  |            65536
 2017-02-09 06:26:20.771145+01 | 1486617980.77115 | pgbench_accounts_pkey |        112336896

 2017-02-09 06:26:21.901125+01 | 1486617981.90112 | pgbench_branches_pkey |            16384
 2017-02-09 06:26:21.901125+01 | 1486617981.90112 | pgbench_tellers_pkey  |            65536
 2017-02-09 06:26:21.901125+01 | 1486617981.90112 | pgbench_accounts_pkey |        112336896

 2017-02-09 06:26:23.060182+01 | 1486617983.06018 | pgbench_branches_pkey |            16384
 2017-02-09 06:26:23.060182+01 | 1486617983.06018 | pgbench_tellers_pkey  |            65536
 2017-02-09 06:26:23.060182+01 | 1486617983.06018 | pgbench_accounts_pkey |        112336896

 2017-02-09 06:26:24.160069+01 | 1486617984.16007 | pgbench_branches_pkey |            16384
 2017-02-09 06:26:24.160069+01 | 1486617984.16007 | pgbench_tellers_pkey  |            65536
 2017-02-09 06:26:24.160069+01 | 1486617984.16007 | pgbench_accounts_pkey |        112336896

 2017-02-09 06:26:25.316379+01 | 1486617985.31638 | pgbench_branches_pkey |            16384
 2017-02-09 06:26:25.316379+01 | 1486617985.31638 | pgbench_tellers_pkey  |            65536
 2017-02-09 06:26:25.316379+01 | 1486617985.31638 | pgbench_accounts_pkey |        112336896

 2017-02-09 06:26:26.434824+01 | 1486617986.43482 | pgbench_branches_pkey |            16384
 2017-02-09 06:26:26.434824+01 | 1486617986.43482 | pgbench_tellers_pkey  |            65536
 2017-02-09 06:26:26.434824+01 | 1486617986.43482 | pgbench_accounts_pkey |        112336896

 2017-02-09 06:26:27.599818+01 | 1486617987.59982 | pgbench_branches_pkey |            16384
 2017-02-09 06:26:27.599818+01 | 1486617987.59982 | pgbench_tellers_pkey  |            65536
 2017-02-09 06:26:27.599818+01 | 1486617987.59982 | pgbench_accounts_pkey |        112336896

 2017-02-09 06:26:28.707549+01 | 1486617988.70755 | pgbench_branches_pkey |            16384
 2017-02-09 06:26:28.707549+01 | 1486617988.70755 | pgbench_tellers_pkey  |            65536
 2017-02-09 06:26:28.707549+01 | 1486617988.70755 | pgbench_accounts_pkey |        112336896

 2017-02-09 06:26:29.8182+01 | 1486617989.8182 | pgbench_branches_pkey |            16384
 2017-02-09 06:26:29.8182+01 | 1486617989.8182 | pgbench_tellers_pkey  |            65536
 2017-02-09 06:26:29.8182+01 | 1486617989.8182 | pgbench_accounts_pkey |        112336896

 2017-02-09 06:26:30.900799+01 | 1486617990.9008 | pgbench_branches_pkey |            16384
 2017-02-09 06:26:30.900799+01 | 1486617990.9008 | pgbench_tellers_pkey  |            65536
 2017-02-09 06:26:30.900799+01 | 1486617990.9008 | pgbench_accounts_pkey |        112336896

 2017-02-09 06:26:32.008177+01 | 1486617992.00818 | pgbench_branches_pkey |            16384
 2017-02-09 06:26:32.008177+01 | 1486617992.00818 | pgbench_tellers_pkey  |            65536
 2017-02-09 06:26:32.008177+01 | 1486617992.00818 | pgbench_accounts_pkey |        112336896

 2017-02-09 06:26:33.213119+01 | 1486617993.21312 | pgbench_branches_pkey |            16384
 2017-02-09 06:26:33.213119+01 | 1486617993.21312 | pgbench_tellers_pkey  |            65536
 2017-02-09 06:26:33.213119+01 | 1486617993.21312 | pgbench_accounts_pkey |        112336896

 2017-02-09 06:26:34.336381+01 | 1486617994.33638 | pgbench_branches_pkey |            16384
 2017-02-09 06:26:34.336381+01 | 1486617994.33638 | pgbench_tellers_pkey  |            65536
 2017-02-09 06:26:34.336381+01 | 1486617994.33638 | pgbench_accounts_pkey |        112336896

 2017-02-09 06:26:35.484914+01 | 1486617995.48491 | pgbench_branches_pkey |            16384
 2017-02-09 06:26:35.484914+01 | 1486617995.48491 | pgbench_tellers_pkey  |            65536
 2017-02-09 06:26:35.484914+01 | 1486617995.48491 | pgbench_accounts_pkey |        112336896

 2017-02-09 06:26:36.664118+01 | 1486617996.66412 | pgbench_branches_pkey |            16384
 2017-02-09 06:26:36.664118+01 | 1486617996.66412 | pgbench_tellers_pkey  |            65536
 2017-02-09 06:26:36.664118+01 | 1486617996.66412 | pgbench_accounts_pkey |        112336896

 2017-02-09 06:26:37.83282+01 | 1486617997.83282 | pgbench_branches_pkey |            16384
 2017-02-09 06:26:37.83282+01 | 1486617997.83282 | pgbench_tellers_pkey  |            65536
 2017-02-09 06:26:37.83282+01 | 1486617997.83282 | pgbench_accounts_pkey |        112336896

 2017-02-09 06:26:38.984374+01 | 1486617998.98437 | pgbench_branches_pkey |            16384
 2017-02-09 06:26:38.984374+01 | 1486617998.98437 | pgbench_tellers_pkey  |            65536
 2017-02-09 06:26:38.984374+01 | 1486617998.98437 | pgbench_accounts_pkey |        112336896

 2017-02-09 06:26:40.095311+01 | 1486618000.09531 | pgbench_branches_pkey |            16384
 2017-02-09 06:26:40.095311+01 | 1486618000.09531 | pgbench_tellers_pkey  |            65536
 2017-02-09 06:26:40.095311+01 | 1486618000.09531 | pgbench_accounts_pkey |        112336896

 2017-02-09 06:26:41.245215+01 | 1486618001.24521 | pgbench_branches_pkey |            16384
 2017-02-09 06:26:41.245215+01 | 1486618001.24521 | pgbench_tellers_pkey  |            65536
 2017-02-09 06:26:41.245215+01 | 1486618001.24521 | pgbench_accounts_pkey |        112336896

 2017-02-09 06:26:42.403765+01 | 1486618002.40376 | pgbench_branches_pkey |            16384
 2017-02-09 06:26:42.403765+01 | 1486618002.40376 | pgbench_tellers_pkey  |            65536
 2017-02-09 06:26:42.403765+01 | 1486618002.40376 | pgbench_accounts_pkey |        112336896

 2017-02-09 06:26:43.541706+01 | 1486618003.54171 | pgbench_branches_pkey |            16384
 2017-02-09 06:26:43.541706+01 | 1486618003.54171 | pgbench_tellers_pkey  |            65536
 2017-02-09 06:26:43.541706+01 | 1486618003.54171 | pgbench_accounts_pkey |        112336896

 2017-02-09 06:26:44.735916+01 | 1486618004.73592 | pgbench_branches_pkey |            16384
 2017-02-09 06:26:44.735916+01 | 1486618004.73592 | pgbench_tellers_pkey  |            65536
 2017-02-09 06:26:44.735916+01 | 1486618004.73592 | pgbench_accounts_pkey |        112336896

 2017-02-09 06:26:45.901602+01 | 1486618005.9016 | pgbench_branches_pkey |            16384
 2017-02-09 06:26:45.901602+01 | 1486618005.9016 | pgbench_tellers_pkey  |            65536
 2017-02-09 06:26:45.901602+01 | 1486618005.9016 | pgbench_accounts_pkey |        112336896

 2017-02-09 06:26:47.018926+01 | 1486618007.01893 | pgbench_branches_pkey |            16384
 2017-02-09 06:26:47.018926+01 | 1486618007.01893 | pgbench_tellers_pkey  |            65536
 2017-02-09 06:26:47.018926+01 | 1486618007.01893 | pgbench_accounts_pkey |        112336896

 2017-02-09 06:26:48.126263+01 | 1486618008.12626 | pgbench_branches_pkey |            16384
 2017-02-09 06:26:48.126263+01 | 1486618008.12626 | pgbench_tellers_pkey  |            65536
 2017-02-09 06:26:48.126263+01 | 1486618008.12626 | pgbench_accounts_pkey |        112336896

 2017-02-09 06:26:49.289101+01 | 1486618009.2891 | pgbench_branches_pkey |            16384
 2017-02-09 06:26:49.289101+01 | 1486618009.2891 | pgbench_tellers_pkey  |            65536
 2017-02-09 06:26:49.289101+01 | 1486618009.2891 | pgbench_accounts_pkey |        112336896

 2017-02-09 06:26:50.456887+01 | 1486618010.45689 | pgbench_branches_pkey |            16384
 2017-02-09 06:26:50.456887+01 | 1486618010.45689 | pgbench_tellers_pkey  |            65536
 2017-02-09 06:26:50.456887+01 | 1486618010.45689 | pgbench_accounts_pkey |        112336896

 2017-02-09 06:26:51.546469+01 | 1486618011.54647 | pgbench_branches_pkey |            16384
 2017-02-09 06:26:51.546469+01 | 1486618011.54647 | pgbench_tellers_pkey  |            65536
 2017-02-09 06:26:51.546469+01 | 1486618011.54647 | pgbench_accounts_pkey |        112336896

 2017-02-09 06:26:52.702016+01 | 1486618012.70202 | pgbench_branches_pkey |            16384
 2017-02-09 06:26:52.702016+01 | 1486618012.70202 | pgbench_tellers_pkey  |            65536
 2017-02-09 06:26:52.702016+01 | 1486618012.70202 | pgbench_accounts_pkey |        112336896

 2017-02-09 06:26:53.873934+01 | 1486618013.87393 | pgbench_branches_pkey |            16384
 2017-02-09 06:26:53.873934+01 | 1486618013.87393 | pgbench_tellers_pkey  |            65536
 2017-02-09 06:26:53.873934+01 | 1486618013.87393 | pgbench_accounts_pkey |        112336896

 2017-02-09 06:26:55.05544+01 | 1486618015.05544 | pgbench_branches_pkey |            16384
 2017-02-09 06:26:55.05544+01 | 1486618015.05544 | pgbench_tellers_pkey  |            65536
 2017-02-09 06:26:55.05544+01 | 1486618015.05544 | pgbench_accounts_pkey |        112336896

 2017-02-09 06:26:56.212477+01 | 1486618016.21248 | pgbench_branches_pkey |            16384
 2017-02-09 06:26:56.212477+01 | 1486618016.21248 | pgbench_tellers_pkey  |            65536
 2017-02-09 06:26:56.212477+01 | 1486618016.21248 | pgbench_accounts_pkey |        112336896

 2017-02-09 06:26:57.34671+01 | 1486618017.34671 | pgbench_branches_pkey |            16384
 2017-02-09 06:26:57.34671+01 | 1486618017.34671 | pgbench_tellers_pkey  |            65536
 2017-02-09 06:26:57.34671+01 | 1486618017.34671 | pgbench_accounts_pkey |        112336896

 2017-02-09 06:26:58.471699+01 | 1486618018.4717 | pgbench_branches_pkey |            16384
 2017-02-09 06:26:58.471699+01 | 1486618018.4717 | pgbench_tellers_pkey  |            65536
 2017-02-09 06:26:58.471699+01 | 1486618018.4717 | pgbench_accounts_pkey |        112336896

 2017-02-09 06:26:59.560877+01 | 1486618019.56088 | pgbench_branches_pkey |            16384
 2017-02-09 06:26:59.560877+01 | 1486618019.56088 | pgbench_tellers_pkey  |            65536
 2017-02-09 06:26:59.560877+01 | 1486618019.56088 | pgbench_accounts_pkey |        112336896

 2017-02-09 06:27:00.745524+01 | 1486618020.74552 | pgbench_branches_pkey |            16384
 2017-02-09 06:27:00.745524+01 | 1486618020.74552 | pgbench_tellers_pkey  |            65536
 2017-02-09 06:27:00.745524+01 | 1486618020.74552 | pgbench_accounts_pkey |        112336896

 2017-02-09 06:27:01.904941+01 | 1486618021.90494 | pgbench_branches_pkey |            16384
 2017-02-09 06:27:01.904941+01 | 1486618021.90494 | pgbench_tellers_pkey  |            65536
 2017-02-09 06:27:01.904941+01 | 1486618021.90494 | pgbench_accounts_pkey |        112336896

 2017-02-09 06:27:03.051993+01 | 1486618023.05199 | pgbench_branches_pkey |            16384
 2017-02-09 06:27:03.051993+01 | 1486618023.05199 | pgbench_tellers_pkey  |            65536
 2017-02-09 06:27:03.051993+01 | 1486618023.05199 | pgbench_accounts_pkey |        112336896

 2017-02-09 06:27:04.20838+01 | 1486618024.20838 | pgbench_branches_pkey |            16384
 2017-02-09 06:27:04.20838+01 | 1486618024.20838 | pgbench_tellers_pkey  |            65536
 2017-02-09 06:27:04.20838+01 | 1486618024.20838 | pgbench_accounts_pkey |        112336896

 2017-02-09 06:27:05.347568+01 | 1486618025.34757 | pgbench_branches_pkey |            16384
 2017-02-09 06:27:05.347568+01 | 1486618025.34757 | pgbench_tellers_pkey  |            65536
 2017-02-09 06:27:05.347568+01 | 1486618025.34757 | pgbench_accounts_pkey |        112336896

 2017-02-09 06:27:06.486164+01 | 1486618026.48616 | pgbench_branches_pkey |            16384
 2017-02-09 06:27:06.486164+01 | 1486618026.48616 | pgbench_tellers_pkey  |            65536
 2017-02-09 06:27:06.486164+01 | 1486618026.48616 | pgbench_accounts_pkey |        112336896

 2017-02-09 06:27:07.595561+01 | 1486618027.59556 | pgbench_branches_pkey |            16384
 2017-02-09 06:27:07.595561+01 | 1486618027.59556 | pgbench_tellers_pkey  |            65536
 2017-02-09 06:27:07.595561+01 | 1486618027.59556 | pgbench_accounts_pkey |        112336896

 2017-02-09 06:27:08.714793+01 | 1486618028.71479 | pgbench_branches_pkey |            16384
 2017-02-09 06:27:08.714793+01 | 1486618028.71479 | pgbench_tellers_pkey  |            65536
 2017-02-09 06:27:08.714793+01 | 1486618028.71479 | pgbench_accounts_pkey |        112336896

 2017-02-09 06:27:09.862475+01 | 1486618029.86247 | pgbench_branches_pkey |            16384
 2017-02-09 06:27:09.862475+01 | 1486618029.86247 | pgbench_tellers_pkey  |            65536
 2017-02-09 06:27:09.862475+01 | 1486618029.86247 | pgbench_accounts_pkey |        112336896

 2017-02-09 06:27:11.063753+01 | 1486618031.06375 | pgbench_branches_pkey |            16384
 2017-02-09 06:27:11.063753+01 | 1486618031.06375 | pgbench_tellers_pkey  |            65536
 2017-02-09 06:27:11.063753+01 | 1486618031.06375 | pgbench_accounts_pkey |        112336896

 2017-02-09 06:27:12.227588+01 | 1486618032.22759 | pgbench_branches_pkey |            16384
 2017-02-09 06:27:12.227588+01 | 1486618032.22759 | pgbench_tellers_pkey  |            65536
 2017-02-09 06:27:12.227588+01 | 1486618032.22759 | pgbench_accounts_pkey |        112336896

 2017-02-09 06:27:13.362065+01 | 1486618033.36207 | pgbench_branches_pkey |            16384
 2017-02-09 06:27:13.362065+01 | 1486618033.36207 | pgbench_tellers_pkey  |            65536
 2017-02-09 06:27:13.362065+01 | 1486618033.36207 | pgbench_accounts_pkey |        112336896

 2017-02-09 06:27:14.548245+01 | 1486618034.54824 | pgbench_branches_pkey |            16384
 2017-02-09 06:27:14.548245+01 | 1486618034.54824 | pgbench_tellers_pkey  |            65536
 2017-02-09 06:27:14.548245+01 | 1486618034.54824 | pgbench_accounts_pkey |        112336896

 2017-02-09 06:27:15.660568+01 | 1486618035.66057 | pgbench_branches_pkey |            16384
 2017-02-09 06:27:15.660568+01 | 1486618035.66057 | pgbench_tellers_pkey  |            65536
 2017-02-09 06:27:15.660568+01 | 1486618035.66057 | pgbench_accounts_pkey |        112336896

 2017-02-09 06:27:16.804495+01 | 1486618036.8045 | pgbench_branches_pkey |            16384
 2017-02-09 06:27:16.804495+01 | 1486618036.8045 | pgbench_tellers_pkey  |            65536
 2017-02-09 06:27:16.804495+01 | 1486618036.8045 | pgbench_accounts_pkey |        112336896

 2017-02-09 06:27:17.960907+01 | 1486618037.96091 | pgbench_branches_pkey |            16384
 2017-02-09 06:27:17.960907+01 | 1486618037.96091 | pgbench_tellers_pkey  |            65536
 2017-02-09 06:27:17.960907+01 | 1486618037.96091 | pgbench_accounts_pkey |        112336896

 2017-02-09 06:27:19.069326+01 | 1486618039.06933 | pgbench_branches_pkey |            16384
 2017-02-09 06:27:19.069326+01 | 1486618039.06933 | pgbench_tellers_pkey  |            65536
 2017-02-09 06:27:19.069326+01 | 1486618039.06933 | pgbench_accounts_pkey |        112336896

 2017-02-09 06:27:20.213552+01 | 1486618040.21355 | pgbench_branches_pkey |            16384
 2017-02-09 06:27:20.213552+01 | 1486618040.21355 | pgbench_tellers_pkey  |            65536
 2017-02-09 06:27:20.213552+01 | 1486618040.21355 | pgbench_accounts_pkey |        112336896

 2017-02-09 06:27:21.341279+01 | 1486618041.34128 | pgbench_branches_pkey |            16384
 2017-02-09 06:27:21.341279+01 | 1486618041.34128 | pgbench_tellers_pkey  |            65536
 2017-02-09 06:27:21.341279+01 | 1486618041.34128 | pgbench_accounts_pkey |        112336896

 2017-02-09 06:27:22.469793+01 | 1486618042.46979 | pgbench_branches_pkey |            16384
 2017-02-09 06:27:22.469793+01 | 1486618042.46979 | pgbench_tellers_pkey  |            65536
 2017-02-09 06:27:22.469793+01 | 1486618042.46979 | pgbench_accounts_pkey |        112336896

 2017-02-09 06:27:23.594097+01 | 1486618043.5941 | pgbench_branches_pkey |            16384
 2017-02-09 06:27:23.594097+01 | 1486618043.5941 | pgbench_tellers_pkey  |            65536
 2017-02-09 06:27:23.594097+01 | 1486618043.5941 | pgbench_accounts_pkey |        112336896

 2017-02-09 06:27:24.734208+01 | 1486618044.73421 | pgbench_branches_pkey |            16384
 2017-02-09 06:27:24.734208+01 | 1486618044.73421 | pgbench_tellers_pkey  |            65536
 2017-02-09 06:27:24.734208+01 | 1486618044.73421 | pgbench_accounts_pkey |        112336896

 2017-02-09 06:27:25.930653+01 | 1486618045.93065 | pgbench_branches_pkey |            16384
 2017-02-09 06:27:25.930653+01 | 1486618045.93065 | pgbench_tellers_pkey  |            65536
 2017-02-09 06:27:25.930653+01 | 1486618045.93065 | pgbench_accounts_pkey |        112336896

 2017-02-09 06:27:27.078493+01 | 1486618047.07849 | pgbench_branches_pkey |            16384
 2017-02-09 06:27:27.078493+01 | 1486618047.07849 | pgbench_tellers_pkey  |            65536
 2017-02-09 06:27:27.078493+01 | 1486618047.07849 | pgbench_accounts_pkey |        112336896

 2017-02-09 06:27:28.19905+01 | 1486618048.19905 | pgbench_branches_pkey |            16384
 2017-02-09 06:27:28.19905+01 | 1486618048.19905 | pgbench_tellers_pkey  |            65536
 2017-02-09 06:27:28.19905+01 | 1486618048.19905 | pgbench_accounts_pkey |        112336896

 2017-02-09 06:27:29.382487+01 | 1486618049.38249 | pgbench_branches_pkey |            16384
 2017-02-09 06:27:29.382487+01 | 1486618049.38249 | pgbench_tellers_pkey  |            65536
 2017-02-09 06:27:29.382487+01 | 1486618049.38249 | pgbench_accounts_pkey |        112336896

 2017-02-09 06:27:30.565762+01 | 1486618050.56576 | pgbench_branches_pkey |            16384
 2017-02-09 06:27:30.565762+01 | 1486618050.56576 | pgbench_tellers_pkey  |            65536
 2017-02-09 06:27:30.565762+01 | 1486618050.56576 | pgbench_accounts_pkey |        112336896

 2017-02-09 06:27:31.693349+01 | 1486618051.69335 | pgbench_branches_pkey |            16384
 2017-02-09 06:27:31.693349+01 | 1486618051.69335 | pgbench_tellers_pkey  |            65536
 2017-02-09 06:27:31.693349+01 | 1486618051.69335 | pgbench_accounts_pkey |        112336896

 2017-02-09 06:27:32.805767+01 | 1486618052.80577 | pgbench_branches_pkey |            16384
 2017-02-09 06:27:32.805767+01 | 1486618052.80577 | pgbench_tellers_pkey  |            65536
 2017-02-09 06:27:32.805767+01 | 1486618052.80577 | pgbench_accounts_pkey |        112336896

 2017-02-09 06:27:33.946954+01 | 1486618053.94695 | pgbench_branches_pkey |            16384
 2017-02-09 06:27:33.946954+01 | 1486618053.94695 | pgbench_tellers_pkey  |            65536
 2017-02-09 06:27:33.946954+01 | 1486618053.94695 | pgbench_accounts_pkey |        112336896

 2017-02-09 06:27:35.105404+01 | 1486618055.1054 | pgbench_branches_pkey |            16384
 2017-02-09 06:27:35.105404+01 | 1486618055.1054 | pgbench_tellers_pkey  |            65536
 2017-02-09 06:27:35.105404+01 | 1486618055.1054 | pgbench_accounts_pkey |        112336896

 2017-02-09 06:27:36.226701+01 | 1486618056.2267 | pgbench_branches_pkey |            16384
 2017-02-09 06:27:36.226701+01 | 1486618056.2267 | pgbench_tellers_pkey  |            65536
 2017-02-09 06:27:36.226701+01 | 1486618056.2267 | pgbench_accounts_pkey |        112336896

 2017-02-09 06:27:37.4081+01 | 1486618057.4081 | pgbench_branches_pkey |            16384
 2017-02-09 06:27:37.4081+01 | 1486618057.4081 | pgbench_tellers_pkey  |            65536
 2017-02-09 06:27:37.4081+01 | 1486618057.4081 | pgbench_accounts_pkey |        112336896

 2017-02-09 06:27:38.576339+01 | 1486618058.57634 | pgbench_branches_pkey |            16384
 2017-02-09 06:27:38.576339+01 | 1486618058.57634 | pgbench_tellers_pkey  |            65536
 2017-02-09 06:27:38.576339+01 | 1486618058.57634 | pgbench_accounts_pkey |        112336896

 2017-02-09 06:27:39.778755+01 | 1486618059.77875 | pgbench_branches_pkey |            16384
 2017-02-09 06:27:39.778755+01 | 1486618059.77875 | pgbench_tellers_pkey  |            65536
 2017-02-09 06:27:39.778755+01 | 1486618059.77875 | pgbench_accounts_pkey |        112336896

 2017-02-09 06:27:40.93478+01 | 1486618060.93478 | pgbench_branches_pkey |            16384
 2017-02-09 06:27:40.93478+01 | 1486618060.93478 | pgbench_tellers_pkey  |            65536
 2017-02-09 06:27:40.93478+01 | 1486618060.93478 | pgbench_accounts_pkey |        112336896

 2017-02-09 06:27:42.040284+01 | 1486618062.04028 | pgbench_branches_pkey |            16384
 2017-02-09 06:27:42.040284+01 | 1486618062.04028 | pgbench_tellers_pkey  |            65536
 2017-02-09 06:27:42.040284+01 | 1486618062.04028 | pgbench_accounts_pkey |        112336896

 2017-02-09 06:27:43.147771+01 | 1486618063.14777 | pgbench_branches_pkey |            16384
 2017-02-09 06:27:43.147771+01 | 1486618063.14777 | pgbench_tellers_pkey  |            65536
 2017-02-09 06:27:43.147771+01 | 1486618063.14777 | pgbench_accounts_pkey |        112336896

 2017-02-09 06:27:44.29194+01 | 1486618064.29194 | pgbench_branches_pkey |            16384
 2017-02-09 06:27:44.29194+01 | 1486618064.29194 | pgbench_tellers_pkey  |            65536
 2017-02-09 06:27:44.29194+01 | 1486618064.29194 | pgbench_accounts_pkey |        112336896

 2017-02-09 06:27:45.409017+01 | 1486618065.40902 | pgbench_branches_pkey |            16384
 2017-02-09 06:27:45.409017+01 | 1486618065.40902 | pgbench_tellers_pkey  |            65536
 2017-02-09 06:27:45.409017+01 | 1486618065.40902 | pgbench_accounts_pkey |        112336896

 2017-02-09 06:27:46.513922+01 | 1486618066.51392 | pgbench_branches_pkey |            16384
 2017-02-09 06:27:46.513922+01 | 1486618066.51392 | pgbench_tellers_pkey  |            65536
 2017-02-09 06:27:46.513922+01 | 1486618066.51392 | pgbench_accounts_pkey |        112336896

 2017-02-09 06:27:47.618186+01 | 1486618067.61819 | pgbench_branches_pkey |            16384
 2017-02-09 06:27:47.618186+01 | 1486618067.61819 | pgbench_tellers_pkey  |            65536
 2017-02-09 06:27:47.618186+01 | 1486618067.61819 | pgbench_accounts_pkey |        112336896

 2017-02-09 06:27:48.71556+01 | 1486618068.71556 | pgbench_branches_pkey |            16384
 2017-02-09 06:27:48.71556+01 | 1486618068.71556 | pgbench_tellers_pkey  |            65536
 2017-02-09 06:27:48.71556+01 | 1486618068.71556 | pgbench_accounts_pkey |        112336896

 2017-02-09 06:27:49.908876+01 | 1486618069.90888 | pgbench_branches_pkey |            16384
 2017-02-09 06:27:49.908876+01 | 1486618069.90888 | pgbench_tellers_pkey  |            65536
 2017-02-09 06:27:49.908876+01 | 1486618069.90888 | pgbench_accounts_pkey |        112336896

 2017-02-09 06:27:51.093805+01 | 1486618071.09381 | pgbench_branches_pkey |            16384
 2017-02-09 06:27:51.093805+01 | 1486618071.09381 | pgbench_tellers_pkey  |            65536
 2017-02-09 06:27:51.093805+01 | 1486618071.09381 | pgbench_accounts_pkey |        112336896

 2017-02-09 06:27:52.185637+01 | 1486618072.18564 | pgbench_branches_pkey |            16384
 2017-02-09 06:27:52.185637+01 | 1486618072.18564 | pgbench_tellers_pkey  |            65536
 2017-02-09 06:27:52.185637+01 | 1486618072.18564 | pgbench_accounts_pkey |        112336896

 2017-02-09 06:27:53.385595+01 | 1486618073.3856 | pgbench_branches_pkey |            16384
 2017-02-09 06:27:53.385595+01 | 1486618073.3856 | pgbench_tellers_pkey  |            65536
 2017-02-09 06:27:53.385595+01 | 1486618073.3856 | pgbench_accounts_pkey |        112336896

 2017-02-09 06:27:54.532108+01 | 1486618074.53211 | pgbench_branches_pkey |            16384
 2017-02-09 06:27:54.532108+01 | 1486618074.53211 | pgbench_tellers_pkey  |            65536
 2017-02-09 06:27:54.532108+01 | 1486618074.53211 | pgbench_accounts_pkey |        112336896

 2017-02-09 06:27:55.667503+01 | 1486618075.6675 | pgbench_branches_pkey |            16384
 2017-02-09 06:27:55.667503+01 | 1486618075.6675 | pgbench_tellers_pkey  |            65536
 2017-02-09 06:27:55.667503+01 | 1486618075.6675 | pgbench_accounts_pkey |        112336896

 2017-02-09 06:27:56.742992+01 | 1486618076.74299 | pgbench_branches_pkey |            16384
 2017-02-09 06:27:56.742992+01 | 1486618076.74299 | pgbench_tellers_pkey  |            65536
 2017-02-09 06:27:56.742992+01 | 1486618076.74299 | pgbench_accounts_pkey |        112336896

 2017-02-09 06:27:57.887444+01 | 1486618077.88744 | pgbench_branches_pkey |            16384
 2017-02-09 06:27:57.887444+01 | 1486618077.88744 | pgbench_tellers_pkey  |            65536
 2017-02-09 06:27:57.887444+01 | 1486618077.88744 | pgbench_accounts_pkey |        112336896

 2017-02-09 06:27:59.068681+01 | 1486618079.06868 | pgbench_branches_pkey |            16384
 2017-02-09 06:27:59.068681+01 | 1486618079.06868 | pgbench_tellers_pkey  |            65536
 2017-02-09 06:27:59.068681+01 | 1486618079.06868 | pgbench_accounts_pkey |        112336896

 2017-02-09 06:28:00.206591+01 | 1486618080.20659 | pgbench_branches_pkey |            16384
 2017-02-09 06:28:00.206591+01 | 1486618080.20659 | pgbench_tellers_pkey  |            65536
 2017-02-09 06:28:00.206591+01 | 1486618080.20659 | pgbench_accounts_pkey |        112336896

 2017-02-09 06:28:01.304598+01 | 1486618081.3046 | pgbench_branches_pkey |            16384
 2017-02-09 06:28:01.304598+01 | 1486618081.3046 | pgbench_tellers_pkey  |            65536
 2017-02-09 06:28:01.304598+01 | 1486618081.3046 | pgbench_accounts_pkey |        112336896

 2017-02-09 06:28:02.416972+01 | 1486618082.41697 | pgbench_branches_pkey |            16384
 2017-02-09 06:28:02.416972+01 | 1486618082.41697 | pgbench_tellers_pkey  |            65536
 2017-02-09 06:28:02.416972+01 | 1486618082.41697 | pgbench_accounts_pkey |        112336896

 2017-02-09 06:28:03.560537+01 | 1486618083.56054 | pgbench_branches_pkey |            16384
 2017-02-09 06:28:03.560537+01 | 1486618083.56054 | pgbench_tellers_pkey  |            65536
 2017-02-09 06:28:03.560537+01 | 1486618083.56054 | pgbench_accounts_pkey |        112336896

 2017-02-09 06:28:04.693621+01 | 1486618084.69362 | pgbench_branches_pkey |            16384
 2017-02-09 06:28:04.693621+01 | 1486618084.69362 | pgbench_tellers_pkey  |            65536
 2017-02-09 06:28:04.693621+01 | 1486618084.69362 | pgbench_accounts_pkey |        112336896

 2017-02-09 06:28:05.780115+01 | 1486618085.78011 | pgbench_branches_pkey |            16384
 2017-02-09 06:28:05.780115+01 | 1486618085.78011 | pgbench_tellers_pkey  |            65536
 2017-02-09 06:28:05.780115+01 | 1486618085.78011 | pgbench_accounts_pkey |        112336896

 2017-02-09 06:28:06.91629+01 | 1486618086.91629 | pgbench_branches_pkey |            16384
 2017-02-09 06:28:06.91629+01 | 1486618086.91629 | pgbench_tellers_pkey  |            65536
 2017-02-09 06:28:06.91629+01 | 1486618086.91629 | pgbench_accounts_pkey |        112336896

 2017-02-09 06:28:08.003739+01 | 1486618088.00374 | pgbench_branches_pkey |            16384
 2017-02-09 06:28:08.003739+01 | 1486618088.00374 | pgbench_tellers_pkey  |            65536
 2017-02-09 06:28:08.003739+01 | 1486618088.00374 | pgbench_accounts_pkey |        112336896

 2017-02-09 06:28:09.130548+01 | 1486618089.13055 | pgbench_branches_pkey |            16384
 2017-02-09 06:28:09.130548+01 | 1486618089.13055 | pgbench_tellers_pkey  |            65536
 2017-02-09 06:28:09.130548+01 | 1486618089.13055 | pgbench_accounts_pkey |        112336896

 2017-02-09 06:28:10.210273+01 | 1486618090.21027 | pgbench_branches_pkey |            16384
 2017-02-09 06:28:10.210273+01 | 1486618090.21027 | pgbench_tellers_pkey  |            65536
 2017-02-09 06:28:10.210273+01 | 1486618090.21027 | pgbench_accounts_pkey |        112336896

 2017-02-09 06:28:11.336321+01 | 1486618091.33632 | pgbench_branches_pkey |            16384
 2017-02-09 06:28:11.336321+01 | 1486618091.33632 | pgbench_tellers_pkey  |            65536
 2017-02-09 06:28:11.336321+01 | 1486618091.33632 | pgbench_accounts_pkey |        112336896

 2017-02-09 06:28:12.47383+01 | 1486618092.47383 | pgbench_branches_pkey |            16384
 2017-02-09 06:28:12.47383+01 | 1486618092.47383 | pgbench_tellers_pkey  |            65536
 2017-02-09 06:28:12.47383+01 | 1486618092.47383 | pgbench_accounts_pkey |        112336896

 2017-02-09 06:28:13.630566+01 | 1486618093.63057 | pgbench_branches_pkey |            16384
 2017-02-09 06:28:13.630566+01 | 1486618093.63057 | pgbench_tellers_pkey  |            65536
 2017-02-09 06:28:13.630566+01 | 1486618093.63057 | pgbench_accounts_pkey |        112336896

 2017-02-09 06:28:14.789195+01 | 1486618094.7892 | pgbench_branches_pkey |            16384
 2017-02-09 06:28:14.789195+01 | 1486618094.7892 | pgbench_tellers_pkey  |            65536
 2017-02-09 06:28:14.789195+01 | 1486618094.7892 | pgbench_accounts_pkey |        112336896

 2017-02-09 06:28:15.936254+01 | 1486618095.93625 | pgbench_branches_pkey |            16384
 2017-02-09 06:28:15.936254+01 | 1486618095.93625 | pgbench_tellers_pkey  |            65536
 2017-02-09 06:28:15.936254+01 | 1486618095.93625 | pgbench_accounts_pkey |        112336896

 2017-02-09 06:28:17.036678+01 | 1486618097.03668 | pgbench_branches_pkey |            16384
 2017-02-09 06:28:17.036678+01 | 1486618097.03668 | pgbench_tellers_pkey  |            65536
 2017-02-09 06:28:17.036678+01 | 1486618097.03668 | pgbench_accounts_pkey |        112336896

 2017-02-09 06:28:18.179665+01 | 1486618098.17967 | pgbench_branches_pkey |            16384
 2017-02-09 06:28:18.179665+01 | 1486618098.17967 | pgbench_tellers_pkey  |            65536
 2017-02-09 06:28:18.179665+01 | 1486618098.17967 | pgbench_accounts_pkey |        112336896

 2017-02-09 06:28:19.330971+01 | 1486618099.33097 | pgbench_branches_pkey |            16384
 2017-02-09 06:28:19.330971+01 | 1486618099.33097 | pgbench_tellers_pkey  |            65536
 2017-02-09 06:28:19.330971+01 | 1486618099.33097 | pgbench_accounts_pkey |        112336896

 2017-02-09 06:28:20.476709+01 | 1486618100.47671 | pgbench_branches_pkey |            16384
 2017-02-09 06:28:20.476709+01 | 1486618100.47671 | pgbench_tellers_pkey  |            65536
 2017-02-09 06:28:20.476709+01 | 1486618100.47671 | pgbench_accounts_pkey |        112336896

 2017-02-09 06:28:21.597866+01 | 1486618101.59787 | pgbench_branches_pkey |            16384
 2017-02-09 06:28:21.597866+01 | 1486618101.59787 | pgbench_tellers_pkey  |            65536
 2017-02-09 06:28:21.597866+01 | 1486618101.59787 | pgbench_accounts_pkey |        112336896

 2017-02-09 06:28:22.679604+01 | 1486618102.6796 | pgbench_branches_pkey |            16384
 2017-02-09 06:28:22.679604+01 | 1486618102.6796 | pgbench_tellers_pkey  |            65536
 2017-02-09 06:28:22.679604+01 | 1486618102.6796 | pgbench_accounts_pkey |        112336896

 2017-02-09 06:28:23.827048+01 | 1486618103.82705 | pgbench_branches_pkey |            16384
 2017-02-09 06:28:23.827048+01 | 1486618103.82705 | pgbench_tellers_pkey  |            65536
 2017-02-09 06:28:23.827048+01 | 1486618103.82705 | pgbench_accounts_pkey |        112336896

 2017-02-09 06:28:24.950765+01 | 1486618104.95076 | pgbench_branches_pkey |            16384
 2017-02-09 06:28:24.950765+01 | 1486618104.95076 | pgbench_tellers_pkey  |            65536
 2017-02-09 06:28:24.950765+01 | 1486618104.95076 | pgbench_accounts_pkey |        112336896

 2017-02-09 06:28:26.096633+01 | 1486618106.09663 | pgbench_branches_pkey |            16384
 2017-02-09 06:28:26.096633+01 | 1486618106.09663 | pgbench_tellers_pkey  |            65536
 2017-02-09 06:28:26.096633+01 | 1486618106.09663 | pgbench_accounts_pkey |        112336896

 2017-02-09 06:28:27.222083+01 | 1486618107.22208 | pgbench_branches_pkey |            16384
 2017-02-09 06:28:27.222083+01 | 1486618107.22208 | pgbench_tellers_pkey  |            65536
 2017-02-09 06:28:27.222083+01 | 1486618107.22208 | pgbench_accounts_pkey |        112336896

 2017-02-09 06:28:28.379057+01 | 1486618108.37906 | pgbench_branches_pkey |            16384
 2017-02-09 06:28:28.379057+01 | 1486618108.37906 | pgbench_tellers_pkey  |            65536
 2017-02-09 06:28:28.379057+01 | 1486618108.37906 | pgbench_accounts_pkey |        112336896

 2017-02-09 06:28:29.54283+01 | 1486618109.54283 | pgbench_branches_pkey |            16384
 2017-02-09 06:28:29.54283+01 | 1486618109.54283 | pgbench_tellers_pkey  |            65536
 2017-02-09 06:28:29.54283+01 | 1486618109.54283 | pgbench_accounts_pkey |        112336896

 2017-02-09 06:28:30.701932+01 | 1486618110.70193 | pgbench_branches_pkey |            16384
 2017-02-09 06:28:30.701932+01 | 1486618110.70193 | pgbench_tellers_pkey  |            65536
 2017-02-09 06:28:30.701932+01 | 1486618110.70193 | pgbench_accounts_pkey |        112336896

 2017-02-09 06:28:31.810435+01 | 1486618111.81044 | pgbench_branches_pkey |            16384
 2017-02-09 06:28:31.810435+01 | 1486618111.81044 | pgbench_tellers_pkey  |            65536
 2017-02-09 06:28:31.810435+01 | 1486618111.81044 | pgbench_accounts_pkey |        112336896

 2017-02-09 06:28:32.887926+01 | 1486618112.88793 | pgbench_branches_pkey |            16384
 2017-02-09 06:28:32.887926+01 | 1486618112.88793 | pgbench_tellers_pkey  |            65536
 2017-02-09 06:28:32.887926+01 | 1486618112.88793 | pgbench_accounts_pkey |        112336896

 2017-02-09 06:28:34.014924+01 | 1486618114.01492 | pgbench_branches_pkey |            16384
 2017-02-09 06:28:34.014924+01 | 1486618114.01492 | pgbench_tellers_pkey  |            65536
 2017-02-09 06:28:34.014924+01 | 1486618114.01492 | pgbench_accounts_pkey |        112336896

 2017-02-09 06:28:35.16127+01 | 1486618115.16127 | pgbench_branches_pkey |            16384
 2017-02-09 06:28:35.16127+01 | 1486618115.16127 | pgbench_tellers_pkey  |            65536
 2017-02-09 06:28:35.16127+01 | 1486618115.16127 | pgbench_accounts_pkey |        112336896

 2017-02-09 06:28:36.255361+01 | 1486618116.25536 | pgbench_branches_pkey |            16384
 2017-02-09 06:28:36.255361+01 | 1486618116.25536 | pgbench_tellers_pkey  |            65536
 2017-02-09 06:28:36.255361+01 | 1486618116.25536 | pgbench_accounts_pkey |        112336896

 2017-02-09 06:28:37.423364+01 | 1486618117.42336 | pgbench_branches_pkey |            16384
 2017-02-09 06:28:37.423364+01 | 1486618117.42336 | pgbench_tellers_pkey  |            65536
 2017-02-09 06:28:37.423364+01 | 1486618117.42336 | pgbench_accounts_pkey |        112336896

 2017-02-09 06:28:38.587062+01 | 1486618118.58706 | pgbench_branches_pkey |            16384
 2017-02-09 06:28:38.587062+01 | 1486618118.58706 | pgbench_tellers_pkey  |            65536
 2017-02-09 06:28:38.587062+01 | 1486618118.58706 | pgbench_accounts_pkey |        112336896

 2017-02-09 06:28:39.759748+01 | 1486618119.75975 | pgbench_branches_pkey |            16384
 2017-02-09 06:28:39.759748+01 | 1486618119.75975 | pgbench_tellers_pkey  |            65536
 2017-02-09 06:28:39.759748+01 | 1486618119.75975 | pgbench_accounts_pkey |        112336896

 2017-02-09 06:28:40.885606+01 | 1486618120.88561 | pgbench_branches_pkey |            16384
 2017-02-09 06:28:40.885606+01 | 1486618120.88561 | pgbench_tellers_pkey  |            65536
 2017-02-09 06:28:40.885606+01 | 1486618120.88561 | pgbench_accounts_pkey |        112336896

 2017-02-09 06:28:42.027405+01 | 1486618122.02741 | pgbench_branches_pkey |            16384
 2017-02-09 06:28:42.027405+01 | 1486618122.02741 | pgbench_tellers_pkey  |            65536
 2017-02-09 06:28:42.027405+01 | 1486618122.02741 | pgbench_accounts_pkey |        112336896

 2017-02-09 06:28:43.181146+01 | 1486618123.18115 | pgbench_branches_pkey |            16384
 2017-02-09 06:28:43.181146+01 | 1486618123.18115 | pgbench_tellers_pkey  |            65536
 2017-02-09 06:28:43.181146+01 | 1486618123.18115 | pgbench_accounts_pkey |        112336896

 2017-02-09 06:28:44.327143+01 | 1486618124.32714 | pgbench_branches_pkey |            16384
 2017-02-09 06:28:44.327143+01 | 1486618124.32714 | pgbench_tellers_pkey  |            65536
 2017-02-09 06:28:44.327143+01 | 1486618124.32714 | pgbench_accounts_pkey |        112336896

 2017-02-09 06:28:45.466738+01 | 1486618125.46674 | pgbench_branches_pkey |            16384
 2017-02-09 06:28:45.466738+01 | 1486618125.46674 | pgbench_tellers_pkey  |            65536
 2017-02-09 06:28:45.466738+01 | 1486618125.46674 | pgbench_accounts_pkey |        112336896

 2017-02-09 06:28:46.597815+01 | 1486618126.59782 | pgbench_branches_pkey |            16384
 2017-02-09 06:28:46.597815+01 | 1486618126.59782 | pgbench_tellers_pkey  |            65536
 2017-02-09 06:28:46.597815+01 | 1486618126.59782 | pgbench_accounts_pkey |        112336896

 2017-02-09 06:28:47.720138+01 | 1486618127.72014 | pgbench_branches_pkey |            16384
 2017-02-09 06:28:47.720138+01 | 1486618127.72014 | pgbench_tellers_pkey  |            65536
 2017-02-09 06:28:47.720138+01 | 1486618127.72014 | pgbench_accounts_pkey |        112336896

 2017-02-09 06:28:48.878056+01 | 1486618128.87806 | pgbench_branches_pkey |            16384
 2017-02-09 06:28:48.878056+01 | 1486618128.87806 | pgbench_tellers_pkey  |            65536
 2017-02-09 06:28:48.878056+01 | 1486618128.87806 | pgbench_accounts_pkey |        112336896

 2017-02-09 06:28:49.998828+01 | 1486618129.99883 | pgbench_branches_pkey |            16384
 2017-02-09 06:28:49.998828+01 | 1486618129.99883 | pgbench_tellers_pkey  |            65536
 2017-02-09 06:28:49.998828+01 | 1486618129.99883 | pgbench_accounts_pkey |        112336896

 2017-02-09 06:28:51.144256+01 | 1486618131.14426 | pgbench_branches_pkey |            16384
 2017-02-09 06:28:51.144256+01 | 1486618131.14426 | pgbench_tellers_pkey  |            65536
 2017-02-09 06:28:51.144256+01 | 1486618131.14426 | pgbench_accounts_pkey |        112336896

 2017-02-09 06:28:52.296476+01 | 1486618132.29648 | pgbench_branches_pkey |            16384
 2017-02-09 06:28:52.296476+01 | 1486618132.29648 | pgbench_tellers_pkey  |            65536
 2017-02-09 06:28:52.296476+01 | 1486618132.29648 | pgbench_accounts_pkey |        112336896

 2017-02-09 06:28:53.467355+01 | 1486618133.46736 | pgbench_branches_pkey |            16384
 2017-02-09 06:28:53.467355+01 | 1486618133.46736 | pgbench_tellers_pkey  |            65536
 2017-02-09 06:28:53.467355+01 | 1486618133.46736 | pgbench_accounts_pkey |        112336896

 2017-02-09 06:28:54.64378+01 | 1486618134.64378 | pgbench_branches_pkey |            16384
 2017-02-09 06:28:54.64378+01 | 1486618134.64378 | pgbench_tellers_pkey  |            65536
 2017-02-09 06:28:54.64378+01 | 1486618134.64378 | pgbench_accounts_pkey |        112336896

 2017-02-09 06:28:55.849479+01 | 1486618135.84948 | pgbench_branches_pkey |            16384
 2017-02-09 06:28:55.849479+01 | 1486618135.84948 | pgbench_tellers_pkey  |            65536
 2017-02-09 06:28:55.849479+01 | 1486618135.84948 | pgbench_accounts_pkey |        112336896

 2017-02-09 06:28:56.945519+01 | 1486618136.94552 | pgbench_branches_pkey |            16384
 2017-02-09 06:28:56.945519+01 | 1486618136.94552 | pgbench_tellers_pkey  |            65536
 2017-02-09 06:28:56.945519+01 | 1486618136.94552 | pgbench_accounts_pkey |        112336896

 2017-02-09 06:28:58.068352+01 | 1486618138.06835 | pgbench_branches_pkey |            16384
 2017-02-09 06:28:58.068352+01 | 1486618138.06835 | pgbench_tellers_pkey  |            65536
 2017-02-09 06:28:58.068352+01 | 1486618138.06835 | pgbench_accounts_pkey |        112336896

 2017-02-09 06:28:59.201131+01 | 1486618139.20113 | pgbench_branches_pkey |            16384
 2017-02-09 06:28:59.201131+01 | 1486618139.20113 | pgbench_tellers_pkey  |            65536
 2017-02-09 06:28:59.201131+01 | 1486618139.20113 | pgbench_accounts_pkey |        112336896

 2017-02-09 06:29:00.343234+01 | 1486618140.34323 | pgbench_branches_pkey |            16384
 2017-02-09 06:29:00.343234+01 | 1486618140.34323 | pgbench_tellers_pkey  |            65536
 2017-02-09 06:29:00.343234+01 | 1486618140.34323 | pgbench_accounts_pkey |        112336896

 2017-02-09 06:29:01.422048+01 | 1486618141.42205 | pgbench_branches_pkey |            16384
 2017-02-09 06:29:01.422048+01 | 1486618141.42205 | pgbench_tellers_pkey  |            65536
 2017-02-09 06:29:01.422048+01 | 1486618141.42205 | pgbench_accounts_pkey |        112336896

 2017-02-09 06:29:02.608565+01 | 1486618142.60857 | pgbench_branches_pkey |            16384
 2017-02-09 06:29:02.608565+01 | 1486618142.60857 | pgbench_tellers_pkey  |            65536
 2017-02-09 06:29:02.608565+01 | 1486618142.60857 | pgbench_accounts_pkey |        112336896

 2017-02-09 06:29:03.74747+01 | 1486618143.74747 | pgbench_branches_pkey |            16384
 2017-02-09 06:29:03.74747+01 | 1486618143.74747 | pgbench_tellers_pkey  |            65536
 2017-02-09 06:29:03.74747+01 | 1486618143.74747 | pgbench_accounts_pkey |        112336896

 2017-02-09 06:29:04.877446+01 | 1486618144.87745 | pgbench_branches_pkey |            16384
 2017-02-09 06:29:04.877446+01 | 1486618144.87745 | pgbench_tellers_pkey  |            65536
 2017-02-09 06:29:04.877446+01 | 1486618144.87745 | pgbench_accounts_pkey |        112336896

 2017-02-09 06:29:06.045893+01 | 1486618146.04589 | pgbench_branches_pkey |            16384
 2017-02-09 06:29:06.045893+01 | 1486618146.04589 | pgbench_tellers_pkey  |            65536
 2017-02-09 06:29:06.045893+01 | 1486618146.04589 | pgbench_accounts_pkey |        112336896

 2017-02-09 06:29:07.153962+01 | 1486618147.15396 | pgbench_branches_pkey |            16384
 2017-02-09 06:29:07.153962+01 | 1486618147.15396 | pgbench_tellers_pkey  |            65536
 2017-02-09 06:29:07.153962+01 | 1486618147.15396 | pgbench_accounts_pkey |        112336896

 2017-02-09 06:29:08.300501+01 | 1486618148.3005 | pgbench_branches_pkey |            16384
 2017-02-09 06:29:08.300501+01 | 1486618148.3005 | pgbench_tellers_pkey  |            65536
 2017-02-09 06:29:08.300501+01 | 1486618148.3005 | pgbench_accounts_pkey |        112336896

 2017-02-09 06:29:09.482727+01 | 1486618149.48273 | pgbench_branches_pkey |            16384
 2017-02-09 06:29:09.482727+01 | 1486618149.48273 | pgbench_tellers_pkey  |            65536
 2017-02-09 06:29:09.482727+01 | 1486618149.48273 | pgbench_accounts_pkey |        112336896

 2017-02-09 06:29:10.588733+01 | 1486618150.58873 | pgbench_branches_pkey |            16384
 2017-02-09 06:29:10.588733+01 | 1486618150.58873 | pgbench_tellers_pkey  |            65536
 2017-02-09 06:29:10.588733+01 | 1486618150.58873 | pgbench_accounts_pkey |        112336896

 2017-02-09 06:29:11.672604+01 | 1486618151.6726 | pgbench_branches_pkey |            16384
 2017-02-09 06:29:11.672604+01 | 1486618151.6726 | pgbench_tellers_pkey  |            65536
 2017-02-09 06:29:11.672604+01 | 1486618151.6726 | pgbench_accounts_pkey |        112336896

 2017-02-09 06:29:12.834151+01 | 1486618152.83415 | pgbench_branches_pkey |            16384
 2017-02-09 06:29:12.834151+01 | 1486618152.83415 | pgbench_tellers_pkey  |            65536
 2017-02-09 06:29:12.834151+01 | 1486618152.83415 | pgbench_accounts_pkey |        112336896

 2017-02-09 06:29:13.958834+01 | 1486618153.95883 | pgbench_branches_pkey |            16384
 2017-02-09 06:29:13.958834+01 | 1486618153.95883 | pgbench_tellers_pkey  |            65536
 2017-02-09 06:29:13.958834+01 | 1486618153.95883 | pgbench_accounts_pkey |        112336896

 2017-02-09 06:29:15.054652+01 | 1486618155.05465 | pgbench_branches_pkey |            16384
 2017-02-09 06:29:15.054652+01 | 1486618155.05465 | pgbench_tellers_pkey  |            65536
 2017-02-09 06:29:15.054652+01 | 1486618155.05465 | pgbench_accounts_pkey |        112336896

 2017-02-09 06:29:16.204933+01 | 1486618156.20493 | pgbench_branches_pkey |            16384
 2017-02-09 06:29:16.204933+01 | 1486618156.20493 | pgbench_tellers_pkey  |            65536
 2017-02-09 06:29:16.204933+01 | 1486618156.20493 | pgbench_accounts_pkey |        112336896

 2017-02-09 06:29:17.307325+01 | 1486618157.30732 | pgbench_branches_pkey |            16384
 2017-02-09 06:29:17.307325+01 | 1486618157.30732 | pgbench_tellers_pkey  |            65536
 2017-02-09 06:29:17.307325+01 | 1486618157.30732 | pgbench_accounts_pkey |        112336896

 2017-02-09 06:29:18.43441+01 | 1486618158.43441 | pgbench_branches_pkey |            16384
 2017-02-09 06:29:18.43441+01 | 1486618158.43441 | pgbench_tellers_pkey  |            65536
 2017-02-09 06:29:18.43441+01 | 1486618158.43441 | pgbench_accounts_pkey |        112336896

 2017-02-09 06:29:19.581144+01 | 1486618159.58114 | pgbench_branches_pkey |            16384
 2017-02-09 06:29:19.581144+01 | 1486618159.58114 | pgbench_tellers_pkey  |            65536
 2017-02-09 06:29:19.581144+01 | 1486618159.58114 | pgbench_accounts_pkey |        112336896

 2017-02-09 06:29:20.678553+01 | 1486618160.67855 | pgbench_branches_pkey |            16384
 2017-02-09 06:29:20.678553+01 | 1486618160.67855 | pgbench_tellers_pkey  |            65536
 2017-02-09 06:29:20.678553+01 | 1486618160.67855 | pgbench_accounts_pkey |        112336896

 2017-02-09 06:29:21.81187+01 | 1486618161.81187 | pgbench_branches_pkey |            16384
 2017-02-09 06:29:21.81187+01 | 1486618161.81187 | pgbench_tellers_pkey  |            65536
 2017-02-09 06:29:21.81187+01 | 1486618161.81187 | pgbench_accounts_pkey |        112336896

 2017-02-09 06:29:22.933083+01 | 1486618162.93308 | pgbench_branches_pkey |            16384
 2017-02-09 06:29:22.933083+01 | 1486618162.93308 | pgbench_tellers_pkey  |            65536
 2017-02-09 06:29:22.933083+01 | 1486618162.93308 | pgbench_accounts_pkey |        112336896

 2017-02-09 06:29:24.101873+01 | 1486618164.10187 | pgbench_branches_pkey |            16384
 2017-02-09 06:29:24.101873+01 | 1486618164.10187 | pgbench_tellers_pkey  |            65536
 2017-02-09 06:29:24.101873+01 | 1486618164.10187 | pgbench_accounts_pkey |        112336896

 2017-02-09 06:29:25.259653+01 | 1486618165.25965 | pgbench_branches_pkey |            16384
 2017-02-09 06:29:25.259653+01 | 1486618165.25965 | pgbench_tellers_pkey  |            65536
 2017-02-09 06:29:25.259653+01 | 1486618165.25965 | pgbench_accounts_pkey |        112336896

 2017-02-09 06:29:26.381569+01 | 1486618166.38157 | pgbench_branches_pkey |            16384
 2017-02-09 06:29:26.381569+01 | 1486618166.38157 | pgbench_tellers_pkey  |            65536
 2017-02-09 06:29:26.381569+01 | 1486618166.38157 | pgbench_accounts_pkey |        112336896

 2017-02-09 06:29:27.511576+01 | 1486618167.51158 | pgbench_branches_pkey |            16384
 2017-02-09 06:29:27.511576+01 | 1486618167.51158 | pgbench_tellers_pkey  |            65536
 2017-02-09 06:29:27.511576+01 | 1486618167.51158 | pgbench_accounts_pkey |        112336896

 2017-02-09 06:29:28.646633+01 | 1486618168.64663 | pgbench_branches_pkey |            16384
 2017-02-09 06:29:28.646633+01 | 1486618168.64663 | pgbench_tellers_pkey  |            65536
 2017-02-09 06:29:28.646633+01 | 1486618168.64663 | pgbench_accounts_pkey |        112336896

 2017-02-09 06:29:29.793743+01 | 1486618169.79374 | pgbench_branches_pkey |            16384
 2017-02-09 06:29:29.793743+01 | 1486618169.79374 | pgbench_tellers_pkey  |            65536
 2017-02-09 06:29:29.793743+01 | 1486618169.79374 | pgbench_accounts_pkey |        112336896

 2017-02-09 06:29:30.920017+01 | 1486618170.92002 | pgbench_branches_pkey |            16384
 2017-02-09 06:29:30.920017+01 | 1486618170.92002 | pgbench_tellers_pkey  |            65536
 2017-02-09 06:29:30.920017+01 | 1486618170.92002 | pgbench_accounts_pkey |        112336896

 2017-02-09 06:29:32.06672+01 | 1486618172.06672 | pgbench_branches_pkey |            16384
 2017-02-09 06:29:32.06672+01 | 1486618172.06672 | pgbench_tellers_pkey  |            65536
 2017-02-09 06:29:32.06672+01 | 1486618172.06672 | pgbench_accounts_pkey |        112336896

 2017-02-09 06:29:33.176471+01 | 1486618173.17647 | pgbench_branches_pkey |            16384
 2017-02-09 06:29:33.176471+01 | 1486618173.17647 | pgbench_tellers_pkey  |            65536
 2017-02-09 06:29:33.176471+01 | 1486618173.17647 | pgbench_accounts_pkey |        112336896

 2017-02-09 06:29:34.304993+01 | 1486618174.30499 | pgbench_branches_pkey |            16384
 2017-02-09 06:29:34.304993+01 | 1486618174.30499 | pgbench_tellers_pkey  |            65536
 2017-02-09 06:29:34.304993+01 | 1486618174.30499 | pgbench_accounts_pkey |        112336896

 2017-02-09 06:29:35.4501+01 | 1486618175.4501 | pgbench_branches_pkey |            16384
 2017-02-09 06:29:35.4501+01 | 1486618175.4501 | pgbench_tellers_pkey  |            65536
 2017-02-09 06:29:35.4501+01 | 1486618175.4501 | pgbench_accounts_pkey |        112336896

 2017-02-09 06:29:36.591197+01 | 1486618176.5912 | pgbench_branches_pkey |            16384
 2017-02-09 06:29:36.591197+01 | 1486618176.5912 | pgbench_tellers_pkey  |            65536
 2017-02-09 06:29:36.591197+01 | 1486618176.5912 | pgbench_accounts_pkey |        112336896

 2017-02-09 06:29:37.754627+01 | 1486618177.75463 | pgbench_branches_pkey |            16384
 2017-02-09 06:29:37.754627+01 | 1486618177.75463 | pgbench_tellers_pkey  |            65536
 2017-02-09 06:29:37.754627+01 | 1486618177.75463 | pgbench_accounts_pkey |        112336896

 2017-02-09 06:29:38.867688+01 | 1486618178.86769 | pgbench_branches_pkey |            16384
 2017-02-09 06:29:38.867688+01 | 1486618178.86769 | pgbench_tellers_pkey  |            65536
 2017-02-09 06:29:38.867688+01 | 1486618178.86769 | pgbench_accounts_pkey |        112336896

 2017-02-09 06:29:39.989374+01 | 1486618179.98937 | pgbench_branches_pkey |            16384
 2017-02-09 06:29:39.989374+01 | 1486618179.98937 | pgbench_tellers_pkey  |            65536
 2017-02-09 06:29:39.989374+01 | 1486618179.98937 | pgbench_accounts_pkey |        112336896

 2017-02-09 06:29:41.157688+01 | 1486618181.15769 | pgbench_branches_pkey |            16384
 2017-02-09 06:29:41.157688+01 | 1486618181.15769 | pgbench_tellers_pkey  |            65536
 2017-02-09 06:29:41.157688+01 | 1486618181.15769 | pgbench_accounts_pkey |        112336896

 2017-02-09 06:29:42.294876+01 | 1486618182.29488 | pgbench_branches_pkey |            16384
 2017-02-09 06:29:42.294876+01 | 1486618182.29488 | pgbench_tellers_pkey  |            65536
 2017-02-09 06:29:42.294876+01 | 1486618182.29488 | pgbench_accounts_pkey |        112336896

 2017-02-09 06:29:43.467789+01 | 1486618183.46779 | pgbench_branches_pkey |            16384
 2017-02-09 06:29:43.467789+01 | 1486618183.46779 | pgbench_tellers_pkey  |            65536
 2017-02-09 06:29:43.467789+01 | 1486618183.46779 | pgbench_accounts_pkey |        112336896

 2017-02-09 06:29:44.629631+01 | 1486618184.62963 | pgbench_branches_pkey |            16384
 2017-02-09 06:29:44.629631+01 | 1486618184.62963 | pgbench_tellers_pkey  |            65536
 2017-02-09 06:29:44.629631+01 | 1486618184.62963 | pgbench_accounts_pkey |        112336896

 2017-02-09 06:29:45.730522+01 | 1486618185.73052 | pgbench_branches_pkey |            16384
 2017-02-09 06:29:45.730522+01 | 1486618185.73052 | pgbench_tellers_pkey  |            65536
 2017-02-09 06:29:45.730522+01 | 1486618185.73052 | pgbench_accounts_pkey |        112336896

 2017-02-09 06:29:46.852224+01 | 1486618186.85222 | pgbench_branches_pkey |            16384
 2017-02-09 06:29:46.852224+01 | 1486618186.85222 | pgbench_tellers_pkey  |            65536
 2017-02-09 06:29:46.852224+01 | 1486618186.85222 | pgbench_accounts_pkey |        112336896

 2017-02-09 06:29:48.021129+01 | 1486618188.02113 | pgbench_branches_pkey |            16384
 2017-02-09 06:29:48.021129+01 | 1486618188.02113 | pgbench_tellers_pkey  |            65536
 2017-02-09 06:29:48.021129+01 | 1486618188.02113 | pgbench_accounts_pkey |        112336896

 2017-02-09 06:29:49.17937+01 | 1486618189.17937 | pgbench_branches_pkey |            16384
 2017-02-09 06:29:49.17937+01 | 1486618189.17937 | pgbench_tellers_pkey  |            65536
 2017-02-09 06:29:49.17937+01 | 1486618189.17937 | pgbench_accounts_pkey |        112336896

 2017-02-09 06:29:50.328073+01 | 1486618190.32807 | pgbench_branches_pkey |            16384
 2017-02-09 06:29:50.328073+01 | 1486618190.32807 | pgbench_tellers_pkey  |            65536
 2017-02-09 06:29:50.328073+01 | 1486618190.32807 | pgbench_accounts_pkey |        112336896

 2017-02-09 06:29:51.436714+01 | 1486618191.43671 | pgbench_branches_pkey |            16384
 2017-02-09 06:29:51.436714+01 | 1486618191.43671 | pgbench_tellers_pkey  |            65536
 2017-02-09 06:29:51.436714+01 | 1486618191.43671 | pgbench_accounts_pkey |        112336896

 2017-02-09 06:29:52.557688+01 | 1486618192.55769 | pgbench_branches_pkey |            16384
 2017-02-09 06:29:52.557688+01 | 1486618192.55769 | pgbench_tellers_pkey  |            65536
 2017-02-09 06:29:52.557688+01 | 1486618192.55769 | pgbench_accounts_pkey |        112336896

 2017-02-09 06:29:53.721576+01 | 1486618193.72158 | pgbench_branches_pkey |            16384
 2017-02-09 06:29:53.721576+01 | 1486618193.72158 | pgbench_tellers_pkey  |            65536
 2017-02-09 06:29:53.721576+01 | 1486618193.72158 | pgbench_accounts_pkey |        112336896

 2017-02-09 06:29:54.834815+01 | 1486618194.83482 | pgbench_branches_pkey |            16384
 2017-02-09 06:29:54.834815+01 | 1486618194.83482 | pgbench_tellers_pkey  |            65536
 2017-02-09 06:29:54.834815+01 | 1486618194.83482 | pgbench_accounts_pkey |        112336896

 2017-02-09 06:29:55.962375+01 | 1486618195.96237 | pgbench_branches_pkey |            16384
 2017-02-09 06:29:55.962375+01 | 1486618195.96237 | pgbench_tellers_pkey  |            65536
 2017-02-09 06:29:55.962375+01 | 1486618195.96237 | pgbench_accounts_pkey |        112336896

 2017-02-09 06:29:57.143185+01 | 1486618197.14318 | pgbench_branches_pkey |            16384
 2017-02-09 06:29:57.143185+01 | 1486618197.14318 | pgbench_tellers_pkey  |            65536
 2017-02-09 06:29:57.143185+01 | 1486618197.14318 | pgbench_accounts_pkey |        112336896

 2017-02-09 06:29:58.305751+01 | 1486618198.30575 | pgbench_branches_pkey |            16384
 2017-02-09 06:29:58.305751+01 | 1486618198.30575 | pgbench_tellers_pkey  |            65536
 2017-02-09 06:29:58.305751+01 | 1486618198.30575 | pgbench_accounts_pkey |        112336896

 2017-02-09 06:29:59.421752+01 | 1486618199.42175 | pgbench_branches_pkey |            16384
 2017-02-09 06:29:59.421752+01 | 1486618199.42175 | pgbench_tellers_pkey  |            65536
 2017-02-09 06:29:59.421752+01 | 1486618199.42175 | pgbench_accounts_pkey |        112336896

 2017-02-09 06:30:00.555523+01 | 1486618200.55552 | pgbench_branches_pkey |            16384
 2017-02-09 06:30:00.555523+01 | 1486618200.55552 | pgbench_tellers_pkey  |            65536
 2017-02-09 06:30:00.555523+01 | 1486618200.55552 | pgbench_accounts_pkey |        112336896

 2017-02-09 06:30:01.696299+01 | 1486618201.6963 | pgbench_branches_pkey |            16384
 2017-02-09 06:30:01.696299+01 | 1486618201.6963 | pgbench_tellers_pkey  |            65536
 2017-02-09 06:30:01.696299+01 | 1486618201.6963 | pgbench_accounts_pkey |        112336896

 2017-02-09 06:30:02.850538+01 | 1486618202.85054 | pgbench_branches_pkey |            16384
 2017-02-09 06:30:02.850538+01 | 1486618202.85054 | pgbench_tellers_pkey  |            65536
 2017-02-09 06:30:02.850538+01 | 1486618202.85054 | pgbench_accounts_pkey |        112336896

 2017-02-09 06:30:03.984026+01 | 1486618203.98403 | pgbench_branches_pkey |            16384
 2017-02-09 06:30:03.984026+01 | 1486618203.98403 | pgbench_tellers_pkey  |            65536
 2017-02-09 06:30:03.984026+01 | 1486618203.98403 | pgbench_accounts_pkey |        112336896

 2017-02-09 06:30:05.156841+01 | 1486618205.15684 | pgbench_branches_pkey |            16384
 2017-02-09 06:30:05.156841+01 | 1486618205.15684 | pgbench_tellers_pkey  |            65536
 2017-02-09 06:30:05.156841+01 | 1486618205.15684 | pgbench_accounts_pkey |        112336896

 2017-02-09 06:30:06.303707+01 | 1486618206.30371 | pgbench_branches_pkey |            16384
 2017-02-09 06:30:06.303707+01 | 1486618206.30371 | pgbench_tellers_pkey  |            65536
 2017-02-09 06:30:06.303707+01 | 1486618206.30371 | pgbench_accounts_pkey |        112336896

 2017-02-09 06:30:07.445902+01 | 1486618207.4459 | pgbench_branches_pkey |            16384
 2017-02-09 06:30:07.445902+01 | 1486618207.4459 | pgbench_tellers_pkey  |            65536
 2017-02-09 06:30:07.445902+01 | 1486618207.4459 | pgbench_accounts_pkey |        112336896

 2017-02-09 06:30:08.58277+01 | 1486618208.58277 | pgbench_branches_pkey |            16384
 2017-02-09 06:30:08.58277+01 | 1486618208.58277 | pgbench_tellers_pkey  |            65536
 2017-02-09 06:30:08.58277+01 | 1486618208.58277 | pgbench_accounts_pkey |        112336896

 2017-02-09 06:30:09.762285+01 | 1486618209.76228 | pgbench_branches_pkey |            16384
 2017-02-09 06:30:09.762285+01 | 1486618209.76228 | pgbench_tellers_pkey  |            65536
 2017-02-09 06:30:09.762285+01 | 1486618209.76228 | pgbench_accounts_pkey |        112336896

 2017-02-09 06:30:10.935128+01 | 1486618210.93513 | pgbench_branches_pkey |            16384
 2017-02-09 06:30:10.935128+01 | 1486618210.93513 | pgbench_tellers_pkey  |            65536
 2017-02-09 06:30:10.935128+01 | 1486618210.93513 | pgbench_accounts_pkey |        112336896

 2017-02-09 06:30:12.069981+01 | 1486618212.06998 | pgbench_branches_pkey |            16384
 2017-02-09 06:30:12.069981+01 | 1486618212.06998 | pgbench_tellers_pkey  |            65536
 2017-02-09 06:30:12.069981+01 | 1486618212.06998 | pgbench_accounts_pkey |        112336896

 2017-02-09 06:30:13.204395+01 | 1486618213.2044 | pgbench_branches_pkey |            16384
 2017-02-09 06:30:13.204395+01 | 1486618213.2044 | pgbench_tellers_pkey  |            65536
 2017-02-09 06:30:13.204395+01 | 1486618213.2044 | pgbench_accounts_pkey |        112336896

 2017-02-09 06:30:14.386545+01 | 1486618214.38654 | pgbench_branches_pkey |            16384
 2017-02-09 06:30:14.386545+01 | 1486618214.38654 | pgbench_tellers_pkey  |            65536
 2017-02-09 06:30:14.386545+01 | 1486618214.38654 | pgbench_accounts_pkey |        112336896

 2017-02-09 06:30:15.502508+01 | 1486618215.50251 | pgbench_branches_pkey |            16384
 2017-02-09 06:30:15.502508+01 | 1486618215.50251 | pgbench_tellers_pkey  |            65536
 2017-02-09 06:30:15.502508+01 | 1486618215.50251 | pgbench_accounts_pkey |        112336896

 2017-02-09 06:30:16.625689+01 | 1486618216.62569 | pgbench_branches_pkey |            16384
 2017-02-09 06:30:16.625689+01 | 1486618216.62569 | pgbench_tellers_pkey  |            65536
 2017-02-09 06:30:16.625689+01 | 1486618216.62569 | pgbench_accounts_pkey |        112336896

 2017-02-09 06:30:17.773999+01 | 1486618217.774 | pgbench_branches_pkey |            16384
 2017-02-09 06:30:17.773999+01 | 1486618217.774 | pgbench_tellers_pkey  |            65536
 2017-02-09 06:30:17.773999+01 | 1486618217.774 | pgbench_accounts_pkey |        112336896

 2017-02-09 06:30:18.890881+01 | 1486618218.89088 | pgbench_branches_pkey |            16384
 2017-02-09 06:30:18.890881+01 | 1486618218.89088 | pgbench_tellers_pkey  |            65536
 2017-02-09 06:30:18.890881+01 | 1486618218.89088 | pgbench_accounts_pkey |        112336896

 2017-02-09 06:30:20.068144+01 | 1486618220.06814 | pgbench_branches_pkey |            16384
 2017-02-09 06:30:20.068144+01 | 1486618220.06814 | pgbench_tellers_pkey  |            65536
 2017-02-09 06:30:20.068144+01 | 1486618220.06814 | pgbench_accounts_pkey |        112336896

 2017-02-09 06:30:21.191296+01 | 1486618221.1913 | pgbench_branches_pkey |            16384
 2017-02-09 06:30:21.191296+01 | 1486618221.1913 | pgbench_tellers_pkey  |            65536
 2017-02-09 06:30:21.191296+01 | 1486618221.1913 | pgbench_accounts_pkey |        112336896

 2017-02-09 06:30:22.342697+01 | 1486618222.3427 | pgbench_branches_pkey |            16384
 2017-02-09 06:30:22.342697+01 | 1486618222.3427 | pgbench_tellers_pkey  |            65536
 2017-02-09 06:30:22.342697+01 | 1486618222.3427 | pgbench_accounts_pkey |        112336896

 2017-02-09 06:30:23.422571+01 | 1486618223.42257 | pgbench_branches_pkey |            16384
 2017-02-09 06:30:23.422571+01 | 1486618223.42257 | pgbench_tellers_pkey  |            65536
 2017-02-09 06:30:23.422571+01 | 1486618223.42257 | pgbench_accounts_pkey |        112336896

 2017-02-09 06:30:24.540622+01 | 1486618224.54062 | pgbench_branches_pkey |            16384
 2017-02-09 06:30:24.540622+01 | 1486618224.54062 | pgbench_tellers_pkey  |            65536
 2017-02-09 06:30:24.540622+01 | 1486618224.54062 | pgbench_accounts_pkey |        112336896

 2017-02-09 06:30:25.641192+01 | 1486618225.64119 | pgbench_branches_pkey |            16384
 2017-02-09 06:30:25.641192+01 | 1486618225.64119 | pgbench_tellers_pkey  |            65536
 2017-02-09 06:30:25.641192+01 | 1486618225.64119 | pgbench_accounts_pkey |        112336896

 2017-02-09 06:30:26.742654+01 | 1486618226.74265 | pgbench_branches_pkey |            16384
 2017-02-09 06:30:26.742654+01 | 1486618226.74265 | pgbench_tellers_pkey  |            65536
 2017-02-09 06:30:26.742654+01 | 1486618226.74265 | pgbench_accounts_pkey |        112336896

 2017-02-09 06:30:27.921224+01 | 1486618227.92122 | pgbench_branches_pkey |            16384
 2017-02-09 06:30:27.921224+01 | 1486618227.92122 | pgbench_tellers_pkey  |            65536
 2017-02-09 06:30:27.921224+01 | 1486618227.92122 | pgbench_accounts_pkey |        112336896

 2017-02-09 06:30:29.0755+01 | 1486618229.0755 | pgbench_branches_pkey |            16384
 2017-02-09 06:30:29.0755+01 | 1486618229.0755 | pgbench_tellers_pkey  |            65536
 2017-02-09 06:30:29.0755+01 | 1486618229.0755 | pgbench_accounts_pkey |        112336896

 2017-02-09 06:30:30.250288+01 | 1486618230.25029 | pgbench_branches_pkey |            16384
 2017-02-09 06:30:30.250288+01 | 1486618230.25029 | pgbench_tellers_pkey  |            65536
 2017-02-09 06:30:30.250288+01 | 1486618230.25029 | pgbench_accounts_pkey |        112336896

 2017-02-09 06:30:31.381762+01 | 1486618231.38176 | pgbench_branches_pkey |            16384
 2017-02-09 06:30:31.381762+01 | 1486618231.38176 | pgbench_tellers_pkey  |            65536
 2017-02-09 06:30:31.381762+01 | 1486618231.38176 | pgbench_accounts_pkey |        112336896

 2017-02-09 06:30:32.52319+01 | 1486618232.52319 | pgbench_branches_pkey |            16384
 2017-02-09 06:30:32.52319+01 | 1486618232.52319 | pgbench_tellers_pkey  |            65536
 2017-02-09 06:30:32.52319+01 | 1486618232.52319 | pgbench_accounts_pkey |        112336896

 2017-02-09 06:30:33.65481+01 | 1486618233.65481 | pgbench_branches_pkey |            16384
 2017-02-09 06:30:33.65481+01 | 1486618233.65481 | pgbench_tellers_pkey  |            65536
 2017-02-09 06:30:33.65481+01 | 1486618233.65481 | pgbench_accounts_pkey |        112336896

 2017-02-09 06:30:34.768074+01 | 1486618234.76807 | pgbench_branches_pkey |            16384
 2017-02-09 06:30:34.768074+01 | 1486618234.76807 | pgbench_tellers_pkey  |            65536
 2017-02-09 06:30:34.768074+01 | 1486618234.76807 | pgbench_accounts_pkey |        112336896

 2017-02-09 06:30:35.862013+01 | 1486618235.86201 | pgbench_branches_pkey |            16384
 2017-02-09 06:30:35.862013+01 | 1486618235.86201 | pgbench_tellers_pkey  |            65536
 2017-02-09 06:30:35.862013+01 | 1486618235.86201 | pgbench_accounts_pkey |        112336896

 2017-02-09 06:30:36.986477+01 | 1486618236.98648 | pgbench_branches_pkey |            16384
 2017-02-09 06:30:36.986477+01 | 1486618236.98648 | pgbench_tellers_pkey  |            65536
 2017-02-09 06:30:36.986477+01 | 1486618236.98648 | pgbench_accounts_pkey |        112336896

 2017-02-09 06:30:38.116096+01 | 1486618238.1161 | pgbench_branches_pkey |            16384
 2017-02-09 06:30:38.116096+01 | 1486618238.1161 | pgbench_tellers_pkey  |            65536
 2017-02-09 06:30:38.116096+01 | 1486618238.1161 | pgbench_accounts_pkey |        112336896

 2017-02-09 06:30:39.303611+01 | 1486618239.30361 | pgbench_branches_pkey |            16384
 2017-02-09 06:30:39.303611+01 | 1486618239.30361 | pgbench_tellers_pkey  |            65536
 2017-02-09 06:30:39.303611+01 | 1486618239.30361 | pgbench_accounts_pkey |        112336896

 2017-02-09 06:30:40.464188+01 | 1486618240.46419 | pgbench_branches_pkey |            16384
 2017-02-09 06:30:40.464188+01 | 1486618240.46419 | pgbench_tellers_pkey  |            65536
 2017-02-09 06:30:40.464188+01 | 1486618240.46419 | pgbench_accounts_pkey |        112336896

 2017-02-09 06:30:41.606086+01 | 1486618241.60609 | pgbench_branches_pkey |            16384
 2017-02-09 06:30:41.606086+01 | 1486618241.60609 | pgbench_tellers_pkey  |            65536
 2017-02-09 06:30:41.606086+01 | 1486618241.60609 | pgbench_accounts_pkey |        112336896

 2017-02-09 06:30:42.742535+01 | 1486618242.74254 | pgbench_branches_pkey |            16384
 2017-02-09 06:30:42.742535+01 | 1486618242.74254 | pgbench_tellers_pkey  |            65536
 2017-02-09 06:30:42.742535+01 | 1486618242.74254 | pgbench_accounts_pkey |        112336896

 2017-02-09 06:30:43.885639+01 | 1486618243.88564 | pgbench_branches_pkey |            16384
 2017-02-09 06:30:43.885639+01 | 1486618243.88564 | pgbench_tellers_pkey  |            65536
 2017-02-09 06:30:43.885639+01 | 1486618243.88564 | pgbench_accounts_pkey |        112336896

 2017-02-09 06:30:44.961704+01 | 1486618244.9617 | pgbench_branches_pkey |            16384
 2017-02-09 06:30:44.961704+01 | 1486618244.9617 | pgbench_tellers_pkey  |            65536
 2017-02-09 06:30:44.961704+01 | 1486618244.9617 | pgbench_accounts_pkey |        112336896

 2017-02-09 06:30:46.10239+01 | 1486618246.10239 | pgbench_branches_pkey |            16384
 2017-02-09 06:30:46.10239+01 | 1486618246.10239 | pgbench_tellers_pkey  |            65536
 2017-02-09 06:30:46.10239+01 | 1486618246.10239 | pgbench_accounts_pkey |        112336896

 2017-02-09 06:30:47.243874+01 | 1486618247.24387 | pgbench_branches_pkey |            16384
 2017-02-09 06:30:47.243874+01 | 1486618247.24387 | pgbench_tellers_pkey  |            65536
 2017-02-09 06:30:47.243874+01 | 1486618247.24387 | pgbench_accounts_pkey |        112336896

 2017-02-09 06:30:48.378753+01 | 1486618248.37875 | pgbench_branches_pkey |            16384
 2017-02-09 06:30:48.378753+01 | 1486618248.37875 | pgbench_tellers_pkey  |            65536
 2017-02-09 06:30:48.378753+01 | 1486618248.37875 | pgbench_accounts_pkey |        112336896

 2017-02-09 06:30:49.509672+01 | 1486618249.50967 | pgbench_branches_pkey |            16384
 2017-02-09 06:30:49.509672+01 | 1486618249.50967 | pgbench_tellers_pkey  |            65536
 2017-02-09 06:30:49.509672+01 | 1486618249.50967 | pgbench_accounts_pkey |        112336896

 2017-02-09 06:30:50.646255+01 | 1486618250.64626 | pgbench_branches_pkey |            16384
 2017-02-09 06:30:50.646255+01 | 1486618250.64626 | pgbench_tellers_pkey  |            65536
 2017-02-09 06:30:50.646255+01 | 1486618250.64626 | pgbench_accounts_pkey |        112336896

 2017-02-09 06:30:51.757862+01 | 1486618251.75786 | pgbench_branches_pkey |            16384
 2017-02-09 06:30:51.757862+01 | 1486618251.75786 | pgbench_tellers_pkey  |            65536
 2017-02-09 06:30:51.757862+01 | 1486618251.75786 | pgbench_accounts_pkey |        112336896

 2017-02-09 06:30:52.943859+01 | 1486618252.94386 | pgbench_branches_pkey |            16384
 2017-02-09 06:30:52.943859+01 | 1486618252.94386 | pgbench_tellers_pkey  |            65536
 2017-02-09 06:30:52.943859+01 | 1486618252.94386 | pgbench_accounts_pkey |        112336896

 2017-02-09 06:30:54.10419+01 | 1486618254.10419 | pgbench_branches_pkey |            16384
 2017-02-09 06:30:54.10419+01 | 1486618254.10419 | pgbench_tellers_pkey  |            65536
 2017-02-09 06:30:54.10419+01 | 1486618254.10419 | pgbench_accounts_pkey |        112336896

 2017-02-09 06:30:55.26737+01 | 1486618255.26737 | pgbench_branches_pkey |            16384
 2017-02-09 06:30:55.26737+01 | 1486618255.26737 | pgbench_tellers_pkey  |            65536
 2017-02-09 06:30:55.26737+01 | 1486618255.26737 | pgbench_accounts_pkey |        112336896

 2017-02-09 06:30:56.404863+01 | 1486618256.40486 | pgbench_branches_pkey |            16384
 2017-02-09 06:30:56.404863+01 | 1486618256.40486 | pgbench_tellers_pkey  |            65536
 2017-02-09 06:30:56.404863+01 | 1486618256.40486 | pgbench_accounts_pkey |        112336896

 2017-02-09 06:30:57.562444+01 | 1486618257.56244 | pgbench_branches_pkey |            16384
 2017-02-09 06:30:57.562444+01 | 1486618257.56244 | pgbench_tellers_pkey  |            65536
 2017-02-09 06:30:57.562444+01 | 1486618257.56244 | pgbench_accounts_pkey |        112336896

 2017-02-09 06:30:58.70618+01 | 1486618258.70618 | pgbench_branches_pkey |            16384
 2017-02-09 06:30:58.70618+01 | 1486618258.70618 | pgbench_tellers_pkey  |            65536
 2017-02-09 06:30:58.70618+01 | 1486618258.70618 | pgbench_accounts_pkey |        112336896

 2017-02-09 06:30:59.841933+01 | 1486618259.84193 | pgbench_branches_pkey |            16384
 2017-02-09 06:30:59.841933+01 | 1486618259.84193 | pgbench_tellers_pkey  |            65536
 2017-02-09 06:30:59.841933+01 | 1486618259.84193 | pgbench_accounts_pkey |        112336896

 2017-02-09 06:31:00.969005+01 | 1486618260.96901 | pgbench_branches_pkey |            16384
 2017-02-09 06:31:00.969005+01 | 1486618260.96901 | pgbench_tellers_pkey  |            65536
 2017-02-09 06:31:00.969005+01 | 1486618260.96901 | pgbench_accounts_pkey |        112336896

 2017-02-09 06:31:02.114237+01 | 1486618262.11424 | pgbench_branches_pkey |            16384
 2017-02-09 06:31:02.114237+01 | 1486618262.11424 | pgbench_tellers_pkey  |            65536
 2017-02-09 06:31:02.114237+01 | 1486618262.11424 | pgbench_accounts_pkey |        112336896

 2017-02-09 06:31:03.243346+01 | 1486618263.24335 | pgbench_branches_pkey |            16384
 2017-02-09 06:31:03.243346+01 | 1486618263.24335 | pgbench_tellers_pkey  |            65536
 2017-02-09 06:31:03.243346+01 | 1486618263.24335 | pgbench_accounts_pkey |        112336896

 2017-02-09 06:31:04.346961+01 | 1486618264.34696 | pgbench_branches_pkey |            16384
 2017-02-09 06:31:04.346961+01 | 1486618264.34696 | pgbench_tellers_pkey  |            65536
 2017-02-09 06:31:04.346961+01 | 1486618264.34696 | pgbench_accounts_pkey |        112336896

 2017-02-09 06:31:05.460177+01 | 1486618265.46018 | pgbench_branches_pkey |            16384
 2017-02-09 06:31:05.460177+01 | 1486618265.46018 | pgbench_tellers_pkey  |            65536
 2017-02-09 06:31:05.460177+01 | 1486618265.46018 | pgbench_accounts_pkey |        112336896

 2017-02-09 06:31:06.589937+01 | 1486618266.58994 | pgbench_branches_pkey |            16384
 2017-02-09 06:31:06.589937+01 | 1486618266.58994 | pgbench_tellers_pkey  |            65536
 2017-02-09 06:31:06.589937+01 | 1486618266.58994 | pgbench_accounts_pkey |        112336896

 2017-02-09 06:31:07.760313+01 | 1486618267.76031 | pgbench_branches_pkey |            16384
 2017-02-09 06:31:07.760313+01 | 1486618267.76031 | pgbench_tellers_pkey  |            65536
 2017-02-09 06:31:07.760313+01 | 1486618267.76031 | pgbench_accounts_pkey |        112336896

 2017-02-09 06:31:08.87702+01 | 1486618268.87702 | pgbench_branches_pkey |            16384
 2017-02-09 06:31:08.87702+01 | 1486618268.87702 | pgbench_tellers_pkey  |            65536
 2017-02-09 06:31:08.87702+01 | 1486618268.87702 | pgbench_accounts_pkey |        112336896

 2017-02-09 06:31:10.045671+01 | 1486618270.04567 | pgbench_branches_pkey |            16384
 2017-02-09 06:31:10.045671+01 | 1486618270.04567 | pgbench_tellers_pkey  |            65536
 2017-02-09 06:31:10.045671+01 | 1486618270.04567 | pgbench_accounts_pkey |        112336896

 2017-02-09 06:31:11.161412+01 | 1486618271.16141 | pgbench_branches_pkey |            16384
 2017-02-09 06:31:11.161412+01 | 1486618271.16141 | pgbench_tellers_pkey  |            65536
 2017-02-09 06:31:11.161412+01 | 1486618271.16141 | pgbench_accounts_pkey |        112336896

 2017-02-09 06:31:12.29844+01 | 1486618272.29844 | pgbench_branches_pkey |            16384
 2017-02-09 06:31:12.29844+01 | 1486618272.29844 | pgbench_tellers_pkey  |            65536
 2017-02-09 06:31:12.29844+01 | 1486618272.29844 | pgbench_accounts_pkey |        112336896

