 2017-02-09 06:26:12.973641+01 | 1486617972.97364 | pgbench_accounts |        694558720
 2017-02-09 06:26:12.973641+01 | 1486617972.97364 | pgbench_tellers  |           827392
 2017-02-09 06:26:12.973641+01 | 1486617972.97364 | pgbench_history  |          1007616
 2017-02-09 06:26:12.973641+01 | 1486617972.97364 | pgbench_branches |          1155072

 2017-02-09 06:26:14.112272+01 | 1486617974.11227 | pgbench_accounts |        694558720
 2017-02-09 06:26:14.112272+01 | 1486617974.11227 | pgbench_tellers  |           827392
 2017-02-09 06:26:14.112272+01 | 1486617974.11227 | pgbench_history  |          1007616
 2017-02-09 06:26:14.112272+01 | 1486617974.11227 | pgbench_branches |          1155072

 2017-02-09 06:26:15.193565+01 | 1486617975.19356 | pgbench_accounts |        694558720
 2017-02-09 06:26:15.193565+01 | 1486617975.19356 | pgbench_tellers  |           827392
 2017-02-09 06:26:15.193565+01 | 1486617975.19356 | pgbench_history  |          1359872
 2017-02-09 06:26:15.193565+01 | 1486617975.19356 | pgbench_branches |          1155072

 2017-02-09 06:26:16.326293+01 | 1486617976.32629 | pgbench_accounts |        694558720
 2017-02-09 06:26:16.326293+01 | 1486617976.32629 | pgbench_tellers  |           827392
 2017-02-09 06:26:16.326293+01 | 1486617976.32629 | pgbench_history  |          1875968
 2017-02-09 06:26:16.326293+01 | 1486617976.32629 | pgbench_branches |          1155072

 2017-02-09 06:26:17.464719+01 | 1486617977.46472 | pgbench_accounts |        694558720
 2017-02-09 06:26:17.464719+01 | 1486617977.46472 | pgbench_tellers  |           827392
 2017-02-09 06:26:17.464719+01 | 1486617977.46472 | pgbench_history  |          2088960
 2017-02-09 06:26:17.464719+01 | 1486617977.46472 | pgbench_branches |          1155072

 2017-02-09 06:26:18.563885+01 | 1486617978.56388 | pgbench_accounts |        694558720
 2017-02-09 06:26:18.563885+01 | 1486617978.56388 | pgbench_tellers  |           827392
 2017-02-09 06:26:18.563885+01 | 1486617978.56388 | pgbench_history  |          2613248
 2017-02-09 06:26:18.563885+01 | 1486617978.56388 | pgbench_branches |          1155072

 2017-02-09 06:26:19.652057+01 | 1486617979.65206 | pgbench_accounts |        694558720
 2017-02-09 06:26:19.652057+01 | 1486617979.65206 | pgbench_tellers  |           827392
 2017-02-09 06:26:19.652057+01 | 1486617979.65206 | pgbench_history  |          3129344
 2017-02-09 06:26:19.652057+01 | 1486617979.65206 | pgbench_branches |          1155072

 2017-02-09 06:26:20.76001+01 | 1486617980.76001 | pgbench_accounts |        694558720
 2017-02-09 06:26:20.76001+01 | 1486617980.76001 | pgbench_tellers  |           827392
 2017-02-09 06:26:20.76001+01 | 1486617980.76001 | pgbench_history  |          3629056
 2017-02-09 06:26:20.76001+01 | 1486617980.76001 | pgbench_branches |          1155072

 2017-02-09 06:26:21.892317+01 | 1486617981.89232 | pgbench_accounts |        694558720
 2017-02-09 06:26:21.892317+01 | 1486617981.89232 | pgbench_tellers  |           827392
 2017-02-09 06:26:21.892317+01 | 1486617981.89232 | pgbench_history  |          4153344
 2017-02-09 06:26:21.892317+01 | 1486617981.89232 | pgbench_branches |          1155072

 2017-02-09 06:26:23.055095+01 | 1486617983.05509 | pgbench_accounts |        694558720
 2017-02-09 06:26:23.055095+01 | 1486617983.05509 | pgbench_tellers  |           827392
 2017-02-09 06:26:23.055095+01 | 1486617983.05509 | pgbench_history  |          4685824
 2017-02-09 06:26:23.055095+01 | 1486617983.05509 | pgbench_branches |          1155072

 2017-02-09 06:26:24.153909+01 | 1486617984.15391 | pgbench_accounts |        694558720
 2017-02-09 06:26:24.153909+01 | 1486617984.15391 | pgbench_tellers  |           827392
 2017-02-09 06:26:24.153909+01 | 1486617984.15391 | pgbench_history  |          5185536
 2017-02-09 06:26:24.153909+01 | 1486617984.15391 | pgbench_branches |          1155072

 2017-02-09 06:26:25.300949+01 | 1486617985.30095 | pgbench_accounts |        694558720
 2017-02-09 06:26:25.300949+01 | 1486617985.30095 | pgbench_tellers  |           827392
 2017-02-09 06:26:25.300949+01 | 1486617985.30095 | pgbench_history  |          5718016
 2017-02-09 06:26:25.300949+01 | 1486617985.30095 | pgbench_branches |          1155072

 2017-02-09 06:26:26.413024+01 | 1486617986.41302 | pgbench_accounts |        694558720
 2017-02-09 06:26:26.413024+01 | 1486617986.41302 | pgbench_tellers  |           827392
 2017-02-09 06:26:26.413024+01 | 1486617986.41302 | pgbench_history  |          6176768
 2017-02-09 06:26:26.413024+01 | 1486617986.41302 | pgbench_branches |          1155072

 2017-02-09 06:26:27.584822+01 | 1486617987.58482 | pgbench_accounts |        694558720
 2017-02-09 06:26:27.584822+01 | 1486617987.58482 | pgbench_tellers  |           827392
 2017-02-09 06:26:27.584822+01 | 1486617987.58482 | pgbench_history  |          7266304
 2017-02-09 06:26:27.584822+01 | 1486617987.58482 | pgbench_branches |          1155072

 2017-02-09 06:26:28.696408+01 | 1486617988.69641 | pgbench_accounts |        694558720
 2017-02-09 06:26:28.696408+01 | 1486617988.69641 | pgbench_tellers  |           827392
 2017-02-09 06:26:28.696408+01 | 1486617988.69641 | pgbench_history  |          7266304
 2017-02-09 06:26:28.696408+01 | 1486617988.69641 | pgbench_branches |          1155072

 2017-02-09 06:26:29.812493+01 | 1486617989.81249 | pgbench_accounts |        694558720
 2017-02-09 06:26:29.812493+01 | 1486617989.81249 | pgbench_tellers  |           827392
 2017-02-09 06:26:29.812493+01 | 1486617989.81249 | pgbench_history  |          7880704
 2017-02-09 06:26:29.812493+01 | 1486617989.81249 | pgbench_branches |          1155072

 2017-02-09 06:26:30.895605+01 | 1486617990.89561 | pgbench_accounts |        694558720
 2017-02-09 06:26:30.895605+01 | 1486617990.89561 | pgbench_tellers  |           827392
 2017-02-09 06:26:30.895605+01 | 1486617990.89561 | pgbench_history  |          8396800
 2017-02-09 06:26:30.895605+01 | 1486617990.89561 | pgbench_branches |          1155072

 2017-02-09 06:26:31.989162+01 | 1486617991.98916 | pgbench_accounts |        694558720
 2017-02-09 06:26:31.989162+01 | 1486617991.98916 | pgbench_tellers  |           827392
 2017-02-09 06:26:31.989162+01 | 1486617991.98916 | pgbench_history  |          8749056
 2017-02-09 06:26:31.989162+01 | 1486617991.98916 | pgbench_branches |          1155072

 2017-02-09 06:26:33.188376+01 | 1486617993.18838 | pgbench_accounts |        694558720
 2017-02-09 06:26:33.188376+01 | 1486617993.18838 | pgbench_tellers  |           827392
 2017-02-09 06:26:33.188376+01 | 1486617993.18838 | pgbench_history  |          9371648
 2017-02-09 06:26:33.188376+01 | 1486617993.18838 | pgbench_branches |          1155072

 2017-02-09 06:26:34.331137+01 | 1486617994.33114 | pgbench_accounts |        694558720
 2017-02-09 06:26:34.331137+01 | 1486617994.33114 | pgbench_tellers  |           827392
 2017-02-09 06:26:34.331137+01 | 1486617994.33114 | pgbench_history  |         10133504
 2017-02-09 06:26:34.331137+01 | 1486617994.33114 | pgbench_branches |          1155072

 2017-02-09 06:26:35.45698+01 | 1486617995.45698 | pgbench_accounts |        694558720
 2017-02-09 06:26:35.45698+01 | 1486617995.45698 | pgbench_tellers  |           827392
 2017-02-09 06:26:35.45698+01 | 1486617995.45698 | pgbench_history  |         10321920
 2017-02-09 06:26:35.45698+01 | 1486617995.45698 | pgbench_branches |          1155072

 2017-02-09 06:26:36.636818+01 | 1486617996.63682 | pgbench_accounts |        694558720
 2017-02-09 06:26:36.636818+01 | 1486617996.63682 | pgbench_tellers  |           827392
 2017-02-09 06:26:36.636818+01 | 1486617996.63682 | pgbench_history  |         10870784
 2017-02-09 06:26:36.636818+01 | 1486617996.63682 | pgbench_branches |          1155072

 2017-02-09 06:26:37.827675+01 | 1486617997.82768 | pgbench_accounts |        694558720
 2017-02-09 06:26:37.827675+01 | 1486617997.82768 | pgbench_tellers  |           827392
 2017-02-09 06:26:37.827675+01 | 1486617997.82768 | pgbench_history  |         11321344
 2017-02-09 06:26:37.827675+01 | 1486617997.82768 | pgbench_branches |          1155072

 2017-02-09 06:26:38.969664+01 | 1486617998.96966 | pgbench_accounts |        694558720
 2017-02-09 06:26:38.969664+01 | 1486617998.96966 | pgbench_tellers  |           827392
 2017-02-09 06:26:38.969664+01 | 1486617998.96966 | pgbench_history  |         11771904
 2017-02-09 06:26:38.969664+01 | 1486617998.96966 | pgbench_branches |          1155072

 2017-02-09 06:26:40.090084+01 | 1486618000.09008 | pgbench_accounts |        694558720
 2017-02-09 06:26:40.090084+01 | 1486618000.09008 | pgbench_tellers  |           827392
 2017-02-09 06:26:40.090084+01 | 1486618000.09008 | pgbench_history  |         12328960
 2017-02-09 06:26:40.090084+01 | 1486618000.09008 | pgbench_branches |          1155072

 2017-02-09 06:26:41.2269+01 | 1486618001.2269 | pgbench_accounts |        694558720
 2017-02-09 06:26:41.2269+01 | 1486618001.2269 | pgbench_tellers  |           827392
 2017-02-09 06:26:41.2269+01 | 1486618001.2269 | pgbench_history  |         12886016
 2017-02-09 06:26:41.2269+01 | 1486618001.2269 | pgbench_branches |          1155072

 2017-02-09 06:26:42.398542+01 | 1486618002.39854 | pgbench_accounts |        694558720
 2017-02-09 06:26:42.398542+01 | 1486618002.39854 | pgbench_tellers  |           827392
 2017-02-09 06:26:42.398542+01 | 1486618002.39854 | pgbench_history  |         13467648
 2017-02-09 06:26:42.398542+01 | 1486618002.39854 | pgbench_branches |          1155072

 2017-02-09 06:26:43.51915+01 | 1486618003.51915 | pgbench_accounts |        694558720
 2017-02-09 06:26:43.51915+01 | 1486618003.51915 | pgbench_tellers  |           827392
 2017-02-09 06:26:43.51915+01 | 1486618003.51915 | pgbench_history  |         14000128
 2017-02-09 06:26:43.51915+01 | 1486618003.51915 | pgbench_branches |          1155072

 2017-02-09 06:26:44.722312+01 | 1486618004.72231 | pgbench_accounts |        694558720
 2017-02-09 06:26:44.722312+01 | 1486618004.72231 | pgbench_tellers  |           827392
 2017-02-09 06:26:44.722312+01 | 1486618004.72231 | pgbench_history  |         14557184
 2017-02-09 06:26:44.722312+01 | 1486618004.72231 | pgbench_branches |          1155072

 2017-02-09 06:26:45.877852+01 | 1486618005.87785 | pgbench_accounts |        694558720
 2017-02-09 06:26:45.877852+01 | 1486618005.87785 | pgbench_tellers  |           827392
 2017-02-09 06:26:45.877852+01 | 1486618005.87785 | pgbench_history  |         15073280
 2017-02-09 06:26:45.877852+01 | 1486618005.87785 | pgbench_branches |          1155072

 2017-02-09 06:26:47.009573+01 | 1486618007.00957 | pgbench_accounts |        694558720
 2017-02-09 06:26:47.009573+01 | 1486618007.00957 | pgbench_tellers  |           827392
 2017-02-09 06:26:47.009573+01 | 1486618007.00957 | pgbench_history  |         15622144
 2017-02-09 06:26:47.009573+01 | 1486618007.00957 | pgbench_branches |          1155072

 2017-02-09 06:26:48.110649+01 | 1486618008.11065 | pgbench_accounts |        694558720
 2017-02-09 06:26:48.110649+01 | 1486618008.11065 | pgbench_tellers  |           827392
 2017-02-09 06:26:48.110649+01 | 1486618008.11065 | pgbench_history  |         16138240
 2017-02-09 06:26:48.110649+01 | 1486618008.11065 | pgbench_branches |          1155072

 2017-02-09 06:26:49.270786+01 | 1486618009.27079 | pgbench_accounts |        694558720
 2017-02-09 06:26:49.270786+01 | 1486618009.27079 | pgbench_tellers  |           827392
 2017-02-09 06:26:49.270786+01 | 1486618009.27079 | pgbench_history  |         16678912
 2017-02-09 06:26:49.270786+01 | 1486618009.27079 | pgbench_branches |          1155072

 2017-02-09 06:26:50.444466+01 | 1486618010.44447 | pgbench_accounts |        694558720
 2017-02-09 06:26:50.444466+01 | 1486618010.44447 | pgbench_tellers  |           827392
 2017-02-09 06:26:50.444466+01 | 1486618010.44447 | pgbench_history  |         17227776
 2017-02-09 06:26:50.444466+01 | 1486618010.44447 | pgbench_branches |          1155072

 2017-02-09 06:26:51.532182+01 | 1486618011.53218 | pgbench_accounts |        694558720
 2017-02-09 06:26:51.532182+01 | 1486618011.53218 | pgbench_tellers  |           827392
 2017-02-09 06:26:51.532182+01 | 1486618011.53218 | pgbench_history  |         17743872
 2017-02-09 06:26:51.532182+01 | 1486618011.53218 | pgbench_branches |          1155072

 2017-02-09 06:26:52.677722+01 | 1486618012.67772 | pgbench_accounts |        694558720
 2017-02-09 06:26:52.677722+01 | 1486618012.67772 | pgbench_tellers  |           827392
 2017-02-09 06:26:52.677722+01 | 1486618012.67772 | pgbench_history  |         18276352
 2017-02-09 06:26:52.677722+01 | 1486618012.67772 | pgbench_branches |          1155072

 2017-02-09 06:26:53.858524+01 | 1486618013.85852 | pgbench_accounts |        694558720
 2017-02-09 06:26:53.858524+01 | 1486618013.85852 | pgbench_tellers  |           827392
 2017-02-09 06:26:53.858524+01 | 1486618013.85852 | pgbench_history  |         18841600
 2017-02-09 06:26:53.858524+01 | 1486618013.85852 | pgbench_branches |          1155072

 2017-02-09 06:26:55.036528+01 | 1486618015.03653 | pgbench_accounts |        694558720
 2017-02-09 06:26:55.036528+01 | 1486618015.03653 | pgbench_tellers  |           827392
 2017-02-09 06:26:55.036528+01 | 1486618015.03653 | pgbench_history  |         19423232
 2017-02-09 06:26:55.036528+01 | 1486618015.03653 | pgbench_branches |          1155072

 2017-02-09 06:26:56.189203+01 | 1486618016.1892 | pgbench_accounts |        694558720
 2017-02-09 06:26:56.189203+01 | 1486618016.1892 | pgbench_tellers  |           827392
 2017-02-09 06:26:56.189203+01 | 1486618016.1892 | pgbench_history  |         19955712
 2017-02-09 06:26:56.189203+01 | 1486618016.1892 | pgbench_branches |          1155072

 2017-02-09 06:26:57.336235+01 | 1486618017.33624 | pgbench_accounts |        694558720
 2017-02-09 06:26:57.336235+01 | 1486618017.33624 | pgbench_tellers  |           827392
 2017-02-09 06:26:57.336235+01 | 1486618017.33624 | pgbench_history  |         20480000
 2017-02-09 06:26:57.336235+01 | 1486618017.33624 | pgbench_branches |          1155072

 2017-02-09 06:26:58.462071+01 | 1486618018.46207 | pgbench_accounts |        694558720
 2017-02-09 06:26:58.462071+01 | 1486618018.46207 | pgbench_tellers  |           827392
 2017-02-09 06:26:58.462071+01 | 1486618018.46207 | pgbench_history  |         21012480
 2017-02-09 06:26:58.462071+01 | 1486618018.46207 | pgbench_branches |          1155072

 2017-02-09 06:26:59.555683+01 | 1486618019.55568 | pgbench_accounts |        694558720
 2017-02-09 06:26:59.555683+01 | 1486618019.55568 | pgbench_tellers  |           827392
 2017-02-09 06:26:59.555683+01 | 1486618019.55568 | pgbench_history  |         21520384
 2017-02-09 06:26:59.555683+01 | 1486618019.55568 | pgbench_branches |          1155072

 2017-02-09 06:27:00.71651+01 | 1486618020.71651 | pgbench_accounts |        694558720
 2017-02-09 06:27:00.71651+01 | 1486618020.71651 | pgbench_tellers  |           827392
 2017-02-09 06:27:00.71651+01 | 1486618020.71651 | pgbench_history  |         22069248
 2017-02-09 06:27:00.71651+01 | 1486618020.71651 | pgbench_branches |          1155072

 2017-02-09 06:27:01.891358+01 | 1486618021.89136 | pgbench_accounts |        694558720
 2017-02-09 06:27:01.891358+01 | 1486618021.89136 | pgbench_tellers  |           827392
 2017-02-09 06:27:01.891358+01 | 1486618021.89136 | pgbench_history  |         22626304
 2017-02-09 06:27:01.891358+01 | 1486618021.89136 | pgbench_branches |          1155072

 2017-02-09 06:27:03.046441+01 | 1486618023.04644 | pgbench_accounts |        694558720
 2017-02-09 06:27:03.046441+01 | 1486618023.04644 | pgbench_tellers  |           827392
 2017-02-09 06:27:03.046441+01 | 1486618023.04644 | pgbench_history  |         23158784
 2017-02-09 06:27:03.046441+01 | 1486618023.04644 | pgbench_branches |          1155072

 2017-02-09 06:27:04.179221+01 | 1486618024.17922 | pgbench_accounts |        694558720
 2017-02-09 06:27:04.179221+01 | 1486618024.17922 | pgbench_tellers  |           827392
 2017-02-09 06:27:04.179221+01 | 1486618024.17922 | pgbench_history  |         23691264
 2017-02-09 06:27:04.179221+01 | 1486618024.17922 | pgbench_branches |          1155072

 2017-02-09 06:27:05.342353+01 | 1486618025.34235 | pgbench_accounts |        694558720
 2017-02-09 06:27:05.342353+01 | 1486618025.34235 | pgbench_tellers  |           827392
 2017-02-09 06:27:05.342353+01 | 1486618025.34235 | pgbench_history  |         24231936
 2017-02-09 06:27:05.342353+01 | 1486618025.34235 | pgbench_branches |          1155072

 2017-02-09 06:27:06.470078+01 | 1486618026.47008 | pgbench_accounts |        694558720
 2017-02-09 06:27:06.470078+01 | 1486618026.47008 | pgbench_tellers  |           827392
 2017-02-09 06:27:06.470078+01 | 1486618026.47008 | pgbench_history  |         24756224
 2017-02-09 06:27:06.470078+01 | 1486618026.47008 | pgbench_branches |          1155072

 2017-02-09 06:27:07.590368+01 | 1486618027.59037 | pgbench_accounts |        694558720
 2017-02-09 06:27:07.590368+01 | 1486618027.59037 | pgbench_tellers  |           827392
 2017-02-09 06:27:07.590368+01 | 1486618027.59037 | pgbench_history  |         25272320
 2017-02-09 06:27:07.590368+01 | 1486618027.59037 | pgbench_branches |          1155072

 2017-02-09 06:27:08.709587+01 | 1486618028.70959 | pgbench_accounts |        694558720
 2017-02-09 06:27:08.709587+01 | 1486618028.70959 | pgbench_tellers  |           827392
 2017-02-09 06:27:08.709587+01 | 1486618028.70959 | pgbench_history  |         25870336
 2017-02-09 06:27:08.709587+01 | 1486618028.70959 | pgbench_branches |          1155072

 2017-02-09 06:27:09.849574+01 | 1486618029.84957 | pgbench_accounts |        694558720
 2017-02-09 06:27:09.849574+01 | 1486618029.84957 | pgbench_tellers  |           827392
 2017-02-09 06:27:09.849574+01 | 1486618029.84957 | pgbench_history  |         26419200
 2017-02-09 06:27:09.849574+01 | 1486618029.84957 | pgbench_branches |          1155072

 2017-02-09 06:27:11.02957+01 | 1486618031.02957 | pgbench_accounts |        694558720
 2017-02-09 06:27:11.02957+01 | 1486618031.02957 | pgbench_tellers  |           827392
 2017-02-09 06:27:11.02957+01 | 1486618031.02957 | pgbench_history  |         26943488
 2017-02-09 06:27:11.02957+01 | 1486618031.02957 | pgbench_branches |          1155072

 2017-02-09 06:27:12.208123+01 | 1486618032.20812 | pgbench_accounts |        694558720
 2017-02-09 06:27:12.208123+01 | 1486618032.20812 | pgbench_tellers  |           827392
 2017-02-09 06:27:12.208123+01 | 1486618032.20812 | pgbench_history  |         27459584
 2017-02-09 06:27:12.208123+01 | 1486618032.20812 | pgbench_branches |          1155072

 2017-02-09 06:27:13.342422+01 | 1486618033.34242 | pgbench_accounts |        694558720
 2017-02-09 06:27:13.342422+01 | 1486618033.34242 | pgbench_tellers  |           827392
 2017-02-09 06:27:13.342422+01 | 1486618033.34242 | pgbench_history  |         27983872
 2017-02-09 06:27:13.342422+01 | 1486618033.34242 | pgbench_branches |          1155072

 2017-02-09 06:27:14.522753+01 | 1486618034.52275 | pgbench_accounts |        694558720
 2017-02-09 06:27:14.522753+01 | 1486618034.52275 | pgbench_tellers  |           827392
 2017-02-09 06:27:14.522753+01 | 1486618034.52275 | pgbench_history  |         28532736
 2017-02-09 06:27:14.522753+01 | 1486618034.52275 | pgbench_branches |          1155072

 2017-02-09 06:27:15.655332+01 | 1486618035.65533 | pgbench_accounts |        694558720
 2017-02-09 06:27:15.655332+01 | 1486618035.65533 | pgbench_tellers  |           827392
 2017-02-09 06:27:15.655332+01 | 1486618035.65533 | pgbench_history  |         29057024
 2017-02-09 06:27:15.655332+01 | 1486618035.65533 | pgbench_branches |          1155072

 2017-02-09 06:27:16.793844+01 | 1486618036.79384 | pgbench_accounts |        694558720
 2017-02-09 06:27:16.793844+01 | 1486618036.79384 | pgbench_tellers  |           827392
 2017-02-09 06:27:16.793844+01 | 1486618036.79384 | pgbench_history  |         29597696
 2017-02-09 06:27:16.793844+01 | 1486618036.79384 | pgbench_branches |          1155072

 2017-02-09 06:27:17.944974+01 | 1486618037.94497 | pgbench_accounts |        694558720
 2017-02-09 06:27:17.944974+01 | 1486618037.94497 | pgbench_tellers  |           827392
 2017-02-09 06:27:17.944974+01 | 1486618037.94497 | pgbench_history  |         30146560
 2017-02-09 06:27:17.944974+01 | 1486618037.94497 | pgbench_branches |          1155072

 2017-02-09 06:27:19.053216+01 | 1486618039.05322 | pgbench_accounts |        694558720
 2017-02-09 06:27:19.053216+01 | 1486618039.05322 | pgbench_tellers  |           827392
 2017-02-09 06:27:19.053216+01 | 1486618039.05322 | pgbench_history  |         30654464
 2017-02-09 06:27:19.053216+01 | 1486618039.05322 | pgbench_branches |          1155072

 2017-02-09 06:27:20.201402+01 | 1486618040.2014 | pgbench_accounts |        694558720
 2017-02-09 06:27:20.201402+01 | 1486618040.2014 | pgbench_tellers  |           827392
 2017-02-09 06:27:20.201402+01 | 1486618040.2014 | pgbench_history  |         31186944
 2017-02-09 06:27:20.201402+01 | 1486618040.2014 | pgbench_branches |          1155072

 2017-02-09 06:27:21.336093+01 | 1486618041.33609 | pgbench_accounts |        694558720
 2017-02-09 06:27:21.336093+01 | 1486618041.33609 | pgbench_tellers  |           827392
 2017-02-09 06:27:21.336093+01 | 1486618041.33609 | pgbench_history  |         31735808
 2017-02-09 06:27:21.336093+01 | 1486618041.33609 | pgbench_branches |          1155072

 2017-02-09 06:27:22.464554+01 | 1486618042.46455 | pgbench_accounts |        694558720
 2017-02-09 06:27:22.464554+01 | 1486618042.46455 | pgbench_tellers  |           827392
 2017-02-09 06:27:22.464554+01 | 1486618042.46455 | pgbench_history  |         32276480
 2017-02-09 06:27:22.464554+01 | 1486618042.46455 | pgbench_branches |          1155072

 2017-02-09 06:27:23.57752+01 | 1486618043.57752 | pgbench_accounts |        694558720
 2017-02-09 06:27:23.57752+01 | 1486618043.57752 | pgbench_tellers  |           827392
 2017-02-09 06:27:23.57752+01 | 1486618043.57752 | pgbench_history  |         32784384
 2017-02-09 06:27:23.57752+01 | 1486618043.57752 | pgbench_branches |          1155072

 2017-02-09 06:27:24.712049+01 | 1486618044.71205 | pgbench_accounts |        694558720
 2017-02-09 06:27:24.712049+01 | 1486618044.71205 | pgbench_tellers  |           827392
 2017-02-09 06:27:24.712049+01 | 1486618044.71205 | pgbench_history  |         33325056
 2017-02-09 06:27:24.712049+01 | 1486618044.71205 | pgbench_branches |          1155072

 2017-02-09 06:27:25.912526+01 | 1486618045.91253 | pgbench_accounts |        694558720
 2017-02-09 06:27:25.912526+01 | 1486618045.91253 | pgbench_tellers  |           827392
 2017-02-09 06:27:25.912526+01 | 1486618045.91253 | pgbench_history  |         33890304
 2017-02-09 06:27:25.912526+01 | 1486618045.91253 | pgbench_branches |          1155072

 2017-02-09 06:27:27.073275+01 | 1486618047.07328 | pgbench_accounts |        694558720
 2017-02-09 06:27:27.073275+01 | 1486618047.07328 | pgbench_tellers  |           827392
 2017-02-09 06:27:27.073275+01 | 1486618047.07328 | pgbench_history  |         34398208
 2017-02-09 06:27:27.073275+01 | 1486618047.07328 | pgbench_branches |          1155072

 2017-02-09 06:27:28.18478+01 | 1486618048.18478 | pgbench_accounts |        694558720
 2017-02-09 06:27:28.18478+01 | 1486618048.18478 | pgbench_tellers  |           827392
 2017-02-09 06:27:28.18478+01 | 1486618048.18478 | pgbench_history  |         34881536
 2017-02-09 06:27:28.18478+01 | 1486618048.18478 | pgbench_branches |          1155072

 2017-02-09 06:27:29.367998+01 | 1486618049.368 | pgbench_accounts |        694558720
 2017-02-09 06:27:29.367998+01 | 1486618049.368 | pgbench_tellers  |           827392
 2017-02-09 06:27:29.367998+01 | 1486618049.368 | pgbench_history  |         35422208
 2017-02-09 06:27:29.367998+01 | 1486618049.368 | pgbench_branches |          1155072

 2017-02-09 06:27:30.528062+01 | 1486618050.52806 | pgbench_accounts |        694558720
 2017-02-09 06:27:30.528062+01 | 1486618050.52806 | pgbench_tellers  |           827392
 2017-02-09 06:27:30.528062+01 | 1486618050.52806 | pgbench_history  |         35938304
 2017-02-09 06:27:30.528062+01 | 1486618050.52806 | pgbench_branches |          1155072

 2017-02-09 06:27:31.688113+01 | 1486618051.68811 | pgbench_accounts |        694558720
 2017-02-09 06:27:31.688113+01 | 1486618051.68811 | pgbench_tellers  |           827392
 2017-02-09 06:27:31.688113+01 | 1486618051.68811 | pgbench_history  |         36446208
 2017-02-09 06:27:31.688113+01 | 1486618051.68811 | pgbench_branches |          1155072

 2017-02-09 06:27:32.80054+01 | 1486618052.80054 | pgbench_accounts |        694558720
 2017-02-09 06:27:32.80054+01 | 1486618052.80054 | pgbench_tellers  |           827392
 2017-02-09 06:27:32.80054+01 | 1486618052.80054 | pgbench_history  |         36954112
 2017-02-09 06:27:32.80054+01 | 1486618052.80054 | pgbench_branches |          1155072

 2017-02-09 06:27:33.930536+01 | 1486618053.93054 | pgbench_accounts |        694558720
 2017-02-09 06:27:33.930536+01 | 1486618053.93054 | pgbench_tellers  |           827392
 2017-02-09 06:27:33.930536+01 | 1486618053.93054 | pgbench_history  |         37486592
 2017-02-09 06:27:33.930536+01 | 1486618053.93054 | pgbench_branches |          1155072

 2017-02-09 06:27:35.095692+01 | 1486618055.09569 | pgbench_accounts |        694558720
 2017-02-09 06:27:35.095692+01 | 1486618055.09569 | pgbench_tellers  |           827392
 2017-02-09 06:27:35.095692+01 | 1486618055.09569 | pgbench_history  |         38068224
 2017-02-09 06:27:35.095692+01 | 1486618055.09569 | pgbench_branches |          1155072

 2017-02-09 06:27:36.215005+01 | 1486618056.215 | pgbench_accounts |        694558720
 2017-02-09 06:27:36.215005+01 | 1486618056.215 | pgbench_tellers  |           827392
 2017-02-09 06:27:36.215005+01 | 1486618056.215 | pgbench_history  |         38592512
 2017-02-09 06:27:36.215005+01 | 1486618056.215 | pgbench_branches |          1155072

 2017-02-09 06:27:37.379027+01 | 1486618057.37903 | pgbench_accounts |        694558720
 2017-02-09 06:27:37.379027+01 | 1486618057.37903 | pgbench_tellers  |           827392
 2017-02-09 06:27:37.379027+01 | 1486618057.37903 | pgbench_history  |         39141376
 2017-02-09 06:27:37.379027+01 | 1486618057.37903 | pgbench_branches |          1155072

 2017-02-09 06:27:38.551678+01 | 1486618058.55168 | pgbench_accounts |        694558720
 2017-02-09 06:27:38.551678+01 | 1486618058.55168 | pgbench_tellers  |           827392
 2017-02-09 06:27:38.551678+01 | 1486618058.55168 | pgbench_history  |         39706624
 2017-02-09 06:27:38.551678+01 | 1486618058.55168 | pgbench_branches |          1155072

 2017-02-09 06:27:39.742333+01 | 1486618059.74233 | pgbench_accounts |        694558720
 2017-02-09 06:27:39.742333+01 | 1486618059.74233 | pgbench_tellers  |           827392
 2017-02-09 06:27:39.742333+01 | 1486618059.74233 | pgbench_history  |         40288256
 2017-02-09 06:27:39.742333+01 | 1486618059.74233 | pgbench_branches |          1155072

 2017-02-09 06:27:40.914855+01 | 1486618060.91486 | pgbench_accounts |        694558720
 2017-02-09 06:27:40.914855+01 | 1486618060.91486 | pgbench_tellers  |           827392
 2017-02-09 06:27:40.914855+01 | 1486618060.91486 | pgbench_history  |         40812544
 2017-02-09 06:27:40.914855+01 | 1486618060.91486 | pgbench_branches |          1155072

 2017-02-09 06:27:42.035076+01 | 1486618062.03508 | pgbench_accounts |        694558720
 2017-02-09 06:27:42.035076+01 | 1486618062.03508 | pgbench_tellers  |           827392
 2017-02-09 06:27:42.035076+01 | 1486618062.03508 | pgbench_history  |         41336832
 2017-02-09 06:27:42.035076+01 | 1486618062.03508 | pgbench_branches |          1155072

 2017-02-09 06:27:43.142566+01 | 1486618063.14257 | pgbench_accounts |        694558720
 2017-02-09 06:27:43.142566+01 | 1486618063.14257 | pgbench_tellers  |           827392
 2017-02-09 06:27:43.142566+01 | 1486618063.14257 | pgbench_history  |         41926656
 2017-02-09 06:27:43.142566+01 | 1486618063.14257 | pgbench_branches |          1155072

 2017-02-09 06:27:44.274889+01 | 1486618064.27489 | pgbench_accounts |        694558720
 2017-02-09 06:27:44.274889+01 | 1486618064.27489 | pgbench_tellers  |           827392
 2017-02-09 06:27:44.274889+01 | 1486618064.27489 | pgbench_history  |         42647552
 2017-02-09 06:27:44.274889+01 | 1486618064.27489 | pgbench_branches |          1155072

 2017-02-09 06:27:45.4038+01 | 1486618065.4038 | pgbench_accounts |        694558720
 2017-02-09 06:27:45.4038+01 | 1486618065.4038 | pgbench_tellers  |           827392
 2017-02-09 06:27:45.4038+01 | 1486618065.4038 | pgbench_history  |         43024384
 2017-02-09 06:27:45.4038+01 | 1486618065.4038 | pgbench_branches |          1155072

 2017-02-09 06:27:46.506574+01 | 1486618066.50657 | pgbench_accounts |        694558720
 2017-02-09 06:27:46.506574+01 | 1486618066.50657 | pgbench_tellers  |           827392
 2017-02-09 06:27:46.506574+01 | 1486618066.50657 | pgbench_history  |         43483136
 2017-02-09 06:27:46.506574+01 | 1486618066.50657 | pgbench_branches |          1155072

 2017-02-09 06:27:47.612969+01 | 1486618067.61297 | pgbench_accounts |        694558720
 2017-02-09 06:27:47.612969+01 | 1486618067.61297 | pgbench_tellers  |           827392
 2017-02-09 06:27:47.612969+01 | 1486618067.61297 | pgbench_history  |         44023808
 2017-02-09 06:27:47.612969+01 | 1486618067.61297 | pgbench_branches |          1155072

 2017-02-09 06:27:48.710432+01 | 1486618068.71043 | pgbench_accounts |        694558720
 2017-02-09 06:27:48.710432+01 | 1486618068.71043 | pgbench_tellers  |           827392
 2017-02-09 06:27:48.710432+01 | 1486618068.71043 | pgbench_history  |         44400640
 2017-02-09 06:27:48.710432+01 | 1486618068.71043 | pgbench_branches |          1155072

 2017-02-09 06:27:49.883431+01 | 1486618069.88343 | pgbench_accounts |        694558720
 2017-02-09 06:27:49.883431+01 | 1486618069.88343 | pgbench_tellers  |           827392
 2017-02-09 06:27:49.883431+01 | 1486618069.88343 | pgbench_history  |         45039616
 2017-02-09 06:27:49.883431+01 | 1486618069.88343 | pgbench_branches |          1155072

 2017-02-09 06:27:51.086966+01 | 1486618071.08697 | pgbench_accounts |        694558720
 2017-02-09 06:27:51.086966+01 | 1486618071.08697 | pgbench_tellers  |           827392
 2017-02-09 06:27:51.086966+01 | 1486618071.08697 | pgbench_history  |         45539328
 2017-02-09 06:27:51.086966+01 | 1486618071.08697 | pgbench_branches |          1155072

 2017-02-09 06:27:52.17796+01 | 1486618072.17796 | pgbench_accounts |        694558720
 2017-02-09 06:27:52.17796+01 | 1486618072.17796 | pgbench_tellers  |           827392
 2017-02-09 06:27:52.17796+01 | 1486618072.17796 | pgbench_history  |         46063616
 2017-02-09 06:27:52.17796+01 | 1486618072.17796 | pgbench_branches |          1155072

 2017-02-09 06:27:53.366606+01 | 1486618073.36661 | pgbench_accounts |        694558720
 2017-02-09 06:27:53.366606+01 | 1486618073.36661 | pgbench_tellers  |           827392
 2017-02-09 06:27:53.366606+01 | 1486618073.36661 | pgbench_history  |         46604288
 2017-02-09 06:27:53.366606+01 | 1486618073.36661 | pgbench_branches |          1155072

 2017-02-09 06:27:54.509954+01 | 1486618074.50995 | pgbench_accounts |        694558720
 2017-02-09 06:27:54.509954+01 | 1486618074.50995 | pgbench_tellers  |           827392
 2017-02-09 06:27:54.509954+01 | 1486618074.50995 | pgbench_history  |         47153152
 2017-02-09 06:27:54.509954+01 | 1486618074.50995 | pgbench_branches |          1155072

 2017-02-09 06:27:55.662292+01 | 1486618075.66229 | pgbench_accounts |        694558720
 2017-02-09 06:27:55.662292+01 | 1486618075.66229 | pgbench_tellers  |           827392
 2017-02-09 06:27:55.662292+01 | 1486618075.66229 | pgbench_history  |         47693824
 2017-02-09 06:27:55.662292+01 | 1486618075.66229 | pgbench_branches |          1155072

 2017-02-09 06:27:56.73782+01 | 1486618076.73782 | pgbench_accounts |        694558720
 2017-02-09 06:27:56.73782+01 | 1486618076.73782 | pgbench_tellers  |           827392
 2017-02-09 06:27:56.73782+01 | 1486618076.73782 | pgbench_history  |         48193536
 2017-02-09 06:27:56.73782+01 | 1486618076.73782 | pgbench_branches |          1155072

 2017-02-09 06:27:57.855988+01 | 1486618077.85599 | pgbench_accounts |        694558720
 2017-02-09 06:27:57.855988+01 | 1486618077.85599 | pgbench_tellers  |           827392
 2017-02-09 06:27:57.855988+01 | 1486618077.85599 | pgbench_history  |         48742400
 2017-02-09 06:27:57.855988+01 | 1486618077.85599 | pgbench_branches |          1155072

 2017-02-09 06:27:59.061752+01 | 1486618079.06175 | pgbench_accounts |        694558720
 2017-02-09 06:27:59.061752+01 | 1486618079.06175 | pgbench_tellers  |           827392
 2017-02-09 06:27:59.061752+01 | 1486618079.06175 | pgbench_history  |         49299456
 2017-02-09 06:27:59.061752+01 | 1486618079.06175 | pgbench_branches |          1155072

 2017-02-09 06:28:00.195014+01 | 1486618080.19501 | pgbench_accounts |        694558720
 2017-02-09 06:28:00.195014+01 | 1486618080.19501 | pgbench_tellers  |           827392
 2017-02-09 06:28:00.195014+01 | 1486618080.19501 | pgbench_history  |         49840128
 2017-02-09 06:28:00.195014+01 | 1486618080.19501 | pgbench_branches |          1155072

 2017-02-09 06:28:01.289538+01 | 1486618081.28954 | pgbench_accounts |        694558720
 2017-02-09 06:28:01.289538+01 | 1486618081.28954 | pgbench_tellers  |           827392
 2017-02-09 06:28:01.289538+01 | 1486618081.28954 | pgbench_history  |         50315264
 2017-02-09 06:28:01.289538+01 | 1486618081.28954 | pgbench_branches |          1155072

 2017-02-09 06:28:02.401783+01 | 1486618082.40178 | pgbench_accounts |        694558720
 2017-02-09 06:28:02.401783+01 | 1486618082.40178 | pgbench_tellers  |           827392
 2017-02-09 06:28:02.401783+01 | 1486618082.40178 | pgbench_history  |         50872320
 2017-02-09 06:28:02.401783+01 | 1486618082.40178 | pgbench_branches |          1155072

 2017-02-09 06:28:03.545207+01 | 1486618083.54521 | pgbench_accounts |        694558720
 2017-02-09 06:28:03.545207+01 | 1486618083.54521 | pgbench_tellers  |           827392
 2017-02-09 06:28:03.545207+01 | 1486618083.54521 | pgbench_history  |         51535872
 2017-02-09 06:28:03.545207+01 | 1486618083.54521 | pgbench_branches |          1155072

 2017-02-09 06:28:04.680841+01 | 1486618084.68084 | pgbench_accounts |        694558720
 2017-02-09 06:28:04.680841+01 | 1486618084.68084 | pgbench_tellers  |           827392
 2017-02-09 06:28:04.680841+01 | 1486618084.68084 | pgbench_history  |         51929088
 2017-02-09 06:28:04.680841+01 | 1486618084.68084 | pgbench_branches |          1155072

 2017-02-09 06:28:05.774839+01 | 1486618085.77484 | pgbench_accounts |        694558720
 2017-02-09 06:28:05.774839+01 | 1486618085.77484 | pgbench_tellers  |           827392
 2017-02-09 06:28:05.774839+01 | 1486618085.77484 | pgbench_history  |         52436992
 2017-02-09 06:28:05.774839+01 | 1486618085.77484 | pgbench_branches |          1155072

 2017-02-09 06:28:06.911098+01 | 1486618086.9111 | pgbench_accounts |        694558720
 2017-02-09 06:28:06.911098+01 | 1486618086.9111 | pgbench_tellers  |           827392
 2017-02-09 06:28:06.911098+01 | 1486618086.9111 | pgbench_history  |         52953088
 2017-02-09 06:28:06.911098+01 | 1486618086.9111 | pgbench_branches |          1155072

 2017-02-09 06:28:07.998544+01 | 1486618087.99854 | pgbench_accounts |        694558720
 2017-02-09 06:28:07.998544+01 | 1486618087.99854 | pgbench_tellers  |           827392
 2017-02-09 06:28:07.998544+01 | 1486618087.99854 | pgbench_history  |         53444608
 2017-02-09 06:28:07.998544+01 | 1486618087.99854 | pgbench_branches |          1155072

 2017-02-09 06:28:09.119959+01 | 1486618089.11996 | pgbench_accounts |        694558720
 2017-02-09 06:28:09.119959+01 | 1486618089.11996 | pgbench_tellers  |           827392
 2017-02-09 06:28:09.119959+01 | 1486618089.11996 | pgbench_history  |         54001664
 2017-02-09 06:28:09.119959+01 | 1486618089.11996 | pgbench_branches |          1155072

 2017-02-09 06:28:10.200111+01 | 1486618090.20011 | pgbench_accounts |        694558720
 2017-02-09 06:28:10.200111+01 | 1486618090.20011 | pgbench_tellers  |           827392
 2017-02-09 06:28:10.200111+01 | 1486618090.20011 | pgbench_history  |         54509568
 2017-02-09 06:28:10.200111+01 | 1486618090.20011 | pgbench_branches |          1155072

 2017-02-09 06:28:11.306044+01 | 1486618091.30604 | pgbench_accounts |        694558720
 2017-02-09 06:28:11.306044+01 | 1486618091.30604 | pgbench_tellers  |           827392
 2017-02-09 06:28:11.306044+01 | 1486618091.30604 | pgbench_history  |         55009280
 2017-02-09 06:28:11.306044+01 | 1486618091.30604 | pgbench_branches |          1155072

 2017-02-09 06:28:12.457115+01 | 1486618092.45711 | pgbench_accounts |        694558720
 2017-02-09 06:28:12.457115+01 | 1486618092.45711 | pgbench_tellers  |           827392
 2017-02-09 06:28:12.457115+01 | 1486618092.45711 | pgbench_history  |         55721984
 2017-02-09 06:28:12.457115+01 | 1486618092.45711 | pgbench_branches |          1155072

 2017-02-09 06:28:13.605479+01 | 1486618093.60548 | pgbench_accounts |        694558720
 2017-02-09 06:28:13.605479+01 | 1486618093.60548 | pgbench_tellers  |           827392
 2017-02-09 06:28:13.605479+01 | 1486618093.60548 | pgbench_history  |         56262656
 2017-02-09 06:28:13.605479+01 | 1486618093.60548 | pgbench_branches |          1155072

 2017-02-09 06:28:14.783866+01 | 1486618094.78387 | pgbench_accounts |        694558720
 2017-02-09 06:28:14.783866+01 | 1486618094.78387 | pgbench_tellers  |           827392
 2017-02-09 06:28:14.783866+01 | 1486618094.78387 | pgbench_history  |         56614912
 2017-02-09 06:28:14.783866+01 | 1486618094.78387 | pgbench_branches |          1155072

 2017-02-09 06:28:15.918594+01 | 1486618095.91859 | pgbench_accounts |        694558720
 2017-02-09 06:28:15.918594+01 | 1486618095.91859 | pgbench_tellers  |           827392
 2017-02-09 06:28:15.918594+01 | 1486618095.91859 | pgbench_history  |         57171968
 2017-02-09 06:28:15.918594+01 | 1486618095.91859 | pgbench_branches |          1155072

 2017-02-09 06:28:17.022458+01 | 1486618097.02246 | pgbench_accounts |        694558720
 2017-02-09 06:28:17.022458+01 | 1486618097.02246 | pgbench_tellers  |           827392
 2017-02-09 06:28:17.022458+01 | 1486618097.02246 | pgbench_history  |         57769984
 2017-02-09 06:28:17.022458+01 | 1486618097.02246 | pgbench_branches |          1155072

 2017-02-09 06:28:18.160089+01 | 1486618098.16009 | pgbench_accounts |        694558720
 2017-02-09 06:28:18.160089+01 | 1486618098.16009 | pgbench_tellers  |           827392
 2017-02-09 06:28:18.160089+01 | 1486618098.16009 | pgbench_history  |         58368000
 2017-02-09 06:28:18.160089+01 | 1486618098.16009 | pgbench_branches |          1155072

 2017-02-09 06:28:19.320404+01 | 1486618099.3204 | pgbench_accounts |        694558720
 2017-02-09 06:28:19.320404+01 | 1486618099.3204 | pgbench_tellers  |           827392
 2017-02-09 06:28:19.320404+01 | 1486618099.3204 | pgbench_history  |         58916864
 2017-02-09 06:28:19.320404+01 | 1486618099.3204 | pgbench_branches |          1155072

 2017-02-09 06:28:20.457973+01 | 1486618100.45797 | pgbench_accounts |        694558720
 2017-02-09 06:28:20.457973+01 | 1486618100.45797 | pgbench_tellers  |           827392
 2017-02-09 06:28:20.457973+01 | 1486618100.45797 | pgbench_history  |         59449344
 2017-02-09 06:28:20.457973+01 | 1486618100.45797 | pgbench_branches |          1155072

 2017-02-09 06:28:21.592585+01 | 1486618101.59259 | pgbench_accounts |        694558720
 2017-02-09 06:28:21.592585+01 | 1486618101.59259 | pgbench_tellers  |           827392
 2017-02-09 06:28:21.592585+01 | 1486618101.59259 | pgbench_history  |         59801600
 2017-02-09 06:28:21.592585+01 | 1486618101.59259 | pgbench_branches |          1155072

 2017-02-09 06:28:22.67441+01 | 1486618102.67441 | pgbench_accounts |        694558720
 2017-02-09 06:28:22.67441+01 | 1486618102.67441 | pgbench_tellers  |           827392
 2017-02-09 06:28:22.67441+01 | 1486618102.67441 | pgbench_history  |         60317696
 2017-02-09 06:28:22.67441+01 | 1486618102.67441 | pgbench_branches |          1155072

 2017-02-09 06:28:23.821281+01 | 1486618103.82128 | pgbench_accounts |        694558720
 2017-02-09 06:28:23.821281+01 | 1486618103.82128 | pgbench_tellers  |           827392
 2017-02-09 06:28:23.821281+01 | 1486618103.82128 | pgbench_history  |         60833792
 2017-02-09 06:28:23.821281+01 | 1486618103.82128 | pgbench_branches |          1155072

 2017-02-09 06:28:24.929668+01 | 1486618104.92967 | pgbench_accounts |        694558720
 2017-02-09 06:28:24.929668+01 | 1486618104.92967 | pgbench_tellers  |           827392
 2017-02-09 06:28:24.929668+01 | 1486618104.92967 | pgbench_history  |         61349888
 2017-02-09 06:28:24.929668+01 | 1486618104.92967 | pgbench_branches |          1155072

 2017-02-09 06:28:26.084587+01 | 1486618106.08459 | pgbench_accounts |        694558720
 2017-02-09 06:28:26.084587+01 | 1486618106.08459 | pgbench_tellers  |           827392
 2017-02-09 06:28:26.084587+01 | 1486618106.08459 | pgbench_history  |         61890560
 2017-02-09 06:28:26.084587+01 | 1486618106.08459 | pgbench_branches |          1155072

 2017-02-09 06:28:27.216883+01 | 1486618107.21688 | pgbench_accounts |        694558720
 2017-02-09 06:28:27.216883+01 | 1486618107.21688 | pgbench_tellers  |           827392
 2017-02-09 06:28:27.216883+01 | 1486618107.21688 | pgbench_history  |         62373888
 2017-02-09 06:28:27.216883+01 | 1486618107.21688 | pgbench_branches |          1155072

 2017-02-09 06:28:28.353026+01 | 1486618108.35303 | pgbench_accounts |        694558720
 2017-02-09 06:28:28.353026+01 | 1486618108.35303 | pgbench_tellers  |           827392
 2017-02-09 06:28:28.353026+01 | 1486618108.35303 | pgbench_history  |         62889984
 2017-02-09 06:28:28.353026+01 | 1486618108.35303 | pgbench_branches |          1155072

 2017-02-09 06:28:29.524658+01 | 1486618109.52466 | pgbench_accounts |        694558720
 2017-02-09 06:28:29.524658+01 | 1486618109.52466 | pgbench_tellers  |           827392
 2017-02-09 06:28:29.524658+01 | 1486618109.52466 | pgbench_history  |         63422464
 2017-02-09 06:28:29.524658+01 | 1486618109.52466 | pgbench_branches |          1155072

 2017-02-09 06:28:30.691722+01 | 1486618110.69172 | pgbench_accounts |        694558720
 2017-02-09 06:28:30.691722+01 | 1486618110.69172 | pgbench_tellers  |           827392
 2017-02-09 06:28:30.691722+01 | 1486618110.69172 | pgbench_history  |         63954944
 2017-02-09 06:28:30.691722+01 | 1486618110.69172 | pgbench_branches |          1155072

 2017-02-09 06:28:31.805185+01 | 1486618111.80519 | pgbench_accounts |        694558720
 2017-02-09 06:28:31.805185+01 | 1486618111.80519 | pgbench_tellers  |           827392
 2017-02-09 06:28:31.805185+01 | 1486618111.80519 | pgbench_history  |         64421888
 2017-02-09 06:28:31.805185+01 | 1486618111.80519 | pgbench_branches |          1155072

 2017-02-09 06:28:32.882669+01 | 1486618112.88267 | pgbench_accounts |        694558720
 2017-02-09 06:28:32.882669+01 | 1486618112.88267 | pgbench_tellers  |           827392
 2017-02-09 06:28:32.882669+01 | 1486618112.88267 | pgbench_history  |         65044480
 2017-02-09 06:28:32.882669+01 | 1486618112.88267 | pgbench_branches |          1155072

 2017-02-09 06:28:34.00471+01 | 1486618114.00471 | pgbench_accounts |        694558720
 2017-02-09 06:28:34.00471+01 | 1486618114.00471 | pgbench_tellers  |           827392
 2017-02-09 06:28:34.00471+01 | 1486618114.00471 | pgbench_history  |         65806336
 2017-02-09 06:28:34.00471+01 | 1486618114.00471 | pgbench_branches |          1155072

 2017-02-09 06:28:35.155033+01 | 1486618115.15503 | pgbench_accounts |        694558720
 2017-02-09 06:28:35.155033+01 | 1486618115.15503 | pgbench_tellers  |           827392
 2017-02-09 06:28:35.155033+01 | 1486618115.15503 | pgbench_history  |         66199552
 2017-02-09 06:28:35.155033+01 | 1486618115.15503 | pgbench_branches |          1155072

 2017-02-09 06:28:36.250125+01 | 1486618116.25012 | pgbench_accounts |        694558720
 2017-02-09 06:28:36.250125+01 | 1486618116.25012 | pgbench_tellers  |           827392
 2017-02-09 06:28:36.250125+01 | 1486618116.25012 | pgbench_history  |         66904064
 2017-02-09 06:28:36.250125+01 | 1486618116.25012 | pgbench_branches |          1155072

 2017-02-09 06:28:37.396694+01 | 1486618117.39669 | pgbench_accounts |        694558720
 2017-02-09 06:28:37.396694+01 | 1486618117.39669 | pgbench_tellers  |           827392
 2017-02-09 06:28:37.396694+01 | 1486618117.39669 | pgbench_history  |         67256320
 2017-02-09 06:28:37.396694+01 | 1486618117.39669 | pgbench_branches |          1155072

 2017-02-09 06:28:38.581815+01 | 1486618118.58182 | pgbench_accounts |        694558720
 2017-02-09 06:28:38.581815+01 | 1486618118.58182 | pgbench_tellers  |           827392
 2017-02-09 06:28:38.581815+01 | 1486618118.58182 | pgbench_history  |         67862528
 2017-02-09 06:28:38.581815+01 | 1486618118.58182 | pgbench_branches |          1155072

 2017-02-09 06:28:39.741173+01 | 1486618119.74117 | pgbench_accounts |        694558720
 2017-02-09 06:28:39.741173+01 | 1486618119.74117 | pgbench_tellers  |           827392
 2017-02-09 06:28:39.741173+01 | 1486618119.74117 | pgbench_history  |         68214784
 2017-02-09 06:28:39.741173+01 | 1486618119.74117 | pgbench_branches |          1155072

 2017-02-09 06:28:40.869735+01 | 1486618120.86974 | pgbench_accounts |        694558720
 2017-02-09 06:28:40.869735+01 | 1486618120.86974 | pgbench_tellers  |           827392
 2017-02-09 06:28:40.869735+01 | 1486618120.86974 | pgbench_history  |         68722688
 2017-02-09 06:28:40.869735+01 | 1486618120.86974 | pgbench_branches |          1155072

 2017-02-09 06:28:42.019879+01 | 1486618122.01988 | pgbench_accounts |        694558720
 2017-02-09 06:28:42.019879+01 | 1486618122.01988 | pgbench_tellers  |           827392
 2017-02-09 06:28:42.019879+01 | 1486618122.01988 | pgbench_history  |         69386240
 2017-02-09 06:28:42.019879+01 | 1486618122.01988 | pgbench_branches |          1155072

 2017-02-09 06:28:43.158208+01 | 1486618123.15821 | pgbench_accounts |        694558720
 2017-02-09 06:28:43.158208+01 | 1486618123.15821 | pgbench_tellers  |           827392
 2017-02-09 06:28:43.158208+01 | 1486618123.15821 | pgbench_history  |         69976064
 2017-02-09 06:28:43.158208+01 | 1486618123.15821 | pgbench_branches |          1155072

 2017-02-09 06:28:44.318027+01 | 1486618124.31803 | pgbench_accounts |        694558720
 2017-02-09 06:28:44.318027+01 | 1486618124.31803 | pgbench_tellers  |           827392
 2017-02-09 06:28:44.318027+01 | 1486618124.31803 | pgbench_history  |         70418432
 2017-02-09 06:28:44.318027+01 | 1486618124.31803 | pgbench_branches |          1155072

 2017-02-09 06:28:45.446514+01 | 1486618125.44651 | pgbench_accounts |        694558720
 2017-02-09 06:28:45.446514+01 | 1486618125.44651 | pgbench_tellers  |           827392
 2017-02-09 06:28:45.446514+01 | 1486618125.44651 | pgbench_history  |         70942720
 2017-02-09 06:28:45.446514+01 | 1486618125.44651 | pgbench_branches |          1155072

 2017-02-09 06:28:46.59073+01 | 1486618126.59073 | pgbench_accounts |        694558720
 2017-02-09 06:28:46.59073+01 | 1486618126.59073 | pgbench_tellers  |           827392
 2017-02-09 06:28:46.59073+01 | 1486618126.59073 | pgbench_history  |         71467008
 2017-02-09 06:28:46.59073+01 | 1486618126.59073 | pgbench_branches |          1155072

 2017-02-09 06:28:47.714845+01 | 1486618127.71484 | pgbench_accounts |        694558720
 2017-02-09 06:28:47.714845+01 | 1486618127.71484 | pgbench_tellers  |           827392
 2017-02-09 06:28:47.714845+01 | 1486618127.71484 | pgbench_history  |         72187904
 2017-02-09 06:28:47.714845+01 | 1486618127.71484 | pgbench_branches |          1155072

 2017-02-09 06:28:48.863085+01 | 1486618128.86309 | pgbench_accounts |        694558720
 2017-02-09 06:28:48.863085+01 | 1486618128.86309 | pgbench_tellers  |           827392
 2017-02-09 06:28:48.863085+01 | 1486618128.86309 | pgbench_history  |         72704000
 2017-02-09 06:28:48.863085+01 | 1486618128.86309 | pgbench_branches |          1155072

 2017-02-09 06:28:49.993598+01 | 1486618129.9936 | pgbench_accounts |        694558720
 2017-02-09 06:28:49.993598+01 | 1486618129.9936 | pgbench_tellers  |           827392
 2017-02-09 06:28:49.993598+01 | 1486618129.9936 | pgbench_history  |         73572352
 2017-02-09 06:28:49.993598+01 | 1486618129.9936 | pgbench_branches |          1155072

 2017-02-09 06:28:51.123978+01 | 1486618131.12398 | pgbench_accounts |        694558720
 2017-02-09 06:28:51.123978+01 | 1486618131.12398 | pgbench_tellers  |           827392
 2017-02-09 06:28:51.123978+01 | 1486618131.12398 | pgbench_history  |         73572352
 2017-02-09 06:28:51.123978+01 | 1486618131.12398 | pgbench_branches |          1155072

 2017-02-09 06:28:52.27325+01 | 1486618132.27325 | pgbench_accounts |        694558720
 2017-02-09 06:28:52.27325+01 | 1486618132.27325 | pgbench_tellers  |           827392
 2017-02-09 06:28:52.27325+01 | 1486618132.27325 | pgbench_history  |         74489856
 2017-02-09 06:28:52.27325+01 | 1486618132.27325 | pgbench_branches |          1155072

 2017-02-09 06:28:53.445385+01 | 1486618133.44538 | pgbench_accounts |        694558720
 2017-02-09 06:28:53.445385+01 | 1486618133.44538 | pgbench_tellers  |           827392
 2017-02-09 06:28:53.445385+01 | 1486618133.44538 | pgbench_history  |         75169792
 2017-02-09 06:28:53.445385+01 | 1486618133.44538 | pgbench_branches |          1155072

 2017-02-09 06:28:54.625206+01 | 1486618134.62521 | pgbench_accounts |        694558720
 2017-02-09 06:28:54.625206+01 | 1486618134.62521 | pgbench_tellers  |           827392
 2017-02-09 06:28:54.625206+01 | 1486618134.62521 | pgbench_history  |         75358208
 2017-02-09 06:28:54.625206+01 | 1486618134.62521 | pgbench_branches |          1155072

 2017-02-09 06:28:55.834468+01 | 1486618135.83447 | pgbench_accounts |        694558720
 2017-02-09 06:28:55.834468+01 | 1486618135.83447 | pgbench_tellers  |           827392
 2017-02-09 06:28:55.834468+01 | 1486618135.83447 | pgbench_history  |         75849728
 2017-02-09 06:28:55.834468+01 | 1486618135.83447 | pgbench_branches |          1155072

 2017-02-09 06:28:56.940351+01 | 1486618136.94035 | pgbench_accounts |        694558720
 2017-02-09 06:28:56.940351+01 | 1486618136.94035 | pgbench_tellers  |           827392
 2017-02-09 06:28:56.940351+01 | 1486618136.94035 | pgbench_history  |         76349440
 2017-02-09 06:28:56.940351+01 | 1486618136.94035 | pgbench_branches |          1155072

 2017-02-09 06:28:58.058645+01 | 1486618138.05865 | pgbench_accounts |        694558720
 2017-02-09 06:28:58.058645+01 | 1486618138.05865 | pgbench_tellers  |           827392
 2017-02-09 06:28:58.058645+01 | 1486618138.05865 | pgbench_history  |         76857344
 2017-02-09 06:28:58.058645+01 | 1486618138.05865 | pgbench_branches |          1155072

 2017-02-09 06:28:59.195902+01 | 1486618139.1959 | pgbench_accounts |        694558720
 2017-02-09 06:28:59.195902+01 | 1486618139.1959 | pgbench_tellers  |           827392
 2017-02-09 06:28:59.195902+01 | 1486618139.1959 | pgbench_history  |         77398016
 2017-02-09 06:28:59.195902+01 | 1486618139.1959 | pgbench_branches |          1155072

 2017-02-09 06:29:00.332073+01 | 1486618140.33207 | pgbench_accounts |        694558720
 2017-02-09 06:29:00.332073+01 | 1486618140.33207 | pgbench_tellers  |           827392
 2017-02-09 06:29:00.332073+01 | 1486618140.33207 | pgbench_history  |         77930496
 2017-02-09 06:29:00.332073+01 | 1486618140.33207 | pgbench_branches |          1155072

 2017-02-09 06:29:01.415346+01 | 1486618141.41535 | pgbench_accounts |        694558720
 2017-02-09 06:29:01.415346+01 | 1486618141.41535 | pgbench_tellers  |           827392
 2017-02-09 06:29:01.415346+01 | 1486618141.41535 | pgbench_history  |         78610432
 2017-02-09 06:29:01.415346+01 | 1486618141.41535 | pgbench_branches |          1155072

 2017-02-09 06:29:02.592154+01 | 1486618142.59215 | pgbench_accounts |        694558720
 2017-02-09 06:29:02.592154+01 | 1486618142.59215 | pgbench_tellers  |           827392
 2017-02-09 06:29:02.592154+01 | 1486618142.59215 | pgbench_history  |         79822848
 2017-02-09 06:29:02.592154+01 | 1486618142.59215 | pgbench_branches |          1155072

 2017-02-09 06:29:03.740902+01 | 1486618143.7409 | pgbench_accounts |        694558720
 2017-02-09 06:29:03.740902+01 | 1486618143.7409 | pgbench_tellers  |           827392
 2017-02-09 06:29:03.740902+01 | 1486618143.7409 | pgbench_history  |         79822848
 2017-02-09 06:29:03.740902+01 | 1486618143.7409 | pgbench_branches |          1155072

 2017-02-09 06:29:04.87228+01 | 1486618144.87228 | pgbench_accounts |        694558720
 2017-02-09 06:29:04.87228+01 | 1486618144.87228 | pgbench_tellers  |           827392
 2017-02-09 06:29:04.87228+01 | 1486618144.87228 | pgbench_history  |         80125952
 2017-02-09 06:29:04.87228+01 | 1486618144.87228 | pgbench_branches |          1155072

 2017-02-09 06:29:06.023714+01 | 1486618146.02371 | pgbench_accounts |        694558720
 2017-02-09 06:29:06.023714+01 | 1486618146.02371 | pgbench_tellers  |           827392
 2017-02-09 06:29:06.023714+01 | 1486618146.02371 | pgbench_history  |         80560128
 2017-02-09 06:29:06.023714+01 | 1486618146.02371 | pgbench_branches |          1155072

 2017-02-09 06:29:07.148688+01 | 1486618147.14869 | pgbench_accounts |        694558720
 2017-02-09 06:29:07.148688+01 | 1486618147.14869 | pgbench_tellers  |           827392
 2017-02-09 06:29:07.148688+01 | 1486618147.14869 | pgbench_history  |         81125376
 2017-02-09 06:29:07.148688+01 | 1486618147.14869 | pgbench_branches |          1155072

 2017-02-09 06:29:08.276405+01 | 1486618148.27641 | pgbench_accounts |        694558720
 2017-02-09 06:29:08.276405+01 | 1486618148.27641 | pgbench_tellers  |           827392
 2017-02-09 06:29:08.276405+01 | 1486618148.27641 | pgbench_history  |         81657856
 2017-02-09 06:29:08.276405+01 | 1486618148.27641 | pgbench_branches |          1155072

 2017-02-09 06:29:09.477777+01 | 1486618149.47778 | pgbench_accounts |        694558720
 2017-02-09 06:29:09.477777+01 | 1486618149.47778 | pgbench_tellers  |           827392
 2017-02-09 06:29:09.477777+01 | 1486618149.47778 | pgbench_history  |         82198528
 2017-02-09 06:29:09.477777+01 | 1486618149.47778 | pgbench_branches |          1155072

 2017-02-09 06:29:10.582782+01 | 1486618150.58278 | pgbench_accounts |        694558720
 2017-02-09 06:29:10.582782+01 | 1486618150.58278 | pgbench_tellers  |           827392
 2017-02-09 06:29:10.582782+01 | 1486618150.58278 | pgbench_history  |         82731008
 2017-02-09 06:29:10.582782+01 | 1486618150.58278 | pgbench_branches |          1155072

 2017-02-09 06:29:11.664519+01 | 1486618151.66452 | pgbench_accounts |        694558720
 2017-02-09 06:29:11.664519+01 | 1486618151.66452 | pgbench_tellers  |           827392
 2017-02-09 06:29:11.664519+01 | 1486618151.66452 | pgbench_history  |         83238912
 2017-02-09 06:29:11.664519+01 | 1486618151.66452 | pgbench_branches |          1155072

 2017-02-09 06:29:12.811396+01 | 1486618152.8114 | pgbench_accounts |        694558720
 2017-02-09 06:29:12.811396+01 | 1486618152.8114 | pgbench_tellers  |           827392
 2017-02-09 06:29:12.811396+01 | 1486618152.8114 | pgbench_history  |         83779584
 2017-02-09 06:29:12.811396+01 | 1486618152.8114 | pgbench_branches |          1155072

 2017-02-09 06:29:13.953641+01 | 1486618153.95364 | pgbench_accounts |        694558720
 2017-02-09 06:29:13.953641+01 | 1486618153.95364 | pgbench_tellers  |           827392
 2017-02-09 06:29:13.953641+01 | 1486618153.95364 | pgbench_history  |         84328448
 2017-02-09 06:29:13.953641+01 | 1486618153.95364 | pgbench_branches |          1155072

 2017-02-09 06:29:15.033654+01 | 1486618155.03365 | pgbench_accounts |        694558720
 2017-02-09 06:29:15.033654+01 | 1486618155.03365 | pgbench_tellers  |           827392
 2017-02-09 06:29:15.033654+01 | 1486618155.03365 | pgbench_history  |         84828160
 2017-02-09 06:29:15.033654+01 | 1486618155.03365 | pgbench_branches |          1155072

 2017-02-09 06:29:16.199777+01 | 1486618156.19978 | pgbench_accounts |        694558720
 2017-02-09 06:29:16.199777+01 | 1486618156.19978 | pgbench_tellers  |           827392
 2017-02-09 06:29:16.199777+01 | 1486618156.19978 | pgbench_history  |         85368832
 2017-02-09 06:29:16.199777+01 | 1486618156.19978 | pgbench_branches |          1155072

 2017-02-09 06:29:17.302137+01 | 1486618157.30214 | pgbench_accounts |        694558720
 2017-02-09 06:29:17.302137+01 | 1486618157.30214 | pgbench_tellers  |           827392
 2017-02-09 06:29:17.302137+01 | 1486618157.30214 | pgbench_history  |         85917696
 2017-02-09 06:29:17.302137+01 | 1486618157.30214 | pgbench_branches |          1155072

 2017-02-09 06:29:18.405522+01 | 1486618158.40552 | pgbench_accounts |        694558720
 2017-02-09 06:29:18.405522+01 | 1486618158.40552 | pgbench_tellers  |           827392
 2017-02-09 06:29:18.405522+01 | 1486618158.40552 | pgbench_history  |         86376448
 2017-02-09 06:29:18.405522+01 | 1486618158.40552 | pgbench_branches |          1155072

 2017-02-09 06:29:19.573839+01 | 1486618159.57384 | pgbench_accounts |        694558720
 2017-02-09 06:29:19.573839+01 | 1486618159.57384 | pgbench_tellers  |           827392
 2017-02-09 06:29:19.573839+01 | 1486618159.57384 | pgbench_history  |         86917120
 2017-02-09 06:29:19.573839+01 | 1486618159.57384 | pgbench_branches |          1155072

 2017-02-09 06:29:20.67335+01 | 1486618160.67335 | pgbench_accounts |        694558720
 2017-02-09 06:29:20.67335+01 | 1486618160.67335 | pgbench_tellers  |           827392
 2017-02-09 06:29:20.67335+01 | 1486618160.67335 | pgbench_history  |         87441408
 2017-02-09 06:29:20.67335+01 | 1486618160.67335 | pgbench_branches |          1155072

 2017-02-09 06:29:21.799414+01 | 1486618161.79941 | pgbench_accounts |        694558720
 2017-02-09 06:29:21.799414+01 | 1486618161.79941 | pgbench_tellers  |           827392
 2017-02-09 06:29:21.799414+01 | 1486618161.79941 | pgbench_history  |         87965696
 2017-02-09 06:29:21.799414+01 | 1486618161.79941 | pgbench_branches |          1155072

 2017-02-09 06:29:22.923164+01 | 1486618162.92316 | pgbench_accounts |        694558720
 2017-02-09 06:29:22.923164+01 | 1486618162.92316 | pgbench_tellers  |           827392
 2017-02-09 06:29:22.923164+01 | 1486618162.92316 | pgbench_history  |         88489984
 2017-02-09 06:29:22.923164+01 | 1486618162.92316 | pgbench_branches |          1155072

 2017-02-09 06:29:24.062668+01 | 1486618164.06267 | pgbench_accounts |        694558720
 2017-02-09 06:29:24.062668+01 | 1486618164.06267 | pgbench_tellers  |           827392
 2017-02-09 06:29:24.062668+01 | 1486618164.06267 | pgbench_history  |         89055232
 2017-02-09 06:29:24.062668+01 | 1486618164.06267 | pgbench_branches |          1155072

 2017-02-09 06:29:25.241444+01 | 1486618165.24144 | pgbench_accounts |        694558720
 2017-02-09 06:29:25.241444+01 | 1486618165.24144 | pgbench_tellers  |           827392
 2017-02-09 06:29:25.241444+01 | 1486618165.24144 | pgbench_history  |         89653248
 2017-02-09 06:29:25.241444+01 | 1486618165.24144 | pgbench_branches |          1155072

 2017-02-09 06:29:26.35899+01 | 1486618166.35899 | pgbench_accounts |        694558720
 2017-02-09 06:29:26.35899+01 | 1486618166.35899 | pgbench_tellers  |           827392
 2017-02-09 06:29:26.35899+01 | 1486618166.35899 | pgbench_history  |         90226688
 2017-02-09 06:29:26.35899+01 | 1486618166.35899 | pgbench_branches |          1155072

 2017-02-09 06:29:27.488878+01 | 1486618167.48888 | pgbench_accounts |        694558720
 2017-02-09 06:29:27.488878+01 | 1486618167.48888 | pgbench_tellers  |           827392
 2017-02-09 06:29:27.488878+01 | 1486618167.48888 | pgbench_history  |         90628096
 2017-02-09 06:29:27.488878+01 | 1486618167.48888 | pgbench_branches |          1155072

 2017-02-09 06:29:28.64134+01 | 1486618168.64134 | pgbench_accounts |        694558720
 2017-02-09 06:29:28.64134+01 | 1486618168.64134 | pgbench_tellers  |           827392
 2017-02-09 06:29:28.64134+01 | 1486618168.64134 | pgbench_history  |         91471872
 2017-02-09 06:29:28.64134+01 | 1486618168.64134 | pgbench_branches |          1155072

 2017-02-09 06:29:29.772887+01 | 1486618169.77289 | pgbench_accounts |        694558720
 2017-02-09 06:29:29.772887+01 | 1486618169.77289 | pgbench_tellers  |           827392
 2017-02-09 06:29:29.772887+01 | 1486618169.77289 | pgbench_history  |         91824128
 2017-02-09 06:29:29.772887+01 | 1486618169.77289 | pgbench_branches |          1155072

 2017-02-09 06:29:30.915185+01 | 1486618170.91518 | pgbench_accounts |        694558720
 2017-02-09 06:29:30.915185+01 | 1486618170.91518 | pgbench_tellers  |           827392
 2017-02-09 06:29:30.915185+01 | 1486618170.91518 | pgbench_history  |         92061696
 2017-02-09 06:29:30.915185+01 | 1486618170.91518 | pgbench_branches |          1155072

 2017-02-09 06:29:32.061319+01 | 1486618172.06132 | pgbench_accounts |        694558720
 2017-02-09 06:29:32.061319+01 | 1486618172.06132 | pgbench_tellers  |           827392
 2017-02-09 06:29:32.061319+01 | 1486618172.06132 | pgbench_history  |         93601792
 2017-02-09 06:29:32.061319+01 | 1486618172.06132 | pgbench_branches |          1155072

 2017-02-09 06:29:33.171251+01 | 1486618173.17125 | pgbench_accounts |        694558720
 2017-02-09 06:29:33.171251+01 | 1486618173.17125 | pgbench_tellers  |           827392
 2017-02-09 06:29:33.171251+01 | 1486618173.17125 | pgbench_history  |         93601792
 2017-02-09 06:29:33.171251+01 | 1486618173.17125 | pgbench_branches |          1155072

 2017-02-09 06:29:34.298416+01 | 1486618174.29842 | pgbench_accounts |        694558720
 2017-02-09 06:29:34.298416+01 | 1486618174.29842 | pgbench_tellers  |           827392
 2017-02-09 06:29:34.298416+01 | 1486618174.29842 | pgbench_history  |         93601792
 2017-02-09 06:29:34.298416+01 | 1486618174.29842 | pgbench_branches |          1155072

 2017-02-09 06:29:35.444889+01 | 1486618175.44489 | pgbench_accounts |        694558720
 2017-02-09 06:29:35.444889+01 | 1486618175.44489 | pgbench_tellers  |           827392
 2017-02-09 06:29:35.444889+01 | 1486618175.44489 | pgbench_history  |         94134272
 2017-02-09 06:29:35.444889+01 | 1486618175.44489 | pgbench_branches |          1155072

 2017-02-09 06:29:36.569014+01 | 1486618176.56901 | pgbench_accounts |        694558720
 2017-02-09 06:29:36.569014+01 | 1486618176.56901 | pgbench_tellers  |           827392
 2017-02-09 06:29:36.569014+01 | 1486618176.56901 | pgbench_history  |         94961664
 2017-02-09 06:29:36.569014+01 | 1486618176.56901 | pgbench_branches |          1155072

 2017-02-09 06:29:37.728392+01 | 1486618177.72839 | pgbench_accounts |        694558720
 2017-02-09 06:29:37.728392+01 | 1486618177.72839 | pgbench_tellers  |           827392
 2017-02-09 06:29:37.728392+01 | 1486618177.72839 | pgbench_history  |         96477184
 2017-02-09 06:29:37.728392+01 | 1486618177.72839 | pgbench_branches |          1155072

 2017-02-09 06:29:38.862467+01 | 1486618178.86247 | pgbench_accounts |        694558720
 2017-02-09 06:29:38.862467+01 | 1486618178.86247 | pgbench_tellers  |           827392
 2017-02-09 06:29:38.862467+01 | 1486618178.86247 | pgbench_history  |         96477184
 2017-02-09 06:29:38.862467+01 | 1486618178.86247 | pgbench_branches |          1155072

 2017-02-09 06:29:39.974595+01 | 1486618179.9746 | pgbench_accounts |        694558720
 2017-02-09 06:29:39.974595+01 | 1486618179.9746 | pgbench_tellers  |           827392
 2017-02-09 06:29:39.974595+01 | 1486618179.9746 | pgbench_history  |         96477184
 2017-02-09 06:29:39.974595+01 | 1486618179.9746 | pgbench_branches |          1155072

 2017-02-09 06:29:41.141901+01 | 1486618181.1419 | pgbench_accounts |        694558720
 2017-02-09 06:29:41.141901+01 | 1486618181.1419 | pgbench_tellers  |           827392
 2017-02-09 06:29:41.141901+01 | 1486618181.1419 | pgbench_history  |         96993280
 2017-02-09 06:29:41.141901+01 | 1486618181.1419 | pgbench_branches |          1155072

 2017-02-09 06:29:42.277733+01 | 1486618182.27773 | pgbench_accounts |        694558720
 2017-02-09 06:29:42.277733+01 | 1486618182.27773 | pgbench_tellers  |           827392
 2017-02-09 06:29:42.277733+01 | 1486618182.27773 | pgbench_history  |         98050048
 2017-02-09 06:29:42.277733+01 | 1486618182.27773 | pgbench_branches |          1155072

 2017-02-09 06:29:43.455159+01 | 1486618183.45516 | pgbench_accounts |        694558720
 2017-02-09 06:29:43.455159+01 | 1486618183.45516 | pgbench_tellers  |           827392
 2017-02-09 06:29:43.455159+01 | 1486618183.45516 | pgbench_history  |         98050048
 2017-02-09 06:29:43.455159+01 | 1486618183.45516 | pgbench_branches |          1155072

 2017-02-09 06:29:44.602908+01 | 1486618184.60291 | pgbench_accounts |        694558720
 2017-02-09 06:29:44.602908+01 | 1486618184.60291 | pgbench_tellers  |           827392
 2017-02-09 06:29:44.602908+01 | 1486618184.60291 | pgbench_history  |         99106816
 2017-02-09 06:29:44.602908+01 | 1486618184.60291 | pgbench_branches |          1155072

 2017-02-09 06:29:45.725293+01 | 1486618185.72529 | pgbench_accounts |        694558720
 2017-02-09 06:29:45.725293+01 | 1486618185.72529 | pgbench_tellers  |           827392
 2017-02-09 06:29:45.725293+01 | 1486618185.72529 | pgbench_history  |         99106816
 2017-02-09 06:29:45.725293+01 | 1486618185.72529 | pgbench_branches |          1155072

 2017-02-09 06:29:46.8406+01 | 1486618186.8406 | pgbench_accounts |        694558720
 2017-02-09 06:29:46.8406+01 | 1486618186.8406 | pgbench_tellers  |           827392
 2017-02-09 06:29:46.8406+01 | 1486618186.8406 | pgbench_history  |         99688448
 2017-02-09 06:29:46.8406+01 | 1486618186.8406 | pgbench_branches |          1155072

 2017-02-09 06:29:47.992158+01 | 1486618187.99216 | pgbench_accounts |        694558720
 2017-02-09 06:29:47.992158+01 | 1486618187.99216 | pgbench_tellers  |           827392
 2017-02-09 06:29:47.992158+01 | 1486618187.99216 | pgbench_history  |        100188160
 2017-02-09 06:29:47.992158+01 | 1486618187.99216 | pgbench_branches |          1155072

 2017-02-09 06:29:49.162681+01 | 1486618189.16268 | pgbench_accounts |        694558720
 2017-02-09 06:29:49.162681+01 | 1486618189.16268 | pgbench_tellers  |           827392
 2017-02-09 06:29:49.162681+01 | 1486618189.16268 | pgbench_history  |        101048320
 2017-02-09 06:29:49.162681+01 | 1486618189.16268 | pgbench_branches |          1155072

 2017-02-09 06:29:50.307821+01 | 1486618190.30782 | pgbench_accounts |        694558720
 2017-02-09 06:29:50.307821+01 | 1486618190.30782 | pgbench_tellers  |           827392
 2017-02-09 06:29:50.307821+01 | 1486618190.30782 | pgbench_history  |        101482496
 2017-02-09 06:29:50.307821+01 | 1486618190.30782 | pgbench_branches |          1155072

 2017-02-09 06:29:51.431492+01 | 1486618191.43149 | pgbench_accounts |        694558720
 2017-02-09 06:29:51.431492+01 | 1486618191.43149 | pgbench_tellers  |           827392
 2017-02-09 06:29:51.431492+01 | 1486618191.43149 | pgbench_history  |        101679104
 2017-02-09 06:29:51.431492+01 | 1486618191.43149 | pgbench_branches |          1155072

 2017-02-09 06:29:52.551883+01 | 1486618192.55188 | pgbench_accounts |        694558720
 2017-02-09 06:29:52.551883+01 | 1486618192.55188 | pgbench_tellers  |           827392
 2017-02-09 06:29:52.551883+01 | 1486618192.55188 | pgbench_history  |        102301696
 2017-02-09 06:29:52.551883+01 | 1486618192.55188 | pgbench_branches |          1155072

 2017-02-09 06:29:53.70003+01 | 1486618193.70003 | pgbench_accounts |        694558720
 2017-02-09 06:29:53.70003+01 | 1486618193.70003 | pgbench_tellers  |           827392
 2017-02-09 06:29:53.70003+01 | 1486618193.70003 | pgbench_history  |        102817792
 2017-02-09 06:29:53.70003+01 | 1486618193.70003 | pgbench_branches |          1155072

 2017-02-09 06:29:54.828208+01 | 1486618194.82821 | pgbench_accounts |        694558720
 2017-02-09 06:29:54.828208+01 | 1486618194.82821 | pgbench_tellers  |           827392
 2017-02-09 06:29:54.828208+01 | 1486618194.82821 | pgbench_history  |        103366656
 2017-02-09 06:29:54.828208+01 | 1486618194.82821 | pgbench_branches |          1155072

 2017-02-09 06:29:55.956386+01 | 1486618195.95639 | pgbench_accounts |        694558720
 2017-02-09 06:29:55.956386+01 | 1486618195.95639 | pgbench_tellers  |           827392
 2017-02-09 06:29:55.956386+01 | 1486618195.95639 | pgbench_history  |        103915520
 2017-02-09 06:29:55.956386+01 | 1486618195.95639 | pgbench_branches |          1155072

 2017-02-09 06:29:57.128365+01 | 1486618197.12837 | pgbench_accounts |        694558720
 2017-02-09 06:29:57.128365+01 | 1486618197.12837 | pgbench_tellers  |           827392
 2017-02-09 06:29:57.128365+01 | 1486618197.12837 | pgbench_history  |        104398848
 2017-02-09 06:29:57.128365+01 | 1486618197.12837 | pgbench_branches |          1155072

 2017-02-09 06:29:58.300507+01 | 1486618198.30051 | pgbench_accounts |        694558720
 2017-02-09 06:29:58.300507+01 | 1486618198.30051 | pgbench_tellers  |           827392
 2017-02-09 06:29:58.300507+01 | 1486618198.30051 | pgbench_history  |        104923136
 2017-02-09 06:29:58.300507+01 | 1486618198.30051 | pgbench_branches |          1155072

 2017-02-09 06:29:59.410709+01 | 1486618199.41071 | pgbench_accounts |        694558720
 2017-02-09 06:29:59.410709+01 | 1486618199.41071 | pgbench_tellers  |           827392
 2017-02-09 06:29:59.410709+01 | 1486618199.41071 | pgbench_history  |        105455616
 2017-02-09 06:29:59.410709+01 | 1486618199.41071 | pgbench_branches |          1155072

 2017-02-09 06:30:00.542908+01 | 1486618200.54291 | pgbench_accounts |        694558720
 2017-02-09 06:30:00.542908+01 | 1486618200.54291 | pgbench_tellers  |           827392
 2017-02-09 06:30:00.542908+01 | 1486618200.54291 | pgbench_history  |        105979904
 2017-02-09 06:30:00.542908+01 | 1486618200.54291 | pgbench_branches |          1155072

 2017-02-09 06:30:01.681839+01 | 1486618201.68184 | pgbench_accounts |        694558720
 2017-02-09 06:30:01.681839+01 | 1486618201.68184 | pgbench_tellers  |           827392
 2017-02-09 06:30:01.681839+01 | 1486618201.68184 | pgbench_history  |        106504192
 2017-02-09 06:30:01.681839+01 | 1486618201.68184 | pgbench_branches |          1155072

 2017-02-09 06:30:02.844477+01 | 1486618202.84448 | pgbench_accounts |        694558720
 2017-02-09 06:30:02.844477+01 | 1486618202.84448 | pgbench_tellers  |           827392
 2017-02-09 06:30:02.844477+01 | 1486618202.84448 | pgbench_history  |        107044864
 2017-02-09 06:30:02.844477+01 | 1486618202.84448 | pgbench_branches |          1155072

 2017-02-09 06:30:03.966958+01 | 1486618203.96696 | pgbench_accounts |        694558720
 2017-02-09 06:30:03.966958+01 | 1486618203.96696 | pgbench_tellers  |           827392
 2017-02-09 06:30:03.966958+01 | 1486618203.96696 | pgbench_history  |        107552768
 2017-02-09 06:30:03.966958+01 | 1486618203.96696 | pgbench_branches |          1155072

 2017-02-09 06:30:05.141646+01 | 1486618205.14165 | pgbench_accounts |        694558720
 2017-02-09 06:30:05.141646+01 | 1486618205.14165 | pgbench_tellers  |           827392
 2017-02-09 06:30:05.141646+01 | 1486618205.14165 | pgbench_history  |        108109824
 2017-02-09 06:30:05.141646+01 | 1486618205.14165 | pgbench_branches |          1155072

 2017-02-09 06:30:06.298396+01 | 1486618206.2984 | pgbench_accounts |        694558720
 2017-02-09 06:30:06.298396+01 | 1486618206.2984 | pgbench_tellers  |           827392
 2017-02-09 06:30:06.298396+01 | 1486618206.2984 | pgbench_history  |        108650496
 2017-02-09 06:30:06.298396+01 | 1486618206.2984 | pgbench_branches |          1155072

 2017-02-09 06:30:07.434131+01 | 1486618207.43413 | pgbench_accounts |        694558720
 2017-02-09 06:30:07.434131+01 | 1486618207.43413 | pgbench_tellers  |           827392
 2017-02-09 06:30:07.434131+01 | 1486618207.43413 | pgbench_history  |        109191168
 2017-02-09 06:30:07.434131+01 | 1486618207.43413 | pgbench_branches |          1155072

 2017-02-09 06:30:08.564464+01 | 1486618208.56446 | pgbench_accounts |        694558720
 2017-02-09 06:30:08.564464+01 | 1486618208.56446 | pgbench_tellers  |           827392
 2017-02-09 06:30:08.564464+01 | 1486618208.56446 | pgbench_history  |        109731840
 2017-02-09 06:30:08.564464+01 | 1486618208.56446 | pgbench_branches |          1155072

 2017-02-09 06:30:09.748471+01 | 1486618209.74847 | pgbench_accounts |        694558720
 2017-02-09 06:30:09.748471+01 | 1486618209.74847 | pgbench_tellers  |           827392
 2017-02-09 06:30:09.748471+01 | 1486618209.74847 | pgbench_history  |        110280704
 2017-02-09 06:30:09.748471+01 | 1486618209.74847 | pgbench_branches |          1155072

 2017-02-09 06:30:10.926989+01 | 1486618210.92699 | pgbench_accounts |        694558720
 2017-02-09 06:30:10.926989+01 | 1486618210.92699 | pgbench_tellers  |           827392
 2017-02-09 06:30:10.926989+01 | 1486618210.92699 | pgbench_history  |        110804992
 2017-02-09 06:30:10.926989+01 | 1486618210.92699 | pgbench_branches |          1155072

 2017-02-09 06:30:12.054285+01 | 1486618212.05429 | pgbench_accounts |        694558720
 2017-02-09 06:30:12.054285+01 | 1486618212.05429 | pgbench_tellers  |           827392
 2017-02-09 06:30:12.054285+01 | 1486618212.05429 | pgbench_history  |        111337472
 2017-02-09 06:30:12.054285+01 | 1486618212.05429 | pgbench_branches |          1155072

 2017-02-09 06:30:13.195028+01 | 1486618213.19503 | pgbench_accounts |        694558720
 2017-02-09 06:30:13.195028+01 | 1486618213.19503 | pgbench_tellers  |           827392
 2017-02-09 06:30:13.195028+01 | 1486618213.19503 | pgbench_history  |        111861760
 2017-02-09 06:30:13.195028+01 | 1486618213.19503 | pgbench_branches |          1155072

 2017-02-09 06:30:14.381289+01 | 1486618214.38129 | pgbench_accounts |        694558720
 2017-02-09 06:30:14.381289+01 | 1486618214.38129 | pgbench_tellers  |           827392
 2017-02-09 06:30:14.381289+01 | 1486618214.38129 | pgbench_history  |        112427008
 2017-02-09 06:30:14.381289+01 | 1486618214.38129 | pgbench_branches |          1155072

 2017-02-09 06:30:15.484046+01 | 1486618215.48405 | pgbench_accounts |        694558720
 2017-02-09 06:30:15.484046+01 | 1486618215.48405 | pgbench_tellers  |           827392
 2017-02-09 06:30:15.484046+01 | 1486618215.48405 | pgbench_history  |        112934912
 2017-02-09 06:30:15.484046+01 | 1486618215.48405 | pgbench_branches |          1155072

 2017-02-09 06:30:16.620042+01 | 1486618216.62004 | pgbench_accounts |        694558720
 2017-02-09 06:30:16.620042+01 | 1486618216.62004 | pgbench_tellers  |           827392
 2017-02-09 06:30:16.620042+01 | 1486618216.62004 | pgbench_history  |        113483776
 2017-02-09 06:30:16.620042+01 | 1486618216.62004 | pgbench_branches |          1155072

 2017-02-09 06:30:17.759085+01 | 1486618217.75908 | pgbench_accounts |        694558720
 2017-02-09 06:30:17.759085+01 | 1486618217.75908 | pgbench_tellers  |           827392
 2017-02-09 06:30:17.759085+01 | 1486618217.75908 | pgbench_history  |        114040832
 2017-02-09 06:30:17.759085+01 | 1486618217.75908 | pgbench_branches |          1155072

 2017-02-09 06:30:18.881417+01 | 1486618218.88142 | pgbench_accounts |        694558720
 2017-02-09 06:30:18.881417+01 | 1486618218.88142 | pgbench_tellers  |           827392
 2017-02-09 06:30:18.881417+01 | 1486618218.88142 | pgbench_history  |        114532352
 2017-02-09 06:30:18.881417+01 | 1486618218.88142 | pgbench_branches |          1155072

 2017-02-09 06:30:20.055949+01 | 1486618220.05595 | pgbench_accounts |        694558720
 2017-02-09 06:30:20.055949+01 | 1486618220.05595 | pgbench_tellers  |           827392
 2017-02-09 06:30:20.055949+01 | 1486618220.05595 | pgbench_history  |        115081216
 2017-02-09 06:30:20.055949+01 | 1486618220.05595 | pgbench_branches |          1155072

 2017-02-09 06:30:21.186152+01 | 1486618221.18615 | pgbench_accounts |        694558720
 2017-02-09 06:30:21.186152+01 | 1486618221.18615 | pgbench_tellers  |           827392
 2017-02-09 06:30:21.186152+01 | 1486618221.18615 | pgbench_history  |        115597312
 2017-02-09 06:30:21.186152+01 | 1486618221.18615 | pgbench_branches |          1155072

 2017-02-09 06:30:22.334386+01 | 1486618222.33439 | pgbench_accounts |        694558720
 2017-02-09 06:30:22.334386+01 | 1486618222.33439 | pgbench_tellers  |           827392
 2017-02-09 06:30:22.334386+01 | 1486618222.33439 | pgbench_history  |        116129792
 2017-02-09 06:30:22.334386+01 | 1486618222.33439 | pgbench_branches |          1155072

 2017-02-09 06:30:23.406871+01 | 1486618223.40687 | pgbench_accounts |        694558720
 2017-02-09 06:30:23.406871+01 | 1486618223.40687 | pgbench_tellers  |           827392
 2017-02-09 06:30:23.406871+01 | 1486618223.40687 | pgbench_history  |        116645888
 2017-02-09 06:30:23.406871+01 | 1486618223.40687 | pgbench_branches |          1155072

 2017-02-09 06:30:24.535326+01 | 1486618224.53533 | pgbench_accounts |        694558720
 2017-02-09 06:30:24.535326+01 | 1486618224.53533 | pgbench_tellers  |           827392
 2017-02-09 06:30:24.535326+01 | 1486618224.53533 | pgbench_history  |        117170176
 2017-02-09 06:30:24.535326+01 | 1486618224.53533 | pgbench_branches |          1155072

 2017-02-09 06:30:25.6359+01 | 1486618225.6359 | pgbench_accounts |        694558720
 2017-02-09 06:30:25.6359+01 | 1486618225.6359 | pgbench_tellers  |           827392
 2017-02-09 06:30:25.6359+01 | 1486618225.6359 | pgbench_history  |        117686272
 2017-02-09 06:30:25.6359+01 | 1486618225.6359 | pgbench_branches |          1155072

 2017-02-09 06:30:26.737283+01 | 1486618226.73728 | pgbench_accounts |        694558720
 2017-02-09 06:30:26.737283+01 | 1486618226.73728 | pgbench_tellers  |           827392
 2017-02-09 06:30:26.737283+01 | 1486618226.73728 | pgbench_history  |        118177792
 2017-02-09 06:30:26.737283+01 | 1486618226.73728 | pgbench_branches |          1155072

 2017-02-09 06:30:27.882234+01 | 1486618227.88223 | pgbench_accounts |        694558720
 2017-02-09 06:30:27.882234+01 | 1486618227.88223 | pgbench_tellers  |           827392
 2017-02-09 06:30:27.882234+01 | 1486618227.88223 | pgbench_history  |        118677504
 2017-02-09 06:30:27.882234+01 | 1486618227.88223 | pgbench_branches |          1155072

 2017-02-09 06:30:29.059394+01 | 1486618229.05939 | pgbench_accounts |        694558720
 2017-02-09 06:30:29.059394+01 | 1486618229.05939 | pgbench_tellers  |           827392
 2017-02-09 06:30:29.059394+01 | 1486618229.05939 | pgbench_history  |        119201792
 2017-02-09 06:30:29.059394+01 | 1486618229.05939 | pgbench_branches |          1155072

 2017-02-09 06:30:30.226025+01 | 1486618230.22603 | pgbench_accounts |        694558720
 2017-02-09 06:30:30.226025+01 | 1486618230.22603 | pgbench_tellers  |           827392
 2017-02-09 06:30:30.226025+01 | 1486618230.22603 | pgbench_history  |        119717888
 2017-02-09 06:30:30.226025+01 | 1486618230.22603 | pgbench_branches |          1155072

 2017-02-09 06:30:31.36669+01 | 1486618231.36669 | pgbench_accounts |        694558720
 2017-02-09 06:30:31.36669+01 | 1486618231.36669 | pgbench_tellers  |           827392
 2017-02-09 06:30:31.36669+01 | 1486618231.36669 | pgbench_history  |        120225792
 2017-02-09 06:30:31.36669+01 | 1486618231.36669 | pgbench_branches |          1155072

 2017-02-09 06:30:32.518121+01 | 1486618232.51812 | pgbench_accounts |        694558720
 2017-02-09 06:30:32.518121+01 | 1486618232.51812 | pgbench_tellers  |           827392
 2017-02-09 06:30:32.518121+01 | 1486618232.51812 | pgbench_history  |        120995840
 2017-02-09 06:30:32.518121+01 | 1486618232.51812 | pgbench_branches |          1155072

 2017-02-09 06:30:33.643176+01 | 1486618233.64318 | pgbench_accounts |        694558720
 2017-02-09 06:30:33.643176+01 | 1486618233.64318 | pgbench_tellers  |           827392
 2017-02-09 06:30:33.643176+01 | 1486618233.64318 | pgbench_history  |        121397248
 2017-02-09 06:30:33.643176+01 | 1486618233.64318 | pgbench_branches |          1155072

 2017-02-09 06:30:34.762853+01 | 1486618234.76285 | pgbench_accounts |        694558720
 2017-02-09 06:30:34.762853+01 | 1486618234.76285 | pgbench_tellers  |           827392
 2017-02-09 06:30:34.762853+01 | 1486618234.76285 | pgbench_history  |        121946112
 2017-02-09 06:30:34.762853+01 | 1486618234.76285 | pgbench_branches |          1155072

 2017-02-09 06:30:35.856144+01 | 1486618235.85614 | pgbench_accounts |        694558720
 2017-02-09 06:30:35.856144+01 | 1486618235.85614 | pgbench_tellers  |           827392
 2017-02-09 06:30:35.856144+01 | 1486618235.85614 | pgbench_history  |        122347520
 2017-02-09 06:30:35.856144+01 | 1486618235.85614 | pgbench_branches |          1155072

 2017-02-09 06:30:36.981353+01 | 1486618236.98135 | pgbench_accounts |        694558720
 2017-02-09 06:30:36.981353+01 | 1486618236.98135 | pgbench_tellers  |           827392
 2017-02-09 06:30:36.981353+01 | 1486618236.98135 | pgbench_history  |        122888192
 2017-02-09 06:30:36.981353+01 | 1486618236.98135 | pgbench_branches |          1155072

 2017-02-09 06:30:38.093608+01 | 1486618238.09361 | pgbench_accounts |        694558720
 2017-02-09 06:30:38.093608+01 | 1486618238.09361 | pgbench_tellers  |           827392
 2017-02-09 06:30:38.093608+01 | 1486618238.09361 | pgbench_history  |        123420672
 2017-02-09 06:30:38.093608+01 | 1486618238.09361 | pgbench_branches |          1155072

 2017-02-09 06:30:39.287196+01 | 1486618239.2872 | pgbench_accounts |        694558720
 2017-02-09 06:30:39.287196+01 | 1486618239.2872 | pgbench_tellers  |           827392
 2017-02-09 06:30:39.287196+01 | 1486618239.2872 | pgbench_history  |        123977728
 2017-02-09 06:30:39.287196+01 | 1486618239.2872 | pgbench_branches |          1155072

 2017-02-09 06:30:40.44321+01 | 1486618240.44321 | pgbench_accounts |        694558720
 2017-02-09 06:30:40.44321+01 | 1486618240.44321 | pgbench_tellers  |           827392
 2017-02-09 06:30:40.44321+01 | 1486618240.44321 | pgbench_history  |        124534784
 2017-02-09 06:30:40.44321+01 | 1486618240.44321 | pgbench_branches |          1155072

 2017-02-09 06:30:41.592692+01 | 1486618241.59269 | pgbench_accounts |        694558720
 2017-02-09 06:30:41.592692+01 | 1486618241.59269 | pgbench_tellers  |           827392
 2017-02-09 06:30:41.592692+01 | 1486618241.59269 | pgbench_history  |        125067264
 2017-02-09 06:30:41.592692+01 | 1486618241.59269 | pgbench_branches |          1155072

 2017-02-09 06:30:42.732565+01 | 1486618242.73256 | pgbench_accounts |        694558720
 2017-02-09 06:30:42.732565+01 | 1486618242.73256 | pgbench_tellers  |           827392
 2017-02-09 06:30:42.732565+01 | 1486618242.73256 | pgbench_history  |        125624320
 2017-02-09 06:30:42.732565+01 | 1486618242.73256 | pgbench_branches |          1155072

 2017-02-09 06:30:43.867558+01 | 1486618243.86756 | pgbench_accounts |        694558720
 2017-02-09 06:30:43.867558+01 | 1486618243.86756 | pgbench_tellers  |           827392
 2017-02-09 06:30:43.867558+01 | 1486618243.86756 | pgbench_history  |        127688704
 2017-02-09 06:30:43.867558+01 | 1486618243.86756 | pgbench_branches |          1155072

 2017-02-09 06:30:44.956495+01 | 1486618244.9565 | pgbench_accounts |        694558720
 2017-02-09 06:30:44.956495+01 | 1486618244.9565 | pgbench_tellers  |           827392
 2017-02-09 06:30:44.956495+01 | 1486618244.9565 | pgbench_history  |        127688704
 2017-02-09 06:30:44.956495+01 | 1486618244.9565 | pgbench_branches |          1155072

 2017-02-09 06:30:46.074901+01 | 1486618246.0749 | pgbench_accounts |        694558720
 2017-02-09 06:30:46.074901+01 | 1486618246.0749 | pgbench_tellers  |           827392
 2017-02-09 06:30:46.074901+01 | 1486618246.0749 | pgbench_history  |        127688704
 2017-02-09 06:30:46.074901+01 | 1486618246.0749 | pgbench_branches |          1155072

 2017-02-09 06:30:47.22787+01 | 1486618247.22787 | pgbench_accounts |        694558720
 2017-02-09 06:30:47.22787+01 | 1486618247.22787 | pgbench_tellers  |           827392
 2017-02-09 06:30:47.22787+01 | 1486618247.22787 | pgbench_history  |        127688704
 2017-02-09 06:30:47.22787+01 | 1486618247.22787 | pgbench_branches |          1155072

 2017-02-09 06:30:48.361217+01 | 1486618248.36122 | pgbench_accounts |        694558720
 2017-02-09 06:30:48.361217+01 | 1486618248.36122 | pgbench_tellers  |           827392
 2017-02-09 06:30:48.361217+01 | 1486618248.36122 | pgbench_history  |        128286720
 2017-02-09 06:30:48.361217+01 | 1486618248.36122 | pgbench_branches |          1155072

 2017-02-09 06:30:49.493644+01 | 1486618249.49364 | pgbench_accounts |        694558720
 2017-02-09 06:30:49.493644+01 | 1486618249.49364 | pgbench_tellers  |           827392
 2017-02-09 06:30:49.493644+01 | 1486618249.49364 | pgbench_history  |        128835584
 2017-02-09 06:30:49.493644+01 | 1486618249.49364 | pgbench_branches |          1155072

 2017-02-09 06:30:50.640743+01 | 1486618250.64074 | pgbench_accounts |        694558720
 2017-02-09 06:30:50.640743+01 | 1486618250.64074 | pgbench_tellers  |           827392
 2017-02-09 06:30:50.640743+01 | 1486618250.64074 | pgbench_history  |        129286144
 2017-02-09 06:30:50.640743+01 | 1486618250.64074 | pgbench_branches |          1155072

 2017-02-09 06:30:51.752194+01 | 1486618251.75219 | pgbench_accounts |        694558720
 2017-02-09 06:30:51.752194+01 | 1486618251.75219 | pgbench_tellers  |           827392
 2017-02-09 06:30:51.752194+01 | 1486618251.75219 | pgbench_history  |        130138112
 2017-02-09 06:30:51.752194+01 | 1486618251.75219 | pgbench_branches |          1155072

 2017-02-09 06:30:52.916087+01 | 1486618252.91609 | pgbench_accounts |        694558720
 2017-02-09 06:30:52.916087+01 | 1486618252.91609 | pgbench_tellers  |           827392
 2017-02-09 06:30:52.916087+01 | 1486618252.91609 | pgbench_history  |        130342912
 2017-02-09 06:30:52.916087+01 | 1486618252.91609 | pgbench_branches |          1155072

 2017-02-09 06:30:54.088312+01 | 1486618254.08831 | pgbench_accounts |        694558720
 2017-02-09 06:30:54.088312+01 | 1486618254.08831 | pgbench_tellers  |           827392
 2017-02-09 06:30:54.088312+01 | 1486618254.08831 | pgbench_history  |        131670016
 2017-02-09 06:30:54.088312+01 | 1486618254.08831 | pgbench_branches |          1155072

 2017-02-09 06:30:55.262074+01 | 1486618255.26207 | pgbench_accounts |        694558720
 2017-02-09 06:30:55.262074+01 | 1486618255.26207 | pgbench_tellers  |           827392
 2017-02-09 06:30:55.262074+01 | 1486618255.26207 | pgbench_history  |        131670016
 2017-02-09 06:30:55.262074+01 | 1486618255.26207 | pgbench_branches |          1155072

 2017-02-09 06:30:56.378943+01 | 1486618256.37894 | pgbench_accounts |        694558720
 2017-02-09 06:30:56.378943+01 | 1486618256.37894 | pgbench_tellers  |           827392
 2017-02-09 06:30:56.378943+01 | 1486618256.37894 | pgbench_history  |        132022272
 2017-02-09 06:30:56.378943+01 | 1486618256.37894 | pgbench_branches |          1155072

 2017-02-09 06:30:57.545965+01 | 1486618257.54596 | pgbench_accounts |        694558720
 2017-02-09 06:30:57.545965+01 | 1486618257.54596 | pgbench_tellers  |           827392
 2017-02-09 06:30:57.545965+01 | 1486618257.54596 | pgbench_history  |        132546560
 2017-02-09 06:30:57.545965+01 | 1486618257.54596 | pgbench_branches |          1155072

 2017-02-09 06:30:58.695043+01 | 1486618258.69504 | pgbench_accounts |        694558720
 2017-02-09 06:30:58.695043+01 | 1486618258.69504 | pgbench_tellers  |           827392
 2017-02-09 06:30:58.695043+01 | 1486618258.69504 | pgbench_history  |        134610944
 2017-02-09 06:30:58.695043+01 | 1486618258.69504 | pgbench_branches |          1155072

 2017-02-09 06:30:59.836709+01 | 1486618259.83671 | pgbench_accounts |        694558720
 2017-02-09 06:30:59.836709+01 | 1486618259.83671 | pgbench_tellers  |           827392
 2017-02-09 06:30:59.836709+01 | 1486618259.83671 | pgbench_history  |        134610944
 2017-02-09 06:30:59.836709+01 | 1486618259.83671 | pgbench_branches |          1155072

 2017-02-09 06:31:00.960014+01 | 1486618260.96001 | pgbench_accounts |        694558720
 2017-02-09 06:31:00.960014+01 | 1486618260.96001 | pgbench_tellers  |           827392
 2017-02-09 06:31:00.960014+01 | 1486618260.96001 | pgbench_history  |        134610944
 2017-02-09 06:31:00.960014+01 | 1486618260.96001 | pgbench_branches |          1155072

 2017-02-09 06:31:02.104477+01 | 1486618262.10448 | pgbench_accounts |        694558720
 2017-02-09 06:31:02.104477+01 | 1486618262.10448 | pgbench_tellers  |           827392
 2017-02-09 06:31:02.104477+01 | 1486618262.10448 | pgbench_history  |        134610944
 2017-02-09 06:31:02.104477+01 | 1486618262.10448 | pgbench_branches |          1155072

 2017-02-09 06:31:03.238113+01 | 1486618263.23811 | pgbench_accounts |        694558720
 2017-02-09 06:31:03.238113+01 | 1486618263.23811 | pgbench_tellers  |           827392
 2017-02-09 06:31:03.238113+01 | 1486618263.23811 | pgbench_history  |        135340032
 2017-02-09 06:31:03.238113+01 | 1486618263.23811 | pgbench_branches |          1155072

 2017-02-09 06:31:04.34139+01 | 1486618264.34139 | pgbench_accounts |        694558720
 2017-02-09 06:31:04.34139+01 | 1486618264.34139 | pgbench_tellers  |           827392
 2017-02-09 06:31:04.34139+01 | 1486618264.34139 | pgbench_history  |        136183808
 2017-02-09 06:31:04.34139+01 | 1486618264.34139 | pgbench_branches |          1155072

 2017-02-09 06:31:05.454843+01 | 1486618265.45484 | pgbench_accounts |        694558720
 2017-02-09 06:31:05.454843+01 | 1486618265.45484 | pgbench_tellers  |           827392
 2017-02-09 06:31:05.454843+01 | 1486618265.45484 | pgbench_history  |        136183808
 2017-02-09 06:31:05.454843+01 | 1486618265.45484 | pgbench_branches |          1155072

 2017-02-09 06:31:06.574585+01 | 1486618266.57458 | pgbench_accounts |        694558720
 2017-02-09 06:31:06.574585+01 | 1486618266.57458 | pgbench_tellers  |           827392
 2017-02-09 06:31:06.574585+01 | 1486618266.57458 | pgbench_history  |        137568256
 2017-02-09 06:31:06.574585+01 | 1486618266.57458 | pgbench_branches |          1155072

 2017-02-09 06:31:07.747084+01 | 1486618267.74708 | pgbench_accounts |        694558720
 2017-02-09 06:31:07.747084+01 | 1486618267.74708 | pgbench_tellers  |           827392
 2017-02-09 06:31:07.747084+01 | 1486618267.74708 | pgbench_history  |        137568256
 2017-02-09 06:31:07.747084+01 | 1486618267.74708 | pgbench_branches |          1155072

 2017-02-09 06:31:08.863596+01 | 1486618268.8636 | pgbench_accounts |        694558720
 2017-02-09 06:31:08.863596+01 | 1486618268.8636 | pgbench_tellers  |           827392
 2017-02-09 06:31:08.863596+01 | 1486618268.8636 | pgbench_history  |        138018816
 2017-02-09 06:31:08.863596+01 | 1486618268.8636 | pgbench_branches |          1155072

 2017-02-09 06:31:10.040277+01 | 1486618270.04028 | pgbench_accounts |        694558720
 2017-02-09 06:31:10.040277+01 | 1486618270.04028 | pgbench_tellers  |           827392
 2017-02-09 06:31:10.040277+01 | 1486618270.04028 | pgbench_history  |        138805248
 2017-02-09 06:31:10.040277+01 | 1486618270.04028 | pgbench_branches |          1155072

 2017-02-09 06:31:11.156186+01 | 1486618271.15619 | pgbench_accounts |        694558720
 2017-02-09 06:31:11.156186+01 | 1486618271.15619 | pgbench_tellers  |           827392
 2017-02-09 06:31:11.156186+01 | 1486618271.15619 | pgbench_history  |        139026432
 2017-02-09 06:31:11.156186+01 | 1486618271.15619 | pgbench_branches |          1155072

 2017-02-09 06:31:12.278602+01 | 1486618272.2786 | pgbench_accounts |        694558720
 2017-02-09 06:31:12.278602+01 | 1486618272.2786 | pgbench_tellers  |           827392
 2017-02-09 06:31:12.278602+01 | 1486618272.2786 | pgbench_history  |        139698176
 2017-02-09 06:31:12.278602+01 | 1486618272.2786 | pgbench_branches |          1155072

