 2017-02-08 06:12:23.851777+01 | 1486530743.85178 | pgbench_branches_pkey |            16384
 2017-02-08 06:12:23.851777+01 | 1486530743.85178 | pgbench_tellers_pkey  |            90112
 2017-02-08 06:12:23.851777+01 | 1486530743.85178 | pgbench_accounts_pkey |        673882112

 2017-02-08 06:12:25.03307+01 | 1486530745.03307 | pgbench_branches_pkey |            16384
 2017-02-08 06:12:25.03307+01 | 1486530745.03307 | pgbench_tellers_pkey  |            90112
 2017-02-08 06:12:25.03307+01 | 1486530745.03307 | pgbench_accounts_pkey |        673882112

 2017-02-08 06:12:26.271771+01 | 1486530746.27177 | pgbench_branches_pkey |            16384
 2017-02-08 06:12:26.271771+01 | 1486530746.27177 | pgbench_tellers_pkey  |            90112
 2017-02-08 06:12:26.271771+01 | 1486530746.27177 | pgbench_accounts_pkey |        673882112

 2017-02-08 06:12:27.571448+01 | 1486530747.57145 | pgbench_branches_pkey |            16384
 2017-02-08 06:12:27.571448+01 | 1486530747.57145 | pgbench_tellers_pkey  |            90112
 2017-02-08 06:12:27.571448+01 | 1486530747.57145 | pgbench_accounts_pkey |        673882112

 2017-02-08 06:12:28.836871+01 | 1486530748.83687 | pgbench_branches_pkey |            16384
 2017-02-08 06:12:28.836871+01 | 1486530748.83687 | pgbench_tellers_pkey  |            90112
 2017-02-08 06:12:28.836871+01 | 1486530748.83687 | pgbench_accounts_pkey |        673882112

 2017-02-08 06:12:30.028257+01 | 1486530750.02826 | pgbench_branches_pkey |            16384
 2017-02-08 06:12:30.028257+01 | 1486530750.02826 | pgbench_tellers_pkey  |            90112
 2017-02-08 06:12:30.028257+01 | 1486530750.02826 | pgbench_accounts_pkey |        673882112

 2017-02-08 06:12:31.262781+01 | 1486530751.26278 | pgbench_branches_pkey |            16384
 2017-02-08 06:12:31.262781+01 | 1486530751.26278 | pgbench_tellers_pkey  |            90112
 2017-02-08 06:12:31.262781+01 | 1486530751.26278 | pgbench_accounts_pkey |        673882112

 2017-02-08 06:12:32.500753+01 | 1486530752.50075 | pgbench_branches_pkey |            16384
 2017-02-08 06:12:32.500753+01 | 1486530752.50075 | pgbench_tellers_pkey  |            90112
 2017-02-08 06:12:32.500753+01 | 1486530752.50075 | pgbench_accounts_pkey |        673882112

 2017-02-08 06:12:33.713811+01 | 1486530753.71381 | pgbench_branches_pkey |            16384
 2017-02-08 06:12:33.713811+01 | 1486530753.71381 | pgbench_tellers_pkey  |            90112
 2017-02-08 06:12:33.713811+01 | 1486530753.71381 | pgbench_accounts_pkey |        673882112

 2017-02-08 06:12:34.911107+01 | 1486530754.91111 | pgbench_branches_pkey |            16384
 2017-02-08 06:12:34.911107+01 | 1486530754.91111 | pgbench_tellers_pkey  |            90112
 2017-02-08 06:12:34.911107+01 | 1486530754.91111 | pgbench_accounts_pkey |        673882112

 2017-02-08 06:12:36.157155+01 | 1486530756.15716 | pgbench_branches_pkey |            16384
 2017-02-08 06:12:36.157155+01 | 1486530756.15716 | pgbench_tellers_pkey  |            90112
 2017-02-08 06:12:36.157155+01 | 1486530756.15716 | pgbench_accounts_pkey |        673882112

 2017-02-08 06:12:37.331019+01 | 1486530757.33102 | pgbench_branches_pkey |            16384
 2017-02-08 06:12:37.331019+01 | 1486530757.33102 | pgbench_tellers_pkey  |            90112
 2017-02-08 06:12:37.331019+01 | 1486530757.33102 | pgbench_accounts_pkey |        673882112

 2017-02-08 06:12:38.586345+01 | 1486530758.58634 | pgbench_branches_pkey |            16384
 2017-02-08 06:12:38.586345+01 | 1486530758.58634 | pgbench_tellers_pkey  |            90112
 2017-02-08 06:12:38.586345+01 | 1486530758.58634 | pgbench_accounts_pkey |        673882112

 2017-02-08 06:12:39.785471+01 | 1486530759.78547 | pgbench_branches_pkey |            16384
 2017-02-08 06:12:39.785471+01 | 1486530759.78547 | pgbench_tellers_pkey  |            90112
 2017-02-08 06:12:39.785471+01 | 1486530759.78547 | pgbench_accounts_pkey |        673882112

 2017-02-08 06:12:41.015123+01 | 1486530761.01512 | pgbench_branches_pkey |            16384
 2017-02-08 06:12:41.015123+01 | 1486530761.01512 | pgbench_tellers_pkey  |            90112
 2017-02-08 06:12:41.015123+01 | 1486530761.01512 | pgbench_accounts_pkey |        673882112

 2017-02-08 06:12:42.260377+01 | 1486530762.26038 | pgbench_branches_pkey |            16384
 2017-02-08 06:12:42.260377+01 | 1486530762.26038 | pgbench_tellers_pkey  |            90112
 2017-02-08 06:12:42.260377+01 | 1486530762.26038 | pgbench_accounts_pkey |        673882112

 2017-02-08 06:12:43.526072+01 | 1486530763.52607 | pgbench_branches_pkey |            16384
 2017-02-08 06:12:43.526072+01 | 1486530763.52607 | pgbench_tellers_pkey  |            90112
 2017-02-08 06:12:43.526072+01 | 1486530763.52607 | pgbench_accounts_pkey |        673882112

 2017-02-08 06:12:44.771576+01 | 1486530764.77158 | pgbench_branches_pkey |            16384
 2017-02-08 06:12:44.771576+01 | 1486530764.77158 | pgbench_tellers_pkey  |            90112
 2017-02-08 06:12:44.771576+01 | 1486530764.77158 | pgbench_accounts_pkey |        673882112

 2017-02-08 06:12:45.985003+01 | 1486530765.985 | pgbench_branches_pkey |            16384
 2017-02-08 06:12:45.985003+01 | 1486530765.985 | pgbench_tellers_pkey  |            90112
 2017-02-08 06:12:45.985003+01 | 1486530765.985 | pgbench_accounts_pkey |        673882112

 2017-02-08 06:12:47.20786+01 | 1486530767.20786 | pgbench_branches_pkey |            16384
 2017-02-08 06:12:47.20786+01 | 1486530767.20786 | pgbench_tellers_pkey  |            90112
 2017-02-08 06:12:47.20786+01 | 1486530767.20786 | pgbench_accounts_pkey |        673882112

 2017-02-08 06:12:48.398483+01 | 1486530768.39848 | pgbench_branches_pkey |            16384
 2017-02-08 06:12:48.398483+01 | 1486530768.39848 | pgbench_tellers_pkey  |            90112
 2017-02-08 06:12:48.398483+01 | 1486530768.39848 | pgbench_accounts_pkey |        673882112

 2017-02-08 06:12:49.621857+01 | 1486530769.62186 | pgbench_branches_pkey |            16384
 2017-02-08 06:12:49.621857+01 | 1486530769.62186 | pgbench_tellers_pkey  |            90112
 2017-02-08 06:12:49.621857+01 | 1486530769.62186 | pgbench_accounts_pkey |        673882112

 2017-02-08 06:12:50.808559+01 | 1486530770.80856 | pgbench_branches_pkey |            16384
 2017-02-08 06:12:50.808559+01 | 1486530770.80856 | pgbench_tellers_pkey  |            90112
 2017-02-08 06:12:50.808559+01 | 1486530770.80856 | pgbench_accounts_pkey |        673882112

 2017-02-08 06:12:52.030297+01 | 1486530772.0303 | pgbench_branches_pkey |            16384
 2017-02-08 06:12:52.030297+01 | 1486530772.0303 | pgbench_tellers_pkey  |            90112
 2017-02-08 06:12:52.030297+01 | 1486530772.0303 | pgbench_accounts_pkey |        673882112

 2017-02-08 06:12:53.266082+01 | 1486530773.26608 | pgbench_branches_pkey |            16384
 2017-02-08 06:12:53.266082+01 | 1486530773.26608 | pgbench_tellers_pkey  |            90112
 2017-02-08 06:12:53.266082+01 | 1486530773.26608 | pgbench_accounts_pkey |        673882112

 2017-02-08 06:12:54.484632+01 | 1486530774.48463 | pgbench_branches_pkey |            16384
 2017-02-08 06:12:54.484632+01 | 1486530774.48463 | pgbench_tellers_pkey  |            90112
 2017-02-08 06:12:54.484632+01 | 1486530774.48463 | pgbench_accounts_pkey |        673882112

 2017-02-08 06:12:55.705949+01 | 1486530775.70595 | pgbench_branches_pkey |            16384
 2017-02-08 06:12:55.705949+01 | 1486530775.70595 | pgbench_tellers_pkey  |            90112
 2017-02-08 06:12:55.705949+01 | 1486530775.70595 | pgbench_accounts_pkey |        673882112

 2017-02-08 06:12:56.921771+01 | 1486530776.92177 | pgbench_branches_pkey |            16384
 2017-02-08 06:12:56.921771+01 | 1486530776.92177 | pgbench_tellers_pkey  |            90112
 2017-02-08 06:12:56.921771+01 | 1486530776.92177 | pgbench_accounts_pkey |        673882112

 2017-02-08 06:12:58.151197+01 | 1486530778.1512 | pgbench_branches_pkey |            16384
 2017-02-08 06:12:58.151197+01 | 1486530778.1512 | pgbench_tellers_pkey  |            90112
 2017-02-08 06:12:58.151197+01 | 1486530778.1512 | pgbench_accounts_pkey |        673882112

 2017-02-08 06:12:59.376917+01 | 1486530779.37692 | pgbench_branches_pkey |            16384
 2017-02-08 06:12:59.376917+01 | 1486530779.37692 | pgbench_tellers_pkey  |            90112
 2017-02-08 06:12:59.376917+01 | 1486530779.37692 | pgbench_accounts_pkey |        673882112

 2017-02-08 06:13:00.640378+01 | 1486530780.64038 | pgbench_branches_pkey |            16384
 2017-02-08 06:13:00.640378+01 | 1486530780.64038 | pgbench_tellers_pkey  |            90112
 2017-02-08 06:13:00.640378+01 | 1486530780.64038 | pgbench_accounts_pkey |        673882112

 2017-02-08 06:13:01.884541+01 | 1486530781.88454 | pgbench_branches_pkey |            16384
 2017-02-08 06:13:01.884541+01 | 1486530781.88454 | pgbench_tellers_pkey  |            90112
 2017-02-08 06:13:01.884541+01 | 1486530781.88454 | pgbench_accounts_pkey |        673882112

 2017-02-08 06:13:03.071857+01 | 1486530783.07186 | pgbench_branches_pkey |            16384
 2017-02-08 06:13:03.071857+01 | 1486530783.07186 | pgbench_tellers_pkey  |            90112
 2017-02-08 06:13:03.071857+01 | 1486530783.07186 | pgbench_accounts_pkey |        673882112

 2017-02-08 06:13:04.234506+01 | 1486530784.23451 | pgbench_branches_pkey |            16384
 2017-02-08 06:13:04.234506+01 | 1486530784.23451 | pgbench_tellers_pkey  |            90112
 2017-02-08 06:13:04.234506+01 | 1486530784.23451 | pgbench_accounts_pkey |        673882112

 2017-02-08 06:13:05.471781+01 | 1486530785.47178 | pgbench_branches_pkey |            16384
 2017-02-08 06:13:05.471781+01 | 1486530785.47178 | pgbench_tellers_pkey  |            90112
 2017-02-08 06:13:05.471781+01 | 1486530785.47178 | pgbench_accounts_pkey |        673882112

 2017-02-08 06:13:06.701795+01 | 1486530786.7018 | pgbench_branches_pkey |            16384
 2017-02-08 06:13:06.701795+01 | 1486530786.7018 | pgbench_tellers_pkey  |            90112
 2017-02-08 06:13:06.701795+01 | 1486530786.7018 | pgbench_accounts_pkey |        673882112

 2017-02-08 06:13:07.924133+01 | 1486530787.92413 | pgbench_branches_pkey |            16384
 2017-02-08 06:13:07.924133+01 | 1486530787.92413 | pgbench_tellers_pkey  |            90112
 2017-02-08 06:13:07.924133+01 | 1486530787.92413 | pgbench_accounts_pkey |        673882112

 2017-02-08 06:13:09.096253+01 | 1486530789.09625 | pgbench_branches_pkey |            16384
 2017-02-08 06:13:09.096253+01 | 1486530789.09625 | pgbench_tellers_pkey  |            90112
 2017-02-08 06:13:09.096253+01 | 1486530789.09625 | pgbench_accounts_pkey |        673882112

 2017-02-08 06:13:10.356776+01 | 1486530790.35678 | pgbench_branches_pkey |            16384
 2017-02-08 06:13:10.356776+01 | 1486530790.35678 | pgbench_tellers_pkey  |            90112
 2017-02-08 06:13:10.356776+01 | 1486530790.35678 | pgbench_accounts_pkey |        673882112

 2017-02-08 06:13:11.62043+01 | 1486530791.62043 | pgbench_branches_pkey |            16384
 2017-02-08 06:13:11.62043+01 | 1486530791.62043 | pgbench_tellers_pkey  |            90112
 2017-02-08 06:13:11.62043+01 | 1486530791.62043 | pgbench_accounts_pkey |        673882112

 2017-02-08 06:13:12.815483+01 | 1486530792.81548 | pgbench_branches_pkey |            16384
 2017-02-08 06:13:12.815483+01 | 1486530792.81548 | pgbench_tellers_pkey  |            90112
 2017-02-08 06:13:12.815483+01 | 1486530792.81548 | pgbench_accounts_pkey |        673882112

 2017-02-08 06:13:14.107378+01 | 1486530794.10738 | pgbench_branches_pkey |            16384
 2017-02-08 06:13:14.107378+01 | 1486530794.10738 | pgbench_tellers_pkey  |            90112
 2017-02-08 06:13:14.107378+01 | 1486530794.10738 | pgbench_accounts_pkey |        673882112

 2017-02-08 06:13:15.336562+01 | 1486530795.33656 | pgbench_branches_pkey |            16384
 2017-02-08 06:13:15.336562+01 | 1486530795.33656 | pgbench_tellers_pkey  |            90112
 2017-02-08 06:13:15.336562+01 | 1486530795.33656 | pgbench_accounts_pkey |        673882112

 2017-02-08 06:13:16.505897+01 | 1486530796.5059 | pgbench_branches_pkey |            16384
 2017-02-08 06:13:16.505897+01 | 1486530796.5059 | pgbench_tellers_pkey  |            90112
 2017-02-08 06:13:16.505897+01 | 1486530796.5059 | pgbench_accounts_pkey |        673882112

 2017-02-08 06:13:17.75809+01 | 1486530797.75809 | pgbench_branches_pkey |            16384
 2017-02-08 06:13:17.75809+01 | 1486530797.75809 | pgbench_tellers_pkey  |            90112
 2017-02-08 06:13:17.75809+01 | 1486530797.75809 | pgbench_accounts_pkey |        673882112

 2017-02-08 06:13:18.995384+01 | 1486530798.99538 | pgbench_branches_pkey |            16384
 2017-02-08 06:13:18.995384+01 | 1486530798.99538 | pgbench_tellers_pkey  |            90112
 2017-02-08 06:13:18.995384+01 | 1486530798.99538 | pgbench_accounts_pkey |        673882112

 2017-02-08 06:13:20.234697+01 | 1486530800.2347 | pgbench_branches_pkey |            16384
 2017-02-08 06:13:20.234697+01 | 1486530800.2347 | pgbench_tellers_pkey  |            90112
 2017-02-08 06:13:20.234697+01 | 1486530800.2347 | pgbench_accounts_pkey |        673882112

 2017-02-08 06:13:21.463901+01 | 1486530801.4639 | pgbench_branches_pkey |            16384
 2017-02-08 06:13:21.463901+01 | 1486530801.4639 | pgbench_tellers_pkey  |            90112
 2017-02-08 06:13:21.463901+01 | 1486530801.4639 | pgbench_accounts_pkey |        673882112

 2017-02-08 06:13:22.684097+01 | 1486530802.6841 | pgbench_branches_pkey |            16384
 2017-02-08 06:13:22.684097+01 | 1486530802.6841 | pgbench_tellers_pkey  |            90112
 2017-02-08 06:13:22.684097+01 | 1486530802.6841 | pgbench_accounts_pkey |        673882112

 2017-02-08 06:13:23.905966+01 | 1486530803.90597 | pgbench_branches_pkey |            16384
 2017-02-08 06:13:23.905966+01 | 1486530803.90597 | pgbench_tellers_pkey  |            90112
 2017-02-08 06:13:23.905966+01 | 1486530803.90597 | pgbench_accounts_pkey |        673882112

 2017-02-08 06:13:25.137398+01 | 1486530805.1374 | pgbench_branches_pkey |            16384
 2017-02-08 06:13:25.137398+01 | 1486530805.1374 | pgbench_tellers_pkey  |            90112
 2017-02-08 06:13:25.137398+01 | 1486530805.1374 | pgbench_accounts_pkey |        673882112

 2017-02-08 06:13:26.405951+01 | 1486530806.40595 | pgbench_branches_pkey |            16384
 2017-02-08 06:13:26.405951+01 | 1486530806.40595 | pgbench_tellers_pkey  |            90112
 2017-02-08 06:13:26.405951+01 | 1486530806.40595 | pgbench_accounts_pkey |        673882112

 2017-02-08 06:13:27.645578+01 | 1486530807.64558 | pgbench_branches_pkey |            16384
 2017-02-08 06:13:27.645578+01 | 1486530807.64558 | pgbench_tellers_pkey  |            90112
 2017-02-08 06:13:27.645578+01 | 1486530807.64558 | pgbench_accounts_pkey |        673882112

 2017-02-08 06:13:28.829568+01 | 1486530808.82957 | pgbench_branches_pkey |            16384
 2017-02-08 06:13:28.829568+01 | 1486530808.82957 | pgbench_tellers_pkey  |            90112
 2017-02-08 06:13:28.829568+01 | 1486530808.82957 | pgbench_accounts_pkey |        673882112

 2017-02-08 06:13:30.083261+01 | 1486530810.08326 | pgbench_branches_pkey |            16384
 2017-02-08 06:13:30.083261+01 | 1486530810.08326 | pgbench_tellers_pkey  |            90112
 2017-02-08 06:13:30.083261+01 | 1486530810.08326 | pgbench_accounts_pkey |        673882112

 2017-02-08 06:13:31.330462+01 | 1486530811.33046 | pgbench_branches_pkey |            16384
 2017-02-08 06:13:31.330462+01 | 1486530811.33046 | pgbench_tellers_pkey  |            90112
 2017-02-08 06:13:31.330462+01 | 1486530811.33046 | pgbench_accounts_pkey |        673882112

 2017-02-08 06:13:32.580881+01 | 1486530812.58088 | pgbench_branches_pkey |            16384
 2017-02-08 06:13:32.580881+01 | 1486530812.58088 | pgbench_tellers_pkey  |            90112
 2017-02-08 06:13:32.580881+01 | 1486530812.58088 | pgbench_accounts_pkey |        673882112

 2017-02-08 06:13:33.828777+01 | 1486530813.82878 | pgbench_branches_pkey |            16384
 2017-02-08 06:13:33.828777+01 | 1486530813.82878 | pgbench_tellers_pkey  |            90112
 2017-02-08 06:13:33.828777+01 | 1486530813.82878 | pgbench_accounts_pkey |        673882112

 2017-02-08 06:13:35.080449+01 | 1486530815.08045 | pgbench_branches_pkey |            16384
 2017-02-08 06:13:35.080449+01 | 1486530815.08045 | pgbench_tellers_pkey  |            90112
 2017-02-08 06:13:35.080449+01 | 1486530815.08045 | pgbench_accounts_pkey |        673882112

 2017-02-08 06:13:36.259825+01 | 1486530816.25982 | pgbench_branches_pkey |            16384
 2017-02-08 06:13:36.259825+01 | 1486530816.25982 | pgbench_tellers_pkey  |            90112
 2017-02-08 06:13:36.259825+01 | 1486530816.25982 | pgbench_accounts_pkey |        673882112

 2017-02-08 06:13:37.497343+01 | 1486530817.49734 | pgbench_branches_pkey |            16384
 2017-02-08 06:13:37.497343+01 | 1486530817.49734 | pgbench_tellers_pkey  |            90112
 2017-02-08 06:13:37.497343+01 | 1486530817.49734 | pgbench_accounts_pkey |        673882112

 2017-02-08 06:13:38.73739+01 | 1486530818.73739 | pgbench_branches_pkey |            16384
 2017-02-08 06:13:38.73739+01 | 1486530818.73739 | pgbench_tellers_pkey  |            90112
 2017-02-08 06:13:38.73739+01 | 1486530818.73739 | pgbench_accounts_pkey |        673882112

 2017-02-08 06:13:40.027734+01 | 1486530820.02773 | pgbench_branches_pkey |            16384
 2017-02-08 06:13:40.027734+01 | 1486530820.02773 | pgbench_tellers_pkey  |            90112
 2017-02-08 06:13:40.027734+01 | 1486530820.02773 | pgbench_accounts_pkey |        673882112

 2017-02-08 06:13:41.255887+01 | 1486530821.25589 | pgbench_branches_pkey |            16384
 2017-02-08 06:13:41.255887+01 | 1486530821.25589 | pgbench_tellers_pkey  |            90112
 2017-02-08 06:13:41.255887+01 | 1486530821.25589 | pgbench_accounts_pkey |        673882112

 2017-02-08 06:13:42.495885+01 | 1486530822.49588 | pgbench_branches_pkey |            16384
 2017-02-08 06:13:42.495885+01 | 1486530822.49588 | pgbench_tellers_pkey  |            90112
 2017-02-08 06:13:42.495885+01 | 1486530822.49588 | pgbench_accounts_pkey |        673882112

 2017-02-08 06:13:43.685852+01 | 1486530823.68585 | pgbench_branches_pkey |            16384
 2017-02-08 06:13:43.685852+01 | 1486530823.68585 | pgbench_tellers_pkey  |            90112
 2017-02-08 06:13:43.685852+01 | 1486530823.68585 | pgbench_accounts_pkey |        673882112

 2017-02-08 06:13:44.97548+01 | 1486530824.97548 | pgbench_branches_pkey |            16384
 2017-02-08 06:13:44.97548+01 | 1486530824.97548 | pgbench_tellers_pkey  |            90112
 2017-02-08 06:13:44.97548+01 | 1486530824.97548 | pgbench_accounts_pkey |        673882112

 2017-02-08 06:13:46.170981+01 | 1486530826.17098 | pgbench_branches_pkey |            16384
 2017-02-08 06:13:46.170981+01 | 1486530826.17098 | pgbench_tellers_pkey  |            90112
 2017-02-08 06:13:46.170981+01 | 1486530826.17098 | pgbench_accounts_pkey |        673882112

 2017-02-08 06:13:47.467888+01 | 1486530827.46789 | pgbench_branches_pkey |            16384
 2017-02-08 06:13:47.467888+01 | 1486530827.46789 | pgbench_tellers_pkey  |            90112
 2017-02-08 06:13:47.467888+01 | 1486530827.46789 | pgbench_accounts_pkey |        673882112

 2017-02-08 06:13:48.699643+01 | 1486530828.69964 | pgbench_branches_pkey |            16384
 2017-02-08 06:13:48.699643+01 | 1486530828.69964 | pgbench_tellers_pkey  |            90112
 2017-02-08 06:13:48.699643+01 | 1486530828.69964 | pgbench_accounts_pkey |        673882112

 2017-02-08 06:13:49.889444+01 | 1486530829.88944 | pgbench_branches_pkey |            16384
 2017-02-08 06:13:49.889444+01 | 1486530829.88944 | pgbench_tellers_pkey  |            90112
 2017-02-08 06:13:49.889444+01 | 1486530829.88944 | pgbench_accounts_pkey |        673882112

 2017-02-08 06:13:51.113852+01 | 1486530831.11385 | pgbench_branches_pkey |            16384
 2017-02-08 06:13:51.113852+01 | 1486530831.11385 | pgbench_tellers_pkey  |            90112
 2017-02-08 06:13:51.113852+01 | 1486530831.11385 | pgbench_accounts_pkey |        673882112

 2017-02-08 06:13:52.32277+01 | 1486530832.32277 | pgbench_branches_pkey |            16384
 2017-02-08 06:13:52.32277+01 | 1486530832.32277 | pgbench_tellers_pkey  |            90112
 2017-02-08 06:13:52.32277+01 | 1486530832.32277 | pgbench_accounts_pkey |        673882112

 2017-02-08 06:13:53.522748+01 | 1486530833.52275 | pgbench_branches_pkey |            16384
 2017-02-08 06:13:53.522748+01 | 1486530833.52275 | pgbench_tellers_pkey  |            90112
 2017-02-08 06:13:53.522748+01 | 1486530833.52275 | pgbench_accounts_pkey |        673882112

 2017-02-08 06:13:54.722535+01 | 1486530834.72253 | pgbench_branches_pkey |            16384
 2017-02-08 06:13:54.722535+01 | 1486530834.72253 | pgbench_tellers_pkey  |            90112
 2017-02-08 06:13:54.722535+01 | 1486530834.72253 | pgbench_accounts_pkey |        673882112

 2017-02-08 06:13:55.963304+01 | 1486530835.9633 | pgbench_branches_pkey |            16384
 2017-02-08 06:13:55.963304+01 | 1486530835.9633 | pgbench_tellers_pkey  |            90112
 2017-02-08 06:13:55.963304+01 | 1486530835.9633 | pgbench_accounts_pkey |        673882112

 2017-02-08 06:13:57.20776+01 | 1486530837.20776 | pgbench_branches_pkey |            16384
 2017-02-08 06:13:57.20776+01 | 1486530837.20776 | pgbench_tellers_pkey  |            90112
 2017-02-08 06:13:57.20776+01 | 1486530837.20776 | pgbench_accounts_pkey |        673882112

 2017-02-08 06:13:58.415945+01 | 1486530838.41595 | pgbench_branches_pkey |            16384
 2017-02-08 06:13:58.415945+01 | 1486530838.41595 | pgbench_tellers_pkey  |            90112
 2017-02-08 06:13:58.415945+01 | 1486530838.41595 | pgbench_accounts_pkey |        673882112

 2017-02-08 06:13:59.609199+01 | 1486530839.6092 | pgbench_branches_pkey |            16384
 2017-02-08 06:13:59.609199+01 | 1486530839.6092 | pgbench_tellers_pkey  |            90112
 2017-02-08 06:13:59.609199+01 | 1486530839.6092 | pgbench_accounts_pkey |        673882112

 2017-02-08 06:14:00.794836+01 | 1486530840.79484 | pgbench_branches_pkey |            16384
 2017-02-08 06:14:00.794836+01 | 1486530840.79484 | pgbench_tellers_pkey  |            90112
 2017-02-08 06:14:00.794836+01 | 1486530840.79484 | pgbench_accounts_pkey |        673882112

 2017-02-08 06:14:02.079569+01 | 1486530842.07957 | pgbench_branches_pkey |            16384
 2017-02-08 06:14:02.079569+01 | 1486530842.07957 | pgbench_tellers_pkey  |            90112
 2017-02-08 06:14:02.079569+01 | 1486530842.07957 | pgbench_accounts_pkey |        673882112

 2017-02-08 06:14:03.280173+01 | 1486530843.28017 | pgbench_branches_pkey |            16384
 2017-02-08 06:14:03.280173+01 | 1486530843.28017 | pgbench_tellers_pkey  |            90112
 2017-02-08 06:14:03.280173+01 | 1486530843.28017 | pgbench_accounts_pkey |        673882112

 2017-02-08 06:14:04.503303+01 | 1486530844.5033 | pgbench_branches_pkey |            16384
 2017-02-08 06:14:04.503303+01 | 1486530844.5033 | pgbench_tellers_pkey  |            90112
 2017-02-08 06:14:04.503303+01 | 1486530844.5033 | pgbench_accounts_pkey |        673882112

 2017-02-08 06:14:05.772212+01 | 1486530845.77221 | pgbench_branches_pkey |            16384
 2017-02-08 06:14:05.772212+01 | 1486530845.77221 | pgbench_tellers_pkey  |            90112
 2017-02-08 06:14:05.772212+01 | 1486530845.77221 | pgbench_accounts_pkey |        673882112

 2017-02-08 06:14:07.033613+01 | 1486530847.03361 | pgbench_branches_pkey |            16384
 2017-02-08 06:14:07.033613+01 | 1486530847.03361 | pgbench_tellers_pkey  |            90112
 2017-02-08 06:14:07.033613+01 | 1486530847.03361 | pgbench_accounts_pkey |        673882112

 2017-02-08 06:14:08.234182+01 | 1486530848.23418 | pgbench_branches_pkey |            16384
 2017-02-08 06:14:08.234182+01 | 1486530848.23418 | pgbench_tellers_pkey  |            90112
 2017-02-08 06:14:08.234182+01 | 1486530848.23418 | pgbench_accounts_pkey |        673882112

 2017-02-08 06:14:09.435814+01 | 1486530849.43581 | pgbench_branches_pkey |            16384
 2017-02-08 06:14:09.435814+01 | 1486530849.43581 | pgbench_tellers_pkey  |            90112
 2017-02-08 06:14:09.435814+01 | 1486530849.43581 | pgbench_accounts_pkey |        673882112

 2017-02-08 06:14:10.700319+01 | 1486530850.70032 | pgbench_branches_pkey |            16384
 2017-02-08 06:14:10.700319+01 | 1486530850.70032 | pgbench_tellers_pkey  |            90112
 2017-02-08 06:14:10.700319+01 | 1486530850.70032 | pgbench_accounts_pkey |        673882112

 2017-02-08 06:14:11.956264+01 | 1486530851.95626 | pgbench_branches_pkey |            16384
 2017-02-08 06:14:11.956264+01 | 1486530851.95626 | pgbench_tellers_pkey  |            90112
 2017-02-08 06:14:11.956264+01 | 1486530851.95626 | pgbench_accounts_pkey |        673882112

 2017-02-08 06:14:13.199508+01 | 1486530853.19951 | pgbench_branches_pkey |            16384
 2017-02-08 06:14:13.199508+01 | 1486530853.19951 | pgbench_tellers_pkey  |            90112
 2017-02-08 06:14:13.199508+01 | 1486530853.19951 | pgbench_accounts_pkey |        673882112

 2017-02-08 06:14:14.41418+01 | 1486530854.41418 | pgbench_branches_pkey |            16384
 2017-02-08 06:14:14.41418+01 | 1486530854.41418 | pgbench_tellers_pkey  |            90112
 2017-02-08 06:14:14.41418+01 | 1486530854.41418 | pgbench_accounts_pkey |        673882112

 2017-02-08 06:14:15.6314+01 | 1486530855.6314 | pgbench_branches_pkey |            16384
 2017-02-08 06:14:15.6314+01 | 1486530855.6314 | pgbench_tellers_pkey  |            90112
 2017-02-08 06:14:15.6314+01 | 1486530855.6314 | pgbench_accounts_pkey |        673882112

 2017-02-08 06:14:16.865393+01 | 1486530856.86539 | pgbench_branches_pkey |            16384
 2017-02-08 06:14:16.865393+01 | 1486530856.86539 | pgbench_tellers_pkey  |            90112
 2017-02-08 06:14:16.865393+01 | 1486530856.86539 | pgbench_accounts_pkey |        673882112

 2017-02-08 06:14:18.093793+01 | 1486530858.09379 | pgbench_branches_pkey |            16384
 2017-02-08 06:14:18.093793+01 | 1486530858.09379 | pgbench_tellers_pkey  |            90112
 2017-02-08 06:14:18.093793+01 | 1486530858.09379 | pgbench_accounts_pkey |        673882112

 2017-02-08 06:14:19.343168+01 | 1486530859.34317 | pgbench_branches_pkey |            16384
 2017-02-08 06:14:19.343168+01 | 1486530859.34317 | pgbench_tellers_pkey  |            90112
 2017-02-08 06:14:19.343168+01 | 1486530859.34317 | pgbench_accounts_pkey |        673882112

 2017-02-08 06:14:20.564763+01 | 1486530860.56476 | pgbench_branches_pkey |            16384
 2017-02-08 06:14:20.564763+01 | 1486530860.56476 | pgbench_tellers_pkey  |            90112
 2017-02-08 06:14:20.564763+01 | 1486530860.56476 | pgbench_accounts_pkey |        673882112

 2017-02-08 06:14:21.794709+01 | 1486530861.79471 | pgbench_branches_pkey |            16384
 2017-02-08 06:14:21.794709+01 | 1486530861.79471 | pgbench_tellers_pkey  |            90112
 2017-02-08 06:14:21.794709+01 | 1486530861.79471 | pgbench_accounts_pkey |        673882112

 2017-02-08 06:14:23.063201+01 | 1486530863.0632 | pgbench_branches_pkey |            16384
 2017-02-08 06:14:23.063201+01 | 1486530863.0632 | pgbench_tellers_pkey  |            90112
 2017-02-08 06:14:23.063201+01 | 1486530863.0632 | pgbench_accounts_pkey |        673882112

 2017-02-08 06:14:24.317254+01 | 1486530864.31725 | pgbench_branches_pkey |            16384
 2017-02-08 06:14:24.317254+01 | 1486530864.31725 | pgbench_tellers_pkey  |            90112
 2017-02-08 06:14:24.317254+01 | 1486530864.31725 | pgbench_accounts_pkey |        673882112

 2017-02-08 06:14:25.561026+01 | 1486530865.56103 | pgbench_branches_pkey |            16384
 2017-02-08 06:14:25.561026+01 | 1486530865.56103 | pgbench_tellers_pkey  |            90112
 2017-02-08 06:14:25.561026+01 | 1486530865.56103 | pgbench_accounts_pkey |        673882112

 2017-02-08 06:14:26.775067+01 | 1486530866.77507 | pgbench_branches_pkey |            16384
 2017-02-08 06:14:26.775067+01 | 1486530866.77507 | pgbench_tellers_pkey  |            90112
 2017-02-08 06:14:26.775067+01 | 1486530866.77507 | pgbench_accounts_pkey |        673882112

 2017-02-08 06:14:27.994427+01 | 1486530867.99443 | pgbench_branches_pkey |            16384
 2017-02-08 06:14:27.994427+01 | 1486530867.99443 | pgbench_tellers_pkey  |            90112
 2017-02-08 06:14:27.994427+01 | 1486530867.99443 | pgbench_accounts_pkey |        673882112

 2017-02-08 06:14:29.197665+01 | 1486530869.19766 | pgbench_branches_pkey |            16384
 2017-02-08 06:14:29.197665+01 | 1486530869.19766 | pgbench_tellers_pkey  |            90112
 2017-02-08 06:14:29.197665+01 | 1486530869.19766 | pgbench_accounts_pkey |        673882112

 2017-02-08 06:14:30.375061+01 | 1486530870.37506 | pgbench_branches_pkey |            16384
 2017-02-08 06:14:30.375061+01 | 1486530870.37506 | pgbench_tellers_pkey  |            90112
 2017-02-08 06:14:30.375061+01 | 1486530870.37506 | pgbench_accounts_pkey |        673882112

 2017-02-08 06:14:31.58297+01 | 1486530871.58297 | pgbench_branches_pkey |            16384
 2017-02-08 06:14:31.58297+01 | 1486530871.58297 | pgbench_tellers_pkey  |            90112
 2017-02-08 06:14:31.58297+01 | 1486530871.58297 | pgbench_accounts_pkey |        673882112

 2017-02-08 06:14:32.814628+01 | 1486530872.81463 | pgbench_branches_pkey |            16384
 2017-02-08 06:14:32.814628+01 | 1486530872.81463 | pgbench_tellers_pkey  |            90112
 2017-02-08 06:14:32.814628+01 | 1486530872.81463 | pgbench_accounts_pkey |        673882112

 2017-02-08 06:14:34.051768+01 | 1486530874.05177 | pgbench_branches_pkey |            16384
 2017-02-08 06:14:34.051768+01 | 1486530874.05177 | pgbench_tellers_pkey  |            90112
 2017-02-08 06:14:34.051768+01 | 1486530874.05177 | pgbench_accounts_pkey |        673882112

 2017-02-08 06:14:35.316412+01 | 1486530875.31641 | pgbench_branches_pkey |            16384
 2017-02-08 06:14:35.316412+01 | 1486530875.31641 | pgbench_tellers_pkey  |            90112
 2017-02-08 06:14:35.316412+01 | 1486530875.31641 | pgbench_accounts_pkey |        673882112

 2017-02-08 06:14:36.483748+01 | 1486530876.48375 | pgbench_branches_pkey |            16384
 2017-02-08 06:14:36.483748+01 | 1486530876.48375 | pgbench_tellers_pkey  |            90112
 2017-02-08 06:14:36.483748+01 | 1486530876.48375 | pgbench_accounts_pkey |        673882112

 2017-02-08 06:14:37.724481+01 | 1486530877.72448 | pgbench_branches_pkey |            16384
 2017-02-08 06:14:37.724481+01 | 1486530877.72448 | pgbench_tellers_pkey  |            90112
 2017-02-08 06:14:37.724481+01 | 1486530877.72448 | pgbench_accounts_pkey |        673882112

 2017-02-08 06:14:38.939695+01 | 1486530878.93969 | pgbench_branches_pkey |            16384
 2017-02-08 06:14:38.939695+01 | 1486530878.93969 | pgbench_tellers_pkey  |            90112
 2017-02-08 06:14:38.939695+01 | 1486530878.93969 | pgbench_accounts_pkey |        673882112

 2017-02-08 06:14:40.208764+01 | 1486530880.20876 | pgbench_branches_pkey |            16384
 2017-02-08 06:14:40.208764+01 | 1486530880.20876 | pgbench_tellers_pkey  |            90112
 2017-02-08 06:14:40.208764+01 | 1486530880.20876 | pgbench_accounts_pkey |        673882112

 2017-02-08 06:14:41.480908+01 | 1486530881.48091 | pgbench_branches_pkey |            16384
 2017-02-08 06:14:41.480908+01 | 1486530881.48091 | pgbench_tellers_pkey  |            90112
 2017-02-08 06:14:41.480908+01 | 1486530881.48091 | pgbench_accounts_pkey |        673882112

 2017-02-08 06:14:42.681288+01 | 1486530882.68129 | pgbench_branches_pkey |            16384
 2017-02-08 06:14:42.681288+01 | 1486530882.68129 | pgbench_tellers_pkey  |            90112
 2017-02-08 06:14:42.681288+01 | 1486530882.68129 | pgbench_accounts_pkey |        673882112

 2017-02-08 06:14:43.908802+01 | 1486530883.9088 | pgbench_branches_pkey |            16384
 2017-02-08 06:14:43.908802+01 | 1486530883.9088 | pgbench_tellers_pkey  |            90112
 2017-02-08 06:14:43.908802+01 | 1486530883.9088 | pgbench_accounts_pkey |        673882112

 2017-02-08 06:14:45.200002+01 | 1486530885.2 | pgbench_branches_pkey |            16384
 2017-02-08 06:14:45.200002+01 | 1486530885.2 | pgbench_tellers_pkey  |            90112
 2017-02-08 06:14:45.200002+01 | 1486530885.2 | pgbench_accounts_pkey |        673882112

 2017-02-08 06:14:46.42029+01 | 1486530886.42029 | pgbench_branches_pkey |            16384
 2017-02-08 06:14:46.42029+01 | 1486530886.42029 | pgbench_tellers_pkey  |            90112
 2017-02-08 06:14:46.42029+01 | 1486530886.42029 | pgbench_accounts_pkey |        673882112

 2017-02-08 06:14:47.623582+01 | 1486530887.62358 | pgbench_branches_pkey |            16384
 2017-02-08 06:14:47.623582+01 | 1486530887.62358 | pgbench_tellers_pkey  |            90112
 2017-02-08 06:14:47.623582+01 | 1486530887.62358 | pgbench_accounts_pkey |        673882112

 2017-02-08 06:14:48.819313+01 | 1486530888.81931 | pgbench_branches_pkey |            16384
 2017-02-08 06:14:48.819313+01 | 1486530888.81931 | pgbench_tellers_pkey  |            90112
 2017-02-08 06:14:48.819313+01 | 1486530888.81931 | pgbench_accounts_pkey |        673882112

 2017-02-08 06:14:49.977686+01 | 1486530889.97769 | pgbench_branches_pkey |            16384
 2017-02-08 06:14:49.977686+01 | 1486530889.97769 | pgbench_tellers_pkey  |            90112
 2017-02-08 06:14:49.977686+01 | 1486530889.97769 | pgbench_accounts_pkey |        673882112

 2017-02-08 06:14:51.16741+01 | 1486530891.16741 | pgbench_branches_pkey |            16384
 2017-02-08 06:14:51.16741+01 | 1486530891.16741 | pgbench_tellers_pkey  |            90112
 2017-02-08 06:14:51.16741+01 | 1486530891.16741 | pgbench_accounts_pkey |        673882112

 2017-02-08 06:14:52.375915+01 | 1486530892.37592 | pgbench_branches_pkey |            16384
 2017-02-08 06:14:52.375915+01 | 1486530892.37592 | pgbench_tellers_pkey  |            90112
 2017-02-08 06:14:52.375915+01 | 1486530892.37592 | pgbench_accounts_pkey |        673882112

 2017-02-08 06:14:53.650525+01 | 1486530893.65053 | pgbench_branches_pkey |            16384
 2017-02-08 06:14:53.650525+01 | 1486530893.65053 | pgbench_tellers_pkey  |            90112
 2017-02-08 06:14:53.650525+01 | 1486530893.65053 | pgbench_accounts_pkey |        673882112

 2017-02-08 06:14:54.882661+01 | 1486530894.88266 | pgbench_branches_pkey |            16384
 2017-02-08 06:14:54.882661+01 | 1486530894.88266 | pgbench_tellers_pkey  |            90112
 2017-02-08 06:14:54.882661+01 | 1486530894.88266 | pgbench_accounts_pkey |        673882112

 2017-02-08 06:14:56.126689+01 | 1486530896.12669 | pgbench_branches_pkey |            16384
 2017-02-08 06:14:56.126689+01 | 1486530896.12669 | pgbench_tellers_pkey  |            90112
 2017-02-08 06:14:56.126689+01 | 1486530896.12669 | pgbench_accounts_pkey |        673882112

 2017-02-08 06:14:57.357566+01 | 1486530897.35757 | pgbench_branches_pkey |            16384
 2017-02-08 06:14:57.357566+01 | 1486530897.35757 | pgbench_tellers_pkey  |            90112
 2017-02-08 06:14:57.357566+01 | 1486530897.35757 | pgbench_accounts_pkey |        673882112

 2017-02-08 06:14:58.560839+01 | 1486530898.56084 | pgbench_branches_pkey |            16384
 2017-02-08 06:14:58.560839+01 | 1486530898.56084 | pgbench_tellers_pkey  |            90112
 2017-02-08 06:14:58.560839+01 | 1486530898.56084 | pgbench_accounts_pkey |        673882112

 2017-02-08 06:14:59.786596+01 | 1486530899.7866 | pgbench_branches_pkey |            16384
 2017-02-08 06:14:59.786596+01 | 1486530899.7866 | pgbench_tellers_pkey  |            90112
 2017-02-08 06:14:59.786596+01 | 1486530899.7866 | pgbench_accounts_pkey |        673882112

 2017-02-08 06:15:01.032928+01 | 1486530901.03293 | pgbench_branches_pkey |            16384
 2017-02-08 06:15:01.032928+01 | 1486530901.03293 | pgbench_tellers_pkey  |            90112
 2017-02-08 06:15:01.032928+01 | 1486530901.03293 | pgbench_accounts_pkey |        673882112

 2017-02-08 06:15:02.276455+01 | 1486530902.27645 | pgbench_branches_pkey |            16384
 2017-02-08 06:15:02.276455+01 | 1486530902.27645 | pgbench_tellers_pkey  |            90112
 2017-02-08 06:15:02.276455+01 | 1486530902.27645 | pgbench_accounts_pkey |        673882112

 2017-02-08 06:15:03.434196+01 | 1486530903.4342 | pgbench_branches_pkey |            16384
 2017-02-08 06:15:03.434196+01 | 1486530903.4342 | pgbench_tellers_pkey  |            90112
 2017-02-08 06:15:03.434196+01 | 1486530903.4342 | pgbench_accounts_pkey |        673882112

 2017-02-08 06:15:04.663644+01 | 1486530904.66364 | pgbench_branches_pkey |            16384
 2017-02-08 06:15:04.663644+01 | 1486530904.66364 | pgbench_tellers_pkey  |            90112
 2017-02-08 06:15:04.663644+01 | 1486530904.66364 | pgbench_accounts_pkey |        673882112

 2017-02-08 06:15:05.935691+01 | 1486530905.93569 | pgbench_branches_pkey |            16384
 2017-02-08 06:15:05.935691+01 | 1486530905.93569 | pgbench_tellers_pkey  |            90112
 2017-02-08 06:15:05.935691+01 | 1486530905.93569 | pgbench_accounts_pkey |        673882112

 2017-02-08 06:15:07.22693+01 | 1486530907.22693 | pgbench_branches_pkey |            16384
 2017-02-08 06:15:07.22693+01 | 1486530907.22693 | pgbench_tellers_pkey  |            90112
 2017-02-08 06:15:07.22693+01 | 1486530907.22693 | pgbench_accounts_pkey |        673882112

 2017-02-08 06:15:08.427409+01 | 1486530908.42741 | pgbench_branches_pkey |            16384
 2017-02-08 06:15:08.427409+01 | 1486530908.42741 | pgbench_tellers_pkey  |            90112
 2017-02-08 06:15:08.427409+01 | 1486530908.42741 | pgbench_accounts_pkey |        673882112

 2017-02-08 06:15:09.596702+01 | 1486530909.5967 | pgbench_branches_pkey |            16384
 2017-02-08 06:15:09.596702+01 | 1486530909.5967 | pgbench_tellers_pkey  |            90112
 2017-02-08 06:15:09.596702+01 | 1486530909.5967 | pgbench_accounts_pkey |        673882112

 2017-02-08 06:15:10.799467+01 | 1486530910.79947 | pgbench_branches_pkey |            16384
 2017-02-08 06:15:10.799467+01 | 1486530910.79947 | pgbench_tellers_pkey  |            90112
 2017-02-08 06:15:10.799467+01 | 1486530910.79947 | pgbench_accounts_pkey |        673882112

 2017-02-08 06:15:12.015208+01 | 1486530912.01521 | pgbench_branches_pkey |            16384
 2017-02-08 06:15:12.015208+01 | 1486530912.01521 | pgbench_tellers_pkey  |            90112
 2017-02-08 06:15:12.015208+01 | 1486530912.01521 | pgbench_accounts_pkey |        673882112

 2017-02-08 06:15:13.262671+01 | 1486530913.26267 | pgbench_branches_pkey |            16384
 2017-02-08 06:15:13.262671+01 | 1486530913.26267 | pgbench_tellers_pkey  |            90112
 2017-02-08 06:15:13.262671+01 | 1486530913.26267 | pgbench_accounts_pkey |        673882112

 2017-02-08 06:15:14.532509+01 | 1486530914.53251 | pgbench_branches_pkey |            16384
 2017-02-08 06:15:14.532509+01 | 1486530914.53251 | pgbench_tellers_pkey  |            90112
 2017-02-08 06:15:14.532509+01 | 1486530914.53251 | pgbench_accounts_pkey |        673882112

 2017-02-08 06:15:15.748897+01 | 1486530915.7489 | pgbench_branches_pkey |            16384
 2017-02-08 06:15:15.748897+01 | 1486530915.7489 | pgbench_tellers_pkey  |            90112
 2017-02-08 06:15:15.748897+01 | 1486530915.7489 | pgbench_accounts_pkey |        673882112

 2017-02-08 06:15:17.00601+01 | 1486530917.00601 | pgbench_branches_pkey |            16384
 2017-02-08 06:15:17.00601+01 | 1486530917.00601 | pgbench_tellers_pkey  |            90112
 2017-02-08 06:15:17.00601+01 | 1486530917.00601 | pgbench_accounts_pkey |        673882112

 2017-02-08 06:15:18.227577+01 | 1486530918.22758 | pgbench_branches_pkey |            16384
 2017-02-08 06:15:18.227577+01 | 1486530918.22758 | pgbench_tellers_pkey  |            90112
 2017-02-08 06:15:18.227577+01 | 1486530918.22758 | pgbench_accounts_pkey |        673882112

 2017-02-08 06:15:19.390578+01 | 1486530919.39058 | pgbench_branches_pkey |            16384
 2017-02-08 06:15:19.390578+01 | 1486530919.39058 | pgbench_tellers_pkey  |            90112
 2017-02-08 06:15:19.390578+01 | 1486530919.39058 | pgbench_accounts_pkey |        673882112

 2017-02-08 06:15:20.645419+01 | 1486530920.64542 | pgbench_branches_pkey |            16384
 2017-02-08 06:15:20.645419+01 | 1486530920.64542 | pgbench_tellers_pkey  |            90112
 2017-02-08 06:15:20.645419+01 | 1486530920.64542 | pgbench_accounts_pkey |        673882112

 2017-02-08 06:15:21.858871+01 | 1486530921.85887 | pgbench_branches_pkey |            16384
 2017-02-08 06:15:21.858871+01 | 1486530921.85887 | pgbench_tellers_pkey  |            90112
 2017-02-08 06:15:21.858871+01 | 1486530921.85887 | pgbench_accounts_pkey |        673882112

 2017-02-08 06:15:23.113848+01 | 1486530923.11385 | pgbench_branches_pkey |            16384
 2017-02-08 06:15:23.113848+01 | 1486530923.11385 | pgbench_tellers_pkey  |            90112
 2017-02-08 06:15:23.113848+01 | 1486530923.11385 | pgbench_accounts_pkey |        673882112

 2017-02-08 06:15:24.347105+01 | 1486530924.34711 | pgbench_branches_pkey |            16384
 2017-02-08 06:15:24.347105+01 | 1486530924.34711 | pgbench_tellers_pkey  |            90112
 2017-02-08 06:15:24.347105+01 | 1486530924.34711 | pgbench_accounts_pkey |        673882112

 2017-02-08 06:15:25.559808+01 | 1486530925.55981 | pgbench_branches_pkey |            16384
 2017-02-08 06:15:25.559808+01 | 1486530925.55981 | pgbench_tellers_pkey  |            90112
 2017-02-08 06:15:25.559808+01 | 1486530925.55981 | pgbench_accounts_pkey |        673882112

 2017-02-08 06:15:26.81382+01 | 1486530926.81382 | pgbench_branches_pkey |            16384
 2017-02-08 06:15:26.81382+01 | 1486530926.81382 | pgbench_tellers_pkey  |            90112
 2017-02-08 06:15:26.81382+01 | 1486530926.81382 | pgbench_accounts_pkey |        673882112

 2017-02-08 06:15:28.070879+01 | 1486530928.07088 | pgbench_branches_pkey |            16384
 2017-02-08 06:15:28.070879+01 | 1486530928.07088 | pgbench_tellers_pkey  |            90112
 2017-02-08 06:15:28.070879+01 | 1486530928.07088 | pgbench_accounts_pkey |        673882112

 2017-02-08 06:15:29.326832+01 | 1486530929.32683 | pgbench_branches_pkey |            16384
 2017-02-08 06:15:29.326832+01 | 1486530929.32683 | pgbench_tellers_pkey  |            90112
 2017-02-08 06:15:29.326832+01 | 1486530929.32683 | pgbench_accounts_pkey |        673882112

 2017-02-08 06:15:30.559707+01 | 1486530930.55971 | pgbench_branches_pkey |            16384
 2017-02-08 06:15:30.559707+01 | 1486530930.55971 | pgbench_tellers_pkey  |            90112
 2017-02-08 06:15:30.559707+01 | 1486530930.55971 | pgbench_accounts_pkey |        673882112

 2017-02-08 06:15:31.736926+01 | 1486530931.73693 | pgbench_branches_pkey |            16384
 2017-02-08 06:15:31.736926+01 | 1486530931.73693 | pgbench_tellers_pkey  |            90112
 2017-02-08 06:15:31.736926+01 | 1486530931.73693 | pgbench_accounts_pkey |        673882112

 2017-02-08 06:15:32.999812+01 | 1486530932.99981 | pgbench_branches_pkey |            16384
 2017-02-08 06:15:32.999812+01 | 1486530932.99981 | pgbench_tellers_pkey  |            90112
 2017-02-08 06:15:32.999812+01 | 1486530932.99981 | pgbench_accounts_pkey |        673882112

 2017-02-08 06:15:34.240989+01 | 1486530934.24099 | pgbench_branches_pkey |            16384
 2017-02-08 06:15:34.240989+01 | 1486530934.24099 | pgbench_tellers_pkey  |            90112
 2017-02-08 06:15:34.240989+01 | 1486530934.24099 | pgbench_accounts_pkey |        673882112

 2017-02-08 06:15:35.48389+01 | 1486530935.48389 | pgbench_branches_pkey |            16384
 2017-02-08 06:15:35.48389+01 | 1486530935.48389 | pgbench_tellers_pkey  |            90112
 2017-02-08 06:15:35.48389+01 | 1486530935.48389 | pgbench_accounts_pkey |        673882112

 2017-02-08 06:15:36.73013+01 | 1486530936.73013 | pgbench_branches_pkey |            16384
 2017-02-08 06:15:36.73013+01 | 1486530936.73013 | pgbench_tellers_pkey  |            90112
 2017-02-08 06:15:36.73013+01 | 1486530936.73013 | pgbench_accounts_pkey |        673882112

 2017-02-08 06:15:37.950673+01 | 1486530937.95067 | pgbench_branches_pkey |            16384
 2017-02-08 06:15:37.950673+01 | 1486530937.95067 | pgbench_tellers_pkey  |            90112
 2017-02-08 06:15:37.950673+01 | 1486530937.95067 | pgbench_accounts_pkey |        673882112

 2017-02-08 06:15:39.138508+01 | 1486530939.13851 | pgbench_branches_pkey |            16384
 2017-02-08 06:15:39.138508+01 | 1486530939.13851 | pgbench_tellers_pkey  |            90112
 2017-02-08 06:15:39.138508+01 | 1486530939.13851 | pgbench_accounts_pkey |        673882112

 2017-02-08 06:15:40.324853+01 | 1486530940.32485 | pgbench_branches_pkey |            16384
 2017-02-08 06:15:40.324853+01 | 1486530940.32485 | pgbench_tellers_pkey  |            90112
 2017-02-08 06:15:40.324853+01 | 1486530940.32485 | pgbench_accounts_pkey |        673882112

 2017-02-08 06:15:41.569179+01 | 1486530941.56918 | pgbench_branches_pkey |            16384
 2017-02-08 06:15:41.569179+01 | 1486530941.56918 | pgbench_tellers_pkey  |            90112
 2017-02-08 06:15:41.569179+01 | 1486530941.56918 | pgbench_accounts_pkey |        673882112

 2017-02-08 06:15:42.784789+01 | 1486530942.78479 | pgbench_branches_pkey |            16384
 2017-02-08 06:15:42.784789+01 | 1486530942.78479 | pgbench_tellers_pkey  |            90112
 2017-02-08 06:15:42.784789+01 | 1486530942.78479 | pgbench_accounts_pkey |        673882112

 2017-02-08 06:15:44.009799+01 | 1486530944.0098 | pgbench_branches_pkey |            16384
 2017-02-08 06:15:44.009799+01 | 1486530944.0098 | pgbench_tellers_pkey  |            90112
 2017-02-08 06:15:44.009799+01 | 1486530944.0098 | pgbench_accounts_pkey |        673882112

 2017-02-08 06:15:45.21868+01 | 1486530945.21868 | pgbench_branches_pkey |            16384
 2017-02-08 06:15:45.21868+01 | 1486530945.21868 | pgbench_tellers_pkey  |            90112
 2017-02-08 06:15:45.21868+01 | 1486530945.21868 | pgbench_accounts_pkey |        673882112

 2017-02-08 06:15:46.475168+01 | 1486530946.47517 | pgbench_branches_pkey |            16384
 2017-02-08 06:15:46.475168+01 | 1486530946.47517 | pgbench_tellers_pkey  |            90112
 2017-02-08 06:15:46.475168+01 | 1486530946.47517 | pgbench_accounts_pkey |        673882112

 2017-02-08 06:15:47.678175+01 | 1486530947.67817 | pgbench_branches_pkey |            16384
 2017-02-08 06:15:47.678175+01 | 1486530947.67817 | pgbench_tellers_pkey  |            90112
 2017-02-08 06:15:47.678175+01 | 1486530947.67817 | pgbench_accounts_pkey |        673882112

 2017-02-08 06:15:48.892046+01 | 1486530948.89205 | pgbench_branches_pkey |            16384
 2017-02-08 06:15:48.892046+01 | 1486530948.89205 | pgbench_tellers_pkey  |            90112
 2017-02-08 06:15:48.892046+01 | 1486530948.89205 | pgbench_accounts_pkey |        673882112

 2017-02-08 06:15:50.09136+01 | 1486530950.09136 | pgbench_branches_pkey |            16384
 2017-02-08 06:15:50.09136+01 | 1486530950.09136 | pgbench_tellers_pkey  |            90112
 2017-02-08 06:15:50.09136+01 | 1486530950.09136 | pgbench_accounts_pkey |        673882112

 2017-02-08 06:15:51.348543+01 | 1486530951.34854 | pgbench_branches_pkey |            16384
 2017-02-08 06:15:51.348543+01 | 1486530951.34854 | pgbench_tellers_pkey  |            90112
 2017-02-08 06:15:51.348543+01 | 1486530951.34854 | pgbench_accounts_pkey |        673882112

 2017-02-08 06:15:52.611279+01 | 1486530952.61128 | pgbench_branches_pkey |            16384
 2017-02-08 06:15:52.611279+01 | 1486530952.61128 | pgbench_tellers_pkey  |            90112
 2017-02-08 06:15:52.611279+01 | 1486530952.61128 | pgbench_accounts_pkey |        673882112

 2017-02-08 06:15:53.825223+01 | 1486530953.82522 | pgbench_branches_pkey |            16384
 2017-02-08 06:15:53.825223+01 | 1486530953.82522 | pgbench_tellers_pkey  |            90112
 2017-02-08 06:15:53.825223+01 | 1486530953.82522 | pgbench_accounts_pkey |        673882112

 2017-02-08 06:15:55.019329+01 | 1486530955.01933 | pgbench_branches_pkey |            16384
 2017-02-08 06:15:55.019329+01 | 1486530955.01933 | pgbench_tellers_pkey  |            90112
 2017-02-08 06:15:55.019329+01 | 1486530955.01933 | pgbench_accounts_pkey |        673882112

 2017-02-08 06:15:56.214533+01 | 1486530956.21453 | pgbench_branches_pkey |            16384
 2017-02-08 06:15:56.214533+01 | 1486530956.21453 | pgbench_tellers_pkey  |            90112
 2017-02-08 06:15:56.214533+01 | 1486530956.21453 | pgbench_accounts_pkey |        673882112

 2017-02-08 06:15:57.429041+01 | 1486530957.42904 | pgbench_branches_pkey |            16384
 2017-02-08 06:15:57.429041+01 | 1486530957.42904 | pgbench_tellers_pkey  |            90112
 2017-02-08 06:15:57.429041+01 | 1486530957.42904 | pgbench_accounts_pkey |        673882112

 2017-02-08 06:15:58.601918+01 | 1486530958.60192 | pgbench_branches_pkey |            16384
 2017-02-08 06:15:58.601918+01 | 1486530958.60192 | pgbench_tellers_pkey  |            90112
 2017-02-08 06:15:58.601918+01 | 1486530958.60192 | pgbench_accounts_pkey |        673882112

 2017-02-08 06:15:59.810535+01 | 1486530959.81053 | pgbench_branches_pkey |            16384
 2017-02-08 06:15:59.810535+01 | 1486530959.81053 | pgbench_tellers_pkey  |            90112
 2017-02-08 06:15:59.810535+01 | 1486530959.81053 | pgbench_accounts_pkey |        673882112

 2017-02-08 06:16:01.044033+01 | 1486530961.04403 | pgbench_branches_pkey |            16384
 2017-02-08 06:16:01.044033+01 | 1486530961.04403 | pgbench_tellers_pkey  |            90112
 2017-02-08 06:16:01.044033+01 | 1486530961.04403 | pgbench_accounts_pkey |        673882112

 2017-02-08 06:16:02.276057+01 | 1486530962.27606 | pgbench_branches_pkey |            16384
 2017-02-08 06:16:02.276057+01 | 1486530962.27606 | pgbench_tellers_pkey  |            90112
 2017-02-08 06:16:02.276057+01 | 1486530962.27606 | pgbench_accounts_pkey |        673882112

 2017-02-08 06:16:03.46959+01 | 1486530963.46959 | pgbench_branches_pkey |            16384
 2017-02-08 06:16:03.46959+01 | 1486530963.46959 | pgbench_tellers_pkey  |            90112
 2017-02-08 06:16:03.46959+01 | 1486530963.46959 | pgbench_accounts_pkey |        673882112

 2017-02-08 06:16:04.679943+01 | 1486530964.67994 | pgbench_branches_pkey |            16384
 2017-02-08 06:16:04.679943+01 | 1486530964.67994 | pgbench_tellers_pkey  |            90112
 2017-02-08 06:16:04.679943+01 | 1486530964.67994 | pgbench_accounts_pkey |        673882112

 2017-02-08 06:16:05.963762+01 | 1486530965.96376 | pgbench_branches_pkey |            16384
 2017-02-08 06:16:05.963762+01 | 1486530965.96376 | pgbench_tellers_pkey  |            90112
 2017-02-08 06:16:05.963762+01 | 1486530965.96376 | pgbench_accounts_pkey |        673882112

 2017-02-08 06:16:07.173424+01 | 1486530967.17342 | pgbench_branches_pkey |            16384
 2017-02-08 06:16:07.173424+01 | 1486530967.17342 | pgbench_tellers_pkey  |            90112
 2017-02-08 06:16:07.173424+01 | 1486530967.17342 | pgbench_accounts_pkey |        673882112

 2017-02-08 06:16:08.421394+01 | 1486530968.42139 | pgbench_branches_pkey |            16384
 2017-02-08 06:16:08.421394+01 | 1486530968.42139 | pgbench_tellers_pkey  |            90112
 2017-02-08 06:16:08.421394+01 | 1486530968.42139 | pgbench_accounts_pkey |        673882112

 2017-02-08 06:16:09.674649+01 | 1486530969.67465 | pgbench_branches_pkey |            16384
 2017-02-08 06:16:09.674649+01 | 1486530969.67465 | pgbench_tellers_pkey  |            90112
 2017-02-08 06:16:09.674649+01 | 1486530969.67465 | pgbench_accounts_pkey |        673882112

 2017-02-08 06:16:10.846694+01 | 1486530970.84669 | pgbench_branches_pkey |            16384
 2017-02-08 06:16:10.846694+01 | 1486530970.84669 | pgbench_tellers_pkey  |            90112
 2017-02-08 06:16:10.846694+01 | 1486530970.84669 | pgbench_accounts_pkey |        673882112

 2017-02-08 06:16:12.082797+01 | 1486530972.0828 | pgbench_branches_pkey |            16384
 2017-02-08 06:16:12.082797+01 | 1486530972.0828 | pgbench_tellers_pkey  |            90112
 2017-02-08 06:16:12.082797+01 | 1486530972.0828 | pgbench_accounts_pkey |        673882112

 2017-02-08 06:16:13.301626+01 | 1486530973.30163 | pgbench_branches_pkey |            16384
 2017-02-08 06:16:13.301626+01 | 1486530973.30163 | pgbench_tellers_pkey  |            90112
 2017-02-08 06:16:13.301626+01 | 1486530973.30163 | pgbench_accounts_pkey |        673882112

 2017-02-08 06:16:14.495222+01 | 1486530974.49522 | pgbench_branches_pkey |            16384
 2017-02-08 06:16:14.495222+01 | 1486530974.49522 | pgbench_tellers_pkey  |            90112
 2017-02-08 06:16:14.495222+01 | 1486530974.49522 | pgbench_accounts_pkey |        673882112

 2017-02-08 06:16:15.733404+01 | 1486530975.7334 | pgbench_branches_pkey |            16384
 2017-02-08 06:16:15.733404+01 | 1486530975.7334 | pgbench_tellers_pkey  |            90112
 2017-02-08 06:16:15.733404+01 | 1486530975.7334 | pgbench_accounts_pkey |        673882112

 2017-02-08 06:16:16.95711+01 | 1486530976.95711 | pgbench_branches_pkey |            16384
 2017-02-08 06:16:16.95711+01 | 1486530976.95711 | pgbench_tellers_pkey  |            90112
 2017-02-08 06:16:16.95711+01 | 1486530976.95711 | pgbench_accounts_pkey |        673882112

 2017-02-08 06:16:18.186122+01 | 1486530978.18612 | pgbench_branches_pkey |            16384
 2017-02-08 06:16:18.186122+01 | 1486530978.18612 | pgbench_tellers_pkey  |            90112
 2017-02-08 06:16:18.186122+01 | 1486530978.18612 | pgbench_accounts_pkey |        673882112

 2017-02-08 06:16:19.418347+01 | 1486530979.41835 | pgbench_branches_pkey |            16384
 2017-02-08 06:16:19.418347+01 | 1486530979.41835 | pgbench_tellers_pkey  |            90112
 2017-02-08 06:16:19.418347+01 | 1486530979.41835 | pgbench_accounts_pkey |        673882112

 2017-02-08 06:16:20.631133+01 | 1486530980.63113 | pgbench_branches_pkey |            16384
 2017-02-08 06:16:20.631133+01 | 1486530980.63113 | pgbench_tellers_pkey  |            90112
 2017-02-08 06:16:20.631133+01 | 1486530980.63113 | pgbench_accounts_pkey |        673882112

 2017-02-08 06:16:21.894475+01 | 1486530981.89447 | pgbench_branches_pkey |            16384
 2017-02-08 06:16:21.894475+01 | 1486530981.89447 | pgbench_tellers_pkey  |            90112
 2017-02-08 06:16:21.894475+01 | 1486530981.89447 | pgbench_accounts_pkey |        673882112

 2017-02-08 06:16:23.097353+01 | 1486530983.09735 | pgbench_branches_pkey |            16384
 2017-02-08 06:16:23.097353+01 | 1486530983.09735 | pgbench_tellers_pkey  |            90112
 2017-02-08 06:16:23.097353+01 | 1486530983.09735 | pgbench_accounts_pkey |        673882112

 2017-02-08 06:16:24.338309+01 | 1486530984.33831 | pgbench_branches_pkey |            16384
 2017-02-08 06:16:24.338309+01 | 1486530984.33831 | pgbench_tellers_pkey  |            90112
 2017-02-08 06:16:24.338309+01 | 1486530984.33831 | pgbench_accounts_pkey |        673882112

 2017-02-08 06:16:25.538552+01 | 1486530985.53855 | pgbench_branches_pkey |            16384
 2017-02-08 06:16:25.538552+01 | 1486530985.53855 | pgbench_tellers_pkey  |            90112
 2017-02-08 06:16:25.538552+01 | 1486530985.53855 | pgbench_accounts_pkey |        673882112

 2017-02-08 06:16:26.718486+01 | 1486530986.71849 | pgbench_branches_pkey |            16384
 2017-02-08 06:16:26.718486+01 | 1486530986.71849 | pgbench_tellers_pkey  |            90112
 2017-02-08 06:16:26.718486+01 | 1486530986.71849 | pgbench_accounts_pkey |        673882112

 2017-02-08 06:16:27.939114+01 | 1486530987.93911 | pgbench_branches_pkey |            16384
 2017-02-08 06:16:27.939114+01 | 1486530987.93911 | pgbench_tellers_pkey  |            90112
 2017-02-08 06:16:27.939114+01 | 1486530987.93911 | pgbench_accounts_pkey |        673882112

 2017-02-08 06:16:29.131851+01 | 1486530989.13185 | pgbench_branches_pkey |            16384
 2017-02-08 06:16:29.131851+01 | 1486530989.13185 | pgbench_tellers_pkey  |            90112
 2017-02-08 06:16:29.131851+01 | 1486530989.13185 | pgbench_accounts_pkey |        673882112

 2017-02-08 06:16:30.387906+01 | 1486530990.38791 | pgbench_branches_pkey |            16384
 2017-02-08 06:16:30.387906+01 | 1486530990.38791 | pgbench_tellers_pkey  |            90112
 2017-02-08 06:16:30.387906+01 | 1486530990.38791 | pgbench_accounts_pkey |        673882112

 2017-02-08 06:16:31.651355+01 | 1486530991.65136 | pgbench_branches_pkey |            16384
 2017-02-08 06:16:31.651355+01 | 1486530991.65136 | pgbench_tellers_pkey  |            90112
 2017-02-08 06:16:31.651355+01 | 1486530991.65136 | pgbench_accounts_pkey |        673882112

 2017-02-08 06:16:32.908353+01 | 1486530992.90835 | pgbench_branches_pkey |            16384
 2017-02-08 06:16:32.908353+01 | 1486530992.90835 | pgbench_tellers_pkey  |            90112
 2017-02-08 06:16:32.908353+01 | 1486530992.90835 | pgbench_accounts_pkey |        673882112

 2017-02-08 06:16:34.120159+01 | 1486530994.12016 | pgbench_branches_pkey |            16384
 2017-02-08 06:16:34.120159+01 | 1486530994.12016 | pgbench_tellers_pkey  |            90112
 2017-02-08 06:16:34.120159+01 | 1486530994.12016 | pgbench_accounts_pkey |        673882112

 2017-02-08 06:16:35.395092+01 | 1486530995.39509 | pgbench_branches_pkey |            16384
 2017-02-08 06:16:35.395092+01 | 1486530995.39509 | pgbench_tellers_pkey  |            90112
 2017-02-08 06:16:35.395092+01 | 1486530995.39509 | pgbench_accounts_pkey |        673882112

 2017-02-08 06:16:36.647897+01 | 1486530996.6479 | pgbench_branches_pkey |            16384
 2017-02-08 06:16:36.647897+01 | 1486530996.6479 | pgbench_tellers_pkey  |            90112
 2017-02-08 06:16:36.647897+01 | 1486530996.6479 | pgbench_accounts_pkey |        673882112

 2017-02-08 06:16:37.856875+01 | 1486530997.85687 | pgbench_branches_pkey |            16384
 2017-02-08 06:16:37.856875+01 | 1486530997.85687 | pgbench_tellers_pkey  |            90112
 2017-02-08 06:16:37.856875+01 | 1486530997.85687 | pgbench_accounts_pkey |        673882112

 2017-02-08 06:16:39.097103+01 | 1486530999.0971 | pgbench_branches_pkey |            16384
 2017-02-08 06:16:39.097103+01 | 1486530999.0971 | pgbench_tellers_pkey  |            90112
 2017-02-08 06:16:39.097103+01 | 1486530999.0971 | pgbench_accounts_pkey |        673882112

 2017-02-08 06:16:40.293717+01 | 1486531000.29372 | pgbench_branches_pkey |            16384
 2017-02-08 06:16:40.293717+01 | 1486531000.29372 | pgbench_tellers_pkey  |            90112
 2017-02-08 06:16:40.293717+01 | 1486531000.29372 | pgbench_accounts_pkey |        673882112

 2017-02-08 06:16:41.459264+01 | 1486531001.45926 | pgbench_branches_pkey |            16384
 2017-02-08 06:16:41.459264+01 | 1486531001.45926 | pgbench_tellers_pkey  |            90112
 2017-02-08 06:16:41.459264+01 | 1486531001.45926 | pgbench_accounts_pkey |        673882112

 2017-02-08 06:16:42.646795+01 | 1486531002.6468 | pgbench_branches_pkey |            16384
 2017-02-08 06:16:42.646795+01 | 1486531002.6468 | pgbench_tellers_pkey  |            90112
 2017-02-08 06:16:42.646795+01 | 1486531002.6468 | pgbench_accounts_pkey |        673882112

 2017-02-08 06:16:43.806312+01 | 1486531003.80631 | pgbench_branches_pkey |            16384
 2017-02-08 06:16:43.806312+01 | 1486531003.80631 | pgbench_tellers_pkey  |            90112
 2017-02-08 06:16:43.806312+01 | 1486531003.80631 | pgbench_accounts_pkey |        673882112

 2017-02-08 06:16:44.993426+01 | 1486531004.99343 | pgbench_branches_pkey |            16384
 2017-02-08 06:16:44.993426+01 | 1486531004.99343 | pgbench_tellers_pkey  |            90112
 2017-02-08 06:16:44.993426+01 | 1486531004.99343 | pgbench_accounts_pkey |        673882112

 2017-02-08 06:16:46.170878+01 | 1486531006.17088 | pgbench_branches_pkey |            16384
 2017-02-08 06:16:46.170878+01 | 1486531006.17088 | pgbench_tellers_pkey  |            90112
 2017-02-08 06:16:46.170878+01 | 1486531006.17088 | pgbench_accounts_pkey |        673882112

 2017-02-08 06:16:47.407384+01 | 1486531007.40738 | pgbench_branches_pkey |            16384
 2017-02-08 06:16:47.407384+01 | 1486531007.40738 | pgbench_tellers_pkey  |            90112
 2017-02-08 06:16:47.407384+01 | 1486531007.40738 | pgbench_accounts_pkey |        673882112

 2017-02-08 06:16:48.653792+01 | 1486531008.65379 | pgbench_branches_pkey |            16384
 2017-02-08 06:16:48.653792+01 | 1486531008.65379 | pgbench_tellers_pkey  |            90112
 2017-02-08 06:16:48.653792+01 | 1486531008.65379 | pgbench_accounts_pkey |        673882112

 2017-02-08 06:16:49.903215+01 | 1486531009.90321 | pgbench_branches_pkey |            16384
 2017-02-08 06:16:49.903215+01 | 1486531009.90321 | pgbench_tellers_pkey  |            90112
 2017-02-08 06:16:49.903215+01 | 1486531009.90321 | pgbench_accounts_pkey |        673882112

 2017-02-08 06:16:51.17651+01 | 1486531011.17651 | pgbench_branches_pkey |            16384
 2017-02-08 06:16:51.17651+01 | 1486531011.17651 | pgbench_tellers_pkey  |            90112
 2017-02-08 06:16:51.17651+01 | 1486531011.17651 | pgbench_accounts_pkey |        673882112

 2017-02-08 06:16:52.345327+01 | 1486531012.34533 | pgbench_branches_pkey |            16384
 2017-02-08 06:16:52.345327+01 | 1486531012.34533 | pgbench_tellers_pkey  |            90112
 2017-02-08 06:16:52.345327+01 | 1486531012.34533 | pgbench_accounts_pkey |        673882112

 2017-02-08 06:16:53.540565+01 | 1486531013.54057 | pgbench_branches_pkey |            16384
 2017-02-08 06:16:53.540565+01 | 1486531013.54057 | pgbench_tellers_pkey  |            90112
 2017-02-08 06:16:53.540565+01 | 1486531013.54057 | pgbench_accounts_pkey |        673882112

 2017-02-08 06:16:54.737623+01 | 1486531014.73762 | pgbench_branches_pkey |            16384
 2017-02-08 06:16:54.737623+01 | 1486531014.73762 | pgbench_tellers_pkey  |            90112
 2017-02-08 06:16:54.737623+01 | 1486531014.73762 | pgbench_accounts_pkey |        673882112

 2017-02-08 06:16:55.967861+01 | 1486531015.96786 | pgbench_branches_pkey |            16384
 2017-02-08 06:16:55.967861+01 | 1486531015.96786 | pgbench_tellers_pkey  |            90112
 2017-02-08 06:16:55.967861+01 | 1486531015.96786 | pgbench_accounts_pkey |        673882112

 2017-02-08 06:16:57.211221+01 | 1486531017.21122 | pgbench_branches_pkey |            16384
 2017-02-08 06:16:57.211221+01 | 1486531017.21122 | pgbench_tellers_pkey  |            90112
 2017-02-08 06:16:57.211221+01 | 1486531017.21122 | pgbench_accounts_pkey |        673882112

 2017-02-08 06:16:58.409455+01 | 1486531018.40946 | pgbench_branches_pkey |            16384
 2017-02-08 06:16:58.409455+01 | 1486531018.40946 | pgbench_tellers_pkey  |            90112
 2017-02-08 06:16:58.409455+01 | 1486531018.40946 | pgbench_accounts_pkey |        673882112

 2017-02-08 06:16:59.648899+01 | 1486531019.6489 | pgbench_branches_pkey |            16384
 2017-02-08 06:16:59.648899+01 | 1486531019.6489 | pgbench_tellers_pkey  |            90112
 2017-02-08 06:16:59.648899+01 | 1486531019.6489 | pgbench_accounts_pkey |        673882112

 2017-02-08 06:17:00.847288+01 | 1486531020.84729 | pgbench_branches_pkey |            16384
 2017-02-08 06:17:00.847288+01 | 1486531020.84729 | pgbench_tellers_pkey  |            90112
 2017-02-08 06:17:00.847288+01 | 1486531020.84729 | pgbench_accounts_pkey |        673882112

 2017-02-08 06:17:02.035351+01 | 1486531022.03535 | pgbench_branches_pkey |            16384
 2017-02-08 06:17:02.035351+01 | 1486531022.03535 | pgbench_tellers_pkey  |            90112
 2017-02-08 06:17:02.035351+01 | 1486531022.03535 | pgbench_accounts_pkey |        673882112

 2017-02-08 06:17:03.288414+01 | 1486531023.28841 | pgbench_branches_pkey |            16384
 2017-02-08 06:17:03.288414+01 | 1486531023.28841 | pgbench_tellers_pkey  |            90112
 2017-02-08 06:17:03.288414+01 | 1486531023.28841 | pgbench_accounts_pkey |        673882112

 2017-02-08 06:17:04.523177+01 | 1486531024.52318 | pgbench_branches_pkey |            16384
 2017-02-08 06:17:04.523177+01 | 1486531024.52318 | pgbench_tellers_pkey  |            90112
 2017-02-08 06:17:04.523177+01 | 1486531024.52318 | pgbench_accounts_pkey |        673882112

 2017-02-08 06:17:05.724177+01 | 1486531025.72418 | pgbench_branches_pkey |            16384
 2017-02-08 06:17:05.724177+01 | 1486531025.72418 | pgbench_tellers_pkey  |            90112
 2017-02-08 06:17:05.724177+01 | 1486531025.72418 | pgbench_accounts_pkey |        673882112

 2017-02-08 06:17:06.90705+01 | 1486531026.90705 | pgbench_branches_pkey |            16384
 2017-02-08 06:17:06.90705+01 | 1486531026.90705 | pgbench_tellers_pkey  |            90112
 2017-02-08 06:17:06.90705+01 | 1486531026.90705 | pgbench_accounts_pkey |        673882112

 2017-02-08 06:17:08.111225+01 | 1486531028.11122 | pgbench_branches_pkey |            16384
 2017-02-08 06:17:08.111225+01 | 1486531028.11122 | pgbench_tellers_pkey  |            90112
 2017-02-08 06:17:08.111225+01 | 1486531028.11122 | pgbench_accounts_pkey |        673882112

 2017-02-08 06:17:09.365278+01 | 1486531029.36528 | pgbench_branches_pkey |            16384
 2017-02-08 06:17:09.365278+01 | 1486531029.36528 | pgbench_tellers_pkey  |            90112
 2017-02-08 06:17:09.365278+01 | 1486531029.36528 | pgbench_accounts_pkey |        673882112

 2017-02-08 06:17:10.610932+01 | 1486531030.61093 | pgbench_branches_pkey |            16384
 2017-02-08 06:17:10.610932+01 | 1486531030.61093 | pgbench_tellers_pkey  |            90112
 2017-02-08 06:17:10.610932+01 | 1486531030.61093 | pgbench_accounts_pkey |        673882112

 2017-02-08 06:17:11.83789+01 | 1486531031.83789 | pgbench_branches_pkey |            16384
 2017-02-08 06:17:11.83789+01 | 1486531031.83789 | pgbench_tellers_pkey  |            90112
 2017-02-08 06:17:11.83789+01 | 1486531031.83789 | pgbench_accounts_pkey |        673882112

 2017-02-08 06:17:13.10564+01 | 1486531033.10564 | pgbench_branches_pkey |            16384
 2017-02-08 06:17:13.10564+01 | 1486531033.10564 | pgbench_tellers_pkey  |            90112
 2017-02-08 06:17:13.10564+01 | 1486531033.10564 | pgbench_accounts_pkey |        673882112

 2017-02-08 06:17:14.258278+01 | 1486531034.25828 | pgbench_branches_pkey |            16384
 2017-02-08 06:17:14.258278+01 | 1486531034.25828 | pgbench_tellers_pkey  |            90112
 2017-02-08 06:17:14.258278+01 | 1486531034.25828 | pgbench_accounts_pkey |        673882112

 2017-02-08 06:17:15.5016+01 | 1486531035.5016 | pgbench_branches_pkey |            16384
 2017-02-08 06:17:15.5016+01 | 1486531035.5016 | pgbench_tellers_pkey  |            90112
 2017-02-08 06:17:15.5016+01 | 1486531035.5016 | pgbench_accounts_pkey |        673882112

 2017-02-08 06:17:16.707725+01 | 1486531036.70773 | pgbench_branches_pkey |            16384
 2017-02-08 06:17:16.707725+01 | 1486531036.70773 | pgbench_tellers_pkey  |            90112
 2017-02-08 06:17:16.707725+01 | 1486531036.70773 | pgbench_accounts_pkey |        673882112

 2017-02-08 06:17:17.936418+01 | 1486531037.93642 | pgbench_branches_pkey |            16384
 2017-02-08 06:17:17.936418+01 | 1486531037.93642 | pgbench_tellers_pkey  |            90112
 2017-02-08 06:17:17.936418+01 | 1486531037.93642 | pgbench_accounts_pkey |        673882112

 2017-02-08 06:17:19.170995+01 | 1486531039.17099 | pgbench_branches_pkey |            16384
 2017-02-08 06:17:19.170995+01 | 1486531039.17099 | pgbench_tellers_pkey  |            90112
 2017-02-08 06:17:19.170995+01 | 1486531039.17099 | pgbench_accounts_pkey |        673882112

 2017-02-08 06:17:20.441243+01 | 1486531040.44124 | pgbench_branches_pkey |            16384
 2017-02-08 06:17:20.441243+01 | 1486531040.44124 | pgbench_tellers_pkey  |            90112
 2017-02-08 06:17:20.441243+01 | 1486531040.44124 | pgbench_accounts_pkey |        673882112

 2017-02-08 06:17:21.645601+01 | 1486531041.6456 | pgbench_branches_pkey |            16384
 2017-02-08 06:17:21.645601+01 | 1486531041.6456 | pgbench_tellers_pkey  |            90112
 2017-02-08 06:17:21.645601+01 | 1486531041.6456 | pgbench_accounts_pkey |        673882112

 2017-02-08 06:17:22.84464+01 | 1486531042.84464 | pgbench_branches_pkey |            16384
 2017-02-08 06:17:22.84464+01 | 1486531042.84464 | pgbench_tellers_pkey  |            90112
 2017-02-08 06:17:22.84464+01 | 1486531042.84464 | pgbench_accounts_pkey |        673882112

