 2017-02-08 06:12:23.706645+01 | 1486530743.70665 | 0/E7DC9178               |            3889992056

 2017-02-08 06:12:24.937825+01 | 1486530744.93782 | 0/E7DC91B0               |            3889992112

 2017-02-08 06:12:26.127065+01 | 1486530746.12706 | 0/E7DC91B0               |            3889992112

 2017-02-08 06:12:27.369032+01 | 1486530747.36903 | 0/E7DC91B0               |            3889992112

 2017-02-08 06:12:28.668348+01 | 1486530748.66835 | 0/E7DC91B0               |            3889992112

 2017-02-08 06:12:29.89627+01 | 1486530749.89627 | 0/E7DC91B0               |            3889992112

 2017-02-08 06:12:31.114817+01 | 1486530751.11482 | 0/E7DC91B0               |            3889992112

 2017-02-08 06:12:32.348495+01 | 1486530752.3485 | 0/E7DC91B0               |            3889992112

 2017-02-08 06:12:33.557727+01 | 1486530753.55773 | 0/E7DC91B0               |            3889992112

 2017-02-08 06:12:34.787972+01 | 1486530754.78797 | 0/E7DC91B0               |            3889992112

 2017-02-08 06:12:35.987916+01 | 1486530755.98792 | 0/E7DC91B0               |            3889992112

 2017-02-08 06:12:37.222593+01 | 1486530757.22259 | 0/E7DC91B0               |            3889992112

 2017-02-08 06:12:38.413885+01 | 1486530758.41389 | 0/E7DC91B0               |            3889992112

 2017-02-08 06:12:39.659814+01 | 1486530759.65981 | 0/E7DC91B0               |            3889992112

 2017-02-08 06:12:40.879618+01 | 1486530760.87962 | 0/E7DC91B0               |            3889992112

 2017-02-08 06:12:42.094836+01 | 1486530762.09484 | 0/E7DC91B0               |            3889992112

 2017-02-08 06:12:43.306186+01 | 1486530763.30619 | 0/E7DC91B0               |            3889992112

 2017-02-08 06:12:44.613486+01 | 1486530764.61349 | 0/E7DC91B0               |            3889992112

 2017-02-08 06:12:45.823432+01 | 1486530765.82343 | 0/E7DC91B0               |            3889992112

 2017-02-08 06:12:47.047019+01 | 1486530767.04702 | 0/E7DC91B0               |            3889992112

 2017-02-08 06:12:48.245088+01 | 1486530768.24509 | 0/E7DC91B0               |            3889992112

 2017-02-08 06:12:49.483761+01 | 1486530769.48376 | 0/E7DC91B0               |            3889992112

 2017-02-08 06:12:50.686399+01 | 1486530770.6864 | 0/E7DC91B0               |            3889992112

 2017-02-08 06:12:51.886485+01 | 1486530771.88649 | 0/E7DC91B0               |            3889992112

 2017-02-08 06:12:53.107991+01 | 1486530773.10799 | 0/E7DC91B0               |            3889992112

 2017-02-08 06:12:54.313739+01 | 1486530774.31374 | 0/E7DC91B0               |            3889992112

 2017-02-08 06:12:55.543201+01 | 1486530775.5432 | 0/E7DC91B0               |            3889992112

 2017-02-08 06:12:56.791263+01 | 1486530776.79126 | 0/E7DC91B0               |            3889992112

 2017-02-08 06:12:57.996248+01 | 1486530777.99625 | 0/E7DC91B0               |            3889992112

 2017-02-08 06:12:59.231623+01 | 1486530779.23162 | 0/E7DC91B0               |            3889992112

 2017-02-08 06:13:00.442888+01 | 1486530780.44289 | 0/E7DC91B0               |            3889992112

 2017-02-08 06:13:01.735409+01 | 1486530781.73541 | 0/E7DC91B0               |            3889992112

 2017-02-08 06:13:02.948925+01 | 1486530782.94893 | 0/E7DC91B0               |            3889992112

 2017-02-08 06:13:04.134456+01 | 1486530784.13446 | 0/E7DC91B0               |            3889992112

 2017-02-08 06:13:05.267463+01 | 1486530785.26746 | 0/E7DC91B0               |            3889992112

 2017-02-08 06:13:06.538827+01 | 1486530786.53883 | 0/E7DC91B0               |            3889992112

 2017-02-08 06:13:07.783374+01 | 1486530787.78337 | 0/E7DC91B0               |            3889992112

 2017-02-08 06:13:09.009165+01 | 1486530789.00917 | 0/E7DC91B0               |            3889992112

 2017-02-08 06:13:10.165437+01 | 1486530790.16544 | 0/E7DC91B0               |            3889992112

 2017-02-08 06:13:11.446183+01 | 1486530791.44618 | 0/E7DC91B0               |            3889992112

 2017-02-08 06:13:12.695593+01 | 1486530792.69559 | 0/E7DC91B0               |            3889992112

 2017-02-08 06:13:13.904549+01 | 1486530793.90455 | 0/E7DC91B0               |            3889992112

 2017-02-08 06:13:15.185035+01 | 1486530795.18503 | 0/E7DC91B0               |            3889992112

 2017-02-08 06:13:16.390465+01 | 1486530796.39047 | 0/E7DC91B0               |            3889992112

 2017-02-08 06:13:17.596741+01 | 1486530797.59674 | 0/E7DC91B0               |            3889992112

 2017-02-08 06:13:18.836122+01 | 1486530798.83612 | 0/E7DC91B0               |            3889992112

 2017-02-08 06:13:20.077109+01 | 1486530800.07711 | 0/E7DC91B0               |            3889992112

 2017-02-08 06:13:21.286703+01 | 1486530801.2867 | 0/E7DC91B0               |            3889992112

 2017-02-08 06:13:22.53473+01 | 1486530802.53473 | 0/E7DC91B0               |            3889992112

 2017-02-08 06:13:23.758885+01 | 1486530803.75888 | 0/E7DC91B0               |            3889992112

 2017-02-08 06:13:24.984439+01 | 1486530804.98444 | 0/E7DC91B0               |            3889992112

 2017-02-08 06:13:26.218837+01 | 1486530806.21884 | 0/E7DC91B0               |            3889992112

 2017-02-08 06:13:27.483232+01 | 1486530807.48323 | 0/E7DC91B0               |            3889992112

 2017-02-08 06:13:28.67781+01 | 1486530808.67781 | 0/E7DC91B0               |            3889992112

 2017-02-08 06:13:29.906972+01 | 1486530809.90697 | 0/E7DC91B0               |            3889992112

 2017-02-08 06:13:31.138588+01 | 1486530811.13859 | 0/E7DC91B0               |            3889992112

 2017-02-08 06:13:32.40911+01 | 1486530812.40911 | 0/E7DC91B0               |            3889992112

 2017-02-08 06:13:33.645126+01 | 1486530813.64513 | 0/E7DC91B0               |            3889992112

 2017-02-08 06:13:34.943482+01 | 1486530814.94348 | 0/E7DC91B0               |            3889992112

 2017-02-08 06:13:36.122203+01 | 1486530816.1222 | 0/E7DC91B0               |            3889992112

 2017-02-08 06:13:37.327908+01 | 1486530817.32791 | 0/E7DC91B0               |            3889992112

 2017-02-08 06:13:38.558625+01 | 1486530818.55862 | 0/E7DC91B0               |            3889992112

 2017-02-08 06:13:39.841659+01 | 1486530819.84166 | 0/E7DC91B0               |            3889992112

 2017-02-08 06:13:41.105366+01 | 1486530821.10537 | 0/E7DC91B0               |            3889992112

 2017-02-08 06:13:42.326061+01 | 1486530822.32606 | 0/E7DC91B0               |            3889992112

 2017-02-08 06:13:43.549926+01 | 1486530823.54993 | 0/E7DC91B0               |            3889992112

 2017-02-08 06:13:44.785187+01 | 1486530824.78519 | 0/E7DC91B0               |            3889992112

 2017-02-08 06:13:46.046504+01 | 1486530826.0465 | 0/E7DC91B0               |            3889992112

 2017-02-08 06:13:47.239093+01 | 1486530827.23909 | 0/E7DC91B0               |            3889992112

 2017-02-08 06:13:48.514021+01 | 1486530828.51402 | 0/E7DC91B0               |            3889992112

 2017-02-08 06:13:49.751185+01 | 1486530829.75118 | 0/E7DC91B0               |            3889992112

 2017-02-08 06:13:50.966978+01 | 1486530830.96698 | 0/E7DC91B0               |            3889992112

 2017-02-08 06:13:52.187445+01 | 1486530832.18744 | 0/E7DC91B0               |            3889992112

 2017-02-08 06:13:53.394571+01 | 1486530833.39457 | 0/E7DC91B0               |            3889992112

 2017-02-08 06:13:54.596455+01 | 1486530834.59646 | 0/E7DC91B0               |            3889992112

 2017-02-08 06:13:55.810065+01 | 1486530835.81007 | 0/E7DC91B0               |            3889992112

 2017-02-08 06:13:57.046497+01 | 1486530837.0465 | 0/E7DC91B0               |            3889992112

 2017-02-08 06:13:58.295124+01 | 1486530838.29512 | 0/E7DC91B0               |            3889992112

 2017-02-08 06:13:59.466455+01 | 1486530839.46645 | 0/E7DC91B0               |            3889992112

 2017-02-08 06:14:00.666002+01 | 1486530840.666 | 0/E7DC91B0               |            3889992112

 2017-02-08 06:14:01.905098+01 | 1486530841.9051 | 0/E7DC91B0               |            3889992112

 2017-02-08 06:14:03.147696+01 | 1486530843.1477 | 0/E7DC91B0               |            3889992112

 2017-02-08 06:14:04.380332+01 | 1486530844.38033 | 0/E7DC91B0               |            3889992112

 2017-02-08 06:14:05.574467+01 | 1486530845.57447 | 0/E7DC91B0               |            3889992112

 2017-02-08 06:14:06.862403+01 | 1486530846.8624 | 0/E7DC91B0               |            3889992112

 2017-02-08 06:14:08.112299+01 | 1486530848.1123 | 0/E7DC91B0               |            3889992112

 2017-02-08 06:14:09.318324+01 | 1486530849.31832 | 0/E7DC91B0               |            3889992112

 2017-02-08 06:14:10.509293+01 | 1486530850.50929 | 0/E7DC91B0               |            3889992112

 2017-02-08 06:14:11.767814+01 | 1486530851.76781 | 0/E7DC91B0               |            3889992112

 2017-02-08 06:14:13.027963+01 | 1486530853.02796 | 0/E7DC91B0               |            3889992112

 2017-02-08 06:14:14.257089+01 | 1486530854.25709 | 0/E7DC91B0               |            3889992112

 2017-02-08 06:14:15.489542+01 | 1486530855.48954 | 0/E7DC91B0               |            3889992112

 2017-02-08 06:14:16.702244+01 | 1486530856.70224 | 0/E7DC91B0               |            3889992112

 2017-02-08 06:14:17.912561+01 | 1486530857.91256 | 0/E7DC91B0               |            3889992112

 2017-02-08 06:14:19.18114+01 | 1486530859.18114 | 0/E7DC91B0               |            3889992112

 2017-02-08 06:14:20.42191+01 | 1486530860.42191 | 0/E7DC91B0               |            3889992112

 2017-02-08 06:14:21.643548+01 | 1486530861.64355 | 0/E7DC91B0               |            3889992112

 2017-02-08 06:14:22.860279+01 | 1486530862.86028 | 0/E7DC91B0               |            3889992112

 2017-02-08 06:14:24.159336+01 | 1486530864.15934 | 0/E7DC91B0               |            3889992112

 2017-02-08 06:14:25.416819+01 | 1486530865.41682 | 0/E7DC91B0               |            3889992112

 2017-02-08 06:14:26.636415+01 | 1486530866.63642 | 0/E7DC91B0               |            3889992112

 2017-02-08 06:14:27.864894+01 | 1486530867.86489 | 0/E7DC91B0               |            3889992112

 2017-02-08 06:14:29.055294+01 | 1486530869.05529 | 0/E7DC91B0               |            3889992112

 2017-02-08 06:14:30.244149+01 | 1486530870.24415 | 0/E7DC91B0               |            3889992112

 2017-02-08 06:14:31.42423+01 | 1486530871.42423 | 0/E7DC91B0               |            3889992112

 2017-02-08 06:14:32.64872+01 | 1486530872.64872 | 0/E7DC91B0               |            3889992112

 2017-02-08 06:14:33.918144+01 | 1486530873.91814 | 0/E7DC91B0               |            3889992112

 2017-02-08 06:14:35.113709+01 | 1486530875.11371 | 0/E7DC91B0               |            3889992112

 2017-02-08 06:14:36.373916+01 | 1486530876.37392 | 0/E7DC91B0               |            3889992112

 2017-02-08 06:14:37.545434+01 | 1486530877.54543 | 0/E7DC91B0               |            3889992112

 2017-02-08 06:14:38.789166+01 | 1486530878.78917 | 0/E7DC91B0               |            3889992112

 2017-02-08 06:14:40.017453+01 | 1486530880.01745 | 0/E7DC91B0               |            3889992112

 2017-02-08 06:14:41.327028+01 | 1486530881.32703 | 0/E7DC91B0               |            3889992112

 2017-02-08 06:14:42.505697+01 | 1486530882.5057 | 0/E7DC91B0               |            3889992112

 2017-02-08 06:14:43.751637+01 | 1486530883.75164 | 0/E7DC91B0               |            3889992112

 2017-02-08 06:14:45.008603+01 | 1486530885.0086 | 0/E7DC91B0               |            3889992112

 2017-02-08 06:14:46.248812+01 | 1486530886.24881 | 0/E7DC91B0               |            3889992112

 2017-02-08 06:14:47.497999+01 | 1486530887.498 | 0/E7DC91B0               |            3889992112

 2017-02-08 06:14:48.693226+01 | 1486530888.69323 | 0/E7DC91B0               |            3889992112

 2017-02-08 06:14:49.853891+01 | 1486530889.85389 | 0/E7DC91B0               |            3889992112

 2017-02-08 06:14:51.009396+01 | 1486530891.0094 | 0/E7DC91B0               |            3889992112

 2017-02-08 06:14:52.241138+01 | 1486530892.24114 | 0/E7DC91B0               |            3889992112

 2017-02-08 06:14:53.468517+01 | 1486530893.46852 | 0/E7DC91B0               |            3889992112

 2017-02-08 06:14:54.713055+01 | 1486530894.71305 | 0/E7DC91B0               |            3889992112

 2017-02-08 06:14:55.968289+01 | 1486530895.96829 | 0/E7DC91B0               |            3889992112

 2017-02-08 06:14:57.185978+01 | 1486530897.18598 | 0/E7DC91B0               |            3889992112

 2017-02-08 06:14:58.43831+01 | 1486530898.43831 | 0/E7DC91B0               |            3889992112

 2017-02-08 06:14:59.633181+01 | 1486530899.63318 | 0/E7DC91B0               |            3889992112

 2017-02-08 06:15:00.846929+01 | 1486530900.84693 | 0/E7DC91B0               |            3889992112

 2017-02-08 06:15:02.11175+01 | 1486530902.11175 | 0/E7DC91B0               |            3889992112

 2017-02-08 06:15:03.325068+01 | 1486530903.32507 | 0/E7DC91B0               |            3889992112

 2017-02-08 06:15:04.507757+01 | 1486530904.50776 | 0/E7DC91B0               |            3889992112

 2017-02-08 06:15:05.771968+01 | 1486530905.77197 | 0/E7DC91B0               |            3889992112

 2017-02-08 06:15:07.031871+01 | 1486530907.03187 | 0/E7DC91B0               |            3889992112

 2017-02-08 06:15:08.297429+01 | 1486530908.29743 | 0/E7DC91B0               |            3889992112

 2017-02-08 06:15:09.488161+01 | 1486530909.48816 | 0/E7DC91B0               |            3889992112

 2017-02-08 06:15:10.682141+01 | 1486530910.68214 | 0/E7DC91B0               |            3889992112

 2017-02-08 06:15:11.852365+01 | 1486530911.85237 | 0/E7DC91B0               |            3889992112

 2017-02-08 06:15:13.064994+01 | 1486530913.06499 | 0/E7DC91B0               |            3889992112

 2017-02-08 06:15:14.355186+01 | 1486530914.35519 | 0/E7DC91B0               |            3889992112

 2017-02-08 06:15:15.625843+01 | 1486530915.62584 | 0/E7DC91B0               |            3889992112

 2017-02-08 06:15:16.839885+01 | 1486530916.83988 | 0/E7DC91B0               |            3889992112

 2017-02-08 06:15:18.093149+01 | 1486530918.09315 | 0/E7DC91B0               |            3889992112

 2017-02-08 06:15:19.256621+01 | 1486530919.25662 | 0/E7DC91B0               |            3889992112

 2017-02-08 06:15:20.478442+01 | 1486530920.47844 | 0/E7DC91B0               |            3889992112

 2017-02-08 06:15:21.704079+01 | 1486530921.70408 | 0/E7DC91B0               |            3889992112

 2017-02-08 06:15:22.962265+01 | 1486530922.96227 | 0/E7DC91B0               |            3889992112

 2017-02-08 06:15:24.199188+01 | 1486530924.19919 | 0/E7DC91B0               |            3889992112

 2017-02-08 06:15:25.41854+01 | 1486530925.41854 | 0/E7DC91B0               |            3889992112

 2017-02-08 06:15:26.619989+01 | 1486530926.61999 | 0/E7DC91B0               |            3889992112

 2017-02-08 06:15:27.894087+01 | 1486530927.89409 | 0/E7DC91B0               |            3889992112

 2017-02-08 06:15:29.155503+01 | 1486530929.1555 | 0/E7DC91B0               |            3889992112

 2017-02-08 06:15:30.420962+01 | 1486530930.42096 | 0/E7DC91B0               |            3889992112

 2017-02-08 06:15:31.614939+01 | 1486530931.61494 | 0/E7DC91B0               |            3889992112

 2017-02-08 06:15:32.82043+01 | 1486530932.82043 | 0/E7DC91B0               |            3889992112

 2017-02-08 06:15:34.075309+01 | 1486530934.07531 | 0/E7DC91B0               |            3889992112

 2017-02-08 06:15:35.337996+01 | 1486530935.338 | 0/E7DC91B0               |            3889992112

 2017-02-08 06:15:36.54493+01 | 1486530936.54493 | 0/E7DC91B0               |            3889992112

 2017-02-08 06:15:37.817313+01 | 1486530937.81731 | 0/E7DC91B0               |            3889992112

 2017-02-08 06:15:39.017429+01 | 1486530939.01743 | 0/E7DC91B0               |            3889992112

 2017-02-08 06:15:40.20067+01 | 1486530940.20067 | 0/E7DC91B0               |            3889992112

 2017-02-08 06:15:41.40071+01 | 1486530941.40071 | 0/E7DC91B0               |            3889992112

 2017-02-08 06:15:42.652663+01 | 1486530942.65266 | 0/E7DC91B0               |            3889992112

 2017-02-08 06:15:43.873619+01 | 1486530943.87362 | 0/E7DC91B0               |            3889992112

 2017-02-08 06:15:45.060201+01 | 1486530945.0602 | 0/E7DC91B0               |            3889992112

 2017-02-08 06:15:46.324308+01 | 1486530946.32431 | 0/E7DC91B0               |            3889992112

 2017-02-08 06:15:47.546248+01 | 1486530947.54625 | 0/E7DC91B0               |            3889992112

 2017-02-08 06:15:48.760713+01 | 1486530948.76071 | 0/E7DC91B0               |            3889992112

 2017-02-08 06:15:49.921271+01 | 1486530949.92127 | 0/E7DC91B0               |            3889992112

 2017-02-08 06:15:51.162356+01 | 1486530951.16236 | 0/E7DC91B0               |            3889992112

 2017-02-08 06:15:52.43869+01 | 1486530952.43869 | 0/E7DC91B0               |            3889992112

 2017-02-08 06:15:53.694453+01 | 1486530953.69445 | 0/E7DC91B0               |            3889992112

 2017-02-08 06:15:54.891428+01 | 1486530954.89143 | 0/E7DC91B0               |            3889992112

 2017-02-08 06:15:56.090296+01 | 1486530956.0903 | 0/E7DC91B0               |            3889992112

 2017-02-08 06:15:57.312032+01 | 1486530957.31203 | 0/E7DC91B0               |            3889992112

 2017-02-08 06:15:58.514639+01 | 1486530958.51464 | 0/E7DC91B0               |            3889992112

 2017-02-08 06:15:59.667562+01 | 1486530959.66756 | 0/E7DC91B0               |            3889992112

 2017-02-08 06:16:00.862532+01 | 1486530960.86253 | 0/E7DC91B0               |            3889992112

 2017-02-08 06:16:02.112713+01 | 1486530962.11271 | 0/E7DC91B0               |            3889992112

 2017-02-08 06:16:03.319809+01 | 1486530963.31981 | 0/E7DC91B0               |            3889992112

 2017-02-08 06:16:04.543659+01 | 1486530964.54366 | 0/E7DC91B0               |            3889992112

 2017-02-08 06:16:05.769995+01 | 1486530965.76999 | 0/E7DC91B0               |            3889992112

 2017-02-08 06:16:07.022816+01 | 1486530967.02282 | 0/E7DC91B0               |            3889992112

 2017-02-08 06:16:08.256962+01 | 1486530968.25696 | 0/E7DC91B0               |            3889992112

 2017-02-08 06:16:09.489031+01 | 1486530969.48903 | 0/E7DC91B0               |            3889992112

 2017-02-08 06:16:10.742399+01 | 1486530970.7424 | 0/E7DC91B0               |            3889992112

 2017-02-08 06:16:11.936694+01 | 1486530971.93669 | 0/E7DC91B0               |            3889992112

 2017-02-08 06:16:13.159643+01 | 1486530973.15964 | 0/E7DC91B0               |            3889992112

 2017-02-08 06:16:14.371066+01 | 1486530974.37107 | 0/E7DC91B0               |            3889992112

 2017-02-08 06:16:15.588393+01 | 1486530975.58839 | 0/E7DC91B0               |            3889992112

 2017-02-08 06:16:16.802257+01 | 1486530976.80226 | 0/E7DC91B0               |            3889992112

 2017-02-08 06:16:18.034276+01 | 1486530978.03428 | 0/E7DC91B0               |            3889992112

 2017-02-08 06:16:19.263505+01 | 1486530979.2635 | 0/E7DC91B0               |            3889992112

 2017-02-08 06:16:20.5102+01 | 1486530980.5102 | 0/E7DC91B0               |            3889992112

 2017-02-08 06:16:21.739786+01 | 1486530981.73979 | 0/E7DC91B0               |            3889992112

 2017-02-08 06:16:22.949653+01 | 1486530982.94965 | 0/E7DC91B0               |            3889992112

 2017-02-08 06:16:24.177147+01 | 1486530984.17715 | 0/E7DC91B0               |            3889992112

 2017-02-08 06:16:25.399337+01 | 1486530985.39934 | 0/E7DC91B0               |            3889992112

 2017-02-08 06:16:26.593337+01 | 1486530986.59334 | 0/E7DC91B0               |            3889992112

 2017-02-08 06:16:27.788518+01 | 1486530987.78852 | 0/E7DC91B0               |            3889992112

 2017-02-08 06:16:28.984832+01 | 1486530988.98483 | 0/E7DC91B0               |            3889992112

 2017-02-08 06:16:30.197014+01 | 1486530990.19701 | 0/E7DC91B0               |            3889992112

 2017-02-08 06:16:31.48409+01 | 1486530991.48409 | 0/E7DC91B0               |            3889992112

 2017-02-08 06:16:32.741411+01 | 1486530992.74141 | 0/E7DC91B0               |            3889992112

 2017-02-08 06:16:33.976013+01 | 1486530993.97601 | 0/E7DC91B0               |            3889992112

 2017-02-08 06:16:35.233388+01 | 1486530995.23339 | 0/E7DC91B0               |            3889992112

 2017-02-08 06:16:36.47296+01 | 1486530996.47296 | 0/E7DC91B0               |            3889992112

 2017-02-08 06:16:37.720361+01 | 1486530997.72036 | 0/E7DC91B0               |            3889992112

 2017-02-08 06:16:38.937474+01 | 1486530998.93747 | 0/E7DC91B0               |            3889992112

 2017-02-08 06:16:40.182433+01 | 1486531000.18243 | 0/E7DC91B0               |            3889992112

 2017-02-08 06:16:41.359943+01 | 1486531001.35994 | 0/E7DC91B0               |            3889992112

 2017-02-08 06:16:42.499084+01 | 1486531002.49908 | 0/E7DC91B0               |            3889992112

 2017-02-08 06:16:43.708974+01 | 1486531003.70897 | 0/E7DC91B0               |            3889992112

 2017-02-08 06:16:44.860934+01 | 1486531004.86093 | 0/E7DC91B0               |            3889992112

 2017-02-08 06:16:46.049581+01 | 1486531006.04958 | 0/E7DC91B0               |            3889992112

 2017-02-08 06:16:47.243705+01 | 1486531007.24371 | 0/E7DC91B0               |            3889992112

 2017-02-08 06:16:48.49398+01 | 1486531008.49398 | 0/E7DC91B0               |            3889992112

 2017-02-08 06:16:49.724793+01 | 1486531009.72479 | 0/E7DC91B0               |            3889992112

 2017-02-08 06:16:51.011217+01 | 1486531011.01122 | 0/E7DC91B0               |            3889992112

 2017-02-08 06:16:52.263498+01 | 1486531012.2635 | 0/E7DC91B0               |            3889992112

 2017-02-08 06:16:53.373408+01 | 1486531013.37341 | 0/E7DC91B0               |            3889992112

 2017-02-08 06:16:54.604731+01 | 1486531014.60473 | 0/E7DC91B0               |            3889992112

 2017-02-08 06:16:55.813141+01 | 1486531015.81314 | 0/E7DC91B0               |            3889992112

 2017-02-08 06:16:57.047059+01 | 1486531017.04706 | 0/E7DC91B0               |            3889992112

 2017-02-08 06:16:58.300776+01 | 1486531018.30078 | 0/E7DC91B0               |            3889992112

 2017-02-08 06:16:59.496678+01 | 1486531019.49668 | 0/E7DC91B0               |            3889992112

 2017-02-08 06:17:00.726812+01 | 1486531020.72681 | 0/E7DC91B0               |            3889992112

 2017-02-08 06:17:01.923561+01 | 1486531021.92356 | 0/E7DC91B0               |            3889992112

 2017-02-08 06:17:03.094279+01 | 1486531023.09428 | 0/E7DC91B0               |            3889992112

 2017-02-08 06:17:04.385719+01 | 1486531024.38572 | 0/E7DC91B0               |            3889992112

 2017-02-08 06:17:05.599772+01 | 1486531025.59977 | 0/E7DC91B0               |            3889992112

 2017-02-08 06:17:06.785301+01 | 1486531026.7853 | 0/E7DC91B0               |            3889992112

 2017-02-08 06:17:07.97549+01 | 1486531027.97549 | 0/E7DC91B0               |            3889992112

 2017-02-08 06:17:09.192822+01 | 1486531029.19282 | 0/E7DC91B0               |            3889992112

 2017-02-08 06:17:10.417501+01 | 1486531030.4175 | 0/E7DC91B0               |            3889992112

 2017-02-08 06:17:11.692734+01 | 1486531031.69273 | 0/E7DC91B0               |            3889992112

 2017-02-08 06:17:12.920702+01 | 1486531032.9207 | 0/E7DC91B0               |            3889992112

 2017-02-08 06:17:14.13456+01 | 1486531034.13456 | 0/E7DC91B0               |            3889992112

 2017-02-08 06:17:15.31573+01 | 1486531035.31573 | 0/E7DC91B0               |            3889992112

 2017-02-08 06:17:16.557609+01 | 1486531036.55761 | 0/E7DC91B0               |            3889992112

 2017-02-08 06:17:17.79846+01 | 1486531037.79846 | 0/E7DC91B0               |            3889992112

 2017-02-08 06:17:19.003719+01 | 1486531039.00372 | 0/E7DC91B0               |            3889992112

 2017-02-08 06:17:20.269954+01 | 1486531040.26995 | 0/E7DC91B0               |            3889992112

 2017-02-08 06:17:21.530086+01 | 1486531041.53009 | 0/E7DC91B0               |            3889992112

 2017-02-08 06:17:22.719281+01 | 1486531042.71928 | 0/E7DC91B0               |            3889992112

