 2017-02-10 14:24:50.137697+01 | 1486733090.1377 | 5/16EBF2A8               |           21859398312

 2017-02-10 14:24:51.186553+01 | 1486733091.18655 | 5/1CFD9F40               |           21961219904

 2017-02-10 14:24:52.256405+01 | 1486733092.25641 | 5/210A0D70               |           22029143408

 2017-02-10 14:24:53.330602+01 | 1486733093.3306 | 5/23C33350               |           22074831696

 2017-02-10 14:24:54.428871+01 | 1486733094.42887 | 5/25E27730               |           22110435120

 2017-02-10 14:24:55.50713+01 | 1486733095.50713 | 5/27A8D870               |           22140213360

 2017-02-10 14:24:56.595292+01 | 1486733096.59529 | 5/292421F0               |           22165070320

 2017-02-10 14:24:57.693538+01 | 1486733097.69354 | 5/2A77DB90               |           22187334544

 2017-02-10 14:24:58.797818+01 | 1486733098.79782 | 5/2BB221A8               |           22207930792

 2017-02-10 14:24:59.890018+01 | 1486733099.89002 | 5/2CC41A18               |           22225885720

 2017-02-10 14:25:00.987911+01 | 1486733100.98791 | 5/2DCD36E8               |           22243260136

 2017-02-10 14:25:02.057058+01 | 1486733102.05706 | 5/2EB59048               |           22258487368

 2017-02-10 14:25:03.140469+01 | 1486733103.14047 | 5/2FED9E00               |           22278938112

 2017-02-10 14:25:04.225214+01 | 1486733104.22521 | 5/31A43878               |           22307682424

 2017-02-10 14:25:05.30296+01 | 1486733105.30296 | 5/33493A80               |           22335273600

 2017-02-10 14:25:06.395394+01 | 1486733106.39539 | 5/34E90E30               |           22362525232

 2017-02-10 14:25:07.466156+01 | 1486733107.46616 | 5/366D3848               |           22387963976

 2017-02-10 14:25:08.537131+01 | 1486733108.53713 | 5/37CD9D40               |           22411058496

 2017-02-10 14:25:09.604988+01 | 1486733109.60499 | 5/38DFF1F8               |           22429037048

 2017-02-10 14:25:10.673914+01 | 1486733110.67391 | 5/3A168C30               |           22449392688

 2017-02-10 14:25:11.765927+01 | 1486733111.76593 | 5/3AF30F18               |           22463844120

 2017-02-10 14:25:12.840624+01 | 1486733112.84062 | 5/3B784850               |           22472575056

 2017-02-10 14:25:13.926791+01 | 1486733113.92679 | 5/3BDCB638               |           22479156792

 2017-02-10 14:25:14.988601+01 | 1486733114.9886 | 5/3C395560               |           22485226848

 2017-02-10 14:25:16.08584+01 | 1486733116.08584 | 5/3C961958               |           22491306328

 2017-02-10 14:25:17.173855+01 | 1486733117.17386 | 5/3CF199D8               |           22497303000

 2017-02-10 14:25:18.268158+01 | 1486733118.26816 | 5/3D4EF8C0               |           22503422144

 2017-02-10 14:25:19.356371+01 | 1486733119.35637 | 5/3DAB0840               |           22509455424

 2017-02-10 14:25:20.458239+01 | 1486733120.45824 | 5/3E05F380               |           22515413888

 2017-02-10 14:25:21.548719+01 | 1486733121.54872 | 5/3E611B60               |           22521387872

 2017-02-10 14:25:22.64378+01 | 1486733122.64378 | 5/3EB9C068               |           22527197288

 2017-02-10 14:25:23.724581+01 | 1486733123.72458 | 5/3F13F7C0               |           22533109696

 2017-02-10 14:25:24.80142+01 | 1486733124.80142 | 5/3F6C0FA0               |           22538882976

 2017-02-10 14:25:25.876383+01 | 1486733125.87638 | 5/3FC480F8               |           22544679160

 2017-02-10 14:25:26.948836+01 | 1486733126.94884 | 5/401A8C50               |           22550318160

 2017-02-10 14:25:28.060614+01 | 1486733128.06061 | 5/4077CF00               |           22556430080

 2017-02-10 14:25:29.144192+01 | 1486733129.14419 | 5/40D319B0               |           22562412976

 2017-02-10 14:25:30.227052+01 | 1486733130.22705 | 5/412C14A0               |           22568244384

 2017-02-10 14:25:31.336263+01 | 1486733131.33626 | 5/4187AF00               |           22574247680

 2017-02-10 14:25:32.424954+01 | 1486733132.42495 | 5/41DFF810               |           22580033552

 2017-02-10 14:25:33.509329+01 | 1486733133.50933 | 5/42368C78               |           22585707640

 2017-02-10 14:25:34.601181+01 | 1486733134.60118 | 5/42905388               |           22591591304

 2017-02-10 14:25:35.664593+01 | 1486733135.66459 | 5/42E6BE38               |           22597254712

 2017-02-10 14:25:36.736399+01 | 1486733136.7364 | 5/433C9CE0               |           22602882272

 2017-02-10 14:25:37.823634+01 | 1486733137.82363 | 5/4393AA10               |           22608587280

 2017-02-10 14:25:38.887347+01 | 1486733138.88735 | 5/43EBC238               |           22614360632

 2017-02-10 14:25:39.974907+01 | 1486733139.97491 | 5/4442C438               |           22620062776

 2017-02-10 14:25:41.050722+01 | 1486733141.05072 | 5/44997518               |           22625744152

 2017-02-10 14:25:42.122688+01 | 1486733142.12269 | 5/44F09F08               |           22631456520

 2017-02-10 14:25:43.212538+01 | 1486733143.21254 | 5/454813A0               |           22637188000

 2017-02-10 14:25:44.292668+01 | 1486733144.29267 | 5/45A24900               |           22643099904

 2017-02-10 14:25:45.390317+01 | 1486733145.39032 | 5/45FD3160               |           22649057632

 2017-02-10 14:25:46.474613+01 | 1486733146.47461 | 5/46557688               |           22654842504

 2017-02-10 14:25:47.548536+01 | 1486733147.54854 | 5/46AE9E20               |           22660685344

 2017-02-10 14:25:48.631206+01 | 1486733148.63121 | 5/47063AC0               |           22666427072

 2017-02-10 14:25:49.722758+01 | 1486733149.72276 | 5/475EC2E8               |           22672229096

 2017-02-10 14:25:50.804999+01 | 1486733150.805 | 5/47B4C560               |           22677865824

 2017-02-10 14:25:51.883435+01 | 1486733151.88344 | 5/480D3BB8               |           22683663288

 2017-02-10 14:25:52.968415+01 | 1486733152.96842 | 5/487BFF50               |           22690922320

 2017-02-10 14:25:54.053351+01 | 1486733154.05335 | 5/48F63DC8               |           22698933704

 2017-02-10 14:25:55.133603+01 | 1486733155.1336 | 5/4970BC10               |           22706961424

 2017-02-10 14:25:56.239072+01 | 1486733156.23907 | 5/49EC0D70               |           22715043184

 2017-02-10 14:25:57.333413+01 | 1486733157.33341 | 5/4A6450F0               |           22722924784

 2017-02-10 14:25:58.422352+01 | 1486733158.42235 | 5/4ADC3AC0               |           22730783424

 2017-02-10 14:25:59.516453+01 | 1486733159.51645 | 5/4B546D10               |           22738660624

 2017-02-10 14:26:00.601384+01 | 1486733160.60138 | 5/4BCCAE88               |           22746541704

 2017-02-10 14:26:01.685888+01 | 1486733161.68589 | 5/4C4874F8               |           22754653432

 2017-02-10 14:26:02.750116+01 | 1486733162.75012 | 5/4CC7D980               |           22763002240

 2017-02-10 14:26:03.826713+01 | 1486733163.82671 | 5/4D638310               |           22773203728

 2017-02-10 14:26:04.923406+01 | 1486733164.92341 | 5/4E1E8A48               |           22785460808

 2017-02-10 14:26:06.025997+01 | 1486733166.026 | 5/4EC1C608               |           22796158472

 2017-02-10 14:26:07.129265+01 | 1486733167.12927 | 5/4F44BF70               |           22804742000

 2017-02-10 14:26:08.211756+01 | 1486733168.21176 | 5/4FA0DA10               |           22810778128

 2017-02-10 14:26:09.30787+01 | 1486733169.30787 | 5/4FF33C10               |           22816177168

 2017-02-10 14:26:10.410014+01 | 1486733170.41001 | 5/504BE358               |           22821987160

 2017-02-10 14:26:11.498167+01 | 1486733171.49817 | 5/50A304A0               |           22827697312

 2017-02-10 14:26:12.594782+01 | 1486733172.59478 | 5/50F8F038               |           22833328184

 2017-02-10 14:26:13.676983+01 | 1486733173.67698 | 5/514D9CD0               |           22838877392

 2017-02-10 14:26:14.748656+01 | 1486733174.74866 | 5/51A19C38               |           22844382264

 2017-02-10 14:26:15.827662+01 | 1486733175.82766 | 5/51F7EDF8               |           22850039288

 2017-02-10 14:26:16.920253+01 | 1486733176.92025 | 5/524D4870               |           22855633008

 2017-02-10 14:26:18.00604+01 | 1486733178.00604 | 5/52A322C0               |           22861259456

 2017-02-10 14:26:19.108999+01 | 1486733179.109 | 5/52F85C68               |           22866844776

 2017-02-10 14:26:20.195056+01 | 1486733180.19506 | 5/534E57D0               |           22872479696

 2017-02-10 14:26:21.270169+01 | 1486733181.27017 | 5/53A19E98               |           22877937304

 2017-02-10 14:26:22.378274+01 | 1486733182.37827 | 5/53F9AA80               |           22883707520

 2017-02-10 14:26:23.440399+01 | 1486733183.4404 | 5/544C3338               |           22889116472

 2017-02-10 14:26:24.512758+01 | 1486733184.51276 | 5/54A06BC0               |           22894635968

 2017-02-10 14:26:25.594254+01 | 1486733185.59425 | 5/54F66080               |           22900269184

 2017-02-10 14:26:26.684671+01 | 1486733186.68467 | 5/554D01C8               |           22905946568

 2017-02-10 14:26:27.782055+01 | 1486733187.78205 | 5/55A487C8               |           22911682504

 2017-02-10 14:26:28.879894+01 | 1486733188.87989 | 5/55FC60D0               |           22917439696

 2017-02-10 14:26:29.967943+01 | 1486733189.96794 | 5/5652A9E0               |           22923094496

 2017-02-10 14:26:31.060932+01 | 1486733191.06093 | 5/56A8C2E8               |           22928737000

 2017-02-10 14:26:32.136357+01 | 1486733192.13636 | 5/56FCA950               |           22934235472

 2017-02-10 14:26:33.203243+01 | 1486733193.20324 | 5/57502A58               |           22939707992

 2017-02-10 14:26:34.28428+01 | 1486733194.28428 | 5/57A30798               |           22945138584

 2017-02-10 14:26:35.34983+01 | 1486733195.34983 | 5/57F63EC0               |           22950592192

 2017-02-10 14:26:36.428995+01 | 1486733196.42899 | 5/584A0A90               |           22956083856

 2017-02-10 14:26:37.515706+01 | 1486733197.51571 | 5/58979358               |           22961165144

 2017-02-10 14:26:38.604596+01 | 1486733198.6046 | 5/58EAC198               |           22966616472

 2017-02-10 14:26:39.672778+01 | 1486733199.67278 | 5/593D6A70               |           22972033648

 2017-02-10 14:26:40.75011+01 | 1486733200.75011 | 5/59933188               |           22977655176

 2017-02-10 14:26:41.845887+01 | 1486733201.84589 | 5/59E70628               |           22983149096

 2017-02-10 14:26:42.925779+01 | 1486733202.92578 | 5/5A3984F8               |           22988555512

 2017-02-10 14:26:44.004437+01 | 1486733204.00444 | 5/5A8C2EE0               |           22993972960

 2017-02-10 14:26:45.092796+01 | 1486733205.0928 | 5/5AE12FC0               |           22999543744

 2017-02-10 14:26:46.199403+01 | 1486733206.1994 | 5/5B385CD0               |           23005256912

 2017-02-10 14:26:47.291004+01 | 1486733207.291 | 5/5B8CF110               |           23010799888

 2017-02-10 14:26:48.36223+01 | 1486733208.36223 | 5/5BE201C8               |           23016374728

 2017-02-10 14:26:49.453503+01 | 1486733209.4535 | 5/5C36B7F0               |           23021926384

 2017-02-10 14:26:50.545441+01 | 1486733210.54544 | 5/5C8B8DC8               |           23027486152

 2017-02-10 14:26:51.637697+01 | 1486733211.6377 | 5/5CE09210               |           23033057808

 2017-02-10 14:26:52.705435+01 | 1486733212.70544 | 5/5D329A50               |           23038433872

 2017-02-10 14:26:53.783999+01 | 1486733213.784 | 5/5D882458               |           23044039768

 2017-02-10 14:26:54.880509+01 | 1486733214.88051 | 5/5DDBB698               |           23049516696

 2017-02-10 14:26:55.961439+01 | 1486733215.96144 | 5/5E2FAA38               |           23055018552

 2017-02-10 14:26:57.05046+01 | 1486733217.05046 | 5/5E84E540               |           23060604224

 2017-02-10 14:26:58.138694+01 | 1486733218.13869 | 5/5EDA3CF8               |           23066197240

 2017-02-10 14:26:59.237303+01 | 1486733219.2373 | 5/5F321D40               |           23071956288

 2017-02-10 14:27:00.311196+01 | 1486733220.3112 | 5/5F88AAA8               |           23077628584

 2017-02-10 14:27:01.391181+01 | 1486733221.39118 | 5/5FDC9D50               |           23083130192

 2017-02-10 14:27:02.481895+01 | 1486733222.48189 | 5/604513B0               |           23089976240

 2017-02-10 14:27:03.570625+01 | 1486733223.57063 | 5/60CA27D0               |           23098697680

 2017-02-10 14:27:04.658557+01 | 1486733224.65856 | 5/6156AEE0               |           23107907296

 2017-02-10 14:27:05.744058+01 | 1486733225.74406 | 5/620099A0               |           23119042976

 2017-02-10 14:27:06.845724+01 | 1486733226.84572 | 5/6276E5B0               |           23126795696

 2017-02-10 14:27:07.912739+01 | 1486733227.91274 | 5/62D8F938               |           23133223224

 2017-02-10 14:27:08.999701+01 | 1486733228.9997 | 5/632C0B98               |           23138667416

 2017-02-10 14:27:10.100817+01 | 1486733230.10082 | 5/63833BB0               |           23144381360

 2017-02-10 14:27:11.189878+01 | 1486733231.18988 | 5/63D7BE30               |           23149919792

 2017-02-10 14:27:12.271157+01 | 1486733232.27116 | 5/642BFEA0               |           23155441312

 2017-02-10 14:27:13.358527+01 | 1486733233.35853 | 5/64819D90               |           23161052560

 2017-02-10 14:27:14.435185+01 | 1486733234.43518 | 5/64D39D98               |           23166426520

 2017-02-10 14:27:15.517651+01 | 1486733235.51765 | 5/652762C8               |           23171916488

 2017-02-10 14:27:16.608256+01 | 1486733236.60826 | 5/657C84E8               |           23177495784

 2017-02-10 14:27:17.701305+01 | 1486733237.7013 | 5/65D1CD30               |           23183084848

 2017-02-10 14:27:18.795723+01 | 1486733238.79572 | 5/6627D8F0               |           23188723952

 2017-02-10 14:27:19.88116+01 | 1486733239.88116 | 5/667B00D0               |           23194173648

 2017-02-10 14:27:20.95649+01 | 1486733240.95649 | 5/66CD71C8               |           23199576520

 2017-02-10 14:27:22.044564+01 | 1486733242.04456 | 5/67217388               |           23205081992

 2017-02-10 14:27:23.126593+01 | 1486733243.12659 | 5/67761340               |           23210627904

 2017-02-10 14:27:24.207861+01 | 1486733244.20786 | 5/67C947F8               |           23216080888

 2017-02-10 14:27:25.299986+01 | 1486733245.29999 | 5/681CEBB0               |           23221562288

 2017-02-10 14:27:26.40527+01 | 1486733246.40527 | 5/687238D8               |           23227152600

 2017-02-10 14:27:27.479403+01 | 1486733247.4794 | 5/68C5A1E8               |           23232618984

 2017-02-10 14:27:28.556635+01 | 1486733248.55663 | 5/6919C2C0               |           23238132416

 2017-02-10 14:27:29.64284+01 | 1486733249.64284 | 5/696EB4A0               |           23243699360

 2017-02-10 14:27:30.705023+01 | 1486733250.70502 | 5/69C07918               |           23249058072

 2017-02-10 14:27:31.789484+01 | 1486733251.78948 | 5/6A137190               |           23254495632

 2017-02-10 14:27:32.892985+01 | 1486733252.89299 | 5/6A688128               |           23260070184

 2017-02-10 14:27:33.955362+01 | 1486733253.95536 | 5/6ABA1D38               |           23265418552

 2017-02-10 14:27:35.042491+01 | 1486733255.04249 | 5/6B0D5FF8               |           23270875128

 2017-02-10 14:27:36.108177+01 | 1486733256.10818 | 5/6B5E2658               |           23276168792

 2017-02-10 14:27:37.206575+01 | 1486733257.20657 | 5/6BB2C1A8               |           23281713576

 2017-02-10 14:27:38.306069+01 | 1486733258.30607 | 5/6C060800               |           23287171072

 2017-02-10 14:27:39.40436+01 | 1486733259.40436 | 5/6C5AD778               |           23292729208

 2017-02-10 14:27:40.466984+01 | 1486733260.46698 | 5/6CAB4E30               |           23298002480

 2017-02-10 14:27:41.567742+01 | 1486733261.56774 | 5/6CFE6C50               |           23303449680

 2017-02-10 14:27:42.646736+01 | 1486733262.64674 | 5/6D505B28               |           23308819240

 2017-02-10 14:27:43.721023+01 | 1486733263.72102 | 5/6DA343D0               |           23314252752

 2017-02-10 14:27:44.812163+01 | 1486733264.81216 | 5/6DF66900               |           23319701760

 2017-02-10 14:27:45.89375+01 | 1486733265.89375 | 5/6E482BA8               |           23325060008

 2017-02-10 14:27:46.959127+01 | 1486733266.95913 | 5/6E97FB98               |           23330290584

 2017-02-10 14:27:48.054502+01 | 1486733268.0545 | 5/6EEBA7C8               |           23335774152

 2017-02-10 14:27:49.152368+01 | 1486733269.15237 | 5/6F3EFFB8               |           23341236152

 2017-02-10 14:27:50.236709+01 | 1486733270.23671 | 5/6F9245D0               |           23346693584

 2017-02-10 14:27:51.326301+01 | 1486733271.3263 | 5/6FE40110               |           23352049936

 2017-02-10 14:27:52.40022+01 | 1486733272.40022 | 5/7035D790               |           23357413264

 2017-02-10 14:27:53.477528+01 | 1486733273.47753 | 5/7087CFD0               |           23362785232

 2017-02-10 14:27:54.570162+01 | 1486733274.57016 | 5/70DBAEA8               |           23368281768

 2017-02-10 14:27:55.660632+01 | 1486733275.66063 | 5/712D23D8               |           23373620184

 2017-02-10 14:27:56.734954+01 | 1486733276.73495 | 5/717EE080               |           23378976896

 2017-02-10 14:27:57.815895+01 | 1486733277.8159 | 5/71D19F60               |           23384399712

 2017-02-10 14:27:58.898159+01 | 1486733278.89816 | 5/7223C810               |           23389784080

 2017-02-10 14:27:59.981255+01 | 1486733279.98126 | 5/72758F28               |           23395143464

 2017-02-10 14:28:01.062822+01 | 1486733281.06282 | 5/72C810C8               |           23400550600

 2017-02-10 14:28:02.152902+01 | 1486733282.1529 | 5/731FC860               |           23406299232

 2017-02-10 14:28:03.216657+01 | 1486733283.21666 | 5/73839708               |           23412840200

 2017-02-10 14:28:04.291452+01 | 1486733284.29145 | 5/73F09668               |           23419983464

 2017-02-10 14:28:05.368345+01 | 1486733285.36835 | 5/74865BD8               |           23429798872

 2017-02-10 14:28:06.47263+01 | 1486733286.47263 | 5/74DFAEC8               |           23435652808

 2017-02-10 14:28:07.563261+01 | 1486733287.56326 | 5/7547FAB8               |           23442487992

 2017-02-10 14:28:08.64317+01 | 1486733288.64317 | 5/759A2268               |           23447872104

 2017-02-10 14:28:09.72115+01 | 1486733289.72115 | 5/75EAD3B8               |           23453160376

 2017-02-10 14:28:10.792306+01 | 1486733290.79231 | 5/763D55E8               |           23458567656

 2017-02-10 14:28:11.878858+01 | 1486733291.87886 | 5/76922600               |           23464125952

 2017-02-10 14:28:12.967989+01 | 1486733292.96799 | 5/76E7BA98               |           23469734552

 2017-02-10 14:28:14.068373+01 | 1486733294.06837 | 5/773BE3B0               |           23475250096

 2017-02-10 14:28:15.164338+01 | 1486733295.16434 | 5/778FB168               |           23480742248

 2017-02-10 14:28:16.252358+01 | 1486733296.25236 | 5/77E30EE0               |           23486205664

 2017-02-10 14:28:17.334807+01 | 1486733297.33481 | 5/7835CE68               |           23491628648

 2017-02-10 14:28:18.406955+01 | 1486733298.40696 | 5/78867698               |           23496914584

 2017-02-10 14:28:19.517151+01 | 1486733299.51715 | 5/78DC2290               |           23502529168

 2017-02-10 14:28:20.597636+01 | 1486733300.59764 | 5/792DEAB0               |           23507888816

 2017-02-10 14:28:21.674587+01 | 1486733301.67459 | 5/79817D38               |           23513365816

 2017-02-10 14:28:22.74545+01 | 1486733302.74545 | 5/79D59838               |           23518877752

 2017-02-10 14:28:23.818591+01 | 1486733303.81859 | 5/7A289F60               |           23524319072

 2017-02-10 14:28:24.92115+01 | 1486733304.92115 | 5/7A7D8F50               |           23529885520

 2017-02-10 14:28:26.010898+01 | 1486733306.0109 | 5/7AD01F50               |           23535296336

 2017-02-10 14:28:27.093523+01 | 1486733307.09352 | 5/7B218878               |           23540631672

 2017-02-10 14:28:28.174303+01 | 1486733308.1743 | 5/7B73CD68               |           23546023272

 2017-02-10 14:28:29.255946+01 | 1486733309.25595 | 5/7BC8F6B0               |           23551604400

 2017-02-10 14:28:30.333284+01 | 1486733310.33328 | 5/7C1ADCB0               |           23556971696

 2017-02-10 14:28:31.417443+01 | 1486733311.41744 | 5/7C6ED348               |           23562474312

 2017-02-10 14:28:32.51336+01 | 1486733312.51336 | 5/7CC26050               |           23567949904

 2017-02-10 14:28:33.601701+01 | 1486733313.6017 | 5/7D15BE98               |           23573413528

 2017-02-10 14:28:34.68793+01 | 1486733314.68793 | 5/7D692C58               |           23578881112

 2017-02-10 14:28:35.775902+01 | 1486733315.7759 | 5/7DBC8548               |           23584343368

 2017-02-10 14:28:36.85661+01 | 1486733316.85661 | 5/7E0F5CE0               |           23589772512

 2017-02-10 14:28:37.943941+01 | 1486733317.94394 | 5/7E627928               |           23595219240

 2017-02-10 14:28:39.031817+01 | 1486733319.03182 | 5/7EB603F8               |           23600694264

 2017-02-10 14:28:40.099725+01 | 1486733320.09973 | 5/7F098790               |           23606167440

 2017-02-10 14:28:41.18458+01 | 1486733321.18458 | 5/7F5CF178               |           23611634040

 2017-02-10 14:28:42.280362+01 | 1486733322.28036 | 5/7FB16B80               |           23617170304

 2017-02-10 14:28:43.368128+01 | 1486733323.36813 | 5/80020B78               |           23622454136

 2017-02-10 14:28:44.451353+01 | 1486733324.45135 | 5/80551E90               |           23627898512

 2017-02-10 14:28:45.527543+01 | 1486733325.52754 | 5/80A64720               |           23633217312

 2017-02-10 14:28:46.617962+01 | 1486733326.61796 | 5/80F9EE38               |           23638699576

 2017-02-10 14:28:47.691231+01 | 1486733327.69123 | 5/814D3758               |           23644157784

 2017-02-10 14:28:48.788106+01 | 1486733328.78811 | 5/81A2D9D0               |           23649769936

 2017-02-10 14:28:49.888011+01 | 1486733329.88801 | 5/81F8CC40               |           23655402560

 2017-02-10 14:28:50.972958+01 | 1486733330.97296 | 5/824C0C38               |           23660858424

 2017-02-10 14:28:52.062915+01 | 1486733332.06292 | 5/829F41E0               |           23666311648

 2017-02-10 14:28:53.140496+01 | 1486733333.1405 | 5/82F03D60               |           23671618912

 2017-02-10 14:28:54.225274+01 | 1486733334.22527 | 5/83420EA8               |           23676980904

 2017-02-10 14:28:55.309673+01 | 1486733335.30967 | 5/8394E4B8               |           23682409656

 2017-02-10 14:28:56.393731+01 | 1486733336.39373 | 5/83E8D3D0               |           23687910352

 2017-02-10 14:28:57.476128+01 | 1486733337.47613 | 5/8439BD90               |           23693213072

 2017-02-10 14:28:58.565368+01 | 1486733338.56537 | 5/848AD140               |           23698526528

 2017-02-10 14:28:59.647729+01 | 1486733339.64773 | 5/84DE4260               |           23703994976

 2017-02-10 14:29:00.724478+01 | 1486733340.72448 | 5/852F5A40               |           23709309504

 2017-02-10 14:29:01.808613+01 | 1486733341.80861 | 5/85823E60               |           23714741856

 2017-02-10 14:29:02.884826+01 | 1486733342.88483 | 5/85E29DD0               |           23721057744

 2017-02-10 14:29:03.956229+01 | 1486733343.95623 | 5/865D8D00               |           23729114368

 2017-02-10 14:29:05.061456+01 | 1486733345.06146 | 5/86E760D8               |           23738147032

 2017-02-10 14:29:06.135311+01 | 1486733346.13531 | 5/8779A1D0               |           23747731920

 2017-02-10 14:29:07.237195+01 | 1486733347.2372 | 5/87EE3400               |           23755371520

 2017-02-10 14:29:08.343077+01 | 1486733348.34308 | 5/884757F0               |           23761213424

 2017-02-10 14:29:09.464616+01 | 1486733349.46462 | 5/889A3980               |           23766645120

 2017-02-10 14:29:10.573536+01 | 1486733350.57354 | 5/88F10C90               |           23772335248

 2017-02-10 14:29:11.663586+01 | 1486733351.66359 | 5/89447610               |           23777801744

 2017-02-10 14:29:12.755941+01 | 1486733352.75594 | 5/8998D678               |           23783331448

 2017-02-10 14:29:13.841331+01 | 1486733353.84133 | 5/89EC4EB0               |           23788801712

 2017-02-10 14:29:14.935054+01 | 1486733354.93505 | 5/8A3FFC50               |           23794285648

 2017-02-10 14:29:16.006671+01 | 1486733356.00667 | 5/8A91B848               |           23799642184

 2017-02-10 14:29:17.073415+01 | 1486733357.07342 | 5/8AE3ABC8               |           23805012936

 2017-02-10 14:29:18.154823+01 | 1486733358.15482 | 5/8B363BE8               |           23810423784

 2017-02-10 14:29:19.248413+01 | 1486733359.24841 | 5/8B897670               |           23815878256

 2017-02-10 14:29:20.314342+01 | 1486733360.31434 | 5/8BDB4620               |           23821239840

 2017-02-10 14:29:21.403846+01 | 1486733361.40385 | 5/8C2D9738               |           23826634552

 2017-02-10 14:29:22.488806+01 | 1486733362.48881 | 5/8C80A120               |           23832076576

 2017-02-10 14:29:23.585138+01 | 1486733363.58514 | 5/8CD3E180               |           23837532544

 2017-02-10 14:29:24.669276+01 | 1486733364.66928 | 5/8D269560               |           23842952544

 2017-02-10 14:29:25.746398+01 | 1486733365.7464 | 5/8D79FAB0               |           23848417968

 2017-02-10 14:29:26.833795+01 | 1486733366.8338 | 5/8DCD9A40               |           23853898304

 2017-02-10 14:29:27.917174+01 | 1486733367.91717 | 5/8E1E1488               |           23859172488

 2017-02-10 14:29:29.007948+01 | 1486733369.00795 | 5/8E719A40               |           23864646208

 2017-02-10 14:29:30.103088+01 | 1486733370.10309 | 5/8EC549C0               |           23870130624

 2017-02-10 14:29:31.20363+01 | 1486733371.20363 | 5/8F1AA138               |           23875723576

 2017-02-10 14:29:32.27531+01 | 1486733372.27531 | 5/8F6C5AA8               |           23881079464

 2017-02-10 14:29:33.359074+01 | 1486733373.35907 | 5/8FBEBC90               |           23886478480

 2017-02-10 14:29:34.438769+01 | 1486733374.43877 | 5/9010FFF8               |           23891869688

 2017-02-10 14:29:35.511229+01 | 1486733375.51123 | 5/90625B80               |           23897204144

 2017-02-10 14:29:36.604196+01 | 1486733376.6042 | 5/90B59700               |           23902656256

 2017-02-10 14:29:37.689184+01 | 1486733377.68918 | 5/91083280               |           23908070016

 2017-02-10 14:29:38.800375+01 | 1486733378.80037 | 5/915C4988               |           23913580936

 2017-02-10 14:29:39.873667+01 | 1486733379.87367 | 5/91AD3D50               |           23918886224

 2017-02-10 14:29:40.948335+01 | 1486733380.94833 | 5/91FD19D8               |           23924120024

 2017-02-10 14:29:42.042154+01 | 1486733382.04215 | 5/924FEA20               |           23929547296

 2017-02-10 14:29:43.130865+01 | 1486733383.13087 | 5/92A391D0               |           23935029712

 2017-02-10 14:29:44.222054+01 | 1486733384.22205 | 5/92F68B60               |           23940467552

 2017-02-10 14:29:45.3034+01 | 1486733385.3034 | 5/9346CB18               |           23945726744

 2017-02-10 14:29:46.382444+01 | 1486733386.38244 | 5/9396C780               |           23950968704

 2017-02-10 14:29:47.468834+01 | 1486733387.46883 | 5/93E983D0               |           23956390864

 2017-02-10 14:29:48.537693+01 | 1486733388.53769 | 5/943A41F0               |           23961682416

 2017-02-10 14:29:49.631286+01 | 1486733389.63129 | 5/948C1280               |           23967044224

