 2017-02-08 08:24:35.272202+01 | 1486538675.2722 | 4/1FF99A90               |           17716320912

 2017-02-08 08:24:36.366665+01 | 1486538676.36666 | 4/26742C28               |           17825016872

 2017-02-08 08:24:37.456706+01 | 1486538677.45671 | 4/2CA719A8               |           17929017768

 2017-02-08 08:24:38.540383+01 | 1486538678.54038 | 4/32DFE998               |           18033404312

 2017-02-08 08:24:39.630979+01 | 1486538679.63098 | 4/3910A8E0               |           18137262304

 2017-02-08 08:24:40.700667+01 | 1486538680.70067 | 4/3E969A28               |           18229926440

 2017-02-08 08:24:41.795812+01 | 1486538681.79581 | 4/4483CCA0               |           18329357472

 2017-02-08 08:24:42.881514+01 | 1486538682.88151 | 4/49FA3F78               |           18421006200

 2017-02-08 08:24:43.958792+01 | 1486538683.95879 | 4/4F320D70               |           18508549488

 2017-02-08 08:24:45.019777+01 | 1486538685.01978 | 4/545445C8               |           18594678216

 2017-02-08 08:24:46.105477+01 | 1486538686.10548 | 4/59690310               |           18679923472

 2017-02-08 08:24:47.188719+01 | 1486538687.18872 | 4/5E2DF940               |           18759940416

 2017-02-08 08:24:48.275312+01 | 1486538688.27531 | 4/63069130               |           18841243952

 2017-02-08 08:24:49.363865+01 | 1486538689.36386 | 4/67DE6208               |           18922496520

 2017-02-08 08:24:50.459725+01 | 1486538690.45972 | 4/6C6A4F48               |           18998775624

 2017-02-08 08:24:51.550452+01 | 1486538691.55045 | 4/71192A08               |           19077343752

 2017-02-08 08:24:52.643666+01 | 1486538692.64367 | 4/75A2B0A8               |           19153465512

 2017-02-08 08:24:53.718802+01 | 1486538693.7188 | 4/79CAFD50               |           19223215440

 2017-02-08 08:24:54.795971+01 | 1486538694.79597 | 4/7E0AD030               |           19294507056

 2017-02-08 08:24:55.896268+01 | 1486538695.89627 | 4/8258CF20               |           19366727456

 2017-02-08 08:24:56.992283+01 | 1486538696.99228 | 4/865CFA98               |           19434109592

 2017-02-08 08:24:58.077553+01 | 1486538698.07755 | 4/8A6A8148               |           19502104904

 2017-02-08 08:24:59.185751+01 | 1486538699.18575 | 4/8E4CD6B0               |           19567269552

 2017-02-08 08:25:00.263556+01 | 1486538700.26356 | 4/923E9270               |           19633443440

 2017-02-08 08:25:01.36126+01 | 1486538701.36126 | 4/96265C98               |           19698965656

 2017-02-08 08:25:02.449409+01 | 1486538702.44941 | 4/99DDA9F8               |           19761310200

 2017-02-08 08:25:03.53175+01 | 1486538703.53175 | 4/9D71BC38               |           19821345848

 2017-02-08 08:25:04.622598+01 | 1486538704.6226 | 4/A1273490               |           19883570320

 2017-02-08 08:25:05.70426+01 | 1486538705.70426 | 4/A4881A90               |           19940252304

 2017-02-08 08:25:06.801032+01 | 1486538706.80103 | 4/A81C52F8               |           20000297720

 2017-02-08 08:25:07.901179+01 | 1486538707.90118 | 4/AB8A5418               |           20057838616

 2017-02-08 08:25:08.994035+01 | 1486538708.99404 | 4/AED4B958               |           20113045848

 2017-02-08 08:25:10.117082+01 | 1486538710.11708 | 4/B23B7358               |           20170109784

 2017-02-08 08:25:11.209468+01 | 1486538711.20947 | 4/B543D900               |           20220991744

 2017-02-08 08:25:12.315984+01 | 1486538712.31598 | 4/B846C838               |           20271515704

 2017-02-08 08:25:13.397123+01 | 1486538713.39712 | 4/BB0B6E18               |           20317957656

 2017-02-08 08:25:14.474535+01 | 1486538714.47453 | 4/BDF10358               |           20366558040

 2017-02-08 08:25:15.561889+01 | 1486538715.56189 | 4/C0D82EB0               |           20415262384

 2017-02-08 08:25:16.630088+01 | 1486538716.63009 | 4/C380B3C8               |           20459860936

 2017-02-08 08:25:17.743647+01 | 1486538717.74365 | 4/C6564D78               |           20507413880

 2017-02-08 08:25:18.848735+01 | 1486538718.84874 | 4/C8F75778               |           20551522168

 2017-02-08 08:25:19.946346+01 | 1486538719.94635 | 4/CBA8F358               |           20596716376

 2017-02-08 08:25:21.046163+01 | 1486538721.04616 | 4/CE43E410               |           20640424976

 2017-02-08 08:25:22.137604+01 | 1486538722.1376 | 4/D0CE0658               |           20683032152

 2017-02-08 08:25:23.231707+01 | 1486538723.23171 | 4/D3572808               |           20725573640

 2017-02-08 08:25:24.31376+01 | 1486538724.31376 | 4/D5AA7C48               |           20764589128

 2017-02-08 08:25:25.436831+01 | 1486538725.43683 | 4/D8291690               |           20806440592

 2017-02-08 08:25:26.554046+01 | 1486538726.55405 | 4/DA8D9468               |           20846580840

 2017-02-08 08:25:27.682608+01 | 1486538727.68261 | 4/DCEBB188               |           20886303112

 2017-02-08 08:25:28.771622+01 | 1486538728.77162 | 4/DF1BEE20               |           20923018784

 2017-02-08 08:25:29.890795+01 | 1486538729.89079 | 4/E16095C8               |           20961072584

 2017-02-08 08:25:30.983881+01 | 1486538730.98388 | 4/E37AE4F0               |           20996351216

 2017-02-08 08:25:32.086432+01 | 1486538732.08643 | 4/E59BDFA8               |           21032066984

 2017-02-08 08:25:33.184916+01 | 1486538733.18492 | 4/E78EA3B0               |           21064754096

 2017-02-08 08:25:34.307862+01 | 1486538734.30786 | 4/E9A48CF8               |           21099744504

 2017-02-08 08:25:35.406914+01 | 1486538735.40691 | 4/EB854248               |           21131248200

 2017-02-08 08:25:36.506024+01 | 1486538736.50602 | 4/ED77A088               |           21163909256

 2017-02-08 08:25:37.61839+01 | 1486538737.61839 | 4/EF4AECE8               |           21194534120

 2017-02-08 08:25:38.723886+01 | 1486538738.72389 | 4/F12911C0               |           21225869760

 2017-02-08 08:25:39.804599+01 | 1486538739.8046 | 4/F2D70AF8               |           21254048504

 2017-02-08 08:25:40.894493+01 | 1486538740.89449 | 4/F4998678               |           21283571320

 2017-02-08 08:25:41.997427+01 | 1486538741.99743 | 4/F64EE310               |           21312234256

 2017-02-08 08:25:43.107061+01 | 1486538743.10706 | 4/F8030520               |           21340816672

 2017-02-08 08:25:44.213611+01 | 1486538744.21361 | 4/F9ACD538               |           21368722744

 2017-02-08 08:25:45.335709+01 | 1486538745.33571 | 4/FB542640               |           21396465216

 2017-02-08 08:25:46.416126+01 | 1486538746.41613 | 4/FCD1F9B8               |           21421488568

 2017-02-08 08:25:47.550446+01 | 1486538747.55045 | 4/FE63F310               |           21447832336

 2017-02-08 08:25:48.630089+01 | 1486538748.63009 | 4/FFE4F258               |           21473063512

 2017-02-08 08:25:49.73906+01 | 1486538749.73906 | 5/14B1CE8                |           21496536296

 2017-02-08 08:25:50.873466+01 | 1486538750.87347 | 5/2D2EC78                |           21522214008

 2017-02-08 08:25:52.004444+01 | 1486538752.00444 | 5/4412900                |           21546215680

 2017-02-08 08:25:53.080465+01 | 1486538753.08047 | 5/59FC290                |           21569192592

 2017-02-08 08:25:54.231939+01 | 1486538754.23194 | 5/70C9B38                |           21593103160

 2017-02-08 08:25:55.343376+01 | 1486538755.34338 | 5/863BF40                |           21615591232

 2017-02-08 08:25:56.478202+01 | 1486538756.4782 | 5/9B4E0E0                |           21637685472

 2017-02-08 08:25:57.624947+01 | 1486538757.62495 | 5/B1711E0                |           21660897760

 2017-02-08 08:25:58.748906+01 | 1486538758.74891 | 5/C5BAFE8                |           21682171880

 2017-02-08 08:25:59.871383+01 | 1486538759.87138 | 5/D8F08A8                |           21702314152

 2017-02-08 08:26:00.971988+01 | 1486538760.97199 | 5/EB74CE8                |           21721730280

 2017-02-08 08:26:02.063495+01 | 1486538762.06349 | 5/FD473B0                |           21740417968

 2017-02-08 08:26:03.137151+01 | 1486538763.13715 | 5/10EEFF88               |           21758934920

 2017-02-08 08:26:04.320103+01 | 1486538764.3201 | 5/1221BC60               |           21779037280

 2017-02-08 08:26:05.420413+01 | 1486538765.42041 | 5/133A3D18               |           21797420312

 2017-02-08 08:26:06.493097+01 | 1486538766.4931 | 5/14374970               |           21814004080

 2017-02-08 08:26:07.60522+01 | 1486538767.60522 | 5/1546BA38               |           21831793208

 2017-02-08 08:26:08.731538+01 | 1486538768.73154 | 5/164E9D70               |           21849087344

 2017-02-08 08:26:09.855827+01 | 1486538769.85583 | 5/17601620               |           21867009568

 2017-02-08 08:26:10.963449+01 | 1486538770.96345 | 5/184FBDD0               |           21882715600

 2017-02-08 08:26:12.054199+01 | 1486538772.0542 | 5/19423530               |           21898605872

 2017-02-08 08:26:13.117127+01 | 1486538773.11713 | 5/1A2D2770               |           21914003312

 2017-02-08 08:26:14.192825+01 | 1486538774.19283 | 5/1B4089C8               |           21932050888

 2017-02-08 08:26:15.288132+01 | 1486538775.28813 | 5/1C5BB278               |           21950607992

 2017-02-08 08:26:16.364392+01 | 1486538776.36439 | 5/1D765718               |           21969131288

 2017-02-08 08:26:17.450725+01 | 1486538777.45073 | 5/1EA361D0               |           21988860368

 2017-02-08 08:26:18.641054+01 | 1486538778.64105 | 5/1F9F0AB0               |           22005353136

 2017-02-08 08:26:19.775388+01 | 1486538779.77539 | 5/208D8DC8               |           22020984264

 2017-02-08 08:26:20.868917+01 | 1486538780.86892 | 5/2163A710               |           22035015440

 2017-02-08 08:26:21.996998+01 | 1486538781.997 | 5/2249E718               |           22050105112

 2017-02-08 08:26:23.09736+01 | 1486538783.09736 | 5/231DF628               |           22064002600

 2017-02-08 08:26:24.232679+01 | 1486538784.23268 | 5/23F491E0               |           22078067168

 2017-02-08 08:26:25.330744+01 | 1486538785.33074 | 5/24C43568               |           22091674984

 2017-02-08 08:26:26.470856+01 | 1486538786.47086 | 5/25926B70               |           22105189232

 2017-02-08 08:26:27.566364+01 | 1486538787.56636 | 5/26603850               |           22118676560

 2017-02-08 08:26:28.692608+01 | 1486538788.69261 | 5/2723FED0               |           22131506896

 2017-02-08 08:26:29.784194+01 | 1486538789.78419 | 5/27EAF868               |           22144546920

 2017-02-08 08:26:30.900671+01 | 1486538790.90067 | 5/28A62E98               |           22156816024

 2017-02-08 08:26:32.00867+01 | 1486538792.00867 | 5/295F19F0               |           22168934896

 2017-02-08 08:26:33.099676+01 | 1486538793.09968 | 5/2A13B2D8               |           22180770520

 2017-02-08 08:26:34.198922+01 | 1486538794.19892 | 5/2AC59CB0               |           22192430256

 2017-02-08 08:26:35.348881+01 | 1486538795.34888 | 5/2B7522E8               |           22203933416

 2017-02-08 08:26:36.490928+01 | 1486538796.49093 | 5/2C26A3D8               |           22215566296

 2017-02-08 08:26:37.596854+01 | 1486538797.59685 | 5/2CDA6388               |           22227346312

 2017-02-08 08:26:38.7157+01 | 1486538798.7157 | 5/2D86B768               |           22238639976

 2017-02-08 08:26:39.804219+01 | 1486538799.80422 | 5/2E3418A0               |           22250002592

 2017-02-08 08:26:40.964659+01 | 1486538800.96466 | 5/2EDF0718               |           22261204760

 2017-02-08 08:26:42.048685+01 | 1486538802.04869 | 5/2F847B78               |           22272047992

 2017-02-08 08:26:43.131574+01 | 1486538803.13157 | 5/3026FA98               |           22282697368

 2017-02-08 08:26:44.274355+01 | 1486538804.27435 | 5/30CD7D20               |           22293609760

 2017-02-08 08:26:45.372693+01 | 1486538805.37269 | 5/31684F68               |           22303756136

 2017-02-08 08:26:46.52375+01 | 1486538806.52375 | 5/32090490               |           22314288272

 2017-02-08 08:26:47.609204+01 | 1486538807.6092 | 5/32A4B3D0               |           22324491216

 2017-02-08 08:26:48.691545+01 | 1486538808.69155 | 5/333E95C8               |           22334576072

 2017-02-08 08:26:49.77109+01 | 1486538809.77109 | 5/33D8CEC8               |           22344683208

 2017-02-08 08:26:50.891871+01 | 1486538810.89187 | 5/346B7AF8               |           22354295544

 2017-02-08 08:26:52.014389+01 | 1486538812.01439 | 5/35043100               |           22364303616

 2017-02-08 08:26:53.143648+01 | 1486538813.14365 | 5/35965558               |           22373881176

 2017-02-08 08:26:54.242883+01 | 1486538814.24288 | 5/36238420               |           22383133728

 2017-02-08 08:26:55.357099+01 | 1486538815.3571 | 5/36B36A90               |           22392564368

 2017-02-08 08:26:56.499619+01 | 1486538816.49962 | 5/37475E80               |           22402260608

 2017-02-08 08:26:57.638484+01 | 1486538817.63848 | 5/37D6D4B8               |           22411662520

 2017-02-08 08:26:58.742861+01 | 1486538818.74286 | 5/3866F820               |           22421108768

 2017-02-08 08:26:59.877191+01 | 1486538819.87719 | 5/38EE9FF8               |           22429999096

 2017-02-08 08:27:01.018267+01 | 1486538821.01827 | 5/397B8B68               |           22439234408

 2017-02-08 08:27:02.124557+01 | 1486538822.12456 | 5/3A0571C0               |           22448271808

 2017-02-08 08:27:03.263608+01 | 1486538823.26361 | 5/3A8EBBE8               |           22457269224

 2017-02-08 08:27:04.328765+01 | 1486538824.32876 | 5/3B0DF1C0               |           22465606080

 2017-02-08 08:27:05.463138+01 | 1486538825.46314 | 5/3B954808               |           22474475528

 2017-02-08 08:27:06.563385+01 | 1486538826.56339 | 5/3C1A4800               |           22483191808

 2017-02-08 08:27:07.677337+01 | 1486538827.67734 | 5/3C961DC0               |           22491307456

 2017-02-08 08:27:08.802638+01 | 1486538828.80264 | 5/3D1B0000               |           22500016128

 2017-02-08 08:27:09.905021+01 | 1486538829.90502 | 5/3D94B1E0               |           22507991520

 2017-02-08 08:27:11.011757+01 | 1486538831.01176 | 5/3E140A70               |           22516337264

 2017-02-08 08:27:12.101542+01 | 1486538832.10154 | 5/3E8EFC40               |           22524394560

 2017-02-08 08:27:13.209184+01 | 1486538833.20918 | 5/3F0F8ED0               |           22532820688

 2017-02-08 08:27:14.323124+01 | 1486538834.32312 | 5/3FA45158               |           22542569816

 2017-02-08 08:27:15.473119+01 | 1486538835.47312 | 5/40569FE8               |           22554255336

 2017-02-08 08:27:16.575787+01 | 1486538836.57579 | 5/410C1100               |           22566146304

 2017-02-08 08:27:17.714596+01 | 1486538837.7146 | 5/41D485B0               |           22579283376

 2017-02-08 08:27:18.854913+01 | 1486538838.85491 | 5/42A180F8               |           22592717048

 2017-02-08 08:27:19.964102+01 | 1486538839.9641 | 5/4375FE60               |           22606642784

 2017-02-08 08:27:21.057023+01 | 1486538841.05702 | 5/44106288               |           22616760968

 2017-02-08 08:27:22.208102+01 | 1486538842.2081 | 5/44916358               |           22625215320

 2017-02-08 08:27:23.33438+01 | 1486538843.33438 | 5/450CED68               |           22633311592

 2017-02-08 08:27:24.457044+01 | 1486538844.45704 | 5/4584E5B8               |           22641173944

 2017-02-08 08:27:25.576213+01 | 1486538845.57621 | 5/45FF3170               |           22649188720

 2017-02-08 08:27:26.673853+01 | 1486538846.67385 | 5/466E4910               |           22656469264

 2017-02-08 08:27:27.810642+01 | 1486538847.81064 | 5/46E35AC0               |           22664141504

 2017-02-08 08:27:28.895453+01 | 1486538848.89545 | 5/475854B0               |           22671807664

 2017-02-08 08:27:29.974775+01 | 1486538849.97478 | 5/47C937E0               |           22679205856

 2017-02-08 08:27:31.054256+01 | 1486538851.05426 | 5/483B1560               |           22686668128

 2017-02-08 08:27:32.164756+01 | 1486538852.16476 | 5/48ADD880               |           22694189184

 2017-02-08 08:27:33.295868+01 | 1486538853.29587 | 5/4925AC68               |           22702042216

 2017-02-08 08:27:34.406387+01 | 1486538854.40639 | 5/499619E8               |           22709410280

 2017-02-08 08:27:35.555066+01 | 1486538855.55507 | 5/4A11DFD0               |           22717521872

 2017-02-08 08:27:36.667382+01 | 1486538856.66738 | 5/4A7F3430               |           22724686896

 2017-02-08 08:27:37.753452+01 | 1486538857.75345 | 5/4AF1C438               |           22732194872

 2017-02-08 08:27:38.885214+01 | 1486538858.88521 | 5/4B6005D8               |           22739420632

 2017-02-08 08:27:39.972877+01 | 1486538859.97288 | 5/4BD18720               |           22746859296

 2017-02-08 08:27:41.087192+01 | 1486538861.08719 | 5/4C3ADCB8               |           22753762488

 2017-02-08 08:27:42.188897+01 | 1486538862.1889 | 5/4CA9AB30               |           22761024304

 2017-02-08 08:27:43.293269+01 | 1486538863.29327 | 5/4D10C958               |           22767782232

 2017-02-08 08:27:44.397343+01 | 1486538864.39734 | 5/4D81F560               |           22775199072

 2017-02-08 08:27:45.514321+01 | 1486538865.51432 | 5/4DEF2DA0               |           22782356896

 2017-02-08 08:27:46.631612+01 | 1486538866.63161 | 5/4E592070               |           22789300336

 2017-02-08 08:27:47.769317+01 | 1486538867.76932 | 5/4ECA6AB8               |           22796724920

 2017-02-08 08:27:48.900695+01 | 1486538868.9007 | 5/4F335540               |           22803600704

 2017-02-08 08:27:50.005958+01 | 1486538870.00596 | 5/4FA0A9F0               |           22810765808

 2017-02-08 08:27:51.141553+01 | 1486538871.14155 | 5/5009CD38               |           22817656120

 2017-02-08 08:27:52.238181+01 | 1486538872.23818 | 5/5076CAA0               |           22824798880

 2017-02-08 08:27:53.332576+01 | 1486538873.33258 | 5/50DE7368               |           22831592296

 2017-02-08 08:27:54.476892+01 | 1486538874.47689 | 5/514CC4D8               |           22838822104

 2017-02-08 08:27:55.543456+01 | 1486538875.54346 | 5/51B3B9F8               |           22845569528

 2017-02-08 08:27:56.706014+01 | 1486538876.70601 | 5/521EABC8               |           22852578248

 2017-02-08 08:27:57.851697+01 | 1486538877.8517 | 5/52921378               |           22860141432

 2017-02-08 08:27:58.990404+01 | 1486538878.9904 | 5/52FB7E80               |           22867050112

 2017-02-08 08:28:00.082543+01 | 1486538880.08254 | 5/53655320               |           22873985824

 2017-02-08 08:28:01.172517+01 | 1486538881.17252 | 5/53C8B820               |           22880499744

 2017-02-08 08:28:02.280718+01 | 1486538882.28072 | 5/54323F60               |           22887415648

 2017-02-08 08:28:03.399406+01 | 1486538883.39941 | 5/5498CB88               |           22894136200

 2017-02-08 08:28:04.50228+01 | 1486538884.50228 | 5/55033828               |           22901110824

 2017-02-08 08:28:05.587578+01 | 1486538885.58758 | 5/55680F98               |           22907719576

 2017-02-08 08:28:06.688804+01 | 1486538886.6888 | 5/55CDE208               |           22914392584

 2017-02-08 08:28:07.833297+01 | 1486538887.8333 | 5/5632F160               |           22921015648

 2017-02-08 08:28:08.96637+01 | 1486538888.96637 | 5/569D5718               |           22927988504

 2017-02-08 08:28:10.088339+01 | 1486538890.08834 | 5/5701C3D8               |           22934569944

 2017-02-08 08:28:11.210663+01 | 1486538891.21066 | 5/576CBEA8               |           22941580968

 2017-02-08 08:28:12.272982+01 | 1486538892.27298 | 5/57D0AB48               |           22948129608

 2017-02-08 08:28:13.364909+01 | 1486538893.36491 | 5/5836C4B8               |           22954820792

 2017-02-08 08:28:14.504164+01 | 1486538894.50416 | 5/589D99E8               |           22961560040

 2017-02-08 08:28:15.603915+01 | 1486538895.60391 | 5/5903B850               |           22968252496

 2017-02-08 08:28:16.730397+01 | 1486538896.7304 | 5/59669910               |           22974732560

 2017-02-08 08:28:17.859382+01 | 1486538897.85938 | 5/59D386C8               |           22981871304

 2017-02-08 08:28:18.99244+01 | 1486538898.99244 | 5/5A4121A0               |           22989054368

 2017-02-08 08:28:20.125316+01 | 1486538900.12532 | 5/5ACE8748               |           22998320968

 2017-02-08 08:28:21.241379+01 | 1486538901.24138 | 5/5B65E0F8               |           23008239864

 2017-02-08 08:28:22.34109+01 | 1486538902.34109 | 5/5C060520               |           23018734880

 2017-02-08 08:28:23.464809+01 | 1486538903.46481 | 5/5CB63F00               |           23030284032

 2017-02-08 08:28:24.609479+01 | 1486538904.60948 | 5/5D6A9EA0               |           23042104992

 2017-02-08 08:28:25.720076+01 | 1486538905.72008 | 5/5E25ED68               |           23054380392

 2017-02-08 08:28:26.884055+01 | 1486538906.88405 | 5/5EEAAD70               |           23067274608

 2017-02-08 08:28:27.972861+01 | 1486538907.97286 | 5/5F9FFF90               |           23079157648

 2017-02-08 08:28:29.114788+01 | 1486538909.11479 | 5/602968A0               |           23088162976

 2017-02-08 08:28:30.235415+01 | 1486538910.23541 | 5/60915A10               |           23094974992

 2017-02-08 08:28:31.351386+01 | 1486538911.35139 | 5/60FC4048               |           23101980744

 2017-02-08 08:28:32.488541+01 | 1486538912.48854 | 5/616598F0               |           23108884720

 2017-02-08 08:28:33.648998+01 | 1486538913.649 | 5/61CF35F0               |           23115806192

 2017-02-08 08:28:34.746881+01 | 1486538914.74688 | 5/62381FC8               |           23122681800

 2017-02-08 08:28:35.827094+01 | 1486538915.82709 | 5/6298EB68               |           23129025384

 2017-02-08 08:28:36.941098+01 | 1486538916.9411 | 5/6300E828               |           23135840296

 2017-02-08 08:28:38.05238+01 | 1486538918.05238 | 5/63623CD0               |           23142218960

 2017-02-08 08:28:39.145881+01 | 1486538919.14588 | 5/63C8BDE0               |           23148936672

 2017-02-08 08:28:40.245782+01 | 1486538920.24578 | 5/642CA0A0               |           23155482784

 2017-02-08 08:28:41.352568+01 | 1486538921.35257 | 5/648D4AB8               |           23161817784

 2017-02-08 08:28:42.471142+01 | 1486538922.47114 | 5/64F466F8               |           23168575224

 2017-02-08 08:28:43.575566+01 | 1486538923.57557 | 5/655A6B38               |           23175260984

 2017-02-08 08:28:44.675504+01 | 1486538924.6755 | 5/65C47190               |           23182209424

 2017-02-08 08:28:45.765026+01 | 1486538925.76503 | 5/66269000               |           23188639744

 2017-02-08 08:28:46.912133+01 | 1486538926.91213 | 5/668E90C8               |           23195455688

 2017-02-08 08:28:48.026798+01 | 1486538928.0268 | 5/66F47268               |           23202132584

 2017-02-08 08:28:49.143638+01 | 1486538929.14364 | 5/67587D00               |           23208688896

 2017-02-08 08:28:50.271212+01 | 1486538930.27121 | 5/67C1C870               |           23215589488

 2017-02-08 08:28:51.386449+01 | 1486538931.38645 | 5/68263E38               |           23222173240

 2017-02-08 08:28:52.508216+01 | 1486538932.50822 | 5/688C4378               |           23228859256

 2017-02-08 08:28:53.584421+01 | 1486538933.58442 | 5/68EE3088               |           23235276936

 2017-02-08 08:28:54.705285+01 | 1486538934.70529 | 5/69527990               |           23241849232

 2017-02-08 08:28:55.818784+01 | 1486538935.81878 | 5/69BBDB80               |           23248755584

 2017-02-08 08:28:56.922999+01 | 1486538936.923 | 5/6A1D2E38               |           23255133752

 2017-02-08 08:28:58.046756+01 | 1486538938.04676 | 5/6A850FD0               |           23261941712

 2017-02-08 08:28:59.154679+01 | 1486538939.15468 | 5/6AE55E10               |           23268253200

 2017-02-08 08:29:00.287458+01 | 1486538940.28746 | 5/6B50DA48               |           23275297352

 2017-02-08 08:29:01.377659+01 | 1486538941.37766 | 5/6BB0A2E8               |           23281574632

 2017-02-08 08:29:02.466345+01 | 1486538942.46635 | 5/6C1377E0               |           23288051680

 2017-02-08 08:29:03.571146+01 | 1486538943.57115 | 5/6C7C1C78               |           23294909560

 2017-02-08 08:29:04.651845+01 | 1486538944.65184 | 5/6CDC9D80               |           23301234048

 2017-02-08 08:29:05.780366+01 | 1486538945.78037 | 5/6D4436D0               |           23308023504

 2017-02-08 08:29:06.942402+01 | 1486538946.9424 | 5/6DA94FB8               |           23314649016

 2017-02-08 08:29:08.051248+01 | 1486538948.05125 | 5/6E117ED0               |           23321476816

 2017-02-08 08:29:09.127859+01 | 1486538949.12786 | 5/6EDFB0A0               |           23334989984

 2017-02-08 08:29:10.248325+01 | 1486538950.24833 | 5/6FC37130               |           23349915952

 2017-02-08 08:29:11.349567+01 | 1486538951.34957 | 5/7087B6C0               |           23362778816

 2017-02-08 08:29:12.453762+01 | 1486538952.45376 | 5/7135BDF0               |           23374183920

 2017-02-08 08:29:13.549922+01 | 1486538953.54992 | 5/71D504D8               |           23384622296

 2017-02-08 08:29:14.63742+01 | 1486538954.63742 | 5/725C5048               |           23393488968

 2017-02-08 08:29:15.719726+01 | 1486538955.71973 | 5/72CA5640               |           23400699456

 2017-02-08 08:29:16.86018+01 | 1486538956.86018 | 5/73356B00               |           23407717120

 2017-02-08 08:29:17.95862+01 | 1486538957.95862 | 5/73A53FB0               |           23415046064

 2017-02-08 08:29:19.079124+01 | 1486538959.07912 | 5/741929C8               |           23422642632

 2017-02-08 08:29:20.179268+01 | 1486538960.17927 | 5/74AB3E98               |           23432216216

 2017-02-08 08:29:21.296563+01 | 1486538961.29656 | 5/75664C58               |           23444474968

 2017-02-08 08:29:22.373621+01 | 1486538962.37362 | 5/762A5FE8               |           23457325032

 2017-02-08 08:29:23.529118+01 | 1486538963.52912 | 5/77053610               |           23471666704

 2017-02-08 08:29:24.677133+01 | 1486538964.67713 | 5/77D7FB20               |           23485479712

 2017-02-08 08:29:25.788127+01 | 1486538965.78813 | 5/78A79B00               |           23499086592

 2017-02-08 08:29:26.914782+01 | 1486538966.91478 | 5/797EB6F8               |           23513183992

 2017-02-08 08:29:28.03544+01 | 1486538968.03544 | 5/7A546280               |           23527187072

 2017-02-08 08:29:29.123569+01 | 1486538969.12357 | 5/7B1CB3C8               |           23540315080

 2017-02-08 08:29:30.238251+01 | 1486538970.23825 | 5/7BF50758               |           23554492248

 2017-02-08 08:29:31.38122+01 | 1486538971.38122 | 5/7CC563C8               |           23568147400

 2017-02-08 08:29:32.51432+01 | 1486538972.51432 | 5/7D8B56E0               |           23581120224

 2017-02-08 08:29:33.612262+01 | 1486538973.61226 | 5/7E498C00               |           23593585664

 2017-02-08 08:29:34.707267+01 | 1486538974.70727 | 5/7EFFF0C0               |           23605539008

