 2017-02-10 15:31:22.982491+01 | 1486737082.98249 |                 0 |              10 |                  6881 |                  499 |             949039 |       1302087 |            12958 |        13064159 |                     0 |      12433636 | 2017-02-10 14:45:20.166902+01

 2017-02-10 15:31:24.033281+01 | 1486737084.03328 |                 0 |              10 |                  6881 |                  499 |             949039 |       1302087 |            12958 |        13064159 |                     0 |      12436722 | 2017-02-10 14:45:20.166902+01

 2017-02-10 15:31:25.084238+01 | 1486737085.08424 |                 0 |              10 |                  6881 |                  499 |             949039 |       1302087 |            12958 |        13064159 |                     0 |      12440004 | 2017-02-10 14:45:20.166902+01

 2017-02-10 15:31:26.14509+01 | 1486737086.14509 |                 0 |              10 |                  6881 |                  499 |             949039 |       1302087 |            12958 |        13064159 |                     0 |      12444257 | 2017-02-10 14:45:20.166902+01

 2017-02-10 15:31:27.200631+01 | 1486737087.20063 |                 0 |              10 |                  6881 |                  499 |             949039 |       1302087 |            12958 |        13064159 |                     0 |      12447839 | 2017-02-10 14:45:20.166902+01

 2017-02-10 15:31:28.25216+01 | 1486737088.25216 |                 0 |              10 |                  6881 |                  499 |             949039 |       1302097 |            12958 |        13064159 |                     0 |      12451568 | 2017-02-10 14:45:20.166902+01

 2017-02-10 15:31:29.30305+01 | 1486737089.30305 |                 0 |              10 |                  6881 |                  499 |             949039 |       1302103 |            12958 |        13064159 |                     0 |      12455327 | 2017-02-10 14:45:20.166902+01

 2017-02-10 15:31:30.356669+01 | 1486737090.35667 |                 0 |              10 |                  6881 |                  499 |             949039 |       1302112 |            12958 |        13064159 |                     0 |      12459880 | 2017-02-10 14:45:20.166902+01

 2017-02-10 15:31:31.406657+01 | 1486737091.40666 |                 0 |              10 |                  6881 |                  499 |             949039 |       1302122 |            12958 |        13064159 |                     0 |      12463660 | 2017-02-10 14:45:20.166902+01

 2017-02-10 15:31:32.459553+01 | 1486737092.45955 |                 0 |              10 |                  6881 |                  499 |             949039 |       1302346 |            12958 |        13064159 |                     0 |      12467514 | 2017-02-10 14:45:20.166902+01

 2017-02-10 15:31:33.51269+01 | 1486737093.51269 |                 0 |              10 |                  6881 |                  499 |             949039 |       1302748 |            12959 |        13064159 |                     0 |      12471549 | 2017-02-10 14:45:20.166902+01

 2017-02-10 15:31:34.565042+01 | 1486737094.56504 |                 0 |              10 |                  6881 |                  499 |             949039 |       1303348 |            12965 |        13064159 |                     0 |      12476316 | 2017-02-10 14:45:20.166902+01

 2017-02-10 15:31:35.619902+01 | 1486737095.6199 |                 0 |              10 |                  6881 |                  499 |             949039 |       1303848 |            12970 |        13064159 |                     0 |      12480346 | 2017-02-10 14:45:20.166902+01

 2017-02-10 15:31:36.675571+01 | 1486737096.67557 |                 0 |              10 |                  6881 |                  499 |             949039 |       1304348 |            12975 |        13064159 |                     0 |      12484413 | 2017-02-10 14:45:20.166902+01

 2017-02-10 15:31:37.727568+01 | 1486737097.72757 |                 0 |              10 |                  6881 |                  499 |             949039 |       1304848 |            12980 |        13064159 |                     0 |      12488119 | 2017-02-10 14:45:20.166902+01

 2017-02-10 15:31:38.778716+01 | 1486737098.77872 |                 0 |              10 |                  6881 |                  499 |             949039 |       1305448 |            12986 |        13064159 |                     0 |      12493066 | 2017-02-10 14:45:20.166902+01

 2017-02-10 15:31:39.835714+01 | 1486737099.83571 |                 0 |              10 |                  6881 |                  499 |             949039 |       1305948 |            12991 |        13064159 |                     0 |      12497244 | 2017-02-10 14:45:20.166902+01

 2017-02-10 15:31:40.889085+01 | 1486737100.88909 |                 0 |              10 |                  6881 |                  499 |             949039 |       1306448 |            12996 |        13064159 |                     0 |      12501575 | 2017-02-10 14:45:20.166902+01

 2017-02-10 15:31:41.940421+01 | 1486737101.94042 |                 0 |              10 |                  6881 |                  499 |             949039 |       1306948 |            13001 |        13064159 |                     0 |      12505730 | 2017-02-10 14:45:20.166902+01

 2017-02-10 15:31:42.992491+01 | 1486737102.99249 |                 0 |              10 |                  6881 |                  499 |             949039 |       1307448 |            13006 |        13064159 |                     0 |      12510065 | 2017-02-10 14:45:20.166902+01

 2017-02-10 15:31:44.045665+01 | 1486737104.04567 |                 0 |              10 |                  6881 |                  499 |             949039 |       1308048 |            13012 |        13064159 |                     0 |      12515118 | 2017-02-10 14:45:20.166902+01

 2017-02-10 15:31:45.101648+01 | 1486737105.10165 |                 0 |              10 |                  6881 |                  499 |             949039 |       1308548 |            13017 |        13064159 |                     0 |      12519553 | 2017-02-10 14:45:20.166902+01

 2017-02-10 15:31:46.154311+01 | 1486737106.15431 |                 0 |              10 |                  6881 |                  499 |             949039 |       1309048 |            13022 |        13064159 |                     0 |      12523927 | 2017-02-10 14:45:20.166902+01

 2017-02-10 15:31:47.208354+01 | 1486737107.20835 |                 0 |              10 |                  6881 |                  499 |             949039 |       1309548 |            13027 |        13064159 |                     0 |      12528433 | 2017-02-10 14:45:20.166902+01

 2017-02-10 15:31:48.259368+01 | 1486737108.25937 |                 0 |              10 |                  6881 |                  499 |             949039 |       1310148 |            13033 |        13064159 |                     0 |      12533538 | 2017-02-10 14:45:20.166902+01

 2017-02-10 15:31:49.316057+01 | 1486737109.31606 |                 0 |              10 |                  6881 |                  499 |             949039 |       1310648 |            13038 |        13064159 |                     0 |      12538041 | 2017-02-10 14:45:20.166902+01

 2017-02-10 15:31:50.368908+01 | 1486737110.36891 |                 0 |              10 |                  6881 |                  499 |             949039 |       1311148 |            13043 |        13120834 |                     0 |      12542328 | 2017-02-10 14:45:20.166902+01

 2017-02-10 15:31:51.423767+01 | 1486737111.42377 |                 0 |              10 |                  6881 |                  499 |             949039 |       1311648 |            13048 |        13120834 |                     0 |      12546893 | 2017-02-10 14:45:20.166902+01

 2017-02-10 15:31:52.476123+01 | 1486737112.47612 |                 0 |              10 |                  6881 |                  499 |             949039 |       1312248 |            13054 |        13120834 |                     0 |      12552003 | 2017-02-10 14:45:20.166902+01

 2017-02-10 15:31:53.528565+01 | 1486737113.52856 |                 0 |              10 |                  6881 |                  499 |             949039 |       1312748 |            13059 |        13120834 |                     0 |      12556583 | 2017-02-10 14:45:20.166902+01

 2017-02-10 15:31:54.584814+01 | 1486737114.58481 |                 0 |              10 |                  6881 |                  499 |             949039 |       1313248 |            13064 |        13120834 |                     0 |      12560853 | 2017-02-10 14:45:20.166902+01

 2017-02-10 15:31:55.635443+01 | 1486737115.63544 |                 0 |              10 |                  6881 |                  499 |             949039 |       1313748 |            13069 |        13120834 |                     0 |      12565434 | 2017-02-10 14:45:20.166902+01

 2017-02-10 15:31:56.687091+01 | 1486737116.68709 |                 0 |              10 |                  6881 |                  499 |             949039 |       1314348 |            13075 |        13120834 |                     0 |      12570573 | 2017-02-10 14:45:20.166902+01

 2017-02-10 15:31:57.737497+01 | 1486737117.7375 |                 0 |              10 |                  6881 |                  499 |             949039 |       1314848 |            13080 |        13120834 |                     0 |      12574924 | 2017-02-10 14:45:20.166902+01

 2017-02-10 15:31:58.791779+01 | 1486737118.79178 |                 0 |              10 |                  6881 |                  499 |             949039 |       1315348 |            13085 |        13120834 |                     0 |      12579496 | 2017-02-10 14:45:20.166902+01

 2017-02-10 15:31:59.8452+01 | 1486737119.8452 |                 0 |              10 |                  6881 |                  499 |             949039 |       1315848 |            13090 |        13120834 |                     0 |      12583690 | 2017-02-10 14:45:20.166902+01

 2017-02-10 15:32:00.897656+01 | 1486737120.89766 |                 0 |              10 |                  6881 |                  499 |             949039 |       1316348 |            13095 |        13120834 |                     0 |      12588021 | 2017-02-10 14:45:20.166902+01

 2017-02-10 15:32:01.955938+01 | 1486737121.95594 |                 0 |              10 |                  6881 |                  499 |             949039 |       1316948 |            13101 |        13120834 |                     0 |      12593441 | 2017-02-10 14:45:20.166902+01

 2017-02-10 15:32:03.012587+01 | 1486737123.01259 |                 0 |              10 |                  6881 |                  499 |             949039 |       1317448 |            13106 |        13180171 |                     0 |      12597660 | 2017-02-10 14:45:20.166902+01

 2017-02-10 15:32:04.063882+01 | 1486737124.06388 |                 0 |              10 |                  6881 |                  499 |             949039 |       1317948 |            13111 |        13180171 |                     0 |      12602218 | 2017-02-10 14:45:20.166902+01

 2017-02-10 15:32:05.116691+01 | 1486737125.11669 |                 0 |              10 |                  6881 |                  499 |             949039 |       1318448 |            13116 |        13180171 |                     0 |      12606658 | 2017-02-10 14:45:20.166902+01

 2017-02-10 15:32:06.171013+01 | 1486737126.17101 |                 0 |              10 |                  6881 |                  499 |             949039 |       1319048 |            13122 |        13180171 |                     0 |      12611960 | 2017-02-10 14:45:20.166902+01

 2017-02-10 15:32:07.22344+01 | 1486737127.22344 |                 0 |              10 |                  6881 |                  499 |             949039 |       1319548 |            13127 |        13180171 |                     0 |      12616658 | 2017-02-10 14:45:20.166902+01

 2017-02-10 15:32:08.275321+01 | 1486737128.27532 |                 0 |              10 |                  6881 |                  499 |             949039 |       1320048 |            13132 |        13180171 |                     0 |      12620917 | 2017-02-10 14:45:20.166902+01

 2017-02-10 15:32:09.328895+01 | 1486737129.3289 |                 0 |              10 |                  6881 |                  499 |             949039 |       1320548 |            13137 |        13180171 |                     0 |      12625189 | 2017-02-10 14:45:20.166902+01

 2017-02-10 15:32:10.379455+01 | 1486737130.37946 |                 0 |              10 |                  6881 |                  499 |             949039 |       1321148 |            13143 |        13180171 |                     0 |      12630801 | 2017-02-10 14:45:20.166902+01

 2017-02-10 15:32:11.43282+01 | 1486737131.43282 |                 0 |              10 |                  6881 |                  499 |             949039 |       1321648 |            13148 |        13180171 |                     0 |      12635159 | 2017-02-10 14:45:20.166902+01

 2017-02-10 15:32:12.487674+01 | 1486737132.48767 |                 0 |              10 |                  6881 |                  499 |             949039 |       1322148 |            13153 |        13180171 |                     0 |      12639531 | 2017-02-10 14:45:20.166902+01

 2017-02-10 15:32:13.540444+01 | 1486737133.54044 |                 0 |              10 |                  6881 |                  499 |             949039 |       1322648 |            13158 |        13180171 |                     0 |      12643917 | 2017-02-10 14:45:20.166902+01

 2017-02-10 15:32:14.59175+01 | 1486737134.59175 |                 0 |              10 |                  6881 |                  499 |             949039 |       1323248 |            13164 |        13240008 |                     0 |      12649472 | 2017-02-10 14:45:20.166902+01

 2017-02-10 15:32:15.645265+01 | 1486737135.64527 |                 0 |              10 |                  6881 |                  499 |             949039 |       1323748 |            13169 |        13240008 |                     0 |      12653865 | 2017-02-10 14:45:20.166902+01

 2017-02-10 15:32:16.701191+01 | 1486737136.70119 |                 0 |              10 |                  6881 |                  499 |             949039 |       1324248 |            13174 |        13240008 |                     0 |      12658257 | 2017-02-10 14:45:20.166902+01

 2017-02-10 15:32:17.753684+01 | 1486737137.75368 |                 0 |              10 |                  6881 |                  499 |             949039 |       1324748 |            13179 |        13240008 |                     0 |      12663014 | 2017-02-10 14:45:20.166902+01

 2017-02-10 15:32:18.805446+01 | 1486737138.80545 |                 0 |              10 |                  6881 |                  499 |             949039 |       1325348 |            13185 |        13240008 |                     0 |      12668521 | 2017-02-10 14:45:20.166902+01

 2017-02-10 15:32:19.857024+01 | 1486737139.85702 |                 0 |              10 |                  6881 |                  499 |             949039 |       1325848 |            13190 |        13240008 |                     0 |      12672912 | 2017-02-10 14:45:20.166902+01

 2017-02-10 15:32:20.910149+01 | 1486737140.91015 |                 0 |              10 |                  6881 |                  499 |             949039 |       1326348 |            13195 |        13240008 |                     0 |      12677601 | 2017-02-10 14:45:20.166902+01

 2017-02-10 15:32:21.968418+01 | 1486737141.96842 |                 0 |              10 |                  6881 |                  499 |             949039 |       1326848 |            13200 |        13240008 |                     0 |      12682023 | 2017-02-10 14:45:20.166902+01

 2017-02-10 15:32:23.020315+01 | 1486737143.02031 |                 0 |              10 |                  6881 |                  499 |             949039 |       1327348 |            13205 |        13240008 |                     0 |      12686524 | 2017-02-10 14:45:20.166902+01

 2017-02-10 15:32:24.072442+01 | 1486737144.07244 |                 0 |              10 |                  6881 |                  499 |             949039 |       1327948 |            13211 |        13240008 |                     0 |      12692365 | 2017-02-10 14:45:20.166902+01

 2017-02-10 15:32:25.124629+01 | 1486737145.12463 |                 0 |              10 |                  6881 |                  499 |             949039 |       1328448 |            13216 |        13240008 |                     0 |      12696672 | 2017-02-10 14:45:20.166902+01

 2017-02-10 15:32:26.180282+01 | 1486737146.18028 |                 0 |              10 |                  6881 |                  499 |             949039 |       1328948 |            13221 |        13299844 |                     0 |      12701044 | 2017-02-10 14:45:20.166902+01

 2017-02-10 15:32:27.232129+01 | 1486737147.23213 |                 0 |              10 |                  6881 |                  499 |             949039 |       1329448 |            13226 |        13299844 |                     0 |      12705748 | 2017-02-10 14:45:20.166902+01

 2017-02-10 15:32:28.285945+01 | 1486737148.28594 |                 0 |              10 |                  6881 |                  499 |             949039 |       1330048 |            13232 |        13299844 |                     0 |      12711194 | 2017-02-10 14:45:20.166902+01

 2017-02-10 15:32:29.3387+01 | 1486737149.3387 |                 0 |              10 |                  6881 |                  499 |             949039 |       1330548 |            13237 |        13299844 |                     0 |      12715571 | 2017-02-10 14:45:20.166902+01

 2017-02-10 15:32:30.392505+01 | 1486737150.3925 |                 0 |              10 |                  6881 |                  499 |             949039 |       1331048 |            13242 |        13299844 |                     0 |      12720314 | 2017-02-10 14:45:20.166902+01

 2017-02-10 15:32:31.445441+01 | 1486737151.44544 |                 0 |              10 |                  6881 |                  499 |             949039 |       1331548 |            13247 |        13299844 |                     0 |      12724754 | 2017-02-10 14:45:20.166902+01

 2017-02-10 15:32:32.502024+01 | 1486737152.50202 |                 0 |              10 |                  6881 |                  499 |             949039 |       1332148 |            13253 |        13299844 |                     0 |      12730100 | 2017-02-10 14:45:20.166902+01

 2017-02-10 15:32:33.556513+01 | 1486737153.55651 |                 0 |              10 |                  6881 |                  499 |             949039 |       1332648 |            13258 |        13299844 |                     0 |      12735027 | 2017-02-10 14:45:20.166902+01

 2017-02-10 15:32:34.609931+01 | 1486737154.60993 |                 0 |              10 |                  6881 |                  499 |             949039 |       1333148 |            13263 |        13299844 |                     0 |      12739647 | 2017-02-10 14:45:20.166902+01

 2017-02-10 15:32:35.662579+01 | 1486737155.66258 |                 0 |              10 |                  6881 |                  499 |             949039 |       1333648 |            13268 |        13299844 |                     0 |      12744499 | 2017-02-10 14:45:20.166902+01

 2017-02-10 15:32:36.714192+01 | 1486737156.71419 |                 0 |              10 |                  6881 |                  499 |             949039 |       1334148 |            13273 |        13299844 |                     0 |      12749083 | 2017-02-10 14:45:20.166902+01

 2017-02-10 15:32:37.766511+01 | 1486737157.76651 |                 0 |              10 |                  6881 |                  499 |             949039 |       1334748 |            13279 |        13299844 |                     0 |      12754883 | 2017-02-10 14:45:20.166902+01

 2017-02-10 15:32:38.820065+01 | 1486737158.82007 |                 0 |              10 |                  6881 |                  499 |             949039 |       1335248 |            13284 |        13358881 |                     0 |      12759492 | 2017-02-10 14:45:20.166902+01

 2017-02-10 15:32:39.874407+01 | 1486737159.87441 |                 0 |              10 |                  6881 |                  499 |             949039 |       1335748 |            13289 |        13358881 |                     0 |      12764526 | 2017-02-10 14:45:20.166902+01

 2017-02-10 15:32:40.926674+01 | 1486737160.92667 |                 0 |              10 |                  6881 |                  499 |             949039 |       1336248 |            13294 |        13358881 |                     0 |      12769250 | 2017-02-10 14:45:20.166902+01

 2017-02-10 15:32:41.980864+01 | 1486737161.98086 |                 0 |              10 |                  6881 |                  499 |             949039 |       1336848 |            13300 |        13358881 |                     0 |      12775153 | 2017-02-10 14:45:20.166902+01

 2017-02-10 15:32:43.034986+01 | 1486737163.03499 |                 0 |              10 |                  6881 |                  499 |             949039 |       1337348 |            13305 |        13358881 |                     0 |      12779766 | 2017-02-10 14:45:20.166902+01

 2017-02-10 15:32:44.086383+01 | 1486737164.08638 |                 0 |              10 |                  6881 |                  499 |             949039 |       1337848 |            13310 |        13358881 |                     0 |      12784611 | 2017-02-10 14:45:20.166902+01

 2017-02-10 15:32:45.143944+01 | 1486737165.14394 |                 0 |              10 |                  6881 |                  499 |             949039 |       1338348 |            13315 |        13358881 |                     0 |      12789289 | 2017-02-10 14:45:20.166902+01

 2017-02-10 15:32:46.196315+01 | 1486737166.19632 |                 0 |              10 |                  6881 |                  499 |             949039 |       1338948 |            13321 |        13358881 |                     0 |      12795041 | 2017-02-10 14:45:20.166902+01

 2017-02-10 15:32:47.245739+01 | 1486737167.24574 |                 0 |              10 |                  6881 |                  499 |             949039 |       1339448 |            13326 |        13358881 |                     0 |      12799833 | 2017-02-10 14:45:20.166902+01

 2017-02-10 15:32:48.296841+01 | 1486737168.29684 |                 0 |              10 |                  6881 |                  499 |             949039 |       1339948 |            13331 |        13358881 |                     0 |      12804568 | 2017-02-10 14:45:20.166902+01

 2017-02-10 15:32:49.347468+01 | 1486737169.34747 |                 0 |              10 |                  6881 |                  499 |             949039 |       1340448 |            13336 |        13358881 |                     0 |      12809495 | 2017-02-10 14:45:20.166902+01

 2017-02-10 15:32:50.399655+01 | 1486737170.39966 |                 0 |              10 |                  6881 |                  499 |             949039 |       1340948 |            13341 |        13358881 |                     0 |      12814035 | 2017-02-10 14:45:20.166902+01

 2017-02-10 15:32:51.483194+01 | 1486737171.48319 |                 0 |              10 |                  6881 |                  499 |             949039 |       1341548 |            13347 |        13358881 |                     0 |      12819922 | 2017-02-10 14:45:20.166902+01

 2017-02-10 15:32:52.534391+01 | 1486737172.53439 |                 0 |              10 |                  6881 |                  499 |             949039 |       1342048 |            13352 |        13358881 |                     0 |      12824459 | 2017-02-10 14:45:20.166902+01

 2017-02-10 15:32:53.586898+01 | 1486737173.5869 |                 0 |              10 |                  6881 |                  499 |             949039 |       1342548 |            13357 |        13358881 |                     0 |      12829068 | 2017-02-10 14:45:20.166902+01

 2017-02-10 15:32:54.642137+01 | 1486737174.64214 |                 0 |              10 |                  6881 |                  499 |             949039 |       1343148 |            13363 |        13416901 |                     0 |      12834644 | 2017-02-10 14:45:20.166902+01

 2017-02-10 15:32:55.697452+01 | 1486737175.69745 |                 0 |              10 |                  6881 |                  499 |             949039 |       1343648 |            13368 |        13416901 |                     0 |      12839617 | 2017-02-10 14:45:20.166902+01

 2017-02-10 15:32:56.750547+01 | 1486737176.75055 |                 0 |              10 |                  6881 |                  499 |             949039 |       1344148 |            13373 |        13416901 |                     0 |      12844342 | 2017-02-10 14:45:20.166902+01

 2017-02-10 15:32:57.803336+01 | 1486737177.80334 |                 0 |              10 |                  6881 |                  499 |             949039 |       1344648 |            13378 |        13416901 |                     0 |      12849409 | 2017-02-10 14:45:20.166902+01

 2017-02-10 15:32:58.857981+01 | 1486737178.85798 |                 0 |              10 |                  6881 |                  499 |             949039 |       1345148 |            13383 |        13416901 |                     0 |      12853929 | 2017-02-10 14:45:20.166902+01

 2017-02-10 15:32:59.909478+01 | 1486737179.90948 |                 0 |              10 |                  6881 |                  499 |             949039 |       1345748 |            13389 |        13416901 |                     0 |      12859798 | 2017-02-10 14:45:20.166902+01

 2017-02-10 15:33:00.962586+01 | 1486737180.96259 |                 0 |              10 |                  6881 |                  499 |             949039 |       1346248 |            13394 |        13416901 |                     0 |      12864117 | 2017-02-10 14:45:20.166902+01

 2017-02-10 15:33:02.017316+01 | 1486737182.01732 |                 0 |              10 |                  6881 |                  499 |             949039 |       1346748 |            13399 |        13416901 |                     0 |      12869169 | 2017-02-10 14:45:20.166902+01

 2017-02-10 15:33:03.072682+01 | 1486737183.07268 |                 0 |              10 |                  6881 |                  499 |             949039 |       1347248 |            13404 |        13416901 |                     0 |      12873806 | 2017-02-10 14:45:20.166902+01

 2017-02-10 15:33:04.12577+01 | 1486737184.12577 |                 0 |              10 |                  6881 |                  499 |             949039 |       1347848 |            13410 |        13416901 |                     0 |      12879716 | 2017-02-10 14:45:20.166902+01

 2017-02-10 15:33:05.178599+01 | 1486737185.1786 |                 0 |              10 |                  6881 |                  499 |             949039 |       1348348 |            13415 |        13416901 |                     0 |      12884206 | 2017-02-10 14:45:20.166902+01

 2017-02-10 15:33:06.231177+01 | 1486737186.23118 |                 0 |              10 |                  6881 |                  499 |             949039 |       1348848 |            13420 |        13416901 |                     0 |      12889167 | 2017-02-10 14:45:20.166902+01

 2017-02-10 15:33:07.283541+01 | 1486737187.28354 |                 0 |              10 |                  6881 |                  499 |             949039 |       1349348 |            13425 |        13416901 |                     0 |      12893880 | 2017-02-10 14:45:20.166902+01

 2017-02-10 15:33:08.334517+01 | 1486737188.33452 |                 0 |              10 |                  6881 |                  499 |             949039 |       1349948 |            13431 |        13416901 |                     0 |      12899728 | 2017-02-10 14:45:20.166902+01

 2017-02-10 15:33:09.386651+01 | 1486737189.38665 |                 0 |              10 |                  6881 |                  499 |             949039 |       1350448 |            13436 |        13474861 |                     0 |      12904220 | 2017-02-10 14:45:20.166902+01

 2017-02-10 15:33:10.440203+01 | 1486737190.4402 |                 0 |              10 |                  6881 |                  499 |             949039 |       1350948 |            13441 |        13474861 |                     0 |      12909148 | 2017-02-10 14:45:20.166902+01

 2017-02-10 15:33:11.49181+01 | 1486737191.49181 |                 0 |              10 |                  6881 |                  499 |             949039 |       1351448 |            13446 |        13474861 |                     0 |      12913746 | 2017-02-10 14:45:20.166902+01

 2017-02-10 15:33:12.545694+01 | 1486737192.54569 |                 0 |              10 |                  6881 |                  499 |             949039 |       1351948 |            13451 |        13474861 |                     0 |      12918676 | 2017-02-10 14:45:20.166902+01

 2017-02-10 15:33:13.598056+01 | 1486737193.59806 |                 0 |              10 |                  6881 |                  499 |             949039 |       1352548 |            13457 |        13474861 |                     0 |      12924324 | 2017-02-10 14:45:20.166902+01

 2017-02-10 15:33:14.651156+01 | 1486737194.65116 |                 0 |              10 |                  6881 |                  499 |             949039 |       1353048 |            13462 |        13474861 |                     0 |      12929167 | 2017-02-10 14:45:20.166902+01

 2017-02-10 15:33:15.7061+01 | 1486737195.7061 |                 0 |              10 |                  6881 |                  499 |             949039 |       1353548 |            13467 |        13474861 |                     0 |      12933688 | 2017-02-10 14:45:20.166902+01

 2017-02-10 15:33:16.756658+01 | 1486737196.75666 |                 0 |              10 |                  6881 |                  499 |             949039 |       1354048 |            13472 |        13474861 |                     0 |      12938519 | 2017-02-10 14:45:20.166902+01

 2017-02-10 15:33:17.806535+01 | 1486737197.80654 |                 0 |              10 |                  6881 |                  499 |             949039 |       1354648 |            13478 |        13474861 |                     0 |      12943933 | 2017-02-10 14:45:20.166902+01

 2017-02-10 15:33:18.858368+01 | 1486737198.85837 |                 0 |              10 |                  6881 |                  499 |             949039 |       1355148 |            13483 |        13474861 |                     0 |      12948885 | 2017-02-10 14:45:20.166902+01

 2017-02-10 15:33:19.912039+01 | 1486737199.91204 |                 0 |              10 |                  6881 |                  499 |             949039 |       1355648 |            13488 |        13474861 |                     0 |      12953403 | 2017-02-10 14:45:20.166902+01

 2017-02-10 15:33:20.968201+01 | 1486737200.9682 |                 0 |              10 |                  6881 |                  499 |             949039 |       1356148 |            13493 |        13474861 |                     0 |      12958225 | 2017-02-10 14:45:20.166902+01

 2017-02-10 15:33:22.018891+01 | 1486737202.01889 |                 0 |              10 |                  6881 |                  499 |             949039 |       1356748 |            13499 |        13474861 |                     0 |      12963671 | 2017-02-10 14:45:20.166902+01

 2017-02-10 15:33:23.070335+01 | 1486737203.07033 |                 0 |              10 |                  6881 |                  499 |             949039 |       1357248 |            13504 |        13474861 |                     0 |      12968512 | 2017-02-10 14:45:20.166902+01

 2017-02-10 15:33:24.123786+01 | 1486737204.12379 |                 0 |              10 |                  6881 |                  499 |             949039 |       1357748 |            13509 |        13474861 |                     0 |      12973116 | 2017-02-10 14:45:20.166902+01

 2017-02-10 15:33:25.178545+01 | 1486737205.17854 |                 0 |              10 |                  6881 |                  499 |             949039 |       1358248 |            13514 |        13532797 |                     0 |      12977888 | 2017-02-10 14:45:20.166902+01

 2017-02-10 15:33:26.229014+01 | 1486737206.22901 |                 0 |              10 |                  6881 |                  499 |             949039 |       1358748 |            13519 |        13532797 |                     0 |      12982727 | 2017-02-10 14:45:20.166902+01

 2017-02-10 15:33:27.281855+01 | 1486737207.28186 |                 0 |              10 |                  6881 |                  499 |             949039 |       1359348 |            13525 |        13532797 |                     0 |      12988366 | 2017-02-10 14:45:20.166902+01

 2017-02-10 15:33:28.331912+01 | 1486737208.33191 |                 0 |              10 |                  6881 |                  499 |             949039 |       1359848 |            13530 |        13532797 |                     0 |      12993170 | 2017-02-10 14:45:20.166902+01

 2017-02-10 15:33:29.382597+01 | 1486737209.3826 |                 0 |              10 |                  6881 |                  499 |             949039 |       1360348 |            13535 |        13532797 |                     0 |      12997671 | 2017-02-10 14:45:20.166902+01

 2017-02-10 15:33:30.437377+01 | 1486737210.43738 |                 0 |              10 |                  6881 |                  499 |             949039 |       1360848 |            13540 |        13532797 |                     0 |      13002376 | 2017-02-10 14:45:20.166902+01

 2017-02-10 15:33:31.487243+01 | 1486737211.48724 |                 0 |              10 |                  6881 |                  499 |             949039 |       1361448 |            13546 |        13532797 |                     0 |      13007948 | 2017-02-10 14:45:20.166902+01

 2017-02-10 15:33:32.541412+01 | 1486737212.54141 |                 0 |              10 |                  6881 |                  499 |             949039 |       1361948 |            13551 |        13532797 |                     0 |      13012740 | 2017-02-10 14:45:20.166902+01

 2017-02-10 15:33:33.593137+01 | 1486737213.59314 |                 0 |              10 |                  6881 |                  499 |             949039 |       1362448 |            13556 |        13532797 |                     0 |      13017303 | 2017-02-10 14:45:20.166902+01

 2017-02-10 15:33:34.644517+01 | 1486737214.64452 |                 0 |              10 |                  6881 |                  499 |             949039 |       1362948 |            13561 |        13532797 |                     0 |      13022112 | 2017-02-10 14:45:20.166902+01

 2017-02-10 15:33:35.69718+01 | 1486737215.69718 |                 0 |              10 |                  6881 |                  499 |             949039 |       1363448 |            13566 |        13532797 |                     0 |      13026682 | 2017-02-10 14:45:20.166902+01

 2017-02-10 15:33:36.751828+01 | 1486737216.75183 |                 0 |              10 |                  6881 |                  499 |             949039 |       1364048 |            13572 |        13532797 |                     0 |      13032493 | 2017-02-10 14:45:20.166902+01

 2017-02-10 15:33:37.803065+01 | 1486737217.80307 |                 0 |              10 |                  6881 |                  499 |             949039 |       1364548 |            13577 |        13532797 |                     0 |      13037078 | 2017-02-10 14:45:20.166902+01

 2017-02-10 15:33:38.858017+01 | 1486737218.85802 |                 0 |              10 |                  6881 |                  499 |             949039 |       1365048 |            13582 |        13532797 |                     0 |      13041903 | 2017-02-10 14:45:20.166902+01

 2017-02-10 15:33:39.908876+01 | 1486737219.90888 |                 0 |              10 |                  6881 |                  499 |             949039 |       1365548 |            13587 |        13590645 |                     0 |      13046502 | 2017-02-10 14:45:20.166902+01

 2017-02-10 15:33:40.9596+01 | 1486737220.9596 |                 0 |              10 |                  6881 |                  499 |             949039 |       1366148 |            13593 |        13590645 |                     0 |      13052247 | 2017-02-10 14:45:20.166902+01

 2017-02-10 15:33:42.010311+01 | 1486737222.01031 |                 0 |              10 |                  6881 |                  499 |             949039 |       1366648 |            13598 |        13590645 |                     0 |      13057198 | 2017-02-10 14:45:20.166902+01

 2017-02-10 15:33:43.063147+01 | 1486737223.06315 |                 0 |              10 |                  6881 |                  499 |             949039 |       1367148 |            13603 |        13590645 |                     0 |      13061725 | 2017-02-10 14:45:20.166902+01

 2017-02-10 15:33:44.121987+01 | 1486737224.12199 |                 0 |              10 |                  6881 |                  499 |             949039 |       1367648 |            13608 |        13590645 |                     0 |      13066617 | 2017-02-10 14:45:20.166902+01

 2017-02-10 15:33:45.174158+01 | 1486737225.17416 |                 0 |              10 |                  6881 |                  499 |             949039 |       1368248 |            13614 |        13590645 |                     0 |      13072149 | 2017-02-10 14:45:20.166902+01

 2017-02-10 15:33:46.2278+01 | 1486737226.2278 |                 0 |              10 |                  6881 |                  499 |             949039 |       1368748 |            13619 |        13590645 |                     0 |      13076943 | 2017-02-10 14:45:20.166902+01

 2017-02-10 15:33:47.28332+01 | 1486737227.28332 |                 0 |              10 |                  6881 |                  499 |             949039 |       1369248 |            13624 |        13590645 |                     0 |      13081811 | 2017-02-10 14:45:20.166902+01

 2017-02-10 15:33:48.335378+01 | 1486737228.33538 |                 0 |              10 |                  6881 |                  499 |             949039 |       1369748 |            13629 |        13590645 |                     0 |      13086380 | 2017-02-10 14:45:20.166902+01

 2017-02-10 15:33:49.383897+01 | 1486737229.3839 |                 0 |              10 |                  6881 |                  499 |             949039 |       1370348 |            13635 |        13590645 |                     0 |      13092081 | 2017-02-10 14:45:20.166902+01

 2017-02-10 15:33:50.437435+01 | 1486737230.43743 |                 0 |              10 |                  6881 |                  499 |             949039 |       1370848 |            13640 |        13590645 |                     0 |      13096694 | 2017-02-10 14:45:20.166902+01

 2017-02-10 15:33:51.481035+01 | 1486737231.48103 |                 0 |              10 |                  6881 |                  499 |             949039 |       1371348 |            13645 |        13590645 |                     0 |      13101570 | 2017-02-10 14:45:20.166902+01

 2017-02-10 15:33:52.535273+01 | 1486737232.53527 |                 0 |              10 |                  6881 |                  499 |             949039 |       1371848 |            13650 |        13590645 |                     0 |      13106296 | 2017-02-10 14:45:20.166902+01

 2017-02-10 15:33:53.588676+01 | 1486737233.58868 |                 0 |              10 |                  6881 |                  499 |             949039 |       1372448 |            13656 |        13590645 |                     0 |      13111800 | 2017-02-10 14:45:20.166902+01

 2017-02-10 15:33:54.641036+01 | 1486737234.64104 |                 0 |              10 |                  6881 |                  499 |             949039 |       1372948 |            13661 |        13649085 |                     0 |      13116577 | 2017-02-10 14:45:20.166902+01

 2017-02-10 15:33:55.69388+01 | 1486737235.69388 |                 0 |              10 |                  6881 |                  499 |             949039 |       1373448 |            13666 |        13649085 |                     0 |      13121191 | 2017-02-10 14:45:20.166902+01

 2017-02-10 15:33:56.74491+01 | 1486737236.74491 |                 0 |              10 |                  6881 |                  499 |             949039 |       1373948 |            13671 |        13649085 |                     0 |      13125870 | 2017-02-10 14:45:20.166902+01

 2017-02-10 15:33:57.799643+01 | 1486737237.79964 |                 0 |              10 |                  6881 |                  499 |             949039 |       1374448 |            13676 |        13649085 |                     0 |      13130771 | 2017-02-10 14:45:20.166902+01

 2017-02-10 15:33:58.849589+01 | 1486737238.84959 |                 0 |              10 |                  6881 |                  499 |             949039 |       1375048 |            13682 |        13649085 |                     0 |      13136452 | 2017-02-10 14:45:20.166902+01

 2017-02-10 15:33:59.928501+01 | 1486737239.9285 |                 0 |              10 |                  6881 |                  499 |             949039 |       1375548 |            13687 |        13649085 |                     0 |      13141374 | 2017-02-10 14:45:20.166902+01

 2017-02-10 15:34:00.980054+01 | 1486737240.98005 |                 0 |              10 |                  6881 |                  499 |             949039 |       1376048 |            13692 |        13649085 |                     0 |      13145902 | 2017-02-10 14:45:20.166902+01

 2017-02-10 15:34:02.034786+01 | 1486737242.03479 |                 0 |              10 |                  6881 |                  499 |             949039 |       1376548 |            13697 |        13649085 |                     0 |      13150428 | 2017-02-10 14:45:20.166902+01

 2017-02-10 15:34:03.086864+01 | 1486737243.08686 |                 0 |              10 |                  6881 |                  499 |             949039 |       1377148 |            13703 |        13649085 |                     0 |      13156064 | 2017-02-10 14:45:20.166902+01

 2017-02-10 15:34:04.143006+01 | 1486737244.14301 |                 0 |              10 |                  6881 |                  499 |             949039 |       1377648 |            13708 |        13649085 |                     0 |      13160616 | 2017-02-10 14:45:20.166902+01

 2017-02-10 15:34:05.196575+01 | 1486737245.19657 |                 0 |              10 |                  6881 |                  499 |             949039 |       1378148 |            13713 |        13649085 |                     0 |      13165468 | 2017-02-10 14:45:20.166902+01

 2017-02-10 15:34:06.249121+01 | 1486737246.24912 |                 0 |              10 |                  6881 |                  499 |             949039 |       1378648 |            13718 |        13649085 |                     0 |      13170043 | 2017-02-10 14:45:20.166902+01

 2017-02-10 15:34:07.302803+01 | 1486737247.3028 |                 0 |              10 |                  6881 |                  499 |             949039 |       1379248 |            13724 |        13707921 |                     0 |      13175950 | 2017-02-10 14:45:20.166902+01

 2017-02-10 15:34:08.355858+01 | 1486737248.35586 |                 0 |              10 |                  6881 |                  499 |             949039 |       1379748 |            13729 |        13707921 |                     0 |      13180605 | 2017-02-10 14:45:20.166902+01

 2017-02-10 15:34:09.407325+01 | 1486737249.40733 |                 0 |              10 |                  6881 |                  499 |             949039 |       1380248 |            13734 |        13707921 |                     0 |      13185370 | 2017-02-10 14:45:20.166902+01

 2017-02-10 15:34:10.457923+01 | 1486737250.45792 |                 0 |              10 |                  6881 |                  499 |             949039 |       1380748 |            13739 |        13707921 |                     0 |      13189960 | 2017-02-10 14:45:20.166902+01

 2017-02-10 15:34:11.509286+01 | 1486737251.50929 |                 0 |              10 |                  6881 |                  499 |             949039 |       1381348 |            13745 |        13707921 |                     0 |      13195654 | 2017-02-10 14:45:20.166902+01

 2017-02-10 15:34:12.56422+01 | 1486737252.56422 |                 0 |              10 |                  6881 |                  499 |             949039 |       1381848 |            13750 |        13707921 |                     0 |      13200064 | 2017-02-10 14:45:20.166902+01

 2017-02-10 15:34:13.616989+01 | 1486737253.61699 |                 0 |              10 |                  6881 |                  499 |             949039 |       1382348 |            13755 |        13707921 |                     0 |      13204968 | 2017-02-10 14:45:20.166902+01

 2017-02-10 15:34:14.673083+01 | 1486737254.67308 |                 0 |              10 |                  6881 |                  499 |             949039 |       1382848 |            13760 |        13707921 |                     0 |      13209769 | 2017-02-10 14:45:20.166902+01

 2017-02-10 15:34:15.725348+01 | 1486737255.72535 |                 0 |              10 |                  6881 |                  499 |             949039 |       1383448 |            13766 |        13707921 |                     0 |      13215077 | 2017-02-10 14:45:20.166902+01

 2017-02-10 15:34:16.775858+01 | 1486737256.77586 |                 0 |              10 |                  6881 |                  499 |             949039 |       1383948 |            13771 |        13707921 |                     0 |      13220055 | 2017-02-10 14:45:20.166902+01

 2017-02-10 15:34:17.829007+01 | 1486737257.82901 |                 0 |              10 |                  6881 |                  499 |             949039 |       1384448 |            13776 |        13707921 |                     0 |      13224610 | 2017-02-10 14:45:20.166902+01

 2017-02-10 15:34:18.881928+01 | 1486737258.88193 |                 0 |              10 |                  6881 |                  499 |             949039 |       1384948 |            13781 |        13707921 |                     0 |      13229436 | 2017-02-10 14:45:20.166902+01

 2017-02-10 15:34:19.934385+01 | 1486737259.93439 |                 0 |              10 |                  6881 |                  499 |             949039 |       1385548 |            13787 |        13707921 |                     0 |      13234793 | 2017-02-10 14:45:20.166902+01

 2017-02-10 15:34:20.987045+01 | 1486737260.98705 |                 0 |              10 |                  6881 |                  499 |             949039 |       1386048 |            13792 |        13707921 |                     0 |      13239787 | 2017-02-10 14:45:20.166902+01

 2017-02-10 15:34:22.040594+01 | 1486737262.04059 |                 0 |              10 |                  6881 |                  499 |             949039 |       1386548 |            13797 |        13707921 |                     0 |      13244350 | 2017-02-10 14:45:20.166902+01

 2017-02-10 15:34:23.091511+01 | 1486737263.09151 |                 0 |              10 |                  6881 |                  499 |             949039 |       1387048 |            13802 |        13765835 |                     0 |      13249104 | 2017-02-10 14:45:20.166902+01

 2017-02-10 15:34:24.143727+01 | 1486737264.14373 |                 0 |              10 |                  6881 |                  499 |             949039 |       1387548 |            13807 |        13765835 |                     0 |      13253630 | 2017-02-10 14:45:20.166902+01

 2017-02-10 15:34:25.195612+01 | 1486737265.19561 |                 0 |              10 |                  6881 |                  499 |             949039 |       1388148 |            13813 |        13765835 |                     0 |      13259444 | 2017-02-10 14:45:20.166902+01

 2017-02-10 15:34:26.246978+01 | 1486737266.24698 |                 0 |              10 |                  6881 |                  499 |             949039 |       1388648 |            13818 |        13765835 |                     0 |      13264018 | 2017-02-10 14:45:20.166902+01

 2017-02-10 15:34:27.300276+01 | 1486737267.30028 |                 0 |              10 |                  6881 |                  499 |             949039 |       1389148 |            13823 |        13765835 |                     0 |      13268773 | 2017-02-10 14:45:20.166902+01

 2017-02-10 15:34:28.355325+01 | 1486737268.35532 |                 0 |              10 |                  6881 |                  499 |             949039 |       1389648 |            13828 |        13765835 |                     0 |      13273244 | 2017-02-10 14:45:20.166902+01

 2017-02-10 15:34:29.406951+01 | 1486737269.40695 |                 0 |              10 |                  6881 |                  499 |             949039 |       1390248 |            13834 |        13765835 |                     0 |      13279201 | 2017-02-10 14:45:20.166902+01

 2017-02-10 15:34:30.456369+01 | 1486737270.45637 |                 0 |              10 |                  6881 |                  499 |             949039 |       1390748 |            13839 |        13765835 |                     0 |      13283721 | 2017-02-10 14:45:20.166902+01

 2017-02-10 15:34:31.511935+01 | 1486737271.51193 |                 0 |              10 |                  6881 |                  499 |             949039 |       1391248 |            13844 |        13765835 |                     0 |      13288482 | 2017-02-10 14:45:20.166902+01

 2017-02-10 15:34:32.570122+01 | 1486737272.57012 |                 0 |              10 |                  6881 |                  499 |             949039 |       1391748 |            13849 |        13765835 |                     0 |      13293193 | 2017-02-10 14:45:20.166902+01

 2017-02-10 15:34:33.622361+01 | 1486737273.62236 |                 0 |              10 |                  6881 |                  499 |             949039 |       1392348 |            13855 |        13765835 |                     0 |      13298944 | 2017-02-10 14:45:20.166902+01

 2017-02-10 15:34:34.676076+01 | 1486737274.67608 |                 0 |              10 |                  6881 |                  499 |             949039 |       1392848 |            13860 |        13765835 |                     0 |      13303448 | 2017-02-10 14:45:20.166902+01

 2017-02-10 15:34:35.728405+01 | 1486737275.7284 |                 0 |              10 |                  6881 |                  499 |             949039 |       1393348 |            13865 |        13765835 |                     0 |      13308264 | 2017-02-10 14:45:20.166902+01

 2017-02-10 15:34:36.77966+01 | 1486737276.77966 |                 0 |              10 |                  6881 |                  499 |             949039 |       1393848 |            13870 |        13765835 |                     0 |      13312919 | 2017-02-10 14:45:20.166902+01

 2017-02-10 15:34:37.830707+01 | 1486737277.83071 |                 0 |              10 |                  6881 |                  499 |             949039 |       1394448 |            13876 |        13765835 |                     0 |      13318648 | 2017-02-10 14:45:20.166902+01

 2017-02-10 15:34:38.885484+01 | 1486737278.88548 |                 0 |              10 |                  6881 |                  499 |             949039 |       1394948 |            13881 |        13823698 |                     0 |      13323083 | 2017-02-10 14:45:20.166902+01

 2017-02-10 15:34:39.937965+01 | 1486737279.93796 |                 0 |              10 |                  6881 |                  499 |             949039 |       1395448 |            13886 |        13823698 |                     0 |      13327860 | 2017-02-10 14:45:20.166902+01

 2017-02-10 15:34:40.989991+01 | 1486737280.98999 |                 0 |              10 |                  6881 |                  499 |             949039 |       1395948 |            13891 |        13823698 |                     0 |      13332421 | 2017-02-10 14:45:20.166902+01

 2017-02-10 15:34:42.044817+01 | 1486737282.04482 |                 0 |              10 |                  6881 |                  499 |             949039 |       1396448 |            13896 |        13823698 |                     0 |      13337316 | 2017-02-10 14:45:20.166902+01

 2017-02-10 15:34:43.098107+01 | 1486737283.09811 |                 0 |              10 |                  6881 |                  499 |             949039 |       1397048 |            13902 |        13823698 |                     0 |      13342789 | 2017-02-10 14:45:20.166902+01

 2017-02-10 15:34:44.150979+01 | 1486737284.15098 |                 0 |              10 |                  6881 |                  499 |             949039 |       1397548 |            13907 |        13823698 |                     0 |      13347606 | 2017-02-10 14:45:20.166902+01

 2017-02-10 15:34:45.208756+01 | 1486737285.20876 |                 0 |              10 |                  6881 |                  499 |             949039 |       1398048 |            13912 |        13823698 |                     0 |      13352227 | 2017-02-10 14:45:20.166902+01

 2017-02-10 15:34:46.26535+01 | 1486737286.26535 |                 0 |              10 |                  6881 |                  499 |             949039 |       1398548 |            13917 |        13823698 |                     0 |      13356665 | 2017-02-10 14:45:20.166902+01

 2017-02-10 15:34:47.317381+01 | 1486737287.31738 |                 0 |              10 |                  6881 |                  499 |             949039 |       1399148 |            13923 |        13823698 |                     0 |      13362510 | 2017-02-10 14:45:20.166902+01

 2017-02-10 15:34:48.370119+01 | 1486737288.37012 |                 0 |              10 |                  6881 |                  499 |             949039 |       1399648 |            13928 |        13823698 |                     0 |      13367042 | 2017-02-10 14:45:20.166902+01

 2017-02-10 15:34:49.425091+01 | 1486737289.42509 |                 0 |              10 |                  6881 |                  499 |             949039 |       1400148 |            13933 |        13823698 |                     0 |      13371901 | 2017-02-10 14:45:20.166902+01

 2017-02-10 15:34:50.477206+01 | 1486737290.47721 |                 0 |              10 |                  6881 |                  499 |             949039 |       1400648 |            13938 |        13823698 |                     0 |      13376658 | 2017-02-10 14:45:20.166902+01

 2017-02-10 15:34:51.52514+01 | 1486737291.52514 |                 0 |              10 |                  6881 |                  499 |             949039 |       1401248 |            13944 |        13823698 |                     0 |      13382153 | 2017-02-10 14:45:20.166902+01

 2017-02-10 15:34:52.578106+01 | 1486737292.57811 |                 0 |              10 |                  6881 |                  499 |             949039 |       1401748 |            13949 |        13823698 |                     0 |      13387035 | 2017-02-10 14:45:20.166902+01

 2017-02-10 15:34:53.633932+01 | 1486737293.63393 |                 0 |              10 |                  6881 |                  499 |             949039 |       1402248 |            13954 |        13823698 |                     0 |      13391593 | 2017-02-10 14:45:20.166902+01

 2017-02-10 15:34:54.688669+01 | 1486737294.68867 |                 0 |              10 |                  6881 |                  499 |             949039 |       1402748 |            13959 |        13881534 |                     0 |      13396277 | 2017-02-10 14:45:20.166902+01

 2017-02-10 15:34:55.743524+01 | 1486737295.74352 |                 0 |              10 |                  6881 |                  499 |             949039 |       1403348 |            13965 |        13881534 |                     0 |      13401700 | 2017-02-10 14:45:20.166902+01

 2017-02-10 15:34:56.794718+01 | 1486737296.79472 |                 0 |              10 |                  6881 |                  499 |             949039 |       1403848 |            13970 |        13881534 |                     0 |      13406484 | 2017-02-10 14:45:20.166902+01

 2017-02-10 15:34:57.846709+01 | 1486737297.84671 |                 0 |              10 |                  6881 |                  499 |             949039 |       1404348 |            13975 |        13881534 |                     0 |      13411023 | 2017-02-10 14:45:20.166902+01

 2017-02-10 15:34:58.898971+01 | 1486737298.89897 |                 0 |              10 |                  6881 |                  499 |             949039 |       1404848 |            13980 |        13881534 |                     0 |      13415927 | 2017-02-10 14:45:20.166902+01

 2017-02-10 15:34:59.953492+01 | 1486737299.95349 |                 0 |              10 |                  6881 |                  499 |             949039 |       1405348 |            13985 |        13881534 |                     0 |      13420497 | 2017-02-10 14:45:20.166902+01

 2017-02-10 15:35:01.008881+01 | 1486737301.00888 |                 0 |              10 |                  6881 |                  499 |             949039 |       1405948 |            13991 |        13881534 |                     0 |      13426452 | 2017-02-10 14:45:20.166902+01

 2017-02-10 15:35:02.061215+01 | 1486737302.06121 |                 0 |              10 |                  6881 |                  499 |             949039 |       1406448 |            13996 |        13881534 |                     0 |      13431123 | 2017-02-10 14:45:20.166902+01

 2017-02-10 15:35:03.114911+01 | 1486737303.11491 |                 0 |              10 |                  6881 |                  499 |             949039 |       1406948 |            14001 |        13881534 |                     0 |      13435872 | 2017-02-10 14:45:20.166902+01

 2017-02-10 15:35:04.170227+01 | 1486737304.17023 |                 0 |              10 |                  6881 |                  499 |             949039 |       1407448 |            14006 |        13881534 |                     0 |      13440268 | 2017-02-10 14:45:20.166902+01

 2017-02-10 15:35:05.223395+01 | 1486737305.2234 |                 0 |              10 |                  6881 |                  499 |             949039 |       1408048 |            14012 |        13881534 |                     0 |      13446227 | 2017-02-10 14:45:20.166902+01

 2017-02-10 15:35:06.274001+01 | 1486737306.274 |                 0 |              10 |                  6881 |                  499 |             949039 |       1408548 |            14017 |        13881534 |                     0 |      13450729 | 2017-02-10 14:45:20.166902+01

 2017-02-10 15:35:07.324954+01 | 1486737307.32495 |                 0 |              10 |                  6881 |                  499 |             949039 |       1409048 |            14022 |        13881534 |                     0 |      13455473 | 2017-02-10 14:45:20.166902+01

 2017-02-10 15:35:08.377494+01 | 1486737308.37749 |                 0 |              10 |                  6881 |                  499 |             949039 |       1409548 |            14027 |        13881534 |                     0 |      13459988 | 2017-02-10 14:45:20.166902+01

 2017-02-10 15:35:09.431389+01 | 1486737309.43139 |                 0 |              10 |                  6881 |                  499 |             949039 |       1410148 |            14033 |        13939670 |                     0 |      13465733 | 2017-02-10 14:45:20.166902+01

 2017-02-10 15:35:10.490389+01 | 1486737310.49039 |                 0 |              10 |                  6881 |                  499 |             949039 |       1410648 |            14038 |        13939670 |                     0 |      13470117 | 2017-02-10 14:45:20.166902+01

 2017-02-10 15:35:11.541158+01 | 1486737311.54116 |                 0 |              10 |                  6881 |                  499 |             949039 |       1411148 |            14043 |        13939670 |                     0 |      13474893 | 2017-02-10 14:45:20.166902+01

 2017-02-10 15:35:12.5945+01 | 1486737312.5945 |                 0 |              10 |                  6881 |                  499 |             949039 |       1411648 |            14048 |        13939670 |                     0 |      13479432 | 2017-02-10 14:45:20.166902+01

 2017-02-10 15:35:13.645905+01 | 1486737313.64591 |                 0 |              10 |                  6881 |                  499 |             949039 |       1412248 |            14054 |        13939670 |                     0 |      13485249 | 2017-02-10 14:45:20.166902+01

 2017-02-10 15:35:14.699397+01 | 1486737314.6994 |                 0 |              10 |                  6881 |                  499 |             949039 |       1412748 |            14059 |        13939670 |                     0 |      13489722 | 2017-02-10 14:45:20.166902+01

 2017-02-10 15:35:15.751832+01 | 1486737315.75183 |                 0 |              10 |                  6881 |                  499 |             949039 |       1413248 |            14064 |        13939670 |                     0 |      13494449 | 2017-02-10 14:45:20.166902+01

 2017-02-10 15:35:16.804707+01 | 1486737316.80471 |                 0 |              10 |                  6881 |                  499 |             949039 |       1413748 |            14069 |        13939670 |                     0 |      13499251 | 2017-02-10 14:45:20.166902+01

 2017-02-10 15:35:17.862201+01 | 1486737317.8622 |                 0 |              10 |                  6881 |                  499 |             949039 |       1414348 |            14075 |        13939670 |                     0 |      13504816 | 2017-02-10 14:45:20.166902+01

 2017-02-10 15:35:18.913117+01 | 1486737318.91312 |                 0 |              10 |                  6881 |                  499 |             949039 |       1414848 |            14080 |        13939670 |                     0 |      13509485 | 2017-02-10 14:45:20.166902+01

 2017-02-10 15:35:19.966308+01 | 1486737319.96631 |                 0 |              10 |                  6881 |                  499 |             949039 |       1415348 |            14085 |        13939670 |                     0 |      13514340 | 2017-02-10 14:45:20.166902+01

 2017-02-10 15:35:21.018165+01 | 1486737321.01817 |                 0 |              10 |                  6881 |                  499 |             949039 |       1415848 |            14090 |        13939670 |                     0 |      13519329 | 2017-02-10 14:45:20.166902+01

 2017-02-10 15:35:22.073332+01 | 1486737322.07333 |                 0 |              10 |                  6881 |                  499 |             949039 |       1416348 |            14095 |        13939670 |                     0 |      13523978 | 2017-02-10 14:45:20.166902+01

 2017-02-10 15:35:23.124927+01 | 1486737323.12493 |                 0 |              10 |                  6881 |                  499 |             949039 |       1416948 |            14101 |        13939670 |                     0 |      13529834 | 2017-02-10 14:45:20.166902+01

 2017-02-10 15:35:24.181207+01 | 1486737324.18121 |                 0 |              10 |                  6881 |                  499 |             949039 |       1417448 |            14106 |        13997606 |                     0 |      13534421 | 2017-02-10 14:45:20.166902+01

 2017-02-10 15:35:25.245843+01 | 1486737325.24584 |                 0 |              10 |                  6881 |                  499 |             949039 |       1417948 |            14111 |        13997606 |                     0 |      13539389 | 2017-02-10 14:45:20.166902+01

 2017-02-10 15:35:26.297868+01 | 1486737326.29787 |                 0 |              10 |                  6881 |                  499 |             949039 |       1418448 |            14116 |        13997606 |                     0 |      13544083 | 2017-02-10 14:45:20.166902+01

 2017-02-10 15:35:27.366821+01 | 1486737327.36682 |                 0 |              10 |                  6881 |                  499 |             949039 |       1419048 |            14122 |        13997606 |                     0 |      13550002 | 2017-02-10 14:45:20.166902+01

 2017-02-10 15:35:28.418635+01 | 1486737328.41863 |                 0 |              10 |                  6881 |                  499 |             949039 |       1419548 |            14127 |        13997606 |                     0 |      13554487 | 2017-02-10 14:45:20.166902+01

 2017-02-10 15:35:29.470309+01 | 1486737329.47031 |                 0 |              10 |                  6881 |                  499 |             949039 |       1420048 |            14132 |        13997606 |                     0 |      13559271 | 2017-02-10 14:45:20.166902+01

 2017-02-10 15:35:30.523066+01 | 1486737330.52307 |                 0 |              10 |                  6881 |                  499 |             949039 |       1420548 |            14137 |        13997606 |                     0 |      13563785 | 2017-02-10 14:45:20.166902+01

 2017-02-10 15:35:31.577282+01 | 1486737331.57728 |                 0 |              10 |                  6881 |                  499 |             949039 |       1421148 |            14143 |        13997606 |                     0 |      13569645 | 2017-02-10 14:45:20.166902+01

 2017-02-10 15:35:32.631116+01 | 1486737332.63112 |                 0 |              10 |                  6881 |                  499 |             949039 |       1421648 |            14148 |        13997606 |                     0 |      13574125 | 2017-02-10 14:45:20.166902+01

 2017-02-10 15:35:33.685166+01 | 1486737333.68517 |                 0 |              10 |                  6881 |                  499 |             949039 |       1422148 |            14153 |        13997606 |                     0 |      13579037 | 2017-02-10 14:45:20.166902+01

 2017-02-10 15:35:34.73637+01 | 1486737334.73637 |                 0 |              10 |                  6881 |                  499 |             949039 |       1422648 |            14158 |        13997606 |                     0 |      13583616 | 2017-02-10 14:45:20.166902+01

 2017-02-10 15:35:35.787335+01 | 1486737335.78733 |                 0 |              10 |                  6881 |                  499 |             949039 |       1423248 |            14164 |        13997606 |                     0 |      13589234 | 2017-02-10 14:45:20.166902+01

 2017-02-10 15:35:36.839425+01 | 1486737336.83943 |                 0 |              10 |                  6881 |                  499 |             949039 |       1423748 |            14169 |        13997606 |                     0 |      13593848 | 2017-02-10 14:45:20.166902+01

 2017-02-10 15:35:37.89693+01 | 1486737337.89693 |                 0 |              10 |                  6881 |                  499 |             949039 |       1424248 |            14174 |        13997606 |                     0 |      13598792 | 2017-02-10 14:45:20.166902+01

 2017-02-10 15:35:38.947671+01 | 1486737338.94767 |                 0 |              10 |                  6881 |                  499 |             949039 |       1424748 |            14179 |        13997606 |                     0 |      13603336 | 2017-02-10 14:45:20.166902+01

 2017-02-10 15:35:40.003458+01 | 1486737340.00346 |                 0 |              10 |                  6881 |                  499 |             949039 |       1425348 |            14185 |        14055442 |                     0 |      13609201 | 2017-02-10 14:45:20.166902+01

 2017-02-10 15:35:41.054047+01 | 1486737341.05405 |                 0 |              10 |                  6881 |                  499 |             949039 |       1425848 |            14190 |        14055442 |                     0 |      13613729 | 2017-02-10 14:45:20.166902+01

 2017-02-10 15:35:42.109663+01 | 1486737342.10966 |                 0 |              10 |                  6881 |                  499 |             949039 |       1426348 |            14195 |        14055442 |                     0 |      13618605 | 2017-02-10 14:45:20.166902+01

 2017-02-10 15:35:43.161187+01 | 1486737343.16119 |                 0 |              10 |                  6881 |                  499 |             949039 |       1426848 |            14200 |        14055442 |                     0 |      13623228 | 2017-02-10 14:45:20.166902+01

 2017-02-10 15:35:44.214152+01 | 1486737344.21415 |                 0 |              10 |                  6881 |                  499 |             949039 |       1427448 |            14206 |        14055442 |                     0 |      13629044 | 2017-02-10 14:45:20.166902+01

 2017-02-10 15:35:45.265503+01 | 1486737345.2655 |                 0 |              10 |                  6881 |                  499 |             949039 |       1427948 |            14211 |        14055442 |                     0 |      13633526 | 2017-02-10 14:45:20.166902+01

 2017-02-10 15:35:46.315118+01 | 1486737346.31512 |                 0 |              10 |                  6881 |                  499 |             949039 |       1428448 |            14216 |        14055442 |                     0 |      13638274 | 2017-02-10 14:45:20.166902+01

 2017-02-10 15:35:47.367193+01 | 1486737347.36719 |                 0 |              10 |                  6881 |                  499 |             949039 |       1428948 |            14221 |        14055442 |                     0 |      13642938 | 2017-02-10 14:45:20.166902+01

 2017-02-10 15:35:48.425381+01 | 1486737348.42538 |                 0 |              10 |                  6881 |                  499 |             949039 |       1429448 |            14226 |        14055442 |                     0 |      13647809 | 2017-02-10 14:45:20.166902+01

 2017-02-10 15:35:49.478057+01 | 1486737349.47806 |                 0 |              10 |                  6881 |                  499 |             949039 |       1430048 |            14232 |        14055442 |                     0 |      13653371 | 2017-02-10 14:45:20.166902+01

 2017-02-10 15:35:50.531937+01 | 1486737350.53194 |                 0 |              10 |                  6881 |                  499 |             949039 |       1430548 |            14237 |        14055442 |                     0 |      13658179 | 2017-02-10 14:45:20.166902+01

 2017-02-10 15:35:51.580947+01 | 1486737351.58095 |                 0 |              10 |                  6881 |                  499 |             949039 |       1431048 |            14242 |        14055442 |                     0 |      13662981 | 2017-02-10 14:45:20.166902+01

 2017-02-10 15:35:52.635121+01 | 1486737352.63512 |                 0 |              10 |                  6881 |                  499 |             949039 |       1431548 |            14247 |        14055442 |                     0 |      13667562 | 2017-02-10 14:45:20.166902+01

 2017-02-10 15:35:53.686763+01 | 1486737353.68676 |                 0 |              10 |                  6881 |                  499 |             949039 |       1432148 |            14253 |        14055442 |                     0 |      13673186 | 2017-02-10 14:45:20.166902+01

 2017-02-10 15:35:54.741279+01 | 1486737354.74128 |                 0 |              10 |                  6881 |                  499 |             949039 |       1432648 |            14258 |        14113278 |                     0 |      13677884 | 2017-02-10 14:45:20.166902+01

 2017-02-10 15:35:55.79466+01 | 1486737355.79466 |                 0 |              10 |                  6881 |                  499 |             949039 |       1433148 |            14263 |        14113278 |                     0 |      13682632 | 2017-02-10 14:45:20.166902+01

 2017-02-10 15:35:56.848879+01 | 1486737356.84888 |                 0 |              10 |                  6881 |                  499 |             949039 |       1433648 |            14268 |        14113278 |                     0 |      13686981 | 2017-02-10 14:45:20.166902+01

 2017-02-10 15:35:57.900081+01 | 1486737357.90008 |                 0 |              10 |                  6881 |                  499 |             949039 |       1434248 |            14274 |        14113278 |                     0 |      13692532 | 2017-02-10 14:45:20.166902+01

 2017-02-10 15:35:58.953976+01 | 1486737358.95398 |                 0 |              10 |                  6881 |                  499 |             949039 |       1434748 |            14279 |        14113278 |                     0 |      13697304 | 2017-02-10 14:45:20.166902+01

 2017-02-10 15:36:00.011045+01 | 1486737360.01104 |                 0 |              10 |                  6881 |                  499 |             949039 |       1435248 |            14284 |        14113278 |                     0 |      13701890 | 2017-02-10 14:45:20.166902+01

 2017-02-10 15:36:01.064008+01 | 1486737361.06401 |                 0 |              10 |                  6881 |                  499 |             949039 |       1435748 |            14289 |        14113278 |                     0 |      13706759 | 2017-02-10 14:45:20.166902+01

 2017-02-10 15:36:02.117132+01 | 1486737362.11713 |                 0 |              10 |                  6881 |                  499 |             949039 |       1436348 |            14295 |        14113278 |                     0 |      13712310 | 2017-02-10 14:45:20.166902+01

 2017-02-10 15:36:03.171803+01 | 1486737363.1718 |                 0 |              10 |                  6881 |                  499 |             949039 |       1436848 |            14300 |        14113278 |                     0 |      13717174 | 2017-02-10 14:45:20.166902+01

 2017-02-10 15:36:04.226416+01 | 1486737364.22642 |                 0 |              10 |                  6881 |                  499 |             949039 |       1437348 |            14305 |        14113278 |                     0 |      13721710 | 2017-02-10 14:45:20.166902+01

 2017-02-10 15:36:05.277888+01 | 1486737365.27789 |                 0 |              10 |                  6881 |                  499 |             949039 |       1437848 |            14310 |        14113278 |                     0 |      13726626 | 2017-02-10 14:45:20.166902+01

 2017-02-10 15:36:06.329035+01 | 1486737366.32904 |                 0 |              10 |                  6881 |                  499 |             949039 |       1438448 |            14316 |        14113278 |                     0 |      13732250 | 2017-02-10 14:45:20.166902+01

 2017-02-10 15:36:07.382723+01 | 1486737367.38272 |                 0 |              10 |                  6881 |                  499 |             949039 |       1438948 |            14321 |        14113278 |                     0 |      13736979 | 2017-02-10 14:45:20.166902+01

 2017-02-10 15:36:08.435724+01 | 1486737368.43572 |                 0 |              10 |                  6881 |                  499 |             949039 |       1439448 |            14326 |        14113278 |                     0 |      13741615 | 2017-02-10 14:45:20.166902+01

 2017-02-10 15:36:09.489402+01 | 1486737369.4894 |                 0 |              10 |                  6881 |                  499 |             949039 |       1439948 |            14331 |        14171614 |                     0 |      13746502 | 2017-02-10 14:45:20.166902+01

 2017-02-10 15:36:10.541186+01 | 1486737370.54119 |                 0 |              10 |                  6881 |                  499 |             949039 |       1440448 |            14336 |        14171614 |                     0 |      13751236 | 2017-02-10 14:45:20.166902+01

 2017-02-10 15:36:11.592311+01 | 1486737371.59231 |                 0 |              10 |                  6881 |                  499 |             949039 |       1441048 |            14342 |        14171614 |                     0 |      13757161 | 2017-02-10 14:45:20.166902+01

 2017-02-10 15:36:12.647397+01 | 1486737372.6474 |                 0 |              10 |                  6881 |                  499 |             949039 |       1441548 |            14347 |        14171614 |                     0 |      13761649 | 2017-02-10 14:45:20.166902+01

 2017-02-10 15:36:13.703696+01 | 1486737373.7037 |                 0 |              10 |                  6881 |                  499 |             949039 |       1442048 |            14352 |        14171614 |                     0 |      13766576 | 2017-02-10 14:45:20.166902+01

 2017-02-10 15:36:14.758342+01 | 1486737374.75834 |                 0 |              10 |                  6881 |                  499 |             949039 |       1442548 |            14357 |        14171614 |                     0 |      13770984 | 2017-02-10 14:45:20.166902+01

 2017-02-10 15:36:15.810536+01 | 1486737375.81054 |                 0 |              10 |                  6881 |                  499 |             949039 |       1443148 |            14363 |        14171614 |                     0 |      13776755 | 2017-02-10 14:45:20.166902+01

 2017-02-10 15:36:16.863565+01 | 1486737376.86356 |                 0 |              10 |                  6881 |                  499 |             949039 |       1443648 |            14368 |        14171614 |                     0 |      13781346 | 2017-02-10 14:45:20.166902+01

 2017-02-10 15:36:17.915+01 | 1486737377.915 |                 0 |              10 |                  6881 |                  499 |             949039 |       1444148 |            14373 |        14171614 |                     0 |      13786250 | 2017-02-10 14:45:20.166902+01

 2017-02-10 15:36:18.968633+01 | 1486737378.96863 |                 0 |              10 |                  6881 |                  499 |             949039 |       1444648 |            14378 |        14171614 |                     0 |      13791182 | 2017-02-10 14:45:20.166902+01

 2017-02-10 15:36:20.019834+01 | 1486737380.01983 |                 0 |              10 |                  6881 |                  499 |             949039 |       1445248 |            14384 |        14171614 |                     0 |      13796724 | 2017-02-10 14:45:20.166902+01

 2017-02-10 15:36:21.07139+01 | 1486737381.07139 |                 0 |              10 |                  6881 |                  499 |             949039 |       1445748 |            14389 |        14171614 |                     0 |      13801453 | 2017-02-10 14:45:20.166902+01

 2017-02-10 15:36:22.123627+01 | 1486737382.12363 |                 0 |              10 |                  6881 |                  499 |             949039 |       1446248 |            14394 |        14171614 |                     0 |      13806133 | 2017-02-10 14:45:20.166902+01

