 2017-02-08 17:42:07.680899+01 | 1486572127.6809 |                 0 |              13 |                 10142 |                  650 |            1327223 |       1720890 |            17075 |        13512543 |                     0 |      12430390 | 2017-02-08 16:41:03.707092+01

 2017-02-08 17:42:08.733227+01 | 1486572128.73323 |                 0 |              13 |                 10142 |                  650 |            1327223 |       1720890 |            17075 |        13512543 |                     0 |      12433257 | 2017-02-08 16:41:03.707092+01

 2017-02-08 17:42:09.785662+01 | 1486572129.78566 |                 0 |              13 |                 10142 |                  650 |            1327223 |       1720890 |            17075 |        13512543 |                     0 |      12437037 | 2017-02-08 16:41:03.707092+01

 2017-02-08 17:42:10.839792+01 | 1486572130.83979 |                 0 |              13 |                 10142 |                  650 |            1327223 |       1720890 |            17075 |        13512543 |                     0 |      12440241 | 2017-02-08 16:41:03.707092+01

 2017-02-08 17:42:11.898192+01 | 1486572131.89819 |                 0 |              13 |                 10142 |                  650 |            1327223 |       1720890 |            17075 |        13512543 |                     0 |      12443551 | 2017-02-08 16:41:03.707092+01

 2017-02-08 17:42:12.951285+01 | 1486572132.95128 |                 0 |              13 |                 10142 |                  650 |            1327223 |       1720890 |            17075 |        13512543 |                     0 |      12446798 | 2017-02-08 16:41:03.707092+01

 2017-02-08 17:42:14.003868+01 | 1486572134.00387 |                 0 |              13 |                 10142 |                  650 |            1327223 |       1720893 |            17075 |        13512543 |                     0 |      12450812 | 2017-02-08 16:41:03.707092+01

 2017-02-08 17:42:15.058546+01 | 1486572135.05855 |                 0 |              13 |                 10142 |                  650 |            1327223 |       1720898 |            17075 |        13512543 |                     0 |      12454148 | 2017-02-08 16:41:03.707092+01

 2017-02-08 17:42:16.113873+01 | 1486572136.11387 |                 0 |              13 |                 10142 |                  650 |            1327223 |       1720898 |            17075 |        13512543 |                     0 |      12457516 | 2017-02-08 16:41:03.707092+01

 2017-02-08 17:42:17.166706+01 | 1486572137.16671 |                 0 |              13 |                 10142 |                  650 |            1327223 |       1720904 |            17075 |        13512543 |                     0 |      12461010 | 2017-02-08 16:41:03.707092+01

 2017-02-08 17:42:18.221249+01 | 1486572138.22125 |                 0 |              13 |                 10142 |                  650 |            1327223 |       1720925 |            17075 |        13512543 |                     0 |      12465159 | 2017-02-08 16:41:03.707092+01

 2017-02-08 17:42:19.27717+01 | 1486572139.27717 |                 0 |              13 |                 10142 |                  650 |            1327223 |       1721271 |            17075 |        13512543 |                     0 |      12468632 | 2017-02-08 16:41:03.707092+01

 2017-02-08 17:42:20.339492+01 | 1486572140.33949 |                 0 |              13 |                 10142 |                  650 |            1327223 |       1721682 |            17075 |        13512543 |                     0 |      12472159 | 2017-02-08 16:41:03.707092+01

 2017-02-08 17:42:21.397501+01 | 1486572141.3975 |                 0 |              13 |                 10142 |                  650 |            1327223 |       1722150 |            17078 |        13512543 |                     0 |      12475639 | 2017-02-08 16:41:03.707092+01

 2017-02-08 17:42:22.452635+01 | 1486572142.45264 |                 0 |              13 |                 10142 |                  650 |            1327223 |       1722744 |            17083 |        13512543 |                     0 |      12479698 | 2017-02-08 16:41:03.707092+01

 2017-02-08 17:42:23.51108+01 | 1486572143.51108 |                 0 |              13 |                 10142 |                  650 |            1327223 |       1723244 |            17088 |        13512543 |                     0 |      12483301 | 2017-02-08 16:41:03.707092+01

 2017-02-08 17:42:24.56208+01 | 1486572144.56208 |                 0 |              13 |                 10142 |                  650 |            1327223 |       1723744 |            17093 |        13512543 |                     0 |      12486838 | 2017-02-08 16:41:03.707092+01

 2017-02-08 17:42:25.617642+01 | 1486572145.61764 |                 0 |              13 |                 10142 |                  650 |            1327223 |       1724244 |            17098 |        13512543 |                     0 |      12490341 | 2017-02-08 16:41:03.707092+01

 2017-02-08 17:42:26.672462+01 | 1486572146.67246 |                 0 |              13 |                 10142 |                  650 |            1327223 |       1724844 |            17104 |        13512543 |                     0 |      12494544 | 2017-02-08 16:41:03.707092+01

 2017-02-08 17:42:27.731087+01 | 1486572147.73109 |                 0 |              13 |                 10142 |                  650 |            1327223 |       1725344 |            17109 |        13512543 |                     0 |      12497836 | 2017-02-08 16:41:03.707092+01

 2017-02-08 17:42:28.785082+01 | 1486572148.78508 |                 0 |              13 |                 10142 |                  650 |            1327223 |       1725844 |            17114 |        13512543 |                     0 |      12501388 | 2017-02-08 16:41:03.707092+01

 2017-02-08 17:42:29.843086+01 | 1486572149.84309 |                 0 |              13 |                 10142 |                  650 |            1327223 |       1726344 |            17119 |        13512543 |                     0 |      12504798 | 2017-02-08 16:41:03.707092+01

 2017-02-08 17:42:30.901837+01 | 1486572150.90184 |                 0 |              13 |                 10142 |                  650 |            1327223 |       1726944 |            17125 |        13512543 |                     0 |      12509179 | 2017-02-08 16:41:03.707092+01

 2017-02-08 17:42:31.954449+01 | 1486572151.95445 |                 0 |              13 |                 10142 |                  650 |            1327223 |       1727444 |            17130 |        13512543 |                     0 |      12512674 | 2017-02-08 16:41:03.707092+01

 2017-02-08 17:42:33.010307+01 | 1486572153.01031 |                 0 |              13 |                 10142 |                  650 |            1327223 |       1727944 |            17135 |        13512543 |                     0 |      12516243 | 2017-02-08 16:41:03.707092+01

 2017-02-08 17:42:34.069155+01 | 1486572154.06915 |                 0 |              13 |                 10142 |                  650 |            1327223 |       1728444 |            17140 |        13512543 |                     0 |      12519799 | 2017-02-08 16:41:03.707092+01

 2017-02-08 17:42:35.127789+01 | 1486572155.12779 |                 0 |              13 |                 10142 |                  650 |            1327223 |       1729044 |            17146 |        13512543 |                     0 |      12523850 | 2017-02-08 16:41:03.707092+01

 2017-02-08 17:42:36.171773+01 | 1486572156.17177 |                 0 |              13 |                 10142 |                  650 |            1327223 |       1729344 |            17149 |        13512543 |                     0 |      12526011 | 2017-02-08 16:41:03.707092+01

 2017-02-08 17:42:37.229113+01 | 1486572157.22911 |                 0 |              13 |                 10142 |                  650 |            1327223 |       1730044 |            17156 |        13512543 |                     0 |      12531035 | 2017-02-08 16:41:03.707092+01

 2017-02-08 17:42:38.286292+01 | 1486572158.28629 |                 0 |              13 |                 10142 |                  650 |            1327223 |       1730544 |            17161 |        13512543 |                     0 |      12534503 | 2017-02-08 16:41:03.707092+01

 2017-02-08 17:42:39.345388+01 | 1486572159.34539 |                 0 |              13 |                 10142 |                  650 |            1327223 |       1731144 |            17167 |        13512543 |                     0 |      12538781 | 2017-02-08 16:41:03.707092+01

 2017-02-08 17:42:40.396852+01 | 1486572160.39685 |                 0 |              13 |                 10142 |                  650 |            1327223 |       1731644 |            17172 |        13512543 |                     0 |      12542303 | 2017-02-08 16:41:03.707092+01

 2017-02-08 17:42:41.453786+01 | 1486572161.45379 |                 0 |              13 |                 10142 |                  650 |            1327223 |       1732144 |            17177 |        13512543 |                     0 |      12545805 | 2017-02-08 16:41:03.707092+01

 2017-02-08 17:42:42.507541+01 | 1486572162.50754 |                 0 |              13 |                 10142 |                  650 |            1327223 |       1732644 |            17182 |        13512543 |                     0 |      12549334 | 2017-02-08 16:41:03.707092+01

 2017-02-08 17:42:43.565756+01 | 1486572163.56576 |                 0 |              13 |                 10142 |                  650 |            1327223 |       1733244 |            17188 |        13512543 |                     0 |      12553557 | 2017-02-08 16:41:03.707092+01

 2017-02-08 17:42:44.624067+01 | 1486572164.62407 |                 0 |              13 |                 10142 |                  650 |            1327223 |       1733744 |            17193 |        13512543 |                     0 |      12557104 | 2017-02-08 16:41:03.707092+01

 2017-02-08 17:42:45.680538+01 | 1486572165.68054 |                 0 |              13 |                 10142 |                  650 |            1327223 |       1734244 |            17198 |        13565150 |                     0 |      12560824 | 2017-02-08 16:41:03.707092+01

 2017-02-08 17:42:46.739121+01 | 1486572166.73912 |                 0 |              13 |                 10142 |                  650 |            1327223 |       1734744 |            17203 |        13565150 |                     0 |      12564335 | 2017-02-08 16:41:03.707092+01

 2017-02-08 17:42:47.795554+01 | 1486572167.79555 |                 0 |              13 |                 10142 |                  650 |            1327223 |       1735344 |            17209 |        13565150 |                     0 |      12568710 | 2017-02-08 16:41:03.707092+01

 2017-02-08 17:42:48.855441+01 | 1486572168.85544 |                 0 |              13 |                 10142 |                  650 |            1327223 |       1735844 |            17214 |        13565150 |                     0 |      12572302 | 2017-02-08 16:41:03.707092+01

 2017-02-08 17:42:49.914363+01 | 1486572169.91436 |                 0 |              13 |                 10142 |                  650 |            1327223 |       1736344 |            17219 |        13565150 |                     0 |      12575707 | 2017-02-08 16:41:03.707092+01

 2017-02-08 17:42:50.974155+01 | 1486572170.97415 |                 0 |              13 |                 10142 |                  650 |            1327223 |       1736844 |            17224 |        13565150 |                     0 |      12579409 | 2017-02-08 16:41:03.707092+01

 2017-02-08 17:42:52.032798+01 | 1486572172.0328 |                 0 |              13 |                 10142 |                  650 |            1327223 |       1737444 |            17230 |        13565150 |                     0 |      12583810 | 2017-02-08 16:41:03.707092+01

 2017-02-08 17:42:53.097407+01 | 1486572173.09741 |                 0 |              13 |                 10142 |                  650 |            1327223 |       1737944 |            17235 |        13565150 |                     0 |      12587291 | 2017-02-08 16:41:03.707092+01

 2017-02-08 17:42:54.152963+01 | 1486572174.15296 |                 0 |              13 |                 10142 |                  650 |            1327223 |       1738444 |            17240 |        13565150 |                     0 |      12590868 | 2017-02-08 16:41:03.707092+01

 2017-02-08 17:42:55.206844+01 | 1486572175.20684 |                 0 |              13 |                 10142 |                  650 |            1327223 |       1738944 |            17245 |        13565150 |                     0 |      12594557 | 2017-02-08 16:41:03.707092+01

 2017-02-08 17:42:56.268192+01 | 1486572176.26819 |                 0 |              13 |                 10142 |                  650 |            1327223 |       1739544 |            17251 |        13565150 |                     0 |      12598585 | 2017-02-08 16:41:03.707092+01

 2017-02-08 17:42:57.326369+01 | 1486572177.32637 |                 0 |              13 |                 10142 |                  650 |            1327223 |       1740044 |            17256 |        13565150 |                     0 |      12602333 | 2017-02-08 16:41:03.707092+01

 2017-02-08 17:42:58.384664+01 | 1486572178.38466 |                 0 |              13 |                 10142 |                  650 |            1327223 |       1740544 |            17261 |        13565150 |                     0 |      12605983 | 2017-02-08 16:41:03.707092+01

 2017-02-08 17:42:59.442029+01 | 1486572179.44203 |                 0 |              13 |                 10142 |                  650 |            1327223 |       1741044 |            17266 |        13565150 |                     0 |      12609512 | 2017-02-08 16:41:03.707092+01

 2017-02-08 17:43:00.501239+01 | 1486572180.50124 |                 0 |              13 |                 10142 |                  650 |            1327223 |       1741644 |            17272 |        13565150 |                     0 |      12613925 | 2017-02-08 16:41:03.707092+01

 2017-02-08 17:43:01.557333+01 | 1486572181.55733 |                 0 |              13 |                 10142 |                  650 |            1327223 |       1742144 |            17277 |        13565150 |                     0 |      12617332 | 2017-02-08 16:41:03.707092+01

 2017-02-08 17:43:02.617822+01 | 1486572182.61782 |                 0 |              13 |                 10142 |                  650 |            1327223 |       1742644 |            17282 |        13565150 |                     0 |      12621044 | 2017-02-08 16:41:03.707092+01

 2017-02-08 17:43:03.683074+01 | 1486572183.68307 |                 0 |              13 |                 10142 |                  650 |            1327223 |       1743244 |            17288 |        13565150 |                     0 |      12625463 | 2017-02-08 16:41:03.707092+01

 2017-02-08 17:43:04.740953+01 | 1486572184.74095 |                 0 |              13 |                 10142 |                  650 |            1327223 |       1743744 |            17293 |        13565150 |                     0 |      12628991 | 2017-02-08 16:41:03.707092+01

 2017-02-08 17:43:05.797441+01 | 1486572185.79744 |                 0 |              13 |                 10142 |                  650 |            1327223 |       1744244 |            17298 |        13620787 |                     0 |      12632585 | 2017-02-08 16:41:03.707092+01

 2017-02-08 17:43:06.853296+01 | 1486572186.8533 |                 0 |              13 |                 10142 |                  650 |            1327223 |       1744744 |            17303 |        13620787 |                     0 |      12636298 | 2017-02-08 16:41:03.707092+01

 2017-02-08 17:43:07.910866+01 | 1486572187.91087 |                 0 |              13 |                 10142 |                  650 |            1327223 |       1745344 |            17309 |        13620787 |                     0 |      12640456 | 2017-02-08 16:41:03.707092+01

 2017-02-08 17:43:08.974659+01 | 1486572188.97466 |                 0 |              13 |                 10142 |                  650 |            1327223 |       1745844 |            17314 |        13620787 |                     0 |      12644018 | 2017-02-08 16:41:03.707092+01

 2017-02-08 17:43:10.032413+01 | 1486572190.03241 |                 0 |              13 |                 10142 |                  650 |            1327223 |       1746344 |            17319 |        13620787 |                     0 |      12647768 | 2017-02-08 16:41:03.707092+01

 2017-02-08 17:43:11.084009+01 | 1486572191.08401 |                 0 |              13 |                 10142 |                  650 |            1327223 |       1746844 |            17324 |        13620787 |                     0 |      12651379 | 2017-02-08 16:41:03.707092+01

 2017-02-08 17:43:12.140543+01 | 1486572192.14054 |                 0 |              13 |                 10142 |                  650 |            1327223 |       1747444 |            17330 |        13620787 |                     0 |      12655775 | 2017-02-08 16:41:03.707092+01

 2017-02-08 17:43:13.199035+01 | 1486572193.19903 |                 0 |              13 |                 10142 |                  650 |            1327223 |       1747944 |            17335 |        13620787 |                     0 |      12659343 | 2017-02-08 16:41:03.707092+01

 2017-02-08 17:43:14.251807+01 | 1486572194.25181 |                 0 |              13 |                 10142 |                  650 |            1327223 |       1748444 |            17340 |        13620787 |                     0 |      12663089 | 2017-02-08 16:41:03.707092+01

 2017-02-08 17:43:15.305591+01 | 1486572195.30559 |                 0 |              13 |                 10142 |                  650 |            1327223 |       1748944 |            17345 |        13620787 |                     0 |      12666746 | 2017-02-08 16:41:03.707092+01

 2017-02-08 17:43:16.366979+01 | 1486572196.36698 |                 0 |              13 |                 10142 |                  650 |            1327223 |       1749544 |            17351 |        13620787 |                     0 |      12671064 | 2017-02-08 16:41:03.707092+01

 2017-02-08 17:43:17.42708+01 | 1486572197.42708 |                 0 |              13 |                 10142 |                  650 |            1327223 |       1750044 |            17356 |        13620787 |                     0 |      12674748 | 2017-02-08 16:41:03.707092+01

 2017-02-08 17:43:18.484866+01 | 1486572198.48487 |                 0 |              13 |                 10142 |                  650 |            1327223 |       1750544 |            17361 |        13620787 |                     0 |      12678402 | 2017-02-08 16:41:03.707092+01

 2017-02-08 17:43:19.541001+01 | 1486572199.541 |                 0 |              13 |                 10142 |                  650 |            1327223 |       1751044 |            17366 |        13620787 |                     0 |      12681961 | 2017-02-08 16:41:03.707092+01

 2017-02-08 17:43:20.598267+01 | 1486572200.59827 |                 0 |              13 |                 10142 |                  650 |            1327223 |       1751644 |            17372 |        13620787 |                     0 |      12686353 | 2017-02-08 16:41:03.707092+01

 2017-02-08 17:43:21.664312+01 | 1486572201.66431 |                 0 |              13 |                 10142 |                  650 |            1327223 |       1752144 |            17377 |        13620787 |                     0 |      12690147 | 2017-02-08 16:41:03.707092+01

 2017-02-08 17:43:22.730774+01 | 1486572202.73077 |                 0 |              13 |                 10142 |                  650 |            1327223 |       1752644 |            17382 |        13620787 |                     0 |      12693599 | 2017-02-08 16:41:03.707092+01

 2017-02-08 17:43:23.789653+01 | 1486572203.78965 |                 0 |              13 |                 10142 |                  650 |            1327223 |       1753144 |            17387 |        13620787 |                     0 |      12697393 | 2017-02-08 16:41:03.707092+01

 2017-02-08 17:43:24.845436+01 | 1486572204.84544 |                 0 |              13 |                 10142 |                  650 |            1327223 |       1753744 |            17393 |        13676423 |                     0 |      12701622 | 2017-02-08 16:41:03.707092+01

 2017-02-08 17:43:25.902984+01 | 1486572205.90298 |                 0 |              13 |                 10142 |                  650 |            1327223 |       1754244 |            17398 |        13676423 |                     0 |      12705356 | 2017-02-08 16:41:03.707092+01

 2017-02-08 17:43:26.958974+01 | 1486572206.95897 |                 0 |              13 |                 10142 |                  650 |            1327223 |       1754744 |            17403 |        13676423 |                     0 |      12709137 | 2017-02-08 16:41:03.707092+01

 2017-02-08 17:43:28.018048+01 | 1486572208.01805 |                 0 |              13 |                 10142 |                  650 |            1327223 |       1755344 |            17409 |        13676423 |                     0 |      12713289 | 2017-02-08 16:41:03.707092+01

 2017-02-08 17:43:29.077948+01 | 1486572209.07795 |                 0 |              13 |                 10142 |                  650 |            1327223 |       1755844 |            17414 |        13676423 |                     0 |      12716943 | 2017-02-08 16:41:03.707092+01

 2017-02-08 17:43:30.132554+01 | 1486572210.13255 |                 0 |              13 |                 10142 |                  650 |            1327223 |       1756344 |            17419 |        13676423 |                     0 |      12720630 | 2017-02-08 16:41:03.707092+01

 2017-02-08 17:43:31.196793+01 | 1486572211.19679 |                 0 |              13 |                 10142 |                  650 |            1327223 |       1756844 |            17424 |        13676423 |                     0 |      12724179 | 2017-02-08 16:41:03.707092+01

 2017-02-08 17:43:32.256924+01 | 1486572212.25692 |                 0 |              13 |                 10142 |                  650 |            1327223 |       1757444 |            17430 |        13676423 |                     0 |      12728511 | 2017-02-08 16:41:03.707092+01

 2017-02-08 17:43:33.322508+01 | 1486572213.32251 |                 0 |              13 |                 10142 |                  650 |            1327223 |       1757944 |            17435 |        13676423 |                     0 |      12732215 | 2017-02-08 16:41:03.707092+01

 2017-02-08 17:43:34.378373+01 | 1486572214.37837 |                 0 |              13 |                 10142 |                  650 |            1327223 |       1758444 |            17440 |        13676423 |                     0 |      12735791 | 2017-02-08 16:41:03.707092+01

 2017-02-08 17:43:35.439822+01 | 1486572215.43982 |                 0 |              13 |                 10142 |                  650 |            1327223 |       1758944 |            17445 |        13676423 |                     0 |      12739423 | 2017-02-08 16:41:03.707092+01

 2017-02-08 17:43:36.498685+01 | 1486572216.49868 |                 0 |              13 |                 10142 |                  650 |            1327223 |       1759544 |            17451 |        13676423 |                     0 |      12743778 | 2017-02-08 16:41:03.707092+01

 2017-02-08 17:43:37.561172+01 | 1486572217.56117 |                 0 |              13 |                 10142 |                  650 |            1327223 |       1760044 |            17456 |        13676423 |                     0 |      12747349 | 2017-02-08 16:41:03.707092+01

 2017-02-08 17:43:38.623835+01 | 1486572218.62384 |                 0 |              13 |                 10142 |                  650 |            1327223 |       1760544 |            17461 |        13676423 |                     0 |      12750780 | 2017-02-08 16:41:03.707092+01

 2017-02-08 17:43:39.680306+01 | 1486572219.68031 |                 0 |              13 |                 10142 |                  650 |            1327223 |       1761144 |            17467 |        13676423 |                     0 |      12755042 | 2017-02-08 16:41:03.707092+01

 2017-02-08 17:43:40.74254+01 | 1486572220.74254 |                 0 |              13 |                 10142 |                  650 |            1327223 |       1761644 |            17472 |        13676423 |                     0 |      12758428 | 2017-02-08 16:41:03.707092+01

 2017-02-08 17:43:41.806998+01 | 1486572221.807 |                 0 |              13 |                 10142 |                  650 |            1327223 |       1762144 |            17477 |        13676423 |                     0 |      12761930 | 2017-02-08 16:41:03.707092+01

 2017-02-08 17:43:42.865497+01 | 1486572222.8655 |                 0 |              13 |                 10142 |                  650 |            1327223 |       1762644 |            17482 |        13733159 |                     0 |      12765327 | 2017-02-08 16:41:03.707092+01

 2017-02-08 17:43:43.932687+01 | 1486572223.93269 |                 0 |              13 |                 10142 |                  650 |            1327223 |       1763244 |            17488 |        13733159 |                     0 |      12769476 | 2017-02-08 16:41:03.707092+01

 2017-02-08 17:43:44.989449+01 | 1486572224.98945 |                 0 |              13 |                 10142 |                  650 |            1327223 |       1763744 |            17493 |        13733159 |                     0 |      12773081 | 2017-02-08 16:41:03.707092+01

 2017-02-08 17:43:46.049949+01 | 1486572226.04995 |                 0 |              13 |                 10142 |                  650 |            1327223 |       1764244 |            17498 |        13733159 |                     0 |      12776546 | 2017-02-08 16:41:03.707092+01

 2017-02-08 17:43:47.109474+01 | 1486572227.10947 |                 0 |              13 |                 10142 |                  650 |            1327223 |       1764744 |            17503 |        13733159 |                     0 |      12780184 | 2017-02-08 16:41:03.707092+01

 2017-02-08 17:43:48.167024+01 | 1486572228.16702 |                 0 |              13 |                 10142 |                  650 |            1327223 |       1765344 |            17509 |        13733159 |                     0 |      12784225 | 2017-02-08 16:41:03.707092+01

 2017-02-08 17:43:49.227568+01 | 1486572229.22757 |                 0 |              13 |                 10142 |                  650 |            1327223 |       1765844 |            17514 |        13733159 |                     0 |      12787976 | 2017-02-08 16:41:03.707092+01

 2017-02-08 17:43:50.287096+01 | 1486572230.2871 |                 0 |              13 |                 10142 |                  650 |            1327223 |       1766344 |            17519 |        13733159 |                     0 |      12791611 | 2017-02-08 16:41:03.707092+01

 2017-02-08 17:43:51.350308+01 | 1486572231.35031 |                 0 |              13 |                 10142 |                  650 |            1327223 |       1766944 |            17525 |        13733159 |                     0 |      12795795 | 2017-02-08 16:41:03.707092+01

 2017-02-08 17:43:52.407959+01 | 1486572232.40796 |                 0 |              13 |                 10142 |                  650 |            1327223 |       1767444 |            17530 |        13733159 |                     0 |      12799479 | 2017-02-08 16:41:03.707092+01

 2017-02-08 17:43:53.462877+01 | 1486572233.46288 |                 0 |              13 |                 10142 |                  650 |            1327223 |       1767944 |            17535 |        13733159 |                     0 |      12803208 | 2017-02-08 16:41:03.707092+01

 2017-02-08 17:43:54.522765+01 | 1486572234.52276 |                 0 |              13 |                 10142 |                  650 |            1327223 |       1768444 |            17540 |        13733159 |                     0 |      12806733 | 2017-02-08 16:41:03.707092+01

 2017-02-08 17:43:55.588334+01 | 1486572235.58833 |                 0 |              13 |                 10142 |                  650 |            1327223 |       1769044 |            17546 |        13733159 |                     0 |      12811251 | 2017-02-08 16:41:03.707092+01

 2017-02-08 17:43:56.640928+01 | 1486572236.64093 |                 0 |              13 |                 10142 |                  650 |            1327223 |       1769544 |            17551 |        13733159 |                     0 |      12814926 | 2017-02-08 16:41:03.707092+01

 2017-02-08 17:43:57.695813+01 | 1486572237.69581 |                 0 |              13 |                 10142 |                  650 |            1327223 |       1770044 |            17556 |        13733159 |                     0 |      12818409 | 2017-02-08 16:41:03.707092+01

 2017-02-08 17:43:58.753093+01 | 1486572238.75309 |                 0 |              13 |                 10142 |                  650 |            1327223 |       1770544 |            17561 |        13733159 |                     0 |      12822178 | 2017-02-08 16:41:03.707092+01

 2017-02-08 17:43:59.816552+01 | 1486572239.81655 |                 0 |              13 |                 10142 |                  650 |            1327223 |       1771144 |            17567 |        13733159 |                     0 |      12826378 | 2017-02-08 16:41:03.707092+01

 2017-02-08 17:44:00.884356+01 | 1486572240.88436 |                 0 |              13 |                 10142 |                  650 |            1327223 |       1771644 |            17572 |        13733159 |                     0 |      12830080 | 2017-02-08 16:41:03.707092+01

 2017-02-08 17:44:01.944823+01 | 1486572241.94482 |                 0 |              13 |                 10142 |                  650 |            1327223 |       1772144 |            17577 |        13789095 |                     0 |      12833795 | 2017-02-08 16:41:03.707092+01

 2017-02-08 17:44:03.001711+01 | 1486572243.00171 |                 0 |              13 |                 10142 |                  650 |            1327223 |       1772644 |            17582 |        13789095 |                     0 |      12837302 | 2017-02-08 16:41:03.707092+01

 2017-02-08 17:44:04.058544+01 | 1486572244.05854 |                 0 |              13 |                 10142 |                  650 |            1327223 |       1773244 |            17588 |        13789095 |                     0 |      12841693 | 2017-02-08 16:41:03.707092+01

 2017-02-08 17:44:05.113654+01 | 1486572245.11365 |                 0 |              13 |                 10142 |                  650 |            1327223 |       1773744 |            17593 |        13789095 |                     0 |      12845401 | 2017-02-08 16:41:03.707092+01

 2017-02-08 17:44:06.178541+01 | 1486572246.17854 |                 0 |              13 |                 10142 |                  650 |            1327223 |       1774244 |            17598 |        13789095 |                     0 |      12848852 | 2017-02-08 16:41:03.707092+01

 2017-02-08 17:44:07.232265+01 | 1486572247.23226 |                 0 |              13 |                 10142 |                  650 |            1327223 |       1774744 |            17603 |        13789095 |                     0 |      12852663 | 2017-02-08 16:41:03.707092+01

 2017-02-08 17:44:08.301687+01 | 1486572248.30169 |                 0 |              13 |                 10142 |                  650 |            1327223 |       1775344 |            17609 |        13789095 |                     0 |      12857218 | 2017-02-08 16:41:03.707092+01

 2017-02-08 17:44:09.356931+01 | 1486572249.35693 |                 0 |              13 |                 10142 |                  650 |            1327223 |       1775844 |            17614 |        13789095 |                     0 |      12860655 | 2017-02-08 16:41:03.707092+01

 2017-02-08 17:44:10.412344+01 | 1486572250.41234 |                 0 |              13 |                 10142 |                  650 |            1327223 |       1776344 |            17619 |        13789095 |                     0 |      12864307 | 2017-02-08 16:41:03.707092+01

 2017-02-08 17:44:11.468949+01 | 1486572251.46895 |                 0 |              13 |                 10142 |                  650 |            1327223 |       1776944 |            17625 |        13789095 |                     0 |      12868512 | 2017-02-08 16:41:03.707092+01

 2017-02-08 17:44:12.525164+01 | 1486572252.52516 |                 0 |              13 |                 10142 |                  650 |            1327223 |       1777444 |            17630 |        13789095 |                     0 |      12872189 | 2017-02-08 16:41:03.707092+01

 2017-02-08 17:44:13.579497+01 | 1486572253.5795 |                 0 |              13 |                 10142 |                  650 |            1327223 |       1777944 |            17635 |        13789095 |                     0 |      12875856 | 2017-02-08 16:41:03.707092+01

 2017-02-08 17:44:14.640004+01 | 1486572254.64 |                 0 |              13 |                 10142 |                  650 |            1327223 |       1778444 |            17640 |        13789095 |                     0 |      12879286 | 2017-02-08 16:41:03.707092+01

 2017-02-08 17:44:15.695357+01 | 1486572255.69536 |                 0 |              13 |                 10142 |                  650 |            1327223 |       1779044 |            17646 |        13789095 |                     0 |      12883753 | 2017-02-08 16:41:03.707092+01

 2017-02-08 17:44:16.750451+01 | 1486572256.75045 |                 0 |              13 |                 10142 |                  650 |            1327223 |       1779544 |            17651 |        13789095 |                     0 |      12887431 | 2017-02-08 16:41:03.707092+01

 2017-02-08 17:44:17.8108+01 | 1486572257.8108 |                 0 |              13 |                 10142 |                  650 |            1327223 |       1780044 |            17656 |        13789095 |                     0 |      12890952 | 2017-02-08 16:41:03.707092+01

 2017-02-08 17:44:18.86882+01 | 1486572258.86882 |                 0 |              13 |                 10142 |                  650 |            1327223 |       1780544 |            17661 |        13789095 |                     0 |      12894599 | 2017-02-08 16:41:03.707092+01

 2017-02-08 17:44:19.933446+01 | 1486572259.93345 |                 0 |              13 |                 10142 |                  650 |            1327223 |       1781144 |            17667 |        13789095 |                     0 |      12899133 | 2017-02-08 16:41:03.707092+01

 2017-02-08 17:44:20.993522+01 | 1486572260.99352 |                 0 |              13 |                 10142 |                  650 |            1327223 |       1781644 |            17672 |        13789095 |                     0 |      12902671 | 2017-02-08 16:41:03.707092+01

 2017-02-08 17:44:22.054214+01 | 1486572262.05421 |                 0 |              13 |                 10142 |                  650 |            1327223 |       1782144 |            17677 |        13844731 |                     0 |      12906492 | 2017-02-08 16:41:03.707092+01

 2017-02-08 17:44:23.110159+01 | 1486572263.11016 |                 0 |              13 |                 10142 |                  650 |            1327223 |       1782644 |            17682 |        13844731 |                     0 |      12910216 | 2017-02-08 16:41:03.707092+01

 2017-02-08 17:44:24.17052+01 | 1486572264.17052 |                 0 |              13 |                 10142 |                  650 |            1327223 |       1783244 |            17688 |        13844731 |                     0 |      12914413 | 2017-02-08 16:41:03.707092+01

 2017-02-08 17:44:25.232601+01 | 1486572265.2326 |                 0 |              13 |                 10142 |                  650 |            1327223 |       1783744 |            17693 |        13844731 |                     0 |      12918084 | 2017-02-08 16:41:03.707092+01

 2017-02-08 17:44:26.288718+01 | 1486572266.28872 |                 0 |              13 |                 10142 |                  650 |            1327223 |       1784244 |            17698 |        13844731 |                     0 |      12921565 | 2017-02-08 16:41:03.707092+01

 2017-02-08 17:44:27.346565+01 | 1486572267.34657 |                 0 |              13 |                 10142 |                  650 |            1327223 |       1784744 |            17703 |        13844731 |                     0 |      12925318 | 2017-02-08 16:41:03.707092+01

 2017-02-08 17:44:28.401987+01 | 1486572268.40199 |                 0 |              13 |                 10142 |                  650 |            1327223 |       1785344 |            17709 |        13844731 |                     0 |      12929745 | 2017-02-08 16:41:03.707092+01

 2017-02-08 17:44:29.464123+01 | 1486572269.46412 |                 0 |              13 |                 10142 |                  650 |            1327223 |       1785844 |            17714 |        13844731 |                     0 |      12933313 | 2017-02-08 16:41:03.707092+01

 2017-02-08 17:44:30.523004+01 | 1486572270.523 |                 0 |              13 |                 10142 |                  650 |            1327223 |       1786344 |            17719 |        13844731 |                     0 |      12936931 | 2017-02-08 16:41:03.707092+01

 2017-02-08 17:44:31.57984+01 | 1486572271.57984 |                 0 |              13 |                 10142 |                  650 |            1327223 |       1786944 |            17725 |        13844731 |                     0 |      12941446 | 2017-02-08 16:41:03.707092+01

 2017-02-08 17:44:32.638923+01 | 1486572272.63892 |                 0 |              13 |                 10142 |                  650 |            1327223 |       1787444 |            17730 |        13844731 |                     0 |      12945031 | 2017-02-08 16:41:03.707092+01

 2017-02-08 17:44:33.706855+01 | 1486572273.70686 |                 0 |              13 |                 10142 |                  650 |            1327223 |       1787944 |            17735 |        13844731 |                     0 |      12948729 | 2017-02-08 16:41:03.707092+01

 2017-02-08 17:44:34.762563+01 | 1486572274.76256 |                 0 |              13 |                 10142 |                  650 |            1327223 |       1788444 |            17740 |        13844731 |                     0 |      12952406 | 2017-02-08 16:41:03.707092+01

 2017-02-08 17:44:35.802938+01 | 1486572275.80294 |                 0 |              13 |                 10142 |                  650 |            1327223 |       1788844 |            17744 |        13844731 |                     0 |      12955215 | 2017-02-08 16:41:03.707092+01

 2017-02-08 17:44:36.857892+01 | 1486572276.85789 |                 0 |              13 |                 10142 |                  650 |            1327223 |       1789544 |            17751 |        13844731 |                     0 |      12960404 | 2017-02-08 16:41:03.707092+01

 2017-02-08 17:44:37.91803+01 | 1486572277.91803 |                 0 |              13 |                 10142 |                  650 |            1327223 |       1790044 |            17756 |        13844731 |                     0 |      12963953 | 2017-02-08 16:41:03.707092+01

 2017-02-08 17:44:38.972753+01 | 1486572278.97275 |                 0 |              13 |                 10142 |                  650 |            1327223 |       1790544 |            17761 |        13844731 |                     0 |      12967788 | 2017-02-08 16:41:03.707092+01

 2017-02-08 17:44:40.026145+01 | 1486572280.02614 |                 0 |              13 |                 10142 |                  650 |            1327223 |       1791144 |            17767 |        13844731 |                     0 |      12972386 | 2017-02-08 16:41:03.707092+01

 2017-02-08 17:44:41.084081+01 | 1486572281.08408 |                 0 |              13 |                 10142 |                  650 |            1327223 |       1791644 |            17772 |        13844731 |                     0 |      12975863 | 2017-02-08 16:41:03.707092+01

 2017-02-08 17:44:42.135937+01 | 1486572282.13594 |                 0 |              13 |                 10142 |                  650 |            1327223 |       1792144 |            17777 |        13900568 |                     0 |      12979507 | 2017-02-08 16:41:03.707092+01

 2017-02-08 17:44:43.20148+01 | 1486572283.20148 |                 0 |              13 |                 10142 |                  650 |            1327223 |       1792644 |            17782 |        13900568 |                     0 |      12982829 | 2017-02-08 16:41:03.707092+01

 2017-02-08 17:44:44.257375+01 | 1486572284.25738 |                 0 |              13 |                 10142 |                  650 |            1327223 |       1793244 |            17788 |        13900568 |                     0 |      12987057 | 2017-02-08 16:41:03.707092+01

 2017-02-08 17:44:45.313645+01 | 1486572285.31364 |                 0 |              13 |                 10142 |                  650 |            1327223 |       1793744 |            17793 |        13900568 |                     0 |      12990569 | 2017-02-08 16:41:03.707092+01

 2017-02-08 17:44:46.378027+01 | 1486572286.37803 |                 0 |              13 |                 10142 |                  650 |            1327223 |       1794244 |            17798 |        13900568 |                     0 |      12994155 | 2017-02-08 16:41:03.707092+01

 2017-02-08 17:44:47.434294+01 | 1486572287.43429 |                 0 |              13 |                 10142 |                  650 |            1327223 |       1794744 |            17803 |        13900568 |                     0 |      12997850 | 2017-02-08 16:41:03.707092+01

 2017-02-08 17:44:48.491479+01 | 1486572288.49148 |                 0 |              13 |                 10142 |                  650 |            1327223 |       1795344 |            17809 |        13900568 |                     0 |      13001975 | 2017-02-08 16:41:03.707092+01

 2017-02-08 17:44:49.54318+01 | 1486572289.54318 |                 0 |              13 |                 10142 |                  650 |            1327223 |       1795844 |            17814 |        13900568 |                     0 |      13005331 | 2017-02-08 16:41:03.707092+01

 2017-02-08 17:44:50.598212+01 | 1486572290.59821 |                 0 |              13 |                 10142 |                  650 |            1327223 |       1796344 |            17819 |        13900568 |                     0 |      13008938 | 2017-02-08 16:41:03.707092+01

 2017-02-08 17:44:51.6611+01 | 1486572291.6611 |                 0 |              13 |                 10142 |                  650 |            1327223 |       1796844 |            17824 |        13900568 |                     0 |      13012506 | 2017-02-08 16:41:03.707092+01

 2017-02-08 17:44:52.718426+01 | 1486572292.71843 |                 0 |              13 |                 10142 |                  650 |            1327223 |       1797444 |            17830 |        13900568 |                     0 |      13016649 | 2017-02-08 16:41:03.707092+01

 2017-02-08 17:44:53.775305+01 | 1486572293.77531 |                 0 |              13 |                 10142 |                  650 |            1327223 |       1797944 |            17835 |        13900568 |                     0 |      13020019 | 2017-02-08 16:41:03.707092+01

 2017-02-08 17:44:54.830205+01 | 1486572294.8302 |                 0 |              13 |                 10142 |                  650 |            1327223 |       1798444 |            17840 |        13900568 |                     0 |      13023682 | 2017-02-08 16:41:03.707092+01

 2017-02-08 17:44:55.88922+01 | 1486572295.88922 |                 0 |              13 |                 10142 |                  650 |            1327223 |       1798944 |            17845 |        13900568 |                     0 |      13027268 | 2017-02-08 16:41:03.707092+01

 2017-02-08 17:44:56.952815+01 | 1486572296.95282 |                 0 |              13 |                 10142 |                  650 |            1327223 |       1799544 |            17851 |        13958704 |                     0 |      13031671 | 2017-02-08 16:41:03.707092+01

 2017-02-08 17:44:58.013386+01 | 1486572298.01339 |                 0 |              13 |                 10142 |                  650 |            1327223 |       1800044 |            17856 |        13958704 |                     0 |      13035348 | 2017-02-08 16:41:03.707092+01

 2017-02-08 17:44:59.068239+01 | 1486572299.06824 |                 0 |              13 |                 10142 |                  650 |            1327223 |       1800544 |            17861 |        13958704 |                     0 |      13039262 | 2017-02-08 16:41:03.707092+01

 2017-02-08 17:45:00.133814+01 | 1486572300.13381 |                 0 |              13 |                 10142 |                  650 |            1327223 |       1801144 |            17867 |        13958704 |                     0 |      13043865 | 2017-02-08 16:41:03.707092+01

 2017-02-08 17:45:01.18635+01 | 1486572301.18635 |                 0 |              13 |                 10142 |                  650 |            1327223 |       1801644 |            17872 |        13958704 |                     0 |      13047708 | 2017-02-08 16:41:03.707092+01

 2017-02-08 17:45:02.243473+01 | 1486572302.24347 |                 0 |              13 |                 10142 |                  650 |            1327223 |       1802144 |            17877 |        13958704 |                     0 |      13051488 | 2017-02-08 16:41:03.707092+01

 2017-02-08 17:45:03.312753+01 | 1486572303.31275 |                 0 |              13 |                 10142 |                  650 |            1327223 |       1802644 |            17882 |        13958704 |                     0 |      13055251 | 2017-02-08 16:41:03.707092+01

 2017-02-08 17:45:04.37193+01 | 1486572304.37193 |                 0 |              13 |                 10142 |                  650 |            1327223 |       1803244 |            17888 |        13958704 |                     0 |      13060172 | 2017-02-08 16:41:03.707092+01

 2017-02-08 17:45:05.43252+01 | 1486572305.43252 |                 0 |              13 |                 10142 |                  650 |            1327223 |       1803744 |            17893 |        13958704 |                     0 |      13064003 | 2017-02-08 16:41:03.707092+01

 2017-02-08 17:45:06.491356+01 | 1486572306.49136 |                 0 |              13 |                 10142 |                  650 |            1327223 |       1804244 |            17898 |        13958704 |                     0 |      13068069 | 2017-02-08 16:41:03.707092+01

 2017-02-08 17:45:07.546704+01 | 1486572307.5467 |                 0 |              13 |                 10142 |                  650 |            1327223 |       1804744 |            17903 |        13958704 |                     0 |      13072118 | 2017-02-08 16:41:03.707092+01

 2017-02-08 17:45:08.608785+01 | 1486572308.60878 |                 0 |              13 |                 10142 |                  650 |            1327223 |       1805344 |            17909 |        13958704 |                     0 |      13076785 | 2017-02-08 16:41:03.707092+01

 2017-02-08 17:45:09.665495+01 | 1486572309.66549 |                 0 |              13 |                 10142 |                  650 |            1327223 |       1805844 |            17914 |        14017540 |                     0 |      13080968 | 2017-02-08 16:41:03.707092+01

 2017-02-08 17:45:10.729693+01 | 1486572310.72969 |                 0 |              13 |                 10142 |                  650 |            1327223 |       1806344 |            17919 |        14017540 |                     0 |      13084859 | 2017-02-08 16:41:03.707092+01

 2017-02-08 17:45:11.782708+01 | 1486572311.78271 |                 0 |              13 |                 10142 |                  650 |            1327223 |       1806944 |            17925 |        14017540 |                     0 |      13089696 | 2017-02-08 16:41:03.707092+01

 2017-02-08 17:45:12.839007+01 | 1486572312.83901 |                 0 |              13 |                 10142 |                  650 |            1327223 |       1807444 |            17930 |        14017540 |                     0 |      13093446 | 2017-02-08 16:41:03.707092+01

 2017-02-08 17:45:13.896845+01 | 1486572313.89685 |                 0 |              13 |                 10142 |                  650 |            1327223 |       1807944 |            17935 |        14017540 |                     0 |      13097245 | 2017-02-08 16:41:03.707092+01

 2017-02-08 17:45:14.950354+01 | 1486572314.95035 |                 0 |              13 |                 10142 |                  650 |            1327223 |       1808444 |            17940 |        14017540 |                     0 |      13100940 | 2017-02-08 16:41:03.707092+01

 2017-02-08 17:45:16.004919+01 | 1486572316.00492 |                 0 |              13 |                 10142 |                  650 |            1327223 |       1808944 |            17945 |        14017540 |                     0 |      13104917 | 2017-02-08 16:41:03.707092+01

 2017-02-08 17:45:17.066563+01 | 1486572317.06656 |                 0 |              13 |                 10142 |                  650 |            1327223 |       1809544 |            17951 |        14017540 |                     0 |      13109312 | 2017-02-08 16:41:03.707092+01

 2017-02-08 17:45:18.12436+01 | 1486572318.12436 |                 0 |              13 |                 10142 |                  650 |            1327223 |       1810044 |            17956 |        14017540 |                     0 |      13113055 | 2017-02-08 16:41:03.707092+01

 2017-02-08 17:45:19.18995+01 | 1486572319.18995 |                 0 |              13 |                 10142 |                  650 |            1327223 |       1810544 |            17961 |        14017540 |                     0 |      13117001 | 2017-02-08 16:41:03.707092+01

 2017-02-08 17:45:20.2527+01 | 1486572320.2527 |                 0 |              13 |                 10142 |                  650 |            1327223 |       1811144 |            17967 |        14017540 |                     0 |      13121383 | 2017-02-08 16:41:03.707092+01

 2017-02-08 17:45:21.318129+01 | 1486572321.31813 |                 0 |              13 |                 10142 |                  650 |            1327223 |       1811644 |            17972 |        14017540 |                     0 |      13125367 | 2017-02-08 16:41:03.707092+01

 2017-02-08 17:45:22.377903+01 | 1486572322.3779 |                 0 |              13 |                 10142 |                  650 |            1327223 |       1812144 |            17977 |        14017540 |                     0 |      13129119 | 2017-02-08 16:41:03.707092+01

 2017-02-08 17:45:23.437962+01 | 1486572323.43796 |                 0 |              13 |                 10142 |                  650 |            1327223 |       1812644 |            17982 |        14076476 |                     0 |      13133082 | 2017-02-08 16:41:03.707092+01

 2017-02-08 17:45:24.498806+01 | 1486572324.49881 |                 0 |              13 |                 10142 |                  650 |            1327223 |       1813244 |            17988 |        14076476 |                     0 |      13137687 | 2017-02-08 16:41:03.707092+01

 2017-02-08 17:45:25.558115+01 | 1486572325.55812 |                 0 |              13 |                 10142 |                  650 |            1327223 |       1813744 |            17993 |        14076476 |                     0 |      13141405 | 2017-02-08 16:41:03.707092+01

 2017-02-08 17:45:26.617568+01 | 1486572326.61757 |                 0 |              13 |                 10142 |                  650 |            1327223 |       1814244 |            17998 |        14076476 |                     0 |      13145343 | 2017-02-08 16:41:03.707092+01

 2017-02-08 17:45:27.677955+01 | 1486572327.67795 |                 0 |              13 |                 10142 |                  650 |            1327223 |       1814844 |            18004 |        14076476 |                     0 |      13149825 | 2017-02-08 16:41:03.707092+01

 2017-02-08 17:45:28.735282+01 | 1486572328.73528 |                 0 |              13 |                 10142 |                  650 |            1327223 |       1815344 |            18009 |        14076476 |                     0 |      13153877 | 2017-02-08 16:41:03.707092+01

 2017-02-08 17:45:29.796287+01 | 1486572329.79629 |                 0 |              13 |                 10142 |                  650 |            1327223 |       1815844 |            18014 |        14076476 |                     0 |      13157766 | 2017-02-08 16:41:03.707092+01

 2017-02-08 17:45:30.856745+01 | 1486572330.85675 |                 0 |              13 |                 10142 |                  650 |            1327223 |       1816344 |            18019 |        14076476 |                     0 |      13161628 | 2017-02-08 16:41:03.707092+01

 2017-02-08 17:45:31.916469+01 | 1486572331.91647 |                 0 |              13 |                 10142 |                  650 |            1327223 |       1816944 |            18025 |        14076476 |                     0 |      13166497 | 2017-02-08 16:41:03.707092+01

 2017-02-08 17:45:32.975024+01 | 1486572332.97502 |                 0 |              13 |                 10142 |                  650 |            1327223 |       1817444 |            18030 |        14076476 |                     0 |      13170234 | 2017-02-08 16:41:03.707092+01

 2017-02-08 17:45:34.038879+01 | 1486572334.03888 |                 0 |              13 |                 10142 |                  650 |            1327223 |       1817944 |            18035 |        14076476 |                     0 |      13174311 | 2017-02-08 16:41:03.707092+01

 2017-02-08 17:45:35.101965+01 | 1486572335.10196 |                 0 |              13 |                 10142 |                  650 |            1327223 |       1818444 |            18040 |        14076476 |                     0 |      13178191 | 2017-02-08 16:41:03.707092+01

 2017-02-08 17:45:36.147604+01 | 1486572336.1476 |                 0 |              13 |                 10142 |                  650 |            1327223 |       1818944 |            18045 |        14135612 |                     0 |      13182352 | 2017-02-08 16:41:03.707092+01

 2017-02-08 17:45:37.20558+01 | 1486572337.20558 |                 0 |              13 |                 10142 |                  650 |            1327223 |       1819544 |            18051 |        14135612 |                     0 |      13187131 | 2017-02-08 16:41:03.707092+01

 2017-02-08 17:45:38.265583+01 | 1486572338.26558 |                 0 |              13 |                 10142 |                  650 |            1327223 |       1820044 |            18056 |        14135612 |                     0 |      13191146 | 2017-02-08 16:41:03.707092+01

 2017-02-08 17:45:39.325612+01 | 1486572339.32561 |                 0 |              13 |                 10142 |                  650 |            1327223 |       1820544 |            18061 |        14135612 |                     0 |      13195064 | 2017-02-08 16:41:03.707092+01

 2017-02-08 17:45:40.37878+01 | 1486572340.37878 |                 0 |              13 |                 10142 |                  650 |            1327223 |       1821144 |            18067 |        14135612 |                     0 |      13199760 | 2017-02-08 16:41:03.707092+01

 2017-02-08 17:45:41.427459+01 | 1486572341.42746 |                 0 |              13 |                 10142 |                  650 |            1327223 |       1821544 |            18071 |        14135612 |                     0 |      13203103 | 2017-02-08 16:41:03.707092+01

 2017-02-08 17:45:42.480707+01 | 1486572342.48071 |                 0 |              13 |                 10142 |                  650 |            1327223 |       1822144 |            18077 |        14135612 |                     0 |      13207950 | 2017-02-08 16:41:03.707092+01

 2017-02-08 17:45:43.540603+01 | 1486572343.5406 |                 0 |              13 |                 10142 |                  650 |            1327223 |       1822644 |            18082 |        14135612 |                     0 |      13212634 | 2017-02-08 16:41:03.707092+01

 2017-02-08 17:45:44.599465+01 | 1486572344.59946 |                 0 |              13 |                 10142 |                  650 |            1327223 |       1823244 |            18088 |        14135612 |                     0 |      13218870 | 2017-02-08 16:41:03.707092+01

 2017-02-08 17:45:45.661258+01 | 1486572345.66126 |                 0 |              13 |                 10142 |                  650 |            1327223 |       1823744 |            18093 |        14135612 |                     0 |      13224529 | 2017-02-08 16:41:03.707092+01

 2017-02-08 17:45:46.719161+01 | 1486572346.71916 |                 0 |              13 |                 10142 |                  650 |            1327223 |       1824244 |            18098 |        14135612 |                     0 |      13230896 | 2017-02-08 16:41:03.707092+01

 2017-02-08 17:45:47.775026+01 | 1486572347.77503 |                 0 |              13 |                 10142 |                  650 |            1327223 |       1824744 |            18103 |        14135612 |                     0 |      13237206 | 2017-02-08 16:41:03.707092+01

 2017-02-08 17:45:48.841739+01 | 1486572348.84174 |                 0 |              13 |                 10142 |                  650 |            1327223 |       1825344 |            18109 |        14195048 |                     0 |      13245036 | 2017-02-08 16:41:03.707092+01

 2017-02-08 17:45:49.902+01 | 1486572349.902 |                 0 |              13 |                 10142 |                  650 |            1327223 |       1825844 |            18114 |        14195048 |                     0 |      13251781 | 2017-02-08 16:41:03.707092+01

 2017-02-08 17:45:50.971036+01 | 1486572350.97104 |                 0 |              13 |                 10142 |                  650 |            1327223 |       1826344 |            18119 |        14195048 |                     0 |      13258663 | 2017-02-08 16:41:03.707092+01

 2017-02-08 17:45:52.037187+01 | 1486572352.03719 |                 0 |              13 |                 10142 |                  650 |            1327223 |       1826944 |            18125 |        14195048 |                     0 |      13267014 | 2017-02-08 16:41:03.707092+01

 2017-02-08 17:45:53.094736+01 | 1486572353.09474 |                 0 |              13 |                 10142 |                  650 |            1327223 |       1827444 |            18130 |        14195048 |                     0 |      13273432 | 2017-02-08 16:41:03.707092+01

 2017-02-08 17:45:54.155935+01 | 1486572354.15594 |                 0 |              13 |                 10142 |                  650 |            1327223 |       1827944 |            18135 |        14195048 |                     0 |      13278780 | 2017-02-08 16:41:03.707092+01

 2017-02-08 17:45:55.214164+01 | 1486572355.21416 |                 0 |              13 |                 10142 |                  650 |            1327223 |       1828444 |            18140 |        14195048 |                     0 |      13283759 | 2017-02-08 16:41:03.707092+01

 2017-02-08 17:45:56.276803+01 | 1486572356.2768 |                 0 |              13 |                 10142 |                  650 |            1327223 |       1829044 |            18146 |        14195048 |                     0 |      13289855 | 2017-02-08 16:41:03.707092+01

 2017-02-08 17:45:57.329332+01 | 1486572357.32933 |                 0 |              13 |                 10142 |                  650 |            1327223 |       1829544 |            18151 |        14195048 |                     0 |      13294808 | 2017-02-08 16:41:03.707092+01

 2017-02-08 17:45:58.385337+01 | 1486572358.38534 |                 0 |              13 |                 10142 |                  650 |            1327223 |       1830044 |            18156 |        14255713 |                     0 |      13299946 | 2017-02-08 16:41:03.707092+01

 2017-02-08 17:45:59.444593+01 | 1486572359.44459 |                 0 |              13 |                 10142 |                  650 |            1327223 |       1830644 |            18162 |        14255713 |                     0 |      13306095 | 2017-02-08 16:41:03.707092+01

 2017-02-08 17:46:00.501067+01 | 1486572360.50107 |                 0 |              13 |                 10142 |                  650 |            1327223 |       1831144 |            18167 |        14255713 |                     0 |      13310986 | 2017-02-08 16:41:03.707092+01

 2017-02-08 17:46:01.556787+01 | 1486572361.55679 |                 0 |              13 |                 10142 |                  650 |            1327223 |       1831644 |            18172 |        14255713 |                     0 |      13316057 | 2017-02-08 16:41:03.707092+01

 2017-02-08 17:46:02.614326+01 | 1486572362.61433 |                 0 |              13 |                 10142 |                  650 |            1327223 |       1832144 |            18177 |        14255713 |                     0 |      13320953 | 2017-02-08 16:41:03.707092+01

 2017-02-08 17:46:03.676176+01 | 1486572363.67618 |                 0 |              13 |                 10142 |                  650 |            1327223 |       1832744 |            18183 |        14255713 |                     0 |      13326919 | 2017-02-08 16:41:03.707092+01

 2017-02-08 17:46:04.734465+01 | 1486572364.73446 |                 0 |              13 |                 10142 |                  650 |            1327223 |       1833244 |            18188 |        14255713 |                     0 |      13331590 | 2017-02-08 16:41:03.707092+01

 2017-02-08 17:46:05.791299+01 | 1486572365.7913 |                 0 |              13 |                 10142 |                  650 |            1327223 |       1833744 |            18193 |        14255713 |                     0 |      13336606 | 2017-02-08 16:41:03.707092+01

 2017-02-08 17:46:06.84557+01 | 1486572366.84557 |                 0 |              13 |                 10142 |                  650 |            1327223 |       1834244 |            18198 |        14255713 |                     0 |      13341122 | 2017-02-08 16:41:03.707092+01

 2017-02-08 17:46:07.904653+01 | 1486572367.90465 |                 0 |              13 |                 10142 |                  650 |            1327223 |       1834844 |            18204 |        14255713 |                     0 |      13346583 | 2017-02-08 16:41:03.707092+01

 2017-02-08 17:46:08.961946+01 | 1486572368.96195 |                 0 |              13 |                 10142 |                  650 |            1327223 |       1835344 |            18209 |        14315849 |                     0 |      13351352 | 2017-02-08 16:41:03.707092+01

 2017-02-08 17:46:10.022062+01 | 1486572370.02206 |                 0 |              13 |                 10142 |                  650 |            1327223 |       1835844 |            18214 |        14315849 |                     0 |      13355858 | 2017-02-08 16:41:03.707092+01

 2017-02-08 17:46:11.08005+01 | 1486572371.08005 |                 0 |              13 |                 10142 |                  650 |            1327223 |       1836344 |            18219 |        14315849 |                     0 |      13360370 | 2017-02-08 16:41:03.707092+01

 2017-02-08 17:46:12.139546+01 | 1486572372.13955 |                 0 |              13 |                 10142 |                  650 |            1327223 |       1836944 |            18225 |        14315849 |                     0 |      13366047 | 2017-02-08 16:41:03.707092+01

 2017-02-08 17:46:13.206479+01 | 1486572373.20648 |                 0 |              13 |                 10142 |                  650 |            1327223 |       1837444 |            18230 |        14315849 |                     0 |      13370407 | 2017-02-08 16:41:03.707092+01

 2017-02-08 17:46:14.264718+01 | 1486572374.26472 |                 0 |              13 |                 10142 |                  650 |            1327223 |       1837944 |            18235 |        14315849 |                     0 |      13374814 | 2017-02-08 16:41:03.707092+01

 2017-02-08 17:46:15.317753+01 | 1486572375.31775 |                 0 |              13 |                 10142 |                  650 |            1327223 |       1838444 |            18240 |        14315849 |                     0 |      13379246 | 2017-02-08 16:41:03.707092+01

 2017-02-08 17:46:16.372552+01 | 1486572376.37255 |                 0 |              13 |                 10142 |                  650 |            1327223 |       1839044 |            18246 |        14315849 |                     0 |      13384363 | 2017-02-08 16:41:03.707092+01

 2017-02-08 17:46:17.426264+01 | 1486572377.42626 |                 0 |              13 |                 10142 |                  650 |            1327223 |       1839544 |            18251 |        14315849 |                     0 |      13388800 | 2017-02-08 16:41:03.707092+01

 2017-02-08 17:46:18.481569+01 | 1486572378.48157 |                 0 |              13 |                 10142 |                  650 |            1327223 |       1840044 |            18256 |        14315849 |                     0 |      13393418 | 2017-02-08 16:41:03.707092+01

 2017-02-08 17:46:19.552745+01 | 1486572379.55275 |                 0 |              13 |                 10142 |                  650 |            1327223 |       1840544 |            18261 |        14315849 |                     0 |      13397670 | 2017-02-08 16:41:03.707092+01

 2017-02-08 17:46:20.609826+01 | 1486572380.60983 |                 0 |              13 |                 10142 |                  650 |            1327223 |       1841144 |            18267 |        14375585 |                     0 |      13402926 | 2017-02-08 16:41:03.707092+01

 2017-02-08 17:46:21.668871+01 | 1486572381.66887 |                 0 |              13 |                 10142 |                  650 |            1327223 |       1841644 |            18272 |        14375585 |                     0 |      13407316 | 2017-02-08 16:41:03.707092+01

 2017-02-08 17:46:22.727998+01 | 1486572382.728 |                 0 |              13 |                 10142 |                  650 |            1327223 |       1842144 |            18277 |        14375585 |                     0 |      13411574 | 2017-02-08 16:41:03.707092+01

 2017-02-08 17:46:23.785103+01 | 1486572383.7851 |                 0 |              13 |                 10142 |                  650 |            1327223 |       1842744 |            18283 |        14375585 |                     0 |      13417129 | 2017-02-08 16:41:03.707092+01

 2017-02-08 17:46:24.846102+01 | 1486572384.8461 |                 0 |              13 |                 10142 |                  650 |            1327223 |       1843244 |            18288 |        14375585 |                     0 |      13421412 | 2017-02-08 16:41:03.707092+01

 2017-02-08 17:46:25.907505+01 | 1486572385.90751 |                 0 |              13 |                 10142 |                  650 |            1327223 |       1843744 |            18293 |        14375585 |                     0 |      13425520 | 2017-02-08 16:41:03.707092+01

 2017-02-08 17:46:26.968762+01 | 1486572386.96876 |                 0 |              13 |                 10142 |                  650 |            1327223 |       1844244 |            18298 |        14375585 |                     0 |      13430123 | 2017-02-08 16:41:03.707092+01

 2017-02-08 17:46:28.023502+01 | 1486572388.0235 |                 0 |              13 |                 10142 |                  650 |            1327223 |       1844844 |            18304 |        14375585 |                     0 |      13435253 | 2017-02-08 16:41:03.707092+01

 2017-02-08 17:46:29.079386+01 | 1486572389.07939 |                 0 |              13 |                 10142 |                  650 |            1327223 |       1845344 |            18309 |        14375585 |                     0 |      13439453 | 2017-02-08 16:41:03.707092+01

 2017-02-08 17:46:30.135797+01 | 1486572390.1358 |                 0 |              13 |                 10142 |                  650 |            1327223 |       1845844 |            18314 |        14375585 |                     0 |      13443824 | 2017-02-08 16:41:03.707092+01

 2017-02-08 17:46:31.197441+01 | 1486572391.19744 |                 0 |              13 |                 10142 |                  650 |            1327223 |       1846344 |            18319 |        14375585 |                     0 |      13448052 | 2017-02-08 16:41:03.707092+01

 2017-02-08 17:46:32.255975+01 | 1486572392.25598 |                 0 |              13 |                 10142 |                  650 |            1327223 |       1846944 |            18325 |        14375585 |                     0 |      13453420 | 2017-02-08 16:41:03.707092+01

 2017-02-08 17:46:33.31284+01 | 1486572393.31284 |                 0 |              13 |                 10142 |                  650 |            1327223 |       1847444 |            18330 |        14434921 |                     0 |      13457626 | 2017-02-08 16:41:03.707092+01

 2017-02-08 17:46:34.376272+01 | 1486572394.37627 |                 0 |              13 |                 10142 |                  650 |            1327223 |       1847944 |            18335 |        14434921 |                     0 |      13461906 | 2017-02-08 16:41:03.707092+01

 2017-02-08 17:46:35.456159+01 | 1486572395.45616 |                 0 |              13 |                 10142 |                  650 |            1327223 |       1848544 |            18341 |        14434921 |                     0 |      13466938 | 2017-02-08 16:41:03.707092+01

 2017-02-08 17:46:36.510042+01 | 1486572396.51004 |                 0 |              13 |                 10142 |                  650 |            1327223 |       1849044 |            18346 |        14434921 |                     0 |      13471058 | 2017-02-08 16:41:03.707092+01

 2017-02-08 17:46:37.565924+01 | 1486572397.56592 |                 0 |              13 |                 10142 |                  650 |            1327223 |       1849544 |            18351 |        14434921 |                     0 |      13475505 | 2017-02-08 16:41:03.707092+01

 2017-02-08 17:46:38.625598+01 | 1486572398.6256 |                 0 |              13 |                 10142 |                  650 |            1327223 |       1850044 |            18356 |        14434921 |                     0 |      13479719 | 2017-02-08 16:41:03.707092+01

 2017-02-08 17:46:39.682341+01 | 1486572399.68234 |                 0 |              13 |                 10142 |                  650 |            1327223 |       1850644 |            18362 |        14434921 |                     0 |      13485059 | 2017-02-08 16:41:03.707092+01

 2017-02-08 17:46:40.739938+01 | 1486572400.73994 |                 0 |              13 |                 10142 |                  650 |            1327223 |       1851144 |            18367 |        14434921 |                     0 |      13489283 | 2017-02-08 16:41:03.707092+01

 2017-02-08 17:46:41.795142+01 | 1486572401.79514 |                 0 |              13 |                 10142 |                  650 |            1327223 |       1851644 |            18372 |        14434921 |                     0 |      13493808 | 2017-02-08 16:41:03.707092+01

 2017-02-08 17:46:42.850858+01 | 1486572402.85086 |                 0 |              13 |                 10142 |                  650 |            1327223 |       1852144 |            18377 |        14434921 |                     0 |      13498109 | 2017-02-08 16:41:03.707092+01

 2017-02-08 17:46:43.909369+01 | 1486572403.90937 |                 0 |              13 |                 10142 |                  650 |            1327223 |       1852744 |            18383 |        14434921 |                     0 |      13503340 | 2017-02-08 16:41:03.707092+01

 2017-02-08 17:46:44.966784+01 | 1486572404.96678 |                 0 |              13 |                 10142 |                  650 |            1327223 |       1853244 |            18388 |        14434921 |                     0 |      13508268 | 2017-02-08 16:41:03.707092+01

 2017-02-08 17:46:46.032927+01 | 1486572406.03293 |                 0 |              13 |                 10142 |                  650 |            1327223 |       1853744 |            18393 |        14434921 |                     0 |      13513216 | 2017-02-08 16:41:03.707092+01

 2017-02-08 17:46:47.094024+01 | 1486572407.09402 |                 0 |              13 |                 10142 |                  650 |            1327223 |       1854344 |            18399 |        14493857 |                     0 |      13519963 | 2017-02-08 16:41:03.707092+01

 2017-02-08 17:46:48.152055+01 | 1486572408.15206 |                 0 |              13 |                 10142 |                  650 |            1327223 |       1854844 |            18404 |        14493857 |                     0 |      13525548 | 2017-02-08 16:41:03.707092+01

 2017-02-08 17:46:49.21816+01 | 1486572409.21816 |                 0 |              13 |                 10142 |                  650 |            1327223 |       1855344 |            18409 |        14493857 |                     0 |      13531265 | 2017-02-08 16:41:03.707092+01

 2017-02-08 17:46:50.286092+01 | 1486572410.28609 |                 0 |              13 |                 10142 |                  650 |            1327223 |       1855844 |            18414 |        14493857 |                     0 |      13537260 | 2017-02-08 16:41:03.707092+01

 2017-02-08 17:46:51.34824+01 | 1486572411.34824 |                 0 |              13 |                 10142 |                  650 |            1327223 |       1856444 |            18420 |        14493857 |                     0 |      13544885 | 2017-02-08 16:41:03.707092+01

 2017-02-08 17:46:52.426964+01 | 1486572412.42696 |                 0 |              13 |                 10142 |                  650 |            1327223 |       1856944 |            18425 |        14493857 |                     0 |      13551643 | 2017-02-08 16:41:03.707092+01

 2017-02-08 17:46:53.488349+01 | 1486572413.48835 |                 0 |              13 |                 10142 |                  650 |            1327223 |       1857444 |            18430 |        14493857 |                     0 |      13556881 | 2017-02-08 16:41:03.707092+01

 2017-02-08 17:46:54.550094+01 | 1486572414.55009 |                 0 |              13 |                 10142 |                  650 |            1327223 |       1858044 |            18436 |        14493857 |                     0 |      13563010 | 2017-02-08 16:41:03.707092+01

 2017-02-08 17:46:55.606675+01 | 1486572415.60667 |                 0 |              13 |                 10142 |                  650 |            1327223 |       1858544 |            18441 |        14493857 |                     0 |      13568248 | 2017-02-08 16:41:03.707092+01

 2017-02-08 17:46:56.665962+01 | 1486572416.66596 |                 0 |              13 |                 10142 |                  650 |            1327223 |       1859044 |            18446 |        14493857 |                     0 |      13573202 | 2017-02-08 16:41:03.707092+01

 2017-02-08 17:46:57.727444+01 | 1486572417.72744 |                 0 |              13 |                 10142 |                  650 |            1327223 |       1859544 |            18451 |        14554071 |                     0 |      13578069 | 2017-02-08 16:41:03.707092+01

 2017-02-08 17:46:58.788371+01 | 1486572418.78837 |                 0 |              13 |                 10142 |                  650 |            1327223 |       1860144 |            18457 |        14554071 |                     0 |      13584360 | 2017-02-08 16:41:03.707092+01

 2017-02-08 17:46:59.847201+01 | 1486572419.8472 |                 0 |              13 |                 10142 |                  650 |            1327223 |       1860644 |            18462 |        14554071 |                     0 |      13589191 | 2017-02-08 16:41:03.707092+01

 2017-02-08 17:47:00.899441+01 | 1486572420.89944 |                 0 |              13 |                 10142 |                  650 |            1327223 |       1861144 |            18467 |        14554071 |                     0 |      13594304 | 2017-02-08 16:41:03.707092+01

 2017-02-08 17:47:01.956574+01 | 1486572421.95657 |                 0 |              13 |                 10142 |                  650 |            1327223 |       1861644 |            18472 |        14554071 |                     0 |      13599320 | 2017-02-08 16:41:03.707092+01

 2017-02-08 17:47:03.015363+01 | 1486572423.01536 |                 0 |              13 |                 10142 |                  650 |            1327223 |       1862244 |            18478 |        14554071 |                     0 |      13605120 | 2017-02-08 16:41:03.707092+01

 2017-02-08 17:47:04.071335+01 | 1486572424.07134 |                 0 |              13 |                 10142 |                  650 |            1327223 |       1862744 |            18483 |        14554071 |                     0 |      13610222 | 2017-02-08 16:41:03.707092+01

 2017-02-08 17:47:05.127385+01 | 1486572425.12738 |                 0 |              13 |                 10142 |                  650 |            1327223 |       1863244 |            18488 |        14554071 |                     0 |      13614683 | 2017-02-08 16:41:03.707092+01

 2017-02-08 17:47:06.19218+01 | 1486572426.19218 |                 0 |              13 |                 10142 |                  650 |            1327223 |       1863844 |            18494 |        14554071 |                     0 |      13620203 | 2017-02-08 16:41:03.707092+01

 2017-02-08 17:47:07.256286+01 | 1486572427.25629 |                 0 |              13 |                 10142 |                  650 |            1327223 |       1864344 |            18499 |        14554071 |                     0 |      13624919 | 2017-02-08 16:41:03.707092+01

