 2017-02-08 21:15:04.196367+01 | 1486584904.19637 | pgbench_accounts |        693870592
 2017-02-08 21:15:04.196367+01 | 1486584904.19637 | pgbench_tellers  |            24576
 2017-02-08 21:15:04.196367+01 | 1486584904.19637 | pgbench_history  |                0
 2017-02-08 21:15:04.196367+01 | 1486584904.19637 | pgbench_branches |             8192

 2017-02-08 21:15:05.265886+01 | 1486584905.26589 | pgbench_accounts |        693870592
 2017-02-08 21:15:05.265886+01 | 1486584905.26589 | pgbench_tellers  |            24576
 2017-02-08 21:15:05.265886+01 | 1486584905.26589 | pgbench_history  |                0
 2017-02-08 21:15:05.265886+01 | 1486584905.26589 | pgbench_branches |             8192

 2017-02-08 21:15:06.324902+01 | 1486584906.3249 | pgbench_accounts |        693870592
 2017-02-08 21:15:06.324902+01 | 1486584906.3249 | pgbench_tellers  |            24576
 2017-02-08 21:15:06.324902+01 | 1486584906.3249 | pgbench_history  |                0
 2017-02-08 21:15:06.324902+01 | 1486584906.3249 | pgbench_branches |             8192

 2017-02-08 21:15:07.381815+01 | 1486584907.38181 | pgbench_accounts |        693870592
 2017-02-08 21:15:07.381815+01 | 1486584907.38181 | pgbench_tellers  |            24576
 2017-02-08 21:15:07.381815+01 | 1486584907.38181 | pgbench_history  |                0
 2017-02-08 21:15:07.381815+01 | 1486584907.38181 | pgbench_branches |             8192

 2017-02-08 21:15:08.437735+01 | 1486584908.43774 | pgbench_accounts |        693870592
 2017-02-08 21:15:08.437735+01 | 1486584908.43774 | pgbench_tellers  |            24576
 2017-02-08 21:15:08.437735+01 | 1486584908.43774 | pgbench_history  |                0
 2017-02-08 21:15:08.437735+01 | 1486584908.43774 | pgbench_branches |             8192

 2017-02-08 21:15:09.513466+01 | 1486584909.51347 | pgbench_accounts |        693870592
 2017-02-08 21:15:09.513466+01 | 1486584909.51347 | pgbench_tellers  |            24576
 2017-02-08 21:15:09.513466+01 | 1486584909.51347 | pgbench_history  |                0
 2017-02-08 21:15:09.513466+01 | 1486584909.51347 | pgbench_branches |             8192

 2017-02-08 21:15:10.576419+01 | 1486584910.57642 | pgbench_accounts |        693870592
 2017-02-08 21:15:10.576419+01 | 1486584910.57642 | pgbench_tellers  |            24576
 2017-02-08 21:15:10.576419+01 | 1486584910.57642 | pgbench_history  |                0
 2017-02-08 21:15:10.576419+01 | 1486584910.57642 | pgbench_branches |             8192

 2017-02-08 21:15:11.639876+01 | 1486584911.63988 | pgbench_accounts |        693870592
 2017-02-08 21:15:11.639876+01 | 1486584911.63988 | pgbench_tellers  |            24576
 2017-02-08 21:15:11.639876+01 | 1486584911.63988 | pgbench_history  |                0
 2017-02-08 21:15:11.639876+01 | 1486584911.63988 | pgbench_branches |             8192

 2017-02-08 21:15:12.706778+01 | 1486584912.70678 | pgbench_accounts |        693870592
 2017-02-08 21:15:12.706778+01 | 1486584912.70678 | pgbench_tellers  |            24576
 2017-02-08 21:15:12.706778+01 | 1486584912.70678 | pgbench_history  |                0
 2017-02-08 21:15:12.706778+01 | 1486584912.70678 | pgbench_branches |             8192

 2017-02-08 21:15:13.776296+01 | 1486584913.7763 | pgbench_accounts |        693870592
 2017-02-08 21:15:13.776296+01 | 1486584913.7763 | pgbench_tellers  |            24576
 2017-02-08 21:15:13.776296+01 | 1486584913.7763 | pgbench_history  |                0
 2017-02-08 21:15:13.776296+01 | 1486584913.7763 | pgbench_branches |             8192

 2017-02-08 21:15:14.852546+01 | 1486584914.85255 | pgbench_accounts |        693870592
 2017-02-08 21:15:14.852546+01 | 1486584914.85255 | pgbench_tellers  |            24576
 2017-02-08 21:15:14.852546+01 | 1486584914.85255 | pgbench_history  |                0
 2017-02-08 21:15:14.852546+01 | 1486584914.85255 | pgbench_branches |             8192

 2017-02-08 21:15:15.925336+01 | 1486584915.92534 | pgbench_accounts |        693870592
 2017-02-08 21:15:15.925336+01 | 1486584915.92534 | pgbench_tellers  |            24576
 2017-02-08 21:15:15.925336+01 | 1486584915.92534 | pgbench_history  |                0
 2017-02-08 21:15:15.925336+01 | 1486584915.92534 | pgbench_branches |             8192

 2017-02-08 21:15:16.986532+01 | 1486584916.98653 | pgbench_accounts |        693870592
 2017-02-08 21:15:16.986532+01 | 1486584916.98653 | pgbench_tellers  |            24576
 2017-02-08 21:15:16.986532+01 | 1486584916.98653 | pgbench_history  |                0
 2017-02-08 21:15:16.986532+01 | 1486584916.98653 | pgbench_branches |             8192

 2017-02-08 21:15:18.055122+01 | 1486584918.05512 | pgbench_accounts |        693870592
 2017-02-08 21:15:18.055122+01 | 1486584918.05512 | pgbench_tellers  |            24576
 2017-02-08 21:15:18.055122+01 | 1486584918.05512 | pgbench_history  |                0
 2017-02-08 21:15:18.055122+01 | 1486584918.05512 | pgbench_branches |             8192

 2017-02-08 21:15:19.121069+01 | 1486584919.12107 | pgbench_accounts |        693870592
 2017-02-08 21:15:19.121069+01 | 1486584919.12107 | pgbench_tellers  |            24576
 2017-02-08 21:15:19.121069+01 | 1486584919.12107 | pgbench_history  |                0
 2017-02-08 21:15:19.121069+01 | 1486584919.12107 | pgbench_branches |             8192

 2017-02-08 21:15:20.179002+01 | 1486584920.179 | pgbench_accounts |        693870592
 2017-02-08 21:15:20.179002+01 | 1486584920.179 | pgbench_tellers  |            24576
 2017-02-08 21:15:20.179002+01 | 1486584920.179 | pgbench_history  |                0
 2017-02-08 21:15:20.179002+01 | 1486584920.179 | pgbench_branches |             8192

 2017-02-08 21:15:21.253691+01 | 1486584921.25369 | pgbench_accounts |        693870592
 2017-02-08 21:15:21.253691+01 | 1486584921.25369 | pgbench_tellers  |            24576
 2017-02-08 21:15:21.253691+01 | 1486584921.25369 | pgbench_history  |                0
 2017-02-08 21:15:21.253691+01 | 1486584921.25369 | pgbench_branches |             8192

 2017-02-08 21:15:22.322566+01 | 1486584922.32257 | pgbench_accounts |        693870592
 2017-02-08 21:15:22.322566+01 | 1486584922.32257 | pgbench_tellers  |            24576
 2017-02-08 21:15:22.322566+01 | 1486584922.32257 | pgbench_history  |                0
 2017-02-08 21:15:22.322566+01 | 1486584922.32257 | pgbench_branches |             8192

 2017-02-08 21:15:23.387795+01 | 1486584923.38779 | pgbench_accounts |        693870592
 2017-02-08 21:15:23.387795+01 | 1486584923.38779 | pgbench_tellers  |            24576
 2017-02-08 21:15:23.387795+01 | 1486584923.38779 | pgbench_history  |                0
 2017-02-08 21:15:23.387795+01 | 1486584923.38779 | pgbench_branches |             8192

 2017-02-08 21:15:24.453586+01 | 1486584924.45359 | pgbench_accounts |        693870592
 2017-02-08 21:15:24.453586+01 | 1486584924.45359 | pgbench_tellers  |            24576
 2017-02-08 21:15:24.453586+01 | 1486584924.45359 | pgbench_history  |                0
 2017-02-08 21:15:24.453586+01 | 1486584924.45359 | pgbench_branches |             8192

 2017-02-08 21:15:25.531308+01 | 1486584925.53131 | pgbench_accounts |        693870592
 2017-02-08 21:15:25.531308+01 | 1486584925.53131 | pgbench_tellers  |            24576
 2017-02-08 21:15:25.531308+01 | 1486584925.53131 | pgbench_history  |                0
 2017-02-08 21:15:25.531308+01 | 1486584925.53131 | pgbench_branches |             8192

 2017-02-08 21:15:26.601695+01 | 1486584926.6017 | pgbench_accounts |        693870592
 2017-02-08 21:15:26.601695+01 | 1486584926.6017 | pgbench_tellers  |            24576
 2017-02-08 21:15:26.601695+01 | 1486584926.6017 | pgbench_history  |                0
 2017-02-08 21:15:26.601695+01 | 1486584926.6017 | pgbench_branches |             8192

 2017-02-08 21:15:27.671259+01 | 1486584927.67126 | pgbench_accounts |        693870592
 2017-02-08 21:15:27.671259+01 | 1486584927.67126 | pgbench_tellers  |            24576
 2017-02-08 21:15:27.671259+01 | 1486584927.67126 | pgbench_history  |                0
 2017-02-08 21:15:27.671259+01 | 1486584927.67126 | pgbench_branches |             8192

 2017-02-08 21:15:28.760102+01 | 1486584928.7601 | pgbench_accounts |        693870592
 2017-02-08 21:15:28.760102+01 | 1486584928.7601 | pgbench_tellers  |            24576
 2017-02-08 21:15:28.760102+01 | 1486584928.7601 | pgbench_history  |                0
 2017-02-08 21:15:28.760102+01 | 1486584928.7601 | pgbench_branches |             8192

 2017-02-08 21:15:29.836477+01 | 1486584929.83648 | pgbench_accounts |        693870592
 2017-02-08 21:15:29.836477+01 | 1486584929.83648 | pgbench_tellers  |            24576
 2017-02-08 21:15:29.836477+01 | 1486584929.83648 | pgbench_history  |                0
 2017-02-08 21:15:29.836477+01 | 1486584929.83648 | pgbench_branches |             8192

 2017-02-08 21:15:30.896769+01 | 1486584930.89677 | pgbench_accounts |        693870592
 2017-02-08 21:15:30.896769+01 | 1486584930.89677 | pgbench_tellers  |            24576
 2017-02-08 21:15:30.896769+01 | 1486584930.89677 | pgbench_history  |                0
 2017-02-08 21:15:30.896769+01 | 1486584930.89677 | pgbench_branches |             8192

 2017-02-08 21:15:31.978464+01 | 1486584931.97846 | pgbench_accounts |        693870592
 2017-02-08 21:15:31.978464+01 | 1486584931.97846 | pgbench_tellers  |            24576
 2017-02-08 21:15:31.978464+01 | 1486584931.97846 | pgbench_history  |                0
 2017-02-08 21:15:31.978464+01 | 1486584931.97846 | pgbench_branches |             8192

 2017-02-08 21:15:33.042654+01 | 1486584933.04265 | pgbench_accounts |        693870592
 2017-02-08 21:15:33.042654+01 | 1486584933.04265 | pgbench_tellers  |            24576
 2017-02-08 21:15:33.042654+01 | 1486584933.04265 | pgbench_history  |                0
 2017-02-08 21:15:33.042654+01 | 1486584933.04265 | pgbench_branches |             8192

 2017-02-08 21:15:34.111578+01 | 1486584934.11158 | pgbench_accounts |        693870592
 2017-02-08 21:15:34.111578+01 | 1486584934.11158 | pgbench_tellers  |            24576
 2017-02-08 21:15:34.111578+01 | 1486584934.11158 | pgbench_history  |                0
 2017-02-08 21:15:34.111578+01 | 1486584934.11158 | pgbench_branches |             8192

 2017-02-08 21:15:35.184094+01 | 1486584935.18409 | pgbench_accounts |        693870592
 2017-02-08 21:15:35.184094+01 | 1486584935.18409 | pgbench_tellers  |            24576
 2017-02-08 21:15:35.184094+01 | 1486584935.18409 | pgbench_history  |                0
 2017-02-08 21:15:35.184094+01 | 1486584935.18409 | pgbench_branches |             8192

 2017-02-08 21:15:36.25153+01 | 1486584936.25153 | pgbench_accounts |        693870592
 2017-02-08 21:15:36.25153+01 | 1486584936.25153 | pgbench_tellers  |            24576
 2017-02-08 21:15:36.25153+01 | 1486584936.25153 | pgbench_history  |                0
 2017-02-08 21:15:36.25153+01 | 1486584936.25153 | pgbench_branches |             8192

 2017-02-08 21:15:37.309493+01 | 1486584937.30949 | pgbench_accounts |        693870592
 2017-02-08 21:15:37.309493+01 | 1486584937.30949 | pgbench_tellers  |            24576
 2017-02-08 21:15:37.309493+01 | 1486584937.30949 | pgbench_history  |                0
 2017-02-08 21:15:37.309493+01 | 1486584937.30949 | pgbench_branches |             8192

 2017-02-08 21:15:38.381847+01 | 1486584938.38185 | pgbench_accounts |        693870592
 2017-02-08 21:15:38.381847+01 | 1486584938.38185 | pgbench_tellers  |            24576
 2017-02-08 21:15:38.381847+01 | 1486584938.38185 | pgbench_history  |                0
 2017-02-08 21:15:38.381847+01 | 1486584938.38185 | pgbench_branches |             8192

 2017-02-08 21:15:39.439842+01 | 1486584939.43984 | pgbench_accounts |        693870592
 2017-02-08 21:15:39.439842+01 | 1486584939.43984 | pgbench_tellers  |            24576
 2017-02-08 21:15:39.439842+01 | 1486584939.43984 | pgbench_history  |                0
 2017-02-08 21:15:39.439842+01 | 1486584939.43984 | pgbench_branches |             8192

 2017-02-08 21:15:40.507761+01 | 1486584940.50776 | pgbench_accounts |        693870592
 2017-02-08 21:15:40.507761+01 | 1486584940.50776 | pgbench_tellers  |            24576
 2017-02-08 21:15:40.507761+01 | 1486584940.50776 | pgbench_history  |                0
 2017-02-08 21:15:40.507761+01 | 1486584940.50776 | pgbench_branches |             8192

 2017-02-08 21:15:41.576093+01 | 1486584941.57609 | pgbench_accounts |        693870592
 2017-02-08 21:15:41.576093+01 | 1486584941.57609 | pgbench_tellers  |            24576
 2017-02-08 21:15:41.576093+01 | 1486584941.57609 | pgbench_history  |                0
 2017-02-08 21:15:41.576093+01 | 1486584941.57609 | pgbench_branches |             8192

 2017-02-08 21:15:42.656869+01 | 1486584942.65687 | pgbench_accounts |        693870592
 2017-02-08 21:15:42.656869+01 | 1486584942.65687 | pgbench_tellers  |            24576
 2017-02-08 21:15:42.656869+01 | 1486584942.65687 | pgbench_history  |                0
 2017-02-08 21:15:42.656869+01 | 1486584942.65687 | pgbench_branches |             8192

 2017-02-08 21:15:43.724111+01 | 1486584943.72411 | pgbench_accounts |        693870592
 2017-02-08 21:15:43.724111+01 | 1486584943.72411 | pgbench_tellers  |            24576
 2017-02-08 21:15:43.724111+01 | 1486584943.72411 | pgbench_history  |                0
 2017-02-08 21:15:43.724111+01 | 1486584943.72411 | pgbench_branches |             8192

 2017-02-08 21:15:44.802269+01 | 1486584944.80227 | pgbench_accounts |        693870592
 2017-02-08 21:15:44.802269+01 | 1486584944.80227 | pgbench_tellers  |            24576
 2017-02-08 21:15:44.802269+01 | 1486584944.80227 | pgbench_history  |                0
 2017-02-08 21:15:44.802269+01 | 1486584944.80227 | pgbench_branches |             8192

 2017-02-08 21:15:45.870078+01 | 1486584945.87008 | pgbench_accounts |        693870592
 2017-02-08 21:15:45.870078+01 | 1486584945.87008 | pgbench_tellers  |            24576
 2017-02-08 21:15:45.870078+01 | 1486584945.87008 | pgbench_history  |                0
 2017-02-08 21:15:45.870078+01 | 1486584945.87008 | pgbench_branches |             8192

 2017-02-08 21:15:46.935271+01 | 1486584946.93527 | pgbench_accounts |        693870592
 2017-02-08 21:15:46.935271+01 | 1486584946.93527 | pgbench_tellers  |            24576
 2017-02-08 21:15:46.935271+01 | 1486584946.93527 | pgbench_history  |                0
 2017-02-08 21:15:46.935271+01 | 1486584946.93527 | pgbench_branches |             8192

 2017-02-08 21:15:47.99596+01 | 1486584947.99596 | pgbench_accounts |        693870592
 2017-02-08 21:15:47.99596+01 | 1486584947.99596 | pgbench_tellers  |            24576
 2017-02-08 21:15:47.99596+01 | 1486584947.99596 | pgbench_history  |                0
 2017-02-08 21:15:47.99596+01 | 1486584947.99596 | pgbench_branches |             8192

 2017-02-08 21:15:49.060639+01 | 1486584949.06064 | pgbench_accounts |        693870592
 2017-02-08 21:15:49.060639+01 | 1486584949.06064 | pgbench_tellers  |            24576
 2017-02-08 21:15:49.060639+01 | 1486584949.06064 | pgbench_history  |                0
 2017-02-08 21:15:49.060639+01 | 1486584949.06064 | pgbench_branches |             8192

 2017-02-08 21:15:50.12917+01 | 1486584950.12917 | pgbench_accounts |        693870592
 2017-02-08 21:15:50.12917+01 | 1486584950.12917 | pgbench_tellers  |            24576
 2017-02-08 21:15:50.12917+01 | 1486584950.12917 | pgbench_history  |                0
 2017-02-08 21:15:50.12917+01 | 1486584950.12917 | pgbench_branches |             8192

 2017-02-08 21:15:51.192632+01 | 1486584951.19263 | pgbench_accounts |        693870592
 2017-02-08 21:15:51.192632+01 | 1486584951.19263 | pgbench_tellers  |            24576
 2017-02-08 21:15:51.192632+01 | 1486584951.19263 | pgbench_history  |                0
 2017-02-08 21:15:51.192632+01 | 1486584951.19263 | pgbench_branches |             8192

 2017-02-08 21:15:52.262915+01 | 1486584952.26291 | pgbench_accounts |        693870592
 2017-02-08 21:15:52.262915+01 | 1486584952.26291 | pgbench_tellers  |            24576
 2017-02-08 21:15:52.262915+01 | 1486584952.26291 | pgbench_history  |                0
 2017-02-08 21:15:52.262915+01 | 1486584952.26291 | pgbench_branches |             8192

 2017-02-08 21:15:53.338924+01 | 1486584953.33892 | pgbench_accounts |        693870592
 2017-02-08 21:15:53.338924+01 | 1486584953.33892 | pgbench_tellers  |            24576
 2017-02-08 21:15:53.338924+01 | 1486584953.33892 | pgbench_history  |                0
 2017-02-08 21:15:53.338924+01 | 1486584953.33892 | pgbench_branches |             8192

 2017-02-08 21:15:54.397198+01 | 1486584954.3972 | pgbench_accounts |        693870592
 2017-02-08 21:15:54.397198+01 | 1486584954.3972 | pgbench_tellers  |            24576
 2017-02-08 21:15:54.397198+01 | 1486584954.3972 | pgbench_history  |                0
 2017-02-08 21:15:54.397198+01 | 1486584954.3972 | pgbench_branches |             8192

 2017-02-08 21:15:55.458757+01 | 1486584955.45876 | pgbench_accounts |        693870592
 2017-02-08 21:15:55.458757+01 | 1486584955.45876 | pgbench_tellers  |            24576
 2017-02-08 21:15:55.458757+01 | 1486584955.45876 | pgbench_history  |                0
 2017-02-08 21:15:55.458757+01 | 1486584955.45876 | pgbench_branches |             8192

 2017-02-08 21:15:56.547322+01 | 1486584956.54732 | pgbench_accounts |        693870592
 2017-02-08 21:15:56.547322+01 | 1486584956.54732 | pgbench_tellers  |            24576
 2017-02-08 21:15:56.547322+01 | 1486584956.54732 | pgbench_history  |                0
 2017-02-08 21:15:56.547322+01 | 1486584956.54732 | pgbench_branches |             8192

 2017-02-08 21:15:57.620051+01 | 1486584957.62005 | pgbench_accounts |        693870592
 2017-02-08 21:15:57.620051+01 | 1486584957.62005 | pgbench_tellers  |            24576
 2017-02-08 21:15:57.620051+01 | 1486584957.62005 | pgbench_history  |                0
 2017-02-08 21:15:57.620051+01 | 1486584957.62005 | pgbench_branches |             8192

 2017-02-08 21:15:58.694109+01 | 1486584958.69411 | pgbench_accounts |        693870592
 2017-02-08 21:15:58.694109+01 | 1486584958.69411 | pgbench_tellers  |            24576
 2017-02-08 21:15:58.694109+01 | 1486584958.69411 | pgbench_history  |                0
 2017-02-08 21:15:58.694109+01 | 1486584958.69411 | pgbench_branches |             8192

 2017-02-08 21:15:59.766601+01 | 1486584959.7666 | pgbench_accounts |        693870592
 2017-02-08 21:15:59.766601+01 | 1486584959.7666 | pgbench_tellers  |            24576
 2017-02-08 21:15:59.766601+01 | 1486584959.7666 | pgbench_history  |                0
 2017-02-08 21:15:59.766601+01 | 1486584959.7666 | pgbench_branches |             8192

 2017-02-08 21:16:00.836911+01 | 1486584960.83691 | pgbench_accounts |        693870592
 2017-02-08 21:16:00.836911+01 | 1486584960.83691 | pgbench_tellers  |            24576
 2017-02-08 21:16:00.836911+01 | 1486584960.83691 | pgbench_history  |                0
 2017-02-08 21:16:00.836911+01 | 1486584960.83691 | pgbench_branches |             8192

 2017-02-08 21:16:01.901654+01 | 1486584961.90165 | pgbench_accounts |        693870592
 2017-02-08 21:16:01.901654+01 | 1486584961.90165 | pgbench_tellers  |            24576
 2017-02-08 21:16:01.901654+01 | 1486584961.90165 | pgbench_history  |                0
 2017-02-08 21:16:01.901654+01 | 1486584961.90165 | pgbench_branches |             8192

 2017-02-08 21:16:02.961452+01 | 1486584962.96145 | pgbench_accounts |        693870592
 2017-02-08 21:16:02.961452+01 | 1486584962.96145 | pgbench_tellers  |            24576
 2017-02-08 21:16:02.961452+01 | 1486584962.96145 | pgbench_history  |                0
 2017-02-08 21:16:02.961452+01 | 1486584962.96145 | pgbench_branches |             8192

 2017-02-08 21:16:04.026901+01 | 1486584964.0269 | pgbench_accounts |        693870592
 2017-02-08 21:16:04.026901+01 | 1486584964.0269 | pgbench_tellers  |            24576
 2017-02-08 21:16:04.026901+01 | 1486584964.0269 | pgbench_history  |                0
 2017-02-08 21:16:04.026901+01 | 1486584964.0269 | pgbench_branches |             8192

 2017-02-08 21:16:05.091635+01 | 1486584965.09163 | pgbench_accounts |        693870592
 2017-02-08 21:16:05.091635+01 | 1486584965.09163 | pgbench_tellers  |            24576
 2017-02-08 21:16:05.091635+01 | 1486584965.09163 | pgbench_history  |                0
 2017-02-08 21:16:05.091635+01 | 1486584965.09163 | pgbench_branches |             8192

 2017-02-08 21:16:06.157371+01 | 1486584966.15737 | pgbench_accounts |        693870592
 2017-02-08 21:16:06.157371+01 | 1486584966.15737 | pgbench_tellers  |            24576
 2017-02-08 21:16:06.157371+01 | 1486584966.15737 | pgbench_history  |                0
 2017-02-08 21:16:06.157371+01 | 1486584966.15737 | pgbench_branches |             8192

 2017-02-08 21:16:07.234667+01 | 1486584967.23467 | pgbench_accounts |        693870592
 2017-02-08 21:16:07.234667+01 | 1486584967.23467 | pgbench_tellers  |            24576
 2017-02-08 21:16:07.234667+01 | 1486584967.23467 | pgbench_history  |                0
 2017-02-08 21:16:07.234667+01 | 1486584967.23467 | pgbench_branches |             8192

 2017-02-08 21:16:08.309184+01 | 1486584968.30918 | pgbench_accounts |        693870592
 2017-02-08 21:16:08.309184+01 | 1486584968.30918 | pgbench_tellers  |            24576
 2017-02-08 21:16:08.309184+01 | 1486584968.30918 | pgbench_history  |                0
 2017-02-08 21:16:08.309184+01 | 1486584968.30918 | pgbench_branches |             8192

 2017-02-08 21:16:09.383046+01 | 1486584969.38305 | pgbench_accounts |        693870592
 2017-02-08 21:16:09.383046+01 | 1486584969.38305 | pgbench_tellers  |            24576
 2017-02-08 21:16:09.383046+01 | 1486584969.38305 | pgbench_history  |                0
 2017-02-08 21:16:09.383046+01 | 1486584969.38305 | pgbench_branches |             8192

 2017-02-08 21:16:10.443664+01 | 1486584970.44366 | pgbench_accounts |        693870592
 2017-02-08 21:16:10.443664+01 | 1486584970.44366 | pgbench_tellers  |            24576
 2017-02-08 21:16:10.443664+01 | 1486584970.44366 | pgbench_history  |                0
 2017-02-08 21:16:10.443664+01 | 1486584970.44366 | pgbench_branches |             8192

 2017-02-08 21:16:11.515946+01 | 1486584971.51595 | pgbench_accounts |        693870592
 2017-02-08 21:16:11.515946+01 | 1486584971.51595 | pgbench_tellers  |            24576
 2017-02-08 21:16:11.515946+01 | 1486584971.51595 | pgbench_history  |                0
 2017-02-08 21:16:11.515946+01 | 1486584971.51595 | pgbench_branches |             8192

 2017-02-08 21:16:12.575932+01 | 1486584972.57593 | pgbench_accounts |        693870592
 2017-02-08 21:16:12.575932+01 | 1486584972.57593 | pgbench_tellers  |            24576
 2017-02-08 21:16:12.575932+01 | 1486584972.57593 | pgbench_history  |                0
 2017-02-08 21:16:12.575932+01 | 1486584972.57593 | pgbench_branches |             8192

 2017-02-08 21:16:13.638171+01 | 1486584973.63817 | pgbench_accounts |        693870592
 2017-02-08 21:16:13.638171+01 | 1486584973.63817 | pgbench_tellers  |            24576
 2017-02-08 21:16:13.638171+01 | 1486584973.63817 | pgbench_history  |                0
 2017-02-08 21:16:13.638171+01 | 1486584973.63817 | pgbench_branches |             8192

 2017-02-08 21:16:14.697609+01 | 1486584974.69761 | pgbench_accounts |        693870592
 2017-02-08 21:16:14.697609+01 | 1486584974.69761 | pgbench_tellers  |            24576
 2017-02-08 21:16:14.697609+01 | 1486584974.69761 | pgbench_history  |                0
 2017-02-08 21:16:14.697609+01 | 1486584974.69761 | pgbench_branches |             8192

 2017-02-08 21:16:15.764744+01 | 1486584975.76474 | pgbench_accounts |        693870592
 2017-02-08 21:16:15.764744+01 | 1486584975.76474 | pgbench_tellers  |            24576
 2017-02-08 21:16:15.764744+01 | 1486584975.76474 | pgbench_history  |                0
 2017-02-08 21:16:15.764744+01 | 1486584975.76474 | pgbench_branches |             8192

 2017-02-08 21:16:16.826058+01 | 1486584976.82606 | pgbench_accounts |        693870592
 2017-02-08 21:16:16.826058+01 | 1486584976.82606 | pgbench_tellers  |            24576
 2017-02-08 21:16:16.826058+01 | 1486584976.82606 | pgbench_history  |                0
 2017-02-08 21:16:16.826058+01 | 1486584976.82606 | pgbench_branches |             8192

 2017-02-08 21:16:17.888082+01 | 1486584977.88808 | pgbench_accounts |        693870592
 2017-02-08 21:16:17.888082+01 | 1486584977.88808 | pgbench_tellers  |            24576
 2017-02-08 21:16:17.888082+01 | 1486584977.88808 | pgbench_history  |                0
 2017-02-08 21:16:17.888082+01 | 1486584977.88808 | pgbench_branches |             8192

 2017-02-08 21:16:18.949399+01 | 1486584978.9494 | pgbench_accounts |        693870592
 2017-02-08 21:16:18.949399+01 | 1486584978.9494 | pgbench_tellers  |            24576
 2017-02-08 21:16:18.949399+01 | 1486584978.9494 | pgbench_history  |                0
 2017-02-08 21:16:18.949399+01 | 1486584978.9494 | pgbench_branches |             8192

 2017-02-08 21:16:20.019347+01 | 1486584980.01935 | pgbench_accounts |        693870592
 2017-02-08 21:16:20.019347+01 | 1486584980.01935 | pgbench_tellers  |            24576
 2017-02-08 21:16:20.019347+01 | 1486584980.01935 | pgbench_history  |                0
 2017-02-08 21:16:20.019347+01 | 1486584980.01935 | pgbench_branches |             8192

 2017-02-08 21:16:21.088812+01 | 1486584981.08881 | pgbench_accounts |        693870592
 2017-02-08 21:16:21.088812+01 | 1486584981.08881 | pgbench_tellers  |            24576
 2017-02-08 21:16:21.088812+01 | 1486584981.08881 | pgbench_history  |                0
 2017-02-08 21:16:21.088812+01 | 1486584981.08881 | pgbench_branches |             8192

 2017-02-08 21:16:22.155119+01 | 1486584982.15512 | pgbench_accounts |        693870592
 2017-02-08 21:16:22.155119+01 | 1486584982.15512 | pgbench_tellers  |            24576
 2017-02-08 21:16:22.155119+01 | 1486584982.15512 | pgbench_history  |                0
 2017-02-08 21:16:22.155119+01 | 1486584982.15512 | pgbench_branches |             8192

 2017-02-08 21:16:23.214139+01 | 1486584983.21414 | pgbench_accounts |        693870592
 2017-02-08 21:16:23.214139+01 | 1486584983.21414 | pgbench_tellers  |            24576
 2017-02-08 21:16:23.214139+01 | 1486584983.21414 | pgbench_history  |                0
 2017-02-08 21:16:23.214139+01 | 1486584983.21414 | pgbench_branches |             8192

 2017-02-08 21:16:24.28765+01 | 1486584984.28765 | pgbench_accounts |        693870592
 2017-02-08 21:16:24.28765+01 | 1486584984.28765 | pgbench_tellers  |            24576
 2017-02-08 21:16:24.28765+01 | 1486584984.28765 | pgbench_history  |                0
 2017-02-08 21:16:24.28765+01 | 1486584984.28765 | pgbench_branches |             8192

 2017-02-08 21:16:25.360621+01 | 1486584985.36062 | pgbench_accounts |        693870592
 2017-02-08 21:16:25.360621+01 | 1486584985.36062 | pgbench_tellers  |            24576
 2017-02-08 21:16:25.360621+01 | 1486584985.36062 | pgbench_history  |                0
 2017-02-08 21:16:25.360621+01 | 1486584985.36062 | pgbench_branches |             8192

 2017-02-08 21:16:26.420152+01 | 1486584986.42015 | pgbench_accounts |        693870592
 2017-02-08 21:16:26.420152+01 | 1486584986.42015 | pgbench_tellers  |            24576
 2017-02-08 21:16:26.420152+01 | 1486584986.42015 | pgbench_history  |                0
 2017-02-08 21:16:26.420152+01 | 1486584986.42015 | pgbench_branches |             8192

 2017-02-08 21:16:27.49169+01 | 1486584987.49169 | pgbench_accounts |        693870592
 2017-02-08 21:16:27.49169+01 | 1486584987.49169 | pgbench_tellers  |            24576
 2017-02-08 21:16:27.49169+01 | 1486584987.49169 | pgbench_history  |                0
 2017-02-08 21:16:27.49169+01 | 1486584987.49169 | pgbench_branches |             8192

 2017-02-08 21:16:28.544759+01 | 1486584988.54476 | pgbench_accounts |        693870592
 2017-02-08 21:16:28.544759+01 | 1486584988.54476 | pgbench_tellers  |            24576
 2017-02-08 21:16:28.544759+01 | 1486584988.54476 | pgbench_history  |                0
 2017-02-08 21:16:28.544759+01 | 1486584988.54476 | pgbench_branches |             8192

 2017-02-08 21:16:29.617445+01 | 1486584989.61744 | pgbench_accounts |        693870592
 2017-02-08 21:16:29.617445+01 | 1486584989.61744 | pgbench_tellers  |            24576
 2017-02-08 21:16:29.617445+01 | 1486584989.61744 | pgbench_history  |                0
 2017-02-08 21:16:29.617445+01 | 1486584989.61744 | pgbench_branches |             8192

 2017-02-08 21:16:30.6897+01 | 1486584990.6897 | pgbench_accounts |        693870592
 2017-02-08 21:16:30.6897+01 | 1486584990.6897 | pgbench_tellers  |            24576
 2017-02-08 21:16:30.6897+01 | 1486584990.6897 | pgbench_history  |                0
 2017-02-08 21:16:30.6897+01 | 1486584990.6897 | pgbench_branches |             8192

 2017-02-08 21:16:31.762021+01 | 1486584991.76202 | pgbench_accounts |        693870592
 2017-02-08 21:16:31.762021+01 | 1486584991.76202 | pgbench_tellers  |            24576
 2017-02-08 21:16:31.762021+01 | 1486584991.76202 | pgbench_history  |                0
 2017-02-08 21:16:31.762021+01 | 1486584991.76202 | pgbench_branches |             8192

 2017-02-08 21:16:32.820645+01 | 1486584992.82065 | pgbench_accounts |        693870592
 2017-02-08 21:16:32.820645+01 | 1486584992.82065 | pgbench_tellers  |            24576
 2017-02-08 21:16:32.820645+01 | 1486584992.82065 | pgbench_history  |                0
 2017-02-08 21:16:32.820645+01 | 1486584992.82065 | pgbench_branches |             8192

 2017-02-08 21:16:33.894935+01 | 1486584993.89493 | pgbench_accounts |        693870592
 2017-02-08 21:16:33.894935+01 | 1486584993.89493 | pgbench_tellers  |            24576
 2017-02-08 21:16:33.894935+01 | 1486584993.89493 | pgbench_history  |                0
 2017-02-08 21:16:33.894935+01 | 1486584993.89493 | pgbench_branches |             8192

 2017-02-08 21:16:34.970977+01 | 1486584994.97098 | pgbench_accounts |        693870592
 2017-02-08 21:16:34.970977+01 | 1486584994.97098 | pgbench_tellers  |            24576
 2017-02-08 21:16:34.970977+01 | 1486584994.97098 | pgbench_history  |                0
 2017-02-08 21:16:34.970977+01 | 1486584994.97098 | pgbench_branches |             8192

 2017-02-08 21:16:36.038629+01 | 1486584996.03863 | pgbench_accounts |        693870592
 2017-02-08 21:16:36.038629+01 | 1486584996.03863 | pgbench_tellers  |            24576
 2017-02-08 21:16:36.038629+01 | 1486584996.03863 | pgbench_history  |                0
 2017-02-08 21:16:36.038629+01 | 1486584996.03863 | pgbench_branches |             8192

 2017-02-08 21:16:37.110266+01 | 1486584997.11027 | pgbench_accounts |        693870592
 2017-02-08 21:16:37.110266+01 | 1486584997.11027 | pgbench_tellers  |            24576
 2017-02-08 21:16:37.110266+01 | 1486584997.11027 | pgbench_history  |                0
 2017-02-08 21:16:37.110266+01 | 1486584997.11027 | pgbench_branches |             8192

 2017-02-08 21:16:38.174554+01 | 1486584998.17455 | pgbench_accounts |        693870592
 2017-02-08 21:16:38.174554+01 | 1486584998.17455 | pgbench_tellers  |            24576
 2017-02-08 21:16:38.174554+01 | 1486584998.17455 | pgbench_history  |                0
 2017-02-08 21:16:38.174554+01 | 1486584998.17455 | pgbench_branches |             8192

 2017-02-08 21:16:39.247282+01 | 1486584999.24728 | pgbench_accounts |        693870592
 2017-02-08 21:16:39.247282+01 | 1486584999.24728 | pgbench_tellers  |            24576
 2017-02-08 21:16:39.247282+01 | 1486584999.24728 | pgbench_history  |                0
 2017-02-08 21:16:39.247282+01 | 1486584999.24728 | pgbench_branches |             8192

 2017-02-08 21:16:40.315271+01 | 1486585000.31527 | pgbench_accounts |        693870592
 2017-02-08 21:16:40.315271+01 | 1486585000.31527 | pgbench_tellers  |            24576
 2017-02-08 21:16:40.315271+01 | 1486585000.31527 | pgbench_history  |                0
 2017-02-08 21:16:40.315271+01 | 1486585000.31527 | pgbench_branches |             8192

 2017-02-08 21:16:41.380076+01 | 1486585001.38008 | pgbench_accounts |        693870592
 2017-02-08 21:16:41.380076+01 | 1486585001.38008 | pgbench_tellers  |            24576
 2017-02-08 21:16:41.380076+01 | 1486585001.38008 | pgbench_history  |                0
 2017-02-08 21:16:41.380076+01 | 1486585001.38008 | pgbench_branches |             8192

 2017-02-08 21:16:42.444703+01 | 1486585002.4447 | pgbench_accounts |        693870592
 2017-02-08 21:16:42.444703+01 | 1486585002.4447 | pgbench_tellers  |            24576
 2017-02-08 21:16:42.444703+01 | 1486585002.4447 | pgbench_history  |                0
 2017-02-08 21:16:42.444703+01 | 1486585002.4447 | pgbench_branches |             8192

 2017-02-08 21:16:43.512605+01 | 1486585003.5126 | pgbench_accounts |        693870592
 2017-02-08 21:16:43.512605+01 | 1486585003.5126 | pgbench_tellers  |            24576
 2017-02-08 21:16:43.512605+01 | 1486585003.5126 | pgbench_history  |                0
 2017-02-08 21:16:43.512605+01 | 1486585003.5126 | pgbench_branches |             8192

 2017-02-08 21:16:44.573688+01 | 1486585004.57369 | pgbench_accounts |        693870592
 2017-02-08 21:16:44.573688+01 | 1486585004.57369 | pgbench_tellers  |            24576
 2017-02-08 21:16:44.573688+01 | 1486585004.57369 | pgbench_history  |                0
 2017-02-08 21:16:44.573688+01 | 1486585004.57369 | pgbench_branches |             8192

 2017-02-08 21:16:45.634113+01 | 1486585005.63411 | pgbench_accounts |        693870592
 2017-02-08 21:16:45.634113+01 | 1486585005.63411 | pgbench_tellers  |            24576
 2017-02-08 21:16:45.634113+01 | 1486585005.63411 | pgbench_history  |                0
 2017-02-08 21:16:45.634113+01 | 1486585005.63411 | pgbench_branches |             8192

 2017-02-08 21:16:46.71783+01 | 1486585006.71783 | pgbench_accounts |        693870592
 2017-02-08 21:16:46.71783+01 | 1486585006.71783 | pgbench_tellers  |            24576
 2017-02-08 21:16:46.71783+01 | 1486585006.71783 | pgbench_history  |                0
 2017-02-08 21:16:46.71783+01 | 1486585006.71783 | pgbench_branches |             8192

 2017-02-08 21:16:47.787426+01 | 1486585007.78743 | pgbench_accounts |        693870592
 2017-02-08 21:16:47.787426+01 | 1486585007.78743 | pgbench_tellers  |            24576
 2017-02-08 21:16:47.787426+01 | 1486585007.78743 | pgbench_history  |                0
 2017-02-08 21:16:47.787426+01 | 1486585007.78743 | pgbench_branches |             8192

 2017-02-08 21:16:48.846209+01 | 1486585008.84621 | pgbench_accounts |        693870592
 2017-02-08 21:16:48.846209+01 | 1486585008.84621 | pgbench_tellers  |            24576
 2017-02-08 21:16:48.846209+01 | 1486585008.84621 | pgbench_history  |                0
 2017-02-08 21:16:48.846209+01 | 1486585008.84621 | pgbench_branches |             8192

 2017-02-08 21:16:49.918066+01 | 1486585009.91807 | pgbench_accounts |        693870592
 2017-02-08 21:16:49.918066+01 | 1486585009.91807 | pgbench_tellers  |            24576
 2017-02-08 21:16:49.918066+01 | 1486585009.91807 | pgbench_history  |                0
 2017-02-08 21:16:49.918066+01 | 1486585009.91807 | pgbench_branches |             8192

 2017-02-08 21:16:50.995145+01 | 1486585010.99515 | pgbench_accounts |        693870592
 2017-02-08 21:16:50.995145+01 | 1486585010.99515 | pgbench_tellers  |            24576
 2017-02-08 21:16:50.995145+01 | 1486585010.99515 | pgbench_history  |                0
 2017-02-08 21:16:50.995145+01 | 1486585010.99515 | pgbench_branches |             8192

 2017-02-08 21:16:52.051438+01 | 1486585012.05144 | pgbench_accounts |        693870592
 2017-02-08 21:16:52.051438+01 | 1486585012.05144 | pgbench_tellers  |            24576
 2017-02-08 21:16:52.051438+01 | 1486585012.05144 | pgbench_history  |                0
 2017-02-08 21:16:52.051438+01 | 1486585012.05144 | pgbench_branches |             8192

 2017-02-08 21:16:53.111007+01 | 1486585013.11101 | pgbench_accounts |        693870592
 2017-02-08 21:16:53.111007+01 | 1486585013.11101 | pgbench_tellers  |            24576
 2017-02-08 21:16:53.111007+01 | 1486585013.11101 | pgbench_history  |                0
 2017-02-08 21:16:53.111007+01 | 1486585013.11101 | pgbench_branches |             8192

 2017-02-08 21:16:54.178558+01 | 1486585014.17856 | pgbench_accounts |        693870592
 2017-02-08 21:16:54.178558+01 | 1486585014.17856 | pgbench_tellers  |            24576
 2017-02-08 21:16:54.178558+01 | 1486585014.17856 | pgbench_history  |                0
 2017-02-08 21:16:54.178558+01 | 1486585014.17856 | pgbench_branches |             8192

 2017-02-08 21:16:55.242933+01 | 1486585015.24293 | pgbench_accounts |        693870592
 2017-02-08 21:16:55.242933+01 | 1486585015.24293 | pgbench_tellers  |            24576
 2017-02-08 21:16:55.242933+01 | 1486585015.24293 | pgbench_history  |                0
 2017-02-08 21:16:55.242933+01 | 1486585015.24293 | pgbench_branches |             8192

 2017-02-08 21:16:56.31117+01 | 1486585016.31117 | pgbench_accounts |        693870592
 2017-02-08 21:16:56.31117+01 | 1486585016.31117 | pgbench_tellers  |            24576
 2017-02-08 21:16:56.31117+01 | 1486585016.31117 | pgbench_history  |                0
 2017-02-08 21:16:56.31117+01 | 1486585016.31117 | pgbench_branches |             8192

 2017-02-08 21:16:57.375591+01 | 1486585017.37559 | pgbench_accounts |        693870592
 2017-02-08 21:16:57.375591+01 | 1486585017.37559 | pgbench_tellers  |            24576
 2017-02-08 21:16:57.375591+01 | 1486585017.37559 | pgbench_history  |                0
 2017-02-08 21:16:57.375591+01 | 1486585017.37559 | pgbench_branches |             8192

 2017-02-08 21:16:58.438779+01 | 1486585018.43878 | pgbench_accounts |        693870592
 2017-02-08 21:16:58.438779+01 | 1486585018.43878 | pgbench_tellers  |            24576
 2017-02-08 21:16:58.438779+01 | 1486585018.43878 | pgbench_history  |                0
 2017-02-08 21:16:58.438779+01 | 1486585018.43878 | pgbench_branches |             8192

 2017-02-08 21:16:59.498351+01 | 1486585019.49835 | pgbench_accounts |        693870592
 2017-02-08 21:16:59.498351+01 | 1486585019.49835 | pgbench_tellers  |            24576
 2017-02-08 21:16:59.498351+01 | 1486585019.49835 | pgbench_history  |                0
 2017-02-08 21:16:59.498351+01 | 1486585019.49835 | pgbench_branches |             8192

 2017-02-08 21:17:00.553521+01 | 1486585020.55352 | pgbench_accounts |        693870592
 2017-02-08 21:17:00.553521+01 | 1486585020.55352 | pgbench_tellers  |            24576
 2017-02-08 21:17:00.553521+01 | 1486585020.55352 | pgbench_history  |                0
 2017-02-08 21:17:00.553521+01 | 1486585020.55352 | pgbench_branches |             8192

 2017-02-08 21:17:01.621021+01 | 1486585021.62102 | pgbench_accounts |        693870592
 2017-02-08 21:17:01.621021+01 | 1486585021.62102 | pgbench_tellers  |            24576
 2017-02-08 21:17:01.621021+01 | 1486585021.62102 | pgbench_history  |                0
 2017-02-08 21:17:01.621021+01 | 1486585021.62102 | pgbench_branches |             8192

 2017-02-08 21:17:02.688693+01 | 1486585022.68869 | pgbench_accounts |        693870592
 2017-02-08 21:17:02.688693+01 | 1486585022.68869 | pgbench_tellers  |            24576
 2017-02-08 21:17:02.688693+01 | 1486585022.68869 | pgbench_history  |                0
 2017-02-08 21:17:02.688693+01 | 1486585022.68869 | pgbench_branches |             8192

 2017-02-08 21:17:03.75997+01 | 1486585023.75997 | pgbench_accounts |        693870592
 2017-02-08 21:17:03.75997+01 | 1486585023.75997 | pgbench_tellers  |            24576
 2017-02-08 21:17:03.75997+01 | 1486585023.75997 | pgbench_history  |                0
 2017-02-08 21:17:03.75997+01 | 1486585023.75997 | pgbench_branches |             8192

 2017-02-08 21:17:04.824687+01 | 1486585024.82469 | pgbench_accounts |        693870592
 2017-02-08 21:17:04.824687+01 | 1486585024.82469 | pgbench_tellers  |            24576
 2017-02-08 21:17:04.824687+01 | 1486585024.82469 | pgbench_history  |                0
 2017-02-08 21:17:04.824687+01 | 1486585024.82469 | pgbench_branches |             8192

 2017-02-08 21:17:05.898689+01 | 1486585025.89869 | pgbench_accounts |        693870592
 2017-02-08 21:17:05.898689+01 | 1486585025.89869 | pgbench_tellers  |            24576
 2017-02-08 21:17:05.898689+01 | 1486585025.89869 | pgbench_history  |                0
 2017-02-08 21:17:05.898689+01 | 1486585025.89869 | pgbench_branches |             8192

 2017-02-08 21:17:06.97531+01 | 1486585026.97531 | pgbench_accounts |        693870592
 2017-02-08 21:17:06.97531+01 | 1486585026.97531 | pgbench_tellers  |            24576
 2017-02-08 21:17:06.97531+01 | 1486585026.97531 | pgbench_history  |                0
 2017-02-08 21:17:06.97531+01 | 1486585026.97531 | pgbench_branches |             8192

 2017-02-08 21:17:08.041033+01 | 1486585028.04103 | pgbench_accounts |        693870592
 2017-02-08 21:17:08.041033+01 | 1486585028.04103 | pgbench_tellers  |            24576
 2017-02-08 21:17:08.041033+01 | 1486585028.04103 | pgbench_history  |                0
 2017-02-08 21:17:08.041033+01 | 1486585028.04103 | pgbench_branches |             8192

 2017-02-08 21:17:09.110763+01 | 1486585029.11076 | pgbench_accounts |        693870592
 2017-02-08 21:17:09.110763+01 | 1486585029.11076 | pgbench_tellers  |            24576
 2017-02-08 21:17:09.110763+01 | 1486585029.11076 | pgbench_history  |                0
 2017-02-08 21:17:09.110763+01 | 1486585029.11076 | pgbench_branches |             8192

 2017-02-08 21:17:10.181834+01 | 1486585030.18183 | pgbench_accounts |        693870592
 2017-02-08 21:17:10.181834+01 | 1486585030.18183 | pgbench_tellers  |            24576
 2017-02-08 21:17:10.181834+01 | 1486585030.18183 | pgbench_history  |                0
 2017-02-08 21:17:10.181834+01 | 1486585030.18183 | pgbench_branches |             8192

 2017-02-08 21:17:11.244378+01 | 1486585031.24438 | pgbench_accounts |        693870592
 2017-02-08 21:17:11.244378+01 | 1486585031.24438 | pgbench_tellers  |            24576
 2017-02-08 21:17:11.244378+01 | 1486585031.24438 | pgbench_history  |                0
 2017-02-08 21:17:11.244378+01 | 1486585031.24438 | pgbench_branches |             8192

 2017-02-08 21:17:12.309159+01 | 1486585032.30916 | pgbench_accounts |        693870592
 2017-02-08 21:17:12.309159+01 | 1486585032.30916 | pgbench_tellers  |            24576
 2017-02-08 21:17:12.309159+01 | 1486585032.30916 | pgbench_history  |                0
 2017-02-08 21:17:12.309159+01 | 1486585032.30916 | pgbench_branches |             8192

 2017-02-08 21:17:13.385871+01 | 1486585033.38587 | pgbench_accounts |        693870592
 2017-02-08 21:17:13.385871+01 | 1486585033.38587 | pgbench_tellers  |            24576
 2017-02-08 21:17:13.385871+01 | 1486585033.38587 | pgbench_history  |                0
 2017-02-08 21:17:13.385871+01 | 1486585033.38587 | pgbench_branches |             8192

 2017-02-08 21:17:14.453825+01 | 1486585034.45382 | pgbench_accounts |        693870592
 2017-02-08 21:17:14.453825+01 | 1486585034.45382 | pgbench_tellers  |            24576
 2017-02-08 21:17:14.453825+01 | 1486585034.45382 | pgbench_history  |                0
 2017-02-08 21:17:14.453825+01 | 1486585034.45382 | pgbench_branches |             8192

 2017-02-08 21:17:15.524783+01 | 1486585035.52478 | pgbench_accounts |        693870592
 2017-02-08 21:17:15.524783+01 | 1486585035.52478 | pgbench_tellers  |            24576
 2017-02-08 21:17:15.524783+01 | 1486585035.52478 | pgbench_history  |                0
 2017-02-08 21:17:15.524783+01 | 1486585035.52478 | pgbench_branches |             8192

 2017-02-08 21:17:16.592105+01 | 1486585036.5921 | pgbench_accounts |        693870592
 2017-02-08 21:17:16.592105+01 | 1486585036.5921 | pgbench_tellers  |            24576
 2017-02-08 21:17:16.592105+01 | 1486585036.5921 | pgbench_history  |                0
 2017-02-08 21:17:16.592105+01 | 1486585036.5921 | pgbench_branches |             8192

 2017-02-08 21:17:17.654183+01 | 1486585037.65418 | pgbench_accounts |        693870592
 2017-02-08 21:17:17.654183+01 | 1486585037.65418 | pgbench_tellers  |            24576
 2017-02-08 21:17:17.654183+01 | 1486585037.65418 | pgbench_history  |                0
 2017-02-08 21:17:17.654183+01 | 1486585037.65418 | pgbench_branches |             8192

 2017-02-08 21:17:18.713935+01 | 1486585038.71393 | pgbench_accounts |        693870592
 2017-02-08 21:17:18.713935+01 | 1486585038.71393 | pgbench_tellers  |            24576
 2017-02-08 21:17:18.713935+01 | 1486585038.71393 | pgbench_history  |                0
 2017-02-08 21:17:18.713935+01 | 1486585038.71393 | pgbench_branches |             8192

 2017-02-08 21:17:19.777826+01 | 1486585039.77783 | pgbench_accounts |        693870592
 2017-02-08 21:17:19.777826+01 | 1486585039.77783 | pgbench_tellers  |            24576
 2017-02-08 21:17:19.777826+01 | 1486585039.77783 | pgbench_history  |                0
 2017-02-08 21:17:19.777826+01 | 1486585039.77783 | pgbench_branches |             8192

 2017-02-08 21:17:20.843752+01 | 1486585040.84375 | pgbench_accounts |        693870592
 2017-02-08 21:17:20.843752+01 | 1486585040.84375 | pgbench_tellers  |            24576
 2017-02-08 21:17:20.843752+01 | 1486585040.84375 | pgbench_history  |                0
 2017-02-08 21:17:20.843752+01 | 1486585040.84375 | pgbench_branches |             8192

 2017-02-08 21:17:21.916588+01 | 1486585041.91659 | pgbench_accounts |        693870592
 2017-02-08 21:17:21.916588+01 | 1486585041.91659 | pgbench_tellers  |            24576
 2017-02-08 21:17:21.916588+01 | 1486585041.91659 | pgbench_history  |                0
 2017-02-08 21:17:21.916588+01 | 1486585041.91659 | pgbench_branches |             8192

 2017-02-08 21:17:22.981901+01 | 1486585042.9819 | pgbench_accounts |        693870592
 2017-02-08 21:17:22.981901+01 | 1486585042.9819 | pgbench_tellers  |            24576
 2017-02-08 21:17:22.981901+01 | 1486585042.9819 | pgbench_history  |                0
 2017-02-08 21:17:22.981901+01 | 1486585042.9819 | pgbench_branches |             8192

 2017-02-08 21:17:24.045831+01 | 1486585044.04583 | pgbench_accounts |        693870592
 2017-02-08 21:17:24.045831+01 | 1486585044.04583 | pgbench_tellers  |            24576
 2017-02-08 21:17:24.045831+01 | 1486585044.04583 | pgbench_history  |                0
 2017-02-08 21:17:24.045831+01 | 1486585044.04583 | pgbench_branches |             8192

 2017-02-08 21:17:25.119308+01 | 1486585045.11931 | pgbench_accounts |        693870592
 2017-02-08 21:17:25.119308+01 | 1486585045.11931 | pgbench_tellers  |            24576
 2017-02-08 21:17:25.119308+01 | 1486585045.11931 | pgbench_history  |                0
 2017-02-08 21:17:25.119308+01 | 1486585045.11931 | pgbench_branches |             8192

 2017-02-08 21:17:26.223941+01 | 1486585046.22394 | pgbench_accounts |        693870592
 2017-02-08 21:17:26.223941+01 | 1486585046.22394 | pgbench_tellers  |            24576
 2017-02-08 21:17:26.223941+01 | 1486585046.22394 | pgbench_history  |                0
 2017-02-08 21:17:26.223941+01 | 1486585046.22394 | pgbench_branches |             8192

 2017-02-08 21:17:27.290197+01 | 1486585047.2902 | pgbench_accounts |        693870592
 2017-02-08 21:17:27.290197+01 | 1486585047.2902 | pgbench_tellers  |            24576
 2017-02-08 21:17:27.290197+01 | 1486585047.2902 | pgbench_history  |                0
 2017-02-08 21:17:27.290197+01 | 1486585047.2902 | pgbench_branches |             8192

 2017-02-08 21:17:28.350716+01 | 1486585048.35072 | pgbench_accounts |        693870592
 2017-02-08 21:17:28.350716+01 | 1486585048.35072 | pgbench_tellers  |            24576
 2017-02-08 21:17:28.350716+01 | 1486585048.35072 | pgbench_history  |                0
 2017-02-08 21:17:28.350716+01 | 1486585048.35072 | pgbench_branches |             8192

 2017-02-08 21:17:29.40912+01 | 1486585049.40912 | pgbench_accounts |        693870592
 2017-02-08 21:17:29.40912+01 | 1486585049.40912 | pgbench_tellers  |            24576
 2017-02-08 21:17:29.40912+01 | 1486585049.40912 | pgbench_history  |                0
 2017-02-08 21:17:29.40912+01 | 1486585049.40912 | pgbench_branches |             8192

 2017-02-08 21:17:30.476553+01 | 1486585050.47655 | pgbench_accounts |        693870592
 2017-02-08 21:17:30.476553+01 | 1486585050.47655 | pgbench_tellers  |            24576
 2017-02-08 21:17:30.476553+01 | 1486585050.47655 | pgbench_history  |                0
 2017-02-08 21:17:30.476553+01 | 1486585050.47655 | pgbench_branches |             8192

 2017-02-08 21:17:31.551237+01 | 1486585051.55124 | pgbench_accounts |        693870592
 2017-02-08 21:17:31.551237+01 | 1486585051.55124 | pgbench_tellers  |            24576
 2017-02-08 21:17:31.551237+01 | 1486585051.55124 | pgbench_history  |                0
 2017-02-08 21:17:31.551237+01 | 1486585051.55124 | pgbench_branches |             8192

 2017-02-08 21:17:32.624412+01 | 1486585052.62441 | pgbench_accounts |        693870592
 2017-02-08 21:17:32.624412+01 | 1486585052.62441 | pgbench_tellers  |            24576
 2017-02-08 21:17:32.624412+01 | 1486585052.62441 | pgbench_history  |                0
 2017-02-08 21:17:32.624412+01 | 1486585052.62441 | pgbench_branches |             8192

 2017-02-08 21:17:33.692088+01 | 1486585053.69209 | pgbench_accounts |        693870592
 2017-02-08 21:17:33.692088+01 | 1486585053.69209 | pgbench_tellers  |            24576
 2017-02-08 21:17:33.692088+01 | 1486585053.69209 | pgbench_history  |                0
 2017-02-08 21:17:33.692088+01 | 1486585053.69209 | pgbench_branches |             8192

 2017-02-08 21:17:34.765152+01 | 1486585054.76515 | pgbench_accounts |        693870592
 2017-02-08 21:17:34.765152+01 | 1486585054.76515 | pgbench_tellers  |            24576
 2017-02-08 21:17:34.765152+01 | 1486585054.76515 | pgbench_history  |                0
 2017-02-08 21:17:34.765152+01 | 1486585054.76515 | pgbench_branches |             8192

 2017-02-08 21:17:35.826725+01 | 1486585055.82673 | pgbench_accounts |        693870592
 2017-02-08 21:17:35.826725+01 | 1486585055.82673 | pgbench_tellers  |            24576
 2017-02-08 21:17:35.826725+01 | 1486585055.82673 | pgbench_history  |                0
 2017-02-08 21:17:35.826725+01 | 1486585055.82673 | pgbench_branches |             8192

 2017-02-08 21:17:36.900394+01 | 1486585056.90039 | pgbench_accounts |        693870592
 2017-02-08 21:17:36.900394+01 | 1486585056.90039 | pgbench_tellers  |            24576
 2017-02-08 21:17:36.900394+01 | 1486585056.90039 | pgbench_history  |                0
 2017-02-08 21:17:36.900394+01 | 1486585056.90039 | pgbench_branches |             8192

 2017-02-08 21:17:37.961056+01 | 1486585057.96106 | pgbench_accounts |        693870592
 2017-02-08 21:17:37.961056+01 | 1486585057.96106 | pgbench_tellers  |            24576
 2017-02-08 21:17:37.961056+01 | 1486585057.96106 | pgbench_history  |                0
 2017-02-08 21:17:37.961056+01 | 1486585057.96106 | pgbench_branches |             8192

 2017-02-08 21:17:39.026777+01 | 1486585059.02678 | pgbench_accounts |        693870592
 2017-02-08 21:17:39.026777+01 | 1486585059.02678 | pgbench_tellers  |            24576
 2017-02-08 21:17:39.026777+01 | 1486585059.02678 | pgbench_history  |                0
 2017-02-08 21:17:39.026777+01 | 1486585059.02678 | pgbench_branches |             8192

 2017-02-08 21:17:40.095571+01 | 1486585060.09557 | pgbench_accounts |        693870592
 2017-02-08 21:17:40.095571+01 | 1486585060.09557 | pgbench_tellers  |            24576
 2017-02-08 21:17:40.095571+01 | 1486585060.09557 | pgbench_history  |                0
 2017-02-08 21:17:40.095571+01 | 1486585060.09557 | pgbench_branches |             8192

 2017-02-08 21:17:41.157141+01 | 1486585061.15714 | pgbench_accounts |        693870592
 2017-02-08 21:17:41.157141+01 | 1486585061.15714 | pgbench_tellers  |            24576
 2017-02-08 21:17:41.157141+01 | 1486585061.15714 | pgbench_history  |                0
 2017-02-08 21:17:41.157141+01 | 1486585061.15714 | pgbench_branches |             8192

 2017-02-08 21:17:42.227542+01 | 1486585062.22754 | pgbench_accounts |        693870592
 2017-02-08 21:17:42.227542+01 | 1486585062.22754 | pgbench_tellers  |            24576
 2017-02-08 21:17:42.227542+01 | 1486585062.22754 | pgbench_history  |                0
 2017-02-08 21:17:42.227542+01 | 1486585062.22754 | pgbench_branches |             8192

 2017-02-08 21:17:43.291382+01 | 1486585063.29138 | pgbench_accounts |        693870592
 2017-02-08 21:17:43.291382+01 | 1486585063.29138 | pgbench_tellers  |            24576
 2017-02-08 21:17:43.291382+01 | 1486585063.29138 | pgbench_history  |                0
 2017-02-08 21:17:43.291382+01 | 1486585063.29138 | pgbench_branches |             8192

 2017-02-08 21:17:44.354511+01 | 1486585064.35451 | pgbench_accounts |        693870592
 2017-02-08 21:17:44.354511+01 | 1486585064.35451 | pgbench_tellers  |            24576
 2017-02-08 21:17:44.354511+01 | 1486585064.35451 | pgbench_history  |                0
 2017-02-08 21:17:44.354511+01 | 1486585064.35451 | pgbench_branches |             8192

 2017-02-08 21:17:45.4136+01 | 1486585065.4136 | pgbench_accounts |        693870592
 2017-02-08 21:17:45.4136+01 | 1486585065.4136 | pgbench_tellers  |            24576
 2017-02-08 21:17:45.4136+01 | 1486585065.4136 | pgbench_history  |                0
 2017-02-08 21:17:45.4136+01 | 1486585065.4136 | pgbench_branches |             8192

 2017-02-08 21:17:46.480236+01 | 1486585066.48024 | pgbench_accounts |        693870592
 2017-02-08 21:17:46.480236+01 | 1486585066.48024 | pgbench_tellers  |            24576
 2017-02-08 21:17:46.480236+01 | 1486585066.48024 | pgbench_history  |                0
 2017-02-08 21:17:46.480236+01 | 1486585066.48024 | pgbench_branches |             8192

 2017-02-08 21:17:47.551343+01 | 1486585067.55134 | pgbench_accounts |        693870592
 2017-02-08 21:17:47.551343+01 | 1486585067.55134 | pgbench_tellers  |            24576
 2017-02-08 21:17:47.551343+01 | 1486585067.55134 | pgbench_history  |                0
 2017-02-08 21:17:47.551343+01 | 1486585067.55134 | pgbench_branches |             8192

 2017-02-08 21:17:48.622417+01 | 1486585068.62242 | pgbench_accounts |        693870592
 2017-02-08 21:17:48.622417+01 | 1486585068.62242 | pgbench_tellers  |            24576
 2017-02-08 21:17:48.622417+01 | 1486585068.62242 | pgbench_history  |                0
 2017-02-08 21:17:48.622417+01 | 1486585068.62242 | pgbench_branches |             8192

 2017-02-08 21:17:49.686144+01 | 1486585069.68614 | pgbench_accounts |        693870592
 2017-02-08 21:17:49.686144+01 | 1486585069.68614 | pgbench_tellers  |            24576
 2017-02-08 21:17:49.686144+01 | 1486585069.68614 | pgbench_history  |                0
 2017-02-08 21:17:49.686144+01 | 1486585069.68614 | pgbench_branches |             8192

 2017-02-08 21:17:50.740347+01 | 1486585070.74035 | pgbench_accounts |        693870592
 2017-02-08 21:17:50.740347+01 | 1486585070.74035 | pgbench_tellers  |            24576
 2017-02-08 21:17:50.740347+01 | 1486585070.74035 | pgbench_history  |                0
 2017-02-08 21:17:50.740347+01 | 1486585070.74035 | pgbench_branches |             8192

 2017-02-08 21:17:51.823176+01 | 1486585071.82318 | pgbench_accounts |        693870592
 2017-02-08 21:17:51.823176+01 | 1486585071.82318 | pgbench_tellers  |            24576
 2017-02-08 21:17:51.823176+01 | 1486585071.82318 | pgbench_history  |                0
 2017-02-08 21:17:51.823176+01 | 1486585071.82318 | pgbench_branches |             8192

 2017-02-08 21:17:52.89266+01 | 1486585072.89266 | pgbench_accounts |        693870592
 2017-02-08 21:17:52.89266+01 | 1486585072.89266 | pgbench_tellers  |            24576
 2017-02-08 21:17:52.89266+01 | 1486585072.89266 | pgbench_history  |                0
 2017-02-08 21:17:52.89266+01 | 1486585072.89266 | pgbench_branches |             8192

 2017-02-08 21:17:53.963141+01 | 1486585073.96314 | pgbench_accounts |        693870592
 2017-02-08 21:17:53.963141+01 | 1486585073.96314 | pgbench_tellers  |            24576
 2017-02-08 21:17:53.963141+01 | 1486585073.96314 | pgbench_history  |                0
 2017-02-08 21:17:53.963141+01 | 1486585073.96314 | pgbench_branches |             8192

 2017-02-08 21:17:55.029139+01 | 1486585075.02914 | pgbench_accounts |        693870592
 2017-02-08 21:17:55.029139+01 | 1486585075.02914 | pgbench_tellers  |            24576
 2017-02-08 21:17:55.029139+01 | 1486585075.02914 | pgbench_history  |                0
 2017-02-08 21:17:55.029139+01 | 1486585075.02914 | pgbench_branches |             8192

 2017-02-08 21:17:56.101817+01 | 1486585076.10182 | pgbench_accounts |        693870592
 2017-02-08 21:17:56.101817+01 | 1486585076.10182 | pgbench_tellers  |            24576
 2017-02-08 21:17:56.101817+01 | 1486585076.10182 | pgbench_history  |                0
 2017-02-08 21:17:56.101817+01 | 1486585076.10182 | pgbench_branches |             8192

 2017-02-08 21:17:57.167444+01 | 1486585077.16744 | pgbench_accounts |        693870592
 2017-02-08 21:17:57.167444+01 | 1486585077.16744 | pgbench_tellers  |            24576
 2017-02-08 21:17:57.167444+01 | 1486585077.16744 | pgbench_history  |                0
 2017-02-08 21:17:57.167444+01 | 1486585077.16744 | pgbench_branches |             8192

 2017-02-08 21:17:58.237744+01 | 1486585078.23774 | pgbench_accounts |        693870592
 2017-02-08 21:17:58.237744+01 | 1486585078.23774 | pgbench_tellers  |            24576
 2017-02-08 21:17:58.237744+01 | 1486585078.23774 | pgbench_history  |                0
 2017-02-08 21:17:58.237744+01 | 1486585078.23774 | pgbench_branches |             8192

 2017-02-08 21:17:59.30641+01 | 1486585079.30641 | pgbench_accounts |        693870592
 2017-02-08 21:17:59.30641+01 | 1486585079.30641 | pgbench_tellers  |            24576
 2017-02-08 21:17:59.30641+01 | 1486585079.30641 | pgbench_history  |                0
 2017-02-08 21:17:59.30641+01 | 1486585079.30641 | pgbench_branches |             8192

 2017-02-08 21:18:00.377408+01 | 1486585080.37741 | pgbench_accounts |        693870592
 2017-02-08 21:18:00.377408+01 | 1486585080.37741 | pgbench_tellers  |            24576
 2017-02-08 21:18:00.377408+01 | 1486585080.37741 | pgbench_history  |                0
 2017-02-08 21:18:00.377408+01 | 1486585080.37741 | pgbench_branches |             8192

 2017-02-08 21:18:01.453656+01 | 1486585081.45366 | pgbench_accounts |        693870592
 2017-02-08 21:18:01.453656+01 | 1486585081.45366 | pgbench_tellers  |            24576
 2017-02-08 21:18:01.453656+01 | 1486585081.45366 | pgbench_history  |                0
 2017-02-08 21:18:01.453656+01 | 1486585081.45366 | pgbench_branches |             8192

 2017-02-08 21:18:02.517152+01 | 1486585082.51715 | pgbench_accounts |        693870592
 2017-02-08 21:18:02.517152+01 | 1486585082.51715 | pgbench_tellers  |            24576
 2017-02-08 21:18:02.517152+01 | 1486585082.51715 | pgbench_history  |                0
 2017-02-08 21:18:02.517152+01 | 1486585082.51715 | pgbench_branches |             8192

 2017-02-08 21:18:03.580899+01 | 1486585083.5809 | pgbench_accounts |        693870592
 2017-02-08 21:18:03.580899+01 | 1486585083.5809 | pgbench_tellers  |            24576
 2017-02-08 21:18:03.580899+01 | 1486585083.5809 | pgbench_history  |                0
 2017-02-08 21:18:03.580899+01 | 1486585083.5809 | pgbench_branches |             8192

 2017-02-08 21:18:04.640789+01 | 1486585084.64079 | pgbench_accounts |        693870592
 2017-02-08 21:18:04.640789+01 | 1486585084.64079 | pgbench_tellers  |            24576
 2017-02-08 21:18:04.640789+01 | 1486585084.64079 | pgbench_history  |                0
 2017-02-08 21:18:04.640789+01 | 1486585084.64079 | pgbench_branches |             8192

 2017-02-08 21:18:05.698081+01 | 1486585085.69808 | pgbench_accounts |        693870592
 2017-02-08 21:18:05.698081+01 | 1486585085.69808 | pgbench_tellers  |            24576
 2017-02-08 21:18:05.698081+01 | 1486585085.69808 | pgbench_history  |                0
 2017-02-08 21:18:05.698081+01 | 1486585085.69808 | pgbench_branches |             8192

 2017-02-08 21:18:06.764001+01 | 1486585086.764 | pgbench_accounts |        693870592
 2017-02-08 21:18:06.764001+01 | 1486585086.764 | pgbench_tellers  |            24576
 2017-02-08 21:18:06.764001+01 | 1486585086.764 | pgbench_history  |                0
 2017-02-08 21:18:06.764001+01 | 1486585086.764 | pgbench_branches |             8192

 2017-02-08 21:18:07.820891+01 | 1486585087.82089 | pgbench_accounts |        693870592
 2017-02-08 21:18:07.820891+01 | 1486585087.82089 | pgbench_tellers  |            24576
 2017-02-08 21:18:07.820891+01 | 1486585087.82089 | pgbench_history  |                0
 2017-02-08 21:18:07.820891+01 | 1486585087.82089 | pgbench_branches |             8192

 2017-02-08 21:18:08.876502+01 | 1486585088.8765 | pgbench_accounts |        693870592
 2017-02-08 21:18:08.876502+01 | 1486585088.8765 | pgbench_tellers  |            24576
 2017-02-08 21:18:08.876502+01 | 1486585088.8765 | pgbench_history  |                0
 2017-02-08 21:18:08.876502+01 | 1486585088.8765 | pgbench_branches |             8192

 2017-02-08 21:18:09.944877+01 | 1486585089.94488 | pgbench_accounts |        693870592
 2017-02-08 21:18:09.944877+01 | 1486585089.94488 | pgbench_tellers  |            24576
 2017-02-08 21:18:09.944877+01 | 1486585089.94488 | pgbench_history  |                0
 2017-02-08 21:18:09.944877+01 | 1486585089.94488 | pgbench_branches |             8192

 2017-02-08 21:18:11.018885+01 | 1486585091.01888 | pgbench_accounts |        693870592
 2017-02-08 21:18:11.018885+01 | 1486585091.01888 | pgbench_tellers  |            24576
 2017-02-08 21:18:11.018885+01 | 1486585091.01888 | pgbench_history  |                0
 2017-02-08 21:18:11.018885+01 | 1486585091.01888 | pgbench_branches |             8192

 2017-02-08 21:18:12.073688+01 | 1486585092.07369 | pgbench_accounts |        693870592
 2017-02-08 21:18:12.073688+01 | 1486585092.07369 | pgbench_tellers  |            24576
 2017-02-08 21:18:12.073688+01 | 1486585092.07369 | pgbench_history  |                0
 2017-02-08 21:18:12.073688+01 | 1486585092.07369 | pgbench_branches |             8192

 2017-02-08 21:18:13.140515+01 | 1486585093.14052 | pgbench_accounts |        693870592
 2017-02-08 21:18:13.140515+01 | 1486585093.14052 | pgbench_tellers  |            24576
 2017-02-08 21:18:13.140515+01 | 1486585093.14052 | pgbench_history  |                0
 2017-02-08 21:18:13.140515+01 | 1486585093.14052 | pgbench_branches |             8192

 2017-02-08 21:18:14.220869+01 | 1486585094.22087 | pgbench_accounts |        693870592
 2017-02-08 21:18:14.220869+01 | 1486585094.22087 | pgbench_tellers  |            24576
 2017-02-08 21:18:14.220869+01 | 1486585094.22087 | pgbench_history  |                0
 2017-02-08 21:18:14.220869+01 | 1486585094.22087 | pgbench_branches |             8192

 2017-02-08 21:18:15.286763+01 | 1486585095.28676 | pgbench_accounts |        693870592
 2017-02-08 21:18:15.286763+01 | 1486585095.28676 | pgbench_tellers  |            24576
 2017-02-08 21:18:15.286763+01 | 1486585095.28676 | pgbench_history  |                0
 2017-02-08 21:18:15.286763+01 | 1486585095.28676 | pgbench_branches |             8192

 2017-02-08 21:18:16.354031+01 | 1486585096.35403 | pgbench_accounts |        693870592
 2017-02-08 21:18:16.354031+01 | 1486585096.35403 | pgbench_tellers  |            24576
 2017-02-08 21:18:16.354031+01 | 1486585096.35403 | pgbench_history  |                0
 2017-02-08 21:18:16.354031+01 | 1486585096.35403 | pgbench_branches |             8192

 2017-02-08 21:18:17.416399+01 | 1486585097.4164 | pgbench_accounts |        693870592
 2017-02-08 21:18:17.416399+01 | 1486585097.4164 | pgbench_tellers  |            24576
 2017-02-08 21:18:17.416399+01 | 1486585097.4164 | pgbench_history  |                0
 2017-02-08 21:18:17.416399+01 | 1486585097.4164 | pgbench_branches |             8192

 2017-02-08 21:18:18.475481+01 | 1486585098.47548 | pgbench_accounts |        693870592
 2017-02-08 21:18:18.475481+01 | 1486585098.47548 | pgbench_tellers  |            24576
 2017-02-08 21:18:18.475481+01 | 1486585098.47548 | pgbench_history  |                0
 2017-02-08 21:18:18.475481+01 | 1486585098.47548 | pgbench_branches |             8192

 2017-02-08 21:18:19.542049+01 | 1486585099.54205 | pgbench_accounts |        693870592
 2017-02-08 21:18:19.542049+01 | 1486585099.54205 | pgbench_tellers  |            24576
 2017-02-08 21:18:19.542049+01 | 1486585099.54205 | pgbench_history  |                0
 2017-02-08 21:18:19.542049+01 | 1486585099.54205 | pgbench_branches |             8192

 2017-02-08 21:18:20.611955+01 | 1486585100.61195 | pgbench_accounts |        693870592
 2017-02-08 21:18:20.611955+01 | 1486585100.61195 | pgbench_tellers  |            24576
 2017-02-08 21:18:20.611955+01 | 1486585100.61195 | pgbench_history  |                0
 2017-02-08 21:18:20.611955+01 | 1486585100.61195 | pgbench_branches |             8192

 2017-02-08 21:18:21.671086+01 | 1486585101.67109 | pgbench_accounts |        693870592
 2017-02-08 21:18:21.671086+01 | 1486585101.67109 | pgbench_tellers  |            24576
 2017-02-08 21:18:21.671086+01 | 1486585101.67109 | pgbench_history  |                0
 2017-02-08 21:18:21.671086+01 | 1486585101.67109 | pgbench_branches |             8192

 2017-02-08 21:18:22.736828+01 | 1486585102.73683 | pgbench_accounts |        693870592
 2017-02-08 21:18:22.736828+01 | 1486585102.73683 | pgbench_tellers  |            24576
 2017-02-08 21:18:22.736828+01 | 1486585102.73683 | pgbench_history  |                0
 2017-02-08 21:18:22.736828+01 | 1486585102.73683 | pgbench_branches |             8192

 2017-02-08 21:18:23.787527+01 | 1486585103.78753 | pgbench_accounts |        693870592
 2017-02-08 21:18:23.787527+01 | 1486585103.78753 | pgbench_tellers  |            24576
 2017-02-08 21:18:23.787527+01 | 1486585103.78753 | pgbench_history  |                0
 2017-02-08 21:18:23.787527+01 | 1486585103.78753 | pgbench_branches |             8192

 2017-02-08 21:18:24.86389+01 | 1486585104.86389 | pgbench_accounts |        693870592
 2017-02-08 21:18:24.86389+01 | 1486585104.86389 | pgbench_tellers  |            24576
 2017-02-08 21:18:24.86389+01 | 1486585104.86389 | pgbench_history  |                0
 2017-02-08 21:18:24.86389+01 | 1486585104.86389 | pgbench_branches |             8192

 2017-02-08 21:18:25.936787+01 | 1486585105.93679 | pgbench_accounts |        693870592
 2017-02-08 21:18:25.936787+01 | 1486585105.93679 | pgbench_tellers  |            24576
 2017-02-08 21:18:25.936787+01 | 1486585105.93679 | pgbench_history  |                0
 2017-02-08 21:18:25.936787+01 | 1486585105.93679 | pgbench_branches |             8192

 2017-02-08 21:18:26.997045+01 | 1486585106.99705 | pgbench_accounts |        693870592
 2017-02-08 21:18:26.997045+01 | 1486585106.99705 | pgbench_tellers  |            24576
 2017-02-08 21:18:26.997045+01 | 1486585106.99705 | pgbench_history  |                0
 2017-02-08 21:18:26.997045+01 | 1486585106.99705 | pgbench_branches |             8192

 2017-02-08 21:18:28.069007+01 | 1486585108.06901 | pgbench_accounts |        693870592
 2017-02-08 21:18:28.069007+01 | 1486585108.06901 | pgbench_tellers  |            24576
 2017-02-08 21:18:28.069007+01 | 1486585108.06901 | pgbench_history  |                0
 2017-02-08 21:18:28.069007+01 | 1486585108.06901 | pgbench_branches |             8192

 2017-02-08 21:18:29.137865+01 | 1486585109.13787 | pgbench_accounts |        693870592
 2017-02-08 21:18:29.137865+01 | 1486585109.13787 | pgbench_tellers  |            24576
 2017-02-08 21:18:29.137865+01 | 1486585109.13787 | pgbench_history  |                0
 2017-02-08 21:18:29.137865+01 | 1486585109.13787 | pgbench_branches |             8192

 2017-02-08 21:18:30.214834+01 | 1486585110.21483 | pgbench_accounts |        693870592
 2017-02-08 21:18:30.214834+01 | 1486585110.21483 | pgbench_tellers  |            24576
 2017-02-08 21:18:30.214834+01 | 1486585110.21483 | pgbench_history  |                0
 2017-02-08 21:18:30.214834+01 | 1486585110.21483 | pgbench_branches |             8192

 2017-02-08 21:18:31.28506+01 | 1486585111.28506 | pgbench_accounts |        693870592
 2017-02-08 21:18:31.28506+01 | 1486585111.28506 | pgbench_tellers  |            24576
 2017-02-08 21:18:31.28506+01 | 1486585111.28506 | pgbench_history  |                0
 2017-02-08 21:18:31.28506+01 | 1486585111.28506 | pgbench_branches |             8192

 2017-02-08 21:18:32.354934+01 | 1486585112.35493 | pgbench_accounts |        693870592
 2017-02-08 21:18:32.354934+01 | 1486585112.35493 | pgbench_tellers  |            24576
 2017-02-08 21:18:32.354934+01 | 1486585112.35493 | pgbench_history  |                0
 2017-02-08 21:18:32.354934+01 | 1486585112.35493 | pgbench_branches |             8192

 2017-02-08 21:18:33.414114+01 | 1486585113.41411 | pgbench_accounts |        693870592
 2017-02-08 21:18:33.414114+01 | 1486585113.41411 | pgbench_tellers  |            24576
 2017-02-08 21:18:33.414114+01 | 1486585113.41411 | pgbench_history  |                0
 2017-02-08 21:18:33.414114+01 | 1486585113.41411 | pgbench_branches |             8192

 2017-02-08 21:18:34.481518+01 | 1486585114.48152 | pgbench_accounts |        693870592
 2017-02-08 21:18:34.481518+01 | 1486585114.48152 | pgbench_tellers  |            24576
 2017-02-08 21:18:34.481518+01 | 1486585114.48152 | pgbench_history  |                0
 2017-02-08 21:18:34.481518+01 | 1486585114.48152 | pgbench_branches |             8192

 2017-02-08 21:18:35.553568+01 | 1486585115.55357 | pgbench_accounts |        693870592
 2017-02-08 21:18:35.553568+01 | 1486585115.55357 | pgbench_tellers  |            24576
 2017-02-08 21:18:35.553568+01 | 1486585115.55357 | pgbench_history  |                0
 2017-02-08 21:18:35.553568+01 | 1486585115.55357 | pgbench_branches |             8192

 2017-02-08 21:18:36.618872+01 | 1486585116.61887 | pgbench_accounts |        693870592
 2017-02-08 21:18:36.618872+01 | 1486585116.61887 | pgbench_tellers  |            24576
 2017-02-08 21:18:36.618872+01 | 1486585116.61887 | pgbench_history  |                0
 2017-02-08 21:18:36.618872+01 | 1486585116.61887 | pgbench_branches |             8192

 2017-02-08 21:18:37.684942+01 | 1486585117.68494 | pgbench_accounts |        693870592
 2017-02-08 21:18:37.684942+01 | 1486585117.68494 | pgbench_tellers  |            24576
 2017-02-08 21:18:37.684942+01 | 1486585117.68494 | pgbench_history  |                0
 2017-02-08 21:18:37.684942+01 | 1486585117.68494 | pgbench_branches |             8192

 2017-02-08 21:18:38.744271+01 | 1486585118.74427 | pgbench_accounts |        693870592
 2017-02-08 21:18:38.744271+01 | 1486585118.74427 | pgbench_tellers  |            24576
 2017-02-08 21:18:38.744271+01 | 1486585118.74427 | pgbench_history  |                0
 2017-02-08 21:18:38.744271+01 | 1486585118.74427 | pgbench_branches |             8192

 2017-02-08 21:18:39.812874+01 | 1486585119.81287 | pgbench_accounts |        693870592
 2017-02-08 21:18:39.812874+01 | 1486585119.81287 | pgbench_tellers  |            24576
 2017-02-08 21:18:39.812874+01 | 1486585119.81287 | pgbench_history  |                0
 2017-02-08 21:18:39.812874+01 | 1486585119.81287 | pgbench_branches |             8192

 2017-02-08 21:18:40.895701+01 | 1486585120.8957 | pgbench_accounts |        693870592
 2017-02-08 21:18:40.895701+01 | 1486585120.8957 | pgbench_tellers  |            24576
 2017-02-08 21:18:40.895701+01 | 1486585120.8957 | pgbench_history  |                0
 2017-02-08 21:18:40.895701+01 | 1486585120.8957 | pgbench_branches |             8192

 2017-02-08 21:18:41.961496+01 | 1486585121.9615 | pgbench_accounts |        693870592
 2017-02-08 21:18:41.961496+01 | 1486585121.9615 | pgbench_tellers  |            24576
 2017-02-08 21:18:41.961496+01 | 1486585121.9615 | pgbench_history  |                0
 2017-02-08 21:18:41.961496+01 | 1486585121.9615 | pgbench_branches |             8192

 2017-02-08 21:18:43.03417+01 | 1486585123.03417 | pgbench_accounts |        693870592
 2017-02-08 21:18:43.03417+01 | 1486585123.03417 | pgbench_tellers  |            24576
 2017-02-08 21:18:43.03417+01 | 1486585123.03417 | pgbench_history  |                0
 2017-02-08 21:18:43.03417+01 | 1486585123.03417 | pgbench_branches |             8192

 2017-02-08 21:18:44.094335+01 | 1486585124.09434 | pgbench_accounts |        693870592
 2017-02-08 21:18:44.094335+01 | 1486585124.09434 | pgbench_tellers  |            24576
 2017-02-08 21:18:44.094335+01 | 1486585124.09434 | pgbench_history  |                0
 2017-02-08 21:18:44.094335+01 | 1486585124.09434 | pgbench_branches |             8192

 2017-02-08 21:18:45.159141+01 | 1486585125.15914 | pgbench_accounts |        693870592
 2017-02-08 21:18:45.159141+01 | 1486585125.15914 | pgbench_tellers  |            24576
 2017-02-08 21:18:45.159141+01 | 1486585125.15914 | pgbench_history  |                0
 2017-02-08 21:18:45.159141+01 | 1486585125.15914 | pgbench_branches |             8192

 2017-02-08 21:18:46.211822+01 | 1486585126.21182 | pgbench_accounts |        693870592
 2017-02-08 21:18:46.211822+01 | 1486585126.21182 | pgbench_tellers  |            24576
 2017-02-08 21:18:46.211822+01 | 1486585126.21182 | pgbench_history  |                0
 2017-02-08 21:18:46.211822+01 | 1486585126.21182 | pgbench_branches |             8192

 2017-02-08 21:18:47.275422+01 | 1486585127.27542 | pgbench_accounts |        693870592
 2017-02-08 21:18:47.275422+01 | 1486585127.27542 | pgbench_tellers  |            24576
 2017-02-08 21:18:47.275422+01 | 1486585127.27542 | pgbench_history  |                0
 2017-02-08 21:18:47.275422+01 | 1486585127.27542 | pgbench_branches |             8192

 2017-02-08 21:18:48.346727+01 | 1486585128.34673 | pgbench_accounts |        693870592
 2017-02-08 21:18:48.346727+01 | 1486585128.34673 | pgbench_tellers  |            24576
 2017-02-08 21:18:48.346727+01 | 1486585128.34673 | pgbench_history  |                0
 2017-02-08 21:18:48.346727+01 | 1486585128.34673 | pgbench_branches |             8192

 2017-02-08 21:18:49.404623+01 | 1486585129.40462 | pgbench_accounts |        693870592
 2017-02-08 21:18:49.404623+01 | 1486585129.40462 | pgbench_tellers  |            24576
 2017-02-08 21:18:49.404623+01 | 1486585129.40462 | pgbench_history  |                0
 2017-02-08 21:18:49.404623+01 | 1486585129.40462 | pgbench_branches |             8192

 2017-02-08 21:18:50.461722+01 | 1486585130.46172 | pgbench_accounts |        693870592
 2017-02-08 21:18:50.461722+01 | 1486585130.46172 | pgbench_tellers  |            24576
 2017-02-08 21:18:50.461722+01 | 1486585130.46172 | pgbench_history  |                0
 2017-02-08 21:18:50.461722+01 | 1486585130.46172 | pgbench_branches |             8192

 2017-02-08 21:18:51.531203+01 | 1486585131.5312 | pgbench_accounts |        693870592
 2017-02-08 21:18:51.531203+01 | 1486585131.5312 | pgbench_tellers  |            24576
 2017-02-08 21:18:51.531203+01 | 1486585131.5312 | pgbench_history  |                0
 2017-02-08 21:18:51.531203+01 | 1486585131.5312 | pgbench_branches |             8192

 2017-02-08 21:18:52.597835+01 | 1486585132.59784 | pgbench_accounts |        693870592
 2017-02-08 21:18:52.597835+01 | 1486585132.59784 | pgbench_tellers  |            24576
 2017-02-08 21:18:52.597835+01 | 1486585132.59784 | pgbench_history  |                0
 2017-02-08 21:18:52.597835+01 | 1486585132.59784 | pgbench_branches |             8192

 2017-02-08 21:18:53.677258+01 | 1486585133.67726 | pgbench_accounts |        693870592
 2017-02-08 21:18:53.677258+01 | 1486585133.67726 | pgbench_tellers  |            24576
 2017-02-08 21:18:53.677258+01 | 1486585133.67726 | pgbench_history  |                0
 2017-02-08 21:18:53.677258+01 | 1486585133.67726 | pgbench_branches |             8192

 2017-02-08 21:18:54.749909+01 | 1486585134.74991 | pgbench_accounts |        693870592
 2017-02-08 21:18:54.749909+01 | 1486585134.74991 | pgbench_tellers  |            24576
 2017-02-08 21:18:54.749909+01 | 1486585134.74991 | pgbench_history  |                0
 2017-02-08 21:18:54.749909+01 | 1486585134.74991 | pgbench_branches |             8192

 2017-02-08 21:18:55.823427+01 | 1486585135.82343 | pgbench_accounts |        693870592
 2017-02-08 21:18:55.823427+01 | 1486585135.82343 | pgbench_tellers  |            24576
 2017-02-08 21:18:55.823427+01 | 1486585135.82343 | pgbench_history  |                0
 2017-02-08 21:18:55.823427+01 | 1486585135.82343 | pgbench_branches |             8192

 2017-02-08 21:18:56.902744+01 | 1486585136.90274 | pgbench_accounts |        693870592
 2017-02-08 21:18:56.902744+01 | 1486585136.90274 | pgbench_tellers  |            24576
 2017-02-08 21:18:56.902744+01 | 1486585136.90274 | pgbench_history  |                0
 2017-02-08 21:18:56.902744+01 | 1486585136.90274 | pgbench_branches |             8192

 2017-02-08 21:18:57.971926+01 | 1486585137.97193 | pgbench_accounts |        693870592
 2017-02-08 21:18:57.971926+01 | 1486585137.97193 | pgbench_tellers  |            24576
 2017-02-08 21:18:57.971926+01 | 1486585137.97193 | pgbench_history  |                0
 2017-02-08 21:18:57.971926+01 | 1486585137.97193 | pgbench_branches |             8192

 2017-02-08 21:18:59.040062+01 | 1486585139.04006 | pgbench_accounts |        693870592
 2017-02-08 21:18:59.040062+01 | 1486585139.04006 | pgbench_tellers  |            24576
 2017-02-08 21:18:59.040062+01 | 1486585139.04006 | pgbench_history  |                0
 2017-02-08 21:18:59.040062+01 | 1486585139.04006 | pgbench_branches |             8192

 2017-02-08 21:19:00.110711+01 | 1486585140.11071 | pgbench_accounts |        693870592
 2017-02-08 21:19:00.110711+01 | 1486585140.11071 | pgbench_tellers  |            24576
 2017-02-08 21:19:00.110711+01 | 1486585140.11071 | pgbench_history  |                0
 2017-02-08 21:19:00.110711+01 | 1486585140.11071 | pgbench_branches |             8192

 2017-02-08 21:19:01.171656+01 | 1486585141.17166 | pgbench_accounts |        693870592
 2017-02-08 21:19:01.171656+01 | 1486585141.17166 | pgbench_tellers  |            24576
 2017-02-08 21:19:01.171656+01 | 1486585141.17166 | pgbench_history  |                0
 2017-02-08 21:19:01.171656+01 | 1486585141.17166 | pgbench_branches |             8192

 2017-02-08 21:19:02.235749+01 | 1486585142.23575 | pgbench_accounts |        693870592
 2017-02-08 21:19:02.235749+01 | 1486585142.23575 | pgbench_tellers  |            24576
 2017-02-08 21:19:02.235749+01 | 1486585142.23575 | pgbench_history  |                0
 2017-02-08 21:19:02.235749+01 | 1486585142.23575 | pgbench_branches |             8192

 2017-02-08 21:19:03.291459+01 | 1486585143.29146 | pgbench_accounts |        693870592
 2017-02-08 21:19:03.291459+01 | 1486585143.29146 | pgbench_tellers  |            24576
 2017-02-08 21:19:03.291459+01 | 1486585143.29146 | pgbench_history  |                0
 2017-02-08 21:19:03.291459+01 | 1486585143.29146 | pgbench_branches |             8192

 2017-02-08 21:19:04.374673+01 | 1486585144.37467 | pgbench_accounts |        693870592
 2017-02-08 21:19:04.374673+01 | 1486585144.37467 | pgbench_tellers  |            24576
 2017-02-08 21:19:04.374673+01 | 1486585144.37467 | pgbench_history  |                0
 2017-02-08 21:19:04.374673+01 | 1486585144.37467 | pgbench_branches |             8192

 2017-02-08 21:19:05.448401+01 | 1486585145.4484 | pgbench_accounts |        693870592
 2017-02-08 21:19:05.448401+01 | 1486585145.4484 | pgbench_tellers  |            24576
 2017-02-08 21:19:05.448401+01 | 1486585145.4484 | pgbench_history  |                0
 2017-02-08 21:19:05.448401+01 | 1486585145.4484 | pgbench_branches |             8192

 2017-02-08 21:19:06.512947+01 | 1486585146.51295 | pgbench_accounts |        693870592
 2017-02-08 21:19:06.512947+01 | 1486585146.51295 | pgbench_tellers  |            24576
 2017-02-08 21:19:06.512947+01 | 1486585146.51295 | pgbench_history  |                0
 2017-02-08 21:19:06.512947+01 | 1486585146.51295 | pgbench_branches |             8192

 2017-02-08 21:19:07.575809+01 | 1486585147.57581 | pgbench_accounts |        693870592
 2017-02-08 21:19:07.575809+01 | 1486585147.57581 | pgbench_tellers  |            24576
 2017-02-08 21:19:07.575809+01 | 1486585147.57581 | pgbench_history  |                0
 2017-02-08 21:19:07.575809+01 | 1486585147.57581 | pgbench_branches |             8192

 2017-02-08 21:19:08.634602+01 | 1486585148.6346 | pgbench_accounts |        693870592
 2017-02-08 21:19:08.634602+01 | 1486585148.6346 | pgbench_tellers  |            24576
 2017-02-08 21:19:08.634602+01 | 1486585148.6346 | pgbench_history  |                0
 2017-02-08 21:19:08.634602+01 | 1486585148.6346 | pgbench_branches |             8192

 2017-02-08 21:19:09.707112+01 | 1486585149.70711 | pgbench_accounts |        693870592
 2017-02-08 21:19:09.707112+01 | 1486585149.70711 | pgbench_tellers  |            24576
 2017-02-08 21:19:09.707112+01 | 1486585149.70711 | pgbench_history  |                0
 2017-02-08 21:19:09.707112+01 | 1486585149.70711 | pgbench_branches |             8192

 2017-02-08 21:19:10.78586+01 | 1486585150.78586 | pgbench_accounts |        693870592
 2017-02-08 21:19:10.78586+01 | 1486585150.78586 | pgbench_tellers  |            24576
 2017-02-08 21:19:10.78586+01 | 1486585150.78586 | pgbench_history  |                0
 2017-02-08 21:19:10.78586+01 | 1486585150.78586 | pgbench_branches |             8192

 2017-02-08 21:19:11.851651+01 | 1486585151.85165 | pgbench_accounts |        693870592
 2017-02-08 21:19:11.851651+01 | 1486585151.85165 | pgbench_tellers  |            24576
 2017-02-08 21:19:11.851651+01 | 1486585151.85165 | pgbench_history  |                0
 2017-02-08 21:19:11.851651+01 | 1486585151.85165 | pgbench_branches |             8192

 2017-02-08 21:19:12.909335+01 | 1486585152.90933 | pgbench_accounts |        693870592
 2017-02-08 21:19:12.909335+01 | 1486585152.90933 | pgbench_tellers  |            24576
 2017-02-08 21:19:12.909335+01 | 1486585152.90933 | pgbench_history  |                0
 2017-02-08 21:19:12.909335+01 | 1486585152.90933 | pgbench_branches |             8192

 2017-02-08 21:19:13.973586+01 | 1486585153.97359 | pgbench_accounts |        693870592
 2017-02-08 21:19:13.973586+01 | 1486585153.97359 | pgbench_tellers  |            24576
 2017-02-08 21:19:13.973586+01 | 1486585153.97359 | pgbench_history  |                0
 2017-02-08 21:19:13.973586+01 | 1486585153.97359 | pgbench_branches |             8192

 2017-02-08 21:19:15.034281+01 | 1486585155.03428 | pgbench_accounts |        693870592
 2017-02-08 21:19:15.034281+01 | 1486585155.03428 | pgbench_tellers  |            24576
 2017-02-08 21:19:15.034281+01 | 1486585155.03428 | pgbench_history  |                0
 2017-02-08 21:19:15.034281+01 | 1486585155.03428 | pgbench_branches |             8192

 2017-02-08 21:19:16.104225+01 | 1486585156.10422 | pgbench_accounts |        693870592
 2017-02-08 21:19:16.104225+01 | 1486585156.10422 | pgbench_tellers  |            24576
 2017-02-08 21:19:16.104225+01 | 1486585156.10422 | pgbench_history  |                0
 2017-02-08 21:19:16.104225+01 | 1486585156.10422 | pgbench_branches |             8192

 2017-02-08 21:19:17.181928+01 | 1486585157.18193 | pgbench_accounts |        693870592
 2017-02-08 21:19:17.181928+01 | 1486585157.18193 | pgbench_tellers  |            24576
 2017-02-08 21:19:17.181928+01 | 1486585157.18193 | pgbench_history  |                0
 2017-02-08 21:19:17.181928+01 | 1486585157.18193 | pgbench_branches |             8192

 2017-02-08 21:19:18.262953+01 | 1486585158.26295 | pgbench_accounts |        693870592
 2017-02-08 21:19:18.262953+01 | 1486585158.26295 | pgbench_tellers  |            24576
 2017-02-08 21:19:18.262953+01 | 1486585158.26295 | pgbench_history  |                0
 2017-02-08 21:19:18.262953+01 | 1486585158.26295 | pgbench_branches |             8192

 2017-02-08 21:19:19.351915+01 | 1486585159.35191 | pgbench_accounts |        693870592
 2017-02-08 21:19:19.351915+01 | 1486585159.35191 | pgbench_tellers  |            24576
 2017-02-08 21:19:19.351915+01 | 1486585159.35191 | pgbench_history  |                0
 2017-02-08 21:19:19.351915+01 | 1486585159.35191 | pgbench_branches |             8192

 2017-02-08 21:19:20.42993+01 | 1486585160.42993 | pgbench_accounts |        693870592
 2017-02-08 21:19:20.42993+01 | 1486585160.42993 | pgbench_tellers  |            24576
 2017-02-08 21:19:20.42993+01 | 1486585160.42993 | pgbench_history  |                0
 2017-02-08 21:19:20.42993+01 | 1486585160.42993 | pgbench_branches |             8192

 2017-02-08 21:19:21.506735+01 | 1486585161.50674 | pgbench_accounts |        693870592
 2017-02-08 21:19:21.506735+01 | 1486585161.50674 | pgbench_tellers  |            24576
 2017-02-08 21:19:21.506735+01 | 1486585161.50674 | pgbench_history  |                0
 2017-02-08 21:19:21.506735+01 | 1486585161.50674 | pgbench_branches |             8192

 2017-02-08 21:19:22.576067+01 | 1486585162.57607 | pgbench_accounts |        693870592
 2017-02-08 21:19:22.576067+01 | 1486585162.57607 | pgbench_tellers  |            24576
 2017-02-08 21:19:22.576067+01 | 1486585162.57607 | pgbench_history  |                0
 2017-02-08 21:19:22.576067+01 | 1486585162.57607 | pgbench_branches |             8192

 2017-02-08 21:19:23.651201+01 | 1486585163.6512 | pgbench_accounts |        693870592
 2017-02-08 21:19:23.651201+01 | 1486585163.6512 | pgbench_tellers  |            24576
 2017-02-08 21:19:23.651201+01 | 1486585163.6512 | pgbench_history  |                0
 2017-02-08 21:19:23.651201+01 | 1486585163.6512 | pgbench_branches |             8192

 2017-02-08 21:19:24.72086+01 | 1486585164.72086 | pgbench_accounts |        693870592
 2017-02-08 21:19:24.72086+01 | 1486585164.72086 | pgbench_tellers  |            24576
 2017-02-08 21:19:24.72086+01 | 1486585164.72086 | pgbench_history  |                0
 2017-02-08 21:19:24.72086+01 | 1486585164.72086 | pgbench_branches |             8192

 2017-02-08 21:19:25.78723+01 | 1486585165.78723 | pgbench_accounts |        693870592
 2017-02-08 21:19:25.78723+01 | 1486585165.78723 | pgbench_tellers  |            24576
 2017-02-08 21:19:25.78723+01 | 1486585165.78723 | pgbench_history  |                0
 2017-02-08 21:19:25.78723+01 | 1486585165.78723 | pgbench_branches |             8192

 2017-02-08 21:19:26.849952+01 | 1486585166.84995 | pgbench_accounts |        693870592
 2017-02-08 21:19:26.849952+01 | 1486585166.84995 | pgbench_tellers  |            24576
 2017-02-08 21:19:26.849952+01 | 1486585166.84995 | pgbench_history  |                0
 2017-02-08 21:19:26.849952+01 | 1486585166.84995 | pgbench_branches |             8192

 2017-02-08 21:19:27.91685+01 | 1486585167.91685 | pgbench_accounts |        693870592
 2017-02-08 21:19:27.91685+01 | 1486585167.91685 | pgbench_tellers  |            24576
 2017-02-08 21:19:27.91685+01 | 1486585167.91685 | pgbench_history  |                0
 2017-02-08 21:19:27.91685+01 | 1486585167.91685 | pgbench_branches |             8192

 2017-02-08 21:19:28.987287+01 | 1486585168.98729 | pgbench_accounts |        693870592
 2017-02-08 21:19:28.987287+01 | 1486585168.98729 | pgbench_tellers  |            24576
 2017-02-08 21:19:28.987287+01 | 1486585168.98729 | pgbench_history  |                0
 2017-02-08 21:19:28.987287+01 | 1486585168.98729 | pgbench_branches |             8192

 2017-02-08 21:19:30.056228+01 | 1486585170.05623 | pgbench_accounts |        693870592
 2017-02-08 21:19:30.056228+01 | 1486585170.05623 | pgbench_tellers  |            24576
 2017-02-08 21:19:30.056228+01 | 1486585170.05623 | pgbench_history  |                0
 2017-02-08 21:19:30.056228+01 | 1486585170.05623 | pgbench_branches |             8192

 2017-02-08 21:19:31.1311+01 | 1486585171.1311 | pgbench_accounts |        693870592
 2017-02-08 21:19:31.1311+01 | 1486585171.1311 | pgbench_tellers  |            24576
 2017-02-08 21:19:31.1311+01 | 1486585171.1311 | pgbench_history  |                0
 2017-02-08 21:19:31.1311+01 | 1486585171.1311 | pgbench_branches |             8192

 2017-02-08 21:19:32.193693+01 | 1486585172.19369 | pgbench_accounts |        693870592
 2017-02-08 21:19:32.193693+01 | 1486585172.19369 | pgbench_tellers  |            24576
 2017-02-08 21:19:32.193693+01 | 1486585172.19369 | pgbench_history  |                0
 2017-02-08 21:19:32.193693+01 | 1486585172.19369 | pgbench_branches |             8192

 2017-02-08 21:19:33.256202+01 | 1486585173.2562 | pgbench_accounts |        693870592
 2017-02-08 21:19:33.256202+01 | 1486585173.2562 | pgbench_tellers  |            24576
 2017-02-08 21:19:33.256202+01 | 1486585173.2562 | pgbench_history  |                0
 2017-02-08 21:19:33.256202+01 | 1486585173.2562 | pgbench_branches |             8192

 2017-02-08 21:19:34.335673+01 | 1486585174.33567 | pgbench_accounts |        693870592
 2017-02-08 21:19:34.335673+01 | 1486585174.33567 | pgbench_tellers  |            24576
 2017-02-08 21:19:34.335673+01 | 1486585174.33567 | pgbench_history  |                0
 2017-02-08 21:19:34.335673+01 | 1486585174.33567 | pgbench_branches |             8192

 2017-02-08 21:19:35.403596+01 | 1486585175.4036 | pgbench_accounts |        693870592
 2017-02-08 21:19:35.403596+01 | 1486585175.4036 | pgbench_tellers  |            24576
 2017-02-08 21:19:35.403596+01 | 1486585175.4036 | pgbench_history  |                0
 2017-02-08 21:19:35.403596+01 | 1486585175.4036 | pgbench_branches |             8192

 2017-02-08 21:19:36.47794+01 | 1486585176.47794 | pgbench_accounts |        693870592
 2017-02-08 21:19:36.47794+01 | 1486585176.47794 | pgbench_tellers  |            24576
 2017-02-08 21:19:36.47794+01 | 1486585176.47794 | pgbench_history  |                0
 2017-02-08 21:19:36.47794+01 | 1486585176.47794 | pgbench_branches |             8192

 2017-02-08 21:19:37.544316+01 | 1486585177.54432 | pgbench_accounts |        693870592
 2017-02-08 21:19:37.544316+01 | 1486585177.54432 | pgbench_tellers  |            24576
 2017-02-08 21:19:37.544316+01 | 1486585177.54432 | pgbench_history  |                0
 2017-02-08 21:19:37.544316+01 | 1486585177.54432 | pgbench_branches |             8192

 2017-02-08 21:19:38.613486+01 | 1486585178.61349 | pgbench_accounts |        693870592
 2017-02-08 21:19:38.613486+01 | 1486585178.61349 | pgbench_tellers  |            24576
 2017-02-08 21:19:38.613486+01 | 1486585178.61349 | pgbench_history  |                0
 2017-02-08 21:19:38.613486+01 | 1486585178.61349 | pgbench_branches |             8192

 2017-02-08 21:19:39.681927+01 | 1486585179.68193 | pgbench_accounts |        693870592
 2017-02-08 21:19:39.681927+01 | 1486585179.68193 | pgbench_tellers  |            24576
 2017-02-08 21:19:39.681927+01 | 1486585179.68193 | pgbench_history  |                0
 2017-02-08 21:19:39.681927+01 | 1486585179.68193 | pgbench_branches |             8192

 2017-02-08 21:19:40.750619+01 | 1486585180.75062 | pgbench_accounts |        693870592
 2017-02-08 21:19:40.750619+01 | 1486585180.75062 | pgbench_tellers  |            24576
 2017-02-08 21:19:40.750619+01 | 1486585180.75062 | pgbench_history  |                0
 2017-02-08 21:19:40.750619+01 | 1486585180.75062 | pgbench_branches |             8192

 2017-02-08 21:19:41.816754+01 | 1486585181.81675 | pgbench_accounts |        693870592
 2017-02-08 21:19:41.816754+01 | 1486585181.81675 | pgbench_tellers  |            24576
 2017-02-08 21:19:41.816754+01 | 1486585181.81675 | pgbench_history  |                0
 2017-02-08 21:19:41.816754+01 | 1486585181.81675 | pgbench_branches |             8192

 2017-02-08 21:19:42.88308+01 | 1486585182.88308 | pgbench_accounts |        693870592
 2017-02-08 21:19:42.88308+01 | 1486585182.88308 | pgbench_tellers  |            24576
 2017-02-08 21:19:42.88308+01 | 1486585182.88308 | pgbench_history  |                0
 2017-02-08 21:19:42.88308+01 | 1486585182.88308 | pgbench_branches |             8192

 2017-02-08 21:19:43.949911+01 | 1486585183.94991 | pgbench_accounts |        693870592
 2017-02-08 21:19:43.949911+01 | 1486585183.94991 | pgbench_tellers  |            24576
 2017-02-08 21:19:43.949911+01 | 1486585183.94991 | pgbench_history  |                0
 2017-02-08 21:19:43.949911+01 | 1486585183.94991 | pgbench_branches |             8192

 2017-02-08 21:19:45.009264+01 | 1486585185.00926 | pgbench_accounts |        693870592
 2017-02-08 21:19:45.009264+01 | 1486585185.00926 | pgbench_tellers  |            24576
 2017-02-08 21:19:45.009264+01 | 1486585185.00926 | pgbench_history  |                0
 2017-02-08 21:19:45.009264+01 | 1486585185.00926 | pgbench_branches |             8192

 2017-02-08 21:19:46.07294+01 | 1486585186.07294 | pgbench_accounts |        693870592
 2017-02-08 21:19:46.07294+01 | 1486585186.07294 | pgbench_tellers  |            24576
 2017-02-08 21:19:46.07294+01 | 1486585186.07294 | pgbench_history  |                0
 2017-02-08 21:19:46.07294+01 | 1486585186.07294 | pgbench_branches |             8192

 2017-02-08 21:19:47.151894+01 | 1486585187.15189 | pgbench_accounts |        693870592
 2017-02-08 21:19:47.151894+01 | 1486585187.15189 | pgbench_tellers  |            24576
 2017-02-08 21:19:47.151894+01 | 1486585187.15189 | pgbench_history  |                0
 2017-02-08 21:19:47.151894+01 | 1486585187.15189 | pgbench_branches |             8192

 2017-02-08 21:19:48.223493+01 | 1486585188.22349 | pgbench_accounts |        693870592
 2017-02-08 21:19:48.223493+01 | 1486585188.22349 | pgbench_tellers  |            24576
 2017-02-08 21:19:48.223493+01 | 1486585188.22349 | pgbench_history  |                0
 2017-02-08 21:19:48.223493+01 | 1486585188.22349 | pgbench_branches |             8192

 2017-02-08 21:19:49.292121+01 | 1486585189.29212 | pgbench_accounts |        693870592
 2017-02-08 21:19:49.292121+01 | 1486585189.29212 | pgbench_tellers  |            24576
 2017-02-08 21:19:49.292121+01 | 1486585189.29212 | pgbench_history  |                0
 2017-02-08 21:19:49.292121+01 | 1486585189.29212 | pgbench_branches |             8192

 2017-02-08 21:19:50.361588+01 | 1486585190.36159 | pgbench_accounts |        693870592
 2017-02-08 21:19:50.361588+01 | 1486585190.36159 | pgbench_tellers  |            24576
 2017-02-08 21:19:50.361588+01 | 1486585190.36159 | pgbench_history  |                0
 2017-02-08 21:19:50.361588+01 | 1486585190.36159 | pgbench_branches |             8192

 2017-02-08 21:19:51.442934+01 | 1486585191.44293 | pgbench_accounts |        693870592
 2017-02-08 21:19:51.442934+01 | 1486585191.44293 | pgbench_tellers  |            24576
 2017-02-08 21:19:51.442934+01 | 1486585191.44293 | pgbench_history  |                0
 2017-02-08 21:19:51.442934+01 | 1486585191.44293 | pgbench_branches |             8192

 2017-02-08 21:19:52.499934+01 | 1486585192.49993 | pgbench_accounts |        693870592
 2017-02-08 21:19:52.499934+01 | 1486585192.49993 | pgbench_tellers  |            24576
 2017-02-08 21:19:52.499934+01 | 1486585192.49993 | pgbench_history  |                0
 2017-02-08 21:19:52.499934+01 | 1486585192.49993 | pgbench_branches |             8192

 2017-02-08 21:19:53.56294+01 | 1486585193.56294 | pgbench_accounts |        693870592
 2017-02-08 21:19:53.56294+01 | 1486585193.56294 | pgbench_tellers  |            24576
 2017-02-08 21:19:53.56294+01 | 1486585193.56294 | pgbench_history  |                0
 2017-02-08 21:19:53.56294+01 | 1486585193.56294 | pgbench_branches |             8192

 2017-02-08 21:19:54.642664+01 | 1486585194.64266 | pgbench_accounts |        693870592
 2017-02-08 21:19:54.642664+01 | 1486585194.64266 | pgbench_tellers  |            24576
 2017-02-08 21:19:54.642664+01 | 1486585194.64266 | pgbench_history  |                0
 2017-02-08 21:19:54.642664+01 | 1486585194.64266 | pgbench_branches |             8192

 2017-02-08 21:19:55.709127+01 | 1486585195.70913 | pgbench_accounts |        693870592
 2017-02-08 21:19:55.709127+01 | 1486585195.70913 | pgbench_tellers  |            24576
 2017-02-08 21:19:55.709127+01 | 1486585195.70913 | pgbench_history  |                0
 2017-02-08 21:19:55.709127+01 | 1486585195.70913 | pgbench_branches |             8192

 2017-02-08 21:19:56.774361+01 | 1486585196.77436 | pgbench_accounts |        693870592
 2017-02-08 21:19:56.774361+01 | 1486585196.77436 | pgbench_tellers  |            24576
 2017-02-08 21:19:56.774361+01 | 1486585196.77436 | pgbench_history  |                0
 2017-02-08 21:19:56.774361+01 | 1486585196.77436 | pgbench_branches |             8192

 2017-02-08 21:19:57.847192+01 | 1486585197.84719 | pgbench_accounts |        693870592
 2017-02-08 21:19:57.847192+01 | 1486585197.84719 | pgbench_tellers  |            24576
 2017-02-08 21:19:57.847192+01 | 1486585197.84719 | pgbench_history  |                0
 2017-02-08 21:19:57.847192+01 | 1486585197.84719 | pgbench_branches |             8192

 2017-02-08 21:19:58.918743+01 | 1486585198.91874 | pgbench_accounts |        693870592
 2017-02-08 21:19:58.918743+01 | 1486585198.91874 | pgbench_tellers  |            24576
 2017-02-08 21:19:58.918743+01 | 1486585198.91874 | pgbench_history  |                0
 2017-02-08 21:19:58.918743+01 | 1486585198.91874 | pgbench_branches |             8192

 2017-02-08 21:19:59.983916+01 | 1486585199.98392 | pgbench_accounts |        693870592
 2017-02-08 21:19:59.983916+01 | 1486585199.98392 | pgbench_tellers  |            24576
 2017-02-08 21:19:59.983916+01 | 1486585199.98392 | pgbench_history  |                0
 2017-02-08 21:19:59.983916+01 | 1486585199.98392 | pgbench_branches |             8192

 2017-02-08 21:20:01.059865+01 | 1486585201.05986 | pgbench_accounts |        693870592
 2017-02-08 21:20:01.059865+01 | 1486585201.05986 | pgbench_tellers  |            24576
 2017-02-08 21:20:01.059865+01 | 1486585201.05986 | pgbench_history  |                0
 2017-02-08 21:20:01.059865+01 | 1486585201.05986 | pgbench_branches |             8192

 2017-02-08 21:20:02.132988+01 | 1486585202.13299 | pgbench_accounts |        693870592
 2017-02-08 21:20:02.132988+01 | 1486585202.13299 | pgbench_tellers  |            24576
 2017-02-08 21:20:02.132988+01 | 1486585202.13299 | pgbench_history  |                0
 2017-02-08 21:20:02.132988+01 | 1486585202.13299 | pgbench_branches |             8192

 2017-02-08 21:20:03.197076+01 | 1486585203.19708 | pgbench_accounts |        693870592
 2017-02-08 21:20:03.197076+01 | 1486585203.19708 | pgbench_tellers  |            24576
 2017-02-08 21:20:03.197076+01 | 1486585203.19708 | pgbench_history  |                0
 2017-02-08 21:20:03.197076+01 | 1486585203.19708 | pgbench_branches |             8192

