 2017-02-09 11:05:08.680977+01 | 1486634708.68098 | pgbench_accounts |       4163747840
 2017-02-09 11:05:08.680977+01 | 1486634708.68098 | pgbench_tellers  |          5480448
 2017-02-09 11:05:08.680977+01 | 1486634708.68098 | pgbench_history  |           188416
 2017-02-09 11:05:08.680977+01 | 1486634708.68098 | pgbench_branches |          4825088

 2017-02-09 11:05:09.734877+01 | 1486634709.73488 | pgbench_accounts |       4163747840
 2017-02-09 11:05:09.734877+01 | 1486634709.73488 | pgbench_tellers  |          5480448
 2017-02-09 11:05:09.734877+01 | 1486634709.73488 | pgbench_history  |           393216
 2017-02-09 11:05:09.734877+01 | 1486634709.73488 | pgbench_branches |          4825088

 2017-02-09 11:05:10.791769+01 | 1486634710.79177 | pgbench_accounts |       4163747840
 2017-02-09 11:05:10.791769+01 | 1486634710.79177 | pgbench_tellers  |          5480448
 2017-02-09 11:05:10.791769+01 | 1486634710.79177 | pgbench_history  |           524288
 2017-02-09 11:05:10.791769+01 | 1486634710.79177 | pgbench_branches |          4825088

 2017-02-09 11:05:11.844295+01 | 1486634711.8443 | pgbench_accounts |       4163747840
 2017-02-09 11:05:11.844295+01 | 1486634711.8443 | pgbench_tellers  |          5480448
 2017-02-09 11:05:11.844295+01 | 1486634711.8443 | pgbench_history  |           786432
 2017-02-09 11:05:11.844295+01 | 1486634711.8443 | pgbench_branches |          4825088

 2017-02-09 11:05:12.899074+01 | 1486634712.89907 | pgbench_accounts |       4163747840
 2017-02-09 11:05:12.899074+01 | 1486634712.89907 | pgbench_tellers  |          5480448
 2017-02-09 11:05:12.899074+01 | 1486634712.89907 | pgbench_history  |          1040384
 2017-02-09 11:05:12.899074+01 | 1486634712.89907 | pgbench_branches |          4825088

 2017-02-09 11:05:13.953108+01 | 1486634713.95311 | pgbench_accounts |       4163747840
 2017-02-09 11:05:13.953108+01 | 1486634713.95311 | pgbench_tellers  |          5480448
 2017-02-09 11:05:13.953108+01 | 1486634713.95311 | pgbench_history  |          1277952
 2017-02-09 11:05:13.953108+01 | 1486634713.95311 | pgbench_branches |          4825088

 2017-02-09 11:05:15.006568+01 | 1486634715.00657 | pgbench_accounts |       4163747840
 2017-02-09 11:05:15.006568+01 | 1486634715.00657 | pgbench_tellers  |          5480448
 2017-02-09 11:05:15.006568+01 | 1486634715.00657 | pgbench_history  |          1523712
 2017-02-09 11:05:15.006568+01 | 1486634715.00657 | pgbench_branches |          4825088

 2017-02-09 11:05:16.065355+01 | 1486634716.06536 | pgbench_accounts |       4163747840
 2017-02-09 11:05:16.065355+01 | 1486634716.06536 | pgbench_tellers  |          5480448
 2017-02-09 11:05:16.065355+01 | 1486634716.06536 | pgbench_history  |          1785856
 2017-02-09 11:05:16.065355+01 | 1486634716.06536 | pgbench_branches |          4825088

 2017-02-09 11:05:17.119661+01 | 1486634717.11966 | pgbench_accounts |       4163747840
 2017-02-09 11:05:17.119661+01 | 1486634717.11966 | pgbench_tellers  |          5480448
 2017-02-09 11:05:17.119661+01 | 1486634717.11966 | pgbench_history  |          2039808
 2017-02-09 11:05:17.119661+01 | 1486634717.11966 | pgbench_branches |          4825088

 2017-02-09 11:05:18.17909+01 | 1486634718.17909 | pgbench_accounts |       4163747840
 2017-02-09 11:05:18.17909+01 | 1486634718.17909 | pgbench_tellers  |          5480448
 2017-02-09 11:05:18.17909+01 | 1486634718.17909 | pgbench_history  |          2285568
 2017-02-09 11:05:18.17909+01 | 1486634718.17909 | pgbench_branches |          4825088

 2017-02-09 11:05:19.235255+01 | 1486634719.23526 | pgbench_accounts |       4163747840
 2017-02-09 11:05:19.235255+01 | 1486634719.23526 | pgbench_tellers  |          5480448
 2017-02-09 11:05:19.235255+01 | 1486634719.23526 | pgbench_history  |          2539520
 2017-02-09 11:05:19.235255+01 | 1486634719.23526 | pgbench_branches |          4825088

 2017-02-09 11:05:20.293559+01 | 1486634720.29356 | pgbench_accounts |       4163747840
 2017-02-09 11:05:20.293559+01 | 1486634720.29356 | pgbench_tellers  |          5480448
 2017-02-09 11:05:20.293559+01 | 1486634720.29356 | pgbench_history  |          2801664
 2017-02-09 11:05:20.293559+01 | 1486634720.29356 | pgbench_branches |          4825088

 2017-02-09 11:05:21.34535+01 | 1486634721.34535 | pgbench_accounts |       4163747840
 2017-02-09 11:05:21.34535+01 | 1486634721.34535 | pgbench_tellers  |          5480448
 2017-02-09 11:05:21.34535+01 | 1486634721.34535 | pgbench_history  |          3039232
 2017-02-09 11:05:21.34535+01 | 1486634721.34535 | pgbench_branches |          4825088

 2017-02-09 11:05:22.400468+01 | 1486634722.40047 | pgbench_accounts |       4163747840
 2017-02-09 11:05:22.400468+01 | 1486634722.40047 | pgbench_tellers  |          5480448
 2017-02-09 11:05:22.400468+01 | 1486634722.40047 | pgbench_history  |          3301376
 2017-02-09 11:05:22.400468+01 | 1486634722.40047 | pgbench_branches |          4825088

 2017-02-09 11:05:23.456904+01 | 1486634723.4569 | pgbench_accounts |       4163747840
 2017-02-09 11:05:23.456904+01 | 1486634723.4569 | pgbench_tellers  |          5480448
 2017-02-09 11:05:23.456904+01 | 1486634723.4569 | pgbench_history  |          3563520
 2017-02-09 11:05:23.456904+01 | 1486634723.4569 | pgbench_branches |          4825088

 2017-02-09 11:05:24.514475+01 | 1486634724.51448 | pgbench_accounts |       4163747840
 2017-02-09 11:05:24.514475+01 | 1486634724.51448 | pgbench_tellers  |          5480448
 2017-02-09 11:05:24.514475+01 | 1486634724.51448 | pgbench_history  |          3825664
 2017-02-09 11:05:24.514475+01 | 1486634724.51448 | pgbench_branches |          4825088

 2017-02-09 11:05:25.576377+01 | 1486634725.57638 | pgbench_accounts |       4163747840
 2017-02-09 11:05:25.576377+01 | 1486634725.57638 | pgbench_tellers  |          5480448
 2017-02-09 11:05:25.576377+01 | 1486634725.57638 | pgbench_history  |          4063232
 2017-02-09 11:05:25.576377+01 | 1486634725.57638 | pgbench_branches |          4825088

 2017-02-09 11:05:26.642215+01 | 1486634726.64222 | pgbench_accounts |       4163747840
 2017-02-09 11:05:26.642215+01 | 1486634726.64222 | pgbench_tellers  |          5480448
 2017-02-09 11:05:26.642215+01 | 1486634726.64222 | pgbench_history  |          4333568
 2017-02-09 11:05:26.642215+01 | 1486634726.64222 | pgbench_branches |          4825088

 2017-02-09 11:05:27.704858+01 | 1486634727.70486 | pgbench_accounts |       4163747840
 2017-02-09 11:05:27.704858+01 | 1486634727.70486 | pgbench_tellers  |          5480448
 2017-02-09 11:05:27.704858+01 | 1486634727.70486 | pgbench_history  |          4579328
 2017-02-09 11:05:27.704858+01 | 1486634727.70486 | pgbench_branches |          4825088

 2017-02-09 11:05:28.761446+01 | 1486634728.76145 | pgbench_accounts |       4163747840
 2017-02-09 11:05:28.761446+01 | 1486634728.76145 | pgbench_tellers  |          5480448
 2017-02-09 11:05:28.761446+01 | 1486634728.76145 | pgbench_history  |          4816896
 2017-02-09 11:05:28.761446+01 | 1486634728.76145 | pgbench_branches |          4825088

 2017-02-09 11:05:29.817888+01 | 1486634729.81789 | pgbench_accounts |       4163747840
 2017-02-09 11:05:29.817888+01 | 1486634729.81789 | pgbench_tellers  |          5480448
 2017-02-09 11:05:29.817888+01 | 1486634729.81789 | pgbench_history  |          5070848
 2017-02-09 11:05:29.817888+01 | 1486634729.81789 | pgbench_branches |          4825088

 2017-02-09 11:05:30.871679+01 | 1486634730.87168 | pgbench_accounts |       4163747840
 2017-02-09 11:05:30.871679+01 | 1486634730.87168 | pgbench_tellers  |          5480448
 2017-02-09 11:05:30.871679+01 | 1486634730.87168 | pgbench_history  |          5332992
 2017-02-09 11:05:30.871679+01 | 1486634730.87168 | pgbench_branches |          4825088

 2017-02-09 11:05:31.927692+01 | 1486634731.92769 | pgbench_accounts |       4163747840
 2017-02-09 11:05:31.927692+01 | 1486634731.92769 | pgbench_tellers  |          5480448
 2017-02-09 11:05:31.927692+01 | 1486634731.92769 | pgbench_history  |          5578752
 2017-02-09 11:05:31.927692+01 | 1486634731.92769 | pgbench_branches |          4825088

 2017-02-09 11:05:32.984273+01 | 1486634732.98427 | pgbench_accounts |       4163747840
 2017-02-09 11:05:32.984273+01 | 1486634732.98427 | pgbench_tellers  |          5480448
 2017-02-09 11:05:32.984273+01 | 1486634732.98427 | pgbench_history  |          5840896
 2017-02-09 11:05:32.984273+01 | 1486634732.98427 | pgbench_branches |          4825088

 2017-02-09 11:05:34.040144+01 | 1486634734.04014 | pgbench_accounts |       4163747840
 2017-02-09 11:05:34.040144+01 | 1486634734.04014 | pgbench_tellers  |          5480448
 2017-02-09 11:05:34.040144+01 | 1486634734.04014 | pgbench_history  |          6086656
 2017-02-09 11:05:34.040144+01 | 1486634734.04014 | pgbench_branches |          4825088

 2017-02-09 11:05:35.095971+01 | 1486634735.09597 | pgbench_accounts |       4163747840
 2017-02-09 11:05:35.095971+01 | 1486634735.09597 | pgbench_tellers  |          5480448
 2017-02-09 11:05:35.095971+01 | 1486634735.09597 | pgbench_history  |          6332416
 2017-02-09 11:05:35.095971+01 | 1486634735.09597 | pgbench_branches |          4825088

 2017-02-09 11:05:36.16176+01 | 1486634736.16176 | pgbench_accounts |       4163747840
 2017-02-09 11:05:36.16176+01 | 1486634736.16176 | pgbench_tellers  |          5480448
 2017-02-09 11:05:36.16176+01 | 1486634736.16176 | pgbench_history  |          6594560
 2017-02-09 11:05:36.16176+01 | 1486634736.16176 | pgbench_branches |          4825088

 2017-02-09 11:05:37.228483+01 | 1486634737.22848 | pgbench_accounts |       4163747840
 2017-02-09 11:05:37.228483+01 | 1486634737.22848 | pgbench_tellers  |          5480448
 2017-02-09 11:05:37.228483+01 | 1486634737.22848 | pgbench_history  |          6848512
 2017-02-09 11:05:37.228483+01 | 1486634737.22848 | pgbench_branches |          4825088

 2017-02-09 11:05:38.276836+01 | 1486634738.27684 | pgbench_accounts |       4163747840
 2017-02-09 11:05:38.276836+01 | 1486634738.27684 | pgbench_tellers  |          5480448
 2017-02-09 11:05:38.276836+01 | 1486634738.27684 | pgbench_history  |          7086080
 2017-02-09 11:05:38.276836+01 | 1486634738.27684 | pgbench_branches |          4825088

 2017-02-09 11:05:39.332607+01 | 1486634739.33261 | pgbench_accounts |       4163747840
 2017-02-09 11:05:39.332607+01 | 1486634739.33261 | pgbench_tellers  |          5480448
 2017-02-09 11:05:39.332607+01 | 1486634739.33261 | pgbench_history  |          7364608
 2017-02-09 11:05:39.332607+01 | 1486634739.33261 | pgbench_branches |          4825088

 2017-02-09 11:05:40.387535+01 | 1486634740.38754 | pgbench_accounts |       4163747840
 2017-02-09 11:05:40.387535+01 | 1486634740.38754 | pgbench_tellers  |          5480448
 2017-02-09 11:05:40.387535+01 | 1486634740.38754 | pgbench_history  |          7602176
 2017-02-09 11:05:40.387535+01 | 1486634740.38754 | pgbench_branches |          4825088

 2017-02-09 11:05:41.445777+01 | 1486634741.44578 | pgbench_accounts |       4163747840
 2017-02-09 11:05:41.445777+01 | 1486634741.44578 | pgbench_tellers  |          5480448
 2017-02-09 11:05:41.445777+01 | 1486634741.44578 | pgbench_history  |          7864320
 2017-02-09 11:05:41.445777+01 | 1486634741.44578 | pgbench_branches |          4825088

 2017-02-09 11:05:42.501035+01 | 1486634742.50103 | pgbench_accounts |       4163747840
 2017-02-09 11:05:42.501035+01 | 1486634742.50103 | pgbench_tellers  |          5480448
 2017-02-09 11:05:42.501035+01 | 1486634742.50103 | pgbench_history  |          8118272
 2017-02-09 11:05:42.501035+01 | 1486634742.50103 | pgbench_branches |          4825088

 2017-02-09 11:05:43.555233+01 | 1486634743.55523 | pgbench_accounts |       4163747840
 2017-02-09 11:05:43.555233+01 | 1486634743.55523 | pgbench_tellers  |          5480448
 2017-02-09 11:05:43.555233+01 | 1486634743.55523 | pgbench_history  |          8355840
 2017-02-09 11:05:43.555233+01 | 1486634743.55523 | pgbench_branches |          4825088

 2017-02-09 11:05:44.613857+01 | 1486634744.61386 | pgbench_accounts |       4163747840
 2017-02-09 11:05:44.613857+01 | 1486634744.61386 | pgbench_tellers  |          5480448
 2017-02-09 11:05:44.613857+01 | 1486634744.61386 | pgbench_history  |          8609792
 2017-02-09 11:05:44.613857+01 | 1486634744.61386 | pgbench_branches |          4825088

 2017-02-09 11:05:45.670331+01 | 1486634745.67033 | pgbench_accounts |       4163747840
 2017-02-09 11:05:45.670331+01 | 1486634745.67033 | pgbench_tellers  |          5480448
 2017-02-09 11:05:45.670331+01 | 1486634745.67033 | pgbench_history  |          8880128
 2017-02-09 11:05:45.670331+01 | 1486634745.67033 | pgbench_branches |          4825088

 2017-02-09 11:05:46.72249+01 | 1486634746.72249 | pgbench_accounts |       4163747840
 2017-02-09 11:05:46.72249+01 | 1486634746.72249 | pgbench_tellers  |          5480448
 2017-02-09 11:05:46.72249+01 | 1486634746.72249 | pgbench_history  |          9125888
 2017-02-09 11:05:46.72249+01 | 1486634746.72249 | pgbench_branches |          4825088

 2017-02-09 11:05:47.781597+01 | 1486634747.7816 | pgbench_accounts |       4163747840
 2017-02-09 11:05:47.781597+01 | 1486634747.7816 | pgbench_tellers  |          5480448
 2017-02-09 11:05:47.781597+01 | 1486634747.7816 | pgbench_history  |          9379840
 2017-02-09 11:05:47.781597+01 | 1486634747.7816 | pgbench_branches |          4825088

 2017-02-09 11:05:48.83737+01 | 1486634748.83737 | pgbench_accounts |       4163747840
 2017-02-09 11:05:48.83737+01 | 1486634748.83737 | pgbench_tellers  |          5480448
 2017-02-09 11:05:48.83737+01 | 1486634748.83737 | pgbench_history  |          9633792
 2017-02-09 11:05:48.83737+01 | 1486634748.83737 | pgbench_branches |          4825088

 2017-02-09 11:05:49.898277+01 | 1486634749.89828 | pgbench_accounts |       4163747840
 2017-02-09 11:05:49.898277+01 | 1486634749.89828 | pgbench_tellers  |          5480448
 2017-02-09 11:05:49.898277+01 | 1486634749.89828 | pgbench_history  |          9887744
 2017-02-09 11:05:49.898277+01 | 1486634749.89828 | pgbench_branches |          4825088

 2017-02-09 11:05:50.950716+01 | 1486634750.95072 | pgbench_accounts |       4163747840
 2017-02-09 11:05:50.950716+01 | 1486634750.95072 | pgbench_tellers  |          5480448
 2017-02-09 11:05:50.950716+01 | 1486634750.95072 | pgbench_history  |         10133504
 2017-02-09 11:05:50.950716+01 | 1486634750.95072 | pgbench_branches |          4825088

 2017-02-09 11:05:52.011082+01 | 1486634752.01108 | pgbench_accounts |       4163747840
 2017-02-09 11:05:52.011082+01 | 1486634752.01108 | pgbench_tellers  |          5480448
 2017-02-09 11:05:52.011082+01 | 1486634752.01108 | pgbench_history  |         10403840
 2017-02-09 11:05:52.011082+01 | 1486634752.01108 | pgbench_branches |          4825088

 2017-02-09 11:05:53.076019+01 | 1486634753.07602 | pgbench_accounts |       4163747840
 2017-02-09 11:05:53.076019+01 | 1486634753.07602 | pgbench_tellers  |          5480448
 2017-02-09 11:05:53.076019+01 | 1486634753.07602 | pgbench_history  |         10649600
 2017-02-09 11:05:53.076019+01 | 1486634753.07602 | pgbench_branches |          4825088

 2017-02-09 11:05:54.126258+01 | 1486634754.12626 | pgbench_accounts |       4163747840
 2017-02-09 11:05:54.126258+01 | 1486634754.12626 | pgbench_tellers  |          5480448
 2017-02-09 11:05:54.126258+01 | 1486634754.12626 | pgbench_history  |         10903552
 2017-02-09 11:05:54.126258+01 | 1486634754.12626 | pgbench_branches |          4825088

 2017-02-09 11:05:55.191205+01 | 1486634755.19121 | pgbench_accounts |       4163747840
 2017-02-09 11:05:55.191205+01 | 1486634755.19121 | pgbench_tellers  |          5480448
 2017-02-09 11:05:55.191205+01 | 1486634755.19121 | pgbench_history  |         11173888
 2017-02-09 11:05:55.191205+01 | 1486634755.19121 | pgbench_branches |          4825088

 2017-02-09 11:05:56.25829+01 | 1486634756.25829 | pgbench_accounts |       4163747840
 2017-02-09 11:05:56.25829+01 | 1486634756.25829 | pgbench_tellers  |          5480448
 2017-02-09 11:05:56.25829+01 | 1486634756.25829 | pgbench_history  |         11411456
 2017-02-09 11:05:56.25829+01 | 1486634756.25829 | pgbench_branches |          4825088

 2017-02-09 11:05:57.311539+01 | 1486634757.31154 | pgbench_accounts |       4163747840
 2017-02-09 11:05:57.311539+01 | 1486634757.31154 | pgbench_tellers  |          5480448
 2017-02-09 11:05:57.311539+01 | 1486634757.31154 | pgbench_history  |         11673600
 2017-02-09 11:05:57.311539+01 | 1486634757.31154 | pgbench_branches |          4825088

 2017-02-09 11:05:58.372728+01 | 1486634758.37273 | pgbench_accounts |       4163747840
 2017-02-09 11:05:58.372728+01 | 1486634758.37273 | pgbench_tellers  |          5480448
 2017-02-09 11:05:58.372728+01 | 1486634758.37273 | pgbench_history  |         11935744
 2017-02-09 11:05:58.372728+01 | 1486634758.37273 | pgbench_branches |          4825088

 2017-02-09 11:05:59.434893+01 | 1486634759.43489 | pgbench_accounts |       4163747840
 2017-02-09 11:05:59.434893+01 | 1486634759.43489 | pgbench_tellers  |          5480448
 2017-02-09 11:05:59.434893+01 | 1486634759.43489 | pgbench_history  |         12181504
 2017-02-09 11:05:59.434893+01 | 1486634759.43489 | pgbench_branches |          4825088

 2017-02-09 11:06:00.490351+01 | 1486634760.49035 | pgbench_accounts |       4163747840
 2017-02-09 11:06:00.490351+01 | 1486634760.49035 | pgbench_tellers  |          5480448
 2017-02-09 11:06:00.490351+01 | 1486634760.49035 | pgbench_history  |         12443648
 2017-02-09 11:06:00.490351+01 | 1486634760.49035 | pgbench_branches |          4825088

 2017-02-09 11:06:01.561674+01 | 1486634761.56167 | pgbench_accounts |       4163747840
 2017-02-09 11:06:01.561674+01 | 1486634761.56167 | pgbench_tellers  |          5480448
 2017-02-09 11:06:01.561674+01 | 1486634761.56167 | pgbench_history  |         12713984
 2017-02-09 11:06:01.561674+01 | 1486634761.56167 | pgbench_branches |          4825088

 2017-02-09 11:06:02.617049+01 | 1486634762.61705 | pgbench_accounts |       4163747840
 2017-02-09 11:06:02.617049+01 | 1486634762.61705 | pgbench_tellers  |          5480448
 2017-02-09 11:06:02.617049+01 | 1486634762.61705 | pgbench_history  |         12951552
 2017-02-09 11:06:02.617049+01 | 1486634762.61705 | pgbench_branches |          4825088

 2017-02-09 11:06:03.672438+01 | 1486634763.67244 | pgbench_accounts |       4163747840
 2017-02-09 11:06:03.672438+01 | 1486634763.67244 | pgbench_tellers  |          5480448
 2017-02-09 11:06:03.672438+01 | 1486634763.67244 | pgbench_history  |         13205504
 2017-02-09 11:06:03.672438+01 | 1486634763.67244 | pgbench_branches |          4825088

 2017-02-09 11:06:04.732236+01 | 1486634764.73224 | pgbench_accounts |       4163747840
 2017-02-09 11:06:04.732236+01 | 1486634764.73224 | pgbench_tellers  |          5480448
 2017-02-09 11:06:04.732236+01 | 1486634764.73224 | pgbench_history  |         13475840
 2017-02-09 11:06:04.732236+01 | 1486634764.73224 | pgbench_branches |          4825088

 2017-02-09 11:06:05.790937+01 | 1486634765.79094 | pgbench_accounts |       4163747840
 2017-02-09 11:06:05.790937+01 | 1486634765.79094 | pgbench_tellers  |          5480448
 2017-02-09 11:06:05.790937+01 | 1486634765.79094 | pgbench_history  |         13729792
 2017-02-09 11:06:05.790937+01 | 1486634765.79094 | pgbench_branches |          4825088

 2017-02-09 11:06:06.846606+01 | 1486634766.84661 | pgbench_accounts |       4163747840
 2017-02-09 11:06:06.846606+01 | 1486634766.84661 | pgbench_tellers  |          5480448
 2017-02-09 11:06:06.846606+01 | 1486634766.84661 | pgbench_history  |         13991936
 2017-02-09 11:06:06.846606+01 | 1486634766.84661 | pgbench_branches |          4825088

 2017-02-09 11:06:07.904905+01 | 1486634767.90491 | pgbench_accounts |       4163747840
 2017-02-09 11:06:07.904905+01 | 1486634767.90491 | pgbench_tellers  |          5480448
 2017-02-09 11:06:07.904905+01 | 1486634767.90491 | pgbench_history  |         14262272
 2017-02-09 11:06:07.904905+01 | 1486634767.90491 | pgbench_branches |          4825088

 2017-02-09 11:06:08.967991+01 | 1486634768.96799 | pgbench_accounts |       4163747840
 2017-02-09 11:06:08.967991+01 | 1486634768.96799 | pgbench_tellers  |          5480448
 2017-02-09 11:06:08.967991+01 | 1486634768.96799 | pgbench_history  |         14508032
 2017-02-09 11:06:08.967991+01 | 1486634768.96799 | pgbench_branches |          4825088

 2017-02-09 11:06:10.024164+01 | 1486634770.02416 | pgbench_accounts |       4163747840
 2017-02-09 11:06:10.024164+01 | 1486634770.02416 | pgbench_tellers  |          5480448
 2017-02-09 11:06:10.024164+01 | 1486634770.02416 | pgbench_history  |         14761984
 2017-02-09 11:06:10.024164+01 | 1486634770.02416 | pgbench_branches |          4825088

 2017-02-09 11:06:11.081563+01 | 1486634771.08156 | pgbench_accounts |       4163747840
 2017-02-09 11:06:11.081563+01 | 1486634771.08156 | pgbench_tellers  |          5480448
 2017-02-09 11:06:11.081563+01 | 1486634771.08156 | pgbench_history  |         15024128
 2017-02-09 11:06:11.081563+01 | 1486634771.08156 | pgbench_branches |          4825088

 2017-02-09 11:06:12.13826+01 | 1486634772.13826 | pgbench_accounts |       4163747840
 2017-02-09 11:06:12.13826+01 | 1486634772.13826 | pgbench_tellers  |          5480448
 2017-02-09 11:06:12.13826+01 | 1486634772.13826 | pgbench_history  |         15286272
 2017-02-09 11:06:12.13826+01 | 1486634772.13826 | pgbench_branches |          4825088

 2017-02-09 11:06:13.192951+01 | 1486634773.19295 | pgbench_accounts |       4163747840
 2017-02-09 11:06:13.192951+01 | 1486634773.19295 | pgbench_tellers  |          5480448
 2017-02-09 11:06:13.192951+01 | 1486634773.19295 | pgbench_history  |         15548416
 2017-02-09 11:06:13.192951+01 | 1486634773.19295 | pgbench_branches |          4825088

 2017-02-09 11:06:14.257698+01 | 1486634774.2577 | pgbench_accounts |       4163747840
 2017-02-09 11:06:14.257698+01 | 1486634774.2577 | pgbench_tellers  |          5480448
 2017-02-09 11:06:14.257698+01 | 1486634774.2577 | pgbench_history  |         15810560
 2017-02-09 11:06:14.257698+01 | 1486634774.2577 | pgbench_branches |          4825088

 2017-02-09 11:06:15.315834+01 | 1486634775.31583 | pgbench_accounts |       4163747840
 2017-02-09 11:06:15.315834+01 | 1486634775.31583 | pgbench_tellers  |          5480448
 2017-02-09 11:06:15.315834+01 | 1486634775.31583 | pgbench_history  |         16072704
 2017-02-09 11:06:15.315834+01 | 1486634775.31583 | pgbench_branches |          4825088

 2017-02-09 11:06:16.380147+01 | 1486634776.38015 | pgbench_accounts |       4163747840
 2017-02-09 11:06:16.380147+01 | 1486634776.38015 | pgbench_tellers  |          5480448
 2017-02-09 11:06:16.380147+01 | 1486634776.38015 | pgbench_history  |         16334848
 2017-02-09 11:06:16.380147+01 | 1486634776.38015 | pgbench_branches |          4825088

 2017-02-09 11:06:17.433063+01 | 1486634777.43306 | pgbench_accounts |       4163747840
 2017-02-09 11:06:17.433063+01 | 1486634777.43306 | pgbench_tellers  |          5480448
 2017-02-09 11:06:17.433063+01 | 1486634777.43306 | pgbench_history  |         16596992
 2017-02-09 11:06:17.433063+01 | 1486634777.43306 | pgbench_branches |          4825088

 2017-02-09 11:06:18.497687+01 | 1486634778.49769 | pgbench_accounts |       4163747840
 2017-02-09 11:06:18.497687+01 | 1486634778.49769 | pgbench_tellers  |          5480448
 2017-02-09 11:06:18.497687+01 | 1486634778.49769 | pgbench_history  |         16859136
 2017-02-09 11:06:18.497687+01 | 1486634778.49769 | pgbench_branches |          4825088

 2017-02-09 11:06:19.557612+01 | 1486634779.55761 | pgbench_accounts |       4163747840
 2017-02-09 11:06:19.557612+01 | 1486634779.55761 | pgbench_tellers  |          5480448
 2017-02-09 11:06:19.557612+01 | 1486634779.55761 | pgbench_history  |         17113088
 2017-02-09 11:06:19.557612+01 | 1486634779.55761 | pgbench_branches |          4825088

 2017-02-09 11:06:20.628928+01 | 1486634780.62893 | pgbench_accounts |       4163747840
 2017-02-09 11:06:20.628928+01 | 1486634780.62893 | pgbench_tellers  |          5480448
 2017-02-09 11:06:20.628928+01 | 1486634780.62893 | pgbench_history  |         17473536
 2017-02-09 11:06:20.628928+01 | 1486634780.62893 | pgbench_branches |          4825088

 2017-02-09 11:06:21.709188+01 | 1486634781.70919 | pgbench_accounts |       4163747840
 2017-02-09 11:06:21.709188+01 | 1486634781.70919 | pgbench_tellers  |          5480448
 2017-02-09 11:06:21.709188+01 | 1486634781.70919 | pgbench_history  |         17645568
 2017-02-09 11:06:21.709188+01 | 1486634781.70919 | pgbench_branches |          4825088

 2017-02-09 11:06:22.766514+01 | 1486634782.76651 | pgbench_accounts |       4163747840
 2017-02-09 11:06:22.766514+01 | 1486634782.76651 | pgbench_tellers  |          5480448
 2017-02-09 11:06:22.766514+01 | 1486634782.76651 | pgbench_history  |         17899520
 2017-02-09 11:06:22.766514+01 | 1486634782.76651 | pgbench_branches |          4825088

 2017-02-09 11:06:23.831606+01 | 1486634783.83161 | pgbench_accounts |       4163747840
 2017-02-09 11:06:23.831606+01 | 1486634783.83161 | pgbench_tellers  |          5480448
 2017-02-09 11:06:23.831606+01 | 1486634783.83161 | pgbench_history  |         18169856
 2017-02-09 11:06:23.831606+01 | 1486634783.83161 | pgbench_branches |          4825088

 2017-02-09 11:06:24.885765+01 | 1486634784.88577 | pgbench_accounts |       4163747840
 2017-02-09 11:06:24.885765+01 | 1486634784.88577 | pgbench_tellers  |          5480448
 2017-02-09 11:06:24.885765+01 | 1486634784.88577 | pgbench_history  |         18432000
 2017-02-09 11:06:24.885765+01 | 1486634784.88577 | pgbench_branches |          4825088

 2017-02-09 11:06:25.942877+01 | 1486634785.94288 | pgbench_accounts |       4163747840
 2017-02-09 11:06:25.942877+01 | 1486634785.94288 | pgbench_tellers  |          5480448
 2017-02-09 11:06:25.942877+01 | 1486634785.94288 | pgbench_history  |         18694144
 2017-02-09 11:06:25.942877+01 | 1486634785.94288 | pgbench_branches |          4825088

 2017-02-09 11:06:26.998355+01 | 1486634786.99835 | pgbench_accounts |       4163747840
 2017-02-09 11:06:26.998355+01 | 1486634786.99835 | pgbench_tellers  |          5480448
 2017-02-09 11:06:26.998355+01 | 1486634786.99835 | pgbench_history  |         18948096
 2017-02-09 11:06:26.998355+01 | 1486634786.99835 | pgbench_branches |          4825088

 2017-02-09 11:06:28.058399+01 | 1486634788.0584 | pgbench_accounts |       4163747840
 2017-02-09 11:06:28.058399+01 | 1486634788.0584 | pgbench_tellers  |          5480448
 2017-02-09 11:06:28.058399+01 | 1486634788.0584 | pgbench_history  |         19210240
 2017-02-09 11:06:28.058399+01 | 1486634788.0584 | pgbench_branches |          4825088

 2017-02-09 11:06:29.123396+01 | 1486634789.1234 | pgbench_accounts |       4163747840
 2017-02-09 11:06:29.123396+01 | 1486634789.1234 | pgbench_tellers  |          5480448
 2017-02-09 11:06:29.123396+01 | 1486634789.1234 | pgbench_history  |         19488768
 2017-02-09 11:06:29.123396+01 | 1486634789.1234 | pgbench_branches |          4825088

 2017-02-09 11:06:30.187106+01 | 1486634790.18711 | pgbench_accounts |       4163747840
 2017-02-09 11:06:30.187106+01 | 1486634790.18711 | pgbench_tellers  |          5480448
 2017-02-09 11:06:30.187106+01 | 1486634790.18711 | pgbench_history  |         19742720
 2017-02-09 11:06:30.187106+01 | 1486634790.18711 | pgbench_branches |          4825088

 2017-02-09 11:06:31.249912+01 | 1486634791.24991 | pgbench_accounts |       4163747840
 2017-02-09 11:06:31.249912+01 | 1486634791.24991 | pgbench_tellers  |          5480448
 2017-02-09 11:06:31.249912+01 | 1486634791.24991 | pgbench_history  |         19996672
 2017-02-09 11:06:31.249912+01 | 1486634791.24991 | pgbench_branches |          4825088

 2017-02-09 11:06:32.315984+01 | 1486634792.31598 | pgbench_accounts |       4163747840
 2017-02-09 11:06:32.315984+01 | 1486634792.31598 | pgbench_tellers  |          5480448
 2017-02-09 11:06:32.315984+01 | 1486634792.31598 | pgbench_history  |         20275200
 2017-02-09 11:06:32.315984+01 | 1486634792.31598 | pgbench_branches |          4825088

 2017-02-09 11:06:33.382293+01 | 1486634793.38229 | pgbench_accounts |       4163747840
 2017-02-09 11:06:33.382293+01 | 1486634793.38229 | pgbench_tellers  |          5480448
 2017-02-09 11:06:33.382293+01 | 1486634793.38229 | pgbench_history  |         20537344
 2017-02-09 11:06:33.382293+01 | 1486634793.38229 | pgbench_branches |          4825088

 2017-02-09 11:06:34.449009+01 | 1486634794.44901 | pgbench_accounts |       4163747840
 2017-02-09 11:06:34.449009+01 | 1486634794.44901 | pgbench_tellers  |          5480448
 2017-02-09 11:06:34.449009+01 | 1486634794.44901 | pgbench_history  |         20938752
 2017-02-09 11:06:34.449009+01 | 1486634794.44901 | pgbench_branches |          4825088

 2017-02-09 11:06:35.530742+01 | 1486634795.53074 | pgbench_accounts |       4163747840
 2017-02-09 11:06:35.530742+01 | 1486634795.53074 | pgbench_tellers  |          5480448
 2017-02-09 11:06:35.530742+01 | 1486634795.53074 | pgbench_history  |         21069824
 2017-02-09 11:06:35.530742+01 | 1486634795.53074 | pgbench_branches |          4825088

 2017-02-09 11:06:36.591545+01 | 1486634796.59155 | pgbench_accounts |       4163747840
 2017-02-09 11:06:36.591545+01 | 1486634796.59155 | pgbench_tellers  |          5480448
 2017-02-09 11:06:36.591545+01 | 1486634796.59155 | pgbench_history  |         21299200
 2017-02-09 11:06:36.591545+01 | 1486634796.59155 | pgbench_branches |          4825088

 2017-02-09 11:06:37.661165+01 | 1486634797.66116 | pgbench_accounts |       4163747840
 2017-02-09 11:06:37.661165+01 | 1486634797.66116 | pgbench_tellers  |          5480448
 2017-02-09 11:06:37.661165+01 | 1486634797.66116 | pgbench_history  |         21561344
 2017-02-09 11:06:37.661165+01 | 1486634797.66116 | pgbench_branches |          4825088

 2017-02-09 11:06:38.707508+01 | 1486634798.70751 | pgbench_accounts |       4163747840
 2017-02-09 11:06:38.707508+01 | 1486634798.70751 | pgbench_tellers  |          5480448
 2017-02-09 11:06:38.707508+01 | 1486634798.70751 | pgbench_history  |         21823488
 2017-02-09 11:06:38.707508+01 | 1486634798.70751 | pgbench_branches |          4825088

 2017-02-09 11:06:39.767698+01 | 1486634799.7677 | pgbench_accounts |       4163747840
 2017-02-09 11:06:39.767698+01 | 1486634799.7677 | pgbench_tellers  |          5480448
 2017-02-09 11:06:39.767698+01 | 1486634799.7677 | pgbench_history  |         22085632
 2017-02-09 11:06:39.767698+01 | 1486634799.7677 | pgbench_branches |          4825088

 2017-02-09 11:06:40.832311+01 | 1486634800.83231 | pgbench_accounts |       4163747840
 2017-02-09 11:06:40.832311+01 | 1486634800.83231 | pgbench_tellers  |          5480448
 2017-02-09 11:06:40.832311+01 | 1486634800.83231 | pgbench_history  |         22503424
 2017-02-09 11:06:40.832311+01 | 1486634800.83231 | pgbench_branches |          4825088

 2017-02-09 11:06:41.898821+01 | 1486634801.89882 | pgbench_accounts |       4163747840
 2017-02-09 11:06:41.898821+01 | 1486634801.89882 | pgbench_tellers  |          5480448
 2017-02-09 11:06:41.898821+01 | 1486634801.89882 | pgbench_history  |         22634496
 2017-02-09 11:06:41.898821+01 | 1486634801.89882 | pgbench_branches |          4825088

 2017-02-09 11:06:42.966572+01 | 1486634802.96657 | pgbench_accounts |       4163747840
 2017-02-09 11:06:42.966572+01 | 1486634802.96657 | pgbench_tellers  |          5480448
 2017-02-09 11:06:42.966572+01 | 1486634802.96657 | pgbench_history  |         22896640
 2017-02-09 11:06:42.966572+01 | 1486634802.96657 | pgbench_branches |          4825088

 2017-02-09 11:06:44.028009+01 | 1486634804.02801 | pgbench_accounts |       4163747840
 2017-02-09 11:06:44.028009+01 | 1486634804.02801 | pgbench_tellers  |          5480448
 2017-02-09 11:06:44.028009+01 | 1486634804.02801 | pgbench_history  |         23158784
 2017-02-09 11:06:44.028009+01 | 1486634804.02801 | pgbench_branches |          4825088

 2017-02-09 11:06:45.085034+01 | 1486634805.08503 | pgbench_accounts |       4163747840
 2017-02-09 11:06:45.085034+01 | 1486634805.08503 | pgbench_tellers  |          5480448
 2017-02-09 11:06:45.085034+01 | 1486634805.08503 | pgbench_history  |         23420928
 2017-02-09 11:06:45.085034+01 | 1486634805.08503 | pgbench_branches |          4825088

 2017-02-09 11:06:46.14682+01 | 1486634806.14682 | pgbench_accounts |       4163747840
 2017-02-09 11:06:46.14682+01 | 1486634806.14682 | pgbench_tellers  |          5480448
 2017-02-09 11:06:46.14682+01 | 1486634806.14682 | pgbench_history  |         23691264
 2017-02-09 11:06:46.14682+01 | 1486634806.14682 | pgbench_branches |          4825088

 2017-02-09 11:06:47.213724+01 | 1486634807.21372 | pgbench_accounts |       4163747840
 2017-02-09 11:06:47.213724+01 | 1486634807.21372 | pgbench_tellers  |          5480448
 2017-02-09 11:06:47.213724+01 | 1486634807.21372 | pgbench_history  |         23953408
 2017-02-09 11:06:47.213724+01 | 1486634807.21372 | pgbench_branches |          4825088

 2017-02-09 11:06:48.269597+01 | 1486634808.2696 | pgbench_accounts |       4163747840
 2017-02-09 11:06:48.269597+01 | 1486634808.2696 | pgbench_tellers  |          5480448
 2017-02-09 11:06:48.269597+01 | 1486634808.2696 | pgbench_history  |         24215552
 2017-02-09 11:06:48.269597+01 | 1486634808.2696 | pgbench_branches |          4825088

 2017-02-09 11:06:49.325729+01 | 1486634809.32573 | pgbench_accounts |       4163747840
 2017-02-09 11:06:49.325729+01 | 1486634809.32573 | pgbench_tellers  |          5480448
 2017-02-09 11:06:49.325729+01 | 1486634809.32573 | pgbench_history  |         24485888
 2017-02-09 11:06:49.325729+01 | 1486634809.32573 | pgbench_branches |          4825088

 2017-02-09 11:06:50.385613+01 | 1486634810.38561 | pgbench_accounts |       4163747840
 2017-02-09 11:06:50.385613+01 | 1486634810.38561 | pgbench_tellers  |          5480448
 2017-02-09 11:06:50.385613+01 | 1486634810.38561 | pgbench_history  |         24739840
 2017-02-09 11:06:50.385613+01 | 1486634810.38561 | pgbench_branches |          4825088

 2017-02-09 11:06:51.442007+01 | 1486634811.44201 | pgbench_accounts |       4163747840
 2017-02-09 11:06:51.442007+01 | 1486634811.44201 | pgbench_tellers  |          5480448
 2017-02-09 11:06:51.442007+01 | 1486634811.44201 | pgbench_history  |         25010176
 2017-02-09 11:06:51.442007+01 | 1486634811.44201 | pgbench_branches |          4825088

 2017-02-09 11:06:52.503066+01 | 1486634812.50307 | pgbench_accounts |       4163747840
 2017-02-09 11:06:52.503066+01 | 1486634812.50307 | pgbench_tellers  |          5480448
 2017-02-09 11:06:52.503066+01 | 1486634812.50307 | pgbench_history  |         25288704
 2017-02-09 11:06:52.503066+01 | 1486634812.50307 | pgbench_branches |          4825088

 2017-02-09 11:06:53.564183+01 | 1486634813.56418 | pgbench_accounts |       4163747840
 2017-02-09 11:06:53.564183+01 | 1486634813.56418 | pgbench_tellers  |          5480448
 2017-02-09 11:06:53.564183+01 | 1486634813.56418 | pgbench_history  |         25559040
 2017-02-09 11:06:53.564183+01 | 1486634813.56418 | pgbench_branches |          4825088

 2017-02-09 11:06:54.638094+01 | 1486634814.63809 | pgbench_accounts |       4163747840
 2017-02-09 11:06:54.638094+01 | 1486634814.63809 | pgbench_tellers  |          5480448
 2017-02-09 11:06:54.638094+01 | 1486634814.63809 | pgbench_history  |         25821184
 2017-02-09 11:06:54.638094+01 | 1486634814.63809 | pgbench_branches |          4825088

 2017-02-09 11:06:55.701301+01 | 1486634815.7013 | pgbench_accounts |       4163747840
 2017-02-09 11:06:55.701301+01 | 1486634815.7013 | pgbench_tellers  |          5480448
 2017-02-09 11:06:55.701301+01 | 1486634815.7013 | pgbench_history  |         26091520
 2017-02-09 11:06:55.701301+01 | 1486634815.7013 | pgbench_branches |          4825088

 2017-02-09 11:06:56.758279+01 | 1486634816.75828 | pgbench_accounts |       4163747840
 2017-02-09 11:06:56.758279+01 | 1486634816.75828 | pgbench_tellers  |          5480448
 2017-02-09 11:06:56.758279+01 | 1486634816.75828 | pgbench_history  |         26345472
 2017-02-09 11:06:56.758279+01 | 1486634816.75828 | pgbench_branches |          4825088

 2017-02-09 11:06:57.819945+01 | 1486634817.81995 | pgbench_accounts |       4163747840
 2017-02-09 11:06:57.819945+01 | 1486634817.81995 | pgbench_tellers  |          5480448
 2017-02-09 11:06:57.819945+01 | 1486634817.81995 | pgbench_history  |         26615808
 2017-02-09 11:06:57.819945+01 | 1486634817.81995 | pgbench_branches |          4825088

 2017-02-09 11:06:58.87557+01 | 1486634818.87557 | pgbench_accounts |       4163747840
 2017-02-09 11:06:58.87557+01 | 1486634818.87557 | pgbench_tellers  |          5480448
 2017-02-09 11:06:58.87557+01 | 1486634818.87557 | pgbench_history  |         26894336
 2017-02-09 11:06:58.87557+01 | 1486634818.87557 | pgbench_branches |          4825088

 2017-02-09 11:06:59.930208+01 | 1486634819.93021 | pgbench_accounts |       4163747840
 2017-02-09 11:06:59.930208+01 | 1486634819.93021 | pgbench_tellers  |          5480448
 2017-02-09 11:06:59.930208+01 | 1486634819.93021 | pgbench_history  |         27164672
 2017-02-09 11:06:59.930208+01 | 1486634819.93021 | pgbench_branches |          4825088

 2017-02-09 11:07:00.994975+01 | 1486634820.99498 | pgbench_accounts |       4163747840
 2017-02-09 11:07:00.994975+01 | 1486634820.99498 | pgbench_tellers  |          5480448
 2017-02-09 11:07:00.994975+01 | 1486634820.99498 | pgbench_history  |         27418624
 2017-02-09 11:07:00.994975+01 | 1486634820.99498 | pgbench_branches |          4825088

 2017-02-09 11:07:02.061129+01 | 1486634822.06113 | pgbench_accounts |       4163747840
 2017-02-09 11:07:02.061129+01 | 1486634822.06113 | pgbench_tellers  |          5480448
 2017-02-09 11:07:02.061129+01 | 1486634822.06113 | pgbench_history  |         27688960
 2017-02-09 11:07:02.061129+01 | 1486634822.06113 | pgbench_branches |          4825088

 2017-02-09 11:07:03.124823+01 | 1486634823.12482 | pgbench_accounts |       4163747840
 2017-02-09 11:07:03.124823+01 | 1486634823.12482 | pgbench_tellers  |          5480448
 2017-02-09 11:07:03.124823+01 | 1486634823.12482 | pgbench_history  |         27959296
 2017-02-09 11:07:03.124823+01 | 1486634823.12482 | pgbench_branches |          4825088

 2017-02-09 11:07:04.187763+01 | 1486634824.18776 | pgbench_accounts |       4163747840
 2017-02-09 11:07:04.187763+01 | 1486634824.18776 | pgbench_tellers  |          5480448
 2017-02-09 11:07:04.187763+01 | 1486634824.18776 | pgbench_history  |         28221440
 2017-02-09 11:07:04.187763+01 | 1486634824.18776 | pgbench_branches |          4825088

 2017-02-09 11:07:05.245749+01 | 1486634825.24575 | pgbench_accounts |       4163747840
 2017-02-09 11:07:05.245749+01 | 1486634825.24575 | pgbench_tellers  |          5480448
 2017-02-09 11:07:05.245749+01 | 1486634825.24575 | pgbench_history  |         28491776
 2017-02-09 11:07:05.245749+01 | 1486634825.24575 | pgbench_branches |          4825088

 2017-02-09 11:07:06.31419+01 | 1486634826.31419 | pgbench_accounts |       4163747840
 2017-02-09 11:07:06.31419+01 | 1486634826.31419 | pgbench_tellers  |          5480448
 2017-02-09 11:07:06.31419+01 | 1486634826.31419 | pgbench_history  |         28762112
 2017-02-09 11:07:06.31419+01 | 1486634826.31419 | pgbench_branches |          4825088

 2017-02-09 11:07:07.368969+01 | 1486634827.36897 | pgbench_accounts |       4163747840
 2017-02-09 11:07:07.368969+01 | 1486634827.36897 | pgbench_tellers  |          5480448
 2017-02-09 11:07:07.368969+01 | 1486634827.36897 | pgbench_history  |         29007872
 2017-02-09 11:07:07.368969+01 | 1486634827.36897 | pgbench_branches |          4825088

 2017-02-09 11:07:08.422385+01 | 1486634828.42238 | pgbench_accounts |       4163747840
 2017-02-09 11:07:08.422385+01 | 1486634828.42238 | pgbench_tellers  |          5480448
 2017-02-09 11:07:08.422385+01 | 1486634828.42238 | pgbench_history  |         29278208
 2017-02-09 11:07:08.422385+01 | 1486634828.42238 | pgbench_branches |          4825088

 2017-02-09 11:07:09.494146+01 | 1486634829.49415 | pgbench_accounts |       4163747840
 2017-02-09 11:07:09.494146+01 | 1486634829.49415 | pgbench_tellers  |          5480448
 2017-02-09 11:07:09.494146+01 | 1486634829.49415 | pgbench_history  |         29573120
 2017-02-09 11:07:09.494146+01 | 1486634829.49415 | pgbench_branches |          4825088

 2017-02-09 11:07:10.555697+01 | 1486634830.5557 | pgbench_accounts |       4163747840
 2017-02-09 11:07:10.555697+01 | 1486634830.5557 | pgbench_tellers  |          5480448
 2017-02-09 11:07:10.555697+01 | 1486634830.5557 | pgbench_history  |         29835264
 2017-02-09 11:07:10.555697+01 | 1486634830.5557 | pgbench_branches |          4825088

 2017-02-09 11:07:11.626517+01 | 1486634831.62652 | pgbench_accounts |       4163747840
 2017-02-09 11:07:11.626517+01 | 1486634831.62652 | pgbench_tellers  |          5480448
 2017-02-09 11:07:11.626517+01 | 1486634831.62652 | pgbench_history  |         30097408
 2017-02-09 11:07:11.626517+01 | 1486634831.62652 | pgbench_branches |          4825088

 2017-02-09 11:07:12.690995+01 | 1486634832.69099 | pgbench_accounts |       4163747840
 2017-02-09 11:07:12.690995+01 | 1486634832.69099 | pgbench_tellers  |          5480448
 2017-02-09 11:07:12.690995+01 | 1486634832.69099 | pgbench_history  |         30384128
 2017-02-09 11:07:12.690995+01 | 1486634832.69099 | pgbench_branches |          4825088

 2017-02-09 11:07:13.756032+01 | 1486634833.75603 | pgbench_accounts |       4163747840
 2017-02-09 11:07:13.756032+01 | 1486634833.75603 | pgbench_tellers  |          5480448
 2017-02-09 11:07:13.756032+01 | 1486634833.75603 | pgbench_history  |         30654464
 2017-02-09 11:07:13.756032+01 | 1486634833.75603 | pgbench_branches |          4825088

 2017-02-09 11:07:14.816452+01 | 1486634834.81645 | pgbench_accounts |       4163747840
 2017-02-09 11:07:14.816452+01 | 1486634834.81645 | pgbench_tellers  |          5480448
 2017-02-09 11:07:14.816452+01 | 1486634834.81645 | pgbench_history  |         30908416
 2017-02-09 11:07:14.816452+01 | 1486634834.81645 | pgbench_branches |          4825088

 2017-02-09 11:07:15.871879+01 | 1486634835.87188 | pgbench_accounts |       4163747840
 2017-02-09 11:07:15.871879+01 | 1486634835.87188 | pgbench_tellers  |          5480448
 2017-02-09 11:07:15.871879+01 | 1486634835.87188 | pgbench_history  |         31170560
 2017-02-09 11:07:15.871879+01 | 1486634835.87188 | pgbench_branches |          4825088

 2017-02-09 11:07:16.931457+01 | 1486634836.93146 | pgbench_accounts |       4163747840
 2017-02-09 11:07:16.931457+01 | 1486634836.93146 | pgbench_tellers  |          5480448
 2017-02-09 11:07:16.931457+01 | 1486634836.93146 | pgbench_history  |         31440896
 2017-02-09 11:07:16.931457+01 | 1486634836.93146 | pgbench_branches |          4825088

 2017-02-09 11:07:17.993155+01 | 1486634837.99316 | pgbench_accounts |       4163747840
 2017-02-09 11:07:17.993155+01 | 1486634837.99316 | pgbench_tellers  |          5480448
 2017-02-09 11:07:17.993155+01 | 1486634837.99316 | pgbench_history  |         31719424
 2017-02-09 11:07:17.993155+01 | 1486634837.99316 | pgbench_branches |          4825088

 2017-02-09 11:07:19.050272+01 | 1486634839.05027 | pgbench_accounts |       4163747840
 2017-02-09 11:07:19.050272+01 | 1486634839.05027 | pgbench_tellers  |          5480448
 2017-02-09 11:07:19.050272+01 | 1486634839.05027 | pgbench_history  |         31989760
 2017-02-09 11:07:19.050272+01 | 1486634839.05027 | pgbench_branches |          4825088

 2017-02-09 11:07:20.111306+01 | 1486634840.11131 | pgbench_accounts |       4163747840
 2017-02-09 11:07:20.111306+01 | 1486634840.11131 | pgbench_tellers  |          5480448
 2017-02-09 11:07:20.111306+01 | 1486634840.11131 | pgbench_history  |         32260096
 2017-02-09 11:07:20.111306+01 | 1486634840.11131 | pgbench_branches |          4825088

 2017-02-09 11:07:21.16734+01 | 1486634841.16734 | pgbench_accounts |       4163747840
 2017-02-09 11:07:21.16734+01 | 1486634841.16734 | pgbench_tellers  |          5480448
 2017-02-09 11:07:21.16734+01 | 1486634841.16734 | pgbench_history  |         32538624
 2017-02-09 11:07:21.16734+01 | 1486634841.16734 | pgbench_branches |          4825088

 2017-02-09 11:07:22.22989+01 | 1486634842.22989 | pgbench_accounts |       4163747840
 2017-02-09 11:07:22.22989+01 | 1486634842.22989 | pgbench_tellers  |          5480448
 2017-02-09 11:07:22.22989+01 | 1486634842.22989 | pgbench_history  |         32792576
 2017-02-09 11:07:22.22989+01 | 1486634842.22989 | pgbench_branches |          4825088

 2017-02-09 11:07:23.289381+01 | 1486634843.28938 | pgbench_accounts |       4163747840
 2017-02-09 11:07:23.289381+01 | 1486634843.28938 | pgbench_tellers  |          5480448
 2017-02-09 11:07:23.289381+01 | 1486634843.28938 | pgbench_history  |         33071104
 2017-02-09 11:07:23.289381+01 | 1486634843.28938 | pgbench_branches |          4825088

 2017-02-09 11:07:24.345099+01 | 1486634844.3451 | pgbench_accounts |       4163747840
 2017-02-09 11:07:24.345099+01 | 1486634844.3451 | pgbench_tellers  |          5480448
 2017-02-09 11:07:24.345099+01 | 1486634844.3451 | pgbench_history  |         33333248
 2017-02-09 11:07:24.345099+01 | 1486634844.3451 | pgbench_branches |          4825088

 2017-02-09 11:07:25.411339+01 | 1486634845.41134 | pgbench_accounts |       4163747840
 2017-02-09 11:07:25.411339+01 | 1486634845.41134 | pgbench_tellers  |          5480448
 2017-02-09 11:07:25.411339+01 | 1486634845.41134 | pgbench_history  |         33603584
 2017-02-09 11:07:25.411339+01 | 1486634845.41134 | pgbench_branches |          4825088

 2017-02-09 11:07:26.475161+01 | 1486634846.47516 | pgbench_accounts |       4163747840
 2017-02-09 11:07:26.475161+01 | 1486634846.47516 | pgbench_tellers  |          5480448
 2017-02-09 11:07:26.475161+01 | 1486634846.47516 | pgbench_history  |         33873920
 2017-02-09 11:07:26.475161+01 | 1486634846.47516 | pgbench_branches |          4825088

 2017-02-09 11:07:27.535277+01 | 1486634847.53528 | pgbench_accounts |       4163747840
 2017-02-09 11:07:27.535277+01 | 1486634847.53528 | pgbench_tellers  |          5480448
 2017-02-09 11:07:27.535277+01 | 1486634847.53528 | pgbench_history  |         34152448
 2017-02-09 11:07:27.535277+01 | 1486634847.53528 | pgbench_branches |          4825088

 2017-02-09 11:07:28.59803+01 | 1486634848.59803 | pgbench_accounts |       4163747840
 2017-02-09 11:07:28.59803+01 | 1486634848.59803 | pgbench_tellers  |          5480448
 2017-02-09 11:07:28.59803+01 | 1486634848.59803 | pgbench_history  |         34422784
 2017-02-09 11:07:28.59803+01 | 1486634848.59803 | pgbench_branches |          4825088

 2017-02-09 11:07:29.671693+01 | 1486634849.67169 | pgbench_accounts |       4163747840
 2017-02-09 11:07:29.671693+01 | 1486634849.67169 | pgbench_tellers  |          5480448
 2017-02-09 11:07:29.671693+01 | 1486634849.67169 | pgbench_history  |         34684928
 2017-02-09 11:07:29.671693+01 | 1486634849.67169 | pgbench_branches |          4825088

 2017-02-09 11:07:30.741905+01 | 1486634850.7419 | pgbench_accounts |       4163747840
 2017-02-09 11:07:30.741905+01 | 1486634850.7419 | pgbench_tellers  |          5480448
 2017-02-09 11:07:30.741905+01 | 1486634850.7419 | pgbench_history  |         34963456
 2017-02-09 11:07:30.741905+01 | 1486634850.7419 | pgbench_branches |          4825088

 2017-02-09 11:07:31.811132+01 | 1486634851.81113 | pgbench_accounts |       4163747840
 2017-02-09 11:07:31.811132+01 | 1486634851.81113 | pgbench_tellers  |          5480448
 2017-02-09 11:07:31.811132+01 | 1486634851.81113 | pgbench_history  |         35241984
 2017-02-09 11:07:31.811132+01 | 1486634851.81113 | pgbench_branches |          4825088

 2017-02-09 11:07:32.876845+01 | 1486634852.87684 | pgbench_accounts |       4163747840
 2017-02-09 11:07:32.876845+01 | 1486634852.87684 | pgbench_tellers  |          5480448
 2017-02-09 11:07:32.876845+01 | 1486634852.87684 | pgbench_history  |         35504128
 2017-02-09 11:07:32.876845+01 | 1486634852.87684 | pgbench_branches |          4825088

 2017-02-09 11:07:33.936329+01 | 1486634853.93633 | pgbench_accounts |       4163747840
 2017-02-09 11:07:33.936329+01 | 1486634853.93633 | pgbench_tellers  |          5480448
 2017-02-09 11:07:33.936329+01 | 1486634853.93633 | pgbench_history  |         35774464
 2017-02-09 11:07:33.936329+01 | 1486634853.93633 | pgbench_branches |          4825088

 2017-02-09 11:07:34.995212+01 | 1486634854.99521 | pgbench_accounts |       4163747840
 2017-02-09 11:07:34.995212+01 | 1486634854.99521 | pgbench_tellers  |          5480448
 2017-02-09 11:07:34.995212+01 | 1486634854.99521 | pgbench_history  |         36052992
 2017-02-09 11:07:34.995212+01 | 1486634854.99521 | pgbench_branches |          4825088

 2017-02-09 11:07:36.053834+01 | 1486634856.05383 | pgbench_accounts |       4163747840
 2017-02-09 11:07:36.053834+01 | 1486634856.05383 | pgbench_tellers  |          5480448
 2017-02-09 11:07:36.053834+01 | 1486634856.05383 | pgbench_history  |         36315136
 2017-02-09 11:07:36.053834+01 | 1486634856.05383 | pgbench_branches |          4825088

 2017-02-09 11:07:37.112358+01 | 1486634857.11236 | pgbench_accounts |       4163747840
 2017-02-09 11:07:37.112358+01 | 1486634857.11236 | pgbench_tellers  |          5480448
 2017-02-09 11:07:37.112358+01 | 1486634857.11236 | pgbench_history  |         36577280
 2017-02-09 11:07:37.112358+01 | 1486634857.11236 | pgbench_branches |          4825088

 2017-02-09 11:07:38.167882+01 | 1486634858.16788 | pgbench_accounts |       4163747840
 2017-02-09 11:07:38.167882+01 | 1486634858.16788 | pgbench_tellers  |          5480448
 2017-02-09 11:07:38.167882+01 | 1486634858.16788 | pgbench_history  |         36855808
 2017-02-09 11:07:38.167882+01 | 1486634858.16788 | pgbench_branches |          4825088

 2017-02-09 11:07:39.226228+01 | 1486634859.22623 | pgbench_accounts |       4163747840
 2017-02-09 11:07:39.226228+01 | 1486634859.22623 | pgbench_tellers  |          5480448
 2017-02-09 11:07:39.226228+01 | 1486634859.22623 | pgbench_history  |         37109760
 2017-02-09 11:07:39.226228+01 | 1486634859.22623 | pgbench_branches |          4825088

 2017-02-09 11:07:40.284248+01 | 1486634860.28425 | pgbench_accounts |       4163747840
 2017-02-09 11:07:40.284248+01 | 1486634860.28425 | pgbench_tellers  |          5480448
 2017-02-09 11:07:40.284248+01 | 1486634860.28425 | pgbench_history  |         37371904
 2017-02-09 11:07:40.284248+01 | 1486634860.28425 | pgbench_branches |          4825088

 2017-02-09 11:07:41.34229+01 | 1486634861.34229 | pgbench_accounts |       4163747840
 2017-02-09 11:07:41.34229+01 | 1486634861.34229 | pgbench_tellers  |          5480448
 2017-02-09 11:07:41.34229+01 | 1486634861.34229 | pgbench_history  |         37658624
 2017-02-09 11:07:41.34229+01 | 1486634861.34229 | pgbench_branches |          4825088

 2017-02-09 11:07:42.405978+01 | 1486634862.40598 | pgbench_accounts |       4163747840
 2017-02-09 11:07:42.405978+01 | 1486634862.40598 | pgbench_tellers  |          5480448
 2017-02-09 11:07:42.405978+01 | 1486634862.40598 | pgbench_history  |         37920768
 2017-02-09 11:07:42.405978+01 | 1486634862.40598 | pgbench_branches |          4825088

 2017-02-09 11:07:43.461732+01 | 1486634863.46173 | pgbench_accounts |       4163747840
 2017-02-09 11:07:43.461732+01 | 1486634863.46173 | pgbench_tellers  |          5480448
 2017-02-09 11:07:43.461732+01 | 1486634863.46173 | pgbench_history  |         38182912
 2017-02-09 11:07:43.461732+01 | 1486634863.46173 | pgbench_branches |          4825088

 2017-02-09 11:07:44.524464+01 | 1486634864.52446 | pgbench_accounts |       4163747840
 2017-02-09 11:07:44.524464+01 | 1486634864.52446 | pgbench_tellers  |          5480448
 2017-02-09 11:07:44.524464+01 | 1486634864.52446 | pgbench_history  |         38477824
 2017-02-09 11:07:44.524464+01 | 1486634864.52446 | pgbench_branches |          4825088

 2017-02-09 11:07:45.589773+01 | 1486634865.58977 | pgbench_accounts |       4163747840
 2017-02-09 11:07:45.589773+01 | 1486634865.58977 | pgbench_tellers  |          5480448
 2017-02-09 11:07:45.589773+01 | 1486634865.58977 | pgbench_history  |         38739968
 2017-02-09 11:07:45.589773+01 | 1486634865.58977 | pgbench_branches |          4825088

 2017-02-09 11:07:46.653118+01 | 1486634866.65312 | pgbench_accounts |       4163747840
 2017-02-09 11:07:46.653118+01 | 1486634866.65312 | pgbench_tellers  |          5480448
 2017-02-09 11:07:46.653118+01 | 1486634866.65312 | pgbench_history  |         39002112
 2017-02-09 11:07:46.653118+01 | 1486634866.65312 | pgbench_branches |          4825088

 2017-02-09 11:07:47.71113+01 | 1486634867.71113 | pgbench_accounts |       4163747840
 2017-02-09 11:07:47.71113+01 | 1486634867.71113 | pgbench_tellers  |          5480448
 2017-02-09 11:07:47.71113+01 | 1486634867.71113 | pgbench_history  |         39297024
 2017-02-09 11:07:47.71113+01 | 1486634867.71113 | pgbench_branches |          4825088

 2017-02-09 11:07:48.786773+01 | 1486634868.78677 | pgbench_accounts |       4163747840
 2017-02-09 11:07:48.786773+01 | 1486634868.78677 | pgbench_tellers  |          5480448
 2017-02-09 11:07:48.786773+01 | 1486634868.78677 | pgbench_history  |         39559168
 2017-02-09 11:07:48.786773+01 | 1486634868.78677 | pgbench_branches |          4825088

 2017-02-09 11:07:49.847506+01 | 1486634869.84751 | pgbench_accounts |       4163747840
 2017-02-09 11:07:49.847506+01 | 1486634869.84751 | pgbench_tellers  |          5480448
 2017-02-09 11:07:49.847506+01 | 1486634869.84751 | pgbench_history  |         39821312
 2017-02-09 11:07:49.847506+01 | 1486634869.84751 | pgbench_branches |          4825088

 2017-02-09 11:07:50.90273+01 | 1486634870.90273 | pgbench_accounts |       4163747840
 2017-02-09 11:07:50.90273+01 | 1486634870.90273 | pgbench_tellers  |          5480448
 2017-02-09 11:07:50.90273+01 | 1486634870.90273 | pgbench_history  |         40091648
 2017-02-09 11:07:50.90273+01 | 1486634870.90273 | pgbench_branches |          4825088

 2017-02-09 11:07:51.961233+01 | 1486634871.96123 | pgbench_accounts |       4163747840
 2017-02-09 11:07:51.961233+01 | 1486634871.96123 | pgbench_tellers  |          5480448
 2017-02-09 11:07:51.961233+01 | 1486634871.96123 | pgbench_history  |         40378368
 2017-02-09 11:07:51.961233+01 | 1486634871.96123 | pgbench_branches |          4825088

 2017-02-09 11:07:53.02404+01 | 1486634873.02404 | pgbench_accounts |       4163747840
 2017-02-09 11:07:53.02404+01 | 1486634873.02404 | pgbench_tellers  |          5480448
 2017-02-09 11:07:53.02404+01 | 1486634873.02404 | pgbench_history  |         40640512
 2017-02-09 11:07:53.02404+01 | 1486634873.02404 | pgbench_branches |          4825088

 2017-02-09 11:07:54.091496+01 | 1486634874.0915 | pgbench_accounts |       4163747840
 2017-02-09 11:07:54.091496+01 | 1486634874.0915 | pgbench_tellers  |          5480448
 2017-02-09 11:07:54.091496+01 | 1486634874.0915 | pgbench_history  |         40902656
 2017-02-09 11:07:54.091496+01 | 1486634874.0915 | pgbench_branches |          4825088

 2017-02-09 11:07:55.159962+01 | 1486634875.15996 | pgbench_accounts |       4163747840
 2017-02-09 11:07:55.159962+01 | 1486634875.15996 | pgbench_tellers  |          5480448
 2017-02-09 11:07:55.159962+01 | 1486634875.15996 | pgbench_history  |         41197568
 2017-02-09 11:07:55.159962+01 | 1486634875.15996 | pgbench_branches |          4825088

 2017-02-09 11:07:56.229118+01 | 1486634876.22912 | pgbench_accounts |       4163747840
 2017-02-09 11:07:56.229118+01 | 1486634876.22912 | pgbench_tellers  |          5480448
 2017-02-09 11:07:56.229118+01 | 1486634876.22912 | pgbench_history  |         41467904
 2017-02-09 11:07:56.229118+01 | 1486634876.22912 | pgbench_branches |          4825088

 2017-02-09 11:07:57.293696+01 | 1486634877.2937 | pgbench_accounts |       4163747840
 2017-02-09 11:07:57.293696+01 | 1486634877.2937 | pgbench_tellers  |          5480448
 2017-02-09 11:07:57.293696+01 | 1486634877.2937 | pgbench_history  |         41730048
 2017-02-09 11:07:57.293696+01 | 1486634877.2937 | pgbench_branches |          4825088

 2017-02-09 11:07:58.357955+01 | 1486634878.35795 | pgbench_accounts |       4163747840
 2017-02-09 11:07:58.357955+01 | 1486634878.35795 | pgbench_tellers  |          5480448
 2017-02-09 11:07:58.357955+01 | 1486634878.35795 | pgbench_history  |         42008576
 2017-02-09 11:07:58.357955+01 | 1486634878.35795 | pgbench_branches |          4825088

 2017-02-09 11:07:59.41745+01 | 1486634879.41745 | pgbench_accounts |       4163747840
 2017-02-09 11:07:59.41745+01 | 1486634879.41745 | pgbench_tellers  |          5480448
 2017-02-09 11:07:59.41745+01 | 1486634879.41745 | pgbench_history  |         42287104
 2017-02-09 11:07:59.41745+01 | 1486634879.41745 | pgbench_branches |          4825088

 2017-02-09 11:08:00.471749+01 | 1486634880.47175 | pgbench_accounts |       4163747840
 2017-02-09 11:08:00.471749+01 | 1486634880.47175 | pgbench_tellers  |          5480448
 2017-02-09 11:08:00.471749+01 | 1486634880.47175 | pgbench_history  |         42549248
 2017-02-09 11:08:00.471749+01 | 1486634880.47175 | pgbench_branches |          4825088

 2017-02-09 11:08:01.526431+01 | 1486634881.52643 | pgbench_accounts |       4163747840
 2017-02-09 11:08:01.526431+01 | 1486634881.52643 | pgbench_tellers  |          5480448
 2017-02-09 11:08:01.526431+01 | 1486634881.52643 | pgbench_history  |         42819584
 2017-02-09 11:08:01.526431+01 | 1486634881.52643 | pgbench_branches |          4825088

 2017-02-09 11:08:02.582578+01 | 1486634882.58258 | pgbench_accounts |       4163747840
 2017-02-09 11:08:02.582578+01 | 1486634882.58258 | pgbench_tellers  |          5480448
 2017-02-09 11:08:02.582578+01 | 1486634882.58258 | pgbench_history  |         43081728
 2017-02-09 11:08:02.582578+01 | 1486634882.58258 | pgbench_branches |          4825088

 2017-02-09 11:08:03.644589+01 | 1486634883.64459 | pgbench_accounts |       4163747840
 2017-02-09 11:08:03.644589+01 | 1486634883.64459 | pgbench_tellers  |          5480448
 2017-02-09 11:08:03.644589+01 | 1486634883.64459 | pgbench_history  |         43343872
 2017-02-09 11:08:03.644589+01 | 1486634883.64459 | pgbench_branches |          4825088

 2017-02-09 11:08:04.708944+01 | 1486634884.70894 | pgbench_accounts |       4163747840
 2017-02-09 11:08:04.708944+01 | 1486634884.70894 | pgbench_tellers  |          5480448
 2017-02-09 11:08:04.708944+01 | 1486634884.70894 | pgbench_history  |         43606016
 2017-02-09 11:08:04.708944+01 | 1486634884.70894 | pgbench_branches |          4825088

 2017-02-09 11:08:05.767568+01 | 1486634885.76757 | pgbench_accounts |       4163747840
 2017-02-09 11:08:05.767568+01 | 1486634885.76757 | pgbench_tellers  |          5480448
 2017-02-09 11:08:05.767568+01 | 1486634885.76757 | pgbench_history  |         43892736
 2017-02-09 11:08:05.767568+01 | 1486634885.76757 | pgbench_branches |          4825088

 2017-02-09 11:08:06.838448+01 | 1486634886.83845 | pgbench_accounts |       4163747840
 2017-02-09 11:08:06.838448+01 | 1486634886.83845 | pgbench_tellers  |          5480448
 2017-02-09 11:08:06.838448+01 | 1486634886.83845 | pgbench_history  |         44163072
 2017-02-09 11:08:06.838448+01 | 1486634886.83845 | pgbench_branches |          4825088

 2017-02-09 11:08:07.905009+01 | 1486634887.90501 | pgbench_accounts |       4163747840
 2017-02-09 11:08:07.905009+01 | 1486634887.90501 | pgbench_tellers  |          5480448
 2017-02-09 11:08:07.905009+01 | 1486634887.90501 | pgbench_history  |         44425216
 2017-02-09 11:08:07.905009+01 | 1486634887.90501 | pgbench_branches |          4825088

 2017-02-09 11:08:08.966445+01 | 1486634888.96644 | pgbench_accounts |       4163747840
 2017-02-09 11:08:08.966445+01 | 1486634888.96644 | pgbench_tellers  |          5480448
 2017-02-09 11:08:08.966445+01 | 1486634888.96644 | pgbench_history  |         44711936
 2017-02-09 11:08:08.966445+01 | 1486634888.96644 | pgbench_branches |          4825088

 2017-02-09 11:08:10.023754+01 | 1486634890.02375 | pgbench_accounts |       4163747840
 2017-02-09 11:08:10.023754+01 | 1486634890.02375 | pgbench_tellers  |          5480448
 2017-02-09 11:08:10.023754+01 | 1486634890.02375 | pgbench_history  |         44974080
 2017-02-09 11:08:10.023754+01 | 1486634890.02375 | pgbench_branches |          4825088

 2017-02-09 11:08:11.082484+01 | 1486634891.08248 | pgbench_accounts |       4163747840
 2017-02-09 11:08:11.082484+01 | 1486634891.08248 | pgbench_tellers  |          5480448
 2017-02-09 11:08:11.082484+01 | 1486634891.08248 | pgbench_history  |         45244416
 2017-02-09 11:08:11.082484+01 | 1486634891.08248 | pgbench_branches |          4825088

 2017-02-09 11:08:12.136689+01 | 1486634892.13669 | pgbench_accounts |       4163747840
 2017-02-09 11:08:12.136689+01 | 1486634892.13669 | pgbench_tellers  |          5480448
 2017-02-09 11:08:12.136689+01 | 1486634892.13669 | pgbench_history  |         45514752
 2017-02-09 11:08:12.136689+01 | 1486634892.13669 | pgbench_branches |          4825088

 2017-02-09 11:08:13.206264+01 | 1486634893.20626 | pgbench_accounts |       4163747840
 2017-02-09 11:08:13.206264+01 | 1486634893.20626 | pgbench_tellers  |          5480448
 2017-02-09 11:08:13.206264+01 | 1486634893.20626 | pgbench_history  |         45801472
 2017-02-09 11:08:13.206264+01 | 1486634893.20626 | pgbench_branches |          4825088

 2017-02-09 11:08:14.273611+01 | 1486634894.27361 | pgbench_accounts |       4163747840
 2017-02-09 11:08:14.273611+01 | 1486634894.27361 | pgbench_tellers  |          5480448
 2017-02-09 11:08:14.273611+01 | 1486634894.27361 | pgbench_history  |         46063616
 2017-02-09 11:08:14.273611+01 | 1486634894.27361 | pgbench_branches |          4825088

 2017-02-09 11:08:15.340239+01 | 1486634895.34024 | pgbench_accounts |       4163747840
 2017-02-09 11:08:15.340239+01 | 1486634895.34024 | pgbench_tellers  |          5480448
 2017-02-09 11:08:15.340239+01 | 1486634895.34024 | pgbench_history  |         46358528
 2017-02-09 11:08:15.340239+01 | 1486634895.34024 | pgbench_branches |          4825088

 2017-02-09 11:08:16.41385+01 | 1486634896.41385 | pgbench_accounts |       4163747840
 2017-02-09 11:08:16.41385+01 | 1486634896.41385 | pgbench_tellers  |          5480448
 2017-02-09 11:08:16.41385+01 | 1486634896.41385 | pgbench_history  |         46637056
 2017-02-09 11:08:16.41385+01 | 1486634896.41385 | pgbench_branches |          4825088

 2017-02-09 11:08:17.479557+01 | 1486634897.47956 | pgbench_accounts |       4163747840
 2017-02-09 11:08:17.479557+01 | 1486634897.47956 | pgbench_tellers  |          5480448
 2017-02-09 11:08:17.479557+01 | 1486634897.47956 | pgbench_history  |         46891008
 2017-02-09 11:08:17.479557+01 | 1486634897.47956 | pgbench_branches |          4825088

 2017-02-09 11:08:18.545028+01 | 1486634898.54503 | pgbench_accounts |       4163747840
 2017-02-09 11:08:18.545028+01 | 1486634898.54503 | pgbench_tellers  |          5480448
 2017-02-09 11:08:18.545028+01 | 1486634898.54503 | pgbench_history  |         47161344
 2017-02-09 11:08:18.545028+01 | 1486634898.54503 | pgbench_branches |          4825088

 2017-02-09 11:08:19.61273+01 | 1486634899.61273 | pgbench_accounts |       4163747840
 2017-02-09 11:08:19.61273+01 | 1486634899.61273 | pgbench_tellers  |          5480448
 2017-02-09 11:08:19.61273+01 | 1486634899.61273 | pgbench_history  |         47439872
 2017-02-09 11:08:19.61273+01 | 1486634899.61273 | pgbench_branches |          4825088

 2017-02-09 11:08:20.673029+01 | 1486634900.67303 | pgbench_accounts |       4163747840
 2017-02-09 11:08:20.673029+01 | 1486634900.67303 | pgbench_tellers  |          5480448
 2017-02-09 11:08:20.673029+01 | 1486634900.67303 | pgbench_history  |         47726592
 2017-02-09 11:08:20.673029+01 | 1486634900.67303 | pgbench_branches |          4825088

 2017-02-09 11:08:21.733685+01 | 1486634901.73369 | pgbench_accounts |       4163747840
 2017-02-09 11:08:21.733685+01 | 1486634901.73369 | pgbench_tellers  |          5480448
 2017-02-09 11:08:21.733685+01 | 1486634901.73369 | pgbench_history  |         47988736
 2017-02-09 11:08:21.733685+01 | 1486634901.73369 | pgbench_branches |          4825088

 2017-02-09 11:08:22.794775+01 | 1486634902.79478 | pgbench_accounts |       4163747840
 2017-02-09 11:08:22.794775+01 | 1486634902.79478 | pgbench_tellers  |          5480448
 2017-02-09 11:08:22.794775+01 | 1486634902.79478 | pgbench_history  |         48259072
 2017-02-09 11:08:22.794775+01 | 1486634902.79478 | pgbench_branches |          4825088

 2017-02-09 11:08:23.854022+01 | 1486634903.85402 | pgbench_accounts |       4163747840
 2017-02-09 11:08:23.854022+01 | 1486634903.85402 | pgbench_tellers  |          5480448
 2017-02-09 11:08:23.854022+01 | 1486634903.85402 | pgbench_history  |         48537600
 2017-02-09 11:08:23.854022+01 | 1486634903.85402 | pgbench_branches |          4825088

 2017-02-09 11:08:24.912698+01 | 1486634904.9127 | pgbench_accounts |       4163747840
 2017-02-09 11:08:24.912698+01 | 1486634904.9127 | pgbench_tellers  |          5480448
 2017-02-09 11:08:24.912698+01 | 1486634904.9127 | pgbench_history  |         48824320
 2017-02-09 11:08:24.912698+01 | 1486634904.9127 | pgbench_branches |          4825088

 2017-02-09 11:08:25.972777+01 | 1486634905.97278 | pgbench_accounts |       4163747840
 2017-02-09 11:08:25.972777+01 | 1486634905.97278 | pgbench_tellers  |          5480448
 2017-02-09 11:08:25.972777+01 | 1486634905.97278 | pgbench_history  |         49086464
 2017-02-09 11:08:25.972777+01 | 1486634905.97278 | pgbench_branches |          4825088

 2017-02-09 11:08:27.028681+01 | 1486634907.02868 | pgbench_accounts |       4163747840
 2017-02-09 11:08:27.028681+01 | 1486634907.02868 | pgbench_tellers  |          5480448
 2017-02-09 11:08:27.028681+01 | 1486634907.02868 | pgbench_history  |         49356800
 2017-02-09 11:08:27.028681+01 | 1486634907.02868 | pgbench_branches |          4825088

 2017-02-09 11:08:28.088284+01 | 1486634908.08828 | pgbench_accounts |       4163747840
 2017-02-09 11:08:28.088284+01 | 1486634908.08828 | pgbench_tellers  |          5480448
 2017-02-09 11:08:28.088284+01 | 1486634908.08828 | pgbench_history  |         49635328
 2017-02-09 11:08:28.088284+01 | 1486634908.08828 | pgbench_branches |          4825088

 2017-02-09 11:08:29.152971+01 | 1486634909.15297 | pgbench_accounts |       4163747840
 2017-02-09 11:08:29.152971+01 | 1486634909.15297 | pgbench_tellers  |          5480448
 2017-02-09 11:08:29.152971+01 | 1486634909.15297 | pgbench_history  |         49897472
 2017-02-09 11:08:29.152971+01 | 1486634909.15297 | pgbench_branches |          4825088

 2017-02-09 11:08:30.210652+01 | 1486634910.21065 | pgbench_accounts |       4163747840
 2017-02-09 11:08:30.210652+01 | 1486634910.21065 | pgbench_tellers  |          5480448
 2017-02-09 11:08:30.210652+01 | 1486634910.21065 | pgbench_history  |         50167808
 2017-02-09 11:08:30.210652+01 | 1486634910.21065 | pgbench_branches |          4825088

 2017-02-09 11:08:31.267238+01 | 1486634911.26724 | pgbench_accounts |       4163747840
 2017-02-09 11:08:31.267238+01 | 1486634911.26724 | pgbench_tellers  |          5480448
 2017-02-09 11:08:31.267238+01 | 1486634911.26724 | pgbench_history  |         50446336
 2017-02-09 11:08:31.267238+01 | 1486634911.26724 | pgbench_branches |          4825088

 2017-02-09 11:08:32.334024+01 | 1486634912.33402 | pgbench_accounts |       4163747840
 2017-02-09 11:08:32.334024+01 | 1486634912.33402 | pgbench_tellers  |          5480448
 2017-02-09 11:08:32.334024+01 | 1486634912.33402 | pgbench_history  |         50724864
 2017-02-09 11:08:32.334024+01 | 1486634912.33402 | pgbench_branches |          4825088

 2017-02-09 11:08:33.402707+01 | 1486634913.40271 | pgbench_accounts |       4163747840
 2017-02-09 11:08:33.402707+01 | 1486634913.40271 | pgbench_tellers  |          5480448
 2017-02-09 11:08:33.402707+01 | 1486634913.40271 | pgbench_history  |         50995200
 2017-02-09 11:08:33.402707+01 | 1486634913.40271 | pgbench_branches |          4825088

 2017-02-09 11:08:34.458869+01 | 1486634914.45887 | pgbench_accounts |       4163747840
 2017-02-09 11:08:34.458869+01 | 1486634914.45887 | pgbench_tellers  |          5480448
 2017-02-09 11:08:34.458869+01 | 1486634914.45887 | pgbench_history  |         51257344
 2017-02-09 11:08:34.458869+01 | 1486634914.45887 | pgbench_branches |          4825088

 2017-02-09 11:08:35.524115+01 | 1486634915.52412 | pgbench_accounts |       4163747840
 2017-02-09 11:08:35.524115+01 | 1486634915.52412 | pgbench_tellers  |          5480448
 2017-02-09 11:08:35.524115+01 | 1486634915.52412 | pgbench_history  |         51544064
 2017-02-09 11:08:35.524115+01 | 1486634915.52412 | pgbench_branches |          4825088

 2017-02-09 11:08:36.592818+01 | 1486634916.59282 | pgbench_accounts |       4163747840
 2017-02-09 11:08:36.592818+01 | 1486634916.59282 | pgbench_tellers  |          5480448
 2017-02-09 11:08:36.592818+01 | 1486634916.59282 | pgbench_history  |         51806208
 2017-02-09 11:08:36.592818+01 | 1486634916.59282 | pgbench_branches |          4825088

 2017-02-09 11:08:37.667309+01 | 1486634917.66731 | pgbench_accounts |       4163747840
 2017-02-09 11:08:37.667309+01 | 1486634917.66731 | pgbench_tellers  |          5480448
 2017-02-09 11:08:37.667309+01 | 1486634917.66731 | pgbench_history  |         52092928
 2017-02-09 11:08:37.667309+01 | 1486634917.66731 | pgbench_branches |          4825088

 2017-02-09 11:08:38.723893+01 | 1486634918.72389 | pgbench_accounts |       4163747840
 2017-02-09 11:08:38.723893+01 | 1486634918.72389 | pgbench_tellers  |          5480448
 2017-02-09 11:08:38.723893+01 | 1486634918.72389 | pgbench_history  |         52371456
 2017-02-09 11:08:38.723893+01 | 1486634918.72389 | pgbench_branches |          4825088

 2017-02-09 11:08:39.78721+01 | 1486634919.78721 | pgbench_accounts |       4163747840
 2017-02-09 11:08:39.78721+01 | 1486634919.78721 | pgbench_tellers  |          5480448
 2017-02-09 11:08:39.78721+01 | 1486634919.78721 | pgbench_history  |         52641792
 2017-02-09 11:08:39.78721+01 | 1486634919.78721 | pgbench_branches |          4825088

 2017-02-09 11:08:40.860398+01 | 1486634920.8604 | pgbench_accounts |       4163747840
 2017-02-09 11:08:40.860398+01 | 1486634920.8604 | pgbench_tellers  |          5480448
 2017-02-09 11:08:40.860398+01 | 1486634920.8604 | pgbench_history  |         52912128
 2017-02-09 11:08:40.860398+01 | 1486634920.8604 | pgbench_branches |          4825088

 2017-02-09 11:08:41.930568+01 | 1486634921.93057 | pgbench_accounts |       4163747840
 2017-02-09 11:08:41.930568+01 | 1486634921.93057 | pgbench_tellers  |          5480448
 2017-02-09 11:08:41.930568+01 | 1486634921.93057 | pgbench_history  |         53182464
 2017-02-09 11:08:41.930568+01 | 1486634921.93057 | pgbench_branches |          4825088

 2017-02-09 11:08:42.9911+01 | 1486634922.9911 | pgbench_accounts |       4163747840
 2017-02-09 11:08:42.9911+01 | 1486634922.9911 | pgbench_tellers  |          5480448
 2017-02-09 11:08:42.9911+01 | 1486634922.9911 | pgbench_history  |         53460992
 2017-02-09 11:08:42.9911+01 | 1486634922.9911 | pgbench_branches |          4825088

 2017-02-09 11:08:44.056823+01 | 1486634924.05682 | pgbench_accounts |       4163747840
 2017-02-09 11:08:44.056823+01 | 1486634924.05682 | pgbench_tellers  |          5480448
 2017-02-09 11:08:44.056823+01 | 1486634924.05682 | pgbench_history  |         53739520
 2017-02-09 11:08:44.056823+01 | 1486634924.05682 | pgbench_branches |          4825088

 2017-02-09 11:08:45.12429+01 | 1486634925.12429 | pgbench_accounts |       4163747840
 2017-02-09 11:08:45.12429+01 | 1486634925.12429 | pgbench_tellers  |          5480448
 2017-02-09 11:08:45.12429+01 | 1486634925.12429 | pgbench_history  |         54026240
 2017-02-09 11:08:45.12429+01 | 1486634925.12429 | pgbench_branches |          4825088

 2017-02-09 11:08:46.208452+01 | 1486634926.20845 | pgbench_accounts |       4163747840
 2017-02-09 11:08:46.208452+01 | 1486634926.20845 | pgbench_tellers  |          5480448
 2017-02-09 11:08:46.208452+01 | 1486634926.20845 | pgbench_history  |         54296576
 2017-02-09 11:08:46.208452+01 | 1486634926.20845 | pgbench_branches |          4825088

 2017-02-09 11:08:47.279002+01 | 1486634927.279 | pgbench_accounts |       4163747840
 2017-02-09 11:08:47.279002+01 | 1486634927.279 | pgbench_tellers  |          5480448
 2017-02-09 11:08:47.279002+01 | 1486634927.279 | pgbench_history  |         54591488
 2017-02-09 11:08:47.279002+01 | 1486634927.279 | pgbench_branches |          4825088

 2017-02-09 11:08:48.345781+01 | 1486634928.34578 | pgbench_accounts |       4163747840
 2017-02-09 11:08:48.345781+01 | 1486634928.34578 | pgbench_tellers  |          5480448
 2017-02-09 11:08:48.345781+01 | 1486634928.34578 | pgbench_history  |         54845440
 2017-02-09 11:08:48.345781+01 | 1486634928.34578 | pgbench_branches |          4825088

 2017-02-09 11:08:49.408788+01 | 1486634929.40879 | pgbench_accounts |       4163747840
 2017-02-09 11:08:49.408788+01 | 1486634929.40879 | pgbench_tellers  |          5480448
 2017-02-09 11:08:49.408788+01 | 1486634929.40879 | pgbench_history  |         55140352
 2017-02-09 11:08:49.408788+01 | 1486634929.40879 | pgbench_branches |          4825088

 2017-02-09 11:08:50.479213+01 | 1486634930.47921 | pgbench_accounts |       4163747840
 2017-02-09 11:08:50.479213+01 | 1486634930.47921 | pgbench_tellers  |          5480448
 2017-02-09 11:08:50.479213+01 | 1486634930.47921 | pgbench_history  |         55402496
 2017-02-09 11:08:50.479213+01 | 1486634930.47921 | pgbench_branches |          4825088

 2017-02-09 11:08:51.549168+01 | 1486634931.54917 | pgbench_accounts |       4163747840
 2017-02-09 11:08:51.549168+01 | 1486634931.54917 | pgbench_tellers  |          5480448
 2017-02-09 11:08:51.549168+01 | 1486634931.54917 | pgbench_history  |         55672832
 2017-02-09 11:08:51.549168+01 | 1486634931.54917 | pgbench_branches |          4825088

 2017-02-09 11:08:52.615888+01 | 1486634932.61589 | pgbench_accounts |       4163747840
 2017-02-09 11:08:52.615888+01 | 1486634932.61589 | pgbench_tellers  |          5480448
 2017-02-09 11:08:52.615888+01 | 1486634932.61589 | pgbench_history  |         55959552
 2017-02-09 11:08:52.615888+01 | 1486634932.61589 | pgbench_branches |          4825088

 2017-02-09 11:08:53.687847+01 | 1486634933.68785 | pgbench_accounts |       4163747840
 2017-02-09 11:08:53.687847+01 | 1486634933.68785 | pgbench_tellers  |          5480448
 2017-02-09 11:08:53.687847+01 | 1486634933.68785 | pgbench_history  |         56238080
 2017-02-09 11:08:53.687847+01 | 1486634933.68785 | pgbench_branches |          4825088

 2017-02-09 11:08:54.759919+01 | 1486634934.75992 | pgbench_accounts |       4163747840
 2017-02-09 11:08:54.759919+01 | 1486634934.75992 | pgbench_tellers  |          5480448
 2017-02-09 11:08:54.759919+01 | 1486634934.75992 | pgbench_history  |         56516608
 2017-02-09 11:08:54.759919+01 | 1486634934.75992 | pgbench_branches |          4825088

 2017-02-09 11:08:55.819677+01 | 1486634935.81968 | pgbench_accounts |       4163747840
 2017-02-09 11:08:55.819677+01 | 1486634935.81968 | pgbench_tellers  |          5480448
 2017-02-09 11:08:55.819677+01 | 1486634935.81968 | pgbench_history  |         56786944
 2017-02-09 11:08:55.819677+01 | 1486634935.81968 | pgbench_branches |          4825088

 2017-02-09 11:08:56.893957+01 | 1486634936.89396 | pgbench_accounts |       4163747840
 2017-02-09 11:08:56.893957+01 | 1486634936.89396 | pgbench_tellers  |          5480448
 2017-02-09 11:08:56.893957+01 | 1486634936.89396 | pgbench_history  |         57081856
 2017-02-09 11:08:56.893957+01 | 1486634936.89396 | pgbench_branches |          4825088

 2017-02-09 11:08:57.959194+01 | 1486634937.95919 | pgbench_accounts |       4163747840
 2017-02-09 11:08:57.959194+01 | 1486634937.95919 | pgbench_tellers  |          5480448
 2017-02-09 11:08:57.959194+01 | 1486634937.95919 | pgbench_history  |         57352192
 2017-02-09 11:08:57.959194+01 | 1486634937.95919 | pgbench_branches |          4825088

 2017-02-09 11:08:59.022045+01 | 1486634939.02204 | pgbench_accounts |       4163747840
 2017-02-09 11:08:59.022045+01 | 1486634939.02204 | pgbench_tellers  |          5480448
 2017-02-09 11:08:59.022045+01 | 1486634939.02204 | pgbench_history  |         57614336
 2017-02-09 11:08:59.022045+01 | 1486634939.02204 | pgbench_branches |          4825088

 2017-02-09 11:09:00.080927+01 | 1486634940.08093 | pgbench_accounts |       4163747840
 2017-02-09 11:09:00.080927+01 | 1486634940.08093 | pgbench_tellers  |          5480448
 2017-02-09 11:09:00.080927+01 | 1486634940.08093 | pgbench_history  |         57892864
 2017-02-09 11:09:00.080927+01 | 1486634940.08093 | pgbench_branches |          4825088

 2017-02-09 11:09:01.139258+01 | 1486634941.13926 | pgbench_accounts |       4163747840
 2017-02-09 11:09:01.139258+01 | 1486634941.13926 | pgbench_tellers  |          5480448
 2017-02-09 11:09:01.139258+01 | 1486634941.13926 | pgbench_history  |         58171392
 2017-02-09 11:09:01.139258+01 | 1486634941.13926 | pgbench_branches |          4825088

 2017-02-09 11:09:02.197333+01 | 1486634942.19733 | pgbench_accounts |       4163747840
 2017-02-09 11:09:02.197333+01 | 1486634942.19733 | pgbench_tellers  |          5480448
 2017-02-09 11:09:02.197333+01 | 1486634942.19733 | pgbench_history  |         58449920
 2017-02-09 11:09:02.197333+01 | 1486634942.19733 | pgbench_branches |          4825088

 2017-02-09 11:09:03.260598+01 | 1486634943.2606 | pgbench_accounts |       4163747840
 2017-02-09 11:09:03.260598+01 | 1486634943.2606 | pgbench_tellers  |          5480448
 2017-02-09 11:09:03.260598+01 | 1486634943.2606 | pgbench_history  |         58720256
 2017-02-09 11:09:03.260598+01 | 1486634943.2606 | pgbench_branches |          4825088

 2017-02-09 11:09:04.333844+01 | 1486634944.33384 | pgbench_accounts |       4163747840
 2017-02-09 11:09:04.333844+01 | 1486634944.33384 | pgbench_tellers  |          5480448
 2017-02-09 11:09:04.333844+01 | 1486634944.33384 | pgbench_history  |         58998784
 2017-02-09 11:09:04.333844+01 | 1486634944.33384 | pgbench_branches |          4825088

 2017-02-09 11:09:05.403696+01 | 1486634945.4037 | pgbench_accounts |       4163747840
 2017-02-09 11:09:05.403696+01 | 1486634945.4037 | pgbench_tellers  |          5480448
 2017-02-09 11:09:05.403696+01 | 1486634945.4037 | pgbench_history  |         59269120
 2017-02-09 11:09:05.403696+01 | 1486634945.4037 | pgbench_branches |          4825088

 2017-02-09 11:09:06.471215+01 | 1486634946.47122 | pgbench_accounts |       4163747840
 2017-02-09 11:09:06.471215+01 | 1486634946.47122 | pgbench_tellers  |          5480448
 2017-02-09 11:09:06.471215+01 | 1486634946.47122 | pgbench_history  |         59547648
 2017-02-09 11:09:06.471215+01 | 1486634946.47122 | pgbench_branches |          4825088

 2017-02-09 11:09:07.532379+01 | 1486634947.53238 | pgbench_accounts |       4163747840
 2017-02-09 11:09:07.532379+01 | 1486634947.53238 | pgbench_tellers  |          5480448
 2017-02-09 11:09:07.532379+01 | 1486634947.53238 | pgbench_history  |         59809792
 2017-02-09 11:09:07.532379+01 | 1486634947.53238 | pgbench_branches |          4825088

 2017-02-09 11:09:08.592553+01 | 1486634948.59255 | pgbench_accounts |       4163747840
 2017-02-09 11:09:08.592553+01 | 1486634948.59255 | pgbench_tellers  |          5480448
 2017-02-09 11:09:08.592553+01 | 1486634948.59255 | pgbench_history  |         60096512
 2017-02-09 11:09:08.592553+01 | 1486634948.59255 | pgbench_branches |          4825088

 2017-02-09 11:09:09.655995+01 | 1486634949.65599 | pgbench_accounts |       4163747840
 2017-02-09 11:09:09.655995+01 | 1486634949.65599 | pgbench_tellers  |          5480448
 2017-02-09 11:09:09.655995+01 | 1486634949.65599 | pgbench_history  |         60350464
 2017-02-09 11:09:09.655995+01 | 1486634949.65599 | pgbench_branches |          4825088

 2017-02-09 11:09:10.720911+01 | 1486634950.72091 | pgbench_accounts |       4163747840
 2017-02-09 11:09:10.720911+01 | 1486634950.72091 | pgbench_tellers  |          5480448
 2017-02-09 11:09:10.720911+01 | 1486634950.72091 | pgbench_history  |         60628992
 2017-02-09 11:09:10.720911+01 | 1486634950.72091 | pgbench_branches |          4825088

 2017-02-09 11:09:11.774423+01 | 1486634951.77442 | pgbench_accounts |       4163747840
 2017-02-09 11:09:11.774423+01 | 1486634951.77442 | pgbench_tellers  |          5480448
 2017-02-09 11:09:11.774423+01 | 1486634951.77442 | pgbench_history  |         60915712
 2017-02-09 11:09:11.774423+01 | 1486634951.77442 | pgbench_branches |          4825088

 2017-02-09 11:09:12.834475+01 | 1486634952.83448 | pgbench_accounts |       4163747840
 2017-02-09 11:09:12.834475+01 | 1486634952.83448 | pgbench_tellers  |          5480448
 2017-02-09 11:09:12.834475+01 | 1486634952.83448 | pgbench_history  |         61177856
 2017-02-09 11:09:12.834475+01 | 1486634952.83448 | pgbench_branches |          4825088

 2017-02-09 11:09:13.895665+01 | 1486634953.89566 | pgbench_accounts |       4163747840
 2017-02-09 11:09:13.895665+01 | 1486634953.89566 | pgbench_tellers  |          5480448
 2017-02-09 11:09:13.895665+01 | 1486634953.89566 | pgbench_history  |         61440000
 2017-02-09 11:09:13.895665+01 | 1486634953.89566 | pgbench_branches |          4825088

 2017-02-09 11:09:14.950266+01 | 1486634954.95027 | pgbench_accounts |       4163747840
 2017-02-09 11:09:14.950266+01 | 1486634954.95027 | pgbench_tellers  |          5480448
 2017-02-09 11:09:14.950266+01 | 1486634954.95027 | pgbench_history  |         61702144
 2017-02-09 11:09:14.950266+01 | 1486634954.95027 | pgbench_branches |          4825088

 2017-02-09 11:09:16.018656+01 | 1486634956.01866 | pgbench_accounts |       4163747840
 2017-02-09 11:09:16.018656+01 | 1486634956.01866 | pgbench_tellers  |          5480448
 2017-02-09 11:09:16.018656+01 | 1486634956.01866 | pgbench_history  |         61988864
 2017-02-09 11:09:16.018656+01 | 1486634956.01866 | pgbench_branches |          4825088

 2017-02-09 11:09:17.076322+01 | 1486634957.07632 | pgbench_accounts |       4163747840
 2017-02-09 11:09:17.076322+01 | 1486634957.07632 | pgbench_tellers  |          5480448
 2017-02-09 11:09:17.076322+01 | 1486634957.07632 | pgbench_history  |         62259200
 2017-02-09 11:09:17.076322+01 | 1486634957.07632 | pgbench_branches |          4825088

 2017-02-09 11:09:18.149748+01 | 1486634958.14975 | pgbench_accounts |       4163747840
 2017-02-09 11:09:18.149748+01 | 1486634958.14975 | pgbench_tellers  |          5480448
 2017-02-09 11:09:18.149748+01 | 1486634958.14975 | pgbench_history  |         62537728
 2017-02-09 11:09:18.149748+01 | 1486634958.14975 | pgbench_branches |          4825088

 2017-02-09 11:09:19.210013+01 | 1486634959.21001 | pgbench_accounts |       4163747840
 2017-02-09 11:09:19.210013+01 | 1486634959.21001 | pgbench_tellers  |          5480448
 2017-02-09 11:09:19.210013+01 | 1486634959.21001 | pgbench_history  |         62808064
 2017-02-09 11:09:19.210013+01 | 1486634959.21001 | pgbench_branches |          4825088

 2017-02-09 11:09:20.278477+01 | 1486634960.27848 | pgbench_accounts |       4163747840
 2017-02-09 11:09:20.278477+01 | 1486634960.27848 | pgbench_tellers  |          5480448
 2017-02-09 11:09:20.278477+01 | 1486634960.27848 | pgbench_history  |         63062016
 2017-02-09 11:09:20.278477+01 | 1486634960.27848 | pgbench_branches |          4825088

 2017-02-09 11:09:21.349242+01 | 1486634961.34924 | pgbench_accounts |       4163747840
 2017-02-09 11:09:21.349242+01 | 1486634961.34924 | pgbench_tellers  |          5480448
 2017-02-09 11:09:21.349242+01 | 1486634961.34924 | pgbench_history  |         63324160
 2017-02-09 11:09:21.349242+01 | 1486634961.34924 | pgbench_branches |          4825088

 2017-02-09 11:09:22.408339+01 | 1486634962.40834 | pgbench_accounts |       4163747840
 2017-02-09 11:09:22.408339+01 | 1486634962.40834 | pgbench_tellers  |          5480448
 2017-02-09 11:09:22.408339+01 | 1486634962.40834 | pgbench_history  |         63586304
 2017-02-09 11:09:22.408339+01 | 1486634962.40834 | pgbench_branches |          4825088

 2017-02-09 11:09:23.469646+01 | 1486634963.46965 | pgbench_accounts |       4163747840
 2017-02-09 11:09:23.469646+01 | 1486634963.46965 | pgbench_tellers  |          5480448
 2017-02-09 11:09:23.469646+01 | 1486634963.46965 | pgbench_history  |         63848448
 2017-02-09 11:09:23.469646+01 | 1486634963.46965 | pgbench_branches |          4825088

 2017-02-09 11:09:24.532596+01 | 1486634964.5326 | pgbench_accounts |       4163747840
 2017-02-09 11:09:24.532596+01 | 1486634964.5326 | pgbench_tellers  |          5480448
 2017-02-09 11:09:24.532596+01 | 1486634964.5326 | pgbench_history  |         64110592
 2017-02-09 11:09:24.532596+01 | 1486634964.5326 | pgbench_branches |          4825088

 2017-02-09 11:09:25.599953+01 | 1486634965.59995 | pgbench_accounts |       4163747840
 2017-02-09 11:09:25.599953+01 | 1486634965.59995 | pgbench_tellers  |          5480448
 2017-02-09 11:09:25.599953+01 | 1486634965.59995 | pgbench_history  |         64380928
 2017-02-09 11:09:25.599953+01 | 1486634965.59995 | pgbench_branches |          4825088

 2017-02-09 11:09:26.65712+01 | 1486634966.65712 | pgbench_accounts |       4163747840
 2017-02-09 11:09:26.65712+01 | 1486634966.65712 | pgbench_tellers  |          5480448
 2017-02-09 11:09:26.65712+01 | 1486634966.65712 | pgbench_history  |         64659456
 2017-02-09 11:09:26.65712+01 | 1486634966.65712 | pgbench_branches |          4825088

 2017-02-09 11:09:27.720253+01 | 1486634967.72025 | pgbench_accounts |       4163747840
 2017-02-09 11:09:27.720253+01 | 1486634967.72025 | pgbench_tellers  |          5480448
 2017-02-09 11:09:27.720253+01 | 1486634967.72025 | pgbench_history  |         64913408
 2017-02-09 11:09:27.720253+01 | 1486634967.72025 | pgbench_branches |          4825088

 2017-02-09 11:09:28.791229+01 | 1486634968.79123 | pgbench_accounts |       4163747840
 2017-02-09 11:09:28.791229+01 | 1486634968.79123 | pgbench_tellers  |          5480448
 2017-02-09 11:09:28.791229+01 | 1486634968.79123 | pgbench_history  |         65183744
 2017-02-09 11:09:28.791229+01 | 1486634968.79123 | pgbench_branches |          4825088

 2017-02-09 11:09:29.852009+01 | 1486634969.85201 | pgbench_accounts |       4163747840
 2017-02-09 11:09:29.852009+01 | 1486634969.85201 | pgbench_tellers  |          5480448
 2017-02-09 11:09:29.852009+01 | 1486634969.85201 | pgbench_history  |         65445888
 2017-02-09 11:09:29.852009+01 | 1486634969.85201 | pgbench_branches |          4825088

 2017-02-09 11:09:30.919558+01 | 1486634970.91956 | pgbench_accounts |       4163747840
 2017-02-09 11:09:30.919558+01 | 1486634970.91956 | pgbench_tellers  |          5480448
 2017-02-09 11:09:30.919558+01 | 1486634970.91956 | pgbench_history  |         65708032
 2017-02-09 11:09:30.919558+01 | 1486634970.91956 | pgbench_branches |          4825088

 2017-02-09 11:09:31.974194+01 | 1486634971.97419 | pgbench_accounts |       4163747840
 2017-02-09 11:09:31.974194+01 | 1486634971.97419 | pgbench_tellers  |          5480448
 2017-02-09 11:09:31.974194+01 | 1486634971.97419 | pgbench_history  |         65961984
 2017-02-09 11:09:31.974194+01 | 1486634971.97419 | pgbench_branches |          4825088

 2017-02-09 11:09:33.035351+01 | 1486634973.03535 | pgbench_accounts |       4163747840
 2017-02-09 11:09:33.035351+01 | 1486634973.03535 | pgbench_tellers  |          5480448
 2017-02-09 11:09:33.035351+01 | 1486634973.03535 | pgbench_history  |         66240512
 2017-02-09 11:09:33.035351+01 | 1486634973.03535 | pgbench_branches |          4825088

 2017-02-09 11:09:34.100959+01 | 1486634974.10096 | pgbench_accounts |       4163747840
 2017-02-09 11:09:34.100959+01 | 1486634974.10096 | pgbench_tellers  |          5480448
 2017-02-09 11:09:34.100959+01 | 1486634974.10096 | pgbench_history  |         66502656
 2017-02-09 11:09:34.100959+01 | 1486634974.10096 | pgbench_branches |          4825088

 2017-02-09 11:09:35.163719+01 | 1486634975.16372 | pgbench_accounts |       4163747840
 2017-02-09 11:09:35.163719+01 | 1486634975.16372 | pgbench_tellers  |          5480448
 2017-02-09 11:09:35.163719+01 | 1486634975.16372 | pgbench_history  |         66764800
 2017-02-09 11:09:35.163719+01 | 1486634975.16372 | pgbench_branches |          4825088

 2017-02-09 11:09:36.222905+01 | 1486634976.2229 | pgbench_accounts |       4163747840
 2017-02-09 11:09:36.222905+01 | 1486634976.2229 | pgbench_tellers  |          5480448
 2017-02-09 11:09:36.222905+01 | 1486634976.2229 | pgbench_history  |         67035136
 2017-02-09 11:09:36.222905+01 | 1486634976.2229 | pgbench_branches |          4825088

 2017-02-09 11:09:37.283346+01 | 1486634977.28335 | pgbench_accounts |       4163747840
 2017-02-09 11:09:37.283346+01 | 1486634977.28335 | pgbench_tellers  |          5480448
 2017-02-09 11:09:37.283346+01 | 1486634977.28335 | pgbench_history  |         67297280
 2017-02-09 11:09:37.283346+01 | 1486634977.28335 | pgbench_branches |          4825088

 2017-02-09 11:09:38.336027+01 | 1486634978.33603 | pgbench_accounts |       4163747840
 2017-02-09 11:09:38.336027+01 | 1486634978.33603 | pgbench_tellers  |          5480448
 2017-02-09 11:09:38.336027+01 | 1486634978.33603 | pgbench_history  |         67575808
 2017-02-09 11:09:38.336027+01 | 1486634978.33603 | pgbench_branches |          4825088

 2017-02-09 11:09:39.410139+01 | 1486634979.41014 | pgbench_accounts |       4163747840
 2017-02-09 11:09:39.410139+01 | 1486634979.41014 | pgbench_tellers  |          5480448
 2017-02-09 11:09:39.410139+01 | 1486634979.41014 | pgbench_history  |         67837952
 2017-02-09 11:09:39.410139+01 | 1486634979.41014 | pgbench_branches |          4825088

 2017-02-09 11:09:40.47362+01 | 1486634980.47362 | pgbench_accounts |       4163747840
 2017-02-09 11:09:40.47362+01 | 1486634980.47362 | pgbench_tellers  |          5480448
 2017-02-09 11:09:40.47362+01 | 1486634980.47362 | pgbench_history  |         68100096
 2017-02-09 11:09:40.47362+01 | 1486634980.47362 | pgbench_branches |          4825088

 2017-02-09 11:09:41.545817+01 | 1486634981.54582 | pgbench_accounts |       4163747840
 2017-02-09 11:09:41.545817+01 | 1486634981.54582 | pgbench_tellers  |          5480448
 2017-02-09 11:09:41.545817+01 | 1486634981.54582 | pgbench_history  |         68378624
 2017-02-09 11:09:41.545817+01 | 1486634981.54582 | pgbench_branches |          4825088

 2017-02-09 11:09:42.609594+01 | 1486634982.60959 | pgbench_accounts |       4163747840
 2017-02-09 11:09:42.609594+01 | 1486634982.60959 | pgbench_tellers  |          5480448
 2017-02-09 11:09:42.609594+01 | 1486634982.60959 | pgbench_history  |         68632576
 2017-02-09 11:09:42.609594+01 | 1486634982.60959 | pgbench_branches |          4825088

 2017-02-09 11:09:43.672588+01 | 1486634983.67259 | pgbench_accounts |       4163747840
 2017-02-09 11:09:43.672588+01 | 1486634983.67259 | pgbench_tellers  |          5480448
 2017-02-09 11:09:43.672588+01 | 1486634983.67259 | pgbench_history  |         68902912
 2017-02-09 11:09:43.672588+01 | 1486634983.67259 | pgbench_branches |          4825088

 2017-02-09 11:09:44.733052+01 | 1486634984.73305 | pgbench_accounts |       4163747840
 2017-02-09 11:09:44.733052+01 | 1486634984.73305 | pgbench_tellers  |          5480448
 2017-02-09 11:09:44.733052+01 | 1486634984.73305 | pgbench_history  |         69173248
 2017-02-09 11:09:44.733052+01 | 1486634984.73305 | pgbench_branches |          4825088

 2017-02-09 11:09:45.792186+01 | 1486634985.79219 | pgbench_accounts |       4163747840
 2017-02-09 11:09:45.792186+01 | 1486634985.79219 | pgbench_tellers  |          5480448
 2017-02-09 11:09:45.792186+01 | 1486634985.79219 | pgbench_history  |         69435392
 2017-02-09 11:09:45.792186+01 | 1486634985.79219 | pgbench_branches |          4825088

 2017-02-09 11:09:46.85259+01 | 1486634986.85259 | pgbench_accounts |       4163747840
 2017-02-09 11:09:46.85259+01 | 1486634986.85259 | pgbench_tellers  |          5480448
 2017-02-09 11:09:46.85259+01 | 1486634986.85259 | pgbench_history  |         69705728
 2017-02-09 11:09:46.85259+01 | 1486634986.85259 | pgbench_branches |          4825088

 2017-02-09 11:09:47.917563+01 | 1486634987.91756 | pgbench_accounts |       4163747840
 2017-02-09 11:09:47.917563+01 | 1486634987.91756 | pgbench_tellers  |          5480448
 2017-02-09 11:09:47.917563+01 | 1486634987.91756 | pgbench_history  |         69992448
 2017-02-09 11:09:47.917563+01 | 1486634987.91756 | pgbench_branches |          4825088

 2017-02-09 11:09:48.984542+01 | 1486634988.98454 | pgbench_accounts |       4163747840
 2017-02-09 11:09:48.984542+01 | 1486634988.98454 | pgbench_tellers  |          5480448
 2017-02-09 11:09:48.984542+01 | 1486634988.98454 | pgbench_history  |         70254592
 2017-02-09 11:09:48.984542+01 | 1486634988.98454 | pgbench_branches |          4825088

 2017-02-09 11:09:50.042888+01 | 1486634990.04289 | pgbench_accounts |       4163747840
 2017-02-09 11:09:50.042888+01 | 1486634990.04289 | pgbench_tellers  |          5480448
 2017-02-09 11:09:50.042888+01 | 1486634990.04289 | pgbench_history  |         70541312
 2017-02-09 11:09:50.042888+01 | 1486634990.04289 | pgbench_branches |          4825088

 2017-02-09 11:09:51.097692+01 | 1486634991.09769 | pgbench_accounts |       4163747840
 2017-02-09 11:09:51.097692+01 | 1486634991.09769 | pgbench_tellers  |          5480448
 2017-02-09 11:09:51.097692+01 | 1486634991.09769 | pgbench_history  |         70819840
 2017-02-09 11:09:51.097692+01 | 1486634991.09769 | pgbench_branches |          4825088

 2017-02-09 11:09:52.160367+01 | 1486634992.16037 | pgbench_accounts |       4163747840
 2017-02-09 11:09:52.160367+01 | 1486634992.16037 | pgbench_tellers  |          5480448
 2017-02-09 11:09:52.160367+01 | 1486634992.16037 | pgbench_history  |         71090176
 2017-02-09 11:09:52.160367+01 | 1486634992.16037 | pgbench_branches |          4825088

 2017-02-09 11:09:53.220895+01 | 1486634993.2209 | pgbench_accounts |       4163747840
 2017-02-09 11:09:53.220895+01 | 1486634993.2209 | pgbench_tellers  |          5480448
 2017-02-09 11:09:53.220895+01 | 1486634993.2209 | pgbench_history  |         71376896
 2017-02-09 11:09:53.220895+01 | 1486634993.2209 | pgbench_branches |          4825088

 2017-02-09 11:09:54.276301+01 | 1486634994.2763 | pgbench_accounts |       4163747840
 2017-02-09 11:09:54.276301+01 | 1486634994.2763 | pgbench_tellers  |          5480448
 2017-02-09 11:09:54.276301+01 | 1486634994.2763 | pgbench_history  |         71647232
 2017-02-09 11:09:54.276301+01 | 1486634994.2763 | pgbench_branches |          4825088

 2017-02-09 11:09:55.332344+01 | 1486634995.33234 | pgbench_accounts |       4163747840
 2017-02-09 11:09:55.332344+01 | 1486634995.33234 | pgbench_tellers  |          5480448
 2017-02-09 11:09:55.332344+01 | 1486634995.33234 | pgbench_history  |         71909376
 2017-02-09 11:09:55.332344+01 | 1486634995.33234 | pgbench_branches |          4825088

 2017-02-09 11:09:56.387573+01 | 1486634996.38757 | pgbench_accounts |       4163747840
 2017-02-09 11:09:56.387573+01 | 1486634996.38757 | pgbench_tellers  |          5480448
 2017-02-09 11:09:56.387573+01 | 1486634996.38757 | pgbench_history  |         72196096
 2017-02-09 11:09:56.387573+01 | 1486634996.38757 | pgbench_branches |          4825088

 2017-02-09 11:09:57.459494+01 | 1486634997.45949 | pgbench_accounts |       4163747840
 2017-02-09 11:09:57.459494+01 | 1486634997.45949 | pgbench_tellers  |          5480448
 2017-02-09 11:09:57.459494+01 | 1486634997.45949 | pgbench_history  |         72491008
 2017-02-09 11:09:57.459494+01 | 1486634997.45949 | pgbench_branches |          4825088

 2017-02-09 11:09:58.527291+01 | 1486634998.52729 | pgbench_accounts |       4163747840
 2017-02-09 11:09:58.527291+01 | 1486634998.52729 | pgbench_tellers  |          5480448
 2017-02-09 11:09:58.527291+01 | 1486634998.52729 | pgbench_history  |         72761344
 2017-02-09 11:09:58.527291+01 | 1486634998.52729 | pgbench_branches |          4825088

 2017-02-09 11:09:59.587619+01 | 1486634999.58762 | pgbench_accounts |       4163747840
 2017-02-09 11:09:59.587619+01 | 1486634999.58762 | pgbench_tellers  |          5480448
 2017-02-09 11:09:59.587619+01 | 1486634999.58762 | pgbench_history  |         73023488
 2017-02-09 11:09:59.587619+01 | 1486634999.58762 | pgbench_branches |          4825088

 2017-02-09 11:10:00.646955+01 | 1486635000.64696 | pgbench_accounts |       4163747840
 2017-02-09 11:10:00.646955+01 | 1486635000.64696 | pgbench_tellers  |          5480448
 2017-02-09 11:10:00.646955+01 | 1486635000.64696 | pgbench_history  |         73310208
 2017-02-09 11:10:00.646955+01 | 1486635000.64696 | pgbench_branches |          4825088

 2017-02-09 11:10:01.709695+01 | 1486635001.7097 | pgbench_accounts |       4163747840
 2017-02-09 11:10:01.709695+01 | 1486635001.7097 | pgbench_tellers  |          5480448
 2017-02-09 11:10:01.709695+01 | 1486635001.7097 | pgbench_history  |         73572352
 2017-02-09 11:10:01.709695+01 | 1486635001.7097 | pgbench_branches |          4825088

 2017-02-09 11:10:02.771064+01 | 1486635002.77106 | pgbench_accounts |       4163747840
 2017-02-09 11:10:02.771064+01 | 1486635002.77106 | pgbench_tellers  |          5480448
 2017-02-09 11:10:02.771064+01 | 1486635002.77106 | pgbench_history  |         73850880
 2017-02-09 11:10:02.771064+01 | 1486635002.77106 | pgbench_branches |          4825088

 2017-02-09 11:10:03.843908+01 | 1486635003.84391 | pgbench_accounts |       4163747840
 2017-02-09 11:10:03.843908+01 | 1486635003.84391 | pgbench_tellers  |          5480448
 2017-02-09 11:10:03.843908+01 | 1486635003.84391 | pgbench_history  |         74121216
 2017-02-09 11:10:03.843908+01 | 1486635003.84391 | pgbench_branches |          4825088

 2017-02-09 11:10:04.921606+01 | 1486635004.92161 | pgbench_accounts |       4163747840
 2017-02-09 11:10:04.921606+01 | 1486635004.92161 | pgbench_tellers  |          5480448
 2017-02-09 11:10:04.921606+01 | 1486635004.92161 | pgbench_history  |         74416128
 2017-02-09 11:10:04.921606+01 | 1486635004.92161 | pgbench_branches |          4825088

 2017-02-09 11:10:05.989747+01 | 1486635005.98975 | pgbench_accounts |       4163747840
 2017-02-09 11:10:05.989747+01 | 1486635005.98975 | pgbench_tellers  |          5480448
 2017-02-09 11:10:05.989747+01 | 1486635005.98975 | pgbench_history  |         74702848
 2017-02-09 11:10:05.989747+01 | 1486635005.98975 | pgbench_branches |          4825088

 2017-02-09 11:10:07.051983+01 | 1486635007.05198 | pgbench_accounts |       4163747840
 2017-02-09 11:10:07.051983+01 | 1486635007.05198 | pgbench_tellers  |          5480448
 2017-02-09 11:10:07.051983+01 | 1486635007.05198 | pgbench_history  |         74973184
 2017-02-09 11:10:07.051983+01 | 1486635007.05198 | pgbench_branches |          4825088

 2017-02-09 11:10:08.113951+01 | 1486635008.11395 | pgbench_accounts |       4163747840
 2017-02-09 11:10:08.113951+01 | 1486635008.11395 | pgbench_tellers  |          5480448
 2017-02-09 11:10:08.113951+01 | 1486635008.11395 | pgbench_history  |         75227136
 2017-02-09 11:10:08.113951+01 | 1486635008.11395 | pgbench_branches |          4825088

