 2017-02-08 11:11:59.411356+01 | 1486548719.41136 |                 0 |               4 |                  1389 |                   87 |             169996 |        440246 |             4395 |        10587583 |                     0 |      10923201 | 2017-02-08 10:56:06.890034+01

 2017-02-08 11:12:00.465946+01 | 1486548720.46595 |                 0 |               4 |                  1389 |                   87 |             169996 |        440246 |             4395 |        10587583 |                     0 |      10934404 | 2017-02-08 10:56:06.890034+01

 2017-02-08 11:12:01.521415+01 | 1486548721.52141 |                 0 |               4 |                  1389 |                   87 |             169996 |        440246 |             4395 |        10587583 |                     0 |      10945802 | 2017-02-08 10:56:06.890034+01

 2017-02-08 11:12:02.576845+01 | 1486548722.57684 |                 0 |               4 |                  1389 |                   87 |             169996 |        440267 |             4395 |        10587583 |                     0 |      10956835 | 2017-02-08 10:56:06.890034+01

 2017-02-08 11:12:03.632341+01 | 1486548723.63234 |                 0 |               4 |                  1389 |                   87 |             169996 |        440327 |             4395 |        10587583 |                     0 |      10970149 | 2017-02-08 10:56:06.890034+01

 2017-02-08 11:12:04.686861+01 | 1486548724.68686 |                 0 |               4 |                  1389 |                   87 |             169996 |        440432 |             4395 |        10587583 |                     0 |      10980630 | 2017-02-08 10:56:06.890034+01

 2017-02-08 11:12:05.738844+01 | 1486548725.73884 |                 0 |               4 |                  1389 |                   87 |             169996 |        440915 |             4398 |        10587583 |                     0 |      10991942 | 2017-02-08 10:56:06.890034+01

 2017-02-08 11:12:06.79729+01 | 1486548726.79729 |                 0 |               4 |                  1389 |                   87 |             169996 |        441415 |             4403 |        10587583 |                     0 |      11003223 | 2017-02-08 10:56:06.890034+01

 2017-02-08 11:12:07.854976+01 | 1486548727.85498 |                 0 |               4 |                  1389 |                   87 |             169996 |        442015 |             4409 |        10587583 |                     0 |      11016851 | 2017-02-08 10:56:06.890034+01

 2017-02-08 11:12:08.910997+01 | 1486548728.911 |                 0 |               4 |                  1389 |                   87 |             169996 |        442515 |             4414 |        10587583 |                     0 |      11027423 | 2017-02-08 10:56:06.890034+01

 2017-02-08 11:12:09.977114+01 | 1486548729.97711 |                 0 |               4 |                  1389 |                   87 |             169996 |        443015 |             4419 |        10587583 |                     0 |      11038239 | 2017-02-08 10:56:06.890034+01

 2017-02-08 11:12:11.032019+01 | 1486548731.03202 |                 0 |               4 |                  1389 |                   87 |             169996 |        443515 |             4424 |        10587583 |                     0 |      11049104 | 2017-02-08 10:56:06.890034+01

 2017-02-08 11:12:12.089108+01 | 1486548732.08911 |                 0 |               4 |                  1389 |                   87 |             169996 |        444115 |             4430 |        10587583 |                     0 |      11061394 | 2017-02-08 10:56:06.890034+01

 2017-02-08 11:12:13.145441+01 | 1486548733.14544 |                 0 |               4 |                  1389 |                   87 |             169996 |        444615 |             4435 |        10587583 |                     0 |      11072368 | 2017-02-08 10:56:06.890034+01

 2017-02-08 11:12:14.200918+01 | 1486548734.20092 |                 0 |               4 |                  1389 |                   87 |             169996 |        445115 |             4440 |        10648750 |                     0 |      11083257 | 2017-02-08 10:56:06.890034+01

 2017-02-08 11:12:15.257208+01 | 1486548735.25721 |                 0 |               4 |                  1389 |                   87 |             169996 |        445615 |             4445 |        10648750 |                     0 |      11094344 | 2017-02-08 10:56:06.890034+01

 2017-02-08 11:12:16.314301+01 | 1486548736.3143 |                 0 |               4 |                  1389 |                   87 |             169996 |        446215 |             4451 |        10648750 |                     0 |      11107713 | 2017-02-08 10:56:06.890034+01

 2017-02-08 11:12:17.366417+01 | 1486548737.36642 |                 0 |               4 |                  1389 |                   87 |             169996 |        446715 |             4456 |        10648750 |                     0 |      11118786 | 2017-02-08 10:56:06.890034+01

 2017-02-08 11:12:18.420839+01 | 1486548738.42084 |                 0 |               4 |                  1389 |                   87 |             169996 |        447215 |             4461 |        10648750 |                     0 |      11129603 | 2017-02-08 10:56:06.890034+01

 2017-02-08 11:12:19.475962+01 | 1486548739.47596 |                 0 |               4 |                  1389 |                   87 |             169996 |        447715 |             4466 |        10648750 |                     0 |      11140072 | 2017-02-08 10:56:06.890034+01

 2017-02-08 11:12:20.532431+01 | 1486548740.53243 |                 0 |               4 |                  1389 |                   87 |             169996 |        448215 |             4471 |        10710905 |                     0 |      11150857 | 2017-02-08 10:56:06.890034+01

 2017-02-08 11:12:21.591589+01 | 1486548741.59159 |                 0 |               4 |                  1389 |                   87 |             169996 |        448815 |             4477 |        10710905 |                     0 |      11164357 | 2017-02-08 10:56:06.890034+01

 2017-02-08 11:12:22.648167+01 | 1486548742.64817 |                 0 |               4 |                  1389 |                   87 |             169996 |        449315 |             4482 |        10710905 |                     0 |      11175583 | 2017-02-08 10:56:06.890034+01

 2017-02-08 11:12:23.703172+01 | 1486548743.70317 |                 0 |               4 |                  1389 |                   87 |             169996 |        449815 |             4487 |        10710905 |                     0 |      11186655 | 2017-02-08 10:56:06.890034+01

 2017-02-08 11:12:24.758657+01 | 1486548744.75866 |                 0 |               4 |                  1389 |                   87 |             169996 |        450415 |             4493 |        10710905 |                     0 |      11199632 | 2017-02-08 10:56:06.890034+01

 2017-02-08 11:12:25.812336+01 | 1486548745.81234 |                 0 |               4 |                  1389 |                   87 |             169996 |        450915 |             4498 |        10710905 |                     0 |      11210636 | 2017-02-08 10:56:06.890034+01

 2017-02-08 11:12:26.869199+01 | 1486548746.8692 |                 0 |               4 |                  1389 |                   87 |             169996 |        451415 |             4503 |        10710905 |                     0 |      11221557 | 2017-02-08 10:56:06.890034+01

 2017-02-08 11:12:27.924401+01 | 1486548747.9244 |                 0 |               4 |                  1389 |                   87 |             169996 |        451915 |             4508 |        10773041 |                     0 |      11233019 | 2017-02-08 10:56:06.890034+01

 2017-02-08 11:12:28.978864+01 | 1486548748.97886 |                 0 |               4 |                  1389 |                   87 |             169996 |        452415 |             4513 |        10773041 |                     0 |      11244328 | 2017-02-08 10:56:06.890034+01

 2017-02-08 11:12:30.039609+01 | 1486548750.03961 |                 0 |               4 |                  1389 |                   87 |             169996 |        453015 |             4519 |        10773041 |                     0 |      11258065 | 2017-02-08 10:56:06.890034+01

 2017-02-08 11:12:31.096592+01 | 1486548751.09659 |                 0 |               4 |                  1389 |                   87 |             169996 |        453515 |             4524 |        10773041 |                     0 |      11268814 | 2017-02-08 10:56:06.890034+01

 2017-02-08 11:12:32.155921+01 | 1486548752.15592 |                 0 |               4 |                  1389 |                   87 |             169996 |        454015 |             4529 |        10773041 |                     0 |      11280254 | 2017-02-08 10:56:06.890034+01

 2017-02-08 11:12:33.217964+01 | 1486548753.21796 |                 0 |               4 |                  1389 |                   87 |             169996 |        454515 |             4534 |        10773041 |                     0 |      11291698 | 2017-02-08 10:56:06.890034+01

 2017-02-08 11:12:34.274989+01 | 1486548754.27499 |                 0 |               4 |                  1389 |                   87 |             169996 |        455115 |             4540 |        10835277 |                     0 |      11305672 | 2017-02-08 10:56:06.890034+01

 2017-02-08 11:12:35.327749+01 | 1486548755.32775 |                 0 |               4 |                  1389 |                   87 |             169996 |        455615 |             4545 |        10835277 |                     0 |      11317213 | 2017-02-08 10:56:06.890034+01

 2017-02-08 11:12:36.381207+01 | 1486548756.38121 |                 0 |               4 |                  1389 |                   87 |             169996 |        456115 |             4550 |        10835277 |                     0 |      11327910 | 2017-02-08 10:56:06.890034+01

 2017-02-08 11:12:37.439752+01 | 1486548757.43975 |                 0 |               4 |                  1389 |                   87 |             169996 |        456715 |             4556 |        10835277 |                     0 |      11341907 | 2017-02-08 10:56:06.890034+01

 2017-02-08 11:12:38.480936+01 | 1486548758.48094 |                 0 |               4 |                  1389 |                   87 |             169996 |        457115 |             4560 |        10835277 |                     0 |      11350881 | 2017-02-08 10:56:06.890034+01

 2017-02-08 11:12:39.541745+01 | 1486548759.54174 |                 0 |               4 |                  1389 |                   87 |             169996 |        457715 |             4566 |        10835277 |                     0 |      11364526 | 2017-02-08 10:56:06.890034+01

 2017-02-08 11:12:40.599688+01 | 1486548760.59969 |                 0 |               4 |                  1389 |                   87 |             169996 |        458215 |             4571 |        10897413 |                     0 |      11375702 | 2017-02-08 10:56:06.890034+01

 2017-02-08 11:12:41.656605+01 | 1486548761.65661 |                 0 |               4 |                  1389 |                   87 |             169996 |        458815 |             4577 |        10897413 |                     0 |      11388994 | 2017-02-08 10:56:06.890034+01

 2017-02-08 11:12:42.711458+01 | 1486548762.71146 |                 0 |               4 |                  1389 |                   87 |             169996 |        459315 |             4582 |        10897413 |                     0 |      11400616 | 2017-02-08 10:56:06.890034+01

 2017-02-08 11:12:43.768658+01 | 1486548763.76866 |                 0 |               4 |                  1389 |                   87 |             169996 |        459815 |             4587 |        10897413 |                     0 |      11411964 | 2017-02-08 10:56:06.890034+01

 2017-02-08 11:12:44.832043+01 | 1486548764.83204 |                 0 |               4 |                  1389 |                   87 |             169996 |        460315 |             4592 |        10897413 |                     0 |      11423579 | 2017-02-08 10:56:06.890034+01

 2017-02-08 11:12:45.896622+01 | 1486548765.89662 |                 0 |               4 |                  1389 |                   87 |             169996 |        460915 |             4598 |        10897413 |                     0 |      11437524 | 2017-02-08 10:56:06.890034+01

 2017-02-08 11:12:46.949423+01 | 1486548766.94942 |                 0 |               4 |                  1389 |                   87 |             169996 |        461415 |             4603 |        10897413 |                     0 |      11448447 | 2017-02-08 10:56:06.890034+01

 2017-02-08 11:12:48.005679+01 | 1486548768.00568 |                 0 |               4 |                  1389 |                   87 |             169996 |        461915 |             4608 |        10959649 |                     0 |      11459687 | 2017-02-08 10:56:06.890034+01

 2017-02-08 11:12:49.059529+01 | 1486548769.05953 |                 0 |               4 |                  1389 |                   87 |             169996 |        462415 |             4613 |        10959649 |                     0 |      11471122 | 2017-02-08 10:56:06.890034+01

 2017-02-08 11:12:50.120261+01 | 1486548770.12026 |                 0 |               4 |                  1389 |                   87 |             169996 |        463015 |             4619 |        10959649 |                     0 |      11485147 | 2017-02-08 10:56:06.890034+01

 2017-02-08 11:12:51.177344+01 | 1486548771.17734 |                 0 |               4 |                  1389 |                   87 |             169996 |        463515 |             4624 |        10959649 |                     0 |      11496746 | 2017-02-08 10:56:06.890034+01

 2017-02-08 11:12:52.231465+01 | 1486548772.23147 |                 0 |               4 |                  1389 |                   87 |             169996 |        464015 |             4629 |        10959649 |                     0 |      11508077 | 2017-02-08 10:56:06.890034+01

 2017-02-08 11:12:53.287705+01 | 1486548773.2877 |                 0 |               4 |                  1389 |                   87 |             169996 |        464515 |             4634 |        10959649 |                     0 |      11518987 | 2017-02-08 10:56:06.890034+01

 2017-02-08 11:12:54.338774+01 | 1486548774.33877 |                 0 |               4 |                  1389 |                   87 |             169996 |        465115 |             4640 |        11021937 |                     0 |      11532755 | 2017-02-08 10:56:06.890034+01

 2017-02-08 11:12:55.400407+01 | 1486548775.40041 |                 0 |               4 |                  1389 |                   87 |             169996 |        465615 |             4645 |        11021937 |                     0 |      11544386 | 2017-02-08 10:56:06.890034+01

 2017-02-08 11:12:56.478231+01 | 1486548776.47823 |                 0 |               4 |                  1389 |                   87 |             169996 |        466115 |             4650 |        11021937 |                     0 |      11555958 | 2017-02-08 10:56:06.890034+01

 2017-02-08 11:12:57.542151+01 | 1486548777.54215 |                 0 |               4 |                  1389 |                   87 |             169996 |        466615 |             4655 |        11021937 |                     0 |      11567503 | 2017-02-08 10:56:06.890034+01

 2017-02-08 11:12:58.597219+01 | 1486548778.59722 |                 0 |               4 |                  1389 |                   87 |             169996 |        467215 |             4661 |        11021937 |                     0 |      11581121 | 2017-02-08 10:56:06.890034+01

 2017-02-08 11:12:59.652847+01 | 1486548779.65285 |                 0 |               4 |                  1389 |                   87 |             169996 |        467715 |             4666 |        11021937 |                     0 |      11592510 | 2017-02-08 10:56:06.890034+01

 2017-02-08 11:13:00.711917+01 | 1486548780.71192 |                 0 |               4 |                  1389 |                   87 |             169996 |        468215 |             4671 |        11084227 |                     0 |      11604016 | 2017-02-08 10:56:06.890034+01

 2017-02-08 11:13:01.762539+01 | 1486548781.76254 |                 0 |               4 |                  1389 |                   87 |             169996 |        468715 |             4676 |        11084227 |                     0 |      11615880 | 2017-02-08 10:56:06.890034+01

 2017-02-08 11:13:02.81913+01 | 1486548782.81913 |                 0 |               4 |                  1389 |                   87 |             169996 |        469315 |             4682 |        11084227 |                     0 |      11629413 | 2017-02-08 10:56:06.890034+01

 2017-02-08 11:13:03.878308+01 | 1486548783.87831 |                 0 |               4 |                  1389 |                   87 |             169996 |        469815 |             4687 |        11084227 |                     0 |      11641194 | 2017-02-08 10:56:06.890034+01

 2017-02-08 11:13:04.932284+01 | 1486548784.93228 |                 0 |               4 |                  1389 |                   87 |             169996 |        470315 |             4692 |        11084227 |                     0 |      11653116 | 2017-02-08 10:56:06.890034+01

 2017-02-08 11:13:06.008683+01 | 1486548786.00868 |                 0 |               4 |                  1389 |                   87 |             169996 |        470815 |             4697 |        11084227 |                     0 |      11665013 | 2017-02-08 10:56:06.890034+01

 2017-02-08 11:13:07.068515+01 | 1486548787.06852 |                 0 |               4 |                  1389 |                   87 |             169996 |        471415 |             4703 |        11146563 |                     0 |      11678584 | 2017-02-08 10:56:06.890034+01

 2017-02-08 11:13:08.12535+01 | 1486548788.12535 |                 0 |               4 |                  1389 |                   87 |             169996 |        471915 |             4708 |        11146563 |                     0 |      11690386 | 2017-02-08 10:56:06.890034+01

 2017-02-08 11:13:09.181996+01 | 1486548789.182 |                 0 |               4 |                  1389 |                   87 |             169996 |        472415 |             4713 |        11146563 |                     0 |      11702328 | 2017-02-08 10:56:06.890034+01

 2017-02-08 11:13:10.240103+01 | 1486548790.2401 |                 0 |               4 |                  1389 |                   87 |             169996 |        473015 |             4719 |        11146563 |                     0 |      11716343 | 2017-02-08 10:56:06.890034+01

 2017-02-08 11:13:11.303935+01 | 1486548791.30394 |                 0 |               4 |                  1389 |                   87 |             169996 |        473515 |             4724 |        11146563 |                     0 |      11727431 | 2017-02-08 10:56:06.890034+01

 2017-02-08 11:13:12.36273+01 | 1486548792.36273 |                 0 |               4 |                  1389 |                   87 |             169996 |        474015 |             4729 |        11146563 |                     0 |      11739410 | 2017-02-08 10:56:06.890034+01

 2017-02-08 11:13:13.417983+01 | 1486548793.41798 |                 0 |               4 |                  1389 |                   87 |             169996 |        474515 |             4734 |        11208901 |                     0 |      11751231 | 2017-02-08 10:56:06.890034+01

 2017-02-08 11:13:14.4816+01 | 1486548794.4816 |                 0 |               4 |                  1389 |                   87 |             169996 |        475115 |             4740 |        11208901 |                     0 |      11765553 | 2017-02-08 10:56:06.890034+01

 2017-02-08 11:13:15.540341+01 | 1486548795.54034 |                 0 |               4 |                  1389 |                   87 |             169996 |        475615 |             4745 |        11208901 |                     0 |      11776755 | 2017-02-08 10:56:06.890034+01

 2017-02-08 11:13:16.596581+01 | 1486548796.59658 |                 0 |               4 |                  1389 |                   87 |             169996 |        476115 |             4750 |        11208901 |                     0 |      11788433 | 2017-02-08 10:56:06.890034+01

 2017-02-08 11:13:17.650912+01 | 1486548797.65091 |                 0 |               4 |                  1389 |                   87 |             169996 |        476615 |             4755 |        11208901 |                     0 |      11800372 | 2017-02-08 10:56:06.890034+01

 2017-02-08 11:13:18.707621+01 | 1486548798.70762 |                 0 |               4 |                  1389 |                   87 |             169996 |        477215 |             4761 |        11208901 |                     0 |      11814453 | 2017-02-08 10:56:06.890034+01

 2017-02-08 11:13:19.769119+01 | 1486548799.76912 |                 0 |               4 |                  1389 |                   87 |             169996 |        477715 |             4766 |        11271237 |                     0 |      11826066 | 2017-02-08 10:56:06.890034+01

 2017-02-08 11:13:20.824578+01 | 1486548800.82458 |                 0 |               4 |                  1389 |                   87 |             169996 |        478215 |             4771 |        11271237 |                     0 |      11837096 | 2017-02-08 10:56:06.890034+01

 2017-02-08 11:13:21.880147+01 | 1486548801.88015 |                 0 |               4 |                  1389 |                   87 |             169996 |        478815 |             4777 |        11271237 |                     0 |      11849718 | 2017-02-08 10:56:06.890034+01

 2017-02-08 11:13:22.939112+01 | 1486548802.93911 |                 0 |               4 |                  1389 |                   87 |             169996 |        479315 |             4782 |        11271237 |                     0 |      11860771 | 2017-02-08 10:56:06.890034+01

 2017-02-08 11:13:23.997088+01 | 1486548803.99709 |                 0 |               4 |                  1389 |                   87 |             169996 |        479815 |             4787 |        11271237 |                     0 |      11871684 | 2017-02-08 10:56:06.890034+01

 2017-02-08 11:13:25.056946+01 | 1486548805.05695 |                 0 |               4 |                  1389 |                   87 |             169996 |        480315 |             4792 |        11271237 |                     0 |      11882930 | 2017-02-08 10:56:06.890034+01

 2017-02-08 11:13:26.119503+01 | 1486548806.1195 |                 0 |               4 |                  1389 |                   87 |             169996 |        480915 |             4798 |        11271237 |                     0 |      11896448 | 2017-02-08 10:56:06.890034+01

 2017-02-08 11:13:27.173118+01 | 1486548807.17312 |                 0 |               4 |                  1389 |                   87 |             169996 |        481415 |             4803 |        11333073 |                     0 |      11907329 | 2017-02-08 10:56:06.890034+01

 2017-02-08 11:13:28.232452+01 | 1486548808.23245 |                 0 |               4 |                  1389 |                   87 |             169996 |        481915 |             4808 |        11333073 |                     0 |      11918443 | 2017-02-08 10:56:06.890034+01

 2017-02-08 11:13:29.286671+01 | 1486548809.28667 |                 0 |               4 |                  1389 |                   87 |             169996 |        482415 |             4813 |        11333073 |                     0 |      11929439 | 2017-02-08 10:56:06.890034+01

 2017-02-08 11:13:30.338444+01 | 1486548810.33844 |                 0 |               4 |                  1389 |                   87 |             169996 |        483015 |             4819 |        11333073 |                     0 |      11942615 | 2017-02-08 10:56:06.890034+01

 2017-02-08 11:13:31.400891+01 | 1486548811.40089 |                 0 |               4 |                  1389 |                   87 |             169996 |        483515 |             4824 |        11333073 |                     0 |      11953280 | 2017-02-08 10:56:06.890034+01

 2017-02-08 11:13:32.455818+01 | 1486548812.45582 |                 0 |               4 |                  1389 |                   87 |             169996 |        484015 |             4829 |        11333073 |                     0 |      11964368 | 2017-02-08 10:56:06.890034+01

 2017-02-08 11:13:33.513519+01 | 1486548813.51352 |                 0 |               4 |                  1389 |                   87 |             169996 |        484515 |             4834 |        11333073 |                     0 |      11975250 | 2017-02-08 10:56:06.890034+01

 2017-02-08 11:13:34.573214+01 | 1486548814.57321 |                 0 |               4 |                  1389 |                   87 |             169996 |        485115 |             4840 |        11395231 |                     0 |      11988350 | 2017-02-08 10:56:06.890034+01

 2017-02-08 11:13:35.628379+01 | 1486548815.62838 |                 0 |               4 |                  1389 |                   87 |             169996 |        485615 |             4845 |        11395231 |                     0 |      11999266 | 2017-02-08 10:56:06.890034+01

 2017-02-08 11:13:36.688074+01 | 1486548816.68807 |                 0 |               4 |                  1389 |                   87 |             169996 |        486115 |             4850 |        11395231 |                     0 |      12010302 | 2017-02-08 10:56:06.890034+01

 2017-02-08 11:13:37.747363+01 | 1486548817.74736 |                 0 |               4 |                  1389 |                   87 |             169996 |        486515 |             4854 |        11395231 |                     0 |      12018996 | 2017-02-08 10:56:06.890034+01

 2017-02-08 11:13:38.795549+01 | 1486548818.79555 |                 0 |               4 |                  1389 |                   87 |             169996 |        487015 |             4859 |        11395231 |                     0 |      12030479 | 2017-02-08 10:56:06.890034+01

 2017-02-08 11:13:39.851832+01 | 1486548819.85183 |                 0 |               4 |                  1389 |                   87 |             169996 |        487715 |             4866 |        11395231 |                     0 |      12045429 | 2017-02-08 10:56:06.890034+01

 2017-02-08 11:13:40.907173+01 | 1486548820.90717 |                 0 |               4 |                  1389 |                   87 |             169996 |        488215 |             4871 |        11457267 |                     0 |      12056141 | 2017-02-08 10:56:06.890034+01

 2017-02-08 11:13:41.963132+01 | 1486548821.96313 |                 0 |               4 |                  1389 |                   87 |             169996 |        488715 |             4876 |        11457267 |                     0 |      12067407 | 2017-02-08 10:56:06.890034+01

 2017-02-08 11:13:43.054903+01 | 1486548823.0549 |                 0 |               4 |                  1389 |                   87 |             169996 |        489315 |             4882 |        11457267 |                     0 |      12081241 | 2017-02-08 10:56:06.890034+01

 2017-02-08 11:13:44.115407+01 | 1486548824.11541 |                 0 |               4 |                  1389 |                   87 |             169996 |        489815 |             4887 |        11457267 |                     0 |      12091441 | 2017-02-08 10:56:06.890034+01

 2017-02-08 11:13:45.176313+01 | 1486548825.17631 |                 0 |               4 |                  1389 |                   87 |             169996 |        490315 |             4892 |        11457267 |                     0 |      12101913 | 2017-02-08 10:56:06.890034+01

 2017-02-08 11:13:46.2368+01 | 1486548826.2368 |                 0 |               4 |                  1389 |                   87 |             169996 |        490915 |             4898 |        11457267 |                     0 |      12114637 | 2017-02-08 10:56:06.890034+01

 2017-02-08 11:13:47.298684+01 | 1486548827.29868 |                 0 |               4 |                  1389 |                   87 |             169996 |        491415 |             4903 |        11457267 |                     0 |      12125603 | 2017-02-08 10:56:06.890034+01

 2017-02-08 11:13:48.360244+01 | 1486548828.36024 |                 0 |               4 |                  1389 |                   87 |             169996 |        491915 |             4908 |        11519404 |                     0 |      12136442 | 2017-02-08 10:56:06.890034+01

 2017-02-08 11:13:49.417453+01 | 1486548829.41745 |                 0 |               4 |                  1389 |                   87 |             169996 |        492415 |             4913 |        11519404 |                     0 |      12146983 | 2017-02-08 10:56:06.890034+01

 2017-02-08 11:13:50.47808+01 | 1486548830.47808 |                 0 |               4 |                  1389 |                   87 |             169996 |        493015 |             4919 |        11519404 |                     0 |      12159985 | 2017-02-08 10:56:06.890034+01

 2017-02-08 11:13:51.535786+01 | 1486548831.53579 |                 0 |               4 |                  1389 |                   87 |             169996 |        493515 |             4924 |        11519404 |                     0 |      12170575 | 2017-02-08 10:56:06.890034+01

 2017-02-08 11:13:52.592652+01 | 1486548832.59265 |                 0 |               4 |                  1389 |                   87 |             169996 |        494015 |             4929 |        11519404 |                     0 |      12181193 | 2017-02-08 10:56:06.890034+01

 2017-02-08 11:13:53.648514+01 | 1486548833.64851 |                 0 |               4 |                  1389 |                   87 |             169996 |        494515 |             4934 |        11519404 |                     0 |      12191373 | 2017-02-08 10:56:06.890034+01

 2017-02-08 11:13:54.702832+01 | 1486548834.70283 |                 0 |               4 |                  1389 |                   87 |             169996 |        495115 |             4940 |        11581440 |                     0 |      12203699 | 2017-02-08 10:56:06.890034+01

 2017-02-08 11:13:55.756958+01 | 1486548835.75696 |                 0 |               4 |                  1389 |                   87 |             169996 |        495615 |             4945 |        11581440 |                     0 |      12214585 | 2017-02-08 10:56:06.890034+01

 2017-02-08 11:13:56.812188+01 | 1486548836.81219 |                 0 |               4 |                  1389 |                   87 |             169996 |        496115 |             4950 |        11581440 |                     0 |      12224973 | 2017-02-08 10:56:06.890034+01

 2017-02-08 11:13:57.872919+01 | 1486548837.87292 |                 0 |               4 |                  1389 |                   87 |             169996 |        496615 |             4955 |        11581440 |                     0 |      12235682 | 2017-02-08 10:56:06.890034+01

 2017-02-08 11:13:58.928551+01 | 1486548838.92855 |                 0 |               4 |                  1389 |                   87 |             169996 |        497215 |             4961 |        11581440 |                     0 |      12248416 | 2017-02-08 10:56:06.890034+01

 2017-02-08 11:13:59.996669+01 | 1486548839.99667 |                 0 |               4 |                  1389 |                   87 |             169996 |        497715 |             4966 |        11581440 |                     0 |      12259441 | 2017-02-08 10:56:06.890034+01

 2017-02-08 11:14:01.050972+01 | 1486548841.05097 |                 0 |               4 |                  1389 |                   87 |             169996 |        498215 |             4971 |        11643776 |                     0 |      12270654 | 2017-02-08 10:56:06.890034+01

 2017-02-08 11:14:02.110547+01 | 1486548842.11055 |                 0 |               4 |                  1389 |                   87 |             169996 |        498815 |             4977 |        11643776 |                     0 |      12283701 | 2017-02-08 10:56:06.890034+01

 2017-02-08 11:14:03.170437+01 | 1486548843.17044 |                 0 |               4 |                  1389 |                   87 |             169996 |        499315 |             4982 |        11643776 |                     0 |      12294753 | 2017-02-08 10:56:06.890034+01

 2017-02-08 11:14:04.224622+01 | 1486548844.22462 |                 0 |               4 |                  1389 |                   87 |             169996 |        499815 |             4987 |        11643776 |                     0 |      12305766 | 2017-02-08 10:56:06.890034+01

 2017-02-08 11:14:05.286554+01 | 1486548845.28655 |                 0 |               4 |                  1389 |                   87 |             169996 |        500315 |             4992 |        11643776 |                     0 |      12316907 | 2017-02-08 10:56:06.890034+01

 2017-02-08 11:14:06.341711+01 | 1486548846.34171 |                 0 |               4 |                  1389 |                   87 |             169996 |        500915 |             4998 |        11643776 |                     0 |      12329905 | 2017-02-08 10:56:06.890034+01

 2017-02-08 11:14:07.408006+01 | 1486548847.40801 |                 0 |               4 |                  1389 |                   87 |             169996 |        501415 |             5003 |        11706212 |                     0 |      12341121 | 2017-02-08 10:56:06.890034+01

 2017-02-08 11:14:08.464904+01 | 1486548848.4649 |                 0 |               4 |                  1389 |                   87 |             169996 |        501915 |             5008 |        11706212 |                     0 |      12352393 | 2017-02-08 10:56:06.890034+01

 2017-02-08 11:14:09.522631+01 | 1486548849.52263 |                 0 |               4 |                  1389 |                   87 |             169996 |        502415 |             5013 |        11706212 |                     0 |      12363515 | 2017-02-08 10:56:06.890034+01

 2017-02-08 11:14:10.580994+01 | 1486548850.58099 |                 0 |               4 |                  1389 |                   87 |             169996 |        503015 |             5019 |        11706212 |                     0 |      12376264 | 2017-02-08 10:56:06.890034+01

 2017-02-08 11:14:11.646762+01 | 1486548851.64676 |                 0 |               4 |                  1389 |                   87 |             169996 |        503515 |             5024 |        11706212 |                     0 |      12387598 | 2017-02-08 10:56:06.890034+01

 2017-02-08 11:14:12.705186+01 | 1486548852.70519 |                 0 |               4 |                  1389 |                   87 |             169996 |        504015 |             5029 |        11706212 |                     0 |      12398855 | 2017-02-08 10:56:06.890034+01

 2017-02-08 11:14:13.759581+01 | 1486548853.75958 |                 0 |               4 |                  1389 |                   87 |             169996 |        504515 |             5034 |        11768648 |                     0 |      12410117 | 2017-02-08 10:56:06.890034+01

 2017-02-08 11:14:14.814722+01 | 1486548854.81472 |                 0 |               4 |                  1389 |                   87 |             169996 |        505115 |             5040 |        11768648 |                     0 |      12423056 | 2017-02-08 10:56:06.890034+01

 2017-02-08 11:14:15.876099+01 | 1486548855.8761 |                 0 |               4 |                  1389 |                   87 |             169996 |        505615 |             5045 |        11768648 |                     0 |      12434187 | 2017-02-08 10:56:06.890034+01

 2017-02-08 11:14:16.938953+01 | 1486548856.93895 |                 0 |               4 |                  1389 |                   87 |             169996 |        506115 |             5050 |        11768648 |                     0 |      12445345 | 2017-02-08 10:56:06.890034+01

 2017-02-08 11:14:18.00669+01 | 1486548858.00669 |                 0 |               4 |                  1389 |                   87 |             169996 |        506715 |             5056 |        11768648 |                     0 |      12458986 | 2017-02-08 10:56:06.890034+01

 2017-02-08 11:14:19.063451+01 | 1486548859.06345 |                 0 |               4 |                  1389 |                   87 |             169996 |        507215 |             5061 |        11768648 |                     0 |      12470200 | 2017-02-08 10:56:06.890034+01

 2017-02-08 11:14:20.124546+01 | 1486548860.12455 |                 0 |               4 |                  1389 |                   87 |             169996 |        507715 |             5066 |        11830902 |                     0 |      12480856 | 2017-02-08 10:56:06.890034+01

 2017-02-08 11:14:21.184854+01 | 1486548861.18485 |                 0 |               4 |                  1389 |                   87 |             169996 |        508215 |             5071 |        11830902 |                     0 |      12491926 | 2017-02-08 10:56:06.890034+01

 2017-02-08 11:14:22.24272+01 | 1486548862.24272 |                 0 |               4 |                  1389 |                   87 |             169996 |        508815 |             5077 |        11830902 |                     0 |      12505286 | 2017-02-08 10:56:06.890034+01

 2017-02-08 11:14:23.299294+01 | 1486548863.29929 |                 0 |               4 |                  1389 |                   87 |             169996 |        509315 |             5082 |        11830902 |                     0 |      12516475 | 2017-02-08 10:56:06.890034+01

 2017-02-08 11:14:24.355242+01 | 1486548864.35524 |                 0 |               4 |                  1389 |                   87 |             169996 |        509815 |             5087 |        11830902 |                     0 |      12527839 | 2017-02-08 10:56:06.890034+01

 2017-02-08 11:14:25.422363+01 | 1486548865.42236 |                 0 |               4 |                  1389 |                   87 |             169996 |        510315 |             5092 |        11830902 |                     0 |      12538254 | 2017-02-08 10:56:06.890034+01

 2017-02-08 11:14:26.480531+01 | 1486548866.48053 |                 0 |               4 |                  1389 |                   87 |             169996 |        510915 |             5098 |        11830902 |                     0 |      12552000 | 2017-02-08 10:56:06.890034+01

 2017-02-08 11:14:27.538363+01 | 1486548867.53836 |                 0 |               4 |                  1389 |                   87 |             169996 |        511415 |             5103 |        11893224 |                     0 |      12563194 | 2017-02-08 10:56:06.890034+01

 2017-02-08 11:14:28.594886+01 | 1486548868.59489 |                 0 |               4 |                  1389 |                   87 |             169996 |        511915 |             5108 |        11893224 |                     0 |      12574412 | 2017-02-08 10:56:06.890034+01

 2017-02-08 11:14:29.655811+01 | 1486548869.65581 |                 0 |               4 |                  1389 |                   87 |             169996 |        512415 |             5113 |        11893224 |                     0 |      12585292 | 2017-02-08 10:56:06.890034+01

 2017-02-08 11:14:30.719009+01 | 1486548870.71901 |                 0 |               4 |                  1389 |                   87 |             169996 |        513015 |             5119 |        11893224 |                     0 |      12598718 | 2017-02-08 10:56:06.890034+01

 2017-02-08 11:14:31.775086+01 | 1486548871.77509 |                 0 |               4 |                  1389 |                   87 |             169996 |        513515 |             5124 |        11893224 |                     0 |      12610045 | 2017-02-08 10:56:06.890034+01

 2017-02-08 11:14:32.842079+01 | 1486548872.84208 |                 0 |               4 |                  1389 |                   87 |             169996 |        514015 |             5129 |        11893224 |                     0 |      12620688 | 2017-02-08 10:56:06.890034+01

 2017-02-08 11:14:33.903433+01 | 1486548873.90343 |                 0 |               4 |                  1389 |                   87 |             169996 |        514615 |             5135 |        11955461 |                     0 |      12634254 | 2017-02-08 10:56:06.890034+01

 2017-02-08 11:14:34.962397+01 | 1486548874.9624 |                 0 |               4 |                  1389 |                   87 |             169996 |        515115 |             5140 |        11955461 |                     0 |      12645778 | 2017-02-08 10:56:06.890034+01

 2017-02-08 11:14:36.028228+01 | 1486548876.02823 |                 0 |               4 |                  1389 |                   87 |             169996 |        515615 |             5145 |        11955461 |                     0 |      12657136 | 2017-02-08 10:56:06.890034+01

 2017-02-08 11:14:37.085844+01 | 1486548877.08584 |                 0 |               4 |                  1389 |                   87 |             169996 |        516115 |             5150 |        11955461 |                     0 |      12668148 | 2017-02-08 10:56:06.890034+01

 2017-02-08 11:14:38.145581+01 | 1486548878.14558 |                 0 |               4 |                  1389 |                   87 |             169996 |        516715 |             5156 |        11955461 |                     0 |      12681259 | 2017-02-08 10:56:06.890034+01

 2017-02-08 11:14:39.199643+01 | 1486548879.19964 |                 0 |               4 |                  1389 |                   87 |             169996 |        517215 |             5161 |        11955461 |                     0 |      12693026 | 2017-02-08 10:56:06.890034+01

 2017-02-08 11:14:40.263741+01 | 1486548880.26374 |                 0 |               4 |                  1389 |                   87 |             169996 |        517715 |             5166 |        12017598 |                     0 |      12704640 | 2017-02-08 10:56:06.890034+01

 2017-02-08 11:14:41.325428+01 | 1486548881.32543 |                 0 |               4 |                  1389 |                   87 |             169996 |        518315 |             5172 |        12017598 |                     0 |      12718737 | 2017-02-08 10:56:06.890034+01

 2017-02-08 11:14:42.388672+01 | 1486548882.38867 |                 0 |               4 |                  1389 |                   87 |             169996 |        518815 |             5177 |        12017598 |                     0 |      12729993 | 2017-02-08 10:56:06.890034+01

 2017-02-08 11:14:43.44534+01 | 1486548883.44534 |                 0 |               4 |                  1389 |                   87 |             169996 |        519315 |             5182 |        12017598 |                     0 |      12741481 | 2017-02-08 10:56:06.890034+01

 2017-02-08 11:14:44.515898+01 | 1486548884.5159 |                 0 |               4 |                  1389 |                   87 |             169996 |        519815 |             5187 |        12017598 |                     0 |      12752373 | 2017-02-08 10:56:06.890034+01

 2017-02-08 11:14:45.574029+01 | 1486548885.57403 |                 0 |               4 |                  1389 |                   87 |             169996 |        520415 |             5193 |        12017598 |                     0 |      12766615 | 2017-02-08 10:56:06.890034+01

 2017-02-08 11:14:46.635467+01 | 1486548886.63547 |                 0 |               4 |                  1389 |                   87 |             169996 |        520915 |             5198 |        12079934 |                     0 |      12778571 | 2017-02-08 10:56:06.890034+01

 2017-02-08 11:14:47.687857+01 | 1486548887.68786 |                 0 |               4 |                  1389 |                   87 |             169996 |        521415 |             5203 |        12079934 |                     0 |      12790632 | 2017-02-08 10:56:06.890034+01

 2017-02-08 11:14:48.74437+01 | 1486548888.74437 |                 0 |               4 |                  1389 |                   87 |             169996 |        521915 |             5208 |        12079934 |                     0 |      12802253 | 2017-02-08 10:56:06.890034+01

 2017-02-08 11:14:49.801663+01 | 1486548889.80166 |                 0 |               4 |                  1389 |                   87 |             169996 |        522515 |             5214 |        12079934 |                     0 |      12816692 | 2017-02-08 10:56:06.890034+01

 2017-02-08 11:14:50.860235+01 | 1486548890.86023 |                 0 |               4 |                  1389 |                   87 |             169996 |        523015 |             5219 |        12079934 |                     0 |      12828523 | 2017-02-08 10:56:06.890034+01

 2017-02-08 11:14:51.93498+01 | 1486548891.93498 |                 0 |               4 |                  1389 |                   87 |             169996 |        523515 |             5224 |        12079934 |                     0 |      12840448 | 2017-02-08 10:56:06.890034+01

 2017-02-08 11:14:52.997143+01 | 1486548892.99714 |                 0 |               4 |                  1389 |                   87 |             169996 |        524115 |             5230 |        12142178 |                     0 |      12854358 | 2017-02-08 10:56:06.890034+01

 2017-02-08 11:14:54.050096+01 | 1486548894.0501 |                 0 |               4 |                  1389 |                   87 |             169996 |        524615 |             5235 |        12142178 |                     0 |      12866618 | 2017-02-08 10:56:06.890034+01

 2017-02-08 11:14:55.110222+01 | 1486548895.11022 |                 0 |               4 |                  1389 |                   87 |             169996 |        525115 |             5240 |        12142178 |                     0 |      12878677 | 2017-02-08 10:56:06.890034+01

 2017-02-08 11:14:56.165367+01 | 1486548896.16537 |                 0 |               4 |                  1389 |                   87 |             169996 |        525615 |             5245 |        12142178 |                     0 |      12890933 | 2017-02-08 10:56:06.890034+01

 2017-02-08 11:14:57.222925+01 | 1486548897.22292 |                 0 |               4 |                  1389 |                   87 |             169996 |        526215 |             5251 |        12142178 |                     0 |      12904847 | 2017-02-08 10:56:06.890034+01

 2017-02-08 11:14:58.278995+01 | 1486548898.279 |                 0 |               4 |                  1389 |                   87 |             169996 |        526715 |             5256 |        12142178 |                     0 |      12916542 | 2017-02-08 10:56:06.890034+01

 2017-02-08 11:14:59.339908+01 | 1486548899.33991 |                 0 |               4 |                  1389 |                   87 |             169996 |        527215 |             5261 |        12204609 |                     0 |      12928682 | 2017-02-08 10:56:06.890034+01

 2017-02-08 11:15:00.391251+01 | 1486548900.39125 |                 0 |               4 |                  1389 |                   87 |             169996 |        527715 |             5266 |        12204609 |                     0 |      12940526 | 2017-02-08 10:56:06.890034+01

 2017-02-08 11:15:01.449616+01 | 1486548901.44962 |                 0 |               4 |                  1389 |                   87 |             169996 |        528315 |             5272 |        12204609 |                     0 |      12954300 | 2017-02-08 10:56:06.890034+01

 2017-02-08 11:15:02.504297+01 | 1486548902.5043 |                 0 |               4 |                  1389 |                   87 |             169996 |        528815 |             5277 |        12204609 |                     0 |      12966413 | 2017-02-08 10:56:06.890034+01

 2017-02-08 11:15:03.564801+01 | 1486548903.5648 |                 0 |               4 |                  1389 |                   87 |             169996 |        529315 |             5282 |        12204609 |                     0 |      12978607 | 2017-02-08 10:56:06.890034+01

 2017-02-08 11:15:04.622853+01 | 1486548904.62285 |                 0 |               4 |                  1389 |                   87 |             169996 |        529815 |             5287 |        12204609 |                     0 |      12990689 | 2017-02-08 10:56:06.890034+01

 2017-02-08 11:15:05.680265+01 | 1486548905.68026 |                 0 |               4 |                  1389 |                   87 |             169996 |        530415 |             5293 |        12267045 |                     0 |      13004564 | 2017-02-08 10:56:06.890034+01

 2017-02-08 11:15:06.739809+01 | 1486548906.73981 |                 0 |               4 |                  1389 |                   87 |             169996 |        530915 |             5298 |        12267045 |                     0 |      13016112 | 2017-02-08 10:56:06.890034+01

 2017-02-08 11:15:07.800982+01 | 1486548907.80098 |                 0 |               4 |                  1389 |                   87 |             169996 |        531415 |             5303 |        12267045 |                     0 |      13028160 | 2017-02-08 10:56:06.890034+01

 2017-02-08 11:15:08.85175+01 | 1486548908.85175 |                 0 |               4 |                  1389 |                   87 |             169996 |        532015 |             5309 |        12267045 |                     0 |      13042163 | 2017-02-08 10:56:06.890034+01

 2017-02-08 11:15:09.906533+01 | 1486548909.90653 |                 0 |               4 |                  1389 |                   87 |             169996 |        532515 |             5314 |        12267045 |                     0 |      13053825 | 2017-02-08 10:56:06.890034+01

 2017-02-08 11:15:10.962737+01 | 1486548910.96274 |                 0 |               4 |                  1389 |                   87 |             169996 |        533015 |             5319 |        12267045 |                     0 |      13065720 | 2017-02-08 10:56:06.890034+01

 2017-02-08 11:15:12.029428+01 | 1486548912.02943 |                 0 |               4 |                  1389 |                   87 |             169996 |        533515 |             5324 |        12329381 |                     0 |      13077502 | 2017-02-08 10:56:06.890034+01

 2017-02-08 11:15:13.100862+01 | 1486548913.10086 |                 0 |               4 |                  1389 |                   87 |             169996 |        534115 |             5330 |        12329381 |                     0 |      13091896 | 2017-02-08 10:56:06.890034+01

 2017-02-08 11:15:14.162503+01 | 1486548914.1625 |                 0 |               4 |                  1389 |                   87 |             169996 |        534615 |             5335 |        12329381 |                     0 |      13103195 | 2017-02-08 10:56:06.890034+01

 2017-02-08 11:15:15.221854+01 | 1486548915.22185 |                 0 |               4 |                  1389 |                   87 |             169996 |        535115 |             5340 |        12329381 |                     0 |      13115322 | 2017-02-08 10:56:06.890034+01

 2017-02-08 11:15:16.28054+01 | 1486548916.28054 |                 0 |               4 |                  1389 |                   87 |             169996 |        535615 |             5345 |        12329381 |                     0 |      13127360 | 2017-02-08 10:56:06.890034+01

 2017-02-08 11:15:17.335541+01 | 1486548917.33554 |                 0 |               4 |                  1389 |                   87 |             169996 |        536215 |             5351 |        12329381 |                     0 |      13141683 | 2017-02-08 10:56:06.890034+01

 2017-02-08 11:15:18.39293+01 | 1486548918.39293 |                 0 |               4 |                  1389 |                   87 |             169996 |        536715 |             5356 |        12391719 |                     0 |      13153059 | 2017-02-08 10:56:06.890034+01

 2017-02-08 11:15:19.450806+01 | 1486548919.45081 |                 0 |               4 |                  1389 |                   87 |             169996 |        537215 |             5361 |        12391719 |                     0 |      13165048 | 2017-02-08 10:56:06.890034+01

 2017-02-08 11:15:20.505859+01 | 1486548920.50586 |                 0 |               4 |                  1389 |                   87 |             169996 |        537715 |             5366 |        12391719 |                     0 |      13176882 | 2017-02-08 10:56:06.890034+01

 2017-02-08 11:15:21.559482+01 | 1486548921.55948 |                 0 |               4 |                  1389 |                   87 |             169996 |        538315 |             5372 |        12391719 |                     0 |      13191540 | 2017-02-08 10:56:06.890034+01

 2017-02-08 11:15:22.61457+01 | 1486548922.61457 |                 0 |               4 |                  1389 |                   87 |             169996 |        538815 |             5377 |        12391719 |                     0 |      13202987 | 2017-02-08 10:56:06.890034+01

 2017-02-08 11:15:23.676193+01 | 1486548923.67619 |                 0 |               4 |                  1389 |                   87 |             169996 |        539315 |             5382 |        12391719 |                     0 |      13214720 | 2017-02-08 10:56:06.890034+01

 2017-02-08 11:15:24.733001+01 | 1486548924.733 |                 0 |               4 |                  1389 |                   87 |             169996 |        539815 |             5387 |        12391719 |                     0 |      13226722 | 2017-02-08 10:56:06.890034+01

 2017-02-08 11:15:25.795801+01 | 1486548925.7958 |                 0 |               4 |                  1389 |                   87 |             169996 |        540415 |             5393 |        12454078 |                     0 |      13241128 | 2017-02-08 10:56:06.890034+01

 2017-02-08 11:15:26.853165+01 | 1486548926.85316 |                 0 |               4 |                  1389 |                   87 |             169996 |        540915 |             5398 |        12454078 |                     0 |      13253181 | 2017-02-08 10:56:06.890034+01

 2017-02-08 11:15:27.914938+01 | 1486548927.91494 |                 0 |               4 |                  1389 |                   87 |             169996 |        541415 |             5403 |        12454078 |                     0 |      13264401 | 2017-02-08 10:56:06.890034+01

 2017-02-08 11:15:28.968398+01 | 1486548928.9684 |                 0 |               4 |                  1389 |                   87 |             169996 |        542015 |             5409 |        12454078 |                     0 |      13278992 | 2017-02-08 10:56:06.890034+01

 2017-02-08 11:15:30.023809+01 | 1486548930.02381 |                 0 |               4 |                  1389 |                   87 |             169996 |        542515 |             5414 |        12454078 |                     0 |      13290870 | 2017-02-08 10:56:06.890034+01

 2017-02-08 11:15:31.075947+01 | 1486548931.07595 |                 0 |               4 |                  1389 |                   87 |             169996 |        543015 |             5419 |        12454078 |                     0 |      13302751 | 2017-02-08 10:56:06.890034+01

 2017-02-08 11:15:32.134056+01 | 1486548932.13406 |                 0 |               4 |                  1389 |                   87 |             169996 |        543515 |             5424 |        12516395 |                     0 |      13314179 | 2017-02-08 10:56:06.890034+01

 2017-02-08 11:15:33.195427+01 | 1486548933.19543 |                 0 |               4 |                  1389 |                   87 |             169996 |        544115 |             5430 |        12516395 |                     0 |      13328222 | 2017-02-08 10:56:06.890034+01

 2017-02-08 11:15:34.256057+01 | 1486548934.25606 |                 0 |               4 |                  1389 |                   87 |             169996 |        544615 |             5435 |        12516395 |                     0 |      13339576 | 2017-02-08 10:56:06.890034+01

 2017-02-08 11:15:35.315631+01 | 1486548935.31563 |                 0 |               4 |                  1389 |                   87 |             169996 |        545115 |             5440 |        12516395 |                     0 |      13351151 | 2017-02-08 10:56:06.890034+01

 2017-02-08 11:15:36.372852+01 | 1486548936.37285 |                 0 |               4 |                  1389 |                   87 |             169996 |        545615 |             5445 |        12516395 |                     0 |      13362352 | 2017-02-08 10:56:06.890034+01

 2017-02-08 11:15:37.440339+01 | 1486548937.44034 |                 0 |               4 |                  1389 |                   87 |             169996 |        546215 |             5451 |        12516395 |                     0 |      13375192 | 2017-02-08 10:56:06.890034+01

 2017-02-08 11:15:38.489001+01 | 1486548938.489 |                 0 |               4 |                  1389 |                   87 |             169996 |        546615 |             5455 |        12578731 |                     0 |      13383876 | 2017-02-08 10:56:06.890034+01

 2017-02-08 11:15:39.55072+01 | 1486548939.55072 |                 0 |               4 |                  1389 |                   87 |             169996 |        547215 |             5461 |        12578731 |                     0 |      13396975 | 2017-02-08 10:56:06.890034+01

 2017-02-08 11:15:40.606582+01 | 1486548940.60658 |                 0 |               4 |                  1389 |                   87 |             169996 |        547715 |             5466 |        12578731 |                     0 |      13407626 | 2017-02-08 10:56:06.890034+01

 2017-02-08 11:15:41.668704+01 | 1486548941.6687 |                 0 |               4 |                  1389 |                   87 |             169996 |        548315 |             5472 |        12578731 |                     0 |      13420386 | 2017-02-08 10:56:06.890034+01

 2017-02-08 11:15:42.740625+01 | 1486548942.74062 |                 0 |               4 |                  1389 |                   87 |             169996 |        548815 |             5477 |        12578731 |                     0 |      13430805 | 2017-02-08 10:56:06.890034+01

 2017-02-08 11:15:43.803246+01 | 1486548943.80325 |                 0 |               4 |                  1389 |                   87 |             169996 |        549315 |             5482 |        12578731 |                     0 |      13441141 | 2017-02-08 10:56:06.890034+01

 2017-02-08 11:15:44.87266+01 | 1486548944.87266 |                 0 |               4 |                  1389 |                   87 |             169996 |        549915 |             5488 |        12578731 |                     0 |      13453370 | 2017-02-08 10:56:06.890034+01

 2017-02-08 11:15:45.929015+01 | 1486548945.92901 |                 0 |               4 |                  1389 |                   87 |             169996 |        550415 |             5493 |        12640568 |                     0 |      13463631 | 2017-02-08 10:56:06.890034+01

 2017-02-08 11:15:46.99014+01 | 1486548946.99014 |                 0 |               4 |                  1389 |                   87 |             169996 |        550915 |             5498 |        12640568 |                     0 |      13473565 | 2017-02-08 10:56:06.890034+01

 2017-02-08 11:15:48.054299+01 | 1486548948.0543 |                 0 |               4 |                  1389 |                   87 |             169996 |        551415 |             5503 |        12640568 |                     0 |      13483602 | 2017-02-08 10:56:06.890034+01

 2017-02-08 11:15:49.124782+01 | 1486548949.12478 |                 0 |               4 |                  1389 |                   87 |             169996 |        552015 |             5509 |        12640568 |                     0 |      13495637 | 2017-02-08 10:56:06.890034+01

 2017-02-08 11:15:50.203771+01 | 1486548950.20377 |                 0 |               4 |                  1389 |                   87 |             169996 |        552515 |             5514 |        12640568 |                     0 |      13505822 | 2017-02-08 10:56:06.890034+01

 2017-02-08 11:15:51.265903+01 | 1486548951.2659 |                 0 |               4 |                  1389 |                   87 |             169996 |        553015 |             5519 |        12640568 |                     0 |      13516636 | 2017-02-08 10:56:06.890034+01

 2017-02-08 11:15:52.317835+01 | 1486548952.31784 |                 0 |               4 |                  1389 |                   87 |             169996 |        553415 |             5523 |        12640568 |                     0 |      13524868 | 2017-02-08 10:56:06.890034+01

 2017-02-08 11:15:53.381709+01 | 1486548953.38171 |                 0 |               4 |                  1389 |                   87 |             169996 |        554115 |             5530 |        12702404 |                     0 |      13540899 | 2017-02-08 10:56:06.890034+01

 2017-02-08 11:15:54.440594+01 | 1486548954.44059 |                 0 |               4 |                  1389 |                   87 |             169996 |        554615 |             5535 |        12702404 |                     0 |      13553466 | 2017-02-08 10:56:06.890034+01

 2017-02-08 11:15:55.496933+01 | 1486548955.49693 |                 0 |               4 |                  1389 |                   87 |             169996 |        555115 |             5540 |        12702404 |                     0 |      13566012 | 2017-02-08 10:56:06.890034+01

 2017-02-08 11:15:56.550205+01 | 1486548956.5502 |                 0 |               4 |                  1389 |                   87 |             169996 |        555715 |             5546 |        12702404 |                     0 |      13580870 | 2017-02-08 10:56:06.890034+01

 2017-02-08 11:15:57.607488+01 | 1486548957.60749 |                 0 |               4 |                  1389 |                   87 |             169996 |        556215 |             5551 |        12702404 |                     0 |      13593107 | 2017-02-08 10:56:06.890034+01

 2017-02-08 11:15:58.666085+01 | 1486548958.66609 |                 0 |               4 |                  1389 |                   87 |             169996 |        556715 |             5556 |        12702404 |                     0 |      13605047 | 2017-02-08 10:56:06.890034+01

 2017-02-08 11:15:59.724682+01 | 1486548959.72468 |                 0 |               4 |                  1389 |                   87 |             169996 |        557215 |             5561 |        12764440 |                     0 |      13617515 | 2017-02-08 10:56:06.890034+01

 2017-02-08 11:16:00.778124+01 | 1486548960.77812 |                 0 |               4 |                  1389 |                   87 |             169996 |        557815 |             5567 |        12764440 |                     0 |      13631479 | 2017-02-08 10:56:06.890034+01

 2017-02-08 11:16:01.833825+01 | 1486548961.83383 |                 0 |               4 |                  1389 |                   87 |             169996 |        558315 |             5572 |        12764440 |                     0 |      13643662 | 2017-02-08 10:56:06.890034+01

 2017-02-08 11:16:02.891405+01 | 1486548962.89141 |                 0 |               4 |                  1389 |                   87 |             169996 |        558815 |             5577 |        12764440 |                     0 |      13656020 | 2017-02-08 10:56:06.890034+01

 2017-02-08 11:16:03.946379+01 | 1486548963.94638 |                 0 |               4 |                  1389 |                   87 |             169996 |        559315 |             5582 |        12764440 |                     0 |      13667951 | 2017-02-08 10:56:06.890034+01

 2017-02-08 11:16:04.99921+01 | 1486548964.99921 |                 0 |               4 |                  1389 |                   87 |             169996 |        559915 |             5588 |        12764440 |                     0 |      13682482 | 2017-02-08 10:56:06.890034+01

 2017-02-08 11:16:06.054095+01 | 1486548966.0541 |                 0 |               4 |                  1389 |                   87 |             169996 |        560415 |             5593 |        12764440 |                     0 |      13694418 | 2017-02-08 10:56:06.890034+01

 2017-02-08 11:16:07.132458+01 | 1486548967.13246 |                 0 |               4 |                  1389 |                   87 |             169996 |        560915 |             5598 |        12826501 |                     0 |      13706115 | 2017-02-08 10:56:06.890034+01

 2017-02-08 11:16:08.183209+01 | 1486548968.18321 |                 0 |               4 |                  1389 |                   87 |             169996 |        561515 |             5604 |        12826501 |                     0 |      13719687 | 2017-02-08 10:56:06.890034+01

 2017-02-08 11:16:09.239347+01 | 1486548969.23935 |                 0 |               4 |                  1389 |                   87 |             169996 |        562015 |             5609 |        12826501 |                     0 |      13731678 | 2017-02-08 10:56:06.890034+01

 2017-02-08 11:16:10.30332+01 | 1486548970.30332 |                 0 |               4 |                  1389 |                   87 |             169996 |        562515 |             5614 |        12826501 |                     0 |      13743213 | 2017-02-08 10:56:06.890034+01

 2017-02-08 11:16:11.363645+01 | 1486548971.36365 |                 0 |               4 |                  1389 |                   87 |             169996 |        563015 |             5619 |        12826501 |                     0 |      13754942 | 2017-02-08 10:56:06.890034+01

 2017-02-08 11:16:12.416515+01 | 1486548972.41652 |                 0 |               4 |                  1389 |                   87 |             169996 |        563615 |             5625 |        12826501 |                     0 |      13769380 | 2017-02-08 10:56:06.890034+01

 2017-02-08 11:16:13.478805+01 | 1486548973.47881 |                 0 |               4 |                  1389 |                   87 |             169996 |        564115 |             5630 |        12826501 |                     0 |      13781155 | 2017-02-08 10:56:06.890034+01

 2017-02-08 11:16:14.533314+01 | 1486548974.53331 |                 0 |               4 |                  1389 |                   87 |             169996 |        564615 |             5635 |        12888537 |                     0 |      13792987 | 2017-02-08 10:56:06.890034+01

 2017-02-08 11:16:15.586368+01 | 1486548975.58637 |                 0 |               4 |                  1389 |                   87 |             169996 |        565115 |             5640 |        12888537 |                     0 |      13804453 | 2017-02-08 10:56:06.890034+01

 2017-02-08 11:16:16.639673+01 | 1486548976.63967 |                 0 |               4 |                  1389 |                   87 |             169996 |        565715 |             5646 |        12888537 |                     0 |      13818414 | 2017-02-08 10:56:06.890034+01

 2017-02-08 11:16:17.697327+01 | 1486548977.69733 |                 0 |               4 |                  1389 |                   87 |             169996 |        566215 |             5651 |        12888537 |                     0 |      13830125 | 2017-02-08 10:56:06.890034+01

 2017-02-08 11:16:18.752729+01 | 1486548978.75273 |                 0 |               4 |                  1389 |                   87 |             169996 |        566715 |             5656 |        12888537 |                     0 |      13841893 | 2017-02-08 10:56:06.890034+01

 2017-02-08 11:16:19.812601+01 | 1486548979.8126 |                 0 |               4 |                  1389 |                   87 |             169996 |        567215 |             5661 |        12888537 |                     0 |      13853609 | 2017-02-08 10:56:06.890034+01

 2017-02-08 11:16:20.867633+01 | 1486548980.86763 |                 0 |               4 |                  1389 |                   87 |             169996 |        567815 |             5667 |        12888537 |                     0 |      13867647 | 2017-02-08 10:56:06.890034+01

 2017-02-08 11:16:21.92569+01 | 1486548981.92569 |                 0 |               4 |                  1389 |                   87 |             169996 |        568315 |             5672 |        12950291 |                     0 |      13879162 | 2017-02-08 10:56:06.890034+01

 2017-02-08 11:16:22.982545+01 | 1486548982.98254 |                 0 |               4 |                  1389 |                   87 |             169996 |        568815 |             5677 |        12950291 |                     0 |      13890815 | 2017-02-08 10:56:06.890034+01

 2017-02-08 11:16:24.040237+01 | 1486548984.04024 |                 0 |               4 |                  1389 |                   87 |             169996 |        569315 |             5682 |        12950291 |                     0 |      13902751 | 2017-02-08 10:56:06.890034+01

 2017-02-08 11:16:25.099932+01 | 1486548985.09993 |                 0 |               4 |                  1389 |                   87 |             169996 |        569915 |             5688 |        12950291 |                     0 |      13917222 | 2017-02-08 10:56:06.890034+01

 2017-02-08 11:16:26.158254+01 | 1486548986.15825 |                 0 |               4 |                  1389 |                   87 |             169996 |        570415 |             5693 |        12950291 |                     0 |      13928760 | 2017-02-08 10:56:06.890034+01

 2017-02-08 11:16:27.213105+01 | 1486548987.2131 |                 0 |               4 |                  1389 |                   87 |             169996 |        570915 |             5698 |        12950291 |                     0 |      13940405 | 2017-02-08 10:56:06.890034+01

 2017-02-08 11:16:28.267524+01 | 1486548988.26752 |                 0 |               4 |                  1389 |                   87 |             169996 |        571415 |             5703 |        12950291 |                     0 |      13952346 | 2017-02-08 10:56:06.890034+01

 2017-02-08 11:16:29.325958+01 | 1486548989.32596 |                 0 |               4 |                  1389 |                   87 |             169996 |        572015 |             5709 |        13012212 |                     0 |      13966174 | 2017-02-08 10:56:06.890034+01

 2017-02-08 11:16:30.387705+01 | 1486548990.38771 |                 0 |               4 |                  1389 |                   87 |             169996 |        572515 |             5714 |        13012212 |                     0 |      13978223 | 2017-02-08 10:56:06.890034+01

 2017-02-08 11:16:31.440505+01 | 1486548991.44051 |                 0 |               4 |                  1389 |                   87 |             169996 |        573015 |             5719 |        13012212 |                     0 |      13990217 | 2017-02-08 10:56:06.890034+01

 2017-02-08 11:16:32.495222+01 | 1486548992.49522 |                 0 |               4 |                  1389 |                   87 |             169996 |        573515 |             5724 |        13012212 |                     0 |      14001834 | 2017-02-08 10:56:06.890034+01

 2017-02-08 11:16:33.552953+01 | 1486548993.55295 |                 0 |               4 |                  1389 |                   87 |             169996 |        574115 |             5730 |        13012212 |                     0 |      14015989 | 2017-02-08 10:56:06.890034+01

 2017-02-08 11:16:34.624844+01 | 1486548994.62484 |                 0 |               4 |                  1389 |                   87 |             169996 |        574615 |             5735 |        13012212 |                     0 |      14026940 | 2017-02-08 10:56:06.890034+01

 2017-02-08 11:16:35.679047+01 | 1486548995.67905 |                 0 |               4 |                  1389 |                   87 |             169996 |        575115 |             5740 |        13012212 |                     0 |      14038143 | 2017-02-08 10:56:06.890034+01

 2017-02-08 11:16:36.732924+01 | 1486548996.73292 |                 0 |               4 |                  1389 |                   87 |             169996 |        575615 |             5745 |        13073948 |                     0 |      14049902 | 2017-02-08 10:56:06.890034+01

 2017-02-08 11:16:37.782506+01 | 1486548997.78251 |                 0 |               4 |                  1389 |                   87 |             169996 |        576015 |             5749 |        13073948 |                     0 |      14059110 | 2017-02-08 10:56:06.890034+01

 2017-02-08 11:16:38.824411+01 | 1486548998.82441 |                 0 |               4 |                  1389 |                   87 |             169996 |        576515 |             5754 |        13073948 |                     0 |      14070504 | 2017-02-08 10:56:06.890034+01

 2017-02-08 11:16:39.880174+01 | 1486548999.88017 |                 0 |               4 |                  1389 |                   87 |             169996 |        577215 |             5761 |        13073948 |                     0 |      14087235 | 2017-02-08 10:56:06.890034+01

 2017-02-08 11:16:40.925425+01 | 1486549000.92543 |                 0 |               4 |                  1389 |                   87 |             169996 |        577615 |             5765 |        13073948 |                     0 |      14096674 | 2017-02-08 10:56:06.890034+01

 2017-02-08 11:16:41.987109+01 | 1486549001.98711 |                 0 |               4 |                  1389 |                   87 |             169996 |        578315 |             5772 |        13073948 |                     0 |      14112639 | 2017-02-08 10:56:06.890034+01

 2017-02-08 11:16:43.045882+01 | 1486549003.04588 |                 0 |               4 |                  1389 |                   87 |             169996 |        578815 |             5777 |        13073948 |                     0 |      14124102 | 2017-02-08 10:56:06.890034+01

 2017-02-08 11:16:44.100339+01 | 1486549004.10034 |                 0 |               4 |                  1389 |                   87 |             169996 |        579315 |             5782 |        13135984 |                     0 |      14135902 | 2017-02-08 10:56:06.890034+01

 2017-02-08 11:16:45.162366+01 | 1486549005.16237 |                 0 |               4 |                  1389 |                   87 |             169996 |        579815 |             5787 |        13135984 |                     0 |      14147570 | 2017-02-08 10:56:06.890034+01

 2017-02-08 11:16:46.217364+01 | 1486549006.21736 |                 0 |               4 |                  1389 |                   87 |             169996 |        580415 |             5793 |        13135984 |                     0 |      14161002 | 2017-02-08 10:56:06.890034+01

 2017-02-08 11:16:47.273427+01 | 1486549007.27343 |                 0 |               4 |                  1389 |                   87 |             169996 |        580915 |             5798 |        13135984 |                     0 |      14172683 | 2017-02-08 10:56:06.890034+01

 2017-02-08 11:16:48.334233+01 | 1486549008.33423 |                 0 |               4 |                  1389 |                   87 |             169996 |        581415 |             5803 |        13135984 |                     0 |      14184728 | 2017-02-08 10:56:06.890034+01

 2017-02-08 11:16:49.404577+01 | 1486549009.40458 |                 0 |               4 |                  1389 |                   87 |             169996 |        581915 |             5808 |        13135984 |                     0 |      14196485 | 2017-02-08 10:56:06.890034+01

 2017-02-08 11:16:50.46424+01 | 1486549010.46424 |                 0 |               4 |                  1389 |                   87 |             169996 |        582515 |             5814 |        13198335 |                     0 |      14210019 | 2017-02-08 10:56:06.890034+01

 2017-02-08 11:16:51.518846+01 | 1486549011.51885 |                 0 |               4 |                  1389 |                   87 |             169996 |        583015 |             5819 |        13198335 |                     0 |      14221810 | 2017-02-08 10:56:06.890034+01

 2017-02-08 11:16:52.574685+01 | 1486549012.57469 |                 0 |               4 |                  1389 |                   87 |             169996 |        583515 |             5824 |        13198335 |                     0 |      14233693 | 2017-02-08 10:56:06.890034+01

 2017-02-08 11:16:53.632336+01 | 1486549013.63234 |                 0 |               4 |                  1389 |                   87 |             169996 |        584015 |             5829 |        13198335 |                     0 |      14245333 | 2017-02-08 10:56:06.890034+01

 2017-02-08 11:16:54.689613+01 | 1486549014.68961 |                 0 |               4 |                  1389 |                   87 |             169996 |        584615 |             5835 |        13198335 |                     0 |      14258682 | 2017-02-08 10:56:06.890034+01

 2017-02-08 11:16:55.747223+01 | 1486549015.74722 |                 0 |               4 |                  1389 |                   87 |             169996 |        585115 |             5840 |        13198335 |                     0 |      14270480 | 2017-02-08 10:56:06.890034+01

 2017-02-08 11:16:56.806979+01 | 1486549016.80698 |                 0 |               4 |                  1389 |                   87 |             169996 |        585615 |             5845 |        13260672 |                     0 |      14282011 | 2017-02-08 10:56:06.890034+01

 2017-02-08 11:16:57.863646+01 | 1486549017.86365 |                 0 |               4 |                  1389 |                   87 |             169996 |        586115 |             5850 |        13260672 |                     0 |      14293701 | 2017-02-08 10:56:06.890034+01

 2017-02-08 11:16:58.92579+01 | 1486549018.92579 |                 0 |               4 |                  1389 |                   87 |             169996 |        586715 |             5856 |        13260672 |                     0 |      14307823 | 2017-02-08 10:56:06.890034+01

