1486605548.99294|||2
1486605549.12239|Client|ClientRead|2
1486605549.12239|||8
1486605549.26486|||8
1486605549.26486|Client|ClientRead|1
1486605549.41071|||9
1486605549.56162|||9
1486605549.71078|Client|ClientRead|1
1486605549.71078|||8
1486605549.85927|||7
1486605549.85927|Client|ClientRead|2
1486605550.01083|Client|ClientRead|1
1486605550.01083|||8
1486605550.15725|Client|ClientRead|1
1486605550.15725|||8
1486605550.30813|||8
1486605550.30813|Client|ClientRead|1
1486605550.45444|||8
1486605550.45444|Client|ClientRead|1
1486605550.60175|||9
1486605550.74995|||9
1486605550.89717|||9
1486605551.04686|||9
1486605551.19749|Client|ClientRead|1
1486605551.19749|||8
1486605551.34812|||9
1486605551.49646|Client|ClientRead|1
1486605551.49646|||8
1486605551.64287|Client|ClientRead|2
1486605551.64287|||7
1486605551.7824|||7
1486605551.7824|Client|ClientRead|2
1486605551.9322|||9
1486605552.08289|||9
1486605552.22894|||9
1486605552.37804|||7
1486605552.37804|Client|ClientRead|2
1486605552.52872|||9
1486605552.67818|||9
1486605552.82693|Client|ClientRead|1
1486605552.82693|||9
1486605552.9727|||7
1486605552.9727|Client|ClientRead|3
1486605553.11982|Client|ClientRead|1
1486605553.11982|||8
1486605553.26074|||9
1486605553.40283|||8
1486605553.40283|Client|ClientRead|1
1486605553.5527|Client|ClientRead|1
1486605553.5527|||8
1486605553.69711|Client|ClientRead|2
1486605553.69711|||7
1486605553.84436|Client|ClientRead|1
1486605553.84436|||8
1486605553.99308|||8
1486605553.99308|Client|ClientRead|1
1486605554.14317|Client|ClientRead|1
1486605554.14317|||9
1486605554.28872|||9
1486605554.43482|||9
1486605554.58081|||9
1486605554.7318|||9
1486605554.8825|||9
1486605555.02993|||9
1486605555.17856|||9
1486605555.32383|||7
1486605555.32383|Client|ClientRead|2
1486605555.46797|||8
1486605555.46797|Client|ClientRead|1
1486605555.60262|Client|ClientRead|1
1486605555.60262|||8
1486605555.73617|||9
1486605555.88242|||9
1486605556.03317|||9
1486605556.18277|||9
1486605556.33114|||9
1486605556.48178|||9
1486605556.63143|||9
1486605556.78055|||9
1486605556.9309|||9
1486605557.08151|||9
1486605557.22977|||9
1486605557.38031|||9
1486605557.53095|||9
1486605557.68169|||9
1486605557.82975|||10
1486605557.97641|||10
1486605558.12492|||9
1486605558.27477|||9
1486605558.40917|Client|ClientRead|1
1486605558.40917|||8
1486605558.55255|||9
1486605558.70818|||9
1486605558.8563|||9
1486605559.00701|||9
1486605559.15651|Client|ClientRead|1
1486605559.15651|||9
1486605559.30516|||9
1486605559.45467|||9
1486605559.6053|||9
1486605559.75607|||9
1486605559.90673|||9
1486605560.05076|||9
1486605560.19932|||9
1486605560.34728|||10
1486605560.49457|||9
1486605560.64163|||9
1486605560.79219|||9
1486605560.94293|||9
1486605561.09111|||9
1486605561.24189|||9
1486605561.39035|||9
1486605561.5376|Client|ClientRead|1
1486605561.5376|||8
1486605561.67862|||8
1486605561.67862|Client|ClientRead|1
1486605561.81912|||8
1486605561.81912|Client|ClientRead|1
1486605561.96907|||9
1486605562.12482|||9
1486605562.27903|Client|ClientRead|1
1486605562.27903|||8
1486605562.42964|Client|ClientRead|1
1486605562.42964|||8
1486605562.57202|||7
1486605562.57202|Client|ClientRead|2
1486605562.72266|||8
1486605562.72266|Client|ClientRead|1
1486605562.8737|||9
1486605562.8737|Client|ClientRead|1
1486605563.02337|||8
1486605563.02337|Client|ClientRead|1
1486605563.16846|Client|ClientRead|2
1486605563.16846|||7
1486605563.31643|Client|ClientRead|1
1486605563.31643|||8
1486605563.46513|Client|ClientRead|2
1486605563.46513|||7
1486605563.61447|||7
1486605563.61447|Client|ClientRead|2
1486605563.76716|||8
1486605563.76716|Client|ClientRead|1
1486605563.91526|Client|ClientRead|1
1486605563.91526|||8
1486605564.06046|||7
1486605564.06046|Client|ClientRead|2
1486605564.20196|Client|ClientRead|1
1486605564.20196|||8
1486605564.35014|||8
1486605564.35014|Client|ClientRead|1
1486605564.50517|||8
1486605564.50517|Client|ClientRead|1
1486605564.65415|||9
1486605564.80054|||9
1486605564.93668|Client|ClientRead|1
1486605564.93668|||8
1486605565.09217|||8
1486605565.09217|Client|ClientRead|1
1486605565.23291|||9
1486605565.37923|||7
1486605565.37923|Client|ClientRead|2
1486605565.52666|||10
1486605565.67293|||9
1486605565.82116|||9
1486605565.97178|||9
1486605566.12094|Client|ClientRead|2
1486605566.12094|||7
1486605566.27066|||9
1486605566.41931|||9
1486605566.57044|||9
1486605566.71182|||7
1486605566.71182|Client|ClientRead|2
1486605566.85889|||9
1486605567.00945|||9
1486605567.15926|||9
1486605567.30778|||9
1486605567.45554|||9
1486605567.60601|||9
1486605567.7543|||9
1486605567.90645|Client|ClientRead|1
1486605567.90645|||8
1486605568.04531|||8
1486605568.04531|Client|ClientRead|1
1486605568.18452|||8
1486605568.18452|Client|ClientRead|1
1486605568.33144|||9
1486605568.48113|||9
1486605568.62924|||9
1486605568.7777|||9
1486605568.92951|||9
1486605569.07778|||10
1486605569.22838|||9
1486605569.37613|||9
1486605569.52682|||9
1486605569.67487|||9
1486605569.82543|||9
1486605569.97605|||9
1486605570.12678|||9
1486605570.27758|||9
1486605570.42562|||9
1486605570.57244|||9
1486605570.72127|||9
1486605570.86844|||9
1486605571.01592|||9
1486605571.16409|||9
1486605571.31228|||9
1486605571.46293|||9
1486605571.61116|||10
1486605571.76129|||9
1486605571.91164|||9
1486605572.05999|||9
1486605572.21103|||9
1486605572.36064|||9
1486605572.50883|||9
1486605572.65703|||9
1486605572.80387|||9
1486605572.95074|||9
1486605573.10108|||9
1486605573.2493|||9
1486605573.40003|||9
1486605573.54829|||9
1486605573.69907|||9
1486605573.8494|||9
1486605573.99911|||9
1486605574.14727|||9
1486605574.29564|||9
1486605574.44394|||9
1486605574.59467|||9
1486605574.74542|||9
1486605574.89625|||9
1486605575.04696|||9
1486605575.19498|||9
1486605575.34548|||9
1486605575.49544|||9
1486605575.64426|||9
1486605575.79547|||9
1486605575.944|||9
1486605576.09223|||9
1486605576.24086|||9
1486605576.39153|||9
1486605576.53998|||9
1486605576.68826|||9
1486605576.839|||9
1486605576.98726|||9
1486605577.13493|||9
1486605577.28345|||9
1486605577.43428|||9
1486605577.58184|||9
1486605577.73151|||9
1486605577.88222|Client|ClientRead|1
1486605577.88222|||9
1486605578.02755|||9
1486605578.17643|||9
1486605578.32703|||9
1486605578.476|||9
1486605578.62461|||9
1486605578.77616|||9
1486605578.92678|||9
1486605579.07387|||9
1486605579.22197|||9
1486605579.37258|||9
1486605579.52318|||9
1486605579.67155|||9
1486605579.82217|||9
1486605579.97091|||9
1486605580.12155|||9
1486605580.27235|||9
1486605580.42292|||9
1486605580.57105|||9
1486605580.71922|||9
1486605580.86786|||9
1486605581.01854|||9
1486605581.16914|||9
1486605581.31998|||9
1486605581.46952|||9
1486605581.61809|||9
1486605581.768|||10
1486605581.91753|||9
1486605582.06917|||9
1486605582.21793|||9
1486605582.36863|||9
1486605582.51911|||9
1486605582.66768|||9
1486605582.81829|||9
1486605582.96653|Client|ClientRead|1
1486605582.96653|||9
1486605583.11706|||9
1486605583.26777|||9
1486605583.41862|||9
1486605583.56817|||9
1486605583.71672|||9
1486605583.86747|||9
1486605584.01554|||9
1486605584.16361|||9
1486605584.3118|||9
1486605584.45968|||9
1486605584.60787|||9
1486605584.75737|||9
1486605584.90586|||9
1486605585.05405|||9
1486605585.20492|||9
1486605585.35343|||9
1486605585.50112|||10
1486605585.64894|||9
1486605585.79978|||9
1486605585.94952|||9
1486605586.09716|||9
1486605586.24577|||9
1486605586.39397|||9
1486605586.54492|||9
1486605586.69138|||8
1486605586.69138|Client|ClientRead|1
1486605586.84377|||9
1486605586.99243|||9
1486605587.14112|||9
1486605587.28966|||9
1486605587.44034|||9
1486605587.59101|||9
1486605587.73968|||9
1486605587.89048|||9
1486605588.04067|||9
1486605588.18811|||9
1486605588.33624|||9
1486605588.4857|||9
1486605588.63639|||9
1486605588.78706|||9
1486605588.93566|||9
1486605589.08407|||9
1486605589.23584|||9
1486605589.23584|Client|ClientRead|1
1486605589.38563|||9
1486605589.53613|||9
1486605589.68688|||9
1486605589.83763|||9
1486605589.98856|||9
1486605590.13702|||9
1486605590.28771|||9
1486605590.4345|||10
1486605590.58414|||9
1486605590.73248|||9
1486605590.88332|||9
1486605591.03286|||9
1486605591.18359|||9
1486605591.33181|||9
1486605591.48239|||9
1486605591.62967|||10
1486605591.77682|Client|ClientRead|1
1486605591.77682|||9
1486605591.92509|||9
1486605592.07331|||9
1486605592.22203|||9
1486605592.37039|||9
1486605592.519|||9
1486605592.66965|||9
1486605592.82033|||9
1486605592.97102|||10
1486605593.12104|||9
1486605593.26945|||9
1486605593.41735|||8
1486605593.41735|Client|ClientRead|1
1486605593.55611|||9
1486605593.69501|||9
1486605593.8311|||9
1486605593.98108|||9
1486605594.13174|||10
1486605594.27034|||10
1486605594.42128|||9
1486605594.56992|||9
1486605594.72073|||9
1486605594.86917|||9
1486605595.0199|||9
1486605595.16819|||9
1486605595.31695|||9
1486605595.46797|||9
1486605595.6165|||9
1486605595.76504|||9
1486605595.91576|||9
1486605596.06646|||9
1486605596.2172|||9
1486605596.36325|||9
1486605596.51061|||9
1486605596.66092|||9
1486605596.80921|||10
1486605596.95875|||9
1486605597.10603|||9
1486605597.25474|||9
1486605597.39991|||9
1486605597.54812|||9
1486605597.69895|||9
1486605597.84985|||9
1486605597.99796|||9
1486605598.14819|||9
1486605598.30079|||9
1486605598.45151|||9
1486605598.60229|||9
1486605598.75305|||9
1486605598.90389|||9
1486605599.04929|||8
1486605599.04929|Client|ClientRead|1
1486605599.19243|||8
1486605599.19243|Client|ClientRead|2
1486605599.33827|Client|ClientRead|1
1486605599.33827|||8
1486605599.48861|||9
1486605599.63925|||9
1486605599.78781|||9
1486605599.93845|||9
1486605600.08922|||9
1486605600.24002|||9
1486605600.38797|||9
1486605600.53559|||9
1486605600.68378|||9
1486605600.83338|||9
1486605600.98193|||9
1486605601.13261|||9
1486605601.28229|||9
1486605601.43307|||9
1486605601.58392|||9
1486605601.73216|||9
1486605601.88139|||9
1486605602.03178|||9
1486605602.18259|||9
1486605602.33065|||9
1486605602.48168|||9
1486605602.62879|||9
1486605602.77995|||9
1486605602.93349|||8
1486605602.93349|Client|ClientRead|1
1486605603.0764|Client|ClientRead|1
1486605603.0764|||8
1486605603.22405|||8
1486605603.22405|Client|ClientRead|1
1486605603.35324|||8
1486605603.35324|Client|ClientRead|1
1486605603.5039|||9
1486605603.65457|||9
1486605603.80537|||9
1486605603.95381|||9
1486605604.10455|||9
1486605604.25274|||9
1486605604.3996|||9
1486605604.54774|||9
1486605604.69599|||9
1486605604.84671|||9
1486605604.99737|||9
1486605605.14564|||9
1486605605.29382|||9
1486605605.44417|||10
1486605605.59282|||9
1486605605.74352|||9
1486605605.89405|||9
1486605606.04465|||9
1486605606.19611|||9
1486605606.34444|||9
1486605606.49427|||9
1486605606.64423|||9
1486605606.79447|||9
1486605606.94504|||9
1486605607.09338|||9
1486605607.24127|||8
1486605607.24127|Client|ClientRead|1
1486605607.38165|Client|ClientRead|1
1486605607.38165|||8
1486605607.51821|||8
1486605607.51821|Client|ClientRead|1
1486605607.67058|Client|ClientRead|1
1486605607.67058|||8
1486605607.81967|Client|ClientRead|1
1486605607.81967|||8
1486605607.9714|Client|ClientRead|1
1486605607.9714|||8
1486605608.12407|Client|ClientRead|1
1486605608.12407|||8
1486605608.27537|||8
1486605608.27537|Client|ClientRead|1
1486605608.42992|||9
1486605608.57773|||8
1486605608.57773|Client|ClientRead|1
1486605608.72841|Client|ClientRead|1
1486605608.72841|||8
1486605608.87845|Client|ClientRead|1
1486605608.87845|||8
1486605609.02673|Client|ClientRead|1
1486605609.02673|||8
1486605609.17258|Client|ClientRead|2
1486605609.17258|||8
1486605609.31916|||7
1486605609.31916|Client|ClientRead|2
1486605609.46632|Client|ClientRead|1
1486605609.46632|||8
1486605609.61449|||9
1486605609.76511|||9
1486605609.91403|||9
1486605610.06426|||9
1486605610.21388|||9
1486605610.36461|||9
1486605610.50687|Client|ClientRead|1
1486605610.50687|||9
1486605610.65302|||9
1486605610.80338|||9
1486605610.95197|||8
1486605610.95197|Client|ClientRead|1
1486605611.10106|Client|ClientRead|2
1486605611.10106|||7
1486605611.25139|||9
1486605611.40104|||9
1486605611.55175|||9
1486605611.69666|||9
1486605611.69666|Client|ClientRead|1
1486605611.844|||10
1486605611.99484|||9
1486605612.14329|||9
1486605612.29388|||9
1486605612.44252|||9
1486605612.59131|||9
1486605612.73951|||9
1486605612.88753|||9
1486605613.0349|||9
1486605613.18312|||9
1486605613.33386|||9
1486605613.48448|||9
1486605613.63511|||9
1486605613.78148|||9
1486605613.93101|||9
1486605614.08168|||9
1486605614.23071|Client|ClientRead|1
1486605614.23071|||9
1486605614.38085|||9
1486605614.53128|||9
1486605614.68005|||9
1486605614.83046|||9
1486605614.9812|||9
1486605615.12948|||9
1486605615.28016|||9
1486605615.42902|||10
1486605615.57848|||9
1486605615.72898|||9
1486605615.87971|||9
1486605616.03029|||9
1486605616.17877|||9
1486605616.33258|||9
1486605616.48342|||9
1486605616.63418|||9
1486605616.78149|||9
1486605616.93219|||9
1486605617.08307|||9
1486605617.23151|||9
1486605617.37776|||9
1486605617.52839|||9
1486605617.67907|||9
1486605617.82795|||9
1486605617.97818|||9
1486605618.12597|||9
1486605618.27654|||9
1486605618.42474|||9
1486605618.57543|||9
1486605618.72412|||9
1486605618.87484|||9
1486605619.02446|||9
1486605619.17191|||9
1486605619.31175|||8
1486605619.31175|Client|ClientRead|1
1486605619.46302|Client|ClientRead|2
1486605619.46302|||7
1486605619.61188|||7
1486605619.61188|Client|ClientRead|2
1486605619.75764|||8
1486605619.75764|Client|ClientRead|1
1486605619.90648|||9
1486605620.05483|||9
1486605620.20568|||9
1486605620.34423|||9
1486605620.49443|||10
1486605620.64503|||9
1486605620.79323|||9
1486605620.9418|||9
1486605621.08999|||9
1486605621.23836|||9
1486605621.38903|||9
1486605621.53736|||9
1486605621.68791|||9
1486605621.83707|||9
1486605621.98734|||9
1486605622.13548|||9
1486605622.28376|||9
1486605622.43242|||9
1486605622.58313|||9
1486605622.73398|||9
1486605622.88696|||9
1486605622.88696|Client|ClientRead|1
1486605623.03905|||9
1486605623.18939|||9
1486605623.34005|||9
1486605623.49072|||9
1486605623.64147|||9
1486605623.79211|||9
1486605623.94072|||9
1486605624.09146|||9
1486605624.24193|||9
1486605624.38804|||9
1486605624.53523|||9
1486605624.6828|||8
1486605624.6828|Client|ClientRead|1
1486605624.81218|Client|ClientRead|2
1486605624.81218|||7
1486605624.95742|Client|ClientRead|2
1486605624.95742|||7
1486605625.11139|Client|ClientRead|1
1486605625.11139|||8
1486605625.26201|||8
1486605625.26201|Client|ClientRead|1
1486605625.41423|||8
1486605625.41423|Client|ClientRead|1
1486605625.57232|||8
1486605625.57232|Client|ClientRead|1
1486605625.72495|||8
1486605625.72495|Client|ClientRead|1
1486605625.87294|Client|ClientRead|1
1486605625.87294|||8
1486605626.02255|||7
1486605626.02255|Client|ClientRead|2
1486605626.17265|Client|ClientRead|2
1486605626.17265|||7
1486605626.32165|||7
1486605626.32165|Client|ClientRead|2
1486605626.47328|Client|ClientRead|1
1486605626.47328|||8
1486605626.6242|Client|ClientRead|2
1486605626.6242|||7
1486605626.77817|Client|ClientRead|2
1486605626.77817|||8
1486605626.92706|||8
1486605626.92706|Client|ClientRead|1
1486605627.07656|||7
1486605627.07656|Client|ClientRead|2
1486605627.22714|||8
1486605627.22714|Client|ClientRead|1
1486605627.37516|||9
1486605627.52311|Client|ClientRead|2
1486605627.52311|||7
1486605627.67899|||8
1486605627.67899|Client|ClientRead|1
1486605627.83222|||7
1486605627.83222|Client|ClientRead|2
1486605627.97603|||9
1486605627.97603|Client|ClientRead|1
1486605628.1275|||7
1486605628.1275|Client|ClientRead|2
1486605628.27571|Client|ClientRead|1
1486605628.27571|||8
1486605628.42702|||7
1486605628.42702|Client|ClientRead|2
1486605628.5739|||8
1486605628.5739|Client|ClientRead|1
1486605628.72681|Client|ClientRead|2
1486605628.72681|||7
1486605628.87742|Client|ClientRead|1
1486605628.87742|||8
1486605629.02809|Client|ClientRead|2
1486605629.02809|||7
1486605629.18035|||7
1486605629.18035|Client|ClientRead|2
1486605629.34042|Client|ClientRead|1
1486605629.34042|||8
1486605629.48874|||7
1486605629.48874|Client|ClientRead|2
1486605629.64128|||8
1486605629.64128|Client|ClientRead|1
1486605629.79327|Client|ClientRead|2
1486605629.79327|||7
1486605629.93758|Client|ClientRead|1
1486605629.93758|||8
1486605630.0803|||7
1486605630.0803|Client|ClientRead|2
1486605630.23393|Client|ClientRead|1
1486605630.23393|||8
1486605630.38549|Client|ClientRead|2
1486605630.38549|||7
1486605630.53257|||8
1486605630.53257|Client|ClientRead|1
1486605630.68089|||8
1486605630.68089|Client|ClientRead|1
1486605630.83113|||8
1486605630.83113|Client|ClientRead|1
1486605630.98345|Client|ClientRead|2
1486605630.98345|||7
1486605631.13648|||8
1486605631.13648|Client|ClientRead|1
1486605631.2893|||8
1486605631.2893|Client|ClientRead|1
1486605631.4325|Client|ClientRead|2
1486605631.4325|||7
1486605631.58339|Client|ClientRead|2
1486605631.58339|||7
1486605631.73089|||9
1486605631.73089|Client|ClientRead|1
1486605631.88166|Client|ClientRead|1
1486605631.88166|||8
1486605632.03145|||8
1486605632.03145|Client|ClientRead|1
1486605632.18331|Client|ClientRead|2
1486605632.18331|||7
1486605632.33501|||9
1486605632.48723|Client|ClientRead|2
1486605632.48723|||7
1486605632.6353|||8
1486605632.6353|Client|ClientRead|1
1486605632.78658|||7
1486605632.78658|Client|ClientRead|2
1486605632.93688|Client|ClientRead|1
1486605632.93688|||8
1486605633.08585|||8
1486605633.08585|Client|ClientRead|1
1486605633.23316|Client|ClientRead|2
1486605633.23316|||8
1486605633.37188|Client|ClientRead|2
1486605633.37188|||7
1486605633.5271|||8
1486605633.5271|Client|ClientRead|1
1486605633.68492|||8
1486605633.68492|Client|ClientRead|1
1486605633.8359|Client|ClientRead|2
1486605633.8359|||7
1486605633.98721|Client|ClientRead|1
1486605633.98721|||8
1486605634.13986|Client|ClientRead|2
1486605634.13986|||7
1486605634.28641|Client|ClientRead|1
1486605634.28641|||8
1486605634.43269|||9
1486605634.43269|Client|ClientRead|1
1486605634.57511|||7
1486605634.57511|Client|ClientRead|2
1486605634.7289|Client|ClientRead|2
1486605634.7289|||7
1486605634.88131|||8
1486605634.88131|Client|ClientRead|1
1486605635.03042|||7
1486605635.03042|Client|ClientRead|2
1486605635.17751|||7
1486605635.17751|Client|ClientRead|2
1486605635.32677|Client|ClientRead|1
1486605635.32677|||8
1486605635.479|Client|ClientRead|2
1486605635.479|||7
1486605635.62407|||9
1486605635.62407|Client|ClientRead|1
1486605635.76678|||7
1486605635.76678|Client|ClientRead|2
1486605635.91628|Client|ClientRead|2
1486605635.91628|||7
1486605636.07133|Client|ClientRead|1
1486605636.07133|||8
1486605636.22484|||7
1486605636.22484|Client|ClientRead|2
1486605636.37481|Client|ClientRead|1
1486605636.37481|||8
1486605636.52505|||7
1486605636.52505|Client|ClientRead|2
1486605636.67322|||8
1486605636.67322|Client|ClientRead|1
1486605636.82693|||8
1486605636.82693|Client|ClientRead|2
1486605636.97619|Client|ClientRead|1
1486605636.97619|||8
1486605637.12286|Client|ClientRead|2
1486605637.12286|||7
1486605637.27198|Client|ClientRead|1
1486605637.27198|||8
1486605637.42989|||8
1486605637.42989|Client|ClientRead|1
1486605637.58158|Client|ClientRead|2
1486605637.58158|||7
1486605637.73193|||8
1486605637.73193|Client|ClientRead|1
1486605637.88508|Client|ClientRead|1
1486605637.88508|||8
1486605638.03355|Client|ClientRead|2
1486605638.03355|||7
1486605638.18511|Client|ClientRead|1
1486605638.18511|||8
1486605638.3366|||7
1486605638.3366|Client|ClientRead|2
1486605638.49022|||8
1486605638.49022|Client|ClientRead|1
1486605638.64069|||7
1486605638.64069|Client|ClientRead|2
1486605638.79053|||8
1486605638.79053|Client|ClientRead|1
1486605638.94363|Client|ClientRead|2
1486605638.94363|||7
1486605639.08894|||8
1486605639.08894|Client|ClientRead|1
1486605639.23842|||7
1486605639.23842|Client|ClientRead|2
1486605639.39192|Client|ClientRead|1
1486605639.39192|||8
1486605639.5427|||7
1486605639.5427|Client|ClientRead|2
1486605639.68997|Client|ClientRead|1
1486605639.68997|||8
1486605639.84131|||8
1486605639.84131|Client|ClientRead|1
1486605639.9948|||7
1486605639.9948|Client|ClientRead|2
1486605640.14644|Client|ClientRead|1
1486605640.14644|||8
1486605640.29684|||7
1486605640.29684|Client|ClientRead|2
1486605640.44579|Client|ClientRead|1
1486605640.44579|||8
1486605640.59536|Client|ClientRead|1
1486605640.59536|||8
1486605640.75215|Client|ClientRead|1
1486605640.75215|||9
1486605640.89957|||6
1486605640.89957|Client|ClientRead|3
1486605641.03563|Client|ClientRead|1
1486605641.03563|||8
1486605641.18359|Client|ClientRead|2
1486605641.18359|||7
1486605641.33188|Client|ClientRead|1
1486605641.33188|||8
1486605641.48504|||7
1486605641.48504|Client|ClientRead|2
1486605641.63537|||7
1486605641.63537|Client|ClientRead|2
1486605641.78439|||7
1486605641.78439|Client|ClientRead|2
1486605641.94349|||8
1486605641.94349|Client|ClientRead|1
1486605642.09376|||8
1486605642.09376|Client|ClientRead|1
1486605642.24209|||7
1486605642.24209|Client|ClientRead|2
1486605642.39199|||8
1486605642.39199|Client|ClientRead|1
1486605642.54363|Client|ClientRead|2
1486605642.54363|||7
1486605642.69714|||8
1486605642.69714|Client|ClientRead|1
1486605642.85484|||8
1486605642.85484|Client|ClientRead|1
1486605643.00692|Client|ClientRead|2
1486605643.00692|||7
1486605643.15802|||8
1486605643.15802|Client|ClientRead|1
1486605643.30323|||9
1486605643.30323|Client|ClientRead|1
1486605643.45505|||8
1486605643.45505|Client|ClientRead|1
1486605643.60996|||7
1486605643.60996|Client|ClientRead|2
1486605643.75631|Client|ClientRead|1
1486605643.75631|||8
1486605643.90615|Client|ClientRead|2
1486605643.90615|||7
1486605644.05601|Client|ClientRead|1
1486605644.05601|||8
1486605644.20893|Client|ClientRead|2
1486605644.20893|||7
1486605644.35557|||9
1486605644.35557|Client|ClientRead|1
1486605644.50634|Client|ClientRead|1
1486605644.50634|||8
1486605644.64973|Client|ClientRead|1
1486605644.64973|||8
1486605644.79487|Client|ClientRead|2
1486605644.79487|||7
1486605644.94625|Client|ClientRead|1
1486605644.94625|||8
1486605645.09892|||7
1486605645.09892|Client|ClientRead|2
1486605645.2507|||8
1486605645.2507|Client|ClientRead|1
1486605645.40195|||7
1486605645.40195|Client|ClientRead|2
1486605645.55661|||7
1486605645.55661|Client|ClientRead|2
1486605645.69897|Client|ClientRead|2
1486605645.69897|||7
1486605645.84987|Client|ClientRead|3
1486605645.84987|||6
1486605646.00108|Client|ClientRead|2
1486605646.00108|||7
1486605646.15219|||7
1486605646.15219|Client|ClientRead|2
1486605646.29303|||7
1486605646.29303|Client|ClientRead|2
1486605646.44014|||8
1486605646.44014|Client|ClientRead|1
1486605646.58948|||8
1486605646.58948|Client|ClientRead|1
1486605646.74103|||6
1486605646.74103|Client|ClientRead|3
1486605646.8848|||6
1486605646.8848|Client|ClientRead|3
1486605647.03627|Client|ClientRead|1
1486605647.03627|||8
1486605647.17836|Client|ClientRead|3
1486605647.17836|||6
1486605647.32337|||6
1486605647.32337|Client|ClientRead|3
1486605647.47187|||7
1486605647.47187|Client|ClientRead|2
1486605647.62282|Client|ClientRead|1
1486605647.62282|||8
1486605647.7742|||7
1486605647.7742|Client|ClientRead|2
1486605647.92137|Client|ClientRead|2
1486605647.92137|||7
1486605648.06913|Client|ClientRead|1
1486605648.06913|||8
1486605648.21702|||7
1486605648.21702|Client|ClientRead|3
1486605648.36624|||9
1486605648.36624|Client|ClientRead|1
1486605648.50627|Client|ClientRead|3
1486605648.50627|||6
1486605648.65419|||6
1486605648.65419|Client|ClientRead|3
1486605648.80101|Client|ClientRead|1
1486605648.80101|||8
1486605648.95163|Client|ClientRead|3
1486605648.95163|||6
1486605649.10277|Client|ClientRead|2
1486605649.10277|||7
1486605649.25789|||7
1486605649.25789|Client|ClientRead|2
1486605649.4033|||7
1486605649.4033|Client|ClientRead|2
1486605649.53522|||8
1486605649.53522|Client|ClientRead|2
1486605649.68307|||6
1486605649.68307|Client|ClientRead|3
1486605649.83093|Client|ClientRead|3
1486605649.83093|||6
1486605649.97597|Client|ClientRead|2
1486605649.97597|||7
1486605650.12657|||7
1486605650.12657|Client|ClientRead|2
1486605650.2753|Client|ClientRead|2
1486605650.2753|||7
1486605650.43728|||7
1486605650.43728|Client|ClientRead|2
1486605650.58032|||6
1486605650.58032|Client|ClientRead|3
1486605650.72314|Client|ClientRead|3
1486605650.72314|||6
1486605650.87897|||8
1486605650.87897|Client|ClientRead|1
1486605651.03767|Client|ClientRead|3
1486605651.03767|||6
1486605651.18514|Client|ClientRead|3
1486605651.18514|||6
1486605651.33482|||8
1486605651.33482|Client|ClientRead|1
1486605651.48586|||6
1486605651.48586|Client|ClientRead|3
1486605651.63397|||7
1486605651.63397|Client|ClientRead|2
1486605651.78368|Client|ClientRead|1
1486605651.78368|||8
1486605651.93332|||8
1486605651.93332|Client|ClientRead|1
1486605652.078|||7
1486605652.078|Client|ClientRead|3
1486605652.23202|||7
1486605652.23202|Client|ClientRead|2
1486605652.3769|||9
1486605652.52636|||8
1486605652.52636|Client|ClientRead|1
1486605652.6746|Client|ClientRead|2
1486605652.6746|||7
1486605652.82409|Client|ClientRead|2
1486605652.82409|||7
1486605652.97149|||8
1486605652.97149|Client|ClientRead|1
1486605653.11899|Client|ClientRead|1
1486605653.11899|||8
1486605653.26205|||8
1486605653.26205|Client|ClientRead|1
1486605653.40083|Client|ClientRead|2
1486605653.40083|||7
1486605653.54633|Client|ClientRead|1
1486605653.54633|||8
1486605653.69438|||7
1486605653.69438|Client|ClientRead|2
1486605653.843|Client|ClientRead|1
1486605653.843|||8
1486605653.98988|Client|ClientRead|1
1486605653.98988|||8
1486605654.13932|Client|ClientRead|1
1486605654.13932|||8
1486605654.28889|||8
1486605654.28889|Client|ClientRead|1
1486605654.43091|||7
1486605654.43091|Client|ClientRead|2
1486605654.58268|||8
1486605654.58268|Client|ClientRead|2
1486605654.72695|Client|ClientRead|2
1486605654.72695|||7
1486605654.87234|||8
1486605654.87234|Client|ClientRead|1
1486605655.02038|||7
1486605655.02038|Client|ClientRead|2
1486605655.16547|||8
1486605655.16547|Client|ClientRead|1
1486605655.30877|Client|ClientRead|2
1486605655.30877|||7
1486605655.45362|Client|ClientRead|1
1486605655.45362|||8
1486605655.60059|Client|ClientRead|2
1486605655.60059|||7
1486605655.74706|||8
1486605655.74706|Client|ClientRead|1
1486605655.89432|Client|ClientRead|1
1486605655.89432|||8
1486605656.04591|||7
1486605656.04591|Client|ClientRead|2
1486605656.19162|||8
1486605656.19162|Client|ClientRead|1
1486605656.33686|Client|ClientRead|2
1486605656.33686|||7
1486605656.48408|||7
1486605656.48408|Client|ClientRead|2
1486605656.6292|||8
1486605656.6292|Client|ClientRead|1
1486605656.7786|||8
1486605656.7786|Client|ClientRead|1
1486605656.92664|Client|ClientRead|2
1486605656.92664|||7
1486605657.07179|||7
1486605657.07179|Client|ClientRead|3
1486605657.22589|||8
1486605657.22589|Client|ClientRead|1
1486605657.37547|||7
1486605657.37547|Client|ClientRead|2
1486605657.5215|||8
1486605657.5215|Client|ClientRead|1
1486605657.66528|||7
1486605657.66528|Client|ClientRead|2
1486605657.81252|Client|ClientRead|1
1486605657.81252|||8
1486605657.95897|||8
1486605657.95897|Client|ClientRead|1
1486605658.10401|||8
1486605658.10401|Client|ClientRead|1
1486605658.25281|Client|ClientRead|1
1486605658.25281|||9
1486605658.39613|Client|ClientRead|1
1486605658.39613|||9
1486605658.54312|Client|ClientRead|1
1486605658.54312|||8
1486605658.69288|||8
1486605658.69288|Client|ClientRead|1
1486605658.84201|||7
1486605658.84201|Client|ClientRead|2
1486605658.98566|||8
1486605658.98566|Client|ClientRead|1
1486605659.13517|||7
1486605659.13517|Client|ClientRead|2
1486605659.27844|Client|ClientRead|2
1486605659.27844|||7
1486605659.42566|Client|ClientRead|1
1486605659.42566|||8
1486605659.5743|||9
1486605659.5743|Client|ClientRead|1
1486605659.72717|Client|ClientRead|2
1486605659.72717|||7
1486605659.88186|Client|ClientRead|1
1486605659.88186|||8
1486605660.03017|||8
1486605660.03017|Client|ClientRead|1
1486605660.17845|Client|ClientRead|2
1486605660.17845|||7
1486605660.31973|||8
1486605660.31973|Client|ClientRead|1
1486605660.46352|||6
1486605660.46352|Client|ClientRead|3
1486605660.59845|Client|ClientRead|1
1486605660.59845|||8
1486605660.74962|||7
1486605660.74962|Client|ClientRead|2
1486605660.8924|||6
1486605660.8924|Client|ClientRead|3
1486605661.05086|||7
1486605661.05086|Client|ClientRead|2
1486605661.19394|||8
1486605661.19394|Client|ClientRead|1
1486605661.33669|Client|ClientRead|1
1486605661.33669|||8
1486605661.48188|Client|ClientRead|2
1486605661.48188|||7
1486605661.62901|||8
1486605661.62901|Client|ClientRead|1
1486605661.7743|||8
1486605661.7743|Client|ClientRead|1
1486605661.91927|Client|ClientRead|1
1486605661.91927|||8
1486605662.0712|||8
1486605662.0712|Client|ClientRead|1
1486605662.22502|||9
1486605662.22502|Client|ClientRead|1
1486605662.37039|||8
1486605662.37039|Client|ClientRead|1
1486605662.51725|Client|ClientRead|1
1486605662.51725|||8
1486605662.66532|||7
1486605662.66532|Client|ClientRead|2
1486605662.81472|||8
1486605662.81472|Client|ClientRead|1
1486605662.96233|||7
1486605662.96233|Client|ClientRead|2
1486605663.10713|||8
1486605663.10713|Client|ClientRead|1
1486605663.25793|Client|ClientRead|1
1486605663.25793|||8
1486605663.40664|||7
1486605663.40664|Client|ClientRead|2
1486605663.55594|Client|ClientRead|1
1486605663.55594|||8
1486605663.71016|||7
1486605663.71016|Client|ClientRead|2
1486605663.8551|||8
1486605663.8551|Client|ClientRead|1
1486605664.00378|||8
1486605664.00378|Client|ClientRead|1
1486605664.15224|||8
1486605664.15224|Client|ClientRead|1
1486605664.30364|Client|ClientRead|2
1486605664.30364|||7
1486605664.44862|Client|ClientRead|1
1486605664.44862|||8
1486605664.6043|||8
1486605664.6043|Client|ClientRead|2
1486605664.75677|Client|ClientRead|1
1486605664.75677|||8
1486605664.89996|Client|ClientRead|1
1486605664.89996|||8
1486605665.04353|Client|ClientRead|2
1486605665.04353|||7
1486605665.19088|||8
1486605665.19088|Client|ClientRead|1
1486605665.34213|||8
1486605665.34213|Client|ClientRead|1
1486605665.49018|||7
1486605665.49018|Client|ClientRead|2
1486605665.636|||7
1486605665.636|Client|ClientRead|2
1486605665.7823|||8
1486605665.7823|Client|ClientRead|1
1486605665.92626|||8
1486605665.92626|Client|ClientRead|1
1486605666.07424|Client|ClientRead|1
1486605666.07424|||8
1486605666.22499|||7
1486605666.22499|Client|ClientRead|2
1486605666.37226|||9
1486605666.5202|||7
1486605666.5202|Client|ClientRead|2
1486605666.67002|Client|ClientRead|1
1486605666.67002|||8
1486605666.82051|Client|ClientRead|1
1486605666.82051|||8
1486605666.96618|Client|ClientRead|1
1486605666.96618|||8
1486605667.11469|Client|ClientRead|2
1486605667.11469|||7
1486605667.259|Client|ClientRead|2
1486605667.259|||7
1486605667.40191|||8
1486605667.40191|Client|ClientRead|1
1486605667.55124|Client|ClientRead|1
1486605667.55124|||8
1486605667.70056|||8
1486605667.70056|Client|ClientRead|1
1486605667.8475|Client|ClientRead|1
1486605667.8475|||8
1486605667.99581|||7
1486605667.99581|Client|ClientRead|2
1486605668.14602|Client|ClientRead|1
1486605668.14602|||8
1486605668.29766|Client|ClientRead|2
1486605668.29766|||7
1486605668.44626|||8
1486605668.44626|Client|ClientRead|1
1486605668.59536|||8
1486605668.59536|Client|ClientRead|1
1486605668.7422|Client|ClientRead|1
1486605668.7422|||8
1486605668.88577|Client|ClientRead|2
1486605668.88577|||7
1486605669.03074|||8
1486605669.03074|Client|ClientRead|1
1486605669.18184|Client|ClientRead|2
1486605669.18184|||7
1486605669.33128|Client|ClientRead|1
1486605669.33128|||8
1486605669.48019|||7
1486605669.48019|Client|ClientRead|2
1486605669.62856|||8
1486605669.62856|Client|ClientRead|1
1486605669.78035|||9
1486605669.92544|||7
1486605669.92544|Client|ClientRead|2
1486605670.07477|||8
1486605670.07477|Client|ClientRead|1
1486605670.22173|Client|ClientRead|2
1486605670.22173|||7
1486605670.36873|Client|ClientRead|1
1486605670.36873|||8
1486605670.51372|||8
1486605670.51372|Client|ClientRead|1
1486605670.66487|Client|ClientRead|1
1486605670.66487|||8
1486605670.81038|||7
1486605670.81038|Client|ClientRead|2
1486605670.95968|||8
1486605670.95968|Client|ClientRead|1
1486605671.11364|Client|ClientRead|1
1486605671.11364|||8
1486605671.26385|||7
1486605671.26385|Client|ClientRead|2
1486605671.41068|||8
1486605671.41068|Client|ClientRead|1
1486605671.5596|Client|ClientRead|1
1486605671.5596|||8
1486605671.70486|Client|ClientRead|1
1486605671.70486|||8
1486605671.85458|Client|ClientRead|1
1486605671.85458|||8
1486605672.00278|Client|ClientRead|2
1486605672.00278|||7
1486605672.14896|||8
1486605672.14896|Client|ClientRead|1
1486605672.29491|||7
1486605672.29491|Client|ClientRead|2
1486605672.44166|Client|ClientRead|1
1486605672.44166|||8
1486605672.58688|||7
1486605672.58688|Client|ClientRead|2
1486605672.7352|||7
1486605672.7352|Client|ClientRead|2
1486605672.88095|||7
1486605672.88095|Client|ClientRead|2
1486605673.03049|Client|ClientRead|1
1486605673.03049|||8
1486605673.17701|Client|ClientRead|1
1486605673.17701|||8
1486605673.32527|||7
1486605673.32527|Client|ClientRead|2
1486605673.47617|||8
1486605673.47617|Client|ClientRead|1
1486605673.62644|Client|ClientRead|2
1486605673.62644|||8
1486605673.77277|Client|ClientRead|1
1486605673.77277|||8
1486605673.91791|Client|ClientRead|2
1486605673.91791|||7
1486605674.06518|Client|ClientRead|1
1486605674.06518|||8
1486605674.21332|||7
1486605674.21332|Client|ClientRead|2
1486605674.35928|Client|ClientRead|1
1486605674.35928|||8
1486605674.50845|Client|ClientRead|2
1486605674.50845|||7
1486605674.66092|Client|ClientRead|1
1486605674.66092|||8
1486605674.81009|||8
1486605674.81009|Client|ClientRead|1
1486605674.94951|||7
1486605674.94951|Client|ClientRead|2
1486605675.09463|||7
1486605675.09463|Client|ClientRead|2
1486605675.24419|||8
1486605675.24419|Client|ClientRead|1
1486605675.39236|||7
1486605675.39236|Client|ClientRead|2
1486605675.54046|||7
1486605675.54046|Client|ClientRead|2
1486605675.69056|Client|ClientRead|1
1486605675.69056|||8
1486605675.83425|||7
1486605675.83425|Client|ClientRead|2
1486605675.98471|||7
1486605675.98471|Client|ClientRead|2
1486605676.13241|Client|ClientRead|2
1486605676.13241|||7
1486605676.27952|Client|ClientRead|1
1486605676.27952|||8
1486605676.4223|||7
1486605676.4223|Client|ClientRead|2
1486605676.57251|Client|ClientRead|1
1486605676.57251|||8
1486605676.72753|Client|ClientRead|1
1486605676.72753|||8
1486605676.87328|||8
1486605676.87328|Client|ClientRead|1
1486605677.01877|Client|ClientRead|3
1486605677.01877|||6
1486605677.16234|||8
1486605677.16234|Client|ClientRead|2
1486605677.31151|Client|ClientRead|1
1486605677.31151|||8
1486605677.46311|||7
1486605677.46311|Client|ClientRead|2
1486605677.60934|||9
1486605677.75867|Client|ClientRead|1
1486605677.75867|||8
1486605677.90774|Client|ClientRead|2
1486605677.90774|||7
1486605678.06016|Client|ClientRead|1
1486605678.06016|||8
1486605678.21124|||7
1486605678.21124|Client|ClientRead|2
1486605678.35828|Client|ClientRead|1
1486605678.35828|||8
1486605678.5142|||8
1486605678.5142|Client|ClientRead|1
1486605678.66671|||8
1486605678.66671|Client|ClientRead|1
1486605678.81231|Client|ClientRead|2
1486605678.81231|||7
1486605678.95626|Client|ClientRead|1
1486605678.95626|||8
1486605679.10153|Client|ClientRead|1
1486605679.10153|||8
1486605679.24535|Client|ClientRead|2
1486605679.24535|||7
1486605679.39161|||8
1486605679.39161|Client|ClientRead|1
1486605679.53564|Client|ClientRead|1
1486605679.53564|||8
1486605679.67427|Client|ClientRead|1
1486605679.67427|||9
1486605679.82173|||8
1486605679.82173|Client|ClientRead|1
1486605679.96836|||7
1486605679.96836|Client|ClientRead|2
1486605680.11518|||8
1486605680.11518|Client|ClientRead|1
1486605680.26714|||8
1486605680.26714|Client|ClientRead|1
1486605680.41308|Client|ClientRead|2
1486605680.41308|||7
1486605680.5582|Client|ClientRead|1
1486605680.5582|||8
1486605680.70329|||8
1486605680.70329|Client|ClientRead|1
1486605680.85266|||7
1486605680.85266|Client|ClientRead|2
1486605680.99476|Client|ClientRead|1
1486605680.99476|||9
1486605681.1465|||8
1486605681.1465|Client|ClientRead|1
1486605681.30517|||7
1486605681.30517|Client|ClientRead|2
1486605681.45016|||8
1486605681.45016|Client|ClientRead|1
1486605681.59525|Client|ClientRead|1
1486605681.59525|||8
1486605681.74339|||7
1486605681.74339|Client|ClientRead|2
1486605681.89197|||8
1486605681.89197|Client|ClientRead|1
1486605682.04335|Client|ClientRead|1
1486605682.04335|||8
1486605682.19691|Client|ClientRead|1
1486605682.19691|||9
1486605682.35056|Client|ClientRead|1
1486605682.35056|||8
1486605682.49258|||7
1486605682.49258|Client|ClientRead|2
1486605682.63829|||8
1486605682.63829|Client|ClientRead|1
1486605682.78761|||8
1486605682.78761|Client|ClientRead|1
1486605682.9379|Client|ClientRead|2
1486605682.9379|||7
1486605683.08526|Client|ClientRead|1
1486605683.08526|||8
1486605683.22958|Client|ClientRead|2
1486605683.22958|||7
1486605683.37692|||8
1486605683.37692|Client|ClientRead|1
1486605683.52397|Client|ClientRead|1
1486605683.52397|||9
1486605683.67487|Client|ClientRead|2
1486605683.67487|||7
1486605683.82575|||8
1486605683.82575|Client|ClientRead|1
1486605683.96956|Client|ClientRead|2
1486605683.96956|||7
1486605684.11334|Client|ClientRead|1
1486605684.11334|||8
1486605684.26463|Client|ClientRead|1
1486605684.26463|||8
1486605684.40743|Client|ClientRead|2
1486605684.40743|||7
1486605684.55493|||7
1486605684.55493|Client|ClientRead|2
1486605684.70516|Client|ClientRead|1
1486605684.70516|||9
1486605684.85558|Client|ClientRead|1
1486605684.85558|||8
1486605684.9976|||7
1486605684.9976|Client|ClientRead|2
1486605685.14389|Client|ClientRead|1
1486605685.14389|||8
1486605685.29677|Client|ClientRead|1
1486605685.29677|||8
1486605685.44774|||8
1486605685.44774|Client|ClientRead|1
1486605685.59913|Client|ClientRead|1
1486605685.59913|||8
1486605685.7442|Client|ClientRead|1
1486605685.7442|||8
1486605685.88762|||8
1486605685.88762|Client|ClientRead|1
1486605686.03515|||8
1486605686.03515|Client|ClientRead|2
1486605686.18948|Client|ClientRead|1
1486605686.18948|||8
1486605686.33904|||8
1486605686.33904|Client|ClientRead|1
1486605686.48826|||8
1486605686.48826|Client|ClientRead|1
1486605686.63326|||8
1486605686.63326|Client|ClientRead|1
1486605686.7836|Client|ClientRead|1
1486605686.7836|||8
1486605686.92879|Client|ClientRead|1
1486605686.92879|||8
1486605687.07989|Client|ClientRead|2
1486605687.07989|||7
1486605687.22474|Client|ClientRead|1
1486605687.22474|||8
1486605687.37449|Client|ClientRead|2
1486605687.37449|||7
1486605687.52476|||8
1486605687.52476|Client|ClientRead|1
1486605687.67491|Client|ClientRead|2
1486605687.67491|||7
1486605687.82198|||8
1486605687.82198|Client|ClientRead|1
1486605687.96892|Client|ClientRead|1
1486605687.96892|||8
1486605688.11782|||8
1486605688.11782|Client|ClientRead|1
1486605688.26574|||7
1486605688.26574|Client|ClientRead|2
1486605688.40199|||8
1486605688.40199|Client|ClientRead|1
1486605688.53481|Client|ClientRead|3
1486605688.53481|||7
1486605688.67042|Client|ClientRead|3
1486605688.67042|||6
1486605688.81036|Client|ClientRead|2
1486605688.81036|||7
1486605688.95717|||8
1486605688.95717|Client|ClientRead|1
1486605689.10621|||7
1486605689.10621|Client|ClientRead|2
1486605689.26278|||7
1486605689.26278|Client|ClientRead|2
1486605689.40859|||6
1486605689.40859|Client|ClientRead|3
1486605689.55987|Client|ClientRead|2
1486605689.55987|||7
1486605689.70525|||8
1486605689.70525|Client|ClientRead|2
1486605689.846|Client|ClientRead|2
1486605689.846|||8
1486605689.99373|Client|ClientRead|2
1486605689.99373|||7
1486605690.13727|||6
1486605690.13727|Client|ClientRead|3
1486605690.28111|Client|ClientRead|3
1486605690.28111|||6
1486605690.43003|||8
1486605690.43003|Client|ClientRead|1
1486605690.57272|Client|ClientRead|2
1486605690.57272|||7
1486605690.71667|||8
1486605690.71667|Client|ClientRead|1
1486605690.86323|||6
1486605690.86323|Client|ClientRead|3
1486605691.01376|||7
1486605691.01376|Client|ClientRead|2
1486605691.15342|||7
1486605691.15342|Client|ClientRead|3
1486605691.28778|Client|ClientRead|2
1486605691.28778|||7
1486605691.4397|Client|ClientRead|2
1486605691.4397|||7
1486605691.59017|||7
1486605691.59017|Client|ClientRead|2
1486605691.73215|||6
1486605691.73215|Client|ClientRead|3
1486605691.88231|Client|ClientRead|2
1486605691.88231|||7
1486605692.02665|Client|ClientRead|1
1486605692.02665|||8
1486605692.17641|||8
1486605692.17641|Client|ClientRead|1
1486605692.32475|Client|ClientRead|1
1486605692.32475|||9
1486605692.47063|Client|ClientRead|2
1486605692.47063|||7
1486605692.6075|Client|ClientRead|2
1486605692.6075|||7
1486605692.75423|Client|ClientRead|1
1486605692.75423|||8
1486605692.89731|||7
1486605692.89731|Client|ClientRead|2
1486605693.04342|Client|ClientRead|2
1486605693.04342|||7
1486605693.19053|Client|ClientRead|1
1486605693.19053|||8
1486605693.33743|||8
1486605693.33743|Client|ClientRead|1
1486605693.49291|||9
1486605693.6446|||8
1486605693.6446|Client|ClientRead|1
1486605693.79167|||8
1486605693.79167|Client|ClientRead|1
1486605693.9359|||9
1486605694.08283|||8
1486605694.08283|Client|ClientRead|1
1486605694.22804|Client|ClientRead|2
1486605694.22804|||7
1486605694.37382|||7
1486605694.37382|Client|ClientRead|2
1486605694.52098|Client|ClientRead|1
1486605694.52098|||8
1486605694.66985|||8
1486605694.66985|Client|ClientRead|1
1486605694.82023|Client|ClientRead|1
1486605694.82023|||8
1486605694.96502|Client|ClientRead|2
1486605694.96502|||7
1486605695.11218|||8
1486605695.11218|Client|ClientRead|1
1486605695.25768|||7
1486605695.25768|Client|ClientRead|2
1486605695.41069|Client|ClientRead|1
1486605695.41069|||8
1486605695.55543|Client|ClientRead|2
1486605695.55543|||7
1486605695.70078|Client|ClientRead|2
1486605695.70078|||7
1486605695.84646|Client|ClientRead|2
1486605695.84646|||7
1486605695.99732|||9
1486605695.99732|Client|ClientRead|1
1486605696.14565|Client|ClientRead|2
1486605696.14565|||7
1486605696.29074|||9
1486605696.43637|||9
1486605696.58137|||9
1486605696.72673|||9
1486605696.87813|||9
1486605697.02633|||9
1486605697.1761|||9
1486605697.1761|Client|ClientRead|1
1486605697.32485|||10
1486605697.47511|||9
1486605697.62593|||9
1486605697.77655|||9
1486605697.92492|||9
1486605698.0759|||9
1486605698.22672|||9
1486605698.37752|||9
1486605698.52703|||9
1486605698.52703|Client|ClientRead|1
1486605698.67486|||9
1486605698.82563|||9
1486605698.9766|||9
1486605699.12498|||9
1486605699.2759|||9
1486605699.42663|||9
1486605699.57752|||9
1486605699.72575|||10
1486605699.87415|Client|ClientRead|1
1486605699.87415|||9
1486605700.02227|||9
1486605700.17303|||9
1486605700.32379|||9
1486605700.47452|||9
1486605700.62269|||9
1486605700.77366|||9
1486605700.92461|||9
1486605701.07159|||10
1486605701.22019|||9
1486605701.36786|||9
1486605701.51892|||9
1486605701.66988|||9
1486605701.82049|||9
1486605701.96767|||9
1486605702.11831|||9
1486605702.2689|||9
1486605702.41844|||9
1486605702.56676|||9
1486605702.71746|||9
1486605702.86811|||9
1486605703.01882|||9
1486605703.16699|||9
1486605703.31529|||9
1486605703.46316|||10
1486605703.61071|||10
1486605703.75994|||9
1486605703.91078|||9
1486605704.06147|||9
1486605704.2122|||9
1486605704.3629|||9
1486605704.51364|||9
1486605704.66112|||9
1486605704.80972|||10
1486605704.96033|||9
1486605705.10884|||9
1486605705.25501|||9
1486605705.40369|||9
1486605705.55155|||9
1486605705.70227|||9
1486605705.84991|||9
1486605706.00095|||9
1486605706.15128|||9
1486605706.29965|||9
1486605706.45048|||9
1486605706.60123|||9
1486605706.74848|||9
1486605706.8991|||9
1486605707.04756|||9
1486605707.19629|||10
1486605707.34556|||9
1486605707.49315|||9
1486605707.64162|||9
1486605707.79232|||9
1486605707.94315|||9
1486605708.09149|||8
1486605708.09149|Client|ClientRead|1
1486605708.24403|||9
1486605708.39135|||9
1486605708.53938|||10
1486605708.68698|||9
1486605708.83551|||9
1486605708.9838|||9
1486605709.12865|||9
1486605709.27826|||9
1486605709.42873|||9
1486605709.57725|||9
1486605709.72428|||9
1486605709.87478|||10
1486605710.02397|||9
1486605710.17217|||9
1486605710.32306|||9
1486605710.47362|||9
1486605710.62455|||9
1486605710.77518|||9
1486605710.92589|||9
1486605711.07709|||10
1486605711.22605|||9
1486605711.37681|||9
1486605711.52745|||9
1486605711.67719|||9
1486605711.82798|||9
1486605711.97874|||9
1486605712.12948|||9
1486605712.27986|Client|ClientRead|1
1486605712.27986|||9
1486605712.42639|Client|ClientRead|1
1486605712.42639|||8
1486605712.5794|Client|ClientRead|1
1486605712.5794|||8
1486605712.71909|||9
1486605712.86749|||9
1486605713.0184|||9
1486605713.1681|||9
1486605713.31886|||9
1486605713.46725|||9
1486605713.61695|||10
1486605713.76617|||9
1486605713.91701|||9
1486605714.06776|||9
1486605714.2185|||9
1486605714.36924|||9
1486605714.52003|||9
1486605714.67061|||9
1486605714.81807|||9
1486605714.96843|||9
1486605715.11817|||9
1486605715.26894|||9
1486605715.41742|||9
1486605715.5682|||9
1486605715.71549|||9
1486605715.86745|||9
1486605716.01819|||9
1486605716.16841|||9
1486605716.31405|||9
1486605716.46224|||9
1486605716.6119|||9
1486605716.76266|||9
1486605716.91342|||9
1486605717.0642|||9
1486605717.21318|||9
1486605717.36162|||9
1486605717.36162|Client|ClientRead|1
1486605717.50873|||9
1486605717.65895|||9
1486605717.80966|||9
1486605717.9592|||9
1486605718.10998|||9
1486605718.26067|||9
1486605718.40879|||9
1486605718.55696|||9
1486605718.70493|||9
1486605718.84415|||9
1486605718.98526|||9
1486605719.12438|||8
1486605719.12438|Client|ClientRead|1
1486605719.26666|||9
1486605719.41745|||9
1486605719.56577|||9
1486605719.7166|||9
1486605719.86841|||9
1486605720.01517|||9
1486605720.16257|||9
1486605720.31126|||9
1486605720.46|||9
1486605720.61057|||9
1486605720.76034|||9
1486605720.91105|||9
1486605721.05839|||9
1486605721.202|||10
1486605721.3528|||9
1486605721.50344|||9
1486605721.65196|||9
1486605721.80271|||9
1486605721.95102|||9
1486605722.10171|||9
1486605722.24964|||9
1486605722.40343|Client|ClientRead|1
1486605722.40343|||9
1486605722.55378|||9
1486605722.70456|||9
1486605722.85532|||9
1486605723.00604|||9
1486605723.15415|||9
1486605723.30482|||9
1486605723.45205|||9
1486605723.60188|Client|ClientRead|1
1486605723.60188|||8
1486605723.74886|Client|ClientRead|1
1486605723.74886|||8
1486605723.88318|Client|ClientRead|1
1486605723.88318|||8
1486605724.02326|||9
1486605724.17174|||9
1486605724.32246|||9
1486605724.4731|||9
1486605724.6204|||9
1486605724.76853|||8
1486605724.76853|Client|ClientRead|1
1486605724.91457|Client|ClientRead|1
1486605724.91457|||8
1486605725.06027|||9
1486605725.20165|||8
1486605725.20165|Client|ClientRead|1
1486605725.34154|||8
1486605725.34154|Client|ClientRead|1
1486605725.49833|Client|ClientRead|1
1486605725.49833|||8
1486605725.65164|Client|ClientRead|1
1486605725.65164|||8
1486605725.80019|Client|ClientRead|1
1486605725.80019|||8
1486605725.95034|Client|ClientRead|1
1486605725.95034|||8
1486605726.10032|Client|ClientRead|2
1486605726.10032|||7
1486605726.24698|||8
1486605726.24698|Client|ClientRead|1
1486605726.39469|||8
1486605726.39469|Client|ClientRead|1
1486605726.539|||8
1486605726.539|Client|ClientRead|1
1486605726.67473|Client|ClientRead|1
1486605726.67473|||8
1486605726.81226|Client|ClientRead|1
1486605726.81226|||8
1486605726.95004|||8
1486605726.95004|Client|ClientRead|1
1486605727.09345|||7
1486605727.09345|Client|ClientRead|2
1486605727.23245|Client|ClientRead|1
1486605727.23245|||8
1486605727.38114|Client|ClientRead|1
1486605727.38114|||9
1486605727.53107|||8
1486605727.53107|Client|ClientRead|1
1486605727.68068|Client|ClientRead|1
1486605727.68068|||8
1486605727.8352|Client|ClientRead|2
1486605727.8352|||7
1486605727.9795|Client|ClientRead|2
1486605727.9795|||7
1486605728.12897|||9
1486605728.27461|||8
1486605728.27461|Client|ClientRead|1
1486605728.42143|Client|ClientRead|2
1486605728.42143|||7
1486605728.56534|||9
1486605728.71627|||9
1486605728.86452|||9
1486605729.01303|||9
1486605729.16365|||9
1486605729.31202|||9
1486605729.46064|||9
1486605729.60791|||9
1486605729.76047|||10
1486605729.90041|||9
1486605730.046|||9
1486605730.19429|||9
1486605730.34413|||9
1486605730.49244|||9
1486605730.63197|||9
1486605730.78257|||9
1486605730.93337|||9
1486605731.08383|||9
1486605731.23362|||9
1486605731.3844|||9
1486605731.53266|||9
1486605731.68345|||9
1486605731.83419|||9
1486605731.98235|||9
1486605732.13054|||9
1486605732.27882|||9
1486605732.42575|||9
1486605732.57656|||9
1486605732.72433|||9
1486605732.87521|||9
1486605733.02561|||9
1486605733.17413|||9
1486605733.32023|||9
1486605733.47061|||9
1486605733.61894|||9
1486605733.76503|Client|ClientRead|1
1486605733.76503|||8
1486605733.90447|||9
1486605734.05489|||9
1486605734.20564|||9
1486605734.35388|||9
1486605734.50452|||9
1486605734.65534|||9
1486605734.80262|Client|ClientRead|1
1486605734.80262|||9
1486605734.95287|||9
1486605735.10362|||9
1486605735.24885|||9
1486605735.3997|||9
1486605735.54824|||9
1486605735.69902|||9
1486605735.84982|||9
1486605735.99774|||10
1486605736.14596|||9
1486605736.29631|||9
1486605736.44681|||9
1486605736.59766|||9
1486605736.74483|||9
1486605736.89335|||9
1486605737.04417|||9
1486605737.19064|||9
1486605737.33913|||9
1486605737.48976|||9
1486605737.63792|||9
1486605737.78866|||9
1486605737.9394|||9
1486605738.09004|||9
1486605738.24078|||9
1486605738.39036|||9
1486605738.53832|||9
1486605738.53832|Client|ClientRead|1
1486605738.6863|||9
1486605738.83668|||9
1486605738.98501|||9
1486605739.13319|||9
1486605739.28173|||9
1486605739.43274|||9
1486605739.58103|||9
1486605739.73152|||10
1486605739.8822|||9
1486605740.03262|||9
1486605740.18324|||9
1486605740.33389|||9
1486605740.48463|||9
1486605740.63303|||9
1486605740.78142|||9
1486605740.93212|||9
1486605741.07905|||10
1486605741.23001|||9
1486605741.37841|||9
1486605741.52912|||9
1486605741.68001|||9
1486605741.82818|||9
1486605741.97673|||9
1486605742.12749|||9
1486605742.27541|||10
1486605742.42354|||9
1486605742.57067|||9
1486605742.72033|||9
1486605742.8701|||9
1486605743.02078|||9
1486605743.17139|||9
1486605743.32211|||9
1486605743.47293|||9
1486605743.62283|||9
1486605743.77327|||9
1486605743.92175|||9
1486605744.07162|||9
1486605744.20709|Client|ClientRead|2
1486605744.20709|||7
1486605744.35958|||8
1486605744.35958|Client|ClientRead|1
1486605744.51611|Client|ClientRead|1
1486605744.51611|||8
1486605744.66877|||9
1486605744.82646|Client|ClientRead|2
1486605744.82646|||8
1486605744.97807|Client|ClientRead|1
1486605744.97807|||9
1486605745.13027|||8
1486605745.13027|Client|ClientRead|1
1486605745.28312|||9
1486605745.43258|||9
1486605745.58252|||9
1486605745.73089|||9
1486605745.8794|||9
1486605746.02806|||9
1486605746.02806|Client|ClientRead|1
1486605746.17821|||9
1486605746.32728|||9
1486605746.4781|||9
1486605746.62693|||9
1486605746.77786|||9
1486605746.92523|||9
1486605747.0759|||9
1486605747.22411|||9
1486605747.3725|||9
1486605747.52091|||9
1486605747.66939|||9
1486605747.81963|||9
1486605747.97039|||9
1486605748.12001|||9
1486605748.27068|||9
1486605748.41576|||9
1486605748.56638|||9
1486605748.71629|Client|ClientRead|1
1486605748.71629|||9
1486605748.86512|||9
1486605749.01602|||9
1486605749.16677|||9
1486605749.31774|||9
1486605749.46852|||9
1486605749.61678|||9
1486605749.76753|||9
1486605749.91746|||10
1486605750.06743|||9
1486605750.21587|||9
1486605750.36686|||9
1486605750.51784|||9
1486605750.66757|||9
1486605750.81845|||9
1486605750.96939|||9
1486605751.12013|Client|ClientRead|1
1486605751.12013|||9
1486605751.26888|||9
1486605751.41941|||9
1486605751.56565|||9
1486605751.71648|||9
1486605751.86714|||9
1486605752.01674|||9
1486605752.16748|||9
1486605752.31391|||10
1486605752.46022|||10
1486605752.61039|||9
1486605752.76014|||9
1486605752.90881|||9
1486605753.0573|||9
1486605753.20799|||9
1486605753.35637|||9
1486605753.50614|||9
1486605753.65472|||9
1486605753.80256|||9
1486605753.95333|||9
1486605754.10086|||9
1486605754.25161|||9
1486605754.40237|||9
1486605754.55079|||9
1486605754.69914|||9
1486605754.84912|||9
1486605754.99943|||9
1486605755.14631|||9
1486605755.29449|||9
1486605755.44287|||9
1486605755.59136|||9
1486605755.74001|||9
1486605755.89086|||9
1486605756.04157|||9
1486605756.18965|||9
1486605756.18965|Client|ClientRead|1
1486605756.33791|||8
1486605756.33791|Client|ClientRead|1
1486605756.49105|||7
1486605756.49105|Client|ClientRead|2
1486605756.63787|Client|ClientRead|1
1486605756.63787|||8
1486605756.78831|||8
1486605756.78831|Client|ClientRead|1
1486605756.94511|Client|ClientRead|1
1486605756.94511|||8
1486605757.10251|||9
1486605757.25391|||9
1486605757.38255|Client|ClientRead|1
1486605757.38255|||8
1486605757.53114|||9
1486605757.6817|||9
1486605757.83024|||9
1486605757.97884|||9
1486605758.12716|||9
1486605758.27787|||9
1486605758.40426|||9
1486605758.55227|||9
1486605758.70726|||9
1486605758.85791|||9
1486605759.00858|||9
1486605759.15926|||9
1486605759.30663|||9
1486605759.4575|||9
1486605759.60479|||9
1486605759.75548|||9
1486605759.90183|||9
1486605760.05192|||9
1486605760.20275|||9
1486605760.35368|||9
1486605760.50357|||9
1486605760.65429|||9
1486605760.80499|||9
1486605760.9535|||9
1486605761.10074|||9
1486605761.24755|Client|ClientRead|1
1486605761.24755|||9
1486605761.39734|||9
1486605761.54803|||9
1486605761.69877|||9
1486605761.84937|||9
1486605761.99265|||9
1486605762.14099|||9
1486605762.29187|||9
1486605762.4444|||10
1486605762.59515|||9
1486605762.74372|||9
1486605762.89474|||9
1486605763.04536|||9
1486605763.19601|||9
1486605763.34463|||9
1486605763.49289|||9
1486605763.63989|||9
1486605763.79215|||9
1486605763.94538|||8
1486605763.94538|Client|ClientRead|1
1486605764.099|||9
1486605764.24668|||9
1486605764.39899|||8
1486605764.39899|Client|ClientRead|1
1486605764.54773|Client|ClientRead|1
1486605764.54773|||8
1486605764.69688|||8
1486605764.69688|Client|ClientRead|1
1486605764.84364|Client|ClientRead|1
1486605764.84364|||9
1486605764.99489|||9
1486605765.14628|||9
1486605765.295|||9
1486605765.44468|||9
1486605765.5932|||9
1486605765.7415|||9
1486605765.88977|||9
1486605766.03804|||9
1486605766.19044|||10
1486605766.34064|||9
1486605766.48901|||9
1486605766.63972|||9
1486605766.79037|||9
1486605766.94104|||9
1486605767.08913|||9
1486605767.2399|||9
1486605767.39127|||10
1486605767.5439|||10
1486605767.69485|||9
1486605767.84337|||9
1486605767.9942|||9
1486605768.14517|||9
1486605768.29292|||9
1486605768.4436|||9
1486605768.59355|||9
1486605768.73987|||9
1486605768.89037|||9
1486605769.04111|||9
1486605769.18975|||9
1486605769.33806|||9
1486605769.48857|||9
1486605769.6369|||9
1486605769.78523|||9
1486605769.93256|||9
1486605769.93256|Client|ClientRead|1
1486605770.07918|||9
1486605770.22795|||9
1486605770.37666|||9
1486605770.52744|||9
1486605770.67575|||9
1486605770.82633|||9
1486605770.96643|||9
1486605771.11532|||10
1486605771.26519|||10
1486605771.41393|||9
1486605771.56481|||9
1486605771.71545|||9
1486605771.86372|||9
1486605772.01424|||9
1486605772.16515|||9
1486605772.31162|||9
1486605772.46234|||9
1486605772.6117|||9
1486605772.76245|||9
1486605772.91312|||9
1486605773.0616|||9
1486605773.2124|||9
1486605773.36322|||9
1486605773.5139|||9
1486605773.66283|||9
1486605773.81121|||9
1486605773.95961|||9
1486605774.10931|||9
1486605774.25782|||9
1486605774.40537|||9
1486605774.55607|||9
1486605774.70676|||9
1486605774.85702|||10
1486605775.00464|||9
1486605775.15285|||9
1486605775.30192|||9
1486605775.4526|||9
1486605775.60233|||9
1486605775.75325|||9
1486605775.90232|||9
1486605776.04261|||9
1486605776.19061|||9
1486605776.34063|||9
1486605776.49129|||9
1486605776.63974|||9
1486605776.78838|||9
1486605776.93653|||9
1486605777.08726|||9
1486605777.23801|||9
1486605777.38663|||9
1486605777.53805|||10
1486605777.68668|||9
1486605777.83639|||9
1486605777.98712|||9
1486605778.13601|||9
1486605778.28687|||9
1486605778.43777|||9
1486605778.58864|||9
1486605778.73706|||9
1486605778.88754|||9
1486605779.03625|||9
1486605779.18701|||9
1486605779.33534|||9
1486605779.4861|||9
1486605779.6369|||9
1486605779.78347|||7
1486605779.78347|Client|ClientRead|2
1486605779.93028|||9
1486605780.07835|||9
1486605780.2292|||9
1486605780.37988|||9
1486605780.53051|||9
1486605780.67894|||9
1486605780.82732|||9
1486605780.97721|||9
1486605781.11749|||9
1486605781.26752|||10
1486605781.41366|||9
1486605781.56453|||9
1486605781.71532|||9
1486605781.86618|||9
1486605782.01473|||9
1486605782.1633|||9
1486605782.31383|||9
1486605782.46444|||10
1486605782.61268|||9
1486605782.76141|||9
1486605782.90974|||9
1486605783.05811|||9
1486605783.2089|||9
1486605783.35974|||9
1486605783.50798|||9
1486605783.65578|||9
1486605783.80335|||9
1486605783.95371|||9
1486605784.10447|||9
1486605784.25516|||9
1486605784.40332|||9
1486605784.55376|||9
1486605784.70218|||9
1486605784.84958|||9
1486605784.99588|||9
1486605784.99588|Client|ClientRead|1
1486605785.14576|||9
1486605785.29434|||9
1486605785.44275|||9
1486605785.59114|||9
1486605785.73957|||9
1486605785.88915|||9
1486605786.03992|||9
1486605786.18766|||10
1486605786.33786|||9
1486605786.33786|Client|ClientRead|1
1486605786.48795|||9
1486605786.63884|||9
1486605786.78696|||9
1486605786.93737|||9
1486605787.08716|||9
1486605787.23792|||9
1486605787.38896|||9
1486605787.53961|||10
1486605787.68537|||9
1486605787.83376|||9
1486605787.98491|||9
1486605788.13311|||9
1486605788.28285|||9
1486605788.43368|||9
1486605788.58335|||9
1486605788.73416|||9
1486605788.88002|||9
1486605789.02788|||9
1486605789.17612|||9
1486605789.32571|||9
1486605789.47714|||9
1486605789.62489|||9
1486605789.77339|||9
1486605789.92423|||9
1486605790.07444|||9
1486605790.22278|||9
1486605790.37251|||9
1486605790.52337|||9
1486605790.67585|||9
1486605790.82426|||9
1486605790.97151|||9
1486605791.11915|||9
1486605791.26816|||9
1486605791.4183|Client|ClientRead|1
1486605791.4183|||9
1486605791.56889|||9
1486605791.71963|||9
1486605791.86796|||9
1486605792.01443|||9
1486605792.16293|||9
1486605792.31118|||9
1486605792.45943|Client|ClientRead|1
1486605792.45943|||8
1486605792.61063|||9
1486605792.75551|Client|ClientRead|1
1486605792.75551|||8
1486605792.89754|||8
1486605792.89754|Client|ClientRead|1
1486605793.04002|||9
1486605793.19071|||9
1486605793.34236|||9
1486605793.49061|||9
1486605793.63874|||9
1486605793.78698|Client|ClientRead|1
1486605793.78698|||9
1486605793.93542|||9
1486605794.08614|||9
1486605794.23683|||9
1486605794.38513|||9
1486605794.53395|||9
1486605794.68216|||9
1486605794.83293|||9
1486605794.98073|||10
1486605795.12776|||8
1486605795.12776|Client|ClientRead|1
1486605795.27398|||9
1486605795.41743|||9
1486605795.56612|||9
1486605795.71676|||9
1486605795.86758|||9
1486605796.01825|||9
1486605796.16789|||9
1486605796.31824|||9
1486605796.46908|||9
1486605796.61721|||9
1486605796.76962|||9
1486605796.92042|||9
1486605797.07175|||9
1486605797.2224|||9
1486605797.37335|||9
1486605797.5218|||9
1486605797.67085|||9
1486605797.82153|||9
1486605797.96989|||9
1486605798.12099|||9
1486605798.27176|||9
1486605798.42254|||9
1486605798.5734|||9
1486605798.72091|||10
1486605798.87169|||9
1486605799.02176|||9
1486605799.17248|||9
1486605799.32328|||9
1486605799.47152|||9
1486605799.62226|||9
1486605799.77112|||9
1486605799.91999|||9
1486605800.0681|Client|ClientRead|1
1486605800.0681|||9
1486605800.21813|||9
1486605800.36697|||9
1486605800.5154|||9
1486605800.66281|||9
1486605800.81369|||9
1486605800.962|||9
1486605801.11038|||9
1486605801.25899|||9
1486605801.40598|||9
1486605801.55644|||9
1486605801.70621|||9
1486605801.85705|||9
1486605802.00794|||9
1486605802.15864|||9
1486605802.30703|||9
1486605802.45476|||9
1486605802.6021|||9
1486605802.75276|||9
1486605802.90356|||9
1486605803.05438|||9
1486605803.2067|||9
1486605803.35752|||9
1486605803.50611|||9
1486605803.65347|||9
1486605803.79978|||10
1486605803.94845|||9
1486605804.09896|||9
1486605804.24721|||9
1486605804.39566|||9
1486605804.54653|||9
1486605804.6917|||9
1486605804.8425|||9
1486605804.99058|||9
1486605804.99058|Client|ClientRead|1
1486605805.13913|||9
1486605805.28703|||9
1486605805.43607|||9
1486605805.58417|||9
1486605805.73291|||9
1486605805.88363|||9
1486605806.03203|||9
1486605806.1794|||9
1486605806.33001|Client|ClientRead|1
1486605806.33001|||8
1486605806.46738|Client|ClientRead|1
1486605806.46738|||8
1486605806.60925|||8
1486605806.60925|Client|ClientRead|1
1486605806.75037|||8
1486605806.75037|Client|ClientRead|1
1486605806.89827|Client|ClientRead|1
1486605806.89827|||8
1486605807.04824|||9
1486605807.1914|||9
1486605807.34|||9
1486605807.4888|||9
1486605807.4888|Client|ClientRead|1
1486605807.62342|Client|ClientRead|1
1486605807.62342|||9
1486605807.77231|||9
1486605807.9245|||9
1486605808.07527|||9
1486605808.22369|||9
1486605808.37448|||9
1486605808.52528|||8
1486605808.52528|Client|ClientRead|1
1486605808.66038|||9
1486605808.80504|Client|ClientRead|1
1486605808.80504|||9
1486605808.958|||9
1486605809.10839|||9
1486605809.26172|||7
1486605809.26172|Client|ClientRead|2
1486605809.40866|||9
1486605809.55681|Client|ClientRead|1
1486605809.55681|||8
1486605809.708|Client|ClientRead|1
1486605809.708|||8
1486605809.8597|||8
1486605809.8597|Client|ClientRead|1
1486605810.0056|||10
1486605810.15135|||8
1486605810.15135|Client|ClientRead|1
1486605810.29946|||8
1486605810.29946|Client|ClientRead|1
1486605810.44772|||9
1486605810.59779|||9
1486605810.7479|||9
1486605810.89859|||9
1486605811.04957|||8
1486605811.04957|Client|ClientRead|1
1486605811.19755|||10
1486605811.34201|||9
1486605811.49398|||9
1486605811.64478|||9
1486605811.79203|||9
1486605811.9373|||7
1486605811.9373|Client|ClientRead|2
1486605812.0828|||9
1486605812.23119|||9
1486605812.37979|||8
1486605812.37979|Client|ClientRead|1
1486605812.5237|||9
1486605812.5237|Client|ClientRead|1
1486605812.66765|Client|ClientRead|1
1486605812.66765|||8
1486605812.81078|||8
1486605812.81078|Client|ClientRead|1
1486605812.95198|Client|ClientRead|1
1486605812.95198|||8
1486605813.09496|||9
1486605813.2435|||9
1486605813.39195|||9
1486605813.54265|||9
1486605813.69274|||9
1486605813.84052|||9
1486605813.84052|Client|ClientRead|1
1486605813.98813|||9
1486605814.13701|||9
1486605814.28196|||9
1486605814.43242|||9
1486605814.57858|||9
1486605814.72813|||9
1486605814.87659|||9
1486605815.02451|||9
1486605815.17491|||9
1486605815.32536|||9
1486605815.47351|||9
1486605815.62431|||9
1486605815.77501|||9
1486605815.92576|||9
1486605816.07541|||9
1486605816.22476|||10
1486605816.37618|||9
1486605816.52667|||9
1486605816.67714|||9
1486605816.8269|||9
1486605816.9775|||9
1486605817.12703|||9
1486605817.27776|||9
1486605817.42778|||9
1486605817.57978|||9
1486605817.72948|||9
1486605817.87779|||9
1486605818.02589|||9
1486605818.17666|||9
1486605818.32488|||9
1486605818.4756|||9
1486605818.62381|||9
1486605818.77196|||9
1486605818.91847|||9
1486605819.06916|||9
1486605819.21998|||9
1486605819.37069|||9
1486605819.52148|||9
1486605819.67239|||9
1486605819.81876|||9
1486605819.96911|||9
1486605820.11923|||9
1486605820.11923|Client|ClientRead|1
1486605820.26974|||9
1486605820.42058|||9
1486605820.57026|||9
1486605820.71853|||9
1486605820.86721|||9
1486605821.01576|||9
1486605821.16398|||9
1486605821.31427|||9
1486605821.46478|||9
1486605821.61192|||9
1486605821.76031|||9
1486605821.9078|||9
1486605822.05778|||9
1486605822.20854|||9
1486605822.35688|||9
1486605822.50616|||9
1486605822.65391|||10
1486605822.80092|||9
1486605822.94915|||9
1486605823.09641|||9
1486605823.2472|||9
1486605823.39825|||9
1486605823.54802|||9
1486605823.69717|||9
1486605823.8444|||9
1486605823.994|||9
1486605824.14378|||9
1486605824.29221|||9
1486605824.44054|||9
1486605824.58878|||9
1486605824.73726|||9
1486605824.88763|||9
1486605825.03617|||10
1486605825.18663|||9
1486605825.33732|||9
1486605825.48562|||9
1486605825.63626|||9
1486605825.78598|||9
1486605825.93755|||9
1486605826.08846|||9
1486605826.23881|||10
1486605826.38686|||9
1486605826.53466|||9
1486605826.68294|||9
1486605826.83131|||9
1486605826.98176|||9
1486605827.13027|||8
1486605827.13027|Client|ClientRead|1
1486605827.27797|||9
1486605827.41193|Client|ClientRead|1
1486605827.41193|||8
1486605827.55713|||9
1486605827.70491|||8
1486605827.70491|Client|ClientRead|1
1486605827.84847|||8
1486605827.84847|Client|ClientRead|1
1486605827.99071|Client|ClientRead|1
1486605827.99071|||8
1486605828.13223|||8
1486605828.13223|Client|ClientRead|1
1486605828.29082|||8
1486605828.29082|Client|ClientRead|1
1486605828.44024|||8
1486605828.44024|Client|ClientRead|1
1486605828.59212|||8
1486605828.59212|Client|ClientRead|1
1486605828.74226|||9
1486605828.89464|Client|ClientRead|2
1486605828.89464|||7
1486605829.04142|||9
1486605829.18988|||9
1486605829.33912|Client|ClientRead|2
1486605829.33912|||7
1486605829.48925|||9
1486605829.63805|||9
1486605829.7887|||9
1486605829.93753|||9
1486605830.07831|||9
1486605830.224|||9
1486605830.37158|Client|ClientRead|2
1486605830.37158|||7
1486605830.50872|||8
1486605830.50872|Client|ClientRead|1
1486605830.6624|Client|ClientRead|2
1486605830.6624|||7
1486605830.81282|Client|ClientRead|3
1486605830.81282|||6
1486605830.9626|||7
1486605830.9626|Client|ClientRead|2
1486605831.1123|Client|ClientRead|2
1486605831.1123|||7
1486605831.26579|Client|ClientRead|3
1486605831.26579|||7
1486605831.40445|||8
1486605831.40445|Client|ClientRead|1
1486605831.55458|Client|ClientRead|1
1486605831.55458|||8
1486605831.69971|Client|ClientRead|1
1486605831.69971|||8
1486605831.8461|Client|ClientRead|1
1486605831.8461|||8
1486605831.98799|||7
1486605831.98799|Client|ClientRead|2
1486605832.13734|||8
1486605832.13734|Client|ClientRead|1
1486605832.28355|||8
1486605832.28355|Client|ClientRead|1
1486605832.4325|Client|ClientRead|2
1486605832.4325|||7
1486605832.58759|||9
1486605832.73318|||7
1486605832.73318|Client|ClientRead|2
1486605832.8794|||9
1486605833.02813|||9
1486605833.17903|||9
1486605833.32738|||8
1486605833.32738|Client|ClientRead|1
1486605833.47674|||9
1486605833.62749|||9
1486605833.77012|Client|ClientRead|2
1486605833.77012|||7
1486605833.91496|||9
1486605834.06556|||9
1486605834.21351|||9
1486605834.36233|Client|ClientRead|2
1486605834.36233|||7
1486605834.51205|||9
1486605834.66099|||9
1486605834.80806|||9
1486605834.95744|||9
1486605835.09585|||7
1486605835.09585|Client|ClientRead|2
1486605835.24322|||9
1486605835.39377|||9
1486605835.5446|||9
1486605835.69218|||9
1486605835.84327|||9
1486605835.99307|||9
1486605836.14416|||9
1486605836.291|||7
1486605836.291|Client|ClientRead|2
1486605836.43276|||9
1486605836.58106|||9
1486605836.73003|||8
1486605836.73003|Client|ClientRead|1
1486605836.88089|||9
1486605837.03014|||9
1486605837.17853|||9
1486605837.32688|||9
1486605837.47522|||9
1486605837.47522|Client|ClientRead|1
1486605837.61399|Client|ClientRead|2
1486605837.61399|||8
1486605837.7628|Client|ClientRead|2
1486605837.7628|||7
1486605837.89986|Client|ClientRead|2
1486605837.89986|||7
1486605838.04403|Client|ClientRead|1
1486605838.04403|||8
1486605838.19454|Client|ClientRead|2
1486605838.19454|||7
1486605838.34292|Client|ClientRead|2
1486605838.34292|||7
1486605838.49249|||8
1486605838.49249|Client|ClientRead|1
1486605838.64512|||8
1486605838.64512|Client|ClientRead|1
1486605838.79671|||6
1486605838.79671|Client|ClientRead|3
1486605838.95336|||9
1486605839.10421|||9
1486605839.2549|||9
1486605839.40563|||9
1486605839.55636|||9
1486605839.70707|||9
1486605839.85798|||9
1486605840.00593|Client|ClientRead|1
1486605840.00593|||9
1486605840.1521|||9
1486605840.30275|||9
1486605840.45131|||9
1486605840.60202|||9
1486605840.75026|||9
1486605840.9012|||9
1486605841.0528|||9
1486605841.20353|||9
1486605841.35215|||9
1486605841.5026|||9
1486605841.65114|||9
1486605841.8019|||9
1486605841.9503|||9
1486605842.0989|||9
1486605842.24703|||9
1486605842.39682|Client|ClientRead|1
1486605842.39682|||9
1486605842.54655|||9
1486605842.69679|||9
1486605842.84768|||9
1486605842.99845|||9
1486605843.14917|||9
1486605843.29691|||9
1486605843.44653|||9
1486605843.59719|||9
1486605843.74671|Client|ClientRead|1
1486605843.74671|||9
1486605843.89498|||9
1486605844.04579|||9
1486605844.19669|||9
1486605844.34759|||9
1486605844.49842|||9
1486605844.64714|||9
1486605844.79801|||9
1486605844.94495|||10
1486605845.09585|||9
1486605845.24697|||9
1486605845.39517|||9
1486605845.54351|||9
1486605845.69183|||9
1486605845.84251|||9
1486605845.99304|||9
1486605846.14389|||9
1486605846.2935|||9
1486605846.44098|||8
1486605846.44098|Client|ClientRead|1
1486605846.57912|Client|ClientRead|1
1486605846.57912|||8
1486605846.72303|||8
1486605846.72303|Client|ClientRead|1
1486605846.86368|||8
1486605846.86368|Client|ClientRead|1
1486605847.02186|||7
1486605847.02186|Client|ClientRead|2
1486605847.1686|||8
1486605847.1686|Client|ClientRead|1
1486605847.31469|Client|ClientRead|1
1486605847.31469|||8
1486605847.46111|||7
1486605847.46111|Client|ClientRead|2
1486605847.61754|||8
1486605847.61754|Client|ClientRead|1
1486605847.76274|||8
1486605847.76274|Client|ClientRead|1
1486605847.90978|||8
1486605847.90978|Client|ClientRead|1
1486605848.05881|||8
1486605848.05881|Client|ClientRead|1
1486605848.20499|||7
1486605848.20499|Client|ClientRead|2
1486605848.35496|||8
1486605848.35496|Client|ClientRead|1
1486605848.50419|||7
1486605848.50419|Client|ClientRead|2
1486605848.65618|||9
1486605848.65618|Client|ClientRead|1
1486605848.80726|Client|ClientRead|1
1486605848.80726|||8
1486605848.95132|||8
1486605848.95132|Client|ClientRead|1
