 2017-02-09 02:13:35.194542+01 | 1486602815.19454 |                 0 |              12 |                    14 |                   42 |                 35 |           787 |                7 |         1473039 |                     0 |     222003352 | 2017-02-09 01:17:43.500426+01

 2017-02-09 02:13:36.360308+01 | 1486602816.36031 |                 0 |              12 |                    14 |                   42 |                 35 |           788 |                7 |         1473039 |                     0 |     222079886 | 2017-02-09 01:17:43.500426+01

 2017-02-09 02:13:37.466795+01 | 1486602817.46679 |                 0 |              12 |                    14 |                   42 |                 35 |           790 |                7 |         1473039 |                     0 |     222138212 | 2017-02-09 01:17:43.500426+01

 2017-02-09 02:13:38.596715+01 | 1486602818.59671 |                 0 |              12 |                    14 |                   42 |                 35 |           790 |                7 |         1473039 |                     0 |     222209886 | 2017-02-09 01:17:43.500426+01

 2017-02-09 02:13:39.764959+01 | 1486602819.76496 |                 0 |              12 |                    14 |                   42 |                 35 |           791 |                7 |         1473039 |                     0 |     222291533 | 2017-02-09 01:17:43.500426+01

 2017-02-09 02:13:40.946478+01 | 1486602820.94648 |                 0 |              12 |                    14 |                   42 |                 35 |           791 |                7 |         1473039 |                     0 |     222360762 | 2017-02-09 01:17:43.500426+01

 2017-02-09 02:13:42.127316+01 | 1486602822.12732 |                 0 |              12 |                    14 |                   42 |                 35 |           791 |                7 |         1473039 |                     0 |     222444375 | 2017-02-09 01:17:43.500426+01

 2017-02-09 02:13:43.3093+01 | 1486602823.3093 |                 0 |              12 |                    14 |                   42 |                 35 |           791 |                7 |         1473039 |                     0 |     222527508 | 2017-02-09 01:17:43.500426+01

 2017-02-09 02:13:44.470223+01 | 1486602824.47022 |                 0 |              12 |                    14 |                   42 |                 35 |           791 |                7 |         1473039 |                     0 |     222606591 | 2017-02-09 01:17:43.500426+01

 2017-02-09 02:13:45.575193+01 | 1486602825.57519 |                 0 |              12 |                    14 |                   42 |                 35 |           791 |                7 |         1473039 |                     0 |     222685525 | 2017-02-09 01:17:43.500426+01

 2017-02-09 02:13:46.74578+01 | 1486602826.74578 |                 0 |              12 |                    14 |                   42 |                 35 |           791 |                7 |         1473039 |                     0 |     222751196 | 2017-02-09 01:17:43.500426+01

 2017-02-09 02:13:47.92237+01 | 1486602827.92237 |                 0 |              12 |                    14 |                   42 |                 35 |           791 |                7 |         1473039 |                     0 |     222834977 | 2017-02-09 01:17:43.500426+01

 2017-02-09 02:13:49.107324+01 | 1486602829.10732 |                 0 |              12 |                    14 |                   42 |                 35 |           791 |                7 |         1473039 |                     0 |     222918844 | 2017-02-09 01:17:43.500426+01

 2017-02-09 02:13:50.28902+01 | 1486602830.28902 |                 0 |              12 |                    14 |                   42 |                 35 |           791 |                7 |         1473039 |                     0 |     223002491 | 2017-02-09 01:17:43.500426+01

 2017-02-09 02:13:51.469637+01 | 1486602831.46964 |                 0 |              12 |                    14 |                   42 |                 35 |           791 |                7 |         1473039 |                     0 |     223086319 | 2017-02-09 01:17:43.500426+01

 2017-02-09 02:13:52.656344+01 | 1486602832.65634 |                 0 |              12 |                    14 |                   42 |                 35 |           791 |                7 |         1473039 |                     0 |     223170363 | 2017-02-09 01:17:43.500426+01

 2017-02-09 02:13:53.836135+01 | 1486602833.83613 |                 0 |              12 |                    14 |                   42 |                 35 |           791 |                7 |         1473039 |                     0 |     223252843 | 2017-02-09 01:17:43.500426+01

 2017-02-09 02:13:55.01611+01 | 1486602835.01611 |                 0 |              12 |                    14 |                   42 |                 35 |           791 |                7 |         1473039 |                     0 |     223322275 | 2017-02-09 01:17:43.500426+01

 2017-02-09 02:13:56.200757+01 | 1486602836.20076 |                 0 |              12 |                    14 |                   42 |                 35 |           791 |                7 |         1473039 |                     0 |     223405620 | 2017-02-09 01:17:43.500426+01

 2017-02-09 02:13:57.386095+01 | 1486602837.3861 |                 0 |              12 |                    14 |                   42 |                 35 |           791 |                7 |         1473039 |                     0 |     223489558 | 2017-02-09 01:17:43.500426+01

 2017-02-09 02:13:58.518253+01 | 1486602838.51825 |                 0 |              12 |                    14 |                   42 |                 35 |           791 |                7 |         1473039 |                     0 |     223573318 | 2017-02-09 01:17:43.500426+01

 2017-02-09 02:13:59.681616+01 | 1486602839.68162 |                 0 |              12 |                    14 |                   42 |                 35 |           791 |                7 |         1473039 |                     0 |     223655929 | 2017-02-09 01:17:43.500426+01

 2017-02-09 02:14:00.862824+01 | 1486602840.86282 |                 0 |              12 |                    14 |                   42 |                 35 |           791 |                7 |         1473039 |                     0 |     223739579 | 2017-02-09 01:17:43.500426+01

 2017-02-09 02:14:02.047504+01 | 1486602842.0475 |                 0 |              12 |                    14 |                   42 |                 35 |           791 |                7 |         1473039 |                     0 |     223809335 | 2017-02-09 01:17:43.500426+01

 2017-02-09 02:14:03.229105+01 | 1486602843.2291 |                 0 |              12 |                    14 |                   42 |                 35 |           791 |                7 |         1473039 |                     0 |     223893083 | 2017-02-09 01:17:43.500426+01

 2017-02-09 02:14:04.41085+01 | 1486602844.41085 |                 0 |              12 |                    14 |                   42 |                 35 |           791 |                7 |         1473039 |                     0 |     223976634 | 2017-02-09 01:17:43.500426+01

 2017-02-09 02:14:05.594248+01 | 1486602845.59425 |                 0 |              12 |                    14 |                   42 |                 35 |           791 |                7 |         1473039 |                     0 |     224060503 | 2017-02-09 01:17:43.500426+01

 2017-02-09 02:14:06.775141+01 | 1486602846.77514 |                 0 |              12 |                    14 |                   42 |                 35 |           791 |                7 |         1473039 |                     0 |     224144352 | 2017-02-09 01:17:43.500426+01

 2017-02-09 02:14:07.954098+01 | 1486602847.9541 |                 0 |              12 |                    14 |                   42 |                 35 |           791 |                7 |         1473039 |                     0 |     224227975 | 2017-02-09 01:17:43.500426+01

 2017-02-09 02:14:09.113461+01 | 1486602849.11346 |                 0 |              12 |                    14 |                   42 |                 35 |           791 |                7 |         1473039 |                     0 |     224308320 | 2017-02-09 01:17:43.500426+01

 2017-02-09 02:14:10.25372+01 | 1486602850.25372 |                 0 |              12 |                    14 |                   42 |                 35 |           791 |                7 |         1473039 |                     0 |     224373289 | 2017-02-09 01:17:43.500426+01

 2017-02-09 02:14:11.425716+01 | 1486602851.42572 |                 0 |              12 |                    14 |                   42 |                 35 |           791 |                7 |         1473039 |                     0 |     224450190 | 2017-02-09 01:17:43.500426+01

 2017-02-09 02:14:12.611116+01 | 1486602852.61112 |                 0 |              12 |                    14 |                   42 |                 35 |           791 |                7 |         1473039 |                     0 |     224534061 | 2017-02-09 01:17:43.500426+01

 2017-02-09 02:14:13.793456+01 | 1486602853.79346 |                 0 |              12 |                    14 |                   42 |                 35 |           791 |                7 |         1473039 |                     0 |     224617430 | 2017-02-09 01:17:43.500426+01

 2017-02-09 02:14:14.977412+01 | 1486602854.97741 |                 0 |              12 |                    14 |                   42 |                 35 |           791 |                7 |         1473039 |                     0 |     224701189 | 2017-02-09 01:17:43.500426+01

 2017-02-09 02:14:16.16053+01 | 1486602856.16053 |                 0 |              12 |                    14 |                   42 |                 35 |           791 |                7 |         1473039 |                     0 |     224785140 | 2017-02-09 01:17:43.500426+01

 2017-02-09 02:14:17.342464+01 | 1486602857.34246 |                 0 |              12 |                    14 |                   42 |                 35 |           791 |                7 |         1473039 |                     0 |     224868766 | 2017-02-09 01:17:43.500426+01

 2017-02-09 02:14:18.523113+01 | 1486602858.52311 |                 0 |              12 |                    14 |                   42 |                 35 |           791 |                7 |         1473039 |                     0 |     224938686 | 2017-02-09 01:17:43.500426+01

 2017-02-09 02:14:19.68922+01 | 1486602859.68922 |                 0 |              12 |                    14 |                   42 |                 35 |           791 |                7 |         1473039 |                     0 |     225022319 | 2017-02-09 01:17:43.500426+01

 2017-02-09 02:14:20.788048+01 | 1486602860.78805 |                 0 |              12 |                    14 |                   42 |                 35 |           791 |                7 |         1473039 |                     0 |     225099230 | 2017-02-09 01:17:43.500426+01

 2017-02-09 02:14:21.910112+01 | 1486602861.91011 |                 0 |              12 |                    14 |                   42 |                 35 |           791 |                7 |         1473039 |                     0 |     225162327 | 2017-02-09 01:17:43.500426+01

 2017-02-09 02:14:23.079081+01 | 1486602863.07908 |                 0 |              12 |                    14 |                   42 |                 35 |           791 |                7 |         1473039 |                     0 |     225243280 | 2017-02-09 01:17:43.500426+01

 2017-02-09 02:14:24.256773+01 | 1486602864.25677 |                 0 |              12 |                    14 |                   42 |                 35 |           791 |                7 |         1473039 |                     0 |     225327241 | 2017-02-09 01:17:43.500426+01

 2017-02-09 02:14:25.434848+01 | 1486602865.43485 |                 0 |              12 |                    14 |                   42 |                 35 |           791 |                7 |         1473039 |                     0 |     225409701 | 2017-02-09 01:17:43.500426+01

 2017-02-09 02:14:26.61586+01 | 1486602866.61586 |                 0 |              12 |                    14 |                   42 |                 35 |           791 |                7 |         1473039 |                     0 |     225493523 | 2017-02-09 01:17:43.500426+01

 2017-02-09 02:14:27.785294+01 | 1486602867.78529 |                 0 |              12 |                    14 |                   42 |                 35 |           791 |                7 |         1473039 |                     0 |     225577298 | 2017-02-09 01:17:43.500426+01

 2017-02-09 02:14:28.960686+01 | 1486602868.96069 |                 0 |              12 |                    14 |                   42 |                 35 |           791 |                7 |         1473039 |                     0 |     225646436 | 2017-02-09 01:17:43.500426+01

 2017-02-09 02:14:30.149177+01 | 1486602870.14918 |                 0 |              12 |                    14 |                   42 |                 35 |           791 |                7 |         1473039 |                     0 |     225730136 | 2017-02-09 01:17:43.500426+01

 2017-02-09 02:14:31.330571+01 | 1486602871.33057 |                 0 |              12 |                    14 |                   42 |                 35 |           791 |                7 |         1473039 |                     0 |     225814041 | 2017-02-09 01:17:43.500426+01

 2017-02-09 02:14:32.512267+01 | 1486602872.51227 |                 0 |              12 |                    14 |                   42 |                 35 |           791 |                7 |         1473039 |                     0 |     225897162 | 2017-02-09 01:17:43.500426+01

 2017-02-09 02:14:33.696663+01 | 1486602873.69666 |                 0 |              12 |                    14 |                   42 |                 35 |           791 |                7 |         1473039 |                     0 |     225981151 | 2017-02-09 01:17:43.500426+01

 2017-02-09 02:14:34.848375+01 | 1486602874.84838 |                 0 |              12 |                    14 |                   42 |                 35 |           791 |                7 |         1473039 |                     0 |     226064300 | 2017-02-09 01:17:43.500426+01

 2017-02-09 02:14:36.015395+01 | 1486602876.01539 |                 0 |              12 |                    14 |                   42 |                 35 |           791 |                7 |         1473039 |                     0 |     226132627 | 2017-02-09 01:17:43.500426+01

 2017-02-09 02:14:37.200055+01 | 1486602877.20005 |                 0 |              12 |                    14 |                   42 |                 35 |           791 |                7 |         1473039 |                     0 |     226216263 | 2017-02-09 01:17:43.500426+01

 2017-02-09 02:14:38.382531+01 | 1486602878.38253 |                 0 |              12 |                    14 |                   42 |                 35 |           791 |                7 |         1473039 |                     0 |     226300433 | 2017-02-09 01:17:43.500426+01

 2017-02-09 02:14:39.565611+01 | 1486602879.56561 |                 0 |              12 |                    14 |                   42 |                 35 |           791 |                7 |         1473039 |                     0 |     226384089 | 2017-02-09 01:17:43.500426+01

 2017-02-09 02:14:40.747347+01 | 1486602880.74735 |                 0 |              12 |                    14 |                   42 |                 35 |           791 |                7 |         1473039 |                     0 |     226467862 | 2017-02-09 01:17:43.500426+01

 2017-02-09 02:14:41.92873+01 | 1486602881.92873 |                 0 |              12 |                    14 |                   42 |                 35 |           791 |                7 |         1473039 |                     0 |     226551823 | 2017-02-09 01:17:43.500426+01

 2017-02-09 02:14:43.113417+01 | 1486602883.11342 |                 0 |              12 |                    14 |                   42 |                 35 |           791 |                7 |         1473039 |                     0 |     226635588 | 2017-02-09 01:17:43.500426+01

 2017-02-09 02:14:44.293991+01 | 1486602884.29399 |                 0 |              12 |                    14 |                   42 |                 35 |           791 |                7 |         1473039 |                     0 |     226719491 | 2017-02-09 01:17:43.500426+01

 2017-02-09 02:14:45.478561+01 | 1486602885.47856 |                 0 |              12 |                    14 |                   42 |                 35 |           791 |                7 |         1473039 |                     0 |     226789170 | 2017-02-09 01:17:43.500426+01

 2017-02-09 02:14:46.662822+01 | 1486602886.66282 |                 0 |              12 |                    14 |                   42 |                 35 |           791 |                7 |         1473039 |                     0 |     226872856 | 2017-02-09 01:17:43.500426+01

 2017-02-09 02:14:47.846008+01 | 1486602887.84601 |                 0 |              12 |                    14 |                   42 |                 35 |           791 |                7 |         1473039 |                     0 |     226956813 | 2017-02-09 01:17:43.500426+01

 2017-02-09 02:14:49.030502+01 | 1486602889.0305 |                 0 |              12 |                    14 |                   42 |                 35 |           791 |                7 |         1473039 |                     0 |     227040643 | 2017-02-09 01:17:43.500426+01

 2017-02-09 02:14:50.208536+01 | 1486602890.20854 |                 0 |              12 |                    14 |                   42 |                 35 |           791 |                7 |         1473039 |                     0 |     227124197 | 2017-02-09 01:17:43.500426+01

 2017-02-09 02:14:51.391067+01 | 1486602891.39107 |                 0 |              12 |                    14 |                   42 |                 35 |           791 |                7 |         1473039 |                     0 |     227207975 | 2017-02-09 01:17:43.500426+01

 2017-02-09 02:14:52.574593+01 | 1486602892.57459 |                 0 |              12 |                    14 |                   42 |                 35 |           791 |                7 |         1473039 |                     0 |     227291718 | 2017-02-09 01:17:43.500426+01

 2017-02-09 02:14:53.684375+01 | 1486602893.68438 |                 0 |              12 |                    14 |                   42 |                 35 |           791 |                7 |         1473039 |                     0 |     227373606 | 2017-02-09 01:17:43.500426+01

 2017-02-09 02:14:54.853634+01 | 1486602894.85363 |                 0 |              12 |                    14 |                   42 |                 35 |           791 |                7 |         1473039 |                     0 |     227442604 | 2017-02-09 01:17:43.500426+01

 2017-02-09 02:14:56.036606+01 | 1486602896.03661 |                 0 |              12 |                    14 |                   42 |                 35 |           791 |                7 |         1473039 |                     0 |     227526283 | 2017-02-09 01:17:43.500426+01

 2017-02-09 02:14:57.218799+01 | 1486602897.2188 |                 0 |              12 |                    14 |                   42 |                 35 |           791 |                7 |         1473039 |                     0 |     227609975 | 2017-02-09 01:17:43.500426+01

 2017-02-09 02:14:58.4074+01 | 1486602898.4074 |                 0 |              12 |                    14 |                   42 |                 35 |           791 |                7 |         1473039 |                     0 |     227693550 | 2017-02-09 01:17:43.500426+01

 2017-02-09 02:14:59.589437+01 | 1486602899.58944 |                 0 |              12 |                    14 |                   42 |                 35 |           791 |                7 |         1473039 |                     0 |     227777430 | 2017-02-09 01:17:43.500426+01

 2017-02-09 02:15:00.76818+01 | 1486602900.76818 |                 0 |              12 |                    14 |                   42 |                 35 |           791 |                7 |         1473039 |                     0 |     227861187 | 2017-02-09 01:17:43.500426+01

 2017-02-09 02:15:01.948948+01 | 1486602901.94895 |                 0 |              12 |                    14 |                   42 |                 35 |           791 |                7 |         1473039 |                     0 |     227930702 | 2017-02-09 01:17:43.500426+01

 2017-02-09 02:15:03.132813+01 | 1486602903.13281 |                 0 |              12 |                    14 |                   42 |                 35 |           791 |                7 |         1473039 |                     0 |     228014674 | 2017-02-09 01:17:43.500426+01

 2017-02-09 02:15:04.31473+01 | 1486602904.31473 |                 0 |              12 |                    14 |                   42 |                 35 |           791 |                7 |         1473039 |                     0 |     228098527 | 2017-02-09 01:17:43.500426+01

 2017-02-09 02:15:05.494669+01 | 1486602905.49467 |                 0 |              12 |                    14 |                   42 |                 35 |           791 |                7 |         1473039 |                     0 |     228182514 | 2017-02-09 01:17:43.500426+01

 2017-02-09 02:15:06.67048+01 | 1486602906.67048 |                 0 |              12 |                    14 |                   42 |                 35 |           791 |                7 |         1473039 |                     0 |     228266576 | 2017-02-09 01:17:43.500426+01

 2017-02-09 02:15:07.824859+01 | 1486602907.82486 |                 0 |              12 |                    14 |                   42 |                 35 |           791 |                7 |         1473039 |                     0 |     228350409 | 2017-02-09 01:17:43.500426+01

 2017-02-09 02:15:08.96961+01 | 1486602908.96961 |                 0 |              12 |                    14 |                   42 |                 35 |           791 |                7 |         1473039 |                     0 |     228420125 | 2017-02-09 01:17:43.500426+01

 2017-02-09 02:15:10.10463+01 | 1486602910.10463 |                 0 |              12 |                    14 |                   42 |                 35 |           791 |                7 |         1473039 |                     0 |     228502054 | 2017-02-09 01:17:43.500426+01

 2017-02-09 02:15:11.271159+01 | 1486602911.27116 |                 0 |              12 |                    14 |                   42 |                 35 |           791 |                7 |         1473039 |                     0 |     228585207 | 2017-02-09 01:17:43.500426+01

 2017-02-09 02:15:12.450425+01 | 1486602912.45042 |                 0 |              12 |                    14 |                   42 |                 35 |           791 |                7 |         1473039 |                     0 |     228668911 | 2017-02-09 01:17:43.500426+01

 2017-02-09 02:15:13.619099+01 | 1486602913.6191 |                 0 |              12 |                    14 |                   42 |                 35 |           791 |                7 |         1473039 |                     0 |     228737741 | 2017-02-09 01:17:43.500426+01

 2017-02-09 02:15:14.802162+01 | 1486602914.80216 |                 0 |              12 |                    14 |                   42 |                 35 |           791 |                7 |         1473039 |                     0 |     228821643 | 2017-02-09 01:17:43.500426+01

 2017-02-09 02:15:15.981827+01 | 1486602915.98183 |                 0 |              12 |                    14 |                   42 |                 35 |           791 |                7 |         1473039 |                     0 |     228905639 | 2017-02-09 01:17:43.500426+01

 2017-02-09 02:15:17.163001+01 | 1486602917.163 |                 0 |              12 |                    14 |                   42 |                 35 |           791 |                7 |         1473039 |                     0 |     228989511 | 2017-02-09 01:17:43.500426+01

 2017-02-09 02:15:18.347371+01 | 1486602918.34737 |                 0 |              12 |                    14 |                   42 |                 35 |           791 |                7 |         1473039 |                     0 |     229073413 | 2017-02-09 01:17:43.500426+01

 2017-02-09 02:15:19.528927+01 | 1486602919.52893 |                 0 |              12 |                    14 |                   42 |                 35 |           791 |                7 |         1473039 |                     0 |     229156953 | 2017-02-09 01:17:43.500426+01

 2017-02-09 02:15:20.711768+01 | 1486602920.71177 |                 0 |              12 |                    14 |                   42 |                 35 |           791 |                7 |         1473039 |                     0 |     229240993 | 2017-02-09 01:17:43.500426+01

 2017-02-09 02:15:21.889855+01 | 1486602921.88985 |                 0 |              12 |                    14 |                   42 |                 35 |           791 |                7 |         1473039 |                     0 |     229323785 | 2017-02-09 01:17:43.500426+01

 2017-02-09 02:15:23.035253+01 | 1486602923.03525 |                 0 |              12 |                    14 |                   42 |                 35 |           791 |                7 |         1473039 |                     0 |     229407471 | 2017-02-09 01:17:43.500426+01

 2017-02-09 02:15:24.203593+01 | 1486602924.20359 |                 0 |              12 |                    14 |                   42 |                 35 |           791 |                7 |         1473039 |                     0 |     229476478 | 2017-02-09 01:17:43.500426+01

 2017-02-09 02:15:25.318043+01 | 1486602925.31804 |                 0 |              12 |                    14 |                   42 |                 35 |           791 |                7 |         1473039 |                     0 |     229560505 | 2017-02-09 01:17:43.500426+01

 2017-02-09 02:15:26.488607+01 | 1486602926.48861 |                 0 |              12 |                    14 |                   42 |                 35 |           791 |                7 |         1473039 |                     0 |     229644166 | 2017-02-09 01:17:43.500426+01

 2017-02-09 02:15:27.649375+01 | 1486602927.64937 |                 0 |              12 |                    14 |                   42 |                 35 |           791 |                7 |         1473039 |                     0 |     229714027 | 2017-02-09 01:17:43.500426+01

 2017-02-09 02:15:28.808589+01 | 1486602928.80859 |                 0 |              12 |                    14 |                   42 |                 35 |           791 |                7 |         1473039 |                     0 |     229797812 | 2017-02-09 01:17:43.500426+01

 2017-02-09 02:15:29.981871+01 | 1486602929.98187 |                 0 |              12 |                    14 |                   42 |                 35 |           791 |                7 |         1473039 |                     0 |     229881417 | 2017-02-09 01:17:43.500426+01

 2017-02-09 02:15:31.164737+01 | 1486602931.16474 |                 0 |              12 |                    14 |                   42 |                 35 |           791 |                7 |         1473039 |                     0 |     229965270 | 2017-02-09 01:17:43.500426+01

 2017-02-09 02:15:32.32626+01 | 1486602932.32626 |                 0 |              12 |                    14 |                   42 |                 35 |           791 |                7 |         1473039 |                     0 |     230049103 | 2017-02-09 01:17:43.500426+01

 2017-02-09 02:15:33.44225+01 | 1486602933.44225 |                 0 |              12 |                    14 |                   42 |                 35 |           791 |                7 |         1473039 |                     0 |     230109360 | 2017-02-09 01:17:43.500426+01

 2017-02-09 02:15:34.575118+01 | 1486602934.57512 |                 0 |              12 |                    14 |                   42 |                 35 |           791 |                7 |         1473039 |                     0 |     230187422 | 2017-02-09 01:17:43.500426+01

 2017-02-09 02:15:35.737551+01 | 1486602935.73755 |                 0 |              12 |                    14 |                   42 |                 35 |           791 |                7 |         1473039 |                     0 |     230264177 | 2017-02-09 01:17:43.500426+01

 2017-02-09 02:15:36.919054+01 | 1486602936.91905 |                 0 |              12 |                    14 |                   42 |                 35 |           791 |                7 |         1473039 |                     0 |     230329864 | 2017-02-09 01:17:43.500426+01

 2017-02-09 02:15:38.044243+01 | 1486602938.04424 |                 0 |              12 |                    14 |                   42 |                 35 |           791 |                7 |         1473039 |                     0 |     230408166 | 2017-02-09 01:17:43.500426+01

 2017-02-09 02:15:39.127472+01 | 1486602939.12747 |                 0 |              12 |                    14 |                   42 |                 35 |           791 |                7 |         1473039 |                     0 |     230479536 | 2017-02-09 01:17:43.500426+01

 2017-02-09 02:15:40.245836+01 | 1486602940.24584 |                 0 |              12 |                    14 |                   42 |                 35 |           791 |                7 |         1473039 |                     0 |     230541957 | 2017-02-09 01:17:43.500426+01

 2017-02-09 02:15:41.380463+01 | 1486602941.38046 |                 0 |              12 |                    14 |                   42 |                 35 |           791 |                7 |         1473039 |                     0 |     230617274 | 2017-02-09 01:17:43.500426+01

 2017-02-09 02:15:42.490117+01 | 1486602942.49012 |                 0 |              12 |                    14 |                   42 |                 35 |           791 |                7 |         1473039 |                     0 |     230678538 | 2017-02-09 01:17:43.500426+01

 2017-02-09 02:15:43.628332+01 | 1486602943.62833 |                 0 |              12 |                    14 |                   42 |                 35 |           791 |                7 |         1473039 |                     0 |     230750938 | 2017-02-09 01:17:43.500426+01

 2017-02-09 02:15:44.775323+01 | 1486602944.77532 |                 0 |              12 |                    14 |                   42 |                 35 |           791 |                7 |         1473039 |                     0 |     230827066 | 2017-02-09 01:17:43.500426+01

 2017-02-09 02:15:45.953056+01 | 1486602945.95306 |                 0 |              12 |                    14 |                   42 |                 35 |           791 |                7 |         1473039 |                     0 |     230894963 | 2017-02-09 01:17:43.500426+01

 2017-02-09 02:15:47.133067+01 | 1486602947.13307 |                 0 |              12 |                    14 |                   42 |                 35 |           791 |                7 |         1473039 |                     0 |     230978241 | 2017-02-09 01:17:43.500426+01

 2017-02-09 02:15:48.314497+01 | 1486602948.3145 |                 0 |              12 |                    14 |                   42 |                 35 |           791 |                7 |         1473039 |                     0 |     231061960 | 2017-02-09 01:17:43.500426+01

 2017-02-09 02:15:49.496744+01 | 1486602949.49674 |                 0 |              12 |                    14 |                   42 |                 35 |           791 |                7 |         1473039 |                     0 |     231145621 | 2017-02-09 01:17:43.500426+01

 2017-02-09 02:15:50.680345+01 | 1486602950.68035 |                 0 |              12 |                    14 |                   42 |                 35 |           791 |                7 |         1473039 |                     0 |     231229678 | 2017-02-09 01:17:43.500426+01

 2017-02-09 02:15:51.841872+01 | 1486602951.84187 |                 0 |              12 |                    14 |                   42 |                 35 |           791 |                7 |         1473039 |                     0 |     231313159 | 2017-02-09 01:17:43.500426+01

 2017-02-09 02:15:53.008282+01 | 1486602953.00828 |                 0 |              12 |                    14 |                   42 |                 35 |           791 |                7 |         1473039 |                     0 |     231393256 | 2017-02-09 01:17:43.500426+01

 2017-02-09 02:15:54.184278+01 | 1486602954.18428 |                 0 |              12 |                    14 |                   42 |                 35 |           791 |                7 |         1473039 |                     0 |     231461554 | 2017-02-09 01:17:43.500426+01

 2017-02-09 02:15:55.362024+01 | 1486602955.36202 |                 0 |              12 |                    14 |                   42 |                 35 |           791 |                7 |         1473039 |                     0 |     231545503 | 2017-02-09 01:17:43.500426+01

 2017-02-09 02:15:56.543406+01 | 1486602956.54341 |                 0 |              12 |                    14 |                   42 |                 35 |           791 |                7 |         1473039 |                     0 |     231629261 | 2017-02-09 01:17:43.500426+01

 2017-02-09 02:15:57.72712+01 | 1486602957.72712 |                 0 |              12 |                    14 |                   42 |                 35 |           791 |                7 |         1473039 |                     0 |     231713172 | 2017-02-09 01:17:43.500426+01

 2017-02-09 02:15:58.895822+01 | 1486602958.89582 |                 0 |              12 |                    14 |                   42 |                 35 |           791 |                7 |         1473039 |                     0 |     231796970 | 2017-02-09 01:17:43.500426+01

 2017-02-09 02:16:00.029223+01 | 1486602960.02922 |                 0 |              12 |                    14 |                   42 |                 35 |           791 |                7 |         1473039 |                     0 |     231861070 | 2017-02-09 01:17:43.500426+01

 2017-02-09 02:16:01.156948+01 | 1486602961.15695 |                 0 |              12 |                    14 |                   42 |                 35 |           791 |                7 |         1473039 |                     0 |     231934014 | 2017-02-09 01:17:43.500426+01

 2017-02-09 02:16:02.309064+01 | 1486602962.30906 |                 0 |              12 |                    14 |                   42 |                 35 |           791 |                7 |         1473039 |                     0 |     232007710 | 2017-02-09 01:17:43.500426+01

 2017-02-09 02:16:03.481541+01 | 1486602963.48154 |                 0 |              12 |                    14 |                   42 |                 35 |           791 |                7 |         1473039 |                     0 |     232083817 | 2017-02-09 01:17:43.500426+01

 2017-02-09 02:16:04.66126+01 | 1486602964.66126 |                 0 |              12 |                    14 |                   42 |                 35 |           791 |                7 |         1473039 |                     0 |     232153673 | 2017-02-09 01:17:43.500426+01

 2017-02-09 02:16:05.839706+01 | 1486602965.83971 |                 0 |              12 |                    14 |                   42 |                 35 |           791 |                7 |         1473039 |                     0 |     232232362 | 2017-02-09 01:17:43.500426+01

 2017-02-09 02:16:07.019716+01 | 1486602967.01972 |                 0 |              12 |                    14 |                   42 |                 35 |           791 |                7 |         1473039 |                     0 |     232316324 | 2017-02-09 01:17:43.500426+01

 2017-02-09 02:16:08.165076+01 | 1486602968.16508 |                 0 |              12 |                    14 |                   42 |                 35 |           791 |                7 |         1473039 |                     0 |     232399939 | 2017-02-09 01:17:43.500426+01

 2017-02-09 02:16:09.336366+01 | 1486602969.33637 |                 0 |              12 |                    14 |                   42 |                 35 |           791 |                7 |         1473039 |                     0 |     232483090 | 2017-02-09 01:17:43.500426+01

 2017-02-09 02:16:10.480434+01 | 1486602970.48043 |                 0 |              12 |                    14 |                   42 |                 35 |           791 |                7 |         1473039 |                     0 |     232566762 | 2017-02-09 01:17:43.500426+01

 2017-02-09 02:16:11.641066+01 | 1486602971.64107 |                 0 |              12 |                    14 |                   42 |                 35 |           791 |                7 |         1473039 |                     0 |     232631907 | 2017-02-09 01:17:43.500426+01

 2017-02-09 02:16:12.826545+01 | 1486602972.82655 |                 0 |              12 |                    14 |                   42 |                 35 |           791 |                7 |         1473039 |                     0 |     232715875 | 2017-02-09 01:17:43.500426+01

 2017-02-09 02:16:14.011401+01 | 1486602974.0114 |                 0 |              12 |                    14 |                   42 |                 35 |           791 |                7 |         1473039 |                     0 |     232799763 | 2017-02-09 01:17:43.500426+01

 2017-02-09 02:16:15.190416+01 | 1486602975.19042 |                 0 |              12 |                    14 |                   42 |                 35 |           791 |                7 |         1473039 |                     0 |     232883697 | 2017-02-09 01:17:43.500426+01

 2017-02-09 02:16:16.368906+01 | 1486602976.36891 |                 0 |              12 |                    14 |                   42 |                 35 |           791 |                7 |         1473039 |                     0 |     232967115 | 2017-02-09 01:17:43.500426+01

 2017-02-09 02:16:17.548147+01 | 1486602977.54815 |                 0 |              12 |                    14 |                   42 |                 35 |           791 |                7 |         1473039 |                     0 |     233045655 | 2017-02-09 01:17:43.500426+01

 2017-02-09 02:16:18.730777+01 | 1486602978.73078 |                 0 |              12 |                    14 |                   42 |                 35 |           791 |                7 |         1473039 |                     0 |     233115727 | 2017-02-09 01:17:43.500426+01

 2017-02-09 02:16:19.911025+01 | 1486602979.91103 |                 0 |              12 |                    14 |                   42 |                 35 |           791 |                7 |         1473039 |                     0 |     233199784 | 2017-02-09 01:17:43.500426+01

 2017-02-09 02:16:21.093047+01 | 1486602981.09305 |                 0 |              12 |                    14 |                   42 |                 35 |           791 |                7 |         1473039 |                     0 |     233282491 | 2017-02-09 01:17:43.500426+01

 2017-02-09 02:16:22.261845+01 | 1486602982.26185 |                 0 |              12 |                    14 |                   42 |                 35 |           791 |                7 |         1473039 |                     0 |     233365820 | 2017-02-09 01:17:43.500426+01

 2017-02-09 02:16:23.422555+01 | 1486602983.42255 |                 0 |              12 |                    14 |                   42 |                 35 |           791 |                7 |         1473039 |                     0 |     233449457 | 2017-02-09 01:17:43.500426+01

 2017-02-09 02:16:24.604205+01 | 1486602984.6042 |                 0 |              12 |                    14 |                   42 |                 35 |           791 |                7 |         1473039 |                     0 |     233533378 | 2017-02-09 01:17:43.500426+01

 2017-02-09 02:16:25.736074+01 | 1486602985.73607 |                 0 |              12 |                    14 |                   42 |                 35 |           791 |                7 |         1473039 |                     0 |     233617118 | 2017-02-09 01:17:43.500426+01

 2017-02-09 02:16:26.898627+01 | 1486602986.89863 |                 0 |              12 |                    14 |                   42 |                 35 |           791 |                7 |         1473039 |                     0 |     233686385 | 2017-02-09 01:17:43.500426+01

 2017-02-09 02:16:28.080374+01 | 1486602988.08037 |                 0 |              12 |                    14 |                   42 |                 35 |           791 |                7 |         1473039 |                     0 |     233770235 | 2017-02-09 01:17:43.500426+01

 2017-02-09 02:16:29.262842+01 | 1486602989.26284 |                 0 |              12 |                    14 |                   42 |                 35 |           791 |                7 |         1473039 |                     0 |     233853987 | 2017-02-09 01:17:43.500426+01

 2017-02-09 02:16:30.444337+01 | 1486602990.44434 |                 0 |              12 |                    14 |                   42 |                 35 |           791 |                7 |         1473039 |                     0 |     233937315 | 2017-02-09 01:17:43.500426+01

 2017-02-09 02:16:31.602013+01 | 1486602991.60201 |                 0 |              12 |                    14 |                   42 |                 35 |           791 |                7 |         1473039 |                     0 |     234020918 | 2017-02-09 01:17:43.500426+01

 2017-02-09 02:16:32.768338+01 | 1486602992.76834 |                 0 |              12 |                    14 |                   42 |                 35 |           791 |                7 |         1473039 |                     0 |     234087953 | 2017-02-09 01:17:43.500426+01

 2017-02-09 02:16:33.950173+01 | 1486602993.95017 |                 0 |              12 |                    14 |                   42 |                 35 |           791 |                7 |         1473039 |                     0 |     234171475 | 2017-02-09 01:17:43.500426+01

 2017-02-09 02:16:35.103714+01 | 1486602995.10371 |                 0 |              12 |                    14 |                   42 |                 35 |           791 |                7 |         1473039 |                     0 |     234251415 | 2017-02-09 01:17:43.500426+01

 2017-02-09 02:16:36.214186+01 | 1486602996.21419 |                 0 |              12 |                    14 |                   42 |                 35 |           791 |                7 |         1473039 |                     0 |     234320615 | 2017-02-09 01:17:43.500426+01

 2017-02-09 02:16:37.387849+01 | 1486602997.38785 |                 0 |              12 |                    14 |                   42 |                 35 |           791 |                7 |         1473039 |                     0 |     234387303 | 2017-02-09 01:17:43.500426+01

 2017-02-09 02:16:38.521431+01 | 1486602998.52143 |                 0 |              12 |                    14 |                   42 |                 35 |           791 |                7 |         1473039 |                     0 |     234471372 | 2017-02-09 01:17:43.500426+01

 2017-02-09 02:16:39.691647+01 | 1486602999.69165 |                 0 |              12 |                    14 |                   42 |                 35 |           791 |                7 |         1473039 |                     0 |     234551570 | 2017-02-09 01:17:43.500426+01

 2017-02-09 02:16:40.874679+01 | 1486603000.87468 |                 0 |              12 |                    14 |                   42 |                 35 |           791 |                7 |         1473039 |                     0 |     234635316 | 2017-02-09 01:17:43.500426+01

 2017-02-09 02:16:42.057346+01 | 1486603002.05735 |                 0 |              12 |                    14 |                   42 |                 35 |           791 |                7 |         1473039 |                     0 |     234719147 | 2017-02-09 01:17:43.500426+01

 2017-02-09 02:16:43.238999+01 | 1486603003.239 |                 0 |              12 |                    14 |                   42 |                 35 |           791 |                7 |         1473039 |                     0 |     234789031 | 2017-02-09 01:17:43.500426+01

 2017-02-09 02:16:44.42498+01 | 1486603004.42498 |                 0 |              12 |                    14 |                   42 |                 35 |           791 |                7 |         1473039 |                     0 |     234872737 | 2017-02-09 01:17:43.500426+01

 2017-02-09 02:16:45.604544+01 | 1486603005.60454 |                 0 |              12 |                    14 |                   42 |                 35 |           791 |                7 |         1473039 |                     0 |     234956612 | 2017-02-09 01:17:43.500426+01

 2017-02-09 02:16:46.77395+01 | 1486603006.77395 |                 0 |              12 |                    14 |                   42 |                 35 |           791 |                7 |         1473039 |                     0 |     235040392 | 2017-02-09 01:17:43.500426+01

 2017-02-09 02:16:47.914415+01 | 1486603007.91441 |                 0 |              12 |                    14 |                   42 |                 35 |           791 |                7 |         1473039 |                     0 |     235115306 | 2017-02-09 01:17:43.500426+01

 2017-02-09 02:16:49.09181+01 | 1486603009.09181 |                 0 |              12 |                    14 |                   42 |                 35 |           791 |                7 |         1473039 |                     0 |     235180652 | 2017-02-09 01:17:43.500426+01

 2017-02-09 02:16:50.274744+01 | 1486603010.27474 |                 0 |              12 |                    14 |                   42 |                 35 |           791 |                7 |         1473039 |                     0 |     235264755 | 2017-02-09 01:17:43.500426+01

 2017-02-09 02:16:51.450114+01 | 1486603011.45011 |                 0 |              12 |                    14 |                   42 |                 35 |           791 |                7 |         1473039 |                     0 |     235348222 | 2017-02-09 01:17:43.500426+01

 2017-02-09 02:16:52.63317+01 | 1486603012.63317 |                 0 |              12 |                    14 |                   42 |                 35 |           791 |                7 |         1473039 |                     0 |     235432435 | 2017-02-09 01:17:43.500426+01

 2017-02-09 02:16:53.813351+01 | 1486603013.81335 |                 0 |              12 |                    14 |                   42 |                 35 |           791 |                7 |         1473039 |                     0 |     235516100 | 2017-02-09 01:17:43.500426+01

 2017-02-09 02:16:54.994657+01 | 1486603014.99466 |                 0 |              12 |                    14 |                   42 |                 35 |           791 |                7 |         1473039 |                     0 |     235600006 | 2017-02-09 01:17:43.500426+01

 2017-02-09 02:16:56.163802+01 | 1486603016.1638 |                 0 |              12 |                    14 |                   42 |                 35 |           791 |                7 |         1473039 |                     0 |     235683757 | 2017-02-09 01:17:43.500426+01

 2017-02-09 02:16:57.32642+01 | 1486603017.32642 |                 0 |              12 |                    14 |                   42 |                 35 |           791 |                7 |         1473039 |                     0 |     235753028 | 2017-02-09 01:17:43.500426+01

 2017-02-09 02:16:58.507836+01 | 1486603018.50784 |                 0 |              12 |                    14 |                   42 |                 35 |           791 |                7 |         1473039 |                     0 |     235834131 | 2017-02-09 01:17:43.500426+01

 2017-02-09 02:16:59.687981+01 | 1486603019.68798 |                 0 |              12 |                    14 |                   42 |                 35 |           791 |                7 |         1473039 |                     0 |     235917967 | 2017-02-09 01:17:43.500426+01

 2017-02-09 02:17:00.86668+01 | 1486603020.86668 |                 0 |              12 |                    14 |                   42 |                 35 |           791 |                7 |         1473039 |                     0 |     236001984 | 2017-02-09 01:17:43.500426+01

 2017-02-09 02:17:02.04793+01 | 1486603022.04793 |                 0 |              12 |                    14 |                   42 |                 35 |           791 |                7 |         1473039 |                     0 |     236086031 | 2017-02-09 01:17:43.500426+01

 2017-02-09 02:17:03.230282+01 | 1486603023.23028 |                 0 |              12 |                    14 |                   42 |                 35 |           791 |                7 |         1473039 |                     0 |     236169934 | 2017-02-09 01:17:43.500426+01

 2017-02-09 02:17:04.41223+01 | 1486603024.41223 |                 0 |              12 |                    14 |                   42 |                 35 |           791 |                7 |         1473039 |                     0 |     236253907 | 2017-02-09 01:17:43.500426+01

 2017-02-09 02:17:05.596436+01 | 1486603025.59644 |                 0 |              12 |                    14 |                   42 |                 35 |           791 |                7 |         1473039 |                     0 |     236336817 | 2017-02-09 01:17:43.500426+01

 2017-02-09 02:17:06.780846+01 | 1486603026.78085 |                 0 |              12 |                    14 |                   42 |                 35 |           791 |                7 |         1473039 |                     0 |     236406692 | 2017-02-09 01:17:43.500426+01

 2017-02-09 02:17:07.954477+01 | 1486603027.95448 |                 0 |              12 |                    14 |                   42 |                 35 |           791 |                7 |         1473039 |                     0 |     236490262 | 2017-02-09 01:17:43.500426+01

 2017-02-09 02:17:09.115927+01 | 1486603029.11593 |                 0 |              12 |                    14 |                   42 |                 35 |           791 |                7 |         1473039 |                     0 |     236570356 | 2017-02-09 01:17:43.500426+01

 2017-02-09 02:17:10.290141+01 | 1486603030.29014 |                 0 |              12 |                    14 |                   42 |                 35 |           791 |                7 |         1473039 |                     0 |     236653733 | 2017-02-09 01:17:43.500426+01

 2017-02-09 02:17:11.43823+01 | 1486603031.43823 |                 0 |              12 |                    14 |                   42 |                 35 |           791 |                7 |         1473039 |                     0 |     236737066 | 2017-02-09 01:17:43.500426+01

 2017-02-09 02:17:12.57424+01 | 1486603032.57424 |                 0 |              12 |                    14 |                   42 |                 35 |           791 |                7 |         1473039 |                     0 |     236796687 | 2017-02-09 01:17:43.500426+01

 2017-02-09 02:17:13.701251+01 | 1486603033.70125 |                 0 |              12 |                    14 |                   42 |                 35 |           791 |                7 |         1473039 |                     0 |     236868151 | 2017-02-09 01:17:43.500426+01

 2017-02-09 02:17:14.814072+01 | 1486603034.81407 |                 0 |              12 |                    14 |                   42 |                 35 |           791 |                7 |         1473039 |                     0 |     236942000 | 2017-02-09 01:17:43.500426+01

 2017-02-09 02:17:15.923253+01 | 1486603035.92325 |                 0 |              12 |                    14 |                   42 |                 35 |           791 |                7 |         1473039 |                     0 |     237006077 | 2017-02-09 01:17:43.500426+01

 2017-02-09 02:17:17.087371+01 | 1486603037.08737 |                 0 |              12 |                    14 |                   42 |                 35 |           791 |                7 |         1473039 |                     0 |     237085265 | 2017-02-09 01:17:43.500426+01

 2017-02-09 02:17:18.271985+01 | 1486603038.27199 |                 0 |              12 |                    14 |                   42 |                 35 |           791 |                7 |         1473039 |                     0 |     237169408 | 2017-02-09 01:17:43.500426+01

 2017-02-09 02:17:19.450001+01 | 1486603039.45 |                 0 |              12 |                    14 |                   42 |                 35 |           791 |                7 |         1473039 |                     0 |     237252622 | 2017-02-09 01:17:43.500426+01

 2017-02-09 02:17:20.632163+01 | 1486603040.63216 |                 0 |              12 |                    14 |                   42 |                 35 |           791 |                7 |         1473039 |                     0 |     237322616 | 2017-02-09 01:17:43.500426+01

 2017-02-09 02:17:21.812142+01 | 1486603041.81214 |                 0 |              12 |                    14 |                   42 |                 35 |           791 |                7 |         1473039 |                     0 |     237406474 | 2017-02-09 01:17:43.500426+01

 2017-02-09 02:17:22.992878+01 | 1486603042.99288 |                 0 |              12 |                    14 |                   42 |                 35 |           791 |                7 |         1473039 |                     0 |     237490213 | 2017-02-09 01:17:43.500426+01

 2017-02-09 02:17:24.174613+01 | 1486603044.17461 |                 0 |              12 |                    14 |                   42 |                 35 |           791 |                7 |         1473039 |                     0 |     237574272 | 2017-02-09 01:17:43.500426+01

 2017-02-09 02:17:25.354872+01 | 1486603045.35487 |                 0 |              12 |                    14 |                   42 |                 35 |           791 |                7 |         1473039 |                     0 |     237658281 | 2017-02-09 01:17:43.500426+01

 2017-02-09 02:17:26.537085+01 | 1486603046.53709 |                 0 |              12 |                    14 |                   42 |                 35 |           791 |                7 |         1473039 |                     0 |     237742067 | 2017-02-09 01:17:43.500426+01

 2017-02-09 02:17:27.686233+01 | 1486603047.68623 |                 0 |              12 |                    14 |                   42 |                 35 |           791 |                7 |         1473039 |                     0 |     237825931 | 2017-02-09 01:17:43.500426+01

 2017-02-09 02:17:28.851944+01 | 1486603048.85194 |                 0 |              12 |                    14 |                   42 |                 35 |           791 |                7 |         1473039 |                     0 |     237895403 | 2017-02-09 01:17:43.500426+01

 2017-02-09 02:17:30.035424+01 | 1486603050.03542 |                 0 |              12 |                    14 |                   42 |                 35 |           791 |                7 |         1473039 |                     0 |     237979124 | 2017-02-09 01:17:43.500426+01

 2017-02-09 02:17:31.198996+01 | 1486603051.199 |                 0 |              12 |                    14 |                   42 |                 35 |           791 |                7 |         1473039 |                     0 |     238062794 | 2017-02-09 01:17:43.500426+01

 2017-02-09 02:17:32.360791+01 | 1486603052.36079 |                 0 |              12 |                    14 |                   42 |                 35 |           791 |                7 |         1473039 |                     0 |     238146774 | 2017-02-09 01:17:43.500426+01

 2017-02-09 02:17:33.545146+01 | 1486603053.54515 |                 0 |              12 |                    14 |                   42 |                 35 |           791 |                7 |         1473039 |                     0 |     238230653 | 2017-02-09 01:17:43.500426+01

 2017-02-09 02:17:34.717127+01 | 1486603054.71713 |                 0 |              12 |                    14 |                   42 |                 35 |           791 |                7 |         1473039 |                     0 |     238314133 | 2017-02-09 01:17:43.500426+01

 2017-02-09 02:17:35.880135+01 | 1486603055.88014 |                 0 |              12 |                    14 |                   42 |                 35 |           791 |                7 |         1473039 |                     0 |     238382718 | 2017-02-09 01:17:43.500426+01

 2017-02-09 02:17:37.061755+01 | 1486603057.06175 |                 0 |              12 |                    14 |                   42 |                 35 |           791 |                7 |         1473039 |                     0 |     238466553 | 2017-02-09 01:17:43.500426+01

 2017-02-09 02:17:38.205066+01 | 1486603058.20507 |                 0 |              12 |                    14 |                   42 |                 35 |           791 |                7 |         1473039 |                     0 |     238548689 | 2017-02-09 01:17:43.500426+01

 2017-02-09 02:17:39.323466+01 | 1486603059.32347 |                 0 |              12 |                    14 |                   42 |                 35 |           791 |                7 |         1473039 |                     0 |     238623264 | 2017-02-09 01:17:43.500426+01

 2017-02-09 02:17:40.486473+01 | 1486603060.48647 |                 0 |              12 |                    14 |                   42 |                 35 |           791 |                7 |         1473039 |                     0 |     238681921 | 2017-02-09 01:17:43.500426+01

 2017-02-09 02:17:41.668482+01 | 1486603061.66848 |                 0 |              12 |                    14 |                   42 |                 35 |           791 |                7 |         1473039 |                     0 |     238765046 | 2017-02-09 01:17:43.500426+01

 2017-02-09 02:17:42.850775+01 | 1486603062.85078 |                 0 |              12 |                    14 |                   42 |                 35 |           791 |                7 |         1473039 |                     0 |     238848898 | 2017-02-09 01:17:43.500426+01

 2017-02-09 02:17:44.017651+01 | 1486603064.01765 |                 0 |              12 |                    14 |                   42 |                 35 |           791 |                7 |         1473039 |                     0 |     238932808 | 2017-02-09 01:17:43.500426+01

 2017-02-09 02:17:45.183049+01 | 1486603065.18305 |                 0 |              12 |                    14 |                   42 |                 35 |           791 |                7 |         1473039 |                     0 |     239015670 | 2017-02-09 01:17:43.500426+01

 2017-02-09 02:17:46.365152+01 | 1486603066.36515 |                 0 |              12 |                    14 |                   42 |                 35 |           791 |                7 |         1473039 |                     0 |     239085183 | 2017-02-09 01:17:43.500426+01

 2017-02-09 02:17:47.54436+01 | 1486603067.54436 |                 0 |              12 |                    14 |                   42 |                 35 |           791 |                7 |         1473039 |                     0 |     239168837 | 2017-02-09 01:17:43.500426+01

 2017-02-09 02:17:48.727354+01 | 1486603068.72735 |                 0 |              12 |                    14 |                   42 |                 35 |           791 |                7 |         1473039 |                     0 |     239252481 | 2017-02-09 01:17:43.500426+01

 2017-02-09 02:17:49.892054+01 | 1486603069.89205 |                 0 |              12 |                    14 |                   42 |                 35 |           791 |                7 |         1473039 |                     0 |     239336466 | 2017-02-09 01:17:43.500426+01

 2017-02-09 02:17:51.060177+01 | 1486603071.06018 |                 0 |              12 |                    14 |                   42 |                 35 |           791 |                7 |         1473039 |                     0 |     239419038 | 2017-02-09 01:17:43.500426+01

 2017-02-09 02:17:52.242575+01 | 1486603072.24257 |                 0 |              12 |                    14 |                   42 |                 35 |           791 |                7 |         1473039 |                     0 |     239503051 | 2017-02-09 01:17:43.500426+01

 2017-02-09 02:17:53.425528+01 | 1486603073.42553 |                 0 |              12 |                    14 |                   42 |                 35 |           791 |                7 |         1473039 |                     0 |     239586909 | 2017-02-09 01:17:43.500426+01

 2017-02-09 02:17:54.60527+01 | 1486603074.60527 |                 0 |              12 |                    14 |                   42 |                 35 |           791 |                7 |         1473039 |                     0 |     239656526 | 2017-02-09 01:17:43.500426+01

 2017-02-09 02:17:55.787424+01 | 1486603075.78742 |                 0 |              12 |                    14 |                   42 |                 35 |           791 |                7 |         1473039 |                     0 |     239740223 | 2017-02-09 01:17:43.500426+01

 2017-02-09 02:17:56.945471+01 | 1486603076.94547 |                 0 |              12 |                    14 |                   42 |                 35 |           791 |                7 |         1473039 |                     0 |     239824021 | 2017-02-09 01:17:43.500426+01

 2017-02-09 02:17:58.083423+01 | 1486603078.08342 |                 0 |              12 |                    14 |                   42 |                 35 |           791 |                7 |         1473039 |                     0 |     239900660 | 2017-02-09 01:17:43.500426+01

 2017-02-09 02:17:59.228045+01 | 1486603079.22804 |                 0 |              12 |                    14 |                   42 |                 35 |           791 |                7 |         1473039 |                     0 |     239963060 | 2017-02-09 01:17:43.500426+01

 2017-02-09 02:18:00.361018+01 | 1486603080.36102 |                 0 |              12 |                    14 |                   42 |                 35 |           791 |                7 |         1473039 |                     0 |     240037709 | 2017-02-09 01:17:43.500426+01

 2017-02-09 02:18:01.529485+01 | 1486603081.52948 |                 0 |              12 |                    14 |                   42 |                 35 |           791 |                7 |         1473039 |                     0 |     240110380 | 2017-02-09 01:17:43.500426+01

 2017-02-09 02:18:02.705233+01 | 1486603082.70523 |                 0 |              12 |                    14 |                   42 |                 35 |           791 |                7 |         1473039 |                     0 |     240193145 | 2017-02-09 01:17:43.500426+01

 2017-02-09 02:18:03.887691+01 | 1486603083.88769 |                 0 |              12 |                    14 |                   42 |                 35 |           791 |                7 |         1473039 |                     0 |     240276803 | 2017-02-09 01:17:43.500426+01

 2017-02-09 02:18:05.068358+01 | 1486603085.06836 |                 0 |              12 |                    14 |                   42 |                 35 |           791 |                7 |         1473039 |                     0 |     240360813 | 2017-02-09 01:17:43.500426+01

 2017-02-09 02:18:06.189607+01 | 1486603086.18961 |                 0 |              12 |                    14 |                   42 |                 35 |           791 |                7 |         1473039 |                     0 |     240430689 | 2017-02-09 01:17:43.500426+01

 2017-02-09 02:18:07.361878+01 | 1486603087.36188 |                 0 |              12 |                    14 |                   42 |                 35 |           791 |                7 |         1473039 |                     0 |     240513690 | 2017-02-09 01:17:43.500426+01

 2017-02-09 02:18:08.543194+01 | 1486603088.54319 |                 0 |              12 |                    14 |                   42 |                 35 |           791 |                7 |         1473039 |                     0 |     240597352 | 2017-02-09 01:17:43.500426+01

 2017-02-09 02:18:09.728308+01 | 1486603089.72831 |                 0 |              12 |                    14 |                   42 |                 35 |           791 |                7 |         1473039 |                     0 |     240681293 | 2017-02-09 01:17:43.500426+01

 2017-02-09 02:18:10.907698+01 | 1486603090.9077 |                 0 |              12 |                    14 |                   42 |                 35 |           791 |                7 |         1473039 |                     0 |     240765035 | 2017-02-09 01:17:43.500426+01

 2017-02-09 02:18:12.086669+01 | 1486603092.08667 |                 0 |              12 |                    14 |                   42 |                 35 |           791 |                7 |         1473039 |                     0 |     240834667 | 2017-02-09 01:17:43.500426+01

 2017-02-09 02:18:13.269615+01 | 1486603093.26961 |                 0 |              12 |                    14 |                   42 |                 35 |           791 |                7 |         1473039 |                     0 |     240918076 | 2017-02-09 01:17:43.500426+01

 2017-02-09 02:18:14.450115+01 | 1486603094.45011 |                 0 |              12 |                    14 |                   42 |                 35 |           791 |                7 |         1473039 |                     0 |     241001685 | 2017-02-09 01:17:43.500426+01

 2017-02-09 02:18:15.619494+01 | 1486603095.61949 |                 0 |              12 |                    14 |                   42 |                 35 |           791 |                7 |         1473039 |                     0 |     241071317 | 2017-02-09 01:17:43.500426+01

 2017-02-09 02:18:16.781188+01 | 1486603096.78119 |                 0 |              12 |                    14 |                   42 |                 35 |           791 |                7 |         1473039 |                     0 |     241163514 | 2017-02-09 01:17:43.500426+01

 2017-02-09 02:18:17.95699+01 | 1486603097.95699 |                 0 |              12 |                    14 |                   42 |                 35 |           791 |                7 |         1473039 |                     0 |     241242239 | 2017-02-09 01:17:43.500426+01

 2017-02-09 02:18:19.13933+01 | 1486603099.13933 |                 0 |              12 |                    14 |                   42 |                 35 |           791 |                7 |         1473039 |                     0 |     241325999 | 2017-02-09 01:17:43.500426+01

 2017-02-09 02:18:20.307887+01 | 1486603100.30789 |                 0 |              12 |                    14 |                   42 |                 35 |           791 |                7 |         1473039 |                     0 |     241395943 | 2017-02-09 01:17:43.500426+01

 2017-02-09 02:18:21.473466+01 | 1486603101.47347 |                 0 |              12 |                    14 |                   42 |                 35 |           791 |                7 |         1473039 |                     0 |     241474477 | 2017-02-09 01:17:43.500426+01

 2017-02-09 02:18:22.659198+01 | 1486603102.6592 |                 0 |              12 |                    14 |                   42 |                 35 |           791 |                7 |         1473039 |                     0 |     241558477 | 2017-02-09 01:17:43.500426+01

 2017-02-09 02:18:23.840714+01 | 1486603103.84071 |                 0 |              12 |                    14 |                   42 |                 35 |           791 |                7 |         1473039 |                     0 |     241642187 | 2017-02-09 01:17:43.500426+01

 2017-02-09 02:18:25.022531+01 | 1486603105.02253 |                 0 |              12 |                    14 |                   42 |                 35 |           791 |                7 |         1473039 |                     0 |     241725671 | 2017-02-09 01:17:43.500426+01

 2017-02-09 02:18:26.202931+01 | 1486603106.20293 |                 0 |              12 |                    14 |                   42 |                 35 |           791 |                7 |         1473039 |                     0 |     241809106 | 2017-02-09 01:17:43.500426+01

 2017-02-09 02:18:27.385683+01 | 1486603107.38568 |                 0 |              12 |                    14 |                   42 |                 35 |           791 |                7 |         1473039 |                     0 |     241892452 | 2017-02-09 01:17:43.500426+01

 2017-02-09 02:18:28.569136+01 | 1486603108.56914 |                 0 |              12 |                    14 |                   42 |                 35 |           791 |                7 |         1473039 |                     0 |     241962344 | 2017-02-09 01:17:43.500426+01

 2017-02-09 02:18:29.731974+01 | 1486603109.73197 |                 0 |              12 |                    14 |                   42 |                 35 |           791 |                7 |         1473039 |                     0 |     242045897 | 2017-02-09 01:17:43.500426+01

 2017-02-09 02:18:30.875719+01 | 1486603110.87572 |                 0 |              12 |                    14 |                   42 |                 35 |           791 |                7 |         1473039 |                     0 |     242129452 | 2017-02-09 01:17:43.500426+01

 2017-02-09 02:18:32.012362+01 | 1486603112.01236 |                 0 |              12 |                    14 |                   42 |                 35 |           791 |                7 |         1473039 |                     0 |     242209241 | 2017-02-09 01:17:43.500426+01

 2017-02-09 02:18:33.173378+01 | 1486603113.17338 |                 0 |              12 |                    14 |                   42 |                 35 |           791 |                7 |         1473039 |                     0 |     242277615 | 2017-02-09 01:17:43.500426+01

 2017-02-09 02:18:34.293263+01 | 1486603114.29326 |                 0 |              12 |                    14 |                   42 |                 35 |           791 |                7 |         1473039 |                     0 |     242361560 | 2017-02-09 01:17:43.500426+01

