 2017-02-09 05:36:04.164029+01 | 1486614964.16403 | 0/27D56C50               |             668298320

 2017-02-09 05:36:05.420585+01 | 1486614965.42058 | 0/2831AE68               |             674344552

 2017-02-09 05:36:06.70326+01 | 1486614966.70326 | 0/288E2740               |             680404800

 2017-02-09 05:36:08.04049+01 | 1486614968.04049 | 0/28EC23B8               |             686564280

 2017-02-09 05:36:09.372608+01 | 1486614969.37261 | 0/29463AA8               |             692468392

 2017-02-09 05:36:10.578165+01 | 1486614970.57817 | 0/2997CD70               |             697814384

 2017-02-09 05:36:11.864856+01 | 1486614971.86486 | 0/29ECBE30               |             703381040

 2017-02-09 05:36:13.139794+01 | 1486614973.13979 | 0/2A3E9B20               |             708746016

 2017-02-09 05:36:14.540514+01 | 1486614974.54051 | 0/2A992AF0               |             714681072

 2017-02-09 05:36:15.776151+01 | 1486614975.77615 | 0/2AE87F98               |             719880088

 2017-02-09 05:36:17.08394+01 | 1486614977.08394 | 0/2B3911A8               |             725160360

 2017-02-09 05:36:18.378025+01 | 1486614978.37803 | 0/2B8899E8               |             730372584

 2017-02-09 05:36:19.667042+01 | 1486614979.66704 | 0/2BD80228               |             735576616

 2017-02-09 05:36:21.012572+01 | 1486614981.01257 | 0/2C287DA0               |             740851104

 2017-02-09 05:36:22.363814+01 | 1486614982.36381 | 0/2C7AFCD0               |             746257616

 2017-02-09 05:36:23.755031+01 | 1486614983.75503 | 0/2CCF1CB0               |             751770800

 2017-02-09 05:36:25.053672+01 | 1486614985.05367 | 0/2D1B8948               |             756779336

 2017-02-09 05:36:26.394895+01 | 1486614986.3949 | 0/2D6C2328               |             762061608

 2017-02-09 05:36:27.696218+01 | 1486614987.69622 | 0/2DB96FE8               |             767127528

 2017-02-09 05:36:29.027735+01 | 1486614989.02773 | 0/2E078718               |             772245272

 2017-02-09 05:36:30.294013+01 | 1486614990.29401 | 0/2E526940               |             777152832

 2017-02-09 05:36:31.539884+01 | 1486614991.53988 | 0/2E9C51B0               |             781996464

 2017-02-09 05:36:32.716999+01 | 1486614992.717 | 0/2EE21A48               |             786569800

 2017-02-09 05:36:33.934699+01 | 1486614993.9347 | 0/2F285400               |             791172096

 2017-02-09 05:36:35.273019+01 | 1486614995.27302 | 0/2F72F2E0               |             796062432

 2017-02-09 05:36:36.659802+01 | 1486614996.6598 | 0/2FC05BD8               |             801135576

 2017-02-09 05:36:37.942392+01 | 1486614997.94239 | 0/300A5D88               |             805985672

 2017-02-09 05:36:39.262102+01 | 1486614999.2621 | 0/30588780               |             811108224

 2017-02-09 05:36:40.467883+01 | 1486615000.46788 | 0/309EAA18               |             815704600

 2017-02-09 05:36:41.86347+01 | 1486615001.86347 | 0/30F093A8               |             821072808

 2017-02-09 05:36:43.169588+01 | 1486615003.16959 | 0/313BD338               |             826004280

 2017-02-09 05:36:44.448485+01 | 1486615004.44848 | 0/3185C108               |             830849288

 2017-02-09 05:36:45.789351+01 | 1486615005.78935 | 0/31D43C80               |             835992704

 2017-02-09 05:36:47.082649+01 | 1486615007.08265 | 0/321E35B8               |             840840632

 2017-02-09 05:36:48.422156+01 | 1486615008.42216 | 0/326CEF18               |             845999896

 2017-02-09 05:36:49.617891+01 | 1486615009.61789 | 0/32B21668               |             850531944

 2017-02-09 05:36:50.911684+01 | 1486615010.91168 | 0/32FDF038               |             855502904

 2017-02-09 05:36:52.077098+01 | 1486615012.0771 | 0/33408DA0               |             859868576

 2017-02-09 05:36:53.361166+01 | 1486615013.36117 | 0/338BCDB8               |             864800184

 2017-02-09 05:36:54.701464+01 | 1486615014.70146 | 0/33DB8698               |             870024856

 2017-02-09 05:36:56.113169+01 | 1486615016.11317 | 0/342B4380               |             875250560

 2017-02-09 05:36:57.422409+01 | 1486615017.42241 | 0/34788438               |             880313400

 2017-02-09 05:36:58.793653+01 | 1486615018.79365 | 0/34C839F8               |             885537272

 2017-02-09 05:37:00.105861+01 | 1486615020.10586 | 0/351310E0               |             890441952

 2017-02-09 05:37:01.421469+01 | 1486615021.42147 | 0/356024E8               |             895493352

 2017-02-09 05:37:02.637221+01 | 1486615022.63722 | 0/35A70AF0               |             900139760

 2017-02-09 05:37:03.9068+01 | 1486615023.9068 | 0/35F0D348               |             904975176

 2017-02-09 05:37:05.208643+01 | 1486615025.20864 | 0/363B3FF8               |             909852664

 2017-02-09 05:37:06.484238+01 | 1486615026.48424 | 0/36854FB0               |             914706352

 2017-02-09 05:37:07.827908+01 | 1486615027.82791 | 0/36D48D40               |             919899456

 2017-02-09 05:37:09.138903+01 | 1486615029.1389 | 0/371F4CF8               |             924798200

 2017-02-09 05:37:10.396236+01 | 1486615030.39624 | 0/3768C398               |             929612696

 2017-02-09 05:37:11.610733+01 | 1486615031.61073 | 0/37AFBC38               |             934263864

 2017-02-09 05:37:12.938894+01 | 1486615032.93889 | 0/37FD3168               |             939340136

 2017-02-09 05:37:14.201342+01 | 1486615034.20134 | 0/38453510               |             944059664

 2017-02-09 05:37:15.456512+01 | 1486615035.45651 | 0/388D8480               |             948798592

 2017-02-09 05:37:16.802289+01 | 1486615036.80229 | 0/38DC19B8               |             953948600

 2017-02-09 05:37:18.151437+01 | 1486615038.15144 | 0/39289D78               |             958963064

 2017-02-09 05:37:19.446681+01 | 1486615039.44668 | 0/39748F68               |             963940200

 2017-02-09 05:37:20.850601+01 | 1486615040.8506 | 0/39C67820               |             969308192

 2017-02-09 05:37:22.115529+01 | 1486615042.11553 | 0/3A0E3CA0               |             974011552

 2017-02-09 05:37:23.48181+01 | 1486615043.48181 | 0/3A5E64C0               |             979264704

 2017-02-09 05:37:24.763358+01 | 1486615044.76336 | 0/3AA8D8D8               |             984144088

 2017-02-09 05:37:26.119972+01 | 1486615046.11997 | 0/3B0FB520               |             990885152

 2017-02-09 05:37:27.421571+01 | 1486615047.42157 | 0/3B6FD078               |             997183608

 2017-02-09 05:37:28.681235+01 | 1486615048.68124 | 0/3BBCEC90               |            1002237072

 2017-02-09 05:37:30.060627+01 | 1486615050.06063 | 0/3C18A8D0               |            1008249040

 2017-02-09 05:37:31.271551+01 | 1486615051.27155 | 0/3C7E9DD8               |            1014930904

 2017-02-09 05:37:32.594326+01 | 1486615052.59433 | 0/3CECCA60               |            1022151264

 2017-02-09 05:37:33.85296+01 | 1486615053.85296 | 0/3D424B88               |            1027754888

 2017-02-09 05:37:35.23817+01 | 1486615055.23817 | 0/3D8D18D8               |            1032657112

 2017-02-09 05:37:36.441394+01 | 1486615056.44139 | 0/3DD016B0               |            1037047472

 2017-02-09 05:37:37.751747+01 | 1486615057.75175 | 0/3E17D148               |            1041748296

 2017-02-09 05:37:39.060261+01 | 1486615059.06026 | 0/3E61A328               |            1046586152

 2017-02-09 05:37:40.277128+01 | 1486615060.27713 | 0/3EA56738               |            1051027256

 2017-02-09 05:37:41.564605+01 | 1486615061.5646 | 0/3EEE1260               |            1055789664

 2017-02-09 05:37:42.911133+01 | 1486615062.91113 | 0/3F391340               |            1060705088

 2017-02-09 05:37:44.169991+01 | 1486615064.16999 | 0/3F80B8E0               |            1065400544

 2017-02-09 05:37:45.464261+01 | 1486615065.46426 | 0/3FCA8B10               |            1070238480

 2017-02-09 05:37:46.806565+01 | 1486615066.80657 | 0/40164550               |            1075201360

 2017-02-09 05:37:48.082249+01 | 1486615068.08225 | 0/405EE150               |            1079959888

 2017-02-09 05:37:49.463806+01 | 1486615069.46381 | 0/40AEF390               |            1085207440

 2017-02-09 05:37:50.783237+01 | 1486615070.78324 | 0/40FACD78               |            1090178424

 2017-02-09 05:37:51.926846+01 | 1486615071.92685 | 0/413C3820               |            1094465568

 2017-02-09 05:37:53.26957+01 | 1486615073.26957 | 0/4189B438               |            1099543608

 2017-02-09 05:37:54.636454+01 | 1486615074.63645 | 0/41D92EB0               |            1104752304

 2017-02-09 05:37:55.937086+01 | 1486615075.93709 | 0/42236890               |            1109616784

 2017-02-09 05:37:57.251464+01 | 1486615077.25146 | 0/426EDDD8               |            1114562008

 2017-02-09 05:37:58.540035+01 | 1486615078.54004 | 0/42BA5548               |            1119507784

 2017-02-09 05:37:59.826557+01 | 1486615079.82656 | 0/43034428               |            1124287528

 2017-02-09 05:38:01.243824+01 | 1486615081.24382 | 0/4354FB18               |            1129642776

 2017-02-09 05:38:02.555927+01 | 1486615082.55593 | 0/43A11370               |            1134629744

 2017-02-09 05:38:03.920313+01 | 1486615083.92031 | 0/43F04738               |            1139820344

 2017-02-09 05:38:05.221831+01 | 1486615085.22183 | 0/4439A020               |            1144627232

 2017-02-09 05:38:06.483625+01 | 1486615086.48362 | 0/4482A8B8               |            1149413560

 2017-02-09 05:38:07.816073+01 | 1486615087.81607 | 0/44D03200               |            1154494976

 2017-02-09 05:38:09.079557+01 | 1486615089.07956 | 0/45180B18               |            1159205344

 2017-02-09 05:38:10.374671+01 | 1486615090.37467 | 0/456298F8               |            1164089592

 2017-02-09 05:38:11.682795+01 | 1486615091.6828 | 0/45AECF08               |            1169084168

 2017-02-09 05:38:12.922558+01 | 1486615092.92256 | 0/45F665B0               |            1173775792

 2017-02-09 05:38:14.138805+01 | 1486615094.1388 | 0/463BB430               |            1178317872

 2017-02-09 05:38:15.376668+01 | 1486615095.37667 | 0/46833F10               |            1183006480

 2017-02-09 05:38:16.690119+01 | 1486615096.69012 | 0/46CF6D88               |            1187999112

 2017-02-09 05:38:18.02342+01 | 1486615098.02342 | 0/47198650               |            1192855120

 2017-02-09 05:38:19.324961+01 | 1486615099.32496 | 0/4764E888               |            1197795464

 2017-02-09 05:38:20.679881+01 | 1486615100.67988 | 0/47B32AC8               |            1202924232

 2017-02-09 05:38:21.973522+01 | 1486615101.97352 | 0/47FE5CF8               |            1207852280

 2017-02-09 05:38:23.240577+01 | 1486615103.24058 | 0/48468470               |            1212580976

 2017-02-09 05:38:24.509678+01 | 1486615104.50968 | 0/488FD548               |            1217385800

 2017-02-09 05:38:25.782778+01 | 1486615105.78278 | 0/48F4E788               |            1224009608

 2017-02-09 05:38:27.051023+01 | 1486615107.05102 | 0/495A1650               |            1230640720

 2017-02-09 05:38:28.38575+01 | 1486615108.38575 | 0/49C11468               |            1237390440

 2017-02-09 05:38:29.765962+01 | 1486615109.76596 | 0/4A21E628               |            1243735592

 2017-02-09 05:38:31.068894+01 | 1486615111.06889 | 0/4A6F5BC8               |            1248811976

 2017-02-09 05:38:32.476676+01 | 1486615112.47668 | 0/4ABAECF0               |            1253764336

 2017-02-09 05:38:33.818197+01 | 1486615113.8182 | 0/4B02F808               |            1258485768

 2017-02-09 05:38:35.101259+01 | 1486615115.10126 | 0/4B49E7C0               |            1263134656

 2017-02-09 05:38:36.335205+01 | 1486615116.33521 | 0/4B8EA0F0               |            1267638512

 2017-02-09 05:38:37.622167+01 | 1486615117.62217 | 0/4BD681C0               |            1272349120

 2017-02-09 05:38:38.840832+01 | 1486615118.84083 | 0/4C191A40               |            1276713536

 2017-02-09 05:38:40.185296+01 | 1486615120.1853 | 0/4C64EE30               |            1281682992

 2017-02-09 05:38:41.575245+01 | 1486615121.57524 | 0/4CB3CD68               |            1286851944

 2017-02-09 05:38:42.7947+01 | 1486615122.7947 | 0/4CF98348               |            1291420488

 2017-02-09 05:38:43.965435+01 | 1486615123.96544 | 0/4D3AECB0               |            1295707312

 2017-02-09 05:38:45.263874+01 | 1486615125.26387 | 0/4D852568               |            1300571496

 2017-02-09 05:38:46.532689+01 | 1486615126.53269 | 0/4DCDCE00               |            1305333248

 2017-02-09 05:38:47.712756+01 | 1486615127.71276 | 0/4E102140               |            1309679936

 2017-02-09 05:38:49.005222+01 | 1486615129.00522 | 0/4E5A1CD8               |            1314528472

 2017-02-09 05:38:50.224298+01 | 1486615130.2243 | 0/4E9FD1D0               |            1319096784

 2017-02-09 05:38:51.649442+01 | 1486615131.64944 | 0/4EF257F8               |            1324505080

 2017-02-09 05:38:52.924758+01 | 1486615132.92476 | 0/4F3A4DB8               |            1329221048

 2017-02-09 05:38:54.209163+01 | 1486615134.20916 | 0/4F84AFE8               |            1334095848

 2017-02-09 05:38:55.487161+01 | 1486615135.48716 | 0/4FCDE848               |            1338894408

 2017-02-09 05:38:56.845977+01 | 1486615136.84598 | 0/501AD078               |            1343934584

 2017-02-09 05:38:58.096067+01 | 1486615138.09607 | 0/5062AF68               |            1348644712

 2017-02-09 05:38:59.471933+01 | 1486615139.47193 | 0/50B24E98               |            1353862808

 2017-02-09 05:39:00.767752+01 | 1486615140.76775 | 0/50FD5420               |            1358779424

 2017-02-09 05:39:02.009997+01 | 1486615142.01 | 0/51445A68               |            1363434088

 2017-02-09 05:39:03.272312+01 | 1486615143.27231 | 0/518CD918               |            1368185112

 2017-02-09 05:39:04.522134+01 | 1486615144.52213 | 0/51D480F0               |            1372881136

 2017-02-09 05:39:05.901634+01 | 1486615145.90163 | 0/5222BA88               |            1378007688

 2017-02-09 05:39:07.236446+01 | 1486615147.23645 | 0/526FFE18               |            1383071256

 2017-02-09 05:39:08.575689+01 | 1486615148.57569 | 0/52BD0458               |            1388119128

 2017-02-09 05:39:09.79027+01 | 1486615149.79027 | 0/530243C0               |            1392657344

 2017-02-09 05:39:11.022755+01 | 1486615151.02275 | 0/5349F198               |            1397354904

 2017-02-09 05:39:12.276144+01 | 1486615152.27614 | 0/5391CD60               |            1402064224

 2017-02-09 05:39:13.487614+01 | 1486615153.48761 | 0/53D807C8               |            1406666696

 2017-02-09 05:39:14.879699+01 | 1486615154.8797 | 0/54271C28               |            1411849256

 2017-02-09 05:39:16.194804+01 | 1486615156.1948 | 0/5471FC70               |            1416756336

 2017-02-09 05:39:17.483101+01 | 1486615157.4831 | 0/54BCC818               |            1421658136

 2017-02-09 05:39:18.770186+01 | 1486615158.77019 | 0/55059830               |            1426430000

 2017-02-09 05:39:20.104473+01 | 1486615160.10447 | 0/5552A960               |            1431480672

 2017-02-09 05:39:21.449362+01 | 1486615161.44936 | 0/55A001E8               |            1436549608

 2017-02-09 05:39:22.607365+01 | 1486615162.60736 | 0/55E2EC40               |            1440934976

 2017-02-09 05:39:24.005268+01 | 1486615164.00527 | 0/563214E8               |            1446122728

 2017-02-09 05:39:25.31407+01 | 1486615165.31407 | 0/5688A700               |            1451796224

 2017-02-09 05:39:26.582179+01 | 1486615166.58218 | 0/56F01ED0               |            1458577104

 2017-02-09 05:39:27.807338+01 | 1486615167.80734 | 0/574DEFC0               |            1464725440

 2017-02-09 05:39:29.083462+01 | 1486615169.08346 | 0/57AD9440               |            1470993472

 2017-02-09 05:39:30.394425+01 | 1486615170.39442 | 0/57FFFFF0               |            1476394992

 2017-02-09 05:39:31.644052+01 | 1486615171.64405 | 0/584BE7A0               |            1481369504

 2017-02-09 05:39:32.817845+01 | 1486615172.81785 | 0/588AFC98               |            1485503640

 2017-02-09 05:39:34.155795+01 | 1486615174.1558 | 0/58D56EF0               |            1490382576

 2017-02-09 05:39:35.345856+01 | 1486615175.34586 | 0/59150450               |            1494549584

 2017-02-09 05:39:36.710911+01 | 1486615176.71091 | 0/5960C090               |            1499512976

 2017-02-09 05:39:37.956394+01 | 1486615177.95639 | 0/59A64E38               |            1504071224

 2017-02-09 05:39:39.29232+01 | 1486615179.29232 | 0/59F15EF8               |            1508990712

 2017-02-09 05:39:40.583794+01 | 1486615180.58379 | 0/5A3A6BC0               |            1513778112

 2017-02-09 05:39:41.909637+01 | 1486615181.90964 | 0/5A84FC40               |            1518664768

 2017-02-09 05:39:43.212849+01 | 1486615183.21285 | 0/5ACED688               |            1523504776

 2017-02-09 05:39:44.508239+01 | 1486615184.50824 | 0/5B17A678               |            1528276600

 2017-02-09 05:39:45.924836+01 | 1486615185.92484 | 0/5B68CEC8               |            1533595336

 2017-02-09 05:39:47.205483+01 | 1486615187.20548 | 0/5BB1CD58               |            1538379096

 2017-02-09 05:39:48.482025+01 | 1486615188.48202 | 0/5BFB5E78               |            1543200376

 2017-02-09 05:39:49.625043+01 | 1486615189.62504 | 0/5C3B8960               |            1547405664

 2017-02-09 05:39:50.885201+01 | 1486615190.8852 | 0/5C83E910               |            1552148752

 2017-02-09 05:39:52.071997+01 | 1486615192.072 | 0/5CC7D960               |            1556601184

 2017-02-09 05:39:53.414808+01 | 1486615193.41481 | 0/5D142638               |            1561601592

 2017-02-09 05:39:54.627695+01 | 1486615194.6277 | 0/5D594270               |            1566130800

 2017-02-09 05:39:55.925007+01 | 1486615195.92501 | 0/5DA456F8               |            1571051256

 2017-02-09 05:39:57.192456+01 | 1486615197.19246 | 0/5DEDC290               |            1575862928

 2017-02-09 05:39:58.445461+01 | 1486615198.44546 | 0/5E342718               |            1580476184

 2017-02-09 05:39:59.585442+01 | 1486615199.58544 | 0/5E75FE48               |            1584791112

 2017-02-09 05:40:00.897421+01 | 1486615200.89742 | 0/5EC1BF20               |            1589755680

 2017-02-09 05:40:02.245585+01 | 1486615202.24558 | 0/5F0DEB18               |            1594747672

 2017-02-09 05:40:03.581759+01 | 1486615203.58176 | 0/5F5BB818               |            1599846424

 2017-02-09 05:40:04.92843+01 | 1486615204.92843 | 0/5FA9E718               |            1604970264

 2017-02-09 05:40:06.180422+01 | 1486615206.18042 | 0/5FF1B580               |            1609676160

 2017-02-09 05:40:07.480562+01 | 1486615207.48056 | 0/603C1E90               |            1614552720

 2017-02-09 05:40:08.791718+01 | 1486615208.79172 | 0/608858E8               |            1619548392

 2017-02-09 05:40:10.102113+01 | 1486615210.10211 | 0/60D47540               |            1624536384

 2017-02-09 05:40:11.406199+01 | 1486615211.4062 | 0/611EB688               |            1629402760

 2017-02-09 05:40:12.755193+01 | 1486615212.75519 | 0/616D30A8               |            1634545832

 2017-02-09 05:40:14.047837+01 | 1486615214.04784 | 0/61B7ECE8               |            1639443688

 2017-02-09 05:40:15.401923+01 | 1486615215.40192 | 0/6204D290               |            1644483216

 2017-02-09 05:40:16.712325+01 | 1486615216.71233 | 0/6250D470               |            1649464432

 2017-02-09 05:40:17.99683+01 | 1486615217.99683 | 0/629AD848               |            1654315080

 2017-02-09 05:40:19.281359+01 | 1486615219.28136 | 0/62E55678               |            1659197048

 2017-02-09 05:40:20.592646+01 | 1486615220.59265 | 0/632F8208               |            1664057864

 2017-02-09 05:40:21.905103+01 | 1486615221.9051 | 0/637BF498               |            1669067928

 2017-02-09 05:40:23.254423+01 | 1486615223.25442 | 0/63CA3068               |            1674195048

 2017-02-09 05:40:24.482781+01 | 1486615224.48278 | 0/64102860               |            1678780512

 2017-02-09 05:40:25.7861+01 | 1486615225.7861 | 0/6471DAF0               |            1685183216

 2017-02-09 05:40:27.117829+01 | 1486615227.11783 | 0/64DC5B18               |            1692162840

 2017-02-09 05:40:28.409279+01 | 1486615228.40928 | 0/653F21B0               |            1698636208

 2017-02-09 05:40:29.573059+01 | 1486615229.57306 | 0/65935DC0               |            1704156608

 2017-02-09 05:40:30.751273+01 | 1486615230.75127 | 0/65E26D68               |            1709337960

 2017-02-09 05:40:32.118446+01 | 1486615232.11845 | 0/66296B48               |            1713990472

 2017-02-09 05:40:33.490689+01 | 1486615233.49069 | 0/667550F8               |            1718964472

 2017-02-09 05:40:34.840003+01 | 1486615234.84 | 0/66C04FA0               |            1723879328

 2017-02-09 05:40:36.207082+01 | 1486615236.20708 | 0/670B62D8               |            1728799448

 2017-02-09 05:40:37.587387+01 | 1486615237.58739 | 0/67594478               |            1733903480

 2017-02-09 05:40:38.789392+01 | 1486615238.78939 | 0/679D6708               |            1738368776

 2017-02-09 05:40:40.151667+01 | 1486615240.15167 | 0/67EABB50               |            1743436624

 2017-02-09 05:40:41.355245+01 | 1486615241.35525 | 0/682E2590               |            1747854736

 2017-02-09 05:40:42.779655+01 | 1486615242.77965 | 0/687F7AE0               |            1753184992

 2017-02-09 05:40:44.201095+01 | 1486615244.2011 | 0/68D0F990               |            1758525840

 2017-02-09 05:40:45.533091+01 | 1486615245.53309 | 0/691C0058               |            1763442776

 2017-02-09 05:40:46.869881+01 | 1486615246.86988 | 0/6969A1E0               |            1768530400

 2017-02-09 05:40:48.216141+01 | 1486615248.21614 | 0/69B7F0E0               |            1773662432

 2017-02-09 05:40:49.587559+01 | 1486615249.58756 | 0/6A05EF08               |            1778773768

 2017-02-09 05:40:50.867802+01 | 1486615250.8678 | 0/6A4FAD78               |            1783606648

 2017-02-09 05:40:52.186312+01 | 1486615252.18631 | 0/6A9C8A00               |            1788643840

 2017-02-09 05:40:53.490714+01 | 1486615253.49071 | 0/6AE81B70               |            1793596272

 2017-02-09 05:40:54.79449+01 | 1486615254.79449 | 0/6B334CD0               |            1798524112

 2017-02-09 05:40:56.097358+01 | 1486615256.09736 | 0/6B7F0038               |            1803485240

 2017-02-09 05:40:57.404814+01 | 1486615257.40481 | 0/6BCBB8E8               |            1808513256

 2017-02-09 05:40:58.578639+01 | 1486615258.57864 | 0/6C0EB558               |            1812903256

 2017-02-09 05:40:59.955597+01 | 1486615259.9556 | 0/6C5F78C8               |            1818196168

 2017-02-09 05:41:01.322626+01 | 1486615261.32263 | 0/6CB00638               |            1823475256

 2017-02-09 05:41:02.584562+01 | 1486615262.58456 | 0/6CF9BA90               |            1828305552

 2017-02-09 05:41:03.735941+01 | 1486615263.73594 | 0/6D3BE3A0               |            1832641440

 2017-02-09 05:41:05.028204+01 | 1486615265.0282 | 0/6D880C70               |            1837632624

 2017-02-09 05:41:06.389269+01 | 1486615266.38927 | 0/6DD7C6D0               |            1842857680

 2017-02-09 05:41:07.701886+01 | 1486615267.70189 | 0/6E23CC08               |            1847839752

 2017-02-09 05:41:09.000952+01 | 1486615269.00095 | 0/6E6FFFB8               |            1852833720

 2017-02-09 05:41:10.266+01 | 1486615270.266 | 0/6EB9FD00               |            1857682688

 2017-02-09 05:41:11.534572+01 | 1486615271.53457 | 0/6F028060               |            1862434912

 2017-02-09 05:41:12.802804+01 | 1486615272.8028 | 0/6F4DB158               |            1867362648

 2017-02-09 05:41:14.135645+01 | 1486615274.13564 | 0/6F9AC178               |            1872413048

 2017-02-09 05:41:15.48254+01 | 1486615275.48254 | 0/6FE93BD8               |            1877556184

 2017-02-09 05:41:16.767508+01 | 1486615276.76751 | 0/70330548               |            1882391880

 2017-02-09 05:41:18.027927+01 | 1486615278.02793 | 0/707C93F0               |            1887212528

 2017-02-09 05:41:19.257515+01 | 1486615279.25751 | 0/70C3E200               |            1891885568

 2017-02-09 05:41:20.645198+01 | 1486615280.6452 | 0/7113ACF8               |            1897114872

 2017-02-09 05:41:21.968483+01 | 1486615281.96848 | 0/71614200               |            1902199296

 2017-02-09 05:41:23.22407+01 | 1486615283.22407 | 0/71AA1AB0               |            1906973360

 2017-02-09 05:41:24.480897+01 | 1486615284.4809 | 0/71F34FC8               |            1911771080

 2017-02-09 05:41:25.728326+01 | 1486615285.72833 | 0/723B5FA8               |            1916493736

 2017-02-09 05:41:27.016374+01 | 1486615287.01637 | 0/7285CC88               |            1921371272

 2017-02-09 05:41:28.324183+01 | 1486615288.32418 | 0/72D26E10               |            1926393360

 2017-02-09 05:41:29.552699+01 | 1486615289.5527 | 0/7318A9E0               |            1930996192

 2017-02-09 05:41:30.843268+01 | 1486615290.84327 | 0/7375C2C0               |            1937097408

 2017-02-09 05:41:32.127515+01 | 1486615292.12752 | 0/73D92CD0               |            1943612624

 2017-02-09 05:41:33.293869+01 | 1486615293.29387 | 0/742F43C0               |            1949254592

 2017-02-09 05:41:34.494767+01 | 1486615294.49477 | 0/74860548               |            1954940232

 2017-02-09 05:41:35.706652+01 | 1486615295.70665 | 0/74CEBFD8               |            1959706584

 2017-02-09 05:41:36.969772+01 | 1486615296.96977 | 0/7527D130               |            1965543728

 2017-02-09 05:41:38.178433+01 | 1486615298.17843 | 0/756EE478               |            1970201720

 2017-02-09 05:41:39.516091+01 | 1486615299.51609 | 0/75B6D550               |            1974916432

 2017-02-09 05:41:40.823943+01 | 1486615300.82394 | 0/75FFFCD0               |            1979710672

 2017-02-09 05:41:42.095989+01 | 1486615302.09599 | 0/76487918               |            1984461080

 2017-02-09 05:41:43.466035+01 | 1486615303.46603 | 0/76970620               |            1989608992

 2017-02-09 05:41:44.7024+01 | 1486615304.7024 | 0/76DD0580               |            1994196352

 2017-02-09 05:41:46.014106+01 | 1486615306.01411 | 0/77282DE8               |            1999121896

 2017-02-09 05:41:47.331309+01 | 1486615307.33131 | 0/7774CE38               |            2004143672

 2017-02-09 05:41:48.630224+01 | 1486615308.63022 | 0/77C0EC30               |            2009132080

 2017-02-09 05:41:50.000356+01 | 1486615310.00036 | 0/780FE648               |            2014307912

 2017-02-09 05:41:51.23229+01 | 1486615311.23229 | 0/78588DF8               |            2019069432

 2017-02-09 05:41:52.602479+01 | 1486615312.60248 | 0/78AA1248               |            2024411720

 2017-02-09 05:41:53.890533+01 | 1486615313.89053 | 0/78F67EF8               |            2029420280

 2017-02-09 05:41:55.099455+01 | 1486615315.09946 | 0/793E0638               |            2034107960

 2017-02-09 05:41:56.387665+01 | 1486615316.38767 | 0/798BB9F8               |            2039200248

 2017-02-09 05:41:57.624034+01 | 1486615317.62403 | 0/79D5EEE0               |            2044063456

 2017-02-09 05:41:58.85554+01 | 1486615318.85554 | 0/7A1DA720               |            2048763680

 2017-02-09 05:42:00.103194+01 | 1486615320.10319 | 0/7A684E10               |            2053656080

 2017-02-09 05:42:01.302412+01 | 1486615321.30241 | 0/7AAFD408               |            2058343432

 2017-02-09 05:42:02.665941+01 | 1486615322.66594 | 0/7AFFE9B8               |            2063591864

 2017-02-09 05:42:03.859105+01 | 1486615323.85911 | 0/7B459C00               |            2068159488

 2017-02-09 05:42:05.194464+01 | 1486615325.19446 | 0/7B951568               |            2073367912

 2017-02-09 05:42:06.56317+01 | 1486615326.56317 | 0/7BE50F48               |            2078609224

 2017-02-09 05:42:07.794556+01 | 1486615327.79456 | 0/7C2C2680               |            2083268224

 2017-02-09 05:42:09.02654+01 | 1486615329.02654 | 0/7C7495E8               |            2088015336

 2017-02-09 05:42:10.270325+01 | 1486615330.27032 | 0/7CBDBE18               |            2092809752

 2017-02-09 05:42:11.613821+01 | 1486615331.61382 | 0/7D0B4068               |            2097889384

 2017-02-09 05:42:12.949671+01 | 1486615332.94967 | 0/7D5A5DE0               |            2103074272

 2017-02-09 05:42:14.229006+01 | 1486615334.22901 | 0/7DA4F8C8               |            2107963592

 2017-02-09 05:42:15.550963+01 | 1486615335.55096 | 0/7DF31180               |            2113081728

 2017-02-09 05:42:16.812232+01 | 1486615336.81223 | 0/7E3C55A0               |            2117883296

 2017-02-09 05:42:18.120461+01 | 1486615338.12046 | 0/7E895B40               |            2122931008

 2017-02-09 05:42:19.315968+01 | 1486615339.31597 | 0/7ECF4EC0               |            2127515328

 2017-02-09 05:42:20.640855+01 | 1486615340.64086 | 0/7F1C0548               |            2132542792

 2017-02-09 05:42:21.858558+01 | 1486615341.85856 | 0/7F63AF88               |            2137239432

 2017-02-09 05:42:23.120684+01 | 1486615343.12068 | 0/7FAD9780               |            2142082944

 2017-02-09 05:42:24.362817+01 | 1486615344.36282 | 0/7FF6AA80               |            2146871936

 2017-02-09 05:42:25.62321+01 | 1486615345.62321 | 0/804DCE50               |            2152582736

 2017-02-09 05:42:26.9312+01 | 1486615346.9312 | 0/80B39028               |            2159251496

 2017-02-09 05:42:28.214552+01 | 1486615348.21455 | 0/811329F8               |            2165516792

 2017-02-09 05:42:29.554697+01 | 1486615349.5547 | 0/817317F8               |            2171803640

 2017-02-09 05:42:30.86005+01 | 1486615350.86005 | 0/81C1AF18               |            2176954136

 2017-02-09 05:42:31.983786+01 | 1486615351.98379 | 0/821AB830               |            2182789168

 2017-02-09 05:42:33.151343+01 | 1486615353.15134 | 0/82645B40               |            2187615040

 2017-02-09 05:42:34.440008+01 | 1486615354.44001 | 0/82AB61A0               |            2192269728

 2017-02-09 05:42:35.709366+01 | 1486615355.70937 | 0/82F2B038               |            2196942904

 2017-02-09 05:42:36.999251+01 | 1486615356.99925 | 0/833C2180               |            2201756032

 2017-02-09 05:42:38.272088+01 | 1486615358.27209 | 0/83844E48               |            2206486088

 2017-02-09 05:42:39.605651+01 | 1486615359.60565 | 0/83D19378               |            2211550072

 2017-02-09 05:42:40.889002+01 | 1486615360.889 | 0/841B0360               |            2216362848

 2017-02-09 05:42:42.120589+01 | 1486615362.12059 | 0/8462C5B0               |            2221065648

 2017-02-09 05:42:43.457873+01 | 1486615363.45787 | 0/84B23FF0               |            2226274288

 2017-02-09 05:42:44.783326+01 | 1486615364.78333 | 0/84FFFF48               |            2231369544

 2017-02-09 05:42:46.084531+01 | 1486615366.08453 | 0/854D3E60               |            2236431968

 2017-02-09 05:42:47.446709+01 | 1486615367.44671 | 0/859F3840               |            2241804352

 2017-02-09 05:42:48.801569+01 | 1486615368.80157 | 0/85EEB078               |            2247012472

 2017-02-09 05:42:50.099435+01 | 1486615370.09944 | 0/863B3A58               |            2252028504

 2017-02-09 05:42:51.478562+01 | 1486615371.47856 | 0/868F1710               |            2257524496

 2017-02-09 05:42:52.799663+01 | 1486615372.79966 | 0/86DE1488               |            2262701192

 2017-02-09 05:42:54.10792+01 | 1486615374.10792 | 0/872B2CB8               |            2267753656

 2017-02-09 05:42:55.372405+01 | 1486615375.37241 | 0/87769E58               |            2272697944

 2017-02-09 05:42:56.628047+01 | 1486615376.62805 | 0/87C12FF8               |            2277584888

 2017-02-09 05:42:57.920818+01 | 1486615377.92082 | 0/880C1BC8               |            2282494920

 2017-02-09 05:42:59.199988+01 | 1486615379.19999 | 0/88588F98               |            2287505304

 2017-02-09 05:43:00.554931+01 | 1486615380.55493 | 0/88A91F70               |            2292785008

 2017-02-09 05:43:01.896972+01 | 1486615381.89697 | 0/88F8DFC8               |            2298011592

 2017-02-09 05:43:03.053839+01 | 1486615383.05384 | 0/893C6B88               |            2302438280

 2017-02-09 05:43:04.425921+01 | 1486615384.42592 | 0/898D05D0               |            2307720656

 2017-02-09 05:43:05.654473+01 | 1486615385.65447 | 0/89D520A0               |            2312446112

 2017-02-09 05:43:06.829736+01 | 1486615386.82974 | 0/8A186E98               |            2316856984

 2017-02-09 05:43:08.159072+01 | 1486615388.15907 | 0/8A65F880               |            2321938560

 2017-02-09 05:43:09.43309+01 | 1486615389.43309 | 0/8AB05ED0               |            2326814416

 2017-02-09 05:43:10.768371+01 | 1486615390.76837 | 0/8AFF10C0               |            2331971776

 2017-02-09 05:43:12.032148+01 | 1486615392.03215 | 0/8B485348               |            2336772936

 2017-02-09 05:43:13.399656+01 | 1486615393.39966 | 0/8B982B28               |            2342005544

 2017-02-09 05:43:14.75218+01 | 1486615394.75218 | 0/8BE70D48               |            2347175240

 2017-02-09 05:43:16.004478+01 | 1486615396.00448 | 0/8C2E7E18               |            2351857176

 2017-02-09 05:43:17.279437+01 | 1486615397.27944 | 0/8C793398               |            2356753304

 2017-02-09 05:43:18.570941+01 | 1486615398.57094 | 0/8CC4D848               |            2361710664

 2017-02-09 05:43:19.978503+01 | 1486615399.9785 | 0/8D156290               |            2366988944

 2017-02-09 05:43:21.3383+01 | 1486615401.3383 | 0/8D658878               |            2372241528

 2017-02-09 05:43:22.607807+01 | 1486615402.60781 | 0/8DAF51D8               |            2377077208

 2017-02-09 05:43:23.945068+01 | 1486615403.94507 | 0/8DFD14E8               |            2382173416

 2017-02-09 05:43:25.185896+01 | 1486615405.1859 | 0/8E4903E8               |            2387149800

 2017-02-09 05:43:26.378171+01 | 1486615406.37817 | 0/8EA47F00               |            2393145088

 2017-02-09 05:43:27.759031+01 | 1486615407.75903 | 0/8F0A1768               |            2399803240

 2017-02-09 05:43:29.090737+01 | 1486615409.09074 | 0/8F6A11C0               |            2406093248

 2017-02-09 05:43:30.388235+01 | 1486615410.38824 | 0/8FBB27F0               |            2411407344

 2017-02-09 05:43:31.780568+01 | 1486615411.78057 | 0/90111A38               |            2417039928

 2017-02-09 05:43:33.097802+01 | 1486615413.0978 | 0/907C39E8               |            2424060392

 2017-02-09 05:43:34.256359+01 | 1486615414.25636 | 0/90BD4CD0               |            2428325072

 2017-02-09 05:43:35.605651+01 | 1486615415.60565 | 0/9103AFB8               |            2432937912

 2017-02-09 05:43:36.801097+01 | 1486615416.8011 | 0/9145CFE0               |            2437271520

 2017-02-09 05:43:38.17984+01 | 1486615418.17984 | 0/9193A468               |            2442372200

 2017-02-09 05:43:39.562113+01 | 1486615419.56211 | 0/91E134F8               |            2447455480

 2017-02-09 05:43:40.92489+01 | 1486615420.92489 | 0/922C5738               |            2452379448

 2017-02-09 05:43:42.22907+01 | 1486615422.22907 | 0/9276B160               |            2457252192

 2017-02-09 05:43:43.578169+01 | 1486615423.57817 | 0/92C461D8               |            2462343640

 2017-02-09 05:43:44.930916+01 | 1486615424.93092 | 0/930FE278               |            2467291768

 2017-02-09 05:43:46.221461+01 | 1486615426.22146 | 0/935A1958               |            2472155480

 2017-02-09 05:43:47.547848+01 | 1486615427.54785 | 0/93A6DD30               |            2477186352

 2017-02-09 05:43:48.858658+01 | 1486615428.85866 | 0/93F276F8               |            2482140920

 2017-02-09 05:43:50.111802+01 | 1486615430.1118 | 0/943A39E0               |            2486843872

 2017-02-09 05:43:51.450269+01 | 1486615431.45027 | 0/94884778               |            2491959160

 2017-02-09 05:43:52.679445+01 | 1486615432.67945 | 0/94D01228               |            2496664104

 2017-02-09 05:43:53.961826+01 | 1486615433.96183 | 0/9519D560               |            2501498208

 2017-02-09 05:43:55.271246+01 | 1486615435.27125 | 0/95660CD0               |            2506493136

 2017-02-09 05:43:56.51697+01 | 1486615436.51697 | 0/95AE4F18               |            2511228696

 2017-02-09 05:43:57.823674+01 | 1486615437.82367 | 0/95F9A808               |            2516166664

 2017-02-09 05:43:58.980884+01 | 1486615438.98088 | 0/963AA470               |            2520425584

 2017-02-09 05:44:00.282205+01 | 1486615440.28221 | 0/9685CD88               |            2525351304

 2017-02-09 05:44:01.610064+01 | 1486615441.61006 | 0/96D244D8               |            2530362584

 2017-02-09 05:44:03.04152+01 | 1486615443.04152 | 0/9723BA00               |            2535700992

 2017-02-09 05:44:04.370584+01 | 1486615444.37058 | 0/977077F8               |            2540730360

 2017-02-09 05:44:05.608153+01 | 1486615445.60815 | 0/97B6E7A0               |            2545346464

 2017-02-09 05:44:06.905297+01 | 1486615446.9053 | 0/97FFFEA0               |            2550136480

 2017-02-09 05:44:08.16666+01 | 1486615448.16666 | 0/98476D90               |            2554817936

 2017-02-09 05:44:09.309127+01 | 1486615449.30913 | 0/9887B200               |            2559029760

 2017-02-09 05:44:10.591436+01 | 1486615450.59144 | 0/98D0BF88               |            2563817352

 2017-02-09 05:44:11.959465+01 | 1486615451.95947 | 0/991DD780               |            2568869760

 2017-02-09 05:44:13.294101+01 | 1486615453.2941 | 0/99698B30               |            2573830960

 2017-02-09 05:44:14.654977+01 | 1486615454.65498 | 0/99B61998               |            2578848152

 2017-02-09 05:44:15.897932+01 | 1486615455.89793 | 0/99FB3AC0               |            2583378624

 2017-02-09 05:44:17.030208+01 | 1486615457.03021 | 0/9A3A7F68               |            2587524968

 2017-02-09 05:44:18.363032+01 | 1486615458.36303 | 0/9A866E28               |            2592501288

 2017-02-09 05:44:19.629513+01 | 1486615459.62951 | 0/9ACEE0F8               |            2597249272

 2017-02-09 05:44:20.953654+01 | 1486615460.95365 | 0/9B191718               |            2602112792

 2017-02-09 05:44:22.294945+01 | 1486615462.29495 | 0/9B653370               |            2607100784

 2017-02-09 05:44:23.59667+01 | 1486615463.59667 | 0/9BAE9FE0               |            2611912672

 2017-02-09 05:44:24.915945+01 | 1486615464.91595 | 0/9BF8CD48               |            2616773960

 2017-02-09 05:44:26.083046+01 | 1486615466.08305 | 0/9C504890               |            2622507152

 2017-02-09 05:44:27.430622+01 | 1486615467.43062 | 0/9CB7FA78               |            2629302904

 2017-02-09 05:44:28.8189+01 | 1486615468.8189 | 0/9D1A81C0               |            2635760064

 2017-02-09 05:44:30.121057+01 | 1486615470.12106 | 0/9D721968               |            2641500520

 2017-02-09 05:44:31.298289+01 | 1486615471.29829 | 0/9DBE9460               |            2646512736

 2017-02-09 05:44:32.52521+01 | 1486615472.52521 | 0/9E1BFB20               |            2652633888

 2017-02-09 05:44:33.843815+01 | 1486615473.84382 | 0/9E60DBA0               |            2657147808

 2017-02-09 05:44:35.104659+01 | 1486615475.10466 | 0/9EA5A700               |            2661656320

 2017-02-09 05:44:36.36418+01 | 1486615476.36418 | 0/9EEA8370               |            2666169200

 2017-02-09 05:44:37.589931+01 | 1486615477.58993 | 0/9F2C83D0               |            2670494672

 2017-02-09 05:44:38.920112+01 | 1486615478.92011 | 0/9F75DBC8               |            2675301320

 2017-02-09 05:44:40.170023+01 | 1486615480.17002 | 0/9FBBC9B8               |            2679884216

 2017-02-09 05:44:41.433275+01 | 1486615481.43327 | 0/A0013E48               |            2684436040

 2017-02-09 05:44:42.791579+01 | 1486615482.79158 | 0/A04DACD8               |            2689445080

 2017-02-09 05:44:44.165237+01 | 1486615484.16524 | 0/A09B8210               |            2694545936

 2017-02-09 05:44:45.510514+01 | 1486615485.51051 | 0/A0E81AB8               |            2699565752

 2017-02-09 05:44:46.759625+01 | 1486615486.75962 | 0/A12CBA50               |            2704063056

 2017-02-09 05:44:47.99049+01 | 1486615487.99049 | 0/A1723E08               |            2708618760

 2017-02-09 05:44:49.313896+01 | 1486615489.3139 | 0/A1BDCBD8               |            2713570264

 2017-02-09 05:44:50.567348+01 | 1486615490.56735 | 0/A2029AB0               |            2718079664

 2017-02-09 05:44:51.905413+01 | 1486615491.90541 | 0/A24F16E8               |            2723092200

 2017-02-09 05:44:53.25161+01 | 1486615493.25161 | 0/A29C3F80               |            2728148864

 2017-02-09 05:44:54.583765+01 | 1486615494.58377 | 0/A2E93F18               |            2733195032

 2017-02-09 05:44:55.801394+01 | 1486615495.80139 | 0/A32D3DC8               |            2737651144

 2017-02-09 05:44:57.17632+01 | 1486615497.17632 | 0/A37B99D0               |            2742786512

 2017-02-09 05:44:58.493342+01 | 1486615498.49334 | 0/A3C72F18               |            2747739928

 2017-02-09 05:44:59.803397+01 | 1486615499.8034 | 0/A41062D0               |            2752537296

 2017-02-09 05:45:01.074986+01 | 1486615501.07499 | 0/A4597DA8               |            2757328296

 2017-02-09 05:45:02.370689+01 | 1486615502.37069 | 0/A4A40CE8               |            2762214632

 2017-02-09 05:45:03.664124+01 | 1486615503.66412 | 0/A4EE6CA8               |            2767088808

 2017-02-09 05:45:04.958642+01 | 1486615504.95864 | 0/A53782C0               |            2771878592

 2017-02-09 05:45:06.217172+01 | 1486615506.21717 | 0/A57ED790               |            2776553360

 2017-02-09 05:45:07.550375+01 | 1486615507.55037 | 0/A5CA6AA8               |            2781506216

 2017-02-09 05:45:08.925707+01 | 1486615508.92571 | 0/A6172410               |            2786534416

 2017-02-09 05:45:10.2115+01 | 1486615510.2115 | 0/A65FE7A0               |            2791303072

 2017-02-09 05:45:11.528233+01 | 1486615511.52823 | 0/A6AB0FD0               |            2796228560

 2017-02-09 05:45:12.858482+01 | 1486615512.85848 | 0/A6F74370               |            2801222512

 2017-02-09 05:45:14.04438+01 | 1486615514.04438 | 0/A739BBA8               |            2805578664

 2017-02-09 05:45:15.299563+01 | 1486615515.29956 | 0/A77F70C0               |            2810147008

 2017-02-09 05:45:16.608486+01 | 1486615516.60849 | 0/A7C951C8               |            2814988744

 2017-02-09 05:45:17.941946+01 | 1486615517.94195 | 0/A81304C0               |            2819818688

 2017-02-09 05:45:19.314626+01 | 1486615519.31463 | 0/A8607D78               |            2824895864

 2017-02-09 05:45:20.620802+01 | 1486615520.6208 | 0/A8AA73B8               |            2829743032

 2017-02-09 05:45:21.979639+01 | 1486615521.97964 | 0/A8F755C0               |            2834781632

 2017-02-09 05:45:23.184942+01 | 1486615523.18494 | 0/A93A5C20               |            2839174176

 2017-02-09 05:45:24.44845+01 | 1486615524.44845 | 0/A98153C0               |            2843825088

 2017-02-09 05:45:25.739525+01 | 1486615525.73953 | 0/A9D81308               |            2849510152

 2017-02-09 05:45:26.962526+01 | 1486615526.96253 | 0/AA3625E8               |            2855675368

 2017-02-09 05:45:28.181138+01 | 1486615528.18114 | 0/AA923458               |            2861708376

 2017-02-09 05:45:29.522959+01 | 1486615529.52296 | 0/AAF269B0               |            2868013488

 2017-02-09 05:45:30.762426+01 | 1486615530.76243 | 0/AB3E96D0               |            2873005776

 2017-02-09 05:45:32.107884+01 | 1486615532.10788 | 0/ABA00228               |            2879390248

 2017-02-09 05:45:33.487448+01 | 1486615533.48745 | 0/ABE83D58               |            2884123992

 2017-02-09 05:45:34.855514+01 | 1486615534.85551 | 0/AC3143C0               |            2888909760

 2017-02-09 05:45:36.103851+01 | 1486615536.10385 | 0/AC73BC28               |            2893265960

 2017-02-09 05:45:37.425316+01 | 1486615537.42532 | 0/ACBBD9F8               |            2897992184

 2017-02-09 05:45:38.769706+01 | 1486615538.76971 | 0/AD04BB00               |            2902768384

 2017-02-09 05:45:40.029078+01 | 1486615540.02908 | 0/AD491D70               |            2907250032

 2017-02-09 05:45:41.376235+01 | 1486615541.37624 | 0/AD93B1E0               |            2912137696

 2017-02-09 05:45:42.708508+01 | 1486615542.70851 | 0/ADDD95A8               |            2916980136

 2017-02-09 05:45:43.96333+01 | 1486615543.96333 | 0/AE21C9E8               |            2921449960

 2017-02-09 05:45:45.267853+01 | 1486615545.26785 | 0/AE69D8C0               |            2926172352

 2017-02-09 05:45:46.579825+01 | 1486615546.57982 | 0/AEB384B0               |            2931000496

 2017-02-09 05:45:47.923683+01 | 1486615547.92368 | 0/AEFDD430               |            2935870512

 2017-02-09 05:45:49.071624+01 | 1486615549.07162 | 0/AF3C9220               |            2939982368

 2017-02-09 05:45:50.39088+01 | 1486615550.39088 | 0/AF866898               |            2944821400

 2017-02-09 05:45:51.68644+01 | 1486615551.68644 | 0/AFCEF928               |            2949577000

 2017-02-09 05:45:53.032172+01 | 1486615553.03217 | 0/B0192160               |            2954436960

 2017-02-09 05:45:54.297088+01 | 1486615554.29709 | 0/B0603CB0               |            2959097008

 2017-02-09 05:45:55.573086+01 | 1486615555.57309 | 0/B0A7BD38               |            2963782968

 2017-02-09 05:45:56.898426+01 | 1486615556.89843 | 0/B0F28978               |            2968684920

 2017-02-09 05:45:58.154206+01 | 1486615558.15421 | 0/B13796C0               |            2973210304

 2017-02-09 05:45:59.455827+01 | 1486615559.45583 | 0/B1808AC8               |            2977991368

 2017-02-09 05:46:00.735296+01 | 1486615560.7353 | 0/B1C8E688               |            2982733448

 2017-02-09 05:46:02.058665+01 | 1486615562.05867 | 0/B212ADB8               |            2987568568

 2017-02-09 05:46:03.393192+01 | 1486615563.39319 | 0/B25E35C8               |            2992518600

