 2017-02-08 22:46:30.211733+01 | 1486590390.21173 |                 0 |               5 |                   451 |                  110 |              47716 |        591765 |             5914 |        14684283 |                     0 |      85852042 | 2017-02-08 22:25:38.675853+01

 2017-02-08 22:46:31.378746+01 | 1486590391.37875 |                 0 |               5 |                   451 |                  110 |              47716 |        592121 |             5917 |        14684283 |                     0 |      85943297 | 2017-02-08 22:25:38.675853+01

 2017-02-08 22:46:32.460804+01 | 1486590392.4608 |                 0 |               5 |                   451 |                  110 |              47716 |        592721 |             5923 |        14684283 |                     0 |      86034271 | 2017-02-08 22:25:38.675853+01

 2017-02-08 22:46:33.613289+01 | 1486590393.61329 |                 0 |               5 |                   451 |                  110 |              47716 |        593221 |             5928 |        14684283 |                     0 |      86110492 | 2017-02-08 22:25:38.675853+01

 2017-02-08 22:46:34.76044+01 | 1486590394.76044 |                 0 |               5 |                   451 |                  110 |              47716 |        593821 |             5934 |        14684283 |                     0 |      86199926 | 2017-02-08 22:25:38.675853+01

 2017-02-08 22:46:35.949902+01 | 1486590395.9499 |                 0 |               5 |                   451 |                  110 |              47716 |        594421 |             5940 |        14684283 |                     0 |      86289661 | 2017-02-08 22:25:38.675853+01

 2017-02-08 22:46:37.098393+01 | 1486590397.09839 |                 0 |               5 |                   451 |                  110 |              47716 |        594921 |             5945 |        14684283 |                     0 |      86364584 | 2017-02-08 22:25:38.675853+01

 2017-02-08 22:46:38.334135+01 | 1486590398.33414 |                 0 |               5 |                   451 |                  110 |              47716 |        595521 |             5951 |        14746463 |                     0 |      86456038 | 2017-02-08 22:25:38.675853+01

 2017-02-08 22:46:39.583811+01 | 1486590399.58381 |                 0 |               5 |                   451 |                  110 |              47716 |        596121 |             5957 |        14746463 |                     0 |      86546959 | 2017-02-08 22:25:38.675853+01

 2017-02-08 22:46:40.690789+01 | 1486590400.69079 |                 0 |               5 |                   451 |                  110 |              47716 |        596721 |             5963 |        14746463 |                     0 |      86642847 | 2017-02-08 22:25:38.675853+01

 2017-02-08 22:46:41.828707+01 | 1486590401.82871 |                 0 |               5 |                   451 |                  110 |              47716 |        597321 |             5969 |        14746463 |                     0 |      86736720 | 2017-02-08 22:25:38.675853+01

 2017-02-08 22:46:42.897665+01 | 1486590402.89767 |                 0 |               5 |                   451 |                  110 |              47716 |        597821 |             5974 |        14809299 |                     0 |      86818691 | 2017-02-08 22:25:38.675853+01

 2017-02-08 22:46:44.025659+01 | 1486590404.02566 |                 0 |               5 |                   451 |                  110 |              47716 |        598421 |             5980 |        14809299 |                     0 |      86912838 | 2017-02-08 22:25:38.675853+01

 2017-02-08 22:46:45.153941+01 | 1486590405.15394 |                 0 |               5 |                   451 |                  110 |              47716 |        598921 |             5985 |        14809299 |                     0 |      86994177 | 2017-02-08 22:25:38.675853+01

 2017-02-08 22:46:46.330377+01 | 1486590406.33038 |                 0 |               5 |                   451 |                  110 |              47716 |        599521 |             5991 |        14809299 |                     0 |      87089094 | 2017-02-08 22:25:38.675853+01

 2017-02-08 22:46:47.515326+01 | 1486590407.51533 |                 0 |               5 |                   451 |                  110 |              47716 |        600121 |             5997 |        14809299 |                     0 |      87186069 | 2017-02-08 22:25:38.675853+01

 2017-02-08 22:46:48.718286+01 | 1486590408.71829 |                 0 |               5 |                   451 |                  110 |              47716 |        600721 |             6003 |        14872035 |                     0 |      87285298 | 2017-02-08 22:25:38.675853+01

 2017-02-08 22:46:49.833304+01 | 1486590409.8333 |                 0 |               5 |                   451 |                  110 |              47716 |        601321 |             6009 |        14872035 |                     0 |      87382787 | 2017-02-08 22:25:38.675853+01

 2017-02-08 22:46:50.906545+01 | 1486590410.90654 |                 0 |               5 |                   451 |                  110 |              47716 |        601821 |             6014 |        14872035 |                     0 |      87463182 | 2017-02-08 22:25:38.675853+01

 2017-02-08 22:46:52.033511+01 | 1486590412.03351 |                 0 |               5 |                   451 |                  110 |              47716 |        602421 |             6020 |        14872035 |                     0 |      87560660 | 2017-02-08 22:25:38.675853+01

 2017-02-08 22:46:53.189044+01 | 1486590413.18904 |                 0 |               5 |                   451 |                  110 |              47716 |        602921 |             6025 |        14872035 |                     0 |      87643294 | 2017-02-08 22:25:38.675853+01

 2017-02-08 22:46:54.342746+01 | 1486590414.34275 |                 0 |               5 |                   451 |                  110 |              47716 |        603521 |             6031 |        14934972 |                     0 |      87741919 | 2017-02-08 22:25:38.675853+01

 2017-02-08 22:46:55.531459+01 | 1486590415.53146 |                 0 |               5 |                   451 |                  110 |              47716 |        604121 |             6037 |        14934972 |                     0 |      87836937 | 2017-02-08 22:25:38.675853+01

 2017-02-08 22:46:56.67222+01 | 1486590416.67222 |                 0 |               5 |                   451 |                  110 |              47716 |        604721 |             6043 |        14934972 |                     0 |      87937514 | 2017-02-08 22:25:38.675853+01

 2017-02-08 22:46:57.820926+01 | 1486590417.82093 |                 0 |               5 |                   451 |                  110 |              47716 |        605221 |             6048 |        14934972 |                     0 |      88017530 | 2017-02-08 22:25:38.675853+01

 2017-02-08 22:46:58.93743+01 | 1486590418.93743 |                 0 |               5 |                   451 |                  110 |              47716 |        605821 |             6054 |        14934972 |                     0 |      88119682 | 2017-02-08 22:25:38.675853+01

 2017-02-08 22:47:00.069767+01 | 1486590420.06977 |                 0 |               5 |                   451 |                  110 |              47716 |        606321 |             6059 |        14997808 |                     0 |      88198567 | 2017-02-08 22:25:38.675853+01

 2017-02-08 22:47:01.272504+01 | 1486590421.2725 |                 0 |               5 |                   451 |                  110 |              47716 |        606921 |             6065 |        14997808 |                     0 |      88298044 | 2017-02-08 22:25:38.675853+01

 2017-02-08 22:47:02.405988+01 | 1486590422.40599 |                 0 |               5 |                   451 |                  110 |              47716 |        607521 |             6071 |        14997808 |                     0 |      88396785 | 2017-02-08 22:25:38.675853+01

 2017-02-08 22:47:03.611291+01 | 1486590423.61129 |                 0 |               5 |                   451 |                  110 |              47716 |        608121 |             6077 |        14997808 |                     0 |      88493654 | 2017-02-08 22:25:38.675853+01

 2017-02-08 22:47:04.759644+01 | 1486590424.75964 |                 0 |               5 |                   451 |                  110 |              47716 |        608721 |             6083 |        15060644 |                     0 |      88590769 | 2017-02-08 22:25:38.675853+01

 2017-02-08 22:47:05.9636+01 | 1486590425.9636 |                 0 |               5 |                   451 |                  110 |              47716 |        609321 |             6089 |        15060644 |                     0 |      88692588 | 2017-02-08 22:25:38.675853+01

 2017-02-08 22:47:07.078889+01 | 1486590427.07889 |                 0 |               5 |                   451 |                  110 |              47716 |        609821 |             6094 |        15060644 |                     0 |      88774219 | 2017-02-08 22:25:38.675853+01

 2017-02-08 22:47:08.267383+01 | 1486590428.26738 |                 0 |               5 |                   451 |                  110 |              47716 |        610421 |             6100 |        15060644 |                     0 |      88874910 | 2017-02-08 22:25:38.675853+01

 2017-02-08 22:47:09.487252+01 | 1486590429.48725 |                 0 |               5 |                   451 |                  110 |              47716 |        611021 |             6106 |        15060644 |                     0 |      88974651 | 2017-02-08 22:25:38.675853+01

 2017-02-08 22:47:10.681474+01 | 1486590430.68147 |                 0 |               5 |                   451 |                  110 |              47716 |        611621 |             6112 |        15123481 |                     0 |      89073277 | 2017-02-08 22:25:38.675853+01

 2017-02-08 22:47:11.799498+01 | 1486590431.7995 |                 0 |               5 |                   451 |                  110 |              47716 |        612221 |             6118 |        15123481 |                     0 |      89173680 | 2017-02-08 22:25:38.675853+01

 2017-02-08 22:47:12.967032+01 | 1486590432.96703 |                 0 |               5 |                   451 |                  110 |              47716 |        612721 |             6123 |        15123481 |                     0 |      89254781 | 2017-02-08 22:25:38.675853+01

 2017-02-08 22:47:14.094777+01 | 1486590434.09478 |                 0 |               5 |                   451 |                  110 |              47716 |        613321 |             6129 |        15123481 |                     0 |      89357724 | 2017-02-08 22:25:38.675853+01

 2017-02-08 22:47:15.195701+01 | 1486590435.1957 |                 0 |               5 |                   451 |                  110 |              47716 |        613921 |             6135 |        15186417 |                     0 |      89456301 | 2017-02-08 22:25:38.675853+01

 2017-02-08 22:47:16.363639+01 | 1486590436.36364 |                 0 |               5 |                   451 |                  110 |              47716 |        614421 |             6140 |        15186417 |                     0 |      89541496 | 2017-02-08 22:25:38.675853+01

 2017-02-08 22:47:17.514566+01 | 1486590437.51457 |                 0 |               5 |                   451 |                  110 |              47716 |        615021 |             6146 |        15186417 |                     0 |      89640097 | 2017-02-08 22:25:38.675853+01

 2017-02-08 22:47:18.683307+01 | 1486590438.68331 |                 0 |               5 |                   451 |                  110 |              47716 |        615621 |             6152 |        15186417 |                     0 |      89738969 | 2017-02-08 22:25:38.675853+01

 2017-02-08 22:47:19.761723+01 | 1486590439.76172 |                 0 |               5 |                   451 |                  110 |              47716 |        616221 |             6158 |        15186417 |                     0 |      89839454 | 2017-02-08 22:25:38.675853+01

 2017-02-08 22:47:20.88502+01 | 1486590440.88502 |                 0 |               5 |                   451 |                  110 |              47716 |        616721 |             6163 |        15249353 |                     0 |      89921612 | 2017-02-08 22:25:38.675853+01

 2017-02-08 22:47:22.001814+01 | 1486590442.00181 |                 0 |               5 |                   451 |                  110 |              47716 |        617321 |             6169 |        15249353 |                     0 |      90024977 | 2017-02-08 22:25:38.675853+01

 2017-02-08 22:47:23.131743+01 | 1486590443.13174 |                 0 |               5 |                   451 |                  110 |              47716 |        617821 |             6174 |        15249353 |                     0 |      90104646 | 2017-02-08 22:25:38.675853+01

 2017-02-08 22:47:24.295568+01 | 1486590444.29557 |                 0 |               5 |                   451 |                  110 |              47716 |        618421 |             6180 |        15249353 |                     0 |      90204655 | 2017-02-08 22:25:38.675853+01

 2017-02-08 22:47:25.498516+01 | 1486590445.49852 |                 0 |               5 |                   451 |                  110 |              47716 |        619021 |             6186 |        15249353 |                     0 |      90305508 | 2017-02-08 22:25:38.675853+01

 2017-02-08 22:47:26.682487+01 | 1486590446.68249 |                 0 |               5 |                   451 |                  110 |              47716 |        619621 |             6192 |        15312190 |                     0 |      90404395 | 2017-02-08 22:25:38.675853+01

 2017-02-08 22:47:27.817278+01 | 1486590447.81728 |                 0 |               5 |                   451 |                  110 |              47716 |        620121 |             6197 |        15312190 |                     0 |      90488304 | 2017-02-08 22:25:38.675853+01

 2017-02-08 22:47:28.935764+01 | 1486590448.93576 |                 0 |               5 |                   451 |                  110 |              47716 |        620721 |             6203 |        15312190 |                     0 |      90588013 | 2017-02-08 22:25:38.675853+01

 2017-02-08 22:47:30.120047+01 | 1486590450.12005 |                 0 |               5 |                   451 |                  110 |              47716 |        621321 |             6209 |        15312190 |                     0 |      90687366 | 2017-02-08 22:25:38.675853+01

 2017-02-08 22:47:31.28057+01 | 1486590451.28057 |                 0 |               5 |                   451 |                  110 |              47716 |        621821 |             6214 |        15375126 |                     0 |      90771581 | 2017-02-08 22:25:38.675853+01

 2017-02-08 22:47:32.498722+01 | 1486590452.49872 |                 0 |               5 |                   451 |                  110 |              47716 |        622421 |             6220 |        15375126 |                     0 |      90871507 | 2017-02-08 22:25:38.675853+01

 2017-02-08 22:47:33.666121+01 | 1486590453.66612 |                 0 |               5 |                   451 |                  110 |              47716 |        623021 |             6226 |        15375126 |                     0 |      90971057 | 2017-02-08 22:25:38.675853+01

 2017-02-08 22:47:34.812058+01 | 1486590454.81206 |                 0 |               5 |                   451 |                  110 |              47716 |        623621 |             6232 |        15375126 |                     0 |      91073487 | 2017-02-08 22:25:38.675853+01

 2017-02-08 22:47:36.004446+01 | 1486590456.00445 |                 0 |               5 |                   451 |                  110 |              47716 |        624221 |             6238 |        15375126 |                     0 |      91174716 | 2017-02-08 22:25:38.675853+01

 2017-02-08 22:47:37.134574+01 | 1486590457.13457 |                 0 |               5 |                   451 |                  110 |              47716 |        624821 |             6244 |        15438062 |                     0 |      91275271 | 2017-02-08 22:25:38.675853+01

 2017-02-08 22:47:38.328914+01 | 1486590458.32891 |                 0 |               5 |                   451 |                  110 |              47716 |        625321 |             6249 |        15438062 |                     0 |      91360659 | 2017-02-08 22:25:38.675853+01

 2017-02-08 22:47:39.503456+01 | 1486590459.50346 |                 0 |               5 |                   451 |                  110 |              47716 |        625921 |             6255 |        15438062 |                     0 |      91461248 | 2017-02-08 22:25:38.675853+01

 2017-02-08 22:47:40.615912+01 | 1486590460.61591 |                 0 |               5 |                   451 |                  110 |              47716 |        626521 |             6261 |        15438062 |                     0 |      91561838 | 2017-02-08 22:25:38.675853+01

 2017-02-08 22:47:41.842652+01 | 1486590461.84265 |                 0 |               5 |                   451 |                  110 |              47716 |        627121 |             6267 |        15500998 |                     0 |      91663867 | 2017-02-08 22:25:38.675853+01

 2017-02-08 22:47:42.997433+01 | 1486590462.99743 |                 0 |               5 |                   451 |                  110 |              47716 |        627721 |             6273 |        15500998 |                     0 |      91762923 | 2017-02-08 22:25:38.675853+01

 2017-02-08 22:47:44.192086+01 | 1486590464.19209 |                 0 |               5 |                   451 |                  110 |              47716 |        628221 |             6278 |        15500998 |                     0 |      91848179 | 2017-02-08 22:25:38.675853+01

 2017-02-08 22:47:45.401919+01 | 1486590465.40192 |                 0 |               5 |                   451 |                  110 |              47716 |        628821 |             6284 |        15500998 |                     0 |      91947302 | 2017-02-08 22:25:38.675853+01

 2017-02-08 22:47:46.606983+01 | 1486590466.60698 |                 0 |               5 |                   451 |                  110 |              47716 |        629421 |             6290 |        15500998 |                     0 |      92047812 | 2017-02-08 22:25:38.675853+01

 2017-02-08 22:47:47.823318+01 | 1486590467.82332 |                 0 |               5 |                   451 |                  110 |              47716 |        630021 |             6296 |        15563934 |                     0 |      92149530 | 2017-02-08 22:25:38.675853+01

 2017-02-08 22:47:48.935207+01 | 1486590468.93521 |                 0 |               5 |                   451 |                  110 |              47716 |        630621 |             6302 |        15563934 |                     0 |      92249826 | 2017-02-08 22:25:38.675853+01

 2017-02-08 22:47:50.050452+01 | 1486590470.05045 |                 0 |               5 |                   451 |                  110 |              47716 |        631221 |             6308 |        15563934 |                     0 |      92350433 | 2017-02-08 22:25:38.675853+01

 2017-02-08 22:47:51.221356+01 | 1486590471.22136 |                 0 |               5 |                   451 |                  110 |              47716 |        631721 |             6313 |        15563934 |                     0 |      92436473 | 2017-02-08 22:25:38.675853+01

 2017-02-08 22:47:52.403261+01 | 1486590472.40326 |                 0 |               5 |                   451 |                  110 |              47716 |        632321 |             6319 |        15626870 |                     0 |      92537892 | 2017-02-08 22:25:38.675853+01

 2017-02-08 22:47:53.653857+01 | 1486590473.65386 |                 0 |               5 |                   451 |                  110 |              47716 |        632921 |             6325 |        15626870 |                     0 |      92637720 | 2017-02-08 22:25:38.675853+01

 2017-02-08 22:47:54.782359+01 | 1486590474.78236 |                 0 |               5 |                   451 |                  110 |              47716 |        633521 |             6331 |        15626870 |                     0 |      92740615 | 2017-02-08 22:25:38.675853+01

 2017-02-08 22:47:55.865558+01 | 1486590475.86556 |                 0 |               5 |                   451 |                  110 |              47716 |        634121 |             6337 |        15626870 |                     0 |      92839386 | 2017-02-08 22:25:38.675853+01

 2017-02-08 22:47:57.035175+01 | 1486590477.03518 |                 0 |               5 |                   451 |                  110 |              47716 |        634621 |             6342 |        15626870 |                     0 |      92923695 | 2017-02-08 22:25:38.675853+01

 2017-02-08 22:47:58.174781+01 | 1486590478.17478 |                 0 |               5 |                   451 |                  110 |              47716 |        635221 |             6348 |        15689806 |                     0 |      93022146 | 2017-02-08 22:25:38.675853+01

 2017-02-08 22:47:59.36342+01 | 1486590479.36342 |                 0 |               5 |                   451 |                  110 |              47716 |        635821 |             6354 |        15689806 |                     0 |      93121180 | 2017-02-08 22:25:38.675853+01

 2017-02-08 22:48:00.52176+01 | 1486590480.52176 |                 0 |               5 |                   451 |                  110 |              47716 |        636421 |             6360 |        15689806 |                     0 |      93220844 | 2017-02-08 22:25:38.675853+01

 2017-02-08 22:48:01.690134+01 | 1486590481.69013 |                 0 |               5 |                   451 |                  110 |              47716 |        636921 |             6365 |        15689806 |                     0 |      93304920 | 2017-02-08 22:25:38.675853+01

 2017-02-08 22:48:02.823127+01 | 1486590482.82313 |                 0 |               5 |                   451 |                  110 |              47716 |        637521 |             6371 |        15752642 |                     0 |      93403848 | 2017-02-08 22:25:38.675853+01

 2017-02-08 22:48:03.93982+01 | 1486590483.93982 |                 0 |               5 |                   451 |                  110 |              47716 |        638121 |             6377 |        15752642 |                     0 |      93507684 | 2017-02-08 22:25:38.675853+01

 2017-02-08 22:48:05.090174+01 | 1486590485.09017 |                 0 |               5 |                   451 |                  110 |              47716 |        638621 |             6382 |        15752642 |                     0 |      93589237 | 2017-02-08 22:25:38.675853+01

 2017-02-08 22:48:06.214671+01 | 1486590486.21467 |                 0 |               5 |                   451 |                  110 |              47716 |        639221 |             6388 |        15752642 |                     0 |      93693939 | 2017-02-08 22:25:38.675853+01

 2017-02-08 22:48:07.352982+01 | 1486590487.35298 |                 0 |               5 |                   451 |                  110 |              47716 |        639821 |             6394 |        15752642 |                     0 |      93795534 | 2017-02-08 22:25:38.675853+01

 2017-02-08 22:48:08.542064+01 | 1486590488.54206 |                 0 |               5 |                   451 |                  110 |              47716 |        640321 |             6399 |        15815578 |                     0 |      93878533 | 2017-02-08 22:25:38.675853+01

 2017-02-08 22:48:09.744173+01 | 1486590489.74417 |                 0 |               5 |                   451 |                  110 |              47716 |        640821 |             6404 |        15815578 |                     0 |      93964355 | 2017-02-08 22:25:38.675853+01

 2017-02-08 22:48:10.964855+01 | 1486590490.96485 |                 0 |               5 |                   451 |                  110 |              47716 |        641521 |             6411 |        15815578 |                     0 |      94082216 | 2017-02-08 22:25:38.675853+01

 2017-02-08 22:48:12.117479+01 | 1486590492.11748 |                 0 |               5 |                   451 |                  110 |              47716 |        642121 |             6417 |        15815578 |                     0 |      94183772 | 2017-02-08 22:25:38.675853+01

 2017-02-08 22:48:13.30936+01 | 1486590493.30936 |                 0 |               5 |                   451 |                  110 |              47716 |        642721 |             6423 |        15878515 |                     0 |      94283618 | 2017-02-08 22:25:38.675853+01

 2017-02-08 22:48:14.451781+01 | 1486590494.45178 |                 0 |               5 |                   451 |                  110 |              47716 |        643321 |             6429 |        15878515 |                     0 |      94384067 | 2017-02-08 22:25:38.675853+01

 2017-02-08 22:48:15.630539+01 | 1486590495.63054 |                 0 |               5 |                   451 |                  110 |              47716 |        643921 |             6435 |        15878515 |                     0 |      94485396 | 2017-02-08 22:25:38.675853+01

 2017-02-08 22:48:16.800916+01 | 1486590496.80092 |                 0 |               5 |                   451 |                  110 |              47716 |        644421 |             6440 |        15878515 |                     0 |      94569287 | 2017-02-08 22:25:38.675853+01

 2017-02-08 22:48:17.91184+01 | 1486590497.91184 |                 0 |               5 |                   451 |                  110 |              47716 |        645021 |             6446 |        15878515 |                     0 |      94667945 | 2017-02-08 22:25:38.675853+01

 2017-02-08 22:48:19.101974+01 | 1486590499.10197 |                 0 |               5 |                   451 |                  110 |              47716 |        645621 |             6452 |        15941451 |                     0 |      94771803 | 2017-02-08 22:25:38.675853+01

 2017-02-08 22:48:20.327382+01 | 1486590500.32738 |                 0 |               5 |                   451 |                  110 |              47716 |        646221 |             6458 |        15941451 |                     0 |      94873882 | 2017-02-08 22:25:38.675853+01

 2017-02-08 22:48:21.493261+01 | 1486590501.49326 |                 0 |               5 |                   451 |                  110 |              47716 |        646821 |             6464 |        15941451 |                     0 |      94973548 | 2017-02-08 22:25:38.675853+01

 2017-02-08 22:48:22.673798+01 | 1486590502.6738 |                 0 |               5 |                   451 |                  110 |              47716 |        647321 |             6469 |        15941451 |                     0 |      95059916 | 2017-02-08 22:25:38.675853+01

 2017-02-08 22:48:23.804321+01 | 1486590503.80432 |                 0 |               5 |                   451 |                  110 |              47716 |        647921 |             6475 |        16004387 |                     0 |      95158965 | 2017-02-08 22:25:38.675853+01

 2017-02-08 22:48:24.927478+01 | 1486590504.92748 |                 0 |               5 |                   451 |                  110 |              47716 |        648521 |             6481 |        16004387 |                     0 |      95260356 | 2017-02-08 22:25:38.675853+01

 2017-02-08 22:48:26.12213+01 | 1486590506.12213 |                 0 |               5 |                   451 |                  110 |              47716 |        649021 |             6486 |        16004387 |                     0 |      95345040 | 2017-02-08 22:25:38.675853+01

 2017-02-08 22:48:27.370282+01 | 1486590507.37028 |                 0 |               5 |                   451 |                  110 |              47716 |        649621 |             6492 |        16004387 |                     0 |      95445374 | 2017-02-08 22:25:38.675853+01

 2017-02-08 22:48:28.537223+01 | 1486590508.53722 |                 0 |               5 |                   451 |                  110 |              47716 |        650321 |             6499 |        16004387 |                     0 |      95563008 | 2017-02-08 22:25:38.675853+01

 2017-02-08 22:48:29.730688+01 | 1486590509.73069 |                 0 |               5 |                   451 |                  110 |              47716 |        650821 |             6504 |        16067323 |                     0 |      95648481 | 2017-02-08 22:25:38.675853+01

 2017-02-08 22:48:30.906987+01 | 1486590510.90699 |                 0 |               5 |                   451 |                  110 |              47716 |        651421 |             6510 |        16067323 |                     0 |      95749364 | 2017-02-08 22:25:38.675853+01

 2017-02-08 22:48:32.045362+01 | 1486590512.04536 |                 0 |               5 |                   451 |                  110 |              47716 |        652021 |             6516 |        16067323 |                     0 |      95853182 | 2017-02-08 22:25:38.675853+01

 2017-02-08 22:48:33.24845+01 | 1486590513.24845 |                 0 |               5 |                   451 |                  110 |              47716 |        652621 |             6522 |        16067323 |                     0 |      95953855 | 2017-02-08 22:25:38.675853+01

 2017-02-08 22:48:34.477216+01 | 1486590514.47722 |                 0 |               5 |                   451 |                  110 |              47716 |        653221 |             6528 |        16130260 |                     0 |      96054064 | 2017-02-08 22:25:38.675853+01

 2017-02-08 22:48:35.745716+01 | 1486590515.74572 |                 0 |               5 |                   451 |                  110 |              47716 |        653821 |             6534 |        16130260 |                     0 |      96153937 | 2017-02-08 22:25:38.675853+01

 2017-02-08 22:48:36.861279+01 | 1486590516.86128 |                 0 |               5 |                   451 |                  110 |              47716 |        654421 |             6540 |        16130260 |                     0 |      96258202 | 2017-02-08 22:25:38.675853+01

 2017-02-08 22:48:38.016435+01 | 1486590518.01643 |                 0 |               5 |                   451 |                  110 |              47716 |        655021 |             6546 |        16130260 |                     0 |      96360654 | 2017-02-08 22:25:38.675853+01

 2017-02-08 22:48:39.150378+01 | 1486590519.15038 |                 0 |               5 |                   451 |                  110 |              47716 |        655521 |             6551 |        16130260 |                     0 |      96445680 | 2017-02-08 22:25:38.675853+01

 2017-02-08 22:48:40.320071+01 | 1486590520.32007 |                 0 |               5 |                   451 |                  110 |              47716 |        656121 |             6557 |        16193240 |                     0 |      96546961 | 2017-02-08 22:25:38.675853+01

 2017-02-08 22:48:41.532149+01 | 1486590521.53215 |                 0 |               5 |                   451 |                  110 |              47716 |        656721 |             6563 |        16193240 |                     0 |      96647648 | 2017-02-08 22:25:38.675853+01

 2017-02-08 22:48:42.79224+01 | 1486590522.79224 |                 0 |               5 |                   451 |                  110 |              47716 |        657321 |             6569 |        16193240 |                     0 |      96751310 | 2017-02-08 22:25:38.675853+01

 2017-02-08 22:48:43.937484+01 | 1486590523.93748 |                 0 |               5 |                   451 |                  110 |              47716 |        657921 |             6575 |        16193240 |                     0 |      96852146 | 2017-02-08 22:25:38.675853+01

 2017-02-08 22:48:45.118366+01 | 1486590525.11837 |                 0 |               5 |                   451 |                  110 |              47716 |        658521 |             6581 |        16256235 |                     0 |      96953512 | 2017-02-08 22:25:38.675853+01

 2017-02-08 22:48:46.304873+01 | 1486590526.30487 |                 0 |               5 |                   451 |                  110 |              47716 |        659121 |             6587 |        16256235 |                     0 |      97052943 | 2017-02-08 22:25:38.675853+01

 2017-02-08 22:48:47.58175+01 | 1486590527.58175 |                 0 |               5 |                   451 |                  110 |              47716 |        659721 |             6593 |        16256235 |                     0 |      97156866 | 2017-02-08 22:25:38.675853+01

 2017-02-08 22:48:48.76461+01 | 1486590528.76461 |                 0 |               5 |                   451 |                  110 |              47716 |        660321 |             6599 |        16256235 |                     0 |      97258674 | 2017-02-08 22:25:38.675853+01

 2017-02-08 22:48:49.851919+01 | 1486590529.85192 |                 0 |               5 |                   451 |                  110 |              47716 |        660921 |             6605 |        16319171 |                     0 |      97360041 | 2017-02-08 22:25:38.675853+01

 2017-02-08 22:48:50.97834+01 | 1486590530.97834 |                 0 |               5 |                   451 |                  110 |              47716 |        661421 |             6610 |        16319171 |                     0 |      97443113 | 2017-02-08 22:25:38.675853+01

 2017-02-08 22:48:52.118912+01 | 1486590532.11891 |                 0 |               5 |                   451 |                  110 |              47716 |        662021 |             6616 |        16319171 |                     0 |      97545535 | 2017-02-08 22:25:38.675853+01

 2017-02-08 22:48:53.358013+01 | 1486590533.35801 |                 0 |               5 |                   451 |                  110 |              47716 |        662621 |             6622 |        16319171 |                     0 |      97650901 | 2017-02-08 22:25:38.675853+01

 2017-02-08 22:48:54.646564+01 | 1486590534.64656 |                 0 |               5 |                   451 |                  110 |              47716 |        663221 |             6628 |        16319171 |                     0 |      97751424 | 2017-02-08 22:25:38.675853+01

 2017-02-08 22:48:55.822779+01 | 1486590535.82278 |                 0 |               5 |                   451 |                  110 |              47716 |        663821 |             6634 |        16382107 |                     0 |      97850458 | 2017-02-08 22:25:38.675853+01

 2017-02-08 22:48:56.982402+01 | 1486590536.9824 |                 0 |               5 |                   451 |                  110 |              47716 |        664421 |             6640 |        16382107 |                     0 |      97954353 | 2017-02-08 22:25:38.675853+01

 2017-02-08 22:48:58.164583+01 | 1486590538.16458 |                 0 |               5 |                   451 |                  110 |              47716 |        664921 |             6645 |        16382107 |                     0 |      98035599 | 2017-02-08 22:25:38.675853+01

 2017-02-08 22:48:59.389767+01 | 1486590539.38977 |                 0 |               5 |                   451 |                  110 |              47716 |        665521 |             6651 |        16382107 |                     0 |      98137593 | 2017-02-08 22:25:38.675853+01

 2017-02-08 22:49:00.50614+01 | 1486590540.50614 |                 0 |               5 |                   451 |                  110 |              47716 |        666121 |             6657 |        16445043 |                     0 |      98238499 | 2017-02-08 22:25:38.675853+01

 2017-02-08 22:49:01.661811+01 | 1486590541.66181 |                 0 |               5 |                   451 |                  110 |              47716 |        666721 |             6663 |        16445043 |                     0 |      98338716 | 2017-02-08 22:25:38.675853+01

 2017-02-08 22:49:02.822201+01 | 1486590542.8222 |                 0 |               5 |                   451 |                  110 |              47716 |        667321 |             6669 |        16445043 |                     0 |      98436072 | 2017-02-08 22:25:38.675853+01

 2017-02-08 22:49:03.970919+01 | 1486590543.97092 |                 0 |               5 |                   451 |                  110 |              47716 |        667921 |             6675 |        16445043 |                     0 |      98541263 | 2017-02-08 22:25:38.675853+01

 2017-02-08 22:49:05.155127+01 | 1486590545.15513 |                 0 |               5 |                   451 |                  110 |              47716 |        668421 |             6680 |        16445043 |                     0 |      98623606 | 2017-02-08 22:25:38.675853+01

 2017-02-08 22:49:06.376725+01 | 1486590546.37672 |                 0 |               5 |                   451 |                  110 |              47716 |        669021 |             6686 |        16507979 |                     0 |      98724684 | 2017-02-08 22:25:38.675853+01

 2017-02-08 22:49:07.460532+01 | 1486590547.46053 |                 0 |               5 |                   451 |                  110 |              47716 |        669621 |             6692 |        16507979 |                     0 |      98829768 | 2017-02-08 22:25:38.675853+01

 2017-02-08 22:49:08.699883+01 | 1486590548.69988 |                 0 |               5 |                   451 |                  110 |              47716 |        670221 |             6698 |        16507979 |                     0 |      98929574 | 2017-02-08 22:25:38.675853+01

 2017-02-08 22:49:09.984825+01 | 1486590549.98482 |                 0 |               5 |                   451 |                  110 |              47716 |        670821 |             6704 |        16507979 |                     0 |      99029699 | 2017-02-08 22:25:38.675853+01

 2017-02-08 22:49:11.135634+01 | 1486590551.13563 |                 0 |               5 |                   451 |                  110 |              47716 |        671421 |             6710 |        16570915 |                     0 |      99132867 | 2017-02-08 22:25:38.675853+01

 2017-02-08 22:49:12.337275+01 | 1486590552.33728 |                 0 |               5 |                   451 |                  110 |              47716 |        672021 |             6716 |        16570915 |                     0 |      99232129 | 2017-02-08 22:25:38.675853+01

 2017-02-08 22:49:13.482059+01 | 1486590553.48206 |                 0 |               5 |                   451 |                  110 |              47716 |        672621 |             6722 |        16570915 |                     0 |      99334009 | 2017-02-08 22:25:38.675853+01

 2017-02-08 22:49:14.714476+01 | 1486590554.71448 |                 0 |               5 |                   451 |                  110 |              47716 |        673221 |             6728 |        16570915 |                     0 |      99433627 | 2017-02-08 22:25:38.675853+01

 2017-02-08 22:49:15.90487+01 | 1486590555.90487 |                 0 |               5 |                   451 |                  110 |              47716 |        673821 |             6734 |        16633869 |                     0 |      99539129 | 2017-02-08 22:25:38.675853+01

 2017-02-08 22:49:17.08428+01 | 1486590557.08428 |                 0 |               5 |                   451 |                  110 |              47716 |        674321 |             6739 |        16633869 |                     0 |      99624133 | 2017-02-08 22:25:38.675853+01

 2017-02-08 22:49:18.287552+01 | 1486590558.28755 |                 0 |               5 |                   451 |                  110 |              47716 |        674921 |             6745 |        16633869 |                     0 |      99727050 | 2017-02-08 22:25:38.675853+01

 2017-02-08 22:49:19.44984+01 | 1486590559.44984 |                 0 |               5 |                   451 |                  110 |              47716 |        675521 |             6751 |        16633869 |                     0 |      99829083 | 2017-02-08 22:25:38.675853+01

 2017-02-08 22:49:20.659349+01 | 1486590560.65935 |                 0 |               5 |                   451 |                  110 |              47716 |        676121 |             6757 |        16633869 |                     0 |      99930948 | 2017-02-08 22:25:38.675853+01

 2017-02-08 22:49:21.872739+01 | 1486590561.87274 |                 0 |               5 |                   451 |                  110 |              47716 |        676721 |             6763 |        16696857 |                     0 |     100032806 | 2017-02-08 22:25:38.675853+01

 2017-02-08 22:49:22.979177+01 | 1486590562.97918 |                 0 |               5 |                   451 |                  110 |              47716 |        677321 |             6769 |        16696857 |                     0 |     100137632 | 2017-02-08 22:25:38.675853+01

 2017-02-08 22:49:24.180948+01 | 1486590564.18095 |                 0 |               5 |                   451 |                  110 |              47716 |        677821 |             6774 |        16696857 |                     0 |     100221913 | 2017-02-08 22:25:38.675853+01

 2017-02-08 22:49:25.40126+01 | 1486590565.40126 |                 0 |               5 |                   451 |                  110 |              47716 |        678421 |             6780 |        16696857 |                     0 |     100322558 | 2017-02-08 22:25:38.675853+01

 2017-02-08 22:49:26.567976+01 | 1486590566.56798 |                 0 |               5 |                   451 |                  110 |              47716 |        679121 |             6787 |        16759834 |                     0 |     100439572 | 2017-02-08 22:25:38.675853+01

 2017-02-08 22:49:27.800389+01 | 1486590567.80039 |                 0 |               5 |                   451 |                  110 |              47716 |        679621 |             6792 |        16759834 |                     0 |     100528032 | 2017-02-08 22:25:38.675853+01

 2017-02-08 22:49:29.001745+01 | 1486590569.00174 |                 0 |               5 |                   451 |                  110 |              47716 |        680221 |             6798 |        16759834 |                     0 |     100629154 | 2017-02-08 22:25:38.675853+01

 2017-02-08 22:49:30.248162+01 | 1486590570.24816 |                 0 |               5 |                   451 |                  110 |              47716 |        680821 |             6804 |        16759834 |                     0 |     100733813 | 2017-02-08 22:25:38.675853+01

 2017-02-08 22:49:31.378541+01 | 1486590571.37854 |                 0 |               5 |                   451 |                  110 |              47716 |        681521 |             6811 |        16759834 |                     0 |     100851202 | 2017-02-08 22:25:38.675853+01

 2017-02-08 22:49:32.599428+01 | 1486590572.59943 |                 0 |               5 |                   451 |                  110 |              47716 |        682021 |             6816 |        16822770 |                     0 |     100933307 | 2017-02-08 22:25:38.675853+01

 2017-02-08 22:49:33.811502+01 | 1486590573.8115 |                 0 |               5 |                   451 |                  110 |              47716 |        682621 |             6822 |        16822770 |                     0 |     101033778 | 2017-02-08 22:25:38.675853+01

 2017-02-08 22:49:34.924557+01 | 1486590574.92456 |                 0 |               5 |                   451 |                  110 |              47716 |        683221 |             6828 |        16822770 |                     0 |     101137579 | 2017-02-08 22:25:38.675853+01

 2017-02-08 22:49:36.105915+01 | 1486590576.10592 |                 0 |               5 |                   451 |                  110 |              47716 |        683821 |             6834 |        16822770 |                     0 |     101238246 | 2017-02-08 22:25:38.675853+01

 2017-02-08 22:49:37.285109+01 | 1486590577.28511 |                 0 |               5 |                   451 |                  110 |              47716 |        684421 |             6840 |        16885706 |                     0 |     101338770 | 2017-02-08 22:25:38.675853+01

 2017-02-08 22:49:38.567047+01 | 1486590578.56705 |                 0 |               5 |                   451 |                  110 |              47716 |        684921 |             6845 |        16885706 |                     0 |     101423848 | 2017-02-08 22:25:38.675853+01

 2017-02-08 22:49:39.714099+01 | 1486590579.7141 |                 0 |               5 |                   451 |                  110 |              47716 |        685621 |             6852 |        16885706 |                     0 |     101543557 | 2017-02-08 22:25:38.675853+01

 2017-02-08 22:49:40.940688+01 | 1486590580.94069 |                 0 |               5 |                   451 |                  110 |              47716 |        686221 |             6858 |        16885706 |                     0 |     101645538 | 2017-02-08 22:25:38.675853+01

 2017-02-08 22:49:42.135087+01 | 1486590582.13509 |                 0 |               5 |                   451 |                  110 |              47716 |        686821 |             6864 |        16948642 |                     0 |     101745438 | 2017-02-08 22:25:38.675853+01

 2017-02-08 22:49:43.328975+01 | 1486590583.32897 |                 0 |               5 |                   451 |                  110 |              47716 |        687321 |             6869 |        16948642 |                     0 |     101831294 | 2017-02-08 22:25:38.675853+01

 2017-02-08 22:49:44.529144+01 | 1486590584.52914 |                 0 |               5 |                   451 |                  110 |              47716 |        687921 |             6875 |        16948642 |                     0 |     101934418 | 2017-02-08 22:25:38.675853+01

 2017-02-08 22:49:45.712081+01 | 1486590585.71208 |                 0 |               5 |                   451 |                  110 |              47716 |        688521 |             6881 |        16948642 |                     0 |     102035245 | 2017-02-08 22:25:38.675853+01

 2017-02-08 22:49:46.848698+01 | 1486590586.8487 |                 0 |               5 |                   451 |                  110 |              47716 |        689121 |             6887 |        16948642 |                     0 |     102139256 | 2017-02-08 22:25:38.675853+01

 2017-02-08 22:49:48.022168+01 | 1486590588.02217 |                 0 |               5 |                   451 |                  110 |              47716 |        689721 |             6893 |        17011614 |                     0 |     102239611 | 2017-02-08 22:25:38.675853+01

 2017-02-08 22:49:49.217254+01 | 1486590589.21725 |                 0 |               5 |                   451 |                  110 |              47716 |        690321 |             6899 |        17011614 |                     0 |     102339593 | 2017-02-08 22:25:38.675853+01

 2017-02-08 22:49:50.394684+01 | 1486590590.39468 |                 0 |               5 |                   451 |                  110 |              47716 |        690821 |             6904 |        17011614 |                     0 |     102424567 | 2017-02-08 22:25:38.675853+01

 2017-02-08 22:49:51.622044+01 | 1486590591.62204 |                 0 |               5 |                   451 |                  110 |              47716 |        691421 |             6910 |        17011614 |                     0 |     102524811 | 2017-02-08 22:25:38.675853+01

 2017-02-08 22:49:52.851517+01 | 1486590592.85152 |                 0 |               5 |                   451 |                  110 |              47716 |        692121 |             6917 |        17074613 |                     0 |     102641498 | 2017-02-08 22:25:38.675853+01

 2017-02-08 22:49:53.991504+01 | 1486590593.9915 |                 0 |               5 |                   451 |                  110 |              47716 |        692721 |             6923 |        17074613 |                     0 |     102740376 | 2017-02-08 22:25:38.675853+01

 2017-02-08 22:49:55.145676+01 | 1486590595.14568 |                 0 |               5 |                   451 |                  110 |              47716 |        693221 |             6928 |        17074613 |                     0 |     102827352 | 2017-02-08 22:25:38.675853+01

 2017-02-08 22:49:56.329389+01 | 1486590596.32939 |                 0 |               5 |                   451 |                  110 |              47716 |        693821 |             6934 |        17074613 |                     0 |     102929410 | 2017-02-08 22:25:38.675853+01

 2017-02-08 22:49:57.558766+01 | 1486590597.55877 |                 0 |               5 |                   451 |                  110 |              47716 |        694421 |             6940 |        17074613 |                     0 |     103031886 | 2017-02-08 22:25:38.675853+01

 2017-02-08 22:49:58.742791+01 | 1486590598.74279 |                 0 |               5 |                   451 |                  110 |              47716 |        695021 |             6946 |        17137560 |                     0 |     103134872 | 2017-02-08 22:25:38.675853+01

 2017-02-08 22:49:59.965386+01 | 1486590599.96539 |                 0 |               5 |                   451 |                  110 |              47716 |        695621 |             6952 |        17137560 |                     0 |     103236843 | 2017-02-08 22:25:38.675853+01

 2017-02-08 22:50:01.15571+01 | 1486590601.15571 |                 0 |               5 |                   451 |                  110 |              47716 |        696221 |             6958 |        17137560 |                     0 |     103336655 | 2017-02-08 22:25:38.675853+01

 2017-02-08 22:50:02.299108+01 | 1486590602.29911 |                 0 |               5 |                   451 |                  110 |              47716 |        696821 |             6964 |        17137560 |                     0 |     103440537 | 2017-02-08 22:25:38.675853+01

 2017-02-08 22:50:03.497976+01 | 1486590603.49798 |                 0 |               5 |                   451 |                  110 |              47716 |        697321 |             6969 |        17200496 |                     0 |     103523413 | 2017-02-08 22:25:38.675853+01

 2017-02-08 22:50:04.721865+01 | 1486590604.72186 |                 0 |               5 |                   451 |                  110 |              47716 |        697921 |             6975 |        17200496 |                     0 |     103626392 | 2017-02-08 22:25:38.675853+01

 2017-02-08 22:50:05.924852+01 | 1486590605.92485 |                 0 |               5 |                   451 |                  110 |              47716 |        698621 |             6982 |        17200496 |                     0 |     103743057 | 2017-02-08 22:25:38.675853+01

 2017-02-08 22:50:07.142899+01 | 1486590607.1429 |                 0 |               5 |                   451 |                  110 |              47716 |        699221 |             6988 |        17200496 |                     0 |     103847148 | 2017-02-08 22:25:38.675853+01

 2017-02-08 22:50:08.357374+01 | 1486590608.35737 |                 0 |               5 |                   451 |                  110 |              47716 |        699821 |             6994 |        17263433 |                     0 |     103949599 | 2017-02-08 22:25:38.675853+01

 2017-02-08 22:50:09.538322+01 | 1486590609.53832 |                 0 |               5 |                   451 |                  110 |              47716 |        700421 |             7000 |        17263433 |                     0 |     104051143 | 2017-02-08 22:25:38.675853+01

 2017-02-08 22:50:10.719204+01 | 1486590610.7192 |                 0 |               5 |                   451 |                  110 |              47716 |        700921 |             7005 |        17263433 |                     0 |     104138404 | 2017-02-08 22:25:38.675853+01

 2017-02-08 22:50:11.931333+01 | 1486590611.93133 |                 0 |               5 |                   451 |                  110 |              47716 |        701521 |             7011 |        17263433 |                     0 |     104239320 | 2017-02-08 22:25:38.675853+01

 2017-02-08 22:50:13.170514+01 | 1486590613.17051 |                 0 |               5 |                   451 |                  110 |              47716 |        702221 |             7018 |        17263433 |                     0 |     104360521 | 2017-02-08 22:25:38.675853+01

 2017-02-08 22:50:14.294346+01 | 1486590614.29435 |                 0 |               5 |                   451 |                  110 |              47716 |        702721 |             7023 |        17326369 |                     0 |     104445800 | 2017-02-08 22:25:38.675853+01

 2017-02-08 22:50:15.480489+01 | 1486590615.48049 |                 0 |               5 |                   451 |                  110 |              47716 |        703321 |             7029 |        17326369 |                     0 |     104545721 | 2017-02-08 22:25:38.675853+01

 2017-02-08 22:50:16.676789+01 | 1486590616.67679 |                 0 |               5 |                   451 |                  110 |              47716 |        703921 |             7035 |        17326369 |                     0 |     104648620 | 2017-02-08 22:25:38.675853+01

 2017-02-08 22:50:17.882472+01 | 1486590617.88247 |                 0 |               5 |                   451 |                  110 |              47716 |        704521 |             7041 |        17326369 |                     0 |     104748581 | 2017-02-08 22:25:38.675853+01

 2017-02-08 22:50:19.073209+01 | 1486590619.07321 |                 0 |               5 |                   451 |                  110 |              47716 |        705121 |             7047 |        17389405 |                     0 |     104853183 | 2017-02-08 22:25:38.675853+01

 2017-02-08 22:50:20.291728+01 | 1486590620.29173 |                 0 |               5 |                   451 |                  110 |              47716 |        705721 |             7053 |        17389405 |                     0 |     104956275 | 2017-02-08 22:25:38.675853+01

 2017-02-08 22:50:21.496707+01 | 1486590621.49671 |                 0 |               5 |                   451 |                  110 |              47716 |        706321 |             7059 |        17389405 |                     0 |     105056093 | 2017-02-08 22:25:38.675853+01

 2017-02-08 22:50:22.770455+01 | 1486590622.77045 |                 0 |               5 |                   451 |                  110 |              47716 |        706921 |             7065 |        17389405 |                     0 |     105159507 | 2017-02-08 22:25:38.675853+01

 2017-02-08 22:50:23.975993+01 | 1486590623.97599 |                 0 |               5 |                   451 |                  110 |              47716 |        707521 |             7071 |        17452341 |                     0 |     105260966 | 2017-02-08 22:25:38.675853+01

 2017-02-08 22:50:25.147371+01 | 1486590625.14737 |                 0 |               5 |                   451 |                  110 |              47716 |        708121 |             7077 |        17452341 |                     0 |     105362037 | 2017-02-08 22:25:38.675853+01

 2017-02-08 22:50:26.322298+01 | 1486590626.3223 |                 0 |               5 |                   451 |                  110 |              47716 |        708721 |             7083 |        17452341 |                     0 |     105463487 | 2017-02-08 22:25:38.675853+01

 2017-02-08 22:50:27.47459+01 | 1486590627.47459 |                 0 |               5 |                   451 |                  110 |              47716 |        709321 |             7089 |        17452341 |                     0 |     105567586 | 2017-02-08 22:25:38.675853+01

 2017-02-08 22:50:28.709899+01 | 1486590628.7099 |                 0 |               5 |                   451 |                  110 |              47716 |        709821 |             7094 |        17452341 |                     0 |     105651920 | 2017-02-08 22:25:38.675853+01

 2017-02-08 22:50:29.890423+01 | 1486590629.89042 |                 0 |               5 |                   451 |                  110 |              47716 |        710521 |             7101 |        17515278 |                     0 |     105769274 | 2017-02-08 22:25:38.675853+01

 2017-02-08 22:50:31.076297+01 | 1486590631.0763 |                 0 |               5 |                   451 |                  110 |              47716 |        711021 |             7106 |        17515278 |                     0 |     105856422 | 2017-02-08 22:25:38.675853+01

 2017-02-08 22:50:32.24096+01 | 1486590632.24096 |                 0 |               5 |                   451 |                  110 |              47716 |        711621 |             7112 |        17515278 |                     0 |     105959560 | 2017-02-08 22:25:38.675853+01

 2017-02-08 22:50:33.514312+01 | 1486590633.51431 |                 0 |               5 |                   451 |                  110 |              47716 |        712221 |             7118 |        17515278 |                     0 |     106060825 | 2017-02-08 22:25:38.675853+01

 2017-02-08 22:50:34.705715+01 | 1486590634.70571 |                 0 |               5 |                   451 |                  110 |              47716 |        712921 |             7125 |        17578214 |                     0 |     106179391 | 2017-02-08 22:25:38.675853+01

 2017-02-08 22:50:35.856272+01 | 1486590635.85627 |                 0 |               5 |                   451 |                  110 |              47716 |        713421 |             7130 |        17578214 |                     0 |     106265598 | 2017-02-08 22:25:38.675853+01

 2017-02-08 22:50:37.041558+01 | 1486590637.04156 |                 0 |               5 |                   451 |                  110 |              47716 |        714021 |             7136 |        17578214 |                     0 |     106367517 | 2017-02-08 22:25:38.675853+01

 2017-02-08 22:50:38.21344+01 | 1486590638.21344 |                 0 |               5 |                   451 |                  110 |              47716 |        714621 |             7142 |        17578214 |                     0 |     106469820 | 2017-02-08 22:25:38.675853+01

 2017-02-08 22:50:39.398245+01 | 1486590639.39825 |                 0 |               5 |                   451 |                  110 |              47716 |        715221 |             7148 |        17641150 |                     0 |     106573792 | 2017-02-08 22:25:38.675853+01

 2017-02-08 22:50:40.619974+01 | 1486590640.61997 |                 0 |               5 |                   451 |                  110 |              47716 |        715821 |             7154 |        17641150 |                     0 |     106676371 | 2017-02-08 22:25:38.675853+01

 2017-02-08 22:50:41.869596+01 | 1486590641.8696 |                 0 |               5 |                   451 |                  110 |              47716 |        716421 |             7160 |        17641150 |                     0 |     106777878 | 2017-02-08 22:25:38.675853+01

 2017-02-08 22:50:43.085458+01 | 1486590643.08546 |                 0 |               5 |                   451 |                  110 |              47716 |        717021 |             7166 |        17641150 |                     0 |     106879399 | 2017-02-08 22:25:38.675853+01

 2017-02-08 22:50:44.296123+01 | 1486590644.29612 |                 0 |               5 |                   451 |                  110 |              47716 |        717621 |             7172 |        17641150 |                     0 |     106979665 | 2017-02-08 22:25:38.675853+01

 2017-02-08 22:50:45.408643+01 | 1486590645.40864 |                 0 |               5 |                   451 |                  110 |              47716 |        718221 |             7178 |        17704180 |                     0 |     107081602 | 2017-02-08 22:25:38.675853+01

 2017-02-08 22:50:46.499455+01 | 1486590646.49945 |                 0 |               5 |                   451 |                  110 |              47716 |        718721 |             7183 |        17704180 |                     0 |     107168039 | 2017-02-08 22:25:38.675853+01

 2017-02-08 22:50:47.73103+01 | 1486590647.73103 |                 0 |               5 |                   451 |                  110 |              47716 |        719321 |             7189 |        17704180 |                     0 |     107269181 | 2017-02-08 22:25:38.675853+01

 2017-02-08 22:50:48.946511+01 | 1486590648.94651 |                 0 |               5 |                   451 |                  110 |              47716 |        719921 |             7195 |        17704180 |                     0 |     107370634 | 2017-02-08 22:25:38.675853+01

 2017-02-08 22:50:50.11196+01 | 1486590650.11196 |                 0 |               5 |                   451 |                  110 |              47716 |        720521 |             7201 |        17767128 |                     0 |     107469726 | 2017-02-08 22:25:38.675853+01

 2017-02-08 22:50:51.307288+01 | 1486590651.30729 |                 0 |               5 |                   451 |                  110 |              47716 |        721121 |             7207 |        17767128 |                     0 |     107575107 | 2017-02-08 22:25:38.675853+01

 2017-02-08 22:50:52.478371+01 | 1486590652.47837 |                 0 |               5 |                   451 |                  110 |              47716 |        721721 |             7213 |        17767128 |                     0 |     107677132 | 2017-02-08 22:25:38.675853+01

 2017-02-08 22:50:53.698531+01 | 1486590653.69853 |                 0 |               5 |                   451 |                  110 |              47716 |        722321 |             7219 |        17767128 |                     0 |     107775489 | 2017-02-08 22:25:38.675853+01

 2017-02-08 22:50:54.901299+01 | 1486590654.9013 |                 0 |               5 |                   451 |                  110 |              47716 |        722921 |             7225 |        17830064 |                     0 |     107876361 | 2017-02-08 22:25:38.675853+01

 2017-02-08 22:50:56.046689+01 | 1486590656.04669 |                 0 |               5 |                   451 |                  110 |              47716 |        723521 |             7231 |        17830064 |                     0 |     107978690 | 2017-02-08 22:25:38.675853+01

 2017-02-08 22:50:57.187692+01 | 1486590657.18769 |                 0 |               5 |                   451 |                  110 |              47716 |        724021 |             7236 |        17830064 |                     0 |     108061517 | 2017-02-08 22:25:38.675853+01

 2017-02-08 22:50:58.393476+01 | 1486590658.39348 |                 0 |               5 |                   451 |                  110 |              47716 |        724621 |             7242 |        17830064 |                     0 |     108163067 | 2017-02-08 22:25:38.675853+01

 2017-02-08 22:50:59.563827+01 | 1486590659.56383 |                 0 |               5 |                   451 |                  110 |              47716 |        725221 |             7248 |        17830064 |                     0 |     108268318 | 2017-02-08 22:25:38.675853+01

 2017-02-08 22:51:00.796125+01 | 1486590660.79612 |                 0 |               5 |                   451 |                  110 |              47716 |        725821 |             7254 |        17893000 |                     0 |     108369598 | 2017-02-08 22:25:38.675853+01

 2017-02-08 22:51:01.950835+01 | 1486590661.95083 |                 0 |               5 |                   451 |                  110 |              47716 |        726421 |             7260 |        17893000 |                     0 |     108469475 | 2017-02-08 22:25:38.675853+01

 2017-02-08 22:51:03.104793+01 | 1486590663.10479 |                 0 |               5 |                   451 |                  110 |              47716 |        727021 |             7266 |        17893000 |                     0 |     108573236 | 2017-02-08 22:25:38.675853+01

 2017-02-08 22:51:04.353592+01 | 1486590664.35359 |                 0 |               5 |                   451 |                  110 |              47716 |        727621 |             7272 |        17893000 |                     0 |     108674092 | 2017-02-08 22:25:38.675853+01

 2017-02-08 22:51:05.57703+01 | 1486590665.57703 |                 0 |               5 |                   451 |                  110 |              47716 |        728221 |             7278 |        17955936 |                     0 |     108774407 | 2017-02-08 22:25:38.675853+01

 2017-02-08 22:51:06.741019+01 | 1486590666.74102 |                 0 |               5 |                   451 |                  110 |              47716 |        728821 |             7284 |        17955936 |                     0 |     108875290 | 2017-02-08 22:25:38.675853+01

 2017-02-08 22:51:07.91976+01 | 1486590667.91976 |                 0 |               5 |                   451 |                  110 |              47716 |        729421 |             7290 |        17955936 |                     0 |     108980733 | 2017-02-08 22:25:38.675853+01

 2017-02-08 22:51:09.114657+01 | 1486590669.11466 |                 0 |               5 |                   451 |                  110 |              47716 |        729921 |             7295 |        17955936 |                     0 |     109061363 | 2017-02-08 22:25:38.675853+01

 2017-02-08 22:51:10.341912+01 | 1486590670.34191 |                 0 |               5 |                   451 |                  110 |              47716 |        730521 |             7301 |        17955936 |                     0 |     109166304 | 2017-02-08 22:25:38.675853+01

 2017-02-08 22:51:11.469264+01 | 1486590671.46926 |                 0 |               5 |                   451 |                  110 |              47716 |        731121 |             7307 |        18018872 |                     0 |     109267080 | 2017-02-08 22:25:38.675853+01

 2017-02-08 22:51:12.688206+01 | 1486590672.68821 |                 0 |               5 |                   451 |                  110 |              47716 |        731721 |             7313 |        18018872 |                     0 |     109367470 | 2017-02-08 22:25:38.675853+01

 2017-02-08 22:51:13.956853+01 | 1486590673.95685 |                 0 |               5 |                   451 |                  110 |              47716 |        732421 |             7320 |        18018872 |                     0 |     109485988 | 2017-02-08 22:25:38.675853+01

 2017-02-08 22:51:15.074573+01 | 1486590675.07457 |                 0 |               5 |                   451 |                  110 |              47716 |        732921 |             7325 |        18018872 |                     0 |     109571741 | 2017-02-08 22:25:38.675853+01

 2017-02-08 22:51:16.294434+01 | 1486590676.29443 |                 0 |               5 |                   451 |                  110 |              47716 |        733521 |             7331 |        18081808 |                     0 |     109668741 | 2017-02-08 22:25:38.675853+01

 2017-02-08 22:51:17.527873+01 | 1486590677.52787 |                 0 |               5 |                   451 |                  110 |              47716 |        734121 |             7337 |        18081808 |                     0 |     109770194 | 2017-02-08 22:25:38.675853+01

 2017-02-08 22:51:18.807547+01 | 1486590678.80755 |                 0 |               5 |                   451 |                  110 |              47716 |        734721 |             7343 |        18081808 |                     0 |     109869898 | 2017-02-08 22:25:38.675853+01

 2017-02-08 22:51:19.938072+01 | 1486590679.93807 |                 0 |               5 |                   451 |                  110 |              47716 |        735321 |             7349 |        18081808 |                     0 |     109974437 | 2017-02-08 22:25:38.675853+01

 2017-02-08 22:51:21.144184+01 | 1486590681.14418 |                 0 |               5 |                   451 |                  110 |              47716 |        735921 |             7355 |        18144744 |                     0 |     110073901 | 2017-02-08 22:25:38.675853+01

 2017-02-08 22:51:22.290337+01 | 1486590682.29034 |                 0 |               5 |                   451 |                  110 |              47716 |        736521 |             7361 |        18144744 |                     0 |     110173947 | 2017-02-08 22:25:38.675853+01

 2017-02-08 22:51:23.458292+01 | 1486590683.45829 |                 0 |               5 |                   451 |                  110 |              47716 |        737121 |             7367 |        18144744 |                     0 |     110277165 | 2017-02-08 22:25:38.675853+01

 2017-02-08 22:51:24.624963+01 | 1486590684.62496 |                 0 |               5 |                   451 |                  110 |              47716 |        737721 |             7373 |        18144744 |                     0 |     110378926 | 2017-02-08 22:25:38.675853+01

 2017-02-08 22:51:25.738798+01 | 1486590685.7388 |                 0 |               5 |                   451 |                  110 |              47716 |        738221 |             7378 |        18144744 |                     0 |     110461026 | 2017-02-08 22:25:38.675853+01

 2017-02-08 22:51:26.909401+01 | 1486590686.9094 |                 0 |               5 |                   451 |                  110 |              47716 |        738821 |             7384 |        18207781 |                     0 |     110565947 | 2017-02-08 22:25:38.675853+01

 2017-02-08 22:51:28.108937+01 | 1486590688.10894 |                 0 |               5 |                   451 |                  110 |              47716 |        739421 |             7390 |        18207781 |                     0 |     110666809 | 2017-02-08 22:25:38.675853+01

 2017-02-08 22:51:29.339099+01 | 1486590689.3391 |                 0 |               5 |                   451 |                  110 |              47716 |        740021 |             7396 |        18207781 |                     0 |     110769091 | 2017-02-08 22:25:38.675853+01

