 2017-02-08 22:20:15.22815+01 | 1486588815.22815 | pgbench_branches_pkey |            16384
 2017-02-08 22:20:15.22815+01 | 1486588815.22815 | pgbench_tellers_pkey  |            32768
 2017-02-08 22:20:15.22815+01 | 1486588815.22815 | pgbench_accounts_pkey |        112336896

 2017-02-08 22:20:16.373812+01 | 1486588816.37381 | pgbench_branches_pkey |            16384
 2017-02-08 22:20:16.373812+01 | 1486588816.37381 | pgbench_tellers_pkey  |            32768
 2017-02-08 22:20:16.373812+01 | 1486588816.37381 | pgbench_accounts_pkey |        112336896

 2017-02-08 22:20:17.555545+01 | 1486588817.55555 | pgbench_branches_pkey |            16384
 2017-02-08 22:20:17.555545+01 | 1486588817.55555 | pgbench_tellers_pkey  |            32768
 2017-02-08 22:20:17.555545+01 | 1486588817.55555 | pgbench_accounts_pkey |        112336896

 2017-02-08 22:20:18.762844+01 | 1486588818.76284 | pgbench_branches_pkey |            16384
 2017-02-08 22:20:18.762844+01 | 1486588818.76284 | pgbench_tellers_pkey  |            32768
 2017-02-08 22:20:18.762844+01 | 1486588818.76284 | pgbench_accounts_pkey |        112336896

 2017-02-08 22:20:20.012278+01 | 1486588820.01228 | pgbench_branches_pkey |            16384
 2017-02-08 22:20:20.012278+01 | 1486588820.01228 | pgbench_tellers_pkey  |            32768
 2017-02-08 22:20:20.012278+01 | 1486588820.01228 | pgbench_accounts_pkey |        112336896

 2017-02-08 22:20:21.228292+01 | 1486588821.22829 | pgbench_branches_pkey |            16384
 2017-02-08 22:20:21.228292+01 | 1486588821.22829 | pgbench_tellers_pkey  |            32768
 2017-02-08 22:20:21.228292+01 | 1486588821.22829 | pgbench_accounts_pkey |        112336896

 2017-02-08 22:20:22.386923+01 | 1486588822.38692 | pgbench_branches_pkey |            16384
 2017-02-08 22:20:22.386923+01 | 1486588822.38692 | pgbench_tellers_pkey  |            32768
 2017-02-08 22:20:22.386923+01 | 1486588822.38692 | pgbench_accounts_pkey |        112336896

 2017-02-08 22:20:23.57467+01 | 1486588823.57467 | pgbench_branches_pkey |            16384
 2017-02-08 22:20:23.57467+01 | 1486588823.57467 | pgbench_tellers_pkey  |            32768
 2017-02-08 22:20:23.57467+01 | 1486588823.57467 | pgbench_accounts_pkey |        112336896

 2017-02-08 22:20:24.812541+01 | 1486588824.81254 | pgbench_branches_pkey |            16384
 2017-02-08 22:20:24.812541+01 | 1486588824.81254 | pgbench_tellers_pkey  |            32768
 2017-02-08 22:20:24.812541+01 | 1486588824.81254 | pgbench_accounts_pkey |        112336896

 2017-02-08 22:20:26.021667+01 | 1486588826.02167 | pgbench_branches_pkey |            16384
 2017-02-08 22:20:26.021667+01 | 1486588826.02167 | pgbench_tellers_pkey  |            32768
 2017-02-08 22:20:26.021667+01 | 1486588826.02167 | pgbench_accounts_pkey |        112336896

 2017-02-08 22:20:27.210784+01 | 1486588827.21078 | pgbench_branches_pkey |            16384
 2017-02-08 22:20:27.210784+01 | 1486588827.21078 | pgbench_tellers_pkey  |            32768
 2017-02-08 22:20:27.210784+01 | 1486588827.21078 | pgbench_accounts_pkey |        112336896

 2017-02-08 22:20:28.358625+01 | 1486588828.35862 | pgbench_branches_pkey |            16384
 2017-02-08 22:20:28.358625+01 | 1486588828.35862 | pgbench_tellers_pkey  |            32768
 2017-02-08 22:20:28.358625+01 | 1486588828.35862 | pgbench_accounts_pkey |        112336896

 2017-02-08 22:20:29.612653+01 | 1486588829.61265 | pgbench_branches_pkey |            16384
 2017-02-08 22:20:29.612653+01 | 1486588829.61265 | pgbench_tellers_pkey  |            32768
 2017-02-08 22:20:29.612653+01 | 1486588829.61265 | pgbench_accounts_pkey |        112336896

 2017-02-08 22:20:30.826641+01 | 1486588830.82664 | pgbench_branches_pkey |            16384
 2017-02-08 22:20:30.826641+01 | 1486588830.82664 | pgbench_tellers_pkey  |            32768
 2017-02-08 22:20:30.826641+01 | 1486588830.82664 | pgbench_accounts_pkey |        112336896

 2017-02-08 22:20:32.054259+01 | 1486588832.05426 | pgbench_branches_pkey |            16384
 2017-02-08 22:20:32.054259+01 | 1486588832.05426 | pgbench_tellers_pkey  |            32768
 2017-02-08 22:20:32.054259+01 | 1486588832.05426 | pgbench_accounts_pkey |        112336896

 2017-02-08 22:20:33.21905+01 | 1486588833.21905 | pgbench_branches_pkey |            16384
 2017-02-08 22:20:33.21905+01 | 1486588833.21905 | pgbench_tellers_pkey  |            32768
 2017-02-08 22:20:33.21905+01 | 1486588833.21905 | pgbench_accounts_pkey |        112336896

 2017-02-08 22:20:34.365376+01 | 1486588834.36538 | pgbench_branches_pkey |            16384
 2017-02-08 22:20:34.365376+01 | 1486588834.36538 | pgbench_tellers_pkey  |            32768
 2017-02-08 22:20:34.365376+01 | 1486588834.36538 | pgbench_accounts_pkey |        112336896

 2017-02-08 22:20:35.522428+01 | 1486588835.52243 | pgbench_branches_pkey |            16384
 2017-02-08 22:20:35.522428+01 | 1486588835.52243 | pgbench_tellers_pkey  |            32768
 2017-02-08 22:20:35.522428+01 | 1486588835.52243 | pgbench_accounts_pkey |        112336896

 2017-02-08 22:20:36.667015+01 | 1486588836.66702 | pgbench_branches_pkey |            16384
 2017-02-08 22:20:36.667015+01 | 1486588836.66702 | pgbench_tellers_pkey  |            32768
 2017-02-08 22:20:36.667015+01 | 1486588836.66702 | pgbench_accounts_pkey |        112336896

 2017-02-08 22:20:37.880636+01 | 1486588837.88064 | pgbench_branches_pkey |            16384
 2017-02-08 22:20:37.880636+01 | 1486588837.88064 | pgbench_tellers_pkey  |            32768
 2017-02-08 22:20:37.880636+01 | 1486588837.88064 | pgbench_accounts_pkey |        112336896

 2017-02-08 22:20:39.037776+01 | 1486588839.03778 | pgbench_branches_pkey |            16384
 2017-02-08 22:20:39.037776+01 | 1486588839.03778 | pgbench_tellers_pkey  |            32768
 2017-02-08 22:20:39.037776+01 | 1486588839.03778 | pgbench_accounts_pkey |        112336896

 2017-02-08 22:20:40.274228+01 | 1486588840.27423 | pgbench_branches_pkey |            16384
 2017-02-08 22:20:40.274228+01 | 1486588840.27423 | pgbench_tellers_pkey  |            32768
 2017-02-08 22:20:40.274228+01 | 1486588840.27423 | pgbench_accounts_pkey |        112336896

 2017-02-08 22:20:41.494147+01 | 1486588841.49415 | pgbench_branches_pkey |            16384
 2017-02-08 22:20:41.494147+01 | 1486588841.49415 | pgbench_tellers_pkey  |            32768
 2017-02-08 22:20:41.494147+01 | 1486588841.49415 | pgbench_accounts_pkey |        112336896

 2017-02-08 22:20:42.724016+01 | 1486588842.72402 | pgbench_branches_pkey |            16384
 2017-02-08 22:20:42.724016+01 | 1486588842.72402 | pgbench_tellers_pkey  |            32768
 2017-02-08 22:20:42.724016+01 | 1486588842.72402 | pgbench_accounts_pkey |        112336896

 2017-02-08 22:20:43.881154+01 | 1486588843.88115 | pgbench_branches_pkey |            16384
 2017-02-08 22:20:43.881154+01 | 1486588843.88115 | pgbench_tellers_pkey  |            32768
 2017-02-08 22:20:43.881154+01 | 1486588843.88115 | pgbench_accounts_pkey |        112336896

 2017-02-08 22:20:45.100216+01 | 1486588845.10022 | pgbench_branches_pkey |            16384
 2017-02-08 22:20:45.100216+01 | 1486588845.10022 | pgbench_tellers_pkey  |            32768
 2017-02-08 22:20:45.100216+01 | 1486588845.10022 | pgbench_accounts_pkey |        112336896

 2017-02-08 22:20:46.323568+01 | 1486588846.32357 | pgbench_branches_pkey |            16384
 2017-02-08 22:20:46.323568+01 | 1486588846.32357 | pgbench_tellers_pkey  |            32768
 2017-02-08 22:20:46.323568+01 | 1486588846.32357 | pgbench_accounts_pkey |        112336896

 2017-02-08 22:20:47.573623+01 | 1486588847.57362 | pgbench_branches_pkey |            16384
 2017-02-08 22:20:47.573623+01 | 1486588847.57362 | pgbench_tellers_pkey  |            32768
 2017-02-08 22:20:47.573623+01 | 1486588847.57362 | pgbench_accounts_pkey |        112336896

 2017-02-08 22:20:48.810623+01 | 1486588848.81062 | pgbench_branches_pkey |            16384
 2017-02-08 22:20:48.810623+01 | 1486588848.81062 | pgbench_tellers_pkey  |            32768
 2017-02-08 22:20:48.810623+01 | 1486588848.81062 | pgbench_accounts_pkey |        112336896

 2017-02-08 22:20:50.084652+01 | 1486588850.08465 | pgbench_branches_pkey |            16384
 2017-02-08 22:20:50.084652+01 | 1486588850.08465 | pgbench_tellers_pkey  |            32768
 2017-02-08 22:20:50.084652+01 | 1486588850.08465 | pgbench_accounts_pkey |        112336896

 2017-02-08 22:20:51.343199+01 | 1486588851.3432 | pgbench_branches_pkey |            16384
 2017-02-08 22:20:51.343199+01 | 1486588851.3432 | pgbench_tellers_pkey  |            32768
 2017-02-08 22:20:51.343199+01 | 1486588851.3432 | pgbench_accounts_pkey |        112336896

 2017-02-08 22:20:52.601792+01 | 1486588852.60179 | pgbench_branches_pkey |            16384
 2017-02-08 22:20:52.601792+01 | 1486588852.60179 | pgbench_tellers_pkey  |            32768
 2017-02-08 22:20:52.601792+01 | 1486588852.60179 | pgbench_accounts_pkey |        112336896

 2017-02-08 22:20:53.788497+01 | 1486588853.7885 | pgbench_branches_pkey |            16384
 2017-02-08 22:20:53.788497+01 | 1486588853.7885 | pgbench_tellers_pkey  |            32768
 2017-02-08 22:20:53.788497+01 | 1486588853.7885 | pgbench_accounts_pkey |        112336896

 2017-02-08 22:20:54.999603+01 | 1486588854.9996 | pgbench_branches_pkey |            16384
 2017-02-08 22:20:54.999603+01 | 1486588854.9996 | pgbench_tellers_pkey  |            32768
 2017-02-08 22:20:54.999603+01 | 1486588854.9996 | pgbench_accounts_pkey |        112336896

 2017-02-08 22:20:56.230134+01 | 1486588856.23013 | pgbench_branches_pkey |            16384
 2017-02-08 22:20:56.230134+01 | 1486588856.23013 | pgbench_tellers_pkey  |            32768
 2017-02-08 22:20:56.230134+01 | 1486588856.23013 | pgbench_accounts_pkey |        112336896

 2017-02-08 22:20:57.456765+01 | 1486588857.45676 | pgbench_branches_pkey |            16384
 2017-02-08 22:20:57.456765+01 | 1486588857.45676 | pgbench_tellers_pkey  |            32768
 2017-02-08 22:20:57.456765+01 | 1486588857.45676 | pgbench_accounts_pkey |        112336896

 2017-02-08 22:20:58.704555+01 | 1486588858.70456 | pgbench_branches_pkey |            16384
 2017-02-08 22:20:58.704555+01 | 1486588858.70456 | pgbench_tellers_pkey  |            32768
 2017-02-08 22:20:58.704555+01 | 1486588858.70456 | pgbench_accounts_pkey |        112336896

 2017-02-08 22:20:59.93386+01 | 1486588859.93386 | pgbench_branches_pkey |            16384
 2017-02-08 22:20:59.93386+01 | 1486588859.93386 | pgbench_tellers_pkey  |            32768
 2017-02-08 22:20:59.93386+01 | 1486588859.93386 | pgbench_accounts_pkey |        112336896

 2017-02-08 22:21:01.171736+01 | 1486588861.17174 | pgbench_branches_pkey |            16384
 2017-02-08 22:21:01.171736+01 | 1486588861.17174 | pgbench_tellers_pkey  |            32768
 2017-02-08 22:21:01.171736+01 | 1486588861.17174 | pgbench_accounts_pkey |        112336896

 2017-02-08 22:21:02.390856+01 | 1486588862.39086 | pgbench_branches_pkey |            16384
 2017-02-08 22:21:02.390856+01 | 1486588862.39086 | pgbench_tellers_pkey  |            32768
 2017-02-08 22:21:02.390856+01 | 1486588862.39086 | pgbench_accounts_pkey |        112336896

 2017-02-08 22:21:03.623161+01 | 1486588863.62316 | pgbench_branches_pkey |            16384
 2017-02-08 22:21:03.623161+01 | 1486588863.62316 | pgbench_tellers_pkey  |            32768
 2017-02-08 22:21:03.623161+01 | 1486588863.62316 | pgbench_accounts_pkey |        112336896

 2017-02-08 22:21:04.915944+01 | 1486588864.91594 | pgbench_branches_pkey |            16384
 2017-02-08 22:21:04.915944+01 | 1486588864.91594 | pgbench_tellers_pkey  |            32768
 2017-02-08 22:21:04.915944+01 | 1486588864.91594 | pgbench_accounts_pkey |        112336896

 2017-02-08 22:21:06.148891+01 | 1486588866.14889 | pgbench_branches_pkey |            16384
 2017-02-08 22:21:06.148891+01 | 1486588866.14889 | pgbench_tellers_pkey  |            32768
 2017-02-08 22:21:06.148891+01 | 1486588866.14889 | pgbench_accounts_pkey |        112336896

 2017-02-08 22:21:07.328298+01 | 1486588867.3283 | pgbench_branches_pkey |            16384
 2017-02-08 22:21:07.328298+01 | 1486588867.3283 | pgbench_tellers_pkey  |            32768
 2017-02-08 22:21:07.328298+01 | 1486588867.3283 | pgbench_accounts_pkey |        112336896

 2017-02-08 22:21:08.55815+01 | 1486588868.55815 | pgbench_branches_pkey |            16384
 2017-02-08 22:21:08.55815+01 | 1486588868.55815 | pgbench_tellers_pkey  |            32768
 2017-02-08 22:21:08.55815+01 | 1486588868.55815 | pgbench_accounts_pkey |        112336896

 2017-02-08 22:21:09.786202+01 | 1486588869.7862 | pgbench_branches_pkey |            16384
 2017-02-08 22:21:09.786202+01 | 1486588869.7862 | pgbench_tellers_pkey  |            32768
 2017-02-08 22:21:09.786202+01 | 1486588869.7862 | pgbench_accounts_pkey |        112336896

 2017-02-08 22:21:11.042303+01 | 1486588871.0423 | pgbench_branches_pkey |            16384
 2017-02-08 22:21:11.042303+01 | 1486588871.0423 | pgbench_tellers_pkey  |            32768
 2017-02-08 22:21:11.042303+01 | 1486588871.0423 | pgbench_accounts_pkey |        112336896

 2017-02-08 22:21:12.298766+01 | 1486588872.29877 | pgbench_branches_pkey |            16384
 2017-02-08 22:21:12.298766+01 | 1486588872.29877 | pgbench_tellers_pkey  |            32768
 2017-02-08 22:21:12.298766+01 | 1486588872.29877 | pgbench_accounts_pkey |        112336896

 2017-02-08 22:21:13.537979+01 | 1486588873.53798 | pgbench_branches_pkey |            16384
 2017-02-08 22:21:13.537979+01 | 1486588873.53798 | pgbench_tellers_pkey  |            32768
 2017-02-08 22:21:13.537979+01 | 1486588873.53798 | pgbench_accounts_pkey |        112336896

 2017-02-08 22:21:14.747067+01 | 1486588874.74707 | pgbench_branches_pkey |            16384
 2017-02-08 22:21:14.747067+01 | 1486588874.74707 | pgbench_tellers_pkey  |            32768
 2017-02-08 22:21:14.747067+01 | 1486588874.74707 | pgbench_accounts_pkey |        112336896

 2017-02-08 22:21:15.933629+01 | 1486588875.93363 | pgbench_branches_pkey |            16384
 2017-02-08 22:21:15.933629+01 | 1486588875.93363 | pgbench_tellers_pkey  |            32768
 2017-02-08 22:21:15.933629+01 | 1486588875.93363 | pgbench_accounts_pkey |        112336896

 2017-02-08 22:21:17.151046+01 | 1486588877.15105 | pgbench_branches_pkey |            16384
 2017-02-08 22:21:17.151046+01 | 1486588877.15105 | pgbench_tellers_pkey  |            32768
 2017-02-08 22:21:17.151046+01 | 1486588877.15105 | pgbench_accounts_pkey |        112336896

 2017-02-08 22:21:18.327089+01 | 1486588878.32709 | pgbench_branches_pkey |            16384
 2017-02-08 22:21:18.327089+01 | 1486588878.32709 | pgbench_tellers_pkey  |            32768
 2017-02-08 22:21:18.327089+01 | 1486588878.32709 | pgbench_accounts_pkey |        112336896

 2017-02-08 22:21:19.523438+01 | 1486588879.52344 | pgbench_branches_pkey |            16384
 2017-02-08 22:21:19.523438+01 | 1486588879.52344 | pgbench_tellers_pkey  |            32768
 2017-02-08 22:21:19.523438+01 | 1486588879.52344 | pgbench_accounts_pkey |        112336896

 2017-02-08 22:21:20.761281+01 | 1486588880.76128 | pgbench_branches_pkey |            16384
 2017-02-08 22:21:20.761281+01 | 1486588880.76128 | pgbench_tellers_pkey  |            32768
 2017-02-08 22:21:20.761281+01 | 1486588880.76128 | pgbench_accounts_pkey |        112336896

 2017-02-08 22:21:21.926727+01 | 1486588881.92673 | pgbench_branches_pkey |            16384
 2017-02-08 22:21:21.926727+01 | 1486588881.92673 | pgbench_tellers_pkey  |            32768
 2017-02-08 22:21:21.926727+01 | 1486588881.92673 | pgbench_accounts_pkey |        112336896

 2017-02-08 22:21:23.141126+01 | 1486588883.14113 | pgbench_branches_pkey |            16384
 2017-02-08 22:21:23.141126+01 | 1486588883.14113 | pgbench_tellers_pkey  |            32768
 2017-02-08 22:21:23.141126+01 | 1486588883.14113 | pgbench_accounts_pkey |        112336896

 2017-02-08 22:21:24.396052+01 | 1486588884.39605 | pgbench_branches_pkey |            16384
 2017-02-08 22:21:24.396052+01 | 1486588884.39605 | pgbench_tellers_pkey  |            32768
 2017-02-08 22:21:24.396052+01 | 1486588884.39605 | pgbench_accounts_pkey |        112336896

 2017-02-08 22:21:25.522732+01 | 1486588885.52273 | pgbench_branches_pkey |            16384
 2017-02-08 22:21:25.522732+01 | 1486588885.52273 | pgbench_tellers_pkey  |            32768
 2017-02-08 22:21:25.522732+01 | 1486588885.52273 | pgbench_accounts_pkey |        112336896

 2017-02-08 22:21:26.669798+01 | 1486588886.6698 | pgbench_branches_pkey |            16384
 2017-02-08 22:21:26.669798+01 | 1486588886.6698 | pgbench_tellers_pkey  |            32768
 2017-02-08 22:21:26.669798+01 | 1486588886.6698 | pgbench_accounts_pkey |        112336896

 2017-02-08 22:21:27.809825+01 | 1486588887.80982 | pgbench_branches_pkey |            16384
 2017-02-08 22:21:27.809825+01 | 1486588887.80982 | pgbench_tellers_pkey  |            32768
 2017-02-08 22:21:27.809825+01 | 1486588887.80982 | pgbench_accounts_pkey |        112336896

 2017-02-08 22:21:29.072549+01 | 1486588889.07255 | pgbench_branches_pkey |            16384
 2017-02-08 22:21:29.072549+01 | 1486588889.07255 | pgbench_tellers_pkey  |            32768
 2017-02-08 22:21:29.072549+01 | 1486588889.07255 | pgbench_accounts_pkey |        112336896

 2017-02-08 22:21:30.266559+01 | 1486588890.26656 | pgbench_branches_pkey |            16384
 2017-02-08 22:21:30.266559+01 | 1486588890.26656 | pgbench_tellers_pkey  |            32768
 2017-02-08 22:21:30.266559+01 | 1486588890.26656 | pgbench_accounts_pkey |        112336896

 2017-02-08 22:21:31.458583+01 | 1486588891.45858 | pgbench_branches_pkey |            16384
 2017-02-08 22:21:31.458583+01 | 1486588891.45858 | pgbench_tellers_pkey  |            32768
 2017-02-08 22:21:31.458583+01 | 1486588891.45858 | pgbench_accounts_pkey |        112336896

 2017-02-08 22:21:32.660433+01 | 1486588892.66043 | pgbench_branches_pkey |            16384
 2017-02-08 22:21:32.660433+01 | 1486588892.66043 | pgbench_tellers_pkey  |            32768
 2017-02-08 22:21:32.660433+01 | 1486588892.66043 | pgbench_accounts_pkey |        112336896

 2017-02-08 22:21:33.909539+01 | 1486588893.90954 | pgbench_branches_pkey |            16384
 2017-02-08 22:21:33.909539+01 | 1486588893.90954 | pgbench_tellers_pkey  |            32768
 2017-02-08 22:21:33.909539+01 | 1486588893.90954 | pgbench_accounts_pkey |        112336896

 2017-02-08 22:21:35.143309+01 | 1486588895.14331 | pgbench_branches_pkey |            16384
 2017-02-08 22:21:35.143309+01 | 1486588895.14331 | pgbench_tellers_pkey  |            32768
 2017-02-08 22:21:35.143309+01 | 1486588895.14331 | pgbench_accounts_pkey |        112336896

 2017-02-08 22:21:36.394383+01 | 1486588896.39438 | pgbench_branches_pkey |            16384
 2017-02-08 22:21:36.394383+01 | 1486588896.39438 | pgbench_tellers_pkey  |            32768
 2017-02-08 22:21:36.394383+01 | 1486588896.39438 | pgbench_accounts_pkey |        112336896

 2017-02-08 22:21:37.575464+01 | 1486588897.57546 | pgbench_branches_pkey |            16384
 2017-02-08 22:21:37.575464+01 | 1486588897.57546 | pgbench_tellers_pkey  |            32768
 2017-02-08 22:21:37.575464+01 | 1486588897.57546 | pgbench_accounts_pkey |        112336896

 2017-02-08 22:21:38.760502+01 | 1486588898.7605 | pgbench_branches_pkey |            16384
 2017-02-08 22:21:38.760502+01 | 1486588898.7605 | pgbench_tellers_pkey  |            32768
 2017-02-08 22:21:38.760502+01 | 1486588898.7605 | pgbench_accounts_pkey |        112336896

 2017-02-08 22:21:39.930251+01 | 1486588899.93025 | pgbench_branches_pkey |            16384
 2017-02-08 22:21:39.930251+01 | 1486588899.93025 | pgbench_tellers_pkey  |            32768
 2017-02-08 22:21:39.930251+01 | 1486588899.93025 | pgbench_accounts_pkey |        112336896

 2017-02-08 22:21:41.10488+01 | 1486588901.10488 | pgbench_branches_pkey |            16384
 2017-02-08 22:21:41.10488+01 | 1486588901.10488 | pgbench_tellers_pkey  |            32768
 2017-02-08 22:21:41.10488+01 | 1486588901.10488 | pgbench_accounts_pkey |        112336896

 2017-02-08 22:21:42.34344+01 | 1486588902.34344 | pgbench_branches_pkey |            16384
 2017-02-08 22:21:42.34344+01 | 1486588902.34344 | pgbench_tellers_pkey  |            32768
 2017-02-08 22:21:42.34344+01 | 1486588902.34344 | pgbench_accounts_pkey |        112336896

 2017-02-08 22:21:43.608347+01 | 1486588903.60835 | pgbench_branches_pkey |            16384
 2017-02-08 22:21:43.608347+01 | 1486588903.60835 | pgbench_tellers_pkey  |            32768
 2017-02-08 22:21:43.608347+01 | 1486588903.60835 | pgbench_accounts_pkey |        112336896

 2017-02-08 22:21:44.847601+01 | 1486588904.8476 | pgbench_branches_pkey |            16384
 2017-02-08 22:21:44.847601+01 | 1486588904.8476 | pgbench_tellers_pkey  |            32768
 2017-02-08 22:21:44.847601+01 | 1486588904.8476 | pgbench_accounts_pkey |        112336896

 2017-02-08 22:21:46.142744+01 | 1486588906.14274 | pgbench_branches_pkey |            16384
 2017-02-08 22:21:46.142744+01 | 1486588906.14274 | pgbench_tellers_pkey  |            32768
 2017-02-08 22:21:46.142744+01 | 1486588906.14274 | pgbench_accounts_pkey |        112336896

 2017-02-08 22:21:47.343552+01 | 1486588907.34355 | pgbench_branches_pkey |            16384
 2017-02-08 22:21:47.343552+01 | 1486588907.34355 | pgbench_tellers_pkey  |            32768
 2017-02-08 22:21:47.343552+01 | 1486588907.34355 | pgbench_accounts_pkey |        112336896

 2017-02-08 22:21:48.567072+01 | 1486588908.56707 | pgbench_branches_pkey |            16384
 2017-02-08 22:21:48.567072+01 | 1486588908.56707 | pgbench_tellers_pkey  |            32768
 2017-02-08 22:21:48.567072+01 | 1486588908.56707 | pgbench_accounts_pkey |        112336896

 2017-02-08 22:21:49.802122+01 | 1486588909.80212 | pgbench_branches_pkey |            16384
 2017-02-08 22:21:49.802122+01 | 1486588909.80212 | pgbench_tellers_pkey  |            32768
 2017-02-08 22:21:49.802122+01 | 1486588909.80212 | pgbench_accounts_pkey |        112336896

 2017-02-08 22:21:51.073609+01 | 1486588911.07361 | pgbench_branches_pkey |            16384
 2017-02-08 22:21:51.073609+01 | 1486588911.07361 | pgbench_tellers_pkey  |            32768
 2017-02-08 22:21:51.073609+01 | 1486588911.07361 | pgbench_accounts_pkey |        112336896

 2017-02-08 22:21:52.282378+01 | 1486588912.28238 | pgbench_branches_pkey |            16384
 2017-02-08 22:21:52.282378+01 | 1486588912.28238 | pgbench_tellers_pkey  |            32768
 2017-02-08 22:21:52.282378+01 | 1486588912.28238 | pgbench_accounts_pkey |        112336896

 2017-02-08 22:21:53.44018+01 | 1486588913.44018 | pgbench_branches_pkey |            16384
 2017-02-08 22:21:53.44018+01 | 1486588913.44018 | pgbench_tellers_pkey  |            32768
 2017-02-08 22:21:53.44018+01 | 1486588913.44018 | pgbench_accounts_pkey |        112336896

 2017-02-08 22:21:54.688616+01 | 1486588914.68862 | pgbench_branches_pkey |            16384
 2017-02-08 22:21:54.688616+01 | 1486588914.68862 | pgbench_tellers_pkey  |            32768
 2017-02-08 22:21:54.688616+01 | 1486588914.68862 | pgbench_accounts_pkey |        112336896

 2017-02-08 22:21:55.888917+01 | 1486588915.88892 | pgbench_branches_pkey |            16384
 2017-02-08 22:21:55.888917+01 | 1486588915.88892 | pgbench_tellers_pkey  |            32768
 2017-02-08 22:21:55.888917+01 | 1486588915.88892 | pgbench_accounts_pkey |        112336896

 2017-02-08 22:21:57.045514+01 | 1486588917.04551 | pgbench_branches_pkey |            16384
 2017-02-08 22:21:57.045514+01 | 1486588917.04551 | pgbench_tellers_pkey  |            32768
 2017-02-08 22:21:57.045514+01 | 1486588917.04551 | pgbench_accounts_pkey |        112336896

 2017-02-08 22:21:58.270427+01 | 1486588918.27043 | pgbench_branches_pkey |            16384
 2017-02-08 22:21:58.270427+01 | 1486588918.27043 | pgbench_tellers_pkey  |            32768
 2017-02-08 22:21:58.270427+01 | 1486588918.27043 | pgbench_accounts_pkey |        112336896

 2017-02-08 22:21:59.522931+01 | 1486588919.52293 | pgbench_branches_pkey |            16384
 2017-02-08 22:21:59.522931+01 | 1486588919.52293 | pgbench_tellers_pkey  |            32768
 2017-02-08 22:21:59.522931+01 | 1486588919.52293 | pgbench_accounts_pkey |        112336896

 2017-02-08 22:22:00.804321+01 | 1486588920.80432 | pgbench_branches_pkey |            16384
 2017-02-08 22:22:00.804321+01 | 1486588920.80432 | pgbench_tellers_pkey  |            32768
 2017-02-08 22:22:00.804321+01 | 1486588920.80432 | pgbench_accounts_pkey |        112336896

 2017-02-08 22:22:02.007687+01 | 1486588922.00769 | pgbench_branches_pkey |            16384
 2017-02-08 22:22:02.007687+01 | 1486588922.00769 | pgbench_tellers_pkey  |            32768
 2017-02-08 22:22:02.007687+01 | 1486588922.00769 | pgbench_accounts_pkey |        112336896

 2017-02-08 22:22:03.221673+01 | 1486588923.22167 | pgbench_branches_pkey |            16384
 2017-02-08 22:22:03.221673+01 | 1486588923.22167 | pgbench_tellers_pkey  |            32768
 2017-02-08 22:22:03.221673+01 | 1486588923.22167 | pgbench_accounts_pkey |        112336896

 2017-02-08 22:22:04.424961+01 | 1486588924.42496 | pgbench_branches_pkey |            16384
 2017-02-08 22:22:04.424961+01 | 1486588924.42496 | pgbench_tellers_pkey  |            32768
 2017-02-08 22:22:04.424961+01 | 1486588924.42496 | pgbench_accounts_pkey |        112336896

 2017-02-08 22:22:05.568715+01 | 1486588925.56872 | pgbench_branches_pkey |            16384
 2017-02-08 22:22:05.568715+01 | 1486588925.56872 | pgbench_tellers_pkey  |            32768
 2017-02-08 22:22:05.568715+01 | 1486588925.56872 | pgbench_accounts_pkey |        112336896

 2017-02-08 22:22:06.779379+01 | 1486588926.77938 | pgbench_branches_pkey |            16384
 2017-02-08 22:22:06.779379+01 | 1486588926.77938 | pgbench_tellers_pkey  |            32768
 2017-02-08 22:22:06.779379+01 | 1486588926.77938 | pgbench_accounts_pkey |        112336896

 2017-02-08 22:22:08.034146+01 | 1486588928.03415 | pgbench_branches_pkey |            16384
 2017-02-08 22:22:08.034146+01 | 1486588928.03415 | pgbench_tellers_pkey  |            32768
 2017-02-08 22:22:08.034146+01 | 1486588928.03415 | pgbench_accounts_pkey |        112336896

 2017-02-08 22:22:09.277222+01 | 1486588929.27722 | pgbench_branches_pkey |            16384
 2017-02-08 22:22:09.277222+01 | 1486588929.27722 | pgbench_tellers_pkey  |            32768
 2017-02-08 22:22:09.277222+01 | 1486588929.27722 | pgbench_accounts_pkey |        112336896

 2017-02-08 22:22:10.474788+01 | 1486588930.47479 | pgbench_branches_pkey |            16384
 2017-02-08 22:22:10.474788+01 | 1486588930.47479 | pgbench_tellers_pkey  |            32768
 2017-02-08 22:22:10.474788+01 | 1486588930.47479 | pgbench_accounts_pkey |        112336896

 2017-02-08 22:22:11.654319+01 | 1486588931.65432 | pgbench_branches_pkey |            16384
 2017-02-08 22:22:11.654319+01 | 1486588931.65432 | pgbench_tellers_pkey  |            32768
 2017-02-08 22:22:11.654319+01 | 1486588931.65432 | pgbench_accounts_pkey |        112336896

 2017-02-08 22:22:12.882668+01 | 1486588932.88267 | pgbench_branches_pkey |            16384
 2017-02-08 22:22:12.882668+01 | 1486588932.88267 | pgbench_tellers_pkey  |            32768
 2017-02-08 22:22:12.882668+01 | 1486588932.88267 | pgbench_accounts_pkey |        112336896

 2017-02-08 22:22:14.053736+01 | 1486588934.05374 | pgbench_branches_pkey |            16384
 2017-02-08 22:22:14.053736+01 | 1486588934.05374 | pgbench_tellers_pkey  |            32768
 2017-02-08 22:22:14.053736+01 | 1486588934.05374 | pgbench_accounts_pkey |        112336896

 2017-02-08 22:22:15.224382+01 | 1486588935.22438 | pgbench_branches_pkey |            16384
 2017-02-08 22:22:15.224382+01 | 1486588935.22438 | pgbench_tellers_pkey  |            32768
 2017-02-08 22:22:15.224382+01 | 1486588935.22438 | pgbench_accounts_pkey |        112336896

 2017-02-08 22:22:16.456373+01 | 1486588936.45637 | pgbench_branches_pkey |            16384
 2017-02-08 22:22:16.456373+01 | 1486588936.45637 | pgbench_tellers_pkey  |            32768
 2017-02-08 22:22:16.456373+01 | 1486588936.45637 | pgbench_accounts_pkey |        112336896

 2017-02-08 22:22:17.699+01 | 1486588937.699 | pgbench_branches_pkey |            16384
 2017-02-08 22:22:17.699+01 | 1486588937.699 | pgbench_tellers_pkey  |            32768
 2017-02-08 22:22:17.699+01 | 1486588937.699 | pgbench_accounts_pkey |        112336896

 2017-02-08 22:22:18.973927+01 | 1486588938.97393 | pgbench_branches_pkey |            16384
 2017-02-08 22:22:18.973927+01 | 1486588938.97393 | pgbench_tellers_pkey  |            32768
 2017-02-08 22:22:18.973927+01 | 1486588938.97393 | pgbench_accounts_pkey |        112336896

 2017-02-08 22:22:20.204728+01 | 1486588940.20473 | pgbench_branches_pkey |            16384
 2017-02-08 22:22:20.204728+01 | 1486588940.20473 | pgbench_tellers_pkey  |            32768
 2017-02-08 22:22:20.204728+01 | 1486588940.20473 | pgbench_accounts_pkey |        112336896

 2017-02-08 22:22:21.455215+01 | 1486588941.45521 | pgbench_branches_pkey |            16384
 2017-02-08 22:22:21.455215+01 | 1486588941.45521 | pgbench_tellers_pkey  |            32768
 2017-02-08 22:22:21.455215+01 | 1486588941.45521 | pgbench_accounts_pkey |        112336896

 2017-02-08 22:22:22.640778+01 | 1486588942.64078 | pgbench_branches_pkey |            16384
 2017-02-08 22:22:22.640778+01 | 1486588942.64078 | pgbench_tellers_pkey  |            32768
 2017-02-08 22:22:22.640778+01 | 1486588942.64078 | pgbench_accounts_pkey |        112336896

 2017-02-08 22:22:23.879434+01 | 1486588943.87943 | pgbench_branches_pkey |            16384
 2017-02-08 22:22:23.879434+01 | 1486588943.87943 | pgbench_tellers_pkey  |            32768
 2017-02-08 22:22:23.879434+01 | 1486588943.87943 | pgbench_accounts_pkey |        112336896

 2017-02-08 22:22:25.029505+01 | 1486588945.02951 | pgbench_branches_pkey |            16384
 2017-02-08 22:22:25.029505+01 | 1486588945.02951 | pgbench_tellers_pkey  |            32768
 2017-02-08 22:22:25.029505+01 | 1486588945.02951 | pgbench_accounts_pkey |        112336896

 2017-02-08 22:22:26.243685+01 | 1486588946.24369 | pgbench_branches_pkey |            16384
 2017-02-08 22:22:26.243685+01 | 1486588946.24369 | pgbench_tellers_pkey  |            32768
 2017-02-08 22:22:26.243685+01 | 1486588946.24369 | pgbench_accounts_pkey |        112336896

 2017-02-08 22:22:27.40385+01 | 1486588947.40385 | pgbench_branches_pkey |            16384
 2017-02-08 22:22:27.40385+01 | 1486588947.40385 | pgbench_tellers_pkey  |            32768
 2017-02-08 22:22:27.40385+01 | 1486588947.40385 | pgbench_accounts_pkey |        112336896

 2017-02-08 22:22:28.518177+01 | 1486588948.51818 | pgbench_branches_pkey |            16384
 2017-02-08 22:22:28.518177+01 | 1486588948.51818 | pgbench_tellers_pkey  |            32768
 2017-02-08 22:22:28.518177+01 | 1486588948.51818 | pgbench_accounts_pkey |        112336896

 2017-02-08 22:22:29.690731+01 | 1486588949.69073 | pgbench_branches_pkey |            16384
 2017-02-08 22:22:29.690731+01 | 1486588949.69073 | pgbench_tellers_pkey  |            32768
 2017-02-08 22:22:29.690731+01 | 1486588949.69073 | pgbench_accounts_pkey |        112336896

 2017-02-08 22:22:30.895613+01 | 1486588950.89561 | pgbench_branches_pkey |            16384
 2017-02-08 22:22:30.895613+01 | 1486588950.89561 | pgbench_tellers_pkey  |            32768
 2017-02-08 22:22:30.895613+01 | 1486588950.89561 | pgbench_accounts_pkey |        112336896

 2017-02-08 22:22:32.099544+01 | 1486588952.09954 | pgbench_branches_pkey |            16384
 2017-02-08 22:22:32.099544+01 | 1486588952.09954 | pgbench_tellers_pkey  |            32768
 2017-02-08 22:22:32.099544+01 | 1486588952.09954 | pgbench_accounts_pkey |        112336896

 2017-02-08 22:22:33.261533+01 | 1486588953.26153 | pgbench_branches_pkey |            16384
 2017-02-08 22:22:33.261533+01 | 1486588953.26153 | pgbench_tellers_pkey  |            32768
 2017-02-08 22:22:33.261533+01 | 1486588953.26153 | pgbench_accounts_pkey |        112336896

 2017-02-08 22:22:34.483594+01 | 1486588954.48359 | pgbench_branches_pkey |            16384
 2017-02-08 22:22:34.483594+01 | 1486588954.48359 | pgbench_tellers_pkey  |            32768
 2017-02-08 22:22:34.483594+01 | 1486588954.48359 | pgbench_accounts_pkey |        112336896

 2017-02-08 22:22:35.609625+01 | 1486588955.60963 | pgbench_branches_pkey |            16384
 2017-02-08 22:22:35.609625+01 | 1486588955.60963 | pgbench_tellers_pkey  |            32768
 2017-02-08 22:22:35.609625+01 | 1486588955.60963 | pgbench_accounts_pkey |        112336896

 2017-02-08 22:22:36.806043+01 | 1486588956.80604 | pgbench_branches_pkey |            16384
 2017-02-08 22:22:36.806043+01 | 1486588956.80604 | pgbench_tellers_pkey  |            32768
 2017-02-08 22:22:36.806043+01 | 1486588956.80604 | pgbench_accounts_pkey |        112336896

 2017-02-08 22:22:38.035414+01 | 1486588958.03541 | pgbench_branches_pkey |            16384
 2017-02-08 22:22:38.035414+01 | 1486588958.03541 | pgbench_tellers_pkey  |            32768
 2017-02-08 22:22:38.035414+01 | 1486588958.03541 | pgbench_accounts_pkey |        112336896

 2017-02-08 22:22:39.297775+01 | 1486588959.29778 | pgbench_branches_pkey |            16384
 2017-02-08 22:22:39.297775+01 | 1486588959.29778 | pgbench_tellers_pkey  |            32768
 2017-02-08 22:22:39.297775+01 | 1486588959.29778 | pgbench_accounts_pkey |        112336896

 2017-02-08 22:22:40.468219+01 | 1486588960.46822 | pgbench_branches_pkey |            16384
 2017-02-08 22:22:40.468219+01 | 1486588960.46822 | pgbench_tellers_pkey  |            32768
 2017-02-08 22:22:40.468219+01 | 1486588960.46822 | pgbench_accounts_pkey |        112336896

 2017-02-08 22:22:41.67897+01 | 1486588961.67897 | pgbench_branches_pkey |            16384
 2017-02-08 22:22:41.67897+01 | 1486588961.67897 | pgbench_tellers_pkey  |            32768
 2017-02-08 22:22:41.67897+01 | 1486588961.67897 | pgbench_accounts_pkey |        112336896

 2017-02-08 22:22:42.87349+01 | 1486588962.87349 | pgbench_branches_pkey |            16384
 2017-02-08 22:22:42.87349+01 | 1486588962.87349 | pgbench_tellers_pkey  |            32768
 2017-02-08 22:22:42.87349+01 | 1486588962.87349 | pgbench_accounts_pkey |        112336896

 2017-02-08 22:22:44.04811+01 | 1486588964.04811 | pgbench_branches_pkey |            16384
 2017-02-08 22:22:44.04811+01 | 1486588964.04811 | pgbench_tellers_pkey  |            32768
 2017-02-08 22:22:44.04811+01 | 1486588964.04811 | pgbench_accounts_pkey |        112336896

 2017-02-08 22:22:45.257954+01 | 1486588965.25795 | pgbench_branches_pkey |            16384
 2017-02-08 22:22:45.257954+01 | 1486588965.25795 | pgbench_tellers_pkey  |            32768
 2017-02-08 22:22:45.257954+01 | 1486588965.25795 | pgbench_accounts_pkey |        112336896

 2017-02-08 22:22:46.449583+01 | 1486588966.44958 | pgbench_branches_pkey |            16384
 2017-02-08 22:22:46.449583+01 | 1486588966.44958 | pgbench_tellers_pkey  |            32768
 2017-02-08 22:22:46.449583+01 | 1486588966.44958 | pgbench_accounts_pkey |        112336896

 2017-02-08 22:22:47.629077+01 | 1486588967.62908 | pgbench_branches_pkey |            16384
 2017-02-08 22:22:47.629077+01 | 1486588967.62908 | pgbench_tellers_pkey  |            32768
 2017-02-08 22:22:47.629077+01 | 1486588967.62908 | pgbench_accounts_pkey |        112336896

 2017-02-08 22:22:48.83808+01 | 1486588968.83808 | pgbench_branches_pkey |            16384
 2017-02-08 22:22:48.83808+01 | 1486588968.83808 | pgbench_tellers_pkey  |            32768
 2017-02-08 22:22:48.83808+01 | 1486588968.83808 | pgbench_accounts_pkey |        112336896

 2017-02-08 22:22:50.028569+01 | 1486588970.02857 | pgbench_branches_pkey |            16384
 2017-02-08 22:22:50.028569+01 | 1486588970.02857 | pgbench_tellers_pkey  |            32768
 2017-02-08 22:22:50.028569+01 | 1486588970.02857 | pgbench_accounts_pkey |        112336896

 2017-02-08 22:22:51.244538+01 | 1486588971.24454 | pgbench_branches_pkey |            16384
 2017-02-08 22:22:51.244538+01 | 1486588971.24454 | pgbench_tellers_pkey  |            32768
 2017-02-08 22:22:51.244538+01 | 1486588971.24454 | pgbench_accounts_pkey |        112336896

 2017-02-08 22:22:52.498645+01 | 1486588972.49865 | pgbench_branches_pkey |            16384
 2017-02-08 22:22:52.498645+01 | 1486588972.49865 | pgbench_tellers_pkey  |            32768
 2017-02-08 22:22:52.498645+01 | 1486588972.49865 | pgbench_accounts_pkey |        112336896

 2017-02-08 22:22:53.673023+01 | 1486588973.67302 | pgbench_branches_pkey |            16384
 2017-02-08 22:22:53.673023+01 | 1486588973.67302 | pgbench_tellers_pkey  |            32768
 2017-02-08 22:22:53.673023+01 | 1486588973.67302 | pgbench_accounts_pkey |        112336896

 2017-02-08 22:22:54.874446+01 | 1486588974.87445 | pgbench_branches_pkey |            16384
 2017-02-08 22:22:54.874446+01 | 1486588974.87445 | pgbench_tellers_pkey  |            32768
 2017-02-08 22:22:54.874446+01 | 1486588974.87445 | pgbench_accounts_pkey |        112336896

 2017-02-08 22:22:56.112911+01 | 1486588976.11291 | pgbench_branches_pkey |            16384
 2017-02-08 22:22:56.112911+01 | 1486588976.11291 | pgbench_tellers_pkey  |            32768
 2017-02-08 22:22:56.112911+01 | 1486588976.11291 | pgbench_accounts_pkey |        112336896

 2017-02-08 22:22:57.30272+01 | 1486588977.30272 | pgbench_branches_pkey |            16384
 2017-02-08 22:22:57.30272+01 | 1486588977.30272 | pgbench_tellers_pkey  |            32768
 2017-02-08 22:22:57.30272+01 | 1486588977.30272 | pgbench_accounts_pkey |        112336896

 2017-02-08 22:22:58.573032+01 | 1486588978.57303 | pgbench_branches_pkey |            16384
 2017-02-08 22:22:58.573032+01 | 1486588978.57303 | pgbench_tellers_pkey  |            32768
 2017-02-08 22:22:58.573032+01 | 1486588978.57303 | pgbench_accounts_pkey |        112336896

 2017-02-08 22:22:59.845651+01 | 1486588979.84565 | pgbench_branches_pkey |            16384
 2017-02-08 22:22:59.845651+01 | 1486588979.84565 | pgbench_tellers_pkey  |            32768
 2017-02-08 22:22:59.845651+01 | 1486588979.84565 | pgbench_accounts_pkey |        112336896

 2017-02-08 22:23:01.094068+01 | 1486588981.09407 | pgbench_branches_pkey |            16384
 2017-02-08 22:23:01.094068+01 | 1486588981.09407 | pgbench_tellers_pkey  |            32768
 2017-02-08 22:23:01.094068+01 | 1486588981.09407 | pgbench_accounts_pkey |        112336896

 2017-02-08 22:23:02.313707+01 | 1486588982.31371 | pgbench_branches_pkey |            16384
 2017-02-08 22:23:02.313707+01 | 1486588982.31371 | pgbench_tellers_pkey  |            32768
 2017-02-08 22:23:02.313707+01 | 1486588982.31371 | pgbench_accounts_pkey |        112336896

 2017-02-08 22:23:03.499427+01 | 1486588983.49943 | pgbench_branches_pkey |            16384
 2017-02-08 22:23:03.499427+01 | 1486588983.49943 | pgbench_tellers_pkey  |            32768
 2017-02-08 22:23:03.499427+01 | 1486588983.49943 | pgbench_accounts_pkey |        112336896

 2017-02-08 22:23:04.64782+01 | 1486588984.64782 | pgbench_branches_pkey |            16384
 2017-02-08 22:23:04.64782+01 | 1486588984.64782 | pgbench_tellers_pkey  |            32768
 2017-02-08 22:23:04.64782+01 | 1486588984.64782 | pgbench_accounts_pkey |        112336896

 2017-02-08 22:23:05.893914+01 | 1486588985.89391 | pgbench_branches_pkey |            16384
 2017-02-08 22:23:05.893914+01 | 1486588985.89391 | pgbench_tellers_pkey  |            32768
 2017-02-08 22:23:05.893914+01 | 1486588985.89391 | pgbench_accounts_pkey |        112336896

 2017-02-08 22:23:07.150985+01 | 1486588987.15099 | pgbench_branches_pkey |            16384
 2017-02-08 22:23:07.150985+01 | 1486588987.15099 | pgbench_tellers_pkey  |            32768
 2017-02-08 22:23:07.150985+01 | 1486588987.15099 | pgbench_accounts_pkey |        112336896

 2017-02-08 22:23:08.411989+01 | 1486588988.41199 | pgbench_branches_pkey |            16384
 2017-02-08 22:23:08.411989+01 | 1486588988.41199 | pgbench_tellers_pkey  |            32768
 2017-02-08 22:23:08.411989+01 | 1486588988.41199 | pgbench_accounts_pkey |        112336896

 2017-02-08 22:23:09.604268+01 | 1486588989.60427 | pgbench_branches_pkey |            16384
 2017-02-08 22:23:09.604268+01 | 1486588989.60427 | pgbench_tellers_pkey  |            32768
 2017-02-08 22:23:09.604268+01 | 1486588989.60427 | pgbench_accounts_pkey |        112336896

 2017-02-08 22:23:10.854258+01 | 1486588990.85426 | pgbench_branches_pkey |            16384
 2017-02-08 22:23:10.854258+01 | 1486588990.85426 | pgbench_tellers_pkey  |            32768
 2017-02-08 22:23:10.854258+01 | 1486588990.85426 | pgbench_accounts_pkey |        112336896

 2017-02-08 22:23:12.070969+01 | 1486588992.07097 | pgbench_branches_pkey |            16384
 2017-02-08 22:23:12.070969+01 | 1486588992.07097 | pgbench_tellers_pkey  |            32768
 2017-02-08 22:23:12.070969+01 | 1486588992.07097 | pgbench_accounts_pkey |        112336896

 2017-02-08 22:23:13.30705+01 | 1486588993.30705 | pgbench_branches_pkey |            16384
 2017-02-08 22:23:13.30705+01 | 1486588993.30705 | pgbench_tellers_pkey  |            32768
 2017-02-08 22:23:13.30705+01 | 1486588993.30705 | pgbench_accounts_pkey |        112336896

 2017-02-08 22:23:14.52513+01 | 1486588994.52513 | pgbench_branches_pkey |            16384
 2017-02-08 22:23:14.52513+01 | 1486588994.52513 | pgbench_tellers_pkey  |            32768
 2017-02-08 22:23:14.52513+01 | 1486588994.52513 | pgbench_accounts_pkey |        112336896

 2017-02-08 22:23:15.742675+01 | 1486588995.74268 | pgbench_branches_pkey |            16384
 2017-02-08 22:23:15.742675+01 | 1486588995.74268 | pgbench_tellers_pkey  |            32768
 2017-02-08 22:23:15.742675+01 | 1486588995.74268 | pgbench_accounts_pkey |        112336896

 2017-02-08 22:23:16.935921+01 | 1486588996.93592 | pgbench_branches_pkey |            16384
 2017-02-08 22:23:16.935921+01 | 1486588996.93592 | pgbench_tellers_pkey  |            32768
 2017-02-08 22:23:16.935921+01 | 1486588996.93592 | pgbench_accounts_pkey |        112336896

 2017-02-08 22:23:18.126029+01 | 1486588998.12603 | pgbench_branches_pkey |            16384
 2017-02-08 22:23:18.126029+01 | 1486588998.12603 | pgbench_tellers_pkey  |            32768
 2017-02-08 22:23:18.126029+01 | 1486588998.12603 | pgbench_accounts_pkey |        112336896

 2017-02-08 22:23:19.384439+01 | 1486588999.38444 | pgbench_branches_pkey |            16384
 2017-02-08 22:23:19.384439+01 | 1486588999.38444 | pgbench_tellers_pkey  |            32768
 2017-02-08 22:23:19.384439+01 | 1486588999.38444 | pgbench_accounts_pkey |        112336896

 2017-02-08 22:23:20.605495+01 | 1486589000.60549 | pgbench_branches_pkey |            16384
 2017-02-08 22:23:20.605495+01 | 1486589000.60549 | pgbench_tellers_pkey  |            32768
 2017-02-08 22:23:20.605495+01 | 1486589000.60549 | pgbench_accounts_pkey |        112336896

 2017-02-08 22:23:21.807022+01 | 1486589001.80702 | pgbench_branches_pkey |            16384
 2017-02-08 22:23:21.807022+01 | 1486589001.80702 | pgbench_tellers_pkey  |            32768
 2017-02-08 22:23:21.807022+01 | 1486589001.80702 | pgbench_accounts_pkey |        112336896

 2017-02-08 22:23:23.003059+01 | 1486589003.00306 | pgbench_branches_pkey |            16384
 2017-02-08 22:23:23.003059+01 | 1486589003.00306 | pgbench_tellers_pkey  |            32768
 2017-02-08 22:23:23.003059+01 | 1486589003.00306 | pgbench_accounts_pkey |        112336896

 2017-02-08 22:23:24.227357+01 | 1486589004.22736 | pgbench_branches_pkey |            16384
 2017-02-08 22:23:24.227357+01 | 1486589004.22736 | pgbench_tellers_pkey  |            32768
 2017-02-08 22:23:24.227357+01 | 1486589004.22736 | pgbench_accounts_pkey |        112336896

 2017-02-08 22:23:25.439086+01 | 1486589005.43909 | pgbench_branches_pkey |            16384
 2017-02-08 22:23:25.439086+01 | 1486589005.43909 | pgbench_tellers_pkey  |            32768
 2017-02-08 22:23:25.439086+01 | 1486589005.43909 | pgbench_accounts_pkey |        112336896

 2017-02-08 22:23:26.669743+01 | 1486589006.66974 | pgbench_branches_pkey |            16384
 2017-02-08 22:23:26.669743+01 | 1486589006.66974 | pgbench_tellers_pkey  |            32768
 2017-02-08 22:23:26.669743+01 | 1486589006.66974 | pgbench_accounts_pkey |        112336896

 2017-02-08 22:23:27.898632+01 | 1486589007.89863 | pgbench_branches_pkey |            16384
 2017-02-08 22:23:27.898632+01 | 1486589007.89863 | pgbench_tellers_pkey  |            32768
 2017-02-08 22:23:27.898632+01 | 1486589007.89863 | pgbench_accounts_pkey |        112336896

 2017-02-08 22:23:29.072735+01 | 1486589009.07274 | pgbench_branches_pkey |            16384
 2017-02-08 22:23:29.072735+01 | 1486589009.07274 | pgbench_tellers_pkey  |            32768
 2017-02-08 22:23:29.072735+01 | 1486589009.07274 | pgbench_accounts_pkey |        112336896

 2017-02-08 22:23:30.264125+01 | 1486589010.26413 | pgbench_branches_pkey |            16384
 2017-02-08 22:23:30.264125+01 | 1486589010.26413 | pgbench_tellers_pkey  |            32768
 2017-02-08 22:23:30.264125+01 | 1486589010.26413 | pgbench_accounts_pkey |        112336896

 2017-02-08 22:23:31.521044+01 | 1486589011.52104 | pgbench_branches_pkey |            16384
 2017-02-08 22:23:31.521044+01 | 1486589011.52104 | pgbench_tellers_pkey  |            32768
 2017-02-08 22:23:31.521044+01 | 1486589011.52104 | pgbench_accounts_pkey |        112336896

 2017-02-08 22:23:32.674959+01 | 1486589012.67496 | pgbench_branches_pkey |            16384
 2017-02-08 22:23:32.674959+01 | 1486589012.67496 | pgbench_tellers_pkey  |            32768
 2017-02-08 22:23:32.674959+01 | 1486589012.67496 | pgbench_accounts_pkey |        112336896

 2017-02-08 22:23:33.830674+01 | 1486589013.83067 | pgbench_branches_pkey |            16384
 2017-02-08 22:23:33.830674+01 | 1486589013.83067 | pgbench_tellers_pkey  |            32768
 2017-02-08 22:23:33.830674+01 | 1486589013.83067 | pgbench_accounts_pkey |        112336896

 2017-02-08 22:23:35.029723+01 | 1486589015.02972 | pgbench_branches_pkey |            16384
 2017-02-08 22:23:35.029723+01 | 1486589015.02972 | pgbench_tellers_pkey  |            32768
 2017-02-08 22:23:35.029723+01 | 1486589015.02972 | pgbench_accounts_pkey |        112336896

 2017-02-08 22:23:36.210195+01 | 1486589016.2102 | pgbench_branches_pkey |            16384
 2017-02-08 22:23:36.210195+01 | 1486589016.2102 | pgbench_tellers_pkey  |            32768
 2017-02-08 22:23:36.210195+01 | 1486589016.2102 | pgbench_accounts_pkey |        112336896

 2017-02-08 22:23:37.435043+01 | 1486589017.43504 | pgbench_branches_pkey |            16384
 2017-02-08 22:23:37.435043+01 | 1486589017.43504 | pgbench_tellers_pkey  |            32768
 2017-02-08 22:23:37.435043+01 | 1486589017.43504 | pgbench_accounts_pkey |        112336896

 2017-02-08 22:23:38.704064+01 | 1486589018.70406 | pgbench_branches_pkey |            16384
 2017-02-08 22:23:38.704064+01 | 1486589018.70406 | pgbench_tellers_pkey  |            32768
 2017-02-08 22:23:38.704064+01 | 1486589018.70406 | pgbench_accounts_pkey |        112336896

 2017-02-08 22:23:39.927572+01 | 1486589019.92757 | pgbench_branches_pkey |            16384
 2017-02-08 22:23:39.927572+01 | 1486589019.92757 | pgbench_tellers_pkey  |            32768
 2017-02-08 22:23:39.927572+01 | 1486589019.92757 | pgbench_accounts_pkey |        112336896

 2017-02-08 22:23:41.111335+01 | 1486589021.11134 | pgbench_branches_pkey |            16384
 2017-02-08 22:23:41.111335+01 | 1486589021.11134 | pgbench_tellers_pkey  |            32768
 2017-02-08 22:23:41.111335+01 | 1486589021.11134 | pgbench_accounts_pkey |        112336896

 2017-02-08 22:23:42.369858+01 | 1486589022.36986 | pgbench_branches_pkey |            16384
 2017-02-08 22:23:42.369858+01 | 1486589022.36986 | pgbench_tellers_pkey  |            32768
 2017-02-08 22:23:42.369858+01 | 1486589022.36986 | pgbench_accounts_pkey |        112336896

 2017-02-08 22:23:43.64779+01 | 1486589023.64779 | pgbench_branches_pkey |            16384
 2017-02-08 22:23:43.64779+01 | 1486589023.64779 | pgbench_tellers_pkey  |            32768
 2017-02-08 22:23:43.64779+01 | 1486589023.64779 | pgbench_accounts_pkey |        112336896

 2017-02-08 22:23:44.84138+01 | 1486589024.84138 | pgbench_branches_pkey |            16384
 2017-02-08 22:23:44.84138+01 | 1486589024.84138 | pgbench_tellers_pkey  |            32768
 2017-02-08 22:23:44.84138+01 | 1486589024.84138 | pgbench_accounts_pkey |        112336896

 2017-02-08 22:23:46.100773+01 | 1486589026.10077 | pgbench_branches_pkey |            16384
 2017-02-08 22:23:46.100773+01 | 1486589026.10077 | pgbench_tellers_pkey  |            32768
 2017-02-08 22:23:46.100773+01 | 1486589026.10077 | pgbench_accounts_pkey |        112336896

 2017-02-08 22:23:47.37605+01 | 1486589027.37605 | pgbench_branches_pkey |            16384
 2017-02-08 22:23:47.37605+01 | 1486589027.37605 | pgbench_tellers_pkey  |            32768
 2017-02-08 22:23:47.37605+01 | 1486589027.37605 | pgbench_accounts_pkey |        112336896

 2017-02-08 22:23:48.609255+01 | 1486589028.60926 | pgbench_branches_pkey |            16384
 2017-02-08 22:23:48.609255+01 | 1486589028.60926 | pgbench_tellers_pkey  |            32768
 2017-02-08 22:23:48.609255+01 | 1486589028.60926 | pgbench_accounts_pkey |        112336896

 2017-02-08 22:23:49.811705+01 | 1486589029.81171 | pgbench_branches_pkey |            16384
 2017-02-08 22:23:49.811705+01 | 1486589029.81171 | pgbench_tellers_pkey  |            32768
 2017-02-08 22:23:49.811705+01 | 1486589029.81171 | pgbench_accounts_pkey |        112336896

 2017-02-08 22:23:50.992372+01 | 1486589030.99237 | pgbench_branches_pkey |            16384
 2017-02-08 22:23:50.992372+01 | 1486589030.99237 | pgbench_tellers_pkey  |            32768
 2017-02-08 22:23:50.992372+01 | 1486589030.99237 | pgbench_accounts_pkey |        112336896

 2017-02-08 22:23:52.232141+01 | 1486589032.23214 | pgbench_branches_pkey |            16384
 2017-02-08 22:23:52.232141+01 | 1486589032.23214 | pgbench_tellers_pkey  |            32768
 2017-02-08 22:23:52.232141+01 | 1486589032.23214 | pgbench_accounts_pkey |        112336896

 2017-02-08 22:23:53.479424+01 | 1486589033.47942 | pgbench_branches_pkey |            16384
 2017-02-08 22:23:53.479424+01 | 1486589033.47942 | pgbench_tellers_pkey  |            32768
 2017-02-08 22:23:53.479424+01 | 1486589033.47942 | pgbench_accounts_pkey |        112336896

 2017-02-08 22:23:54.743045+01 | 1486589034.74305 | pgbench_branches_pkey |            16384
 2017-02-08 22:23:54.743045+01 | 1486589034.74305 | pgbench_tellers_pkey  |            32768
 2017-02-08 22:23:54.743045+01 | 1486589034.74305 | pgbench_accounts_pkey |        112336896

 2017-02-08 22:23:55.996988+01 | 1486589035.99699 | pgbench_branches_pkey |            16384
 2017-02-08 22:23:55.996988+01 | 1486589035.99699 | pgbench_tellers_pkey  |            32768
 2017-02-08 22:23:55.996988+01 | 1486589035.99699 | pgbench_accounts_pkey |        112336896

 2017-02-08 22:23:57.207937+01 | 1486589037.20794 | pgbench_branches_pkey |            16384
 2017-02-08 22:23:57.207937+01 | 1486589037.20794 | pgbench_tellers_pkey  |            32768
 2017-02-08 22:23:57.207937+01 | 1486589037.20794 | pgbench_accounts_pkey |        112336896

 2017-02-08 22:23:58.372192+01 | 1486589038.37219 | pgbench_branches_pkey |            16384
 2017-02-08 22:23:58.372192+01 | 1486589038.37219 | pgbench_tellers_pkey  |            32768
 2017-02-08 22:23:58.372192+01 | 1486589038.37219 | pgbench_accounts_pkey |        112336896

 2017-02-08 22:23:59.587236+01 | 1486589039.58724 | pgbench_branches_pkey |            16384
 2017-02-08 22:23:59.587236+01 | 1486589039.58724 | pgbench_tellers_pkey  |            32768
 2017-02-08 22:23:59.587236+01 | 1486589039.58724 | pgbench_accounts_pkey |        112336896

 2017-02-08 22:24:00.823186+01 | 1486589040.82319 | pgbench_branches_pkey |            16384
 2017-02-08 22:24:00.823186+01 | 1486589040.82319 | pgbench_tellers_pkey  |            32768
 2017-02-08 22:24:00.823186+01 | 1486589040.82319 | pgbench_accounts_pkey |        112336896

 2017-02-08 22:24:02.088522+01 | 1486589042.08852 | pgbench_branches_pkey |            16384
 2017-02-08 22:24:02.088522+01 | 1486589042.08852 | pgbench_tellers_pkey  |            32768
 2017-02-08 22:24:02.088522+01 | 1486589042.08852 | pgbench_accounts_pkey |        112336896

 2017-02-08 22:24:03.300809+01 | 1486589043.30081 | pgbench_branches_pkey |            16384
 2017-02-08 22:24:03.300809+01 | 1486589043.30081 | pgbench_tellers_pkey  |            32768
 2017-02-08 22:24:03.300809+01 | 1486589043.30081 | pgbench_accounts_pkey |        112336896

 2017-02-08 22:24:04.488881+01 | 1486589044.48888 | pgbench_branches_pkey |            16384
 2017-02-08 22:24:04.488881+01 | 1486589044.48888 | pgbench_tellers_pkey  |            32768
 2017-02-08 22:24:04.488881+01 | 1486589044.48888 | pgbench_accounts_pkey |        112336896

 2017-02-08 22:24:05.603941+01 | 1486589045.60394 | pgbench_branches_pkey |            16384
 2017-02-08 22:24:05.603941+01 | 1486589045.60394 | pgbench_tellers_pkey  |            32768
 2017-02-08 22:24:05.603941+01 | 1486589045.60394 | pgbench_accounts_pkey |        112336896

 2017-02-08 22:24:06.859791+01 | 1486589046.85979 | pgbench_branches_pkey |            16384
 2017-02-08 22:24:06.859791+01 | 1486589046.85979 | pgbench_tellers_pkey  |            32768
 2017-02-08 22:24:06.859791+01 | 1486589046.85979 | pgbench_accounts_pkey |        112336896

 2017-02-08 22:24:08.149917+01 | 1486589048.14992 | pgbench_branches_pkey |            16384
 2017-02-08 22:24:08.149917+01 | 1486589048.14992 | pgbench_tellers_pkey  |            32768
 2017-02-08 22:24:08.149917+01 | 1486589048.14992 | pgbench_accounts_pkey |        112336896

 2017-02-08 22:24:09.425926+01 | 1486589049.42593 | pgbench_branches_pkey |            16384
 2017-02-08 22:24:09.425926+01 | 1486589049.42593 | pgbench_tellers_pkey  |            32768
 2017-02-08 22:24:09.425926+01 | 1486589049.42593 | pgbench_accounts_pkey |        112336896

 2017-02-08 22:24:10.604778+01 | 1486589050.60478 | pgbench_branches_pkey |            16384
 2017-02-08 22:24:10.604778+01 | 1486589050.60478 | pgbench_tellers_pkey  |            32768
 2017-02-08 22:24:10.604778+01 | 1486589050.60478 | pgbench_accounts_pkey |        112336896

 2017-02-08 22:24:11.861837+01 | 1486589051.86184 | pgbench_branches_pkey |            16384
 2017-02-08 22:24:11.861837+01 | 1486589051.86184 | pgbench_tellers_pkey  |            32768
 2017-02-08 22:24:11.861837+01 | 1486589051.86184 | pgbench_accounts_pkey |        112336896

 2017-02-08 22:24:13.091214+01 | 1486589053.09121 | pgbench_branches_pkey |            16384
 2017-02-08 22:24:13.091214+01 | 1486589053.09121 | pgbench_tellers_pkey  |            32768
 2017-02-08 22:24:13.091214+01 | 1486589053.09121 | pgbench_accounts_pkey |        112336896

 2017-02-08 22:24:14.333682+01 | 1486589054.33368 | pgbench_branches_pkey |            16384
 2017-02-08 22:24:14.333682+01 | 1486589054.33368 | pgbench_tellers_pkey  |            32768
 2017-02-08 22:24:14.333682+01 | 1486589054.33368 | pgbench_accounts_pkey |        112336896

 2017-02-08 22:24:15.553683+01 | 1486589055.55368 | pgbench_branches_pkey |            16384
 2017-02-08 22:24:15.553683+01 | 1486589055.55368 | pgbench_tellers_pkey  |            32768
 2017-02-08 22:24:15.553683+01 | 1486589055.55368 | pgbench_accounts_pkey |        112336896

 2017-02-08 22:24:16.778383+01 | 1486589056.77838 | pgbench_branches_pkey |            16384
 2017-02-08 22:24:16.778383+01 | 1486589056.77838 | pgbench_tellers_pkey  |            32768
 2017-02-08 22:24:16.778383+01 | 1486589056.77838 | pgbench_accounts_pkey |        112336896

 2017-02-08 22:24:18.018937+01 | 1486589058.01894 | pgbench_branches_pkey |            16384
 2017-02-08 22:24:18.018937+01 | 1486589058.01894 | pgbench_tellers_pkey  |            32768
 2017-02-08 22:24:18.018937+01 | 1486589058.01894 | pgbench_accounts_pkey |        112336896

 2017-02-08 22:24:19.223173+01 | 1486589059.22317 | pgbench_branches_pkey |            16384
 2017-02-08 22:24:19.223173+01 | 1486589059.22317 | pgbench_tellers_pkey  |            32768
 2017-02-08 22:24:19.223173+01 | 1486589059.22317 | pgbench_accounts_pkey |        112336896

 2017-02-08 22:24:20.45791+01 | 1486589060.45791 | pgbench_branches_pkey |            16384
 2017-02-08 22:24:20.45791+01 | 1486589060.45791 | pgbench_tellers_pkey  |            32768
 2017-02-08 22:24:20.45791+01 | 1486589060.45791 | pgbench_accounts_pkey |        112336896

 2017-02-08 22:24:21.640117+01 | 1486589061.64012 | pgbench_branches_pkey |            16384
 2017-02-08 22:24:21.640117+01 | 1486589061.64012 | pgbench_tellers_pkey  |            32768
 2017-02-08 22:24:21.640117+01 | 1486589061.64012 | pgbench_accounts_pkey |        112336896

 2017-02-08 22:24:22.835728+01 | 1486589062.83573 | pgbench_branches_pkey |            16384
 2017-02-08 22:24:22.835728+01 | 1486589062.83573 | pgbench_tellers_pkey  |            32768
 2017-02-08 22:24:22.835728+01 | 1486589062.83573 | pgbench_accounts_pkey |        112336896

 2017-02-08 22:24:24.02738+01 | 1486589064.02738 | pgbench_branches_pkey |            16384
 2017-02-08 22:24:24.02738+01 | 1486589064.02738 | pgbench_tellers_pkey  |            32768
 2017-02-08 22:24:24.02738+01 | 1486589064.02738 | pgbench_accounts_pkey |        112336896

 2017-02-08 22:24:25.21024+01 | 1486589065.21024 | pgbench_branches_pkey |            16384
 2017-02-08 22:24:25.21024+01 | 1486589065.21024 | pgbench_tellers_pkey  |            32768
 2017-02-08 22:24:25.21024+01 | 1486589065.21024 | pgbench_accounts_pkey |        112336896

 2017-02-08 22:24:26.422564+01 | 1486589066.42256 | pgbench_branches_pkey |            16384
 2017-02-08 22:24:26.422564+01 | 1486589066.42256 | pgbench_tellers_pkey  |            32768
 2017-02-08 22:24:26.422564+01 | 1486589066.42256 | pgbench_accounts_pkey |        112336896

 2017-02-08 22:24:27.5656+01 | 1486589067.5656 | pgbench_branches_pkey |            16384
 2017-02-08 22:24:27.5656+01 | 1486589067.5656 | pgbench_tellers_pkey  |            32768
 2017-02-08 22:24:27.5656+01 | 1486589067.5656 | pgbench_accounts_pkey |        112336896

 2017-02-08 22:24:28.707451+01 | 1486589068.70745 | pgbench_branches_pkey |            16384
 2017-02-08 22:24:28.707451+01 | 1486589068.70745 | pgbench_tellers_pkey  |            32768
 2017-02-08 22:24:28.707451+01 | 1486589068.70745 | pgbench_accounts_pkey |        112336896

 2017-02-08 22:24:29.893515+01 | 1486589069.89352 | pgbench_branches_pkey |            16384
 2017-02-08 22:24:29.893515+01 | 1486589069.89352 | pgbench_tellers_pkey  |            32768
 2017-02-08 22:24:29.893515+01 | 1486589069.89352 | pgbench_accounts_pkey |        112336896

 2017-02-08 22:24:31.111507+01 | 1486589071.11151 | pgbench_branches_pkey |            16384
 2017-02-08 22:24:31.111507+01 | 1486589071.11151 | pgbench_tellers_pkey  |            32768
 2017-02-08 22:24:31.111507+01 | 1486589071.11151 | pgbench_accounts_pkey |        112336896

 2017-02-08 22:24:32.298926+01 | 1486589072.29893 | pgbench_branches_pkey |            16384
 2017-02-08 22:24:32.298926+01 | 1486589072.29893 | pgbench_tellers_pkey  |            32768
 2017-02-08 22:24:32.298926+01 | 1486589072.29893 | pgbench_accounts_pkey |        112336896

 2017-02-08 22:24:33.521339+01 | 1486589073.52134 | pgbench_branches_pkey |            16384
 2017-02-08 22:24:33.521339+01 | 1486589073.52134 | pgbench_tellers_pkey  |            32768
 2017-02-08 22:24:33.521339+01 | 1486589073.52134 | pgbench_accounts_pkey |        112336896

 2017-02-08 22:24:34.699417+01 | 1486589074.69942 | pgbench_branches_pkey |            16384
 2017-02-08 22:24:34.699417+01 | 1486589074.69942 | pgbench_tellers_pkey  |            32768
 2017-02-08 22:24:34.699417+01 | 1486589074.69942 | pgbench_accounts_pkey |        112336896

 2017-02-08 22:24:35.927202+01 | 1486589075.9272 | pgbench_branches_pkey |            16384
 2017-02-08 22:24:35.927202+01 | 1486589075.9272 | pgbench_tellers_pkey  |            32768
 2017-02-08 22:24:35.927202+01 | 1486589075.9272 | pgbench_accounts_pkey |        112336896

 2017-02-08 22:24:37.151755+01 | 1486589077.15176 | pgbench_branches_pkey |            16384
 2017-02-08 22:24:37.151755+01 | 1486589077.15176 | pgbench_tellers_pkey  |            32768
 2017-02-08 22:24:37.151755+01 | 1486589077.15176 | pgbench_accounts_pkey |        112336896

 2017-02-08 22:24:38.33047+01 | 1486589078.33047 | pgbench_branches_pkey |            16384
 2017-02-08 22:24:38.33047+01 | 1486589078.33047 | pgbench_tellers_pkey  |            32768
 2017-02-08 22:24:38.33047+01 | 1486589078.33047 | pgbench_accounts_pkey |        112336896

 2017-02-08 22:24:39.48847+01 | 1486589079.48847 | pgbench_branches_pkey |            16384
 2017-02-08 22:24:39.48847+01 | 1486589079.48847 | pgbench_tellers_pkey  |            32768
 2017-02-08 22:24:39.48847+01 | 1486589079.48847 | pgbench_accounts_pkey |        112336896

 2017-02-08 22:24:40.72779+01 | 1486589080.72779 | pgbench_branches_pkey |            16384
 2017-02-08 22:24:40.72779+01 | 1486589080.72779 | pgbench_tellers_pkey  |            32768
 2017-02-08 22:24:40.72779+01 | 1486589080.72779 | pgbench_accounts_pkey |        112336896

 2017-02-08 22:24:41.924861+01 | 1486589081.92486 | pgbench_branches_pkey |            16384
 2017-02-08 22:24:41.924861+01 | 1486589081.92486 | pgbench_tellers_pkey  |            32768
 2017-02-08 22:24:41.924861+01 | 1486589081.92486 | pgbench_accounts_pkey |        112336896

 2017-02-08 22:24:43.103593+01 | 1486589083.10359 | pgbench_branches_pkey |            16384
 2017-02-08 22:24:43.103593+01 | 1486589083.10359 | pgbench_tellers_pkey  |            32768
 2017-02-08 22:24:43.103593+01 | 1486589083.10359 | pgbench_accounts_pkey |        112336896

 2017-02-08 22:24:44.336001+01 | 1486589084.336 | pgbench_branches_pkey |            16384
 2017-02-08 22:24:44.336001+01 | 1486589084.336 | pgbench_tellers_pkey  |            32768
 2017-02-08 22:24:44.336001+01 | 1486589084.336 | pgbench_accounts_pkey |        112336896

 2017-02-08 22:24:45.522188+01 | 1486589085.52219 | pgbench_branches_pkey |            16384
 2017-02-08 22:24:45.522188+01 | 1486589085.52219 | pgbench_tellers_pkey  |            32768
 2017-02-08 22:24:45.522188+01 | 1486589085.52219 | pgbench_accounts_pkey |        112336896

 2017-02-08 22:24:46.637442+01 | 1486589086.63744 | pgbench_branches_pkey |            16384
 2017-02-08 22:24:46.637442+01 | 1486589086.63744 | pgbench_tellers_pkey  |            32768
 2017-02-08 22:24:46.637442+01 | 1486589086.63744 | pgbench_accounts_pkey |        112336896

 2017-02-08 22:24:47.843668+01 | 1486589087.84367 | pgbench_branches_pkey |            16384
 2017-02-08 22:24:47.843668+01 | 1486589087.84367 | pgbench_tellers_pkey  |            32768
 2017-02-08 22:24:47.843668+01 | 1486589087.84367 | pgbench_accounts_pkey |        112336896

 2017-02-08 22:24:49.062095+01 | 1486589089.06209 | pgbench_branches_pkey |            16384
 2017-02-08 22:24:49.062095+01 | 1486589089.06209 | pgbench_tellers_pkey  |            32768
 2017-02-08 22:24:49.062095+01 | 1486589089.06209 | pgbench_accounts_pkey |        112336896

 2017-02-08 22:24:50.305464+01 | 1486589090.30546 | pgbench_branches_pkey |            16384
 2017-02-08 22:24:50.305464+01 | 1486589090.30546 | pgbench_tellers_pkey  |            32768
 2017-02-08 22:24:50.305464+01 | 1486589090.30546 | pgbench_accounts_pkey |        112336896

 2017-02-08 22:24:51.584731+01 | 1486589091.58473 | pgbench_branches_pkey |            16384
 2017-02-08 22:24:51.584731+01 | 1486589091.58473 | pgbench_tellers_pkey  |            32768
 2017-02-08 22:24:51.584731+01 | 1486589091.58473 | pgbench_accounts_pkey |        112336896

 2017-02-08 22:24:52.791134+01 | 1486589092.79113 | pgbench_branches_pkey |            16384
 2017-02-08 22:24:52.791134+01 | 1486589092.79113 | pgbench_tellers_pkey  |            32768
 2017-02-08 22:24:52.791134+01 | 1486589092.79113 | pgbench_accounts_pkey |        112336896

 2017-02-08 22:24:54.049961+01 | 1486589094.04996 | pgbench_branches_pkey |            16384
 2017-02-08 22:24:54.049961+01 | 1486589094.04996 | pgbench_tellers_pkey  |            32768
 2017-02-08 22:24:54.049961+01 | 1486589094.04996 | pgbench_accounts_pkey |        112336896

 2017-02-08 22:24:55.216663+01 | 1486589095.21666 | pgbench_branches_pkey |            16384
 2017-02-08 22:24:55.216663+01 | 1486589095.21666 | pgbench_tellers_pkey  |            32768
 2017-02-08 22:24:55.216663+01 | 1486589095.21666 | pgbench_accounts_pkey |        112336896

 2017-02-08 22:24:56.407278+01 | 1486589096.40728 | pgbench_branches_pkey |            16384
 2017-02-08 22:24:56.407278+01 | 1486589096.40728 | pgbench_tellers_pkey  |            32768
 2017-02-08 22:24:56.407278+01 | 1486589096.40728 | pgbench_accounts_pkey |        112336896

 2017-02-08 22:24:57.540389+01 | 1486589097.54039 | pgbench_branches_pkey |            16384
 2017-02-08 22:24:57.540389+01 | 1486589097.54039 | pgbench_tellers_pkey  |            32768
 2017-02-08 22:24:57.540389+01 | 1486589097.54039 | pgbench_accounts_pkey |        112336896

 2017-02-08 22:24:58.81072+01 | 1486589098.81072 | pgbench_branches_pkey |            16384
 2017-02-08 22:24:58.81072+01 | 1486589098.81072 | pgbench_tellers_pkey  |            32768
 2017-02-08 22:24:58.81072+01 | 1486589098.81072 | pgbench_accounts_pkey |        112336896

 2017-02-08 22:25:00.00953+01 | 1486589100.00953 | pgbench_branches_pkey |            16384
 2017-02-08 22:25:00.00953+01 | 1486589100.00953 | pgbench_tellers_pkey  |            32768
 2017-02-08 22:25:00.00953+01 | 1486589100.00953 | pgbench_accounts_pkey |        112336896

 2017-02-08 22:25:01.218234+01 | 1486589101.21823 | pgbench_branches_pkey |            16384
 2017-02-08 22:25:01.218234+01 | 1486589101.21823 | pgbench_tellers_pkey  |            32768
 2017-02-08 22:25:01.218234+01 | 1486589101.21823 | pgbench_accounts_pkey |        112336896

 2017-02-08 22:25:02.411816+01 | 1486589102.41182 | pgbench_branches_pkey |            16384
 2017-02-08 22:25:02.411816+01 | 1486589102.41182 | pgbench_tellers_pkey  |            32768
 2017-02-08 22:25:02.411816+01 | 1486589102.41182 | pgbench_accounts_pkey |        112336896

 2017-02-08 22:25:03.654802+01 | 1486589103.6548 | pgbench_branches_pkey |            16384
 2017-02-08 22:25:03.654802+01 | 1486589103.6548 | pgbench_tellers_pkey  |            32768
 2017-02-08 22:25:03.654802+01 | 1486589103.6548 | pgbench_accounts_pkey |        112336896

 2017-02-08 22:25:04.805598+01 | 1486589104.8056 | pgbench_branches_pkey |            16384
 2017-02-08 22:25:04.805598+01 | 1486589104.8056 | pgbench_tellers_pkey  |            32768
 2017-02-08 22:25:04.805598+01 | 1486589104.8056 | pgbench_accounts_pkey |        112336896

 2017-02-08 22:25:06.000552+01 | 1486589106.00055 | pgbench_branches_pkey |            16384
 2017-02-08 22:25:06.000552+01 | 1486589106.00055 | pgbench_tellers_pkey  |            32768
 2017-02-08 22:25:06.000552+01 | 1486589106.00055 | pgbench_accounts_pkey |        112336896

 2017-02-08 22:25:07.2652+01 | 1486589107.2652 | pgbench_branches_pkey |            16384
 2017-02-08 22:25:07.2652+01 | 1486589107.2652 | pgbench_tellers_pkey  |            32768
 2017-02-08 22:25:07.2652+01 | 1486589107.2652 | pgbench_accounts_pkey |        112336896

 2017-02-08 22:25:08.459058+01 | 1486589108.45906 | pgbench_branches_pkey |            16384
 2017-02-08 22:25:08.459058+01 | 1486589108.45906 | pgbench_tellers_pkey  |            32768
 2017-02-08 22:25:08.459058+01 | 1486589108.45906 | pgbench_accounts_pkey |        112336896

 2017-02-08 22:25:09.697323+01 | 1486589109.69732 | pgbench_branches_pkey |            16384
 2017-02-08 22:25:09.697323+01 | 1486589109.69732 | pgbench_tellers_pkey  |            32768
 2017-02-08 22:25:09.697323+01 | 1486589109.69732 | pgbench_accounts_pkey |        112336896

 2017-02-08 22:25:10.868342+01 | 1486589110.86834 | pgbench_branches_pkey |            16384
 2017-02-08 22:25:10.868342+01 | 1486589110.86834 | pgbench_tellers_pkey  |            32768
 2017-02-08 22:25:10.868342+01 | 1486589110.86834 | pgbench_accounts_pkey |        112336896

 2017-02-08 22:25:12.064767+01 | 1486589112.06477 | pgbench_branches_pkey |            16384
 2017-02-08 22:25:12.064767+01 | 1486589112.06477 | pgbench_tellers_pkey  |            32768
 2017-02-08 22:25:12.064767+01 | 1486589112.06477 | pgbench_accounts_pkey |        112336896

 2017-02-08 22:25:13.272133+01 | 1486589113.27213 | pgbench_branches_pkey |            16384
 2017-02-08 22:25:13.272133+01 | 1486589113.27213 | pgbench_tellers_pkey  |            32768
 2017-02-08 22:25:13.272133+01 | 1486589113.27213 | pgbench_accounts_pkey |        112336896

 2017-02-08 22:25:14.522659+01 | 1486589114.52266 | pgbench_branches_pkey |            16384
 2017-02-08 22:25:14.522659+01 | 1486589114.52266 | pgbench_tellers_pkey  |            32768
 2017-02-08 22:25:14.522659+01 | 1486589114.52266 | pgbench_accounts_pkey |        112336896

