 2017-02-08 22:20:15.254119+01 | 1486588815.25412 |                 0 |              17 |                  6240 |                 4261 |            1474372 |             0 |                0 |          244745 |                     0 |         98953 | 2017-02-08 20:59:52.862777+01

 2017-02-08 22:20:16.382581+01 | 1486588816.38258 |                 0 |              17 |                  6240 |                 4261 |            1474372 |             0 |                0 |          244745 |                     0 |         98953 | 2017-02-08 20:59:52.862777+01

 2017-02-08 22:20:17.584947+01 | 1486588817.58495 |                 0 |              17 |                  6240 |                 4261 |            1474372 |             0 |                0 |          244745 |                     0 |         98953 | 2017-02-08 20:59:52.862777+01

 2017-02-08 22:20:18.797819+01 | 1486588818.79782 |                 0 |              17 |                  6240 |                 4261 |            1474372 |             0 |                0 |          244745 |                     0 |         98953 | 2017-02-08 20:59:52.862777+01

 2017-02-08 22:20:20.04632+01 | 1486588820.04632 |                 0 |              17 |                  6240 |                 4261 |            1474372 |             0 |                0 |          244745 |                     0 |         98953 | 2017-02-08 20:59:52.862777+01

 2017-02-08 22:20:21.235186+01 | 1486588821.23519 |                 0 |              17 |                  6240 |                 4261 |            1474372 |             0 |                0 |          244745 |                     0 |         98953 | 2017-02-08 20:59:52.862777+01

 2017-02-08 22:20:22.413482+01 | 1486588822.41348 |                 0 |              17 |                  6240 |                 4261 |            1474372 |             0 |                0 |          244745 |                     0 |         98953 | 2017-02-08 20:59:52.862777+01

 2017-02-08 22:20:23.616133+01 | 1486588823.61613 |                 0 |              17 |                  6240 |                 4261 |            1474372 |             0 |                0 |          244745 |                     0 |         98953 | 2017-02-08 20:59:52.862777+01

 2017-02-08 22:20:24.852463+01 | 1486588824.85246 |                 0 |              17 |                  6240 |                 4261 |            1474372 |             0 |                0 |          244745 |                     0 |         98953 | 2017-02-08 20:59:52.862777+01

 2017-02-08 22:20:26.039516+01 | 1486588826.03952 |                 0 |              17 |                  6240 |                 4261 |            1474372 |             0 |                0 |          244745 |                     0 |         98953 | 2017-02-08 20:59:52.862777+01

 2017-02-08 22:20:27.216105+01 | 1486588827.2161 |                 0 |              17 |                  6240 |                 4261 |            1474372 |             0 |                0 |          244745 |                     0 |         98953 | 2017-02-08 20:59:52.862777+01

 2017-02-08 22:20:28.392054+01 | 1486588828.39205 |                 0 |              17 |                  6240 |                 4261 |            1474372 |             0 |                0 |          244745 |                     0 |         98953 | 2017-02-08 20:59:52.862777+01

 2017-02-08 22:20:29.646672+01 | 1486588829.64667 |                 0 |              17 |                  6240 |                 4261 |            1474372 |             0 |                0 |          244745 |                     0 |         98953 | 2017-02-08 20:59:52.862777+01

 2017-02-08 22:20:30.853599+01 | 1486588830.8536 |                 0 |              17 |                  6240 |                 4261 |            1474372 |             0 |                0 |          244745 |                     0 |         98953 | 2017-02-08 20:59:52.862777+01

 2017-02-08 22:20:32.069152+01 | 1486588832.06915 |                 0 |              17 |                  6240 |                 4261 |            1474372 |             0 |                0 |          244745 |                     0 |         98953 | 2017-02-08 20:59:52.862777+01

 2017-02-08 22:20:33.224072+01 | 1486588833.22407 |                 0 |              17 |                  6240 |                 4261 |            1474372 |             0 |                0 |          244745 |                     0 |         98953 | 2017-02-08 20:59:52.862777+01

 2017-02-08 22:20:34.374847+01 | 1486588834.37485 |                 0 |              17 |                  6240 |                 4261 |            1474372 |             0 |                0 |          244745 |                     0 |         98953 | 2017-02-08 20:59:52.862777+01

 2017-02-08 22:20:35.531641+01 | 1486588835.53164 |                 0 |              17 |                  6240 |                 4261 |            1474372 |             0 |                0 |          244745 |                     0 |         98953 | 2017-02-08 20:59:52.862777+01

 2017-02-08 22:20:36.707606+01 | 1486588836.70761 |                 0 |              17 |                  6240 |                 4261 |            1474372 |             0 |                0 |          244745 |                     0 |         98953 | 2017-02-08 20:59:52.862777+01

 2017-02-08 22:20:37.901349+01 | 1486588837.90135 |                 0 |              17 |                  6240 |                 4261 |            1474372 |             0 |                0 |          244745 |                     0 |         98953 | 2017-02-08 20:59:52.862777+01

 2017-02-08 22:20:39.054301+01 | 1486588839.0543 |                 0 |              17 |                  6240 |                 4261 |            1474372 |             0 |                0 |          244745 |                     0 |         98953 | 2017-02-08 20:59:52.862777+01

 2017-02-08 22:20:40.306381+01 | 1486588840.30638 |                 0 |              17 |                  6240 |                 4261 |            1474372 |             0 |                0 |          244745 |                     0 |         98953 | 2017-02-08 20:59:52.862777+01

 2017-02-08 22:20:41.523051+01 | 1486588841.52305 |                 0 |              17 |                  6240 |                 4261 |            1474372 |             0 |                0 |          244745 |                     0 |         98953 | 2017-02-08 20:59:52.862777+01

 2017-02-08 22:20:42.728933+01 | 1486588842.72893 |                 0 |              17 |                  6240 |                 4261 |            1474372 |             0 |                0 |          244745 |                     0 |         98953 | 2017-02-08 20:59:52.862777+01

 2017-02-08 22:20:43.905569+01 | 1486588843.90557 |                 0 |              17 |                  6240 |                 4261 |            1474372 |             0 |                0 |          244745 |                     0 |         98953 | 2017-02-08 20:59:52.862777+01

 2017-02-08 22:20:45.115505+01 | 1486588845.1155 |                 0 |              17 |                  6240 |                 4261 |            1474372 |             0 |                0 |          244745 |                     0 |         98953 | 2017-02-08 20:59:52.862777+01

 2017-02-08 22:20:46.352486+01 | 1486588846.35249 |                 0 |              17 |                  6240 |                 4261 |            1474372 |             0 |                0 |          244745 |                     0 |         98953 | 2017-02-08 20:59:52.862777+01

 2017-02-08 22:20:47.616472+01 | 1486588847.61647 |                 0 |              17 |                  6240 |                 4261 |            1474372 |             0 |                0 |          244745 |                     0 |         98953 | 2017-02-08 20:59:52.862777+01

 2017-02-08 22:20:48.860921+01 | 1486588848.86092 |                 0 |              17 |                  6240 |                 4261 |            1474372 |             0 |                0 |          244745 |                     0 |         98953 | 2017-02-08 20:59:52.862777+01

 2017-02-08 22:20:50.099041+01 | 1486588850.09904 |                 0 |              17 |                  6240 |                 4261 |            1474372 |             0 |                0 |          244745 |                     0 |         98953 | 2017-02-08 20:59:52.862777+01

 2017-02-08 22:20:51.37134+01 | 1486588851.37134 |                 0 |              17 |                  6240 |                 4261 |            1474372 |             0 |                0 |          244745 |                     0 |         98953 | 2017-02-08 20:59:52.862777+01

 2017-02-08 22:20:52.614777+01 | 1486588852.61478 |                 0 |              17 |                  6240 |                 4261 |            1474372 |             0 |                0 |          244745 |                     0 |         98953 | 2017-02-08 20:59:52.862777+01

 2017-02-08 22:20:53.797119+01 | 1486588853.79712 |                 0 |              17 |                  6240 |                 4261 |            1474372 |             0 |                0 |          244745 |                     0 |         98953 | 2017-02-08 20:59:52.862777+01

 2017-02-08 22:20:55.014646+01 | 1486588855.01465 |                 0 |              17 |                  6240 |                 4261 |            1474372 |             0 |                0 |          244745 |                     0 |         98953 | 2017-02-08 20:59:52.862777+01

 2017-02-08 22:20:56.270085+01 | 1486588856.27009 |                 0 |              17 |                  6240 |                 4261 |            1474372 |             0 |                0 |          244745 |                     0 |         98953 | 2017-02-08 20:59:52.862777+01

 2017-02-08 22:20:57.482576+01 | 1486588857.48258 |                 0 |              17 |                  6240 |                 4261 |            1474372 |             0 |                0 |          244745 |                     0 |         98953 | 2017-02-08 20:59:52.862777+01

 2017-02-08 22:20:58.738564+01 | 1486588858.73856 |                 0 |              17 |                  6240 |                 4261 |            1474372 |             0 |                0 |          244745 |                     0 |         98953 | 2017-02-08 20:59:52.862777+01

 2017-02-08 22:20:59.955004+01 | 1486588859.955 |                 0 |              17 |                  6240 |                 4261 |            1474372 |             0 |                0 |          244745 |                     0 |         98953 | 2017-02-08 20:59:52.862777+01

 2017-02-08 22:21:01.203141+01 | 1486588861.20314 |                 0 |              17 |                  6240 |                 4261 |            1474372 |             0 |                0 |          244745 |                     0 |         98953 | 2017-02-08 20:59:52.862777+01

 2017-02-08 22:21:02.399269+01 | 1486588862.39927 |                 0 |              17 |                  6240 |                 4261 |            1474372 |             0 |                0 |          244745 |                     0 |         98953 | 2017-02-08 20:59:52.862777+01

 2017-02-08 22:21:03.668354+01 | 1486588863.66835 |                 0 |              17 |                  6240 |                 4261 |            1474372 |             0 |                0 |          244745 |                     0 |         98953 | 2017-02-08 20:59:52.862777+01

 2017-02-08 22:21:04.936371+01 | 1486588864.93637 |                 0 |              17 |                  6240 |                 4261 |            1474372 |             0 |                0 |          244745 |                     0 |         98953 | 2017-02-08 20:59:52.862777+01

 2017-02-08 22:21:06.176154+01 | 1486588866.17615 |                 0 |              17 |                  6240 |                 4261 |            1474372 |             0 |                0 |          244745 |                     0 |         98953 | 2017-02-08 20:59:52.862777+01

 2017-02-08 22:21:07.368191+01 | 1486588867.36819 |                 0 |              17 |                  6240 |                 4261 |            1474372 |             0 |                0 |          244745 |                     0 |         98953 | 2017-02-08 20:59:52.862777+01

 2017-02-08 22:21:08.575005+01 | 1486588868.57501 |                 0 |              17 |                  6240 |                 4261 |            1474372 |             0 |                0 |          244745 |                     0 |         98953 | 2017-02-08 20:59:52.862777+01

 2017-02-08 22:21:09.819012+01 | 1486588869.81901 |                 0 |              17 |                  6240 |                 4261 |            1474372 |             0 |                0 |          244745 |                     0 |         98953 | 2017-02-08 20:59:52.862777+01

 2017-02-08 22:21:11.063718+01 | 1486588871.06372 |                 0 |              17 |                  6240 |                 4261 |            1474372 |             0 |                0 |          244745 |                     0 |         98953 | 2017-02-08 20:59:52.862777+01

 2017-02-08 22:21:12.321211+01 | 1486588872.32121 |                 0 |              17 |                  6240 |                 4261 |            1474372 |             0 |                0 |          244745 |                     0 |         98953 | 2017-02-08 20:59:52.862777+01

 2017-02-08 22:21:13.553594+01 | 1486588873.55359 |                 0 |              17 |                  6240 |                 4261 |            1474372 |             0 |                0 |          244745 |                     0 |         98953 | 2017-02-08 20:59:52.862777+01

 2017-02-08 22:21:14.788001+01 | 1486588874.788 |                 0 |              17 |                  6240 |                 4261 |            1474372 |             0 |                0 |          244745 |                     0 |         98953 | 2017-02-08 20:59:52.862777+01

 2017-02-08 22:21:15.957782+01 | 1486588875.95778 |                 0 |              17 |                  6240 |                 4261 |            1474372 |             0 |                0 |          244745 |                     0 |         98953 | 2017-02-08 20:59:52.862777+01

 2017-02-08 22:21:17.167974+01 | 1486588877.16797 |                 0 |              17 |                  6240 |                 4261 |            1474372 |             0 |                0 |          244745 |                     0 |         98953 | 2017-02-08 20:59:52.862777+01

 2017-02-08 22:21:18.352826+01 | 1486588878.35283 |                 0 |              17 |                  6240 |                 4261 |            1474372 |             0 |                0 |          244745 |                     0 |         98953 | 2017-02-08 20:59:52.862777+01

 2017-02-08 22:21:19.55482+01 | 1486588879.55482 |                 0 |              17 |                  6240 |                 4261 |            1474372 |             0 |                0 |          244745 |                     0 |         98953 | 2017-02-08 20:59:52.862777+01

 2017-02-08 22:21:20.817474+01 | 1486588880.81747 |                 0 |              17 |                  6240 |                 4261 |            1474372 |             0 |                0 |          244745 |                     0 |         98953 | 2017-02-08 20:59:52.862777+01

 2017-02-08 22:21:21.947662+01 | 1486588881.94766 |                 0 |              17 |                  6240 |                 4261 |            1474372 |             0 |                0 |          244745 |                     0 |         98953 | 2017-02-08 20:59:52.862777+01

 2017-02-08 22:21:23.168102+01 | 1486588883.1681 |                 0 |              17 |                  6240 |                 4261 |            1474372 |             0 |                0 |          244745 |                     0 |         98953 | 2017-02-08 20:59:52.862777+01

 2017-02-08 22:21:24.42399+01 | 1486588884.42399 |                 0 |              17 |                  6240 |                 4261 |            1474372 |             0 |                0 |          244745 |                     0 |         98953 | 2017-02-08 20:59:52.862777+01

 2017-02-08 22:21:25.555791+01 | 1486588885.55579 |                 0 |              17 |                  6240 |                 4261 |            1474372 |             0 |                0 |          244745 |                     0 |         98953 | 2017-02-08 20:59:52.862777+01

 2017-02-08 22:21:26.674792+01 | 1486588886.67479 |                 0 |              17 |                  6240 |                 4261 |            1474372 |             0 |                0 |          244745 |                     0 |         98953 | 2017-02-08 20:59:52.862777+01

 2017-02-08 22:21:27.845021+01 | 1486588887.84502 |                 0 |              17 |                  6240 |                 4261 |            1474372 |             0 |                0 |          244745 |                     0 |         98953 | 2017-02-08 20:59:52.862777+01

 2017-02-08 22:21:29.099607+01 | 1486588889.09961 |                 0 |              17 |                  6240 |                 4261 |            1474372 |             0 |                0 |          244745 |                     0 |         98953 | 2017-02-08 20:59:52.862777+01

 2017-02-08 22:21:30.271569+01 | 1486588890.27157 |                 0 |              17 |                  6240 |                 4261 |            1474372 |             0 |                0 |          244745 |                     0 |         98953 | 2017-02-08 20:59:52.862777+01

 2017-02-08 22:21:31.470984+01 | 1486588891.47098 |                 0 |              17 |                  6240 |                 4261 |            1474372 |             0 |                0 |          244745 |                     0 |         98953 | 2017-02-08 20:59:52.862777+01

 2017-02-08 22:21:32.688459+01 | 1486588892.68846 |                 0 |              17 |                  6240 |                 4261 |            1474372 |             0 |                0 |          244745 |                     0 |         98953 | 2017-02-08 20:59:52.862777+01

 2017-02-08 22:21:33.933403+01 | 1486588893.9334 |                 0 |              17 |                  6240 |                 4261 |            1474372 |             0 |                0 |          244745 |                     0 |         98953 | 2017-02-08 20:59:52.862777+01

 2017-02-08 22:21:35.175779+01 | 1486588895.17578 |                 0 |              17 |                  6240 |                 4261 |            1474372 |             0 |                0 |          244745 |                     0 |         98953 | 2017-02-08 20:59:52.862777+01

 2017-02-08 22:21:36.405333+01 | 1486588896.40533 |                 0 |              17 |                  6240 |                 4261 |            1474372 |             0 |                0 |          244745 |                     0 |         98953 | 2017-02-08 20:59:52.862777+01

 2017-02-08 22:21:37.591921+01 | 1486588897.59192 |                 0 |              17 |                  6240 |                 4261 |            1474372 |             0 |                0 |          244745 |                     0 |         98953 | 2017-02-08 20:59:52.862777+01

 2017-02-08 22:21:38.768264+01 | 1486588898.76826 |                 0 |              17 |                  6240 |                 4261 |            1474372 |             0 |                0 |          244745 |                     0 |         98953 | 2017-02-08 20:59:52.862777+01

 2017-02-08 22:21:39.936368+01 | 1486588899.93637 |                 0 |              17 |                  6240 |                 4261 |            1474372 |             0 |                0 |          244745 |                     0 |         98953 | 2017-02-08 20:59:52.862777+01

 2017-02-08 22:21:41.132528+01 | 1486588901.13253 |                 0 |              17 |                  6240 |                 4261 |            1474372 |             0 |                0 |          244745 |                     0 |         98953 | 2017-02-08 20:59:52.862777+01

 2017-02-08 22:21:42.365523+01 | 1486588902.36552 |                 0 |              17 |                  6240 |                 4261 |            1474372 |             0 |                0 |          244745 |                     0 |         98953 | 2017-02-08 20:59:52.862777+01

 2017-02-08 22:21:43.635814+01 | 1486588903.63581 |                 0 |              17 |                  6240 |                 4261 |            1474372 |             0 |                0 |          244745 |                     0 |         98953 | 2017-02-08 20:59:52.862777+01

 2017-02-08 22:21:44.859703+01 | 1486588904.8597 |                 0 |              17 |                  6240 |                 4261 |            1474372 |             0 |                0 |          244745 |                     0 |         98953 | 2017-02-08 20:59:52.862777+01

 2017-02-08 22:21:46.171495+01 | 1486588906.17149 |                 0 |              17 |                  6240 |                 4261 |            1474372 |             0 |                0 |          244745 |                     0 |         98953 | 2017-02-08 20:59:52.862777+01

 2017-02-08 22:21:47.370783+01 | 1486588907.37078 |                 0 |              17 |                  6240 |                 4261 |            1474372 |             0 |                0 |          244745 |                     0 |         98953 | 2017-02-08 20:59:52.862777+01

 2017-02-08 22:21:48.589404+01 | 1486588908.5894 |                 0 |              17 |                  6240 |                 4261 |            1474372 |             0 |                0 |          244745 |                     0 |         98953 | 2017-02-08 20:59:52.862777+01

 2017-02-08 22:21:49.837847+01 | 1486588909.83785 |                 0 |              17 |                  6240 |                 4261 |            1474372 |             0 |                0 |          244745 |                     0 |         98953 | 2017-02-08 20:59:52.862777+01

 2017-02-08 22:21:51.112828+01 | 1486588911.11283 |                 0 |              17 |                  6240 |                 4261 |            1474372 |             0 |                0 |          244745 |                     0 |         98953 | 2017-02-08 20:59:52.862777+01

 2017-02-08 22:21:52.300851+01 | 1486588912.30085 |                 0 |              17 |                  6240 |                 4261 |            1474372 |             0 |                0 |          244745 |                     0 |         98953 | 2017-02-08 20:59:52.862777+01

 2017-02-08 22:21:53.470443+01 | 1486588913.47044 |                 0 |              17 |                  6240 |                 4261 |            1474372 |             0 |                0 |          244745 |                     0 |         98953 | 2017-02-08 20:59:52.862777+01

 2017-02-08 22:21:54.703562+01 | 1486588914.70356 |                 0 |              17 |                  6240 |                 4261 |            1474372 |             0 |                0 |          244745 |                     0 |         98953 | 2017-02-08 20:59:52.862777+01

 2017-02-08 22:21:55.93082+01 | 1486588915.93082 |                 0 |              17 |                  6240 |                 4261 |            1474372 |             0 |                0 |          244745 |                     0 |         98953 | 2017-02-08 20:59:52.862777+01

 2017-02-08 22:21:57.050471+01 | 1486588917.05047 |                 0 |              17 |                  6240 |                 4261 |            1474372 |             0 |                0 |          244745 |                     0 |         98953 | 2017-02-08 20:59:52.862777+01

 2017-02-08 22:21:58.294561+01 | 1486588918.29456 |                 0 |              17 |                  6240 |                 4261 |            1474372 |             0 |                0 |          244745 |                     0 |         98953 | 2017-02-08 20:59:52.862777+01

 2017-02-08 22:21:59.553126+01 | 1486588919.55313 |                 0 |              17 |                  6240 |                 4261 |            1474372 |             0 |                0 |          244745 |                     0 |         98953 | 2017-02-08 20:59:52.862777+01

 2017-02-08 22:22:00.833949+01 | 1486588920.83395 |                 0 |              17 |                  6240 |                 4261 |            1474372 |             0 |                0 |          244745 |                     0 |         98953 | 2017-02-08 20:59:52.862777+01

 2017-02-08 22:22:02.024247+01 | 1486588922.02425 |                 0 |              17 |                  6240 |                 4261 |            1474372 |             0 |                0 |          244745 |                     0 |         98953 | 2017-02-08 20:59:52.862777+01

 2017-02-08 22:22:03.237409+01 | 1486588923.23741 |                 0 |              17 |                  6240 |                 4261 |            1474372 |             0 |                0 |          244745 |                     0 |         98953 | 2017-02-08 20:59:52.862777+01

 2017-02-08 22:22:04.450231+01 | 1486588924.45023 |                 0 |              17 |                  6240 |                 4261 |            1474372 |             0 |                0 |          244745 |                     0 |         98953 | 2017-02-08 20:59:52.862777+01

 2017-02-08 22:22:05.573804+01 | 1486588925.5738 |                 0 |              17 |                  6240 |                 4261 |            1474372 |             0 |                0 |          244745 |                     0 |         98953 | 2017-02-08 20:59:52.862777+01

 2017-02-08 22:22:06.812249+01 | 1486588926.81225 |                 0 |              17 |                  6240 |                 4261 |            1474372 |             0 |                0 |          244745 |                     0 |         98953 | 2017-02-08 20:59:52.862777+01

 2017-02-08 22:22:08.071766+01 | 1486588928.07177 |                 0 |              17 |                  6240 |                 4261 |            1474372 |             0 |                0 |          244745 |                     0 |         98953 | 2017-02-08 20:59:52.862777+01

 2017-02-08 22:22:09.29975+01 | 1486588929.29975 |                 0 |              17 |                  6240 |                 4261 |            1474372 |             0 |                0 |          244745 |                     0 |         98953 | 2017-02-08 20:59:52.862777+01

 2017-02-08 22:22:10.481704+01 | 1486588930.4817 |                 0 |              17 |                  6240 |                 4261 |            1474372 |             0 |                0 |          244745 |                     0 |         98953 | 2017-02-08 20:59:52.862777+01

 2017-02-08 22:22:11.673378+01 | 1486588931.67338 |                 0 |              17 |                  6240 |                 4261 |            1474372 |             0 |                0 |          244745 |                     0 |         98953 | 2017-02-08 20:59:52.862777+01

 2017-02-08 22:22:12.90347+01 | 1486588932.90347 |                 0 |              17 |                  6240 |                 4261 |            1474372 |             0 |                0 |          244745 |                     0 |         98953 | 2017-02-08 20:59:52.862777+01

 2017-02-08 22:22:14.076349+01 | 1486588934.07635 |                 0 |              17 |                  6240 |                 4261 |            1474372 |             0 |                0 |          244745 |                     0 |         98953 | 2017-02-08 20:59:52.862777+01

 2017-02-08 22:22:15.244118+01 | 1486588935.24412 |                 0 |              17 |                  6240 |                 4261 |            1474372 |             0 |                0 |          244745 |                     0 |         98953 | 2017-02-08 20:59:52.862777+01

 2017-02-08 22:22:16.473347+01 | 1486588936.47335 |                 0 |              17 |                  6240 |                 4261 |            1474372 |             0 |                0 |          244745 |                     0 |         98953 | 2017-02-08 20:59:52.862777+01

 2017-02-08 22:22:17.718733+01 | 1486588937.71873 |                 0 |              17 |                  6240 |                 4261 |            1474372 |             0 |                0 |          244745 |                     0 |         98953 | 2017-02-08 20:59:52.862777+01

 2017-02-08 22:22:19.008737+01 | 1486588939.00874 |                 0 |              17 |                  6240 |                 4261 |            1474372 |             0 |                0 |          244745 |                     0 |         98953 | 2017-02-08 20:59:52.862777+01

 2017-02-08 22:22:20.237538+01 | 1486588940.23754 |                 0 |              17 |                  6240 |                 4261 |            1474372 |             0 |                0 |          244745 |                     0 |         98953 | 2017-02-08 20:59:52.862777+01

 2017-02-08 22:22:21.467617+01 | 1486588941.46762 |                 0 |              17 |                  6240 |                 4261 |            1474372 |             0 |                0 |          244745 |                     0 |         98953 | 2017-02-08 20:59:52.862777+01

 2017-02-08 22:22:22.676528+01 | 1486588942.67653 |                 0 |              17 |                  6240 |                 4261 |            1474372 |             0 |                0 |          244745 |                     0 |         98953 | 2017-02-08 20:59:52.862777+01

 2017-02-08 22:22:23.92257+01 | 1486588943.92257 |                 0 |              17 |                  6240 |                 4261 |            1474372 |             0 |                0 |          244745 |                     0 |         98953 | 2017-02-08 20:59:52.862777+01

 2017-02-08 22:22:25.041311+01 | 1486588945.04131 |                 0 |              17 |                  6240 |                 4261 |            1474372 |             0 |                0 |          244745 |                     0 |         98953 | 2017-02-08 20:59:52.862777+01

 2017-02-08 22:22:26.269873+01 | 1486588946.26987 |                 0 |              17 |                  6240 |                 4261 |            1474372 |             0 |                0 |          244745 |                     0 |         98953 | 2017-02-08 20:59:52.862777+01

 2017-02-08 22:22:27.414579+01 | 1486588947.41458 |                 0 |              17 |                  6240 |                 4261 |            1474372 |             0 |                0 |          244745 |                     0 |         98953 | 2017-02-08 20:59:52.862777+01

 2017-02-08 22:22:28.526228+01 | 1486588948.52623 |                 0 |              17 |                  6240 |                 4261 |            1474372 |             0 |                0 |          244745 |                     0 |         98953 | 2017-02-08 20:59:52.862777+01

 2017-02-08 22:22:29.704972+01 | 1486588949.70497 |                 0 |              17 |                  6240 |                 4261 |            1474372 |             0 |                0 |          244745 |                     0 |         98953 | 2017-02-08 20:59:52.862777+01

 2017-02-08 22:22:30.919686+01 | 1486588950.91969 |                 0 |              17 |                  6240 |                 4261 |            1474372 |             0 |                0 |          244745 |                     0 |         98953 | 2017-02-08 20:59:52.862777+01

 2017-02-08 22:22:32.104572+01 | 1486588952.10457 |                 0 |              17 |                  6240 |                 4261 |            1474372 |             0 |                0 |          244745 |                     0 |         98953 | 2017-02-08 20:59:52.862777+01

 2017-02-08 22:22:33.284185+01 | 1486588953.28418 |                 0 |              17 |                  6240 |                 4261 |            1474372 |             0 |                0 |          244745 |                     0 |         98953 | 2017-02-08 20:59:52.862777+01

 2017-02-08 22:22:34.489409+01 | 1486588954.48941 |                 0 |              17 |                  6240 |                 4261 |            1474372 |             0 |                0 |          244745 |                     0 |         98953 | 2017-02-08 20:59:52.862777+01

 2017-02-08 22:22:35.624767+01 | 1486588955.62477 |                 0 |              17 |                  6240 |                 4261 |            1474372 |             0 |                0 |          244745 |                     0 |         98953 | 2017-02-08 20:59:52.862777+01

 2017-02-08 22:22:36.82426+01 | 1486588956.82426 |                 0 |              17 |                  6240 |                 4261 |            1474372 |             0 |                0 |          244745 |                     0 |         98953 | 2017-02-08 20:59:52.862777+01

 2017-02-08 22:22:38.08192+01 | 1486588958.08192 |                 0 |              17 |                  6240 |                 4261 |            1474372 |             0 |                0 |          244745 |                     0 |         98953 | 2017-02-08 20:59:52.862777+01

 2017-02-08 22:22:39.319527+01 | 1486588959.31953 |                 0 |              17 |                  6240 |                 4261 |            1474372 |             0 |                0 |          244745 |                     0 |         98953 | 2017-02-08 20:59:52.862777+01

 2017-02-08 22:22:40.492625+01 | 1486588960.49262 |                 0 |              17 |                  6240 |                 4261 |            1474372 |             0 |                0 |          244745 |                     0 |         98953 | 2017-02-08 20:59:52.862777+01

 2017-02-08 22:22:41.70415+01 | 1486588961.70415 |                 0 |              17 |                  6240 |                 4261 |            1474372 |             0 |                0 |          244745 |                     0 |         98953 | 2017-02-08 20:59:52.862777+01

 2017-02-08 22:22:42.88756+01 | 1486588962.88756 |                 0 |              17 |                  6240 |                 4261 |            1474372 |             0 |                0 |          244745 |                     0 |         98953 | 2017-02-08 20:59:52.862777+01

 2017-02-08 22:22:44.066206+01 | 1486588964.06621 |                 0 |              17 |                  6240 |                 4261 |            1474372 |             0 |                0 |          244745 |                     0 |         98953 | 2017-02-08 20:59:52.862777+01

 2017-02-08 22:22:45.265484+01 | 1486588965.26548 |                 0 |              17 |                  6240 |                 4261 |            1474372 |             0 |                0 |          244745 |                     0 |         98953 | 2017-02-08 20:59:52.862777+01

 2017-02-08 22:22:46.472191+01 | 1486588966.47219 |                 0 |              17 |                  6240 |                 4261 |            1474372 |             0 |                0 |          244745 |                     0 |         98953 | 2017-02-08 20:59:52.862777+01

 2017-02-08 22:22:47.646643+01 | 1486588967.64664 |                 0 |              17 |                  6240 |                 4261 |            1474372 |             0 |                0 |          244745 |                     0 |         98953 | 2017-02-08 20:59:52.862777+01

 2017-02-08 22:22:48.846909+01 | 1486588968.84691 |                 0 |              17 |                  6240 |                 4261 |            1474372 |             0 |                0 |          244745 |                     0 |         98953 | 2017-02-08 20:59:52.862777+01

 2017-02-08 22:22:50.066781+01 | 1486588970.06678 |                 0 |              17 |                  6240 |                 4261 |            1474372 |             0 |                0 |          244745 |                     0 |         98953 | 2017-02-08 20:59:52.862777+01

 2017-02-08 22:22:51.273131+01 | 1486588971.27313 |                 0 |              17 |                  6240 |                 4261 |            1474372 |             0 |                0 |          244745 |                     0 |         98953 | 2017-02-08 20:59:52.862777+01

 2017-02-08 22:22:52.50943+01 | 1486588972.50943 |                 0 |              17 |                  6240 |                 4261 |            1474372 |             0 |                0 |          244745 |                     0 |         98953 | 2017-02-08 20:59:52.862777+01

 2017-02-08 22:22:53.693285+01 | 1486588973.69328 |                 0 |              17 |                  6240 |                 4261 |            1474372 |             0 |                0 |          244745 |                     0 |         98953 | 2017-02-08 20:59:52.862777+01

 2017-02-08 22:22:54.913347+01 | 1486588974.91335 |                 0 |              17 |                  6240 |                 4261 |            1474372 |             0 |                0 |          244745 |                     0 |         98953 | 2017-02-08 20:59:52.862777+01

 2017-02-08 22:22:56.134517+01 | 1486588976.13452 |                 0 |              17 |                  6240 |                 4261 |            1474372 |             0 |                0 |          244745 |                     0 |         98953 | 2017-02-08 20:59:52.862777+01

 2017-02-08 22:22:57.316535+01 | 1486588977.31653 |                 0 |              17 |                  6240 |                 4261 |            1474372 |             0 |                0 |          244745 |                     0 |         98953 | 2017-02-08 20:59:52.862777+01

 2017-02-08 22:22:58.600653+01 | 1486588978.60065 |                 0 |              17 |                  6240 |                 4261 |            1474372 |             0 |                0 |          244745 |                     0 |         98953 | 2017-02-08 20:59:52.862777+01

 2017-02-08 22:22:59.878653+01 | 1486588979.87865 |                 0 |              17 |                  6240 |                 4261 |            1474372 |             0 |                0 |          244745 |                     0 |         98953 | 2017-02-08 20:59:52.862777+01

 2017-02-08 22:23:01.11293+01 | 1486588981.11293 |                 0 |              17 |                  6240 |                 4261 |            1474372 |             0 |                0 |          244745 |                     0 |         98953 | 2017-02-08 20:59:52.862777+01

 2017-02-08 22:23:02.348168+01 | 1486588982.34817 |                 0 |              17 |                  6240 |                 4261 |            1474372 |             0 |                0 |          244745 |                     0 |         98953 | 2017-02-08 20:59:52.862777+01

 2017-02-08 22:23:03.511299+01 | 1486588983.5113 |                 0 |              17 |                  6240 |                 4261 |            1474372 |             0 |                0 |          244745 |                     0 |         98953 | 2017-02-08 20:59:52.862777+01

 2017-02-08 22:23:04.670665+01 | 1486588984.67067 |                 0 |              17 |                  6240 |                 4261 |            1474372 |             0 |                0 |          244745 |                     0 |         98953 | 2017-02-08 20:59:52.862777+01

 2017-02-08 22:23:05.921955+01 | 1486588985.92196 |                 0 |              17 |                  6240 |                 4261 |            1474372 |             0 |                0 |          244745 |                     0 |         98953 | 2017-02-08 20:59:52.862777+01

 2017-02-08 22:23:07.17913+01 | 1486588987.17913 |                 0 |              17 |                  6240 |                 4261 |            1474372 |             0 |                0 |          244745 |                     0 |         98953 | 2017-02-08 20:59:52.862777+01

 2017-02-08 22:23:08.43786+01 | 1486588988.43786 |                 0 |              17 |                  6240 |                 4261 |            1474372 |             0 |                0 |          244745 |                     0 |         98953 | 2017-02-08 20:59:52.862777+01

 2017-02-08 22:23:09.618876+01 | 1486588989.61888 |                 0 |              17 |                  6240 |                 4261 |            1474372 |             0 |                0 |          244745 |                     0 |         98953 | 2017-02-08 20:59:52.862777+01

 2017-02-08 22:23:10.881726+01 | 1486588990.88173 |                 0 |              17 |                  6240 |                 4261 |            1474372 |             0 |                0 |          244745 |                     0 |         98953 | 2017-02-08 20:59:52.862777+01

 2017-02-08 22:23:12.079491+01 | 1486588992.07949 |                 0 |              17 |                  6240 |                 4261 |            1474372 |             0 |                0 |          244745 |                     0 |         98953 | 2017-02-08 20:59:52.862777+01

 2017-02-08 22:23:13.332789+01 | 1486588993.33279 |                 0 |              17 |                  6240 |                 4261 |            1474372 |             0 |                0 |          244745 |                     0 |         98953 | 2017-02-08 20:59:52.862777+01

 2017-02-08 22:23:14.550407+01 | 1486588994.55041 |                 0 |              17 |                  6240 |                 4261 |            1474372 |             0 |                0 |          244745 |                     0 |         98953 | 2017-02-08 20:59:52.862777+01

 2017-02-08 22:23:15.752529+01 | 1486588995.75253 |                 0 |              17 |                  6240 |                 4261 |            1474372 |             0 |                0 |          244745 |                     0 |         98953 | 2017-02-08 20:59:52.862777+01

 2017-02-08 22:23:16.957239+01 | 1486588996.95724 |                 0 |              17 |                  6240 |                 4261 |            1474372 |             0 |                0 |          244745 |                     0 |         98953 | 2017-02-08 20:59:52.862777+01

 2017-02-08 22:23:18.156366+01 | 1486588998.15637 |                 0 |              17 |                  6240 |                 4261 |            1474372 |             0 |                0 |          244745 |                     0 |         98953 | 2017-02-08 20:59:52.862777+01

 2017-02-08 22:23:19.399858+01 | 1486588999.39986 |                 0 |              17 |                  6240 |                 4261 |            1474372 |             0 |                0 |          244745 |                     0 |         98953 | 2017-02-08 20:59:52.862777+01

 2017-02-08 22:23:20.627189+01 | 1486589000.62719 |                 0 |              17 |                  6240 |                 4261 |            1474372 |             0 |                0 |          244745 |                     0 |         98953 | 2017-02-08 20:59:52.862777+01

 2017-02-08 22:23:21.82792+01 | 1486589001.82792 |                 0 |              17 |                  6240 |                 4261 |            1474372 |             0 |                0 |          244745 |                     0 |         98953 | 2017-02-08 20:59:52.862777+01

 2017-02-08 22:23:23.014988+01 | 1486589003.01499 |                 0 |              17 |                  6240 |                 4261 |            1474372 |             0 |                0 |          244745 |                     0 |         98953 | 2017-02-08 20:59:52.862777+01

 2017-02-08 22:23:24.25135+01 | 1486589004.25135 |                 0 |              17 |                  6240 |                 4261 |            1474372 |             0 |                0 |          244745 |                     0 |         98953 | 2017-02-08 20:59:52.862777+01

 2017-02-08 22:23:25.464307+01 | 1486589005.46431 |                 0 |              17 |                  6240 |                 4261 |            1474372 |             0 |                0 |          244745 |                     0 |         98953 | 2017-02-08 20:59:52.862777+01

 2017-02-08 22:23:26.684492+01 | 1486589006.68449 |                 0 |              17 |                  6240 |                 4261 |            1474372 |             0 |                0 |          244745 |                     0 |         98953 | 2017-02-08 20:59:52.862777+01

 2017-02-08 22:23:27.918869+01 | 1486589007.91887 |                 0 |              17 |                  6240 |                 4261 |            1474372 |             0 |                0 |          244745 |                     0 |         98953 | 2017-02-08 20:59:52.862777+01

 2017-02-08 22:23:29.099742+01 | 1486589009.09974 |                 0 |              17 |                  6240 |                 4261 |            1474372 |             0 |                0 |          244745 |                     0 |         98953 | 2017-02-08 20:59:52.862777+01

 2017-02-08 22:23:30.28676+01 | 1486589010.28676 |                 0 |              17 |                  6240 |                 4261 |            1474372 |             0 |                0 |          244745 |                     0 |         98953 | 2017-02-08 20:59:52.862777+01

 2017-02-08 22:23:31.549782+01 | 1486589011.54978 |                 0 |              17 |                  6240 |                 4261 |            1474372 |             0 |                0 |          244745 |                     0 |         98953 | 2017-02-08 20:59:52.862777+01

 2017-02-08 22:23:32.68941+01 | 1486589012.68941 |                 0 |              17 |                  6240 |                 4261 |            1474372 |             0 |                0 |          244745 |                     0 |         98953 | 2017-02-08 20:59:52.862777+01

 2017-02-08 22:23:33.835659+01 | 1486589013.83566 |                 0 |              17 |                  6240 |                 4261 |            1474372 |             0 |                0 |          244745 |                     0 |         98953 | 2017-02-08 20:59:52.862777+01

 2017-02-08 22:23:35.071003+01 | 1486589015.071 |                 0 |              17 |                  6240 |                 4261 |            1474372 |             0 |                0 |          244745 |                     0 |         98953 | 2017-02-08 20:59:52.862777+01

 2017-02-08 22:23:36.228093+01 | 1486589016.22809 |                 0 |              17 |                  6240 |                 4261 |            1474372 |             0 |                0 |          244745 |                     0 |         98953 | 2017-02-08 20:59:52.862777+01

 2017-02-08 22:23:37.48264+01 | 1486589017.48264 |                 0 |              17 |                  6240 |                 4261 |            1474372 |             0 |                0 |          244745 |                     0 |         98953 | 2017-02-08 20:59:52.862777+01

 2017-02-08 22:23:38.726306+01 | 1486589018.72631 |                 0 |              17 |                  6240 |                 4261 |            1474372 |             0 |                0 |          244745 |                     0 |         98953 | 2017-02-08 20:59:52.862777+01

 2017-02-08 22:23:39.944169+01 | 1486589019.94417 |                 0 |              17 |                  6240 |                 4261 |            1474372 |             0 |                0 |          244745 |                     0 |         98953 | 2017-02-08 20:59:52.862777+01

 2017-02-08 22:23:41.137359+01 | 1486589021.13736 |                 0 |              17 |                  6240 |                 4261 |            1474372 |             0 |                0 |          244745 |                     0 |         98953 | 2017-02-08 20:59:52.862777+01

 2017-02-08 22:23:42.399915+01 | 1486589022.39991 |                 0 |              17 |                  6240 |                 4261 |            1474372 |             0 |                0 |          244745 |                     0 |         98953 | 2017-02-08 20:59:52.862777+01

 2017-02-08 22:23:43.666909+01 | 1486589023.66691 |                 0 |              17 |                  6240 |                 4261 |            1474372 |             0 |                0 |          244745 |                     0 |         98953 | 2017-02-08 20:59:52.862777+01

 2017-02-08 22:23:44.866153+01 | 1486589024.86615 |                 0 |              17 |                  6240 |                 4261 |            1474372 |             0 |                0 |          244745 |                     0 |         98953 | 2017-02-08 20:59:52.862777+01

 2017-02-08 22:23:46.144616+01 | 1486589026.14462 |                 0 |              17 |                  6240 |                 4261 |            1474372 |             0 |                0 |          244745 |                     0 |         98953 | 2017-02-08 20:59:52.862777+01

 2017-02-08 22:23:47.404027+01 | 1486589027.40403 |                 0 |              17 |                  6240 |                 4261 |            1474372 |             0 |                0 |          244745 |                     0 |         98953 | 2017-02-08 20:59:52.862777+01

 2017-02-08 22:23:48.656598+01 | 1486589028.6566 |                 0 |              17 |                  6240 |                 4261 |            1474372 |             0 |                0 |          244745 |                     0 |         98953 | 2017-02-08 20:59:52.862777+01

 2017-02-08 22:23:49.819161+01 | 1486589029.81916 |                 0 |              17 |                  6240 |                 4261 |            1474372 |             0 |                0 |          244745 |                     0 |         98953 | 2017-02-08 20:59:52.862777+01

 2017-02-08 22:23:51.009061+01 | 1486589031.00906 |                 0 |              17 |                  6240 |                 4261 |            1474372 |             0 |                0 |          244745 |                     0 |         98953 | 2017-02-08 20:59:52.862777+01

 2017-02-08 22:23:52.270298+01 | 1486589032.2703 |                 0 |              17 |                  6240 |                 4261 |            1474372 |             0 |                0 |          244745 |                     0 |         98953 | 2017-02-08 20:59:52.862777+01

 2017-02-08 22:23:53.502916+01 | 1486589033.50292 |                 0 |              17 |                  6240 |                 4261 |            1474372 |             0 |                0 |          244745 |                     0 |         98953 | 2017-02-08 20:59:52.862777+01

 2017-02-08 22:23:54.766348+01 | 1486589034.76635 |                 0 |              17 |                  6240 |                 4261 |            1474372 |             0 |                0 |          244745 |                     0 |         98953 | 2017-02-08 20:59:52.862777+01

 2017-02-08 22:23:56.028583+01 | 1486589036.02858 |                 0 |              17 |                  6240 |                 4261 |            1474372 |             0 |                0 |          244745 |                     0 |         98953 | 2017-02-08 20:59:52.862777+01

 2017-02-08 22:23:57.226564+01 | 1486589037.22656 |                 0 |              17 |                  6240 |                 4261 |            1474372 |             0 |                0 |          244745 |                     0 |         98953 | 2017-02-08 20:59:52.862777+01

 2017-02-08 22:23:58.382873+01 | 1486589038.38287 |                 0 |              17 |                  6240 |                 4261 |            1474372 |             0 |                0 |          244745 |                     0 |         98953 | 2017-02-08 20:59:52.862777+01

 2017-02-08 22:23:59.63365+01 | 1486589039.63365 |                 0 |              17 |                  6240 |                 4261 |            1474372 |             0 |                0 |          244745 |                     0 |         98953 | 2017-02-08 20:59:52.862777+01

 2017-02-08 22:24:00.859434+01 | 1486589040.85943 |                 0 |              17 |                  6240 |                 4261 |            1474372 |             0 |                0 |          244745 |                     0 |         98953 | 2017-02-08 20:59:52.862777+01

 2017-02-08 22:24:02.098633+01 | 1486589042.09863 |                 0 |              17 |                  6240 |                 4261 |            1474372 |             0 |                0 |          244745 |                     0 |         98953 | 2017-02-08 20:59:52.862777+01

 2017-02-08 22:24:03.331863+01 | 1486589043.33186 |                 0 |              17 |                  6240 |                 4261 |            1474372 |             0 |                0 |          244745 |                     0 |         98953 | 2017-02-08 20:59:52.862777+01

 2017-02-08 22:24:04.493963+01 | 1486589044.49396 |                 0 |              17 |                  6240 |                 4261 |            1474372 |             0 |                0 |          244745 |                     0 |         98953 | 2017-02-08 20:59:52.862777+01

 2017-02-08 22:24:05.61174+01 | 1486589045.61174 |                 0 |              17 |                  6240 |                 4261 |            1474372 |             0 |                0 |          244745 |                     0 |         98953 | 2017-02-08 20:59:52.862777+01

 2017-02-08 22:24:06.899815+01 | 1486589046.89982 |                 0 |              17 |                  6240 |                 4261 |            1474372 |             0 |                0 |          244745 |                     0 |         98953 | 2017-02-08 20:59:52.862777+01

 2017-02-08 22:24:08.171351+01 | 1486589048.17135 |                 0 |              17 |                  6240 |                 4261 |            1474372 |             0 |                0 |          244745 |                     0 |         98953 | 2017-02-08 20:59:52.862777+01

 2017-02-08 22:24:09.442275+01 | 1486589049.44228 |                 0 |              17 |                  6240 |                 4261 |            1474372 |             0 |                0 |          244745 |                     0 |         98953 | 2017-02-08 20:59:52.862777+01

 2017-02-08 22:24:10.612318+01 | 1486589050.61232 |                 0 |              17 |                  6240 |                 4261 |            1474372 |             0 |                0 |          244745 |                     0 |         98953 | 2017-02-08 20:59:52.862777+01

 2017-02-08 22:24:11.884693+01 | 1486589051.88469 |                 0 |              17 |                  6240 |                 4261 |            1474372 |             0 |                0 |          244745 |                     0 |         98953 | 2017-02-08 20:59:52.862777+01

 2017-02-08 22:24:13.121505+01 | 1486589053.12151 |                 0 |              17 |                  6240 |                 4261 |            1474372 |             0 |                0 |          244745 |                     0 |         98953 | 2017-02-08 20:59:52.862777+01

 2017-02-08 22:24:14.364811+01 | 1486589054.36481 |                 0 |              17 |                  6240 |                 4261 |            1474372 |             0 |                0 |          244745 |                     0 |         98953 | 2017-02-08 20:59:52.862777+01

 2017-02-08 22:24:15.56312+01 | 1486589055.56312 |                 0 |              17 |                  6240 |                 4261 |            1474372 |             0 |                0 |          244745 |                     0 |         98953 | 2017-02-08 20:59:52.862777+01

 2017-02-08 22:24:16.797937+01 | 1486589056.79794 |                 0 |              17 |                  6240 |                 4261 |            1474372 |             0 |                0 |          244745 |                     0 |         98953 | 2017-02-08 20:59:52.862777+01

 2017-02-08 22:24:18.052741+01 | 1486589058.05274 |                 0 |              17 |                  6240 |                 4261 |            1474372 |             0 |                0 |          244745 |                     0 |         98953 | 2017-02-08 20:59:52.862777+01

 2017-02-08 22:24:19.232661+01 | 1486589059.23266 |                 0 |              17 |                  6240 |                 4261 |            1474372 |             0 |                0 |          244745 |                     0 |         98953 | 2017-02-08 20:59:52.862777+01

 2017-02-08 22:24:20.481674+01 | 1486589060.48167 |                 0 |              17 |                  6240 |                 4261 |            1474372 |             0 |                0 |          244745 |                     0 |         98953 | 2017-02-08 20:59:52.862777+01

 2017-02-08 22:24:21.660129+01 | 1486589061.66013 |                 0 |              17 |                  6240 |                 4261 |            1474372 |             0 |                0 |          244745 |                     0 |         98953 | 2017-02-08 20:59:52.862777+01

 2017-02-08 22:24:22.861864+01 | 1486589062.86186 |                 0 |              17 |                  6240 |                 4261 |            1474372 |             0 |                0 |          244745 |                     0 |         98953 | 2017-02-08 20:59:52.862777+01

 2017-02-08 22:24:24.044398+01 | 1486589064.0444 |                 0 |              17 |                  6240 |                 4261 |            1474372 |             0 |                0 |          244745 |                     0 |         98953 | 2017-02-08 20:59:52.862777+01

 2017-02-08 22:24:25.231564+01 | 1486589065.23156 |                 0 |              17 |                  6240 |                 4261 |            1474372 |             0 |                0 |          244745 |                     0 |         98953 | 2017-02-08 20:59:52.862777+01

 2017-02-08 22:24:26.435427+01 | 1486589066.43543 |                 0 |              17 |                  6240 |                 4261 |            1474372 |             0 |                0 |          244745 |                     0 |         98953 | 2017-02-08 20:59:52.862777+01

 2017-02-08 22:24:27.570671+01 | 1486589067.57067 |                 0 |              17 |                  6240 |                 4261 |            1474372 |             0 |                0 |          244745 |                     0 |         98953 | 2017-02-08 20:59:52.862777+01

 2017-02-08 22:24:28.730359+01 | 1486589068.73036 |                 0 |              17 |                  6240 |                 4261 |            1474372 |             0 |                0 |          244745 |                     0 |         98953 | 2017-02-08 20:59:52.862777+01

 2017-02-08 22:24:29.903241+01 | 1486589069.90324 |                 0 |              17 |                  6240 |                 4261 |            1474372 |             0 |                0 |          244745 |                     0 |         98953 | 2017-02-08 20:59:52.862777+01

 2017-02-08 22:24:31.136971+01 | 1486589071.13697 |                 0 |              17 |                  6240 |                 4261 |            1474372 |             0 |                0 |          244745 |                     0 |         98953 | 2017-02-08 20:59:52.862777+01

 2017-02-08 22:24:32.336748+01 | 1486589072.33675 |                 0 |              17 |                  6240 |                 4261 |            1474372 |             0 |                0 |          244745 |                     0 |         98953 | 2017-02-08 20:59:52.862777+01

 2017-02-08 22:24:33.529109+01 | 1486589073.52911 |                 0 |              17 |                  6240 |                 4261 |            1474372 |             0 |                0 |          244745 |                     0 |         98953 | 2017-02-08 20:59:52.862777+01

 2017-02-08 22:24:34.706131+01 | 1486589074.70613 |                 0 |              17 |                  6240 |                 4261 |            1474372 |             0 |                0 |          244745 |                     0 |         98953 | 2017-02-08 20:59:52.862777+01

 2017-02-08 22:24:35.954377+01 | 1486589075.95438 |                 0 |              17 |                  6240 |                 4261 |            1474372 |             0 |                0 |          244745 |                     0 |         98953 | 2017-02-08 20:59:52.862777+01

 2017-02-08 22:24:37.184261+01 | 1486589077.18426 |                 0 |              17 |                  6240 |                 4261 |            1474372 |             0 |                0 |          244745 |                     0 |         98953 | 2017-02-08 20:59:52.862777+01

 2017-02-08 22:24:38.335444+01 | 1486589078.33544 |                 0 |              17 |                  6240 |                 4261 |            1474372 |             0 |                0 |          244745 |                     0 |         98953 | 2017-02-08 20:59:52.862777+01

 2017-02-08 22:24:39.51468+01 | 1486589079.51468 |                 0 |              17 |                  6240 |                 4261 |            1474372 |             0 |                0 |          244745 |                     0 |         98953 | 2017-02-08 20:59:52.862777+01

 2017-02-08 22:24:40.745495+01 | 1486589080.7455 |                 0 |              17 |                  6240 |                 4261 |            1474372 |             0 |                0 |          244745 |                     0 |         98953 | 2017-02-08 20:59:52.862777+01

 2017-02-08 22:24:41.932058+01 | 1486589081.93206 |                 0 |              17 |                  6240 |                 4261 |            1474372 |             0 |                0 |          244745 |                     0 |         98953 | 2017-02-08 20:59:52.862777+01

 2017-02-08 22:24:43.12649+01 | 1486589083.12649 |                 0 |              17 |                  6240 |                 4261 |            1474372 |             0 |                0 |          244745 |                     0 |         98953 | 2017-02-08 20:59:52.862777+01

 2017-02-08 22:24:44.356006+01 | 1486589084.35601 |                 0 |              17 |                  6240 |                 4261 |            1474372 |             0 |                0 |          244745 |                     0 |         98954 | 2017-02-08 20:59:52.862777+01

 2017-02-08 22:24:45.527649+01 | 1486589085.52765 |                 0 |              17 |                  6240 |                 4261 |            1474372 |             0 |                0 |          244745 |                     0 |         98954 | 2017-02-08 20:59:52.862777+01

 2017-02-08 22:24:46.642424+01 | 1486589086.64242 |                 0 |              17 |                  6240 |                 4261 |            1474372 |             0 |                0 |          244745 |                     0 |         98954 | 2017-02-08 20:59:52.862777+01

 2017-02-08 22:24:47.862119+01 | 1486589087.86212 |                 0 |              17 |                  6240 |                 4261 |            1474372 |             0 |                0 |          244745 |                     0 |         98954 | 2017-02-08 20:59:52.862777+01

 2017-02-08 22:24:49.082956+01 | 1486589089.08296 |                 0 |              17 |                  6240 |                 4261 |            1474372 |             0 |                0 |          244745 |                     0 |         98954 | 2017-02-08 20:59:52.862777+01

 2017-02-08 22:24:50.347113+01 | 1486589090.34711 |                 0 |              17 |                  6240 |                 4261 |            1474372 |             0 |                0 |          244745 |                     0 |         98954 | 2017-02-08 20:59:52.862777+01

 2017-02-08 22:24:51.629308+01 | 1486589091.62931 |                 0 |              17 |                  6240 |                 4261 |            1474372 |             0 |                0 |          244745 |                     0 |         98954 | 2017-02-08 20:59:52.862777+01

 2017-02-08 22:24:52.810526+01 | 1486589092.81053 |                 0 |              17 |                  6240 |                 4261 |            1474372 |             0 |                0 |          244745 |                     0 |         98954 | 2017-02-08 20:59:52.862777+01

 2017-02-08 22:24:54.066449+01 | 1486589094.06645 |                 0 |              17 |                  6240 |                 4261 |            1474372 |             0 |                0 |          244745 |                     0 |         98954 | 2017-02-08 20:59:52.862777+01

 2017-02-08 22:24:55.236805+01 | 1486589095.2368 |                 0 |              17 |                  6240 |                 4261 |            1474372 |             0 |                0 |          244745 |                     0 |         98954 | 2017-02-08 20:59:52.862777+01

 2017-02-08 22:24:56.413953+01 | 1486589096.41395 |                 0 |              17 |                  6240 |                 4261 |            1474372 |             0 |                0 |          244745 |                     0 |         98954 | 2017-02-08 20:59:52.862777+01

 2017-02-08 22:24:57.573383+01 | 1486589097.57338 |                 0 |              17 |                  6240 |                 4261 |            1474372 |             0 |                0 |          244745 |                     0 |         98954 | 2017-02-08 20:59:52.862777+01

 2017-02-08 22:24:58.841488+01 | 1486589098.84149 |                 0 |              17 |                  6240 |                 4261 |            1474372 |             0 |                0 |          244745 |                     0 |         98954 | 2017-02-08 20:59:52.862777+01

 2017-02-08 22:25:00.024769+01 | 1486589100.02477 |                 0 |              17 |                  6240 |                 4261 |            1474372 |             0 |                0 |          244745 |                     0 |         98954 | 2017-02-08 20:59:52.862777+01

 2017-02-08 22:25:01.246524+01 | 1486589101.24652 |                 0 |              17 |                  6240 |                 4261 |            1474372 |             0 |                0 |          244745 |                     0 |         98954 | 2017-02-08 20:59:52.862777+01

 2017-02-08 22:25:02.441358+01 | 1486589102.44136 |                 0 |              17 |                  6240 |                 4261 |            1474372 |             0 |                0 |          244745 |                     0 |         98954 | 2017-02-08 20:59:52.862777+01

 2017-02-08 22:25:03.674169+01 | 1486589103.67417 |                 0 |              17 |                  6240 |                 4261 |            1474372 |             0 |                0 |          244745 |                     0 |         98954 | 2017-02-08 20:59:52.862777+01

 2017-02-08 22:25:04.820574+01 | 1486589104.82057 |                 0 |              17 |                  6240 |                 4261 |            1474372 |             0 |                0 |          244745 |                     0 |         98954 | 2017-02-08 20:59:52.862777+01

 2017-02-08 22:25:06.033933+01 | 1486589106.03393 |                 0 |              17 |                  6240 |                 4261 |            1474372 |             0 |                0 |          244745 |                     0 |         98954 | 2017-02-08 20:59:52.862777+01

 2017-02-08 22:25:07.285595+01 | 1486589107.28559 |                 0 |              17 |                  6240 |                 4261 |            1474372 |             0 |                0 |          244745 |                     0 |         98954 | 2017-02-08 20:59:52.862777+01

 2017-02-08 22:25:08.480645+01 | 1486589108.48064 |                 0 |              17 |                  6240 |                 4261 |            1474372 |             0 |                0 |          244745 |                     0 |         98954 | 2017-02-08 20:59:52.862777+01

 2017-02-08 22:25:09.70913+01 | 1486589109.70913 |                 0 |              17 |                  6240 |                 4261 |            1474372 |             0 |                0 |          244745 |                     0 |         98954 | 2017-02-08 20:59:52.862777+01

 2017-02-08 22:25:10.889838+01 | 1486589110.88984 |                 0 |              17 |                  6240 |                 4261 |            1474372 |             0 |                0 |          244745 |                     0 |         98954 | 2017-02-08 20:59:52.862777+01

 2017-02-08 22:25:12.087219+01 | 1486589112.08722 |                 0 |              17 |                  6240 |                 4261 |            1474372 |             0 |                0 |          244745 |                     0 |         98954 | 2017-02-08 20:59:52.862777+01

 2017-02-08 22:25:13.292756+01 | 1486589113.29276 |                 0 |              17 |                  6240 |                 4261 |            1474372 |             0 |                0 |          244745 |                     0 |         98954 | 2017-02-08 20:59:52.862777+01

 2017-02-08 22:25:14.54891+01 | 1486589114.54891 |                 0 |              17 |                  6240 |                 4261 |            1474372 |             0 |                0 |          244745 |                     0 |         98954 | 2017-02-08 20:59:52.862777+01

