 2017-02-09 03:34:10.122179+01 | 1486607650.12218 | 0/27C9ABF8               |             667528184

 2017-02-09 03:34:11.431777+01 | 1486607651.43178 | 0/27C9AC30               |             667528240

 2017-02-09 03:34:12.83355+01 | 1486607652.83355 | 0/27C9AC30               |             667528240

 2017-02-09 03:34:14.211086+01 | 1486607654.21109 | 0/27C9AC30               |             667528240

 2017-02-09 03:34:15.551222+01 | 1486607655.55122 | 0/27C9AC30               |             667528240

 2017-02-09 03:34:16.94053+01 | 1486607656.94053 | 0/27C9AC30               |             667528240

 2017-02-09 03:34:18.366903+01 | 1486607658.3669 | 0/27C9AC30               |             667528240

 2017-02-09 03:34:19.764529+01 | 1486607659.76453 | 0/27C9AC30               |             667528240

 2017-02-09 03:34:21.198997+01 | 1486607661.199 | 0/27C9AC30               |             667528240

 2017-02-09 03:34:22.610889+01 | 1486607662.61089 | 0/27C9AC30               |             667528240

 2017-02-09 03:34:24.039428+01 | 1486607664.03943 | 0/27C9AC30               |             667528240

 2017-02-09 03:34:25.451208+01 | 1486607665.45121 | 0/27C9AC30               |             667528240

 2017-02-09 03:34:26.905624+01 | 1486607666.90562 | 0/27C9AC30               |             667528240

 2017-02-09 03:34:28.331501+01 | 1486607668.3315 | 0/27C9AC30               |             667528240

 2017-02-09 03:34:29.720641+01 | 1486607669.72064 | 0/27C9AC30               |             667528240

 2017-02-09 03:34:31.071095+01 | 1486607671.07109 | 0/27C9AC30               |             667528240

 2017-02-09 03:34:32.459691+01 | 1486607672.45969 | 0/27C9AC30               |             667528240

 2017-02-09 03:34:33.915959+01 | 1486607673.91596 | 0/27C9AC30               |             667528240

 2017-02-09 03:34:35.315582+01 | 1486607675.31558 | 0/27C9AC30               |             667528240

 2017-02-09 03:34:36.734382+01 | 1486607676.73438 | 0/27C9AC30               |             667528240

 2017-02-09 03:34:38.069109+01 | 1486607678.06911 | 0/27C9AC30               |             667528240

 2017-02-09 03:34:39.539325+01 | 1486607679.53932 | 0/27C9AC30               |             667528240

 2017-02-09 03:34:40.977609+01 | 1486607680.97761 | 0/27C9AC30               |             667528240

 2017-02-09 03:34:42.407887+01 | 1486607682.40789 | 0/27C9AC30               |             667528240

 2017-02-09 03:34:43.826127+01 | 1486607683.82613 | 0/27C9AC30               |             667528240

 2017-02-09 03:34:45.285634+01 | 1486607685.28563 | 0/27C9AC30               |             667528240

 2017-02-09 03:34:46.687497+01 | 1486607686.6875 | 0/27C9AC30               |             667528240

 2017-02-09 03:34:48.05144+01 | 1486607688.05144 | 0/27C9AC30               |             667528240

 2017-02-09 03:34:49.428184+01 | 1486607689.42818 | 0/27C9AC30               |             667528240

 2017-02-09 03:34:50.858988+01 | 1486607690.85899 | 0/27C9AC30               |             667528240

 2017-02-09 03:34:52.280102+01 | 1486607692.2801 | 0/27C9AC30               |             667528240

 2017-02-09 03:34:53.709423+01 | 1486607693.70942 | 0/27C9AC30               |             667528240

 2017-02-09 03:34:55.124485+01 | 1486607695.12449 | 0/27C9AC30               |             667528240

 2017-02-09 03:34:56.472039+01 | 1486607696.47204 | 0/27C9AC30               |             667528240

 2017-02-09 03:34:57.909271+01 | 1486607697.90927 | 0/27C9AC30               |             667528240

 2017-02-09 03:34:59.312752+01 | 1486607699.31275 | 0/27C9AC30               |             667528240

 2017-02-09 03:35:00.727451+01 | 1486607700.72745 | 0/27C9AC30               |             667528240

 2017-02-09 03:35:02.142905+01 | 1486607702.1429 | 0/27C9AC30               |             667528240

 2017-02-09 03:35:03.530424+01 | 1486607703.53042 | 0/27C9AC30               |             667528240

 2017-02-09 03:35:04.970512+01 | 1486607704.97051 | 0/27C9AC30               |             667528240

 2017-02-09 03:35:06.3852+01 | 1486607706.3852 | 0/27C9AC30               |             667528240

 2017-02-09 03:35:07.7719+01 | 1486607707.7719 | 0/27C9AC30               |             667528240

 2017-02-09 03:35:09.148+01 | 1486607709.148 | 0/27C9AC30               |             667528240

 2017-02-09 03:35:10.52266+01 | 1486607710.52266 | 0/27C9AC30               |             667528240

 2017-02-09 03:35:11.895367+01 | 1486607711.89537 | 0/27C9AC30               |             667528240

 2017-02-09 03:35:13.290317+01 | 1486607713.29032 | 0/27C9AC30               |             667528240

 2017-02-09 03:35:14.681221+01 | 1486607714.68122 | 0/27C9AC30               |             667528240

 2017-02-09 03:35:16.101668+01 | 1486607716.10167 | 0/27C9AC30               |             667528240

 2017-02-09 03:35:17.46528+01 | 1486607717.46528 | 0/27C9AC30               |             667528240

 2017-02-09 03:35:18.876052+01 | 1486607718.87605 | 0/27C9AC30               |             667528240

 2017-02-09 03:35:20.2011+01 | 1486607720.2011 | 0/27C9AC30               |             667528240

 2017-02-09 03:35:21.555836+01 | 1486607721.55584 | 0/27C9AC30               |             667528240

 2017-02-09 03:35:22.889094+01 | 1486607722.88909 | 0/27C9AC30               |             667528240

 2017-02-09 03:35:24.244542+01 | 1486607724.24454 | 0/27C9AC30               |             667528240

 2017-02-09 03:35:25.60431+01 | 1486607725.60431 | 0/27C9AC30               |             667528240

 2017-02-09 03:35:26.987668+01 | 1486607726.98767 | 0/27C9AC30               |             667528240

 2017-02-09 03:35:28.391859+01 | 1486607728.39186 | 0/27C9AC30               |             667528240

 2017-02-09 03:35:29.833512+01 | 1486607729.83351 | 0/27C9AC30               |             667528240

 2017-02-09 03:35:31.245093+01 | 1486607731.24509 | 0/27C9AC30               |             667528240

 2017-02-09 03:35:32.58984+01 | 1486607732.58984 | 0/27C9AC30               |             667528240

 2017-02-09 03:35:33.966595+01 | 1486607733.96659 | 0/27C9AC30               |             667528240

 2017-02-09 03:35:35.255802+01 | 1486607735.2558 | 0/27C9AC30               |             667528240

 2017-02-09 03:35:36.555541+01 | 1486607736.55554 | 0/27C9AC30               |             667528240

 2017-02-09 03:35:37.940593+01 | 1486607737.94059 | 0/27C9AC30               |             667528240

 2017-02-09 03:35:39.32465+01 | 1486607739.32465 | 0/27C9AC30               |             667528240

 2017-02-09 03:35:40.667223+01 | 1486607740.66722 | 0/27C9AC30               |             667528240

 2017-02-09 03:35:42.019188+01 | 1486607742.01919 | 0/27C9AC30               |             667528240

 2017-02-09 03:35:43.336734+01 | 1486607743.33673 | 0/27C9AC30               |             667528240

 2017-02-09 03:35:44.758741+01 | 1486607744.75874 | 0/27C9AC30               |             667528240

 2017-02-09 03:35:46.157066+01 | 1486607746.15707 | 0/27C9AC30               |             667528240

 2017-02-09 03:35:47.57164+01 | 1486607747.57164 | 0/27C9AC30               |             667528240

 2017-02-09 03:35:48.967188+01 | 1486607748.96719 | 0/27C9AC30               |             667528240

 2017-02-09 03:35:50.354492+01 | 1486607750.35449 | 0/27C9AC30               |             667528240

 2017-02-09 03:35:51.738398+01 | 1486607751.7384 | 0/27C9AC30               |             667528240

 2017-02-09 03:35:53.193143+01 | 1486607753.19314 | 0/27C9AC30               |             667528240

 2017-02-09 03:35:54.629766+01 | 1486607754.62977 | 0/27C9AC30               |             667528240

 2017-02-09 03:35:56.009315+01 | 1486607756.00932 | 0/27C9AC30               |             667528240

 2017-02-09 03:35:57.410108+01 | 1486607757.41011 | 0/27C9AC30               |             667528240

 2017-02-09 03:35:58.824234+01 | 1486607758.82423 | 0/27C9AC30               |             667528240

 2017-02-09 03:36:00.229496+01 | 1486607760.2295 | 0/27C9AC30               |             667528240

 2017-02-09 03:36:01.648581+01 | 1486607761.64858 | 0/27C9AC30               |             667528240

 2017-02-09 03:36:03.024345+01 | 1486607763.02434 | 0/27C9AC30               |             667528240

 2017-02-09 03:36:04.468002+01 | 1486607764.468 | 0/27C9AC30               |             667528240

 2017-02-09 03:36:05.829658+01 | 1486607765.82966 | 0/27C9AC30               |             667528240

 2017-02-09 03:36:07.229282+01 | 1486607767.22928 | 0/27C9AC30               |             667528240

 2017-02-09 03:36:08.624947+01 | 1486607768.62495 | 0/27C9AC30               |             667528240

 2017-02-09 03:36:10.030648+01 | 1486607770.03065 | 0/27C9AC30               |             667528240

 2017-02-09 03:36:11.439837+01 | 1486607771.43984 | 0/27C9AC30               |             667528240

 2017-02-09 03:36:12.846903+01 | 1486607772.8469 | 0/27C9AC30               |             667528240

 2017-02-09 03:36:14.235424+01 | 1486607774.23542 | 0/27C9AC30               |             667528240

 2017-02-09 03:36:15.569241+01 | 1486607775.56924 | 0/27C9AC30               |             667528240

 2017-02-09 03:36:17.010486+01 | 1486607777.01049 | 0/27C9AC30               |             667528240

 2017-02-09 03:36:18.4149+01 | 1486607778.4149 | 0/27C9AC30               |             667528240

 2017-02-09 03:36:19.819933+01 | 1486607779.81993 | 0/27C9AC30               |             667528240

 2017-02-09 03:36:21.240339+01 | 1486607781.24034 | 0/27C9AC30               |             667528240

 2017-02-09 03:36:22.655846+01 | 1486607782.65585 | 0/27C9AC30               |             667528240

 2017-02-09 03:36:24.066611+01 | 1486607784.06661 | 0/27C9AC30               |             667528240

 2017-02-09 03:36:25.423898+01 | 1486607785.4239 | 0/27C9AC30               |             667528240

 2017-02-09 03:36:26.856024+01 | 1486607786.85602 | 0/27C9AC30               |             667528240

 2017-02-09 03:36:28.191811+01 | 1486607788.19181 | 0/27C9AC30               |             667528240

 2017-02-09 03:36:29.647141+01 | 1486607789.64714 | 0/27C9AC30               |             667528240

 2017-02-09 03:36:31.114112+01 | 1486607791.11411 | 0/27C9AC30               |             667528240

 2017-02-09 03:36:32.560517+01 | 1486607792.56052 | 0/27C9AC30               |             667528240

 2017-02-09 03:36:34.007839+01 | 1486607794.00784 | 0/27C9AC30               |             667528240

 2017-02-09 03:36:35.465175+01 | 1486607795.46517 | 0/27C9AC30               |             667528240

 2017-02-09 03:36:36.930861+01 | 1486607796.93086 | 0/27C9AC30               |             667528240

 2017-02-09 03:36:38.381546+01 | 1486607798.38155 | 0/27C9AC30               |             667528240

 2017-02-09 03:36:39.837402+01 | 1486607799.8374 | 0/27C9AC30               |             667528240

 2017-02-09 03:36:41.292513+01 | 1486607801.29251 | 0/27C9AC30               |             667528240

 2017-02-09 03:36:42.755642+01 | 1486607802.75564 | 0/27C9AC30               |             667528240

 2017-02-09 03:36:44.218128+01 | 1486607804.21813 | 0/27C9AC30               |             667528240

 2017-02-09 03:36:45.671327+01 | 1486607805.67133 | 0/27C9AC30               |             667528240

 2017-02-09 03:36:47.119733+01 | 1486607807.11973 | 0/27C9AC30               |             667528240

 2017-02-09 03:36:48.565849+01 | 1486607808.56585 | 0/27C9AC30               |             667528240

 2017-02-09 03:36:50.01713+01 | 1486607810.01713 | 0/27C9AC30               |             667528240

 2017-02-09 03:36:51.47309+01 | 1486607811.47309 | 0/27C9AC30               |             667528240

 2017-02-09 03:36:52.929897+01 | 1486607812.9299 | 0/27C9AC30               |             667528240

 2017-02-09 03:36:54.333514+01 | 1486607814.33351 | 0/27C9AC30               |             667528240

 2017-02-09 03:36:55.748417+01 | 1486607815.74842 | 0/27C9AC30               |             667528240

 2017-02-09 03:36:57.171629+01 | 1486607817.17163 | 0/27C9AC30               |             667528240

 2017-02-09 03:36:58.591752+01 | 1486607818.59175 | 0/27C9AC30               |             667528240

 2017-02-09 03:37:00.017138+01 | 1486607820.01714 | 0/27C9AC30               |             667528240

 2017-02-09 03:37:01.444434+01 | 1486607821.44443 | 0/27C9AC30               |             667528240

 2017-02-09 03:37:02.852251+01 | 1486607822.85225 | 0/27C9AC30               |             667528240

 2017-02-09 03:37:04.233136+01 | 1486607824.23314 | 0/27C9AC30               |             667528240

 2017-02-09 03:37:05.580246+01 | 1486607825.58025 | 0/27C9AC30               |             667528240

 2017-02-09 03:37:06.921291+01 | 1486607826.92129 | 0/27C9AC30               |             667528240

 2017-02-09 03:37:08.369641+01 | 1486607828.36964 | 0/27C9AC30               |             667528240

 2017-02-09 03:37:09.821154+01 | 1486607829.82115 | 0/27C9AC30               |             667528240

 2017-02-09 03:37:11.237155+01 | 1486607831.23715 | 0/27C9AC30               |             667528240

 2017-02-09 03:37:12.584028+01 | 1486607832.58403 | 0/27C9AC30               |             667528240

 2017-02-09 03:37:13.893928+01 | 1486607833.89393 | 0/27C9AC30               |             667528240

 2017-02-09 03:37:15.295291+01 | 1486607835.29529 | 0/27C9AC30               |             667528240

 2017-02-09 03:37:16.710233+01 | 1486607836.71023 | 0/27C9AC30               |             667528240

 2017-02-09 03:37:18.103084+01 | 1486607838.10308 | 0/27C9AC30               |             667528240

 2017-02-09 03:37:19.446762+01 | 1486607839.44676 | 0/27C9AC30               |             667528240

 2017-02-09 03:37:20.843493+01 | 1486607840.84349 | 0/27C9AC30               |             667528240

 2017-02-09 03:37:22.294486+01 | 1486607842.29449 | 0/27C9AC30               |             667528240

 2017-02-09 03:37:23.743477+01 | 1486607843.74348 | 0/27C9AC30               |             667528240

 2017-02-09 03:37:25.193546+01 | 1486607845.19355 | 0/27C9AC30               |             667528240

 2017-02-09 03:37:26.641672+01 | 1486607846.64167 | 0/27C9AC30               |             667528240

 2017-02-09 03:37:28.069309+01 | 1486607848.06931 | 0/27C9AC30               |             667528240

 2017-02-09 03:37:29.517862+01 | 1486607849.51786 | 0/27C9AC30               |             667528240

 2017-02-09 03:37:30.932737+01 | 1486607850.93274 | 0/27C9AC30               |             667528240

 2017-02-09 03:37:32.356492+01 | 1486607852.35649 | 0/27C9AC30               |             667528240

 2017-02-09 03:37:33.80802+01 | 1486607853.80802 | 0/27C9AC30               |             667528240

 2017-02-09 03:37:35.220752+01 | 1486607855.22075 | 0/27C9AC30               |             667528240

 2017-02-09 03:37:36.59182+01 | 1486607856.59182 | 0/27C9AC30               |             667528240

 2017-02-09 03:37:38.003886+01 | 1486607858.00389 | 0/27C9AC30               |             667528240

 2017-02-09 03:37:39.435556+01 | 1486607859.43556 | 0/27C9AC30               |             667528240

 2017-02-09 03:37:40.731888+01 | 1486607860.73189 | 0/27C9AC30               |             667528240

 2017-02-09 03:37:42.137851+01 | 1486607862.13785 | 0/27C9AC30               |             667528240

 2017-02-09 03:37:43.612264+01 | 1486607863.61226 | 0/27C9AC30               |             667528240

 2017-02-09 03:37:45.042685+01 | 1486607865.04269 | 0/27C9AC30               |             667528240

 2017-02-09 03:37:46.435456+01 | 1486607866.43546 | 0/27C9AC30               |             667528240

 2017-02-09 03:37:47.816786+01 | 1486607867.81679 | 0/27C9AC30               |             667528240

 2017-02-09 03:37:49.149975+01 | 1486607869.14998 | 0/27C9AC30               |             667528240

 2017-02-09 03:37:50.496185+01 | 1486607870.49619 | 0/27C9AC30               |             667528240

 2017-02-09 03:37:51.877831+01 | 1486607871.87783 | 0/27C9AC30               |             667528240

 2017-02-09 03:37:53.263534+01 | 1486607873.26353 | 0/27C9AC30               |             667528240

 2017-02-09 03:37:54.635042+01 | 1486607874.63504 | 0/27C9AC30               |             667528240

 2017-02-09 03:37:55.997337+01 | 1486607875.99734 | 0/27C9AC30               |             667528240

 2017-02-09 03:37:57.397573+01 | 1486607877.39757 | 0/27C9AC30               |             667528240

 2017-02-09 03:37:58.753868+01 | 1486607878.75387 | 0/27C9AC30               |             667528240

 2017-02-09 03:38:00.137802+01 | 1486607880.1378 | 0/27C9AC30               |             667528240

 2017-02-09 03:38:01.470982+01 | 1486607881.47098 | 0/27C9AC30               |             667528240

 2017-02-09 03:38:02.784783+01 | 1486607882.78478 | 0/27C9AC30               |             667528240

 2017-02-09 03:38:04.106502+01 | 1486607884.1065 | 0/27C9AC30               |             667528240

 2017-02-09 03:38:05.471565+01 | 1486607885.47157 | 0/27C9AC30               |             667528240

 2017-02-09 03:38:06.828439+01 | 1486607886.82844 | 0/27C9AC30               |             667528240

 2017-02-09 03:38:08.215266+01 | 1486607888.21527 | 0/27C9AC30               |             667528240

 2017-02-09 03:38:09.60044+01 | 1486607889.60044 | 0/27C9AC30               |             667528240

 2017-02-09 03:38:10.972887+01 | 1486607890.97289 | 0/27C9AC30               |             667528240

 2017-02-09 03:38:12.322135+01 | 1486607892.32213 | 0/27C9AC30               |             667528240

 2017-02-09 03:38:13.707346+01 | 1486607893.70735 | 0/27C9AC30               |             667528240

 2017-02-09 03:38:15.06295+01 | 1486607895.06295 | 0/27C9AC30               |             667528240

 2017-02-09 03:38:16.455108+01 | 1486607896.45511 | 0/27C9AC30               |             667528240

 2017-02-09 03:38:17.821318+01 | 1486607897.82132 | 0/27C9AC30               |             667528240

 2017-02-09 03:38:19.140363+01 | 1486607899.14036 | 0/27C9AC30               |             667528240

 2017-02-09 03:38:20.480098+01 | 1486607900.4801 | 0/27C9AC30               |             667528240

 2017-02-09 03:38:21.848523+01 | 1486607901.84852 | 0/27C9AC30               |             667528240

 2017-02-09 03:38:23.210378+01 | 1486607903.21038 | 0/27C9AC30               |             667528240

 2017-02-09 03:38:24.594332+01 | 1486607904.59433 | 0/27C9AC30               |             667528240

 2017-02-09 03:38:25.893525+01 | 1486607905.89352 | 0/27C9AC30               |             667528240

 2017-02-09 03:38:27.281633+01 | 1486607907.28163 | 0/27C9AC30               |             667528240

 2017-02-09 03:38:28.706281+01 | 1486607908.70628 | 0/27C9AC30               |             667528240

 2017-02-09 03:38:30.114849+01 | 1486607910.11485 | 0/27C9AC30               |             667528240

 2017-02-09 03:38:31.481448+01 | 1486607911.48145 | 0/27C9AC30               |             667528240

 2017-02-09 03:38:32.883828+01 | 1486607912.88383 | 0/27C9AC30               |             667528240

 2017-02-09 03:38:34.313737+01 | 1486607914.31374 | 0/27C9AC30               |             667528240

 2017-02-09 03:38:35.747142+01 | 1486607915.74714 | 0/27C9AC30               |             667528240

 2017-02-09 03:38:37.171613+01 | 1486607917.17161 | 0/27C9AC30               |             667528240

 2017-02-09 03:38:38.564924+01 | 1486607918.56492 | 0/27C9AC30               |             667528240

 2017-02-09 03:38:39.977291+01 | 1486607919.97729 | 0/27C9AC30               |             667528240

 2017-02-09 03:38:41.40629+01 | 1486607921.40629 | 0/27C9AC30               |             667528240

 2017-02-09 03:38:42.843685+01 | 1486607922.84368 | 0/27C9AC30               |             667528240

 2017-02-09 03:38:44.270875+01 | 1486607924.27087 | 0/27C9AC30               |             667528240

 2017-02-09 03:38:45.661842+01 | 1486607925.66184 | 0/27C9AC30               |             667528240

 2017-02-09 03:38:47.005744+01 | 1486607927.00574 | 0/27C9AC30               |             667528240

 2017-02-09 03:38:48.353686+01 | 1486607928.35369 | 0/27C9AC30               |             667528240

 2017-02-09 03:38:49.760198+01 | 1486607929.7602 | 0/27C9AC30               |             667528240

 2017-02-09 03:38:51.140858+01 | 1486607931.14086 | 0/27C9AC30               |             667528240

 2017-02-09 03:38:52.550515+01 | 1486607932.55051 | 0/27C9AC30               |             667528240

 2017-02-09 03:38:53.962788+01 | 1486607933.96279 | 0/27C9AC30               |             667528240

 2017-02-09 03:38:55.369788+01 | 1486607935.36979 | 0/27C9AC30               |             667528240

 2017-02-09 03:38:56.794756+01 | 1486607936.79476 | 0/27C9AC30               |             667528240

 2017-02-09 03:38:58.218941+01 | 1486607938.21894 | 0/27C9AC30               |             667528240

 2017-02-09 03:38:59.613587+01 | 1486607939.61359 | 0/27C9AC30               |             667528240

 2017-02-09 03:39:01.023413+01 | 1486607941.02341 | 0/27C9AC30               |             667528240

 2017-02-09 03:39:02.478214+01 | 1486607942.47821 | 0/27C9AC30               |             667528240

 2017-02-09 03:39:03.875692+01 | 1486607943.87569 | 0/27C9AC30               |             667528240

 2017-02-09 03:39:05.280681+01 | 1486607945.28068 | 0/27C9AC30               |             667528240

 2017-02-09 03:39:06.695993+01 | 1486607946.69599 | 0/27C9AC30               |             667528240

 2017-02-09 03:39:08.078787+01 | 1486607948.07879 | 0/27C9AC30               |             667528240

 2017-02-09 03:39:09.500277+01 | 1486607949.50028 | 0/27C9AC30               |             667528240

