 2017-02-08 11:42:06.024741+01 | 1486550526.02474 | A/BF8B0698               |           46163232408

 2017-02-08 11:42:07.07585+01 | 1486550527.07585 | A/C4B294C0               |           46249710784

 2017-02-08 11:42:08.129844+01 | 1486550528.12984 | A/C9BA7820               |           46334113824

 2017-02-08 11:42:09.18359+01 | 1486550529.18359 | A/CEBE0A88               |           46418233992

 2017-02-08 11:42:10.2401+01 | 1486550530.2401 | A/D3C113D0               |           46502319056

 2017-02-08 11:42:11.294277+01 | 1486550531.29428 | A/D863AC50               |           46580083792

 2017-02-08 11:42:12.348623+01 | 1486550532.34862 | A/DD30B6D8               |           46660630232

 2017-02-08 11:42:13.400953+01 | 1486550533.40095 | A/E1EF0DB0               |           46740213168

 2017-02-08 11:42:14.454239+01 | 1486550534.45424 | A/E6853080               |           46817161344

 2017-02-08 11:42:15.508992+01 | 1486550535.50899 | A/EAC821F0               |           46888657392

 2017-02-08 11:42:16.561457+01 | 1486550536.56146 | A/EEF752B8               |           46958858936

 2017-02-08 11:42:17.615129+01 | 1486550537.61513 | A/F2DA2718               |           47024056088

 2017-02-08 11:42:18.668202+01 | 1486550538.6682 | A/F6E7D378               |           47092061048

 2017-02-08 11:42:19.724877+01 | 1486550539.72488 | A/FAE5A8A0               |           47159027872

 2017-02-08 11:42:20.779558+01 | 1486550540.77956 | A/FF4E7D58               |           47233006936

 2017-02-08 11:42:21.835003+01 | 1486550541.835 | B/3E99C08                |           47310281736

 2017-02-08 11:42:22.89052+01 | 1486550542.89052 | B/87FB048                |           47387226184

 2017-02-08 11:42:23.952601+01 | 1486550543.9526 | B/CFBE1A0                |           47462474144

 2017-02-08 11:42:25.013878+01 | 1486550545.01388 | B/11708FB8               |           47537229752

 2017-02-08 11:42:26.064622+01 | 1486550546.06462 | B/15C6E030               |           47609995312

 2017-02-08 11:42:27.12106+01 | 1486550547.12106 | B/1A12B9C8               |           47682075080

 2017-02-08 11:42:28.175877+01 | 1486550548.17588 | B/1E5DEC38               |           47754112056

 2017-02-08 11:42:29.229284+01 | 1486550549.22928 | B/228AD868               |           47824164968

 2017-02-08 11:42:30.284764+01 | 1486550550.28476 | B/26B21528               |           47893845288

 2017-02-08 11:42:31.344677+01 | 1486550551.34468 | B/2AC7C538               |           47962375480

 2017-02-08 11:42:32.425443+01 | 1486550552.42544 | B/2EC4A138               |           48029278520

 2017-02-08 11:42:33.480402+01 | 1486550553.4804 | B/32B8F858               |           48095623256

 2017-02-08 11:42:34.534663+01 | 1486550554.53466 | B/36A8EEB0               |           48161681072

 2017-02-08 11:42:35.589558+01 | 1486550555.58956 | B/3A8BD8A0               |           48226883744

 2017-02-08 11:42:36.649693+01 | 1486550556.64969 | B/3E5FB110               |           48291098896

 2017-02-08 11:42:37.705859+01 | 1486550557.70586 | B/4226A3C8               |           48354468808

 2017-02-08 11:42:38.766+01 | 1486550558.766 | B/45BB6F58               |           48414551896

 2017-02-08 11:42:39.828718+01 | 1486550559.82872 | B/48E200F8               |           48467411192

 2017-02-08 11:42:40.880808+01 | 1486550560.88081 | B/4C294CA8               |           48522415272

 2017-02-08 11:42:41.941161+01 | 1486550561.94116 | B/4FBC1408               |           48582366216

 2017-02-08 11:42:43.000517+01 | 1486550563.00052 | B/53419A50               |           48641448528

 2017-02-08 11:42:44.060699+01 | 1486550564.0607 | B/56AFDC30               |           48699006000

 2017-02-08 11:42:45.120308+01 | 1486550565.12031 | B/5A10BC58               |           48755686488

 2017-02-08 11:42:46.177929+01 | 1486550566.17793 | B/5D6FF130               |           48812257584

 2017-02-08 11:42:47.232239+01 | 1486550567.23224 | B/60993940               |           48865294656

 2017-02-08 11:42:48.285023+01 | 1486550568.28502 | B/63CE1FE8               |           48919093224

 2017-02-08 11:42:49.340234+01 | 1486550569.34023 | B/66F89818               |           48972208152

 2017-02-08 11:42:50.393601+01 | 1486550570.3936 | B/6A1C1C88               |           49024867464

 2017-02-08 11:42:51.453189+01 | 1486550571.45319 | B/6D3BE398               |           49077281688

 2017-02-08 11:42:52.512405+01 | 1486550572.5124 | B/702F94A0               |           49126806688

 2017-02-08 11:42:53.568341+01 | 1486550573.56834 | B/7333DC10               |           49177418768

 2017-02-08 11:42:54.625918+01 | 1486550574.62592 | B/763BFCA0               |           49228283040

 2017-02-08 11:42:55.679601+01 | 1486550575.6796 | B/79325E60               |           49277984352

 2017-02-08 11:42:56.734181+01 | 1486550576.73418 | B/7C1779C0               |           49326553536

 2017-02-08 11:42:57.797084+01 | 1486550577.79708 | B/7EC3BF50               |           49371397968

 2017-02-08 11:42:58.850976+01 | 1486550578.85098 | B/813CBD70               |           49412881776

 2017-02-08 11:42:59.906702+01 | 1486550579.9067 | B/83B3D9B8               |           49454242232

 2017-02-08 11:43:00.964771+01 | 1486550580.96477 | B/85FE4750               |           49492674384

 2017-02-08 11:43:02.018684+01 | 1486550582.01868 | B/886576E0               |           49532991200

 2017-02-08 11:43:03.077027+01 | 1486550583.07703 | B/8AC488D8               |           49572776152

 2017-02-08 11:43:04.135898+01 | 1486550584.1359 | B/8CF71860               |           49609644128

 2017-02-08 11:43:05.189945+01 | 1486550585.18994 | B/8F3D4910               |           49647798544

 2017-02-08 11:43:06.247859+01 | 1486550586.24786 | B/9174B700               |           49684985600

 2017-02-08 11:43:07.309002+01 | 1486550587.309 | B/93874F78               |           49719758712

 2017-02-08 11:43:08.370275+01 | 1486550588.37028 | B/95AC9A90               |           49755757200

 2017-02-08 11:43:09.42721+01 | 1486550589.42721 | B/97C96348               |           49791198024

 2017-02-08 11:43:10.485442+01 | 1486550590.48544 | B/99C0CFC0               |           49824190400

 2017-02-08 11:43:11.541169+01 | 1486550591.54117 | B/9BC417E0               |           49857959904

 2017-02-08 11:43:12.596199+01 | 1486550592.5962 | B/9DB2FE70               |           49890393712

 2017-02-08 11:43:13.656107+01 | 1486550593.65611 | B/9F950280               |           49921983104

 2017-02-08 11:43:14.709824+01 | 1486550594.70982 | B/A17D1C68               |           49953971304

 2017-02-08 11:43:15.766181+01 | 1486550595.76618 | B/A35AE2A8               |           49985282728

 2017-02-08 11:43:16.827289+01 | 1486550596.82729 | B/A52CCE30               |           50015817264

 2017-02-08 11:43:17.883875+01 | 1486550597.88387 | B/A6E6F3A0               |           50044793760

 2017-02-08 11:43:18.938362+01 | 1486550598.93836 | B/A8A537E0               |           50074040288

 2017-02-08 11:43:19.993846+01 | 1486550599.99385 | B/AA6324B0               |           50103264432

 2017-02-08 11:43:21.047965+01 | 1486550601.04797 | B/AC061E00               |           50130722304

 2017-02-08 11:43:22.10396+01 | 1486550602.10396 | B/ADAF4338               |           50158584632

 2017-02-08 11:43:23.157929+01 | 1486550603.15793 | B/AF535AE0               |           50186115808

 2017-02-08 11:43:24.217487+01 | 1486550604.21749 | B/B0F3EBC0               |           50213415872

 2017-02-08 11:43:25.274525+01 | 1486550605.27452 | B/B2734100               |           50238537984

 2017-02-08 11:43:26.329648+01 | 1486550606.32965 | B/B400FA98               |           50264603288

 2017-02-08 11:43:27.386802+01 | 1486550607.3868 | B/B5830B58               |           50289904472

 2017-02-08 11:43:28.44276+01 | 1486550608.44276 | B/B7014600               |           50314954240

 2017-02-08 11:43:29.511619+01 | 1486550609.51162 | B/B877BAF8               |           50339494648

 2017-02-08 11:43:30.56705+01 | 1486550610.56705 | B/B9E93010               |           50363707408

 2017-02-08 11:43:31.620481+01 | 1486550611.62048 | B/BB4F7E10               |           50387189264

 2017-02-08 11:43:32.686854+01 | 1486550612.68685 | B/BCA5BD30               |           50409618736

 2017-02-08 11:43:33.740622+01 | 1486550613.74062 | B/BE032F98               |           50432520088

 2017-02-08 11:43:34.801028+01 | 1486550614.80103 | B/BF5A8230               |           50455020080

 2017-02-08 11:43:35.863789+01 | 1486550615.86379 | B/C0AA8E30               |           50477043248

 2017-02-08 11:43:36.91458+01 | 1486550616.91458 | B/C1DC25C8               |           50497070536

 2017-02-08 11:43:37.971999+01 | 1486550617.972 | B/C31D2CB8               |           50518109368

 2017-02-08 11:43:39.032242+01 | 1486550619.03224 | B/C45BEF78               |           50538999672

 2017-02-08 11:43:40.08534+01 | 1486550620.08534 | B/C57D0300               |           50557944576

 2017-02-08 11:43:41.14255+01 | 1486550621.14255 | B/C69825D8               |           50576500184

 2017-02-08 11:43:42.201892+01 | 1486550622.20189 | B/C7B01A20               |           50594847264

 2017-02-08 11:43:43.258929+01 | 1486550623.25893 | B/C8C0CCC8               |           50612718792

 2017-02-08 11:43:44.317864+01 | 1486550624.31786 | B/C9E95BA0               |           50632154016

 2017-02-08 11:43:45.37693+01 | 1486550625.37693 | B/CB105C18               |           50651487256

 2017-02-08 11:43:46.43643+01 | 1486550626.43643 | B/CC1B5160               |           50668982624

 2017-02-08 11:43:47.491243+01 | 1486550627.49124 | B/CD339D28               |           50687352104

 2017-02-08 11:43:48.548639+01 | 1486550628.54864 | B/CE42C638               |           50705122872

 2017-02-08 11:43:49.605633+01 | 1486550629.60563 | B/CF480268               |           50722243176

 2017-02-08 11:43:50.660036+01 | 1486550630.66004 | B/D04231D0               |           50738639312

 2017-02-08 11:43:51.727409+01 | 1486550631.72741 | B/D1502A88               |           50756332168

 2017-02-08 11:43:52.789231+01 | 1486550632.78923 | B/D25546F8               |           50773444344

 2017-02-08 11:43:53.846792+01 | 1486550633.84679 | B/D34C1900               |           50789619968

 2017-02-08 11:43:54.898378+01 | 1486550634.89838 | B/D43A9B58               |           50805250904

 2017-02-08 11:43:55.956997+01 | 1486550635.957 | B/D52BF9E8               |           50821069288

 2017-02-08 11:43:57.01438+01 | 1486550637.01438 | B/D616F200               |           50836468224

 2017-02-08 11:43:58.069108+01 | 1486550638.06911 | B/D6F23B98               |           50850839448

 2017-02-08 11:43:59.125308+01 | 1486550639.12531 | B/D7CFEF38               |           50865368888

 2017-02-08 11:44:00.183785+01 | 1486550640.18378 | B/D8B93C68               |           50880658536

 2017-02-08 11:44:01.253976+01 | 1486550641.25398 | B/D99815F8               |           50895263224

 2017-02-08 11:44:02.313779+01 | 1486550642.31378 | B/DA6F9498               |           50909385880

 2017-02-08 11:44:03.372154+01 | 1486550643.37215 | B/DB4430A8               |           50923319464

 2017-02-08 11:44:04.428358+01 | 1486550644.42836 | B/DC1A6100               |           50937356544

 2017-02-08 11:44:05.48663+01 | 1486550645.48663 | B/DCE0F528               |           50950370600

 2017-02-08 11:44:06.542158+01 | 1486550646.54216 | B/DDAD7F68               |           50963775336

 2017-02-08 11:44:07.597146+01 | 1486550647.59715 | B/DE781118               |           50977050904

 2017-02-08 11:44:08.652909+01 | 1486550648.65291 | B/DF457258               |           50990510680

 2017-02-08 11:44:09.709375+01 | 1486550649.70937 | B/E00D3200               |           51003601408

 2017-02-08 11:44:10.768394+01 | 1486550650.76839 | B/E0CCB2E0               |           51016151776

 2017-02-08 11:44:11.831205+01 | 1486550651.8312 | B/E18DCA78               |           51028806264

 2017-02-08 11:44:12.890413+01 | 1486550652.89041 | B/E23D80D0               |           51040321744

 2017-02-08 11:44:13.949794+01 | 1486550653.94979 | B/E2F87888               |           51052574856

 2017-02-08 11:44:15.00778+01 | 1486550655.00778 | B/E3B16DE0               |           51064696288

 2017-02-08 11:44:16.064166+01 | 1486550656.06417 | B/E4664AD8               |           51076549336

 2017-02-08 11:44:17.126288+01 | 1486550657.12629 | B/E5118B80               |           51087772544

 2017-02-08 11:44:18.184826+01 | 1486550658.18483 | B/E5C35428               |           51099423784

 2017-02-08 11:44:19.248627+01 | 1486550659.24863 | B/E672FDD0               |           51110936016

 2017-02-08 11:44:20.309956+01 | 1486550660.30996 | B/E716A338               |           51121660728

 2017-02-08 11:44:21.363593+01 | 1486550661.36359 | B/E7B69EF8               |           51132145400

 2017-02-08 11:44:22.420953+01 | 1486550662.42095 | B/E85B49D0               |           51142937040

 2017-02-08 11:44:23.477448+01 | 1486550663.47745 | B/E8FC92B8               |           51153507000

 2017-02-08 11:44:24.541191+01 | 1486550664.54119 | B/E996D458               |           51163616344

 2017-02-08 11:44:25.606896+01 | 1486550665.6069 | B/EA39AF30               |           51174289200

 2017-02-08 11:44:26.664028+01 | 1486550666.66403 | B/EADBC340               |           51184911168

 2017-02-08 11:44:27.721616+01 | 1486550667.72162 | B/EB70E438               |           51194684472

 2017-02-08 11:44:28.784847+01 | 1486550668.78485 | B/EC015338               |           51204150072

 2017-02-08 11:44:29.850653+01 | 1486550669.85065 | B/EC993530               |           51214103856

 2017-02-08 11:44:30.907346+01 | 1486550670.90735 | B/ED27E120               |           51223453984

 2017-02-08 11:44:31.977599+01 | 1486550671.9776 | B/EDAF0DF8               |           51232312824

 2017-02-08 11:44:33.033504+01 | 1486550673.0335 | B/EE3E1F38               |           51241688888

 2017-02-08 11:44:34.090922+01 | 1486550674.09092 | B/EECACD30               |           51250908464

 2017-02-08 11:44:35.1525+01 | 1486550675.1525 | B/EF52B5E8               |           51259815400

 2017-02-08 11:44:36.207117+01 | 1486550676.20712 | B/EFCE5028               |           51267915816

 2017-02-08 11:44:37.263153+01 | 1486550677.26315 | B/F054C418               |           51276727320

 2017-02-08 11:44:38.329738+01 | 1486550678.32974 | B/F0DBFBD0               |           51285588944

 2017-02-08 11:44:39.395755+01 | 1486550679.39576 | B/F15EF560               |           51294172512

 2017-02-08 11:44:40.46252+01 | 1486550680.46252 | B/F1D2ADE8               |           51301756392

 2017-02-08 11:44:41.521603+01 | 1486550681.5216 | B/F2548CB0               |           51310267568

 2017-02-08 11:44:42.578656+01 | 1486550682.57866 | B/F2D90E58               |           51318951512

 2017-02-08 11:44:43.638019+01 | 1486550683.63802 | B/F35C9608               |           51327571464

 2017-02-08 11:44:44.70116+01 | 1486550684.70116 | B/F3E13210               |           51336262160

 2017-02-08 11:44:45.760275+01 | 1486550685.76027 | B/F45BD1A0               |           51344298400

 2017-02-08 11:44:46.815962+01 | 1486550686.81596 | B/F4D3ED58               |           51352169816

 2017-02-08 11:44:47.876827+01 | 1486550687.87683 | B/F54E8D50               |           51360206160

 2017-02-08 11:44:48.937894+01 | 1486550688.93789 | B/F5C11A88               |           51367713416

 2017-02-08 11:44:49.993557+01 | 1486550689.99356 | B/F62D6A48               |           51374811720

 2017-02-08 11:44:51.050913+01 | 1486550691.05091 | B/F69F5440               |           51382277184

 2017-02-08 11:44:52.114422+01 | 1486550692.11442 | B/F7134C18               |           51389877272

 2017-02-08 11:44:53.172152+01 | 1486550693.17215 | B/F78B8650               |           51397756496

 2017-02-08 11:44:54.235478+01 | 1486550694.23548 | B/F7F87FC8               |           51404898248

 2017-02-08 11:44:55.292234+01 | 1486550695.29223 | B/F8694E50               |           51412291152

 2017-02-08 11:44:56.354961+01 | 1486550696.35496 | B/F8D9A5D8               |           51419653592

 2017-02-08 11:44:57.411759+01 | 1486550697.41176 | B/F9458EF0               |           51426725616

 2017-02-08 11:44:58.466842+01 | 1486550698.46684 | B/F9ACA4F0               |           51433481456

 2017-02-08 11:44:59.526063+01 | 1486550699.52606 | B/FA1B7C30               |           51440745520

 2017-02-08 11:45:00.58882+01 | 1486550700.58882 | B/FA85F768               |           51447723880

 2017-02-08 11:45:01.648706+01 | 1486550701.64871 | B/FAEE2F90               |           51454554000

 2017-02-08 11:45:02.715015+01 | 1486550702.71501 | B/FB58FA80               |           51461552768

 2017-02-08 11:45:03.774496+01 | 1486550703.7745 | B/FBC4F930               |           51468630320

 2017-02-08 11:45:04.832893+01 | 1486550704.83289 | B/FC2C2250               |           51475391056

 2017-02-08 11:45:05.890569+01 | 1486550705.89057 | B/FC8F3310               |           51481883408

 2017-02-08 11:45:06.944184+01 | 1486550706.94418 | B/FCF60C00               |           51488623616

 2017-02-08 11:45:08.002933+01 | 1486550708.00293 | B/FD589FE8               |           51495084008

 2017-02-08 11:45:09.062829+01 | 1486550709.06283 | B/FDBE2908               |           51501738248

 2017-02-08 11:45:10.13104+01 | 1486550710.13104 | B/FE29AB98               |           51508784024

 2017-02-08 11:45:11.186651+01 | 1486550711.18665 | B/FE93B970               |           51515734384

 2017-02-08 11:45:12.248402+01 | 1486550712.2484 | B/FEFD0D28               |           51522637096

 2017-02-08 11:45:13.313616+01 | 1486550713.31362 | B/FF6013B8               |           51529126840

 2017-02-08 11:45:14.379237+01 | 1486550714.37924 | B/FFC3E6D0               |           51535668944

 2017-02-08 11:45:15.444374+01 | 1486550715.44437 | C/276C58                 |           51542191192

 2017-02-08 11:45:16.506213+01 | 1486550716.50621 | C/889578                 |           51548558712

 2017-02-08 11:45:17.595738+01 | 1486550717.59574 | C/EA6D60                 |           51554970976

 2017-02-08 11:45:18.669168+01 | 1486550718.66917 | C/1457510                |           51560936720

 2017-02-08 11:45:19.740504+01 | 1486550719.7405 | C/1A3DF78                |           51567124344

 2017-02-08 11:45:20.802047+01 | 1486550720.80205 | C/202BFD8                |           51573342168

 2017-02-08 11:45:21.862543+01 | 1486550721.86254 | C/25F7840                |           51579418688

 2017-02-08 11:45:22.921106+01 | 1486550722.92111 | C/2B81220                |           51585225248

 2017-02-08 11:45:23.979614+01 | 1486550723.97961 | C/318C038                |           51591561272

 2017-02-08 11:45:25.039256+01 | 1486550725.03926 | C/36EF8A8                |           51597211816

 2017-02-08 11:45:26.100861+01 | 1486550726.10086 | C/3C14560                |           51602605408

 2017-02-08 11:45:27.15409+01 | 1486550727.15409 | C/4169B00                |           51608197888

 2017-02-08 11:45:28.214822+01 | 1486550728.21482 | C/46DC130                |           51613909296

 2017-02-08 11:45:29.271874+01 | 1486550729.27187 | C/4C3E188                |           51619553672

 2017-02-08 11:45:30.329761+01 | 1486550730.32976 | C/51A4400                |           51625214976

 2017-02-08 11:45:31.390385+01 | 1486550731.39038 | C/56EC170                |           51630752112

 2017-02-08 11:45:32.471567+01 | 1486550732.47157 | C/5BE84B8                |           51635979448

 2017-02-08 11:45:33.527159+01 | 1486550733.52716 | C/60F4360                |           51641271136

 2017-02-08 11:45:34.586937+01 | 1486550734.58694 | C/661A9B0                |           51646671280

 2017-02-08 11:45:35.646546+01 | 1486550735.64655 | C/6B5A6B8                |           51652175544

 2017-02-08 11:45:36.705686+01 | 1486550736.70569 | C/7079858                |           51657545816

 2017-02-08 11:45:37.778969+01 | 1486550737.77897 | C/75A3CC0                |           51662961856

 2017-02-08 11:45:38.83655+01 | 1486550738.83655 | C/7B0A640                |           51668624960

 2017-02-08 11:45:39.89329+01 | 1486550739.89329 | C/8044610                |           51674105360

 2017-02-08 11:45:40.953602+01 | 1486550740.9536 | C/85A72C0                |           51679752896

 2017-02-08 11:45:42.015347+01 | 1486550742.01535 | C/8A976D0                |           51684931280

 2017-02-08 11:45:43.072944+01 | 1486550743.07294 | C/8FE1358                |           51690476376

 2017-02-08 11:45:44.134694+01 | 1486550744.13469 | C/953CE10                |           51696094736

 2017-02-08 11:45:45.190612+01 | 1486550745.19061 | C/9A1C880                |           51701205120

 2017-02-08 11:45:46.252621+01 | 1486550746.25262 | C/9F88388                |           51706889096

 2017-02-08 11:45:47.315425+01 | 1486550747.31542 | C/A4C4EB8                |           51712380600

 2017-02-08 11:45:48.374764+01 | 1486550748.37476 | C/A9BA688                |           51717580424

 2017-02-08 11:45:49.430119+01 | 1486550749.43012 | C/AEF18F0                |           51723049200

 2017-02-08 11:45:50.485954+01 | 1486550750.48595 | C/B4263E0                |           51728507872

 2017-02-08 11:45:51.552904+01 | 1486550751.5529 | C/B970E08                |           51734056456

 2017-02-08 11:45:52.608159+01 | 1486550752.60816 | C/BE647A8                |           51739248552

 2017-02-08 11:45:53.664716+01 | 1486550753.66472 | C/C37A338                |           51744580408

 2017-02-08 11:45:54.724429+01 | 1486550754.72443 | C/C89A368                |           51749954408

 2017-02-08 11:45:55.781215+01 | 1486550755.78121 | C/CD61770                |           51754964848

 2017-02-08 11:45:56.840974+01 | 1486550756.84097 | C/D27C768                |           51760318312

 2017-02-08 11:45:57.899396+01 | 1486550757.8994 | C/D783650                |           51765589584

 2017-02-08 11:45:58.954923+01 | 1486550758.95492 | C/DC23B98                |           51770440600

 2017-02-08 11:46:00.010457+01 | 1486550760.01046 | C/E12B0A0                |           51775713440

 2017-02-08 11:46:01.073823+01 | 1486550761.07382 | C/E624898                |           51780929688

 2017-02-08 11:46:02.128501+01 | 1486550762.1285 | C/EAFBB20                |           51786005280

 2017-02-08 11:46:03.189971+01 | 1486550763.18997 | C/F007E58                |           51791298136

 2017-02-08 11:46:04.253927+01 | 1486550764.25393 | C/F4E9990                |           51796416912

 2017-02-08 11:46:05.313484+01 | 1486550765.31348 | C/F9A2C10                |           51801369616

 2017-02-08 11:46:06.366251+01 | 1486550766.36625 | C/FE6CDB8                |           51806391736

 2017-02-08 11:46:07.4212+01 | 1486550767.4212 | C/10341798               |           51811456920

 2017-02-08 11:46:08.481304+01 | 1486550768.4813 | C/10809998               |           51816470936

 2017-02-08 11:46:09.542709+01 | 1486550769.54271 | C/10C7EFB0               |           51821146032

 2017-02-08 11:46:10.597848+01 | 1486550770.59785 | C/1112E488               |           51826058376

 2017-02-08 11:46:11.654451+01 | 1486550771.65445 | C/115E53C8               |           51831002056

 2017-02-08 11:46:12.709505+01 | 1486550772.70951 | C/11A5A048               |           51835674696

 2017-02-08 11:46:13.762396+01 | 1486550773.7624 | C/11F05400               |           51840570368

 2017-02-08 11:46:14.820413+01 | 1486550774.82041 | C/123A93D0               |           51845436368

 2017-02-08 11:46:15.874564+01 | 1486550775.87456 | C/1283B3F0               |           51850228720

 2017-02-08 11:46:16.929915+01 | 1486550776.92991 | C/12C95FF8               |           51854794744

 2017-02-08 11:46:17.9841+01 | 1486550777.9841 | C/13129A50               |           51859593808

 2017-02-08 11:46:19.041229+01 | 1486550779.04123 | C/135D0428               |           51864470568

 2017-02-08 11:46:20.104149+01 | 1486550780.10415 | C/13A59BE8               |           51869228008

 2017-02-08 11:46:21.160203+01 | 1486550781.1602 | C/13EC4490               |           51873858704

 2017-02-08 11:46:22.212629+01 | 1486550782.21263 | C/1437C188               |           51878805896

 2017-02-08 11:46:23.269939+01 | 1486550783.26994 | C/1480EC50               |           51883600976

 2017-02-08 11:46:24.336393+01 | 1486550784.33639 | C/14C6DCE0               |           51888184544

 2017-02-08 11:46:25.398003+01 | 1486550785.398 | C/15116328               |           51893068584

 2017-02-08 11:46:26.45618+01 | 1486550786.45618 | C/155B85C0               |           51897927104

 2017-02-08 11:46:27.514949+01 | 1486550787.51495 | C/15A441F0               |           51902693872

 2017-02-08 11:46:28.569154+01 | 1486550788.56915 | C/15EAEB80               |           51907324800

 2017-02-08 11:46:29.634291+01 | 1486550789.63429 | C/16354FD8               |           51912200152

 2017-02-08 11:46:30.690488+01 | 1486550790.69049 | C/1680A430               |           51917136944

 2017-02-08 11:46:31.746427+01 | 1486550791.74643 | C/16C83E50               |           51921829456

 2017-02-08 11:46:32.799715+01 | 1486550792.79972 | C/170E8FD0               |           51926437840

 2017-02-08 11:46:33.855699+01 | 1486550793.8557 | C/17569120               |           51931156768

 2017-02-08 11:46:34.920996+01 | 1486550794.921 | C/179D6388               |           51935798152

 2017-02-08 11:46:35.988166+01 | 1486550795.98817 | C/17DED310               |           51940086544

 2017-02-08 11:46:37.044742+01 | 1486550797.04474 | C/18290538               |           51944949048

 2017-02-08 11:46:38.102765+01 | 1486550798.10277 | C/18738DA0               |           51949833632

 2017-02-08 11:46:39.158736+01 | 1486550799.15874 | C/18BD4038               |           51954663480

 2017-02-08 11:46:40.207777+01 | 1486550800.20778 | C/1905B088               |           51959410824

 2017-02-08 11:46:41.264269+01 | 1486550801.26427 | C/1959C990               |           51964922256

 2017-02-08 11:46:42.325325+01 | 1486550802.32533 | C/19B18AA8               |           51970673320

 2017-02-08 11:46:43.38628+01 | 1486550803.38628 | C/1A08E518               |           51976398104

 2017-02-08 11:46:44.448642+01 | 1486550804.44864 | C/1A5E7178               |           51982004600

 2017-02-08 11:46:45.509194+01 | 1486550805.50919 | C/1AB2D4B0               |           51987535024

 2017-02-08 11:46:46.573057+01 | 1486550806.57306 | C/1B010EE8               |           51992661736

 2017-02-08 11:46:47.629408+01 | 1486550807.62941 | C/1B536EE0               |           51998060256

 2017-02-08 11:46:48.685677+01 | 1486550808.68568 | C/1BA5B090               |           52003451024

 2017-02-08 11:46:49.754564+01 | 1486550809.75456 | C/1BF6B078               |           52008759416

 2017-02-08 11:46:50.824781+01 | 1486550810.82478 | C/1C45E268               |           52013949544

 2017-02-08 11:46:51.881934+01 | 1486550811.88193 | C/1C982B80               |           52019342208

 2017-02-08 11:46:52.950333+01 | 1486550812.95033 | C/1CDCE320               |           52023845664

 2017-02-08 11:46:54.004118+01 | 1486550814.00412 | C/1D2666A8               |           52028663464

 2017-02-08 11:46:55.068619+01 | 1486550815.06862 | C/1D6D0310               |           52033291024

 2017-02-08 11:46:56.128777+01 | 1486550816.12878 | C/1DB43088               |           52037955720

 2017-02-08 11:46:57.19864+01 | 1486550817.19864 | C/1DF8A058               |           52042440792

 2017-02-08 11:46:58.262697+01 | 1486550818.2627 | C/1E3EE5E0               |           52047046112

 2017-02-08 11:46:59.31508+01 | 1486550819.31508 | C/1E848128               |           52051607848

 2017-02-08 11:47:00.378688+01 | 1486550820.37869 | C/1EC7C6C0               |           52056016576

 2017-02-08 11:47:01.434783+01 | 1486550821.43478 | C/1F0CC118               |           52060537112

 2017-02-08 11:47:02.493118+01 | 1486550822.49312 | C/1F52ABD0               |           52065119184

 2017-02-08 11:47:03.55337+01 | 1486550823.55337 | C/1F962720               |           52069541664

 2017-02-08 11:47:04.608481+01 | 1486550824.60848 | C/1FD9B118               |           52073967896

 2017-02-08 11:47:05.673543+01 | 1486550825.67354 | C/201FC8D8               |           52078561496

