 2017-02-08 15:35:26.179735+01 | 1486564526.17973 | pgbench_branches_pkey |            57344
 2017-02-08 15:35:26.179735+01 | 1486564526.17973 | pgbench_tellers_pkey  |           253952
 2017-02-08 15:35:26.179735+01 | 1486564526.17973 | pgbench_accounts_pkey |        112336896

 2017-02-08 15:35:27.269034+01 | 1486564527.26903 | pgbench_branches_pkey |            57344
 2017-02-08 15:35:27.269034+01 | 1486564527.26903 | pgbench_tellers_pkey  |           253952
 2017-02-08 15:35:27.269034+01 | 1486564527.26903 | pgbench_accounts_pkey |        112336896

 2017-02-08 15:35:28.359886+01 | 1486564528.35989 | pgbench_branches_pkey |            57344
 2017-02-08 15:35:28.359886+01 | 1486564528.35989 | pgbench_tellers_pkey  |           253952
 2017-02-08 15:35:28.359886+01 | 1486564528.35989 | pgbench_accounts_pkey |        112336896

 2017-02-08 15:35:29.460524+01 | 1486564529.46052 | pgbench_branches_pkey |            57344
 2017-02-08 15:35:29.460524+01 | 1486564529.46052 | pgbench_tellers_pkey  |           253952
 2017-02-08 15:35:29.460524+01 | 1486564529.46052 | pgbench_accounts_pkey |        112336896

 2017-02-08 15:35:30.555737+01 | 1486564530.55574 | pgbench_branches_pkey |            57344
 2017-02-08 15:35:30.555737+01 | 1486564530.55574 | pgbench_tellers_pkey  |           253952
 2017-02-08 15:35:30.555737+01 | 1486564530.55574 | pgbench_accounts_pkey |        112336896

 2017-02-08 15:35:31.646537+01 | 1486564531.64654 | pgbench_branches_pkey |            57344
 2017-02-08 15:35:31.646537+01 | 1486564531.64654 | pgbench_tellers_pkey  |           253952
 2017-02-08 15:35:31.646537+01 | 1486564531.64654 | pgbench_accounts_pkey |        112336896

 2017-02-08 15:35:32.744758+01 | 1486564532.74476 | pgbench_branches_pkey |            57344
 2017-02-08 15:35:32.744758+01 | 1486564532.74476 | pgbench_tellers_pkey  |           253952
 2017-02-08 15:35:32.744758+01 | 1486564532.74476 | pgbench_accounts_pkey |        112336896

 2017-02-08 15:35:33.887502+01 | 1486564533.8875 | pgbench_branches_pkey |            57344
 2017-02-08 15:35:33.887502+01 | 1486564533.8875 | pgbench_tellers_pkey  |           253952
 2017-02-08 15:35:33.887502+01 | 1486564533.8875 | pgbench_accounts_pkey |        112336896

 2017-02-08 15:35:34.989291+01 | 1486564534.98929 | pgbench_branches_pkey |            57344
 2017-02-08 15:35:34.989291+01 | 1486564534.98929 | pgbench_tellers_pkey  |           253952
 2017-02-08 15:35:34.989291+01 | 1486564534.98929 | pgbench_accounts_pkey |        112336896

 2017-02-08 15:35:36.072062+01 | 1486564536.07206 | pgbench_branches_pkey |            57344
 2017-02-08 15:35:36.072062+01 | 1486564536.07206 | pgbench_tellers_pkey  |           253952
 2017-02-08 15:35:36.072062+01 | 1486564536.07206 | pgbench_accounts_pkey |        112336896

 2017-02-08 15:35:37.177685+01 | 1486564537.17769 | pgbench_branches_pkey |            57344
 2017-02-08 15:35:37.177685+01 | 1486564537.17769 | pgbench_tellers_pkey  |           253952
 2017-02-08 15:35:37.177685+01 | 1486564537.17769 | pgbench_accounts_pkey |        112336896

 2017-02-08 15:35:38.312976+01 | 1486564538.31298 | pgbench_branches_pkey |            57344
 2017-02-08 15:35:38.312976+01 | 1486564538.31298 | pgbench_tellers_pkey  |           253952
 2017-02-08 15:35:38.312976+01 | 1486564538.31298 | pgbench_accounts_pkey |        112336896

 2017-02-08 15:35:39.403501+01 | 1486564539.4035 | pgbench_branches_pkey |            57344
 2017-02-08 15:35:39.403501+01 | 1486564539.4035 | pgbench_tellers_pkey  |           253952
 2017-02-08 15:35:39.403501+01 | 1486564539.4035 | pgbench_accounts_pkey |        112336896

 2017-02-08 15:35:40.550317+01 | 1486564540.55032 | pgbench_branches_pkey |            57344
 2017-02-08 15:35:40.550317+01 | 1486564540.55032 | pgbench_tellers_pkey  |           253952
 2017-02-08 15:35:40.550317+01 | 1486564540.55032 | pgbench_accounts_pkey |        112336896

 2017-02-08 15:35:41.639065+01 | 1486564541.63907 | pgbench_branches_pkey |            57344
 2017-02-08 15:35:41.639065+01 | 1486564541.63907 | pgbench_tellers_pkey  |           253952
 2017-02-08 15:35:41.639065+01 | 1486564541.63907 | pgbench_accounts_pkey |        112336896

 2017-02-08 15:35:42.737438+01 | 1486564542.73744 | pgbench_branches_pkey |            57344
 2017-02-08 15:35:42.737438+01 | 1486564542.73744 | pgbench_tellers_pkey  |           253952
 2017-02-08 15:35:42.737438+01 | 1486564542.73744 | pgbench_accounts_pkey |        112336896

 2017-02-08 15:35:43.845409+01 | 1486564543.84541 | pgbench_branches_pkey |            57344
 2017-02-08 15:35:43.845409+01 | 1486564543.84541 | pgbench_tellers_pkey  |           253952
 2017-02-08 15:35:43.845409+01 | 1486564543.84541 | pgbench_accounts_pkey |        112336896

 2017-02-08 15:35:44.97554+01 | 1486564544.97554 | pgbench_branches_pkey |            57344
 2017-02-08 15:35:44.97554+01 | 1486564544.97554 | pgbench_tellers_pkey  |           253952
 2017-02-08 15:35:44.97554+01 | 1486564544.97554 | pgbench_accounts_pkey |        112336896

 2017-02-08 15:35:46.087932+01 | 1486564546.08793 | pgbench_branches_pkey |            57344
 2017-02-08 15:35:46.087932+01 | 1486564546.08793 | pgbench_tellers_pkey  |           253952
 2017-02-08 15:35:46.087932+01 | 1486564546.08793 | pgbench_accounts_pkey |        112336896

 2017-02-08 15:35:47.192719+01 | 1486564547.19272 | pgbench_branches_pkey |            57344
 2017-02-08 15:35:47.192719+01 | 1486564547.19272 | pgbench_tellers_pkey  |           253952
 2017-02-08 15:35:47.192719+01 | 1486564547.19272 | pgbench_accounts_pkey |        112336896

 2017-02-08 15:35:48.296593+01 | 1486564548.29659 | pgbench_branches_pkey |            57344
 2017-02-08 15:35:48.296593+01 | 1486564548.29659 | pgbench_tellers_pkey  |           253952
 2017-02-08 15:35:48.296593+01 | 1486564548.29659 | pgbench_accounts_pkey |        112336896

 2017-02-08 15:35:49.397799+01 | 1486564549.3978 | pgbench_branches_pkey |            57344
 2017-02-08 15:35:49.397799+01 | 1486564549.3978 | pgbench_tellers_pkey  |           253952
 2017-02-08 15:35:49.397799+01 | 1486564549.3978 | pgbench_accounts_pkey |        112336896

 2017-02-08 15:35:50.506655+01 | 1486564550.50665 | pgbench_branches_pkey |            57344
 2017-02-08 15:35:50.506655+01 | 1486564550.50665 | pgbench_tellers_pkey  |           253952
 2017-02-08 15:35:50.506655+01 | 1486564550.50665 | pgbench_accounts_pkey |        112336896

 2017-02-08 15:35:51.632886+01 | 1486564551.63289 | pgbench_branches_pkey |            57344
 2017-02-08 15:35:51.632886+01 | 1486564551.63289 | pgbench_tellers_pkey  |           253952
 2017-02-08 15:35:51.632886+01 | 1486564551.63289 | pgbench_accounts_pkey |        112336896

 2017-02-08 15:35:52.7286+01 | 1486564552.7286 | pgbench_branches_pkey |            57344
 2017-02-08 15:35:52.7286+01 | 1486564552.7286 | pgbench_tellers_pkey  |           253952
 2017-02-08 15:35:52.7286+01 | 1486564552.7286 | pgbench_accounts_pkey |        112336896

 2017-02-08 15:35:53.859161+01 | 1486564553.85916 | pgbench_branches_pkey |            57344
 2017-02-08 15:35:53.859161+01 | 1486564553.85916 | pgbench_tellers_pkey  |           253952
 2017-02-08 15:35:53.859161+01 | 1486564553.85916 | pgbench_accounts_pkey |        112336896

 2017-02-08 15:35:54.984151+01 | 1486564554.98415 | pgbench_branches_pkey |            57344
 2017-02-08 15:35:54.984151+01 | 1486564554.98415 | pgbench_tellers_pkey  |           253952
 2017-02-08 15:35:54.984151+01 | 1486564554.98415 | pgbench_accounts_pkey |        112336896

 2017-02-08 15:35:56.090282+01 | 1486564556.09028 | pgbench_branches_pkey |            57344
 2017-02-08 15:35:56.090282+01 | 1486564556.09028 | pgbench_tellers_pkey  |           253952
 2017-02-08 15:35:56.090282+01 | 1486564556.09028 | pgbench_accounts_pkey |        112336896

 2017-02-08 15:35:57.229609+01 | 1486564557.22961 | pgbench_branches_pkey |            57344
 2017-02-08 15:35:57.229609+01 | 1486564557.22961 | pgbench_tellers_pkey  |           253952
 2017-02-08 15:35:57.229609+01 | 1486564557.22961 | pgbench_accounts_pkey |        112336896

 2017-02-08 15:35:58.332941+01 | 1486564558.33294 | pgbench_branches_pkey |            57344
 2017-02-08 15:35:58.332941+01 | 1486564558.33294 | pgbench_tellers_pkey  |           253952
 2017-02-08 15:35:58.332941+01 | 1486564558.33294 | pgbench_accounts_pkey |        112336896

 2017-02-08 15:35:59.432788+01 | 1486564559.43279 | pgbench_branches_pkey |            57344
 2017-02-08 15:35:59.432788+01 | 1486564559.43279 | pgbench_tellers_pkey  |           253952
 2017-02-08 15:35:59.432788+01 | 1486564559.43279 | pgbench_accounts_pkey |        112336896

 2017-02-08 15:36:00.588617+01 | 1486564560.58862 | pgbench_branches_pkey |            57344
 2017-02-08 15:36:00.588617+01 | 1486564560.58862 | pgbench_tellers_pkey  |           253952
 2017-02-08 15:36:00.588617+01 | 1486564560.58862 | pgbench_accounts_pkey |        112336896

 2017-02-08 15:36:01.680253+01 | 1486564561.68025 | pgbench_branches_pkey |            57344
 2017-02-08 15:36:01.680253+01 | 1486564561.68025 | pgbench_tellers_pkey  |           253952
 2017-02-08 15:36:01.680253+01 | 1486564561.68025 | pgbench_accounts_pkey |        112336896

 2017-02-08 15:36:02.793962+01 | 1486564562.79396 | pgbench_branches_pkey |            57344
 2017-02-08 15:36:02.793962+01 | 1486564562.79396 | pgbench_tellers_pkey  |           253952
 2017-02-08 15:36:02.793962+01 | 1486564562.79396 | pgbench_accounts_pkey |        112336896

 2017-02-08 15:36:03.902936+01 | 1486564563.90294 | pgbench_branches_pkey |            57344
 2017-02-08 15:36:03.902936+01 | 1486564563.90294 | pgbench_tellers_pkey  |           253952
 2017-02-08 15:36:03.902936+01 | 1486564563.90294 | pgbench_accounts_pkey |        112336896

 2017-02-08 15:36:04.997902+01 | 1486564564.9979 | pgbench_branches_pkey |            57344
 2017-02-08 15:36:04.997902+01 | 1486564564.9979 | pgbench_tellers_pkey  |           253952
 2017-02-08 15:36:04.997902+01 | 1486564564.9979 | pgbench_accounts_pkey |        112336896

 2017-02-08 15:36:06.089573+01 | 1486564566.08957 | pgbench_branches_pkey |            57344
 2017-02-08 15:36:06.089573+01 | 1486564566.08957 | pgbench_tellers_pkey  |           253952
 2017-02-08 15:36:06.089573+01 | 1486564566.08957 | pgbench_accounts_pkey |        112336896

 2017-02-08 15:36:07.180919+01 | 1486564567.18092 | pgbench_branches_pkey |            57344
 2017-02-08 15:36:07.180919+01 | 1486564567.18092 | pgbench_tellers_pkey  |           253952
 2017-02-08 15:36:07.180919+01 | 1486564567.18092 | pgbench_accounts_pkey |        112336896

 2017-02-08 15:36:08.307295+01 | 1486564568.3073 | pgbench_branches_pkey |            57344
 2017-02-08 15:36:08.307295+01 | 1486564568.3073 | pgbench_tellers_pkey  |           253952
 2017-02-08 15:36:08.307295+01 | 1486564568.3073 | pgbench_accounts_pkey |        112336896

 2017-02-08 15:36:09.387466+01 | 1486564569.38747 | pgbench_branches_pkey |            57344
 2017-02-08 15:36:09.387466+01 | 1486564569.38747 | pgbench_tellers_pkey  |           253952
 2017-02-08 15:36:09.387466+01 | 1486564569.38747 | pgbench_accounts_pkey |        112336896

 2017-02-08 15:36:10.520506+01 | 1486564570.52051 | pgbench_branches_pkey |            57344
 2017-02-08 15:36:10.520506+01 | 1486564570.52051 | pgbench_tellers_pkey  |           253952
 2017-02-08 15:36:10.520506+01 | 1486564570.52051 | pgbench_accounts_pkey |        112336896

 2017-02-08 15:36:11.637555+01 | 1486564571.63755 | pgbench_branches_pkey |            57344
 2017-02-08 15:36:11.637555+01 | 1486564571.63755 | pgbench_tellers_pkey  |           253952
 2017-02-08 15:36:11.637555+01 | 1486564571.63755 | pgbench_accounts_pkey |        112336896

 2017-02-08 15:36:12.761514+01 | 1486564572.76151 | pgbench_branches_pkey |            57344
 2017-02-08 15:36:12.761514+01 | 1486564572.76151 | pgbench_tellers_pkey  |           253952
 2017-02-08 15:36:12.761514+01 | 1486564572.76151 | pgbench_accounts_pkey |        112336896

 2017-02-08 15:36:13.870054+01 | 1486564573.87005 | pgbench_branches_pkey |            57344
 2017-02-08 15:36:13.870054+01 | 1486564573.87005 | pgbench_tellers_pkey  |           253952
 2017-02-08 15:36:13.870054+01 | 1486564573.87005 | pgbench_accounts_pkey |        112336896

 2017-02-08 15:36:14.957514+01 | 1486564574.95751 | pgbench_branches_pkey |            57344
 2017-02-08 15:36:14.957514+01 | 1486564574.95751 | pgbench_tellers_pkey  |           253952
 2017-02-08 15:36:14.957514+01 | 1486564574.95751 | pgbench_accounts_pkey |        112336896

 2017-02-08 15:36:16.059346+01 | 1486564576.05935 | pgbench_branches_pkey |            57344
 2017-02-08 15:36:16.059346+01 | 1486564576.05935 | pgbench_tellers_pkey  |           253952
 2017-02-08 15:36:16.059346+01 | 1486564576.05935 | pgbench_accounts_pkey |        112336896

 2017-02-08 15:36:17.161187+01 | 1486564577.16119 | pgbench_branches_pkey |            57344
 2017-02-08 15:36:17.161187+01 | 1486564577.16119 | pgbench_tellers_pkey  |           253952
 2017-02-08 15:36:17.161187+01 | 1486564577.16119 | pgbench_accounts_pkey |        112336896

 2017-02-08 15:36:18.262568+01 | 1486564578.26257 | pgbench_branches_pkey |            57344
 2017-02-08 15:36:18.262568+01 | 1486564578.26257 | pgbench_tellers_pkey  |           253952
 2017-02-08 15:36:18.262568+01 | 1486564578.26257 | pgbench_accounts_pkey |        112336896

 2017-02-08 15:36:19.368865+01 | 1486564579.36887 | pgbench_branches_pkey |            57344
 2017-02-08 15:36:19.368865+01 | 1486564579.36887 | pgbench_tellers_pkey  |           253952
 2017-02-08 15:36:19.368865+01 | 1486564579.36887 | pgbench_accounts_pkey |        112336896

 2017-02-08 15:36:20.445667+01 | 1486564580.44567 | pgbench_branches_pkey |            57344
 2017-02-08 15:36:20.445667+01 | 1486564580.44567 | pgbench_tellers_pkey  |           253952
 2017-02-08 15:36:20.445667+01 | 1486564580.44567 | pgbench_accounts_pkey |        112336896

 2017-02-08 15:36:21.560984+01 | 1486564581.56098 | pgbench_branches_pkey |            57344
 2017-02-08 15:36:21.560984+01 | 1486564581.56098 | pgbench_tellers_pkey  |           253952
 2017-02-08 15:36:21.560984+01 | 1486564581.56098 | pgbench_accounts_pkey |        112336896

 2017-02-08 15:36:22.670803+01 | 1486564582.6708 | pgbench_branches_pkey |            57344
 2017-02-08 15:36:22.670803+01 | 1486564582.6708 | pgbench_tellers_pkey  |           253952
 2017-02-08 15:36:22.670803+01 | 1486564582.6708 | pgbench_accounts_pkey |        112336896

 2017-02-08 15:36:23.78505+01 | 1486564583.78505 | pgbench_branches_pkey |            57344
 2017-02-08 15:36:23.78505+01 | 1486564583.78505 | pgbench_tellers_pkey  |           253952
 2017-02-08 15:36:23.78505+01 | 1486564583.78505 | pgbench_accounts_pkey |        112336896

 2017-02-08 15:36:24.882499+01 | 1486564584.8825 | pgbench_branches_pkey |            57344
 2017-02-08 15:36:24.882499+01 | 1486564584.8825 | pgbench_tellers_pkey  |           253952
 2017-02-08 15:36:24.882499+01 | 1486564584.8825 | pgbench_accounts_pkey |        112336896

 2017-02-08 15:36:25.973051+01 | 1486564585.97305 | pgbench_branches_pkey |            57344
 2017-02-08 15:36:25.973051+01 | 1486564585.97305 | pgbench_tellers_pkey  |           253952
 2017-02-08 15:36:25.973051+01 | 1486564585.97305 | pgbench_accounts_pkey |        112336896

 2017-02-08 15:36:27.069388+01 | 1486564587.06939 | pgbench_branches_pkey |            57344
 2017-02-08 15:36:27.069388+01 | 1486564587.06939 | pgbench_tellers_pkey  |           253952
 2017-02-08 15:36:27.069388+01 | 1486564587.06939 | pgbench_accounts_pkey |        112336896

 2017-02-08 15:36:28.184448+01 | 1486564588.18445 | pgbench_branches_pkey |            57344
 2017-02-08 15:36:28.184448+01 | 1486564588.18445 | pgbench_tellers_pkey  |           253952
 2017-02-08 15:36:28.184448+01 | 1486564588.18445 | pgbench_accounts_pkey |        112336896

 2017-02-08 15:36:29.3025+01 | 1486564589.3025 | pgbench_branches_pkey |            57344
 2017-02-08 15:36:29.3025+01 | 1486564589.3025 | pgbench_tellers_pkey  |           253952
 2017-02-08 15:36:29.3025+01 | 1486564589.3025 | pgbench_accounts_pkey |        112336896

 2017-02-08 15:36:30.431896+01 | 1486564590.4319 | pgbench_branches_pkey |            57344
 2017-02-08 15:36:30.431896+01 | 1486564590.4319 | pgbench_tellers_pkey  |           253952
 2017-02-08 15:36:30.431896+01 | 1486564590.4319 | pgbench_accounts_pkey |        112336896

 2017-02-08 15:36:31.516155+01 | 1486564591.51616 | pgbench_branches_pkey |            57344
 2017-02-08 15:36:31.516155+01 | 1486564591.51616 | pgbench_tellers_pkey  |           253952
 2017-02-08 15:36:31.516155+01 | 1486564591.51616 | pgbench_accounts_pkey |        112336896

 2017-02-08 15:36:32.626963+01 | 1486564592.62696 | pgbench_branches_pkey |            57344
 2017-02-08 15:36:32.626963+01 | 1486564592.62696 | pgbench_tellers_pkey  |           253952
 2017-02-08 15:36:32.626963+01 | 1486564592.62696 | pgbench_accounts_pkey |        112336896

 2017-02-08 15:36:33.740122+01 | 1486564593.74012 | pgbench_branches_pkey |            57344
 2017-02-08 15:36:33.740122+01 | 1486564593.74012 | pgbench_tellers_pkey  |           253952
 2017-02-08 15:36:33.740122+01 | 1486564593.74012 | pgbench_accounts_pkey |        112336896

 2017-02-08 15:36:34.882318+01 | 1486564594.88232 | pgbench_branches_pkey |            57344
 2017-02-08 15:36:34.882318+01 | 1486564594.88232 | pgbench_tellers_pkey  |           253952
 2017-02-08 15:36:34.882318+01 | 1486564594.88232 | pgbench_accounts_pkey |        112336896

 2017-02-08 15:36:35.994352+01 | 1486564595.99435 | pgbench_branches_pkey |            57344
 2017-02-08 15:36:35.994352+01 | 1486564595.99435 | pgbench_tellers_pkey  |           253952
 2017-02-08 15:36:35.994352+01 | 1486564595.99435 | pgbench_accounts_pkey |        112336896

 2017-02-08 15:36:37.094412+01 | 1486564597.09441 | pgbench_branches_pkey |            57344
 2017-02-08 15:36:37.094412+01 | 1486564597.09441 | pgbench_tellers_pkey  |           253952
 2017-02-08 15:36:37.094412+01 | 1486564597.09441 | pgbench_accounts_pkey |        112336896

 2017-02-08 15:36:38.240116+01 | 1486564598.24012 | pgbench_branches_pkey |            57344
 2017-02-08 15:36:38.240116+01 | 1486564598.24012 | pgbench_tellers_pkey  |           253952
 2017-02-08 15:36:38.240116+01 | 1486564598.24012 | pgbench_accounts_pkey |        112336896

 2017-02-08 15:36:39.333067+01 | 1486564599.33307 | pgbench_branches_pkey |            57344
 2017-02-08 15:36:39.333067+01 | 1486564599.33307 | pgbench_tellers_pkey  |           253952
 2017-02-08 15:36:39.333067+01 | 1486564599.33307 | pgbench_accounts_pkey |        112336896

 2017-02-08 15:36:40.428359+01 | 1486564600.42836 | pgbench_branches_pkey |            57344
 2017-02-08 15:36:40.428359+01 | 1486564600.42836 | pgbench_tellers_pkey  |           253952
 2017-02-08 15:36:40.428359+01 | 1486564600.42836 | pgbench_accounts_pkey |        112336896

 2017-02-08 15:36:41.536986+01 | 1486564601.53699 | pgbench_branches_pkey |            57344
 2017-02-08 15:36:41.536986+01 | 1486564601.53699 | pgbench_tellers_pkey  |           253952
 2017-02-08 15:36:41.536986+01 | 1486564601.53699 | pgbench_accounts_pkey |        112336896

 2017-02-08 15:36:42.669007+01 | 1486564602.66901 | pgbench_branches_pkey |            57344
 2017-02-08 15:36:42.669007+01 | 1486564602.66901 | pgbench_tellers_pkey  |           253952
 2017-02-08 15:36:42.669007+01 | 1486564602.66901 | pgbench_accounts_pkey |        112336896

 2017-02-08 15:36:43.810149+01 | 1486564603.81015 | pgbench_branches_pkey |            57344
 2017-02-08 15:36:43.810149+01 | 1486564603.81015 | pgbench_tellers_pkey  |           253952
 2017-02-08 15:36:43.810149+01 | 1486564603.81015 | pgbench_accounts_pkey |        112336896

 2017-02-08 15:36:44.902999+01 | 1486564604.903 | pgbench_branches_pkey |            57344
 2017-02-08 15:36:44.902999+01 | 1486564604.903 | pgbench_tellers_pkey  |           253952
 2017-02-08 15:36:44.902999+01 | 1486564604.903 | pgbench_accounts_pkey |        112336896

 2017-02-08 15:36:46.027282+01 | 1486564606.02728 | pgbench_branches_pkey |            57344
 2017-02-08 15:36:46.027282+01 | 1486564606.02728 | pgbench_tellers_pkey  |           253952
 2017-02-08 15:36:46.027282+01 | 1486564606.02728 | pgbench_accounts_pkey |        112336896

 2017-02-08 15:36:47.129949+01 | 1486564607.12995 | pgbench_branches_pkey |            57344
 2017-02-08 15:36:47.129949+01 | 1486564607.12995 | pgbench_tellers_pkey  |           253952
 2017-02-08 15:36:47.129949+01 | 1486564607.12995 | pgbench_accounts_pkey |        112336896

 2017-02-08 15:36:48.258563+01 | 1486564608.25856 | pgbench_branches_pkey |            57344
 2017-02-08 15:36:48.258563+01 | 1486564608.25856 | pgbench_tellers_pkey  |           253952
 2017-02-08 15:36:48.258563+01 | 1486564608.25856 | pgbench_accounts_pkey |        112336896

 2017-02-08 15:36:49.357215+01 | 1486564609.35721 | pgbench_branches_pkey |            57344
 2017-02-08 15:36:49.357215+01 | 1486564609.35721 | pgbench_tellers_pkey  |           253952
 2017-02-08 15:36:49.357215+01 | 1486564609.35721 | pgbench_accounts_pkey |        112336896

 2017-02-08 15:36:50.430031+01 | 1486564610.43003 | pgbench_branches_pkey |            57344
 2017-02-08 15:36:50.430031+01 | 1486564610.43003 | pgbench_tellers_pkey  |           253952
 2017-02-08 15:36:50.430031+01 | 1486564610.43003 | pgbench_accounts_pkey |        112336896

 2017-02-08 15:36:51.541986+01 | 1486564611.54199 | pgbench_branches_pkey |            57344
 2017-02-08 15:36:51.541986+01 | 1486564611.54199 | pgbench_tellers_pkey  |           253952
 2017-02-08 15:36:51.541986+01 | 1486564611.54199 | pgbench_accounts_pkey |        112336896

 2017-02-08 15:36:52.640653+01 | 1486564612.64065 | pgbench_branches_pkey |            57344
 2017-02-08 15:36:52.640653+01 | 1486564612.64065 | pgbench_tellers_pkey  |           253952
 2017-02-08 15:36:52.640653+01 | 1486564612.64065 | pgbench_accounts_pkey |        112336896

 2017-02-08 15:36:53.75513+01 | 1486564613.75513 | pgbench_branches_pkey |            57344
 2017-02-08 15:36:53.75513+01 | 1486564613.75513 | pgbench_tellers_pkey  |           253952
 2017-02-08 15:36:53.75513+01 | 1486564613.75513 | pgbench_accounts_pkey |        112336896

 2017-02-08 15:36:54.867794+01 | 1486564614.86779 | pgbench_branches_pkey |            57344
 2017-02-08 15:36:54.867794+01 | 1486564614.86779 | pgbench_tellers_pkey  |           253952
 2017-02-08 15:36:54.867794+01 | 1486564614.86779 | pgbench_accounts_pkey |        112336896

 2017-02-08 15:36:55.955771+01 | 1486564615.95577 | pgbench_branches_pkey |            57344
 2017-02-08 15:36:55.955771+01 | 1486564615.95577 | pgbench_tellers_pkey  |           253952
 2017-02-08 15:36:55.955771+01 | 1486564615.95577 | pgbench_accounts_pkey |        112336896

 2017-02-08 15:36:57.076519+01 | 1486564617.07652 | pgbench_branches_pkey |            57344
 2017-02-08 15:36:57.076519+01 | 1486564617.07652 | pgbench_tellers_pkey  |           253952
 2017-02-08 15:36:57.076519+01 | 1486564617.07652 | pgbench_accounts_pkey |        112336896

 2017-02-08 15:36:58.192369+01 | 1486564618.19237 | pgbench_branches_pkey |            57344
 2017-02-08 15:36:58.192369+01 | 1486564618.19237 | pgbench_tellers_pkey  |           253952
 2017-02-08 15:36:58.192369+01 | 1486564618.19237 | pgbench_accounts_pkey |        112336896

 2017-02-08 15:36:59.296626+01 | 1486564619.29663 | pgbench_branches_pkey |            57344
 2017-02-08 15:36:59.296626+01 | 1486564619.29663 | pgbench_tellers_pkey  |           253952
 2017-02-08 15:36:59.296626+01 | 1486564619.29663 | pgbench_accounts_pkey |        112336896

 2017-02-08 15:37:00.421119+01 | 1486564620.42112 | pgbench_branches_pkey |            57344
 2017-02-08 15:37:00.421119+01 | 1486564620.42112 | pgbench_tellers_pkey  |           253952
 2017-02-08 15:37:00.421119+01 | 1486564620.42112 | pgbench_accounts_pkey |        112336896

 2017-02-08 15:37:01.542596+01 | 1486564621.5426 | pgbench_branches_pkey |            57344
 2017-02-08 15:37:01.542596+01 | 1486564621.5426 | pgbench_tellers_pkey  |           253952
 2017-02-08 15:37:01.542596+01 | 1486564621.5426 | pgbench_accounts_pkey |        112336896

 2017-02-08 15:37:02.662802+01 | 1486564622.6628 | pgbench_branches_pkey |            57344
 2017-02-08 15:37:02.662802+01 | 1486564622.6628 | pgbench_tellers_pkey  |           253952
 2017-02-08 15:37:02.662802+01 | 1486564622.6628 | pgbench_accounts_pkey |        112336896

 2017-02-08 15:37:03.782833+01 | 1486564623.78283 | pgbench_branches_pkey |            57344
 2017-02-08 15:37:03.782833+01 | 1486564623.78283 | pgbench_tellers_pkey  |           253952
 2017-02-08 15:37:03.782833+01 | 1486564623.78283 | pgbench_accounts_pkey |        112336896

 2017-02-08 15:37:04.900084+01 | 1486564624.90008 | pgbench_branches_pkey |            57344
 2017-02-08 15:37:04.900084+01 | 1486564624.90008 | pgbench_tellers_pkey  |           253952
 2017-02-08 15:37:04.900084+01 | 1486564624.90008 | pgbench_accounts_pkey |        112336896

 2017-02-08 15:37:06.02608+01 | 1486564626.02608 | pgbench_branches_pkey |            57344
 2017-02-08 15:37:06.02608+01 | 1486564626.02608 | pgbench_tellers_pkey  |           253952
 2017-02-08 15:37:06.02608+01 | 1486564626.02608 | pgbench_accounts_pkey |        112336896

 2017-02-08 15:37:07.14358+01 | 1486564627.14358 | pgbench_branches_pkey |            57344
 2017-02-08 15:37:07.14358+01 | 1486564627.14358 | pgbench_tellers_pkey  |           253952
 2017-02-08 15:37:07.14358+01 | 1486564627.14358 | pgbench_accounts_pkey |        112336896

 2017-02-08 15:37:08.240086+01 | 1486564628.24009 | pgbench_branches_pkey |            57344
 2017-02-08 15:37:08.240086+01 | 1486564628.24009 | pgbench_tellers_pkey  |           253952
 2017-02-08 15:37:08.240086+01 | 1486564628.24009 | pgbench_accounts_pkey |        112336896

 2017-02-08 15:37:09.363552+01 | 1486564629.36355 | pgbench_branches_pkey |            57344
 2017-02-08 15:37:09.363552+01 | 1486564629.36355 | pgbench_tellers_pkey  |           253952
 2017-02-08 15:37:09.363552+01 | 1486564629.36355 | pgbench_accounts_pkey |        112336896

 2017-02-08 15:37:10.477589+01 | 1486564630.47759 | pgbench_branches_pkey |            57344
 2017-02-08 15:37:10.477589+01 | 1486564630.47759 | pgbench_tellers_pkey  |           253952
 2017-02-08 15:37:10.477589+01 | 1486564630.47759 | pgbench_accounts_pkey |        112336896

 2017-02-08 15:37:11.592893+01 | 1486564631.59289 | pgbench_branches_pkey |            57344
 2017-02-08 15:37:11.592893+01 | 1486564631.59289 | pgbench_tellers_pkey  |           253952
 2017-02-08 15:37:11.592893+01 | 1486564631.59289 | pgbench_accounts_pkey |        112336896

 2017-02-08 15:37:12.683831+01 | 1486564632.68383 | pgbench_branches_pkey |            57344
 2017-02-08 15:37:12.683831+01 | 1486564632.68383 | pgbench_tellers_pkey  |           253952
 2017-02-08 15:37:12.683831+01 | 1486564632.68383 | pgbench_accounts_pkey |        112336896

 2017-02-08 15:37:13.801498+01 | 1486564633.8015 | pgbench_branches_pkey |            57344
 2017-02-08 15:37:13.801498+01 | 1486564633.8015 | pgbench_tellers_pkey  |           253952
 2017-02-08 15:37:13.801498+01 | 1486564633.8015 | pgbench_accounts_pkey |        112336896

 2017-02-08 15:37:14.886466+01 | 1486564634.88647 | pgbench_branches_pkey |            57344
 2017-02-08 15:37:14.886466+01 | 1486564634.88647 | pgbench_tellers_pkey  |           253952
 2017-02-08 15:37:14.886466+01 | 1486564634.88647 | pgbench_accounts_pkey |        112336896

 2017-02-08 15:37:16.022581+01 | 1486564636.02258 | pgbench_branches_pkey |            57344
 2017-02-08 15:37:16.022581+01 | 1486564636.02258 | pgbench_tellers_pkey  |           253952
 2017-02-08 15:37:16.022581+01 | 1486564636.02258 | pgbench_accounts_pkey |        112336896

 2017-02-08 15:37:17.118734+01 | 1486564637.11873 | pgbench_branches_pkey |            57344
 2017-02-08 15:37:17.118734+01 | 1486564637.11873 | pgbench_tellers_pkey  |           253952
 2017-02-08 15:37:17.118734+01 | 1486564637.11873 | pgbench_accounts_pkey |        112336896

 2017-02-08 15:37:18.206117+01 | 1486564638.20612 | pgbench_branches_pkey |            57344
 2017-02-08 15:37:18.206117+01 | 1486564638.20612 | pgbench_tellers_pkey  |           253952
 2017-02-08 15:37:18.206117+01 | 1486564638.20612 | pgbench_accounts_pkey |        112336896

 2017-02-08 15:37:19.305756+01 | 1486564639.30576 | pgbench_branches_pkey |            57344
 2017-02-08 15:37:19.305756+01 | 1486564639.30576 | pgbench_tellers_pkey  |           253952
 2017-02-08 15:37:19.305756+01 | 1486564639.30576 | pgbench_accounts_pkey |        112336896

 2017-02-08 15:37:20.42149+01 | 1486564640.42149 | pgbench_branches_pkey |            57344
 2017-02-08 15:37:20.42149+01 | 1486564640.42149 | pgbench_tellers_pkey  |           253952
 2017-02-08 15:37:20.42149+01 | 1486564640.42149 | pgbench_accounts_pkey |        112336896

 2017-02-08 15:37:21.519372+01 | 1486564641.51937 | pgbench_branches_pkey |            57344
 2017-02-08 15:37:21.519372+01 | 1486564641.51937 | pgbench_tellers_pkey  |           253952
 2017-02-08 15:37:21.519372+01 | 1486564641.51937 | pgbench_accounts_pkey |        112336896

 2017-02-08 15:37:22.635478+01 | 1486564642.63548 | pgbench_branches_pkey |            57344
 2017-02-08 15:37:22.635478+01 | 1486564642.63548 | pgbench_tellers_pkey  |           253952
 2017-02-08 15:37:22.635478+01 | 1486564642.63548 | pgbench_accounts_pkey |        112336896

 2017-02-08 15:37:23.746247+01 | 1486564643.74625 | pgbench_branches_pkey |            57344
 2017-02-08 15:37:23.746247+01 | 1486564643.74625 | pgbench_tellers_pkey  |           253952
 2017-02-08 15:37:23.746247+01 | 1486564643.74625 | pgbench_accounts_pkey |        112336896

 2017-02-08 15:37:24.835265+01 | 1486564644.83526 | pgbench_branches_pkey |            57344
 2017-02-08 15:37:24.835265+01 | 1486564644.83526 | pgbench_tellers_pkey  |           253952
 2017-02-08 15:37:24.835265+01 | 1486564644.83526 | pgbench_accounts_pkey |        112336896

 2017-02-08 15:37:25.924172+01 | 1486564645.92417 | pgbench_branches_pkey |            57344
 2017-02-08 15:37:25.924172+01 | 1486564645.92417 | pgbench_tellers_pkey  |           253952
 2017-02-08 15:37:25.924172+01 | 1486564645.92417 | pgbench_accounts_pkey |        112336896

 2017-02-08 15:37:27.012443+01 | 1486564647.01244 | pgbench_branches_pkey |            57344
 2017-02-08 15:37:27.012443+01 | 1486564647.01244 | pgbench_tellers_pkey  |           253952
 2017-02-08 15:37:27.012443+01 | 1486564647.01244 | pgbench_accounts_pkey |        112336896

 2017-02-08 15:37:28.112361+01 | 1486564648.11236 | pgbench_branches_pkey |            57344
 2017-02-08 15:37:28.112361+01 | 1486564648.11236 | pgbench_tellers_pkey  |           253952
 2017-02-08 15:37:28.112361+01 | 1486564648.11236 | pgbench_accounts_pkey |        112336896

 2017-02-08 15:37:29.214421+01 | 1486564649.21442 | pgbench_branches_pkey |            57344
 2017-02-08 15:37:29.214421+01 | 1486564649.21442 | pgbench_tellers_pkey  |           253952
 2017-02-08 15:37:29.214421+01 | 1486564649.21442 | pgbench_accounts_pkey |        112336896

 2017-02-08 15:37:30.29908+01 | 1486564650.29908 | pgbench_branches_pkey |            57344
 2017-02-08 15:37:30.29908+01 | 1486564650.29908 | pgbench_tellers_pkey  |           253952
 2017-02-08 15:37:30.29908+01 | 1486564650.29908 | pgbench_accounts_pkey |        112336896

 2017-02-08 15:37:31.403283+01 | 1486564651.40328 | pgbench_branches_pkey |            57344
 2017-02-08 15:37:31.403283+01 | 1486564651.40328 | pgbench_tellers_pkey  |           253952
 2017-02-08 15:37:31.403283+01 | 1486564651.40328 | pgbench_accounts_pkey |        112336896

 2017-02-08 15:37:32.508807+01 | 1486564652.50881 | pgbench_branches_pkey |            57344
 2017-02-08 15:37:32.508807+01 | 1486564652.50881 | pgbench_tellers_pkey  |           253952
 2017-02-08 15:37:32.508807+01 | 1486564652.50881 | pgbench_accounts_pkey |        112336896

 2017-02-08 15:37:33.616708+01 | 1486564653.61671 | pgbench_branches_pkey |            57344
 2017-02-08 15:37:33.616708+01 | 1486564653.61671 | pgbench_tellers_pkey  |           253952
 2017-02-08 15:37:33.616708+01 | 1486564653.61671 | pgbench_accounts_pkey |        112336896

 2017-02-08 15:37:34.736706+01 | 1486564654.73671 | pgbench_branches_pkey |            57344
 2017-02-08 15:37:34.736706+01 | 1486564654.73671 | pgbench_tellers_pkey  |           253952
 2017-02-08 15:37:34.736706+01 | 1486564654.73671 | pgbench_accounts_pkey |        112336896

 2017-02-08 15:37:35.858449+01 | 1486564655.85845 | pgbench_branches_pkey |            57344
 2017-02-08 15:37:35.858449+01 | 1486564655.85845 | pgbench_tellers_pkey  |           253952
 2017-02-08 15:37:35.858449+01 | 1486564655.85845 | pgbench_accounts_pkey |        112336896

 2017-02-08 15:37:36.969395+01 | 1486564656.96939 | pgbench_branches_pkey |            57344
 2017-02-08 15:37:36.969395+01 | 1486564656.96939 | pgbench_tellers_pkey  |           253952
 2017-02-08 15:37:36.969395+01 | 1486564656.96939 | pgbench_accounts_pkey |        112336896

 2017-02-08 15:37:38.050964+01 | 1486564658.05096 | pgbench_branches_pkey |            57344
 2017-02-08 15:37:38.050964+01 | 1486564658.05096 | pgbench_tellers_pkey  |           253952
 2017-02-08 15:37:38.050964+01 | 1486564658.05096 | pgbench_accounts_pkey |        112336896

 2017-02-08 15:37:39.148402+01 | 1486564659.1484 | pgbench_branches_pkey |            57344
 2017-02-08 15:37:39.148402+01 | 1486564659.1484 | pgbench_tellers_pkey  |           253952
 2017-02-08 15:37:39.148402+01 | 1486564659.1484 | pgbench_accounts_pkey |        112336896

 2017-02-08 15:37:40.248376+01 | 1486564660.24838 | pgbench_branches_pkey |            57344
 2017-02-08 15:37:40.248376+01 | 1486564660.24838 | pgbench_tellers_pkey  |           253952
 2017-02-08 15:37:40.248376+01 | 1486564660.24838 | pgbench_accounts_pkey |        112336896

 2017-02-08 15:37:41.33306+01 | 1486564661.33306 | pgbench_branches_pkey |            57344
 2017-02-08 15:37:41.33306+01 | 1486564661.33306 | pgbench_tellers_pkey  |           253952
 2017-02-08 15:37:41.33306+01 | 1486564661.33306 | pgbench_accounts_pkey |        112336896

 2017-02-08 15:37:42.455248+01 | 1486564662.45525 | pgbench_branches_pkey |            57344
 2017-02-08 15:37:42.455248+01 | 1486564662.45525 | pgbench_tellers_pkey  |           253952
 2017-02-08 15:37:42.455248+01 | 1486564662.45525 | pgbench_accounts_pkey |        112336896

 2017-02-08 15:37:43.542373+01 | 1486564663.54237 | pgbench_branches_pkey |            57344
 2017-02-08 15:37:43.542373+01 | 1486564663.54237 | pgbench_tellers_pkey  |           253952
 2017-02-08 15:37:43.542373+01 | 1486564663.54237 | pgbench_accounts_pkey |        112336896

 2017-02-08 15:37:44.624938+01 | 1486564664.62494 | pgbench_branches_pkey |            57344
 2017-02-08 15:37:44.624938+01 | 1486564664.62494 | pgbench_tellers_pkey  |           253952
 2017-02-08 15:37:44.624938+01 | 1486564664.62494 | pgbench_accounts_pkey |        112336896

 2017-02-08 15:37:45.74608+01 | 1486564665.74608 | pgbench_branches_pkey |            57344
 2017-02-08 15:37:45.74608+01 | 1486564665.74608 | pgbench_tellers_pkey  |           253952
 2017-02-08 15:37:45.74608+01 | 1486564665.74608 | pgbench_accounts_pkey |        112336896

 2017-02-08 15:37:46.842701+01 | 1486564666.8427 | pgbench_branches_pkey |            57344
 2017-02-08 15:37:46.842701+01 | 1486564666.8427 | pgbench_tellers_pkey  |           253952
 2017-02-08 15:37:46.842701+01 | 1486564666.8427 | pgbench_accounts_pkey |        112336896

 2017-02-08 15:37:47.949844+01 | 1486564667.94984 | pgbench_branches_pkey |            57344
 2017-02-08 15:37:47.949844+01 | 1486564667.94984 | pgbench_tellers_pkey  |           253952
 2017-02-08 15:37:47.949844+01 | 1486564667.94984 | pgbench_accounts_pkey |        112336896

 2017-02-08 15:37:49.05273+01 | 1486564669.05273 | pgbench_branches_pkey |            57344
 2017-02-08 15:37:49.05273+01 | 1486564669.05273 | pgbench_tellers_pkey  |           253952
 2017-02-08 15:37:49.05273+01 | 1486564669.05273 | pgbench_accounts_pkey |        112336896

 2017-02-08 15:37:50.177011+01 | 1486564670.17701 | pgbench_branches_pkey |            57344
 2017-02-08 15:37:50.177011+01 | 1486564670.17701 | pgbench_tellers_pkey  |           253952
 2017-02-08 15:37:50.177011+01 | 1486564670.17701 | pgbench_accounts_pkey |        112336896

 2017-02-08 15:37:51.262232+01 | 1486564671.26223 | pgbench_branches_pkey |            57344
 2017-02-08 15:37:51.262232+01 | 1486564671.26223 | pgbench_tellers_pkey  |           253952
 2017-02-08 15:37:51.262232+01 | 1486564671.26223 | pgbench_accounts_pkey |        112336896

 2017-02-08 15:37:52.348441+01 | 1486564672.34844 | pgbench_branches_pkey |            57344
 2017-02-08 15:37:52.348441+01 | 1486564672.34844 | pgbench_tellers_pkey  |           253952
 2017-02-08 15:37:52.348441+01 | 1486564672.34844 | pgbench_accounts_pkey |        112336896

 2017-02-08 15:37:53.473721+01 | 1486564673.47372 | pgbench_branches_pkey |            57344
 2017-02-08 15:37:53.473721+01 | 1486564673.47372 | pgbench_tellers_pkey  |           253952
 2017-02-08 15:37:53.473721+01 | 1486564673.47372 | pgbench_accounts_pkey |        112336896

 2017-02-08 15:37:54.635456+01 | 1486564674.63546 | pgbench_branches_pkey |            57344
 2017-02-08 15:37:54.635456+01 | 1486564674.63546 | pgbench_tellers_pkey  |           253952
 2017-02-08 15:37:54.635456+01 | 1486564674.63546 | pgbench_accounts_pkey |        112336896

 2017-02-08 15:37:55.755992+01 | 1486564675.75599 | pgbench_branches_pkey |            57344
 2017-02-08 15:37:55.755992+01 | 1486564675.75599 | pgbench_tellers_pkey  |           253952
 2017-02-08 15:37:55.755992+01 | 1486564675.75599 | pgbench_accounts_pkey |        112336896

 2017-02-08 15:37:56.892289+01 | 1486564676.89229 | pgbench_branches_pkey |            57344
 2017-02-08 15:37:56.892289+01 | 1486564676.89229 | pgbench_tellers_pkey  |           253952
 2017-02-08 15:37:56.892289+01 | 1486564676.89229 | pgbench_accounts_pkey |        112336896

 2017-02-08 15:37:58.007465+01 | 1486564678.00746 | pgbench_branches_pkey |            57344
 2017-02-08 15:37:58.007465+01 | 1486564678.00746 | pgbench_tellers_pkey  |           253952
 2017-02-08 15:37:58.007465+01 | 1486564678.00746 | pgbench_accounts_pkey |        112336896

 2017-02-08 15:37:59.104297+01 | 1486564679.1043 | pgbench_branches_pkey |            57344
 2017-02-08 15:37:59.104297+01 | 1486564679.1043 | pgbench_tellers_pkey  |           253952
 2017-02-08 15:37:59.104297+01 | 1486564679.1043 | pgbench_accounts_pkey |        112336896

 2017-02-08 15:38:00.260471+01 | 1486564680.26047 | pgbench_branches_pkey |            57344
 2017-02-08 15:38:00.260471+01 | 1486564680.26047 | pgbench_tellers_pkey  |           253952
 2017-02-08 15:38:00.260471+01 | 1486564680.26047 | pgbench_accounts_pkey |        112336896

 2017-02-08 15:38:01.355458+01 | 1486564681.35546 | pgbench_branches_pkey |            57344
 2017-02-08 15:38:01.355458+01 | 1486564681.35546 | pgbench_tellers_pkey  |           253952
 2017-02-08 15:38:01.355458+01 | 1486564681.35546 | pgbench_accounts_pkey |        112336896

 2017-02-08 15:38:02.443745+01 | 1486564682.44374 | pgbench_branches_pkey |            57344
 2017-02-08 15:38:02.443745+01 | 1486564682.44374 | pgbench_tellers_pkey  |           253952
 2017-02-08 15:38:02.443745+01 | 1486564682.44374 | pgbench_accounts_pkey |        112336896

 2017-02-08 15:38:03.542153+01 | 1486564683.54215 | pgbench_branches_pkey |            57344
 2017-02-08 15:38:03.542153+01 | 1486564683.54215 | pgbench_tellers_pkey  |           253952
 2017-02-08 15:38:03.542153+01 | 1486564683.54215 | pgbench_accounts_pkey |        112336896

 2017-02-08 15:38:04.623389+01 | 1486564684.62339 | pgbench_branches_pkey |            57344
 2017-02-08 15:38:04.623389+01 | 1486564684.62339 | pgbench_tellers_pkey  |           253952
 2017-02-08 15:38:04.623389+01 | 1486564684.62339 | pgbench_accounts_pkey |        112336896

 2017-02-08 15:38:05.733384+01 | 1486564685.73338 | pgbench_branches_pkey |            57344
 2017-02-08 15:38:05.733384+01 | 1486564685.73338 | pgbench_tellers_pkey  |           253952
 2017-02-08 15:38:05.733384+01 | 1486564685.73338 | pgbench_accounts_pkey |        112336896

 2017-02-08 15:38:06.841468+01 | 1486564686.84147 | pgbench_branches_pkey |            57344
 2017-02-08 15:38:06.841468+01 | 1486564686.84147 | pgbench_tellers_pkey  |           253952
 2017-02-08 15:38:06.841468+01 | 1486564686.84147 | pgbench_accounts_pkey |        112336896

 2017-02-08 15:38:07.933557+01 | 1486564687.93356 | pgbench_branches_pkey |            57344
 2017-02-08 15:38:07.933557+01 | 1486564687.93356 | pgbench_tellers_pkey  |           253952
 2017-02-08 15:38:07.933557+01 | 1486564687.93356 | pgbench_accounts_pkey |        112336896

 2017-02-08 15:38:09.053033+01 | 1486564689.05303 | pgbench_branches_pkey |            57344
 2017-02-08 15:38:09.053033+01 | 1486564689.05303 | pgbench_tellers_pkey  |           253952
 2017-02-08 15:38:09.053033+01 | 1486564689.05303 | pgbench_accounts_pkey |        112336896

 2017-02-08 15:38:10.185613+01 | 1486564690.18561 | pgbench_branches_pkey |            57344
 2017-02-08 15:38:10.185613+01 | 1486564690.18561 | pgbench_tellers_pkey  |           253952
 2017-02-08 15:38:10.185613+01 | 1486564690.18561 | pgbench_accounts_pkey |        112336896

 2017-02-08 15:38:11.298639+01 | 1486564691.29864 | pgbench_branches_pkey |            57344
 2017-02-08 15:38:11.298639+01 | 1486564691.29864 | pgbench_tellers_pkey  |           253952
 2017-02-08 15:38:11.298639+01 | 1486564691.29864 | pgbench_accounts_pkey |        112336896

 2017-02-08 15:38:12.396241+01 | 1486564692.39624 | pgbench_branches_pkey |            57344
 2017-02-08 15:38:12.396241+01 | 1486564692.39624 | pgbench_tellers_pkey  |           253952
 2017-02-08 15:38:12.396241+01 | 1486564692.39624 | pgbench_accounts_pkey |        112336896

 2017-02-08 15:38:13.480821+01 | 1486564693.48082 | pgbench_branches_pkey |            57344
 2017-02-08 15:38:13.480821+01 | 1486564693.48082 | pgbench_tellers_pkey  |           253952
 2017-02-08 15:38:13.480821+01 | 1486564693.48082 | pgbench_accounts_pkey |        112336896

 2017-02-08 15:38:14.622026+01 | 1486564694.62203 | pgbench_branches_pkey |            57344
 2017-02-08 15:38:14.622026+01 | 1486564694.62203 | pgbench_tellers_pkey  |           253952
 2017-02-08 15:38:14.622026+01 | 1486564694.62203 | pgbench_accounts_pkey |        112336896

 2017-02-08 15:38:15.704314+01 | 1486564695.70431 | pgbench_branches_pkey |            57344
 2017-02-08 15:38:15.704314+01 | 1486564695.70431 | pgbench_tellers_pkey  |           253952
 2017-02-08 15:38:15.704314+01 | 1486564695.70431 | pgbench_accounts_pkey |        112336896

 2017-02-08 15:38:16.806694+01 | 1486564696.80669 | pgbench_branches_pkey |            57344
 2017-02-08 15:38:16.806694+01 | 1486564696.80669 | pgbench_tellers_pkey  |           253952
 2017-02-08 15:38:16.806694+01 | 1486564696.80669 | pgbench_accounts_pkey |        112336896

 2017-02-08 15:38:17.895556+01 | 1486564697.89556 | pgbench_branches_pkey |            57344
 2017-02-08 15:38:17.895556+01 | 1486564697.89556 | pgbench_tellers_pkey  |           253952
 2017-02-08 15:38:17.895556+01 | 1486564697.89556 | pgbench_accounts_pkey |        112336896

 2017-02-08 15:38:19.015047+01 | 1486564699.01505 | pgbench_branches_pkey |            57344
 2017-02-08 15:38:19.015047+01 | 1486564699.01505 | pgbench_tellers_pkey  |           253952
 2017-02-08 15:38:19.015047+01 | 1486564699.01505 | pgbench_accounts_pkey |        112336896

 2017-02-08 15:38:20.106107+01 | 1486564700.10611 | pgbench_branches_pkey |            57344
 2017-02-08 15:38:20.106107+01 | 1486564700.10611 | pgbench_tellers_pkey  |           253952
 2017-02-08 15:38:20.106107+01 | 1486564700.10611 | pgbench_accounts_pkey |        112336896

 2017-02-08 15:38:21.198476+01 | 1486564701.19848 | pgbench_branches_pkey |            57344
 2017-02-08 15:38:21.198476+01 | 1486564701.19848 | pgbench_tellers_pkey  |           253952
 2017-02-08 15:38:21.198476+01 | 1486564701.19848 | pgbench_accounts_pkey |        112336896

 2017-02-08 15:38:22.310183+01 | 1486564702.31018 | pgbench_branches_pkey |            57344
 2017-02-08 15:38:22.310183+01 | 1486564702.31018 | pgbench_tellers_pkey  |           253952
 2017-02-08 15:38:22.310183+01 | 1486564702.31018 | pgbench_accounts_pkey |        112336896

 2017-02-08 15:38:23.417101+01 | 1486564703.4171 | pgbench_branches_pkey |            57344
 2017-02-08 15:38:23.417101+01 | 1486564703.4171 | pgbench_tellers_pkey  |           253952
 2017-02-08 15:38:23.417101+01 | 1486564703.4171 | pgbench_accounts_pkey |        112336896

 2017-02-08 15:38:24.509178+01 | 1486564704.50918 | pgbench_branches_pkey |            57344
 2017-02-08 15:38:24.509178+01 | 1486564704.50918 | pgbench_tellers_pkey  |           253952
 2017-02-08 15:38:24.509178+01 | 1486564704.50918 | pgbench_accounts_pkey |        112336896

 2017-02-08 15:38:25.609576+01 | 1486564705.60958 | pgbench_branches_pkey |            57344
 2017-02-08 15:38:25.609576+01 | 1486564705.60958 | pgbench_tellers_pkey  |           253952
 2017-02-08 15:38:25.609576+01 | 1486564705.60958 | pgbench_accounts_pkey |        112336896

 2017-02-08 15:38:26.711998+01 | 1486564706.712 | pgbench_branches_pkey |            57344
 2017-02-08 15:38:26.711998+01 | 1486564706.712 | pgbench_tellers_pkey  |           253952
 2017-02-08 15:38:26.711998+01 | 1486564706.712 | pgbench_accounts_pkey |        112336896

 2017-02-08 15:38:27.832826+01 | 1486564707.83283 | pgbench_branches_pkey |            57344
 2017-02-08 15:38:27.832826+01 | 1486564707.83283 | pgbench_tellers_pkey  |           253952
 2017-02-08 15:38:27.832826+01 | 1486564707.83283 | pgbench_accounts_pkey |        112336896

 2017-02-08 15:38:28.932623+01 | 1486564708.93262 | pgbench_branches_pkey |            57344
 2017-02-08 15:38:28.932623+01 | 1486564708.93262 | pgbench_tellers_pkey  |           253952
 2017-02-08 15:38:28.932623+01 | 1486564708.93262 | pgbench_accounts_pkey |        112336896

 2017-02-08 15:38:30.016579+01 | 1486564710.01658 | pgbench_branches_pkey |            57344
 2017-02-08 15:38:30.016579+01 | 1486564710.01658 | pgbench_tellers_pkey  |           253952
 2017-02-08 15:38:30.016579+01 | 1486564710.01658 | pgbench_accounts_pkey |        112336896

 2017-02-08 15:38:31.111677+01 | 1486564711.11168 | pgbench_branches_pkey |            57344
 2017-02-08 15:38:31.111677+01 | 1486564711.11168 | pgbench_tellers_pkey  |           253952
 2017-02-08 15:38:31.111677+01 | 1486564711.11168 | pgbench_accounts_pkey |        112336896

 2017-02-08 15:38:32.213178+01 | 1486564712.21318 | pgbench_branches_pkey |            57344
 2017-02-08 15:38:32.213178+01 | 1486564712.21318 | pgbench_tellers_pkey  |           253952
 2017-02-08 15:38:32.213178+01 | 1486564712.21318 | pgbench_accounts_pkey |        112336896

 2017-02-08 15:38:33.306608+01 | 1486564713.30661 | pgbench_branches_pkey |            57344
 2017-02-08 15:38:33.306608+01 | 1486564713.30661 | pgbench_tellers_pkey  |           253952
 2017-02-08 15:38:33.306608+01 | 1486564713.30661 | pgbench_accounts_pkey |        112336896

 2017-02-08 15:38:34.412459+01 | 1486564714.41246 | pgbench_branches_pkey |            57344
 2017-02-08 15:38:34.412459+01 | 1486564714.41246 | pgbench_tellers_pkey  |           253952
 2017-02-08 15:38:34.412459+01 | 1486564714.41246 | pgbench_accounts_pkey |        112336896

 2017-02-08 15:38:35.52074+01 | 1486564715.52074 | pgbench_branches_pkey |            57344
 2017-02-08 15:38:35.52074+01 | 1486564715.52074 | pgbench_tellers_pkey  |           253952
 2017-02-08 15:38:35.52074+01 | 1486564715.52074 | pgbench_accounts_pkey |        112336896

 2017-02-08 15:38:36.631012+01 | 1486564716.63101 | pgbench_branches_pkey |            57344
 2017-02-08 15:38:36.631012+01 | 1486564716.63101 | pgbench_tellers_pkey  |           253952
 2017-02-08 15:38:36.631012+01 | 1486564716.63101 | pgbench_accounts_pkey |        112336896

 2017-02-08 15:38:37.748847+01 | 1486564717.74885 | pgbench_branches_pkey |            57344
 2017-02-08 15:38:37.748847+01 | 1486564717.74885 | pgbench_tellers_pkey  |           253952
 2017-02-08 15:38:37.748847+01 | 1486564717.74885 | pgbench_accounts_pkey |        112336896

 2017-02-08 15:38:38.868218+01 | 1486564718.86822 | pgbench_branches_pkey |            57344
 2017-02-08 15:38:38.868218+01 | 1486564718.86822 | pgbench_tellers_pkey  |           253952
 2017-02-08 15:38:38.868218+01 | 1486564718.86822 | pgbench_accounts_pkey |        112336896

 2017-02-08 15:38:39.961868+01 | 1486564719.96187 | pgbench_branches_pkey |            57344
 2017-02-08 15:38:39.961868+01 | 1486564719.96187 | pgbench_tellers_pkey  |           253952
 2017-02-08 15:38:39.961868+01 | 1486564719.96187 | pgbench_accounts_pkey |        112336896

 2017-02-08 15:38:41.071481+01 | 1486564721.07148 | pgbench_branches_pkey |            57344
 2017-02-08 15:38:41.071481+01 | 1486564721.07148 | pgbench_tellers_pkey  |           253952
 2017-02-08 15:38:41.071481+01 | 1486564721.07148 | pgbench_accounts_pkey |        112336896

 2017-02-08 15:38:42.163677+01 | 1486564722.16368 | pgbench_branches_pkey |            57344
 2017-02-08 15:38:42.163677+01 | 1486564722.16368 | pgbench_tellers_pkey  |           253952
 2017-02-08 15:38:42.163677+01 | 1486564722.16368 | pgbench_accounts_pkey |        112336896

 2017-02-08 15:38:43.264727+01 | 1486564723.26473 | pgbench_branches_pkey |            57344
 2017-02-08 15:38:43.264727+01 | 1486564723.26473 | pgbench_tellers_pkey  |           253952
 2017-02-08 15:38:43.264727+01 | 1486564723.26473 | pgbench_accounts_pkey |        112336896

 2017-02-08 15:38:44.375936+01 | 1486564724.37594 | pgbench_branches_pkey |            57344
 2017-02-08 15:38:44.375936+01 | 1486564724.37594 | pgbench_tellers_pkey  |           253952
 2017-02-08 15:38:44.375936+01 | 1486564724.37594 | pgbench_accounts_pkey |        112336896

 2017-02-08 15:38:45.465004+01 | 1486564725.465 | pgbench_branches_pkey |            57344
 2017-02-08 15:38:45.465004+01 | 1486564725.465 | pgbench_tellers_pkey  |           253952
 2017-02-08 15:38:45.465004+01 | 1486564725.465 | pgbench_accounts_pkey |        112336896

 2017-02-08 15:38:46.564432+01 | 1486564726.56443 | pgbench_branches_pkey |            57344
 2017-02-08 15:38:46.564432+01 | 1486564726.56443 | pgbench_tellers_pkey  |           253952
 2017-02-08 15:38:46.564432+01 | 1486564726.56443 | pgbench_accounts_pkey |        112336896

 2017-02-08 15:38:47.68346+01 | 1486564727.68346 | pgbench_branches_pkey |            57344
 2017-02-08 15:38:47.68346+01 | 1486564727.68346 | pgbench_tellers_pkey  |           253952
 2017-02-08 15:38:47.68346+01 | 1486564727.68346 | pgbench_accounts_pkey |        112336896

 2017-02-08 15:38:48.772289+01 | 1486564728.77229 | pgbench_branches_pkey |            57344
 2017-02-08 15:38:48.772289+01 | 1486564728.77229 | pgbench_tellers_pkey  |           253952
 2017-02-08 15:38:48.772289+01 | 1486564728.77229 | pgbench_accounts_pkey |        112336896

 2017-02-08 15:38:49.856987+01 | 1486564729.85699 | pgbench_branches_pkey |            57344
 2017-02-08 15:38:49.856987+01 | 1486564729.85699 | pgbench_tellers_pkey  |           253952
 2017-02-08 15:38:49.856987+01 | 1486564729.85699 | pgbench_accounts_pkey |        112336896

 2017-02-08 15:38:50.932057+01 | 1486564730.93206 | pgbench_branches_pkey |            57344
 2017-02-08 15:38:50.932057+01 | 1486564730.93206 | pgbench_tellers_pkey  |           253952
 2017-02-08 15:38:50.932057+01 | 1486564730.93206 | pgbench_accounts_pkey |        112336896

 2017-02-08 15:38:52.044932+01 | 1486564732.04493 | pgbench_branches_pkey |            57344
 2017-02-08 15:38:52.044932+01 | 1486564732.04493 | pgbench_tellers_pkey  |           253952
 2017-02-08 15:38:52.044932+01 | 1486564732.04493 | pgbench_accounts_pkey |        112336896

 2017-02-08 15:38:53.148176+01 | 1486564733.14818 | pgbench_branches_pkey |            57344
 2017-02-08 15:38:53.148176+01 | 1486564733.14818 | pgbench_tellers_pkey  |           253952
 2017-02-08 15:38:53.148176+01 | 1486564733.14818 | pgbench_accounts_pkey |        112336896

 2017-02-08 15:38:54.228401+01 | 1486564734.2284 | pgbench_branches_pkey |            57344
 2017-02-08 15:38:54.228401+01 | 1486564734.2284 | pgbench_tellers_pkey  |           253952
 2017-02-08 15:38:54.228401+01 | 1486564734.2284 | pgbench_accounts_pkey |        112336896

 2017-02-08 15:38:55.321171+01 | 1486564735.32117 | pgbench_branches_pkey |            57344
 2017-02-08 15:38:55.321171+01 | 1486564735.32117 | pgbench_tellers_pkey  |           253952
 2017-02-08 15:38:55.321171+01 | 1486564735.32117 | pgbench_accounts_pkey |        112336896

 2017-02-08 15:38:56.414502+01 | 1486564736.4145 | pgbench_branches_pkey |            57344
 2017-02-08 15:38:56.414502+01 | 1486564736.4145 | pgbench_tellers_pkey  |           253952
 2017-02-08 15:38:56.414502+01 | 1486564736.4145 | pgbench_accounts_pkey |        112336896

 2017-02-08 15:38:57.510019+01 | 1486564737.51002 | pgbench_branches_pkey |            57344
 2017-02-08 15:38:57.510019+01 | 1486564737.51002 | pgbench_tellers_pkey  |           253952
 2017-02-08 15:38:57.510019+01 | 1486564737.51002 | pgbench_accounts_pkey |        112336896

 2017-02-08 15:38:58.626579+01 | 1486564738.62658 | pgbench_branches_pkey |            57344
 2017-02-08 15:38:58.626579+01 | 1486564738.62658 | pgbench_tellers_pkey  |           253952
 2017-02-08 15:38:58.626579+01 | 1486564738.62658 | pgbench_accounts_pkey |        112336896

 2017-02-08 15:38:59.703338+01 | 1486564739.70334 | pgbench_branches_pkey |            57344
 2017-02-08 15:38:59.703338+01 | 1486564739.70334 | pgbench_tellers_pkey  |           253952
 2017-02-08 15:38:59.703338+01 | 1486564739.70334 | pgbench_accounts_pkey |        112336896

 2017-02-08 15:39:00.793985+01 | 1486564740.79398 | pgbench_branches_pkey |            57344
 2017-02-08 15:39:00.793985+01 | 1486564740.79398 | pgbench_tellers_pkey  |           253952
 2017-02-08 15:39:00.793985+01 | 1486564740.79398 | pgbench_accounts_pkey |        112336896

 2017-02-08 15:39:01.900997+01 | 1486564741.901 | pgbench_branches_pkey |            57344
 2017-02-08 15:39:01.900997+01 | 1486564741.901 | pgbench_tellers_pkey  |           253952
 2017-02-08 15:39:01.900997+01 | 1486564741.901 | pgbench_accounts_pkey |        112336896

 2017-02-08 15:39:03.0012+01 | 1486564743.0012 | pgbench_branches_pkey |            57344
 2017-02-08 15:39:03.0012+01 | 1486564743.0012 | pgbench_tellers_pkey  |           253952
 2017-02-08 15:39:03.0012+01 | 1486564743.0012 | pgbench_accounts_pkey |        112336896

 2017-02-08 15:39:04.097232+01 | 1486564744.09723 | pgbench_branches_pkey |            57344
 2017-02-08 15:39:04.097232+01 | 1486564744.09723 | pgbench_tellers_pkey  |           253952
 2017-02-08 15:39:04.097232+01 | 1486564744.09723 | pgbench_accounts_pkey |        112336896

 2017-02-08 15:39:05.199183+01 | 1486564745.19918 | pgbench_branches_pkey |            57344
 2017-02-08 15:39:05.199183+01 | 1486564745.19918 | pgbench_tellers_pkey  |           253952
 2017-02-08 15:39:05.199183+01 | 1486564745.19918 | pgbench_accounts_pkey |        112336896

 2017-02-08 15:39:06.282625+01 | 1486564746.28262 | pgbench_branches_pkey |            57344
 2017-02-08 15:39:06.282625+01 | 1486564746.28262 | pgbench_tellers_pkey  |           253952
 2017-02-08 15:39:06.282625+01 | 1486564746.28262 | pgbench_accounts_pkey |        112336896

 2017-02-08 15:39:07.398986+01 | 1486564747.39899 | pgbench_branches_pkey |            57344
 2017-02-08 15:39:07.398986+01 | 1486564747.39899 | pgbench_tellers_pkey  |           253952
 2017-02-08 15:39:07.398986+01 | 1486564747.39899 | pgbench_accounts_pkey |        112336896

 2017-02-08 15:39:08.508387+01 | 1486564748.50839 | pgbench_branches_pkey |            57344
 2017-02-08 15:39:08.508387+01 | 1486564748.50839 | pgbench_tellers_pkey  |           253952
 2017-02-08 15:39:08.508387+01 | 1486564748.50839 | pgbench_accounts_pkey |        112336896

 2017-02-08 15:39:09.599569+01 | 1486564749.59957 | pgbench_branches_pkey |            57344
 2017-02-08 15:39:09.599569+01 | 1486564749.59957 | pgbench_tellers_pkey  |           253952
 2017-02-08 15:39:09.599569+01 | 1486564749.59957 | pgbench_accounts_pkey |        112336896

 2017-02-08 15:39:10.694402+01 | 1486564750.6944 | pgbench_branches_pkey |            57344
 2017-02-08 15:39:10.694402+01 | 1486564750.6944 | pgbench_tellers_pkey  |           253952
 2017-02-08 15:39:10.694402+01 | 1486564750.6944 | pgbench_accounts_pkey |        112336896

 2017-02-08 15:39:11.815313+01 | 1486564751.81531 | pgbench_branches_pkey |            57344
 2017-02-08 15:39:11.815313+01 | 1486564751.81531 | pgbench_tellers_pkey  |           253952
 2017-02-08 15:39:11.815313+01 | 1486564751.81531 | pgbench_accounts_pkey |        112336896

 2017-02-08 15:39:12.931325+01 | 1486564752.93132 | pgbench_branches_pkey |            57344
 2017-02-08 15:39:12.931325+01 | 1486564752.93132 | pgbench_tellers_pkey  |           253952
 2017-02-08 15:39:12.931325+01 | 1486564752.93132 | pgbench_accounts_pkey |        112336896

 2017-02-08 15:39:14.03401+01 | 1486564754.03401 | pgbench_branches_pkey |            57344
 2017-02-08 15:39:14.03401+01 | 1486564754.03401 | pgbench_tellers_pkey  |           253952
 2017-02-08 15:39:14.03401+01 | 1486564754.03401 | pgbench_accounts_pkey |        112336896

 2017-02-08 15:39:15.115272+01 | 1486564755.11527 | pgbench_branches_pkey |            57344
 2017-02-08 15:39:15.115272+01 | 1486564755.11527 | pgbench_tellers_pkey  |           253952
 2017-02-08 15:39:15.115272+01 | 1486564755.11527 | pgbench_accounts_pkey |        112336896

 2017-02-08 15:39:16.204765+01 | 1486564756.20477 | pgbench_branches_pkey |            57344
 2017-02-08 15:39:16.204765+01 | 1486564756.20477 | pgbench_tellers_pkey  |           253952
 2017-02-08 15:39:16.204765+01 | 1486564756.20477 | pgbench_accounts_pkey |        112336896

 2017-02-08 15:39:17.343419+01 | 1486564757.34342 | pgbench_branches_pkey |            57344
 2017-02-08 15:39:17.343419+01 | 1486564757.34342 | pgbench_tellers_pkey  |           253952
 2017-02-08 15:39:17.343419+01 | 1486564757.34342 | pgbench_accounts_pkey |        112336896

 2017-02-08 15:39:18.442295+01 | 1486564758.4423 | pgbench_branches_pkey |            57344
 2017-02-08 15:39:18.442295+01 | 1486564758.4423 | pgbench_tellers_pkey  |           253952
 2017-02-08 15:39:18.442295+01 | 1486564758.4423 | pgbench_accounts_pkey |        112336896

 2017-02-08 15:39:19.562128+01 | 1486564759.56213 | pgbench_branches_pkey |            57344
 2017-02-08 15:39:19.562128+01 | 1486564759.56213 | pgbench_tellers_pkey  |           253952
 2017-02-08 15:39:19.562128+01 | 1486564759.56213 | pgbench_accounts_pkey |        112336896

 2017-02-08 15:39:20.639702+01 | 1486564760.6397 | pgbench_branches_pkey |            57344
 2017-02-08 15:39:20.639702+01 | 1486564760.6397 | pgbench_tellers_pkey  |           253952
 2017-02-08 15:39:20.639702+01 | 1486564760.6397 | pgbench_accounts_pkey |        112336896

 2017-02-08 15:39:21.743716+01 | 1486564761.74372 | pgbench_branches_pkey |            57344
 2017-02-08 15:39:21.743716+01 | 1486564761.74372 | pgbench_tellers_pkey  |           253952
 2017-02-08 15:39:21.743716+01 | 1486564761.74372 | pgbench_accounts_pkey |        112336896

 2017-02-08 15:39:22.849386+01 | 1486564762.84939 | pgbench_branches_pkey |            57344
 2017-02-08 15:39:22.849386+01 | 1486564762.84939 | pgbench_tellers_pkey  |           253952
 2017-02-08 15:39:22.849386+01 | 1486564762.84939 | pgbench_accounts_pkey |        112336896

 2017-02-08 15:39:23.960292+01 | 1486564763.96029 | pgbench_branches_pkey |            57344
 2017-02-08 15:39:23.960292+01 | 1486564763.96029 | pgbench_tellers_pkey  |           253952
 2017-02-08 15:39:23.960292+01 | 1486564763.96029 | pgbench_accounts_pkey |        112336896

 2017-02-08 15:39:25.041628+01 | 1486564765.04163 | pgbench_branches_pkey |            57344
 2017-02-08 15:39:25.041628+01 | 1486564765.04163 | pgbench_tellers_pkey  |           253952
 2017-02-08 15:39:25.041628+01 | 1486564765.04163 | pgbench_accounts_pkey |        112336896

 2017-02-08 15:39:26.145414+01 | 1486564766.14541 | pgbench_branches_pkey |            57344
 2017-02-08 15:39:26.145414+01 | 1486564766.14541 | pgbench_tellers_pkey  |           253952
 2017-02-08 15:39:26.145414+01 | 1486564766.14541 | pgbench_accounts_pkey |        112336896

 2017-02-08 15:39:27.26385+01 | 1486564767.26385 | pgbench_branches_pkey |            57344
 2017-02-08 15:39:27.26385+01 | 1486564767.26385 | pgbench_tellers_pkey  |           253952
 2017-02-08 15:39:27.26385+01 | 1486564767.26385 | pgbench_accounts_pkey |        112336896

 2017-02-08 15:39:28.376339+01 | 1486564768.37634 | pgbench_branches_pkey |            57344
 2017-02-08 15:39:28.376339+01 | 1486564768.37634 | pgbench_tellers_pkey  |           253952
 2017-02-08 15:39:28.376339+01 | 1486564768.37634 | pgbench_accounts_pkey |        112336896

 2017-02-08 15:39:29.478267+01 | 1486564769.47827 | pgbench_branches_pkey |            57344
 2017-02-08 15:39:29.478267+01 | 1486564769.47827 | pgbench_tellers_pkey  |           253952
 2017-02-08 15:39:29.478267+01 | 1486564769.47827 | pgbench_accounts_pkey |        112336896

 2017-02-08 15:39:30.580208+01 | 1486564770.58021 | pgbench_branches_pkey |            57344
 2017-02-08 15:39:30.580208+01 | 1486564770.58021 | pgbench_tellers_pkey  |           253952
 2017-02-08 15:39:30.580208+01 | 1486564770.58021 | pgbench_accounts_pkey |        112336896

 2017-02-08 15:39:31.685064+01 | 1486564771.68506 | pgbench_branches_pkey |            57344
 2017-02-08 15:39:31.685064+01 | 1486564771.68506 | pgbench_tellers_pkey  |           253952
 2017-02-08 15:39:31.685064+01 | 1486564771.68506 | pgbench_accounts_pkey |        112336896

 2017-02-08 15:39:32.804424+01 | 1486564772.80442 | pgbench_branches_pkey |            57344
 2017-02-08 15:39:32.804424+01 | 1486564772.80442 | pgbench_tellers_pkey  |           253952
 2017-02-08 15:39:32.804424+01 | 1486564772.80442 | pgbench_accounts_pkey |        112336896

 2017-02-08 15:39:33.888055+01 | 1486564773.88806 | pgbench_branches_pkey |            57344
 2017-02-08 15:39:33.888055+01 | 1486564773.88806 | pgbench_tellers_pkey  |           253952
 2017-02-08 15:39:33.888055+01 | 1486564773.88806 | pgbench_accounts_pkey |        112336896

 2017-02-08 15:39:34.983449+01 | 1486564774.98345 | pgbench_branches_pkey |            57344
 2017-02-08 15:39:34.983449+01 | 1486564774.98345 | pgbench_tellers_pkey  |           253952
 2017-02-08 15:39:34.983449+01 | 1486564774.98345 | pgbench_accounts_pkey |        112336896

 2017-02-08 15:39:36.106541+01 | 1486564776.10654 | pgbench_branches_pkey |            57344
 2017-02-08 15:39:36.106541+01 | 1486564776.10654 | pgbench_tellers_pkey  |           253952
 2017-02-08 15:39:36.106541+01 | 1486564776.10654 | pgbench_accounts_pkey |        112336896

 2017-02-08 15:39:37.203692+01 | 1486564777.20369 | pgbench_branches_pkey |            57344
 2017-02-08 15:39:37.203692+01 | 1486564777.20369 | pgbench_tellers_pkey  |           253952
 2017-02-08 15:39:37.203692+01 | 1486564777.20369 | pgbench_accounts_pkey |        112336896

 2017-02-08 15:39:38.315462+01 | 1486564778.31546 | pgbench_branches_pkey |            57344
 2017-02-08 15:39:38.315462+01 | 1486564778.31546 | pgbench_tellers_pkey  |           253952
 2017-02-08 15:39:38.315462+01 | 1486564778.31546 | pgbench_accounts_pkey |        112336896

 2017-02-08 15:39:39.436293+01 | 1486564779.43629 | pgbench_branches_pkey |            57344
 2017-02-08 15:39:39.436293+01 | 1486564779.43629 | pgbench_tellers_pkey  |           253952
 2017-02-08 15:39:39.436293+01 | 1486564779.43629 | pgbench_accounts_pkey |        112336896

 2017-02-08 15:39:40.541522+01 | 1486564780.54152 | pgbench_branches_pkey |            57344
 2017-02-08 15:39:40.541522+01 | 1486564780.54152 | pgbench_tellers_pkey  |           253952
 2017-02-08 15:39:40.541522+01 | 1486564780.54152 | pgbench_accounts_pkey |        112336896

 2017-02-08 15:39:41.661546+01 | 1486564781.66155 | pgbench_branches_pkey |            57344
 2017-02-08 15:39:41.661546+01 | 1486564781.66155 | pgbench_tellers_pkey  |           253952
 2017-02-08 15:39:41.661546+01 | 1486564781.66155 | pgbench_accounts_pkey |        112336896

 2017-02-08 15:39:42.751798+01 | 1486564782.7518 | pgbench_branches_pkey |            57344
 2017-02-08 15:39:42.751798+01 | 1486564782.7518 | pgbench_tellers_pkey  |           253952
 2017-02-08 15:39:42.751798+01 | 1486564782.7518 | pgbench_accounts_pkey |        112336896

 2017-02-08 15:39:43.856129+01 | 1486564783.85613 | pgbench_branches_pkey |            57344
 2017-02-08 15:39:43.856129+01 | 1486564783.85613 | pgbench_tellers_pkey  |           253952
 2017-02-08 15:39:43.856129+01 | 1486564783.85613 | pgbench_accounts_pkey |        112336896

 2017-02-08 15:39:44.9444+01 | 1486564784.9444 | pgbench_branches_pkey |            57344
 2017-02-08 15:39:44.9444+01 | 1486564784.9444 | pgbench_tellers_pkey  |           253952
 2017-02-08 15:39:44.9444+01 | 1486564784.9444 | pgbench_accounts_pkey |        112336896

 2017-02-08 15:39:46.022504+01 | 1486564786.0225 | pgbench_branches_pkey |            57344
 2017-02-08 15:39:46.022504+01 | 1486564786.0225 | pgbench_tellers_pkey  |           253952
 2017-02-08 15:39:46.022504+01 | 1486564786.0225 | pgbench_accounts_pkey |        112336896

 2017-02-08 15:39:47.122523+01 | 1486564787.12252 | pgbench_branches_pkey |            57344
 2017-02-08 15:39:47.122523+01 | 1486564787.12252 | pgbench_tellers_pkey  |           253952
 2017-02-08 15:39:47.122523+01 | 1486564787.12252 | pgbench_accounts_pkey |        112336896

 2017-02-08 15:39:48.225555+01 | 1486564788.22555 | pgbench_branches_pkey |            57344
 2017-02-08 15:39:48.225555+01 | 1486564788.22555 | pgbench_tellers_pkey  |           253952
 2017-02-08 15:39:48.225555+01 | 1486564788.22555 | pgbench_accounts_pkey |        112336896

 2017-02-08 15:39:49.313411+01 | 1486564789.31341 | pgbench_branches_pkey |            57344
 2017-02-08 15:39:49.313411+01 | 1486564789.31341 | pgbench_tellers_pkey  |           253952
 2017-02-08 15:39:49.313411+01 | 1486564789.31341 | pgbench_accounts_pkey |        112336896

 2017-02-08 15:39:50.41582+01 | 1486564790.41582 | pgbench_branches_pkey |            57344
 2017-02-08 15:39:50.41582+01 | 1486564790.41582 | pgbench_tellers_pkey  |           253952
 2017-02-08 15:39:50.41582+01 | 1486564790.41582 | pgbench_accounts_pkey |        112336896

 2017-02-08 15:39:51.531719+01 | 1486564791.53172 | pgbench_branches_pkey |            57344
 2017-02-08 15:39:51.531719+01 | 1486564791.53172 | pgbench_tellers_pkey  |           253952
 2017-02-08 15:39:51.531719+01 | 1486564791.53172 | pgbench_accounts_pkey |        112336896

 2017-02-08 15:39:52.677555+01 | 1486564792.67756 | pgbench_branches_pkey |            57344
 2017-02-08 15:39:52.677555+01 | 1486564792.67756 | pgbench_tellers_pkey  |           253952
 2017-02-08 15:39:52.677555+01 | 1486564792.67756 | pgbench_accounts_pkey |        112336896

 2017-02-08 15:39:53.800274+01 | 1486564793.80027 | pgbench_branches_pkey |            57344
 2017-02-08 15:39:53.800274+01 | 1486564793.80027 | pgbench_tellers_pkey  |           253952
 2017-02-08 15:39:53.800274+01 | 1486564793.80027 | pgbench_accounts_pkey |        112336896

 2017-02-08 15:39:54.896603+01 | 1486564794.8966 | pgbench_branches_pkey |            57344
 2017-02-08 15:39:54.896603+01 | 1486564794.8966 | pgbench_tellers_pkey  |           253952
 2017-02-08 15:39:54.896603+01 | 1486564794.8966 | pgbench_accounts_pkey |        112336896

 2017-02-08 15:39:56.010429+01 | 1486564796.01043 | pgbench_branches_pkey |            57344
 2017-02-08 15:39:56.010429+01 | 1486564796.01043 | pgbench_tellers_pkey  |           253952
 2017-02-08 15:39:56.010429+01 | 1486564796.01043 | pgbench_accounts_pkey |        112336896

 2017-02-08 15:39:57.103856+01 | 1486564797.10386 | pgbench_branches_pkey |            57344
 2017-02-08 15:39:57.103856+01 | 1486564797.10386 | pgbench_tellers_pkey  |           253952
 2017-02-08 15:39:57.103856+01 | 1486564797.10386 | pgbench_accounts_pkey |        112336896

 2017-02-08 15:39:58.230521+01 | 1486564798.23052 | pgbench_branches_pkey |            57344
 2017-02-08 15:39:58.230521+01 | 1486564798.23052 | pgbench_tellers_pkey  |           253952
 2017-02-08 15:39:58.230521+01 | 1486564798.23052 | pgbench_accounts_pkey |        112336896

 2017-02-08 15:39:59.342915+01 | 1486564799.34292 | pgbench_branches_pkey |            57344
 2017-02-08 15:39:59.342915+01 | 1486564799.34292 | pgbench_tellers_pkey  |           253952
 2017-02-08 15:39:59.342915+01 | 1486564799.34292 | pgbench_accounts_pkey |        112336896

 2017-02-08 15:40:00.41245+01 | 1486564800.41245 | pgbench_branches_pkey |            57344
 2017-02-08 15:40:00.41245+01 | 1486564800.41245 | pgbench_tellers_pkey  |           253952
 2017-02-08 15:40:00.41245+01 | 1486564800.41245 | pgbench_accounts_pkey |        112336896

 2017-02-08 15:40:01.484914+01 | 1486564801.48491 | pgbench_branches_pkey |            57344
 2017-02-08 15:40:01.484914+01 | 1486564801.48491 | pgbench_tellers_pkey  |           253952
 2017-02-08 15:40:01.484914+01 | 1486564801.48491 | pgbench_accounts_pkey |        112336896

 2017-02-08 15:40:02.579426+01 | 1486564802.57943 | pgbench_branches_pkey |            57344
 2017-02-08 15:40:02.579426+01 | 1486564802.57943 | pgbench_tellers_pkey  |           253952
 2017-02-08 15:40:02.579426+01 | 1486564802.57943 | pgbench_accounts_pkey |        112336896

 2017-02-08 15:40:03.700587+01 | 1486564803.70059 | pgbench_branches_pkey |            57344
 2017-02-08 15:40:03.700587+01 | 1486564803.70059 | pgbench_tellers_pkey  |           253952
 2017-02-08 15:40:03.700587+01 | 1486564803.70059 | pgbench_accounts_pkey |        112336896

 2017-02-08 15:40:04.837732+01 | 1486564804.83773 | pgbench_branches_pkey |            57344
 2017-02-08 15:40:04.837732+01 | 1486564804.83773 | pgbench_tellers_pkey  |           253952
 2017-02-08 15:40:04.837732+01 | 1486564804.83773 | pgbench_accounts_pkey |        112336896

 2017-02-08 15:40:05.960735+01 | 1486564805.96074 | pgbench_branches_pkey |            57344
 2017-02-08 15:40:05.960735+01 | 1486564805.96074 | pgbench_tellers_pkey  |           253952
 2017-02-08 15:40:05.960735+01 | 1486564805.96074 | pgbench_accounts_pkey |        112336896

 2017-02-08 15:40:07.074754+01 | 1486564807.07475 | pgbench_branches_pkey |            57344
 2017-02-08 15:40:07.074754+01 | 1486564807.07475 | pgbench_tellers_pkey  |           253952
 2017-02-08 15:40:07.074754+01 | 1486564807.07475 | pgbench_accounts_pkey |        112336896

 2017-02-08 15:40:08.193415+01 | 1486564808.19341 | pgbench_branches_pkey |            57344
 2017-02-08 15:40:08.193415+01 | 1486564808.19341 | pgbench_tellers_pkey  |           253952
 2017-02-08 15:40:08.193415+01 | 1486564808.19341 | pgbench_accounts_pkey |        112336896

 2017-02-08 15:40:09.307602+01 | 1486564809.3076 | pgbench_branches_pkey |            57344
 2017-02-08 15:40:09.307602+01 | 1486564809.3076 | pgbench_tellers_pkey  |           253952
 2017-02-08 15:40:09.307602+01 | 1486564809.3076 | pgbench_accounts_pkey |        112336896

 2017-02-08 15:40:10.409428+01 | 1486564810.40943 | pgbench_branches_pkey |            57344
 2017-02-08 15:40:10.409428+01 | 1486564810.40943 | pgbench_tellers_pkey  |           253952
 2017-02-08 15:40:10.409428+01 | 1486564810.40943 | pgbench_accounts_pkey |        112336896

 2017-02-08 15:40:11.517956+01 | 1486564811.51796 | pgbench_branches_pkey |            57344
 2017-02-08 15:40:11.517956+01 | 1486564811.51796 | pgbench_tellers_pkey  |           253952
 2017-02-08 15:40:11.517956+01 | 1486564811.51796 | pgbench_accounts_pkey |        112336896

 2017-02-08 15:40:12.64882+01 | 1486564812.64882 | pgbench_branches_pkey |            57344
 2017-02-08 15:40:12.64882+01 | 1486564812.64882 | pgbench_tellers_pkey  |           253952
 2017-02-08 15:40:12.64882+01 | 1486564812.64882 | pgbench_accounts_pkey |        112336896

 2017-02-08 15:40:13.775887+01 | 1486564813.77589 | pgbench_branches_pkey |            57344
 2017-02-08 15:40:13.775887+01 | 1486564813.77589 | pgbench_tellers_pkey  |           253952
 2017-02-08 15:40:13.775887+01 | 1486564813.77589 | pgbench_accounts_pkey |        112336896

 2017-02-08 15:40:14.864391+01 | 1486564814.86439 | pgbench_branches_pkey |            57344
 2017-02-08 15:40:14.864391+01 | 1486564814.86439 | pgbench_tellers_pkey  |           253952
 2017-02-08 15:40:14.864391+01 | 1486564814.86439 | pgbench_accounts_pkey |        112336896

 2017-02-08 15:40:15.968269+01 | 1486564815.96827 | pgbench_branches_pkey |            57344
 2017-02-08 15:40:15.968269+01 | 1486564815.96827 | pgbench_tellers_pkey  |           253952
 2017-02-08 15:40:15.968269+01 | 1486564815.96827 | pgbench_accounts_pkey |        112336896

 2017-02-08 15:40:17.06787+01 | 1486564817.06787 | pgbench_branches_pkey |            57344
 2017-02-08 15:40:17.06787+01 | 1486564817.06787 | pgbench_tellers_pkey  |           253952
 2017-02-08 15:40:17.06787+01 | 1486564817.06787 | pgbench_accounts_pkey |        112336896

 2017-02-08 15:40:18.174467+01 | 1486564818.17447 | pgbench_branches_pkey |            57344
 2017-02-08 15:40:18.174467+01 | 1486564818.17447 | pgbench_tellers_pkey  |           253952
 2017-02-08 15:40:18.174467+01 | 1486564818.17447 | pgbench_accounts_pkey |        112336896

 2017-02-08 15:40:19.272984+01 | 1486564819.27298 | pgbench_branches_pkey |            57344
 2017-02-08 15:40:19.272984+01 | 1486564819.27298 | pgbench_tellers_pkey  |           253952
 2017-02-08 15:40:19.272984+01 | 1486564819.27298 | pgbench_accounts_pkey |        112336896

 2017-02-08 15:40:20.388096+01 | 1486564820.3881 | pgbench_branches_pkey |            57344
 2017-02-08 15:40:20.388096+01 | 1486564820.3881 | pgbench_tellers_pkey  |           253952
 2017-02-08 15:40:20.388096+01 | 1486564820.3881 | pgbench_accounts_pkey |        112336896

 2017-02-08 15:40:21.512417+01 | 1486564821.51242 | pgbench_branches_pkey |            57344
 2017-02-08 15:40:21.512417+01 | 1486564821.51242 | pgbench_tellers_pkey  |           253952
 2017-02-08 15:40:21.512417+01 | 1486564821.51242 | pgbench_accounts_pkey |        112336896

 2017-02-08 15:40:22.631967+01 | 1486564822.63197 | pgbench_branches_pkey |            57344
 2017-02-08 15:40:22.631967+01 | 1486564822.63197 | pgbench_tellers_pkey  |           253952
 2017-02-08 15:40:22.631967+01 | 1486564822.63197 | pgbench_accounts_pkey |        112336896

 2017-02-08 15:40:23.740389+01 | 1486564823.74039 | pgbench_branches_pkey |            57344
 2017-02-08 15:40:23.740389+01 | 1486564823.74039 | pgbench_tellers_pkey  |           253952
 2017-02-08 15:40:23.740389+01 | 1486564823.74039 | pgbench_accounts_pkey |        112336896

 2017-02-08 15:40:24.878705+01 | 1486564824.87871 | pgbench_branches_pkey |            57344
 2017-02-08 15:40:24.878705+01 | 1486564824.87871 | pgbench_tellers_pkey  |           253952
 2017-02-08 15:40:24.878705+01 | 1486564824.87871 | pgbench_accounts_pkey |        112336896

 2017-02-08 15:40:25.959404+01 | 1486564825.9594 | pgbench_branches_pkey |            57344
 2017-02-08 15:40:25.959404+01 | 1486564825.9594 | pgbench_tellers_pkey  |           253952
 2017-02-08 15:40:25.959404+01 | 1486564825.9594 | pgbench_accounts_pkey |        112336896

