 2017-02-08 08:44:39.784398+01 | 1486539879.7844 |                 0 |               9 |                  4893 |                  253 |             608639 |       1174097 |            11698 |        24719839 |                     0 |      28108921 | 2017-02-08 08:03:40.053004+01

 2017-02-08 08:44:40.836497+01 | 1486539880.8365 |                 0 |               9 |                  4893 |                  253 |             608639 |       1174097 |            11698 |        24719839 |                     0 |      28114887 | 2017-02-08 08:03:40.053004+01

 2017-02-08 08:44:41.887877+01 | 1486539881.88788 |                 0 |               9 |                  4893 |                  253 |             608639 |       1174097 |            11698 |        24719839 |                     0 |      28122865 | 2017-02-08 08:03:40.053004+01

 2017-02-08 08:44:42.944242+01 | 1486539882.94424 |                 0 |               9 |                  4893 |                  253 |             608639 |       1174097 |            11698 |        24719839 |                     0 |      28129569 | 2017-02-08 08:03:40.053004+01

 2017-02-08 08:44:43.994684+01 | 1486539883.99468 |                 0 |               9 |                  4893 |                  253 |             608639 |       1174098 |            11698 |        24719839 |                     0 |      28136425 | 2017-02-08 08:03:40.053004+01

 2017-02-08 08:44:45.048168+01 | 1486539885.04817 |                 0 |               9 |                  4893 |                  253 |             608639 |       1174120 |            11698 |        24719839 |                     0 |      28143429 | 2017-02-08 08:03:40.053004+01

 2017-02-08 08:44:46.098237+01 | 1486539886.09824 |                 0 |               9 |                  4893 |                  253 |             608639 |       1174158 |            11698 |        24719839 |                     0 |      28151246 | 2017-02-08 08:03:40.053004+01

 2017-02-08 08:44:47.151479+01 | 1486539887.15148 |                 0 |               9 |                  4893 |                  253 |             608639 |       1174216 |            11698 |        24719839 |                     0 |      28158197 | 2017-02-08 08:03:40.053004+01

 2017-02-08 08:44:48.202897+01 | 1486539888.2029 |                 0 |               9 |                  4893 |                  253 |             608639 |       1174278 |            11698 |        24719839 |                     0 |      28165148 | 2017-02-08 08:03:40.053004+01

 2017-02-08 08:44:49.257244+01 | 1486539889.25724 |                 0 |               9 |                  4893 |                  253 |             608639 |       1174569 |            11698 |        24719839 |                     0 |      28172093 | 2017-02-08 08:03:40.053004+01

 2017-02-08 08:44:50.308881+01 | 1486539890.30888 |                 0 |               9 |                  4893 |                  253 |             608639 |       1174984 |            11701 |        24719839 |                     0 |      28179998 | 2017-02-08 08:03:40.053004+01

 2017-02-08 08:44:51.361093+01 | 1486539891.36109 |                 0 |               9 |                  4893 |                  253 |             608639 |       1175349 |            11701 |        24719839 |                     0 |      28186971 | 2017-02-08 08:03:40.053004+01

 2017-02-08 08:44:52.414838+01 | 1486539892.41484 |                 0 |               9 |                  4893 |                  253 |             608639 |       1175810 |            11702 |        24719839 |                     0 |      28194077 | 2017-02-08 08:03:40.053004+01

 2017-02-08 08:44:53.465677+01 | 1486539893.46568 |                 0 |               9 |                  4893 |                  253 |             608639 |       1176310 |            11707 |        24719839 |                     0 |      28201133 | 2017-02-08 08:03:40.053004+01

 2017-02-08 08:44:54.51766+01 | 1486539894.51766 |                 0 |               9 |                  4893 |                  253 |             608639 |       1176910 |            11713 |        24719839 |                     0 |      28209117 | 2017-02-08 08:03:40.053004+01

 2017-02-08 08:44:55.569364+01 | 1486539895.56936 |                 0 |               9 |                  4893 |                  253 |             608639 |       1177410 |            11718 |        24719839 |                     0 |      28215724 | 2017-02-08 08:03:40.053004+01

 2017-02-08 08:44:56.624054+01 | 1486539896.62405 |                 0 |               9 |                  4893 |                  253 |             608639 |       1177910 |            11723 |        24719839 |                     0 |      28222482 | 2017-02-08 08:03:40.053004+01

 2017-02-08 08:44:57.676048+01 | 1486539897.67605 |                 0 |               9 |                  4893 |                  253 |             608639 |       1178410 |            11728 |        24719839 |                     0 |      28229160 | 2017-02-08 08:03:40.053004+01

 2017-02-08 08:44:58.728669+01 | 1486539898.72867 |                 0 |               9 |                  4893 |                  253 |             608639 |       1178910 |            11733 |        24719839 |                     0 |      28235906 | 2017-02-08 08:03:40.053004+01

 2017-02-08 08:44:59.783367+01 | 1486539899.78337 |                 0 |               9 |                  4893 |                  253 |             608639 |       1179510 |            11739 |        24719839 |                     0 |      28243977 | 2017-02-08 08:03:40.053004+01

 2017-02-08 08:45:00.836189+01 | 1486539900.83619 |                 0 |               9 |                  4893 |                  253 |             608639 |       1180010 |            11744 |        24779962 |                     0 |      28250972 | 2017-02-08 08:03:40.053004+01

 2017-02-08 08:45:01.892094+01 | 1486539901.89209 |                 0 |               9 |                  4893 |                  253 |             608639 |       1180510 |            11749 |        24779962 |                     0 |      28257733 | 2017-02-08 08:03:40.053004+01

 2017-02-08 08:45:02.94241+01 | 1486539902.94241 |                 0 |               9 |                  4893 |                  253 |             608639 |       1181010 |            11754 |        24779962 |                     0 |      28264447 | 2017-02-08 08:03:40.053004+01

 2017-02-08 08:45:03.994409+01 | 1486539903.99441 |                 0 |               9 |                  4893 |                  253 |             608639 |       1181610 |            11760 |        24779962 |                     0 |      28272577 | 2017-02-08 08:03:40.053004+01

 2017-02-08 08:45:05.047419+01 | 1486539905.04742 |                 0 |               9 |                  4893 |                  253 |             608639 |       1182110 |            11765 |        24779962 |                     0 |      28279113 | 2017-02-08 08:03:40.053004+01

 2017-02-08 08:45:06.101644+01 | 1486539906.10164 |                 0 |               9 |                  4893 |                  253 |             608639 |       1182610 |            11770 |        24779962 |                     0 |      28286245 | 2017-02-08 08:03:40.053004+01

 2017-02-08 08:45:07.141897+01 | 1486539907.1419 |                 0 |               9 |                  4893 |                  253 |             608639 |       1183110 |            11775 |        24779962 |                     0 |      28292975 | 2017-02-08 08:03:40.053004+01

 2017-02-08 08:45:08.200366+01 | 1486539908.20037 |                 0 |               9 |                  4893 |                  253 |             608639 |       1183610 |            11780 |        24779962 |                     0 |      28300985 | 2017-02-08 08:03:40.053004+01

 2017-02-08 08:45:09.255052+01 | 1486539909.25505 |                 0 |               9 |                  4893 |                  253 |             608639 |       1184210 |            11786 |        24779962 |                     0 |      28310867 | 2017-02-08 08:03:40.053004+01

 2017-02-08 08:45:10.306763+01 | 1486539910.30676 |                 0 |               9 |                  4893 |                  253 |             608639 |       1184710 |            11791 |        24840398 |                     0 |      28319272 | 2017-02-08 08:03:40.053004+01

 2017-02-08 08:45:11.348826+01 | 1486539911.34883 |                 0 |               9 |                  4893 |                  253 |             608639 |       1185210 |            11796 |        24840398 |                     0 |      28327188 | 2017-02-08 08:03:40.053004+01

 2017-02-08 08:45:12.400167+01 | 1486539912.40017 |                 0 |               9 |                  4893 |                  253 |             608639 |       1185710 |            11801 |        24840398 |                     0 |      28334594 | 2017-02-08 08:03:40.053004+01

 2017-02-08 08:45:13.454945+01 | 1486539913.45495 |                 0 |               9 |                  4893 |                  253 |             608639 |       1186310 |            11807 |        24840398 |                     0 |      28344421 | 2017-02-08 08:03:40.053004+01

 2017-02-08 08:45:14.510925+01 | 1486539914.51093 |                 0 |               9 |                  4893 |                  253 |             608639 |       1186810 |            11812 |        24840398 |                     0 |      28352098 | 2017-02-08 08:03:40.053004+01

 2017-02-08 08:45:15.565221+01 | 1486539915.56522 |                 0 |               9 |                  4893 |                  253 |             608639 |       1187310 |            11817 |        24840398 |                     0 |      28359292 | 2017-02-08 08:03:40.053004+01

 2017-02-08 08:45:16.616112+01 | 1486539916.61611 |                 0 |               9 |                  4893 |                  253 |             608639 |       1187810 |            11822 |        24840398 |                     0 |      28366148 | 2017-02-08 08:03:40.053004+01

 2017-02-08 08:45:17.675408+01 | 1486539917.67541 |                 0 |               9 |                  4893 |                  253 |             608639 |       1188410 |            11828 |        24840398 |                     0 |      28375156 | 2017-02-08 08:03:40.053004+01

 2017-02-08 08:45:18.730098+01 | 1486539918.7301 |                 0 |               9 |                  4893 |                  253 |             608639 |       1188910 |            11833 |        24840398 |                     0 |      28382443 | 2017-02-08 08:03:40.053004+01

 2017-02-08 08:45:19.78207+01 | 1486539919.78207 |                 0 |               9 |                  4893 |                  253 |             608639 |       1189410 |            11838 |        24840398 |                     0 |      28389742 | 2017-02-08 08:03:40.053004+01

 2017-02-08 08:45:20.83541+01 | 1486539920.83541 |                 0 |               9 |                  4893 |                  253 |             608639 |       1189910 |            11843 |        24900834 |                     0 |      28396948 | 2017-02-08 08:03:40.053004+01

 2017-02-08 08:45:21.889997+01 | 1486539921.89 |                 0 |               9 |                  4893 |                  253 |             608639 |       1190510 |            11849 |        24900834 |                     0 |      28405605 | 2017-02-08 08:03:40.053004+01

 2017-02-08 08:45:22.945927+01 | 1486539922.94593 |                 0 |               9 |                  4893 |                  253 |             608639 |       1191010 |            11854 |        24900834 |                     0 |      28412649 | 2017-02-08 08:03:40.053004+01

 2017-02-08 08:45:24.003218+01 | 1486539924.00322 |                 0 |               9 |                  4893 |                  253 |             608639 |       1191510 |            11859 |        24900834 |                     0 |      28420244 | 2017-02-08 08:03:40.053004+01

 2017-02-08 08:45:25.057609+01 | 1486539925.05761 |                 0 |               9 |                  4893 |                  253 |             608639 |       1192010 |            11864 |        24900834 |                     0 |      28427482 | 2017-02-08 08:03:40.053004+01

 2017-02-08 08:45:26.107123+01 | 1486539926.10712 |                 0 |               9 |                  4893 |                  253 |             608639 |       1192610 |            11870 |        24900834 |                     0 |      28436088 | 2017-02-08 08:03:40.053004+01

 2017-02-08 08:45:27.157181+01 | 1486539927.15718 |                 0 |               9 |                  4893 |                  253 |             608639 |       1193110 |            11875 |        24900834 |                     0 |      28443020 | 2017-02-08 08:03:40.053004+01

 2017-02-08 08:45:28.211706+01 | 1486539928.21171 |                 0 |               9 |                  4893 |                  253 |             608639 |       1193610 |            11880 |        24900834 |                     0 |      28450140 | 2017-02-08 08:03:40.053004+01

 2017-02-08 08:45:29.267168+01 | 1486539929.26717 |                 0 |               9 |                  4893 |                  253 |             608639 |       1194110 |            11885 |        24900834 |                     0 |      28457346 | 2017-02-08 08:03:40.053004+01

 2017-02-08 08:45:30.317099+01 | 1486539930.3171 |                 0 |               9 |                  4893 |                  253 |             608639 |       1194710 |            11891 |        24961770 |                     0 |      28466322 | 2017-02-08 08:03:40.053004+01

 2017-02-08 08:45:31.370076+01 | 1486539931.37008 |                 0 |               9 |                  4893 |                  253 |             608639 |       1195210 |            11896 |        24961770 |                     0 |      28473500 | 2017-02-08 08:03:40.053004+01

 2017-02-08 08:45:32.423016+01 | 1486539932.42302 |                 0 |               9 |                  4893 |                  253 |             608639 |       1195710 |            11901 |        24961770 |                     0 |      28480601 | 2017-02-08 08:03:40.053004+01

 2017-02-08 08:45:33.477269+01 | 1486539933.47727 |                 0 |               9 |                  4893 |                  253 |             608639 |       1196210 |            11906 |        24961770 |                     0 |      28487776 | 2017-02-08 08:03:40.053004+01

 2017-02-08 08:45:34.527192+01 | 1486539934.52719 |                 0 |               9 |                  4893 |                  253 |             608639 |       1196710 |            11911 |        24961770 |                     0 |      28494943 | 2017-02-08 08:03:40.053004+01

 2017-02-08 08:45:35.577907+01 | 1486539935.57791 |                 0 |               9 |                  4893 |                  253 |             608639 |       1197310 |            11917 |        24961770 |                     0 |      28503563 | 2017-02-08 08:03:40.053004+01

 2017-02-08 08:45:36.633854+01 | 1486539936.63385 |                 0 |               9 |                  4893 |                  253 |             608639 |       1197810 |            11922 |        24961770 |                     0 |      28511246 | 2017-02-08 08:03:40.053004+01

 2017-02-08 08:45:37.684699+01 | 1486539937.6847 |                 0 |               9 |                  4893 |                  253 |             608639 |       1198310 |            11927 |        24961770 |                     0 |      28518519 | 2017-02-08 08:03:40.053004+01

 2017-02-08 08:45:38.736972+01 | 1486539938.73697 |                 0 |               9 |                  4893 |                  253 |             608639 |       1198810 |            11932 |        24961770 |                     0 |      28525928 | 2017-02-08 08:03:40.053004+01

 2017-02-08 08:45:39.7881+01 | 1486539939.7881 |                 0 |               9 |                  4893 |                  253 |             608639 |       1199410 |            11938 |        25022607 |                     0 |      28534807 | 2017-02-08 08:03:40.053004+01

 2017-02-08 08:45:40.840438+01 | 1486539940.84044 |                 0 |               9 |                  4893 |                  253 |             608639 |       1199910 |            11943 |        25022607 |                     0 |      28542130 | 2017-02-08 08:03:40.053004+01

 2017-02-08 08:45:41.892788+01 | 1486539941.89279 |                 0 |               9 |                  4893 |                  253 |             608639 |       1200410 |            11948 |        25022607 |                     0 |      28549417 | 2017-02-08 08:03:40.053004+01

 2017-02-08 08:45:42.945702+01 | 1486539942.9457 |                 0 |               9 |                  4893 |                  253 |             608639 |       1200910 |            11953 |        25022607 |                     0 |      28557244 | 2017-02-08 08:03:40.053004+01

 2017-02-08 08:45:43.996707+01 | 1486539943.99671 |                 0 |               9 |                  4893 |                  253 |             608639 |       1201510 |            11959 |        25022607 |                     0 |      28565975 | 2017-02-08 08:03:40.053004+01

 2017-02-08 08:45:45.049867+01 | 1486539945.04987 |                 0 |               9 |                  4893 |                  253 |             608639 |       1202010 |            11964 |        25022607 |                     0 |      28573433 | 2017-02-08 08:03:40.053004+01

 2017-02-08 08:45:46.101043+01 | 1486539946.10104 |                 0 |               9 |                  4893 |                  253 |             608639 |       1202510 |            11969 |        25022607 |                     0 |      28580817 | 2017-02-08 08:03:40.053004+01

 2017-02-08 08:45:47.153554+01 | 1486539947.15355 |                 0 |               9 |                  4893 |                  253 |             608639 |       1203010 |            11974 |        25022607 |                     0 |      28588080 | 2017-02-08 08:03:40.053004+01

 2017-02-08 08:45:48.207274+01 | 1486539948.20727 |                 0 |               9 |                  4893 |                  253 |             608639 |       1203510 |            11979 |        25083643 |                     0 |      28595233 | 2017-02-08 08:03:40.053004+01

 2017-02-08 08:45:49.261895+01 | 1486539949.26189 |                 0 |               9 |                  4893 |                  253 |             608639 |       1204110 |            11985 |        25083643 |                     0 |      28603878 | 2017-02-08 08:03:40.053004+01

 2017-02-08 08:45:50.312699+01 | 1486539950.3127 |                 0 |               9 |                  4893 |                  253 |             608639 |       1204610 |            11990 |        25083643 |                     0 |      28611713 | 2017-02-08 08:03:40.053004+01

 2017-02-08 08:45:51.367114+01 | 1486539951.36711 |                 0 |               9 |                  4893 |                  253 |             608639 |       1205110 |            11995 |        25083643 |                     0 |      28619073 | 2017-02-08 08:03:40.053004+01

 2017-02-08 08:45:52.420716+01 | 1486539952.42072 |                 0 |               9 |                  4893 |                  253 |             608639 |       1205610 |            12000 |        25083643 |                     0 |      28626270 | 2017-02-08 08:03:40.053004+01

 2017-02-08 08:45:53.474646+01 | 1486539953.47465 |                 0 |               9 |                  4893 |                  253 |             608639 |       1206210 |            12006 |        25083643 |                     0 |      28635105 | 2017-02-08 08:03:40.053004+01

 2017-02-08 08:45:54.528059+01 | 1486539954.52806 |                 0 |               9 |                  4893 |                  253 |             608639 |       1206710 |            12011 |        25083643 |                     0 |      28642421 | 2017-02-08 08:03:40.053004+01

 2017-02-08 08:45:55.579275+01 | 1486539955.57927 |                 0 |               9 |                  4893 |                  253 |             608639 |       1207210 |            12016 |        25083643 |                     0 |      28649726 | 2017-02-08 08:03:40.053004+01

 2017-02-08 08:45:56.635507+01 | 1486539956.63551 |                 0 |               9 |                  4893 |                  253 |             608639 |       1207710 |            12021 |        25083643 |                     0 |      28657175 | 2017-02-08 08:03:40.053004+01

 2017-02-08 08:45:57.689956+01 | 1486539957.68996 |                 0 |               9 |                  4893 |                  253 |             608639 |       1208310 |            12027 |        25144601 |                     0 |      28666326 | 2017-02-08 08:03:40.053004+01

 2017-02-08 08:45:58.741412+01 | 1486539958.74141 |                 0 |               9 |                  4893 |                  253 |             608639 |       1208810 |            12032 |        25144601 |                     0 |      28674070 | 2017-02-08 08:03:40.053004+01

 2017-02-08 08:45:59.797319+01 | 1486539959.79732 |                 0 |               9 |                  4893 |                  253 |             608639 |       1209310 |            12037 |        25144601 |                     0 |      28681310 | 2017-02-08 08:03:40.053004+01

 2017-02-08 08:46:00.85334+01 | 1486539960.85334 |                 0 |               9 |                  4893 |                  253 |             608639 |       1209810 |            12042 |        25144601 |                     0 |      28688853 | 2017-02-08 08:03:40.053004+01

 2017-02-08 08:46:01.910596+01 | 1486539961.9106 |                 0 |               9 |                  4893 |                  253 |             608639 |       1210410 |            12048 |        25144601 |                     0 |      28697906 | 2017-02-08 08:03:40.053004+01

 2017-02-08 08:46:02.96336+01 | 1486539962.96336 |                 0 |               9 |                  4893 |                  253 |             608639 |       1210910 |            12053 |        25144601 |                     0 |      28705453 | 2017-02-08 08:03:40.053004+01

 2017-02-08 08:46:04.017996+01 | 1486539964.018 |                 0 |               9 |                  4893 |                  253 |             608639 |       1211410 |            12058 |        25144601 |                     0 |      28712995 | 2017-02-08 08:03:40.053004+01

 2017-02-08 08:46:05.074616+01 | 1486539965.07462 |                 0 |               9 |                  4893 |                  253 |             608639 |       1211910 |            12063 |        25144601 |                     0 |      28720887 | 2017-02-08 08:03:40.053004+01

 2017-02-08 08:46:06.123661+01 | 1486539966.12366 |                 0 |               9 |                  4893 |                  253 |             608639 |       1212510 |            12069 |        25144601 |                     0 |      28730065 | 2017-02-08 08:03:40.053004+01

 2017-02-08 08:46:07.174827+01 | 1486539967.17483 |                 0 |               9 |                  4893 |                  253 |             608639 |       1213010 |            12074 |        25205737 |                     0 |      28737820 | 2017-02-08 08:03:40.053004+01

 2017-02-08 08:46:08.22844+01 | 1486539968.22844 |                 0 |               9 |                  4893 |                  253 |             608639 |       1213510 |            12079 |        25205737 |                     0 |      28745404 | 2017-02-08 08:03:40.053004+01

 2017-02-08 08:46:09.282509+01 | 1486539969.28251 |                 0 |               9 |                  4893 |                  253 |             608639 |       1214010 |            12084 |        25205737 |                     0 |      28752972 | 2017-02-08 08:03:40.053004+01

 2017-02-08 08:46:10.336411+01 | 1486539970.33641 |                 0 |               9 |                  4893 |                  253 |             608639 |       1214510 |            12089 |        25205737 |                     0 |      28760475 | 2017-02-08 08:03:40.053004+01

 2017-02-08 08:46:11.380379+01 | 1486539971.38038 |                 0 |               9 |                  4893 |                  253 |             608639 |       1215110 |            12095 |        25205737 |                     0 |      28769803 | 2017-02-08 08:03:40.053004+01

 2017-02-08 08:46:12.422813+01 | 1486539972.42281 |                 0 |               9 |                  4893 |                  253 |             608639 |       1215410 |            12098 |        25205737 |                     0 |      28774598 | 2017-02-08 08:03:40.053004+01

 2017-02-08 08:46:13.474734+01 | 1486539973.47473 |                 0 |               9 |                  4893 |                  253 |             608639 |       1216110 |            12105 |        25205737 |                     0 |      28785263 | 2017-02-08 08:03:40.053004+01

 2017-02-08 08:46:14.548655+01 | 1486539974.54866 |                 0 |               9 |                  4893 |                  253 |             608639 |       1216610 |            12110 |        25205737 |                     0 |      28792851 | 2017-02-08 08:03:40.053004+01

 2017-02-08 08:46:15.605303+01 | 1486539975.6053 |                 0 |               9 |                  4893 |                  253 |             608639 |       1217210 |            12116 |        25266775 |                     0 |      28802081 | 2017-02-08 08:03:40.053004+01

 2017-02-08 08:46:16.659141+01 | 1486539976.65914 |                 0 |               9 |                  4893 |                  253 |             608639 |       1217710 |            12121 |        25266775 |                     0 |      28809733 | 2017-02-08 08:03:40.053004+01

 2017-02-08 08:46:17.708823+01 | 1486539977.70882 |                 0 |               9 |                  4893 |                  253 |             608639 |       1218210 |            12126 |        25266775 |                     0 |      28817129 | 2017-02-08 08:03:40.053004+01

 2017-02-08 08:46:18.761276+01 | 1486539978.76128 |                 0 |               9 |                  4893 |                  253 |             608639 |       1218710 |            12131 |        25266775 |                     0 |      28824711 | 2017-02-08 08:03:40.053004+01

 2017-02-08 08:46:19.813805+01 | 1486539979.81381 |                 0 |               9 |                  4893 |                  253 |             608639 |       1219310 |            12137 |        25266775 |                     0 |      28833961 | 2017-02-08 08:03:40.053004+01

 2017-02-08 08:46:20.866903+01 | 1486539980.8669 |                 0 |               9 |                  4893 |                  253 |             608639 |       1219810 |            12142 |        25266775 |                     0 |      28841552 | 2017-02-08 08:03:40.053004+01

 2017-02-08 08:46:21.922764+01 | 1486539981.92276 |                 0 |               9 |                  4893 |                  253 |             608639 |       1220310 |            12147 |        25266775 |                     0 |      28849505 | 2017-02-08 08:03:40.053004+01

 2017-02-08 08:46:22.97876+01 | 1486539982.97876 |                 0 |               9 |                  4893 |                  253 |             608639 |       1220810 |            12152 |        25266775 |                     0 |      28857212 | 2017-02-08 08:03:40.053004+01

 2017-02-08 08:46:24.033173+01 | 1486539984.03317 |                 0 |               9 |                  4893 |                  253 |             608639 |       1221410 |            12158 |        25266775 |                     0 |      28866594 | 2017-02-08 08:03:40.053004+01

 2017-02-08 08:46:25.085244+01 | 1486539985.08524 |                 0 |               9 |                  4893 |                  253 |             608639 |       1221910 |            12163 |        25327812 |                     0 |      28874226 | 2017-02-08 08:03:40.053004+01

 2017-02-08 08:46:26.140787+01 | 1486539986.14079 |                 0 |               9 |                  4893 |                  253 |             608639 |       1222410 |            12168 |        25327812 |                     0 |      28881896 | 2017-02-08 08:03:40.053004+01

 2017-02-08 08:46:27.19986+01 | 1486539987.19986 |                 0 |               9 |                  4893 |                  253 |             608639 |       1222910 |            12173 |        25327812 |                     0 |      28889455 | 2017-02-08 08:03:40.053004+01

 2017-02-08 08:46:28.251589+01 | 1486539988.25159 |                 0 |               9 |                  4893 |                  253 |             608639 |       1223510 |            12179 |        25327812 |                     0 |      28898697 | 2017-02-08 08:03:40.053004+01

 2017-02-08 08:46:29.305929+01 | 1486539989.30593 |                 0 |               9 |                  4893 |                  253 |             608639 |       1224010 |            12184 |        25327812 |                     0 |      28906418 | 2017-02-08 08:03:40.053004+01

 2017-02-08 08:46:30.361837+01 | 1486539990.36184 |                 0 |               9 |                  4893 |                  253 |             608639 |       1224510 |            12189 |        25327812 |                     0 |      28914637 | 2017-02-08 08:03:40.053004+01

 2017-02-08 08:46:31.412436+01 | 1486539991.41244 |                 0 |               9 |                  4893 |                  253 |             608639 |       1225010 |            12194 |        25327812 |                     0 |      28922228 | 2017-02-08 08:03:40.053004+01

 2017-02-08 08:46:32.468012+01 | 1486539992.46801 |                 0 |               9 |                  4893 |                  253 |             608639 |       1225510 |            12199 |        25327812 |                     0 |      28929962 | 2017-02-08 08:03:40.053004+01

 2017-02-08 08:46:33.523493+01 | 1486539993.52349 |                 0 |               9 |                  4893 |                  253 |             608639 |       1226110 |            12205 |        25388949 |                     0 |      28939200 | 2017-02-08 08:03:40.053004+01

 2017-02-08 08:46:34.581408+01 | 1486539994.58141 |                 0 |               9 |                  4893 |                  253 |             608639 |       1226610 |            12210 |        25388949 |                     0 |      28946504 | 2017-02-08 08:03:40.053004+01

 2017-02-08 08:46:35.634744+01 | 1486539995.63474 |                 0 |               9 |                  4893 |                  253 |             608639 |       1227110 |            12215 |        25388949 |                     0 |      28953992 | 2017-02-08 08:03:40.053004+01

 2017-02-08 08:46:36.687298+01 | 1486539996.6873 |                 0 |               9 |                  4893 |                  253 |             608639 |       1227610 |            12220 |        25388949 |                     0 |      28961872 | 2017-02-08 08:03:40.053004+01

 2017-02-08 08:46:37.735995+01 | 1486539997.736 |                 0 |               9 |                  4893 |                  253 |             608639 |       1228210 |            12226 |        25388949 |                     0 |      28971085 | 2017-02-08 08:03:40.053004+01

 2017-02-08 08:46:38.787771+01 | 1486539998.78777 |                 0 |               9 |                  4893 |                  253 |             608639 |       1228710 |            12231 |        25388949 |                     0 |      28979246 | 2017-02-08 08:03:40.053004+01

 2017-02-08 08:46:39.843201+01 | 1486539999.8432 |                 0 |               9 |                  4893 |                  253 |             608639 |       1229210 |            12236 |        25388949 |                     0 |      28987257 | 2017-02-08 08:03:40.053004+01

 2017-02-08 08:46:40.895542+01 | 1486540000.89554 |                 0 |               9 |                  4893 |                  253 |             608639 |       1229710 |            12241 |        25388949 |                     0 |      28994946 | 2017-02-08 08:03:40.053004+01

 2017-02-08 08:46:41.948479+01 | 1486540001.94848 |                 0 |               9 |                  4893 |                  253 |             608639 |       1230210 |            12246 |        25388949 |                     0 |      29002903 | 2017-02-08 08:03:40.053004+01

 2017-02-08 08:46:43.002051+01 | 1486540003.00205 |                 0 |               9 |                  4893 |                  253 |             608639 |       1230810 |            12252 |        25450085 |                     0 |      29012292 | 2017-02-08 08:03:40.053004+01

 2017-02-08 08:46:44.059686+01 | 1486540004.05969 |                 0 |               9 |                  4893 |                  253 |             608639 |       1231310 |            12257 |        25450085 |                     0 |      29020044 | 2017-02-08 08:03:40.053004+01

 2017-02-08 08:46:45.113602+01 | 1486540005.1136 |                 0 |               9 |                  4893 |                  253 |             608639 |       1231810 |            12262 |        25450085 |                     0 |      29027731 | 2017-02-08 08:03:40.053004+01

 2017-02-08 08:46:46.171948+01 | 1486540006.17195 |                 0 |               9 |                  4893 |                  253 |             608639 |       1232310 |            12267 |        25450085 |                     0 |      29035479 | 2017-02-08 08:03:40.053004+01

 2017-02-08 08:46:47.226005+01 | 1486540007.22601 |                 0 |               9 |                  4893 |                  253 |             608639 |       1232910 |            12273 |        25450085 |                     0 |      29044929 | 2017-02-08 08:03:40.053004+01

 2017-02-08 08:46:48.27756+01 | 1486540008.27756 |                 0 |               9 |                  4893 |                  253 |             608639 |       1233410 |            12278 |        25450085 |                     0 |      29053056 | 2017-02-08 08:03:40.053004+01

 2017-02-08 08:46:49.341092+01 | 1486540009.34109 |                 0 |               9 |                  4893 |                  253 |             608639 |       1233910 |            12283 |        25450085 |                     0 |      29061179 | 2017-02-08 08:03:40.053004+01

 2017-02-08 08:46:50.395347+01 | 1486540010.39535 |                 0 |               9 |                  4893 |                  253 |             608639 |       1234410 |            12288 |        25450085 |                     0 |      29069127 | 2017-02-08 08:03:40.053004+01

 2017-02-08 08:46:51.450798+01 | 1486540011.4508 |                 0 |               9 |                  4893 |                  253 |             608639 |       1235010 |            12294 |        25511321 |                     0 |      29078318 | 2017-02-08 08:03:40.053004+01

 2017-02-08 08:46:52.503945+01 | 1486540012.50395 |                 0 |               9 |                  4893 |                  253 |             608639 |       1235510 |            12299 |        25511321 |                     0 |      29085974 | 2017-02-08 08:03:40.053004+01

 2017-02-08 08:46:53.556435+01 | 1486540013.55644 |                 0 |               9 |                  4893 |                  253 |             608639 |       1236010 |            12304 |        25511321 |                     0 |      29093581 | 2017-02-08 08:03:40.053004+01

 2017-02-08 08:46:54.610666+01 | 1486540014.61067 |                 0 |               9 |                  4893 |                  253 |             608639 |       1236510 |            12309 |        25511321 |                     0 |      29101445 | 2017-02-08 08:03:40.053004+01

 2017-02-08 08:46:55.664854+01 | 1486540015.66485 |                 0 |               9 |                  4893 |                  253 |             608639 |       1237110 |            12315 |        25511321 |                     0 |      29110847 | 2017-02-08 08:03:40.053004+01

 2017-02-08 08:46:56.716802+01 | 1486540016.7168 |                 0 |               9 |                  4893 |                  253 |             608639 |       1237610 |            12320 |        25511321 |                     0 |      29118750 | 2017-02-08 08:03:40.053004+01

 2017-02-08 08:46:57.771729+01 | 1486540017.77173 |                 0 |               9 |                  4893 |                  253 |             608639 |       1238110 |            12325 |        25511321 |                     0 |      29126826 | 2017-02-08 08:03:40.053004+01

 2017-02-08 08:46:58.823556+01 | 1486540018.82356 |                 0 |               9 |                  4893 |                  253 |             608639 |       1238610 |            12330 |        25511321 |                     0 |      29134917 | 2017-02-08 08:03:40.053004+01

 2017-02-08 08:46:59.876694+01 | 1486540019.87669 |                 0 |               9 |                  4893 |                  253 |             608639 |       1239210 |            12336 |        25572458 |                     0 |      29144468 | 2017-02-08 08:03:40.053004+01

 2017-02-08 08:47:00.929487+01 | 1486540020.92949 |                 0 |               9 |                  4893 |                  253 |             608639 |       1239710 |            12341 |        25572458 |                     0 |      29152353 | 2017-02-08 08:03:40.053004+01

 2017-02-08 08:47:01.979969+01 | 1486540021.97997 |                 0 |               9 |                  4893 |                  253 |             608639 |       1240210 |            12346 |        25572458 |                     0 |      29160172 | 2017-02-08 08:03:40.053004+01

 2017-02-08 08:47:03.033815+01 | 1486540023.03381 |                 0 |               9 |                  4893 |                  253 |             608639 |       1240710 |            12351 |        25572458 |                     0 |      29168135 | 2017-02-08 08:03:40.053004+01

 2017-02-08 08:47:04.087349+01 | 1486540024.08735 |                 0 |               9 |                  4893 |                  253 |             608639 |       1241310 |            12357 |        25572458 |                     0 |      29177619 | 2017-02-08 08:03:40.053004+01

 2017-02-08 08:47:05.143768+01 | 1486540025.14377 |                 0 |               9 |                  4893 |                  253 |             608639 |       1241810 |            12362 |        25572458 |                     0 |      29185321 | 2017-02-08 08:03:40.053004+01

 2017-02-08 08:47:06.198344+01 | 1486540026.19834 |                 0 |               9 |                  4893 |                  253 |             608639 |       1242310 |            12367 |        25572458 |                     0 |      29193076 | 2017-02-08 08:03:40.053004+01

 2017-02-08 08:47:07.251023+01 | 1486540027.25102 |                 0 |               9 |                  4893 |                  253 |             608639 |       1242810 |            12372 |        25572458 |                     0 |      29201016 | 2017-02-08 08:03:40.053004+01

 2017-02-08 08:47:08.308518+01 | 1486540028.30852 |                 0 |               9 |                  4893 |                  253 |             608639 |       1243410 |            12378 |        25572458 |                     0 |      29210469 | 2017-02-08 08:03:40.053004+01

 2017-02-08 08:47:09.372654+01 | 1486540029.37265 |                 0 |               9 |                  4893 |                  253 |             608639 |       1243910 |            12383 |        25633594 |                     0 |      29218755 | 2017-02-08 08:03:40.053004+01

 2017-02-08 08:47:10.429754+01 | 1486540030.42975 |                 0 |               9 |                  4893 |                  253 |             608639 |       1244410 |            12388 |        25633594 |                     0 |      29226628 | 2017-02-08 08:03:40.053004+01

 2017-02-08 08:47:11.47032+01 | 1486540031.47032 |                 0 |               9 |                  4893 |                  253 |             608639 |       1244910 |            12393 |        25633594 |                     0 |      29234394 | 2017-02-08 08:03:40.053004+01

 2017-02-08 08:47:12.512461+01 | 1486540032.51246 |                 0 |               9 |                  4893 |                  253 |             608639 |       1245310 |            12397 |        25633594 |                     0 |      29240651 | 2017-02-08 08:03:40.053004+01

 2017-02-08 08:47:13.567095+01 | 1486540033.5671 |                 0 |               9 |                  4893 |                  253 |             608639 |       1246010 |            12404 |        25633594 |                     0 |      29251816 | 2017-02-08 08:03:40.053004+01

 2017-02-08 08:47:14.620262+01 | 1486540034.62026 |                 0 |               9 |                  4893 |                  253 |             608639 |       1246510 |            12409 |        25633594 |                     0 |      29259651 | 2017-02-08 08:03:40.053004+01

 2017-02-08 08:47:15.670105+01 | 1486540035.6701 |                 0 |               9 |                  4893 |                  253 |             608639 |       1247010 |            12414 |        25633594 |                     0 |      29267515 | 2017-02-08 08:03:40.053004+01

 2017-02-08 08:47:16.720003+01 | 1486540036.72 |                 0 |               9 |                  4893 |                  253 |             608639 |       1247510 |            12419 |        25633594 |                     0 |      29275437 | 2017-02-08 08:03:40.053004+01

 2017-02-08 08:47:17.776335+01 | 1486540037.77634 |                 0 |               9 |                  4893 |                  253 |             608639 |       1248110 |            12425 |        25694730 |                     0 |      29285048 | 2017-02-08 08:03:40.053004+01

 2017-02-08 08:47:18.827095+01 | 1486540038.8271 |                 0 |               9 |                  4893 |                  253 |             608639 |       1248610 |            12430 |        25694730 |                     0 |      29292840 | 2017-02-08 08:03:40.053004+01

 2017-02-08 08:47:19.879327+01 | 1486540039.87933 |                 0 |               9 |                  4893 |                  253 |             608639 |       1249110 |            12435 |        25694730 |                     0 |      29300786 | 2017-02-08 08:03:40.053004+01

 2017-02-08 08:47:20.936823+01 | 1486540040.93682 |                 0 |               9 |                  4893 |                  253 |             608639 |       1249610 |            12440 |        25694730 |                     0 |      29308809 | 2017-02-08 08:03:40.053004+01

 2017-02-08 08:47:21.989645+01 | 1486540041.98965 |                 0 |               9 |                  4893 |                  253 |             608639 |       1250210 |            12446 |        25694730 |                     0 |      29318492 | 2017-02-08 08:03:40.053004+01

 2017-02-08 08:47:23.040478+01 | 1486540043.04048 |                 0 |               9 |                  4893 |                  253 |             608639 |       1250710 |            12451 |        25694730 |                     0 |      29326353 | 2017-02-08 08:03:40.053004+01

 2017-02-08 08:47:24.09395+01 | 1486540044.09395 |                 0 |               9 |                  4893 |                  253 |             608639 |       1251210 |            12456 |        25694730 |                     0 |      29334172 | 2017-02-08 08:03:40.053004+01

 2017-02-08 08:47:25.148693+01 | 1486540045.14869 |                 0 |               9 |                  4893 |                  253 |             608639 |       1251710 |            12461 |        25694730 |                     0 |      29341900 | 2017-02-08 08:03:40.053004+01

 2017-02-08 08:47:26.201061+01 | 1486540046.20106 |                 0 |               9 |                  4893 |                  253 |             608639 |       1252210 |            12466 |        25755967 |                     0 |      29350277 | 2017-02-08 08:03:40.053004+01

 2017-02-08 08:47:27.254123+01 | 1486540047.25412 |                 0 |               9 |                  4893 |                  253 |             608639 |       1252810 |            12472 |        25755967 |                     0 |      29359743 | 2017-02-08 08:03:40.053004+01

 2017-02-08 08:47:28.307604+01 | 1486540048.3076 |                 0 |               9 |                  4893 |                  253 |             608639 |       1253310 |            12477 |        25755967 |                     0 |      29367538 | 2017-02-08 08:03:40.053004+01

 2017-02-08 08:47:29.361121+01 | 1486540049.36112 |                 0 |               9 |                  4893 |                  253 |             608639 |       1253810 |            12482 |        25755967 |                     0 |      29375326 | 2017-02-08 08:03:40.053004+01

 2017-02-08 08:47:30.414411+01 | 1486540050.41441 |                 0 |               9 |                  4893 |                  253 |             608639 |       1254310 |            12487 |        25755967 |                     0 |      29383248 | 2017-02-08 08:03:40.053004+01

 2017-02-08 08:47:31.465667+01 | 1486540051.46567 |                 0 |               9 |                  4893 |                  253 |             608639 |       1254910 |            12493 |        25755967 |                     0 |      29392841 | 2017-02-08 08:03:40.053004+01

 2017-02-08 08:47:32.516529+01 | 1486540052.51653 |                 0 |               9 |                  4893 |                  253 |             608639 |       1255410 |            12498 |        25755967 |                     0 |      29400445 | 2017-02-08 08:03:40.053004+01

 2017-02-08 08:47:33.568527+01 | 1486540053.56853 |                 0 |               9 |                  4893 |                  253 |             608639 |       1255910 |            12503 |        25755967 |                     0 |      29408112 | 2017-02-08 08:03:40.053004+01

 2017-02-08 08:47:34.624527+01 | 1486540054.62453 |                 0 |               9 |                  4893 |                  253 |             608639 |       1256410 |            12508 |        25755967 |                     0 |      29415987 | 2017-02-08 08:03:40.053004+01

 2017-02-08 08:47:35.682405+01 | 1486540055.6824 |                 0 |               9 |                  4893 |                  253 |             608639 |       1257010 |            12514 |        25817105 |                     0 |      29425592 | 2017-02-08 08:03:40.053004+01

 2017-02-08 08:47:36.735821+01 | 1486540056.73582 |                 0 |               9 |                  4893 |                  253 |             608639 |       1257510 |            12519 |        25817105 |                     0 |      29433932 | 2017-02-08 08:03:40.053004+01

 2017-02-08 08:47:37.790861+01 | 1486540057.79086 |                 0 |               9 |                  4893 |                  253 |             608639 |       1258010 |            12524 |        25817105 |                     0 |      29441911 | 2017-02-08 08:03:40.053004+01

 2017-02-08 08:47:38.841575+01 | 1486540058.84157 |                 0 |               9 |                  4893 |                  253 |             608639 |       1258510 |            12529 |        25817105 |                     0 |      29449755 | 2017-02-08 08:03:40.053004+01

 2017-02-08 08:47:39.897674+01 | 1486540059.89767 |                 0 |               9 |                  4893 |                  253 |             608639 |       1259110 |            12535 |        25817105 |                     0 |      29459211 | 2017-02-08 08:03:40.053004+01

 2017-02-08 08:47:40.953018+01 | 1486540060.95302 |                 0 |               9 |                  4893 |                  253 |             608639 |       1259610 |            12540 |        25817105 |                     0 |      29466973 | 2017-02-08 08:03:40.053004+01

 2017-02-08 08:47:42.009835+01 | 1486540062.00984 |                 0 |               9 |                  4893 |                  253 |             608639 |       1260110 |            12545 |        25817105 |                     0 |      29474861 | 2017-02-08 08:03:40.053004+01

 2017-02-08 08:47:43.062721+01 | 1486540063.06272 |                 0 |               9 |                  4893 |                  253 |             608639 |       1260610 |            12550 |        25817105 |                     0 |      29482402 | 2017-02-08 08:03:40.053004+01

 2017-02-08 08:47:44.114456+01 | 1486540064.11446 |                 0 |               9 |                  4893 |                  253 |             608639 |       1261210 |            12556 |        25878342 |                     0 |      29491846 | 2017-02-08 08:03:40.053004+01

 2017-02-08 08:47:45.168183+01 | 1486540065.16818 |                 0 |               9 |                  4893 |                  253 |             608639 |       1261710 |            12561 |        25878342 |                     0 |      29499753 | 2017-02-08 08:03:40.053004+01

 2017-02-08 08:47:46.223456+01 | 1486540066.22346 |                 0 |               9 |                  4893 |                  253 |             608639 |       1262210 |            12566 |        25878342 |                     0 |      29507428 | 2017-02-08 08:03:40.053004+01

 2017-02-08 08:47:47.277294+01 | 1486540067.27729 |                 0 |               9 |                  4893 |                  253 |             608639 |       1262710 |            12571 |        25878342 |                     0 |      29515776 | 2017-02-08 08:03:40.053004+01

 2017-02-08 08:47:48.332885+01 | 1486540068.33289 |                 0 |               9 |                  4893 |                  253 |             608639 |       1263210 |            12576 |        25878342 |                     0 |      29523445 | 2017-02-08 08:03:40.053004+01

 2017-02-08 08:47:49.38566+01 | 1486540069.38566 |                 0 |               9 |                  4893 |                  253 |             608639 |       1263810 |            12582 |        25878342 |                     0 |      29533154 | 2017-02-08 08:03:40.053004+01

 2017-02-08 08:47:50.439045+01 | 1486540070.43904 |                 0 |               9 |                  4893 |                  253 |             608639 |       1264310 |            12587 |        25878342 |                     0 |      29540878 | 2017-02-08 08:03:40.053004+01

 2017-02-08 08:47:51.492891+01 | 1486540071.49289 |                 0 |               9 |                  4893 |                  253 |             608639 |       1264810 |            12592 |        25878342 |                     0 |      29548489 | 2017-02-08 08:03:40.053004+01

 2017-02-08 08:47:52.547612+01 | 1486540072.54761 |                 0 |               9 |                  4893 |                  253 |             608639 |       1265310 |            12597 |        25939580 |                     0 |      29556352 | 2017-02-08 08:03:40.053004+01

 2017-02-08 08:47:53.600868+01 | 1486540073.60087 |                 0 |               9 |                  4893 |                  253 |             608639 |       1265910 |            12603 |        25939580 |                     0 |      29565877 | 2017-02-08 08:03:40.053004+01

 2017-02-08 08:47:54.653752+01 | 1486540074.65375 |                 0 |               9 |                  4893 |                  253 |             608639 |       1266410 |            12608 |        25939580 |                     0 |      29573672 | 2017-02-08 08:03:40.053004+01

 2017-02-08 08:47:55.706903+01 | 1486540075.7069 |                 0 |               9 |                  4893 |                  253 |             608639 |       1266910 |            12613 |        25939580 |                     0 |      29581413 | 2017-02-08 08:03:40.053004+01

 2017-02-08 08:47:56.758251+01 | 1486540076.75825 |                 0 |               9 |                  4893 |                  253 |             608639 |       1267410 |            12618 |        25939580 |                     0 |      29589583 | 2017-02-08 08:03:40.053004+01

 2017-02-08 08:47:57.813629+01 | 1486540077.81363 |                 0 |               9 |                  4893 |                  253 |             608639 |       1268010 |            12624 |        25939580 |                     0 |      29598895 | 2017-02-08 08:03:40.053004+01

 2017-02-08 08:47:58.872981+01 | 1486540078.87298 |                 0 |               9 |                  4893 |                  253 |             608639 |       1268510 |            12629 |        25939580 |                     0 |      29607139 | 2017-02-08 08:03:40.053004+01

 2017-02-08 08:47:59.930129+01 | 1486540079.93013 |                 0 |               9 |                  4893 |                  253 |             608639 |       1269010 |            12634 |        25939580 |                     0 |      29614976 | 2017-02-08 08:03:40.053004+01

 2017-02-08 08:48:00.984963+01 | 1486540080.98496 |                 0 |               9 |                  4893 |                  253 |             608639 |       1269510 |            12639 |        26000816 |                     0 |      29622828 | 2017-02-08 08:03:40.053004+01

 2017-02-08 08:48:02.037256+01 | 1486540082.03726 |                 0 |               9 |                  4893 |                  253 |             608639 |       1270110 |            12645 |        26000816 |                     0 |      29632013 | 2017-02-08 08:03:40.053004+01

 2017-02-08 08:48:03.093937+01 | 1486540083.09394 |                 0 |               9 |                  4893 |                  253 |             608639 |       1270610 |            12650 |        26000816 |                     0 |      29639838 | 2017-02-08 08:03:40.053004+01

 2017-02-08 08:48:04.146467+01 | 1486540084.14647 |                 0 |               9 |                  4893 |                  253 |             608639 |       1271110 |            12655 |        26000816 |                     0 |      29647628 | 2017-02-08 08:03:40.053004+01

 2017-02-08 08:48:05.196657+01 | 1486540085.19666 |                 0 |               9 |                  4893 |                  253 |             608639 |       1271610 |            12660 |        26000816 |                     0 |      29655362 | 2017-02-08 08:03:40.053004+01

 2017-02-08 08:48:06.25064+01 | 1486540086.25064 |                 0 |               9 |                  4893 |                  253 |             608639 |       1272110 |            12665 |        26000816 |                     0 |      29663151 | 2017-02-08 08:03:40.053004+01

 2017-02-08 08:48:07.307472+01 | 1486540087.30747 |                 0 |               9 |                  4893 |                  253 |             608639 |       1272710 |            12671 |        26000816 |                     0 |      29672534 | 2017-02-08 08:03:40.053004+01

 2017-02-08 08:48:08.357786+01 | 1486540088.35779 |                 0 |               9 |                  4893 |                  253 |             608639 |       1273210 |            12676 |        26000816 |                     0 |      29680639 | 2017-02-08 08:03:40.053004+01

 2017-02-08 08:48:09.418799+01 | 1486540089.4188 |                 0 |               9 |                  4893 |                  253 |             608639 |       1273710 |            12681 |        26062053 |                     0 |      29688196 | 2017-02-08 08:03:40.053004+01

 2017-02-08 08:48:10.471554+01 | 1486540090.47155 |                 0 |               9 |                  4893 |                  253 |             608639 |       1274210 |            12686 |        26062053 |                     0 |      29695947 | 2017-02-08 08:03:40.053004+01

 2017-02-08 08:48:11.514842+01 | 1486540091.51484 |                 0 |               9 |                  4893 |                  253 |             608639 |       1274710 |            12691 |        26062053 |                     0 |      29703760 | 2017-02-08 08:03:40.053004+01

 2017-02-08 08:48:12.558321+01 | 1486540092.55832 |                 0 |               9 |                  4893 |                  253 |             608639 |       1275210 |            12696 |        26062053 |                     0 |      29711577 | 2017-02-08 08:03:40.053004+01

 2017-02-08 08:48:13.611564+01 | 1486540093.61156 |                 0 |               9 |                  4893 |                  253 |             608639 |       1275810 |            12702 |        26062053 |                     0 |      29720777 | 2017-02-08 08:03:40.053004+01

 2017-02-08 08:48:14.672759+01 | 1486540094.67276 |                 0 |               9 |                  4893 |                  253 |             608639 |       1276310 |            12707 |        26062053 |                     0 |      29728323 | 2017-02-08 08:03:40.053004+01

 2017-02-08 08:48:15.728403+01 | 1486540095.7284 |                 0 |               9 |                  4893 |                  253 |             608639 |       1276910 |            12713 |        26062053 |                     0 |      29737368 | 2017-02-08 08:03:40.053004+01

 2017-02-08 08:48:16.780896+01 | 1486540096.7809 |                 0 |               9 |                  4893 |                  253 |             608639 |       1277410 |            12718 |        26062053 |                     0 |      29745168 | 2017-02-08 08:03:40.053004+01

 2017-02-08 08:48:17.837415+01 | 1486540097.83741 |                 0 |               9 |                  4893 |                  253 |             608639 |       1277910 |            12723 |        26062053 |                     0 |      29752757 | 2017-02-08 08:03:40.053004+01

 2017-02-08 08:48:18.891555+01 | 1486540098.89156 |                 0 |               9 |                  4893 |                  253 |             608639 |       1278410 |            12728 |        26123089 |                     0 |      29760617 | 2017-02-08 08:03:40.053004+01

 2017-02-08 08:48:19.947141+01 | 1486540099.94714 |                 0 |               9 |                  4893 |                  253 |             608639 |       1279010 |            12734 |        26123089 |                     0 |      29769789 | 2017-02-08 08:03:40.053004+01

 2017-02-08 08:48:21.001378+01 | 1486540101.00138 |                 0 |               9 |                  4893 |                  253 |             608639 |       1279510 |            12739 |        26123089 |                     0 |      29777430 | 2017-02-08 08:03:40.053004+01

 2017-02-08 08:48:22.053595+01 | 1486540102.0536 |                 0 |               9 |                  4893 |                  253 |             608639 |       1280010 |            12744 |        26123089 |                     0 |      29785118 | 2017-02-08 08:03:40.053004+01

 2017-02-08 08:48:23.109276+01 | 1486540103.10928 |                 0 |               9 |                  4893 |                  253 |             608639 |       1280510 |            12749 |        26123089 |                     0 |      29792676 | 2017-02-08 08:03:40.053004+01

 2017-02-08 08:48:24.163049+01 | 1486540104.16305 |                 0 |               9 |                  4893 |                  253 |             608639 |       1281110 |            12755 |        26123089 |                     0 |      29801933 | 2017-02-08 08:03:40.053004+01

 2017-02-08 08:48:25.214316+01 | 1486540105.21432 |                 0 |               9 |                  4893 |                  253 |             608639 |       1281610 |            12760 |        26123089 |                     0 |      29809512 | 2017-02-08 08:03:40.053004+01

 2017-02-08 08:48:26.268648+01 | 1486540106.26865 |                 0 |               9 |                  4893 |                  253 |             608639 |       1282110 |            12765 |        26123089 |                     0 |      29817729 | 2017-02-08 08:03:40.053004+01

 2017-02-08 08:48:27.323537+01 | 1486540107.32354 |                 0 |               9 |                  4893 |                  253 |             608639 |       1282610 |            12770 |        26184335 |                     0 |      29825367 | 2017-02-08 08:03:40.053004+01

 2017-02-08 08:48:28.377165+01 | 1486540108.37717 |                 0 |               9 |                  4893 |                  253 |             608639 |       1283210 |            12776 |        26184335 |                     0 |      29834574 | 2017-02-08 08:03:40.053004+01

 2017-02-08 08:48:29.42995+01 | 1486540109.42995 |                 0 |               9 |                  4893 |                  253 |             608639 |       1283710 |            12781 |        26184335 |                     0 |      29842219 | 2017-02-08 08:03:40.053004+01

 2017-02-08 08:48:30.482899+01 | 1486540110.4829 |                 0 |               9 |                  4893 |                  253 |             608639 |       1284210 |            12786 |        26184335 |                     0 |      29849739 | 2017-02-08 08:03:40.053004+01

 2017-02-08 08:48:31.540104+01 | 1486540111.5401 |                 0 |               9 |                  4893 |                  253 |             608639 |       1284710 |            12791 |        26184335 |                     0 |      29857500 | 2017-02-08 08:03:40.053004+01

 2017-02-08 08:48:32.592349+01 | 1486540112.59235 |                 0 |               9 |                  4893 |                  253 |             608639 |       1285310 |            12797 |        26184335 |                     0 |      29866759 | 2017-02-08 08:03:40.053004+01

 2017-02-08 08:48:33.646907+01 | 1486540113.64691 |                 0 |               9 |                  4893 |                  253 |             608639 |       1285810 |            12802 |        26184335 |                     0 |      29874221 | 2017-02-08 08:03:40.053004+01

 2017-02-08 08:48:34.702594+01 | 1486540114.70259 |                 0 |               9 |                  4893 |                  253 |             608639 |       1286310 |            12807 |        26184335 |                     0 |      29881953 | 2017-02-08 08:03:40.053004+01

 2017-02-08 08:48:35.7581+01 | 1486540115.7581 |                 0 |               9 |                  4893 |                  253 |             608639 |       1286810 |            12812 |        26184335 |                     0 |      29889443 | 2017-02-08 08:03:40.053004+01

 2017-02-08 08:48:36.815135+01 | 1486540116.81514 |                 0 |               9 |                  4893 |                  253 |             608639 |       1287410 |            12818 |        26245472 |                     0 |      29898827 | 2017-02-08 08:03:40.053004+01

 2017-02-08 08:48:37.869151+01 | 1486540117.86915 |                 0 |               9 |                  4893 |                  253 |             608639 |       1287910 |            12823 |        26245472 |                     0 |      29906991 | 2017-02-08 08:03:40.053004+01

 2017-02-08 08:48:38.921681+01 | 1486540118.92168 |                 0 |               9 |                  4893 |                  253 |             608639 |       1288410 |            12828 |        26245472 |                     0 |      29914458 | 2017-02-08 08:03:40.053004+01

 2017-02-08 08:48:39.973395+01 | 1486540119.9734 |                 0 |               9 |                  4893 |                  253 |             608639 |       1288910 |            12833 |        26245472 |                     0 |      29921976 | 2017-02-08 08:03:40.053004+01

 2017-02-08 08:48:41.029812+01 | 1486540121.02981 |                 0 |               9 |                  4893 |                  253 |             608639 |       1289510 |            12839 |        26245472 |                     0 |      29930882 | 2017-02-08 08:03:40.053004+01

 2017-02-08 08:48:42.086312+01 | 1486540122.08631 |                 0 |               9 |                  4893 |                  253 |             608639 |       1290010 |            12844 |        26245472 |                     0 |      29938082 | 2017-02-08 08:03:40.053004+01

 2017-02-08 08:48:43.140536+01 | 1486540123.14054 |                 0 |               9 |                  4893 |                  253 |             608639 |       1290510 |            12849 |        26245472 |                     0 |      29945623 | 2017-02-08 08:03:40.053004+01

 2017-02-08 08:48:44.192745+01 | 1486540124.19274 |                 0 |               9 |                  4893 |                  253 |             608639 |       1291010 |            12854 |        26245472 |                     0 |      29953172 | 2017-02-08 08:03:40.053004+01

 2017-02-08 08:48:45.242791+01 | 1486540125.24279 |                 0 |               9 |                  4893 |                  253 |             608639 |       1291510 |            12859 |        26306708 |                     0 |      29960525 | 2017-02-08 08:03:40.053004+01

 2017-02-08 08:48:46.295578+01 | 1486540126.29558 |                 0 |               9 |                  4893 |                  253 |             608639 |       1292110 |            12865 |        26306708 |                     0 |      29969625 | 2017-02-08 08:03:40.053004+01

 2017-02-08 08:48:47.345872+01 | 1486540127.34587 |                 0 |               9 |                  4893 |                  253 |             608639 |       1292610 |            12870 |        26306708 |                     0 |      29977570 | 2017-02-08 08:03:40.053004+01

 2017-02-08 08:48:48.401768+01 | 1486540128.40177 |                 0 |               9 |                  4893 |                  253 |             608639 |       1293110 |            12875 |        26306708 |                     0 |      29985096 | 2017-02-08 08:03:40.053004+01

 2017-02-08 08:48:49.457816+01 | 1486540129.45782 |                 0 |               9 |                  4893 |                  253 |             608639 |       1293610 |            12880 |        26306708 |                     0 |      29992668 | 2017-02-08 08:03:40.053004+01

 2017-02-08 08:48:50.508998+01 | 1486540130.509 |                 0 |               9 |                  4893 |                  253 |             608639 |       1294210 |            12886 |        26306708 |                     0 |      30001877 | 2017-02-08 08:03:40.053004+01

 2017-02-08 08:48:51.566902+01 | 1486540131.5669 |                 0 |               9 |                  4893 |                  253 |             608639 |       1294710 |            12891 |        26306708 |                     0 |      30009371 | 2017-02-08 08:03:40.053004+01

 2017-02-08 08:48:52.622291+01 | 1486540132.62229 |                 0 |               9 |                  4893 |                  253 |             608639 |       1295210 |            12896 |        26306708 |                     0 |      30016743 | 2017-02-08 08:03:40.053004+01

 2017-02-08 08:48:53.674695+01 | 1486540133.6747 |                 0 |               9 |                  4893 |                  253 |             608639 |       1295710 |            12901 |        26367945 |                     0 |      30024196 | 2017-02-08 08:03:40.053004+01

 2017-02-08 08:48:54.725371+01 | 1486540134.72537 |                 0 |               9 |                  4893 |                  253 |             608639 |       1296310 |            12907 |        26367945 |                     0 |      30033125 | 2017-02-08 08:03:40.053004+01

 2017-02-08 08:48:55.778043+01 | 1486540135.77804 |                 0 |               9 |                  4893 |                  253 |             608639 |       1296810 |            12912 |        26367945 |                     0 |      30040552 | 2017-02-08 08:03:40.053004+01

 2017-02-08 08:48:56.835515+01 | 1486540136.83552 |                 0 |               9 |                  4893 |                  253 |             608639 |       1297310 |            12917 |        26367945 |                     0 |      30048427 | 2017-02-08 08:03:40.053004+01

 2017-02-08 08:48:57.886761+01 | 1486540137.88676 |                 0 |               9 |                  4893 |                  253 |             608639 |       1297810 |            12922 |        26367945 |                     0 |      30055950 | 2017-02-08 08:03:40.053004+01

 2017-02-08 08:48:58.938846+01 | 1486540138.93885 |                 0 |               9 |                  4893 |                  253 |             608639 |       1298410 |            12928 |        26367945 |                     0 |      30065129 | 2017-02-08 08:03:40.053004+01

 2017-02-08 08:48:59.989644+01 | 1486540139.98964 |                 0 |               9 |                  4893 |                  253 |             608639 |       1298910 |            12933 |        26367945 |                     0 |      30072372 | 2017-02-08 08:03:40.053004+01

 2017-02-08 08:49:01.041523+01 | 1486540141.04152 |                 0 |               9 |                  4893 |                  253 |             608639 |       1299410 |            12938 |        26367945 |                     0 |      30079729 | 2017-02-08 08:03:40.053004+01

 2017-02-08 08:49:02.095122+01 | 1486540142.09512 |                 0 |               9 |                  4893 |                  253 |             608639 |       1299910 |            12943 |        26429081 |                     0 |      30086978 | 2017-02-08 08:03:40.053004+01

 2017-02-08 08:49:03.148045+01 | 1486540143.14805 |                 0 |               9 |                  4893 |                  253 |             608639 |       1300410 |            12948 |        26429081 |                     0 |      30094353 | 2017-02-08 08:03:40.053004+01

 2017-02-08 08:49:04.199331+01 | 1486540144.19933 |                 0 |               9 |                  4893 |                  253 |             608639 |       1301010 |            12954 |        26429081 |                     0 |      30103298 | 2017-02-08 08:03:40.053004+01

 2017-02-08 08:49:05.251785+01 | 1486540145.25179 |                 0 |               9 |                  4893 |                  253 |             608639 |       1301510 |            12959 |        26429081 |                     0 |      30110736 | 2017-02-08 08:03:40.053004+01

 2017-02-08 08:49:06.309101+01 | 1486540146.3091 |                 0 |               9 |                  4893 |                  253 |             608639 |       1302010 |            12964 |        26429081 |                     0 |      30118688 | 2017-02-08 08:03:40.053004+01

 2017-02-08 08:49:07.361385+01 | 1486540147.36139 |                 0 |               9 |                  4893 |                  253 |             608639 |       1302510 |            12969 |        26429081 |                     0 |      30125946 | 2017-02-08 08:03:40.053004+01

 2017-02-08 08:49:08.414709+01 | 1486540148.41471 |                 0 |               9 |                  4893 |                  253 |             608639 |       1303110 |            12975 |        26429081 |                     0 |      30134916 | 2017-02-08 08:03:40.053004+01

 2017-02-08 08:49:09.46712+01 | 1486540149.46712 |                 0 |               9 |                  4893 |                  253 |             608639 |       1303610 |            12980 |        26429081 |                     0 |      30142329 | 2017-02-08 08:03:40.053004+01

 2017-02-08 08:49:10.519821+01 | 1486540150.51982 |                 0 |               9 |                  4893 |                  253 |             608639 |       1304110 |            12985 |        26429081 |                     0 |      30149788 | 2017-02-08 08:03:40.053004+01

 2017-02-08 08:49:11.562218+01 | 1486540151.56222 |                 0 |               9 |                  4893 |                  253 |             608639 |       1304610 |            12990 |        26490217 |                     0 |      30157330 | 2017-02-08 08:03:40.053004+01

 2017-02-08 08:49:12.606261+01 | 1486540152.60626 |                 0 |               9 |                  4893 |                  253 |             608639 |       1305110 |            12995 |        26490217 |                     0 |      30164980 | 2017-02-08 08:03:40.053004+01

 2017-02-08 08:49:13.663217+01 | 1486540153.66322 |                 0 |               9 |                  4893 |                  253 |             608639 |       1305710 |            13001 |        26490217 |                     0 |      30174154 | 2017-02-08 08:03:40.053004+01

 2017-02-08 08:49:14.717537+01 | 1486540154.71754 |                 0 |               9 |                  4893 |                  253 |             608639 |       1306210 |            13006 |        26490217 |                     0 |      30181854 | 2017-02-08 08:03:40.053004+01

 2017-02-08 08:49:15.770956+01 | 1486540155.77096 |                 0 |               9 |                  4893 |                  253 |             608639 |       1306710 |            13011 |        26490217 |                     0 |      30189030 | 2017-02-08 08:03:40.053004+01

 2017-02-08 08:49:16.824432+01 | 1486540156.82443 |                 0 |               9 |                  4893 |                  253 |             608639 |       1307210 |            13016 |        26490217 |                     0 |      30195705 | 2017-02-08 08:03:40.053004+01

 2017-02-08 08:49:17.880041+01 | 1486540157.88004 |                 0 |               9 |                  4893 |                  253 |             608639 |       1307810 |            13022 |        26490217 |                     0 |      30203791 | 2017-02-08 08:03:40.053004+01

 2017-02-08 08:49:18.931171+01 | 1486540158.93117 |                 0 |               9 |                  4893 |                  253 |             608639 |       1308310 |            13027 |        26490217 |                     0 |      30210919 | 2017-02-08 08:03:40.053004+01

 2017-02-08 08:49:19.98196+01 | 1486540159.98196 |                 0 |               9 |                  4893 |                  253 |             608639 |       1308810 |            13032 |        26490217 |                     0 |      30218298 | 2017-02-08 08:03:40.053004+01

 2017-02-08 08:49:21.036149+01 | 1486540161.03615 |                 0 |               9 |                  4893 |                  253 |             608639 |       1309310 |            13037 |        26551054 |                     0 |      30225381 | 2017-02-08 08:03:40.053004+01

 2017-02-08 08:49:22.094739+01 | 1486540162.09474 |                 0 |               9 |                  4893 |                  253 |             608639 |       1309910 |            13043 |        26551054 |                     0 |      30234041 | 2017-02-08 08:03:40.053004+01

 2017-02-08 08:49:23.150206+01 | 1486540163.15021 |                 0 |               9 |                  4893 |                  253 |             608639 |       1310410 |            13048 |        26551054 |                     0 |      30241417 | 2017-02-08 08:03:40.053004+01

 2017-02-08 08:49:24.203754+01 | 1486540164.20375 |                 0 |               9 |                  4893 |                  253 |             608639 |       1310910 |            13053 |        26551054 |                     0 |      30248543 | 2017-02-08 08:03:40.053004+01

 2017-02-08 08:49:25.254275+01 | 1486540165.25428 |                 0 |               9 |                  4893 |                  253 |             608639 |       1311410 |            13058 |        26551054 |                     0 |      30255807 | 2017-02-08 08:03:40.053004+01

 2017-02-08 08:49:26.306231+01 | 1486540166.30623 |                 0 |               9 |                  4893 |                  253 |             608639 |       1312010 |            13064 |        26551054 |                     0 |      30264594 | 2017-02-08 08:03:40.053004+01

 2017-02-08 08:49:27.361239+01 | 1486540167.36124 |                 0 |               9 |                  4893 |                  253 |             608639 |       1312510 |            13069 |        26551054 |                     0 |      30272268 | 2017-02-08 08:03:40.053004+01

 2017-02-08 08:49:28.417326+01 | 1486540168.41733 |                 0 |               9 |                  4893 |                  253 |             608639 |       1313010 |            13074 |        26551054 |                     0 |      30279660 | 2017-02-08 08:03:40.053004+01

 2017-02-08 08:49:29.47211+01 | 1486540169.47211 |                 0 |               9 |                  4893 |                  253 |             608639 |       1313510 |            13079 |        26612190 |                     0 |      30286921 | 2017-02-08 08:03:40.053004+01

 2017-02-08 08:49:30.524863+01 | 1486540170.52486 |                 0 |               9 |                  4893 |                  253 |             608639 |       1314110 |            13085 |        26612190 |                     0 |      30295462 | 2017-02-08 08:03:40.053004+01

 2017-02-08 08:49:31.578862+01 | 1486540171.57886 |                 0 |               9 |                  4893 |                  253 |             608639 |       1314610 |            13090 |        26612190 |                     0 |      30302724 | 2017-02-08 08:03:40.053004+01

 2017-02-08 08:49:32.632946+01 | 1486540172.63295 |                 0 |               9 |                  4893 |                  253 |             608639 |       1315110 |            13095 |        26612190 |                     0 |      30309952 | 2017-02-08 08:03:40.053004+01

 2017-02-08 08:49:33.688171+01 | 1486540173.68817 |                 0 |               9 |                  4893 |                  253 |             608639 |       1315610 |            13100 |        26612190 |                     0 |      30316944 | 2017-02-08 08:03:40.053004+01

 2017-02-08 08:49:34.742345+01 | 1486540174.74235 |                 0 |               9 |                  4893 |                  253 |             608639 |       1316110 |            13105 |        26612190 |                     0 |      30324247 | 2017-02-08 08:03:40.053004+01

 2017-02-08 08:49:35.794782+01 | 1486540175.79478 |                 0 |               9 |                  4893 |                  253 |             608639 |       1316710 |            13111 |        26612190 |                     0 |      30332768 | 2017-02-08 08:03:40.053004+01

 2017-02-08 08:49:36.85025+01 | 1486540176.85025 |                 0 |               9 |                  4893 |                  253 |             608639 |       1317210 |            13116 |        26612190 |                     0 |      30340339 | 2017-02-08 08:03:40.053004+01

 2017-02-08 08:49:37.902824+01 | 1486540177.90282 |                 0 |               9 |                  4893 |                  253 |             608639 |       1317710 |            13121 |        26612190 |                     0 |      30347443 | 2017-02-08 08:03:40.053004+01

 2017-02-08 08:49:38.957297+01 | 1486540178.9573 |                 0 |               9 |                  4893 |                  253 |             608639 |       1318210 |            13126 |        26673226 |                     0 |      30354470 | 2017-02-08 08:03:40.053004+01

