 2017-02-08 20:24:25.559824+01 | 1486581865.55982 | 9/7AC311F8               |           40714310136

 2017-02-08 20:24:26.67359+01 | 1486581866.67359 | 9/8255AA30               |           40841357872

 2017-02-08 20:24:27.848797+01 | 1486581867.8488 | 9/8978C000               |           40961097728

 2017-02-08 20:24:29.001796+01 | 1486581869.0018 | 9/8FD9E000               |           41068126208

 2017-02-08 20:24:30.120638+01 | 1486581870.12064 | 9/95DD5568               |           41169016168

 2017-02-08 20:24:31.265088+01 | 1486581871.26509 | 9/9C166000               |           41273417728

 2017-02-08 20:24:32.373349+01 | 1486581872.37335 | 9/A1600D20               |           41362132256

 2017-02-08 20:24:33.523029+01 | 1486581873.52303 | 9/A67FF8F0               |           41448110320

 2017-02-08 20:24:34.665304+01 | 1486581874.6653 | 9/AB5DE000               |           41529761792

 2017-02-08 20:24:35.769477+01 | 1486581875.76948 | 9/AFC61CD0               |           41603701968

 2017-02-08 20:24:36.960784+01 | 1486581876.96078 | 9/B43B4000               |           41678487552

 2017-02-08 20:24:38.112068+01 | 1486581878.11207 | 9/B871C000               |           41749168128

 2017-02-08 20:24:39.280252+01 | 1486581879.28025 | 9/BC7FE000               |           41817202688

 2017-02-08 20:24:40.408705+01 | 1486581880.4087 | 9/C060C088               |           41882271880

 2017-02-08 20:24:41.5597+01 | 1486581881.5597 | 9/C444C508               |           41947546888

 2017-02-08 20:24:42.667517+01 | 1486581882.66752 | 9/C7E09D38               |           42008091960

 2017-02-08 20:24:43.791338+01 | 1486581883.79134 | 9/CB51B1C8               |           42065834440

 2017-02-08 20:24:44.959837+01 | 1486581884.95984 | 9/CEC04000               |           42123411456

 2017-02-08 20:24:46.097089+01 | 1486581886.09709 | 9/D2159C88               |           42179337352

 2017-02-08 20:24:47.315331+01 | 1486581887.31533 | 9/D59B0000               |           42238410752

 2017-02-08 20:24:48.455942+01 | 1486581888.45594 | 9/D8C1E000               |           42291290112

 2017-02-08 20:24:49.645475+01 | 1486581889.64547 | 9/DBEFB6D0               |           42344625872

 2017-02-08 20:24:50.777754+01 | 1486581890.77775 | 9/DF14C000               |           42397384704

 2017-02-08 20:24:51.871499+01 | 1486581891.8715 | 9/E1E78DD8               |           42444754392

 2017-02-08 20:24:53.076644+01 | 1486581893.07664 | 9/E4EF0648               |           42495575624

 2017-02-08 20:24:54.218018+01 | 1486581894.21802 | 9/E7B868F8               |           42542328056

 2017-02-08 20:24:55.351654+01 | 1486581895.35165 | 9/EA8372D0               |           42589188816

 2017-02-08 20:24:56.464564+01 | 1486581896.46456 | 9/ED360070               |           42634444912

 2017-02-08 20:24:57.657212+01 | 1486581897.65721 | 9/F007F6F8               |           42681759480

 2017-02-08 20:24:58.816876+01 | 1486581898.81688 | 9/F2B82C70               |           42726861936

 2017-02-08 20:24:59.940008+01 | 1486581899.94001 | 9/F5544790               |           42770646928

 2017-02-08 20:25:01.085823+01 | 1486581901.08582 | 9/F7D40000               |           42812571648

 2017-02-08 20:25:02.269592+01 | 1486581902.26959 | 9/FA730708               |           42856548104

 2017-02-08 20:25:03.488994+01 | 1486581903.48899 | 9/FD078000               |           42899832832

 2017-02-08 20:25:04.649399+01 | 1486581904.6494 | 9/FF751CC0               |           42940570816

 2017-02-08 20:25:05.745281+01 | 1486581905.74528 | A/1A80C30                |           42977463344

 2017-02-08 20:25:06.871044+01 | 1486581906.87104 | A/4023E18                |           43016928792

 2017-02-08 20:25:08.000111+01 | 1486581908.00011 | A/63D6000                |           43054358528

 2017-02-08 20:25:09.19539+01 | 1486581909.19539 | A/8A77160                |           43094864224

 2017-02-08 20:25:10.308787+01 | 1486581910.30879 | A/AC40D40                |           43130293568

 2017-02-08 20:25:11.50637+01 | 1486581911.50637 | A/D076000                |           43168260096

 2017-02-08 20:25:12.76618+01 | 1486581912.76618 | A/F5F6000                |           43207581696

 2017-02-08 20:25:13.93398+01 | 1486581913.93398 | A/1176BB68               |           43242666856

 2017-02-08 20:25:15.166725+01 | 1486581915.16672 | A/13AE94A0               |           43279881376

 2017-02-08 20:25:16.329312+01 | 1486581916.32931 | A/15C807D0               |           43315103696

 2017-02-08 20:25:17.531478+01 | 1486581917.53148 | A/17DDB260               |           43350078048

 2017-02-08 20:25:18.748806+01 | 1486581918.74881 | A/19EE77E0               |           43384731616

 2017-02-08 20:25:19.960023+01 | 1486581919.96002 | A/1BF13430               |           43418465328

 2017-02-08 20:25:21.145724+01 | 1486581921.14572 | A/1DE68000               |           43451318272

 2017-02-08 20:25:22.38677+01 | 1486581922.38677 | A/1FDADBF8               |           43484109816

 2017-02-08 20:25:23.513246+01 | 1486581923.51325 | A/21A73408               |           43514278920

 2017-02-08 20:25:24.691655+01 | 1486581924.69165 | A/2382F978               |           43545459064

 2017-02-08 20:25:25.84417+01 | 1486581925.84417 | A/254D2D68               |           43575487848

 2017-02-08 20:25:26.968606+01 | 1486581926.96861 | A/27028000               |           43604148224

 2017-02-08 20:25:28.241641+01 | 1486581928.24164 | A/28F78000               |           43636981760

 2017-02-08 20:25:29.358689+01 | 1486581929.35869 | A/2A9C9AB0               |           43664579248

 2017-02-08 20:25:30.548852+01 | 1486581930.54885 | A/2C5AC710               |           43693819664

 2017-02-08 20:25:31.801915+01 | 1486581931.80191 | A/2E367460               |           43724993632

 2017-02-08 20:25:32.99526+01 | 1486581932.99526 | A/2FE964E8               |           43753497832

 2017-02-08 20:25:34.138027+01 | 1486581934.13803 | A/317CFF18               |           43779948312

 2017-02-08 20:25:35.391262+01 | 1486581935.39126 | A/33351AC8               |           43808791240

 2017-02-08 20:25:36.66723+01 | 1486581936.66723 | A/34E69BB8               |           43837201336

 2017-02-08 20:25:37.860986+01 | 1486581937.86099 | A/36AF5E18               |           43867135512

 2017-02-08 20:25:39.03435+01 | 1486581939.03435 | A/38DC83A8               |           43903648680

 2017-02-08 20:25:40.197545+01 | 1486581940.19755 | A/3B0034E8               |           43939542248

 2017-02-08 20:25:41.467337+01 | 1486581941.46734 | A/3D4D2DF8               |           43978141176

 2017-02-08 20:25:42.686103+01 | 1486581942.6861 | A/3F732000               |           44014182400

 2017-02-08 20:25:43.83864+01 | 1486581943.83864 | A/416D6E90               |           44047363728

 2017-02-08 20:25:45.012278+01 | 1486581945.01228 | A/435B9CF0               |           44079750384

 2017-02-08 20:25:46.195525+01 | 1486581946.19552 | A/454C6C70               |           44112309360

 2017-02-08 20:25:47.288299+01 | 1486581947.2883 | A/470ACCF8               |           44141563128

 2017-02-08 20:25:48.382796+01 | 1486581948.3828 | A/48AC6838               |           44168931384

 2017-02-08 20:25:49.527369+01 | 1486581949.52737 | A/4A5E8000               |           44197380096

 2017-02-08 20:25:50.693093+01 | 1486581950.69309 | A/4C083580               |           44225279360

 2017-02-08 20:25:51.84633+01 | 1486581951.84633 | A/4D96F968               |           44251412840

 2017-02-08 20:25:53.102691+01 | 1486581953.10269 | A/4F3627B8               |           44278622136

 2017-02-08 20:25:54.285049+01 | 1486581954.28505 | A/50A7CA48               |           44302846536

 2017-02-08 20:25:55.454584+01 | 1486581955.45458 | A/52201860               |           44327508064

 2017-02-08 20:25:56.65876+01 | 1486581956.65876 | A/5384CF00               |           44350885632

 2017-02-08 20:25:57.86436+01 | 1486581957.86436 | A/54EAB1F8               |           44374340088

 2017-02-08 20:25:59.017537+01 | 1486581959.01754 | A/5633A6E8               |           44395898600

 2017-02-08 20:26:00.119739+01 | 1486581960.11974 | A/5762A000               |           44415754240

 2017-02-08 20:26:01.283453+01 | 1486581961.28345 | A/58A9EC60               |           44437204064

 2017-02-08 20:26:02.391639+01 | 1486581962.39164 | A/59EE7040               |           44458471488

 2017-02-08 20:26:03.527639+01 | 1486581963.52764 | A/5B34BB30               |           44479855408

 2017-02-08 20:26:04.725653+01 | 1486581964.72565 | A/5CC8C400               |           44506334208

 2017-02-08 20:26:05.862174+01 | 1486581965.86217 | A/5E2FC860               |           44529862752

 2017-02-08 20:26:07.000533+01 | 1486581967.00053 | A/5F9B3348               |           44553679688

 2017-02-08 20:26:08.21126+01 | 1486581968.21126 | A/6120F1C0               |           44579221952

 2017-02-08 20:26:09.364082+01 | 1486581969.36408 | A/62870BC8               |           44602690504

 2017-02-08 20:26:10.524294+01 | 1486581970.52429 | A/63E1EF00               |           44625424128

 2017-02-08 20:26:11.627473+01 | 1486581971.62747 | A/65311910               |           44647389456

 2017-02-08 20:26:12.775653+01 | 1486581972.77565 | A/6690A180               |           44670427520

 2017-02-08 20:26:13.985529+01 | 1486581973.98553 | A/68025340               |           44694655808

 2017-02-08 20:26:15.12639+01 | 1486581975.12639 | A/69510878               |           44716591224

 2017-02-08 20:26:16.350921+01 | 1486581976.35092 | A/6A3EE8E8               |           44732180712

 2017-02-08 20:26:17.478272+01 | 1486581977.47827 | A/6B148000               |           44746178560

 2017-02-08 20:26:18.671785+01 | 1486581978.67179 | A/6C198F78               |           44763287416

 2017-02-08 20:26:19.876381+01 | 1486581979.87638 | A/6D31EC80               |           44781661312

 2017-02-08 20:26:21.132046+01 | 1486581981.13205 | A/6E4D84D0               |           44800246992

 2017-02-08 20:26:22.286974+01 | 1486581982.28697 | A/6F490970               |           44816730480

 2017-02-08 20:26:23.60125+01 | 1486581983.60125 | A/70678350               |           44835504976

 2017-02-08 20:26:24.817238+01 | 1486581984.81724 | A/71662298               |           44852191896

 2017-02-08 20:26:26.042579+01 | 1486581986.04258 | A/726D4918               |           44869437720

 2017-02-08 20:26:27.299734+01 | 1486581987.29973 | A/7371BE60               |           44886507104

 2017-02-08 20:26:28.511372+01 | 1486581988.51137 | A/746FCB30               |           44903156528

 2017-02-08 20:26:29.73548+01 | 1486581989.73548 | A/7565BC88               |           44919274632

 2017-02-08 20:26:30.927574+01 | 1486581990.92757 | A/76523158               |           44934771032

 2017-02-08 20:26:32.192116+01 | 1486581992.19212 | A/77494628               |           44950963752

 2017-02-08 20:26:33.347353+01 | 1486581993.34735 | A/78215210               |           44965122576

 2017-02-08 20:26:34.509667+01 | 1486581994.50967 | A/78EB54D0               |           44978361552

 2017-02-08 20:26:35.799758+01 | 1486581995.79976 | A/79CB35F8               |           44993033720

 2017-02-08 20:26:37.035715+01 | 1486581997.03572 | A/7AA763A8               |           45007463336

 2017-02-08 20:26:38.262795+01 | 1486581998.26279 | A/7B781EB8               |           45021142712

 2017-02-08 20:26:39.47999+01 | 1486581999.47999 | A/7C4F3AE0               |           45035240160

 2017-02-08 20:26:40.72509+01 | 1486582000.72509 | A/7D2241F0               |           45049070064

 2017-02-08 20:26:41.895336+01 | 1486582001.89534 | A/7DE49EE0               |           45061807840

 2017-02-08 20:26:43.129435+01 | 1486582003.12944 | A/7EB58000               |           45075496960

 2017-02-08 20:26:44.354766+01 | 1486582004.35477 | A/7F6EAC60               |           45087632480

 2017-02-08 20:26:45.556546+01 | 1486582005.55655 | A/80293100               |           45099856128

 2017-02-08 20:26:46.758965+01 | 1486582006.75897 | A/80E9B1D8               |           45112472024

 2017-02-08 20:26:48.023634+01 | 1486582008.02363 | A/81B24CC0               |           45125618880

 2017-02-08 20:26:49.229818+01 | 1486582009.22982 | A/8265AB50               |           45137374032

 2017-02-08 20:26:50.469902+01 | 1486582010.4699 | A/831DE000               |           45149446144

 2017-02-08 20:26:51.727227+01 | 1486582011.72723 | A/83D3B4D0               |           45161362640

 2017-02-08 20:26:52.963472+01 | 1486582012.96347 | A/84832000               |           45172858880

 2017-02-08 20:26:54.089287+01 | 1486582014.08929 | A/8517DE98               |           45182607000

 2017-02-08 20:26:55.355576+01 | 1486582015.35558 | A/85C56A18               |           45193980440

 2017-02-08 20:26:56.591288+01 | 1486582016.59129 | A/866CCC58               |           45204950104

 2017-02-08 20:26:57.797845+01 | 1486582017.79784 | A/8713BB40               |           45215890240

 2017-02-08 20:26:58.983695+01 | 1486582018.9837 | A/87AD5F50               |           45225959248

 2017-02-08 20:27:00.208327+01 | 1486582020.20833 | A/884892F8               |           45236130552

 2017-02-08 20:27:01.446781+01 | 1486582021.44678 | A/88E8B280               |           45246624384

 2017-02-08 20:27:02.68637+01 | 1486582022.68637 | A/8981E000               |           45256663040

 2017-02-08 20:27:03.777627+01 | 1486582023.77763 | A/8A09DE18               |           45265575448

 2017-02-08 20:27:05.026773+01 | 1486582025.02677 | A/8AA4A000               |           45275717632

 2017-02-08 20:27:06.250024+01 | 1486582026.25002 | A/8B392350               |           45285450576

 2017-02-08 20:27:07.511985+01 | 1486582027.51199 | A/8BCE8348               |           45295240008

 2017-02-08 20:27:08.663275+01 | 1486582028.66328 | A/8C4E5B38               |           45303618360

 2017-02-08 20:27:09.881143+01 | 1486582029.88114 | A/8CD61538               |           45312513336

 2017-02-08 20:27:11.034561+01 | 1486582031.03456 | A/8D5E7660               |           45321451104

 2017-02-08 20:27:12.218979+01 | 1486582032.21898 | A/8DE0E3B8               |           45329998776

 2017-02-08 20:27:13.39906+01 | 1486582033.39906 | A/8E5D56A8               |           45338154664

 2017-02-08 20:27:14.577515+01 | 1486582034.57751 | A/8ED58138               |           45346029880

 2017-02-08 20:27:15.82749+01 | 1486582035.82749 | A/8F57D0C8               |           45354569928

 2017-02-08 20:27:17.07126+01 | 1486582037.07126 | A/8FD62FA8               |           45362851752

 2017-02-08 20:27:18.294069+01 | 1486582038.29407 | A/90476230               |           45370270256

 2017-02-08 20:27:19.461357+01 | 1486582039.46136 | A/90BB2400               |           45377856512

 2017-02-08 20:27:20.714607+01 | 1486582040.71461 | A/913BEC60               |           45386296416

 2017-02-08 20:27:21.889114+01 | 1486582041.88911 | A/91A75828               |           45393336360

 2017-02-08 20:27:23.111732+01 | 1486582043.11173 | A/9219CEC0               |           45400837824

 2017-02-08 20:27:24.390609+01 | 1486582044.39061 | A/928FE000               |           45408575488

 2017-02-08 20:27:25.611306+01 | 1486582045.61131 | A/93010A08               |           45415991816

 2017-02-08 20:27:26.801326+01 | 1486582046.80133 | A/936B4330               |           45422953264

 2017-02-08 20:27:27.98859+01 | 1486582047.98859 | A/93D4BAD0               |           45429865168

 2017-02-08 20:27:29.285844+01 | 1486582049.28584 | A/944A88B0               |           45437585584

 2017-02-08 20:27:30.510238+01 | 1486582050.51024 | A/94B42F08               |           45444509448

 2017-02-08 20:27:31.733666+01 | 1486582051.73367 | A/95196A80               |           45451143808

 2017-02-08 20:27:32.953454+01 | 1486582052.95345 | A/957B93E0               |           45457576928

 2017-02-08 20:27:34.155411+01 | 1486582054.15541 | A/95DCA2A0               |           45463937696

 2017-02-08 20:27:35.300137+01 | 1486582055.30014 | A/96385E88               |           45469949576

 2017-02-08 20:27:36.518392+01 | 1486582056.51839 | A/96948808               |           45475989512

 2017-02-08 20:27:37.760256+01 | 1486582057.76026 | A/96F28560               |           45482149216

 2017-02-08 20:27:38.956909+01 | 1486582058.95691 | A/974DD070               |           45488132208

 2017-02-08 20:27:40.115321+01 | 1486582060.11532 | A/97A16680               |           45493610112

 2017-02-08 20:27:41.369594+01 | 1486582061.36959 | A/97FE4D00               |           45499698432

 2017-02-08 20:27:42.608718+01 | 1486582062.60872 | A/9858FA28               |           45505641000

 2017-02-08 20:27:43.822799+01 | 1486582063.8228 | A/98B26A60               |           45511502432

 2017-02-08 20:27:45.040684+01 | 1486582065.04068 | A/99058DD0               |           45516950992

 2017-02-08 20:27:46.133203+01 | 1486582066.1332 | A/9952CDE8               |           45522013672

 2017-02-08 20:27:47.31141+01 | 1486582067.31141 | A/99A492B0               |           45527372464

 2017-02-08 20:27:48.468095+01 | 1486582068.4681 | A/99F33AA0               |           45532527264

 2017-02-08 20:27:49.612253+01 | 1486582069.61225 | A/9A414CB8               |           45537643704

 2017-02-08 20:27:50.804606+01 | 1486582070.80461 | A/9A931198               |           45543002520

 2017-02-08 20:27:51.967283+01 | 1486582071.96728 | A/9ADDDA78               |           45547903608

 2017-02-08 20:27:53.073193+01 | 1486582073.07319 | A/9B258728               |           45552600872

 2017-02-08 20:27:54.29396+01 | 1486582074.29396 | A/9B73D320               |           45557732128

 2017-02-08 20:27:55.443849+01 | 1486582075.44385 | A/9BBDC798               |           45562578840

 2017-02-08 20:27:56.600477+01 | 1486582076.60048 | A/9C031B28               |           45567122216

 2017-02-08 20:27:57.73176+01 | 1486582077.73176 | A/9C47A088               |           45571612808

 2017-02-08 20:27:58.972928+01 | 1486582078.97293 | A/9C902578               |           45576365432

 2017-02-08 20:28:00.215945+01 | 1486582080.21595 | A/9CD924F8               |           45581149432

 2017-02-08 20:28:01.373402+01 | 1486582081.3734 | A/9D19D2E0               |           45585388256

 2017-02-08 20:28:02.628205+01 | 1486582082.62821 | A/9D608780               |           45590022016

 2017-02-08 20:28:03.886375+01 | 1486582083.88637 | A/9DA4A8E0               |           45594487008

 2017-02-08 20:28:05.152773+01 | 1486582085.15277 | A/9DE8C038               |           45598949432

 2017-02-08 20:28:06.429745+01 | 1486582086.42974 | A/9E301DC8               |           45603626440

 2017-02-08 20:28:07.693574+01 | 1486582087.69357 | A/9E74AA80               |           45608118912

 2017-02-08 20:28:08.929478+01 | 1486582088.92948 | A/9EB90EA0               |           45612600992

 2017-02-08 20:28:10.178713+01 | 1486582090.17871 | A/9EFAB520               |           45616903456

 2017-02-08 20:28:11.317614+01 | 1486582091.31761 | A/9F35C7A8               |           45620774824

 2017-02-08 20:28:12.551685+01 | 1486582092.55169 | A/9F76A0D0               |           45625024720

 2017-02-08 20:28:13.743386+01 | 1486582093.74339 | A/9FB13490               |           45628863632

 2017-02-08 20:28:14.92445+01 | 1486582094.92445 | A/9FEB9E68               |           45632691816

 2017-02-08 20:28:16.104241+01 | 1486582096.10424 | A/A02B2C00               |           45636856832

 2017-02-08 20:28:17.330275+01 | 1486582097.33028 | A/A06C2250               |           45641114192

 2017-02-08 20:28:18.475164+01 | 1486582098.47516 | A/A0A17D48               |           45644610888

 2017-02-08 20:28:19.692609+01 | 1486582099.69261 | A/A0DBAFE0               |           45648424928

 2017-02-08 20:28:20.903111+01 | 1486582100.90311 | A/A1138418               |           45652083736

 2017-02-08 20:28:22.060988+01 | 1486582102.06099 | A/A14D3900               |           45655865600

 2017-02-08 20:28:23.314283+01 | 1486582103.31428 | A/A18A4158               |           45659865432

 2017-02-08 20:28:24.580531+01 | 1486582104.58053 | A/A1C60878               |           45663783032

 2017-02-08 20:28:25.801728+01 | 1486582105.80173 | A/A1FD76F8               |           45667415800

 2017-02-08 20:28:26.970458+01 | 1486582106.97046 | A/A2324110               |           45670875408

 2017-02-08 20:28:28.167575+01 | 1486582108.16757 | A/A2681530               |           45674403120

 2017-02-08 20:28:29.351739+01 | 1486582109.35174 | A/A2994AF8               |           45677628152

 2017-02-08 20:28:30.475463+01 | 1486582110.47546 | A/A2CF6D78               |           45681175928

 2017-02-08 20:28:31.617536+01 | 1486582111.61754 | A/A3012628               |           45684434472

 2017-02-08 20:28:32.822436+01 | 1486582112.82244 | A/A3374BE8               |           45687983080

 2017-02-08 20:28:34.008877+01 | 1486582114.00888 | A/A36BB200               |           45691417088

 2017-02-08 20:28:35.145534+01 | 1486582115.14553 | A/A39B9688               |           45694555784

 2017-02-08 20:28:36.274705+01 | 1486582116.2747 | A/A3C9F2E8               |           45697594088

 2017-02-08 20:28:37.492539+01 | 1486582117.49254 | A/A3FADC18               |           45700799512

 2017-02-08 20:28:38.653841+01 | 1486582118.65384 | A/A428ECD8               |           45703818456

 2017-02-08 20:28:39.867848+01 | 1486582119.86785 | A/A4571B60               |           45706845024

 2017-02-08 20:28:41.013613+01 | 1486582121.01361 | A/A4812000               |           45709598720

 2017-02-08 20:28:42.18088+01 | 1486582122.18088 | A/A4AB88B8               |           45712378040

 2017-02-08 20:28:43.346882+01 | 1486582123.34688 | A/A4D8D878               |           45715347760

 2017-02-08 20:28:44.541362+01 | 1486582124.54136 | A/A507A258               |           45718413912

 2017-02-08 20:28:45.724394+01 | 1486582125.72439 | A/A53402A8               |           45721322152

 2017-02-08 20:28:46.861546+01 | 1486582126.86155 | A/A5603900               |           45724219648

 2017-02-08 20:28:48.009377+01 | 1486582128.00938 | A/A58B9B48               |           45727062856

 2017-02-08 20:28:49.2278+01 | 1486582129.2278 | A/A5B77D98               |           45729938840

 2017-02-08 20:28:50.452694+01 | 1486582130.45269 | A/A5E3A000               |           45732831232

 2017-02-08 20:28:51.605426+01 | 1486582131.60543 | A/A60BAA98               |           45735455384

 2017-02-08 20:28:52.761135+01 | 1486582132.76114 | A/A6339D40               |           45738073408

 2017-02-08 20:28:53.936796+01 | 1486582133.9368 | A/A65F4C60               |           45740936288

 2017-02-08 20:28:55.200224+01 | 1486582135.20022 | A/A68C08A8               |           45743868072

 2017-02-08 20:28:56.362745+01 | 1486582136.36275 | A/A6B3FD28               |           45746486568

 2017-02-08 20:28:57.598676+01 | 1486582137.59868 | A/A6DDA248               |           45749215816

 2017-02-08 20:28:58.769147+01 | 1486582138.76915 | A/A70648B0               |           45751879856

 2017-02-08 20:28:59.955151+01 | 1486582139.95515 | A/A7304638               |           45754631736

 2017-02-08 20:29:01.111584+01 | 1486582141.11158 | A/A75A7778               |           45757396856

 2017-02-08 20:29:02.299748+01 | 1486582142.29975 | A/A780D6F8               |           45759911672

 2017-02-08 20:29:03.552804+01 | 1486582143.5528 | A/A7AD8B88               |           45762841480

 2017-02-08 20:29:04.804398+01 | 1486582144.8044 | A/A7D94F28               |           45765709608

 2017-02-08 20:29:05.924374+01 | 1486582145.92437 | A/A7FD9F68               |           45768089448

 2017-02-08 20:29:07.02526+01 | 1486582147.02526 | A/A8215530               |           45770429744

 2017-02-08 20:29:08.197633+01 | 1486582148.19763 | A/A846EDA0               |           45772893600

 2017-02-08 20:29:09.34605+01 | 1486582149.34605 | A/A86B4030               |           45775274032

 2017-02-08 20:29:10.594384+01 | 1486582150.59438 | A/A89282B0               |           45777846960

 2017-02-08 20:29:11.81494+01 | 1486582151.81494 | A/A8B79488               |           45780276360

 2017-02-08 20:29:12.980829+01 | 1486582152.98083 | A/A8DA4450               |           45782549584

 2017-02-08 20:29:14.173119+01 | 1486582154.17312 | A/A8FECDA0               |           45784944032

 2017-02-08 20:29:15.267066+01 | 1486582155.26707 | A/A9216888               |           45787211912

 2017-02-08 20:29:16.432695+01 | 1486582156.43269 | A/A94641F8               |           45789626872

 2017-02-08 20:29:17.608512+01 | 1486582157.60851 | A/A96BCFA8               |           45792087976

 2017-02-08 20:29:18.855001+01 | 1486582158.855 | A/A9942948               |           45794732360

 2017-02-08 20:29:20.079898+01 | 1486582160.0799 | A/A9B95418               |           45797168152

 2017-02-08 20:29:21.311999+01 | 1486582161.312 | A/A9DDE798               |           45799565208

 2017-02-08 20:29:22.598973+01 | 1486582162.59897 | A/AA034200               |           45802013184

 2017-02-08 20:29:23.728586+01 | 1486582163.72859 | A/AA254338               |           45804241720

 2017-02-08 20:29:24.943062+01 | 1486582164.94306 | A/AA48BA28               |           45806565928

