 2017-02-09 07:47:42.941395+01 | 1486622862.9414 |                 0 |              10 |                  5789 |                  407 |             660779 |       1309313 |            12999 |        19863221 |                     0 |      22066657 | 2017-02-09 07:01:44.169082+01

 2017-02-09 07:47:44.00128+01 | 1486622864.00128 |                 0 |              10 |                  5789 |                  407 |             660779 |       1309313 |            12999 |        19863221 |                     0 |      22074173 | 2017-02-09 07:01:44.169082+01

 2017-02-09 07:47:45.058425+01 | 1486622865.05842 |                 0 |              10 |                  5789 |                  407 |             660779 |       1309313 |            12999 |        19863221 |                     0 |      22083815 | 2017-02-09 07:01:44.169082+01

 2017-02-09 07:47:46.122664+01 | 1486622866.12266 |                 0 |              10 |                  5789 |                  407 |             660779 |       1309313 |            12999 |        19863221 |                     0 |      22091904 | 2017-02-09 07:01:44.169082+01

 2017-02-09 07:47:47.178663+01 | 1486622867.17866 |                 0 |              10 |                  5789 |                  407 |             660779 |       1309328 |            12999 |        19863221 |                     0 |      22100057 | 2017-02-09 07:01:44.169082+01

 2017-02-09 07:47:48.238657+01 | 1486622868.23866 |                 0 |              10 |                  5789 |                  407 |             660779 |       1309362 |            12999 |        19863221 |                     0 |      22109385 | 2017-02-09 07:01:44.169082+01

 2017-02-09 07:47:49.300687+01 | 1486622869.30069 |                 0 |              10 |                  5789 |                  407 |             660779 |       1309426 |            12999 |        19863221 |                     0 |      22117540 | 2017-02-09 07:01:44.169082+01

 2017-02-09 07:47:50.358635+01 | 1486622870.35863 |                 0 |              10 |                  5789 |                  407 |             660779 |       1309581 |            12999 |        19863221 |                     0 |      22125804 | 2017-02-09 07:01:44.169082+01

 2017-02-09 07:47:51.418452+01 | 1486622871.41845 |                 0 |              10 |                  5789 |                  407 |             660779 |       1309927 |            12999 |        19863221 |                     0 |      22133945 | 2017-02-09 07:01:44.169082+01

 2017-02-09 07:47:52.476837+01 | 1486622872.47684 |                 0 |              10 |                  5789 |                  407 |             660779 |       1310432 |            13000 |        19863221 |                     0 |      22143546 | 2017-02-09 07:01:44.169082+01

 2017-02-09 07:47:53.546645+01 | 1486622873.54664 |                 0 |              10 |                  5789 |                  407 |             660779 |       1310932 |            13005 |        19863221 |                     0 |      22151686 | 2017-02-09 07:01:44.169082+01

 2017-02-09 07:47:54.604457+01 | 1486622874.60446 |                 0 |              10 |                  5789 |                  407 |             660779 |       1311432 |            13010 |        19863221 |                     0 |      22159947 | 2017-02-09 07:01:44.169082+01

 2017-02-09 07:47:55.663625+01 | 1486622875.66363 |                 0 |              10 |                  5789 |                  407 |             660779 |       1311932 |            13015 |        19863221 |                     0 |      22167789 | 2017-02-09 07:01:44.169082+01

 2017-02-09 07:47:56.739036+01 | 1486622876.73904 |                 0 |              10 |                  5789 |                  407 |             660779 |       1312532 |            13021 |        19863221 |                     0 |      22177364 | 2017-02-09 07:01:44.169082+01

 2017-02-09 07:47:57.797606+01 | 1486622877.79761 |                 0 |              10 |                  5789 |                  407 |             660779 |       1313032 |            13026 |        19863221 |                     0 |      22185117 | 2017-02-09 07:01:44.169082+01

 2017-02-09 07:47:58.857558+01 | 1486622878.85756 |                 0 |              10 |                  5789 |                  407 |             660779 |       1313532 |            13031 |        19863221 |                     0 |      22192839 | 2017-02-09 07:01:44.169082+01

 2017-02-09 07:47:59.911999+01 | 1486622879.912 |                 0 |              10 |                  5789 |                  407 |             660779 |       1314132 |            13037 |        19863221 |                     0 |      22202353 | 2017-02-09 07:01:44.169082+01

 2017-02-09 07:48:00.976422+01 | 1486622880.97642 |                 0 |              10 |                  5789 |                  407 |             660779 |       1314632 |            13042 |        19923638 |                     0 |      22210219 | 2017-02-09 07:01:44.169082+01

 2017-02-09 07:48:02.047273+01 | 1486622882.04727 |                 0 |              10 |                  5789 |                  407 |             660779 |       1315132 |            13047 |        19923638 |                     0 |      22218169 | 2017-02-09 07:01:44.169082+01

 2017-02-09 07:48:03.104362+01 | 1486622883.10436 |                 0 |              10 |                  5789 |                  407 |             660779 |       1315632 |            13052 |        19923638 |                     0 |      22226476 | 2017-02-09 07:01:44.169082+01

 2017-02-09 07:48:04.173773+01 | 1486622884.17377 |                 0 |              10 |                  5789 |                  407 |             660779 |       1316232 |            13058 |        19923638 |                     0 |      22235925 | 2017-02-09 07:01:44.169082+01

 2017-02-09 07:48:05.242053+01 | 1486622885.24205 |                 0 |              10 |                  5789 |                  407 |             660779 |       1316732 |            13063 |        19923638 |                     0 |      22243816 | 2017-02-09 07:01:44.169082+01

 2017-02-09 07:48:06.307875+01 | 1486622886.30787 |                 0 |              10 |                  5789 |                  407 |             660779 |       1317232 |            13068 |        19923638 |                     0 |      22251759 | 2017-02-09 07:01:44.169082+01

 2017-02-09 07:48:07.368589+01 | 1486622887.36859 |                 0 |              10 |                  5789 |                  407 |             660779 |       1317832 |            13074 |        19923638 |                     0 |      22261468 | 2017-02-09 07:01:44.169082+01

 2017-02-09 07:48:08.426409+01 | 1486622888.42641 |                 0 |              10 |                  5789 |                  407 |             660779 |       1318332 |            13079 |        19923638 |                     0 |      22269315 | 2017-02-09 07:01:44.169082+01

 2017-02-09 07:48:09.495307+01 | 1486622889.49531 |                 0 |              10 |                  5789 |                  407 |             660779 |       1318832 |            13084 |        19984816 |                     0 |      22277191 | 2017-02-09 07:01:44.169082+01

 2017-02-09 07:48:10.555953+01 | 1486622890.55595 |                 0 |              10 |                  5789 |                  407 |             660779 |       1319332 |            13089 |        19984816 |                     0 |      22285071 | 2017-02-09 07:01:44.169082+01

 2017-02-09 07:48:11.614026+01 | 1486622891.61403 |                 0 |              10 |                  5789 |                  407 |             660779 |       1319932 |            13095 |        19984816 |                     0 |      22294706 | 2017-02-09 07:01:44.169082+01

 2017-02-09 07:48:12.678063+01 | 1486622892.67806 |                 0 |              10 |                  5789 |                  407 |             660779 |       1320432 |            13100 |        19984816 |                     0 |      22302673 | 2017-02-09 07:01:44.169082+01

 2017-02-09 07:48:13.745889+01 | 1486622893.74589 |                 0 |              10 |                  5789 |                  407 |             660779 |       1320932 |            13105 |        19984816 |                     0 |      22310656 | 2017-02-09 07:01:44.169082+01

 2017-02-09 07:48:14.812973+01 | 1486622894.81297 |                 0 |              10 |                  5789 |                  407 |             660779 |       1321532 |            13111 |        19984816 |                     0 |      22320375 | 2017-02-09 07:01:44.169082+01

 2017-02-09 07:48:15.873287+01 | 1486622895.87329 |                 0 |              10 |                  5789 |                  407 |             660779 |       1322032 |            13116 |        19984816 |                     0 |      22328850 | 2017-02-09 07:01:44.169082+01

 2017-02-09 07:48:16.943868+01 | 1486622896.94387 |                 0 |              10 |                  5789 |                  407 |             660779 |       1322532 |            13121 |        19984816 |                     0 |      22336726 | 2017-02-09 07:01:44.169082+01

 2017-02-09 07:48:18.012244+01 | 1486622898.01224 |                 0 |              10 |                  5789 |                  407 |             660779 |       1323132 |            13127 |        20046114 |                     0 |      22346475 | 2017-02-09 07:01:44.169082+01

 2017-02-09 07:48:19.068002+01 | 1486622899.068 |                 0 |              10 |                  5789 |                  407 |             660779 |       1323632 |            13132 |        20046114 |                     0 |      22354381 | 2017-02-09 07:01:44.169082+01

 2017-02-09 07:48:20.126723+01 | 1486622900.12672 |                 0 |              10 |                  5789 |                  407 |             660779 |       1324132 |            13137 |        20046114 |                     0 |      22362473 | 2017-02-09 07:01:44.169082+01

 2017-02-09 07:48:21.187685+01 | 1486622901.18769 |                 0 |              10 |                  5789 |                  407 |             660779 |       1324632 |            13142 |        20046114 |                     0 |      22370557 | 2017-02-09 07:01:44.169082+01

 2017-02-09 07:48:22.252118+01 | 1486622902.25212 |                 0 |              10 |                  5789 |                  407 |             660779 |       1325232 |            13148 |        20046114 |                     0 |      22380283 | 2017-02-09 07:01:44.169082+01

 2017-02-09 07:48:23.321054+01 | 1486622903.32105 |                 0 |              10 |                  5789 |                  407 |             660779 |       1325732 |            13153 |        20046114 |                     0 |      22388295 | 2017-02-09 07:01:44.169082+01

 2017-02-09 07:48:24.386328+01 | 1486622904.38633 |                 0 |              10 |                  5789 |                  407 |             660779 |       1326232 |            13158 |        20046114 |                     0 |      22396326 | 2017-02-09 07:01:44.169082+01

 2017-02-09 07:48:25.459993+01 | 1486622905.45999 |                 0 |              10 |                  5789 |                  407 |             660779 |       1326832 |            13164 |        20046114 |                     0 |      22406049 | 2017-02-09 07:01:44.169082+01

 2017-02-09 07:48:26.529222+01 | 1486622906.52922 |                 0 |              10 |                  5789 |                  407 |             660779 |       1327332 |            13169 |        20107350 |                     0 |      22414041 | 2017-02-09 07:01:44.169082+01

 2017-02-09 07:48:27.589328+01 | 1486622907.58933 |                 0 |              10 |                  5789 |                  407 |             660779 |       1327832 |            13174 |        20107350 |                     0 |      22422126 | 2017-02-09 07:01:44.169082+01

 2017-02-09 07:48:28.64567+01 | 1486622908.64567 |                 0 |              10 |                  5789 |                  407 |             660779 |       1328332 |            13179 |        20107350 |                     0 |      22430146 | 2017-02-09 07:01:44.169082+01

 2017-02-09 07:48:29.719964+01 | 1486622909.71996 |                 0 |              10 |                  5789 |                  407 |             660779 |       1328932 |            13185 |        20107350 |                     0 |      22439939 | 2017-02-09 07:01:44.169082+01

 2017-02-09 07:48:30.779431+01 | 1486622910.77943 |                 0 |              10 |                  5789 |                  407 |             660779 |       1329432 |            13190 |        20107350 |                     0 |      22448347 | 2017-02-09 07:01:44.169082+01

 2017-02-09 07:48:31.853983+01 | 1486622911.85398 |                 0 |              10 |                  5789 |                  407 |             660779 |       1329932 |            13195 |        20107350 |                     0 |      22456544 | 2017-02-09 07:01:44.169082+01

 2017-02-09 07:48:32.915634+01 | 1486622912.91563 |                 0 |              10 |                  5789 |                  407 |             660779 |       1330532 |            13201 |        20107350 |                     0 |      22466377 | 2017-02-09 07:01:44.169082+01

 2017-02-09 07:48:33.984774+01 | 1486622913.98477 |                 0 |              10 |                  5789 |                  407 |             660779 |       1331032 |            13206 |        20107350 |                     0 |      22474566 | 2017-02-09 07:01:44.169082+01

 2017-02-09 07:48:35.042933+01 | 1486622915.04293 |                 0 |              10 |                  5789 |                  407 |             660779 |       1331532 |            13211 |        20168786 |                     0 |      22482613 | 2017-02-09 07:01:44.169082+01

 2017-02-09 07:48:36.095119+01 | 1486622916.09512 |                 0 |              10 |                  5789 |                  407 |             660779 |       1332032 |            13216 |        20168786 |                     0 |      22490785 | 2017-02-09 07:01:44.169082+01

 2017-02-09 07:48:37.154167+01 | 1486622917.15417 |                 0 |              10 |                  5789 |                  407 |             660779 |       1332632 |            13222 |        20168786 |                     0 |      22500636 | 2017-02-09 07:01:44.169082+01

 2017-02-09 07:48:38.22546+01 | 1486622918.22546 |                 0 |              10 |                  5789 |                  407 |             660779 |       1333132 |            13227 |        20168786 |                     0 |      22508648 | 2017-02-09 07:01:44.169082+01

 2017-02-09 07:48:39.28975+01 | 1486622919.28975 |                 0 |              10 |                  5789 |                  407 |             660779 |       1333632 |            13232 |        20168786 |                     0 |      22516891 | 2017-02-09 07:01:44.169082+01

 2017-02-09 07:48:40.35621+01 | 1486622920.35621 |                 0 |              10 |                  5789 |                  407 |             660779 |       1334232 |            13238 |        20168786 |                     0 |      22526554 | 2017-02-09 07:01:44.169082+01

 2017-02-09 07:48:41.420616+01 | 1486622921.42062 |                 0 |              10 |                  5789 |                  407 |             660779 |       1334732 |            13243 |        20168786 |                     0 |      22534345 | 2017-02-09 07:01:44.169082+01

 2017-02-09 07:48:42.479165+01 | 1486622922.47917 |                 0 |              10 |                  5789 |                  407 |             660779 |       1335232 |            13248 |        20168786 |                     0 |      22542580 | 2017-02-09 07:01:44.169082+01

 2017-02-09 07:48:43.541579+01 | 1486622923.54158 |                 0 |              10 |                  5789 |                  407 |             660779 |       1335732 |            13253 |        20230122 |                     0 |      22550610 | 2017-02-09 07:01:44.169082+01

 2017-02-09 07:48:44.616431+01 | 1486622924.61643 |                 0 |              10 |                  5789 |                  407 |             660779 |       1336332 |            13259 |        20230122 |                     0 |      22560208 | 2017-02-09 07:01:44.169082+01

 2017-02-09 07:48:45.696837+01 | 1486622925.69684 |                 0 |              10 |                  5789 |                  407 |             660779 |       1336832 |            13264 |        20230122 |                     0 |      22568360 | 2017-02-09 07:01:44.169082+01

 2017-02-09 07:48:46.775978+01 | 1486622926.77598 |                 0 |              10 |                  5789 |                  407 |             660779 |       1337432 |            13270 |        20230122 |                     0 |      22578168 | 2017-02-09 07:01:44.169082+01

 2017-02-09 07:48:47.845472+01 | 1486622927.84547 |                 0 |              10 |                  5789 |                  407 |             660779 |       1337932 |            13275 |        20230122 |                     0 |      22586328 | 2017-02-09 07:01:44.169082+01

 2017-02-09 07:48:48.908277+01 | 1486622928.90828 |                 0 |              10 |                  5789 |                  407 |             660779 |       1338432 |            13280 |        20230122 |                     0 |      22594613 | 2017-02-09 07:01:44.169082+01

 2017-02-09 07:48:49.972277+01 | 1486622929.97228 |                 0 |              10 |                  5789 |                  407 |             660779 |       1338932 |            13285 |        20230122 |                     0 |      22603054 | 2017-02-09 07:01:44.169082+01

 2017-02-09 07:48:51.045986+01 | 1486622931.04599 |                 0 |              10 |                  5789 |                  407 |             660779 |       1339532 |            13291 |        20230122 |                     0 |      22612488 | 2017-02-09 07:01:44.169082+01

 2017-02-09 07:48:52.116318+01 | 1486622932.11632 |                 0 |              10 |                  5789 |                  407 |             660779 |       1340032 |            13296 |        20291461 |                     0 |      22621114 | 2017-02-09 07:01:44.169082+01

 2017-02-09 07:48:53.186029+01 | 1486622933.18603 |                 0 |              10 |                  5789 |                  407 |             660779 |       1340532 |            13301 |        20291461 |                     0 |      22629232 | 2017-02-09 07:01:44.169082+01

 2017-02-09 07:48:54.260493+01 | 1486622934.26049 |                 0 |              10 |                  5789 |                  407 |             660779 |       1341132 |            13307 |        20291461 |                     0 |      22639098 | 2017-02-09 07:01:44.169082+01

 2017-02-09 07:48:55.333108+01 | 1486622935.33311 |                 0 |              10 |                  5789 |                  407 |             660779 |       1341632 |            13312 |        20291461 |                     0 |      22647051 | 2017-02-09 07:01:44.169082+01

 2017-02-09 07:48:56.395965+01 | 1486622936.39597 |                 0 |              10 |                  5789 |                  407 |             660779 |       1342132 |            13317 |        20291461 |                     0 |      22655015 | 2017-02-09 07:01:44.169082+01

 2017-02-09 07:48:57.458078+01 | 1486622937.45808 |                 0 |              10 |                  5789 |                  407 |             660779 |       1342732 |            13323 |        20291461 |                     0 |      22664632 | 2017-02-09 07:01:44.169082+01

 2017-02-09 07:48:58.51767+01 | 1486622938.51767 |                 0 |              10 |                  5789 |                  407 |             660779 |       1343232 |            13328 |        20291461 |                     0 |      22672487 | 2017-02-09 07:01:44.169082+01

 2017-02-09 07:48:59.584502+01 | 1486622939.5845 |                 0 |              10 |                  5789 |                  407 |             660779 |       1343732 |            13333 |        20291461 |                     0 |      22680240 | 2017-02-09 07:01:44.169082+01

 2017-02-09 07:49:00.652308+01 | 1486622940.65231 |                 0 |              10 |                  5789 |                  407 |             660779 |       1344332 |            13339 |        20291461 |                     0 |      22690017 | 2017-02-09 07:01:44.169082+01

 2017-02-09 07:49:01.708801+01 | 1486622941.7088 |                 0 |              10 |                  5789 |                  407 |             660779 |       1344832 |            13344 |        20352497 |                     0 |      22698025 | 2017-02-09 07:01:44.169082+01

 2017-02-09 07:49:02.76891+01 | 1486622942.76891 |                 0 |              10 |                  5789 |                  407 |             660779 |       1345332 |            13349 |        20352497 |                     0 |      22705825 | 2017-02-09 07:01:44.169082+01

 2017-02-09 07:49:03.848185+01 | 1486622943.84819 |                 0 |              10 |                  5789 |                  407 |             660779 |       1345832 |            13354 |        20352497 |                     0 |      22713489 | 2017-02-09 07:01:44.169082+01

 2017-02-09 07:49:04.921432+01 | 1486622944.92143 |                 0 |              10 |                  5789 |                  407 |             660779 |       1346432 |            13360 |        20352497 |                     0 |      22722982 | 2017-02-09 07:01:44.169082+01

 2017-02-09 07:49:05.980375+01 | 1486622945.98038 |                 0 |              10 |                  5789 |                  407 |             660779 |       1346932 |            13365 |        20352497 |                     0 |      22730826 | 2017-02-09 07:01:44.169082+01

 2017-02-09 07:49:07.060588+01 | 1486622947.06059 |                 0 |              10 |                  5789 |                  407 |             660779 |       1347432 |            13370 |        20352497 |                     0 |      22738631 | 2017-02-09 07:01:44.169082+01

 2017-02-09 07:49:08.121001+01 | 1486622948.121 |                 0 |              10 |                  5789 |                  407 |             660779 |       1348032 |            13376 |        20352497 |                     0 |      22748281 | 2017-02-09 07:01:44.169082+01

 2017-02-09 07:49:09.183119+01 | 1486622949.18312 |                 0 |              10 |                  5789 |                  407 |             660779 |       1348532 |            13381 |        20352497 |                     0 |      22756395 | 2017-02-09 07:01:44.169082+01

 2017-02-09 07:49:10.241495+01 | 1486622950.24149 |                 0 |              10 |                  5789 |                  407 |             660779 |       1349032 |            13386 |        20413533 |                     0 |      22764102 | 2017-02-09 07:01:44.169082+01

 2017-02-09 07:49:11.313466+01 | 1486622951.31347 |                 0 |              10 |                  5789 |                  407 |             660779 |       1349532 |            13391 |        20413533 |                     0 |      22771958 | 2017-02-09 07:01:44.169082+01

 2017-02-09 07:49:12.371895+01 | 1486622952.3719 |                 0 |              10 |                  5789 |                  407 |             660779 |       1350132 |            13397 |        20413533 |                     0 |      22781292 | 2017-02-09 07:01:44.169082+01

 2017-02-09 07:49:13.437032+01 | 1486622953.43703 |                 0 |              10 |                  5789 |                  407 |             660779 |       1350632 |            13402 |        20413533 |                     0 |      22789178 | 2017-02-09 07:01:44.169082+01

 2017-02-09 07:49:14.495306+01 | 1486622954.49531 |                 0 |              10 |                  5789 |                  407 |             660779 |       1351132 |            13407 |        20413533 |                     0 |      22797014 | 2017-02-09 07:01:44.169082+01

 2017-02-09 07:49:15.543959+01 | 1486622955.54396 |                 0 |              10 |                  5789 |                  407 |             660779 |       1351632 |            13412 |        20413533 |                     0 |      22804960 | 2017-02-09 07:01:44.169082+01

 2017-02-09 07:49:16.605007+01 | 1486622956.60501 |                 0 |              10 |                  5789 |                  407 |             660779 |       1352232 |            13418 |        20413533 |                     0 |      22814490 | 2017-02-09 07:01:44.169082+01

 2017-02-09 07:49:17.686423+01 | 1486622957.68642 |                 0 |              10 |                  5789 |                  407 |             660779 |       1352732 |            13423 |        20413533 |                     0 |      22822446 | 2017-02-09 07:01:44.169082+01

 2017-02-09 07:49:18.764837+01 | 1486622958.76484 |                 0 |              10 |                  5789 |                  407 |             660779 |       1353232 |            13428 |        20474770 |                     0 |      22830207 | 2017-02-09 07:01:44.169082+01

 2017-02-09 07:49:19.841585+01 | 1486622959.84158 |                 0 |              10 |                  5789 |                  407 |             660779 |       1353832 |            13434 |        20474770 |                     0 |      22839588 | 2017-02-09 07:01:44.169082+01

 2017-02-09 07:49:20.911029+01 | 1486622960.91103 |                 0 |              10 |                  5789 |                  407 |             660779 |       1354332 |            13439 |        20474770 |                     0 |      22847429 | 2017-02-09 07:01:44.169082+01

 2017-02-09 07:49:21.973658+01 | 1486622961.97366 |                 0 |              10 |                  5789 |                  407 |             660779 |       1354832 |            13444 |        20474770 |                     0 |      22855252 | 2017-02-09 07:01:44.169082+01

 2017-02-09 07:49:23.047324+01 | 1486622963.04732 |                 0 |              10 |                  5789 |                  407 |             660779 |       1355432 |            13450 |        20474770 |                     0 |      22864840 | 2017-02-09 07:01:44.169082+01

 2017-02-09 07:49:24.121345+01 | 1486622964.12135 |                 0 |              10 |                  5789 |                  407 |             660779 |       1355932 |            13455 |        20474770 |                     0 |      22873002 | 2017-02-09 07:01:44.169082+01

 2017-02-09 07:49:25.197488+01 | 1486622965.19749 |                 0 |              10 |                  5789 |                  407 |             660779 |       1356432 |            13460 |        20474770 |                     0 |      22881085 | 2017-02-09 07:01:44.169082+01

 2017-02-09 07:49:26.261305+01 | 1486622966.26131 |                 0 |              10 |                  5789 |                  407 |             660779 |       1357032 |            13466 |        20474770 |                     0 |      22890943 | 2017-02-09 07:01:44.169082+01

 2017-02-09 07:49:27.323705+01 | 1486622967.3237 |                 0 |              10 |                  5789 |                  407 |             660779 |       1357532 |            13471 |        20536306 |                     0 |      22899052 | 2017-02-09 07:01:44.169082+01

 2017-02-09 07:49:28.393723+01 | 1486622968.39372 |                 0 |              10 |                  5789 |                  407 |             660779 |       1358032 |            13476 |        20536306 |                     0 |      22907142 | 2017-02-09 07:01:44.169082+01

 2017-02-09 07:49:29.44846+01 | 1486622969.44846 |                 0 |              10 |                  5789 |                  407 |             660779 |       1358632 |            13482 |        20536306 |                     0 |      22917012 | 2017-02-09 07:01:44.169082+01

 2017-02-09 07:49:30.519067+01 | 1486622970.51907 |                 0 |              10 |                  5789 |                  407 |             660779 |       1359132 |            13487 |        20536306 |                     0 |      22925200 | 2017-02-09 07:01:44.169082+01

 2017-02-09 07:49:31.588253+01 | 1486622971.58825 |                 0 |              10 |                  5789 |                  407 |             660779 |       1359632 |            13492 |        20536306 |                     0 |      22933392 | 2017-02-09 07:01:44.169082+01

 2017-02-09 07:49:32.654474+01 | 1486622972.65447 |                 0 |              10 |                  5789 |                  407 |             660779 |       1360232 |            13498 |        20536306 |                     0 |      22943252 | 2017-02-09 07:01:44.169082+01

 2017-02-09 07:49:33.72712+01 | 1486622973.72712 |                 0 |              10 |                  5789 |                  407 |             660779 |       1360732 |            13503 |        20536306 |                     0 |      22951637 | 2017-02-09 07:01:44.169082+01

 2017-02-09 07:49:34.781123+01 | 1486622974.78112 |                 0 |              10 |                  5789 |                  407 |             660779 |       1361232 |            13508 |        20597942 |                     0 |      22959925 | 2017-02-09 07:01:44.169082+01

 2017-02-09 07:49:35.879858+01 | 1486622975.87986 |                 0 |              10 |                  5789 |                  407 |             660779 |       1361832 |            13514 |        20597942 |                     0 |      22969719 | 2017-02-09 07:01:44.169082+01

 2017-02-09 07:49:36.940815+01 | 1486622976.94081 |                 0 |              10 |                  5789 |                  407 |             660779 |       1362332 |            13519 |        20597942 |                     0 |      22978249 | 2017-02-09 07:01:44.169082+01

 2017-02-09 07:49:38.001661+01 | 1486622978.00166 |                 0 |              10 |                  5789 |                  407 |             660779 |       1362832 |            13524 |        20597942 |                     0 |      22986571 | 2017-02-09 07:01:44.169082+01

 2017-02-09 07:49:39.068428+01 | 1486622979.06843 |                 0 |              10 |                  5789 |                  407 |             660779 |       1363332 |            13529 |        20597942 |                     0 |      22994967 | 2017-02-09 07:01:44.169082+01

 2017-02-09 07:49:40.135816+01 | 1486622980.13582 |                 0 |              10 |                  5789 |                  407 |             660779 |       1363932 |            13535 |        20597942 |                     0 |      23005079 | 2017-02-09 07:01:44.169082+01

 2017-02-09 07:49:41.204249+01 | 1486622981.20425 |                 0 |              10 |                  5789 |                  407 |             660779 |       1364432 |            13540 |        20597942 |                     0 |      23013589 | 2017-02-09 07:01:44.169082+01

 2017-02-09 07:49:42.261363+01 | 1486622982.26136 |                 0 |              10 |                  5789 |                  407 |             660779 |       1364932 |            13545 |        20659579 |                     0 |      23021914 | 2017-02-09 07:01:44.169082+01

 2017-02-09 07:49:43.322395+01 | 1486622983.3224 |                 0 |              10 |                  5789 |                  407 |             660779 |       1365532 |            13551 |        20659579 |                     0 |      23031644 | 2017-02-09 07:01:44.169082+01

 2017-02-09 07:49:44.388134+01 | 1486622984.38813 |                 0 |              10 |                  5789 |                  407 |             660779 |       1366032 |            13556 |        20659579 |                     0 |      23040303 | 2017-02-09 07:01:44.169082+01

 2017-02-09 07:49:45.458567+01 | 1486622985.45857 |                 0 |              10 |                  5789 |                  407 |             660779 |       1366532 |            13561 |        20659579 |                     0 |      23048496 | 2017-02-09 07:01:44.169082+01

 2017-02-09 07:49:46.549104+01 | 1486622986.5491 |                 0 |              10 |                  5789 |                  407 |             660779 |       1367132 |            13567 |        20659579 |                     0 |      23058515 | 2017-02-09 07:01:44.169082+01

 2017-02-09 07:49:47.61285+01 | 1486622987.61285 |                 0 |              10 |                  5789 |                  407 |             660779 |       1367632 |            13572 |        20659579 |                     0 |      23066910 | 2017-02-09 07:01:44.169082+01

 2017-02-09 07:49:48.684344+01 | 1486622988.68434 |                 0 |              10 |                  5789 |                  407 |             660779 |       1368132 |            13577 |        20659579 |                     0 |      23075314 | 2017-02-09 07:01:44.169082+01

 2017-02-09 07:49:49.768652+01 | 1486622989.76865 |                 0 |              10 |                  5789 |                  407 |             660779 |       1368732 |            13583 |        20659579 |                     0 |      23085312 | 2017-02-09 07:01:44.169082+01

 2017-02-09 07:49:50.841212+01 | 1486622990.84121 |                 0 |              10 |                  5789 |                  407 |             660779 |       1369232 |            13588 |        20721215 |                     0 |      23093908 | 2017-02-09 07:01:44.169082+01

 2017-02-09 07:49:51.913724+01 | 1486622991.91372 |                 0 |              10 |                  5789 |                  407 |             660779 |       1369732 |            13593 |        20721215 |                     0 |      23102303 | 2017-02-09 07:01:44.169082+01

 2017-02-09 07:49:52.977527+01 | 1486622992.97753 |                 0 |              10 |                  5789 |                  407 |             660779 |       1370332 |            13599 |        20721215 |                     0 |      23112475 | 2017-02-09 07:01:44.169082+01

 2017-02-09 07:49:54.048519+01 | 1486622994.04852 |                 0 |              10 |                  5789 |                  407 |             660779 |       1370832 |            13604 |        20721215 |                     0 |      23120980 | 2017-02-09 07:01:44.169082+01

 2017-02-09 07:49:55.108707+01 | 1486622995.10871 |                 0 |              10 |                  5789 |                  407 |             660779 |       1371332 |            13609 |        20721215 |                     0 |      23129403 | 2017-02-09 07:01:44.169082+01

 2017-02-09 07:49:56.17895+01 | 1486622996.17895 |                 0 |              10 |                  5789 |                  407 |             660779 |       1371832 |            13614 |        20721215 |                     0 |      23137746 | 2017-02-09 07:01:44.169082+01

 2017-02-09 07:49:57.240973+01 | 1486622997.24097 |                 0 |              10 |                  5789 |                  407 |             660779 |       1372432 |            13620 |        20721215 |                     0 |      23147851 | 2017-02-09 07:01:44.169082+01

 2017-02-09 07:49:58.314437+01 | 1486622998.31444 |                 0 |              10 |                  5789 |                  407 |             660779 |       1372932 |            13625 |        20782751 |                     0 |      23156023 | 2017-02-09 07:01:44.169082+01

 2017-02-09 07:49:59.371813+01 | 1486622999.37181 |                 0 |              10 |                  5789 |                  407 |             660779 |       1373432 |            13630 |        20782751 |                     0 |      23164402 | 2017-02-09 07:01:44.169082+01

 2017-02-09 07:50:00.445568+01 | 1486623000.44557 |                 0 |              10 |                  5789 |                  407 |             660779 |       1374032 |            13636 |        20782751 |                     0 |      23174638 | 2017-02-09 07:01:44.169082+01

 2017-02-09 07:50:01.507007+01 | 1486623001.50701 |                 0 |              10 |                  5789 |                  407 |             660779 |       1374532 |            13641 |        20782751 |                     0 |      23183031 | 2017-02-09 07:01:44.169082+01

 2017-02-09 07:50:02.567393+01 | 1486623002.56739 |                 0 |              10 |                  5789 |                  407 |             660779 |       1375032 |            13646 |        20782751 |                     0 |      23191473 | 2017-02-09 07:01:44.169082+01

 2017-02-09 07:50:03.631546+01 | 1486623003.63155 |                 0 |              10 |                  5789 |                  407 |             660779 |       1375532 |            13651 |        20782751 |                     0 |      23204281 | 2017-02-09 07:01:44.169082+01

 2017-02-09 07:50:04.699614+01 | 1486623004.69961 |                 0 |              10 |                  5789 |                  407 |             660779 |       1376132 |            13657 |        20782751 |                     0 |      23223583 | 2017-02-09 07:01:44.169082+01

 2017-02-09 07:50:05.773175+01 | 1486623005.77318 |                 0 |              10 |                  5789 |                  407 |             660779 |       1376632 |            13662 |        20844999 |                     0 |      23240433 | 2017-02-09 07:01:44.169082+01

 2017-02-09 07:50:06.845139+01 | 1486623006.84514 |                 0 |              10 |                  5789 |                  407 |             660779 |       1377132 |            13667 |        20844999 |                     0 |      23257771 | 2017-02-09 07:01:44.169082+01

 2017-02-09 07:50:07.901331+01 | 1486623007.90133 |                 0 |              10 |                  5789 |                  407 |             660779 |       1377732 |            13673 |        20844999 |                     0 |      23280243 | 2017-02-09 07:01:44.169082+01

 2017-02-09 07:50:08.973555+01 | 1486623008.97356 |                 0 |              10 |                  5789 |                  407 |             660779 |       1378232 |            13678 |        20844999 |                     0 |      23298315 | 2017-02-09 07:01:44.169082+01

 2017-02-09 07:50:10.04148+01 | 1486623010.04148 |                 0 |              10 |                  5789 |                  407 |             660779 |       1378732 |            13683 |        20844999 |                     0 |      23315469 | 2017-02-09 07:01:44.169082+01

 2017-02-09 07:50:11.10854+01 | 1486623011.10854 |                 0 |              10 |                  5789 |                  407 |             660779 |       1379332 |            13689 |        20907735 |                     0 |      23336106 | 2017-02-09 07:01:44.169082+01

 2017-02-09 07:50:12.172959+01 | 1486623012.17296 |                 0 |              10 |                  5789 |                  407 |             660779 |       1379832 |            13694 |        20907735 |                     0 |      23353055 | 2017-02-09 07:01:44.169082+01

 2017-02-09 07:50:13.255599+01 | 1486623013.2556 |                 0 |              10 |                  5789 |                  407 |             660779 |       1380332 |            13699 |        20907735 |                     0 |      23370121 | 2017-02-09 07:01:44.169082+01

 2017-02-09 07:50:14.318582+01 | 1486623014.31858 |                 0 |              10 |                  5789 |                  407 |             660779 |       1380932 |            13705 |        20907735 |                     0 |      23389205 | 2017-02-09 07:01:44.169082+01

 2017-02-09 07:50:15.383658+01 | 1486623015.38366 |                 0 |              10 |                  5789 |                  407 |             660779 |       1381432 |            13710 |        20907735 |                     0 |      23404484 | 2017-02-09 07:01:44.169082+01

 2017-02-09 07:50:16.456956+01 | 1486623016.45696 |                 0 |              10 |                  5789 |                  407 |             660779 |       1381932 |            13715 |        20907735 |                     0 |      23419204 | 2017-02-09 07:01:44.169082+01

 2017-02-09 07:50:17.52924+01 | 1486623017.52924 |                 0 |              10 |                  5789 |                  407 |             660779 |       1382532 |            13721 |        20907735 |                     0 |      23436347 | 2017-02-09 07:01:44.169082+01

 2017-02-09 07:50:18.595526+01 | 1486623018.59553 |                 0 |              10 |                  5789 |                  407 |             660779 |       1383032 |            13726 |        20907735 |                     0 |      23449457 | 2017-02-09 07:01:44.169082+01

 2017-02-09 07:50:19.657132+01 | 1486623019.65713 |                 0 |              10 |                  5789 |                  407 |             660779 |       1383532 |            13731 |        20968771 |                     0 |      23462486 | 2017-02-09 07:01:44.169082+01

 2017-02-09 07:50:20.721075+01 | 1486623020.72108 |                 0 |              10 |                  5789 |                  407 |             660779 |       1383932 |            13735 |        20968771 |                     0 |      23471731 | 2017-02-09 07:01:44.169082+01

 2017-02-09 07:50:21.791179+01 | 1486623021.79118 |                 0 |              10 |                  5789 |                  407 |             660779 |       1384632 |            13742 |        20968771 |                     0 |      23486538 | 2017-02-09 07:01:44.169082+01

 2017-02-09 07:50:22.857686+01 | 1486623022.85769 |                 0 |              10 |                  5789 |                  407 |             660779 |       1385132 |            13747 |        20968771 |                     0 |      23497715 | 2017-02-09 07:01:44.169082+01

 2017-02-09 07:50:23.921029+01 | 1486623023.92103 |                 0 |              10 |                  5789 |                  407 |             660779 |       1385632 |            13752 |        20968771 |                     0 |      23507811 | 2017-02-09 07:01:44.169082+01

 2017-02-09 07:50:24.980364+01 | 1486623024.98036 |                 0 |              10 |                  5789 |                  407 |             660779 |       1386232 |            13758 |        20968771 |                     0 |      23519462 | 2017-02-09 07:01:44.169082+01

 2017-02-09 07:50:26.041628+01 | 1486623026.04163 |                 0 |              10 |                  5789 |                  407 |             660779 |       1386732 |            13763 |        20968771 |                     0 |      23529043 | 2017-02-09 07:01:44.169082+01

 2017-02-09 07:50:27.10564+01 | 1486623027.10564 |                 0 |              10 |                  5789 |                  407 |             660779 |       1387232 |            13768 |        20968771 |                     0 |      23538043 | 2017-02-09 07:01:44.169082+01

 2017-02-09 07:50:28.168654+01 | 1486623028.16865 |                 0 |              10 |                  5789 |                  407 |             660779 |       1387832 |            13774 |        20968771 |                     0 |      23548924 | 2017-02-09 07:01:44.169082+01

 2017-02-09 07:50:29.235582+01 | 1486623029.23558 |                 0 |              10 |                  5789 |                  407 |             660779 |       1388332 |            13779 |        20968771 |                     0 |      23558349 | 2017-02-09 07:01:44.169082+01

 2017-02-09 07:50:30.306525+01 | 1486623030.30652 |                 0 |              10 |                  5789 |                  407 |             660779 |       1388832 |            13784 |        20968771 |                     0 |      23567002 | 2017-02-09 07:01:44.169082+01

 2017-02-09 07:50:31.375041+01 | 1486623031.37504 |                 0 |              10 |                  5789 |                  407 |             660779 |       1389432 |            13790 |        21028507 |                     0 |      23577664 | 2017-02-09 07:01:44.169082+01

 2017-02-09 07:50:32.45454+01 | 1486623032.45454 |                 0 |              10 |                  5789 |                  407 |             660779 |       1389932 |            13795 |        21028507 |                     0 |      23586476 | 2017-02-09 07:01:44.169082+01

 2017-02-09 07:50:33.537976+01 | 1486623033.53798 |                 0 |              10 |                  5789 |                  407 |             660779 |       1390432 |            13800 |        21028507 |                     0 |      23595136 | 2017-02-09 07:01:44.169082+01

 2017-02-09 07:50:34.607018+01 | 1486623034.60702 |                 0 |              10 |                  5789 |                  407 |             660779 |       1391032 |            13806 |        21028507 |                     0 |      23605733 | 2017-02-09 07:01:44.169082+01

 2017-02-09 07:50:35.67154+01 | 1486623035.67154 |                 0 |              10 |                  5789 |                  407 |             660779 |       1391532 |            13811 |        21028507 |                     0 |      23614906 | 2017-02-09 07:01:44.169082+01

 2017-02-09 07:50:36.741311+01 | 1486623036.74131 |                 0 |              10 |                  5789 |                  407 |             660779 |       1392032 |            13816 |        21028507 |                     0 |      23623540 | 2017-02-09 07:01:44.169082+01

 2017-02-09 07:50:37.803689+01 | 1486623037.80369 |                 0 |              10 |                  5789 |                  407 |             660779 |       1392532 |            13821 |        21028507 |                     0 |      23632083 | 2017-02-09 07:01:44.169082+01

 2017-02-09 07:50:38.880101+01 | 1486623038.8801 |                 0 |              10 |                  5789 |                  407 |             660779 |       1393132 |            13827 |        21028507 |                     0 |      23642462 | 2017-02-09 07:01:44.169082+01

 2017-02-09 07:50:39.950464+01 | 1486623039.95046 |                 0 |              10 |                  5789 |                  407 |             660779 |       1393632 |            13832 |        21028507 |                     0 |      23651131 | 2017-02-09 07:01:44.169082+01

 2017-02-09 07:50:41.028082+01 | 1486623041.02808 |                 0 |              10 |                  5789 |                  407 |             660779 |       1394132 |            13837 |        21089443 |                     0 |      23660089 | 2017-02-09 07:01:44.169082+01

 2017-02-09 07:50:42.091568+01 | 1486623042.09157 |                 0 |              10 |                  5789 |                  407 |             660779 |       1394732 |            13843 |        21089443 |                     0 |      23670398 | 2017-02-09 07:01:44.169082+01

 2017-02-09 07:50:43.162313+01 | 1486623043.16231 |                 0 |              10 |                  5789 |                  407 |             660779 |       1395232 |            13848 |        21089443 |                     0 |      23679103 | 2017-02-09 07:01:44.169082+01

 2017-02-09 07:50:44.236403+01 | 1486623044.2364 |                 0 |              10 |                  5789 |                  407 |             660779 |       1395732 |            13853 |        21089443 |                     0 |      23687474 | 2017-02-09 07:01:44.169082+01

 2017-02-09 07:50:45.304223+01 | 1486623045.30422 |                 0 |              10 |                  5789 |                  407 |             660779 |       1396332 |            13859 |        21089443 |                     0 |      23697803 | 2017-02-09 07:01:44.169082+01

 2017-02-09 07:50:46.362331+01 | 1486623046.36233 |                 0 |              10 |                  5789 |                  407 |             660779 |       1396832 |            13864 |        21089443 |                     0 |      23706460 | 2017-02-09 07:01:44.169082+01

 2017-02-09 07:50:47.422604+01 | 1486623047.4226 |                 0 |              10 |                  5789 |                  407 |             660779 |       1397332 |            13869 |        21089443 |                     0 |      23715487 | 2017-02-09 07:01:44.169082+01

 2017-02-09 07:50:48.50074+01 | 1486623048.50074 |                 0 |              10 |                  5789 |                  407 |             660779 |       1397932 |            13875 |        21089443 |                     0 |      23725812 | 2017-02-09 07:01:44.169082+01

 2017-02-09 07:50:49.566754+01 | 1486623049.56675 |                 0 |              10 |                  5789 |                  407 |             660779 |       1398432 |            13880 |        21089443 |                     0 |      23734456 | 2017-02-09 07:01:44.169082+01

 2017-02-09 07:50:50.636583+01 | 1486623050.63658 |                 0 |              10 |                  5789 |                  407 |             660779 |       1398932 |            13885 |        21150280 |                     0 |      23743026 | 2017-02-09 07:01:44.169082+01

 2017-02-09 07:50:51.703497+01 | 1486623051.7035 |                 0 |              10 |                  5789 |                  407 |             660779 |       1399532 |            13891 |        21150280 |                     0 |      23753454 | 2017-02-09 07:01:44.169082+01

 2017-02-09 07:50:52.781974+01 | 1486623052.78197 |                 0 |              10 |                  5789 |                  407 |             660779 |       1400032 |            13896 |        21150280 |                     0 |      23762065 | 2017-02-09 07:01:44.169082+01

 2017-02-09 07:50:53.839229+01 | 1486623053.83923 |                 0 |              10 |                  5789 |                  407 |             660779 |       1400532 |            13901 |        21150280 |                     0 |      23771027 | 2017-02-09 07:01:44.169082+01

 2017-02-09 07:50:54.911143+01 | 1486623054.91114 |                 0 |              10 |                  5789 |                  407 |             660779 |       1401132 |            13907 |        21150280 |                     0 |      23781289 | 2017-02-09 07:01:44.169082+01

 2017-02-09 07:50:55.982463+01 | 1486623055.98246 |                 0 |              10 |                  5789 |                  407 |             660779 |       1401632 |            13912 |        21150280 |                     0 |      23789746 | 2017-02-09 07:01:44.169082+01

 2017-02-09 07:50:57.043323+01 | 1486623057.04332 |                 0 |              10 |                  5789 |                  407 |             660779 |       1402132 |            13917 |        21150280 |                     0 |      23798140 | 2017-02-09 07:01:44.169082+01

 2017-02-09 07:50:58.11691+01 | 1486623058.11691 |                 0 |              10 |                  5789 |                  407 |             660779 |       1402632 |            13922 |        21150280 |                     0 |      23806678 | 2017-02-09 07:01:44.169082+01

 2017-02-09 07:50:59.179702+01 | 1486623059.1797 |                 0 |              10 |                  5789 |                  407 |             660779 |       1403232 |            13928 |        21150280 |                     0 |      23816828 | 2017-02-09 07:01:44.169082+01

 2017-02-09 07:51:00.249888+01 | 1486623060.24989 |                 0 |              10 |                  5789 |                  407 |             660779 |       1403732 |            13933 |        21211018 |                     0 |      23825706 | 2017-02-09 07:01:44.169082+01

 2017-02-09 07:51:01.306597+01 | 1486623061.3066 |                 0 |              10 |                  5789 |                  407 |             660779 |       1404232 |            13938 |        21211018 |                     0 |      23833885 | 2017-02-09 07:01:44.169082+01

 2017-02-09 07:51:02.377727+01 | 1486623062.37773 |                 0 |              10 |                  5789 |                  407 |             660779 |       1404832 |            13944 |        21211018 |                     0 |      23844169 | 2017-02-09 07:01:44.169082+01

 2017-02-09 07:51:03.441076+01 | 1486623063.44108 |                 0 |              10 |                  5789 |                  407 |             660779 |       1405332 |            13949 |        21211018 |                     0 |      23852531 | 2017-02-09 07:01:44.169082+01

 2017-02-09 07:51:04.508102+01 | 1486623064.5081 |                 0 |              10 |                  5789 |                  407 |             660779 |       1405832 |            13954 |        21211018 |                     0 |      23861360 | 2017-02-09 07:01:44.169082+01

 2017-02-09 07:51:05.568374+01 | 1486623065.56837 |                 0 |              10 |                  5789 |                  407 |             660779 |       1406432 |            13960 |        21211018 |                     0 |      23871509 | 2017-02-09 07:01:44.169082+01

 2017-02-09 07:51:06.638653+01 | 1486623066.63865 |                 0 |              10 |                  5789 |                  407 |             660779 |       1406932 |            13965 |        21211018 |                     0 |      23879961 | 2017-02-09 07:01:44.169082+01

 2017-02-09 07:51:07.701111+01 | 1486623067.70111 |                 0 |              10 |                  5789 |                  407 |             660779 |       1407432 |            13970 |        21211018 |                     0 |      23888446 | 2017-02-09 07:01:44.169082+01

 2017-02-09 07:51:08.757937+01 | 1486623068.75794 |                 0 |              10 |                  5789 |                  407 |             660779 |       1408032 |            13976 |        21211018 |                     0 |      23898700 | 2017-02-09 07:01:44.169082+01

 2017-02-09 07:51:09.829055+01 | 1486623069.82906 |                 0 |              10 |                  5789 |                  407 |             660779 |       1408532 |            13981 |        21271654 |                     0 |      23907120 | 2017-02-09 07:01:44.169082+01

 2017-02-09 07:51:10.889177+01 | 1486623070.88918 |                 0 |              10 |                  5789 |                  407 |             660779 |       1409032 |            13986 |        21271654 |                     0 |      23916010 | 2017-02-09 07:01:44.169082+01

 2017-02-09 07:51:11.957487+01 | 1486623071.95749 |                 0 |              10 |                  5789 |                  407 |             660779 |       1409532 |            13991 |        21271654 |                     0 |      23924587 | 2017-02-09 07:01:44.169082+01

 2017-02-09 07:51:13.038689+01 | 1486623073.03869 |                 0 |              10 |                  5789 |                  407 |             660779 |       1410132 |            13997 |        21271654 |                     0 |      23934885 | 2017-02-09 07:01:44.169082+01

 2017-02-09 07:51:14.111178+01 | 1486623074.11118 |                 0 |              10 |                  5789 |                  407 |             660779 |       1410632 |            14002 |        21271654 |                     0 |      23943464 | 2017-02-09 07:01:44.169082+01

 2017-02-09 07:51:15.183692+01 | 1486623075.18369 |                 0 |              10 |                  5789 |                  407 |             660779 |       1411132 |            14007 |        21271654 |                     0 |      23952033 | 2017-02-09 07:01:44.169082+01

 2017-02-09 07:51:16.23725+01 | 1486623076.23725 |                 0 |              10 |                  5789 |                  407 |             660779 |       1411632 |            14012 |        21271654 |                     0 |      23960537 | 2017-02-09 07:01:44.169082+01

 2017-02-09 07:51:17.319921+01 | 1486623077.31992 |                 0 |              10 |                  5789 |                  407 |             660779 |       1412232 |            14018 |        21271654 |                     0 |      23970852 | 2017-02-09 07:01:44.169082+01

 2017-02-09 07:51:18.391562+01 | 1486623078.39156 |                 0 |              10 |                  5789 |                  407 |             660779 |       1412732 |            14023 |        21332690 |                     0 |      23979280 | 2017-02-09 07:01:44.169082+01

 2017-02-09 07:51:19.47811+01 | 1486623079.47811 |                 0 |              10 |                  5789 |                  407 |             660779 |       1413332 |            14029 |        21332690 |                     0 |      23989555 | 2017-02-09 07:01:44.169082+01

 2017-02-09 07:51:20.558187+01 | 1486623080.55819 |                 0 |              10 |                  5789 |                  407 |             660779 |       1413832 |            14034 |        21332690 |                     0 |      23997997 | 2017-02-09 07:01:44.169082+01

 2017-02-09 07:51:21.640617+01 | 1486623081.64062 |                 0 |              10 |                  5789 |                  407 |             660779 |       1414432 |            14040 |        21332690 |                     0 |      24007965 | 2017-02-09 07:01:44.169082+01

 2017-02-09 07:51:22.702526+01 | 1486623082.70253 |                 0 |              10 |                  5789 |                  407 |             660779 |       1414932 |            14045 |        21332690 |                     0 |      24016643 | 2017-02-09 07:01:44.169082+01

 2017-02-09 07:51:23.764005+01 | 1486623083.764 |                 0 |              10 |                  5789 |                  407 |             660779 |       1415432 |            14050 |        21332690 |                     0 |      24025143 | 2017-02-09 07:01:44.169082+01

 2017-02-09 07:51:24.826329+01 | 1486623084.82633 |                 0 |              10 |                  5789 |                  407 |             660779 |       1415932 |            14055 |        21332690 |                     0 |      24033581 | 2017-02-09 07:01:44.169082+01

 2017-02-09 07:51:25.89234+01 | 1486623085.89234 |                 0 |              10 |                  5789 |                  407 |             660779 |       1416532 |            14061 |        21332690 |                     0 |      24043867 | 2017-02-09 07:01:44.169082+01

 2017-02-09 07:51:26.956497+01 | 1486623086.9565 |                 0 |              10 |                  5789 |                  407 |             660779 |       1417032 |            14066 |        21394227 |                     0 |      24052509 | 2017-02-09 07:01:44.169082+01

 2017-02-09 07:51:28.031747+01 | 1486623088.03175 |                 0 |              10 |                  5789 |                  407 |             660779 |       1417532 |            14071 |        21394227 |                     0 |      24061112 | 2017-02-09 07:01:44.169082+01

 2017-02-09 07:51:29.102987+01 | 1486623089.10299 |                 0 |              10 |                  5789 |                  407 |             660779 |       1418132 |            14077 |        21394227 |                     0 |      24071453 | 2017-02-09 07:01:44.169082+01

 2017-02-09 07:51:30.169183+01 | 1486623090.16918 |                 0 |              10 |                  5789 |                  407 |             660779 |       1418632 |            14082 |        21394227 |                     0 |      24080006 | 2017-02-09 07:01:44.169082+01

 2017-02-09 07:51:31.231726+01 | 1486623091.23173 |                 0 |              10 |                  5789 |                  407 |             660779 |       1419132 |            14087 |        21394227 |                     0 |      24088527 | 2017-02-09 07:01:44.169082+01

 2017-02-09 07:51:32.304706+01 | 1486623092.30471 |                 0 |              10 |                  5789 |                  407 |             660779 |       1419732 |            14093 |        21394227 |                     0 |      24098812 | 2017-02-09 07:01:44.169082+01

 2017-02-09 07:51:33.375041+01 | 1486623093.37504 |                 0 |              10 |                  5789 |                  407 |             660779 |       1420232 |            14098 |        21394227 |                     0 |      24107419 | 2017-02-09 07:01:44.169082+01

 2017-02-09 07:51:34.4474+01 | 1486623094.4474 |                 0 |              10 |                  5789 |                  407 |             660779 |       1420732 |            14103 |        21455864 |                     0 |      24115944 | 2017-02-09 07:01:44.169082+01

 2017-02-09 07:51:35.527486+01 | 1486623095.52749 |                 0 |              10 |                  5789 |                  407 |             660779 |       1421332 |            14109 |        21455864 |                     0 |      24126189 | 2017-02-09 07:01:44.169082+01

 2017-02-09 07:51:36.616042+01 | 1486623096.61604 |                 0 |              10 |                  5789 |                  407 |             660779 |       1421832 |            14114 |        21455864 |                     0 |      24133917 | 2017-02-09 07:01:44.169082+01

 2017-02-09 07:51:37.686304+01 | 1486623097.6863 |                 0 |              10 |                  5789 |                  407 |             660779 |       1422332 |            14119 |        21455864 |                     0 |      24142447 | 2017-02-09 07:01:44.169082+01

 2017-02-09 07:51:38.760633+01 | 1486623098.76063 |                 0 |              10 |                  5789 |                  407 |             660779 |       1422932 |            14125 |        21455864 |                     0 |      24152697 | 2017-02-09 07:01:44.169082+01

 2017-02-09 07:51:39.833089+01 | 1486623099.83309 |                 0 |              10 |                  5789 |                  407 |             660779 |       1423432 |            14130 |        21455864 |                     0 |      24161123 | 2017-02-09 07:01:44.169082+01

 2017-02-09 07:51:40.921298+01 | 1486623100.9213 |                 0 |              10 |                  5789 |                  407 |             660779 |       1423932 |            14135 |        21455864 |                     0 |      24169589 | 2017-02-09 07:01:44.169082+01

 2017-02-09 07:51:41.989229+01 | 1486623101.98923 |                 0 |              10 |                  5789 |                  407 |             660779 |       1424532 |            14141 |        21455864 |                     0 |      24179844 | 2017-02-09 07:01:44.169082+01

 2017-02-09 07:51:43.057807+01 | 1486623103.05781 |                 0 |              10 |                  5789 |                  407 |             660779 |       1425032 |            14146 |        21517300 |                     0 |      24188348 | 2017-02-09 07:01:44.169082+01

 2017-02-09 07:51:44.125027+01 | 1486623104.12503 |                 0 |              10 |                  5789 |                  407 |             660779 |       1425532 |            14151 |        21517300 |                     0 |      24196909 | 2017-02-09 07:01:44.169082+01

 2017-02-09 07:51:45.194613+01 | 1486623105.19461 |                 0 |              10 |                  5789 |                  407 |             660779 |       1426132 |            14157 |        21517300 |                     0 |      24207283 | 2017-02-09 07:01:44.169082+01

 2017-02-09 07:51:46.263748+01 | 1486623106.26375 |                 0 |              10 |                  5789 |                  407 |             660779 |       1426632 |            14162 |        21517300 |                     0 |      24215766 | 2017-02-09 07:01:44.169082+01

 2017-02-09 07:51:47.315609+01 | 1486623107.31561 |                 0 |              10 |                  5789 |                  407 |             660779 |       1427132 |            14167 |        21517300 |                     0 |      24224266 | 2017-02-09 07:01:44.169082+01

 2017-02-09 07:51:48.407696+01 | 1486623108.4077 |                 0 |              10 |                  5789 |                  407 |             660779 |       1427732 |            14173 |        21517300 |                     0 |      24234519 | 2017-02-09 07:01:44.169082+01

 2017-02-09 07:51:49.480574+01 | 1486623109.48057 |                 0 |              10 |                  5789 |                  407 |             660779 |       1428232 |            14178 |        21517300 |                     0 |      24242942 | 2017-02-09 07:01:44.169082+01

 2017-02-09 07:51:50.547391+01 | 1486623110.54739 |                 0 |              10 |                  5789 |                  407 |             660779 |       1428732 |            14183 |        21578937 |                     0 |      24251452 | 2017-02-09 07:01:44.169082+01

 2017-02-09 07:51:51.622452+01 | 1486623111.62245 |                 0 |              10 |                  5789 |                  407 |             660779 |       1429232 |            14188 |        21578937 |                     0 |      24259989 | 2017-02-09 07:01:44.169082+01

 2017-02-09 07:51:52.684432+01 | 1486623112.68443 |                 0 |              10 |                  5789 |                  407 |             660779 |       1429832 |            14194 |        21578937 |                     0 |      24270332 | 2017-02-09 07:01:44.169082+01

 2017-02-09 07:51:53.770044+01 | 1486623113.77004 |                 0 |              10 |                  5789 |                  407 |             660779 |       1430332 |            14199 |        21578937 |                     0 |      24278943 | 2017-02-09 07:01:44.169082+01

 2017-02-09 07:51:54.853636+01 | 1486623114.85364 |                 0 |              10 |                  5789 |                  407 |             660779 |       1430932 |            14205 |        21578937 |                     0 |      24289289 | 2017-02-09 07:01:44.169082+01

 2017-02-09 07:51:55.920758+01 | 1486623115.92076 |                 0 |              10 |                  5789 |                  407 |             660779 |       1431432 |            14210 |        21578937 |                     0 |      24297679 | 2017-02-09 07:01:44.169082+01

 2017-02-09 07:51:56.981348+01 | 1486623116.98135 |                 0 |              10 |                  5789 |                  407 |             660779 |       1431932 |            14215 |        21578937 |                     0 |      24306160 | 2017-02-09 07:01:44.169082+01

 2017-02-09 07:51:58.057375+01 | 1486623118.05737 |                 0 |              10 |                  5789 |                  407 |             660779 |       1432432 |            14220 |        21578937 |                     0 |      24314768 | 2017-02-09 07:01:44.169082+01

 2017-02-09 07:51:59.121441+01 | 1486623119.12144 |                 0 |              10 |                  5789 |                  407 |             660779 |       1433032 |            14226 |        21640475 |                     0 |      24325059 | 2017-02-09 07:01:44.169082+01

 2017-02-09 07:52:00.185206+01 | 1486623120.18521 |                 0 |              10 |                  5789 |                  407 |             660779 |       1433532 |            14231 |        21640475 |                     0 |      24333493 | 2017-02-09 07:01:44.169082+01

 2017-02-09 07:52:01.256066+01 | 1486623121.25607 |                 0 |              10 |                  5789 |                  407 |             660779 |       1434032 |            14236 |        21640475 |                     0 |      24341851 | 2017-02-09 07:01:44.169082+01

 2017-02-09 07:52:02.323478+01 | 1486623122.32348 |                 0 |              10 |                  5789 |                  407 |             660779 |       1434632 |            14242 |        21640475 |                     0 |      24352137 | 2017-02-09 07:01:44.169082+01

 2017-02-09 07:52:03.38782+01 | 1486623123.38782 |                 0 |              10 |                  5789 |                  407 |             660779 |       1435132 |            14247 |        21640475 |                     0 |      24360652 | 2017-02-09 07:01:44.169082+01

 2017-02-09 07:52:04.456291+01 | 1486623124.45629 |                 0 |              10 |                  5789 |                  407 |             660779 |       1435632 |            14252 |        21640475 |                     0 |      24369147 | 2017-02-09 07:01:44.169082+01

 2017-02-09 07:52:05.53113+01 | 1486623125.53113 |                 0 |              10 |                  5789 |                  407 |             660779 |       1436232 |            14258 |        21640475 |                     0 |      24379459 | 2017-02-09 07:01:44.169082+01

 2017-02-09 07:52:06.610968+01 | 1486623126.61097 |                 0 |              10 |                  5789 |                  407 |             660779 |       1436732 |            14263 |        21702112 |                     0 |      24388003 | 2017-02-09 07:01:44.169082+01

 2017-02-09 07:52:07.689158+01 | 1486623127.68916 |                 0 |              10 |                  5789 |                  407 |             660779 |       1437232 |            14268 |        21702112 |                     0 |      24396395 | 2017-02-09 07:01:44.169082+01

 2017-02-09 07:52:08.757809+01 | 1486623128.75781 |                 0 |              10 |                  5789 |                  407 |             660779 |       1437832 |            14274 |        21702112 |                     0 |      24406547 | 2017-02-09 07:01:44.169082+01

 2017-02-09 07:52:09.814823+01 | 1486623129.81482 |                 0 |              10 |                  5789 |                  407 |             660779 |       1438332 |            14279 |        21702112 |                     0 |      24415083 | 2017-02-09 07:01:44.169082+01

 2017-02-09 07:52:10.880512+01 | 1486623130.88051 |                 0 |              10 |                  5789 |                  407 |             660779 |       1438832 |            14284 |        21702112 |                     0 |      24423528 | 2017-02-09 07:01:44.169082+01

 2017-02-09 07:52:11.948867+01 | 1486623131.94887 |                 0 |              10 |                  5789 |                  407 |             660779 |       1439432 |            14290 |        21702112 |                     0 |      24433682 | 2017-02-09 07:01:44.169082+01

 2017-02-09 07:52:13.016537+01 | 1486623133.01654 |                 0 |              10 |                  5789 |                  407 |             660779 |       1439932 |            14295 |        21702112 |                     0 |      24442178 | 2017-02-09 07:01:44.169082+01

 2017-02-09 07:52:14.085362+01 | 1486623134.08536 |                 0 |              10 |                  5789 |                  407 |             660779 |       1440432 |            14300 |        21702112 |                     0 |      24450618 | 2017-02-09 07:01:44.169082+01

 2017-02-09 07:52:15.14734+01 | 1486623135.14734 |                 0 |              10 |                  5789 |                  407 |             660779 |       1441032 |            14306 |        21763648 |                     0 |      24460758 | 2017-02-09 07:01:44.169082+01

 2017-02-09 07:52:16.209259+01 | 1486623136.20926 |                 0 |              10 |                  5789 |                  407 |             660779 |       1441432 |            14310 |        21763648 |                     0 |      24467381 | 2017-02-09 07:01:44.169082+01

 2017-02-09 07:52:17.285254+01 | 1486623137.28525 |                 0 |              10 |                  5789 |                  407 |             660779 |       1442032 |            14316 |        21763648 |                     0 |      24477592 | 2017-02-09 07:01:44.169082+01

 2017-02-09 07:52:18.343316+01 | 1486623138.34332 |                 0 |              10 |                  5789 |                  407 |             660779 |       1442532 |            14321 |        21763648 |                     0 |      24485692 | 2017-02-09 07:01:44.169082+01

 2017-02-09 07:52:19.411016+01 | 1486623139.41102 |                 0 |              10 |                  5789 |                  407 |             660779 |       1443132 |            14327 |        21763648 |                     0 |      24495666 | 2017-02-09 07:01:44.169082+01

 2017-02-09 07:52:20.483533+01 | 1486623140.48353 |                 0 |              10 |                  5789 |                  407 |             660779 |       1443632 |            14332 |        21763648 |                     0 |      24503753 | 2017-02-09 07:01:44.169082+01

 2017-02-09 07:52:21.555414+01 | 1486623141.55541 |                 0 |              10 |                  5789 |                  407 |             660779 |       1444132 |            14337 |        21763648 |                     0 |      24511824 | 2017-02-09 07:01:44.169082+01

 2017-02-09 07:52:22.618638+01 | 1486623142.61864 |                 0 |              10 |                  5789 |                  407 |             660779 |       1444732 |            14343 |        21763648 |                     0 |      24521376 | 2017-02-09 07:01:44.169082+01

 2017-02-09 07:52:23.688938+01 | 1486623143.68894 |                 0 |              10 |                  5789 |                  407 |             660779 |       1445232 |            14348 |        21824984 |                     0 |      24529285 | 2017-02-09 07:01:44.169082+01

 2017-02-09 07:52:24.751659+01 | 1486623144.75166 |                 0 |              10 |                  5789 |                  407 |             660779 |       1445732 |            14353 |        21824984 |                     0 |      24537200 | 2017-02-09 07:01:44.169082+01

 2017-02-09 07:52:25.822748+01 | 1486623145.82275 |                 0 |              10 |                  5789 |                  407 |             660779 |       1446332 |            14359 |        21824984 |                     0 |      24546929 | 2017-02-09 07:01:44.169082+01

 2017-02-09 07:52:26.888454+01 | 1486623146.88845 |                 0 |              10 |                  5789 |                  407 |             660779 |       1446832 |            14364 |        21824984 |                     0 |      24555447 | 2017-02-09 07:01:44.169082+01

 2017-02-09 07:52:27.949821+01 | 1486623147.94982 |                 0 |              10 |                  5789 |                  407 |             660779 |       1447332 |            14369 |        21824984 |                     0 |      24564274 | 2017-02-09 07:01:44.169082+01

 2017-02-09 07:52:29.009892+01 | 1486623149.00989 |                 0 |              10 |                  5789 |                  407 |             660779 |       1447832 |            14374 |        21824984 |                     0 |      24572657 | 2017-02-09 07:01:44.169082+01

 2017-02-09 07:52:30.068965+01 | 1486623150.06896 |                 0 |              10 |                  5789 |                  407 |             660779 |       1448432 |            14380 |        21824984 |                     0 |      24582670 | 2017-02-09 07:01:44.169082+01

 2017-02-09 07:52:31.140162+01 | 1486623151.14016 |                 0 |              10 |                  5789 |                  407 |             660779 |       1448932 |            14385 |        21886421 |                     0 |      24591334 | 2017-02-09 07:01:44.169082+01

 2017-02-09 07:52:32.217693+01 | 1486623152.21769 |                 0 |              10 |                  5789 |                  407 |             660779 |       1449432 |            14390 |        21886421 |                     0 |      24599727 | 2017-02-09 07:01:44.169082+01

 2017-02-09 07:52:33.290821+01 | 1486623153.29082 |                 0 |              10 |                  5789 |                  407 |             660779 |       1450032 |            14396 |        21886421 |                     0 |      24610018 | 2017-02-09 07:01:44.169082+01

 2017-02-09 07:52:34.355589+01 | 1486623154.35559 |                 0 |              10 |                  5789 |                  407 |             660779 |       1450532 |            14401 |        21886421 |                     0 |      24618571 | 2017-02-09 07:01:44.169082+01

 2017-02-09 07:52:35.41385+01 | 1486623155.41385 |                 0 |              10 |                  5789 |                  407 |             660779 |       1451032 |            14406 |        21886421 |                     0 |      24627058 | 2017-02-09 07:01:44.169082+01

 2017-02-09 07:52:36.479035+01 | 1486623156.47903 |                 0 |              10 |                  5789 |                  407 |             660779 |       1451632 |            14412 |        21886421 |                     0 |      24637152 | 2017-02-09 07:01:44.169082+01

 2017-02-09 07:52:37.547293+01 | 1486623157.54729 |                 0 |              10 |                  5789 |                  407 |             660779 |       1452132 |            14417 |        21886421 |                     0 |      24645769 | 2017-02-09 07:01:44.169082+01

 2017-02-09 07:52:38.605057+01 | 1486623158.60506 |                 0 |              10 |                  5789 |                  407 |             660779 |       1452632 |            14422 |        21886421 |                     0 |      24654273 | 2017-02-09 07:01:44.169082+01

 2017-02-09 07:52:39.664194+01 | 1486623159.66419 |                 0 |              10 |                  5789 |                  407 |             660779 |       1453132 |            14427 |        21948057 |                     0 |      24662805 | 2017-02-09 07:01:44.169082+01

 2017-02-09 07:52:40.733538+01 | 1486623160.73354 |                 0 |              10 |                  5789 |                  407 |             660779 |       1453732 |            14433 |        21948057 |                     0 |      24672984 | 2017-02-09 07:01:44.169082+01

 2017-02-09 07:52:41.794757+01 | 1486623161.79476 |                 0 |              10 |                  5789 |                  407 |             660779 |       1454232 |            14438 |        21948057 |                     0 |      24681457 | 2017-02-09 07:01:44.169082+01

