 2017-02-08 13:28:01.849444+01 | 1486556881.84944 | pgbench_accounts |        686850048
 2017-02-08 13:28:01.849444+01 | 1486556881.84944 | pgbench_tellers  |          1966080
 2017-02-08 13:28:01.849444+01 | 1486556881.84944 | pgbench_history  |           352256
 2017-02-08 13:28:01.849444+01 | 1486556881.84944 | pgbench_branches |           589824

 2017-02-08 13:28:02.937874+01 | 1486556882.93787 | pgbench_accounts |        686850048
 2017-02-08 13:28:02.937874+01 | 1486556882.93787 | pgbench_tellers  |          1966080
 2017-02-08 13:28:02.937874+01 | 1486556882.93787 | pgbench_history  |           712704
 2017-02-08 13:28:02.937874+01 | 1486556882.93787 | pgbench_branches |           589824

 2017-02-08 13:28:04.038991+01 | 1486556884.03899 | pgbench_accounts |        686850048
 2017-02-08 13:28:04.038991+01 | 1486556884.03899 | pgbench_tellers  |          1966080
 2017-02-08 13:28:04.038991+01 | 1486556884.03899 | pgbench_history  |          1433600
 2017-02-08 13:28:04.038991+01 | 1486556884.03899 | pgbench_branches |           589824

 2017-02-08 13:28:05.133997+01 | 1486556885.134 | pgbench_accounts |        686850048
 2017-02-08 13:28:05.133997+01 | 1486556885.134 | pgbench_tellers  |          1966080
 2017-02-08 13:28:05.133997+01 | 1486556885.134 | pgbench_history  |          2146304
 2017-02-08 13:28:05.133997+01 | 1486556885.134 | pgbench_branches |           589824

 2017-02-08 13:28:06.213779+01 | 1486556886.21378 | pgbench_accounts |        686850048
 2017-02-08 13:28:06.213779+01 | 1486556886.21378 | pgbench_tellers  |          1966080
 2017-02-08 13:28:06.213779+01 | 1486556886.21378 | pgbench_history  |          2949120
 2017-02-08 13:28:06.213779+01 | 1486556886.21378 | pgbench_branches |           589824

 2017-02-08 13:28:07.31209+01 | 1486556887.31209 | pgbench_accounts |        686850048
 2017-02-08 13:28:07.31209+01 | 1486556887.31209 | pgbench_tellers  |          1966080
 2017-02-08 13:28:07.31209+01 | 1486556887.31209 | pgbench_history  |          3604480
 2017-02-08 13:28:07.31209+01 | 1486556887.31209 | pgbench_branches |           589824

 2017-02-08 13:28:08.384965+01 | 1486556888.38496 | pgbench_accounts |        686850048
 2017-02-08 13:28:08.384965+01 | 1486556888.38496 | pgbench_tellers  |          1966080
 2017-02-08 13:28:08.384965+01 | 1486556888.38496 | pgbench_history  |          4276224
 2017-02-08 13:28:08.384965+01 | 1486556888.38496 | pgbench_branches |           589824

 2017-02-08 13:28:09.476658+01 | 1486556889.47666 | pgbench_accounts |        686850048
 2017-02-08 13:28:09.476658+01 | 1486556889.47666 | pgbench_tellers  |          1966080
 2017-02-08 13:28:09.476658+01 | 1486556889.47666 | pgbench_history  |          5029888
 2017-02-08 13:28:09.476658+01 | 1486556889.47666 | pgbench_branches |           589824

 2017-02-08 13:28:10.60451+01 | 1486556890.60451 | pgbench_accounts |        686850048
 2017-02-08 13:28:10.60451+01 | 1486556890.60451 | pgbench_tellers  |          1966080
 2017-02-08 13:28:10.60451+01 | 1486556890.60451 | pgbench_history  |          6348800
 2017-02-08 13:28:10.60451+01 | 1486556890.60451 | pgbench_branches |           589824

 2017-02-08 13:28:11.681708+01 | 1486556891.68171 | pgbench_accounts |        686850048
 2017-02-08 13:28:11.681708+01 | 1486556891.68171 | pgbench_tellers  |          1966080
 2017-02-08 13:28:11.681708+01 | 1486556891.68171 | pgbench_history  |          7430144
 2017-02-08 13:28:11.681708+01 | 1486556891.68171 | pgbench_branches |           589824

 2017-02-08 13:28:12.794721+01 | 1486556892.79472 | pgbench_accounts |        686850048
 2017-02-08 13:28:12.794721+01 | 1486556892.79472 | pgbench_tellers  |          1966080
 2017-02-08 13:28:12.794721+01 | 1486556892.79472 | pgbench_history  |          7430144
 2017-02-08 13:28:12.794721+01 | 1486556892.79472 | pgbench_branches |           589824

 2017-02-08 13:28:13.887118+01 | 1486556893.88712 | pgbench_accounts |        686850048
 2017-02-08 13:28:13.887118+01 | 1486556893.88712 | pgbench_tellers  |          1966080
 2017-02-08 13:28:13.887118+01 | 1486556893.88712 | pgbench_history  |          8019968
 2017-02-08 13:28:13.887118+01 | 1486556893.88712 | pgbench_branches |           589824

 2017-02-08 13:28:14.987047+01 | 1486556894.98705 | pgbench_accounts |        686850048
 2017-02-08 13:28:14.987047+01 | 1486556894.98705 | pgbench_tellers  |          1966080
 2017-02-08 13:28:14.987047+01 | 1486556894.98705 | pgbench_history  |          8708096
 2017-02-08 13:28:14.987047+01 | 1486556894.98705 | pgbench_branches |           589824

 2017-02-08 13:28:16.074521+01 | 1486556896.07452 | pgbench_accounts |        686850048
 2017-02-08 13:28:16.074521+01 | 1486556896.07452 | pgbench_tellers  |          1966080
 2017-02-08 13:28:16.074521+01 | 1486556896.07452 | pgbench_history  |          9428992
 2017-02-08 13:28:16.074521+01 | 1486556896.07452 | pgbench_branches |           589824

 2017-02-08 13:28:17.15585+01 | 1486556897.15585 | pgbench_accounts |        686850048
 2017-02-08 13:28:17.15585+01 | 1486556897.15585 | pgbench_tellers  |          1966080
 2017-02-08 13:28:17.15585+01 | 1486556897.15585 | pgbench_history  |         10117120
 2017-02-08 13:28:17.15585+01 | 1486556897.15585 | pgbench_branches |           589824

 2017-02-08 13:28:18.231718+01 | 1486556898.23172 | pgbench_accounts |        686850048
 2017-02-08 13:28:18.231718+01 | 1486556898.23172 | pgbench_tellers  |          1966080
 2017-02-08 13:28:18.231718+01 | 1486556898.23172 | pgbench_history  |         10928128
 2017-02-08 13:28:18.231718+01 | 1486556898.23172 | pgbench_branches |           589824

 2017-02-08 13:28:19.347575+01 | 1486556899.34757 | pgbench_accounts |        686850048
 2017-02-08 13:28:19.347575+01 | 1486556899.34757 | pgbench_tellers  |          1966080
 2017-02-08 13:28:19.347575+01 | 1486556899.34757 | pgbench_history  |         11526144
 2017-02-08 13:28:19.347575+01 | 1486556899.34757 | pgbench_branches |           589824

 2017-02-08 13:28:20.463719+01 | 1486556900.46372 | pgbench_accounts |        686850048
 2017-02-08 13:28:20.463719+01 | 1486556900.46372 | pgbench_tellers  |          1966080
 2017-02-08 13:28:20.463719+01 | 1486556900.46372 | pgbench_history  |         12435456
 2017-02-08 13:28:20.463719+01 | 1486556900.46372 | pgbench_branches |           589824

 2017-02-08 13:28:21.539686+01 | 1486556901.53969 | pgbench_accounts |        686850048
 2017-02-08 13:28:21.539686+01 | 1486556901.53969 | pgbench_tellers  |          1966080
 2017-02-08 13:28:21.539686+01 | 1486556901.53969 | pgbench_history  |         12959744
 2017-02-08 13:28:21.539686+01 | 1486556901.53969 | pgbench_branches |           589824

 2017-02-08 13:28:22.652653+01 | 1486556902.65265 | pgbench_accounts |        686850048
 2017-02-08 13:28:22.652653+01 | 1486556902.65265 | pgbench_tellers  |          1966080
 2017-02-08 13:28:22.652653+01 | 1486556902.65265 | pgbench_history  |         13729792
 2017-02-08 13:28:22.652653+01 | 1486556902.65265 | pgbench_branches |           589824

 2017-02-08 13:28:23.781696+01 | 1486556903.7817 | pgbench_accounts |        686850048
 2017-02-08 13:28:23.781696+01 | 1486556903.7817 | pgbench_tellers  |          1966080
 2017-02-08 13:28:23.781696+01 | 1486556903.7817 | pgbench_history  |         14401536
 2017-02-08 13:28:23.781696+01 | 1486556903.7817 | pgbench_branches |           589824

 2017-02-08 13:28:24.889868+01 | 1486556904.88987 | pgbench_accounts |        686850048
 2017-02-08 13:28:24.889868+01 | 1486556904.88987 | pgbench_tellers  |          1966080
 2017-02-08 13:28:24.889868+01 | 1486556904.88987 | pgbench_history  |         15130624
 2017-02-08 13:28:24.889868+01 | 1486556904.88987 | pgbench_branches |           589824

 2017-02-08 13:28:26.012278+01 | 1486556906.01228 | pgbench_accounts |        686850048
 2017-02-08 13:28:26.012278+01 | 1486556906.01228 | pgbench_tellers  |          1966080
 2017-02-08 13:28:26.012278+01 | 1486556906.01228 | pgbench_history  |         15835136
 2017-02-08 13:28:26.012278+01 | 1486556906.01228 | pgbench_branches |           589824

 2017-02-08 13:28:27.142879+01 | 1486556907.14288 | pgbench_accounts |        686850048
 2017-02-08 13:28:27.142879+01 | 1486556907.14288 | pgbench_tellers  |          1966080
 2017-02-08 13:28:27.142879+01 | 1486556907.14288 | pgbench_history  |         17022976
 2017-02-08 13:28:27.142879+01 | 1486556907.14288 | pgbench_branches |           589824

 2017-02-08 13:28:28.243259+01 | 1486556908.24326 | pgbench_accounts |        686850048
 2017-02-08 13:28:28.243259+01 | 1486556908.24326 | pgbench_tellers  |          1966080
 2017-02-08 13:28:28.243259+01 | 1486556908.24326 | pgbench_history  |         17375232
 2017-02-08 13:28:28.243259+01 | 1486556908.24326 | pgbench_branches |           589824

 2017-02-08 13:28:29.352582+01 | 1486556909.35258 | pgbench_accounts |        686850048
 2017-02-08 13:28:29.352582+01 | 1486556909.35258 | pgbench_tellers  |          1966080
 2017-02-08 13:28:29.352582+01 | 1486556909.35258 | pgbench_history  |         18137088
 2017-02-08 13:28:29.352582+01 | 1486556909.35258 | pgbench_branches |           589824

 2017-02-08 13:28:30.463246+01 | 1486556910.46325 | pgbench_accounts |        686850048
 2017-02-08 13:28:30.463246+01 | 1486556910.46325 | pgbench_tellers  |          1966080
 2017-02-08 13:28:30.463246+01 | 1486556910.46325 | pgbench_history  |         18841600
 2017-02-08 13:28:30.463246+01 | 1486556910.46325 | pgbench_branches |           589824

 2017-02-08 13:28:31.575403+01 | 1486556911.5754 | pgbench_accounts |        686850048
 2017-02-08 13:28:31.575403+01 | 1486556911.5754 | pgbench_tellers  |          1966080
 2017-02-08 13:28:31.575403+01 | 1486556911.5754 | pgbench_history  |         19595264
 2017-02-08 13:28:31.575403+01 | 1486556911.5754 | pgbench_branches |           589824

 2017-02-08 13:28:32.665118+01 | 1486556912.66512 | pgbench_accounts |        686850048
 2017-02-08 13:28:32.665118+01 | 1486556912.66512 | pgbench_tellers  |          1966080
 2017-02-08 13:28:32.665118+01 | 1486556912.66512 | pgbench_history  |         20340736
 2017-02-08 13:28:32.665118+01 | 1486556912.66512 | pgbench_branches |           589824

 2017-02-08 13:28:33.772339+01 | 1486556913.77234 | pgbench_accounts |        686850048
 2017-02-08 13:28:33.772339+01 | 1486556913.77234 | pgbench_tellers  |          1966080
 2017-02-08 13:28:33.772339+01 | 1486556913.77234 | pgbench_history  |         21086208
 2017-02-08 13:28:33.772339+01 | 1486556913.77234 | pgbench_branches |           589824

 2017-02-08 13:28:34.873795+01 | 1486556914.8738 | pgbench_accounts |        686850048
 2017-02-08 13:28:34.873795+01 | 1486556914.8738 | pgbench_tellers  |          1966080
 2017-02-08 13:28:34.873795+01 | 1486556914.8738 | pgbench_history  |         21823488
 2017-02-08 13:28:34.873795+01 | 1486556914.8738 | pgbench_branches |           589824

 2017-02-08 13:28:35.974581+01 | 1486556915.97458 | pgbench_accounts |        686850048
 2017-02-08 13:28:35.974581+01 | 1486556915.97458 | pgbench_tellers  |          1966080
 2017-02-08 13:28:35.974581+01 | 1486556915.97458 | pgbench_history  |         22577152
 2017-02-08 13:28:35.974581+01 | 1486556915.97458 | pgbench_branches |           589824

 2017-02-08 13:28:37.056005+01 | 1486556917.05601 | pgbench_accounts |        686850048
 2017-02-08 13:28:37.056005+01 | 1486556917.05601 | pgbench_tellers  |          1966080
 2017-02-08 13:28:37.056005+01 | 1486556917.05601 | pgbench_history  |         23281664
 2017-02-08 13:28:37.056005+01 | 1486556917.05601 | pgbench_branches |           589824

 2017-02-08 13:28:38.191789+01 | 1486556918.19179 | pgbench_accounts |        686850048
 2017-02-08 13:28:38.191789+01 | 1486556918.19179 | pgbench_tellers  |          1966080
 2017-02-08 13:28:38.191789+01 | 1486556918.19179 | pgbench_history  |         24068096
 2017-02-08 13:28:38.191789+01 | 1486556918.19179 | pgbench_branches |           589824

 2017-02-08 13:28:39.325571+01 | 1486556919.32557 | pgbench_accounts |        686850048
 2017-02-08 13:28:39.325571+01 | 1486556919.32557 | pgbench_tellers  |          1966080
 2017-02-08 13:28:39.325571+01 | 1486556919.32557 | pgbench_history  |         24846336
 2017-02-08 13:28:39.325571+01 | 1486556919.32557 | pgbench_branches |           589824

 2017-02-08 13:28:40.440349+01 | 1486556920.44035 | pgbench_accounts |        686850048
 2017-02-08 13:28:40.440349+01 | 1486556920.44035 | pgbench_tellers  |          1966080
 2017-02-08 13:28:40.440349+01 | 1486556920.44035 | pgbench_history  |         25559040
 2017-02-08 13:28:40.440349+01 | 1486556920.44035 | pgbench_branches |           589824

 2017-02-08 13:28:41.564928+01 | 1486556921.56493 | pgbench_accounts |        686850048
 2017-02-08 13:28:41.564928+01 | 1486556921.56493 | pgbench_tellers  |          1966080
 2017-02-08 13:28:41.564928+01 | 1486556921.56493 | pgbench_history  |         26320896
 2017-02-08 13:28:41.564928+01 | 1486556921.56493 | pgbench_branches |           589824

 2017-02-08 13:28:42.680458+01 | 1486556922.68046 | pgbench_accounts |        686850048
 2017-02-08 13:28:42.680458+01 | 1486556922.68046 | pgbench_tellers  |          1966080
 2017-02-08 13:28:42.680458+01 | 1486556922.68046 | pgbench_history  |         27303936
 2017-02-08 13:28:42.680458+01 | 1486556922.68046 | pgbench_branches |           589824

 2017-02-08 13:28:43.793651+01 | 1486556923.79365 | pgbench_accounts |        686850048
 2017-02-08 13:28:43.793651+01 | 1486556923.79365 | pgbench_tellers  |          1966080
 2017-02-08 13:28:43.793651+01 | 1486556923.79365 | pgbench_history  |         27860992
 2017-02-08 13:28:43.793651+01 | 1486556923.79365 | pgbench_branches |           589824

 2017-02-08 13:28:44.887141+01 | 1486556924.88714 | pgbench_accounts |        686850048
 2017-02-08 13:28:44.887141+01 | 1486556924.88714 | pgbench_tellers  |          1966080
 2017-02-08 13:28:44.887141+01 | 1486556924.88714 | pgbench_history  |         28581888
 2017-02-08 13:28:44.887141+01 | 1486556924.88714 | pgbench_branches |           589824

 2017-02-08 13:28:46.020545+01 | 1486556926.02055 | pgbench_accounts |        686850048
 2017-02-08 13:28:46.020545+01 | 1486556926.02055 | pgbench_tellers  |          1966080
 2017-02-08 13:28:46.020545+01 | 1486556926.02055 | pgbench_history  |         29327360
 2017-02-08 13:28:46.020545+01 | 1486556926.02055 | pgbench_branches |           589824

 2017-02-08 13:28:47.125883+01 | 1486556927.12588 | pgbench_accounts |        686850048
 2017-02-08 13:28:47.125883+01 | 1486556927.12588 | pgbench_tellers  |          1966080
 2017-02-08 13:28:47.125883+01 | 1486556927.12588 | pgbench_history  |         30105600
 2017-02-08 13:28:47.125883+01 | 1486556927.12588 | pgbench_branches |           589824

 2017-02-08 13:28:48.223234+01 | 1486556928.22323 | pgbench_accounts |        686850048
 2017-02-08 13:28:48.223234+01 | 1486556928.22323 | pgbench_tellers  |          1966080
 2017-02-08 13:28:48.223234+01 | 1486556928.22323 | pgbench_history  |         30826496
 2017-02-08 13:28:48.223234+01 | 1486556928.22323 | pgbench_branches |           589824

 2017-02-08 13:28:49.330762+01 | 1486556929.33076 | pgbench_accounts |        686850048
 2017-02-08 13:28:49.330762+01 | 1486556929.33076 | pgbench_tellers  |          1966080
 2017-02-08 13:28:49.330762+01 | 1486556929.33076 | pgbench_history  |         31588352
 2017-02-08 13:28:49.330762+01 | 1486556929.33076 | pgbench_branches |           589824

 2017-02-08 13:28:50.45162+01 | 1486556930.45162 | pgbench_accounts |        686850048
 2017-02-08 13:28:50.45162+01 | 1486556930.45162 | pgbench_tellers  |          1966080
 2017-02-08 13:28:50.45162+01 | 1486556930.45162 | pgbench_history  |         32358400
 2017-02-08 13:28:50.45162+01 | 1486556930.45162 | pgbench_branches |           589824

 2017-02-08 13:28:51.580852+01 | 1486556931.58085 | pgbench_accounts |        686850048
 2017-02-08 13:28:51.580852+01 | 1486556931.58085 | pgbench_tellers  |          1966080
 2017-02-08 13:28:51.580852+01 | 1486556931.58085 | pgbench_history  |         33120256
 2017-02-08 13:28:51.580852+01 | 1486556931.58085 | pgbench_branches |           589824

 2017-02-08 13:28:52.686413+01 | 1486556932.68641 | pgbench_accounts |        686850048
 2017-02-08 13:28:52.686413+01 | 1486556932.68641 | pgbench_tellers  |          1966080
 2017-02-08 13:28:52.686413+01 | 1486556932.68641 | pgbench_history  |         33849344
 2017-02-08 13:28:52.686413+01 | 1486556932.68641 | pgbench_branches |           589824

 2017-02-08 13:28:53.795748+01 | 1486556933.79575 | pgbench_accounts |        686850048
 2017-02-08 13:28:53.795748+01 | 1486556933.79575 | pgbench_tellers  |          1966080
 2017-02-08 13:28:53.795748+01 | 1486556933.79575 | pgbench_history  |         34537472
 2017-02-08 13:28:53.795748+01 | 1486556933.79575 | pgbench_branches |           589824

 2017-02-08 13:28:54.895078+01 | 1486556934.89508 | pgbench_accounts |        686850048
 2017-02-08 13:28:54.895078+01 | 1486556934.89508 | pgbench_tellers  |          1966080
 2017-02-08 13:28:54.895078+01 | 1486556934.89508 | pgbench_history  |         35323904
 2017-02-08 13:28:54.895078+01 | 1486556934.89508 | pgbench_branches |           589824

 2017-02-08 13:28:56.015537+01 | 1486556936.01554 | pgbench_accounts |        686850048
 2017-02-08 13:28:56.015537+01 | 1486556936.01554 | pgbench_tellers  |          1966080
 2017-02-08 13:28:56.015537+01 | 1486556936.01554 | pgbench_history  |         36085760
 2017-02-08 13:28:56.015537+01 | 1486556936.01554 | pgbench_branches |           589824

 2017-02-08 13:28:57.114954+01 | 1486556937.11495 | pgbench_accounts |        686850048
 2017-02-08 13:28:57.114954+01 | 1486556937.11495 | pgbench_tellers  |          1966080
 2017-02-08 13:28:57.114954+01 | 1486556937.11495 | pgbench_history  |         36831232
 2017-02-08 13:28:57.114954+01 | 1486556937.11495 | pgbench_branches |           589824

 2017-02-08 13:28:58.216352+01 | 1486556938.21635 | pgbench_accounts |        686850048
 2017-02-08 13:28:58.216352+01 | 1486556938.21635 | pgbench_tellers  |          1966080
 2017-02-08 13:28:58.216352+01 | 1486556938.21635 | pgbench_history  |         37584896
 2017-02-08 13:28:58.216352+01 | 1486556938.21635 | pgbench_branches |           589824

 2017-02-08 13:28:59.357983+01 | 1486556939.35798 | pgbench_accounts |        686850048
 2017-02-08 13:28:59.357983+01 | 1486556939.35798 | pgbench_tellers  |          1966080
 2017-02-08 13:28:59.357983+01 | 1486556939.35798 | pgbench_history  |         38330368
 2017-02-08 13:28:59.357983+01 | 1486556939.35798 | pgbench_branches |           589824

 2017-02-08 13:29:00.47164+01 | 1486556940.47164 | pgbench_accounts |        686850048
 2017-02-08 13:29:00.47164+01 | 1486556940.47164 | pgbench_tellers  |          1966080
 2017-02-08 13:29:00.47164+01 | 1486556940.47164 | pgbench_history  |         39092224
 2017-02-08 13:29:00.47164+01 | 1486556940.47164 | pgbench_branches |           589824

 2017-02-08 13:29:01.577552+01 | 1486556941.57755 | pgbench_accounts |        686850048
 2017-02-08 13:29:01.577552+01 | 1486556941.57755 | pgbench_tellers  |          1966080
 2017-02-08 13:29:01.577552+01 | 1486556941.57755 | pgbench_history  |         39837696
 2017-02-08 13:29:01.577552+01 | 1486556941.57755 | pgbench_branches |           589824

 2017-02-08 13:29:02.725116+01 | 1486556942.72512 | pgbench_accounts |        686850048
 2017-02-08 13:29:02.725116+01 | 1486556942.72512 | pgbench_tellers  |          1966080
 2017-02-08 13:29:02.725116+01 | 1486556942.72512 | pgbench_history  |         40632320
 2017-02-08 13:29:02.725116+01 | 1486556942.72512 | pgbench_branches |           589824

 2017-02-08 13:29:03.828736+01 | 1486556943.82874 | pgbench_accounts |        686850048
 2017-02-08 13:29:03.828736+01 | 1486556943.82874 | pgbench_tellers  |          1966080
 2017-02-08 13:29:03.828736+01 | 1486556943.82874 | pgbench_history  |         41377792
 2017-02-08 13:29:03.828736+01 | 1486556943.82874 | pgbench_branches |           589824

 2017-02-08 13:29:04.961988+01 | 1486556944.96199 | pgbench_accounts |        686850048
 2017-02-08 13:29:04.961988+01 | 1486556944.96199 | pgbench_tellers  |          1966080
 2017-02-08 13:29:04.961988+01 | 1486556944.96199 | pgbench_history  |         42123264
 2017-02-08 13:29:04.961988+01 | 1486556944.96199 | pgbench_branches |           589824

 2017-02-08 13:29:06.065159+01 | 1486556946.06516 | pgbench_accounts |        686850048
 2017-02-08 13:29:06.065159+01 | 1486556946.06516 | pgbench_tellers  |          1966080
 2017-02-08 13:29:06.065159+01 | 1486556946.06516 | pgbench_history  |         42885120
 2017-02-08 13:29:06.065159+01 | 1486556946.06516 | pgbench_branches |           589824

 2017-02-08 13:29:07.182521+01 | 1486556947.18252 | pgbench_accounts |        686850048
 2017-02-08 13:29:07.182521+01 | 1486556947.18252 | pgbench_tellers  |          1966080
 2017-02-08 13:29:07.182521+01 | 1486556947.18252 | pgbench_history  |         43606016
 2017-02-08 13:29:07.182521+01 | 1486556947.18252 | pgbench_branches |           589824

 2017-02-08 13:29:08.300485+01 | 1486556948.30048 | pgbench_accounts |        686850048
 2017-02-08 13:29:08.300485+01 | 1486556948.30048 | pgbench_tellers  |          1966080
 2017-02-08 13:29:08.300485+01 | 1486556948.30048 | pgbench_history  |         44392448
 2017-02-08 13:29:08.300485+01 | 1486556948.30048 | pgbench_branches |           589824

 2017-02-08 13:29:09.405221+01 | 1486556949.40522 | pgbench_accounts |        686850048
 2017-02-08 13:29:09.405221+01 | 1486556949.40522 | pgbench_tellers  |          1966080
 2017-02-08 13:29:09.405221+01 | 1486556949.40522 | pgbench_history  |         45137920
 2017-02-08 13:29:09.405221+01 | 1486556949.40522 | pgbench_branches |           589824

 2017-02-08 13:29:10.491104+01 | 1486556950.4911 | pgbench_accounts |        686850048
 2017-02-08 13:29:10.491104+01 | 1486556950.4911 | pgbench_tellers  |          1966080
 2017-02-08 13:29:10.491104+01 | 1486556950.4911 | pgbench_history  |         45875200
 2017-02-08 13:29:10.491104+01 | 1486556950.4911 | pgbench_branches |           589824

 2017-02-08 13:29:11.566479+01 | 1486556951.56648 | pgbench_accounts |        686850048
 2017-02-08 13:29:11.566479+01 | 1486556951.56648 | pgbench_tellers  |          1966080
 2017-02-08 13:29:11.566479+01 | 1486556951.56648 | pgbench_history  |         46596096
 2017-02-08 13:29:11.566479+01 | 1486556951.56648 | pgbench_branches |           589824

 2017-02-08 13:29:12.664663+01 | 1486556952.66466 | pgbench_accounts |        686850048
 2017-02-08 13:29:12.664663+01 | 1486556952.66466 | pgbench_tellers  |          1966080
 2017-02-08 13:29:12.664663+01 | 1486556952.66466 | pgbench_history  |         47341568
 2017-02-08 13:29:12.664663+01 | 1486556952.66466 | pgbench_branches |           589824

 2017-02-08 13:29:13.772237+01 | 1486556953.77224 | pgbench_accounts |        686850048
 2017-02-08 13:29:13.772237+01 | 1486556953.77224 | pgbench_tellers  |          1966080
 2017-02-08 13:29:13.772237+01 | 1486556953.77224 | pgbench_history  |         48070656
 2017-02-08 13:29:13.772237+01 | 1486556953.77224 | pgbench_branches |           589824

 2017-02-08 13:29:14.876556+01 | 1486556954.87656 | pgbench_accounts |        686850048
 2017-02-08 13:29:14.876556+01 | 1486556954.87656 | pgbench_tellers  |          1966080
 2017-02-08 13:29:14.876556+01 | 1486556954.87656 | pgbench_history  |         48775168
 2017-02-08 13:29:14.876556+01 | 1486556954.87656 | pgbench_branches |           589824

 2017-02-08 13:29:15.971468+01 | 1486556955.97147 | pgbench_accounts |        686850048
 2017-02-08 13:29:15.971468+01 | 1486556955.97147 | pgbench_tellers  |          1966080
 2017-02-08 13:29:15.971468+01 | 1486556955.97147 | pgbench_history  |         49676288
 2017-02-08 13:29:15.971468+01 | 1486556955.97147 | pgbench_branches |           589824

 2017-02-08 13:29:17.040033+01 | 1486556957.04003 | pgbench_accounts |        686850048
 2017-02-08 13:29:17.040033+01 | 1486556957.04003 | pgbench_tellers  |          1966080
 2017-02-08 13:29:17.040033+01 | 1486556957.04003 | pgbench_history  |         50438144
 2017-02-08 13:29:17.040033+01 | 1486556957.04003 | pgbench_branches |           589824

 2017-02-08 13:29:18.125744+01 | 1486556958.12574 | pgbench_accounts |        686850048
 2017-02-08 13:29:18.125744+01 | 1486556958.12574 | pgbench_tellers  |          1966080
 2017-02-08 13:29:18.125744+01 | 1486556958.12574 | pgbench_history  |         51036160
 2017-02-08 13:29:18.125744+01 | 1486556958.12574 | pgbench_branches |           589824

 2017-02-08 13:29:19.229082+01 | 1486556959.22908 | pgbench_accounts |        686850048
 2017-02-08 13:29:19.229082+01 | 1486556959.22908 | pgbench_tellers  |          1966080
 2017-02-08 13:29:19.229082+01 | 1486556959.22908 | pgbench_history  |         51748864
 2017-02-08 13:29:19.229082+01 | 1486556959.22908 | pgbench_branches |           589824

 2017-02-08 13:29:20.347805+01 | 1486556960.34781 | pgbench_accounts |        686850048
 2017-02-08 13:29:20.347805+01 | 1486556960.34781 | pgbench_tellers  |          1966080
 2017-02-08 13:29:20.347805+01 | 1486556960.34781 | pgbench_history  |         52625408
 2017-02-08 13:29:20.347805+01 | 1486556960.34781 | pgbench_branches |           589824

 2017-02-08 13:29:21.434799+01 | 1486556961.4348 | pgbench_accounts |        686850048
 2017-02-08 13:29:21.434799+01 | 1486556961.4348 | pgbench_tellers  |          1966080
 2017-02-08 13:29:21.434799+01 | 1486556961.4348 | pgbench_history  |         53231616
 2017-02-08 13:29:21.434799+01 | 1486556961.4348 | pgbench_branches |           589824

 2017-02-08 13:29:22.510818+01 | 1486556962.51082 | pgbench_accounts |        686850048
 2017-02-08 13:29:22.510818+01 | 1486556962.51082 | pgbench_tellers  |          1966080
 2017-02-08 13:29:22.510818+01 | 1486556962.51082 | pgbench_history  |         54984704
 2017-02-08 13:29:22.510818+01 | 1486556962.51082 | pgbench_branches |           589824

 2017-02-08 13:29:23.63053+01 | 1486556963.63053 | pgbench_accounts |        686850048
 2017-02-08 13:29:23.63053+01 | 1486556963.63053 | pgbench_tellers  |          1966080
 2017-02-08 13:29:23.63053+01 | 1486556963.63053 | pgbench_history  |         54984704
 2017-02-08 13:29:23.63053+01 | 1486556963.63053 | pgbench_branches |           589824

 2017-02-08 13:29:24.742541+01 | 1486556964.74254 | pgbench_accounts |        686850048
 2017-02-08 13:29:24.742541+01 | 1486556964.74254 | pgbench_tellers  |          1966080
 2017-02-08 13:29:24.742541+01 | 1486556964.74254 | pgbench_history  |         55369728
 2017-02-08 13:29:24.742541+01 | 1486556964.74254 | pgbench_branches |           589824

 2017-02-08 13:29:25.863461+01 | 1486556965.86346 | pgbench_accounts |        686850048
 2017-02-08 13:29:25.863461+01 | 1486556965.86346 | pgbench_tellers  |          1966080
 2017-02-08 13:29:25.863461+01 | 1486556965.86346 | pgbench_history  |         56156160
 2017-02-08 13:29:25.863461+01 | 1486556965.86346 | pgbench_branches |           868352

 2017-02-08 13:29:26.978462+01 | 1486556966.97846 | pgbench_accounts |        686850048
 2017-02-08 13:29:26.978462+01 | 1486556966.97846 | pgbench_tellers  |          1966080
 2017-02-08 13:29:26.978462+01 | 1486556966.97846 | pgbench_history  |         57540608
 2017-02-08 13:29:26.978462+01 | 1486556966.97846 | pgbench_branches |           868352

 2017-02-08 13:29:28.09777+01 | 1486556968.09777 | pgbench_accounts |        686850048
 2017-02-08 13:29:28.09777+01 | 1486556968.09777 | pgbench_tellers  |          1966080
 2017-02-08 13:29:28.09777+01 | 1486556968.09777 | pgbench_history  |         57753600
 2017-02-08 13:29:28.09777+01 | 1486556968.09777 | pgbench_branches |           868352

 2017-02-08 13:29:29.223855+01 | 1486556969.22386 | pgbench_accounts |        686850048
 2017-02-08 13:29:29.223855+01 | 1486556969.22386 | pgbench_tellers  |          1966080
 2017-02-08 13:29:29.223855+01 | 1486556969.22386 | pgbench_history  |         58482688
 2017-02-08 13:29:29.223855+01 | 1486556969.22386 | pgbench_branches |           868352

 2017-02-08 13:29:30.348588+01 | 1486556970.34859 | pgbench_accounts |        686850048
 2017-02-08 13:29:30.348588+01 | 1486556970.34859 | pgbench_tellers  |          1966080
 2017-02-08 13:29:30.348588+01 | 1486556970.34859 | pgbench_history  |         59277312
 2017-02-08 13:29:30.348588+01 | 1486556970.34859 | pgbench_branches |           868352

 2017-02-08 13:29:31.440175+01 | 1486556971.44018 | pgbench_accounts |        686850048
 2017-02-08 13:29:31.440175+01 | 1486556971.44018 | pgbench_tellers  |          1966080
 2017-02-08 13:29:31.440175+01 | 1486556971.44018 | pgbench_history  |         60047360
 2017-02-08 13:29:31.440175+01 | 1486556971.44018 | pgbench_branches |           868352

 2017-02-08 13:29:32.543955+01 | 1486556972.54396 | pgbench_accounts |        686850048
 2017-02-08 13:29:32.543955+01 | 1486556972.54396 | pgbench_tellers  |          1966080
 2017-02-08 13:29:32.543955+01 | 1486556972.54396 | pgbench_history  |         60809216
 2017-02-08 13:29:32.543955+01 | 1486556972.54396 | pgbench_branches |           868352

 2017-02-08 13:29:33.641769+01 | 1486556973.64177 | pgbench_accounts |        686850048
 2017-02-08 13:29:33.641769+01 | 1486556973.64177 | pgbench_tellers  |          1966080
 2017-02-08 13:29:33.641769+01 | 1486556973.64177 | pgbench_history  |         61579264
 2017-02-08 13:29:33.641769+01 | 1486556973.64177 | pgbench_branches |           868352

 2017-02-08 13:29:34.745521+01 | 1486556974.74552 | pgbench_accounts |        686850048
 2017-02-08 13:29:34.745521+01 | 1486556974.74552 | pgbench_tellers  |          1966080
 2017-02-08 13:29:34.745521+01 | 1486556974.74552 | pgbench_history  |         62324736
 2017-02-08 13:29:34.745521+01 | 1486556974.74552 | pgbench_branches |           868352

 2017-02-08 13:29:35.831794+01 | 1486556975.83179 | pgbench_accounts |        686850048
 2017-02-08 13:29:35.831794+01 | 1486556975.83179 | pgbench_tellers  |          1966080
 2017-02-08 13:29:35.831794+01 | 1486556975.83179 | pgbench_history  |         63193088
 2017-02-08 13:29:35.831794+01 | 1486556975.83179 | pgbench_branches |           868352

 2017-02-08 13:29:36.923563+01 | 1486556976.92356 | pgbench_accounts |        686850048
 2017-02-08 13:29:36.923563+01 | 1486556976.92356 | pgbench_tellers  |          1966080
 2017-02-08 13:29:36.923563+01 | 1486556976.92356 | pgbench_history  |         63848448
 2017-02-08 13:29:36.923563+01 | 1486556976.92356 | pgbench_branches |           868352

 2017-02-08 13:29:38.01946+01 | 1486556978.01946 | pgbench_accounts |        686850048
 2017-02-08 13:29:38.01946+01 | 1486556978.01946 | pgbench_tellers  |          1966080
 2017-02-08 13:29:38.01946+01 | 1486556978.01946 | pgbench_history  |         64618496
 2017-02-08 13:29:38.01946+01 | 1486556978.01946 | pgbench_branches |           868352

 2017-02-08 13:29:39.101644+01 | 1486556979.10164 | pgbench_accounts |        686850048
 2017-02-08 13:29:39.101644+01 | 1486556979.10164 | pgbench_tellers  |          1966080
 2017-02-08 13:29:39.101644+01 | 1486556979.10164 | pgbench_history  |         65339392
 2017-02-08 13:29:39.101644+01 | 1486556979.10164 | pgbench_branches |           868352

 2017-02-08 13:29:40.194354+01 | 1486556980.19435 | pgbench_accounts |        686850048
 2017-02-08 13:29:40.194354+01 | 1486556980.19435 | pgbench_tellers  |          1966080
 2017-02-08 13:29:40.194354+01 | 1486556980.19435 | pgbench_history  |         66109440
 2017-02-08 13:29:40.194354+01 | 1486556980.19435 | pgbench_branches |           868352

 2017-02-08 13:29:41.305706+01 | 1486556981.30571 | pgbench_accounts |        686850048
 2017-02-08 13:29:41.305706+01 | 1486556981.30571 | pgbench_tellers  |          1966080
 2017-02-08 13:29:41.305706+01 | 1486556981.30571 | pgbench_history  |         66879488
 2017-02-08 13:29:41.305706+01 | 1486556981.30571 | pgbench_branches |           868352

 2017-02-08 13:29:42.396523+01 | 1486556982.39652 | pgbench_accounts |        686850048
 2017-02-08 13:29:42.396523+01 | 1486556982.39652 | pgbench_tellers  |          1966080
 2017-02-08 13:29:42.396523+01 | 1486556982.39652 | pgbench_history  |         67624960
 2017-02-08 13:29:42.396523+01 | 1486556982.39652 | pgbench_branches |           868352

 2017-02-08 13:29:43.491155+01 | 1486556983.49115 | pgbench_accounts |        686850048
 2017-02-08 13:29:43.491155+01 | 1486556983.49115 | pgbench_tellers  |          1966080
 2017-02-08 13:29:43.491155+01 | 1486556983.49115 | pgbench_history  |         68378624
 2017-02-08 13:29:43.491155+01 | 1486556983.49115 | pgbench_branches |           868352

 2017-02-08 13:29:44.598993+01 | 1486556984.59899 | pgbench_accounts |        686850048
 2017-02-08 13:29:44.598993+01 | 1486556984.59899 | pgbench_tellers  |          1966080
 2017-02-08 13:29:44.598993+01 | 1486556984.59899 | pgbench_history  |         69156864
 2017-02-08 13:29:44.598993+01 | 1486556984.59899 | pgbench_branches |           868352

 2017-02-08 13:29:45.705982+01 | 1486556985.70598 | pgbench_accounts |        686850048
 2017-02-08 13:29:45.705982+01 | 1486556985.70598 | pgbench_tellers  |          1966080
 2017-02-08 13:29:45.705982+01 | 1486556985.70598 | pgbench_history  |         69918720
 2017-02-08 13:29:45.705982+01 | 1486556985.70598 | pgbench_branches |           868352

 2017-02-08 13:29:46.799229+01 | 1486556986.79923 | pgbench_accounts |        686850048
 2017-02-08 13:29:46.799229+01 | 1486556986.79923 | pgbench_tellers  |          1966080
 2017-02-08 13:29:46.799229+01 | 1486556986.79923 | pgbench_history  |         70696960
 2017-02-08 13:29:46.799229+01 | 1486556986.79923 | pgbench_branches |           868352

 2017-02-08 13:29:47.897582+01 | 1486556987.89758 | pgbench_accounts |        686850048
 2017-02-08 13:29:47.897582+01 | 1486556987.89758 | pgbench_tellers  |          1966080
 2017-02-08 13:29:47.897582+01 | 1486556987.89758 | pgbench_history  |         71450624
 2017-02-08 13:29:47.897582+01 | 1486556987.89758 | pgbench_branches |           868352

 2017-02-08 13:29:49.007795+01 | 1486556989.0078 | pgbench_accounts |        686850048
 2017-02-08 13:29:49.007795+01 | 1486556989.0078 | pgbench_tellers  |          1966080
 2017-02-08 13:29:49.007795+01 | 1486556989.0078 | pgbench_history  |         72212480
 2017-02-08 13:29:49.007795+01 | 1486556989.0078 | pgbench_branches |           868352

 2017-02-08 13:29:50.098429+01 | 1486556990.09843 | pgbench_accounts |        686850048
 2017-02-08 13:29:50.098429+01 | 1486556990.09843 | pgbench_tellers  |          1966080
 2017-02-08 13:29:50.098429+01 | 1486556990.09843 | pgbench_history  |         72974336
 2017-02-08 13:29:50.098429+01 | 1486556990.09843 | pgbench_branches |           868352

 2017-02-08 13:29:51.211418+01 | 1486556991.21142 | pgbench_accounts |        686850048
 2017-02-08 13:29:51.211418+01 | 1486556991.21142 | pgbench_tellers  |          1966080
 2017-02-08 13:29:51.211418+01 | 1486556991.21142 | pgbench_history  |         73736192
 2017-02-08 13:29:51.211418+01 | 1486556991.21142 | pgbench_branches |           868352

 2017-02-08 13:29:52.303641+01 | 1486556992.30364 | pgbench_accounts |        686850048
 2017-02-08 13:29:52.303641+01 | 1486556992.30364 | pgbench_tellers  |          1966080
 2017-02-08 13:29:52.303641+01 | 1486556992.30364 | pgbench_history  |         74514432
 2017-02-08 13:29:52.303641+01 | 1486556992.30364 | pgbench_branches |           868352

 2017-02-08 13:29:53.432099+01 | 1486556993.4321 | pgbench_accounts |        686850048
 2017-02-08 13:29:53.432099+01 | 1486556993.4321 | pgbench_tellers  |          1966080
 2017-02-08 13:29:53.432099+01 | 1486556993.4321 | pgbench_history  |         75292672
 2017-02-08 13:29:53.432099+01 | 1486556993.4321 | pgbench_branches |           868352

 2017-02-08 13:29:54.534345+01 | 1486556994.53434 | pgbench_accounts |        686850048
 2017-02-08 13:29:54.534345+01 | 1486556994.53434 | pgbench_tellers  |          1966080
 2017-02-08 13:29:54.534345+01 | 1486556994.53434 | pgbench_history  |         76054528
 2017-02-08 13:29:54.534345+01 | 1486556994.53434 | pgbench_branches |           868352

 2017-02-08 13:29:55.633035+01 | 1486556995.63303 | pgbench_accounts |        686850048
 2017-02-08 13:29:55.633035+01 | 1486556995.63303 | pgbench_tellers  |          1966080
 2017-02-08 13:29:55.633035+01 | 1486556995.63303 | pgbench_history  |         76824576
 2017-02-08 13:29:55.633035+01 | 1486556995.63303 | pgbench_branches |           868352

 2017-02-08 13:29:56.726334+01 | 1486556996.72633 | pgbench_accounts |        686850048
 2017-02-08 13:29:56.726334+01 | 1486556996.72633 | pgbench_tellers  |          1966080
 2017-02-08 13:29:56.726334+01 | 1486556996.72633 | pgbench_history  |         77578240
 2017-02-08 13:29:56.726334+01 | 1486556996.72633 | pgbench_branches |           868352

 2017-02-08 13:29:57.842788+01 | 1486556997.84279 | pgbench_accounts |        686850048
 2017-02-08 13:29:57.842788+01 | 1486556997.84279 | pgbench_tellers  |          1966080
 2017-02-08 13:29:57.842788+01 | 1486556997.84279 | pgbench_history  |         78372864
 2017-02-08 13:29:57.842788+01 | 1486556997.84279 | pgbench_branches |           868352

 2017-02-08 13:29:58.953952+01 | 1486556998.95395 | pgbench_accounts |        686850048
 2017-02-08 13:29:58.953952+01 | 1486556998.95395 | pgbench_tellers  |          1966080
 2017-02-08 13:29:58.953952+01 | 1486556998.95395 | pgbench_history  |         79126528
 2017-02-08 13:29:58.953952+01 | 1486556998.95395 | pgbench_branches |           868352

 2017-02-08 13:30:00.042787+01 | 1486557000.04279 | pgbench_accounts |        686850048
 2017-02-08 13:30:00.042787+01 | 1486557000.04279 | pgbench_tellers  |          1966080
 2017-02-08 13:30:00.042787+01 | 1486557000.04279 | pgbench_history  |         79888384
 2017-02-08 13:30:00.042787+01 | 1486557000.04279 | pgbench_branches |           868352

 2017-02-08 13:30:01.133801+01 | 1486557001.1338 | pgbench_accounts |        686850048
 2017-02-08 13:30:01.133801+01 | 1486557001.1338 | pgbench_tellers  |          1966080
 2017-02-08 13:30:01.133801+01 | 1486557001.1338 | pgbench_history  |         80617472
 2017-02-08 13:30:01.133801+01 | 1486557001.1338 | pgbench_branches |           868352

 2017-02-08 13:30:02.215094+01 | 1486557002.21509 | pgbench_accounts |        686850048
 2017-02-08 13:30:02.215094+01 | 1486557002.21509 | pgbench_tellers  |          1966080
 2017-02-08 13:30:02.215094+01 | 1486557002.21509 | pgbench_history  |         81387520
 2017-02-08 13:30:02.215094+01 | 1486557002.21509 | pgbench_branches |           868352

 2017-02-08 13:30:03.307331+01 | 1486557003.30733 | pgbench_accounts |        686850048
 2017-02-08 13:30:03.307331+01 | 1486557003.30733 | pgbench_tellers  |          1966080
 2017-02-08 13:30:03.307331+01 | 1486557003.30733 | pgbench_history  |         82132992
 2017-02-08 13:30:03.307331+01 | 1486557003.30733 | pgbench_branches |           868352

 2017-02-08 13:30:04.422008+01 | 1486557004.42201 | pgbench_accounts |        686850048
 2017-02-08 13:30:04.422008+01 | 1486557004.42201 | pgbench_tellers  |          1966080
 2017-02-08 13:30:04.422008+01 | 1486557004.42201 | pgbench_history  |         82919424
 2017-02-08 13:30:04.422008+01 | 1486557004.42201 | pgbench_branches |           868352

 2017-02-08 13:30:05.535331+01 | 1486557005.53533 | pgbench_accounts |        686850048
 2017-02-08 13:30:05.535331+01 | 1486557005.53533 | pgbench_tellers  |          1966080
 2017-02-08 13:30:05.535331+01 | 1486557005.53533 | pgbench_history  |         83722240
 2017-02-08 13:30:05.535331+01 | 1486557005.53533 | pgbench_branches |           868352

 2017-02-08 13:30:06.65272+01 | 1486557006.65272 | pgbench_accounts |        686850048
 2017-02-08 13:30:06.65272+01 | 1486557006.65272 | pgbench_tellers  |          1966080
 2017-02-08 13:30:06.65272+01 | 1486557006.65272 | pgbench_history  |         84713472
 2017-02-08 13:30:06.65272+01 | 1486557006.65272 | pgbench_branches |           868352

 2017-02-08 13:30:07.775992+01 | 1486557007.77599 | pgbench_accounts |        686850048
 2017-02-08 13:30:07.775992+01 | 1486557007.77599 | pgbench_tellers  |          1966080
 2017-02-08 13:30:07.775992+01 | 1486557007.77599 | pgbench_history  |         85598208
 2017-02-08 13:30:07.775992+01 | 1486557007.77599 | pgbench_branches |           868352

 2017-02-08 13:30:08.886387+01 | 1486557008.88639 | pgbench_accounts |        686850048
 2017-02-08 13:30:08.886387+01 | 1486557008.88639 | pgbench_tellers  |          1966080
 2017-02-08 13:30:08.886387+01 | 1486557008.88639 | pgbench_history  |         85975040
 2017-02-08 13:30:08.886387+01 | 1486557008.88639 | pgbench_branches |           868352

 2017-02-08 13:30:10.005251+01 | 1486557010.00525 | pgbench_accounts |        686850048
 2017-02-08 13:30:10.005251+01 | 1486557010.00525 | pgbench_tellers  |          1966080
 2017-02-08 13:30:10.005251+01 | 1486557010.00525 | pgbench_history  |         86876160
 2017-02-08 13:30:10.005251+01 | 1486557010.00525 | pgbench_branches |           868352

 2017-02-08 13:30:11.102573+01 | 1486557011.10257 | pgbench_accounts |        686850048
 2017-02-08 13:30:11.102573+01 | 1486557011.10257 | pgbench_tellers  |          1966080
 2017-02-08 13:30:11.102573+01 | 1486557011.10257 | pgbench_history  |         87572480
 2017-02-08 13:30:11.102573+01 | 1486557011.10257 | pgbench_branches |           868352

 2017-02-08 13:30:12.186796+01 | 1486557012.1868 | pgbench_accounts |        686850048
 2017-02-08 13:30:12.186796+01 | 1486557012.1868 | pgbench_tellers  |          1966080
 2017-02-08 13:30:12.186796+01 | 1486557012.1868 | pgbench_history  |         88391680
 2017-02-08 13:30:12.186796+01 | 1486557012.1868 | pgbench_branches |           868352

 2017-02-08 13:30:13.311036+01 | 1486557013.31104 | pgbench_accounts |        686850048
 2017-02-08 13:30:13.311036+01 | 1486557013.31104 | pgbench_tellers  |          1966080
 2017-02-08 13:30:13.311036+01 | 1486557013.31104 | pgbench_history  |         89350144
 2017-02-08 13:30:13.311036+01 | 1486557013.31104 | pgbench_branches |           868352

 2017-02-08 13:30:14.421796+01 | 1486557014.4218 | pgbench_accounts |        686850048
 2017-02-08 13:30:14.421796+01 | 1486557014.4218 | pgbench_tellers  |          1966080
 2017-02-08 13:30:14.421796+01 | 1486557014.4218 | pgbench_history  |         89784320
 2017-02-08 13:30:14.421796+01 | 1486557014.4218 | pgbench_branches |           868352

 2017-02-08 13:30:15.521257+01 | 1486557015.52126 | pgbench_accounts |        686850048
 2017-02-08 13:30:15.521257+01 | 1486557015.52126 | pgbench_tellers  |          1966080
 2017-02-08 13:30:15.521257+01 | 1486557015.52126 | pgbench_history  |         90529792
 2017-02-08 13:30:15.521257+01 | 1486557015.52126 | pgbench_branches |           868352

 2017-02-08 13:30:16.628786+01 | 1486557016.62879 | pgbench_accounts |        686850048
 2017-02-08 13:30:16.628786+01 | 1486557016.62879 | pgbench_tellers  |          1966080
 2017-02-08 13:30:16.628786+01 | 1486557016.62879 | pgbench_history  |         91267072
 2017-02-08 13:30:16.628786+01 | 1486557016.62879 | pgbench_branches |           868352

 2017-02-08 13:30:17.792327+01 | 1486557017.79233 | pgbench_accounts |        686850048
 2017-02-08 13:30:17.792327+01 | 1486557017.79233 | pgbench_tellers  |          1966080
 2017-02-08 13:30:17.792327+01 | 1486557017.79233 | pgbench_history  |         92037120
 2017-02-08 13:30:17.792327+01 | 1486557017.79233 | pgbench_branches |           868352

 2017-02-08 13:30:18.891164+01 | 1486557018.89116 | pgbench_accounts |        686850048
 2017-02-08 13:30:18.891164+01 | 1486557018.89116 | pgbench_tellers  |          1966080
 2017-02-08 13:30:18.891164+01 | 1486557018.89116 | pgbench_history  |         93478912
 2017-02-08 13:30:18.891164+01 | 1486557018.89116 | pgbench_branches |           868352

 2017-02-08 13:30:19.985375+01 | 1486557019.98537 | pgbench_accounts |        686850048
 2017-02-08 13:30:19.985375+01 | 1486557019.98537 | pgbench_tellers  |          1966080
 2017-02-08 13:30:19.985375+01 | 1486557019.98537 | pgbench_history  |         93478912
 2017-02-08 13:30:19.985375+01 | 1486557019.98537 | pgbench_branches |           868352

 2017-02-08 13:30:21.06629+01 | 1486557021.06629 | pgbench_accounts |        686850048
 2017-02-08 13:30:21.06629+01 | 1486557021.06629 | pgbench_tellers  |          1966080
 2017-02-08 13:30:21.06629+01 | 1486557021.06629 | pgbench_history  |         94306304
 2017-02-08 13:30:21.06629+01 | 1486557021.06629 | pgbench_branches |           868352

 2017-02-08 13:30:22.191876+01 | 1486557022.19188 | pgbench_accounts |        686850048
 2017-02-08 13:30:22.191876+01 | 1486557022.19188 | pgbench_tellers  |          1966080
 2017-02-08 13:30:22.191876+01 | 1486557022.19188 | pgbench_history  |         95010816
 2017-02-08 13:30:22.191876+01 | 1486557022.19188 | pgbench_branches |           868352

 2017-02-08 13:30:23.286744+01 | 1486557023.28674 | pgbench_accounts |        686850048
 2017-02-08 13:30:23.286744+01 | 1486557023.28674 | pgbench_tellers  |          1966080
 2017-02-08 13:30:23.286744+01 | 1486557023.28674 | pgbench_history  |         95780864
 2017-02-08 13:30:23.286744+01 | 1486557023.28674 | pgbench_branches |           868352

 2017-02-08 13:30:24.396793+01 | 1486557024.39679 | pgbench_accounts |        686850048
 2017-02-08 13:30:24.396793+01 | 1486557024.39679 | pgbench_tellers  |          1966080
 2017-02-08 13:30:24.396793+01 | 1486557024.39679 | pgbench_history  |         96501760
 2017-02-08 13:30:24.396793+01 | 1486557024.39679 | pgbench_branches |           868352

 2017-02-08 13:30:25.518082+01 | 1486557025.51808 | pgbench_accounts |        686850048
 2017-02-08 13:30:25.518082+01 | 1486557025.51808 | pgbench_tellers  |          1966080
 2017-02-08 13:30:25.518082+01 | 1486557025.51808 | pgbench_history  |         97271808
 2017-02-08 13:30:25.518082+01 | 1486557025.51808 | pgbench_branches |           868352

 2017-02-08 13:30:26.599405+01 | 1486557026.59941 | pgbench_accounts |        686850048
 2017-02-08 13:30:26.599405+01 | 1486557026.59941 | pgbench_tellers  |          1966080
 2017-02-08 13:30:26.599405+01 | 1486557026.59941 | pgbench_history  |         98025472
 2017-02-08 13:30:26.599405+01 | 1486557026.59941 | pgbench_branches |           868352

 2017-02-08 13:30:27.681511+01 | 1486557027.68151 | pgbench_accounts |        686850048
 2017-02-08 13:30:27.681511+01 | 1486557027.68151 | pgbench_tellers  |          1966080
 2017-02-08 13:30:27.681511+01 | 1486557027.68151 | pgbench_history  |         98828288
 2017-02-08 13:30:27.681511+01 | 1486557027.68151 | pgbench_branches |           868352

 2017-02-08 13:30:28.78889+01 | 1486557028.78889 | pgbench_accounts |        686850048
 2017-02-08 13:30:28.78889+01 | 1486557028.78889 | pgbench_tellers  |          1966080
 2017-02-08 13:30:28.78889+01 | 1486557028.78889 | pgbench_history  |         99590144
 2017-02-08 13:30:28.78889+01 | 1486557028.78889 | pgbench_branches |           868352

 2017-02-08 13:30:29.889927+01 | 1486557029.88993 | pgbench_accounts |        686850048
 2017-02-08 13:30:29.889927+01 | 1486557029.88993 | pgbench_tellers  |          1966080
 2017-02-08 13:30:29.889927+01 | 1486557029.88993 | pgbench_history  |        100270080
 2017-02-08 13:30:29.889927+01 | 1486557029.88993 | pgbench_branches |           868352

 2017-02-08 13:30:30.993679+01 | 1486557030.99368 | pgbench_accounts |        686850048
 2017-02-08 13:30:30.993679+01 | 1486557030.99368 | pgbench_tellers  |          1966080
 2017-02-08 13:30:30.993679+01 | 1486557030.99368 | pgbench_history  |        101507072
 2017-02-08 13:30:30.993679+01 | 1486557030.99368 | pgbench_branches |           868352

 2017-02-08 13:30:32.085639+01 | 1486557032.08564 | pgbench_accounts |        686850048
 2017-02-08 13:30:32.085639+01 | 1486557032.08564 | pgbench_tellers  |          1966080
 2017-02-08 13:30:32.085639+01 | 1486557032.08564 | pgbench_history  |        102187008
 2017-02-08 13:30:32.085639+01 | 1486557032.08564 | pgbench_branches |           868352

 2017-02-08 13:30:33.209007+01 | 1486557033.20901 | pgbench_accounts |        686850048
 2017-02-08 13:30:33.209007+01 | 1486557033.20901 | pgbench_tellers  |          1966080
 2017-02-08 13:30:33.209007+01 | 1486557033.20901 | pgbench_history  |        102588416
 2017-02-08 13:30:33.209007+01 | 1486557033.20901 | pgbench_branches |           868352

 2017-02-08 13:30:34.308416+01 | 1486557034.30842 | pgbench_accounts |        686850048
 2017-02-08 13:30:34.308416+01 | 1486557034.30842 | pgbench_tellers  |          1966080
 2017-02-08 13:30:34.308416+01 | 1486557034.30842 | pgbench_history  |        103432192
 2017-02-08 13:30:34.308416+01 | 1486557034.30842 | pgbench_branches |           868352

 2017-02-08 13:30:35.436095+01 | 1486557035.43609 | pgbench_accounts |        686850048
 2017-02-08 13:30:35.436095+01 | 1486557035.43609 | pgbench_tellers  |          1966080
 2017-02-08 13:30:35.436095+01 | 1486557035.43609 | pgbench_history  |        104128512
 2017-02-08 13:30:35.436095+01 | 1486557035.43609 | pgbench_branches |           868352

 2017-02-08 13:30:36.532012+01 | 1486557036.53201 | pgbench_accounts |        686850048
 2017-02-08 13:30:36.532012+01 | 1486557036.53201 | pgbench_tellers  |          1966080
 2017-02-08 13:30:36.532012+01 | 1486557036.53201 | pgbench_history  |        104980480
 2017-02-08 13:30:36.532012+01 | 1486557036.53201 | pgbench_branches |           868352

 2017-02-08 13:30:37.659763+01 | 1486557037.65976 | pgbench_accounts |        686850048
 2017-02-08 13:30:37.659763+01 | 1486557037.65976 | pgbench_tellers  |          1966080
 2017-02-08 13:30:37.659763+01 | 1486557037.65976 | pgbench_history  |        105881600
 2017-02-08 13:30:37.659763+01 | 1486557037.65976 | pgbench_branches |           868352

 2017-02-08 13:30:38.749907+01 | 1486557038.74991 | pgbench_accounts |        686850048
 2017-02-08 13:30:38.749907+01 | 1486557038.74991 | pgbench_tellers  |          1966080
 2017-02-08 13:30:38.749907+01 | 1486557038.74991 | pgbench_history  |        106487808
 2017-02-08 13:30:38.749907+01 | 1486557038.74991 | pgbench_branches |           868352

 2017-02-08 13:30:39.862925+01 | 1486557039.86293 | pgbench_accounts |        686850048
 2017-02-08 13:30:39.862925+01 | 1486557039.86293 | pgbench_tellers  |          1966080
 2017-02-08 13:30:39.862925+01 | 1486557039.86293 | pgbench_history  |        107233280
 2017-02-08 13:30:39.862925+01 | 1486557039.86293 | pgbench_branches |           868352

 2017-02-08 13:30:40.963328+01 | 1486557040.96333 | pgbench_accounts |        686850048
 2017-02-08 13:30:40.963328+01 | 1486557040.96333 | pgbench_tellers  |          1966080
 2017-02-08 13:30:40.963328+01 | 1486557040.96333 | pgbench_history  |        107995136
 2017-02-08 13:30:40.963328+01 | 1486557040.96333 | pgbench_branches |           868352

 2017-02-08 13:30:42.046478+01 | 1486557042.04648 | pgbench_accounts |        686850048
 2017-02-08 13:30:42.046478+01 | 1486557042.04648 | pgbench_tellers  |          1966080
 2017-02-08 13:30:42.046478+01 | 1486557042.04648 | pgbench_history  |        108732416
 2017-02-08 13:30:42.046478+01 | 1486557042.04648 | pgbench_branches |           868352

 2017-02-08 13:30:43.15482+01 | 1486557043.15482 | pgbench_accounts |        686850048
 2017-02-08 13:30:43.15482+01 | 1486557043.15482 | pgbench_tellers  |          1966080
 2017-02-08 13:30:43.15482+01 | 1486557043.15482 | pgbench_history  |        109494272
 2017-02-08 13:30:43.15482+01 | 1486557043.15482 | pgbench_branches |           868352

 2017-02-08 13:30:44.269025+01 | 1486557044.26903 | pgbench_accounts |        686850048
 2017-02-08 13:30:44.269025+01 | 1486557044.26903 | pgbench_tellers  |          1966080
 2017-02-08 13:30:44.269025+01 | 1486557044.26903 | pgbench_history  |        110313472
 2017-02-08 13:30:44.269025+01 | 1486557044.26903 | pgbench_branches |           868352

 2017-02-08 13:30:45.396984+01 | 1486557045.39698 | pgbench_accounts |        686850048
 2017-02-08 13:30:45.396984+01 | 1486557045.39698 | pgbench_tellers  |          1966080
 2017-02-08 13:30:45.396984+01 | 1486557045.39698 | pgbench_history  |        111083520
 2017-02-08 13:30:45.396984+01 | 1486557045.39698 | pgbench_branches |           868352

 2017-02-08 13:30:46.497722+01 | 1486557046.49772 | pgbench_accounts |        686850048
 2017-02-08 13:30:46.497722+01 | 1486557046.49772 | pgbench_tellers  |          1966080
 2017-02-08 13:30:46.497722+01 | 1486557046.49772 | pgbench_history  |        113180672
 2017-02-08 13:30:46.497722+01 | 1486557046.49772 | pgbench_branches |           868352

 2017-02-08 13:30:47.611966+01 | 1486557047.61197 | pgbench_accounts |        686850048
 2017-02-08 13:30:47.611966+01 | 1486557047.61197 | pgbench_tellers  |          1966080
 2017-02-08 13:30:47.611966+01 | 1486557047.61197 | pgbench_history  |        113180672
 2017-02-08 13:30:47.611966+01 | 1486557047.61197 | pgbench_branches |           868352

 2017-02-08 13:30:48.72044+01 | 1486557048.72044 | pgbench_accounts |        686850048
 2017-02-08 13:30:48.72044+01 | 1486557048.72044 | pgbench_tellers  |          1966080
 2017-02-08 13:30:48.72044+01 | 1486557048.72044 | pgbench_history  |        113696768
 2017-02-08 13:30:48.72044+01 | 1486557048.72044 | pgbench_branches |           868352

 2017-02-08 13:30:49.839347+01 | 1486557049.83935 | pgbench_accounts |        686850048
 2017-02-08 13:30:49.839347+01 | 1486557049.83935 | pgbench_tellers  |          1966080
 2017-02-08 13:30:49.839347+01 | 1486557049.83935 | pgbench_history  |        114114560
 2017-02-08 13:30:49.839347+01 | 1486557049.83935 | pgbench_branches |           868352

 2017-02-08 13:30:50.94369+01 | 1486557050.94369 | pgbench_accounts |        686850048
 2017-02-08 13:30:50.94369+01 | 1486557050.94369 | pgbench_tellers  |          1966080
 2017-02-08 13:30:50.94369+01 | 1486557050.94369 | pgbench_history  |        114876416
 2017-02-08 13:30:50.94369+01 | 1486557050.94369 | pgbench_branches |           868352

 2017-02-08 13:30:52.024929+01 | 1486557052.02493 | pgbench_accounts |        686850048
 2017-02-08 13:30:52.024929+01 | 1486557052.02493 | pgbench_tellers  |          1966080
 2017-02-08 13:30:52.024929+01 | 1486557052.02493 | pgbench_history  |        115638272
 2017-02-08 13:30:52.024929+01 | 1486557052.02493 | pgbench_branches |           868352

 2017-02-08 13:30:53.112888+01 | 1486557053.11289 | pgbench_accounts |        686850048
 2017-02-08 13:30:53.112888+01 | 1486557053.11289 | pgbench_tellers  |          1966080
 2017-02-08 13:30:53.112888+01 | 1486557053.11289 | pgbench_history  |        116383744
 2017-02-08 13:30:53.112888+01 | 1486557053.11289 | pgbench_branches |           868352

 2017-02-08 13:30:54.216184+01 | 1486557054.21618 | pgbench_accounts |        686850048
 2017-02-08 13:30:54.216184+01 | 1486557054.21618 | pgbench_tellers  |          1966080
 2017-02-08 13:30:54.216184+01 | 1486557054.21618 | pgbench_history  |        117145600
 2017-02-08 13:30:54.216184+01 | 1486557054.21618 | pgbench_branches |           868352

 2017-02-08 13:30:55.377652+01 | 1486557055.37765 | pgbench_accounts |        686850048
 2017-02-08 13:30:55.377652+01 | 1486557055.37765 | pgbench_tellers  |          1966080
 2017-02-08 13:30:55.377652+01 | 1486557055.37765 | pgbench_history  |        117956608
 2017-02-08 13:30:55.377652+01 | 1486557055.37765 | pgbench_branches |           868352

 2017-02-08 13:30:56.506101+01 | 1486557056.5061 | pgbench_accounts |        686850048
 2017-02-08 13:30:56.506101+01 | 1486557056.5061 | pgbench_tellers  |          1966080
 2017-02-08 13:30:56.506101+01 | 1486557056.5061 | pgbench_history  |        118734848
 2017-02-08 13:30:56.506101+01 | 1486557056.5061 | pgbench_branches |           868352

 2017-02-08 13:30:57.611113+01 | 1486557057.61111 | pgbench_accounts |        686850048
 2017-02-08 13:30:57.611113+01 | 1486557057.61111 | pgbench_tellers  |          1966080
 2017-02-08 13:30:57.611113+01 | 1486557057.61111 | pgbench_history  |        119513088
 2017-02-08 13:30:57.611113+01 | 1486557057.61111 | pgbench_branches |           868352

 2017-02-08 13:30:58.727728+01 | 1486557058.72773 | pgbench_accounts |        686850048
 2017-02-08 13:30:58.727728+01 | 1486557058.72773 | pgbench_tellers  |          1966080
 2017-02-08 13:30:58.727728+01 | 1486557058.72773 | pgbench_history  |        120340480
 2017-02-08 13:30:58.727728+01 | 1486557058.72773 | pgbench_branches |           868352

 2017-02-08 13:30:59.853703+01 | 1486557059.8537 | pgbench_accounts |        686850048
 2017-02-08 13:30:59.853703+01 | 1486557059.8537 | pgbench_tellers  |          1966080
 2017-02-08 13:30:59.853703+01 | 1486557059.8537 | pgbench_history  |        121053184
 2017-02-08 13:30:59.853703+01 | 1486557059.8537 | pgbench_branches |           868352

 2017-02-08 13:31:00.95383+01 | 1486557060.95383 | pgbench_accounts |        686850048
 2017-02-08 13:31:00.95383+01 | 1486557060.95383 | pgbench_tellers  |          1966080
 2017-02-08 13:31:00.95383+01 | 1486557060.95383 | pgbench_history  |        123224064
 2017-02-08 13:31:00.95383+01 | 1486557060.95383 | pgbench_branches |           868352

 2017-02-08 13:31:02.073431+01 | 1486557062.07343 | pgbench_accounts |        686850048
 2017-02-08 13:31:02.073431+01 | 1486557062.07343 | pgbench_tellers  |          1966080
 2017-02-08 13:31:02.073431+01 | 1486557062.07343 | pgbench_history  |        123224064
 2017-02-08 13:31:02.073431+01 | 1486557062.07343 | pgbench_branches |           868352

 2017-02-08 13:31:03.193961+01 | 1486557063.19396 | pgbench_accounts |        686850048
 2017-02-08 13:31:03.193961+01 | 1486557063.19396 | pgbench_tellers  |          1966080
 2017-02-08 13:31:03.193961+01 | 1486557063.19396 | pgbench_history  |        123412480
 2017-02-08 13:31:03.193961+01 | 1486557063.19396 | pgbench_branches |           868352

 2017-02-08 13:31:04.318694+01 | 1486557064.31869 | pgbench_accounts |        686850048
 2017-02-08 13:31:04.318694+01 | 1486557064.31869 | pgbench_tellers  |          1966080
 2017-02-08 13:31:04.318694+01 | 1486557064.31869 | pgbench_history  |        124493824
 2017-02-08 13:31:04.318694+01 | 1486557064.31869 | pgbench_branches |           868352

 2017-02-08 13:31:05.43101+01 | 1486557065.43101 | pgbench_accounts |        686850048
 2017-02-08 13:31:05.43101+01 | 1486557065.43101 | pgbench_tellers  |          1966080
 2017-02-08 13:31:05.43101+01 | 1486557065.43101 | pgbench_history  |        125083648
 2017-02-08 13:31:05.43101+01 | 1486557065.43101 | pgbench_branches |           868352

 2017-02-08 13:31:06.57113+01 | 1486557066.57113 | pgbench_accounts |        686850048
 2017-02-08 13:31:06.57113+01 | 1486557066.57113 | pgbench_tellers  |          1966080
 2017-02-08 13:31:06.57113+01 | 1486557066.57113 | pgbench_history  |        125870080
 2017-02-08 13:31:06.57113+01 | 1486557066.57113 | pgbench_branches |           868352

 2017-02-08 13:31:07.679568+01 | 1486557067.67957 | pgbench_accounts |        686850048
 2017-02-08 13:31:07.679568+01 | 1486557067.67957 | pgbench_tellers  |          1966080
 2017-02-08 13:31:07.679568+01 | 1486557067.67957 | pgbench_history  |        126943232
 2017-02-08 13:31:07.679568+01 | 1486557067.67957 | pgbench_branches |           868352

 2017-02-08 13:31:08.781207+01 | 1486557068.78121 | pgbench_accounts |        686850048
 2017-02-08 13:31:08.781207+01 | 1486557068.78121 | pgbench_tellers  |          1966080
 2017-02-08 13:31:08.781207+01 | 1486557068.78121 | pgbench_history  |        127459328
 2017-02-08 13:31:08.781207+01 | 1486557068.78121 | pgbench_branches |           868352

 2017-02-08 13:31:09.890413+01 | 1486557069.89041 | pgbench_accounts |        686850048
 2017-02-08 13:31:09.890413+01 | 1486557069.89041 | pgbench_tellers  |          1966080
 2017-02-08 13:31:09.890413+01 | 1486557069.89041 | pgbench_history  |        128409600
 2017-02-08 13:31:09.890413+01 | 1486557069.89041 | pgbench_branches |           868352

 2017-02-08 13:31:10.970464+01 | 1486557070.97046 | pgbench_accounts |        686850048
 2017-02-08 13:31:10.970464+01 | 1486557070.97046 | pgbench_tellers  |          1966080
 2017-02-08 13:31:10.970464+01 | 1486557070.97046 | pgbench_history  |        129253376
 2017-02-08 13:31:10.970464+01 | 1486557070.97046 | pgbench_branches |           868352

 2017-02-08 13:31:12.051536+01 | 1486557072.05154 | pgbench_accounts |        686850048
 2017-02-08 13:31:12.051536+01 | 1486557072.05154 | pgbench_tellers  |          1966080
 2017-02-08 13:31:12.051536+01 | 1486557072.05154 | pgbench_history  |        129810432
 2017-02-08 13:31:12.051536+01 | 1486557072.05154 | pgbench_branches |           868352

 2017-02-08 13:31:13.173993+01 | 1486557073.17399 | pgbench_accounts |        686850048
 2017-02-08 13:31:13.173993+01 | 1486557073.17399 | pgbench_tellers  |          1966080
 2017-02-08 13:31:13.173993+01 | 1486557073.17399 | pgbench_history  |        130375680
 2017-02-08 13:31:13.173993+01 | 1486557073.17399 | pgbench_branches |           868352

 2017-02-08 13:31:14.262751+01 | 1486557074.26275 | pgbench_accounts |        686850048
 2017-02-08 13:31:14.262751+01 | 1486557074.26275 | pgbench_tellers  |          1966080
 2017-02-08 13:31:14.262751+01 | 1486557074.26275 | pgbench_history  |        131244032
 2017-02-08 13:31:14.262751+01 | 1486557074.26275 | pgbench_branches |           868352

 2017-02-08 13:31:15.366179+01 | 1486557075.36618 | pgbench_accounts |        686850048
 2017-02-08 13:31:15.366179+01 | 1486557075.36618 | pgbench_tellers  |          1966080
 2017-02-08 13:31:15.366179+01 | 1486557075.36618 | pgbench_history  |        131858432
 2017-02-08 13:31:15.366179+01 | 1486557075.36618 | pgbench_branches |           868352

 2017-02-08 13:31:16.471967+01 | 1486557076.47197 | pgbench_accounts |        686850048
 2017-02-08 13:31:16.471967+01 | 1486557076.47197 | pgbench_tellers  |          1966080
 2017-02-08 13:31:16.471967+01 | 1486557076.47197 | pgbench_history  |        132628480
 2017-02-08 13:31:16.471967+01 | 1486557076.47197 | pgbench_branches |           868352

 2017-02-08 13:31:17.570318+01 | 1486557077.57032 | pgbench_accounts |        686850048
 2017-02-08 13:31:17.570318+01 | 1486557077.57032 | pgbench_tellers  |          1966080
 2017-02-08 13:31:17.570318+01 | 1486557077.57032 | pgbench_history  |        133423104
 2017-02-08 13:31:17.570318+01 | 1486557077.57032 | pgbench_branches |           868352

 2017-02-08 13:31:18.700827+01 | 1486557078.70083 | pgbench_accounts |        686850048
 2017-02-08 13:31:18.700827+01 | 1486557078.70083 | pgbench_tellers  |          1966080
 2017-02-08 13:31:18.700827+01 | 1486557078.70083 | pgbench_history  |        134168576
 2017-02-08 13:31:18.700827+01 | 1486557078.70083 | pgbench_branches |           868352

 2017-02-08 13:31:19.825993+01 | 1486557079.82599 | pgbench_accounts |        686850048
 2017-02-08 13:31:19.825993+01 | 1486557079.82599 | pgbench_tellers  |          1966080
 2017-02-08 13:31:19.825993+01 | 1486557079.82599 | pgbench_history  |        135102464
 2017-02-08 13:31:19.825993+01 | 1486557079.82599 | pgbench_branches |           868352

 2017-02-08 13:31:20.926336+01 | 1486557080.92634 | pgbench_accounts |        686850048
 2017-02-08 13:31:20.926336+01 | 1486557080.92634 | pgbench_tellers  |          1966080
 2017-02-08 13:31:20.926336+01 | 1486557080.92634 | pgbench_history  |        135544832
 2017-02-08 13:31:20.926336+01 | 1486557080.92634 | pgbench_branches |           868352

 2017-02-08 13:31:22.035684+01 | 1486557082.03568 | pgbench_accounts |        686850048
 2017-02-08 13:31:22.035684+01 | 1486557082.03568 | pgbench_tellers  |          1966080
 2017-02-08 13:31:22.035684+01 | 1486557082.03568 | pgbench_history  |        136273920
 2017-02-08 13:31:22.035684+01 | 1486557082.03568 | pgbench_branches |           868352

 2017-02-08 13:31:23.138937+01 | 1486557083.13894 | pgbench_accounts |        686850048
 2017-02-08 13:31:23.138937+01 | 1486557083.13894 | pgbench_tellers  |          1966080
 2017-02-08 13:31:23.138937+01 | 1486557083.13894 | pgbench_history  |        137478144
 2017-02-08 13:31:23.138937+01 | 1486557083.13894 | pgbench_branches |           868352

 2017-02-08 13:31:24.256076+01 | 1486557084.25608 | pgbench_accounts |        686850048
 2017-02-08 13:31:24.256076+01 | 1486557084.25608 | pgbench_tellers  |          1966080
 2017-02-08 13:31:24.256076+01 | 1486557084.25608 | pgbench_history  |        137863168
 2017-02-08 13:31:24.256076+01 | 1486557084.25608 | pgbench_branches |           868352

 2017-02-08 13:31:25.369471+01 | 1486557085.36947 | pgbench_accounts |        686850048
 2017-02-08 13:31:25.369471+01 | 1486557085.36947 | pgbench_tellers  |          1966080
 2017-02-08 13:31:25.369471+01 | 1486557085.36947 | pgbench_history  |        139452416
 2017-02-08 13:31:25.369471+01 | 1486557085.36947 | pgbench_branches |           868352

 2017-02-08 13:31:26.470029+01 | 1486557086.47003 | pgbench_accounts |        686850048
 2017-02-08 13:31:26.470029+01 | 1486557086.47003 | pgbench_tellers  |          1966080
 2017-02-08 13:31:26.470029+01 | 1486557086.47003 | pgbench_history  |        139452416
 2017-02-08 13:31:26.470029+01 | 1486557086.47003 | pgbench_branches |           868352

 2017-02-08 13:31:27.609013+01 | 1486557087.60901 | pgbench_accounts |        686850048
 2017-02-08 13:31:27.609013+01 | 1486557087.60901 | pgbench_tellers  |          1966080
 2017-02-08 13:31:27.609013+01 | 1486557087.60901 | pgbench_history  |        140181504
 2017-02-08 13:31:27.609013+01 | 1486557087.60901 | pgbench_branches |           868352

 2017-02-08 13:31:28.73955+01 | 1486557088.73955 | pgbench_accounts |        686850048
 2017-02-08 13:31:28.73955+01 | 1486557088.73955 | pgbench_tellers  |          1966080
 2017-02-08 13:31:28.73955+01 | 1486557088.73955 | pgbench_history  |        140894208
 2017-02-08 13:31:28.73955+01 | 1486557088.73955 | pgbench_branches |           868352

 2017-02-08 13:31:29.831955+01 | 1486557089.83195 | pgbench_accounts |        686850048
 2017-02-08 13:31:29.831955+01 | 1486557089.83195 | pgbench_tellers  |          1966080
 2017-02-08 13:31:29.831955+01 | 1486557089.83195 | pgbench_history  |        141549568
 2017-02-08 13:31:29.831955+01 | 1486557089.83195 | pgbench_branches |           868352

 2017-02-08 13:31:30.940416+01 | 1486557090.94042 | pgbench_accounts |        686850048
 2017-02-08 13:31:30.940416+01 | 1486557090.94042 | pgbench_tellers  |          1966080
 2017-02-08 13:31:30.940416+01 | 1486557090.94042 | pgbench_history  |        142336000
 2017-02-08 13:31:30.940416+01 | 1486557090.94042 | pgbench_branches |           868352

 2017-02-08 13:31:32.06075+01 | 1486557092.06075 | pgbench_accounts |        686850048
 2017-02-08 13:31:32.06075+01 | 1486557092.06075 | pgbench_tellers  |          1966080
 2017-02-08 13:31:32.06075+01 | 1486557092.06075 | pgbench_history  |        143089664
 2017-02-08 13:31:32.06075+01 | 1486557092.06075 | pgbench_branches |           868352

 2017-02-08 13:31:33.154065+01 | 1486557093.15406 | pgbench_accounts |        686850048
 2017-02-08 13:31:33.154065+01 | 1486557093.15406 | pgbench_tellers  |          1966080
 2017-02-08 13:31:33.154065+01 | 1486557093.15406 | pgbench_history  |        143851520
 2017-02-08 13:31:33.154065+01 | 1486557093.15406 | pgbench_branches |           868352

 2017-02-08 13:31:34.274156+01 | 1486557094.27416 | pgbench_accounts |        686850048
 2017-02-08 13:31:34.274156+01 | 1486557094.27416 | pgbench_tellers  |          1966080
 2017-02-08 13:31:34.274156+01 | 1486557094.27416 | pgbench_history  |        144629760
 2017-02-08 13:31:34.274156+01 | 1486557094.27416 | pgbench_branches |           868352

 2017-02-08 13:31:35.385136+01 | 1486557095.38514 | pgbench_accounts |        686850048
 2017-02-08 13:31:35.385136+01 | 1486557095.38514 | pgbench_tellers  |          1966080
 2017-02-08 13:31:35.385136+01 | 1486557095.38514 | pgbench_history  |        145334272
 2017-02-08 13:31:35.385136+01 | 1486557095.38514 | pgbench_branches |           868352

 2017-02-08 13:31:36.491329+01 | 1486557096.49133 | pgbench_accounts |        686850048
 2017-02-08 13:31:36.491329+01 | 1486557096.49133 | pgbench_tellers  |          1966080
 2017-02-08 13:31:36.491329+01 | 1486557096.49133 | pgbench_history  |        146087936
 2017-02-08 13:31:36.491329+01 | 1486557096.49133 | pgbench_branches |           868352

 2017-02-08 13:31:37.597303+01 | 1486557097.5973 | pgbench_accounts |        686850048
 2017-02-08 13:31:37.597303+01 | 1486557097.5973 | pgbench_tellers  |          1966080
 2017-02-08 13:31:37.597303+01 | 1486557097.5973 | pgbench_history  |        146874368
 2017-02-08 13:31:37.597303+01 | 1486557097.5973 | pgbench_branches |           868352

 2017-02-08 13:31:38.692733+01 | 1486557098.69273 | pgbench_accounts |        686850048
 2017-02-08 13:31:38.692733+01 | 1486557098.69273 | pgbench_tellers  |          1966080
 2017-02-08 13:31:38.692733+01 | 1486557098.69273 | pgbench_history  |        147603456
 2017-02-08 13:31:38.692733+01 | 1486557098.69273 | pgbench_branches |           868352

 2017-02-08 13:31:39.788366+01 | 1486557099.78837 | pgbench_accounts |        686850048
 2017-02-08 13:31:39.788366+01 | 1486557099.78837 | pgbench_tellers  |          1966080
 2017-02-08 13:31:39.788366+01 | 1486557099.78837 | pgbench_history  |        148381696
 2017-02-08 13:31:39.788366+01 | 1486557099.78837 | pgbench_branches |           868352

 2017-02-08 13:31:40.903656+01 | 1486557100.90366 | pgbench_accounts |        686850048
 2017-02-08 13:31:40.903656+01 | 1486557100.90366 | pgbench_tellers  |          1966080
 2017-02-08 13:31:40.903656+01 | 1486557100.90366 | pgbench_history  |        149151744
 2017-02-08 13:31:40.903656+01 | 1486557100.90366 | pgbench_branches |           868352

 2017-02-08 13:31:42.003118+01 | 1486557102.00312 | pgbench_accounts |        686850048
 2017-02-08 13:31:42.003118+01 | 1486557102.00312 | pgbench_tellers  |          1966080
 2017-02-08 13:31:42.003118+01 | 1486557102.00312 | pgbench_history  |        150167552
 2017-02-08 13:31:42.003118+01 | 1486557102.00312 | pgbench_branches |           868352

 2017-02-08 13:31:43.124931+01 | 1486557103.12493 | pgbench_accounts |        686850048
 2017-02-08 13:31:43.124931+01 | 1486557103.12493 | pgbench_tellers  |          1966080
 2017-02-08 13:31:43.124931+01 | 1486557103.12493 | pgbench_history  |        150749184
 2017-02-08 13:31:43.124931+01 | 1486557103.12493 | pgbench_branches |           868352

 2017-02-08 13:31:44.240567+01 | 1486557104.24057 | pgbench_accounts |        686850048
 2017-02-08 13:31:44.240567+01 | 1486557104.24057 | pgbench_tellers  |          1966080
 2017-02-08 13:31:44.240567+01 | 1486557104.24057 | pgbench_history  |        152166400
 2017-02-08 13:31:44.240567+01 | 1486557104.24057 | pgbench_branches |           868352

 2017-02-08 13:31:45.360094+01 | 1486557105.36009 | pgbench_accounts |        686850048
 2017-02-08 13:31:45.360094+01 | 1486557105.36009 | pgbench_tellers  |          1966080
 2017-02-08 13:31:45.360094+01 | 1486557105.36009 | pgbench_history  |        152166400
 2017-02-08 13:31:45.360094+01 | 1486557105.36009 | pgbench_branches |           868352

 2017-02-08 13:31:46.462517+01 | 1486557106.46252 | pgbench_accounts |        686850048
 2017-02-08 13:31:46.462517+01 | 1486557106.46252 | pgbench_tellers  |          1966080
 2017-02-08 13:31:46.462517+01 | 1486557106.46252 | pgbench_history  |        153247744
 2017-02-08 13:31:46.462517+01 | 1486557106.46252 | pgbench_branches |           868352

 2017-02-08 13:31:47.571279+01 | 1486557107.57128 | pgbench_accounts |        686850048
 2017-02-08 13:31:47.571279+01 | 1486557107.57128 | pgbench_tellers  |          1966080
 2017-02-08 13:31:47.571279+01 | 1486557107.57128 | pgbench_history  |        153993216
 2017-02-08 13:31:47.571279+01 | 1486557107.57128 | pgbench_branches |           868352

 2017-02-08 13:31:48.681543+01 | 1486557108.68154 | pgbench_accounts |        686850048
 2017-02-08 13:31:48.681543+01 | 1486557108.68154 | pgbench_tellers  |          1966080
 2017-02-08 13:31:48.681543+01 | 1486557108.68154 | pgbench_history  |        154673152
 2017-02-08 13:31:48.681543+01 | 1486557108.68154 | pgbench_branches |           868352

 2017-02-08 13:31:49.78302+01 | 1486557109.78302 | pgbench_accounts |        686850048
 2017-02-08 13:31:49.78302+01 | 1486557109.78302 | pgbench_tellers  |          1966080
 2017-02-08 13:31:49.78302+01 | 1486557109.78302 | pgbench_history  |        155803648
 2017-02-08 13:31:49.78302+01 | 1486557109.78302 | pgbench_branches |           868352

 2017-02-08 13:31:50.895931+01 | 1486557110.89593 | pgbench_accounts |        686850048
 2017-02-08 13:31:50.895931+01 | 1486557110.89593 | pgbench_tellers  |          1966080
 2017-02-08 13:31:50.895931+01 | 1486557110.89593 | pgbench_history  |        156033024
 2017-02-08 13:31:50.895931+01 | 1486557110.89593 | pgbench_branches |           868352

 2017-02-08 13:31:52.014117+01 | 1486557112.01412 | pgbench_accounts |        686850048
 2017-02-08 13:31:52.014117+01 | 1486557112.01412 | pgbench_tellers  |          1966080
 2017-02-08 13:31:52.014117+01 | 1486557112.01412 | pgbench_history  |        156835840
 2017-02-08 13:31:52.014117+01 | 1486557112.01412 | pgbench_branches |           868352

 2017-02-08 13:31:53.117033+01 | 1486557113.11703 | pgbench_accounts |        686850048
 2017-02-08 13:31:53.117033+01 | 1486557113.11703 | pgbench_tellers  |          1966080
 2017-02-08 13:31:53.117033+01 | 1486557113.11703 | pgbench_history  |        157614080
 2017-02-08 13:31:53.117033+01 | 1486557113.11703 | pgbench_branches |           868352

 2017-02-08 13:31:54.217114+01 | 1486557114.21711 | pgbench_accounts |        686850048
 2017-02-08 13:31:54.217114+01 | 1486557114.21711 | pgbench_tellers  |          1966080
 2017-02-08 13:31:54.217114+01 | 1486557114.21711 | pgbench_history  |        158498816
 2017-02-08 13:31:54.217114+01 | 1486557114.21711 | pgbench_branches |           868352

 2017-02-08 13:31:55.34239+01 | 1486557115.34239 | pgbench_accounts |        686850048
 2017-02-08 13:31:55.34239+01 | 1486557115.34239 | pgbench_tellers  |          1966080
 2017-02-08 13:31:55.34239+01 | 1486557115.34239 | pgbench_history  |        159154176
 2017-02-08 13:31:55.34239+01 | 1486557115.34239 | pgbench_branches |           868352

 2017-02-08 13:31:56.443954+01 | 1486557116.44395 | pgbench_accounts |        686850048
 2017-02-08 13:31:56.443954+01 | 1486557116.44395 | pgbench_tellers  |          1966080
 2017-02-08 13:31:56.443954+01 | 1486557116.44395 | pgbench_history  |        159899648
 2017-02-08 13:31:56.443954+01 | 1486557116.44395 | pgbench_branches |           868352

 2017-02-08 13:31:57.57688+01 | 1486557117.57688 | pgbench_accounts |        686850048
 2017-02-08 13:31:57.57688+01 | 1486557117.57688 | pgbench_tellers  |          1966080
 2017-02-08 13:31:57.57688+01 | 1486557117.57688 | pgbench_history  |        160718848
 2017-02-08 13:31:57.57688+01 | 1486557117.57688 | pgbench_branches |           868352

 2017-02-08 13:31:58.676187+01 | 1486557118.67619 | pgbench_accounts |        686850048
 2017-02-08 13:31:58.676187+01 | 1486557118.67619 | pgbench_tellers  |          1966080
 2017-02-08 13:31:58.676187+01 | 1486557118.67619 | pgbench_history  |        161447936
 2017-02-08 13:31:58.676187+01 | 1486557118.67619 | pgbench_branches |           868352

 2017-02-08 13:31:59.766628+01 | 1486557119.76663 | pgbench_accounts |        686850048
 2017-02-08 13:31:59.766628+01 | 1486557119.76663 | pgbench_tellers  |          1966080
 2017-02-08 13:31:59.766628+01 | 1486557119.76663 | pgbench_history  |        162209792
 2017-02-08 13:31:59.766628+01 | 1486557119.76663 | pgbench_branches |           868352

 2017-02-08 13:32:00.89075+01 | 1486557120.89075 | pgbench_accounts |        686850048
 2017-02-08 13:32:00.89075+01 | 1486557120.89075 | pgbench_tellers  |          1966080
 2017-02-08 13:32:00.89075+01 | 1486557120.89075 | pgbench_history  |        162996224
 2017-02-08 13:32:00.89075+01 | 1486557120.89075 | pgbench_branches |           868352

 2017-02-08 13:32:02.010161+01 | 1486557122.01016 | pgbench_accounts |        686850048
 2017-02-08 13:32:02.010161+01 | 1486557122.01016 | pgbench_tellers  |          1966080
 2017-02-08 13:32:02.010161+01 | 1486557122.01016 | pgbench_history  |        163766272
 2017-02-08 13:32:02.010161+01 | 1486557122.01016 | pgbench_branches |           868352

 2017-02-08 13:32:03.100368+01 | 1486557123.10037 | pgbench_accounts |        686850048
 2017-02-08 13:32:03.100368+01 | 1486557123.10037 | pgbench_tellers  |          1966080
 2017-02-08 13:32:03.100368+01 | 1486557123.10037 | pgbench_history  |        164511744
 2017-02-08 13:32:03.100368+01 | 1486557123.10037 | pgbench_branches |           868352

 2017-02-08 13:32:04.215095+01 | 1486557124.2151 | pgbench_accounts |        686850048
 2017-02-08 13:32:04.215095+01 | 1486557124.2151 | pgbench_tellers  |          1966080
 2017-02-08 13:32:04.215095+01 | 1486557124.2151 | pgbench_history  |        165421056
 2017-02-08 13:32:04.215095+01 | 1486557124.2151 | pgbench_branches |           868352

 2017-02-08 13:32:05.320402+01 | 1486557125.3204 | pgbench_accounts |        686850048
 2017-02-08 13:32:05.320402+01 | 1486557125.3204 | pgbench_tellers  |          1966080
 2017-02-08 13:32:05.320402+01 | 1486557125.3204 | pgbench_history  |        166166528
 2017-02-08 13:32:05.320402+01 | 1486557125.3204 | pgbench_branches |           868352

 2017-02-08 13:32:06.438291+01 | 1486557126.43829 | pgbench_accounts |        686850048
 2017-02-08 13:32:06.438291+01 | 1486557126.43829 | pgbench_tellers  |          1966080
 2017-02-08 13:32:06.438291+01 | 1486557126.43829 | pgbench_history  |        167010304
 2017-02-08 13:32:06.438291+01 | 1486557126.43829 | pgbench_branches |           868352

 2017-02-08 13:32:07.527172+01 | 1486557127.52717 | pgbench_accounts |        686850048
 2017-02-08 13:32:07.527172+01 | 1486557127.52717 | pgbench_tellers  |          1966080
 2017-02-08 13:32:07.527172+01 | 1486557127.52717 | pgbench_history  |        167624704
 2017-02-08 13:32:07.527172+01 | 1486557127.52717 | pgbench_branches |           868352

 2017-02-08 13:32:08.642715+01 | 1486557128.64271 | pgbench_accounts |        686850048
 2017-02-08 13:32:08.642715+01 | 1486557128.64271 | pgbench_tellers  |          1966080
 2017-02-08 13:32:08.642715+01 | 1486557128.64271 | pgbench_history  |        168361984
 2017-02-08 13:32:08.642715+01 | 1486557128.64271 | pgbench_branches |           868352

 2017-02-08 13:32:09.742989+01 | 1486557129.74299 | pgbench_accounts |        686850048
 2017-02-08 13:32:09.742989+01 | 1486557129.74299 | pgbench_tellers  |          1966080
 2017-02-08 13:32:09.742989+01 | 1486557129.74299 | pgbench_history  |        169107456
 2017-02-08 13:32:09.742989+01 | 1486557129.74299 | pgbench_branches |           868352

 2017-02-08 13:32:10.845837+01 | 1486557130.84584 | pgbench_accounts |        686850048
 2017-02-08 13:32:10.845837+01 | 1486557130.84584 | pgbench_tellers  |          1966080
 2017-02-08 13:32:10.845837+01 | 1486557130.84584 | pgbench_history  |        169910272
 2017-02-08 13:32:10.845837+01 | 1486557130.84584 | pgbench_branches |           868352

 2017-02-08 13:32:11.94573+01 | 1486557131.94573 | pgbench_accounts |        686850048
 2017-02-08 13:32:11.94573+01 | 1486557131.94573 | pgbench_tellers  |          1966080
 2017-02-08 13:32:11.94573+01 | 1486557131.94573 | pgbench_history  |        170622976
 2017-02-08 13:32:11.94573+01 | 1486557131.94573 | pgbench_branches |           868352

 2017-02-08 13:32:13.051506+01 | 1486557133.05151 | pgbench_accounts |        686850048
 2017-02-08 13:32:13.051506+01 | 1486557133.05151 | pgbench_tellers  |          1966080
 2017-02-08 13:32:13.051506+01 | 1486557133.05151 | pgbench_history  |        171401216
 2017-02-08 13:32:13.051506+01 | 1486557133.05151 | pgbench_branches |           868352

 2017-02-08 13:32:14.13912+01 | 1486557134.13912 | pgbench_accounts |        686850048
 2017-02-08 13:32:14.13912+01 | 1486557134.13912 | pgbench_tellers  |          1966080
 2017-02-08 13:32:14.13912+01 | 1486557134.13912 | pgbench_history  |        172146688
 2017-02-08 13:32:14.13912+01 | 1486557134.13912 | pgbench_branches |           868352

 2017-02-08 13:32:15.219784+01 | 1486557135.21978 | pgbench_accounts |        686850048
 2017-02-08 13:32:15.219784+01 | 1486557135.21978 | pgbench_tellers  |          1966080
 2017-02-08 13:32:15.219784+01 | 1486557135.21978 | pgbench_history  |        172908544
 2017-02-08 13:32:15.219784+01 | 1486557135.21978 | pgbench_branches |           868352

 2017-02-08 13:32:16.293627+01 | 1486557136.29363 | pgbench_accounts |        686850048
 2017-02-08 13:32:16.293627+01 | 1486557136.29363 | pgbench_tellers  |          1966080
 2017-02-08 13:32:16.293627+01 | 1486557136.29363 | pgbench_history  |        173629440
 2017-02-08 13:32:16.293627+01 | 1486557136.29363 | pgbench_branches |           868352

 2017-02-08 13:32:17.414015+01 | 1486557137.41402 | pgbench_accounts |        686850048
 2017-02-08 13:32:17.414015+01 | 1486557137.41402 | pgbench_tellers  |          1966080
 2017-02-08 13:32:17.414015+01 | 1486557137.41402 | pgbench_history  |        174424064
 2017-02-08 13:32:17.414015+01 | 1486557137.41402 | pgbench_branches |           868352

 2017-02-08 13:32:18.503783+01 | 1486557138.50378 | pgbench_accounts |        686850048
 2017-02-08 13:32:18.503783+01 | 1486557138.50378 | pgbench_tellers  |          1966080
 2017-02-08 13:32:18.503783+01 | 1486557138.50378 | pgbench_history  |        175194112
 2017-02-08 13:32:18.503783+01 | 1486557138.50378 | pgbench_branches |           868352

 2017-02-08 13:32:19.629716+01 | 1486557139.62972 | pgbench_accounts |        686850048
 2017-02-08 13:32:19.629716+01 | 1486557139.62972 | pgbench_tellers  |          1966080
 2017-02-08 13:32:19.629716+01 | 1486557139.62972 | pgbench_history  |        175947776
 2017-02-08 13:32:19.629716+01 | 1486557139.62972 | pgbench_branches |           868352

 2017-02-08 13:32:20.748237+01 | 1486557140.74824 | pgbench_accounts |        686850048
 2017-02-08 13:32:20.748237+01 | 1486557140.74824 | pgbench_tellers  |          1966080
 2017-02-08 13:32:20.748237+01 | 1486557140.74824 | pgbench_history  |        176660480
 2017-02-08 13:32:20.748237+01 | 1486557140.74824 | pgbench_branches |           868352

 2017-02-08 13:32:21.841573+01 | 1486557141.84157 | pgbench_accounts |        686850048
 2017-02-08 13:32:21.841573+01 | 1486557141.84157 | pgbench_tellers  |          1966080
 2017-02-08 13:32:21.841573+01 | 1486557141.84157 | pgbench_history  |        178028544
 2017-02-08 13:32:21.841573+01 | 1486557141.84157 | pgbench_branches |           868352

 2017-02-08 13:32:22.969741+01 | 1486557142.96974 | pgbench_accounts |        686850048
 2017-02-08 13:32:22.969741+01 | 1486557142.96974 | pgbench_tellers  |          1966080
 2017-02-08 13:32:22.969741+01 | 1486557142.96974 | pgbench_history  |        178380800
 2017-02-08 13:32:22.969741+01 | 1486557142.96974 | pgbench_branches |           868352

 2017-02-08 13:32:24.049894+01 | 1486557144.04989 | pgbench_accounts |        686850048
 2017-02-08 13:32:24.049894+01 | 1486557144.04989 | pgbench_tellers  |          1966080
 2017-02-08 13:32:24.049894+01 | 1486557144.04989 | pgbench_history  |        178872320
 2017-02-08 13:32:24.049894+01 | 1486557144.04989 | pgbench_branches |           868352

 2017-02-08 13:32:25.148747+01 | 1486557145.14875 | pgbench_accounts |        686850048
 2017-02-08 13:32:25.148747+01 | 1486557145.14875 | pgbench_tellers  |          1966080
 2017-02-08 13:32:25.148747+01 | 1486557145.14875 | pgbench_history  |        179527680
 2017-02-08 13:32:25.148747+01 | 1486557145.14875 | pgbench_branches |           868352

 2017-02-08 13:32:26.261101+01 | 1486557146.2611 | pgbench_accounts |        686850048
 2017-02-08 13:32:26.261101+01 | 1486557146.2611 | pgbench_tellers  |          1966080
 2017-02-08 13:32:26.261101+01 | 1486557146.2611 | pgbench_history  |        180338688
 2017-02-08 13:32:26.261101+01 | 1486557146.2611 | pgbench_branches |           868352

 2017-02-08 13:32:27.364889+01 | 1486557147.36489 | pgbench_accounts |        686850048
 2017-02-08 13:32:27.364889+01 | 1486557147.36489 | pgbench_tellers  |          1966080
 2017-02-08 13:32:27.364889+01 | 1486557147.36489 | pgbench_history  |        181280768
 2017-02-08 13:32:27.364889+01 | 1486557147.36489 | pgbench_branches |           868352

 2017-02-08 13:32:28.483552+01 | 1486557148.48355 | pgbench_accounts |        686850048
 2017-02-08 13:32:28.483552+01 | 1486557148.48355 | pgbench_tellers  |          1966080
 2017-02-08 13:32:28.483552+01 | 1486557148.48355 | pgbench_history  |        181805056
 2017-02-08 13:32:28.483552+01 | 1486557148.48355 | pgbench_branches |           868352

 2017-02-08 13:32:29.587915+01 | 1486557149.58791 | pgbench_accounts |        686850048
 2017-02-08 13:32:29.587915+01 | 1486557149.58791 | pgbench_tellers  |          1966080
 2017-02-08 13:32:29.587915+01 | 1486557149.58791 | pgbench_history  |        182583296
 2017-02-08 13:32:29.587915+01 | 1486557149.58791 | pgbench_branches |           868352

 2017-02-08 13:32:30.68774+01 | 1486557150.68774 | pgbench_accounts |        686850048
 2017-02-08 13:32:30.68774+01 | 1486557150.68774 | pgbench_tellers  |          1966080
 2017-02-08 13:32:30.68774+01 | 1486557150.68774 | pgbench_history  |        183328768
 2017-02-08 13:32:30.68774+01 | 1486557150.68774 | pgbench_branches |           868352

 2017-02-08 13:32:31.801621+01 | 1486557151.80162 | pgbench_accounts |        686850048
 2017-02-08 13:32:31.801621+01 | 1486557151.80162 | pgbench_tellers  |          1966080
 2017-02-08 13:32:31.801621+01 | 1486557151.80162 | pgbench_history  |        184123392
 2017-02-08 13:32:31.801621+01 | 1486557151.80162 | pgbench_branches |           868352

 2017-02-08 13:32:32.903581+01 | 1486557152.90358 | pgbench_accounts |        686850048
 2017-02-08 13:32:32.903581+01 | 1486557152.90358 | pgbench_tellers  |          1966080
 2017-02-08 13:32:32.903581+01 | 1486557152.90358 | pgbench_history  |        185139200
 2017-02-08 13:32:32.903581+01 | 1486557152.90358 | pgbench_branches |           868352

 2017-02-08 13:32:34.002351+01 | 1486557154.00235 | pgbench_accounts |        686850048
 2017-02-08 13:32:34.002351+01 | 1486557154.00235 | pgbench_tellers  |          1966080
 2017-02-08 13:32:34.002351+01 | 1486557154.00235 | pgbench_history  |        185679872
 2017-02-08 13:32:34.002351+01 | 1486557154.00235 | pgbench_branches |           868352

 2017-02-08 13:32:35.102031+01 | 1486557155.10203 | pgbench_accounts |        686850048
 2017-02-08 13:32:35.102031+01 | 1486557155.10203 | pgbench_tellers  |          1966080
 2017-02-08 13:32:35.102031+01 | 1486557155.10203 | pgbench_history  |        186425344
 2017-02-08 13:32:35.102031+01 | 1486557155.10203 | pgbench_branches |           868352

 2017-02-08 13:32:36.219401+01 | 1486557156.2194 | pgbench_accounts |        686850048
 2017-02-08 13:32:36.219401+01 | 1486557156.2194 | pgbench_tellers  |          1966080
 2017-02-08 13:32:36.219401+01 | 1486557156.2194 | pgbench_history  |        187187200
 2017-02-08 13:32:36.219401+01 | 1486557156.2194 | pgbench_branches |           868352

 2017-02-08 13:32:37.296416+01 | 1486557157.29642 | pgbench_accounts |        686850048
 2017-02-08 13:32:37.296416+01 | 1486557157.29642 | pgbench_tellers  |          1966080
 2017-02-08 13:32:37.296416+01 | 1486557157.29642 | pgbench_history  |        187924480
 2017-02-08 13:32:37.296416+01 | 1486557157.29642 | pgbench_branches |           868352

 2017-02-08 13:32:38.418962+01 | 1486557158.41896 | pgbench_accounts |        686850048
 2017-02-08 13:32:38.418962+01 | 1486557158.41896 | pgbench_tellers  |          1966080
 2017-02-08 13:32:38.418962+01 | 1486557158.41896 | pgbench_history  |        188727296
 2017-02-08 13:32:38.418962+01 | 1486557158.41896 | pgbench_branches |           868352

 2017-02-08 13:32:39.553575+01 | 1486557159.55358 | pgbench_accounts |        686850048
 2017-02-08 13:32:39.553575+01 | 1486557159.55358 | pgbench_tellers  |          1966080
 2017-02-08 13:32:39.553575+01 | 1486557159.55358 | pgbench_history  |        189489152
 2017-02-08 13:32:39.553575+01 | 1486557159.55358 | pgbench_branches |           868352

 2017-02-08 13:32:40.661612+01 | 1486557160.66161 | pgbench_accounts |        686850048
 2017-02-08 13:32:40.661612+01 | 1486557160.66161 | pgbench_tellers  |          1966080
 2017-02-08 13:32:40.661612+01 | 1486557160.66161 | pgbench_history  |        190267392
 2017-02-08 13:32:40.661612+01 | 1486557160.66161 | pgbench_branches |           868352

 2017-02-08 13:32:41.775699+01 | 1486557161.7757 | pgbench_accounts |        686850048
 2017-02-08 13:32:41.775699+01 | 1486557161.7757 | pgbench_tellers  |          1966080
 2017-02-08 13:32:41.775699+01 | 1486557161.7757 | pgbench_history  |        191045632
 2017-02-08 13:32:41.775699+01 | 1486557161.7757 | pgbench_branches |           868352

 2017-02-08 13:32:42.884583+01 | 1486557162.88458 | pgbench_accounts |        686850048
 2017-02-08 13:32:42.884583+01 | 1486557162.88458 | pgbench_tellers  |          1966080
 2017-02-08 13:32:42.884583+01 | 1486557162.88458 | pgbench_history  |        191823872
 2017-02-08 13:32:42.884583+01 | 1486557162.88458 | pgbench_branches |           868352

 2017-02-08 13:32:44.00305+01 | 1486557164.00305 | pgbench_accounts |        686850048
 2017-02-08 13:32:44.00305+01 | 1486557164.00305 | pgbench_tellers  |          1966080
 2017-02-08 13:32:44.00305+01 | 1486557164.00305 | pgbench_history  |        192626688
 2017-02-08 13:32:44.00305+01 | 1486557164.00305 | pgbench_branches |           868352

 2017-02-08 13:32:45.122352+01 | 1486557165.12235 | pgbench_accounts |        686850048
 2017-02-08 13:32:45.122352+01 | 1486557165.12235 | pgbench_tellers  |          1966080
 2017-02-08 13:32:45.122352+01 | 1486557165.12235 | pgbench_history  |        193363968
 2017-02-08 13:32:45.122352+01 | 1486557165.12235 | pgbench_branches |           868352

 2017-02-08 13:32:46.222951+01 | 1486557166.22295 | pgbench_accounts |        686850048
 2017-02-08 13:32:46.222951+01 | 1486557166.22295 | pgbench_tellers  |          1966080
 2017-02-08 13:32:46.222951+01 | 1486557166.22295 | pgbench_history  |        194519040
 2017-02-08 13:32:46.222951+01 | 1486557166.22295 | pgbench_branches |           868352

 2017-02-08 13:32:47.321554+01 | 1486557167.32155 | pgbench_accounts |        686850048
 2017-02-08 13:32:47.321554+01 | 1486557167.32155 | pgbench_tellers  |          1966080
 2017-02-08 13:32:47.321554+01 | 1486557167.32155 | pgbench_history  |        195067904
 2017-02-08 13:32:47.321554+01 | 1486557167.32155 | pgbench_branches |           868352

 2017-02-08 13:32:48.435653+01 | 1486557168.43565 | pgbench_accounts |        686850048
 2017-02-08 13:32:48.435653+01 | 1486557168.43565 | pgbench_tellers  |          1966080
 2017-02-08 13:32:48.435653+01 | 1486557168.43565 | pgbench_history  |        196960256
 2017-02-08 13:32:48.435653+01 | 1486557168.43565 | pgbench_branches |           868352

 2017-02-08 13:32:49.534245+01 | 1486557169.53425 | pgbench_accounts |        686850048
 2017-02-08 13:32:49.534245+01 | 1486557169.53425 | pgbench_tellers  |          1966080
 2017-02-08 13:32:49.534245+01 | 1486557169.53425 | pgbench_history  |        196960256
 2017-02-08 13:32:49.534245+01 | 1486557169.53425 | pgbench_branches |           868352

 2017-02-08 13:32:50.674274+01 | 1486557170.67427 | pgbench_accounts |        686850048
 2017-02-08 13:32:50.674274+01 | 1486557170.67427 | pgbench_tellers  |          1966080
 2017-02-08 13:32:50.674274+01 | 1486557170.67427 | pgbench_history  |        197337088
 2017-02-08 13:32:50.674274+01 | 1486557170.67427 | pgbench_branches |           868352

 2017-02-08 13:32:51.764939+01 | 1486557171.76494 | pgbench_accounts |        686850048
 2017-02-08 13:32:51.764939+01 | 1486557171.76494 | pgbench_tellers  |          1966080
 2017-02-08 13:32:51.764939+01 | 1486557171.76494 | pgbench_history  |        198008832
 2017-02-08 13:32:51.764939+01 | 1486557171.76494 | pgbench_branches |           868352

 2017-02-08 13:32:52.88349+01 | 1486557172.88349 | pgbench_accounts |        686850048
 2017-02-08 13:32:52.88349+01 | 1486557172.88349 | pgbench_tellers  |          1966080
 2017-02-08 13:32:52.88349+01 | 1486557172.88349 | pgbench_history  |        198868992
 2017-02-08 13:32:52.88349+01 | 1486557172.88349 | pgbench_branches |           868352

 2017-02-08 13:32:53.996111+01 | 1486557173.99611 | pgbench_accounts |        686850048
 2017-02-08 13:32:53.996111+01 | 1486557173.99611 | pgbench_tellers  |          1966080
 2017-02-08 13:32:53.996111+01 | 1486557173.99611 | pgbench_history  |        199598080
 2017-02-08 13:32:53.996111+01 | 1486557173.99611 | pgbench_branches |           868352

 2017-02-08 13:32:55.097472+01 | 1486557175.09747 | pgbench_accounts |        686850048
 2017-02-08 13:32:55.097472+01 | 1486557175.09747 | pgbench_tellers  |          1966080
 2017-02-08 13:32:55.097472+01 | 1486557175.09747 | pgbench_history  |        200441856
 2017-02-08 13:32:55.097472+01 | 1486557175.09747 | pgbench_branches |           868352

 2017-02-08 13:32:56.200335+01 | 1486557176.20034 | pgbench_accounts |        686850048
 2017-02-08 13:32:56.200335+01 | 1486557176.20034 | pgbench_tellers  |          1966080
 2017-02-08 13:32:56.200335+01 | 1486557176.20034 | pgbench_history  |        201211904
 2017-02-08 13:32:56.200335+01 | 1486557176.20034 | pgbench_branches |           868352

 2017-02-08 13:32:57.320629+01 | 1486557177.32063 | pgbench_accounts |        686850048
 2017-02-08 13:32:57.320629+01 | 1486557177.32063 | pgbench_tellers  |          1966080
 2017-02-08 13:32:57.320629+01 | 1486557177.32063 | pgbench_history  |        201965568
 2017-02-08 13:32:57.320629+01 | 1486557177.32063 | pgbench_branches |           868352

 2017-02-08 13:32:58.448047+01 | 1486557178.44805 | pgbench_accounts |        686850048
 2017-02-08 13:32:58.448047+01 | 1486557178.44805 | pgbench_tellers  |          1966080
 2017-02-08 13:32:58.448047+01 | 1486557178.44805 | pgbench_history  |        202711040
 2017-02-08 13:32:58.448047+01 | 1486557178.44805 | pgbench_branches |           868352

 2017-02-08 13:32:59.576904+01 | 1486557179.5769 | pgbench_accounts |        686850048
 2017-02-08 13:32:59.576904+01 | 1486557179.5769 | pgbench_tellers  |          1966080
 2017-02-08 13:32:59.576904+01 | 1486557179.5769 | pgbench_history  |        203448320
 2017-02-08 13:32:59.576904+01 | 1486557179.5769 | pgbench_branches |           868352

 2017-02-08 13:33:00.68922+01 | 1486557180.68922 | pgbench_accounts |        686850048
 2017-02-08 13:33:00.68922+01 | 1486557180.68922 | pgbench_tellers  |          1966080
 2017-02-08 13:33:00.68922+01 | 1486557180.68922 | pgbench_history  |        205209600
 2017-02-08 13:33:00.68922+01 | 1486557180.68922 | pgbench_branches |           868352

 2017-02-08 13:33:01.830955+01 | 1486557181.83096 | pgbench_accounts |        686850048
 2017-02-08 13:33:01.830955+01 | 1486557181.83096 | pgbench_tellers  |          1966080
 2017-02-08 13:33:01.830955+01 | 1486557181.83096 | pgbench_history  |        205209600
 2017-02-08 13:33:01.830955+01 | 1486557181.83096 | pgbench_branches |           868352

