 2017-02-08 13:28:01.79706+01 | 1486556881.79706 | 5/BB25D088               |           24614654088

 2017-02-08 13:28:02.880334+01 | 1486556882.88033 | 5/C05F83B0               |           24702321584

 2017-02-08 13:28:03.972751+01 | 1486556883.97275 | 5/C41F8670               |           24765236848

 2017-02-08 13:28:05.075895+01 | 1486556885.0759 | 5/C6DC3758               |           24811157336

 2017-02-08 13:28:06.161259+01 | 1486556886.16126 | 5/C8FD3860               |           24846874720

 2017-02-08 13:28:07.269918+01 | 1486556887.26992 | 5/CAD86E70               |           24878018160

 2017-02-08 13:28:08.332811+01 | 1486556888.33281 | 5/CC5A7AC0               |           24903318208

 2017-02-08 13:28:09.418885+01 | 1486556889.41888 | 5/CDCCAE48               |           24927579720

 2017-02-08 13:28:10.518686+01 | 1486556890.51869 | 5/CF1CFC58               |           24949619800

 2017-02-08 13:28:11.62888+01 | 1486556891.62888 | 5/D055D688               |           24970122888

 2017-02-08 13:28:12.733317+01 | 1486556892.73332 | 5/D173B4E8               |           24988857576

 2017-02-08 13:28:13.838456+01 | 1486556893.83846 | 5/D28ACEB0               |           25007148720

 2017-02-08 13:28:14.937213+01 | 1486556894.93721 | 5/D3BAC160               |           25027068256

 2017-02-08 13:28:16.01659+01 | 1486556896.01659 | 5/D57841F0               |           25056264688

 2017-02-08 13:28:17.11192+01 | 1486556897.11192 | 5/D7437A20               |           25086360096

 2017-02-08 13:28:18.185449+01 | 1486556898.18545 | 5/D8EE91A0               |           25114349984

 2017-02-08 13:28:19.279056+01 | 1486556899.27906 | 5/DA8D3028               |           25141522472

 2017-02-08 13:28:20.398175+01 | 1486556900.39818 | 5/DC02A580               |           25165997440

 2017-02-08 13:28:21.48587+01 | 1486556901.48587 | 5/DD3BE998               |           25186527640

 2017-02-08 13:28:22.575928+01 | 1486556902.57593 | 5/DE0518A0               |           25199712416

 2017-02-08 13:28:23.71413+01 | 1486556903.71413 | 5/DF46B6C8               |           25220789960

 2017-02-08 13:28:24.820288+01 | 1486556904.82029 | 5/E00CA060               |           25233760352

 2017-02-08 13:28:25.937683+01 | 1486556905.93768 | 5/E07F8E70               |           25241292400

 2017-02-08 13:28:27.068936+01 | 1486556907.06894 | 5/E0EC4288               |           25248416392

 2017-02-08 13:28:28.183551+01 | 1486556908.18355 | 5/E1580340               |           25255478080

 2017-02-08 13:28:29.28853+01 | 1486556909.28853 | 5/E1C0FEF0               |           25262358256

 2017-02-08 13:28:30.403414+01 | 1486556910.40341 | 5/E22AB248               |           25269285448

 2017-02-08 13:28:31.510581+01 | 1486556911.51058 | 5/E292F2F8               |           25276117752

 2017-02-08 13:28:32.616911+01 | 1486556912.61691 | 5/E2FE4088               |           25283149960

 2017-02-08 13:28:33.712109+01 | 1486556913.71211 | 5/E3650710               |           25289885456

 2017-02-08 13:28:34.808371+01 | 1486556914.80837 | 5/E3CAD968               |           25296558440

 2017-02-08 13:28:35.914052+01 | 1486556915.91405 | 5/E4349320               |           25303487264

 2017-02-08 13:28:37.020046+01 | 1486556917.02005 | 5/E49D1260               |           25310335584

 2017-02-08 13:28:38.0921+01 | 1486556918.0921 | 5/E502CF30               |           25317003056

 2017-02-08 13:28:39.247602+01 | 1486556919.2476 | 5/E56DFB60               |           25324026720

 2017-02-08 13:28:40.369553+01 | 1486556920.36955 | 5/E5D7FE48               |           25330974280

 2017-02-08 13:28:41.49331+01 | 1486556921.49331 | 5/E63F6B28               |           25337752360

 2017-02-08 13:28:42.615479+01 | 1486556922.61548 | 5/E6AABDA0               |           25344785824

 2017-02-08 13:28:43.723536+01 | 1486556923.72354 | 5/E71137D8               |           25351501784

 2017-02-08 13:28:44.826331+01 | 1486556924.82633 | 5/E777F0F8               |           25358233848

 2017-02-08 13:28:45.934567+01 | 1486556925.93457 | 5/E7DD1750               |           25364862800

 2017-02-08 13:28:47.054176+01 | 1486556927.05418 | 5/E8459860               |           25371711584

 2017-02-08 13:28:48.165119+01 | 1486556928.16512 | 5/E8AC9300               |           25378460416

 2017-02-08 13:28:49.272357+01 | 1486556929.27236 | 5/E9126CB0               |           25385135280

 2017-02-08 13:28:50.364902+01 | 1486556930.3649 | 5/E975F548               |           25391658312

 2017-02-08 13:28:51.497152+01 | 1486556931.49715 | 5/E9DF6EB8               |           25398570680

 2017-02-08 13:28:52.620518+01 | 1486556932.62052 | 5/EA452510               |           25405236496

 2017-02-08 13:28:53.726424+01 | 1486556933.72642 | 5/EAABAEF0               |           25411956464

 2017-02-08 13:28:54.826641+01 | 1486556934.82664 | 5/EB1179E0               |           25418627552

 2017-02-08 13:28:55.952934+01 | 1486556935.95293 | 5/EB7C62C0               |           25425633984

 2017-02-08 13:28:57.057132+01 | 1486556937.05713 | 5/EBE4A910               |           25432467728

 2017-02-08 13:28:58.145665+01 | 1486556938.14566 | 5/EC48CFF8               |           25439031288

 2017-02-08 13:28:59.266715+01 | 1486556939.26672 | 5/ECB0AF58               |           25445838680

 2017-02-08 13:29:00.405505+01 | 1486556940.4055 | 5/ED1BCE70               |           25452858992

 2017-02-08 13:29:01.507367+01 | 1486556941.50737 | 5/ED81E6B0               |           25459549872

 2017-02-08 13:29:02.63087+01 | 1486556942.63087 | 5/EDEAFAF8               |           25466436344

 2017-02-08 13:29:03.768788+01 | 1486556943.76879 | 5/EE58AFC8               |           25473626056

 2017-02-08 13:29:04.898833+01 | 1486556944.89883 | 5/EEDEFC98               |           25482427544

 2017-02-08 13:29:05.981113+01 | 1486556945.98111 | 5/EF5D89F8               |           25490721272

 2017-02-08 13:29:07.116166+01 | 1486556947.11617 | 5/EFE857F8               |           25499817976

 2017-02-08 13:29:08.205827+01 | 1486556948.20583 | 5/F065B4F0               |           25508033776

 2017-02-08 13:29:09.352407+01 | 1486556949.35241 | 5/F0F06DA8               |           25517125032

 2017-02-08 13:29:10.439822+01 | 1486556950.43982 | 5/F17181A0               |           25525584288

 2017-02-08 13:29:11.517225+01 | 1486556951.51723 | 5/F1F44A60               |           25534155360

 2017-02-08 13:29:12.602139+01 | 1486556952.60214 | 5/F2792C68               |           25542863976

 2017-02-08 13:29:13.713001+01 | 1486556953.713 | 5/F2FD3E58               |           25551519320

 2017-02-08 13:29:14.814151+01 | 1486556954.81415 | 5/F3832FC8               |           25560297416

 2017-02-08 13:29:15.908622+01 | 1486556955.90862 | 5/F40114C8               |           25568548040

 2017-02-08 13:29:17.001466+01 | 1486556957.00147 | 5/F4876A98               |           25577351832

 2017-02-08 13:29:18.069585+01 | 1486556958.06959 | 5/F50B5938               |           25585998136

 2017-02-08 13:29:19.156175+01 | 1486556959.15617 | 5/F58E4260               |           25594577504

 2017-02-08 13:29:20.29038+01 | 1486556960.29038 | 5/F62FE8A8               |           25605171368

 2017-02-08 13:29:21.378928+01 | 1486556961.37893 | 5/F6C7AB38               |           25615117112

 2017-02-08 13:29:22.45707+01 | 1486556962.45707 | 5/F744CE40               |           25623318080

 2017-02-08 13:29:23.55918+01 | 1486556963.55918 | 5/F7C100C0               |           25631457472

 2017-02-08 13:29:24.673148+01 | 1486556964.67315 | 5/F84F6720               |           25640789792

 2017-02-08 13:29:25.796183+01 | 1486556965.79618 | 5/F8B685B8               |           25647547832

 2017-02-08 13:29:26.894263+01 | 1486556966.89426 | 5/F91A0F00               |           25654071040

 2017-02-08 13:29:28.027475+01 | 1486556968.02748 | 5/F9825B20               |           25660906272

 2017-02-08 13:29:29.155241+01 | 1486556969.15524 | 5/F9EA6690               |           25667724944

 2017-02-08 13:29:30.27551+01 | 1486556970.27551 | 5/FA511990               |           25674455440

 2017-02-08 13:29:31.382673+01 | 1486556971.38267 | 5/FAB5C590               |           25681053072

 2017-02-08 13:29:32.507949+01 | 1486556972.50795 | 5/FB1B8B50               |           25687722832

 2017-02-08 13:29:33.586192+01 | 1486556973.58619 | 5/FB7D6B80               |           25694137216

 2017-02-08 13:29:34.691807+01 | 1486556974.69181 | 5/FBE1D7A0               |           25700718496

 2017-02-08 13:29:35.770248+01 | 1486556975.77025 | 5/FC418EA0               |           25706991264

 2017-02-08 13:29:36.868141+01 | 1486556976.86814 | 5/FCA4D788               |           25713497992

 2017-02-08 13:29:37.966131+01 | 1486556977.96613 | 5/FD0727D0               |           25719941072

 2017-02-08 13:29:39.042296+01 | 1486556979.0423 | 5/FD66B1D8               |           25726202328

 2017-02-08 13:29:40.14521+01 | 1486556980.14521 | 5/FDCBF660               |           25732839008

 2017-02-08 13:29:41.241653+01 | 1486556981.24165 | 5/FE3018F0               |           25739401456

 2017-02-08 13:29:42.347211+01 | 1486556982.34721 | 5/FE945778               |           25745971064

 2017-02-08 13:29:43.44191+01 | 1486556983.44191 | 5/FEF75F68               |           25752461160

 2017-02-08 13:29:44.526423+01 | 1486556984.52642 | 5/FF599758               |           25758898008

 2017-02-08 13:29:45.641916+01 | 1486556985.64192 | 5/FFBDD500               |           25765467392

 2017-02-08 13:29:46.740145+01 | 1486556986.74014 | 6/1EFA70                 |           25771833968

 2017-02-08 13:29:47.837672+01 | 1486556987.83767 | 6/821510                 |           25778328848

 2017-02-08 13:29:48.948563+01 | 1486556988.94856 | 6/E68EF8                 |           25784913656

 2017-02-08 13:29:50.0418+01 | 1486556990.0418 | 6/148F3F0                |           25791362032

 2017-02-08 13:29:51.15175+01 | 1486556991.15175 | 6/1ADA408                |           25797960712

 2017-02-08 13:29:52.2485+01 | 1486556992.2485 | 6/20F1748                |           25804347208

 2017-02-08 13:29:53.346142+01 | 1486556993.34614 | 6/271D880                |           25810819200

 2017-02-08 13:29:54.461253+01 | 1486556994.46125 | 6/2D50E58                |           25817321048

 2017-02-08 13:29:55.559079+01 | 1486556995.55908 | 6/337B5A0                |           25823786400

 2017-02-08 13:29:56.668355+01 | 1486556996.66835 | 6/39A9B68                |           25830267752

 2017-02-08 13:29:57.777813+01 | 1486556997.77781 | 6/3FDD890                |           25836771472

 2017-02-08 13:29:58.898593+01 | 1486556998.89859 | 6/4619CE8                |           25843309800

 2017-02-08 13:29:59.985404+01 | 1486556999.9854 | 6/4C23EA0                |           25849642656

 2017-02-08 13:30:01.07081+01 | 1486557001.07081 | 6/522D190                |           25855971728

 2017-02-08 13:30:02.168618+01 | 1486557002.16862 | 6/58794B8                |           25862575288

 2017-02-08 13:30:03.247894+01 | 1486557003.24789 | 6/5E87BC8                |           25868925896

 2017-02-08 13:30:04.349016+01 | 1486557004.34902 | 6/64BDC78                |           25875438712

 2017-02-08 13:30:05.468387+01 | 1486557005.46839 | 6/6AFE7A0                |           25881995168

 2017-02-08 13:30:06.571868+01 | 1486557006.57187 | 6/711F9F0                |           25888422384

 2017-02-08 13:30:07.694128+01 | 1486557007.69413 | 6/7766948                |           25895004488

 2017-02-08 13:30:08.809347+01 | 1486557008.80935 | 6/7DBBF88                |           25901645704

 2017-02-08 13:30:09.928455+01 | 1486557009.92846 | 6/8405918                |           25908238616

 2017-02-08 13:30:11.035901+01 | 1486557011.0359 | 6/8A2FA18                |           25914702360

 2017-02-08 13:30:12.124062+01 | 1486557012.12406 | 6/902B5C8                |           25920976328

 2017-02-08 13:30:13.238302+01 | 1486557013.2383 | 6/966B658                |           25927530072

 2017-02-08 13:30:14.356029+01 | 1486557014.35603 | 6/9D24930                |           25934580016

 2017-02-08 13:30:15.47759+01 | 1486557015.47759 | 6/A4C4BB0                |           25942576048

 2017-02-08 13:30:16.552928+01 | 1486557016.55293 | 6/ABDD4D0                |           25950016720

 2017-02-08 13:30:17.688848+01 | 1486557017.68885 | 6/B230178                |           25956647288

 2017-02-08 13:30:18.836401+01 | 1486557018.8364 | 6/B8EBDF0                |           25963707888

 2017-02-08 13:30:19.916549+01 | 1486557019.91655 | 6/BFAD620                |           25970791968

 2017-02-08 13:30:21.014802+01 | 1486557021.0148 | 6/C5C6328                |           25977185064

 2017-02-08 13:30:22.10099+01 | 1486557022.10099 | 6/CC11F48                |           25983786824

 2017-02-08 13:30:23.232504+01 | 1486557023.2325 | 6/D256D68                |           25990360424

 2017-02-08 13:30:24.321546+01 | 1486557024.32155 | 6/D872090                |           25996763280

 2017-02-08 13:30:25.428708+01 | 1486557025.42871 | 6/DE8A388                |           26003153800

 2017-02-08 13:30:26.543303+01 | 1486557026.5433 | 6/E4C1E00                |           26009673216

 2017-02-08 13:30:27.625769+01 | 1486557027.62577 | 6/EAF8CA0                |           26016189600

 2017-02-08 13:30:28.717544+01 | 1486557028.71754 | 6/F11EAB8                |           26022636216

 2017-02-08 13:30:29.829635+01 | 1486557029.82963 | 6/F742AE8                |           26029075176

 2017-02-08 13:30:30.924034+01 | 1486557030.92403 | 6/FD5EBE8                |           26035481576

 2017-02-08 13:30:32.018498+01 | 1486557032.0185 | 6/103781A0               |           26041876896

 2017-02-08 13:30:33.12653+01 | 1486557033.12653 | 6/109AEAF0               |           26048391920

 2017-02-08 13:30:34.258111+01 | 1486557034.25811 | 6/10FF2AC8               |           26054961864

 2017-02-08 13:30:35.347665+01 | 1486557035.34767 | 6/116169B0               |           26061400496

 2017-02-08 13:30:36.473951+01 | 1486557036.47395 | 6/11C47AB0               |           26067892912

 2017-02-08 13:30:37.575799+01 | 1486557037.5758 | 6/122883F0               |           26074448880

 2017-02-08 13:30:38.701575+01 | 1486557038.70158 | 6/128B5D40               |           26080927040

 2017-02-08 13:30:39.790609+01 | 1486557039.79061 | 6/12ED7C90               |           26087357584

 2017-02-08 13:30:40.904597+01 | 1486557040.9046 | 6/1352A798               |           26093987736

 2017-02-08 13:30:42.000765+01 | 1486557042.00077 | 6/13B39240               |           26100339264

 2017-02-08 13:30:43.081739+01 | 1486557043.08174 | 6/14125FA0               |           26106552224

 2017-02-08 13:30:44.210617+01 | 1486557044.21062 | 6/147641F8               |           26113098232

 2017-02-08 13:30:45.320712+01 | 1486557045.32071 | 6/14D8E960               |           26119563616

 2017-02-08 13:30:46.445336+01 | 1486557046.44534 | 6/153D7EB8               |           26126155448

 2017-02-08 13:30:47.55299+01 | 1486557047.55299 | 6/15A13D28               |           26132692264

 2017-02-08 13:30:48.660245+01 | 1486557048.66024 | 6/16029FB0               |           26139074480

 2017-02-08 13:30:49.770077+01 | 1486557049.77008 | 6/1664E378               |           26145514360

 2017-02-08 13:30:50.879637+01 | 1486557050.87964 | 6/16C6A8D8               |           26151921880

 2017-02-08 13:30:51.980472+01 | 1486557051.98047 | 6/17275D50               |           26158259536

 2017-02-08 13:30:53.061739+01 | 1486557053.06174 | 6/1787C230               |           26164576816

 2017-02-08 13:30:54.153335+01 | 1486557054.15334 | 6/17E814F8               |           26170889464

 2017-02-08 13:30:55.290225+01 | 1486557055.29023 | 6/184D3618               |           26177517080

 2017-02-08 13:30:56.432982+01 | 1486557056.43298 | 6/18B45680               |           26184275584

 2017-02-08 13:30:57.545767+01 | 1486557057.54577 | 6/19199888               |           26190911624

 2017-02-08 13:30:58.656629+01 | 1486557058.65663 | 6/197CDF78               |           26197417848

 2017-02-08 13:30:59.775575+01 | 1486557059.77557 | 6/19DFCA10               |           26203900432

 2017-02-08 13:31:00.903349+01 | 1486557060.90335 | 6/1A42FA58               |           26210400856

 2017-02-08 13:31:01.992437+01 | 1486557061.99244 | 6/1AA37158               |           26216722776

 2017-02-08 13:31:03.129299+01 | 1486557063.1293 | 6/1B094F98               |           26223398808

 2017-02-08 13:31:04.2293+01 | 1486557064.2293 | 6/1B6B0C90               |           26229804176

 2017-02-08 13:31:05.367754+01 | 1486557065.36775 | 6/1BD08248               |           26236453448

 2017-02-08 13:31:06.481961+01 | 1486557066.48196 | 6/1C31EEC0               |           26242838208

 2017-02-08 13:31:07.627506+01 | 1486557067.62751 | 6/1C94DF28               |           26249322280

 2017-02-08 13:31:08.711337+01 | 1486557068.71134 | 6/1CF52AD0               |           26255633104

 2017-02-08 13:31:09.829572+01 | 1486557069.82957 | 6/1D58F790               |           26262173584

 2017-02-08 13:31:10.913363+01 | 1486557070.91336 | 6/1DB7E950               |           26268395856

 2017-02-08 13:31:11.99737+01 | 1486557071.99737 | 6/1E187600               |           26274723328

 2017-02-08 13:31:13.112579+01 | 1486557073.11258 | 6/1E7BCE20               |           26281233952

 2017-02-08 13:31:14.21748+01 | 1486557074.21748 | 6/1EFB9FE8               |           26289610728

 2017-02-08 13:31:15.310026+01 | 1486557075.31003 | 6/1F76D0F8               |           26297684216

 2017-02-08 13:31:16.404203+01 | 1486557076.4042 | 6/1FF18978               |           26305726840

 2017-02-08 13:31:17.513679+01 | 1486557077.51368 | 6/206EDC18               |           26313939992

 2017-02-08 13:31:18.636974+01 | 1486557078.63697 | 6/20F17058               |           26322497624

 2017-02-08 13:31:19.744601+01 | 1486557079.7446 | 6/21767980               |           26331216256

 2017-02-08 13:31:20.850062+01 | 1486557080.85006 | 6/22099640               |           26340857408

 2017-02-08 13:31:21.980079+01 | 1486557081.98008 | 6/2290A7E8               |           26349709288

 2017-02-08 13:31:23.082094+01 | 1486557083.08209 | 6/2306F070               |           26357461104

 2017-02-08 13:31:24.192326+01 | 1486557084.19233 | 6/23936B00               |           26366667520

 2017-02-08 13:31:25.295776+01 | 1486557085.29578 | 6/23F8C6E8               |           26373310184

 2017-02-08 13:31:26.420269+01 | 1486557086.42027 | 6/2456FC98               |           26379484312

 2017-02-08 13:31:27.54329+01 | 1486557087.54329 | 6/24BBC468               |           26386089064

 2017-02-08 13:31:28.672431+01 | 1486557088.67243 | 6/25222C70               |           26392800368

 2017-02-08 13:31:29.775775+01 | 1486557089.77577 | 6/25827510               |           26399110416

 2017-02-08 13:31:30.867019+01 | 1486557090.86702 | 6/25E27C78               |           26405403768

 2017-02-08 13:31:31.981608+01 | 1486557091.98161 | 6/2643F888               |           26411792520

 2017-02-08 13:31:33.090324+01 | 1486557093.09032 | 6/26A4D328               |           26418139944

 2017-02-08 13:31:34.198125+01 | 1486557094.19812 | 6/2704F450               |           26424439888

 2017-02-08 13:31:35.333054+01 | 1486557095.33305 | 6/2760BFD0               |           26430455760

 2017-02-08 13:31:36.427862+01 | 1486557096.42786 | 6/27BE8648               |           26436601416

 2017-02-08 13:31:37.530941+01 | 1486557097.53094 | 6/281F3698               |           26442938008

 2017-02-08 13:31:38.621742+01 | 1486557098.62174 | 6/287E7E90               |           26449182352

 2017-02-08 13:31:39.736138+01 | 1486557099.73614 | 6/28E13BA8               |           26455653288

 2017-02-08 13:31:40.82643+01 | 1486557100.82643 | 6/29404F18               |           26461884184

 2017-02-08 13:31:41.940353+01 | 1486557101.94035 | 6/29A193A8               |           26468258728

 2017-02-08 13:31:43.05409+01 | 1486557103.05409 | 6/2A034588               |           26474661256

 2017-02-08 13:31:44.168654+01 | 1486557104.16865 | 6/2A653AC8               |           26481081032

 2017-02-08 13:31:45.308004+01 | 1486557105.308 | 6/2ACAE650               |           26487744080

 2017-02-08 13:31:46.402786+01 | 1486557106.40279 | 6/2B2AE158               |           26494034264

 2017-02-08 13:31:47.507986+01 | 1486557107.50799 | 6/2B8D3D70               |           26500480368

 2017-02-08 13:31:48.61489+01 | 1486557108.61489 | 6/2BEF7290               |           26506916496

 2017-02-08 13:31:49.714392+01 | 1486557109.71439 | 6/2C507210               |           26513273360

 2017-02-08 13:31:50.829847+01 | 1486557110.82985 | 6/2CB348D8               |           26519750872

 2017-02-08 13:31:51.951397+01 | 1486557111.9514 | 6/2D156060               |           26526179424

 2017-02-08 13:31:53.048485+01 | 1486557113.04849 | 6/2D752830               |           26532456496

 2017-02-08 13:31:54.159301+01 | 1486557114.1593 | 6/2DD74D68               |           26538888552

 2017-02-08 13:31:55.260081+01 | 1486557115.26008 | 6/2E385A70               |           26545248880

 2017-02-08 13:31:56.389177+01 | 1486557116.38918 | 6/2E9AF660               |           26551711328

 2017-02-08 13:31:57.492671+01 | 1486557117.49267 | 6/2EFBE468               |           26558063720

 2017-02-08 13:31:58.612056+01 | 1486557118.61206 | 6/2F5E94A0               |           26564531360

 2017-02-08 13:31:59.700718+01 | 1486557119.70072 | 6/2FBE2C78               |           26570796152

 2017-02-08 13:32:00.819054+01 | 1486557120.81905 | 6/301FFCB0               |           26577206448

 2017-02-08 13:32:01.949633+01 | 1486557121.94963 | 6/30829628               |           26583668264

 2017-02-08 13:32:03.049702+01 | 1486557123.0497 | 6/30E17F40               |           26589888320

 2017-02-08 13:32:04.145434+01 | 1486557124.14543 | 6/3141ABA8               |           26596191144

 2017-02-08 13:32:05.264338+01 | 1486557125.26434 | 6/31A325C8               |           26602579400

 2017-02-08 13:32:06.373263+01 | 1486557126.37326 | 6/32055048               |           26609012808

 2017-02-08 13:32:07.469833+01 | 1486557127.46983 | 6/326674E8               |           26615379176

 2017-02-08 13:32:08.573526+01 | 1486557128.57353 | 6/32C52CB8               |           26621586616

 2017-02-08 13:32:09.678957+01 | 1486557129.67896 | 6/3325C800               |           26627917824

 2017-02-08 13:32:10.773989+01 | 1486557130.77399 | 6/3385DF70               |           26634215280

 2017-02-08 13:32:11.884777+01 | 1486557131.88478 | 6/33E6FA20               |           26640579104

 2017-02-08 13:32:12.98433+01 | 1486557132.98433 | 6/34468D18               |           26646842648

 2017-02-08 13:32:14.103969+01 | 1486557134.10397 | 6/34AA9050               |           26653397072

 2017-02-08 13:32:15.171946+01 | 1486557135.17195 | 6/3508DF30               |           26659577648

 2017-02-08 13:32:16.24659+01 | 1486557136.24659 | 6/35663D28               |           26665696552

 2017-02-08 13:32:17.329613+01 | 1486557137.32961 | 6/35C50DB0               |           26671910320

 2017-02-08 13:32:18.433782+01 | 1486557138.43378 | 6/36258AD8               |           26678233816

 2017-02-08 13:32:19.562144+01 | 1486557139.56214 | 6/36922BD8               |           26685352920

 2017-02-08 13:32:20.685602+01 | 1486557140.6856 | 6/370E1E18               |           26693475864

 2017-02-08 13:32:21.789029+01 | 1486557141.78903 | 6/377B9058               |           26700648536

 2017-02-08 13:32:22.878276+01 | 1486557142.87828 | 6/37D958E0               |           26706794720

 2017-02-08 13:32:24.004556+01 | 1486557144.00456 | 6/38495FF0               |           26714136560

 2017-02-08 13:32:25.073579+01 | 1486557145.07358 | 6/38AA2C30               |           26720480304

 2017-02-08 13:32:26.19077+01 | 1486557146.19077 | 6/39086850               |           26726656080

 2017-02-08 13:32:27.297549+01 | 1486557147.29755 | 6/3969FE50               |           26733051472

 2017-02-08 13:32:28.423514+01 | 1486557148.42351 | 6/39CC7950               |           26739505488

 2017-02-08 13:32:29.517672+01 | 1486557149.51767 | 6/3A2D47E0               |           26745849824

 2017-02-08 13:32:30.628485+01 | 1486557150.62848 | 6/3A8EE390               |           26752246672

 2017-02-08 13:32:31.728028+01 | 1486557151.72803 | 6/3AEF1F50               |           26758553424

 2017-02-08 13:32:32.84972+01 | 1486557152.84972 | 6/3B50FA68               |           26764966504

 2017-02-08 13:32:33.944972+01 | 1486557153.94497 | 6/3BB04CF0               |           26771213552

 2017-02-08 13:32:35.030125+01 | 1486557155.03012 | 6/3C0DDEA0               |           26777345696

 2017-02-08 13:32:36.157052+01 | 1486557156.15705 | 6/3C712730               |           26783852336

 2017-02-08 13:32:37.241745+01 | 1486557157.24174 | 6/3CCF8CF8               |           26790038776

 2017-02-08 13:32:38.343531+01 | 1486557158.34353 | 6/3D2FC990               |           26796345744

 2017-02-08 13:32:39.479325+01 | 1486557159.47933 | 6/3D919918               |           26802755864

 2017-02-08 13:32:40.605236+01 | 1486557160.60524 | 6/3DF4A2E8               |           26809246440

 2017-02-08 13:32:41.699049+01 | 1486557161.69905 | 6/3E556A78               |           26815588984

 2017-02-08 13:32:42.828571+01 | 1486557162.82857 | 6/3EB96CA8               |           26822143144

 2017-02-08 13:32:43.933342+01 | 1486557163.93334 | 6/3F1A30C0               |           26828484800

 2017-02-08 13:32:45.050056+01 | 1486557165.05006 | 6/3F7B8448               |           26834863176

 2017-02-08 13:32:46.163124+01 | 1486557166.16312 | 6/3FDD0480               |           26841252992

 2017-02-08 13:32:47.253242+01 | 1486557167.25324 | 6/403C5710               |           26847500048

 2017-02-08 13:32:48.381349+01 | 1486557168.38135 | 6/40A03CB0               |           26854046896

 2017-02-08 13:32:49.467238+01 | 1486557169.46724 | 6/40FE3FA8               |           26860208040

 2017-02-08 13:32:50.620824+01 | 1486557170.62082 | 6/416373F8               |           26866840568

 2017-02-08 13:32:51.700416+01 | 1486557171.70042 | 6/41C1CAB0               |           26873023152

 2017-02-08 13:32:52.817216+01 | 1486557172.81722 | 6/42236840               |           26879420480

 2017-02-08 13:32:53.939629+01 | 1486557173.93963 | 6/42858888               |           26885851272

 2017-02-08 13:32:55.035374+01 | 1486557175.03537 | 6/42E53FF8               |           26892124152

 2017-02-08 13:32:56.125523+01 | 1486557176.12552 | 6/434427A0               |           26898343840

 2017-02-08 13:32:57.256535+01 | 1486557177.25654 | 6/43A792A0               |           26904859296

 2017-02-08 13:32:58.354785+01 | 1486557178.35478 | 6/4407D278               |           26911167096

 2017-02-08 13:32:59.508305+01 | 1486557179.50831 | 6/446CFAA8               |           26917796520

 2017-02-08 13:33:00.615199+01 | 1486557180.6152 | 6/44CEB958               |           26924202328

 2017-02-08 13:33:01.723001+01 | 1486557181.723 | 6/452ED9A8               |           26930502056

