 2017-02-08 01:39:10.938803+01 | 1486514350.9388 |                 0 |              10 |                    22 |                   30 |               2182 |             0 |                0 |          241893 |                     0 |         96137 | 2017-02-08 00:54:00.126408+01

 2017-02-08 01:39:12.226946+01 | 1486514352.22695 |                 0 |              10 |                    22 |                   30 |               2182 |             0 |                0 |          241893 |                     0 |         96137 | 2017-02-08 00:54:00.126408+01

 2017-02-08 01:39:13.495431+01 | 1486514353.49543 |                 0 |              10 |                    22 |                   30 |               2182 |             0 |                0 |          241893 |                     0 |         96137 | 2017-02-08 00:54:00.126408+01

 2017-02-08 01:39:14.771051+01 | 1486514354.77105 |                 0 |              10 |                    22 |                   30 |               2182 |             0 |                0 |          241893 |                     0 |         96137 | 2017-02-08 00:54:00.126408+01

 2017-02-08 01:39:16.055507+01 | 1486514356.05551 |                 0 |              10 |                    22 |                   30 |               2182 |             0 |                0 |          241893 |                     0 |         96137 | 2017-02-08 00:54:00.126408+01

 2017-02-08 01:39:17.333313+01 | 1486514357.33331 |                 0 |              10 |                    22 |                   30 |               2182 |             0 |                0 |          241893 |                     0 |         96137 | 2017-02-08 00:54:00.126408+01

 2017-02-08 01:39:18.611625+01 | 1486514358.61162 |                 0 |              10 |                    22 |                   30 |               2182 |             0 |                0 |          241893 |                     0 |         96137 | 2017-02-08 00:54:00.126408+01

 2017-02-08 01:39:19.889506+01 | 1486514359.88951 |                 0 |              10 |                    22 |                   30 |               2182 |             0 |                0 |          241893 |                     0 |         96137 | 2017-02-08 00:54:00.126408+01

 2017-02-08 01:39:21.152938+01 | 1486514361.15294 |                 0 |              10 |                    22 |                   30 |               2182 |             0 |                0 |          241893 |                     0 |         96137 | 2017-02-08 00:54:00.126408+01

 2017-02-08 01:39:22.427506+01 | 1486514362.42751 |                 0 |              10 |                    22 |                   30 |               2182 |             0 |                0 |          241893 |                     0 |         96137 | 2017-02-08 00:54:00.126408+01

 2017-02-08 01:39:23.706967+01 | 1486514363.70697 |                 0 |              10 |                    22 |                   30 |               2182 |             0 |                0 |          241893 |                     0 |         96137 | 2017-02-08 00:54:00.126408+01

 2017-02-08 01:39:24.970525+01 | 1486514364.97053 |                 0 |              10 |                    22 |                   30 |               2182 |             0 |                0 |          241893 |                     0 |         96137 | 2017-02-08 00:54:00.126408+01

 2017-02-08 01:39:26.245455+01 | 1486514366.24546 |                 0 |              10 |                    22 |                   30 |               2182 |             0 |                0 |          241893 |                     0 |         96137 | 2017-02-08 00:54:00.126408+01

 2017-02-08 01:39:27.517715+01 | 1486514367.51771 |                 0 |              10 |                    22 |                   30 |               2182 |             0 |                0 |          241893 |                     0 |         96137 | 2017-02-08 00:54:00.126408+01

 2017-02-08 01:39:28.794582+01 | 1486514368.79458 |                 0 |              10 |                    22 |                   30 |               2182 |             0 |                0 |          241893 |                     0 |         96137 | 2017-02-08 00:54:00.126408+01

 2017-02-08 01:39:30.074779+01 | 1486514370.07478 |                 0 |              10 |                    22 |                   30 |               2182 |             0 |                0 |          241893 |                     0 |         96137 | 2017-02-08 00:54:00.126408+01

 2017-02-08 01:39:31.355586+01 | 1486514371.35559 |                 0 |              10 |                    22 |                   30 |               2182 |             0 |                0 |          241893 |                     0 |         96137 | 2017-02-08 00:54:00.126408+01

 2017-02-08 01:39:32.633098+01 | 1486514372.6331 |                 0 |              10 |                    22 |                   30 |               2182 |             0 |                0 |          241893 |                     0 |         96137 | 2017-02-08 00:54:00.126408+01

 2017-02-08 01:39:33.922018+01 | 1486514373.92202 |                 0 |              10 |                    22 |                   30 |               2182 |             0 |                0 |          241893 |                     0 |         96137 | 2017-02-08 00:54:00.126408+01

 2017-02-08 01:39:35.205263+01 | 1486514375.20526 |                 0 |              10 |                    22 |                   30 |               2182 |             0 |                0 |          241893 |                     0 |         96137 | 2017-02-08 00:54:00.126408+01

 2017-02-08 01:39:36.487914+01 | 1486514376.48791 |                 0 |              10 |                    22 |                   30 |               2182 |             0 |                0 |          241893 |                     0 |         96137 | 2017-02-08 00:54:00.126408+01

 2017-02-08 01:39:37.775101+01 | 1486514377.7751 |                 0 |              10 |                    22 |                   30 |               2182 |             0 |                0 |          241893 |                     0 |         96137 | 2017-02-08 00:54:00.126408+01

 2017-02-08 01:39:39.055387+01 | 1486514379.05539 |                 0 |              10 |                    22 |                   30 |               2182 |             0 |                0 |          241893 |                     0 |         96137 | 2017-02-08 00:54:00.126408+01

 2017-02-08 01:39:40.342625+01 | 1486514380.34262 |                 0 |              10 |                    22 |                   30 |               2182 |             0 |                0 |          241893 |                     0 |         96137 | 2017-02-08 00:54:00.126408+01

 2017-02-08 01:39:41.619216+01 | 1486514381.61922 |                 0 |              10 |                    22 |                   30 |               2182 |             0 |                0 |          241893 |                     0 |         96137 | 2017-02-08 00:54:00.126408+01

 2017-02-08 01:39:42.89879+01 | 1486514382.89879 |                 0 |              10 |                    22 |                   30 |               2182 |             0 |                0 |          241893 |                     0 |         96137 | 2017-02-08 00:54:00.126408+01

 2017-02-08 01:39:44.181375+01 | 1486514384.18138 |                 0 |              10 |                    22 |                   30 |               2182 |             0 |                0 |          241893 |                     0 |         96137 | 2017-02-08 00:54:00.126408+01

 2017-02-08 01:39:45.460555+01 | 1486514385.46056 |                 0 |              10 |                    22 |                   30 |               2182 |             0 |                0 |          241893 |                     0 |         96137 | 2017-02-08 00:54:00.126408+01

 2017-02-08 01:39:46.73629+01 | 1486514386.73629 |                 0 |              10 |                    22 |                   30 |               2182 |             0 |                0 |          241893 |                     0 |         96137 | 2017-02-08 00:54:00.126408+01

 2017-02-08 01:39:48.014206+01 | 1486514388.01421 |                 0 |              10 |                    22 |                   30 |               2182 |             0 |                0 |          241893 |                     0 |         96137 | 2017-02-08 00:54:00.126408+01

 2017-02-08 01:39:49.295925+01 | 1486514389.29592 |                 0 |              10 |                    22 |                   30 |               2182 |             0 |                0 |          241893 |                     0 |         96137 | 2017-02-08 00:54:00.126408+01

 2017-02-08 01:39:50.581828+01 | 1486514390.58183 |                 0 |              10 |                    22 |                   30 |               2182 |             0 |                0 |          241893 |                     0 |         96137 | 2017-02-08 00:54:00.126408+01

 2017-02-08 01:39:51.857998+01 | 1486514391.858 |                 0 |              10 |                    22 |                   30 |               2182 |             0 |                0 |          241893 |                     0 |         96137 | 2017-02-08 00:54:00.126408+01

 2017-02-08 01:39:53.13258+01 | 1486514393.13258 |                 0 |              10 |                    22 |                   30 |               2182 |             0 |                0 |          241893 |                     0 |         96137 | 2017-02-08 00:54:00.126408+01

 2017-02-08 01:39:54.410077+01 | 1486514394.41008 |                 0 |              10 |                    22 |                   30 |               2182 |             0 |                0 |          241893 |                     0 |         96137 | 2017-02-08 00:54:00.126408+01

 2017-02-08 01:39:55.692587+01 | 1486514395.69259 |                 0 |              10 |                    22 |                   30 |               2182 |             0 |                0 |          241893 |                     0 |         96137 | 2017-02-08 00:54:00.126408+01

 2017-02-08 01:39:56.968324+01 | 1486514396.96832 |                 0 |              10 |                    22 |                   30 |               2182 |             0 |                0 |          241893 |                     0 |         96137 | 2017-02-08 00:54:00.126408+01

 2017-02-08 01:39:58.248701+01 | 1486514398.2487 |                 0 |              10 |                    22 |                   30 |               2182 |             0 |                0 |          241893 |                     0 |         96137 | 2017-02-08 00:54:00.126408+01

 2017-02-08 01:39:59.508621+01 | 1486514399.50862 |                 0 |              10 |                    22 |                   30 |               2182 |             0 |                0 |          241893 |                     0 |         96137 | 2017-02-08 00:54:00.126408+01

 2017-02-08 01:40:00.790987+01 | 1486514400.79099 |                 0 |              10 |                    22 |                   30 |               2182 |             0 |                0 |          241893 |                     0 |         96137 | 2017-02-08 00:54:00.126408+01

 2017-02-08 01:40:02.099527+01 | 1486514402.09953 |                 0 |              10 |                    22 |                   30 |               2182 |             0 |                0 |          241893 |                     0 |         96137 | 2017-02-08 00:54:00.126408+01

 2017-02-08 01:40:03.370475+01 | 1486514403.37048 |                 0 |              10 |                    22 |                   30 |               2182 |             0 |                0 |          241893 |                     0 |         96137 | 2017-02-08 00:54:00.126408+01

 2017-02-08 01:40:04.644608+01 | 1486514404.64461 |                 0 |              10 |                    22 |                   30 |               2182 |             0 |                0 |          241893 |                     0 |         96137 | 2017-02-08 00:54:00.126408+01

 2017-02-08 01:40:05.939567+01 | 1486514405.93957 |                 0 |              10 |                    22 |                   30 |               2182 |             0 |                0 |          241893 |                     0 |         96137 | 2017-02-08 00:54:00.126408+01

 2017-02-08 01:40:07.191682+01 | 1486514407.19168 |                 0 |              10 |                    22 |                   30 |               2182 |             0 |                0 |          241893 |                     0 |         96137 | 2017-02-08 00:54:00.126408+01

 2017-02-08 01:40:08.489634+01 | 1486514408.48963 |                 0 |              10 |                    22 |                   30 |               2182 |             0 |                0 |          241893 |                     0 |         96137 | 2017-02-08 00:54:00.126408+01

 2017-02-08 01:40:09.763601+01 | 1486514409.7636 |                 0 |              10 |                    22 |                   30 |               2182 |             0 |                0 |          241893 |                     0 |         96137 | 2017-02-08 00:54:00.126408+01

 2017-02-08 01:40:11.052795+01 | 1486514411.05279 |                 0 |              10 |                    22 |                   30 |               2182 |             0 |                0 |          241893 |                     0 |         96137 | 2017-02-08 00:54:00.126408+01

 2017-02-08 01:40:12.331282+01 | 1486514412.33128 |                 0 |              10 |                    22 |                   30 |               2182 |             0 |                0 |          241893 |                     0 |         96137 | 2017-02-08 00:54:00.126408+01

 2017-02-08 01:40:13.603413+01 | 1486514413.60341 |                 0 |              10 |                    22 |                   30 |               2182 |             0 |                0 |          241893 |                     0 |         96137 | 2017-02-08 00:54:00.126408+01

 2017-02-08 01:40:14.875205+01 | 1486514414.87521 |                 0 |              10 |                    22 |                   30 |               2182 |             0 |                0 |          241893 |                     0 |         96137 | 2017-02-08 00:54:00.126408+01

 2017-02-08 01:40:16.153701+01 | 1486514416.1537 |                 0 |              10 |                    22 |                   30 |               2182 |             0 |                0 |          241893 |                     0 |         96137 | 2017-02-08 00:54:00.126408+01

 2017-02-08 01:40:17.429698+01 | 1486514417.4297 |                 0 |              10 |                    22 |                   30 |               2182 |             0 |                0 |          241893 |                     0 |         96137 | 2017-02-08 00:54:00.126408+01

 2017-02-08 01:40:18.705646+01 | 1486514418.70565 |                 0 |              10 |                    22 |                   30 |               2182 |             0 |                0 |          241893 |                     0 |         96137 | 2017-02-08 00:54:00.126408+01

 2017-02-08 01:40:19.976912+01 | 1486514419.97691 |                 0 |              10 |                    22 |                   30 |               2182 |             0 |                0 |          241893 |                     0 |         96137 | 2017-02-08 00:54:00.126408+01

 2017-02-08 01:40:21.247941+01 | 1486514421.24794 |                 0 |              10 |                    22 |                   30 |               2182 |             0 |                0 |          241893 |                     0 |         96137 | 2017-02-08 00:54:00.126408+01

 2017-02-08 01:40:22.533748+01 | 1486514422.53375 |                 0 |              10 |                    22 |                   30 |               2182 |             0 |                0 |          241893 |                     0 |         96137 | 2017-02-08 00:54:00.126408+01

 2017-02-08 01:40:23.807146+01 | 1486514423.80715 |                 0 |              10 |                    22 |                   30 |               2182 |             0 |                0 |          241893 |                     0 |         96137 | 2017-02-08 00:54:00.126408+01

 2017-02-08 01:40:25.084896+01 | 1486514425.0849 |                 0 |              10 |                    22 |                   30 |               2182 |             0 |                0 |          241893 |                     0 |         96137 | 2017-02-08 00:54:00.126408+01

 2017-02-08 01:40:26.359934+01 | 1486514426.35993 |                 0 |              10 |                    22 |                   30 |               2182 |             0 |                0 |          241893 |                     0 |         96137 | 2017-02-08 00:54:00.126408+01

 2017-02-08 01:40:27.638759+01 | 1486514427.63876 |                 0 |              10 |                    22 |                   30 |               2182 |             0 |                0 |          241893 |                     0 |         96137 | 2017-02-08 00:54:00.126408+01

 2017-02-08 01:40:28.919194+01 | 1486514428.91919 |                 0 |              10 |                    22 |                   30 |               2182 |             0 |                0 |          241893 |                     0 |         96137 | 2017-02-08 00:54:00.126408+01

 2017-02-08 01:40:30.200628+01 | 1486514430.20063 |                 0 |              10 |                    22 |                   30 |               2182 |             0 |                0 |          241893 |                     0 |         96137 | 2017-02-08 00:54:00.126408+01

 2017-02-08 01:40:31.482193+01 | 1486514431.48219 |                 0 |              10 |                    22 |                   30 |               2182 |             0 |                0 |          241893 |                     0 |         96137 | 2017-02-08 00:54:00.126408+01

 2017-02-08 01:40:32.76774+01 | 1486514432.76774 |                 0 |              10 |                    22 |                   30 |               2182 |             0 |                0 |          241893 |                     0 |         96137 | 2017-02-08 00:54:00.126408+01

 2017-02-08 01:40:34.048225+01 | 1486514434.04822 |                 0 |              10 |                    22 |                   30 |               2182 |             0 |                0 |          241893 |                     0 |         96137 | 2017-02-08 00:54:00.126408+01

 2017-02-08 01:40:35.320904+01 | 1486514435.3209 |                 0 |              10 |                    22 |                   30 |               2182 |             0 |                0 |          241893 |                     0 |         96137 | 2017-02-08 00:54:00.126408+01

 2017-02-08 01:40:36.606425+01 | 1486514436.60643 |                 0 |              10 |                    22 |                   30 |               2182 |             0 |                0 |          241893 |                     0 |         96137 | 2017-02-08 00:54:00.126408+01

 2017-02-08 01:40:37.880437+01 | 1486514437.88044 |                 0 |              10 |                    22 |                   30 |               2182 |             0 |                0 |          241893 |                     0 |         96137 | 2017-02-08 00:54:00.126408+01

 2017-02-08 01:40:39.159711+01 | 1486514439.15971 |                 0 |              10 |                    22 |                   30 |               2182 |             0 |                0 |          241893 |                     0 |         96137 | 2017-02-08 00:54:00.126408+01

 2017-02-08 01:40:40.438325+01 | 1486514440.43832 |                 0 |              10 |                    22 |                   30 |               2182 |             0 |                0 |          241893 |                     0 |         96137 | 2017-02-08 00:54:00.126408+01

 2017-02-08 01:40:41.710898+01 | 1486514441.7109 |                 0 |              10 |                    22 |                   30 |               2182 |             0 |                0 |          241893 |                     0 |         96137 | 2017-02-08 00:54:00.126408+01

 2017-02-08 01:40:42.987822+01 | 1486514442.98782 |                 0 |              10 |                    22 |                   30 |               2182 |             0 |                0 |          241893 |                     0 |         96137 | 2017-02-08 00:54:00.126408+01

 2017-02-08 01:40:44.27063+01 | 1486514444.27063 |                 0 |              10 |                    22 |                   30 |               2182 |             0 |                0 |          241893 |                     0 |         96137 | 2017-02-08 00:54:00.126408+01

 2017-02-08 01:40:45.546934+01 | 1486514445.54693 |                 0 |              10 |                    22 |                   30 |               2182 |             0 |                0 |          241893 |                     0 |         96137 | 2017-02-08 00:54:00.126408+01

 2017-02-08 01:40:46.827466+01 | 1486514446.82747 |                 0 |              10 |                    22 |                   30 |               2182 |             0 |                0 |          241893 |                     0 |         96137 | 2017-02-08 00:54:00.126408+01

 2017-02-08 01:40:48.108519+01 | 1486514448.10852 |                 0 |              10 |                    22 |                   30 |               2182 |             0 |                0 |          241893 |                     0 |         96137 | 2017-02-08 00:54:00.126408+01

 2017-02-08 01:40:49.381494+01 | 1486514449.38149 |                 0 |              10 |                    22 |                   30 |               2182 |             0 |                0 |          241893 |                     0 |         96137 | 2017-02-08 00:54:00.126408+01

 2017-02-08 01:40:50.660711+01 | 1486514450.66071 |                 0 |              10 |                    22 |                   30 |               2182 |             0 |                0 |          241893 |                     0 |         96137 | 2017-02-08 00:54:00.126408+01

 2017-02-08 01:40:51.949257+01 | 1486514451.94926 |                 0 |              10 |                    22 |                   30 |               2182 |             0 |                0 |          241893 |                     0 |         96137 | 2017-02-08 00:54:00.126408+01

 2017-02-08 01:40:53.218238+01 | 1486514453.21824 |                 0 |              10 |                    22 |                   30 |               2182 |             0 |                0 |          241893 |                     0 |         96137 | 2017-02-08 00:54:00.126408+01

 2017-02-08 01:40:54.498046+01 | 1486514454.49805 |                 0 |              10 |                    22 |                   30 |               2182 |             0 |                0 |          241893 |                     0 |         96137 | 2017-02-08 00:54:00.126408+01

 2017-02-08 01:40:55.764054+01 | 1486514455.76405 |                 0 |              10 |                    22 |                   30 |               2182 |             0 |                0 |          241893 |                     0 |         96137 | 2017-02-08 00:54:00.126408+01

 2017-02-08 01:40:57.03762+01 | 1486514457.03762 |                 0 |              10 |                    22 |                   30 |               2182 |             0 |                0 |          241893 |                     0 |         96137 | 2017-02-08 00:54:00.126408+01

 2017-02-08 01:40:58.317235+01 | 1486514458.31723 |                 0 |              10 |                    22 |                   30 |               2182 |             0 |                0 |          241893 |                     0 |         96137 | 2017-02-08 00:54:00.126408+01

 2017-02-08 01:40:59.598703+01 | 1486514459.5987 |                 0 |              10 |                    22 |                   30 |               2182 |             0 |                0 |          241893 |                     0 |         96137 | 2017-02-08 00:54:00.126408+01

 2017-02-08 01:41:00.880389+01 | 1486514460.88039 |                 0 |              10 |                    22 |                   30 |               2182 |             0 |                0 |          241893 |                     0 |         96137 | 2017-02-08 00:54:00.126408+01

 2017-02-08 01:41:02.161387+01 | 1486514462.16139 |                 0 |              10 |                    22 |                   30 |               2182 |             0 |                0 |          241893 |                     0 |         96137 | 2017-02-08 00:54:00.126408+01

 2017-02-08 01:41:03.441323+01 | 1486514463.44132 |                 0 |              10 |                    22 |                   30 |               2182 |             0 |                0 |          241893 |                     0 |         96137 | 2017-02-08 00:54:00.126408+01

 2017-02-08 01:41:04.724597+01 | 1486514464.7246 |                 0 |              10 |                    22 |                   30 |               2182 |             0 |                0 |          241893 |                     0 |         96137 | 2017-02-08 00:54:00.126408+01

 2017-02-08 01:41:06.003304+01 | 1486514466.0033 |                 0 |              10 |                    22 |                   30 |               2182 |             0 |                0 |          241893 |                     0 |         96137 | 2017-02-08 00:54:00.126408+01

 2017-02-08 01:41:07.281246+01 | 1486514467.28125 |                 0 |              10 |                    22 |                   30 |               2182 |             0 |                0 |          241893 |                     0 |         96137 | 2017-02-08 00:54:00.126408+01

 2017-02-08 01:41:08.566762+01 | 1486514468.56676 |                 0 |              10 |                    22 |                   30 |               2182 |             0 |                0 |          241893 |                     0 |         96137 | 2017-02-08 00:54:00.126408+01

 2017-02-08 01:41:09.851906+01 | 1486514469.85191 |                 0 |              10 |                    22 |                   30 |               2182 |             0 |                0 |          241893 |                     0 |         96137 | 2017-02-08 00:54:00.126408+01

 2017-02-08 01:41:11.118641+01 | 1486514471.11864 |                 0 |              10 |                    22 |                   30 |               2182 |             0 |                0 |          241893 |                     0 |         96137 | 2017-02-08 00:54:00.126408+01

 2017-02-08 01:41:12.388882+01 | 1486514472.38888 |                 0 |              10 |                    22 |                   30 |               2182 |             0 |                0 |          241893 |                     0 |         96137 | 2017-02-08 00:54:00.126408+01

 2017-02-08 01:41:13.677833+01 | 1486514473.67783 |                 0 |              10 |                    22 |                   30 |               2182 |             0 |                0 |          241893 |                     0 |         96137 | 2017-02-08 00:54:00.126408+01

 2017-02-08 01:41:14.992101+01 | 1486514474.9921 |                 0 |              10 |                    22 |                   30 |               2182 |             0 |                0 |          241893 |                     0 |         96137 | 2017-02-08 00:54:00.126408+01

 2017-02-08 01:41:16.270817+01 | 1486514476.27082 |                 0 |              10 |                    22 |                   30 |               2182 |             0 |                0 |          241893 |                     0 |         96137 | 2017-02-08 00:54:00.126408+01

 2017-02-08 01:41:17.544298+01 | 1486514477.5443 |                 0 |              10 |                    22 |                   30 |               2182 |             0 |                0 |          241893 |                     0 |         96137 | 2017-02-08 00:54:00.126408+01

 2017-02-08 01:41:18.826475+01 | 1486514478.82647 |                 0 |              10 |                    22 |                   30 |               2182 |             0 |                0 |          241893 |                     0 |         96137 | 2017-02-08 00:54:00.126408+01

 2017-02-08 01:41:20.106006+01 | 1486514480.10601 |                 0 |              10 |                    22 |                   30 |               2182 |             0 |                0 |          241893 |                     0 |         96137 | 2017-02-08 00:54:00.126408+01

 2017-02-08 01:41:21.389409+01 | 1486514481.38941 |                 0 |              10 |                    22 |                   30 |               2182 |             0 |                0 |          241893 |                     0 |         96137 | 2017-02-08 00:54:00.126408+01

 2017-02-08 01:41:22.670614+01 | 1486514482.67061 |                 0 |              10 |                    22 |                   30 |               2182 |             0 |                0 |          241893 |                     0 |         96137 | 2017-02-08 00:54:00.126408+01

 2017-02-08 01:41:23.950595+01 | 1486514483.95059 |                 0 |              10 |                    22 |                   30 |               2182 |             0 |                0 |          241893 |                     0 |         96137 | 2017-02-08 00:54:00.126408+01

 2017-02-08 01:41:25.233304+01 | 1486514485.2333 |                 0 |              10 |                    22 |                   30 |               2182 |             0 |                0 |          241893 |                     0 |         96137 | 2017-02-08 00:54:00.126408+01

 2017-02-08 01:41:26.507989+01 | 1486514486.50799 |                 0 |              10 |                    22 |                   30 |               2182 |             0 |                0 |          241893 |                     0 |         96137 | 2017-02-08 00:54:00.126408+01

 2017-02-08 01:41:27.787872+01 | 1486514487.78787 |                 0 |              10 |                    22 |                   30 |               2182 |             0 |                0 |          241893 |                     0 |         96137 | 2017-02-08 00:54:00.126408+01

 2017-02-08 01:41:29.065838+01 | 1486514489.06584 |                 0 |              10 |                    22 |                   30 |               2182 |             0 |                0 |          241893 |                     0 |         96137 | 2017-02-08 00:54:00.126408+01

 2017-02-08 01:41:30.346425+01 | 1486514490.34643 |                 0 |              10 |                    22 |                   30 |               2182 |             0 |                0 |          241893 |                     0 |         96137 | 2017-02-08 00:54:00.126408+01

 2017-02-08 01:41:31.628937+01 | 1486514491.62894 |                 0 |              10 |                    22 |                   30 |               2182 |             0 |                0 |          241893 |                     0 |         96137 | 2017-02-08 00:54:00.126408+01

 2017-02-08 01:41:32.916257+01 | 1486514492.91626 |                 0 |              10 |                    22 |                   30 |               2182 |             0 |                0 |          241893 |                     0 |         96137 | 2017-02-08 00:54:00.126408+01

 2017-02-08 01:41:34.195345+01 | 1486514494.19534 |                 0 |              10 |                    22 |                   30 |               2182 |             0 |                0 |          241893 |                     0 |         96137 | 2017-02-08 00:54:00.126408+01

 2017-02-08 01:41:35.465687+01 | 1486514495.46569 |                 0 |              10 |                    22 |                   30 |               2182 |             0 |                0 |          241893 |                     0 |         96137 | 2017-02-08 00:54:00.126408+01

 2017-02-08 01:41:36.747253+01 | 1486514496.74725 |                 0 |              10 |                    22 |                   30 |               2182 |             0 |                0 |          241893 |                     0 |         96137 | 2017-02-08 00:54:00.126408+01

 2017-02-08 01:41:38.031206+01 | 1486514498.03121 |                 0 |              10 |                    22 |                   30 |               2182 |             0 |                0 |          241893 |                     0 |         96137 | 2017-02-08 00:54:00.126408+01

 2017-02-08 01:41:39.314906+01 | 1486514499.31491 |                 0 |              10 |                    22 |                   30 |               2182 |             0 |                0 |          241893 |                     0 |         96137 | 2017-02-08 00:54:00.126408+01

 2017-02-08 01:41:40.594949+01 | 1486514500.59495 |                 0 |              10 |                    22 |                   30 |               2182 |             0 |                0 |          241893 |                     0 |         96137 | 2017-02-08 00:54:00.126408+01

 2017-02-08 01:41:41.873695+01 | 1486514501.87369 |                 0 |              10 |                    22 |                   30 |               2182 |             0 |                0 |          241893 |                     0 |         96137 | 2017-02-08 00:54:00.126408+01

 2017-02-08 01:41:43.15231+01 | 1486514503.15231 |                 0 |              10 |                    22 |                   30 |               2182 |             0 |                0 |          241893 |                     0 |         96137 | 2017-02-08 00:54:00.126408+01

 2017-02-08 01:41:44.433567+01 | 1486514504.43357 |                 0 |              10 |                    22 |                   30 |               2182 |             0 |                0 |          241893 |                     0 |         96137 | 2017-02-08 00:54:00.126408+01

 2017-02-08 01:41:45.715863+01 | 1486514505.71586 |                 0 |              10 |                    22 |                   30 |               2182 |             0 |                0 |          241893 |                     0 |         96137 | 2017-02-08 00:54:00.126408+01

 2017-02-08 01:41:46.996865+01 | 1486514506.99687 |                 0 |              10 |                    22 |                   30 |               2182 |             0 |                0 |          241893 |                     0 |         96137 | 2017-02-08 00:54:00.126408+01

 2017-02-08 01:41:48.273056+01 | 1486514508.27306 |                 0 |              10 |                    22 |                   30 |               2182 |             0 |                0 |          241893 |                     0 |         96137 | 2017-02-08 00:54:00.126408+01

 2017-02-08 01:41:49.553465+01 | 1486514509.55346 |                 0 |              10 |                    22 |                   30 |               2182 |             0 |                0 |          241893 |                     0 |         96137 | 2017-02-08 00:54:00.126408+01

 2017-02-08 01:41:50.82764+01 | 1486514510.82764 |                 0 |              10 |                    22 |                   30 |               2182 |             0 |                0 |          241893 |                     0 |         96137 | 2017-02-08 00:54:00.126408+01

 2017-02-08 01:41:52.100776+01 | 1486514512.10078 |                 0 |              10 |                    22 |                   30 |               2182 |             0 |                0 |          241893 |                     0 |         96137 | 2017-02-08 00:54:00.126408+01

 2017-02-08 01:41:53.378266+01 | 1486514513.37827 |                 0 |              10 |                    22 |                   30 |               2182 |             0 |                0 |          241893 |                     0 |         96137 | 2017-02-08 00:54:00.126408+01

 2017-02-08 01:41:54.657755+01 | 1486514514.65775 |                 0 |              10 |                    22 |                   30 |               2182 |             0 |                0 |          241893 |                     0 |         96137 | 2017-02-08 00:54:00.126408+01

 2017-02-08 01:41:55.935463+01 | 1486514515.93546 |                 0 |              10 |                    22 |                   30 |               2182 |             0 |                0 |          241893 |                     0 |         96137 | 2017-02-08 00:54:00.126408+01

 2017-02-08 01:41:57.211664+01 | 1486514517.21166 |                 0 |              10 |                    22 |                   30 |               2182 |             0 |                0 |          241893 |                     0 |         96137 | 2017-02-08 00:54:00.126408+01

 2017-02-08 01:41:58.490175+01 | 1486514518.49018 |                 0 |              10 |                    22 |                   30 |               2182 |             0 |                0 |          241893 |                     0 |         96137 | 2017-02-08 00:54:00.126408+01

 2017-02-08 01:41:59.775825+01 | 1486514519.77583 |                 0 |              10 |                    22 |                   30 |               2182 |             0 |                0 |          241893 |                     0 |         96137 | 2017-02-08 00:54:00.126408+01

 2017-02-08 01:42:01.05457+01 | 1486514521.05457 |                 0 |              10 |                    22 |                   30 |               2182 |             0 |                0 |          241893 |                     0 |         96137 | 2017-02-08 00:54:00.126408+01

 2017-02-08 01:42:02.335693+01 | 1486514522.33569 |                 0 |              10 |                    22 |                   30 |               2182 |             0 |                0 |          241893 |                     0 |         96137 | 2017-02-08 00:54:00.126408+01

 2017-02-08 01:42:03.613551+01 | 1486514523.61355 |                 0 |              10 |                    22 |                   30 |               2182 |             0 |                0 |          241893 |                     0 |         96137 | 2017-02-08 00:54:00.126408+01

 2017-02-08 01:42:04.891711+01 | 1486514524.89171 |                 0 |              10 |                    22 |                   30 |               2182 |             0 |                0 |          241893 |                     0 |         96137 | 2017-02-08 00:54:00.126408+01

 2017-02-08 01:42:06.171663+01 | 1486514526.17166 |                 0 |              10 |                    22 |                   30 |               2182 |             0 |                0 |          241893 |                     0 |         96137 | 2017-02-08 00:54:00.126408+01

 2017-02-08 01:42:07.447499+01 | 1486514527.4475 |                 0 |              10 |                    22 |                   30 |               2182 |             0 |                0 |          241893 |                     0 |         96137 | 2017-02-08 00:54:00.126408+01

 2017-02-08 01:42:08.740785+01 | 1486514528.74078 |                 0 |              10 |                    22 |                   30 |               2182 |             0 |                0 |          241893 |                     0 |         96137 | 2017-02-08 00:54:00.126408+01

 2017-02-08 01:42:10.047754+01 | 1486514530.04775 |                 0 |              10 |                    22 |                   30 |               2182 |             0 |                0 |          241893 |                     0 |         96137 | 2017-02-08 00:54:00.126408+01

 2017-02-08 01:42:11.356358+01 | 1486514531.35636 |                 0 |              10 |                    22 |                   30 |               2182 |             0 |                0 |          241893 |                     0 |         96137 | 2017-02-08 00:54:00.126408+01

 2017-02-08 01:42:12.634071+01 | 1486514532.63407 |                 0 |              10 |                    22 |                   30 |               2182 |             0 |                0 |          241893 |                     0 |         96137 | 2017-02-08 00:54:00.126408+01

 2017-02-08 01:42:13.90811+01 | 1486514533.90811 |                 0 |              10 |                    22 |                   30 |               2182 |             0 |                0 |          241893 |                     0 |         96137 | 2017-02-08 00:54:00.126408+01

 2017-02-08 01:42:15.172901+01 | 1486514535.1729 |                 0 |              10 |                    22 |                   30 |               2182 |             0 |                0 |          241893 |                     0 |         96137 | 2017-02-08 00:54:00.126408+01

 2017-02-08 01:42:16.458971+01 | 1486514536.45897 |                 0 |              10 |                    22 |                   30 |               2182 |             0 |                0 |          241893 |                     0 |         96137 | 2017-02-08 00:54:00.126408+01

 2017-02-08 01:42:17.74036+01 | 1486514537.74036 |                 0 |              10 |                    22 |                   30 |               2182 |             0 |                0 |          241893 |                     0 |         96137 | 2017-02-08 00:54:00.126408+01

 2017-02-08 01:42:19.017273+01 | 1486514539.01727 |                 0 |              10 |                    22 |                   30 |               2182 |             0 |                0 |          241893 |                     0 |         96137 | 2017-02-08 00:54:00.126408+01

 2017-02-08 01:42:20.292218+01 | 1486514540.29222 |                 0 |              10 |                    22 |                   30 |               2182 |             0 |                0 |          241893 |                     0 |         96137 | 2017-02-08 00:54:00.126408+01

 2017-02-08 01:42:21.567604+01 | 1486514541.5676 |                 0 |              10 |                    22 |                   30 |               2182 |             0 |                0 |          241893 |                     0 |         96137 | 2017-02-08 00:54:00.126408+01

 2017-02-08 01:42:22.845447+01 | 1486514542.84545 |                 0 |              10 |                    22 |                   30 |               2182 |             0 |                0 |          241893 |                     0 |         96137 | 2017-02-08 00:54:00.126408+01

 2017-02-08 01:42:24.121439+01 | 1486514544.12144 |                 0 |              10 |                    22 |                   30 |               2182 |             0 |                0 |          241893 |                     0 |         96137 | 2017-02-08 00:54:00.126408+01

 2017-02-08 01:42:25.399011+01 | 1486514545.39901 |                 0 |              10 |                    22 |                   30 |               2182 |             0 |                0 |          241893 |                     0 |         96137 | 2017-02-08 00:54:00.126408+01

 2017-02-08 01:42:26.682288+01 | 1486514546.68229 |                 0 |              10 |                    22 |                   30 |               2182 |             0 |                0 |          241893 |                     0 |         96137 | 2017-02-08 00:54:00.126408+01

 2017-02-08 01:42:27.951828+01 | 1486514547.95183 |                 0 |              10 |                    22 |                   30 |               2182 |             0 |                0 |          241893 |                     0 |         96137 | 2017-02-08 00:54:00.126408+01

 2017-02-08 01:42:29.230948+01 | 1486514549.23095 |                 0 |              10 |                    22 |                   30 |               2182 |             0 |                0 |          241893 |                     0 |         96137 | 2017-02-08 00:54:00.126408+01

 2017-02-08 01:42:30.508989+01 | 1486514550.50899 |                 0 |              10 |                    22 |                   30 |               2182 |             0 |                0 |          241893 |                     0 |         96137 | 2017-02-08 00:54:00.126408+01

 2017-02-08 01:42:31.789895+01 | 1486514551.7899 |                 0 |              10 |                    22 |                   30 |               2182 |             0 |                0 |          241893 |                     0 |         96137 | 2017-02-08 00:54:00.126408+01

 2017-02-08 01:42:33.06891+01 | 1486514553.06891 |                 0 |              10 |                    22 |                   30 |               2182 |             0 |                0 |          241893 |                     0 |         96137 | 2017-02-08 00:54:00.126408+01

 2017-02-08 01:42:34.357417+01 | 1486514554.35742 |                 0 |              10 |                    22 |                   30 |               2182 |             0 |                0 |          241893 |                     0 |         96137 | 2017-02-08 00:54:00.126408+01

 2017-02-08 01:42:35.634446+01 | 1486514555.63445 |                 0 |              10 |                    22 |                   30 |               2182 |             0 |                0 |          241893 |                     0 |         96137 | 2017-02-08 00:54:00.126408+01

 2017-02-08 01:42:36.912276+01 | 1486514556.91228 |                 0 |              10 |                    22 |                   30 |               2182 |             0 |                0 |          241893 |                     0 |         96137 | 2017-02-08 00:54:00.126408+01

 2017-02-08 01:42:38.178254+01 | 1486514558.17825 |                 0 |              10 |                    22 |                   30 |               2182 |             0 |                0 |          241893 |                     0 |         96137 | 2017-02-08 00:54:00.126408+01

 2017-02-08 01:42:39.440132+01 | 1486514559.44013 |                 0 |              10 |                    22 |                   30 |               2182 |             0 |                0 |          241893 |                     0 |         96137 | 2017-02-08 00:54:00.126408+01

 2017-02-08 01:42:40.713463+01 | 1486514560.71346 |                 0 |              10 |                    22 |                   30 |               2182 |             0 |                0 |          241893 |                     0 |         96137 | 2017-02-08 00:54:00.126408+01

 2017-02-08 01:42:41.971594+01 | 1486514561.97159 |                 0 |              10 |                    22 |                   30 |               2182 |             0 |                0 |          241893 |                     0 |         96137 | 2017-02-08 00:54:00.126408+01

 2017-02-08 01:42:43.243773+01 | 1486514563.24377 |                 0 |              10 |                    22 |                   30 |               2182 |             0 |                0 |          241893 |                     0 |         96137 | 2017-02-08 00:54:00.126408+01

 2017-02-08 01:42:44.52999+01 | 1486514564.52999 |                 0 |              10 |                    22 |                   30 |               2182 |             0 |                0 |          241893 |                     0 |         96137 | 2017-02-08 00:54:00.126408+01

 2017-02-08 01:42:45.809195+01 | 1486514565.8092 |                 0 |              10 |                    22 |                   30 |               2182 |             0 |                0 |          241893 |                     0 |         96137 | 2017-02-08 00:54:00.126408+01

 2017-02-08 01:42:47.09333+01 | 1486514567.09333 |                 0 |              10 |                    22 |                   30 |               2182 |             0 |                0 |          241893 |                     0 |         96137 | 2017-02-08 00:54:00.126408+01

 2017-02-08 01:42:48.375172+01 | 1486514568.37517 |                 0 |              10 |                    22 |                   30 |               2182 |             0 |                0 |          241893 |                     0 |         96137 | 2017-02-08 00:54:00.126408+01

 2017-02-08 01:42:49.651556+01 | 1486514569.65156 |                 0 |              10 |                    22 |                   30 |               2182 |             0 |                0 |          241893 |                     0 |         96137 | 2017-02-08 00:54:00.126408+01

 2017-02-08 01:42:50.933654+01 | 1486514570.93365 |                 0 |              10 |                    22 |                   30 |               2182 |             0 |                0 |          241893 |                     0 |         96137 | 2017-02-08 00:54:00.126408+01

 2017-02-08 01:42:52.214298+01 | 1486514572.2143 |                 0 |              10 |                    22 |                   30 |               2182 |             0 |                0 |          241893 |                     0 |         96137 | 2017-02-08 00:54:00.126408+01

 2017-02-08 01:42:53.493281+01 | 1486514573.49328 |                 0 |              10 |                    22 |                   30 |               2182 |             0 |                0 |          241893 |                     0 |         96137 | 2017-02-08 00:54:00.126408+01

 2017-02-08 01:42:54.765786+01 | 1486514574.76579 |                 0 |              10 |                    22 |                   30 |               2182 |             0 |                0 |          241893 |                     0 |         96137 | 2017-02-08 00:54:00.126408+01

 2017-02-08 01:42:56.037863+01 | 1486514576.03786 |                 0 |              10 |                    22 |                   30 |               2182 |             0 |                0 |          241893 |                     0 |         96137 | 2017-02-08 00:54:00.126408+01

 2017-02-08 01:42:57.31752+01 | 1486514577.31752 |                 0 |              10 |                    22 |                   30 |               2182 |             0 |                0 |          241893 |                     0 |         96137 | 2017-02-08 00:54:00.126408+01

 2017-02-08 01:42:58.596449+01 | 1486514578.59645 |                 0 |              10 |                    22 |                   30 |               2182 |             0 |                0 |          241893 |                     0 |         96137 | 2017-02-08 00:54:00.126408+01

 2017-02-08 01:42:59.868231+01 | 1486514579.86823 |                 0 |              10 |                    22 |                   30 |               2182 |             0 |                0 |          241893 |                     0 |         96137 | 2017-02-08 00:54:00.126408+01

 2017-02-08 01:43:01.132931+01 | 1486514581.13293 |                 0 |              10 |                    22 |                   30 |               2182 |             0 |                0 |          241893 |                     0 |         96137 | 2017-02-08 00:54:00.126408+01

 2017-02-08 01:43:02.411713+01 | 1486514582.41171 |                 0 |              10 |                    22 |                   30 |               2182 |             0 |                0 |          241893 |                     0 |         96137 | 2017-02-08 00:54:00.126408+01

 2017-02-08 01:43:03.679572+01 | 1486514583.67957 |                 0 |              10 |                    22 |                   30 |               2182 |             0 |                0 |          241893 |                     0 |         96137 | 2017-02-08 00:54:00.126408+01

 2017-02-08 01:43:04.940901+01 | 1486514584.9409 |                 0 |              10 |                    22 |                   30 |               2182 |             0 |                0 |          241893 |                     0 |         96137 | 2017-02-08 00:54:00.126408+01

 2017-02-08 01:43:06.221788+01 | 1486514586.22179 |                 0 |              10 |                    22 |                   30 |               2182 |             0 |                0 |          241893 |                     0 |         96137 | 2017-02-08 00:54:00.126408+01

 2017-02-08 01:43:07.498376+01 | 1486514587.49838 |                 0 |              10 |                    22 |                   30 |               2182 |             0 |                0 |          241893 |                     0 |         96137 | 2017-02-08 00:54:00.126408+01

 2017-02-08 01:43:08.782742+01 | 1486514588.78274 |                 0 |              10 |                    22 |                   30 |               2182 |             0 |                0 |          241893 |                     0 |         96137 | 2017-02-08 00:54:00.126408+01

 2017-02-08 01:43:10.062413+01 | 1486514590.06241 |                 0 |              10 |                    22 |                   30 |               2182 |             0 |                0 |          241893 |                     0 |         96137 | 2017-02-08 00:54:00.126408+01

 2017-02-08 01:43:11.33872+01 | 1486514591.33872 |                 0 |              10 |                    22 |                   30 |               2182 |             0 |                0 |          241893 |                     0 |         96137 | 2017-02-08 00:54:00.126408+01

 2017-02-08 01:43:12.625087+01 | 1486514592.62509 |                 0 |              10 |                    22 |                   30 |               2182 |             0 |                0 |          241893 |                     0 |         96137 | 2017-02-08 00:54:00.126408+01

 2017-02-08 01:43:13.91246+01 | 1486514593.91246 |                 0 |              10 |                    22 |                   30 |               2182 |             0 |                0 |          241893 |                     0 |         96137 | 2017-02-08 00:54:00.126408+01

 2017-02-08 01:43:15.186289+01 | 1486514595.18629 |                 0 |              10 |                    22 |                   30 |               2182 |             0 |                0 |          241893 |                     0 |         96137 | 2017-02-08 00:54:00.126408+01

 2017-02-08 01:43:16.473878+01 | 1486514596.47388 |                 0 |              10 |                    22 |                   30 |               2182 |             0 |                0 |          241893 |                     0 |         96137 | 2017-02-08 00:54:00.126408+01

 2017-02-08 01:43:17.741241+01 | 1486514597.74124 |                 0 |              10 |                    22 |                   30 |               2182 |             0 |                0 |          241893 |                     0 |         96137 | 2017-02-08 00:54:00.126408+01

 2017-02-08 01:43:19.021236+01 | 1486514599.02124 |                 0 |              10 |                    22 |                   30 |               2182 |             0 |                0 |          241893 |                     0 |         96137 | 2017-02-08 00:54:00.126408+01

 2017-02-08 01:43:20.300124+01 | 1486514600.30012 |                 0 |              10 |                    22 |                   30 |               2182 |             0 |                0 |          241893 |                     0 |         96137 | 2017-02-08 00:54:00.126408+01

 2017-02-08 01:43:21.583846+01 | 1486514601.58385 |                 0 |              10 |                    22 |                   30 |               2182 |             0 |                0 |          241893 |                     0 |         96137 | 2017-02-08 00:54:00.126408+01

 2017-02-08 01:43:22.866548+01 | 1486514602.86655 |                 0 |              10 |                    22 |                   30 |               2182 |             0 |                0 |          241893 |                     0 |         96137 | 2017-02-08 00:54:00.126408+01

 2017-02-08 01:43:24.145566+01 | 1486514604.14557 |                 0 |              10 |                    22 |                   30 |               2182 |             0 |                0 |          241893 |                     0 |         96137 | 2017-02-08 00:54:00.126408+01

 2017-02-08 01:43:25.428234+01 | 1486514605.42823 |                 0 |              10 |                    22 |                   30 |               2182 |             0 |                0 |          241893 |                     0 |         96137 | 2017-02-08 00:54:00.126408+01

 2017-02-08 01:43:26.703353+01 | 1486514606.70335 |                 0 |              10 |                    22 |                   30 |               2182 |             0 |                0 |          241893 |                     0 |         96137 | 2017-02-08 00:54:00.126408+01

 2017-02-08 01:43:27.98674+01 | 1486514607.98674 |                 0 |              10 |                    22 |                   30 |               2182 |             0 |                0 |          241893 |                     0 |         96137 | 2017-02-08 00:54:00.126408+01

 2017-02-08 01:43:29.273194+01 | 1486514609.27319 |                 0 |              10 |                    22 |                   30 |               2182 |             0 |                0 |          241893 |                     0 |         96137 | 2017-02-08 00:54:00.126408+01

 2017-02-08 01:43:30.538054+01 | 1486514610.53805 |                 0 |              10 |                    22 |                   30 |               2182 |             0 |                0 |          241893 |                     0 |         96137 | 2017-02-08 00:54:00.126408+01

 2017-02-08 01:43:31.813854+01 | 1486514611.81385 |                 0 |              10 |                    22 |                   30 |               2182 |             0 |                0 |          241893 |                     0 |         96137 | 2017-02-08 00:54:00.126408+01

 2017-02-08 01:43:33.097916+01 | 1486514613.09792 |                 0 |              10 |                    22 |                   30 |               2182 |             0 |                0 |          241893 |                     0 |         96137 | 2017-02-08 00:54:00.126408+01

 2017-02-08 01:43:34.378392+01 | 1486514614.37839 |                 0 |              10 |                    22 |                   30 |               2182 |             0 |                0 |          241893 |                     0 |         96137 | 2017-02-08 00:54:00.126408+01

 2017-02-08 01:43:35.669101+01 | 1486514615.6691 |                 0 |              10 |                    22 |                   30 |               2182 |             0 |                0 |          241893 |                     0 |         96137 | 2017-02-08 00:54:00.126408+01

 2017-02-08 01:43:36.954902+01 | 1486514616.9549 |                 0 |              10 |                    22 |                   30 |               2182 |             0 |                0 |          241893 |                     0 |         96137 | 2017-02-08 00:54:00.126408+01

 2017-02-08 01:43:38.232859+01 | 1486514618.23286 |                 0 |              10 |                    22 |                   30 |               2182 |             0 |                0 |          241893 |                     0 |         96137 | 2017-02-08 00:54:00.126408+01

 2017-02-08 01:43:39.507642+01 | 1486514619.50764 |                 0 |              10 |                    22 |                   30 |               2182 |             0 |                0 |          241893 |                     0 |         96137 | 2017-02-08 00:54:00.126408+01

 2017-02-08 01:43:40.782052+01 | 1486514620.78205 |                 0 |              10 |                    22 |                   30 |               2182 |             0 |                0 |          241893 |                     0 |         96137 | 2017-02-08 00:54:00.126408+01

 2017-02-08 01:43:42.062551+01 | 1486514622.06255 |                 0 |              10 |                    22 |                   30 |               2182 |             0 |                0 |          241893 |                     0 |         96137 | 2017-02-08 00:54:00.126408+01

 2017-02-08 01:43:43.335297+01 | 1486514623.3353 |                 0 |              10 |                    22 |                   30 |               2182 |             0 |                0 |          241893 |                     0 |         96137 | 2017-02-08 00:54:00.126408+01

 2017-02-08 01:43:44.614129+01 | 1486514624.61413 |                 0 |              10 |                    22 |                   30 |               2182 |             0 |                0 |          241893 |                     0 |         96137 | 2017-02-08 00:54:00.126408+01

 2017-02-08 01:43:45.89502+01 | 1486514625.89502 |                 0 |              10 |                    22 |                   30 |               2182 |             0 |                0 |          241893 |                     0 |         96137 | 2017-02-08 00:54:00.126408+01

 2017-02-08 01:43:47.179904+01 | 1486514627.1799 |                 0 |              10 |                    22 |                   30 |               2182 |             0 |                0 |          241893 |                     0 |         96137 | 2017-02-08 00:54:00.126408+01

 2017-02-08 01:43:48.457715+01 | 1486514628.45772 |                 0 |              10 |                    22 |                   30 |               2182 |             0 |                0 |          241893 |                     0 |         96137 | 2017-02-08 00:54:00.126408+01

 2017-02-08 01:43:49.73637+01 | 1486514629.73637 |                 0 |              10 |                    22 |                   30 |               2182 |             0 |                0 |          241893 |                     0 |         96137 | 2017-02-08 00:54:00.126408+01

 2017-02-08 01:43:51.00164+01 | 1486514631.00164 |                 0 |              10 |                    22 |                   30 |               2182 |             0 |                0 |          241893 |                     0 |         96137 | 2017-02-08 00:54:00.126408+01

 2017-02-08 01:43:52.280392+01 | 1486514632.28039 |                 0 |              10 |                    22 |                   30 |               2182 |             0 |                0 |          241893 |                     0 |         96137 | 2017-02-08 00:54:00.126408+01

 2017-02-08 01:43:53.559818+01 | 1486514633.55982 |                 0 |              10 |                    22 |                   30 |               2182 |             0 |                0 |          241893 |                     0 |         96137 | 2017-02-08 00:54:00.126408+01

 2017-02-08 01:43:54.835515+01 | 1486514634.83552 |                 0 |              10 |                    22 |                   30 |               2182 |             0 |                0 |          241893 |                     0 |         96137 | 2017-02-08 00:54:00.126408+01

 2017-02-08 01:43:56.112757+01 | 1486514636.11276 |                 0 |              10 |                    22 |                   30 |               2182 |             0 |                0 |          241893 |                     0 |         96137 | 2017-02-08 00:54:00.126408+01

 2017-02-08 01:43:57.39187+01 | 1486514637.39187 |                 0 |              10 |                    22 |                   30 |               2182 |             0 |                0 |          241893 |                     0 |         96137 | 2017-02-08 00:54:00.126408+01

 2017-02-08 01:43:58.675223+01 | 1486514638.67522 |                 0 |              10 |                    22 |                   30 |               2182 |             0 |                0 |          241893 |                     0 |         96137 | 2017-02-08 00:54:00.126408+01

 2017-02-08 01:43:59.956356+01 | 1486514639.95636 |                 0 |              10 |                    22 |                   30 |               2182 |             0 |                0 |          241893 |                     0 |         96137 | 2017-02-08 00:54:00.126408+01

 2017-02-08 01:44:01.238243+01 | 1486514641.23824 |                 0 |              10 |                    22 |                   30 |               2182 |             0 |                0 |          241893 |                     0 |         96137 | 2017-02-08 00:54:00.126408+01

 2017-02-08 01:44:02.516159+01 | 1486514642.51616 |                 0 |              10 |                    22 |                   30 |               2182 |             0 |                0 |          241893 |                     0 |         96137 | 2017-02-08 00:54:00.126408+01

 2017-02-08 01:44:03.793311+01 | 1486514643.79331 |                 0 |              10 |                    22 |                   30 |               2182 |             0 |                0 |          241893 |                     0 |         96137 | 2017-02-08 00:54:00.126408+01

 2017-02-08 01:44:05.06658+01 | 1486514645.06658 |                 0 |              10 |                    22 |                   30 |               2182 |             0 |                0 |          241893 |                     0 |         96137 | 2017-02-08 00:54:00.126408+01

 2017-02-08 01:44:06.345899+01 | 1486514646.3459 |                 0 |              10 |                    22 |                   30 |               2182 |             0 |                0 |          241893 |                     0 |         96137 | 2017-02-08 00:54:00.126408+01

 2017-02-08 01:44:07.622711+01 | 1486514647.62271 |                 0 |              10 |                    22 |                   30 |               2182 |             0 |                0 |          241893 |                     0 |         96137 | 2017-02-08 00:54:00.126408+01

 2017-02-08 01:44:08.900555+01 | 1486514648.90055 |                 0 |              10 |                    22 |                   30 |               2182 |             0 |                0 |          241893 |                     0 |         96137 | 2017-02-08 00:54:00.126408+01

 2017-02-08 01:44:10.180651+01 | 1486514650.18065 |                 0 |              10 |                    22 |                   30 |               2182 |             0 |                0 |          241893 |                     0 |         96137 | 2017-02-08 00:54:00.126408+01

