 2017-02-08 20:54:28.402703+01 | 1486583668.4027 | pgbench_accounts |       4153647104
 2017-02-08 20:54:28.402703+01 | 1486583668.4027 | pgbench_tellers  |           139264
 2017-02-08 20:54:28.402703+01 | 1486583668.4027 | pgbench_history  |                0
 2017-02-08 20:54:28.402703+01 | 1486583668.4027 | pgbench_branches |            16384

 2017-02-08 20:54:29.523739+01 | 1486583669.52374 | pgbench_accounts |       4153647104
 2017-02-08 20:54:29.523739+01 | 1486583669.52374 | pgbench_tellers  |           139264
 2017-02-08 20:54:29.523739+01 | 1486583669.52374 | pgbench_history  |                0
 2017-02-08 20:54:29.523739+01 | 1486583669.52374 | pgbench_branches |            16384

 2017-02-08 20:54:30.667319+01 | 1486583670.66732 | pgbench_accounts |       4153647104
 2017-02-08 20:54:30.667319+01 | 1486583670.66732 | pgbench_tellers  |           139264
 2017-02-08 20:54:30.667319+01 | 1486583670.66732 | pgbench_history  |                0
 2017-02-08 20:54:30.667319+01 | 1486583670.66732 | pgbench_branches |            16384

 2017-02-08 20:54:31.761853+01 | 1486583671.76185 | pgbench_accounts |       4153778176
 2017-02-08 20:54:31.761853+01 | 1486583671.76185 | pgbench_tellers  |           139264
 2017-02-08 20:54:31.761853+01 | 1486583671.76185 | pgbench_history  |                0
 2017-02-08 20:54:31.761853+01 | 1486583671.76185 | pgbench_branches |            16384

 2017-02-08 20:54:32.905789+01 | 1486583672.90579 | pgbench_accounts |       4153884672
 2017-02-08 20:54:32.905789+01 | 1486583672.90579 | pgbench_tellers  |           139264
 2017-02-08 20:54:32.905789+01 | 1486583672.90579 | pgbench_history  |                0
 2017-02-08 20:54:32.905789+01 | 1486583672.90579 | pgbench_branches |            16384

 2017-02-08 20:54:34.026959+01 | 1486583674.02696 | pgbench_accounts |       4153909248
 2017-02-08 20:54:34.026959+01 | 1486583674.02696 | pgbench_tellers  |           139264
 2017-02-08 20:54:34.026959+01 | 1486583674.02696 | pgbench_history  |                0
 2017-02-08 20:54:34.026959+01 | 1486583674.02696 | pgbench_branches |            16384

 2017-02-08 20:54:35.127564+01 | 1486583675.12756 | pgbench_accounts |       4154032128
 2017-02-08 20:54:35.127564+01 | 1486583675.12756 | pgbench_tellers  |           139264
 2017-02-08 20:54:35.127564+01 | 1486583675.12756 | pgbench_history  |                0
 2017-02-08 20:54:35.127564+01 | 1486583675.12756 | pgbench_branches |            16384

 2017-02-08 20:54:36.264079+01 | 1486583676.26408 | pgbench_accounts |       4154064896
 2017-02-08 20:54:36.264079+01 | 1486583676.26408 | pgbench_tellers  |           139264
 2017-02-08 20:54:36.264079+01 | 1486583676.26408 | pgbench_history  |                0
 2017-02-08 20:54:36.264079+01 | 1486583676.26408 | pgbench_branches |            16384

 2017-02-08 20:54:37.387971+01 | 1486583677.38797 | pgbench_accounts |       4154171392
 2017-02-08 20:54:37.387971+01 | 1486583677.38797 | pgbench_tellers  |           139264
 2017-02-08 20:54:37.387971+01 | 1486583677.38797 | pgbench_history  |                0
 2017-02-08 20:54:37.387971+01 | 1486583677.38797 | pgbench_branches |            16384

 2017-02-08 20:54:38.560644+01 | 1486583678.56064 | pgbench_accounts |       4154245120
 2017-02-08 20:54:38.560644+01 | 1486583678.56064 | pgbench_tellers  |           139264
 2017-02-08 20:54:38.560644+01 | 1486583678.56064 | pgbench_history  |                0
 2017-02-08 20:54:38.560644+01 | 1486583678.56064 | pgbench_branches |            16384

 2017-02-08 20:54:39.697448+01 | 1486583679.69745 | pgbench_accounts |       4154318848
 2017-02-08 20:54:39.697448+01 | 1486583679.69745 | pgbench_tellers  |           139264
 2017-02-08 20:54:39.697448+01 | 1486583679.69745 | pgbench_history  |                0
 2017-02-08 20:54:39.697448+01 | 1486583679.69745 | pgbench_branches |            16384

 2017-02-08 20:54:40.85537+01 | 1486583680.85537 | pgbench_accounts |       4154425344
 2017-02-08 20:54:40.85537+01 | 1486583680.85537 | pgbench_tellers  |           139264
 2017-02-08 20:54:40.85537+01 | 1486583680.85537 | pgbench_history  |                0
 2017-02-08 20:54:40.85537+01 | 1486583680.85537 | pgbench_branches |            16384

 2017-02-08 20:54:41.992299+01 | 1486583681.9923 | pgbench_accounts |       4154474496
 2017-02-08 20:54:41.992299+01 | 1486583681.9923 | pgbench_tellers  |           139264
 2017-02-08 20:54:41.992299+01 | 1486583681.9923 | pgbench_history  |                0
 2017-02-08 20:54:41.992299+01 | 1486583681.9923 | pgbench_branches |            16384

 2017-02-08 20:54:43.167562+01 | 1486583683.16756 | pgbench_accounts |       4154564608
 2017-02-08 20:54:43.167562+01 | 1486583683.16756 | pgbench_tellers  |           139264
 2017-02-08 20:54:43.167562+01 | 1486583683.16756 | pgbench_history  |                0
 2017-02-08 20:54:43.167562+01 | 1486583683.16756 | pgbench_branches |            16384

 2017-02-08 20:54:44.252393+01 | 1486583684.25239 | pgbench_accounts |       4154613760
 2017-02-08 20:54:44.252393+01 | 1486583684.25239 | pgbench_tellers  |           139264
 2017-02-08 20:54:44.252393+01 | 1486583684.25239 | pgbench_history  |                0
 2017-02-08 20:54:44.252393+01 | 1486583684.25239 | pgbench_branches |            16384

 2017-02-08 20:54:45.428455+01 | 1486583685.42846 | pgbench_accounts |       4154712064
 2017-02-08 20:54:45.428455+01 | 1486583685.42846 | pgbench_tellers  |           139264
 2017-02-08 20:54:45.428455+01 | 1486583685.42846 | pgbench_history  |                0
 2017-02-08 20:54:45.428455+01 | 1486583685.42846 | pgbench_branches |            16384

 2017-02-08 20:54:46.584534+01 | 1486583686.58453 | pgbench_accounts |       4154785792
 2017-02-08 20:54:46.584534+01 | 1486583686.58453 | pgbench_tellers  |           139264
 2017-02-08 20:54:46.584534+01 | 1486583686.58453 | pgbench_history  |                0
 2017-02-08 20:54:46.584534+01 | 1486583686.58453 | pgbench_branches |            16384

 2017-02-08 20:54:47.726713+01 | 1486583687.72671 | pgbench_accounts |       4154851328
 2017-02-08 20:54:47.726713+01 | 1486583687.72671 | pgbench_tellers  |           139264
 2017-02-08 20:54:47.726713+01 | 1486583687.72671 | pgbench_history  |                0
 2017-02-08 20:54:47.726713+01 | 1486583687.72671 | pgbench_branches |            16384

 2017-02-08 20:54:48.86364+01 | 1486583688.86364 | pgbench_accounts |       4154933248
 2017-02-08 20:54:48.86364+01 | 1486583688.86364 | pgbench_tellers  |           139264
 2017-02-08 20:54:48.86364+01 | 1486583688.86364 | pgbench_history  |                0
 2017-02-08 20:54:48.86364+01 | 1486583688.86364 | pgbench_branches |            16384

 2017-02-08 20:54:49.985933+01 | 1486583689.98593 | pgbench_accounts |       4155015168
 2017-02-08 20:54:49.985933+01 | 1486583689.98593 | pgbench_tellers  |           139264
 2017-02-08 20:54:49.985933+01 | 1486583689.98593 | pgbench_history  |                0
 2017-02-08 20:54:49.985933+01 | 1486583689.98593 | pgbench_branches |            16384

 2017-02-08 20:54:51.105666+01 | 1486583691.10567 | pgbench_accounts |       4155064320
 2017-02-08 20:54:51.105666+01 | 1486583691.10567 | pgbench_tellers  |           139264
 2017-02-08 20:54:51.105666+01 | 1486583691.10567 | pgbench_history  |                0
 2017-02-08 20:54:51.105666+01 | 1486583691.10567 | pgbench_branches |            16384

 2017-02-08 20:54:52.244062+01 | 1486583692.24406 | pgbench_accounts |       4155138048
 2017-02-08 20:54:52.244062+01 | 1486583692.24406 | pgbench_tellers  |           139264
 2017-02-08 20:54:52.244062+01 | 1486583692.24406 | pgbench_history  |                0
 2017-02-08 20:54:52.244062+01 | 1486583692.24406 | pgbench_branches |            16384

 2017-02-08 20:54:53.401119+01 | 1486583693.40112 | pgbench_accounts |       4155219968
 2017-02-08 20:54:53.401119+01 | 1486583693.40112 | pgbench_tellers  |           139264
 2017-02-08 20:54:53.401119+01 | 1486583693.40112 | pgbench_history  |                0
 2017-02-08 20:54:53.401119+01 | 1486583693.40112 | pgbench_branches |            16384

 2017-02-08 20:54:54.567486+01 | 1486583694.56749 | pgbench_accounts |       4155277312
 2017-02-08 20:54:54.567486+01 | 1486583694.56749 | pgbench_tellers  |           139264
 2017-02-08 20:54:54.567486+01 | 1486583694.56749 | pgbench_history  |                0
 2017-02-08 20:54:54.567486+01 | 1486583694.56749 | pgbench_branches |            16384

 2017-02-08 20:54:55.703155+01 | 1486583695.70316 | pgbench_accounts |       4155351040
 2017-02-08 20:54:55.703155+01 | 1486583695.70316 | pgbench_tellers  |           139264
 2017-02-08 20:54:55.703155+01 | 1486583695.70316 | pgbench_history  |                0
 2017-02-08 20:54:55.703155+01 | 1486583695.70316 | pgbench_branches |            16384

 2017-02-08 20:54:56.901914+01 | 1486583696.90191 | pgbench_accounts |       4155416576
 2017-02-08 20:54:56.901914+01 | 1486583696.90191 | pgbench_tellers  |           139264
 2017-02-08 20:54:56.901914+01 | 1486583696.90191 | pgbench_history  |                0
 2017-02-08 20:54:56.901914+01 | 1486583696.90191 | pgbench_branches |            16384

 2017-02-08 20:54:58.029029+01 | 1486583698.02903 | pgbench_accounts |       4155506688
 2017-02-08 20:54:58.029029+01 | 1486583698.02903 | pgbench_tellers  |           139264
 2017-02-08 20:54:58.029029+01 | 1486583698.02903 | pgbench_history  |                0
 2017-02-08 20:54:58.029029+01 | 1486583698.02903 | pgbench_branches |            16384

 2017-02-08 20:54:59.16451+01 | 1486583699.16451 | pgbench_accounts |       4155555840
 2017-02-08 20:54:59.16451+01 | 1486583699.16451 | pgbench_tellers  |           139264
 2017-02-08 20:54:59.16451+01 | 1486583699.16451 | pgbench_history  |                0
 2017-02-08 20:54:59.16451+01 | 1486583699.16451 | pgbench_branches |            16384

 2017-02-08 20:55:00.319883+01 | 1486583700.31988 | pgbench_accounts |       4155637760
 2017-02-08 20:55:00.319883+01 | 1486583700.31988 | pgbench_tellers  |           139264
 2017-02-08 20:55:00.319883+01 | 1486583700.31988 | pgbench_history  |                0
 2017-02-08 20:55:00.319883+01 | 1486583700.31988 | pgbench_branches |            16384

 2017-02-08 20:55:01.469623+01 | 1486583701.46962 | pgbench_accounts |       4155686912
 2017-02-08 20:55:01.469623+01 | 1486583701.46962 | pgbench_tellers  |           139264
 2017-02-08 20:55:01.469623+01 | 1486583701.46962 | pgbench_history  |                0
 2017-02-08 20:55:01.469623+01 | 1486583701.46962 | pgbench_branches |            16384

 2017-02-08 20:55:02.684045+01 | 1486583702.68405 | pgbench_accounts |       4155760640
 2017-02-08 20:55:02.684045+01 | 1486583702.68405 | pgbench_tellers  |           139264
 2017-02-08 20:55:02.684045+01 | 1486583702.68405 | pgbench_history  |                0
 2017-02-08 20:55:02.684045+01 | 1486583702.68405 | pgbench_branches |            16384

 2017-02-08 20:55:03.81382+01 | 1486583703.81382 | pgbench_accounts |       4155809792
 2017-02-08 20:55:03.81382+01 | 1486583703.81382 | pgbench_tellers  |           139264
 2017-02-08 20:55:03.81382+01 | 1486583703.81382 | pgbench_history  |                0
 2017-02-08 20:55:03.81382+01 | 1486583703.81382 | pgbench_branches |            16384

 2017-02-08 20:55:04.961588+01 | 1486583704.96159 | pgbench_accounts |       4155899904
 2017-02-08 20:55:04.961588+01 | 1486583704.96159 | pgbench_tellers  |           139264
 2017-02-08 20:55:04.961588+01 | 1486583704.96159 | pgbench_history  |                0
 2017-02-08 20:55:04.961588+01 | 1486583704.96159 | pgbench_branches |            16384

 2017-02-08 20:55:06.060922+01 | 1486583706.06092 | pgbench_accounts |       4155940864
 2017-02-08 20:55:06.060922+01 | 1486583706.06092 | pgbench_tellers  |           139264
 2017-02-08 20:55:06.060922+01 | 1486583706.06092 | pgbench_history  |                0
 2017-02-08 20:55:06.060922+01 | 1486583706.06092 | pgbench_branches |            16384

 2017-02-08 20:55:07.219589+01 | 1486583707.21959 | pgbench_accounts |       4156022784
 2017-02-08 20:55:07.219589+01 | 1486583707.21959 | pgbench_tellers  |           139264
 2017-02-08 20:55:07.219589+01 | 1486583707.21959 | pgbench_history  |                0
 2017-02-08 20:55:07.219589+01 | 1486583707.21959 | pgbench_branches |            16384

 2017-02-08 20:55:08.317323+01 | 1486583708.31732 | pgbench_accounts |       4156055552
 2017-02-08 20:55:08.317323+01 | 1486583708.31732 | pgbench_tellers  |           139264
 2017-02-08 20:55:08.317323+01 | 1486583708.31732 | pgbench_history  |                0
 2017-02-08 20:55:08.317323+01 | 1486583708.31732 | pgbench_branches |            16384

 2017-02-08 20:55:09.541204+01 | 1486583709.5412 | pgbench_accounts |       4156145664
 2017-02-08 20:55:09.541204+01 | 1486583709.5412 | pgbench_tellers  |           139264
 2017-02-08 20:55:09.541204+01 | 1486583709.5412 | pgbench_history  |                0
 2017-02-08 20:55:09.541204+01 | 1486583709.5412 | pgbench_branches |            16384

 2017-02-08 20:55:10.670913+01 | 1486583710.67091 | pgbench_accounts |       4156186624
 2017-02-08 20:55:10.670913+01 | 1486583710.67091 | pgbench_tellers  |           139264
 2017-02-08 20:55:10.670913+01 | 1486583710.67091 | pgbench_history  |                0
 2017-02-08 20:55:10.670913+01 | 1486583710.67091 | pgbench_branches |            16384

 2017-02-08 20:55:11.773797+01 | 1486583711.7738 | pgbench_accounts |       4156260352
 2017-02-08 20:55:11.773797+01 | 1486583711.7738 | pgbench_tellers  |           139264
 2017-02-08 20:55:11.773797+01 | 1486583711.7738 | pgbench_history  |                0
 2017-02-08 20:55:11.773797+01 | 1486583711.7738 | pgbench_branches |            16384

 2017-02-08 20:55:12.965447+01 | 1486583712.96545 | pgbench_accounts |       4156309504
 2017-02-08 20:55:12.965447+01 | 1486583712.96545 | pgbench_tellers  |           139264
 2017-02-08 20:55:12.965447+01 | 1486583712.96545 | pgbench_history  |                0
 2017-02-08 20:55:12.965447+01 | 1486583712.96545 | pgbench_branches |            16384

 2017-02-08 20:55:14.070148+01 | 1486583714.07015 | pgbench_accounts |       4156391424
 2017-02-08 20:55:14.070148+01 | 1486583714.07015 | pgbench_tellers  |           139264
 2017-02-08 20:55:14.070148+01 | 1486583714.07015 | pgbench_history  |                0
 2017-02-08 20:55:14.070148+01 | 1486583714.07015 | pgbench_branches |            16384

 2017-02-08 20:55:15.194945+01 | 1486583715.19495 | pgbench_accounts |       4156440576
 2017-02-08 20:55:15.194945+01 | 1486583715.19495 | pgbench_tellers  |           139264
 2017-02-08 20:55:15.194945+01 | 1486583715.19495 | pgbench_history  |                0
 2017-02-08 20:55:15.194945+01 | 1486583715.19495 | pgbench_branches |            16384

 2017-02-08 20:55:16.358263+01 | 1486583716.35826 | pgbench_accounts |       4156497920
 2017-02-08 20:55:16.358263+01 | 1486583716.35826 | pgbench_tellers  |           139264
 2017-02-08 20:55:16.358263+01 | 1486583716.35826 | pgbench_history  |                0
 2017-02-08 20:55:16.358263+01 | 1486583716.35826 | pgbench_branches |            16384

 2017-02-08 20:55:17.494648+01 | 1486583717.49465 | pgbench_accounts |       4156563456
 2017-02-08 20:55:17.494648+01 | 1486583717.49465 | pgbench_tellers  |           139264
 2017-02-08 20:55:17.494648+01 | 1486583717.49465 | pgbench_history  |                0
 2017-02-08 20:55:17.494648+01 | 1486583717.49465 | pgbench_branches |            16384

 2017-02-08 20:55:18.70793+01 | 1486583718.70793 | pgbench_accounts |       4156612608
 2017-02-08 20:55:18.70793+01 | 1486583718.70793 | pgbench_tellers  |           139264
 2017-02-08 20:55:18.70793+01 | 1486583718.70793 | pgbench_history  |                0
 2017-02-08 20:55:18.70793+01 | 1486583718.70793 | pgbench_branches |            16384

 2017-02-08 20:55:19.839281+01 | 1486583719.83928 | pgbench_accounts |       4156678144
 2017-02-08 20:55:19.839281+01 | 1486583719.83928 | pgbench_tellers  |           139264
 2017-02-08 20:55:19.839281+01 | 1486583719.83928 | pgbench_history  |                0
 2017-02-08 20:55:19.839281+01 | 1486583719.83928 | pgbench_branches |            16384

 2017-02-08 20:55:20.957718+01 | 1486583720.95772 | pgbench_accounts |       4156727296
 2017-02-08 20:55:20.957718+01 | 1486583720.95772 | pgbench_tellers  |           139264
 2017-02-08 20:55:20.957718+01 | 1486583720.95772 | pgbench_history  |                0
 2017-02-08 20:55:20.957718+01 | 1486583720.95772 | pgbench_branches |            16384

 2017-02-08 20:55:22.062655+01 | 1486583722.06265 | pgbench_accounts |       4156801024
 2017-02-08 20:55:22.062655+01 | 1486583722.06265 | pgbench_tellers  |           139264
 2017-02-08 20:55:22.062655+01 | 1486583722.06265 | pgbench_history  |                0
 2017-02-08 20:55:22.062655+01 | 1486583722.06265 | pgbench_branches |            16384

 2017-02-08 20:55:23.204382+01 | 1486583723.20438 | pgbench_accounts |       4156841984
 2017-02-08 20:55:23.204382+01 | 1486583723.20438 | pgbench_tellers  |           139264
 2017-02-08 20:55:23.204382+01 | 1486583723.20438 | pgbench_history  |                0
 2017-02-08 20:55:23.204382+01 | 1486583723.20438 | pgbench_branches |            16384

 2017-02-08 20:55:24.30534+01 | 1486583724.30534 | pgbench_accounts |       4156874752
 2017-02-08 20:55:24.30534+01 | 1486583724.30534 | pgbench_tellers  |           139264
 2017-02-08 20:55:24.30534+01 | 1486583724.30534 | pgbench_history  |                0
 2017-02-08 20:55:24.30534+01 | 1486583724.30534 | pgbench_branches |            16384

 2017-02-08 20:55:25.431485+01 | 1486583725.43148 | pgbench_accounts |       4156956672
 2017-02-08 20:55:25.431485+01 | 1486583725.43148 | pgbench_tellers  |           139264
 2017-02-08 20:55:25.431485+01 | 1486583725.43148 | pgbench_history  |                0
 2017-02-08 20:55:25.431485+01 | 1486583725.43148 | pgbench_branches |            16384

 2017-02-08 20:55:26.604105+01 | 1486583726.6041 | pgbench_accounts |       4156997632
 2017-02-08 20:55:26.604105+01 | 1486583726.6041 | pgbench_tellers  |           139264
 2017-02-08 20:55:26.604105+01 | 1486583726.6041 | pgbench_history  |                0
 2017-02-08 20:55:26.604105+01 | 1486583726.6041 | pgbench_branches |            16384

 2017-02-08 20:55:27.787936+01 | 1486583727.78794 | pgbench_accounts |       4157054976
 2017-02-08 20:55:27.787936+01 | 1486583727.78794 | pgbench_tellers  |           139264
 2017-02-08 20:55:27.787936+01 | 1486583727.78794 | pgbench_history  |                0
 2017-02-08 20:55:27.787936+01 | 1486583727.78794 | pgbench_branches |            16384

 2017-02-08 20:55:28.999375+01 | 1486583728.99938 | pgbench_accounts |       4157120512
 2017-02-08 20:55:28.999375+01 | 1486583728.99938 | pgbench_tellers  |           139264
 2017-02-08 20:55:28.999375+01 | 1486583728.99938 | pgbench_history  |                0
 2017-02-08 20:55:28.999375+01 | 1486583728.99938 | pgbench_branches |            16384

 2017-02-08 20:55:30.102832+01 | 1486583730.10283 | pgbench_accounts |       4157169664
 2017-02-08 20:55:30.102832+01 | 1486583730.10283 | pgbench_tellers  |           139264
 2017-02-08 20:55:30.102832+01 | 1486583730.10283 | pgbench_history  |                0
 2017-02-08 20:55:30.102832+01 | 1486583730.10283 | pgbench_branches |            16384

 2017-02-08 20:55:31.296431+01 | 1486583731.29643 | pgbench_accounts |       4157210624
 2017-02-08 20:55:31.296431+01 | 1486583731.29643 | pgbench_tellers  |           139264
 2017-02-08 20:55:31.296431+01 | 1486583731.29643 | pgbench_history  |                0
 2017-02-08 20:55:31.296431+01 | 1486583731.29643 | pgbench_branches |            16384

 2017-02-08 20:55:32.435794+01 | 1486583732.43579 | pgbench_accounts |       4157259776
 2017-02-08 20:55:32.435794+01 | 1486583732.43579 | pgbench_tellers  |           139264
 2017-02-08 20:55:32.435794+01 | 1486583732.43579 | pgbench_history  |                0
 2017-02-08 20:55:32.435794+01 | 1486583732.43579 | pgbench_branches |            16384

 2017-02-08 20:55:33.650249+01 | 1486583733.65025 | pgbench_accounts |       4157317120
 2017-02-08 20:55:33.650249+01 | 1486583733.65025 | pgbench_tellers  |           139264
 2017-02-08 20:55:33.650249+01 | 1486583733.65025 | pgbench_history  |                0
 2017-02-08 20:55:33.650249+01 | 1486583733.65025 | pgbench_branches |            16384

 2017-02-08 20:55:34.84442+01 | 1486583734.84442 | pgbench_accounts |       4157366272
 2017-02-08 20:55:34.84442+01 | 1486583734.84442 | pgbench_tellers  |           139264
 2017-02-08 20:55:34.84442+01 | 1486583734.84442 | pgbench_history  |                0
 2017-02-08 20:55:34.84442+01 | 1486583734.84442 | pgbench_branches |            16384

 2017-02-08 20:55:36.022508+01 | 1486583736.02251 | pgbench_accounts |       4157423616
 2017-02-08 20:55:36.022508+01 | 1486583736.02251 | pgbench_tellers  |           139264
 2017-02-08 20:55:36.022508+01 | 1486583736.02251 | pgbench_history  |                0
 2017-02-08 20:55:36.022508+01 | 1486583736.02251 | pgbench_branches |            16384

 2017-02-08 20:55:37.165754+01 | 1486583737.16575 | pgbench_accounts |       4157464576
 2017-02-08 20:55:37.165754+01 | 1486583737.16575 | pgbench_tellers  |           139264
 2017-02-08 20:55:37.165754+01 | 1486583737.16575 | pgbench_history  |                0
 2017-02-08 20:55:37.165754+01 | 1486583737.16575 | pgbench_branches |            16384

 2017-02-08 20:55:38.305913+01 | 1486583738.30591 | pgbench_accounts |       4157521920
 2017-02-08 20:55:38.305913+01 | 1486583738.30591 | pgbench_tellers  |           139264
 2017-02-08 20:55:38.305913+01 | 1486583738.30591 | pgbench_history  |                0
 2017-02-08 20:55:38.305913+01 | 1486583738.30591 | pgbench_branches |            16384

 2017-02-08 20:55:39.500587+01 | 1486583739.50059 | pgbench_accounts |       4157562880
 2017-02-08 20:55:39.500587+01 | 1486583739.50059 | pgbench_tellers  |           139264
 2017-02-08 20:55:39.500587+01 | 1486583739.50059 | pgbench_history  |                0
 2017-02-08 20:55:39.500587+01 | 1486583739.50059 | pgbench_branches |            16384

 2017-02-08 20:55:40.768552+01 | 1486583740.76855 | pgbench_accounts |       4157612032
 2017-02-08 20:55:40.768552+01 | 1486583740.76855 | pgbench_tellers  |           139264
 2017-02-08 20:55:40.768552+01 | 1486583740.76855 | pgbench_history  |                0
 2017-02-08 20:55:40.768552+01 | 1486583740.76855 | pgbench_branches |            16384

 2017-02-08 20:55:41.961023+01 | 1486583741.96102 | pgbench_accounts |       4157693952
 2017-02-08 20:55:41.961023+01 | 1486583741.96102 | pgbench_tellers  |           139264
 2017-02-08 20:55:41.961023+01 | 1486583741.96102 | pgbench_history  |                0
 2017-02-08 20:55:41.961023+01 | 1486583741.96102 | pgbench_branches |            16384

 2017-02-08 20:55:43.08202+01 | 1486583743.08202 | pgbench_accounts |       4157710336
 2017-02-08 20:55:43.08202+01 | 1486583743.08202 | pgbench_tellers  |           139264
 2017-02-08 20:55:43.08202+01 | 1486583743.08202 | pgbench_history  |                0
 2017-02-08 20:55:43.08202+01 | 1486583743.08202 | pgbench_branches |            16384

 2017-02-08 20:55:44.253961+01 | 1486583744.25396 | pgbench_accounts |       4157759488
 2017-02-08 20:55:44.253961+01 | 1486583744.25396 | pgbench_tellers  |           139264
 2017-02-08 20:55:44.253961+01 | 1486583744.25396 | pgbench_history  |                0
 2017-02-08 20:55:44.253961+01 | 1486583744.25396 | pgbench_branches |            16384

 2017-02-08 20:55:45.397423+01 | 1486583745.39742 | pgbench_accounts |       4157825024
 2017-02-08 20:55:45.397423+01 | 1486583745.39742 | pgbench_tellers  |           139264
 2017-02-08 20:55:45.397423+01 | 1486583745.39742 | pgbench_history  |                0
 2017-02-08 20:55:45.397423+01 | 1486583745.39742 | pgbench_branches |            16384

 2017-02-08 20:55:46.597874+01 | 1486583746.59787 | pgbench_accounts |       4157849600
 2017-02-08 20:55:46.597874+01 | 1486583746.59787 | pgbench_tellers  |           139264
 2017-02-08 20:55:46.597874+01 | 1486583746.59787 | pgbench_history  |                0
 2017-02-08 20:55:46.597874+01 | 1486583746.59787 | pgbench_branches |            16384

 2017-02-08 20:55:47.797377+01 | 1486583747.79738 | pgbench_accounts |       4157874176
 2017-02-08 20:55:47.797377+01 | 1486583747.79738 | pgbench_tellers  |           139264
 2017-02-08 20:55:47.797377+01 | 1486583747.79738 | pgbench_history  |                0
 2017-02-08 20:55:47.797377+01 | 1486583747.79738 | pgbench_branches |            16384

 2017-02-08 20:55:48.926869+01 | 1486583748.92687 | pgbench_accounts |       4157947904
 2017-02-08 20:55:48.926869+01 | 1486583748.92687 | pgbench_tellers  |           139264
 2017-02-08 20:55:48.926869+01 | 1486583748.92687 | pgbench_history  |                0
 2017-02-08 20:55:48.926869+01 | 1486583748.92687 | pgbench_branches |            16384

 2017-02-08 20:55:50.081227+01 | 1486583750.08123 | pgbench_accounts |       4157972480
 2017-02-08 20:55:50.081227+01 | 1486583750.08123 | pgbench_tellers  |           139264
 2017-02-08 20:55:50.081227+01 | 1486583750.08123 | pgbench_history  |                0
 2017-02-08 20:55:50.081227+01 | 1486583750.08123 | pgbench_branches |            16384

 2017-02-08 20:55:51.214755+01 | 1486583751.21476 | pgbench_accounts |       4158021632
 2017-02-08 20:55:51.214755+01 | 1486583751.21476 | pgbench_tellers  |           139264
 2017-02-08 20:55:51.214755+01 | 1486583751.21476 | pgbench_history  |                0
 2017-02-08 20:55:51.214755+01 | 1486583751.21476 | pgbench_branches |            16384

 2017-02-08 20:55:52.34145+01 | 1486583752.34145 | pgbench_accounts |       4158070784
 2017-02-08 20:55:52.34145+01 | 1486583752.34145 | pgbench_tellers  |           139264
 2017-02-08 20:55:52.34145+01 | 1486583752.34145 | pgbench_history  |                0
 2017-02-08 20:55:52.34145+01 | 1486583752.34145 | pgbench_branches |            16384

 2017-02-08 20:55:53.468417+01 | 1486583753.46842 | pgbench_accounts |       4158103552
 2017-02-08 20:55:53.468417+01 | 1486583753.46842 | pgbench_tellers  |           139264
 2017-02-08 20:55:53.468417+01 | 1486583753.46842 | pgbench_history  |                0
 2017-02-08 20:55:53.468417+01 | 1486583753.46842 | pgbench_branches |            16384

 2017-02-08 20:55:54.685626+01 | 1486583754.68563 | pgbench_accounts |       4158128128
 2017-02-08 20:55:54.685626+01 | 1486583754.68563 | pgbench_tellers  |           139264
 2017-02-08 20:55:54.685626+01 | 1486583754.68563 | pgbench_history  |                0
 2017-02-08 20:55:54.685626+01 | 1486583754.68563 | pgbench_branches |            16384

 2017-02-08 20:55:55.926055+01 | 1486583755.92605 | pgbench_accounts |       4158177280
 2017-02-08 20:55:55.926055+01 | 1486583755.92605 | pgbench_tellers  |           139264
 2017-02-08 20:55:55.926055+01 | 1486583755.92605 | pgbench_history  |                0
 2017-02-08 20:55:55.926055+01 | 1486583755.92605 | pgbench_branches |            16384

 2017-02-08 20:55:57.069235+01 | 1486583757.06924 | pgbench_accounts |       4158218240
 2017-02-08 20:55:57.069235+01 | 1486583757.06924 | pgbench_tellers  |           139264
 2017-02-08 20:55:57.069235+01 | 1486583757.06924 | pgbench_history  |                0
 2017-02-08 20:55:57.069235+01 | 1486583757.06924 | pgbench_branches |            16384

 2017-02-08 20:55:58.202567+01 | 1486583758.20257 | pgbench_accounts |       4158267392
 2017-02-08 20:55:58.202567+01 | 1486583758.20257 | pgbench_tellers  |           139264
 2017-02-08 20:55:58.202567+01 | 1486583758.20257 | pgbench_history  |                0
 2017-02-08 20:55:58.202567+01 | 1486583758.20257 | pgbench_branches |            16384

 2017-02-08 20:55:59.343972+01 | 1486583759.34397 | pgbench_accounts |       4158308352
 2017-02-08 20:55:59.343972+01 | 1486583759.34397 | pgbench_tellers  |           139264
 2017-02-08 20:55:59.343972+01 | 1486583759.34397 | pgbench_history  |                0
 2017-02-08 20:55:59.343972+01 | 1486583759.34397 | pgbench_branches |            16384

 2017-02-08 20:56:00.525359+01 | 1486583760.52536 | pgbench_accounts |       4158349312
 2017-02-08 20:56:00.525359+01 | 1486583760.52536 | pgbench_tellers  |           139264
 2017-02-08 20:56:00.525359+01 | 1486583760.52536 | pgbench_history  |                0
 2017-02-08 20:56:00.525359+01 | 1486583760.52536 | pgbench_branches |            16384

 2017-02-08 20:56:01.753451+01 | 1486583761.75345 | pgbench_accounts |       4158390272
 2017-02-08 20:56:01.753451+01 | 1486583761.75345 | pgbench_tellers  |           139264
 2017-02-08 20:56:01.753451+01 | 1486583761.75345 | pgbench_history  |                0
 2017-02-08 20:56:01.753451+01 | 1486583761.75345 | pgbench_branches |            16384

 2017-02-08 20:56:02.968869+01 | 1486583762.96887 | pgbench_accounts |       4158414848
 2017-02-08 20:56:02.968869+01 | 1486583762.96887 | pgbench_tellers  |           139264
 2017-02-08 20:56:02.968869+01 | 1486583762.96887 | pgbench_history  |                0
 2017-02-08 20:56:02.968869+01 | 1486583762.96887 | pgbench_branches |            16384

 2017-02-08 20:56:04.081451+01 | 1486583764.08145 | pgbench_accounts |       4158447616
 2017-02-08 20:56:04.081451+01 | 1486583764.08145 | pgbench_tellers  |           139264
 2017-02-08 20:56:04.081451+01 | 1486583764.08145 | pgbench_history  |                0
 2017-02-08 20:56:04.081451+01 | 1486583764.08145 | pgbench_branches |            16384

 2017-02-08 20:56:05.214487+01 | 1486583765.21449 | pgbench_accounts |       4158504960
 2017-02-08 20:56:05.214487+01 | 1486583765.21449 | pgbench_tellers  |           139264
 2017-02-08 20:56:05.214487+01 | 1486583765.21449 | pgbench_history  |                0
 2017-02-08 20:56:05.214487+01 | 1486583765.21449 | pgbench_branches |            16384

 2017-02-08 20:56:06.363867+01 | 1486583766.36387 | pgbench_accounts |       4158545920
 2017-02-08 20:56:06.363867+01 | 1486583766.36387 | pgbench_tellers  |           139264
 2017-02-08 20:56:06.363867+01 | 1486583766.36387 | pgbench_history  |                0
 2017-02-08 20:56:06.363867+01 | 1486583766.36387 | pgbench_branches |            16384

 2017-02-08 20:56:07.659956+01 | 1486583767.65996 | pgbench_accounts |       4158562304
 2017-02-08 20:56:07.659956+01 | 1486583767.65996 | pgbench_tellers  |           139264
 2017-02-08 20:56:07.659956+01 | 1486583767.65996 | pgbench_history  |                0
 2017-02-08 20:56:07.659956+01 | 1486583767.65996 | pgbench_branches |            16384

 2017-02-08 20:56:08.828065+01 | 1486583768.82806 | pgbench_accounts |       4158611456
 2017-02-08 20:56:08.828065+01 | 1486583768.82806 | pgbench_tellers  |           139264
 2017-02-08 20:56:08.828065+01 | 1486583768.82806 | pgbench_history  |                0
 2017-02-08 20:56:08.828065+01 | 1486583768.82806 | pgbench_branches |            16384

 2017-02-08 20:56:09.964424+01 | 1486583769.96442 | pgbench_accounts |       4158660608
 2017-02-08 20:56:09.964424+01 | 1486583769.96442 | pgbench_tellers  |           139264
 2017-02-08 20:56:09.964424+01 | 1486583769.96442 | pgbench_history  |                0
 2017-02-08 20:56:09.964424+01 | 1486583769.96442 | pgbench_branches |            16384

 2017-02-08 20:56:11.100729+01 | 1486583771.10073 | pgbench_accounts |       4158693376
 2017-02-08 20:56:11.100729+01 | 1486583771.10073 | pgbench_tellers  |           139264
 2017-02-08 20:56:11.100729+01 | 1486583771.10073 | pgbench_history  |                0
 2017-02-08 20:56:11.100729+01 | 1486583771.10073 | pgbench_branches |            16384

 2017-02-08 20:56:12.195884+01 | 1486583772.19588 | pgbench_accounts |       4158717952
 2017-02-08 20:56:12.195884+01 | 1486583772.19588 | pgbench_tellers  |           139264
 2017-02-08 20:56:12.195884+01 | 1486583772.19588 | pgbench_history  |                0
 2017-02-08 20:56:12.195884+01 | 1486583772.19588 | pgbench_branches |            16384

 2017-02-08 20:56:13.358818+01 | 1486583773.35882 | pgbench_accounts |       4158750720
 2017-02-08 20:56:13.358818+01 | 1486583773.35882 | pgbench_tellers  |           139264
 2017-02-08 20:56:13.358818+01 | 1486583773.35882 | pgbench_history  |                0
 2017-02-08 20:56:13.358818+01 | 1486583773.35882 | pgbench_branches |            16384

 2017-02-08 20:56:14.496138+01 | 1486583774.49614 | pgbench_accounts |       4158799872
 2017-02-08 20:56:14.496138+01 | 1486583774.49614 | pgbench_tellers  |           139264
 2017-02-08 20:56:14.496138+01 | 1486583774.49614 | pgbench_history  |                0
 2017-02-08 20:56:14.496138+01 | 1486583774.49614 | pgbench_branches |            16384

 2017-02-08 20:56:15.660643+01 | 1486583775.66064 | pgbench_accounts |       4158832640
 2017-02-08 20:56:15.660643+01 | 1486583775.66064 | pgbench_tellers  |           139264
 2017-02-08 20:56:15.660643+01 | 1486583775.66064 | pgbench_history  |                0
 2017-02-08 20:56:15.660643+01 | 1486583775.66064 | pgbench_branches |            16384

 2017-02-08 20:56:16.868957+01 | 1486583776.86896 | pgbench_accounts |       4158865408
 2017-02-08 20:56:16.868957+01 | 1486583776.86896 | pgbench_tellers  |           139264
 2017-02-08 20:56:16.868957+01 | 1486583776.86896 | pgbench_history  |                0
 2017-02-08 20:56:16.868957+01 | 1486583776.86896 | pgbench_branches |            16384

 2017-02-08 20:56:18.075665+01 | 1486583778.07566 | pgbench_accounts |       4158906368
 2017-02-08 20:56:18.075665+01 | 1486583778.07566 | pgbench_tellers  |           139264
 2017-02-08 20:56:18.075665+01 | 1486583778.07566 | pgbench_history  |                0
 2017-02-08 20:56:18.075665+01 | 1486583778.07566 | pgbench_branches |            16384

 2017-02-08 20:56:19.233271+01 | 1486583779.23327 | pgbench_accounts |       4158939136
 2017-02-08 20:56:19.233271+01 | 1486583779.23327 | pgbench_tellers  |           139264
 2017-02-08 20:56:19.233271+01 | 1486583779.23327 | pgbench_history  |                0
 2017-02-08 20:56:19.233271+01 | 1486583779.23327 | pgbench_branches |            16384

 2017-02-08 20:56:20.333129+01 | 1486583780.33313 | pgbench_accounts |       4158963712
 2017-02-08 20:56:20.333129+01 | 1486583780.33313 | pgbench_tellers  |           139264
 2017-02-08 20:56:20.333129+01 | 1486583780.33313 | pgbench_history  |                0
 2017-02-08 20:56:20.333129+01 | 1486583780.33313 | pgbench_branches |            16384

 2017-02-08 20:56:21.498095+01 | 1486583781.4981 | pgbench_accounts |       4159004672
 2017-02-08 20:56:21.498095+01 | 1486583781.4981 | pgbench_tellers  |           139264
 2017-02-08 20:56:21.498095+01 | 1486583781.4981 | pgbench_history  |                0
 2017-02-08 20:56:21.498095+01 | 1486583781.4981 | pgbench_branches |            16384

 2017-02-08 20:56:22.631389+01 | 1486583782.63139 | pgbench_accounts |       4159037440
 2017-02-08 20:56:22.631389+01 | 1486583782.63139 | pgbench_tellers  |           139264
 2017-02-08 20:56:22.631389+01 | 1486583782.63139 | pgbench_history  |                0
 2017-02-08 20:56:22.631389+01 | 1486583782.63139 | pgbench_branches |            16384

 2017-02-08 20:56:23.780805+01 | 1486583783.78081 | pgbench_accounts |       4159053824
 2017-02-08 20:56:23.780805+01 | 1486583783.78081 | pgbench_tellers  |           139264
 2017-02-08 20:56:23.780805+01 | 1486583783.78081 | pgbench_history  |                0
 2017-02-08 20:56:23.780805+01 | 1486583783.78081 | pgbench_branches |            16384

 2017-02-08 20:56:24.999193+01 | 1486583784.99919 | pgbench_accounts |       4159086592
 2017-02-08 20:56:24.999193+01 | 1486583784.99919 | pgbench_tellers  |           139264
 2017-02-08 20:56:24.999193+01 | 1486583784.99919 | pgbench_history  |                0
 2017-02-08 20:56:24.999193+01 | 1486583784.99919 | pgbench_branches |            16384

 2017-02-08 20:56:26.215011+01 | 1486583786.21501 | pgbench_accounts |       4159135744
 2017-02-08 20:56:26.215011+01 | 1486583786.21501 | pgbench_tellers  |           139264
 2017-02-08 20:56:26.215011+01 | 1486583786.21501 | pgbench_history  |                0
 2017-02-08 20:56:26.215011+01 | 1486583786.21501 | pgbench_branches |            16384

 2017-02-08 20:56:27.343076+01 | 1486583787.34308 | pgbench_accounts |       4159160320
 2017-02-08 20:56:27.343076+01 | 1486583787.34308 | pgbench_tellers  |           139264
 2017-02-08 20:56:27.343076+01 | 1486583787.34308 | pgbench_history  |                0
 2017-02-08 20:56:27.343076+01 | 1486583787.34308 | pgbench_branches |            16384

 2017-02-08 20:56:28.487024+01 | 1486583788.48702 | pgbench_accounts |       4159160320
 2017-02-08 20:56:28.487024+01 | 1486583788.48702 | pgbench_tellers  |           139264
 2017-02-08 20:56:28.487024+01 | 1486583788.48702 | pgbench_history  |                0
 2017-02-08 20:56:28.487024+01 | 1486583788.48702 | pgbench_branches |            16384

 2017-02-08 20:56:29.628416+01 | 1486583789.62842 | pgbench_accounts |       4159201280
 2017-02-08 20:56:29.628416+01 | 1486583789.62842 | pgbench_tellers  |           139264
 2017-02-08 20:56:29.628416+01 | 1486583789.62842 | pgbench_history  |                0
 2017-02-08 20:56:29.628416+01 | 1486583789.62842 | pgbench_branches |            16384

 2017-02-08 20:56:30.852845+01 | 1486583790.85284 | pgbench_accounts |       4159225856
 2017-02-08 20:56:30.852845+01 | 1486583790.85284 | pgbench_tellers  |           139264
 2017-02-08 20:56:30.852845+01 | 1486583790.85284 | pgbench_history  |                0
 2017-02-08 20:56:30.852845+01 | 1486583790.85284 | pgbench_branches |            16384

 2017-02-08 20:56:32.062428+01 | 1486583792.06243 | pgbench_accounts |       4159283200
 2017-02-08 20:56:32.062428+01 | 1486583792.06243 | pgbench_tellers  |           139264
 2017-02-08 20:56:32.062428+01 | 1486583792.06243 | pgbench_history  |                0
 2017-02-08 20:56:32.062428+01 | 1486583792.06243 | pgbench_branches |            16384

 2017-02-08 20:56:33.252842+01 | 1486583793.25284 | pgbench_accounts |       4159299584
 2017-02-08 20:56:33.252842+01 | 1486583793.25284 | pgbench_tellers  |           139264
 2017-02-08 20:56:33.252842+01 | 1486583793.25284 | pgbench_history  |                0
 2017-02-08 20:56:33.252842+01 | 1486583793.25284 | pgbench_branches |            16384

 2017-02-08 20:56:34.367487+01 | 1486583794.36749 | pgbench_accounts |       4159340544
 2017-02-08 20:56:34.367487+01 | 1486583794.36749 | pgbench_tellers  |           139264
 2017-02-08 20:56:34.367487+01 | 1486583794.36749 | pgbench_history  |                0
 2017-02-08 20:56:34.367487+01 | 1486583794.36749 | pgbench_branches |            16384

 2017-02-08 20:56:35.639051+01 | 1486583795.63905 | pgbench_accounts |       4159356928
 2017-02-08 20:56:35.639051+01 | 1486583795.63905 | pgbench_tellers  |           139264
 2017-02-08 20:56:35.639051+01 | 1486583795.63905 | pgbench_history  |                0
 2017-02-08 20:56:35.639051+01 | 1486583795.63905 | pgbench_branches |            16384

 2017-02-08 20:56:36.875996+01 | 1486583796.876 | pgbench_accounts |       4159406080
 2017-02-08 20:56:36.875996+01 | 1486583796.876 | pgbench_tellers  |           139264
 2017-02-08 20:56:36.875996+01 | 1486583796.876 | pgbench_history  |                0
 2017-02-08 20:56:36.875996+01 | 1486583796.876 | pgbench_branches |            16384

 2017-02-08 20:56:38.08595+01 | 1486583798.08595 | pgbench_accounts |       4159430656
 2017-02-08 20:56:38.08595+01 | 1486583798.08595 | pgbench_tellers  |           139264
 2017-02-08 20:56:38.08595+01 | 1486583798.08595 | pgbench_history  |                0
 2017-02-08 20:56:38.08595+01 | 1486583798.08595 | pgbench_branches |            16384

 2017-02-08 20:56:39.217522+01 | 1486583799.21752 | pgbench_accounts |       4159447040
 2017-02-08 20:56:39.217522+01 | 1486583799.21752 | pgbench_tellers  |           139264
 2017-02-08 20:56:39.217522+01 | 1486583799.21752 | pgbench_history  |                0
 2017-02-08 20:56:39.217522+01 | 1486583799.21752 | pgbench_branches |            16384

 2017-02-08 20:56:40.289184+01 | 1486583800.28918 | pgbench_accounts |       4159479808
 2017-02-08 20:56:40.289184+01 | 1486583800.28918 | pgbench_tellers  |           139264
 2017-02-08 20:56:40.289184+01 | 1486583800.28918 | pgbench_history  |                0
 2017-02-08 20:56:40.289184+01 | 1486583800.28918 | pgbench_branches |            16384

 2017-02-08 20:56:41.42031+01 | 1486583801.42031 | pgbench_accounts |       4159504384
 2017-02-08 20:56:41.42031+01 | 1486583801.42031 | pgbench_tellers  |           139264
 2017-02-08 20:56:41.42031+01 | 1486583801.42031 | pgbench_history  |                0
 2017-02-08 20:56:41.42031+01 | 1486583801.42031 | pgbench_branches |            16384

 2017-02-08 20:56:42.623974+01 | 1486583802.62397 | pgbench_accounts |       4159553536
 2017-02-08 20:56:42.623974+01 | 1486583802.62397 | pgbench_tellers  |           139264
 2017-02-08 20:56:42.623974+01 | 1486583802.62397 | pgbench_history  |                0
 2017-02-08 20:56:42.623974+01 | 1486583802.62397 | pgbench_branches |            16384

 2017-02-08 20:56:43.856739+01 | 1486583803.85674 | pgbench_accounts |       4159578112
 2017-02-08 20:56:43.856739+01 | 1486583803.85674 | pgbench_tellers  |           139264
 2017-02-08 20:56:43.856739+01 | 1486583803.85674 | pgbench_history  |                0
 2017-02-08 20:56:43.856739+01 | 1486583803.85674 | pgbench_branches |            16384

 2017-02-08 20:56:45.095134+01 | 1486583805.09513 | pgbench_accounts |       4159586304
 2017-02-08 20:56:45.095134+01 | 1486583805.09513 | pgbench_tellers  |           139264
 2017-02-08 20:56:45.095134+01 | 1486583805.09513 | pgbench_history  |                0
 2017-02-08 20:56:45.095134+01 | 1486583805.09513 | pgbench_branches |            16384

 2017-02-08 20:56:46.259383+01 | 1486583806.25938 | pgbench_accounts |       4159619072
 2017-02-08 20:56:46.259383+01 | 1486583806.25938 | pgbench_tellers  |           139264
 2017-02-08 20:56:46.259383+01 | 1486583806.25938 | pgbench_history  |                0
 2017-02-08 20:56:46.259383+01 | 1486583806.25938 | pgbench_branches |            16384

 2017-02-08 20:56:47.447649+01 | 1486583807.44765 | pgbench_accounts |       4159660032
 2017-02-08 20:56:47.447649+01 | 1486583807.44765 | pgbench_tellers  |           139264
 2017-02-08 20:56:47.447649+01 | 1486583807.44765 | pgbench_history  |                0
 2017-02-08 20:56:47.447649+01 | 1486583807.44765 | pgbench_branches |            16384

 2017-02-08 20:56:48.632294+01 | 1486583808.63229 | pgbench_accounts |       4159692800
 2017-02-08 20:56:48.632294+01 | 1486583808.63229 | pgbench_tellers  |           139264
 2017-02-08 20:56:48.632294+01 | 1486583808.63229 | pgbench_history  |                0
 2017-02-08 20:56:48.632294+01 | 1486583808.63229 | pgbench_branches |            16384

 2017-02-08 20:56:49.823413+01 | 1486583809.82341 | pgbench_accounts |       4159717376
 2017-02-08 20:56:49.823413+01 | 1486583809.82341 | pgbench_tellers  |           139264
 2017-02-08 20:56:49.823413+01 | 1486583809.82341 | pgbench_history  |                0
 2017-02-08 20:56:49.823413+01 | 1486583809.82341 | pgbench_branches |            16384

 2017-02-08 20:56:51.061445+01 | 1486583811.06144 | pgbench_accounts |       4159717376
 2017-02-08 20:56:51.061445+01 | 1486583811.06144 | pgbench_tellers  |           139264
 2017-02-08 20:56:51.061445+01 | 1486583811.06144 | pgbench_history  |                0
 2017-02-08 20:56:51.061445+01 | 1486583811.06144 | pgbench_branches |            16384

 2017-02-08 20:56:52.222687+01 | 1486583812.22269 | pgbench_accounts |       4159741952
 2017-02-08 20:56:52.222687+01 | 1486583812.22269 | pgbench_tellers  |           139264
 2017-02-08 20:56:52.222687+01 | 1486583812.22269 | pgbench_history  |                0
 2017-02-08 20:56:52.222687+01 | 1486583812.22269 | pgbench_branches |            16384

 2017-02-08 20:56:53.36013+01 | 1486583813.36013 | pgbench_accounts |       4159791104
 2017-02-08 20:56:53.36013+01 | 1486583813.36013 | pgbench_tellers  |           139264
 2017-02-08 20:56:53.36013+01 | 1486583813.36013 | pgbench_history  |                0
 2017-02-08 20:56:53.36013+01 | 1486583813.36013 | pgbench_branches |            16384

 2017-02-08 20:56:54.50977+01 | 1486583814.50977 | pgbench_accounts |       4159832064
 2017-02-08 20:56:54.50977+01 | 1486583814.50977 | pgbench_tellers  |           139264
 2017-02-08 20:56:54.50977+01 | 1486583814.50977 | pgbench_history  |                0
 2017-02-08 20:56:54.50977+01 | 1486583814.50977 | pgbench_branches |            16384

 2017-02-08 20:56:55.641903+01 | 1486583815.6419 | pgbench_accounts |       4159840256
 2017-02-08 20:56:55.641903+01 | 1486583815.6419 | pgbench_tellers  |           139264
 2017-02-08 20:56:55.641903+01 | 1486583815.6419 | pgbench_history  |                0
 2017-02-08 20:56:55.641903+01 | 1486583815.6419 | pgbench_branches |            16384

 2017-02-08 20:56:56.816551+01 | 1486583816.81655 | pgbench_accounts |       4159856640
 2017-02-08 20:56:56.816551+01 | 1486583816.81655 | pgbench_tellers  |           139264
 2017-02-08 20:56:56.816551+01 | 1486583816.81655 | pgbench_history  |                0
 2017-02-08 20:56:56.816551+01 | 1486583816.81655 | pgbench_branches |            16384

 2017-02-08 20:56:58.050438+01 | 1486583818.05044 | pgbench_accounts |       4159873024
 2017-02-08 20:56:58.050438+01 | 1486583818.05044 | pgbench_tellers  |           139264
 2017-02-08 20:56:58.050438+01 | 1486583818.05044 | pgbench_history  |                0
 2017-02-08 20:56:58.050438+01 | 1486583818.05044 | pgbench_branches |            16384

 2017-02-08 20:56:59.199222+01 | 1486583819.19922 | pgbench_accounts |       4159905792
 2017-02-08 20:56:59.199222+01 | 1486583819.19922 | pgbench_tellers  |           139264
 2017-02-08 20:56:59.199222+01 | 1486583819.19922 | pgbench_history  |                0
 2017-02-08 20:56:59.199222+01 | 1486583819.19922 | pgbench_branches |            16384

 2017-02-08 20:57:00.42243+01 | 1486583820.42243 | pgbench_accounts |       4159946752
 2017-02-08 20:57:00.42243+01 | 1486583820.42243 | pgbench_tellers  |           139264
 2017-02-08 20:57:00.42243+01 | 1486583820.42243 | pgbench_history  |                0
 2017-02-08 20:57:00.42243+01 | 1486583820.42243 | pgbench_branches |            16384

 2017-02-08 20:57:01.608046+01 | 1486583821.60805 | pgbench_accounts |       4159963136
 2017-02-08 20:57:01.608046+01 | 1486583821.60805 | pgbench_tellers  |           139264
 2017-02-08 20:57:01.608046+01 | 1486583821.60805 | pgbench_history  |                0
 2017-02-08 20:57:01.608046+01 | 1486583821.60805 | pgbench_branches |            16384

 2017-02-08 20:57:02.791805+01 | 1486583822.79181 | pgbench_accounts |       4159979520
 2017-02-08 20:57:02.791805+01 | 1486583822.79181 | pgbench_tellers  |           139264
 2017-02-08 20:57:02.791805+01 | 1486583822.79181 | pgbench_history  |                0
 2017-02-08 20:57:02.791805+01 | 1486583822.79181 | pgbench_branches |            16384

 2017-02-08 20:57:03.949023+01 | 1486583823.94902 | pgbench_accounts |       4159987712
 2017-02-08 20:57:03.949023+01 | 1486583823.94902 | pgbench_tellers  |           139264
 2017-02-08 20:57:03.949023+01 | 1486583823.94902 | pgbench_history  |                0
 2017-02-08 20:57:03.949023+01 | 1486583823.94902 | pgbench_branches |            16384

 2017-02-08 20:57:05.082554+01 | 1486583825.08255 | pgbench_accounts |       4159995904
 2017-02-08 20:57:05.082554+01 | 1486583825.08255 | pgbench_tellers  |           139264
 2017-02-08 20:57:05.082554+01 | 1486583825.08255 | pgbench_history  |                0
 2017-02-08 20:57:05.082554+01 | 1486583825.08255 | pgbench_branches |            16384

 2017-02-08 20:57:06.258744+01 | 1486583826.25874 | pgbench_accounts |       4160045056
 2017-02-08 20:57:06.258744+01 | 1486583826.25874 | pgbench_tellers  |           139264
 2017-02-08 20:57:06.258744+01 | 1486583826.25874 | pgbench_history  |                0
 2017-02-08 20:57:06.258744+01 | 1486583826.25874 | pgbench_branches |            16384

 2017-02-08 20:57:07.417769+01 | 1486583827.41777 | pgbench_accounts |       4160086016
 2017-02-08 20:57:07.417769+01 | 1486583827.41777 | pgbench_tellers  |           139264
 2017-02-08 20:57:07.417769+01 | 1486583827.41777 | pgbench_history  |                0
 2017-02-08 20:57:07.417769+01 | 1486583827.41777 | pgbench_branches |            16384

 2017-02-08 20:57:08.607976+01 | 1486583828.60798 | pgbench_accounts |       4160110592
 2017-02-08 20:57:08.607976+01 | 1486583828.60798 | pgbench_tellers  |           139264
 2017-02-08 20:57:08.607976+01 | 1486583828.60798 | pgbench_history  |                0
 2017-02-08 20:57:08.607976+01 | 1486583828.60798 | pgbench_branches |            16384

 2017-02-08 20:57:09.83142+01 | 1486583829.83142 | pgbench_accounts |       4160110592
 2017-02-08 20:57:09.83142+01 | 1486583829.83142 | pgbench_tellers  |           139264
 2017-02-08 20:57:09.83142+01 | 1486583829.83142 | pgbench_history  |                0
 2017-02-08 20:57:09.83142+01 | 1486583829.83142 | pgbench_branches |            16384

 2017-02-08 20:57:10.95131+01 | 1486583830.95131 | pgbench_accounts |       4160118784
 2017-02-08 20:57:10.95131+01 | 1486583830.95131 | pgbench_tellers  |           139264
 2017-02-08 20:57:10.95131+01 | 1486583830.95131 | pgbench_history  |                0
 2017-02-08 20:57:10.95131+01 | 1486583830.95131 | pgbench_branches |            16384

 2017-02-08 20:57:12.156371+01 | 1486583832.15637 | pgbench_accounts |       4160135168
 2017-02-08 20:57:12.156371+01 | 1486583832.15637 | pgbench_tellers  |           139264
 2017-02-08 20:57:12.156371+01 | 1486583832.15637 | pgbench_history  |                0
 2017-02-08 20:57:12.156371+01 | 1486583832.15637 | pgbench_branches |            16384

 2017-02-08 20:57:13.305906+01 | 1486583833.30591 | pgbench_accounts |       4160151552
 2017-02-08 20:57:13.305906+01 | 1486583833.30591 | pgbench_tellers  |           139264
 2017-02-08 20:57:13.305906+01 | 1486583833.30591 | pgbench_history  |                0
 2017-02-08 20:57:13.305906+01 | 1486583833.30591 | pgbench_branches |            16384

 2017-02-08 20:57:14.444313+01 | 1486583834.44431 | pgbench_accounts |       4160200704
 2017-02-08 20:57:14.444313+01 | 1486583834.44431 | pgbench_tellers  |           139264
 2017-02-08 20:57:14.444313+01 | 1486583834.44431 | pgbench_history  |                0
 2017-02-08 20:57:14.444313+01 | 1486583834.44431 | pgbench_branches |            16384

 2017-02-08 20:57:15.629393+01 | 1486583835.62939 | pgbench_accounts |       4160241664
 2017-02-08 20:57:15.629393+01 | 1486583835.62939 | pgbench_tellers  |           139264
 2017-02-08 20:57:15.629393+01 | 1486583835.62939 | pgbench_history  |                0
 2017-02-08 20:57:15.629393+01 | 1486583835.62939 | pgbench_branches |            16384

 2017-02-08 20:57:16.803669+01 | 1486583836.80367 | pgbench_accounts |       4160241664
 2017-02-08 20:57:16.803669+01 | 1486583836.80367 | pgbench_tellers  |           139264
 2017-02-08 20:57:16.803669+01 | 1486583836.80367 | pgbench_history  |                0
 2017-02-08 20:57:16.803669+01 | 1486583836.80367 | pgbench_branches |            16384

 2017-02-08 20:57:18.024902+01 | 1486583838.0249 | pgbench_accounts |       4160249856
 2017-02-08 20:57:18.024902+01 | 1486583838.0249 | pgbench_tellers  |           139264
 2017-02-08 20:57:18.024902+01 | 1486583838.0249 | pgbench_history  |                0
 2017-02-08 20:57:18.024902+01 | 1486583838.0249 | pgbench_branches |            16384

 2017-02-08 20:57:19.169149+01 | 1486583839.16915 | pgbench_accounts |       4160258048
 2017-02-08 20:57:19.169149+01 | 1486583839.16915 | pgbench_tellers  |           139264
 2017-02-08 20:57:19.169149+01 | 1486583839.16915 | pgbench_history  |                0
 2017-02-08 20:57:19.169149+01 | 1486583839.16915 | pgbench_branches |            16384

 2017-02-08 20:57:20.42679+01 | 1486583840.42679 | pgbench_accounts |       4160282624
 2017-02-08 20:57:20.42679+01 | 1486583840.42679 | pgbench_tellers  |           139264
 2017-02-08 20:57:20.42679+01 | 1486583840.42679 | pgbench_history  |                0
 2017-02-08 20:57:20.42679+01 | 1486583840.42679 | pgbench_branches |            16384

 2017-02-08 20:57:21.631317+01 | 1486583841.63132 | pgbench_accounts |       4160323584
 2017-02-08 20:57:21.631317+01 | 1486583841.63132 | pgbench_tellers  |           139264
 2017-02-08 20:57:21.631317+01 | 1486583841.63132 | pgbench_history  |                0
 2017-02-08 20:57:21.631317+01 | 1486583841.63132 | pgbench_branches |            16384

 2017-02-08 20:57:22.896157+01 | 1486583842.89616 | pgbench_accounts |       4160364544
 2017-02-08 20:57:22.896157+01 | 1486583842.89616 | pgbench_tellers  |           139264
 2017-02-08 20:57:22.896157+01 | 1486583842.89616 | pgbench_history  |                0
 2017-02-08 20:57:22.896157+01 | 1486583842.89616 | pgbench_branches |            16384

 2017-02-08 20:57:24.085195+01 | 1486583844.0852 | pgbench_accounts |       4160372736
 2017-02-08 20:57:24.085195+01 | 1486583844.0852 | pgbench_tellers  |           139264
 2017-02-08 20:57:24.085195+01 | 1486583844.0852 | pgbench_history  |                0
 2017-02-08 20:57:24.085195+01 | 1486583844.0852 | pgbench_branches |            16384

 2017-02-08 20:57:25.346341+01 | 1486583845.34634 | pgbench_accounts |       4160380928
 2017-02-08 20:57:25.346341+01 | 1486583845.34634 | pgbench_tellers  |           139264
 2017-02-08 20:57:25.346341+01 | 1486583845.34634 | pgbench_history  |                0
 2017-02-08 20:57:25.346341+01 | 1486583845.34634 | pgbench_branches |            16384

 2017-02-08 20:57:26.504752+01 | 1486583846.50475 | pgbench_accounts |       4160380928
 2017-02-08 20:57:26.504752+01 | 1486583846.50475 | pgbench_tellers  |           139264
 2017-02-08 20:57:26.504752+01 | 1486583846.50475 | pgbench_history  |                0
 2017-02-08 20:57:26.504752+01 | 1486583846.50475 | pgbench_branches |            16384

 2017-02-08 20:57:27.596851+01 | 1486583847.59685 | pgbench_accounts |       4160397312
 2017-02-08 20:57:27.596851+01 | 1486583847.59685 | pgbench_tellers  |           139264
 2017-02-08 20:57:27.596851+01 | 1486583847.59685 | pgbench_history  |                0
 2017-02-08 20:57:27.596851+01 | 1486583847.59685 | pgbench_branches |            16384

 2017-02-08 20:57:28.727422+01 | 1486583848.72742 | pgbench_accounts |       4160430080
 2017-02-08 20:57:28.727422+01 | 1486583848.72742 | pgbench_tellers  |           139264
 2017-02-08 20:57:28.727422+01 | 1486583848.72742 | pgbench_history  |                0
 2017-02-08 20:57:28.727422+01 | 1486583848.72742 | pgbench_branches |            16384

 2017-02-08 20:57:29.882088+01 | 1486583849.88209 | pgbench_accounts |       4160471040
 2017-02-08 20:57:29.882088+01 | 1486583849.88209 | pgbench_tellers  |           139264
 2017-02-08 20:57:29.882088+01 | 1486583849.88209 | pgbench_history  |                0
 2017-02-08 20:57:29.882088+01 | 1486583849.88209 | pgbench_branches |            16384

 2017-02-08 20:57:31.125934+01 | 1486583851.12593 | pgbench_accounts |       4160503808
 2017-02-08 20:57:31.125934+01 | 1486583851.12593 | pgbench_tellers  |           139264
 2017-02-08 20:57:31.125934+01 | 1486583851.12593 | pgbench_history  |                0
 2017-02-08 20:57:31.125934+01 | 1486583851.12593 | pgbench_branches |            16384

 2017-02-08 20:57:32.318366+01 | 1486583852.31837 | pgbench_accounts |       4160512000
 2017-02-08 20:57:32.318366+01 | 1486583852.31837 | pgbench_tellers  |           139264
 2017-02-08 20:57:32.318366+01 | 1486583852.31837 | pgbench_history  |                0
 2017-02-08 20:57:32.318366+01 | 1486583852.31837 | pgbench_branches |            16384

 2017-02-08 20:57:33.487842+01 | 1486583853.48784 | pgbench_accounts |       4160512000
 2017-02-08 20:57:33.487842+01 | 1486583853.48784 | pgbench_tellers  |           139264
 2017-02-08 20:57:33.487842+01 | 1486583853.48784 | pgbench_history  |                0
 2017-02-08 20:57:33.487842+01 | 1486583853.48784 | pgbench_branches |            16384

 2017-02-08 20:57:34.681417+01 | 1486583854.68142 | pgbench_accounts |       4160512000
 2017-02-08 20:57:34.681417+01 | 1486583854.68142 | pgbench_tellers  |           139264
 2017-02-08 20:57:34.681417+01 | 1486583854.68142 | pgbench_history  |                0
 2017-02-08 20:57:34.681417+01 | 1486583854.68142 | pgbench_branches |            16384

 2017-02-08 20:57:35.886917+01 | 1486583855.88692 | pgbench_accounts |       4160544768
 2017-02-08 20:57:35.886917+01 | 1486583855.88692 | pgbench_tellers  |           139264
 2017-02-08 20:57:35.886917+01 | 1486583855.88692 | pgbench_history  |                0
 2017-02-08 20:57:35.886917+01 | 1486583855.88692 | pgbench_branches |            16384

 2017-02-08 20:57:37.012734+01 | 1486583857.01273 | pgbench_accounts |       4160577536
 2017-02-08 20:57:37.012734+01 | 1486583857.01273 | pgbench_tellers  |           139264
 2017-02-08 20:57:37.012734+01 | 1486583857.01273 | pgbench_history  |                0
 2017-02-08 20:57:37.012734+01 | 1486583857.01273 | pgbench_branches |            16384

 2017-02-08 20:57:38.211208+01 | 1486583858.21121 | pgbench_accounts |       4160593920
 2017-02-08 20:57:38.211208+01 | 1486583858.21121 | pgbench_tellers  |           139264
 2017-02-08 20:57:38.211208+01 | 1486583858.21121 | pgbench_history  |                0
 2017-02-08 20:57:38.211208+01 | 1486583858.21121 | pgbench_branches |            16384

 2017-02-08 20:57:39.329102+01 | 1486583859.3291 | pgbench_accounts |       4160626688
 2017-02-08 20:57:39.329102+01 | 1486583859.3291 | pgbench_tellers  |           139264
 2017-02-08 20:57:39.329102+01 | 1486583859.3291 | pgbench_history  |                0
 2017-02-08 20:57:39.329102+01 | 1486583859.3291 | pgbench_branches |            16384

 2017-02-08 20:57:40.477539+01 | 1486583860.47754 | pgbench_accounts |       4160626688
 2017-02-08 20:57:40.477539+01 | 1486583860.47754 | pgbench_tellers  |           139264
 2017-02-08 20:57:40.477539+01 | 1486583860.47754 | pgbench_history  |                0
 2017-02-08 20:57:40.477539+01 | 1486583860.47754 | pgbench_branches |            16384

 2017-02-08 20:57:41.705139+01 | 1486583861.70514 | pgbench_accounts |       4160634880
 2017-02-08 20:57:41.705139+01 | 1486583861.70514 | pgbench_tellers  |           139264
 2017-02-08 20:57:41.705139+01 | 1486583861.70514 | pgbench_history  |                0
 2017-02-08 20:57:41.705139+01 | 1486583861.70514 | pgbench_branches |            16384

 2017-02-08 20:57:42.909238+01 | 1486583862.90924 | pgbench_accounts |       4160643072
 2017-02-08 20:57:42.909238+01 | 1486583862.90924 | pgbench_tellers  |           139264
 2017-02-08 20:57:42.909238+01 | 1486583862.90924 | pgbench_history  |                0
 2017-02-08 20:57:42.909238+01 | 1486583862.90924 | pgbench_branches |            16384

 2017-02-08 20:57:44.099934+01 | 1486583864.09993 | pgbench_accounts |       4160651264
 2017-02-08 20:57:44.099934+01 | 1486583864.09993 | pgbench_tellers  |           139264
 2017-02-08 20:57:44.099934+01 | 1486583864.09993 | pgbench_history  |                0
 2017-02-08 20:57:44.099934+01 | 1486583864.09993 | pgbench_branches |            16384

 2017-02-08 20:57:45.37029+01 | 1486583865.37029 | pgbench_accounts |       4160675840
 2017-02-08 20:57:45.37029+01 | 1486583865.37029 | pgbench_tellers  |           139264
 2017-02-08 20:57:45.37029+01 | 1486583865.37029 | pgbench_history  |                0
 2017-02-08 20:57:45.37029+01 | 1486583865.37029 | pgbench_branches |            16384

 2017-02-08 20:57:46.666508+01 | 1486583866.66651 | pgbench_accounts |       4160708608
 2017-02-08 20:57:46.666508+01 | 1486583866.66651 | pgbench_tellers  |           139264
 2017-02-08 20:57:46.666508+01 | 1486583866.66651 | pgbench_history  |                0
 2017-02-08 20:57:46.666508+01 | 1486583866.66651 | pgbench_branches |            16384

 2017-02-08 20:57:47.943383+01 | 1486583867.94338 | pgbench_accounts |       4160733184
 2017-02-08 20:57:47.943383+01 | 1486583867.94338 | pgbench_tellers  |           139264
 2017-02-08 20:57:47.943383+01 | 1486583867.94338 | pgbench_history  |                0
 2017-02-08 20:57:47.943383+01 | 1486583867.94338 | pgbench_branches |            16384

 2017-02-08 20:57:49.149292+01 | 1486583869.14929 | pgbench_accounts |       4160757760
 2017-02-08 20:57:49.149292+01 | 1486583869.14929 | pgbench_tellers  |           139264
 2017-02-08 20:57:49.149292+01 | 1486583869.14929 | pgbench_history  |                0
 2017-02-08 20:57:49.149292+01 | 1486583869.14929 | pgbench_branches |            16384

 2017-02-08 20:57:50.373353+01 | 1486583870.37335 | pgbench_accounts |       4160765952
 2017-02-08 20:57:50.373353+01 | 1486583870.37335 | pgbench_tellers  |           139264
 2017-02-08 20:57:50.373353+01 | 1486583870.37335 | pgbench_history  |                0
 2017-02-08 20:57:50.373353+01 | 1486583870.37335 | pgbench_branches |            16384

 2017-02-08 20:57:51.588841+01 | 1486583871.58884 | pgbench_accounts |       4160774144
 2017-02-08 20:57:51.588841+01 | 1486583871.58884 | pgbench_tellers  |           139264
 2017-02-08 20:57:51.588841+01 | 1486583871.58884 | pgbench_history  |                0
 2017-02-08 20:57:51.588841+01 | 1486583871.58884 | pgbench_branches |            16384

 2017-02-08 20:57:52.765002+01 | 1486583872.765 | pgbench_accounts |       4160782336
 2017-02-08 20:57:52.765002+01 | 1486583872.765 | pgbench_tellers  |           139264
 2017-02-08 20:57:52.765002+01 | 1486583872.765 | pgbench_history  |                0
 2017-02-08 20:57:52.765002+01 | 1486583872.765 | pgbench_branches |            16384

 2017-02-08 20:57:53.861874+01 | 1486583873.86187 | pgbench_accounts |       4160815104
 2017-02-08 20:57:53.861874+01 | 1486583873.86187 | pgbench_tellers  |           139264
 2017-02-08 20:57:53.861874+01 | 1486583873.86187 | pgbench_history  |                0
 2017-02-08 20:57:53.861874+01 | 1486583873.86187 | pgbench_branches |            16384

 2017-02-08 20:57:55.006661+01 | 1486583875.00666 | pgbench_accounts |       4160815104
 2017-02-08 20:57:55.006661+01 | 1486583875.00666 | pgbench_tellers  |           139264
 2017-02-08 20:57:55.006661+01 | 1486583875.00666 | pgbench_history  |                0
 2017-02-08 20:57:55.006661+01 | 1486583875.00666 | pgbench_branches |            16384

 2017-02-08 20:57:56.220146+01 | 1486583876.22015 | pgbench_accounts |       4160839680
 2017-02-08 20:57:56.220146+01 | 1486583876.22015 | pgbench_tellers  |           139264
 2017-02-08 20:57:56.220146+01 | 1486583876.22015 | pgbench_history  |                0
 2017-02-08 20:57:56.220146+01 | 1486583876.22015 | pgbench_branches |            16384

 2017-02-08 20:57:57.416905+01 | 1486583877.4169 | pgbench_accounts |       4160856064
 2017-02-08 20:57:57.416905+01 | 1486583877.4169 | pgbench_tellers  |           139264
 2017-02-08 20:57:57.416905+01 | 1486583877.4169 | pgbench_history  |                0
 2017-02-08 20:57:57.416905+01 | 1486583877.4169 | pgbench_branches |            16384

 2017-02-08 20:57:58.523204+01 | 1486583878.5232 | pgbench_accounts |       4160872448
 2017-02-08 20:57:58.523204+01 | 1486583878.5232 | pgbench_tellers  |           139264
 2017-02-08 20:57:58.523204+01 | 1486583878.5232 | pgbench_history  |                0
 2017-02-08 20:57:58.523204+01 | 1486583878.5232 | pgbench_branches |            16384

 2017-02-08 20:57:59.68981+01 | 1486583879.68981 | pgbench_accounts |       4160888832
 2017-02-08 20:57:59.68981+01 | 1486583879.68981 | pgbench_tellers  |           139264
 2017-02-08 20:57:59.68981+01 | 1486583879.68981 | pgbench_history  |                0
 2017-02-08 20:57:59.68981+01 | 1486583879.68981 | pgbench_branches |            16384

 2017-02-08 20:58:00.89319+01 | 1486583880.89319 | pgbench_accounts |       4160905216
 2017-02-08 20:58:00.89319+01 | 1486583880.89319 | pgbench_tellers  |           139264
 2017-02-08 20:58:00.89319+01 | 1486583880.89319 | pgbench_history  |                0
 2017-02-08 20:58:00.89319+01 | 1486583880.89319 | pgbench_branches |            16384

 2017-02-08 20:58:02.063409+01 | 1486583882.06341 | pgbench_accounts |       4160921600
 2017-02-08 20:58:02.063409+01 | 1486583882.06341 | pgbench_tellers  |           139264
 2017-02-08 20:58:02.063409+01 | 1486583882.06341 | pgbench_history  |                0
 2017-02-08 20:58:02.063409+01 | 1486583882.06341 | pgbench_branches |            16384

 2017-02-08 20:58:03.258297+01 | 1486583883.2583 | pgbench_accounts |       4160921600
 2017-02-08 20:58:03.258297+01 | 1486583883.2583 | pgbench_tellers  |           139264
 2017-02-08 20:58:03.258297+01 | 1486583883.2583 | pgbench_history  |                0
 2017-02-08 20:58:03.258297+01 | 1486583883.2583 | pgbench_branches |            16384

 2017-02-08 20:58:04.418541+01 | 1486583884.41854 | pgbench_accounts |       4160921600
 2017-02-08 20:58:04.418541+01 | 1486583884.41854 | pgbench_tellers  |           139264
 2017-02-08 20:58:04.418541+01 | 1486583884.41854 | pgbench_history  |                0
 2017-02-08 20:58:04.418541+01 | 1486583884.41854 | pgbench_branches |            16384

 2017-02-08 20:58:05.709205+01 | 1486583885.7092 | pgbench_accounts |       4160962560
 2017-02-08 20:58:05.709205+01 | 1486583885.7092 | pgbench_tellers  |           139264
 2017-02-08 20:58:05.709205+01 | 1486583885.7092 | pgbench_history  |                0
 2017-02-08 20:58:05.709205+01 | 1486583885.7092 | pgbench_branches |            16384

 2017-02-08 20:58:06.997429+01 | 1486583886.99743 | pgbench_accounts |       4160970752
 2017-02-08 20:58:06.997429+01 | 1486583886.99743 | pgbench_tellers  |           139264
 2017-02-08 20:58:06.997429+01 | 1486583886.99743 | pgbench_history  |                0
 2017-02-08 20:58:06.997429+01 | 1486583886.99743 | pgbench_branches |            16384

 2017-02-08 20:58:08.168557+01 | 1486583888.16856 | pgbench_accounts |       4160987136
 2017-02-08 20:58:08.168557+01 | 1486583888.16856 | pgbench_tellers  |           139264
 2017-02-08 20:58:08.168557+01 | 1486583888.16856 | pgbench_history  |                0
 2017-02-08 20:58:08.168557+01 | 1486583888.16856 | pgbench_branches |            16384

 2017-02-08 20:58:09.36917+01 | 1486583889.36917 | pgbench_accounts |       4160995328
 2017-02-08 20:58:09.36917+01 | 1486583889.36917 | pgbench_tellers  |           139264
 2017-02-08 20:58:09.36917+01 | 1486583889.36917 | pgbench_history  |                0
 2017-02-08 20:58:09.36917+01 | 1486583889.36917 | pgbench_branches |            16384

 2017-02-08 20:58:10.493906+01 | 1486583890.49391 | pgbench_accounts |       4161028096
 2017-02-08 20:58:10.493906+01 | 1486583890.49391 | pgbench_tellers  |           139264
 2017-02-08 20:58:10.493906+01 | 1486583890.49391 | pgbench_history  |                0
 2017-02-08 20:58:10.493906+01 | 1486583890.49391 | pgbench_branches |            16384

 2017-02-08 20:58:11.694905+01 | 1486583891.69491 | pgbench_accounts |       4161044480
 2017-02-08 20:58:11.694905+01 | 1486583891.69491 | pgbench_tellers  |           139264
 2017-02-08 20:58:11.694905+01 | 1486583891.69491 | pgbench_history  |                0
 2017-02-08 20:58:11.694905+01 | 1486583891.69491 | pgbench_branches |            16384

 2017-02-08 20:58:12.900425+01 | 1486583892.90042 | pgbench_accounts |       4161052672
 2017-02-08 20:58:12.900425+01 | 1486583892.90042 | pgbench_tellers  |           139264
 2017-02-08 20:58:12.900425+01 | 1486583892.90042 | pgbench_history  |                0
 2017-02-08 20:58:12.900425+01 | 1486583892.90042 | pgbench_branches |            16384

 2017-02-08 20:58:14.014631+01 | 1486583894.01463 | pgbench_accounts |       4161069056
 2017-02-08 20:58:14.014631+01 | 1486583894.01463 | pgbench_tellers  |           139264
 2017-02-08 20:58:14.014631+01 | 1486583894.01463 | pgbench_history  |                0
 2017-02-08 20:58:14.014631+01 | 1486583894.01463 | pgbench_branches |            16384

 2017-02-08 20:58:15.167155+01 | 1486583895.16716 | pgbench_accounts |       4161077248
 2017-02-08 20:58:15.167155+01 | 1486583895.16716 | pgbench_tellers  |           139264
 2017-02-08 20:58:15.167155+01 | 1486583895.16716 | pgbench_history  |                0
 2017-02-08 20:58:15.167155+01 | 1486583895.16716 | pgbench_branches |            16384

 2017-02-08 20:58:16.345485+01 | 1486583896.34548 | pgbench_accounts |       4161093632
 2017-02-08 20:58:16.345485+01 | 1486583896.34548 | pgbench_tellers  |           139264
 2017-02-08 20:58:16.345485+01 | 1486583896.34548 | pgbench_history  |                0
 2017-02-08 20:58:16.345485+01 | 1486583896.34548 | pgbench_branches |            16384

 2017-02-08 20:58:17.522643+01 | 1486583897.52264 | pgbench_accounts |       4161101824
 2017-02-08 20:58:17.522643+01 | 1486583897.52264 | pgbench_tellers  |           139264
 2017-02-08 20:58:17.522643+01 | 1486583897.52264 | pgbench_history  |                0
 2017-02-08 20:58:17.522643+01 | 1486583897.52264 | pgbench_branches |            16384

 2017-02-08 20:58:18.733167+01 | 1486583898.73317 | pgbench_accounts |       4161101824
 2017-02-08 20:58:18.733167+01 | 1486583898.73317 | pgbench_tellers  |           139264
 2017-02-08 20:58:18.733167+01 | 1486583898.73317 | pgbench_history  |                0
 2017-02-08 20:58:18.733167+01 | 1486583898.73317 | pgbench_branches |            16384

 2017-02-08 20:58:19.989228+01 | 1486583899.98923 | pgbench_accounts |       4161126400
 2017-02-08 20:58:19.989228+01 | 1486583899.98923 | pgbench_tellers  |           139264
 2017-02-08 20:58:19.989228+01 | 1486583899.98923 | pgbench_history  |                0
 2017-02-08 20:58:19.989228+01 | 1486583899.98923 | pgbench_branches |            16384

 2017-02-08 20:58:21.162407+01 | 1486583901.16241 | pgbench_accounts |       4161150976
 2017-02-08 20:58:21.162407+01 | 1486583901.16241 | pgbench_tellers  |           139264
 2017-02-08 20:58:21.162407+01 | 1486583901.16241 | pgbench_history  |                0
 2017-02-08 20:58:21.162407+01 | 1486583901.16241 | pgbench_branches |            16384

 2017-02-08 20:58:22.39861+01 | 1486583902.39861 | pgbench_accounts |       4161175552
 2017-02-08 20:58:22.39861+01 | 1486583902.39861 | pgbench_tellers  |           139264
 2017-02-08 20:58:22.39861+01 | 1486583902.39861 | pgbench_history  |                0
 2017-02-08 20:58:22.39861+01 | 1486583902.39861 | pgbench_branches |            16384

 2017-02-08 20:58:23.592801+01 | 1486583903.5928 | pgbench_accounts |       4161183744
 2017-02-08 20:58:23.592801+01 | 1486583903.5928 | pgbench_tellers  |           139264
 2017-02-08 20:58:23.592801+01 | 1486583903.5928 | pgbench_history  |                0
 2017-02-08 20:58:23.592801+01 | 1486583903.5928 | pgbench_branches |            16384

 2017-02-08 20:58:24.774586+01 | 1486583904.77459 | pgbench_accounts |       4161183744
 2017-02-08 20:58:24.774586+01 | 1486583904.77459 | pgbench_tellers  |           139264
 2017-02-08 20:58:24.774586+01 | 1486583904.77459 | pgbench_history  |                0
 2017-02-08 20:58:24.774586+01 | 1486583904.77459 | pgbench_branches |            16384

 2017-02-08 20:58:26.00627+01 | 1486583906.00627 | pgbench_accounts |       4161200128
 2017-02-08 20:58:26.00627+01 | 1486583906.00627 | pgbench_tellers  |           139264
 2017-02-08 20:58:26.00627+01 | 1486583906.00627 | pgbench_history  |                0
 2017-02-08 20:58:26.00627+01 | 1486583906.00627 | pgbench_branches |            16384

 2017-02-08 20:58:27.260827+01 | 1486583907.26083 | pgbench_accounts |       4161232896
 2017-02-08 20:58:27.260827+01 | 1486583907.26083 | pgbench_tellers  |           139264
 2017-02-08 20:58:27.260827+01 | 1486583907.26083 | pgbench_history  |                0
 2017-02-08 20:58:27.260827+01 | 1486583907.26083 | pgbench_branches |            16384

 2017-02-08 20:58:28.431701+01 | 1486583908.4317 | pgbench_accounts |       4161232896
 2017-02-08 20:58:28.431701+01 | 1486583908.4317 | pgbench_tellers  |           139264
 2017-02-08 20:58:28.431701+01 | 1486583908.4317 | pgbench_history  |                0
 2017-02-08 20:58:28.431701+01 | 1486583908.4317 | pgbench_branches |            16384

 2017-02-08 20:58:29.626026+01 | 1486583909.62603 | pgbench_accounts |       4161241088
 2017-02-08 20:58:29.626026+01 | 1486583909.62603 | pgbench_tellers  |           139264
 2017-02-08 20:58:29.626026+01 | 1486583909.62603 | pgbench_history  |                0
 2017-02-08 20:58:29.626026+01 | 1486583909.62603 | pgbench_branches |            16384

 2017-02-08 20:58:30.885993+01 | 1486583910.88599 | pgbench_accounts |       4161257472
 2017-02-08 20:58:30.885993+01 | 1486583910.88599 | pgbench_tellers  |           139264
 2017-02-08 20:58:30.885993+01 | 1486583910.88599 | pgbench_history  |                0
 2017-02-08 20:58:30.885993+01 | 1486583910.88599 | pgbench_branches |            16384

 2017-02-08 20:58:32.076891+01 | 1486583912.07689 | pgbench_accounts |       4161265664
 2017-02-08 20:58:32.076891+01 | 1486583912.07689 | pgbench_tellers  |           139264
 2017-02-08 20:58:32.076891+01 | 1486583912.07689 | pgbench_history  |                0
 2017-02-08 20:58:32.076891+01 | 1486583912.07689 | pgbench_branches |            16384

 2017-02-08 20:58:33.204633+01 | 1486583913.20463 | pgbench_accounts |       4161273856
 2017-02-08 20:58:33.204633+01 | 1486583913.20463 | pgbench_tellers  |           139264
 2017-02-08 20:58:33.204633+01 | 1486583913.20463 | pgbench_history  |                0
 2017-02-08 20:58:33.204633+01 | 1486583913.20463 | pgbench_branches |            16384

 2017-02-08 20:58:34.375709+01 | 1486583914.37571 | pgbench_accounts |       4161282048
 2017-02-08 20:58:34.375709+01 | 1486583914.37571 | pgbench_tellers  |           139264
 2017-02-08 20:58:34.375709+01 | 1486583914.37571 | pgbench_history  |                0
 2017-02-08 20:58:34.375709+01 | 1486583914.37571 | pgbench_branches |            16384

 2017-02-08 20:58:35.515564+01 | 1486583915.51556 | pgbench_accounts |       4161306624
 2017-02-08 20:58:35.515564+01 | 1486583915.51556 | pgbench_tellers  |           139264
 2017-02-08 20:58:35.515564+01 | 1486583915.51556 | pgbench_history  |                0
 2017-02-08 20:58:35.515564+01 | 1486583915.51556 | pgbench_branches |            16384

 2017-02-08 20:58:36.723547+01 | 1486583916.72355 | pgbench_accounts |       4161323008
 2017-02-08 20:58:36.723547+01 | 1486583916.72355 | pgbench_tellers  |           139264
 2017-02-08 20:58:36.723547+01 | 1486583916.72355 | pgbench_history  |                0
 2017-02-08 20:58:36.723547+01 | 1486583916.72355 | pgbench_branches |            16384

 2017-02-08 20:58:37.916241+01 | 1486583917.91624 | pgbench_accounts |       4161331200
 2017-02-08 20:58:37.916241+01 | 1486583917.91624 | pgbench_tellers  |           139264
 2017-02-08 20:58:37.916241+01 | 1486583917.91624 | pgbench_history  |                0
 2017-02-08 20:58:37.916241+01 | 1486583917.91624 | pgbench_branches |            16384

 2017-02-08 20:58:39.140819+01 | 1486583919.14082 | pgbench_accounts |       4161355776
 2017-02-08 20:58:39.140819+01 | 1486583919.14082 | pgbench_tellers  |           139264
 2017-02-08 20:58:39.140819+01 | 1486583919.14082 | pgbench_history  |                0
 2017-02-08 20:58:39.140819+01 | 1486583919.14082 | pgbench_branches |            16384

 2017-02-08 20:58:40.310134+01 | 1486583920.31013 | pgbench_accounts |       4161363968
 2017-02-08 20:58:40.310134+01 | 1486583920.31013 | pgbench_tellers  |           139264
 2017-02-08 20:58:40.310134+01 | 1486583920.31013 | pgbench_history  |                0
 2017-02-08 20:58:40.310134+01 | 1486583920.31013 | pgbench_branches |            16384

 2017-02-08 20:58:41.429798+01 | 1486583921.4298 | pgbench_accounts |       4161363968
 2017-02-08 20:58:41.429798+01 | 1486583921.4298 | pgbench_tellers  |           139264
 2017-02-08 20:58:41.429798+01 | 1486583921.4298 | pgbench_history  |                0
 2017-02-08 20:58:41.429798+01 | 1486583921.4298 | pgbench_branches |            16384

 2017-02-08 20:58:42.641153+01 | 1486583922.64115 | pgbench_accounts |       4161380352
 2017-02-08 20:58:42.641153+01 | 1486583922.64115 | pgbench_tellers  |           139264
 2017-02-08 20:58:42.641153+01 | 1486583922.64115 | pgbench_history  |                0
 2017-02-08 20:58:42.641153+01 | 1486583922.64115 | pgbench_branches |            16384

 2017-02-08 20:58:43.859693+01 | 1486583923.85969 | pgbench_accounts |       4161396736
 2017-02-08 20:58:43.859693+01 | 1486583923.85969 | pgbench_tellers  |           139264
 2017-02-08 20:58:43.859693+01 | 1486583923.85969 | pgbench_history  |                0
 2017-02-08 20:58:43.859693+01 | 1486583923.85969 | pgbench_branches |            16384

 2017-02-08 20:58:45.005282+01 | 1486583925.00528 | pgbench_accounts |       4161404928
 2017-02-08 20:58:45.005282+01 | 1486583925.00528 | pgbench_tellers  |           139264
 2017-02-08 20:58:45.005282+01 | 1486583925.00528 | pgbench_history  |                0
 2017-02-08 20:58:45.005282+01 | 1486583925.00528 | pgbench_branches |            16384

 2017-02-08 20:58:46.204564+01 | 1486583926.20456 | pgbench_accounts |       4161421312
 2017-02-08 20:58:46.204564+01 | 1486583926.20456 | pgbench_tellers  |           139264
 2017-02-08 20:58:46.204564+01 | 1486583926.20456 | pgbench_history  |                0
 2017-02-08 20:58:46.204564+01 | 1486583926.20456 | pgbench_branches |            16384

 2017-02-08 20:58:47.393354+01 | 1486583927.39335 | pgbench_accounts |       4161429504
 2017-02-08 20:58:47.393354+01 | 1486583927.39335 | pgbench_tellers  |           139264
 2017-02-08 20:58:47.393354+01 | 1486583927.39335 | pgbench_history  |                0
 2017-02-08 20:58:47.393354+01 | 1486583927.39335 | pgbench_branches |            16384

 2017-02-08 20:58:48.564202+01 | 1486583928.5642 | pgbench_accounts |       4161437696
 2017-02-08 20:58:48.564202+01 | 1486583928.5642 | pgbench_tellers  |           139264
 2017-02-08 20:58:48.564202+01 | 1486583928.5642 | pgbench_history  |                0
 2017-02-08 20:58:48.564202+01 | 1486583928.5642 | pgbench_branches |            16384

 2017-02-08 20:58:49.771901+01 | 1486583929.7719 | pgbench_accounts |       4161437696
 2017-02-08 20:58:49.771901+01 | 1486583929.7719 | pgbench_tellers  |           139264
 2017-02-08 20:58:49.771901+01 | 1486583929.7719 | pgbench_history  |                0
 2017-02-08 20:58:49.771901+01 | 1486583929.7719 | pgbench_branches |            16384

 2017-02-08 20:58:50.891433+01 | 1486583930.89143 | pgbench_accounts |       4161462272
 2017-02-08 20:58:50.891433+01 | 1486583930.89143 | pgbench_tellers  |           139264
 2017-02-08 20:58:50.891433+01 | 1486583930.89143 | pgbench_history  |                0
 2017-02-08 20:58:50.891433+01 | 1486583930.89143 | pgbench_branches |            16384

 2017-02-08 20:58:52.058758+01 | 1486583932.05876 | pgbench_accounts |       4161478656
 2017-02-08 20:58:52.058758+01 | 1486583932.05876 | pgbench_tellers  |           139264
 2017-02-08 20:58:52.058758+01 | 1486583932.05876 | pgbench_history  |                0
 2017-02-08 20:58:52.058758+01 | 1486583932.05876 | pgbench_branches |            16384

 2017-02-08 20:58:53.220059+01 | 1486583933.22006 | pgbench_accounts |       4161486848
 2017-02-08 20:58:53.220059+01 | 1486583933.22006 | pgbench_tellers  |           139264
 2017-02-08 20:58:53.220059+01 | 1486583933.22006 | pgbench_history  |                0
 2017-02-08 20:58:53.220059+01 | 1486583933.22006 | pgbench_branches |            16384

 2017-02-08 20:58:54.359693+01 | 1486583934.35969 | pgbench_accounts |       4161495040
 2017-02-08 20:58:54.359693+01 | 1486583934.35969 | pgbench_tellers  |           139264
 2017-02-08 20:58:54.359693+01 | 1486583934.35969 | pgbench_history  |                0
 2017-02-08 20:58:54.359693+01 | 1486583934.35969 | pgbench_branches |            16384

 2017-02-08 20:58:55.487172+01 | 1486583935.48717 | pgbench_accounts |       4161503232
 2017-02-08 20:58:55.487172+01 | 1486583935.48717 | pgbench_tellers  |           139264
 2017-02-08 20:58:55.487172+01 | 1486583935.48717 | pgbench_history  |                0
 2017-02-08 20:58:55.487172+01 | 1486583935.48717 | pgbench_branches |            16384

 2017-02-08 20:58:56.737889+01 | 1486583936.73789 | pgbench_accounts |       4161503232
 2017-02-08 20:58:56.737889+01 | 1486583936.73789 | pgbench_tellers  |           139264
 2017-02-08 20:58:56.737889+01 | 1486583936.73789 | pgbench_history  |                0
 2017-02-08 20:58:56.737889+01 | 1486583936.73789 | pgbench_branches |            16384

 2017-02-08 20:58:57.910476+01 | 1486583937.91048 | pgbench_accounts |       4161527808
 2017-02-08 20:58:57.910476+01 | 1486583937.91048 | pgbench_tellers  |           139264
 2017-02-08 20:58:57.910476+01 | 1486583937.91048 | pgbench_history  |                0
 2017-02-08 20:58:57.910476+01 | 1486583937.91048 | pgbench_branches |            16384

 2017-02-08 20:58:59.103853+01 | 1486583939.10385 | pgbench_accounts |       4161544192
 2017-02-08 20:58:59.103853+01 | 1486583939.10385 | pgbench_tellers  |           139264
 2017-02-08 20:58:59.103853+01 | 1486583939.10385 | pgbench_history  |                0
 2017-02-08 20:58:59.103853+01 | 1486583939.10385 | pgbench_branches |            16384

 2017-02-08 20:59:00.303355+01 | 1486583940.30335 | pgbench_accounts |       4161560576
 2017-02-08 20:59:00.303355+01 | 1486583940.30335 | pgbench_tellers  |           139264
 2017-02-08 20:59:00.303355+01 | 1486583940.30335 | pgbench_history  |                0
 2017-02-08 20:59:00.303355+01 | 1486583940.30335 | pgbench_branches |            16384

 2017-02-08 20:59:01.462709+01 | 1486583941.46271 | pgbench_accounts |       4161568768
 2017-02-08 20:59:01.462709+01 | 1486583941.46271 | pgbench_tellers  |           139264
 2017-02-08 20:59:01.462709+01 | 1486583941.46271 | pgbench_history  |                0
 2017-02-08 20:59:01.462709+01 | 1486583941.46271 | pgbench_branches |            16384

 2017-02-08 20:59:02.619122+01 | 1486583942.61912 | pgbench_accounts |       4161568768
 2017-02-08 20:59:02.619122+01 | 1486583942.61912 | pgbench_tellers  |           139264
 2017-02-08 20:59:02.619122+01 | 1486583942.61912 | pgbench_history  |                0
 2017-02-08 20:59:02.619122+01 | 1486583942.61912 | pgbench_branches |            16384

 2017-02-08 20:59:03.831734+01 | 1486583943.83173 | pgbench_accounts |       4161568768
 2017-02-08 20:59:03.831734+01 | 1486583943.83173 | pgbench_tellers  |           139264
 2017-02-08 20:59:03.831734+01 | 1486583943.83173 | pgbench_history  |                0
 2017-02-08 20:59:03.831734+01 | 1486583943.83173 | pgbench_branches |            16384

 2017-02-08 20:59:04.996449+01 | 1486583944.99645 | pgbench_accounts |       4161568768
 2017-02-08 20:59:04.996449+01 | 1486583944.99645 | pgbench_tellers  |           139264
 2017-02-08 20:59:04.996449+01 | 1486583944.99645 | pgbench_history  |                0
 2017-02-08 20:59:04.996449+01 | 1486583944.99645 | pgbench_branches |            16384

 2017-02-08 20:59:06.165775+01 | 1486583946.16578 | pgbench_accounts |       4161568768
 2017-02-08 20:59:06.165775+01 | 1486583946.16578 | pgbench_tellers  |           139264
 2017-02-08 20:59:06.165775+01 | 1486583946.16578 | pgbench_history  |                0
 2017-02-08 20:59:06.165775+01 | 1486583946.16578 | pgbench_branches |            16384

 2017-02-08 20:59:07.318268+01 | 1486583947.31827 | pgbench_accounts |       4161568768
 2017-02-08 20:59:07.318268+01 | 1486583947.31827 | pgbench_tellers  |           139264
 2017-02-08 20:59:07.318268+01 | 1486583947.31827 | pgbench_history  |                0
 2017-02-08 20:59:07.318268+01 | 1486583947.31827 | pgbench_branches |            16384

 2017-02-08 20:59:08.500574+01 | 1486583948.50057 | pgbench_accounts |       4161568768
 2017-02-08 20:59:08.500574+01 | 1486583948.50057 | pgbench_tellers  |           139264
 2017-02-08 20:59:08.500574+01 | 1486583948.50057 | pgbench_history  |                0
 2017-02-08 20:59:08.500574+01 | 1486583948.50057 | pgbench_branches |            16384

 2017-02-08 20:59:09.663803+01 | 1486583949.6638 | pgbench_accounts |       4161568768
 2017-02-08 20:59:09.663803+01 | 1486583949.6638 | pgbench_tellers  |           139264
 2017-02-08 20:59:09.663803+01 | 1486583949.6638 | pgbench_history  |                0
 2017-02-08 20:59:09.663803+01 | 1486583949.6638 | pgbench_branches |            16384

 2017-02-08 20:59:10.857656+01 | 1486583950.85766 | pgbench_accounts |       4161568768
 2017-02-08 20:59:10.857656+01 | 1486583950.85766 | pgbench_tellers  |           139264
 2017-02-08 20:59:10.857656+01 | 1486583950.85766 | pgbench_history  |                0
 2017-02-08 20:59:10.857656+01 | 1486583950.85766 | pgbench_branches |            16384

 2017-02-08 20:59:11.953588+01 | 1486583951.95359 | pgbench_accounts |       4161568768
 2017-02-08 20:59:11.953588+01 | 1486583951.95359 | pgbench_tellers  |           139264
 2017-02-08 20:59:11.953588+01 | 1486583951.95359 | pgbench_history  |                0
 2017-02-08 20:59:11.953588+01 | 1486583951.95359 | pgbench_branches |            16384

 2017-02-08 20:59:13.10726+01 | 1486583953.10726 | pgbench_accounts |       4161568768
 2017-02-08 20:59:13.10726+01 | 1486583953.10726 | pgbench_tellers  |           139264
 2017-02-08 20:59:13.10726+01 | 1486583953.10726 | pgbench_history  |                0
 2017-02-08 20:59:13.10726+01 | 1486583953.10726 | pgbench_branches |            16384

 2017-02-08 20:59:14.207693+01 | 1486583954.20769 | pgbench_accounts |       4161568768
 2017-02-08 20:59:14.207693+01 | 1486583954.20769 | pgbench_tellers  |           139264
 2017-02-08 20:59:14.207693+01 | 1486583954.20769 | pgbench_history  |                0
 2017-02-08 20:59:14.207693+01 | 1486583954.20769 | pgbench_branches |            16384

 2017-02-08 20:59:15.372066+01 | 1486583955.37207 | pgbench_accounts |       4161568768
 2017-02-08 20:59:15.372066+01 | 1486583955.37207 | pgbench_tellers  |           139264
 2017-02-08 20:59:15.372066+01 | 1486583955.37207 | pgbench_history  |                0
 2017-02-08 20:59:15.372066+01 | 1486583955.37207 | pgbench_branches |            16384

 2017-02-08 20:59:16.524625+01 | 1486583956.52463 | pgbench_accounts |       4161568768
 2017-02-08 20:59:16.524625+01 | 1486583956.52463 | pgbench_tellers  |           139264
 2017-02-08 20:59:16.524625+01 | 1486583956.52463 | pgbench_history  |                0
 2017-02-08 20:59:16.524625+01 | 1486583956.52463 | pgbench_branches |            16384

 2017-02-08 20:59:17.713944+01 | 1486583957.71394 | pgbench_accounts |       4161568768
 2017-02-08 20:59:17.713944+01 | 1486583957.71394 | pgbench_tellers  |           139264
 2017-02-08 20:59:17.713944+01 | 1486583957.71394 | pgbench_history  |                0
 2017-02-08 20:59:17.713944+01 | 1486583957.71394 | pgbench_branches |            16384

 2017-02-08 20:59:18.886925+01 | 1486583958.88692 | pgbench_accounts |       4161568768
 2017-02-08 20:59:18.886925+01 | 1486583958.88692 | pgbench_tellers  |           139264
 2017-02-08 20:59:18.886925+01 | 1486583958.88692 | pgbench_history  |                0
 2017-02-08 20:59:18.886925+01 | 1486583958.88692 | pgbench_branches |            16384

 2017-02-08 20:59:20.075014+01 | 1486583960.07501 | pgbench_accounts |       4161568768
 2017-02-08 20:59:20.075014+01 | 1486583960.07501 | pgbench_tellers  |           139264
 2017-02-08 20:59:20.075014+01 | 1486583960.07501 | pgbench_history  |                0
 2017-02-08 20:59:20.075014+01 | 1486583960.07501 | pgbench_branches |            16384

 2017-02-08 20:59:21.250485+01 | 1486583961.25048 | pgbench_accounts |       4161568768
 2017-02-08 20:59:21.250485+01 | 1486583961.25048 | pgbench_tellers  |           139264
 2017-02-08 20:59:21.250485+01 | 1486583961.25048 | pgbench_history  |                0
 2017-02-08 20:59:21.250485+01 | 1486583961.25048 | pgbench_branches |            16384

 2017-02-08 20:59:22.43287+01 | 1486583962.43287 | pgbench_accounts |       4161568768
 2017-02-08 20:59:22.43287+01 | 1486583962.43287 | pgbench_tellers  |           139264
 2017-02-08 20:59:22.43287+01 | 1486583962.43287 | pgbench_history  |                0
 2017-02-08 20:59:22.43287+01 | 1486583962.43287 | pgbench_branches |            16384

 2017-02-08 20:59:23.582291+01 | 1486583963.58229 | pgbench_accounts |       4161568768
 2017-02-08 20:59:23.582291+01 | 1486583963.58229 | pgbench_tellers  |           139264
 2017-02-08 20:59:23.582291+01 | 1486583963.58229 | pgbench_history  |                0
 2017-02-08 20:59:23.582291+01 | 1486583963.58229 | pgbench_branches |            16384

 2017-02-08 20:59:24.791528+01 | 1486583964.79153 | pgbench_accounts |       4161568768
 2017-02-08 20:59:24.791528+01 | 1486583964.79153 | pgbench_tellers  |           139264
 2017-02-08 20:59:24.791528+01 | 1486583964.79153 | pgbench_history  |                0
 2017-02-08 20:59:24.791528+01 | 1486583964.79153 | pgbench_branches |            16384

 2017-02-08 20:59:25.986935+01 | 1486583965.98693 | pgbench_accounts |       4161568768
 2017-02-08 20:59:25.986935+01 | 1486583965.98693 | pgbench_tellers  |           139264
 2017-02-08 20:59:25.986935+01 | 1486583965.98693 | pgbench_history  |                0
 2017-02-08 20:59:25.986935+01 | 1486583965.98693 | pgbench_branches |            16384

 2017-02-08 20:59:27.173023+01 | 1486583967.17302 | pgbench_accounts |       4161568768
 2017-02-08 20:59:27.173023+01 | 1486583967.17302 | pgbench_tellers  |           139264
 2017-02-08 20:59:27.173023+01 | 1486583967.17302 | pgbench_history  |                0
 2017-02-08 20:59:27.173023+01 | 1486583967.17302 | pgbench_branches |            16384

