 2017-02-08 12:22:51.329622+01 | 1486552971.32962 | 0/27CB0B38               |             667618104

 2017-02-08 12:22:52.632306+01 | 1486552972.63231 | 0/284DE038               |             676192312

 2017-02-08 12:22:53.904321+01 | 1486552973.90432 | 0/28C6EF28               |             684125992

 2017-02-08 12:22:55.088457+01 | 1486552975.08846 | 0/2930A6B0               |             691054256

 2017-02-08 12:22:56.292398+01 | 1486552976.2924 | 0/299D9E30               |             698195504

 2017-02-08 12:22:57.516063+01 | 1486552977.51606 | 0/2A0607A0               |             705038240

 2017-02-08 12:22:58.747089+01 | 1486552978.74709 | 0/2A71C730               |             712099632

 2017-02-08 12:22:59.949908+01 | 1486552979.94991 | 0/2ADC2D68               |             719072616

 2017-02-08 12:23:01.15846+01 | 1486552981.15846 | 0/2B44DF10               |             725933840

 2017-02-08 12:23:02.407713+01 | 1486552982.40771 | 0/2BB1CAE0               |             733072096

 2017-02-08 12:23:03.609079+01 | 1486552983.60908 | 0/2C167DB8               |             739671480

 2017-02-08 12:23:04.801002+01 | 1486552984.801 | 0/2C7E21B8               |             746463672

 2017-02-08 12:23:05.991471+01 | 1486552985.99147 | 0/2CE4D888               |             753195144

 2017-02-08 12:23:07.193018+01 | 1486552987.19302 | 0/2D4BCB00               |             759941888

 2017-02-08 12:23:08.365456+01 | 1486552988.36546 | 0/2DB0D740               |             766564160

 2017-02-08 12:23:09.600523+01 | 1486552989.60052 | 0/2E197578               |             773420408

 2017-02-08 12:23:10.794166+01 | 1486552990.79417 | 0/2E803A08               |             780155400

 2017-02-08 12:23:12.007451+01 | 1486552992.00745 | 0/2EE6B3E8               |             786871272

 2017-02-08 12:23:13.212828+01 | 1486552993.21283 | 0/2F4D2198               |             793584024

 2017-02-08 12:23:14.434624+01 | 1486552994.43462 | 0/2FB5E870               |             800450672

 2017-02-08 12:23:15.680804+01 | 1486552995.6808 | 0/301F6C48               |             807365704

 2017-02-08 12:23:16.86923+01 | 1486552996.86923 | 0/30866548               |             814114120

 2017-02-08 12:23:18.035758+01 | 1486552998.03576 | 0/30E988E8               |             820611304

 2017-02-08 12:23:19.314343+01 | 1486552999.31434 | 0/31553B00               |             827669248

 2017-02-08 12:23:20.500799+01 | 1486553000.5008 | 0/31BC8440               |             834438208

 2017-02-08 12:23:21.681809+01 | 1486553001.68181 | 0/321F7A78               |             840923768

 2017-02-08 12:23:22.756204+01 | 1486553002.7562 | 0/32792158               |             846799192

 2017-02-08 12:23:23.959144+01 | 1486553003.95914 | 0/32DF47B8               |             853493688

 2017-02-08 12:23:25.127251+01 | 1486553005.12725 | 0/33424330               |             859980592

 2017-02-08 12:23:26.258921+01 | 1486553006.25892 | 0/33A44EB8               |             866406072

 2017-02-08 12:23:27.443756+01 | 1486553007.44376 | 0/34081D18               |             872946968

 2017-02-08 12:23:28.664974+01 | 1486553008.66497 | 0/346EE270               |             879682160

 2017-02-08 12:23:29.872206+01 | 1486553009.87221 | 0/34D507F8               |             886376440

 2017-02-08 12:23:31.105562+01 | 1486553011.10556 | 0/353A1118               |             892997912

 2017-02-08 12:23:32.332747+01 | 1486553012.33275 | 0/35A3BDA0               |             899926112

 2017-02-08 12:23:33.593612+01 | 1486553013.59361 | 0/360DBE30               |             906870320

 2017-02-08 12:23:34.777194+01 | 1486553014.77719 | 0/3671CDB8               |             913427896

 2017-02-08 12:23:35.968033+01 | 1486553015.96803 | 0/36D784C0               |             920093888

 2017-02-08 12:23:37.186116+01 | 1486553017.18612 | 0/373CA648               |             926721608

 2017-02-08 12:23:38.359917+01 | 1486553018.35992 | 0/379FCDC8               |             933219784

 2017-02-08 12:23:39.604657+01 | 1486553019.60466 | 0/38087938               |             940079416

 2017-02-08 12:23:40.801412+01 | 1486553020.80141 | 0/386E0168               |             946733416

 2017-02-08 12:23:42.001551+01 | 1486553022.00155 | 0/38D48710               |             953452304

 2017-02-08 12:23:43.232267+01 | 1486553023.23227 | 0/39399EE8               |             960077544

 2017-02-08 12:23:44.409052+01 | 1486553024.40905 | 0/399D4950               |             966609232

 2017-02-08 12:23:45.597795+01 | 1486553025.5978 | 0/3A01DDB0               |             973200816

 2017-02-08 12:23:46.912217+01 | 1486553026.91222 | 0/3A70C398               |             980468632

 2017-02-08 12:23:48.110951+01 | 1486553028.11095 | 0/3AD75A18               |             987191832

 2017-02-08 12:23:49.360194+01 | 1486553029.36019 | 0/3B3F1A00               |             993991168

 2017-02-08 12:23:50.685264+01 | 1486553030.68526 | 0/3BAF4078               |            1001341048

 2017-02-08 12:23:51.911478+01 | 1486553031.91148 | 0/3C148960               |            1007978848

 2017-02-08 12:23:53.131837+01 | 1486553033.13184 | 0/3C7A0D60               |            1014631776

 2017-02-08 12:23:54.304972+01 | 1486553034.30497 | 0/3CDE1C70               |            1021189232

 2017-02-08 12:23:55.52457+01 | 1486553035.52457 | 0/3D436770               |            1027827568

 2017-02-08 12:23:56.75406+01 | 1486553036.75406 | 0/3DAAF4C8               |            1034613960

 2017-02-08 12:23:57.905103+01 | 1486553037.9051 | 0/3E096078               |            1040801912

 2017-02-08 12:23:59.098386+01 | 1486553039.09839 | 0/3E70C448               |            1047577672

 2017-02-08 12:24:00.272589+01 | 1486553040.27259 | 0/3ED5F858               |            1054210136

 2017-02-08 12:24:01.533462+01 | 1486553041.53346 | 0/3F3F45F8               |            1061111288

 2017-02-08 12:24:02.718761+01 | 1486553042.71876 | 0/3FA3B7B8               |            1067694008

 2017-02-08 12:24:03.96499+01 | 1486553043.96499 | 0/400B58B8               |            1074485432

 2017-02-08 12:24:05.22395+01 | 1486553045.22395 | 0/4075DFC8               |            1081466824

 2017-02-08 12:24:06.41677+01 | 1486553046.41677 | 0/40DAEE78               |            1088089720

 2017-02-08 12:24:07.624458+01 | 1486553047.62446 | 0/413E9088               |            1094619272

 2017-02-08 12:24:08.786659+01 | 1486553048.78666 | 0/419FB048               |            1100984392

 2017-02-08 12:24:09.966207+01 | 1486553049.96621 | 0/4200D0A0               |            1107349664

 2017-02-08 12:24:11.169147+01 | 1486553051.16915 | 0/426475B0               |            1113879984

 2017-02-08 12:24:12.393634+01 | 1486553052.39363 | 0/42D0EE80               |            1120988800

 2017-02-08 12:24:13.621398+01 | 1486553053.6214 | 0/434D08F0               |            1129122032

 2017-02-08 12:24:14.781674+01 | 1486553054.78167 | 0/43B63C40               |            1136016448

 2017-02-08 12:24:15.981265+01 | 1486553055.98127 | 0/441F1E80               |            1142890112

 2017-02-08 12:24:17.192842+01 | 1486553057.19284 | 0/448D0818               |            1150093336

 2017-02-08 12:24:18.395559+01 | 1486553058.39556 | 0/44FA7098               |            1157263512

 2017-02-08 12:24:19.550999+01 | 1486553059.551 | 0/456310A0               |            1164120224

 2017-02-08 12:24:20.734834+01 | 1486553060.73483 | 0/45E01EB0               |            1172315824

 2017-02-08 12:24:21.912857+01 | 1486553061.91286 | 0/466870E8               |            1181249768

 2017-02-08 12:24:23.023471+01 | 1486553063.02347 | 0/46D3A1C8               |            1188274632

 2017-02-08 12:24:24.189186+01 | 1486553064.18919 | 0/474B6538               |            1196123448

 2017-02-08 12:24:25.29342+01 | 1486553065.29342 | 0/47B520B8               |            1203052728

 2017-02-08 12:24:26.49011+01 | 1486553066.49011 | 0/4821CEB8               |            1210175160

 2017-02-08 12:24:27.667065+01 | 1486553067.66706 | 0/488C4AB0               |            1217153712

 2017-02-08 12:24:28.848759+01 | 1486553068.84876 | 0/48FA66D0               |            1224369872

 2017-02-08 12:24:29.956957+01 | 1486553069.95696 | 0/495F19A0               |            1230969248

 2017-02-08 12:24:31.176861+01 | 1486553071.17686 | 0/49CD4E50               |            1238191696

 2017-02-08 12:24:32.385536+01 | 1486553072.38554 | 0/4A3ABE20               |            1245363744

 2017-02-08 12:24:33.584744+01 | 1486553073.58474 | 0/4AA7CFF0               |            1252511728

 2017-02-08 12:24:34.821268+01 | 1486553074.82127 | 0/4B18D160               |            1259917664

 2017-02-08 12:24:35.984692+01 | 1486553075.98469 | 0/4B8424B0               |            1266951344

 2017-02-08 12:24:37.204993+01 | 1486553077.20499 | 0/4BF4C128               |            1274331432

 2017-02-08 12:24:38.35472+01 | 1486553078.35472 | 0/4C5C1BB8               |            1281104824

 2017-02-08 12:24:39.5713+01 | 1486553079.5713 | 0/4CCAAF70               |            1288351600

 2017-02-08 12:24:40.759523+01 | 1486553080.75952 | 0/4D35ACA0               |            1295363232

 2017-02-08 12:24:41.957585+01 | 1486553081.95759 | 0/4DA44A78               |            1302612600

 2017-02-08 12:24:43.151034+01 | 1486553083.15103 | 0/4E0F1C30               |            1309613104

 2017-02-08 12:24:44.36362+01 | 1486553084.36362 | 0/4E7D66C8               |            1316841160

 2017-02-08 12:24:45.577225+01 | 1486553085.57722 | 0/4EEC7548               |            1324119368

 2017-02-08 12:24:46.81866+01 | 1486553086.81866 | 0/4F5BCF48               |            1331416904

 2017-02-08 12:24:48.026333+01 | 1486553088.02633 | 0/4FCA0788               |            1338640264

 2017-02-08 12:24:49.187667+01 | 1486553089.18767 | 0/50313260               |            1345401440

 2017-02-08 12:24:50.355043+01 | 1486553090.35504 | 0/509B0758               |            1352337240

 2017-02-08 12:24:51.60785+01 | 1486553091.60785 | 0/510B0FE0               |            1359679456

 2017-02-08 12:24:52.781145+01 | 1486553092.78115 | 0/5175AB30               |            1366666032

 2017-02-08 12:24:53.966151+01 | 1486553093.96615 | 0/51DFAAA8               |            1373612712

 2017-02-08 12:24:55.115444+01 | 1486553095.11544 | 0/524674D8               |            1380349144

 2017-02-08 12:24:56.343715+01 | 1486553096.34371 | 0/52B52A78               |            1387604600

 2017-02-08 12:24:57.548431+01 | 1486553097.54843 | 0/5320A608               |            1394648584

 2017-02-08 12:24:58.715497+01 | 1486553098.7155 | 0/538B95C0               |            1401656768

 2017-02-08 12:24:59.998602+01 | 1486553099.9986 | 0/53FFFB38               |            1409284920

 2017-02-08 12:25:01.174423+01 | 1486553101.17442 | 0/546A2108               |            1416241416

 2017-02-08 12:25:02.405542+01 | 1486553102.40554 | 0/54DA4988               |            1423591816

 2017-02-08 12:25:03.579921+01 | 1486553103.57992 | 0/5543CCA8               |            1430506664

 2017-02-08 12:25:04.763555+01 | 1486553104.76356 | 0/55AFDF10               |            1437589264

 2017-02-08 12:25:05.994648+01 | 1486553105.99465 | 0/561D42D0               |            1444758224

 2017-02-08 12:25:07.167845+01 | 1486553107.16785 | 0/56863DC8               |            1451638216

 2017-02-08 12:25:08.375639+01 | 1486553108.37564 | 0/56F3FBE0               |            1458830304

 2017-02-08 12:25:09.523495+01 | 1486553109.52349 | 0/575AB750               |            1465562960

 2017-02-08 12:25:10.694202+01 | 1486553110.6942 | 0/57C57430               |            1472558128

 2017-02-08 12:25:11.905582+01 | 1486553111.90558 | 0/58323650               |            1479685712

 2017-02-08 12:25:13.150331+01 | 1486553113.15033 | 0/58B0A7A0               |            1487972256

 2017-02-08 12:25:14.364927+01 | 1486553114.36493 | 0/592A6D50               |            1495952720

 2017-02-08 12:25:15.543435+01 | 1486553115.54344 | 0/59942260               |            1502880352

 2017-02-08 12:25:16.717354+01 | 1486553116.71735 | 0/59FBCA00               |            1509673472

 2017-02-08 12:25:17.813916+01 | 1486553117.81392 | 0/5A5AF060               |            1515909216

 2017-02-08 12:25:19.003853+01 | 1486553119.00385 | 0/5AC50D48               |            1522863432

 2017-02-08 12:25:20.217409+01 | 1486553120.21741 | 0/5B2D1968               |            1529682280

 2017-02-08 12:25:21.367744+01 | 1486553121.36774 | 0/5BA9F928               |            1537866024

 2017-02-08 12:25:22.534584+01 | 1486553122.53458 | 0/5C1754A0               |            1545032864

 2017-02-08 12:25:23.742745+01 | 1486553123.74274 | 0/5C866470               |            1552311408

 2017-02-08 12:25:24.884751+01 | 1486553124.88475 | 0/5CEF15F0               |            1559172592

 2017-02-08 12:25:26.04562+01 | 1486553126.04562 | 0/5D51C960               |            1565641056

 2017-02-08 12:25:27.331718+01 | 1486553127.33172 | 0/5DC38840               |            1573095488

 2017-02-08 12:25:28.491077+01 | 1486553128.49108 | 0/5E253D48               |            1579498824

 2017-02-08 12:25:29.686575+01 | 1486553129.68657 | 0/5E8F0E70               |            1586433648

 2017-02-08 12:25:30.867946+01 | 1486553130.86795 | 0/5EF72838               |            1593255992

 2017-02-08 12:25:32.00447+01 | 1486553132.00447 | 0/5F5B2B68               |            1599810408

 2017-02-08 12:25:33.124915+01 | 1486553133.12491 | 0/5FBC4A18               |            1606175256

 2017-02-08 12:25:34.347323+01 | 1486553134.34732 | 0/6025F770               |            1613100912

 2017-02-08 12:25:35.556846+01 | 1486553135.55685 | 0/60907F58               |            1620082520

 2017-02-08 12:25:36.791814+01 | 1486553136.79181 | 0/60FD3148               |            1627205960

 2017-02-08 12:25:37.885618+01 | 1486553137.88562 | 0/615C2A38               |            1633430072

 2017-02-08 12:25:39.134676+01 | 1486553139.13468 | 0/61CAF870               |            1640691824

 2017-02-08 12:25:40.432084+01 | 1486553140.43208 | 0/623B84F0               |            1648067824

 2017-02-08 12:25:41.692596+01 | 1486553141.6926 | 0/62AA7918               |            1655339288

 2017-02-08 12:25:42.924456+01 | 1486553142.92446 | 0/6315C6E8               |            1662371560

 2017-02-08 12:25:44.150189+01 | 1486553144.15019 | 0/63821780               |            1669470080

 2017-02-08 12:25:45.365465+01 | 1486553145.36546 | 0/63EF5D10               |            1676631312

 2017-02-08 12:25:46.581353+01 | 1486553146.58135 | 0/6458EDD0               |            1683549648

 2017-02-08 12:25:47.787886+01 | 1486553147.78789 | 0/64C3B660               |            1690547808

 2017-02-08 12:25:48.959317+01 | 1486553148.95932 | 0/6529C230               |            1697235504

 2017-02-08 12:25:50.193577+01 | 1486553150.19358 | 0/6597BFB0               |            1704443824

 2017-02-08 12:25:51.403898+01 | 1486553151.4039 | 0/6600C9D0               |            1711327696

 2017-02-08 12:25:52.549891+01 | 1486553152.54989 | 0/66657E40               |            1717927488

 2017-02-08 12:25:53.708895+01 | 1486553153.70889 | 0/66CB0238               |            1724580408

 2017-02-08 12:25:54.906572+01 | 1486553154.90657 | 0/6731C918               |            1731315992

 2017-02-08 12:25:56.087309+01 | 1486553156.08731 | 0/6799F4E8               |            1738142952

 2017-02-08 12:25:57.277632+01 | 1486553157.27763 | 0/68002328               |            1744839464

 2017-02-08 12:25:58.424943+01 | 1486553158.42494 | 0/68634660               |            1751336544

 2017-02-08 12:25:59.67076+01 | 1486553159.67076 | 0/68D24EB0               |            1758613168

 2017-02-08 12:26:00.810148+01 | 1486553160.81015 | 0/693424F8               |            1765025016

 2017-02-08 12:26:02.035714+01 | 1486553162.03571 | 0/69A02C50               |            1772104784

 2017-02-08 12:26:03.314573+01 | 1486553163.31457 | 0/6A0F7120               |            1779396896

 2017-02-08 12:26:04.464514+01 | 1486553164.46451 | 0/6A73E208               |            1785979400

 2017-02-08 12:26:05.726283+01 | 1486553165.72628 | 0/6AE178D8               |            1793161432

 2017-02-08 12:26:06.992665+01 | 1486553166.99267 | 0/6B4E9400               |            1800311808

 2017-02-08 12:26:08.263169+01 | 1486553168.26317 | 0/6BBF5788               |            1807701896

 2017-02-08 12:26:09.48546+01 | 1486553169.48546 | 0/6C29A640               |            1814668864

 2017-02-08 12:26:10.681329+01 | 1486553170.68133 | 0/6C9251B0               |            1821528496

 2017-02-08 12:26:11.962392+01 | 1486553171.96239 | 0/6D0233B0               |            1828860848

 2017-02-08 12:26:13.154794+01 | 1486553173.15479 | 0/6D6DE3A8               |            1835918248

 2017-02-08 12:26:14.354418+01 | 1486553174.35442 | 0/6DDA1FA0               |            1843011488

 2017-02-08 12:26:15.569246+01 | 1486553175.56925 | 0/6E46C868               |            1850132584

 2017-02-08 12:26:16.796694+01 | 1486553176.79669 | 0/6EB59100               |            1857392896

 2017-02-08 12:26:18.021721+01 | 1486553178.02172 | 0/6F29ED20               |            1865018656

 2017-02-08 12:26:19.177592+01 | 1486553179.17759 | 0/6FA65E28               |            1873174056

 2017-02-08 12:26:20.304728+01 | 1486553180.30473 | 0/700C2E40               |            1879846464

 2017-02-08 12:26:21.509732+01 | 1486553181.50973 | 0/70786720               |            1886938912

 2017-02-08 12:26:22.731215+01 | 1486553182.73122 | 0/70E54370               |            1894073200

 2017-02-08 12:26:23.97309+01 | 1486553183.97309 | 0/7151C6F0               |            1901184752

 2017-02-08 12:26:25.170543+01 | 1486553185.17054 | 0/71BDCA58               |            1908263512

 2017-02-08 12:26:26.41885+01 | 1486553186.41885 | 0/723D5F10               |            1916624656

 2017-02-08 12:26:27.629881+01 | 1486553187.62988 | 0/72AA52E0               |            1923764960

 2017-02-08 12:26:28.858379+01 | 1486553188.85838 | 0/731C0F38               |            1931218744

 2017-02-08 12:26:30.056779+01 | 1486553190.05678 | 0/73839E98               |            1938005656

 2017-02-08 12:26:31.292986+01 | 1486553191.29299 | 0/73F12B98               |            1945185176

 2017-02-08 12:26:32.478911+01 | 1486553192.47891 | 0/74592B78               |            1952000888

 2017-02-08 12:26:33.675129+01 | 1486553193.67513 | 0/74C0B6D0               |            1958786768

 2017-02-08 12:26:34.867801+01 | 1486553194.8678 | 0/7522BA10               |            1965210128

 2017-02-08 12:26:36.277645+01 | 1486553196.27765 | 0/759A6868               |            1973053544

 2017-02-08 12:26:37.485583+01 | 1486553197.48558 | 0/760148B8               |            1979795640

 2017-02-08 12:26:38.643013+01 | 1486553198.64301 | 0/766683E8               |            1986429928

 2017-02-08 12:26:39.820601+01 | 1486553199.8206 | 0/76CDA5C8               |            1993188808

 2017-02-08 12:26:41.017486+01 | 1486553201.01749 | 0/77352390               |            1999971216

 2017-02-08 12:26:42.184941+01 | 1486553202.18494 | 0/779CDC28               |            2006768680

 2017-02-08 12:26:43.368174+01 | 1486553203.36817 | 0/7803C1E0               |            2013512160

 2017-02-08 12:26:44.57088+01 | 1486553204.57088 | 0/786CF198               |            2020405656

 2017-02-08 12:26:45.771307+01 | 1486553205.77131 | 0/78D62A00               |            2027301376

 2017-02-08 12:26:46.920438+01 | 1486553206.92044 | 0/7939DD38               |            2033835320

 2017-02-08 12:26:48.083903+01 | 1486553208.0839 | 0/79A06130               |            2040553776

 2017-02-08 12:26:49.276128+01 | 1486553209.27613 | 0/7A055210               |            2047169040

 2017-02-08 12:26:50.544612+01 | 1486553210.54461 | 0/7A765920               |            2054576416

 2017-02-08 12:26:51.779001+01 | 1486553211.779 | 0/7AE2CBB8               |            2061683640

 2017-02-08 12:26:53.002767+01 | 1486553213.00277 | 0/7B4D5278               |            2068664952

 2017-02-08 12:26:54.293318+01 | 1486553214.29332 | 0/7BBFF398               |            2076177304

 2017-02-08 12:26:55.516493+01 | 1486553215.51649 | 0/7C2ADE28               |            2083184168

 2017-02-08 12:26:56.642448+01 | 1486553216.64245 | 0/7C8E39A0               |            2089695648

 2017-02-08 12:26:57.782741+01 | 1486553217.78274 | 0/7CF0F080               |            2096164992

 2017-02-08 12:26:58.998991+01 | 1486553218.99899 | 0/7D59B0A8               |            2103029928

 2017-02-08 12:27:00.277094+01 | 1486553220.27709 | 0/7DCAEA10               |            2110450192

 2017-02-08 12:27:01.43753+01 | 1486553221.43753 | 0/7E2F03A8               |            2117010344

 2017-02-08 12:27:02.657524+01 | 1486553222.65752 | 0/7E9A18B0               |            2124028080

 2017-02-08 12:27:03.9216+01 | 1486553223.9216 | 0/7F062890               |            2131110032

 2017-02-08 12:27:05.141064+01 | 1486553225.14106 | 0/7F711458               |            2138117208

 2017-02-08 12:27:06.350464+01 | 1486553226.35046 | 0/7FDBD510               |            2145113360

 2017-02-08 12:27:07.517726+01 | 1486553227.51773 | 0/803F4F78               |            2151632760

 2017-02-08 12:27:08.746903+01 | 1486553228.7469 | 0/80ABF430               |            2158752816

 2017-02-08 12:27:10.033954+01 | 1486553230.03395 | 0/811BBF20               |            2166079264

 2017-02-08 12:27:11.206497+01 | 1486553231.2065 | 0/8181C4C8               |            2172765384

 2017-02-08 12:27:12.361971+01 | 1486553232.36197 | 0/81E73B48               |            2179414856

 2017-02-08 12:27:13.531463+01 | 1486553233.53146 | 0/824FD6D8               |            2186270424

 2017-02-08 12:27:14.725353+01 | 1486553234.72535 | 0/82BBDB38               |            2193349432

 2017-02-08 12:27:16.009009+01 | 1486553236.00901 | 0/832C2760               |            2200708960

 2017-02-08 12:27:17.277542+01 | 1486553237.27754 | 0/839FC370               |            2208285552

 2017-02-08 12:27:18.498379+01 | 1486553238.49838 | 0/841DB128               |            2216538408

 2017-02-08 12:27:19.65752+01 | 1486553239.65752 | 0/8495A328               |            2224399144

 2017-02-08 12:27:20.867369+01 | 1486553240.86737 | 0/84FFFDB8               |            2231369144

 2017-02-08 12:27:22.076086+01 | 1486553242.07609 | 0/856A8E48               |            2238352968

 2017-02-08 12:27:23.298713+01 | 1486553243.29871 | 0/85D74048               |            2245476424

 2017-02-08 12:27:24.501061+01 | 1486553244.50106 | 0/863F2988               |            2252286344

 2017-02-08 12:27:25.679236+01 | 1486553245.67924 | 0/86B01DC0               |            2259688896

 2017-02-08 12:27:26.823251+01 | 1486553246.82325 | 0/8720A630               |            2267063856

 2017-02-08 12:27:28.05379+01 | 1486553248.05379 | 0/878EC538               |            2274280760

 2017-02-08 12:27:29.329191+01 | 1486553249.32919 | 0/8800CBB0               |            2281753520

 2017-02-08 12:27:30.563915+01 | 1486553250.56392 | 0/886C1228               |            2288783912

 2017-02-08 12:27:31.734505+01 | 1486553251.7345 | 0/88D24978               |            2295482744

 2017-02-08 12:27:32.991187+01 | 1486553252.99119 | 0/893FD340               |            2302661440

 2017-02-08 12:27:34.249678+01 | 1486553254.24968 | 0/89AEC9D0               |            2309933520

 2017-02-08 12:27:35.497139+01 | 1486553255.49714 | 0/8A193658               |            2316908120

 2017-02-08 12:27:36.741126+01 | 1486553256.74113 | 0/8A84E148               |            2323964232

 2017-02-08 12:27:37.913549+01 | 1486553257.91355 | 0/8AEB3F78               |            2330673016

 2017-02-08 12:27:39.115791+01 | 1486553259.11579 | 0/8B527420               |            2337436704

 2017-02-08 12:27:40.348874+01 | 1486553260.34887 | 0/8BBDBCC0               |            2344467648

 2017-02-08 12:27:41.562074+01 | 1486553261.56207 | 0/8C257178               |            2351264120

 2017-02-08 12:27:42.800327+01 | 1486553262.80033 | 0/8C92F480               |            2358441088

 2017-02-08 12:27:44.024168+01 | 1486553264.02417 | 0/8CFD9FB0               |            2365431728

 2017-02-08 12:27:45.102682+01 | 1486553265.10268 | 0/8D586890               |            2371381392

 2017-02-08 12:27:46.291898+01 | 1486553266.2919 | 0/8DC01118               |            2378174744

 2017-02-08 12:27:47.506381+01 | 1486553267.50638 | 0/8E294080               |            2385068160

 2017-02-08 12:27:48.659835+01 | 1486553268.65984 | 0/8E8CA728               |            2391582504

 2017-02-08 12:27:49.829688+01 | 1486553269.82969 | 0/8EF1D968               |            2398214504

 2017-02-08 12:27:50.991506+01 | 1486553270.99151 | 0/8F563608               |            2404791816

 2017-02-08 12:27:52.153919+01 | 1486553272.15392 | 0/8FBDB0B0               |            2411573424

 2017-02-08 12:27:53.364973+01 | 1486553273.36497 | 0/90259060               |            2418380896

 2017-02-08 12:27:54.559788+01 | 1486553274.55979 | 0/908D3E08               |            2425175560

 2017-02-08 12:27:55.74576+01 | 1486553275.74576 | 0/90F3E0B0               |            2431901872

 2017-02-08 12:27:56.917516+01 | 1486553276.91752 | 0/9158F378               |            2438525816

 2017-02-08 12:27:58.132721+01 | 1486553278.13272 | 0/91C33C30               |            2445491248

 2017-02-08 12:27:59.235152+01 | 1486553279.23515 | 0/92208950               |            2451605840

 2017-02-08 12:28:00.439144+01 | 1486553280.43914 | 0/928A2AB0               |            2458528432

 2017-02-08 12:28:01.645485+01 | 1486553281.64548 | 0/92F3D880               |            2465454208

 2017-02-08 12:28:02.811252+01 | 1486553282.81125 | 0/93570E60               |            2471956064

 2017-02-08 12:28:04.018557+01 | 1486553284.01856 | 0/93C0DDC0               |            2478890432

 2017-02-08 12:28:05.242935+01 | 1486553285.24293 | 0/942992A0               |            2485752480

 2017-02-08 12:28:06.413565+01 | 1486553286.41356 | 0/948FFAF0               |            2492463856

 2017-02-08 12:28:07.628088+01 | 1486553287.62809 | 0/94F93640               |            2499360320

 2017-02-08 12:28:08.757505+01 | 1486553288.7575 | 0/955A90E8               |            2505740520

 2017-02-08 12:28:09.936683+01 | 1486553289.93668 | 0/95C31FC8               |            2512592840

 2017-02-08 12:28:11.096968+01 | 1486553291.09697 | 0/96263838               |            2519087160

 2017-02-08 12:28:12.314866+01 | 1486553292.31487 | 0/96930D08               |            2526219528

 2017-02-08 12:28:13.523748+01 | 1486553293.52375 | 0/96FFFDD0               |            2533359056

 2017-02-08 12:28:14.644428+01 | 1486553294.64443 | 0/97648BF8               |            2539949048

 2017-02-08 12:28:15.812522+01 | 1486553295.81252 | 0/97CD0560               |            2546795872

 2017-02-08 12:28:17.057701+01 | 1486553297.0577 | 0/983A2850               |            2553948240

 2017-02-08 12:28:18.246773+01 | 1486553298.24677 | 0/98B245D0               |            2561820112

 2017-02-08 12:28:19.433267+01 | 1486553299.43327 | 0/992DFF40               |            2569928512

 2017-02-08 12:28:20.66948+01 | 1486553300.66948 | 0/999D3148               |            2577215816

 2017-02-08 12:28:21.900572+01 | 1486553301.90057 | 0/9A094B38               |            2584300344

 2017-02-08 12:28:23.102482+01 | 1486553303.10248 | 0/9A73CE10               |            2591280656

 2017-02-08 12:28:24.257167+01 | 1486553304.25717 | 0/9ADB3CA0               |            2598059168

 2017-02-08 12:28:25.42805+01 | 1486553305.42805 | 0/9B4D13C8               |            2605519816

 2017-02-08 12:28:26.701323+01 | 1486553306.70132 | 0/9BC778C8               |            2613541064

 2017-02-08 12:28:27.884717+01 | 1486553307.88472 | 0/9C344458               |            2620671064

 2017-02-08 12:28:29.132823+01 | 1486553309.13282 | 0/9CA12610               |            2627806736

 2017-02-08 12:28:30.305624+01 | 1486553310.30562 | 0/9D069010               |            2634453008

 2017-02-08 12:28:31.519203+01 | 1486553311.5192 | 0/9D716B48               |            2641455944

 2017-02-08 12:28:32.684905+01 | 1486553312.68491 | 0/9DD73F10               |            2648129296

 2017-02-08 12:28:33.952229+01 | 1486553313.95223 | 0/9E46CDF0               |            2655440368

 2017-02-08 12:28:35.131052+01 | 1486553315.13105 | 0/9EAEB258               |            2662249048

 2017-02-08 12:28:36.356245+01 | 1486553316.35625 | 0/9F177590               |            2669114768

 2017-02-08 12:28:37.617448+01 | 1486553317.61745 | 0/9F877AC8               |            2676456136

 2017-02-08 12:28:38.826165+01 | 1486553318.82616 | 0/9FF1C180               |            2683421056

 2017-02-08 12:28:40.022437+01 | 1486553320.02244 | 0/A058B5A0               |            2690168224

 2017-02-08 12:28:41.269134+01 | 1486553321.26913 | 0/A0C74FC0               |            2697416640

 2017-02-08 12:28:42.464004+01 | 1486553322.464 | 0/A12D9D30               |            2704121136

 2017-02-08 12:28:43.672692+01 | 1486553323.67269 | 0/A1956438               |            2710922296

 2017-02-08 12:28:44.862945+01 | 1486553324.86295 | 0/A1FDC660               |            2717763168

 2017-02-08 12:28:45.982088+01 | 1486553325.98209 | 0/A25E8F80               |            2724106112

 2017-02-08 12:28:47.177457+01 | 1486553327.17746 | 0/A2C68BA0               |            2730920864

 2017-02-08 12:28:48.366251+01 | 1486553328.36625 | 0/A32DE438               |            2737693752

 2017-02-08 12:28:49.608364+01 | 1486553329.60836 | 0/A3998318               |            2744746776

 2017-02-08 12:28:50.851169+01 | 1486553330.85117 | 0/A4047DF0               |            2751757808

 2017-02-08 12:28:52.050463+01 | 1486553332.05046 | 0/A46E0418               |            2758673432

 2017-02-08 12:28:53.219878+01 | 1486553333.21988 | 0/A4D417B0               |            2765363120

 2017-02-08 12:28:54.455162+01 | 1486553334.45516 | 0/A53EB640               |            2772350528

 2017-02-08 12:28:55.667602+01 | 1486553335.6676 | 0/A5A6D4F0               |            2779174128

 2017-02-08 12:28:56.888257+01 | 1486553336.88826 | 0/A60F80B8               |            2786033848

 2017-02-08 12:28:58.162066+01 | 1486553338.16207 | 0/A67F3D48               |            2793356616

 2017-02-08 12:28:59.410264+01 | 1486553339.41026 | 0/A6ED5E50               |            2800574032

 2017-02-08 12:29:00.566988+01 | 1486553340.56699 | 0/A74F77C8               |            2807003080

 2017-02-08 12:29:01.838876+01 | 1486553341.83888 | 0/A7BEC1B8               |            2814296504

 2017-02-08 12:29:03.01581+01 | 1486553343.01581 | 0/A820F1A8               |            2820731304

 2017-02-08 12:29:04.13913+01 | 1486553344.13913 | 0/A883E638               |            2827216440

 2017-02-08 12:29:05.381262+01 | 1486553345.38126 | 0/A8F0AD38               |            2834345272

 2017-02-08 12:29:06.583782+01 | 1486553346.58378 | 0/A9591320               |            2841187104

 2017-02-08 12:29:07.759814+01 | 1486553347.75981 | 0/A9BFC068               |            2847916136

 2017-02-08 12:29:08.983208+01 | 1486553348.98321 | 0/AA27DBF8               |            2854738936

 2017-02-08 12:29:10.153047+01 | 1486553350.15305 | 0/AA8DB608               |            2861413896

 2017-02-08 12:29:11.352334+01 | 1486553351.35233 | 0/AAF57698               |            2868213400

 2017-02-08 12:29:12.517886+01 | 1486553352.51789 | 0/AB5ABFC0               |            2874851264

 2017-02-08 12:29:13.676195+01 | 1486553353.67619 | 0/ABC1B5C8               |            2881598920

 2017-02-08 12:29:14.886948+01 | 1486553354.88695 | 0/AC2C44F8               |            2888582392

 2017-02-08 12:29:16.152966+01 | 1486553356.15297 | 0/AC9CFE70               |            2895969904

 2017-02-08 12:29:17.373868+01 | 1486553357.37387 | 0/AD0CDDE8               |            2903301608

 2017-02-08 12:29:18.5688+01 | 1486553358.5688 | 0/AD8A0738               |            2911504184

 2017-02-08 12:29:19.833995+01 | 1486553359.834 | 0/AE0B0970               |            2919958896

 2017-02-08 12:29:21.020989+01 | 1486553361.02099 | 0/AE74FEE0               |            2926903008

 2017-02-08 12:29:22.296617+01 | 1486553362.29662 | 0/AEE3FD68               |            2934177128

 2017-02-08 12:29:23.41742+01 | 1486553363.41742 | 0/AF43AE70               |            2940448368

 2017-02-08 12:29:24.630747+01 | 1486553364.63075 | 0/AFAFA9B0               |            2947525040

 2017-02-08 12:29:25.846338+01 | 1486553365.84634 | 0/B02743E8               |            2955363304

 2017-02-08 12:29:26.988498+01 | 1486553366.9885 | 0/B0925410               |            2962379792

 2017-02-08 12:29:28.162415+01 | 1486553368.16242 | 0/B0FEE300               |            2969494272

 2017-02-08 12:29:29.299943+01 | 1486553369.29994 | 0/B161DED0               |            2975981264

 2017-02-08 12:29:30.540771+01 | 1486553370.54077 | 0/B1CDF5C8               |            2983065032

 2017-02-08 12:29:31.726368+01 | 1486553371.72637 | 0/B234AC30               |            2989796400

 2017-02-08 12:29:32.947411+01 | 1486553372.94741 | 0/B2A00FF8               |            2996834296

 2017-02-08 12:29:34.147169+01 | 1486553374.14717 | 0/B3077500               |            3003610368

 2017-02-08 12:29:35.252317+01 | 1486553375.25232 | 0/B3684760               |            3009955680

 2017-02-08 12:29:36.543687+01 | 1486553376.54369 | 0/B3DAA128               |            3017449768

 2017-02-08 12:29:37.724245+01 | 1486553377.72425 | 0/B43FE330               |            3024085808

 2017-02-08 12:29:38.867294+01 | 1486553378.86729 | 0/B4A29DD8               |            3030556120

 2017-02-08 12:29:40.061717+01 | 1486553380.06172 | 0/B50A0BC8               |            3037334472

 2017-02-08 12:29:41.300498+01 | 1486553381.3005 | 0/B577FB70               |            3044539248

 2017-02-08 12:29:42.423233+01 | 1486553382.42323 | 0/B5DA16C8               |            3050968776

 2017-02-08 12:29:43.61091+01 | 1486553383.61091 | 0/B641FD20               |            3057777952

 2017-02-08 12:29:44.803653+01 | 1486553384.80365 | 0/B6A99810               |            3064567824

 2017-02-08 12:29:46.030558+01 | 1486553386.03056 | 0/B7116BF8               |            3071372280

 2017-02-08 12:29:47.225485+01 | 1486553387.22549 | 0/B77A9310               |            3078263568

 2017-02-08 12:29:48.417036+01 | 1486553388.41704 | 0/B7E31A08               |            3085113864

 2017-02-08 12:29:49.626877+01 | 1486553389.62688 | 0/B84BD300               |            3091976960

 2017-02-08 12:29:50.844794+01 | 1486553390.84479 | 0/B8B741D0               |            3099017680

 2017-02-08 12:29:52.206755+01 | 1486553392.20675 | 0/B92DDBC0               |            3106790336

 2017-02-08 12:29:53.467234+01 | 1486553393.46723 | 0/B99C3E10               |            3114024464

 2017-02-08 12:29:54.725506+01 | 1486553394.72551 | 0/BA0835F8               |            3121100280

 2017-02-08 12:29:55.881964+01 | 1486553395.88196 | 0/BA6D3FF0               |            3127721968

 2017-02-08 12:29:57.137595+01 | 1486553397.13759 | 0/BADABA78               |            3134896760

 2017-02-08 12:29:58.279637+01 | 1486553398.27964 | 0/BB3B5E98               |            3141230232

 2017-02-08 12:29:59.464528+01 | 1486553399.46453 | 0/BBA33890               |            3148036240

 2017-02-08 12:30:00.628663+01 | 1486553400.62866 | 0/BC07C6C0               |            3154626240

 2017-02-08 12:30:01.844934+01 | 1486553401.84493 | 0/BC6F8098               |            3161424024

 2017-02-08 12:30:03.059507+01 | 1486553403.05951 | 0/BCD96A78               |            3168365176

 2017-02-08 12:30:04.277869+01 | 1486553404.27787 | 0/BD41BD58               |            3175202136

 2017-02-08 12:30:05.446363+01 | 1486553405.44636 | 0/BDA81138               |            3181908280

 2017-02-08 12:30:06.718654+01 | 1486553406.71865 | 0/BE152CA0               |            3189058720

 2017-02-08 12:30:07.976753+01 | 1486553407.97675 | 0/BE846D08               |            3196349704

 2017-02-08 12:30:09.192713+01 | 1486553409.19271 | 0/BEEF92E0               |            3203371744

 2017-02-08 12:30:10.414836+01 | 1486553410.41484 | 0/BF5852B0               |            3210236592

 2017-02-08 12:30:11.625617+01 | 1486553411.62562 | 0/BFC313F8               |            3217232888

 2017-02-08 12:30:12.837303+01 | 1486553412.8373 | 0/C02E92C8               |            3224277704

 2017-02-08 12:30:14.05175+01 | 1486553414.05175 | 0/C09D53C0               |            3231536064

 2017-02-08 12:30:15.245497+01 | 1486553415.2455 | 0/C10593B8               |            3238368184

 2017-02-08 12:30:16.491053+01 | 1486553416.49105 | 0/C1772E80               |            3245813376

 2017-02-08 12:30:17.740659+01 | 1486553417.74066 | 0/C1EE01E0               |            3253600736

 2017-02-08 12:30:18.915963+01 | 1486553418.91596 | 0/C26AD838               |            3261782072

 2017-02-08 12:30:20.108731+01 | 1486553420.10873 | 0/C2DC97E8               |            3269236712

 2017-02-08 12:30:21.254151+01 | 1486553421.25415 | 0/C33D3090               |            3275567248

 2017-02-08 12:30:22.482049+01 | 1486553422.48205 | 0/C3A9D7D8               |            3282687960

 2017-02-08 12:30:23.673402+01 | 1486553423.6734 | 0/C4122B38               |            3289525048

 2017-02-08 12:30:24.906149+01 | 1486553424.90615 | 0/C4863BA0               |            3297131424

 2017-02-08 12:30:26.128138+01 | 1486553426.12814 | 0/C5021920               |            3305249056

 2017-02-08 12:30:27.304492+01 | 1486553427.30449 | 0/C56DBCC0               |            3312303296

 2017-02-08 12:30:28.401611+01 | 1486553428.40161 | 0/C5D4FB18               |            3319069464

 2017-02-08 12:30:29.578367+01 | 1486553429.57837 | 0/C63CBA60               |            3325868640

 2017-02-08 12:30:30.79003+01 | 1486553430.79003 | 0/C6AC2DA8               |            3333172648

 2017-02-08 12:30:31.967652+01 | 1486553431.96765 | 0/C712F8D0               |            3339909328

 2017-02-08 12:30:33.201742+01 | 1486553433.20174 | 0/C782A480               |            3347227776

 2017-02-08 12:30:34.349373+01 | 1486553434.34937 | 0/C7EA2300               |            3354010368

 2017-02-08 12:30:35.580529+01 | 1486553435.58053 | 0/C85963C0               |            3361301440

 2017-02-08 12:30:36.825113+01 | 1486553436.82511 | 0/C8C98FF8               |            3368652792

 2017-02-08 12:30:38.012453+01 | 1486553438.01245 | 0/C931ACA8               |            3375475880

 2017-02-08 12:30:39.18565+01 | 1486553439.18565 | 0/C99B73A0               |            3382408096

 2017-02-08 12:30:40.378017+01 | 1486553440.37802 | 0/CA039FA8               |            3389235112

 2017-02-08 12:30:41.575256+01 | 1486553441.57526 | 0/CA6FA0F8               |            3396313336

 2017-02-08 12:30:42.719194+01 | 1486553442.71919 | 0/CAD5F9C8               |            3403020744

 2017-02-08 12:30:43.891771+01 | 1486553443.89177 | 0/CB3DE4D0               |            3409831120

 2017-02-08 12:30:45.078344+01 | 1486553445.07834 | 0/CBAB0510               |            3416982800

 2017-02-08 12:30:46.243341+01 | 1486553446.24334 | 0/CC124C88               |            3423751304

 2017-02-08 12:30:47.470088+01 | 1486553447.47009 | 0/CC814210               |            3431023120

 2017-02-08 12:30:48.624759+01 | 1486553448.62476 | 0/CCE804F8               |            3437757688

 2017-02-08 12:30:49.807508+01 | 1486553449.80751 | 0/CD526568               |            3444729192

 2017-02-08 12:30:50.961675+01 | 1486553450.96167 | 0/CDB9CD78               |            3451506040

 2017-02-08 12:30:52.124215+01 | 1486553452.12421 | 0/CE1F5B20               |            3458161440

 2017-02-08 12:30:53.318277+01 | 1486553453.31828 | 0/CE8C5998               |            3465304472

 2017-02-08 12:30:54.463579+01 | 1486553454.46358 | 0/CEF4C2D8               |            3472147160

 2017-02-08 12:30:55.588434+01 | 1486553455.58843 | 0/CF580B08               |            3478653704

 2017-02-08 12:30:56.762726+01 | 1486553456.76273 | 0/CFC2AE40               |            3485642304

 2017-02-08 12:30:57.925884+01 | 1486553457.92588 | 0/D0291A90               |            3492354704

 2017-02-08 12:30:59.065579+01 | 1486553459.06558 | 0/D08EFD70               |            3499031920

 2017-02-08 12:31:00.354773+01 | 1486553460.35477 | 0/D100BA68               |            3506485864

 2017-02-08 12:31:01.463445+01 | 1486553461.46344 | 0/D1636078               |            3512950904

 2017-02-08 12:31:02.646763+01 | 1486553462.64676 | 0/D1CD45C0               |            3519890880

 2017-02-08 12:31:03.861351+01 | 1486553463.86135 | 0/D23959B0               |            3526973872

 2017-02-08 12:31:05.025653+01 | 1486553465.02565 | 0/D2A11CC8               |            3533774024

 2017-02-08 12:31:06.284549+01 | 1486553466.28455 | 0/D30F7680               |            3541005952

 2017-02-08 12:31:07.492397+01 | 1486553467.4924 | 0/D37CDDE8               |            3548175848

 2017-02-08 12:31:08.651373+01 | 1486553468.65137 | 0/D3E2E5B8               |            3554862520

 2017-02-08 12:31:09.915116+01 | 1486553469.91512 | 0/D4525CE0               |            3562167520

 2017-02-08 12:31:11.162483+01 | 1486553471.16248 | 0/D4C35368               |            3569570664

 2017-02-08 12:31:12.369924+01 | 1486553472.36992 | 0/D52E52B8               |            3576582840

 2017-02-08 12:31:13.473757+01 | 1486553473.47376 | 0/D5924D88               |            3583135112

 2017-02-08 12:31:14.633592+01 | 1486553474.63359 | 0/D5FB94B0               |            3590034608

 2017-02-08 12:31:15.723436+01 | 1486553475.72344 | 0/D65DA780               |            3596461952

 2017-02-08 12:31:16.920257+01 | 1486553476.92026 | 0/D6C7F378               |            3603428216

 2017-02-08 12:31:18.152771+01 | 1486553478.15277 | 0/D74134D8               |            3611374808

 2017-02-08 12:31:19.293957+01 | 1486553479.29396 | 0/D7BC8440               |            3619456064

 2017-02-08 12:31:20.454274+01 | 1486553480.45427 | 0/D8239540               |            3626210624

 2017-02-08 12:31:21.695711+01 | 1486553481.69571 | 0/D8933370               |            3633525616

 2017-02-08 12:31:22.871831+01 | 1486553482.87183 | 0/D8FC4130               |            3640410416

 2017-02-08 12:31:23.97303+01 | 1486553483.97303 | 0/D95D4D08               |            3646770440

 2017-02-08 12:31:25.239341+01 | 1486553485.23934 | 0/D9D93918               |            3654891800

 2017-02-08 12:31:26.428407+01 | 1486553486.42841 | 0/DA4C7B58               |            3662445400

 2017-02-08 12:31:27.571834+01 | 1486553487.57183 | 0/DAB79D38               |            3669466424

 2017-02-08 12:31:28.894302+01 | 1486553488.8943 | 0/DB30E4A0               |            3677414560

 2017-02-08 12:31:30.082214+01 | 1486553490.08221 | 0/DB9F0A18               |            3684633112

 2017-02-08 12:31:31.317583+01 | 1486553491.31758 | 0/DC0BBE78               |            3691757176

 2017-02-08 12:31:32.46955+01 | 1486553492.46955 | 0/DC72D290               |            3698512528

 2017-02-08 12:31:33.639229+01 | 1486553493.63923 | 0/DCDC9E50               |            3705445968

 2017-02-08 12:31:34.889938+01 | 1486553494.88994 | 0/DD491570               |            3712554352

 2017-02-08 12:31:36.13232+01 | 1486553496.13232 | 0/DDB4E298               |            3719619224

 2017-02-08 12:31:37.33297+01 | 1486553497.33297 | 0/DE202390               |            3726648208

 2017-02-08 12:31:38.502674+01 | 1486553498.50267 | 0/DE8964F0               |            3733546224

 2017-02-08 12:31:39.659211+01 | 1486553499.65921 | 0/DEF0D250               |            3740324432

 2017-02-08 12:31:40.816788+01 | 1486553500.81679 | 0/DF584E20               |            3747106336

 2017-02-08 12:31:41.972578+01 | 1486553501.97258 | 0/DFBF3930               |            3753851184

 2017-02-08 12:31:43.202214+01 | 1486553503.20221 | 0/E02C1708               |            3760985864

 2017-02-08 12:31:44.357156+01 | 1486553504.35716 | 0/E0950B98               |            3767864216

 2017-02-08 12:31:45.549866+01 | 1486553505.54987 | 0/E0FFFC90               |            3774872720

 2017-02-08 12:31:46.782158+01 | 1486553506.78216 | 0/E16F7D70               |            3782180208

 2017-02-08 12:31:48.047754+01 | 1486553508.04775 | 0/E1E121D8               |            3789627864

 2017-02-08 12:31:49.30241+01 | 1486553509.30241 | 0/E24F1238               |            3796832824

 2017-02-08 12:31:50.502559+01 | 1486553510.50256 | 0/E2BA7388               |            3803870088

 2017-02-08 12:31:51.709528+01 | 1486553511.70953 | 0/E323C280               |            3810771584

 2017-02-08 12:31:52.888207+01 | 1486553512.88821 | 0/E390E398               |            3817923480

 2017-02-08 12:31:54.069653+01 | 1486553514.06965 | 0/E3FC0038               |            3824943160

 2017-02-08 12:31:55.157473+01 | 1486553515.15747 | 0/E45B7E58               |            3831201368

 2017-02-08 12:31:56.329535+01 | 1486553516.32954 | 0/E4C5FA10               |            3838179856

 2017-02-08 12:31:57.579252+01 | 1486553517.57925 | 0/E534B360               |            3845436256

 2017-02-08 12:31:58.773668+01 | 1486553518.77367 | 0/E5A1DC30               |            3852590128

 2017-02-08 12:31:59.875092+01 | 1486553519.87509 | 0/E602CA20               |            3858942496

 2017-02-08 12:32:01.114208+01 | 1486553521.11421 | 0/E67267B0               |            3866257328

 2017-02-08 12:32:02.376412+01 | 1486553522.37641 | 0/E6E58B48               |            3873803080

 2017-02-08 12:32:03.543482+01 | 1486553523.54348 | 0/E74C6490               |            3880543376

 2017-02-08 12:32:04.756156+01 | 1486553524.75616 | 0/E7B929D0               |            3887671760

 2017-02-08 12:32:05.96156+01 | 1486553525.96156 | 0/E8242038               |            3894681656

 2017-02-08 12:32:07.164182+01 | 1486553527.16418 | 0/E8910478               |            3901817976

 2017-02-08 12:32:08.368943+01 | 1486553528.36894 | 0/E8FE5F70               |            3908984688

 2017-02-08 12:32:09.471593+01 | 1486553529.47159 | 0/E95E4BB8               |            3915271096

 2017-02-08 12:32:10.674475+01 | 1486553530.67447 | 0/E9CB4DE0               |            3922415072

 2017-02-08 12:32:11.826416+01 | 1486553531.82642 | 0/EA310280               |            3929080448

 2017-02-08 12:32:13.057983+01 | 1486553533.05798 | 0/EAA09A68               |            3936393832

 2017-02-08 12:32:14.250541+01 | 1486553534.25054 | 0/EB0A0968               |            3943303528

 2017-02-08 12:32:15.412272+01 | 1486553535.41227 | 0/EB723B20               |            3950132000

 2017-02-08 12:32:16.599092+01 | 1486553536.59909 | 0/EBDD8BF0               |            3957165040

 2017-02-08 12:32:17.86632+01 | 1486553537.86632 | 0/EC53D648               |            3964917320

 2017-02-08 12:32:19.04874+01 | 1486553539.04874 | 0/ECD37B60               |            3973282656

 2017-02-08 12:32:20.173266+01 | 1486553540.17327 | 0/ED43EBD0               |            3980651472

 2017-02-08 12:32:21.34562+01 | 1486553541.34562 | 0/EDAA6140               |            3987366208

 2017-02-08 12:32:22.529173+01 | 1486553542.52917 | 0/EE10AFF0               |            3994071024

 2017-02-08 12:32:23.685782+01 | 1486553543.68578 | 0/EE7C8FA8               |            4001140648

 2017-02-08 12:32:24.799333+01 | 1486553544.79933 | 0/EEF1AE38               |            4008816184

 2017-02-08 12:32:25.990781+01 | 1486553545.99078 | 0/EF5E6330               |            4015940400

 2017-02-08 12:32:27.251254+01 | 1486553547.25125 | 0/EFD28FE8               |            4023554024

 2017-02-08 12:32:28.5561+01 | 1486553548.5561 | 0/F047F6C8               |            4031248072

 2017-02-08 12:32:29.755472+01 | 1486553549.75547 | 0/F0B6DBD8               |            4038515672

 2017-02-08 12:32:30.891942+01 | 1486553550.89194 | 0/F11D1470               |            4045214832

 2017-02-08 12:32:32.062954+01 | 1486553552.06295 | 0/F184E6E8               |            4052018920

 2017-02-08 12:32:33.21541+01 | 1486553553.21541 | 0/F1ECBB98               |            4058823576

 2017-02-08 12:32:34.439079+01 | 1486553554.43908 | 0/F258E460               |            4065911904

 2017-02-08 12:32:35.601843+01 | 1486553555.60184 | 0/F2C21580               |            4072805760

 2017-02-08 12:32:36.801259+01 | 1486553556.80126 | 0/F32B14B8               |            4079686840

 2017-02-08 12:32:38.036888+01 | 1486553558.03689 | 0/F39BBF10               |            4087070480

 2017-02-08 12:32:39.219967+01 | 1486553559.21997 | 0/F4038050               |            4093870160

 2017-02-08 12:32:40.454406+01 | 1486553560.45441 | 0/F4716980               |            4101073280

 2017-02-08 12:32:41.659822+01 | 1486553561.65982 | 0/F4DF0130               |            4108255536

 2017-02-08 12:32:42.822856+01 | 1486553562.82286 | 0/F5465570               |            4115027312

 2017-02-08 12:32:43.960322+01 | 1486553563.96032 | 0/F5AD40E8               |            4121772264

 2017-02-08 12:32:45.144839+01 | 1486553565.14484 | 0/F6153030               |            4128583728

 2017-02-08 12:32:46.408414+01 | 1486553566.40841 | 0/F6851110               |            4135915792

 2017-02-08 12:32:47.635781+01 | 1486553567.63578 | 0/F6F53AA8               |            4143266472

 2017-02-08 12:32:48.787034+01 | 1486553568.78703 | 0/F75BB348               |            4149982024

 2017-02-08 12:32:49.989473+01 | 1486553569.98947 | 0/F7C808D8               |            4157081816

 2017-02-08 12:32:51.231609+01 | 1486553571.23161 | 0/F83841E8               |            4164436456

