 2017-02-10 16:32:11.108346+01 | 1486740731.10835 | 1/A11299B8               |            6997318072

 2017-02-10 16:32:12.17765+01 | 1486740732.17765 | 1/A6DA3240               |            7094284864

 2017-02-10 16:32:13.250995+01 | 1486740733.25099 | 1/AA66AAF0               |            7153822448

 2017-02-10 16:32:14.341498+01 | 1486740734.3415 | 1/ACD32630               |            7194486320

 2017-02-10 16:32:15.458409+01 | 1486740735.45841 | 1/AEB3EDC0               |            7225994688

 2017-02-10 16:32:16.552417+01 | 1486740736.55242 | 1/B02439D0               |            7250131408

 2017-02-10 16:32:17.630236+01 | 1486740737.63024 | 1/B15D1950               |            7270635856

 2017-02-10 16:32:18.713099+01 | 1486740738.7131 | 1/B2703000               |            7288664064

 2017-02-10 16:32:19.795401+01 | 1486740739.7954 | 1/B3667358               |            7304803160

 2017-02-10 16:32:20.875102+01 | 1486740740.8751 | 1/B45AF290               |            7320826512

 2017-02-10 16:32:21.966787+01 | 1486740741.96679 | 1/B52F36F0               |            7334737648

 2017-02-10 16:32:23.052575+01 | 1486740743.05258 | 1/B5FB8A00               |            7348128256

 2017-02-10 16:32:24.157907+01 | 1486740744.15791 | 1/B6C54E80               |            7361351296

 2017-02-10 16:32:25.253799+01 | 1486740745.2538 | 1/B77C03E0               |            7373325280

 2017-02-10 16:32:26.335554+01 | 1486740746.33555 | 1/B82E6358               |            7385015128

 2017-02-10 16:32:27.426008+01 | 1486740747.42601 | 1/B8D7BF48               |            7396114248

 2017-02-10 16:32:28.520836+01 | 1486740748.52084 | 1/B9710C70               |            7406161008

 2017-02-10 16:32:29.584409+01 | 1486740749.58441 | 1/BA0EDB10               |            7416503056

 2017-02-10 16:32:30.657256+01 | 1486740750.65726 | 1/BAD0A000               |            7429201920

 2017-02-10 16:32:31.746739+01 | 1486740751.74674 | 1/BC24E1B0               |            7451500976

 2017-02-10 16:32:32.818192+01 | 1486740752.81819 | 1/BD809970               |            7474289008

 2017-02-10 16:32:33.907177+01 | 1486740753.90718 | 1/BED33388               |            7496479624

 2017-02-10 16:32:34.988042+01 | 1486740754.98804 | 1/BFF569B8               |            7515498936

 2017-02-10 16:32:36.067384+01 | 1486740756.06738 | 1/C09DEB90               |            7526542224

 2017-02-10 16:32:37.162565+01 | 1486740757.16256 | 1/C19BA9E0               |            7543171552

 2017-02-10 16:32:38.248331+01 | 1486740758.24833 | 1/C2264F78               |            7552257912

 2017-02-10 16:32:39.315675+01 | 1486740759.31568 | 1/C2B2B648               |            7561459272

 2017-02-10 16:32:40.392648+01 | 1486740760.39265 | 1/C32C10F8               |            7569412344

 2017-02-10 16:32:41.464388+01 | 1486740761.46439 | 1/C391BAF8               |            7576075000

 2017-02-10 16:32:42.56731+01 | 1486740762.56731 | 1/C3F5C5F0               |            7582631408

 2017-02-10 16:32:43.65056+01 | 1486740763.65056 | 1/C4557028               |            7588900904

 2017-02-10 16:32:44.738881+01 | 1486740764.73888 | 1/C4B8DD38               |            7595416888

 2017-02-10 16:32:45.818877+01 | 1486740765.81888 | 1/C51AC650               |            7601833552

 2017-02-10 16:32:46.912397+01 | 1486740766.9124 | 1/C57C3468               |            7608218728

 2017-02-10 16:32:47.998306+01 | 1486740767.99831 | 1/C5DEA920               |            7614671136

 2017-02-10 16:32:49.065116+01 | 1486740769.06512 | 1/C63B4C80               |            7620742272

 2017-02-10 16:32:50.138547+01 | 1486740770.13855 | 1/C69C2088               |            7627088008

 2017-02-10 16:32:51.204456+01 | 1486740771.20446 | 1/C6FCF260               |            7633433184

 2017-02-10 16:32:52.280244+01 | 1486740772.28024 | 1/C75D4578               |            7639745912

 2017-02-10 16:32:53.366803+01 | 1486740773.3668 | 1/C7BEAE90               |            7646129808

 2017-02-10 16:32:54.448238+01 | 1486740774.44824 | 1/C81DB560               |            7652357472

 2017-02-10 16:32:55.52251+01 | 1486740775.52251 | 1/C87E77D0               |            7658698704

 2017-02-10 16:32:56.606306+01 | 1486740776.60631 | 1/C8DEE680               |            7665018496

 2017-02-10 16:32:57.666056+01 | 1486740777.66606 | 1/C93E2738               |            7671260984

 2017-02-10 16:32:58.754546+01 | 1486740778.75455 | 1/C9A031F0               |            7677686256

 2017-02-10 16:32:59.858267+01 | 1486740779.85827 | 1/CA00CFA0               |            7684018080

 2017-02-10 16:33:00.947768+01 | 1486740780.94777 | 1/CA5D0708               |            7690061576

 2017-02-10 16:33:02.011316+01 | 1486740782.01132 | 1/CABA9A30               |            7696194096

 2017-02-10 16:33:03.080051+01 | 1486740783.08005 | 1/CB16EE00               |            7702244864

 2017-02-10 16:33:04.184539+01 | 1486740784.18454 | 1/CB78C7E0               |            7708657632

 2017-02-10 16:33:05.266921+01 | 1486740785.26692 | 1/CBDA3A78               |            7715043960

 2017-02-10 16:33:06.348024+01 | 1486740786.34802 | 1/CC376990               |            7721150864

 2017-02-10 16:33:07.424197+01 | 1486740787.4242 | 1/CC9375A0               |            7727183264

 2017-02-10 16:33:08.491724+01 | 1486740788.49172 | 1/CCEFA238               |            7733223992

 2017-02-10 16:33:09.584601+01 | 1486740789.5846 | 1/CD4E8050               |            7739441232

 2017-02-10 16:33:10.672766+01 | 1486740790.67277 | 1/CDAB67A8               |            7745529768

 2017-02-10 16:33:11.763064+01 | 1486740791.76306 | 1/CE080A88               |            7751600776

 2017-02-10 16:33:12.823801+01 | 1486740792.8238 | 1/CE5D3FB0               |            7757184944

 2017-02-10 16:33:13.904961+01 | 1486740793.90496 | 1/CEBC26D8               |            7763404504

 2017-02-10 16:33:14.983845+01 | 1486740794.98384 | 1/CF18A530               |            7769466160

 2017-02-10 16:33:16.071411+01 | 1486740796.07141 | 1/CF773730               |            7775663920

 2017-02-10 16:33:17.153866+01 | 1486740797.15387 | 1/CFD117C8               |            7781554120

 2017-02-10 16:33:18.233723+01 | 1486740798.23372 | 1/D02CB2A8               |            7787557544

 2017-02-10 16:33:19.323307+01 | 1486740799.32331 | 1/D089E0B8               |            7793664184

 2017-02-10 16:33:20.411135+01 | 1486740800.41113 | 1/D0E73570               |            7799780720

 2017-02-10 16:33:21.510576+01 | 1486740801.51058 | 1/D146A458               |            7806035032

 2017-02-10 16:33:22.603829+01 | 1486740802.60383 | 1/D1A64060               |            7812300896

 2017-02-10 16:33:23.682696+01 | 1486740803.6827 | 1/D1FDAB80               |            7818029952

 2017-02-10 16:33:24.753866+01 | 1486740804.75387 | 1/D256FD80               |            7823883648

 2017-02-10 16:33:25.832703+01 | 1486740805.8327 | 1/D2B25C60               |            7829871712

 2017-02-10 16:33:26.920596+01 | 1486740806.9206 | 1/D30D76D8               |            7835842264

 2017-02-10 16:33:28.016761+01 | 1486740808.01676 | 1/D36A44F8               |            7841924344

 2017-02-10 16:33:29.09211+01 | 1486740809.09211 | 1/D3C24290               |            7847690896

 2017-02-10 16:33:30.196617+01 | 1486740810.19662 | 1/D42A2698               |            7854499480

 2017-02-10 16:33:31.289381+01 | 1486740811.28938 | 1/D49D5C70               |            7862049904

 2017-02-10 16:33:32.357819+01 | 1486740812.35782 | 1/D50194A0               |            7868617888

 2017-02-10 16:33:33.433983+01 | 1486740813.43398 | 1/D55A9A00               |            7874451968

 2017-02-10 16:33:34.510141+01 | 1486740814.51014 | 1/D5B67D98               |            7880474008

 2017-02-10 16:33:35.613256+01 | 1486740815.61326 | 1/D61C9C08               |            7887166472

 2017-02-10 16:33:36.70202+01 | 1486740816.70202 | 1/D68D8C18               |            7894567960

 2017-02-10 16:33:37.84462+01 | 1486740817.84462 | 1/D6EDBFC8               |            7900872648

 2017-02-10 16:33:38.934372+01 | 1486740818.93437 | 1/D746B838               |            7906703416

 2017-02-10 16:33:40.036512+01 | 1486740820.03651 | 1/D7A07CF0               |            7912586480

 2017-02-10 16:33:41.126538+01 | 1486740821.12654 | 1/D7F88510               |            7918355728

 2017-02-10 16:33:42.219207+01 | 1486740822.21921 | 1/D85390C0               |            7924322496

 2017-02-10 16:33:43.290098+01 | 1486740823.2901 | 1/D8AD6518               |            7930209560

 2017-02-10 16:33:44.347487+01 | 1486740824.34749 | 1/D9022420               |            7935763488

 2017-02-10 16:33:45.437012+01 | 1486740825.43701 | 1/D95C74C8               |            7941682376

 2017-02-10 16:33:46.5232+01 | 1486740826.5232 | 1/D9B600C0               |            7947550912

 2017-02-10 16:33:47.596656+01 | 1486740827.59666 | 1/DA0FC1C8               |            7953433032

 2017-02-10 16:33:48.68122+01 | 1486740828.68122 | 1/DA6ABE70               |            7959395952

 2017-02-10 16:33:49.76382+01 | 1486740829.76382 | 1/DAC61488               |            7965381768

 2017-02-10 16:33:50.857185+01 | 1486740830.85718 | 1/DB1EF910               |            7971207440

 2017-02-10 16:33:51.928995+01 | 1486740831.92899 | 1/DB75E288               |            7976905648

 2017-02-10 16:33:53.009104+01 | 1486740833.0091 | 1/DBCEEB40               |            7982738240

 2017-02-10 16:33:54.100412+01 | 1486740834.10041 | 1/DC278798               |            7988545432

 2017-02-10 16:33:55.195444+01 | 1486740835.19544 | 1/DC818E50               |            7994445392

 2017-02-10 16:33:56.266234+01 | 1486740836.26623 | 1/DCD8EFA8               |            8000171944

 2017-02-10 16:33:57.348892+01 | 1486740837.34889 | 1/DD30D040               |            8005931072

 2017-02-10 16:33:58.450267+01 | 1486740838.45027 | 1/DD8C4C68               |            8011926632

 2017-02-10 16:33:59.560423+01 | 1486740839.56042 | 1/DDE7A2D0               |            8017912528

 2017-02-10 16:34:00.652191+01 | 1486740840.65219 | 1/DE4552F8               |            8024052472

 2017-02-10 16:34:01.731877+01 | 1486740841.73188 | 1/DE9E2AD0               |            8029874896

 2017-02-10 16:34:02.8346+01 | 1486740842.8346 | 1/DEF3D168               |            8035488104

 2017-02-10 16:34:03.907947+01 | 1486740843.90795 | 1/DF488FB0               |            8041041840

 2017-02-10 16:34:05.00906+01 | 1486740845.00906 | 1/DFA260D0               |            8046928080

 2017-02-10 16:34:06.087046+01 | 1486740846.08705 | 1/DFFAB858               |            8052717656

 2017-02-10 16:34:07.175136+01 | 1486740847.17514 | 1/E053BFC0               |            8058552256

 2017-02-10 16:34:08.248412+01 | 1486740848.24841 | 1/E0AA9390               |            8064242576

 2017-02-10 16:34:09.326966+01 | 1486740849.32697 | 1/E10075A8               |            8069871016

 2017-02-10 16:34:10.402252+01 | 1486740850.40225 | 1/E1552050               |            8075419728

 2017-02-10 16:34:11.476139+01 | 1486740851.47614 | 1/E1AC2F20               |            8081125152

 2017-02-10 16:34:12.545334+01 | 1486740852.54533 | 1/E201E108               |            8086741256

 2017-02-10 16:34:13.629062+01 | 1486740853.62906 | 1/E257C4A0               |            8092370080

 2017-02-10 16:34:14.717131+01 | 1486740854.71713 | 1/E2AD15B0               |            8097961392

 2017-02-10 16:34:15.810317+01 | 1486740855.81032 | 1/E3075D88               |            8103878024

 2017-02-10 16:34:16.88947+01 | 1486740856.88947 | 1/E35E47D8               |            8109574104

 2017-02-10 16:34:17.971367+01 | 1486740857.97137 | 1/E3B68800               |            8115357696

 2017-02-10 16:34:19.06388+01 | 1486740859.06388 | 1/E40E5588               |            8121111944

 2017-02-10 16:34:20.140331+01 | 1486740860.14033 | 1/E4652690               |            8126801552

 2017-02-10 16:34:21.21841+01 | 1486740861.21841 | 1/E4BD3238               |            8132571704

 2017-02-10 16:34:22.304066+01 | 1486740862.30407 | 1/E51738C8               |            8138471624

 2017-02-10 16:34:23.396843+01 | 1486740863.39684 | 1/E56E7120               |            8144187680

 2017-02-10 16:34:24.486466+01 | 1486740864.48647 | 1/E5C66A30               |            8149953072

 2017-02-10 16:34:25.566774+01 | 1486740865.56677 | 1/E61E5D58               |            8155716952

 2017-02-10 16:34:26.640097+01 | 1486740866.6401 | 1/E674B3A8               |            8161375144

 2017-02-10 16:34:27.750838+01 | 1486740867.75084 | 1/E6D06380               |            8167383936

 2017-02-10 16:34:28.860878+01 | 1486740868.86088 | 1/E7286978               |            8173152632

 2017-02-10 16:34:29.948662+01 | 1486740869.94866 | 1/E7870D80               |            8179355008

 2017-02-10 16:34:31.040251+01 | 1486740871.04025 | 1/E7F8F1C0               |            8186819008

 2017-02-10 16:34:32.119018+01 | 1486740872.11902 | 1/E8605508               |            8193594632

 2017-02-10 16:34:33.197256+01 | 1486740873.19726 | 1/E8B3C668               |            8199063144

 2017-02-10 16:34:34.276275+01 | 1486740874.27627 | 1/E90D0C98               |            8204913816

 2017-02-10 16:34:35.364821+01 | 1486740875.36482 | 1/E96587B0               |            8210712496

 2017-02-10 16:34:36.443922+01 | 1486740876.44392 | 1/E9CD8968               |            8217528680

 2017-02-10 16:34:37.515745+01 | 1486740877.51574 | 1/EA244598               |            8223212952

 2017-02-10 16:34:38.597145+01 | 1486740878.59715 | 1/EA7B7658               |            8228927064

 2017-02-10 16:34:39.695376+01 | 1486740879.69538 | 1/EAD32C40               |            8234675264

 2017-02-10 16:34:40.778445+01 | 1486740880.77845 | 1/EB2B1628               |            8240436776

 2017-02-10 16:34:41.864548+01 | 1486740881.86455 | 1/EB8061C8               |            8246026696

 2017-02-10 16:34:42.949851+01 | 1486740882.94985 | 1/EBD96A48               |            8251861576

 2017-02-10 16:34:44.066296+01 | 1486740884.0663 | 1/EC357858               |            8257894488

 2017-02-10 16:34:45.146357+01 | 1486740885.14636 | 1/EC8BB230               |            8263545392

 2017-02-10 16:34:46.243372+01 | 1486740886.24337 | 1/ECE3BAB8               |            8269314744

 2017-02-10 16:34:47.339404+01 | 1486740887.3394 | 1/ED393078               |            8274915448

 2017-02-10 16:34:48.434829+01 | 1486740888.43483 | 1/ED9141E8               |            8280687080

 2017-02-10 16:34:49.53379+01 | 1486740889.53379 | 1/EDEC87E8               |            8286668776

 2017-02-10 16:34:50.613071+01 | 1486740890.61307 | 1/EE442178               |            8292409720

 2017-02-10 16:34:51.689888+01 | 1486740891.68989 | 1/EE9AA760               |            8298080096

 2017-02-10 16:34:52.762169+01 | 1486740892.76217 | 1/EEEE8608               |            8303576584

 2017-02-10 16:34:53.854251+01 | 1486740893.85425 | 1/EF42DC28               |            8309103656

 2017-02-10 16:34:54.928497+01 | 1486740894.9285 | 1/EF97CCE8               |            8314670312

 2017-02-10 16:34:56.010317+01 | 1486740896.01032 | 1/EFEC83F0               |            8320222192

 2017-02-10 16:34:57.090363+01 | 1486740897.09036 | 1/F0433D28               |            8325905704

 2017-02-10 16:34:58.176063+01 | 1486740898.17606 | 1/F0987440               |            8331490368

 2017-02-10 16:34:59.262775+01 | 1486740899.26277 | 1/F0EF1708               |            8337168136

 2017-02-10 16:35:00.350586+01 | 1486740900.35059 | 1/F1448868               |            8342767720

 2017-02-10 16:35:01.420827+01 | 1486740901.42083 | 1/F19A8940               |            8348404032

 2017-02-10 16:35:02.509366+01 | 1486740902.50937 | 1/F1F1D3F8               |            8354124792

 2017-02-10 16:35:03.590275+01 | 1486740903.59028 | 1/F247DF08               |            8359763720

 2017-02-10 16:35:04.675205+01 | 1486740904.6752 | 1/F29D5C20               |            8365366304

 2017-02-10 16:35:05.741567+01 | 1486740905.74157 | 1/F2F09BB0               |            8370822064

 2017-02-10 16:35:06.816283+01 | 1486740906.81628 | 1/F345B1C0               |            8376398272

 2017-02-10 16:35:07.89153+01 | 1486740907.89153 | 1/F39CF938               |            8382118200

 2017-02-10 16:35:08.976651+01 | 1486740908.97665 | 1/F3F2CD70               |            8387743088

 2017-02-10 16:35:10.05436+01 | 1486740910.05436 | 1/F44896F8               |            8393365240

 2017-02-10 16:35:11.130062+01 | 1486740911.13006 | 1/F49E02B8               |            8398963384

 2017-02-10 16:35:12.220184+01 | 1486740912.22018 | 1/F4F3BF20               |            8404582176

 2017-02-10 16:35:13.3044+01 | 1486740913.3044 | 1/F5483308               |            8410116872

 2017-02-10 16:35:14.402357+01 | 1486740914.40236 | 1/F59FCAB0               |            8415857328

 2017-02-10 16:35:15.468636+01 | 1486740915.46864 | 1/F5F0E048               |            8421171272

 2017-02-10 16:35:16.542362+01 | 1486740916.54236 | 1/F644C740               |            8426669888

 2017-02-10 16:35:17.617338+01 | 1486740917.61734 | 1/F6997018               |            8432218136

 2017-02-10 16:35:18.698203+01 | 1486740918.6982 | 1/F6ED7E88               |            8437726856

 2017-02-10 16:35:19.778563+01 | 1486740919.77856 | 1/F740AEA0               |            8443178656

 2017-02-10 16:35:20.851298+01 | 1486740920.8513 | 1/F7952CB0               |            8448715952

 2017-02-10 16:35:21.944804+01 | 1486740921.9448 | 1/F7E928B0               |            8454219952

 2017-02-10 16:35:23.02095+01 | 1486740923.02095 | 1/F83B8380               |            8459617152

 2017-02-10 16:35:24.09567+01 | 1486740924.09567 | 1/F8905290               |            8465175184

 2017-02-10 16:35:25.171648+01 | 1486740925.17165 | 1/F8E6A3D0               |            8470832080

 2017-02-10 16:35:26.264965+01 | 1486740926.26497 | 1/F93C5FF0               |            8476450800

 2017-02-10 16:35:27.35024+01 | 1486740927.35024 | 1/F9908CC0               |            8481967296

 2017-02-10 16:35:28.412766+01 | 1486740928.41277 | 1/F9E2BC78               |            8487353464

 2017-02-10 16:35:29.482585+01 | 1486740929.48258 | 1/FA37ABF0               |            8492919792

 2017-02-10 16:35:30.575714+01 | 1486740930.57571 | 1/FAA223A0               |            8499897248

 2017-02-10 16:35:31.668515+01 | 1486740931.66851 | 1/FB0F61D8               |            8507056600

 2017-02-10 16:35:32.769265+01 | 1486740932.76926 | 1/FB697AB0               |            8512961200

 2017-02-10 16:35:33.859749+01 | 1486740933.85975 | 1/FBBB3E80               |            8518319744

 2017-02-10 16:35:34.954257+01 | 1486740934.95426 | 1/FC186478               |            8524424312

 2017-02-10 16:35:36.050173+01 | 1486740936.05017 | 1/FC7F88A8               |            8531183784

 2017-02-10 16:35:37.16226+01 | 1486740937.16226 | 1/FCD9B7D0               |            8537094096

 2017-02-10 16:35:38.223361+01 | 1486740938.22336 | 1/FD2CFD30               |            8542551344

 2017-02-10 16:35:39.306706+01 | 1486740939.30671 | 1/FD819900               |            8548096256

 2017-02-10 16:35:40.396572+01 | 1486740940.39657 | 1/FDD63BA0               |            8553642912

 2017-02-10 16:35:41.46752+01 | 1486740941.46752 | 1/FE297F90               |            8559099792

 2017-02-10 16:35:42.559082+01 | 1486740942.55908 | 1/FE8085C0               |            8564803008

 2017-02-10 16:35:43.654416+01 | 1486740943.65442 | 1/FED6E4B8               |            8570463416

 2017-02-10 16:35:44.725512+01 | 1486740944.72551 | 1/FF2C1EC0               |            8576048832

 2017-02-10 16:35:45.811475+01 | 1486740945.81148 | 1/FF7F1EC8               |            8581488328

 2017-02-10 16:35:46.878123+01 | 1486740946.87812 | 1/FFCF14C8               |            8586728648

 2017-02-10 16:35:47.962689+01 | 1486740947.96269 | 2/248320                 |            8592327456

 2017-02-10 16:35:49.060536+01 | 1486740949.06054 | 2/79DA20                 |            8597920288

 2017-02-10 16:35:50.132003+01 | 1486740950.132 | 2/D080D0                 |            8603599056

 2017-02-10 16:35:51.193788+01 | 1486740951.19379 | 2/12150D8                |            8608895192

 2017-02-10 16:35:52.296532+01 | 1486740952.29653 | 2/17637C0                |            8614459328

 2017-02-10 16:35:53.378703+01 | 1486740953.3787 | 2/1CA3320                |            8619963168

 2017-02-10 16:35:54.443591+01 | 1486740954.44359 | 2/21DEEF8                |            8625450744

 2017-02-10 16:35:55.530185+01 | 1486740955.53018 | 2/2718A28                |            8630929960

 2017-02-10 16:35:56.594725+01 | 1486740956.59472 | 2/2C58A80                |            8636435072

 2017-02-10 16:35:57.673218+01 | 1486740957.67322 | 2/31872A0                |            8641868448

 2017-02-10 16:35:58.762021+01 | 1486740958.76202 | 2/36E7AF8                |            8647506680

 2017-02-10 16:35:59.84597+01 | 1486740959.84597 | 2/3C34E48                |            8653065800

 2017-02-10 16:36:00.936523+01 | 1486740960.93652 | 2/41A3CC8                |            8658762952

 2017-02-10 16:36:02.035719+01 | 1486740962.03572 | 2/4712F28                |            8664461096

 2017-02-10 16:36:03.112809+01 | 1486740963.11281 | 2/4C43D08                |            8669904136

 2017-02-10 16:36:04.200473+01 | 1486740964.20047 | 2/51825E8                |            8675403240

 2017-02-10 16:36:05.286359+01 | 1486740965.28636 | 2/56CA4E8                |            8680940776

 2017-02-10 16:36:06.380408+01 | 1486740966.38041 | 2/5C16430                |            8686494768

 2017-02-10 16:36:07.449251+01 | 1486740967.44925 | 2/6138560                |            8691877216

 2017-02-10 16:36:08.557162+01 | 1486740968.55716 | 2/6683A38                |            8697428536

 2017-02-10 16:36:09.641836+01 | 1486740969.64184 | 2/6BC18A0                |            8702924960

 2017-02-10 16:36:10.739428+01 | 1486740970.73943 | 2/712C5F0                |            8708605424

 2017-02-10 16:36:11.815557+01 | 1486740971.81556 | 2/768CDF0                |            8714243568

 2017-02-10 16:36:12.921318+01 | 1486740972.92132 | 2/7BF8038                |            8719925304

 2017-02-10 16:36:14.009312+01 | 1486740974.00931 | 2/8163288                |            8725607048

 2017-02-10 16:36:15.094581+01 | 1486740975.09458 | 2/869FC68                |            8731098216

 2017-02-10 16:36:16.163462+01 | 1486740976.16346 | 2/8BF5E50                |            8736693840

 2017-02-10 16:36:17.239838+01 | 1486740977.23984 | 2/90F6558                |            8741938520

 2017-02-10 16:36:18.311386+01 | 1486740978.31139 | 2/9639CC0                |            8747457728

 2017-02-10 16:36:19.412856+01 | 1486740979.41286 | 2/9BBA558                |            8753227096

 2017-02-10 16:36:20.496315+01 | 1486740980.49632 | 2/A111090                |            8758825104

 2017-02-10 16:36:21.567856+01 | 1486740981.56786 | 2/A6438C0                |            8764274880

 2017-02-10 16:36:22.647637+01 | 1486740982.64764 | 2/AB87148                |            8769794376

 2017-02-10 16:36:23.731651+01 | 1486740983.73165 | 2/B0CBFC8                |            8775319496

 2017-02-10 16:36:24.805864+01 | 1486740984.80586 | 2/B617ED8                |            8780873432

 2017-02-10 16:36:25.893246+01 | 1486740985.89325 | 2/BB71AE8                |            8786483944

 2017-02-10 16:36:26.987065+01 | 1486740986.98707 | 2/C0B6D18                |            8792010008

 2017-02-10 16:36:28.064929+01 | 1486740988.06493 | 2/C5DBD48                |            8797404488

 2017-02-10 16:36:29.158633+01 | 1486740989.15863 | 2/CB35660                |            8803014240

 2017-02-10 16:36:30.240493+01 | 1486740990.24049 | 2/D129E88                |            8809258632

 2017-02-10 16:36:31.331855+01 | 1486740991.33186 | 2/D7EA6B8                |            8816338616

 2017-02-10 16:36:32.40773+01 | 1486740992.40773 | 2/DDE9CB8                |            8822627512

 2017-02-10 16:36:33.478464+01 | 1486740993.47846 | 2/E2F3588                |            8827909512

 2017-02-10 16:36:34.601943+01 | 1486740994.60194 | 2/E8C7F98                |            8834023320

 2017-02-10 16:36:35.717184+01 | 1486740995.71718 | 2/EE77F30                |            8839986992

 2017-02-10 16:36:36.785955+01 | 1486740996.78595 | 2/F4359F0                |            8846006768

 2017-02-10 16:36:37.862919+01 | 1486740997.86292 | 2/F90A3D8                |            8851071960

 2017-02-10 16:36:38.966369+01 | 1486740998.96637 | 2/FE675E0                |            8856696288

 2017-02-10 16:36:40.040201+01 | 1486741000.0402 | 2/103AD730               |            8862226224

 2017-02-10 16:36:41.103825+01 | 1486741001.10383 | 2/108DE1E0               |            8867668448

 2017-02-10 16:36:42.180551+01 | 1486741002.18055 | 2/10E139A8               |            8873130408

 2017-02-10 16:36:43.263633+01 | 1486741003.26363 | 2/1136B0E0               |            8878731488

 2017-02-10 16:36:44.342487+01 | 1486741004.34249 | 2/118AA200               |            8884232704

 2017-02-10 16:36:45.433653+01 | 1486741005.43365 | 2/11E0E328               |            8889885480

 2017-02-10 16:36:46.521742+01 | 1486741006.52174 | 2/123632D8               |            8895476440

 2017-02-10 16:36:47.615642+01 | 1486741007.61564 | 2/128AB478               |            8901014648

 2017-02-10 16:36:48.674379+01 | 1486741008.67438 | 2/12DB7988               |            8906307976

 2017-02-10 16:36:49.750993+01 | 1486741009.75099 | 2/13303D10               |            8911863056

 2017-02-10 16:36:50.848016+01 | 1486741010.84802 | 2/13877A38               |            8917580344

 2017-02-10 16:36:51.928679+01 | 1486741011.92868 | 2/13DCE5E8               |            8923178472

 2017-02-10 16:36:53.006096+01 | 1486741013.0061 | 2/142E5520               |            8928515360

 2017-02-10 16:36:54.090962+01 | 1486741014.09096 | 2/148327C0               |            8934074304

 2017-02-10 16:36:55.177204+01 | 1486741015.1772 | 2/14D9C188               |            8939749768

 2017-02-10 16:36:56.262302+01 | 1486741016.2623 | 2/152C7E90               |            8945172112

 2017-02-10 16:36:57.362026+01 | 1486741017.36203 | 2/158198E8               |            8950749416

 2017-02-10 16:36:58.448564+01 | 1486741018.44856 | 2/15D5C2B8               |            8956265144

 2017-02-10 16:36:59.53017+01 | 1486741019.53017 | 2/1629B938               |            8961767736

 2017-02-10 16:37:00.616956+01 | 1486741020.61696 | 2/167D1998               |            8967231896

 2017-02-10 16:37:01.692124+01 | 1486741021.69212 | 2/16CF76F0               |            8972629744

 2017-02-10 16:37:02.771439+01 | 1486741022.77144 | 2/17259320               |            8978273056

 2017-02-10 16:37:03.872864+01 | 1486741023.87286 | 2/177ACE88               |            8983858824

 2017-02-10 16:37:04.938661+01 | 1486741024.93866 | 2/17CD1F20               |            8989253408

 2017-02-10 16:37:06.02401+01 | 1486741026.02401 | 2/18221C00               |            8994823168

 2017-02-10 16:37:07.112763+01 | 1486741027.11276 | 2/18757A50               |            9000286800

 2017-02-10 16:37:08.199501+01 | 1486741028.1995 | 2/18CABCE0               |            9005874400

 2017-02-10 16:37:09.271862+01 | 1486741029.27186 | 2/191CF5F8               |            9011262968

 2017-02-10 16:37:10.346681+01 | 1486741030.34668 | 2/1970AC98               |            9016749208

