 2017-02-09 03:49:10.972891+01 | 1486608550.97289 |                 0 |              14 |                    25 |                   41 |               2206 |             0 |                0 |          241913 |                     0 |         96138 | 2017-02-09 02:43:59.380053+01

 2017-02-09 03:49:12.43105+01 | 1486608552.43105 |                 0 |              14 |                    25 |                   41 |               2206 |             0 |                0 |          241913 |                     0 |         96138 | 2017-02-09 02:43:59.380053+01

 2017-02-09 03:49:13.846116+01 | 1486608553.84612 |                 0 |              14 |                    25 |                   41 |               2206 |             0 |                0 |          241913 |                     0 |         96138 | 2017-02-09 02:43:59.380053+01

 2017-02-09 03:49:15.27809+01 | 1486608555.27809 |                 0 |              14 |                    25 |                   41 |               2206 |             0 |                0 |          241913 |                     0 |         96138 | 2017-02-09 02:43:59.380053+01

 2017-02-09 03:49:16.711739+01 | 1486608556.71174 |                 0 |              14 |                    25 |                   41 |               2206 |             0 |                0 |          241913 |                     0 |         96138 | 2017-02-09 02:43:59.380053+01

 2017-02-09 03:49:18.178473+01 | 1486608558.17847 |                 0 |              14 |                    25 |                   41 |               2206 |             0 |                0 |          241913 |                     0 |         96138 | 2017-02-09 02:43:59.380053+01

 2017-02-09 03:49:19.633705+01 | 1486608559.6337 |                 0 |              14 |                    25 |                   41 |               2206 |             0 |                0 |          241913 |                     0 |         96138 | 2017-02-09 02:43:59.380053+01

 2017-02-09 03:49:21.078923+01 | 1486608561.07892 |                 0 |              14 |                    25 |                   41 |               2206 |             0 |                0 |          241913 |                     0 |         96138 | 2017-02-09 02:43:59.380053+01

 2017-02-09 03:49:22.536115+01 | 1486608562.53611 |                 0 |              14 |                    25 |                   41 |               2206 |             0 |                0 |          241913 |                     0 |         96138 | 2017-02-09 02:43:59.380053+01

 2017-02-09 03:49:23.992059+01 | 1486608563.99206 |                 0 |              14 |                    25 |                   41 |               2206 |             0 |                0 |          241913 |                     0 |         96138 | 2017-02-09 02:43:59.380053+01

 2017-02-09 03:49:25.418018+01 | 1486608565.41802 |                 0 |              14 |                    25 |                   41 |               2206 |             0 |                0 |          241913 |                     0 |         96138 | 2017-02-09 02:43:59.380053+01

 2017-02-09 03:49:26.82394+01 | 1486608566.82394 |                 0 |              14 |                    25 |                   41 |               2206 |             0 |                0 |          241913 |                     0 |         96138 | 2017-02-09 02:43:59.380053+01

 2017-02-09 03:49:28.234385+01 | 1486608568.23439 |                 0 |              14 |                    25 |                   41 |               2206 |             0 |                0 |          241913 |                     0 |         96138 | 2017-02-09 02:43:59.380053+01

 2017-02-09 03:49:29.635439+01 | 1486608569.63544 |                 0 |              14 |                    25 |                   41 |               2206 |             0 |                0 |          241913 |                     0 |         96138 | 2017-02-09 02:43:59.380053+01

 2017-02-09 03:49:31.049337+01 | 1486608571.04934 |                 0 |              14 |                    25 |                   41 |               2206 |             0 |                0 |          241913 |                     0 |         96138 | 2017-02-09 02:43:59.380053+01

 2017-02-09 03:49:32.473852+01 | 1486608572.47385 |                 0 |              14 |                    25 |                   41 |               2206 |             0 |                0 |          241913 |                     0 |         96138 | 2017-02-09 02:43:59.380053+01

 2017-02-09 03:49:33.867872+01 | 1486608573.86787 |                 0 |              14 |                    25 |                   41 |               2206 |             0 |                0 |          241913 |                     0 |         96138 | 2017-02-09 02:43:59.380053+01

 2017-02-09 03:49:35.272275+01 | 1486608575.27227 |                 0 |              14 |                    25 |                   41 |               2206 |             0 |                0 |          241913 |                     0 |         96138 | 2017-02-09 02:43:59.380053+01

 2017-02-09 03:49:36.656072+01 | 1486608576.65607 |                 0 |              14 |                    25 |                   41 |               2206 |             0 |                0 |          241913 |                     0 |         96138 | 2017-02-09 02:43:59.380053+01

 2017-02-09 03:49:38.003307+01 | 1486608578.00331 |                 0 |              14 |                    25 |                   41 |               2206 |             0 |                0 |          241913 |                     0 |         96138 | 2017-02-09 02:43:59.380053+01

 2017-02-09 03:49:39.437229+01 | 1486608579.43723 |                 0 |              14 |                    25 |                   41 |               2206 |             0 |                0 |          241913 |                     0 |         96138 | 2017-02-09 02:43:59.380053+01

 2017-02-09 03:49:40.890644+01 | 1486608580.89064 |                 0 |              14 |                    25 |                   41 |               2206 |             0 |                0 |          241913 |                     0 |         96138 | 2017-02-09 02:43:59.380053+01

 2017-02-09 03:49:42.344987+01 | 1486608582.34499 |                 0 |              14 |                    25 |                   41 |               2206 |             0 |                0 |          241913 |                     0 |         96138 | 2017-02-09 02:43:59.380053+01

 2017-02-09 03:49:43.787303+01 | 1486608583.7873 |                 0 |              14 |                    25 |                   41 |               2206 |             0 |                0 |          241913 |                     0 |         96138 | 2017-02-09 02:43:59.380053+01

 2017-02-09 03:49:45.230839+01 | 1486608585.23084 |                 0 |              14 |                    25 |                   41 |               2206 |             0 |                0 |          241913 |                     0 |         96138 | 2017-02-09 02:43:59.380053+01

 2017-02-09 03:49:46.615416+01 | 1486608586.61542 |                 0 |              14 |                    25 |                   41 |               2206 |             0 |                0 |          241913 |                     0 |         96138 | 2017-02-09 02:43:59.380053+01

 2017-02-09 03:49:48.010419+01 | 1486608588.01042 |                 0 |              14 |                    25 |                   41 |               2206 |             0 |                0 |          241913 |                     0 |         96138 | 2017-02-09 02:43:59.380053+01

 2017-02-09 03:49:49.434873+01 | 1486608589.43487 |                 0 |              14 |                    25 |                   41 |               2206 |             0 |                0 |          241913 |                     0 |         96138 | 2017-02-09 02:43:59.380053+01

 2017-02-09 03:49:50.895042+01 | 1486608590.89504 |                 0 |              14 |                    25 |                   41 |               2206 |             0 |                0 |          241913 |                     0 |         96138 | 2017-02-09 02:43:59.380053+01

 2017-02-09 03:49:52.303753+01 | 1486608592.30375 |                 0 |              14 |                    25 |                   41 |               2206 |             0 |                0 |          241913 |                     0 |         96138 | 2017-02-09 02:43:59.380053+01

 2017-02-09 03:49:53.718609+01 | 1486608593.71861 |                 0 |              14 |                    25 |                   41 |               2206 |             0 |                0 |          241913 |                     0 |         96138 | 2017-02-09 02:43:59.380053+01

 2017-02-09 03:49:55.107221+01 | 1486608595.10722 |                 0 |              14 |                    25 |                   41 |               2206 |             0 |                0 |          241913 |                     0 |         96138 | 2017-02-09 02:43:59.380053+01

 2017-02-09 03:49:56.517207+01 | 1486608596.51721 |                 0 |              14 |                    25 |                   41 |               2206 |             0 |                0 |          241913 |                     0 |         96138 | 2017-02-09 02:43:59.380053+01

 2017-02-09 03:49:57.944572+01 | 1486608597.94457 |                 0 |              14 |                    25 |                   41 |               2206 |             0 |                0 |          241913 |                     0 |         96138 | 2017-02-09 02:43:59.380053+01

 2017-02-09 03:49:59.340318+01 | 1486608599.34032 |                 0 |              14 |                    25 |                   41 |               2206 |             0 |                0 |          241913 |                     0 |         96138 | 2017-02-09 02:43:59.380053+01

 2017-02-09 03:50:00.747927+01 | 1486608600.74793 |                 0 |              14 |                    25 |                   41 |               2206 |             0 |                0 |          241913 |                     0 |         96138 | 2017-02-09 02:43:59.380053+01

 2017-02-09 03:50:02.082939+01 | 1486608602.08294 |                 0 |              14 |                    25 |                   41 |               2206 |             0 |                0 |          241913 |                     0 |         96138 | 2017-02-09 02:43:59.380053+01

 2017-02-09 03:50:03.459341+01 | 1486608603.45934 |                 0 |              14 |                    25 |                   41 |               2206 |             0 |                0 |          241913 |                     0 |         96138 | 2017-02-09 02:43:59.380053+01

 2017-02-09 03:50:04.804413+01 | 1486608604.80441 |                 0 |              14 |                    25 |                   41 |               2206 |             0 |                0 |          241913 |                     0 |         96138 | 2017-02-09 02:43:59.380053+01

 2017-02-09 03:50:06.166289+01 | 1486608606.16629 |                 0 |              14 |                    25 |                   41 |               2206 |             0 |                0 |          241913 |                     0 |         96138 | 2017-02-09 02:43:59.380053+01

 2017-02-09 03:50:07.574926+01 | 1486608607.57493 |                 0 |              14 |                    25 |                   41 |               2206 |             0 |                0 |          241913 |                     0 |         96138 | 2017-02-09 02:43:59.380053+01

 2017-02-09 03:50:08.981206+01 | 1486608608.98121 |                 0 |              14 |                    25 |                   41 |               2206 |             0 |                0 |          241913 |                     0 |         96138 | 2017-02-09 02:43:59.380053+01

 2017-02-09 03:50:10.389158+01 | 1486608610.38916 |                 0 |              14 |                    25 |                   41 |               2206 |             0 |                0 |          241913 |                     0 |         96138 | 2017-02-09 02:43:59.380053+01

 2017-02-09 03:50:11.807171+01 | 1486608611.80717 |                 0 |              14 |                    25 |                   41 |               2206 |             0 |                0 |          241913 |                     0 |         96138 | 2017-02-09 02:43:59.380053+01

 2017-02-09 03:50:13.10151+01 | 1486608613.10151 |                 0 |              14 |                    25 |                   41 |               2206 |             0 |                0 |          241913 |                     0 |         96138 | 2017-02-09 02:43:59.380053+01

 2017-02-09 03:50:14.522297+01 | 1486608614.5223 |                 0 |              14 |                    25 |                   41 |               2206 |             0 |                0 |          241913 |                     0 |         96138 | 2017-02-09 02:43:59.380053+01

 2017-02-09 03:50:15.950879+01 | 1486608615.95088 |                 0 |              14 |                    25 |                   41 |               2206 |             0 |                0 |          241913 |                     0 |         96138 | 2017-02-09 02:43:59.380053+01

 2017-02-09 03:50:17.36608+01 | 1486608617.36608 |                 0 |              14 |                    25 |                   41 |               2206 |             0 |                0 |          241913 |                     0 |         96138 | 2017-02-09 02:43:59.380053+01

 2017-02-09 03:50:18.78824+01 | 1486608618.78824 |                 0 |              14 |                    25 |                   41 |               2206 |             0 |                0 |          241913 |                     0 |         96138 | 2017-02-09 02:43:59.380053+01

 2017-02-09 03:50:20.197419+01 | 1486608620.19742 |                 0 |              14 |                    25 |                   41 |               2206 |             0 |                0 |          241913 |                     0 |         96138 | 2017-02-09 02:43:59.380053+01

 2017-02-09 03:50:21.664745+01 | 1486608621.66475 |                 0 |              14 |                    25 |                   41 |               2206 |             0 |                0 |          241913 |                     0 |         96138 | 2017-02-09 02:43:59.380053+01

 2017-02-09 03:50:23.003691+01 | 1486608623.00369 |                 0 |              14 |                    25 |                   41 |               2206 |             0 |                0 |          241913 |                     0 |         96138 | 2017-02-09 02:43:59.380053+01

 2017-02-09 03:50:24.403424+01 | 1486608624.40342 |                 0 |              14 |                    25 |                   41 |               2206 |             0 |                0 |          241913 |                     0 |         96138 | 2017-02-09 02:43:59.380053+01

 2017-02-09 03:50:25.800512+01 | 1486608625.80051 |                 0 |              14 |                    25 |                   41 |               2206 |             0 |                0 |          241913 |                     0 |         96138 | 2017-02-09 02:43:59.380053+01

 2017-02-09 03:50:27.217498+01 | 1486608627.2175 |                 0 |              14 |                    25 |                   41 |               2206 |             0 |                0 |          241913 |                     0 |         96138 | 2017-02-09 02:43:59.380053+01

 2017-02-09 03:50:28.659632+01 | 1486608628.65963 |                 0 |              14 |                    25 |                   41 |               2206 |             0 |                0 |          241913 |                     0 |         96138 | 2017-02-09 02:43:59.380053+01

 2017-02-09 03:50:30.077786+01 | 1486608630.07779 |                 0 |              14 |                    25 |                   41 |               2206 |             0 |                0 |          241913 |                     0 |         96138 | 2017-02-09 02:43:59.380053+01

 2017-02-09 03:50:31.504607+01 | 1486608631.50461 |                 0 |              14 |                    25 |                   41 |               2206 |             0 |                0 |          241913 |                     0 |         96138 | 2017-02-09 02:43:59.380053+01

 2017-02-09 03:50:32.943914+01 | 1486608632.94391 |                 0 |              14 |                    25 |                   41 |               2206 |             0 |                0 |          241913 |                     0 |         96138 | 2017-02-09 02:43:59.380053+01

 2017-02-09 03:50:34.354616+01 | 1486608634.35462 |                 0 |              14 |                    25 |                   41 |               2206 |             0 |                0 |          241913 |                     0 |         96138 | 2017-02-09 02:43:59.380053+01

 2017-02-09 03:50:35.814415+01 | 1486608635.81441 |                 0 |              14 |                    25 |                   41 |               2206 |             0 |                0 |          241913 |                     0 |         96138 | 2017-02-09 02:43:59.380053+01

 2017-02-09 03:50:37.248356+01 | 1486608637.24836 |                 0 |              14 |                    25 |                   41 |               2206 |             0 |                0 |          241913 |                     0 |         96138 | 2017-02-09 02:43:59.380053+01

 2017-02-09 03:50:38.636501+01 | 1486608638.6365 |                 0 |              14 |                    25 |                   41 |               2206 |             0 |                0 |          241913 |                     0 |         96138 | 2017-02-09 02:43:59.380053+01

 2017-02-09 03:50:40.043225+01 | 1486608640.04323 |                 0 |              14 |                    25 |                   41 |               2206 |             0 |                0 |          241913 |                     0 |         96138 | 2017-02-09 02:43:59.380053+01

 2017-02-09 03:50:41.429159+01 | 1486608641.42916 |                 0 |              14 |                    25 |                   41 |               2206 |             0 |                0 |          241913 |                     0 |         96138 | 2017-02-09 02:43:59.380053+01

 2017-02-09 03:50:42.840456+01 | 1486608642.84046 |                 0 |              14 |                    25 |                   41 |               2206 |             0 |                0 |          241913 |                     0 |         96138 | 2017-02-09 02:43:59.380053+01

 2017-02-09 03:50:44.249891+01 | 1486608644.24989 |                 0 |              14 |                    25 |                   41 |               2206 |             0 |                0 |          241913 |                     0 |         96138 | 2017-02-09 02:43:59.380053+01

 2017-02-09 03:50:45.680617+01 | 1486608645.68062 |                 0 |              14 |                    25 |                   41 |               2206 |             0 |                0 |          241913 |                     0 |         96138 | 2017-02-09 02:43:59.380053+01

 2017-02-09 03:50:47.092897+01 | 1486608647.0929 |                 0 |              14 |                    25 |                   41 |               2206 |             0 |                0 |          241913 |                     0 |         96138 | 2017-02-09 02:43:59.380053+01

 2017-02-09 03:50:48.492074+01 | 1486608648.49207 |                 0 |              14 |                    25 |                   41 |               2206 |             0 |                0 |          241913 |                     0 |         96138 | 2017-02-09 02:43:59.380053+01

 2017-02-09 03:50:49.854164+01 | 1486608649.85416 |                 0 |              14 |                    25 |                   41 |               2206 |             0 |                0 |          241913 |                     0 |         96138 | 2017-02-09 02:43:59.380053+01

 2017-02-09 03:50:51.264367+01 | 1486608651.26437 |                 0 |              14 |                    25 |                   41 |               2206 |             0 |                0 |          241913 |                     0 |         96138 | 2017-02-09 02:43:59.380053+01

 2017-02-09 03:50:52.695605+01 | 1486608652.69561 |                 0 |              14 |                    25 |                   41 |               2206 |             0 |                0 |          241913 |                     0 |         96138 | 2017-02-09 02:43:59.380053+01

 2017-02-09 03:50:54.100518+01 | 1486608654.10052 |                 0 |              14 |                    25 |                   41 |               2206 |             0 |                0 |          241913 |                     0 |         96138 | 2017-02-09 02:43:59.380053+01

 2017-02-09 03:50:55.457355+01 | 1486608655.45736 |                 0 |              14 |                    25 |                   41 |               2206 |             0 |                0 |          241913 |                     0 |         96138 | 2017-02-09 02:43:59.380053+01

 2017-02-09 03:50:56.867329+01 | 1486608656.86733 |                 0 |              14 |                    25 |                   41 |               2206 |             0 |                0 |          241913 |                     0 |         96138 | 2017-02-09 02:43:59.380053+01

 2017-02-09 03:50:58.269278+01 | 1486608658.26928 |                 0 |              14 |                    25 |                   41 |               2206 |             0 |                0 |          241913 |                     0 |         96138 | 2017-02-09 02:43:59.380053+01

 2017-02-09 03:50:59.633965+01 | 1486608659.63397 |                 0 |              14 |                    25 |                   41 |               2206 |             0 |                0 |          241913 |                     0 |         96138 | 2017-02-09 02:43:59.380053+01

 2017-02-09 03:51:00.975629+01 | 1486608660.97563 |                 0 |              14 |                    25 |                   41 |               2206 |             0 |                0 |          241913 |                     0 |         96138 | 2017-02-09 02:43:59.380053+01

 2017-02-09 03:51:02.305689+01 | 1486608662.30569 |                 0 |              14 |                    25 |                   41 |               2206 |             0 |                0 |          241913 |                     0 |         96138 | 2017-02-09 02:43:59.380053+01

 2017-02-09 03:51:03.633194+01 | 1486608663.63319 |                 0 |              14 |                    25 |                   41 |               2206 |             0 |                0 |          241913 |                     0 |         96138 | 2017-02-09 02:43:59.380053+01

 2017-02-09 03:51:05.060735+01 | 1486608665.06073 |                 0 |              14 |                    25 |                   41 |               2206 |             0 |                0 |          241913 |                     0 |         96138 | 2017-02-09 02:43:59.380053+01

 2017-02-09 03:51:06.518539+01 | 1486608666.51854 |                 0 |              14 |                    25 |                   41 |               2206 |             0 |                0 |          241913 |                     0 |         96138 | 2017-02-09 02:43:59.380053+01

 2017-02-09 03:51:07.948427+01 | 1486608667.94843 |                 0 |              14 |                    25 |                   41 |               2206 |             0 |                0 |          241913 |                     0 |         96138 | 2017-02-09 02:43:59.380053+01

 2017-02-09 03:51:09.376924+01 | 1486608669.37692 |                 0 |              14 |                    25 |                   41 |               2206 |             0 |                0 |          241913 |                     0 |         96138 | 2017-02-09 02:43:59.380053+01

 2017-02-09 03:51:10.764447+01 | 1486608670.76445 |                 0 |              14 |                    25 |                   41 |               2206 |             0 |                0 |          241913 |                     0 |         96138 | 2017-02-09 02:43:59.380053+01

 2017-02-09 03:51:12.171944+01 | 1486608672.17194 |                 0 |              14 |                    25 |                   41 |               2206 |             0 |                0 |          241913 |                     0 |         96138 | 2017-02-09 02:43:59.380053+01

 2017-02-09 03:51:13.558212+01 | 1486608673.55821 |                 0 |              14 |                    25 |                   41 |               2206 |             0 |                0 |          241913 |                     0 |         96138 | 2017-02-09 02:43:59.380053+01

 2017-02-09 03:51:14.954414+01 | 1486608674.95441 |                 0 |              14 |                    25 |                   41 |               2206 |             0 |                0 |          241913 |                     0 |         96138 | 2017-02-09 02:43:59.380053+01

 2017-02-09 03:51:16.378515+01 | 1486608676.37852 |                 0 |              14 |                    25 |                   41 |               2206 |             0 |                0 |          241913 |                     0 |         96138 | 2017-02-09 02:43:59.380053+01

 2017-02-09 03:51:17.714805+01 | 1486608677.7148 |                 0 |              14 |                    25 |                   41 |               2206 |             0 |                0 |          241913 |                     0 |         96138 | 2017-02-09 02:43:59.380053+01

 2017-02-09 03:51:19.073363+01 | 1486608679.07336 |                 0 |              14 |                    25 |                   41 |               2206 |             0 |                0 |          241913 |                     0 |         96138 | 2017-02-09 02:43:59.380053+01

 2017-02-09 03:51:20.459077+01 | 1486608680.45908 |                 0 |              14 |                    25 |                   41 |               2206 |             0 |                0 |          241913 |                     0 |         96138 | 2017-02-09 02:43:59.380053+01

 2017-02-09 03:51:21.843729+01 | 1486608681.84373 |                 0 |              14 |                    25 |                   41 |               2206 |             0 |                0 |          241913 |                     0 |         96138 | 2017-02-09 02:43:59.380053+01

 2017-02-09 03:51:23.255683+01 | 1486608683.25568 |                 0 |              14 |                    25 |                   41 |               2206 |             0 |                0 |          241913 |                     0 |         96138 | 2017-02-09 02:43:59.380053+01

 2017-02-09 03:51:24.643159+01 | 1486608684.64316 |                 0 |              14 |                    25 |                   41 |               2206 |             0 |                0 |          241913 |                     0 |         96138 | 2017-02-09 02:43:59.380053+01

 2017-02-09 03:51:26.042028+01 | 1486608686.04203 |                 0 |              14 |                    25 |                   41 |               2206 |             0 |                0 |          241913 |                     0 |         96138 | 2017-02-09 02:43:59.380053+01

 2017-02-09 03:51:27.444623+01 | 1486608687.44462 |                 0 |              14 |                    25 |                   41 |               2206 |             0 |                0 |          241913 |                     0 |         96138 | 2017-02-09 02:43:59.380053+01

 2017-02-09 03:51:28.891986+01 | 1486608688.89199 |                 0 |              14 |                    25 |                   41 |               2206 |             0 |                0 |          241913 |                     0 |         96138 | 2017-02-09 02:43:59.380053+01

 2017-02-09 03:51:30.266571+01 | 1486608690.26657 |                 0 |              14 |                    25 |                   41 |               2206 |             0 |                0 |          241913 |                     0 |         96138 | 2017-02-09 02:43:59.380053+01

 2017-02-09 03:51:31.634231+01 | 1486608691.63423 |                 0 |              14 |                    25 |                   41 |               2206 |             0 |                0 |          241913 |                     0 |         96138 | 2017-02-09 02:43:59.380053+01

 2017-02-09 03:51:32.995647+01 | 1486608692.99565 |                 0 |              14 |                    25 |                   41 |               2206 |             0 |                0 |          241913 |                     0 |         96138 | 2017-02-09 02:43:59.380053+01

 2017-02-09 03:51:34.364421+01 | 1486608694.36442 |                 0 |              14 |                    25 |                   41 |               2206 |             0 |                0 |          241913 |                     0 |         96138 | 2017-02-09 02:43:59.380053+01

 2017-02-09 03:51:35.762319+01 | 1486608695.76232 |                 0 |              14 |                    25 |                   41 |               2206 |             0 |                0 |          241913 |                     0 |         96138 | 2017-02-09 02:43:59.380053+01

 2017-02-09 03:51:37.174285+01 | 1486608697.17428 |                 0 |              14 |                    25 |                   41 |               2206 |             0 |                0 |          241913 |                     0 |         96138 | 2017-02-09 02:43:59.380053+01

 2017-02-09 03:51:38.543366+01 | 1486608698.54337 |                 0 |              14 |                    25 |                   41 |               2206 |             0 |                0 |          241913 |                     0 |         96138 | 2017-02-09 02:43:59.380053+01

 2017-02-09 03:51:39.982137+01 | 1486608699.98214 |                 0 |              14 |                    25 |                   41 |               2206 |             0 |                0 |          241913 |                     0 |         96138 | 2017-02-09 02:43:59.380053+01

 2017-02-09 03:51:41.413141+01 | 1486608701.41314 |                 0 |              14 |                    25 |                   41 |               2206 |             0 |                0 |          241913 |                     0 |         96138 | 2017-02-09 02:43:59.380053+01

 2017-02-09 03:51:42.849583+01 | 1486608702.84958 |                 0 |              14 |                    25 |                   41 |               2206 |             0 |                0 |          241913 |                     0 |         96138 | 2017-02-09 02:43:59.380053+01

 2017-02-09 03:51:44.289865+01 | 1486608704.28987 |                 0 |              14 |                    25 |                   41 |               2206 |             0 |                0 |          241913 |                     0 |         96138 | 2017-02-09 02:43:59.380053+01

 2017-02-09 03:51:45.66221+01 | 1486608705.66221 |                 0 |              14 |                    25 |                   41 |               2206 |             0 |                0 |          241913 |                     0 |         96138 | 2017-02-09 02:43:59.380053+01

 2017-02-09 03:51:47.04595+01 | 1486608707.04595 |                 0 |              14 |                    25 |                   41 |               2206 |             0 |                0 |          241913 |                     0 |         96138 | 2017-02-09 02:43:59.380053+01

 2017-02-09 03:51:48.495838+01 | 1486608708.49584 |                 0 |              14 |                    25 |                   41 |               2206 |             0 |                0 |          241913 |                     0 |         96138 | 2017-02-09 02:43:59.380053+01

 2017-02-09 03:51:49.857597+01 | 1486608709.8576 |                 0 |              14 |                    25 |                   41 |               2206 |             0 |                0 |          241913 |                     0 |         96138 | 2017-02-09 02:43:59.380053+01

 2017-02-09 03:51:51.244296+01 | 1486608711.2443 |                 0 |              14 |                    25 |                   41 |               2206 |             0 |                0 |          241913 |                     0 |         96138 | 2017-02-09 02:43:59.380053+01

 2017-02-09 03:51:52.55238+01 | 1486608712.55238 |                 0 |              14 |                    25 |                   41 |               2206 |             0 |                0 |          241913 |                     0 |         96138 | 2017-02-09 02:43:59.380053+01

 2017-02-09 03:51:53.881516+01 | 1486608713.88152 |                 0 |              14 |                    25 |                   41 |               2206 |             0 |                0 |          241913 |                     0 |         96138 | 2017-02-09 02:43:59.380053+01

 2017-02-09 03:51:55.284702+01 | 1486608715.2847 |                 0 |              14 |                    25 |                   41 |               2206 |             0 |                0 |          241913 |                     0 |         96138 | 2017-02-09 02:43:59.380053+01

 2017-02-09 03:51:56.669488+01 | 1486608716.66949 |                 0 |              14 |                    25 |                   41 |               2206 |             0 |                0 |          241913 |                     0 |         96138 | 2017-02-09 02:43:59.380053+01

 2017-02-09 03:51:58.072068+01 | 1486608718.07207 |                 0 |              14 |                    25 |                   41 |               2206 |             0 |                0 |          241913 |                     0 |         96138 | 2017-02-09 02:43:59.380053+01

 2017-02-09 03:51:59.469188+01 | 1486608719.46919 |                 0 |              14 |                    25 |                   41 |               2206 |             0 |                0 |          241913 |                     0 |         96138 | 2017-02-09 02:43:59.380053+01

 2017-02-09 03:52:00.85725+01 | 1486608720.85725 |                 0 |              14 |                    25 |                   41 |               2206 |             0 |                0 |          241913 |                     0 |         96138 | 2017-02-09 02:43:59.380053+01

 2017-02-09 03:52:02.27106+01 | 1486608722.27106 |                 0 |              14 |                    25 |                   41 |               2206 |             0 |                0 |          241913 |                     0 |         96138 | 2017-02-09 02:43:59.380053+01

 2017-02-09 03:52:03.678561+01 | 1486608723.67856 |                 0 |              14 |                    25 |                   41 |               2206 |             0 |                0 |          241913 |                     0 |         96138 | 2017-02-09 02:43:59.380053+01

 2017-02-09 03:52:05.055874+01 | 1486608725.05587 |                 0 |              14 |                    25 |                   41 |               2206 |             0 |                0 |          241913 |                     0 |         96138 | 2017-02-09 02:43:59.380053+01

 2017-02-09 03:52:06.455607+01 | 1486608726.45561 |                 0 |              14 |                    25 |                   41 |               2206 |             0 |                0 |          241913 |                     0 |         96138 | 2017-02-09 02:43:59.380053+01

 2017-02-09 03:52:07.844895+01 | 1486608727.84489 |                 0 |              14 |                    25 |                   41 |               2206 |             0 |                0 |          241913 |                     0 |         96138 | 2017-02-09 02:43:59.380053+01

 2017-02-09 03:52:09.19241+01 | 1486608729.19241 |                 0 |              14 |                    25 |                   41 |               2206 |             0 |                0 |          241913 |                     0 |         96138 | 2017-02-09 02:43:59.380053+01

 2017-02-09 03:52:10.596941+01 | 1486608730.59694 |                 0 |              14 |                    25 |                   41 |               2206 |             0 |                0 |          241913 |                     0 |         96138 | 2017-02-09 02:43:59.380053+01

 2017-02-09 03:52:11.977897+01 | 1486608731.9779 |                 0 |              14 |                    25 |                   41 |               2206 |             0 |                0 |          241913 |                     0 |         96138 | 2017-02-09 02:43:59.380053+01

 2017-02-09 03:52:13.38847+01 | 1486608733.38847 |                 0 |              14 |                    25 |                   41 |               2206 |             0 |                0 |          241913 |                     0 |         96138 | 2017-02-09 02:43:59.380053+01

 2017-02-09 03:52:14.756626+01 | 1486608734.75663 |                 0 |              14 |                    25 |                   41 |               2206 |             0 |                0 |          241913 |                     0 |         96138 | 2017-02-09 02:43:59.380053+01

 2017-02-09 03:52:16.118039+01 | 1486608736.11804 |                 0 |              14 |                    25 |                   41 |               2206 |             0 |                0 |          241913 |                     0 |         96138 | 2017-02-09 02:43:59.380053+01

 2017-02-09 03:52:17.50967+01 | 1486608737.50967 |                 0 |              14 |                    25 |                   41 |               2206 |             0 |                0 |          241913 |                     0 |         96138 | 2017-02-09 02:43:59.380053+01

 2017-02-09 03:52:18.886548+01 | 1486608738.88655 |                 0 |              14 |                    25 |                   41 |               2206 |             0 |                0 |          241913 |                     0 |         96138 | 2017-02-09 02:43:59.380053+01

 2017-02-09 03:52:20.243155+01 | 1486608740.24316 |                 0 |              14 |                    25 |                   41 |               2206 |             0 |                0 |          241913 |                     0 |         96138 | 2017-02-09 02:43:59.380053+01

 2017-02-09 03:52:21.65799+01 | 1486608741.65799 |                 0 |              14 |                    25 |                   41 |               2206 |             0 |                0 |          241913 |                     0 |         96138 | 2017-02-09 02:43:59.380053+01

 2017-02-09 03:52:23.054792+01 | 1486608743.05479 |                 0 |              14 |                    25 |                   41 |               2206 |             0 |                0 |          241913 |                     0 |         96138 | 2017-02-09 02:43:59.380053+01

 2017-02-09 03:52:24.465706+01 | 1486608744.46571 |                 0 |              14 |                    25 |                   41 |               2206 |             0 |                0 |          241913 |                     0 |         96138 | 2017-02-09 02:43:59.380053+01

 2017-02-09 03:52:25.886108+01 | 1486608745.88611 |                 0 |              14 |                    25 |                   41 |               2206 |             0 |                0 |          241913 |                     0 |         96138 | 2017-02-09 02:43:59.380053+01

 2017-02-09 03:52:27.300612+01 | 1486608747.30061 |                 0 |              14 |                    25 |                   41 |               2206 |             0 |                0 |          241913 |                     0 |         96138 | 2017-02-09 02:43:59.380053+01

 2017-02-09 03:52:28.693999+01 | 1486608748.694 |                 0 |              14 |                    25 |                   41 |               2206 |             0 |                0 |          241913 |                     0 |         96138 | 2017-02-09 02:43:59.380053+01

 2017-02-09 03:52:30.101672+01 | 1486608750.10167 |                 0 |              14 |                    25 |                   41 |               2206 |             0 |                0 |          241913 |                     0 |         96138 | 2017-02-09 02:43:59.380053+01

 2017-02-09 03:52:31.462794+01 | 1486608751.46279 |                 0 |              14 |                    25 |                   41 |               2206 |             0 |                0 |          241913 |                     0 |         96138 | 2017-02-09 02:43:59.380053+01

 2017-02-09 03:52:32.811773+01 | 1486608752.81177 |                 0 |              14 |                    25 |                   41 |               2206 |             0 |                0 |          241913 |                     0 |         96138 | 2017-02-09 02:43:59.380053+01

 2017-02-09 03:52:34.145584+01 | 1486608754.14558 |                 0 |              14 |                    25 |                   41 |               2206 |             0 |                0 |          241913 |                     0 |         96138 | 2017-02-09 02:43:59.380053+01

 2017-02-09 03:52:35.505607+01 | 1486608755.50561 |                 0 |              14 |                    25 |                   41 |               2206 |             0 |                0 |          241913 |                     0 |         96138 | 2017-02-09 02:43:59.380053+01

 2017-02-09 03:52:36.856553+01 | 1486608756.85655 |                 0 |              14 |                    25 |                   41 |               2206 |             0 |                0 |          241913 |                     0 |         96138 | 2017-02-09 02:43:59.380053+01

 2017-02-09 03:52:38.201729+01 | 1486608758.20173 |                 0 |              14 |                    25 |                   41 |               2206 |             0 |                0 |          241913 |                     0 |         96138 | 2017-02-09 02:43:59.380053+01

 2017-02-09 03:52:39.562531+01 | 1486608759.56253 |                 0 |              14 |                    25 |                   41 |               2206 |             0 |                0 |          241913 |                     0 |         96138 | 2017-02-09 02:43:59.380053+01

 2017-02-09 03:52:40.913351+01 | 1486608760.91335 |                 0 |              14 |                    25 |                   41 |               2206 |             0 |                0 |          241913 |                     0 |         96138 | 2017-02-09 02:43:59.380053+01

 2017-02-09 03:52:42.264999+01 | 1486608762.265 |                 0 |              14 |                    25 |                   41 |               2206 |             0 |                0 |          241913 |                     0 |         96138 | 2017-02-09 02:43:59.380053+01

 2017-02-09 03:52:43.614383+01 | 1486608763.61438 |                 0 |              14 |                    25 |                   41 |               2206 |             0 |                0 |          241913 |                     0 |         96138 | 2017-02-09 02:43:59.380053+01

 2017-02-09 03:52:44.958973+01 | 1486608764.95897 |                 0 |              14 |                    25 |                   41 |               2206 |             0 |                0 |          241913 |                     0 |         96138 | 2017-02-09 02:43:59.380053+01

 2017-02-09 03:52:46.305528+01 | 1486608766.30553 |                 0 |              14 |                    25 |                   41 |               2206 |             0 |                0 |          241913 |                     0 |         96138 | 2017-02-09 02:43:59.380053+01

 2017-02-09 03:52:47.655694+01 | 1486608767.65569 |                 0 |              14 |                    25 |                   41 |               2206 |             0 |                0 |          241913 |                     0 |         96138 | 2017-02-09 02:43:59.380053+01

 2017-02-09 03:52:49.003524+01 | 1486608769.00352 |                 0 |              14 |                    25 |                   41 |               2206 |             0 |                0 |          241913 |                     0 |         96138 | 2017-02-09 02:43:59.380053+01

 2017-02-09 03:52:50.356441+01 | 1486608770.35644 |                 0 |              14 |                    25 |                   41 |               2206 |             0 |                0 |          241913 |                     0 |         96138 | 2017-02-09 02:43:59.380053+01

 2017-02-09 03:52:51.712743+01 | 1486608771.71274 |                 0 |              14 |                    25 |                   41 |               2206 |             0 |                0 |          241913 |                     0 |         96138 | 2017-02-09 02:43:59.380053+01

 2017-02-09 03:52:53.06933+01 | 1486608773.06933 |                 0 |              14 |                    25 |                   41 |               2206 |             0 |                0 |          241913 |                     0 |         96138 | 2017-02-09 02:43:59.380053+01

 2017-02-09 03:52:54.416894+01 | 1486608774.41689 |                 0 |              14 |                    25 |                   41 |               2206 |             0 |                0 |          241913 |                     0 |         96138 | 2017-02-09 02:43:59.380053+01

 2017-02-09 03:52:55.776022+01 | 1486608775.77602 |                 0 |              14 |                    25 |                   41 |               2206 |             0 |                0 |          241913 |                     0 |         96138 | 2017-02-09 02:43:59.380053+01

 2017-02-09 03:52:57.125003+01 | 1486608777.125 |                 0 |              14 |                    25 |                   41 |               2206 |             0 |                0 |          241913 |                     0 |         96138 | 2017-02-09 02:43:59.380053+01

 2017-02-09 03:52:58.476016+01 | 1486608778.47602 |                 0 |              14 |                    25 |                   41 |               2206 |             0 |                0 |          241913 |                     0 |         96138 | 2017-02-09 02:43:59.380053+01

 2017-02-09 03:52:59.829971+01 | 1486608779.82997 |                 0 |              14 |                    25 |                   41 |               2206 |             0 |                0 |          241913 |                     0 |         96138 | 2017-02-09 02:43:59.380053+01

 2017-02-09 03:53:01.179182+01 | 1486608781.17918 |                 0 |              14 |                    25 |                   41 |               2206 |             0 |                0 |          241913 |                     0 |         96138 | 2017-02-09 02:43:59.380053+01

 2017-02-09 03:53:02.561494+01 | 1486608782.56149 |                 0 |              14 |                    25 |                   41 |               2206 |             0 |                0 |          241913 |                     0 |         96138 | 2017-02-09 02:43:59.380053+01

 2017-02-09 03:53:03.924425+01 | 1486608783.92442 |                 0 |              14 |                    25 |                   41 |               2206 |             0 |                0 |          241913 |                     0 |         96138 | 2017-02-09 02:43:59.380053+01

 2017-02-09 03:53:05.289719+01 | 1486608785.28972 |                 0 |              14 |                    25 |                   41 |               2206 |             0 |                0 |          241913 |                     0 |         96138 | 2017-02-09 02:43:59.380053+01

 2017-02-09 03:53:06.63774+01 | 1486608786.63774 |                 0 |              14 |                    25 |                   41 |               2206 |             0 |                0 |          241913 |                     0 |         96138 | 2017-02-09 02:43:59.380053+01

 2017-02-09 03:53:08.002301+01 | 1486608788.0023 |                 0 |              14 |                    25 |                   41 |               2206 |             0 |                0 |          241913 |                     0 |         96138 | 2017-02-09 02:43:59.380053+01

 2017-02-09 03:53:09.349717+01 | 1486608789.34972 |                 0 |              14 |                    25 |                   41 |               2206 |             0 |                0 |          241913 |                     0 |         96138 | 2017-02-09 02:43:59.380053+01

 2017-02-09 03:53:10.697221+01 | 1486608790.69722 |                 0 |              14 |                    25 |                   41 |               2206 |             0 |                0 |          241913 |                     0 |         96138 | 2017-02-09 02:43:59.380053+01

 2017-02-09 03:53:12.05428+01 | 1486608792.05428 |                 0 |              14 |                    25 |                   41 |               2206 |             0 |                0 |          241913 |                     0 |         96138 | 2017-02-09 02:43:59.380053+01

 2017-02-09 03:53:13.415012+01 | 1486608793.41501 |                 0 |              14 |                    25 |                   41 |               2206 |             0 |                0 |          241913 |                     0 |         96138 | 2017-02-09 02:43:59.380053+01

 2017-02-09 03:53:14.755757+01 | 1486608794.75576 |                 0 |              14 |                    25 |                   41 |               2206 |             0 |                0 |          241913 |                     0 |         96138 | 2017-02-09 02:43:59.380053+01

 2017-02-09 03:53:16.103943+01 | 1486608796.10394 |                 0 |              14 |                    25 |                   41 |               2206 |             0 |                0 |          241913 |                     0 |         96138 | 2017-02-09 02:43:59.380053+01

 2017-02-09 03:53:17.464334+01 | 1486608797.46433 |                 0 |              14 |                    25 |                   41 |               2206 |             0 |                0 |          241913 |                     0 |         96138 | 2017-02-09 02:43:59.380053+01

 2017-02-09 03:53:18.813298+01 | 1486608798.8133 |                 0 |              14 |                    25 |                   41 |               2206 |             0 |                0 |          241913 |                     0 |         96138 | 2017-02-09 02:43:59.380053+01

 2017-02-09 03:53:20.159996+01 | 1486608800.16 |                 0 |              14 |                    25 |                   41 |               2206 |             0 |                0 |          241913 |                     0 |         96138 | 2017-02-09 02:43:59.380053+01

 2017-02-09 03:53:21.517975+01 | 1486608801.51798 |                 0 |              14 |                    25 |                   41 |               2206 |             0 |                0 |          241913 |                     0 |         96138 | 2017-02-09 02:43:59.380053+01

 2017-02-09 03:53:22.878213+01 | 1486608802.87821 |                 0 |              14 |                    25 |                   41 |               2206 |             0 |                0 |          241913 |                     0 |         96138 | 2017-02-09 02:43:59.380053+01

 2017-02-09 03:53:24.233916+01 | 1486608804.23392 |                 0 |              14 |                    25 |                   41 |               2206 |             0 |                0 |          241913 |                     0 |         96138 | 2017-02-09 02:43:59.380053+01

 2017-02-09 03:53:25.583469+01 | 1486608805.58347 |                 0 |              14 |                    25 |                   41 |               2206 |             0 |                0 |          241913 |                     0 |         96138 | 2017-02-09 02:43:59.380053+01

 2017-02-09 03:53:26.942297+01 | 1486608806.9423 |                 0 |              14 |                    25 |                   41 |               2206 |             0 |                0 |          241913 |                     0 |         96138 | 2017-02-09 02:43:59.380053+01

 2017-02-09 03:53:28.296266+01 | 1486608808.29627 |                 0 |              14 |                    25 |                   41 |               2206 |             0 |                0 |          241913 |                     0 |         96138 | 2017-02-09 02:43:59.380053+01

 2017-02-09 03:53:29.632681+01 | 1486608809.63268 |                 0 |              14 |                    25 |                   41 |               2206 |             0 |                0 |          241913 |                     0 |         96138 | 2017-02-09 02:43:59.380053+01

 2017-02-09 03:53:30.983468+01 | 1486608810.98347 |                 0 |              14 |                    25 |                   41 |               2206 |             0 |                0 |          241913 |                     0 |         96138 | 2017-02-09 02:43:59.380053+01

 2017-02-09 03:53:32.358074+01 | 1486608812.35807 |                 0 |              14 |                    25 |                   41 |               2206 |             0 |                0 |          241913 |                     0 |         96138 | 2017-02-09 02:43:59.380053+01

 2017-02-09 03:53:33.703988+01 | 1486608813.70399 |                 0 |              14 |                    25 |                   41 |               2206 |             0 |                0 |          241913 |                     0 |         96138 | 2017-02-09 02:43:59.380053+01

 2017-02-09 03:53:35.053784+01 | 1486608815.05378 |                 0 |              14 |                    25 |                   41 |               2206 |             0 |                0 |          241913 |                     0 |         96138 | 2017-02-09 02:43:59.380053+01

 2017-02-09 03:53:36.403454+01 | 1486608816.40345 |                 0 |              14 |                    25 |                   41 |               2206 |             0 |                0 |          241913 |                     0 |         96138 | 2017-02-09 02:43:59.380053+01

 2017-02-09 03:53:37.75401+01 | 1486608817.75401 |                 0 |              14 |                    25 |                   41 |               2206 |             0 |                0 |          241913 |                     0 |         96138 | 2017-02-09 02:43:59.380053+01

 2017-02-09 03:53:39.114501+01 | 1486608819.1145 |                 0 |              14 |                    25 |                   41 |               2206 |             0 |                0 |          241913 |                     0 |         96138 | 2017-02-09 02:43:59.380053+01

 2017-02-09 03:53:40.461417+01 | 1486608820.46142 |                 0 |              14 |                    25 |                   41 |               2206 |             0 |                0 |          241913 |                     0 |         96138 | 2017-02-09 02:43:59.380053+01

 2017-02-09 03:53:41.838234+01 | 1486608821.83823 |                 0 |              14 |                    25 |                   41 |               2206 |             0 |                0 |          241913 |                     0 |         96138 | 2017-02-09 02:43:59.380053+01

 2017-02-09 03:53:43.188529+01 | 1486608823.18853 |                 0 |              14 |                    25 |                   41 |               2206 |             0 |                0 |          241913 |                     0 |         96138 | 2017-02-09 02:43:59.380053+01

 2017-02-09 03:53:44.543636+01 | 1486608824.54364 |                 0 |              14 |                    25 |                   41 |               2206 |             0 |                0 |          241913 |                     0 |         96138 | 2017-02-09 02:43:59.380053+01

 2017-02-09 03:53:45.895859+01 | 1486608825.89586 |                 0 |              14 |                    25 |                   41 |               2206 |             0 |                0 |          241913 |                     0 |         96138 | 2017-02-09 02:43:59.380053+01

 2017-02-09 03:53:47.254682+01 | 1486608827.25468 |                 0 |              14 |                    25 |                   41 |               2206 |             0 |                0 |          241913 |                     0 |         96138 | 2017-02-09 02:43:59.380053+01

 2017-02-09 03:53:48.613266+01 | 1486608828.61327 |                 0 |              14 |                    25 |                   41 |               2206 |             0 |                0 |          241913 |                     0 |         96138 | 2017-02-09 02:43:59.380053+01

 2017-02-09 03:53:49.963738+01 | 1486608829.96374 |                 0 |              14 |                    25 |                   41 |               2206 |             0 |                0 |          241913 |                     0 |         96138 | 2017-02-09 02:43:59.380053+01

 2017-02-09 03:53:51.327314+01 | 1486608831.32731 |                 0 |              14 |                    25 |                   41 |               2206 |             0 |                0 |          241913 |                     0 |         96138 | 2017-02-09 02:43:59.380053+01

 2017-02-09 03:53:52.67822+01 | 1486608832.67822 |                 0 |              14 |                    25 |                   41 |               2206 |             0 |                0 |          241913 |                     0 |         96138 | 2017-02-09 02:43:59.380053+01

 2017-02-09 03:53:54.031289+01 | 1486608834.03129 |                 0 |              14 |                    25 |                   41 |               2206 |             0 |                0 |          241913 |                     0 |         96138 | 2017-02-09 02:43:59.380053+01

 2017-02-09 03:53:55.382752+01 | 1486608835.38275 |                 0 |              14 |                    25 |                   41 |               2206 |             0 |                0 |          241913 |                     0 |         96138 | 2017-02-09 02:43:59.380053+01

 2017-02-09 03:53:56.739188+01 | 1486608836.73919 |                 0 |              14 |                    25 |                   41 |               2206 |             0 |                0 |          241913 |                     0 |         96138 | 2017-02-09 02:43:59.380053+01

 2017-02-09 03:53:58.08399+01 | 1486608838.08399 |                 0 |              14 |                    25 |                   41 |               2206 |             0 |                0 |          241913 |                     0 |         96138 | 2017-02-09 02:43:59.380053+01

 2017-02-09 03:53:59.443274+01 | 1486608839.44327 |                 0 |              14 |                    25 |                   41 |               2206 |             0 |                0 |          241913 |                     0 |         96138 | 2017-02-09 02:43:59.380053+01

 2017-02-09 03:54:00.803049+01 | 1486608840.80305 |                 0 |              14 |                    25 |                   41 |               2206 |             0 |                0 |          241913 |                     0 |         96138 | 2017-02-09 02:43:59.380053+01

 2017-02-09 03:54:02.176221+01 | 1486608842.17622 |                 0 |              14 |                    25 |                   41 |               2206 |             0 |                0 |          241913 |                     0 |         96138 | 2017-02-09 02:43:59.380053+01

 2017-02-09 03:54:03.555003+01 | 1486608843.555 |                 0 |              14 |                    25 |                   41 |               2206 |             0 |                0 |          241913 |                     0 |         96138 | 2017-02-09 02:43:59.380053+01

 2017-02-09 03:54:04.90336+01 | 1486608844.90336 |                 0 |              14 |                    25 |                   41 |               2206 |             0 |                0 |          241913 |                     0 |         96138 | 2017-02-09 02:43:59.380053+01

 2017-02-09 03:54:06.262336+01 | 1486608846.26234 |                 0 |              14 |                    25 |                   41 |               2206 |             0 |                0 |          241913 |                     0 |         96138 | 2017-02-09 02:43:59.380053+01

 2017-02-09 03:54:07.613236+01 | 1486608847.61324 |                 0 |              14 |                    25 |                   41 |               2206 |             0 |                0 |          241913 |                     0 |         96138 | 2017-02-09 02:43:59.380053+01

 2017-02-09 03:54:08.970794+01 | 1486608848.97079 |                 0 |              14 |                    25 |                   41 |               2206 |             0 |                0 |          241913 |                     0 |         96138 | 2017-02-09 02:43:59.380053+01

 2017-02-09 03:54:10.320104+01 | 1486608850.3201 |                 0 |              14 |                    25 |                   41 |               2206 |             0 |                0 |          241913 |                     0 |         96138 | 2017-02-09 02:43:59.380053+01

