 2017-02-09 01:28:33.595359+01 | 1486600113.59536 |                 0 |               3 |                     5 |                   19 |                 17 |           751 |                7 |         1472994 |                     0 |      39558342 | 2017-02-09 01:17:43.500426+01

 2017-02-09 01:28:34.759+01 | 1486600114.759 |                 0 |               3 |                     5 |                   19 |                 17 |           752 |                7 |         1472994 |                     0 |      39632969 | 2017-02-09 01:17:43.500426+01

 2017-02-09 01:28:35.937552+01 | 1486600115.93755 |                 0 |               3 |                     5 |                   19 |                 17 |           754 |                7 |         1472994 |                     0 |      39714706 | 2017-02-09 01:17:43.500426+01

 2017-02-09 01:28:37.090266+01 | 1486600117.09027 |                 0 |               3 |                     5 |                   19 |                 17 |           754 |                7 |         1472994 |                     0 |      39782362 | 2017-02-09 01:17:43.500426+01

 2017-02-09 01:28:38.220054+01 | 1486600118.22005 |                 0 |               3 |                     5 |                   19 |                 17 |           755 |                7 |         1472994 |                     0 |      39864371 | 2017-02-09 01:17:43.500426+01

 2017-02-09 01:28:39.312293+01 | 1486600119.31229 |                 0 |               3 |                     5 |                   19 |                 17 |           755 |                7 |         1472994 |                     0 |      39942296 | 2017-02-09 01:17:43.500426+01

 2017-02-09 01:28:40.460174+01 | 1486600120.46017 |                 0 |               3 |                     5 |                   19 |                 17 |           755 |                7 |         1472994 |                     0 |      40010099 | 2017-02-09 01:17:43.500426+01

 2017-02-09 01:28:41.541058+01 | 1486600121.54106 |                 0 |               3 |                     5 |                   19 |                 17 |           755 |                7 |         1472994 |                     0 |      40086166 | 2017-02-09 01:17:43.500426+01

 2017-02-09 01:28:42.694288+01 | 1486600122.69429 |                 0 |               3 |                     5 |                   19 |                 17 |           755 |                7 |         1472994 |                     0 |      40148049 | 2017-02-09 01:17:43.500426+01

 2017-02-09 01:28:43.868125+01 | 1486600123.86812 |                 0 |               3 |                     5 |                   19 |                 17 |           755 |                7 |         1472994 |                     0 |      40225344 | 2017-02-09 01:17:43.500426+01

 2017-02-09 01:28:45.049865+01 | 1486600125.04987 |                 0 |               3 |                     5 |                   19 |                 17 |           755 |                7 |         1472994 |                     0 |      40309078 | 2017-02-09 01:17:43.500426+01

 2017-02-09 01:28:46.231851+01 | 1486600126.23185 |                 0 |               3 |                     5 |                   19 |                 17 |           755 |                7 |         1472994 |                     0 |      40393119 | 2017-02-09 01:17:43.500426+01

 2017-02-09 01:28:47.41345+01 | 1486600127.41345 |                 0 |               3 |                     5 |                   19 |                 17 |           755 |                7 |         1472994 |                     0 |      40477112 | 2017-02-09 01:17:43.500426+01

 2017-02-09 01:28:48.594571+01 | 1486600128.59457 |                 0 |               3 |                     5 |                   19 |                 17 |           755 |                7 |         1472994 |                     0 |      40560576 | 2017-02-09 01:17:43.500426+01

 2017-02-09 01:28:49.755878+01 | 1486600129.75588 |                 0 |               3 |                     5 |                   19 |                 17 |           755 |                7 |         1472994 |                     0 |      40630444 | 2017-02-09 01:17:43.500426+01

 2017-02-09 01:28:50.937968+01 | 1486600130.93797 |                 0 |               3 |                     5 |                   19 |                 17 |           755 |                7 |         1472994 |                     0 |      40714514 | 2017-02-09 01:17:43.500426+01

 2017-02-09 01:28:52.110651+01 | 1486600132.11065 |                 0 |               3 |                     5 |                   19 |                 17 |           755 |                7 |         1472994 |                     0 |      40798642 | 2017-02-09 01:17:43.500426+01

 2017-02-09 01:28:53.273938+01 | 1486600133.27394 |                 0 |               3 |                     5 |                   19 |                 17 |           755 |                7 |         1472994 |                     0 |      40882114 | 2017-02-09 01:17:43.500426+01

 2017-02-09 01:28:54.455586+01 | 1486600134.45559 |                 0 |               3 |                     5 |                   19 |                 17 |           755 |                7 |         1472994 |                     0 |      40966498 | 2017-02-09 01:17:43.500426+01

 2017-02-09 01:28:55.610832+01 | 1486600135.61083 |                 0 |               3 |                     5 |                   19 |                 17 |           755 |                7 |         1472994 |                     0 |      41050296 | 2017-02-09 01:17:43.500426+01

 2017-02-09 01:28:56.792052+01 | 1486600136.79205 |                 0 |               3 |                     5 |                   19 |                 17 |           755 |                7 |         1472994 |                     0 |      41119573 | 2017-02-09 01:17:43.500426+01

 2017-02-09 01:28:57.971182+01 | 1486600137.97118 |                 0 |               3 |                     5 |                   19 |                 17 |           755 |                7 |         1472994 |                     0 |      41203844 | 2017-02-09 01:17:43.500426+01

 2017-02-09 01:28:59.152412+01 | 1486600139.15241 |                 0 |               3 |                     5 |                   19 |                 17 |           755 |                7 |         1472994 |                     0 |      41288121 | 2017-02-09 01:17:43.500426+01

 2017-02-09 01:29:00.331938+01 | 1486600140.33194 |                 0 |               3 |                     5 |                   19 |                 17 |           755 |                7 |         1472994 |                     0 |      41372113 | 2017-02-09 01:17:43.500426+01

 2017-02-09 01:29:01.516304+01 | 1486600141.5163 |                 0 |               3 |                     5 |                   19 |                 17 |           755 |                7 |         1472994 |                     0 |      41456059 | 2017-02-09 01:17:43.500426+01

 2017-02-09 01:29:02.698351+01 | 1486600142.69835 |                 0 |               3 |                     5 |                   19 |                 17 |           755 |                7 |         1472994 |                     0 |      41540033 | 2017-02-09 01:17:43.500426+01

 2017-02-09 01:29:03.87748+01 | 1486600143.87748 |                 0 |               3 |                     5 |                   19 |                 17 |           755 |                7 |         1472994 |                     0 |      41623852 | 2017-02-09 01:17:43.500426+01

 2017-02-09 01:29:05.059459+01 | 1486600145.05946 |                 0 |               3 |                     5 |                   19 |                 17 |           755 |                7 |         1472994 |                     0 |      41693868 | 2017-02-09 01:17:43.500426+01

 2017-02-09 01:29:06.240454+01 | 1486600146.24045 |                 0 |               3 |                     5 |                   19 |                 17 |           755 |                7 |         1472994 |                     0 |      41777897 | 2017-02-09 01:17:43.500426+01

 2017-02-09 01:29:07.421872+01 | 1486600147.42187 |                 0 |               3 |                     5 |                   19 |                 17 |           755 |                7 |         1472994 |                     0 |      41861872 | 2017-02-09 01:17:43.500426+01

 2017-02-09 01:29:08.600417+01 | 1486600148.60042 |                 0 |               3 |                     5 |                   19 |                 17 |           755 |                7 |         1472994 |                     0 |      41945473 | 2017-02-09 01:17:43.500426+01

 2017-02-09 01:29:09.765176+01 | 1486600149.76518 |                 0 |               3 |                     5 |                   19 |                 17 |           755 |                7 |         1472994 |                     0 |      42029550 | 2017-02-09 01:17:43.500426+01

 2017-02-09 01:29:10.915197+01 | 1486600150.9152 |                 0 |               3 |                     5 |                   19 |                 17 |           755 |                7 |         1472994 |                     0 |      42107867 | 2017-02-09 01:17:43.500426+01

 2017-02-09 01:29:12.085692+01 | 1486600152.08569 |                 0 |               3 |                     5 |                   19 |                 17 |           755 |                7 |         1472994 |                     0 |      42176977 | 2017-02-09 01:17:43.500426+01

 2017-02-09 01:29:13.241008+01 | 1486600153.24101 |                 0 |               3 |                     5 |                   19 |                 17 |           755 |                7 |         1472994 |                     0 |      42260889 | 2017-02-09 01:17:43.500426+01

 2017-02-09 01:29:14.317252+01 | 1486600154.31725 |                 0 |               3 |                     5 |                   19 |                 17 |           755 |                7 |         1472994 |                     0 |      42312217 | 2017-02-09 01:17:43.500426+01

 2017-02-09 01:29:15.482369+01 | 1486600155.48237 |                 0 |               3 |                     5 |                   19 |                 17 |           755 |                7 |         1472994 |                     0 |      42403676 | 2017-02-09 01:17:43.500426+01

 2017-02-09 01:29:16.664124+01 | 1486600156.66412 |                 0 |               3 |                     5 |                   19 |                 17 |           755 |                7 |         1472994 |                     0 |      42487618 | 2017-02-09 01:17:43.500426+01

 2017-02-09 01:29:17.764196+01 | 1486600157.7642 |                 0 |               3 |                     5 |                   19 |                 17 |           755 |                7 |         1472994 |                     0 |      42570690 | 2017-02-09 01:17:43.500426+01

 2017-02-09 01:29:18.861057+01 | 1486600158.86106 |                 0 |               3 |                     5 |                   19 |                 17 |           755 |                7 |         1472994 |                     0 |      42633683 | 2017-02-09 01:17:43.500426+01

 2017-02-09 01:29:19.968879+01 | 1486600159.96888 |                 0 |               3 |                     5 |                   19 |                 17 |           755 |                7 |         1472994 |                     0 |      42711260 | 2017-02-09 01:17:43.500426+01

 2017-02-09 01:29:21.078826+01 | 1486600161.07883 |                 0 |               3 |                     5 |                   19 |                 17 |           755 |                7 |         1472994 |                     0 |      42772518 | 2017-02-09 01:17:43.500426+01

 2017-02-09 01:29:22.226227+01 | 1486600162.22623 |                 0 |               3 |                     5 |                   19 |                 17 |           755 |                7 |         1472994 |                     0 |      42845151 | 2017-02-09 01:17:43.500426+01

 2017-02-09 01:29:23.35733+01 | 1486600163.35733 |                 0 |               3 |                     5 |                   19 |                 17 |           755 |                7 |         1472994 |                     0 |      42919800 | 2017-02-09 01:17:43.500426+01

 2017-02-09 01:29:24.438238+01 | 1486600164.43824 |                 0 |               3 |                     5 |                   19 |                 17 |           755 |                7 |         1472994 |                     0 |      42983696 | 2017-02-09 01:17:43.500426+01

 2017-02-09 01:29:25.605498+01 | 1486600165.6055 |                 0 |               3 |                     5 |                   19 |                 17 |           755 |                7 |         1472994 |                     0 |      43065462 | 2017-02-09 01:17:43.500426+01

 2017-02-09 01:29:26.784066+01 | 1486600166.78407 |                 0 |               3 |                     5 |                   19 |                 17 |           755 |                7 |         1472994 |                     0 |      43149526 | 2017-02-09 01:17:43.500426+01

 2017-02-09 01:29:27.969913+01 | 1486600167.96991 |                 0 |               3 |                     5 |                   19 |                 17 |           755 |                7 |         1472994 |                     0 |      43219608 | 2017-02-09 01:17:43.500426+01

 2017-02-09 01:29:29.149078+01 | 1486600169.14908 |                 0 |               3 |                     5 |                   19 |                 17 |           755 |                7 |         1472994 |                     0 |      43303566 | 2017-02-09 01:17:43.500426+01

 2017-02-09 01:29:30.334368+01 | 1486600170.33437 |                 0 |               3 |                     5 |                   19 |                 17 |           755 |                7 |         1472994 |                     0 |      43387422 | 2017-02-09 01:17:43.500426+01

 2017-02-09 01:29:31.515564+01 | 1486600171.51556 |                 0 |               3 |                     5 |                   19 |                 17 |           755 |                7 |         1472994 |                     0 |      43470386 | 2017-02-09 01:17:43.500426+01

 2017-02-09 01:29:32.695875+01 | 1486600172.69587 |                 0 |               3 |                     5 |                   19 |                 17 |           755 |                7 |         1472994 |                     0 |      43554534 | 2017-02-09 01:17:43.500426+01

 2017-02-09 01:29:33.880018+01 | 1486600173.88002 |                 0 |               3 |                     5 |                   19 |                 17 |           755 |                7 |         1472994 |                     0 |      43638698 | 2017-02-09 01:17:43.500426+01

 2017-02-09 01:29:35.062018+01 | 1486600175.06202 |                 0 |               3 |                     5 |                   19 |                 17 |           755 |                7 |         1472994 |                     0 |      43722599 | 2017-02-09 01:17:43.500426+01

 2017-02-09 01:29:36.243708+01 | 1486600176.24371 |                 0 |               3 |                     5 |                   19 |                 17 |           755 |                7 |         1472994 |                     0 |      43806706 | 2017-02-09 01:17:43.500426+01

 2017-02-09 01:29:37.413654+01 | 1486600177.41365 |                 0 |               3 |                     5 |                   19 |                 17 |           755 |                7 |         1472994 |                     0 |      43872690 | 2017-02-09 01:17:43.500426+01

 2017-02-09 01:29:38.583484+01 | 1486600178.58348 |                 0 |               3 |                     5 |                   19 |                 17 |           755 |                7 |         1472994 |                     0 |      43956783 | 2017-02-09 01:17:43.500426+01

 2017-02-09 01:29:39.70918+01 | 1486600179.70918 |                 0 |               3 |                     5 |                   19 |                 17 |           755 |                7 |         1472994 |                     0 |      44031763 | 2017-02-09 01:17:43.500426+01

 2017-02-09 01:29:40.812952+01 | 1486600180.81295 |                 0 |               3 |                     5 |                   19 |                 17 |           755 |                7 |         1472994 |                     0 |      44103197 | 2017-02-09 01:17:43.500426+01

 2017-02-09 01:29:41.891698+01 | 1486600181.8917 |                 0 |               3 |                     5 |                   19 |                 17 |           755 |                7 |         1472994 |                     0 |      44163985 | 2017-02-09 01:17:43.500426+01

 2017-02-09 01:29:43.026704+01 | 1486600183.0267 |                 0 |               3 |                     5 |                   19 |                 17 |           755 |                7 |         1472994 |                     0 |      44224570 | 2017-02-09 01:17:43.500426+01

 2017-02-09 01:29:44.172592+01 | 1486600184.17259 |                 0 |               3 |                     5 |                   19 |                 17 |           755 |                7 |         1472994 |                     0 |      44298836 | 2017-02-09 01:17:43.500426+01

 2017-02-09 01:29:45.319821+01 | 1486600185.31982 |                 0 |               3 |                     5 |                   19 |                 17 |           755 |                7 |         1472994 |                     0 |      44379911 | 2017-02-09 01:17:43.500426+01

 2017-02-09 01:29:46.501706+01 | 1486600186.50171 |                 0 |               3 |                     5 |                   19 |                 17 |           755 |                7 |         1472994 |                     0 |      44463383 | 2017-02-09 01:17:43.500426+01

 2017-02-09 01:29:47.683683+01 | 1486600187.68368 |                 0 |               3 |                     5 |                   19 |                 17 |           755 |                7 |         1472994 |                     0 |      44547159 | 2017-02-09 01:17:43.500426+01

 2017-02-09 01:29:48.863713+01 | 1486600188.86371 |                 0 |               3 |                     5 |                   19 |                 17 |           755 |                7 |         1472994 |                     0 |      44617333 | 2017-02-09 01:17:43.500426+01

 2017-02-09 01:29:50.047893+01 | 1486600190.04789 |                 0 |               3 |                     5 |                   19 |                 17 |           755 |                7 |         1472994 |                     0 |      44701301 | 2017-02-09 01:17:43.500426+01

 2017-02-09 01:29:51.229339+01 | 1486600191.22934 |                 0 |               3 |                     5 |                   19 |                 17 |           755 |                7 |         1472994 |                     0 |      44785210 | 2017-02-09 01:17:43.500426+01

 2017-02-09 01:29:52.411094+01 | 1486600192.41109 |                 0 |               3 |                     5 |                   19 |                 17 |           755 |                7 |         1472994 |                     0 |      44869066 | 2017-02-09 01:17:43.500426+01

 2017-02-09 01:29:53.592058+01 | 1486600193.59206 |                 0 |               3 |                     5 |                   19 |                 17 |           755 |                7 |         1472994 |                     0 |      44953192 | 2017-02-09 01:17:43.500426+01

 2017-02-09 01:29:54.779295+01 | 1486600194.77929 |                 0 |               3 |                     5 |                   19 |                 17 |           755 |                7 |         1472994 |                     0 |      45037347 | 2017-02-09 01:17:43.500426+01

 2017-02-09 01:29:55.957095+01 | 1486600195.95709 |                 0 |               3 |                     5 |                   19 |                 17 |           755 |                7 |         1472994 |                     0 |      45121520 | 2017-02-09 01:17:43.500426+01

 2017-02-09 01:29:57.141908+01 | 1486600197.14191 |                 0 |               3 |                     5 |                   19 |                 17 |           755 |                7 |         1472994 |                     0 |      45205354 | 2017-02-09 01:17:43.500426+01

 2017-02-09 01:29:58.322918+01 | 1486600198.32292 |                 0 |               3 |                     5 |                   19 |                 17 |           755 |                7 |         1472994 |                     0 |      45275281 | 2017-02-09 01:17:43.500426+01

 2017-02-09 01:29:59.451087+01 | 1486600199.45109 |                 0 |               3 |                     5 |                   19 |                 17 |           755 |                7 |         1472994 |                     0 |      45359082 | 2017-02-09 01:17:43.500426+01

 2017-02-09 01:30:00.625689+01 | 1486600200.62569 |                 0 |               3 |                     5 |                   19 |                 17 |           755 |                7 |         1472994 |                     0 |      45442334 | 2017-02-09 01:17:43.500426+01

 2017-02-09 01:30:01.810533+01 | 1486600201.81053 |                 0 |               3 |                     5 |                   19 |                 17 |           755 |                7 |         1472994 |                     0 |      45526485 | 2017-02-09 01:17:43.500426+01

 2017-02-09 01:30:02.991853+01 | 1486600202.99185 |                 0 |               3 |                     5 |                   19 |                 17 |           755 |                7 |         1472994 |                     0 |      45610349 | 2017-02-09 01:17:43.500426+01

 2017-02-09 01:30:04.17178+01 | 1486600204.17178 |                 0 |               3 |                     5 |                   19 |                 17 |           755 |                7 |         1472994 |                     0 |      45694278 | 2017-02-09 01:17:43.500426+01

 2017-02-09 01:30:05.348551+01 | 1486600205.34855 |                 0 |               3 |                     5 |                   19 |                 17 |           755 |                7 |         1472994 |                     0 |      45764184 | 2017-02-09 01:17:43.500426+01

 2017-02-09 01:30:06.495124+01 | 1486600206.49512 |                 0 |               3 |                     5 |                   19 |                 17 |           755 |                7 |         1472994 |                     0 |      45848415 | 2017-02-09 01:17:43.500426+01

 2017-02-09 01:30:07.646688+01 | 1486600207.64669 |                 0 |               3 |                     5 |                   19 |                 17 |           755 |                7 |         1472994 |                     0 |      45928943 | 2017-02-09 01:17:43.500426+01

 2017-02-09 01:30:08.742811+01 | 1486600208.74281 |                 0 |               3 |                     5 |                   19 |                 17 |           755 |                7 |         1472994 |                     0 |      46005908 | 2017-02-09 01:17:43.500426+01

 2017-02-09 01:30:09.92134+01 | 1486600209.92134 |                 0 |               3 |                     5 |                   19 |                 17 |           755 |                7 |         1472994 |                     0 |      46070603 | 2017-02-09 01:17:43.500426+01

 2017-02-09 01:30:11.0713+01 | 1486600211.0713 |                 0 |               3 |                     5 |                   19 |                 17 |           755 |                7 |         1472994 |                     0 |      46149323 | 2017-02-09 01:17:43.500426+01

 2017-02-09 01:30:12.246937+01 | 1486600212.24694 |                 0 |               3 |                     5 |                   19 |                 17 |           755 |                7 |         1472994 |                     0 |      46232123 | 2017-02-09 01:17:43.500426+01

 2017-02-09 01:30:13.424929+01 | 1486600213.42493 |                 0 |               3 |                     5 |                   19 |                 17 |           755 |                7 |         1472994 |                     0 |      46312474 | 2017-02-09 01:17:43.500426+01

 2017-02-09 01:30:14.605662+01 | 1486600214.60566 |                 0 |               3 |                     5 |                   19 |                 17 |           755 |                7 |         1472994 |                     0 |      46382584 | 2017-02-09 01:17:43.500426+01

 2017-02-09 01:30:15.790884+01 | 1486600215.79088 |                 0 |               3 |                     5 |                   19 |                 17 |           755 |                7 |         1472994 |                     0 |      46466292 | 2017-02-09 01:17:43.500426+01

 2017-02-09 01:30:16.974714+01 | 1486600216.97471 |                 0 |               3 |                     5 |                   19 |                 17 |           755 |                7 |         1472994 |                     0 |      46550507 | 2017-02-09 01:17:43.500426+01

 2017-02-09 01:30:18.16229+01 | 1486600218.16229 |                 0 |               3 |                     5 |                   19 |                 17 |           755 |                7 |         1472994 |                     0 |      46634419 | 2017-02-09 01:17:43.500426+01

 2017-02-09 01:30:19.342812+01 | 1486600219.34281 |                 0 |               3 |                     5 |                   19 |                 17 |           755 |                7 |         1472994 |                     0 |      46718409 | 2017-02-09 01:17:43.500426+01

 2017-02-09 01:30:20.524918+01 | 1486600220.52492 |                 0 |               3 |                     5 |                   19 |                 17 |           755 |                7 |         1472994 |                     0 |      46802228 | 2017-02-09 01:17:43.500426+01

 2017-02-09 01:30:21.708291+01 | 1486600221.70829 |                 0 |               3 |                     5 |                   19 |                 17 |           755 |                7 |         1472994 |                     0 |      46886129 | 2017-02-09 01:17:43.500426+01

 2017-02-09 01:30:22.89101+01 | 1486600222.89101 |                 0 |               3 |                     5 |                   19 |                 17 |           755 |                7 |         1472994 |                     0 |      46970128 | 2017-02-09 01:17:43.500426+01

 2017-02-09 01:30:24.073761+01 | 1486600224.07376 |                 0 |               3 |                     5 |                   19 |                 17 |           755 |                7 |         1472994 |                     0 |      47053810 | 2017-02-09 01:17:43.500426+01

 2017-02-09 01:30:25.257184+01 | 1486600225.25718 |                 0 |               3 |                     5 |                   19 |                 17 |           755 |                7 |         1472994 |                     0 |      47123704 | 2017-02-09 01:17:43.500426+01

 2017-02-09 01:30:26.439061+01 | 1486600226.43906 |                 0 |               3 |                     5 |                   19 |                 17 |           755 |                7 |         1472994 |                     0 |      47207569 | 2017-02-09 01:17:43.500426+01

 2017-02-09 01:30:27.620266+01 | 1486600227.62027 |                 0 |               3 |                     5 |                   19 |                 17 |           755 |                7 |         1472994 |                     0 |      47291959 | 2017-02-09 01:17:43.500426+01

 2017-02-09 01:30:28.802666+01 | 1486600228.80267 |                 0 |               3 |                     5 |                   19 |                 17 |           755 |                7 |         1472994 |                     0 |      47375863 | 2017-02-09 01:17:43.500426+01

 2017-02-09 01:30:29.986376+01 | 1486600229.98638 |                 0 |               3 |                     5 |                   19 |                 17 |           755 |                7 |         1472994 |                     0 |      47459683 | 2017-02-09 01:17:43.500426+01

 2017-02-09 01:30:31.168106+01 | 1486600231.16811 |                 0 |               3 |                     5 |                   19 |                 17 |           755 |                7 |         1472994 |                     0 |      47543506 | 2017-02-09 01:17:43.500426+01

 2017-02-09 01:30:32.332346+01 | 1486600232.33235 |                 0 |               3 |                     5 |                   19 |                 17 |           755 |                7 |         1472994 |                     0 |      47626396 | 2017-02-09 01:17:43.500426+01

 2017-02-09 01:30:33.491231+01 | 1486600233.49123 |                 0 |               3 |                     5 |                   19 |                 17 |           755 |                7 |         1472994 |                     0 |      47709838 | 2017-02-09 01:17:43.500426+01

 2017-02-09 01:30:34.647445+01 | 1486600234.64744 |                 0 |               3 |                     5 |                   19 |                 17 |           755 |                7 |         1472994 |                     0 |      47771611 | 2017-02-09 01:17:43.500426+01

 2017-02-09 01:30:35.751594+01 | 1486600235.75159 |                 0 |               3 |                     5 |                   19 |                 17 |           755 |                7 |         1472994 |                     0 |      47847181 | 2017-02-09 01:17:43.500426+01

 2017-02-09 01:30:36.861311+01 | 1486600236.86131 |                 0 |               3 |                     5 |                   19 |                 17 |           755 |                7 |         1472994 |                     0 |      47907985 | 2017-02-09 01:17:43.500426+01

 2017-02-09 01:30:38.015266+01 | 1486600238.01527 |                 0 |               3 |                     5 |                   19 |                 17 |           755 |                7 |         1472994 |                     0 |      47989037 | 2017-02-09 01:17:43.500426+01

 2017-02-09 01:30:39.157437+01 | 1486600239.15744 |                 0 |               3 |                     5 |                   19 |                 17 |           755 |                7 |         1472994 |                     0 |      48071980 | 2017-02-09 01:17:43.500426+01

 2017-02-09 01:30:40.259307+01 | 1486600240.25931 |                 0 |               3 |                     5 |                   19 |                 17 |           755 |                7 |         1472994 |                     0 |      48139143 | 2017-02-09 01:17:43.500426+01

 2017-02-09 01:30:41.410153+01 | 1486600241.41015 |                 0 |               3 |                     5 |                   19 |                 17 |           755 |                7 |         1472994 |                     0 |      48218732 | 2017-02-09 01:17:43.500426+01

 2017-02-09 01:30:42.503182+01 | 1486600242.50318 |                 0 |               3 |                     5 |                   19 |                 17 |           755 |                7 |         1472994 |                     0 |      48293337 | 2017-02-09 01:17:43.500426+01

 2017-02-09 01:30:43.665955+01 | 1486600243.66596 |                 0 |               3 |                     5 |                   19 |                 17 |           755 |                7 |         1472994 |                     0 |      48359319 | 2017-02-09 01:17:43.500426+01

 2017-02-09 01:30:44.848437+01 | 1486600244.84844 |                 0 |               3 |                     5 |                   19 |                 17 |           755 |                7 |         1472994 |                     0 |      48443201 | 2017-02-09 01:17:43.500426+01

 2017-02-09 01:30:46.029351+01 | 1486600246.02935 |                 0 |               3 |                     5 |                   19 |                 17 |           755 |                7 |         1472994 |                     0 |      48527211 | 2017-02-09 01:17:43.500426+01

 2017-02-09 01:30:47.205393+01 | 1486600247.20539 |                 0 |               3 |                     5 |                   19 |                 17 |           755 |                7 |         1472994 |                     0 |      48611373 | 2017-02-09 01:17:43.500426+01

 2017-02-09 01:30:48.383082+01 | 1486600248.38308 |                 0 |               3 |                     5 |                   19 |                 17 |           755 |                7 |         1472994 |                     0 |      48690096 | 2017-02-09 01:17:43.500426+01

 2017-02-09 01:30:49.570008+01 | 1486600249.57001 |                 0 |               3 |                     5 |                   19 |                 17 |           755 |                7 |         1472994 |                     0 |      48758311 | 2017-02-09 01:17:43.500426+01

 2017-02-09 01:30:50.756364+01 | 1486600250.75636 |                 0 |               3 |                     5 |                   19 |                 17 |           755 |                7 |         1472994 |                     0 |      48842264 | 2017-02-09 01:17:43.500426+01

 2017-02-09 01:30:51.908218+01 | 1486600251.90822 |                 0 |               3 |                     5 |                   19 |                 17 |           755 |                7 |         1472994 |                     0 |      48926353 | 2017-02-09 01:17:43.500426+01

 2017-02-09 01:30:53.075561+01 | 1486600253.07556 |                 0 |               3 |                     5 |                   19 |                 17 |           755 |                7 |         1472994 |                     0 |      49009446 | 2017-02-09 01:17:43.500426+01

 2017-02-09 01:30:54.25708+01 | 1486600254.25708 |                 0 |               3 |                     5 |                   19 |                 17 |           755 |                7 |         1472994 |                     0 |      49093563 | 2017-02-09 01:17:43.500426+01

 2017-02-09 01:30:55.436485+01 | 1486600255.43649 |                 0 |               3 |                     5 |                   19 |                 17 |           755 |                7 |         1472994 |                     0 |      49173260 | 2017-02-09 01:17:43.500426+01

 2017-02-09 01:30:56.618245+01 | 1486600256.61824 |                 0 |               3 |                     5 |                   19 |                 17 |           755 |                7 |         1472994 |                     0 |      49243256 | 2017-02-09 01:17:43.500426+01

 2017-02-09 01:30:57.746279+01 | 1486600257.74628 |                 0 |               3 |                     5 |                   19 |                 17 |           755 |                7 |         1472994 |                     0 |      49320952 | 2017-02-09 01:17:43.500426+01

 2017-02-09 01:30:58.918637+01 | 1486600258.91864 |                 0 |               3 |                     5 |                   19 |                 17 |           755 |                7 |         1472994 |                     0 |      49401957 | 2017-02-09 01:17:43.500426+01

 2017-02-09 01:31:00.098439+01 | 1486600260.09844 |                 0 |               3 |                     5 |                   19 |                 17 |           755 |                7 |         1472994 |                     0 |      49485970 | 2017-02-09 01:17:43.500426+01

 2017-02-09 01:31:01.260512+01 | 1486600261.26051 |                 0 |               3 |                     5 |                   19 |                 17 |           755 |                7 |         1472994 |                     0 |      49567920 | 2017-02-09 01:17:43.500426+01

 2017-02-09 01:31:02.442001+01 | 1486600262.442 |                 0 |               3 |                     5 |                   19 |                 17 |           755 |                7 |         1472994 |                     0 |      49633679 | 2017-02-09 01:17:43.500426+01

 2017-02-09 01:31:03.622987+01 | 1486600263.62299 |                 0 |               3 |                     5 |                   19 |                 17 |           755 |                7 |         1472994 |                     0 |      49717705 | 2017-02-09 01:17:43.500426+01

 2017-02-09 01:31:04.804532+01 | 1486600264.80453 |                 0 |               3 |                     5 |                   19 |                 17 |           755 |                7 |         1472994 |                     0 |      49801955 | 2017-02-09 01:17:43.500426+01

 2017-02-09 01:31:05.990173+01 | 1486600265.99017 |                 0 |               3 |                     5 |                   19 |                 17 |           755 |                7 |         1472994 |                     0 |      49886126 | 2017-02-09 01:17:43.500426+01

 2017-02-09 01:31:07.17461+01 | 1486600267.17461 |                 0 |               3 |                     5 |                   19 |                 17 |           755 |                7 |         1472994 |                     0 |      49970147 | 2017-02-09 01:17:43.500426+01

 2017-02-09 01:31:08.35908+01 | 1486600268.35908 |                 0 |               3 |                     5 |                   19 |                 17 |           755 |                7 |         1472994 |                     0 |      50054004 | 2017-02-09 01:17:43.500426+01

 2017-02-09 01:31:09.541062+01 | 1486600269.54106 |                 0 |               3 |                     5 |                   19 |                 17 |           755 |                7 |         1472994 |                     0 |      50137980 | 2017-02-09 01:17:43.500426+01

 2017-02-09 01:31:10.722416+01 | 1486600270.72242 |                 0 |               3 |                     5 |                   19 |                 17 |           755 |                7 |         1472994 |                     0 |      50221422 | 2017-02-09 01:17:43.500426+01

 2017-02-09 01:31:11.904068+01 | 1486600271.90407 |                 0 |               3 |                     5 |                   19 |                 17 |           755 |                7 |         1472994 |                     0 |      50305314 | 2017-02-09 01:17:43.500426+01

 2017-02-09 01:31:13.08979+01 | 1486600273.08979 |                 0 |               3 |                     5 |                   19 |                 17 |           755 |                7 |         1472994 |                     0 |      50374803 | 2017-02-09 01:17:43.500426+01

 2017-02-09 01:31:14.259876+01 | 1486600274.25988 |                 0 |               3 |                     5 |                   19 |                 17 |           755 |                7 |         1472994 |                     0 |      50443591 | 2017-02-09 01:17:43.500426+01

 2017-02-09 01:31:15.439894+01 | 1486600275.43989 |                 0 |               3 |                     5 |                   19 |                 17 |           755 |                7 |         1472994 |                     0 |      50542019 | 2017-02-09 01:17:43.500426+01

 2017-02-09 01:31:16.548262+01 | 1486600276.54826 |                 0 |               3 |                     5 |                   19 |                 17 |           755 |                7 |         1472994 |                     0 |      50622637 | 2017-02-09 01:17:43.500426+01

 2017-02-09 01:31:17.719195+01 | 1486600277.71919 |                 0 |               3 |                     5 |                   19 |                 17 |           755 |                7 |         1472994 |                     0 |      50685164 | 2017-02-09 01:17:43.500426+01

 2017-02-09 01:31:18.899165+01 | 1486600278.89916 |                 0 |               3 |                     5 |                   19 |                 17 |           755 |                7 |         1472994 |                     0 |      50769199 | 2017-02-09 01:17:43.500426+01

 2017-02-09 01:31:20.080587+01 | 1486600280.08059 |                 0 |               3 |                     5 |                   19 |                 17 |           755 |                7 |         1472994 |                     0 |      50853642 | 2017-02-09 01:17:43.500426+01

 2017-02-09 01:31:21.261408+01 | 1486600281.26141 |                 0 |               3 |                     5 |                   19 |                 17 |           755 |                7 |         1472994 |                     0 |      50937743 | 2017-02-09 01:17:43.500426+01

 2017-02-09 01:31:22.446839+01 | 1486600282.44684 |                 0 |               3 |                     5 |                   19 |                 17 |           755 |                7 |         1472994 |                     0 |      51021686 | 2017-02-09 01:17:43.500426+01

 2017-02-09 01:31:23.623564+01 | 1486600283.62356 |                 0 |               3 |                     5 |                   19 |                 17 |           755 |                7 |         1472994 |                     0 |      51105590 | 2017-02-09 01:17:43.500426+01

 2017-02-09 01:31:24.804623+01 | 1486600284.80462 |                 0 |               3 |                     5 |                   19 |                 17 |           755 |                7 |         1472994 |                     0 |      51189674 | 2017-02-09 01:17:43.500426+01

 2017-02-09 01:31:25.986533+01 | 1486600285.98653 |                 0 |               3 |                     5 |                   19 |                 17 |           755 |                7 |         1472994 |                     0 |      51273827 | 2017-02-09 01:17:43.500426+01

 2017-02-09 01:31:27.166983+01 | 1486600287.16698 |                 0 |               3 |                     5 |                   19 |                 17 |           755 |                7 |         1472994 |                     0 |      51343927 | 2017-02-09 01:17:43.500426+01

 2017-02-09 01:31:28.291873+01 | 1486600288.29187 |                 0 |               3 |                     5 |                   19 |                 17 |           755 |                7 |         1472994 |                     0 |      51427911 | 2017-02-09 01:17:43.500426+01

 2017-02-09 01:31:29.454903+01 | 1486600289.4549 |                 0 |               3 |                     5 |                   19 |                 17 |           755 |                7 |         1472994 |                     0 |      51510168 | 2017-02-09 01:17:43.500426+01

 2017-02-09 01:31:30.636639+01 | 1486600290.63664 |                 0 |               3 |                     5 |                   19 |                 17 |           755 |                7 |         1472994 |                     0 |      51594271 | 2017-02-09 01:17:43.500426+01

 2017-02-09 01:31:31.806915+01 | 1486600291.80692 |                 0 |               3 |                     5 |                   19 |                 17 |           755 |                7 |         1472994 |                     0 |      51678508 | 2017-02-09 01:17:43.500426+01

 2017-02-09 01:31:32.988266+01 | 1486600292.98827 |                 0 |               3 |                     5 |                   19 |                 17 |           755 |                7 |         1472994 |                     0 |      51748391 | 2017-02-09 01:17:43.500426+01

 2017-02-09 01:31:34.169655+01 | 1486600294.16966 |                 0 |               3 |                     5 |                   19 |                 17 |           755 |                7 |         1472994 |                     0 |      51832643 | 2017-02-09 01:17:43.500426+01

 2017-02-09 01:31:35.280064+01 | 1486600295.28006 |                 0 |               3 |                     5 |                   19 |                 17 |           755 |                7 |         1472994 |                     0 |      51912962 | 2017-02-09 01:17:43.500426+01

 2017-02-09 01:31:36.378739+01 | 1486600296.37874 |                 0 |               3 |                     5 |                   19 |                 17 |           755 |                7 |         1472994 |                     0 |      51988043 | 2017-02-09 01:17:43.500426+01

 2017-02-09 01:31:37.539239+01 | 1486600297.53924 |                 0 |               3 |                     5 |                   19 |                 17 |           755 |                7 |         1472994 |                     0 |      52051993 | 2017-02-09 01:17:43.500426+01

 2017-02-09 01:31:38.683468+01 | 1486600298.68347 |                 0 |               3 |                     5 |                   19 |                 17 |           755 |                7 |         1472994 |                     0 |      52136327 | 2017-02-09 01:17:43.500426+01

 2017-02-09 01:31:39.850381+01 | 1486600299.85038 |                 0 |               3 |                     5 |                   19 |                 17 |           755 |                7 |         1472994 |                     0 |      52218253 | 2017-02-09 01:17:43.500426+01

 2017-02-09 01:31:41.029642+01 | 1486600301.02964 |                 0 |               3 |                     5 |                   19 |                 17 |           755 |                7 |         1472994 |                     0 |      52288365 | 2017-02-09 01:17:43.500426+01

 2017-02-09 01:31:42.214772+01 | 1486600302.21477 |                 0 |               3 |                     5 |                   19 |                 17 |           755 |                7 |         1472994 |                     0 |      52372547 | 2017-02-09 01:17:43.500426+01

 2017-02-09 01:31:43.395592+01 | 1486600303.39559 |                 0 |               3 |                     5 |                   19 |                 17 |           755 |                7 |         1472994 |                     0 |      52456684 | 2017-02-09 01:17:43.500426+01

 2017-02-09 01:31:44.577328+01 | 1486600304.57733 |                 0 |               3 |                     5 |                   19 |                 17 |           755 |                7 |         1472994 |                     0 |      52540808 | 2017-02-09 01:17:43.500426+01

 2017-02-09 01:31:45.758345+01 | 1486600305.75834 |                 0 |               3 |                     5 |                   19 |                 17 |           755 |                7 |         1472994 |                     0 |      52624977 | 2017-02-09 01:17:43.500426+01

 2017-02-09 01:31:46.939464+01 | 1486600306.93946 |                 0 |               3 |                     5 |                   19 |                 17 |           755 |                7 |         1472994 |                     0 |      52709003 | 2017-02-09 01:17:43.500426+01

 2017-02-09 01:31:48.124477+01 | 1486600308.12448 |                 0 |               3 |                     5 |                   19 |                 17 |           755 |                7 |         1472994 |                     0 |      52792616 | 2017-02-09 01:17:43.500426+01

 2017-02-09 01:31:49.257725+01 | 1486600309.25773 |                 0 |               3 |                     5 |                   19 |                 17 |           755 |                7 |         1472994 |                     0 |      52876420 | 2017-02-09 01:17:43.500426+01

 2017-02-09 01:31:50.397821+01 | 1486600310.39782 |                 0 |               3 |                     5 |                   19 |                 17 |           755 |                7 |         1472994 |                     0 |      52946059 | 2017-02-09 01:17:43.500426+01

 2017-02-09 01:31:51.575225+01 | 1486600311.57523 |                 0 |               3 |                     5 |                   19 |                 17 |           755 |                7 |         1472994 |                     0 |      53026971 | 2017-02-09 01:17:43.500426+01

 2017-02-09 01:31:52.75429+01 | 1486600312.75429 |                 0 |               3 |                     5 |                   19 |                 17 |           755 |                7 |         1472994 |                     0 |      53106958 | 2017-02-09 01:17:43.500426+01

 2017-02-09 01:31:53.937622+01 | 1486600313.93762 |                 0 |               3 |                     5 |                   19 |                 17 |           755 |                7 |         1472994 |                     0 |      53191354 | 2017-02-09 01:17:43.500426+01

 2017-02-09 01:31:55.09959+01 | 1486600315.09959 |                 0 |               3 |                     5 |                   19 |                 17 |           755 |                7 |         1472994 |                     0 |      53261114 | 2017-02-09 01:17:43.500426+01

 2017-02-09 01:31:56.251196+01 | 1486600316.2512 |                 0 |               3 |                     5 |                   19 |                 17 |           755 |                7 |         1472994 |                     0 |      53345092 | 2017-02-09 01:17:43.500426+01

 2017-02-09 01:31:57.414396+01 | 1486600317.4144 |                 0 |               3 |                     5 |                   19 |                 17 |           755 |                7 |         1472994 |                     0 |      53427574 | 2017-02-09 01:17:43.500426+01

 2017-02-09 01:31:58.53825+01 | 1486600318.53825 |                 0 |               3 |                     5 |                   19 |                 17 |           755 |                7 |         1472994 |                     0 |      53507848 | 2017-02-09 01:17:43.500426+01

 2017-02-09 01:31:59.707693+01 | 1486600319.70769 |                 0 |               3 |                     5 |                   19 |                 17 |           755 |                7 |         1472994 |                     0 |      53576566 | 2017-02-09 01:17:43.500426+01

 2017-02-09 01:32:00.889012+01 | 1486600320.88901 |                 0 |               3 |                     5 |                   19 |                 17 |           755 |                7 |         1472994 |                     0 |      53660663 | 2017-02-09 01:17:43.500426+01

 2017-02-09 01:32:02.071389+01 | 1486600322.07139 |                 0 |               3 |                     5 |                   19 |                 17 |           755 |                7 |         1472994 |                     0 |      53744800 | 2017-02-09 01:17:43.500426+01

 2017-02-09 01:32:03.247934+01 | 1486600323.24793 |                 0 |               3 |                     5 |                   19 |                 17 |           755 |                7 |         1472994 |                     0 |      53828496 | 2017-02-09 01:17:43.500426+01

 2017-02-09 01:32:04.423938+01 | 1486600324.42394 |                 0 |               3 |                     5 |                   19 |                 17 |           755 |                7 |         1472994 |                     0 |      53912268 | 2017-02-09 01:17:43.500426+01

 2017-02-09 01:32:05.606357+01 | 1486600325.60636 |                 0 |               3 |                     5 |                   19 |                 17 |           755 |                7 |         1472994 |                     0 |      53996516 | 2017-02-09 01:17:43.500426+01

 2017-02-09 01:32:06.790895+01 | 1486600326.79089 |                 0 |               3 |                     5 |                   19 |                 17 |           755 |                7 |         1472994 |                     0 |      54080448 | 2017-02-09 01:17:43.500426+01

 2017-02-09 01:32:07.974837+01 | 1486600327.97484 |                 0 |               3 |                     5 |                   19 |                 17 |           755 |                7 |         1472994 |                     0 |      54150449 | 2017-02-09 01:17:43.500426+01

 2017-02-09 01:32:09.160003+01 | 1486600329.16 |                 0 |               3 |                     5 |                   19 |                 17 |           755 |                7 |         1472994 |                     0 |      54234313 | 2017-02-09 01:17:43.500426+01

 2017-02-09 01:32:10.338439+01 | 1486600330.33844 |                 0 |               3 |                     5 |                   19 |                 17 |           755 |                7 |         1472994 |                     0 |      54318304 | 2017-02-09 01:17:43.500426+01

 2017-02-09 01:32:11.52013+01 | 1486600331.52013 |                 0 |               3 |                     5 |                   19 |                 17 |           755 |                7 |         1472994 |                     0 |      54401881 | 2017-02-09 01:17:43.500426+01

 2017-02-09 01:32:12.696692+01 | 1486600332.69669 |                 0 |               3 |                     5 |                   19 |                 17 |           755 |                7 |         1472994 |                     0 |      54486054 | 2017-02-09 01:17:43.500426+01

 2017-02-09 01:32:13.878417+01 | 1486600333.87842 |                 0 |               3 |                     5 |                   19 |                 17 |           755 |                7 |         1472994 |                     0 |      54569779 | 2017-02-09 01:17:43.500426+01

 2017-02-09 01:32:15.063791+01 | 1486600335.06379 |                 0 |               3 |                     5 |                   19 |                 17 |           755 |                7 |         1472994 |                     0 |      54653643 | 2017-02-09 01:17:43.500426+01

 2017-02-09 01:32:16.249503+01 | 1486600336.2495 |                 0 |               3 |                     5 |                   19 |                 17 |           755 |                7 |         1472994 |                     0 |      54737528 | 2017-02-09 01:17:43.500426+01

 2017-02-09 01:32:17.433552+01 | 1486600337.43355 |                 0 |               3 |                     5 |                   19 |                 17 |           755 |                7 |         1472994 |                     0 |      54821599 | 2017-02-09 01:17:43.500426+01

 2017-02-09 01:32:18.614469+01 | 1486600338.61447 |                 0 |               3 |                     5 |                   19 |                 17 |           755 |                7 |         1472994 |                     0 |      54891778 | 2017-02-09 01:17:43.500426+01

 2017-02-09 01:32:19.79774+01 | 1486600339.79774 |                 0 |               3 |                     5 |                   19 |                 17 |           755 |                7 |         1472994 |                     0 |      54975649 | 2017-02-09 01:17:43.500426+01

 2017-02-09 01:32:20.979171+01 | 1486600340.97917 |                 0 |               3 |                     5 |                   19 |                 17 |           755 |                7 |         1472994 |                     0 |      55059613 | 2017-02-09 01:17:43.500426+01

 2017-02-09 01:32:22.159362+01 | 1486600342.15936 |                 0 |               3 |                     5 |                   19 |                 17 |           755 |                7 |         1472994 |                     0 |      55143585 | 2017-02-09 01:17:43.500426+01

 2017-02-09 01:32:23.34027+01 | 1486600343.34027 |                 0 |               3 |                     5 |                   19 |                 17 |           755 |                7 |         1472994 |                     0 |      55227624 | 2017-02-09 01:17:43.500426+01

 2017-02-09 01:32:24.519257+01 | 1486600344.51926 |                 0 |               3 |                     5 |                   19 |                 17 |           755 |                7 |         1472994 |                     0 |      55311683 | 2017-02-09 01:17:43.500426+01

 2017-02-09 01:32:25.702568+01 | 1486600345.70257 |                 0 |               3 |                     5 |                   19 |                 17 |           755 |                7 |         1472994 |                     0 |      55395821 | 2017-02-09 01:17:43.500426+01

 2017-02-09 01:32:26.888418+01 | 1486600346.88842 |                 0 |               3 |                     5 |                   19 |                 17 |           755 |                7 |         1472994 |                     0 |      55479805 | 2017-02-09 01:17:43.500426+01

 2017-02-09 01:32:28.035698+01 | 1486600348.0357 |                 0 |               3 |                     5 |                   19 |                 17 |           755 |                7 |         1472994 |                     0 |      55549519 | 2017-02-09 01:17:43.500426+01

 2017-02-09 01:32:29.218032+01 | 1486600349.21803 |                 0 |               3 |                     5 |                   19 |                 17 |           755 |                7 |         1472994 |                     0 |      55633382 | 2017-02-09 01:17:43.500426+01

 2017-02-09 01:32:30.392416+01 | 1486600350.39242 |                 0 |               3 |                     5 |                   19 |                 17 |           755 |                7 |         1472994 |                     0 |      55717042 | 2017-02-09 01:17:43.500426+01

 2017-02-09 01:32:31.567946+01 | 1486600351.56795 |                 0 |               3 |                     5 |                   19 |                 17 |           755 |                7 |         1472994 |                     0 |      55797825 | 2017-02-09 01:17:43.500426+01

 2017-02-09 01:32:32.750365+01 | 1486600352.75037 |                 0 |               3 |                     5 |                   19 |                 17 |           755 |                7 |         1472994 |                     0 |      55881877 | 2017-02-09 01:17:43.500426+01

 2017-02-09 01:32:33.932918+01 | 1486600353.93292 |                 0 |               3 |                     5 |                   19 |                 17 |           755 |                7 |         1472994 |                     0 |      55965868 | 2017-02-09 01:17:43.500426+01

 2017-02-09 01:32:35.115388+01 | 1486600355.11539 |                 0 |               3 |                     5 |                   19 |                 17 |           755 |                7 |         1472994 |                     0 |      56050079 | 2017-02-09 01:17:43.500426+01

 2017-02-09 01:32:36.293968+01 | 1486600356.29397 |                 0 |               3 |                     5 |                   19 |                 17 |           755 |                7 |         1472994 |                     0 |      56119933 | 2017-02-09 01:17:43.500426+01

 2017-02-09 01:32:37.473098+01 | 1486600357.4731 |                 0 |               3 |                     5 |                   19 |                 17 |           755 |                7 |         1472994 |                     0 |      56204063 | 2017-02-09 01:17:43.500426+01

 2017-02-09 01:32:38.656132+01 | 1486600358.65613 |                 0 |               3 |                     5 |                   19 |                 17 |           755 |                7 |         1472994 |                     0 |      56288087 | 2017-02-09 01:17:43.500426+01

 2017-02-09 01:32:39.838468+01 | 1486600359.83847 |                 0 |               3 |                     5 |                   19 |                 17 |           755 |                7 |         1472994 |                     0 |      56371927 | 2017-02-09 01:17:43.500426+01

 2017-02-09 01:32:40.995981+01 | 1486600360.99598 |                 0 |               3 |                     5 |                   19 |                 17 |           755 |                7 |         1472994 |                     0 |      56455841 | 2017-02-09 01:17:43.500426+01

 2017-02-09 01:32:42.169911+01 | 1486600362.16991 |                 0 |               3 |                     5 |                   19 |                 17 |           755 |                7 |         1472994 |                     0 |      56539709 | 2017-02-09 01:17:43.500426+01

 2017-02-09 01:32:43.350296+01 | 1486600363.3503 |                 0 |               3 |                     5 |                   19 |                 17 |           755 |                7 |         1472994 |                     0 |      56609919 | 2017-02-09 01:17:43.500426+01

 2017-02-09 01:32:44.53678+01 | 1486600364.53678 |                 0 |               3 |                     5 |                   19 |                 17 |           755 |                7 |         1472994 |                     0 |      56693853 | 2017-02-09 01:17:43.500426+01

 2017-02-09 01:32:45.719469+01 | 1486600365.71947 |                 0 |               3 |                     5 |                   19 |                 17 |           755 |                7 |         1472994 |                     0 |      56777682 | 2017-02-09 01:17:43.500426+01

 2017-02-09 01:32:46.885454+01 | 1486600366.88545 |                 0 |               3 |                     5 |                   19 |                 17 |           755 |                7 |         1472994 |                     0 |      56861492 | 2017-02-09 01:17:43.500426+01

 2017-02-09 01:32:48.041929+01 | 1486600368.04193 |                 0 |               3 |                     5 |                   19 |                 17 |           755 |                7 |         1472994 |                     0 |      56944804 | 2017-02-09 01:17:43.500426+01

 2017-02-09 01:32:49.212024+01 | 1486600369.21202 |                 0 |               3 |                     5 |                   19 |                 17 |           755 |                7 |         1472994 |                     0 |      57028479 | 2017-02-09 01:17:43.500426+01

 2017-02-09 01:32:50.365293+01 | 1486600370.36529 |                 0 |               3 |                     5 |                   19 |                 17 |           755 |                7 |         1472994 |                     0 |      57097734 | 2017-02-09 01:17:43.500426+01

 2017-02-09 01:32:51.536923+01 | 1486600371.53692 |                 0 |               3 |                     5 |                   19 |                 17 |           755 |                7 |         1472994 |                     0 |      57181237 | 2017-02-09 01:17:43.500426+01

 2017-02-09 01:32:52.700162+01 | 1486600372.70016 |                 0 |               3 |                     5 |                   19 |                 17 |           755 |                7 |         1472994 |                     0 |      57264725 | 2017-02-09 01:17:43.500426+01

 2017-02-09 01:32:53.878824+01 | 1486600373.87882 |                 0 |               3 |                     5 |                   19 |                 17 |           755 |                7 |         1472994 |                     0 |      57345990 | 2017-02-09 01:17:43.500426+01

 2017-02-09 01:32:55.02015+01 | 1486600375.02015 |                 0 |               3 |                     5 |                   19 |                 17 |           755 |                7 |         1472994 |                     0 |      57429412 | 2017-02-09 01:17:43.500426+01

 2017-02-09 01:32:56.170193+01 | 1486600376.17019 |                 0 |               3 |                     5 |                   19 |                 17 |           755 |                7 |         1472994 |                     0 |      57491140 | 2017-02-09 01:17:43.500426+01

 2017-02-09 01:32:57.346579+01 | 1486600377.34658 |                 0 |               3 |                     5 |                   19 |                 17 |           755 |                7 |         1472994 |                     0 |      57574492 | 2017-02-09 01:17:43.500426+01

 2017-02-09 01:32:58.526336+01 | 1486600378.52634 |                 0 |               3 |                     5 |                   19 |                 17 |           755 |                7 |         1472994 |                     0 |      57658678 | 2017-02-09 01:17:43.500426+01

 2017-02-09 01:32:59.710558+01 | 1486600379.71056 |                 0 |               3 |                     5 |                   19 |                 17 |           755 |                7 |         1472994 |                     0 |      57743031 | 2017-02-09 01:17:43.500426+01

 2017-02-09 01:33:00.890065+01 | 1486600380.89006 |                 0 |               3 |                     5 |                   19 |                 17 |           755 |                7 |         1472994 |                     0 |      57827142 | 2017-02-09 01:17:43.500426+01

 2017-02-09 01:33:02.062055+01 | 1486600382.06206 |                 0 |               3 |                     5 |                   19 |                 17 |           755 |                7 |         1472994 |                     0 |      57911306 | 2017-02-09 01:17:43.500426+01

 2017-02-09 01:33:03.206254+01 | 1486600383.20625 |                 0 |               3 |                     5 |                   19 |                 17 |           755 |                7 |         1472994 |                     0 |      57977332 | 2017-02-09 01:17:43.500426+01

 2017-02-09 01:33:04.36892+01 | 1486600384.36892 |                 0 |               3 |                     5 |                   19 |                 17 |           755 |                7 |         1472994 |                     0 |      58054374 | 2017-02-09 01:17:43.500426+01

 2017-02-09 01:33:05.546751+01 | 1486600385.54675 |                 0 |               3 |                     5 |                   19 |                 17 |           755 |                7 |         1472994 |                     0 |      58138340 | 2017-02-09 01:17:43.500426+01

 2017-02-09 01:33:06.725878+01 | 1486600386.72588 |                 0 |               3 |                     5 |                   19 |                 17 |           755 |                7 |         1472994 |                     0 |      58221643 | 2017-02-09 01:17:43.500426+01

 2017-02-09 01:33:07.879102+01 | 1486600387.8791 |                 0 |               3 |                     5 |                   19 |                 17 |           755 |                7 |         1472994 |                     0 |      58305811 | 2017-02-09 01:17:43.500426+01

 2017-02-09 01:33:09.045426+01 | 1486600389.04543 |                 0 |               3 |                     5 |                   19 |                 17 |           755 |                7 |         1472994 |                     0 |      58375295 | 2017-02-09 01:17:43.500426+01

 2017-02-09 01:33:10.228953+01 | 1486600390.22895 |                 0 |               3 |                     5 |                   19 |                 17 |           755 |                7 |         1472994 |                     0 |      58459214 | 2017-02-09 01:17:43.500426+01

 2017-02-09 01:33:11.410558+01 | 1486600391.41056 |                 0 |               3 |                     5 |                   19 |                 17 |           755 |                7 |         1472994 |                     0 |      58543055 | 2017-02-09 01:17:43.500426+01

 2017-02-09 01:33:12.58984+01 | 1486600392.58984 |                 0 |               3 |                     5 |                   19 |                 17 |           755 |                7 |         1472994 |                     0 |      58626798 | 2017-02-09 01:17:43.500426+01

 2017-02-09 01:33:13.775465+01 | 1486600393.77547 |                 0 |               3 |                     5 |                   19 |                 17 |           755 |                7 |         1472994 |                     0 |      58710808 | 2017-02-09 01:17:43.500426+01

 2017-02-09 01:33:14.955089+01 | 1486600394.95509 |                 0 |               3 |                     5 |                   19 |                 17 |           755 |                7 |         1472994 |                     0 |      58795043 | 2017-02-09 01:17:43.500426+01

 2017-02-09 01:33:16.136661+01 | 1486600396.13666 |                 0 |               3 |                     5 |                   19 |                 17 |           755 |                7 |         1472994 |                     0 |      58878976 | 2017-02-09 01:17:43.500426+01

 2017-02-09 01:33:17.313266+01 | 1486600397.31327 |                 0 |               3 |                     5 |                   19 |                 17 |           755 |                7 |         1472994 |                     0 |      58948287 | 2017-02-09 01:17:43.500426+01

 2017-02-09 01:33:18.499298+01 | 1486600398.4993 |                 0 |               3 |                     5 |                   19 |                 17 |           755 |                7 |         1472994 |                     0 |      59032377 | 2017-02-09 01:17:43.500426+01

 2017-02-09 01:33:19.674398+01 | 1486600399.6744 |                 0 |               3 |                     5 |                   19 |                 17 |           755 |                7 |         1472994 |                     0 |      59116247 | 2017-02-09 01:17:43.500426+01

 2017-02-09 01:33:20.850918+01 | 1486600400.85092 |                 0 |               3 |                     5 |                   19 |                 17 |           755 |                7 |         1472994 |                     0 |      59200091 | 2017-02-09 01:17:43.500426+01

 2017-02-09 01:33:22.033529+01 | 1486600402.03353 |                 0 |               3 |                     5 |                   19 |                 17 |           755 |                7 |         1472994 |                     0 |      59284192 | 2017-02-09 01:17:43.500426+01

 2017-02-09 01:33:23.208274+01 | 1486600403.20827 |                 0 |               3 |                     5 |                   19 |                 17 |           755 |                7 |         1472994 |                     0 |      59368285 | 2017-02-09 01:17:43.500426+01

 2017-02-09 01:33:24.396321+01 | 1486600404.39632 |                 0 |               3 |                     5 |                   19 |                 17 |           755 |                7 |         1472994 |                     0 |      59452187 | 2017-02-09 01:17:43.500426+01

 2017-02-09 01:33:25.563118+01 | 1486600405.56312 |                 0 |               3 |                     5 |                   19 |                 17 |           755 |                7 |         1472994 |                     0 |      59536216 | 2017-02-09 01:17:43.500426+01

 2017-02-09 01:33:26.713292+01 | 1486600406.71329 |                 0 |               3 |                     5 |                   19 |                 17 |           755 |                7 |         1472994 |                     0 |      59604666 | 2017-02-09 01:17:43.500426+01

 2017-02-09 01:33:27.867444+01 | 1486600407.86744 |                 0 |               3 |                     5 |                   19 |                 17 |           755 |                7 |         1472994 |                     0 |      59679435 | 2017-02-09 01:17:43.500426+01

 2017-02-09 01:33:29.050362+01 | 1486600409.05036 |                 0 |               3 |                     5 |                   19 |                 17 |           755 |                7 |         1472994 |                     0 |      59759630 | 2017-02-09 01:17:43.500426+01

 2017-02-09 01:33:30.228129+01 | 1486600410.22813 |                 0 |               3 |                     5 |                   19 |                 17 |           755 |                7 |         1472994 |                     0 |      59843937 | 2017-02-09 01:17:43.500426+01

 2017-02-09 01:33:31.409093+01 | 1486600411.40909 |                 0 |               3 |                     5 |                   19 |                 17 |           755 |                7 |         1472994 |                     0 |      59928122 | 2017-02-09 01:17:43.500426+01

 2017-02-09 01:33:32.592156+01 | 1486600412.59216 |                 0 |               3 |                     5 |                   19 |                 17 |           755 |                7 |         1472994 |                     0 |      59998145 | 2017-02-09 01:17:43.500426+01

