 2017-02-09 01:28:33.584227+01 | 1486600113.58423 | pgbench_accounts |       4028858368
 2017-02-09 01:28:33.584227+01 | 1486600113.58423 | pgbench_tellers  |           139264
 2017-02-09 01:28:33.584227+01 | 1486600113.58423 | pgbench_history  |                0
 2017-02-09 01:28:33.584227+01 | 1486600113.58423 | pgbench_branches |            16384

 2017-02-09 01:28:34.722297+01 | 1486600114.7223 | pgbench_accounts |       4028858368
 2017-02-09 01:28:34.722297+01 | 1486600114.7223 | pgbench_tellers  |           139264
 2017-02-09 01:28:34.722297+01 | 1486600114.7223 | pgbench_history  |                0
 2017-02-09 01:28:34.722297+01 | 1486600114.7223 | pgbench_branches |            16384

 2017-02-09 01:28:35.900739+01 | 1486600115.90074 | pgbench_accounts |       4028858368
 2017-02-09 01:28:35.900739+01 | 1486600115.90074 | pgbench_tellers  |           139264
 2017-02-09 01:28:35.900739+01 | 1486600115.90074 | pgbench_history  |                0
 2017-02-09 01:28:35.900739+01 | 1486600115.90074 | pgbench_branches |            16384

 2017-02-09 01:28:37.071073+01 | 1486600117.07107 | pgbench_accounts |       4028858368
 2017-02-09 01:28:37.071073+01 | 1486600117.07107 | pgbench_tellers  |           139264
 2017-02-09 01:28:37.071073+01 | 1486600117.07107 | pgbench_history  |                0
 2017-02-09 01:28:37.071073+01 | 1486600117.07107 | pgbench_branches |            16384

 2017-02-09 01:28:38.208514+01 | 1486600118.20851 | pgbench_accounts |       4028858368
 2017-02-09 01:28:38.208514+01 | 1486600118.20851 | pgbench_tellers  |           139264
 2017-02-09 01:28:38.208514+01 | 1486600118.20851 | pgbench_history  |                0
 2017-02-09 01:28:38.208514+01 | 1486600118.20851 | pgbench_branches |            16384

 2017-02-09 01:28:39.300285+01 | 1486600119.30029 | pgbench_accounts |       4028858368
 2017-02-09 01:28:39.300285+01 | 1486600119.30029 | pgbench_tellers  |           139264
 2017-02-09 01:28:39.300285+01 | 1486600119.30029 | pgbench_history  |                0
 2017-02-09 01:28:39.300285+01 | 1486600119.30029 | pgbench_branches |            16384

 2017-02-09 01:28:40.432445+01 | 1486600120.43245 | pgbench_accounts |       4028858368
 2017-02-09 01:28:40.432445+01 | 1486600120.43245 | pgbench_tellers  |           139264
 2017-02-09 01:28:40.432445+01 | 1486600120.43245 | pgbench_history  |                0
 2017-02-09 01:28:40.432445+01 | 1486600120.43245 | pgbench_branches |            16384

 2017-02-09 01:28:41.528779+01 | 1486600121.52878 | pgbench_accounts |       4028858368
 2017-02-09 01:28:41.528779+01 | 1486600121.52878 | pgbench_tellers  |           139264
 2017-02-09 01:28:41.528779+01 | 1486600121.52878 | pgbench_history  |                0
 2017-02-09 01:28:41.528779+01 | 1486600121.52878 | pgbench_branches |            16384

 2017-02-09 01:28:42.661695+01 | 1486600122.6617 | pgbench_accounts |       4028858368
 2017-02-09 01:28:42.661695+01 | 1486600122.6617 | pgbench_tellers  |           139264
 2017-02-09 01:28:42.661695+01 | 1486600122.6617 | pgbench_history  |                0
 2017-02-09 01:28:42.661695+01 | 1486600122.6617 | pgbench_branches |            16384

 2017-02-09 01:28:43.830802+01 | 1486600123.8308 | pgbench_accounts |       4028858368
 2017-02-09 01:28:43.830802+01 | 1486600123.8308 | pgbench_tellers  |           139264
 2017-02-09 01:28:43.830802+01 | 1486600123.8308 | pgbench_history  |                0
 2017-02-09 01:28:43.830802+01 | 1486600123.8308 | pgbench_branches |            16384

 2017-02-09 01:28:45.013093+01 | 1486600125.01309 | pgbench_accounts |       4028858368
 2017-02-09 01:28:45.013093+01 | 1486600125.01309 | pgbench_tellers  |           139264
 2017-02-09 01:28:45.013093+01 | 1486600125.01309 | pgbench_history  |                0
 2017-02-09 01:28:45.013093+01 | 1486600125.01309 | pgbench_branches |            16384

 2017-02-09 01:28:46.194756+01 | 1486600126.19476 | pgbench_accounts |       4028858368
 2017-02-09 01:28:46.194756+01 | 1486600126.19476 | pgbench_tellers  |           139264
 2017-02-09 01:28:46.194756+01 | 1486600126.19476 | pgbench_history  |                0
 2017-02-09 01:28:46.194756+01 | 1486600126.19476 | pgbench_branches |            16384

 2017-02-09 01:28:47.376231+01 | 1486600127.37623 | pgbench_accounts |       4028858368
 2017-02-09 01:28:47.376231+01 | 1486600127.37623 | pgbench_tellers  |           139264
 2017-02-09 01:28:47.376231+01 | 1486600127.37623 | pgbench_history  |                0
 2017-02-09 01:28:47.376231+01 | 1486600127.37623 | pgbench_branches |            16384

 2017-02-09 01:28:48.558459+01 | 1486600128.55846 | pgbench_accounts |       4028858368
 2017-02-09 01:28:48.558459+01 | 1486600128.55846 | pgbench_tellers  |           139264
 2017-02-09 01:28:48.558459+01 | 1486600128.55846 | pgbench_history  |                0
 2017-02-09 01:28:48.558459+01 | 1486600128.55846 | pgbench_branches |            16384

 2017-02-09 01:28:49.719718+01 | 1486600129.71972 | pgbench_accounts |       4028858368
 2017-02-09 01:28:49.719718+01 | 1486600129.71972 | pgbench_tellers  |           139264
 2017-02-09 01:28:49.719718+01 | 1486600129.71972 | pgbench_history  |                0
 2017-02-09 01:28:49.719718+01 | 1486600129.71972 | pgbench_branches |            16384

 2017-02-09 01:28:50.901055+01 | 1486600130.90106 | pgbench_accounts |       4028858368
 2017-02-09 01:28:50.901055+01 | 1486600130.90106 | pgbench_tellers  |           139264
 2017-02-09 01:28:50.901055+01 | 1486600130.90106 | pgbench_history  |                0
 2017-02-09 01:28:50.901055+01 | 1486600130.90106 | pgbench_branches |            16384

 2017-02-09 01:28:52.080044+01 | 1486600132.08004 | pgbench_accounts |       4028858368
 2017-02-09 01:28:52.080044+01 | 1486600132.08004 | pgbench_tellers  |           139264
 2017-02-09 01:28:52.080044+01 | 1486600132.08004 | pgbench_history  |                0
 2017-02-09 01:28:52.080044+01 | 1486600132.08004 | pgbench_branches |            16384

 2017-02-09 01:28:53.236911+01 | 1486600133.23691 | pgbench_accounts |       4028858368
 2017-02-09 01:28:53.236911+01 | 1486600133.23691 | pgbench_tellers  |           139264
 2017-02-09 01:28:53.236911+01 | 1486600133.23691 | pgbench_history  |                0
 2017-02-09 01:28:53.236911+01 | 1486600133.23691 | pgbench_branches |            16384

 2017-02-09 01:28:54.416729+01 | 1486600134.41673 | pgbench_accounts |       4028858368
 2017-02-09 01:28:54.416729+01 | 1486600134.41673 | pgbench_tellers  |           139264
 2017-02-09 01:28:54.416729+01 | 1486600134.41673 | pgbench_history  |                0
 2017-02-09 01:28:54.416729+01 | 1486600134.41673 | pgbench_branches |            16384

 2017-02-09 01:28:55.575756+01 | 1486600135.57576 | pgbench_accounts |       4028858368
 2017-02-09 01:28:55.575756+01 | 1486600135.57576 | pgbench_tellers  |           139264
 2017-02-09 01:28:55.575756+01 | 1486600135.57576 | pgbench_history  |                0
 2017-02-09 01:28:55.575756+01 | 1486600135.57576 | pgbench_branches |            16384

 2017-02-09 01:28:56.754806+01 | 1486600136.75481 | pgbench_accounts |       4028858368
 2017-02-09 01:28:56.754806+01 | 1486600136.75481 | pgbench_tellers  |           139264
 2017-02-09 01:28:56.754806+01 | 1486600136.75481 | pgbench_history  |                0
 2017-02-09 01:28:56.754806+01 | 1486600136.75481 | pgbench_branches |            16384

 2017-02-09 01:28:57.934161+01 | 1486600137.93416 | pgbench_accounts |       4028858368
 2017-02-09 01:28:57.934161+01 | 1486600137.93416 | pgbench_tellers  |           139264
 2017-02-09 01:28:57.934161+01 | 1486600137.93416 | pgbench_history  |                0
 2017-02-09 01:28:57.934161+01 | 1486600137.93416 | pgbench_branches |            16384

 2017-02-09 01:28:59.115335+01 | 1486600139.11533 | pgbench_accounts |       4028858368
 2017-02-09 01:28:59.115335+01 | 1486600139.11533 | pgbench_tellers  |           139264
 2017-02-09 01:28:59.115335+01 | 1486600139.11533 | pgbench_history  |                0
 2017-02-09 01:28:59.115335+01 | 1486600139.11533 | pgbench_branches |            16384

 2017-02-09 01:29:00.297184+01 | 1486600140.29718 | pgbench_accounts |       4028858368
 2017-02-09 01:29:00.297184+01 | 1486600140.29718 | pgbench_tellers  |           139264
 2017-02-09 01:29:00.297184+01 | 1486600140.29718 | pgbench_history  |                0
 2017-02-09 01:29:00.297184+01 | 1486600140.29718 | pgbench_branches |            16384

 2017-02-09 01:29:01.479352+01 | 1486600141.47935 | pgbench_accounts |       4028858368
 2017-02-09 01:29:01.479352+01 | 1486600141.47935 | pgbench_tellers  |           139264
 2017-02-09 01:29:01.479352+01 | 1486600141.47935 | pgbench_history  |                0
 2017-02-09 01:29:01.479352+01 | 1486600141.47935 | pgbench_branches |            16384

 2017-02-09 01:29:02.661354+01 | 1486600142.66135 | pgbench_accounts |       4028858368
 2017-02-09 01:29:02.661354+01 | 1486600142.66135 | pgbench_tellers  |           139264
 2017-02-09 01:29:02.661354+01 | 1486600142.66135 | pgbench_history  |                0
 2017-02-09 01:29:02.661354+01 | 1486600142.66135 | pgbench_branches |            16384

 2017-02-09 01:29:03.840361+01 | 1486600143.84036 | pgbench_accounts |       4028858368
 2017-02-09 01:29:03.840361+01 | 1486600143.84036 | pgbench_tellers  |           139264
 2017-02-09 01:29:03.840361+01 | 1486600143.84036 | pgbench_history  |                0
 2017-02-09 01:29:03.840361+01 | 1486600143.84036 | pgbench_branches |            16384

 2017-02-09 01:29:05.022369+01 | 1486600145.02237 | pgbench_accounts |       4028858368
 2017-02-09 01:29:05.022369+01 | 1486600145.02237 | pgbench_tellers  |           139264
 2017-02-09 01:29:05.022369+01 | 1486600145.02237 | pgbench_history  |                0
 2017-02-09 01:29:05.022369+01 | 1486600145.02237 | pgbench_branches |            16384

 2017-02-09 01:29:06.201324+01 | 1486600146.20132 | pgbench_accounts |       4028858368
 2017-02-09 01:29:06.201324+01 | 1486600146.20132 | pgbench_tellers  |           139264
 2017-02-09 01:29:06.201324+01 | 1486600146.20132 | pgbench_history  |                0
 2017-02-09 01:29:06.201324+01 | 1486600146.20132 | pgbench_branches |            16384

 2017-02-09 01:29:07.384815+01 | 1486600147.38481 | pgbench_accounts |       4028858368
 2017-02-09 01:29:07.384815+01 | 1486600147.38481 | pgbench_tellers  |           139264
 2017-02-09 01:29:07.384815+01 | 1486600147.38481 | pgbench_history  |                0
 2017-02-09 01:29:07.384815+01 | 1486600147.38481 | pgbench_branches |            16384

 2017-02-09 01:29:08.56337+01 | 1486600148.56337 | pgbench_accounts |       4028858368
 2017-02-09 01:29:08.56337+01 | 1486600148.56337 | pgbench_tellers  |           139264
 2017-02-09 01:29:08.56337+01 | 1486600148.56337 | pgbench_history  |                0
 2017-02-09 01:29:08.56337+01 | 1486600148.56337 | pgbench_branches |            16384

 2017-02-09 01:29:09.733702+01 | 1486600149.7337 | pgbench_accounts |       4028858368
 2017-02-09 01:29:09.733702+01 | 1486600149.7337 | pgbench_tellers  |           139264
 2017-02-09 01:29:09.733702+01 | 1486600149.7337 | pgbench_history  |                0
 2017-02-09 01:29:09.733702+01 | 1486600149.7337 | pgbench_branches |            16384

 2017-02-09 01:29:10.882223+01 | 1486600150.88222 | pgbench_accounts |       4028858368
 2017-02-09 01:29:10.882223+01 | 1486600150.88222 | pgbench_tellers  |           139264
 2017-02-09 01:29:10.882223+01 | 1486600150.88222 | pgbench_history  |                0
 2017-02-09 01:29:10.882223+01 | 1486600150.88222 | pgbench_branches |            16384

 2017-02-09 01:29:12.048826+01 | 1486600152.04883 | pgbench_accounts |       4028858368
 2017-02-09 01:29:12.048826+01 | 1486600152.04883 | pgbench_tellers  |           139264
 2017-02-09 01:29:12.048826+01 | 1486600152.04883 | pgbench_history  |                0
 2017-02-09 01:29:12.048826+01 | 1486600152.04883 | pgbench_branches |            16384

 2017-02-09 01:29:13.229318+01 | 1486600153.22932 | pgbench_accounts |       4028858368
 2017-02-09 01:29:13.229318+01 | 1486600153.22932 | pgbench_tellers  |           139264
 2017-02-09 01:29:13.229318+01 | 1486600153.22932 | pgbench_history  |                0
 2017-02-09 01:29:13.229318+01 | 1486600153.22932 | pgbench_branches |            16384

 2017-02-09 01:29:14.29925+01 | 1486600154.29925 | pgbench_accounts |       4028858368
 2017-02-09 01:29:14.29925+01 | 1486600154.29925 | pgbench_tellers  |           139264
 2017-02-09 01:29:14.29925+01 | 1486600154.29925 | pgbench_history  |                0
 2017-02-09 01:29:14.29925+01 | 1486600154.29925 | pgbench_branches |            16384

 2017-02-09 01:29:15.445366+01 | 1486600155.44537 | pgbench_accounts |       4028858368
 2017-02-09 01:29:15.445366+01 | 1486600155.44537 | pgbench_tellers  |           139264
 2017-02-09 01:29:15.445366+01 | 1486600155.44537 | pgbench_history  |                0
 2017-02-09 01:29:15.445366+01 | 1486600155.44537 | pgbench_branches |            16384

 2017-02-09 01:29:16.627083+01 | 1486600156.62708 | pgbench_accounts |       4028858368
 2017-02-09 01:29:16.627083+01 | 1486600156.62708 | pgbench_tellers  |           139264
 2017-02-09 01:29:16.627083+01 | 1486600156.62708 | pgbench_history  |                0
 2017-02-09 01:29:16.627083+01 | 1486600156.62708 | pgbench_branches |            16384

 2017-02-09 01:29:17.740784+01 | 1486600157.74078 | pgbench_accounts |       4028858368
 2017-02-09 01:29:17.740784+01 | 1486600157.74078 | pgbench_tellers  |           139264
 2017-02-09 01:29:17.740784+01 | 1486600157.74078 | pgbench_history  |                0
 2017-02-09 01:29:17.740784+01 | 1486600157.74078 | pgbench_branches |            16384

 2017-02-09 01:29:18.849033+01 | 1486600158.84903 | pgbench_accounts |       4028858368
 2017-02-09 01:29:18.849033+01 | 1486600158.84903 | pgbench_tellers  |           139264
 2017-02-09 01:29:18.849033+01 | 1486600158.84903 | pgbench_history  |                0
 2017-02-09 01:29:18.849033+01 | 1486600158.84903 | pgbench_branches |            16384

 2017-02-09 01:29:19.956924+01 | 1486600159.95692 | pgbench_accounts |       4028858368
 2017-02-09 01:29:19.956924+01 | 1486600159.95692 | pgbench_tellers  |           139264
 2017-02-09 01:29:19.956924+01 | 1486600159.95692 | pgbench_history  |                0
 2017-02-09 01:29:19.956924+01 | 1486600159.95692 | pgbench_branches |            16384

 2017-02-09 01:29:21.066138+01 | 1486600161.06614 | pgbench_accounts |       4028858368
 2017-02-09 01:29:21.066138+01 | 1486600161.06614 | pgbench_tellers  |           139264
 2017-02-09 01:29:21.066138+01 | 1486600161.06614 | pgbench_history  |                0
 2017-02-09 01:29:21.066138+01 | 1486600161.06614 | pgbench_branches |            16384

 2017-02-09 01:29:22.188665+01 | 1486600162.18866 | pgbench_accounts |       4028858368
 2017-02-09 01:29:22.188665+01 | 1486600162.18866 | pgbench_tellers  |           139264
 2017-02-09 01:29:22.188665+01 | 1486600162.18866 | pgbench_history  |                0
 2017-02-09 01:29:22.188665+01 | 1486600162.18866 | pgbench_branches |            16384

 2017-02-09 01:29:23.344911+01 | 1486600163.34491 | pgbench_accounts |       4028858368
 2017-02-09 01:29:23.344911+01 | 1486600163.34491 | pgbench_tellers  |           139264
 2017-02-09 01:29:23.344911+01 | 1486600163.34491 | pgbench_history  |                0
 2017-02-09 01:29:23.344911+01 | 1486600163.34491 | pgbench_branches |            16384

 2017-02-09 01:29:24.420265+01 | 1486600164.42026 | pgbench_accounts |       4028858368
 2017-02-09 01:29:24.420265+01 | 1486600164.42026 | pgbench_tellers  |           139264
 2017-02-09 01:29:24.420265+01 | 1486600164.42026 | pgbench_history  |                0
 2017-02-09 01:29:24.420265+01 | 1486600164.42026 | pgbench_branches |            16384

 2017-02-09 01:29:25.568427+01 | 1486600165.56843 | pgbench_accounts |       4028858368
 2017-02-09 01:29:25.568427+01 | 1486600165.56843 | pgbench_tellers  |           139264
 2017-02-09 01:29:25.568427+01 | 1486600165.56843 | pgbench_history  |                0
 2017-02-09 01:29:25.568427+01 | 1486600165.56843 | pgbench_branches |            16384

 2017-02-09 01:29:26.750534+01 | 1486600166.75053 | pgbench_accounts |       4028858368
 2017-02-09 01:29:26.750534+01 | 1486600166.75053 | pgbench_tellers  |           139264
 2017-02-09 01:29:26.750534+01 | 1486600166.75053 | pgbench_history  |                0
 2017-02-09 01:29:26.750534+01 | 1486600166.75053 | pgbench_branches |            16384

 2017-02-09 01:29:27.932616+01 | 1486600167.93262 | pgbench_accounts |       4028858368
 2017-02-09 01:29:27.932616+01 | 1486600167.93262 | pgbench_tellers  |           139264
 2017-02-09 01:29:27.932616+01 | 1486600167.93262 | pgbench_history  |                0
 2017-02-09 01:29:27.932616+01 | 1486600167.93262 | pgbench_branches |            16384

 2017-02-09 01:29:29.113526+01 | 1486600169.11353 | pgbench_accounts |       4028858368
 2017-02-09 01:29:29.113526+01 | 1486600169.11353 | pgbench_tellers  |           139264
 2017-02-09 01:29:29.113526+01 | 1486600169.11353 | pgbench_history  |                0
 2017-02-09 01:29:29.113526+01 | 1486600169.11353 | pgbench_branches |            16384

 2017-02-09 01:29:30.296364+01 | 1486600170.29636 | pgbench_accounts |       4028858368
 2017-02-09 01:29:30.296364+01 | 1486600170.29636 | pgbench_tellers  |           139264
 2017-02-09 01:29:30.296364+01 | 1486600170.29636 | pgbench_history  |                0
 2017-02-09 01:29:30.296364+01 | 1486600170.29636 | pgbench_branches |            16384

 2017-02-09 01:29:31.478312+01 | 1486600171.47831 | pgbench_accounts |       4028858368
 2017-02-09 01:29:31.478312+01 | 1486600171.47831 | pgbench_tellers  |           139264
 2017-02-09 01:29:31.478312+01 | 1486600171.47831 | pgbench_history  |                0
 2017-02-09 01:29:31.478312+01 | 1486600171.47831 | pgbench_branches |            16384

 2017-02-09 01:29:32.659099+01 | 1486600172.6591 | pgbench_accounts |       4028858368
 2017-02-09 01:29:32.659099+01 | 1486600172.6591 | pgbench_tellers  |           139264
 2017-02-09 01:29:32.659099+01 | 1486600172.6591 | pgbench_history  |                0
 2017-02-09 01:29:32.659099+01 | 1486600172.6591 | pgbench_branches |            16384

 2017-02-09 01:29:33.842892+01 | 1486600173.84289 | pgbench_accounts |       4028858368
 2017-02-09 01:29:33.842892+01 | 1486600173.84289 | pgbench_tellers  |           139264
 2017-02-09 01:29:33.842892+01 | 1486600173.84289 | pgbench_history  |                0
 2017-02-09 01:29:33.842892+01 | 1486600173.84289 | pgbench_branches |            16384

 2017-02-09 01:29:35.024974+01 | 1486600175.02497 | pgbench_accounts |       4028858368
 2017-02-09 01:29:35.024974+01 | 1486600175.02497 | pgbench_tellers  |           139264
 2017-02-09 01:29:35.024974+01 | 1486600175.02497 | pgbench_history  |                0
 2017-02-09 01:29:35.024974+01 | 1486600175.02497 | pgbench_branches |            16384

 2017-02-09 01:29:36.206382+01 | 1486600176.20638 | pgbench_accounts |       4028858368
 2017-02-09 01:29:36.206382+01 | 1486600176.20638 | pgbench_tellers  |           139264
 2017-02-09 01:29:36.206382+01 | 1486600176.20638 | pgbench_history  |                0
 2017-02-09 01:29:36.206382+01 | 1486600176.20638 | pgbench_branches |            16384

 2017-02-09 01:29:37.376385+01 | 1486600177.37638 | pgbench_accounts |       4028858368
 2017-02-09 01:29:37.376385+01 | 1486600177.37638 | pgbench_tellers  |           139264
 2017-02-09 01:29:37.376385+01 | 1486600177.37638 | pgbench_history  |                0
 2017-02-09 01:29:37.376385+01 | 1486600177.37638 | pgbench_branches |            16384

 2017-02-09 01:29:38.55425+01 | 1486600178.55425 | pgbench_accounts |       4028858368
 2017-02-09 01:29:38.55425+01 | 1486600178.55425 | pgbench_tellers  |           139264
 2017-02-09 01:29:38.55425+01 | 1486600178.55425 | pgbench_history  |                0
 2017-02-09 01:29:38.55425+01 | 1486600178.55425 | pgbench_branches |            16384

 2017-02-09 01:29:39.690499+01 | 1486600179.6905 | pgbench_accounts |       4028858368
 2017-02-09 01:29:39.690499+01 | 1486600179.6905 | pgbench_tellers  |           139264
 2017-02-09 01:29:39.690499+01 | 1486600179.6905 | pgbench_history  |                0
 2017-02-09 01:29:39.690499+01 | 1486600179.6905 | pgbench_branches |            16384

 2017-02-09 01:29:40.795664+01 | 1486600180.79566 | pgbench_accounts |       4028858368
 2017-02-09 01:29:40.795664+01 | 1486600180.79566 | pgbench_tellers  |           139264
 2017-02-09 01:29:40.795664+01 | 1486600180.79566 | pgbench_history  |                0
 2017-02-09 01:29:40.795664+01 | 1486600180.79566 | pgbench_branches |            16384

 2017-02-09 01:29:41.87719+01 | 1486600181.87719 | pgbench_accounts |       4028858368
 2017-02-09 01:29:41.87719+01 | 1486600181.87719 | pgbench_tellers  |           139264
 2017-02-09 01:29:41.87719+01 | 1486600181.87719 | pgbench_history  |                0
 2017-02-09 01:29:41.87719+01 | 1486600181.87719 | pgbench_branches |            16384

 2017-02-09 01:29:42.990672+01 | 1486600182.99067 | pgbench_accounts |       4028858368
 2017-02-09 01:29:42.990672+01 | 1486600182.99067 | pgbench_tellers  |           139264
 2017-02-09 01:29:42.990672+01 | 1486600182.99067 | pgbench_history  |                0
 2017-02-09 01:29:42.990672+01 | 1486600182.99067 | pgbench_branches |            16384

 2017-02-09 01:29:44.141431+01 | 1486600184.14143 | pgbench_accounts |       4028858368
 2017-02-09 01:29:44.141431+01 | 1486600184.14143 | pgbench_tellers  |           139264
 2017-02-09 01:29:44.141431+01 | 1486600184.14143 | pgbench_history  |                0
 2017-02-09 01:29:44.141431+01 | 1486600184.14143 | pgbench_branches |            16384

 2017-02-09 01:29:45.282951+01 | 1486600185.28295 | pgbench_accounts |       4028858368
 2017-02-09 01:29:45.282951+01 | 1486600185.28295 | pgbench_tellers  |           139264
 2017-02-09 01:29:45.282951+01 | 1486600185.28295 | pgbench_history  |                0
 2017-02-09 01:29:45.282951+01 | 1486600185.28295 | pgbench_branches |            16384

 2017-02-09 01:29:46.464622+01 | 1486600186.46462 | pgbench_accounts |       4028858368
 2017-02-09 01:29:46.464622+01 | 1486600186.46462 | pgbench_tellers  |           139264
 2017-02-09 01:29:46.464622+01 | 1486600186.46462 | pgbench_history  |                0
 2017-02-09 01:29:46.464622+01 | 1486600186.46462 | pgbench_branches |            16384

 2017-02-09 01:29:47.646555+01 | 1486600187.64655 | pgbench_accounts |       4028858368
 2017-02-09 01:29:47.646555+01 | 1486600187.64655 | pgbench_tellers  |           139264
 2017-02-09 01:29:47.646555+01 | 1486600187.64655 | pgbench_history  |                0
 2017-02-09 01:29:47.646555+01 | 1486600187.64655 | pgbench_branches |            16384

 2017-02-09 01:29:48.82841+01 | 1486600188.82841 | pgbench_accounts |       4028858368
 2017-02-09 01:29:48.82841+01 | 1486600188.82841 | pgbench_tellers  |           139264
 2017-02-09 01:29:48.82841+01 | 1486600188.82841 | pgbench_history  |                0
 2017-02-09 01:29:48.82841+01 | 1486600188.82841 | pgbench_branches |            16384

 2017-02-09 01:29:50.011101+01 | 1486600190.0111 | pgbench_accounts |       4028858368
 2017-02-09 01:29:50.011101+01 | 1486600190.0111 | pgbench_tellers  |           139264
 2017-02-09 01:29:50.011101+01 | 1486600190.0111 | pgbench_history  |                0
 2017-02-09 01:29:50.011101+01 | 1486600190.0111 | pgbench_branches |            16384

 2017-02-09 01:29:51.192043+01 | 1486600191.19204 | pgbench_accounts |       4028858368
 2017-02-09 01:29:51.192043+01 | 1486600191.19204 | pgbench_tellers  |           139264
 2017-02-09 01:29:51.192043+01 | 1486600191.19204 | pgbench_history  |                0
 2017-02-09 01:29:51.192043+01 | 1486600191.19204 | pgbench_branches |            16384

 2017-02-09 01:29:52.374004+01 | 1486600192.374 | pgbench_accounts |       4028858368
 2017-02-09 01:29:52.374004+01 | 1486600192.374 | pgbench_tellers  |           139264
 2017-02-09 01:29:52.374004+01 | 1486600192.374 | pgbench_history  |                0
 2017-02-09 01:29:52.374004+01 | 1486600192.374 | pgbench_branches |            16384

 2017-02-09 01:29:53.554846+01 | 1486600193.55485 | pgbench_accounts |       4028858368
 2017-02-09 01:29:53.554846+01 | 1486600193.55485 | pgbench_tellers  |           139264
 2017-02-09 01:29:53.554846+01 | 1486600193.55485 | pgbench_history  |                0
 2017-02-09 01:29:53.554846+01 | 1486600193.55485 | pgbench_branches |            16384

 2017-02-09 01:29:54.742453+01 | 1486600194.74245 | pgbench_accounts |       4028858368
 2017-02-09 01:29:54.742453+01 | 1486600194.74245 | pgbench_tellers  |           139264
 2017-02-09 01:29:54.742453+01 | 1486600194.74245 | pgbench_history  |                0
 2017-02-09 01:29:54.742453+01 | 1486600194.74245 | pgbench_branches |            16384

 2017-02-09 01:29:55.92005+01 | 1486600195.92005 | pgbench_accounts |       4028858368
 2017-02-09 01:29:55.92005+01 | 1486600195.92005 | pgbench_tellers  |           139264
 2017-02-09 01:29:55.92005+01 | 1486600195.92005 | pgbench_history  |                0
 2017-02-09 01:29:55.92005+01 | 1486600195.92005 | pgbench_branches |            16384

 2017-02-09 01:29:57.104599+01 | 1486600197.1046 | pgbench_accounts |       4028858368
 2017-02-09 01:29:57.104599+01 | 1486600197.1046 | pgbench_tellers  |           139264
 2017-02-09 01:29:57.104599+01 | 1486600197.1046 | pgbench_history  |                0
 2017-02-09 01:29:57.104599+01 | 1486600197.1046 | pgbench_branches |            16384

 2017-02-09 01:29:58.285728+01 | 1486600198.28573 | pgbench_accounts |       4028858368
 2017-02-09 01:29:58.285728+01 | 1486600198.28573 | pgbench_tellers  |           139264
 2017-02-09 01:29:58.285728+01 | 1486600198.28573 | pgbench_history  |                0
 2017-02-09 01:29:58.285728+01 | 1486600198.28573 | pgbench_branches |            16384

 2017-02-09 01:29:59.431029+01 | 1486600199.43103 | pgbench_accounts |       4028858368
 2017-02-09 01:29:59.431029+01 | 1486600199.43103 | pgbench_tellers  |           139264
 2017-02-09 01:29:59.431029+01 | 1486600199.43103 | pgbench_history  |                0
 2017-02-09 01:29:59.431029+01 | 1486600199.43103 | pgbench_branches |            16384

 2017-02-09 01:30:00.588491+01 | 1486600200.58849 | pgbench_accounts |       4028858368
 2017-02-09 01:30:00.588491+01 | 1486600200.58849 | pgbench_tellers  |           139264
 2017-02-09 01:30:00.588491+01 | 1486600200.58849 | pgbench_history  |                0
 2017-02-09 01:30:00.588491+01 | 1486600200.58849 | pgbench_branches |            16384

 2017-02-09 01:30:01.773276+01 | 1486600201.77328 | pgbench_accounts |       4028858368
 2017-02-09 01:30:01.773276+01 | 1486600201.77328 | pgbench_tellers  |           139264
 2017-02-09 01:30:01.773276+01 | 1486600201.77328 | pgbench_history  |                0
 2017-02-09 01:30:01.773276+01 | 1486600201.77328 | pgbench_branches |            16384

 2017-02-09 01:30:02.954613+01 | 1486600202.95461 | pgbench_accounts |       4028858368
 2017-02-09 01:30:02.954613+01 | 1486600202.95461 | pgbench_tellers  |           139264
 2017-02-09 01:30:02.954613+01 | 1486600202.95461 | pgbench_history  |                0
 2017-02-09 01:30:02.954613+01 | 1486600202.95461 | pgbench_branches |            16384

 2017-02-09 01:30:04.137285+01 | 1486600204.13728 | pgbench_accounts |       4028858368
 2017-02-09 01:30:04.137285+01 | 1486600204.13728 | pgbench_tellers  |           139264
 2017-02-09 01:30:04.137285+01 | 1486600204.13728 | pgbench_history  |                0
 2017-02-09 01:30:04.137285+01 | 1486600204.13728 | pgbench_branches |            16384

 2017-02-09 01:30:05.316122+01 | 1486600205.31612 | pgbench_accounts |       4028858368
 2017-02-09 01:30:05.316122+01 | 1486600205.31612 | pgbench_tellers  |           139264
 2017-02-09 01:30:05.316122+01 | 1486600205.31612 | pgbench_history  |                0
 2017-02-09 01:30:05.316122+01 | 1486600205.31612 | pgbench_branches |            16384

 2017-02-09 01:30:06.458+01 | 1486600206.458 | pgbench_accounts |       4028858368
 2017-02-09 01:30:06.458+01 | 1486600206.458 | pgbench_tellers  |           139264
 2017-02-09 01:30:06.458+01 | 1486600206.458 | pgbench_history  |                0
 2017-02-09 01:30:06.458+01 | 1486600206.458 | pgbench_branches |            16384

 2017-02-09 01:30:07.615513+01 | 1486600207.61551 | pgbench_accounts |       4028858368
 2017-02-09 01:30:07.615513+01 | 1486600207.61551 | pgbench_tellers  |           139264
 2017-02-09 01:30:07.615513+01 | 1486600207.61551 | pgbench_history  |                0
 2017-02-09 01:30:07.615513+01 | 1486600207.61551 | pgbench_branches |            16384

 2017-02-09 01:30:08.71491+01 | 1486600208.71491 | pgbench_accounts |       4028858368
 2017-02-09 01:30:08.71491+01 | 1486600208.71491 | pgbench_tellers  |           139264
 2017-02-09 01:30:08.71491+01 | 1486600208.71491 | pgbench_history  |                0
 2017-02-09 01:30:08.71491+01 | 1486600208.71491 | pgbench_branches |            16384

 2017-02-09 01:30:09.884184+01 | 1486600209.88418 | pgbench_accounts |       4028858368
 2017-02-09 01:30:09.884184+01 | 1486600209.88418 | pgbench_tellers  |           139264
 2017-02-09 01:30:09.884184+01 | 1486600209.88418 | pgbench_history  |                0
 2017-02-09 01:30:09.884184+01 | 1486600209.88418 | pgbench_branches |            16384

 2017-02-09 01:30:11.043527+01 | 1486600211.04353 | pgbench_accounts |       4028858368
 2017-02-09 01:30:11.043527+01 | 1486600211.04353 | pgbench_tellers  |           139264
 2017-02-09 01:30:11.043527+01 | 1486600211.04353 | pgbench_history  |                0
 2017-02-09 01:30:11.043527+01 | 1486600211.04353 | pgbench_branches |            16384

 2017-02-09 01:30:12.208805+01 | 1486600212.20881 | pgbench_accounts |       4028858368
 2017-02-09 01:30:12.208805+01 | 1486600212.20881 | pgbench_tellers  |           139264
 2017-02-09 01:30:12.208805+01 | 1486600212.20881 | pgbench_history  |                0
 2017-02-09 01:30:12.208805+01 | 1486600212.20881 | pgbench_branches |            16384

 2017-02-09 01:30:13.388021+01 | 1486600213.38802 | pgbench_accounts |       4028858368
 2017-02-09 01:30:13.388021+01 | 1486600213.38802 | pgbench_tellers  |           139264
 2017-02-09 01:30:13.388021+01 | 1486600213.38802 | pgbench_history  |                0
 2017-02-09 01:30:13.388021+01 | 1486600213.38802 | pgbench_branches |            16384

 2017-02-09 01:30:14.568736+01 | 1486600214.56874 | pgbench_accounts |       4028858368
 2017-02-09 01:30:14.568736+01 | 1486600214.56874 | pgbench_tellers  |           139264
 2017-02-09 01:30:14.568736+01 | 1486600214.56874 | pgbench_history  |                0
 2017-02-09 01:30:14.568736+01 | 1486600214.56874 | pgbench_branches |            16384

 2017-02-09 01:30:15.753841+01 | 1486600215.75384 | pgbench_accounts |       4028858368
 2017-02-09 01:30:15.753841+01 | 1486600215.75384 | pgbench_tellers  |           139264
 2017-02-09 01:30:15.753841+01 | 1486600215.75384 | pgbench_history  |                0
 2017-02-09 01:30:15.753841+01 | 1486600215.75384 | pgbench_branches |            16384

 2017-02-09 01:30:16.937633+01 | 1486600216.93763 | pgbench_accounts |       4028858368
 2017-02-09 01:30:16.937633+01 | 1486600216.93763 | pgbench_tellers  |           139264
 2017-02-09 01:30:16.937633+01 | 1486600216.93763 | pgbench_history  |                0
 2017-02-09 01:30:16.937633+01 | 1486600216.93763 | pgbench_branches |            16384

 2017-02-09 01:30:18.125198+01 | 1486600218.1252 | pgbench_accounts |       4028858368
 2017-02-09 01:30:18.125198+01 | 1486600218.1252 | pgbench_tellers  |           139264
 2017-02-09 01:30:18.125198+01 | 1486600218.1252 | pgbench_history  |                0
 2017-02-09 01:30:18.125198+01 | 1486600218.1252 | pgbench_branches |            16384

 2017-02-09 01:30:19.305008+01 | 1486600219.30501 | pgbench_accounts |       4028858368
 2017-02-09 01:30:19.305008+01 | 1486600219.30501 | pgbench_tellers  |           139264
 2017-02-09 01:30:19.305008+01 | 1486600219.30501 | pgbench_history  |                0
 2017-02-09 01:30:19.305008+01 | 1486600219.30501 | pgbench_branches |            16384

 2017-02-09 01:30:20.487679+01 | 1486600220.48768 | pgbench_accounts |       4028858368
 2017-02-09 01:30:20.487679+01 | 1486600220.48768 | pgbench_tellers  |           139264
 2017-02-09 01:30:20.487679+01 | 1486600220.48768 | pgbench_history  |                0
 2017-02-09 01:30:20.487679+01 | 1486600220.48768 | pgbench_branches |            16384

 2017-02-09 01:30:21.671392+01 | 1486600221.67139 | pgbench_accounts |       4028858368
 2017-02-09 01:30:21.671392+01 | 1486600221.67139 | pgbench_tellers  |           139264
 2017-02-09 01:30:21.671392+01 | 1486600221.67139 | pgbench_history  |                0
 2017-02-09 01:30:21.671392+01 | 1486600221.67139 | pgbench_branches |            16384

 2017-02-09 01:30:22.853685+01 | 1486600222.85368 | pgbench_accounts |       4028858368
 2017-02-09 01:30:22.853685+01 | 1486600222.85368 | pgbench_tellers  |           139264
 2017-02-09 01:30:22.853685+01 | 1486600222.85368 | pgbench_history  |                0
 2017-02-09 01:30:22.853685+01 | 1486600222.85368 | pgbench_branches |            16384

 2017-02-09 01:30:24.036446+01 | 1486600224.03645 | pgbench_accounts |       4028858368
 2017-02-09 01:30:24.036446+01 | 1486600224.03645 | pgbench_tellers  |           139264
 2017-02-09 01:30:24.036446+01 | 1486600224.03645 | pgbench_history  |                0
 2017-02-09 01:30:24.036446+01 | 1486600224.03645 | pgbench_branches |            16384

 2017-02-09 01:30:25.219999+01 | 1486600225.22 | pgbench_accounts |       4028858368
 2017-02-09 01:30:25.219999+01 | 1486600225.22 | pgbench_tellers  |           139264
 2017-02-09 01:30:25.219999+01 | 1486600225.22 | pgbench_history  |                0
 2017-02-09 01:30:25.219999+01 | 1486600225.22 | pgbench_branches |            16384

 2017-02-09 01:30:26.402056+01 | 1486600226.40206 | pgbench_accounts |       4028858368
 2017-02-09 01:30:26.402056+01 | 1486600226.40206 | pgbench_tellers  |           139264
 2017-02-09 01:30:26.402056+01 | 1486600226.40206 | pgbench_history  |                0
 2017-02-09 01:30:26.402056+01 | 1486600226.40206 | pgbench_branches |            16384

 2017-02-09 01:30:27.583787+01 | 1486600227.58379 | pgbench_accounts |       4028858368
 2017-02-09 01:30:27.583787+01 | 1486600227.58379 | pgbench_tellers  |           139264
 2017-02-09 01:30:27.583787+01 | 1486600227.58379 | pgbench_history  |                0
 2017-02-09 01:30:27.583787+01 | 1486600227.58379 | pgbench_branches |            16384

 2017-02-09 01:30:28.765+01 | 1486600228.765 | pgbench_accounts |       4028858368
 2017-02-09 01:30:28.765+01 | 1486600228.765 | pgbench_tellers  |           139264
 2017-02-09 01:30:28.765+01 | 1486600228.765 | pgbench_history  |                0
 2017-02-09 01:30:28.765+01 | 1486600228.765 | pgbench_branches |            16384

 2017-02-09 01:30:29.948508+01 | 1486600229.94851 | pgbench_accounts |       4028858368
 2017-02-09 01:30:29.948508+01 | 1486600229.94851 | pgbench_tellers  |           139264
 2017-02-09 01:30:29.948508+01 | 1486600229.94851 | pgbench_history  |                0
 2017-02-09 01:30:29.948508+01 | 1486600229.94851 | pgbench_branches |            16384

 2017-02-09 01:30:31.131035+01 | 1486600231.13104 | pgbench_accounts |       4028858368
 2017-02-09 01:30:31.131035+01 | 1486600231.13104 | pgbench_tellers  |           139264
 2017-02-09 01:30:31.131035+01 | 1486600231.13104 | pgbench_history  |                0
 2017-02-09 01:30:31.131035+01 | 1486600231.13104 | pgbench_branches |            16384

 2017-02-09 01:30:32.295502+01 | 1486600232.2955 | pgbench_accounts |       4028858368
 2017-02-09 01:30:32.295502+01 | 1486600232.2955 | pgbench_tellers  |           139264
 2017-02-09 01:30:32.295502+01 | 1486600232.2955 | pgbench_history  |                0
 2017-02-09 01:30:32.295502+01 | 1486600232.2955 | pgbench_branches |            16384

 2017-02-09 01:30:33.455841+01 | 1486600233.45584 | pgbench_accounts |       4028858368
 2017-02-09 01:30:33.455841+01 | 1486600233.45584 | pgbench_tellers  |           139264
 2017-02-09 01:30:33.455841+01 | 1486600233.45584 | pgbench_history  |                0
 2017-02-09 01:30:33.455841+01 | 1486600233.45584 | pgbench_branches |            16384

 2017-02-09 01:30:34.616322+01 | 1486600234.61632 | pgbench_accounts |       4028858368
 2017-02-09 01:30:34.616322+01 | 1486600234.61632 | pgbench_tellers  |           139264
 2017-02-09 01:30:34.616322+01 | 1486600234.61632 | pgbench_history  |                0
 2017-02-09 01:30:34.616322+01 | 1486600234.61632 | pgbench_branches |            16384

 2017-02-09 01:30:35.727232+01 | 1486600235.72723 | pgbench_accounts |       4028858368
 2017-02-09 01:30:35.727232+01 | 1486600235.72723 | pgbench_tellers  |           139264
 2017-02-09 01:30:35.727232+01 | 1486600235.72723 | pgbench_history  |                0
 2017-02-09 01:30:35.727232+01 | 1486600235.72723 | pgbench_branches |            16384

 2017-02-09 01:30:36.841195+01 | 1486600236.8412 | pgbench_accounts |       4028858368
 2017-02-09 01:30:36.841195+01 | 1486600236.8412 | pgbench_tellers  |           139264
 2017-02-09 01:30:36.841195+01 | 1486600236.8412 | pgbench_history  |                0
 2017-02-09 01:30:36.841195+01 | 1486600236.8412 | pgbench_branches |            16384

 2017-02-09 01:30:37.979557+01 | 1486600237.97956 | pgbench_accounts |       4028858368
 2017-02-09 01:30:37.979557+01 | 1486600237.97956 | pgbench_tellers  |           139264
 2017-02-09 01:30:37.979557+01 | 1486600237.97956 | pgbench_history  |                0
 2017-02-09 01:30:37.979557+01 | 1486600237.97956 | pgbench_branches |            16384

 2017-02-09 01:30:39.139201+01 | 1486600239.1392 | pgbench_accounts |       4028858368
 2017-02-09 01:30:39.139201+01 | 1486600239.1392 | pgbench_tellers  |           139264
 2017-02-09 01:30:39.139201+01 | 1486600239.1392 | pgbench_history  |                0
 2017-02-09 01:30:39.139201+01 | 1486600239.1392 | pgbench_branches |            16384

 2017-02-09 01:30:40.247209+01 | 1486600240.24721 | pgbench_accounts |       4028858368
 2017-02-09 01:30:40.247209+01 | 1486600240.24721 | pgbench_tellers  |           139264
 2017-02-09 01:30:40.247209+01 | 1486600240.24721 | pgbench_history  |                0
 2017-02-09 01:30:40.247209+01 | 1486600240.24721 | pgbench_branches |            16384

 2017-02-09 01:30:41.385048+01 | 1486600241.38505 | pgbench_accounts |       4028858368
 2017-02-09 01:30:41.385048+01 | 1486600241.38505 | pgbench_tellers  |           139264
 2017-02-09 01:30:41.385048+01 | 1486600241.38505 | pgbench_history  |                0
 2017-02-09 01:30:41.385048+01 | 1486600241.38505 | pgbench_branches |            16384

 2017-02-09 01:30:42.48222+01 | 1486600242.48222 | pgbench_accounts |       4028858368
 2017-02-09 01:30:42.48222+01 | 1486600242.48222 | pgbench_tellers  |           139264
 2017-02-09 01:30:42.48222+01 | 1486600242.48222 | pgbench_history  |                0
 2017-02-09 01:30:42.48222+01 | 1486600242.48222 | pgbench_branches |            16384

 2017-02-09 01:30:43.62899+01 | 1486600243.62899 | pgbench_accounts |       4028858368
 2017-02-09 01:30:43.62899+01 | 1486600243.62899 | pgbench_tellers  |           139264
 2017-02-09 01:30:43.62899+01 | 1486600243.62899 | pgbench_history  |                0
 2017-02-09 01:30:43.62899+01 | 1486600243.62899 | pgbench_branches |            16384

 2017-02-09 01:30:44.81152+01 | 1486600244.81152 | pgbench_accounts |       4028858368
 2017-02-09 01:30:44.81152+01 | 1486600244.81152 | pgbench_tellers  |           139264
 2017-02-09 01:30:44.81152+01 | 1486600244.81152 | pgbench_history  |                0
 2017-02-09 01:30:44.81152+01 | 1486600244.81152 | pgbench_branches |            16384

 2017-02-09 01:30:45.992699+01 | 1486600245.9927 | pgbench_accounts |       4028858368
 2017-02-09 01:30:45.992699+01 | 1486600245.9927 | pgbench_tellers  |           139264
 2017-02-09 01:30:45.992699+01 | 1486600245.9927 | pgbench_history  |                0
 2017-02-09 01:30:45.992699+01 | 1486600245.9927 | pgbench_branches |            16384

 2017-02-09 01:30:47.172739+01 | 1486600247.17274 | pgbench_accounts |       4028858368
 2017-02-09 01:30:47.172739+01 | 1486600247.17274 | pgbench_tellers  |           139264
 2017-02-09 01:30:47.172739+01 | 1486600247.17274 | pgbench_history  |                0
 2017-02-09 01:30:47.172739+01 | 1486600247.17274 | pgbench_branches |            16384

 2017-02-09 01:30:48.349353+01 | 1486600248.34935 | pgbench_accounts |       4028858368
 2017-02-09 01:30:48.349353+01 | 1486600248.34935 | pgbench_tellers  |           139264
 2017-02-09 01:30:48.349353+01 | 1486600248.34935 | pgbench_history  |                0
 2017-02-09 01:30:48.349353+01 | 1486600248.34935 | pgbench_branches |            16384

 2017-02-09 01:30:49.534455+01 | 1486600249.53446 | pgbench_accounts |       4028858368
 2017-02-09 01:30:49.534455+01 | 1486600249.53446 | pgbench_tellers  |           139264
 2017-02-09 01:30:49.534455+01 | 1486600249.53446 | pgbench_history  |                0
 2017-02-09 01:30:49.534455+01 | 1486600249.53446 | pgbench_branches |            16384

 2017-02-09 01:30:50.719276+01 | 1486600250.71928 | pgbench_accounts |       4028858368
 2017-02-09 01:30:50.719276+01 | 1486600250.71928 | pgbench_tellers  |           139264
 2017-02-09 01:30:50.719276+01 | 1486600250.71928 | pgbench_history  |                0
 2017-02-09 01:30:50.719276+01 | 1486600250.71928 | pgbench_branches |            16384

 2017-02-09 01:30:51.885232+01 | 1486600251.88523 | pgbench_accounts |       4028858368
 2017-02-09 01:30:51.885232+01 | 1486600251.88523 | pgbench_tellers  |           139264
 2017-02-09 01:30:51.885232+01 | 1486600251.88523 | pgbench_history  |                0
 2017-02-09 01:30:51.885232+01 | 1486600251.88523 | pgbench_branches |            16384

 2017-02-09 01:30:53.038119+01 | 1486600253.03812 | pgbench_accounts |       4028858368
 2017-02-09 01:30:53.038119+01 | 1486600253.03812 | pgbench_tellers  |           139264
 2017-02-09 01:30:53.038119+01 | 1486600253.03812 | pgbench_history  |                0
 2017-02-09 01:30:53.038119+01 | 1486600253.03812 | pgbench_branches |            16384

 2017-02-09 01:30:54.219839+01 | 1486600254.21984 | pgbench_accounts |       4028858368
 2017-02-09 01:30:54.219839+01 | 1486600254.21984 | pgbench_tellers  |           139264
 2017-02-09 01:30:54.219839+01 | 1486600254.21984 | pgbench_history  |                0
 2017-02-09 01:30:54.219839+01 | 1486600254.21984 | pgbench_branches |            16384

 2017-02-09 01:30:55.399438+01 | 1486600255.39944 | pgbench_accounts |       4028858368
 2017-02-09 01:30:55.399438+01 | 1486600255.39944 | pgbench_tellers  |           139264
 2017-02-09 01:30:55.399438+01 | 1486600255.39944 | pgbench_history  |                0
 2017-02-09 01:30:55.399438+01 | 1486600255.39944 | pgbench_branches |            16384

 2017-02-09 01:30:56.581258+01 | 1486600256.58126 | pgbench_accounts |       4028858368
 2017-02-09 01:30:56.581258+01 | 1486600256.58126 | pgbench_tellers  |           139264
 2017-02-09 01:30:56.581258+01 | 1486600256.58126 | pgbench_history  |                0
 2017-02-09 01:30:56.581258+01 | 1486600256.58126 | pgbench_branches |            16384

 2017-02-09 01:30:57.724232+01 | 1486600257.72423 | pgbench_accounts |       4028858368
 2017-02-09 01:30:57.724232+01 | 1486600257.72423 | pgbench_tellers  |           139264
 2017-02-09 01:30:57.724232+01 | 1486600257.72423 | pgbench_history  |                0
 2017-02-09 01:30:57.724232+01 | 1486600257.72423 | pgbench_branches |            16384

 2017-02-09 01:30:58.881499+01 | 1486600258.8815 | pgbench_accounts |       4028858368
 2017-02-09 01:30:58.881499+01 | 1486600258.8815 | pgbench_tellers  |           139264
 2017-02-09 01:30:58.881499+01 | 1486600258.8815 | pgbench_history  |                0
 2017-02-09 01:30:58.881499+01 | 1486600258.8815 | pgbench_branches |            16384

 2017-02-09 01:31:00.068324+01 | 1486600260.06832 | pgbench_accounts |       4028858368
 2017-02-09 01:31:00.068324+01 | 1486600260.06832 | pgbench_tellers  |           139264
 2017-02-09 01:31:00.068324+01 | 1486600260.06832 | pgbench_history  |                0
 2017-02-09 01:31:00.068324+01 | 1486600260.06832 | pgbench_branches |            16384

 2017-02-09 01:31:01.224465+01 | 1486600261.22446 | pgbench_accounts |       4028858368
 2017-02-09 01:31:01.224465+01 | 1486600261.22446 | pgbench_tellers  |           139264
 2017-02-09 01:31:01.224465+01 | 1486600261.22446 | pgbench_history  |                0
 2017-02-09 01:31:01.224465+01 | 1486600261.22446 | pgbench_branches |            16384

 2017-02-09 01:31:02.404718+01 | 1486600262.40472 | pgbench_accounts |       4028858368
 2017-02-09 01:31:02.404718+01 | 1486600262.40472 | pgbench_tellers  |           139264
 2017-02-09 01:31:02.404718+01 | 1486600262.40472 | pgbench_history  |                0
 2017-02-09 01:31:02.404718+01 | 1486600262.40472 | pgbench_branches |            16384

 2017-02-09 01:31:03.585607+01 | 1486600263.58561 | pgbench_accounts |       4028858368
 2017-02-09 01:31:03.585607+01 | 1486600263.58561 | pgbench_tellers  |           139264
 2017-02-09 01:31:03.585607+01 | 1486600263.58561 | pgbench_history  |                0
 2017-02-09 01:31:03.585607+01 | 1486600263.58561 | pgbench_branches |            16384

 2017-02-09 01:31:04.767575+01 | 1486600264.76758 | pgbench_accounts |       4028858368
 2017-02-09 01:31:04.767575+01 | 1486600264.76758 | pgbench_tellers  |           139264
 2017-02-09 01:31:04.767575+01 | 1486600264.76758 | pgbench_history  |                0
 2017-02-09 01:31:04.767575+01 | 1486600264.76758 | pgbench_branches |            16384

 2017-02-09 01:31:05.952085+01 | 1486600265.95209 | pgbench_accounts |       4028858368
 2017-02-09 01:31:05.952085+01 | 1486600265.95209 | pgbench_tellers  |           139264
 2017-02-09 01:31:05.952085+01 | 1486600265.95209 | pgbench_history  |                0
 2017-02-09 01:31:05.952085+01 | 1486600265.95209 | pgbench_branches |            16384

 2017-02-09 01:31:07.137192+01 | 1486600267.13719 | pgbench_accounts |       4028858368
 2017-02-09 01:31:07.137192+01 | 1486600267.13719 | pgbench_tellers  |           139264
 2017-02-09 01:31:07.137192+01 | 1486600267.13719 | pgbench_history  |                0
 2017-02-09 01:31:07.137192+01 | 1486600267.13719 | pgbench_branches |            16384

 2017-02-09 01:31:08.321918+01 | 1486600268.32192 | pgbench_accounts |       4028858368
 2017-02-09 01:31:08.321918+01 | 1486600268.32192 | pgbench_tellers  |           139264
 2017-02-09 01:31:08.321918+01 | 1486600268.32192 | pgbench_history  |                0
 2017-02-09 01:31:08.321918+01 | 1486600268.32192 | pgbench_branches |            16384

 2017-02-09 01:31:09.503902+01 | 1486600269.5039 | pgbench_accounts |       4028858368
 2017-02-09 01:31:09.503902+01 | 1486600269.5039 | pgbench_tellers  |           139264
 2017-02-09 01:31:09.503902+01 | 1486600269.5039 | pgbench_history  |                0
 2017-02-09 01:31:09.503902+01 | 1486600269.5039 | pgbench_branches |            16384

 2017-02-09 01:31:10.685178+01 | 1486600270.68518 | pgbench_accounts |       4028858368
 2017-02-09 01:31:10.685178+01 | 1486600270.68518 | pgbench_tellers  |           139264
 2017-02-09 01:31:10.685178+01 | 1486600270.68518 | pgbench_history  |                0
 2017-02-09 01:31:10.685178+01 | 1486600270.68518 | pgbench_branches |            16384

 2017-02-09 01:31:11.867142+01 | 1486600271.86714 | pgbench_accounts |       4028858368
 2017-02-09 01:31:11.867142+01 | 1486600271.86714 | pgbench_tellers  |           139264
 2017-02-09 01:31:11.867142+01 | 1486600271.86714 | pgbench_history  |                0
 2017-02-09 01:31:11.867142+01 | 1486600271.86714 | pgbench_branches |            16384

 2017-02-09 01:31:13.053409+01 | 1486600273.05341 | pgbench_accounts |       4028858368
 2017-02-09 01:31:13.053409+01 | 1486600273.05341 | pgbench_tellers  |           139264
 2017-02-09 01:31:13.053409+01 | 1486600273.05341 | pgbench_history  |                0
 2017-02-09 01:31:13.053409+01 | 1486600273.05341 | pgbench_branches |            16384

 2017-02-09 01:31:14.222638+01 | 1486600274.22264 | pgbench_accounts |       4028858368
 2017-02-09 01:31:14.222638+01 | 1486600274.22264 | pgbench_tellers  |           139264
 2017-02-09 01:31:14.222638+01 | 1486600274.22264 | pgbench_history  |                0
 2017-02-09 01:31:14.222638+01 | 1486600274.22264 | pgbench_branches |            16384

 2017-02-09 01:31:15.402811+01 | 1486600275.40281 | pgbench_accounts |       4028858368
 2017-02-09 01:31:15.402811+01 | 1486600275.40281 | pgbench_tellers  |           139264
 2017-02-09 01:31:15.402811+01 | 1486600275.40281 | pgbench_history  |                0
 2017-02-09 01:31:15.402811+01 | 1486600275.40281 | pgbench_branches |            16384

 2017-02-09 01:31:16.52926+01 | 1486600276.52926 | pgbench_accounts |       4028858368
 2017-02-09 01:31:16.52926+01 | 1486600276.52926 | pgbench_tellers  |           139264
 2017-02-09 01:31:16.52926+01 | 1486600276.52926 | pgbench_history  |                0
 2017-02-09 01:31:16.52926+01 | 1486600276.52926 | pgbench_branches |            16384

 2017-02-09 01:31:17.682169+01 | 1486600277.68217 | pgbench_accounts |       4028858368
 2017-02-09 01:31:17.682169+01 | 1486600277.68217 | pgbench_tellers  |           139264
 2017-02-09 01:31:17.682169+01 | 1486600277.68217 | pgbench_history  |                0
 2017-02-09 01:31:17.682169+01 | 1486600277.68217 | pgbench_branches |            16384

 2017-02-09 01:31:18.862135+01 | 1486600278.86213 | pgbench_accounts |       4028858368
 2017-02-09 01:31:18.862135+01 | 1486600278.86213 | pgbench_tellers  |           139264
 2017-02-09 01:31:18.862135+01 | 1486600278.86213 | pgbench_history  |                0
 2017-02-09 01:31:18.862135+01 | 1486600278.86213 | pgbench_branches |            16384

 2017-02-09 01:31:20.043339+01 | 1486600280.04334 | pgbench_accounts |       4028858368
 2017-02-09 01:31:20.043339+01 | 1486600280.04334 | pgbench_tellers  |           139264
 2017-02-09 01:31:20.043339+01 | 1486600280.04334 | pgbench_history  |                0
 2017-02-09 01:31:20.043339+01 | 1486600280.04334 | pgbench_branches |            16384

 2017-02-09 01:31:21.225835+01 | 1486600281.22584 | pgbench_accounts |       4028858368
 2017-02-09 01:31:21.225835+01 | 1486600281.22584 | pgbench_tellers  |           139264
 2017-02-09 01:31:21.225835+01 | 1486600281.22584 | pgbench_history  |                0
 2017-02-09 01:31:21.225835+01 | 1486600281.22584 | pgbench_branches |            16384

 2017-02-09 01:31:22.41026+01 | 1486600282.41026 | pgbench_accounts |       4028858368
 2017-02-09 01:31:22.41026+01 | 1486600282.41026 | pgbench_tellers  |           139264
 2017-02-09 01:31:22.41026+01 | 1486600282.41026 | pgbench_history  |                0
 2017-02-09 01:31:22.41026+01 | 1486600282.41026 | pgbench_branches |            16384

 2017-02-09 01:31:23.586403+01 | 1486600283.5864 | pgbench_accounts |       4028858368
 2017-02-09 01:31:23.586403+01 | 1486600283.5864 | pgbench_tellers  |           139264
 2017-02-09 01:31:23.586403+01 | 1486600283.5864 | pgbench_history  |                0
 2017-02-09 01:31:23.586403+01 | 1486600283.5864 | pgbench_branches |            16384

 2017-02-09 01:31:24.767384+01 | 1486600284.76738 | pgbench_accounts |       4028858368
 2017-02-09 01:31:24.767384+01 | 1486600284.76738 | pgbench_tellers  |           139264
 2017-02-09 01:31:24.767384+01 | 1486600284.76738 | pgbench_history  |                0
 2017-02-09 01:31:24.767384+01 | 1486600284.76738 | pgbench_branches |            16384

 2017-02-09 01:31:25.949431+01 | 1486600285.94943 | pgbench_accounts |       4028858368
 2017-02-09 01:31:25.949431+01 | 1486600285.94943 | pgbench_tellers  |           139264
 2017-02-09 01:31:25.949431+01 | 1486600285.94943 | pgbench_history  |                0
 2017-02-09 01:31:25.949431+01 | 1486600285.94943 | pgbench_branches |            16384

 2017-02-09 01:31:27.130719+01 | 1486600287.13072 | pgbench_accounts |       4028858368
 2017-02-09 01:31:27.130719+01 | 1486600287.13072 | pgbench_tellers  |           139264
 2017-02-09 01:31:27.130719+01 | 1486600287.13072 | pgbench_history  |                0
 2017-02-09 01:31:27.130719+01 | 1486600287.13072 | pgbench_branches |            16384

 2017-02-09 01:31:28.277558+01 | 1486600288.27756 | pgbench_accounts |       4028858368
 2017-02-09 01:31:28.277558+01 | 1486600288.27756 | pgbench_tellers  |           139264
 2017-02-09 01:31:28.277558+01 | 1486600288.27756 | pgbench_history  |                0
 2017-02-09 01:31:28.277558+01 | 1486600288.27756 | pgbench_branches |            16384

 2017-02-09 01:31:29.417787+01 | 1486600289.41779 | pgbench_accounts |       4028858368
 2017-02-09 01:31:29.417787+01 | 1486600289.41779 | pgbench_tellers  |           139264
 2017-02-09 01:31:29.417787+01 | 1486600289.41779 | pgbench_history  |                0
 2017-02-09 01:31:29.417787+01 | 1486600289.41779 | pgbench_branches |            16384

 2017-02-09 01:31:30.59957+01 | 1486600290.59957 | pgbench_accounts |       4028858368
 2017-02-09 01:31:30.59957+01 | 1486600290.59957 | pgbench_tellers  |           139264
 2017-02-09 01:31:30.59957+01 | 1486600290.59957 | pgbench_history  |                0
 2017-02-09 01:31:30.59957+01 | 1486600290.59957 | pgbench_branches |            16384

 2017-02-09 01:31:31.767891+01 | 1486600291.76789 | pgbench_accounts |       4028858368
 2017-02-09 01:31:31.767891+01 | 1486600291.76789 | pgbench_tellers  |           139264
 2017-02-09 01:31:31.767891+01 | 1486600291.76789 | pgbench_history  |                0
 2017-02-09 01:31:31.767891+01 | 1486600291.76789 | pgbench_branches |            16384

 2017-02-09 01:31:32.951112+01 | 1486600292.95111 | pgbench_accounts |       4028858368
 2017-02-09 01:31:32.951112+01 | 1486600292.95111 | pgbench_tellers  |           139264
 2017-02-09 01:31:32.951112+01 | 1486600292.95111 | pgbench_history  |                0
 2017-02-09 01:31:32.951112+01 | 1486600292.95111 | pgbench_branches |            16384

 2017-02-09 01:31:34.132424+01 | 1486600294.13242 | pgbench_accounts |       4028858368
 2017-02-09 01:31:34.132424+01 | 1486600294.13242 | pgbench_tellers  |           139264
 2017-02-09 01:31:34.132424+01 | 1486600294.13242 | pgbench_history  |                0
 2017-02-09 01:31:34.132424+01 | 1486600294.13242 | pgbench_branches |            16384

 2017-02-09 01:31:35.267432+01 | 1486600295.26743 | pgbench_accounts |       4028858368
 2017-02-09 01:31:35.267432+01 | 1486600295.26743 | pgbench_tellers  |           139264
 2017-02-09 01:31:35.267432+01 | 1486600295.26743 | pgbench_history  |                0
 2017-02-09 01:31:35.267432+01 | 1486600295.26743 | pgbench_branches |            16384

 2017-02-09 01:31:36.368264+01 | 1486600296.36826 | pgbench_accounts |       4028858368
 2017-02-09 01:31:36.368264+01 | 1486600296.36826 | pgbench_tellers  |           139264
 2017-02-09 01:31:36.368264+01 | 1486600296.36826 | pgbench_history  |                0
 2017-02-09 01:31:36.368264+01 | 1486600296.36826 | pgbench_branches |            16384

 2017-02-09 01:31:37.50179+01 | 1486600297.50179 | pgbench_accounts |       4028858368
 2017-02-09 01:31:37.50179+01 | 1486600297.50179 | pgbench_tellers  |           139264
 2017-02-09 01:31:37.50179+01 | 1486600297.50179 | pgbench_history  |                0
 2017-02-09 01:31:37.50179+01 | 1486600297.50179 | pgbench_branches |            16384

 2017-02-09 01:31:38.67161+01 | 1486600298.67161 | pgbench_accounts |       4028858368
 2017-02-09 01:31:38.67161+01 | 1486600298.67161 | pgbench_tellers  |           139264
 2017-02-09 01:31:38.67161+01 | 1486600298.67161 | pgbench_history  |                0
 2017-02-09 01:31:38.67161+01 | 1486600298.67161 | pgbench_branches |            16384

 2017-02-09 01:31:39.814102+01 | 1486600299.8141 | pgbench_accounts |       4028858368
 2017-02-09 01:31:39.814102+01 | 1486600299.8141 | pgbench_tellers  |           139264
 2017-02-09 01:31:39.814102+01 | 1486600299.8141 | pgbench_history  |                0
 2017-02-09 01:31:39.814102+01 | 1486600299.8141 | pgbench_branches |            16384

 2017-02-09 01:31:40.994674+01 | 1486600300.99467 | pgbench_accounts |       4028858368
 2017-02-09 01:31:40.994674+01 | 1486600300.99467 | pgbench_tellers  |           139264
 2017-02-09 01:31:40.994674+01 | 1486600300.99467 | pgbench_history  |                0
 2017-02-09 01:31:40.994674+01 | 1486600300.99467 | pgbench_branches |            16384

 2017-02-09 01:31:42.177855+01 | 1486600302.17786 | pgbench_accounts |       4028858368
 2017-02-09 01:31:42.177855+01 | 1486600302.17786 | pgbench_tellers  |           139264
 2017-02-09 01:31:42.177855+01 | 1486600302.17786 | pgbench_history  |                0
 2017-02-09 01:31:42.177855+01 | 1486600302.17786 | pgbench_branches |            16384

 2017-02-09 01:31:43.35845+01 | 1486600303.35845 | pgbench_accounts |       4028858368
 2017-02-09 01:31:43.35845+01 | 1486600303.35845 | pgbench_tellers  |           139264
 2017-02-09 01:31:43.35845+01 | 1486600303.35845 | pgbench_history  |                0
 2017-02-09 01:31:43.35845+01 | 1486600303.35845 | pgbench_branches |            16384

 2017-02-09 01:31:44.539251+01 | 1486600304.53925 | pgbench_accounts |       4028858368
 2017-02-09 01:31:44.539251+01 | 1486600304.53925 | pgbench_tellers  |           139264
 2017-02-09 01:31:44.539251+01 | 1486600304.53925 | pgbench_history  |                0
 2017-02-09 01:31:44.539251+01 | 1486600304.53925 | pgbench_branches |            16384

 2017-02-09 01:31:45.720727+01 | 1486600305.72073 | pgbench_accounts |       4028858368
 2017-02-09 01:31:45.720727+01 | 1486600305.72073 | pgbench_tellers  |           139264
 2017-02-09 01:31:45.720727+01 | 1486600305.72073 | pgbench_history  |                0
 2017-02-09 01:31:45.720727+01 | 1486600305.72073 | pgbench_branches |            16384

 2017-02-09 01:31:46.902797+01 | 1486600306.9028 | pgbench_accounts |       4028858368
 2017-02-09 01:31:46.902797+01 | 1486600306.9028 | pgbench_tellers  |           139264
 2017-02-09 01:31:46.902797+01 | 1486600306.9028 | pgbench_history  |                0
 2017-02-09 01:31:46.902797+01 | 1486600306.9028 | pgbench_branches |            16384

 2017-02-09 01:31:48.087889+01 | 1486600308.08789 | pgbench_accounts |       4028858368
 2017-02-09 01:31:48.087889+01 | 1486600308.08789 | pgbench_tellers  |           139264
 2017-02-09 01:31:48.087889+01 | 1486600308.08789 | pgbench_history  |                0
 2017-02-09 01:31:48.087889+01 | 1486600308.08789 | pgbench_branches |            16384

 2017-02-09 01:31:49.24721+01 | 1486600309.24721 | pgbench_accounts |       4028858368
 2017-02-09 01:31:49.24721+01 | 1486600309.24721 | pgbench_tellers  |           139264
 2017-02-09 01:31:49.24721+01 | 1486600309.24721 | pgbench_history  |                0
 2017-02-09 01:31:49.24721+01 | 1486600309.24721 | pgbench_branches |            16384

 2017-02-09 01:31:50.360656+01 | 1486600310.36066 | pgbench_accounts |       4028858368
 2017-02-09 01:31:50.360656+01 | 1486600310.36066 | pgbench_tellers  |           139264
 2017-02-09 01:31:50.360656+01 | 1486600310.36066 | pgbench_history  |                0
 2017-02-09 01:31:50.360656+01 | 1486600310.36066 | pgbench_branches |            16384

 2017-02-09 01:31:51.539049+01 | 1486600311.53905 | pgbench_accounts |       4028858368
 2017-02-09 01:31:51.539049+01 | 1486600311.53905 | pgbench_tellers  |           139264
 2017-02-09 01:31:51.539049+01 | 1486600311.53905 | pgbench_history  |                0
 2017-02-09 01:31:51.539049+01 | 1486600311.53905 | pgbench_branches |            16384

 2017-02-09 01:31:52.718997+01 | 1486600312.719 | pgbench_accounts |       4028858368
 2017-02-09 01:31:52.718997+01 | 1486600312.719 | pgbench_tellers  |           139264
 2017-02-09 01:31:52.718997+01 | 1486600312.719 | pgbench_history  |                0
 2017-02-09 01:31:52.718997+01 | 1486600312.719 | pgbench_branches |            16384

 2017-02-09 01:31:53.89907+01 | 1486600313.89907 | pgbench_accounts |       4028858368
 2017-02-09 01:31:53.89907+01 | 1486600313.89907 | pgbench_tellers  |           139264
 2017-02-09 01:31:53.89907+01 | 1486600313.89907 | pgbench_history  |                0
 2017-02-09 01:31:53.89907+01 | 1486600313.89907 | pgbench_branches |            16384

 2017-02-09 01:31:55.062547+01 | 1486600315.06255 | pgbench_accounts |       4028858368
 2017-02-09 01:31:55.062547+01 | 1486600315.06255 | pgbench_tellers  |           139264
 2017-02-09 01:31:55.062547+01 | 1486600315.06255 | pgbench_history  |                0
 2017-02-09 01:31:55.062547+01 | 1486600315.06255 | pgbench_branches |            16384

 2017-02-09 01:31:56.239671+01 | 1486600316.23967 | pgbench_accounts |       4028858368
 2017-02-09 01:31:56.239671+01 | 1486600316.23967 | pgbench_tellers  |           139264
 2017-02-09 01:31:56.239671+01 | 1486600316.23967 | pgbench_history  |                0
 2017-02-09 01:31:56.239671+01 | 1486600316.23967 | pgbench_branches |            16384

 2017-02-09 01:31:57.377165+01 | 1486600317.37717 | pgbench_accounts |       4028858368
 2017-02-09 01:31:57.377165+01 | 1486600317.37717 | pgbench_tellers  |           139264
 2017-02-09 01:31:57.377165+01 | 1486600317.37717 | pgbench_history  |                0
 2017-02-09 01:31:57.377165+01 | 1486600317.37717 | pgbench_branches |            16384

 2017-02-09 01:31:58.51763+01 | 1486600318.51763 | pgbench_accounts |       4028858368
 2017-02-09 01:31:58.51763+01 | 1486600318.51763 | pgbench_tellers  |           139264
 2017-02-09 01:31:58.51763+01 | 1486600318.51763 | pgbench_history  |                0
 2017-02-09 01:31:58.51763+01 | 1486600318.51763 | pgbench_branches |            16384

 2017-02-09 01:31:59.670771+01 | 1486600319.67077 | pgbench_accounts |       4028858368
 2017-02-09 01:31:59.670771+01 | 1486600319.67077 | pgbench_tellers  |           139264
 2017-02-09 01:31:59.670771+01 | 1486600319.67077 | pgbench_history  |                0
 2017-02-09 01:31:59.670771+01 | 1486600319.67077 | pgbench_branches |            16384

 2017-02-09 01:32:00.852297+01 | 1486600320.8523 | pgbench_accounts |       4028858368
 2017-02-09 01:32:00.852297+01 | 1486600320.8523 | pgbench_tellers  |           139264
 2017-02-09 01:32:00.852297+01 | 1486600320.8523 | pgbench_history  |                0
 2017-02-09 01:32:00.852297+01 | 1486600320.8523 | pgbench_branches |            16384

 2017-02-09 01:32:02.033564+01 | 1486600322.03356 | pgbench_accounts |       4028858368
 2017-02-09 01:32:02.033564+01 | 1486600322.03356 | pgbench_tellers  |           139264
 2017-02-09 01:32:02.033564+01 | 1486600322.03356 | pgbench_history  |                0
 2017-02-09 01:32:02.033564+01 | 1486600322.03356 | pgbench_branches |            16384

 2017-02-09 01:32:03.208931+01 | 1486600323.20893 | pgbench_accounts |       4028858368
 2017-02-09 01:32:03.208931+01 | 1486600323.20893 | pgbench_tellers  |           139264
 2017-02-09 01:32:03.208931+01 | 1486600323.20893 | pgbench_history  |                0
 2017-02-09 01:32:03.208931+01 | 1486600323.20893 | pgbench_branches |            16384

 2017-02-09 01:32:04.386703+01 | 1486600324.3867 | pgbench_accounts |       4028858368
 2017-02-09 01:32:04.386703+01 | 1486600324.3867 | pgbench_tellers  |           139264
 2017-02-09 01:32:04.386703+01 | 1486600324.3867 | pgbench_history  |                0
 2017-02-09 01:32:04.386703+01 | 1486600324.3867 | pgbench_branches |            16384

 2017-02-09 01:32:05.569196+01 | 1486600325.5692 | pgbench_accounts |       4028858368
 2017-02-09 01:32:05.569196+01 | 1486600325.5692 | pgbench_tellers  |           139264
 2017-02-09 01:32:05.569196+01 | 1486600325.5692 | pgbench_history  |                0
 2017-02-09 01:32:05.569196+01 | 1486600325.5692 | pgbench_branches |            16384

 2017-02-09 01:32:06.753784+01 | 1486600326.75378 | pgbench_accounts |       4028858368
 2017-02-09 01:32:06.753784+01 | 1486600326.75378 | pgbench_tellers  |           139264
 2017-02-09 01:32:06.753784+01 | 1486600326.75378 | pgbench_history  |                0
 2017-02-09 01:32:06.753784+01 | 1486600326.75378 | pgbench_branches |            16384

 2017-02-09 01:32:07.936555+01 | 1486600327.93655 | pgbench_accounts |       4028858368
 2017-02-09 01:32:07.936555+01 | 1486600327.93655 | pgbench_tellers  |           139264
 2017-02-09 01:32:07.936555+01 | 1486600327.93655 | pgbench_history  |                0
 2017-02-09 01:32:07.936555+01 | 1486600327.93655 | pgbench_branches |            16384

 2017-02-09 01:32:09.122871+01 | 1486600329.12287 | pgbench_accounts |       4028858368
 2017-02-09 01:32:09.122871+01 | 1486600329.12287 | pgbench_tellers  |           139264
 2017-02-09 01:32:09.122871+01 | 1486600329.12287 | pgbench_history  |                0
 2017-02-09 01:32:09.122871+01 | 1486600329.12287 | pgbench_branches |            16384

 2017-02-09 01:32:10.30142+01 | 1486600330.30142 | pgbench_accounts |       4028858368
 2017-02-09 01:32:10.30142+01 | 1486600330.30142 | pgbench_tellers  |           139264
 2017-02-09 01:32:10.30142+01 | 1486600330.30142 | pgbench_history  |                0
 2017-02-09 01:32:10.30142+01 | 1486600330.30142 | pgbench_branches |            16384

 2017-02-09 01:32:11.482747+01 | 1486600331.48275 | pgbench_accounts |       4028858368
 2017-02-09 01:32:11.482747+01 | 1486600331.48275 | pgbench_tellers  |           139264
 2017-02-09 01:32:11.482747+01 | 1486600331.48275 | pgbench_history  |                0
 2017-02-09 01:32:11.482747+01 | 1486600331.48275 | pgbench_branches |            16384

 2017-02-09 01:32:12.661181+01 | 1486600332.66118 | pgbench_accounts |       4028858368
 2017-02-09 01:32:12.661181+01 | 1486600332.66118 | pgbench_tellers  |           139264
 2017-02-09 01:32:12.661181+01 | 1486600332.66118 | pgbench_history  |                0
 2017-02-09 01:32:12.661181+01 | 1486600332.66118 | pgbench_branches |            16384

 2017-02-09 01:32:13.842511+01 | 1486600333.84251 | pgbench_accounts |       4028858368
 2017-02-09 01:32:13.842511+01 | 1486600333.84251 | pgbench_tellers  |           139264
 2017-02-09 01:32:13.842511+01 | 1486600333.84251 | pgbench_history  |                0
 2017-02-09 01:32:13.842511+01 | 1486600333.84251 | pgbench_branches |            16384

 2017-02-09 01:32:15.02676+01 | 1486600335.02676 | pgbench_accounts |       4028858368
 2017-02-09 01:32:15.02676+01 | 1486600335.02676 | pgbench_tellers  |           139264
 2017-02-09 01:32:15.02676+01 | 1486600335.02676 | pgbench_history  |                0
 2017-02-09 01:32:15.02676+01 | 1486600335.02676 | pgbench_branches |            16384

 2017-02-09 01:32:16.21218+01 | 1486600336.21218 | pgbench_accounts |       4028858368
 2017-02-09 01:32:16.21218+01 | 1486600336.21218 | pgbench_tellers  |           139264
 2017-02-09 01:32:16.21218+01 | 1486600336.21218 | pgbench_history  |                0
 2017-02-09 01:32:16.21218+01 | 1486600336.21218 | pgbench_branches |            16384

 2017-02-09 01:32:17.395377+01 | 1486600337.39538 | pgbench_accounts |       4028858368
 2017-02-09 01:32:17.395377+01 | 1486600337.39538 | pgbench_tellers  |           139264
 2017-02-09 01:32:17.395377+01 | 1486600337.39538 | pgbench_history  |                0
 2017-02-09 01:32:17.395377+01 | 1486600337.39538 | pgbench_branches |            16384

 2017-02-09 01:32:18.577331+01 | 1486600338.57733 | pgbench_accounts |       4028858368
 2017-02-09 01:32:18.577331+01 | 1486600338.57733 | pgbench_tellers  |           139264
 2017-02-09 01:32:18.577331+01 | 1486600338.57733 | pgbench_history  |                0
 2017-02-09 01:32:18.577331+01 | 1486600338.57733 | pgbench_branches |            16384

 2017-02-09 01:32:19.762692+01 | 1486600339.76269 | pgbench_accounts |       4028858368
 2017-02-09 01:32:19.762692+01 | 1486600339.76269 | pgbench_tellers  |           139264
 2017-02-09 01:32:19.762692+01 | 1486600339.76269 | pgbench_history  |                0
 2017-02-09 01:32:19.762692+01 | 1486600339.76269 | pgbench_branches |            16384

 2017-02-09 01:32:20.942111+01 | 1486600340.94211 | pgbench_accounts |       4028858368
 2017-02-09 01:32:20.942111+01 | 1486600340.94211 | pgbench_tellers  |           139264
 2017-02-09 01:32:20.942111+01 | 1486600340.94211 | pgbench_history  |                0
 2017-02-09 01:32:20.942111+01 | 1486600340.94211 | pgbench_branches |            16384

 2017-02-09 01:32:22.122234+01 | 1486600342.12223 | pgbench_accounts |       4028858368
 2017-02-09 01:32:22.122234+01 | 1486600342.12223 | pgbench_tellers  |           139264
 2017-02-09 01:32:22.122234+01 | 1486600342.12223 | pgbench_history  |                0
 2017-02-09 01:32:22.122234+01 | 1486600342.12223 | pgbench_branches |            16384

 2017-02-09 01:32:23.302191+01 | 1486600343.30219 | pgbench_accounts |       4028858368
 2017-02-09 01:32:23.302191+01 | 1486600343.30219 | pgbench_tellers  |           139264
 2017-02-09 01:32:23.302191+01 | 1486600343.30219 | pgbench_history  |                0
 2017-02-09 01:32:23.302191+01 | 1486600343.30219 | pgbench_branches |            16384

 2017-02-09 01:32:24.484275+01 | 1486600344.48428 | pgbench_accounts |       4028858368
 2017-02-09 01:32:24.484275+01 | 1486600344.48428 | pgbench_tellers  |           139264
 2017-02-09 01:32:24.484275+01 | 1486600344.48428 | pgbench_history  |                0
 2017-02-09 01:32:24.484275+01 | 1486600344.48428 | pgbench_branches |            16384

 2017-02-09 01:32:25.665786+01 | 1486600345.66579 | pgbench_accounts |       4028858368
 2017-02-09 01:32:25.665786+01 | 1486600345.66579 | pgbench_tellers  |           139264
 2017-02-09 01:32:25.665786+01 | 1486600345.66579 | pgbench_history  |                0
 2017-02-09 01:32:25.665786+01 | 1486600345.66579 | pgbench_branches |            16384

 2017-02-09 01:32:26.851616+01 | 1486600346.85162 | pgbench_accounts |       4028858368
 2017-02-09 01:32:26.851616+01 | 1486600346.85162 | pgbench_tellers  |           139264
 2017-02-09 01:32:26.851616+01 | 1486600346.85162 | pgbench_history  |                0
 2017-02-09 01:32:26.851616+01 | 1486600346.85162 | pgbench_branches |            16384

 2017-02-09 01:32:28.018474+01 | 1486600348.01847 | pgbench_accounts |       4028858368
 2017-02-09 01:32:28.018474+01 | 1486600348.01847 | pgbench_tellers  |           139264
 2017-02-09 01:32:28.018474+01 | 1486600348.01847 | pgbench_history  |                0
 2017-02-09 01:32:28.018474+01 | 1486600348.01847 | pgbench_branches |            16384

 2017-02-09 01:32:29.180843+01 | 1486600349.18084 | pgbench_accounts |       4028858368
 2017-02-09 01:32:29.180843+01 | 1486600349.18084 | pgbench_tellers  |           139264
 2017-02-09 01:32:29.180843+01 | 1486600349.18084 | pgbench_history  |                0
 2017-02-09 01:32:29.180843+01 | 1486600349.18084 | pgbench_branches |            16384

 2017-02-09 01:32:30.36292+01 | 1486600350.36292 | pgbench_accounts |       4028858368
 2017-02-09 01:32:30.36292+01 | 1486600350.36292 | pgbench_tellers  |           139264
 2017-02-09 01:32:30.36292+01 | 1486600350.36292 | pgbench_history  |                0
 2017-02-09 01:32:30.36292+01 | 1486600350.36292 | pgbench_branches |            16384

 2017-02-09 01:32:31.530789+01 | 1486600351.53079 | pgbench_accounts |       4028858368
 2017-02-09 01:32:31.530789+01 | 1486600351.53079 | pgbench_tellers  |           139264
 2017-02-09 01:32:31.530789+01 | 1486600351.53079 | pgbench_history  |                0
 2017-02-09 01:32:31.530789+01 | 1486600351.53079 | pgbench_branches |            16384

 2017-02-09 01:32:32.714348+01 | 1486600352.71435 | pgbench_accounts |       4028858368
 2017-02-09 01:32:32.714348+01 | 1486600352.71435 | pgbench_tellers  |           139264
 2017-02-09 01:32:32.714348+01 | 1486600352.71435 | pgbench_history  |                0
 2017-02-09 01:32:32.714348+01 | 1486600352.71435 | pgbench_branches |            16384

 2017-02-09 01:32:33.895854+01 | 1486600353.89585 | pgbench_accounts |       4028858368
 2017-02-09 01:32:33.895854+01 | 1486600353.89585 | pgbench_tellers  |           139264
 2017-02-09 01:32:33.895854+01 | 1486600353.89585 | pgbench_history  |                0
 2017-02-09 01:32:33.895854+01 | 1486600353.89585 | pgbench_branches |            16384

 2017-02-09 01:32:35.078312+01 | 1486600355.07831 | pgbench_accounts |       4028858368
 2017-02-09 01:32:35.078312+01 | 1486600355.07831 | pgbench_tellers  |           139264
 2017-02-09 01:32:35.078312+01 | 1486600355.07831 | pgbench_history  |                0
 2017-02-09 01:32:35.078312+01 | 1486600355.07831 | pgbench_branches |            16384

 2017-02-09 01:32:36.256722+01 | 1486600356.25672 | pgbench_accounts |       4028858368
 2017-02-09 01:32:36.256722+01 | 1486600356.25672 | pgbench_tellers  |           139264
 2017-02-09 01:32:36.256722+01 | 1486600356.25672 | pgbench_history  |                0
 2017-02-09 01:32:36.256722+01 | 1486600356.25672 | pgbench_branches |            16384

 2017-02-09 01:32:37.436091+01 | 1486600357.43609 | pgbench_accounts |       4028858368
 2017-02-09 01:32:37.436091+01 | 1486600357.43609 | pgbench_tellers  |           139264
 2017-02-09 01:32:37.436091+01 | 1486600357.43609 | pgbench_history  |                0
 2017-02-09 01:32:37.436091+01 | 1486600357.43609 | pgbench_branches |            16384

 2017-02-09 01:32:38.62126+01 | 1486600358.62126 | pgbench_accounts |       4028858368
 2017-02-09 01:32:38.62126+01 | 1486600358.62126 | pgbench_tellers  |           139264
 2017-02-09 01:32:38.62126+01 | 1486600358.62126 | pgbench_history  |                0
 2017-02-09 01:32:38.62126+01 | 1486600358.62126 | pgbench_branches |            16384

 2017-02-09 01:32:39.801529+01 | 1486600359.80153 | pgbench_accounts |       4028858368
 2017-02-09 01:32:39.801529+01 | 1486600359.80153 | pgbench_tellers  |           139264
 2017-02-09 01:32:39.801529+01 | 1486600359.80153 | pgbench_history  |                0
 2017-02-09 01:32:39.801529+01 | 1486600359.80153 | pgbench_branches |            16384

 2017-02-09 01:32:40.985405+01 | 1486600360.9854 | pgbench_accounts |       4028858368
 2017-02-09 01:32:40.985405+01 | 1486600360.9854 | pgbench_tellers  |           139264
 2017-02-09 01:32:40.985405+01 | 1486600360.9854 | pgbench_history  |                0
 2017-02-09 01:32:40.985405+01 | 1486600360.9854 | pgbench_branches |            16384

 2017-02-09 01:32:42.132851+01 | 1486600362.13285 | pgbench_accounts |       4028858368
 2017-02-09 01:32:42.132851+01 | 1486600362.13285 | pgbench_tellers  |           139264
 2017-02-09 01:32:42.132851+01 | 1486600362.13285 | pgbench_history  |                0
 2017-02-09 01:32:42.132851+01 | 1486600362.13285 | pgbench_branches |            16384

 2017-02-09 01:32:43.313809+01 | 1486600363.31381 | pgbench_accounts |       4028858368
 2017-02-09 01:32:43.313809+01 | 1486600363.31381 | pgbench_tellers  |           139264
 2017-02-09 01:32:43.313809+01 | 1486600363.31381 | pgbench_history  |                0
 2017-02-09 01:32:43.313809+01 | 1486600363.31381 | pgbench_branches |            16384

 2017-02-09 01:32:44.499473+01 | 1486600364.49947 | pgbench_accounts |       4028858368
 2017-02-09 01:32:44.499473+01 | 1486600364.49947 | pgbench_tellers  |           139264
 2017-02-09 01:32:44.499473+01 | 1486600364.49947 | pgbench_history  |                0
 2017-02-09 01:32:44.499473+01 | 1486600364.49947 | pgbench_branches |            16384

 2017-02-09 01:32:45.68222+01 | 1486600365.68222 | pgbench_accounts |       4028858368
 2017-02-09 01:32:45.68222+01 | 1486600365.68222 | pgbench_tellers  |           139264
 2017-02-09 01:32:45.68222+01 | 1486600365.68222 | pgbench_history  |                0
 2017-02-09 01:32:45.68222+01 | 1486600365.68222 | pgbench_branches |            16384

 2017-02-09 01:32:46.864026+01 | 1486600366.86403 | pgbench_accounts |       4028858368
 2017-02-09 01:32:46.864026+01 | 1486600366.86403 | pgbench_tellers  |           139264
 2017-02-09 01:32:46.864026+01 | 1486600366.86403 | pgbench_history  |                0
 2017-02-09 01:32:46.864026+01 | 1486600366.86403 | pgbench_branches |            16384

 2017-02-09 01:32:48.004698+01 | 1486600368.0047 | pgbench_accounts |       4028858368
 2017-02-09 01:32:48.004698+01 | 1486600368.0047 | pgbench_tellers  |           139264
 2017-02-09 01:32:48.004698+01 | 1486600368.0047 | pgbench_history  |                0
 2017-02-09 01:32:48.004698+01 | 1486600368.0047 | pgbench_branches |            16384

 2017-02-09 01:32:49.187164+01 | 1486600369.18716 | pgbench_accounts |       4028858368
 2017-02-09 01:32:49.187164+01 | 1486600369.18716 | pgbench_tellers  |           139264
 2017-02-09 01:32:49.187164+01 | 1486600369.18716 | pgbench_history  |                0
 2017-02-09 01:32:49.187164+01 | 1486600369.18716 | pgbench_branches |            16384

 2017-02-09 01:32:50.348629+01 | 1486600370.34863 | pgbench_accounts |       4028858368
 2017-02-09 01:32:50.348629+01 | 1486600370.34863 | pgbench_tellers  |           139264
 2017-02-09 01:32:50.348629+01 | 1486600370.34863 | pgbench_history  |                0
 2017-02-09 01:32:50.348629+01 | 1486600370.34863 | pgbench_branches |            16384

 2017-02-09 01:32:51.499731+01 | 1486600371.49973 | pgbench_accounts |       4028858368
 2017-02-09 01:32:51.499731+01 | 1486600371.49973 | pgbench_tellers  |           139264
 2017-02-09 01:32:51.499731+01 | 1486600371.49973 | pgbench_history  |                0
 2017-02-09 01:32:51.499731+01 | 1486600371.49973 | pgbench_branches |            16384

 2017-02-09 01:32:52.666026+01 | 1486600372.66603 | pgbench_accounts |       4028858368
 2017-02-09 01:32:52.666026+01 | 1486600372.66603 | pgbench_tellers  |           139264
 2017-02-09 01:32:52.666026+01 | 1486600372.66603 | pgbench_history  |                0
 2017-02-09 01:32:52.666026+01 | 1486600372.66603 | pgbench_branches |            16384

 2017-02-09 01:32:53.841788+01 | 1486600373.84179 | pgbench_accounts |       4028858368
 2017-02-09 01:32:53.841788+01 | 1486600373.84179 | pgbench_tellers  |           139264
 2017-02-09 01:32:53.841788+01 | 1486600373.84179 | pgbench_history  |                0
 2017-02-09 01:32:53.841788+01 | 1486600373.84179 | pgbench_branches |            16384

 2017-02-09 01:32:55.007636+01 | 1486600375.00764 | pgbench_accounts |       4028858368
 2017-02-09 01:32:55.007636+01 | 1486600375.00764 | pgbench_tellers  |           139264
 2017-02-09 01:32:55.007636+01 | 1486600375.00764 | pgbench_history  |                0
 2017-02-09 01:32:55.007636+01 | 1486600375.00764 | pgbench_branches |            16384

 2017-02-09 01:32:56.127086+01 | 1486600376.12709 | pgbench_accounts |       4028858368
 2017-02-09 01:32:56.127086+01 | 1486600376.12709 | pgbench_tellers  |           139264
 2017-02-09 01:32:56.127086+01 | 1486600376.12709 | pgbench_history  |                0
 2017-02-09 01:32:56.127086+01 | 1486600376.12709 | pgbench_branches |            16384

 2017-02-09 01:32:57.309432+01 | 1486600377.30943 | pgbench_accounts |       4028858368
 2017-02-09 01:32:57.309432+01 | 1486600377.30943 | pgbench_tellers  |           139264
 2017-02-09 01:32:57.309432+01 | 1486600377.30943 | pgbench_history  |                0
 2017-02-09 01:32:57.309432+01 | 1486600377.30943 | pgbench_branches |            16384

 2017-02-09 01:32:58.489467+01 | 1486600378.48947 | pgbench_accounts |       4028858368
 2017-02-09 01:32:58.489467+01 | 1486600378.48947 | pgbench_tellers  |           139264
 2017-02-09 01:32:58.489467+01 | 1486600378.48947 | pgbench_history  |                0
 2017-02-09 01:32:58.489467+01 | 1486600378.48947 | pgbench_branches |            16384

 2017-02-09 01:32:59.673519+01 | 1486600379.67352 | pgbench_accounts |       4028858368
 2017-02-09 01:32:59.673519+01 | 1486600379.67352 | pgbench_tellers  |           139264
 2017-02-09 01:32:59.673519+01 | 1486600379.67352 | pgbench_history  |                0
 2017-02-09 01:32:59.673519+01 | 1486600379.67352 | pgbench_branches |            16384

 2017-02-09 01:33:00.85571+01 | 1486600380.85571 | pgbench_accounts |       4028858368
 2017-02-09 01:33:00.85571+01 | 1486600380.85571 | pgbench_tellers  |           139264
 2017-02-09 01:33:00.85571+01 | 1486600380.85571 | pgbench_history  |                0
 2017-02-09 01:33:00.85571+01 | 1486600380.85571 | pgbench_branches |            16384

 2017-02-09 01:33:02.024681+01 | 1486600382.02468 | pgbench_accounts |       4028858368
 2017-02-09 01:33:02.024681+01 | 1486600382.02468 | pgbench_tellers  |           139264
 2017-02-09 01:33:02.024681+01 | 1486600382.02468 | pgbench_history  |                0
 2017-02-09 01:33:02.024681+01 | 1486600382.02468 | pgbench_branches |            16384

 2017-02-09 01:33:03.188299+01 | 1486600383.1883 | pgbench_accounts |       4028858368
 2017-02-09 01:33:03.188299+01 | 1486600383.1883 | pgbench_tellers  |           139264
 2017-02-09 01:33:03.188299+01 | 1486600383.1883 | pgbench_history  |                0
 2017-02-09 01:33:03.188299+01 | 1486600383.1883 | pgbench_branches |            16384

 2017-02-09 01:33:04.334007+01 | 1486600384.33401 | pgbench_accounts |       4028858368
 2017-02-09 01:33:04.334007+01 | 1486600384.33401 | pgbench_tellers  |           139264
 2017-02-09 01:33:04.334007+01 | 1486600384.33401 | pgbench_history  |                0
 2017-02-09 01:33:04.334007+01 | 1486600384.33401 | pgbench_branches |            16384

 2017-02-09 01:33:05.515044+01 | 1486600385.51504 | pgbench_accounts |       4028858368
 2017-02-09 01:33:05.515044+01 | 1486600385.51504 | pgbench_tellers  |           139264
 2017-02-09 01:33:05.515044+01 | 1486600385.51504 | pgbench_history  |                0
 2017-02-09 01:33:05.515044+01 | 1486600385.51504 | pgbench_branches |            16384

 2017-02-09 01:33:06.690241+01 | 1486600386.69024 | pgbench_accounts |       4028858368
 2017-02-09 01:33:06.690241+01 | 1486600386.69024 | pgbench_tellers  |           139264
 2017-02-09 01:33:06.690241+01 | 1486600386.69024 | pgbench_history  |                0
 2017-02-09 01:33:06.690241+01 | 1486600386.69024 | pgbench_branches |            16384

 2017-02-09 01:33:07.863201+01 | 1486600387.8632 | pgbench_accounts |       4028858368
 2017-02-09 01:33:07.863201+01 | 1486600387.8632 | pgbench_tellers  |           139264
 2017-02-09 01:33:07.863201+01 | 1486600387.8632 | pgbench_history  |                0
 2017-02-09 01:33:07.863201+01 | 1486600387.8632 | pgbench_branches |            16384

 2017-02-09 01:33:09.008182+01 | 1486600389.00818 | pgbench_accounts |       4028858368
 2017-02-09 01:33:09.008182+01 | 1486600389.00818 | pgbench_tellers  |           139264
 2017-02-09 01:33:09.008182+01 | 1486600389.00818 | pgbench_history  |                0
 2017-02-09 01:33:09.008182+01 | 1486600389.00818 | pgbench_branches |            16384

 2017-02-09 01:33:10.19054+01 | 1486600390.19054 | pgbench_accounts |       4028858368
 2017-02-09 01:33:10.19054+01 | 1486600390.19054 | pgbench_tellers  |           139264
 2017-02-09 01:33:10.19054+01 | 1486600390.19054 | pgbench_history  |                0
 2017-02-09 01:33:10.19054+01 | 1486600390.19054 | pgbench_branches |            16384

 2017-02-09 01:33:11.37339+01 | 1486600391.37339 | pgbench_accounts |       4028858368
 2017-02-09 01:33:11.37339+01 | 1486600391.37339 | pgbench_tellers  |           139264
 2017-02-09 01:33:11.37339+01 | 1486600391.37339 | pgbench_history  |                0
 2017-02-09 01:33:11.37339+01 | 1486600391.37339 | pgbench_branches |            16384

 2017-02-09 01:33:12.552722+01 | 1486600392.55272 | pgbench_accounts |       4028858368
 2017-02-09 01:33:12.552722+01 | 1486600392.55272 | pgbench_tellers  |           139264
 2017-02-09 01:33:12.552722+01 | 1486600392.55272 | pgbench_history  |                0
 2017-02-09 01:33:12.552722+01 | 1486600392.55272 | pgbench_branches |            16384

 2017-02-09 01:33:13.737154+01 | 1486600393.73715 | pgbench_accounts |       4028858368
 2017-02-09 01:33:13.737154+01 | 1486600393.73715 | pgbench_tellers  |           139264
 2017-02-09 01:33:13.737154+01 | 1486600393.73715 | pgbench_history  |                0
 2017-02-09 01:33:13.737154+01 | 1486600393.73715 | pgbench_branches |            16384

 2017-02-09 01:33:14.918347+01 | 1486600394.91835 | pgbench_accounts |       4028858368
 2017-02-09 01:33:14.918347+01 | 1486600394.91835 | pgbench_tellers  |           139264
 2017-02-09 01:33:14.918347+01 | 1486600394.91835 | pgbench_history  |                0
 2017-02-09 01:33:14.918347+01 | 1486600394.91835 | pgbench_branches |            16384

 2017-02-09 01:33:16.099582+01 | 1486600396.09958 | pgbench_accounts |       4028858368
 2017-02-09 01:33:16.099582+01 | 1486600396.09958 | pgbench_tellers  |           139264
 2017-02-09 01:33:16.099582+01 | 1486600396.09958 | pgbench_history  |                0
 2017-02-09 01:33:16.099582+01 | 1486600396.09958 | pgbench_branches |            16384

 2017-02-09 01:33:17.277517+01 | 1486600397.27752 | pgbench_accounts |       4028858368
 2017-02-09 01:33:17.277517+01 | 1486600397.27752 | pgbench_tellers  |           139264
 2017-02-09 01:33:17.277517+01 | 1486600397.27752 | pgbench_history  |                0
 2017-02-09 01:33:17.277517+01 | 1486600397.27752 | pgbench_branches |            16384

 2017-02-09 01:33:18.462347+01 | 1486600398.46235 | pgbench_accounts |       4028858368
 2017-02-09 01:33:18.462347+01 | 1486600398.46235 | pgbench_tellers  |           139264
 2017-02-09 01:33:18.462347+01 | 1486600398.46235 | pgbench_history  |                0
 2017-02-09 01:33:18.462347+01 | 1486600398.46235 | pgbench_branches |            16384

 2017-02-09 01:33:19.64373+01 | 1486600399.64373 | pgbench_accounts |       4028858368
 2017-02-09 01:33:19.64373+01 | 1486600399.64373 | pgbench_tellers  |           139264
 2017-02-09 01:33:19.64373+01 | 1486600399.64373 | pgbench_history  |                0
 2017-02-09 01:33:19.64373+01 | 1486600399.64373 | pgbench_branches |            16384

 2017-02-09 01:33:20.813762+01 | 1486600400.81376 | pgbench_accounts |       4028858368
 2017-02-09 01:33:20.813762+01 | 1486600400.81376 | pgbench_tellers  |           139264
 2017-02-09 01:33:20.813762+01 | 1486600400.81376 | pgbench_history  |                0
 2017-02-09 01:33:20.813762+01 | 1486600400.81376 | pgbench_branches |            16384

 2017-02-09 01:33:21.998305+01 | 1486600401.99831 | pgbench_accounts |       4028858368
 2017-02-09 01:33:21.998305+01 | 1486600401.99831 | pgbench_tellers  |           139264
 2017-02-09 01:33:21.998305+01 | 1486600401.99831 | pgbench_history  |                0
 2017-02-09 01:33:21.998305+01 | 1486600401.99831 | pgbench_branches |            16384

 2017-02-09 01:33:23.17157+01 | 1486600403.17157 | pgbench_accounts |       4028858368
 2017-02-09 01:33:23.17157+01 | 1486600403.17157 | pgbench_tellers  |           139264
 2017-02-09 01:33:23.17157+01 | 1486600403.17157 | pgbench_history  |                0
 2017-02-09 01:33:23.17157+01 | 1486600403.17157 | pgbench_branches |            16384

 2017-02-09 01:33:24.359242+01 | 1486600404.35924 | pgbench_accounts |       4028858368
 2017-02-09 01:33:24.359242+01 | 1486600404.35924 | pgbench_tellers  |           139264
 2017-02-09 01:33:24.359242+01 | 1486600404.35924 | pgbench_history  |                0
 2017-02-09 01:33:24.359242+01 | 1486600404.35924 | pgbench_branches |            16384

 2017-02-09 01:33:25.525917+01 | 1486600405.52592 | pgbench_accounts |       4028858368
 2017-02-09 01:33:25.525917+01 | 1486600405.52592 | pgbench_tellers  |           139264
 2017-02-09 01:33:25.525917+01 | 1486600405.52592 | pgbench_history  |                0
 2017-02-09 01:33:25.525917+01 | 1486600405.52592 | pgbench_branches |            16384

 2017-02-09 01:33:26.67333+01 | 1486600406.67333 | pgbench_accounts |       4028858368
 2017-02-09 01:33:26.67333+01 | 1486600406.67333 | pgbench_tellers  |           139264
 2017-02-09 01:33:26.67333+01 | 1486600406.67333 | pgbench_history  |                0
 2017-02-09 01:33:26.67333+01 | 1486600406.67333 | pgbench_branches |            16384

 2017-02-09 01:33:27.832691+01 | 1486600407.83269 | pgbench_accounts |       4028858368
 2017-02-09 01:33:27.832691+01 | 1486600407.83269 | pgbench_tellers  |           139264
 2017-02-09 01:33:27.832691+01 | 1486600407.83269 | pgbench_history  |                0
 2017-02-09 01:33:27.832691+01 | 1486600407.83269 | pgbench_branches |            16384

 2017-02-09 01:33:29.013088+01 | 1486600409.01309 | pgbench_accounts |       4028858368
 2017-02-09 01:33:29.013088+01 | 1486600409.01309 | pgbench_tellers  |           139264
 2017-02-09 01:33:29.013088+01 | 1486600409.01309 | pgbench_history  |                0
 2017-02-09 01:33:29.013088+01 | 1486600409.01309 | pgbench_branches |            16384

 2017-02-09 01:33:30.190374+01 | 1486600410.19037 | pgbench_accounts |       4028858368
 2017-02-09 01:33:30.190374+01 | 1486600410.19037 | pgbench_tellers  |           139264
 2017-02-09 01:33:30.190374+01 | 1486600410.19037 | pgbench_history  |                0
 2017-02-09 01:33:30.190374+01 | 1486600410.19037 | pgbench_branches |            16384

 2017-02-09 01:33:31.372277+01 | 1486600411.37228 | pgbench_accounts |       4028858368
 2017-02-09 01:33:31.372277+01 | 1486600411.37228 | pgbench_tellers  |           139264
 2017-02-09 01:33:31.372277+01 | 1486600411.37228 | pgbench_history  |                0
 2017-02-09 01:33:31.372277+01 | 1486600411.37228 | pgbench_branches |            16384

 2017-02-09 01:33:32.555112+01 | 1486600412.55511 | pgbench_accounts |       4028858368
 2017-02-09 01:33:32.555112+01 | 1486600412.55511 | pgbench_tellers  |           139264
 2017-02-09 01:33:32.555112+01 | 1486600412.55511 | pgbench_history  |                0
 2017-02-09 01:33:32.555112+01 | 1486600412.55511 | pgbench_branches |            16384

