 2017-02-09 09:38:38.44066+01 | 1486629518.44066 | 5/74A097D8               |           23431518168

 2017-02-09 09:38:39.492426+01 | 1486629519.49243 | 5/77241F48               |           23473692488

 2017-02-09 09:38:40.543177+01 | 1486629520.54318 | 5/797ADBF0               |           23512931312

 2017-02-09 09:38:41.601043+01 | 1486629521.60104 | 5/7BC1B3E0               |           23551128544

 2017-02-09 09:38:42.658969+01 | 1486629522.65897 | 5/7DF6A528               |           23588152616

 2017-02-09 09:38:43.72525+01 | 1486629523.72525 | 5/80091E78               |           23622917752

 2017-02-09 09:38:44.78346+01 | 1486629524.78346 | 5/8205BBC0               |           23656250304

 2017-02-09 09:38:45.843013+01 | 1486629525.84301 | 5/83DEF1C0               |           23687262656

 2017-02-09 09:38:46.89623+01 | 1486629526.89623 | 5/859E38B0               |           23716575408

 2017-02-09 09:38:47.951531+01 | 1486629527.95153 | 5/874BD8C8               |           23744731336

 2017-02-09 09:38:49.010518+01 | 1486629529.01052 | 5/893E2BF0               |           23777389552

 2017-02-09 09:38:50.059948+01 | 1486629530.05995 | 5/8BAAFBC0               |           23818075072

 2017-02-09 09:38:51.113312+01 | 1486629531.11331 | 5/8DEBB2E8               |           23855870696

 2017-02-09 09:38:52.172376+01 | 1486629532.17238 | 5/9010CB28               |           23891856168

 2017-02-09 09:38:53.238343+01 | 1486629533.23834 | 5/9218F6C8               |           23925946056

 2017-02-09 09:38:54.299403+01 | 1486629534.2994 | 5/94118DC0               |           23959014848

 2017-02-09 09:38:55.355182+01 | 1486629535.35518 | 5/95D43370               |           23988548464

 2017-02-09 09:38:56.411113+01 | 1486629536.41111 | 5/9780B288               |           24016630408

 2017-02-09 09:38:57.466062+01 | 1486629537.46606 | 5/9911DD40               |           24042921280

 2017-02-09 09:38:58.518794+01 | 1486629538.51879 | 5/9A931720               |           24068167456

 2017-02-09 09:38:59.574325+01 | 1486629539.57433 | 5/9BFC12C0               |           24091824832

 2017-02-09 09:39:00.629442+01 | 1486629540.62944 | 5/9D4A3128               |           24113721640

 2017-02-09 09:39:01.682846+01 | 1486629541.68285 | 5/9E7E10F8               |           24133898488

 2017-02-09 09:39:02.744548+01 | 1486629542.74455 | 5/9FA8DDF8               |           24153480696

 2017-02-09 09:39:03.797519+01 | 1486629543.79752 | 5/A0BD98E0               |           24171616480

 2017-02-09 09:39:04.855029+01 | 1486629544.85503 | 5/A1D78C80               |           24190094464

 2017-02-09 09:39:05.910883+01 | 1486629545.91088 | 5/A2F150B8               |           24208560312

 2017-02-09 09:39:06.974482+01 | 1486629546.97448 | 5/A3B31698               |           24221259416

 2017-02-09 09:39:08.054012+01 | 1486629548.05401 | 5/A3D7D5F8               |           24223667704

 2017-02-09 09:39:09.107447+01 | 1486629549.10745 | 5/A3FC13F8               |           24226042872

 2017-02-09 09:39:10.164045+01 | 1486629550.16405 | 5/A41F7DB0               |           24228363696

 2017-02-09 09:39:11.220695+01 | 1486629551.2207 | 5/A4434230               |           24230707760

 2017-02-09 09:39:12.283334+01 | 1486629552.28333 | 5/A468DB88               |           24233171848

 2017-02-09 09:39:13.344309+01 | 1486629553.34431 | 5/A48E0908               |           24235608328

 2017-02-09 09:39:14.402493+01 | 1486629554.40249 | 5/A4B29F00               |           24238006016

 2017-02-09 09:39:15.465154+01 | 1486629555.46515 | 5/A4D55AF0               |           24240282352

 2017-02-09 09:39:16.531187+01 | 1486629556.53119 | 5/A4FA61D8               |           24242708952

 2017-02-09 09:39:17.591496+01 | 1486629557.5915 | 5/A52023C0               |           24245183424

 2017-02-09 09:39:18.650698+01 | 1486629558.6507 | 5/A5464AB8               |           24247683768

 2017-02-09 09:39:19.710894+01 | 1486629559.71089 | 5/A56CB8C8               |           24250202312

 2017-02-09 09:39:20.776377+01 | 1486629560.77638 | 5/A59121D8               |           24252588504

 2017-02-09 09:39:21.845967+01 | 1486629561.84597 | 5/A5B6DCF0               |           24255061232

 2017-02-09 09:39:22.916845+01 | 1486629562.91685 | 5/A5DC9088               |           24257532040

 2017-02-09 09:39:23.976955+01 | 1486629563.97695 | 5/A601CDB8               |           24259972536

 2017-02-09 09:39:25.03891+01 | 1486629565.03891 | 5/A6272F40               |           24262422336

 2017-02-09 09:39:26.106121+01 | 1486629566.10612 | 5/A64C1A80               |           24264841856

 2017-02-09 09:39:27.164991+01 | 1486629567.16499 | 5/A670DB50               |           24267250512

 2017-02-09 09:39:28.228816+01 | 1486629568.22882 | 5/A6964378               |           24269702008

 2017-02-09 09:39:29.286291+01 | 1486629569.28629 | 5/A6BB7D48               |           24272141640

 2017-02-09 09:39:30.346895+01 | 1486629570.34689 | 5/A6E07C58               |           24274566232

 2017-02-09 09:39:31.40102+01 | 1486629571.40102 | 5/A70626A0               |           24277034656

 2017-02-09 09:39:32.460636+01 | 1486629572.46064 | 5/A72BB708               |           24279496456

 2017-02-09 09:39:33.529001+01 | 1486629573.529 | 5/A7512910               |           24281950480

 2017-02-09 09:39:34.601476+01 | 1486629574.60148 | 5/A7766CD8               |           24284392664

 2017-02-09 09:39:35.663333+01 | 1486629575.66333 | 5/A79B5E98               |           24286813848

 2017-02-09 09:39:36.725665+01 | 1486629576.72567 | 5/A7BF9400               |           24289186816

 2017-02-09 09:39:37.78466+01 | 1486629577.78466 | 5/A7E53D70               |           24291655024

 2017-02-09 09:39:38.844493+01 | 1486629578.84449 | 5/A80ADC10               |           24294120464

 2017-02-09 09:39:39.907718+01 | 1486629579.90772 | 5/A8300D58               |           24296557912

 2017-02-09 09:39:40.966443+01 | 1486629580.96644 | 5/A855A0F8               |           24299020536

 2017-02-09 09:39:42.026575+01 | 1486629582.02658 | 5/A8792C20               |           24301349920

 2017-02-09 09:39:43.0889+01 | 1486629583.0889 | 5/A89E95E8               |           24303801832

 2017-02-09 09:39:44.147607+01 | 1486629584.14761 | 5/A8C3F420               |           24306250784

 2017-02-09 09:39:45.207981+01 | 1486629585.20798 | 5/A8EA28A8               |           24308754600

 2017-02-09 09:39:46.265899+01 | 1486629586.2659 | 5/A90F1348               |           24311173960

 2017-02-09 09:39:47.331234+01 | 1486629587.33123 | 5/A93467B8               |           24313620408

 2017-02-09 09:39:48.38899+01 | 1486629588.38899 | 5/A95A19B0               |           24316090800

 2017-02-09 09:39:49.447983+01 | 1486629589.44798 | 5/A999B070               |           24320258160

 2017-02-09 09:39:50.506942+01 | 1486629590.50694 | 5/A9DE11E8               |           24324739560

 2017-02-09 09:39:51.570878+01 | 1486629591.57088 | 5/AA225608               |           24329213448

 2017-02-09 09:39:52.634478+01 | 1486629592.63448 | 5/AA62F890               |           24333449360

 2017-02-09 09:39:53.695451+01 | 1486629593.69545 | 5/AA8EAEE8               |           24336314088

 2017-02-09 09:39:54.757256+01 | 1486629594.75726 | 5/AAB25318               |           24338649880

 2017-02-09 09:39:55.819097+01 | 1486629595.8191 | 5/AAD607D0               |           24340989904

 2017-02-09 09:39:56.885766+01 | 1486629596.88577 | 5/AAF85D20               |           24343239968

 2017-02-09 09:39:57.955904+01 | 1486629597.9559 | 5/AB1B92B0               |           24345547440

 2017-02-09 09:39:59.024052+01 | 1486629599.02405 | 5/AB3E3350               |           24347816784

 2017-02-09 09:40:00.085392+01 | 1486629600.08539 | 5/AB619D48               |           24350137672

 2017-02-09 09:40:01.141339+01 | 1486629601.14134 | 5/AB84A750               |           24352434000

 2017-02-09 09:40:02.197622+01 | 1486629602.19762 | 5/ABA8F648               |           24354813512

 2017-02-09 09:40:03.260081+01 | 1486629603.26008 | 5/ABCCDE20               |           24357166624

 2017-02-09 09:40:04.320301+01 | 1486629604.3203 | 5/ABEF6100               |           24359428352

 2017-02-09 09:40:05.389303+01 | 1486629605.3893 | 5/AC12F100               |           24361758976

 2017-02-09 09:40:06.448931+01 | 1486629606.44893 | 5/AC36AB10               |           24364100368

 2017-02-09 09:40:07.508758+01 | 1486629607.50876 | 5/AC595FF8               |           24366374904

 2017-02-09 09:40:08.578256+01 | 1486629608.57826 | 5/AC7DC670               |           24368760432

 2017-02-09 09:40:09.633727+01 | 1486629609.63373 | 5/ACA09118               |           24371040536

 2017-02-09 09:40:10.688726+01 | 1486629610.68873 | 5/ACC38428               |           24373330984

 2017-02-09 09:40:11.745958+01 | 1486629611.74596 | 5/ACE69760               |           24375629664

 2017-02-09 09:40:12.806298+01 | 1486629612.8063 | 5/AD0A1E80               |           24377958016

 2017-02-09 09:40:13.874776+01 | 1486629613.87478 | 5/AD2F8AA8               |           24380410536

 2017-02-09 09:40:14.93451+01 | 1486629614.93451 | 5/AD536F90               |           24382762896

 2017-02-09 09:40:15.995568+01 | 1486629615.99557 | 5/AD77B618               |           24385140248

 2017-02-09 09:40:17.062498+01 | 1486629617.0625 | 5/AD9C79B8               |           24387549624

 2017-02-09 09:40:18.124354+01 | 1486629618.12435 | 5/ADC1D070               |           24389996656

 2017-02-09 09:40:19.189449+01 | 1486629619.18945 | 5/ADE63390               |           24392381328

 2017-02-09 09:40:20.246841+01 | 1486629620.24684 | 5/AE0B03E0               |           24394793952

 2017-02-09 09:40:21.331067+01 | 1486629621.33107 | 5/AE300560               |           24397219168

 2017-02-09 09:40:22.401794+01 | 1486629622.40179 | 5/AE54F3A8               |           24399639464

 2017-02-09 09:40:23.46046+01 | 1486629623.46046 | 5/AE787980               |           24401967488

 2017-02-09 09:40:24.519378+01 | 1486629624.51938 | 5/AE9D8AF8               |           24404396792

 2017-02-09 09:40:25.57493+01 | 1486629625.57493 | 5/AEC23920               |           24406800672

 2017-02-09 09:40:26.638323+01 | 1486629626.63832 | 5/AEE6D320               |           24409199392

 2017-02-09 09:40:27.69958+01 | 1486629627.69958 | 5/AF0C2F48               |           24411647816

 2017-02-09 09:40:28.754515+01 | 1486629628.75451 | 5/AF305308               |           24414016264

 2017-02-09 09:40:29.806896+01 | 1486629629.8069 | 5/AF5647D0               |           24416503760

 2017-02-09 09:40:30.875201+01 | 1486629630.8752 | 5/AF7C8BF0               |           24419011568

 2017-02-09 09:40:31.931357+01 | 1486629631.93136 | 5/AFA10380               |           24421401472

 2017-02-09 09:40:32.992261+01 | 1486629632.99226 | 5/AFC6FE60               |           24423890528

 2017-02-09 09:40:34.054084+01 | 1486629634.05408 | 5/AFECE380               |           24426374016

 2017-02-09 09:40:35.11024+01 | 1486629635.11024 | 5/B0120900               |           24428808448

 2017-02-09 09:40:36.168345+01 | 1486629636.16834 | 5/B0377C40               |           24431262784

 2017-02-09 09:40:37.227625+01 | 1486629637.22762 | 5/B05C4EC8               |           24433675976

 2017-02-09 09:40:38.290521+01 | 1486629638.29052 | 5/B0827698               |           24436176536

 2017-02-09 09:40:39.35161+01 | 1486629639.35161 | 5/B0A7BB48               |           24438618952

 2017-02-09 09:40:40.422329+01 | 1486629640.42233 | 5/B0CD09B0               |           24441063856

 2017-02-09 09:40:41.482599+01 | 1486629641.4826 | 5/B0F17AA0               |           24443452064

 2017-02-09 09:40:42.54533+01 | 1486629642.54533 | 5/B116E398               |           24445903768

 2017-02-09 09:40:43.601617+01 | 1486629643.60162 | 5/B13B0AA8               |           24448273064

 2017-02-09 09:40:44.664698+01 | 1486629644.6647 | 5/B160F540               |           24450757952

 2017-02-09 09:40:45.720231+01 | 1486629645.72023 | 5/B18558C0               |           24453142720

 2017-02-09 09:40:46.785753+01 | 1486629646.78575 | 5/B1A9BC08               |           24455527432

 2017-02-09 09:40:47.844662+01 | 1486629647.84466 | 5/B1CF06B0               |           24457971376

 2017-02-09 09:40:48.913595+01 | 1486629648.91359 | 5/B1FC6B08               |           24460946184

 2017-02-09 09:40:49.969109+01 | 1486629649.96911 | 5/B2442148               |           24465645896

 2017-02-09 09:40:51.025474+01 | 1486629651.02547 | 5/B2883B90               |           24470109072

 2017-02-09 09:40:52.083913+01 | 1486629652.08391 | 5/B2C9D120               |           24474407200

 2017-02-09 09:40:53.149329+01 | 1486629653.14933 | 5/B3023080               |           24478101632

 2017-02-09 09:40:54.24255+01 | 1486629654.24255 | 5/B32C26C8               |           24480851656

 2017-02-09 09:40:55.302113+01 | 1486629655.30211 | 5/B34E7890               |           24483100816

 2017-02-09 09:40:56.357087+01 | 1486629656.35709 | 5/B3718AF8               |           24485399288

 2017-02-09 09:40:57.413667+01 | 1486629657.41367 | 5/B393E940               |           24487651648

 2017-02-09 09:40:58.472986+01 | 1486629658.47299 | 5/B3B7DB80               |           24490007424

 2017-02-09 09:40:59.535735+01 | 1486629659.53573 | 5/B3DB6A20               |           24492337696

 2017-02-09 09:41:00.596307+01 | 1486629660.59631 | 5/B3FFE370               |           24494728048

 2017-02-09 09:41:01.662377+01 | 1486629661.66238 | 5/B4231510               |           24497034512

 2017-02-09 09:41:02.728905+01 | 1486629662.7289 | 5/B44685D0               |           24499357136

 2017-02-09 09:41:03.782964+01 | 1486629663.78296 | 5/B46964B0               |           24501642416

 2017-02-09 09:41:04.835071+01 | 1486629664.83507 | 5/B48CDE90               |           24503967376

 2017-02-09 09:41:05.897279+01 | 1486629665.89728 | 5/B4B0D718               |           24506324760

 2017-02-09 09:41:06.968634+01 | 1486629666.96863 | 5/B4D41078               |           24508633208

 2017-02-09 09:41:08.028329+01 | 1486629668.02833 | 5/B4F83AB8               |           24511003320

 2017-02-09 09:41:09.089728+01 | 1486629669.08973 | 5/B51B8B70               |           24513317744

 2017-02-09 09:41:10.1475+01 | 1486629670.1475 | 5/B5409278               |           24515744376

 2017-02-09 09:41:11.213141+01 | 1486629671.21314 | 5/B564E9A0               |           24518125984

 2017-02-09 09:41:12.262577+01 | 1486629672.26258 | 5/B588A328               |           24520467240

 2017-02-09 09:41:13.332749+01 | 1486629673.33275 | 5/B5AD62D0               |           24522875600

 2017-02-09 09:41:14.391057+01 | 1486629674.39106 | 5/B5D175F8               |           24525239800

 2017-02-09 09:41:15.446187+01 | 1486629675.44619 | 5/B5F5A5C8               |           24527611336

 2017-02-09 09:41:16.506259+01 | 1486629676.50626 | 5/B618FFA8               |           24529928104

 2017-02-09 09:41:17.568735+01 | 1486629677.56873 | 5/B63CABD8               |           24532265944

 2017-02-09 09:41:18.636589+01 | 1486629678.63659 | 5/B660D8D0               |           24534636752

 2017-02-09 09:41:19.709156+01 | 1486629679.70916 | 5/B686EFA0               |           24537132960

 2017-02-09 09:41:20.768284+01 | 1486629680.76828 | 5/B6ABBE30               |           24539545136

 2017-02-09 09:41:21.831757+01 | 1486629681.83176 | 5/B6D05208               |           24541942280

 2017-02-09 09:41:22.89092+01 | 1486629682.89092 | 5/B6F391A8               |           24544252328

 2017-02-09 09:41:23.959054+01 | 1486629683.95905 | 5/B7181A38               |           24546646584

 2017-02-09 09:41:25.010192+01 | 1486629685.01019 | 5/B73B15C8               |           24548939208

 2017-02-09 09:41:26.065513+01 | 1486629686.06551 | 5/B75F4EA8               |           24551313064

 2017-02-09 09:41:27.126761+01 | 1486629687.12676 | 5/B784E158               |           24553775448

 2017-02-09 09:41:28.185335+01 | 1486629688.18533 | 5/B7A8F7C0               |           24556140480

 2017-02-09 09:41:29.244049+01 | 1486629689.24405 | 5/B7CDA558               |           24558544216

 2017-02-09 09:41:30.300525+01 | 1486629690.30052 | 5/B7F24C50               |           24560946256

 2017-02-09 09:41:31.357012+01 | 1486629691.35701 | 5/B8176E60               |           24563379808

 2017-02-09 09:41:32.411584+01 | 1486629692.41158 | 5/B83CC6D8               |           24565827288

 2017-02-09 09:41:33.480746+01 | 1486629693.48075 | 5/B861CE08               |           24568253960

 2017-02-09 09:41:34.548336+01 | 1486629694.54834 | 5/B8865018               |           24570646552

 2017-02-09 09:41:35.606777+01 | 1486629695.60678 | 5/B8A9A450               |           24572961872

 2017-02-09 09:41:36.66872+01 | 1486629696.66872 | 5/B8CB6B20               |           24575175456

 2017-02-09 09:41:37.725655+01 | 1486629697.72566 | 5/B8F073E8               |           24577602536

 2017-02-09 09:41:38.784833+01 | 1486629698.78483 | 5/B9150D50               |           24580001104

 2017-02-09 09:41:39.851591+01 | 1486629699.85159 | 5/B939BFB8               |           24582406072

 2017-02-09 09:41:40.913359+01 | 1486629700.91336 | 5/B95FF288               |           24584909448

 2017-02-09 09:41:41.96646+01 | 1486629701.96646 | 5/B985FC28               |           24587402280

 2017-02-09 09:41:43.035642+01 | 1486629703.03564 | 5/B9AB95B0               |           24589866416

 2017-02-09 09:41:44.093026+01 | 1486629704.09303 | 5/B9D23618               |           24592397848

 2017-02-09 09:41:45.155248+01 | 1486629705.15525 | 5/B9F79BD8               |           24594848728

 2017-02-09 09:41:46.208115+01 | 1486629706.20812 | 5/BA1DBBF0               |           24597347312

 2017-02-09 09:41:47.259097+01 | 1486629707.2591 | 5/BA4389C8               |           24599824840

 2017-02-09 09:41:48.335395+01 | 1486629708.3354 | 5/BA689AC0               |           24602254016

 2017-02-09 09:41:49.402923+01 | 1486629709.40292 | 5/BAA46C98               |           24606174360

 2017-02-09 09:41:50.471873+01 | 1486629710.47187 | 5/BAEB5998               |           24610822552

 2017-02-09 09:41:51.52775+01 | 1486629711.52775 | 5/BB2D1808               |           24615131144

 2017-02-09 09:41:52.596168+01 | 1486629712.59617 | 5/BB6EDA20               |           24619440672

 2017-02-09 09:41:53.656835+01 | 1486629713.65684 | 5/BBA1DE48               |           24622784072

 2017-02-09 09:41:54.71894+01 | 1486629714.71894 | 5/BBC25980               |           24624912768

 2017-02-09 09:41:55.774427+01 | 1486629715.77443 | 5/BBE4D4F0               |           24627172592

 2017-02-09 09:41:56.829214+01 | 1486629716.82921 | 5/BC066D28               |           24629374248

 2017-02-09 09:41:57.891173+01 | 1486629717.89117 | 5/BC282770               |           24631584624

 2017-02-09 09:41:58.950663+01 | 1486629718.95066 | 5/BC49B678               |           24633783928

 2017-02-09 09:42:00.020804+01 | 1486629720.0208 | 5/BC6B1E48               |           24635973192

 2017-02-09 09:42:01.093649+01 | 1486629721.09365 | 5/BC8CBF38               |           24638177080

 2017-02-09 09:42:02.155052+01 | 1486629722.15505 | 5/BCAF9950               |           24640461136

 2017-02-09 09:42:03.21394+01 | 1486629723.21394 | 5/BCD16E10               |           24642678288

 2017-02-09 09:42:04.267897+01 | 1486629724.2679 | 5/BCF3EEB8               |           24644939448

 2017-02-09 09:42:05.325666+01 | 1486629725.32567 | 5/BD15B0C0               |           24647151808

 2017-02-09 09:42:06.382124+01 | 1486629726.38212 | 5/BD386590               |           24649426320

 2017-02-09 09:42:07.437779+01 | 1486629727.43778 | 5/BD5BD6F8               |           24651749112

 2017-02-09 09:42:08.507573+01 | 1486629728.50757 | 5/BD7F6878               |           24654080120

 2017-02-09 09:42:09.560265+01 | 1486629729.56027 | 5/BDA1F230               |           24656343600

 2017-02-09 09:42:10.624012+01 | 1486629730.62401 | 5/BDC565A8               |           24658666920

 2017-02-09 09:42:11.687566+01 | 1486629731.68757 | 5/BDE94510               |           24661017872

 2017-02-09 09:42:12.749977+01 | 1486629732.74998 | 5/BE0C7370               |           24663323504

 2017-02-09 09:42:13.808672+01 | 1486629733.80867 | 5/BE30D030               |           24665706544

 2017-02-09 09:42:14.870816+01 | 1486629734.87082 | 5/BE53FF68               |           24668012392

 2017-02-09 09:42:15.942294+01 | 1486629735.94229 | 5/BE77EBA0               |           24670366624

 2017-02-09 09:42:17.007848+01 | 1486629737.00785 | 5/BE9B79D0               |           24672696784

 2017-02-09 09:42:18.062697+01 | 1486629738.0627 | 5/BEBF01E0               |           24675025376

 2017-02-09 09:42:19.120475+01 | 1486629739.12048 | 5/BEE231F0               |           24677331440

 2017-02-09 09:42:20.191872+01 | 1486629740.19187 | 5/BF067048               |           24679706696

 2017-02-09 09:42:21.259324+01 | 1486629741.25932 | 5/BF2A4DD0               |           24682057168

 2017-02-09 09:42:22.326692+01 | 1486629742.32669 | 5/BF4E61B0               |           24684421552

 2017-02-09 09:42:23.379624+01 | 1486629743.37962 | 5/BF71FE20               |           24686755360

 2017-02-09 09:42:24.438701+01 | 1486629744.4387 | 5/BF96B488               |           24689161352

 2017-02-09 09:42:25.498171+01 | 1486629745.49817 | 5/BFB969F0               |           24691436016

 2017-02-09 09:42:26.557495+01 | 1486629746.5575 | 5/BFDCB428               |           24693748776

 2017-02-09 09:42:27.618959+01 | 1486629747.61896 | 5/BFFEF558               |           24695993688

 2017-02-09 09:42:28.679446+01 | 1486629748.67945 | 5/C0218278               |           24698258040

 2017-02-09 09:42:29.738721+01 | 1486629749.73872 | 5/C0455760               |           24700606304

 2017-02-09 09:42:30.800093+01 | 1486629750.80009 | 5/C0677FA0               |           24702844832

 2017-02-09 09:42:31.854028+01 | 1486629751.85403 | 5/C08AA578               |           24705148280

 2017-02-09 09:42:32.912927+01 | 1486629752.91293 | 5/C0AED450               |           24707519568

 2017-02-09 09:42:33.974337+01 | 1486629753.97434 | 5/C0D29028               |           24709861416

 2017-02-09 09:42:35.035714+01 | 1486629755.03571 | 5/C0F5D160               |           24712171872

 2017-02-09 09:42:36.101487+01 | 1486629756.10149 | 5/C119AA80               |           24714521216

 2017-02-09 09:42:37.159908+01 | 1486629757.15991 | 5/C13DE9D8               |           24716896728

 2017-02-09 09:42:38.216919+01 | 1486629758.21692 | 5/C16147D8               |           24719214552

 2017-02-09 09:42:39.272414+01 | 1486629759.27241 | 5/C1851198               |           24721559960

 2017-02-09 09:42:40.331897+01 | 1486629760.3319 | 5/C1A93FB8               |           24723931064

 2017-02-09 09:42:41.390666+01 | 1486629761.39067 | 5/C1CD6F30               |           24726302512

 2017-02-09 09:42:42.448361+01 | 1486629762.44836 | 5/C1F24AE0               |           24728718048

 2017-02-09 09:42:43.502664+01 | 1486629763.50266 | 5/C2174118               |           24731140376

 2017-02-09 09:42:44.568861+01 | 1486629764.56886 | 5/C23E2630               |           24733689392

 2017-02-09 09:42:45.626351+01 | 1486629765.62635 | 5/C2634F78               |           24736124792

 2017-02-09 09:42:46.694484+01 | 1486629766.69448 | 5/C2879160               |           24738500960

 2017-02-09 09:42:47.754662+01 | 1486629767.75466 | 5/C2AD1D10               |           24740961552

 2017-02-09 09:42:48.824695+01 | 1486629768.8247 | 5/C2D63590               |           24743654800

 2017-02-09 09:42:49.871424+01 | 1486629769.87142 | 5/C31ACC48               |           24748149832

 2017-02-09 09:42:50.930311+01 | 1486629770.93031 | 5/C35F98E8               |           24752658664

 2017-02-09 09:42:51.996549+01 | 1486629771.99655 | 5/C3A3F0F8               |           24757137656

 2017-02-09 09:42:53.062074+01 | 1486629773.06207 | 5/C3E065E8               |           24761099752

 2017-02-09 09:42:54.163374+01 | 1486629774.16337 | 5/C40DF368               |           24764085096

 2017-02-09 09:42:55.229015+01 | 1486629775.22902 | 5/C42F9248               |           24766288456

 2017-02-09 09:42:56.295648+01 | 1486629776.29565 | 5/C4507940               |           24768444736

 2017-02-09 09:42:57.354713+01 | 1486629777.35471 | 5/C473EA90               |           24770767504

 2017-02-09 09:42:58.410418+01 | 1486629778.41042 | 5/C496A3D0               |           24773043152

 2017-02-09 09:42:59.471358+01 | 1486629779.47136 | 5/C4B901E8               |           24775295464

 2017-02-09 09:43:00.53087+01 | 1486629780.53087 | 5/C4D97720               |           24777422624

 2017-02-09 09:43:01.591104+01 | 1486629781.5911 | 5/C4FC8EE8               |           24779722472

 2017-02-09 09:43:02.65754+01 | 1486629782.65754 | 5/C51FFE78               |           24782044792

 2017-02-09 09:43:03.713966+01 | 1486629783.71397 | 5/C5429C80               |           24784313472

 2017-02-09 09:43:04.769423+01 | 1486629784.76942 | 5/C56652E0               |           24786653920

 2017-02-09 09:43:05.831314+01 | 1486629785.83131 | 5/C5889278               |           24788898424

 2017-02-09 09:43:06.890666+01 | 1486629786.89067 | 5/C5ABFCB0               |           24791219376

 2017-02-09 09:43:07.953444+01 | 1486629787.95344 | 5/C5CF6FE8               |           24793542632

 2017-02-09 09:43:09.013637+01 | 1486629789.01364 | 5/C5F21E40               |           24795815488

 2017-02-09 09:43:10.077904+01 | 1486629790.0779 | 5/C614EF38               |           24798097208

 2017-02-09 09:43:11.133394+01 | 1486629791.13339 | 5/C638CB28               |           24800447272

 2017-02-09 09:43:12.190362+01 | 1486629792.19036 | 5/C65B5FC0               |           24802713536

 2017-02-09 09:43:13.255503+01 | 1486629793.2555 | 5/C67F2060               |           24805056608

 2017-02-09 09:43:14.318486+01 | 1486629794.31849 | 5/C6A16458               |           24807302232

 2017-02-09 09:43:15.381837+01 | 1486629795.38184 | 5/C6C62CA0               |           24809712800

 2017-02-09 09:43:16.448181+01 | 1486629796.44818 | 5/C6E98518               |           24812029208

 2017-02-09 09:43:17.504173+01 | 1486629797.50417 | 5/C70C6EB8               |           24814317240

 2017-02-09 09:43:18.565272+01 | 1486629798.56527 | 5/C72F86F8               |           24816617208

 2017-02-09 09:43:19.644451+01 | 1486629799.64445 | 5/C7534F08               |           24818962184

 2017-02-09 09:43:20.702952+01 | 1486629800.70295 | 5/C776BFE0               |           24821284832

 2017-02-09 09:43:21.761007+01 | 1486629801.76101 | 5/C79A8E98               |           24823631512

 2017-02-09 09:43:22.82477+01 | 1486629802.82477 | 5/C7BEF910               |           24826018064

 2017-02-09 09:43:23.89734+01 | 1486629803.89734 | 5/C7E2DC58               |           24828370008

 2017-02-09 09:43:24.968403+01 | 1486629804.9684 | 5/C8074628               |           24830756392

 2017-02-09 09:43:26.035493+01 | 1486629806.03549 | 5/C82B8A40               |           24833133120

 2017-02-09 09:43:27.095722+01 | 1486629807.09572 | 5/C84F75E8               |           24835487208

 2017-02-09 09:43:28.170232+01 | 1486629808.17023 | 5/C873B750               |           24837863248

 2017-02-09 09:43:29.235058+01 | 1486629809.23506 | 5/C897CDF8               |           24840228344

 2017-02-09 09:43:30.29921+01 | 1486629810.29921 | 5/C8BB43C8               |           24842552264

 2017-02-09 09:43:31.368356+01 | 1486629811.36836 | 5/C8DFDED8               |           24844951256

 2017-02-09 09:43:32.434318+01 | 1486629812.43432 | 5/C9027ED8               |           24847220440

 2017-02-09 09:43:33.496421+01 | 1486629813.49642 | 5/C9263128               |           24849559848

 2017-02-09 09:43:34.557562+01 | 1486629814.55756 | 5/C94A01A0               |           24851906976

 2017-02-09 09:43:35.619871+01 | 1486629815.61987 | 5/C96D8640               |           24854234688

 2017-02-09 09:43:36.680868+01 | 1486629816.68087 | 5/C99175D8               |           24856589784

 2017-02-09 09:43:37.750095+01 | 1486629817.75009 | 5/C9B4BC68               |           24858901608

