 2017-02-09 02:54:09.067046+01 | 1486605249.06705 | pgbench_accounts |        671481856
 2017-02-09 02:54:09.067046+01 | 1486605249.06705 | pgbench_tellers  |            24576
 2017-02-09 02:54:09.067046+01 | 1486605249.06705 | pgbench_history  |                0
 2017-02-09 02:54:09.067046+01 | 1486605249.06705 | pgbench_branches |             8192

 2017-02-09 02:54:10.205119+01 | 1486605250.20512 | pgbench_accounts |        671481856
 2017-02-09 02:54:10.205119+01 | 1486605250.20512 | pgbench_tellers  |            24576
 2017-02-09 02:54:10.205119+01 | 1486605250.20512 | pgbench_history  |                0
 2017-02-09 02:54:10.205119+01 | 1486605250.20512 | pgbench_branches |             8192

 2017-02-09 02:54:11.328166+01 | 1486605251.32817 | pgbench_accounts |        671481856
 2017-02-09 02:54:11.328166+01 | 1486605251.32817 | pgbench_tellers  |            24576
 2017-02-09 02:54:11.328166+01 | 1486605251.32817 | pgbench_history  |                0
 2017-02-09 02:54:11.328166+01 | 1486605251.32817 | pgbench_branches |             8192

 2017-02-09 02:54:12.479058+01 | 1486605252.47906 | pgbench_accounts |        671481856
 2017-02-09 02:54:12.479058+01 | 1486605252.47906 | pgbench_tellers  |            24576
 2017-02-09 02:54:12.479058+01 | 1486605252.47906 | pgbench_history  |                0
 2017-02-09 02:54:12.479058+01 | 1486605252.47906 | pgbench_branches |             8192

 2017-02-09 02:54:13.658493+01 | 1486605253.65849 | pgbench_accounts |        671481856
 2017-02-09 02:54:13.658493+01 | 1486605253.65849 | pgbench_tellers  |            24576
 2017-02-09 02:54:13.658493+01 | 1486605253.65849 | pgbench_history  |                0
 2017-02-09 02:54:13.658493+01 | 1486605253.65849 | pgbench_branches |             8192

 2017-02-09 02:54:14.838281+01 | 1486605254.83828 | pgbench_accounts |        671481856
 2017-02-09 02:54:14.838281+01 | 1486605254.83828 | pgbench_tellers  |            24576
 2017-02-09 02:54:14.838281+01 | 1486605254.83828 | pgbench_history  |                0
 2017-02-09 02:54:14.838281+01 | 1486605254.83828 | pgbench_branches |             8192

 2017-02-09 02:54:16.014565+01 | 1486605256.01456 | pgbench_accounts |        671481856
 2017-02-09 02:54:16.014565+01 | 1486605256.01456 | pgbench_tellers  |            24576
 2017-02-09 02:54:16.014565+01 | 1486605256.01456 | pgbench_history  |                0
 2017-02-09 02:54:16.014565+01 | 1486605256.01456 | pgbench_branches |             8192

 2017-02-09 02:54:17.191682+01 | 1486605257.19168 | pgbench_accounts |        671481856
 2017-02-09 02:54:17.191682+01 | 1486605257.19168 | pgbench_tellers  |            24576
 2017-02-09 02:54:17.191682+01 | 1486605257.19168 | pgbench_history  |                0
 2017-02-09 02:54:17.191682+01 | 1486605257.19168 | pgbench_branches |             8192

 2017-02-09 02:54:18.371628+01 | 1486605258.37163 | pgbench_accounts |        671481856
 2017-02-09 02:54:18.371628+01 | 1486605258.37163 | pgbench_tellers  |            24576
 2017-02-09 02:54:18.371628+01 | 1486605258.37163 | pgbench_history  |                0
 2017-02-09 02:54:18.371628+01 | 1486605258.37163 | pgbench_branches |             8192

 2017-02-09 02:54:19.540603+01 | 1486605259.5406 | pgbench_accounts |        671481856
 2017-02-09 02:54:19.540603+01 | 1486605259.5406 | pgbench_tellers  |            24576
 2017-02-09 02:54:19.540603+01 | 1486605259.5406 | pgbench_history  |                0
 2017-02-09 02:54:19.540603+01 | 1486605259.5406 | pgbench_branches |             8192

 2017-02-09 02:54:20.678403+01 | 1486605260.6784 | pgbench_accounts |        671481856
 2017-02-09 02:54:20.678403+01 | 1486605260.6784 | pgbench_tellers  |            24576
 2017-02-09 02:54:20.678403+01 | 1486605260.6784 | pgbench_history  |                0
 2017-02-09 02:54:20.678403+01 | 1486605260.6784 | pgbench_branches |             8192

 2017-02-09 02:54:21.841239+01 | 1486605261.84124 | pgbench_accounts |        671481856
 2017-02-09 02:54:21.841239+01 | 1486605261.84124 | pgbench_tellers  |            24576
 2017-02-09 02:54:21.841239+01 | 1486605261.84124 | pgbench_history  |                0
 2017-02-09 02:54:21.841239+01 | 1486605261.84124 | pgbench_branches |             8192

 2017-02-09 02:54:23.019084+01 | 1486605263.01908 | pgbench_accounts |        671481856
 2017-02-09 02:54:23.019084+01 | 1486605263.01908 | pgbench_tellers  |            24576
 2017-02-09 02:54:23.019084+01 | 1486605263.01908 | pgbench_history  |                0
 2017-02-09 02:54:23.019084+01 | 1486605263.01908 | pgbench_branches |             8192

 2017-02-09 02:54:24.186594+01 | 1486605264.18659 | pgbench_accounts |        671481856
 2017-02-09 02:54:24.186594+01 | 1486605264.18659 | pgbench_tellers  |            24576
 2017-02-09 02:54:24.186594+01 | 1486605264.18659 | pgbench_history  |                0
 2017-02-09 02:54:24.186594+01 | 1486605264.18659 | pgbench_branches |             8192

 2017-02-09 02:54:25.36175+01 | 1486605265.36175 | pgbench_accounts |        671481856
 2017-02-09 02:54:25.36175+01 | 1486605265.36175 | pgbench_tellers  |            24576
 2017-02-09 02:54:25.36175+01 | 1486605265.36175 | pgbench_history  |                0
 2017-02-09 02:54:25.36175+01 | 1486605265.36175 | pgbench_branches |             8192

 2017-02-09 02:54:26.539697+01 | 1486605266.5397 | pgbench_accounts |        671481856
 2017-02-09 02:54:26.539697+01 | 1486605266.5397 | pgbench_tellers  |            24576
 2017-02-09 02:54:26.539697+01 | 1486605266.5397 | pgbench_history  |                0
 2017-02-09 02:54:26.539697+01 | 1486605266.5397 | pgbench_branches |             8192

 2017-02-09 02:54:27.698242+01 | 1486605267.69824 | pgbench_accounts |        671481856
 2017-02-09 02:54:27.698242+01 | 1486605267.69824 | pgbench_tellers  |            24576
 2017-02-09 02:54:27.698242+01 | 1486605267.69824 | pgbench_history  |                0
 2017-02-09 02:54:27.698242+01 | 1486605267.69824 | pgbench_branches |             8192

 2017-02-09 02:54:28.869655+01 | 1486605268.86965 | pgbench_accounts |        671481856
 2017-02-09 02:54:28.869655+01 | 1486605268.86965 | pgbench_tellers  |            24576
 2017-02-09 02:54:28.869655+01 | 1486605268.86965 | pgbench_history  |                0
 2017-02-09 02:54:28.869655+01 | 1486605268.86965 | pgbench_branches |             8192

 2017-02-09 02:54:30.037827+01 | 1486605270.03783 | pgbench_accounts |        671481856
 2017-02-09 02:54:30.037827+01 | 1486605270.03783 | pgbench_tellers  |            24576
 2017-02-09 02:54:30.037827+01 | 1486605270.03783 | pgbench_history  |                0
 2017-02-09 02:54:30.037827+01 | 1486605270.03783 | pgbench_branches |             8192

 2017-02-09 02:54:31.216164+01 | 1486605271.21616 | pgbench_accounts |        671481856
 2017-02-09 02:54:31.216164+01 | 1486605271.21616 | pgbench_tellers  |            24576
 2017-02-09 02:54:31.216164+01 | 1486605271.21616 | pgbench_history  |                0
 2017-02-09 02:54:31.216164+01 | 1486605271.21616 | pgbench_branches |             8192

 2017-02-09 02:54:32.391624+01 | 1486605272.39162 | pgbench_accounts |        671481856
 2017-02-09 02:54:32.391624+01 | 1486605272.39162 | pgbench_tellers  |            24576
 2017-02-09 02:54:32.391624+01 | 1486605272.39162 | pgbench_history  |                0
 2017-02-09 02:54:32.391624+01 | 1486605272.39162 | pgbench_branches |             8192

 2017-02-09 02:54:33.569118+01 | 1486605273.56912 | pgbench_accounts |        671481856
 2017-02-09 02:54:33.569118+01 | 1486605273.56912 | pgbench_tellers  |            24576
 2017-02-09 02:54:33.569118+01 | 1486605273.56912 | pgbench_history  |                0
 2017-02-09 02:54:33.569118+01 | 1486605273.56912 | pgbench_branches |             8192

 2017-02-09 02:54:34.74662+01 | 1486605274.74662 | pgbench_accounts |        671481856
 2017-02-09 02:54:34.74662+01 | 1486605274.74662 | pgbench_tellers  |            24576
 2017-02-09 02:54:34.74662+01 | 1486605274.74662 | pgbench_history  |                0
 2017-02-09 02:54:34.74662+01 | 1486605274.74662 | pgbench_branches |             8192

 2017-02-09 02:54:35.926014+01 | 1486605275.92601 | pgbench_accounts |        671481856
 2017-02-09 02:54:35.926014+01 | 1486605275.92601 | pgbench_tellers  |            24576
 2017-02-09 02:54:35.926014+01 | 1486605275.92601 | pgbench_history  |                0
 2017-02-09 02:54:35.926014+01 | 1486605275.92601 | pgbench_branches |             8192

 2017-02-09 02:54:37.103117+01 | 1486605277.10312 | pgbench_accounts |        671481856
 2017-02-09 02:54:37.103117+01 | 1486605277.10312 | pgbench_tellers  |            24576
 2017-02-09 02:54:37.103117+01 | 1486605277.10312 | pgbench_history  |                0
 2017-02-09 02:54:37.103117+01 | 1486605277.10312 | pgbench_branches |             8192

 2017-02-09 02:54:38.280184+01 | 1486605278.28018 | pgbench_accounts |        671481856
 2017-02-09 02:54:38.280184+01 | 1486605278.28018 | pgbench_tellers  |            24576
 2017-02-09 02:54:38.280184+01 | 1486605278.28018 | pgbench_history  |                0
 2017-02-09 02:54:38.280184+01 | 1486605278.28018 | pgbench_branches |             8192

 2017-02-09 02:54:39.434999+01 | 1486605279.435 | pgbench_accounts |        671481856
 2017-02-09 02:54:39.434999+01 | 1486605279.435 | pgbench_tellers  |            24576
 2017-02-09 02:54:39.434999+01 | 1486605279.435 | pgbench_history  |                0
 2017-02-09 02:54:39.434999+01 | 1486605279.435 | pgbench_branches |             8192

 2017-02-09 02:54:40.564117+01 | 1486605280.56412 | pgbench_accounts |        671481856
 2017-02-09 02:54:40.564117+01 | 1486605280.56412 | pgbench_tellers  |            24576
 2017-02-09 02:54:40.564117+01 | 1486605280.56412 | pgbench_history  |                0
 2017-02-09 02:54:40.564117+01 | 1486605280.56412 | pgbench_branches |             8192

 2017-02-09 02:54:41.694185+01 | 1486605281.69419 | pgbench_accounts |        671481856
 2017-02-09 02:54:41.694185+01 | 1486605281.69419 | pgbench_tellers  |            24576
 2017-02-09 02:54:41.694185+01 | 1486605281.69419 | pgbench_history  |                0
 2017-02-09 02:54:41.694185+01 | 1486605281.69419 | pgbench_branches |             8192

 2017-02-09 02:54:42.799216+01 | 1486605282.79922 | pgbench_accounts |        671481856
 2017-02-09 02:54:42.799216+01 | 1486605282.79922 | pgbench_tellers  |            24576
 2017-02-09 02:54:42.799216+01 | 1486605282.79922 | pgbench_history  |                0
 2017-02-09 02:54:42.799216+01 | 1486605282.79922 | pgbench_branches |             8192

 2017-02-09 02:54:43.907363+01 | 1486605283.90736 | pgbench_accounts |        671481856
 2017-02-09 02:54:43.907363+01 | 1486605283.90736 | pgbench_tellers  |            24576
 2017-02-09 02:54:43.907363+01 | 1486605283.90736 | pgbench_history  |                0
 2017-02-09 02:54:43.907363+01 | 1486605283.90736 | pgbench_branches |             8192

 2017-02-09 02:54:45.044475+01 | 1486605285.04448 | pgbench_accounts |        671481856
 2017-02-09 02:54:45.044475+01 | 1486605285.04448 | pgbench_tellers  |            24576
 2017-02-09 02:54:45.044475+01 | 1486605285.04448 | pgbench_history  |                0
 2017-02-09 02:54:45.044475+01 | 1486605285.04448 | pgbench_branches |             8192

 2017-02-09 02:54:46.209611+01 | 1486605286.20961 | pgbench_accounts |        671481856
 2017-02-09 02:54:46.209611+01 | 1486605286.20961 | pgbench_tellers  |            24576
 2017-02-09 02:54:46.209611+01 | 1486605286.20961 | pgbench_history  |                0
 2017-02-09 02:54:46.209611+01 | 1486605286.20961 | pgbench_branches |             8192

 2017-02-09 02:54:47.389183+01 | 1486605287.38918 | pgbench_accounts |        671481856
 2017-02-09 02:54:47.389183+01 | 1486605287.38918 | pgbench_tellers  |            24576
 2017-02-09 02:54:47.389183+01 | 1486605287.38918 | pgbench_history  |                0
 2017-02-09 02:54:47.389183+01 | 1486605287.38918 | pgbench_branches |             8192

 2017-02-09 02:54:48.566349+01 | 1486605288.56635 | pgbench_accounts |        671481856
 2017-02-09 02:54:48.566349+01 | 1486605288.56635 | pgbench_tellers  |            24576
 2017-02-09 02:54:48.566349+01 | 1486605288.56635 | pgbench_history  |                0
 2017-02-09 02:54:48.566349+01 | 1486605288.56635 | pgbench_branches |             8192

 2017-02-09 02:54:49.743946+01 | 1486605289.74395 | pgbench_accounts |        671481856
 2017-02-09 02:54:49.743946+01 | 1486605289.74395 | pgbench_tellers  |            24576
 2017-02-09 02:54:49.743946+01 | 1486605289.74395 | pgbench_history  |                0
 2017-02-09 02:54:49.743946+01 | 1486605289.74395 | pgbench_branches |             8192

 2017-02-09 02:54:50.921388+01 | 1486605290.92139 | pgbench_accounts |        671481856
 2017-02-09 02:54:50.921388+01 | 1486605290.92139 | pgbench_tellers  |            24576
 2017-02-09 02:54:50.921388+01 | 1486605290.92139 | pgbench_history  |                0
 2017-02-09 02:54:50.921388+01 | 1486605290.92139 | pgbench_branches |             8192

 2017-02-09 02:54:52.070927+01 | 1486605292.07093 | pgbench_accounts |        671481856
 2017-02-09 02:54:52.070927+01 | 1486605292.07093 | pgbench_tellers  |            24576
 2017-02-09 02:54:52.070927+01 | 1486605292.07093 | pgbench_history  |                0
 2017-02-09 02:54:52.070927+01 | 1486605292.07093 | pgbench_branches |             8192

 2017-02-09 02:54:53.20469+01 | 1486605293.20469 | pgbench_accounts |        671481856
 2017-02-09 02:54:53.20469+01 | 1486605293.20469 | pgbench_tellers  |            24576
 2017-02-09 02:54:53.20469+01 | 1486605293.20469 | pgbench_history  |                0
 2017-02-09 02:54:53.20469+01 | 1486605293.20469 | pgbench_branches |             8192

 2017-02-09 02:54:54.343019+01 | 1486605294.34302 | pgbench_accounts |        671481856
 2017-02-09 02:54:54.343019+01 | 1486605294.34302 | pgbench_tellers  |            24576
 2017-02-09 02:54:54.343019+01 | 1486605294.34302 | pgbench_history  |                0
 2017-02-09 02:54:54.343019+01 | 1486605294.34302 | pgbench_branches |             8192

 2017-02-09 02:54:55.476563+01 | 1486605295.47656 | pgbench_accounts |        671481856
 2017-02-09 02:54:55.476563+01 | 1486605295.47656 | pgbench_tellers  |            24576
 2017-02-09 02:54:55.476563+01 | 1486605295.47656 | pgbench_history  |                0
 2017-02-09 02:54:55.476563+01 | 1486605295.47656 | pgbench_branches |             8192

 2017-02-09 02:54:56.650329+01 | 1486605296.65033 | pgbench_accounts |        671481856
 2017-02-09 02:54:56.650329+01 | 1486605296.65033 | pgbench_tellers  |            24576
 2017-02-09 02:54:56.650329+01 | 1486605296.65033 | pgbench_history  |                0
 2017-02-09 02:54:56.650329+01 | 1486605296.65033 | pgbench_branches |             8192

 2017-02-09 02:54:57.826434+01 | 1486605297.82643 | pgbench_accounts |        671481856
 2017-02-09 02:54:57.826434+01 | 1486605297.82643 | pgbench_tellers  |            24576
 2017-02-09 02:54:57.826434+01 | 1486605297.82643 | pgbench_history  |                0
 2017-02-09 02:54:57.826434+01 | 1486605297.82643 | pgbench_branches |             8192

 2017-02-09 02:54:59.002344+01 | 1486605299.00234 | pgbench_accounts |        671481856
 2017-02-09 02:54:59.002344+01 | 1486605299.00234 | pgbench_tellers  |            24576
 2017-02-09 02:54:59.002344+01 | 1486605299.00234 | pgbench_history  |                0
 2017-02-09 02:54:59.002344+01 | 1486605299.00234 | pgbench_branches |             8192

 2017-02-09 02:55:00.138249+01 | 1486605300.13825 | pgbench_accounts |        671481856
 2017-02-09 02:55:00.138249+01 | 1486605300.13825 | pgbench_tellers  |            24576
 2017-02-09 02:55:00.138249+01 | 1486605300.13825 | pgbench_history  |                0
 2017-02-09 02:55:00.138249+01 | 1486605300.13825 | pgbench_branches |             8192

 2017-02-09 02:55:01.318244+01 | 1486605301.31824 | pgbench_accounts |        671481856
 2017-02-09 02:55:01.318244+01 | 1486605301.31824 | pgbench_tellers  |            24576
 2017-02-09 02:55:01.318244+01 | 1486605301.31824 | pgbench_history  |                0
 2017-02-09 02:55:01.318244+01 | 1486605301.31824 | pgbench_branches |             8192

 2017-02-09 02:55:02.490684+01 | 1486605302.49068 | pgbench_accounts |        671481856
 2017-02-09 02:55:02.490684+01 | 1486605302.49068 | pgbench_tellers  |            24576
 2017-02-09 02:55:02.490684+01 | 1486605302.49068 | pgbench_history  |                0
 2017-02-09 02:55:02.490684+01 | 1486605302.49068 | pgbench_branches |             8192

 2017-02-09 02:55:03.666206+01 | 1486605303.66621 | pgbench_accounts |        671481856
 2017-02-09 02:55:03.666206+01 | 1486605303.66621 | pgbench_tellers  |            24576
 2017-02-09 02:55:03.666206+01 | 1486605303.66621 | pgbench_history  |                0
 2017-02-09 02:55:03.666206+01 | 1486605303.66621 | pgbench_branches |             8192

 2017-02-09 02:55:04.843604+01 | 1486605304.8436 | pgbench_accounts |        671481856
 2017-02-09 02:55:04.843604+01 | 1486605304.8436 | pgbench_tellers  |            24576
 2017-02-09 02:55:04.843604+01 | 1486605304.8436 | pgbench_history  |                0
 2017-02-09 02:55:04.843604+01 | 1486605304.8436 | pgbench_branches |             8192

 2017-02-09 02:55:06.022059+01 | 1486605306.02206 | pgbench_accounts |        671481856
 2017-02-09 02:55:06.022059+01 | 1486605306.02206 | pgbench_tellers  |            24576
 2017-02-09 02:55:06.022059+01 | 1486605306.02206 | pgbench_history  |                0
 2017-02-09 02:55:06.022059+01 | 1486605306.02206 | pgbench_branches |             8192

 2017-02-09 02:55:07.193273+01 | 1486605307.19327 | pgbench_accounts |        671481856
 2017-02-09 02:55:07.193273+01 | 1486605307.19327 | pgbench_tellers  |            24576
 2017-02-09 02:55:07.193273+01 | 1486605307.19327 | pgbench_history  |                0
 2017-02-09 02:55:07.193273+01 | 1486605307.19327 | pgbench_branches |             8192

 2017-02-09 02:55:08.338049+01 | 1486605308.33805 | pgbench_accounts |        671481856
 2017-02-09 02:55:08.338049+01 | 1486605308.33805 | pgbench_tellers  |            24576
 2017-02-09 02:55:08.338049+01 | 1486605308.33805 | pgbench_history  |                0
 2017-02-09 02:55:08.338049+01 | 1486605308.33805 | pgbench_branches |             8192

 2017-02-09 02:55:09.500676+01 | 1486605309.50068 | pgbench_accounts |        671481856
 2017-02-09 02:55:09.500676+01 | 1486605309.50068 | pgbench_tellers  |            24576
 2017-02-09 02:55:09.500676+01 | 1486605309.50068 | pgbench_history  |                0
 2017-02-09 02:55:09.500676+01 | 1486605309.50068 | pgbench_branches |             8192

 2017-02-09 02:55:10.680227+01 | 1486605310.68023 | pgbench_accounts |        671481856
 2017-02-09 02:55:10.680227+01 | 1486605310.68023 | pgbench_tellers  |            24576
 2017-02-09 02:55:10.680227+01 | 1486605310.68023 | pgbench_history  |                0
 2017-02-09 02:55:10.680227+01 | 1486605310.68023 | pgbench_branches |             8192

 2017-02-09 02:55:11.858283+01 | 1486605311.85828 | pgbench_accounts |        671481856
 2017-02-09 02:55:11.858283+01 | 1486605311.85828 | pgbench_tellers  |            24576
 2017-02-09 02:55:11.858283+01 | 1486605311.85828 | pgbench_history  |                0
 2017-02-09 02:55:11.858283+01 | 1486605311.85828 | pgbench_branches |             8192

 2017-02-09 02:55:13.035517+01 | 1486605313.03552 | pgbench_accounts |        671481856
 2017-02-09 02:55:13.035517+01 | 1486605313.03552 | pgbench_tellers  |            24576
 2017-02-09 02:55:13.035517+01 | 1486605313.03552 | pgbench_history  |                0
 2017-02-09 02:55:13.035517+01 | 1486605313.03552 | pgbench_branches |             8192

 2017-02-09 02:55:14.211+01 | 1486605314.211 | pgbench_accounts |        671481856
 2017-02-09 02:55:14.211+01 | 1486605314.211 | pgbench_tellers  |            24576
 2017-02-09 02:55:14.211+01 | 1486605314.211 | pgbench_history  |                0
 2017-02-09 02:55:14.211+01 | 1486605314.211 | pgbench_branches |             8192

 2017-02-09 02:55:15.389234+01 | 1486605315.38923 | pgbench_accounts |        671481856
 2017-02-09 02:55:15.389234+01 | 1486605315.38923 | pgbench_tellers  |            24576
 2017-02-09 02:55:15.389234+01 | 1486605315.38923 | pgbench_history  |                0
 2017-02-09 02:55:15.389234+01 | 1486605315.38923 | pgbench_branches |             8192

 2017-02-09 02:55:16.567594+01 | 1486605316.56759 | pgbench_accounts |        671481856
 2017-02-09 02:55:16.567594+01 | 1486605316.56759 | pgbench_tellers  |            24576
 2017-02-09 02:55:16.567594+01 | 1486605316.56759 | pgbench_history  |                0
 2017-02-09 02:55:16.567594+01 | 1486605316.56759 | pgbench_branches |             8192

 2017-02-09 02:55:17.745504+01 | 1486605317.7455 | pgbench_accounts |        671481856
 2017-02-09 02:55:17.745504+01 | 1486605317.7455 | pgbench_tellers  |            24576
 2017-02-09 02:55:17.745504+01 | 1486605317.7455 | pgbench_history  |                0
 2017-02-09 02:55:17.745504+01 | 1486605317.7455 | pgbench_branches |             8192

 2017-02-09 02:55:18.923807+01 | 1486605318.92381 | pgbench_accounts |        671481856
 2017-02-09 02:55:18.923807+01 | 1486605318.92381 | pgbench_tellers  |            24576
 2017-02-09 02:55:18.923807+01 | 1486605318.92381 | pgbench_history  |                0
 2017-02-09 02:55:18.923807+01 | 1486605318.92381 | pgbench_branches |             8192

 2017-02-09 02:55:20.089175+01 | 1486605320.08917 | pgbench_accounts |        671481856
 2017-02-09 02:55:20.089175+01 | 1486605320.08917 | pgbench_tellers  |            24576
 2017-02-09 02:55:20.089175+01 | 1486605320.08917 | pgbench_history  |                0
 2017-02-09 02:55:20.089175+01 | 1486605320.08917 | pgbench_branches |             8192

 2017-02-09 02:55:21.267271+01 | 1486605321.26727 | pgbench_accounts |        671481856
 2017-02-09 02:55:21.267271+01 | 1486605321.26727 | pgbench_tellers  |            24576
 2017-02-09 02:55:21.267271+01 | 1486605321.26727 | pgbench_history  |                0
 2017-02-09 02:55:21.267271+01 | 1486605321.26727 | pgbench_branches |             8192

 2017-02-09 02:55:22.444042+01 | 1486605322.44404 | pgbench_accounts |        671481856
 2017-02-09 02:55:22.444042+01 | 1486605322.44404 | pgbench_tellers  |            24576
 2017-02-09 02:55:22.444042+01 | 1486605322.44404 | pgbench_history  |                0
 2017-02-09 02:55:22.444042+01 | 1486605322.44404 | pgbench_branches |             8192

 2017-02-09 02:55:23.621871+01 | 1486605323.62187 | pgbench_accounts |        671481856
 2017-02-09 02:55:23.621871+01 | 1486605323.62187 | pgbench_tellers  |            24576
 2017-02-09 02:55:23.621871+01 | 1486605323.62187 | pgbench_history  |                0
 2017-02-09 02:55:23.621871+01 | 1486605323.62187 | pgbench_branches |             8192

 2017-02-09 02:55:24.800448+01 | 1486605324.80045 | pgbench_accounts |        671481856
 2017-02-09 02:55:24.800448+01 | 1486605324.80045 | pgbench_tellers  |            24576
 2017-02-09 02:55:24.800448+01 | 1486605324.80045 | pgbench_history  |                0
 2017-02-09 02:55:24.800448+01 | 1486605324.80045 | pgbench_branches |             8192

 2017-02-09 02:55:25.977198+01 | 1486605325.9772 | pgbench_accounts |        671481856
 2017-02-09 02:55:25.977198+01 | 1486605325.9772 | pgbench_tellers  |            24576
 2017-02-09 02:55:25.977198+01 | 1486605325.9772 | pgbench_history  |                0
 2017-02-09 02:55:25.977198+01 | 1486605325.9772 | pgbench_branches |             8192

 2017-02-09 02:55:27.153513+01 | 1486605327.15351 | pgbench_accounts |        671481856
 2017-02-09 02:55:27.153513+01 | 1486605327.15351 | pgbench_tellers  |            24576
 2017-02-09 02:55:27.153513+01 | 1486605327.15351 | pgbench_history  |                0
 2017-02-09 02:55:27.153513+01 | 1486605327.15351 | pgbench_branches |             8192

 2017-02-09 02:55:28.331359+01 | 1486605328.33136 | pgbench_accounts |        671481856
 2017-02-09 02:55:28.331359+01 | 1486605328.33136 | pgbench_tellers  |            24576
 2017-02-09 02:55:28.331359+01 | 1486605328.33136 | pgbench_history  |                0
 2017-02-09 02:55:28.331359+01 | 1486605328.33136 | pgbench_branches |             8192

 2017-02-09 02:55:29.509708+01 | 1486605329.50971 | pgbench_accounts |        671481856
 2017-02-09 02:55:29.509708+01 | 1486605329.50971 | pgbench_tellers  |            24576
 2017-02-09 02:55:29.509708+01 | 1486605329.50971 | pgbench_history  |                0
 2017-02-09 02:55:29.509708+01 | 1486605329.50971 | pgbench_branches |             8192

 2017-02-09 02:55:30.68947+01 | 1486605330.68947 | pgbench_accounts |        671481856
 2017-02-09 02:55:30.68947+01 | 1486605330.68947 | pgbench_tellers  |            24576
 2017-02-09 02:55:30.68947+01 | 1486605330.68947 | pgbench_history  |                0
 2017-02-09 02:55:30.68947+01 | 1486605330.68947 | pgbench_branches |             8192

 2017-02-09 02:55:31.866614+01 | 1486605331.86661 | pgbench_accounts |        671481856
 2017-02-09 02:55:31.866614+01 | 1486605331.86661 | pgbench_tellers  |            24576
 2017-02-09 02:55:31.866614+01 | 1486605331.86661 | pgbench_history  |                0
 2017-02-09 02:55:31.866614+01 | 1486605331.86661 | pgbench_branches |             8192

 2017-02-09 02:55:33.04492+01 | 1486605333.04492 | pgbench_accounts |        671481856
 2017-02-09 02:55:33.04492+01 | 1486605333.04492 | pgbench_tellers  |            24576
 2017-02-09 02:55:33.04492+01 | 1486605333.04492 | pgbench_history  |                0
 2017-02-09 02:55:33.04492+01 | 1486605333.04492 | pgbench_branches |             8192

 2017-02-09 02:55:34.224085+01 | 1486605334.22409 | pgbench_accounts |        671481856
 2017-02-09 02:55:34.224085+01 | 1486605334.22409 | pgbench_tellers  |            24576
 2017-02-09 02:55:34.224085+01 | 1486605334.22409 | pgbench_history  |                0
 2017-02-09 02:55:34.224085+01 | 1486605334.22409 | pgbench_branches |             8192

 2017-02-09 02:55:35.401983+01 | 1486605335.40198 | pgbench_accounts |        671481856
 2017-02-09 02:55:35.401983+01 | 1486605335.40198 | pgbench_tellers  |            24576
 2017-02-09 02:55:35.401983+01 | 1486605335.40198 | pgbench_history  |                0
 2017-02-09 02:55:35.401983+01 | 1486605335.40198 | pgbench_branches |             8192

 2017-02-09 02:55:36.580604+01 | 1486605336.5806 | pgbench_accounts |        671481856
 2017-02-09 02:55:36.580604+01 | 1486605336.5806 | pgbench_tellers  |            24576
 2017-02-09 02:55:36.580604+01 | 1486605336.5806 | pgbench_history  |                0
 2017-02-09 02:55:36.580604+01 | 1486605336.5806 | pgbench_branches |             8192

 2017-02-09 02:55:37.757261+01 | 1486605337.75726 | pgbench_accounts |        671481856
 2017-02-09 02:55:37.757261+01 | 1486605337.75726 | pgbench_tellers  |            24576
 2017-02-09 02:55:37.757261+01 | 1486605337.75726 | pgbench_history  |                0
 2017-02-09 02:55:37.757261+01 | 1486605337.75726 | pgbench_branches |             8192

 2017-02-09 02:55:38.930581+01 | 1486605338.93058 | pgbench_accounts |        671481856
 2017-02-09 02:55:38.930581+01 | 1486605338.93058 | pgbench_tellers  |            24576
 2017-02-09 02:55:38.930581+01 | 1486605338.93058 | pgbench_history  |                0
 2017-02-09 02:55:38.930581+01 | 1486605338.93058 | pgbench_branches |             8192

 2017-02-09 02:55:40.108113+01 | 1486605340.10811 | pgbench_accounts |        671481856
 2017-02-09 02:55:40.108113+01 | 1486605340.10811 | pgbench_tellers  |            24576
 2017-02-09 02:55:40.108113+01 | 1486605340.10811 | pgbench_history  |                0
 2017-02-09 02:55:40.108113+01 | 1486605340.10811 | pgbench_branches |             8192

 2017-02-09 02:55:41.288292+01 | 1486605341.28829 | pgbench_accounts |        671481856
 2017-02-09 02:55:41.288292+01 | 1486605341.28829 | pgbench_tellers  |            24576
 2017-02-09 02:55:41.288292+01 | 1486605341.28829 | pgbench_history  |                0
 2017-02-09 02:55:41.288292+01 | 1486605341.28829 | pgbench_branches |             8192

 2017-02-09 02:55:42.466099+01 | 1486605342.4661 | pgbench_accounts |        671481856
 2017-02-09 02:55:42.466099+01 | 1486605342.4661 | pgbench_tellers  |            24576
 2017-02-09 02:55:42.466099+01 | 1486605342.4661 | pgbench_history  |                0
 2017-02-09 02:55:42.466099+01 | 1486605342.4661 | pgbench_branches |             8192

 2017-02-09 02:55:43.606995+01 | 1486605343.607 | pgbench_accounts |        671481856
 2017-02-09 02:55:43.606995+01 | 1486605343.607 | pgbench_tellers  |            24576
 2017-02-09 02:55:43.606995+01 | 1486605343.607 | pgbench_history  |                0
 2017-02-09 02:55:43.606995+01 | 1486605343.607 | pgbench_branches |             8192

 2017-02-09 02:55:44.757244+01 | 1486605344.75724 | pgbench_accounts |        671481856
 2017-02-09 02:55:44.757244+01 | 1486605344.75724 | pgbench_tellers  |            24576
 2017-02-09 02:55:44.757244+01 | 1486605344.75724 | pgbench_history  |                0
 2017-02-09 02:55:44.757244+01 | 1486605344.75724 | pgbench_branches |             8192

 2017-02-09 02:55:45.935716+01 | 1486605345.93572 | pgbench_accounts |        671481856
 2017-02-09 02:55:45.935716+01 | 1486605345.93572 | pgbench_tellers  |            24576
 2017-02-09 02:55:45.935716+01 | 1486605345.93572 | pgbench_history  |                0
 2017-02-09 02:55:45.935716+01 | 1486605345.93572 | pgbench_branches |             8192

 2017-02-09 02:55:47.073274+01 | 1486605347.07327 | pgbench_accounts |        671481856
 2017-02-09 02:55:47.073274+01 | 1486605347.07327 | pgbench_tellers  |            24576
 2017-02-09 02:55:47.073274+01 | 1486605347.07327 | pgbench_history  |                0
 2017-02-09 02:55:47.073274+01 | 1486605347.07327 | pgbench_branches |             8192

 2017-02-09 02:55:48.241057+01 | 1486605348.24106 | pgbench_accounts |        671481856
 2017-02-09 02:55:48.241057+01 | 1486605348.24106 | pgbench_tellers  |            24576
 2017-02-09 02:55:48.241057+01 | 1486605348.24106 | pgbench_history  |                0
 2017-02-09 02:55:48.241057+01 | 1486605348.24106 | pgbench_branches |             8192

 2017-02-09 02:55:49.418114+01 | 1486605349.41811 | pgbench_accounts |        671481856
 2017-02-09 02:55:49.418114+01 | 1486605349.41811 | pgbench_tellers  |            24576
 2017-02-09 02:55:49.418114+01 | 1486605349.41811 | pgbench_history  |                0
 2017-02-09 02:55:49.418114+01 | 1486605349.41811 | pgbench_branches |             8192

 2017-02-09 02:55:50.60082+01 | 1486605350.60082 | pgbench_accounts |        671481856
 2017-02-09 02:55:50.60082+01 | 1486605350.60082 | pgbench_tellers  |            24576
 2017-02-09 02:55:50.60082+01 | 1486605350.60082 | pgbench_history  |                0
 2017-02-09 02:55:50.60082+01 | 1486605350.60082 | pgbench_branches |             8192

 2017-02-09 02:55:51.779462+01 | 1486605351.77946 | pgbench_accounts |        671481856
 2017-02-09 02:55:51.779462+01 | 1486605351.77946 | pgbench_tellers  |            24576
 2017-02-09 02:55:51.779462+01 | 1486605351.77946 | pgbench_history  |                0
 2017-02-09 02:55:51.779462+01 | 1486605351.77946 | pgbench_branches |             8192

 2017-02-09 02:55:52.955459+01 | 1486605352.95546 | pgbench_accounts |        671481856
 2017-02-09 02:55:52.955459+01 | 1486605352.95546 | pgbench_tellers  |            24576
 2017-02-09 02:55:52.955459+01 | 1486605352.95546 | pgbench_history  |                0
 2017-02-09 02:55:52.955459+01 | 1486605352.95546 | pgbench_branches |             8192

 2017-02-09 02:55:54.133311+01 | 1486605354.13331 | pgbench_accounts |        671481856
 2017-02-09 02:55:54.133311+01 | 1486605354.13331 | pgbench_tellers  |            24576
 2017-02-09 02:55:54.133311+01 | 1486605354.13331 | pgbench_history  |                0
 2017-02-09 02:55:54.133311+01 | 1486605354.13331 | pgbench_branches |             8192

 2017-02-09 02:55:55.310838+01 | 1486605355.31084 | pgbench_accounts |        671481856
 2017-02-09 02:55:55.310838+01 | 1486605355.31084 | pgbench_tellers  |            24576
 2017-02-09 02:55:55.310838+01 | 1486605355.31084 | pgbench_history  |                0
 2017-02-09 02:55:55.310838+01 | 1486605355.31084 | pgbench_branches |             8192

 2017-02-09 02:55:56.485686+01 | 1486605356.48569 | pgbench_accounts |        671481856
 2017-02-09 02:55:56.485686+01 | 1486605356.48569 | pgbench_tellers  |            24576
 2017-02-09 02:55:56.485686+01 | 1486605356.48569 | pgbench_history  |                0
 2017-02-09 02:55:56.485686+01 | 1486605356.48569 | pgbench_branches |             8192

 2017-02-09 02:55:57.661755+01 | 1486605357.66176 | pgbench_accounts |        671481856
 2017-02-09 02:55:57.661755+01 | 1486605357.66176 | pgbench_tellers  |            24576
 2017-02-09 02:55:57.661755+01 | 1486605357.66176 | pgbench_history  |                0
 2017-02-09 02:55:57.661755+01 | 1486605357.66176 | pgbench_branches |             8192

 2017-02-09 02:55:58.837992+01 | 1486605358.83799 | pgbench_accounts |        671481856
 2017-02-09 02:55:58.837992+01 | 1486605358.83799 | pgbench_tellers  |            24576
 2017-02-09 02:55:58.837992+01 | 1486605358.83799 | pgbench_history  |                0
 2017-02-09 02:55:58.837992+01 | 1486605358.83799 | pgbench_branches |             8192

 2017-02-09 02:56:00.015699+01 | 1486605360.0157 | pgbench_accounts |        671481856
 2017-02-09 02:56:00.015699+01 | 1486605360.0157 | pgbench_tellers  |            24576
 2017-02-09 02:56:00.015699+01 | 1486605360.0157 | pgbench_history  |                0
 2017-02-09 02:56:00.015699+01 | 1486605360.0157 | pgbench_branches |             8192

 2017-02-09 02:56:01.195163+01 | 1486605361.19516 | pgbench_accounts |        671481856
 2017-02-09 02:56:01.195163+01 | 1486605361.19516 | pgbench_tellers  |            24576
 2017-02-09 02:56:01.195163+01 | 1486605361.19516 | pgbench_history  |                0
 2017-02-09 02:56:01.195163+01 | 1486605361.19516 | pgbench_branches |             8192

 2017-02-09 02:56:02.370379+01 | 1486605362.37038 | pgbench_accounts |        671481856
 2017-02-09 02:56:02.370379+01 | 1486605362.37038 | pgbench_tellers  |            24576
 2017-02-09 02:56:02.370379+01 | 1486605362.37038 | pgbench_history  |                0
 2017-02-09 02:56:02.370379+01 | 1486605362.37038 | pgbench_branches |             8192

 2017-02-09 02:56:03.546351+01 | 1486605363.54635 | pgbench_accounts |        671481856
 2017-02-09 02:56:03.546351+01 | 1486605363.54635 | pgbench_tellers  |            24576
 2017-02-09 02:56:03.546351+01 | 1486605363.54635 | pgbench_history  |                0
 2017-02-09 02:56:03.546351+01 | 1486605363.54635 | pgbench_branches |             8192

 2017-02-09 02:56:04.722023+01 | 1486605364.72202 | pgbench_accounts |        671481856
 2017-02-09 02:56:04.722023+01 | 1486605364.72202 | pgbench_tellers  |            24576
 2017-02-09 02:56:04.722023+01 | 1486605364.72202 | pgbench_history  |                0
 2017-02-09 02:56:04.722023+01 | 1486605364.72202 | pgbench_branches |             8192

 2017-02-09 02:56:05.900579+01 | 1486605365.90058 | pgbench_accounts |        671481856
 2017-02-09 02:56:05.900579+01 | 1486605365.90058 | pgbench_tellers  |            24576
 2017-02-09 02:56:05.900579+01 | 1486605365.90058 | pgbench_history  |                0
 2017-02-09 02:56:05.900579+01 | 1486605365.90058 | pgbench_branches |             8192

 2017-02-09 02:56:07.076865+01 | 1486605367.07686 | pgbench_accounts |        671481856
 2017-02-09 02:56:07.076865+01 | 1486605367.07686 | pgbench_tellers  |            24576
 2017-02-09 02:56:07.076865+01 | 1486605367.07686 | pgbench_history  |                0
 2017-02-09 02:56:07.076865+01 | 1486605367.07686 | pgbench_branches |             8192

 2017-02-09 02:56:08.252667+01 | 1486605368.25267 | pgbench_accounts |        671481856
 2017-02-09 02:56:08.252667+01 | 1486605368.25267 | pgbench_tellers  |            24576
 2017-02-09 02:56:08.252667+01 | 1486605368.25267 | pgbench_history  |                0
 2017-02-09 02:56:08.252667+01 | 1486605368.25267 | pgbench_branches |             8192

 2017-02-09 02:56:09.429691+01 | 1486605369.42969 | pgbench_accounts |        671481856
 2017-02-09 02:56:09.429691+01 | 1486605369.42969 | pgbench_tellers  |            24576
 2017-02-09 02:56:09.429691+01 | 1486605369.42969 | pgbench_history  |                0
 2017-02-09 02:56:09.429691+01 | 1486605369.42969 | pgbench_branches |             8192

 2017-02-09 02:56:10.608139+01 | 1486605370.60814 | pgbench_accounts |        671481856
 2017-02-09 02:56:10.608139+01 | 1486605370.60814 | pgbench_tellers  |            24576
 2017-02-09 02:56:10.608139+01 | 1486605370.60814 | pgbench_history  |                0
 2017-02-09 02:56:10.608139+01 | 1486605370.60814 | pgbench_branches |             8192

 2017-02-09 02:56:11.78786+01 | 1486605371.78786 | pgbench_accounts |        671481856
 2017-02-09 02:56:11.78786+01 | 1486605371.78786 | pgbench_tellers  |            24576
 2017-02-09 02:56:11.78786+01 | 1486605371.78786 | pgbench_history  |                0
 2017-02-09 02:56:11.78786+01 | 1486605371.78786 | pgbench_branches |             8192

 2017-02-09 02:56:12.965602+01 | 1486605372.9656 | pgbench_accounts |        671481856
 2017-02-09 02:56:12.965602+01 | 1486605372.9656 | pgbench_tellers  |            24576
 2017-02-09 02:56:12.965602+01 | 1486605372.9656 | pgbench_history  |                0
 2017-02-09 02:56:12.965602+01 | 1486605372.9656 | pgbench_branches |             8192

 2017-02-09 02:56:14.101459+01 | 1486605374.10146 | pgbench_accounts |        671481856
 2017-02-09 02:56:14.101459+01 | 1486605374.10146 | pgbench_tellers  |            24576
 2017-02-09 02:56:14.101459+01 | 1486605374.10146 | pgbench_history  |                0
 2017-02-09 02:56:14.101459+01 | 1486605374.10146 | pgbench_branches |             8192

 2017-02-09 02:56:15.278956+01 | 1486605375.27896 | pgbench_accounts |        671481856
 2017-02-09 02:56:15.278956+01 | 1486605375.27896 | pgbench_tellers  |            24576
 2017-02-09 02:56:15.278956+01 | 1486605375.27896 | pgbench_history  |                0
 2017-02-09 02:56:15.278956+01 | 1486605375.27896 | pgbench_branches |             8192

 2017-02-09 02:56:16.456648+01 | 1486605376.45665 | pgbench_accounts |        671481856
 2017-02-09 02:56:16.456648+01 | 1486605376.45665 | pgbench_tellers  |            24576
 2017-02-09 02:56:16.456648+01 | 1486605376.45665 | pgbench_history  |                0
 2017-02-09 02:56:16.456648+01 | 1486605376.45665 | pgbench_branches |             8192

 2017-02-09 02:56:17.59526+01 | 1486605377.59526 | pgbench_accounts |        671481856
 2017-02-09 02:56:17.59526+01 | 1486605377.59526 | pgbench_tellers  |            24576
 2017-02-09 02:56:17.59526+01 | 1486605377.59526 | pgbench_history  |                0
 2017-02-09 02:56:17.59526+01 | 1486605377.59526 | pgbench_branches |             8192

 2017-02-09 02:56:18.706152+01 | 1486605378.70615 | pgbench_accounts |        671481856
 2017-02-09 02:56:18.706152+01 | 1486605378.70615 | pgbench_tellers  |            24576
 2017-02-09 02:56:18.706152+01 | 1486605378.70615 | pgbench_history  |                0
 2017-02-09 02:56:18.706152+01 | 1486605378.70615 | pgbench_branches |             8192

 2017-02-09 02:56:19.843729+01 | 1486605379.84373 | pgbench_accounts |        671481856
 2017-02-09 02:56:19.843729+01 | 1486605379.84373 | pgbench_tellers  |            24576
 2017-02-09 02:56:19.843729+01 | 1486605379.84373 | pgbench_history  |                0
 2017-02-09 02:56:19.843729+01 | 1486605379.84373 | pgbench_branches |             8192

 2017-02-09 02:56:21.020312+01 | 1486605381.02031 | pgbench_accounts |        671481856
 2017-02-09 02:56:21.020312+01 | 1486605381.02031 | pgbench_tellers  |            24576
 2017-02-09 02:56:21.020312+01 | 1486605381.02031 | pgbench_history  |                0
 2017-02-09 02:56:21.020312+01 | 1486605381.02031 | pgbench_branches |             8192

 2017-02-09 02:56:22.197729+01 | 1486605382.19773 | pgbench_accounts |        671481856
 2017-02-09 02:56:22.197729+01 | 1486605382.19773 | pgbench_tellers  |            24576
 2017-02-09 02:56:22.197729+01 | 1486605382.19773 | pgbench_history  |                0
 2017-02-09 02:56:22.197729+01 | 1486605382.19773 | pgbench_branches |             8192

 2017-02-09 02:56:23.352878+01 | 1486605383.35288 | pgbench_accounts |        671481856
 2017-02-09 02:56:23.352878+01 | 1486605383.35288 | pgbench_tellers  |            24576
 2017-02-09 02:56:23.352878+01 | 1486605383.35288 | pgbench_history  |                0
 2017-02-09 02:56:23.352878+01 | 1486605383.35288 | pgbench_branches |             8192

 2017-02-09 02:56:24.529041+01 | 1486605384.52904 | pgbench_accounts |        671481856
 2017-02-09 02:56:24.529041+01 | 1486605384.52904 | pgbench_tellers  |            24576
 2017-02-09 02:56:24.529041+01 | 1486605384.52904 | pgbench_history  |                0
 2017-02-09 02:56:24.529041+01 | 1486605384.52904 | pgbench_branches |             8192

 2017-02-09 02:56:25.683489+01 | 1486605385.68349 | pgbench_accounts |        671481856
 2017-02-09 02:56:25.683489+01 | 1486605385.68349 | pgbench_tellers  |            24576
 2017-02-09 02:56:25.683489+01 | 1486605385.68349 | pgbench_history  |                0
 2017-02-09 02:56:25.683489+01 | 1486605385.68349 | pgbench_branches |             8192

 2017-02-09 02:56:26.85937+01 | 1486605386.85937 | pgbench_accounts |        671481856
 2017-02-09 02:56:26.85937+01 | 1486605386.85937 | pgbench_tellers  |            24576
 2017-02-09 02:56:26.85937+01 | 1486605386.85937 | pgbench_history  |                0
 2017-02-09 02:56:26.85937+01 | 1486605386.85937 | pgbench_branches |             8192

 2017-02-09 02:56:28.036914+01 | 1486605388.03691 | pgbench_accounts |        671481856
 2017-02-09 02:56:28.036914+01 | 1486605388.03691 | pgbench_tellers  |            24576
 2017-02-09 02:56:28.036914+01 | 1486605388.03691 | pgbench_history  |                0
 2017-02-09 02:56:28.036914+01 | 1486605388.03691 | pgbench_branches |             8192

 2017-02-09 02:56:29.214215+01 | 1486605389.21422 | pgbench_accounts |        671481856
 2017-02-09 02:56:29.214215+01 | 1486605389.21422 | pgbench_tellers  |            24576
 2017-02-09 02:56:29.214215+01 | 1486605389.21422 | pgbench_history  |                0
 2017-02-09 02:56:29.214215+01 | 1486605389.21422 | pgbench_branches |             8192

 2017-02-09 02:56:30.386353+01 | 1486605390.38635 | pgbench_accounts |        671481856
 2017-02-09 02:56:30.386353+01 | 1486605390.38635 | pgbench_tellers  |            24576
 2017-02-09 02:56:30.386353+01 | 1486605390.38635 | pgbench_history  |                0
 2017-02-09 02:56:30.386353+01 | 1486605390.38635 | pgbench_branches |             8192

 2017-02-09 02:56:31.536126+01 | 1486605391.53613 | pgbench_accounts |        671481856
 2017-02-09 02:56:31.536126+01 | 1486605391.53613 | pgbench_tellers  |            24576
 2017-02-09 02:56:31.536126+01 | 1486605391.53613 | pgbench_history  |                0
 2017-02-09 02:56:31.536126+01 | 1486605391.53613 | pgbench_branches |             8192

 2017-02-09 02:56:32.709578+01 | 1486605392.70958 | pgbench_accounts |        671481856
 2017-02-09 02:56:32.709578+01 | 1486605392.70958 | pgbench_tellers  |            24576
 2017-02-09 02:56:32.709578+01 | 1486605392.70958 | pgbench_history  |                0
 2017-02-09 02:56:32.709578+01 | 1486605392.70958 | pgbench_branches |             8192

 2017-02-09 02:56:33.885273+01 | 1486605393.88527 | pgbench_accounts |        671481856
 2017-02-09 02:56:33.885273+01 | 1486605393.88527 | pgbench_tellers  |            24576
 2017-02-09 02:56:33.885273+01 | 1486605393.88527 | pgbench_history  |                0
 2017-02-09 02:56:33.885273+01 | 1486605393.88527 | pgbench_branches |             8192

 2017-02-09 02:56:35.061361+01 | 1486605395.06136 | pgbench_accounts |        671481856
 2017-02-09 02:56:35.061361+01 | 1486605395.06136 | pgbench_tellers  |            24576
 2017-02-09 02:56:35.061361+01 | 1486605395.06136 | pgbench_history  |                0
 2017-02-09 02:56:35.061361+01 | 1486605395.06136 | pgbench_branches |             8192

 2017-02-09 02:56:36.23895+01 | 1486605396.23895 | pgbench_accounts |        671481856
 2017-02-09 02:56:36.23895+01 | 1486605396.23895 | pgbench_tellers  |            24576
 2017-02-09 02:56:36.23895+01 | 1486605396.23895 | pgbench_history  |                0
 2017-02-09 02:56:36.23895+01 | 1486605396.23895 | pgbench_branches |             8192

 2017-02-09 02:56:37.415642+01 | 1486605397.41564 | pgbench_accounts |        671481856
 2017-02-09 02:56:37.415642+01 | 1486605397.41564 | pgbench_tellers  |            24576
 2017-02-09 02:56:37.415642+01 | 1486605397.41564 | pgbench_history  |                0
 2017-02-09 02:56:37.415642+01 | 1486605397.41564 | pgbench_branches |             8192

 2017-02-09 02:56:38.594795+01 | 1486605398.59479 | pgbench_accounts |        671481856
 2017-02-09 02:56:38.594795+01 | 1486605398.59479 | pgbench_tellers  |            24576
 2017-02-09 02:56:38.594795+01 | 1486605398.59479 | pgbench_history  |                0
 2017-02-09 02:56:38.594795+01 | 1486605398.59479 | pgbench_branches |             8192

 2017-02-09 02:56:39.772299+01 | 1486605399.7723 | pgbench_accounts |        671481856
 2017-02-09 02:56:39.772299+01 | 1486605399.7723 | pgbench_tellers  |            24576
 2017-02-09 02:56:39.772299+01 | 1486605399.7723 | pgbench_history  |                0
 2017-02-09 02:56:39.772299+01 | 1486605399.7723 | pgbench_branches |             8192

 2017-02-09 02:56:40.947543+01 | 1486605400.94754 | pgbench_accounts |        671481856
 2017-02-09 02:56:40.947543+01 | 1486605400.94754 | pgbench_tellers  |            24576
 2017-02-09 02:56:40.947543+01 | 1486605400.94754 | pgbench_history  |                0
 2017-02-09 02:56:40.947543+01 | 1486605400.94754 | pgbench_branches |             8192

 2017-02-09 02:56:42.125914+01 | 1486605402.12591 | pgbench_accounts |        671481856
 2017-02-09 02:56:42.125914+01 | 1486605402.12591 | pgbench_tellers  |            24576
 2017-02-09 02:56:42.125914+01 | 1486605402.12591 | pgbench_history  |                0
 2017-02-09 02:56:42.125914+01 | 1486605402.12591 | pgbench_branches |             8192

 2017-02-09 02:56:43.301594+01 | 1486605403.30159 | pgbench_accounts |        671481856
 2017-02-09 02:56:43.301594+01 | 1486605403.30159 | pgbench_tellers  |            24576
 2017-02-09 02:56:43.301594+01 | 1486605403.30159 | pgbench_history  |                0
 2017-02-09 02:56:43.301594+01 | 1486605403.30159 | pgbench_branches |             8192

 2017-02-09 02:56:44.480893+01 | 1486605404.48089 | pgbench_accounts |        671481856
 2017-02-09 02:56:44.480893+01 | 1486605404.48089 | pgbench_tellers  |            24576
 2017-02-09 02:56:44.480893+01 | 1486605404.48089 | pgbench_history  |                0
 2017-02-09 02:56:44.480893+01 | 1486605404.48089 | pgbench_branches |             8192

 2017-02-09 02:56:45.659176+01 | 1486605405.65918 | pgbench_accounts |        671481856
 2017-02-09 02:56:45.659176+01 | 1486605405.65918 | pgbench_tellers  |            24576
 2017-02-09 02:56:45.659176+01 | 1486605405.65918 | pgbench_history  |                0
 2017-02-09 02:56:45.659176+01 | 1486605405.65918 | pgbench_branches |             8192

 2017-02-09 02:56:46.838286+01 | 1486605406.83829 | pgbench_accounts |        671481856
 2017-02-09 02:56:46.838286+01 | 1486605406.83829 | pgbench_tellers  |            24576
 2017-02-09 02:56:46.838286+01 | 1486605406.83829 | pgbench_history  |                0
 2017-02-09 02:56:46.838286+01 | 1486605406.83829 | pgbench_branches |             8192

 2017-02-09 02:56:48.015769+01 | 1486605408.01577 | pgbench_accounts |        671481856
 2017-02-09 02:56:48.015769+01 | 1486605408.01577 | pgbench_tellers  |            24576
 2017-02-09 02:56:48.015769+01 | 1486605408.01577 | pgbench_history  |                0
 2017-02-09 02:56:48.015769+01 | 1486605408.01577 | pgbench_branches |             8192

 2017-02-09 02:56:49.143487+01 | 1486605409.14349 | pgbench_accounts |        671481856
 2017-02-09 02:56:49.143487+01 | 1486605409.14349 | pgbench_tellers  |            24576
 2017-02-09 02:56:49.143487+01 | 1486605409.14349 | pgbench_history  |                0
 2017-02-09 02:56:49.143487+01 | 1486605409.14349 | pgbench_branches |             8192

 2017-02-09 02:56:50.218818+01 | 1486605410.21882 | pgbench_accounts |        671481856
 2017-02-09 02:56:50.218818+01 | 1486605410.21882 | pgbench_tellers  |            24576
 2017-02-09 02:56:50.218818+01 | 1486605410.21882 | pgbench_history  |                0
 2017-02-09 02:56:50.218818+01 | 1486605410.21882 | pgbench_branches |             8192

 2017-02-09 02:56:51.321785+01 | 1486605411.32178 | pgbench_accounts |        671481856
 2017-02-09 02:56:51.321785+01 | 1486605411.32178 | pgbench_tellers  |            24576
 2017-02-09 02:56:51.321785+01 | 1486605411.32178 | pgbench_history  |                0
 2017-02-09 02:56:51.321785+01 | 1486605411.32178 | pgbench_branches |             8192

 2017-02-09 02:56:52.48193+01 | 1486605412.48193 | pgbench_accounts |        671481856
 2017-02-09 02:56:52.48193+01 | 1486605412.48193 | pgbench_tellers  |            24576
 2017-02-09 02:56:52.48193+01 | 1486605412.48193 | pgbench_history  |                0
 2017-02-09 02:56:52.48193+01 | 1486605412.48193 | pgbench_branches |             8192

 2017-02-09 02:56:53.656551+01 | 1486605413.65655 | pgbench_accounts |        671481856
 2017-02-09 02:56:53.656551+01 | 1486605413.65655 | pgbench_tellers  |            24576
 2017-02-09 02:56:53.656551+01 | 1486605413.65655 | pgbench_history  |                0
 2017-02-09 02:56:53.656551+01 | 1486605413.65655 | pgbench_branches |             8192

 2017-02-09 02:56:54.836909+01 | 1486605414.83691 | pgbench_accounts |        671481856
 2017-02-09 02:56:54.836909+01 | 1486605414.83691 | pgbench_tellers  |            24576
 2017-02-09 02:56:54.836909+01 | 1486605414.83691 | pgbench_history  |                0
 2017-02-09 02:56:54.836909+01 | 1486605414.83691 | pgbench_branches |             8192

 2017-02-09 02:56:56.013582+01 | 1486605416.01358 | pgbench_accounts |        671481856
 2017-02-09 02:56:56.013582+01 | 1486605416.01358 | pgbench_tellers  |            24576
 2017-02-09 02:56:56.013582+01 | 1486605416.01358 | pgbench_history  |                0
 2017-02-09 02:56:56.013582+01 | 1486605416.01358 | pgbench_branches |             8192

 2017-02-09 02:56:57.18607+01 | 1486605417.18607 | pgbench_accounts |        671481856
 2017-02-09 02:56:57.18607+01 | 1486605417.18607 | pgbench_tellers  |            24576
 2017-02-09 02:56:57.18607+01 | 1486605417.18607 | pgbench_history  |                0
 2017-02-09 02:56:57.18607+01 | 1486605417.18607 | pgbench_branches |             8192

 2017-02-09 02:56:58.349865+01 | 1486605418.34986 | pgbench_accounts |        671481856
 2017-02-09 02:56:58.349865+01 | 1486605418.34986 | pgbench_tellers  |            24576
 2017-02-09 02:56:58.349865+01 | 1486605418.34986 | pgbench_history  |                0
 2017-02-09 02:56:58.349865+01 | 1486605418.34986 | pgbench_branches |             8192

 2017-02-09 02:56:59.4836+01 | 1486605419.4836 | pgbench_accounts |        671481856
 2017-02-09 02:56:59.4836+01 | 1486605419.4836 | pgbench_tellers  |            24576
 2017-02-09 02:56:59.4836+01 | 1486605419.4836 | pgbench_history  |                0
 2017-02-09 02:56:59.4836+01 | 1486605419.4836 | pgbench_branches |             8192

 2017-02-09 02:57:00.660051+01 | 1486605420.66005 | pgbench_accounts |        671481856
 2017-02-09 02:57:00.660051+01 | 1486605420.66005 | pgbench_tellers  |            24576
 2017-02-09 02:57:00.660051+01 | 1486605420.66005 | pgbench_history  |                0
 2017-02-09 02:57:00.660051+01 | 1486605420.66005 | pgbench_branches |             8192

 2017-02-09 02:57:01.835487+01 | 1486605421.83549 | pgbench_accounts |        671481856
 2017-02-09 02:57:01.835487+01 | 1486605421.83549 | pgbench_tellers  |            24576
 2017-02-09 02:57:01.835487+01 | 1486605421.83549 | pgbench_history  |                0
 2017-02-09 02:57:01.835487+01 | 1486605421.83549 | pgbench_branches |             8192

 2017-02-09 02:57:03.011929+01 | 1486605423.01193 | pgbench_accounts |        671481856
 2017-02-09 02:57:03.011929+01 | 1486605423.01193 | pgbench_tellers  |            24576
 2017-02-09 02:57:03.011929+01 | 1486605423.01193 | pgbench_history  |                0
 2017-02-09 02:57:03.011929+01 | 1486605423.01193 | pgbench_branches |             8192

 2017-02-09 02:57:04.190469+01 | 1486605424.19047 | pgbench_accounts |        671481856
 2017-02-09 02:57:04.190469+01 | 1486605424.19047 | pgbench_tellers  |            24576
 2017-02-09 02:57:04.190469+01 | 1486605424.19047 | pgbench_history  |                0
 2017-02-09 02:57:04.190469+01 | 1486605424.19047 | pgbench_branches |             8192

 2017-02-09 02:57:05.365411+01 | 1486605425.36541 | pgbench_accounts |        671481856
 2017-02-09 02:57:05.365411+01 | 1486605425.36541 | pgbench_tellers  |            24576
 2017-02-09 02:57:05.365411+01 | 1486605425.36541 | pgbench_history  |                0
 2017-02-09 02:57:05.365411+01 | 1486605425.36541 | pgbench_branches |             8192

 2017-02-09 02:57:06.54264+01 | 1486605426.54264 | pgbench_accounts |        671481856
 2017-02-09 02:57:06.54264+01 | 1486605426.54264 | pgbench_tellers  |            24576
 2017-02-09 02:57:06.54264+01 | 1486605426.54264 | pgbench_history  |                0
 2017-02-09 02:57:06.54264+01 | 1486605426.54264 | pgbench_branches |             8192

 2017-02-09 02:57:07.723256+01 | 1486605427.72326 | pgbench_accounts |        671481856
 2017-02-09 02:57:07.723256+01 | 1486605427.72326 | pgbench_tellers  |            24576
 2017-02-09 02:57:07.723256+01 | 1486605427.72326 | pgbench_history  |                0
 2017-02-09 02:57:07.723256+01 | 1486605427.72326 | pgbench_branches |             8192

 2017-02-09 02:57:08.901101+01 | 1486605428.9011 | pgbench_accounts |        671481856
 2017-02-09 02:57:08.901101+01 | 1486605428.9011 | pgbench_tellers  |            24576
 2017-02-09 02:57:08.901101+01 | 1486605428.9011 | pgbench_history  |                0
 2017-02-09 02:57:08.901101+01 | 1486605428.9011 | pgbench_branches |             8192

 2017-02-09 02:57:10.079123+01 | 1486605430.07912 | pgbench_accounts |        671481856
 2017-02-09 02:57:10.079123+01 | 1486605430.07912 | pgbench_tellers  |            24576
 2017-02-09 02:57:10.079123+01 | 1486605430.07912 | pgbench_history  |                0
 2017-02-09 02:57:10.079123+01 | 1486605430.07912 | pgbench_branches |             8192

 2017-02-09 02:57:11.259509+01 | 1486605431.25951 | pgbench_accounts |        671481856
 2017-02-09 02:57:11.259509+01 | 1486605431.25951 | pgbench_tellers  |            24576
 2017-02-09 02:57:11.259509+01 | 1486605431.25951 | pgbench_history  |                0
 2017-02-09 02:57:11.259509+01 | 1486605431.25951 | pgbench_branches |             8192

 2017-02-09 02:57:12.4359+01 | 1486605432.4359 | pgbench_accounts |        671481856
 2017-02-09 02:57:12.4359+01 | 1486605432.4359 | pgbench_tellers  |            24576
 2017-02-09 02:57:12.4359+01 | 1486605432.4359 | pgbench_history  |                0
 2017-02-09 02:57:12.4359+01 | 1486605432.4359 | pgbench_branches |             8192

 2017-02-09 02:57:13.609058+01 | 1486605433.60906 | pgbench_accounts |        671481856
 2017-02-09 02:57:13.609058+01 | 1486605433.60906 | pgbench_tellers  |            24576
 2017-02-09 02:57:13.609058+01 | 1486605433.60906 | pgbench_history  |                0
 2017-02-09 02:57:13.609058+01 | 1486605433.60906 | pgbench_branches |             8192

 2017-02-09 02:57:14.785306+01 | 1486605434.78531 | pgbench_accounts |        671481856
 2017-02-09 02:57:14.785306+01 | 1486605434.78531 | pgbench_tellers  |            24576
 2017-02-09 02:57:14.785306+01 | 1486605434.78531 | pgbench_history  |                0
 2017-02-09 02:57:14.785306+01 | 1486605434.78531 | pgbench_branches |             8192

 2017-02-09 02:57:15.940677+01 | 1486605435.94068 | pgbench_accounts |        671481856
 2017-02-09 02:57:15.940677+01 | 1486605435.94068 | pgbench_tellers  |            24576
 2017-02-09 02:57:15.940677+01 | 1486605435.94068 | pgbench_history  |                0
 2017-02-09 02:57:15.940677+01 | 1486605435.94068 | pgbench_branches |             8192

 2017-02-09 02:57:17.118446+01 | 1486605437.11845 | pgbench_accounts |        671481856
 2017-02-09 02:57:17.118446+01 | 1486605437.11845 | pgbench_tellers  |            24576
 2017-02-09 02:57:17.118446+01 | 1486605437.11845 | pgbench_history  |                0
 2017-02-09 02:57:17.118446+01 | 1486605437.11845 | pgbench_branches |             8192

 2017-02-09 02:57:18.28629+01 | 1486605438.28629 | pgbench_accounts |        671481856
 2017-02-09 02:57:18.28629+01 | 1486605438.28629 | pgbench_tellers  |            24576
 2017-02-09 02:57:18.28629+01 | 1486605438.28629 | pgbench_history  |                0
 2017-02-09 02:57:18.28629+01 | 1486605438.28629 | pgbench_branches |             8192

 2017-02-09 02:57:19.431376+01 | 1486605439.43138 | pgbench_accounts |        671481856
 2017-02-09 02:57:19.431376+01 | 1486605439.43138 | pgbench_tellers  |            24576
 2017-02-09 02:57:19.431376+01 | 1486605439.43138 | pgbench_history  |                0
 2017-02-09 02:57:19.431376+01 | 1486605439.43138 | pgbench_branches |             8192

 2017-02-09 02:57:20.586242+01 | 1486605440.58624 | pgbench_accounts |        671481856
 2017-02-09 02:57:20.586242+01 | 1486605440.58624 | pgbench_tellers  |            24576
 2017-02-09 02:57:20.586242+01 | 1486605440.58624 | pgbench_history  |                0
 2017-02-09 02:57:20.586242+01 | 1486605440.58624 | pgbench_branches |             8192

 2017-02-09 02:57:21.735646+01 | 1486605441.73565 | pgbench_accounts |        671481856
 2017-02-09 02:57:21.735646+01 | 1486605441.73565 | pgbench_tellers  |            24576
 2017-02-09 02:57:21.735646+01 | 1486605441.73565 | pgbench_history  |                0
 2017-02-09 02:57:21.735646+01 | 1486605441.73565 | pgbench_branches |             8192

 2017-02-09 02:57:22.884872+01 | 1486605442.88487 | pgbench_accounts |        671481856
 2017-02-09 02:57:22.884872+01 | 1486605442.88487 | pgbench_tellers  |            24576
 2017-02-09 02:57:22.884872+01 | 1486605442.88487 | pgbench_history  |                0
 2017-02-09 02:57:22.884872+01 | 1486605442.88487 | pgbench_branches |             8192

 2017-02-09 02:57:24.043354+01 | 1486605444.04335 | pgbench_accounts |        671481856
 2017-02-09 02:57:24.043354+01 | 1486605444.04335 | pgbench_tellers  |            24576
 2017-02-09 02:57:24.043354+01 | 1486605444.04335 | pgbench_history  |                0
 2017-02-09 02:57:24.043354+01 | 1486605444.04335 | pgbench_branches |             8192

 2017-02-09 02:57:25.219818+01 | 1486605445.21982 | pgbench_accounts |        671481856
 2017-02-09 02:57:25.219818+01 | 1486605445.21982 | pgbench_tellers  |            24576
 2017-02-09 02:57:25.219818+01 | 1486605445.21982 | pgbench_history  |                0
 2017-02-09 02:57:25.219818+01 | 1486605445.21982 | pgbench_branches |             8192

 2017-02-09 02:57:26.398495+01 | 1486605446.39849 | pgbench_accounts |        671481856
 2017-02-09 02:57:26.398495+01 | 1486605446.39849 | pgbench_tellers  |            24576
 2017-02-09 02:57:26.398495+01 | 1486605446.39849 | pgbench_history  |                0
 2017-02-09 02:57:26.398495+01 | 1486605446.39849 | pgbench_branches |             8192

 2017-02-09 02:57:27.580626+01 | 1486605447.58063 | pgbench_accounts |        671481856
 2017-02-09 02:57:27.580626+01 | 1486605447.58063 | pgbench_tellers  |            24576
 2017-02-09 02:57:27.580626+01 | 1486605447.58063 | pgbench_history  |                0
 2017-02-09 02:57:27.580626+01 | 1486605447.58063 | pgbench_branches |             8192

 2017-02-09 02:57:28.74777+01 | 1486605448.74777 | pgbench_accounts |        671481856
 2017-02-09 02:57:28.74777+01 | 1486605448.74777 | pgbench_tellers  |            24576
 2017-02-09 02:57:28.74777+01 | 1486605448.74777 | pgbench_history  |                0
 2017-02-09 02:57:28.74777+01 | 1486605448.74777 | pgbench_branches |             8192

 2017-02-09 02:57:29.925791+01 | 1486605449.92579 | pgbench_accounts |        671481856
 2017-02-09 02:57:29.925791+01 | 1486605449.92579 | pgbench_tellers  |            24576
 2017-02-09 02:57:29.925791+01 | 1486605449.92579 | pgbench_history  |                0
 2017-02-09 02:57:29.925791+01 | 1486605449.92579 | pgbench_branches |             8192

 2017-02-09 02:57:31.104245+01 | 1486605451.10424 | pgbench_accounts |        671481856
 2017-02-09 02:57:31.104245+01 | 1486605451.10424 | pgbench_tellers  |            24576
 2017-02-09 02:57:31.104245+01 | 1486605451.10424 | pgbench_history  |                0
 2017-02-09 02:57:31.104245+01 | 1486605451.10424 | pgbench_branches |             8192

 2017-02-09 02:57:32.28608+01 | 1486605452.28608 | pgbench_accounts |        671481856
 2017-02-09 02:57:32.28608+01 | 1486605452.28608 | pgbench_tellers  |            24576
 2017-02-09 02:57:32.28608+01 | 1486605452.28608 | pgbench_history  |                0
 2017-02-09 02:57:32.28608+01 | 1486605452.28608 | pgbench_branches |             8192

 2017-02-09 02:57:33.462372+01 | 1486605453.46237 | pgbench_accounts |        671481856
 2017-02-09 02:57:33.462372+01 | 1486605453.46237 | pgbench_tellers  |            24576
 2017-02-09 02:57:33.462372+01 | 1486605453.46237 | pgbench_history  |                0
 2017-02-09 02:57:33.462372+01 | 1486605453.46237 | pgbench_branches |             8192

 2017-02-09 02:57:34.638683+01 | 1486605454.63868 | pgbench_accounts |        671481856
 2017-02-09 02:57:34.638683+01 | 1486605454.63868 | pgbench_tellers  |            24576
 2017-02-09 02:57:34.638683+01 | 1486605454.63868 | pgbench_history  |                0
 2017-02-09 02:57:34.638683+01 | 1486605454.63868 | pgbench_branches |             8192

 2017-02-09 02:57:35.816005+01 | 1486605455.816 | pgbench_accounts |        671481856
 2017-02-09 02:57:35.816005+01 | 1486605455.816 | pgbench_tellers  |            24576
 2017-02-09 02:57:35.816005+01 | 1486605455.816 | pgbench_history  |                0
 2017-02-09 02:57:35.816005+01 | 1486605455.816 | pgbench_branches |             8192

 2017-02-09 02:57:36.99459+01 | 1486605456.99459 | pgbench_accounts |        671481856
 2017-02-09 02:57:36.99459+01 | 1486605456.99459 | pgbench_tellers  |            24576
 2017-02-09 02:57:36.99459+01 | 1486605456.99459 | pgbench_history  |                0
 2017-02-09 02:57:36.99459+01 | 1486605456.99459 | pgbench_branches |             8192

 2017-02-09 02:57:38.172601+01 | 1486605458.1726 | pgbench_accounts |        671481856
 2017-02-09 02:57:38.172601+01 | 1486605458.1726 | pgbench_tellers  |            24576
 2017-02-09 02:57:38.172601+01 | 1486605458.1726 | pgbench_history  |                0
 2017-02-09 02:57:38.172601+01 | 1486605458.1726 | pgbench_branches |             8192

 2017-02-09 02:57:39.349372+01 | 1486605459.34937 | pgbench_accounts |        671481856
 2017-02-09 02:57:39.349372+01 | 1486605459.34937 | pgbench_tellers  |            24576
 2017-02-09 02:57:39.349372+01 | 1486605459.34937 | pgbench_history  |                0
 2017-02-09 02:57:39.349372+01 | 1486605459.34937 | pgbench_branches |             8192

 2017-02-09 02:57:40.496198+01 | 1486605460.4962 | pgbench_accounts |        671481856
 2017-02-09 02:57:40.496198+01 | 1486605460.4962 | pgbench_tellers  |            24576
 2017-02-09 02:57:40.496198+01 | 1486605460.4962 | pgbench_history  |                0
 2017-02-09 02:57:40.496198+01 | 1486605460.4962 | pgbench_branches |             8192

 2017-02-09 02:57:41.668335+01 | 1486605461.66833 | pgbench_accounts |        671481856
 2017-02-09 02:57:41.668335+01 | 1486605461.66833 | pgbench_tellers  |            24576
 2017-02-09 02:57:41.668335+01 | 1486605461.66833 | pgbench_history  |                0
 2017-02-09 02:57:41.668335+01 | 1486605461.66833 | pgbench_branches |             8192

 2017-02-09 02:57:42.846312+01 | 1486605462.84631 | pgbench_accounts |        671481856
 2017-02-09 02:57:42.846312+01 | 1486605462.84631 | pgbench_tellers  |            24576
 2017-02-09 02:57:42.846312+01 | 1486605462.84631 | pgbench_history  |                0
 2017-02-09 02:57:42.846312+01 | 1486605462.84631 | pgbench_branches |             8192

 2017-02-09 02:57:44.023939+01 | 1486605464.02394 | pgbench_accounts |        671481856
 2017-02-09 02:57:44.023939+01 | 1486605464.02394 | pgbench_tellers  |            24576
 2017-02-09 02:57:44.023939+01 | 1486605464.02394 | pgbench_history  |                0
 2017-02-09 02:57:44.023939+01 | 1486605464.02394 | pgbench_branches |             8192

 2017-02-09 02:57:45.201695+01 | 1486605465.20169 | pgbench_accounts |        671481856
 2017-02-09 02:57:45.201695+01 | 1486605465.20169 | pgbench_tellers  |            24576
 2017-02-09 02:57:45.201695+01 | 1486605465.20169 | pgbench_history  |                0
 2017-02-09 02:57:45.201695+01 | 1486605465.20169 | pgbench_branches |             8192

 2017-02-09 02:57:46.380794+01 | 1486605466.38079 | pgbench_accounts |        671481856
 2017-02-09 02:57:46.380794+01 | 1486605466.38079 | pgbench_tellers  |            24576
 2017-02-09 02:57:46.380794+01 | 1486605466.38079 | pgbench_history  |                0
 2017-02-09 02:57:46.380794+01 | 1486605466.38079 | pgbench_branches |             8192

 2017-02-09 02:57:47.556595+01 | 1486605467.5566 | pgbench_accounts |        671481856
 2017-02-09 02:57:47.556595+01 | 1486605467.5566 | pgbench_tellers  |            24576
 2017-02-09 02:57:47.556595+01 | 1486605467.5566 | pgbench_history  |                0
 2017-02-09 02:57:47.556595+01 | 1486605467.5566 | pgbench_branches |             8192

 2017-02-09 02:57:48.734679+01 | 1486605468.73468 | pgbench_accounts |        671481856
 2017-02-09 02:57:48.734679+01 | 1486605468.73468 | pgbench_tellers  |            24576
 2017-02-09 02:57:48.734679+01 | 1486605468.73468 | pgbench_history  |                0
 2017-02-09 02:57:48.734679+01 | 1486605468.73468 | pgbench_branches |             8192

 2017-02-09 02:57:49.878201+01 | 1486605469.8782 | pgbench_accounts |        671481856
 2017-02-09 02:57:49.878201+01 | 1486605469.8782 | pgbench_tellers  |            24576
 2017-02-09 02:57:49.878201+01 | 1486605469.8782 | pgbench_history  |                0
 2017-02-09 02:57:49.878201+01 | 1486605469.8782 | pgbench_branches |             8192

 2017-02-09 02:57:51.022166+01 | 1486605471.02217 | pgbench_accounts |        671481856
 2017-02-09 02:57:51.022166+01 | 1486605471.02217 | pgbench_tellers  |            24576
 2017-02-09 02:57:51.022166+01 | 1486605471.02217 | pgbench_history  |                0
 2017-02-09 02:57:51.022166+01 | 1486605471.02217 | pgbench_branches |             8192

 2017-02-09 02:57:52.202816+01 | 1486605472.20282 | pgbench_accounts |        671481856
 2017-02-09 02:57:52.202816+01 | 1486605472.20282 | pgbench_tellers  |            24576
 2017-02-09 02:57:52.202816+01 | 1486605472.20282 | pgbench_history  |                0
 2017-02-09 02:57:52.202816+01 | 1486605472.20282 | pgbench_branches |             8192

 2017-02-09 02:57:53.380293+01 | 1486605473.38029 | pgbench_accounts |        671481856
 2017-02-09 02:57:53.380293+01 | 1486605473.38029 | pgbench_tellers  |            24576
 2017-02-09 02:57:53.380293+01 | 1486605473.38029 | pgbench_history  |                0
 2017-02-09 02:57:53.380293+01 | 1486605473.38029 | pgbench_branches |             8192

 2017-02-09 02:57:54.560175+01 | 1486605474.56017 | pgbench_accounts |        671481856
 2017-02-09 02:57:54.560175+01 | 1486605474.56017 | pgbench_tellers  |            24576
 2017-02-09 02:57:54.560175+01 | 1486605474.56017 | pgbench_history  |                0
 2017-02-09 02:57:54.560175+01 | 1486605474.56017 | pgbench_branches |             8192

 2017-02-09 02:57:55.737409+01 | 1486605475.73741 | pgbench_accounts |        671481856
 2017-02-09 02:57:55.737409+01 | 1486605475.73741 | pgbench_tellers  |            24576
 2017-02-09 02:57:55.737409+01 | 1486605475.73741 | pgbench_history  |                0
 2017-02-09 02:57:55.737409+01 | 1486605475.73741 | pgbench_branches |             8192

 2017-02-09 02:57:56.914313+01 | 1486605476.91431 | pgbench_accounts |        671481856
 2017-02-09 02:57:56.914313+01 | 1486605476.91431 | pgbench_tellers  |            24576
 2017-02-09 02:57:56.914313+01 | 1486605476.91431 | pgbench_history  |                0
 2017-02-09 02:57:56.914313+01 | 1486605476.91431 | pgbench_branches |             8192

 2017-02-09 02:57:58.095854+01 | 1486605478.09585 | pgbench_accounts |        671481856
 2017-02-09 02:57:58.095854+01 | 1486605478.09585 | pgbench_tellers  |            24576
 2017-02-09 02:57:58.095854+01 | 1486605478.09585 | pgbench_history  |                0
 2017-02-09 02:57:58.095854+01 | 1486605478.09585 | pgbench_branches |             8192

 2017-02-09 02:57:59.277584+01 | 1486605479.27758 | pgbench_accounts |        671481856
 2017-02-09 02:57:59.277584+01 | 1486605479.27758 | pgbench_tellers  |            24576
 2017-02-09 02:57:59.277584+01 | 1486605479.27758 | pgbench_history  |                0
 2017-02-09 02:57:59.277584+01 | 1486605479.27758 | pgbench_branches |             8192

 2017-02-09 02:58:00.409236+01 | 1486605480.40924 | pgbench_accounts |        671481856
 2017-02-09 02:58:00.409236+01 | 1486605480.40924 | pgbench_tellers  |            24576
 2017-02-09 02:58:00.409236+01 | 1486605480.40924 | pgbench_history  |                0
 2017-02-09 02:58:00.409236+01 | 1486605480.40924 | pgbench_branches |             8192

 2017-02-09 02:58:01.530626+01 | 1486605481.53063 | pgbench_accounts |        671481856
 2017-02-09 02:58:01.530626+01 | 1486605481.53063 | pgbench_tellers  |            24576
 2017-02-09 02:58:01.530626+01 | 1486605481.53063 | pgbench_history  |                0
 2017-02-09 02:58:01.530626+01 | 1486605481.53063 | pgbench_branches |             8192

 2017-02-09 02:58:02.648135+01 | 1486605482.64813 | pgbench_accounts |        671481856
 2017-02-09 02:58:02.648135+01 | 1486605482.64813 | pgbench_tellers  |            24576
 2017-02-09 02:58:02.648135+01 | 1486605482.64813 | pgbench_history  |                0
 2017-02-09 02:58:02.648135+01 | 1486605482.64813 | pgbench_branches |             8192

 2017-02-09 02:58:03.793241+01 | 1486605483.79324 | pgbench_accounts |        671481856
 2017-02-09 02:58:03.793241+01 | 1486605483.79324 | pgbench_tellers  |            24576
 2017-02-09 02:58:03.793241+01 | 1486605483.79324 | pgbench_history  |                0
 2017-02-09 02:58:03.793241+01 | 1486605483.79324 | pgbench_branches |             8192

 2017-02-09 02:58:04.942183+01 | 1486605484.94218 | pgbench_accounts |        671481856
 2017-02-09 02:58:04.942183+01 | 1486605484.94218 | pgbench_tellers  |            24576
 2017-02-09 02:58:04.942183+01 | 1486605484.94218 | pgbench_history  |                0
 2017-02-09 02:58:04.942183+01 | 1486605484.94218 | pgbench_branches |             8192

 2017-02-09 02:58:06.107133+01 | 1486605486.10713 | pgbench_accounts |        671481856
 2017-02-09 02:58:06.107133+01 | 1486605486.10713 | pgbench_tellers  |            24576
 2017-02-09 02:58:06.107133+01 | 1486605486.10713 | pgbench_history  |                0
 2017-02-09 02:58:06.107133+01 | 1486605486.10713 | pgbench_branches |             8192

 2017-02-09 02:58:07.20486+01 | 1486605487.20486 | pgbench_accounts |        671481856
 2017-02-09 02:58:07.20486+01 | 1486605487.20486 | pgbench_tellers  |            24576
 2017-02-09 02:58:07.20486+01 | 1486605487.20486 | pgbench_history  |                0
 2017-02-09 02:58:07.20486+01 | 1486605487.20486 | pgbench_branches |             8192

 2017-02-09 02:58:08.28422+01 | 1486605488.28422 | pgbench_accounts |        671481856
 2017-02-09 02:58:08.28422+01 | 1486605488.28422 | pgbench_tellers  |            24576
 2017-02-09 02:58:08.28422+01 | 1486605488.28422 | pgbench_history  |                0
 2017-02-09 02:58:08.28422+01 | 1486605488.28422 | pgbench_branches |             8192

 2017-02-09 02:58:09.413244+01 | 1486605489.41324 | pgbench_accounts |        671481856
 2017-02-09 02:58:09.413244+01 | 1486605489.41324 | pgbench_tellers  |            24576
 2017-02-09 02:58:09.413244+01 | 1486605489.41324 | pgbench_history  |                0
 2017-02-09 02:58:09.413244+01 | 1486605489.41324 | pgbench_branches |             8192

 2017-02-09 02:58:10.581127+01 | 1486605490.58113 | pgbench_accounts |        671481856
 2017-02-09 02:58:10.581127+01 | 1486605490.58113 | pgbench_tellers  |            24576
 2017-02-09 02:58:10.581127+01 | 1486605490.58113 | pgbench_history  |                0
 2017-02-09 02:58:10.581127+01 | 1486605490.58113 | pgbench_branches |             8192

 2017-02-09 02:58:11.75989+01 | 1486605491.75989 | pgbench_accounts |        671481856
 2017-02-09 02:58:11.75989+01 | 1486605491.75989 | pgbench_tellers  |            24576
 2017-02-09 02:58:11.75989+01 | 1486605491.75989 | pgbench_history  |                0
 2017-02-09 02:58:11.75989+01 | 1486605491.75989 | pgbench_branches |             8192

 2017-02-09 02:58:12.928469+01 | 1486605492.92847 | pgbench_accounts |        671481856
 2017-02-09 02:58:12.928469+01 | 1486605492.92847 | pgbench_tellers  |            24576
 2017-02-09 02:58:12.928469+01 | 1486605492.92847 | pgbench_history  |                0
 2017-02-09 02:58:12.928469+01 | 1486605492.92847 | pgbench_branches |             8192

 2017-02-09 02:58:14.077506+01 | 1486605494.07751 | pgbench_accounts |        671481856
 2017-02-09 02:58:14.077506+01 | 1486605494.07751 | pgbench_tellers  |            24576
 2017-02-09 02:58:14.077506+01 | 1486605494.07751 | pgbench_history  |                0
 2017-02-09 02:58:14.077506+01 | 1486605494.07751 | pgbench_branches |             8192

 2017-02-09 02:58:15.249314+01 | 1486605495.24931 | pgbench_accounts |        671481856
 2017-02-09 02:58:15.249314+01 | 1486605495.24931 | pgbench_tellers  |            24576
 2017-02-09 02:58:15.249314+01 | 1486605495.24931 | pgbench_history  |                0
 2017-02-09 02:58:15.249314+01 | 1486605495.24931 | pgbench_branches |             8192

 2017-02-09 02:58:16.424377+01 | 1486605496.42438 | pgbench_accounts |        671481856
 2017-02-09 02:58:16.424377+01 | 1486605496.42438 | pgbench_tellers  |            24576
 2017-02-09 02:58:16.424377+01 | 1486605496.42438 | pgbench_history  |                0
 2017-02-09 02:58:16.424377+01 | 1486605496.42438 | pgbench_branches |             8192

 2017-02-09 02:58:17.599813+01 | 1486605497.59981 | pgbench_accounts |        671481856
 2017-02-09 02:58:17.599813+01 | 1486605497.59981 | pgbench_tellers  |            24576
 2017-02-09 02:58:17.599813+01 | 1486605497.59981 | pgbench_history  |                0
 2017-02-09 02:58:17.599813+01 | 1486605497.59981 | pgbench_branches |             8192

 2017-02-09 02:58:18.777888+01 | 1486605498.77789 | pgbench_accounts |        671481856
 2017-02-09 02:58:18.777888+01 | 1486605498.77789 | pgbench_tellers  |            24576
 2017-02-09 02:58:18.777888+01 | 1486605498.77789 | pgbench_history  |                0
 2017-02-09 02:58:18.777888+01 | 1486605498.77789 | pgbench_branches |             8192

 2017-02-09 02:58:19.953953+01 | 1486605499.95395 | pgbench_accounts |        671481856
 2017-02-09 02:58:19.953953+01 | 1486605499.95395 | pgbench_tellers  |            24576
 2017-02-09 02:58:19.953953+01 | 1486605499.95395 | pgbench_history  |                0
 2017-02-09 02:58:19.953953+01 | 1486605499.95395 | pgbench_branches |             8192

 2017-02-09 02:58:21.132164+01 | 1486605501.13216 | pgbench_accounts |        671481856
 2017-02-09 02:58:21.132164+01 | 1486605501.13216 | pgbench_tellers  |            24576
 2017-02-09 02:58:21.132164+01 | 1486605501.13216 | pgbench_history  |                0
 2017-02-09 02:58:21.132164+01 | 1486605501.13216 | pgbench_branches |             8192

 2017-02-09 02:58:22.312473+01 | 1486605502.31247 | pgbench_accounts |        671481856
 2017-02-09 02:58:22.312473+01 | 1486605502.31247 | pgbench_tellers  |            24576
 2017-02-09 02:58:22.312473+01 | 1486605502.31247 | pgbench_history  |                0
 2017-02-09 02:58:22.312473+01 | 1486605502.31247 | pgbench_branches |             8192

 2017-02-09 02:58:23.489653+01 | 1486605503.48965 | pgbench_accounts |        671481856
 2017-02-09 02:58:23.489653+01 | 1486605503.48965 | pgbench_tellers  |            24576
 2017-02-09 02:58:23.489653+01 | 1486605503.48965 | pgbench_history  |                0
 2017-02-09 02:58:23.489653+01 | 1486605503.48965 | pgbench_branches |             8192

 2017-02-09 02:58:24.665782+01 | 1486605504.66578 | pgbench_accounts |        671481856
 2017-02-09 02:58:24.665782+01 | 1486605504.66578 | pgbench_tellers  |            24576
 2017-02-09 02:58:24.665782+01 | 1486605504.66578 | pgbench_history  |                0
 2017-02-09 02:58:24.665782+01 | 1486605504.66578 | pgbench_branches |             8192

 2017-02-09 02:58:25.814715+01 | 1486605505.81471 | pgbench_accounts |        671481856
 2017-02-09 02:58:25.814715+01 | 1486605505.81471 | pgbench_tellers  |            24576
 2017-02-09 02:58:25.814715+01 | 1486605505.81471 | pgbench_history  |                0
 2017-02-09 02:58:25.814715+01 | 1486605505.81471 | pgbench_branches |             8192

 2017-02-09 02:58:26.953287+01 | 1486605506.95329 | pgbench_accounts |        671481856
 2017-02-09 02:58:26.953287+01 | 1486605506.95329 | pgbench_tellers  |            24576
 2017-02-09 02:58:26.953287+01 | 1486605506.95329 | pgbench_history  |                0
 2017-02-09 02:58:26.953287+01 | 1486605506.95329 | pgbench_branches |             8192

 2017-02-09 02:58:28.126897+01 | 1486605508.1269 | pgbench_accounts |        671481856
 2017-02-09 02:58:28.126897+01 | 1486605508.1269 | pgbench_tellers  |            24576
 2017-02-09 02:58:28.126897+01 | 1486605508.1269 | pgbench_history  |                0
 2017-02-09 02:58:28.126897+01 | 1486605508.1269 | pgbench_branches |             8192

 2017-02-09 02:58:29.304746+01 | 1486605509.30475 | pgbench_accounts |        671481856
 2017-02-09 02:58:29.304746+01 | 1486605509.30475 | pgbench_tellers  |            24576
 2017-02-09 02:58:29.304746+01 | 1486605509.30475 | pgbench_history  |                0
 2017-02-09 02:58:29.304746+01 | 1486605509.30475 | pgbench_branches |             8192

 2017-02-09 02:58:30.48265+01 | 1486605510.48265 | pgbench_accounts |        671481856
 2017-02-09 02:58:30.48265+01 | 1486605510.48265 | pgbench_tellers  |            24576
 2017-02-09 02:58:30.48265+01 | 1486605510.48265 | pgbench_history  |                0
 2017-02-09 02:58:30.48265+01 | 1486605510.48265 | pgbench_branches |             8192

 2017-02-09 02:58:31.659044+01 | 1486605511.65904 | pgbench_accounts |        671481856
 2017-02-09 02:58:31.659044+01 | 1486605511.65904 | pgbench_tellers  |            24576
 2017-02-09 02:58:31.659044+01 | 1486605511.65904 | pgbench_history  |                0
 2017-02-09 02:58:31.659044+01 | 1486605511.65904 | pgbench_branches |             8192

 2017-02-09 02:58:32.836559+01 | 1486605512.83656 | pgbench_accounts |        671481856
 2017-02-09 02:58:32.836559+01 | 1486605512.83656 | pgbench_tellers  |            24576
 2017-02-09 02:58:32.836559+01 | 1486605512.83656 | pgbench_history  |                0
 2017-02-09 02:58:32.836559+01 | 1486605512.83656 | pgbench_branches |             8192

 2017-02-09 02:58:34.012323+01 | 1486605514.01232 | pgbench_accounts |        671481856
 2017-02-09 02:58:34.012323+01 | 1486605514.01232 | pgbench_tellers  |            24576
 2017-02-09 02:58:34.012323+01 | 1486605514.01232 | pgbench_history  |                0
 2017-02-09 02:58:34.012323+01 | 1486605514.01232 | pgbench_branches |             8192

 2017-02-09 02:58:35.18886+01 | 1486605515.18886 | pgbench_accounts |        671481856
 2017-02-09 02:58:35.18886+01 | 1486605515.18886 | pgbench_tellers  |            24576
 2017-02-09 02:58:35.18886+01 | 1486605515.18886 | pgbench_history  |                0
 2017-02-09 02:58:35.18886+01 | 1486605515.18886 | pgbench_branches |             8192

 2017-02-09 02:58:36.366948+01 | 1486605516.36695 | pgbench_accounts |        671481856
 2017-02-09 02:58:36.366948+01 | 1486605516.36695 | pgbench_tellers  |            24576
 2017-02-09 02:58:36.366948+01 | 1486605516.36695 | pgbench_history  |                0
 2017-02-09 02:58:36.366948+01 | 1486605516.36695 | pgbench_branches |             8192

 2017-02-09 02:58:37.545273+01 | 1486605517.54527 | pgbench_accounts |        671481856
 2017-02-09 02:58:37.545273+01 | 1486605517.54527 | pgbench_tellers  |            24576
 2017-02-09 02:58:37.545273+01 | 1486605517.54527 | pgbench_history  |                0
 2017-02-09 02:58:37.545273+01 | 1486605517.54527 | pgbench_branches |             8192

 2017-02-09 02:58:38.722409+01 | 1486605518.72241 | pgbench_accounts |        671481856
 2017-02-09 02:58:38.722409+01 | 1486605518.72241 | pgbench_tellers  |            24576
 2017-02-09 02:58:38.722409+01 | 1486605518.72241 | pgbench_history  |                0
 2017-02-09 02:58:38.722409+01 | 1486605518.72241 | pgbench_branches |             8192

 2017-02-09 02:58:39.900993+01 | 1486605519.90099 | pgbench_accounts |        671481856
 2017-02-09 02:58:39.900993+01 | 1486605519.90099 | pgbench_tellers  |            24576
 2017-02-09 02:58:39.900993+01 | 1486605519.90099 | pgbench_history  |                0
 2017-02-09 02:58:39.900993+01 | 1486605519.90099 | pgbench_branches |             8192

 2017-02-09 02:58:41.079686+01 | 1486605521.07969 | pgbench_accounts |        671481856
 2017-02-09 02:58:41.079686+01 | 1486605521.07969 | pgbench_tellers  |            24576
 2017-02-09 02:58:41.079686+01 | 1486605521.07969 | pgbench_history  |                0
 2017-02-09 02:58:41.079686+01 | 1486605521.07969 | pgbench_branches |             8192

 2017-02-09 02:58:42.257397+01 | 1486605522.2574 | pgbench_accounts |        671481856
 2017-02-09 02:58:42.257397+01 | 1486605522.2574 | pgbench_tellers  |            24576
 2017-02-09 02:58:42.257397+01 | 1486605522.2574 | pgbench_history  |                0
 2017-02-09 02:58:42.257397+01 | 1486605522.2574 | pgbench_branches |             8192

 2017-02-09 02:58:43.436985+01 | 1486605523.43699 | pgbench_accounts |        671481856
 2017-02-09 02:58:43.436985+01 | 1486605523.43699 | pgbench_tellers  |            24576
 2017-02-09 02:58:43.436985+01 | 1486605523.43699 | pgbench_history  |                0
 2017-02-09 02:58:43.436985+01 | 1486605523.43699 | pgbench_branches |             8192

 2017-02-09 02:58:44.617297+01 | 1486605524.6173 | pgbench_accounts |        671481856
 2017-02-09 02:58:44.617297+01 | 1486605524.6173 | pgbench_tellers  |            24576
 2017-02-09 02:58:44.617297+01 | 1486605524.6173 | pgbench_history  |                0
 2017-02-09 02:58:44.617297+01 | 1486605524.6173 | pgbench_branches |             8192

 2017-02-09 02:58:45.795647+01 | 1486605525.79565 | pgbench_accounts |        671481856
 2017-02-09 02:58:45.795647+01 | 1486605525.79565 | pgbench_tellers  |            24576
 2017-02-09 02:58:45.795647+01 | 1486605525.79565 | pgbench_history  |                0
 2017-02-09 02:58:45.795647+01 | 1486605525.79565 | pgbench_branches |             8192

 2017-02-09 02:58:46.971621+01 | 1486605526.97162 | pgbench_accounts |        671481856
 2017-02-09 02:58:46.971621+01 | 1486605526.97162 | pgbench_tellers  |            24576
 2017-02-09 02:58:46.971621+01 | 1486605526.97162 | pgbench_history  |                0
 2017-02-09 02:58:46.971621+01 | 1486605526.97162 | pgbench_branches |             8192

 2017-02-09 02:58:48.150568+01 | 1486605528.15057 | pgbench_accounts |        671481856
 2017-02-09 02:58:48.150568+01 | 1486605528.15057 | pgbench_tellers  |            24576
 2017-02-09 02:58:48.150568+01 | 1486605528.15057 | pgbench_history  |                0
 2017-02-09 02:58:48.150568+01 | 1486605528.15057 | pgbench_branches |             8192

 2017-02-09 02:58:49.326379+01 | 1486605529.32638 | pgbench_accounts |        671481856
 2017-02-09 02:58:49.326379+01 | 1486605529.32638 | pgbench_tellers  |            24576
 2017-02-09 02:58:49.326379+01 | 1486605529.32638 | pgbench_history  |                0
 2017-02-09 02:58:49.326379+01 | 1486605529.32638 | pgbench_branches |             8192

 2017-02-09 02:58:50.505434+01 | 1486605530.50543 | pgbench_accounts |        671481856
 2017-02-09 02:58:50.505434+01 | 1486605530.50543 | pgbench_tellers  |            24576
 2017-02-09 02:58:50.505434+01 | 1486605530.50543 | pgbench_history  |                0
 2017-02-09 02:58:50.505434+01 | 1486605530.50543 | pgbench_branches |             8192

 2017-02-09 02:58:51.662593+01 | 1486605531.66259 | pgbench_accounts |        671481856
 2017-02-09 02:58:51.662593+01 | 1486605531.66259 | pgbench_tellers  |            24576
 2017-02-09 02:58:51.662593+01 | 1486605531.66259 | pgbench_history  |                0
 2017-02-09 02:58:51.662593+01 | 1486605531.66259 | pgbench_branches |             8192

 2017-02-09 02:58:52.841287+01 | 1486605532.84129 | pgbench_accounts |        671481856
 2017-02-09 02:58:52.841287+01 | 1486605532.84129 | pgbench_tellers  |            24576
 2017-02-09 02:58:52.841287+01 | 1486605532.84129 | pgbench_history  |                0
 2017-02-09 02:58:52.841287+01 | 1486605532.84129 | pgbench_branches |             8192

 2017-02-09 02:58:54.008778+01 | 1486605534.00878 | pgbench_accounts |        671481856
 2017-02-09 02:58:54.008778+01 | 1486605534.00878 | pgbench_tellers  |            24576
 2017-02-09 02:58:54.008778+01 | 1486605534.00878 | pgbench_history  |                0
 2017-02-09 02:58:54.008778+01 | 1486605534.00878 | pgbench_branches |             8192

 2017-02-09 02:58:55.143005+01 | 1486605535.143 | pgbench_accounts |        671481856
 2017-02-09 02:58:55.143005+01 | 1486605535.143 | pgbench_tellers  |            24576
 2017-02-09 02:58:55.143005+01 | 1486605535.143 | pgbench_history  |                0
 2017-02-09 02:58:55.143005+01 | 1486605535.143 | pgbench_branches |             8192

 2017-02-09 02:58:56.261792+01 | 1486605536.26179 | pgbench_accounts |        671481856
 2017-02-09 02:58:56.261792+01 | 1486605536.26179 | pgbench_tellers  |            24576
 2017-02-09 02:58:56.261792+01 | 1486605536.26179 | pgbench_history  |                0
 2017-02-09 02:58:56.261792+01 | 1486605536.26179 | pgbench_branches |             8192

 2017-02-09 02:58:57.347918+01 | 1486605537.34792 | pgbench_accounts |        671481856
 2017-02-09 02:58:57.347918+01 | 1486605537.34792 | pgbench_tellers  |            24576
 2017-02-09 02:58:57.347918+01 | 1486605537.34792 | pgbench_history  |                0
 2017-02-09 02:58:57.347918+01 | 1486605537.34792 | pgbench_branches |             8192

 2017-02-09 02:58:58.445286+01 | 1486605538.44529 | pgbench_accounts |        671481856
 2017-02-09 02:58:58.445286+01 | 1486605538.44529 | pgbench_tellers  |            24576
 2017-02-09 02:58:58.445286+01 | 1486605538.44529 | pgbench_history  |                0
 2017-02-09 02:58:58.445286+01 | 1486605538.44529 | pgbench_branches |             8192

 2017-02-09 02:58:59.530381+01 | 1486605539.53038 | pgbench_accounts |        671481856
 2017-02-09 02:58:59.530381+01 | 1486605539.53038 | pgbench_tellers  |            24576
 2017-02-09 02:58:59.530381+01 | 1486605539.53038 | pgbench_history  |                0
 2017-02-09 02:58:59.530381+01 | 1486605539.53038 | pgbench_branches |             8192

 2017-02-09 02:59:00.621679+01 | 1486605540.62168 | pgbench_accounts |        671481856
 2017-02-09 02:59:00.621679+01 | 1486605540.62168 | pgbench_tellers  |            24576
 2017-02-09 02:59:00.621679+01 | 1486605540.62168 | pgbench_history  |                0
 2017-02-09 02:59:00.621679+01 | 1486605540.62168 | pgbench_branches |             8192

 2017-02-09 02:59:01.73818+01 | 1486605541.73818 | pgbench_accounts |        671481856
 2017-02-09 02:59:01.73818+01 | 1486605541.73818 | pgbench_tellers  |            24576
 2017-02-09 02:59:01.73818+01 | 1486605541.73818 | pgbench_history  |                0
 2017-02-09 02:59:01.73818+01 | 1486605541.73818 | pgbench_branches |             8192

 2017-02-09 02:59:02.877281+01 | 1486605542.87728 | pgbench_accounts |        671481856
 2017-02-09 02:59:02.877281+01 | 1486605542.87728 | pgbench_tellers  |            24576
 2017-02-09 02:59:02.877281+01 | 1486605542.87728 | pgbench_history  |                0
 2017-02-09 02:59:02.877281+01 | 1486605542.87728 | pgbench_branches |             8192

 2017-02-09 02:59:04.056113+01 | 1486605544.05611 | pgbench_accounts |        671481856
 2017-02-09 02:59:04.056113+01 | 1486605544.05611 | pgbench_tellers  |            24576
 2017-02-09 02:59:04.056113+01 | 1486605544.05611 | pgbench_history  |                0
 2017-02-09 02:59:04.056113+01 | 1486605544.05611 | pgbench_branches |             8192

 2017-02-09 02:59:05.198319+01 | 1486605545.19832 | pgbench_accounts |        671481856
 2017-02-09 02:59:05.198319+01 | 1486605545.19832 | pgbench_tellers  |            24576
 2017-02-09 02:59:05.198319+01 | 1486605545.19832 | pgbench_history  |                0
 2017-02-09 02:59:05.198319+01 | 1486605545.19832 | pgbench_branches |             8192

 2017-02-09 02:59:06.317963+01 | 1486605546.31796 | pgbench_accounts |        671481856
 2017-02-09 02:59:06.317963+01 | 1486605546.31796 | pgbench_tellers  |            24576
 2017-02-09 02:59:06.317963+01 | 1486605546.31796 | pgbench_history  |                0
 2017-02-09 02:59:06.317963+01 | 1486605546.31796 | pgbench_branches |             8192

 2017-02-09 02:59:07.475304+01 | 1486605547.4753 | pgbench_accounts |        671481856
 2017-02-09 02:59:07.475304+01 | 1486605547.4753 | pgbench_tellers  |            24576
 2017-02-09 02:59:07.475304+01 | 1486605547.4753 | pgbench_history  |                0
 2017-02-09 02:59:07.475304+01 | 1486605547.4753 | pgbench_branches |             8192

 2017-02-09 02:59:08.626184+01 | 1486605548.62618 | pgbench_accounts |        671481856
 2017-02-09 02:59:08.626184+01 | 1486605548.62618 | pgbench_tellers  |            24576
 2017-02-09 02:59:08.626184+01 | 1486605548.62618 | pgbench_history  |                0
 2017-02-09 02:59:08.626184+01 | 1486605548.62618 | pgbench_branches |             8192

