 2017-02-10 18:13:45.393868+01 | 1486746825.39387 | pgbench_accounts |       4133101568
 2017-02-10 18:13:45.393868+01 | 1486746825.39387 | pgbench_tellers  |           139264
 2017-02-10 18:13:45.393868+01 | 1486746825.39387 | pgbench_history  |          1171456
 2017-02-10 18:13:45.393868+01 | 1486746825.39387 | pgbench_branches |            16384

 2017-02-10 18:13:46.460583+01 | 1486746826.46058 | pgbench_accounts |       4133101568
 2017-02-10 18:13:46.460583+01 | 1486746826.46058 | pgbench_tellers  |           139264
 2017-02-10 18:13:46.460583+01 | 1486746826.46058 | pgbench_history  |          1171456
 2017-02-10 18:13:46.460583+01 | 1486746826.46058 | pgbench_branches |            16384

 2017-02-10 18:13:47.526484+01 | 1486746827.52648 | pgbench_accounts |       4133101568
 2017-02-10 18:13:47.526484+01 | 1486746827.52648 | pgbench_tellers  |           139264
 2017-02-10 18:13:47.526484+01 | 1486746827.52648 | pgbench_history  |          1753088
 2017-02-10 18:13:47.526484+01 | 1486746827.52648 | pgbench_branches |            16384

 2017-02-10 18:13:48.594768+01 | 1486746828.59477 | pgbench_accounts |       4133101568
 2017-02-10 18:13:48.594768+01 | 1486746828.59477 | pgbench_tellers  |           139264
 2017-02-10 18:13:48.594768+01 | 1486746828.59477 | pgbench_history  |          2588672
 2017-02-10 18:13:48.594768+01 | 1486746828.59477 | pgbench_branches |            16384

 2017-02-10 18:13:49.667983+01 | 1486746829.66798 | pgbench_accounts |       4133101568
 2017-02-10 18:13:49.667983+01 | 1486746829.66798 | pgbench_tellers  |           139264
 2017-02-10 18:13:49.667983+01 | 1486746829.66798 | pgbench_history  |          3629056
 2017-02-10 18:13:49.667983+01 | 1486746829.66798 | pgbench_branches |            16384

 2017-02-10 18:13:50.745936+01 | 1486746830.74594 | pgbench_accounts |       4133101568
 2017-02-10 18:13:50.745936+01 | 1486746830.74594 | pgbench_tellers  |           139264
 2017-02-10 18:13:50.745936+01 | 1486746830.74594 | pgbench_history  |          4153344
 2017-02-10 18:13:50.745936+01 | 1486746830.74594 | pgbench_branches |            16384

 2017-02-10 18:13:51.825802+01 | 1486746831.8258 | pgbench_accounts |       4133101568
 2017-02-10 18:13:51.825802+01 | 1486746831.8258 | pgbench_tellers  |           139264
 2017-02-10 18:13:51.825802+01 | 1486746831.8258 | pgbench_history  |          5275648
 2017-02-10 18:13:51.825802+01 | 1486746831.8258 | pgbench_branches |            16384

 2017-02-10 18:13:52.914499+01 | 1486746832.9145 | pgbench_accounts |       4133101568
 2017-02-10 18:13:52.914499+01 | 1486746832.9145 | pgbench_tellers  |           139264
 2017-02-10 18:13:52.914499+01 | 1486746832.9145 | pgbench_history  |          6922240
 2017-02-10 18:13:52.914499+01 | 1486746832.9145 | pgbench_branches |            16384

 2017-02-10 18:13:53.997441+01 | 1486746833.99744 | pgbench_accounts |       4133101568
 2017-02-10 18:13:53.997441+01 | 1486746833.99744 | pgbench_tellers  |           139264
 2017-02-10 18:13:53.997441+01 | 1486746833.99744 | pgbench_history  |          7438336
 2017-02-10 18:13:53.997441+01 | 1486746833.99744 | pgbench_branches |            16384

 2017-02-10 18:13:55.071142+01 | 1486746835.07114 | pgbench_accounts |       4133101568
 2017-02-10 18:13:55.071142+01 | 1486746835.07114 | pgbench_tellers  |           139264
 2017-02-10 18:13:55.071142+01 | 1486746835.07114 | pgbench_history  |          8495104
 2017-02-10 18:13:55.071142+01 | 1486746835.07114 | pgbench_branches |            16384

 2017-02-10 18:13:56.153672+01 | 1486746836.15367 | pgbench_accounts |       4133101568
 2017-02-10 18:13:56.153672+01 | 1486746836.15367 | pgbench_tellers  |           139264
 2017-02-10 18:13:56.153672+01 | 1486746836.15367 | pgbench_history  |          9043968
 2017-02-10 18:13:56.153672+01 | 1486746836.15367 | pgbench_branches |            16384

 2017-02-10 18:13:57.245666+01 | 1486746837.24567 | pgbench_accounts |       4133101568
 2017-02-10 18:13:57.245666+01 | 1486746837.24567 | pgbench_tellers  |           139264
 2017-02-10 18:13:57.245666+01 | 1486746837.24567 | pgbench_history  |         10141696
 2017-02-10 18:13:57.245666+01 | 1486746837.24567 | pgbench_branches |            16384

 2017-02-10 18:13:58.338729+01 | 1486746838.33873 | pgbench_accounts |       4133101568
 2017-02-10 18:13:58.338729+01 | 1486746838.33873 | pgbench_tellers  |           139264
 2017-02-10 18:13:58.338729+01 | 1486746838.33873 | pgbench_history  |         10788864
 2017-02-10 18:13:58.338729+01 | 1486746838.33873 | pgbench_branches |            16384

 2017-02-10 18:13:59.406978+01 | 1486746839.40698 | pgbench_accounts |       4133101568
 2017-02-10 18:13:59.406978+01 | 1486746839.40698 | pgbench_tellers  |           139264
 2017-02-10 18:13:59.406978+01 | 1486746839.40698 | pgbench_history  |         12779520
 2017-02-10 18:13:59.406978+01 | 1486746839.40698 | pgbench_branches |            16384

 2017-02-10 18:14:00.49684+01 | 1486746840.49684 | pgbench_accounts |       4133101568
 2017-02-10 18:14:00.49684+01 | 1486746840.49684 | pgbench_tellers  |           139264
 2017-02-10 18:14:00.49684+01 | 1486746840.49684 | pgbench_history  |         12779520
 2017-02-10 18:14:00.49684+01 | 1486746840.49684 | pgbench_branches |            16384

 2017-02-10 18:14:01.581841+01 | 1486746841.58184 | pgbench_accounts |       4133101568
 2017-02-10 18:14:01.581841+01 | 1486746841.58184 | pgbench_tellers  |           139264
 2017-02-10 18:14:01.581841+01 | 1486746841.58184 | pgbench_history  |         14532608
 2017-02-10 18:14:01.581841+01 | 1486746841.58184 | pgbench_branches |            16384

 2017-02-10 18:14:02.658103+01 | 1486746842.6581 | pgbench_accounts |       4133101568
 2017-02-10 18:14:02.658103+01 | 1486746842.6581 | pgbench_tellers  |           139264
 2017-02-10 18:14:02.658103+01 | 1486746842.6581 | pgbench_history  |         14884864
 2017-02-10 18:14:02.658103+01 | 1486746842.6581 | pgbench_branches |            16384

 2017-02-10 18:14:03.725974+01 | 1486746843.72597 | pgbench_accounts |       4133101568
 2017-02-10 18:14:03.725974+01 | 1486746843.72597 | pgbench_tellers  |           139264
 2017-02-10 18:14:03.725974+01 | 1486746843.72597 | pgbench_history  |         15679488
 2017-02-10 18:14:03.725974+01 | 1486746843.72597 | pgbench_branches |            16384

 2017-02-10 18:14:04.833269+01 | 1486746844.83327 | pgbench_accounts |       4133101568
 2017-02-10 18:14:04.833269+01 | 1486746844.83327 | pgbench_tellers  |           139264
 2017-02-10 18:14:04.833269+01 | 1486746844.83327 | pgbench_history  |         16662528
 2017-02-10 18:14:04.833269+01 | 1486746844.83327 | pgbench_branches |            16384

 2017-02-10 18:14:05.910325+01 | 1486746845.91033 | pgbench_accounts |       4133101568
 2017-02-10 18:14:05.910325+01 | 1486746845.91033 | pgbench_tellers  |           139264
 2017-02-10 18:14:05.910325+01 | 1486746845.91033 | pgbench_history  |         17563648
 2017-02-10 18:14:05.910325+01 | 1486746845.91033 | pgbench_branches |            16384

 2017-02-10 18:14:07.001248+01 | 1486746847.00125 | pgbench_accounts |       4133101568
 2017-02-10 18:14:07.001248+01 | 1486746847.00125 | pgbench_tellers  |           139264
 2017-02-10 18:14:07.001248+01 | 1486746847.00125 | pgbench_history  |         18481152
 2017-02-10 18:14:07.001248+01 | 1486746847.00125 | pgbench_branches |            16384

 2017-02-10 18:14:08.073578+01 | 1486746848.07358 | pgbench_accounts |       4133101568
 2017-02-10 18:14:08.073578+01 | 1486746848.07358 | pgbench_tellers  |           139264
 2017-02-10 18:14:08.073578+01 | 1486746848.07358 | pgbench_history  |         19480576
 2017-02-10 18:14:08.073578+01 | 1486746848.07358 | pgbench_branches |            16384

 2017-02-10 18:14:09.158608+01 | 1486746849.15861 | pgbench_accounts |       4133101568
 2017-02-10 18:14:09.158608+01 | 1486746849.15861 | pgbench_tellers  |           139264
 2017-02-10 18:14:09.158608+01 | 1486746849.15861 | pgbench_history  |         20733952
 2017-02-10 18:14:09.158608+01 | 1486746849.15861 | pgbench_branches |            16384

 2017-02-10 18:14:10.265147+01 | 1486746850.26515 | pgbench_accounts |       4133101568
 2017-02-10 18:14:10.265147+01 | 1486746850.26515 | pgbench_tellers  |           139264
 2017-02-10 18:14:10.265147+01 | 1486746850.26515 | pgbench_history  |         21512192
 2017-02-10 18:14:10.265147+01 | 1486746850.26515 | pgbench_branches |            16384

 2017-02-10 18:14:11.352262+01 | 1486746851.35226 | pgbench_accounts |       4133101568
 2017-02-10 18:14:11.352262+01 | 1486746851.35226 | pgbench_tellers  |           139264
 2017-02-10 18:14:11.352262+01 | 1486746851.35226 | pgbench_history  |         23420928
 2017-02-10 18:14:11.352262+01 | 1486746851.35226 | pgbench_branches |            16384

 2017-02-10 18:14:12.421629+01 | 1486746852.42163 | pgbench_accounts |       4133101568
 2017-02-10 18:14:12.421629+01 | 1486746852.42163 | pgbench_tellers  |           139264
 2017-02-10 18:14:12.421629+01 | 1486746852.42163 | pgbench_history  |         23420928
 2017-02-10 18:14:12.421629+01 | 1486746852.42163 | pgbench_branches |            16384

 2017-02-10 18:14:13.50856+01 | 1486746853.50856 | pgbench_accounts |       4133101568
 2017-02-10 18:14:13.50856+01 | 1486746853.50856 | pgbench_tellers  |           139264
 2017-02-10 18:14:13.50856+01 | 1486746853.50856 | pgbench_history  |         24494080
 2017-02-10 18:14:13.50856+01 | 1486746853.50856 | pgbench_branches |            16384

 2017-02-10 18:14:14.600651+01 | 1486746854.60065 | pgbench_accounts |       4133101568
 2017-02-10 18:14:14.600651+01 | 1486746854.60065 | pgbench_tellers  |           139264
 2017-02-10 18:14:14.600651+01 | 1486746854.60065 | pgbench_history  |         25321472
 2017-02-10 18:14:14.600651+01 | 1486746854.60065 | pgbench_branches |            16384

 2017-02-10 18:14:15.668481+01 | 1486746855.66848 | pgbench_accounts |       4133101568
 2017-02-10 18:14:15.668481+01 | 1486746855.66848 | pgbench_tellers  |           139264
 2017-02-10 18:14:15.668481+01 | 1486746855.66848 | pgbench_history  |         26263552
 2017-02-10 18:14:15.668481+01 | 1486746855.66848 | pgbench_branches |            16384

 2017-02-10 18:14:16.776285+01 | 1486746856.77628 | pgbench_accounts |       4133101568
 2017-02-10 18:14:16.776285+01 | 1486746856.77628 | pgbench_tellers  |           139264
 2017-02-10 18:14:16.776285+01 | 1486746856.77628 | pgbench_history  |         27279360
 2017-02-10 18:14:16.776285+01 | 1486746856.77628 | pgbench_branches |            16384

 2017-02-10 18:14:17.860505+01 | 1486746857.86051 | pgbench_accounts |       4133101568
 2017-02-10 18:14:17.860505+01 | 1486746857.86051 | pgbench_tellers  |           139264
 2017-02-10 18:14:17.860505+01 | 1486746857.86051 | pgbench_history  |         28246016
 2017-02-10 18:14:17.860505+01 | 1486746857.86051 | pgbench_branches |            16384

 2017-02-10 18:14:18.938291+01 | 1486746858.93829 | pgbench_accounts |       4133101568
 2017-02-10 18:14:18.938291+01 | 1486746858.93829 | pgbench_tellers  |           139264
 2017-02-10 18:14:18.938291+01 | 1486746858.93829 | pgbench_history  |         29196288
 2017-02-10 18:14:18.938291+01 | 1486746858.93829 | pgbench_branches |            16384

 2017-02-10 18:14:20.016168+01 | 1486746860.01617 | pgbench_accounts |       4133101568
 2017-02-10 18:14:20.016168+01 | 1486746860.01617 | pgbench_tellers  |           139264
 2017-02-10 18:14:20.016168+01 | 1486746860.01617 | pgbench_history  |         30834688
 2017-02-10 18:14:20.016168+01 | 1486746860.01617 | pgbench_branches |            16384

 2017-02-10 18:14:21.097745+01 | 1486746861.09774 | pgbench_accounts |       4133101568
 2017-02-10 18:14:21.097745+01 | 1486746861.09774 | pgbench_tellers  |           139264
 2017-02-10 18:14:21.097745+01 | 1486746861.09774 | pgbench_history  |         31219712
 2017-02-10 18:14:21.097745+01 | 1486746861.09774 | pgbench_branches |            16384

 2017-02-10 18:14:22.168641+01 | 1486746862.16864 | pgbench_accounts |       4133101568
 2017-02-10 18:14:22.168641+01 | 1486746862.16864 | pgbench_tellers  |           139264
 2017-02-10 18:14:22.168641+01 | 1486746862.16864 | pgbench_history  |         32104448
 2017-02-10 18:14:22.168641+01 | 1486746862.16864 | pgbench_branches |            16384

 2017-02-10 18:14:23.238458+01 | 1486746863.23846 | pgbench_accounts |       4133101568
 2017-02-10 18:14:23.238458+01 | 1486746863.23846 | pgbench_tellers  |           139264
 2017-02-10 18:14:23.238458+01 | 1486746863.23846 | pgbench_history  |         33112064
 2017-02-10 18:14:23.238458+01 | 1486746863.23846 | pgbench_branches |            16384

 2017-02-10 18:14:24.311614+01 | 1486746864.31161 | pgbench_accounts |       4133101568
 2017-02-10 18:14:24.311614+01 | 1486746864.31161 | pgbench_tellers  |           139264
 2017-02-10 18:14:24.311614+01 | 1486746864.31161 | pgbench_history  |         34119680
 2017-02-10 18:14:24.311614+01 | 1486746864.31161 | pgbench_branches |            16384

 2017-02-10 18:14:25.390689+01 | 1486746865.39069 | pgbench_accounts |       4133101568
 2017-02-10 18:14:25.390689+01 | 1486746865.39069 | pgbench_tellers  |           139264
 2017-02-10 18:14:25.390689+01 | 1486746865.39069 | pgbench_history  |         35102720
 2017-02-10 18:14:25.390689+01 | 1486746865.39069 | pgbench_branches |            16384

 2017-02-10 18:14:26.472404+01 | 1486746866.4724 | pgbench_accounts |       4133101568
 2017-02-10 18:14:26.472404+01 | 1486746866.4724 | pgbench_tellers  |           139264
 2017-02-10 18:14:26.472404+01 | 1486746866.4724 | pgbench_history  |         36036608
 2017-02-10 18:14:26.472404+01 | 1486746866.4724 | pgbench_branches |            16384

 2017-02-10 18:14:27.557993+01 | 1486746867.55799 | pgbench_accounts |       4133101568
 2017-02-10 18:14:27.557993+01 | 1486746867.55799 | pgbench_tellers  |           139264
 2017-02-10 18:14:27.557993+01 | 1486746867.55799 | pgbench_history  |         37658624
 2017-02-10 18:14:27.557993+01 | 1486746867.55799 | pgbench_branches |            16384

 2017-02-10 18:14:28.640644+01 | 1486746868.64064 | pgbench_accounts |       4133101568
 2017-02-10 18:14:28.640644+01 | 1486746868.64064 | pgbench_tellers  |           139264
 2017-02-10 18:14:28.640644+01 | 1486746868.64064 | pgbench_history  |         38854656
 2017-02-10 18:14:28.640644+01 | 1486746868.64064 | pgbench_branches |            16384

 2017-02-10 18:14:29.718494+01 | 1486746869.71849 | pgbench_accounts |       4133101568
 2017-02-10 18:14:29.718494+01 | 1486746869.71849 | pgbench_tellers  |           139264
 2017-02-10 18:14:29.718494+01 | 1486746869.71849 | pgbench_history  |         39092224
 2017-02-10 18:14:29.718494+01 | 1486746869.71849 | pgbench_branches |            16384

 2017-02-10 18:14:30.805187+01 | 1486746870.80519 | pgbench_accounts |       4133101568
 2017-02-10 18:14:30.805187+01 | 1486746870.80519 | pgbench_tellers  |           139264
 2017-02-10 18:14:30.805187+01 | 1486746870.80519 | pgbench_history  |         40099840
 2017-02-10 18:14:30.805187+01 | 1486746870.80519 | pgbench_branches |            16384

 2017-02-10 18:14:31.888341+01 | 1486746871.88834 | pgbench_accounts |       4133101568
 2017-02-10 18:14:31.888341+01 | 1486746871.88834 | pgbench_tellers  |           139264
 2017-02-10 18:14:31.888341+01 | 1486746871.88834 | pgbench_history  |         41009152
 2017-02-10 18:14:31.888341+01 | 1486746871.88834 | pgbench_branches |            16384

 2017-02-10 18:14:32.942763+01 | 1486746872.94276 | pgbench_accounts |       4133101568
 2017-02-10 18:14:32.942763+01 | 1486746872.94276 | pgbench_tellers  |           139264
 2017-02-10 18:14:32.942763+01 | 1486746872.94276 | pgbench_history  |         41943040
 2017-02-10 18:14:32.942763+01 | 1486746872.94276 | pgbench_branches |            16384

 2017-02-10 18:14:34.015765+01 | 1486746874.01576 | pgbench_accounts |       4133101568
 2017-02-10 18:14:34.015765+01 | 1486746874.01576 | pgbench_tellers  |           139264
 2017-02-10 18:14:34.015765+01 | 1486746874.01576 | pgbench_history  |         43130880
 2017-02-10 18:14:34.015765+01 | 1486746874.01576 | pgbench_branches |            16384

 2017-02-10 18:14:35.104489+01 | 1486746875.10449 | pgbench_accounts |       4133101568
 2017-02-10 18:14:35.104489+01 | 1486746875.10449 | pgbench_tellers  |           139264
 2017-02-10 18:14:35.104489+01 | 1486746875.10449 | pgbench_history  |         43941888
 2017-02-10 18:14:35.104489+01 | 1486746875.10449 | pgbench_branches |            16384

 2017-02-10 18:14:36.20513+01 | 1486746876.20513 | pgbench_accounts |       4133101568
 2017-02-10 18:14:36.20513+01 | 1486746876.20513 | pgbench_tellers  |           139264
 2017-02-10 18:14:36.20513+01 | 1486746876.20513 | pgbench_history  |         44990464
 2017-02-10 18:14:36.20513+01 | 1486746876.20513 | pgbench_branches |            16384

 2017-02-10 18:14:37.270464+01 | 1486746877.27046 | pgbench_accounts |       4133101568
 2017-02-10 18:14:37.270464+01 | 1486746877.27046 | pgbench_tellers  |           139264
 2017-02-10 18:14:37.270464+01 | 1486746877.27046 | pgbench_history  |         45940736
 2017-02-10 18:14:37.270464+01 | 1486746877.27046 | pgbench_branches |            16384

 2017-02-10 18:14:38.354677+01 | 1486746878.35468 | pgbench_accounts |       4133101568
 2017-02-10 18:14:38.354677+01 | 1486746878.35468 | pgbench_tellers  |           139264
 2017-02-10 18:14:38.354677+01 | 1486746878.35468 | pgbench_history  |         46989312
 2017-02-10 18:14:38.354677+01 | 1486746878.35468 | pgbench_branches |            16384

 2017-02-10 18:14:39.431785+01 | 1486746879.43179 | pgbench_accounts |       4133101568
 2017-02-10 18:14:39.431785+01 | 1486746879.43179 | pgbench_tellers  |           139264
 2017-02-10 18:14:39.431785+01 | 1486746879.43179 | pgbench_history  |         47939584
 2017-02-10 18:14:39.431785+01 | 1486746879.43179 | pgbench_branches |            16384

 2017-02-10 18:14:40.501304+01 | 1486746880.5013 | pgbench_accounts |       4133101568
 2017-02-10 18:14:40.501304+01 | 1486746880.5013 | pgbench_tellers  |           139264
 2017-02-10 18:14:40.501304+01 | 1486746880.5013 | pgbench_history  |         48930816
 2017-02-10 18:14:40.501304+01 | 1486746880.5013 | pgbench_branches |            16384

 2017-02-10 18:14:41.564144+01 | 1486746881.56414 | pgbench_accounts |       4133101568
 2017-02-10 18:14:41.564144+01 | 1486746881.56414 | pgbench_tellers  |           139264
 2017-02-10 18:14:41.564144+01 | 1486746881.56414 | pgbench_history  |         49946624
 2017-02-10 18:14:41.564144+01 | 1486746881.56414 | pgbench_branches |            16384

 2017-02-10 18:14:42.64029+01 | 1486746882.64029 | pgbench_accounts |       4133101568
 2017-02-10 18:14:42.64029+01 | 1486746882.64029 | pgbench_tellers  |           139264
 2017-02-10 18:14:42.64029+01 | 1486746882.64029 | pgbench_history  |         51003392
 2017-02-10 18:14:42.64029+01 | 1486746882.64029 | pgbench_branches |            16384

 2017-02-10 18:14:43.724478+01 | 1486746883.72448 | pgbench_accounts |       4133101568
 2017-02-10 18:14:43.724478+01 | 1486746883.72448 | pgbench_tellers  |           139264
 2017-02-10 18:14:43.724478+01 | 1486746883.72448 | pgbench_history  |         52183040
 2017-02-10 18:14:43.724478+01 | 1486746883.72448 | pgbench_branches |            16384

 2017-02-10 18:14:44.803377+01 | 1486746884.80338 | pgbench_accounts |       4133101568
 2017-02-10 18:14:44.803377+01 | 1486746884.80338 | pgbench_tellers  |           139264
 2017-02-10 18:14:44.803377+01 | 1486746884.80338 | pgbench_history  |         52912128
 2017-02-10 18:14:44.803377+01 | 1486746884.80338 | pgbench_branches |            16384

 2017-02-10 18:14:45.908921+01 | 1486746885.90892 | pgbench_accounts |       4133101568
 2017-02-10 18:14:45.908921+01 | 1486746885.90892 | pgbench_tellers  |           139264
 2017-02-10 18:14:45.908921+01 | 1486746885.90892 | pgbench_history  |         53993472
 2017-02-10 18:14:45.908921+01 | 1486746885.90892 | pgbench_branches |            16384

 2017-02-10 18:14:47.002598+01 | 1486746887.0026 | pgbench_accounts |       4133101568
 2017-02-10 18:14:47.002598+01 | 1486746887.0026 | pgbench_tellers  |           139264
 2017-02-10 18:14:47.002598+01 | 1486746887.0026 | pgbench_history  |         54845440
 2017-02-10 18:14:47.002598+01 | 1486746887.0026 | pgbench_branches |            16384

 2017-02-10 18:14:48.095834+01 | 1486746888.09583 | pgbench_accounts |       4133101568
 2017-02-10 18:14:48.095834+01 | 1486746888.09583 | pgbench_tellers  |           139264
 2017-02-10 18:14:48.095834+01 | 1486746888.09583 | pgbench_history  |         56147968
 2017-02-10 18:14:48.095834+01 | 1486746888.09583 | pgbench_branches |            16384

 2017-02-10 18:14:49.176303+01 | 1486746889.1763 | pgbench_accounts |       4133101568
 2017-02-10 18:14:49.176303+01 | 1486746889.1763 | pgbench_tellers  |           139264
 2017-02-10 18:14:49.176303+01 | 1486746889.1763 | pgbench_history  |         56918016
 2017-02-10 18:14:49.176303+01 | 1486746889.1763 | pgbench_branches |            16384

 2017-02-10 18:14:50.257778+01 | 1486746890.25778 | pgbench_accounts |       4133101568
 2017-02-10 18:14:50.257778+01 | 1486746890.25778 | pgbench_tellers  |           139264
 2017-02-10 18:14:50.257778+01 | 1486746890.25778 | pgbench_history  |         57892864
 2017-02-10 18:14:50.257778+01 | 1486746890.25778 | pgbench_branches |            16384

 2017-02-10 18:14:51.341823+01 | 1486746891.34182 | pgbench_accounts |       4133101568
 2017-02-10 18:14:51.341823+01 | 1486746891.34182 | pgbench_tellers  |           139264
 2017-02-10 18:14:51.341823+01 | 1486746891.34182 | pgbench_history  |         58916864
 2017-02-10 18:14:51.341823+01 | 1486746891.34182 | pgbench_branches |            16384

 2017-02-10 18:14:52.431205+01 | 1486746892.43121 | pgbench_accounts |       4133101568
 2017-02-10 18:14:52.431205+01 | 1486746892.43121 | pgbench_tellers  |           139264
 2017-02-10 18:14:52.431205+01 | 1486746892.43121 | pgbench_history  |         59858944
 2017-02-10 18:14:52.431205+01 | 1486746892.43121 | pgbench_branches |            16384

 2017-02-10 18:14:53.515907+01 | 1486746893.51591 | pgbench_accounts |       4133101568
 2017-02-10 18:14:53.515907+01 | 1486746893.51591 | pgbench_tellers  |           139264
 2017-02-10 18:14:53.515907+01 | 1486746893.51591 | pgbench_history  |         60915712
 2017-02-10 18:14:53.515907+01 | 1486746893.51591 | pgbench_branches |            16384

 2017-02-10 18:14:54.604215+01 | 1486746894.60421 | pgbench_accounts |       4133101568
 2017-02-10 18:14:54.604215+01 | 1486746894.60421 | pgbench_tellers  |           139264
 2017-02-10 18:14:54.604215+01 | 1486746894.60421 | pgbench_history  |         61898752
 2017-02-10 18:14:54.604215+01 | 1486746894.60421 | pgbench_branches |            16384

 2017-02-10 18:14:55.683875+01 | 1486746895.68388 | pgbench_accounts |       4133101568
 2017-02-10 18:14:55.683875+01 | 1486746895.68388 | pgbench_tellers  |           139264
 2017-02-10 18:14:55.683875+01 | 1486746895.68388 | pgbench_history  |         62816256
 2017-02-10 18:14:55.683875+01 | 1486746895.68388 | pgbench_branches |            16384

 2017-02-10 18:14:56.765123+01 | 1486746896.76512 | pgbench_accounts |       4133101568
 2017-02-10 18:14:56.765123+01 | 1486746896.76512 | pgbench_tellers  |           139264
 2017-02-10 18:14:56.765123+01 | 1486746896.76512 | pgbench_history  |         63971328
 2017-02-10 18:14:56.765123+01 | 1486746896.76512 | pgbench_branches |            16384

 2017-02-10 18:14:57.844869+01 | 1486746897.84487 | pgbench_accounts |       4133101568
 2017-02-10 18:14:57.844869+01 | 1486746897.84487 | pgbench_tellers  |           139264
 2017-02-10 18:14:57.844869+01 | 1486746897.84487 | pgbench_history  |         65011712
 2017-02-10 18:14:57.844869+01 | 1486746897.84487 | pgbench_branches |            16384

 2017-02-10 18:14:58.928554+01 | 1486746898.92855 | pgbench_accounts |       4133101568
 2017-02-10 18:14:58.928554+01 | 1486746898.92855 | pgbench_tellers  |           139264
 2017-02-10 18:14:58.928554+01 | 1486746898.92855 | pgbench_history  |         65929216
 2017-02-10 18:14:58.928554+01 | 1486746898.92855 | pgbench_branches |            16384

 2017-02-10 18:15:00.005661+01 | 1486746900.00566 | pgbench_accounts |       4133101568
 2017-02-10 18:15:00.005661+01 | 1486746900.00566 | pgbench_tellers  |           139264
 2017-02-10 18:15:00.005661+01 | 1486746900.00566 | pgbench_history  |         67026944
 2017-02-10 18:15:00.005661+01 | 1486746900.00566 | pgbench_branches |            16384

 2017-02-10 18:15:01.118878+01 | 1486746901.11888 | pgbench_accounts |       4133101568
 2017-02-10 18:15:01.118878+01 | 1486746901.11888 | pgbench_tellers  |           139264
 2017-02-10 18:15:01.118878+01 | 1486746901.11888 | pgbench_history  |         67928064
 2017-02-10 18:15:01.118878+01 | 1486746901.11888 | pgbench_branches |            16384

 2017-02-10 18:15:02.207447+01 | 1486746902.20745 | pgbench_accounts |       4133101568
 2017-02-10 18:15:02.207447+01 | 1486746902.20745 | pgbench_tellers  |           139264
 2017-02-10 18:15:02.207447+01 | 1486746902.20745 | pgbench_history  |         68878336
 2017-02-10 18:15:02.207447+01 | 1486746902.20745 | pgbench_branches |            16384

 2017-02-10 18:15:03.313319+01 | 1486746903.31332 | pgbench_accounts |       4133101568
 2017-02-10 18:15:03.313319+01 | 1486746903.31332 | pgbench_tellers  |           139264
 2017-02-10 18:15:03.313319+01 | 1486746903.31332 | pgbench_history  |         69976064
 2017-02-10 18:15:03.313319+01 | 1486746903.31332 | pgbench_branches |            16384

 2017-02-10 18:15:04.386403+01 | 1486746904.3864 | pgbench_accounts |       4133101568
 2017-02-10 18:15:04.386403+01 | 1486746904.3864 | pgbench_tellers  |           139264
 2017-02-10 18:15:04.386403+01 | 1486746904.3864 | pgbench_history  |         70893568
 2017-02-10 18:15:04.386403+01 | 1486746904.3864 | pgbench_branches |            16384

 2017-02-10 18:15:05.45444+01 | 1486746905.45444 | pgbench_accounts |       4133101568
 2017-02-10 18:15:05.45444+01 | 1486746905.45444 | pgbench_tellers  |           139264
 2017-02-10 18:15:05.45444+01 | 1486746905.45444 | pgbench_history  |         71860224
 2017-02-10 18:15:05.45444+01 | 1486746905.45444 | pgbench_branches |            16384

 2017-02-10 18:15:06.531903+01 | 1486746906.5319 | pgbench_accounts |       4133101568
 2017-02-10 18:15:06.531903+01 | 1486746906.5319 | pgbench_tellers  |           139264
 2017-02-10 18:15:06.531903+01 | 1486746906.5319 | pgbench_history  |         72876032
 2017-02-10 18:15:06.531903+01 | 1486746906.5319 | pgbench_branches |            16384

 2017-02-10 18:15:07.613532+01 | 1486746907.61353 | pgbench_accounts |       4133101568
 2017-02-10 18:15:07.613532+01 | 1486746907.61353 | pgbench_tellers  |           139264
 2017-02-10 18:15:07.613532+01 | 1486746907.61353 | pgbench_history  |         73834496
 2017-02-10 18:15:07.613532+01 | 1486746907.61353 | pgbench_branches |            16384

 2017-02-10 18:15:08.695312+01 | 1486746908.69531 | pgbench_accounts |       4133101568
 2017-02-10 18:15:08.695312+01 | 1486746908.69531 | pgbench_tellers  |           139264
 2017-02-10 18:15:08.695312+01 | 1486746908.69531 | pgbench_history  |         74801152
 2017-02-10 18:15:08.695312+01 | 1486746908.69531 | pgbench_branches |            16384

 2017-02-10 18:15:09.758827+01 | 1486746909.75883 | pgbench_accounts |       4133101568
 2017-02-10 18:15:09.758827+01 | 1486746909.75883 | pgbench_tellers  |           139264
 2017-02-10 18:15:09.758827+01 | 1486746909.75883 | pgbench_history  |         75808768
 2017-02-10 18:15:09.758827+01 | 1486746909.75883 | pgbench_branches |            16384

 2017-02-10 18:15:10.87072+01 | 1486746910.87072 | pgbench_accounts |       4133101568
 2017-02-10 18:15:10.87072+01 | 1486746910.87072 | pgbench_tellers  |           139264
 2017-02-10 18:15:10.87072+01 | 1486746910.87072 | pgbench_history  |         76881920
 2017-02-10 18:15:10.87072+01 | 1486746910.87072 | pgbench_branches |            16384

 2017-02-10 18:15:11.954912+01 | 1486746911.95491 | pgbench_accounts |       4133101568
 2017-02-10 18:15:11.954912+01 | 1486746911.95491 | pgbench_tellers  |           139264
 2017-02-10 18:15:11.954912+01 | 1486746911.95491 | pgbench_history  |         77774848
 2017-02-10 18:15:11.954912+01 | 1486746911.95491 | pgbench_branches |            16384

 2017-02-10 18:15:13.03288+01 | 1486746913.03288 | pgbench_accounts |       4133101568
 2017-02-10 18:15:13.03288+01 | 1486746913.03288 | pgbench_tellers  |           139264
 2017-02-10 18:15:13.03288+01 | 1486746913.03288 | pgbench_history  |         79331328
 2017-02-10 18:15:13.03288+01 | 1486746913.03288 | pgbench_branches |            16384

 2017-02-10 18:15:14.120522+01 | 1486746914.12052 | pgbench_accounts |       4133101568
 2017-02-10 18:15:14.120522+01 | 1486746914.12052 | pgbench_tellers  |           139264
 2017-02-10 18:15:14.120522+01 | 1486746914.12052 | pgbench_history  |         79855616
 2017-02-10 18:15:14.120522+01 | 1486746914.12052 | pgbench_branches |            16384

 2017-02-10 18:15:15.195666+01 | 1486746915.19567 | pgbench_accounts |       4133101568
 2017-02-10 18:15:15.195666+01 | 1486746915.19567 | pgbench_tellers  |           139264
 2017-02-10 18:15:15.195666+01 | 1486746915.19567 | pgbench_history  |         82321408
 2017-02-10 18:15:15.195666+01 | 1486746915.19567 | pgbench_branches |            16384

 2017-02-10 18:15:16.287294+01 | 1486746916.28729 | pgbench_accounts |       4133101568
 2017-02-10 18:15:16.287294+01 | 1486746916.28729 | pgbench_tellers  |           139264
 2017-02-10 18:15:16.287294+01 | 1486746916.28729 | pgbench_history  |         82321408
 2017-02-10 18:15:16.287294+01 | 1486746916.28729 | pgbench_branches |            16384

 2017-02-10 18:15:17.372896+01 | 1486746917.3729 | pgbench_accounts |       4133101568
 2017-02-10 18:15:17.372896+01 | 1486746917.3729 | pgbench_tellers  |           139264
 2017-02-10 18:15:17.372896+01 | 1486746917.3729 | pgbench_history  |         82853888
 2017-02-10 18:15:17.372896+01 | 1486746917.3729 | pgbench_branches |            16384

 2017-02-10 18:15:18.449924+01 | 1486746918.44992 | pgbench_accounts |       4133101568
 2017-02-10 18:15:18.449924+01 | 1486746918.44992 | pgbench_tellers  |           139264
 2017-02-10 18:15:18.449924+01 | 1486746918.44992 | pgbench_history  |         83714048
 2017-02-10 18:15:18.449924+01 | 1486746918.44992 | pgbench_branches |            16384

 2017-02-10 18:15:19.525592+01 | 1486746919.52559 | pgbench_accounts |       4133101568
 2017-02-10 18:15:19.525592+01 | 1486746919.52559 | pgbench_tellers  |           139264
 2017-02-10 18:15:19.525592+01 | 1486746919.52559 | pgbench_history  |         84779008
 2017-02-10 18:15:19.525592+01 | 1486746919.52559 | pgbench_branches |            16384

 2017-02-10 18:15:20.608396+01 | 1486746920.6084 | pgbench_accounts |       4133101568
 2017-02-10 18:15:20.608396+01 | 1486746920.6084 | pgbench_tellers  |           139264
 2017-02-10 18:15:20.608396+01 | 1486746920.6084 | pgbench_history  |         85778432
 2017-02-10 18:15:20.608396+01 | 1486746920.6084 | pgbench_branches |            16384

 2017-02-10 18:15:21.695992+01 | 1486746921.69599 | pgbench_accounts |       4133101568
 2017-02-10 18:15:21.695992+01 | 1486746921.69599 | pgbench_tellers  |           139264
 2017-02-10 18:15:21.695992+01 | 1486746921.69599 | pgbench_history  |         88203264
 2017-02-10 18:15:21.695992+01 | 1486746921.69599 | pgbench_branches |            16384

 2017-02-10 18:15:22.78023+01 | 1486746922.78023 | pgbench_accounts |       4133101568
 2017-02-10 18:15:22.78023+01 | 1486746922.78023 | pgbench_tellers  |           139264
 2017-02-10 18:15:22.78023+01 | 1486746922.78023 | pgbench_history  |         88203264
 2017-02-10 18:15:22.78023+01 | 1486746922.78023 | pgbench_branches |            16384

 2017-02-10 18:15:23.861722+01 | 1486746923.86172 | pgbench_accounts |       4133101568
 2017-02-10 18:15:23.861722+01 | 1486746923.86172 | pgbench_tellers  |           139264
 2017-02-10 18:15:23.861722+01 | 1486746923.86172 | pgbench_history  |         88784896
 2017-02-10 18:15:23.861722+01 | 1486746923.86172 | pgbench_branches |            16384

 2017-02-10 18:15:24.948898+01 | 1486746924.9489 | pgbench_accounts |       4133101568
 2017-02-10 18:15:24.948898+01 | 1486746924.9489 | pgbench_tellers  |           139264
 2017-02-10 18:15:24.948898+01 | 1486746924.9489 | pgbench_history  |         89726976
 2017-02-10 18:15:24.948898+01 | 1486746924.9489 | pgbench_branches |            16384

 2017-02-10 18:15:26.047989+01 | 1486746926.04799 | pgbench_accounts |       4133101568
 2017-02-10 18:15:26.047989+01 | 1486746926.04799 | pgbench_tellers  |           139264
 2017-02-10 18:15:26.047989+01 | 1486746926.04799 | pgbench_history  |         90906624
 2017-02-10 18:15:26.047989+01 | 1486746926.04799 | pgbench_branches |            16384

 2017-02-10 18:15:27.132472+01 | 1486746927.13247 | pgbench_accounts |       4133101568
 2017-02-10 18:15:27.132472+01 | 1486746927.13247 | pgbench_tellers  |           139264
 2017-02-10 18:15:27.132472+01 | 1486746927.13247 | pgbench_history  |         92012544
 2017-02-10 18:15:27.132472+01 | 1486746927.13247 | pgbench_branches |            16384

 2017-02-10 18:15:28.220886+01 | 1486746928.22089 | pgbench_accounts |       4133101568
 2017-02-10 18:15:28.220886+01 | 1486746928.22089 | pgbench_tellers  |           139264
 2017-02-10 18:15:28.220886+01 | 1486746928.22089 | pgbench_history  |         92577792
 2017-02-10 18:15:28.220886+01 | 1486746928.22089 | pgbench_branches |            16384

 2017-02-10 18:15:29.307795+01 | 1486746929.3078 | pgbench_accounts |       4133101568
 2017-02-10 18:15:29.307795+01 | 1486746929.3078 | pgbench_tellers  |           139264
 2017-02-10 18:15:29.307795+01 | 1486746929.3078 | pgbench_history  |         93732864
 2017-02-10 18:15:29.307795+01 | 1486746929.3078 | pgbench_branches |            16384

 2017-02-10 18:15:30.389451+01 | 1486746930.38945 | pgbench_accounts |       4133101568
 2017-02-10 18:15:30.389451+01 | 1486746930.38945 | pgbench_tellers  |           139264
 2017-02-10 18:15:30.389451+01 | 1486746930.38945 | pgbench_history  |         94552064
 2017-02-10 18:15:30.389451+01 | 1486746930.38945 | pgbench_branches |            16384

 2017-02-10 18:15:31.463251+01 | 1486746931.46325 | pgbench_accounts |       4133101568
 2017-02-10 18:15:31.463251+01 | 1486746931.46325 | pgbench_tellers  |           139264
 2017-02-10 18:15:31.463251+01 | 1486746931.46325 | pgbench_history  |         95592448
 2017-02-10 18:15:31.463251+01 | 1486746931.46325 | pgbench_branches |            16384

 2017-02-10 18:15:32.546429+01 | 1486746932.54643 | pgbench_accounts |       4133101568
 2017-02-10 18:15:32.546429+01 | 1486746932.54643 | pgbench_tellers  |           139264
 2017-02-10 18:15:32.546429+01 | 1486746932.54643 | pgbench_history  |         97476608
 2017-02-10 18:15:32.546429+01 | 1486746932.54643 | pgbench_branches |            16384

 2017-02-10 18:15:33.631638+01 | 1486746933.63164 | pgbench_accounts |       4133101568
 2017-02-10 18:15:33.631638+01 | 1486746933.63164 | pgbench_tellers  |           139264
 2017-02-10 18:15:33.631638+01 | 1486746933.63164 | pgbench_history  |         97673216
 2017-02-10 18:15:33.631638+01 | 1486746933.63164 | pgbench_branches |            16384

 2017-02-10 18:15:34.73391+01 | 1486746934.73391 | pgbench_accounts |       4133101568
 2017-02-10 18:15:34.73391+01 | 1486746934.73391 | pgbench_tellers  |           139264
 2017-02-10 18:15:34.73391+01 | 1486746934.73391 | pgbench_history  |         98885632
 2017-02-10 18:15:34.73391+01 | 1486746934.73391 | pgbench_branches |            16384

 2017-02-10 18:15:35.843605+01 | 1486746935.84361 | pgbench_accounts |       4133101568
 2017-02-10 18:15:35.843605+01 | 1486746935.84361 | pgbench_tellers  |           139264
 2017-02-10 18:15:35.843605+01 | 1486746935.84361 | pgbench_history  |         99811328
 2017-02-10 18:15:35.843605+01 | 1486746935.84361 | pgbench_branches |            16384

 2017-02-10 18:15:36.926368+01 | 1486746936.92637 | pgbench_accounts |       4133101568
 2017-02-10 18:15:36.926368+01 | 1486746936.92637 | pgbench_tellers  |           139264
 2017-02-10 18:15:36.926368+01 | 1486746936.92637 | pgbench_history  |        100761600
 2017-02-10 18:15:36.926368+01 | 1486746936.92637 | pgbench_branches |            16384

 2017-02-10 18:15:38.009571+01 | 1486746938.00957 | pgbench_accounts |       4133101568
 2017-02-10 18:15:38.009571+01 | 1486746938.00957 | pgbench_tellers  |           139264
 2017-02-10 18:15:38.009571+01 | 1486746938.00957 | pgbench_history  |        101793792
 2017-02-10 18:15:38.009571+01 | 1486746938.00957 | pgbench_branches |            16384

 2017-02-10 18:15:39.101604+01 | 1486746939.1016 | pgbench_accounts |       4133101568
 2017-02-10 18:15:39.101604+01 | 1486746939.1016 | pgbench_tellers  |           139264
 2017-02-10 18:15:39.101604+01 | 1486746939.1016 | pgbench_history  |        102555648
 2017-02-10 18:15:39.101604+01 | 1486746939.1016 | pgbench_branches |            16384

 2017-02-10 18:15:40.180218+01 | 1486746940.18022 | pgbench_accounts |       4133101568
 2017-02-10 18:15:40.180218+01 | 1486746940.18022 | pgbench_tellers  |           139264
 2017-02-10 18:15:40.180218+01 | 1486746940.18022 | pgbench_history  |        103940096
 2017-02-10 18:15:40.180218+01 | 1486746940.18022 | pgbench_branches |            16384

 2017-02-10 18:15:41.293668+01 | 1486746941.29367 | pgbench_accounts |       4133101568
 2017-02-10 18:15:41.293668+01 | 1486746941.29367 | pgbench_tellers  |           139264
 2017-02-10 18:15:41.293668+01 | 1486746941.29367 | pgbench_history  |        104669184
 2017-02-10 18:15:41.293668+01 | 1486746941.29367 | pgbench_branches |            16384

 2017-02-10 18:15:42.383382+01 | 1486746942.38338 | pgbench_accounts |       4133101568
 2017-02-10 18:15:42.383382+01 | 1486746942.38338 | pgbench_tellers  |           139264
 2017-02-10 18:15:42.383382+01 | 1486746942.38338 | pgbench_history  |        105611264
 2017-02-10 18:15:42.383382+01 | 1486746942.38338 | pgbench_branches |            16384

 2017-02-10 18:15:43.456673+01 | 1486746943.45667 | pgbench_accounts |       4133101568
 2017-02-10 18:15:43.456673+01 | 1486746943.45667 | pgbench_tellers  |           139264
 2017-02-10 18:15:43.456673+01 | 1486746943.45667 | pgbench_history  |        106881024
 2017-02-10 18:15:43.456673+01 | 1486746943.45667 | pgbench_branches |            16384

 2017-02-10 18:15:44.522296+01 | 1486746944.5223 | pgbench_accounts |       4133101568
 2017-02-10 18:15:44.522296+01 | 1486746944.5223 | pgbench_tellers  |           139264
 2017-02-10 18:15:44.522296+01 | 1486746944.5223 | pgbench_history  |        107651072
 2017-02-10 18:15:44.522296+01 | 1486746944.5223 | pgbench_branches |            16384

 2017-02-10 18:15:45.604724+01 | 1486746945.60472 | pgbench_accounts |       4133101568
 2017-02-10 18:15:45.604724+01 | 1486746945.60472 | pgbench_tellers  |           139264
 2017-02-10 18:15:45.604724+01 | 1486746945.60472 | pgbench_history  |        108568576
 2017-02-10 18:15:45.604724+01 | 1486746945.60472 | pgbench_branches |            16384

 2017-02-10 18:15:46.681824+01 | 1486746946.68182 | pgbench_accounts |       4133101568
 2017-02-10 18:15:46.681824+01 | 1486746946.68182 | pgbench_tellers  |           139264
 2017-02-10 18:15:46.681824+01 | 1486746946.68182 | pgbench_history  |        111058944
 2017-02-10 18:15:46.681824+01 | 1486746946.68182 | pgbench_branches |            16384

 2017-02-10 18:15:47.749988+01 | 1486746947.74999 | pgbench_accounts |       4133101568
 2017-02-10 18:15:47.749988+01 | 1486746947.74999 | pgbench_tellers  |           139264
 2017-02-10 18:15:47.749988+01 | 1486746947.74999 | pgbench_history  |        111058944
 2017-02-10 18:15:47.749988+01 | 1486746947.74999 | pgbench_branches |            16384

 2017-02-10 18:15:48.835191+01 | 1486746948.83519 | pgbench_accounts |       4133101568
 2017-02-10 18:15:48.835191+01 | 1486746948.83519 | pgbench_tellers  |           139264
 2017-02-10 18:15:48.835191+01 | 1486746948.83519 | pgbench_history  |        111640576
 2017-02-10 18:15:48.835191+01 | 1486746948.83519 | pgbench_branches |            16384

 2017-02-10 18:15:49.918482+01 | 1486746949.91848 | pgbench_accounts |       4133101568
 2017-02-10 18:15:49.918482+01 | 1486746949.91848 | pgbench_tellers  |           139264
 2017-02-10 18:15:49.918482+01 | 1486746949.91848 | pgbench_history  |        112549888
 2017-02-10 18:15:49.918482+01 | 1486746949.91848 | pgbench_branches |            16384

 2017-02-10 18:15:51.007979+01 | 1486746951.00798 | pgbench_accounts |       4133101568
 2017-02-10 18:15:51.007979+01 | 1486746951.00798 | pgbench_tellers  |           139264
 2017-02-10 18:15:51.007979+01 | 1486746951.00798 | pgbench_history  |        114114560
 2017-02-10 18:15:51.007979+01 | 1486746951.00798 | pgbench_branches |            16384

 2017-02-10 18:15:52.106643+01 | 1486746952.10664 | pgbench_accounts |       4133101568
 2017-02-10 18:15:52.106643+01 | 1486746952.10664 | pgbench_tellers  |           139264
 2017-02-10 18:15:52.106643+01 | 1486746952.10664 | pgbench_history  |        114712576
 2017-02-10 18:15:52.106643+01 | 1486746952.10664 | pgbench_branches |            16384

 2017-02-10 18:15:53.191025+01 | 1486746953.19103 | pgbench_accounts |       4133101568
 2017-02-10 18:15:53.191025+01 | 1486746953.19103 | pgbench_tellers  |           139264
 2017-02-10 18:15:53.191025+01 | 1486746953.19103 | pgbench_history  |        115638272
 2017-02-10 18:15:53.191025+01 | 1486746953.19103 | pgbench_branches |            16384

 2017-02-10 18:15:54.286772+01 | 1486746954.28677 | pgbench_accounts |       4133101568
 2017-02-10 18:15:54.286772+01 | 1486746954.28677 | pgbench_tellers  |           139264
 2017-02-10 18:15:54.286772+01 | 1486746954.28677 | pgbench_history  |        116662272
 2017-02-10 18:15:54.286772+01 | 1486746954.28677 | pgbench_branches |            16384

 2017-02-10 18:15:55.381315+01 | 1486746955.38131 | pgbench_accounts |       4133101568
 2017-02-10 18:15:55.381315+01 | 1486746955.38131 | pgbench_tellers  |           139264
 2017-02-10 18:15:55.381315+01 | 1486746955.38131 | pgbench_history  |        117825536
 2017-02-10 18:15:55.381315+01 | 1486746955.38131 | pgbench_branches |            16384

 2017-02-10 18:15:56.448755+01 | 1486746956.44876 | pgbench_accounts |       4133101568
 2017-02-10 18:15:56.448755+01 | 1486746956.44876 | pgbench_tellers  |           139264
 2017-02-10 18:15:56.448755+01 | 1486746956.44876 | pgbench_history  |        118669312
 2017-02-10 18:15:56.448755+01 | 1486746956.44876 | pgbench_branches |            16384

 2017-02-10 18:15:57.526676+01 | 1486746957.52668 | pgbench_accounts |       4133101568
 2017-02-10 18:15:57.526676+01 | 1486746957.52668 | pgbench_tellers  |           139264
 2017-02-10 18:15:57.526676+01 | 1486746957.52668 | pgbench_history  |        120250368
 2017-02-10 18:15:57.526676+01 | 1486746957.52668 | pgbench_branches |            16384

 2017-02-10 18:15:58.600561+01 | 1486746958.60056 | pgbench_accounts |       4133101568
 2017-02-10 18:15:58.600561+01 | 1486746958.60056 | pgbench_tellers  |           139264
 2017-02-10 18:15:58.600561+01 | 1486746958.60056 | pgbench_history  |        120455168
 2017-02-10 18:15:58.600561+01 | 1486746958.60056 | pgbench_branches |            16384

 2017-02-10 18:15:59.679633+01 | 1486746959.67963 | pgbench_accounts |       4133101568
 2017-02-10 18:15:59.679633+01 | 1486746959.67963 | pgbench_tellers  |           139264
 2017-02-10 18:15:59.679633+01 | 1486746959.67963 | pgbench_history  |        121733120
 2017-02-10 18:15:59.679633+01 | 1486746959.67963 | pgbench_branches |            16384

 2017-02-10 18:16:00.769548+01 | 1486746960.76955 | pgbench_accounts |       4133101568
 2017-02-10 18:16:00.769548+01 | 1486746960.76955 | pgbench_tellers  |           139264
 2017-02-10 18:16:00.769548+01 | 1486746960.76955 | pgbench_history  |        122732544
 2017-02-10 18:16:00.769548+01 | 1486746960.76955 | pgbench_branches |            16384

 2017-02-10 18:16:01.86327+01 | 1486746961.86327 | pgbench_accounts |       4133101568
 2017-02-10 18:16:01.86327+01 | 1486746961.86327 | pgbench_tellers  |           139264
 2017-02-10 18:16:01.86327+01 | 1486746961.86327 | pgbench_history  |        123789312
 2017-02-10 18:16:01.86327+01 | 1486746961.86327 | pgbench_branches |            16384

 2017-02-10 18:16:02.973592+01 | 1486746962.97359 | pgbench_accounts |       4133101568
 2017-02-10 18:16:02.973592+01 | 1486746962.97359 | pgbench_tellers  |           139264
 2017-02-10 18:16:02.973592+01 | 1486746962.97359 | pgbench_history  |        124567552
 2017-02-10 18:16:02.973592+01 | 1486746962.97359 | pgbench_branches |            16384

 2017-02-10 18:16:04.054343+01 | 1486746964.05434 | pgbench_accounts |       4133101568
 2017-02-10 18:16:04.054343+01 | 1486746964.05434 | pgbench_tellers  |           139264
 2017-02-10 18:16:04.054343+01 | 1486746964.05434 | pgbench_history  |        125550592
 2017-02-10 18:16:04.054343+01 | 1486746964.05434 | pgbench_branches |            16384

 2017-02-10 18:16:05.132653+01 | 1486746965.13265 | pgbench_accounts |       4133101568
 2017-02-10 18:16:05.132653+01 | 1486746965.13265 | pgbench_tellers  |           139264
 2017-02-10 18:16:05.132653+01 | 1486746965.13265 | pgbench_history  |        126468096
 2017-02-10 18:16:05.132653+01 | 1486746965.13265 | pgbench_branches |            16384

 2017-02-10 18:16:06.224811+01 | 1486746966.22481 | pgbench_accounts |       4133101568
 2017-02-10 18:16:06.224811+01 | 1486746966.22481 | pgbench_tellers  |           139264
 2017-02-10 18:16:06.224811+01 | 1486746966.22481 | pgbench_history  |        127762432
 2017-02-10 18:16:06.224811+01 | 1486746966.22481 | pgbench_branches |            16384

 2017-02-10 18:16:07.305667+01 | 1486746967.30567 | pgbench_accounts |       4133101568
 2017-02-10 18:16:07.305667+01 | 1486746967.30567 | pgbench_tellers  |           139264
 2017-02-10 18:16:07.305667+01 | 1486746967.30567 | pgbench_history  |        128499712
 2017-02-10 18:16:07.305667+01 | 1486746967.30567 | pgbench_branches |            16384

 2017-02-10 18:16:08.381081+01 | 1486746968.38108 | pgbench_accounts |       4133101568
 2017-02-10 18:16:08.381081+01 | 1486746968.38108 | pgbench_tellers  |           139264
 2017-02-10 18:16:08.381081+01 | 1486746968.38108 | pgbench_history  |        129630208
 2017-02-10 18:16:08.381081+01 | 1486746968.38108 | pgbench_branches |            16384

 2017-02-10 18:16:09.469936+01 | 1486746969.46994 | pgbench_accounts |       4133101568
 2017-02-10 18:16:09.469936+01 | 1486746969.46994 | pgbench_tellers  |           139264
 2017-02-10 18:16:09.469936+01 | 1486746969.46994 | pgbench_history  |        130752512
 2017-02-10 18:16:09.469936+01 | 1486746969.46994 | pgbench_branches |            16384

 2017-02-10 18:16:10.534785+01 | 1486746970.53479 | pgbench_accounts |       4133101568
 2017-02-10 18:16:10.534785+01 | 1486746970.53479 | pgbench_tellers  |           139264
 2017-02-10 18:16:10.534785+01 | 1486746970.53479 | pgbench_history  |        131489792
 2017-02-10 18:16:10.534785+01 | 1486746970.53479 | pgbench_branches |            16384

 2017-02-10 18:16:11.618242+01 | 1486746971.61824 | pgbench_accounts |       4133101568
 2017-02-10 18:16:11.618242+01 | 1486746971.61824 | pgbench_tellers  |           139264
 2017-02-10 18:16:11.618242+01 | 1486746971.61824 | pgbench_history  |        132947968
 2017-02-10 18:16:11.618242+01 | 1486746971.61824 | pgbench_branches |            16384

 2017-02-10 18:16:12.711321+01 | 1486746972.71132 | pgbench_accounts |       4133101568
 2017-02-10 18:16:12.711321+01 | 1486746972.71132 | pgbench_tellers  |           139264
 2017-02-10 18:16:12.711321+01 | 1486746972.71132 | pgbench_history  |        133554176
 2017-02-10 18:16:12.711321+01 | 1486746972.71132 | pgbench_branches |            16384

 2017-02-10 18:16:13.784618+01 | 1486746973.78462 | pgbench_accounts |       4133101568
 2017-02-10 18:16:13.784618+01 | 1486746973.78462 | pgbench_tellers  |           139264
 2017-02-10 18:16:13.784618+01 | 1486746973.78462 | pgbench_history  |        134627328
 2017-02-10 18:16:13.784618+01 | 1486746973.78462 | pgbench_branches |            16384

 2017-02-10 18:16:14.87472+01 | 1486746974.87472 | pgbench_accounts |       4133101568
 2017-02-10 18:16:14.87472+01 | 1486746974.87472 | pgbench_tellers  |           139264
 2017-02-10 18:16:14.87472+01 | 1486746974.87472 | pgbench_history  |        135413760
 2017-02-10 18:16:14.87472+01 | 1486746974.87472 | pgbench_branches |            16384

 2017-02-10 18:16:15.960491+01 | 1486746975.96049 | pgbench_accounts |       4133101568
 2017-02-10 18:16:15.960491+01 | 1486746975.96049 | pgbench_tellers  |           139264
 2017-02-10 18:16:15.960491+01 | 1486746975.96049 | pgbench_history  |        136437760
 2017-02-10 18:16:15.960491+01 | 1486746975.96049 | pgbench_branches |            16384

 2017-02-10 18:16:17.044869+01 | 1486746977.04487 | pgbench_accounts |       4133101568
 2017-02-10 18:16:17.044869+01 | 1486746977.04487 | pgbench_tellers  |           139264
 2017-02-10 18:16:17.044869+01 | 1486746977.04487 | pgbench_history  |        138592256
 2017-02-10 18:16:17.044869+01 | 1486746977.04487 | pgbench_branches |            16384

 2017-02-10 18:16:18.136737+01 | 1486746978.13674 | pgbench_accounts |       4133101568
 2017-02-10 18:16:18.136737+01 | 1486746978.13674 | pgbench_tellers  |           139264
 2017-02-10 18:16:18.136737+01 | 1486746978.13674 | pgbench_history  |        138592256
 2017-02-10 18:16:18.136737+01 | 1486746978.13674 | pgbench_branches |            16384

 2017-02-10 18:16:19.241834+01 | 1486746979.24183 | pgbench_accounts |       4133101568
 2017-02-10 18:16:19.241834+01 | 1486746979.24183 | pgbench_tellers  |           139264
 2017-02-10 18:16:19.241834+01 | 1486746979.24183 | pgbench_history  |        139395072
 2017-02-10 18:16:19.241834+01 | 1486746979.24183 | pgbench_branches |            16384

 2017-02-10 18:16:20.331612+01 | 1486746980.33161 | pgbench_accounts |       4133101568
 2017-02-10 18:16:20.331612+01 | 1486746980.33161 | pgbench_tellers  |           139264
 2017-02-10 18:16:20.331612+01 | 1486746980.33161 | pgbench_history  |        140427264
 2017-02-10 18:16:20.331612+01 | 1486746980.33161 | pgbench_branches |            16384

 2017-02-10 18:16:21.406135+01 | 1486746981.40614 | pgbench_accounts |       4133101568
 2017-02-10 18:16:21.406135+01 | 1486746981.40614 | pgbench_tellers  |           139264
 2017-02-10 18:16:21.406135+01 | 1486746981.40614 | pgbench_history  |        141393920
 2017-02-10 18:16:21.406135+01 | 1486746981.40614 | pgbench_branches |            16384

 2017-02-10 18:16:22.488367+01 | 1486746982.48837 | pgbench_accounts |       4133101568
 2017-02-10 18:16:22.488367+01 | 1486746982.48837 | pgbench_tellers  |           139264
 2017-02-10 18:16:22.488367+01 | 1486746982.48837 | pgbench_history  |        142499840
 2017-02-10 18:16:22.488367+01 | 1486746982.48837 | pgbench_branches |            16384

 2017-02-10 18:16:23.567043+01 | 1486746983.56704 | pgbench_accounts |       4133101568
 2017-02-10 18:16:23.567043+01 | 1486746983.56704 | pgbench_tellers  |           139264
 2017-02-10 18:16:23.567043+01 | 1486746983.56704 | pgbench_history  |        143261696
 2017-02-10 18:16:23.567043+01 | 1486746983.56704 | pgbench_branches |            16384

 2017-02-10 18:16:24.66047+01 | 1486746984.66047 | pgbench_accounts |       4133101568
 2017-02-10 18:16:24.66047+01 | 1486746984.66047 | pgbench_tellers  |           139264
 2017-02-10 18:16:24.66047+01 | 1486746984.66047 | pgbench_history  |        144711680
 2017-02-10 18:16:24.66047+01 | 1486746984.66047 | pgbench_branches |            16384

 2017-02-10 18:16:25.748335+01 | 1486746985.74833 | pgbench_accounts |       4133101568
 2017-02-10 18:16:25.748335+01 | 1486746985.74833 | pgbench_tellers  |           139264
 2017-02-10 18:16:25.748335+01 | 1486746985.74833 | pgbench_history  |        145637376
 2017-02-10 18:16:25.748335+01 | 1486746985.74833 | pgbench_branches |            16384

 2017-02-10 18:16:26.851044+01 | 1486746986.85104 | pgbench_accounts |       4133101568
 2017-02-10 18:16:26.851044+01 | 1486746986.85104 | pgbench_tellers  |           139264
 2017-02-10 18:16:26.851044+01 | 1486746986.85104 | pgbench_history  |        146628608
 2017-02-10 18:16:26.851044+01 | 1486746986.85104 | pgbench_branches |            16384

 2017-02-10 18:16:27.926182+01 | 1486746987.92618 | pgbench_accounts |       4133101568
 2017-02-10 18:16:27.926182+01 | 1486746987.92618 | pgbench_tellers  |           139264
 2017-02-10 18:16:27.926182+01 | 1486746987.92618 | pgbench_history  |        149135360
 2017-02-10 18:16:27.926182+01 | 1486746987.92618 | pgbench_branches |            16384

 2017-02-10 18:16:29.00424+01 | 1486746989.00424 | pgbench_accounts |       4133101568
 2017-02-10 18:16:29.00424+01 | 1486746989.00424 | pgbench_tellers  |           139264
 2017-02-10 18:16:29.00424+01 | 1486746989.00424 | pgbench_history  |        149135360
 2017-02-10 18:16:29.00424+01 | 1486746989.00424 | pgbench_branches |            16384

 2017-02-10 18:16:30.101124+01 | 1486746990.10112 | pgbench_accounts |       4133101568
 2017-02-10 18:16:30.101124+01 | 1486746990.10112 | pgbench_tellers  |           139264
 2017-02-10 18:16:30.101124+01 | 1486746990.10112 | pgbench_history  |        149364736
 2017-02-10 18:16:30.101124+01 | 1486746990.10112 | pgbench_branches |            16384

 2017-02-10 18:16:31.195961+01 | 1486746991.19596 | pgbench_accounts |       4133101568
 2017-02-10 18:16:31.195961+01 | 1486746991.19596 | pgbench_tellers  |           139264
 2017-02-10 18:16:31.195961+01 | 1486746991.19596 | pgbench_history  |        151371776
 2017-02-10 18:16:31.195961+01 | 1486746991.19596 | pgbench_branches |            16384

 2017-02-10 18:16:32.283788+01 | 1486746992.28379 | pgbench_accounts |       4133101568
 2017-02-10 18:16:32.283788+01 | 1486746992.28379 | pgbench_tellers  |           139264
 2017-02-10 18:16:32.283788+01 | 1486746992.28379 | pgbench_history  |        151371776
 2017-02-10 18:16:32.283788+01 | 1486746992.28379 | pgbench_branches |            16384

 2017-02-10 18:16:33.367856+01 | 1486746993.36786 | pgbench_accounts |       4133101568
 2017-02-10 18:16:33.367856+01 | 1486746993.36786 | pgbench_tellers  |           139264
 2017-02-10 18:16:33.367856+01 | 1486746993.36786 | pgbench_history  |        152338432
 2017-02-10 18:16:33.367856+01 | 1486746993.36786 | pgbench_branches |            16384

 2017-02-10 18:16:34.460858+01 | 1486746994.46086 | pgbench_accounts |       4133101568
 2017-02-10 18:16:34.460858+01 | 1486746994.46086 | pgbench_tellers  |           139264
 2017-02-10 18:16:34.460858+01 | 1486746994.46086 | pgbench_history  |        153305088
 2017-02-10 18:16:34.460858+01 | 1486746994.46086 | pgbench_branches |            16384

 2017-02-10 18:16:35.54038+01 | 1486746995.54038 | pgbench_accounts |       4133101568
 2017-02-10 18:16:35.54038+01 | 1486746995.54038 | pgbench_tellers  |           139264
 2017-02-10 18:16:35.54038+01 | 1486746995.54038 | pgbench_history  |        154509312
 2017-02-10 18:16:35.54038+01 | 1486746995.54038 | pgbench_branches |            16384

 2017-02-10 18:16:36.639703+01 | 1486746996.6397 | pgbench_accounts |       4133101568
 2017-02-10 18:16:36.639703+01 | 1486746996.6397 | pgbench_tellers  |           139264
 2017-02-10 18:16:36.639703+01 | 1486746996.6397 | pgbench_history  |        155443200
 2017-02-10 18:16:36.639703+01 | 1486746996.6397 | pgbench_branches |            16384

 2017-02-10 18:16:37.747012+01 | 1486746997.74701 | pgbench_accounts |       4133101568
 2017-02-10 18:16:37.747012+01 | 1486746997.74701 | pgbench_tellers  |           139264
 2017-02-10 18:16:37.747012+01 | 1486746997.74701 | pgbench_history  |        156540928
 2017-02-10 18:16:37.747012+01 | 1486746997.74701 | pgbench_branches |            16384

 2017-02-10 18:16:38.829813+01 | 1486746998.82981 | pgbench_accounts |       4133101568
 2017-02-10 18:16:38.829813+01 | 1486746998.82981 | pgbench_tellers  |           139264
 2017-02-10 18:16:38.829813+01 | 1486746998.82981 | pgbench_history  |        158105600
 2017-02-10 18:16:38.829813+01 | 1486746998.82981 | pgbench_branches |            16384

 2017-02-10 18:16:39.895156+01 | 1486746999.89516 | pgbench_accounts |       4133101568
 2017-02-10 18:16:39.895156+01 | 1486746999.89516 | pgbench_tellers  |           139264
 2017-02-10 18:16:39.895156+01 | 1486746999.89516 | pgbench_history  |        158294016
 2017-02-10 18:16:39.895156+01 | 1486746999.89516 | pgbench_branches |            16384

 2017-02-10 18:16:40.970904+01 | 1486747000.9709 | pgbench_accounts |       4133101568
 2017-02-10 18:16:40.970904+01 | 1486747000.9709 | pgbench_tellers  |           139264
 2017-02-10 18:16:40.970904+01 | 1486747000.9709 | pgbench_history  |        160079872
 2017-02-10 18:16:40.970904+01 | 1486747000.9709 | pgbench_branches |            16384

 2017-02-10 18:16:42.059961+01 | 1486747002.05996 | pgbench_accounts |       4133101568
 2017-02-10 18:16:42.059961+01 | 1486747002.05996 | pgbench_tellers  |           139264
 2017-02-10 18:16:42.059961+01 | 1486747002.05996 | pgbench_history  |        160317440
 2017-02-10 18:16:42.059961+01 | 1486747002.05996 | pgbench_branches |            16384

 2017-02-10 18:16:43.14206+01 | 1486747003.14206 | pgbench_accounts |       4133101568
 2017-02-10 18:16:43.14206+01 | 1486747003.14206 | pgbench_tellers  |           139264
 2017-02-10 18:16:43.14206+01 | 1486747003.14206 | pgbench_history  |        161275904
 2017-02-10 18:16:43.14206+01 | 1486747003.14206 | pgbench_branches |            16384

 2017-02-10 18:16:44.230025+01 | 1486747004.23003 | pgbench_accounts |       4133101568
 2017-02-10 18:16:44.230025+01 | 1486747004.23003 | pgbench_tellers  |           139264
 2017-02-10 18:16:44.230025+01 | 1486747004.23003 | pgbench_history  |        162357248
 2017-02-10 18:16:44.230025+01 | 1486747004.23003 | pgbench_branches |            16384

 2017-02-10 18:16:45.337978+01 | 1486747005.33798 | pgbench_accounts |       4133101568
 2017-02-10 18:16:45.337978+01 | 1486747005.33798 | pgbench_tellers  |           139264
 2017-02-10 18:16:45.337978+01 | 1486747005.33798 | pgbench_history  |        163659776
 2017-02-10 18:16:45.337978+01 | 1486747005.33798 | pgbench_branches |            16384

 2017-02-10 18:16:46.42053+01 | 1486747006.42053 | pgbench_accounts |       4133101568
 2017-02-10 18:16:46.42053+01 | 1486747006.42053 | pgbench_tellers  |           139264
 2017-02-10 18:16:46.42053+01 | 1486747006.42053 | pgbench_history  |        164511744
 2017-02-10 18:16:46.42053+01 | 1486747006.42053 | pgbench_branches |            16384

 2017-02-10 18:16:47.517699+01 | 1486747007.5177 | pgbench_accounts |       4133101568
 2017-02-10 18:16:47.517699+01 | 1486747007.5177 | pgbench_tellers  |           139264
 2017-02-10 18:16:47.517699+01 | 1486747007.5177 | pgbench_history  |        165183488
 2017-02-10 18:16:47.517699+01 | 1486747007.5177 | pgbench_branches |            16384

 2017-02-10 18:16:48.603901+01 | 1486747008.6039 | pgbench_accounts |       4133101568
 2017-02-10 18:16:48.603901+01 | 1486747008.6039 | pgbench_tellers  |           139264
 2017-02-10 18:16:48.603901+01 | 1486747008.6039 | pgbench_history  |        166379520
 2017-02-10 18:16:48.603901+01 | 1486747008.6039 | pgbench_branches |            16384

 2017-02-10 18:16:49.670845+01 | 1486747009.67085 | pgbench_accounts |       4133101568
 2017-02-10 18:16:49.670845+01 | 1486747009.67085 | pgbench_tellers  |           139264
 2017-02-10 18:16:49.670845+01 | 1486747009.67085 | pgbench_history  |        167673856
 2017-02-10 18:16:49.670845+01 | 1486747009.67085 | pgbench_branches |            16384

 2017-02-10 18:16:50.756941+01 | 1486747010.75694 | pgbench_accounts |       4133101568
 2017-02-10 18:16:50.756941+01 | 1486747010.75694 | pgbench_tellers  |           139264
 2017-02-10 18:16:50.756941+01 | 1486747010.75694 | pgbench_history  |        168460288
 2017-02-10 18:16:50.756941+01 | 1486747010.75694 | pgbench_branches |            16384

 2017-02-10 18:16:51.845441+01 | 1486747011.84544 | pgbench_accounts |       4133101568
 2017-02-10 18:16:51.845441+01 | 1486747011.84544 | pgbench_tellers  |           139264
 2017-02-10 18:16:51.845441+01 | 1486747011.84544 | pgbench_history  |        169295872
 2017-02-10 18:16:51.845441+01 | 1486747011.84544 | pgbench_branches |            16384

 2017-02-10 18:16:52.926206+01 | 1486747012.92621 | pgbench_accounts |       4133101568
 2017-02-10 18:16:52.926206+01 | 1486747012.92621 | pgbench_tellers  |           139264
 2017-02-10 18:16:52.926206+01 | 1486747012.92621 | pgbench_history  |        170246144
 2017-02-10 18:16:52.926206+01 | 1486747012.92621 | pgbench_branches |            16384

 2017-02-10 18:16:54.00196+01 | 1486747014.00196 | pgbench_accounts |       4133101568
 2017-02-10 18:16:54.00196+01 | 1486747014.00196 | pgbench_tellers  |           139264
 2017-02-10 18:16:54.00196+01 | 1486747014.00196 | pgbench_history  |        171253760
 2017-02-10 18:16:54.00196+01 | 1486747014.00196 | pgbench_branches |            16384

 2017-02-10 18:16:55.061846+01 | 1486747015.06185 | pgbench_accounts |       4133101568
 2017-02-10 18:16:55.061846+01 | 1486747015.06185 | pgbench_tellers  |           139264
 2017-02-10 18:16:55.061846+01 | 1486747015.06185 | pgbench_history  |        173268992
 2017-02-10 18:16:55.061846+01 | 1486747015.06185 | pgbench_branches |            16384

 2017-02-10 18:16:56.14427+01 | 1486747016.14427 | pgbench_accounts |       4133101568
 2017-02-10 18:16:56.14427+01 | 1486747016.14427 | pgbench_tellers  |           139264
 2017-02-10 18:16:56.14427+01 | 1486747016.14427 | pgbench_history  |        173268992
 2017-02-10 18:16:56.14427+01 | 1486747016.14427 | pgbench_branches |            16384

 2017-02-10 18:16:57.241497+01 | 1486747017.2415 | pgbench_accounts |       4133101568
 2017-02-10 18:16:57.241497+01 | 1486747017.2415 | pgbench_tellers  |           139264
 2017-02-10 18:16:57.241497+01 | 1486747017.2415 | pgbench_history  |        174243840
 2017-02-10 18:16:57.241497+01 | 1486747017.2415 | pgbench_branches |            16384

 2017-02-10 18:16:58.324357+01 | 1486747018.32436 | pgbench_accounts |       4133101568
 2017-02-10 18:16:58.324357+01 | 1486747018.32436 | pgbench_tellers  |           139264
 2017-02-10 18:16:58.324357+01 | 1486747018.32436 | pgbench_history  |        175177728
 2017-02-10 18:16:58.324357+01 | 1486747018.32436 | pgbench_branches |            16384

 2017-02-10 18:16:59.419496+01 | 1486747019.4195 | pgbench_accounts |       4133101568
 2017-02-10 18:16:59.419496+01 | 1486747019.4195 | pgbench_tellers  |           139264
 2017-02-10 18:16:59.419496+01 | 1486747019.4195 | pgbench_history  |        176439296
 2017-02-10 18:16:59.419496+01 | 1486747019.4195 | pgbench_branches |            16384

 2017-02-10 18:17:00.513017+01 | 1486747020.51302 | pgbench_accounts |       4133101568
 2017-02-10 18:17:00.513017+01 | 1486747020.51302 | pgbench_tellers  |           139264
 2017-02-10 18:17:00.513017+01 | 1486747020.51302 | pgbench_history  |        177242112
 2017-02-10 18:17:00.513017+01 | 1486747020.51302 | pgbench_branches |            16384

 2017-02-10 18:17:01.578004+01 | 1486747021.578 | pgbench_accounts |       4133101568
 2017-02-10 18:17:01.578004+01 | 1486747021.578 | pgbench_tellers  |           139264
 2017-02-10 18:17:01.578004+01 | 1486747021.578 | pgbench_history  |        178528256
 2017-02-10 18:17:01.578004+01 | 1486747021.578 | pgbench_branches |            16384

 2017-02-10 18:17:02.669739+01 | 1486747022.66974 | pgbench_accounts |       4133101568
 2017-02-10 18:17:02.669739+01 | 1486747022.66974 | pgbench_tellers  |           139264
 2017-02-10 18:17:02.669739+01 | 1486747022.66974 | pgbench_history  |        179101696
 2017-02-10 18:17:02.669739+01 | 1486747022.66974 | pgbench_branches |            16384

 2017-02-10 18:17:03.757184+01 | 1486747023.75718 | pgbench_accounts |       4133101568
 2017-02-10 18:17:03.757184+01 | 1486747023.75718 | pgbench_tellers  |           139264
 2017-02-10 18:17:03.757184+01 | 1486747023.75718 | pgbench_history  |        180215808
 2017-02-10 18:17:03.757184+01 | 1486747023.75718 | pgbench_branches |            16384

 2017-02-10 18:17:04.845583+01 | 1486747024.84558 | pgbench_accounts |       4133101568
 2017-02-10 18:17:04.845583+01 | 1486747024.84558 | pgbench_tellers  |           139264
 2017-02-10 18:17:04.845583+01 | 1486747024.84558 | pgbench_history  |        181526528
 2017-02-10 18:17:04.845583+01 | 1486747024.84558 | pgbench_branches |            16384

 2017-02-10 18:17:05.927438+01 | 1486747025.92744 | pgbench_accounts |       4133101568
 2017-02-10 18:17:05.927438+01 | 1486747025.92744 | pgbench_tellers  |           139264
 2017-02-10 18:17:05.927438+01 | 1486747025.92744 | pgbench_history  |        182116352
 2017-02-10 18:17:05.927438+01 | 1486747025.92744 | pgbench_branches |            16384

 2017-02-10 18:17:07.017007+01 | 1486747027.01701 | pgbench_accounts |       4133101568
 2017-02-10 18:17:07.017007+01 | 1486747027.01701 | pgbench_tellers  |           139264
 2017-02-10 18:17:07.017007+01 | 1486747027.01701 | pgbench_history  |        183107584
 2017-02-10 18:17:07.017007+01 | 1486747027.01701 | pgbench_branches |            16384

 2017-02-10 18:17:08.092978+01 | 1486747028.09298 | pgbench_accounts |       4133101568
 2017-02-10 18:17:08.092978+01 | 1486747028.09298 | pgbench_tellers  |           139264
 2017-02-10 18:17:08.092978+01 | 1486747028.09298 | pgbench_history  |        184336384
 2017-02-10 18:17:08.092978+01 | 1486747028.09298 | pgbench_branches |            16384

 2017-02-10 18:17:09.16909+01 | 1486747029.16909 | pgbench_accounts |       4133101568
 2017-02-10 18:17:09.16909+01 | 1486747029.16909 | pgbench_tellers  |           139264
 2017-02-10 18:17:09.16909+01 | 1486747029.16909 | pgbench_history  |        185204736
 2017-02-10 18:17:09.16909+01 | 1486747029.16909 | pgbench_branches |            16384

 2017-02-10 18:17:10.244868+01 | 1486747030.24487 | pgbench_accounts |       4133101568
 2017-02-10 18:17:10.244868+01 | 1486747030.24487 | pgbench_tellers  |           139264
 2017-02-10 18:17:10.244868+01 | 1486747030.24487 | pgbench_history  |        186171392
 2017-02-10 18:17:10.244868+01 | 1486747030.24487 | pgbench_branches |            16384

 2017-02-10 18:17:11.327012+01 | 1486747031.32701 | pgbench_accounts |       4133101568
 2017-02-10 18:17:11.327012+01 | 1486747031.32701 | pgbench_tellers  |           139264
 2017-02-10 18:17:11.327012+01 | 1486747031.32701 | pgbench_history  |        187088896
 2017-02-10 18:17:11.327012+01 | 1486747031.32701 | pgbench_branches |            16384

 2017-02-10 18:17:12.413414+01 | 1486747032.41341 | pgbench_accounts |       4133101568
 2017-02-10 18:17:12.413414+01 | 1486747032.41341 | pgbench_tellers  |           139264
 2017-02-10 18:17:12.413414+01 | 1486747032.41341 | pgbench_history  |        188080128
 2017-02-10 18:17:12.413414+01 | 1486747032.41341 | pgbench_branches |            16384

 2017-02-10 18:17:13.508306+01 | 1486747033.50831 | pgbench_accounts |       4133101568
 2017-02-10 18:17:13.508306+01 | 1486747033.50831 | pgbench_tellers  |           139264
 2017-02-10 18:17:13.508306+01 | 1486747033.50831 | pgbench_history  |        189079552
 2017-02-10 18:17:13.508306+01 | 1486747033.50831 | pgbench_branches |            16384

 2017-02-10 18:17:14.56943+01 | 1486747034.56943 | pgbench_accounts |       4133101568
 2017-02-10 18:17:14.56943+01 | 1486747034.56943 | pgbench_tellers  |           139264
 2017-02-10 18:17:14.56943+01 | 1486747034.56943 | pgbench_history  |        190070784
 2017-02-10 18:17:14.56943+01 | 1486747034.56943 | pgbench_branches |            16384

 2017-02-10 18:17:15.653314+01 | 1486747035.65331 | pgbench_accounts |       4133101568
 2017-02-10 18:17:15.653314+01 | 1486747035.65331 | pgbench_tellers  |           139264
 2017-02-10 18:17:15.653314+01 | 1486747035.65331 | pgbench_history  |        191045632
 2017-02-10 18:17:15.653314+01 | 1486747035.65331 | pgbench_branches |            16384

 2017-02-10 18:17:16.739178+01 | 1486747036.73918 | pgbench_accounts |       4133101568
 2017-02-10 18:17:16.739178+01 | 1486747036.73918 | pgbench_tellers  |           139264
 2017-02-10 18:17:16.739178+01 | 1486747036.73918 | pgbench_history  |        192053248
 2017-02-10 18:17:16.739178+01 | 1486747036.73918 | pgbench_branches |            16384

 2017-02-10 18:17:17.834356+01 | 1486747037.83436 | pgbench_accounts |       4133101568
 2017-02-10 18:17:17.834356+01 | 1486747037.83436 | pgbench_tellers  |           139264
 2017-02-10 18:17:17.834356+01 | 1486747037.83436 | pgbench_history  |        193052672
 2017-02-10 18:17:17.834356+01 | 1486747037.83436 | pgbench_branches |            16384

 2017-02-10 18:17:18.91606+01 | 1486747038.91606 | pgbench_accounts |       4133101568
 2017-02-10 18:17:18.91606+01 | 1486747038.91606 | pgbench_tellers  |           139264
 2017-02-10 18:17:18.91606+01 | 1486747038.91606 | pgbench_history  |        193978368
 2017-02-10 18:17:18.91606+01 | 1486747038.91606 | pgbench_branches |            16384

 2017-02-10 18:17:19.989292+01 | 1486747039.98929 | pgbench_accounts |       4133101568
 2017-02-10 18:17:19.989292+01 | 1486747039.98929 | pgbench_tellers  |           139264
 2017-02-10 18:17:19.989292+01 | 1486747039.98929 | pgbench_history  |        194945024
 2017-02-10 18:17:19.989292+01 | 1486747039.98929 | pgbench_branches |            16384

 2017-02-10 18:17:21.056625+01 | 1486747041.05662 | pgbench_accounts |       4133101568
 2017-02-10 18:17:21.056625+01 | 1486747041.05662 | pgbench_tellers  |           139264
 2017-02-10 18:17:21.056625+01 | 1486747041.05662 | pgbench_history  |        195895296
 2017-02-10 18:17:21.056625+01 | 1486747041.05662 | pgbench_branches |            16384

 2017-02-10 18:17:22.12657+01 | 1486747042.12657 | pgbench_accounts |       4133101568
 2017-02-10 18:17:22.12657+01 | 1486747042.12657 | pgbench_tellers  |           139264
 2017-02-10 18:17:22.12657+01 | 1486747042.12657 | pgbench_history  |        197304320
 2017-02-10 18:17:22.12657+01 | 1486747042.12657 | pgbench_branches |            16384

 2017-02-10 18:17:23.241087+01 | 1486747043.24109 | pgbench_accounts |       4133101568
 2017-02-10 18:17:23.241087+01 | 1486747043.24109 | pgbench_tellers  |           139264
 2017-02-10 18:17:23.241087+01 | 1486747043.24109 | pgbench_history  |        197869568
 2017-02-10 18:17:23.241087+01 | 1486747043.24109 | pgbench_branches |            16384

 2017-02-10 18:17:24.306529+01 | 1486747044.30653 | pgbench_accounts |       4133101568
 2017-02-10 18:17:24.306529+01 | 1486747044.30653 | pgbench_tellers  |           139264
 2017-02-10 18:17:24.306529+01 | 1486747044.30653 | pgbench_history  |        198959104
 2017-02-10 18:17:24.306529+01 | 1486747044.30653 | pgbench_branches |            16384

 2017-02-10 18:17:25.386166+01 | 1486747045.38617 | pgbench_accounts |       4133101568
 2017-02-10 18:17:25.386166+01 | 1486747045.38617 | pgbench_tellers  |           139264
 2017-02-10 18:17:25.386166+01 | 1486747045.38617 | pgbench_history  |        199925760
 2017-02-10 18:17:25.386166+01 | 1486747045.38617 | pgbench_branches |            16384

 2017-02-10 18:17:26.466069+01 | 1486747046.46607 | pgbench_accounts |       4133101568
 2017-02-10 18:17:26.466069+01 | 1486747046.46607 | pgbench_tellers  |           139264
 2017-02-10 18:17:26.466069+01 | 1486747046.46607 | pgbench_history  |        201515008
 2017-02-10 18:17:26.466069+01 | 1486747046.46607 | pgbench_branches |            16384

 2017-02-10 18:17:27.551131+01 | 1486747047.55113 | pgbench_accounts |       4133101568
 2017-02-10 18:17:27.551131+01 | 1486747047.55113 | pgbench_tellers  |           139264
 2017-02-10 18:17:27.551131+01 | 1486747047.55113 | pgbench_history  |        202047488
 2017-02-10 18:17:27.551131+01 | 1486747047.55113 | pgbench_branches |            16384

 2017-02-10 18:17:28.61876+01 | 1486747048.61876 | pgbench_accounts |       4133101568
 2017-02-10 18:17:28.61876+01 | 1486747048.61876 | pgbench_tellers  |           139264
 2017-02-10 18:17:28.61876+01 | 1486747048.61876 | pgbench_history  |        202850304
 2017-02-10 18:17:28.61876+01 | 1486747048.61876 | pgbench_branches |            16384

 2017-02-10 18:17:29.701666+01 | 1486747049.70167 | pgbench_accounts |       4133101568
 2017-02-10 18:17:29.701666+01 | 1486747049.70167 | pgbench_tellers  |           139264
 2017-02-10 18:17:29.701666+01 | 1486747049.70167 | pgbench_history  |        203735040
 2017-02-10 18:17:29.701666+01 | 1486747049.70167 | pgbench_branches |            16384

 2017-02-10 18:17:30.786812+01 | 1486747050.78681 | pgbench_accounts |       4133101568
 2017-02-10 18:17:30.786812+01 | 1486747050.78681 | pgbench_tellers  |           139264
 2017-02-10 18:17:30.786812+01 | 1486747050.78681 | pgbench_history  |        204529664
 2017-02-10 18:17:30.786812+01 | 1486747050.78681 | pgbench_branches |            16384

 2017-02-10 18:17:31.871121+01 | 1486747051.87112 | pgbench_accounts |       4133101568
 2017-02-10 18:17:31.871121+01 | 1486747051.87112 | pgbench_tellers  |           139264
 2017-02-10 18:17:31.871121+01 | 1486747051.87112 | pgbench_history  |        205701120
 2017-02-10 18:17:31.871121+01 | 1486747051.87112 | pgbench_branches |            16384

 2017-02-10 18:17:32.946517+01 | 1486747052.94652 | pgbench_accounts |       4133101568
 2017-02-10 18:17:32.946517+01 | 1486747052.94652 | pgbench_tellers  |           139264
 2017-02-10 18:17:32.946517+01 | 1486747052.94652 | pgbench_history  |        206651392
 2017-02-10 18:17:32.946517+01 | 1486747052.94652 | pgbench_branches |            16384

 2017-02-10 18:17:34.035248+01 | 1486747054.03525 | pgbench_accounts |       4133101568
 2017-02-10 18:17:34.035248+01 | 1486747054.03525 | pgbench_tellers  |           139264
 2017-02-10 18:17:34.035248+01 | 1486747054.03525 | pgbench_history  |        207626240
 2017-02-10 18:17:34.035248+01 | 1486747054.03525 | pgbench_branches |            16384

 2017-02-10 18:17:35.110439+01 | 1486747055.11044 | pgbench_accounts |       4133101568
 2017-02-10 18:17:35.110439+01 | 1486747055.11044 | pgbench_tellers  |           139264
 2017-02-10 18:17:35.110439+01 | 1486747055.11044 | pgbench_history  |        208625664
 2017-02-10 18:17:35.110439+01 | 1486747055.11044 | pgbench_branches |            16384

 2017-02-10 18:17:36.173951+01 | 1486747056.17395 | pgbench_accounts |       4133101568
 2017-02-10 18:17:36.173951+01 | 1486747056.17395 | pgbench_tellers  |           139264
 2017-02-10 18:17:36.173951+01 | 1486747056.17395 | pgbench_history  |        209469440
 2017-02-10 18:17:36.173951+01 | 1486747056.17395 | pgbench_branches |            16384

 2017-02-10 18:17:37.25415+01 | 1486747057.25415 | pgbench_accounts |       4133101568
 2017-02-10 18:17:37.25415+01 | 1486747057.25415 | pgbench_tellers  |           139264
 2017-02-10 18:17:37.25415+01 | 1486747057.25415 | pgbench_history  |        210452480
 2017-02-10 18:17:37.25415+01 | 1486747057.25415 | pgbench_branches |            16384

 2017-02-10 18:17:38.319167+01 | 1486747058.31917 | pgbench_accounts |       4133101568
 2017-02-10 18:17:38.319167+01 | 1486747058.31917 | pgbench_tellers  |           139264
 2017-02-10 18:17:38.319167+01 | 1486747058.31917 | pgbench_history  |        211427328
 2017-02-10 18:17:38.319167+01 | 1486747058.31917 | pgbench_branches |            16384

 2017-02-10 18:17:39.415208+01 | 1486747059.41521 | pgbench_accounts |       4133101568
 2017-02-10 18:17:39.415208+01 | 1486747059.41521 | pgbench_tellers  |           139264
 2017-02-10 18:17:39.415208+01 | 1486747059.41521 | pgbench_history  |        213483520
 2017-02-10 18:17:39.415208+01 | 1486747059.41521 | pgbench_branches |            16384

 2017-02-10 18:17:40.494653+01 | 1486747060.49465 | pgbench_accounts |       4133101568
 2017-02-10 18:17:40.494653+01 | 1486747060.49465 | pgbench_tellers  |           139264
 2017-02-10 18:17:40.494653+01 | 1486747060.49465 | pgbench_history  |        213483520
 2017-02-10 18:17:40.494653+01 | 1486747060.49465 | pgbench_branches |            16384

 2017-02-10 18:17:41.563642+01 | 1486747061.56364 | pgbench_accounts |       4133101568
 2017-02-10 18:17:41.563642+01 | 1486747061.56364 | pgbench_tellers  |           139264
 2017-02-10 18:17:41.563642+01 | 1486747061.56364 | pgbench_history  |        214401024
 2017-02-10 18:17:41.563642+01 | 1486747061.56364 | pgbench_branches |            16384

 2017-02-10 18:17:42.622963+01 | 1486747062.62296 | pgbench_accounts |       4133101568
 2017-02-10 18:17:42.622963+01 | 1486747062.62296 | pgbench_tellers  |           139264
 2017-02-10 18:17:42.622963+01 | 1486747062.62296 | pgbench_history  |        215687168
 2017-02-10 18:17:42.622963+01 | 1486747062.62296 | pgbench_branches |            16384

 2017-02-10 18:17:43.697961+01 | 1486747063.69796 | pgbench_accounts |       4133101568
 2017-02-10 18:17:43.697961+01 | 1486747063.69796 | pgbench_tellers  |           139264
 2017-02-10 18:17:43.697961+01 | 1486747063.69796 | pgbench_history  |        216367104
 2017-02-10 18:17:43.697961+01 | 1486747063.69796 | pgbench_branches |            16384

 2017-02-10 18:17:44.796578+01 | 1486747064.79658 | pgbench_accounts |       4133101568
 2017-02-10 18:17:44.796578+01 | 1486747064.79658 | pgbench_tellers  |           139264
 2017-02-10 18:17:44.796578+01 | 1486747064.79658 | pgbench_history  |        217243648
 2017-02-10 18:17:44.796578+01 | 1486747064.79658 | pgbench_branches |            16384

 2017-02-10 18:17:45.898255+01 | 1486747065.89826 | pgbench_accounts |       4133101568
 2017-02-10 18:17:45.898255+01 | 1486747065.89826 | pgbench_tellers  |           139264
 2017-02-10 18:17:45.898255+01 | 1486747065.89826 | pgbench_history  |        218144768
 2017-02-10 18:17:45.898255+01 | 1486747065.89826 | pgbench_branches |            16384

 2017-02-10 18:17:46.97446+01 | 1486747066.97446 | pgbench_accounts |       4133101568
 2017-02-10 18:17:46.97446+01 | 1486747066.97446 | pgbench_tellers  |           139264
 2017-02-10 18:17:46.97446+01 | 1486747066.97446 | pgbench_history  |        219152384
 2017-02-10 18:17:46.97446+01 | 1486747066.97446 | pgbench_branches |            16384

 2017-02-10 18:17:48.064256+01 | 1486747068.06426 | pgbench_accounts |       4133101568
 2017-02-10 18:17:48.064256+01 | 1486747068.06426 | pgbench_tellers  |           139264
 2017-02-10 18:17:48.064256+01 | 1486747068.06426 | pgbench_history  |        220160000
 2017-02-10 18:17:48.064256+01 | 1486747068.06426 | pgbench_branches |            16384

 2017-02-10 18:17:49.146448+01 | 1486747069.14645 | pgbench_accounts |       4133101568
 2017-02-10 18:17:49.146448+01 | 1486747069.14645 | pgbench_tellers  |           139264
 2017-02-10 18:17:49.146448+01 | 1486747069.14645 | pgbench_history  |        221552640
 2017-02-10 18:17:49.146448+01 | 1486747069.14645 | pgbench_branches |            16384

 2017-02-10 18:17:50.217875+01 | 1486747070.21788 | pgbench_accounts |       4133101568
 2017-02-10 18:17:50.217875+01 | 1486747070.21788 | pgbench_tellers  |           139264
 2017-02-10 18:17:50.217875+01 | 1486747070.21788 | pgbench_history  |        222289920
 2017-02-10 18:17:50.217875+01 | 1486747070.21788 | pgbench_branches |            16384

 2017-02-10 18:17:51.294523+01 | 1486747071.29452 | pgbench_accounts |       4133101568
 2017-02-10 18:17:51.294523+01 | 1486747071.29452 | pgbench_tellers  |           139264
 2017-02-10 18:17:51.294523+01 | 1486747071.29452 | pgbench_history  |        223215616
 2017-02-10 18:17:51.294523+01 | 1486747071.29452 | pgbench_branches |            16384

 2017-02-10 18:17:52.379936+01 | 1486747072.37994 | pgbench_accounts |       4133101568
 2017-02-10 18:17:52.379936+01 | 1486747072.37994 | pgbench_tellers  |           139264
 2017-02-10 18:17:52.379936+01 | 1486747072.37994 | pgbench_history  |        224960512
 2017-02-10 18:17:52.379936+01 | 1486747072.37994 | pgbench_branches |            16384

 2017-02-10 18:17:53.468957+01 | 1486747073.46896 | pgbench_accounts |       4133101568
 2017-02-10 18:17:53.468957+01 | 1486747073.46896 | pgbench_tellers  |           139264
 2017-02-10 18:17:53.468957+01 | 1486747073.46896 | pgbench_history  |        224960512
 2017-02-10 18:17:53.468957+01 | 1486747073.46896 | pgbench_branches |            16384

 2017-02-10 18:17:54.559473+01 | 1486747074.55947 | pgbench_accounts |       4133101568
 2017-02-10 18:17:54.559473+01 | 1486747074.55947 | pgbench_tellers  |           139264
 2017-02-10 18:17:54.559473+01 | 1486747074.55947 | pgbench_history  |        225902592
 2017-02-10 18:17:54.559473+01 | 1486747074.55947 | pgbench_branches |            16384

 2017-02-10 18:17:55.62985+01 | 1486747075.62985 | pgbench_accounts |       4133101568
 2017-02-10 18:17:55.62985+01 | 1486747075.62985 | pgbench_tellers  |           139264
 2017-02-10 18:17:55.62985+01 | 1486747075.62985 | pgbench_history  |        226967552
 2017-02-10 18:17:55.62985+01 | 1486747075.62985 | pgbench_branches |            16384

 2017-02-10 18:17:56.698143+01 | 1486747076.69814 | pgbench_accounts |       4133101568
 2017-02-10 18:17:56.698143+01 | 1486747076.69814 | pgbench_tellers  |           139264
 2017-02-10 18:17:56.698143+01 | 1486747076.69814 | pgbench_history  |        227753984
 2017-02-10 18:17:56.698143+01 | 1486747076.69814 | pgbench_branches |            16384

 2017-02-10 18:17:57.788276+01 | 1486747077.78828 | pgbench_accounts |       4133101568
 2017-02-10 18:17:57.788276+01 | 1486747077.78828 | pgbench_tellers  |           139264
 2017-02-10 18:17:57.788276+01 | 1486747077.78828 | pgbench_history  |        228941824
 2017-02-10 18:17:57.788276+01 | 1486747077.78828 | pgbench_branches |            16384

 2017-02-10 18:17:58.862206+01 | 1486747078.86221 | pgbench_accounts |       4133101568
 2017-02-10 18:17:58.862206+01 | 1486747078.86221 | pgbench_tellers  |           139264
 2017-02-10 18:17:58.862206+01 | 1486747078.86221 | pgbench_history  |        229769216
 2017-02-10 18:17:58.862206+01 | 1486747078.86221 | pgbench_branches |            16384

 2017-02-10 18:17:59.941415+01 | 1486747079.94142 | pgbench_accounts |       4133101568
 2017-02-10 18:17:59.941415+01 | 1486747079.94142 | pgbench_tellers  |           139264
 2017-02-10 18:17:59.941415+01 | 1486747079.94142 | pgbench_history  |        230825984
 2017-02-10 18:17:59.941415+01 | 1486747079.94142 | pgbench_branches |            16384

 2017-02-10 18:18:01.037528+01 | 1486747081.03753 | pgbench_accounts |       4133101568
 2017-02-10 18:18:01.037528+01 | 1486747081.03753 | pgbench_tellers  |           139264
 2017-02-10 18:18:01.037528+01 | 1486747081.03753 | pgbench_history  |        231768064
 2017-02-10 18:18:01.037528+01 | 1486747081.03753 | pgbench_branches |            16384

 2017-02-10 18:18:02.123364+01 | 1486747082.12336 | pgbench_accounts |       4133101568
 2017-02-10 18:18:02.123364+01 | 1486747082.12336 | pgbench_tellers  |           139264
 2017-02-10 18:18:02.123364+01 | 1486747082.12336 | pgbench_history  |        232628224
 2017-02-10 18:18:02.123364+01 | 1486747082.12336 | pgbench_branches |            16384

 2017-02-10 18:18:03.207028+01 | 1486747083.20703 | pgbench_accounts |       4133101568
 2017-02-10 18:18:03.207028+01 | 1486747083.20703 | pgbench_tellers  |           139264
 2017-02-10 18:18:03.207028+01 | 1486747083.20703 | pgbench_history  |        233758720
 2017-02-10 18:18:03.207028+01 | 1486747083.20703 | pgbench_branches |            16384

 2017-02-10 18:18:04.305403+01 | 1486747084.3054 | pgbench_accounts |       4133101568
 2017-02-10 18:18:04.305403+01 | 1486747084.3054 | pgbench_tellers  |           139264
 2017-02-10 18:18:04.305403+01 | 1486747084.3054 | pgbench_history  |        235298816
 2017-02-10 18:18:04.305403+01 | 1486747084.3054 | pgbench_branches |            16384

 2017-02-10 18:18:05.384403+01 | 1486747085.3844 | pgbench_accounts |       4133101568
 2017-02-10 18:18:05.384403+01 | 1486747085.3844 | pgbench_tellers  |           139264
 2017-02-10 18:18:05.384403+01 | 1486747085.3844 | pgbench_history  |        235659264
 2017-02-10 18:18:05.384403+01 | 1486747085.3844 | pgbench_branches |            16384

 2017-02-10 18:18:06.467355+01 | 1486747086.46736 | pgbench_accounts |       4133101568
 2017-02-10 18:18:06.467355+01 | 1486747086.46736 | pgbench_tellers  |           139264
 2017-02-10 18:18:06.467355+01 | 1486747086.46736 | pgbench_history  |        236552192
 2017-02-10 18:18:06.467355+01 | 1486747086.46736 | pgbench_branches |            16384

 2017-02-10 18:18:07.555783+01 | 1486747087.55578 | pgbench_accounts |       4133101568
 2017-02-10 18:18:07.555783+01 | 1486747087.55578 | pgbench_tellers  |           139264
 2017-02-10 18:18:07.555783+01 | 1486747087.55578 | pgbench_history  |        237813760
 2017-02-10 18:18:07.555783+01 | 1486747087.55578 | pgbench_branches |            16384

 2017-02-10 18:18:08.632934+01 | 1486747088.63293 | pgbench_accounts |       4133101568
 2017-02-10 18:18:08.632934+01 | 1486747088.63293 | pgbench_tellers  |           139264
 2017-02-10 18:18:08.632934+01 | 1486747088.63293 | pgbench_history  |        238706688
 2017-02-10 18:18:08.632934+01 | 1486747088.63293 | pgbench_branches |            16384

 2017-02-10 18:18:09.699127+01 | 1486747089.69913 | pgbench_accounts |       4133101568
 2017-02-10 18:18:09.699127+01 | 1486747089.69913 | pgbench_tellers  |           139264
 2017-02-10 18:18:09.699127+01 | 1486747089.69913 | pgbench_history  |        239640576
 2017-02-10 18:18:09.699127+01 | 1486747089.69913 | pgbench_branches |            16384

 2017-02-10 18:18:10.775565+01 | 1486747090.77556 | pgbench_accounts |       4133101568
 2017-02-10 18:18:10.775565+01 | 1486747090.77556 | pgbench_tellers  |           139264
 2017-02-10 18:18:10.775565+01 | 1486747090.77556 | pgbench_history  |        241385472
 2017-02-10 18:18:10.775565+01 | 1486747090.77556 | pgbench_branches |            16384

 2017-02-10 18:18:11.856754+01 | 1486747091.85675 | pgbench_accounts |       4133101568
 2017-02-10 18:18:11.856754+01 | 1486747091.85675 | pgbench_tellers  |           139264
 2017-02-10 18:18:11.856754+01 | 1486747091.85675 | pgbench_history  |        241385472
 2017-02-10 18:18:11.856754+01 | 1486747091.85675 | pgbench_branches |            16384

 2017-02-10 18:18:12.936213+01 | 1486747092.93621 | pgbench_accounts |       4133101568
 2017-02-10 18:18:12.936213+01 | 1486747092.93621 | pgbench_tellers  |           139264
 2017-02-10 18:18:12.936213+01 | 1486747092.93621 | pgbench_history  |        242688000
 2017-02-10 18:18:12.936213+01 | 1486747092.93621 | pgbench_branches |            16384

 2017-02-10 18:18:14.007692+01 | 1486747094.00769 | pgbench_accounts |       4133101568
 2017-02-10 18:18:14.007692+01 | 1486747094.00769 | pgbench_tellers  |           139264
 2017-02-10 18:18:14.007692+01 | 1486747094.00769 | pgbench_history  |        243515392
 2017-02-10 18:18:14.007692+01 | 1486747094.00769 | pgbench_branches |            16384

 2017-02-10 18:18:15.085757+01 | 1486747095.08576 | pgbench_accounts |       4133101568
 2017-02-10 18:18:15.085757+01 | 1486747095.08576 | pgbench_tellers  |           139264
 2017-02-10 18:18:15.085757+01 | 1486747095.08576 | pgbench_history  |        244269056
 2017-02-10 18:18:15.085757+01 | 1486747095.08576 | pgbench_branches |            16384

 2017-02-10 18:18:16.171678+01 | 1486747096.17168 | pgbench_accounts |       4133101568
 2017-02-10 18:18:16.171678+01 | 1486747096.17168 | pgbench_tellers  |           139264
 2017-02-10 18:18:16.171678+01 | 1486747096.17168 | pgbench_history  |        246431744
 2017-02-10 18:18:16.171678+01 | 1486747096.17168 | pgbench_branches |            16384

 2017-02-10 18:18:17.251336+01 | 1486747097.25134 | pgbench_accounts |       4133101568
 2017-02-10 18:18:17.251336+01 | 1486747097.25134 | pgbench_tellers  |           139264
 2017-02-10 18:18:17.251336+01 | 1486747097.25134 | pgbench_history  |        246431744
 2017-02-10 18:18:17.251336+01 | 1486747097.25134 | pgbench_branches |            16384

 2017-02-10 18:18:18.350672+01 | 1486747098.35067 | pgbench_accounts |       4133101568
 2017-02-10 18:18:18.350672+01 | 1486747098.35067 | pgbench_tellers  |           139264
 2017-02-10 18:18:18.350672+01 | 1486747098.35067 | pgbench_history  |        247234560
 2017-02-10 18:18:18.350672+01 | 1486747098.35067 | pgbench_branches |            16384

 2017-02-10 18:18:19.448925+01 | 1486747099.44893 | pgbench_accounts |       4133101568
 2017-02-10 18:18:19.448925+01 | 1486747099.44893 | pgbench_tellers  |           139264
 2017-02-10 18:18:19.448925+01 | 1486747099.44893 | pgbench_history  |        248242176
 2017-02-10 18:18:19.448925+01 | 1486747099.44893 | pgbench_branches |            16384

 2017-02-10 18:18:20.524835+01 | 1486747100.52484 | pgbench_accounts |       4133101568
 2017-02-10 18:18:20.524835+01 | 1486747100.52484 | pgbench_tellers  |           139264
 2017-02-10 18:18:20.524835+01 | 1486747100.52484 | pgbench_history  |        249495552
 2017-02-10 18:18:20.524835+01 | 1486747100.52484 | pgbench_branches |            16384

 2017-02-10 18:18:21.589826+01 | 1486747101.58983 | pgbench_accounts |       4133101568
 2017-02-10 18:18:21.589826+01 | 1486747101.58983 | pgbench_tellers  |           139264
 2017-02-10 18:18:21.589826+01 | 1486747101.58983 | pgbench_history  |        250109952
 2017-02-10 18:18:21.589826+01 | 1486747101.58983 | pgbench_branches |            16384

 2017-02-10 18:18:22.669994+01 | 1486747102.66999 | pgbench_accounts |       4133101568
 2017-02-10 18:18:22.669994+01 | 1486747102.66999 | pgbench_tellers  |           139264
 2017-02-10 18:18:22.669994+01 | 1486747102.66999 | pgbench_history  |        251559936
 2017-02-10 18:18:22.669994+01 | 1486747102.66999 | pgbench_branches |            16384

 2017-02-10 18:18:23.738516+01 | 1486747103.73852 | pgbench_accounts |       4133101568
 2017-02-10 18:18:23.738516+01 | 1486747103.73852 | pgbench_tellers  |           139264
 2017-02-10 18:18:23.738516+01 | 1486747103.73852 | pgbench_history  |        252755968
 2017-02-10 18:18:23.738516+01 | 1486747103.73852 | pgbench_branches |            16384

 2017-02-10 18:18:24.811047+01 | 1486747104.81105 | pgbench_accounts |       4133101568
 2017-02-10 18:18:24.811047+01 | 1486747104.81105 | pgbench_tellers  |           139264
 2017-02-10 18:18:24.811047+01 | 1486747104.81105 | pgbench_history  |        253140992
 2017-02-10 18:18:24.811047+01 | 1486747104.81105 | pgbench_branches |            16384

 2017-02-10 18:18:25.885494+01 | 1486747105.88549 | pgbench_accounts |       4133101568
 2017-02-10 18:18:25.885494+01 | 1486747105.88549 | pgbench_tellers  |           139264
 2017-02-10 18:18:25.885494+01 | 1486747105.88549 | pgbench_history  |        254132224
 2017-02-10 18:18:25.885494+01 | 1486747105.88549 | pgbench_branches |            16384

 2017-02-10 18:18:26.96046+01 | 1486747106.96046 | pgbench_accounts |       4133101568
 2017-02-10 18:18:26.96046+01 | 1486747106.96046 | pgbench_tellers  |           139264
 2017-02-10 18:18:26.96046+01 | 1486747106.96046 | pgbench_history  |        254926848
 2017-02-10 18:18:26.96046+01 | 1486747106.96046 | pgbench_branches |            16384

 2017-02-10 18:18:28.043315+01 | 1486747108.04331 | pgbench_accounts |       4133101568
 2017-02-10 18:18:28.043315+01 | 1486747108.04331 | pgbench_tellers  |           139264
 2017-02-10 18:18:28.043315+01 | 1486747108.04331 | pgbench_history  |        256081920
 2017-02-10 18:18:28.043315+01 | 1486747108.04331 | pgbench_branches |            16384

 2017-02-10 18:18:29.114353+01 | 1486747109.11435 | pgbench_accounts |       4133101568
 2017-02-10 18:18:29.114353+01 | 1486747109.11435 | pgbench_tellers  |           139264
 2017-02-10 18:18:29.114353+01 | 1486747109.11435 | pgbench_history  |        257269760
 2017-02-10 18:18:29.114353+01 | 1486747109.11435 | pgbench_branches |            16384

 2017-02-10 18:18:30.192753+01 | 1486747110.19275 | pgbench_accounts |       4133101568
 2017-02-10 18:18:30.192753+01 | 1486747110.19275 | pgbench_tellers  |           139264
 2017-02-10 18:18:30.192753+01 | 1486747110.19275 | pgbench_history  |        258146304
 2017-02-10 18:18:30.192753+01 | 1486747110.19275 | pgbench_branches |            16384

 2017-02-10 18:18:31.265247+01 | 1486747111.26525 | pgbench_accounts |       4133101568
 2017-02-10 18:18:31.265247+01 | 1486747111.26525 | pgbench_tellers  |           139264
 2017-02-10 18:18:31.265247+01 | 1486747111.26525 | pgbench_history  |        258818048
 2017-02-10 18:18:31.265247+01 | 1486747111.26525 | pgbench_branches |            16384

 2017-02-10 18:18:32.346416+01 | 1486747112.34642 | pgbench_accounts |       4133101568
 2017-02-10 18:18:32.346416+01 | 1486747112.34642 | pgbench_tellers  |           139264
 2017-02-10 18:18:32.346416+01 | 1486747112.34642 | pgbench_history  |        259964928
 2017-02-10 18:18:32.346416+01 | 1486747112.34642 | pgbench_branches |            16384

 2017-02-10 18:18:33.420006+01 | 1486747113.42001 | pgbench_accounts |       4133101568
 2017-02-10 18:18:33.420006+01 | 1486747113.42001 | pgbench_tellers  |           139264
 2017-02-10 18:18:33.420006+01 | 1486747113.42001 | pgbench_history  |        260808704
 2017-02-10 18:18:33.420006+01 | 1486747113.42001 | pgbench_branches |            16384

 2017-02-10 18:18:34.504719+01 | 1486747114.50472 | pgbench_accounts |       4133101568
 2017-02-10 18:18:34.504719+01 | 1486747114.50472 | pgbench_tellers  |           139264
 2017-02-10 18:18:34.504719+01 | 1486747114.50472 | pgbench_history  |        262086656
 2017-02-10 18:18:34.504719+01 | 1486747114.50472 | pgbench_branches |            16384

 2017-02-10 18:18:35.590833+01 | 1486747115.59083 | pgbench_accounts |       4133101568
 2017-02-10 18:18:35.590833+01 | 1486747115.59083 | pgbench_tellers  |           139264
 2017-02-10 18:18:35.590833+01 | 1486747115.59083 | pgbench_history  |        262823936
 2017-02-10 18:18:35.590833+01 | 1486747115.59083 | pgbench_branches |            16384

 2017-02-10 18:18:36.669019+01 | 1486747116.66902 | pgbench_accounts |       4133101568
 2017-02-10 18:18:36.669019+01 | 1486747116.66902 | pgbench_tellers  |           139264
 2017-02-10 18:18:36.669019+01 | 1486747116.66902 | pgbench_history  |        263880704
 2017-02-10 18:18:36.669019+01 | 1486747116.66902 | pgbench_branches |            16384

 2017-02-10 18:18:37.731604+01 | 1486747117.7316 | pgbench_accounts |       4133101568
 2017-02-10 18:18:37.731604+01 | 1486747117.7316 | pgbench_tellers  |           139264
 2017-02-10 18:18:37.731604+01 | 1486747117.7316 | pgbench_history  |        264527872
 2017-02-10 18:18:37.731604+01 | 1486747117.7316 | pgbench_branches |            16384

 2017-02-10 18:18:38.818522+01 | 1486747118.81852 | pgbench_accounts |       4133101568
 2017-02-10 18:18:38.818522+01 | 1486747118.81852 | pgbench_tellers  |           139264
 2017-02-10 18:18:38.818522+01 | 1486747118.81852 | pgbench_history  |        266354688
 2017-02-10 18:18:38.818522+01 | 1486747118.81852 | pgbench_branches |            16384

 2017-02-10 18:18:39.903551+01 | 1486747119.90355 | pgbench_accounts |       4133101568
 2017-02-10 18:18:39.903551+01 | 1486747119.90355 | pgbench_tellers  |           139264
 2017-02-10 18:18:39.903551+01 | 1486747119.90355 | pgbench_history  |        266354688
 2017-02-10 18:18:39.903551+01 | 1486747119.90355 | pgbench_branches |            16384

 2017-02-10 18:18:41.005073+01 | 1486747121.00507 | pgbench_accounts |       4133101568
 2017-02-10 18:18:41.005073+01 | 1486747121.00507 | pgbench_tellers  |           139264
 2017-02-10 18:18:41.005073+01 | 1486747121.00507 | pgbench_history  |        267124736
 2017-02-10 18:18:41.005073+01 | 1486747121.00507 | pgbench_branches |            16384

 2017-02-10 18:18:42.082572+01 | 1486747122.08257 | pgbench_accounts |       4133101568
 2017-02-10 18:18:42.082572+01 | 1486747122.08257 | pgbench_tellers  |           139264
 2017-02-10 18:18:42.082572+01 | 1486747122.08257 | pgbench_history  |        269074432
 2017-02-10 18:18:42.082572+01 | 1486747122.08257 | pgbench_branches |            16384

 2017-02-10 18:18:43.156994+01 | 1486747123.15699 | pgbench_accounts |       4133101568
 2017-02-10 18:18:43.156994+01 | 1486747123.15699 | pgbench_tellers  |           139264
 2017-02-10 18:18:43.156994+01 | 1486747123.15699 | pgbench_history  |        269074432
 2017-02-10 18:18:43.156994+01 | 1486747123.15699 | pgbench_branches |            16384

 2017-02-10 18:18:44.236416+01 | 1486747124.23642 | pgbench_accounts |       4133101568
 2017-02-10 18:18:44.236416+01 | 1486747124.23642 | pgbench_tellers  |           139264
 2017-02-10 18:18:44.236416+01 | 1486747124.23642 | pgbench_history  |        270442496
 2017-02-10 18:18:44.236416+01 | 1486747124.23642 | pgbench_branches |            16384

 2017-02-10 18:18:45.334558+01 | 1486747125.33456 | pgbench_accounts |       4133101568
 2017-02-10 18:18:45.334558+01 | 1486747125.33456 | pgbench_tellers  |           139264
 2017-02-10 18:18:45.334558+01 | 1486747125.33456 | pgbench_history  |        271130624
 2017-02-10 18:18:45.334558+01 | 1486747125.33456 | pgbench_branches |            16384

