 2017-02-08 05:47:23.269817+01 | 1486529243.26982 | pgbench_accounts |       4028858368
 2017-02-08 05:47:23.269817+01 | 1486529243.26982 | pgbench_tellers  |           139264
 2017-02-08 05:47:23.269817+01 | 1486529243.26982 | pgbench_history  |                0
 2017-02-08 05:47:23.269817+01 | 1486529243.26982 | pgbench_branches |            16384

 2017-02-08 05:47:24.695671+01 | 1486529244.69567 | pgbench_accounts |       4028858368
 2017-02-08 05:47:24.695671+01 | 1486529244.69567 | pgbench_tellers  |           139264
 2017-02-08 05:47:24.695671+01 | 1486529244.69567 | pgbench_history  |                0
 2017-02-08 05:47:24.695671+01 | 1486529244.69567 | pgbench_branches |            16384

 2017-02-08 05:47:26.10208+01 | 1486529246.10208 | pgbench_accounts |       4028858368
 2017-02-08 05:47:26.10208+01 | 1486529246.10208 | pgbench_tellers  |           139264
 2017-02-08 05:47:26.10208+01 | 1486529246.10208 | pgbench_history  |                0
 2017-02-08 05:47:26.10208+01 | 1486529246.10208 | pgbench_branches |            16384

 2017-02-08 05:47:27.485451+01 | 1486529247.48545 | pgbench_accounts |       4028858368
 2017-02-08 05:47:27.485451+01 | 1486529247.48545 | pgbench_tellers  |           139264
 2017-02-08 05:47:27.485451+01 | 1486529247.48545 | pgbench_history  |                0
 2017-02-08 05:47:27.485451+01 | 1486529247.48545 | pgbench_branches |            16384

 2017-02-08 05:47:28.859478+01 | 1486529248.85948 | pgbench_accounts |       4028858368
 2017-02-08 05:47:28.859478+01 | 1486529248.85948 | pgbench_tellers  |           139264
 2017-02-08 05:47:28.859478+01 | 1486529248.85948 | pgbench_history  |                0
 2017-02-08 05:47:28.859478+01 | 1486529248.85948 | pgbench_branches |            16384

 2017-02-08 05:47:30.241036+01 | 1486529250.24104 | pgbench_accounts |       4028858368
 2017-02-08 05:47:30.241036+01 | 1486529250.24104 | pgbench_tellers  |           139264
 2017-02-08 05:47:30.241036+01 | 1486529250.24104 | pgbench_history  |                0
 2017-02-08 05:47:30.241036+01 | 1486529250.24104 | pgbench_branches |            16384

 2017-02-08 05:47:31.586079+01 | 1486529251.58608 | pgbench_accounts |       4028858368
 2017-02-08 05:47:31.586079+01 | 1486529251.58608 | pgbench_tellers  |           139264
 2017-02-08 05:47:31.586079+01 | 1486529251.58608 | pgbench_history  |                0
 2017-02-08 05:47:31.586079+01 | 1486529251.58608 | pgbench_branches |            16384

 2017-02-08 05:47:32.948216+01 | 1486529252.94822 | pgbench_accounts |       4028858368
 2017-02-08 05:47:32.948216+01 | 1486529252.94822 | pgbench_tellers  |           139264
 2017-02-08 05:47:32.948216+01 | 1486529252.94822 | pgbench_history  |                0
 2017-02-08 05:47:32.948216+01 | 1486529252.94822 | pgbench_branches |            16384

 2017-02-08 05:47:34.30408+01 | 1486529254.30408 | pgbench_accounts |       4028858368
 2017-02-08 05:47:34.30408+01 | 1486529254.30408 | pgbench_tellers  |           139264
 2017-02-08 05:47:34.30408+01 | 1486529254.30408 | pgbench_history  |                0
 2017-02-08 05:47:34.30408+01 | 1486529254.30408 | pgbench_branches |            16384

 2017-02-08 05:47:35.613844+01 | 1486529255.61384 | pgbench_accounts |       4028858368
 2017-02-08 05:47:35.613844+01 | 1486529255.61384 | pgbench_tellers  |           139264
 2017-02-08 05:47:35.613844+01 | 1486529255.61384 | pgbench_history  |                0
 2017-02-08 05:47:35.613844+01 | 1486529255.61384 | pgbench_branches |            16384

 2017-02-08 05:47:36.952217+01 | 1486529256.95222 | pgbench_accounts |       4028858368
 2017-02-08 05:47:36.952217+01 | 1486529256.95222 | pgbench_tellers  |           139264
 2017-02-08 05:47:36.952217+01 | 1486529256.95222 | pgbench_history  |                0
 2017-02-08 05:47:36.952217+01 | 1486529256.95222 | pgbench_branches |            16384

 2017-02-08 05:47:38.256056+01 | 1486529258.25606 | pgbench_accounts |       4028858368
 2017-02-08 05:47:38.256056+01 | 1486529258.25606 | pgbench_tellers  |           139264
 2017-02-08 05:47:38.256056+01 | 1486529258.25606 | pgbench_history  |                0
 2017-02-08 05:47:38.256056+01 | 1486529258.25606 | pgbench_branches |            16384

 2017-02-08 05:47:39.652811+01 | 1486529259.65281 | pgbench_accounts |       4028858368
 2017-02-08 05:47:39.652811+01 | 1486529259.65281 | pgbench_tellers  |           139264
 2017-02-08 05:47:39.652811+01 | 1486529259.65281 | pgbench_history  |                0
 2017-02-08 05:47:39.652811+01 | 1486529259.65281 | pgbench_branches |            16384

 2017-02-08 05:47:41.017306+01 | 1486529261.01731 | pgbench_accounts |       4028858368
 2017-02-08 05:47:41.017306+01 | 1486529261.01731 | pgbench_tellers  |           139264
 2017-02-08 05:47:41.017306+01 | 1486529261.01731 | pgbench_history  |                0
 2017-02-08 05:47:41.017306+01 | 1486529261.01731 | pgbench_branches |            16384

 2017-02-08 05:47:42.368967+01 | 1486529262.36897 | pgbench_accounts |       4028858368
 2017-02-08 05:47:42.368967+01 | 1486529262.36897 | pgbench_tellers  |           139264
 2017-02-08 05:47:42.368967+01 | 1486529262.36897 | pgbench_history  |                0
 2017-02-08 05:47:42.368967+01 | 1486529262.36897 | pgbench_branches |            16384

 2017-02-08 05:47:43.71382+01 | 1486529263.71382 | pgbench_accounts |       4028858368
 2017-02-08 05:47:43.71382+01 | 1486529263.71382 | pgbench_tellers  |           139264
 2017-02-08 05:47:43.71382+01 | 1486529263.71382 | pgbench_history  |                0
 2017-02-08 05:47:43.71382+01 | 1486529263.71382 | pgbench_branches |            16384

 2017-02-08 05:47:45.079382+01 | 1486529265.07938 | pgbench_accounts |       4028858368
 2017-02-08 05:47:45.079382+01 | 1486529265.07938 | pgbench_tellers  |           139264
 2017-02-08 05:47:45.079382+01 | 1486529265.07938 | pgbench_history  |                0
 2017-02-08 05:47:45.079382+01 | 1486529265.07938 | pgbench_branches |            16384

 2017-02-08 05:47:46.45647+01 | 1486529266.45647 | pgbench_accounts |       4028858368
 2017-02-08 05:47:46.45647+01 | 1486529266.45647 | pgbench_tellers  |           139264
 2017-02-08 05:47:46.45647+01 | 1486529266.45647 | pgbench_history  |                0
 2017-02-08 05:47:46.45647+01 | 1486529266.45647 | pgbench_branches |            16384

 2017-02-08 05:47:47.83782+01 | 1486529267.83782 | pgbench_accounts |       4028858368
 2017-02-08 05:47:47.83782+01 | 1486529267.83782 | pgbench_tellers  |           139264
 2017-02-08 05:47:47.83782+01 | 1486529267.83782 | pgbench_history  |                0
 2017-02-08 05:47:47.83782+01 | 1486529267.83782 | pgbench_branches |            16384

 2017-02-08 05:47:49.138638+01 | 1486529269.13864 | pgbench_accounts |       4028858368
 2017-02-08 05:47:49.138638+01 | 1486529269.13864 | pgbench_tellers  |           139264
 2017-02-08 05:47:49.138638+01 | 1486529269.13864 | pgbench_history  |                0
 2017-02-08 05:47:49.138638+01 | 1486529269.13864 | pgbench_branches |            16384

 2017-02-08 05:47:50.513377+01 | 1486529270.51338 | pgbench_accounts |       4028858368
 2017-02-08 05:47:50.513377+01 | 1486529270.51338 | pgbench_tellers  |           139264
 2017-02-08 05:47:50.513377+01 | 1486529270.51338 | pgbench_history  |                0
 2017-02-08 05:47:50.513377+01 | 1486529270.51338 | pgbench_branches |            16384

 2017-02-08 05:47:51.907432+01 | 1486529271.90743 | pgbench_accounts |       4028858368
 2017-02-08 05:47:51.907432+01 | 1486529271.90743 | pgbench_tellers  |           139264
 2017-02-08 05:47:51.907432+01 | 1486529271.90743 | pgbench_history  |                0
 2017-02-08 05:47:51.907432+01 | 1486529271.90743 | pgbench_branches |            16384

 2017-02-08 05:47:53.251502+01 | 1486529273.2515 | pgbench_accounts |       4028858368
 2017-02-08 05:47:53.251502+01 | 1486529273.2515 | pgbench_tellers  |           139264
 2017-02-08 05:47:53.251502+01 | 1486529273.2515 | pgbench_history  |                0
 2017-02-08 05:47:53.251502+01 | 1486529273.2515 | pgbench_branches |            16384

 2017-02-08 05:47:54.592996+01 | 1486529274.593 | pgbench_accounts |       4028858368
 2017-02-08 05:47:54.592996+01 | 1486529274.593 | pgbench_tellers  |           139264
 2017-02-08 05:47:54.592996+01 | 1486529274.593 | pgbench_history  |                0
 2017-02-08 05:47:54.592996+01 | 1486529274.593 | pgbench_branches |            16384

 2017-02-08 05:47:55.966186+01 | 1486529275.96619 | pgbench_accounts |       4028858368
 2017-02-08 05:47:55.966186+01 | 1486529275.96619 | pgbench_tellers  |           139264
 2017-02-08 05:47:55.966186+01 | 1486529275.96619 | pgbench_history  |                0
 2017-02-08 05:47:55.966186+01 | 1486529275.96619 | pgbench_branches |            16384

 2017-02-08 05:47:57.29162+01 | 1486529277.29162 | pgbench_accounts |       4028858368
 2017-02-08 05:47:57.29162+01 | 1486529277.29162 | pgbench_tellers  |           139264
 2017-02-08 05:47:57.29162+01 | 1486529277.29162 | pgbench_history  |                0
 2017-02-08 05:47:57.29162+01 | 1486529277.29162 | pgbench_branches |            16384

 2017-02-08 05:47:58.620499+01 | 1486529278.6205 | pgbench_accounts |       4028858368
 2017-02-08 05:47:58.620499+01 | 1486529278.6205 | pgbench_tellers  |           139264
 2017-02-08 05:47:58.620499+01 | 1486529278.6205 | pgbench_history  |                0
 2017-02-08 05:47:58.620499+01 | 1486529278.6205 | pgbench_branches |            16384

 2017-02-08 05:47:59.981612+01 | 1486529279.98161 | pgbench_accounts |       4028858368
 2017-02-08 05:47:59.981612+01 | 1486529279.98161 | pgbench_tellers  |           139264
 2017-02-08 05:47:59.981612+01 | 1486529279.98161 | pgbench_history  |                0
 2017-02-08 05:47:59.981612+01 | 1486529279.98161 | pgbench_branches |            16384

 2017-02-08 05:48:01.321875+01 | 1486529281.32188 | pgbench_accounts |       4028858368
 2017-02-08 05:48:01.321875+01 | 1486529281.32188 | pgbench_tellers  |           139264
 2017-02-08 05:48:01.321875+01 | 1486529281.32188 | pgbench_history  |                0
 2017-02-08 05:48:01.321875+01 | 1486529281.32188 | pgbench_branches |            16384

 2017-02-08 05:48:02.69127+01 | 1486529282.69127 | pgbench_accounts |       4028858368
 2017-02-08 05:48:02.69127+01 | 1486529282.69127 | pgbench_tellers  |           139264
 2017-02-08 05:48:02.69127+01 | 1486529282.69127 | pgbench_history  |                0
 2017-02-08 05:48:02.69127+01 | 1486529282.69127 | pgbench_branches |            16384

 2017-02-08 05:48:04.067574+01 | 1486529284.06757 | pgbench_accounts |       4028858368
 2017-02-08 05:48:04.067574+01 | 1486529284.06757 | pgbench_tellers  |           139264
 2017-02-08 05:48:04.067574+01 | 1486529284.06757 | pgbench_history  |                0
 2017-02-08 05:48:04.067574+01 | 1486529284.06757 | pgbench_branches |            16384

 2017-02-08 05:48:05.434507+01 | 1486529285.43451 | pgbench_accounts |       4028858368
 2017-02-08 05:48:05.434507+01 | 1486529285.43451 | pgbench_tellers  |           139264
 2017-02-08 05:48:05.434507+01 | 1486529285.43451 | pgbench_history  |                0
 2017-02-08 05:48:05.434507+01 | 1486529285.43451 | pgbench_branches |            16384

 2017-02-08 05:48:06.807844+01 | 1486529286.80784 | pgbench_accounts |       4028858368
 2017-02-08 05:48:06.807844+01 | 1486529286.80784 | pgbench_tellers  |           139264
 2017-02-08 05:48:06.807844+01 | 1486529286.80784 | pgbench_history  |                0
 2017-02-08 05:48:06.807844+01 | 1486529286.80784 | pgbench_branches |            16384

 2017-02-08 05:48:08.112468+01 | 1486529288.11247 | pgbench_accounts |       4028858368
 2017-02-08 05:48:08.112468+01 | 1486529288.11247 | pgbench_tellers  |           139264
 2017-02-08 05:48:08.112468+01 | 1486529288.11247 | pgbench_history  |                0
 2017-02-08 05:48:08.112468+01 | 1486529288.11247 | pgbench_branches |            16384

 2017-02-08 05:48:09.417473+01 | 1486529289.41747 | pgbench_accounts |       4028858368
 2017-02-08 05:48:09.417473+01 | 1486529289.41747 | pgbench_tellers  |           139264
 2017-02-08 05:48:09.417473+01 | 1486529289.41747 | pgbench_history  |                0
 2017-02-08 05:48:09.417473+01 | 1486529289.41747 | pgbench_branches |            16384

 2017-02-08 05:48:10.740512+01 | 1486529290.74051 | pgbench_accounts |       4028858368
 2017-02-08 05:48:10.740512+01 | 1486529290.74051 | pgbench_tellers  |           139264
 2017-02-08 05:48:10.740512+01 | 1486529290.74051 | pgbench_history  |                0
 2017-02-08 05:48:10.740512+01 | 1486529290.74051 | pgbench_branches |            16384

 2017-02-08 05:48:12.108593+01 | 1486529292.10859 | pgbench_accounts |       4028858368
 2017-02-08 05:48:12.108593+01 | 1486529292.10859 | pgbench_tellers  |           139264
 2017-02-08 05:48:12.108593+01 | 1486529292.10859 | pgbench_history  |                0
 2017-02-08 05:48:12.108593+01 | 1486529292.10859 | pgbench_branches |            16384

 2017-02-08 05:48:13.500116+01 | 1486529293.50012 | pgbench_accounts |       4028858368
 2017-02-08 05:48:13.500116+01 | 1486529293.50012 | pgbench_tellers  |           139264
 2017-02-08 05:48:13.500116+01 | 1486529293.50012 | pgbench_history  |                0
 2017-02-08 05:48:13.500116+01 | 1486529293.50012 | pgbench_branches |            16384

 2017-02-08 05:48:14.860797+01 | 1486529294.8608 | pgbench_accounts |       4028858368
 2017-02-08 05:48:14.860797+01 | 1486529294.8608 | pgbench_tellers  |           139264
 2017-02-08 05:48:14.860797+01 | 1486529294.8608 | pgbench_history  |                0
 2017-02-08 05:48:14.860797+01 | 1486529294.8608 | pgbench_branches |            16384

 2017-02-08 05:48:16.228835+01 | 1486529296.22884 | pgbench_accounts |       4028858368
 2017-02-08 05:48:16.228835+01 | 1486529296.22884 | pgbench_tellers  |           139264
 2017-02-08 05:48:16.228835+01 | 1486529296.22884 | pgbench_history  |                0
 2017-02-08 05:48:16.228835+01 | 1486529296.22884 | pgbench_branches |            16384

 2017-02-08 05:48:17.580408+01 | 1486529297.58041 | pgbench_accounts |       4028858368
 2017-02-08 05:48:17.580408+01 | 1486529297.58041 | pgbench_tellers  |           139264
 2017-02-08 05:48:17.580408+01 | 1486529297.58041 | pgbench_history  |                0
 2017-02-08 05:48:17.580408+01 | 1486529297.58041 | pgbench_branches |            16384

 2017-02-08 05:48:18.983059+01 | 1486529298.98306 | pgbench_accounts |       4028858368
 2017-02-08 05:48:18.983059+01 | 1486529298.98306 | pgbench_tellers  |           139264
 2017-02-08 05:48:18.983059+01 | 1486529298.98306 | pgbench_history  |                0
 2017-02-08 05:48:18.983059+01 | 1486529298.98306 | pgbench_branches |            16384

 2017-02-08 05:48:20.353403+01 | 1486529300.3534 | pgbench_accounts |       4028858368
 2017-02-08 05:48:20.353403+01 | 1486529300.3534 | pgbench_tellers  |           139264
 2017-02-08 05:48:20.353403+01 | 1486529300.3534 | pgbench_history  |                0
 2017-02-08 05:48:20.353403+01 | 1486529300.3534 | pgbench_branches |            16384

 2017-02-08 05:48:21.685338+01 | 1486529301.68534 | pgbench_accounts |       4028858368
 2017-02-08 05:48:21.685338+01 | 1486529301.68534 | pgbench_tellers  |           139264
 2017-02-08 05:48:21.685338+01 | 1486529301.68534 | pgbench_history  |                0
 2017-02-08 05:48:21.685338+01 | 1486529301.68534 | pgbench_branches |            16384

 2017-02-08 05:48:23.042506+01 | 1486529303.04251 | pgbench_accounts |       4028858368
 2017-02-08 05:48:23.042506+01 | 1486529303.04251 | pgbench_tellers  |           139264
 2017-02-08 05:48:23.042506+01 | 1486529303.04251 | pgbench_history  |                0
 2017-02-08 05:48:23.042506+01 | 1486529303.04251 | pgbench_branches |            16384

 2017-02-08 05:48:24.428384+01 | 1486529304.42838 | pgbench_accounts |       4028858368
 2017-02-08 05:48:24.428384+01 | 1486529304.42838 | pgbench_tellers  |           139264
 2017-02-08 05:48:24.428384+01 | 1486529304.42838 | pgbench_history  |                0
 2017-02-08 05:48:24.428384+01 | 1486529304.42838 | pgbench_branches |            16384

 2017-02-08 05:48:25.736945+01 | 1486529305.73694 | pgbench_accounts |       4028858368
 2017-02-08 05:48:25.736945+01 | 1486529305.73694 | pgbench_tellers  |           139264
 2017-02-08 05:48:25.736945+01 | 1486529305.73694 | pgbench_history  |                0
 2017-02-08 05:48:25.736945+01 | 1486529305.73694 | pgbench_branches |            16384

 2017-02-08 05:48:27.085879+01 | 1486529307.08588 | pgbench_accounts |       4028858368
 2017-02-08 05:48:27.085879+01 | 1486529307.08588 | pgbench_tellers  |           139264
 2017-02-08 05:48:27.085879+01 | 1486529307.08588 | pgbench_history  |                0
 2017-02-08 05:48:27.085879+01 | 1486529307.08588 | pgbench_branches |            16384

 2017-02-08 05:48:28.404005+01 | 1486529308.40401 | pgbench_accounts |       4028858368
 2017-02-08 05:48:28.404005+01 | 1486529308.40401 | pgbench_tellers  |           139264
 2017-02-08 05:48:28.404005+01 | 1486529308.40401 | pgbench_history  |                0
 2017-02-08 05:48:28.404005+01 | 1486529308.40401 | pgbench_branches |            16384

 2017-02-08 05:48:29.763023+01 | 1486529309.76302 | pgbench_accounts |       4028858368
 2017-02-08 05:48:29.763023+01 | 1486529309.76302 | pgbench_tellers  |           139264
 2017-02-08 05:48:29.763023+01 | 1486529309.76302 | pgbench_history  |                0
 2017-02-08 05:48:29.763023+01 | 1486529309.76302 | pgbench_branches |            16384

 2017-02-08 05:48:31.113926+01 | 1486529311.11393 | pgbench_accounts |       4028858368
 2017-02-08 05:48:31.113926+01 | 1486529311.11393 | pgbench_tellers  |           139264
 2017-02-08 05:48:31.113926+01 | 1486529311.11393 | pgbench_history  |                0
 2017-02-08 05:48:31.113926+01 | 1486529311.11393 | pgbench_branches |            16384

 2017-02-08 05:48:32.476591+01 | 1486529312.47659 | pgbench_accounts |       4028858368
 2017-02-08 05:48:32.476591+01 | 1486529312.47659 | pgbench_tellers  |           139264
 2017-02-08 05:48:32.476591+01 | 1486529312.47659 | pgbench_history  |                0
 2017-02-08 05:48:32.476591+01 | 1486529312.47659 | pgbench_branches |            16384

 2017-02-08 05:48:33.874208+01 | 1486529313.87421 | pgbench_accounts |       4028858368
 2017-02-08 05:48:33.874208+01 | 1486529313.87421 | pgbench_tellers  |           139264
 2017-02-08 05:48:33.874208+01 | 1486529313.87421 | pgbench_history  |                0
 2017-02-08 05:48:33.874208+01 | 1486529313.87421 | pgbench_branches |            16384

 2017-02-08 05:48:35.287511+01 | 1486529315.28751 | pgbench_accounts |       4028858368
 2017-02-08 05:48:35.287511+01 | 1486529315.28751 | pgbench_tellers  |           139264
 2017-02-08 05:48:35.287511+01 | 1486529315.28751 | pgbench_history  |                0
 2017-02-08 05:48:35.287511+01 | 1486529315.28751 | pgbench_branches |            16384

 2017-02-08 05:48:36.675537+01 | 1486529316.67554 | pgbench_accounts |       4028858368
 2017-02-08 05:48:36.675537+01 | 1486529316.67554 | pgbench_tellers  |           139264
 2017-02-08 05:48:36.675537+01 | 1486529316.67554 | pgbench_history  |                0
 2017-02-08 05:48:36.675537+01 | 1486529316.67554 | pgbench_branches |            16384

 2017-02-08 05:48:38.024815+01 | 1486529318.02482 | pgbench_accounts |       4028858368
 2017-02-08 05:48:38.024815+01 | 1486529318.02482 | pgbench_tellers  |           139264
 2017-02-08 05:48:38.024815+01 | 1486529318.02482 | pgbench_history  |                0
 2017-02-08 05:48:38.024815+01 | 1486529318.02482 | pgbench_branches |            16384

 2017-02-08 05:48:39.385708+01 | 1486529319.38571 | pgbench_accounts |       4028858368
 2017-02-08 05:48:39.385708+01 | 1486529319.38571 | pgbench_tellers  |           139264
 2017-02-08 05:48:39.385708+01 | 1486529319.38571 | pgbench_history  |                0
 2017-02-08 05:48:39.385708+01 | 1486529319.38571 | pgbench_branches |            16384

 2017-02-08 05:48:40.746128+01 | 1486529320.74613 | pgbench_accounts |       4028858368
 2017-02-08 05:48:40.746128+01 | 1486529320.74613 | pgbench_tellers  |           139264
 2017-02-08 05:48:40.746128+01 | 1486529320.74613 | pgbench_history  |                0
 2017-02-08 05:48:40.746128+01 | 1486529320.74613 | pgbench_branches |            16384

 2017-02-08 05:48:42.104374+01 | 1486529322.10437 | pgbench_accounts |       4028858368
 2017-02-08 05:48:42.104374+01 | 1486529322.10437 | pgbench_tellers  |           139264
 2017-02-08 05:48:42.104374+01 | 1486529322.10437 | pgbench_history  |                0
 2017-02-08 05:48:42.104374+01 | 1486529322.10437 | pgbench_branches |            16384

 2017-02-08 05:48:43.48475+01 | 1486529323.48475 | pgbench_accounts |       4028858368
 2017-02-08 05:48:43.48475+01 | 1486529323.48475 | pgbench_tellers  |           139264
 2017-02-08 05:48:43.48475+01 | 1486529323.48475 | pgbench_history  |                0
 2017-02-08 05:48:43.48475+01 | 1486529323.48475 | pgbench_branches |            16384

 2017-02-08 05:48:44.89777+01 | 1486529324.89777 | pgbench_accounts |       4028858368
 2017-02-08 05:48:44.89777+01 | 1486529324.89777 | pgbench_tellers  |           139264
 2017-02-08 05:48:44.89777+01 | 1486529324.89777 | pgbench_history  |                0
 2017-02-08 05:48:44.89777+01 | 1486529324.89777 | pgbench_branches |            16384

 2017-02-08 05:48:46.21458+01 | 1486529326.21458 | pgbench_accounts |       4028858368
 2017-02-08 05:48:46.21458+01 | 1486529326.21458 | pgbench_tellers  |           139264
 2017-02-08 05:48:46.21458+01 | 1486529326.21458 | pgbench_history  |                0
 2017-02-08 05:48:46.21458+01 | 1486529326.21458 | pgbench_branches |            16384

 2017-02-08 05:48:47.527744+01 | 1486529327.52774 | pgbench_accounts |       4028858368
 2017-02-08 05:48:47.527744+01 | 1486529327.52774 | pgbench_tellers  |           139264
 2017-02-08 05:48:47.527744+01 | 1486529327.52774 | pgbench_history  |                0
 2017-02-08 05:48:47.527744+01 | 1486529327.52774 | pgbench_branches |            16384

 2017-02-08 05:48:48.900075+01 | 1486529328.90007 | pgbench_accounts |       4028858368
 2017-02-08 05:48:48.900075+01 | 1486529328.90007 | pgbench_tellers  |           139264
 2017-02-08 05:48:48.900075+01 | 1486529328.90007 | pgbench_history  |                0
 2017-02-08 05:48:48.900075+01 | 1486529328.90007 | pgbench_branches |            16384

 2017-02-08 05:48:50.297195+01 | 1486529330.29719 | pgbench_accounts |       4028858368
 2017-02-08 05:48:50.297195+01 | 1486529330.29719 | pgbench_tellers  |           139264
 2017-02-08 05:48:50.297195+01 | 1486529330.29719 | pgbench_history  |                0
 2017-02-08 05:48:50.297195+01 | 1486529330.29719 | pgbench_branches |            16384

 2017-02-08 05:48:51.631632+01 | 1486529331.63163 | pgbench_accounts |       4028858368
 2017-02-08 05:48:51.631632+01 | 1486529331.63163 | pgbench_tellers  |           139264
 2017-02-08 05:48:51.631632+01 | 1486529331.63163 | pgbench_history  |                0
 2017-02-08 05:48:51.631632+01 | 1486529331.63163 | pgbench_branches |            16384

 2017-02-08 05:48:52.965572+01 | 1486529332.96557 | pgbench_accounts |       4028858368
 2017-02-08 05:48:52.965572+01 | 1486529332.96557 | pgbench_tellers  |           139264
 2017-02-08 05:48:52.965572+01 | 1486529332.96557 | pgbench_history  |                0
 2017-02-08 05:48:52.965572+01 | 1486529332.96557 | pgbench_branches |            16384

 2017-02-08 05:48:54.333754+01 | 1486529334.33375 | pgbench_accounts |       4028858368
 2017-02-08 05:48:54.333754+01 | 1486529334.33375 | pgbench_tellers  |           139264
 2017-02-08 05:48:54.333754+01 | 1486529334.33375 | pgbench_history  |                0
 2017-02-08 05:48:54.333754+01 | 1486529334.33375 | pgbench_branches |            16384

 2017-02-08 05:48:55.661364+01 | 1486529335.66136 | pgbench_accounts |       4028858368
 2017-02-08 05:48:55.661364+01 | 1486529335.66136 | pgbench_tellers  |           139264
 2017-02-08 05:48:55.661364+01 | 1486529335.66136 | pgbench_history  |                0
 2017-02-08 05:48:55.661364+01 | 1486529335.66136 | pgbench_branches |            16384

 2017-02-08 05:48:57.062503+01 | 1486529337.0625 | pgbench_accounts |       4028858368
 2017-02-08 05:48:57.062503+01 | 1486529337.0625 | pgbench_tellers  |           139264
 2017-02-08 05:48:57.062503+01 | 1486529337.0625 | pgbench_history  |                0
 2017-02-08 05:48:57.062503+01 | 1486529337.0625 | pgbench_branches |            16384

 2017-02-08 05:48:58.410251+01 | 1486529338.41025 | pgbench_accounts |       4028858368
 2017-02-08 05:48:58.410251+01 | 1486529338.41025 | pgbench_tellers  |           139264
 2017-02-08 05:48:58.410251+01 | 1486529338.41025 | pgbench_history  |                0
 2017-02-08 05:48:58.410251+01 | 1486529338.41025 | pgbench_branches |            16384

 2017-02-08 05:48:59.7886+01 | 1486529339.7886 | pgbench_accounts |       4028858368
 2017-02-08 05:48:59.7886+01 | 1486529339.7886 | pgbench_tellers  |           139264
 2017-02-08 05:48:59.7886+01 | 1486529339.7886 | pgbench_history  |                0
 2017-02-08 05:48:59.7886+01 | 1486529339.7886 | pgbench_branches |            16384

 2017-02-08 05:49:01.170944+01 | 1486529341.17094 | pgbench_accounts |       4028858368
 2017-02-08 05:49:01.170944+01 | 1486529341.17094 | pgbench_tellers  |           139264
 2017-02-08 05:49:01.170944+01 | 1486529341.17094 | pgbench_history  |                0
 2017-02-08 05:49:01.170944+01 | 1486529341.17094 | pgbench_branches |            16384

 2017-02-08 05:49:02.548205+01 | 1486529342.5482 | pgbench_accounts |       4028858368
 2017-02-08 05:49:02.548205+01 | 1486529342.5482 | pgbench_tellers  |           139264
 2017-02-08 05:49:02.548205+01 | 1486529342.5482 | pgbench_history  |                0
 2017-02-08 05:49:02.548205+01 | 1486529342.5482 | pgbench_branches |            16384

 2017-02-08 05:49:03.984312+01 | 1486529343.98431 | pgbench_accounts |       4028858368
 2017-02-08 05:49:03.984312+01 | 1486529343.98431 | pgbench_tellers  |           139264
 2017-02-08 05:49:03.984312+01 | 1486529343.98431 | pgbench_history  |                0
 2017-02-08 05:49:03.984312+01 | 1486529343.98431 | pgbench_branches |            16384

 2017-02-08 05:49:05.365941+01 | 1486529345.36594 | pgbench_accounts |       4028858368
 2017-02-08 05:49:05.365941+01 | 1486529345.36594 | pgbench_tellers  |           139264
 2017-02-08 05:49:05.365941+01 | 1486529345.36594 | pgbench_history  |                0
 2017-02-08 05:49:05.365941+01 | 1486529345.36594 | pgbench_branches |            16384

 2017-02-08 05:49:06.767321+01 | 1486529346.76732 | pgbench_accounts |       4028858368
 2017-02-08 05:49:06.767321+01 | 1486529346.76732 | pgbench_tellers  |           139264
 2017-02-08 05:49:06.767321+01 | 1486529346.76732 | pgbench_history  |                0
 2017-02-08 05:49:06.767321+01 | 1486529346.76732 | pgbench_branches |            16384

 2017-02-08 05:49:08.111668+01 | 1486529348.11167 | pgbench_accounts |       4028858368
 2017-02-08 05:49:08.111668+01 | 1486529348.11167 | pgbench_tellers  |           139264
 2017-02-08 05:49:08.111668+01 | 1486529348.11167 | pgbench_history  |                0
 2017-02-08 05:49:08.111668+01 | 1486529348.11167 | pgbench_branches |            16384

 2017-02-08 05:49:09.482032+01 | 1486529349.48203 | pgbench_accounts |       4028858368
 2017-02-08 05:49:09.482032+01 | 1486529349.48203 | pgbench_tellers  |           139264
 2017-02-08 05:49:09.482032+01 | 1486529349.48203 | pgbench_history  |                0
 2017-02-08 05:49:09.482032+01 | 1486529349.48203 | pgbench_branches |            16384

 2017-02-08 05:49:10.809854+01 | 1486529350.80985 | pgbench_accounts |       4028858368
 2017-02-08 05:49:10.809854+01 | 1486529350.80985 | pgbench_tellers  |           139264
 2017-02-08 05:49:10.809854+01 | 1486529350.80985 | pgbench_history  |                0
 2017-02-08 05:49:10.809854+01 | 1486529350.80985 | pgbench_branches |            16384

 2017-02-08 05:49:12.164355+01 | 1486529352.16436 | pgbench_accounts |       4028858368
 2017-02-08 05:49:12.164355+01 | 1486529352.16436 | pgbench_tellers  |           139264
 2017-02-08 05:49:12.164355+01 | 1486529352.16436 | pgbench_history  |                0
 2017-02-08 05:49:12.164355+01 | 1486529352.16436 | pgbench_branches |            16384

 2017-02-08 05:49:13.532528+01 | 1486529353.53253 | pgbench_accounts |       4028858368
 2017-02-08 05:49:13.532528+01 | 1486529353.53253 | pgbench_tellers  |           139264
 2017-02-08 05:49:13.532528+01 | 1486529353.53253 | pgbench_history  |                0
 2017-02-08 05:49:13.532528+01 | 1486529353.53253 | pgbench_branches |            16384

 2017-02-08 05:49:14.893166+01 | 1486529354.89317 | pgbench_accounts |       4028858368
 2017-02-08 05:49:14.893166+01 | 1486529354.89317 | pgbench_tellers  |           139264
 2017-02-08 05:49:14.893166+01 | 1486529354.89317 | pgbench_history  |                0
 2017-02-08 05:49:14.893166+01 | 1486529354.89317 | pgbench_branches |            16384

 2017-02-08 05:49:16.272229+01 | 1486529356.27223 | pgbench_accounts |       4028858368
 2017-02-08 05:49:16.272229+01 | 1486529356.27223 | pgbench_tellers  |           139264
 2017-02-08 05:49:16.272229+01 | 1486529356.27223 | pgbench_history  |                0
 2017-02-08 05:49:16.272229+01 | 1486529356.27223 | pgbench_branches |            16384

 2017-02-08 05:49:17.651592+01 | 1486529357.65159 | pgbench_accounts |       4028858368
 2017-02-08 05:49:17.651592+01 | 1486529357.65159 | pgbench_tellers  |           139264
 2017-02-08 05:49:17.651592+01 | 1486529357.65159 | pgbench_history  |                0
 2017-02-08 05:49:17.651592+01 | 1486529357.65159 | pgbench_branches |            16384

 2017-02-08 05:49:18.964296+01 | 1486529358.9643 | pgbench_accounts |       4028858368
 2017-02-08 05:49:18.964296+01 | 1486529358.9643 | pgbench_tellers  |           139264
 2017-02-08 05:49:18.964296+01 | 1486529358.9643 | pgbench_history  |                0
 2017-02-08 05:49:18.964296+01 | 1486529358.9643 | pgbench_branches |            16384

 2017-02-08 05:49:20.310675+01 | 1486529360.31067 | pgbench_accounts |       4028858368
 2017-02-08 05:49:20.310675+01 | 1486529360.31067 | pgbench_tellers  |           139264
 2017-02-08 05:49:20.310675+01 | 1486529360.31067 | pgbench_history  |                0
 2017-02-08 05:49:20.310675+01 | 1486529360.31067 | pgbench_branches |            16384

 2017-02-08 05:49:21.655143+01 | 1486529361.65514 | pgbench_accounts |       4028858368
 2017-02-08 05:49:21.655143+01 | 1486529361.65514 | pgbench_tellers  |           139264
 2017-02-08 05:49:21.655143+01 | 1486529361.65514 | pgbench_history  |                0
 2017-02-08 05:49:21.655143+01 | 1486529361.65514 | pgbench_branches |            16384

 2017-02-08 05:49:23.008284+01 | 1486529363.00828 | pgbench_accounts |       4028858368
 2017-02-08 05:49:23.008284+01 | 1486529363.00828 | pgbench_tellers  |           139264
 2017-02-08 05:49:23.008284+01 | 1486529363.00828 | pgbench_history  |                0
 2017-02-08 05:49:23.008284+01 | 1486529363.00828 | pgbench_branches |            16384

 2017-02-08 05:49:24.400705+01 | 1486529364.40071 | pgbench_accounts |       4028858368
 2017-02-08 05:49:24.400705+01 | 1486529364.40071 | pgbench_tellers  |           139264
 2017-02-08 05:49:24.400705+01 | 1486529364.40071 | pgbench_history  |                0
 2017-02-08 05:49:24.400705+01 | 1486529364.40071 | pgbench_branches |            16384

 2017-02-08 05:49:25.797476+01 | 1486529365.79748 | pgbench_accounts |       4028858368
 2017-02-08 05:49:25.797476+01 | 1486529365.79748 | pgbench_tellers  |           139264
 2017-02-08 05:49:25.797476+01 | 1486529365.79748 | pgbench_history  |                0
 2017-02-08 05:49:25.797476+01 | 1486529365.79748 | pgbench_branches |            16384

 2017-02-08 05:49:27.175134+01 | 1486529367.17513 | pgbench_accounts |       4028858368
 2017-02-08 05:49:27.175134+01 | 1486529367.17513 | pgbench_tellers  |           139264
 2017-02-08 05:49:27.175134+01 | 1486529367.17513 | pgbench_history  |                0
 2017-02-08 05:49:27.175134+01 | 1486529367.17513 | pgbench_branches |            16384

 2017-02-08 05:49:28.570256+01 | 1486529368.57026 | pgbench_accounts |       4028858368
 2017-02-08 05:49:28.570256+01 | 1486529368.57026 | pgbench_tellers  |           139264
 2017-02-08 05:49:28.570256+01 | 1486529368.57026 | pgbench_history  |                0
 2017-02-08 05:49:28.570256+01 | 1486529368.57026 | pgbench_branches |            16384

 2017-02-08 05:49:29.95528+01 | 1486529369.95528 | pgbench_accounts |       4028858368
 2017-02-08 05:49:29.95528+01 | 1486529369.95528 | pgbench_tellers  |           139264
 2017-02-08 05:49:29.95528+01 | 1486529369.95528 | pgbench_history  |                0
 2017-02-08 05:49:29.95528+01 | 1486529369.95528 | pgbench_branches |            16384

 2017-02-08 05:49:31.29892+01 | 1486529371.29892 | pgbench_accounts |       4028858368
 2017-02-08 05:49:31.29892+01 | 1486529371.29892 | pgbench_tellers  |           139264
 2017-02-08 05:49:31.29892+01 | 1486529371.29892 | pgbench_history  |                0
 2017-02-08 05:49:31.29892+01 | 1486529371.29892 | pgbench_branches |            16384

 2017-02-08 05:49:32.673288+01 | 1486529372.67329 | pgbench_accounts |       4028858368
 2017-02-08 05:49:32.673288+01 | 1486529372.67329 | pgbench_tellers  |           139264
 2017-02-08 05:49:32.673288+01 | 1486529372.67329 | pgbench_history  |                0
 2017-02-08 05:49:32.673288+01 | 1486529372.67329 | pgbench_branches |            16384

 2017-02-08 05:49:34.035124+01 | 1486529374.03512 | pgbench_accounts |       4028858368
 2017-02-08 05:49:34.035124+01 | 1486529374.03512 | pgbench_tellers  |           139264
 2017-02-08 05:49:34.035124+01 | 1486529374.03512 | pgbench_history  |                0
 2017-02-08 05:49:34.035124+01 | 1486529374.03512 | pgbench_branches |            16384

 2017-02-08 05:49:35.389442+01 | 1486529375.38944 | pgbench_accounts |       4028858368
 2017-02-08 05:49:35.389442+01 | 1486529375.38944 | pgbench_tellers  |           139264
 2017-02-08 05:49:35.389442+01 | 1486529375.38944 | pgbench_history  |                0
 2017-02-08 05:49:35.389442+01 | 1486529375.38944 | pgbench_branches |            16384

 2017-02-08 05:49:36.729034+01 | 1486529376.72903 | pgbench_accounts |       4028858368
 2017-02-08 05:49:36.729034+01 | 1486529376.72903 | pgbench_tellers  |           139264
 2017-02-08 05:49:36.729034+01 | 1486529376.72903 | pgbench_history  |                0
 2017-02-08 05:49:36.729034+01 | 1486529376.72903 | pgbench_branches |            16384

 2017-02-08 05:49:38.061182+01 | 1486529378.06118 | pgbench_accounts |       4028858368
 2017-02-08 05:49:38.061182+01 | 1486529378.06118 | pgbench_tellers  |           139264
 2017-02-08 05:49:38.061182+01 | 1486529378.06118 | pgbench_history  |                0
 2017-02-08 05:49:38.061182+01 | 1486529378.06118 | pgbench_branches |            16384

 2017-02-08 05:49:39.436584+01 | 1486529379.43658 | pgbench_accounts |       4028858368
 2017-02-08 05:49:39.436584+01 | 1486529379.43658 | pgbench_tellers  |           139264
 2017-02-08 05:49:39.436584+01 | 1486529379.43658 | pgbench_history  |                0
 2017-02-08 05:49:39.436584+01 | 1486529379.43658 | pgbench_branches |            16384

 2017-02-08 05:49:40.809086+01 | 1486529380.80909 | pgbench_accounts |       4028858368
 2017-02-08 05:49:40.809086+01 | 1486529380.80909 | pgbench_tellers  |           139264
 2017-02-08 05:49:40.809086+01 | 1486529380.80909 | pgbench_history  |                0
 2017-02-08 05:49:40.809086+01 | 1486529380.80909 | pgbench_branches |            16384

 2017-02-08 05:49:42.204185+01 | 1486529382.20419 | pgbench_accounts |       4028858368
 2017-02-08 05:49:42.204185+01 | 1486529382.20419 | pgbench_tellers  |           139264
 2017-02-08 05:49:42.204185+01 | 1486529382.20419 | pgbench_history  |                0
 2017-02-08 05:49:42.204185+01 | 1486529382.20419 | pgbench_branches |            16384

 2017-02-08 05:49:43.572003+01 | 1486529383.572 | pgbench_accounts |       4028858368
 2017-02-08 05:49:43.572003+01 | 1486529383.572 | pgbench_tellers  |           139264
 2017-02-08 05:49:43.572003+01 | 1486529383.572 | pgbench_history  |                0
 2017-02-08 05:49:43.572003+01 | 1486529383.572 | pgbench_branches |            16384

 2017-02-08 05:49:44.952034+01 | 1486529384.95203 | pgbench_accounts |       4028858368
 2017-02-08 05:49:44.952034+01 | 1486529384.95203 | pgbench_tellers  |           139264
 2017-02-08 05:49:44.952034+01 | 1486529384.95203 | pgbench_history  |                0
 2017-02-08 05:49:44.952034+01 | 1486529384.95203 | pgbench_branches |            16384

 2017-02-08 05:49:46.356605+01 | 1486529386.35661 | pgbench_accounts |       4028858368
 2017-02-08 05:49:46.356605+01 | 1486529386.35661 | pgbench_tellers  |           139264
 2017-02-08 05:49:46.356605+01 | 1486529386.35661 | pgbench_history  |                0
 2017-02-08 05:49:46.356605+01 | 1486529386.35661 | pgbench_branches |            16384

 2017-02-08 05:49:47.730169+01 | 1486529387.73017 | pgbench_accounts |       4028858368
 2017-02-08 05:49:47.730169+01 | 1486529387.73017 | pgbench_tellers  |           139264
 2017-02-08 05:49:47.730169+01 | 1486529387.73017 | pgbench_history  |                0
 2017-02-08 05:49:47.730169+01 | 1486529387.73017 | pgbench_branches |            16384

 2017-02-08 05:49:49.099517+01 | 1486529389.09952 | pgbench_accounts |       4028858368
 2017-02-08 05:49:49.099517+01 | 1486529389.09952 | pgbench_tellers  |           139264
 2017-02-08 05:49:49.099517+01 | 1486529389.09952 | pgbench_history  |                0
 2017-02-08 05:49:49.099517+01 | 1486529389.09952 | pgbench_branches |            16384

 2017-02-08 05:49:50.466785+01 | 1486529390.46678 | pgbench_accounts |       4028858368
 2017-02-08 05:49:50.466785+01 | 1486529390.46678 | pgbench_tellers  |           139264
 2017-02-08 05:49:50.466785+01 | 1486529390.46678 | pgbench_history  |                0
 2017-02-08 05:49:50.466785+01 | 1486529390.46678 | pgbench_branches |            16384

 2017-02-08 05:49:51.859323+01 | 1486529391.85932 | pgbench_accounts |       4028858368
 2017-02-08 05:49:51.859323+01 | 1486529391.85932 | pgbench_tellers  |           139264
 2017-02-08 05:49:51.859323+01 | 1486529391.85932 | pgbench_history  |                0
 2017-02-08 05:49:51.859323+01 | 1486529391.85932 | pgbench_branches |            16384

 2017-02-08 05:49:53.198759+01 | 1486529393.19876 | pgbench_accounts |       4028858368
 2017-02-08 05:49:53.198759+01 | 1486529393.19876 | pgbench_tellers  |           139264
 2017-02-08 05:49:53.198759+01 | 1486529393.19876 | pgbench_history  |                0
 2017-02-08 05:49:53.198759+01 | 1486529393.19876 | pgbench_branches |            16384

 2017-02-08 05:49:54.553551+01 | 1486529394.55355 | pgbench_accounts |       4028858368
 2017-02-08 05:49:54.553551+01 | 1486529394.55355 | pgbench_tellers  |           139264
 2017-02-08 05:49:54.553551+01 | 1486529394.55355 | pgbench_history  |                0
 2017-02-08 05:49:54.553551+01 | 1486529394.55355 | pgbench_branches |            16384

 2017-02-08 05:49:55.93596+01 | 1486529395.93596 | pgbench_accounts |       4028858368
 2017-02-08 05:49:55.93596+01 | 1486529395.93596 | pgbench_tellers  |           139264
 2017-02-08 05:49:55.93596+01 | 1486529395.93596 | pgbench_history  |                0
 2017-02-08 05:49:55.93596+01 | 1486529395.93596 | pgbench_branches |            16384

 2017-02-08 05:49:57.287624+01 | 1486529397.28762 | pgbench_accounts |       4028858368
 2017-02-08 05:49:57.287624+01 | 1486529397.28762 | pgbench_tellers  |           139264
 2017-02-08 05:49:57.287624+01 | 1486529397.28762 | pgbench_history  |                0
 2017-02-08 05:49:57.287624+01 | 1486529397.28762 | pgbench_branches |            16384

 2017-02-08 05:49:58.634235+01 | 1486529398.63423 | pgbench_accounts |       4028858368
 2017-02-08 05:49:58.634235+01 | 1486529398.63423 | pgbench_tellers  |           139264
 2017-02-08 05:49:58.634235+01 | 1486529398.63423 | pgbench_history  |                0
 2017-02-08 05:49:58.634235+01 | 1486529398.63423 | pgbench_branches |            16384

 2017-02-08 05:49:59.973616+01 | 1486529399.97362 | pgbench_accounts |       4028858368
 2017-02-08 05:49:59.973616+01 | 1486529399.97362 | pgbench_tellers  |           139264
 2017-02-08 05:49:59.973616+01 | 1486529399.97362 | pgbench_history  |                0
 2017-02-08 05:49:59.973616+01 | 1486529399.97362 | pgbench_branches |            16384

 2017-02-08 05:50:01.391119+01 | 1486529401.39112 | pgbench_accounts |       4028858368
 2017-02-08 05:50:01.391119+01 | 1486529401.39112 | pgbench_tellers  |           139264
 2017-02-08 05:50:01.391119+01 | 1486529401.39112 | pgbench_history  |                0
 2017-02-08 05:50:01.391119+01 | 1486529401.39112 | pgbench_branches |            16384

 2017-02-08 05:50:02.706674+01 | 1486529402.70667 | pgbench_accounts |       4028858368
 2017-02-08 05:50:02.706674+01 | 1486529402.70667 | pgbench_tellers  |           139264
 2017-02-08 05:50:02.706674+01 | 1486529402.70667 | pgbench_history  |                0
 2017-02-08 05:50:02.706674+01 | 1486529402.70667 | pgbench_branches |            16384

 2017-02-08 05:50:04.067468+01 | 1486529404.06747 | pgbench_accounts |       4028858368
 2017-02-08 05:50:04.067468+01 | 1486529404.06747 | pgbench_tellers  |           139264
 2017-02-08 05:50:04.067468+01 | 1486529404.06747 | pgbench_history  |                0
 2017-02-08 05:50:04.067468+01 | 1486529404.06747 | pgbench_branches |            16384

 2017-02-08 05:50:05.427477+01 | 1486529405.42748 | pgbench_accounts |       4028858368
 2017-02-08 05:50:05.427477+01 | 1486529405.42748 | pgbench_tellers  |           139264
 2017-02-08 05:50:05.427477+01 | 1486529405.42748 | pgbench_history  |                0
 2017-02-08 05:50:05.427477+01 | 1486529405.42748 | pgbench_branches |            16384

 2017-02-08 05:50:06.830857+01 | 1486529406.83086 | pgbench_accounts |       4028858368
 2017-02-08 05:50:06.830857+01 | 1486529406.83086 | pgbench_tellers  |           139264
 2017-02-08 05:50:06.830857+01 | 1486529406.83086 | pgbench_history  |                0
 2017-02-08 05:50:06.830857+01 | 1486529406.83086 | pgbench_branches |            16384

 2017-02-08 05:50:08.213107+01 | 1486529408.21311 | pgbench_accounts |       4028858368
 2017-02-08 05:50:08.213107+01 | 1486529408.21311 | pgbench_tellers  |           139264
 2017-02-08 05:50:08.213107+01 | 1486529408.21311 | pgbench_history  |                0
 2017-02-08 05:50:08.213107+01 | 1486529408.21311 | pgbench_branches |            16384

 2017-02-08 05:50:09.560543+01 | 1486529409.56054 | pgbench_accounts |       4028858368
 2017-02-08 05:50:09.560543+01 | 1486529409.56054 | pgbench_tellers  |           139264
 2017-02-08 05:50:09.560543+01 | 1486529409.56054 | pgbench_history  |                0
 2017-02-08 05:50:09.560543+01 | 1486529409.56054 | pgbench_branches |            16384

 2017-02-08 05:50:10.958236+01 | 1486529410.95824 | pgbench_accounts |       4028858368
 2017-02-08 05:50:10.958236+01 | 1486529410.95824 | pgbench_tellers  |           139264
 2017-02-08 05:50:10.958236+01 | 1486529410.95824 | pgbench_history  |                0
 2017-02-08 05:50:10.958236+01 | 1486529410.95824 | pgbench_branches |            16384

 2017-02-08 05:50:12.243027+01 | 1486529412.24303 | pgbench_accounts |       4028858368
 2017-02-08 05:50:12.243027+01 | 1486529412.24303 | pgbench_tellers  |           139264
 2017-02-08 05:50:12.243027+01 | 1486529412.24303 | pgbench_history  |                0
 2017-02-08 05:50:12.243027+01 | 1486529412.24303 | pgbench_branches |            16384

 2017-02-08 05:50:13.590815+01 | 1486529413.59082 | pgbench_accounts |       4028858368
 2017-02-08 05:50:13.590815+01 | 1486529413.59082 | pgbench_tellers  |           139264
 2017-02-08 05:50:13.590815+01 | 1486529413.59082 | pgbench_history  |                0
 2017-02-08 05:50:13.590815+01 | 1486529413.59082 | pgbench_branches |            16384

 2017-02-08 05:50:14.993716+01 | 1486529414.99372 | pgbench_accounts |       4028858368
 2017-02-08 05:50:14.993716+01 | 1486529414.99372 | pgbench_tellers  |           139264
 2017-02-08 05:50:14.993716+01 | 1486529414.99372 | pgbench_history  |                0
 2017-02-08 05:50:14.993716+01 | 1486529414.99372 | pgbench_branches |            16384

 2017-02-08 05:50:16.363495+01 | 1486529416.3635 | pgbench_accounts |       4028858368
 2017-02-08 05:50:16.363495+01 | 1486529416.3635 | pgbench_tellers  |           139264
 2017-02-08 05:50:16.363495+01 | 1486529416.3635 | pgbench_history  |                0
 2017-02-08 05:50:16.363495+01 | 1486529416.3635 | pgbench_branches |            16384

 2017-02-08 05:50:17.705745+01 | 1486529417.70574 | pgbench_accounts |       4028858368
 2017-02-08 05:50:17.705745+01 | 1486529417.70574 | pgbench_tellers  |           139264
 2017-02-08 05:50:17.705745+01 | 1486529417.70574 | pgbench_history  |                0
 2017-02-08 05:50:17.705745+01 | 1486529417.70574 | pgbench_branches |            16384

 2017-02-08 05:50:19.115488+01 | 1486529419.11549 | pgbench_accounts |       4028858368
 2017-02-08 05:50:19.115488+01 | 1486529419.11549 | pgbench_tellers  |           139264
 2017-02-08 05:50:19.115488+01 | 1486529419.11549 | pgbench_history  |                0
 2017-02-08 05:50:19.115488+01 | 1486529419.11549 | pgbench_branches |            16384

 2017-02-08 05:50:20.496227+01 | 1486529420.49623 | pgbench_accounts |       4028858368
 2017-02-08 05:50:20.496227+01 | 1486529420.49623 | pgbench_tellers  |           139264
 2017-02-08 05:50:20.496227+01 | 1486529420.49623 | pgbench_history  |                0
 2017-02-08 05:50:20.496227+01 | 1486529420.49623 | pgbench_branches |            16384

 2017-02-08 05:50:21.844779+01 | 1486529421.84478 | pgbench_accounts |       4028858368
 2017-02-08 05:50:21.844779+01 | 1486529421.84478 | pgbench_tellers  |           139264
 2017-02-08 05:50:21.844779+01 | 1486529421.84478 | pgbench_history  |                0
 2017-02-08 05:50:21.844779+01 | 1486529421.84478 | pgbench_branches |            16384

 2017-02-08 05:50:23.107547+01 | 1486529423.10755 | pgbench_accounts |       4028858368
 2017-02-08 05:50:23.107547+01 | 1486529423.10755 | pgbench_tellers  |           139264
 2017-02-08 05:50:23.107547+01 | 1486529423.10755 | pgbench_history  |                0
 2017-02-08 05:50:23.107547+01 | 1486529423.10755 | pgbench_branches |            16384

 2017-02-08 05:50:24.482004+01 | 1486529424.482 | pgbench_accounts |       4028858368
 2017-02-08 05:50:24.482004+01 | 1486529424.482 | pgbench_tellers  |           139264
 2017-02-08 05:50:24.482004+01 | 1486529424.482 | pgbench_history  |                0
 2017-02-08 05:50:24.482004+01 | 1486529424.482 | pgbench_branches |            16384

 2017-02-08 05:50:25.855884+01 | 1486529425.85588 | pgbench_accounts |       4028858368
 2017-02-08 05:50:25.855884+01 | 1486529425.85588 | pgbench_tellers  |           139264
 2017-02-08 05:50:25.855884+01 | 1486529425.85588 | pgbench_history  |                0
 2017-02-08 05:50:25.855884+01 | 1486529425.85588 | pgbench_branches |            16384

 2017-02-08 05:50:27.23524+01 | 1486529427.23524 | pgbench_accounts |       4028858368
 2017-02-08 05:50:27.23524+01 | 1486529427.23524 | pgbench_tellers  |           139264
 2017-02-08 05:50:27.23524+01 | 1486529427.23524 | pgbench_history  |                0
 2017-02-08 05:50:27.23524+01 | 1486529427.23524 | pgbench_branches |            16384

 2017-02-08 05:50:28.59791+01 | 1486529428.59791 | pgbench_accounts |       4028858368
 2017-02-08 05:50:28.59791+01 | 1486529428.59791 | pgbench_tellers  |           139264
 2017-02-08 05:50:28.59791+01 | 1486529428.59791 | pgbench_history  |                0
 2017-02-08 05:50:28.59791+01 | 1486529428.59791 | pgbench_branches |            16384

 2017-02-08 05:50:29.937272+01 | 1486529429.93727 | pgbench_accounts |       4028858368
 2017-02-08 05:50:29.937272+01 | 1486529429.93727 | pgbench_tellers  |           139264
 2017-02-08 05:50:29.937272+01 | 1486529429.93727 | pgbench_history  |                0
 2017-02-08 05:50:29.937272+01 | 1486529429.93727 | pgbench_branches |            16384

 2017-02-08 05:50:31.293252+01 | 1486529431.29325 | pgbench_accounts |       4028858368
 2017-02-08 05:50:31.293252+01 | 1486529431.29325 | pgbench_tellers  |           139264
 2017-02-08 05:50:31.293252+01 | 1486529431.29325 | pgbench_history  |                0
 2017-02-08 05:50:31.293252+01 | 1486529431.29325 | pgbench_branches |            16384

 2017-02-08 05:50:32.707768+01 | 1486529432.70777 | pgbench_accounts |       4028858368
 2017-02-08 05:50:32.707768+01 | 1486529432.70777 | pgbench_tellers  |           139264
 2017-02-08 05:50:32.707768+01 | 1486529432.70777 | pgbench_history  |                0
 2017-02-08 05:50:32.707768+01 | 1486529432.70777 | pgbench_branches |            16384

 2017-02-08 05:50:34.061043+01 | 1486529434.06104 | pgbench_accounts |       4028858368
 2017-02-08 05:50:34.061043+01 | 1486529434.06104 | pgbench_tellers  |           139264
 2017-02-08 05:50:34.061043+01 | 1486529434.06104 | pgbench_history  |                0
 2017-02-08 05:50:34.061043+01 | 1486529434.06104 | pgbench_branches |            16384

 2017-02-08 05:50:35.42967+01 | 1486529435.42967 | pgbench_accounts |       4028858368
 2017-02-08 05:50:35.42967+01 | 1486529435.42967 | pgbench_tellers  |           139264
 2017-02-08 05:50:35.42967+01 | 1486529435.42967 | pgbench_history  |                0
 2017-02-08 05:50:35.42967+01 | 1486529435.42967 | pgbench_branches |            16384

 2017-02-08 05:50:36.776973+01 | 1486529436.77697 | pgbench_accounts |       4028858368
 2017-02-08 05:50:36.776973+01 | 1486529436.77697 | pgbench_tellers  |           139264
 2017-02-08 05:50:36.776973+01 | 1486529436.77697 | pgbench_history  |                0
 2017-02-08 05:50:36.776973+01 | 1486529436.77697 | pgbench_branches |            16384

 2017-02-08 05:50:38.172106+01 | 1486529438.17211 | pgbench_accounts |       4028858368
 2017-02-08 05:50:38.172106+01 | 1486529438.17211 | pgbench_tellers  |           139264
 2017-02-08 05:50:38.172106+01 | 1486529438.17211 | pgbench_history  |                0
 2017-02-08 05:50:38.172106+01 | 1486529438.17211 | pgbench_branches |            16384

 2017-02-08 05:50:39.56377+01 | 1486529439.56377 | pgbench_accounts |       4028858368
 2017-02-08 05:50:39.56377+01 | 1486529439.56377 | pgbench_tellers  |           139264
 2017-02-08 05:50:39.56377+01 | 1486529439.56377 | pgbench_history  |                0
 2017-02-08 05:50:39.56377+01 | 1486529439.56377 | pgbench_branches |            16384

 2017-02-08 05:50:40.916611+01 | 1486529440.91661 | pgbench_accounts |       4028858368
 2017-02-08 05:50:40.916611+01 | 1486529440.91661 | pgbench_tellers  |           139264
 2017-02-08 05:50:40.916611+01 | 1486529440.91661 | pgbench_history  |                0
 2017-02-08 05:50:40.916611+01 | 1486529440.91661 | pgbench_branches |            16384

 2017-02-08 05:50:42.256537+01 | 1486529442.25654 | pgbench_accounts |       4028858368
 2017-02-08 05:50:42.256537+01 | 1486529442.25654 | pgbench_tellers  |           139264
 2017-02-08 05:50:42.256537+01 | 1486529442.25654 | pgbench_history  |                0
 2017-02-08 05:50:42.256537+01 | 1486529442.25654 | pgbench_branches |            16384

 2017-02-08 05:50:43.606107+01 | 1486529443.60611 | pgbench_accounts |       4028858368
 2017-02-08 05:50:43.606107+01 | 1486529443.60611 | pgbench_tellers  |           139264
 2017-02-08 05:50:43.606107+01 | 1486529443.60611 | pgbench_history  |                0
 2017-02-08 05:50:43.606107+01 | 1486529443.60611 | pgbench_branches |            16384

 2017-02-08 05:50:45.010267+01 | 1486529445.01027 | pgbench_accounts |       4028858368
 2017-02-08 05:50:45.010267+01 | 1486529445.01027 | pgbench_tellers  |           139264
 2017-02-08 05:50:45.010267+01 | 1486529445.01027 | pgbench_history  |                0
 2017-02-08 05:50:45.010267+01 | 1486529445.01027 | pgbench_branches |            16384

 2017-02-08 05:50:46.310933+01 | 1486529446.31093 | pgbench_accounts |       4028858368
 2017-02-08 05:50:46.310933+01 | 1486529446.31093 | pgbench_tellers  |           139264
 2017-02-08 05:50:46.310933+01 | 1486529446.31093 | pgbench_history  |                0
 2017-02-08 05:50:46.310933+01 | 1486529446.31093 | pgbench_branches |            16384

 2017-02-08 05:50:47.676496+01 | 1486529447.6765 | pgbench_accounts |       4028858368
 2017-02-08 05:50:47.676496+01 | 1486529447.6765 | pgbench_tellers  |           139264
 2017-02-08 05:50:47.676496+01 | 1486529447.6765 | pgbench_history  |                0
 2017-02-08 05:50:47.676496+01 | 1486529447.6765 | pgbench_branches |            16384

 2017-02-08 05:50:49.083695+01 | 1486529449.08369 | pgbench_accounts |       4028858368
 2017-02-08 05:50:49.083695+01 | 1486529449.08369 | pgbench_tellers  |           139264
 2017-02-08 05:50:49.083695+01 | 1486529449.08369 | pgbench_history  |                0
 2017-02-08 05:50:49.083695+01 | 1486529449.08369 | pgbench_branches |            16384

 2017-02-08 05:50:50.426613+01 | 1486529450.42661 | pgbench_accounts |       4028858368
 2017-02-08 05:50:50.426613+01 | 1486529450.42661 | pgbench_tellers  |           139264
 2017-02-08 05:50:50.426613+01 | 1486529450.42661 | pgbench_history  |                0
 2017-02-08 05:50:50.426613+01 | 1486529450.42661 | pgbench_branches |            16384

 2017-02-08 05:50:51.806367+01 | 1486529451.80637 | pgbench_accounts |       4028858368
 2017-02-08 05:50:51.806367+01 | 1486529451.80637 | pgbench_tellers  |           139264
 2017-02-08 05:50:51.806367+01 | 1486529451.80637 | pgbench_history  |                0
 2017-02-08 05:50:51.806367+01 | 1486529451.80637 | pgbench_branches |            16384

 2017-02-08 05:50:53.177681+01 | 1486529453.17768 | pgbench_accounts |       4028858368
 2017-02-08 05:50:53.177681+01 | 1486529453.17768 | pgbench_tellers  |           139264
 2017-02-08 05:50:53.177681+01 | 1486529453.17768 | pgbench_history  |                0
 2017-02-08 05:50:53.177681+01 | 1486529453.17768 | pgbench_branches |            16384

 2017-02-08 05:50:54.490902+01 | 1486529454.4909 | pgbench_accounts |       4028858368
 2017-02-08 05:50:54.490902+01 | 1486529454.4909 | pgbench_tellers  |           139264
 2017-02-08 05:50:54.490902+01 | 1486529454.4909 | pgbench_history  |                0
 2017-02-08 05:50:54.490902+01 | 1486529454.4909 | pgbench_branches |            16384

 2017-02-08 05:50:55.823528+01 | 1486529455.82353 | pgbench_accounts |       4028858368
 2017-02-08 05:50:55.823528+01 | 1486529455.82353 | pgbench_tellers  |           139264
 2017-02-08 05:50:55.823528+01 | 1486529455.82353 | pgbench_history  |                0
 2017-02-08 05:50:55.823528+01 | 1486529455.82353 | pgbench_branches |            16384

 2017-02-08 05:50:57.202699+01 | 1486529457.2027 | pgbench_accounts |       4028858368
 2017-02-08 05:50:57.202699+01 | 1486529457.2027 | pgbench_tellers  |           139264
 2017-02-08 05:50:57.202699+01 | 1486529457.2027 | pgbench_history  |                0
 2017-02-08 05:50:57.202699+01 | 1486529457.2027 | pgbench_branches |            16384

 2017-02-08 05:50:58.589936+01 | 1486529458.58994 | pgbench_accounts |       4028858368
 2017-02-08 05:50:58.589936+01 | 1486529458.58994 | pgbench_tellers  |           139264
 2017-02-08 05:50:58.589936+01 | 1486529458.58994 | pgbench_history  |                0
 2017-02-08 05:50:58.589936+01 | 1486529458.58994 | pgbench_branches |            16384

 2017-02-08 05:50:59.964836+01 | 1486529459.96484 | pgbench_accounts |       4028858368
 2017-02-08 05:50:59.964836+01 | 1486529459.96484 | pgbench_tellers  |           139264
 2017-02-08 05:50:59.964836+01 | 1486529459.96484 | pgbench_history  |                0
 2017-02-08 05:50:59.964836+01 | 1486529459.96484 | pgbench_branches |            16384

 2017-02-08 05:51:01.298917+01 | 1486529461.29892 | pgbench_accounts |       4028858368
 2017-02-08 05:51:01.298917+01 | 1486529461.29892 | pgbench_tellers  |           139264
 2017-02-08 05:51:01.298917+01 | 1486529461.29892 | pgbench_history  |                0
 2017-02-08 05:51:01.298917+01 | 1486529461.29892 | pgbench_branches |            16384

 2017-02-08 05:51:02.641432+01 | 1486529462.64143 | pgbench_accounts |       4028858368
 2017-02-08 05:51:02.641432+01 | 1486529462.64143 | pgbench_tellers  |           139264
 2017-02-08 05:51:02.641432+01 | 1486529462.64143 | pgbench_history  |                0
 2017-02-08 05:51:02.641432+01 | 1486529462.64143 | pgbench_branches |            16384

 2017-02-08 05:51:04.033954+01 | 1486529464.03395 | pgbench_accounts |       4028858368
 2017-02-08 05:51:04.033954+01 | 1486529464.03395 | pgbench_tellers  |           139264
 2017-02-08 05:51:04.033954+01 | 1486529464.03395 | pgbench_history  |                0
 2017-02-08 05:51:04.033954+01 | 1486529464.03395 | pgbench_branches |            16384

 2017-02-08 05:51:05.435986+01 | 1486529465.43599 | pgbench_accounts |       4028858368
 2017-02-08 05:51:05.435986+01 | 1486529465.43599 | pgbench_tellers  |           139264
 2017-02-08 05:51:05.435986+01 | 1486529465.43599 | pgbench_history  |                0
 2017-02-08 05:51:05.435986+01 | 1486529465.43599 | pgbench_branches |            16384

 2017-02-08 05:51:06.811336+01 | 1486529466.81134 | pgbench_accounts |       4028858368
 2017-02-08 05:51:06.811336+01 | 1486529466.81134 | pgbench_tellers  |           139264
 2017-02-08 05:51:06.811336+01 | 1486529466.81134 | pgbench_history  |                0
 2017-02-08 05:51:06.811336+01 | 1486529466.81134 | pgbench_branches |            16384

 2017-02-08 05:51:08.178877+01 | 1486529468.17888 | pgbench_accounts |       4028858368
 2017-02-08 05:51:08.178877+01 | 1486529468.17888 | pgbench_tellers  |           139264
 2017-02-08 05:51:08.178877+01 | 1486529468.17888 | pgbench_history  |                0
 2017-02-08 05:51:08.178877+01 | 1486529468.17888 | pgbench_branches |            16384

 2017-02-08 05:51:09.515813+01 | 1486529469.51581 | pgbench_accounts |       4028858368
 2017-02-08 05:51:09.515813+01 | 1486529469.51581 | pgbench_tellers  |           139264
 2017-02-08 05:51:09.515813+01 | 1486529469.51581 | pgbench_history  |                0
 2017-02-08 05:51:09.515813+01 | 1486529469.51581 | pgbench_branches |            16384

 2017-02-08 05:51:10.855489+01 | 1486529470.85549 | pgbench_accounts |       4028858368
 2017-02-08 05:51:10.855489+01 | 1486529470.85549 | pgbench_tellers  |           139264
 2017-02-08 05:51:10.855489+01 | 1486529470.85549 | pgbench_history  |                0
 2017-02-08 05:51:10.855489+01 | 1486529470.85549 | pgbench_branches |            16384

 2017-02-08 05:51:12.16694+01 | 1486529472.16694 | pgbench_accounts |       4028858368
 2017-02-08 05:51:12.16694+01 | 1486529472.16694 | pgbench_tellers  |           139264
 2017-02-08 05:51:12.16694+01 | 1486529472.16694 | pgbench_history  |                0
 2017-02-08 05:51:12.16694+01 | 1486529472.16694 | pgbench_branches |            16384

 2017-02-08 05:51:13.546621+01 | 1486529473.54662 | pgbench_accounts |       4028858368
 2017-02-08 05:51:13.546621+01 | 1486529473.54662 | pgbench_tellers  |           139264
 2017-02-08 05:51:13.546621+01 | 1486529473.54662 | pgbench_history  |                0
 2017-02-08 05:51:13.546621+01 | 1486529473.54662 | pgbench_branches |            16384

 2017-02-08 05:51:14.939085+01 | 1486529474.93909 | pgbench_accounts |       4028858368
 2017-02-08 05:51:14.939085+01 | 1486529474.93909 | pgbench_tellers  |           139264
 2017-02-08 05:51:14.939085+01 | 1486529474.93909 | pgbench_history  |                0
 2017-02-08 05:51:14.939085+01 | 1486529474.93909 | pgbench_branches |            16384

 2017-02-08 05:51:16.326642+01 | 1486529476.32664 | pgbench_accounts |       4028858368
 2017-02-08 05:51:16.326642+01 | 1486529476.32664 | pgbench_tellers  |           139264
 2017-02-08 05:51:16.326642+01 | 1486529476.32664 | pgbench_history  |                0
 2017-02-08 05:51:16.326642+01 | 1486529476.32664 | pgbench_branches |            16384

 2017-02-08 05:51:17.698043+01 | 1486529477.69804 | pgbench_accounts |       4028858368
 2017-02-08 05:51:17.698043+01 | 1486529477.69804 | pgbench_tellers  |           139264
 2017-02-08 05:51:17.698043+01 | 1486529477.69804 | pgbench_history  |                0
 2017-02-08 05:51:17.698043+01 | 1486529477.69804 | pgbench_branches |            16384

 2017-02-08 05:51:19.035615+01 | 1486529479.03561 | pgbench_accounts |       4028858368
 2017-02-08 05:51:19.035615+01 | 1486529479.03561 | pgbench_tellers  |           139264
 2017-02-08 05:51:19.035615+01 | 1486529479.03561 | pgbench_history  |                0
 2017-02-08 05:51:19.035615+01 | 1486529479.03561 | pgbench_branches |            16384

 2017-02-08 05:51:20.399605+01 | 1486529480.39961 | pgbench_accounts |       4028858368
 2017-02-08 05:51:20.399605+01 | 1486529480.39961 | pgbench_tellers  |           139264
 2017-02-08 05:51:20.399605+01 | 1486529480.39961 | pgbench_history  |                0
 2017-02-08 05:51:20.399605+01 | 1486529480.39961 | pgbench_branches |            16384

 2017-02-08 05:51:21.703628+01 | 1486529481.70363 | pgbench_accounts |       4028858368
 2017-02-08 05:51:21.703628+01 | 1486529481.70363 | pgbench_tellers  |           139264
 2017-02-08 05:51:21.703628+01 | 1486529481.70363 | pgbench_history  |                0
 2017-02-08 05:51:21.703628+01 | 1486529481.70363 | pgbench_branches |            16384

 2017-02-08 05:51:23.052076+01 | 1486529483.05208 | pgbench_accounts |       4028858368
 2017-02-08 05:51:23.052076+01 | 1486529483.05208 | pgbench_tellers  |           139264
 2017-02-08 05:51:23.052076+01 | 1486529483.05208 | pgbench_history  |                0
 2017-02-08 05:51:23.052076+01 | 1486529483.05208 | pgbench_branches |            16384

 2017-02-08 05:51:24.424504+01 | 1486529484.4245 | pgbench_accounts |       4028858368
 2017-02-08 05:51:24.424504+01 | 1486529484.4245 | pgbench_tellers  |           139264
 2017-02-08 05:51:24.424504+01 | 1486529484.4245 | pgbench_history  |                0
 2017-02-08 05:51:24.424504+01 | 1486529484.4245 | pgbench_branches |            16384

 2017-02-08 05:51:25.812915+01 | 1486529485.81292 | pgbench_accounts |       4028858368
 2017-02-08 05:51:25.812915+01 | 1486529485.81292 | pgbench_tellers  |           139264
 2017-02-08 05:51:25.812915+01 | 1486529485.81292 | pgbench_history  |                0
 2017-02-08 05:51:25.812915+01 | 1486529485.81292 | pgbench_branches |            16384

 2017-02-08 05:51:27.232564+01 | 1486529487.23256 | pgbench_accounts |       4028858368
 2017-02-08 05:51:27.232564+01 | 1486529487.23256 | pgbench_tellers  |           139264
 2017-02-08 05:51:27.232564+01 | 1486529487.23256 | pgbench_history  |                0
 2017-02-08 05:51:27.232564+01 | 1486529487.23256 | pgbench_branches |            16384

 2017-02-08 05:51:28.620582+01 | 1486529488.62058 | pgbench_accounts |       4028858368
 2017-02-08 05:51:28.620582+01 | 1486529488.62058 | pgbench_tellers  |           139264
 2017-02-08 05:51:28.620582+01 | 1486529488.62058 | pgbench_history  |                0
 2017-02-08 05:51:28.620582+01 | 1486529488.62058 | pgbench_branches |            16384

 2017-02-08 05:51:30.012922+01 | 1486529490.01292 | pgbench_accounts |       4028858368
 2017-02-08 05:51:30.012922+01 | 1486529490.01292 | pgbench_tellers  |           139264
 2017-02-08 05:51:30.012922+01 | 1486529490.01292 | pgbench_history  |                0
 2017-02-08 05:51:30.012922+01 | 1486529490.01292 | pgbench_branches |            16384

 2017-02-08 05:51:31.336028+01 | 1486529491.33603 | pgbench_accounts |       4028858368
 2017-02-08 05:51:31.336028+01 | 1486529491.33603 | pgbench_tellers  |           139264
 2017-02-08 05:51:31.336028+01 | 1486529491.33603 | pgbench_history  |                0
 2017-02-08 05:51:31.336028+01 | 1486529491.33603 | pgbench_branches |            16384

 2017-02-08 05:51:32.661304+01 | 1486529492.6613 | pgbench_accounts |       4028858368
 2017-02-08 05:51:32.661304+01 | 1486529492.6613 | pgbench_tellers  |           139264
 2017-02-08 05:51:32.661304+01 | 1486529492.6613 | pgbench_history  |                0
 2017-02-08 05:51:32.661304+01 | 1486529492.6613 | pgbench_branches |            16384

 2017-02-08 05:51:34.021497+01 | 1486529494.0215 | pgbench_accounts |       4028858368
 2017-02-08 05:51:34.021497+01 | 1486529494.0215 | pgbench_tellers  |           139264
 2017-02-08 05:51:34.021497+01 | 1486529494.0215 | pgbench_history  |                0
 2017-02-08 05:51:34.021497+01 | 1486529494.0215 | pgbench_branches |            16384

 2017-02-08 05:51:35.440268+01 | 1486529495.44027 | pgbench_accounts |       4028858368
 2017-02-08 05:51:35.440268+01 | 1486529495.44027 | pgbench_tellers  |           139264
 2017-02-08 05:51:35.440268+01 | 1486529495.44027 | pgbench_history  |                0
 2017-02-08 05:51:35.440268+01 | 1486529495.44027 | pgbench_branches |            16384

 2017-02-08 05:51:36.820628+01 | 1486529496.82063 | pgbench_accounts |       4028858368
 2017-02-08 05:51:36.820628+01 | 1486529496.82063 | pgbench_tellers  |           139264
 2017-02-08 05:51:36.820628+01 | 1486529496.82063 | pgbench_history  |                0
 2017-02-08 05:51:36.820628+01 | 1486529496.82063 | pgbench_branches |            16384

 2017-02-08 05:51:38.206358+01 | 1486529498.20636 | pgbench_accounts |       4028858368
 2017-02-08 05:51:38.206358+01 | 1486529498.20636 | pgbench_tellers  |           139264
 2017-02-08 05:51:38.206358+01 | 1486529498.20636 | pgbench_history  |                0
 2017-02-08 05:51:38.206358+01 | 1486529498.20636 | pgbench_branches |            16384

 2017-02-08 05:51:39.493299+01 | 1486529499.4933 | pgbench_accounts |       4028858368
 2017-02-08 05:51:39.493299+01 | 1486529499.4933 | pgbench_tellers  |           139264
 2017-02-08 05:51:39.493299+01 | 1486529499.4933 | pgbench_history  |                0
 2017-02-08 05:51:39.493299+01 | 1486529499.4933 | pgbench_branches |            16384

 2017-02-08 05:51:40.825035+01 | 1486529500.82504 | pgbench_accounts |       4028858368
 2017-02-08 05:51:40.825035+01 | 1486529500.82504 | pgbench_tellers  |           139264
 2017-02-08 05:51:40.825035+01 | 1486529500.82504 | pgbench_history  |                0
 2017-02-08 05:51:40.825035+01 | 1486529500.82504 | pgbench_branches |            16384

 2017-02-08 05:51:42.20676+01 | 1486529502.20676 | pgbench_accounts |       4028858368
 2017-02-08 05:51:42.20676+01 | 1486529502.20676 | pgbench_tellers  |           139264
 2017-02-08 05:51:42.20676+01 | 1486529502.20676 | pgbench_history  |                0
 2017-02-08 05:51:42.20676+01 | 1486529502.20676 | pgbench_branches |            16384

 2017-02-08 05:51:43.593831+01 | 1486529503.59383 | pgbench_accounts |       4028858368
 2017-02-08 05:51:43.593831+01 | 1486529503.59383 | pgbench_tellers  |           139264
 2017-02-08 05:51:43.593831+01 | 1486529503.59383 | pgbench_history  |                0
 2017-02-08 05:51:43.593831+01 | 1486529503.59383 | pgbench_branches |            16384

 2017-02-08 05:51:44.986955+01 | 1486529504.98695 | pgbench_accounts |       4028858368
 2017-02-08 05:51:44.986955+01 | 1486529504.98695 | pgbench_tellers  |           139264
 2017-02-08 05:51:44.986955+01 | 1486529504.98695 | pgbench_history  |                0
 2017-02-08 05:51:44.986955+01 | 1486529504.98695 | pgbench_branches |            16384

 2017-02-08 05:51:46.315299+01 | 1486529506.3153 | pgbench_accounts |       4028858368
 2017-02-08 05:51:46.315299+01 | 1486529506.3153 | pgbench_tellers  |           139264
 2017-02-08 05:51:46.315299+01 | 1486529506.3153 | pgbench_history  |                0
 2017-02-08 05:51:46.315299+01 | 1486529506.3153 | pgbench_branches |            16384

 2017-02-08 05:51:47.586501+01 | 1486529507.5865 | pgbench_accounts |       4028858368
 2017-02-08 05:51:47.586501+01 | 1486529507.5865 | pgbench_tellers  |           139264
 2017-02-08 05:51:47.586501+01 | 1486529507.5865 | pgbench_history  |                0
 2017-02-08 05:51:47.586501+01 | 1486529507.5865 | pgbench_branches |            16384

 2017-02-08 05:51:48.936653+01 | 1486529508.93665 | pgbench_accounts |       4028858368
 2017-02-08 05:51:48.936653+01 | 1486529508.93665 | pgbench_tellers  |           139264
 2017-02-08 05:51:48.936653+01 | 1486529508.93665 | pgbench_history  |                0
 2017-02-08 05:51:48.936653+01 | 1486529508.93665 | pgbench_branches |            16384

 2017-02-08 05:51:50.322313+01 | 1486529510.32231 | pgbench_accounts |       4028858368
 2017-02-08 05:51:50.322313+01 | 1486529510.32231 | pgbench_tellers  |           139264
 2017-02-08 05:51:50.322313+01 | 1486529510.32231 | pgbench_history  |                0
 2017-02-08 05:51:50.322313+01 | 1486529510.32231 | pgbench_branches |            16384

 2017-02-08 05:51:51.679185+01 | 1486529511.67918 | pgbench_accounts |       4028858368
 2017-02-08 05:51:51.679185+01 | 1486529511.67918 | pgbench_tellers  |           139264
 2017-02-08 05:51:51.679185+01 | 1486529511.67918 | pgbench_history  |                0
 2017-02-08 05:51:51.679185+01 | 1486529511.67918 | pgbench_branches |            16384

 2017-02-08 05:51:53.077463+01 | 1486529513.07746 | pgbench_accounts |       4028858368
 2017-02-08 05:51:53.077463+01 | 1486529513.07746 | pgbench_tellers  |           139264
 2017-02-08 05:51:53.077463+01 | 1486529513.07746 | pgbench_history  |                0
 2017-02-08 05:51:53.077463+01 | 1486529513.07746 | pgbench_branches |            16384

 2017-02-08 05:51:54.429183+01 | 1486529514.42918 | pgbench_accounts |       4028858368
 2017-02-08 05:51:54.429183+01 | 1486529514.42918 | pgbench_tellers  |           139264
 2017-02-08 05:51:54.429183+01 | 1486529514.42918 | pgbench_history  |                0
 2017-02-08 05:51:54.429183+01 | 1486529514.42918 | pgbench_branches |            16384

 2017-02-08 05:51:55.807428+01 | 1486529515.80743 | pgbench_accounts |       4028858368
 2017-02-08 05:51:55.807428+01 | 1486529515.80743 | pgbench_tellers  |           139264
 2017-02-08 05:51:55.807428+01 | 1486529515.80743 | pgbench_history  |                0
 2017-02-08 05:51:55.807428+01 | 1486529515.80743 | pgbench_branches |            16384

 2017-02-08 05:51:57.174803+01 | 1486529517.1748 | pgbench_accounts |       4028858368
 2017-02-08 05:51:57.174803+01 | 1486529517.1748 | pgbench_tellers  |           139264
 2017-02-08 05:51:57.174803+01 | 1486529517.1748 | pgbench_history  |                0
 2017-02-08 05:51:57.174803+01 | 1486529517.1748 | pgbench_branches |            16384

 2017-02-08 05:51:58.541557+01 | 1486529518.54156 | pgbench_accounts |       4028858368
 2017-02-08 05:51:58.541557+01 | 1486529518.54156 | pgbench_tellers  |           139264
 2017-02-08 05:51:58.541557+01 | 1486529518.54156 | pgbench_history  |                0
 2017-02-08 05:51:58.541557+01 | 1486529518.54156 | pgbench_branches |            16384

 2017-02-08 05:51:59.906707+01 | 1486529519.90671 | pgbench_accounts |       4028858368
 2017-02-08 05:51:59.906707+01 | 1486529519.90671 | pgbench_tellers  |           139264
 2017-02-08 05:51:59.906707+01 | 1486529519.90671 | pgbench_history  |                0
 2017-02-08 05:51:59.906707+01 | 1486529519.90671 | pgbench_branches |            16384

 2017-02-08 05:52:01.271939+01 | 1486529521.27194 | pgbench_accounts |       4028858368
 2017-02-08 05:52:01.271939+01 | 1486529521.27194 | pgbench_tellers  |           139264
 2017-02-08 05:52:01.271939+01 | 1486529521.27194 | pgbench_history  |                0
 2017-02-08 05:52:01.271939+01 | 1486529521.27194 | pgbench_branches |            16384

 2017-02-08 05:52:02.613369+01 | 1486529522.61337 | pgbench_accounts |       4028858368
 2017-02-08 05:52:02.613369+01 | 1486529522.61337 | pgbench_tellers  |           139264
 2017-02-08 05:52:02.613369+01 | 1486529522.61337 | pgbench_history  |                0
 2017-02-08 05:52:02.613369+01 | 1486529522.61337 | pgbench_branches |            16384

 2017-02-08 05:52:03.929902+01 | 1486529523.9299 | pgbench_accounts |       4028858368
 2017-02-08 05:52:03.929902+01 | 1486529523.9299 | pgbench_tellers  |           139264
 2017-02-08 05:52:03.929902+01 | 1486529523.9299 | pgbench_history  |                0
 2017-02-08 05:52:03.929902+01 | 1486529523.9299 | pgbench_branches |            16384

 2017-02-08 05:52:05.252137+01 | 1486529525.25214 | pgbench_accounts |       4028858368
 2017-02-08 05:52:05.252137+01 | 1486529525.25214 | pgbench_tellers  |           139264
 2017-02-08 05:52:05.252137+01 | 1486529525.25214 | pgbench_history  |                0
 2017-02-08 05:52:05.252137+01 | 1486529525.25214 | pgbench_branches |            16384

 2017-02-08 05:52:06.642159+01 | 1486529526.64216 | pgbench_accounts |       4028858368
 2017-02-08 05:52:06.642159+01 | 1486529526.64216 | pgbench_tellers  |           139264
 2017-02-08 05:52:06.642159+01 | 1486529526.64216 | pgbench_history  |                0
 2017-02-08 05:52:06.642159+01 | 1486529526.64216 | pgbench_branches |            16384

 2017-02-08 05:52:08.010264+01 | 1486529528.01026 | pgbench_accounts |       4028858368
 2017-02-08 05:52:08.010264+01 | 1486529528.01026 | pgbench_tellers  |           139264
 2017-02-08 05:52:08.010264+01 | 1486529528.01026 | pgbench_history  |                0
 2017-02-08 05:52:08.010264+01 | 1486529528.01026 | pgbench_branches |            16384

 2017-02-08 05:52:09.364963+01 | 1486529529.36496 | pgbench_accounts |       4028858368
 2017-02-08 05:52:09.364963+01 | 1486529529.36496 | pgbench_tellers  |           139264
 2017-02-08 05:52:09.364963+01 | 1486529529.36496 | pgbench_history  |                0
 2017-02-08 05:52:09.364963+01 | 1486529529.36496 | pgbench_branches |            16384

 2017-02-08 05:52:10.738043+01 | 1486529530.73804 | pgbench_accounts |       4028858368
 2017-02-08 05:52:10.738043+01 | 1486529530.73804 | pgbench_tellers  |           139264
 2017-02-08 05:52:10.738043+01 | 1486529530.73804 | pgbench_history  |                0
 2017-02-08 05:52:10.738043+01 | 1486529530.73804 | pgbench_branches |            16384

 2017-02-08 05:52:12.02671+01 | 1486529532.02671 | pgbench_accounts |       4028858368
 2017-02-08 05:52:12.02671+01 | 1486529532.02671 | pgbench_tellers  |           139264
 2017-02-08 05:52:12.02671+01 | 1486529532.02671 | pgbench_history  |                0
 2017-02-08 05:52:12.02671+01 | 1486529532.02671 | pgbench_branches |            16384

 2017-02-08 05:52:13.377321+01 | 1486529533.37732 | pgbench_accounts |       4028858368
 2017-02-08 05:52:13.377321+01 | 1486529533.37732 | pgbench_tellers  |           139264
 2017-02-08 05:52:13.377321+01 | 1486529533.37732 | pgbench_history  |                0
 2017-02-08 05:52:13.377321+01 | 1486529533.37732 | pgbench_branches |            16384

 2017-02-08 05:52:14.760139+01 | 1486529534.76014 | pgbench_accounts |       4028858368
 2017-02-08 05:52:14.760139+01 | 1486529534.76014 | pgbench_tellers  |           139264
 2017-02-08 05:52:14.760139+01 | 1486529534.76014 | pgbench_history  |                0
 2017-02-08 05:52:14.760139+01 | 1486529534.76014 | pgbench_branches |            16384

 2017-02-08 05:52:16.077759+01 | 1486529536.07776 | pgbench_accounts |       4028858368
 2017-02-08 05:52:16.077759+01 | 1486529536.07776 | pgbench_tellers  |           139264
 2017-02-08 05:52:16.077759+01 | 1486529536.07776 | pgbench_history  |                0
 2017-02-08 05:52:16.077759+01 | 1486529536.07776 | pgbench_branches |            16384

 2017-02-08 05:52:17.464074+01 | 1486529537.46407 | pgbench_accounts |       4028858368
 2017-02-08 05:52:17.464074+01 | 1486529537.46407 | pgbench_tellers  |           139264
 2017-02-08 05:52:17.464074+01 | 1486529537.46407 | pgbench_history  |                0
 2017-02-08 05:52:17.464074+01 | 1486529537.46407 | pgbench_branches |            16384

 2017-02-08 05:52:18.792057+01 | 1486529538.79206 | pgbench_accounts |       4028858368
 2017-02-08 05:52:18.792057+01 | 1486529538.79206 | pgbench_tellers  |           139264
 2017-02-08 05:52:18.792057+01 | 1486529538.79206 | pgbench_history  |                0
 2017-02-08 05:52:18.792057+01 | 1486529538.79206 | pgbench_branches |            16384

 2017-02-08 05:52:20.166979+01 | 1486529540.16698 | pgbench_accounts |       4028858368
 2017-02-08 05:52:20.166979+01 | 1486529540.16698 | pgbench_tellers  |           139264
 2017-02-08 05:52:20.166979+01 | 1486529540.16698 | pgbench_history  |                0
 2017-02-08 05:52:20.166979+01 | 1486529540.16698 | pgbench_branches |            16384

 2017-02-08 05:52:21.512825+01 | 1486529541.51283 | pgbench_accounts |       4028858368
 2017-02-08 05:52:21.512825+01 | 1486529541.51283 | pgbench_tellers  |           139264
 2017-02-08 05:52:21.512825+01 | 1486529541.51283 | pgbench_history  |                0
 2017-02-08 05:52:21.512825+01 | 1486529541.51283 | pgbench_branches |            16384

 2017-02-08 05:52:22.871977+01 | 1486529542.87198 | pgbench_accounts |       4028858368
 2017-02-08 05:52:22.871977+01 | 1486529542.87198 | pgbench_tellers  |           139264
 2017-02-08 05:52:22.871977+01 | 1486529542.87198 | pgbench_history  |                0
 2017-02-08 05:52:22.871977+01 | 1486529542.87198 | pgbench_branches |            16384

