 2017-02-08 11:27:02.655866+01 | 1486549622.65587 | pgbench_branches_pkey |          1187840
 2017-02-08 11:27:02.655866+01 | 1486549622.65587 | pgbench_tellers_pkey  |          3883008
 2017-02-08 11:27:02.655866+01 | 1486549622.65587 | pgbench_accounts_pkey |        673882112

 2017-02-08 11:27:03.713931+01 | 1486549623.71393 | pgbench_branches_pkey |          1187840
 2017-02-08 11:27:03.713931+01 | 1486549623.71393 | pgbench_tellers_pkey  |          3883008
 2017-02-08 11:27:03.713931+01 | 1486549623.71393 | pgbench_accounts_pkey |        673882112

 2017-02-08 11:27:04.768728+01 | 1486549624.76873 | pgbench_branches_pkey |          1187840
 2017-02-08 11:27:04.768728+01 | 1486549624.76873 | pgbench_tellers_pkey  |          3883008
 2017-02-08 11:27:04.768728+01 | 1486549624.76873 | pgbench_accounts_pkey |        673882112

 2017-02-08 11:27:05.822607+01 | 1486549625.82261 | pgbench_branches_pkey |          1187840
 2017-02-08 11:27:05.822607+01 | 1486549625.82261 | pgbench_tellers_pkey  |          3883008
 2017-02-08 11:27:05.822607+01 | 1486549625.82261 | pgbench_accounts_pkey |        673882112

 2017-02-08 11:27:06.877473+01 | 1486549626.87747 | pgbench_branches_pkey |          1187840
 2017-02-08 11:27:06.877473+01 | 1486549626.87747 | pgbench_tellers_pkey  |          3883008
 2017-02-08 11:27:06.877473+01 | 1486549626.87747 | pgbench_accounts_pkey |        673882112

 2017-02-08 11:27:07.933791+01 | 1486549627.93379 | pgbench_branches_pkey |          1187840
 2017-02-08 11:27:07.933791+01 | 1486549627.93379 | pgbench_tellers_pkey  |          3883008
 2017-02-08 11:27:07.933791+01 | 1486549627.93379 | pgbench_accounts_pkey |        673882112

 2017-02-08 11:27:08.988492+01 | 1486549628.98849 | pgbench_branches_pkey |          1187840
 2017-02-08 11:27:08.988492+01 | 1486549628.98849 | pgbench_tellers_pkey  |          3883008
 2017-02-08 11:27:08.988492+01 | 1486549628.98849 | pgbench_accounts_pkey |        673882112

 2017-02-08 11:27:10.041685+01 | 1486549630.04169 | pgbench_branches_pkey |          1187840
 2017-02-08 11:27:10.041685+01 | 1486549630.04169 | pgbench_tellers_pkey  |          3883008
 2017-02-08 11:27:10.041685+01 | 1486549630.04169 | pgbench_accounts_pkey |        673882112

 2017-02-08 11:27:11.094242+01 | 1486549631.09424 | pgbench_branches_pkey |          1187840
 2017-02-08 11:27:11.094242+01 | 1486549631.09424 | pgbench_tellers_pkey  |          3883008
 2017-02-08 11:27:11.094242+01 | 1486549631.09424 | pgbench_accounts_pkey |        673882112

 2017-02-08 11:27:12.145067+01 | 1486549632.14507 | pgbench_branches_pkey |          1187840
 2017-02-08 11:27:12.145067+01 | 1486549632.14507 | pgbench_tellers_pkey  |          3883008
 2017-02-08 11:27:12.145067+01 | 1486549632.14507 | pgbench_accounts_pkey |        673882112

 2017-02-08 11:27:13.199746+01 | 1486549633.19975 | pgbench_branches_pkey |          1187840
 2017-02-08 11:27:13.199746+01 | 1486549633.19975 | pgbench_tellers_pkey  |          3883008
 2017-02-08 11:27:13.199746+01 | 1486549633.19975 | pgbench_accounts_pkey |        673882112

 2017-02-08 11:27:14.254121+01 | 1486549634.25412 | pgbench_branches_pkey |          1187840
 2017-02-08 11:27:14.254121+01 | 1486549634.25412 | pgbench_tellers_pkey  |          3883008
 2017-02-08 11:27:14.254121+01 | 1486549634.25412 | pgbench_accounts_pkey |        673882112

 2017-02-08 11:27:15.31035+01 | 1486549635.31035 | pgbench_branches_pkey |          1187840
 2017-02-08 11:27:15.31035+01 | 1486549635.31035 | pgbench_tellers_pkey  |          3883008
 2017-02-08 11:27:15.31035+01 | 1486549635.31035 | pgbench_accounts_pkey |        673882112

 2017-02-08 11:27:16.364516+01 | 1486549636.36452 | pgbench_branches_pkey |          1187840
 2017-02-08 11:27:16.364516+01 | 1486549636.36452 | pgbench_tellers_pkey  |          3883008
 2017-02-08 11:27:16.364516+01 | 1486549636.36452 | pgbench_accounts_pkey |        673882112

 2017-02-08 11:27:17.42002+01 | 1486549637.42002 | pgbench_branches_pkey |          1187840
 2017-02-08 11:27:17.42002+01 | 1486549637.42002 | pgbench_tellers_pkey  |          3883008
 2017-02-08 11:27:17.42002+01 | 1486549637.42002 | pgbench_accounts_pkey |        673882112

 2017-02-08 11:27:18.47786+01 | 1486549638.47786 | pgbench_branches_pkey |          1187840
 2017-02-08 11:27:18.47786+01 | 1486549638.47786 | pgbench_tellers_pkey  |          3883008
 2017-02-08 11:27:18.47786+01 | 1486549638.47786 | pgbench_accounts_pkey |        673882112

 2017-02-08 11:27:19.531394+01 | 1486549639.53139 | pgbench_branches_pkey |          1187840
 2017-02-08 11:27:19.531394+01 | 1486549639.53139 | pgbench_tellers_pkey  |          3883008
 2017-02-08 11:27:19.531394+01 | 1486549639.53139 | pgbench_accounts_pkey |        673882112

 2017-02-08 11:27:20.583719+01 | 1486549640.58372 | pgbench_branches_pkey |          1187840
 2017-02-08 11:27:20.583719+01 | 1486549640.58372 | pgbench_tellers_pkey  |          3883008
 2017-02-08 11:27:20.583719+01 | 1486549640.58372 | pgbench_accounts_pkey |        673882112

 2017-02-08 11:27:21.651966+01 | 1486549641.65197 | pgbench_branches_pkey |          1187840
 2017-02-08 11:27:21.651966+01 | 1486549641.65197 | pgbench_tellers_pkey  |          3883008
 2017-02-08 11:27:21.651966+01 | 1486549641.65197 | pgbench_accounts_pkey |        673882112

 2017-02-08 11:27:22.701309+01 | 1486549642.70131 | pgbench_branches_pkey |          1187840
 2017-02-08 11:27:22.701309+01 | 1486549642.70131 | pgbench_tellers_pkey  |          3883008
 2017-02-08 11:27:22.701309+01 | 1486549642.70131 | pgbench_accounts_pkey |        673882112

 2017-02-08 11:27:23.758082+01 | 1486549643.75808 | pgbench_branches_pkey |          1187840
 2017-02-08 11:27:23.758082+01 | 1486549643.75808 | pgbench_tellers_pkey  |          3883008
 2017-02-08 11:27:23.758082+01 | 1486549643.75808 | pgbench_accounts_pkey |        673882112

 2017-02-08 11:27:24.812522+01 | 1486549644.81252 | pgbench_branches_pkey |          1187840
 2017-02-08 11:27:24.812522+01 | 1486549644.81252 | pgbench_tellers_pkey  |          3883008
 2017-02-08 11:27:24.812522+01 | 1486549644.81252 | pgbench_accounts_pkey |        673882112

 2017-02-08 11:27:25.871122+01 | 1486549645.87112 | pgbench_branches_pkey |          1187840
 2017-02-08 11:27:25.871122+01 | 1486549645.87112 | pgbench_tellers_pkey  |          3883008
 2017-02-08 11:27:25.871122+01 | 1486549645.87112 | pgbench_accounts_pkey |        673882112

 2017-02-08 11:27:26.922676+01 | 1486549646.92268 | pgbench_branches_pkey |          1187840
 2017-02-08 11:27:26.922676+01 | 1486549646.92268 | pgbench_tellers_pkey  |          3883008
 2017-02-08 11:27:26.922676+01 | 1486549646.92268 | pgbench_accounts_pkey |        673882112

 2017-02-08 11:27:27.979202+01 | 1486549647.9792 | pgbench_branches_pkey |          1187840
 2017-02-08 11:27:27.979202+01 | 1486549647.9792 | pgbench_tellers_pkey  |          3883008
 2017-02-08 11:27:27.979202+01 | 1486549647.9792 | pgbench_accounts_pkey |        673882112

 2017-02-08 11:27:29.032665+01 | 1486549649.03267 | pgbench_branches_pkey |          1187840
 2017-02-08 11:27:29.032665+01 | 1486549649.03267 | pgbench_tellers_pkey  |          3883008
 2017-02-08 11:27:29.032665+01 | 1486549649.03267 | pgbench_accounts_pkey |        673882112

 2017-02-08 11:27:30.08654+01 | 1486549650.08654 | pgbench_branches_pkey |          1187840
 2017-02-08 11:27:30.08654+01 | 1486549650.08654 | pgbench_tellers_pkey  |          3883008
 2017-02-08 11:27:30.08654+01 | 1486549650.08654 | pgbench_accounts_pkey |        673882112

 2017-02-08 11:27:31.138132+01 | 1486549651.13813 | pgbench_branches_pkey |          1187840
 2017-02-08 11:27:31.138132+01 | 1486549651.13813 | pgbench_tellers_pkey  |          3883008
 2017-02-08 11:27:31.138132+01 | 1486549651.13813 | pgbench_accounts_pkey |        673882112

 2017-02-08 11:27:32.192275+01 | 1486549652.19228 | pgbench_branches_pkey |          1187840
 2017-02-08 11:27:32.192275+01 | 1486549652.19228 | pgbench_tellers_pkey  |          3883008
 2017-02-08 11:27:32.192275+01 | 1486549652.19228 | pgbench_accounts_pkey |        673882112

 2017-02-08 11:27:33.248667+01 | 1486549653.24867 | pgbench_branches_pkey |          1187840
 2017-02-08 11:27:33.248667+01 | 1486549653.24867 | pgbench_tellers_pkey  |          3883008
 2017-02-08 11:27:33.248667+01 | 1486549653.24867 | pgbench_accounts_pkey |        673882112

 2017-02-08 11:27:34.303542+01 | 1486549654.30354 | pgbench_branches_pkey |          1187840
 2017-02-08 11:27:34.303542+01 | 1486549654.30354 | pgbench_tellers_pkey  |          3883008
 2017-02-08 11:27:34.303542+01 | 1486549654.30354 | pgbench_accounts_pkey |        673882112

 2017-02-08 11:27:35.35803+01 | 1486549655.35803 | pgbench_branches_pkey |          1187840
 2017-02-08 11:27:35.35803+01 | 1486549655.35803 | pgbench_tellers_pkey  |          3883008
 2017-02-08 11:27:35.35803+01 | 1486549655.35803 | pgbench_accounts_pkey |        673882112

 2017-02-08 11:27:36.417002+01 | 1486549656.417 | pgbench_branches_pkey |          1187840
 2017-02-08 11:27:36.417002+01 | 1486549656.417 | pgbench_tellers_pkey  |          3883008
 2017-02-08 11:27:36.417002+01 | 1486549656.417 | pgbench_accounts_pkey |        673882112

 2017-02-08 11:27:37.475413+01 | 1486549657.47541 | pgbench_branches_pkey |          1187840
 2017-02-08 11:27:37.475413+01 | 1486549657.47541 | pgbench_tellers_pkey  |          3883008
 2017-02-08 11:27:37.475413+01 | 1486549657.47541 | pgbench_accounts_pkey |        673882112

 2017-02-08 11:27:38.522718+01 | 1486549658.52272 | pgbench_branches_pkey |          1187840
 2017-02-08 11:27:38.522718+01 | 1486549658.52272 | pgbench_tellers_pkey  |          3883008
 2017-02-08 11:27:38.522718+01 | 1486549658.52272 | pgbench_accounts_pkey |        673882112

 2017-02-08 11:27:39.580076+01 | 1486549659.58008 | pgbench_branches_pkey |          1187840
 2017-02-08 11:27:39.580076+01 | 1486549659.58008 | pgbench_tellers_pkey  |          3883008
 2017-02-08 11:27:39.580076+01 | 1486549659.58008 | pgbench_accounts_pkey |        673882112

 2017-02-08 11:27:40.633097+01 | 1486549660.6331 | pgbench_branches_pkey |          1187840
 2017-02-08 11:27:40.633097+01 | 1486549660.6331 | pgbench_tellers_pkey  |          3883008
 2017-02-08 11:27:40.633097+01 | 1486549660.6331 | pgbench_accounts_pkey |        673882112

 2017-02-08 11:27:41.690152+01 | 1486549661.69015 | pgbench_branches_pkey |          1187840
 2017-02-08 11:27:41.690152+01 | 1486549661.69015 | pgbench_tellers_pkey  |          3883008
 2017-02-08 11:27:41.690152+01 | 1486549661.69015 | pgbench_accounts_pkey |        673882112

 2017-02-08 11:27:42.752749+01 | 1486549662.75275 | pgbench_branches_pkey |          1187840
 2017-02-08 11:27:42.752749+01 | 1486549662.75275 | pgbench_tellers_pkey  |          3883008
 2017-02-08 11:27:42.752749+01 | 1486549662.75275 | pgbench_accounts_pkey |        673882112

 2017-02-08 11:27:43.811556+01 | 1486549663.81156 | pgbench_branches_pkey |          1187840
 2017-02-08 11:27:43.811556+01 | 1486549663.81156 | pgbench_tellers_pkey  |          3883008
 2017-02-08 11:27:43.811556+01 | 1486549663.81156 | pgbench_accounts_pkey |        673882112

 2017-02-08 11:27:44.864159+01 | 1486549664.86416 | pgbench_branches_pkey |          1187840
 2017-02-08 11:27:44.864159+01 | 1486549664.86416 | pgbench_tellers_pkey  |          3883008
 2017-02-08 11:27:44.864159+01 | 1486549664.86416 | pgbench_accounts_pkey |        673882112

 2017-02-08 11:27:45.918329+01 | 1486549665.91833 | pgbench_branches_pkey |          1187840
 2017-02-08 11:27:45.918329+01 | 1486549665.91833 | pgbench_tellers_pkey  |          3883008
 2017-02-08 11:27:45.918329+01 | 1486549665.91833 | pgbench_accounts_pkey |        673882112

 2017-02-08 11:27:46.974779+01 | 1486549666.97478 | pgbench_branches_pkey |          1187840
 2017-02-08 11:27:46.974779+01 | 1486549666.97478 | pgbench_tellers_pkey  |          3883008
 2017-02-08 11:27:46.974779+01 | 1486549666.97478 | pgbench_accounts_pkey |        673882112

 2017-02-08 11:27:48.029466+01 | 1486549668.02947 | pgbench_branches_pkey |          1187840
 2017-02-08 11:27:48.029466+01 | 1486549668.02947 | pgbench_tellers_pkey  |          3883008
 2017-02-08 11:27:48.029466+01 | 1486549668.02947 | pgbench_accounts_pkey |        673882112

 2017-02-08 11:27:49.109373+01 | 1486549669.10937 | pgbench_branches_pkey |          1187840
 2017-02-08 11:27:49.109373+01 | 1486549669.10937 | pgbench_tellers_pkey  |          3883008
 2017-02-08 11:27:49.109373+01 | 1486549669.10937 | pgbench_accounts_pkey |        673882112

 2017-02-08 11:27:50.162526+01 | 1486549670.16253 | pgbench_branches_pkey |          1187840
 2017-02-08 11:27:50.162526+01 | 1486549670.16253 | pgbench_tellers_pkey  |          3883008
 2017-02-08 11:27:50.162526+01 | 1486549670.16253 | pgbench_accounts_pkey |        673882112

 2017-02-08 11:27:51.216325+01 | 1486549671.21633 | pgbench_branches_pkey |          1187840
 2017-02-08 11:27:51.216325+01 | 1486549671.21633 | pgbench_tellers_pkey  |          3883008
 2017-02-08 11:27:51.216325+01 | 1486549671.21633 | pgbench_accounts_pkey |        673882112

 2017-02-08 11:27:52.273017+01 | 1486549672.27302 | pgbench_branches_pkey |          1187840
 2017-02-08 11:27:52.273017+01 | 1486549672.27302 | pgbench_tellers_pkey  |          3883008
 2017-02-08 11:27:52.273017+01 | 1486549672.27302 | pgbench_accounts_pkey |        673882112

 2017-02-08 11:27:53.327784+01 | 1486549673.32778 | pgbench_branches_pkey |          1187840
 2017-02-08 11:27:53.327784+01 | 1486549673.32778 | pgbench_tellers_pkey  |          3883008
 2017-02-08 11:27:53.327784+01 | 1486549673.32778 | pgbench_accounts_pkey |        673882112

 2017-02-08 11:27:54.38469+01 | 1486549674.38469 | pgbench_branches_pkey |          1187840
 2017-02-08 11:27:54.38469+01 | 1486549674.38469 | pgbench_tellers_pkey  |          3883008
 2017-02-08 11:27:54.38469+01 | 1486549674.38469 | pgbench_accounts_pkey |        673882112

 2017-02-08 11:27:55.442972+01 | 1486549675.44297 | pgbench_branches_pkey |          1187840
 2017-02-08 11:27:55.442972+01 | 1486549675.44297 | pgbench_tellers_pkey  |          3883008
 2017-02-08 11:27:55.442972+01 | 1486549675.44297 | pgbench_accounts_pkey |        673882112

 2017-02-08 11:27:56.497031+01 | 1486549676.49703 | pgbench_branches_pkey |          1187840
 2017-02-08 11:27:56.497031+01 | 1486549676.49703 | pgbench_tellers_pkey  |          3883008
 2017-02-08 11:27:56.497031+01 | 1486549676.49703 | pgbench_accounts_pkey |        673882112

 2017-02-08 11:27:57.558892+01 | 1486549677.55889 | pgbench_branches_pkey |          1187840
 2017-02-08 11:27:57.558892+01 | 1486549677.55889 | pgbench_tellers_pkey  |          3883008
 2017-02-08 11:27:57.558892+01 | 1486549677.55889 | pgbench_accounts_pkey |        673882112

 2017-02-08 11:27:58.615995+01 | 1486549678.61599 | pgbench_branches_pkey |          1187840
 2017-02-08 11:27:58.615995+01 | 1486549678.61599 | pgbench_tellers_pkey  |          3883008
 2017-02-08 11:27:58.615995+01 | 1486549678.61599 | pgbench_accounts_pkey |        673882112

 2017-02-08 11:27:59.667139+01 | 1486549679.66714 | pgbench_branches_pkey |          1187840
 2017-02-08 11:27:59.667139+01 | 1486549679.66714 | pgbench_tellers_pkey  |          3883008
 2017-02-08 11:27:59.667139+01 | 1486549679.66714 | pgbench_accounts_pkey |        673882112

 2017-02-08 11:28:00.726253+01 | 1486549680.72625 | pgbench_branches_pkey |          1187840
 2017-02-08 11:28:00.726253+01 | 1486549680.72625 | pgbench_tellers_pkey  |          3883008
 2017-02-08 11:28:00.726253+01 | 1486549680.72625 | pgbench_accounts_pkey |        673882112

 2017-02-08 11:28:01.79003+01 | 1486549681.79003 | pgbench_branches_pkey |          1187840
 2017-02-08 11:28:01.79003+01 | 1486549681.79003 | pgbench_tellers_pkey  |          3883008
 2017-02-08 11:28:01.79003+01 | 1486549681.79003 | pgbench_accounts_pkey |        673882112

 2017-02-08 11:28:02.856584+01 | 1486549682.85658 | pgbench_branches_pkey |          1187840
 2017-02-08 11:28:02.856584+01 | 1486549682.85658 | pgbench_tellers_pkey  |          3883008
 2017-02-08 11:28:02.856584+01 | 1486549682.85658 | pgbench_accounts_pkey |        673882112

 2017-02-08 11:28:03.916883+01 | 1486549683.91688 | pgbench_branches_pkey |          1187840
 2017-02-08 11:28:03.916883+01 | 1486549683.91688 | pgbench_tellers_pkey  |          3883008
 2017-02-08 11:28:03.916883+01 | 1486549683.91688 | pgbench_accounts_pkey |        673882112

 2017-02-08 11:28:04.975577+01 | 1486549684.97558 | pgbench_branches_pkey |          1187840
 2017-02-08 11:28:04.975577+01 | 1486549684.97558 | pgbench_tellers_pkey  |          3883008
 2017-02-08 11:28:04.975577+01 | 1486549684.97558 | pgbench_accounts_pkey |        673882112

 2017-02-08 11:28:06.032311+01 | 1486549686.03231 | pgbench_branches_pkey |          1187840
 2017-02-08 11:28:06.032311+01 | 1486549686.03231 | pgbench_tellers_pkey  |          3883008
 2017-02-08 11:28:06.032311+01 | 1486549686.03231 | pgbench_accounts_pkey |        673882112

 2017-02-08 11:28:07.086986+01 | 1486549687.08699 | pgbench_branches_pkey |          1187840
 2017-02-08 11:28:07.086986+01 | 1486549687.08699 | pgbench_tellers_pkey  |          3883008
 2017-02-08 11:28:07.086986+01 | 1486549687.08699 | pgbench_accounts_pkey |        673882112

 2017-02-08 11:28:08.143939+01 | 1486549688.14394 | pgbench_branches_pkey |          1187840
 2017-02-08 11:28:08.143939+01 | 1486549688.14394 | pgbench_tellers_pkey  |          3883008
 2017-02-08 11:28:08.143939+01 | 1486549688.14394 | pgbench_accounts_pkey |        673882112

 2017-02-08 11:28:09.201354+01 | 1486549689.20135 | pgbench_branches_pkey |          1187840
 2017-02-08 11:28:09.201354+01 | 1486549689.20135 | pgbench_tellers_pkey  |          3883008
 2017-02-08 11:28:09.201354+01 | 1486549689.20135 | pgbench_accounts_pkey |        673882112

 2017-02-08 11:28:10.252747+01 | 1486549690.25275 | pgbench_branches_pkey |          1187840
 2017-02-08 11:28:10.252747+01 | 1486549690.25275 | pgbench_tellers_pkey  |          3883008
 2017-02-08 11:28:10.252747+01 | 1486549690.25275 | pgbench_accounts_pkey |        673882112

 2017-02-08 11:28:11.30501+01 | 1486549691.30501 | pgbench_branches_pkey |          1187840
 2017-02-08 11:28:11.30501+01 | 1486549691.30501 | pgbench_tellers_pkey  |          3883008
 2017-02-08 11:28:11.30501+01 | 1486549691.30501 | pgbench_accounts_pkey |        673882112

 2017-02-08 11:28:12.362611+01 | 1486549692.36261 | pgbench_branches_pkey |          1187840
 2017-02-08 11:28:12.362611+01 | 1486549692.36261 | pgbench_tellers_pkey  |          3883008
 2017-02-08 11:28:12.362611+01 | 1486549692.36261 | pgbench_accounts_pkey |        673882112

 2017-02-08 11:28:13.418375+01 | 1486549693.41838 | pgbench_branches_pkey |          1187840
 2017-02-08 11:28:13.418375+01 | 1486549693.41838 | pgbench_tellers_pkey  |          3883008
 2017-02-08 11:28:13.418375+01 | 1486549693.41838 | pgbench_accounts_pkey |        673882112

 2017-02-08 11:28:14.497006+01 | 1486549694.49701 | pgbench_branches_pkey |          1187840
 2017-02-08 11:28:14.497006+01 | 1486549694.49701 | pgbench_tellers_pkey  |          3883008
 2017-02-08 11:28:14.497006+01 | 1486549694.49701 | pgbench_accounts_pkey |        673882112

 2017-02-08 11:28:15.554148+01 | 1486549695.55415 | pgbench_branches_pkey |          1187840
 2017-02-08 11:28:15.554148+01 | 1486549695.55415 | pgbench_tellers_pkey  |          3883008
 2017-02-08 11:28:15.554148+01 | 1486549695.55415 | pgbench_accounts_pkey |        673882112

 2017-02-08 11:28:16.617614+01 | 1486549696.61761 | pgbench_branches_pkey |          1187840
 2017-02-08 11:28:16.617614+01 | 1486549696.61761 | pgbench_tellers_pkey  |          3883008
 2017-02-08 11:28:16.617614+01 | 1486549696.61761 | pgbench_accounts_pkey |        673882112

 2017-02-08 11:28:17.671547+01 | 1486549697.67155 | pgbench_branches_pkey |          1187840
 2017-02-08 11:28:17.671547+01 | 1486549697.67155 | pgbench_tellers_pkey  |          3883008
 2017-02-08 11:28:17.671547+01 | 1486549697.67155 | pgbench_accounts_pkey |        673882112

 2017-02-08 11:28:18.729302+01 | 1486549698.7293 | pgbench_branches_pkey |          1187840
 2017-02-08 11:28:18.729302+01 | 1486549698.7293 | pgbench_tellers_pkey  |          3883008
 2017-02-08 11:28:18.729302+01 | 1486549698.7293 | pgbench_accounts_pkey |        673882112

 2017-02-08 11:28:19.782289+01 | 1486549699.78229 | pgbench_branches_pkey |          1187840
 2017-02-08 11:28:19.782289+01 | 1486549699.78229 | pgbench_tellers_pkey  |          3883008
 2017-02-08 11:28:19.782289+01 | 1486549699.78229 | pgbench_accounts_pkey |        673882112

 2017-02-08 11:28:20.836715+01 | 1486549700.83671 | pgbench_branches_pkey |          1187840
 2017-02-08 11:28:20.836715+01 | 1486549700.83671 | pgbench_tellers_pkey  |          3883008
 2017-02-08 11:28:20.836715+01 | 1486549700.83671 | pgbench_accounts_pkey |        673882112

 2017-02-08 11:28:21.888844+01 | 1486549701.88884 | pgbench_branches_pkey |          1187840
 2017-02-08 11:28:21.888844+01 | 1486549701.88884 | pgbench_tellers_pkey  |          3883008
 2017-02-08 11:28:21.888844+01 | 1486549701.88884 | pgbench_accounts_pkey |        673882112

 2017-02-08 11:28:22.943594+01 | 1486549702.94359 | pgbench_branches_pkey |          1187840
 2017-02-08 11:28:22.943594+01 | 1486549702.94359 | pgbench_tellers_pkey  |          3883008
 2017-02-08 11:28:22.943594+01 | 1486549702.94359 | pgbench_accounts_pkey |        673882112

 2017-02-08 11:28:23.998365+01 | 1486549703.99836 | pgbench_branches_pkey |          1187840
 2017-02-08 11:28:23.998365+01 | 1486549703.99836 | pgbench_tellers_pkey  |          3883008
 2017-02-08 11:28:23.998365+01 | 1486549703.99836 | pgbench_accounts_pkey |        673882112

 2017-02-08 11:28:25.074443+01 | 1486549705.07444 | pgbench_branches_pkey |          1187840
 2017-02-08 11:28:25.074443+01 | 1486549705.07444 | pgbench_tellers_pkey  |          3883008
 2017-02-08 11:28:25.074443+01 | 1486549705.07444 | pgbench_accounts_pkey |        673882112

 2017-02-08 11:28:26.135292+01 | 1486549706.13529 | pgbench_branches_pkey |          1187840
 2017-02-08 11:28:26.135292+01 | 1486549706.13529 | pgbench_tellers_pkey  |          3883008
 2017-02-08 11:28:26.135292+01 | 1486549706.13529 | pgbench_accounts_pkey |        673882112

 2017-02-08 11:28:27.191145+01 | 1486549707.19114 | pgbench_branches_pkey |          1187840
 2017-02-08 11:28:27.191145+01 | 1486549707.19114 | pgbench_tellers_pkey  |          3883008
 2017-02-08 11:28:27.191145+01 | 1486549707.19114 | pgbench_accounts_pkey |        673882112

 2017-02-08 11:28:28.245285+01 | 1486549708.24529 | pgbench_branches_pkey |          1187840
 2017-02-08 11:28:28.245285+01 | 1486549708.24529 | pgbench_tellers_pkey  |          3883008
 2017-02-08 11:28:28.245285+01 | 1486549708.24529 | pgbench_accounts_pkey |        673882112

 2017-02-08 11:28:29.304743+01 | 1486549709.30474 | pgbench_branches_pkey |          1187840
 2017-02-08 11:28:29.304743+01 | 1486549709.30474 | pgbench_tellers_pkey  |          3883008
 2017-02-08 11:28:29.304743+01 | 1486549709.30474 | pgbench_accounts_pkey |        673882112

 2017-02-08 11:28:30.370357+01 | 1486549710.37036 | pgbench_branches_pkey |          1187840
 2017-02-08 11:28:30.370357+01 | 1486549710.37036 | pgbench_tellers_pkey  |          3883008
 2017-02-08 11:28:30.370357+01 | 1486549710.37036 | pgbench_accounts_pkey |        673882112

 2017-02-08 11:28:31.433857+01 | 1486549711.43386 | pgbench_branches_pkey |          1187840
 2017-02-08 11:28:31.433857+01 | 1486549711.43386 | pgbench_tellers_pkey  |          3883008
 2017-02-08 11:28:31.433857+01 | 1486549711.43386 | pgbench_accounts_pkey |        673882112

 2017-02-08 11:28:32.498641+01 | 1486549712.49864 | pgbench_branches_pkey |          1187840
 2017-02-08 11:28:32.498641+01 | 1486549712.49864 | pgbench_tellers_pkey  |          3883008
 2017-02-08 11:28:32.498641+01 | 1486549712.49864 | pgbench_accounts_pkey |        673882112

 2017-02-08 11:28:33.558399+01 | 1486549713.5584 | pgbench_branches_pkey |          1187840
 2017-02-08 11:28:33.558399+01 | 1486549713.5584 | pgbench_tellers_pkey  |          3883008
 2017-02-08 11:28:33.558399+01 | 1486549713.5584 | pgbench_accounts_pkey |        673882112

 2017-02-08 11:28:34.622652+01 | 1486549714.62265 | pgbench_branches_pkey |          1187840
 2017-02-08 11:28:34.622652+01 | 1486549714.62265 | pgbench_tellers_pkey  |          3883008
 2017-02-08 11:28:34.622652+01 | 1486549714.62265 | pgbench_accounts_pkey |        673882112

 2017-02-08 11:28:35.703575+01 | 1486549715.70357 | pgbench_branches_pkey |          1187840
 2017-02-08 11:28:35.703575+01 | 1486549715.70357 | pgbench_tellers_pkey  |          3883008
 2017-02-08 11:28:35.703575+01 | 1486549715.70357 | pgbench_accounts_pkey |        673882112

 2017-02-08 11:28:36.762194+01 | 1486549716.76219 | pgbench_branches_pkey |          1187840
 2017-02-08 11:28:36.762194+01 | 1486549716.76219 | pgbench_tellers_pkey  |          3883008
 2017-02-08 11:28:36.762194+01 | 1486549716.76219 | pgbench_accounts_pkey |        673882112

 2017-02-08 11:28:37.829408+01 | 1486549717.82941 | pgbench_branches_pkey |          1187840
 2017-02-08 11:28:37.829408+01 | 1486549717.82941 | pgbench_tellers_pkey  |          3883008
 2017-02-08 11:28:37.829408+01 | 1486549717.82941 | pgbench_accounts_pkey |        673882112

 2017-02-08 11:28:38.873364+01 | 1486549718.87336 | pgbench_branches_pkey |          1187840
 2017-02-08 11:28:38.873364+01 | 1486549718.87336 | pgbench_tellers_pkey  |          3883008
 2017-02-08 11:28:38.873364+01 | 1486549718.87336 | pgbench_accounts_pkey |        673882112

 2017-02-08 11:28:39.931949+01 | 1486549719.93195 | pgbench_branches_pkey |          1187840
 2017-02-08 11:28:39.931949+01 | 1486549719.93195 | pgbench_tellers_pkey  |          3883008
 2017-02-08 11:28:39.931949+01 | 1486549719.93195 | pgbench_accounts_pkey |        673882112

 2017-02-08 11:28:40.999148+01 | 1486549720.99915 | pgbench_branches_pkey |          1187840
 2017-02-08 11:28:40.999148+01 | 1486549720.99915 | pgbench_tellers_pkey  |          3883008
 2017-02-08 11:28:40.999148+01 | 1486549720.99915 | pgbench_accounts_pkey |        673882112

 2017-02-08 11:28:42.062937+01 | 1486549722.06294 | pgbench_branches_pkey |          1187840
 2017-02-08 11:28:42.062937+01 | 1486549722.06294 | pgbench_tellers_pkey  |          3883008
 2017-02-08 11:28:42.062937+01 | 1486549722.06294 | pgbench_accounts_pkey |        673882112

 2017-02-08 11:28:43.126045+01 | 1486549723.12604 | pgbench_branches_pkey |          1187840
 2017-02-08 11:28:43.126045+01 | 1486549723.12604 | pgbench_tellers_pkey  |          3883008
 2017-02-08 11:28:43.126045+01 | 1486549723.12604 | pgbench_accounts_pkey |        673882112

 2017-02-08 11:28:44.192844+01 | 1486549724.19284 | pgbench_branches_pkey |          1187840
 2017-02-08 11:28:44.192844+01 | 1486549724.19284 | pgbench_tellers_pkey  |          3883008
 2017-02-08 11:28:44.192844+01 | 1486549724.19284 | pgbench_accounts_pkey |        673882112

 2017-02-08 11:28:45.248621+01 | 1486549725.24862 | pgbench_branches_pkey |          1187840
 2017-02-08 11:28:45.248621+01 | 1486549725.24862 | pgbench_tellers_pkey  |          3883008
 2017-02-08 11:28:45.248621+01 | 1486549725.24862 | pgbench_accounts_pkey |        673882112

 2017-02-08 11:28:46.320243+01 | 1486549726.32024 | pgbench_branches_pkey |          1187840
 2017-02-08 11:28:46.320243+01 | 1486549726.32024 | pgbench_tellers_pkey  |          3883008
 2017-02-08 11:28:46.320243+01 | 1486549726.32024 | pgbench_accounts_pkey |        673882112

 2017-02-08 11:28:47.384539+01 | 1486549727.38454 | pgbench_branches_pkey |          1187840
 2017-02-08 11:28:47.384539+01 | 1486549727.38454 | pgbench_tellers_pkey  |          3883008
 2017-02-08 11:28:47.384539+01 | 1486549727.38454 | pgbench_accounts_pkey |        673882112

 2017-02-08 11:28:48.448312+01 | 1486549728.44831 | pgbench_branches_pkey |          1187840
 2017-02-08 11:28:48.448312+01 | 1486549728.44831 | pgbench_tellers_pkey  |          3883008
 2017-02-08 11:28:48.448312+01 | 1486549728.44831 | pgbench_accounts_pkey |        673882112

 2017-02-08 11:28:49.51277+01 | 1486549729.51277 | pgbench_branches_pkey |          1187840
 2017-02-08 11:28:49.51277+01 | 1486549729.51277 | pgbench_tellers_pkey  |          3883008
 2017-02-08 11:28:49.51277+01 | 1486549729.51277 | pgbench_accounts_pkey |        673882112

 2017-02-08 11:28:50.569434+01 | 1486549730.56943 | pgbench_branches_pkey |          1187840
 2017-02-08 11:28:50.569434+01 | 1486549730.56943 | pgbench_tellers_pkey  |          3883008
 2017-02-08 11:28:50.569434+01 | 1486549730.56943 | pgbench_accounts_pkey |        673882112

 2017-02-08 11:28:51.622211+01 | 1486549731.62221 | pgbench_branches_pkey |          1187840
 2017-02-08 11:28:51.622211+01 | 1486549731.62221 | pgbench_tellers_pkey  |          3883008
 2017-02-08 11:28:51.622211+01 | 1486549731.62221 | pgbench_accounts_pkey |        673882112

 2017-02-08 11:28:52.685698+01 | 1486549732.6857 | pgbench_branches_pkey |          1187840
 2017-02-08 11:28:52.685698+01 | 1486549732.6857 | pgbench_tellers_pkey  |          3883008
 2017-02-08 11:28:52.685698+01 | 1486549732.6857 | pgbench_accounts_pkey |        673882112

 2017-02-08 11:28:53.74399+01 | 1486549733.74399 | pgbench_branches_pkey |          1187840
 2017-02-08 11:28:53.74399+01 | 1486549733.74399 | pgbench_tellers_pkey  |          3883008
 2017-02-08 11:28:53.74399+01 | 1486549733.74399 | pgbench_accounts_pkey |        673882112

 2017-02-08 11:28:54.804143+01 | 1486549734.80414 | pgbench_branches_pkey |          1187840
 2017-02-08 11:28:54.804143+01 | 1486549734.80414 | pgbench_tellers_pkey  |          3883008
 2017-02-08 11:28:54.804143+01 | 1486549734.80414 | pgbench_accounts_pkey |        673882112

 2017-02-08 11:28:55.875014+01 | 1486549735.87501 | pgbench_branches_pkey |          1187840
 2017-02-08 11:28:55.875014+01 | 1486549735.87501 | pgbench_tellers_pkey  |          3883008
 2017-02-08 11:28:55.875014+01 | 1486549735.87501 | pgbench_accounts_pkey |        673882112

 2017-02-08 11:28:56.934719+01 | 1486549736.93472 | pgbench_branches_pkey |          1187840
 2017-02-08 11:28:56.934719+01 | 1486549736.93472 | pgbench_tellers_pkey  |          3883008
 2017-02-08 11:28:56.934719+01 | 1486549736.93472 | pgbench_accounts_pkey |        673882112

 2017-02-08 11:28:57.993124+01 | 1486549737.99312 | pgbench_branches_pkey |          1187840
 2017-02-08 11:28:57.993124+01 | 1486549737.99312 | pgbench_tellers_pkey  |          3883008
 2017-02-08 11:28:57.993124+01 | 1486549737.99312 | pgbench_accounts_pkey |        673882112

 2017-02-08 11:28:59.051028+01 | 1486549739.05103 | pgbench_branches_pkey |          1187840
 2017-02-08 11:28:59.051028+01 | 1486549739.05103 | pgbench_tellers_pkey  |          3883008
 2017-02-08 11:28:59.051028+01 | 1486549739.05103 | pgbench_accounts_pkey |        673882112

 2017-02-08 11:29:00.105457+01 | 1486549740.10546 | pgbench_branches_pkey |          1187840
 2017-02-08 11:29:00.105457+01 | 1486549740.10546 | pgbench_tellers_pkey  |          3883008
 2017-02-08 11:29:00.105457+01 | 1486549740.10546 | pgbench_accounts_pkey |        673882112

 2017-02-08 11:29:01.161105+01 | 1486549741.1611 | pgbench_branches_pkey |          1187840
 2017-02-08 11:29:01.161105+01 | 1486549741.1611 | pgbench_tellers_pkey  |          3883008
 2017-02-08 11:29:01.161105+01 | 1486549741.1611 | pgbench_accounts_pkey |        673882112

 2017-02-08 11:29:02.220447+01 | 1486549742.22045 | pgbench_branches_pkey |          1187840
 2017-02-08 11:29:02.220447+01 | 1486549742.22045 | pgbench_tellers_pkey  |          3883008
 2017-02-08 11:29:02.220447+01 | 1486549742.22045 | pgbench_accounts_pkey |        673882112

 2017-02-08 11:29:03.275159+01 | 1486549743.27516 | pgbench_branches_pkey |          1187840
 2017-02-08 11:29:03.275159+01 | 1486549743.27516 | pgbench_tellers_pkey  |          3883008
 2017-02-08 11:29:03.275159+01 | 1486549743.27516 | pgbench_accounts_pkey |        673882112

 2017-02-08 11:29:04.331924+01 | 1486549744.33192 | pgbench_branches_pkey |          1187840
 2017-02-08 11:29:04.331924+01 | 1486549744.33192 | pgbench_tellers_pkey  |          3883008
 2017-02-08 11:29:04.331924+01 | 1486549744.33192 | pgbench_accounts_pkey |        673882112

 2017-02-08 11:29:05.389033+01 | 1486549745.38903 | pgbench_branches_pkey |          1187840
 2017-02-08 11:29:05.389033+01 | 1486549745.38903 | pgbench_tellers_pkey  |          3883008
 2017-02-08 11:29:05.389033+01 | 1486549745.38903 | pgbench_accounts_pkey |        673882112

 2017-02-08 11:29:06.458562+01 | 1486549746.45856 | pgbench_branches_pkey |          1187840
 2017-02-08 11:29:06.458562+01 | 1486549746.45856 | pgbench_tellers_pkey  |          3883008
 2017-02-08 11:29:06.458562+01 | 1486549746.45856 | pgbench_accounts_pkey |        673882112

 2017-02-08 11:29:07.518463+01 | 1486549747.51846 | pgbench_branches_pkey |          1187840
 2017-02-08 11:29:07.518463+01 | 1486549747.51846 | pgbench_tellers_pkey  |          3883008
 2017-02-08 11:29:07.518463+01 | 1486549747.51846 | pgbench_accounts_pkey |        673882112

 2017-02-08 11:29:08.579713+01 | 1486549748.57971 | pgbench_branches_pkey |          1187840
 2017-02-08 11:29:08.579713+01 | 1486549748.57971 | pgbench_tellers_pkey  |          3883008
 2017-02-08 11:29:08.579713+01 | 1486549748.57971 | pgbench_accounts_pkey |        673882112

 2017-02-08 11:29:09.639166+01 | 1486549749.63917 | pgbench_branches_pkey |          1187840
 2017-02-08 11:29:09.639166+01 | 1486549749.63917 | pgbench_tellers_pkey  |          3883008
 2017-02-08 11:29:09.639166+01 | 1486549749.63917 | pgbench_accounts_pkey |        673882112

 2017-02-08 11:29:10.699028+01 | 1486549750.69903 | pgbench_branches_pkey |          1187840
 2017-02-08 11:29:10.699028+01 | 1486549750.69903 | pgbench_tellers_pkey  |          3883008
 2017-02-08 11:29:10.699028+01 | 1486549750.69903 | pgbench_accounts_pkey |        673882112

 2017-02-08 11:29:11.760133+01 | 1486549751.76013 | pgbench_branches_pkey |          1187840
 2017-02-08 11:29:11.760133+01 | 1486549751.76013 | pgbench_tellers_pkey  |          3883008
 2017-02-08 11:29:11.760133+01 | 1486549751.76013 | pgbench_accounts_pkey |        673882112

 2017-02-08 11:29:12.812975+01 | 1486549752.81297 | pgbench_branches_pkey |          1187840
 2017-02-08 11:29:12.812975+01 | 1486549752.81297 | pgbench_tellers_pkey  |          3883008
 2017-02-08 11:29:12.812975+01 | 1486549752.81297 | pgbench_accounts_pkey |        673882112

 2017-02-08 11:29:13.870636+01 | 1486549753.87064 | pgbench_branches_pkey |          1187840
 2017-02-08 11:29:13.870636+01 | 1486549753.87064 | pgbench_tellers_pkey  |          3883008
 2017-02-08 11:29:13.870636+01 | 1486549753.87064 | pgbench_accounts_pkey |        673882112

 2017-02-08 11:29:14.930655+01 | 1486549754.93066 | pgbench_branches_pkey |          1187840
 2017-02-08 11:29:14.930655+01 | 1486549754.93066 | pgbench_tellers_pkey  |          3883008
 2017-02-08 11:29:14.930655+01 | 1486549754.93066 | pgbench_accounts_pkey |        673882112

 2017-02-08 11:29:15.990922+01 | 1486549755.99092 | pgbench_branches_pkey |          1187840
 2017-02-08 11:29:15.990922+01 | 1486549755.99092 | pgbench_tellers_pkey  |          3883008
 2017-02-08 11:29:15.990922+01 | 1486549755.99092 | pgbench_accounts_pkey |        673882112

 2017-02-08 11:29:17.044941+01 | 1486549757.04494 | pgbench_branches_pkey |          1187840
 2017-02-08 11:29:17.044941+01 | 1486549757.04494 | pgbench_tellers_pkey  |          3883008
 2017-02-08 11:29:17.044941+01 | 1486549757.04494 | pgbench_accounts_pkey |        673882112

 2017-02-08 11:29:18.104573+01 | 1486549758.10457 | pgbench_branches_pkey |          1187840
 2017-02-08 11:29:18.104573+01 | 1486549758.10457 | pgbench_tellers_pkey  |          3883008
 2017-02-08 11:29:18.104573+01 | 1486549758.10457 | pgbench_accounts_pkey |        673882112

 2017-02-08 11:29:19.160528+01 | 1486549759.16053 | pgbench_branches_pkey |          1187840
 2017-02-08 11:29:19.160528+01 | 1486549759.16053 | pgbench_tellers_pkey  |          3883008
 2017-02-08 11:29:19.160528+01 | 1486549759.16053 | pgbench_accounts_pkey |        673882112

 2017-02-08 11:29:20.220782+01 | 1486549760.22078 | pgbench_branches_pkey |          1187840
 2017-02-08 11:29:20.220782+01 | 1486549760.22078 | pgbench_tellers_pkey  |          3883008
 2017-02-08 11:29:20.220782+01 | 1486549760.22078 | pgbench_accounts_pkey |        673882112

 2017-02-08 11:29:21.279164+01 | 1486549761.27916 | pgbench_branches_pkey |          1187840
 2017-02-08 11:29:21.279164+01 | 1486549761.27916 | pgbench_tellers_pkey  |          3883008
 2017-02-08 11:29:21.279164+01 | 1486549761.27916 | pgbench_accounts_pkey |        673882112

 2017-02-08 11:29:22.339481+01 | 1486549762.33948 | pgbench_branches_pkey |          1187840
 2017-02-08 11:29:22.339481+01 | 1486549762.33948 | pgbench_tellers_pkey  |          3883008
 2017-02-08 11:29:22.339481+01 | 1486549762.33948 | pgbench_accounts_pkey |        673882112

 2017-02-08 11:29:23.39313+01 | 1486549763.39313 | pgbench_branches_pkey |          1187840
 2017-02-08 11:29:23.39313+01 | 1486549763.39313 | pgbench_tellers_pkey  |          3883008
 2017-02-08 11:29:23.39313+01 | 1486549763.39313 | pgbench_accounts_pkey |        673882112

 2017-02-08 11:29:24.458181+01 | 1486549764.45818 | pgbench_branches_pkey |          1187840
 2017-02-08 11:29:24.458181+01 | 1486549764.45818 | pgbench_tellers_pkey  |          3883008
 2017-02-08 11:29:24.458181+01 | 1486549764.45818 | pgbench_accounts_pkey |        673882112

 2017-02-08 11:29:25.520789+01 | 1486549765.52079 | pgbench_branches_pkey |          1187840
 2017-02-08 11:29:25.520789+01 | 1486549765.52079 | pgbench_tellers_pkey  |          3883008
 2017-02-08 11:29:25.520789+01 | 1486549765.52079 | pgbench_accounts_pkey |        673882112

 2017-02-08 11:29:26.582401+01 | 1486549766.5824 | pgbench_branches_pkey |          1187840
 2017-02-08 11:29:26.582401+01 | 1486549766.5824 | pgbench_tellers_pkey  |          3883008
 2017-02-08 11:29:26.582401+01 | 1486549766.5824 | pgbench_accounts_pkey |        673882112

 2017-02-08 11:29:27.639489+01 | 1486549767.63949 | pgbench_branches_pkey |          1187840
 2017-02-08 11:29:27.639489+01 | 1486549767.63949 | pgbench_tellers_pkey  |          3883008
 2017-02-08 11:29:27.639489+01 | 1486549767.63949 | pgbench_accounts_pkey |        673882112

 2017-02-08 11:29:28.713995+01 | 1486549768.71399 | pgbench_branches_pkey |          1187840
 2017-02-08 11:29:28.713995+01 | 1486549768.71399 | pgbench_tellers_pkey  |          3883008
 2017-02-08 11:29:28.713995+01 | 1486549768.71399 | pgbench_accounts_pkey |        673882112

 2017-02-08 11:29:29.77688+01 | 1486549769.77688 | pgbench_branches_pkey |          1187840
 2017-02-08 11:29:29.77688+01 | 1486549769.77688 | pgbench_tellers_pkey  |          3883008
 2017-02-08 11:29:29.77688+01 | 1486549769.77688 | pgbench_accounts_pkey |        673882112

 2017-02-08 11:29:30.843088+01 | 1486549770.84309 | pgbench_branches_pkey |          1187840
 2017-02-08 11:29:30.843088+01 | 1486549770.84309 | pgbench_tellers_pkey  |          3883008
 2017-02-08 11:29:30.843088+01 | 1486549770.84309 | pgbench_accounts_pkey |        673882112

 2017-02-08 11:29:31.905725+01 | 1486549771.90573 | pgbench_branches_pkey |          1187840
 2017-02-08 11:29:31.905725+01 | 1486549771.90573 | pgbench_tellers_pkey  |          3883008
 2017-02-08 11:29:31.905725+01 | 1486549771.90573 | pgbench_accounts_pkey |        673882112

 2017-02-08 11:29:32.966714+01 | 1486549772.96671 | pgbench_branches_pkey |          1187840
 2017-02-08 11:29:32.966714+01 | 1486549772.96671 | pgbench_tellers_pkey  |          3883008
 2017-02-08 11:29:32.966714+01 | 1486549772.96671 | pgbench_accounts_pkey |        673882112

 2017-02-08 11:29:34.026324+01 | 1486549774.02632 | pgbench_branches_pkey |          1187840
 2017-02-08 11:29:34.026324+01 | 1486549774.02632 | pgbench_tellers_pkey  |          3883008
 2017-02-08 11:29:34.026324+01 | 1486549774.02632 | pgbench_accounts_pkey |        673882112

 2017-02-08 11:29:35.080824+01 | 1486549775.08082 | pgbench_branches_pkey |          1187840
 2017-02-08 11:29:35.080824+01 | 1486549775.08082 | pgbench_tellers_pkey  |          3883008
 2017-02-08 11:29:35.080824+01 | 1486549775.08082 | pgbench_accounts_pkey |        673882112

 2017-02-08 11:29:36.137738+01 | 1486549776.13774 | pgbench_branches_pkey |          1187840
 2017-02-08 11:29:36.137738+01 | 1486549776.13774 | pgbench_tellers_pkey  |          3883008
 2017-02-08 11:29:36.137738+01 | 1486549776.13774 | pgbench_accounts_pkey |        673882112

 2017-02-08 11:29:37.191439+01 | 1486549777.19144 | pgbench_branches_pkey |          1187840
 2017-02-08 11:29:37.191439+01 | 1486549777.19144 | pgbench_tellers_pkey  |          3883008
 2017-02-08 11:29:37.191439+01 | 1486549777.19144 | pgbench_accounts_pkey |        673882112

 2017-02-08 11:29:38.238218+01 | 1486549778.23822 | pgbench_branches_pkey |          1187840
 2017-02-08 11:29:38.238218+01 | 1486549778.23822 | pgbench_tellers_pkey  |          3883008
 2017-02-08 11:29:38.238218+01 | 1486549778.23822 | pgbench_accounts_pkey |        673882112

 2017-02-08 11:29:39.301979+01 | 1486549779.30198 | pgbench_branches_pkey |          1187840
 2017-02-08 11:29:39.301979+01 | 1486549779.30198 | pgbench_tellers_pkey  |          3883008
 2017-02-08 11:29:39.301979+01 | 1486549779.30198 | pgbench_accounts_pkey |        673882112

 2017-02-08 11:29:40.355437+01 | 1486549780.35544 | pgbench_branches_pkey |          1187840
 2017-02-08 11:29:40.355437+01 | 1486549780.35544 | pgbench_tellers_pkey  |          3883008
 2017-02-08 11:29:40.355437+01 | 1486549780.35544 | pgbench_accounts_pkey |        673882112

 2017-02-08 11:29:41.411245+01 | 1486549781.41125 | pgbench_branches_pkey |          1187840
 2017-02-08 11:29:41.411245+01 | 1486549781.41125 | pgbench_tellers_pkey  |          3883008
 2017-02-08 11:29:41.411245+01 | 1486549781.41125 | pgbench_accounts_pkey |        673882112

 2017-02-08 11:29:42.465797+01 | 1486549782.4658 | pgbench_branches_pkey |          1187840
 2017-02-08 11:29:42.465797+01 | 1486549782.4658 | pgbench_tellers_pkey  |          3883008
 2017-02-08 11:29:42.465797+01 | 1486549782.4658 | pgbench_accounts_pkey |        673882112

 2017-02-08 11:29:43.524593+01 | 1486549783.52459 | pgbench_branches_pkey |          1187840
 2017-02-08 11:29:43.524593+01 | 1486549783.52459 | pgbench_tellers_pkey  |          3883008
 2017-02-08 11:29:43.524593+01 | 1486549783.52459 | pgbench_accounts_pkey |        673882112

 2017-02-08 11:29:44.592774+01 | 1486549784.59277 | pgbench_branches_pkey |          1187840
 2017-02-08 11:29:44.592774+01 | 1486549784.59277 | pgbench_tellers_pkey  |          3883008
 2017-02-08 11:29:44.592774+01 | 1486549784.59277 | pgbench_accounts_pkey |        673882112

 2017-02-08 11:29:45.650076+01 | 1486549785.65008 | pgbench_branches_pkey |          1187840
 2017-02-08 11:29:45.650076+01 | 1486549785.65008 | pgbench_tellers_pkey  |          3883008
 2017-02-08 11:29:45.650076+01 | 1486549785.65008 | pgbench_accounts_pkey |        673882112

 2017-02-08 11:29:46.709883+01 | 1486549786.70988 | pgbench_branches_pkey |          1187840
 2017-02-08 11:29:46.709883+01 | 1486549786.70988 | pgbench_tellers_pkey  |          3883008
 2017-02-08 11:29:46.709883+01 | 1486549786.70988 | pgbench_accounts_pkey |        673882112

 2017-02-08 11:29:47.769368+01 | 1486549787.76937 | pgbench_branches_pkey |          1187840
 2017-02-08 11:29:47.769368+01 | 1486549787.76937 | pgbench_tellers_pkey  |          3883008
 2017-02-08 11:29:47.769368+01 | 1486549787.76937 | pgbench_accounts_pkey |        673882112

 2017-02-08 11:29:48.828525+01 | 1486549788.82853 | pgbench_branches_pkey |          1187840
 2017-02-08 11:29:48.828525+01 | 1486549788.82853 | pgbench_tellers_pkey  |          3883008
 2017-02-08 11:29:48.828525+01 | 1486549788.82853 | pgbench_accounts_pkey |        673882112

 2017-02-08 11:29:49.892473+01 | 1486549789.89247 | pgbench_branches_pkey |          1187840
 2017-02-08 11:29:49.892473+01 | 1486549789.89247 | pgbench_tellers_pkey  |          3883008
 2017-02-08 11:29:49.892473+01 | 1486549789.89247 | pgbench_accounts_pkey |        673882112

 2017-02-08 11:29:50.950156+01 | 1486549790.95016 | pgbench_branches_pkey |          1187840
 2017-02-08 11:29:50.950156+01 | 1486549790.95016 | pgbench_tellers_pkey  |          3883008
 2017-02-08 11:29:50.950156+01 | 1486549790.95016 | pgbench_accounts_pkey |        673882112

 2017-02-08 11:29:52.007926+01 | 1486549792.00793 | pgbench_branches_pkey |          1187840
 2017-02-08 11:29:52.007926+01 | 1486549792.00793 | pgbench_tellers_pkey  |          3883008
 2017-02-08 11:29:52.007926+01 | 1486549792.00793 | pgbench_accounts_pkey |        673882112

 2017-02-08 11:29:53.062756+01 | 1486549793.06276 | pgbench_branches_pkey |          1187840
 2017-02-08 11:29:53.062756+01 | 1486549793.06276 | pgbench_tellers_pkey  |          3883008
 2017-02-08 11:29:53.062756+01 | 1486549793.06276 | pgbench_accounts_pkey |        673882112

 2017-02-08 11:29:54.125815+01 | 1486549794.12581 | pgbench_branches_pkey |          1187840
 2017-02-08 11:29:54.125815+01 | 1486549794.12581 | pgbench_tellers_pkey  |          3883008
 2017-02-08 11:29:54.125815+01 | 1486549794.12581 | pgbench_accounts_pkey |        673882112

 2017-02-08 11:29:55.182002+01 | 1486549795.182 | pgbench_branches_pkey |          1187840
 2017-02-08 11:29:55.182002+01 | 1486549795.182 | pgbench_tellers_pkey  |          3883008
 2017-02-08 11:29:55.182002+01 | 1486549795.182 | pgbench_accounts_pkey |        673882112

 2017-02-08 11:29:56.236627+01 | 1486549796.23663 | pgbench_branches_pkey |          1187840
 2017-02-08 11:29:56.236627+01 | 1486549796.23663 | pgbench_tellers_pkey  |          3883008
 2017-02-08 11:29:56.236627+01 | 1486549796.23663 | pgbench_accounts_pkey |        673882112

 2017-02-08 11:29:57.290629+01 | 1486549797.29063 | pgbench_branches_pkey |          1187840
 2017-02-08 11:29:57.290629+01 | 1486549797.29063 | pgbench_tellers_pkey  |          3883008
 2017-02-08 11:29:57.290629+01 | 1486549797.29063 | pgbench_accounts_pkey |        673882112

 2017-02-08 11:29:58.349959+01 | 1486549798.34996 | pgbench_branches_pkey |          1187840
 2017-02-08 11:29:58.349959+01 | 1486549798.34996 | pgbench_tellers_pkey  |          3883008
 2017-02-08 11:29:58.349959+01 | 1486549798.34996 | pgbench_accounts_pkey |        673882112

 2017-02-08 11:29:59.402513+01 | 1486549799.40251 | pgbench_branches_pkey |          1187840
 2017-02-08 11:29:59.402513+01 | 1486549799.40251 | pgbench_tellers_pkey  |          3883008
 2017-02-08 11:29:59.402513+01 | 1486549799.40251 | pgbench_accounts_pkey |        673882112

 2017-02-08 11:30:00.463859+01 | 1486549800.46386 | pgbench_branches_pkey |          1187840
 2017-02-08 11:30:00.463859+01 | 1486549800.46386 | pgbench_tellers_pkey  |          3883008
 2017-02-08 11:30:00.463859+01 | 1486549800.46386 | pgbench_accounts_pkey |        673882112

 2017-02-08 11:30:01.522823+01 | 1486549801.52282 | pgbench_branches_pkey |          1187840
 2017-02-08 11:30:01.522823+01 | 1486549801.52282 | pgbench_tellers_pkey  |          3883008
 2017-02-08 11:30:01.522823+01 | 1486549801.52282 | pgbench_accounts_pkey |        673882112

 2017-02-08 11:30:02.590565+01 | 1486549802.59056 | pgbench_branches_pkey |          1187840
 2017-02-08 11:30:02.590565+01 | 1486549802.59056 | pgbench_tellers_pkey  |          3883008
 2017-02-08 11:30:02.590565+01 | 1486549802.59056 | pgbench_accounts_pkey |        673882112

 2017-02-08 11:30:03.654036+01 | 1486549803.65404 | pgbench_branches_pkey |          1187840
 2017-02-08 11:30:03.654036+01 | 1486549803.65404 | pgbench_tellers_pkey  |          3883008
 2017-02-08 11:30:03.654036+01 | 1486549803.65404 | pgbench_accounts_pkey |        673882112

 2017-02-08 11:30:04.710662+01 | 1486549804.71066 | pgbench_branches_pkey |          1187840
 2017-02-08 11:30:04.710662+01 | 1486549804.71066 | pgbench_tellers_pkey  |          3883008
 2017-02-08 11:30:04.710662+01 | 1486549804.71066 | pgbench_accounts_pkey |        673882112

 2017-02-08 11:30:05.774376+01 | 1486549805.77438 | pgbench_branches_pkey |          1187840
 2017-02-08 11:30:05.774376+01 | 1486549805.77438 | pgbench_tellers_pkey  |          3883008
 2017-02-08 11:30:05.774376+01 | 1486549805.77438 | pgbench_accounts_pkey |        673882112

 2017-02-08 11:30:06.845336+01 | 1486549806.84534 | pgbench_branches_pkey |          1187840
 2017-02-08 11:30:06.845336+01 | 1486549806.84534 | pgbench_tellers_pkey  |          3883008
 2017-02-08 11:30:06.845336+01 | 1486549806.84534 | pgbench_accounts_pkey |        673882112

 2017-02-08 11:30:07.903809+01 | 1486549807.90381 | pgbench_branches_pkey |          1187840
 2017-02-08 11:30:07.903809+01 | 1486549807.90381 | pgbench_tellers_pkey  |          3883008
 2017-02-08 11:30:07.903809+01 | 1486549807.90381 | pgbench_accounts_pkey |        673882112

 2017-02-08 11:30:08.971287+01 | 1486549808.97129 | pgbench_branches_pkey |          1187840
 2017-02-08 11:30:08.971287+01 | 1486549808.97129 | pgbench_tellers_pkey  |          3883008
 2017-02-08 11:30:08.971287+01 | 1486549808.97129 | pgbench_accounts_pkey |        673882112

 2017-02-08 11:30:10.032073+01 | 1486549810.03207 | pgbench_branches_pkey |          1187840
 2017-02-08 11:30:10.032073+01 | 1486549810.03207 | pgbench_tellers_pkey  |          3883008
 2017-02-08 11:30:10.032073+01 | 1486549810.03207 | pgbench_accounts_pkey |        673882112

 2017-02-08 11:30:11.089236+01 | 1486549811.08924 | pgbench_branches_pkey |          1187840
 2017-02-08 11:30:11.089236+01 | 1486549811.08924 | pgbench_tellers_pkey  |          3883008
 2017-02-08 11:30:11.089236+01 | 1486549811.08924 | pgbench_accounts_pkey |        673882112

 2017-02-08 11:30:12.14853+01 | 1486549812.14853 | pgbench_branches_pkey |          1187840
 2017-02-08 11:30:12.14853+01 | 1486549812.14853 | pgbench_tellers_pkey  |          3883008
 2017-02-08 11:30:12.14853+01 | 1486549812.14853 | pgbench_accounts_pkey |        673882112

 2017-02-08 11:30:13.208093+01 | 1486549813.20809 | pgbench_branches_pkey |          1187840
 2017-02-08 11:30:13.208093+01 | 1486549813.20809 | pgbench_tellers_pkey  |          3883008
 2017-02-08 11:30:13.208093+01 | 1486549813.20809 | pgbench_accounts_pkey |        673882112

 2017-02-08 11:30:14.262444+01 | 1486549814.26244 | pgbench_branches_pkey |          1187840
 2017-02-08 11:30:14.262444+01 | 1486549814.26244 | pgbench_tellers_pkey  |          3883008
 2017-02-08 11:30:14.262444+01 | 1486549814.26244 | pgbench_accounts_pkey |        673882112

 2017-02-08 11:30:15.320334+01 | 1486549815.32033 | pgbench_branches_pkey |          1187840
 2017-02-08 11:30:15.320334+01 | 1486549815.32033 | pgbench_tellers_pkey  |          3883008
 2017-02-08 11:30:15.320334+01 | 1486549815.32033 | pgbench_accounts_pkey |        673882112

 2017-02-08 11:30:16.379055+01 | 1486549816.37906 | pgbench_branches_pkey |          1187840
 2017-02-08 11:30:16.379055+01 | 1486549816.37906 | pgbench_tellers_pkey  |          3883008
 2017-02-08 11:30:16.379055+01 | 1486549816.37906 | pgbench_accounts_pkey |        673882112

 2017-02-08 11:30:17.435921+01 | 1486549817.43592 | pgbench_branches_pkey |          1187840
 2017-02-08 11:30:17.435921+01 | 1486549817.43592 | pgbench_tellers_pkey  |          3883008
 2017-02-08 11:30:17.435921+01 | 1486549817.43592 | pgbench_accounts_pkey |        673882112

 2017-02-08 11:30:18.495008+01 | 1486549818.49501 | pgbench_branches_pkey |          1187840
 2017-02-08 11:30:18.495008+01 | 1486549818.49501 | pgbench_tellers_pkey  |          3883008
 2017-02-08 11:30:18.495008+01 | 1486549818.49501 | pgbench_accounts_pkey |        673882112

 2017-02-08 11:30:19.551049+01 | 1486549819.55105 | pgbench_branches_pkey |          1187840
 2017-02-08 11:30:19.551049+01 | 1486549819.55105 | pgbench_tellers_pkey  |          3883008
 2017-02-08 11:30:19.551049+01 | 1486549819.55105 | pgbench_accounts_pkey |        673882112

 2017-02-08 11:30:20.605463+01 | 1486549820.60546 | pgbench_branches_pkey |          1187840
 2017-02-08 11:30:20.605463+01 | 1486549820.60546 | pgbench_tellers_pkey  |          3883008
 2017-02-08 11:30:20.605463+01 | 1486549820.60546 | pgbench_accounts_pkey |        673882112

 2017-02-08 11:30:21.663106+01 | 1486549821.66311 | pgbench_branches_pkey |          1187840
 2017-02-08 11:30:21.663106+01 | 1486549821.66311 | pgbench_tellers_pkey  |          3883008
 2017-02-08 11:30:21.663106+01 | 1486549821.66311 | pgbench_accounts_pkey |        673882112

 2017-02-08 11:30:22.722794+01 | 1486549822.72279 | pgbench_branches_pkey |          1187840
 2017-02-08 11:30:22.722794+01 | 1486549822.72279 | pgbench_tellers_pkey  |          3883008
 2017-02-08 11:30:22.722794+01 | 1486549822.72279 | pgbench_accounts_pkey |        673882112

 2017-02-08 11:30:23.776406+01 | 1486549823.77641 | pgbench_branches_pkey |          1187840
 2017-02-08 11:30:23.776406+01 | 1486549823.77641 | pgbench_tellers_pkey  |          3883008
 2017-02-08 11:30:23.776406+01 | 1486549823.77641 | pgbench_accounts_pkey |        673882112

 2017-02-08 11:30:24.83233+01 | 1486549824.83233 | pgbench_branches_pkey |          1187840
 2017-02-08 11:30:24.83233+01 | 1486549824.83233 | pgbench_tellers_pkey  |          3883008
 2017-02-08 11:30:24.83233+01 | 1486549824.83233 | pgbench_accounts_pkey |        673882112

 2017-02-08 11:30:25.891158+01 | 1486549825.89116 | pgbench_branches_pkey |          1187840
 2017-02-08 11:30:25.891158+01 | 1486549825.89116 | pgbench_tellers_pkey  |          3883008
 2017-02-08 11:30:25.891158+01 | 1486549825.89116 | pgbench_accounts_pkey |        673882112

 2017-02-08 11:30:26.948421+01 | 1486549826.94842 | pgbench_branches_pkey |          1187840
 2017-02-08 11:30:26.948421+01 | 1486549826.94842 | pgbench_tellers_pkey  |          3883008
 2017-02-08 11:30:26.948421+01 | 1486549826.94842 | pgbench_accounts_pkey |        673882112

 2017-02-08 11:30:28.009589+01 | 1486549828.00959 | pgbench_branches_pkey |          1187840
 2017-02-08 11:30:28.009589+01 | 1486549828.00959 | pgbench_tellers_pkey  |          3883008
 2017-02-08 11:30:28.009589+01 | 1486549828.00959 | pgbench_accounts_pkey |        673882112

 2017-02-08 11:30:29.069526+01 | 1486549829.06953 | pgbench_branches_pkey |          1187840
 2017-02-08 11:30:29.069526+01 | 1486549829.06953 | pgbench_tellers_pkey  |          3883008
 2017-02-08 11:30:29.069526+01 | 1486549829.06953 | pgbench_accounts_pkey |        673882112

 2017-02-08 11:30:30.125049+01 | 1486549830.12505 | pgbench_branches_pkey |          1187840
 2017-02-08 11:30:30.125049+01 | 1486549830.12505 | pgbench_tellers_pkey  |          3883008
 2017-02-08 11:30:30.125049+01 | 1486549830.12505 | pgbench_accounts_pkey |        673882112

 2017-02-08 11:30:31.191458+01 | 1486549831.19146 | pgbench_branches_pkey |          1187840
 2017-02-08 11:30:31.191458+01 | 1486549831.19146 | pgbench_tellers_pkey  |          3883008
 2017-02-08 11:30:31.191458+01 | 1486549831.19146 | pgbench_accounts_pkey |        673882112

 2017-02-08 11:30:32.255966+01 | 1486549832.25597 | pgbench_branches_pkey |          1187840
 2017-02-08 11:30:32.255966+01 | 1486549832.25597 | pgbench_tellers_pkey  |          3883008
 2017-02-08 11:30:32.255966+01 | 1486549832.25597 | pgbench_accounts_pkey |        673882112

 2017-02-08 11:30:33.32191+01 | 1486549833.32191 | pgbench_branches_pkey |          1187840
 2017-02-08 11:30:33.32191+01 | 1486549833.32191 | pgbench_tellers_pkey  |          3883008
 2017-02-08 11:30:33.32191+01 | 1486549833.32191 | pgbench_accounts_pkey |        673882112

 2017-02-08 11:30:34.385211+01 | 1486549834.38521 | pgbench_branches_pkey |          1187840
 2017-02-08 11:30:34.385211+01 | 1486549834.38521 | pgbench_tellers_pkey  |          3883008
 2017-02-08 11:30:34.385211+01 | 1486549834.38521 | pgbench_accounts_pkey |        673882112

 2017-02-08 11:30:35.443084+01 | 1486549835.44308 | pgbench_branches_pkey |          1187840
 2017-02-08 11:30:35.443084+01 | 1486549835.44308 | pgbench_tellers_pkey  |          3883008
 2017-02-08 11:30:35.443084+01 | 1486549835.44308 | pgbench_accounts_pkey |        673882112

 2017-02-08 11:30:36.502375+01 | 1486549836.50237 | pgbench_branches_pkey |          1187840
 2017-02-08 11:30:36.502375+01 | 1486549836.50237 | pgbench_tellers_pkey  |          3883008
 2017-02-08 11:30:36.502375+01 | 1486549836.50237 | pgbench_accounts_pkey |        673882112

 2017-02-08 11:30:37.561129+01 | 1486549837.56113 | pgbench_branches_pkey |          1187840
 2017-02-08 11:30:37.561129+01 | 1486549837.56113 | pgbench_tellers_pkey  |          3883008
 2017-02-08 11:30:37.561129+01 | 1486549837.56113 | pgbench_accounts_pkey |        673882112

 2017-02-08 11:30:38.619452+01 | 1486549838.61945 | pgbench_branches_pkey |          1187840
 2017-02-08 11:30:38.619452+01 | 1486549838.61945 | pgbench_tellers_pkey  |          3883008
 2017-02-08 11:30:38.619452+01 | 1486549838.61945 | pgbench_accounts_pkey |        673882112

 2017-02-08 11:30:39.680708+01 | 1486549839.68071 | pgbench_branches_pkey |          1187840
 2017-02-08 11:30:39.680708+01 | 1486549839.68071 | pgbench_tellers_pkey  |          3883008
 2017-02-08 11:30:39.680708+01 | 1486549839.68071 | pgbench_accounts_pkey |        673882112

 2017-02-08 11:30:40.736082+01 | 1486549840.73608 | pgbench_branches_pkey |          1187840
 2017-02-08 11:30:40.736082+01 | 1486549840.73608 | pgbench_tellers_pkey  |          3883008
 2017-02-08 11:30:40.736082+01 | 1486549840.73608 | pgbench_accounts_pkey |        673882112

 2017-02-08 11:30:41.798501+01 | 1486549841.7985 | pgbench_branches_pkey |          1187840
 2017-02-08 11:30:41.798501+01 | 1486549841.7985 | pgbench_tellers_pkey  |          3883008
 2017-02-08 11:30:41.798501+01 | 1486549841.7985 | pgbench_accounts_pkey |        673882112

 2017-02-08 11:30:42.856816+01 | 1486549842.85682 | pgbench_branches_pkey |          1187840
 2017-02-08 11:30:42.856816+01 | 1486549842.85682 | pgbench_tellers_pkey  |          3883008
 2017-02-08 11:30:42.856816+01 | 1486549842.85682 | pgbench_accounts_pkey |        673882112

 2017-02-08 11:30:43.914735+01 | 1486549843.91474 | pgbench_branches_pkey |          1187840
 2017-02-08 11:30:43.914735+01 | 1486549843.91474 | pgbench_tellers_pkey  |          3883008
 2017-02-08 11:30:43.914735+01 | 1486549843.91474 | pgbench_accounts_pkey |        673882112

 2017-02-08 11:30:44.973266+01 | 1486549844.97327 | pgbench_branches_pkey |          1187840
 2017-02-08 11:30:44.973266+01 | 1486549844.97327 | pgbench_tellers_pkey  |          3883008
 2017-02-08 11:30:44.973266+01 | 1486549844.97327 | pgbench_accounts_pkey |        673882112

 2017-02-08 11:30:46.041434+01 | 1486549846.04143 | pgbench_branches_pkey |          1187840
 2017-02-08 11:30:46.041434+01 | 1486549846.04143 | pgbench_tellers_pkey  |          3883008
 2017-02-08 11:30:46.041434+01 | 1486549846.04143 | pgbench_accounts_pkey |        673882112

 2017-02-08 11:30:47.102611+01 | 1486549847.10261 | pgbench_branches_pkey |          1187840
 2017-02-08 11:30:47.102611+01 | 1486549847.10261 | pgbench_tellers_pkey  |          3883008
 2017-02-08 11:30:47.102611+01 | 1486549847.10261 | pgbench_accounts_pkey |        673882112

 2017-02-08 11:30:48.158397+01 | 1486549848.1584 | pgbench_branches_pkey |          1187840
 2017-02-08 11:30:48.158397+01 | 1486549848.1584 | pgbench_tellers_pkey  |          3883008
 2017-02-08 11:30:48.158397+01 | 1486549848.1584 | pgbench_accounts_pkey |        673882112

 2017-02-08 11:30:49.217179+01 | 1486549849.21718 | pgbench_branches_pkey |          1187840
 2017-02-08 11:30:49.217179+01 | 1486549849.21718 | pgbench_tellers_pkey  |          3883008
 2017-02-08 11:30:49.217179+01 | 1486549849.21718 | pgbench_accounts_pkey |        673882112

 2017-02-08 11:30:50.274859+01 | 1486549850.27486 | pgbench_branches_pkey |          1187840
 2017-02-08 11:30:50.274859+01 | 1486549850.27486 | pgbench_tellers_pkey  |          3883008
 2017-02-08 11:30:50.274859+01 | 1486549850.27486 | pgbench_accounts_pkey |        673882112

 2017-02-08 11:30:51.332286+01 | 1486549851.33229 | pgbench_branches_pkey |          1187840
 2017-02-08 11:30:51.332286+01 | 1486549851.33229 | pgbench_tellers_pkey  |          3883008
 2017-02-08 11:30:51.332286+01 | 1486549851.33229 | pgbench_accounts_pkey |        673882112

 2017-02-08 11:30:52.384238+01 | 1486549852.38424 | pgbench_branches_pkey |          1187840
 2017-02-08 11:30:52.384238+01 | 1486549852.38424 | pgbench_tellers_pkey  |          3883008
 2017-02-08 11:30:52.384238+01 | 1486549852.38424 | pgbench_accounts_pkey |        673882112

 2017-02-08 11:30:53.443396+01 | 1486549853.4434 | pgbench_branches_pkey |          1187840
 2017-02-08 11:30:53.443396+01 | 1486549853.4434 | pgbench_tellers_pkey  |          3883008
 2017-02-08 11:30:53.443396+01 | 1486549853.4434 | pgbench_accounts_pkey |        673882112

 2017-02-08 11:30:54.498398+01 | 1486549854.4984 | pgbench_branches_pkey |          1187840
 2017-02-08 11:30:54.498398+01 | 1486549854.4984 | pgbench_tellers_pkey  |          3883008
 2017-02-08 11:30:54.498398+01 | 1486549854.4984 | pgbench_accounts_pkey |        673882112

 2017-02-08 11:30:55.550625+01 | 1486549855.55063 | pgbench_branches_pkey |          1187840
 2017-02-08 11:30:55.550625+01 | 1486549855.55063 | pgbench_tellers_pkey  |          3883008
 2017-02-08 11:30:55.550625+01 | 1486549855.55063 | pgbench_accounts_pkey |        673882112

 2017-02-08 11:30:56.614416+01 | 1486549856.61442 | pgbench_branches_pkey |          1187840
 2017-02-08 11:30:56.614416+01 | 1486549856.61442 | pgbench_tellers_pkey  |          3883008
 2017-02-08 11:30:56.614416+01 | 1486549856.61442 | pgbench_accounts_pkey |        673882112

 2017-02-08 11:30:57.673121+01 | 1486549857.67312 | pgbench_branches_pkey |          1187840
 2017-02-08 11:30:57.673121+01 | 1486549857.67312 | pgbench_tellers_pkey  |          3883008
 2017-02-08 11:30:57.673121+01 | 1486549857.67312 | pgbench_accounts_pkey |        673882112

 2017-02-08 11:30:58.727625+01 | 1486549858.72762 | pgbench_branches_pkey |          1187840
 2017-02-08 11:30:58.727625+01 | 1486549858.72762 | pgbench_tellers_pkey  |          3883008
 2017-02-08 11:30:58.727625+01 | 1486549858.72762 | pgbench_accounts_pkey |        673882112

 2017-02-08 11:30:59.787436+01 | 1486549859.78744 | pgbench_branches_pkey |          1187840
 2017-02-08 11:30:59.787436+01 | 1486549859.78744 | pgbench_tellers_pkey  |          3883008
 2017-02-08 11:30:59.787436+01 | 1486549859.78744 | pgbench_accounts_pkey |        673882112

 2017-02-08 11:31:00.842631+01 | 1486549860.84263 | pgbench_branches_pkey |          1187840
 2017-02-08 11:31:00.842631+01 | 1486549860.84263 | pgbench_tellers_pkey  |          3883008
 2017-02-08 11:31:00.842631+01 | 1486549860.84263 | pgbench_accounts_pkey |        673882112

 2017-02-08 11:31:01.899844+01 | 1486549861.89984 | pgbench_branches_pkey |          1187840
 2017-02-08 11:31:01.899844+01 | 1486549861.89984 | pgbench_tellers_pkey  |          3883008
 2017-02-08 11:31:01.899844+01 | 1486549861.89984 | pgbench_accounts_pkey |        673882112

 2017-02-08 11:31:02.954332+01 | 1486549862.95433 | pgbench_branches_pkey |          1187840
 2017-02-08 11:31:02.954332+01 | 1486549862.95433 | pgbench_tellers_pkey  |          3883008
 2017-02-08 11:31:02.954332+01 | 1486549862.95433 | pgbench_accounts_pkey |        673882112

 2017-02-08 11:31:04.009974+01 | 1486549864.00997 | pgbench_branches_pkey |          1187840
 2017-02-08 11:31:04.009974+01 | 1486549864.00997 | pgbench_tellers_pkey  |          3883008
 2017-02-08 11:31:04.009974+01 | 1486549864.00997 | pgbench_accounts_pkey |        673882112

 2017-02-08 11:31:05.064991+01 | 1486549865.06499 | pgbench_branches_pkey |          1187840
 2017-02-08 11:31:05.064991+01 | 1486549865.06499 | pgbench_tellers_pkey  |          3883008
 2017-02-08 11:31:05.064991+01 | 1486549865.06499 | pgbench_accounts_pkey |        673882112

 2017-02-08 11:31:06.123704+01 | 1486549866.1237 | pgbench_branches_pkey |          1187840
 2017-02-08 11:31:06.123704+01 | 1486549866.1237 | pgbench_tellers_pkey  |          3883008
 2017-02-08 11:31:06.123704+01 | 1486549866.1237 | pgbench_accounts_pkey |        673882112

 2017-02-08 11:31:07.179764+01 | 1486549867.17976 | pgbench_branches_pkey |          1187840
 2017-02-08 11:31:07.179764+01 | 1486549867.17976 | pgbench_tellers_pkey  |          3883008
 2017-02-08 11:31:07.179764+01 | 1486549867.17976 | pgbench_accounts_pkey |        673882112

 2017-02-08 11:31:08.23426+01 | 1486549868.23426 | pgbench_branches_pkey |          1187840
 2017-02-08 11:31:08.23426+01 | 1486549868.23426 | pgbench_tellers_pkey  |          3883008
 2017-02-08 11:31:08.23426+01 | 1486549868.23426 | pgbench_accounts_pkey |        673882112

 2017-02-08 11:31:09.290475+01 | 1486549869.29047 | pgbench_branches_pkey |          1187840
 2017-02-08 11:31:09.290475+01 | 1486549869.29047 | pgbench_tellers_pkey  |          3883008
 2017-02-08 11:31:09.290475+01 | 1486549869.29047 | pgbench_accounts_pkey |        673882112

 2017-02-08 11:31:10.350014+01 | 1486549870.35001 | pgbench_branches_pkey |          1187840
 2017-02-08 11:31:10.350014+01 | 1486549870.35001 | pgbench_tellers_pkey  |          3883008
 2017-02-08 11:31:10.350014+01 | 1486549870.35001 | pgbench_accounts_pkey |        673882112

 2017-02-08 11:31:11.403348+01 | 1486549871.40335 | pgbench_branches_pkey |          1187840
 2017-02-08 11:31:11.403348+01 | 1486549871.40335 | pgbench_tellers_pkey  |          3883008
 2017-02-08 11:31:11.403348+01 | 1486549871.40335 | pgbench_accounts_pkey |        673882112

 2017-02-08 11:31:12.463088+01 | 1486549872.46309 | pgbench_branches_pkey |          1187840
 2017-02-08 11:31:12.463088+01 | 1486549872.46309 | pgbench_tellers_pkey  |          3883008
 2017-02-08 11:31:12.463088+01 | 1486549872.46309 | pgbench_accounts_pkey |        673882112

 2017-02-08 11:31:13.518953+01 | 1486549873.51895 | pgbench_branches_pkey |          1187840
 2017-02-08 11:31:13.518953+01 | 1486549873.51895 | pgbench_tellers_pkey  |          3883008
 2017-02-08 11:31:13.518953+01 | 1486549873.51895 | pgbench_accounts_pkey |        673882112

 2017-02-08 11:31:14.574931+01 | 1486549874.57493 | pgbench_branches_pkey |          1187840
 2017-02-08 11:31:14.574931+01 | 1486549874.57493 | pgbench_tellers_pkey  |          3883008
 2017-02-08 11:31:14.574931+01 | 1486549874.57493 | pgbench_accounts_pkey |        673882112

 2017-02-08 11:31:15.633457+01 | 1486549875.63346 | pgbench_branches_pkey |          1187840
 2017-02-08 11:31:15.633457+01 | 1486549875.63346 | pgbench_tellers_pkey  |          3883008
 2017-02-08 11:31:15.633457+01 | 1486549875.63346 | pgbench_accounts_pkey |        673882112

 2017-02-08 11:31:16.693485+01 | 1486549876.69349 | pgbench_branches_pkey |          1187840
 2017-02-08 11:31:16.693485+01 | 1486549876.69349 | pgbench_tellers_pkey  |          3883008
 2017-02-08 11:31:16.693485+01 | 1486549876.69349 | pgbench_accounts_pkey |        673882112

 2017-02-08 11:31:17.749554+01 | 1486549877.74955 | pgbench_branches_pkey |          1187840
 2017-02-08 11:31:17.749554+01 | 1486549877.74955 | pgbench_tellers_pkey  |          3883008
 2017-02-08 11:31:17.749554+01 | 1486549877.74955 | pgbench_accounts_pkey |        673882112

 2017-02-08 11:31:18.805108+01 | 1486549878.80511 | pgbench_branches_pkey |          1187840
 2017-02-08 11:31:18.805108+01 | 1486549878.80511 | pgbench_tellers_pkey  |          3883008
 2017-02-08 11:31:18.805108+01 | 1486549878.80511 | pgbench_accounts_pkey |        673882112

 2017-02-08 11:31:19.863129+01 | 1486549879.86313 | pgbench_branches_pkey |          1187840
 2017-02-08 11:31:19.863129+01 | 1486549879.86313 | pgbench_tellers_pkey  |          3883008
 2017-02-08 11:31:19.863129+01 | 1486549879.86313 | pgbench_accounts_pkey |        673882112

 2017-02-08 11:31:20.921299+01 | 1486549880.9213 | pgbench_branches_pkey |          1187840
 2017-02-08 11:31:20.921299+01 | 1486549880.9213 | pgbench_tellers_pkey  |          3883008
 2017-02-08 11:31:20.921299+01 | 1486549880.9213 | pgbench_accounts_pkey |        673882112

 2017-02-08 11:31:21.981969+01 | 1486549881.98197 | pgbench_branches_pkey |          1187840
 2017-02-08 11:31:21.981969+01 | 1486549881.98197 | pgbench_tellers_pkey  |          3883008
 2017-02-08 11:31:21.981969+01 | 1486549881.98197 | pgbench_accounts_pkey |        673882112

 2017-02-08 11:31:23.041481+01 | 1486549883.04148 | pgbench_branches_pkey |          1187840
 2017-02-08 11:31:23.041481+01 | 1486549883.04148 | pgbench_tellers_pkey  |          3883008
 2017-02-08 11:31:23.041481+01 | 1486549883.04148 | pgbench_accounts_pkey |        673882112

 2017-02-08 11:31:24.094242+01 | 1486549884.09424 | pgbench_branches_pkey |          1187840
 2017-02-08 11:31:24.094242+01 | 1486549884.09424 | pgbench_tellers_pkey  |          3883008
 2017-02-08 11:31:24.094242+01 | 1486549884.09424 | pgbench_accounts_pkey |        673882112

 2017-02-08 11:31:25.15055+01 | 1486549885.15055 | pgbench_branches_pkey |          1187840
 2017-02-08 11:31:25.15055+01 | 1486549885.15055 | pgbench_tellers_pkey  |          3883008
 2017-02-08 11:31:25.15055+01 | 1486549885.15055 | pgbench_accounts_pkey |        673882112

 2017-02-08 11:31:26.207785+01 | 1486549886.20778 | pgbench_branches_pkey |          1187840
 2017-02-08 11:31:26.207785+01 | 1486549886.20778 | pgbench_tellers_pkey  |          3883008
 2017-02-08 11:31:26.207785+01 | 1486549886.20778 | pgbench_accounts_pkey |        673882112

 2017-02-08 11:31:27.265758+01 | 1486549887.26576 | pgbench_branches_pkey |          1187840
 2017-02-08 11:31:27.265758+01 | 1486549887.26576 | pgbench_tellers_pkey  |          3883008
 2017-02-08 11:31:27.265758+01 | 1486549887.26576 | pgbench_accounts_pkey |        673882112

 2017-02-08 11:31:28.323084+01 | 1486549888.32308 | pgbench_branches_pkey |          1187840
 2017-02-08 11:31:28.323084+01 | 1486549888.32308 | pgbench_tellers_pkey  |          3883008
 2017-02-08 11:31:28.323084+01 | 1486549888.32308 | pgbench_accounts_pkey |        673882112

 2017-02-08 11:31:29.380966+01 | 1486549889.38097 | pgbench_branches_pkey |          1187840
 2017-02-08 11:31:29.380966+01 | 1486549889.38097 | pgbench_tellers_pkey  |          3883008
 2017-02-08 11:31:29.380966+01 | 1486549889.38097 | pgbench_accounts_pkey |        673882112

 2017-02-08 11:31:30.432284+01 | 1486549890.43228 | pgbench_branches_pkey |          1187840
 2017-02-08 11:31:30.432284+01 | 1486549890.43228 | pgbench_tellers_pkey  |          3883008
 2017-02-08 11:31:30.432284+01 | 1486549890.43228 | pgbench_accounts_pkey |        673882112

 2017-02-08 11:31:31.485452+01 | 1486549891.48545 | pgbench_branches_pkey |          1187840
 2017-02-08 11:31:31.485452+01 | 1486549891.48545 | pgbench_tellers_pkey  |          3883008
 2017-02-08 11:31:31.485452+01 | 1486549891.48545 | pgbench_accounts_pkey |        673882112

 2017-02-08 11:31:32.54733+01 | 1486549892.54733 | pgbench_branches_pkey |          1187840
 2017-02-08 11:31:32.54733+01 | 1486549892.54733 | pgbench_tellers_pkey  |          3883008
 2017-02-08 11:31:32.54733+01 | 1486549892.54733 | pgbench_accounts_pkey |        673882112

 2017-02-08 11:31:33.601926+01 | 1486549893.60193 | pgbench_branches_pkey |          1187840
 2017-02-08 11:31:33.601926+01 | 1486549893.60193 | pgbench_tellers_pkey  |          3883008
 2017-02-08 11:31:33.601926+01 | 1486549893.60193 | pgbench_accounts_pkey |        673882112

 2017-02-08 11:31:34.660932+01 | 1486549894.66093 | pgbench_branches_pkey |          1187840
 2017-02-08 11:31:34.660932+01 | 1486549894.66093 | pgbench_tellers_pkey  |          3883008
 2017-02-08 11:31:34.660932+01 | 1486549894.66093 | pgbench_accounts_pkey |        673882112

 2017-02-08 11:31:35.714597+01 | 1486549895.7146 | pgbench_branches_pkey |          1187840
 2017-02-08 11:31:35.714597+01 | 1486549895.7146 | pgbench_tellers_pkey  |          3883008
 2017-02-08 11:31:35.714597+01 | 1486549895.7146 | pgbench_accounts_pkey |        673882112

 2017-02-08 11:31:36.769803+01 | 1486549896.7698 | pgbench_branches_pkey |          1187840
 2017-02-08 11:31:36.769803+01 | 1486549896.7698 | pgbench_tellers_pkey  |          3883008
 2017-02-08 11:31:36.769803+01 | 1486549896.7698 | pgbench_accounts_pkey |        673882112

 2017-02-08 11:31:37.821594+01 | 1486549897.82159 | pgbench_branches_pkey |          1187840
 2017-02-08 11:31:37.821594+01 | 1486549897.82159 | pgbench_tellers_pkey  |          3883008
 2017-02-08 11:31:37.821594+01 | 1486549897.82159 | pgbench_accounts_pkey |        673882112

 2017-02-08 11:31:38.876229+01 | 1486549898.87623 | pgbench_branches_pkey |          1187840
 2017-02-08 11:31:38.876229+01 | 1486549898.87623 | pgbench_tellers_pkey  |          3883008
 2017-02-08 11:31:38.876229+01 | 1486549898.87623 | pgbench_accounts_pkey |        673882112

 2017-02-08 11:31:39.937349+01 | 1486549899.93735 | pgbench_branches_pkey |          1187840
 2017-02-08 11:31:39.937349+01 | 1486549899.93735 | pgbench_tellers_pkey  |          3883008
 2017-02-08 11:31:39.937349+01 | 1486549899.93735 | pgbench_accounts_pkey |        673882112

 2017-02-08 11:31:40.998547+01 | 1486549900.99855 | pgbench_branches_pkey |          1187840
 2017-02-08 11:31:40.998547+01 | 1486549900.99855 | pgbench_tellers_pkey  |          3883008
 2017-02-08 11:31:40.998547+01 | 1486549900.99855 | pgbench_accounts_pkey |        673882112

 2017-02-08 11:31:42.053976+01 | 1486549902.05398 | pgbench_branches_pkey |          1187840
 2017-02-08 11:31:42.053976+01 | 1486549902.05398 | pgbench_tellers_pkey  |          3883008
 2017-02-08 11:31:42.053976+01 | 1486549902.05398 | pgbench_accounts_pkey |        673882112

 2017-02-08 11:31:43.110347+01 | 1486549903.11035 | pgbench_branches_pkey |          1187840
 2017-02-08 11:31:43.110347+01 | 1486549903.11035 | pgbench_tellers_pkey  |          3883008
 2017-02-08 11:31:43.110347+01 | 1486549903.11035 | pgbench_accounts_pkey |        673882112

 2017-02-08 11:31:44.168644+01 | 1486549904.16864 | pgbench_branches_pkey |          1187840
 2017-02-08 11:31:44.168644+01 | 1486549904.16864 | pgbench_tellers_pkey  |          3883008
 2017-02-08 11:31:44.168644+01 | 1486549904.16864 | pgbench_accounts_pkey |        673882112

 2017-02-08 11:31:45.216231+01 | 1486549905.21623 | pgbench_branches_pkey |          1187840
 2017-02-08 11:31:45.216231+01 | 1486549905.21623 | pgbench_tellers_pkey  |          3883008
 2017-02-08 11:31:45.216231+01 | 1486549905.21623 | pgbench_accounts_pkey |        673882112

 2017-02-08 11:31:46.274525+01 | 1486549906.27452 | pgbench_branches_pkey |          1187840
 2017-02-08 11:31:46.274525+01 | 1486549906.27452 | pgbench_tellers_pkey  |          3883008
 2017-02-08 11:31:46.274525+01 | 1486549906.27452 | pgbench_accounts_pkey |        673882112

 2017-02-08 11:31:47.331982+01 | 1486549907.33198 | pgbench_branches_pkey |          1187840
 2017-02-08 11:31:47.331982+01 | 1486549907.33198 | pgbench_tellers_pkey  |          3883008
 2017-02-08 11:31:47.331982+01 | 1486549907.33198 | pgbench_accounts_pkey |        673882112

 2017-02-08 11:31:48.385583+01 | 1486549908.38558 | pgbench_branches_pkey |          1187840
 2017-02-08 11:31:48.385583+01 | 1486549908.38558 | pgbench_tellers_pkey  |          3883008
 2017-02-08 11:31:48.385583+01 | 1486549908.38558 | pgbench_accounts_pkey |        673882112

 2017-02-08 11:31:49.444993+01 | 1486549909.44499 | pgbench_branches_pkey |          1187840
 2017-02-08 11:31:49.444993+01 | 1486549909.44499 | pgbench_tellers_pkey  |          3883008
 2017-02-08 11:31:49.444993+01 | 1486549909.44499 | pgbench_accounts_pkey |        673882112

 2017-02-08 11:31:50.506422+01 | 1486549910.50642 | pgbench_branches_pkey |          1187840
 2017-02-08 11:31:50.506422+01 | 1486549910.50642 | pgbench_tellers_pkey  |          3883008
 2017-02-08 11:31:50.506422+01 | 1486549910.50642 | pgbench_accounts_pkey |        673882112

 2017-02-08 11:31:51.568112+01 | 1486549911.56811 | pgbench_branches_pkey |          1187840
 2017-02-08 11:31:51.568112+01 | 1486549911.56811 | pgbench_tellers_pkey  |          3883008
 2017-02-08 11:31:51.568112+01 | 1486549911.56811 | pgbench_accounts_pkey |        673882112

 2017-02-08 11:31:52.629368+01 | 1486549912.62937 | pgbench_branches_pkey |          1187840
 2017-02-08 11:31:52.629368+01 | 1486549912.62937 | pgbench_tellers_pkey  |          3883008
 2017-02-08 11:31:52.629368+01 | 1486549912.62937 | pgbench_accounts_pkey |        673882112

 2017-02-08 11:31:53.699946+01 | 1486549913.69995 | pgbench_branches_pkey |          1187840
 2017-02-08 11:31:53.699946+01 | 1486549913.69995 | pgbench_tellers_pkey  |          3883008
 2017-02-08 11:31:53.699946+01 | 1486549913.69995 | pgbench_accounts_pkey |        673882112

 2017-02-08 11:31:54.763294+01 | 1486549914.76329 | pgbench_branches_pkey |          1187840
 2017-02-08 11:31:54.763294+01 | 1486549914.76329 | pgbench_tellers_pkey  |          3883008
 2017-02-08 11:31:54.763294+01 | 1486549914.76329 | pgbench_accounts_pkey |        673882112

 2017-02-08 11:31:55.82799+01 | 1486549915.82799 | pgbench_branches_pkey |          1187840
 2017-02-08 11:31:55.82799+01 | 1486549915.82799 | pgbench_tellers_pkey  |          3883008
 2017-02-08 11:31:55.82799+01 | 1486549915.82799 | pgbench_accounts_pkey |        673882112

 2017-02-08 11:31:56.885438+01 | 1486549916.88544 | pgbench_branches_pkey |          1187840
 2017-02-08 11:31:56.885438+01 | 1486549916.88544 | pgbench_tellers_pkey  |          3883008
 2017-02-08 11:31:56.885438+01 | 1486549916.88544 | pgbench_accounts_pkey |        673882112

 2017-02-08 11:31:57.946608+01 | 1486549917.94661 | pgbench_branches_pkey |          1187840
 2017-02-08 11:31:57.946608+01 | 1486549917.94661 | pgbench_tellers_pkey  |          3883008
 2017-02-08 11:31:57.946608+01 | 1486549917.94661 | pgbench_accounts_pkey |        673882112

 2017-02-08 11:31:59.007611+01 | 1486549919.00761 | pgbench_branches_pkey |          1187840
 2017-02-08 11:31:59.007611+01 | 1486549919.00761 | pgbench_tellers_pkey  |          3883008
 2017-02-08 11:31:59.007611+01 | 1486549919.00761 | pgbench_accounts_pkey |        673882112

 2017-02-08 11:32:00.06418+01 | 1486549920.06418 | pgbench_branches_pkey |          1187840
 2017-02-08 11:32:00.06418+01 | 1486549920.06418 | pgbench_tellers_pkey  |          3883008
 2017-02-08 11:32:00.06418+01 | 1486549920.06418 | pgbench_accounts_pkey |        673882112

 2017-02-08 11:32:01.120698+01 | 1486549921.1207 | pgbench_branches_pkey |          1187840
 2017-02-08 11:32:01.120698+01 | 1486549921.1207 | pgbench_tellers_pkey  |          3883008
 2017-02-08 11:32:01.120698+01 | 1486549921.1207 | pgbench_accounts_pkey |        673882112

 2017-02-08 11:32:02.174728+01 | 1486549922.17473 | pgbench_branches_pkey |          1187840
 2017-02-08 11:32:02.174728+01 | 1486549922.17473 | pgbench_tellers_pkey  |          3883008
 2017-02-08 11:32:02.174728+01 | 1486549922.17473 | pgbench_accounts_pkey |        673882112

