 2017-02-08 11:27:02.662675+01 | 1486549622.66267 |                 0 |               7 |                  3429 |                  241 |             428595 |        879700 |             8766 |        18524645 |                     0 |      20709433 | 2017-02-08 10:56:06.890034+01

 2017-02-08 11:27:03.719172+01 | 1486549623.71917 |                 0 |               7 |                  3429 |                  241 |             428595 |        879700 |             8766 |        18524645 |                     0 |      20719242 | 2017-02-08 10:56:06.890034+01

 2017-02-08 11:27:04.773519+01 | 1486549624.77352 |                 0 |               7 |                  3429 |                  241 |             428595 |        879700 |             8766 |        18524645 |                     0 |      20732795 | 2017-02-08 10:56:06.890034+01

 2017-02-08 11:27:05.827559+01 | 1486549625.82756 |                 0 |               7 |                  3429 |                  241 |             428595 |        879724 |             8766 |        18524645 |                     0 |      20744137 | 2017-02-08 10:56:06.890034+01

 2017-02-08 11:27:06.883605+01 | 1486549626.88361 |                 0 |               7 |                  3429 |                  241 |             428595 |        879772 |             8766 |        18524645 |                     0 |      20755450 | 2017-02-08 10:56:06.890034+01

 2017-02-08 11:27:07.939067+01 | 1486549627.93907 |                 0 |               7 |                  3429 |                  241 |             428595 |        879930 |             8766 |        18524645 |                     0 |      20768252 | 2017-02-08 10:56:06.890034+01

 2017-02-08 11:27:08.993084+01 | 1486549628.99308 |                 0 |               7 |                  3429 |                  241 |             428595 |        880395 |             8768 |        18524645 |                     0 |      20779891 | 2017-02-08 10:56:06.890034+01

 2017-02-08 11:27:10.047715+01 | 1486549630.04771 |                 0 |               7 |                  3429 |                  241 |             428595 |        880895 |             8773 |        18524645 |                     0 |      20791499 | 2017-02-08 10:56:06.890034+01

 2017-02-08 11:27:11.098871+01 | 1486549631.09887 |                 0 |               7 |                  3429 |                  241 |             428595 |        881395 |             8778 |        18524645 |                     0 |      20803007 | 2017-02-08 10:56:06.890034+01

 2017-02-08 11:27:12.149744+01 | 1486549632.14974 |                 0 |               7 |                  3429 |                  241 |             428595 |        881895 |             8783 |        18524645 |                     0 |      20813749 | 2017-02-08 10:56:06.890034+01

 2017-02-08 11:27:13.204842+01 | 1486549633.20484 |                 0 |               7 |                  3429 |                  241 |             428595 |        882495 |             8789 |        18524645 |                     0 |      20826117 | 2017-02-08 10:56:06.890034+01

 2017-02-08 11:27:14.259691+01 | 1486549634.25969 |                 0 |               7 |                  3429 |                  241 |             428595 |        882995 |             8794 |        18524645 |                     0 |      20836810 | 2017-02-08 10:56:06.890034+01

 2017-02-08 11:27:15.315397+01 | 1486549635.3154 |                 0 |               7 |                  3429 |                  241 |             428595 |        883495 |             8799 |        18524645 |                     0 |      20847712 | 2017-02-08 10:56:06.890034+01

 2017-02-08 11:27:16.369126+01 | 1486549636.36913 |                 0 |               7 |                  3429 |                  241 |             428595 |        883995 |             8804 |        18524645 |                     0 |      20858546 | 2017-02-08 10:56:06.890034+01

 2017-02-08 11:27:17.426142+01 | 1486549637.42614 |                 0 |               7 |                  3429 |                  241 |             428595 |        884595 |             8810 |        18585786 |                     0 |      20871683 | 2017-02-08 10:56:06.890034+01

 2017-02-08 11:27:18.482856+01 | 1486549638.48286 |                 0 |               7 |                  3429 |                  241 |             428595 |        885095 |             8815 |        18585786 |                     0 |      20882521 | 2017-02-08 10:56:06.890034+01

 2017-02-08 11:27:19.536+01 | 1486549639.536 |                 0 |               7 |                  3429 |                  241 |             428595 |        885595 |             8820 |        18585786 |                     0 |      20893450 | 2017-02-08 10:56:06.890034+01

 2017-02-08 11:27:20.588603+01 | 1486549640.5886 |                 0 |               7 |                  3429 |                  241 |             428595 |        886095 |             8825 |        18585786 |                     0 |      20904364 | 2017-02-08 10:56:06.890034+01

 2017-02-08 11:27:21.656589+01 | 1486549641.65659 |                 0 |               7 |                  3429 |                  241 |             428595 |        886695 |             8831 |        18585786 |                     0 |      20917079 | 2017-02-08 10:56:06.890034+01

 2017-02-08 11:27:22.705825+01 | 1486549642.70583 |                 0 |               7 |                  3429 |                  241 |             428595 |        887195 |             8836 |        18585786 |                     0 |      20927648 | 2017-02-08 10:56:06.890034+01

 2017-02-08 11:27:23.763008+01 | 1486549643.76301 |                 0 |               7 |                  3429 |                  241 |             428595 |        887695 |             8841 |        18647822 |                     0 |      20938082 | 2017-02-08 10:56:06.890034+01

 2017-02-08 11:27:24.818299+01 | 1486549644.8183 |                 0 |               7 |                  3429 |                  241 |             428595 |        888195 |             8846 |        18647822 |                     0 |      20948366 | 2017-02-08 10:56:06.890034+01

 2017-02-08 11:27:25.875612+01 | 1486549645.87561 |                 0 |               7 |                  3429 |                  241 |             428595 |        888795 |             8852 |        18647822 |                     0 |      20960281 | 2017-02-08 10:56:06.890034+01

 2017-02-08 11:27:26.927604+01 | 1486549646.9276 |                 0 |               7 |                  3429 |                  241 |             428595 |        889295 |             8857 |        18647822 |                     0 |      20970947 | 2017-02-08 10:56:06.890034+01

 2017-02-08 11:27:27.98411+01 | 1486549647.98411 |                 0 |               7 |                  3429 |                  241 |             428595 |        889795 |             8862 |        18647822 |                     0 |      20981337 | 2017-02-08 10:56:06.890034+01

 2017-02-08 11:27:29.037562+01 | 1486549649.03756 |                 0 |               7 |                  3429 |                  241 |             428595 |        890295 |             8867 |        18647822 |                     0 |      20991688 | 2017-02-08 10:56:06.890034+01

 2017-02-08 11:27:30.091118+01 | 1486549650.09112 |                 0 |               7 |                  3429 |                  241 |             428595 |        890895 |             8873 |        18647822 |                     0 |      21004468 | 2017-02-08 10:56:06.890034+01

 2017-02-08 11:27:31.143517+01 | 1486549651.14352 |                 0 |               7 |                  3429 |                  241 |             428595 |        891395 |             8878 |        18709660 |                     0 |      21015042 | 2017-02-08 10:56:06.890034+01

 2017-02-08 11:27:32.197193+01 | 1486549652.19719 |                 0 |               7 |                  3429 |                  241 |             428595 |        891895 |             8883 |        18709660 |                     0 |      21025664 | 2017-02-08 10:56:06.890034+01

 2017-02-08 11:27:33.255641+01 | 1486549653.25564 |                 0 |               7 |                  3429 |                  241 |             428595 |        892395 |             8888 |        18709660 |                     0 |      21036147 | 2017-02-08 10:56:06.890034+01

 2017-02-08 11:27:34.308742+01 | 1486549654.30874 |                 0 |               7 |                  3429 |                  241 |             428595 |        892995 |             8894 |        18709660 |                     0 |      21048640 | 2017-02-08 10:56:06.890034+01

 2017-02-08 11:27:35.364443+01 | 1486549655.36444 |                 0 |               7 |                  3429 |                  241 |             428595 |        893495 |             8899 |        18709660 |                     0 |      21059158 | 2017-02-08 10:56:06.890034+01

 2017-02-08 11:27:36.422725+01 | 1486549656.42272 |                 0 |               7 |                  3429 |                  241 |             428595 |        893995 |             8904 |        18709660 |                     0 |      21069911 | 2017-02-08 10:56:06.890034+01

 2017-02-08 11:27:37.479927+01 | 1486549657.47993 |                 0 |               7 |                  3429 |                  241 |             428595 |        894495 |             8909 |        18709660 |                     0 |      21080751 | 2017-02-08 10:56:06.890034+01

 2017-02-08 11:27:38.527731+01 | 1486549658.52773 |                 0 |               7 |                  3429 |                  241 |             428595 |        894995 |             8914 |        18771797 |                     0 |      21091740 | 2017-02-08 10:56:06.890034+01

 2017-02-08 11:27:39.585828+01 | 1486549659.58583 |                 0 |               7 |                  3429 |                  241 |             428595 |        895595 |             8920 |        18771797 |                     0 |      21104822 | 2017-02-08 10:56:06.890034+01

 2017-02-08 11:27:40.639355+01 | 1486549660.63935 |                 0 |               7 |                  3429 |                  241 |             428595 |        896095 |             8925 |        18771797 |                     0 |      21115523 | 2017-02-08 10:56:06.890034+01

 2017-02-08 11:27:41.697117+01 | 1486549661.69712 |                 0 |               7 |                  3429 |                  241 |             428595 |        896595 |             8930 |        18771797 |                     0 |      21125548 | 2017-02-08 10:56:06.890034+01

 2017-02-08 11:27:42.758548+01 | 1486549662.75855 |                 0 |               7 |                  3429 |                  241 |             428595 |        897195 |             8936 |        18771797 |                     0 |      21139018 | 2017-02-08 10:56:06.890034+01

 2017-02-08 11:27:43.81626+01 | 1486549663.81626 |                 0 |               7 |                  3429 |                  241 |             428595 |        897695 |             8941 |        18771797 |                     0 |      21150191 | 2017-02-08 10:56:06.890034+01

 2017-02-08 11:27:44.869142+01 | 1486549664.86914 |                 0 |               7 |                  3429 |                  241 |             428595 |        898195 |             8946 |        18834034 |                     0 |      21161226 | 2017-02-08 10:56:06.890034+01

 2017-02-08 11:27:45.922995+01 | 1486549665.923 |                 0 |               7 |                  3429 |                  241 |             428595 |        898695 |             8951 |        18834034 |                     0 |      21171962 | 2017-02-08 10:56:06.890034+01

 2017-02-08 11:27:46.98136+01 | 1486549666.98136 |                 0 |               7 |                  3429 |                  241 |             428595 |        899295 |             8957 |        18834034 |                     0 |      21184668 | 2017-02-08 10:56:06.890034+01

 2017-02-08 11:27:48.035196+01 | 1486549668.0352 |                 0 |               7 |                  3429 |                  241 |             428595 |        899795 |             8962 |        18834034 |                     0 |      21195801 | 2017-02-08 10:56:06.890034+01

 2017-02-08 11:27:49.11421+01 | 1486549669.11421 |                 0 |               7 |                  3429 |                  241 |             428595 |        900295 |             8967 |        18834034 |                     0 |      21207093 | 2017-02-08 10:56:06.890034+01

 2017-02-08 11:27:50.168002+01 | 1486549670.168 |                 0 |               7 |                  3429 |                  241 |             428595 |        900795 |             8972 |        18834034 |                     0 |      21217991 | 2017-02-08 10:56:06.890034+01

 2017-02-08 11:27:51.222184+01 | 1486549671.22218 |                 0 |               7 |                  3429 |                  241 |             428595 |        901395 |             8978 |        18896470 |                     0 |      21231734 | 2017-02-08 10:56:06.890034+01

 2017-02-08 11:27:52.278419+01 | 1486549672.27842 |                 0 |               7 |                  3429 |                  241 |             428595 |        901895 |             8983 |        18896470 |                     0 |      21243154 | 2017-02-08 10:56:06.890034+01

 2017-02-08 11:27:53.333003+01 | 1486549673.333 |                 0 |               7 |                  3429 |                  241 |             428595 |        902395 |             8988 |        18896470 |                     0 |      21254061 | 2017-02-08 10:56:06.890034+01

 2017-02-08 11:27:54.390661+01 | 1486549674.39066 |                 0 |               7 |                  3429 |                  241 |             428595 |        902895 |             8993 |        18896470 |                     0 |      21265384 | 2017-02-08 10:56:06.890034+01

 2017-02-08 11:27:55.448215+01 | 1486549675.44822 |                 0 |               7 |                  3429 |                  241 |             428595 |        903495 |             8999 |        18896470 |                     0 |      21279340 | 2017-02-08 10:56:06.890034+01

 2017-02-08 11:27:56.503029+01 | 1486549676.50303 |                 0 |               7 |                  3429 |                  241 |             428595 |        903995 |             9004 |        18896470 |                     0 |      21290785 | 2017-02-08 10:56:06.890034+01

 2017-02-08 11:27:57.56472+01 | 1486549677.56472 |                 0 |               7 |                  3429 |                  241 |             428595 |        904495 |             9009 |        18959006 |                     0 |      21301820 | 2017-02-08 10:56:06.890034+01

 2017-02-08 11:27:58.620893+01 | 1486549678.62089 |                 0 |               7 |                  3429 |                  241 |             428595 |        904995 |             9014 |        18959006 |                     0 |      21313415 | 2017-02-08 10:56:06.890034+01

 2017-02-08 11:27:59.67204+01 | 1486549679.67204 |                 0 |               7 |                  3429 |                  241 |             428595 |        905595 |             9020 |        18959006 |                     0 |      21327579 | 2017-02-08 10:56:06.890034+01

 2017-02-08 11:28:00.731078+01 | 1486549680.73108 |                 0 |               7 |                  3429 |                  241 |             428595 |        906095 |             9025 |        18959006 |                     0 |      21338780 | 2017-02-08 10:56:06.890034+01

 2017-02-08 11:28:01.794973+01 | 1486549681.79497 |                 0 |               7 |                  3429 |                  241 |             428595 |        906595 |             9030 |        18959006 |                     0 |      21350613 | 2017-02-08 10:56:06.890034+01

 2017-02-08 11:28:02.862883+01 | 1486549682.86288 |                 0 |               7 |                  3429 |                  241 |             428595 |        907095 |             9035 |        18959006 |                     0 |      21362121 | 2017-02-08 10:56:06.890034+01

 2017-02-08 11:28:03.922182+01 | 1486549683.92218 |                 0 |               7 |                  3429 |                  241 |             428595 |        907695 |             9041 |        19021442 |                     0 |      21375578 | 2017-02-08 10:56:06.890034+01

 2017-02-08 11:28:04.981289+01 | 1486549684.98129 |                 0 |               7 |                  3429 |                  241 |             428595 |        908195 |             9046 |        19021442 |                     0 |      21387581 | 2017-02-08 10:56:06.890034+01

 2017-02-08 11:28:06.036915+01 | 1486549686.03692 |                 0 |               7 |                  3429 |                  241 |             428595 |        908695 |             9051 |        19021442 |                     0 |      21399258 | 2017-02-08 10:56:06.890034+01

 2017-02-08 11:28:07.09198+01 | 1486549687.09198 |                 0 |               7 |                  3429 |                  241 |             428595 |        909295 |             9057 |        19021442 |                     0 |      21412854 | 2017-02-08 10:56:06.890034+01

 2017-02-08 11:28:08.151688+01 | 1486549688.15169 |                 0 |               7 |                  3429 |                  241 |             428595 |        909795 |             9062 |        19021442 |                     0 |      21424663 | 2017-02-08 10:56:06.890034+01

 2017-02-08 11:28:09.20709+01 | 1486549689.20709 |                 0 |               7 |                  3429 |                  241 |             428595 |        910295 |             9067 |        19083978 |                     0 |      21436330 | 2017-02-08 10:56:06.890034+01

 2017-02-08 11:28:10.257468+01 | 1486549690.25747 |                 0 |               7 |                  3429 |                  241 |             428595 |        910795 |             9072 |        19083978 |                     0 |      21448157 | 2017-02-08 10:56:06.890034+01

 2017-02-08 11:28:11.312168+01 | 1486549691.31217 |                 0 |               7 |                  3429 |                  241 |             428595 |        911395 |             9078 |        19083978 |                     0 |      21461901 | 2017-02-08 10:56:06.890034+01

 2017-02-08 11:28:12.367664+01 | 1486549692.36766 |                 0 |               7 |                  3429 |                  241 |             428595 |        911895 |             9083 |        19083978 |                     0 |      21473811 | 2017-02-08 10:56:06.890034+01

 2017-02-08 11:28:13.424628+01 | 1486549693.42463 |                 0 |               7 |                  3429 |                  241 |             428595 |        912395 |             9088 |        19083978 |                     0 |      21485936 | 2017-02-08 10:56:06.890034+01

 2017-02-08 11:28:14.502219+01 | 1486549694.50222 |                 0 |               7 |                  3429 |                  241 |             428595 |        912895 |             9093 |        19083978 |                     0 |      21497516 | 2017-02-08 10:56:06.890034+01

 2017-02-08 11:28:15.55979+01 | 1486549695.55979 |                 0 |               7 |                  3429 |                  241 |             428595 |        913495 |             9099 |        19146414 |                     0 |      21511856 | 2017-02-08 10:56:06.890034+01

 2017-02-08 11:28:16.622529+01 | 1486549696.62253 |                 0 |               7 |                  3429 |                  241 |             428595 |        913995 |             9104 |        19146414 |                     0 |      21523755 | 2017-02-08 10:56:06.890034+01

 2017-02-08 11:28:17.677364+01 | 1486549697.67736 |                 0 |               7 |                  3429 |                  241 |             428595 |        914495 |             9109 |        19146414 |                     0 |      21535440 | 2017-02-08 10:56:06.890034+01

 2017-02-08 11:28:18.734213+01 | 1486549698.73421 |                 0 |               7 |                  3429 |                  241 |             428595 |        914995 |             9114 |        19146414 |                     0 |      21546953 | 2017-02-08 10:56:06.890034+01

 2017-02-08 11:28:19.786843+01 | 1486549699.78684 |                 0 |               7 |                  3429 |                  241 |             428595 |        915595 |             9120 |        19146414 |                     0 |      21561648 | 2017-02-08 10:56:06.890034+01

 2017-02-08 11:28:20.841365+01 | 1486549700.84137 |                 0 |               7 |                  3429 |                  241 |             428595 |        916095 |             9125 |        19146414 |                     0 |      21573419 | 2017-02-08 10:56:06.890034+01

 2017-02-08 11:28:21.893961+01 | 1486549701.89396 |                 0 |               7 |                  3429 |                  241 |             428595 |        916595 |             9130 |        19208952 |                     0 |      21584717 | 2017-02-08 10:56:06.890034+01

 2017-02-08 11:28:22.94845+01 | 1486549702.94845 |                 0 |               7 |                  3429 |                  241 |             428595 |        917095 |             9135 |        19208952 |                     0 |      21596751 | 2017-02-08 10:56:06.890034+01

 2017-02-08 11:28:24.011562+01 | 1486549704.01156 |                 0 |               7 |                  3429 |                  241 |             428595 |        917695 |             9141 |        19208952 |                     0 |      21611357 | 2017-02-08 10:56:06.890034+01

 2017-02-08 11:28:25.07988+01 | 1486549705.07988 |                 0 |               7 |                  3429 |                  241 |             428595 |        918195 |             9146 |        19208952 |                     0 |      21622666 | 2017-02-08 10:56:06.890034+01

 2017-02-08 11:28:26.140299+01 | 1486549706.1403 |                 0 |               7 |                  3429 |                  241 |             428595 |        918695 |             9151 |        19208952 |                     0 |      21634661 | 2017-02-08 10:56:06.890034+01

 2017-02-08 11:28:27.196253+01 | 1486549707.19625 |                 0 |               7 |                  3429 |                  241 |             428595 |        919295 |             9157 |        19208952 |                     0 |      21649218 | 2017-02-08 10:56:06.890034+01

 2017-02-08 11:28:28.250176+01 | 1486549708.25018 |                 0 |               7 |                  3429 |                  241 |             428595 |        919795 |             9162 |        19271388 |                     0 |      21660687 | 2017-02-08 10:56:06.890034+01

 2017-02-08 11:28:29.310883+01 | 1486549709.31088 |                 0 |               7 |                  3429 |                  241 |             428595 |        920295 |             9167 |        19271388 |                     0 |      21672942 | 2017-02-08 10:56:06.890034+01

 2017-02-08 11:28:30.375279+01 | 1486549710.37528 |                 0 |               7 |                  3429 |                  241 |             428595 |        920795 |             9172 |        19271388 |                     0 |      21685300 | 2017-02-08 10:56:06.890034+01

 2017-02-08 11:28:31.441552+01 | 1486549711.44155 |                 0 |               7 |                  3429 |                  241 |             428595 |        921395 |             9178 |        19271388 |                     0 |      21699416 | 2017-02-08 10:56:06.890034+01

 2017-02-08 11:28:32.505315+01 | 1486549712.50532 |                 0 |               7 |                  3429 |                  241 |             428595 |        921895 |             9183 |        19271388 |                     0 |      21711782 | 2017-02-08 10:56:06.890034+01

 2017-02-08 11:28:33.563301+01 | 1486549713.5633 |                 0 |               7 |                  3429 |                  241 |             428595 |        922395 |             9188 |        19334126 |                     0 |      21729290 | 2017-02-08 10:56:06.890034+01

 2017-02-08 11:28:34.631103+01 | 1486549714.6311 |                 0 |               7 |                  3429 |                  241 |             428595 |        922895 |             9193 |        19334126 |                     0 |      21742650 | 2017-02-08 10:56:06.890034+01

 2017-02-08 11:28:35.708586+01 | 1486549715.70859 |                 0 |               7 |                  3429 |                  241 |             428595 |        923495 |             9199 |        19334126 |                     0 |      21757230 | 2017-02-08 10:56:06.890034+01

 2017-02-08 11:28:36.76688+01 | 1486549716.76688 |                 0 |               7 |                  3429 |                  241 |             428595 |        923995 |             9204 |        19334126 |                     0 |      21768573 | 2017-02-08 10:56:06.890034+01

 2017-02-08 11:28:37.834671+01 | 1486549717.83467 |                 0 |               7 |                  3429 |                  241 |             428595 |        924595 |             9210 |        19334126 |                     0 |      21782825 | 2017-02-08 10:56:06.890034+01

 2017-02-08 11:28:38.878404+01 | 1486549718.8784 |                 0 |               7 |                  3429 |                  241 |             428595 |        924895 |             9213 |        19334126 |                     0 |      21789878 | 2017-02-08 10:56:06.890034+01

 2017-02-08 11:28:39.936549+01 | 1486549719.93655 |                 0 |               7 |                  3429 |                  241 |             428595 |        925595 |             9220 |        19396383 |                     0 |      21805252 | 2017-02-08 10:56:06.890034+01

 2017-02-08 11:28:41.004128+01 | 1486549721.00413 |                 0 |               7 |                  3429 |                  241 |             428595 |        926095 |             9225 |        19396383 |                     0 |      21816261 | 2017-02-08 10:56:06.890034+01

 2017-02-08 11:28:42.067622+01 | 1486549722.06762 |                 0 |               7 |                  3429 |                  241 |             428595 |        926595 |             9230 |        19396383 |                     0 |      21827378 | 2017-02-08 10:56:06.890034+01

 2017-02-08 11:28:43.135509+01 | 1486549723.13551 |                 0 |               7 |                  3429 |                  241 |             428595 |        927195 |             9236 |        19396383 |                     0 |      21840603 | 2017-02-08 10:56:06.890034+01

 2017-02-08 11:28:44.198104+01 | 1486549724.1981 |                 0 |               7 |                  3429 |                  241 |             428595 |        927695 |             9241 |        19396383 |                     0 |      21851265 | 2017-02-08 10:56:06.890034+01

 2017-02-08 11:28:45.257085+01 | 1486549725.25709 |                 0 |               7 |                  3429 |                  241 |             428595 |        928195 |             9246 |        19396383 |                     0 |      21862052 | 2017-02-08 10:56:06.890034+01

 2017-02-08 11:28:46.327432+01 | 1486549726.32743 |                 0 |               7 |                  3429 |                  241 |             428595 |        928795 |             9252 |        19396383 |                     0 |      21875041 | 2017-02-08 10:56:06.890034+01

 2017-02-08 11:28:47.390062+01 | 1486549727.39006 |                 0 |               7 |                  3429 |                  241 |             428595 |        929295 |             9257 |        19458620 |                     0 |      21885548 | 2017-02-08 10:56:06.890034+01

 2017-02-08 11:28:48.454076+01 | 1486549728.45408 |                 0 |               7 |                  3429 |                  241 |             428595 |        929795 |             9262 |        19458620 |                     0 |      21896007 | 2017-02-08 10:56:06.890034+01

 2017-02-08 11:28:49.521944+01 | 1486549729.52194 |                 0 |               7 |                  3429 |                  241 |             428595 |        930395 |             9268 |        19458620 |                     0 |      21908649 | 2017-02-08 10:56:06.890034+01

 2017-02-08 11:28:50.575519+01 | 1486549730.57552 |                 0 |               7 |                  3429 |                  241 |             428595 |        930695 |             9271 |        19458620 |                     0 |      21914721 | 2017-02-08 10:56:06.890034+01

 2017-02-08 11:28:51.627338+01 | 1486549731.62734 |                 0 |               7 |                  3429 |                  241 |             428595 |        931395 |             9278 |        19458620 |                     0 |      21932229 | 2017-02-08 10:56:06.890034+01

 2017-02-08 11:28:52.690559+01 | 1486549732.69056 |                 0 |               7 |                  3429 |                  241 |             428595 |        931895 |             9283 |        19458620 |                     0 |      21944252 | 2017-02-08 10:56:06.890034+01

 2017-02-08 11:28:53.749059+01 | 1486549733.74906 |                 0 |               7 |                  3429 |                  241 |             428595 |        932495 |             9289 |        19520756 |                     0 |      21959364 | 2017-02-08 10:56:06.890034+01

 2017-02-08 11:28:54.809393+01 | 1486549734.80939 |                 0 |               7 |                  3429 |                  241 |             428595 |        932995 |             9294 |        19520756 |                     0 |      21972130 | 2017-02-08 10:56:06.890034+01

 2017-02-08 11:28:55.880674+01 | 1486549735.88067 |                 0 |               7 |                  3429 |                  241 |             428595 |        933495 |             9299 |        19520756 |                     0 |      21984785 | 2017-02-08 10:56:06.890034+01

 2017-02-08 11:28:56.939472+01 | 1486549736.93947 |                 0 |               7 |                  3429 |                  241 |             428595 |        933995 |             9304 |        19520756 |                     0 |      21997446 | 2017-02-08 10:56:06.890034+01

 2017-02-08 11:28:57.998874+01 | 1486549737.99887 |                 0 |               7 |                  3429 |                  241 |             428595 |        934595 |             9310 |        19520756 |                     0 |      22011761 | 2017-02-08 10:56:06.890034+01

 2017-02-08 11:28:59.05627+01 | 1486549739.05627 |                 0 |               7 |                  3429 |                  241 |             428595 |        935095 |             9315 |        19520756 |                     0 |      22024436 | 2017-02-08 10:56:06.890034+01

 2017-02-08 11:29:00.110923+01 | 1486549740.11092 |                 0 |               7 |                  3429 |                  241 |             428595 |        935595 |             9320 |        19582994 |                     0 |      22036896 | 2017-02-08 10:56:06.890034+01

 2017-02-08 11:29:01.165966+01 | 1486549741.16597 |                 0 |               7 |                  3429 |                  241 |             428595 |        936095 |             9325 |        19582994 |                     0 |      22049272 | 2017-02-08 10:56:06.890034+01

 2017-02-08 11:29:02.226629+01 | 1486549742.22663 |                 0 |               7 |                  3429 |                  241 |             428595 |        936695 |             9331 |        19582994 |                     0 |      22063726 | 2017-02-08 10:56:06.890034+01

 2017-02-08 11:29:03.28053+01 | 1486549743.28053 |                 0 |               7 |                  3429 |                  241 |             428595 |        937195 |             9336 |        19582994 |                     0 |      22076387 | 2017-02-08 10:56:06.890034+01

 2017-02-08 11:29:04.336891+01 | 1486549744.33689 |                 0 |               7 |                  3429 |                  241 |             428595 |        937695 |             9341 |        19582994 |                     0 |      22088816 | 2017-02-08 10:56:06.890034+01

 2017-02-08 11:29:05.404602+01 | 1486549745.4046 |                 0 |               7 |                  3429 |                  241 |             428595 |        938295 |             9347 |        19582994 |                     0 |      22103862 | 2017-02-08 10:56:06.890034+01

 2017-02-08 11:29:06.463955+01 | 1486549746.46395 |                 0 |               7 |                  3429 |                  241 |             428595 |        938795 |             9352 |        19645331 |                     0 |      22115479 | 2017-02-08 10:56:06.890034+01

 2017-02-08 11:29:07.523466+01 | 1486549747.52347 |                 0 |               7 |                  3429 |                  241 |             428595 |        939295 |             9357 |        19645331 |                     0 |      22127873 | 2017-02-08 10:56:06.890034+01

 2017-02-08 11:29:08.584687+01 | 1486549748.58469 |                 0 |               7 |                  3429 |                  241 |             428595 |        939795 |             9362 |        19645331 |                     0 |      22140409 | 2017-02-08 10:56:06.890034+01

 2017-02-08 11:29:09.644053+01 | 1486549749.64405 |                 0 |               7 |                  3429 |                  241 |             428595 |        940395 |             9368 |        19645331 |                     0 |      22155330 | 2017-02-08 10:56:06.890034+01

 2017-02-08 11:29:10.70615+01 | 1486549750.70615 |                 0 |               7 |                  3429 |                  241 |             428595 |        940895 |             9373 |        19645331 |                     0 |      22167963 | 2017-02-08 10:56:06.890034+01

 2017-02-08 11:29:11.764992+01 | 1486549751.76499 |                 0 |               7 |                  3429 |                  241 |             428595 |        941395 |             9378 |        19645331 |                     0 |      22180651 | 2017-02-08 10:56:06.890034+01

 2017-02-08 11:29:12.818279+01 | 1486549752.81828 |                 0 |               7 |                  3429 |                  241 |             428595 |        941895 |             9383 |        19645331 |                     0 |      22192493 | 2017-02-08 10:56:06.890034+01

 2017-02-08 11:29:13.876426+01 | 1486549753.87643 |                 0 |               7 |                  3429 |                  241 |             428595 |        942495 |             9389 |        19707567 |                     0 |      22207482 | 2017-02-08 10:56:06.890034+01

 2017-02-08 11:29:14.936305+01 | 1486549754.93631 |                 0 |               7 |                  3429 |                  241 |             428595 |        942995 |             9394 |        19707567 |                     0 |      22219986 | 2017-02-08 10:56:06.890034+01

 2017-02-08 11:29:15.995913+01 | 1486549755.99591 |                 0 |               7 |                  3429 |                  241 |             428595 |        943495 |             9399 |        19707567 |                     0 |      22232303 | 2017-02-08 10:56:06.890034+01

 2017-02-08 11:29:17.049693+01 | 1486549757.04969 |                 0 |               7 |                  3429 |                  241 |             428595 |        944095 |             9405 |        19707567 |                     0 |      22246945 | 2017-02-08 10:56:06.890034+01

 2017-02-08 11:29:18.109985+01 | 1486549758.10999 |                 0 |               7 |                  3429 |                  241 |             428595 |        944595 |             9410 |        19707567 |                     0 |      22259322 | 2017-02-08 10:56:06.890034+01

 2017-02-08 11:29:19.170113+01 | 1486549759.17011 |                 0 |               7 |                  3429 |                  241 |             428595 |        945095 |             9415 |        19707567 |                     0 |      22271519 | 2017-02-08 10:56:06.890034+01

 2017-02-08 11:29:20.226726+01 | 1486549760.22673 |                 0 |               7 |                  3429 |                  241 |             428595 |        945595 |             9420 |        19769703 |                     0 |      22283941 | 2017-02-08 10:56:06.890034+01

 2017-02-08 11:29:21.284726+01 | 1486549761.28473 |                 0 |               7 |                  3429 |                  241 |             428595 |        946195 |             9426 |        19769703 |                     0 |      22299212 | 2017-02-08 10:56:06.890034+01

 2017-02-08 11:29:22.344254+01 | 1486549762.34425 |                 0 |               7 |                  3429 |                  241 |             428595 |        946695 |             9431 |        19769703 |                     0 |      22311658 | 2017-02-08 10:56:06.890034+01

 2017-02-08 11:29:23.397775+01 | 1486549763.39777 |                 0 |               7 |                  3429 |                  241 |             428595 |        947195 |             9436 |        19769703 |                     0 |      22324232 | 2017-02-08 10:56:06.890034+01

 2017-02-08 11:29:24.46409+01 | 1486549764.46409 |                 0 |               7 |                  3429 |                  241 |             428595 |        947695 |             9441 |        19769703 |                     0 |      22335735 | 2017-02-08 10:56:06.890034+01

 2017-02-08 11:29:25.525467+01 | 1486549765.52547 |                 0 |               7 |                  3429 |                  241 |             428595 |        948295 |             9447 |        19769703 |                     0 |      22351144 | 2017-02-08 10:56:06.890034+01

 2017-02-08 11:29:26.588636+01 | 1486549766.58864 |                 0 |               7 |                  3429 |                  241 |             428595 |        948795 |             9452 |        19831916 |                     0 |      22363696 | 2017-02-08 10:56:06.890034+01

 2017-02-08 11:29:27.645741+01 | 1486549767.64574 |                 0 |               7 |                  3429 |                  241 |             428595 |        949295 |             9457 |        19831916 |                     0 |      22375745 | 2017-02-08 10:56:06.890034+01

 2017-02-08 11:29:28.718923+01 | 1486549768.71892 |                 0 |               7 |                  3429 |                  241 |             428595 |        949795 |             9462 |        19831916 |                     0 |      22388563 | 2017-02-08 10:56:06.890034+01

 2017-02-08 11:29:29.78199+01 | 1486549769.78199 |                 0 |               7 |                  3429 |                  241 |             428595 |        950395 |             9468 |        19831916 |                     0 |      22403091 | 2017-02-08 10:56:06.890034+01

 2017-02-08 11:29:30.849744+01 | 1486549770.84974 |                 0 |               7 |                  3429 |                  241 |             428595 |        950895 |             9473 |        19831916 |                     0 |      22415376 | 2017-02-08 10:56:06.890034+01

 2017-02-08 11:29:31.911036+01 | 1486549771.91104 |                 0 |               7 |                  3429 |                  241 |             428595 |        951395 |             9478 |        19831916 |                     0 |      22428137 | 2017-02-08 10:56:06.890034+01

 2017-02-08 11:29:32.971248+01 | 1486549772.97125 |                 0 |               7 |                  3429 |                  241 |             428595 |        951995 |             9484 |        19831916 |                     0 |      22443367 | 2017-02-08 10:56:06.890034+01

 2017-02-08 11:29:34.031754+01 | 1486549774.03175 |                 0 |               7 |                  3429 |                  241 |             428595 |        952495 |             9489 |        19894085 |                     0 |      22455809 | 2017-02-08 10:56:06.890034+01

 2017-02-08 11:29:35.085784+01 | 1486549775.08578 |                 0 |               7 |                  3429 |                  241 |             428595 |        952995 |             9494 |        19894085 |                     0 |      22468433 | 2017-02-08 10:56:06.890034+01

 2017-02-08 11:29:36.142422+01 | 1486549776.14242 |                 0 |               7 |                  3429 |                  241 |             428595 |        953495 |             9499 |        19894085 |                     0 |      22480785 | 2017-02-08 10:56:06.890034+01

 2017-02-08 11:29:37.196342+01 | 1486549777.19634 |                 0 |               7 |                  3429 |                  241 |             428595 |        954095 |             9505 |        19894085 |                     0 |      22495312 | 2017-02-08 10:56:06.890034+01

 2017-02-08 11:29:38.246956+01 | 1486549778.24696 |                 0 |               7 |                  3429 |                  241 |             428595 |        954395 |             9508 |        19894085 |                     0 |      22503165 | 2017-02-08 10:56:06.890034+01

 2017-02-08 11:29:39.308128+01 | 1486549779.30813 |                 0 |               7 |                  3429 |                  241 |             428595 |        955095 |             9515 |        19894085 |                     0 |      22520549 | 2017-02-08 10:56:06.890034+01

 2017-02-08 11:29:40.361732+01 | 1486549780.36173 |                 0 |               7 |                  3429 |                  241 |             428595 |        955595 |             9520 |        19956321 |                     0 |      22533028 | 2017-02-08 10:56:06.890034+01

 2017-02-08 11:29:41.416281+01 | 1486549781.41628 |                 0 |               7 |                  3429 |                  241 |             428595 |        956195 |             9526 |        19956321 |                     0 |      22547233 | 2017-02-08 10:56:06.890034+01

 2017-02-08 11:29:42.473213+01 | 1486549782.47321 |                 0 |               7 |                  3429 |                  241 |             428595 |        956695 |             9531 |        19956321 |                     0 |      22559579 | 2017-02-08 10:56:06.890034+01

 2017-02-08 11:29:43.530704+01 | 1486549783.5307 |                 0 |               7 |                  3429 |                  241 |             428595 |        957195 |             9536 |        19956321 |                     0 |      22571664 | 2017-02-08 10:56:06.890034+01

 2017-02-08 11:29:44.599075+01 | 1486549784.59908 |                 0 |               7 |                  3429 |                  241 |             428595 |        957695 |             9541 |        19956321 |                     0 |      22583740 | 2017-02-08 10:56:06.890034+01

 2017-02-08 11:29:45.655396+01 | 1486549785.6554 |                 0 |               7 |                  3429 |                  241 |             428595 |        958295 |             9547 |        19956321 |                     0 |      22598710 | 2017-02-08 10:56:06.890034+01

 2017-02-08 11:29:46.715924+01 | 1486549786.71592 |                 0 |               7 |                  3429 |                  241 |             428595 |        958795 |             9552 |        20018857 |                     0 |      22610328 | 2017-02-08 10:56:06.890034+01

 2017-02-08 11:29:47.774564+01 | 1486549787.77456 |                 0 |               7 |                  3429 |                  241 |             428595 |        959295 |             9557 |        20018857 |                     0 |      22622368 | 2017-02-08 10:56:06.890034+01

 2017-02-08 11:29:48.833219+01 | 1486549788.83322 |                 0 |               7 |                  3429 |                  241 |             428595 |        959895 |             9563 |        20018857 |                     0 |      22637287 | 2017-02-08 10:56:06.890034+01

 2017-02-08 11:29:49.897964+01 | 1486549789.89796 |                 0 |               7 |                  3429 |                  241 |             428595 |        960395 |             9568 |        20018857 |                     0 |      22648878 | 2017-02-08 10:56:06.890034+01

 2017-02-08 11:29:50.955128+01 | 1486549790.95513 |                 0 |               7 |                  3429 |                  241 |             428595 |        960895 |             9573 |        20018857 |                     0 |      22661295 | 2017-02-08 10:56:06.890034+01

 2017-02-08 11:29:52.013149+01 | 1486549792.01315 |                 0 |               7 |                  3429 |                  241 |             428595 |        961395 |             9578 |        20081494 |                     0 |      22673734 | 2017-02-08 10:56:06.890034+01

 2017-02-08 11:29:53.068862+01 | 1486549793.06886 |                 0 |               7 |                  3429 |                  241 |             428595 |        961995 |             9584 |        20081494 |                     0 |      22687958 | 2017-02-08 10:56:06.890034+01

 2017-02-08 11:29:54.132219+01 | 1486549794.13222 |                 0 |               7 |                  3429 |                  241 |             428595 |        962495 |             9589 |        20081494 |                     0 |      22700485 | 2017-02-08 10:56:06.890034+01

 2017-02-08 11:29:55.187502+01 | 1486549795.1875 |                 0 |               7 |                  3429 |                  241 |             428595 |        962995 |             9594 |        20081494 |                     0 |      22713096 | 2017-02-08 10:56:06.890034+01

 2017-02-08 11:29:56.241638+01 | 1486549796.24164 |                 0 |               7 |                  3429 |                  241 |             428595 |        963495 |             9599 |        20081494 |                     0 |      22724607 | 2017-02-08 10:56:06.890034+01

 2017-02-08 11:29:57.295786+01 | 1486549797.29579 |                 0 |               7 |                  3429 |                  241 |             428595 |        964095 |             9605 |        20081494 |                     0 |      22739987 | 2017-02-08 10:56:06.890034+01

 2017-02-08 11:29:58.354446+01 | 1486549798.35445 |                 0 |               7 |                  3429 |                  241 |             428595 |        964595 |             9610 |        20144031 |                     0 |      22752044 | 2017-02-08 10:56:06.890034+01

 2017-02-08 11:29:59.411264+01 | 1486549799.41126 |                 0 |               7 |                  3429 |                  241 |             428595 |        965095 |             9615 |        20144031 |                     0 |      22763667 | 2017-02-08 10:56:06.890034+01

 2017-02-08 11:30:00.468613+01 | 1486549800.46861 |                 0 |               7 |                  3429 |                  241 |             428595 |        965595 |             9620 |        20144031 |                     0 |      22775700 | 2017-02-08 10:56:06.890034+01

 2017-02-08 11:30:01.52744+01 | 1486549801.52744 |                 0 |               7 |                  3429 |                  241 |             428595 |        966195 |             9626 |        20144031 |                     0 |      22790734 | 2017-02-08 10:56:06.890034+01

 2017-02-08 11:30:02.59629+01 | 1486549802.59629 |                 0 |               7 |                  3429 |                  241 |             428595 |        966695 |             9631 |        20144031 |                     0 |      22802435 | 2017-02-08 10:56:06.890034+01

 2017-02-08 11:30:03.661979+01 | 1486549803.66198 |                 0 |               7 |                  3429 |                  241 |             428595 |        967195 |             9636 |        20206699 |                     0 |      22814536 | 2017-02-08 10:56:06.890034+01

 2017-02-08 11:30:04.71664+01 | 1486549804.71664 |                 0 |               7 |                  3429 |                  241 |             428595 |        967795 |             9642 |        20206699 |                     0 |      22828741 | 2017-02-08 10:56:06.890034+01

 2017-02-08 11:30:05.782813+01 | 1486549805.78281 |                 0 |               7 |                  3429 |                  241 |             428595 |        968295 |             9647 |        20206699 |                     0 |      22840891 | 2017-02-08 10:56:06.890034+01

 2017-02-08 11:30:06.850384+01 | 1486549806.85038 |                 0 |               7 |                  3429 |                  241 |             428595 |        968795 |             9652 |        20206699 |                     0 |      22853400 | 2017-02-08 10:56:06.890034+01

 2017-02-08 11:30:07.909539+01 | 1486549807.90954 |                 0 |               7 |                  3429 |                  241 |             428595 |        969295 |             9657 |        20206699 |                     0 |      22865794 | 2017-02-08 10:56:06.890034+01

 2017-02-08 11:30:08.977547+01 | 1486549808.97755 |                 0 |               7 |                  3429 |                  241 |             428595 |        969895 |             9663 |        20206699 |                     0 |      22879984 | 2017-02-08 10:56:06.890034+01

 2017-02-08 11:30:10.038045+01 | 1486549810.03804 |                 0 |               7 |                  3429 |                  241 |             428595 |        970395 |             9668 |        20269235 |                     0 |      22892568 | 2017-02-08 10:56:06.890034+01

 2017-02-08 11:30:11.093836+01 | 1486549811.09384 |                 0 |               7 |                  3429 |                  241 |             428595 |        970895 |             9673 |        20269235 |                     0 |      22904556 | 2017-02-08 10:56:06.890034+01

 2017-02-08 11:30:12.156967+01 | 1486549812.15697 |                 0 |               7 |                  3429 |                  241 |             428595 |        971395 |             9678 |        20269235 |                     0 |      22916463 | 2017-02-08 10:56:06.890034+01

 2017-02-08 11:30:13.213119+01 | 1486549813.21312 |                 0 |               7 |                  3429 |                  241 |             428595 |        971995 |             9684 |        20269235 |                     0 |      22931564 | 2017-02-08 10:56:06.890034+01

 2017-02-08 11:30:14.26709+01 | 1486549814.26709 |                 0 |               7 |                  3429 |                  241 |             428595 |        972495 |             9689 |        20269235 |                     0 |      22943244 | 2017-02-08 10:56:06.890034+01

 2017-02-08 11:30:15.325162+01 | 1486549815.32516 |                 0 |               7 |                  3429 |                  241 |             428595 |        972995 |             9694 |        20269235 |                     0 |      22955748 | 2017-02-08 10:56:06.890034+01

 2017-02-08 11:30:16.38463+01 | 1486549816.38463 |                 0 |               7 |                  3429 |                  241 |             428595 |        973495 |             9699 |        20331872 |                     0 |      22968290 | 2017-02-08 10:56:06.890034+01

 2017-02-08 11:30:17.441122+01 | 1486549817.44112 |                 0 |               7 |                  3429 |                  241 |             428595 |        974095 |             9705 |        20331872 |                     0 |      22982511 | 2017-02-08 10:56:06.890034+01

 2017-02-08 11:30:18.499935+01 | 1486549818.49993 |                 0 |               7 |                  3429 |                  241 |             428595 |        974595 |             9710 |        20331872 |                     0 |      22995291 | 2017-02-08 10:56:06.890034+01

 2017-02-08 11:30:19.556625+01 | 1486549819.55662 |                 0 |               7 |                  3429 |                  241 |             428595 |        975095 |             9715 |        20331872 |                     0 |      23007574 | 2017-02-08 10:56:06.890034+01

 2017-02-08 11:30:20.610471+01 | 1486549820.61047 |                 0 |               7 |                  3429 |                  241 |             428595 |        975695 |             9721 |        20331872 |                     0 |      23022209 | 2017-02-08 10:56:06.890034+01

 2017-02-08 11:30:21.672676+01 | 1486549821.67268 |                 0 |               7 |                  3429 |                  241 |             428595 |        976195 |             9726 |        20394508 |                     0 |      23034519 | 2017-02-08 10:56:06.890034+01

 2017-02-08 11:30:22.727685+01 | 1486549822.72768 |                 0 |               7 |                  3429 |                  241 |             428595 |        976695 |             9731 |        20394508 |                     0 |      23047119 | 2017-02-08 10:56:06.890034+01

 2017-02-08 11:30:23.781451+01 | 1486549823.78145 |                 0 |               7 |                  3429 |                  241 |             428595 |        977195 |             9736 |        20394508 |                     0 |      23059732 | 2017-02-08 10:56:06.890034+01

 2017-02-08 11:30:24.837347+01 | 1486549824.83735 |                 0 |               7 |                  3429 |                  241 |             428595 |        977795 |             9742 |        20394508 |                     0 |      23074009 | 2017-02-08 10:56:06.890034+01

 2017-02-08 11:30:25.897919+01 | 1486549825.89792 |                 0 |               7 |                  3429 |                  241 |             428595 |        978295 |             9747 |        20394508 |                     0 |      23086677 | 2017-02-08 10:56:06.890034+01

 2017-02-08 11:30:26.954571+01 | 1486549826.95457 |                 0 |               7 |                  3429 |                  241 |             428595 |        978795 |             9752 |        20394508 |                     0 |      23098897 | 2017-02-08 10:56:06.890034+01

 2017-02-08 11:30:28.017452+01 | 1486549828.01745 |                 0 |               7 |                  3429 |                  241 |             428595 |        979295 |             9757 |        20457073 |                     0 |      23110725 | 2017-02-08 10:56:06.890034+01

 2017-02-08 11:30:29.07531+01 | 1486549829.07531 |                 0 |               7 |                  3429 |                  241 |             428595 |        979895 |             9763 |        20457073 |                     0 |      23125785 | 2017-02-08 10:56:06.890034+01

 2017-02-08 11:30:30.131951+01 | 1486549830.13195 |                 0 |               7 |                  3429 |                  241 |             428595 |        980395 |             9768 |        20457073 |                     0 |      23137189 | 2017-02-08 10:56:06.890034+01

 2017-02-08 11:30:31.196643+01 | 1486549831.19664 |                 0 |               7 |                  3429 |                  241 |             428595 |        980895 |             9773 |        20457073 |                     0 |      23149998 | 2017-02-08 10:56:06.890034+01

 2017-02-08 11:30:32.260664+01 | 1486549832.26066 |                 0 |               7 |                  3429 |                  241 |             428595 |        981395 |             9778 |        20457073 |                     0 |      23162506 | 2017-02-08 10:56:06.890034+01

 2017-02-08 11:30:33.327742+01 | 1486549833.32774 |                 0 |               7 |                  3429 |                  241 |             428595 |        981995 |             9784 |        20519712 |                     0 |      23176681 | 2017-02-08 10:56:06.890034+01

 2017-02-08 11:30:34.392977+01 | 1486549834.39298 |                 0 |               7 |                  3429 |                  241 |             428595 |        982495 |             9789 |        20519712 |                     0 |      23189406 | 2017-02-08 10:56:06.890034+01

 2017-02-08 11:30:35.448363+01 | 1486549835.44836 |                 0 |               7 |                  3429 |                  241 |             428595 |        982995 |             9794 |        20519712 |                     0 |      23201740 | 2017-02-08 10:56:06.890034+01

 2017-02-08 11:30:36.507248+01 | 1486549836.50725 |                 0 |               7 |                  3429 |                  241 |             428595 |        983595 |             9800 |        20519712 |                     0 |      23216398 | 2017-02-08 10:56:06.890034+01

 2017-02-08 11:30:37.566177+01 | 1486549837.56618 |                 0 |               7 |                  3429 |                  241 |             428595 |        984095 |             9805 |        20519712 |                     0 |      23228731 | 2017-02-08 10:56:06.890034+01

 2017-02-08 11:30:38.624328+01 | 1486549838.62433 |                 0 |               7 |                  3429 |                  241 |             428595 |        984495 |             9809 |        20519712 |                     0 |      23238432 | 2017-02-08 10:56:06.890034+01

 2017-02-08 11:30:39.685374+01 | 1486549839.68537 |                 0 |               7 |                  3429 |                  241 |             428595 |        985095 |             9815 |        20582259 |                     0 |      23253147 | 2017-02-08 10:56:06.890034+01

 2017-02-08 11:30:40.741274+01 | 1486549840.74127 |                 0 |               7 |                  3429 |                  241 |             428595 |        985695 |             9821 |        20582259 |                     0 |      23267590 | 2017-02-08 10:56:06.890034+01

 2017-02-08 11:30:41.803917+01 | 1486549841.80392 |                 0 |               7 |                  3429 |                  241 |             428595 |        986195 |             9826 |        20582259 |                     0 |      23279577 | 2017-02-08 10:56:06.890034+01

 2017-02-08 11:30:42.86215+01 | 1486549842.86215 |                 0 |               7 |                  3429 |                  241 |             428595 |        986695 |             9831 |        20582259 |                     0 |      23290941 | 2017-02-08 10:56:06.890034+01

 2017-02-08 11:30:43.919477+01 | 1486549843.91948 |                 0 |               7 |                  3429 |                  241 |             428595 |        987195 |             9836 |        20582259 |                     0 |      23301556 | 2017-02-08 10:56:06.890034+01

 2017-02-08 11:30:44.980429+01 | 1486549844.98043 |                 0 |               7 |                  3429 |                  241 |             428595 |        987795 |             9842 |        20582259 |                     0 |      23314568 | 2017-02-08 10:56:06.890034+01

 2017-02-08 11:30:46.049139+01 | 1486549846.04914 |                 0 |               7 |                  3429 |                  241 |             428595 |        988295 |             9847 |        20644685 |                     0 |      23325081 | 2017-02-08 10:56:06.890034+01

 2017-02-08 11:30:47.10847+01 | 1486549847.10847 |                 0 |               7 |                  3429 |                  241 |             428595 |        988795 |             9852 |        20644685 |                     0 |      23335672 | 2017-02-08 10:56:06.890034+01

 2017-02-08 11:30:48.164642+01 | 1486549848.16464 |                 0 |               7 |                  3429 |                  241 |             428595 |        989395 |             9858 |        20644685 |                     0 |      23347877 | 2017-02-08 10:56:06.890034+01

 2017-02-08 11:30:49.222113+01 | 1486549849.22211 |                 0 |               7 |                  3429 |                  241 |             428595 |        989895 |             9863 |        20644685 |                     0 |      23357602 | 2017-02-08 10:56:06.890034+01

 2017-02-08 11:30:50.280813+01 | 1486549850.28081 |                 0 |               7 |                  3429 |                  241 |             428595 |        990395 |             9868 |        20644685 |                     0 |      23368432 | 2017-02-08 10:56:06.890034+01

 2017-02-08 11:30:51.337534+01 | 1486549851.33753 |                 0 |               7 |                  3429 |                  241 |             428595 |        990895 |             9873 |        20644685 |                     0 |      23380228 | 2017-02-08 10:56:06.890034+01

 2017-02-08 11:30:52.389527+01 | 1486549852.38953 |                 0 |               7 |                  3429 |                  241 |             428595 |        991495 |             9879 |        20707021 |                     0 |      23394411 | 2017-02-08 10:56:06.890034+01

 2017-02-08 11:30:53.447954+01 | 1486549853.44795 |                 0 |               7 |                  3429 |                  241 |             428595 |        991995 |             9884 |        20707021 |                     0 |      23406291 | 2017-02-08 10:56:06.890034+01

 2017-02-08 11:30:54.504097+01 | 1486549854.5041 |                 0 |               7 |                  3429 |                  241 |             428595 |        992495 |             9889 |        20707021 |                     0 |      23418326 | 2017-02-08 10:56:06.890034+01

 2017-02-08 11:30:55.559253+01 | 1486549855.55925 |                 0 |               7 |                  3429 |                  241 |             428595 |        992995 |             9894 |        20707021 |                     0 |      23430251 | 2017-02-08 10:56:06.890034+01

 2017-02-08 11:30:56.619259+01 | 1486549856.61926 |                 0 |               7 |                  3429 |                  241 |             428595 |        993595 |             9900 |        20707021 |                     0 |      23444041 | 2017-02-08 10:56:06.890034+01

 2017-02-08 11:30:57.678465+01 | 1486549857.67846 |                 0 |               7 |                  3429 |                  241 |             428595 |        994095 |             9905 |        20707021 |                     0 |      23455850 | 2017-02-08 10:56:06.890034+01

 2017-02-08 11:30:58.734263+01 | 1486549858.73426 |                 0 |               7 |                  3429 |                  241 |             428595 |        994595 |             9910 |        20769557 |                     0 |      23467687 | 2017-02-08 10:56:06.890034+01

 2017-02-08 11:30:59.792555+01 | 1486549859.79256 |                 0 |               7 |                  3429 |                  241 |             428595 |        995095 |             9915 |        20769557 |                     0 |      23478889 | 2017-02-08 10:56:06.890034+01

 2017-02-08 11:31:00.84862+01 | 1486549860.84862 |                 0 |               7 |                  3429 |                  241 |             428595 |        995695 |             9921 |        20769557 |                     0 |      23493216 | 2017-02-08 10:56:06.890034+01

 2017-02-08 11:31:01.904981+01 | 1486549861.90498 |                 0 |               7 |                  3429 |                  241 |             428595 |        996195 |             9926 |        20769557 |                     0 |      23504448 | 2017-02-08 10:56:06.890034+01

 2017-02-08 11:31:02.959757+01 | 1486549862.95976 |                 0 |               7 |                  3429 |                  241 |             428595 |        996695 |             9931 |        20769557 |                     0 |      23516131 | 2017-02-08 10:56:06.890034+01

 2017-02-08 11:31:04.0147+01 | 1486549864.0147 |                 0 |               7 |                  3429 |                  241 |             428595 |        997195 |             9936 |        20832094 |                     0 |      23527748 | 2017-02-08 10:56:06.890034+01

 2017-02-08 11:31:05.070185+01 | 1486549865.07018 |                 0 |               7 |                  3429 |                  241 |             428595 |        997795 |             9942 |        20832094 |                     0 |      23541288 | 2017-02-08 10:56:06.890034+01

 2017-02-08 11:31:06.128535+01 | 1486549866.12854 |                 0 |               7 |                  3429 |                  241 |             428595 |        998295 |             9947 |        20832094 |                     0 |      23553241 | 2017-02-08 10:56:06.890034+01

 2017-02-08 11:31:07.184892+01 | 1486549867.18489 |                 0 |               7 |                  3429 |                  241 |             428595 |        998795 |             9952 |        20832094 |                     0 |      23564959 | 2017-02-08 10:56:06.890034+01

 2017-02-08 11:31:08.238751+01 | 1486549868.23875 |                 0 |               7 |                  3429 |                  241 |             428595 |        999295 |             9957 |        20832094 |                     0 |      23576935 | 2017-02-08 10:56:06.890034+01

 2017-02-08 11:31:09.295363+01 | 1486549869.29536 |                 0 |               7 |                  3429 |                  241 |             428595 |        999895 |             9963 |        20832094 |                     0 |      23590362 | 2017-02-08 10:56:06.890034+01

 2017-02-08 11:31:10.354861+01 | 1486549870.35486 |                 0 |               7 |                  3429 |                  241 |             428595 |       1000395 |             9968 |        20894732 |                     0 |      23602296 | 2017-02-08 10:56:06.890034+01

 2017-02-08 11:31:11.408881+01 | 1486549871.40888 |                 0 |               7 |                  3429 |                  241 |             428595 |       1000895 |             9973 |        20894732 |                     0 |      23613914 | 2017-02-08 10:56:06.890034+01

 2017-02-08 11:31:12.467601+01 | 1486549872.4676 |                 0 |               7 |                  3429 |                  241 |             428595 |       1001395 |             9978 |        20894732 |                     0 |      23625202 | 2017-02-08 10:56:06.890034+01

 2017-02-08 11:31:13.523754+01 | 1486549873.52375 |                 0 |               7 |                  3429 |                  241 |             428595 |       1001995 |             9984 |        20894732 |                     0 |      23639607 | 2017-02-08 10:56:06.890034+01

 2017-02-08 11:31:14.579891+01 | 1486549874.57989 |                 0 |               7 |                  3429 |                  241 |             428595 |       1002495 |             9989 |        20894732 |                     0 |      23650879 | 2017-02-08 10:56:06.890034+01

 2017-02-08 11:31:15.638257+01 | 1486549875.63826 |                 0 |               7 |                  3429 |                  241 |             428595 |       1002995 |             9994 |        20894732 |                     0 |      23662656 | 2017-02-08 10:56:06.890034+01

 2017-02-08 11:31:16.69855+01 | 1486549876.69855 |                 0 |               7 |                  3429 |                  241 |             428595 |       1003495 |             9999 |        20957269 |                     0 |      23674635 | 2017-02-08 10:56:06.890034+01

 2017-02-08 11:31:17.754611+01 | 1486549877.75461 |                 0 |               7 |                  3429 |                  241 |             428595 |       1004095 |            10005 |        20957269 |                     0 |      23688259 | 2017-02-08 10:56:06.890034+01

 2017-02-08 11:31:18.811297+01 | 1486549878.8113 |                 0 |               7 |                  3429 |                  241 |             428595 |       1004595 |            10010 |        20957269 |                     0 |      23700250 | 2017-02-08 10:56:06.890034+01

 2017-02-08 11:31:19.868381+01 | 1486549879.86838 |                 0 |               7 |                  3429 |                  241 |             428595 |       1005095 |            10015 |        20957269 |                     0 |      23711994 | 2017-02-08 10:56:06.890034+01

 2017-02-08 11:31:20.928229+01 | 1486549880.92823 |                 0 |               7 |                  3429 |                  241 |             428595 |       1005595 |            10020 |        20957269 |                     0 |      23723758 | 2017-02-08 10:56:06.890034+01

 2017-02-08 11:31:21.986951+01 | 1486549881.98695 |                 0 |               7 |                  3429 |                  241 |             428595 |       1006195 |            10026 |        21019805 |                     0 |      23737574 | 2017-02-08 10:56:06.890034+01

 2017-02-08 11:31:23.046702+01 | 1486549883.0467 |                 0 |               7 |                  3429 |                  241 |             428595 |       1006695 |            10031 |        21019805 |                     0 |      23749372 | 2017-02-08 10:56:06.890034+01

 2017-02-08 11:31:24.100276+01 | 1486549884.10028 |                 0 |               7 |                  3429 |                  241 |             428595 |       1007195 |            10036 |        21019805 |                     0 |      23761229 | 2017-02-08 10:56:06.890034+01

 2017-02-08 11:31:25.155532+01 | 1486549885.15553 |                 0 |               7 |                  3429 |                  241 |             428595 |       1007695 |            10041 |        21019805 |                     0 |      23772234 | 2017-02-08 10:56:06.890034+01

 2017-02-08 11:31:26.21532+01 | 1486549886.21532 |                 0 |               7 |                  3429 |                  241 |             428595 |       1008295 |            10047 |        21019805 |                     0 |      23786739 | 2017-02-08 10:56:06.890034+01

 2017-02-08 11:31:27.270637+01 | 1486549887.27064 |                 0 |               7 |                  3429 |                  241 |             428595 |       1008795 |            10052 |        21019805 |                     0 |      23798468 | 2017-02-08 10:56:06.890034+01

 2017-02-08 11:31:28.329467+01 | 1486549888.32947 |                 0 |               7 |                  3429 |                  241 |             428595 |       1009295 |            10057 |        21082341 |                     0 |      23809730 | 2017-02-08 10:56:06.890034+01

 2017-02-08 11:31:29.385597+01 | 1486549889.3856 |                 0 |               7 |                  3429 |                  241 |             428595 |       1009795 |            10062 |        21082341 |                     0 |      23821547 | 2017-02-08 10:56:06.890034+01

 2017-02-08 11:31:30.437105+01 | 1486549890.4371 |                 0 |               7 |                  3429 |                  241 |             428595 |       1010395 |            10068 |        21082341 |                     0 |      23836048 | 2017-02-08 10:56:06.890034+01

 2017-02-08 11:31:31.491062+01 | 1486549891.49106 |                 0 |               7 |                  3429 |                  241 |             428595 |       1010895 |            10073 |        21082341 |                     0 |      23847132 | 2017-02-08 10:56:06.890034+01

 2017-02-08 11:31:32.552839+01 | 1486549892.55284 |                 0 |               7 |                  3429 |                  241 |             428595 |       1011395 |            10078 |        21082341 |                     0 |      23858713 | 2017-02-08 10:56:06.890034+01

 2017-02-08 11:31:33.607365+01 | 1486549893.60736 |                 0 |               7 |                  3429 |                  241 |             428595 |       1011895 |            10083 |        21082341 |                     0 |      23870608 | 2017-02-08 10:56:06.890034+01

 2017-02-08 11:31:34.665884+01 | 1486549894.66588 |                 0 |               7 |                  3429 |                  241 |             428595 |       1012495 |            10089 |        21144779 |                     0 |      23883534 | 2017-02-08 10:56:06.890034+01

 2017-02-08 11:31:35.719614+01 | 1486549895.71961 |                 0 |               7 |                  3429 |                  241 |             428595 |       1012995 |            10094 |        21144779 |                     0 |      23894747 | 2017-02-08 10:56:06.890034+01

 2017-02-08 11:31:36.775613+01 | 1486549896.77561 |                 0 |               7 |                  3429 |                  241 |             428595 |       1013495 |            10099 |        21144779 |                     0 |      23906629 | 2017-02-08 10:56:06.890034+01

 2017-02-08 11:31:37.827723+01 | 1486549897.82772 |                 0 |               7 |                  3429 |                  241 |             428595 |       1013995 |            10104 |        21144779 |                     0 |      23918356 | 2017-02-08 10:56:06.890034+01

 2017-02-08 11:31:38.885171+01 | 1486549898.88517 |                 0 |               7 |                  3429 |                  241 |             428595 |       1014595 |            10110 |        21144779 |                     0 |      23932290 | 2017-02-08 10:56:06.890034+01

 2017-02-08 11:31:39.942826+01 | 1486549899.94283 |                 0 |               7 |                  3429 |                  241 |             428595 |       1015095 |            10115 |        21144779 |                     0 |      23944291 | 2017-02-08 10:56:06.890034+01

 2017-02-08 11:31:41.003522+01 | 1486549901.00352 |                 0 |               7 |                  3429 |                  241 |             428595 |       1015595 |            10120 |        21207316 |                     0 |      23956276 | 2017-02-08 10:56:06.890034+01

 2017-02-08 11:31:42.060495+01 | 1486549902.06049 |                 0 |               7 |                  3429 |                  241 |             428595 |       1016095 |            10125 |        21207316 |                     0 |      23968168 | 2017-02-08 10:56:06.890034+01

 2017-02-08 11:31:43.115411+01 | 1486549903.11541 |                 0 |               7 |                  3429 |                  241 |             428595 |       1016695 |            10131 |        21207316 |                     0 |      23981934 | 2017-02-08 10:56:06.890034+01

 2017-02-08 11:31:44.173216+01 | 1486549904.17322 |                 0 |               7 |                  3429 |                  241 |             428595 |       1017195 |            10136 |        21207316 |                     0 |      23993913 | 2017-02-08 10:56:06.890034+01

 2017-02-08 11:31:45.220943+01 | 1486549905.22094 |                 0 |               7 |                  3429 |                  241 |             428595 |       1017695 |            10141 |        21207316 |                     0 |      24005920 | 2017-02-08 10:56:06.890034+01

 2017-02-08 11:31:46.279799+01 | 1486549906.2798 |                 0 |               7 |                  3429 |                  241 |             428595 |       1018195 |            10146 |        21207316 |                     0 |      24017589 | 2017-02-08 10:56:06.890034+01

 2017-02-08 11:31:47.337588+01 | 1486549907.33759 |                 0 |               7 |                  3429 |                  241 |             428595 |       1018795 |            10152 |        21269552 |                     0 |      24031058 | 2017-02-08 10:56:06.890034+01

 2017-02-08 11:31:48.390909+01 | 1486549908.39091 |                 0 |               7 |                  3429 |                  241 |             428595 |       1019295 |            10157 |        21269552 |                     0 |      24042281 | 2017-02-08 10:56:06.890034+01

 2017-02-08 11:31:49.451022+01 | 1486549909.45102 |                 0 |               7 |                  3429 |                  241 |             428595 |       1019795 |            10162 |        21269552 |                     0 |      24053398 | 2017-02-08 10:56:06.890034+01

 2017-02-08 11:31:50.513578+01 | 1486549910.51358 |                 0 |               7 |                  3429 |                  241 |             428595 |       1020295 |            10167 |        21269552 |                     0 |      24064574 | 2017-02-08 10:56:06.890034+01

 2017-02-08 11:31:51.574175+01 | 1486549911.57417 |                 0 |               7 |                  3429 |                  241 |             428595 |       1020895 |            10173 |        21269552 |                     0 |      24077301 | 2017-02-08 10:56:06.890034+01

 2017-02-08 11:31:52.634107+01 | 1486549912.63411 |                 0 |               7 |                  3429 |                  241 |             428595 |       1021395 |            10178 |        21269552 |                     0 |      24087951 | 2017-02-08 10:56:06.890034+01

 2017-02-08 11:31:53.70537+01 | 1486549913.70537 |                 0 |               7 |                  3429 |                  241 |             428595 |       1021895 |            10183 |        21331788 |                     0 |      24097964 | 2017-02-08 10:56:06.890034+01

 2017-02-08 11:31:54.770319+01 | 1486549914.77032 |                 0 |               7 |                  3429 |                  241 |             428595 |       1022495 |            10189 |        21331788 |                     0 |      24109783 | 2017-02-08 10:56:06.890034+01

 2017-02-08 11:31:55.832927+01 | 1486549915.83293 |                 0 |               7 |                  3429 |                  241 |             428595 |       1022995 |            10194 |        21331788 |                     0 |      24120839 | 2017-02-08 10:56:06.890034+01

 2017-02-08 11:31:56.890458+01 | 1486549916.89046 |                 0 |               7 |                  3429 |                  241 |             428595 |       1023495 |            10199 |        21331788 |                     0 |      24132486 | 2017-02-08 10:56:06.890034+01

 2017-02-08 11:31:57.954263+01 | 1486549917.95426 |                 0 |               7 |                  3429 |                  241 |             428595 |       1024095 |            10205 |        21331788 |                     0 |      24146210 | 2017-02-08 10:56:06.890034+01

 2017-02-08 11:31:59.01467+01 | 1486549919.01467 |                 0 |               7 |                  3429 |                  241 |             428595 |       1024595 |            10210 |        21331788 |                     0 |      24158152 | 2017-02-08 10:56:06.890034+01

 2017-02-08 11:32:00.068906+01 | 1486549920.06891 |                 0 |               7 |                  3429 |                  241 |             428595 |       1025095 |            10215 |        21394179 |                     0 |      24170186 | 2017-02-08 10:56:06.890034+01

 2017-02-08 11:32:01.125646+01 | 1486549921.12565 |                 0 |               7 |                  3429 |                  241 |             428595 |       1025595 |            10220 |        21394179 |                     0 |      24181732 | 2017-02-08 10:56:06.890034+01

 2017-02-08 11:32:02.179419+01 | 1486549922.17942 |                 0 |               7 |                  3429 |                  241 |             428595 |       1026195 |            10226 |        21394179 |                     0 |      24195550 | 2017-02-08 10:56:06.890034+01

