 2017-02-08 22:36:29.306857+01 | 1486589789.30686 |                 0 |               3 |                   213 |                   31 |              15505 |        294300 |             2943 |         9510067 |                     0 |      48961923 | 2017-02-08 22:25:38.675853+01

 2017-02-08 22:36:30.368078+01 | 1486589790.36808 |                 0 |               3 |                   213 |                   31 |              15505 |        294345 |             2943 |         9510067 |                     0 |      49003947 | 2017-02-08 22:25:38.675853+01

 2017-02-08 22:36:31.424634+01 | 1486589791.42463 |                 0 |               3 |                   213 |                   31 |              15505 |        294692 |             2945 |         9510067 |                     0 |      49047278 | 2017-02-08 22:25:38.675853+01

 2017-02-08 22:36:32.484305+01 | 1486589792.4843 |                 0 |               3 |                   213 |                   31 |              15505 |        295192 |             2950 |         9510067 |                     0 |      49091131 | 2017-02-08 22:25:38.675853+01

 2017-02-08 22:36:33.538088+01 | 1486589793.53809 |                 0 |               3 |                   213 |                   31 |              15505 |        295792 |             2956 |         9510067 |                     0 |      49140579 | 2017-02-08 22:25:38.675853+01

 2017-02-08 22:36:34.601904+01 | 1486589794.6019 |                 0 |               3 |                   213 |                   31 |              15505 |        296292 |             2961 |         9510067 |                     0 |      49183123 | 2017-02-08 22:25:38.675853+01

 2017-02-08 22:36:35.670817+01 | 1486589795.67082 |                 0 |               3 |                   213 |                   31 |              15505 |        296792 |             2966 |         9510067 |                     0 |      49224901 | 2017-02-08 22:25:38.675853+01

 2017-02-08 22:36:36.729795+01 | 1486589796.72979 |                 0 |               3 |                   213 |                   31 |              15505 |        297392 |             2972 |         9510067 |                     0 |      49275793 | 2017-02-08 22:25:38.675853+01

 2017-02-08 22:36:37.784531+01 | 1486589797.78453 |                 0 |               3 |                   213 |                   31 |              15505 |        297892 |             2977 |         9510067 |                     0 |      49319412 | 2017-02-08 22:25:38.675853+01

 2017-02-08 22:36:38.843783+01 | 1486589798.84378 |                 0 |               3 |                   213 |                   31 |              15505 |        298392 |             2982 |         9510067 |                     0 |      49363489 | 2017-02-08 22:25:38.675853+01

 2017-02-08 22:36:39.90876+01 | 1486589799.90876 |                 0 |               3 |                   213 |                   31 |              15505 |        298892 |             2987 |         9510067 |                     0 |      49406021 | 2017-02-08 22:25:38.675853+01

 2017-02-08 22:36:40.968419+01 | 1486589800.96842 |                 0 |               3 |                   213 |                   31 |              15505 |        299492 |             2993 |         9510067 |                     0 |      49459834 | 2017-02-08 22:25:38.675853+01

 2017-02-08 22:36:42.024057+01 | 1486589802.02406 |                 0 |               3 |                   213 |                   31 |              15505 |        299992 |             2998 |         9569911 |                     0 |      49504272 | 2017-02-08 22:25:38.675853+01

 2017-02-08 22:36:43.090834+01 | 1486589803.09083 |                 0 |               3 |                   213 |                   31 |              15505 |        300492 |             3003 |         9569911 |                     0 |      49550183 | 2017-02-08 22:25:38.675853+01

 2017-02-08 22:36:44.148767+01 | 1486589804.14877 |                 0 |               3 |                   213 |                   31 |              15505 |        300992 |             3008 |         9569911 |                     0 |      49595192 | 2017-02-08 22:25:38.675853+01

 2017-02-08 22:36:45.20574+01 | 1486589805.20574 |                 0 |               3 |                   213 |                   31 |              15505 |        301592 |             3014 |         9569911 |                     0 |      49648678 | 2017-02-08 22:25:38.675853+01

 2017-02-08 22:36:46.274613+01 | 1486589806.27461 |                 0 |               3 |                   213 |                   31 |              15505 |        302092 |             3019 |         9569911 |                     0 |      49694267 | 2017-02-08 22:25:38.675853+01

 2017-02-08 22:36:47.33314+01 | 1486589807.33314 |                 0 |               3 |                   213 |                   31 |              15505 |        302592 |             3024 |         9569911 |                     0 |      49738177 | 2017-02-08 22:25:38.675853+01

 2017-02-08 22:36:48.392718+01 | 1486589808.39272 |                 0 |               3 |                   213 |                   31 |              15505 |        303192 |             3030 |         9569911 |                     0 |      49793540 | 2017-02-08 22:25:38.675853+01

 2017-02-08 22:36:49.452552+01 | 1486589809.45255 |                 0 |               3 |                   213 |                   31 |              15505 |        303692 |             3035 |         9569911 |                     0 |      49839505 | 2017-02-08 22:25:38.675853+01

 2017-02-08 22:36:50.523467+01 | 1486589810.52347 |                 0 |               3 |                   213 |                   31 |              15505 |        304192 |             3040 |         9569911 |                     0 |      49885739 | 2017-02-08 22:25:38.675853+01

 2017-02-08 22:36:51.583484+01 | 1486589811.58348 |                 0 |               3 |                   213 |                   31 |              15505 |        304692 |             3045 |         9569911 |                     0 |      49930649 | 2017-02-08 22:25:38.675853+01

 2017-02-08 22:36:52.639254+01 | 1486589812.63925 |                 0 |               3 |                   213 |                   31 |              15505 |        305292 |             3051 |         9630647 |                     0 |      49986577 | 2017-02-08 22:25:38.675853+01

 2017-02-08 22:36:53.699381+01 | 1486589813.69938 |                 0 |               3 |                   213 |                   31 |              15505 |        305792 |             3056 |         9630647 |                     0 |      50033456 | 2017-02-08 22:25:38.675853+01

 2017-02-08 22:36:54.76447+01 | 1486589814.76447 |                 0 |               3 |                   213 |                   31 |              15505 |        306292 |             3061 |         9630647 |                     0 |      50079494 | 2017-02-08 22:25:38.675853+01

 2017-02-08 22:36:55.825437+01 | 1486589815.82544 |                 0 |               3 |                   213 |                   31 |              15505 |        306792 |             3066 |         9630647 |                     0 |      50125074 | 2017-02-08 22:25:38.675853+01

 2017-02-08 22:36:56.89192+01 | 1486589816.89192 |                 0 |               3 |                   213 |                   31 |              15505 |        307392 |             3072 |         9630647 |                     0 |      50182649 | 2017-02-08 22:25:38.675853+01

 2017-02-08 22:36:57.960492+01 | 1486589817.96049 |                 0 |               3 |                   213 |                   31 |              15505 |        307892 |             3077 |         9630647 |                     0 |      50228614 | 2017-02-08 22:25:38.675853+01

 2017-02-08 22:36:59.025277+01 | 1486589819.02528 |                 0 |               3 |                   213 |                   31 |              15505 |        308392 |             3082 |         9630647 |                     0 |      50279203 | 2017-02-08 22:25:38.675853+01

 2017-02-08 22:37:00.099271+01 | 1486589820.09927 |                 0 |               3 |                   213 |                   31 |              15505 |        308992 |             3088 |         9630647 |                     0 |      50335724 | 2017-02-08 22:25:38.675853+01

 2017-02-08 22:37:01.175007+01 | 1486589821.17501 |                 0 |               3 |                   213 |                   31 |              15505 |        309492 |             3093 |         9691483 |                     0 |      50382521 | 2017-02-08 22:25:38.675853+01

 2017-02-08 22:37:02.236628+01 | 1486589822.23663 |                 0 |               3 |                   213 |                   31 |              15505 |        309992 |             3098 |         9691483 |                     0 |      50430333 | 2017-02-08 22:25:38.675853+01

 2017-02-08 22:37:03.295797+01 | 1486589823.2958 |                 0 |               3 |                   213 |                   31 |              15505 |        310592 |             3104 |         9691483 |                     0 |      50486468 | 2017-02-08 22:25:38.675853+01

 2017-02-08 22:37:04.358249+01 | 1486589824.35825 |                 0 |               3 |                   213 |                   31 |              15505 |        311092 |             3109 |         9691483 |                     0 |      50531988 | 2017-02-08 22:25:38.675853+01

 2017-02-08 22:37:05.415801+01 | 1486589825.4158 |                 0 |               3 |                   213 |                   31 |              15505 |        311592 |             3114 |         9691483 |                     0 |      50580108 | 2017-02-08 22:25:38.675853+01

 2017-02-08 22:37:06.478441+01 | 1486589826.47844 |                 0 |               3 |                   213 |                   31 |              15505 |        312092 |             3119 |         9691483 |                     0 |      50628037 | 2017-02-08 22:25:38.675853+01

 2017-02-08 22:37:07.536953+01 | 1486589827.53695 |                 0 |               3 |                   213 |                   31 |              15505 |        312692 |             3125 |         9691483 |                     0 |      50683266 | 2017-02-08 22:25:38.675853+01

 2017-02-08 22:37:08.595666+01 | 1486589828.59567 |                 0 |               3 |                   213 |                   31 |              15505 |        313192 |             3130 |         9691483 |                     0 |      50731531 | 2017-02-08 22:25:38.675853+01

 2017-02-08 22:37:09.657381+01 | 1486589829.65738 |                 0 |               3 |                   213 |                   31 |              15505 |        313692 |             3135 |         9691483 |                     0 |      50779145 | 2017-02-08 22:25:38.675853+01

 2017-02-08 22:37:10.725184+01 | 1486589830.72518 |                 0 |               3 |                   213 |                   31 |              15505 |        314292 |             3141 |         9752319 |                     0 |      50835397 | 2017-02-08 22:25:38.675853+01

 2017-02-08 22:37:11.795313+01 | 1486589831.79531 |                 0 |               3 |                   213 |                   31 |              15505 |        314792 |             3146 |         9752319 |                     0 |      50882393 | 2017-02-08 22:25:38.675853+01

 2017-02-08 22:37:12.860069+01 | 1486589832.86007 |                 0 |               3 |                   213 |                   31 |              15505 |        315292 |             3151 |         9752319 |                     0 |      50931938 | 2017-02-08 22:25:38.675853+01

 2017-02-08 22:37:13.918073+01 | 1486589833.91807 |                 0 |               3 |                   213 |                   31 |              15505 |        315792 |             3156 |         9752319 |                     0 |      50980302 | 2017-02-08 22:25:38.675853+01

 2017-02-08 22:37:14.982413+01 | 1486589834.98241 |                 0 |               3 |                   213 |                   31 |              15505 |        316392 |             3162 |         9752319 |                     0 |      51037838 | 2017-02-08 22:25:38.675853+01

 2017-02-08 22:37:16.046277+01 | 1486589836.04628 |                 0 |               3 |                   213 |                   31 |              15505 |        316892 |             3167 |         9752319 |                     0 |      51085653 | 2017-02-08 22:25:38.675853+01

 2017-02-08 22:37:17.119+01 | 1486589837.119 |                 0 |               3 |                   213 |                   31 |              15505 |        317392 |             3172 |         9752319 |                     0 |      51131962 | 2017-02-08 22:25:38.675853+01

 2017-02-08 22:37:18.182744+01 | 1486589838.18274 |                 0 |               3 |                   213 |                   31 |              15505 |        317992 |             3178 |         9752319 |                     0 |      51190220 | 2017-02-08 22:25:38.675853+01

 2017-02-08 22:37:19.242629+01 | 1486589839.24263 |                 0 |               3 |                   213 |                   31 |              15505 |        318492 |             3183 |         9752319 |                     0 |      51236733 | 2017-02-08 22:25:38.675853+01

 2017-02-08 22:37:20.306602+01 | 1486589840.3066 |                 0 |               3 |                   213 |                   31 |              15505 |        318992 |             3188 |         9813255 |                     0 |      51284086 | 2017-02-08 22:25:38.675853+01

 2017-02-08 22:37:21.373306+01 | 1486589841.37331 |                 0 |               3 |                   213 |                   31 |              15505 |        319592 |             3194 |         9813255 |                     0 |      51342741 | 2017-02-08 22:25:38.675853+01

 2017-02-08 22:37:22.446292+01 | 1486589842.44629 |                 0 |               3 |                   213 |                   31 |              15505 |        320092 |             3199 |         9813255 |                     0 |      51389532 | 2017-02-08 22:25:38.675853+01

 2017-02-08 22:37:23.524129+01 | 1486589843.52413 |                 0 |               3 |                   213 |                   31 |              15505 |        320592 |             3204 |         9813255 |                     0 |      51437807 | 2017-02-08 22:25:38.675853+01

 2017-02-08 22:37:24.595675+01 | 1486589844.59567 |                 0 |               3 |                   213 |                   31 |              15505 |        321192 |             3210 |         9813255 |                     0 |      51496794 | 2017-02-08 22:25:38.675853+01

 2017-02-08 22:37:25.665704+01 | 1486589845.6657 |                 0 |               3 |                   213 |                   31 |              15505 |        321692 |             3215 |         9813255 |                     0 |      51544040 | 2017-02-08 22:25:38.675853+01

 2017-02-08 22:37:26.723217+01 | 1486589846.72322 |                 0 |               3 |                   213 |                   31 |              15505 |        322192 |             3220 |         9813255 |                     0 |      51594773 | 2017-02-08 22:25:38.675853+01

 2017-02-08 22:37:27.790409+01 | 1486589847.79041 |                 0 |               3 |                   213 |                   31 |              15505 |        322692 |             3225 |         9813255 |                     0 |      51642982 | 2017-02-08 22:25:38.675853+01

 2017-02-08 22:37:28.856382+01 | 1486589848.85638 |                 0 |               3 |                   213 |                   31 |              15505 |        323292 |             3231 |         9813255 |                     0 |      51699710 | 2017-02-08 22:25:38.675853+01

 2017-02-08 22:37:29.923231+01 | 1486589849.92323 |                 0 |               3 |                   213 |                   31 |              15505 |        323792 |             3236 |         9874191 |                     0 |      51747251 | 2017-02-08 22:25:38.675853+01

 2017-02-08 22:37:30.990276+01 | 1486589850.99028 |                 0 |               3 |                   213 |                   31 |              15505 |        324292 |             3241 |         9874191 |                     0 |      51795556 | 2017-02-08 22:25:38.675853+01

 2017-02-08 22:37:32.051712+01 | 1486589852.05171 |                 0 |               3 |                   213 |                   31 |              15505 |        324892 |             3247 |         9874191 |                     0 |      51853955 | 2017-02-08 22:25:38.675853+01

 2017-02-08 22:37:33.109588+01 | 1486589853.10959 |                 0 |               3 |                   213 |                   31 |              15505 |        325392 |             3252 |         9874191 |                     0 |      51902699 | 2017-02-08 22:25:38.675853+01

 2017-02-08 22:37:34.183763+01 | 1486589854.18376 |                 0 |               3 |                   213 |                   31 |              15505 |        325892 |             3257 |         9874191 |                     0 |      51950352 | 2017-02-08 22:25:38.675853+01

 2017-02-08 22:37:35.245615+01 | 1486589855.24562 |                 0 |               3 |                   213 |                   31 |              15505 |        326392 |             3262 |         9874191 |                     0 |      52001710 | 2017-02-08 22:25:38.675853+01

 2017-02-08 22:37:36.30434+01 | 1486589856.30434 |                 0 |               3 |                   213 |                   31 |              15505 |        326992 |             3268 |         9874191 |                     0 |      52059967 | 2017-02-08 22:25:38.675853+01

 2017-02-08 22:37:37.374136+01 | 1486589857.37414 |                 0 |               3 |                   213 |                   31 |              15505 |        327492 |             3273 |         9874191 |                     0 |      52108718 | 2017-02-08 22:25:38.675853+01

 2017-02-08 22:37:38.437327+01 | 1486589858.43733 |                 0 |               3 |                   213 |                   31 |              15505 |        327992 |             3278 |         9935227 |                     0 |      52155605 | 2017-02-08 22:25:38.675853+01

 2017-02-08 22:37:39.497915+01 | 1486589859.49792 |                 0 |               3 |                   213 |                   31 |              15505 |        328592 |             3284 |         9935227 |                     0 |      52213951 | 2017-02-08 22:25:38.675853+01

 2017-02-08 22:37:40.556505+01 | 1486589860.5565 |                 0 |               3 |                   213 |                   31 |              15505 |        329092 |             3289 |         9935227 |                     0 |      52262089 | 2017-02-08 22:25:38.675853+01

 2017-02-08 22:37:41.621398+01 | 1486589861.6214 |                 0 |               3 |                   213 |                   31 |              15505 |        329592 |             3294 |         9935227 |                     0 |      52309604 | 2017-02-08 22:25:38.675853+01

 2017-02-08 22:37:42.684799+01 | 1486589862.6848 |                 0 |               3 |                   213 |                   31 |              15505 |        330092 |             3299 |         9935227 |                     0 |      52358823 | 2017-02-08 22:25:38.675853+01

 2017-02-08 22:37:43.746724+01 | 1486589863.74672 |                 0 |               3 |                   213 |                   31 |              15505 |        330692 |             3305 |         9935227 |                     0 |      52418641 | 2017-02-08 22:25:38.675853+01

 2017-02-08 22:37:44.808867+01 | 1486589864.80887 |                 0 |               3 |                   213 |                   31 |              15505 |        331192 |             3310 |         9935227 |                     0 |      52470521 | 2017-02-08 22:25:38.675853+01

 2017-02-08 22:37:45.874212+01 | 1486589865.87421 |                 0 |               3 |                   213 |                   31 |              15505 |        331692 |             3315 |         9935227 |                     0 |      52518539 | 2017-02-08 22:25:38.675853+01

 2017-02-08 22:37:46.943318+01 | 1486589866.94332 |                 0 |               3 |                   213 |                   31 |              15505 |        332192 |             3320 |         9935227 |                     0 |      52566719 | 2017-02-08 22:25:38.675853+01

 2017-02-08 22:37:48.003101+01 | 1486589868.0031 |                 0 |               3 |                   213 |                   31 |              15505 |        332792 |             3326 |         9996163 |                     0 |      52623165 | 2017-02-08 22:25:38.675853+01

 2017-02-08 22:37:49.067561+01 | 1486589869.06756 |                 0 |               3 |                   213 |                   31 |              15505 |        333292 |             3331 |         9996163 |                     0 |      52672506 | 2017-02-08 22:25:38.675853+01

 2017-02-08 22:37:50.139096+01 | 1486589870.1391 |                 0 |               3 |                   213 |                   31 |              15505 |        333792 |             3336 |         9996163 |                     0 |      52720640 | 2017-02-08 22:25:38.675853+01

 2017-02-08 22:37:51.20568+01 | 1486589871.20568 |                 0 |               3 |                   213 |                   31 |              15505 |        334392 |             3342 |         9996163 |                     0 |      52780130 | 2017-02-08 22:25:38.675853+01

 2017-02-08 22:37:52.268114+01 | 1486589872.26811 |                 0 |               3 |                   213 |                   31 |              15505 |        334892 |             3347 |         9996163 |                     0 |      52828702 | 2017-02-08 22:25:38.675853+01

 2017-02-08 22:37:53.334363+01 | 1486589873.33436 |                 0 |               3 |                   213 |                   31 |              15505 |        335392 |             3352 |         9996163 |                     0 |      52877262 | 2017-02-08 22:25:38.675853+01

 2017-02-08 22:37:54.404402+01 | 1486589874.4044 |                 0 |               3 |                   213 |                   31 |              15505 |        335992 |             3358 |         9996163 |                     0 |      52935644 | 2017-02-08 22:25:38.675853+01

 2017-02-08 22:37:55.470105+01 | 1486589875.4701 |                 0 |               3 |                   213 |                   31 |              15505 |        336492 |             3363 |         9996163 |                     0 |      52984726 | 2017-02-08 22:25:38.675853+01

 2017-02-08 22:37:56.534765+01 | 1486589876.53477 |                 0 |               3 |                   213 |                   31 |              15505 |        336992 |             3368 |        10057199 |                     0 |      53034202 | 2017-02-08 22:25:38.675853+01

 2017-02-08 22:37:57.605681+01 | 1486589877.60568 |                 0 |               3 |                   213 |                   31 |              15505 |        337492 |             3373 |        10057199 |                     0 |      53082162 | 2017-02-08 22:25:38.675853+01

 2017-02-08 22:37:58.68213+01 | 1486589878.68213 |                 0 |               3 |                   213 |                   31 |              15505 |        338092 |             3379 |        10057199 |                     0 |      53141986 | 2017-02-08 22:25:38.675853+01

 2017-02-08 22:37:59.749601+01 | 1486589879.7496 |                 0 |               3 |                   213 |                   31 |              15505 |        338592 |             3384 |        10057199 |                     0 |      53191102 | 2017-02-08 22:25:38.675853+01

 2017-02-08 22:38:00.809824+01 | 1486589880.80982 |                 0 |               3 |                   213 |                   31 |              15505 |        339092 |             3389 |        10057199 |                     0 |      53239856 | 2017-02-08 22:25:38.675853+01

 2017-02-08 22:38:01.872055+01 | 1486589881.87206 |                 0 |               3 |                   213 |                   31 |              15505 |        339692 |             3395 |        10057199 |                     0 |      53299000 | 2017-02-08 22:25:38.675853+01

 2017-02-08 22:38:02.928363+01 | 1486589882.92836 |                 0 |               3 |                   213 |                   31 |              15505 |        340192 |             3400 |        10057199 |                     0 |      53347157 | 2017-02-08 22:25:38.675853+01

 2017-02-08 22:38:03.992757+01 | 1486589883.99276 |                 0 |               3 |                   213 |                   31 |              15505 |        340692 |             3405 |        10057199 |                     0 |      53395922 | 2017-02-08 22:25:38.675853+01

 2017-02-08 22:38:05.052786+01 | 1486589885.05279 |                 0 |               3 |                   213 |                   31 |              15505 |        341192 |             3410 |        10057199 |                     0 |      53445064 | 2017-02-08 22:25:38.675853+01

 2017-02-08 22:38:06.128195+01 | 1486589886.1282 |                 0 |               3 |                   213 |                   31 |              15505 |        341792 |             3416 |        10118236 |                     0 |      53503655 | 2017-02-08 22:25:38.675853+01

 2017-02-08 22:38:07.190063+01 | 1486589887.19006 |                 0 |               3 |                   213 |                   31 |              15505 |        342292 |             3421 |        10118236 |                     0 |      53554209 | 2017-02-08 22:25:38.675853+01

 2017-02-08 22:38:08.251029+01 | 1486589888.25103 |                 0 |               3 |                   213 |                   31 |              15505 |        342792 |             3426 |        10118236 |                     0 |      53607492 | 2017-02-08 22:25:38.675853+01

 2017-02-08 22:38:09.305256+01 | 1486589889.30526 |                 0 |               3 |                   213 |                   31 |              15505 |        343292 |             3431 |        10118236 |                     0 |      53655908 | 2017-02-08 22:25:38.675853+01

 2017-02-08 22:38:10.373469+01 | 1486589890.37347 |                 0 |               3 |                   213 |                   31 |              15505 |        343892 |             3437 |        10118236 |                     0 |      53715463 | 2017-02-08 22:25:38.675853+01

 2017-02-08 22:38:11.4408+01 | 1486589891.4408 |                 0 |               3 |                   213 |                   31 |              15505 |        344392 |             3442 |        10118236 |                     0 |      53764158 | 2017-02-08 22:25:38.675853+01

 2017-02-08 22:38:12.508275+01 | 1486589892.50828 |                 0 |               3 |                   213 |                   31 |              15505 |        344992 |             3448 |        10118236 |                     0 |      53823613 | 2017-02-08 22:25:38.675853+01

 2017-02-08 22:38:13.571187+01 | 1486589893.57119 |                 0 |               3 |                   213 |                   31 |              15505 |        345492 |             3453 |        10118236 |                     0 |      53872066 | 2017-02-08 22:25:38.675853+01

 2017-02-08 22:38:14.639353+01 | 1486589894.63935 |                 0 |               3 |                   213 |                   31 |              15505 |        345992 |             3458 |        10179372 |                     0 |      53919853 | 2017-02-08 22:25:38.675853+01

 2017-02-08 22:38:15.697967+01 | 1486589895.69797 |                 0 |               3 |                   213 |                   31 |              15505 |        346492 |             3463 |        10179372 |                     0 |      53968807 | 2017-02-08 22:25:38.675853+01

 2017-02-08 22:38:16.769999+01 | 1486589896.77 |                 0 |               3 |                   213 |                   31 |              15505 |        347092 |             3469 |        10179372 |                     0 |      54025466 | 2017-02-08 22:25:38.675853+01

 2017-02-08 22:38:17.831771+01 | 1486589897.83177 |                 0 |               3 |                   213 |                   31 |              15505 |        347592 |             3474 |        10179372 |                     0 |      54073589 | 2017-02-08 22:25:38.675853+01

 2017-02-08 22:38:18.88981+01 | 1486589898.88981 |                 0 |               3 |                   213 |                   31 |              15505 |        348092 |             3479 |        10179372 |                     0 |      54125810 | 2017-02-08 22:25:38.675853+01

 2017-02-08 22:38:19.982897+01 | 1486589899.9829 |                 0 |               3 |                   213 |                   31 |              15505 |        348692 |             3485 |        10179372 |                     0 |      54185271 | 2017-02-08 22:25:38.675853+01

 2017-02-08 22:38:21.062907+01 | 1486589901.06291 |                 0 |               3 |                   213 |                   31 |              15505 |        349192 |             3490 |        10179372 |                     0 |      54235375 | 2017-02-08 22:25:38.675853+01

 2017-02-08 22:38:22.140641+01 | 1486589902.14064 |                 0 |               3 |                   213 |                   31 |              15505 |        349692 |             3495 |        10179372 |                     0 |      54284027 | 2017-02-08 22:25:38.675853+01

 2017-02-08 22:38:23.20287+01 | 1486589903.20287 |                 0 |               3 |                   213 |                   31 |              15505 |        350292 |             3501 |        10179372 |                     0 |      54342325 | 2017-02-08 22:25:38.675853+01

 2017-02-08 22:38:24.29466+01 | 1486589904.29466 |                 0 |               3 |                   213 |                   31 |              15505 |        350792 |             3506 |        10240408 |                     0 |      54390733 | 2017-02-08 22:25:38.675853+01

 2017-02-08 22:38:25.363487+01 | 1486589905.36349 |                 0 |               3 |                   213 |                   31 |              15505 |        351292 |             3511 |        10240408 |                     0 |      54440114 | 2017-02-08 22:25:38.675853+01

 2017-02-08 22:38:26.430288+01 | 1486589906.43029 |                 0 |               3 |                   213 |                   31 |              15505 |        351892 |             3517 |        10240408 |                     0 |      54498305 | 2017-02-08 22:25:38.675853+01

 2017-02-08 22:38:27.497107+01 | 1486589907.49711 |                 0 |               3 |                   213 |                   31 |              15505 |        352392 |             3522 |        10240408 |                     0 |      54546731 | 2017-02-08 22:25:38.675853+01

 2017-02-08 22:38:28.557416+01 | 1486589908.55742 |                 0 |               3 |                   213 |                   31 |              15505 |        352892 |             3527 |        10240408 |                     0 |      54597941 | 2017-02-08 22:25:38.675853+01

 2017-02-08 22:38:29.620858+01 | 1486589909.62086 |                 0 |               3 |                   213 |                   31 |              15505 |        353492 |             3533 |        10240408 |                     0 |      54657829 | 2017-02-08 22:25:38.675853+01

 2017-02-08 22:38:30.692515+01 | 1486589910.69251 |                 0 |               3 |                   213 |                   31 |              15505 |        353992 |             3538 |        10240408 |                     0 |      54706281 | 2017-02-08 22:25:38.675853+01

 2017-02-08 22:38:31.760643+01 | 1486589911.76064 |                 0 |               3 |                   213 |                   31 |              15505 |        354492 |             3543 |        10240408 |                     0 |      54755741 | 2017-02-08 22:25:38.675853+01

 2017-02-08 22:38:32.825301+01 | 1486589912.8253 |                 0 |               3 |                   213 |                   31 |              15505 |        355092 |             3549 |        10301444 |                     0 |      54815558 | 2017-02-08 22:25:38.675853+01

 2017-02-08 22:38:33.889798+01 | 1486589913.8898 |                 0 |               3 |                   213 |                   31 |              15505 |        355592 |             3554 |        10301444 |                     0 |      54863861 | 2017-02-08 22:25:38.675853+01

 2017-02-08 22:38:34.964603+01 | 1486589914.9646 |                 0 |               3 |                   213 |                   31 |              15505 |        356092 |             3559 |        10301444 |                     0 |      54911599 | 2017-02-08 22:25:38.675853+01

 2017-02-08 22:38:36.029025+01 | 1486589916.02903 |                 0 |               3 |                   213 |                   31 |              15505 |        356692 |             3565 |        10301444 |                     0 |      54972958 | 2017-02-08 22:25:38.675853+01

 2017-02-08 22:38:37.098844+01 | 1486589917.09884 |                 0 |               3 |                   213 |                   31 |              15505 |        357192 |             3570 |        10301444 |                     0 |      55022135 | 2017-02-08 22:25:38.675853+01

 2017-02-08 22:38:38.166108+01 | 1486589918.16611 |                 0 |               3 |                   213 |                   31 |              15505 |        357692 |             3575 |        10301444 |                     0 |      55073255 | 2017-02-08 22:25:38.675853+01

 2017-02-08 22:38:39.234727+01 | 1486589919.23473 |                 0 |               3 |                   213 |                   31 |              15505 |        358192 |             3580 |        10301444 |                     0 |      55120237 | 2017-02-08 22:25:38.675853+01

 2017-02-08 22:38:40.313518+01 | 1486589920.31352 |                 0 |               3 |                   213 |                   31 |              15505 |        358792 |             3586 |        10301444 |                     0 |      55179662 | 2017-02-08 22:25:38.675853+01

 2017-02-08 22:38:41.367309+01 | 1486589921.36731 |                 0 |               3 |                   213 |                   31 |              15505 |        359292 |             3591 |        10301444 |                     0 |      55230376 | 2017-02-08 22:25:38.675853+01

 2017-02-08 22:38:42.429366+01 | 1486589922.42937 |                 0 |               3 |                   213 |                   31 |              15505 |        359792 |             3596 |        10362480 |                     0 |      55277559 | 2017-02-08 22:25:38.675853+01

 2017-02-08 22:38:43.507035+01 | 1486589923.50704 |                 0 |               3 |                   213 |                   31 |              15505 |        360392 |             3602 |        10362480 |                     0 |      55336152 | 2017-02-08 22:25:38.675853+01

 2017-02-08 22:38:44.575045+01 | 1486589924.57505 |                 0 |               3 |                   213 |                   31 |              15505 |        360892 |             3607 |        10362480 |                     0 |      55385595 | 2017-02-08 22:25:38.675853+01

 2017-02-08 22:38:45.636755+01 | 1486589925.63675 |                 0 |               3 |                   213 |                   31 |              15505 |        361392 |             3612 |        10362480 |                     0 |      55435091 | 2017-02-08 22:25:38.675853+01

 2017-02-08 22:38:46.708675+01 | 1486589926.70867 |                 0 |               3 |                   213 |                   31 |              15505 |        361992 |             3618 |        10362480 |                     0 |      55494189 | 2017-02-08 22:25:38.675853+01

 2017-02-08 22:38:47.777595+01 | 1486589927.7776 |                 0 |               3 |                   213 |                   31 |              15505 |        362492 |             3623 |        10362480 |                     0 |      55543457 | 2017-02-08 22:25:38.675853+01

 2017-02-08 22:38:48.858335+01 | 1486589928.85834 |                 0 |               3 |                   213 |                   31 |              15505 |        362992 |             3628 |        10362480 |                     0 |      55593972 | 2017-02-08 22:25:38.675853+01

 2017-02-08 22:38:49.926402+01 | 1486589929.9264 |                 0 |               3 |                   213 |                   31 |              15505 |        363592 |             3634 |        10362480 |                     0 |      55654323 | 2017-02-08 22:25:38.675853+01

 2017-02-08 22:38:50.987608+01 | 1486589930.98761 |                 0 |               3 |                   213 |                   31 |              15505 |        364092 |             3639 |        10423616 |                     0 |      55703795 | 2017-02-08 22:25:38.675853+01

 2017-02-08 22:38:52.056504+01 | 1486589932.0565 |                 0 |               3 |                   213 |                   31 |              15505 |        364592 |             3644 |        10423616 |                     0 |      55754305 | 2017-02-08 22:25:38.675853+01

 2017-02-08 22:38:53.127595+01 | 1486589933.12759 |                 0 |               3 |                   213 |                   31 |              15505 |        365192 |             3650 |        10423616 |                     0 |      55814452 | 2017-02-08 22:25:38.675853+01

 2017-02-08 22:38:54.195351+01 | 1486589934.19535 |                 0 |               3 |                   213 |                   31 |              15505 |        365692 |             3655 |        10423616 |                     0 |      55865713 | 2017-02-08 22:25:38.675853+01

 2017-02-08 22:38:55.26166+01 | 1486589935.26166 |                 0 |               3 |                   213 |                   31 |              15505 |        366192 |             3660 |        10423616 |                     0 |      55914073 | 2017-02-08 22:25:38.675853+01

 2017-02-08 22:38:56.329662+01 | 1486589936.32966 |                 0 |               3 |                   213 |                   31 |              15505 |        366792 |             3666 |        10423616 |                     0 |      55972286 | 2017-02-08 22:25:38.675853+01

 2017-02-08 22:38:57.392344+01 | 1486589937.39234 |                 0 |               3 |                   213 |                   31 |              15505 |        367292 |             3671 |        10423616 |                     0 |      56021941 | 2017-02-08 22:25:38.675853+01

 2017-02-08 22:38:58.455749+01 | 1486589938.45575 |                 0 |               3 |                   213 |                   31 |              15505 |        367792 |             3676 |        10423616 |                     0 |      56070631 | 2017-02-08 22:25:38.675853+01

 2017-02-08 22:38:59.516337+01 | 1486589939.51634 |                 0 |               3 |                   213 |                   31 |              15505 |        368292 |             3681 |        10484652 |                     0 |      56120619 | 2017-02-08 22:25:38.675853+01

 2017-02-08 22:39:00.585667+01 | 1486589940.58567 |                 0 |               3 |                   213 |                   31 |              15505 |        368892 |             3687 |        10484652 |                     0 |      56179717 | 2017-02-08 22:25:38.675853+01

 2017-02-08 22:39:01.641112+01 | 1486589941.64111 |                 0 |               3 |                   213 |                   31 |              15505 |        369392 |             3692 |        10484652 |                     0 |      56230346 | 2017-02-08 22:25:38.675853+01

 2017-02-08 22:39:02.718072+01 | 1486589942.71807 |                 0 |               3 |                   213 |                   31 |              15505 |        369892 |             3697 |        10484652 |                     0 |      56280196 | 2017-02-08 22:25:38.675853+01

 2017-02-08 22:39:03.784328+01 | 1486589943.78433 |                 0 |               3 |                   213 |                   31 |              15505 |        370492 |             3703 |        10484652 |                     0 |      56341721 | 2017-02-08 22:25:38.675853+01

 2017-02-08 22:39:04.857059+01 | 1486589944.85706 |                 0 |               3 |                   213 |                   31 |              15505 |        370992 |             3708 |        10484652 |                     0 |      56389888 | 2017-02-08 22:25:38.675853+01

 2017-02-08 22:39:05.926549+01 | 1486589945.92655 |                 0 |               3 |                   213 |                   31 |              15505 |        371492 |             3713 |        10484652 |                     0 |      56440383 | 2017-02-08 22:25:38.675853+01

 2017-02-08 22:39:06.990853+01 | 1486589946.99085 |                 0 |               3 |                   213 |                   31 |              15505 |        372092 |             3719 |        10484652 |                     0 |      56499222 | 2017-02-08 22:25:38.675853+01

 2017-02-08 22:39:08.046387+01 | 1486589948.04639 |                 0 |               3 |                   213 |                   31 |              15505 |        372592 |             3724 |        10484652 |                     0 |      56548854 | 2017-02-08 22:25:38.675853+01

 2017-02-08 22:39:09.113447+01 | 1486589949.11345 |                 0 |               3 |                   213 |                   31 |              15505 |        373092 |             3729 |        10545788 |                     0 |      56597949 | 2017-02-08 22:25:38.675853+01

 2017-02-08 22:39:10.177496+01 | 1486589950.1775 |                 0 |               3 |                   213 |                   31 |              15505 |        373592 |             3734 |        10545788 |                     0 |      56646613 | 2017-02-08 22:25:38.675853+01

 2017-02-08 22:39:11.236969+01 | 1486589951.23697 |                 0 |               3 |                   213 |                   31 |              15505 |        374192 |             3740 |        10545788 |                     0 |      56706987 | 2017-02-08 22:25:38.675853+01

 2017-02-08 22:39:12.310952+01 | 1486589952.31095 |                 0 |               3 |                   213 |                   31 |              15505 |        374692 |             3745 |        10545788 |                     0 |      56758830 | 2017-02-08 22:25:38.675853+01

 2017-02-08 22:39:13.375383+01 | 1486589953.37538 |                 0 |               3 |                   213 |                   31 |              15505 |        375192 |             3750 |        10545788 |                     0 |      56808990 | 2017-02-08 22:25:38.675853+01

 2017-02-08 22:39:14.445993+01 | 1486589954.44599 |                 0 |               3 |                   213 |                   31 |              15505 |        375792 |             3756 |        10545788 |                     0 |      56868342 | 2017-02-08 22:25:38.675853+01

 2017-02-08 22:39:15.496532+01 | 1486589955.49653 |                 0 |               3 |                   213 |                   31 |              15505 |        376292 |             3761 |        10545788 |                     0 |      56919352 | 2017-02-08 22:25:38.675853+01

 2017-02-08 22:39:16.568625+01 | 1486589956.56862 |                 0 |               3 |                   213 |                   31 |              15505 |        376792 |             3766 |        10545788 |                     0 |      56968199 | 2017-02-08 22:25:38.675853+01

 2017-02-08 22:39:17.640534+01 | 1486589957.64053 |                 0 |               3 |                   213 |                   31 |              15505 |        377392 |             3772 |        10606866 |                     0 |      57029073 | 2017-02-08 22:25:38.675853+01

 2017-02-08 22:39:18.710637+01 | 1486589958.71064 |                 0 |               3 |                   213 |                   31 |              15505 |        377892 |             3777 |        10606866 |                     0 |      57078957 | 2017-02-08 22:25:38.675853+01

 2017-02-08 22:39:19.777422+01 | 1486589959.77742 |                 0 |               3 |                   213 |                   31 |              15505 |        378392 |             3782 |        10606866 |                     0 |      57127523 | 2017-02-08 22:25:38.675853+01

 2017-02-08 22:39:20.845051+01 | 1486589960.84505 |                 0 |               3 |                   213 |                   31 |              15505 |        378892 |             3787 |        10606866 |                     0 |      57178367 | 2017-02-08 22:25:38.675853+01

 2017-02-08 22:39:21.905954+01 | 1486589961.90595 |                 0 |               3 |                   213 |                   31 |              15505 |        379492 |             3793 |        10606866 |                     0 |      57238362 | 2017-02-08 22:25:38.675853+01

 2017-02-08 22:39:22.977064+01 | 1486589962.97706 |                 0 |               3 |                   213 |                   31 |              15505 |        379992 |             3798 |        10606866 |                     0 |      57291166 | 2017-02-08 22:25:38.675853+01

 2017-02-08 22:39:24.053878+01 | 1486589964.05388 |                 0 |               3 |                   213 |                   31 |              15505 |        380492 |             3803 |        10606866 |                     0 |      57340806 | 2017-02-08 22:25:38.675853+01

 2017-02-08 22:39:25.135932+01 | 1486589965.13593 |                 0 |               3 |                   213 |                   31 |              15505 |        381092 |             3809 |        10606866 |                     0 |      57403319 | 2017-02-08 22:25:38.675853+01

 2017-02-08 22:39:26.207498+01 | 1486589966.2075 |                 0 |               3 |                   213 |                   31 |              15505 |        381592 |             3814 |        10668062 |                     0 |      57453395 | 2017-02-08 22:25:38.675853+01

 2017-02-08 22:39:27.27447+01 | 1486589967.27447 |                 0 |               3 |                   213 |                   31 |              15505 |        382092 |             3819 |        10668062 |                     0 |      57505416 | 2017-02-08 22:25:38.675853+01

 2017-02-08 22:39:28.337729+01 | 1486589968.33773 |                 0 |               3 |                   213 |                   31 |              15505 |        382692 |             3825 |        10668062 |                     0 |      57566381 | 2017-02-08 22:25:38.675853+01

 2017-02-08 22:39:29.395675+01 | 1486589969.39567 |                 0 |               3 |                   213 |                   31 |              15505 |        383192 |             3830 |        10668062 |                     0 |      57617632 | 2017-02-08 22:25:38.675853+01

 2017-02-08 22:39:30.465159+01 | 1486589970.46516 |                 0 |               3 |                   213 |                   31 |              15505 |        383692 |             3835 |        10668062 |                     0 |      57667196 | 2017-02-08 22:25:38.675853+01

 2017-02-08 22:39:31.530438+01 | 1486589971.53044 |                 0 |               3 |                   213 |                   31 |              15505 |        384292 |             3841 |        10668062 |                     0 |      57726729 | 2017-02-08 22:25:38.675853+01

 2017-02-08 22:39:32.601278+01 | 1486589972.60128 |                 0 |               3 |                   213 |                   31 |              15505 |        384792 |             3846 |        10668062 |                     0 |      57777651 | 2017-02-08 22:25:38.675853+01

 2017-02-08 22:39:33.6658+01 | 1486589973.6658 |                 0 |               3 |                   213 |                   31 |              15505 |        385292 |             3851 |        10668062 |                     0 |      57829156 | 2017-02-08 22:25:38.675853+01

 2017-02-08 22:39:34.729873+01 | 1486589974.72987 |                 0 |               3 |                   213 |                   31 |              15505 |        385892 |             3857 |        10729298 |                     0 |      57888965 | 2017-02-08 22:25:38.675853+01

 2017-02-08 22:39:35.784384+01 | 1486589975.78438 |                 0 |               3 |                   213 |                   31 |              15505 |        386392 |             3862 |        10729298 |                     0 |      57938466 | 2017-02-08 22:25:38.675853+01

 2017-02-08 22:39:36.845291+01 | 1486589976.84529 |                 0 |               3 |                   213 |                   31 |              15505 |        386892 |             3867 |        10729298 |                     0 |      57991285 | 2017-02-08 22:25:38.675853+01

 2017-02-08 22:39:37.923078+01 | 1486589977.92308 |                 0 |               3 |                   213 |                   31 |              15505 |        387392 |             3872 |        10729298 |                     0 |      58040159 | 2017-02-08 22:25:38.675853+01

 2017-02-08 22:39:38.991673+01 | 1486589978.99167 |                 0 |               3 |                   213 |                   31 |              15505 |        387992 |             3878 |        10729298 |                     0 |      58102607 | 2017-02-08 22:25:38.675853+01

 2017-02-08 22:39:40.063752+01 | 1486589980.06375 |                 0 |               3 |                   213 |                   31 |              15505 |        388492 |             3883 |        10729298 |                     0 |      58152413 | 2017-02-08 22:25:38.675853+01

 2017-02-08 22:39:41.127666+01 | 1486589981.12767 |                 0 |               3 |                   213 |                   31 |              15505 |        388992 |             3888 |        10729298 |                     0 |      58201475 | 2017-02-08 22:25:38.675853+01

 2017-02-08 22:39:42.200385+01 | 1486589982.20039 |                 0 |               3 |                   213 |                   31 |              15505 |        389592 |             3894 |        10729298 |                     0 |      58263965 | 2017-02-08 22:25:38.675853+01

 2017-02-08 22:39:43.261118+01 | 1486589983.26112 |                 0 |               3 |                   213 |                   31 |              15505 |        390092 |             3899 |        10729298 |                     0 |      58313981 | 2017-02-08 22:25:38.675853+01

 2017-02-08 22:39:44.327861+01 | 1486589984.32786 |                 0 |               3 |                   213 |                   31 |              15505 |        390592 |             3904 |        10790434 |                     0 |      58363152 | 2017-02-08 22:25:38.675853+01

 2017-02-08 22:39:45.389583+01 | 1486589985.38958 |                 0 |               3 |                   213 |                   31 |              15505 |        391192 |             3910 |        10790434 |                     0 |      58423594 | 2017-02-08 22:25:38.675853+01

 2017-02-08 22:39:46.455633+01 | 1486589986.45563 |                 0 |               3 |                   213 |                   31 |              15505 |        391692 |             3915 |        10790434 |                     0 |      58473265 | 2017-02-08 22:25:38.675853+01

 2017-02-08 22:39:47.521387+01 | 1486589987.52139 |                 0 |               3 |                   213 |                   31 |              15505 |        392192 |             3920 |        10790434 |                     0 |      58522125 | 2017-02-08 22:25:38.675853+01

 2017-02-08 22:39:48.57899+01 | 1486589988.57899 |                 0 |               3 |                   213 |                   31 |              15505 |        392692 |             3925 |        10790434 |                     0 |      58574877 | 2017-02-08 22:25:38.675853+01

 2017-02-08 22:39:49.640998+01 | 1486589989.641 |                 0 |               3 |                   213 |                   31 |              15505 |        393292 |             3931 |        10790434 |                     0 |      58633783 | 2017-02-08 22:25:38.675853+01

 2017-02-08 22:39:50.714897+01 | 1486589990.7149 |                 0 |               3 |                   213 |                   31 |              15505 |        393792 |             3936 |        10790434 |                     0 |      58685887 | 2017-02-08 22:25:38.675853+01

 2017-02-08 22:39:51.785903+01 | 1486589991.7859 |                 0 |               3 |                   213 |                   31 |              15505 |        394292 |             3941 |        10790434 |                     0 |      58736859 | 2017-02-08 22:25:38.675853+01

 2017-02-08 22:39:52.847249+01 | 1486589992.84725 |                 0 |               3 |                   213 |                   31 |              15505 |        394892 |             3947 |        10851570 |                     0 |      58796419 | 2017-02-08 22:25:38.675853+01

 2017-02-08 22:39:53.925918+01 | 1486589993.92592 |                 0 |               3 |                   213 |                   31 |              15505 |        395392 |             3952 |        10851570 |                     0 |      58847412 | 2017-02-08 22:25:38.675853+01

 2017-02-08 22:39:54.995102+01 | 1486589994.9951 |                 0 |               3 |                   213 |                   31 |              15505 |        395892 |             3957 |        10851570 |                     0 |      58896480 | 2017-02-08 22:25:38.675853+01

 2017-02-08 22:39:56.069154+01 | 1486589996.06915 |                 0 |               3 |                   213 |                   31 |              15505 |        396492 |             3963 |        10851570 |                     0 |      58957432 | 2017-02-08 22:25:38.675853+01

 2017-02-08 22:39:57.135642+01 | 1486589997.13564 |                 0 |               3 |                   213 |                   31 |              15505 |        396992 |             3968 |        10851570 |                     0 |      59007633 | 2017-02-08 22:25:38.675853+01

 2017-02-08 22:39:58.20981+01 | 1486589998.20981 |                 0 |               3 |                   213 |                   31 |              15505 |        397492 |             3973 |        10851570 |                     0 |      59057597 | 2017-02-08 22:25:38.675853+01

 2017-02-08 22:39:59.268657+01 | 1486589999.26866 |                 0 |               3 |                   213 |                   31 |              15505 |        398092 |             3979 |        10851570 |                     0 |      59119565 | 2017-02-08 22:25:38.675853+01

 2017-02-08 22:40:00.331041+01 | 1486590000.33104 |                 0 |               3 |                   213 |                   31 |              15505 |        398592 |             3984 |        10851570 |                     0 |      59168630 | 2017-02-08 22:25:38.675853+01

 2017-02-08 22:40:01.389231+01 | 1486590001.38923 |                 0 |               3 |                   213 |                   31 |              15505 |        399092 |             3989 |        10912806 |                     0 |      59221604 | 2017-02-08 22:25:38.675853+01

 2017-02-08 22:40:02.453722+01 | 1486590002.45372 |                 0 |               3 |                   213 |                   31 |              15505 |        399592 |             3994 |        10912806 |                     0 |      59272245 | 2017-02-08 22:25:38.675853+01

 2017-02-08 22:40:03.515522+01 | 1486590003.51552 |                 0 |               3 |                   213 |                   31 |              15505 |        400192 |             4000 |        10912806 |                     0 |      59333111 | 2017-02-08 22:25:38.675853+01

 2017-02-08 22:40:04.587858+01 | 1486590004.58786 |                 0 |               3 |                   213 |                   31 |              15505 |        400692 |             4005 |        10912806 |                     0 |      59384460 | 2017-02-08 22:25:38.675853+01

 2017-02-08 22:40:05.660863+01 | 1486590005.66086 |                 0 |               3 |                   213 |                   31 |              15505 |        401192 |             4010 |        10912806 |                     0 |      59433574 | 2017-02-08 22:25:38.675853+01

 2017-02-08 22:40:06.730167+01 | 1486590006.73017 |                 0 |               3 |                   213 |                   31 |              15505 |        401792 |             4016 |        10912806 |                     0 |      59495203 | 2017-02-08 22:25:38.675853+01

 2017-02-08 22:40:07.805289+01 | 1486590007.80529 |                 0 |               3 |                   213 |                   31 |              15505 |        402292 |             4021 |        10912806 |                     0 |      59546758 | 2017-02-08 22:25:38.675853+01

 2017-02-08 22:40:08.864892+01 | 1486590008.86489 |                 0 |               3 |                   213 |                   31 |              15505 |        402792 |             4026 |        10912806 |                     0 |      59596949 | 2017-02-08 22:25:38.675853+01

 2017-02-08 22:40:09.951394+01 | 1486590009.95139 |                 0 |               3 |                   213 |                   31 |              15505 |        403392 |             4032 |        10973942 |                     0 |      59658640 | 2017-02-08 22:25:38.675853+01

 2017-02-08 22:40:11.017761+01 | 1486590011.01776 |                 0 |               3 |                   213 |                   31 |              15505 |        403892 |             4037 |        10973942 |                     0 |      59708238 | 2017-02-08 22:25:38.675853+01

 2017-02-08 22:40:12.094433+01 | 1486590012.09443 |                 0 |               3 |                   213 |                   31 |              15505 |        404392 |             4042 |        10973942 |                     0 |      59758310 | 2017-02-08 22:25:38.675853+01

 2017-02-08 22:40:13.161894+01 | 1486590013.16189 |                 0 |               3 |                   213 |                   31 |              15505 |        404992 |             4048 |        10973942 |                     0 |      59820024 | 2017-02-08 22:25:38.675853+01

 2017-02-08 22:40:14.219674+01 | 1486590014.21967 |                 0 |               3 |                   213 |                   31 |              15505 |        405492 |             4053 |        10973942 |                     0 |      59871634 | 2017-02-08 22:25:38.675853+01

 2017-02-08 22:40:15.284883+01 | 1486590015.28488 |                 0 |               3 |                   213 |                   31 |              15505 |        405992 |             4058 |        10973942 |                     0 |      59923535 | 2017-02-08 22:25:38.675853+01

 2017-02-08 22:40:16.346528+01 | 1486590016.34653 |                 0 |               3 |                   213 |                   31 |              15505 |        406492 |             4063 |        10973942 |                     0 |      59975374 | 2017-02-08 22:25:38.675853+01

 2017-02-08 22:40:17.425193+01 | 1486590017.42519 |                 0 |               3 |                   213 |                   31 |              15505 |        407092 |             4069 |        10973942 |                     0 |      60036330 | 2017-02-08 22:25:38.675853+01

 2017-02-08 22:40:18.499151+01 | 1486590018.49915 |                 0 |               3 |                   213 |                   31 |              15505 |        407592 |             4074 |        11035178 |                     0 |      60087366 | 2017-02-08 22:25:38.675853+01

 2017-02-08 22:40:19.559386+01 | 1486590019.55939 |                 0 |               3 |                   213 |                   31 |              15505 |        408092 |             4079 |        11035178 |                     0 |      60137620 | 2017-02-08 22:25:38.675853+01

 2017-02-08 22:40:20.629883+01 | 1486590020.62988 |                 0 |               3 |                   213 |                   31 |              15505 |        408692 |             4085 |        11035178 |                     0 |      60197064 | 2017-02-08 22:25:38.675853+01

 2017-02-08 22:40:21.691667+01 | 1486590021.69167 |                 0 |               3 |                   213 |                   31 |              15505 |        409192 |             4090 |        11035178 |                     0 |      60249301 | 2017-02-08 22:25:38.675853+01

 2017-02-08 22:40:22.76582+01 | 1486590022.76582 |                 0 |               3 |                   213 |                   31 |              15505 |        409692 |             4095 |        11035178 |                     0 |      60300462 | 2017-02-08 22:25:38.675853+01

 2017-02-08 22:40:23.833241+01 | 1486590023.83324 |                 0 |               3 |                   213 |                   31 |              15505 |        410292 |             4101 |        11035178 |                     0 |      60362204 | 2017-02-08 22:25:38.675853+01

 2017-02-08 22:40:24.910578+01 | 1486590024.91058 |                 0 |               3 |                   213 |                   31 |              15505 |        410792 |             4106 |        11035178 |                     0 |      60412987 | 2017-02-08 22:25:38.675853+01

 2017-02-08 22:40:25.977335+01 | 1486590025.97733 |                 0 |               3 |                   213 |                   31 |              15505 |        411292 |             4111 |        11035178 |                     0 |      60465089 | 2017-02-08 22:25:38.675853+01

 2017-02-08 22:40:27.047906+01 | 1486590027.04791 |                 0 |               3 |                   213 |                   31 |              15505 |        411892 |             4117 |        11035178 |                     0 |      60527735 | 2017-02-08 22:25:38.675853+01

 2017-02-08 22:40:28.119986+01 | 1486590028.11999 |                 0 |               3 |                   213 |                   31 |              15505 |        412392 |             4122 |        11096414 |                     0 |      60578591 | 2017-02-08 22:25:38.675853+01

 2017-02-08 22:40:29.186295+01 | 1486590029.1863 |                 0 |               3 |                   213 |                   31 |              15505 |        412892 |             4127 |        11096414 |                     0 |      60628724 | 2017-02-08 22:25:38.675853+01

 2017-02-08 22:40:30.255697+01 | 1486590030.2557 |                 0 |               3 |                   213 |                   31 |              15505 |        413492 |             4133 |        11096414 |                     0 |      60689429 | 2017-02-08 22:25:38.675853+01

 2017-02-08 22:40:31.322087+01 | 1486590031.32209 |                 0 |               3 |                   213 |                   31 |              15505 |        413992 |             4138 |        11096414 |                     0 |      60741755 | 2017-02-08 22:25:38.675853+01

 2017-02-08 22:40:32.395077+01 | 1486590032.39508 |                 0 |               3 |                   213 |                   31 |              15505 |        414492 |             4143 |        11096414 |                     0 |      60790669 | 2017-02-08 22:25:38.675853+01

 2017-02-08 22:40:33.452772+01 | 1486590033.45277 |                 0 |               3 |                   213 |                   31 |              15505 |        414992 |             4148 |        11096414 |                     0 |      60842425 | 2017-02-08 22:25:38.675853+01

 2017-02-08 22:40:34.521311+01 | 1486590034.52131 |                 0 |               3 |                   213 |                   31 |              15505 |        415592 |             4154 |        11096414 |                     0 |      60903676 | 2017-02-08 22:25:38.675853+01

 2017-02-08 22:40:35.576267+01 | 1486590035.57627 |                 0 |               3 |                   213 |                   31 |              15505 |        416092 |             4159 |        11096414 |                     0 |      60955097 | 2017-02-08 22:25:38.675853+01

 2017-02-08 22:40:36.642363+01 | 1486590036.64236 |                 0 |               3 |                   213 |                   31 |              15505 |        416592 |             4164 |        11157550 |                     0 |      61004328 | 2017-02-08 22:25:38.675853+01

 2017-02-08 22:40:37.716918+01 | 1486590037.71692 |                 0 |               3 |                   213 |                   31 |              15505 |        417192 |             4170 |        11157550 |                     0 |      61066085 | 2017-02-08 22:25:38.675853+01

 2017-02-08 22:40:38.775315+01 | 1486590038.77532 |                 0 |               3 |                   213 |                   31 |              15505 |        417692 |             4175 |        11157550 |                     0 |      61117070 | 2017-02-08 22:25:38.675853+01

 2017-02-08 22:40:39.837391+01 | 1486590039.83739 |                 0 |               3 |                   213 |                   31 |              15505 |        418192 |             4180 |        11157550 |                     0 |      61165463 | 2017-02-08 22:25:38.675853+01

 2017-02-08 22:40:40.904358+01 | 1486590040.90436 |                 0 |               3 |                   213 |                   31 |              15505 |        418792 |             4186 |        11157550 |                     0 |      61225934 | 2017-02-08 22:25:38.675853+01

 2017-02-08 22:40:41.971477+01 | 1486590041.97148 |                 0 |               3 |                   213 |                   31 |              15505 |        419292 |             4191 |        11157550 |                     0 |      61275842 | 2017-02-08 22:25:38.675853+01

 2017-02-08 22:40:43.034851+01 | 1486590043.03485 |                 0 |               3 |                   213 |                   31 |              15505 |        419792 |             4196 |        11157550 |                     0 |      61325297 | 2017-02-08 22:25:38.675853+01

 2017-02-08 22:40:44.101395+01 | 1486590044.10139 |                 0 |               3 |                   213 |                   31 |              15505 |        420292 |             4201 |        11157550 |                     0 |      61375260 | 2017-02-08 22:25:38.675853+01

 2017-02-08 22:40:45.165303+01 | 1486590045.1653 |                 0 |               3 |                   213 |                   31 |              15505 |        420892 |             4207 |        11218787 |                     0 |      61435667 | 2017-02-08 22:25:38.675853+01

 2017-02-08 22:40:46.223131+01 | 1486590046.22313 |                 0 |               3 |                   213 |                   31 |              15505 |        421392 |             4212 |        11218787 |                     0 |      61486697 | 2017-02-08 22:25:38.675853+01

 2017-02-08 22:40:47.28066+01 | 1486590047.28066 |                 0 |               3 |                   213 |                   31 |              15505 |        421892 |             4217 |        11218787 |                     0 |      61536944 | 2017-02-08 22:25:38.675853+01

 2017-02-08 22:40:48.339789+01 | 1486590048.33979 |                 0 |               3 |                   213 |                   31 |              15505 |        422492 |             4223 |        11218787 |                     0 |      61598555 | 2017-02-08 22:25:38.675853+01

 2017-02-08 22:40:49.400929+01 | 1486590049.40093 |                 0 |               3 |                   213 |                   31 |              15505 |        422992 |             4228 |        11218787 |                     0 |      61647705 | 2017-02-08 22:25:38.675853+01

 2017-02-08 22:40:50.470806+01 | 1486590050.47081 |                 0 |               3 |                   213 |                   31 |              15505 |        423492 |             4233 |        11218787 |                     0 |      61696820 | 2017-02-08 22:25:38.675853+01

 2017-02-08 22:40:51.536244+01 | 1486590051.53624 |                 0 |               3 |                   213 |                   31 |              15505 |        423992 |             4238 |        11218787 |                     0 |      61745502 | 2017-02-08 22:25:38.675853+01

 2017-02-08 22:40:52.600662+01 | 1486590052.60066 |                 0 |               3 |                   213 |                   31 |              15505 |        424592 |             4244 |        11218787 |                     0 |      61804958 | 2017-02-08 22:25:38.675853+01

 2017-02-08 22:40:53.658901+01 | 1486590053.6589 |                 0 |               3 |                   213 |                   31 |              15505 |        425092 |             4249 |        11279923 |                     0 |      61855767 | 2017-02-08 22:25:38.675853+01

 2017-02-08 22:40:54.727283+01 | 1486590054.72728 |                 0 |               3 |                   213 |                   31 |              15505 |        425592 |             4254 |        11279923 |                     0 |      61904364 | 2017-02-08 22:25:38.675853+01

 2017-02-08 22:40:55.783659+01 | 1486590055.78366 |                 0 |               3 |                   213 |                   31 |              15505 |        426192 |             4260 |        11279923 |                     0 |      61963787 | 2017-02-08 22:25:38.675853+01

 2017-02-08 22:40:56.844+01 | 1486590056.844 |                 0 |               3 |                   213 |                   31 |              15505 |        426692 |             4265 |        11279923 |                     0 |      62016039 | 2017-02-08 22:25:38.675853+01

 2017-02-08 22:40:57.909833+01 | 1486590057.90983 |                 0 |               3 |                   213 |                   31 |              15505 |        427192 |             4270 |        11279923 |                     0 |      62066706 | 2017-02-08 22:25:38.675853+01

 2017-02-08 22:40:58.98444+01 | 1486590058.98444 |                 0 |               3 |                   213 |                   31 |              15505 |        427692 |             4275 |        11279923 |                     0 |      62115687 | 2017-02-08 22:25:38.675853+01

 2017-02-08 22:41:00.050822+01 | 1486590060.05082 |                 0 |               3 |                   213 |                   31 |              15505 |        428292 |             4281 |        11279923 |                     0 |      62175399 | 2017-02-08 22:25:38.675853+01

 2017-02-08 22:41:01.108906+01 | 1486590061.10891 |                 0 |               3 |                   213 |                   31 |              15505 |        428792 |             4286 |        11279923 |                     0 |      62223329 | 2017-02-08 22:25:38.675853+01

 2017-02-08 22:41:02.16981+01 | 1486590062.16981 |                 0 |               3 |                   213 |                   31 |              15505 |        429292 |             4291 |        11279923 |                     0 |      62271834 | 2017-02-08 22:25:38.675853+01

 2017-02-08 22:41:03.229272+01 | 1486590063.22927 |                 0 |               3 |                   213 |                   31 |              15505 |        429892 |             4297 |        11340959 |                     0 |      62330556 | 2017-02-08 22:25:38.675853+01

 2017-02-08 22:41:04.297571+01 | 1486590064.29757 |                 0 |               3 |                   213 |                   31 |              15505 |        430392 |             4302 |        11340959 |                     0 |      62380202 | 2017-02-08 22:25:38.675853+01

 2017-02-08 22:41:05.368084+01 | 1486590065.36808 |                 0 |               3 |                   213 |                   31 |              15505 |        430892 |             4307 |        11340959 |                     0 |      62430477 | 2017-02-08 22:25:38.675853+01

 2017-02-08 22:41:06.430592+01 | 1486590066.43059 |                 0 |               3 |                   213 |                   31 |              15505 |        431492 |             4313 |        11340959 |                     0 |      62492009 | 2017-02-08 22:25:38.675853+01

 2017-02-08 22:41:07.492354+01 | 1486590067.49235 |                 0 |               3 |                   213 |                   31 |              15505 |        431992 |             4318 |        11340959 |                     0 |      62545638 | 2017-02-08 22:25:38.675853+01

 2017-02-08 22:41:08.56133+01 | 1486590068.56133 |                 0 |               3 |                   213 |                   31 |              15505 |        432492 |             4323 |        11340959 |                     0 |      62595447 | 2017-02-08 22:25:38.675853+01

 2017-02-08 22:41:09.617134+01 | 1486590069.61713 |                 0 |               3 |                   213 |                   31 |              15505 |        432792 |             4326 |        11340959 |                     0 |      62624019 | 2017-02-08 22:25:38.675853+01

 2017-02-08 22:41:10.671499+01 | 1486590070.6715 |                 0 |               3 |                   213 |                   31 |              15505 |        433592 |             4334 |        11340959 |                     0 |      62705309 | 2017-02-08 22:25:38.675853+01

 2017-02-08 22:41:11.735015+01 | 1486590071.73501 |                 0 |               3 |                   213 |                   31 |              15505 |        434092 |             4339 |        11402095 |                     0 |      62755074 | 2017-02-08 22:25:38.675853+01

 2017-02-08 22:41:12.798083+01 | 1486590072.79808 |                 0 |               3 |                   213 |                   31 |              15505 |        434592 |             4344 |        11402095 |                     0 |      62805610 | 2017-02-08 22:25:38.675853+01

 2017-02-08 22:41:13.872467+01 | 1486590073.87247 |                 0 |               3 |                   213 |                   31 |              15505 |        435092 |             4349 |        11402095 |                     0 |      62853460 | 2017-02-08 22:25:38.675853+01

 2017-02-08 22:41:14.946159+01 | 1486590074.94616 |                 0 |               3 |                   213 |                   31 |              15505 |        435692 |             4355 |        11402095 |                     0 |      62913657 | 2017-02-08 22:25:38.675853+01

 2017-02-08 22:41:16.012915+01 | 1486590076.01291 |                 0 |               3 |                   213 |                   31 |              15505 |        436192 |             4360 |        11402095 |                     0 |      62963269 | 2017-02-08 22:25:38.675853+01

 2017-02-08 22:41:17.072352+01 | 1486590077.07235 |                 0 |               3 |                   213 |                   31 |              15505 |        436692 |             4365 |        11402095 |                     0 |      63014170 | 2017-02-08 22:25:38.675853+01

 2017-02-08 22:41:18.139879+01 | 1486590078.13988 |                 0 |               3 |                   213 |                   31 |              15505 |        437292 |             4371 |        11402095 |                     0 |      63074850 | 2017-02-08 22:25:38.675853+01

 2017-02-08 22:41:19.200224+01 | 1486590079.20022 |                 0 |               3 |                   213 |                   31 |              15505 |        437792 |             4376 |        11402095 |                     0 |      63124078 | 2017-02-08 22:25:38.675853+01

 2017-02-08 22:41:20.263267+01 | 1486590080.26327 |                 0 |               3 |                   213 |                   31 |              15505 |        438292 |             4381 |        11402095 |                     0 |      63172811 | 2017-02-08 22:25:38.675853+01

 2017-02-08 22:41:21.332416+01 | 1486590081.33242 |                 0 |               3 |                   213 |                   31 |              15505 |        438892 |             4387 |        11463231 |                     0 |      63234775 | 2017-02-08 22:25:38.675853+01

 2017-02-08 22:41:22.395692+01 | 1486590082.39569 |                 0 |               3 |                   213 |                   31 |              15505 |        439392 |             4392 |        11463231 |                     0 |      63284084 | 2017-02-08 22:25:38.675853+01

 2017-02-08 22:41:23.459029+01 | 1486590083.45903 |                 0 |               3 |                   213 |                   31 |              15505 |        439892 |             4397 |        11463231 |                     0 |      63333458 | 2017-02-08 22:25:38.675853+01

 2017-02-08 22:41:24.517005+01 | 1486590084.517 |                 0 |               3 |                   213 |                   31 |              15505 |        440392 |             4402 |        11463231 |                     0 |      63383471 | 2017-02-08 22:25:38.675853+01

 2017-02-08 22:41:25.578567+01 | 1486590085.57857 |                 0 |               3 |                   213 |                   31 |              15505 |        440992 |             4408 |        11463231 |                     0 |      63442455 | 2017-02-08 22:25:38.675853+01

 2017-02-08 22:41:26.644761+01 | 1486590086.64476 |                 0 |               3 |                   213 |                   31 |              15505 |        441492 |             4413 |        11463231 |                     0 |      63493222 | 2017-02-08 22:25:38.675853+01

 2017-02-08 22:41:27.708693+01 | 1486590087.70869 |                 0 |               3 |                   213 |                   31 |              15505 |        441992 |             4418 |        11463231 |                     0 |      63543238 | 2017-02-08 22:25:38.675853+01

 2017-02-08 22:41:28.782322+01 | 1486590088.78232 |                 0 |               3 |                   213 |                   31 |              15505 |        442592 |             4424 |        11463231 |                     0 |      63603664 | 2017-02-08 22:25:38.675853+01

