 2017-02-08 08:19:34.313685+01 | 1486538374.31368 | pgbench_branches_pkey |           442368
 2017-02-08 08:19:34.313685+01 | 1486538374.31368 | pgbench_tellers_pkey  |          2269184
 2017-02-08 08:19:34.313685+01 | 1486538374.31368 | pgbench_accounts_pkey |        673882112

 2017-02-08 08:19:35.366878+01 | 1486538375.36688 | pgbench_branches_pkey |           442368
 2017-02-08 08:19:35.366878+01 | 1486538375.36688 | pgbench_tellers_pkey  |          2269184
 2017-02-08 08:19:35.366878+01 | 1486538375.36688 | pgbench_accounts_pkey |        673882112

 2017-02-08 08:19:36.41954+01 | 1486538376.41954 | pgbench_branches_pkey |           442368
 2017-02-08 08:19:36.41954+01 | 1486538376.41954 | pgbench_tellers_pkey  |          2269184
 2017-02-08 08:19:36.41954+01 | 1486538376.41954 | pgbench_accounts_pkey |        673882112

 2017-02-08 08:19:37.475215+01 | 1486538377.47521 | pgbench_branches_pkey |           442368
 2017-02-08 08:19:37.475215+01 | 1486538377.47521 | pgbench_tellers_pkey  |          2269184
 2017-02-08 08:19:37.475215+01 | 1486538377.47521 | pgbench_accounts_pkey |        673882112

 2017-02-08 08:19:38.5281+01 | 1486538378.5281 | pgbench_branches_pkey |           442368
 2017-02-08 08:19:38.5281+01 | 1486538378.5281 | pgbench_tellers_pkey  |          2269184
 2017-02-08 08:19:38.5281+01 | 1486538378.5281 | pgbench_accounts_pkey |        673882112

 2017-02-08 08:19:39.584158+01 | 1486538379.58416 | pgbench_branches_pkey |           442368
 2017-02-08 08:19:39.584158+01 | 1486538379.58416 | pgbench_tellers_pkey  |          2269184
 2017-02-08 08:19:39.584158+01 | 1486538379.58416 | pgbench_accounts_pkey |        673882112

 2017-02-08 08:19:40.63625+01 | 1486538380.63625 | pgbench_branches_pkey |           442368
 2017-02-08 08:19:40.63625+01 | 1486538380.63625 | pgbench_tellers_pkey  |          2269184
 2017-02-08 08:19:40.63625+01 | 1486538380.63625 | pgbench_accounts_pkey |        673882112

 2017-02-08 08:19:41.692146+01 | 1486538381.69215 | pgbench_branches_pkey |           442368
 2017-02-08 08:19:41.692146+01 | 1486538381.69215 | pgbench_tellers_pkey  |          2269184
 2017-02-08 08:19:41.692146+01 | 1486538381.69215 | pgbench_accounts_pkey |        673882112

 2017-02-08 08:19:42.750926+01 | 1486538382.75093 | pgbench_branches_pkey |           442368
 2017-02-08 08:19:42.750926+01 | 1486538382.75093 | pgbench_tellers_pkey  |          2269184
 2017-02-08 08:19:42.750926+01 | 1486538382.75093 | pgbench_accounts_pkey |        673882112

 2017-02-08 08:19:43.804923+01 | 1486538383.80492 | pgbench_branches_pkey |           442368
 2017-02-08 08:19:43.804923+01 | 1486538383.80492 | pgbench_tellers_pkey  |          2269184
 2017-02-08 08:19:43.804923+01 | 1486538383.80492 | pgbench_accounts_pkey |        673882112

 2017-02-08 08:19:44.858475+01 | 1486538384.85847 | pgbench_branches_pkey |           442368
 2017-02-08 08:19:44.858475+01 | 1486538384.85847 | pgbench_tellers_pkey  |          2269184
 2017-02-08 08:19:44.858475+01 | 1486538384.85847 | pgbench_accounts_pkey |        673882112

 2017-02-08 08:19:45.914797+01 | 1486538385.9148 | pgbench_branches_pkey |           442368
 2017-02-08 08:19:45.914797+01 | 1486538385.9148 | pgbench_tellers_pkey  |          2269184
 2017-02-08 08:19:45.914797+01 | 1486538385.9148 | pgbench_accounts_pkey |        673882112

 2017-02-08 08:19:46.966788+01 | 1486538386.96679 | pgbench_branches_pkey |           442368
 2017-02-08 08:19:46.966788+01 | 1486538386.96679 | pgbench_tellers_pkey  |          2269184
 2017-02-08 08:19:46.966788+01 | 1486538386.96679 | pgbench_accounts_pkey |        673882112

 2017-02-08 08:19:48.021161+01 | 1486538388.02116 | pgbench_branches_pkey |           442368
 2017-02-08 08:19:48.021161+01 | 1486538388.02116 | pgbench_tellers_pkey  |          2269184
 2017-02-08 08:19:48.021161+01 | 1486538388.02116 | pgbench_accounts_pkey |        673882112

 2017-02-08 08:19:49.074111+01 | 1486538389.07411 | pgbench_branches_pkey |           442368
 2017-02-08 08:19:49.074111+01 | 1486538389.07411 | pgbench_tellers_pkey  |          2269184
 2017-02-08 08:19:49.074111+01 | 1486538389.07411 | pgbench_accounts_pkey |        673882112

 2017-02-08 08:19:50.127566+01 | 1486538390.12757 | pgbench_branches_pkey |           442368
 2017-02-08 08:19:50.127566+01 | 1486538390.12757 | pgbench_tellers_pkey  |          2269184
 2017-02-08 08:19:50.127566+01 | 1486538390.12757 | pgbench_accounts_pkey |        673882112

 2017-02-08 08:19:51.183849+01 | 1486538391.18385 | pgbench_branches_pkey |           442368
 2017-02-08 08:19:51.183849+01 | 1486538391.18385 | pgbench_tellers_pkey  |          2269184
 2017-02-08 08:19:51.183849+01 | 1486538391.18385 | pgbench_accounts_pkey |        673882112

 2017-02-08 08:19:52.239753+01 | 1486538392.23975 | pgbench_branches_pkey |           442368
 2017-02-08 08:19:52.239753+01 | 1486538392.23975 | pgbench_tellers_pkey  |          2269184
 2017-02-08 08:19:52.239753+01 | 1486538392.23975 | pgbench_accounts_pkey |        673882112

 2017-02-08 08:19:53.295025+01 | 1486538393.29503 | pgbench_branches_pkey |           442368
 2017-02-08 08:19:53.295025+01 | 1486538393.29503 | pgbench_tellers_pkey  |          2269184
 2017-02-08 08:19:53.295025+01 | 1486538393.29503 | pgbench_accounts_pkey |        673882112

 2017-02-08 08:19:54.349744+01 | 1486538394.34974 | pgbench_branches_pkey |           442368
 2017-02-08 08:19:54.349744+01 | 1486538394.34974 | pgbench_tellers_pkey  |          2269184
 2017-02-08 08:19:54.349744+01 | 1486538394.34974 | pgbench_accounts_pkey |        673882112

 2017-02-08 08:19:55.400327+01 | 1486538395.40033 | pgbench_branches_pkey |           442368
 2017-02-08 08:19:55.400327+01 | 1486538395.40033 | pgbench_tellers_pkey  |          2269184
 2017-02-08 08:19:55.400327+01 | 1486538395.40033 | pgbench_accounts_pkey |        673882112

 2017-02-08 08:19:56.455545+01 | 1486538396.45554 | pgbench_branches_pkey |           442368
 2017-02-08 08:19:56.455545+01 | 1486538396.45554 | pgbench_tellers_pkey  |          2269184
 2017-02-08 08:19:56.455545+01 | 1486538396.45554 | pgbench_accounts_pkey |        673882112

 2017-02-08 08:19:57.508119+01 | 1486538397.50812 | pgbench_branches_pkey |           442368
 2017-02-08 08:19:57.508119+01 | 1486538397.50812 | pgbench_tellers_pkey  |          2269184
 2017-02-08 08:19:57.508119+01 | 1486538397.50812 | pgbench_accounts_pkey |        673882112

 2017-02-08 08:19:58.559301+01 | 1486538398.5593 | pgbench_branches_pkey |           442368
 2017-02-08 08:19:58.559301+01 | 1486538398.5593 | pgbench_tellers_pkey  |          2269184
 2017-02-08 08:19:58.559301+01 | 1486538398.5593 | pgbench_accounts_pkey |        673882112

 2017-02-08 08:19:59.61311+01 | 1486538399.61311 | pgbench_branches_pkey |           442368
 2017-02-08 08:19:59.61311+01 | 1486538399.61311 | pgbench_tellers_pkey  |          2269184
 2017-02-08 08:19:59.61311+01 | 1486538399.61311 | pgbench_accounts_pkey |        673882112

 2017-02-08 08:20:00.666248+01 | 1486538400.66625 | pgbench_branches_pkey |           442368
 2017-02-08 08:20:00.666248+01 | 1486538400.66625 | pgbench_tellers_pkey  |          2269184
 2017-02-08 08:20:00.666248+01 | 1486538400.66625 | pgbench_accounts_pkey |        673882112

 2017-02-08 08:20:01.724141+01 | 1486538401.72414 | pgbench_branches_pkey |           442368
 2017-02-08 08:20:01.724141+01 | 1486538401.72414 | pgbench_tellers_pkey  |          2269184
 2017-02-08 08:20:01.724141+01 | 1486538401.72414 | pgbench_accounts_pkey |        673882112

 2017-02-08 08:20:02.779555+01 | 1486538402.77956 | pgbench_branches_pkey |           442368
 2017-02-08 08:20:02.779555+01 | 1486538402.77956 | pgbench_tellers_pkey  |          2269184
 2017-02-08 08:20:02.779555+01 | 1486538402.77956 | pgbench_accounts_pkey |        673882112

 2017-02-08 08:20:03.834288+01 | 1486538403.83429 | pgbench_branches_pkey |           442368
 2017-02-08 08:20:03.834288+01 | 1486538403.83429 | pgbench_tellers_pkey  |          2269184
 2017-02-08 08:20:03.834288+01 | 1486538403.83429 | pgbench_accounts_pkey |        673882112

 2017-02-08 08:20:04.890141+01 | 1486538404.89014 | pgbench_branches_pkey |           442368
 2017-02-08 08:20:04.890141+01 | 1486538404.89014 | pgbench_tellers_pkey  |          2269184
 2017-02-08 08:20:04.890141+01 | 1486538404.89014 | pgbench_accounts_pkey |        673882112

 2017-02-08 08:20:05.94962+01 | 1486538405.94962 | pgbench_branches_pkey |           442368
 2017-02-08 08:20:05.94962+01 | 1486538405.94962 | pgbench_tellers_pkey  |          2269184
 2017-02-08 08:20:05.94962+01 | 1486538405.94962 | pgbench_accounts_pkey |        673882112

 2017-02-08 08:20:07.011242+01 | 1486538407.01124 | pgbench_branches_pkey |           442368
 2017-02-08 08:20:07.011242+01 | 1486538407.01124 | pgbench_tellers_pkey  |          2269184
 2017-02-08 08:20:07.011242+01 | 1486538407.01124 | pgbench_accounts_pkey |        673882112

 2017-02-08 08:20:08.074746+01 | 1486538408.07475 | pgbench_branches_pkey |           442368
 2017-02-08 08:20:08.074746+01 | 1486538408.07475 | pgbench_tellers_pkey  |          2269184
 2017-02-08 08:20:08.074746+01 | 1486538408.07475 | pgbench_accounts_pkey |        673882112

 2017-02-08 08:20:09.141232+01 | 1486538409.14123 | pgbench_branches_pkey |           442368
 2017-02-08 08:20:09.141232+01 | 1486538409.14123 | pgbench_tellers_pkey  |          2269184
 2017-02-08 08:20:09.141232+01 | 1486538409.14123 | pgbench_accounts_pkey |        673882112

 2017-02-08 08:20:10.19476+01 | 1486538410.19476 | pgbench_branches_pkey |           442368
 2017-02-08 08:20:10.19476+01 | 1486538410.19476 | pgbench_tellers_pkey  |          2269184
 2017-02-08 08:20:10.19476+01 | 1486538410.19476 | pgbench_accounts_pkey |        673882112

 2017-02-08 08:20:11.246534+01 | 1486538411.24653 | pgbench_branches_pkey |           442368
 2017-02-08 08:20:11.246534+01 | 1486538411.24653 | pgbench_tellers_pkey  |          2269184
 2017-02-08 08:20:11.246534+01 | 1486538411.24653 | pgbench_accounts_pkey |        673882112

 2017-02-08 08:20:12.301416+01 | 1486538412.30142 | pgbench_branches_pkey |           442368
 2017-02-08 08:20:12.301416+01 | 1486538412.30142 | pgbench_tellers_pkey  |          2269184
 2017-02-08 08:20:12.301416+01 | 1486538412.30142 | pgbench_accounts_pkey |        673882112

 2017-02-08 08:20:13.358276+01 | 1486538413.35828 | pgbench_branches_pkey |           442368
 2017-02-08 08:20:13.358276+01 | 1486538413.35828 | pgbench_tellers_pkey  |          2269184
 2017-02-08 08:20:13.358276+01 | 1486538413.35828 | pgbench_accounts_pkey |        673882112

 2017-02-08 08:20:14.424168+01 | 1486538414.42417 | pgbench_branches_pkey |           442368
 2017-02-08 08:20:14.424168+01 | 1486538414.42417 | pgbench_tellers_pkey  |          2269184
 2017-02-08 08:20:14.424168+01 | 1486538414.42417 | pgbench_accounts_pkey |        673882112

 2017-02-08 08:20:15.477886+01 | 1486538415.47789 | pgbench_branches_pkey |           442368
 2017-02-08 08:20:15.477886+01 | 1486538415.47789 | pgbench_tellers_pkey  |          2269184
 2017-02-08 08:20:15.477886+01 | 1486538415.47789 | pgbench_accounts_pkey |        673882112

 2017-02-08 08:20:16.538124+01 | 1486538416.53812 | pgbench_branches_pkey |           442368
 2017-02-08 08:20:16.538124+01 | 1486538416.53812 | pgbench_tellers_pkey  |          2269184
 2017-02-08 08:20:16.538124+01 | 1486538416.53812 | pgbench_accounts_pkey |        673882112

 2017-02-08 08:20:17.595533+01 | 1486538417.59553 | pgbench_branches_pkey |           442368
 2017-02-08 08:20:17.595533+01 | 1486538417.59553 | pgbench_tellers_pkey  |          2269184
 2017-02-08 08:20:17.595533+01 | 1486538417.59553 | pgbench_accounts_pkey |        673882112

 2017-02-08 08:20:18.650876+01 | 1486538418.65088 | pgbench_branches_pkey |           442368
 2017-02-08 08:20:18.650876+01 | 1486538418.65088 | pgbench_tellers_pkey  |          2269184
 2017-02-08 08:20:18.650876+01 | 1486538418.65088 | pgbench_accounts_pkey |        673882112

 2017-02-08 08:20:19.714072+01 | 1486538419.71407 | pgbench_branches_pkey |           442368
 2017-02-08 08:20:19.714072+01 | 1486538419.71407 | pgbench_tellers_pkey  |          2269184
 2017-02-08 08:20:19.714072+01 | 1486538419.71407 | pgbench_accounts_pkey |        673882112

 2017-02-08 08:20:20.766428+01 | 1486538420.76643 | pgbench_branches_pkey |           442368
 2017-02-08 08:20:20.766428+01 | 1486538420.76643 | pgbench_tellers_pkey  |          2269184
 2017-02-08 08:20:20.766428+01 | 1486538420.76643 | pgbench_accounts_pkey |        673882112

 2017-02-08 08:20:21.824287+01 | 1486538421.82429 | pgbench_branches_pkey |           442368
 2017-02-08 08:20:21.824287+01 | 1486538421.82429 | pgbench_tellers_pkey  |          2269184
 2017-02-08 08:20:21.824287+01 | 1486538421.82429 | pgbench_accounts_pkey |        673882112

 2017-02-08 08:20:22.878868+01 | 1486538422.87887 | pgbench_branches_pkey |           442368
 2017-02-08 08:20:22.878868+01 | 1486538422.87887 | pgbench_tellers_pkey  |          2269184
 2017-02-08 08:20:22.878868+01 | 1486538422.87887 | pgbench_accounts_pkey |        673882112

 2017-02-08 08:20:23.941877+01 | 1486538423.94188 | pgbench_branches_pkey |           442368
 2017-02-08 08:20:23.941877+01 | 1486538423.94188 | pgbench_tellers_pkey  |          2269184
 2017-02-08 08:20:23.941877+01 | 1486538423.94188 | pgbench_accounts_pkey |        673882112

 2017-02-08 08:20:24.996947+01 | 1486538424.99695 | pgbench_branches_pkey |           442368
 2017-02-08 08:20:24.996947+01 | 1486538424.99695 | pgbench_tellers_pkey  |          2269184
 2017-02-08 08:20:24.996947+01 | 1486538424.99695 | pgbench_accounts_pkey |        673882112

 2017-02-08 08:20:26.051069+01 | 1486538426.05107 | pgbench_branches_pkey |           442368
 2017-02-08 08:20:26.051069+01 | 1486538426.05107 | pgbench_tellers_pkey  |          2269184
 2017-02-08 08:20:26.051069+01 | 1486538426.05107 | pgbench_accounts_pkey |        673882112

 2017-02-08 08:20:27.103936+01 | 1486538427.10394 | pgbench_branches_pkey |           442368
 2017-02-08 08:20:27.103936+01 | 1486538427.10394 | pgbench_tellers_pkey  |          2269184
 2017-02-08 08:20:27.103936+01 | 1486538427.10394 | pgbench_accounts_pkey |        673882112

 2017-02-08 08:20:28.157528+01 | 1486538428.15753 | pgbench_branches_pkey |           442368
 2017-02-08 08:20:28.157528+01 | 1486538428.15753 | pgbench_tellers_pkey  |          2269184
 2017-02-08 08:20:28.157528+01 | 1486538428.15753 | pgbench_accounts_pkey |        673882112

 2017-02-08 08:20:29.210346+01 | 1486538429.21035 | pgbench_branches_pkey |           442368
 2017-02-08 08:20:29.210346+01 | 1486538429.21035 | pgbench_tellers_pkey  |          2269184
 2017-02-08 08:20:29.210346+01 | 1486538429.21035 | pgbench_accounts_pkey |        673882112

 2017-02-08 08:20:30.265532+01 | 1486538430.26553 | pgbench_branches_pkey |           442368
 2017-02-08 08:20:30.265532+01 | 1486538430.26553 | pgbench_tellers_pkey  |          2269184
 2017-02-08 08:20:30.265532+01 | 1486538430.26553 | pgbench_accounts_pkey |        673882112

 2017-02-08 08:20:31.320332+01 | 1486538431.32033 | pgbench_branches_pkey |           442368
 2017-02-08 08:20:31.320332+01 | 1486538431.32033 | pgbench_tellers_pkey  |          2269184
 2017-02-08 08:20:31.320332+01 | 1486538431.32033 | pgbench_accounts_pkey |        673882112

 2017-02-08 08:20:32.371577+01 | 1486538432.37158 | pgbench_branches_pkey |           442368
 2017-02-08 08:20:32.371577+01 | 1486538432.37158 | pgbench_tellers_pkey  |          2269184
 2017-02-08 08:20:32.371577+01 | 1486538432.37158 | pgbench_accounts_pkey |        673882112

 2017-02-08 08:20:33.428578+01 | 1486538433.42858 | pgbench_branches_pkey |           442368
 2017-02-08 08:20:33.428578+01 | 1486538433.42858 | pgbench_tellers_pkey  |          2269184
 2017-02-08 08:20:33.428578+01 | 1486538433.42858 | pgbench_accounts_pkey |        673882112

 2017-02-08 08:20:34.48205+01 | 1486538434.48205 | pgbench_branches_pkey |           442368
 2017-02-08 08:20:34.48205+01 | 1486538434.48205 | pgbench_tellers_pkey  |          2269184
 2017-02-08 08:20:34.48205+01 | 1486538434.48205 | pgbench_accounts_pkey |        673882112

 2017-02-08 08:20:35.540504+01 | 1486538435.5405 | pgbench_branches_pkey |           442368
 2017-02-08 08:20:35.540504+01 | 1486538435.5405 | pgbench_tellers_pkey  |          2269184
 2017-02-08 08:20:35.540504+01 | 1486538435.5405 | pgbench_accounts_pkey |        673882112

 2017-02-08 08:20:36.593923+01 | 1486538436.59392 | pgbench_branches_pkey |           442368
 2017-02-08 08:20:36.593923+01 | 1486538436.59392 | pgbench_tellers_pkey  |          2269184
 2017-02-08 08:20:36.593923+01 | 1486538436.59392 | pgbench_accounts_pkey |        673882112

 2017-02-08 08:20:37.652337+01 | 1486538437.65234 | pgbench_branches_pkey |           442368
 2017-02-08 08:20:37.652337+01 | 1486538437.65234 | pgbench_tellers_pkey  |          2269184
 2017-02-08 08:20:37.652337+01 | 1486538437.65234 | pgbench_accounts_pkey |        673882112

 2017-02-08 08:20:38.712353+01 | 1486538438.71235 | pgbench_branches_pkey |           442368
 2017-02-08 08:20:38.712353+01 | 1486538438.71235 | pgbench_tellers_pkey  |          2269184
 2017-02-08 08:20:38.712353+01 | 1486538438.71235 | pgbench_accounts_pkey |        673882112

 2017-02-08 08:20:39.762837+01 | 1486538439.76284 | pgbench_branches_pkey |           442368
 2017-02-08 08:20:39.762837+01 | 1486538439.76284 | pgbench_tellers_pkey  |          2269184
 2017-02-08 08:20:39.762837+01 | 1486538439.76284 | pgbench_accounts_pkey |        673882112

 2017-02-08 08:20:40.832807+01 | 1486538440.83281 | pgbench_branches_pkey |           442368
 2017-02-08 08:20:40.832807+01 | 1486538440.83281 | pgbench_tellers_pkey  |          2269184
 2017-02-08 08:20:40.832807+01 | 1486538440.83281 | pgbench_accounts_pkey |        673882112

 2017-02-08 08:20:41.892161+01 | 1486538441.89216 | pgbench_branches_pkey |           442368
 2017-02-08 08:20:41.892161+01 | 1486538441.89216 | pgbench_tellers_pkey  |          2269184
 2017-02-08 08:20:41.892161+01 | 1486538441.89216 | pgbench_accounts_pkey |        673882112

 2017-02-08 08:20:42.947697+01 | 1486538442.9477 | pgbench_branches_pkey |           442368
 2017-02-08 08:20:42.947697+01 | 1486538442.9477 | pgbench_tellers_pkey  |          2269184
 2017-02-08 08:20:42.947697+01 | 1486538442.9477 | pgbench_accounts_pkey |        673882112

 2017-02-08 08:20:44.005919+01 | 1486538444.00592 | pgbench_branches_pkey |           442368
 2017-02-08 08:20:44.005919+01 | 1486538444.00592 | pgbench_tellers_pkey  |          2269184
 2017-02-08 08:20:44.005919+01 | 1486538444.00592 | pgbench_accounts_pkey |        673882112

 2017-02-08 08:20:45.058681+01 | 1486538445.05868 | pgbench_branches_pkey |           442368
 2017-02-08 08:20:45.058681+01 | 1486538445.05868 | pgbench_tellers_pkey  |          2269184
 2017-02-08 08:20:45.058681+01 | 1486538445.05868 | pgbench_accounts_pkey |        673882112

 2017-02-08 08:20:46.113983+01 | 1486538446.11398 | pgbench_branches_pkey |           442368
 2017-02-08 08:20:46.113983+01 | 1486538446.11398 | pgbench_tellers_pkey  |          2269184
 2017-02-08 08:20:46.113983+01 | 1486538446.11398 | pgbench_accounts_pkey |        673882112

 2017-02-08 08:20:47.170405+01 | 1486538447.1704 | pgbench_branches_pkey |           442368
 2017-02-08 08:20:47.170405+01 | 1486538447.1704 | pgbench_tellers_pkey  |          2269184
 2017-02-08 08:20:47.170405+01 | 1486538447.1704 | pgbench_accounts_pkey |        673882112

 2017-02-08 08:20:48.224591+01 | 1486538448.22459 | pgbench_branches_pkey |           442368
 2017-02-08 08:20:48.224591+01 | 1486538448.22459 | pgbench_tellers_pkey  |          2269184
 2017-02-08 08:20:48.224591+01 | 1486538448.22459 | pgbench_accounts_pkey |        673882112

 2017-02-08 08:20:49.281447+01 | 1486538449.28145 | pgbench_branches_pkey |           442368
 2017-02-08 08:20:49.281447+01 | 1486538449.28145 | pgbench_tellers_pkey  |          2269184
 2017-02-08 08:20:49.281447+01 | 1486538449.28145 | pgbench_accounts_pkey |        673882112

 2017-02-08 08:20:50.342562+01 | 1486538450.34256 | pgbench_branches_pkey |           442368
 2017-02-08 08:20:50.342562+01 | 1486538450.34256 | pgbench_tellers_pkey  |          2269184
 2017-02-08 08:20:50.342562+01 | 1486538450.34256 | pgbench_accounts_pkey |        673882112

 2017-02-08 08:20:51.401252+01 | 1486538451.40125 | pgbench_branches_pkey |           442368
 2017-02-08 08:20:51.401252+01 | 1486538451.40125 | pgbench_tellers_pkey  |          2269184
 2017-02-08 08:20:51.401252+01 | 1486538451.40125 | pgbench_accounts_pkey |        673882112

 2017-02-08 08:20:52.458763+01 | 1486538452.45876 | pgbench_branches_pkey |           442368
 2017-02-08 08:20:52.458763+01 | 1486538452.45876 | pgbench_tellers_pkey  |          2269184
 2017-02-08 08:20:52.458763+01 | 1486538452.45876 | pgbench_accounts_pkey |        673882112

 2017-02-08 08:20:53.51591+01 | 1486538453.51591 | pgbench_branches_pkey |           442368
 2017-02-08 08:20:53.51591+01 | 1486538453.51591 | pgbench_tellers_pkey  |          2269184
 2017-02-08 08:20:53.51591+01 | 1486538453.51591 | pgbench_accounts_pkey |        673882112

 2017-02-08 08:20:54.579922+01 | 1486538454.57992 | pgbench_branches_pkey |           442368
 2017-02-08 08:20:54.579922+01 | 1486538454.57992 | pgbench_tellers_pkey  |          2269184
 2017-02-08 08:20:54.579922+01 | 1486538454.57992 | pgbench_accounts_pkey |        673882112

 2017-02-08 08:20:55.631399+01 | 1486538455.6314 | pgbench_branches_pkey |           442368
 2017-02-08 08:20:55.631399+01 | 1486538455.6314 | pgbench_tellers_pkey  |          2269184
 2017-02-08 08:20:55.631399+01 | 1486538455.6314 | pgbench_accounts_pkey |        673882112

 2017-02-08 08:20:56.687952+01 | 1486538456.68795 | pgbench_branches_pkey |           442368
 2017-02-08 08:20:56.687952+01 | 1486538456.68795 | pgbench_tellers_pkey  |          2269184
 2017-02-08 08:20:56.687952+01 | 1486538456.68795 | pgbench_accounts_pkey |        673882112

 2017-02-08 08:20:57.741593+01 | 1486538457.74159 | pgbench_branches_pkey |           442368
 2017-02-08 08:20:57.741593+01 | 1486538457.74159 | pgbench_tellers_pkey  |          2269184
 2017-02-08 08:20:57.741593+01 | 1486538457.74159 | pgbench_accounts_pkey |        673882112

 2017-02-08 08:20:58.803195+01 | 1486538458.80319 | pgbench_branches_pkey |           442368
 2017-02-08 08:20:58.803195+01 | 1486538458.80319 | pgbench_tellers_pkey  |          2269184
 2017-02-08 08:20:58.803195+01 | 1486538458.80319 | pgbench_accounts_pkey |        673882112

 2017-02-08 08:20:59.85832+01 | 1486538459.85832 | pgbench_branches_pkey |           442368
 2017-02-08 08:20:59.85832+01 | 1486538459.85832 | pgbench_tellers_pkey  |          2269184
 2017-02-08 08:20:59.85832+01 | 1486538459.85832 | pgbench_accounts_pkey |        673882112

 2017-02-08 08:21:00.918597+01 | 1486538460.9186 | pgbench_branches_pkey |           442368
 2017-02-08 08:21:00.918597+01 | 1486538460.9186 | pgbench_tellers_pkey  |          2269184
 2017-02-08 08:21:00.918597+01 | 1486538460.9186 | pgbench_accounts_pkey |        673882112

 2017-02-08 08:21:01.971123+01 | 1486538461.97112 | pgbench_branches_pkey |           442368
 2017-02-08 08:21:01.971123+01 | 1486538461.97112 | pgbench_tellers_pkey  |          2269184
 2017-02-08 08:21:01.971123+01 | 1486538461.97112 | pgbench_accounts_pkey |        673882112

 2017-02-08 08:21:03.034098+01 | 1486538463.0341 | pgbench_branches_pkey |           442368
 2017-02-08 08:21:03.034098+01 | 1486538463.0341 | pgbench_tellers_pkey  |          2269184
 2017-02-08 08:21:03.034098+01 | 1486538463.0341 | pgbench_accounts_pkey |        673882112

 2017-02-08 08:21:04.090416+01 | 1486538464.09042 | pgbench_branches_pkey |           442368
 2017-02-08 08:21:04.090416+01 | 1486538464.09042 | pgbench_tellers_pkey  |          2269184
 2017-02-08 08:21:04.090416+01 | 1486538464.09042 | pgbench_accounts_pkey |        673882112

 2017-02-08 08:21:05.157898+01 | 1486538465.1579 | pgbench_branches_pkey |           442368
 2017-02-08 08:21:05.157898+01 | 1486538465.1579 | pgbench_tellers_pkey  |          2269184
 2017-02-08 08:21:05.157898+01 | 1486538465.1579 | pgbench_accounts_pkey |        673882112

 2017-02-08 08:21:06.22032+01 | 1486538466.22032 | pgbench_branches_pkey |           442368
 2017-02-08 08:21:06.22032+01 | 1486538466.22032 | pgbench_tellers_pkey  |          2269184
 2017-02-08 08:21:06.22032+01 | 1486538466.22032 | pgbench_accounts_pkey |        673882112

 2017-02-08 08:21:07.277413+01 | 1486538467.27741 | pgbench_branches_pkey |           442368
 2017-02-08 08:21:07.277413+01 | 1486538467.27741 | pgbench_tellers_pkey  |          2269184
 2017-02-08 08:21:07.277413+01 | 1486538467.27741 | pgbench_accounts_pkey |        673882112

 2017-02-08 08:21:08.338355+01 | 1486538468.33836 | pgbench_branches_pkey |           442368
 2017-02-08 08:21:08.338355+01 | 1486538468.33836 | pgbench_tellers_pkey  |          2269184
 2017-02-08 08:21:08.338355+01 | 1486538468.33836 | pgbench_accounts_pkey |        673882112

 2017-02-08 08:21:09.397914+01 | 1486538469.39791 | pgbench_branches_pkey |           442368
 2017-02-08 08:21:09.397914+01 | 1486538469.39791 | pgbench_tellers_pkey  |          2269184
 2017-02-08 08:21:09.397914+01 | 1486538469.39791 | pgbench_accounts_pkey |        673882112

 2017-02-08 08:21:10.455689+01 | 1486538470.45569 | pgbench_branches_pkey |           442368
 2017-02-08 08:21:10.455689+01 | 1486538470.45569 | pgbench_tellers_pkey  |          2269184
 2017-02-08 08:21:10.455689+01 | 1486538470.45569 | pgbench_accounts_pkey |        673882112

 2017-02-08 08:21:11.497762+01 | 1486538471.49776 | pgbench_branches_pkey |           442368
 2017-02-08 08:21:11.497762+01 | 1486538471.49776 | pgbench_tellers_pkey  |          2269184
 2017-02-08 08:21:11.497762+01 | 1486538471.49776 | pgbench_accounts_pkey |        673882112

 2017-02-08 08:21:12.557204+01 | 1486538472.5572 | pgbench_branches_pkey |           442368
 2017-02-08 08:21:12.557204+01 | 1486538472.5572 | pgbench_tellers_pkey  |          2269184
 2017-02-08 08:21:12.557204+01 | 1486538472.5572 | pgbench_accounts_pkey |        673882112

 2017-02-08 08:21:13.61825+01 | 1486538473.61825 | pgbench_branches_pkey |           442368
 2017-02-08 08:21:13.61825+01 | 1486538473.61825 | pgbench_tellers_pkey  |          2269184
 2017-02-08 08:21:13.61825+01 | 1486538473.61825 | pgbench_accounts_pkey |        673882112

 2017-02-08 08:21:14.678596+01 | 1486538474.6786 | pgbench_branches_pkey |           442368
 2017-02-08 08:21:14.678596+01 | 1486538474.6786 | pgbench_tellers_pkey  |          2269184
 2017-02-08 08:21:14.678596+01 | 1486538474.6786 | pgbench_accounts_pkey |        673882112

 2017-02-08 08:21:15.733031+01 | 1486538475.73303 | pgbench_branches_pkey |           442368
 2017-02-08 08:21:15.733031+01 | 1486538475.73303 | pgbench_tellers_pkey  |          2269184
 2017-02-08 08:21:15.733031+01 | 1486538475.73303 | pgbench_accounts_pkey |        673882112

 2017-02-08 08:21:16.790192+01 | 1486538476.79019 | pgbench_branches_pkey |           442368
 2017-02-08 08:21:16.790192+01 | 1486538476.79019 | pgbench_tellers_pkey  |          2269184
 2017-02-08 08:21:16.790192+01 | 1486538476.79019 | pgbench_accounts_pkey |        673882112

 2017-02-08 08:21:17.851783+01 | 1486538477.85178 | pgbench_branches_pkey |           442368
 2017-02-08 08:21:17.851783+01 | 1486538477.85178 | pgbench_tellers_pkey  |          2269184
 2017-02-08 08:21:17.851783+01 | 1486538477.85178 | pgbench_accounts_pkey |        673882112

 2017-02-08 08:21:18.907681+01 | 1486538478.90768 | pgbench_branches_pkey |           442368
 2017-02-08 08:21:18.907681+01 | 1486538478.90768 | pgbench_tellers_pkey  |          2269184
 2017-02-08 08:21:18.907681+01 | 1486538478.90768 | pgbench_accounts_pkey |        673882112

 2017-02-08 08:21:19.965521+01 | 1486538479.96552 | pgbench_branches_pkey |           442368
 2017-02-08 08:21:19.965521+01 | 1486538479.96552 | pgbench_tellers_pkey  |          2269184
 2017-02-08 08:21:19.965521+01 | 1486538479.96552 | pgbench_accounts_pkey |        673882112

 2017-02-08 08:21:21.030343+01 | 1486538481.03034 | pgbench_branches_pkey |           442368
 2017-02-08 08:21:21.030343+01 | 1486538481.03034 | pgbench_tellers_pkey  |          2269184
 2017-02-08 08:21:21.030343+01 | 1486538481.03034 | pgbench_accounts_pkey |        673882112

 2017-02-08 08:21:22.083522+01 | 1486538482.08352 | pgbench_branches_pkey |           442368
 2017-02-08 08:21:22.083522+01 | 1486538482.08352 | pgbench_tellers_pkey  |          2269184
 2017-02-08 08:21:22.083522+01 | 1486538482.08352 | pgbench_accounts_pkey |        673882112

 2017-02-08 08:21:23.141588+01 | 1486538483.14159 | pgbench_branches_pkey |           442368
 2017-02-08 08:21:23.141588+01 | 1486538483.14159 | pgbench_tellers_pkey  |          2269184
 2017-02-08 08:21:23.141588+01 | 1486538483.14159 | pgbench_accounts_pkey |        673882112

 2017-02-08 08:21:24.199347+01 | 1486538484.19935 | pgbench_branches_pkey |           442368
 2017-02-08 08:21:24.199347+01 | 1486538484.19935 | pgbench_tellers_pkey  |          2269184
 2017-02-08 08:21:24.199347+01 | 1486538484.19935 | pgbench_accounts_pkey |        673882112

 2017-02-08 08:21:25.254754+01 | 1486538485.25475 | pgbench_branches_pkey |           442368
 2017-02-08 08:21:25.254754+01 | 1486538485.25475 | pgbench_tellers_pkey  |          2269184
 2017-02-08 08:21:25.254754+01 | 1486538485.25475 | pgbench_accounts_pkey |        673882112

 2017-02-08 08:21:26.315052+01 | 1486538486.31505 | pgbench_branches_pkey |           442368
 2017-02-08 08:21:26.315052+01 | 1486538486.31505 | pgbench_tellers_pkey  |          2269184
 2017-02-08 08:21:26.315052+01 | 1486538486.31505 | pgbench_accounts_pkey |        673882112

 2017-02-08 08:21:27.37291+01 | 1486538487.37291 | pgbench_branches_pkey |           442368
 2017-02-08 08:21:27.37291+01 | 1486538487.37291 | pgbench_tellers_pkey  |          2269184
 2017-02-08 08:21:27.37291+01 | 1486538487.37291 | pgbench_accounts_pkey |        673882112

 2017-02-08 08:21:28.429775+01 | 1486538488.42977 | pgbench_branches_pkey |           442368
 2017-02-08 08:21:28.429775+01 | 1486538488.42977 | pgbench_tellers_pkey  |          2269184
 2017-02-08 08:21:28.429775+01 | 1486538488.42977 | pgbench_accounts_pkey |        673882112

 2017-02-08 08:21:29.489815+01 | 1486538489.48981 | pgbench_branches_pkey |           442368
 2017-02-08 08:21:29.489815+01 | 1486538489.48981 | pgbench_tellers_pkey  |          2269184
 2017-02-08 08:21:29.489815+01 | 1486538489.48981 | pgbench_accounts_pkey |        673882112

 2017-02-08 08:21:30.546402+01 | 1486538490.5464 | pgbench_branches_pkey |           442368
 2017-02-08 08:21:30.546402+01 | 1486538490.5464 | pgbench_tellers_pkey  |          2269184
 2017-02-08 08:21:30.546402+01 | 1486538490.5464 | pgbench_accounts_pkey |        673882112

 2017-02-08 08:21:31.606681+01 | 1486538491.60668 | pgbench_branches_pkey |           442368
 2017-02-08 08:21:31.606681+01 | 1486538491.60668 | pgbench_tellers_pkey  |          2269184
 2017-02-08 08:21:31.606681+01 | 1486538491.60668 | pgbench_accounts_pkey |        673882112

 2017-02-08 08:21:32.662287+01 | 1486538492.66229 | pgbench_branches_pkey |           442368
 2017-02-08 08:21:32.662287+01 | 1486538492.66229 | pgbench_tellers_pkey  |          2269184
 2017-02-08 08:21:32.662287+01 | 1486538492.66229 | pgbench_accounts_pkey |        673882112

 2017-02-08 08:21:33.72065+01 | 1486538493.72065 | pgbench_branches_pkey |           442368
 2017-02-08 08:21:33.72065+01 | 1486538493.72065 | pgbench_tellers_pkey  |          2269184
 2017-02-08 08:21:33.72065+01 | 1486538493.72065 | pgbench_accounts_pkey |        673882112

 2017-02-08 08:21:34.778177+01 | 1486538494.77818 | pgbench_branches_pkey |           442368
 2017-02-08 08:21:34.778177+01 | 1486538494.77818 | pgbench_tellers_pkey  |          2269184
 2017-02-08 08:21:34.778177+01 | 1486538494.77818 | pgbench_accounts_pkey |        673882112

 2017-02-08 08:21:35.845541+01 | 1486538495.84554 | pgbench_branches_pkey |           442368
 2017-02-08 08:21:35.845541+01 | 1486538495.84554 | pgbench_tellers_pkey  |          2269184
 2017-02-08 08:21:35.845541+01 | 1486538495.84554 | pgbench_accounts_pkey |        673882112

 2017-02-08 08:21:36.896759+01 | 1486538496.89676 | pgbench_branches_pkey |           442368
 2017-02-08 08:21:36.896759+01 | 1486538496.89676 | pgbench_tellers_pkey  |          2269184
 2017-02-08 08:21:36.896759+01 | 1486538496.89676 | pgbench_accounts_pkey |        673882112

 2017-02-08 08:21:37.95165+01 | 1486538497.95165 | pgbench_branches_pkey |           442368
 2017-02-08 08:21:37.95165+01 | 1486538497.95165 | pgbench_tellers_pkey  |          2269184
 2017-02-08 08:21:37.95165+01 | 1486538497.95165 | pgbench_accounts_pkey |        673882112

 2017-02-08 08:21:39.005308+01 | 1486538499.00531 | pgbench_branches_pkey |           442368
 2017-02-08 08:21:39.005308+01 | 1486538499.00531 | pgbench_tellers_pkey  |          2269184
 2017-02-08 08:21:39.005308+01 | 1486538499.00531 | pgbench_accounts_pkey |        673882112

 2017-02-08 08:21:40.062694+01 | 1486538500.06269 | pgbench_branches_pkey |           442368
 2017-02-08 08:21:40.062694+01 | 1486538500.06269 | pgbench_tellers_pkey  |          2269184
 2017-02-08 08:21:40.062694+01 | 1486538500.06269 | pgbench_accounts_pkey |        673882112

 2017-02-08 08:21:41.133863+01 | 1486538501.13386 | pgbench_branches_pkey |           442368
 2017-02-08 08:21:41.133863+01 | 1486538501.13386 | pgbench_tellers_pkey  |          2269184
 2017-02-08 08:21:41.133863+01 | 1486538501.13386 | pgbench_accounts_pkey |        673882112

 2017-02-08 08:21:42.191263+01 | 1486538502.19126 | pgbench_branches_pkey |           442368
 2017-02-08 08:21:42.191263+01 | 1486538502.19126 | pgbench_tellers_pkey  |          2269184
 2017-02-08 08:21:42.191263+01 | 1486538502.19126 | pgbench_accounts_pkey |        673882112

 2017-02-08 08:21:43.244683+01 | 1486538503.24468 | pgbench_branches_pkey |           442368
 2017-02-08 08:21:43.244683+01 | 1486538503.24468 | pgbench_tellers_pkey  |          2269184
 2017-02-08 08:21:43.244683+01 | 1486538503.24468 | pgbench_accounts_pkey |        673882112

 2017-02-08 08:21:44.303501+01 | 1486538504.3035 | pgbench_branches_pkey |           442368
 2017-02-08 08:21:44.303501+01 | 1486538504.3035 | pgbench_tellers_pkey  |          2269184
 2017-02-08 08:21:44.303501+01 | 1486538504.3035 | pgbench_accounts_pkey |        673882112

 2017-02-08 08:21:45.358361+01 | 1486538505.35836 | pgbench_branches_pkey |           442368
 2017-02-08 08:21:45.358361+01 | 1486538505.35836 | pgbench_tellers_pkey  |          2269184
 2017-02-08 08:21:45.358361+01 | 1486538505.35836 | pgbench_accounts_pkey |        673882112

 2017-02-08 08:21:46.412016+01 | 1486538506.41202 | pgbench_branches_pkey |           442368
 2017-02-08 08:21:46.412016+01 | 1486538506.41202 | pgbench_tellers_pkey  |          2269184
 2017-02-08 08:21:46.412016+01 | 1486538506.41202 | pgbench_accounts_pkey |        673882112

 2017-02-08 08:21:47.469836+01 | 1486538507.46984 | pgbench_branches_pkey |           442368
 2017-02-08 08:21:47.469836+01 | 1486538507.46984 | pgbench_tellers_pkey  |          2269184
 2017-02-08 08:21:47.469836+01 | 1486538507.46984 | pgbench_accounts_pkey |        673882112

 2017-02-08 08:21:48.523801+01 | 1486538508.5238 | pgbench_branches_pkey |           442368
 2017-02-08 08:21:48.523801+01 | 1486538508.5238 | pgbench_tellers_pkey  |          2269184
 2017-02-08 08:21:48.523801+01 | 1486538508.5238 | pgbench_accounts_pkey |        673882112

 2017-02-08 08:21:49.580305+01 | 1486538509.58031 | pgbench_branches_pkey |           442368
 2017-02-08 08:21:49.580305+01 | 1486538509.58031 | pgbench_tellers_pkey  |          2269184
 2017-02-08 08:21:49.580305+01 | 1486538509.58031 | pgbench_accounts_pkey |        673882112

 2017-02-08 08:21:50.639303+01 | 1486538510.6393 | pgbench_branches_pkey |           442368
 2017-02-08 08:21:50.639303+01 | 1486538510.6393 | pgbench_tellers_pkey  |          2269184
 2017-02-08 08:21:50.639303+01 | 1486538510.6393 | pgbench_accounts_pkey |        673882112

 2017-02-08 08:21:51.69959+01 | 1486538511.69959 | pgbench_branches_pkey |           442368
 2017-02-08 08:21:51.69959+01 | 1486538511.69959 | pgbench_tellers_pkey  |          2269184
 2017-02-08 08:21:51.69959+01 | 1486538511.69959 | pgbench_accounts_pkey |        673882112

 2017-02-08 08:21:52.755936+01 | 1486538512.75594 | pgbench_branches_pkey |           442368
 2017-02-08 08:21:52.755936+01 | 1486538512.75594 | pgbench_tellers_pkey  |          2269184
 2017-02-08 08:21:52.755936+01 | 1486538512.75594 | pgbench_accounts_pkey |        673882112

 2017-02-08 08:21:53.814736+01 | 1486538513.81474 | pgbench_branches_pkey |           442368
 2017-02-08 08:21:53.814736+01 | 1486538513.81474 | pgbench_tellers_pkey  |          2269184
 2017-02-08 08:21:53.814736+01 | 1486538513.81474 | pgbench_accounts_pkey |        673882112

 2017-02-08 08:21:54.874457+01 | 1486538514.87446 | pgbench_branches_pkey |           442368
 2017-02-08 08:21:54.874457+01 | 1486538514.87446 | pgbench_tellers_pkey  |          2269184
 2017-02-08 08:21:54.874457+01 | 1486538514.87446 | pgbench_accounts_pkey |        673882112

 2017-02-08 08:21:55.931456+01 | 1486538515.93146 | pgbench_branches_pkey |           442368
 2017-02-08 08:21:55.931456+01 | 1486538515.93146 | pgbench_tellers_pkey  |          2269184
 2017-02-08 08:21:55.931456+01 | 1486538515.93146 | pgbench_accounts_pkey |        673882112

 2017-02-08 08:21:56.988015+01 | 1486538516.98801 | pgbench_branches_pkey |           442368
 2017-02-08 08:21:56.988015+01 | 1486538516.98801 | pgbench_tellers_pkey  |          2269184
 2017-02-08 08:21:56.988015+01 | 1486538516.98801 | pgbench_accounts_pkey |        673882112

 2017-02-08 08:21:58.040431+01 | 1486538518.04043 | pgbench_branches_pkey |           442368
 2017-02-08 08:21:58.040431+01 | 1486538518.04043 | pgbench_tellers_pkey  |          2269184
 2017-02-08 08:21:58.040431+01 | 1486538518.04043 | pgbench_accounts_pkey |        673882112

 2017-02-08 08:21:59.097402+01 | 1486538519.0974 | pgbench_branches_pkey |           442368
 2017-02-08 08:21:59.097402+01 | 1486538519.0974 | pgbench_tellers_pkey  |          2269184
 2017-02-08 08:21:59.097402+01 | 1486538519.0974 | pgbench_accounts_pkey |        673882112

 2017-02-08 08:22:00.155435+01 | 1486538520.15544 | pgbench_branches_pkey |           442368
 2017-02-08 08:22:00.155435+01 | 1486538520.15544 | pgbench_tellers_pkey  |          2269184
 2017-02-08 08:22:00.155435+01 | 1486538520.15544 | pgbench_accounts_pkey |        673882112

 2017-02-08 08:22:01.21019+01 | 1486538521.21019 | pgbench_branches_pkey |           442368
 2017-02-08 08:22:01.21019+01 | 1486538521.21019 | pgbench_tellers_pkey  |          2269184
 2017-02-08 08:22:01.21019+01 | 1486538521.21019 | pgbench_accounts_pkey |        673882112

 2017-02-08 08:22:02.268313+01 | 1486538522.26831 | pgbench_branches_pkey |           442368
 2017-02-08 08:22:02.268313+01 | 1486538522.26831 | pgbench_tellers_pkey  |          2269184
 2017-02-08 08:22:02.268313+01 | 1486538522.26831 | pgbench_accounts_pkey |        673882112

 2017-02-08 08:22:03.323684+01 | 1486538523.32368 | pgbench_branches_pkey |           442368
 2017-02-08 08:22:03.323684+01 | 1486538523.32368 | pgbench_tellers_pkey  |          2269184
 2017-02-08 08:22:03.323684+01 | 1486538523.32368 | pgbench_accounts_pkey |        673882112

 2017-02-08 08:22:04.378657+01 | 1486538524.37866 | pgbench_branches_pkey |           442368
 2017-02-08 08:22:04.378657+01 | 1486538524.37866 | pgbench_tellers_pkey  |          2269184
 2017-02-08 08:22:04.378657+01 | 1486538524.37866 | pgbench_accounts_pkey |        673882112

 2017-02-08 08:22:05.43534+01 | 1486538525.43534 | pgbench_branches_pkey |           442368
 2017-02-08 08:22:05.43534+01 | 1486538525.43534 | pgbench_tellers_pkey  |          2269184
 2017-02-08 08:22:05.43534+01 | 1486538525.43534 | pgbench_accounts_pkey |        673882112

 2017-02-08 08:22:06.493684+01 | 1486538526.49368 | pgbench_branches_pkey |           442368
 2017-02-08 08:22:06.493684+01 | 1486538526.49368 | pgbench_tellers_pkey  |          2269184
 2017-02-08 08:22:06.493684+01 | 1486538526.49368 | pgbench_accounts_pkey |        673882112

 2017-02-08 08:22:07.554216+01 | 1486538527.55422 | pgbench_branches_pkey |           442368
 2017-02-08 08:22:07.554216+01 | 1486538527.55422 | pgbench_tellers_pkey  |          2269184
 2017-02-08 08:22:07.554216+01 | 1486538527.55422 | pgbench_accounts_pkey |        673882112

 2017-02-08 08:22:08.613203+01 | 1486538528.6132 | pgbench_branches_pkey |           442368
 2017-02-08 08:22:08.613203+01 | 1486538528.6132 | pgbench_tellers_pkey  |          2269184
 2017-02-08 08:22:08.613203+01 | 1486538528.6132 | pgbench_accounts_pkey |        673882112

 2017-02-08 08:22:09.675593+01 | 1486538529.67559 | pgbench_branches_pkey |           442368
 2017-02-08 08:22:09.675593+01 | 1486538529.67559 | pgbench_tellers_pkey  |          2269184
 2017-02-08 08:22:09.675593+01 | 1486538529.67559 | pgbench_accounts_pkey |        673882112

 2017-02-08 08:22:10.717826+01 | 1486538530.71783 | pgbench_branches_pkey |           442368
 2017-02-08 08:22:10.717826+01 | 1486538530.71783 | pgbench_tellers_pkey  |          2269184
 2017-02-08 08:22:10.717826+01 | 1486538530.71783 | pgbench_accounts_pkey |        673882112

 2017-02-08 08:22:11.76288+01 | 1486538531.76288 | pgbench_branches_pkey |           442368
 2017-02-08 08:22:11.76288+01 | 1486538531.76288 | pgbench_tellers_pkey  |          2269184
 2017-02-08 08:22:11.76288+01 | 1486538531.76288 | pgbench_accounts_pkey |        673882112

 2017-02-08 08:22:12.82182+01 | 1486538532.82182 | pgbench_branches_pkey |           442368
 2017-02-08 08:22:12.82182+01 | 1486538532.82182 | pgbench_tellers_pkey  |          2269184
 2017-02-08 08:22:12.82182+01 | 1486538532.82182 | pgbench_accounts_pkey |        673882112

 2017-02-08 08:22:13.883073+01 | 1486538533.88307 | pgbench_branches_pkey |           442368
 2017-02-08 08:22:13.883073+01 | 1486538533.88307 | pgbench_tellers_pkey  |          2269184
 2017-02-08 08:22:13.883073+01 | 1486538533.88307 | pgbench_accounts_pkey |        673882112

 2017-02-08 08:22:14.958231+01 | 1486538534.95823 | pgbench_branches_pkey |           442368
 2017-02-08 08:22:14.958231+01 | 1486538534.95823 | pgbench_tellers_pkey  |          2269184
 2017-02-08 08:22:14.958231+01 | 1486538534.95823 | pgbench_accounts_pkey |        673882112

 2017-02-08 08:22:16.013513+01 | 1486538536.01351 | pgbench_branches_pkey |           442368
 2017-02-08 08:22:16.013513+01 | 1486538536.01351 | pgbench_tellers_pkey  |          2269184
 2017-02-08 08:22:16.013513+01 | 1486538536.01351 | pgbench_accounts_pkey |        673882112

 2017-02-08 08:22:17.075902+01 | 1486538537.0759 | pgbench_branches_pkey |           442368
 2017-02-08 08:22:17.075902+01 | 1486538537.0759 | pgbench_tellers_pkey  |          2269184
 2017-02-08 08:22:17.075902+01 | 1486538537.0759 | pgbench_accounts_pkey |        673882112

 2017-02-08 08:22:18.140856+01 | 1486538538.14086 | pgbench_branches_pkey |           442368
 2017-02-08 08:22:18.140856+01 | 1486538538.14086 | pgbench_tellers_pkey  |          2269184
 2017-02-08 08:22:18.140856+01 | 1486538538.14086 | pgbench_accounts_pkey |        673882112

 2017-02-08 08:22:19.224979+01 | 1486538539.22498 | pgbench_branches_pkey |           442368
 2017-02-08 08:22:19.224979+01 | 1486538539.22498 | pgbench_tellers_pkey  |          2269184
 2017-02-08 08:22:19.224979+01 | 1486538539.22498 | pgbench_accounts_pkey |        673882112

 2017-02-08 08:22:20.278786+01 | 1486538540.27879 | pgbench_branches_pkey |           442368
 2017-02-08 08:22:20.278786+01 | 1486538540.27879 | pgbench_tellers_pkey  |          2269184
 2017-02-08 08:22:20.278786+01 | 1486538540.27879 | pgbench_accounts_pkey |        673882112

 2017-02-08 08:22:21.333883+01 | 1486538541.33388 | pgbench_branches_pkey |           442368
 2017-02-08 08:22:21.333883+01 | 1486538541.33388 | pgbench_tellers_pkey  |          2269184
 2017-02-08 08:22:21.333883+01 | 1486538541.33388 | pgbench_accounts_pkey |        673882112

 2017-02-08 08:22:22.394471+01 | 1486538542.39447 | pgbench_branches_pkey |           442368
 2017-02-08 08:22:22.394471+01 | 1486538542.39447 | pgbench_tellers_pkey  |          2269184
 2017-02-08 08:22:22.394471+01 | 1486538542.39447 | pgbench_accounts_pkey |        673882112

 2017-02-08 08:22:23.451592+01 | 1486538543.45159 | pgbench_branches_pkey |           442368
 2017-02-08 08:22:23.451592+01 | 1486538543.45159 | pgbench_tellers_pkey  |          2269184
 2017-02-08 08:22:23.451592+01 | 1486538543.45159 | pgbench_accounts_pkey |        673882112

 2017-02-08 08:22:24.508276+01 | 1486538544.50828 | pgbench_branches_pkey |           442368
 2017-02-08 08:22:24.508276+01 | 1486538544.50828 | pgbench_tellers_pkey  |          2269184
 2017-02-08 08:22:24.508276+01 | 1486538544.50828 | pgbench_accounts_pkey |        673882112

 2017-02-08 08:22:25.570598+01 | 1486538545.5706 | pgbench_branches_pkey |           442368
 2017-02-08 08:22:25.570598+01 | 1486538545.5706 | pgbench_tellers_pkey  |          2269184
 2017-02-08 08:22:25.570598+01 | 1486538545.5706 | pgbench_accounts_pkey |        673882112

 2017-02-08 08:22:26.629174+01 | 1486538546.62917 | pgbench_branches_pkey |           442368
 2017-02-08 08:22:26.629174+01 | 1486538546.62917 | pgbench_tellers_pkey  |          2269184
 2017-02-08 08:22:26.629174+01 | 1486538546.62917 | pgbench_accounts_pkey |        673882112

 2017-02-08 08:22:27.686521+01 | 1486538547.68652 | pgbench_branches_pkey |           442368
 2017-02-08 08:22:27.686521+01 | 1486538547.68652 | pgbench_tellers_pkey  |          2269184
 2017-02-08 08:22:27.686521+01 | 1486538547.68652 | pgbench_accounts_pkey |        673882112

 2017-02-08 08:22:28.747487+01 | 1486538548.74749 | pgbench_branches_pkey |           442368
 2017-02-08 08:22:28.747487+01 | 1486538548.74749 | pgbench_tellers_pkey  |          2269184
 2017-02-08 08:22:28.747487+01 | 1486538548.74749 | pgbench_accounts_pkey |        673882112

 2017-02-08 08:22:29.80309+01 | 1486538549.80309 | pgbench_branches_pkey |           442368
 2017-02-08 08:22:29.80309+01 | 1486538549.80309 | pgbench_tellers_pkey  |          2269184
 2017-02-08 08:22:29.80309+01 | 1486538549.80309 | pgbench_accounts_pkey |        673882112

 2017-02-08 08:22:30.858451+01 | 1486538550.85845 | pgbench_branches_pkey |           442368
 2017-02-08 08:22:30.858451+01 | 1486538550.85845 | pgbench_tellers_pkey  |          2269184
 2017-02-08 08:22:30.858451+01 | 1486538550.85845 | pgbench_accounts_pkey |        673882112

 2017-02-08 08:22:31.918187+01 | 1486538551.91819 | pgbench_branches_pkey |           442368
 2017-02-08 08:22:31.918187+01 | 1486538551.91819 | pgbench_tellers_pkey  |          2269184
 2017-02-08 08:22:31.918187+01 | 1486538551.91819 | pgbench_accounts_pkey |        673882112

 2017-02-08 08:22:32.97403+01 | 1486538552.97403 | pgbench_branches_pkey |           442368
 2017-02-08 08:22:32.97403+01 | 1486538552.97403 | pgbench_tellers_pkey  |          2269184
 2017-02-08 08:22:32.97403+01 | 1486538552.97403 | pgbench_accounts_pkey |        673882112

 2017-02-08 08:22:34.027613+01 | 1486538554.02761 | pgbench_branches_pkey |           442368
 2017-02-08 08:22:34.027613+01 | 1486538554.02761 | pgbench_tellers_pkey  |          2269184
 2017-02-08 08:22:34.027613+01 | 1486538554.02761 | pgbench_accounts_pkey |        673882112

 2017-02-08 08:22:35.086956+01 | 1486538555.08696 | pgbench_branches_pkey |           442368
 2017-02-08 08:22:35.086956+01 | 1486538555.08696 | pgbench_tellers_pkey  |          2269184
 2017-02-08 08:22:35.086956+01 | 1486538555.08696 | pgbench_accounts_pkey |        673882112

 2017-02-08 08:22:36.144068+01 | 1486538556.14407 | pgbench_branches_pkey |           442368
 2017-02-08 08:22:36.144068+01 | 1486538556.14407 | pgbench_tellers_pkey  |          2269184
 2017-02-08 08:22:36.144068+01 | 1486538556.14407 | pgbench_accounts_pkey |        673882112

 2017-02-08 08:22:37.2027+01 | 1486538557.2027 | pgbench_branches_pkey |           442368
 2017-02-08 08:22:37.2027+01 | 1486538557.2027 | pgbench_tellers_pkey  |          2269184
 2017-02-08 08:22:37.2027+01 | 1486538557.2027 | pgbench_accounts_pkey |        673882112

 2017-02-08 08:22:38.259194+01 | 1486538558.25919 | pgbench_branches_pkey |           442368
 2017-02-08 08:22:38.259194+01 | 1486538558.25919 | pgbench_tellers_pkey  |          2269184
 2017-02-08 08:22:38.259194+01 | 1486538558.25919 | pgbench_accounts_pkey |        673882112

 2017-02-08 08:22:39.315744+01 | 1486538559.31574 | pgbench_branches_pkey |           442368
 2017-02-08 08:22:39.315744+01 | 1486538559.31574 | pgbench_tellers_pkey  |          2269184
 2017-02-08 08:22:39.315744+01 | 1486538559.31574 | pgbench_accounts_pkey |        673882112

 2017-02-08 08:22:40.37302+01 | 1486538560.37302 | pgbench_branches_pkey |           442368
 2017-02-08 08:22:40.37302+01 | 1486538560.37302 | pgbench_tellers_pkey  |          2269184
 2017-02-08 08:22:40.37302+01 | 1486538560.37302 | pgbench_accounts_pkey |        673882112

 2017-02-08 08:22:41.432206+01 | 1486538561.43221 | pgbench_branches_pkey |           442368
 2017-02-08 08:22:41.432206+01 | 1486538561.43221 | pgbench_tellers_pkey  |          2269184
 2017-02-08 08:22:41.432206+01 | 1486538561.43221 | pgbench_accounts_pkey |        673882112

 2017-02-08 08:22:42.485773+01 | 1486538562.48577 | pgbench_branches_pkey |           442368
 2017-02-08 08:22:42.485773+01 | 1486538562.48577 | pgbench_tellers_pkey  |          2269184
 2017-02-08 08:22:42.485773+01 | 1486538562.48577 | pgbench_accounts_pkey |        673882112

 2017-02-08 08:22:43.546211+01 | 1486538563.54621 | pgbench_branches_pkey |           442368
 2017-02-08 08:22:43.546211+01 | 1486538563.54621 | pgbench_tellers_pkey  |          2269184
 2017-02-08 08:22:43.546211+01 | 1486538563.54621 | pgbench_accounts_pkey |        673882112

 2017-02-08 08:22:44.603926+01 | 1486538564.60393 | pgbench_branches_pkey |           442368
 2017-02-08 08:22:44.603926+01 | 1486538564.60393 | pgbench_tellers_pkey  |          2269184
 2017-02-08 08:22:44.603926+01 | 1486538564.60393 | pgbench_accounts_pkey |        673882112

 2017-02-08 08:22:45.660547+01 | 1486538565.66055 | pgbench_branches_pkey |           442368
 2017-02-08 08:22:45.660547+01 | 1486538565.66055 | pgbench_tellers_pkey  |          2269184
 2017-02-08 08:22:45.660547+01 | 1486538565.66055 | pgbench_accounts_pkey |        673882112

 2017-02-08 08:22:46.71751+01 | 1486538566.71751 | pgbench_branches_pkey |           442368
 2017-02-08 08:22:46.71751+01 | 1486538566.71751 | pgbench_tellers_pkey  |          2269184
 2017-02-08 08:22:46.71751+01 | 1486538566.71751 | pgbench_accounts_pkey |        673882112

 2017-02-08 08:22:47.773143+01 | 1486538567.77314 | pgbench_branches_pkey |           442368
 2017-02-08 08:22:47.773143+01 | 1486538567.77314 | pgbench_tellers_pkey  |          2269184
 2017-02-08 08:22:47.773143+01 | 1486538567.77314 | pgbench_accounts_pkey |        673882112

 2017-02-08 08:22:48.831069+01 | 1486538568.83107 | pgbench_branches_pkey |           442368
 2017-02-08 08:22:48.831069+01 | 1486538568.83107 | pgbench_tellers_pkey  |          2269184
 2017-02-08 08:22:48.831069+01 | 1486538568.83107 | pgbench_accounts_pkey |        673882112

 2017-02-08 08:22:49.890142+01 | 1486538569.89014 | pgbench_branches_pkey |           442368
 2017-02-08 08:22:49.890142+01 | 1486538569.89014 | pgbench_tellers_pkey  |          2269184
 2017-02-08 08:22:49.890142+01 | 1486538569.89014 | pgbench_accounts_pkey |        673882112

 2017-02-08 08:22:50.956303+01 | 1486538570.9563 | pgbench_branches_pkey |           442368
 2017-02-08 08:22:50.956303+01 | 1486538570.9563 | pgbench_tellers_pkey  |          2269184
 2017-02-08 08:22:50.956303+01 | 1486538570.9563 | pgbench_accounts_pkey |        673882112

 2017-02-08 08:22:52.013927+01 | 1486538572.01393 | pgbench_branches_pkey |           442368
 2017-02-08 08:22:52.013927+01 | 1486538572.01393 | pgbench_tellers_pkey  |          2269184
 2017-02-08 08:22:52.013927+01 | 1486538572.01393 | pgbench_accounts_pkey |        673882112

 2017-02-08 08:22:53.07523+01 | 1486538573.07523 | pgbench_branches_pkey |           442368
 2017-02-08 08:22:53.07523+01 | 1486538573.07523 | pgbench_tellers_pkey  |          2269184
 2017-02-08 08:22:53.07523+01 | 1486538573.07523 | pgbench_accounts_pkey |        673882112

 2017-02-08 08:22:54.130544+01 | 1486538574.13054 | pgbench_branches_pkey |           442368
 2017-02-08 08:22:54.130544+01 | 1486538574.13054 | pgbench_tellers_pkey  |          2269184
 2017-02-08 08:22:54.130544+01 | 1486538574.13054 | pgbench_accounts_pkey |        673882112

 2017-02-08 08:22:55.186403+01 | 1486538575.1864 | pgbench_branches_pkey |           442368
 2017-02-08 08:22:55.186403+01 | 1486538575.1864 | pgbench_tellers_pkey  |          2269184
 2017-02-08 08:22:55.186403+01 | 1486538575.1864 | pgbench_accounts_pkey |        673882112

 2017-02-08 08:22:56.247635+01 | 1486538576.24763 | pgbench_branches_pkey |           442368
 2017-02-08 08:22:56.247635+01 | 1486538576.24763 | pgbench_tellers_pkey  |          2269184
 2017-02-08 08:22:56.247635+01 | 1486538576.24763 | pgbench_accounts_pkey |        673882112

 2017-02-08 08:22:57.306003+01 | 1486538577.306 | pgbench_branches_pkey |           442368
 2017-02-08 08:22:57.306003+01 | 1486538577.306 | pgbench_tellers_pkey  |          2269184
 2017-02-08 08:22:57.306003+01 | 1486538577.306 | pgbench_accounts_pkey |        673882112

 2017-02-08 08:22:58.366852+01 | 1486538578.36685 | pgbench_branches_pkey |           442368
 2017-02-08 08:22:58.366852+01 | 1486538578.36685 | pgbench_tellers_pkey  |          2269184
 2017-02-08 08:22:58.366852+01 | 1486538578.36685 | pgbench_accounts_pkey |        673882112

 2017-02-08 08:22:59.431828+01 | 1486538579.43183 | pgbench_branches_pkey |           442368
 2017-02-08 08:22:59.431828+01 | 1486538579.43183 | pgbench_tellers_pkey  |          2269184
 2017-02-08 08:22:59.431828+01 | 1486538579.43183 | pgbench_accounts_pkey |        673882112

 2017-02-08 08:23:00.488912+01 | 1486538580.48891 | pgbench_branches_pkey |           442368
 2017-02-08 08:23:00.488912+01 | 1486538580.48891 | pgbench_tellers_pkey  |          2269184
 2017-02-08 08:23:00.488912+01 | 1486538580.48891 | pgbench_accounts_pkey |        673882112

 2017-02-08 08:23:01.553682+01 | 1486538581.55368 | pgbench_branches_pkey |           442368
 2017-02-08 08:23:01.553682+01 | 1486538581.55368 | pgbench_tellers_pkey  |          2269184
 2017-02-08 08:23:01.553682+01 | 1486538581.55368 | pgbench_accounts_pkey |        673882112

 2017-02-08 08:23:02.607387+01 | 1486538582.60739 | pgbench_branches_pkey |           442368
 2017-02-08 08:23:02.607387+01 | 1486538582.60739 | pgbench_tellers_pkey  |          2269184
 2017-02-08 08:23:02.607387+01 | 1486538582.60739 | pgbench_accounts_pkey |        673882112

 2017-02-08 08:23:03.668774+01 | 1486538583.66877 | pgbench_branches_pkey |           442368
 2017-02-08 08:23:03.668774+01 | 1486538583.66877 | pgbench_tellers_pkey  |          2269184
 2017-02-08 08:23:03.668774+01 | 1486538583.66877 | pgbench_accounts_pkey |        673882112

 2017-02-08 08:23:04.725178+01 | 1486538584.72518 | pgbench_branches_pkey |           442368
 2017-02-08 08:23:04.725178+01 | 1486538584.72518 | pgbench_tellers_pkey  |          2269184
 2017-02-08 08:23:04.725178+01 | 1486538584.72518 | pgbench_accounts_pkey |        673882112

 2017-02-08 08:23:05.785007+01 | 1486538585.78501 | pgbench_branches_pkey |           442368
 2017-02-08 08:23:05.785007+01 | 1486538585.78501 | pgbench_tellers_pkey  |          2269184
 2017-02-08 08:23:05.785007+01 | 1486538585.78501 | pgbench_accounts_pkey |        673882112

 2017-02-08 08:23:06.842407+01 | 1486538586.84241 | pgbench_branches_pkey |           442368
 2017-02-08 08:23:06.842407+01 | 1486538586.84241 | pgbench_tellers_pkey  |          2269184
 2017-02-08 08:23:06.842407+01 | 1486538586.84241 | pgbench_accounts_pkey |        673882112

 2017-02-08 08:23:07.902129+01 | 1486538587.90213 | pgbench_branches_pkey |           442368
 2017-02-08 08:23:07.902129+01 | 1486538587.90213 | pgbench_tellers_pkey  |          2269184
 2017-02-08 08:23:07.902129+01 | 1486538587.90213 | pgbench_accounts_pkey |        673882112

 2017-02-08 08:23:08.967128+01 | 1486538588.96713 | pgbench_branches_pkey |           442368
 2017-02-08 08:23:08.967128+01 | 1486538588.96713 | pgbench_tellers_pkey  |          2269184
 2017-02-08 08:23:08.967128+01 | 1486538588.96713 | pgbench_accounts_pkey |        673882112

 2017-02-08 08:23:10.023974+01 | 1486538590.02397 | pgbench_branches_pkey |           442368
 2017-02-08 08:23:10.023974+01 | 1486538590.02397 | pgbench_tellers_pkey  |          2269184
 2017-02-08 08:23:10.023974+01 | 1486538590.02397 | pgbench_accounts_pkey |        673882112

 2017-02-08 08:23:11.070506+01 | 1486538591.07051 | pgbench_branches_pkey |           442368
 2017-02-08 08:23:11.070506+01 | 1486538591.07051 | pgbench_tellers_pkey  |          2269184
 2017-02-08 08:23:11.070506+01 | 1486538591.07051 | pgbench_accounts_pkey |        673882112

 2017-02-08 08:23:12.124203+01 | 1486538592.1242 | pgbench_branches_pkey |           442368
 2017-02-08 08:23:12.124203+01 | 1486538592.1242 | pgbench_tellers_pkey  |          2269184
 2017-02-08 08:23:12.124203+01 | 1486538592.1242 | pgbench_accounts_pkey |        673882112

 2017-02-08 08:23:13.185938+01 | 1486538593.18594 | pgbench_branches_pkey |           442368
 2017-02-08 08:23:13.185938+01 | 1486538593.18594 | pgbench_tellers_pkey  |          2269184
 2017-02-08 08:23:13.185938+01 | 1486538593.18594 | pgbench_accounts_pkey |        673882112

 2017-02-08 08:23:14.245071+01 | 1486538594.24507 | pgbench_branches_pkey |           516096
 2017-02-08 08:23:14.245071+01 | 1486538594.24507 | pgbench_tellers_pkey  |          2269184
 2017-02-08 08:23:14.245071+01 | 1486538594.24507 | pgbench_accounts_pkey |        673882112

 2017-02-08 08:23:15.30378+01 | 1486538595.30378 | pgbench_branches_pkey |           589824
 2017-02-08 08:23:15.30378+01 | 1486538595.30378 | pgbench_tellers_pkey  |          2269184
 2017-02-08 08:23:15.30378+01 | 1486538595.30378 | pgbench_accounts_pkey |        673882112

 2017-02-08 08:23:16.365238+01 | 1486538596.36524 | pgbench_branches_pkey |           598016
 2017-02-08 08:23:16.365238+01 | 1486538596.36524 | pgbench_tellers_pkey  |          2269184
 2017-02-08 08:23:16.365238+01 | 1486538596.36524 | pgbench_accounts_pkey |        673882112

 2017-02-08 08:23:17.426608+01 | 1486538597.42661 | pgbench_branches_pkey |           622592
 2017-02-08 08:23:17.426608+01 | 1486538597.42661 | pgbench_tellers_pkey  |          2269184
 2017-02-08 08:23:17.426608+01 | 1486538597.42661 | pgbench_accounts_pkey |        673882112

 2017-02-08 08:23:18.486664+01 | 1486538598.48666 | pgbench_branches_pkey |           638976
 2017-02-08 08:23:18.486664+01 | 1486538598.48666 | pgbench_tellers_pkey  |          2277376
 2017-02-08 08:23:18.486664+01 | 1486538598.48666 | pgbench_accounts_pkey |        673882112

 2017-02-08 08:23:19.558861+01 | 1486538599.55886 | pgbench_branches_pkey |           745472
 2017-02-08 08:23:19.558861+01 | 1486538599.55886 | pgbench_tellers_pkey  |          2293760
 2017-02-08 08:23:19.558861+01 | 1486538599.55886 | pgbench_accounts_pkey |        673882112

 2017-02-08 08:23:20.626946+01 | 1486538600.62695 | pgbench_branches_pkey |           761856
 2017-02-08 08:23:20.626946+01 | 1486538600.62695 | pgbench_tellers_pkey  |          2326528
 2017-02-08 08:23:20.626946+01 | 1486538600.62695 | pgbench_accounts_pkey |        673882112

 2017-02-08 08:23:21.694603+01 | 1486538601.6946 | pgbench_branches_pkey |           827392
 2017-02-08 08:23:21.694603+01 | 1486538601.6946 | pgbench_tellers_pkey  |          2424832
 2017-02-08 08:23:21.694603+01 | 1486538601.6946 | pgbench_accounts_pkey |        673882112

 2017-02-08 08:23:22.7746+01 | 1486538602.7746 | pgbench_branches_pkey |           999424
 2017-02-08 08:23:22.7746+01 | 1486538602.7746 | pgbench_tellers_pkey  |          2686976
 2017-02-08 08:23:22.7746+01 | 1486538602.7746 | pgbench_accounts_pkey |        673882112

 2017-02-08 08:23:23.846057+01 | 1486538603.84606 | pgbench_branches_pkey |          1081344
 2017-02-08 08:23:23.846057+01 | 1486538603.84606 | pgbench_tellers_pkey  |          2940928
 2017-02-08 08:23:23.846057+01 | 1486538603.84606 | pgbench_accounts_pkey |        673882112

 2017-02-08 08:23:24.912889+01 | 1486538604.91289 | pgbench_branches_pkey |          1122304
 2017-02-08 08:23:24.912889+01 | 1486538604.91289 | pgbench_tellers_pkey  |          3276800
 2017-02-08 08:23:24.912889+01 | 1486538604.91289 | pgbench_accounts_pkey |        673882112

 2017-02-08 08:23:25.974573+01 | 1486538605.97457 | pgbench_branches_pkey |          1155072
 2017-02-08 08:23:25.974573+01 | 1486538605.97457 | pgbench_tellers_pkey  |          3596288
 2017-02-08 08:23:25.974573+01 | 1486538605.97457 | pgbench_accounts_pkey |        673882112

 2017-02-08 08:23:27.019549+01 | 1486538607.01955 | pgbench_branches_pkey |          1171456
 2017-02-08 08:23:27.019549+01 | 1486538607.01955 | pgbench_tellers_pkey  |          3694592
 2017-02-08 08:23:27.019549+01 | 1486538607.01955 | pgbench_accounts_pkey |        673882112

 2017-02-08 08:23:28.082979+01 | 1486538608.08298 | pgbench_branches_pkey |          1171456
 2017-02-08 08:23:28.082979+01 | 1486538608.08298 | pgbench_tellers_pkey  |          3694592
 2017-02-08 08:23:28.082979+01 | 1486538608.08298 | pgbench_accounts_pkey |        673882112

 2017-02-08 08:23:29.149036+01 | 1486538609.14904 | pgbench_branches_pkey |          1171456
 2017-02-08 08:23:29.149036+01 | 1486538609.14904 | pgbench_tellers_pkey  |          3694592
 2017-02-08 08:23:29.149036+01 | 1486538609.14904 | pgbench_accounts_pkey |        673882112

 2017-02-08 08:23:30.215478+01 | 1486538610.21548 | pgbench_branches_pkey |          1171456
 2017-02-08 08:23:30.215478+01 | 1486538610.21548 | pgbench_tellers_pkey  |          3694592
 2017-02-08 08:23:30.215478+01 | 1486538610.21548 | pgbench_accounts_pkey |        673882112

 2017-02-08 08:23:31.274544+01 | 1486538611.27454 | pgbench_branches_pkey |          1171456
 2017-02-08 08:23:31.274544+01 | 1486538611.27454 | pgbench_tellers_pkey  |          3694592
 2017-02-08 08:23:31.274544+01 | 1486538611.27454 | pgbench_accounts_pkey |        673882112

 2017-02-08 08:23:32.338974+01 | 1486538612.33897 | pgbench_branches_pkey |          1171456
 2017-02-08 08:23:32.338974+01 | 1486538612.33897 | pgbench_tellers_pkey  |          3694592
 2017-02-08 08:23:32.338974+01 | 1486538612.33897 | pgbench_accounts_pkey |        673882112

 2017-02-08 08:23:33.397964+01 | 1486538613.39796 | pgbench_branches_pkey |          1171456
 2017-02-08 08:23:33.397964+01 | 1486538613.39796 | pgbench_tellers_pkey  |          3694592
 2017-02-08 08:23:33.397964+01 | 1486538613.39796 | pgbench_accounts_pkey |        673882112

 2017-02-08 08:23:34.459311+01 | 1486538614.45931 | pgbench_branches_pkey |          1171456
 2017-02-08 08:23:34.459311+01 | 1486538614.45931 | pgbench_tellers_pkey  |          3694592
 2017-02-08 08:23:34.459311+01 | 1486538614.45931 | pgbench_accounts_pkey |        673882112

 2017-02-08 08:23:35.519877+01 | 1486538615.51988 | pgbench_branches_pkey |          1171456
 2017-02-08 08:23:35.519877+01 | 1486538615.51988 | pgbench_tellers_pkey  |          3694592
 2017-02-08 08:23:35.519877+01 | 1486538615.51988 | pgbench_accounts_pkey |        673882112

 2017-02-08 08:23:36.578753+01 | 1486538616.57875 | pgbench_branches_pkey |          1171456
 2017-02-08 08:23:36.578753+01 | 1486538616.57875 | pgbench_tellers_pkey  |          3694592
 2017-02-08 08:23:36.578753+01 | 1486538616.57875 | pgbench_accounts_pkey |        673882112

 2017-02-08 08:23:37.641142+01 | 1486538617.64114 | pgbench_branches_pkey |          1171456
 2017-02-08 08:23:37.641142+01 | 1486538617.64114 | pgbench_tellers_pkey  |          3694592
 2017-02-08 08:23:37.641142+01 | 1486538617.64114 | pgbench_accounts_pkey |        673882112

 2017-02-08 08:23:38.705346+01 | 1486538618.70535 | pgbench_branches_pkey |          1171456
 2017-02-08 08:23:38.705346+01 | 1486538618.70535 | pgbench_tellers_pkey  |          3694592
 2017-02-08 08:23:38.705346+01 | 1486538618.70535 | pgbench_accounts_pkey |        673882112

 2017-02-08 08:23:39.778603+01 | 1486538619.7786 | pgbench_branches_pkey |          1171456
 2017-02-08 08:23:39.778603+01 | 1486538619.7786 | pgbench_tellers_pkey  |          3694592
 2017-02-08 08:23:39.778603+01 | 1486538619.7786 | pgbench_accounts_pkey |        673882112

 2017-02-08 08:23:40.837906+01 | 1486538620.83791 | pgbench_branches_pkey |          1171456
 2017-02-08 08:23:40.837906+01 | 1486538620.83791 | pgbench_tellers_pkey  |          3694592
 2017-02-08 08:23:40.837906+01 | 1486538620.83791 | pgbench_accounts_pkey |        673882112

 2017-02-08 08:23:41.894266+01 | 1486538621.89427 | pgbench_branches_pkey |          1171456
 2017-02-08 08:23:41.894266+01 | 1486538621.89427 | pgbench_tellers_pkey  |          3694592
 2017-02-08 08:23:41.894266+01 | 1486538621.89427 | pgbench_accounts_pkey |        673882112

 2017-02-08 08:23:42.958595+01 | 1486538622.9586 | pgbench_branches_pkey |          1171456
 2017-02-08 08:23:42.958595+01 | 1486538622.9586 | pgbench_tellers_pkey  |          3694592
 2017-02-08 08:23:42.958595+01 | 1486538622.9586 | pgbench_accounts_pkey |        673882112

 2017-02-08 08:23:44.017776+01 | 1486538624.01778 | pgbench_branches_pkey |          1171456
 2017-02-08 08:23:44.017776+01 | 1486538624.01778 | pgbench_tellers_pkey  |          3694592
 2017-02-08 08:23:44.017776+01 | 1486538624.01778 | pgbench_accounts_pkey |        673882112

 2017-02-08 08:23:45.087723+01 | 1486538625.08772 | pgbench_branches_pkey |          1171456
 2017-02-08 08:23:45.087723+01 | 1486538625.08772 | pgbench_tellers_pkey  |          3694592
 2017-02-08 08:23:45.087723+01 | 1486538625.08772 | pgbench_accounts_pkey |        673882112

 2017-02-08 08:23:46.149478+01 | 1486538626.14948 | pgbench_branches_pkey |          1171456
 2017-02-08 08:23:46.149478+01 | 1486538626.14948 | pgbench_tellers_pkey  |          3694592
 2017-02-08 08:23:46.149478+01 | 1486538626.14948 | pgbench_accounts_pkey |        673882112

 2017-02-08 08:23:47.211556+01 | 1486538627.21156 | pgbench_branches_pkey |          1171456
 2017-02-08 08:23:47.211556+01 | 1486538627.21156 | pgbench_tellers_pkey  |          3694592
 2017-02-08 08:23:47.211556+01 | 1486538627.21156 | pgbench_accounts_pkey |        673882112

 2017-02-08 08:23:48.274547+01 | 1486538628.27455 | pgbench_branches_pkey |          1171456
 2017-02-08 08:23:48.274547+01 | 1486538628.27455 | pgbench_tellers_pkey  |          3694592
 2017-02-08 08:23:48.274547+01 | 1486538628.27455 | pgbench_accounts_pkey |        673882112

 2017-02-08 08:23:49.349968+01 | 1486538629.34997 | pgbench_branches_pkey |          1171456
 2017-02-08 08:23:49.349968+01 | 1486538629.34997 | pgbench_tellers_pkey  |          3694592
 2017-02-08 08:23:49.349968+01 | 1486538629.34997 | pgbench_accounts_pkey |        673882112

 2017-02-08 08:23:50.416311+01 | 1486538630.41631 | pgbench_branches_pkey |          1171456
 2017-02-08 08:23:50.416311+01 | 1486538630.41631 | pgbench_tellers_pkey  |          3694592
 2017-02-08 08:23:50.416311+01 | 1486538630.41631 | pgbench_accounts_pkey |        673882112

 2017-02-08 08:23:51.472572+01 | 1486538631.47257 | pgbench_branches_pkey |          1171456
 2017-02-08 08:23:51.472572+01 | 1486538631.47257 | pgbench_tellers_pkey  |          3694592
 2017-02-08 08:23:51.472572+01 | 1486538631.47257 | pgbench_accounts_pkey |        673882112

 2017-02-08 08:23:52.537713+01 | 1486538632.53771 | pgbench_branches_pkey |          1171456
 2017-02-08 08:23:52.537713+01 | 1486538632.53771 | pgbench_tellers_pkey  |          3694592
 2017-02-08 08:23:52.537713+01 | 1486538632.53771 | pgbench_accounts_pkey |        673882112

 2017-02-08 08:23:53.602659+01 | 1486538633.60266 | pgbench_branches_pkey |          1171456
 2017-02-08 08:23:53.602659+01 | 1486538633.60266 | pgbench_tellers_pkey  |          3694592
 2017-02-08 08:23:53.602659+01 | 1486538633.60266 | pgbench_accounts_pkey |        673882112

 2017-02-08 08:23:54.66139+01 | 1486538634.66139 | pgbench_branches_pkey |          1171456
 2017-02-08 08:23:54.66139+01 | 1486538634.66139 | pgbench_tellers_pkey  |          3694592
 2017-02-08 08:23:54.66139+01 | 1486538634.66139 | pgbench_accounts_pkey |        673882112

 2017-02-08 08:23:55.719378+01 | 1486538635.71938 | pgbench_branches_pkey |          1171456
 2017-02-08 08:23:55.719378+01 | 1486538635.71938 | pgbench_tellers_pkey  |          3694592
 2017-02-08 08:23:55.719378+01 | 1486538635.71938 | pgbench_accounts_pkey |        673882112

 2017-02-08 08:23:56.781276+01 | 1486538636.78128 | pgbench_branches_pkey |          1171456
 2017-02-08 08:23:56.781276+01 | 1486538636.78128 | pgbench_tellers_pkey  |          3694592
 2017-02-08 08:23:56.781276+01 | 1486538636.78128 | pgbench_accounts_pkey |        673882112

 2017-02-08 08:23:57.845573+01 | 1486538637.84557 | pgbench_branches_pkey |          1171456
 2017-02-08 08:23:57.845573+01 | 1486538637.84557 | pgbench_tellers_pkey  |          3694592
 2017-02-08 08:23:57.845573+01 | 1486538637.84557 | pgbench_accounts_pkey |        673882112

 2017-02-08 08:23:58.911983+01 | 1486538638.91198 | pgbench_branches_pkey |          1171456
 2017-02-08 08:23:58.911983+01 | 1486538638.91198 | pgbench_tellers_pkey  |          3694592
 2017-02-08 08:23:58.911983+01 | 1486538638.91198 | pgbench_accounts_pkey |        673882112

 2017-02-08 08:23:59.970899+01 | 1486538639.9709 | pgbench_branches_pkey |          1171456
 2017-02-08 08:23:59.970899+01 | 1486538639.9709 | pgbench_tellers_pkey  |          3694592
 2017-02-08 08:23:59.970899+01 | 1486538639.9709 | pgbench_accounts_pkey |        673882112

 2017-02-08 08:24:01.032213+01 | 1486538641.03221 | pgbench_branches_pkey |          1171456
 2017-02-08 08:24:01.032213+01 | 1486538641.03221 | pgbench_tellers_pkey  |          3694592
 2017-02-08 08:24:01.032213+01 | 1486538641.03221 | pgbench_accounts_pkey |        673882112

 2017-02-08 08:24:02.09065+01 | 1486538642.09065 | pgbench_branches_pkey |          1171456
 2017-02-08 08:24:02.09065+01 | 1486538642.09065 | pgbench_tellers_pkey  |          3694592
 2017-02-08 08:24:02.09065+01 | 1486538642.09065 | pgbench_accounts_pkey |        673882112

 2017-02-08 08:24:03.146011+01 | 1486538643.14601 | pgbench_branches_pkey |          1171456
 2017-02-08 08:24:03.146011+01 | 1486538643.14601 | pgbench_tellers_pkey  |          3694592
 2017-02-08 08:24:03.146011+01 | 1486538643.14601 | pgbench_accounts_pkey |        673882112

 2017-02-08 08:24:04.223218+01 | 1486538644.22322 | pgbench_branches_pkey |          1171456
 2017-02-08 08:24:04.223218+01 | 1486538644.22322 | pgbench_tellers_pkey  |          3694592
 2017-02-08 08:24:04.223218+01 | 1486538644.22322 | pgbench_accounts_pkey |        673882112

 2017-02-08 08:24:05.289304+01 | 1486538645.2893 | pgbench_branches_pkey |          1171456
 2017-02-08 08:24:05.289304+01 | 1486538645.2893 | pgbench_tellers_pkey  |          3694592
 2017-02-08 08:24:05.289304+01 | 1486538645.2893 | pgbench_accounts_pkey |        673882112

 2017-02-08 08:24:06.354942+01 | 1486538646.35494 | pgbench_branches_pkey |          1171456
 2017-02-08 08:24:06.354942+01 | 1486538646.35494 | pgbench_tellers_pkey  |          3694592
 2017-02-08 08:24:06.354942+01 | 1486538646.35494 | pgbench_accounts_pkey |        673882112

 2017-02-08 08:24:07.412608+01 | 1486538647.41261 | pgbench_branches_pkey |          1171456
 2017-02-08 08:24:07.412608+01 | 1486538647.41261 | pgbench_tellers_pkey  |          3694592
 2017-02-08 08:24:07.412608+01 | 1486538647.41261 | pgbench_accounts_pkey |        673882112

 2017-02-08 08:24:08.475416+01 | 1486538648.47542 | pgbench_branches_pkey |          1171456
 2017-02-08 08:24:08.475416+01 | 1486538648.47542 | pgbench_tellers_pkey  |          3694592
 2017-02-08 08:24:08.475416+01 | 1486538648.47542 | pgbench_accounts_pkey |        673882112

 2017-02-08 08:24:09.536442+01 | 1486538649.53644 | pgbench_branches_pkey |          1171456
 2017-02-08 08:24:09.536442+01 | 1486538649.53644 | pgbench_tellers_pkey  |          3694592
 2017-02-08 08:24:09.536442+01 | 1486538649.53644 | pgbench_accounts_pkey |        673882112

 2017-02-08 08:24:10.600711+01 | 1486538650.60071 | pgbench_branches_pkey |          1171456
 2017-02-08 08:24:10.600711+01 | 1486538650.60071 | pgbench_tellers_pkey  |          3694592
 2017-02-08 08:24:10.600711+01 | 1486538650.60071 | pgbench_accounts_pkey |        673882112

 2017-02-08 08:24:11.664675+01 | 1486538651.66467 | pgbench_branches_pkey |          1171456
 2017-02-08 08:24:11.664675+01 | 1486538651.66467 | pgbench_tellers_pkey  |          3694592
 2017-02-08 08:24:11.664675+01 | 1486538651.66467 | pgbench_accounts_pkey |        673882112

 2017-02-08 08:24:12.722342+01 | 1486538652.72234 | pgbench_branches_pkey |          1171456
 2017-02-08 08:24:12.722342+01 | 1486538652.72234 | pgbench_tellers_pkey  |          3694592
 2017-02-08 08:24:12.722342+01 | 1486538652.72234 | pgbench_accounts_pkey |        673882112

 2017-02-08 08:24:13.782472+01 | 1486538653.78247 | pgbench_branches_pkey |          1171456
 2017-02-08 08:24:13.782472+01 | 1486538653.78247 | pgbench_tellers_pkey  |          3694592
 2017-02-08 08:24:13.782472+01 | 1486538653.78247 | pgbench_accounts_pkey |        673882112

 2017-02-08 08:24:14.844129+01 | 1486538654.84413 | pgbench_branches_pkey |          1171456
 2017-02-08 08:24:14.844129+01 | 1486538654.84413 | pgbench_tellers_pkey  |          3694592
 2017-02-08 08:24:14.844129+01 | 1486538654.84413 | pgbench_accounts_pkey |        673882112

 2017-02-08 08:24:15.900395+01 | 1486538655.90039 | pgbench_branches_pkey |          1171456
 2017-02-08 08:24:15.900395+01 | 1486538655.90039 | pgbench_tellers_pkey  |          3694592
 2017-02-08 08:24:15.900395+01 | 1486538655.90039 | pgbench_accounts_pkey |        673882112

 2017-02-08 08:24:16.962945+01 | 1486538656.96294 | pgbench_branches_pkey |          1171456
 2017-02-08 08:24:16.962945+01 | 1486538656.96294 | pgbench_tellers_pkey  |          3694592
 2017-02-08 08:24:16.962945+01 | 1486538656.96294 | pgbench_accounts_pkey |        673882112

 2017-02-08 08:24:18.018238+01 | 1486538658.01824 | pgbench_branches_pkey |          1171456
 2017-02-08 08:24:18.018238+01 | 1486538658.01824 | pgbench_tellers_pkey  |          3694592
 2017-02-08 08:24:18.018238+01 | 1486538658.01824 | pgbench_accounts_pkey |        673882112

 2017-02-08 08:24:19.074145+01 | 1486538659.07415 | pgbench_branches_pkey |          1171456
 2017-02-08 08:24:19.074145+01 | 1486538659.07415 | pgbench_tellers_pkey  |          3694592
 2017-02-08 08:24:19.074145+01 | 1486538659.07415 | pgbench_accounts_pkey |        673882112

 2017-02-08 08:24:20.130673+01 | 1486538660.13067 | pgbench_branches_pkey |          1171456
 2017-02-08 08:24:20.130673+01 | 1486538660.13067 | pgbench_tellers_pkey  |          3694592
 2017-02-08 08:24:20.130673+01 | 1486538660.13067 | pgbench_accounts_pkey |        673882112

 2017-02-08 08:24:21.191708+01 | 1486538661.19171 | pgbench_branches_pkey |          1171456
 2017-02-08 08:24:21.191708+01 | 1486538661.19171 | pgbench_tellers_pkey  |          3694592
 2017-02-08 08:24:21.191708+01 | 1486538661.19171 | pgbench_accounts_pkey |        673882112

 2017-02-08 08:24:22.244481+01 | 1486538662.24448 | pgbench_branches_pkey |          1171456
 2017-02-08 08:24:22.244481+01 | 1486538662.24448 | pgbench_tellers_pkey  |          3694592
 2017-02-08 08:24:22.244481+01 | 1486538662.24448 | pgbench_accounts_pkey |        673882112

 2017-02-08 08:24:23.299515+01 | 1486538663.29952 | pgbench_branches_pkey |          1171456
 2017-02-08 08:24:23.299515+01 | 1486538663.29952 | pgbench_tellers_pkey  |          3694592
 2017-02-08 08:24:23.299515+01 | 1486538663.29952 | pgbench_accounts_pkey |        673882112

 2017-02-08 08:24:24.366514+01 | 1486538664.36651 | pgbench_branches_pkey |          1171456
 2017-02-08 08:24:24.366514+01 | 1486538664.36651 | pgbench_tellers_pkey  |          3694592
 2017-02-08 08:24:24.366514+01 | 1486538664.36651 | pgbench_accounts_pkey |        673882112

 2017-02-08 08:24:25.433771+01 | 1486538665.43377 | pgbench_branches_pkey |          1171456
 2017-02-08 08:24:25.433771+01 | 1486538665.43377 | pgbench_tellers_pkey  |          3694592
 2017-02-08 08:24:25.433771+01 | 1486538665.43377 | pgbench_accounts_pkey |        673882112

 2017-02-08 08:24:26.51236+01 | 1486538666.51236 | pgbench_branches_pkey |          1171456
 2017-02-08 08:24:26.51236+01 | 1486538666.51236 | pgbench_tellers_pkey  |          3694592
 2017-02-08 08:24:26.51236+01 | 1486538666.51236 | pgbench_accounts_pkey |        673882112

 2017-02-08 08:24:27.570804+01 | 1486538667.5708 | pgbench_branches_pkey |          1171456
 2017-02-08 08:24:27.570804+01 | 1486538667.5708 | pgbench_tellers_pkey  |          3694592
 2017-02-08 08:24:27.570804+01 | 1486538667.5708 | pgbench_accounts_pkey |        673882112

 2017-02-08 08:24:28.623882+01 | 1486538668.62388 | pgbench_branches_pkey |          1171456
 2017-02-08 08:24:28.623882+01 | 1486538668.62388 | pgbench_tellers_pkey  |          3694592
 2017-02-08 08:24:28.623882+01 | 1486538668.62388 | pgbench_accounts_pkey |        673882112

 2017-02-08 08:24:29.680647+01 | 1486538669.68065 | pgbench_branches_pkey |          1171456
 2017-02-08 08:24:29.680647+01 | 1486538669.68065 | pgbench_tellers_pkey  |          3694592
 2017-02-08 08:24:29.680647+01 | 1486538669.68065 | pgbench_accounts_pkey |        673882112

 2017-02-08 08:24:30.743879+01 | 1486538670.74388 | pgbench_branches_pkey |          1171456
 2017-02-08 08:24:30.743879+01 | 1486538670.74388 | pgbench_tellers_pkey  |          3694592
 2017-02-08 08:24:30.743879+01 | 1486538670.74388 | pgbench_accounts_pkey |        673882112

 2017-02-08 08:24:31.798056+01 | 1486538671.79806 | pgbench_branches_pkey |          1171456
 2017-02-08 08:24:31.798056+01 | 1486538671.79806 | pgbench_tellers_pkey  |          3694592
 2017-02-08 08:24:31.798056+01 | 1486538671.79806 | pgbench_accounts_pkey |        673882112

 2017-02-08 08:24:32.854689+01 | 1486538672.85469 | pgbench_branches_pkey |          1171456
 2017-02-08 08:24:32.854689+01 | 1486538672.85469 | pgbench_tellers_pkey  |          3694592
 2017-02-08 08:24:32.854689+01 | 1486538672.85469 | pgbench_accounts_pkey |        673882112

 2017-02-08 08:24:33.915067+01 | 1486538673.91507 | pgbench_branches_pkey |          1171456
 2017-02-08 08:24:33.915067+01 | 1486538673.91507 | pgbench_tellers_pkey  |          3694592
 2017-02-08 08:24:33.915067+01 | 1486538673.91507 | pgbench_accounts_pkey |        673882112

