 2017-02-08 07:38:08.050663+01 | 1486535888.05066 |                 0 |              13 |                  7362 |                 1815 |            1278847 |         40713 |              405 |          484015 |                     0 |        340119 | 2017-02-08 06:37:47.244902+01

 2017-02-08 07:38:09.102472+01 | 1486535889.10247 |                 0 |              13 |                  7362 |                 1815 |            1278847 |         40713 |              405 |          484015 |                     0 |        340192 | 2017-02-08 06:37:47.244902+01

 2017-02-08 07:38:10.157439+01 | 1486535890.15744 |                 0 |              13 |                  7362 |                 1815 |            1278847 |         40713 |              405 |          484015 |                     0 |        340245 | 2017-02-08 06:37:47.244902+01

 2017-02-08 07:38:11.213324+01 | 1486535891.21332 |                 0 |              13 |                  7362 |                 1815 |            1278847 |         40713 |              405 |          484015 |                     0 |        340317 | 2017-02-08 06:37:47.244902+01

 2017-02-08 07:38:12.266658+01 | 1486535892.26666 |                 0 |              13 |                  7362 |                 1815 |            1278847 |         40713 |              405 |          484015 |                     0 |        340393 | 2017-02-08 06:37:47.244902+01

 2017-02-08 07:38:13.319906+01 | 1486535893.31991 |                 0 |              13 |                  7362 |                 1815 |            1278847 |         40713 |              405 |          484015 |                     0 |        340483 | 2017-02-08 06:37:47.244902+01

 2017-02-08 07:38:14.374096+01 | 1486535894.3741 |                 0 |              13 |                  7362 |                 1815 |            1278847 |         40713 |              405 |          484015 |                     0 |        340515 | 2017-02-08 06:37:47.244902+01

 2017-02-08 07:38:15.429493+01 | 1486535895.42949 |                 0 |              13 |                  7362 |                 1815 |            1278847 |         40713 |              405 |          484015 |                     0 |        340579 | 2017-02-08 06:37:47.244902+01

 2017-02-08 07:38:16.485847+01 | 1486535896.48585 |                 0 |              13 |                  7362 |                 1815 |            1278847 |         40713 |              405 |          484015 |                     0 |        340643 | 2017-02-08 06:37:47.244902+01

 2017-02-08 07:38:17.541224+01 | 1486535897.54122 |                 0 |              13 |                  7362 |                 1815 |            1278847 |         40713 |              405 |          484015 |                     0 |        340707 | 2017-02-08 06:37:47.244902+01

 2017-02-08 07:38:18.596742+01 | 1486535898.59674 |                 0 |              13 |                  7362 |                 1815 |            1278847 |         40713 |              405 |          484015 |                     0 |        340790 | 2017-02-08 06:37:47.244902+01

 2017-02-08 07:38:19.653864+01 | 1486535899.65386 |                 0 |              13 |                  7362 |                 1815 |            1278847 |         40713 |              405 |          484015 |                     0 |        340854 | 2017-02-08 06:37:47.244902+01

 2017-02-08 07:38:20.708105+01 | 1486535900.70811 |                 0 |              13 |                  7362 |                 1815 |            1278847 |         40713 |              405 |          484015 |                     0 |        340915 | 2017-02-08 06:37:47.244902+01

 2017-02-08 07:38:21.768388+01 | 1486535901.76839 |                 0 |              13 |                  7362 |                 1815 |            1278847 |         40713 |              405 |          484015 |                     0 |        340976 | 2017-02-08 06:37:47.244902+01

 2017-02-08 07:38:22.824609+01 | 1486535902.82461 |                 0 |              13 |                  7362 |                 1815 |            1278847 |         40713 |              405 |          484015 |                     0 |        341056 | 2017-02-08 06:37:47.244902+01

 2017-02-08 07:38:23.887078+01 | 1486535903.88708 |                 0 |              13 |                  7362 |                 1815 |            1278847 |         40713 |              405 |          484015 |                     0 |        341120 | 2017-02-08 06:37:47.244902+01

 2017-02-08 07:38:24.944511+01 | 1486535904.94451 |                 0 |              13 |                  7362 |                 1815 |            1278847 |         40713 |              405 |          484015 |                     0 |        341185 | 2017-02-08 06:37:47.244902+01

 2017-02-08 07:38:26.002203+01 | 1486535906.0022 |                 0 |              13 |                  7362 |                 1815 |            1278847 |         40713 |              405 |          484015 |                     0 |        341275 | 2017-02-08 06:37:47.244902+01

 2017-02-08 07:38:27.071116+01 | 1486535907.07112 |                 0 |              13 |                  7362 |                 1815 |            1278847 |         40713 |              405 |          484015 |                     0 |        341330 | 2017-02-08 06:37:47.244902+01

 2017-02-08 07:38:28.126833+01 | 1486535908.12683 |                 0 |              13 |                  7362 |                 1815 |            1278847 |         40713 |              405 |          484015 |                     0 |        341400 | 2017-02-08 06:37:47.244902+01

 2017-02-08 07:38:29.189389+01 | 1486535909.18939 |                 0 |              13 |                  7362 |                 1815 |            1278847 |         40713 |              405 |          484015 |                     0 |        341474 | 2017-02-08 06:37:47.244902+01

 2017-02-08 07:38:30.243624+01 | 1486535910.24362 |                 0 |              13 |                  7362 |                 1815 |            1278847 |         40713 |              405 |          484015 |                     0 |        341538 | 2017-02-08 06:37:47.244902+01

 2017-02-08 07:38:31.303748+01 | 1486535911.30375 |                 0 |              13 |                  7362 |                 1815 |            1278847 |         40713 |              405 |          484015 |                     0 |        341611 | 2017-02-08 06:37:47.244902+01

 2017-02-08 07:38:32.357173+01 | 1486535912.35717 |                 0 |              13 |                  7362 |                 1815 |            1278847 |         40713 |              405 |          484015 |                     0 |        341681 | 2017-02-08 06:37:47.244902+01

 2017-02-08 07:38:33.416598+01 | 1486535913.4166 |                 0 |              13 |                  7362 |                 1815 |            1278847 |         40713 |              405 |          484015 |                     0 |        341769 | 2017-02-08 06:37:47.244902+01

 2017-02-08 07:38:34.472826+01 | 1486535914.47283 |                 0 |              13 |                  7362 |                 1815 |            1278847 |         40713 |              405 |          484015 |                     0 |        341833 | 2017-02-08 06:37:47.244902+01

 2017-02-08 07:38:35.528902+01 | 1486535915.5289 |                 0 |              13 |                  7362 |                 1815 |            1278847 |         40713 |              405 |          484015 |                     0 |        341905 | 2017-02-08 06:37:47.244902+01

 2017-02-08 07:38:36.584961+01 | 1486535916.58496 |                 0 |              13 |                  7362 |                 1815 |            1278847 |         40713 |              405 |          484015 |                     0 |        341971 | 2017-02-08 06:37:47.244902+01

 2017-02-08 07:38:37.639706+01 | 1486535917.63971 |                 0 |              13 |                  7362 |                 1815 |            1278847 |         40713 |              405 |          484015 |                     0 |        342056 | 2017-02-08 06:37:47.244902+01

 2017-02-08 07:38:38.695667+01 | 1486535918.69567 |                 0 |              13 |                  7362 |                 1815 |            1278847 |         40713 |              405 |          484015 |                     0 |        342124 | 2017-02-08 06:37:47.244902+01

 2017-02-08 07:38:39.750492+01 | 1486535919.75049 |                 0 |              13 |                  7362 |                 1815 |            1278847 |         40713 |              405 |          484015 |                     0 |        342194 | 2017-02-08 06:37:47.244902+01

 2017-02-08 07:38:40.805628+01 | 1486535920.80563 |                 0 |              13 |                  7362 |                 1815 |            1278847 |         40713 |              405 |          484015 |                     0 |        342278 | 2017-02-08 06:37:47.244902+01

 2017-02-08 07:38:41.861431+01 | 1486535921.86143 |                 0 |              13 |                  7362 |                 1815 |            1278847 |         40713 |              405 |          484015 |                     0 |        342347 | 2017-02-08 06:37:47.244902+01

 2017-02-08 07:38:42.914713+01 | 1486535922.91471 |                 0 |              13 |                  7362 |                 1815 |            1278847 |         40713 |              405 |          484015 |                     0 |        342414 | 2017-02-08 06:37:47.244902+01

 2017-02-08 07:38:43.968804+01 | 1486535923.9688 |                 0 |              13 |                  7362 |                 1815 |            1278847 |         40713 |              405 |          484015 |                     0 |        342483 | 2017-02-08 06:37:47.244902+01

 2017-02-08 07:38:45.021055+01 | 1486535925.02105 |                 0 |              13 |                  7362 |                 1815 |            1278847 |         40713 |              405 |          484015 |                     0 |        342566 | 2017-02-08 06:37:47.244902+01

 2017-02-08 07:38:46.074711+01 | 1486535926.07471 |                 0 |              13 |                  7362 |                 1815 |            1278847 |         40713 |              405 |          484015 |                     0 |        342633 | 2017-02-08 06:37:47.244902+01

 2017-02-08 07:38:47.136951+01 | 1486535927.13695 |                 0 |              13 |                  7362 |                 1815 |            1278847 |         40713 |              405 |          484015 |                     0 |        342705 | 2017-02-08 06:37:47.244902+01

 2017-02-08 07:38:48.190879+01 | 1486535928.19088 |                 0 |              13 |                  7362 |                 1815 |            1278847 |         40713 |              405 |          484015 |                     0 |        342775 | 2017-02-08 06:37:47.244902+01

 2017-02-08 07:38:49.241771+01 | 1486535929.24177 |                 0 |              13 |                  7362 |                 1815 |            1278847 |         40713 |              405 |          484015 |                     0 |        342855 | 2017-02-08 06:37:47.244902+01

 2017-02-08 07:38:50.300294+01 | 1486535930.30029 |                 0 |              13 |                  7362 |                 1815 |            1278847 |         40713 |              405 |          484015 |                     0 |        342925 | 2017-02-08 06:37:47.244902+01

 2017-02-08 07:38:51.356916+01 | 1486535931.35692 |                 0 |              13 |                  7362 |                 1815 |            1278847 |         40713 |              405 |          484015 |                     0 |        342993 | 2017-02-08 06:37:47.244902+01

 2017-02-08 07:38:52.406634+01 | 1486535932.40663 |                 0 |              13 |                  7362 |                 1815 |            1278847 |         40713 |              405 |          484015 |                     0 |        343076 | 2017-02-08 06:37:47.244902+01

 2017-02-08 07:38:53.464466+01 | 1486535933.46447 |                 0 |              13 |                  7362 |                 1815 |            1278847 |         40713 |              405 |          484015 |                     0 |        343145 | 2017-02-08 06:37:47.244902+01

 2017-02-08 07:38:54.522667+01 | 1486535934.52267 |                 0 |              13 |                  7362 |                 1815 |            1278847 |         40713 |              405 |          484015 |                     0 |        343213 | 2017-02-08 06:37:47.244902+01

 2017-02-08 07:38:55.574771+01 | 1486535935.57477 |                 0 |              13 |                  7362 |                 1815 |            1278847 |         40713 |              405 |          484015 |                     0 |        343283 | 2017-02-08 06:37:47.244902+01

 2017-02-08 07:38:56.627661+01 | 1486535936.62766 |                 0 |              13 |                  7362 |                 1815 |            1278847 |         40713 |              405 |          484015 |                     0 |        343364 | 2017-02-08 06:37:47.244902+01

 2017-02-08 07:38:57.683946+01 | 1486535937.68395 |                 0 |              13 |                  7362 |                 1815 |            1278847 |         40713 |              405 |          484015 |                     0 |        343434 | 2017-02-08 06:37:47.244902+01

 2017-02-08 07:38:58.745986+01 | 1486535938.74599 |                 0 |              13 |                  7362 |                 1815 |            1278847 |         40713 |              405 |          484015 |                     0 |        343503 | 2017-02-08 06:37:47.244902+01

 2017-02-08 07:38:59.804539+01 | 1486535939.80454 |                 0 |              13 |                  7362 |                 1815 |            1278847 |         40713 |              405 |          484015 |                     0 |        343572 | 2017-02-08 06:37:47.244902+01

 2017-02-08 07:39:00.865154+01 | 1486535940.86515 |                 0 |              13 |                  7362 |                 1815 |            1278847 |         40713 |              405 |          484015 |                     0 |        343658 | 2017-02-08 06:37:47.244902+01

 2017-02-08 07:39:01.923658+01 | 1486535941.92366 |                 0 |              13 |                  7362 |                 1815 |            1278847 |         40713 |              405 |          484015 |                     0 |        343726 | 2017-02-08 06:37:47.244902+01

 2017-02-08 07:39:02.976664+01 | 1486535942.97666 |                 0 |              13 |                  7362 |                 1815 |            1278847 |         40713 |              405 |          484015 |                     0 |        343796 | 2017-02-08 06:37:47.244902+01

 2017-02-08 07:39:04.029989+01 | 1486535944.02999 |                 0 |              13 |                  7362 |                 1815 |            1278847 |         40713 |              405 |          484015 |                     0 |        343885 | 2017-02-08 06:37:47.244902+01

 2017-02-08 07:39:05.090212+01 | 1486535945.09021 |                 0 |              13 |                  7362 |                 1815 |            1278847 |         40713 |              405 |          484015 |                     0 |        343988 | 2017-02-08 06:37:47.244902+01

 2017-02-08 07:39:06.146044+01 | 1486535946.14604 |                 0 |              13 |                  7362 |                 1815 |            1278847 |         40713 |              405 |          484015 |                     0 |        344034 | 2017-02-08 06:37:47.244902+01

 2017-02-08 07:39:07.203062+01 | 1486535947.20306 |                 0 |              13 |                  7362 |                 1815 |            1278847 |         40713 |              405 |          484015 |                     0 |        344107 | 2017-02-08 06:37:47.244902+01

 2017-02-08 07:39:08.25713+01 | 1486535948.25713 |                 0 |              13 |                  7362 |                 1815 |            1278847 |         40713 |              405 |          484015 |                     0 |        344161 | 2017-02-08 06:37:47.244902+01

 2017-02-08 07:39:09.312917+01 | 1486535949.31292 |                 0 |              13 |                  7362 |                 1815 |            1278847 |         40713 |              405 |          484015 |                     0 |        344248 | 2017-02-08 06:37:47.244902+01

 2017-02-08 07:39:10.364544+01 | 1486535950.36454 |                 0 |              13 |                  7362 |                 1815 |            1278847 |         40713 |              405 |          484015 |                     0 |        344314 | 2017-02-08 06:37:47.244902+01

 2017-02-08 07:39:11.417549+01 | 1486535951.41755 |                 0 |              13 |                  7362 |                 1815 |            1278847 |         40713 |              405 |          484015 |                     0 |        344386 | 2017-02-08 06:37:47.244902+01

 2017-02-08 07:39:12.477728+01 | 1486535952.47773 |                 0 |              13 |                  7362 |                 1815 |            1278847 |         40713 |              405 |          484015 |                     0 |        344455 | 2017-02-08 06:37:47.244902+01

 2017-02-08 07:39:13.532661+01 | 1486535953.53266 |                 0 |              13 |                  7362 |                 1815 |            1278847 |         40713 |              405 |          484015 |                     0 |        344536 | 2017-02-08 06:37:47.244902+01

 2017-02-08 07:39:14.591533+01 | 1486535954.59153 |                 0 |              13 |                  7362 |                 1815 |            1278847 |         40713 |              405 |          484015 |                     0 |        344604 | 2017-02-08 06:37:47.244902+01

 2017-02-08 07:39:15.648142+01 | 1486535955.64814 |                 0 |              13 |                  7362 |                 1815 |            1278847 |         40713 |              405 |          484015 |                     0 |        344675 | 2017-02-08 06:37:47.244902+01

 2017-02-08 07:39:16.69881+01 | 1486535956.69881 |                 0 |              13 |                  7362 |                 1815 |            1278847 |         40713 |              405 |          484015 |                     0 |        344745 | 2017-02-08 06:37:47.244902+01

 2017-02-08 07:39:17.757807+01 | 1486535957.75781 |                 0 |              13 |                  7362 |                 1815 |            1278847 |         40713 |              405 |          484015 |                     0 |        344827 | 2017-02-08 06:37:47.244902+01

 2017-02-08 07:39:18.812195+01 | 1486535958.8122 |                 0 |              13 |                  7362 |                 1815 |            1278847 |         40713 |              405 |          484015 |                     0 |        344893 | 2017-02-08 06:37:47.244902+01

 2017-02-08 07:39:19.874589+01 | 1486535959.87459 |                 0 |              13 |                  7362 |                 1815 |            1278847 |         40713 |              405 |          484015 |                     0 |        344961 | 2017-02-08 06:37:47.244902+01

 2017-02-08 07:39:20.93675+01 | 1486535960.93675 |                 0 |              13 |                  7362 |                 1815 |            1278847 |         40713 |              405 |          484015 |                     0 |        345039 | 2017-02-08 06:37:47.244902+01

 2017-02-08 07:39:21.998165+01 | 1486535961.99816 |                 0 |              13 |                  7362 |                 1815 |            1278847 |         40713 |              405 |          484015 |                     0 |        345104 | 2017-02-08 06:37:47.244902+01

 2017-02-08 07:39:23.051599+01 | 1486535963.0516 |                 0 |              13 |                  7362 |                 1815 |            1278847 |         40713 |              405 |          484015 |                     0 |        345170 | 2017-02-08 06:37:47.244902+01

 2017-02-08 07:39:24.11437+01 | 1486535964.11437 |                 0 |              13 |                  7362 |                 1815 |            1278847 |         40713 |              405 |          484015 |                     0 |        345234 | 2017-02-08 06:37:47.244902+01

 2017-02-08 07:39:25.197305+01 | 1486535965.1973 |                 0 |              13 |                  7362 |                 1815 |            1278847 |         40713 |              405 |          484015 |                     0 |        345300 | 2017-02-08 06:37:47.244902+01

 2017-02-08 07:39:26.252431+01 | 1486535966.25243 |                 0 |              13 |                  7362 |                 1815 |            1278847 |         40713 |              405 |          484015 |                     0 |        345391 | 2017-02-08 06:37:47.244902+01

 2017-02-08 07:39:27.309087+01 | 1486535967.30909 |                 0 |              13 |                  7362 |                 1815 |            1278847 |         40713 |              405 |          484015 |                     0 |        345455 | 2017-02-08 06:37:47.244902+01

 2017-02-08 07:39:28.370106+01 | 1486535968.37011 |                 0 |              13 |                  7362 |                 1815 |            1278847 |         40713 |              405 |          484015 |                     0 |        345535 | 2017-02-08 06:37:47.244902+01

 2017-02-08 07:39:29.424758+01 | 1486535969.42476 |                 0 |              13 |                  7362 |                 1815 |            1278847 |         40713 |              405 |          484015 |                     0 |        345603 | 2017-02-08 06:37:47.244902+01

 2017-02-08 07:39:30.480536+01 | 1486535970.48054 |                 0 |              13 |                  7362 |                 1815 |            1278847 |         40713 |              405 |          484015 |                     0 |        345669 | 2017-02-08 06:37:47.244902+01

 2017-02-08 07:39:31.543024+01 | 1486535971.54302 |                 0 |              13 |                  7362 |                 1815 |            1278847 |         40713 |              405 |          484015 |                     0 |        345740 | 2017-02-08 06:37:47.244902+01

 2017-02-08 07:39:32.595204+01 | 1486535972.5952 |                 0 |              13 |                  7362 |                 1815 |            1278847 |         40713 |              405 |          484015 |                     0 |        345826 | 2017-02-08 06:37:47.244902+01

 2017-02-08 07:39:33.646896+01 | 1486535973.6469 |                 0 |              13 |                  7362 |                 1815 |            1278847 |         40713 |              405 |          484015 |                     0 |        345893 | 2017-02-08 06:37:47.244902+01

 2017-02-08 07:39:34.703928+01 | 1486535974.70393 |                 0 |              13 |                  7362 |                 1815 |            1278847 |         40713 |              405 |          484015 |                     0 |        345964 | 2017-02-08 06:37:47.244902+01

 2017-02-08 07:39:35.761333+01 | 1486535975.76133 |                 0 |              13 |                  7362 |                 1815 |            1278847 |         40713 |              405 |          484015 |                     0 |        346030 | 2017-02-08 06:37:47.244902+01

 2017-02-08 07:39:36.813367+01 | 1486535976.81337 |                 0 |              13 |                  7362 |                 1815 |            1278847 |         40713 |              405 |          484015 |                     0 |        346112 | 2017-02-08 06:37:47.244902+01

 2017-02-08 07:39:37.868659+01 | 1486535977.86866 |                 0 |              13 |                  7362 |                 1815 |            1278847 |         40713 |              405 |          484015 |                     0 |        346181 | 2017-02-08 06:37:47.244902+01

 2017-02-08 07:39:38.92722+01 | 1486535978.92722 |                 0 |              13 |                  7362 |                 1815 |            1278847 |         40713 |              405 |          484015 |                     0 |        346248 | 2017-02-08 06:37:47.244902+01

 2017-02-08 07:39:39.983412+01 | 1486535979.98341 |                 0 |              13 |                  7362 |                 1815 |            1278847 |         40713 |              405 |          484015 |                     0 |        346315 | 2017-02-08 06:37:47.244902+01

 2017-02-08 07:39:41.039621+01 | 1486535981.03962 |                 0 |              13 |                  7362 |                 1815 |            1278847 |         40713 |              405 |          484015 |                     0 |        346398 | 2017-02-08 06:37:47.244902+01

 2017-02-08 07:39:42.095005+01 | 1486535982.09501 |                 0 |              13 |                  7362 |                 1815 |            1278847 |         40713 |              405 |          484015 |                     0 |        346465 | 2017-02-08 06:37:47.244902+01

 2017-02-08 07:39:43.150028+01 | 1486535983.15003 |                 0 |              13 |                  7362 |                 1815 |            1278847 |         40713 |              405 |          484015 |                     0 |        346534 | 2017-02-08 06:37:47.244902+01

 2017-02-08 07:39:44.20401+01 | 1486535984.20401 |                 0 |              13 |                  7362 |                 1815 |            1278847 |         40713 |              405 |          484015 |                     0 |        346614 | 2017-02-08 06:37:47.244902+01

 2017-02-08 07:39:45.263988+01 | 1486535985.26399 |                 0 |              13 |                  7362 |                 1815 |            1278847 |         40713 |              405 |          484015 |                     0 |        346688 | 2017-02-08 06:37:47.244902+01

 2017-02-08 07:39:46.323696+01 | 1486535986.3237 |                 0 |              13 |                  7362 |                 1815 |            1278847 |         40713 |              405 |          484015 |                     0 |        346753 | 2017-02-08 06:37:47.244902+01

 2017-02-08 07:39:47.38055+01 | 1486535987.38055 |                 0 |              13 |                  7362 |                 1815 |            1278847 |         40713 |              405 |          484015 |                     0 |        346818 | 2017-02-08 06:37:47.244902+01

 2017-02-08 07:39:48.436127+01 | 1486535988.43613 |                 0 |              13 |                  7362 |                 1815 |            1278847 |         40713 |              405 |          484015 |                     0 |        346902 | 2017-02-08 06:37:47.244902+01

 2017-02-08 07:39:49.491492+01 | 1486535989.49149 |                 0 |              13 |                  7362 |                 1815 |            1278847 |         40713 |              405 |          484015 |                     0 |        346973 | 2017-02-08 06:37:47.244902+01

 2017-02-08 07:39:50.54292+01 | 1486535990.54292 |                 0 |              13 |                  7362 |                 1815 |            1278847 |         40713 |              405 |          484015 |                     0 |        347042 | 2017-02-08 06:37:47.244902+01

 2017-02-08 07:39:51.595766+01 | 1486535991.59577 |                 0 |              13 |                  7362 |                 1815 |            1278847 |         40713 |              405 |          484015 |                     0 |        347108 | 2017-02-08 06:37:47.244902+01

 2017-02-08 07:39:52.652272+01 | 1486535992.65227 |                 0 |              13 |                  7362 |                 1815 |            1278847 |         40713 |              405 |          484015 |                     0 |        347190 | 2017-02-08 06:37:47.244902+01

 2017-02-08 07:39:53.708546+01 | 1486535993.70855 |                 0 |              13 |                  7362 |                 1815 |            1278847 |         40713 |              405 |          484015 |                     0 |        347258 | 2017-02-08 06:37:47.244902+01

 2017-02-08 07:39:54.762415+01 | 1486535994.76241 |                 0 |              13 |                  7362 |                 1815 |            1278847 |         40713 |              405 |          484015 |                     0 |        347326 | 2017-02-08 06:37:47.244902+01

 2017-02-08 07:39:55.828125+01 | 1486535995.82812 |                 0 |              13 |                  7362 |                 1815 |            1278847 |         40713 |              405 |          484015 |                     0 |        347406 | 2017-02-08 06:37:47.244902+01

 2017-02-08 07:39:56.886723+01 | 1486535996.88672 |                 0 |              13 |                  7362 |                 1815 |            1278847 |         40713 |              405 |          484015 |                     0 |        347476 | 2017-02-08 06:37:47.244902+01

 2017-02-08 07:39:57.943877+01 | 1486535997.94388 |                 0 |              13 |                  7362 |                 1815 |            1278847 |         40713 |              405 |          484015 |                     0 |        347544 | 2017-02-08 06:37:47.244902+01

 2017-02-08 07:39:58.999988+01 | 1486535998.99999 |                 0 |              13 |                  7362 |                 1815 |            1278847 |         40713 |              405 |          484015 |                     0 |        347611 | 2017-02-08 06:37:47.244902+01

 2017-02-08 07:40:00.056589+01 | 1486536000.05659 |                 0 |              13 |                  7362 |                 1815 |            1278847 |         40713 |              405 |          484015 |                     0 |        347690 | 2017-02-08 06:37:47.244902+01

 2017-02-08 07:40:01.113143+01 | 1486536001.11314 |                 0 |              13 |                  7362 |                 1815 |            1278847 |         40713 |              405 |          484015 |                     0 |        347761 | 2017-02-08 06:37:47.244902+01

 2017-02-08 07:40:02.175783+01 | 1486536002.17578 |                 0 |              13 |                  7362 |                 1815 |            1278847 |         40713 |              405 |          484015 |                     0 |        347828 | 2017-02-08 06:37:47.244902+01

 2017-02-08 07:40:03.230405+01 | 1486536003.23041 |                 0 |              13 |                  7362 |                 1815 |            1278847 |         40713 |              405 |          484015 |                     0 |        347909 | 2017-02-08 06:37:47.244902+01

 2017-02-08 07:40:04.283545+01 | 1486536004.28355 |                 0 |              13 |                  7362 |                 1815 |            1278847 |         40713 |              405 |          484015 |                     0 |        347977 | 2017-02-08 06:37:47.244902+01

 2017-02-08 07:40:05.338516+01 | 1486536005.33852 |                 0 |              13 |                  7362 |                 1815 |            1278847 |         40713 |              405 |          484015 |                     0 |        348045 | 2017-02-08 06:37:47.244902+01

 2017-02-08 07:40:06.398299+01 | 1486536006.3983 |                 0 |              13 |                  7362 |                 1815 |            1278847 |         40713 |              405 |          484015 |                     0 |        348112 | 2017-02-08 06:37:47.244902+01

 2017-02-08 07:40:07.454359+01 | 1486536007.45436 |                 0 |              13 |                  7362 |                 1815 |            1278847 |         40713 |              405 |          484015 |                     0 |        348194 | 2017-02-08 06:37:47.244902+01

 2017-02-08 07:40:08.507608+01 | 1486536008.50761 |                 0 |              13 |                  7362 |                 1815 |            1278847 |         40713 |              405 |          484015 |                     0 |        348261 | 2017-02-08 06:37:47.244902+01

 2017-02-08 07:40:09.564055+01 | 1486536009.56405 |                 0 |              13 |                  7362 |                 1815 |            1278847 |         40713 |              405 |          484015 |                     0 |        348331 | 2017-02-08 06:37:47.244902+01

 2017-02-08 07:40:10.622119+01 | 1486536010.62212 |                 0 |              13 |                  7362 |                 1815 |            1278847 |         40713 |              405 |          484015 |                     0 |        348398 | 2017-02-08 06:37:47.244902+01

 2017-02-08 07:40:11.677771+01 | 1486536011.67777 |                 0 |              13 |                  7362 |                 1815 |            1278847 |         40713 |              405 |          484015 |                     0 |        348479 | 2017-02-08 06:37:47.244902+01

 2017-02-08 07:40:12.729935+01 | 1486536012.72993 |                 0 |              13 |                  7362 |                 1815 |            1278847 |         40713 |              405 |          484015 |                     0 |        348546 | 2017-02-08 06:37:47.244902+01

 2017-02-08 07:40:13.787007+01 | 1486536013.78701 |                 0 |              13 |                  7362 |                 1815 |            1278847 |         40713 |              405 |          484015 |                     0 |        348615 | 2017-02-08 06:37:47.244902+01

 2017-02-08 07:40:14.845952+01 | 1486536014.84595 |                 0 |              13 |                  7362 |                 1815 |            1278847 |         40713 |              405 |          484015 |                     0 |        348695 | 2017-02-08 06:37:47.244902+01

 2017-02-08 07:40:15.910205+01 | 1486536015.9102 |                 0 |              13 |                  7362 |                 1815 |            1278847 |         40713 |              405 |          484015 |                     0 |        348764 | 2017-02-08 06:37:47.244902+01

 2017-02-08 07:40:16.965324+01 | 1486536016.96532 |                 0 |              13 |                  7362 |                 1815 |            1278847 |         40713 |              405 |          484015 |                     0 |        348830 | 2017-02-08 06:37:47.244902+01

 2017-02-08 07:40:18.020989+01 | 1486536018.02099 |                 0 |              13 |                  7362 |                 1815 |            1278847 |         40713 |              405 |          484015 |                     0 |        348899 | 2017-02-08 06:37:47.244902+01

 2017-02-08 07:40:19.08001+01 | 1486536019.08001 |                 0 |              13 |                  7362 |                 1815 |            1278847 |         40713 |              405 |          484015 |                     0 |        348992 | 2017-02-08 06:37:47.244902+01

 2017-02-08 07:40:20.141554+01 | 1486536020.14155 |                 0 |              13 |                  7362 |                 1815 |            1278847 |         40713 |              405 |          484015 |                     0 |        349044 | 2017-02-08 06:37:47.244902+01

 2017-02-08 07:40:21.194549+01 | 1486536021.19455 |                 0 |              13 |                  7362 |                 1815 |            1278847 |         40713 |              405 |          484015 |                     0 |        349109 | 2017-02-08 06:37:47.244902+01

 2017-02-08 07:40:22.252648+01 | 1486536022.25265 |                 0 |              13 |                  7362 |                 1815 |            1278847 |         40713 |              405 |          484015 |                     0 |        349181 | 2017-02-08 06:37:47.244902+01

 2017-02-08 07:40:23.339607+01 | 1486536023.33961 |                 0 |              13 |                  7362 |                 1815 |            1278847 |         40713 |              405 |          484015 |                     0 |        349245 | 2017-02-08 06:37:47.244902+01

 2017-02-08 07:40:24.399481+01 | 1486536024.39948 |                 0 |              13 |                  7362 |                 1815 |            1278847 |         40713 |              405 |          484015 |                     0 |        349322 | 2017-02-08 06:37:47.244902+01

 2017-02-08 07:40:25.442337+01 | 1486536025.44234 |                 0 |              13 |                  7362 |                 1815 |            1278847 |         40713 |              405 |          484015 |                     0 |        349362 | 2017-02-08 06:37:47.244902+01

 2017-02-08 07:40:26.497576+01 | 1486536026.49758 |                 0 |              13 |                  7362 |                 1815 |            1278847 |         40713 |              405 |          484015 |                     0 |        349459 | 2017-02-08 06:37:47.244902+01

 2017-02-08 07:40:27.552115+01 | 1486536027.55211 |                 0 |              13 |                  7362 |                 1815 |            1278847 |         40713 |              405 |          484015 |                     0 |        349539 | 2017-02-08 06:37:47.244902+01

 2017-02-08 07:40:28.610433+01 | 1486536028.61043 |                 0 |              13 |                  7362 |                 1815 |            1278847 |         40713 |              405 |          484015 |                     0 |        349609 | 2017-02-08 06:37:47.244902+01

 2017-02-08 07:40:29.66493+01 | 1486536029.66493 |                 0 |              13 |                  7362 |                 1815 |            1278847 |         40713 |              405 |          484015 |                     0 |        349676 | 2017-02-08 06:37:47.244902+01

 2017-02-08 07:40:30.720224+01 | 1486536030.72022 |                 0 |              13 |                  7362 |                 1815 |            1278847 |         40713 |              405 |          484015 |                     0 |        349747 | 2017-02-08 06:37:47.244902+01

 2017-02-08 07:40:31.777074+01 | 1486536031.77707 |                 0 |              13 |                  7362 |                 1815 |            1278847 |         40713 |              405 |          484015 |                     0 |        349829 | 2017-02-08 06:37:47.244902+01

 2017-02-08 07:40:32.838101+01 | 1486536032.8381 |                 0 |              13 |                  7362 |                 1815 |            1278847 |         40713 |              405 |          484015 |                     0 |        349914 | 2017-02-08 06:37:47.244902+01

 2017-02-08 07:40:33.898376+01 | 1486536033.89838 |                 0 |              13 |                  7362 |                 1815 |            1278847 |         40713 |              405 |          484015 |                     0 |        349969 | 2017-02-08 06:37:47.244902+01

 2017-02-08 07:40:34.954651+01 | 1486536034.95465 |                 0 |              13 |                  7362 |                 1815 |            1278847 |         40713 |              405 |          484015 |                     0 |        350084 | 2017-02-08 06:37:47.244902+01

 2017-02-08 07:40:36.006933+01 | 1486536036.00693 |                 0 |              13 |                  7362 |                 1815 |            1278847 |         40713 |              405 |          484015 |                     0 |        350108 | 2017-02-08 06:37:47.244902+01

 2017-02-08 07:40:37.060128+01 | 1486536037.06013 |                 0 |              13 |                  7362 |                 1815 |            1278847 |         40713 |              405 |          484015 |                     0 |        350195 | 2017-02-08 06:37:47.244902+01

 2017-02-08 07:40:38.11755+01 | 1486536038.11755 |                 0 |              13 |                  7362 |                 1815 |            1278847 |         40713 |              405 |          484015 |                     0 |        350265 | 2017-02-08 06:37:47.244902+01

 2017-02-08 07:40:39.17559+01 | 1486536039.17559 |                 0 |              13 |                  7362 |                 1815 |            1278847 |         40713 |              405 |          484015 |                     0 |        350341 | 2017-02-08 06:37:47.244902+01

 2017-02-08 07:40:40.230817+01 | 1486536040.23082 |                 0 |              13 |                  7362 |                 1815 |            1278847 |         40713 |              405 |          484015 |                     0 |        350397 | 2017-02-08 06:37:47.244902+01

 2017-02-08 07:40:41.28652+01 | 1486536041.28652 |                 0 |              13 |                  7362 |                 1815 |            1278847 |         40713 |              405 |          484015 |                     0 |        350483 | 2017-02-08 06:37:47.244902+01

 2017-02-08 07:40:42.341303+01 | 1486536042.3413 |                 0 |              13 |                  7362 |                 1815 |            1278847 |         40713 |              405 |          484015 |                     0 |        350550 | 2017-02-08 06:37:47.244902+01

 2017-02-08 07:40:43.393848+01 | 1486536043.39385 |                 0 |              13 |                  7362 |                 1815 |            1278847 |         40713 |              405 |          484015 |                     0 |        350621 | 2017-02-08 06:37:47.244902+01

 2017-02-08 07:40:44.452744+01 | 1486536044.45274 |                 0 |              13 |                  7362 |                 1815 |            1278847 |         40713 |              405 |          484015 |                     0 |        350689 | 2017-02-08 06:37:47.244902+01

 2017-02-08 07:40:45.512838+01 | 1486536045.51284 |                 0 |              13 |                  7362 |                 1815 |            1278847 |         40713 |              405 |          484015 |                     0 |        350771 | 2017-02-08 06:37:47.244902+01

 2017-02-08 07:40:46.564954+01 | 1486536046.56495 |                 0 |              13 |                  7362 |                 1815 |            1278847 |         40713 |              405 |          484015 |                     0 |        350838 | 2017-02-08 06:37:47.244902+01

 2017-02-08 07:40:47.619396+01 | 1486536047.6194 |                 0 |              13 |                  7362 |                 1815 |            1278847 |         40713 |              405 |          484015 |                     0 |        350908 | 2017-02-08 06:37:47.244902+01

 2017-02-08 07:40:48.677067+01 | 1486536048.67707 |                 0 |              13 |                  7362 |                 1815 |            1278847 |         40713 |              405 |          484015 |                     0 |        350991 | 2017-02-08 06:37:47.244902+01

 2017-02-08 07:40:49.734768+01 | 1486536049.73477 |                 0 |              13 |                  7362 |                 1815 |            1278847 |         40713 |              405 |          484015 |                     0 |        351057 | 2017-02-08 06:37:47.244902+01

 2017-02-08 07:40:50.796839+01 | 1486536050.79684 |                 0 |              13 |                  7362 |                 1815 |            1278847 |         40713 |              405 |          484015 |                     0 |        351128 | 2017-02-08 06:37:47.244902+01

 2017-02-08 07:40:51.848281+01 | 1486536051.84828 |                 0 |              13 |                  7362 |                 1815 |            1278847 |         40713 |              405 |          484015 |                     0 |        351194 | 2017-02-08 06:37:47.244902+01

 2017-02-08 07:40:52.906023+01 | 1486536052.90602 |                 0 |              13 |                  7362 |                 1815 |            1278847 |         40713 |              405 |          484015 |                     0 |        351279 | 2017-02-08 06:37:47.244902+01

 2017-02-08 07:40:53.962055+01 | 1486536053.96205 |                 0 |              13 |                  7362 |                 1815 |            1278847 |         40713 |              405 |          484015 |                     0 |        351347 | 2017-02-08 06:37:47.244902+01

 2017-02-08 07:40:55.018475+01 | 1486536055.01848 |                 0 |              13 |                  7362 |                 1815 |            1278847 |         40713 |              405 |          484015 |                     0 |        351415 | 2017-02-08 06:37:47.244902+01

 2017-02-08 07:40:56.076128+01 | 1486536056.07613 |                 0 |              13 |                  7362 |                 1815 |            1278847 |         40713 |              405 |          484015 |                     0 |        351496 | 2017-02-08 06:37:47.244902+01

 2017-02-08 07:40:57.130981+01 | 1486536057.13098 |                 0 |              13 |                  7362 |                 1815 |            1278847 |         40713 |              405 |          484015 |                     0 |        351567 | 2017-02-08 06:37:47.244902+01

 2017-02-08 07:40:58.192567+01 | 1486536058.19257 |                 0 |              13 |                  7362 |                 1815 |            1278847 |         40713 |              405 |          484015 |                     0 |        351632 | 2017-02-08 06:37:47.244902+01

 2017-02-08 07:40:59.251586+01 | 1486536059.25159 |                 0 |              13 |                  7362 |                 1815 |            1278847 |         40713 |              405 |          484015 |                     0 |        351702 | 2017-02-08 06:37:47.244902+01

 2017-02-08 07:41:00.305081+01 | 1486536060.30508 |                 0 |              13 |                  7362 |                 1815 |            1278847 |         40713 |              405 |          484015 |                     0 |        351785 | 2017-02-08 06:37:47.244902+01

 2017-02-08 07:41:01.358447+01 | 1486536061.35845 |                 0 |              13 |                  7362 |                 1815 |            1278847 |         40713 |              405 |          484015 |                     0 |        351853 | 2017-02-08 06:37:47.244902+01

 2017-02-08 07:41:02.415302+01 | 1486536062.4153 |                 0 |              13 |                  7362 |                 1815 |            1278847 |         40713 |              405 |          484015 |                     0 |        351921 | 2017-02-08 06:37:47.244902+01

 2017-02-08 07:41:03.469769+01 | 1486536063.46977 |                 0 |              13 |                  7362 |                 1815 |            1278847 |         40713 |              405 |          484015 |                     0 |        351987 | 2017-02-08 06:37:47.244902+01

 2017-02-08 07:41:04.530054+01 | 1486536064.53005 |                 0 |              13 |                  7362 |                 1815 |            1278847 |         40713 |              405 |          484015 |                     0 |        352071 | 2017-02-08 06:37:47.244902+01

 2017-02-08 07:41:05.583966+01 | 1486536065.58397 |                 0 |              13 |                  7362 |                 1815 |            1278847 |         40713 |              405 |          484015 |                     0 |        352138 | 2017-02-08 06:37:47.244902+01

 2017-02-08 07:41:06.638127+01 | 1486536066.63813 |                 0 |              13 |                  7362 |                 1815 |            1278847 |         40713 |              405 |          484015 |                     0 |        352208 | 2017-02-08 06:37:47.244902+01

 2017-02-08 07:41:07.691248+01 | 1486536067.69125 |                 0 |              13 |                  7362 |                 1815 |            1278847 |         40713 |              405 |          484015 |                     0 |        352292 | 2017-02-08 06:37:47.244902+01

 2017-02-08 07:41:08.745625+01 | 1486536068.74563 |                 0 |              13 |                  7362 |                 1815 |            1278847 |         40713 |              405 |          484015 |                     0 |        352358 | 2017-02-08 06:37:47.244902+01

 2017-02-08 07:41:09.808812+01 | 1486536069.80881 |                 0 |              13 |                  7362 |                 1815 |            1278847 |         40713 |              405 |          484015 |                     0 |        352428 | 2017-02-08 06:37:47.244902+01

 2017-02-08 07:41:10.861941+01 | 1486536070.86194 |                 0 |              13 |                  7362 |                 1815 |            1278847 |         40713 |              405 |          484015 |                     0 |        352492 | 2017-02-08 06:37:47.244902+01

 2017-02-08 07:41:11.916566+01 | 1486536071.91657 |                 0 |              13 |                  7362 |                 1815 |            1278847 |         40713 |              405 |          484015 |                     0 |        352581 | 2017-02-08 06:37:47.244902+01

 2017-02-08 07:41:12.971367+01 | 1486536072.97137 |                 0 |              13 |                  7362 |                 1815 |            1278847 |         40713 |              405 |          484015 |                     0 |        352646 | 2017-02-08 06:37:47.244902+01

 2017-02-08 07:41:14.023537+01 | 1486536074.02354 |                 0 |              13 |                  7362 |                 1815 |            1278847 |         40713 |              405 |          484015 |                     0 |        352717 | 2017-02-08 06:37:47.244902+01

 2017-02-08 07:41:15.080852+01 | 1486536075.08085 |                 0 |              13 |                  7362 |                 1815 |            1278847 |         40713 |              405 |          484015 |                     0 |        352782 | 2017-02-08 06:37:47.244902+01

 2017-02-08 07:41:16.136091+01 | 1486536076.13609 |                 0 |              13 |                  7362 |                 1815 |            1278847 |         40713 |              405 |          484015 |                     0 |        352877 | 2017-02-08 06:37:47.244902+01

 2017-02-08 07:41:17.190742+01 | 1486536077.19074 |                 0 |              13 |                  7362 |                 1815 |            1278847 |         40713 |              405 |          484015 |                     0 |        352950 | 2017-02-08 06:37:47.244902+01

 2017-02-08 07:41:18.245127+01 | 1486536078.24513 |                 0 |              13 |                  7362 |                 1815 |            1278847 |         40713 |              405 |          484015 |                     0 |        353003 | 2017-02-08 06:37:47.244902+01

 2017-02-08 07:41:19.304183+01 | 1486536079.30418 |                 0 |              13 |                  7362 |                 1815 |            1278847 |         40713 |              405 |          484015 |                     0 |        353068 | 2017-02-08 06:37:47.244902+01

 2017-02-08 07:41:20.367071+01 | 1486536080.36707 |                 0 |              13 |                  7362 |                 1815 |            1278847 |         40713 |              405 |          484015 |                     0 |        353177 | 2017-02-08 06:37:47.244902+01

 2017-02-08 07:41:21.419966+01 | 1486536081.41997 |                 0 |              13 |                  7362 |                 1815 |            1278847 |         40713 |              405 |          484015 |                     0 |        353204 | 2017-02-08 06:37:47.244902+01

 2017-02-08 07:41:22.489628+01 | 1486536082.48963 |                 0 |              13 |                  7362 |                 1815 |            1278847 |         40713 |              405 |          484015 |                     0 |        353284 | 2017-02-08 06:37:47.244902+01

 2017-02-08 07:41:23.557666+01 | 1486536083.55767 |                 0 |              13 |                  7362 |                 1815 |            1278847 |         40713 |              405 |          484015 |                     0 |        353353 | 2017-02-08 06:37:47.244902+01

 2017-02-08 07:41:24.621739+01 | 1486536084.62174 |                 0 |              13 |                  7362 |                 1815 |            1278847 |         40713 |              405 |          484015 |                     0 |        353417 | 2017-02-08 06:37:47.244902+01

 2017-02-08 07:41:25.67361+01 | 1486536085.67361 |                 0 |              13 |                  7362 |                 1815 |            1278847 |         40713 |              405 |          484015 |                     0 |        353510 | 2017-02-08 06:37:47.244902+01

 2017-02-08 07:41:26.740464+01 | 1486536086.74046 |                 0 |              13 |                  7362 |                 1815 |            1278847 |         40713 |              405 |          484015 |                     0 |        353555 | 2017-02-08 06:37:47.244902+01

 2017-02-08 07:41:27.803455+01 | 1486536087.80346 |                 0 |              13 |                  7362 |                 1815 |            1278847 |         40713 |              405 |          484015 |                     0 |        353642 | 2017-02-08 06:37:47.244902+01

 2017-02-08 07:41:28.863129+01 | 1486536088.86313 |                 0 |              13 |                  7362 |                 1815 |            1278847 |         40713 |              405 |          484015 |                     0 |        353713 | 2017-02-08 06:37:47.244902+01

 2017-02-08 07:41:29.917122+01 | 1486536089.91712 |                 0 |              13 |                  7362 |                 1815 |            1278847 |         40713 |              405 |          484015 |                     0 |        353785 | 2017-02-08 06:37:47.244902+01

 2017-02-08 07:41:30.971302+01 | 1486536090.9713 |                 0 |              13 |                  7362 |                 1815 |            1278847 |         40713 |              405 |          484015 |                     0 |        353867 | 2017-02-08 06:37:47.244902+01

 2017-02-08 07:41:32.028708+01 | 1486536092.02871 |                 0 |              13 |                  7362 |                 1815 |            1278847 |         40713 |              405 |          484015 |                     0 |        353934 | 2017-02-08 06:37:47.244902+01

 2017-02-08 07:41:33.093335+01 | 1486536093.09333 |                 0 |              13 |                  7362 |                 1815 |            1278847 |         40713 |              405 |          484015 |                     0 |        354002 | 2017-02-08 06:37:47.244902+01

 2017-02-08 07:41:34.148122+01 | 1486536094.14812 |                 0 |              13 |                  7362 |                 1815 |            1278847 |         40713 |              405 |          484015 |                     0 |        354074 | 2017-02-08 06:37:47.244902+01

 2017-02-08 07:41:35.214608+01 | 1486536095.21461 |                 0 |              13 |                  7362 |                 1815 |            1278847 |         40713 |              405 |          484015 |                     0 |        354149 | 2017-02-08 06:37:47.244902+01

 2017-02-08 07:41:36.278601+01 | 1486536096.2786 |                 0 |              13 |                  7362 |                 1815 |            1278847 |         40713 |              405 |          484015 |                     0 |        354216 | 2017-02-08 06:37:47.244902+01

 2017-02-08 07:41:37.335629+01 | 1486536097.33563 |                 0 |              13 |                  7362 |                 1815 |            1278847 |         40713 |              405 |          484015 |                     0 |        354284 | 2017-02-08 06:37:47.244902+01

 2017-02-08 07:41:38.392215+01 | 1486536098.39222 |                 0 |              13 |                  7362 |                 1815 |            1278847 |         40713 |              405 |          484015 |                     0 |        354364 | 2017-02-08 06:37:47.244902+01

 2017-02-08 07:41:39.449053+01 | 1486536099.44905 |                 0 |              13 |                  7362 |                 1815 |            1278847 |         40713 |              405 |          484015 |                     0 |        354432 | 2017-02-08 06:37:47.244902+01

 2017-02-08 07:41:40.50825+01 | 1486536100.50825 |                 0 |              13 |                  7362 |                 1815 |            1278847 |         40713 |              405 |          484015 |                     0 |        354500 | 2017-02-08 06:37:47.244902+01

 2017-02-08 07:41:41.565852+01 | 1486536101.56585 |                 0 |              13 |                  7362 |                 1815 |            1278847 |         40713 |              405 |          484015 |                     0 |        354568 | 2017-02-08 06:37:47.244902+01

 2017-02-08 07:41:42.625129+01 | 1486536102.62513 |                 0 |              13 |                  7362 |                 1815 |            1278847 |         40713 |              405 |          484015 |                     0 |        354649 | 2017-02-08 06:37:47.244902+01

 2017-02-08 07:41:43.689186+01 | 1486536103.68919 |                 0 |              13 |                  7362 |                 1815 |            1278847 |         40713 |              405 |          484015 |                     0 |        354717 | 2017-02-08 06:37:47.244902+01

 2017-02-08 07:41:44.742116+01 | 1486536104.74212 |                 0 |              13 |                  7362 |                 1815 |            1278847 |         40713 |              405 |          484015 |                     0 |        354784 | 2017-02-08 06:37:47.244902+01

 2017-02-08 07:41:45.800251+01 | 1486536105.80025 |                 0 |              13 |                  7362 |                 1815 |            1278847 |         40713 |              405 |          484015 |                     0 |        354867 | 2017-02-08 06:37:47.244902+01

 2017-02-08 07:41:46.86069+01 | 1486536106.86069 |                 0 |              13 |                  7362 |                 1815 |            1278847 |         40713 |              405 |          484015 |                     0 |        354933 | 2017-02-08 06:37:47.244902+01

 2017-02-08 07:41:47.919591+01 | 1486536107.91959 |                 0 |              13 |                  7362 |                 1815 |            1278847 |         40713 |              405 |          484015 |                     0 |        355001 | 2017-02-08 06:37:47.244902+01

 2017-02-08 07:41:48.977181+01 | 1486536108.97718 |                 0 |              13 |                  7362 |                 1815 |            1278847 |         40713 |              405 |          484015 |                     0 |        355066 | 2017-02-08 06:37:47.244902+01

 2017-02-08 07:41:50.036301+01 | 1486536110.0363 |                 0 |              13 |                  7362 |                 1815 |            1278847 |         40713 |              405 |          484015 |                     0 |        355148 | 2017-02-08 06:37:47.244902+01

 2017-02-08 07:41:51.089361+01 | 1486536111.08936 |                 0 |              13 |                  7362 |                 1815 |            1278847 |         40713 |              405 |          484015 |                     0 |        355217 | 2017-02-08 06:37:47.244902+01

 2017-02-08 07:41:52.143222+01 | 1486536112.14322 |                 0 |              13 |                  7362 |                 1815 |            1278847 |         40713 |              405 |          484015 |                     0 |        355284 | 2017-02-08 06:37:47.244902+01

 2017-02-08 07:41:53.202547+01 | 1486536113.20255 |                 0 |              13 |                  7362 |                 1815 |            1278847 |         40713 |              405 |          484015 |                     0 |        355366 | 2017-02-08 06:37:47.244902+01

 2017-02-08 07:41:54.254278+01 | 1486536114.25428 |                 0 |              13 |                  7362 |                 1815 |            1278847 |         40713 |              405 |          484015 |                     0 |        355431 | 2017-02-08 06:37:47.244902+01

 2017-02-08 07:41:55.308434+01 | 1486536115.30843 |                 0 |              13 |                  7362 |                 1815 |            1278847 |         40713 |              405 |          484015 |                     0 |        355501 | 2017-02-08 06:37:47.244902+01

 2017-02-08 07:41:56.364159+01 | 1486536116.36416 |                 0 |              13 |                  7362 |                 1815 |            1278847 |         40713 |              405 |          484015 |                     0 |        355568 | 2017-02-08 06:37:47.244902+01

 2017-02-08 07:41:57.418124+01 | 1486536117.41812 |                 0 |              13 |                  7362 |                 1815 |            1278847 |         40713 |              405 |          484015 |                     0 |        355649 | 2017-02-08 06:37:47.244902+01

 2017-02-08 07:41:58.478922+01 | 1486536118.47892 |                 0 |              13 |                  7362 |                 1815 |            1278847 |         40713 |              405 |          484015 |                     0 |        355718 | 2017-02-08 06:37:47.244902+01

 2017-02-08 07:41:59.533048+01 | 1486536119.53305 |                 0 |              13 |                  7362 |                 1815 |            1278847 |         40713 |              405 |          484015 |                     0 |        355785 | 2017-02-08 06:37:47.244902+01

 2017-02-08 07:42:00.589283+01 | 1486536120.58928 |                 0 |              13 |                  7362 |                 1815 |            1278847 |         40713 |              405 |          484015 |                     0 |        355854 | 2017-02-08 06:37:47.244902+01

 2017-02-08 07:42:01.646146+01 | 1486536121.64615 |                 0 |              13 |                  7362 |                 1815 |            1278847 |         40713 |              405 |          484015 |                     0 |        355935 | 2017-02-08 06:37:47.244902+01

 2017-02-08 07:42:02.699402+01 | 1486536122.6994 |                 0 |              13 |                  7362 |                 1815 |            1278847 |         40713 |              405 |          484015 |                     0 |        356001 | 2017-02-08 06:37:47.244902+01

 2017-02-08 07:42:03.763921+01 | 1486536123.76392 |                 0 |              13 |                  7362 |                 1815 |            1278847 |         40713 |              405 |          484015 |                     0 |        356071 | 2017-02-08 06:37:47.244902+01

 2017-02-08 07:42:04.817254+01 | 1486536124.81725 |                 0 |              13 |                  7362 |                 1815 |            1278847 |         40713 |              405 |          484015 |                     0 |        356152 | 2017-02-08 06:37:47.244902+01

 2017-02-08 07:42:05.87363+01 | 1486536125.87363 |                 0 |              13 |                  7362 |                 1815 |            1278847 |         40713 |              405 |          484015 |                     0 |        356218 | 2017-02-08 06:37:47.244902+01

 2017-02-08 07:42:06.93113+01 | 1486536126.93113 |                 0 |              13 |                  7362 |                 1815 |            1278847 |         40713 |              405 |          484015 |                     0 |        356286 | 2017-02-08 06:37:47.244902+01

 2017-02-08 07:42:07.987951+01 | 1486536127.98795 |                 0 |              13 |                  7362 |                 1815 |            1278847 |         40713 |              405 |          484015 |                     0 |        356354 | 2017-02-08 06:37:47.244902+01

 2017-02-08 07:42:09.047814+01 | 1486536129.04781 |                 0 |              13 |                  7362 |                 1815 |            1278847 |         40713 |              405 |          484015 |                     0 |        356438 | 2017-02-08 06:37:47.244902+01

 2017-02-08 07:42:10.104202+01 | 1486536130.1042 |                 0 |              13 |                  7362 |                 1815 |            1278847 |         40713 |              405 |          484015 |                     0 |        356508 | 2017-02-08 06:37:47.244902+01

 2017-02-08 07:42:11.163176+01 | 1486536131.16318 |                 0 |              13 |                  7362 |                 1815 |            1278847 |         40713 |              405 |          484015 |                     0 |        356575 | 2017-02-08 06:37:47.244902+01

 2017-02-08 07:42:12.217048+01 | 1486536132.21705 |                 0 |              13 |                  7362 |                 1815 |            1278847 |         40713 |              405 |          484015 |                     0 |        356657 | 2017-02-08 06:37:47.244902+01

 2017-02-08 07:42:13.272579+01 | 1486536133.27258 |                 0 |              13 |                  7362 |                 1815 |            1278847 |         40713 |              405 |          484015 |                     0 |        356726 | 2017-02-08 06:37:47.244902+01

 2017-02-08 07:42:14.325955+01 | 1486536134.32595 |                 0 |              13 |                  7362 |                 1815 |            1278847 |         40713 |              405 |          484015 |                     0 |        356795 | 2017-02-08 06:37:47.244902+01

 2017-02-08 07:42:15.380166+01 | 1486536135.38017 |                 0 |              13 |                  7362 |                 1815 |            1278847 |         40713 |              405 |          484015 |                     0 |        356863 | 2017-02-08 06:37:47.244902+01

 2017-02-08 07:42:16.436338+01 | 1486536136.43634 |                 0 |              13 |                  7362 |                 1815 |            1278847 |         40713 |              405 |          484015 |                     0 |        356947 | 2017-02-08 06:37:47.244902+01

 2017-02-08 07:42:17.495622+01 | 1486536137.49562 |                 0 |              13 |                  7362 |                 1815 |            1278847 |         40713 |              405 |          484015 |                     0 |        357012 | 2017-02-08 06:37:47.244902+01

 2017-02-08 07:42:18.550245+01 | 1486536138.55025 |                 0 |              13 |                  7362 |                 1815 |            1278847 |         40713 |              405 |          484015 |                     0 |        357082 | 2017-02-08 06:37:47.244902+01

 2017-02-08 07:42:19.59564+01 | 1486536139.59564 |                 0 |              13 |                  7362 |                 1815 |            1278847 |         40713 |              405 |          484015 |                     0 |        357135 | 2017-02-08 06:37:47.244902+01

 2017-02-08 07:42:20.651721+01 | 1486536140.65172 |                 0 |              13 |                  7362 |                 1815 |            1278847 |         40713 |              405 |          484015 |                     0 |        357227 | 2017-02-08 06:37:47.244902+01

 2017-02-08 07:42:21.711759+01 | 1486536141.71176 |                 0 |              13 |                  7362 |                 1815 |            1278847 |         40713 |              405 |          484015 |                     0 |        357293 | 2017-02-08 06:37:47.244902+01

 2017-02-08 07:42:22.767565+01 | 1486536142.76757 |                 0 |              13 |                  7362 |                 1815 |            1278847 |         40713 |              405 |          484015 |                     0 |        357358 | 2017-02-08 06:37:47.244902+01

 2017-02-08 07:42:23.830705+01 | 1486536143.8307 |                 0 |              13 |                  7362 |                 1815 |            1278847 |         40713 |              405 |          484015 |                     0 |        357435 | 2017-02-08 06:37:47.244902+01

 2017-02-08 07:42:24.891408+01 | 1486536144.89141 |                 0 |              13 |                  7362 |                 1815 |            1278847 |         40713 |              405 |          484015 |                     0 |        357500 | 2017-02-08 06:37:47.244902+01

 2017-02-08 07:42:25.958785+01 | 1486536145.95879 |                 0 |              13 |                  7362 |                 1815 |            1278847 |         40713 |              405 |          484015 |                     0 |        357573 | 2017-02-08 06:37:47.244902+01

 2017-02-08 07:42:27.018008+01 | 1486536147.01801 |                 0 |              13 |                  7362 |                 1815 |            1278847 |         40713 |              405 |          484015 |                     0 |        357640 | 2017-02-08 06:37:47.244902+01

 2017-02-08 07:42:28.074379+01 | 1486536148.07438 |                 0 |              13 |                  7362 |                 1815 |            1278847 |         40713 |              405 |          484015 |                     0 |        357733 | 2017-02-08 06:37:47.244902+01

 2017-02-08 07:42:29.131076+01 | 1486536149.13108 |                 0 |              13 |                  7362 |                 1815 |            1278847 |         40713 |              405 |          484015 |                     0 |        357790 | 2017-02-08 06:37:47.244902+01

 2017-02-08 07:42:30.187698+01 | 1486536150.1877 |                 0 |              13 |                  7362 |                 1815 |            1278847 |         40713 |              405 |          484015 |                     0 |        357861 | 2017-02-08 06:37:47.244902+01

 2017-02-08 07:42:31.240155+01 | 1486536151.24015 |                 0 |              13 |                  7362 |                 1815 |            1278847 |         40713 |              405 |          484015 |                     0 |        357934 | 2017-02-08 06:37:47.244902+01

 2017-02-08 07:42:32.297893+01 | 1486536152.29789 |                 0 |              13 |                  7362 |                 1815 |            1278847 |         40713 |              405 |          484015 |                     0 |        358002 | 2017-02-08 06:37:47.244902+01

 2017-02-08 07:42:33.350961+01 | 1486536153.35096 |                 0 |              13 |                  7362 |                 1815 |            1278847 |         40713 |              405 |          484015 |                     0 |        358084 | 2017-02-08 06:37:47.244902+01

 2017-02-08 07:42:34.402917+01 | 1486536154.40292 |                 0 |              13 |                  7362 |                 1815 |            1278847 |         40713 |              405 |          484015 |                     0 |        358152 | 2017-02-08 06:37:47.244902+01

 2017-02-08 07:42:35.45875+01 | 1486536155.45875 |                 0 |              13 |                  7362 |                 1815 |            1278847 |         40713 |              405 |          484015 |                     0 |        358221 | 2017-02-08 06:37:47.244902+01

 2017-02-08 07:42:36.514856+01 | 1486536156.51486 |                 0 |              13 |                  7362 |                 1815 |            1278847 |         40713 |              405 |          484015 |                     0 |        358301 | 2017-02-08 06:37:47.244902+01

 2017-02-08 07:42:37.575617+01 | 1486536157.57562 |                 0 |              13 |                  7362 |                 1815 |            1278847 |         40713 |              405 |          484015 |                     0 |        358371 | 2017-02-08 06:37:47.244902+01

 2017-02-08 07:42:38.637897+01 | 1486536158.6379 |                 0 |              13 |                  7362 |                 1815 |            1278847 |         40713 |              405 |          484015 |                     0 |        358439 | 2017-02-08 06:37:47.244902+01

 2017-02-08 07:42:39.69348+01 | 1486536159.69348 |                 0 |              13 |                  7362 |                 1815 |            1278847 |         40713 |              405 |          484015 |                     0 |        358508 | 2017-02-08 06:37:47.244902+01

 2017-02-08 07:42:40.748579+01 | 1486536160.74858 |                 0 |              13 |                  7362 |                 1815 |            1278847 |         40713 |              405 |          484015 |                     0 |        358605 | 2017-02-08 06:37:47.244902+01

 2017-02-08 07:42:41.802596+01 | 1486536161.8026 |                 0 |              13 |                  7362 |                 1815 |            1278847 |         40713 |              405 |          484015 |                     0 |        358653 | 2017-02-08 06:37:47.244902+01

 2017-02-08 07:42:42.861932+01 | 1486536162.86193 |                 0 |              13 |                  7362 |                 1815 |            1278847 |         40713 |              405 |          484015 |                     0 |        358719 | 2017-02-08 06:37:47.244902+01

 2017-02-08 07:42:43.918308+01 | 1486536163.91831 |                 0 |              13 |                  7362 |                 1815 |            1278847 |         40713 |              405 |          484015 |                     0 |        358794 | 2017-02-08 06:37:47.244902+01

 2017-02-08 07:42:44.973176+01 | 1486536164.97318 |                 0 |              13 |                  7362 |                 1815 |            1278847 |         40713 |              405 |          484015 |                     0 |        358881 | 2017-02-08 06:37:47.244902+01

 2017-02-08 07:42:46.029883+01 | 1486536166.02988 |                 0 |              13 |                  7362 |                 1815 |            1278847 |         40713 |              405 |          484015 |                     0 |        358948 | 2017-02-08 06:37:47.244902+01

 2017-02-08 07:42:47.084721+01 | 1486536167.08472 |                 0 |              13 |                  7362 |                 1815 |            1278847 |         40713 |              405 |          484015 |                     0 |        359017 | 2017-02-08 06:37:47.244902+01

 2017-02-08 07:42:48.141848+01 | 1486536168.14185 |                 0 |              13 |                  7362 |                 1815 |            1278847 |         40713 |              405 |          484015 |                     0 |        359082 | 2017-02-08 06:37:47.244902+01

 2017-02-08 07:42:49.200387+01 | 1486536169.20039 |                 0 |              13 |                  7362 |                 1815 |            1278847 |         40713 |              405 |          484015 |                     0 |        359167 | 2017-02-08 06:37:47.244902+01

 2017-02-08 07:42:50.256561+01 | 1486536170.25656 |                 0 |              13 |                  7362 |                 1815 |            1278847 |         40713 |              405 |          484015 |                     0 |        359234 | 2017-02-08 06:37:47.244902+01

 2017-02-08 07:42:51.310913+01 | 1486536171.31091 |                 0 |              13 |                  7362 |                 1815 |            1278847 |         40713 |              405 |          484015 |                     0 |        359300 | 2017-02-08 06:37:47.244902+01

 2017-02-08 07:42:52.371043+01 | 1486536172.37104 |                 0 |              13 |                  7362 |                 1815 |            1278847 |         40713 |              405 |          484015 |                     0 |        359370 | 2017-02-08 06:37:47.244902+01

 2017-02-08 07:42:53.430078+01 | 1486536173.43008 |                 0 |              13 |                  7362 |                 1815 |            1278847 |         40713 |              405 |          484015 |                     0 |        359451 | 2017-02-08 06:37:47.244902+01

 2017-02-08 07:42:54.483002+01 | 1486536174.483 |                 0 |              13 |                  7362 |                 1815 |            1278847 |         40713 |              405 |          484015 |                     0 |        359521 | 2017-02-08 06:37:47.244902+01

 2017-02-08 07:42:55.543329+01 | 1486536175.54333 |                 0 |              13 |                  7362 |                 1815 |            1278847 |         40713 |              405 |          484015 |                     0 |        359588 | 2017-02-08 06:37:47.244902+01

 2017-02-08 07:42:56.597625+01 | 1486536176.59763 |                 0 |              13 |                  7362 |                 1815 |            1278847 |         40713 |              405 |          484015 |                     0 |        359672 | 2017-02-08 06:37:47.244902+01

 2017-02-08 07:42:57.650408+01 | 1486536177.65041 |                 0 |              13 |                  7362 |                 1815 |            1278847 |         40713 |              405 |          484015 |                     0 |        359738 | 2017-02-08 06:37:47.244902+01

 2017-02-08 07:42:58.704942+01 | 1486536178.70494 |                 0 |              13 |                  7362 |                 1815 |            1278847 |         40713 |              405 |          484015 |                     0 |        359806 | 2017-02-08 06:37:47.244902+01

 2017-02-08 07:42:59.755695+01 | 1486536179.7557 |                 0 |              13 |                  7362 |                 1815 |            1278847 |         40713 |              405 |          484015 |                     0 |        359882 | 2017-02-08 06:37:47.244902+01

 2017-02-08 07:43:00.813499+01 | 1486536180.8135 |                 0 |              13 |                  7362 |                 1815 |            1278847 |         40713 |              405 |          484015 |                     0 |        359954 | 2017-02-08 06:37:47.244902+01

 2017-02-08 07:43:01.873872+01 | 1486536181.87387 |                 0 |              13 |                  7362 |                 1815 |            1278847 |         40713 |              405 |          484015 |                     0 |        360026 | 2017-02-08 06:37:47.244902+01

 2017-02-08 07:43:02.940136+01 | 1486536182.94014 |                 0 |              13 |                  7362 |                 1815 |            1278847 |         40713 |              405 |          484015 |                     0 |        360092 | 2017-02-08 06:37:47.244902+01

 2017-02-08 07:43:03.990814+01 | 1486536183.99081 |                 0 |              13 |                  7362 |                 1815 |            1278847 |         40713 |              405 |          484015 |                     0 |        360175 | 2017-02-08 06:37:47.244902+01

 2017-02-08 07:43:05.051608+01 | 1486536185.05161 |                 0 |              13 |                  7362 |                 1815 |            1278847 |         40713 |              405 |          484015 |                     0 |        360242 | 2017-02-08 06:37:47.244902+01

 2017-02-08 07:43:06.104152+01 | 1486536186.10415 |                 0 |              13 |                  7362 |                 1815 |            1278847 |         40713 |              405 |          484015 |                     0 |        360321 | 2017-02-08 06:37:47.244902+01

 2017-02-08 07:43:07.169835+01 | 1486536187.16984 |                 0 |              13 |                  7362 |                 1815 |            1278847 |         40713 |              405 |          484015 |                     0 |        360389 | 2017-02-08 06:37:47.244902+01

