 2017-02-10 14:04:46.568552+01 | 1486731886.56855 |                 0 |              10 |                  4718 |                  699 |             763221 |         63259 |              510 |          503022 |                     0 |        354080 | 2017-02-10 13:19:29.919865+01

 2017-02-10 14:04:47.617895+01 | 1486731887.61789 |                 0 |              10 |                  4718 |                  699 |             763221 |         63259 |              510 |          503022 |                     0 |        354161 | 2017-02-10 13:19:29.919865+01

 2017-02-10 14:04:48.669997+01 | 1486731888.67 |                 0 |              10 |                  4718 |                  699 |             763221 |         63259 |              510 |          503022 |                     0 |        354265 | 2017-02-10 13:19:29.919865+01

 2017-02-10 14:04:49.722915+01 | 1486731889.72291 |                 0 |              10 |                  4718 |                  699 |             763221 |         63259 |              510 |          503022 |                     0 |        354358 | 2017-02-10 13:19:29.919865+01

 2017-02-10 14:04:50.774944+01 | 1486731890.77494 |                 0 |              10 |                  4718 |                  699 |             763221 |         63259 |              510 |          503022 |                     0 |        354451 | 2017-02-10 13:19:29.919865+01

 2017-02-10 14:04:51.827156+01 | 1486731891.82716 |                 0 |              10 |                  4718 |                  699 |             763221 |         63259 |              510 |          503022 |                     0 |        354537 | 2017-02-10 13:19:29.919865+01

 2017-02-10 14:04:52.87916+01 | 1486731892.87916 |                 0 |              10 |                  4718 |                  699 |             763221 |         63259 |              510 |          503022 |                     0 |        354639 | 2017-02-10 13:19:29.919865+01

 2017-02-10 14:04:53.932011+01 | 1486731893.93201 |                 0 |              10 |                  4718 |                  699 |             763221 |         63259 |              510 |          503022 |                     0 |        354728 | 2017-02-10 13:19:29.919865+01

 2017-02-10 14:04:54.987173+01 | 1486731894.98717 |                 0 |              10 |                  4718 |                  699 |             763221 |         63259 |              510 |          503022 |                     0 |        354843 | 2017-02-10 13:19:29.919865+01

 2017-02-10 14:04:56.040261+01 | 1486731896.04026 |                 0 |              10 |                  4718 |                  699 |             763221 |         63259 |              510 |          503022 |                     0 |        354933 | 2017-02-10 13:19:29.919865+01

 2017-02-10 14:04:57.091558+01 | 1486731897.09156 |                 0 |              10 |                  4718 |                  699 |             763221 |         63259 |              510 |          503022 |                     0 |        355025 | 2017-02-10 13:19:29.919865+01

 2017-02-10 14:04:58.1461+01 | 1486731898.1461 |                 0 |              10 |                  4718 |                  699 |             763221 |         63259 |              510 |          503022 |                     0 |        355118 | 2017-02-10 13:19:29.919865+01

 2017-02-10 14:04:59.197709+01 | 1486731899.19771 |                 0 |              10 |                  4718 |                  699 |             763221 |         63259 |              510 |          503022 |                     0 |        355230 | 2017-02-10 13:19:29.919865+01

 2017-02-10 14:05:00.247931+01 | 1486731900.24793 |                 0 |              10 |                  4718 |                  699 |             763221 |         63259 |              510 |          503022 |                     0 |        355322 | 2017-02-10 13:19:29.919865+01

 2017-02-10 14:05:01.292527+01 | 1486731901.29253 |                 0 |              10 |                  4718 |                  699 |             763221 |         63259 |              510 |          503022 |                     0 |        355419 | 2017-02-10 13:19:29.919865+01

 2017-02-10 14:05:02.348785+01 | 1486731902.34878 |                 0 |              10 |                  4718 |                  699 |             763221 |         63259 |              510 |          503022 |                     0 |        355534 | 2017-02-10 13:19:29.919865+01

 2017-02-10 14:05:03.400507+01 | 1486731903.40051 |                 0 |              10 |                  4718 |                  699 |             763221 |         63259 |              510 |          503022 |                     0 |        355642 | 2017-02-10 13:19:29.919865+01

 2017-02-10 14:05:04.454406+01 | 1486731904.45441 |                 0 |              10 |                  4718 |                  699 |             763221 |         63259 |              510 |          503022 |                     0 |        355715 | 2017-02-10 13:19:29.919865+01

 2017-02-10 14:05:05.508701+01 | 1486731905.5087 |                 0 |              10 |                  4718 |                  699 |             763221 |         63259 |              510 |          503022 |                     0 |        355815 | 2017-02-10 13:19:29.919865+01

 2017-02-10 14:05:06.563308+01 | 1486731906.56331 |                 0 |              10 |                  4718 |                  699 |             763221 |         63259 |              510 |          503022 |                     0 |        355890 | 2017-02-10 13:19:29.919865+01

 2017-02-10 14:05:07.619035+01 | 1486731907.61904 |                 0 |              10 |                  4718 |                  699 |             763221 |         63259 |              510 |          503022 |                     0 |        356034 | 2017-02-10 13:19:29.919865+01

 2017-02-10 14:05:08.670222+01 | 1486731908.67022 |                 0 |              10 |                  4718 |                  699 |             763221 |         63259 |              510 |          503022 |                     0 |        356118 | 2017-02-10 13:19:29.919865+01

 2017-02-10 14:05:09.723064+01 | 1486731909.72306 |                 0 |              10 |                  4718 |                  699 |             763221 |         63259 |              510 |          503022 |                     0 |        356225 | 2017-02-10 13:19:29.919865+01

 2017-02-10 14:05:10.773558+01 | 1486731910.77356 |                 0 |              10 |                  4718 |                  699 |             763221 |         63259 |              510 |          503022 |                     0 |        356317 | 2017-02-10 13:19:29.919865+01

 2017-02-10 14:05:11.825122+01 | 1486731911.82512 |                 0 |              10 |                  4718 |                  699 |             763221 |         63259 |              510 |          503022 |                     0 |        356433 | 2017-02-10 13:19:29.919865+01

 2017-02-10 14:05:12.876724+01 | 1486731912.87672 |                 0 |              10 |                  4718 |                  699 |             763221 |         63259 |              510 |          503022 |                     0 |        356522 | 2017-02-10 13:19:29.919865+01

 2017-02-10 14:05:13.927508+01 | 1486731913.92751 |                 0 |              10 |                  4718 |                  699 |             763221 |         63259 |              510 |          503022 |                     0 |        356628 | 2017-02-10 13:19:29.919865+01

 2017-02-10 14:05:14.983077+01 | 1486731914.98308 |                 0 |              10 |                  4718 |                  699 |             763221 |         63259 |              510 |          503022 |                     0 |        356737 | 2017-02-10 13:19:29.919865+01

 2017-02-10 14:05:16.034206+01 | 1486731916.03421 |                 0 |              10 |                  4718 |                  699 |             763221 |         63259 |              510 |          503022 |                     0 |        356828 | 2017-02-10 13:19:29.919865+01

 2017-02-10 14:05:17.086279+01 | 1486731917.08628 |                 0 |              10 |                  4718 |                  699 |             763221 |         63259 |              510 |          503022 |                     0 |        356893 | 2017-02-10 13:19:29.919865+01

 2017-02-10 14:05:18.142445+01 | 1486731918.14245 |                 0 |              10 |                  4718 |                  699 |             763221 |         63259 |              510 |          503022 |                     0 |        357006 | 2017-02-10 13:19:29.919865+01

 2017-02-10 14:05:19.193202+01 | 1486731919.1932 |                 0 |              10 |                  4718 |                  699 |             763221 |         63259 |              510 |          503022 |                     0 |        357111 | 2017-02-10 13:19:29.919865+01

 2017-02-10 14:05:20.245155+01 | 1486731920.24516 |                 0 |              10 |                  4718 |                  699 |             763221 |         63259 |              510 |          503022 |                     0 |        357204 | 2017-02-10 13:19:29.919865+01

 2017-02-10 14:05:21.299152+01 | 1486731921.29915 |                 0 |              10 |                  4718 |                  699 |             763221 |         63259 |              510 |          503022 |                     0 |        357299 | 2017-02-10 13:19:29.919865+01

 2017-02-10 14:05:22.351377+01 | 1486731922.35138 |                 0 |              10 |                  4718 |                  699 |             763221 |         63259 |              510 |          503022 |                     0 |        357395 | 2017-02-10 13:19:29.919865+01

 2017-02-10 14:05:23.405517+01 | 1486731923.40552 |                 0 |              10 |                  4718 |                  699 |             763221 |         63259 |              510 |          503022 |                     0 |        357508 | 2017-02-10 13:19:29.919865+01

 2017-02-10 14:05:24.456869+01 | 1486731924.45687 |                 0 |              10 |                  4718 |                  699 |             763221 |         63259 |              510 |          503022 |                     0 |        357603 | 2017-02-10 13:19:29.919865+01

 2017-02-10 14:05:25.512563+01 | 1486731925.51256 |                 0 |              10 |                  4718 |                  699 |             763221 |         63259 |              510 |          503022 |                     0 |        357738 | 2017-02-10 13:19:29.919865+01

 2017-02-10 14:05:26.562907+01 | 1486731926.56291 |                 0 |              10 |                  4718 |                  699 |             763221 |         63259 |              510 |          503022 |                     0 |        357826 | 2017-02-10 13:19:29.919865+01

 2017-02-10 14:05:27.618362+01 | 1486731927.61836 |                 0 |              10 |                  4718 |                  699 |             763221 |         63259 |              510 |          503022 |                     0 |        357918 | 2017-02-10 13:19:29.919865+01

 2017-02-10 14:05:28.670772+01 | 1486731928.67077 |                 0 |              10 |                  4718 |                  699 |             763221 |         63259 |              510 |          503022 |                     0 |        358015 | 2017-02-10 13:19:29.919865+01

 2017-02-10 14:05:29.721097+01 | 1486731929.7211 |                 0 |              10 |                  4718 |                  699 |             763221 |         63259 |              510 |          503022 |                     0 |        358135 | 2017-02-10 13:19:29.919865+01

 2017-02-10 14:05:30.772558+01 | 1486731930.77256 |                 0 |              10 |                  4718 |                  699 |             763221 |         63259 |              510 |          503022 |                     0 |        358206 | 2017-02-10 13:19:29.919865+01

 2017-02-10 14:05:31.82128+01 | 1486731931.82128 |                 0 |              10 |                  4718 |                  699 |             763221 |         63259 |              510 |          503022 |                     0 |        358294 | 2017-02-10 13:19:29.919865+01

 2017-02-10 14:05:32.87071+01 | 1486731932.87071 |                 0 |              10 |                  4718 |                  699 |             763221 |         63259 |              510 |          503022 |                     0 |        358424 | 2017-02-10 13:19:29.919865+01

 2017-02-10 14:05:33.924132+01 | 1486731933.92413 |                 0 |              10 |                  4718 |                  699 |             763221 |         63259 |              510 |          503022 |                     0 |        358515 | 2017-02-10 13:19:29.919865+01

 2017-02-10 14:05:34.975357+01 | 1486731934.97536 |                 0 |              10 |                  4718 |                  699 |             763221 |         63259 |              510 |          503022 |                     0 |        358627 | 2017-02-10 13:19:29.919865+01

 2017-02-10 14:05:36.026136+01 | 1486731936.02614 |                 0 |              10 |                  4718 |                  699 |             763221 |         63259 |              510 |          503022 |                     0 |        358708 | 2017-02-10 13:19:29.919865+01

 2017-02-10 14:05:37.078944+01 | 1486731937.07894 |                 0 |              10 |                  4718 |                  699 |             763221 |         63259 |              510 |          503022 |                     0 |        358825 | 2017-02-10 13:19:29.919865+01

 2017-02-10 14:05:38.129239+01 | 1486731938.12924 |                 0 |              10 |                  4718 |                  699 |             763221 |         63259 |              510 |          503022 |                     0 |        358904 | 2017-02-10 13:19:29.919865+01

 2017-02-10 14:05:39.181433+01 | 1486731939.18143 |                 0 |              10 |                  4718 |                  699 |             763221 |         63259 |              510 |          503022 |                     0 |        359006 | 2017-02-10 13:19:29.919865+01

 2017-02-10 14:05:40.234213+01 | 1486731940.23421 |                 0 |              10 |                  4718 |                  699 |             763221 |         63259 |              510 |          503022 |                     0 |        359109 | 2017-02-10 13:19:29.919865+01

 2017-02-10 14:05:41.286092+01 | 1486731941.28609 |                 0 |              10 |                  4718 |                  699 |             763221 |         63259 |              510 |          503022 |                     0 |        359238 | 2017-02-10 13:19:29.919865+01

 2017-02-10 14:05:42.34154+01 | 1486731942.34154 |                 0 |              10 |                  4718 |                  699 |             763221 |         63259 |              510 |          503022 |                     0 |        359352 | 2017-02-10 13:19:29.919865+01

 2017-02-10 14:05:43.393771+01 | 1486731943.39377 |                 0 |              10 |                  4718 |                  699 |             763221 |         63259 |              510 |          503022 |                     0 |        359408 | 2017-02-10 13:19:29.919865+01

 2017-02-10 14:05:44.44644+01 | 1486731944.44644 |                 0 |              10 |                  4718 |                  699 |             763221 |         63259 |              510 |          503022 |                     0 |        359505 | 2017-02-10 13:19:29.919865+01

 2017-02-10 14:05:45.498201+01 | 1486731945.4982 |                 0 |              10 |                  4718 |                  699 |             763221 |         63259 |              510 |          503022 |                     0 |        359617 | 2017-02-10 13:19:29.919865+01

 2017-02-10 14:05:46.547738+01 | 1486731946.54774 |                 0 |              10 |                  4718 |                  699 |             763221 |         63259 |              510 |          503022 |                     0 |        359713 | 2017-02-10 13:19:29.919865+01

 2017-02-10 14:05:47.598462+01 | 1486731947.59846 |                 0 |              10 |                  4718 |                  699 |             763221 |         63259 |              510 |          503022 |                     0 |        359808 | 2017-02-10 13:19:29.919865+01

 2017-02-10 14:05:48.650151+01 | 1486731948.65015 |                 0 |              10 |                  4718 |                  699 |             763221 |         63259 |              510 |          503022 |                     0 |        359901 | 2017-02-10 13:19:29.919865+01

 2017-02-10 14:05:49.702119+01 | 1486731949.70212 |                 0 |              10 |                  4718 |                  699 |             763221 |         63259 |              510 |          503022 |                     0 |        360010 | 2017-02-10 13:19:29.919865+01

 2017-02-10 14:05:50.752772+01 | 1486731950.75277 |                 0 |              10 |                  4718 |                  699 |             763221 |         63259 |              510 |          503022 |                     0 |        360119 | 2017-02-10 13:19:29.919865+01

 2017-02-10 14:05:51.80291+01 | 1486731951.80291 |                 0 |              10 |                  4718 |                  699 |             763221 |         63259 |              510 |          503022 |                     0 |        360230 | 2017-02-10 13:19:29.919865+01

 2017-02-10 14:05:52.859011+01 | 1486731952.85901 |                 0 |              10 |                  4718 |                  699 |             763221 |         63259 |              510 |          503022 |                     0 |        360322 | 2017-02-10 13:19:29.919865+01

 2017-02-10 14:05:53.91029+01 | 1486731953.91029 |                 0 |              10 |                  4718 |                  699 |             763221 |         63259 |              510 |          503022 |                     0 |        360414 | 2017-02-10 13:19:29.919865+01

 2017-02-10 14:05:54.961497+01 | 1486731954.9615 |                 0 |              10 |                  4718 |                  699 |             763221 |         63259 |              510 |          503022 |                     0 |        360513 | 2017-02-10 13:19:29.919865+01

 2017-02-10 14:05:56.014499+01 | 1486731956.0145 |                 0 |              10 |                  4718 |                  699 |             763221 |         63259 |              510 |          503022 |                     0 |        360622 | 2017-02-10 13:19:29.919865+01

 2017-02-10 14:05:57.066883+01 | 1486731957.06688 |                 0 |              10 |                  4718 |                  699 |             763221 |         63259 |              510 |          503022 |                     0 |        360714 | 2017-02-10 13:19:29.919865+01

 2017-02-10 14:05:58.118437+01 | 1486731958.11844 |                 0 |              10 |                  4718 |                  699 |             763221 |         63259 |              510 |          503022 |                     0 |        360849 | 2017-02-10 13:19:29.919865+01

 2017-02-10 14:05:59.169586+01 | 1486731959.16959 |                 0 |              10 |                  4718 |                  699 |             763221 |         63259 |              510 |          503022 |                     0 |        360917 | 2017-02-10 13:19:29.919865+01

 2017-02-10 14:06:00.221798+01 | 1486731960.2218 |                 0 |              10 |                  4718 |                  699 |             763221 |         63259 |              510 |          503022 |                     0 |        361017 | 2017-02-10 13:19:29.919865+01

 2017-02-10 14:06:01.265533+01 | 1486731961.26553 |                 0 |              10 |                  4718 |                  699 |             763221 |         63259 |              510 |          503022 |                     0 |        361106 | 2017-02-10 13:19:29.919865+01

 2017-02-10 14:06:02.318939+01 | 1486731962.31894 |                 0 |              10 |                  4718 |                  699 |             763221 |         63259 |              510 |          503022 |                     0 |        361203 | 2017-02-10 13:19:29.919865+01

 2017-02-10 14:06:03.370977+01 | 1486731963.37098 |                 0 |              10 |                  4718 |                  699 |             763221 |         63259 |              510 |          503022 |                     0 |        361313 | 2017-02-10 13:19:29.919865+01

 2017-02-10 14:06:04.425453+01 | 1486731964.42545 |                 0 |              10 |                  4718 |                  699 |             763221 |         63259 |              510 |          503022 |                     0 |        361436 | 2017-02-10 13:19:29.919865+01

 2017-02-10 14:06:05.480655+01 | 1486731965.48065 |                 0 |              10 |                  4718 |                  699 |             763221 |         63259 |              510 |          503022 |                     0 |        361522 | 2017-02-10 13:19:29.919865+01

 2017-02-10 14:06:06.536416+01 | 1486731966.53642 |                 0 |              10 |                  4718 |                  699 |             763221 |         63259 |              510 |          503022 |                     0 |        361613 | 2017-02-10 13:19:29.919865+01

 2017-02-10 14:06:07.588632+01 | 1486731967.58863 |                 0 |              10 |                  4718 |                  699 |             763221 |         63259 |              510 |          503022 |                     0 |        361769 | 2017-02-10 13:19:29.919865+01

 2017-02-10 14:06:08.63914+01 | 1486731968.63914 |                 0 |              10 |                  4718 |                  699 |             763221 |         63259 |              510 |          503022 |                     0 |        361858 | 2017-02-10 13:19:29.919865+01

 2017-02-10 14:06:09.690833+01 | 1486731969.69083 |                 0 |              10 |                  4718 |                  699 |             763221 |         63259 |              510 |          503022 |                     0 |        361932 | 2017-02-10 13:19:29.919865+01

 2017-02-10 14:06:10.745198+01 | 1486731970.7452 |                 0 |              10 |                  4718 |                  699 |             763221 |         63259 |              510 |          503022 |                     0 |        362041 | 2017-02-10 13:19:29.919865+01

 2017-02-10 14:06:11.797076+01 | 1486731971.79708 |                 0 |              10 |                  4718 |                  699 |             763221 |         63259 |              510 |          503022 |                     0 |        362107 | 2017-02-10 13:19:29.919865+01

 2017-02-10 14:06:12.849542+01 | 1486731972.84954 |                 0 |              10 |                  4718 |                  699 |             763221 |         63259 |              510 |          503022 |                     0 |        362219 | 2017-02-10 13:19:29.919865+01

 2017-02-10 14:06:13.899713+01 | 1486731973.89971 |                 0 |              10 |                  4718 |                  699 |             763221 |         63259 |              510 |          503022 |                     0 |        362360 | 2017-02-10 13:19:29.919865+01

 2017-02-10 14:06:14.953096+01 | 1486731974.9531 |                 0 |              10 |                  4718 |                  699 |             763221 |         63259 |              510 |          503022 |                     0 |        362469 | 2017-02-10 13:19:29.919865+01

 2017-02-10 14:06:16.003791+01 | 1486731976.00379 |                 0 |              10 |                  4718 |                  699 |             763221 |         63259 |              510 |          503022 |                     0 |        362542 | 2017-02-10 13:19:29.919865+01

 2017-02-10 14:06:17.054395+01 | 1486731977.05439 |                 0 |              10 |                  4718 |                  699 |             763221 |         63259 |              510 |          503022 |                     0 |        362635 | 2017-02-10 13:19:29.919865+01

 2017-02-10 14:06:18.107347+01 | 1486731978.10735 |                 0 |              10 |                  4718 |                  699 |             763221 |         63259 |              510 |          503022 |                     0 |        362723 | 2017-02-10 13:19:29.919865+01

 2017-02-10 14:06:19.162237+01 | 1486731979.16224 |                 0 |              10 |                  4718 |                  699 |             763221 |         63259 |              510 |          503022 |                     0 |        362844 | 2017-02-10 13:19:29.919865+01

 2017-02-10 14:06:20.218876+01 | 1486731980.21888 |                 0 |              10 |                  4718 |                  699 |             763221 |         63259 |              510 |          503022 |                     0 |        362916 | 2017-02-10 13:19:29.919865+01

 2017-02-10 14:06:21.268755+01 | 1486731981.26875 |                 0 |              10 |                  4718 |                  699 |             763221 |         63259 |              510 |          503022 |                     0 |        363036 | 2017-02-10 13:19:29.919865+01

 2017-02-10 14:06:22.319568+01 | 1486731982.31957 |                 0 |              10 |                  4718 |                  699 |             763221 |         63259 |              510 |          503022 |                     0 |        363151 | 2017-02-10 13:19:29.919865+01

 2017-02-10 14:06:23.371504+01 | 1486731983.3715 |                 0 |              10 |                  4718 |                  699 |             763221 |         63259 |              510 |          503022 |                     0 |        363241 | 2017-02-10 13:19:29.919865+01

 2017-02-10 14:06:24.420843+01 | 1486731984.42084 |                 0 |              10 |                  4718 |                  699 |             763221 |         63259 |              510 |          503022 |                     0 |        363351 | 2017-02-10 13:19:29.919865+01

 2017-02-10 14:06:25.472171+01 | 1486731985.47217 |                 0 |              10 |                  4718 |                  699 |             763221 |         63259 |              510 |          503022 |                     0 |        363440 | 2017-02-10 13:19:29.919865+01

 2017-02-10 14:06:26.527378+01 | 1486731986.52738 |                 0 |              10 |                  4718 |                  699 |             763221 |         63259 |              510 |          503022 |                     0 |        363529 | 2017-02-10 13:19:29.919865+01

 2017-02-10 14:06:27.578031+01 | 1486731987.57803 |                 0 |              10 |                  4718 |                  699 |             763221 |         63259 |              510 |          503022 |                     0 |        363623 | 2017-02-10 13:19:29.919865+01

 2017-02-10 14:06:28.634128+01 | 1486731988.63413 |                 0 |              10 |                  4718 |                  699 |             763221 |         63259 |              510 |          503022 |                     0 |        363730 | 2017-02-10 13:19:29.919865+01

 2017-02-10 14:06:29.693853+01 | 1486731989.69385 |                 0 |              10 |                  4718 |                  699 |             763221 |         63259 |              510 |          503022 |                     0 |        363843 | 2017-02-10 13:19:29.919865+01

 2017-02-10 14:06:30.748856+01 | 1486731990.74886 |                 0 |              10 |                  4718 |                  699 |             763221 |         63259 |              510 |          503022 |                     0 |        363941 | 2017-02-10 13:19:29.919865+01

 2017-02-10 14:06:31.799238+01 | 1486731991.79924 |                 0 |              10 |                  4718 |                  699 |             763221 |         63259 |              510 |          503022 |                     0 |        364059 | 2017-02-10 13:19:29.919865+01

 2017-02-10 14:06:32.850866+01 | 1486731992.85087 |                 0 |              10 |                  4718 |                  699 |             763221 |         63259 |              510 |          503022 |                     0 |        364132 | 2017-02-10 13:19:29.919865+01

 2017-02-10 14:06:33.900746+01 | 1486731993.90075 |                 0 |              10 |                  4718 |                  699 |             763221 |         63259 |              510 |          503022 |                     0 |        364228 | 2017-02-10 13:19:29.919865+01

 2017-02-10 14:06:34.955151+01 | 1486731994.95515 |                 0 |              10 |                  4718 |                  699 |             763221 |         63259 |              510 |          503022 |                     0 |        364343 | 2017-02-10 13:19:29.919865+01

 2017-02-10 14:06:36.009651+01 | 1486731996.00965 |                 0 |              10 |                  4718 |                  699 |             763221 |         63259 |              510 |          503022 |                     0 |        364438 | 2017-02-10 13:19:29.919865+01

 2017-02-10 14:06:37.069505+01 | 1486731997.0695 |                 0 |              10 |                  4718 |                  699 |             763221 |         63259 |              510 |          503022 |                     0 |        364527 | 2017-02-10 13:19:29.919865+01

 2017-02-10 14:06:38.122167+01 | 1486731998.12217 |                 0 |              10 |                  4718 |                  699 |             763221 |         63259 |              510 |          503022 |                     0 |        364659 | 2017-02-10 13:19:29.919865+01

 2017-02-10 14:06:39.172749+01 | 1486731999.17275 |                 0 |              10 |                  4718 |                  699 |             763221 |         63259 |              510 |          503022 |                     0 |        364728 | 2017-02-10 13:19:29.919865+01

 2017-02-10 14:06:40.225321+01 | 1486732000.22532 |                 0 |              10 |                  4718 |                  699 |             763221 |         63259 |              510 |          503022 |                     0 |        364867 | 2017-02-10 13:19:29.919865+01

 2017-02-10 14:06:41.275816+01 | 1486732001.27582 |                 0 |              10 |                  4718 |                  699 |             763221 |         63259 |              510 |          503022 |                     0 |        364936 | 2017-02-10 13:19:29.919865+01

 2017-02-10 14:06:42.328731+01 | 1486732002.32873 |                 0 |              10 |                  4718 |                  699 |             763221 |         63259 |              510 |          503022 |                     0 |        365062 | 2017-02-10 13:19:29.919865+01

 2017-02-10 14:06:43.37995+01 | 1486732003.37995 |                 0 |              10 |                  4718 |                  699 |             763221 |         63259 |              510 |          503022 |                     0 |        365141 | 2017-02-10 13:19:29.919865+01

 2017-02-10 14:06:44.434288+01 | 1486732004.43429 |                 0 |              10 |                  4718 |                  699 |             763221 |         63259 |              510 |          503022 |                     0 |        365244 | 2017-02-10 13:19:29.919865+01

 2017-02-10 14:06:45.489127+01 | 1486732005.48913 |                 0 |              10 |                  4718 |                  699 |             763221 |         63259 |              510 |          503022 |                     0 |        365345 | 2017-02-10 13:19:29.919865+01

 2017-02-10 14:06:46.537833+01 | 1486732006.53783 |                 0 |              10 |                  4718 |                  699 |             763221 |         63259 |              510 |          503022 |                     0 |        365435 | 2017-02-10 13:19:29.919865+01

 2017-02-10 14:06:47.588859+01 | 1486732007.58886 |                 0 |              10 |                  4718 |                  699 |             763221 |         63259 |              510 |          503022 |                     0 |        365536 | 2017-02-10 13:19:29.919865+01

 2017-02-10 14:06:48.640612+01 | 1486732008.64061 |                 0 |              10 |                  4718 |                  699 |             763221 |         63259 |              510 |          503022 |                     0 |        365672 | 2017-02-10 13:19:29.919865+01

 2017-02-10 14:06:49.690915+01 | 1486732009.69092 |                 0 |              10 |                  4718 |                  699 |             763221 |         63259 |              510 |          503022 |                     0 |        365739 | 2017-02-10 13:19:29.919865+01

 2017-02-10 14:06:50.745008+01 | 1486732010.74501 |                 0 |              10 |                  4718 |                  699 |             763221 |         63259 |              510 |          503022 |                     0 |        365850 | 2017-02-10 13:19:29.919865+01

 2017-02-10 14:06:51.799369+01 | 1486732011.79937 |                 0 |              10 |                  4718 |                  699 |             763221 |         63259 |              510 |          503022 |                     0 |        365939 | 2017-02-10 13:19:29.919865+01

 2017-02-10 14:06:52.848973+01 | 1486732012.84897 |                 0 |              10 |                  4718 |                  699 |             763221 |         63259 |              510 |          503022 |                     0 |        366023 | 2017-02-10 13:19:29.919865+01

 2017-02-10 14:06:53.90271+01 | 1486732013.90271 |                 0 |              10 |                  4718 |                  699 |             763221 |         63259 |              510 |          503022 |                     0 |        366154 | 2017-02-10 13:19:29.919865+01

 2017-02-10 14:06:54.955103+01 | 1486732014.9551 |                 0 |              10 |                  4718 |                  699 |             763221 |         63259 |              510 |          503022 |                     0 |        366244 | 2017-02-10 13:19:29.919865+01

 2017-02-10 14:06:56.008944+01 | 1486732016.00894 |                 0 |              10 |                  4718 |                  699 |             763221 |         63259 |              510 |          503022 |                     0 |        366332 | 2017-02-10 13:19:29.919865+01

 2017-02-10 14:06:57.059182+01 | 1486732017.05918 |                 0 |              10 |                  4718 |                  699 |             763221 |         63259 |              510 |          503022 |                     0 |        366467 | 2017-02-10 13:19:29.919865+01

 2017-02-10 14:06:58.114183+01 | 1486732018.11418 |                 0 |              10 |                  4718 |                  699 |             763221 |         63259 |              510 |          503022 |                     0 |        366535 | 2017-02-10 13:19:29.919865+01

 2017-02-10 14:06:59.169588+01 | 1486732019.16959 |                 0 |              10 |                  4718 |                  699 |             763221 |         63259 |              510 |          503022 |                     0 |        366631 | 2017-02-10 13:19:29.919865+01

 2017-02-10 14:07:00.218432+01 | 1486732020.21843 |                 0 |              10 |                  4718 |                  699 |             763221 |         63259 |              510 |          503022 |                     0 |        366792 | 2017-02-10 13:19:29.919865+01

 2017-02-10 14:07:01.288184+01 | 1486732021.28818 |                 0 |              10 |                  4718 |                  699 |             763221 |         63259 |              510 |          503022 |                     0 |        366835 | 2017-02-10 13:19:29.919865+01

 2017-02-10 14:07:02.342243+01 | 1486732022.34224 |                 0 |              10 |                  4718 |                  699 |             763221 |         63259 |              510 |          503022 |                     0 |        366944 | 2017-02-10 13:19:29.919865+01

 2017-02-10 14:07:03.403845+01 | 1486732023.40385 |                 0 |              10 |                  4718 |                  699 |             763221 |         63259 |              510 |          503022 |                     0 |        367036 | 2017-02-10 13:19:29.919865+01

 2017-02-10 14:07:04.457418+01 | 1486732024.45742 |                 0 |              10 |                  4718 |                  699 |             763221 |         63259 |              510 |          503022 |                     0 |        367158 | 2017-02-10 13:19:29.919865+01

 2017-02-10 14:07:05.518616+01 | 1486732025.51862 |                 0 |              10 |                  4718 |                  699 |             763221 |         63259 |              510 |          503022 |                     0 |        367286 | 2017-02-10 13:19:29.919865+01

 2017-02-10 14:07:06.570325+01 | 1486732026.57032 |                 0 |              10 |                  4718 |                  699 |             763221 |         63259 |              510 |          503022 |                     0 |        367381 | 2017-02-10 13:19:29.919865+01

 2017-02-10 14:07:07.619948+01 | 1486732027.61995 |                 0 |              10 |                  4718 |                  699 |             763221 |         63259 |              510 |          503022 |                     0 |        367448 | 2017-02-10 13:19:29.919865+01

 2017-02-10 14:07:08.673456+01 | 1486732028.67346 |                 0 |              10 |                  4718 |                  699 |             763221 |         63259 |              510 |          503022 |                     0 |        367567 | 2017-02-10 13:19:29.919865+01

 2017-02-10 14:07:09.725527+01 | 1486732029.72553 |                 0 |              10 |                  4718 |                  699 |             763221 |         63259 |              510 |          503022 |                     0 |        367656 | 2017-02-10 13:19:29.919865+01

 2017-02-10 14:07:10.775284+01 | 1486732030.77528 |                 0 |              10 |                  4718 |                  699 |             763221 |         63259 |              510 |          503022 |                     0 |        367738 | 2017-02-10 13:19:29.919865+01

 2017-02-10 14:07:11.828056+01 | 1486732031.82806 |                 0 |              10 |                  4718 |                  699 |             763221 |         63259 |              510 |          503022 |                     0 |        367874 | 2017-02-10 13:19:29.919865+01

 2017-02-10 14:07:12.882344+01 | 1486732032.88234 |                 0 |              10 |                  4718 |                  699 |             763221 |         63259 |              510 |          503022 |                     0 |        367940 | 2017-02-10 13:19:29.919865+01

 2017-02-10 14:07:13.935139+01 | 1486732033.93514 |                 0 |              10 |                  4718 |                  699 |             763221 |         63259 |              510 |          503022 |                     0 |        368049 | 2017-02-10 13:19:29.919865+01

 2017-02-10 14:07:14.98487+01 | 1486732034.98487 |                 0 |              10 |                  4718 |                  699 |             763221 |         63259 |              510 |          503022 |                     0 |        368121 | 2017-02-10 13:19:29.919865+01

 2017-02-10 14:07:16.037874+01 | 1486732036.03787 |                 0 |              10 |                  4718 |                  699 |             763221 |         63259 |              510 |          503022 |                     0 |        368233 | 2017-02-10 13:19:29.919865+01

 2017-02-10 14:07:17.092816+01 | 1486732037.09282 |                 0 |              10 |                  4718 |                  699 |             763221 |         63259 |              510 |          503022 |                     0 |        368404 | 2017-02-10 13:19:29.919865+01

 2017-02-10 14:07:18.144487+01 | 1486732038.14449 |                 0 |              10 |                  4718 |                  699 |             763221 |         63259 |              510 |          503022 |                     0 |        368470 | 2017-02-10 13:19:29.919865+01

 2017-02-10 14:07:19.196086+01 | 1486732039.19609 |                 0 |              10 |                  4718 |                  699 |             763221 |         63259 |              510 |          503022 |                     0 |        368535 | 2017-02-10 13:19:29.919865+01

 2017-02-10 14:07:20.246989+01 | 1486732040.24699 |                 0 |              10 |                  4718 |                  699 |             763221 |         63259 |              510 |          503022 |                     0 |        368655 | 2017-02-10 13:19:29.919865+01

 2017-02-10 14:07:21.29687+01 | 1486732041.29687 |                 0 |              10 |                  4718 |                  699 |             763221 |         63259 |              510 |          503022 |                     0 |        368746 | 2017-02-10 13:19:29.919865+01

 2017-02-10 14:07:22.34727+01 | 1486732042.34727 |                 0 |              10 |                  4718 |                  699 |             763221 |         63259 |              510 |          503022 |                     0 |        368873 | 2017-02-10 13:19:29.919865+01

 2017-02-10 14:07:23.404015+01 | 1486732043.40402 |                 0 |              10 |                  4718 |                  699 |             763221 |         63259 |              510 |          503022 |                     0 |        368923 | 2017-02-10 13:19:29.919865+01

 2017-02-10 14:07:24.456318+01 | 1486732044.45632 |                 0 |              10 |                  4718 |                  699 |             763221 |         63259 |              510 |          503022 |                     0 |        369075 | 2017-02-10 13:19:29.919865+01

 2017-02-10 14:07:25.51044+01 | 1486732045.51044 |                 0 |              10 |                  4718 |                  699 |             763221 |         63259 |              510 |          503022 |                     0 |        369146 | 2017-02-10 13:19:29.919865+01

 2017-02-10 14:07:26.561016+01 | 1486732046.56102 |                 0 |              10 |                  4718 |                  699 |             763221 |         63259 |              510 |          503022 |                     0 |        369238 | 2017-02-10 13:19:29.919865+01

 2017-02-10 14:07:27.613428+01 | 1486732047.61343 |                 0 |              10 |                  4718 |                  699 |             763221 |         63259 |              510 |          503022 |                     0 |        369338 | 2017-02-10 13:19:29.919865+01

 2017-02-10 14:07:28.665918+01 | 1486732048.66592 |                 0 |              10 |                  4718 |                  699 |             763221 |         63259 |              510 |          503022 |                     0 |        369427 | 2017-02-10 13:19:29.919865+01

 2017-02-10 14:07:29.719307+01 | 1486732049.71931 |                 0 |              10 |                  4718 |                  699 |             763221 |         63259 |              510 |          503022 |                     0 |        369524 | 2017-02-10 13:19:29.919865+01

 2017-02-10 14:07:30.769834+01 | 1486732050.76983 |                 0 |              10 |                  4718 |                  699 |             763221 |         63259 |              510 |          503022 |                     0 |        369619 | 2017-02-10 13:19:29.919865+01

 2017-02-10 14:07:31.82462+01 | 1486732051.82462 |                 0 |              10 |                  4718 |                  699 |             763221 |         63259 |              510 |          503022 |                     0 |        369736 | 2017-02-10 13:19:29.919865+01

 2017-02-10 14:07:32.877451+01 | 1486732052.87745 |                 0 |              10 |                  4718 |                  699 |             763221 |         63259 |              510 |          503022 |                     0 |        369831 | 2017-02-10 13:19:29.919865+01

 2017-02-10 14:07:33.930217+01 | 1486732053.93022 |                 0 |              10 |                  4718 |                  699 |             763221 |         63259 |              510 |          503022 |                     0 |        369924 | 2017-02-10 13:19:29.919865+01

 2017-02-10 14:07:34.980152+01 | 1486732054.98015 |                 0 |              10 |                  4718 |                  699 |             763221 |         63259 |              510 |          503022 |                     0 |        370038 | 2017-02-10 13:19:29.919865+01

 2017-02-10 14:07:36.034316+01 | 1486732056.03432 |                 0 |              10 |                  4718 |                  699 |             763221 |         63259 |              510 |          503022 |                     0 |        370146 | 2017-02-10 13:19:29.919865+01

 2017-02-10 14:07:37.09052+01 | 1486732057.09052 |                 0 |              10 |                  4718 |                  699 |             763221 |         63259 |              510 |          503022 |                     0 |        370243 | 2017-02-10 13:19:29.919865+01

 2017-02-10 14:07:38.144471+01 | 1486732058.14447 |                 0 |              10 |                  4718 |                  699 |             763221 |         63259 |              510 |          503022 |                     0 |        370330 | 2017-02-10 13:19:29.919865+01

 2017-02-10 14:07:39.196028+01 | 1486732059.19603 |                 0 |              10 |                  4718 |                  699 |             763221 |         63259 |              510 |          503022 |                     0 |        370461 | 2017-02-10 13:19:29.919865+01

 2017-02-10 14:07:40.246519+01 | 1486732060.24652 |                 0 |              10 |                  4718 |                  699 |             763221 |         63259 |              510 |          503022 |                     0 |        370537 | 2017-02-10 13:19:29.919865+01

 2017-02-10 14:07:41.297536+01 | 1486732061.29754 |                 0 |              10 |                  4718 |                  699 |             763221 |         63259 |              510 |          503022 |                     0 |        370640 | 2017-02-10 13:19:29.919865+01

 2017-02-10 14:07:42.349364+01 | 1486732062.34936 |                 0 |              10 |                  4718 |                  699 |             763221 |         63259 |              510 |          503022 |                     0 |        370753 | 2017-02-10 13:19:29.919865+01

 2017-02-10 14:07:43.401737+01 | 1486732063.40174 |                 0 |              10 |                  4718 |                  699 |             763221 |         63259 |              510 |          503022 |                     0 |        370847 | 2017-02-10 13:19:29.919865+01

 2017-02-10 14:07:44.450928+01 | 1486732064.45093 |                 0 |              10 |                  4718 |                  699 |             763221 |         63259 |              510 |          503022 |                     0 |        370965 | 2017-02-10 13:19:29.919865+01

 2017-02-10 14:07:45.504893+01 | 1486732065.50489 |                 0 |              10 |                  4718 |                  699 |             763221 |         63259 |              510 |          503022 |                     0 |        371034 | 2017-02-10 13:19:29.919865+01

 2017-02-10 14:07:46.55842+01 | 1486732066.55842 |                 0 |              10 |                  4718 |                  699 |             763221 |         63259 |              510 |          503022 |                     0 |        371150 | 2017-02-10 13:19:29.919865+01

 2017-02-10 14:07:47.610671+01 | 1486732067.61067 |                 0 |              10 |                  4718 |                  699 |             763221 |         63259 |              510 |          503022 |                     0 |        371267 | 2017-02-10 13:19:29.919865+01

 2017-02-10 14:07:48.661651+01 | 1486732068.66165 |                 0 |              10 |                  4718 |                  699 |             763221 |         63259 |              510 |          503022 |                     0 |        371379 | 2017-02-10 13:19:29.919865+01

 2017-02-10 14:07:49.71303+01 | 1486732069.71303 |                 0 |              10 |                  4718 |                  699 |             763221 |         63259 |              510 |          503022 |                     0 |        371494 | 2017-02-10 13:19:29.919865+01

 2017-02-10 14:07:50.764091+01 | 1486732070.76409 |                 0 |              10 |                  4718 |                  699 |             763221 |         63259 |              510 |          503022 |                     0 |        371570 | 2017-02-10 13:19:29.919865+01

 2017-02-10 14:07:51.816475+01 | 1486732071.81647 |                 0 |              10 |                  4718 |                  699 |             763221 |         63259 |              510 |          503022 |                     0 |        371663 | 2017-02-10 13:19:29.919865+01

 2017-02-10 14:07:52.873706+01 | 1486732072.87371 |                 0 |              10 |                  4718 |                  699 |             763221 |         63259 |              510 |          503022 |                     0 |        371776 | 2017-02-10 13:19:29.919865+01

 2017-02-10 14:07:53.924143+01 | 1486732073.92414 |                 0 |              10 |                  4718 |                  699 |             763221 |         63259 |              510 |          503022 |                     0 |        371864 | 2017-02-10 13:19:29.919865+01

 2017-02-10 14:07:54.97684+01 | 1486732074.97684 |                 0 |              10 |                  4718 |                  699 |             763221 |         63259 |              510 |          503022 |                     0 |        371961 | 2017-02-10 13:19:29.919865+01

 2017-02-10 14:07:56.029604+01 | 1486732076.0296 |                 0 |              10 |                  4718 |                  699 |             763221 |         63259 |              510 |          503022 |                     0 |        372061 | 2017-02-10 13:19:29.919865+01

 2017-02-10 14:07:57.080119+01 | 1486732077.08012 |                 0 |              10 |                  4718 |                  699 |             763221 |         63259 |              510 |          503022 |                     0 |        372176 | 2017-02-10 13:19:29.919865+01

 2017-02-10 14:07:58.130958+01 | 1486732078.13096 |                 0 |              10 |                  4718 |                  699 |             763221 |         63259 |              510 |          503022 |                     0 |        372285 | 2017-02-10 13:19:29.919865+01

 2017-02-10 14:07:59.180939+01 | 1486732079.18094 |                 0 |              10 |                  4718 |                  699 |             763221 |         63259 |              510 |          503022 |                     0 |        372355 | 2017-02-10 13:19:29.919865+01

 2017-02-10 14:08:00.236268+01 | 1486732080.23627 |                 0 |              10 |                  4718 |                  699 |             763221 |         63259 |              510 |          503022 |                     0 |        372469 | 2017-02-10 13:19:29.919865+01

 2017-02-10 14:08:01.288701+01 | 1486732081.2887 |                 0 |              10 |                  4718 |                  699 |             763221 |         63259 |              510 |          503022 |                     0 |        372543 | 2017-02-10 13:19:29.919865+01

 2017-02-10 14:08:02.356381+01 | 1486732082.35638 |                 0 |              10 |                  4718 |                  699 |             763221 |         63259 |              510 |          503022 |                     0 |        372661 | 2017-02-10 13:19:29.919865+01

 2017-02-10 14:08:03.412871+01 | 1486732083.41287 |                 0 |              10 |                  4718 |                  699 |             763221 |         63259 |              510 |          503022 |                     0 |        372776 | 2017-02-10 13:19:29.919865+01

 2017-02-10 14:08:04.466121+01 | 1486732084.46612 |                 0 |              10 |                  4718 |                  699 |             763221 |         63259 |              510 |          503022 |                     0 |        372898 | 2017-02-10 13:19:29.919865+01

 2017-02-10 14:08:05.536305+01 | 1486732085.5363 |                 0 |              10 |                  4718 |                  699 |             763221 |         63259 |              510 |          503022 |                     0 |        372969 | 2017-02-10 13:19:29.919865+01

 2017-02-10 14:08:06.587554+01 | 1486732086.58755 |                 0 |              10 |                  4718 |                  699 |             763221 |         63259 |              510 |          503022 |                     0 |        373058 | 2017-02-10 13:19:29.919865+01

 2017-02-10 14:08:07.649845+01 | 1486732087.64984 |                 0 |              10 |                  4718 |                  699 |             763221 |         63259 |              510 |          503022 |                     0 |        373169 | 2017-02-10 13:19:29.919865+01

 2017-02-10 14:08:08.70338+01 | 1486732088.70338 |                 0 |              10 |                  4718 |                  699 |             763221 |         63259 |              510 |          503022 |                     0 |        373276 | 2017-02-10 13:19:29.919865+01

 2017-02-10 14:08:09.755021+01 | 1486732089.75502 |                 0 |              10 |                  4718 |                  699 |             763221 |         63259 |              510 |          503022 |                     0 |        373364 | 2017-02-10 13:19:29.919865+01

 2017-02-10 14:08:10.81014+01 | 1486732090.81014 |                 0 |              10 |                  4718 |                  699 |             763221 |         63259 |              510 |          503022 |                     0 |        373472 | 2017-02-10 13:19:29.919865+01

 2017-02-10 14:08:11.86374+01 | 1486732091.86374 |                 0 |              10 |                  4718 |                  699 |             763221 |         63259 |              510 |          503022 |                     0 |        373561 | 2017-02-10 13:19:29.919865+01

 2017-02-10 14:08:12.914419+01 | 1486732092.91442 |                 0 |              10 |                  4718 |                  699 |             763221 |         63259 |              510 |          503022 |                     0 |        373634 | 2017-02-10 13:19:29.919865+01

 2017-02-10 14:08:13.96742+01 | 1486732093.96742 |                 0 |              10 |                  4718 |                  699 |             763221 |         63259 |              510 |          503022 |                     0 |        373787 | 2017-02-10 13:19:29.919865+01

 2017-02-10 14:08:15.019601+01 | 1486732095.0196 |                 0 |              10 |                  4718 |                  699 |             763221 |         63259 |              510 |          503022 |                     0 |        373875 | 2017-02-10 13:19:29.919865+01

 2017-02-10 14:08:16.071727+01 | 1486732096.07173 |                 0 |              10 |                  4718 |                  699 |             763221 |         63259 |              510 |          503022 |                     0 |        373961 | 2017-02-10 13:19:29.919865+01

 2017-02-10 14:08:17.122474+01 | 1486732097.12247 |                 0 |              10 |                  4718 |                  699 |             763221 |         63259 |              510 |          503022 |                     0 |        374051 | 2017-02-10 13:19:29.919865+01

 2017-02-10 14:08:18.174662+01 | 1486732098.17466 |                 0 |              10 |                  4718 |                  699 |             763221 |         63259 |              510 |          503022 |                     0 |        374143 | 2017-02-10 13:19:29.919865+01

 2017-02-10 14:08:19.226967+01 | 1486732099.22697 |                 0 |              10 |                  4718 |                  699 |             763221 |         63259 |              510 |          503022 |                     0 |        374236 | 2017-02-10 13:19:29.919865+01

 2017-02-10 14:08:20.276338+01 | 1486732100.27634 |                 0 |              10 |                  4718 |                  699 |             763221 |         63259 |              510 |          503022 |                     0 |        374330 | 2017-02-10 13:19:29.919865+01

 2017-02-10 14:08:21.328555+01 | 1486732101.32856 |                 0 |              10 |                  4718 |                  699 |             763221 |         63259 |              510 |          503022 |                     0 |        374426 | 2017-02-10 13:19:29.919865+01

 2017-02-10 14:08:22.380518+01 | 1486732102.38052 |                 0 |              10 |                  4718 |                  699 |             763221 |         63259 |              510 |          503022 |                     0 |        374564 | 2017-02-10 13:19:29.919865+01

 2017-02-10 14:08:23.430381+01 | 1486732103.43038 |                 0 |              10 |                  4718 |                  699 |             763221 |         63259 |              510 |          503022 |                     0 |        374637 | 2017-02-10 13:19:29.919865+01

 2017-02-10 14:08:24.482524+01 | 1486732104.48252 |                 0 |              10 |                  4718 |                  699 |             763221 |         63259 |              510 |          503022 |                     0 |        374753 | 2017-02-10 13:19:29.919865+01

 2017-02-10 14:08:25.534634+01 | 1486732105.53463 |                 0 |              10 |                  4718 |                  699 |             763221 |         63259 |              510 |          503022 |                     0 |        374829 | 2017-02-10 13:19:29.919865+01

 2017-02-10 14:08:26.586521+01 | 1486732106.58652 |                 0 |              10 |                  4718 |                  699 |             763221 |         63259 |              510 |          503022 |                     0 |        374970 | 2017-02-10 13:19:29.919865+01

 2017-02-10 14:08:27.637432+01 | 1486732107.63743 |                 0 |              10 |                  4718 |                  699 |             763221 |         63259 |              510 |          503022 |                     0 |        375027 | 2017-02-10 13:19:29.919865+01

 2017-02-10 14:08:28.687549+01 | 1486732108.68755 |                 0 |              10 |                  4718 |                  699 |             763221 |         63259 |              510 |          503022 |                     0 |        375122 | 2017-02-10 13:19:29.919865+01

 2017-02-10 14:08:29.73837+01 | 1486732109.73837 |                 0 |              10 |                  4718 |                  699 |             763221 |         63259 |              510 |          503022 |                     0 |        375216 | 2017-02-10 13:19:29.919865+01

 2017-02-10 14:08:30.78838+01 | 1486732110.78838 |                 0 |              10 |                  4718 |                  699 |             763221 |         63259 |              510 |          503022 |                     0 |        375355 | 2017-02-10 13:19:29.919865+01

 2017-02-10 14:08:31.844643+01 | 1486732111.84464 |                 0 |              10 |                  4718 |                  699 |             763221 |         63259 |              510 |          503022 |                     0 |        375426 | 2017-02-10 13:19:29.919865+01

 2017-02-10 14:08:32.9002+01 | 1486732112.9002 |                 0 |              10 |                  4718 |                  699 |             763221 |         63259 |              510 |          503022 |                     0 |        375542 | 2017-02-10 13:19:29.919865+01

 2017-02-10 14:08:33.950168+01 | 1486732113.95017 |                 0 |              10 |                  4718 |                  699 |             763221 |         63259 |              510 |          503022 |                     0 |        375616 | 2017-02-10 13:19:29.919865+01

 2017-02-10 14:08:35.00261+01 | 1486732115.00261 |                 0 |              10 |                  4718 |                  699 |             763221 |         63259 |              510 |          503022 |                     0 |        375733 | 2017-02-10 13:19:29.919865+01

 2017-02-10 14:08:36.055392+01 | 1486732116.05539 |                 0 |              10 |                  4718 |                  699 |             763221 |         63259 |              510 |          503022 |                     0 |        375890 | 2017-02-10 13:19:29.919865+01

 2017-02-10 14:08:37.106903+01 | 1486732117.1069 |                 0 |              10 |                  4718 |                  699 |             763221 |         63259 |              510 |          503022 |                     0 |        375934 | 2017-02-10 13:19:29.919865+01

 2017-02-10 14:08:38.16107+01 | 1486732118.16107 |                 0 |              10 |                  4718 |                  699 |             763221 |         63259 |              510 |          503022 |                     0 |        376052 | 2017-02-10 13:19:29.919865+01

 2017-02-10 14:08:39.214443+01 | 1486732119.21444 |                 0 |              10 |                  4718 |                  699 |             763221 |         63259 |              510 |          503022 |                     0 |        376166 | 2017-02-10 13:19:29.919865+01

 2017-02-10 14:08:40.267559+01 | 1486732120.26756 |                 0 |              10 |                  4718 |                  699 |             763221 |         63259 |              510 |          503022 |                     0 |        376234 | 2017-02-10 13:19:29.919865+01

 2017-02-10 14:08:41.316944+01 | 1486732121.31694 |                 0 |              10 |                  4718 |                  699 |             763221 |         63259 |              510 |          503022 |                     0 |        376343 | 2017-02-10 13:19:29.919865+01

 2017-02-10 14:08:42.369297+01 | 1486732122.3693 |                 0 |              10 |                  4718 |                  699 |             763221 |         63259 |              510 |          503022 |                     0 |        376388 | 2017-02-10 13:19:29.919865+01

 2017-02-10 14:08:43.419255+01 | 1486732123.41926 |                 0 |              10 |                  4718 |                  699 |             763221 |         63259 |              510 |          503022 |                     0 |        376560 | 2017-02-10 13:19:29.919865+01

 2017-02-10 14:08:44.47258+01 | 1486732124.47258 |                 0 |              10 |                  4718 |                  699 |             763221 |         63259 |              510 |          503022 |                     0 |        376648 | 2017-02-10 13:19:29.919865+01

 2017-02-10 14:08:45.524554+01 | 1486732125.52455 |                 0 |              10 |                  4718 |                  699 |             763221 |         63259 |              510 |          503022 |                     0 |        376740 | 2017-02-10 13:19:29.919865+01

 2017-02-10 14:08:46.575015+01 | 1486732126.57502 |                 0 |              10 |                  4718 |                  699 |             763221 |         63259 |              510 |          503022 |                     0 |        376835 | 2017-02-10 13:19:29.919865+01

 2017-02-10 14:08:47.628624+01 | 1486732127.62862 |                 0 |              10 |                  4718 |                  699 |             763221 |         63259 |              510 |          503022 |                     0 |        376965 | 2017-02-10 13:19:29.919865+01

 2017-02-10 14:08:48.679775+01 | 1486732128.67977 |                 0 |              10 |                  4718 |                  699 |             763221 |         63259 |              510 |          503022 |                     0 |        377078 | 2017-02-10 13:19:29.919865+01

 2017-02-10 14:08:49.730424+01 | 1486732129.73042 |                 0 |              10 |                  4718 |                  699 |             763221 |         63259 |              510 |          503022 |                     0 |        377144 | 2017-02-10 13:19:29.919865+01

 2017-02-10 14:08:50.781539+01 | 1486732130.78154 |                 0 |              10 |                  4718 |                  699 |             763221 |         63259 |              510 |          503022 |                     0 |        377267 | 2017-02-10 13:19:29.919865+01

 2017-02-10 14:08:51.832486+01 | 1486732131.83249 |                 0 |              10 |                  4718 |                  699 |             763221 |         63259 |              510 |          503022 |                     0 |        377332 | 2017-02-10 13:19:29.919865+01

 2017-02-10 14:08:52.885757+01 | 1486732132.88576 |                 0 |              10 |                  4718 |                  699 |             763221 |         63259 |              510 |          503022 |                     0 |        377439 | 2017-02-10 13:19:29.919865+01

 2017-02-10 14:08:53.937789+01 | 1486732133.93779 |                 0 |              10 |                  4718 |                  699 |             763221 |         63259 |              510 |          503022 |                     0 |        377530 | 2017-02-10 13:19:29.919865+01

 2017-02-10 14:08:54.989917+01 | 1486732134.98992 |                 0 |              10 |                  4718 |                  699 |             763221 |         63259 |              510 |          503022 |                     0 |        377661 | 2017-02-10 13:19:29.919865+01

 2017-02-10 14:08:56.040255+01 | 1486732136.04026 |                 0 |              10 |                  4718 |                  699 |             763221 |         63259 |              510 |          503022 |                     0 |        377750 | 2017-02-10 13:19:29.919865+01

 2017-02-10 14:08:57.093818+01 | 1486732137.09382 |                 0 |              10 |                  4718 |                  699 |             763221 |         63259 |              510 |          503022 |                     0 |        377838 | 2017-02-10 13:19:29.919865+01

 2017-02-10 14:08:58.14492+01 | 1486732138.14492 |                 0 |              10 |                  4718 |                  699 |             763221 |         63259 |              510 |          503022 |                     0 |        377951 | 2017-02-10 13:19:29.919865+01

 2017-02-10 14:08:59.194984+01 | 1486732139.19498 |                 0 |              10 |                  4718 |                  699 |             763221 |         63259 |              510 |          503022 |                     0 |        378051 | 2017-02-10 13:19:29.919865+01

 2017-02-10 14:09:00.249096+01 | 1486732140.2491 |                 0 |              10 |                  4718 |                  699 |             763221 |         63259 |              510 |          503022 |                     0 |        378145 | 2017-02-10 13:19:29.919865+01

 2017-02-10 14:09:01.300533+01 | 1486732141.30053 |                 0 |              10 |                  4718 |                  699 |             763221 |         63259 |              510 |          503022 |                     0 |        378255 | 2017-02-10 13:19:29.919865+01

 2017-02-10 14:09:02.356842+01 | 1486732142.35684 |                 0 |              10 |                  4718 |                  699 |             763221 |         63259 |              510 |          503022 |                     0 |        378324 | 2017-02-10 13:19:29.919865+01

 2017-02-10 14:09:03.412401+01 | 1486732143.4124 |                 0 |              10 |                  4718 |                  699 |             763221 |         63259 |              510 |          503022 |                     0 |        378462 | 2017-02-10 13:19:29.919865+01

 2017-02-10 14:09:04.466726+01 | 1486732144.46673 |                 0 |              10 |                  4718 |                  699 |             763221 |         63259 |              510 |          503022 |                     0 |        378583 | 2017-02-10 13:19:29.919865+01

 2017-02-10 14:09:05.522135+01 | 1486732145.52214 |                 0 |              10 |                  4718 |                  699 |             763221 |         63259 |              510 |          503022 |                     0 |        378682 | 2017-02-10 13:19:29.919865+01

 2017-02-10 14:09:06.576741+01 | 1486732146.57674 |                 0 |              10 |                  4718 |                  699 |             763221 |         63259 |              510 |          503022 |                     0 |        378774 | 2017-02-10 13:19:29.919865+01

 2017-02-10 14:09:07.635255+01 | 1486732147.63526 |                 0 |              10 |                  4718 |                  699 |             763221 |         63259 |              510 |          503022 |                     0 |        378844 | 2017-02-10 13:19:29.919865+01

 2017-02-10 14:09:08.686364+01 | 1486732148.68636 |                 0 |              10 |                  4718 |                  699 |             763221 |         63259 |              510 |          503022 |                     0 |        378957 | 2017-02-10 13:19:29.919865+01

 2017-02-10 14:09:09.745995+01 | 1486732149.746 |                 0 |              10 |                  4718 |                  699 |             763221 |         63259 |              510 |          503022 |                     0 |        379051 | 2017-02-10 13:19:29.919865+01

 2017-02-10 14:09:10.799919+01 | 1486732150.79992 |                 0 |              10 |                  4718 |                  699 |             763221 |         63259 |              510 |          503022 |                     0 |        379158 | 2017-02-10 13:19:29.919865+01

 2017-02-10 14:09:11.850505+01 | 1486732151.85051 |                 0 |              10 |                  4718 |                  699 |             763221 |         63259 |              510 |          503022 |                     0 |        379256 | 2017-02-10 13:19:29.919865+01

 2017-02-10 14:09:12.904291+01 | 1486732152.90429 |                 0 |              10 |                  4718 |                  699 |             763221 |         63259 |              510 |          503022 |                     0 |        379349 | 2017-02-10 13:19:29.919865+01

 2017-02-10 14:09:13.959352+01 | 1486732153.95935 |                 0 |              10 |                  4718 |                  699 |             763221 |         63259 |              510 |          503022 |                     0 |        379482 | 2017-02-10 13:19:29.919865+01

 2017-02-10 14:09:15.012809+01 | 1486732155.01281 |                 0 |              10 |                  4718 |                  699 |             763221 |         63259 |              510 |          503022 |                     0 |        379567 | 2017-02-10 13:19:29.919865+01

 2017-02-10 14:09:16.064129+01 | 1486732156.06413 |                 0 |              10 |                  4718 |                  699 |             763221 |         63259 |              510 |          503022 |                     0 |        379648 | 2017-02-10 13:19:29.919865+01

 2017-02-10 14:09:17.118169+01 | 1486732157.11817 |                 0 |              10 |                  4718 |                  699 |             763221 |         63259 |              510 |          503022 |                     0 |        379766 | 2017-02-10 13:19:29.919865+01

 2017-02-10 14:09:18.170157+01 | 1486732158.17016 |                 0 |              10 |                  4718 |                  699 |             763221 |         63259 |              510 |          503022 |                     0 |        379863 | 2017-02-10 13:19:29.919865+01

 2017-02-10 14:09:19.224058+01 | 1486732159.22406 |                 0 |              10 |                  4718 |                  699 |             763221 |         63259 |              510 |          503022 |                     0 |        379958 | 2017-02-10 13:19:29.919865+01

 2017-02-10 14:09:20.275728+01 | 1486732160.27573 |                 0 |              10 |                  4718 |                  699 |             763221 |         63259 |              510 |          503022 |                     0 |        380094 | 2017-02-10 13:19:29.919865+01

 2017-02-10 14:09:21.326914+01 | 1486732161.32691 |                 0 |              10 |                  4718 |                  699 |             763221 |         63259 |              510 |          503022 |                     0 |        380164 | 2017-02-10 13:19:29.919865+01

 2017-02-10 14:09:22.380452+01 | 1486732162.38045 |                 0 |              10 |                  4718 |                  699 |             763221 |         63259 |              510 |          503022 |                     0 |        380272 | 2017-02-10 13:19:29.919865+01

 2017-02-10 14:09:23.432903+01 | 1486732163.4329 |                 0 |              10 |                  4718 |                  699 |             763221 |         63259 |              510 |          503022 |                     0 |        380363 | 2017-02-10 13:19:29.919865+01

 2017-02-10 14:09:24.48646+01 | 1486732164.48646 |                 0 |              10 |                  4718 |                  699 |             763221 |         63259 |              510 |          503022 |                     0 |        380475 | 2017-02-10 13:19:29.919865+01

 2017-02-10 14:09:25.536309+01 | 1486732165.53631 |                 0 |              10 |                  4718 |                  699 |             763221 |         63259 |              510 |          503022 |                     0 |        380541 | 2017-02-10 13:19:29.919865+01

 2017-02-10 14:09:26.588257+01 | 1486732166.58826 |                 0 |              10 |                  4718 |                  699 |             763221 |         63259 |              510 |          503022 |                     0 |        380657 | 2017-02-10 13:19:29.919865+01

 2017-02-10 14:09:27.64279+01 | 1486732167.64279 |                 0 |              10 |                  4718 |                  699 |             763221 |         63259 |              510 |          503022 |                     0 |        380755 | 2017-02-10 13:19:29.919865+01

 2017-02-10 14:09:28.697151+01 | 1486732168.69715 |                 0 |              10 |                  4718 |                  699 |             763221 |         63259 |              510 |          503022 |                     0 |        380850 | 2017-02-10 13:19:29.919865+01

 2017-02-10 14:09:29.750871+01 | 1486732169.75087 |                 0 |              10 |                  4718 |                  699 |             763221 |         63259 |              510 |          503022 |                     0 |        380945 | 2017-02-10 13:19:29.919865+01

 2017-02-10 14:09:30.81134+01 | 1486732170.81134 |                 0 |              10 |                  4718 |                  699 |             763221 |         63259 |              510 |          503022 |                     0 |        381105 | 2017-02-10 13:19:29.919865+01

 2017-02-10 14:09:31.863587+01 | 1486732171.86359 |                 0 |              10 |                  4718 |                  699 |             763221 |         63259 |              510 |          503022 |                     0 |        381164 | 2017-02-10 13:19:29.919865+01

 2017-02-10 14:09:32.91337+01 | 1486732172.91337 |                 0 |              10 |                  4718 |                  699 |             763221 |         63259 |              510 |          503022 |                     0 |        381278 | 2017-02-10 13:19:29.919865+01

 2017-02-10 14:09:33.964655+01 | 1486732173.96465 |                 0 |              10 |                  4718 |                  699 |             763221 |         63259 |              510 |          503022 |                     0 |        381348 | 2017-02-10 13:19:29.919865+01

 2017-02-10 14:09:35.016103+01 | 1486732175.0161 |                 0 |              10 |                  4718 |                  699 |             763221 |         63259 |              510 |          503022 |                     0 |        381499 | 2017-02-10 13:19:29.919865+01

 2017-02-10 14:09:36.068319+01 | 1486732176.06832 |                 0 |              10 |                  4718 |                  699 |             763221 |         63259 |              510 |          503022 |                     0 |        381567 | 2017-02-10 13:19:29.919865+01

 2017-02-10 14:09:37.119603+01 | 1486732177.1196 |                 0 |              10 |                  4718 |                  699 |             763221 |         63259 |              510 |          503022 |                     0 |        381634 | 2017-02-10 13:19:29.919865+01

 2017-02-10 14:09:38.17054+01 | 1486732178.17054 |                 0 |              10 |                  4718 |                  699 |             763221 |         63259 |              510 |          503022 |                     0 |        381791 | 2017-02-10 13:19:29.919865+01

 2017-02-10 14:09:39.22124+01 | 1486732179.22124 |                 0 |              10 |                  4718 |                  699 |             763221 |         63259 |              510 |          503022 |                     0 |        381858 | 2017-02-10 13:19:29.919865+01

 2017-02-10 14:09:40.271233+01 | 1486732180.27123 |                 0 |              10 |                  4718 |                  699 |             763221 |         63259 |              510 |          503022 |                     0 |        381997 | 2017-02-10 13:19:29.919865+01

 2017-02-10 14:09:41.324344+01 | 1486732181.32434 |                 0 |              10 |                  4718 |                  699 |             763221 |         63259 |              510 |          503022 |                     0 |        382109 | 2017-02-10 13:19:29.919865+01

 2017-02-10 14:09:42.375519+01 | 1486732182.37552 |                 0 |              10 |                  4718 |                  699 |             763221 |         63259 |              510 |          503022 |                     0 |        382161 | 2017-02-10 13:19:29.919865+01

 2017-02-10 14:09:43.428332+01 | 1486732183.42833 |                 0 |              10 |                  4718 |                  699 |             763221 |         63259 |              510 |          503022 |                     0 |        382252 | 2017-02-10 13:19:29.919865+01

 2017-02-10 14:09:44.479607+01 | 1486732184.47961 |                 0 |              10 |                  4718 |                  699 |             763221 |         63259 |              510 |          503022 |                     0 |        382370 | 2017-02-10 13:19:29.919865+01

 2017-02-10 14:09:45.532213+01 | 1486732185.53221 |                 0 |              10 |                  4718 |                  699 |             763221 |         63259 |              510 |          503022 |                     0 |        382480 | 2017-02-10 13:19:29.919865+01

