 2017-02-08 19:23:02.725513+01 | 1486578182.72551 |                 0 |              16 |                  6210 |                 3571 |            1376724 |             0 |                0 |          244706 |                     0 |         98918 | 2017-02-08 18:07:41.318063+01

 2017-02-08 19:23:03.787827+01 | 1486578183.78783 |                 0 |              16 |                  6210 |                 3571 |            1376724 |             0 |                0 |          244706 |                     0 |         98918 | 2017-02-08 18:07:41.318063+01

 2017-02-08 19:23:04.850236+01 | 1486578184.85024 |                 0 |              16 |                  6210 |                 3571 |            1376724 |             0 |                0 |          244706 |                     0 |         98918 | 2017-02-08 18:07:41.318063+01

 2017-02-08 19:23:05.913445+01 | 1486578185.91344 |                 0 |              16 |                  6210 |                 3571 |            1376724 |             0 |                0 |          244706 |                     0 |         98918 | 2017-02-08 18:07:41.318063+01

 2017-02-08 19:23:06.973712+01 | 1486578186.97371 |                 0 |              16 |                  6210 |                 3571 |            1376724 |             0 |                0 |          244706 |                     0 |         98918 | 2017-02-08 18:07:41.318063+01

 2017-02-08 19:23:08.043531+01 | 1486578188.04353 |                 0 |              16 |                  6210 |                 3571 |            1376724 |             0 |                0 |          244706 |                     0 |         98918 | 2017-02-08 18:07:41.318063+01

 2017-02-08 19:23:09.117073+01 | 1486578189.11707 |                 0 |              16 |                  6210 |                 3571 |            1376724 |             0 |                0 |          244706 |                     0 |         98918 | 2017-02-08 18:07:41.318063+01

 2017-02-08 19:23:10.184136+01 | 1486578190.18414 |                 0 |              16 |                  6210 |                 3571 |            1376724 |             0 |                0 |          244706 |                     0 |         98918 | 2017-02-08 18:07:41.318063+01

 2017-02-08 19:23:11.246688+01 | 1486578191.24669 |                 0 |              16 |                  6210 |                 3571 |            1376724 |             0 |                0 |          244706 |                     0 |         98918 | 2017-02-08 18:07:41.318063+01

 2017-02-08 19:23:12.313332+01 | 1486578192.31333 |                 0 |              16 |                  6210 |                 3571 |            1376724 |             0 |                0 |          244706 |                     0 |         98918 | 2017-02-08 18:07:41.318063+01

 2017-02-08 19:23:13.382071+01 | 1486578193.38207 |                 0 |              16 |                  6210 |                 3571 |            1376724 |             0 |                0 |          244706 |                     0 |         98918 | 2017-02-08 18:07:41.318063+01

 2017-02-08 19:23:14.458955+01 | 1486578194.45896 |                 0 |              16 |                  6210 |                 3571 |            1376724 |             0 |                0 |          244706 |                     0 |         98918 | 2017-02-08 18:07:41.318063+01

 2017-02-08 19:23:15.525823+01 | 1486578195.52582 |                 0 |              16 |                  6210 |                 3571 |            1376724 |             0 |                0 |          244706 |                     0 |         98919 | 2017-02-08 18:07:41.318063+01

 2017-02-08 19:23:16.591097+01 | 1486578196.5911 |                 0 |              16 |                  6210 |                 3571 |            1376724 |             0 |                0 |          244706 |                     0 |         98919 | 2017-02-08 18:07:41.318063+01

 2017-02-08 19:23:17.652309+01 | 1486578197.65231 |                 0 |              16 |                  6210 |                 3571 |            1376724 |             0 |                0 |          244706 |                     0 |         98919 | 2017-02-08 18:07:41.318063+01

 2017-02-08 19:23:18.729758+01 | 1486578198.72976 |                 0 |              16 |                  6210 |                 3571 |            1376724 |             0 |                0 |          244706 |                     0 |         98919 | 2017-02-08 18:07:41.318063+01

 2017-02-08 19:23:19.797706+01 | 1486578199.79771 |                 0 |              16 |                  6210 |                 3571 |            1376724 |             0 |                0 |          244706 |                     0 |         98919 | 2017-02-08 18:07:41.318063+01

 2017-02-08 19:23:20.867846+01 | 1486578200.86785 |                 0 |              16 |                  6210 |                 3571 |            1376724 |             0 |                0 |          244706 |                     0 |         98919 | 2017-02-08 18:07:41.318063+01

 2017-02-08 19:23:21.937863+01 | 1486578201.93786 |                 0 |              16 |                  6210 |                 3571 |            1376724 |             0 |                0 |          244706 |                     0 |         98919 | 2017-02-08 18:07:41.318063+01

 2017-02-08 19:23:22.995917+01 | 1486578202.99592 |                 0 |              16 |                  6210 |                 3571 |            1376724 |             0 |                0 |          244706 |                     0 |         98919 | 2017-02-08 18:07:41.318063+01

 2017-02-08 19:23:24.067794+01 | 1486578204.06779 |                 0 |              16 |                  6210 |                 3571 |            1376724 |             0 |                0 |          244706 |                     0 |         98919 | 2017-02-08 18:07:41.318063+01

 2017-02-08 19:23:25.143121+01 | 1486578205.14312 |                 0 |              16 |                  6210 |                 3571 |            1376724 |             0 |                0 |          244706 |                     0 |         98919 | 2017-02-08 18:07:41.318063+01

 2017-02-08 19:23:26.208826+01 | 1486578206.20883 |                 0 |              16 |                  6210 |                 3571 |            1376724 |             0 |                0 |          244706 |                     0 |         98919 | 2017-02-08 18:07:41.318063+01

 2017-02-08 19:23:27.262072+01 | 1486578207.26207 |                 0 |              16 |                  6210 |                 3571 |            1376724 |             0 |                0 |          244706 |                     0 |         98919 | 2017-02-08 18:07:41.318063+01

 2017-02-08 19:23:28.336277+01 | 1486578208.33628 |                 0 |              16 |                  6210 |                 3571 |            1376724 |             0 |                0 |          244706 |                     0 |         98919 | 2017-02-08 18:07:41.318063+01

 2017-02-08 19:23:29.410468+01 | 1486578209.41047 |                 0 |              16 |                  6210 |                 3571 |            1376724 |             0 |                0 |          244706 |                     0 |         98919 | 2017-02-08 18:07:41.318063+01

 2017-02-08 19:23:30.473769+01 | 1486578210.47377 |                 0 |              16 |                  6210 |                 3571 |            1376724 |             0 |                0 |          244706 |                     0 |         98919 | 2017-02-08 18:07:41.318063+01

 2017-02-08 19:23:31.549528+01 | 1486578211.54953 |                 0 |              16 |                  6210 |                 3571 |            1376724 |             0 |                0 |          244706 |                     0 |         98919 | 2017-02-08 18:07:41.318063+01

 2017-02-08 19:23:32.616765+01 | 1486578212.61677 |                 0 |              16 |                  6210 |                 3571 |            1376724 |             0 |                0 |          244706 |                     0 |         98919 | 2017-02-08 18:07:41.318063+01

 2017-02-08 19:23:33.696635+01 | 1486578213.69664 |                 0 |              16 |                  6210 |                 3571 |            1376724 |             0 |                0 |          244706 |                     0 |         98919 | 2017-02-08 18:07:41.318063+01

 2017-02-08 19:23:34.780915+01 | 1486578214.78092 |                 0 |              16 |                  6210 |                 3571 |            1376724 |             0 |                0 |          244706 |                     0 |         98919 | 2017-02-08 18:07:41.318063+01

 2017-02-08 19:23:35.847858+01 | 1486578215.84786 |                 0 |              16 |                  6210 |                 3571 |            1376724 |             0 |                0 |          244706 |                     0 |         98919 | 2017-02-08 18:07:41.318063+01

 2017-02-08 19:23:36.917797+01 | 1486578216.9178 |                 0 |              16 |                  6210 |                 3571 |            1376724 |             0 |                0 |          244706 |                     0 |         98919 | 2017-02-08 18:07:41.318063+01

 2017-02-08 19:23:37.985102+01 | 1486578217.9851 |                 0 |              16 |                  6210 |                 3571 |            1376724 |             0 |                0 |          244706 |                     0 |         98919 | 2017-02-08 18:07:41.318063+01

 2017-02-08 19:23:39.041161+01 | 1486578219.04116 |                 0 |              16 |                  6210 |                 3571 |            1376724 |             0 |                0 |          244706 |                     0 |         98919 | 2017-02-08 18:07:41.318063+01

 2017-02-08 19:23:40.104913+01 | 1486578220.10491 |                 0 |              16 |                  6210 |                 3571 |            1376724 |             0 |                0 |          244706 |                     0 |         98919 | 2017-02-08 18:07:41.318063+01

 2017-02-08 19:23:41.173948+01 | 1486578221.17395 |                 0 |              16 |                  6210 |                 3571 |            1376724 |             0 |                0 |          244706 |                     0 |         98919 | 2017-02-08 18:07:41.318063+01

 2017-02-08 19:23:42.232733+01 | 1486578222.23273 |                 0 |              16 |                  6210 |                 3571 |            1376724 |             0 |                0 |          244706 |                     0 |         98919 | 2017-02-08 18:07:41.318063+01

 2017-02-08 19:23:43.31353+01 | 1486578223.31353 |                 0 |              16 |                  6210 |                 3571 |            1376724 |             0 |                0 |          244706 |                     0 |         98919 | 2017-02-08 18:07:41.318063+01

 2017-02-08 19:23:44.388278+01 | 1486578224.38828 |                 0 |              16 |                  6210 |                 3571 |            1376724 |             0 |                0 |          244706 |                     0 |         98919 | 2017-02-08 18:07:41.318063+01

 2017-02-08 19:23:45.466774+01 | 1486578225.46677 |                 0 |              16 |                  6210 |                 3571 |            1376724 |             0 |                0 |          244706 |                     0 |         98919 | 2017-02-08 18:07:41.318063+01

 2017-02-08 19:23:46.536173+01 | 1486578226.53617 |                 0 |              16 |                  6210 |                 3571 |            1376724 |             0 |                0 |          244706 |                     0 |         98919 | 2017-02-08 18:07:41.318063+01

 2017-02-08 19:23:47.610961+01 | 1486578227.61096 |                 0 |              16 |                  6210 |                 3571 |            1376724 |             0 |                0 |          244706 |                     0 |         98919 | 2017-02-08 18:07:41.318063+01

 2017-02-08 19:23:48.679335+01 | 1486578228.67934 |                 0 |              16 |                  6210 |                 3571 |            1376724 |             0 |                0 |          244706 |                     0 |         98919 | 2017-02-08 18:07:41.318063+01

 2017-02-08 19:23:49.745163+01 | 1486578229.74516 |                 0 |              16 |                  6210 |                 3571 |            1376724 |             0 |                0 |          244706 |                     0 |         98919 | 2017-02-08 18:07:41.318063+01

 2017-02-08 19:23:50.813902+01 | 1486578230.8139 |                 0 |              16 |                  6210 |                 3571 |            1376724 |             0 |                0 |          244706 |                     0 |         98919 | 2017-02-08 18:07:41.318063+01

 2017-02-08 19:23:51.899236+01 | 1486578231.89924 |                 0 |              16 |                  6210 |                 3571 |            1376724 |             0 |                0 |          244706 |                     0 |         98919 | 2017-02-08 18:07:41.318063+01

 2017-02-08 19:23:52.967158+01 | 1486578232.96716 |                 0 |              16 |                  6210 |                 3571 |            1376724 |             0 |                0 |          244706 |                     0 |         98919 | 2017-02-08 18:07:41.318063+01

 2017-02-08 19:23:54.04532+01 | 1486578234.04532 |                 0 |              16 |                  6210 |                 3571 |            1376724 |             0 |                0 |          244706 |                     0 |         98919 | 2017-02-08 18:07:41.318063+01

 2017-02-08 19:23:55.119483+01 | 1486578235.11948 |                 0 |              16 |                  6210 |                 3571 |            1376724 |             0 |                0 |          244706 |                     0 |         98919 | 2017-02-08 18:07:41.318063+01

 2017-02-08 19:23:56.184775+01 | 1486578236.18478 |                 0 |              16 |                  6210 |                 3571 |            1376724 |             0 |                0 |          244706 |                     0 |         98919 | 2017-02-08 18:07:41.318063+01

 2017-02-08 19:23:57.257395+01 | 1486578237.2574 |                 0 |              16 |                  6210 |                 3571 |            1376724 |             0 |                0 |          244706 |                     0 |         98919 | 2017-02-08 18:07:41.318063+01

 2017-02-08 19:23:58.324743+01 | 1486578238.32474 |                 0 |              16 |                  6210 |                 3571 |            1376724 |             0 |                0 |          244706 |                     0 |         98919 | 2017-02-08 18:07:41.318063+01

 2017-02-08 19:23:59.385442+01 | 1486578239.38544 |                 0 |              16 |                  6210 |                 3571 |            1376724 |             0 |                0 |          244706 |                     0 |         98919 | 2017-02-08 18:07:41.318063+01

 2017-02-08 19:24:00.448251+01 | 1486578240.44825 |                 0 |              16 |                  6210 |                 3571 |            1376724 |             0 |                0 |          244706 |                     0 |         98919 | 2017-02-08 18:07:41.318063+01

 2017-02-08 19:24:01.52145+01 | 1486578241.52145 |                 0 |              16 |                  6210 |                 3571 |            1376724 |             0 |                0 |          244706 |                     0 |         98919 | 2017-02-08 18:07:41.318063+01

 2017-02-08 19:24:02.588599+01 | 1486578242.5886 |                 0 |              16 |                  6210 |                 3571 |            1376724 |             0 |                0 |          244706 |                     0 |         98919 | 2017-02-08 18:07:41.318063+01

 2017-02-08 19:24:03.656187+01 | 1486578243.65619 |                 0 |              16 |                  6210 |                 3571 |            1376724 |             0 |                0 |          244706 |                     0 |         98919 | 2017-02-08 18:07:41.318063+01

 2017-02-08 19:24:04.726729+01 | 1486578244.72673 |                 0 |              16 |                  6210 |                 3571 |            1376724 |             0 |                0 |          244706 |                     0 |         98919 | 2017-02-08 18:07:41.318063+01

 2017-02-08 19:24:05.783714+01 | 1486578245.78371 |                 0 |              16 |                  6210 |                 3571 |            1376724 |             0 |                0 |          244706 |                     0 |         98919 | 2017-02-08 18:07:41.318063+01

 2017-02-08 19:24:06.847793+01 | 1486578246.84779 |                 0 |              16 |                  6210 |                 3571 |            1376724 |             0 |                0 |          244706 |                     0 |         98919 | 2017-02-08 18:07:41.318063+01

 2017-02-08 19:24:07.908684+01 | 1486578247.90868 |                 0 |              16 |                  6210 |                 3571 |            1376724 |             0 |                0 |          244706 |                     0 |         98919 | 2017-02-08 18:07:41.318063+01

 2017-02-08 19:24:08.970902+01 | 1486578248.9709 |                 0 |              16 |                  6210 |                 3571 |            1376724 |             0 |                0 |          244706 |                     0 |         98919 | 2017-02-08 18:07:41.318063+01

 2017-02-08 19:24:10.038292+01 | 1486578250.03829 |                 0 |              16 |                  6210 |                 3571 |            1376724 |             0 |                0 |          244706 |                     0 |         98919 | 2017-02-08 18:07:41.318063+01

 2017-02-08 19:24:11.116244+01 | 1486578251.11624 |                 0 |              16 |                  6210 |                 3571 |            1376724 |             0 |                0 |          244706 |                     0 |         98919 | 2017-02-08 18:07:41.318063+01

 2017-02-08 19:24:12.178015+01 | 1486578252.17801 |                 0 |              16 |                  6210 |                 3571 |            1376724 |             0 |                0 |          244706 |                     0 |         98919 | 2017-02-08 18:07:41.318063+01

 2017-02-08 19:24:13.242433+01 | 1486578253.24243 |                 0 |              16 |                  6210 |                 3571 |            1376724 |             0 |                0 |          244706 |                     0 |         98919 | 2017-02-08 18:07:41.318063+01

 2017-02-08 19:24:14.31294+01 | 1486578254.31294 |                 0 |              16 |                  6210 |                 3571 |            1376724 |             0 |                0 |          244706 |                     0 |         98919 | 2017-02-08 18:07:41.318063+01

 2017-02-08 19:24:15.388537+01 | 1486578255.38854 |                 0 |              16 |                  6210 |                 3571 |            1376724 |             0 |                0 |          244706 |                     0 |         98919 | 2017-02-08 18:07:41.318063+01

 2017-02-08 19:24:16.456551+01 | 1486578256.45655 |                 0 |              16 |                  6210 |                 3571 |            1376724 |             0 |                0 |          244706 |                     0 |         98919 | 2017-02-08 18:07:41.318063+01

 2017-02-08 19:24:17.527552+01 | 1486578257.52755 |                 0 |              16 |                  6210 |                 3571 |            1376724 |             0 |                0 |          244706 |                     0 |         98919 | 2017-02-08 18:07:41.318063+01

 2017-02-08 19:24:18.595074+01 | 1486578258.59507 |                 0 |              16 |                  6210 |                 3571 |            1376724 |             0 |                0 |          244706 |                     0 |         98919 | 2017-02-08 18:07:41.318063+01

 2017-02-08 19:24:19.653836+01 | 1486578259.65384 |                 0 |              16 |                  6210 |                 3571 |            1376724 |             0 |                0 |          244706 |                     0 |         98919 | 2017-02-08 18:07:41.318063+01

 2017-02-08 19:24:20.717804+01 | 1486578260.7178 |                 0 |              16 |                  6210 |                 3571 |            1376724 |             0 |                0 |          244706 |                     0 |         98919 | 2017-02-08 18:07:41.318063+01

 2017-02-08 19:24:21.775262+01 | 1486578261.77526 |                 0 |              16 |                  6210 |                 3571 |            1376724 |             0 |                0 |          244706 |                     0 |         98919 | 2017-02-08 18:07:41.318063+01

 2017-02-08 19:24:22.833034+01 | 1486578262.83303 |                 0 |              16 |                  6210 |                 3571 |            1376724 |             0 |                0 |          244706 |                     0 |         98919 | 2017-02-08 18:07:41.318063+01

 2017-02-08 19:24:23.893197+01 | 1486578263.8932 |                 0 |              16 |                  6210 |                 3571 |            1376724 |             0 |                0 |          244706 |                     0 |         98919 | 2017-02-08 18:07:41.318063+01

 2017-02-08 19:24:24.961228+01 | 1486578264.96123 |                 0 |              16 |                  6210 |                 3571 |            1376724 |             0 |                0 |          244706 |                     0 |         98919 | 2017-02-08 18:07:41.318063+01

 2017-02-08 19:24:26.029419+01 | 1486578266.02942 |                 0 |              16 |                  6210 |                 3571 |            1376724 |             0 |                0 |          244706 |                     0 |         98919 | 2017-02-08 18:07:41.318063+01

 2017-02-08 19:24:27.084889+01 | 1486578267.08489 |                 0 |              16 |                  6210 |                 3571 |            1376724 |             0 |                0 |          244706 |                     0 |         98919 | 2017-02-08 18:07:41.318063+01

 2017-02-08 19:24:28.161194+01 | 1486578268.16119 |                 0 |              16 |                  6210 |                 3571 |            1376724 |             0 |                0 |          244706 |                     0 |         98919 | 2017-02-08 18:07:41.318063+01

 2017-02-08 19:24:29.234846+01 | 1486578269.23485 |                 0 |              16 |                  6210 |                 3571 |            1376724 |             0 |                0 |          244706 |                     0 |         98919 | 2017-02-08 18:07:41.318063+01

 2017-02-08 19:24:30.309587+01 | 1486578270.30959 |                 0 |              16 |                  6210 |                 3571 |            1376724 |             0 |                0 |          244706 |                     0 |         98919 | 2017-02-08 18:07:41.318063+01

 2017-02-08 19:24:31.37431+01 | 1486578271.37431 |                 0 |              16 |                  6210 |                 3571 |            1376724 |             0 |                0 |          244706 |                     0 |         98919 | 2017-02-08 18:07:41.318063+01

 2017-02-08 19:24:32.441061+01 | 1486578272.44106 |                 0 |              16 |                  6210 |                 3571 |            1376724 |             0 |                0 |          244706 |                     0 |         98919 | 2017-02-08 18:07:41.318063+01

 2017-02-08 19:24:33.511573+01 | 1486578273.51157 |                 0 |              16 |                  6210 |                 3571 |            1376724 |             0 |                0 |          244706 |                     0 |         98919 | 2017-02-08 18:07:41.318063+01

 2017-02-08 19:24:34.577082+01 | 1486578274.57708 |                 0 |              16 |                  6210 |                 3571 |            1376724 |             0 |                0 |          244706 |                     0 |         98919 | 2017-02-08 18:07:41.318063+01

 2017-02-08 19:24:35.637436+01 | 1486578275.63744 |                 0 |              16 |                  6210 |                 3571 |            1376724 |             0 |                0 |          244706 |                     0 |         98919 | 2017-02-08 18:07:41.318063+01

 2017-02-08 19:24:36.693979+01 | 1486578276.69398 |                 0 |              16 |                  6210 |                 3571 |            1376724 |             0 |                0 |          244706 |                     0 |         98919 | 2017-02-08 18:07:41.318063+01

 2017-02-08 19:24:37.762424+01 | 1486578277.76242 |                 0 |              16 |                  6210 |                 3571 |            1376724 |             0 |                0 |          244706 |                     0 |         98919 | 2017-02-08 18:07:41.318063+01

 2017-02-08 19:24:38.847413+01 | 1486578278.84741 |                 0 |              16 |                  6210 |                 3571 |            1376724 |             0 |                0 |          244706 |                     0 |         98919 | 2017-02-08 18:07:41.318063+01

 2017-02-08 19:24:39.907646+01 | 1486578279.90765 |                 0 |              16 |                  6210 |                 3571 |            1376724 |             0 |                0 |          244706 |                     0 |         98919 | 2017-02-08 18:07:41.318063+01

 2017-02-08 19:24:40.965228+01 | 1486578280.96523 |                 0 |              16 |                  6210 |                 3571 |            1376724 |             0 |                0 |          244706 |                     0 |         98919 | 2017-02-08 18:07:41.318063+01

 2017-02-08 19:24:42.026701+01 | 1486578282.0267 |                 0 |              16 |                  6210 |                 3571 |            1376724 |             0 |                0 |          244706 |                     0 |         98919 | 2017-02-08 18:07:41.318063+01

 2017-02-08 19:24:43.088801+01 | 1486578283.0888 |                 0 |              16 |                  6210 |                 3571 |            1376724 |             0 |                0 |          244706 |                     0 |         98919 | 2017-02-08 18:07:41.318063+01

 2017-02-08 19:24:44.161389+01 | 1486578284.16139 |                 0 |              16 |                  6210 |                 3571 |            1376724 |             0 |                0 |          244706 |                     0 |         98919 | 2017-02-08 18:07:41.318063+01

 2017-02-08 19:24:45.230335+01 | 1486578285.23033 |                 0 |              16 |                  6210 |                 3571 |            1376724 |             0 |                0 |          244706 |                     0 |         98919 | 2017-02-08 18:07:41.318063+01

 2017-02-08 19:24:46.307139+01 | 1486578286.30714 |                 0 |              16 |                  6210 |                 3571 |            1376724 |             0 |                0 |          244706 |                     0 |         98919 | 2017-02-08 18:07:41.318063+01

 2017-02-08 19:24:47.379321+01 | 1486578287.37932 |                 0 |              16 |                  6210 |                 3571 |            1376724 |             0 |                0 |          244706 |                     0 |         98919 | 2017-02-08 18:07:41.318063+01

 2017-02-08 19:24:48.436602+01 | 1486578288.4366 |                 0 |              16 |                  6210 |                 3571 |            1376724 |             0 |                0 |          244706 |                     0 |         98919 | 2017-02-08 18:07:41.318063+01

 2017-02-08 19:24:49.50182+01 | 1486578289.50182 |                 0 |              16 |                  6210 |                 3571 |            1376724 |             0 |                0 |          244706 |                     0 |         98919 | 2017-02-08 18:07:41.318063+01

 2017-02-08 19:24:50.573528+01 | 1486578290.57353 |                 0 |              16 |                  6210 |                 3571 |            1376724 |             0 |                0 |          244706 |                     0 |         98919 | 2017-02-08 18:07:41.318063+01

 2017-02-08 19:24:51.641343+01 | 1486578291.64134 |                 0 |              16 |                  6210 |                 3571 |            1376724 |             0 |                0 |          244706 |                     0 |         98919 | 2017-02-08 18:07:41.318063+01

 2017-02-08 19:24:52.720089+01 | 1486578292.72009 |                 0 |              16 |                  6210 |                 3571 |            1376724 |             0 |                0 |          244706 |                     0 |         98919 | 2017-02-08 18:07:41.318063+01

 2017-02-08 19:24:53.787456+01 | 1486578293.78746 |                 0 |              16 |                  6210 |                 3571 |            1376724 |             0 |                0 |          244706 |                     0 |         98919 | 2017-02-08 18:07:41.318063+01

 2017-02-08 19:24:54.854469+01 | 1486578294.85447 |                 0 |              16 |                  6210 |                 3571 |            1376724 |             0 |                0 |          244706 |                     0 |         98919 | 2017-02-08 18:07:41.318063+01

 2017-02-08 19:24:55.918592+01 | 1486578295.91859 |                 0 |              16 |                  6210 |                 3571 |            1376724 |             0 |                0 |          244706 |                     0 |         98919 | 2017-02-08 18:07:41.318063+01

 2017-02-08 19:24:56.971388+01 | 1486578296.97139 |                 0 |              16 |                  6210 |                 3571 |            1376724 |             0 |                0 |          244706 |                     0 |         98919 | 2017-02-08 18:07:41.318063+01

 2017-02-08 19:24:58.040948+01 | 1486578298.04095 |                 0 |              16 |                  6210 |                 3571 |            1376724 |             0 |                0 |          244706 |                     0 |         98919 | 2017-02-08 18:07:41.318063+01

 2017-02-08 19:24:59.106605+01 | 1486578299.10661 |                 0 |              16 |                  6210 |                 3571 |            1376724 |             0 |                0 |          244706 |                     0 |         98919 | 2017-02-08 18:07:41.318063+01

 2017-02-08 19:25:00.183378+01 | 1486578300.18338 |                 0 |              16 |                  6210 |                 3571 |            1376724 |             0 |                0 |          244706 |                     0 |         98919 | 2017-02-08 18:07:41.318063+01

 2017-02-08 19:25:01.253475+01 | 1486578301.25347 |                 0 |              16 |                  6210 |                 3571 |            1376724 |             0 |                0 |          244706 |                     0 |         98919 | 2017-02-08 18:07:41.318063+01

 2017-02-08 19:25:02.329755+01 | 1486578302.32976 |                 0 |              16 |                  6210 |                 3571 |            1376724 |             0 |                0 |          244706 |                     0 |         98919 | 2017-02-08 18:07:41.318063+01

 2017-02-08 19:25:03.398871+01 | 1486578303.39887 |                 0 |              16 |                  6210 |                 3571 |            1376724 |             0 |                0 |          244706 |                     0 |         98919 | 2017-02-08 18:07:41.318063+01

 2017-02-08 19:25:04.470656+01 | 1486578304.47066 |                 0 |              16 |                  6210 |                 3571 |            1376724 |             0 |                0 |          244706 |                     0 |         98919 | 2017-02-08 18:07:41.318063+01

 2017-02-08 19:25:05.533504+01 | 1486578305.5335 |                 0 |              16 |                  6210 |                 3571 |            1376724 |             0 |                0 |          244706 |                     0 |         98919 | 2017-02-08 18:07:41.318063+01

 2017-02-08 19:25:06.615309+01 | 1486578306.61531 |                 0 |              16 |                  6210 |                 3571 |            1376724 |             0 |                0 |          244706 |                     0 |         98919 | 2017-02-08 18:07:41.318063+01

 2017-02-08 19:25:07.672451+01 | 1486578307.67245 |                 0 |              16 |                  6210 |                 3571 |            1376724 |             0 |                0 |          244706 |                     0 |         98919 | 2017-02-08 18:07:41.318063+01

 2017-02-08 19:25:08.75066+01 | 1486578308.75066 |                 0 |              16 |                  6210 |                 3571 |            1376724 |             0 |                0 |          244706 |                     0 |         98919 | 2017-02-08 18:07:41.318063+01

 2017-02-08 19:25:09.811931+01 | 1486578309.81193 |                 0 |              16 |                  6210 |                 3571 |            1376724 |             0 |                0 |          244706 |                     0 |         98919 | 2017-02-08 18:07:41.318063+01

 2017-02-08 19:25:10.875692+01 | 1486578310.87569 |                 0 |              16 |                  6210 |                 3571 |            1376724 |             0 |                0 |          244706 |                     0 |         98919 | 2017-02-08 18:07:41.318063+01

 2017-02-08 19:25:11.94263+01 | 1486578311.94263 |                 0 |              16 |                  6210 |                 3571 |            1376724 |             0 |                0 |          244706 |                     0 |         98919 | 2017-02-08 18:07:41.318063+01

 2017-02-08 19:25:13.019206+01 | 1486578313.01921 |                 0 |              16 |                  6210 |                 3571 |            1376724 |             0 |                0 |          244706 |                     0 |         98919 | 2017-02-08 18:07:41.318063+01

 2017-02-08 19:25:14.075112+01 | 1486578314.07511 |                 0 |              16 |                  6210 |                 3571 |            1376724 |             0 |                0 |          244706 |                     0 |         98919 | 2017-02-08 18:07:41.318063+01

 2017-02-08 19:25:15.143015+01 | 1486578315.14301 |                 0 |              16 |                  6210 |                 3571 |            1376724 |             0 |                0 |          244706 |                     0 |         98919 | 2017-02-08 18:07:41.318063+01

 2017-02-08 19:25:16.205458+01 | 1486578316.20546 |                 0 |              16 |                  6210 |                 3571 |            1376724 |             0 |                0 |          244706 |                     0 |         98919 | 2017-02-08 18:07:41.318063+01

 2017-02-08 19:25:17.268606+01 | 1486578317.26861 |                 0 |              16 |                  6210 |                 3571 |            1376724 |             0 |                0 |          244706 |                     0 |         98919 | 2017-02-08 18:07:41.318063+01

 2017-02-08 19:25:18.321072+01 | 1486578318.32107 |                 0 |              16 |                  6210 |                 3571 |            1376724 |             0 |                0 |          244706 |                     0 |         98919 | 2017-02-08 18:07:41.318063+01

 2017-02-08 19:25:19.388639+01 | 1486578319.38864 |                 0 |              16 |                  6210 |                 3571 |            1376724 |             0 |                0 |          244706 |                     0 |         98919 | 2017-02-08 18:07:41.318063+01

 2017-02-08 19:25:20.453538+01 | 1486578320.45354 |                 0 |              16 |                  6210 |                 3571 |            1376724 |             0 |                0 |          244706 |                     0 |         98919 | 2017-02-08 18:07:41.318063+01

 2017-02-08 19:25:21.514157+01 | 1486578321.51416 |                 0 |              16 |                  6210 |                 3571 |            1376724 |             0 |                0 |          244706 |                     0 |         98919 | 2017-02-08 18:07:41.318063+01

 2017-02-08 19:25:22.595318+01 | 1486578322.59532 |                 0 |              16 |                  6210 |                 3571 |            1376724 |             0 |                0 |          244706 |                     0 |         98919 | 2017-02-08 18:07:41.318063+01

 2017-02-08 19:25:23.680382+01 | 1486578323.68038 |                 0 |              16 |                  6210 |                 3571 |            1376724 |             0 |                0 |          244706 |                     0 |         98919 | 2017-02-08 18:07:41.318063+01

 2017-02-08 19:25:24.750844+01 | 1486578324.75084 |                 0 |              16 |                  6210 |                 3571 |            1376724 |             0 |                0 |          244706 |                     0 |         98919 | 2017-02-08 18:07:41.318063+01

 2017-02-08 19:25:25.829777+01 | 1486578325.82978 |                 0 |              16 |                  6210 |                 3571 |            1376724 |             0 |                0 |          244706 |                     0 |         98919 | 2017-02-08 18:07:41.318063+01

 2017-02-08 19:25:26.907787+01 | 1486578326.90779 |                 0 |              16 |                  6210 |                 3571 |            1376724 |             0 |                0 |          244706 |                     0 |         98919 | 2017-02-08 18:07:41.318063+01

 2017-02-08 19:25:27.973958+01 | 1486578327.97396 |                 0 |              16 |                  6210 |                 3571 |            1376724 |             0 |                0 |          244706 |                     0 |         98919 | 2017-02-08 18:07:41.318063+01

 2017-02-08 19:25:29.037511+01 | 1486578329.03751 |                 0 |              16 |                  6210 |                 3571 |            1376724 |             0 |                0 |          244706 |                     0 |         98919 | 2017-02-08 18:07:41.318063+01

 2017-02-08 19:25:30.102081+01 | 1486578330.10208 |                 0 |              16 |                  6210 |                 3571 |            1376724 |             0 |                0 |          244706 |                     0 |         98919 | 2017-02-08 18:07:41.318063+01

 2017-02-08 19:25:31.161457+01 | 1486578331.16146 |                 0 |              16 |                  6210 |                 3571 |            1376724 |             0 |                0 |          244706 |                     0 |         98919 | 2017-02-08 18:07:41.318063+01

 2017-02-08 19:25:32.220336+01 | 1486578332.22034 |                 0 |              16 |                  6210 |                 3571 |            1376724 |             0 |                0 |          244706 |                     0 |         98919 | 2017-02-08 18:07:41.318063+01

 2017-02-08 19:25:33.286366+01 | 1486578333.28637 |                 0 |              16 |                  6210 |                 3571 |            1376724 |             0 |                0 |          244706 |                     0 |         98919 | 2017-02-08 18:07:41.318063+01

 2017-02-08 19:25:34.361824+01 | 1486578334.36182 |                 0 |              16 |                  6210 |                 3571 |            1376724 |             0 |                0 |          244706 |                     0 |         98919 | 2017-02-08 18:07:41.318063+01

 2017-02-08 19:25:35.439008+01 | 1486578335.43901 |                 0 |              16 |                  6210 |                 3571 |            1376724 |             0 |                0 |          244706 |                     0 |         98919 | 2017-02-08 18:07:41.318063+01

 2017-02-08 19:25:36.509212+01 | 1486578336.50921 |                 0 |              16 |                  6210 |                 3571 |            1376724 |             0 |                0 |          244706 |                     0 |         98919 | 2017-02-08 18:07:41.318063+01

 2017-02-08 19:25:37.565525+01 | 1486578337.56553 |                 0 |              16 |                  6210 |                 3571 |            1376724 |             0 |                0 |          244706 |                     0 |         98919 | 2017-02-08 18:07:41.318063+01

 2017-02-08 19:25:38.624066+01 | 1486578338.62407 |                 0 |              16 |                  6210 |                 3571 |            1376724 |             0 |                0 |          244706 |                     0 |         98919 | 2017-02-08 18:07:41.318063+01

 2017-02-08 19:25:39.69987+01 | 1486578339.69987 |                 0 |              16 |                  6210 |                 3571 |            1376724 |             0 |                0 |          244706 |                     0 |         98919 | 2017-02-08 18:07:41.318063+01

 2017-02-08 19:25:40.759577+01 | 1486578340.75958 |                 0 |              16 |                  6210 |                 3571 |            1376724 |             0 |                0 |          244706 |                     0 |         98919 | 2017-02-08 18:07:41.318063+01

 2017-02-08 19:25:41.823676+01 | 1486578341.82368 |                 0 |              16 |                  6210 |                 3571 |            1376724 |             0 |                0 |          244706 |                     0 |         98919 | 2017-02-08 18:07:41.318063+01

 2017-02-08 19:25:42.892368+01 | 1486578342.89237 |                 0 |              16 |                  6210 |                 3571 |            1376724 |             0 |                0 |          244706 |                     0 |         98919 | 2017-02-08 18:07:41.318063+01

 2017-02-08 19:25:43.95544+01 | 1486578343.95544 |                 0 |              16 |                  6210 |                 3571 |            1376724 |             0 |                0 |          244706 |                     0 |         98919 | 2017-02-08 18:07:41.318063+01

 2017-02-08 19:25:45.031624+01 | 1486578345.03162 |                 0 |              16 |                  6210 |                 3571 |            1376724 |             0 |                0 |          244706 |                     0 |         98919 | 2017-02-08 18:07:41.318063+01

 2017-02-08 19:25:46.099347+01 | 1486578346.09935 |                 0 |              16 |                  6210 |                 3571 |            1376724 |             0 |                0 |          244706 |                     0 |         98919 | 2017-02-08 18:07:41.318063+01

 2017-02-08 19:25:47.179465+01 | 1486578347.17947 |                 0 |              16 |                  6210 |                 3571 |            1376724 |             0 |                0 |          244706 |                     0 |         98919 | 2017-02-08 18:07:41.318063+01

 2017-02-08 19:25:48.245478+01 | 1486578348.24548 |                 0 |              16 |                  6210 |                 3571 |            1376724 |             0 |                0 |          244706 |                     0 |         98919 | 2017-02-08 18:07:41.318063+01

 2017-02-08 19:25:49.313812+01 | 1486578349.31381 |                 0 |              16 |                  6210 |                 3571 |            1376724 |             0 |                0 |          244706 |                     0 |         98919 | 2017-02-08 18:07:41.318063+01

 2017-02-08 19:25:50.385815+01 | 1486578350.38581 |                 0 |              16 |                  6210 |                 3571 |            1376724 |             0 |                0 |          244706 |                     0 |         98919 | 2017-02-08 18:07:41.318063+01

 2017-02-08 19:25:51.460317+01 | 1486578351.46032 |                 0 |              16 |                  6210 |                 3571 |            1376724 |             0 |                0 |          244706 |                     0 |         98919 | 2017-02-08 18:07:41.318063+01

 2017-02-08 19:25:52.534823+01 | 1486578352.53482 |                 0 |              16 |                  6210 |                 3571 |            1376724 |             0 |                0 |          244706 |                     0 |         98919 | 2017-02-08 18:07:41.318063+01

 2017-02-08 19:25:53.624961+01 | 1486578353.62496 |                 0 |              16 |                  6210 |                 3571 |            1376724 |             0 |                0 |          244706 |                     0 |         98919 | 2017-02-08 18:07:41.318063+01

 2017-02-08 19:25:54.688856+01 | 1486578354.68886 |                 0 |              16 |                  6210 |                 3571 |            1376724 |             0 |                0 |          244706 |                     0 |         98919 | 2017-02-08 18:07:41.318063+01

 2017-02-08 19:25:55.753767+01 | 1486578355.75377 |                 0 |              16 |                  6210 |                 3571 |            1376724 |             0 |                0 |          244706 |                     0 |         98919 | 2017-02-08 18:07:41.318063+01

 2017-02-08 19:25:56.831076+01 | 1486578356.83108 |                 0 |              16 |                  6210 |                 3571 |            1376724 |             0 |                0 |          244706 |                     0 |         98919 | 2017-02-08 18:07:41.318063+01

 2017-02-08 19:25:57.895988+01 | 1486578357.89599 |                 0 |              16 |                  6210 |                 3571 |            1376724 |             0 |                0 |          244706 |                     0 |         98919 | 2017-02-08 18:07:41.318063+01

 2017-02-08 19:25:58.966813+01 | 1486578358.96681 |                 0 |              16 |                  6210 |                 3571 |            1376724 |             0 |                0 |          244706 |                     0 |         98919 | 2017-02-08 18:07:41.318063+01

 2017-02-08 19:26:00.032951+01 | 1486578360.03295 |                 0 |              16 |                  6210 |                 3571 |            1376724 |             0 |                0 |          244706 |                     0 |         98919 | 2017-02-08 18:07:41.318063+01

 2017-02-08 19:26:01.10119+01 | 1486578361.10119 |                 0 |              16 |                  6210 |                 3571 |            1376724 |             0 |                0 |          244706 |                     0 |         98919 | 2017-02-08 18:07:41.318063+01

 2017-02-08 19:26:02.161963+01 | 1486578362.16196 |                 0 |              16 |                  6210 |                 3571 |            1376724 |             0 |                0 |          244706 |                     0 |         98919 | 2017-02-08 18:07:41.318063+01

 2017-02-08 19:26:03.220752+01 | 1486578363.22075 |                 0 |              16 |                  6210 |                 3571 |            1376724 |             0 |                0 |          244706 |                     0 |         98919 | 2017-02-08 18:07:41.318063+01

 2017-02-08 19:26:04.293218+01 | 1486578364.29322 |                 0 |              16 |                  6210 |                 3571 |            1376724 |             0 |                0 |          244706 |                     0 |         98919 | 2017-02-08 18:07:41.318063+01

 2017-02-08 19:26:05.354552+01 | 1486578365.35455 |                 0 |              16 |                  6210 |                 3571 |            1376724 |             0 |                0 |          244706 |                     0 |         98919 | 2017-02-08 18:07:41.318063+01

 2017-02-08 19:26:06.421292+01 | 1486578366.42129 |                 0 |              16 |                  6210 |                 3571 |            1376724 |             0 |                0 |          244706 |                     0 |         98919 | 2017-02-08 18:07:41.318063+01

 2017-02-08 19:26:07.495795+01 | 1486578367.4958 |                 0 |              16 |                  6210 |                 3571 |            1376724 |             0 |                0 |          244706 |                     0 |         98919 | 2017-02-08 18:07:41.318063+01

 2017-02-08 19:26:08.555263+01 | 1486578368.55526 |                 0 |              16 |                  6210 |                 3571 |            1376724 |             0 |                0 |          244706 |                     0 |         98919 | 2017-02-08 18:07:41.318063+01

 2017-02-08 19:26:09.614807+01 | 1486578369.61481 |                 0 |              16 |                  6210 |                 3571 |            1376724 |             0 |                0 |          244706 |                     0 |         98919 | 2017-02-08 18:07:41.318063+01

 2017-02-08 19:26:10.677433+01 | 1486578370.67743 |                 0 |              16 |                  6210 |                 3571 |            1376724 |             0 |                0 |          244706 |                     0 |         98919 | 2017-02-08 18:07:41.318063+01

 2017-02-08 19:26:11.747447+01 | 1486578371.74745 |                 0 |              16 |                  6210 |                 3571 |            1376724 |             0 |                0 |          244706 |                     0 |         98919 | 2017-02-08 18:07:41.318063+01

 2017-02-08 19:26:12.812756+01 | 1486578372.81276 |                 0 |              16 |                  6210 |                 3571 |            1376724 |             0 |                0 |          244706 |                     0 |         98919 | 2017-02-08 18:07:41.318063+01

 2017-02-08 19:26:13.864467+01 | 1486578373.86447 |                 0 |              16 |                  6210 |                 3571 |            1376724 |             0 |                0 |          244706 |                     0 |         98919 | 2017-02-08 18:07:41.318063+01

 2017-02-08 19:26:14.933962+01 | 1486578374.93396 |                 0 |              16 |                  6210 |                 3571 |            1376724 |             0 |                0 |          244706 |                     0 |         98919 | 2017-02-08 18:07:41.318063+01

 2017-02-08 19:26:16.023654+01 | 1486578376.02365 |                 0 |              16 |                  6210 |                 3571 |            1376724 |             0 |                0 |          244706 |                     0 |         98919 | 2017-02-08 18:07:41.318063+01

 2017-02-08 19:26:17.111257+01 | 1486578377.11126 |                 0 |              16 |                  6210 |                 3571 |            1376724 |             0 |                0 |          244706 |                     0 |         98919 | 2017-02-08 18:07:41.318063+01

 2017-02-08 19:26:18.183545+01 | 1486578378.18355 |                 0 |              16 |                  6210 |                 3571 |            1376724 |             0 |                0 |          244706 |                     0 |         98919 | 2017-02-08 18:07:41.318063+01

 2017-02-08 19:26:19.255336+01 | 1486578379.25534 |                 0 |              16 |                  6210 |                 3571 |            1376724 |             0 |                0 |          244706 |                     0 |         98919 | 2017-02-08 18:07:41.318063+01

 2017-02-08 19:26:20.322641+01 | 1486578380.32264 |                 0 |              16 |                  6210 |                 3571 |            1376724 |             0 |                0 |          244706 |                     0 |         98919 | 2017-02-08 18:07:41.318063+01

 2017-02-08 19:26:21.394941+01 | 1486578381.39494 |                 0 |              16 |                  6210 |                 3571 |            1376724 |             0 |                0 |          244706 |                     0 |         98919 | 2017-02-08 18:07:41.318063+01

 2017-02-08 19:26:22.47425+01 | 1486578382.47425 |                 0 |              16 |                  6210 |                 3571 |            1376724 |             0 |                0 |          244706 |                     0 |         98919 | 2017-02-08 18:07:41.318063+01

 2017-02-08 19:26:23.553305+01 | 1486578383.5533 |                 0 |              16 |                  6210 |                 3571 |            1376724 |             0 |                0 |          244706 |                     0 |         98919 | 2017-02-08 18:07:41.318063+01

 2017-02-08 19:26:24.606005+01 | 1486578384.606 |                 0 |              16 |                  6210 |                 3571 |            1376724 |             0 |                0 |          244706 |                     0 |         98919 | 2017-02-08 18:07:41.318063+01

 2017-02-08 19:26:25.668467+01 | 1486578385.66847 |                 0 |              16 |                  6210 |                 3571 |            1376724 |             0 |                0 |          244706 |                     0 |         98919 | 2017-02-08 18:07:41.318063+01

 2017-02-08 19:26:26.732902+01 | 1486578386.7329 |                 0 |              16 |                  6210 |                 3571 |            1376724 |             0 |                0 |          244706 |                     0 |         98919 | 2017-02-08 18:07:41.318063+01

 2017-02-08 19:26:27.796085+01 | 1486578387.79608 |                 0 |              16 |                  6210 |                 3571 |            1376724 |             0 |                0 |          244706 |                     0 |         98919 | 2017-02-08 18:07:41.318063+01

 2017-02-08 19:26:28.873511+01 | 1486578388.87351 |                 0 |              16 |                  6210 |                 3571 |            1376724 |             0 |                0 |          244706 |                     0 |         98919 | 2017-02-08 18:07:41.318063+01

 2017-02-08 19:26:29.940203+01 | 1486578389.9402 |                 0 |              16 |                  6210 |                 3571 |            1376724 |             0 |                0 |          244706 |                     0 |         98919 | 2017-02-08 18:07:41.318063+01

 2017-02-08 19:26:31.008653+01 | 1486578391.00865 |                 0 |              16 |                  6210 |                 3571 |            1376724 |             0 |                0 |          244706 |                     0 |         98919 | 2017-02-08 18:07:41.318063+01

 2017-02-08 19:26:32.065915+01 | 1486578392.06592 |                 0 |              16 |                  6210 |                 3571 |            1376724 |             0 |                0 |          244706 |                     0 |         98919 | 2017-02-08 18:07:41.318063+01

 2017-02-08 19:26:33.134983+01 | 1486578393.13498 |                 0 |              16 |                  6210 |                 3571 |            1376724 |             0 |                0 |          244706 |                     0 |         98919 | 2017-02-08 18:07:41.318063+01

 2017-02-08 19:26:34.199942+01 | 1486578394.19994 |                 0 |              16 |                  6210 |                 3571 |            1376724 |             0 |                0 |          244706 |                     0 |         98919 | 2017-02-08 18:07:41.318063+01

 2017-02-08 19:26:35.286179+01 | 1486578395.28618 |                 0 |              16 |                  6210 |                 3571 |            1376724 |             0 |                0 |          244706 |                     0 |         98919 | 2017-02-08 18:07:41.318063+01

 2017-02-08 19:26:36.376161+01 | 1486578396.37616 |                 0 |              16 |                  6210 |                 3571 |            1376724 |             0 |                0 |          244706 |                     0 |         98919 | 2017-02-08 18:07:41.318063+01

 2017-02-08 19:26:37.450593+01 | 1486578397.45059 |                 0 |              16 |                  6210 |                 3571 |            1376724 |             0 |                0 |          244706 |                     0 |         98919 | 2017-02-08 18:07:41.318063+01

 2017-02-08 19:26:38.531937+01 | 1486578398.53194 |                 0 |              16 |                  6210 |                 3571 |            1376724 |             0 |                0 |          244706 |                     0 |         98919 | 2017-02-08 18:07:41.318063+01

 2017-02-08 19:26:39.604172+01 | 1486578399.60417 |                 0 |              16 |                  6210 |                 3571 |            1376724 |             0 |                0 |          244706 |                     0 |         98919 | 2017-02-08 18:07:41.318063+01

 2017-02-08 19:26:40.669946+01 | 1486578400.66995 |                 0 |              16 |                  6210 |                 3571 |            1376724 |             0 |                0 |          244706 |                     0 |         98919 | 2017-02-08 18:07:41.318063+01

 2017-02-08 19:26:41.749177+01 | 1486578401.74918 |                 0 |              16 |                  6210 |                 3571 |            1376724 |             0 |                0 |          244706 |                     0 |         98919 | 2017-02-08 18:07:41.318063+01

 2017-02-08 19:26:42.820636+01 | 1486578402.82064 |                 0 |              16 |                  6210 |                 3571 |            1376724 |             0 |                0 |          244706 |                     0 |         98919 | 2017-02-08 18:07:41.318063+01

 2017-02-08 19:26:43.892091+01 | 1486578403.89209 |                 0 |              16 |                  6210 |                 3571 |            1376724 |             0 |                0 |          244706 |                     0 |         98919 | 2017-02-08 18:07:41.318063+01

 2017-02-08 19:26:44.965756+01 | 1486578404.96576 |                 0 |              16 |                  6210 |                 3571 |            1376724 |             0 |                0 |          244706 |                     0 |         98919 | 2017-02-08 18:07:41.318063+01

 2017-02-08 19:26:46.05318+01 | 1486578406.05318 |                 0 |              16 |                  6210 |                 3571 |            1376724 |             0 |                0 |          244706 |                     0 |         98919 | 2017-02-08 18:07:41.318063+01

 2017-02-08 19:26:47.119886+01 | 1486578407.11989 |                 0 |              16 |                  6210 |                 3571 |            1376724 |             0 |                0 |          244706 |                     0 |         98919 | 2017-02-08 18:07:41.318063+01

 2017-02-08 19:26:48.19149+01 | 1486578408.19149 |                 0 |              16 |                  6210 |                 3571 |            1376724 |             0 |                0 |          244706 |                     0 |         98919 | 2017-02-08 18:07:41.318063+01

 2017-02-08 19:26:49.257708+01 | 1486578409.25771 |                 0 |              16 |                  6210 |                 3571 |            1376724 |             0 |                0 |          244706 |                     0 |         98919 | 2017-02-08 18:07:41.318063+01

 2017-02-08 19:26:50.339548+01 | 1486578410.33955 |                 0 |              16 |                  6210 |                 3571 |            1376724 |             0 |                0 |          244706 |                     0 |         98919 | 2017-02-08 18:07:41.318063+01

 2017-02-08 19:26:51.409168+01 | 1486578411.40917 |                 0 |              16 |                  6210 |                 3571 |            1376724 |             0 |                0 |          244706 |                     0 |         98919 | 2017-02-08 18:07:41.318063+01

 2017-02-08 19:26:52.477956+01 | 1486578412.47796 |                 0 |              16 |                  6210 |                 3571 |            1376724 |             0 |                0 |          244706 |                     0 |         98919 | 2017-02-08 18:07:41.318063+01

 2017-02-08 19:26:53.537756+01 | 1486578413.53776 |                 0 |              16 |                  6210 |                 3571 |            1376724 |             0 |                0 |          244706 |                     0 |         98919 | 2017-02-08 18:07:41.318063+01

 2017-02-08 19:26:54.599855+01 | 1486578414.59985 |                 0 |              16 |                  6210 |                 3571 |            1376724 |             0 |                0 |          244706 |                     0 |         98919 | 2017-02-08 18:07:41.318063+01

 2017-02-08 19:26:55.660548+01 | 1486578415.66055 |                 0 |              16 |                  6210 |                 3571 |            1376724 |             0 |                0 |          244706 |                     0 |         98919 | 2017-02-08 18:07:41.318063+01

 2017-02-08 19:26:56.729129+01 | 1486578416.72913 |                 0 |              16 |                  6210 |                 3571 |            1376724 |             0 |                0 |          244706 |                     0 |         98919 | 2017-02-08 18:07:41.318063+01

 2017-02-08 19:26:57.80601+01 | 1486578417.80601 |                 0 |              16 |                  6210 |                 3571 |            1376724 |             0 |                0 |          244706 |                     0 |         98919 | 2017-02-08 18:07:41.318063+01

 2017-02-08 19:26:58.87705+01 | 1486578418.87705 |                 0 |              16 |                  6210 |                 3571 |            1376724 |             0 |                0 |          244706 |                     0 |         98919 | 2017-02-08 18:07:41.318063+01

 2017-02-08 19:26:59.938473+01 | 1486578419.93847 |                 0 |              16 |                  6210 |                 3571 |            1376724 |             0 |                0 |          244706 |                     0 |         98919 | 2017-02-08 18:07:41.318063+01

 2017-02-08 19:27:00.996232+01 | 1486578420.99623 |                 0 |              16 |                  6210 |                 3571 |            1376724 |             0 |                0 |          244706 |                     0 |         98919 | 2017-02-08 18:07:41.318063+01

 2017-02-08 19:27:02.082708+01 | 1486578422.08271 |                 0 |              16 |                  6210 |                 3571 |            1376724 |             0 |                0 |          244706 |                     0 |         98919 | 2017-02-08 18:07:41.318063+01

 2017-02-08 19:27:03.15697+01 | 1486578423.15697 |                 0 |              16 |                  6210 |                 3571 |            1376724 |             0 |                0 |          244706 |                     0 |         98919 | 2017-02-08 18:07:41.318063+01

 2017-02-08 19:27:04.250266+01 | 1486578424.25027 |                 0 |              16 |                  6210 |                 3571 |            1376724 |             0 |                0 |          244706 |                     0 |         98919 | 2017-02-08 18:07:41.318063+01

 2017-02-08 19:27:05.319112+01 | 1486578425.31911 |                 0 |              16 |                  6210 |                 3571 |            1376724 |             0 |                0 |          244706 |                     0 |         98919 | 2017-02-08 18:07:41.318063+01

 2017-02-08 19:27:06.394187+01 | 1486578426.39419 |                 0 |              16 |                  6210 |                 3571 |            1376724 |             0 |                0 |          244706 |                     0 |         98919 | 2017-02-08 18:07:41.318063+01

 2017-02-08 19:27:07.459554+01 | 1486578427.45955 |                 0 |              16 |                  6210 |                 3571 |            1376724 |             0 |                0 |          244706 |                     0 |         98919 | 2017-02-08 18:07:41.318063+01

 2017-02-08 19:27:08.514578+01 | 1486578428.51458 |                 0 |              16 |                  6210 |                 3571 |            1376724 |             0 |                0 |          244706 |                     0 |         98919 | 2017-02-08 18:07:41.318063+01

 2017-02-08 19:27:09.573737+01 | 1486578429.57374 |                 0 |              16 |                  6210 |                 3571 |            1376724 |             0 |                0 |          244706 |                     0 |         98919 | 2017-02-08 18:07:41.318063+01

 2017-02-08 19:27:10.648097+01 | 1486578430.6481 |                 0 |              16 |                  6210 |                 3571 |            1376724 |             0 |                0 |          244706 |                     0 |         98919 | 2017-02-08 18:07:41.318063+01

 2017-02-08 19:27:11.717813+01 | 1486578431.71781 |                 0 |              16 |                  6210 |                 3571 |            1376724 |             0 |                0 |          244706 |                     0 |         98919 | 2017-02-08 18:07:41.318063+01

 2017-02-08 19:27:12.792024+01 | 1486578432.79202 |                 0 |              16 |                  6210 |                 3571 |            1376724 |             0 |                0 |          244706 |                     0 |         98919 | 2017-02-08 18:07:41.318063+01

 2017-02-08 19:27:13.848026+01 | 1486578433.84803 |                 0 |              16 |                  6210 |                 3571 |            1376724 |             0 |                0 |          244706 |                     0 |         98919 | 2017-02-08 18:07:41.318063+01

 2017-02-08 19:27:14.914167+01 | 1486578434.91417 |                 0 |              16 |                  6210 |                 3571 |            1376724 |             0 |                0 |          244706 |                     0 |         98919 | 2017-02-08 18:07:41.318063+01

 2017-02-08 19:27:15.983766+01 | 1486578435.98377 |                 0 |              16 |                  6210 |                 3571 |            1376724 |             0 |                0 |          244706 |                     0 |         98919 | 2017-02-08 18:07:41.318063+01

 2017-02-08 19:27:17.037413+01 | 1486578437.03741 |                 0 |              16 |                  6210 |                 3571 |            1376724 |             0 |                0 |          244706 |                     0 |         98919 | 2017-02-08 18:07:41.318063+01

 2017-02-08 19:27:18.10176+01 | 1486578438.10176 |                 0 |              16 |                  6210 |                 3571 |            1376724 |             0 |                0 |          244706 |                     0 |         98919 | 2017-02-08 18:07:41.318063+01

 2017-02-08 19:27:19.169876+01 | 1486578439.16988 |                 0 |              16 |                  6210 |                 3571 |            1376724 |             0 |                0 |          244706 |                     0 |         98919 | 2017-02-08 18:07:41.318063+01

 2017-02-08 19:27:20.226778+01 | 1486578440.22678 |                 0 |              16 |                  6210 |                 3571 |            1376724 |             0 |                0 |          244706 |                     0 |         98919 | 2017-02-08 18:07:41.318063+01

 2017-02-08 19:27:21.307651+01 | 1486578441.30765 |                 0 |              16 |                  6210 |                 3571 |            1376724 |             0 |                0 |          244706 |                     0 |         98919 | 2017-02-08 18:07:41.318063+01

 2017-02-08 19:27:22.379491+01 | 1486578442.37949 |                 0 |              16 |                  6210 |                 3571 |            1376724 |             0 |                0 |          244706 |                     0 |         98919 | 2017-02-08 18:07:41.318063+01

 2017-02-08 19:27:23.435876+01 | 1486578443.43588 |                 0 |              16 |                  6210 |                 3571 |            1376724 |             0 |                0 |          244706 |                     0 |         98919 | 2017-02-08 18:07:41.318063+01

 2017-02-08 19:27:24.496294+01 | 1486578444.49629 |                 0 |              16 |                  6210 |                 3571 |            1376724 |             0 |                0 |          244706 |                     0 |         98919 | 2017-02-08 18:07:41.318063+01

 2017-02-08 19:27:25.549227+01 | 1486578445.54923 |                 0 |              16 |                  6210 |                 3571 |            1376724 |             0 |                0 |          244706 |                     0 |         98919 | 2017-02-08 18:07:41.318063+01

 2017-02-08 19:27:26.608182+01 | 1486578446.60818 |                 0 |              16 |                  6210 |                 3571 |            1376724 |             0 |                0 |          244706 |                     0 |         98919 | 2017-02-08 18:07:41.318063+01

 2017-02-08 19:27:27.677981+01 | 1486578447.67798 |                 0 |              16 |                  6210 |                 3571 |            1376724 |             0 |                0 |          244706 |                     0 |         98919 | 2017-02-08 18:07:41.318063+01

 2017-02-08 19:27:28.755065+01 | 1486578448.75506 |                 0 |              16 |                  6210 |                 3571 |            1376724 |             0 |                0 |          244706 |                     0 |         98919 | 2017-02-08 18:07:41.318063+01

 2017-02-08 19:27:29.813133+01 | 1486578449.81313 |                 0 |              16 |                  6210 |                 3571 |            1376724 |             0 |                0 |          244706 |                     0 |         98919 | 2017-02-08 18:07:41.318063+01

 2017-02-08 19:27:30.889304+01 | 1486578450.8893 |                 0 |              16 |                  6210 |                 3571 |            1376724 |             0 |                0 |          244706 |                     0 |         98919 | 2017-02-08 18:07:41.318063+01

 2017-02-08 19:27:31.95909+01 | 1486578451.95909 |                 0 |              16 |                  6210 |                 3571 |            1376724 |             0 |                0 |          244706 |                     0 |         98919 | 2017-02-08 18:07:41.318063+01

 2017-02-08 19:27:33.031182+01 | 1486578453.03118 |                 0 |              16 |                  6210 |                 3571 |            1376724 |             0 |                0 |          244706 |                     0 |         98919 | 2017-02-08 18:07:41.318063+01

 2017-02-08 19:27:34.092167+01 | 1486578454.09217 |                 0 |              16 |                  6210 |                 3571 |            1376724 |             0 |                0 |          244706 |                     0 |         98919 | 2017-02-08 18:07:41.318063+01

 2017-02-08 19:27:35.154937+01 | 1486578455.15494 |                 0 |              16 |                  6210 |                 3571 |            1376724 |             0 |                0 |          244706 |                     0 |         98919 | 2017-02-08 18:07:41.318063+01

 2017-02-08 19:27:36.220291+01 | 1486578456.22029 |                 0 |              16 |                  6210 |                 3571 |            1376724 |             0 |                0 |          244706 |                     0 |         98919 | 2017-02-08 18:07:41.318063+01

 2017-02-08 19:27:37.280565+01 | 1486578457.28057 |                 0 |              16 |                  6210 |                 3571 |            1376724 |             0 |                0 |          244706 |                     0 |         98919 | 2017-02-08 18:07:41.318063+01

 2017-02-08 19:27:38.349659+01 | 1486578458.34966 |                 0 |              16 |                  6210 |                 3571 |            1376724 |             0 |                0 |          244706 |                     0 |         98919 | 2017-02-08 18:07:41.318063+01

 2017-02-08 19:27:39.419269+01 | 1486578459.41927 |                 0 |              16 |                  6210 |                 3571 |            1376724 |             0 |                0 |          244706 |                     0 |         98919 | 2017-02-08 18:07:41.318063+01

 2017-02-08 19:27:40.486525+01 | 1486578460.48653 |                 0 |              16 |                  6210 |                 3571 |            1376724 |             0 |                0 |          244706 |                     0 |         98919 | 2017-02-08 18:07:41.318063+01

 2017-02-08 19:27:41.561904+01 | 1486578461.5619 |                 0 |              16 |                  6210 |                 3571 |            1376724 |             0 |                0 |          244706 |                     0 |         98919 | 2017-02-08 18:07:41.318063+01

 2017-02-08 19:27:42.636563+01 | 1486578462.63656 |                 0 |              16 |                  6210 |                 3571 |            1376724 |             0 |                0 |          244706 |                     0 |         98919 | 2017-02-08 18:07:41.318063+01

 2017-02-08 19:27:43.717966+01 | 1486578463.71797 |                 0 |              16 |                  6210 |                 3571 |            1376724 |             0 |                0 |          244706 |                     0 |         98919 | 2017-02-08 18:07:41.318063+01

 2017-02-08 19:27:44.785816+01 | 1486578464.78582 |                 0 |              16 |                  6210 |                 3571 |            1376724 |             0 |                0 |          244706 |                     0 |         98919 | 2017-02-08 18:07:41.318063+01

 2017-02-08 19:27:45.851551+01 | 1486578465.85155 |                 0 |              16 |                  6210 |                 3571 |            1376724 |             0 |                0 |          244706 |                     0 |         98919 | 2017-02-08 18:07:41.318063+01

 2017-02-08 19:27:46.916643+01 | 1486578466.91664 |                 0 |              16 |                  6210 |                 3571 |            1376724 |             0 |                0 |          244706 |                     0 |         98919 | 2017-02-08 18:07:41.318063+01

 2017-02-08 19:27:47.985082+01 | 1486578467.98508 |                 0 |              16 |                  6210 |                 3571 |            1376724 |             0 |                0 |          244706 |                     0 |         98919 | 2017-02-08 18:07:41.318063+01

 2017-02-08 19:27:49.051242+01 | 1486578469.05124 |                 0 |              16 |                  6210 |                 3571 |            1376724 |             0 |                0 |          244706 |                     0 |         98919 | 2017-02-08 18:07:41.318063+01

 2017-02-08 19:27:50.119405+01 | 1486578470.11941 |                 0 |              16 |                  6210 |                 3571 |            1376724 |             0 |                0 |          244706 |                     0 |         98919 | 2017-02-08 18:07:41.318063+01

 2017-02-08 19:27:51.178458+01 | 1486578471.17846 |                 0 |              16 |                  6210 |                 3571 |            1376724 |             0 |                0 |          244706 |                     0 |         98919 | 2017-02-08 18:07:41.318063+01

 2017-02-08 19:27:52.250882+01 | 1486578472.25088 |                 0 |              16 |                  6210 |                 3571 |            1376724 |             0 |                0 |          244706 |                     0 |         98919 | 2017-02-08 18:07:41.318063+01

 2017-02-08 19:27:53.310904+01 | 1486578473.3109 |                 0 |              16 |                  6210 |                 3571 |            1376724 |             0 |                0 |          244706 |                     0 |         98919 | 2017-02-08 18:07:41.318063+01

 2017-02-08 19:27:54.381497+01 | 1486578474.3815 |                 0 |              16 |                  6210 |                 3571 |            1376724 |             0 |                0 |          244706 |                     0 |         98919 | 2017-02-08 18:07:41.318063+01

 2017-02-08 19:27:55.450923+01 | 1486578475.45092 |                 0 |              16 |                  6210 |                 3571 |            1376724 |             0 |                0 |          244706 |                     0 |         98919 | 2017-02-08 18:07:41.318063+01

 2017-02-08 19:27:56.518681+01 | 1486578476.51868 |                 0 |              16 |                  6210 |                 3571 |            1376724 |             0 |                0 |          244706 |                     0 |         98919 | 2017-02-08 18:07:41.318063+01

 2017-02-08 19:27:57.584588+01 | 1486578477.58459 |                 0 |              16 |                  6210 |                 3571 |            1376724 |             0 |                0 |          244706 |                     0 |         98919 | 2017-02-08 18:07:41.318063+01

 2017-02-08 19:27:58.644471+01 | 1486578478.64447 |                 0 |              16 |                  6210 |                 3571 |            1376724 |             0 |                0 |          244706 |                     0 |         98919 | 2017-02-08 18:07:41.318063+01

 2017-02-08 19:27:59.699427+01 | 1486578479.69943 |                 0 |              16 |                  6210 |                 3571 |            1376724 |             0 |                0 |          244706 |                     0 |         98919 | 2017-02-08 18:07:41.318063+01

 2017-02-08 19:28:00.772689+01 | 1486578480.77269 |                 0 |              16 |                  6210 |                 3571 |            1376724 |             0 |                0 |          244706 |                     0 |         98919 | 2017-02-08 18:07:41.318063+01

 2017-02-08 19:28:01.843151+01 | 1486578481.84315 |                 0 |              16 |                  6210 |                 3571 |            1376724 |             0 |                0 |          244706 |                     0 |         98919 | 2017-02-08 18:07:41.318063+01

