 2017-02-08 10:05:31.075402+01 | 1486544731.0754 | pgbench_branches_pkey |            40960
 2017-02-08 10:05:31.075402+01 | 1486544731.0754 | pgbench_tellers_pkey  |           122880
 2017-02-08 10:05:31.075402+01 | 1486544731.0754 | pgbench_accounts_pkey |        112336896

 2017-02-08 10:05:32.174108+01 | 1486544732.17411 | pgbench_branches_pkey |            40960
 2017-02-08 10:05:32.174108+01 | 1486544732.17411 | pgbench_tellers_pkey  |           122880
 2017-02-08 10:05:32.174108+01 | 1486544732.17411 | pgbench_accounts_pkey |        112336896

 2017-02-08 10:05:33.263596+01 | 1486544733.2636 | pgbench_branches_pkey |            40960
 2017-02-08 10:05:33.263596+01 | 1486544733.2636 | pgbench_tellers_pkey  |           122880
 2017-02-08 10:05:33.263596+01 | 1486544733.2636 | pgbench_accounts_pkey |        112336896

 2017-02-08 10:05:34.34695+01 | 1486544734.34695 | pgbench_branches_pkey |            40960
 2017-02-08 10:05:34.34695+01 | 1486544734.34695 | pgbench_tellers_pkey  |           122880
 2017-02-08 10:05:34.34695+01 | 1486544734.34695 | pgbench_accounts_pkey |        112336896

 2017-02-08 10:05:35.439773+01 | 1486544735.43977 | pgbench_branches_pkey |            40960
 2017-02-08 10:05:35.439773+01 | 1486544735.43977 | pgbench_tellers_pkey  |           122880
 2017-02-08 10:05:35.439773+01 | 1486544735.43977 | pgbench_accounts_pkey |        112336896

 2017-02-08 10:05:36.543183+01 | 1486544736.54318 | pgbench_branches_pkey |            40960
 2017-02-08 10:05:36.543183+01 | 1486544736.54318 | pgbench_tellers_pkey  |           122880
 2017-02-08 10:05:36.543183+01 | 1486544736.54318 | pgbench_accounts_pkey |        112336896

 2017-02-08 10:05:37.627638+01 | 1486544737.62764 | pgbench_branches_pkey |            40960
 2017-02-08 10:05:37.627638+01 | 1486544737.62764 | pgbench_tellers_pkey  |           122880
 2017-02-08 10:05:37.627638+01 | 1486544737.62764 | pgbench_accounts_pkey |        112336896

 2017-02-08 10:05:38.711815+01 | 1486544738.71182 | pgbench_branches_pkey |            40960
 2017-02-08 10:05:38.711815+01 | 1486544738.71182 | pgbench_tellers_pkey  |           122880
 2017-02-08 10:05:38.711815+01 | 1486544738.71182 | pgbench_accounts_pkey |        112336896

 2017-02-08 10:05:39.816366+01 | 1486544739.81637 | pgbench_branches_pkey |            40960
 2017-02-08 10:05:39.816366+01 | 1486544739.81637 | pgbench_tellers_pkey  |           122880
 2017-02-08 10:05:39.816366+01 | 1486544739.81637 | pgbench_accounts_pkey |        112336896

 2017-02-08 10:05:40.90785+01 | 1486544740.90785 | pgbench_branches_pkey |            40960
 2017-02-08 10:05:40.90785+01 | 1486544740.90785 | pgbench_tellers_pkey  |           122880
 2017-02-08 10:05:40.90785+01 | 1486544740.90785 | pgbench_accounts_pkey |        112336896

 2017-02-08 10:05:42.017472+01 | 1486544742.01747 | pgbench_branches_pkey |            40960
 2017-02-08 10:05:42.017472+01 | 1486544742.01747 | pgbench_tellers_pkey  |           122880
 2017-02-08 10:05:42.017472+01 | 1486544742.01747 | pgbench_accounts_pkey |        112336896

 2017-02-08 10:05:43.109942+01 | 1486544743.10994 | pgbench_branches_pkey |            40960
 2017-02-08 10:05:43.109942+01 | 1486544743.10994 | pgbench_tellers_pkey  |           122880
 2017-02-08 10:05:43.109942+01 | 1486544743.10994 | pgbench_accounts_pkey |        112336896

 2017-02-08 10:05:44.211333+01 | 1486544744.21133 | pgbench_branches_pkey |            40960
 2017-02-08 10:05:44.211333+01 | 1486544744.21133 | pgbench_tellers_pkey  |           122880
 2017-02-08 10:05:44.211333+01 | 1486544744.21133 | pgbench_accounts_pkey |        112336896

 2017-02-08 10:05:45.31115+01 | 1486544745.31115 | pgbench_branches_pkey |            40960
 2017-02-08 10:05:45.31115+01 | 1486544745.31115 | pgbench_tellers_pkey  |           122880
 2017-02-08 10:05:45.31115+01 | 1486544745.31115 | pgbench_accounts_pkey |        112336896

 2017-02-08 10:05:46.426452+01 | 1486544746.42645 | pgbench_branches_pkey |            40960
 2017-02-08 10:05:46.426452+01 | 1486544746.42645 | pgbench_tellers_pkey  |           122880
 2017-02-08 10:05:46.426452+01 | 1486544746.42645 | pgbench_accounts_pkey |        112336896

 2017-02-08 10:05:47.517063+01 | 1486544747.51706 | pgbench_branches_pkey |            40960
 2017-02-08 10:05:47.517063+01 | 1486544747.51706 | pgbench_tellers_pkey  |           122880
 2017-02-08 10:05:47.517063+01 | 1486544747.51706 | pgbench_accounts_pkey |        112336896

 2017-02-08 10:05:48.60865+01 | 1486544748.60865 | pgbench_branches_pkey |            40960
 2017-02-08 10:05:48.60865+01 | 1486544748.60865 | pgbench_tellers_pkey  |           122880
 2017-02-08 10:05:48.60865+01 | 1486544748.60865 | pgbench_accounts_pkey |        112336896

 2017-02-08 10:05:49.716261+01 | 1486544749.71626 | pgbench_branches_pkey |            40960
 2017-02-08 10:05:49.716261+01 | 1486544749.71626 | pgbench_tellers_pkey  |           122880
 2017-02-08 10:05:49.716261+01 | 1486544749.71626 | pgbench_accounts_pkey |        112336896

 2017-02-08 10:05:50.816455+01 | 1486544750.81645 | pgbench_branches_pkey |            40960
 2017-02-08 10:05:50.816455+01 | 1486544750.81645 | pgbench_tellers_pkey  |           122880
 2017-02-08 10:05:50.816455+01 | 1486544750.81645 | pgbench_accounts_pkey |        112336896

 2017-02-08 10:05:51.89513+01 | 1486544751.89513 | pgbench_branches_pkey |            40960
 2017-02-08 10:05:51.89513+01 | 1486544751.89513 | pgbench_tellers_pkey  |           122880
 2017-02-08 10:05:51.89513+01 | 1486544751.89513 | pgbench_accounts_pkey |        112336896

 2017-02-08 10:05:52.967837+01 | 1486544752.96784 | pgbench_branches_pkey |            40960
 2017-02-08 10:05:52.967837+01 | 1486544752.96784 | pgbench_tellers_pkey  |           122880
 2017-02-08 10:05:52.967837+01 | 1486544752.96784 | pgbench_accounts_pkey |        112336896

 2017-02-08 10:05:54.065813+01 | 1486544754.06581 | pgbench_branches_pkey |            40960
 2017-02-08 10:05:54.065813+01 | 1486544754.06581 | pgbench_tellers_pkey  |           122880
 2017-02-08 10:05:54.065813+01 | 1486544754.06581 | pgbench_accounts_pkey |        112336896

 2017-02-08 10:05:55.150344+01 | 1486544755.15034 | pgbench_branches_pkey |            40960
 2017-02-08 10:05:55.150344+01 | 1486544755.15034 | pgbench_tellers_pkey  |           122880
 2017-02-08 10:05:55.150344+01 | 1486544755.15034 | pgbench_accounts_pkey |        112336896

 2017-02-08 10:05:56.260852+01 | 1486544756.26085 | pgbench_branches_pkey |            40960
 2017-02-08 10:05:56.260852+01 | 1486544756.26085 | pgbench_tellers_pkey  |           122880
 2017-02-08 10:05:56.260852+01 | 1486544756.26085 | pgbench_accounts_pkey |        112336896

 2017-02-08 10:05:57.345882+01 | 1486544757.34588 | pgbench_branches_pkey |            40960
 2017-02-08 10:05:57.345882+01 | 1486544757.34588 | pgbench_tellers_pkey  |           122880
 2017-02-08 10:05:57.345882+01 | 1486544757.34588 | pgbench_accounts_pkey |        112336896

 2017-02-08 10:05:58.440861+01 | 1486544758.44086 | pgbench_branches_pkey |            40960
 2017-02-08 10:05:58.440861+01 | 1486544758.44086 | pgbench_tellers_pkey  |           122880
 2017-02-08 10:05:58.440861+01 | 1486544758.44086 | pgbench_accounts_pkey |        112336896

 2017-02-08 10:05:59.577718+01 | 1486544759.57772 | pgbench_branches_pkey |            40960
 2017-02-08 10:05:59.577718+01 | 1486544759.57772 | pgbench_tellers_pkey  |           122880
 2017-02-08 10:05:59.577718+01 | 1486544759.57772 | pgbench_accounts_pkey |        112336896

 2017-02-08 10:06:00.709392+01 | 1486544760.70939 | pgbench_branches_pkey |            40960
 2017-02-08 10:06:00.709392+01 | 1486544760.70939 | pgbench_tellers_pkey  |           122880
 2017-02-08 10:06:00.709392+01 | 1486544760.70939 | pgbench_accounts_pkey |        112336896

 2017-02-08 10:06:01.80676+01 | 1486544761.80676 | pgbench_branches_pkey |            40960
 2017-02-08 10:06:01.80676+01 | 1486544761.80676 | pgbench_tellers_pkey  |           122880
 2017-02-08 10:06:01.80676+01 | 1486544761.80676 | pgbench_accounts_pkey |        112336896

 2017-02-08 10:06:02.923745+01 | 1486544762.92374 | pgbench_branches_pkey |            40960
 2017-02-08 10:06:02.923745+01 | 1486544762.92374 | pgbench_tellers_pkey  |           122880
 2017-02-08 10:06:02.923745+01 | 1486544762.92374 | pgbench_accounts_pkey |        112336896

 2017-02-08 10:06:04.009764+01 | 1486544764.00976 | pgbench_branches_pkey |            40960
 2017-02-08 10:06:04.009764+01 | 1486544764.00976 | pgbench_tellers_pkey  |           122880
 2017-02-08 10:06:04.009764+01 | 1486544764.00976 | pgbench_accounts_pkey |        112336896

 2017-02-08 10:06:05.084955+01 | 1486544765.08495 | pgbench_branches_pkey |            40960
 2017-02-08 10:06:05.084955+01 | 1486544765.08495 | pgbench_tellers_pkey  |           122880
 2017-02-08 10:06:05.084955+01 | 1486544765.08495 | pgbench_accounts_pkey |        112336896

 2017-02-08 10:06:06.170816+01 | 1486544766.17082 | pgbench_branches_pkey |            40960
 2017-02-08 10:06:06.170816+01 | 1486544766.17082 | pgbench_tellers_pkey  |           122880
 2017-02-08 10:06:06.170816+01 | 1486544766.17082 | pgbench_accounts_pkey |        112336896

 2017-02-08 10:06:07.305538+01 | 1486544767.30554 | pgbench_branches_pkey |            40960
 2017-02-08 10:06:07.305538+01 | 1486544767.30554 | pgbench_tellers_pkey  |           122880
 2017-02-08 10:06:07.305538+01 | 1486544767.30554 | pgbench_accounts_pkey |        112336896

 2017-02-08 10:06:08.424597+01 | 1486544768.4246 | pgbench_branches_pkey |            40960
 2017-02-08 10:06:08.424597+01 | 1486544768.4246 | pgbench_tellers_pkey  |           122880
 2017-02-08 10:06:08.424597+01 | 1486544768.4246 | pgbench_accounts_pkey |        112336896

 2017-02-08 10:06:09.555677+01 | 1486544769.55568 | pgbench_branches_pkey |            40960
 2017-02-08 10:06:09.555677+01 | 1486544769.55568 | pgbench_tellers_pkey  |           122880
 2017-02-08 10:06:09.555677+01 | 1486544769.55568 | pgbench_accounts_pkey |        112336896

 2017-02-08 10:06:10.657054+01 | 1486544770.65705 | pgbench_branches_pkey |            40960
 2017-02-08 10:06:10.657054+01 | 1486544770.65705 | pgbench_tellers_pkey  |           122880
 2017-02-08 10:06:10.657054+01 | 1486544770.65705 | pgbench_accounts_pkey |        112336896

 2017-02-08 10:06:11.765689+01 | 1486544771.76569 | pgbench_branches_pkey |            40960
 2017-02-08 10:06:11.765689+01 | 1486544771.76569 | pgbench_tellers_pkey  |           122880
 2017-02-08 10:06:11.765689+01 | 1486544771.76569 | pgbench_accounts_pkey |        112336896

 2017-02-08 10:06:12.889603+01 | 1486544772.8896 | pgbench_branches_pkey |            40960
 2017-02-08 10:06:12.889603+01 | 1486544772.8896 | pgbench_tellers_pkey  |           122880
 2017-02-08 10:06:12.889603+01 | 1486544772.8896 | pgbench_accounts_pkey |        112336896

 2017-02-08 10:06:14.003743+01 | 1486544774.00374 | pgbench_branches_pkey |            40960
 2017-02-08 10:06:14.003743+01 | 1486544774.00374 | pgbench_tellers_pkey  |           122880
 2017-02-08 10:06:14.003743+01 | 1486544774.00374 | pgbench_accounts_pkey |        112336896

 2017-02-08 10:06:15.09938+01 | 1486544775.09938 | pgbench_branches_pkey |            40960
 2017-02-08 10:06:15.09938+01 | 1486544775.09938 | pgbench_tellers_pkey  |           122880
 2017-02-08 10:06:15.09938+01 | 1486544775.09938 | pgbench_accounts_pkey |        112336896

 2017-02-08 10:06:16.185436+01 | 1486544776.18544 | pgbench_branches_pkey |            40960
 2017-02-08 10:06:16.185436+01 | 1486544776.18544 | pgbench_tellers_pkey  |           122880
 2017-02-08 10:06:16.185436+01 | 1486544776.18544 | pgbench_accounts_pkey |        112336896

 2017-02-08 10:06:17.302164+01 | 1486544777.30216 | pgbench_branches_pkey |            40960
 2017-02-08 10:06:17.302164+01 | 1486544777.30216 | pgbench_tellers_pkey  |           122880
 2017-02-08 10:06:17.302164+01 | 1486544777.30216 | pgbench_accounts_pkey |        112336896

 2017-02-08 10:06:18.420205+01 | 1486544778.42021 | pgbench_branches_pkey |            40960
 2017-02-08 10:06:18.420205+01 | 1486544778.42021 | pgbench_tellers_pkey  |           122880
 2017-02-08 10:06:18.420205+01 | 1486544778.42021 | pgbench_accounts_pkey |        112336896

 2017-02-08 10:06:19.526772+01 | 1486544779.52677 | pgbench_branches_pkey |            40960
 2017-02-08 10:06:19.526772+01 | 1486544779.52677 | pgbench_tellers_pkey  |           122880
 2017-02-08 10:06:19.526772+01 | 1486544779.52677 | pgbench_accounts_pkey |        112336896

 2017-02-08 10:06:20.61452+01 | 1486544780.61452 | pgbench_branches_pkey |            40960
 2017-02-08 10:06:20.61452+01 | 1486544780.61452 | pgbench_tellers_pkey  |           122880
 2017-02-08 10:06:20.61452+01 | 1486544780.61452 | pgbench_accounts_pkey |        112336896

 2017-02-08 10:06:21.722198+01 | 1486544781.7222 | pgbench_branches_pkey |            40960
 2017-02-08 10:06:21.722198+01 | 1486544781.7222 | pgbench_tellers_pkey  |           122880
 2017-02-08 10:06:21.722198+01 | 1486544781.7222 | pgbench_accounts_pkey |        112336896

 2017-02-08 10:06:22.838828+01 | 1486544782.83883 | pgbench_branches_pkey |            40960
 2017-02-08 10:06:22.838828+01 | 1486544782.83883 | pgbench_tellers_pkey  |           122880
 2017-02-08 10:06:22.838828+01 | 1486544782.83883 | pgbench_accounts_pkey |        112336896

 2017-02-08 10:06:23.923251+01 | 1486544783.92325 | pgbench_branches_pkey |            40960
 2017-02-08 10:06:23.923251+01 | 1486544783.92325 | pgbench_tellers_pkey  |           122880
 2017-02-08 10:06:23.923251+01 | 1486544783.92325 | pgbench_accounts_pkey |        112336896

 2017-02-08 10:06:25.025423+01 | 1486544785.02542 | pgbench_branches_pkey |            40960
 2017-02-08 10:06:25.025423+01 | 1486544785.02542 | pgbench_tellers_pkey  |           122880
 2017-02-08 10:06:25.025423+01 | 1486544785.02542 | pgbench_accounts_pkey |        112336896

 2017-02-08 10:06:26.159083+01 | 1486544786.15908 | pgbench_branches_pkey |            40960
 2017-02-08 10:06:26.159083+01 | 1486544786.15908 | pgbench_tellers_pkey  |           122880
 2017-02-08 10:06:26.159083+01 | 1486544786.15908 | pgbench_accounts_pkey |        112336896

 2017-02-08 10:06:27.26463+01 | 1486544787.26463 | pgbench_branches_pkey |            40960
 2017-02-08 10:06:27.26463+01 | 1486544787.26463 | pgbench_tellers_pkey  |           122880
 2017-02-08 10:06:27.26463+01 | 1486544787.26463 | pgbench_accounts_pkey |        112336896

 2017-02-08 10:06:28.37872+01 | 1486544788.37872 | pgbench_branches_pkey |            40960
 2017-02-08 10:06:28.37872+01 | 1486544788.37872 | pgbench_tellers_pkey  |           122880
 2017-02-08 10:06:28.37872+01 | 1486544788.37872 | pgbench_accounts_pkey |        112336896

 2017-02-08 10:06:29.47886+01 | 1486544789.47886 | pgbench_branches_pkey |            40960
 2017-02-08 10:06:29.47886+01 | 1486544789.47886 | pgbench_tellers_pkey  |           122880
 2017-02-08 10:06:29.47886+01 | 1486544789.47886 | pgbench_accounts_pkey |        112336896

 2017-02-08 10:06:30.595652+01 | 1486544790.59565 | pgbench_branches_pkey |            40960
 2017-02-08 10:06:30.595652+01 | 1486544790.59565 | pgbench_tellers_pkey  |           122880
 2017-02-08 10:06:30.595652+01 | 1486544790.59565 | pgbench_accounts_pkey |        112336896

 2017-02-08 10:06:31.68732+01 | 1486544791.68732 | pgbench_branches_pkey |            40960
 2017-02-08 10:06:31.68732+01 | 1486544791.68732 | pgbench_tellers_pkey  |           122880
 2017-02-08 10:06:31.68732+01 | 1486544791.68732 | pgbench_accounts_pkey |        112336896

 2017-02-08 10:06:32.77941+01 | 1486544792.77941 | pgbench_branches_pkey |            40960
 2017-02-08 10:06:32.77941+01 | 1486544792.77941 | pgbench_tellers_pkey  |           122880
 2017-02-08 10:06:32.77941+01 | 1486544792.77941 | pgbench_accounts_pkey |        112336896

 2017-02-08 10:06:33.897493+01 | 1486544793.89749 | pgbench_branches_pkey |            40960
 2017-02-08 10:06:33.897493+01 | 1486544793.89749 | pgbench_tellers_pkey  |           122880
 2017-02-08 10:06:33.897493+01 | 1486544793.89749 | pgbench_accounts_pkey |        112336896

 2017-02-08 10:06:35.00782+01 | 1486544795.00782 | pgbench_branches_pkey |            40960
 2017-02-08 10:06:35.00782+01 | 1486544795.00782 | pgbench_tellers_pkey  |           122880
 2017-02-08 10:06:35.00782+01 | 1486544795.00782 | pgbench_accounts_pkey |        112336896

 2017-02-08 10:06:36.132801+01 | 1486544796.1328 | pgbench_branches_pkey |            40960
 2017-02-08 10:06:36.132801+01 | 1486544796.1328 | pgbench_tellers_pkey  |           122880
 2017-02-08 10:06:36.132801+01 | 1486544796.1328 | pgbench_accounts_pkey |        112336896

 2017-02-08 10:06:37.228126+01 | 1486544797.22813 | pgbench_branches_pkey |            40960
 2017-02-08 10:06:37.228126+01 | 1486544797.22813 | pgbench_tellers_pkey  |           122880
 2017-02-08 10:06:37.228126+01 | 1486544797.22813 | pgbench_accounts_pkey |        112336896

 2017-02-08 10:06:38.33825+01 | 1486544798.33825 | pgbench_branches_pkey |            40960
 2017-02-08 10:06:38.33825+01 | 1486544798.33825 | pgbench_tellers_pkey  |           122880
 2017-02-08 10:06:38.33825+01 | 1486544798.33825 | pgbench_accounts_pkey |        112336896

 2017-02-08 10:06:39.427778+01 | 1486544799.42778 | pgbench_branches_pkey |            40960
 2017-02-08 10:06:39.427778+01 | 1486544799.42778 | pgbench_tellers_pkey  |           122880
 2017-02-08 10:06:39.427778+01 | 1486544799.42778 | pgbench_accounts_pkey |        112336896

 2017-02-08 10:06:40.572951+01 | 1486544800.57295 | pgbench_branches_pkey |            40960
 2017-02-08 10:06:40.572951+01 | 1486544800.57295 | pgbench_tellers_pkey  |           122880
 2017-02-08 10:06:40.572951+01 | 1486544800.57295 | pgbench_accounts_pkey |        112336896

 2017-02-08 10:06:41.67539+01 | 1486544801.67539 | pgbench_branches_pkey |            40960
 2017-02-08 10:06:41.67539+01 | 1486544801.67539 | pgbench_tellers_pkey  |           122880
 2017-02-08 10:06:41.67539+01 | 1486544801.67539 | pgbench_accounts_pkey |        112336896

 2017-02-08 10:06:42.762557+01 | 1486544802.76256 | pgbench_branches_pkey |            40960
 2017-02-08 10:06:42.762557+01 | 1486544802.76256 | pgbench_tellers_pkey  |           122880
 2017-02-08 10:06:42.762557+01 | 1486544802.76256 | pgbench_accounts_pkey |        112336896

 2017-02-08 10:06:43.863334+01 | 1486544803.86333 | pgbench_branches_pkey |            40960
 2017-02-08 10:06:43.863334+01 | 1486544803.86333 | pgbench_tellers_pkey  |           122880
 2017-02-08 10:06:43.863334+01 | 1486544803.86333 | pgbench_accounts_pkey |        112336896

 2017-02-08 10:06:44.976681+01 | 1486544804.97668 | pgbench_branches_pkey |            40960
 2017-02-08 10:06:44.976681+01 | 1486544804.97668 | pgbench_tellers_pkey  |           122880
 2017-02-08 10:06:44.976681+01 | 1486544804.97668 | pgbench_accounts_pkey |        112336896

 2017-02-08 10:06:46.07896+01 | 1486544806.07896 | pgbench_branches_pkey |            40960
 2017-02-08 10:06:46.07896+01 | 1486544806.07896 | pgbench_tellers_pkey  |           122880
 2017-02-08 10:06:46.07896+01 | 1486544806.07896 | pgbench_accounts_pkey |        112336896

 2017-02-08 10:06:47.193764+01 | 1486544807.19376 | pgbench_branches_pkey |            40960
 2017-02-08 10:06:47.193764+01 | 1486544807.19376 | pgbench_tellers_pkey  |           122880
 2017-02-08 10:06:47.193764+01 | 1486544807.19376 | pgbench_accounts_pkey |        112336896

 2017-02-08 10:06:48.2904+01 | 1486544808.2904 | pgbench_branches_pkey |            40960
 2017-02-08 10:06:48.2904+01 | 1486544808.2904 | pgbench_tellers_pkey  |           122880
 2017-02-08 10:06:48.2904+01 | 1486544808.2904 | pgbench_accounts_pkey |        112336896

 2017-02-08 10:06:49.381406+01 | 1486544809.38141 | pgbench_branches_pkey |            40960
 2017-02-08 10:06:49.381406+01 | 1486544809.38141 | pgbench_tellers_pkey  |           122880
 2017-02-08 10:06:49.381406+01 | 1486544809.38141 | pgbench_accounts_pkey |        112336896

 2017-02-08 10:06:50.475321+01 | 1486544810.47532 | pgbench_branches_pkey |            40960
 2017-02-08 10:06:50.475321+01 | 1486544810.47532 | pgbench_tellers_pkey  |           122880
 2017-02-08 10:06:50.475321+01 | 1486544810.47532 | pgbench_accounts_pkey |        112336896

 2017-02-08 10:06:51.583588+01 | 1486544811.58359 | pgbench_branches_pkey |            40960
 2017-02-08 10:06:51.583588+01 | 1486544811.58359 | pgbench_tellers_pkey  |           122880
 2017-02-08 10:06:51.583588+01 | 1486544811.58359 | pgbench_accounts_pkey |        112336896

 2017-02-08 10:06:52.676376+01 | 1486544812.67638 | pgbench_branches_pkey |            40960
 2017-02-08 10:06:52.676376+01 | 1486544812.67638 | pgbench_tellers_pkey  |           122880
 2017-02-08 10:06:52.676376+01 | 1486544812.67638 | pgbench_accounts_pkey |        112336896

 2017-02-08 10:06:53.764479+01 | 1486544813.76448 | pgbench_branches_pkey |            40960
 2017-02-08 10:06:53.764479+01 | 1486544813.76448 | pgbench_tellers_pkey  |           122880
 2017-02-08 10:06:53.764479+01 | 1486544813.76448 | pgbench_accounts_pkey |        112336896

 2017-02-08 10:06:54.850797+01 | 1486544814.8508 | pgbench_branches_pkey |            40960
 2017-02-08 10:06:54.850797+01 | 1486544814.8508 | pgbench_tellers_pkey  |           122880
 2017-02-08 10:06:54.850797+01 | 1486544814.8508 | pgbench_accounts_pkey |        112336896

 2017-02-08 10:06:55.962279+01 | 1486544815.96228 | pgbench_branches_pkey |            40960
 2017-02-08 10:06:55.962279+01 | 1486544815.96228 | pgbench_tellers_pkey  |           122880
 2017-02-08 10:06:55.962279+01 | 1486544815.96228 | pgbench_accounts_pkey |        112336896

 2017-02-08 10:06:57.060499+01 | 1486544817.0605 | pgbench_branches_pkey |            40960
 2017-02-08 10:06:57.060499+01 | 1486544817.0605 | pgbench_tellers_pkey  |           122880
 2017-02-08 10:06:57.060499+01 | 1486544817.0605 | pgbench_accounts_pkey |        112336896

 2017-02-08 10:06:58.154623+01 | 1486544818.15462 | pgbench_branches_pkey |            40960
 2017-02-08 10:06:58.154623+01 | 1486544818.15462 | pgbench_tellers_pkey  |           122880
 2017-02-08 10:06:58.154623+01 | 1486544818.15462 | pgbench_accounts_pkey |        112336896

 2017-02-08 10:06:59.254232+01 | 1486544819.25423 | pgbench_branches_pkey |            40960
 2017-02-08 10:06:59.254232+01 | 1486544819.25423 | pgbench_tellers_pkey  |           122880
 2017-02-08 10:06:59.254232+01 | 1486544819.25423 | pgbench_accounts_pkey |        112336896

 2017-02-08 10:07:00.392553+01 | 1486544820.39255 | pgbench_branches_pkey |            40960
 2017-02-08 10:07:00.392553+01 | 1486544820.39255 | pgbench_tellers_pkey  |           122880
 2017-02-08 10:07:00.392553+01 | 1486544820.39255 | pgbench_accounts_pkey |        112336896

 2017-02-08 10:07:01.515041+01 | 1486544821.51504 | pgbench_branches_pkey |            40960
 2017-02-08 10:07:01.515041+01 | 1486544821.51504 | pgbench_tellers_pkey  |           122880
 2017-02-08 10:07:01.515041+01 | 1486544821.51504 | pgbench_accounts_pkey |        112336896

 2017-02-08 10:07:02.625224+01 | 1486544822.62522 | pgbench_branches_pkey |            40960
 2017-02-08 10:07:02.625224+01 | 1486544822.62522 | pgbench_tellers_pkey  |           122880
 2017-02-08 10:07:02.625224+01 | 1486544822.62522 | pgbench_accounts_pkey |        112336896

 2017-02-08 10:07:03.722407+01 | 1486544823.72241 | pgbench_branches_pkey |            40960
 2017-02-08 10:07:03.722407+01 | 1486544823.72241 | pgbench_tellers_pkey  |           122880
 2017-02-08 10:07:03.722407+01 | 1486544823.72241 | pgbench_accounts_pkey |        112336896

 2017-02-08 10:07:04.828425+01 | 1486544824.82842 | pgbench_branches_pkey |            40960
 2017-02-08 10:07:04.828425+01 | 1486544824.82842 | pgbench_tellers_pkey  |           122880
 2017-02-08 10:07:04.828425+01 | 1486544824.82842 | pgbench_accounts_pkey |        112336896

 2017-02-08 10:07:05.976032+01 | 1486544825.97603 | pgbench_branches_pkey |            40960
 2017-02-08 10:07:05.976032+01 | 1486544825.97603 | pgbench_tellers_pkey  |           122880
 2017-02-08 10:07:05.976032+01 | 1486544825.97603 | pgbench_accounts_pkey |        112336896

 2017-02-08 10:07:07.075775+01 | 1486544827.07577 | pgbench_branches_pkey |            40960
 2017-02-08 10:07:07.075775+01 | 1486544827.07577 | pgbench_tellers_pkey  |           122880
 2017-02-08 10:07:07.075775+01 | 1486544827.07577 | pgbench_accounts_pkey |        112336896

 2017-02-08 10:07:08.180325+01 | 1486544828.18033 | pgbench_branches_pkey |            40960
 2017-02-08 10:07:08.180325+01 | 1486544828.18033 | pgbench_tellers_pkey  |           122880
 2017-02-08 10:07:08.180325+01 | 1486544828.18033 | pgbench_accounts_pkey |        112336896

 2017-02-08 10:07:09.283841+01 | 1486544829.28384 | pgbench_branches_pkey |            40960
 2017-02-08 10:07:09.283841+01 | 1486544829.28384 | pgbench_tellers_pkey  |           122880
 2017-02-08 10:07:09.283841+01 | 1486544829.28384 | pgbench_accounts_pkey |        112336896

 2017-02-08 10:07:10.403059+01 | 1486544830.40306 | pgbench_branches_pkey |            40960
 2017-02-08 10:07:10.403059+01 | 1486544830.40306 | pgbench_tellers_pkey  |           122880
 2017-02-08 10:07:10.403059+01 | 1486544830.40306 | pgbench_accounts_pkey |        112336896

 2017-02-08 10:07:11.520013+01 | 1486544831.52001 | pgbench_branches_pkey |            40960
 2017-02-08 10:07:11.520013+01 | 1486544831.52001 | pgbench_tellers_pkey  |           122880
 2017-02-08 10:07:11.520013+01 | 1486544831.52001 | pgbench_accounts_pkey |        112336896

 2017-02-08 10:07:12.657513+01 | 1486544832.65751 | pgbench_branches_pkey |            40960
 2017-02-08 10:07:12.657513+01 | 1486544832.65751 | pgbench_tellers_pkey  |           122880
 2017-02-08 10:07:12.657513+01 | 1486544832.65751 | pgbench_accounts_pkey |        112336896

 2017-02-08 10:07:13.791363+01 | 1486544833.79136 | pgbench_branches_pkey |            40960
 2017-02-08 10:07:13.791363+01 | 1486544833.79136 | pgbench_tellers_pkey  |           122880
 2017-02-08 10:07:13.791363+01 | 1486544833.79136 | pgbench_accounts_pkey |        112336896

 2017-02-08 10:07:14.891447+01 | 1486544834.89145 | pgbench_branches_pkey |            40960
 2017-02-08 10:07:14.891447+01 | 1486544834.89145 | pgbench_tellers_pkey  |           122880
 2017-02-08 10:07:14.891447+01 | 1486544834.89145 | pgbench_accounts_pkey |        112336896

 2017-02-08 10:07:16.032138+01 | 1486544836.03214 | pgbench_branches_pkey |            40960
 2017-02-08 10:07:16.032138+01 | 1486544836.03214 | pgbench_tellers_pkey  |           122880
 2017-02-08 10:07:16.032138+01 | 1486544836.03214 | pgbench_accounts_pkey |        112336896

 2017-02-08 10:07:17.1347+01 | 1486544837.1347 | pgbench_branches_pkey |            40960
 2017-02-08 10:07:17.1347+01 | 1486544837.1347 | pgbench_tellers_pkey  |           122880
 2017-02-08 10:07:17.1347+01 | 1486544837.1347 | pgbench_accounts_pkey |        112336896

 2017-02-08 10:07:18.225075+01 | 1486544838.22508 | pgbench_branches_pkey |            40960
 2017-02-08 10:07:18.225075+01 | 1486544838.22508 | pgbench_tellers_pkey  |           122880
 2017-02-08 10:07:18.225075+01 | 1486544838.22508 | pgbench_accounts_pkey |        112336896

 2017-02-08 10:07:19.32591+01 | 1486544839.32591 | pgbench_branches_pkey |            40960
 2017-02-08 10:07:19.32591+01 | 1486544839.32591 | pgbench_tellers_pkey  |           122880
 2017-02-08 10:07:19.32591+01 | 1486544839.32591 | pgbench_accounts_pkey |        112336896

 2017-02-08 10:07:20.429618+01 | 1486544840.42962 | pgbench_branches_pkey |            40960
 2017-02-08 10:07:20.429618+01 | 1486544840.42962 | pgbench_tellers_pkey  |           122880
 2017-02-08 10:07:20.429618+01 | 1486544840.42962 | pgbench_accounts_pkey |        112336896

 2017-02-08 10:07:21.560663+01 | 1486544841.56066 | pgbench_branches_pkey |            40960
 2017-02-08 10:07:21.560663+01 | 1486544841.56066 | pgbench_tellers_pkey  |           122880
 2017-02-08 10:07:21.560663+01 | 1486544841.56066 | pgbench_accounts_pkey |        112336896

 2017-02-08 10:07:22.645604+01 | 1486544842.6456 | pgbench_branches_pkey |            40960
 2017-02-08 10:07:22.645604+01 | 1486544842.6456 | pgbench_tellers_pkey  |           122880
 2017-02-08 10:07:22.645604+01 | 1486544842.6456 | pgbench_accounts_pkey |        112336896

 2017-02-08 10:07:23.768153+01 | 1486544843.76815 | pgbench_branches_pkey |            40960
 2017-02-08 10:07:23.768153+01 | 1486544843.76815 | pgbench_tellers_pkey  |           122880
 2017-02-08 10:07:23.768153+01 | 1486544843.76815 | pgbench_accounts_pkey |        112336896

 2017-02-08 10:07:24.883598+01 | 1486544844.8836 | pgbench_branches_pkey |            40960
 2017-02-08 10:07:24.883598+01 | 1486544844.8836 | pgbench_tellers_pkey  |           122880
 2017-02-08 10:07:24.883598+01 | 1486544844.8836 | pgbench_accounts_pkey |        112336896

 2017-02-08 10:07:25.971557+01 | 1486544845.97156 | pgbench_branches_pkey |            40960
 2017-02-08 10:07:25.971557+01 | 1486544845.97156 | pgbench_tellers_pkey  |           122880
 2017-02-08 10:07:25.971557+01 | 1486544845.97156 | pgbench_accounts_pkey |        112336896

 2017-02-08 10:07:27.095183+01 | 1486544847.09518 | pgbench_branches_pkey |            40960
 2017-02-08 10:07:27.095183+01 | 1486544847.09518 | pgbench_tellers_pkey  |           122880
 2017-02-08 10:07:27.095183+01 | 1486544847.09518 | pgbench_accounts_pkey |        112336896

 2017-02-08 10:07:28.179257+01 | 1486544848.17926 | pgbench_branches_pkey |            40960
 2017-02-08 10:07:28.179257+01 | 1486544848.17926 | pgbench_tellers_pkey  |           122880
 2017-02-08 10:07:28.179257+01 | 1486544848.17926 | pgbench_accounts_pkey |        112336896

 2017-02-08 10:07:29.276033+01 | 1486544849.27603 | pgbench_branches_pkey |            40960
 2017-02-08 10:07:29.276033+01 | 1486544849.27603 | pgbench_tellers_pkey  |           122880
 2017-02-08 10:07:29.276033+01 | 1486544849.27603 | pgbench_accounts_pkey |        112336896

 2017-02-08 10:07:30.370422+01 | 1486544850.37042 | pgbench_branches_pkey |            40960
 2017-02-08 10:07:30.370422+01 | 1486544850.37042 | pgbench_tellers_pkey  |           122880
 2017-02-08 10:07:30.370422+01 | 1486544850.37042 | pgbench_accounts_pkey |        112336896

 2017-02-08 10:07:31.487331+01 | 1486544851.48733 | pgbench_branches_pkey |            40960
 2017-02-08 10:07:31.487331+01 | 1486544851.48733 | pgbench_tellers_pkey  |           122880
 2017-02-08 10:07:31.487331+01 | 1486544851.48733 | pgbench_accounts_pkey |        112336896

 2017-02-08 10:07:32.584377+01 | 1486544852.58438 | pgbench_branches_pkey |            40960
 2017-02-08 10:07:32.584377+01 | 1486544852.58438 | pgbench_tellers_pkey  |           122880
 2017-02-08 10:07:32.584377+01 | 1486544852.58438 | pgbench_accounts_pkey |        112336896

 2017-02-08 10:07:33.713845+01 | 1486544853.71385 | pgbench_branches_pkey |            40960
 2017-02-08 10:07:33.713845+01 | 1486544853.71385 | pgbench_tellers_pkey  |           122880
 2017-02-08 10:07:33.713845+01 | 1486544853.71385 | pgbench_accounts_pkey |        112336896

 2017-02-08 10:07:34.802524+01 | 1486544854.80252 | pgbench_branches_pkey |            40960
 2017-02-08 10:07:34.802524+01 | 1486544854.80252 | pgbench_tellers_pkey  |           122880
 2017-02-08 10:07:34.802524+01 | 1486544854.80252 | pgbench_accounts_pkey |        112336896

 2017-02-08 10:07:35.874737+01 | 1486544855.87474 | pgbench_branches_pkey |            40960
 2017-02-08 10:07:35.874737+01 | 1486544855.87474 | pgbench_tellers_pkey  |           122880
 2017-02-08 10:07:35.874737+01 | 1486544855.87474 | pgbench_accounts_pkey |        112336896

 2017-02-08 10:07:36.985914+01 | 1486544856.98591 | pgbench_branches_pkey |            40960
 2017-02-08 10:07:36.985914+01 | 1486544856.98591 | pgbench_tellers_pkey  |           122880
 2017-02-08 10:07:36.985914+01 | 1486544856.98591 | pgbench_accounts_pkey |        112336896

 2017-02-08 10:07:38.089875+01 | 1486544858.08987 | pgbench_branches_pkey |            40960
 2017-02-08 10:07:38.089875+01 | 1486544858.08987 | pgbench_tellers_pkey  |           122880
 2017-02-08 10:07:38.089875+01 | 1486544858.08987 | pgbench_accounts_pkey |        112336896

 2017-02-08 10:07:39.197129+01 | 1486544859.19713 | pgbench_branches_pkey |            40960
 2017-02-08 10:07:39.197129+01 | 1486544859.19713 | pgbench_tellers_pkey  |           122880
 2017-02-08 10:07:39.197129+01 | 1486544859.19713 | pgbench_accounts_pkey |        112336896

 2017-02-08 10:07:40.286657+01 | 1486544860.28666 | pgbench_branches_pkey |            40960
 2017-02-08 10:07:40.286657+01 | 1486544860.28666 | pgbench_tellers_pkey  |           122880
 2017-02-08 10:07:40.286657+01 | 1486544860.28666 | pgbench_accounts_pkey |        112336896

 2017-02-08 10:07:41.374542+01 | 1486544861.37454 | pgbench_branches_pkey |            40960
 2017-02-08 10:07:41.374542+01 | 1486544861.37454 | pgbench_tellers_pkey  |           122880
 2017-02-08 10:07:41.374542+01 | 1486544861.37454 | pgbench_accounts_pkey |        112336896

 2017-02-08 10:07:42.455658+01 | 1486544862.45566 | pgbench_branches_pkey |            40960
 2017-02-08 10:07:42.455658+01 | 1486544862.45566 | pgbench_tellers_pkey  |           122880
 2017-02-08 10:07:42.455658+01 | 1486544862.45566 | pgbench_accounts_pkey |        112336896

 2017-02-08 10:07:43.587381+01 | 1486544863.58738 | pgbench_branches_pkey |            40960
 2017-02-08 10:07:43.587381+01 | 1486544863.58738 | pgbench_tellers_pkey  |           122880
 2017-02-08 10:07:43.587381+01 | 1486544863.58738 | pgbench_accounts_pkey |        112336896

 2017-02-08 10:07:44.676821+01 | 1486544864.67682 | pgbench_branches_pkey |            40960
 2017-02-08 10:07:44.676821+01 | 1486544864.67682 | pgbench_tellers_pkey  |           122880
 2017-02-08 10:07:44.676821+01 | 1486544864.67682 | pgbench_accounts_pkey |        112336896

 2017-02-08 10:07:45.762215+01 | 1486544865.76221 | pgbench_branches_pkey |            40960
 2017-02-08 10:07:45.762215+01 | 1486544865.76221 | pgbench_tellers_pkey  |           122880
 2017-02-08 10:07:45.762215+01 | 1486544865.76221 | pgbench_accounts_pkey |        112336896

 2017-02-08 10:07:46.877414+01 | 1486544866.87741 | pgbench_branches_pkey |            40960
 2017-02-08 10:07:46.877414+01 | 1486544866.87741 | pgbench_tellers_pkey  |           122880
 2017-02-08 10:07:46.877414+01 | 1486544866.87741 | pgbench_accounts_pkey |        112336896

 2017-02-08 10:07:47.971909+01 | 1486544867.97191 | pgbench_branches_pkey |            40960
 2017-02-08 10:07:47.971909+01 | 1486544867.97191 | pgbench_tellers_pkey  |           122880
 2017-02-08 10:07:47.971909+01 | 1486544867.97191 | pgbench_accounts_pkey |        112336896

 2017-02-08 10:07:49.12355+01 | 1486544869.12355 | pgbench_branches_pkey |            40960
 2017-02-08 10:07:49.12355+01 | 1486544869.12355 | pgbench_tellers_pkey  |           122880
 2017-02-08 10:07:49.12355+01 | 1486544869.12355 | pgbench_accounts_pkey |        112336896

 2017-02-08 10:07:50.239849+01 | 1486544870.23985 | pgbench_branches_pkey |            40960
 2017-02-08 10:07:50.239849+01 | 1486544870.23985 | pgbench_tellers_pkey  |           122880
 2017-02-08 10:07:50.239849+01 | 1486544870.23985 | pgbench_accounts_pkey |        112336896

 2017-02-08 10:07:51.362892+01 | 1486544871.36289 | pgbench_branches_pkey |            40960
 2017-02-08 10:07:51.362892+01 | 1486544871.36289 | pgbench_tellers_pkey  |           122880
 2017-02-08 10:07:51.362892+01 | 1486544871.36289 | pgbench_accounts_pkey |        112336896

 2017-02-08 10:07:52.480554+01 | 1486544872.48055 | pgbench_branches_pkey |            40960
 2017-02-08 10:07:52.480554+01 | 1486544872.48055 | pgbench_tellers_pkey  |           122880
 2017-02-08 10:07:52.480554+01 | 1486544872.48055 | pgbench_accounts_pkey |        112336896

 2017-02-08 10:07:53.598383+01 | 1486544873.59838 | pgbench_branches_pkey |            40960
 2017-02-08 10:07:53.598383+01 | 1486544873.59838 | pgbench_tellers_pkey  |           122880
 2017-02-08 10:07:53.598383+01 | 1486544873.59838 | pgbench_accounts_pkey |        112336896

 2017-02-08 10:07:54.732876+01 | 1486544874.73288 | pgbench_branches_pkey |            40960
 2017-02-08 10:07:54.732876+01 | 1486544874.73288 | pgbench_tellers_pkey  |           122880
 2017-02-08 10:07:54.732876+01 | 1486544874.73288 | pgbench_accounts_pkey |        112336896

 2017-02-08 10:07:55.842482+01 | 1486544875.84248 | pgbench_branches_pkey |            40960
 2017-02-08 10:07:55.842482+01 | 1486544875.84248 | pgbench_tellers_pkey  |           122880
 2017-02-08 10:07:55.842482+01 | 1486544875.84248 | pgbench_accounts_pkey |        112336896

 2017-02-08 10:07:56.966055+01 | 1486544876.96605 | pgbench_branches_pkey |            40960
 2017-02-08 10:07:56.966055+01 | 1486544876.96605 | pgbench_tellers_pkey  |           122880
 2017-02-08 10:07:56.966055+01 | 1486544876.96605 | pgbench_accounts_pkey |        112336896

 2017-02-08 10:07:58.080144+01 | 1486544878.08014 | pgbench_branches_pkey |            40960
 2017-02-08 10:07:58.080144+01 | 1486544878.08014 | pgbench_tellers_pkey  |           122880
 2017-02-08 10:07:58.080144+01 | 1486544878.08014 | pgbench_accounts_pkey |        112336896

 2017-02-08 10:07:59.188583+01 | 1486544879.18858 | pgbench_branches_pkey |            40960
 2017-02-08 10:07:59.188583+01 | 1486544879.18858 | pgbench_tellers_pkey  |           122880
 2017-02-08 10:07:59.188583+01 | 1486544879.18858 | pgbench_accounts_pkey |        112336896

 2017-02-08 10:08:00.2902+01 | 1486544880.2902 | pgbench_branches_pkey |            40960
 2017-02-08 10:08:00.2902+01 | 1486544880.2902 | pgbench_tellers_pkey  |           122880
 2017-02-08 10:08:00.2902+01 | 1486544880.2902 | pgbench_accounts_pkey |        112336896

 2017-02-08 10:08:01.396971+01 | 1486544881.39697 | pgbench_branches_pkey |            40960
 2017-02-08 10:08:01.396971+01 | 1486544881.39697 | pgbench_tellers_pkey  |           122880
 2017-02-08 10:08:01.396971+01 | 1486544881.39697 | pgbench_accounts_pkey |        112336896

 2017-02-08 10:08:02.51578+01 | 1486544882.51578 | pgbench_branches_pkey |            40960
 2017-02-08 10:08:02.51578+01 | 1486544882.51578 | pgbench_tellers_pkey  |           122880
 2017-02-08 10:08:02.51578+01 | 1486544882.51578 | pgbench_accounts_pkey |        112336896

 2017-02-08 10:08:03.635554+01 | 1486544883.63555 | pgbench_branches_pkey |            40960
 2017-02-08 10:08:03.635554+01 | 1486544883.63555 | pgbench_tellers_pkey  |           122880
 2017-02-08 10:08:03.635554+01 | 1486544883.63555 | pgbench_accounts_pkey |        112336896

 2017-02-08 10:08:04.751355+01 | 1486544884.75135 | pgbench_branches_pkey |            40960
 2017-02-08 10:08:04.751355+01 | 1486544884.75135 | pgbench_tellers_pkey  |           122880
 2017-02-08 10:08:04.751355+01 | 1486544884.75135 | pgbench_accounts_pkey |        112336896

 2017-02-08 10:08:05.859982+01 | 1486544885.85998 | pgbench_branches_pkey |            40960
 2017-02-08 10:08:05.859982+01 | 1486544885.85998 | pgbench_tellers_pkey  |           122880
 2017-02-08 10:08:05.859982+01 | 1486544885.85998 | pgbench_accounts_pkey |        112336896

 2017-02-08 10:08:06.969583+01 | 1486544886.96958 | pgbench_branches_pkey |            40960
 2017-02-08 10:08:06.969583+01 | 1486544886.96958 | pgbench_tellers_pkey  |           122880
 2017-02-08 10:08:06.969583+01 | 1486544886.96958 | pgbench_accounts_pkey |        112336896

 2017-02-08 10:08:08.088965+01 | 1486544888.08896 | pgbench_branches_pkey |            40960
 2017-02-08 10:08:08.088965+01 | 1486544888.08896 | pgbench_tellers_pkey  |           122880
 2017-02-08 10:08:08.088965+01 | 1486544888.08896 | pgbench_accounts_pkey |        112336896

 2017-02-08 10:08:09.179663+01 | 1486544889.17966 | pgbench_branches_pkey |            40960
 2017-02-08 10:08:09.179663+01 | 1486544889.17966 | pgbench_tellers_pkey  |           122880
 2017-02-08 10:08:09.179663+01 | 1486544889.17966 | pgbench_accounts_pkey |        112336896

 2017-02-08 10:08:10.297992+01 | 1486544890.29799 | pgbench_branches_pkey |            40960
 2017-02-08 10:08:10.297992+01 | 1486544890.29799 | pgbench_tellers_pkey  |           122880
 2017-02-08 10:08:10.297992+01 | 1486544890.29799 | pgbench_accounts_pkey |        112336896

 2017-02-08 10:08:11.399275+01 | 1486544891.39928 | pgbench_branches_pkey |            40960
 2017-02-08 10:08:11.399275+01 | 1486544891.39928 | pgbench_tellers_pkey  |           122880
 2017-02-08 10:08:11.399275+01 | 1486544891.39928 | pgbench_accounts_pkey |        112336896

 2017-02-08 10:08:12.542568+01 | 1486544892.54257 | pgbench_branches_pkey |            40960
 2017-02-08 10:08:12.542568+01 | 1486544892.54257 | pgbench_tellers_pkey  |           122880
 2017-02-08 10:08:12.542568+01 | 1486544892.54257 | pgbench_accounts_pkey |        112336896

 2017-02-08 10:08:13.655423+01 | 1486544893.65542 | pgbench_branches_pkey |            40960
 2017-02-08 10:08:13.655423+01 | 1486544893.65542 | pgbench_tellers_pkey  |           122880
 2017-02-08 10:08:13.655423+01 | 1486544893.65542 | pgbench_accounts_pkey |        112336896

 2017-02-08 10:08:14.791399+01 | 1486544894.7914 | pgbench_branches_pkey |            40960
 2017-02-08 10:08:14.791399+01 | 1486544894.7914 | pgbench_tellers_pkey  |           122880
 2017-02-08 10:08:14.791399+01 | 1486544894.7914 | pgbench_accounts_pkey |        112336896

 2017-02-08 10:08:15.887372+01 | 1486544895.88737 | pgbench_branches_pkey |            40960
 2017-02-08 10:08:15.887372+01 | 1486544895.88737 | pgbench_tellers_pkey  |           122880
 2017-02-08 10:08:15.887372+01 | 1486544895.88737 | pgbench_accounts_pkey |        112336896

 2017-02-08 10:08:16.972882+01 | 1486544896.97288 | pgbench_branches_pkey |            40960
 2017-02-08 10:08:16.972882+01 | 1486544896.97288 | pgbench_tellers_pkey  |           122880
 2017-02-08 10:08:16.972882+01 | 1486544896.97288 | pgbench_accounts_pkey |        112336896

 2017-02-08 10:08:18.102559+01 | 1486544898.10256 | pgbench_branches_pkey |            40960
 2017-02-08 10:08:18.102559+01 | 1486544898.10256 | pgbench_tellers_pkey  |           122880
 2017-02-08 10:08:18.102559+01 | 1486544898.10256 | pgbench_accounts_pkey |        112336896

 2017-02-08 10:08:19.190823+01 | 1486544899.19082 | pgbench_branches_pkey |            40960
 2017-02-08 10:08:19.190823+01 | 1486544899.19082 | pgbench_tellers_pkey  |           122880
 2017-02-08 10:08:19.190823+01 | 1486544899.19082 | pgbench_accounts_pkey |        112336896

 2017-02-08 10:08:20.279311+01 | 1486544900.27931 | pgbench_branches_pkey |            40960
 2017-02-08 10:08:20.279311+01 | 1486544900.27931 | pgbench_tellers_pkey  |           122880
 2017-02-08 10:08:20.279311+01 | 1486544900.27931 | pgbench_accounts_pkey |        112336896

 2017-02-08 10:08:21.389754+01 | 1486544901.38975 | pgbench_branches_pkey |            40960
 2017-02-08 10:08:21.389754+01 | 1486544901.38975 | pgbench_tellers_pkey  |           122880
 2017-02-08 10:08:21.389754+01 | 1486544901.38975 | pgbench_accounts_pkey |        112336896

 2017-02-08 10:08:22.468298+01 | 1486544902.4683 | pgbench_branches_pkey |            40960
 2017-02-08 10:08:22.468298+01 | 1486544902.4683 | pgbench_tellers_pkey  |           122880
 2017-02-08 10:08:22.468298+01 | 1486544902.4683 | pgbench_accounts_pkey |        112336896

 2017-02-08 10:08:23.545806+01 | 1486544903.54581 | pgbench_branches_pkey |            40960
 2017-02-08 10:08:23.545806+01 | 1486544903.54581 | pgbench_tellers_pkey  |           122880
 2017-02-08 10:08:23.545806+01 | 1486544903.54581 | pgbench_accounts_pkey |        112336896

 2017-02-08 10:08:24.661184+01 | 1486544904.66118 | pgbench_branches_pkey |            40960
 2017-02-08 10:08:24.661184+01 | 1486544904.66118 | pgbench_tellers_pkey  |           122880
 2017-02-08 10:08:24.661184+01 | 1486544904.66118 | pgbench_accounts_pkey |        112336896

 2017-02-08 10:08:25.779234+01 | 1486544905.77923 | pgbench_branches_pkey |            40960
 2017-02-08 10:08:25.779234+01 | 1486544905.77923 | pgbench_tellers_pkey  |           122880
 2017-02-08 10:08:25.779234+01 | 1486544905.77923 | pgbench_accounts_pkey |        112336896

 2017-02-08 10:08:26.872776+01 | 1486544906.87278 | pgbench_branches_pkey |            40960
 2017-02-08 10:08:26.872776+01 | 1486544906.87278 | pgbench_tellers_pkey  |           122880
 2017-02-08 10:08:26.872776+01 | 1486544906.87278 | pgbench_accounts_pkey |        112336896

 2017-02-08 10:08:28.019784+01 | 1486544908.01978 | pgbench_branches_pkey |            40960
 2017-02-08 10:08:28.019784+01 | 1486544908.01978 | pgbench_tellers_pkey  |           122880
 2017-02-08 10:08:28.019784+01 | 1486544908.01978 | pgbench_accounts_pkey |        112336896

 2017-02-08 10:08:29.13725+01 | 1486544909.13725 | pgbench_branches_pkey |            40960
 2017-02-08 10:08:29.13725+01 | 1486544909.13725 | pgbench_tellers_pkey  |           122880
 2017-02-08 10:08:29.13725+01 | 1486544909.13725 | pgbench_accounts_pkey |        112336896

 2017-02-08 10:08:30.242324+01 | 1486544910.24232 | pgbench_branches_pkey |            40960
 2017-02-08 10:08:30.242324+01 | 1486544910.24232 | pgbench_tellers_pkey  |           122880
 2017-02-08 10:08:30.242324+01 | 1486544910.24232 | pgbench_accounts_pkey |        112336896

 2017-02-08 10:08:31.348528+01 | 1486544911.34853 | pgbench_branches_pkey |            40960
 2017-02-08 10:08:31.348528+01 | 1486544911.34853 | pgbench_tellers_pkey  |           122880
 2017-02-08 10:08:31.348528+01 | 1486544911.34853 | pgbench_accounts_pkey |        112336896

 2017-02-08 10:08:32.458721+01 | 1486544912.45872 | pgbench_branches_pkey |            40960
 2017-02-08 10:08:32.458721+01 | 1486544912.45872 | pgbench_tellers_pkey  |           122880
 2017-02-08 10:08:32.458721+01 | 1486544912.45872 | pgbench_accounts_pkey |        112336896

 2017-02-08 10:08:33.578789+01 | 1486544913.57879 | pgbench_branches_pkey |            40960
 2017-02-08 10:08:33.578789+01 | 1486544913.57879 | pgbench_tellers_pkey  |           122880
 2017-02-08 10:08:33.578789+01 | 1486544913.57879 | pgbench_accounts_pkey |        112336896

 2017-02-08 10:08:34.694028+01 | 1486544914.69403 | pgbench_branches_pkey |            40960
 2017-02-08 10:08:34.694028+01 | 1486544914.69403 | pgbench_tellers_pkey  |           122880
 2017-02-08 10:08:34.694028+01 | 1486544914.69403 | pgbench_accounts_pkey |        112336896

 2017-02-08 10:08:35.803996+01 | 1486544915.804 | pgbench_branches_pkey |            40960
 2017-02-08 10:08:35.803996+01 | 1486544915.804 | pgbench_tellers_pkey  |           122880
 2017-02-08 10:08:35.803996+01 | 1486544915.804 | pgbench_accounts_pkey |        112336896

 2017-02-08 10:08:36.914922+01 | 1486544916.91492 | pgbench_branches_pkey |            40960
 2017-02-08 10:08:36.914922+01 | 1486544916.91492 | pgbench_tellers_pkey  |           122880
 2017-02-08 10:08:36.914922+01 | 1486544916.91492 | pgbench_accounts_pkey |        112336896

 2017-02-08 10:08:37.999241+01 | 1486544917.99924 | pgbench_branches_pkey |            40960
 2017-02-08 10:08:37.999241+01 | 1486544917.99924 | pgbench_tellers_pkey  |           122880
 2017-02-08 10:08:37.999241+01 | 1486544917.99924 | pgbench_accounts_pkey |        112336896

 2017-02-08 10:08:39.124135+01 | 1486544919.12414 | pgbench_branches_pkey |            40960
 2017-02-08 10:08:39.124135+01 | 1486544919.12414 | pgbench_tellers_pkey  |           122880
 2017-02-08 10:08:39.124135+01 | 1486544919.12414 | pgbench_accounts_pkey |        112336896

 2017-02-08 10:08:40.255046+01 | 1486544920.25505 | pgbench_branches_pkey |            40960
 2017-02-08 10:08:40.255046+01 | 1486544920.25505 | pgbench_tellers_pkey  |           122880
 2017-02-08 10:08:40.255046+01 | 1486544920.25505 | pgbench_accounts_pkey |        112336896

 2017-02-08 10:08:41.372301+01 | 1486544921.3723 | pgbench_branches_pkey |            40960
 2017-02-08 10:08:41.372301+01 | 1486544921.3723 | pgbench_tellers_pkey  |           122880
 2017-02-08 10:08:41.372301+01 | 1486544921.3723 | pgbench_accounts_pkey |        112336896

 2017-02-08 10:08:42.471935+01 | 1486544922.47194 | pgbench_branches_pkey |            40960
 2017-02-08 10:08:42.471935+01 | 1486544922.47194 | pgbench_tellers_pkey  |           122880
 2017-02-08 10:08:42.471935+01 | 1486544922.47194 | pgbench_accounts_pkey |        112336896

 2017-02-08 10:08:43.607069+01 | 1486544923.60707 | pgbench_branches_pkey |            40960
 2017-02-08 10:08:43.607069+01 | 1486544923.60707 | pgbench_tellers_pkey  |           122880
 2017-02-08 10:08:43.607069+01 | 1486544923.60707 | pgbench_accounts_pkey |        112336896

 2017-02-08 10:08:44.709557+01 | 1486544924.70956 | pgbench_branches_pkey |            40960
 2017-02-08 10:08:44.709557+01 | 1486544924.70956 | pgbench_tellers_pkey  |           122880
 2017-02-08 10:08:44.709557+01 | 1486544924.70956 | pgbench_accounts_pkey |        112336896

 2017-02-08 10:08:45.847283+01 | 1486544925.84728 | pgbench_branches_pkey |            40960
 2017-02-08 10:08:45.847283+01 | 1486544925.84728 | pgbench_tellers_pkey  |           122880
 2017-02-08 10:08:45.847283+01 | 1486544925.84728 | pgbench_accounts_pkey |        112336896

 2017-02-08 10:08:46.98808+01 | 1486544926.98808 | pgbench_branches_pkey |            40960
 2017-02-08 10:08:46.98808+01 | 1486544926.98808 | pgbench_tellers_pkey  |           122880
 2017-02-08 10:08:46.98808+01 | 1486544926.98808 | pgbench_accounts_pkey |        112336896

 2017-02-08 10:08:48.076335+01 | 1486544928.07633 | pgbench_branches_pkey |            40960
 2017-02-08 10:08:48.076335+01 | 1486544928.07633 | pgbench_tellers_pkey  |           122880
 2017-02-08 10:08:48.076335+01 | 1486544928.07633 | pgbench_accounts_pkey |        112336896

 2017-02-08 10:08:49.178478+01 | 1486544929.17848 | pgbench_branches_pkey |            40960
 2017-02-08 10:08:49.178478+01 | 1486544929.17848 | pgbench_tellers_pkey  |           122880
 2017-02-08 10:08:49.178478+01 | 1486544929.17848 | pgbench_accounts_pkey |        112336896

 2017-02-08 10:08:50.290326+01 | 1486544930.29033 | pgbench_branches_pkey |            40960
 2017-02-08 10:08:50.290326+01 | 1486544930.29033 | pgbench_tellers_pkey  |           122880
 2017-02-08 10:08:50.290326+01 | 1486544930.29033 | pgbench_accounts_pkey |        112336896

 2017-02-08 10:08:51.43426+01 | 1486544931.43426 | pgbench_branches_pkey |            40960
 2017-02-08 10:08:51.43426+01 | 1486544931.43426 | pgbench_tellers_pkey  |           122880
 2017-02-08 10:08:51.43426+01 | 1486544931.43426 | pgbench_accounts_pkey |        112336896

 2017-02-08 10:08:52.521381+01 | 1486544932.52138 | pgbench_branches_pkey |            40960
 2017-02-08 10:08:52.521381+01 | 1486544932.52138 | pgbench_tellers_pkey  |           122880
 2017-02-08 10:08:52.521381+01 | 1486544932.52138 | pgbench_accounts_pkey |        112336896

 2017-02-08 10:08:53.623451+01 | 1486544933.62345 | pgbench_branches_pkey |            40960
 2017-02-08 10:08:53.623451+01 | 1486544933.62345 | pgbench_tellers_pkey  |           122880
 2017-02-08 10:08:53.623451+01 | 1486544933.62345 | pgbench_accounts_pkey |        112336896

 2017-02-08 10:08:54.729724+01 | 1486544934.72972 | pgbench_branches_pkey |            40960
 2017-02-08 10:08:54.729724+01 | 1486544934.72972 | pgbench_tellers_pkey  |           122880
 2017-02-08 10:08:54.729724+01 | 1486544934.72972 | pgbench_accounts_pkey |        112336896

 2017-02-08 10:08:55.810902+01 | 1486544935.8109 | pgbench_branches_pkey |            40960
 2017-02-08 10:08:55.810902+01 | 1486544935.8109 | pgbench_tellers_pkey  |           122880
 2017-02-08 10:08:55.810902+01 | 1486544935.8109 | pgbench_accounts_pkey |        112336896

 2017-02-08 10:08:56.904306+01 | 1486544936.90431 | pgbench_branches_pkey |            40960
 2017-02-08 10:08:56.904306+01 | 1486544936.90431 | pgbench_tellers_pkey  |           122880
 2017-02-08 10:08:56.904306+01 | 1486544936.90431 | pgbench_accounts_pkey |        112336896

 2017-02-08 10:08:58.012222+01 | 1486544938.01222 | pgbench_branches_pkey |            40960
 2017-02-08 10:08:58.012222+01 | 1486544938.01222 | pgbench_tellers_pkey  |           122880
 2017-02-08 10:08:58.012222+01 | 1486544938.01222 | pgbench_accounts_pkey |        112336896

 2017-02-08 10:08:59.112685+01 | 1486544939.11268 | pgbench_branches_pkey |            40960
 2017-02-08 10:08:59.112685+01 | 1486544939.11268 | pgbench_tellers_pkey  |           122880
 2017-02-08 10:08:59.112685+01 | 1486544939.11268 | pgbench_accounts_pkey |        112336896

 2017-02-08 10:09:00.23172+01 | 1486544940.23172 | pgbench_branches_pkey |            40960
 2017-02-08 10:09:00.23172+01 | 1486544940.23172 | pgbench_tellers_pkey  |           122880
 2017-02-08 10:09:00.23172+01 | 1486544940.23172 | pgbench_accounts_pkey |        112336896

 2017-02-08 10:09:01.328486+01 | 1486544941.32849 | pgbench_branches_pkey |            40960
 2017-02-08 10:09:01.328486+01 | 1486544941.32849 | pgbench_tellers_pkey  |           122880
 2017-02-08 10:09:01.328486+01 | 1486544941.32849 | pgbench_accounts_pkey |        112336896

 2017-02-08 10:09:02.441493+01 | 1486544942.44149 | pgbench_branches_pkey |            40960
 2017-02-08 10:09:02.441493+01 | 1486544942.44149 | pgbench_tellers_pkey  |           122880
 2017-02-08 10:09:02.441493+01 | 1486544942.44149 | pgbench_accounts_pkey |        112336896

 2017-02-08 10:09:03.53392+01 | 1486544943.53392 | pgbench_branches_pkey |            40960
 2017-02-08 10:09:03.53392+01 | 1486544943.53392 | pgbench_tellers_pkey  |           122880
 2017-02-08 10:09:03.53392+01 | 1486544943.53392 | pgbench_accounts_pkey |        112336896

 2017-02-08 10:09:04.639353+01 | 1486544944.63935 | pgbench_branches_pkey |            40960
 2017-02-08 10:09:04.639353+01 | 1486544944.63935 | pgbench_tellers_pkey  |           122880
 2017-02-08 10:09:04.639353+01 | 1486544944.63935 | pgbench_accounts_pkey |        112336896

 2017-02-08 10:09:05.775784+01 | 1486544945.77578 | pgbench_branches_pkey |            40960
 2017-02-08 10:09:05.775784+01 | 1486544945.77578 | pgbench_tellers_pkey  |           122880
 2017-02-08 10:09:05.775784+01 | 1486544945.77578 | pgbench_accounts_pkey |        112336896

 2017-02-08 10:09:06.892283+01 | 1486544946.89228 | pgbench_branches_pkey |            40960
 2017-02-08 10:09:06.892283+01 | 1486544946.89228 | pgbench_tellers_pkey  |           122880
 2017-02-08 10:09:06.892283+01 | 1486544946.89228 | pgbench_accounts_pkey |        112336896

 2017-02-08 10:09:07.993838+01 | 1486544947.99384 | pgbench_branches_pkey |            40960
 2017-02-08 10:09:07.993838+01 | 1486544947.99384 | pgbench_tellers_pkey  |           122880
 2017-02-08 10:09:07.993838+01 | 1486544947.99384 | pgbench_accounts_pkey |        112336896

 2017-02-08 10:09:09.081092+01 | 1486544949.08109 | pgbench_branches_pkey |            40960
 2017-02-08 10:09:09.081092+01 | 1486544949.08109 | pgbench_tellers_pkey  |           122880
 2017-02-08 10:09:09.081092+01 | 1486544949.08109 | pgbench_accounts_pkey |        112336896

 2017-02-08 10:09:10.222734+01 | 1486544950.22273 | pgbench_branches_pkey |            40960
 2017-02-08 10:09:10.222734+01 | 1486544950.22273 | pgbench_tellers_pkey  |           122880
 2017-02-08 10:09:10.222734+01 | 1486544950.22273 | pgbench_accounts_pkey |        112336896

 2017-02-08 10:09:11.357251+01 | 1486544951.35725 | pgbench_branches_pkey |            40960
 2017-02-08 10:09:11.357251+01 | 1486544951.35725 | pgbench_tellers_pkey  |           122880
 2017-02-08 10:09:11.357251+01 | 1486544951.35725 | pgbench_accounts_pkey |        112336896

 2017-02-08 10:09:12.483907+01 | 1486544952.48391 | pgbench_branches_pkey |            40960
 2017-02-08 10:09:12.483907+01 | 1486544952.48391 | pgbench_tellers_pkey  |           122880
 2017-02-08 10:09:12.483907+01 | 1486544952.48391 | pgbench_accounts_pkey |        112336896

 2017-02-08 10:09:13.59857+01 | 1486544953.59857 | pgbench_branches_pkey |            40960
 2017-02-08 10:09:13.59857+01 | 1486544953.59857 | pgbench_tellers_pkey  |           122880
 2017-02-08 10:09:13.59857+01 | 1486544953.59857 | pgbench_accounts_pkey |        112336896

 2017-02-08 10:09:14.728366+01 | 1486544954.72837 | pgbench_branches_pkey |            40960
 2017-02-08 10:09:14.728366+01 | 1486544954.72837 | pgbench_tellers_pkey  |           122880
 2017-02-08 10:09:14.728366+01 | 1486544954.72837 | pgbench_accounts_pkey |        112336896

 2017-02-08 10:09:15.8447+01 | 1486544955.8447 | pgbench_branches_pkey |            40960
 2017-02-08 10:09:15.8447+01 | 1486544955.8447 | pgbench_tellers_pkey  |           122880
 2017-02-08 10:09:15.8447+01 | 1486544955.8447 | pgbench_accounts_pkey |        112336896

 2017-02-08 10:09:16.943893+01 | 1486544956.94389 | pgbench_branches_pkey |            40960
 2017-02-08 10:09:16.943893+01 | 1486544956.94389 | pgbench_tellers_pkey  |           122880
 2017-02-08 10:09:16.943893+01 | 1486544956.94389 | pgbench_accounts_pkey |        112336896

 2017-02-08 10:09:18.059593+01 | 1486544958.05959 | pgbench_branches_pkey |            40960
 2017-02-08 10:09:18.059593+01 | 1486544958.05959 | pgbench_tellers_pkey  |           122880
 2017-02-08 10:09:18.059593+01 | 1486544958.05959 | pgbench_accounts_pkey |        112336896

 2017-02-08 10:09:19.159651+01 | 1486544959.15965 | pgbench_branches_pkey |            40960
 2017-02-08 10:09:19.159651+01 | 1486544959.15965 | pgbench_tellers_pkey  |           122880
 2017-02-08 10:09:19.159651+01 | 1486544959.15965 | pgbench_accounts_pkey |        112336896

 2017-02-08 10:09:20.246339+01 | 1486544960.24634 | pgbench_branches_pkey |            40960
 2017-02-08 10:09:20.246339+01 | 1486544960.24634 | pgbench_tellers_pkey  |           122880
 2017-02-08 10:09:20.246339+01 | 1486544960.24634 | pgbench_accounts_pkey |        112336896

 2017-02-08 10:09:21.362882+01 | 1486544961.36288 | pgbench_branches_pkey |            40960
 2017-02-08 10:09:21.362882+01 | 1486544961.36288 | pgbench_tellers_pkey  |           122880
 2017-02-08 10:09:21.362882+01 | 1486544961.36288 | pgbench_accounts_pkey |        112336896

 2017-02-08 10:09:22.500562+01 | 1486544962.50056 | pgbench_branches_pkey |            40960
 2017-02-08 10:09:22.500562+01 | 1486544962.50056 | pgbench_tellers_pkey  |           122880
 2017-02-08 10:09:22.500562+01 | 1486544962.50056 | pgbench_accounts_pkey |        112336896

 2017-02-08 10:09:23.575692+01 | 1486544963.57569 | pgbench_branches_pkey |            40960
 2017-02-08 10:09:23.575692+01 | 1486544963.57569 | pgbench_tellers_pkey  |           122880
 2017-02-08 10:09:23.575692+01 | 1486544963.57569 | pgbench_accounts_pkey |        112336896

 2017-02-08 10:09:24.676137+01 | 1486544964.67614 | pgbench_branches_pkey |            40960
 2017-02-08 10:09:24.676137+01 | 1486544964.67614 | pgbench_tellers_pkey  |           122880
 2017-02-08 10:09:24.676137+01 | 1486544964.67614 | pgbench_accounts_pkey |        112336896

 2017-02-08 10:09:25.747283+01 | 1486544965.74728 | pgbench_branches_pkey |            40960
 2017-02-08 10:09:25.747283+01 | 1486544965.74728 | pgbench_tellers_pkey  |           122880
 2017-02-08 10:09:25.747283+01 | 1486544965.74728 | pgbench_accounts_pkey |        112336896

 2017-02-08 10:09:26.831392+01 | 1486544966.83139 | pgbench_branches_pkey |            40960
 2017-02-08 10:09:26.831392+01 | 1486544966.83139 | pgbench_tellers_pkey  |           122880
 2017-02-08 10:09:26.831392+01 | 1486544966.83139 | pgbench_accounts_pkey |        112336896

 2017-02-08 10:09:27.956878+01 | 1486544967.95688 | pgbench_branches_pkey |            40960
 2017-02-08 10:09:27.956878+01 | 1486544967.95688 | pgbench_tellers_pkey  |           122880
 2017-02-08 10:09:27.956878+01 | 1486544967.95688 | pgbench_accounts_pkey |        112336896

 2017-02-08 10:09:29.062665+01 | 1486544969.06266 | pgbench_branches_pkey |            40960
 2017-02-08 10:09:29.062665+01 | 1486544969.06266 | pgbench_tellers_pkey  |           122880
 2017-02-08 10:09:29.062665+01 | 1486544969.06266 | pgbench_accounts_pkey |        112336896

 2017-02-08 10:09:30.13774+01 | 1486544970.13774 | pgbench_branches_pkey |            40960
 2017-02-08 10:09:30.13774+01 | 1486544970.13774 | pgbench_tellers_pkey  |           122880
 2017-02-08 10:09:30.13774+01 | 1486544970.13774 | pgbench_accounts_pkey |        112336896

 2017-02-08 10:09:31.243664+01 | 1486544971.24366 | pgbench_branches_pkey |            40960
 2017-02-08 10:09:31.243664+01 | 1486544971.24366 | pgbench_tellers_pkey  |           122880
 2017-02-08 10:09:31.243664+01 | 1486544971.24366 | pgbench_accounts_pkey |        112336896

 2017-02-08 10:09:32.363825+01 | 1486544972.36383 | pgbench_branches_pkey |            40960
 2017-02-08 10:09:32.363825+01 | 1486544972.36383 | pgbench_tellers_pkey  |           122880
 2017-02-08 10:09:32.363825+01 | 1486544972.36383 | pgbench_accounts_pkey |        112336896

 2017-02-08 10:09:33.453347+01 | 1486544973.45335 | pgbench_branches_pkey |            40960
 2017-02-08 10:09:33.453347+01 | 1486544973.45335 | pgbench_tellers_pkey  |           122880
 2017-02-08 10:09:33.453347+01 | 1486544973.45335 | pgbench_accounts_pkey |        112336896

 2017-02-08 10:09:34.55882+01 | 1486544974.55882 | pgbench_branches_pkey |            40960
 2017-02-08 10:09:34.55882+01 | 1486544974.55882 | pgbench_tellers_pkey  |           122880
 2017-02-08 10:09:34.55882+01 | 1486544974.55882 | pgbench_accounts_pkey |        112336896

 2017-02-08 10:09:35.673483+01 | 1486544975.67348 | pgbench_branches_pkey |            40960
 2017-02-08 10:09:35.673483+01 | 1486544975.67348 | pgbench_tellers_pkey  |           122880
 2017-02-08 10:09:35.673483+01 | 1486544975.67348 | pgbench_accounts_pkey |        112336896

 2017-02-08 10:09:36.796823+01 | 1486544976.79682 | pgbench_branches_pkey |            40960
 2017-02-08 10:09:36.796823+01 | 1486544976.79682 | pgbench_tellers_pkey  |           122880
 2017-02-08 10:09:36.796823+01 | 1486544976.79682 | pgbench_accounts_pkey |        112336896

 2017-02-08 10:09:37.959483+01 | 1486544977.95948 | pgbench_branches_pkey |            40960
 2017-02-08 10:09:37.959483+01 | 1486544977.95948 | pgbench_tellers_pkey  |           122880
 2017-02-08 10:09:37.959483+01 | 1486544977.95948 | pgbench_accounts_pkey |        112336896

 2017-02-08 10:09:39.057309+01 | 1486544979.05731 | pgbench_branches_pkey |            40960
 2017-02-08 10:09:39.057309+01 | 1486544979.05731 | pgbench_tellers_pkey  |           122880
 2017-02-08 10:09:39.057309+01 | 1486544979.05731 | pgbench_accounts_pkey |        112336896

 2017-02-08 10:09:40.148713+01 | 1486544980.14871 | pgbench_branches_pkey |            40960
 2017-02-08 10:09:40.148713+01 | 1486544980.14871 | pgbench_tellers_pkey  |           122880
 2017-02-08 10:09:40.148713+01 | 1486544980.14871 | pgbench_accounts_pkey |        112336896

 2017-02-08 10:09:41.215693+01 | 1486544981.21569 | pgbench_branches_pkey |            40960
 2017-02-08 10:09:41.215693+01 | 1486544981.21569 | pgbench_tellers_pkey  |           122880
 2017-02-08 10:09:41.215693+01 | 1486544981.21569 | pgbench_accounts_pkey |        112336896

 2017-02-08 10:09:42.328596+01 | 1486544982.3286 | pgbench_branches_pkey |            40960
 2017-02-08 10:09:42.328596+01 | 1486544982.3286 | pgbench_tellers_pkey  |           122880
 2017-02-08 10:09:42.328596+01 | 1486544982.3286 | pgbench_accounts_pkey |        112336896

 2017-02-08 10:09:43.441746+01 | 1486544983.44175 | pgbench_branches_pkey |            40960
 2017-02-08 10:09:43.441746+01 | 1486544983.44175 | pgbench_tellers_pkey  |           122880
 2017-02-08 10:09:43.441746+01 | 1486544983.44175 | pgbench_accounts_pkey |        112336896

 2017-02-08 10:09:44.535102+01 | 1486544984.5351 | pgbench_branches_pkey |            40960
 2017-02-08 10:09:44.535102+01 | 1486544984.5351 | pgbench_tellers_pkey  |           122880
 2017-02-08 10:09:44.535102+01 | 1486544984.5351 | pgbench_accounts_pkey |        112336896

 2017-02-08 10:09:45.63317+01 | 1486544985.63317 | pgbench_branches_pkey |            40960
 2017-02-08 10:09:45.63317+01 | 1486544985.63317 | pgbench_tellers_pkey  |           122880
 2017-02-08 10:09:45.63317+01 | 1486544985.63317 | pgbench_accounts_pkey |        112336896

 2017-02-08 10:09:46.711136+01 | 1486544986.71114 | pgbench_branches_pkey |            40960
 2017-02-08 10:09:46.711136+01 | 1486544986.71114 | pgbench_tellers_pkey  |           122880
 2017-02-08 10:09:46.711136+01 | 1486544986.71114 | pgbench_accounts_pkey |        112336896

 2017-02-08 10:09:47.798477+01 | 1486544987.79848 | pgbench_branches_pkey |            40960
 2017-02-08 10:09:47.798477+01 | 1486544987.79848 | pgbench_tellers_pkey  |           122880
 2017-02-08 10:09:47.798477+01 | 1486544987.79848 | pgbench_accounts_pkey |        112336896

 2017-02-08 10:09:48.913828+01 | 1486544988.91383 | pgbench_branches_pkey |            40960
 2017-02-08 10:09:48.913828+01 | 1486544988.91383 | pgbench_tellers_pkey  |           122880
 2017-02-08 10:09:48.913828+01 | 1486544988.91383 | pgbench_accounts_pkey |        112336896

 2017-02-08 10:09:49.99176+01 | 1486544989.99176 | pgbench_branches_pkey |            40960
 2017-02-08 10:09:49.99176+01 | 1486544989.99176 | pgbench_tellers_pkey  |           122880
 2017-02-08 10:09:49.99176+01 | 1486544989.99176 | pgbench_accounts_pkey |        112336896

 2017-02-08 10:09:51.085412+01 | 1486544991.08541 | pgbench_branches_pkey |            40960
 2017-02-08 10:09:51.085412+01 | 1486544991.08541 | pgbench_tellers_pkey  |           122880
 2017-02-08 10:09:51.085412+01 | 1486544991.08541 | pgbench_accounts_pkey |        112336896

 2017-02-08 10:09:52.163017+01 | 1486544992.16302 | pgbench_branches_pkey |            40960
 2017-02-08 10:09:52.163017+01 | 1486544992.16302 | pgbench_tellers_pkey  |           122880
 2017-02-08 10:09:52.163017+01 | 1486544992.16302 | pgbench_accounts_pkey |        112336896

 2017-02-08 10:09:53.249685+01 | 1486544993.24969 | pgbench_branches_pkey |            40960
 2017-02-08 10:09:53.249685+01 | 1486544993.24969 | pgbench_tellers_pkey  |           122880
 2017-02-08 10:09:53.249685+01 | 1486544993.24969 | pgbench_accounts_pkey |        112336896

 2017-02-08 10:09:54.331009+01 | 1486544994.33101 | pgbench_branches_pkey |            40960
 2017-02-08 10:09:54.331009+01 | 1486544994.33101 | pgbench_tellers_pkey  |           122880
 2017-02-08 10:09:54.331009+01 | 1486544994.33101 | pgbench_accounts_pkey |        112336896

 2017-02-08 10:09:55.442614+01 | 1486544995.44261 | pgbench_branches_pkey |            40960
 2017-02-08 10:09:55.442614+01 | 1486544995.44261 | pgbench_tellers_pkey  |           122880
 2017-02-08 10:09:55.442614+01 | 1486544995.44261 | pgbench_accounts_pkey |        112336896

 2017-02-08 10:09:56.522304+01 | 1486544996.5223 | pgbench_branches_pkey |            40960
 2017-02-08 10:09:56.522304+01 | 1486544996.5223 | pgbench_tellers_pkey  |           122880
 2017-02-08 10:09:56.522304+01 | 1486544996.5223 | pgbench_accounts_pkey |        112336896

 2017-02-08 10:09:57.657702+01 | 1486544997.6577 | pgbench_branches_pkey |            40960
 2017-02-08 10:09:57.657702+01 | 1486544997.6577 | pgbench_tellers_pkey  |           122880
 2017-02-08 10:09:57.657702+01 | 1486544997.6577 | pgbench_accounts_pkey |        112336896

 2017-02-08 10:09:58.792172+01 | 1486544998.79217 | pgbench_branches_pkey |            40960
 2017-02-08 10:09:58.792172+01 | 1486544998.79217 | pgbench_tellers_pkey  |           122880
 2017-02-08 10:09:58.792172+01 | 1486544998.79217 | pgbench_accounts_pkey |        112336896

 2017-02-08 10:09:59.925209+01 | 1486544999.92521 | pgbench_branches_pkey |            40960
 2017-02-08 10:09:59.925209+01 | 1486544999.92521 | pgbench_tellers_pkey  |           122880
 2017-02-08 10:09:59.925209+01 | 1486544999.92521 | pgbench_accounts_pkey |        112336896

 2017-02-08 10:10:01.026707+01 | 1486545001.02671 | pgbench_branches_pkey |            40960
 2017-02-08 10:10:01.026707+01 | 1486545001.02671 | pgbench_tellers_pkey  |           122880
 2017-02-08 10:10:01.026707+01 | 1486545001.02671 | pgbench_accounts_pkey |        112336896

 2017-02-08 10:10:02.123981+01 | 1486545002.12398 | pgbench_branches_pkey |            40960
 2017-02-08 10:10:02.123981+01 | 1486545002.12398 | pgbench_tellers_pkey  |           122880
 2017-02-08 10:10:02.123981+01 | 1486545002.12398 | pgbench_accounts_pkey |        112336896

 2017-02-08 10:10:03.249202+01 | 1486545003.2492 | pgbench_branches_pkey |            40960
 2017-02-08 10:10:03.249202+01 | 1486545003.2492 | pgbench_tellers_pkey  |           122880
 2017-02-08 10:10:03.249202+01 | 1486545003.2492 | pgbench_accounts_pkey |        112336896

 2017-02-08 10:10:04.357018+01 | 1486545004.35702 | pgbench_branches_pkey |            40960
 2017-02-08 10:10:04.357018+01 | 1486545004.35702 | pgbench_tellers_pkey  |           122880
 2017-02-08 10:10:04.357018+01 | 1486545004.35702 | pgbench_accounts_pkey |        112336896

 2017-02-08 10:10:05.465145+01 | 1486545005.46515 | pgbench_branches_pkey |            40960
 2017-02-08 10:10:05.465145+01 | 1486545005.46515 | pgbench_tellers_pkey  |           122880
 2017-02-08 10:10:05.465145+01 | 1486545005.46515 | pgbench_accounts_pkey |        112336896

 2017-02-08 10:10:06.542941+01 | 1486545006.54294 | pgbench_branches_pkey |            40960
 2017-02-08 10:10:06.542941+01 | 1486545006.54294 | pgbench_tellers_pkey  |           122880
 2017-02-08 10:10:06.542941+01 | 1486545006.54294 | pgbench_accounts_pkey |        112336896

 2017-02-08 10:10:07.660771+01 | 1486545007.66077 | pgbench_branches_pkey |            40960
 2017-02-08 10:10:07.660771+01 | 1486545007.66077 | pgbench_tellers_pkey  |           122880
 2017-02-08 10:10:07.660771+01 | 1486545007.66077 | pgbench_accounts_pkey |        112336896

 2017-02-08 10:10:08.779863+01 | 1486545008.77986 | pgbench_branches_pkey |            40960
 2017-02-08 10:10:08.779863+01 | 1486545008.77986 | pgbench_tellers_pkey  |           122880
 2017-02-08 10:10:08.779863+01 | 1486545008.77986 | pgbench_accounts_pkey |        112336896

 2017-02-08 10:10:09.905393+01 | 1486545009.90539 | pgbench_branches_pkey |            40960
 2017-02-08 10:10:09.905393+01 | 1486545009.90539 | pgbench_tellers_pkey  |           122880
 2017-02-08 10:10:09.905393+01 | 1486545009.90539 | pgbench_accounts_pkey |        112336896

 2017-02-08 10:10:11.037762+01 | 1486545011.03776 | pgbench_branches_pkey |            40960
 2017-02-08 10:10:11.037762+01 | 1486545011.03776 | pgbench_tellers_pkey  |           122880
 2017-02-08 10:10:11.037762+01 | 1486545011.03776 | pgbench_accounts_pkey |        112336896

 2017-02-08 10:10:12.163693+01 | 1486545012.16369 | pgbench_branches_pkey |            40960
 2017-02-08 10:10:12.163693+01 | 1486545012.16369 | pgbench_tellers_pkey  |           122880
 2017-02-08 10:10:12.163693+01 | 1486545012.16369 | pgbench_accounts_pkey |        112336896

 2017-02-08 10:10:13.267263+01 | 1486545013.26726 | pgbench_branches_pkey |            40960
 2017-02-08 10:10:13.267263+01 | 1486545013.26726 | pgbench_tellers_pkey  |           122880
 2017-02-08 10:10:13.267263+01 | 1486545013.26726 | pgbench_accounts_pkey |        112336896

 2017-02-08 10:10:14.375461+01 | 1486545014.37546 | pgbench_branches_pkey |            40960
 2017-02-08 10:10:14.375461+01 | 1486545014.37546 | pgbench_tellers_pkey  |           122880
 2017-02-08 10:10:14.375461+01 | 1486545014.37546 | pgbench_accounts_pkey |        112336896

 2017-02-08 10:10:15.473501+01 | 1486545015.4735 | pgbench_branches_pkey |            40960
 2017-02-08 10:10:15.473501+01 | 1486545015.4735 | pgbench_tellers_pkey  |           122880
 2017-02-08 10:10:15.473501+01 | 1486545015.4735 | pgbench_accounts_pkey |        112336896

 2017-02-08 10:10:16.569182+01 | 1486545016.56918 | pgbench_branches_pkey |            40960
 2017-02-08 10:10:16.569182+01 | 1486545016.56918 | pgbench_tellers_pkey  |           122880
 2017-02-08 10:10:16.569182+01 | 1486545016.56918 | pgbench_accounts_pkey |        112336896

 2017-02-08 10:10:17.661952+01 | 1486545017.66195 | pgbench_branches_pkey |            40960
 2017-02-08 10:10:17.661952+01 | 1486545017.66195 | pgbench_tellers_pkey  |           122880
 2017-02-08 10:10:17.661952+01 | 1486545017.66195 | pgbench_accounts_pkey |        112336896

 2017-02-08 10:10:18.752345+01 | 1486545018.75235 | pgbench_branches_pkey |            40960
 2017-02-08 10:10:18.752345+01 | 1486545018.75235 | pgbench_tellers_pkey  |           122880
 2017-02-08 10:10:18.752345+01 | 1486545018.75235 | pgbench_accounts_pkey |        112336896

 2017-02-08 10:10:19.854065+01 | 1486545019.85406 | pgbench_branches_pkey |            40960
 2017-02-08 10:10:19.854065+01 | 1486545019.85406 | pgbench_tellers_pkey  |           122880
 2017-02-08 10:10:19.854065+01 | 1486545019.85406 | pgbench_accounts_pkey |        112336896

 2017-02-08 10:10:20.990724+01 | 1486545020.99072 | pgbench_branches_pkey |            40960
 2017-02-08 10:10:20.990724+01 | 1486545020.99072 | pgbench_tellers_pkey  |           122880
 2017-02-08 10:10:20.990724+01 | 1486545020.99072 | pgbench_accounts_pkey |        112336896

 2017-02-08 10:10:22.080404+01 | 1486545022.0804 | pgbench_branches_pkey |            40960
 2017-02-08 10:10:22.080404+01 | 1486545022.0804 | pgbench_tellers_pkey  |           122880
 2017-02-08 10:10:22.080404+01 | 1486545022.0804 | pgbench_accounts_pkey |        112336896

 2017-02-08 10:10:23.195058+01 | 1486545023.19506 | pgbench_branches_pkey |            40960
 2017-02-08 10:10:23.195058+01 | 1486545023.19506 | pgbench_tellers_pkey  |           122880
 2017-02-08 10:10:23.195058+01 | 1486545023.19506 | pgbench_accounts_pkey |        112336896

 2017-02-08 10:10:24.352126+01 | 1486545024.35213 | pgbench_branches_pkey |            40960
 2017-02-08 10:10:24.352126+01 | 1486545024.35213 | pgbench_tellers_pkey  |           122880
 2017-02-08 10:10:24.352126+01 | 1486545024.35213 | pgbench_accounts_pkey |        112336896

 2017-02-08 10:10:25.486952+01 | 1486545025.48695 | pgbench_branches_pkey |            40960
 2017-02-08 10:10:25.486952+01 | 1486545025.48695 | pgbench_tellers_pkey  |           122880
 2017-02-08 10:10:25.486952+01 | 1486545025.48695 | pgbench_accounts_pkey |        112336896

 2017-02-08 10:10:26.592145+01 | 1486545026.59214 | pgbench_branches_pkey |            40960
 2017-02-08 10:10:26.592145+01 | 1486545026.59214 | pgbench_tellers_pkey  |           122880
 2017-02-08 10:10:26.592145+01 | 1486545026.59214 | pgbench_accounts_pkey |        112336896

 2017-02-08 10:10:27.718964+01 | 1486545027.71896 | pgbench_branches_pkey |            40960
 2017-02-08 10:10:27.718964+01 | 1486545027.71896 | pgbench_tellers_pkey  |           122880
 2017-02-08 10:10:27.718964+01 | 1486545027.71896 | pgbench_accounts_pkey |        112336896

 2017-02-08 10:10:28.823947+01 | 1486545028.82395 | pgbench_branches_pkey |            40960
 2017-02-08 10:10:28.823947+01 | 1486545028.82395 | pgbench_tellers_pkey  |           122880
 2017-02-08 10:10:28.823947+01 | 1486545028.82395 | pgbench_accounts_pkey |        112336896

 2017-02-08 10:10:29.926003+01 | 1486545029.926 | pgbench_branches_pkey |            40960
 2017-02-08 10:10:29.926003+01 | 1486545029.926 | pgbench_tellers_pkey  |           122880
 2017-02-08 10:10:29.926003+01 | 1486545029.926 | pgbench_accounts_pkey |        112336896

