 2017-02-09 06:11:10.087329+01 | 1486617070.08733 | pgbench_accounts |        694558720
 2017-02-09 06:11:10.087329+01 | 1486617070.08733 | pgbench_tellers  |           827392
 2017-02-09 06:11:10.087329+01 | 1486617070.08733 | pgbench_history  |           516096
 2017-02-09 06:11:10.087329+01 | 1486617070.08733 | pgbench_branches |          1155072

 2017-02-09 06:11:11.206931+01 | 1486617071.20693 | pgbench_accounts |        694558720
 2017-02-09 06:11:11.206931+01 | 1486617071.20693 | pgbench_tellers  |           827392
 2017-02-09 06:11:11.206931+01 | 1486617071.20693 | pgbench_history  |           892928
 2017-02-09 06:11:11.206931+01 | 1486617071.20693 | pgbench_branches |          1155072

 2017-02-09 06:11:12.330338+01 | 1486617072.33034 | pgbench_accounts |        694558720
 2017-02-09 06:11:12.330338+01 | 1486617072.33034 | pgbench_tellers  |           827392
 2017-02-09 06:11:12.330338+01 | 1486617072.33034 | pgbench_history  |          1409024
 2017-02-09 06:11:12.330338+01 | 1486617072.33034 | pgbench_branches |          1155072

 2017-02-09 06:11:13.43146+01 | 1486617073.43146 | pgbench_accounts |        694558720
 2017-02-09 06:11:13.43146+01 | 1486617073.43146 | pgbench_tellers  |           827392
 2017-02-09 06:11:13.43146+01 | 1486617073.43146 | pgbench_history  |          1605632
 2017-02-09 06:11:13.43146+01 | 1486617073.43146 | pgbench_branches |          1155072

 2017-02-09 06:11:14.588408+01 | 1486617074.58841 | pgbench_accounts |        694558720
 2017-02-09 06:11:14.588408+01 | 1486617074.58841 | pgbench_tellers  |           827392
 2017-02-09 06:11:14.588408+01 | 1486617074.58841 | pgbench_history  |          2080768
 2017-02-09 06:11:14.588408+01 | 1486617074.58841 | pgbench_branches |          1155072

 2017-02-09 06:11:15.741464+01 | 1486617075.74146 | pgbench_accounts |        694558720
 2017-02-09 06:11:15.741464+01 | 1486617075.74146 | pgbench_tellers  |           827392
 2017-02-09 06:11:15.741464+01 | 1486617075.74146 | pgbench_history  |          2613248
 2017-02-09 06:11:15.741464+01 | 1486617075.74146 | pgbench_branches |          1155072

 2017-02-09 06:11:16.908155+01 | 1486617076.90815 | pgbench_accounts |        694558720
 2017-02-09 06:11:16.908155+01 | 1486617076.90815 | pgbench_tellers  |           827392
 2017-02-09 06:11:16.908155+01 | 1486617076.90815 | pgbench_history  |          3145728
 2017-02-09 06:11:16.908155+01 | 1486617076.90815 | pgbench_branches |          1155072

 2017-02-09 06:11:18.020769+01 | 1486617078.02077 | pgbench_accounts |        694558720
 2017-02-09 06:11:18.020769+01 | 1486617078.02077 | pgbench_tellers  |           827392
 2017-02-09 06:11:18.020769+01 | 1486617078.02077 | pgbench_history  |          3670016
 2017-02-09 06:11:18.020769+01 | 1486617078.02077 | pgbench_branches |          1155072

 2017-02-09 06:11:19.184892+01 | 1486617079.18489 | pgbench_accounts |        694558720
 2017-02-09 06:11:19.184892+01 | 1486617079.18489 | pgbench_tellers  |           827392
 2017-02-09 06:11:19.184892+01 | 1486617079.18489 | pgbench_history  |          4194304
 2017-02-09 06:11:19.184892+01 | 1486617079.18489 | pgbench_branches |          1155072

 2017-02-09 06:11:20.293233+01 | 1486617080.29323 | pgbench_accounts |        694558720
 2017-02-09 06:11:20.293233+01 | 1486617080.29323 | pgbench_tellers  |           827392
 2017-02-09 06:11:20.293233+01 | 1486617080.29323 | pgbench_history  |          4718592
 2017-02-09 06:11:20.293233+01 | 1486617080.29323 | pgbench_branches |          1155072

 2017-02-09 06:11:21.374319+01 | 1486617081.37432 | pgbench_accounts |        694558720
 2017-02-09 06:11:21.374319+01 | 1486617081.37432 | pgbench_tellers  |           827392
 2017-02-09 06:11:21.374319+01 | 1486617081.37432 | pgbench_history  |          5201920
 2017-02-09 06:11:21.374319+01 | 1486617081.37432 | pgbench_branches |          1155072

 2017-02-09 06:11:22.495513+01 | 1486617082.49551 | pgbench_accounts |        694558720
 2017-02-09 06:11:22.495513+01 | 1486617082.49551 | pgbench_tellers  |           827392
 2017-02-09 06:11:22.495513+01 | 1486617082.49551 | pgbench_history  |          5685248
 2017-02-09 06:11:22.495513+01 | 1486617082.49551 | pgbench_branches |          1155072

 2017-02-09 06:11:23.655899+01 | 1486617083.6559 | pgbench_accounts |        694558720
 2017-02-09 06:11:23.655899+01 | 1486617083.6559 | pgbench_tellers  |           827392
 2017-02-09 06:11:23.655899+01 | 1486617083.6559 | pgbench_history  |          6217728
 2017-02-09 06:11:23.655899+01 | 1486617083.6559 | pgbench_branches |          1155072

 2017-02-09 06:11:24.821689+01 | 1486617084.82169 | pgbench_accounts |        694558720
 2017-02-09 06:11:24.821689+01 | 1486617084.82169 | pgbench_tellers  |           827392
 2017-02-09 06:11:24.821689+01 | 1486617084.82169 | pgbench_history  |          7118848
 2017-02-09 06:11:24.821689+01 | 1486617084.82169 | pgbench_branches |          1155072

 2017-02-09 06:11:26.01217+01 | 1486617086.01217 | pgbench_accounts |        694558720
 2017-02-09 06:11:26.01217+01 | 1486617086.01217 | pgbench_tellers  |           827392
 2017-02-09 06:11:26.01217+01 | 1486617086.01217 | pgbench_history  |          7577600
 2017-02-09 06:11:26.01217+01 | 1486617086.01217 | pgbench_branches |          1155072

 2017-02-09 06:11:27.159677+01 | 1486617087.15968 | pgbench_accounts |        694558720
 2017-02-09 06:11:27.159677+01 | 1486617087.15968 | pgbench_tellers  |           827392
 2017-02-09 06:11:27.159677+01 | 1486617087.15968 | pgbench_history  |          9609216
 2017-02-09 06:11:27.159677+01 | 1486617087.15968 | pgbench_branches |          1155072

 2017-02-09 06:11:28.253278+01 | 1486617088.25328 | pgbench_accounts |        694558720
 2017-02-09 06:11:28.253278+01 | 1486617088.25328 | pgbench_tellers  |           827392
 2017-02-09 06:11:28.253278+01 | 1486617088.25328 | pgbench_history  |          9609216
 2017-02-09 06:11:28.253278+01 | 1486617088.25328 | pgbench_branches |          1155072

 2017-02-09 06:11:29.390799+01 | 1486617089.3908 | pgbench_accounts |        694558720
 2017-02-09 06:11:29.390799+01 | 1486617089.3908 | pgbench_tellers  |           827392
 2017-02-09 06:11:29.390799+01 | 1486617089.3908 | pgbench_history  |          9609216
 2017-02-09 06:11:29.390799+01 | 1486617089.3908 | pgbench_branches |          1155072

 2017-02-09 06:11:30.50995+01 | 1486617090.50995 | pgbench_accounts |        694558720
 2017-02-09 06:11:30.50995+01 | 1486617090.50995 | pgbench_tellers  |           827392
 2017-02-09 06:11:30.50995+01 | 1486617090.50995 | pgbench_history  |          9609216
 2017-02-09 06:11:30.50995+01 | 1486617090.50995 | pgbench_branches |          1155072

 2017-02-09 06:11:31.656883+01 | 1486617091.65688 | pgbench_accounts |        694558720
 2017-02-09 06:11:31.656883+01 | 1486617091.65688 | pgbench_tellers  |           827392
 2017-02-09 06:11:31.656883+01 | 1486617091.65688 | pgbench_history  |          9871360
 2017-02-09 06:11:31.656883+01 | 1486617091.65688 | pgbench_branches |          1155072

 2017-02-09 06:11:32.770902+01 | 1486617092.7709 | pgbench_accounts |        694558720
 2017-02-09 06:11:32.770902+01 | 1486617092.7709 | pgbench_tellers  |           827392
 2017-02-09 06:11:32.770902+01 | 1486617092.7709 | pgbench_history  |         10395648
 2017-02-09 06:11:32.770902+01 | 1486617092.7709 | pgbench_branches |          1155072

 2017-02-09 06:11:33.87395+01 | 1486617093.87395 | pgbench_accounts |        694558720
 2017-02-09 06:11:33.87395+01 | 1486617093.87395 | pgbench_tellers  |           827392
 2017-02-09 06:11:33.87395+01 | 1486617093.87395 | pgbench_history  |         10903552
 2017-02-09 06:11:33.87395+01 | 1486617093.87395 | pgbench_branches |          1155072

 2017-02-09 06:11:34.979627+01 | 1486617094.97963 | pgbench_accounts |        694558720
 2017-02-09 06:11:34.979627+01 | 1486617094.97963 | pgbench_tellers  |           827392
 2017-02-09 06:11:34.979627+01 | 1486617094.97963 | pgbench_history  |         11403264
 2017-02-09 06:11:34.979627+01 | 1486617094.97963 | pgbench_branches |          1155072

 2017-02-09 06:11:36.186328+01 | 1486617096.18633 | pgbench_accounts |        694558720
 2017-02-09 06:11:36.186328+01 | 1486617096.18633 | pgbench_tellers  |           827392
 2017-02-09 06:11:36.186328+01 | 1486617096.18633 | pgbench_history  |         11919360
 2017-02-09 06:11:36.186328+01 | 1486617096.18633 | pgbench_branches |          1155072

 2017-02-09 06:11:37.365369+01 | 1486617097.36537 | pgbench_accounts |        694558720
 2017-02-09 06:11:37.365369+01 | 1486617097.36537 | pgbench_tellers  |           827392
 2017-02-09 06:11:37.365369+01 | 1486617097.36537 | pgbench_history  |         13000704
 2017-02-09 06:11:37.365369+01 | 1486617097.36537 | pgbench_branches |          1155072

 2017-02-09 06:11:38.483632+01 | 1486617098.48363 | pgbench_accounts |        694558720
 2017-02-09 06:11:38.483632+01 | 1486617098.48363 | pgbench_tellers  |           827392
 2017-02-09 06:11:38.483632+01 | 1486617098.48363 | pgbench_history  |         13000704
 2017-02-09 06:11:38.483632+01 | 1486617098.48363 | pgbench_branches |          1155072

 2017-02-09 06:11:39.627742+01 | 1486617099.62774 | pgbench_accounts |        694558720
 2017-02-09 06:11:39.627742+01 | 1486617099.62774 | pgbench_tellers  |           827392
 2017-02-09 06:11:39.627742+01 | 1486617099.62774 | pgbench_history  |         13631488
 2017-02-09 06:11:39.627742+01 | 1486617099.62774 | pgbench_branches |          1155072

 2017-02-09 06:11:40.728453+01 | 1486617100.72845 | pgbench_accounts |        694558720
 2017-02-09 06:11:40.728453+01 | 1486617100.72845 | pgbench_tellers  |           827392
 2017-02-09 06:11:40.728453+01 | 1486617100.72845 | pgbench_history  |         14041088
 2017-02-09 06:11:40.728453+01 | 1486617100.72845 | pgbench_branches |          1155072

 2017-02-09 06:11:41.866405+01 | 1486617101.86641 | pgbench_accounts |        694558720
 2017-02-09 06:11:41.866405+01 | 1486617101.86641 | pgbench_tellers  |           827392
 2017-02-09 06:11:41.866405+01 | 1486617101.86641 | pgbench_history  |         14974976
 2017-02-09 06:11:41.866405+01 | 1486617101.86641 | pgbench_branches |          1155072

 2017-02-09 06:11:43.019996+01 | 1486617103.02 | pgbench_accounts |        694558720
 2017-02-09 06:11:43.019996+01 | 1486617103.02 | pgbench_tellers  |           827392
 2017-02-09 06:11:43.019996+01 | 1486617103.02 | pgbench_history  |         15253504
 2017-02-09 06:11:43.019996+01 | 1486617103.02 | pgbench_branches |          1155072

 2017-02-09 06:11:44.14194+01 | 1486617104.14194 | pgbench_accounts |        694558720
 2017-02-09 06:11:44.14194+01 | 1486617104.14194 | pgbench_tellers  |           827392
 2017-02-09 06:11:44.14194+01 | 1486617104.14194 | pgbench_history  |         16293888
 2017-02-09 06:11:44.14194+01 | 1486617104.14194 | pgbench_branches |          1155072

 2017-02-09 06:11:45.274441+01 | 1486617105.27444 | pgbench_accounts |        694558720
 2017-02-09 06:11:45.274441+01 | 1486617105.27444 | pgbench_tellers  |           827392
 2017-02-09 06:11:45.274441+01 | 1486617105.27444 | pgbench_history  |         16293888
 2017-02-09 06:11:45.274441+01 | 1486617105.27444 | pgbench_branches |          1155072

 2017-02-09 06:11:46.422598+01 | 1486617106.4226 | pgbench_accounts |        694558720
 2017-02-09 06:11:46.422598+01 | 1486617106.4226 | pgbench_tellers  |           827392
 2017-02-09 06:11:46.422598+01 | 1486617106.4226 | pgbench_history  |         16646144
 2017-02-09 06:11:46.422598+01 | 1486617106.4226 | pgbench_branches |          1155072

 2017-02-09 06:11:47.541628+01 | 1486617107.54163 | pgbench_accounts |        694558720
 2017-02-09 06:11:47.541628+01 | 1486617107.54163 | pgbench_tellers  |           827392
 2017-02-09 06:11:47.541628+01 | 1486617107.54163 | pgbench_history  |         17268736
 2017-02-09 06:11:47.541628+01 | 1486617107.54163 | pgbench_branches |          1155072

 2017-02-09 06:11:48.690472+01 | 1486617108.69047 | pgbench_accounts |        694558720
 2017-02-09 06:11:48.690472+01 | 1486617108.69047 | pgbench_tellers  |           827392
 2017-02-09 06:11:48.690472+01 | 1486617108.69047 | pgbench_history  |         18161664
 2017-02-09 06:11:48.690472+01 | 1486617108.69047 | pgbench_branches |          1155072

 2017-02-09 06:11:49.822687+01 | 1486617109.82269 | pgbench_accounts |        694558720
 2017-02-09 06:11:49.822687+01 | 1486617109.82269 | pgbench_tellers  |           827392
 2017-02-09 06:11:49.822687+01 | 1486617109.82269 | pgbench_history  |         18358272
 2017-02-09 06:11:49.822687+01 | 1486617109.82269 | pgbench_branches |          1155072

 2017-02-09 06:11:50.940259+01 | 1486617110.94026 | pgbench_accounts |        694558720
 2017-02-09 06:11:50.940259+01 | 1486617110.94026 | pgbench_tellers  |           827392
 2017-02-09 06:11:50.940259+01 | 1486617110.94026 | pgbench_history  |         18931712
 2017-02-09 06:11:50.940259+01 | 1486617110.94026 | pgbench_branches |          1155072

 2017-02-09 06:11:52.107322+01 | 1486617112.10732 | pgbench_accounts |        694558720
 2017-02-09 06:11:52.107322+01 | 1486617112.10732 | pgbench_tellers  |           827392
 2017-02-09 06:11:52.107322+01 | 1486617112.10732 | pgbench_history  |         19447808
 2017-02-09 06:11:52.107322+01 | 1486617112.10732 | pgbench_branches |          1155072

 2017-02-09 06:11:53.274733+01 | 1486617113.27473 | pgbench_accounts |        694558720
 2017-02-09 06:11:53.274733+01 | 1486617113.27473 | pgbench_tellers  |           827392
 2017-02-09 06:11:53.274733+01 | 1486617113.27473 | pgbench_history  |         20127744
 2017-02-09 06:11:53.274733+01 | 1486617113.27473 | pgbench_branches |          1155072

 2017-02-09 06:11:54.427+01 | 1486617114.427 | pgbench_accounts |        694558720
 2017-02-09 06:11:54.427+01 | 1486617114.427 | pgbench_tellers  |           827392
 2017-02-09 06:11:54.427+01 | 1486617114.427 | pgbench_history  |         20480000
 2017-02-09 06:11:54.427+01 | 1486617114.427 | pgbench_branches |          1155072

 2017-02-09 06:11:55.601142+01 | 1486617115.60114 | pgbench_accounts |        694558720
 2017-02-09 06:11:55.601142+01 | 1486617115.60114 | pgbench_tellers  |           827392
 2017-02-09 06:11:55.601142+01 | 1486617115.60114 | pgbench_history  |         21454848
 2017-02-09 06:11:55.601142+01 | 1486617115.60114 | pgbench_branches |          1155072

 2017-02-09 06:11:56.763895+01 | 1486617116.7639 | pgbench_accounts |        694558720
 2017-02-09 06:11:56.763895+01 | 1486617116.7639 | pgbench_tellers  |           827392
 2017-02-09 06:11:56.763895+01 | 1486617116.7639 | pgbench_history  |         21643264
 2017-02-09 06:11:56.763895+01 | 1486617116.7639 | pgbench_branches |          1155072

 2017-02-09 06:11:57.908814+01 | 1486617117.90881 | pgbench_accounts |        694558720
 2017-02-09 06:11:57.908814+01 | 1486617117.90881 | pgbench_tellers  |           827392
 2017-02-09 06:11:57.908814+01 | 1486617117.90881 | pgbench_history  |         22224896
 2017-02-09 06:11:57.908814+01 | 1486617117.90881 | pgbench_branches |          1155072

 2017-02-09 06:11:59.05529+01 | 1486617119.05529 | pgbench_accounts |        694558720
 2017-02-09 06:11:59.05529+01 | 1486617119.05529 | pgbench_tellers  |           827392
 2017-02-09 06:11:59.05529+01 | 1486617119.05529 | pgbench_history  |         22618112
 2017-02-09 06:11:59.05529+01 | 1486617119.05529 | pgbench_branches |          1155072

 2017-02-09 06:12:00.163942+01 | 1486617120.16394 | pgbench_accounts |        694558720
 2017-02-09 06:12:00.163942+01 | 1486617120.16394 | pgbench_tellers  |           827392
 2017-02-09 06:12:00.163942+01 | 1486617120.16394 | pgbench_history  |         23150592
 2017-02-09 06:12:00.163942+01 | 1486617120.16394 | pgbench_branches |          1155072

 2017-02-09 06:12:01.288504+01 | 1486617121.2885 | pgbench_accounts |        694558720
 2017-02-09 06:12:01.288504+01 | 1486617121.2885 | pgbench_tellers  |           827392
 2017-02-09 06:12:01.288504+01 | 1486617121.2885 | pgbench_history  |         23674880
 2017-02-09 06:12:01.288504+01 | 1486617121.2885 | pgbench_branches |          1155072

 2017-02-09 06:12:02.403123+01 | 1486617122.40312 | pgbench_accounts |        694558720
 2017-02-09 06:12:02.403123+01 | 1486617122.40312 | pgbench_tellers  |           827392
 2017-02-09 06:12:02.403123+01 | 1486617122.40312 | pgbench_history  |         24199168
 2017-02-09 06:12:02.403123+01 | 1486617122.40312 | pgbench_branches |          1155072

 2017-02-09 06:12:03.573196+01 | 1486617123.5732 | pgbench_accounts |        694558720
 2017-02-09 06:12:03.573196+01 | 1486617123.5732 | pgbench_tellers  |           827392
 2017-02-09 06:12:03.573196+01 | 1486617123.5732 | pgbench_history  |         24723456
 2017-02-09 06:12:03.573196+01 | 1486617123.5732 | pgbench_branches |          1155072

 2017-02-09 06:12:04.712609+01 | 1486617124.71261 | pgbench_accounts |        694558720
 2017-02-09 06:12:04.712609+01 | 1486617124.71261 | pgbench_tellers  |           827392
 2017-02-09 06:12:04.712609+01 | 1486617124.71261 | pgbench_history  |         25264128
 2017-02-09 06:12:04.712609+01 | 1486617124.71261 | pgbench_branches |          1155072

 2017-02-09 06:12:05.841738+01 | 1486617125.84174 | pgbench_accounts |        694558720
 2017-02-09 06:12:05.841738+01 | 1486617125.84174 | pgbench_tellers  |           827392
 2017-02-09 06:12:05.841738+01 | 1486617125.84174 | pgbench_history  |         25796608
 2017-02-09 06:12:05.841738+01 | 1486617125.84174 | pgbench_branches |          1155072

 2017-02-09 06:12:06.962624+01 | 1486617126.96262 | pgbench_accounts |        694558720
 2017-02-09 06:12:06.962624+01 | 1486617126.96262 | pgbench_tellers  |           827392
 2017-02-09 06:12:06.962624+01 | 1486617126.96262 | pgbench_history  |         26337280
 2017-02-09 06:12:06.962624+01 | 1486617126.96262 | pgbench_branches |          1155072

 2017-02-09 06:12:08.130776+01 | 1486617128.13078 | pgbench_accounts |        694558720
 2017-02-09 06:12:08.130776+01 | 1486617128.13078 | pgbench_tellers  |           827392
 2017-02-09 06:12:08.130776+01 | 1486617128.13078 | pgbench_history  |         27115520
 2017-02-09 06:12:08.130776+01 | 1486617128.13078 | pgbench_branches |          1155072

 2017-02-09 06:12:09.313149+01 | 1486617129.31315 | pgbench_accounts |        694558720
 2017-02-09 06:12:09.313149+01 | 1486617129.31315 | pgbench_tellers  |           827392
 2017-02-09 06:12:09.313149+01 | 1486617129.31315 | pgbench_history  |         27500544
 2017-02-09 06:12:09.313149+01 | 1486617129.31315 | pgbench_branches |          1155072

 2017-02-09 06:12:10.4766+01 | 1486617130.4766 | pgbench_accounts |        694558720
 2017-02-09 06:12:10.4766+01 | 1486617130.4766 | pgbench_tellers  |           827392
 2017-02-09 06:12:10.4766+01 | 1486617130.4766 | pgbench_history  |         28532736
 2017-02-09 06:12:10.4766+01 | 1486617130.4766 | pgbench_branches |          1155072

 2017-02-09 06:12:11.600096+01 | 1486617131.6001 | pgbench_accounts |        694558720
 2017-02-09 06:12:11.600096+01 | 1486617131.6001 | pgbench_tellers  |           827392
 2017-02-09 06:12:11.600096+01 | 1486617131.6001 | pgbench_history  |         28532736
 2017-02-09 06:12:11.600096+01 | 1486617131.6001 | pgbench_branches |          1155072

 2017-02-09 06:12:12.719092+01 | 1486617132.71909 | pgbench_accounts |        694558720
 2017-02-09 06:12:12.719092+01 | 1486617132.71909 | pgbench_tellers  |           827392
 2017-02-09 06:12:12.719092+01 | 1486617132.71909 | pgbench_history  |         29057024
 2017-02-09 06:12:12.719092+01 | 1486617132.71909 | pgbench_branches |          1155072

 2017-02-09 06:12:13.827305+01 | 1486617133.82731 | pgbench_accounts |        694558720
 2017-02-09 06:12:13.827305+01 | 1486617133.82731 | pgbench_tellers  |           827392
 2017-02-09 06:12:13.827305+01 | 1486617133.82731 | pgbench_history  |         29581312
 2017-02-09 06:12:13.827305+01 | 1486617133.82731 | pgbench_branches |          1155072

 2017-02-09 06:12:14.938605+01 | 1486617134.93861 | pgbench_accounts |        694558720
 2017-02-09 06:12:14.938605+01 | 1486617134.93861 | pgbench_tellers  |           827392
 2017-02-09 06:12:14.938605+01 | 1486617134.93861 | pgbench_history  |         30081024
 2017-02-09 06:12:14.938605+01 | 1486617134.93861 | pgbench_branches |          1155072

 2017-02-09 06:12:16.08543+01 | 1486617136.08543 | pgbench_accounts |        694558720
 2017-02-09 06:12:16.08543+01 | 1486617136.08543 | pgbench_tellers  |           827392
 2017-02-09 06:12:16.08543+01 | 1486617136.08543 | pgbench_history  |         30629888
 2017-02-09 06:12:16.08543+01 | 1486617136.08543 | pgbench_branches |          1155072

 2017-02-09 06:12:17.257024+01 | 1486617137.25702 | pgbench_accounts |        694558720
 2017-02-09 06:12:17.257024+01 | 1486617137.25702 | pgbench_tellers  |           827392
 2017-02-09 06:12:17.257024+01 | 1486617137.25702 | pgbench_history  |         31170560
 2017-02-09 06:12:17.257024+01 | 1486617137.25702 | pgbench_branches |          1155072

 2017-02-09 06:12:18.395339+01 | 1486617138.39534 | pgbench_accounts |        694558720
 2017-02-09 06:12:18.395339+01 | 1486617138.39534 | pgbench_tellers  |           827392
 2017-02-09 06:12:18.395339+01 | 1486617138.39534 | pgbench_history  |         31694848
 2017-02-09 06:12:18.395339+01 | 1486617138.39534 | pgbench_branches |          1155072

 2017-02-09 06:12:19.537599+01 | 1486617139.5376 | pgbench_accounts |        694558720
 2017-02-09 06:12:19.537599+01 | 1486617139.5376 | pgbench_tellers  |           827392
 2017-02-09 06:12:19.537599+01 | 1486617139.5376 | pgbench_history  |         32219136
 2017-02-09 06:12:19.537599+01 | 1486617139.5376 | pgbench_branches |          1155072

 2017-02-09 06:12:20.632936+01 | 1486617140.63294 | pgbench_accounts |        694558720
 2017-02-09 06:12:20.632936+01 | 1486617140.63294 | pgbench_tellers  |           827392
 2017-02-09 06:12:20.632936+01 | 1486617140.63294 | pgbench_history  |         32743424
 2017-02-09 06:12:20.632936+01 | 1486617140.63294 | pgbench_branches |          1155072

 2017-02-09 06:12:21.787155+01 | 1486617141.78715 | pgbench_accounts |        694558720
 2017-02-09 06:12:21.787155+01 | 1486617141.78715 | pgbench_tellers  |           827392
 2017-02-09 06:12:21.787155+01 | 1486617141.78715 | pgbench_history  |         33300480
 2017-02-09 06:12:21.787155+01 | 1486617141.78715 | pgbench_branches |          1155072

 2017-02-09 06:12:22.948363+01 | 1486617142.94836 | pgbench_accounts |        694558720
 2017-02-09 06:12:22.948363+01 | 1486617142.94836 | pgbench_tellers  |           827392
 2017-02-09 06:12:22.948363+01 | 1486617142.94836 | pgbench_history  |         33824768
 2017-02-09 06:12:22.948363+01 | 1486617142.94836 | pgbench_branches |          1155072

 2017-02-09 06:12:24.122466+01 | 1486617144.12247 | pgbench_accounts |        694558720
 2017-02-09 06:12:24.122466+01 | 1486617144.12247 | pgbench_tellers  |           827392
 2017-02-09 06:12:24.122466+01 | 1486617144.12247 | pgbench_history  |         34349056
 2017-02-09 06:12:24.122466+01 | 1486617144.12247 | pgbench_branches |          1155072

 2017-02-09 06:12:25.236402+01 | 1486617145.2364 | pgbench_accounts |        694558720
 2017-02-09 06:12:25.236402+01 | 1486617145.2364 | pgbench_tellers  |           827392
 2017-02-09 06:12:25.236402+01 | 1486617145.2364 | pgbench_history  |         34881536
 2017-02-09 06:12:25.236402+01 | 1486617145.2364 | pgbench_branches |          1155072

 2017-02-09 06:12:26.348488+01 | 1486617146.34849 | pgbench_accounts |        694558720
 2017-02-09 06:12:26.348488+01 | 1486617146.34849 | pgbench_tellers  |           827392
 2017-02-09 06:12:26.348488+01 | 1486617146.34849 | pgbench_history  |         35405824
 2017-02-09 06:12:26.348488+01 | 1486617146.34849 | pgbench_branches |          1155072

 2017-02-09 06:12:27.454224+01 | 1486617147.45422 | pgbench_accounts |        694558720
 2017-02-09 06:12:27.454224+01 | 1486617147.45422 | pgbench_tellers  |           827392
 2017-02-09 06:12:27.454224+01 | 1486617147.45422 | pgbench_history  |         35897344
 2017-02-09 06:12:27.454224+01 | 1486617147.45422 | pgbench_branches |          1155072

 2017-02-09 06:12:28.606181+01 | 1486617148.60618 | pgbench_accounts |        694558720
 2017-02-09 06:12:28.606181+01 | 1486617148.60618 | pgbench_tellers  |           827392
 2017-02-09 06:12:28.606181+01 | 1486617148.60618 | pgbench_history  |         36413440
 2017-02-09 06:12:28.606181+01 | 1486617148.60618 | pgbench_branches |          1155072

 2017-02-09 06:12:29.729379+01 | 1486617149.72938 | pgbench_accounts |        694558720
 2017-02-09 06:12:29.729379+01 | 1486617149.72938 | pgbench_tellers  |           827392
 2017-02-09 06:12:29.729379+01 | 1486617149.72938 | pgbench_history  |         36921344
 2017-02-09 06:12:29.729379+01 | 1486617149.72938 | pgbench_branches |          1155072

 2017-02-09 06:12:30.854121+01 | 1486617150.85412 | pgbench_accounts |        694558720
 2017-02-09 06:12:30.854121+01 | 1486617150.85412 | pgbench_tellers  |           827392
 2017-02-09 06:12:30.854121+01 | 1486617150.85412 | pgbench_history  |         37421056
 2017-02-09 06:12:30.854121+01 | 1486617150.85412 | pgbench_branches |          1155072

 2017-02-09 06:12:32.01934+01 | 1486617152.01934 | pgbench_accounts |        694558720
 2017-02-09 06:12:32.01934+01 | 1486617152.01934 | pgbench_tellers  |           827392
 2017-02-09 06:12:32.01934+01 | 1486617152.01934 | pgbench_history  |         37986304
 2017-02-09 06:12:32.01934+01 | 1486617152.01934 | pgbench_branches |          1155072

 2017-02-09 06:12:33.117281+01 | 1486617153.11728 | pgbench_accounts |        694558720
 2017-02-09 06:12:33.117281+01 | 1486617153.11728 | pgbench_tellers  |           827392
 2017-02-09 06:12:33.117281+01 | 1486617153.11728 | pgbench_history  |         38469632
 2017-02-09 06:12:33.117281+01 | 1486617153.11728 | pgbench_branches |          1155072

 2017-02-09 06:12:34.293703+01 | 1486617154.2937 | pgbench_accounts |        694558720
 2017-02-09 06:12:34.293703+01 | 1486617154.2937 | pgbench_tellers  |           827392
 2017-02-09 06:12:34.293703+01 | 1486617154.2937 | pgbench_history  |         39346176
 2017-02-09 06:12:34.293703+01 | 1486617154.2937 | pgbench_branches |          1155072

 2017-02-09 06:12:35.397115+01 | 1486617155.39711 | pgbench_accounts |        694558720
 2017-02-09 06:12:35.397115+01 | 1486617155.39711 | pgbench_tellers  |           827392
 2017-02-09 06:12:35.397115+01 | 1486617155.39711 | pgbench_history  |         39870464
 2017-02-09 06:12:35.397115+01 | 1486617155.39711 | pgbench_branches |          1155072

 2017-02-09 06:12:36.525923+01 | 1486617156.52592 | pgbench_accounts |        694558720
 2017-02-09 06:12:36.525923+01 | 1486617156.52592 | pgbench_tellers  |           827392
 2017-02-09 06:12:36.525923+01 | 1486617156.52592 | pgbench_history  |         40550400
 2017-02-09 06:12:36.525923+01 | 1486617156.52592 | pgbench_branches |          1155072

 2017-02-09 06:12:37.722268+01 | 1486617157.72227 | pgbench_accounts |        694558720
 2017-02-09 06:12:37.722268+01 | 1486617157.72227 | pgbench_tellers  |           827392
 2017-02-09 06:12:37.722268+01 | 1486617157.72227 | pgbench_history  |         40681472
 2017-02-09 06:12:37.722268+01 | 1486617157.72227 | pgbench_branches |          1155072

 2017-02-09 06:12:38.867472+01 | 1486617158.86747 | pgbench_accounts |        694558720
 2017-02-09 06:12:38.867472+01 | 1486617158.86747 | pgbench_tellers  |           827392
 2017-02-09 06:12:38.867472+01 | 1486617158.86747 | pgbench_history  |         41246720
 2017-02-09 06:12:38.867472+01 | 1486617158.86747 | pgbench_branches |          1155072

 2017-02-09 06:12:40.031293+01 | 1486617160.03129 | pgbench_accounts |        694558720
 2017-02-09 06:12:40.031293+01 | 1486617160.03129 | pgbench_tellers  |           827392
 2017-02-09 06:12:40.031293+01 | 1486617160.03129 | pgbench_history  |         41811968
 2017-02-09 06:12:40.031293+01 | 1486617160.03129 | pgbench_branches |          1155072

 2017-02-09 06:12:41.094413+01 | 1486617161.09441 | pgbench_accounts |        694558720
 2017-02-09 06:12:41.094413+01 | 1486617161.09441 | pgbench_tellers  |           827392
 2017-02-09 06:12:41.094413+01 | 1486617161.09441 | pgbench_history  |         42311680
 2017-02-09 06:12:41.094413+01 | 1486617161.09441 | pgbench_branches |          1155072

 2017-02-09 06:12:42.186748+01 | 1486617162.18675 | pgbench_accounts |        694558720
 2017-02-09 06:12:42.186748+01 | 1486617162.18675 | pgbench_tellers  |           827392
 2017-02-09 06:12:42.186748+01 | 1486617162.18675 | pgbench_history  |         42827776
 2017-02-09 06:12:42.186748+01 | 1486617162.18675 | pgbench_branches |          1155072

 2017-02-09 06:12:43.306189+01 | 1486617163.30619 | pgbench_accounts |        694558720
 2017-02-09 06:12:43.306189+01 | 1486617163.30619 | pgbench_tellers  |           827392
 2017-02-09 06:12:43.306189+01 | 1486617163.30619 | pgbench_history  |         43368448
 2017-02-09 06:12:43.306189+01 | 1486617163.30619 | pgbench_branches |          1155072

 2017-02-09 06:12:44.479768+01 | 1486617164.47977 | pgbench_accounts |        694558720
 2017-02-09 06:12:44.479768+01 | 1486617164.47977 | pgbench_tellers  |           827392
 2017-02-09 06:12:44.479768+01 | 1486617164.47977 | pgbench_history  |         43909120
 2017-02-09 06:12:44.479768+01 | 1486617164.47977 | pgbench_branches |          1155072

 2017-02-09 06:12:45.619003+01 | 1486617165.619 | pgbench_accounts |        694558720
 2017-02-09 06:12:45.619003+01 | 1486617165.619 | pgbench_tellers  |           827392
 2017-02-09 06:12:45.619003+01 | 1486617165.619 | pgbench_history  |         44433408
 2017-02-09 06:12:45.619003+01 | 1486617165.619 | pgbench_branches |          1155072

 2017-02-09 06:12:46.782504+01 | 1486617166.7825 | pgbench_accounts |        694558720
 2017-02-09 06:12:46.782504+01 | 1486617166.7825 | pgbench_tellers  |           827392
 2017-02-09 06:12:46.782504+01 | 1486617166.7825 | pgbench_history  |         44982272
 2017-02-09 06:12:46.782504+01 | 1486617166.7825 | pgbench_branches |          1155072

 2017-02-09 06:12:47.884464+01 | 1486617167.88446 | pgbench_accounts |        694558720
 2017-02-09 06:12:47.884464+01 | 1486617167.88446 | pgbench_tellers  |           827392
 2017-02-09 06:12:47.884464+01 | 1486617167.88446 | pgbench_history  |         45514752
 2017-02-09 06:12:47.884464+01 | 1486617167.88446 | pgbench_branches |          1155072

 2017-02-09 06:12:49.023846+01 | 1486617169.02385 | pgbench_accounts |        694558720
 2017-02-09 06:12:49.023846+01 | 1486617169.02385 | pgbench_tellers  |           827392
 2017-02-09 06:12:49.023846+01 | 1486617169.02385 | pgbench_history  |         46055424
 2017-02-09 06:12:49.023846+01 | 1486617169.02385 | pgbench_branches |          1155072

 2017-02-09 06:12:50.210063+01 | 1486617170.21006 | pgbench_accounts |        694558720
 2017-02-09 06:12:50.210063+01 | 1486617170.21006 | pgbench_tellers  |           827392
 2017-02-09 06:12:50.210063+01 | 1486617170.21006 | pgbench_history  |         46612480
 2017-02-09 06:12:50.210063+01 | 1486617170.21006 | pgbench_branches |          1155072

 2017-02-09 06:12:51.349177+01 | 1486617171.34918 | pgbench_accounts |        694558720
 2017-02-09 06:12:51.349177+01 | 1486617171.34918 | pgbench_tellers  |           827392
 2017-02-09 06:12:51.349177+01 | 1486617171.34918 | pgbench_history  |         47128576
 2017-02-09 06:12:51.349177+01 | 1486617171.34918 | pgbench_branches |          1155072

 2017-02-09 06:12:52.472724+01 | 1486617172.47272 | pgbench_accounts |        694558720
 2017-02-09 06:12:52.472724+01 | 1486617172.47272 | pgbench_tellers  |           827392
 2017-02-09 06:12:52.472724+01 | 1486617172.47272 | pgbench_history  |         47652864
 2017-02-09 06:12:52.472724+01 | 1486617172.47272 | pgbench_branches |          1155072

 2017-02-09 06:12:53.640987+01 | 1486617173.64099 | pgbench_accounts |        694558720
 2017-02-09 06:12:53.640987+01 | 1486617173.64099 | pgbench_tellers  |           827392
 2017-02-09 06:12:53.640987+01 | 1486617173.64099 | pgbench_history  |         48226304
 2017-02-09 06:12:53.640987+01 | 1486617173.64099 | pgbench_branches |          1155072

 2017-02-09 06:12:54.804141+01 | 1486617174.80414 | pgbench_accounts |        694558720
 2017-02-09 06:12:54.804141+01 | 1486617174.80414 | pgbench_tellers  |           827392
 2017-02-09 06:12:54.804141+01 | 1486617174.80414 | pgbench_history  |         48758784
 2017-02-09 06:12:54.804141+01 | 1486617174.80414 | pgbench_branches |          1155072

 2017-02-09 06:12:55.916114+01 | 1486617175.91611 | pgbench_accounts |        694558720
 2017-02-09 06:12:55.916114+01 | 1486617175.91611 | pgbench_tellers  |           827392
 2017-02-09 06:12:55.916114+01 | 1486617175.91611 | pgbench_history  |         49291264
 2017-02-09 06:12:55.916114+01 | 1486617175.91611 | pgbench_branches |          1155072

 2017-02-09 06:12:57.060486+01 | 1486617177.06049 | pgbench_accounts |        694558720
 2017-02-09 06:12:57.060486+01 | 1486617177.06049 | pgbench_tellers  |           827392
 2017-02-09 06:12:57.060486+01 | 1486617177.06049 | pgbench_history  |         49823744
 2017-02-09 06:12:57.060486+01 | 1486617177.06049 | pgbench_branches |          1155072

 2017-02-09 06:12:58.20505+01 | 1486617178.20505 | pgbench_accounts |        694558720
 2017-02-09 06:12:58.20505+01 | 1486617178.20505 | pgbench_tellers  |           827392
 2017-02-09 06:12:58.20505+01 | 1486617178.20505 | pgbench_history  |         50364416
 2017-02-09 06:12:58.20505+01 | 1486617178.20505 | pgbench_branches |          1155072

 2017-02-09 06:12:59.318915+01 | 1486617179.31891 | pgbench_accounts |        694558720
 2017-02-09 06:12:59.318915+01 | 1486617179.31891 | pgbench_tellers  |           827392
 2017-02-09 06:12:59.318915+01 | 1486617179.31891 | pgbench_history  |         50880512
 2017-02-09 06:12:59.318915+01 | 1486617179.31891 | pgbench_branches |          1155072

 2017-02-09 06:13:00.477322+01 | 1486617180.47732 | pgbench_accounts |        694558720
 2017-02-09 06:13:00.477322+01 | 1486617180.47732 | pgbench_tellers  |           827392
 2017-02-09 06:13:00.477322+01 | 1486617180.47732 | pgbench_history  |         51445760
 2017-02-09 06:13:00.477322+01 | 1486617180.47732 | pgbench_branches |          1155072

 2017-02-09 06:13:01.601092+01 | 1486617181.60109 | pgbench_accounts |        694558720
 2017-02-09 06:13:01.601092+01 | 1486617181.60109 | pgbench_tellers  |           827392
 2017-02-09 06:13:01.601092+01 | 1486617181.60109 | pgbench_history  |         51961856
 2017-02-09 06:13:01.601092+01 | 1486617181.60109 | pgbench_branches |          1155072

 2017-02-09 06:13:02.760691+01 | 1486617182.76069 | pgbench_accounts |        694558720
 2017-02-09 06:13:02.760691+01 | 1486617182.76069 | pgbench_tellers  |           827392
 2017-02-09 06:13:02.760691+01 | 1486617182.76069 | pgbench_history  |         52510720
 2017-02-09 06:13:02.760691+01 | 1486617182.76069 | pgbench_branches |          1155072

 2017-02-09 06:13:03.875218+01 | 1486617183.87522 | pgbench_accounts |        694558720
 2017-02-09 06:13:03.875218+01 | 1486617183.87522 | pgbench_tellers  |           827392
 2017-02-09 06:13:03.875218+01 | 1486617183.87522 | pgbench_history  |         53067776
 2017-02-09 06:13:03.875218+01 | 1486617183.87522 | pgbench_branches |          1155072

 2017-02-09 06:13:05.013596+01 | 1486617185.0136 | pgbench_accounts |        694558720
 2017-02-09 06:13:05.013596+01 | 1486617185.0136 | pgbench_tellers  |           827392
 2017-02-09 06:13:05.013596+01 | 1486617185.0136 | pgbench_history  |         53600256
 2017-02-09 06:13:05.013596+01 | 1486617185.0136 | pgbench_branches |          1155072

 2017-02-09 06:13:06.19087+01 | 1486617186.19087 | pgbench_accounts |        694558720
 2017-02-09 06:13:06.19087+01 | 1486617186.19087 | pgbench_tellers  |           827392
 2017-02-09 06:13:06.19087+01 | 1486617186.19087 | pgbench_history  |         54132736
 2017-02-09 06:13:06.19087+01 | 1486617186.19087 | pgbench_branches |          1155072

 2017-02-09 06:13:07.282889+01 | 1486617187.28289 | pgbench_accounts |        694558720
 2017-02-09 06:13:07.282889+01 | 1486617187.28289 | pgbench_tellers  |           827392
 2017-02-09 06:13:07.282889+01 | 1486617187.28289 | pgbench_history  |         54657024
 2017-02-09 06:13:07.282889+01 | 1486617187.28289 | pgbench_branches |          1155072

 2017-02-09 06:13:08.422979+01 | 1486617188.42298 | pgbench_accounts |        694558720
 2017-02-09 06:13:08.422979+01 | 1486617188.42298 | pgbench_tellers  |           827392
 2017-02-09 06:13:08.422979+01 | 1486617188.42298 | pgbench_history  |         55214080
 2017-02-09 06:13:08.422979+01 | 1486617188.42298 | pgbench_branches |          1155072

 2017-02-09 06:13:09.558785+01 | 1486617189.55878 | pgbench_accounts |        694558720
 2017-02-09 06:13:09.558785+01 | 1486617189.55878 | pgbench_tellers  |           827392
 2017-02-09 06:13:09.558785+01 | 1486617189.55878 | pgbench_history  |         55738368
 2017-02-09 06:13:09.558785+01 | 1486617189.55878 | pgbench_branches |          1155072

 2017-02-09 06:13:10.715051+01 | 1486617190.71505 | pgbench_accounts |        694558720
 2017-02-09 06:13:10.715051+01 | 1486617190.71505 | pgbench_tellers  |           827392
 2017-02-09 06:13:10.715051+01 | 1486617190.71505 | pgbench_history  |         56410112
 2017-02-09 06:13:10.715051+01 | 1486617190.71505 | pgbench_branches |          1155072

 2017-02-09 06:13:11.878454+01 | 1486617191.87845 | pgbench_accounts |        694558720
 2017-02-09 06:13:11.878454+01 | 1486617191.87845 | pgbench_tellers  |           827392
 2017-02-09 06:13:11.878454+01 | 1486617191.87845 | pgbench_history  |         57335808
 2017-02-09 06:13:11.878454+01 | 1486617191.87845 | pgbench_branches |          1155072

 2017-02-09 06:13:13.033789+01 | 1486617193.03379 | pgbench_accounts |        694558720
 2017-02-09 06:13:13.033789+01 | 1486617193.03379 | pgbench_tellers  |           827392
 2017-02-09 06:13:13.033789+01 | 1486617193.03379 | pgbench_history  |         57335808
 2017-02-09 06:13:13.033789+01 | 1486617193.03379 | pgbench_branches |          1155072

 2017-02-09 06:13:14.206983+01 | 1486617194.20698 | pgbench_accounts |        694558720
 2017-02-09 06:13:14.206983+01 | 1486617194.20698 | pgbench_tellers  |           827392
 2017-02-09 06:13:14.206983+01 | 1486617194.20698 | pgbench_history  |         58073088
 2017-02-09 06:13:14.206983+01 | 1486617194.20698 | pgbench_branches |          1155072

 2017-02-09 06:13:15.326712+01 | 1486617195.32671 | pgbench_accounts |        694558720
 2017-02-09 06:13:15.326712+01 | 1486617195.32671 | pgbench_tellers  |           827392
 2017-02-09 06:13:15.326712+01 | 1486617195.32671 | pgbench_history  |         58400768
 2017-02-09 06:13:15.326712+01 | 1486617195.32671 | pgbench_branches |          1155072

 2017-02-09 06:13:16.507352+01 | 1486617196.50735 | pgbench_accounts |        694558720
 2017-02-09 06:13:16.507352+01 | 1486617196.50735 | pgbench_tellers  |           827392
 2017-02-09 06:13:16.507352+01 | 1486617196.50735 | pgbench_history  |         58941440
 2017-02-09 06:13:16.507352+01 | 1486617196.50735 | pgbench_branches |          1155072

 2017-02-09 06:13:17.675922+01 | 1486617197.67592 | pgbench_accounts |        694558720
 2017-02-09 06:13:17.675922+01 | 1486617197.67592 | pgbench_tellers  |           827392
 2017-02-09 06:13:17.675922+01 | 1486617197.67592 | pgbench_history  |         59572224
 2017-02-09 06:13:17.675922+01 | 1486617197.67592 | pgbench_branches |          1155072

 2017-02-09 06:13:18.848656+01 | 1486617198.84866 | pgbench_accounts |        694558720
 2017-02-09 06:13:18.848656+01 | 1486617198.84866 | pgbench_tellers  |           827392
 2017-02-09 06:13:18.848656+01 | 1486617198.84866 | pgbench_history  |         60096512
 2017-02-09 06:13:18.848656+01 | 1486617198.84866 | pgbench_branches |          1155072

 2017-02-09 06:13:19.994989+01 | 1486617199.99499 | pgbench_accounts |        694558720
 2017-02-09 06:13:19.994989+01 | 1486617199.99499 | pgbench_tellers  |           827392
 2017-02-09 06:13:19.994989+01 | 1486617199.99499 | pgbench_history  |         60653568
 2017-02-09 06:13:19.994989+01 | 1486617199.99499 | pgbench_branches |          1155072

 2017-02-09 06:13:21.158249+01 | 1486617201.15825 | pgbench_accounts |        694558720
 2017-02-09 06:13:21.158249+01 | 1486617201.15825 | pgbench_tellers  |           827392
 2017-02-09 06:13:21.158249+01 | 1486617201.15825 | pgbench_history  |         61194240
 2017-02-09 06:13:21.158249+01 | 1486617201.15825 | pgbench_branches |          1155072

 2017-02-09 06:13:22.242853+01 | 1486617202.24285 | pgbench_accounts |        694558720
 2017-02-09 06:13:22.242853+01 | 1486617202.24285 | pgbench_tellers  |           827392
 2017-02-09 06:13:22.242853+01 | 1486617202.24285 | pgbench_history  |         61693952
 2017-02-09 06:13:22.242853+01 | 1486617202.24285 | pgbench_branches |          1155072

 2017-02-09 06:13:23.320569+01 | 1486617203.32057 | pgbench_accounts |        694558720
 2017-02-09 06:13:23.320569+01 | 1486617203.32057 | pgbench_tellers  |           827392
 2017-02-09 06:13:23.320569+01 | 1486617203.32057 | pgbench_history  |         62865408
 2017-02-09 06:13:23.320569+01 | 1486617203.32057 | pgbench_branches |          1155072

 2017-02-09 06:13:24.433597+01 | 1486617204.4336 | pgbench_accounts |        694558720
 2017-02-09 06:13:24.433597+01 | 1486617204.4336 | pgbench_tellers  |           827392
 2017-02-09 06:13:24.433597+01 | 1486617204.4336 | pgbench_history  |         62865408
 2017-02-09 06:13:24.433597+01 | 1486617204.4336 | pgbench_branches |          1155072

 2017-02-09 06:13:25.525439+01 | 1486617205.52544 | pgbench_accounts |        694558720
 2017-02-09 06:13:25.525439+01 | 1486617205.52544 | pgbench_tellers  |           827392
 2017-02-09 06:13:25.525439+01 | 1486617205.52544 | pgbench_history  |         63242240
 2017-02-09 06:13:25.525439+01 | 1486617205.52544 | pgbench_branches |          1155072

 2017-02-09 06:13:26.710114+01 | 1486617206.71011 | pgbench_accounts |        694558720
 2017-02-09 06:13:26.710114+01 | 1486617206.71011 | pgbench_tellers  |           827392
 2017-02-09 06:13:26.710114+01 | 1486617206.71011 | pgbench_history  |         63905792
 2017-02-09 06:13:26.710114+01 | 1486617206.71011 | pgbench_branches |          1155072

 2017-02-09 06:13:27.882377+01 | 1486617207.88238 | pgbench_accounts |        694558720
 2017-02-09 06:13:27.882377+01 | 1486617207.88238 | pgbench_tellers  |           827392
 2017-02-09 06:13:27.882377+01 | 1486617207.88238 | pgbench_history  |         64585728
 2017-02-09 06:13:27.882377+01 | 1486617207.88238 | pgbench_branches |          1155072

 2017-02-09 06:13:29.001353+01 | 1486617209.00135 | pgbench_accounts |        694558720
 2017-02-09 06:13:29.001353+01 | 1486617209.00135 | pgbench_tellers  |           827392
 2017-02-09 06:13:29.001353+01 | 1486617209.00135 | pgbench_history  |         64831488
 2017-02-09 06:13:29.001353+01 | 1486617209.00135 | pgbench_branches |          1155072

 2017-02-09 06:13:30.145802+01 | 1486617210.1458 | pgbench_accounts |        694558720
 2017-02-09 06:13:30.145802+01 | 1486617210.1458 | pgbench_tellers  |           827392
 2017-02-09 06:13:30.145802+01 | 1486617210.1458 | pgbench_history  |         65306624
 2017-02-09 06:13:30.145802+01 | 1486617210.1458 | pgbench_branches |          1155072

 2017-02-09 06:13:31.361108+01 | 1486617211.36111 | pgbench_accounts |        694558720
 2017-02-09 06:13:31.361108+01 | 1486617211.36111 | pgbench_tellers  |           827392
 2017-02-09 06:13:31.361108+01 | 1486617211.36111 | pgbench_history  |         65863680
 2017-02-09 06:13:31.361108+01 | 1486617211.36111 | pgbench_branches |          1155072

 2017-02-09 06:13:32.542668+01 | 1486617212.54267 | pgbench_accounts |        694558720
 2017-02-09 06:13:32.542668+01 | 1486617212.54267 | pgbench_tellers  |           827392
 2017-02-09 06:13:32.542668+01 | 1486617212.54267 | pgbench_history  |         66478080
 2017-02-09 06:13:32.542668+01 | 1486617212.54267 | pgbench_branches |          1155072

 2017-02-09 06:13:33.69456+01 | 1486617213.69456 | pgbench_accounts |        694558720
 2017-02-09 06:13:33.69456+01 | 1486617213.69456 | pgbench_tellers  |           827392
 2017-02-09 06:13:33.69456+01 | 1486617213.69456 | pgbench_history  |         67190784
 2017-02-09 06:13:33.69456+01 | 1486617213.69456 | pgbench_branches |          1155072

 2017-02-09 06:13:34.807544+01 | 1486617214.80754 | pgbench_accounts |        694558720
 2017-02-09 06:13:34.807544+01 | 1486617214.80754 | pgbench_tellers  |           827392
 2017-02-09 06:13:34.807544+01 | 1486617214.80754 | pgbench_history  |         67887104
 2017-02-09 06:13:34.807544+01 | 1486617214.80754 | pgbench_branches |          1155072

 2017-02-09 06:13:35.959484+01 | 1486617215.95948 | pgbench_accounts |        694558720
 2017-02-09 06:13:35.959484+01 | 1486617215.95948 | pgbench_tellers  |           827392
 2017-02-09 06:13:35.959484+01 | 1486617215.95948 | pgbench_history  |         68567040
 2017-02-09 06:13:35.959484+01 | 1486617215.95948 | pgbench_branches |          1155072

 2017-02-09 06:13:37.094266+01 | 1486617217.09427 | pgbench_accounts |        694558720
 2017-02-09 06:13:37.094266+01 | 1486617217.09427 | pgbench_tellers  |           827392
 2017-02-09 06:13:37.094266+01 | 1486617217.09427 | pgbench_history  |         68567040
 2017-02-09 06:13:37.094266+01 | 1486617217.09427 | pgbench_branches |          1155072

 2017-02-09 06:13:38.263356+01 | 1486617218.26336 | pgbench_accounts |        694558720
 2017-02-09 06:13:38.263356+01 | 1486617218.26336 | pgbench_tellers  |           827392
 2017-02-09 06:13:38.263356+01 | 1486617218.26336 | pgbench_history  |         69574656
 2017-02-09 06:13:38.263356+01 | 1486617218.26336 | pgbench_branches |          1155072

 2017-02-09 06:13:39.390952+01 | 1486617219.39095 | pgbench_accounts |        694558720
 2017-02-09 06:13:39.390952+01 | 1486617219.39095 | pgbench_tellers  |           827392
 2017-02-09 06:13:39.390952+01 | 1486617219.39095 | pgbench_history  |         70582272
 2017-02-09 06:13:39.390952+01 | 1486617219.39095 | pgbench_branches |          1155072

 2017-02-09 06:13:40.525266+01 | 1486617220.52527 | pgbench_accounts |        694558720
 2017-02-09 06:13:40.525266+01 | 1486617220.52527 | pgbench_tellers  |           827392
 2017-02-09 06:13:40.525266+01 | 1486617220.52527 | pgbench_history  |         70582272
 2017-02-09 06:13:40.525266+01 | 1486617220.52527 | pgbench_branches |          1155072

 2017-02-09 06:13:41.62528+01 | 1486617221.62528 | pgbench_accounts |        694558720
 2017-02-09 06:13:41.62528+01 | 1486617221.62528 | pgbench_tellers  |           827392
 2017-02-09 06:13:41.62528+01 | 1486617221.62528 | pgbench_history  |         70934528
 2017-02-09 06:13:41.62528+01 | 1486617221.62528 | pgbench_branches |          1155072

 2017-02-09 06:13:42.78229+01 | 1486617222.78229 | pgbench_accounts |        694558720
 2017-02-09 06:13:42.78229+01 | 1486617222.78229 | pgbench_tellers  |           827392
 2017-02-09 06:13:42.78229+01 | 1486617222.78229 | pgbench_history  |         71368704
 2017-02-09 06:13:42.78229+01 | 1486617222.78229 | pgbench_branches |          1155072

 2017-02-09 06:13:43.927355+01 | 1486617223.92736 | pgbench_accounts |        694558720
 2017-02-09 06:13:43.927355+01 | 1486617223.92736 | pgbench_tellers  |           827392
 2017-02-09 06:13:43.927355+01 | 1486617223.92736 | pgbench_history  |         71868416
 2017-02-09 06:13:43.927355+01 | 1486617223.92736 | pgbench_branches |          1155072

 2017-02-09 06:13:45.03418+01 | 1486617225.03418 | pgbench_accounts |        694558720
 2017-02-09 06:13:45.03418+01 | 1486617225.03418 | pgbench_tellers  |           827392
 2017-02-09 06:13:45.03418+01 | 1486617225.03418 | pgbench_history  |         72343552
 2017-02-09 06:13:45.03418+01 | 1486617225.03418 | pgbench_branches |          1155072

 2017-02-09 06:13:46.186872+01 | 1486617226.18687 | pgbench_accounts |        694558720
 2017-02-09 06:13:46.186872+01 | 1486617226.18687 | pgbench_tellers  |           827392
 2017-02-09 06:13:46.186872+01 | 1486617226.18687 | pgbench_history  |         72892416
 2017-02-09 06:13:46.186872+01 | 1486617226.18687 | pgbench_branches |          1155072

 2017-02-09 06:13:47.354527+01 | 1486617227.35453 | pgbench_accounts |        694558720
 2017-02-09 06:13:47.354527+01 | 1486617227.35453 | pgbench_tellers  |           827392
 2017-02-09 06:13:47.354527+01 | 1486617227.35453 | pgbench_history  |         73424896
 2017-02-09 06:13:47.354527+01 | 1486617227.35453 | pgbench_branches |          1155072

 2017-02-09 06:13:48.477847+01 | 1486617228.47785 | pgbench_accounts |        694558720
 2017-02-09 06:13:48.477847+01 | 1486617228.47785 | pgbench_tellers  |           827392
 2017-02-09 06:13:48.477847+01 | 1486617228.47785 | pgbench_history  |         73949184
 2017-02-09 06:13:48.477847+01 | 1486617228.47785 | pgbench_branches |          1155072

 2017-02-09 06:13:49.629351+01 | 1486617229.62935 | pgbench_accounts |        694558720
 2017-02-09 06:13:49.629351+01 | 1486617229.62935 | pgbench_tellers  |           827392
 2017-02-09 06:13:49.629351+01 | 1486617229.62935 | pgbench_history  |         74489856
 2017-02-09 06:13:49.629351+01 | 1486617229.62935 | pgbench_branches |          1155072

 2017-02-09 06:13:50.770415+01 | 1486617230.77042 | pgbench_accounts |        694558720
 2017-02-09 06:13:50.770415+01 | 1486617230.77042 | pgbench_tellers  |           827392
 2017-02-09 06:13:50.770415+01 | 1486617230.77042 | pgbench_history  |         75022336
 2017-02-09 06:13:50.770415+01 | 1486617230.77042 | pgbench_branches |          1155072

 2017-02-09 06:13:51.968191+01 | 1486617231.96819 | pgbench_accounts |        694558720
 2017-02-09 06:13:51.968191+01 | 1486617231.96819 | pgbench_tellers  |           827392
 2017-02-09 06:13:51.968191+01 | 1486617231.96819 | pgbench_history  |         75587584
 2017-02-09 06:13:51.968191+01 | 1486617231.96819 | pgbench_branches |          1155072

 2017-02-09 06:13:53.113887+01 | 1486617233.11389 | pgbench_accounts |        694558720
 2017-02-09 06:13:53.113887+01 | 1486617233.11389 | pgbench_tellers  |           827392
 2017-02-09 06:13:53.113887+01 | 1486617233.11389 | pgbench_history  |         76128256
 2017-02-09 06:13:53.113887+01 | 1486617233.11389 | pgbench_branches |          1155072

 2017-02-09 06:13:54.269177+01 | 1486617234.26918 | pgbench_accounts |        694558720
 2017-02-09 06:13:54.269177+01 | 1486617234.26918 | pgbench_tellers  |           827392
 2017-02-09 06:13:54.269177+01 | 1486617234.26918 | pgbench_history  |         76677120
 2017-02-09 06:13:54.269177+01 | 1486617234.26918 | pgbench_branches |          1155072

 2017-02-09 06:13:55.39879+01 | 1486617235.39879 | pgbench_accounts |        694558720
 2017-02-09 06:13:55.39879+01 | 1486617235.39879 | pgbench_tellers  |           827392
 2017-02-09 06:13:55.39879+01 | 1486617235.39879 | pgbench_history  |         77185024
 2017-02-09 06:13:55.39879+01 | 1486617235.39879 | pgbench_branches |          1155072

 2017-02-09 06:13:56.496017+01 | 1486617236.49602 | pgbench_accounts |        694558720
 2017-02-09 06:13:56.496017+01 | 1486617236.49602 | pgbench_tellers  |           827392
 2017-02-09 06:13:56.496017+01 | 1486617236.49602 | pgbench_history  |         77709312
 2017-02-09 06:13:56.496017+01 | 1486617236.49602 | pgbench_branches |          1155072

 2017-02-09 06:13:57.636054+01 | 1486617237.63605 | pgbench_accounts |        694558720
 2017-02-09 06:13:57.636054+01 | 1486617237.63605 | pgbench_tellers  |           827392
 2017-02-09 06:13:57.636054+01 | 1486617237.63605 | pgbench_history  |         78241792
 2017-02-09 06:13:57.636054+01 | 1486617237.63605 | pgbench_branches |          1155072

 2017-02-09 06:13:58.799341+01 | 1486617238.79934 | pgbench_accounts |        694558720
 2017-02-09 06:13:58.799341+01 | 1486617238.79934 | pgbench_tellers  |           827392
 2017-02-09 06:13:58.799341+01 | 1486617238.79934 | pgbench_history  |         78790656
 2017-02-09 06:13:58.799341+01 | 1486617238.79934 | pgbench_branches |          1155072

 2017-02-09 06:13:59.899154+01 | 1486617239.89915 | pgbench_accounts |        694558720
 2017-02-09 06:13:59.899154+01 | 1486617239.89915 | pgbench_tellers  |           827392
 2017-02-09 06:13:59.899154+01 | 1486617239.89915 | pgbench_history  |         79306752
 2017-02-09 06:13:59.899154+01 | 1486617239.89915 | pgbench_branches |          1155072

 2017-02-09 06:14:01.01971+01 | 1486617241.01971 | pgbench_accounts |        694558720
 2017-02-09 06:14:01.01971+01 | 1486617241.01971 | pgbench_tellers  |           827392
 2017-02-09 06:14:01.01971+01 | 1486617241.01971 | pgbench_history  |         79822848
 2017-02-09 06:14:01.01971+01 | 1486617241.01971 | pgbench_branches |          1155072

 2017-02-09 06:14:02.186425+01 | 1486617242.18642 | pgbench_accounts |        694558720
 2017-02-09 06:14:02.186425+01 | 1486617242.18642 | pgbench_tellers  |           827392
 2017-02-09 06:14:02.186425+01 | 1486617242.18642 | pgbench_history  |         80404480
 2017-02-09 06:14:02.186425+01 | 1486617242.18642 | pgbench_branches |          1155072

 2017-02-09 06:14:03.332482+01 | 1486617243.33248 | pgbench_accounts |        694558720
 2017-02-09 06:14:03.332482+01 | 1486617243.33248 | pgbench_tellers  |           827392
 2017-02-09 06:14:03.332482+01 | 1486617243.33248 | pgbench_history  |         80928768
 2017-02-09 06:14:03.332482+01 | 1486617243.33248 | pgbench_branches |          1155072

 2017-02-09 06:14:04.474234+01 | 1486617244.47423 | pgbench_accounts |        694558720
 2017-02-09 06:14:04.474234+01 | 1486617244.47423 | pgbench_tellers  |           827392
 2017-02-09 06:14:04.474234+01 | 1486617244.47423 | pgbench_history  |         81461248
 2017-02-09 06:14:04.474234+01 | 1486617244.47423 | pgbench_branches |          1155072

 2017-02-09 06:14:05.635463+01 | 1486617245.63546 | pgbench_accounts |        694558720
 2017-02-09 06:14:05.635463+01 | 1486617245.63546 | pgbench_tellers  |           827392
 2017-02-09 06:14:05.635463+01 | 1486617245.63546 | pgbench_history  |         81993728
 2017-02-09 06:14:05.635463+01 | 1486617245.63546 | pgbench_branches |          1155072

 2017-02-09 06:14:06.782013+01 | 1486617246.78201 | pgbench_accounts |        694558720
 2017-02-09 06:14:06.782013+01 | 1486617246.78201 | pgbench_tellers  |           827392
 2017-02-09 06:14:06.782013+01 | 1486617246.78201 | pgbench_history  |         82526208
 2017-02-09 06:14:06.782013+01 | 1486617246.78201 | pgbench_branches |          1155072

 2017-02-09 06:14:07.886368+01 | 1486617247.88637 | pgbench_accounts |        694558720
 2017-02-09 06:14:07.886368+01 | 1486617247.88637 | pgbench_tellers  |           827392
 2017-02-09 06:14:07.886368+01 | 1486617247.88637 | pgbench_history  |         83050496
 2017-02-09 06:14:07.886368+01 | 1486617247.88637 | pgbench_branches |          1155072

 2017-02-09 06:14:09.007627+01 | 1486617249.00763 | pgbench_accounts |        694558720
 2017-02-09 06:14:09.007627+01 | 1486617249.00763 | pgbench_tellers  |           827392
 2017-02-09 06:14:09.007627+01 | 1486617249.00763 | pgbench_history  |         83599360
 2017-02-09 06:14:09.007627+01 | 1486617249.00763 | pgbench_branches |          1155072

 2017-02-09 06:14:10.161071+01 | 1486617250.16107 | pgbench_accounts |        694558720
 2017-02-09 06:14:10.161071+01 | 1486617250.16107 | pgbench_tellers  |           827392
 2017-02-09 06:14:10.161071+01 | 1486617250.16107 | pgbench_history  |         84123648
 2017-02-09 06:14:10.161071+01 | 1486617250.16107 | pgbench_branches |          1155072

 2017-02-09 06:14:11.293011+01 | 1486617251.29301 | pgbench_accounts |        694558720
 2017-02-09 06:14:11.293011+01 | 1486617251.29301 | pgbench_tellers  |           827392
 2017-02-09 06:14:11.293011+01 | 1486617251.29301 | pgbench_history  |         84647936
 2017-02-09 06:14:11.293011+01 | 1486617251.29301 | pgbench_branches |          1155072

 2017-02-09 06:14:12.460907+01 | 1486617252.46091 | pgbench_accounts |        694558720
 2017-02-09 06:14:12.460907+01 | 1486617252.46091 | pgbench_tellers  |           827392
 2017-02-09 06:14:12.460907+01 | 1486617252.46091 | pgbench_history  |         85213184
 2017-02-09 06:14:12.460907+01 | 1486617252.46091 | pgbench_branches |          1155072

 2017-02-09 06:14:13.590867+01 | 1486617253.59087 | pgbench_accounts |        694558720
 2017-02-09 06:14:13.590867+01 | 1486617253.59087 | pgbench_tellers  |           827392
 2017-02-09 06:14:13.590867+01 | 1486617253.59087 | pgbench_history  |         85737472
 2017-02-09 06:14:13.590867+01 | 1486617253.59087 | pgbench_branches |          1155072

 2017-02-09 06:14:14.672455+01 | 1486617254.67246 | pgbench_accounts |        694558720
 2017-02-09 06:14:14.672455+01 | 1486617254.67246 | pgbench_tellers  |           827392
 2017-02-09 06:14:14.672455+01 | 1486617254.67246 | pgbench_history  |         86245376
 2017-02-09 06:14:14.672455+01 | 1486617254.67246 | pgbench_branches |          1155072

 2017-02-09 06:14:15.791573+01 | 1486617255.79157 | pgbench_accounts |        694558720
 2017-02-09 06:14:15.791573+01 | 1486617255.79157 | pgbench_tellers  |           827392
 2017-02-09 06:14:15.791573+01 | 1486617255.79157 | pgbench_history  |         86777856
 2017-02-09 06:14:15.791573+01 | 1486617255.79157 | pgbench_branches |          1155072

 2017-02-09 06:14:16.959453+01 | 1486617256.95945 | pgbench_accounts |        694558720
 2017-02-09 06:14:16.959453+01 | 1486617256.95945 | pgbench_tellers  |           827392
 2017-02-09 06:14:16.959453+01 | 1486617256.95945 | pgbench_history  |         87343104
 2017-02-09 06:14:16.959453+01 | 1486617256.95945 | pgbench_branches |          1155072

 2017-02-09 06:14:18.099558+01 | 1486617258.09956 | pgbench_accounts |        694558720
 2017-02-09 06:14:18.099558+01 | 1486617258.09956 | pgbench_tellers  |           827392
 2017-02-09 06:14:18.099558+01 | 1486617258.09956 | pgbench_history  |         87851008
 2017-02-09 06:14:18.099558+01 | 1486617258.09956 | pgbench_branches |          1155072

 2017-02-09 06:14:19.300556+01 | 1486617259.30056 | pgbench_accounts |        694558720
 2017-02-09 06:14:19.300556+01 | 1486617259.30056 | pgbench_tellers  |           827392
 2017-02-09 06:14:19.300556+01 | 1486617259.30056 | pgbench_history  |         88416256
 2017-02-09 06:14:19.300556+01 | 1486617259.30056 | pgbench_branches |          1155072

 2017-02-09 06:14:20.455259+01 | 1486617260.45526 | pgbench_accounts |        694558720
 2017-02-09 06:14:20.455259+01 | 1486617260.45526 | pgbench_tellers  |           827392
 2017-02-09 06:14:20.455259+01 | 1486617260.45526 | pgbench_history  |         88956928
 2017-02-09 06:14:20.455259+01 | 1486617260.45526 | pgbench_branches |          1155072

 2017-02-09 06:14:21.598594+01 | 1486617261.59859 | pgbench_accounts |        694558720
 2017-02-09 06:14:21.598594+01 | 1486617261.59859 | pgbench_tellers  |           827392
 2017-02-09 06:14:21.598594+01 | 1486617261.59859 | pgbench_history  |         89489408
 2017-02-09 06:14:21.598594+01 | 1486617261.59859 | pgbench_branches |          1155072

 2017-02-09 06:14:22.768788+01 | 1486617262.76879 | pgbench_accounts |        694558720
 2017-02-09 06:14:22.768788+01 | 1486617262.76879 | pgbench_tellers  |           827392
 2017-02-09 06:14:22.768788+01 | 1486617262.76879 | pgbench_history  |         90062848
 2017-02-09 06:14:22.768788+01 | 1486617262.76879 | pgbench_branches |          1155072

 2017-02-09 06:14:23.937163+01 | 1486617263.93716 | pgbench_accounts |        694558720
 2017-02-09 06:14:23.937163+01 | 1486617263.93716 | pgbench_tellers  |           827392
 2017-02-09 06:14:23.937163+01 | 1486617263.93716 | pgbench_history  |         90595328
 2017-02-09 06:14:23.937163+01 | 1486617263.93716 | pgbench_branches |          1155072

 2017-02-09 06:14:25.037763+01 | 1486617265.03776 | pgbench_accounts |        694558720
 2017-02-09 06:14:25.037763+01 | 1486617265.03776 | pgbench_tellers  |           827392
 2017-02-09 06:14:25.037763+01 | 1486617265.03776 | pgbench_history  |         91103232
 2017-02-09 06:14:25.037763+01 | 1486617265.03776 | pgbench_branches |          1155072

 2017-02-09 06:14:26.195463+01 | 1486617266.19546 | pgbench_accounts |        694558720
 2017-02-09 06:14:26.195463+01 | 1486617266.19546 | pgbench_tellers  |           827392
 2017-02-09 06:14:26.195463+01 | 1486617266.19546 | pgbench_history  |         91652096
 2017-02-09 06:14:26.195463+01 | 1486617266.19546 | pgbench_branches |          1155072

 2017-02-09 06:14:27.375847+01 | 1486617267.37585 | pgbench_accounts |        694558720
 2017-02-09 06:14:27.375847+01 | 1486617267.37585 | pgbench_tellers  |           827392
 2017-02-09 06:14:27.375847+01 | 1486617267.37585 | pgbench_history  |         92192768
 2017-02-09 06:14:27.375847+01 | 1486617267.37585 | pgbench_branches |          1155072

 2017-02-09 06:14:28.519971+01 | 1486617268.51997 | pgbench_accounts |        694558720
 2017-02-09 06:14:28.519971+01 | 1486617268.51997 | pgbench_tellers  |           827392
 2017-02-09 06:14:28.519971+01 | 1486617268.51997 | pgbench_history  |         92823552
 2017-02-09 06:14:28.519971+01 | 1486617268.51997 | pgbench_branches |          1155072

 2017-02-09 06:14:29.660355+01 | 1486617269.66036 | pgbench_accounts |        694558720
 2017-02-09 06:14:29.660355+01 | 1486617269.66036 | pgbench_tellers  |           827392
 2017-02-09 06:14:29.660355+01 | 1486617269.66036 | pgbench_history  |         93339648
 2017-02-09 06:14:29.660355+01 | 1486617269.66036 | pgbench_branches |          1155072

 2017-02-09 06:14:30.857218+01 | 1486617270.85722 | pgbench_accounts |        694558720
 2017-02-09 06:14:30.857218+01 | 1486617270.85722 | pgbench_tellers  |           827392
 2017-02-09 06:14:30.857218+01 | 1486617270.85722 | pgbench_history  |         93904896
 2017-02-09 06:14:30.857218+01 | 1486617270.85722 | pgbench_branches |          1155072

 2017-02-09 06:14:32.058077+01 | 1486617272.05808 | pgbench_accounts |        694558720
 2017-02-09 06:14:32.058077+01 | 1486617272.05808 | pgbench_tellers  |           827392
 2017-02-09 06:14:32.058077+01 | 1486617272.05808 | pgbench_history  |         94257152
 2017-02-09 06:14:32.058077+01 | 1486617272.05808 | pgbench_branches |          1155072

 2017-02-09 06:14:33.202269+01 | 1486617273.20227 | pgbench_accounts |        694558720
 2017-02-09 06:14:33.202269+01 | 1486617273.20227 | pgbench_tellers  |           827392
 2017-02-09 06:14:33.202269+01 | 1486617273.20227 | pgbench_history  |         95518720
 2017-02-09 06:14:33.202269+01 | 1486617273.20227 | pgbench_branches |          1155072

 2017-02-09 06:14:34.354695+01 | 1486617274.3547 | pgbench_accounts |        694558720
 2017-02-09 06:14:34.354695+01 | 1486617274.3547 | pgbench_tellers  |           827392
 2017-02-09 06:14:34.354695+01 | 1486617274.3547 | pgbench_history  |         95518720
 2017-02-09 06:14:34.354695+01 | 1486617274.3547 | pgbench_branches |          1155072

 2017-02-09 06:14:35.488292+01 | 1486617275.48829 | pgbench_accounts |        694558720
 2017-02-09 06:14:35.488292+01 | 1486617275.48829 | pgbench_tellers  |           827392
 2017-02-09 06:14:35.488292+01 | 1486617275.48829 | pgbench_history  |         95928320
 2017-02-09 06:14:35.488292+01 | 1486617275.48829 | pgbench_branches |          1155072

 2017-02-09 06:14:36.636127+01 | 1486617276.63613 | pgbench_accounts |        694558720
 2017-02-09 06:14:36.636127+01 | 1486617276.63613 | pgbench_tellers  |           827392
 2017-02-09 06:14:36.636127+01 | 1486617276.63613 | pgbench_history  |         96935936
 2017-02-09 06:14:36.636127+01 | 1486617276.63613 | pgbench_branches |          1155072

 2017-02-09 06:14:37.780054+01 | 1486617277.78005 | pgbench_accounts |        694558720
 2017-02-09 06:14:37.780054+01 | 1486617277.78005 | pgbench_tellers  |           827392
 2017-02-09 06:14:37.780054+01 | 1486617277.78005 | pgbench_history  |         97812480
 2017-02-09 06:14:37.780054+01 | 1486617277.78005 | pgbench_branches |          1155072

 2017-02-09 06:14:38.929403+01 | 1486617278.9294 | pgbench_accounts |        694558720
 2017-02-09 06:14:38.929403+01 | 1486617278.9294 | pgbench_tellers  |           827392
 2017-02-09 06:14:38.929403+01 | 1486617278.9294 | pgbench_history  |         97812480
 2017-02-09 06:14:38.929403+01 | 1486617278.9294 | pgbench_branches |          1155072

 2017-02-09 06:14:40.086543+01 | 1486617280.08654 | pgbench_accounts |        694558720
 2017-02-09 06:14:40.086543+01 | 1486617280.08654 | pgbench_tellers  |           827392
 2017-02-09 06:14:40.086543+01 | 1486617280.08654 | pgbench_history  |         98992128
 2017-02-09 06:14:40.086543+01 | 1486617280.08654 | pgbench_branches |          1155072

 2017-02-09 06:14:41.242445+01 | 1486617281.24244 | pgbench_accounts |        694558720
 2017-02-09 06:14:41.242445+01 | 1486617281.24244 | pgbench_tellers  |           827392
 2017-02-09 06:14:41.242445+01 | 1486617281.24244 | pgbench_history  |         98992128
 2017-02-09 06:14:41.242445+01 | 1486617281.24244 | pgbench_branches |          1155072

 2017-02-09 06:14:42.406135+01 | 1486617282.40614 | pgbench_accounts |        694558720
 2017-02-09 06:14:42.406135+01 | 1486617282.40614 | pgbench_tellers  |           827392
 2017-02-09 06:14:42.406135+01 | 1486617282.40614 | pgbench_history  |         99999744
 2017-02-09 06:14:42.406135+01 | 1486617282.40614 | pgbench_branches |          1155072

 2017-02-09 06:14:43.536472+01 | 1486617283.53647 | pgbench_accounts |        694558720
 2017-02-09 06:14:43.536472+01 | 1486617283.53647 | pgbench_tellers  |           827392
 2017-02-09 06:14:43.536472+01 | 1486617283.53647 | pgbench_history  |         99999744
 2017-02-09 06:14:43.536472+01 | 1486617283.53647 | pgbench_branches |          1155072

 2017-02-09 06:14:44.620794+01 | 1486617284.62079 | pgbench_accounts |        694558720
 2017-02-09 06:14:44.620794+01 | 1486617284.62079 | pgbench_tellers  |           827392
 2017-02-09 06:14:44.620794+01 | 1486617284.62079 | pgbench_history  |        100188160
 2017-02-09 06:14:44.620794+01 | 1486617284.62079 | pgbench_branches |          1155072

 2017-02-09 06:14:45.765656+01 | 1486617285.76566 | pgbench_accounts |        694558720
 2017-02-09 06:14:45.765656+01 | 1486617285.76566 | pgbench_tellers  |           827392
 2017-02-09 06:14:45.765656+01 | 1486617285.76566 | pgbench_history  |        100777984
 2017-02-09 06:14:45.765656+01 | 1486617285.76566 | pgbench_branches |          1155072

 2017-02-09 06:14:46.933079+01 | 1486617286.93308 | pgbench_accounts |        694558720
 2017-02-09 06:14:46.933079+01 | 1486617286.93308 | pgbench_tellers  |           827392
 2017-02-09 06:14:46.933079+01 | 1486617286.93308 | pgbench_history  |        101769216
 2017-02-09 06:14:46.933079+01 | 1486617286.93308 | pgbench_branches |          1155072

 2017-02-09 06:14:48.04723+01 | 1486617288.04723 | pgbench_accounts |        694558720
 2017-02-09 06:14:48.04723+01 | 1486617288.04723 | pgbench_tellers  |           827392
 2017-02-09 06:14:48.04723+01 | 1486617288.04723 | pgbench_history  |        101900288
 2017-02-09 06:14:48.04723+01 | 1486617288.04723 | pgbench_branches |          1155072

 2017-02-09 06:14:49.170739+01 | 1486617289.17074 | pgbench_accounts |        694558720
 2017-02-09 06:14:49.170739+01 | 1486617289.17074 | pgbench_tellers  |           827392
 2017-02-09 06:14:49.170739+01 | 1486617289.17074 | pgbench_history  |        102842368
 2017-02-09 06:14:49.170739+01 | 1486617289.17074 | pgbench_branches |          1155072

 2017-02-09 06:14:50.301656+01 | 1486617290.30166 | pgbench_accounts |        694558720
 2017-02-09 06:14:50.301656+01 | 1486617290.30166 | pgbench_tellers  |           827392
 2017-02-09 06:14:50.301656+01 | 1486617290.30166 | pgbench_history  |        103120896
 2017-02-09 06:14:50.301656+01 | 1486617290.30166 | pgbench_branches |          1155072

 2017-02-09 06:14:51.438677+01 | 1486617291.43868 | pgbench_accounts |        694558720
 2017-02-09 06:14:51.438677+01 | 1486617291.43868 | pgbench_tellers  |           827392
 2017-02-09 06:14:51.438677+01 | 1486617291.43868 | pgbench_history  |        103415808
 2017-02-09 06:14:51.438677+01 | 1486617291.43868 | pgbench_branches |          1155072

 2017-02-09 06:14:52.591308+01 | 1486617292.59131 | pgbench_accounts |        694558720
 2017-02-09 06:14:52.591308+01 | 1486617292.59131 | pgbench_tellers  |           827392
 2017-02-09 06:14:52.591308+01 | 1486617292.59131 | pgbench_history  |        103964672
 2017-02-09 06:14:52.591308+01 | 1486617292.59131 | pgbench_branches |          1155072

 2017-02-09 06:14:53.737112+01 | 1486617293.73711 | pgbench_accounts |        694558720
 2017-02-09 06:14:53.737112+01 | 1486617293.73711 | pgbench_tellers  |           827392
 2017-02-09 06:14:53.737112+01 | 1486617293.73711 | pgbench_history  |        104701952
 2017-02-09 06:14:53.737112+01 | 1486617293.73711 | pgbench_branches |          1155072

 2017-02-09 06:14:54.859055+01 | 1486617294.85906 | pgbench_accounts |        694558720
 2017-02-09 06:14:54.859055+01 | 1486617294.85906 | pgbench_tellers  |           827392
 2017-02-09 06:14:54.859055+01 | 1486617294.85906 | pgbench_history  |        105054208
 2017-02-09 06:14:54.859055+01 | 1486617294.85906 | pgbench_branches |          1155072

 2017-02-09 06:14:56.022027+01 | 1486617296.02203 | pgbench_accounts |        694558720
 2017-02-09 06:14:56.022027+01 | 1486617296.02203 | pgbench_tellers  |           827392
 2017-02-09 06:14:56.022027+01 | 1486617296.02203 | pgbench_history  |        106307584
 2017-02-09 06:14:56.022027+01 | 1486617296.02203 | pgbench_branches |          1155072

 2017-02-09 06:14:57.161904+01 | 1486617297.1619 | pgbench_accounts |        694558720
 2017-02-09 06:14:57.161904+01 | 1486617297.1619 | pgbench_tellers  |           827392
 2017-02-09 06:14:57.161904+01 | 1486617297.1619 | pgbench_history  |        106307584
 2017-02-09 06:14:57.161904+01 | 1486617297.1619 | pgbench_branches |          1155072

 2017-02-09 06:14:58.297307+01 | 1486617298.29731 | pgbench_accounts |        694558720
 2017-02-09 06:14:58.297307+01 | 1486617298.29731 | pgbench_tellers  |           827392
 2017-02-09 06:14:58.297307+01 | 1486617298.29731 | pgbench_history  |        107839488
 2017-02-09 06:14:58.297307+01 | 1486617298.29731 | pgbench_branches |          1155072

 2017-02-09 06:14:59.418214+01 | 1486617299.41821 | pgbench_accounts |        694558720
 2017-02-09 06:14:59.418214+01 | 1486617299.41821 | pgbench_tellers  |           827392
 2017-02-09 06:14:59.418214+01 | 1486617299.41821 | pgbench_history  |        107839488
 2017-02-09 06:14:59.418214+01 | 1486617299.41821 | pgbench_branches |          1155072

 2017-02-09 06:15:00.54213+01 | 1486617300.54213 | pgbench_accounts |        694558720
 2017-02-09 06:15:00.54213+01 | 1486617300.54213 | pgbench_tellers  |           827392
 2017-02-09 06:15:00.54213+01 | 1486617300.54213 | pgbench_history  |        107839488
 2017-02-09 06:15:00.54213+01 | 1486617300.54213 | pgbench_branches |          1155072

 2017-02-09 06:15:01.657995+01 | 1486617301.65799 | pgbench_accounts |        694558720
 2017-02-09 06:15:01.657995+01 | 1486617301.65799 | pgbench_tellers  |           827392
 2017-02-09 06:15:01.657995+01 | 1486617301.65799 | pgbench_history  |        109502464
 2017-02-09 06:15:01.657995+01 | 1486617301.65799 | pgbench_branches |          1155072

 2017-02-09 06:15:02.799956+01 | 1486617302.79996 | pgbench_accounts |        694558720
 2017-02-09 06:15:02.799956+01 | 1486617302.79996 | pgbench_tellers  |           827392
 2017-02-09 06:15:02.799956+01 | 1486617302.79996 | pgbench_history  |        109502464
 2017-02-09 06:15:02.799956+01 | 1486617302.79996 | pgbench_branches |          1155072

 2017-02-09 06:15:03.983788+01 | 1486617303.98379 | pgbench_accounts |        694558720
 2017-02-09 06:15:03.983788+01 | 1486617303.98379 | pgbench_tellers  |           827392
 2017-02-09 06:15:03.983788+01 | 1486617303.98379 | pgbench_history  |        109502464
 2017-02-09 06:15:03.983788+01 | 1486617303.98379 | pgbench_branches |          1155072

 2017-02-09 06:15:05.144475+01 | 1486617305.14447 | pgbench_accounts |        694558720
 2017-02-09 06:15:05.144475+01 | 1486617305.14447 | pgbench_tellers  |           827392
 2017-02-09 06:15:05.144475+01 | 1486617305.14447 | pgbench_history  |        109912064
 2017-02-09 06:15:05.144475+01 | 1486617305.14447 | pgbench_branches |          1155072

 2017-02-09 06:15:06.284975+01 | 1486617306.28498 | pgbench_accounts |        694558720
 2017-02-09 06:15:06.284975+01 | 1486617306.28498 | pgbench_tellers  |           827392
 2017-02-09 06:15:06.284975+01 | 1486617306.28498 | pgbench_history  |        111468544
 2017-02-09 06:15:06.284975+01 | 1486617306.28498 | pgbench_branches |          1155072

 2017-02-09 06:15:07.466929+01 | 1486617307.46693 | pgbench_accounts |        694558720
 2017-02-09 06:15:07.466929+01 | 1486617307.46693 | pgbench_tellers  |           827392
 2017-02-09 06:15:07.466929+01 | 1486617307.46693 | pgbench_history  |        111468544
 2017-02-09 06:15:07.466929+01 | 1486617307.46693 | pgbench_branches |          1155072

 2017-02-09 06:15:08.61215+01 | 1486617308.61215 | pgbench_accounts |        694558720
 2017-02-09 06:15:08.61215+01 | 1486617308.61215 | pgbench_tellers  |           827392
 2017-02-09 06:15:08.61215+01 | 1486617308.61215 | pgbench_history  |        111665152
 2017-02-09 06:15:08.61215+01 | 1486617308.61215 | pgbench_branches |          1155072

 2017-02-09 06:15:09.735363+01 | 1486617309.73536 | pgbench_accounts |        694558720
 2017-02-09 06:15:09.735363+01 | 1486617309.73536 | pgbench_tellers  |           827392
 2017-02-09 06:15:09.735363+01 | 1486617309.73536 | pgbench_history  |        112058368
 2017-02-09 06:15:09.735363+01 | 1486617309.73536 | pgbench_branches |          1155072

 2017-02-09 06:15:10.90905+01 | 1486617310.90905 | pgbench_accounts |        694558720
 2017-02-09 06:15:10.90905+01 | 1486617310.90905 | pgbench_tellers  |           827392
 2017-02-09 06:15:10.90905+01 | 1486617310.90905 | pgbench_history  |        112623616
 2017-02-09 06:15:10.90905+01 | 1486617310.90905 | pgbench_branches |          1155072

 2017-02-09 06:15:12.069877+01 | 1486617312.06988 | pgbench_accounts |        694558720
 2017-02-09 06:15:12.069877+01 | 1486617312.06988 | pgbench_tellers  |           827392
 2017-02-09 06:15:12.069877+01 | 1486617312.06988 | pgbench_history  |        113188864
 2017-02-09 06:15:12.069877+01 | 1486617312.06988 | pgbench_branches |          1155072

 2017-02-09 06:15:13.187701+01 | 1486617313.1877 | pgbench_accounts |        694558720
 2017-02-09 06:15:13.187701+01 | 1486617313.1877 | pgbench_tellers  |           827392
 2017-02-09 06:15:13.187701+01 | 1486617313.1877 | pgbench_history  |        113754112
 2017-02-09 06:15:13.187701+01 | 1486617313.1877 | pgbench_branches |          1155072

 2017-02-09 06:15:14.322895+01 | 1486617314.3229 | pgbench_accounts |        694558720
 2017-02-09 06:15:14.322895+01 | 1486617314.3229 | pgbench_tellers  |           827392
 2017-02-09 06:15:14.322895+01 | 1486617314.3229 | pgbench_history  |        114196480
 2017-02-09 06:15:14.322895+01 | 1486617314.3229 | pgbench_branches |          1155072

 2017-02-09 06:15:15.459063+01 | 1486617315.45906 | pgbench_accounts |        694558720
 2017-02-09 06:15:15.459063+01 | 1486617315.45906 | pgbench_tellers  |           827392
 2017-02-09 06:15:15.459063+01 | 1486617315.45906 | pgbench_history  |        114769920
 2017-02-09 06:15:15.459063+01 | 1486617315.45906 | pgbench_branches |          1155072

 2017-02-09 06:15:16.592289+01 | 1486617316.59229 | pgbench_accounts |        694558720
 2017-02-09 06:15:16.592289+01 | 1486617316.59229 | pgbench_tellers  |           827392
 2017-02-09 06:15:16.592289+01 | 1486617316.59229 | pgbench_history  |        116006912
 2017-02-09 06:15:16.592289+01 | 1486617316.59229 | pgbench_branches |          1155072

 2017-02-09 06:15:17.755556+01 | 1486617317.75556 | pgbench_accounts |        694558720
 2017-02-09 06:15:17.755556+01 | 1486617317.75556 | pgbench_tellers  |           827392
 2017-02-09 06:15:17.755556+01 | 1486617317.75556 | pgbench_history  |        116006912
 2017-02-09 06:15:17.755556+01 | 1486617317.75556 | pgbench_branches |          1155072

 2017-02-09 06:15:18.840145+01 | 1486617318.84015 | pgbench_accounts |        694558720
 2017-02-09 06:15:18.840145+01 | 1486617318.84015 | pgbench_tellers  |           827392
 2017-02-09 06:15:18.840145+01 | 1486617318.84015 | pgbench_history  |        116383744
 2017-02-09 06:15:18.840145+01 | 1486617318.84015 | pgbench_branches |          1155072

 2017-02-09 06:15:19.95061+01 | 1486617319.95061 | pgbench_accounts |        694558720
 2017-02-09 06:15:19.95061+01 | 1486617319.95061 | pgbench_tellers  |           827392
 2017-02-09 06:15:19.95061+01 | 1486617319.95061 | pgbench_history  |        116891648
 2017-02-09 06:15:19.95061+01 | 1486617319.95061 | pgbench_branches |          1155072

 2017-02-09 06:15:21.072428+01 | 1486617321.07243 | pgbench_accounts |        694558720
 2017-02-09 06:15:21.072428+01 | 1486617321.07243 | pgbench_tellers  |           827392
 2017-02-09 06:15:21.072428+01 | 1486617321.07243 | pgbench_history  |        117399552
 2017-02-09 06:15:21.072428+01 | 1486617321.07243 | pgbench_branches |          1155072

 2017-02-09 06:15:22.154382+01 | 1486617322.15438 | pgbench_accounts |        694558720
 2017-02-09 06:15:22.154382+01 | 1486617322.15438 | pgbench_tellers  |           827392
 2017-02-09 06:15:22.154382+01 | 1486617322.15438 | pgbench_history  |        117907456
 2017-02-09 06:15:22.154382+01 | 1486617322.15438 | pgbench_branches |          1155072

 2017-02-09 06:15:23.237486+01 | 1486617323.23749 | pgbench_accounts |        694558720
 2017-02-09 06:15:23.237486+01 | 1486617323.23749 | pgbench_tellers  |           827392
 2017-02-09 06:15:23.237486+01 | 1486617323.23749 | pgbench_history  |        118415360
 2017-02-09 06:15:23.237486+01 | 1486617323.23749 | pgbench_branches |          1155072

 2017-02-09 06:15:24.35175+01 | 1486617324.35175 | pgbench_accounts |        694558720
 2017-02-09 06:15:24.35175+01 | 1486617324.35175 | pgbench_tellers  |           827392
 2017-02-09 06:15:24.35175+01 | 1486617324.35175 | pgbench_history  |        118939648
 2017-02-09 06:15:24.35175+01 | 1486617324.35175 | pgbench_branches |          1155072

 2017-02-09 06:15:25.534301+01 | 1486617325.5343 | pgbench_accounts |        694558720
 2017-02-09 06:15:25.534301+01 | 1486617325.5343 | pgbench_tellers  |           827392
 2017-02-09 06:15:25.534301+01 | 1486617325.5343 | pgbench_history  |        119701504
 2017-02-09 06:15:25.534301+01 | 1486617325.5343 | pgbench_branches |          1155072

 2017-02-09 06:15:26.708477+01 | 1486617326.70848 | pgbench_accounts |        694558720
 2017-02-09 06:15:26.708477+01 | 1486617326.70848 | pgbench_tellers  |           827392
 2017-02-09 06:15:26.708477+01 | 1486617326.70848 | pgbench_history  |        120406016
 2017-02-09 06:15:26.708477+01 | 1486617326.70848 | pgbench_branches |          1155072

 2017-02-09 06:15:27.882864+01 | 1486617327.88286 | pgbench_accounts |        694558720
 2017-02-09 06:15:27.882864+01 | 1486617327.88286 | pgbench_tellers  |           827392
 2017-02-09 06:15:27.882864+01 | 1486617327.88286 | pgbench_history  |        120627200
 2017-02-09 06:15:27.882864+01 | 1486617327.88286 | pgbench_branches |          1155072

 2017-02-09 06:15:29.037005+01 | 1486617329.037 | pgbench_accounts |        694558720
 2017-02-09 06:15:29.037005+01 | 1486617329.037 | pgbench_tellers  |           827392
 2017-02-09 06:15:29.037005+01 | 1486617329.037 | pgbench_history  |        121061376
 2017-02-09 06:15:29.037005+01 | 1486617329.037 | pgbench_branches |          1155072

 2017-02-09 06:15:30.203183+01 | 1486617330.20318 | pgbench_accounts |        694558720
 2017-02-09 06:15:30.203183+01 | 1486617330.20318 | pgbench_tellers  |           827392
 2017-02-09 06:15:30.203183+01 | 1486617330.20318 | pgbench_history  |        121610240
 2017-02-09 06:15:30.203183+01 | 1486617330.20318 | pgbench_branches |          1155072

 2017-02-09 06:15:31.375043+01 | 1486617331.37504 | pgbench_accounts |        694558720
 2017-02-09 06:15:31.375043+01 | 1486617331.37504 | pgbench_tellers  |           827392
 2017-02-09 06:15:31.375043+01 | 1486617331.37504 | pgbench_history  |        122126336
 2017-02-09 06:15:31.375043+01 | 1486617331.37504 | pgbench_branches |          1155072

 2017-02-09 06:15:32.564055+01 | 1486617332.56405 | pgbench_accounts |        694558720
 2017-02-09 06:15:32.564055+01 | 1486617332.56405 | pgbench_tellers  |           827392
 2017-02-09 06:15:32.564055+01 | 1486617332.56405 | pgbench_history  |        122839040
 2017-02-09 06:15:32.564055+01 | 1486617332.56405 | pgbench_branches |          1155072

 2017-02-09 06:15:33.754528+01 | 1486617333.75453 | pgbench_accounts |        694558720
 2017-02-09 06:15:33.754528+01 | 1486617333.75453 | pgbench_tellers  |           827392
 2017-02-09 06:15:33.754528+01 | 1486617333.75453 | pgbench_history  |        123191296
 2017-02-09 06:15:33.754528+01 | 1486617333.75453 | pgbench_branches |          1155072

 2017-02-09 06:15:34.875997+01 | 1486617334.876 | pgbench_accounts |        694558720
 2017-02-09 06:15:34.875997+01 | 1486617334.876 | pgbench_tellers  |           827392
 2017-02-09 06:15:34.875997+01 | 1486617334.876 | pgbench_history  |        124551168
 2017-02-09 06:15:34.875997+01 | 1486617334.876 | pgbench_branches |          1155072

 2017-02-09 06:15:36.042253+01 | 1486617336.04225 | pgbench_accounts |        694558720
 2017-02-09 06:15:36.042253+01 | 1486617336.04225 | pgbench_tellers  |           827392
 2017-02-09 06:15:36.042253+01 | 1486617336.04225 | pgbench_history  |        124551168
 2017-02-09 06:15:36.042253+01 | 1486617336.04225 | pgbench_branches |          1155072

 2017-02-09 06:15:37.199655+01 | 1486617337.19966 | pgbench_accounts |        694558720
 2017-02-09 06:15:37.199655+01 | 1486617337.19966 | pgbench_tellers  |           827392
 2017-02-09 06:15:37.199655+01 | 1486617337.19966 | pgbench_history  |        124911616
 2017-02-09 06:15:37.199655+01 | 1486617337.19966 | pgbench_branches |          1155072

 2017-02-09 06:15:38.354007+01 | 1486617338.35401 | pgbench_accounts |        694558720
 2017-02-09 06:15:38.354007+01 | 1486617338.35401 | pgbench_tellers  |           827392
 2017-02-09 06:15:38.354007+01 | 1486617338.35401 | pgbench_history  |        125435904
 2017-02-09 06:15:38.354007+01 | 1486617338.35401 | pgbench_branches |          1155072

 2017-02-09 06:15:39.462814+01 | 1486617339.46281 | pgbench_accounts |        694558720
 2017-02-09 06:15:39.462814+01 | 1486617339.46281 | pgbench_tellers  |           827392
 2017-02-09 06:15:39.462814+01 | 1486617339.46281 | pgbench_history  |        125960192
 2017-02-09 06:15:39.462814+01 | 1486617339.46281 | pgbench_branches |          1155072

 2017-02-09 06:15:40.593746+01 | 1486617340.59375 | pgbench_accounts |        694558720
 2017-02-09 06:15:40.593746+01 | 1486617340.59375 | pgbench_tellers  |           827392
 2017-02-09 06:15:40.593746+01 | 1486617340.59375 | pgbench_history  |        126484480
 2017-02-09 06:15:40.593746+01 | 1486617340.59375 | pgbench_branches |          1155072

 2017-02-09 06:15:41.740717+01 | 1486617341.74072 | pgbench_accounts |        694558720
 2017-02-09 06:15:41.740717+01 | 1486617341.74072 | pgbench_tellers  |           827392
 2017-02-09 06:15:41.740717+01 | 1486617341.74072 | pgbench_history  |        127025152
 2017-02-09 06:15:41.740717+01 | 1486617341.74072 | pgbench_branches |          1155072

 2017-02-09 06:15:42.922847+01 | 1486617342.92285 | pgbench_accounts |        694558720
 2017-02-09 06:15:42.922847+01 | 1486617342.92285 | pgbench_tellers  |           827392
 2017-02-09 06:15:42.922847+01 | 1486617342.92285 | pgbench_history  |        127590400
 2017-02-09 06:15:42.922847+01 | 1486617342.92285 | pgbench_branches |          1155072

 2017-02-09 06:15:44.083579+01 | 1486617344.08358 | pgbench_accounts |        694558720
 2017-02-09 06:15:44.083579+01 | 1486617344.08358 | pgbench_tellers  |           827392
 2017-02-09 06:15:44.083579+01 | 1486617344.08358 | pgbench_history  |        128139264
 2017-02-09 06:15:44.083579+01 | 1486617344.08358 | pgbench_branches |          1155072

 2017-02-09 06:15:45.192495+01 | 1486617345.1925 | pgbench_accounts |        694558720
 2017-02-09 06:15:45.192495+01 | 1486617345.1925 | pgbench_tellers  |           827392
 2017-02-09 06:15:45.192495+01 | 1486617345.1925 | pgbench_history  |        128679936
 2017-02-09 06:15:45.192495+01 | 1486617345.1925 | pgbench_branches |          1155072

 2017-02-09 06:15:46.318777+01 | 1486617346.31878 | pgbench_accounts |        694558720
 2017-02-09 06:15:46.318777+01 | 1486617346.31878 | pgbench_tellers  |           827392
 2017-02-09 06:15:46.318777+01 | 1486617346.31878 | pgbench_history  |        129204224
 2017-02-09 06:15:46.318777+01 | 1486617346.31878 | pgbench_branches |          1155072

 2017-02-09 06:15:47.455168+01 | 1486617347.45517 | pgbench_accounts |        694558720
 2017-02-09 06:15:47.455168+01 | 1486617347.45517 | pgbench_tellers  |           827392
 2017-02-09 06:15:47.455168+01 | 1486617347.45517 | pgbench_history  |        129728512
 2017-02-09 06:15:47.455168+01 | 1486617347.45517 | pgbench_branches |          1155072

 2017-02-09 06:15:48.587731+01 | 1486617348.58773 | pgbench_accounts |        694558720
 2017-02-09 06:15:48.587731+01 | 1486617348.58773 | pgbench_tellers  |           827392
 2017-02-09 06:15:48.587731+01 | 1486617348.58773 | pgbench_history  |        130277376
 2017-02-09 06:15:48.587731+01 | 1486617348.58773 | pgbench_branches |          1155072

 2017-02-09 06:15:49.75281+01 | 1486617349.75281 | pgbench_accounts |        694558720
 2017-02-09 06:15:49.75281+01 | 1486617349.75281 | pgbench_tellers  |           827392
 2017-02-09 06:15:49.75281+01 | 1486617349.75281 | pgbench_history  |        130818048
 2017-02-09 06:15:49.75281+01 | 1486617349.75281 | pgbench_branches |          1155072

 2017-02-09 06:15:50.884916+01 | 1486617350.88492 | pgbench_accounts |        694558720
 2017-02-09 06:15:50.884916+01 | 1486617350.88492 | pgbench_tellers  |           827392
 2017-02-09 06:15:50.884916+01 | 1486617350.88492 | pgbench_history  |        131350528
 2017-02-09 06:15:50.884916+01 | 1486617350.88492 | pgbench_branches |          1155072

 2017-02-09 06:15:51.981991+01 | 1486617351.98199 | pgbench_accounts |        694558720
 2017-02-09 06:15:51.981991+01 | 1486617351.98199 | pgbench_tellers  |           827392
 2017-02-09 06:15:51.981991+01 | 1486617351.98199 | pgbench_history  |        131842048
 2017-02-09 06:15:51.981991+01 | 1486617351.98199 | pgbench_branches |          1155072

 2017-02-09 06:15:53.125083+01 | 1486617353.12508 | pgbench_accounts |        694558720
 2017-02-09 06:15:53.125083+01 | 1486617353.12508 | pgbench_tellers  |           827392
 2017-02-09 06:15:53.125083+01 | 1486617353.12508 | pgbench_history  |        132374528
 2017-02-09 06:15:53.125083+01 | 1486617353.12508 | pgbench_branches |          1155072

 2017-02-09 06:15:54.254104+01 | 1486617354.2541 | pgbench_accounts |        694558720
 2017-02-09 06:15:54.254104+01 | 1486617354.2541 | pgbench_tellers  |           827392
 2017-02-09 06:15:54.254104+01 | 1486617354.2541 | pgbench_history  |        132915200
 2017-02-09 06:15:54.254104+01 | 1486617354.2541 | pgbench_branches |          1155072

 2017-02-09 06:15:55.350675+01 | 1486617355.35068 | pgbench_accounts |        694558720
 2017-02-09 06:15:55.350675+01 | 1486617355.35068 | pgbench_tellers  |           827392
 2017-02-09 06:15:55.350675+01 | 1486617355.35068 | pgbench_history  |        133431296
 2017-02-09 06:15:55.350675+01 | 1486617355.35068 | pgbench_branches |          1155072

 2017-02-09 06:15:56.521385+01 | 1486617356.52138 | pgbench_accounts |        694558720
 2017-02-09 06:15:56.521385+01 | 1486617356.52138 | pgbench_tellers  |           827392
 2017-02-09 06:15:56.521385+01 | 1486617356.52138 | pgbench_history  |        134012928
 2017-02-09 06:15:56.521385+01 | 1486617356.52138 | pgbench_branches |          1155072

 2017-02-09 06:15:57.646474+01 | 1486617357.64647 | pgbench_accounts |        694558720
 2017-02-09 06:15:57.646474+01 | 1486617357.64647 | pgbench_tellers  |           827392
 2017-02-09 06:15:57.646474+01 | 1486617357.64647 | pgbench_history  |        134545408
 2017-02-09 06:15:57.646474+01 | 1486617357.64647 | pgbench_branches |          1155072

 2017-02-09 06:15:58.762877+01 | 1486617358.76288 | pgbench_accounts |        694558720
 2017-02-09 06:15:58.762877+01 | 1486617358.76288 | pgbench_tellers  |           827392
 2017-02-09 06:15:58.762877+01 | 1486617358.76288 | pgbench_history  |        135045120
 2017-02-09 06:15:58.762877+01 | 1486617358.76288 | pgbench_branches |          1155072

 2017-02-09 06:15:59.847998+01 | 1486617359.848 | pgbench_accounts |        694558720
 2017-02-09 06:15:59.847998+01 | 1486617359.848 | pgbench_tellers  |           827392
 2017-02-09 06:15:59.847998+01 | 1486617359.848 | pgbench_history  |        135561216
 2017-02-09 06:15:59.847998+01 | 1486617359.848 | pgbench_branches |          1155072

 2017-02-09 06:16:00.998194+01 | 1486617360.99819 | pgbench_accounts |        694558720
 2017-02-09 06:16:00.998194+01 | 1486617360.99819 | pgbench_tellers  |           827392
 2017-02-09 06:16:00.998194+01 | 1486617360.99819 | pgbench_history  |        136110080
 2017-02-09 06:16:00.998194+01 | 1486617360.99819 | pgbench_branches |          1155072

 2017-02-09 06:16:02.120549+01 | 1486617362.12055 | pgbench_accounts |        694558720
 2017-02-09 06:16:02.120549+01 | 1486617362.12055 | pgbench_tellers  |           827392
 2017-02-09 06:16:02.120549+01 | 1486617362.12055 | pgbench_history  |        136617984
 2017-02-09 06:16:02.120549+01 | 1486617362.12055 | pgbench_branches |          1155072

 2017-02-09 06:16:03.239822+01 | 1486617363.23982 | pgbench_accounts |        694558720
 2017-02-09 06:16:03.239822+01 | 1486617363.23982 | pgbench_tellers  |           827392
 2017-02-09 06:16:03.239822+01 | 1486617363.23982 | pgbench_history  |        137216000
 2017-02-09 06:16:03.239822+01 | 1486617363.23982 | pgbench_branches |          1155072

 2017-02-09 06:16:04.320192+01 | 1486617364.32019 | pgbench_accounts |        694558720
 2017-02-09 06:16:04.320192+01 | 1486617364.32019 | pgbench_tellers  |           827392
 2017-02-09 06:16:04.320192+01 | 1486617364.32019 | pgbench_history  |        137617408
 2017-02-09 06:16:04.320192+01 | 1486617364.32019 | pgbench_branches |          1155072

 2017-02-09 06:16:05.445628+01 | 1486617365.44563 | pgbench_accounts |        694558720
 2017-02-09 06:16:05.445628+01 | 1486617365.44563 | pgbench_tellers  |           827392
 2017-02-09 06:16:05.445628+01 | 1486617365.44563 | pgbench_history  |        138182656
 2017-02-09 06:16:05.445628+01 | 1486617365.44563 | pgbench_branches |          1155072

 2017-02-09 06:16:06.589641+01 | 1486617366.58964 | pgbench_accounts |        694558720
 2017-02-09 06:16:06.589641+01 | 1486617366.58964 | pgbench_tellers  |           827392
 2017-02-09 06:16:06.589641+01 | 1486617366.58964 | pgbench_history  |        138821632
 2017-02-09 06:16:06.589641+01 | 1486617366.58964 | pgbench_branches |          1155072

 2017-02-09 06:16:07.720452+01 | 1486617367.72045 | pgbench_accounts |        694558720
 2017-02-09 06:16:07.720452+01 | 1486617367.72045 | pgbench_tellers  |           827392
 2017-02-09 06:16:07.720452+01 | 1486617367.72045 | pgbench_history  |        139501568
 2017-02-09 06:16:07.720452+01 | 1486617367.72045 | pgbench_branches |          1155072

 2017-02-09 06:16:08.896305+01 | 1486617368.89631 | pgbench_accounts |        694558720
 2017-02-09 06:16:08.896305+01 | 1486617368.89631 | pgbench_tellers  |           827392
 2017-02-09 06:16:08.896305+01 | 1486617368.89631 | pgbench_history  |        139878400
 2017-02-09 06:16:08.896305+01 | 1486617368.89631 | pgbench_branches |          1155072

