 2017-02-09 06:11:10.01971+01 | 1486617070.01971 | 2/9F4C93E8               |           11262530536

 2017-02-09 06:11:11.129141+01 | 1486617071.12914 | 2/A3C9ACB8               |           11337837752

 2017-02-09 06:11:12.243791+01 | 1486617072.24379 | 2/A7F295A0               |           11407627680

 2017-02-09 06:11:13.379623+01 | 1486617073.37962 | 2/ABD1A430               |           11472577584

 2017-02-09 06:11:14.504158+01 | 1486617074.50416 | 2/AF460488               |           11530536072

 2017-02-09 06:11:15.660738+01 | 1486617075.66074 | 2/B2775B28               |           11584101160

 2017-02-09 06:11:16.805062+01 | 1486617076.80506 | 2/B550AF00               |           11631898368

 2017-02-09 06:11:17.931567+01 | 1486617077.93157 | 2/B7E3F848               |           11675105352

 2017-02-09 06:11:19.081412+01 | 1486617079.08141 | 2/BA45A828               |           11715061800

 2017-02-09 06:11:20.224545+01 | 1486617080.22455 | 2/BC6B3C10               |           11751078928

 2017-02-09 06:11:21.313079+01 | 1486617081.31308 | 2/BE4B6158               |           11782545752

 2017-02-09 06:11:22.412402+01 | 1486617082.4124 | 2/BFFD42C8               |           11810980552

 2017-02-09 06:11:23.554725+01 | 1486617083.55472 | 2/C1967DA0               |           11837799840

 2017-02-09 06:11:24.718636+01 | 1486617084.71864 | 2/C310DE50               |           11862597200

 2017-02-09 06:11:25.922369+01 | 1486617085.92237 | 2/C493C448               |           11887952968

 2017-02-09 06:11:27.075697+01 | 1486617087.0757 | 2/C6910A68               |           11921328744

 2017-02-09 06:11:28.18522+01 | 1486617088.18522 | 2/C84061B8               |           11949597112

 2017-02-09 06:11:29.297956+01 | 1486617089.29796 | 2/C9C04368               |           11974755176

 2017-02-09 06:11:30.435223+01 | 1486617090.43522 | 2/CB1F5F08               |           11997765384

 2017-02-09 06:11:31.587738+01 | 1486617091.58774 | 2/CC5B6DE8               |           12018478568

 2017-02-09 06:11:32.683031+01 | 1486617092.68303 | 2/CD69A3E8               |           12036187112

 2017-02-09 06:11:33.79944+01 | 1486617093.79944 | 2/CE579F90               |           12051783568

 2017-02-09 06:11:34.906699+01 | 1486617094.9067 | 2/CF959058               |           12072620120

 2017-02-09 06:11:36.038969+01 | 1486617096.03897 | 2/D071CC30               |           12087053360

 2017-02-09 06:11:37.277227+01 | 1486617097.27723 | 2/D0C6A300               |           12092613376

 2017-02-09 06:11:38.398811+01 | 1486617098.39881 | 2/D10CFAB8               |           12097223352

 2017-02-09 06:11:39.541506+01 | 1486617099.54151 | 2/D1543B28               |           12101892904

 2017-02-09 06:11:40.661406+01 | 1486617100.66141 | 2/D1993048               |           12106412104

 2017-02-09 06:11:41.795813+01 | 1486617101.79581 | 2/D1DF14B8               |           12110992568

 2017-02-09 06:11:42.918624+01 | 1486617102.91862 | 2/D225C108               |           12115624200

 2017-02-09 06:11:44.079784+01 | 1486617104.07978 | 2/D26E8DD0               |           12120395216

 2017-02-09 06:11:45.167527+01 | 1486617105.16753 | 2/D2B10780               |           12124751744

 2017-02-09 06:11:46.353343+01 | 1486617106.35334 | 2/D2FA8CA8               |           12129569960

 2017-02-09 06:11:47.451596+01 | 1486617107.4516 | 2/D34042D0               |           12134138576

 2017-02-09 06:11:48.597048+01 | 1486617108.59705 | 2/D387C198               |           12138824088

 2017-02-09 06:11:49.729087+01 | 1486617109.72909 | 2/D3CF94F8               |           12143531256

 2017-02-09 06:11:50.850838+01 | 1486617110.85084 | 2/D41696E8               |           12148184808

 2017-02-09 06:11:51.993569+01 | 1486617111.99357 | 2/D45E9058               |           12152901720

 2017-02-09 06:11:53.18693+01 | 1486617113.18693 | 2/D4AB2D08               |           12157922568

 2017-02-09 06:11:54.342116+01 | 1486617114.34212 | 2/D4F2EA50               |           12162624080

 2017-02-09 06:11:55.49191+01 | 1486617115.49191 | 2/D53A2028               |           12167290920

 2017-02-09 06:11:56.660217+01 | 1486617116.66022 | 2/D584DA58               |           12172188248

 2017-02-09 06:11:57.807947+01 | 1486617117.80795 | 2/D5CD3F18               |           12176932632

 2017-02-09 06:11:58.964291+01 | 1486617118.96429 | 2/D61659A8               |           12181723560

 2017-02-09 06:12:00.097273+01 | 1486617120.09727 | 2/D65DBD18               |           12186402072

 2017-02-09 06:12:01.241973+01 | 1486617121.24197 | 2/D6A599D0               |           12191111632

 2017-02-09 06:12:02.322669+01 | 1486617122.32267 | 2/D6EAD6A8               |           12195649192

 2017-02-09 06:12:03.475564+01 | 1486617123.47556 | 2/D7336848               |           12200405064

 2017-02-09 06:12:04.625042+01 | 1486617124.62504 | 2/D77B2D50               |           12205108560

 2017-02-09 06:12:05.737621+01 | 1486617125.73762 | 2/D7C12B18               |           12209695512

 2017-02-09 06:12:06.867048+01 | 1486617126.86705 | 2/D8075DB8               |           12214295992

 2017-02-09 06:12:08.018874+01 | 1486617128.01887 | 2/D84E5558               |           12218946904

 2017-02-09 06:12:09.197301+01 | 1486617129.1973 | 2/D89809A0               |           12223777184

 2017-02-09 06:12:10.389241+01 | 1486617130.38924 | 2/D8E1AA58               |           12228602456

 2017-02-09 06:12:11.525416+01 | 1486617131.52542 | 2/D9271B28               |           12233153320

 2017-02-09 06:12:12.629768+01 | 1486617132.62977 | 2/D96B99D0               |           12237642192

 2017-02-09 06:12:13.74533+01 | 1486617133.74533 | 2/D9AF8C98               |           12242095256

 2017-02-09 06:12:14.856028+01 | 1486617134.85603 | 2/D9F3AE88               |           12246560392

 2017-02-09 06:12:16.014926+01 | 1486617136.01493 | 2/DA3BEF18               |           12251295512

 2017-02-09 06:12:17.153587+01 | 1486617137.15359 | 2/DA816670               |           12255848048

 2017-02-09 06:12:18.309423+01 | 1486617138.30942 | 2/DAC82A88               |           12260485768

 2017-02-09 06:12:19.451833+01 | 1486617139.45183 | 2/DB0EAB00               |           12265106176

 2017-02-09 06:12:20.574356+01 | 1486617140.57436 | 2/DB524B40               |           12269538112

 2017-02-09 06:12:21.673895+01 | 1486617141.67389 | 2/DB95AA18               |           12273953304

 2017-02-09 06:12:22.854672+01 | 1486617142.85467 | 2/DBDE7128               |           12278722856

 2017-02-09 06:12:24.007203+01 | 1486617144.0072 | 2/DC24D468               |           12283335784

 2017-02-09 06:12:25.170763+01 | 1486617145.17076 | 2/DC6C3458               |           12288013400

 2017-02-09 06:12:26.2667+01 | 1486617146.2667 | 2/DCBCE5F8               |           12293301752

 2017-02-09 06:12:27.399396+01 | 1486617147.3994 | 2/DD20DFB0               |           12299853744

 2017-02-09 06:12:28.506671+01 | 1486617148.50667 | 2/DD80A128               |           12306129192

 2017-02-09 06:12:29.658591+01 | 1486617149.65859 | 2/DDDE9B88               |           12312288136

 2017-02-09 06:12:30.765496+01 | 1486617150.7655 | 2/DE2BBF60               |           12317343584

 2017-02-09 06:12:31.940001+01 | 1486617151.94 | 2/DE741C10               |           12322085904

 2017-02-09 06:12:33.067392+01 | 1486617153.06739 | 2/DEB41548               |           12326278472

 2017-02-09 06:12:34.191726+01 | 1486617154.19173 | 2/DEF40928               |           12330469672

 2017-02-09 06:12:35.348103+01 | 1486617155.3481 | 2/DF3750E8               |           12334878952

 2017-02-09 06:12:36.424262+01 | 1486617156.42426 | 2/DF74EBF8               |           12338916344

 2017-02-09 06:12:37.631473+01 | 1486617157.63147 | 2/DFBBF658               |           12343572056

 2017-02-09 06:12:38.752471+01 | 1486617158.75247 | 2/DFFD0378               |           12347835256

 2017-02-09 06:12:39.951803+01 | 1486617159.9518 | 2/E04478E0               |           12352518368

 2017-02-09 06:12:41.052198+01 | 1486617161.0522 | 2/E0851DA8               |           12356754856

 2017-02-09 06:12:42.115569+01 | 1486617162.11557 | 2/E0C3C120               |           12360859936

 2017-02-09 06:12:43.217384+01 | 1486617163.21738 | 2/E104BC80               |           12365118592

 2017-02-09 06:12:44.403561+01 | 1486617164.40356 | 2/E14B4790               |           12369741712

 2017-02-09 06:12:45.523199+01 | 1486617165.5232 | 2/E18D17C8               |           12374054856

 2017-02-09 06:12:46.681922+01 | 1486617166.68192 | 2/E1D18448               |           12378539080

 2017-02-09 06:12:47.826194+01 | 1486617167.82619 | 2/E215E120               |           12383019296

 2017-02-09 06:12:48.926113+01 | 1486617168.92611 | 2/E258A668               |           12387395176

 2017-02-09 06:12:50.096827+01 | 1486617170.09683 | 2/E29DC120               |           12391924000

 2017-02-09 06:12:51.278797+01 | 1486617171.2788 | 2/E2E4BA00               |           12396575232

 2017-02-09 06:12:52.38015+01 | 1486617172.38015 | 2/E32718B8               |           12400924856

 2017-02-09 06:12:53.542658+01 | 1486617173.54266 | 2/E36EA7B8               |           12405614520

 2017-02-09 06:12:54.699796+01 | 1486617174.6998 | 2/E3B337F0               |           12410107888

 2017-02-09 06:12:55.82895+01 | 1486617175.82895 | 2/E3F7AEA8               |           12414594728

 2017-02-09 06:12:56.998083+01 | 1486617176.99808 | 2/E43CDA00               |           12419127808

 2017-02-09 06:12:58.131672+01 | 1486617178.13167 | 2/E4803AC0               |           12423543488

 2017-02-09 06:12:59.249658+01 | 1486617179.24966 | 2/E4C414A0               |           12427990176

 2017-02-09 06:13:00.386965+01 | 1486617180.38697 | 2/E5081300               |           12432446208

 2017-02-09 06:13:01.519179+01 | 1486617181.51918 | 2/E54B5348               |           12436853576

 2017-02-09 06:13:02.682351+01 | 1486617182.68235 | 2/E590C3A8               |           12441404328

 2017-02-09 06:13:03.795539+01 | 1486617183.79554 | 2/E5D56F00               |           12445904640

 2017-02-09 06:13:04.927179+01 | 1486617184.92718 | 2/E619F940               |           12450396480

 2017-02-09 06:13:06.071889+01 | 1486617186.07189 | 2/E65F0240               |           12454920768

 2017-02-09 06:13:07.237348+01 | 1486617187.23735 | 2/E6A55378               |           12459529080

 2017-02-09 06:13:08.331736+01 | 1486617188.33174 | 2/E6E7E5F0               |           12463891952

 2017-02-09 06:13:09.461486+01 | 1486617189.46149 | 2/E72C0768               |           12468356968

 2017-02-09 06:13:10.621645+01 | 1486617190.62164 | 2/E770CCE8               |           12472863976

 2017-02-09 06:13:11.801462+01 | 1486617191.80146 | 2/E7B7FC78               |           12477529208

 2017-02-09 06:13:12.947208+01 | 1486617192.94721 | 2/E7FD30F8               |           12482064632

 2017-02-09 06:13:14.128659+01 | 1486617194.12866 | 2/E84453F0               |           12486726640

 2017-02-09 06:13:15.230601+01 | 1486617195.2306 | 2/E88693B8               |           12491068344

 2017-02-09 06:13:16.400754+01 | 1486617196.40075 | 2/E8CC3870               |           12495632496

 2017-02-09 06:13:17.578387+01 | 1486617197.57839 | 2/E9138128               |           12500304168

 2017-02-09 06:13:18.725515+01 | 1486617198.72551 | 2/E9588500               |           12504827136

 2017-02-09 06:13:19.927496+01 | 1486617199.9275 | 2/E9A04B60               |           12509530976

 2017-02-09 06:13:21.042212+01 | 1486617201.04221 | 2/E9E34DE8               |           12513922536

 2017-02-09 06:13:22.182264+01 | 1486617202.18226 | 2/EA264550               |           12518311248

 2017-02-09 06:13:23.265964+01 | 1486617203.26596 | 2/EA673E88               |           12522569352

 2017-02-09 06:13:24.345618+01 | 1486617204.34562 | 2/EAA810D8               |           12526817496

 2017-02-09 06:13:25.478321+01 | 1486617205.47832 | 2/EAEBFA90               |           12531268240

 2017-02-09 06:13:26.603915+01 | 1486617206.60391 | 2/EB45FF50               |           12537167696

 2017-02-09 06:13:27.776778+01 | 1486617207.77678 | 2/EBA8A8C8               |           12543633608

 2017-02-09 06:13:28.935324+01 | 1486617208.93532 | 2/EC08B7E8               |           12549928936

 2017-02-09 06:13:30.062961+01 | 1486617210.06296 | 2/EC62D648               |           12555834952

 2017-02-09 06:13:31.239629+01 | 1486617211.23963 | 2/ECAF47E8               |           12560844776

 2017-02-09 06:13:32.447568+01 | 1486617212.44757 | 2/ECF61170               |           12565483888

 2017-02-09 06:13:33.600754+01 | 1486617213.60075 | 2/ED37BCA8               |           12569787560

 2017-02-09 06:13:34.761388+01 | 1486617214.76139 | 2/ED7A2970               |           12574140784

 2017-02-09 06:13:35.838465+01 | 1486617215.83846 | 2/EDB79220               |           12578165280

 2017-02-09 06:13:37.005208+01 | 1486617217.00521 | 2/EDFA9C38               |           12582558776

 2017-02-09 06:13:38.166459+01 | 1486617218.16646 | 2/EE3D0708               |           12586911496

 2017-02-09 06:13:39.308506+01 | 1486617219.30851 | 2/EE7E5CB8               |           12591193272

 2017-02-09 06:13:40.456797+01 | 1486617220.4568 | 2/EEC10B38               |           12595563320

 2017-02-09 06:13:41.547743+01 | 1486617221.54774 | 2/EF0080E8               |           12599726104

 2017-02-09 06:13:42.723667+01 | 1486617222.72367 | 2/EF451088               |           12604215432

 2017-02-09 06:13:43.838333+01 | 1486617223.83833 | 2/EF84FAD0               |           12608404176

 2017-02-09 06:13:44.97157+01 | 1486617224.97157 | 2/EFC7FA98               |           12612795032

 2017-02-09 06:13:46.069563+01 | 1486617226.06956 | 2/F0090BB8               |           12617059256

 2017-02-09 06:13:47.264261+01 | 1486617227.26426 | 2/F04F6D28               |           12621671720

 2017-02-09 06:13:48.378371+01 | 1486617228.37837 | 2/F0915720               |           12625991456

 2017-02-09 06:13:49.542436+01 | 1486617229.54244 | 2/F0D66160               |           12630516064

 2017-02-09 06:13:50.674748+01 | 1486617230.67475 | 2/F119E3F0               |           12634940400

 2017-02-09 06:13:51.864602+01 | 1486617231.8646 | 2/F15F8AC8               |           12639505096

 2017-02-09 06:13:53.033347+01 | 1486617233.03335 | 2/F1A53E48               |           12644073032

 2017-02-09 06:13:54.160778+01 | 1486617234.16078 | 2/F1E845A8               |           12648465832

 2017-02-09 06:13:55.340102+01 | 1486617235.3401 | 2/F22F7548               |           12653131080

 2017-02-09 06:13:56.423219+01 | 1486617236.42322 | 2/F26F6F00               |           12657323776

 2017-02-09 06:13:57.52485+01 | 1486617237.52485 | 2/F2B1C980               |           12661672320

 2017-02-09 06:13:58.711614+01 | 1486617238.71161 | 2/F2F9BB78               |           12666387320

 2017-02-09 06:13:59.85061+01 | 1486617239.85061 | 2/F33E73B0               |           12670890928

 2017-02-09 06:14:00.961365+01 | 1486617240.96136 | 2/F3823FA8               |           12675334056

 2017-02-09 06:14:02.075557+01 | 1486617242.07556 | 2/F3C69D60               |           12679814496

 2017-02-09 06:14:03.220045+01 | 1486617243.22005 | 2/F40AEBE0               |           12684291040

 2017-02-09 06:14:04.378197+01 | 1486617244.3782 | 2/F45089F0               |           12688853488

 2017-02-09 06:14:05.546088+01 | 1486617245.54609 | 2/F4974318               |           12693488408

 2017-02-09 06:14:06.716195+01 | 1486617246.7162 | 2/F4DE4C10               |           12698143760

 2017-02-09 06:14:07.833252+01 | 1486617247.83325 | 2/F520BC68               |           12702497896

 2017-02-09 06:14:08.925069+01 | 1486617248.92507 | 2/F56231A8               |           12706787752

 2017-02-09 06:14:10.074902+01 | 1486617250.0749 | 2/F5A6CFF8               |           12711284728

 2017-02-09 06:14:11.200625+01 | 1486617251.20062 | 2/F5E9E8A8               |           12715681960

 2017-02-09 06:14:12.376725+01 | 1486617252.37672 | 2/F62FD880               |           12720265344

 2017-02-09 06:14:13.488997+01 | 1486617253.489 | 2/F671D190               |           12724588944

 2017-02-09 06:14:14.621447+01 | 1486617254.62145 | 2/F6B4DE18               |           12728983064

 2017-02-09 06:14:15.698347+01 | 1486617255.69835 | 2/F6F4DDC8               |           12733177288

 2017-02-09 06:14:16.857191+01 | 1486617256.85719 | 2/F739E1C8               |           12737700296

 2017-02-09 06:14:17.985784+01 | 1486617257.98578 | 2/F77D8E80               |           12742135424

 2017-02-09 06:14:19.167409+01 | 1486617259.16741 | 2/F7C39030               |           12746723376

 2017-02-09 06:14:20.357499+01 | 1486617260.3575 | 2/F80A40C0               |           12751357200

 2017-02-09 06:14:21.491122+01 | 1486617261.49112 | 2/F84CA810               |           12755707920

 2017-02-09 06:14:22.675413+01 | 1486617262.67541 | 2/F8934908               |           12760336648

 2017-02-09 06:14:23.846544+01 | 1486617263.84654 | 2/F8D825C0               |           12764849600

 2017-02-09 06:14:24.961864+01 | 1486617264.96186 | 2/F91A08F0               |           12769167600

 2017-02-09 06:14:26.082352+01 | 1486617266.08235 | 2/F9636D20               |           12773977376

 2017-02-09 06:14:27.258817+01 | 1486617267.25882 | 2/F9CA6D48               |           12780727624

 2017-02-09 06:14:28.451703+01 | 1486617268.4517 | 2/FA2EEF18               |           12787314456

 2017-02-09 06:14:29.539656+01 | 1486617269.53966 | 2/FA8461E8               |           12792914408

 2017-02-09 06:14:30.749968+01 | 1486617270.74997 | 2/FAD61590               |           12798268816

 2017-02-09 06:14:31.964112+01 | 1486617271.96411 | 2/FB220550               |           12803245392

 2017-02-09 06:14:33.144834+01 | 1486617273.14483 | 2/FB629E68               |           12807478888

 2017-02-09 06:14:34.229682+01 | 1486617274.22968 | 2/FB9EF5C0               |           12811433408

 2017-02-09 06:14:35.389218+01 | 1486617275.38922 | 2/FBE00668               |           12815697512

 2017-02-09 06:14:36.575865+01 | 1486617276.57587 | 2/FC2331D0               |           12820099536

 2017-02-09 06:14:37.663743+01 | 1486617277.66374 | 2/FC60B9D8               |           12824132056

 2017-02-09 06:14:38.853809+01 | 1486617278.85381 | 2/FCA4E3A8               |           12828599208

 2017-02-09 06:14:40.000177+01 | 1486617280.00018 | 2/FCE71A50               |           12832938576

 2017-02-09 06:14:41.16776+01 | 1486617281.16776 | 2/FD2AFF98               |           12837388184

 2017-02-09 06:14:42.305951+01 | 1486617282.30595 | 2/FD6CB9B0               |           12841695664

 2017-02-09 06:14:43.453267+01 | 1486617283.45327 | 2/FDAF8088               |           12846071944

 2017-02-09 06:14:44.569155+01 | 1486617284.56915 | 2/FDF03018               |           12850311192

 2017-02-09 06:14:45.691022+01 | 1486617285.69102 | 2/FE3150E0               |           12854579424

 2017-02-09 06:14:46.842434+01 | 1486617286.84243 | 2/FE736DD0               |           12858912208

 2017-02-09 06:14:47.984208+01 | 1486617287.98421 | 2/FEB61550               |           12863280464

 2017-02-09 06:14:49.073208+01 | 1486617289.07321 | 2/FEF5A230               |           12867445296

 2017-02-09 06:14:50.205914+01 | 1486617290.20591 | 2/FF36F348               |           12871725896

 2017-02-09 06:14:51.379361+01 | 1486617291.37936 | 2/FF7BB020               |           12876230688

 2017-02-09 06:14:52.485414+01 | 1486617292.48541 | 2/FFBCE138               |           12880503096

 2017-02-09 06:14:53.649817+01 | 1486617293.64982 | 3/149C8                  |           12884986312

 2017-02-09 06:14:54.760204+01 | 1486617294.7602 | 3/42A7D8                 |           12889270232

 2017-02-09 06:14:55.950739+01 | 1486617295.95074 | 3/893F48                 |           12893896520

 2017-02-09 06:14:57.064177+01 | 1486617297.06418 | 3/CAF5E8                 |           12898203112

 2017-02-09 06:14:58.217905+01 | 1486617298.21791 | 3/10F8B08                |           12902697736

 2017-02-09 06:14:59.368387+01 | 1486617299.36839 | 3/153B570                |           12907165040

 2017-02-09 06:15:00.481889+01 | 1486617300.48189 | 3/196DBC0                |           12911565760

 2017-02-09 06:15:01.576156+01 | 1486617301.57616 | 3/1D75CE0                |           12915793120

 2017-02-09 06:15:02.723603+01 | 1486617302.7236 | 3/21B1BF0                |           12920232944

 2017-02-09 06:15:03.874134+01 | 1486617303.87413 | 3/2605260                |           12924768864

 2017-02-09 06:15:05.053641+01 | 1486617305.05364 | 3/2A65780                |           12929357696

 2017-02-09 06:15:06.216199+01 | 1486617306.2162 | 3/2EC1588                |           12933928328

 2017-02-09 06:15:07.370566+01 | 1486617307.37057 | 3/33014F8                |           12938384632

 2017-02-09 06:15:08.531468+01 | 1486617308.53147 | 3/375EF28                |           12942962472

 2017-02-09 06:15:09.643259+01 | 1486617309.64326 | 3/3B78188                |           12947259784

 2017-02-09 06:15:10.818719+01 | 1486617310.81872 | 3/3FC6F00                |           12951777024

 2017-02-09 06:15:11.970451+01 | 1486617311.97045 | 3/4409530                |           12956243248

 2017-02-09 06:15:13.133329+01 | 1486617313.13333 | 3/484F8A0                |           12960725152

 2017-02-09 06:15:14.234681+01 | 1486617314.23468 | 3/4C6CCA8                |           12965039272

 2017-02-09 06:15:15.390991+01 | 1486617315.39099 | 3/50A9700                |           12969481984

 2017-02-09 06:15:16.494304+01 | 1486617316.4943 | 3/54B0AC0                |           12973705920

 2017-02-09 06:15:17.671159+01 | 1486617317.67116 | 3/5900B20                |           12978228000

 2017-02-09 06:15:18.77729+01 | 1486617318.77729 | 3/5D15C90                |           12982508688

 2017-02-09 06:15:19.86483+01 | 1486617319.86483 | 3/610BFF8                |           12986662904

 2017-02-09 06:15:21.011189+01 | 1486617321.01119 | 3/654C760                |           12991121248

 2017-02-09 06:15:22.096058+01 | 1486617322.09606 | 3/6950448                |           12995331144

 2017-02-09 06:15:23.17681+01 | 1486617323.17681 | 3/6D4A098                |           12999499928

 2017-02-09 06:15:24.264669+01 | 1486617324.26467 | 3/714BFE8                |           13003702248

 2017-02-09 06:15:25.43872+01 | 1486617325.43872 | 3/758C7D0                |           13008160720

 2017-02-09 06:15:26.598547+01 | 1486617326.59855 | 3/7AEED48                |           13013806408

 2017-02-09 06:15:27.794562+01 | 1486617327.79456 | 3/8149980                |           13020469632

 2017-02-09 06:15:28.931927+01 | 1486617328.93193 | 3/8731A80                |           13026663040

 2017-02-09 06:15:30.089941+01 | 1486617330.08994 | 3/8CEBC10                |           13032668176

 2017-02-09 06:15:31.265952+01 | 1486617331.26595 | 3/91C0CC8                |           13037735112

 2017-02-09 06:15:32.469526+01 | 1486617332.46953 | 3/95F2B28                |           13042133800

 2017-02-09 06:15:33.633826+01 | 1486617333.63383 | 3/99FC950                |           13046368592

 2017-02-09 06:15:34.788237+01 | 1486617334.78824 | 3/9DFECA8                |           13050571944

 2017-02-09 06:15:35.946619+01 | 1486617335.94662 | 3/A214670                |           13054854768

 2017-02-09 06:15:37.099281+01 | 1486617337.09928 | 3/A621C80                |           13059103872

 2017-02-09 06:15:38.260979+01 | 1486617338.26098 | 3/AA4F738                |           13063485240

 2017-02-09 06:15:39.37964+01 | 1486617339.37964 | 3/AE433F8                |           13067629560

 2017-02-09 06:15:40.532195+01 | 1486617340.5322 | 3/B264D90                |           13071961488

 2017-02-09 06:15:41.65744+01 | 1486617341.65744 | 3/B669810                |           13076174864

 2017-02-09 06:15:42.8219+01 | 1486617342.8219 | 3/BA9B7E0                |           13080573920

 2017-02-09 06:15:43.995365+01 | 1486617343.99536 | 3/BED7F28                |           13085015848

 2017-02-09 06:15:45.132116+01 | 1486617345.13212 | 3/C2F5FC8                |           13089333192

 2017-02-09 06:15:46.230208+01 | 1486617346.23021 | 3/C6F5888                |           13093525640

 2017-02-09 06:15:47.352107+01 | 1486617347.35211 | 3/CB10020                |           13097828384

 2017-02-09 06:15:48.489825+01 | 1486617348.48983 | 3/CF2F1B8                |           13102150072

 2017-02-09 06:15:49.655567+01 | 1486617349.65557 | 3/D3761A8                |           13106635176

 2017-02-09 06:15:50.794244+01 | 1486617350.79424 | 3/D7A9210                |           13111038480

 2017-02-09 06:15:51.936721+01 | 1486617351.93672 | 3/DBD7AF8                |           13115423480

 2017-02-09 06:15:53.012794+01 | 1486617353.01279 | 3/DFBE308                |           13119513352

 2017-02-09 06:15:54.148317+01 | 1486617354.14832 | 3/E3EB6B0                |           13123892912

 2017-02-09 06:15:55.294875+01 | 1486617355.29487 | 3/E81CEB0                |           13128289968

 2017-02-09 06:15:56.441261+01 | 1486617356.44126 | 3/EC4C7D8                |           13132679128

 2017-02-09 06:15:57.577981+01 | 1486617357.57798 | 3/F079178                |           13137056120

 2017-02-09 06:15:58.709126+01 | 1486617358.70913 | 3/F493690                |           13141358224

 2017-02-09 06:15:59.783521+01 | 1486617359.78352 | 3/F88DEA0                |           13145530016

 2017-02-09 06:16:00.921345+01 | 1486617360.92134 | 3/FCC0F70                |           13149933424

 2017-02-09 06:16:02.059168+01 | 1486617362.05917 | 3/100E7AA8               |           13154286248

 2017-02-09 06:16:03.149506+01 | 1486617363.14951 | 3/104ED230               |           13158502960

 2017-02-09 06:16:04.260386+01 | 1486617364.26039 | 3/108FB6D0               |           13162755792

 2017-02-09 06:16:05.392782+01 | 1486617365.39278 | 3/10D285D8               |           13167134168

 2017-02-09 06:16:06.486807+01 | 1486617366.48681 | 3/11131730               |           13171365680

 2017-02-09 06:16:07.659892+01 | 1486617367.65989 | 3/11581B30               |           13175888688

 2017-02-09 06:16:08.792957+01 | 1486617368.79296 | 3/119AED98               |           13180267928

 2017-02-09 06:16:09.981087+01 | 1486617369.98109 | 3/11DDC260               |           13184647776

