 2017-02-10 15:46:26.583584+01 | 1486737986.58358 | 9/E2E091B0               |           42461073840

 2017-02-10 15:46:27.626659+01 | 1486737987.62666 | 9/E7EC9360               |           42545746784

 2017-02-10 15:46:28.678627+01 | 1486737988.67863 | 9/ECC228C0               |           42626853056

 2017-02-10 15:46:29.73494+01 | 1486737989.73494 | 9/F14FBB18               |           42703239960

 2017-02-10 15:46:30.787717+01 | 1486737990.78772 | 9/F5967FC0               |           42774986688

 2017-02-10 15:46:31.840072+01 | 1486737991.84007 | 9/F9A10F60               |           42842787680

 2017-02-10 15:46:32.892019+01 | 1486737992.89202 | 9/FD5AAAA8               |           42905283240

 2017-02-10 15:46:33.945638+01 | 1486737993.94564 | A/EE3A70                 |           42965285488

 2017-02-10 15:46:34.997665+01 | 1486737994.99766 | A/4426C60                |           43021134944

 2017-02-10 15:46:36.048314+01 | 1486737996.04831 | A/760C2F0                |           43073454832

 2017-02-10 15:46:37.099398+01 | 1486737997.0994 | A/A409AD0                |           43121679056

 2017-02-10 15:46:38.156635+01 | 1486737998.15664 | A/CC89140                |           43164143936

 2017-02-10 15:46:39.209349+01 | 1486737999.20935 | A/F574FD0                |           43207053264

 2017-02-10 15:46:40.260701+01 | 1486738000.2607 | A/11CDDFC8               |           43248377800

 2017-02-10 15:46:41.315287+01 | 1486738001.31529 | A/14191960               |           43286862176

 2017-02-10 15:46:42.365454+01 | 1486738002.36545 | A/161F1B58               |           43320810328

 2017-02-10 15:46:43.414279+01 | 1486738003.41428 | A/18247CA0               |           43354717344

 2017-02-10 15:46:44.464517+01 | 1486738004.46452 | A/1A0C4A18               |           43386685976

 2017-02-10 15:46:45.518079+01 | 1486738005.51808 | A/1BCF2D30               |           43416235312

 2017-02-10 15:46:46.573461+01 | 1486738006.57346 | A/1D9134F0               |           43445728496

 2017-02-10 15:46:47.6274+01 | 1486738007.6274 | A/1F3CB030               |           43473743920

 2017-02-10 15:46:48.681382+01 | 1486738008.68138 | A/20C33B80               |           43499338624

 2017-02-10 15:46:49.735273+01 | 1486738009.73527 | A/224F5B38               |           43525299000

 2017-02-10 15:46:50.787561+01 | 1486738010.78756 | A/23AC4D48               |           43548167496

 2017-02-10 15:46:51.840767+01 | 1486738011.84077 | A/250FFA08               |           43571477000

 2017-02-10 15:46:52.883675+01 | 1486738012.88368 | A/26611B28               |           43593571112

 2017-02-10 15:46:53.937495+01 | 1486738013.93749 | A/27C995D0               |           43617195472

 2017-02-10 15:46:54.992127+01 | 1486738014.99213 | A/292F6D00               |           43640646912

 2017-02-10 15:46:56.045158+01 | 1486738016.04516 | A/2A8CE0E0               |           43663548640

 2017-02-10 15:46:57.095738+01 | 1486738017.09574 | A/2C144768               |           43689199464

 2017-02-10 15:46:58.147865+01 | 1486738018.14787 | A/2D93BCD8               |           43714329816

 2017-02-10 15:46:59.198395+01 | 1486738019.1984 | A/2F174988               |           43739728264

 2017-02-10 15:47:00.251152+01 | 1486738020.25115 | A/30892220               |           43763966496

 2017-02-10 15:47:01.294974+01 | 1486738021.29497 | A/318CD698               |           43780986520

 2017-02-10 15:47:02.347491+01 | 1486738022.34749 | A/32A0A2D0               |           43799061200

 2017-02-10 15:47:03.401326+01 | 1486738023.40133 | A/33ACBAC8               |           43816630984

 2017-02-10 15:47:04.458122+01 | 1486738024.45812 | A/34A59E10               |           43832942096

 2017-02-10 15:47:05.510265+01 | 1486738025.51027 | A/35A27680               |           43849512576

 2017-02-10 15:47:06.561187+01 | 1486738026.56119 | A/368DEE50               |           43864944208

 2017-02-10 15:47:07.615004+01 | 1486738027.615 | A/3780C548               |           43880858952

 2017-02-10 15:47:08.667492+01 | 1486738028.66749 | A/38590530               |           43895031088

 2017-02-10 15:47:09.72046+01 | 1486738029.72046 | A/3938F160               |           43909706080

 2017-02-10 15:47:10.773255+01 | 1486738030.77326 | A/3A0031D0               |           43922764240

 2017-02-10 15:47:11.826375+01 | 1486738031.82638 | A/3ADB0748               |           43937105736

 2017-02-10 15:47:12.877082+01 | 1486738032.87708 | A/3BA7EB80               |           43950533504

 2017-02-10 15:47:13.928632+01 | 1486738033.92863 | A/3C793488               |           43964249224

 2017-02-10 15:47:14.981736+01 | 1486738034.98174 | A/3D393488               |           43976832136

 2017-02-10 15:47:16.034772+01 | 1486738036.03477 | A/3E072A88               |           43990329992

 2017-02-10 15:47:17.086556+01 | 1486738037.08656 | A/3EBE9F00               |           44002352896

 2017-02-10 15:47:18.13947+01 | 1486738038.13947 | A/3F89D800               |           44015671296

 2017-02-10 15:47:19.197785+01 | 1486738039.19778 | A/404D3FF0               |           44028477424

 2017-02-10 15:47:20.251046+01 | 1486738040.25105 | A/41086E78               |           44040744568

 2017-02-10 15:47:21.303829+01 | 1486738041.30383 | A/41CB07D0               |           44053497808

 2017-02-10 15:47:22.357288+01 | 1486738042.35729 | A/427B4538               |           44065047864

 2017-02-10 15:47:23.413708+01 | 1486738043.41371 | A/433D7E38               |           44077776440

 2017-02-10 15:47:24.471149+01 | 1486738044.47115 | A/43EA00B8               |           44089082040

 2017-02-10 15:47:25.523013+01 | 1486738045.52301 | A/44A2EC50               |           44101200976

 2017-02-10 15:47:26.574082+01 | 1486738046.57408 | A/45488AF8               |           44112055032

 2017-02-10 15:47:27.631828+01 | 1486738047.63183 | A/46024AC0               |           44124228288

 2017-02-10 15:47:28.687259+01 | 1486738048.68726 | A/46A920B8               |           44135162040

 2017-02-10 15:47:29.739828+01 | 1486738049.73983 | A/47531880               |           44146301056

 2017-02-10 15:47:30.79391+01 | 1486738050.79391 | A/47F42040               |           44156854336

 2017-02-10 15:47:31.846439+01 | 1486738051.84644 | A/489F86A0               |           44168087200

 2017-02-10 15:47:32.897315+01 | 1486738052.89732 | A/493EBAB8               |           44178520760

 2017-02-10 15:47:33.952196+01 | 1486738053.9522 | A/49E6B1B8               |           44189528504

 2017-02-10 15:47:35.006102+01 | 1486738055.0061 | A/4A7CB6D8               |           44199360216

 2017-02-10 15:47:36.058186+01 | 1486738056.05819 | A/4B204970               |           44210080112

 2017-02-10 15:47:37.108724+01 | 1486738057.10872 | A/4BBB3388               |           44220232584

 2017-02-10 15:47:38.160788+01 | 1486738058.16079 | A/4C596838               |           44230600760

 2017-02-10 15:47:39.210858+01 | 1486738059.21086 | A/4CF6AAB0               |           44240906928

 2017-02-10 15:47:40.261626+01 | 1486738060.26163 | A/4D9608F8               |           44251351288

 2017-02-10 15:47:41.319972+01 | 1486738061.31997 | A/4E2F90A0               |           44261413024

 2017-02-10 15:47:42.380749+01 | 1486738062.38075 | A/4EC61400               |           44271277056

 2017-02-10 15:47:43.434602+01 | 1486738063.4346 | A/4F65DFB0               |           44281749424

 2017-02-10 15:47:44.490813+01 | 1486738064.49081 | A/4FF776C8               |           44291290824

 2017-02-10 15:47:45.543361+01 | 1486738065.54336 | A/50881BD0               |           44300770256

 2017-02-10 15:47:46.599814+01 | 1486738066.59981 | A/51129188               |           44309844360

 2017-02-10 15:47:47.65149+01 | 1486738067.65149 | A/51A5AF60               |           44319485792

 2017-02-10 15:47:48.703954+01 | 1486738068.70395 | A/522D06C8               |           44328355528

 2017-02-10 15:47:49.753882+01 | 1486738069.75388 | A/52BEFE00               |           44337921536

 2017-02-10 15:47:50.805723+01 | 1486738070.80572 | A/534AA5B0               |           44347073968

 2017-02-10 15:47:51.862304+01 | 1486738071.8623 | A/53DEEEA8               |           44356791976

 2017-02-10 15:47:52.905607+01 | 1486738072.90561 | A/54676580               |           44365735296

 2017-02-10 15:47:53.958533+01 | 1486738073.95853 | A/5500DA48               |           44375792200

 2017-02-10 15:47:55.011639+01 | 1486738075.01164 | A/55963610               |           44385580560

 2017-02-10 15:47:56.066161+01 | 1486738076.06616 | A/56222A88               |           44394752648

 2017-02-10 15:47:57.117213+01 | 1486738077.11721 | A/56A9D2E8               |           44403643112

 2017-02-10 15:47:58.169787+01 | 1486738078.16979 | A/572FF618               |           44412433944

 2017-02-10 15:47:59.221189+01 | 1486738079.22119 | A/57B44C38               |           44421106744

 2017-02-10 15:48:00.280517+01 | 1486738080.28052 | A/58386EC0               |           44429766336

 2017-02-10 15:48:01.331028+01 | 1486738081.33103 | A/58BC0B80               |           44438391680

 2017-02-10 15:48:02.385621+01 | 1486738082.38562 | A/59409B10               |           44447079184

 2017-02-10 15:48:03.457388+01 | 1486738083.45739 | A/59C09238               |           44455465528

 2017-02-10 15:48:04.511579+01 | 1486738084.51158 | A/5A45E748               |           44464203592

 2017-02-10 15:48:05.563437+01 | 1486738085.56344 | A/5AC6CD58               |           44472651096

 2017-02-10 15:48:06.616302+01 | 1486738086.6163 | A/5B45A4D0               |           44480963792

 2017-02-10 15:48:07.671713+01 | 1486738087.67171 | A/5BC20B20               |           44489116448

 2017-02-10 15:48:08.726924+01 | 1486738088.72692 | A/5C4538C8               |           44497713352

 2017-02-10 15:48:09.780153+01 | 1486738089.78015 | A/5CBF87C0               |           44505728960

 2017-02-10 15:48:10.831624+01 | 1486738090.83162 | A/5D3EFEC8               |           44514082504

 2017-02-10 15:48:11.886492+01 | 1486738091.88649 | A/5DB74C68               |           44521966696

 2017-02-10 15:48:12.941401+01 | 1486738092.9414 | A/5E3703B0               |           44530336688

 2017-02-10 15:48:13.996081+01 | 1486738093.99608 | A/5EAF29A0               |           44538210720

 2017-02-10 15:48:15.051472+01 | 1486738095.05147 | A/5F2B8D78               |           44546362744

 2017-02-10 15:48:16.106822+01 | 1486738096.10682 | A/5F9DD3C0               |           44553851840

 2017-02-10 15:48:17.158716+01 | 1486738097.15872 | A/601AF868               |           44562053224

 2017-02-10 15:48:18.209204+01 | 1486738098.2092 | A/608D73C0               |           44569555904

 2017-02-10 15:48:19.263333+01 | 1486738099.26333 | A/6105F288               |           44577452680

 2017-02-10 15:48:20.316147+01 | 1486738100.31615 | A/617654F0               |           44584817904

 2017-02-10 15:48:21.367751+01 | 1486738101.36775 | A/61F42B50               |           44593064784

 2017-02-10 15:48:22.419467+01 | 1486738102.41947 | A/6269D468               |           44600775784

 2017-02-10 15:48:23.472837+01 | 1486738103.47284 | A/62DF6180               |           44608479616

 2017-02-10 15:48:24.54727+01 | 1486738104.54727 | A/634F2DD8               |           44615806424

 2017-02-10 15:48:25.602703+01 | 1486738105.6027 | A/63C99B10               |           44623829776

 2017-02-10 15:48:26.657981+01 | 1486738106.65798 | A/6430DEC8               |           44630597320

 2017-02-10 15:48:27.70987+01 | 1486738107.70987 | A/64A785E8               |           44638373352

 2017-02-10 15:48:28.764207+01 | 1486738108.76421 | A/65152AD0               |           44645558992

 2017-02-10 15:48:29.818128+01 | 1486738109.81813 | A/658998E0               |           44653189344

 2017-02-10 15:48:30.871499+01 | 1486738110.8715 | A/65FA3EF8               |           44660571896

 2017-02-10 15:48:31.924783+01 | 1486738111.92478 | A/666D0FD0               |           44668096464

 2017-02-10 15:48:32.978659+01 | 1486738112.97866 | A/66DAE330               |           44675294000

 2017-02-10 15:48:34.030598+01 | 1486738114.0306 | A/674D7420               |           44682802208

 2017-02-10 15:48:35.086514+01 | 1486738115.08651 | A/67B825E8               |           44689794536

 2017-02-10 15:48:36.141817+01 | 1486738116.14182 | A/682852D8               |           44697146072

 2017-02-10 15:48:37.193516+01 | 1486738117.19352 | A/68935940               |           44704160064

 2017-02-10 15:48:38.245277+01 | 1486738118.24528 | A/6905DB50               |           44711664464

 2017-02-10 15:48:39.297107+01 | 1486738119.29711 | A/697037A8               |           44718634920

 2017-02-10 15:48:40.352458+01 | 1486738120.35246 | A/69E57F90               |           44726321040

 2017-02-10 15:48:41.409361+01 | 1486738121.40936 | A/6A4E17A8               |           44733175720

 2017-02-10 15:48:42.460568+01 | 1486738122.46057 | A/6AC0FEB8               |           44740705976

 2017-02-10 15:48:43.513904+01 | 1486738123.5139 | A/6B2EAD60               |           44747894112

 2017-02-10 15:48:44.567748+01 | 1486738124.56775 | A/6B9ABCE0               |           44754975968

 2017-02-10 15:48:45.621033+01 | 1486738125.62103 | A/6C01F950               |           44761741648

 2017-02-10 15:48:46.672111+01 | 1486738126.67211 | A/6C70FF98               |           44769017752

 2017-02-10 15:48:47.72485+01 | 1486738127.72485 | A/6CD79800               |           44775741440

 2017-02-10 15:48:48.775326+01 | 1486738128.77533 | A/6D428850               |           44782749776

 2017-02-10 15:48:49.834083+01 | 1486738129.83408 | A/6DB45EC0               |           44790210240

 2017-02-10 15:48:50.885269+01 | 1486738130.88527 | A/6E172C48               |           44796685384

 2017-02-10 15:48:51.941383+01 | 1486738131.94138 | A/6E7E4458               |           44803441752

 2017-02-10 15:48:52.991114+01 | 1486738132.99111 | A/6EE63F48               |           44810256200

 2017-02-10 15:48:54.044298+01 | 1486738134.0443 | A/6F6001E0               |           44818235872

 2017-02-10 15:48:55.093763+01 | 1486738135.09376 | A/6FE72108               |           44827091208

 2017-02-10 15:48:56.145985+01 | 1486738136.14598 | A/7066F858               |           44835469400

 2017-02-10 15:48:57.197679+01 | 1486738137.19768 | A/70CAC348               |           44842009416

 2017-02-10 15:48:58.250584+01 | 1486738138.25058 | A/712AE9A8               |           44848310696

 2017-02-10 15:48:59.30186+01 | 1486738139.30186 | A/7193D790               |           44855187344

 2017-02-10 15:49:00.355325+01 | 1486738140.35532 | A/71F8BA38               |           44861798968

 2017-02-10 15:49:01.406751+01 | 1486738141.40675 | A/72630600               |           44868765184

 2017-02-10 15:49:02.458714+01 | 1486738142.45871 | A/72C86540               |           44875408704

 2017-02-10 15:49:03.513247+01 | 1486738143.51325 | A/732CB528               |           44881982760

 2017-02-10 15:49:04.566781+01 | 1486738144.56678 | A/7392A200               |           44888662528

 2017-02-10 15:49:05.625167+01 | 1486738145.62517 | A/73F775B0               |           44895270320

 2017-02-10 15:49:06.681546+01 | 1486738146.68155 | A/7462B328               |           44902298408

 2017-02-10 15:49:07.736283+01 | 1486738147.73628 | A/74C1B6A0               |           44908525216

 2017-02-10 15:49:08.793751+01 | 1486738148.79375 | A/7529FAC0               |           44915358400

 2017-02-10 15:49:09.848057+01 | 1486738149.84806 | A/758B9690               |           44921755280

 2017-02-10 15:49:10.899822+01 | 1486738150.89982 | A/75F455E0               |           44928620000

 2017-02-10 15:49:11.951352+01 | 1486738151.95135 | A/764FF9D8               |           44934625752

 2017-02-10 15:49:13.005894+01 | 1486738153.00589 | A/76B39BC0               |           44941155264

 2017-02-10 15:49:14.058923+01 | 1486738154.05892 | A/7717DF80               |           44947726208

 2017-02-10 15:49:15.113079+01 | 1486738155.11308 | A/777AFAB8               |           44954221240

 2017-02-10 15:49:16.162929+01 | 1486738156.16293 | A/77D72C28               |           44960263208

 2017-02-10 15:49:17.218341+01 | 1486738157.21834 | A/783A1E38               |           44966747704

 2017-02-10 15:49:18.27143+01 | 1486738158.27143 | A/789C34B0               |           44973175984

 2017-02-10 15:49:19.325654+01 | 1486738159.32565 | A/78FC42C8               |           44979471048

 2017-02-10 15:49:20.378272+01 | 1486738160.37827 | A/79596550               |           44985574736

 2017-02-10 15:49:21.431655+01 | 1486738161.43165 | A/79BCA400               |           44992078848

 2017-02-10 15:49:22.484151+01 | 1486738162.48415 | A/7A159AD8               |           44997909208

 2017-02-10 15:49:23.537024+01 | 1486738163.53702 | A/7A77BE30               |           45004340784

 2017-02-10 15:49:24.588709+01 | 1486738164.58871 | A/7AD859E0               |           45010672096

 2017-02-10 15:49:25.641022+01 | 1486738165.64102 | A/7B3DE688               |           45017327240

 2017-02-10 15:49:26.694721+01 | 1486738166.69472 | A/7B9C5D00               |           45023517952

 2017-02-10 15:49:27.748835+01 | 1486738167.74884 | A/7BF71E68               |           45029465704

 2017-02-10 15:49:28.803274+01 | 1486738168.80327 | A/7C5CDB08               |           45036133128

 2017-02-10 15:49:29.855759+01 | 1486738169.85576 | A/7CB93BA8               |           45042187176

 2017-02-10 15:49:30.907232+01 | 1486738170.90723 | A/7D1BC540               |           45048644928

 2017-02-10 15:49:31.960211+01 | 1486738171.96021 | A/7D77FC90               |           45054688400

 2017-02-10 15:49:33.012112+01 | 1486738173.01211 | A/7DD8FB40               |           45061045056

 2017-02-10 15:49:34.067605+01 | 1486738174.06761 | A/7E2F4088               |           45066698888

 2017-02-10 15:49:35.120652+01 | 1486738175.12065 | A/7E8EC8A0               |           45072959648

 2017-02-10 15:49:36.17672+01 | 1486738176.17672 | A/7EED0DA8               |           45079137704

 2017-02-10 15:49:37.234009+01 | 1486738177.23401 | A/7F4A6868               |           45085255784

 2017-02-10 15:49:38.287328+01 | 1486738178.28733 | A/7FA5D288               |           45091246728

 2017-02-10 15:49:39.337931+01 | 1486738179.33793 | A/800112C8               |           45097226952

 2017-02-10 15:49:40.391655+01 | 1486738180.39165 | A/80596490               |           45103015056

 2017-02-10 15:49:41.444195+01 | 1486738181.4442 | A/80B8DC78               |           45109271672

 2017-02-10 15:49:42.499814+01 | 1486738182.49981 | A/81165588               |           45115397512

 2017-02-10 15:49:43.55289+01 | 1486738183.55289 | A/81713C70               |           45121354864

 2017-02-10 15:49:44.605678+01 | 1486738184.60568 | A/81D1E828               |           45127690280

 2017-02-10 15:49:45.656569+01 | 1486738185.65657 | A/822A4E30               |           45133483568

 2017-02-10 15:49:46.710573+01 | 1486738186.71057 | A/828B8668               |           45139854952

 2017-02-10 15:49:47.762327+01 | 1486738187.76233 | A/82E26120               |           45145547040

 2017-02-10 15:49:48.816539+01 | 1486738188.81654 | A/833E1180               |           45151555968

 2017-02-10 15:49:49.869255+01 | 1486738189.86926 | A/8395D4F8               |           45157307640

 2017-02-10 15:49:50.922855+01 | 1486738190.92285 | A/83F37AB8               |           45163444920

 2017-02-10 15:49:51.972856+01 | 1486738191.97286 | A/844A5408               |           45169136648

 2017-02-10 15:49:53.013344+01 | 1486738193.01334 | A/84A9B578               |           45175387512

 2017-02-10 15:49:54.067122+01 | 1486738194.06712 | A/85116668               |           45182183016

 2017-02-10 15:49:55.12097+01 | 1486738195.12097 | A/8588E9A0               |           45190015392

 2017-02-10 15:49:56.177406+01 | 1486738196.17741 | A/85FF5CF0               |           45197778160

 2017-02-10 15:49:57.229749+01 | 1486738197.22975 | A/866AD3F8               |           45204820984

 2017-02-10 15:49:58.282347+01 | 1486738198.28235 | A/86C8FCA0               |           45210991776

 2017-02-10 15:49:59.334941+01 | 1486738199.33494 | A/872474F8               |           45216986360

 2017-02-10 15:50:00.389876+01 | 1486738200.38988 | A/877DBAD8               |           45222836952

 2017-02-10 15:50:01.442702+01 | 1486738201.4427 | A/87DB7DA0               |           45228981664

 2017-02-10 15:50:02.494055+01 | 1486738202.49406 | A/88367070               |           45234942064

 2017-02-10 15:50:03.546226+01 | 1486738203.54623 | A/888F0AD0               |           45240748752

 2017-02-10 15:50:04.601477+01 | 1486738204.60148 | A/88E02908               |           45246064904

 2017-02-10 15:50:05.655763+01 | 1486738205.65576 | A/893E3310               |           45252227856

 2017-02-10 15:50:06.710233+01 | 1486738206.71023 | A/89948CE0               |           45257886944

 2017-02-10 15:50:07.763861+01 | 1486738207.76386 | A/89ED2780               |           45263693696

 2017-02-10 15:50:08.818268+01 | 1486738208.81827 | A/8A403BC8               |           45269138376

 2017-02-10 15:50:09.872145+01 | 1486738209.87214 | A/8A9ACE88               |           45275074184

 2017-02-10 15:50:10.929106+01 | 1486738210.92911 | A/8AEF34E8               |           45280605416

 2017-02-10 15:50:11.980623+01 | 1486738211.98062 | A/8B4766B8               |           45286385336

 2017-02-10 15:50:13.033625+01 | 1486738213.03362 | A/8B9C8460               |           45291963488

 2017-02-10 15:50:14.085956+01 | 1486738214.08596 | A/8BF2BDB0               |           45297614256

 2017-02-10 15:50:15.142809+01 | 1486738215.14281 | A/8C453B98               |           45303020440

 2017-02-10 15:50:16.195625+01 | 1486738216.19563 | A/8C9C80F0               |           45308739824

 2017-02-10 15:50:17.248121+01 | 1486738217.24812 | A/8CF0F7C8               |           45314275272

 2017-02-10 15:50:18.301571+01 | 1486738218.30157 | A/8D4C8BB0               |           45320276912

 2017-02-10 15:50:19.355103+01 | 1486738219.3551 | A/8DA138E0               |           45325826272

 2017-02-10 15:50:20.40967+01 | 1486738220.40967 | A/8DF72648               |           45331457608

 2017-02-10 15:50:21.461844+01 | 1486738221.46184 | A/8E510A00               |           45337348608

 2017-02-10 15:50:22.512936+01 | 1486738222.51294 | A/8EA5E658               |           45342910040

 2017-02-10 15:50:23.564469+01 | 1486738223.56447 | A/8EFCF6B8               |           45348615864

 2017-02-10 15:50:24.617793+01 | 1486738224.61779 | A/8F4DCF78               |           45353914232

 2017-02-10 15:50:25.66753+01 | 1486738225.66753 | A/8FA457D0               |           45359585232

 2017-02-10 15:50:26.71974+01 | 1486738226.71974 | A/8FF53D48               |           45364886856

 2017-02-10 15:50:27.777002+01 | 1486738227.777 | A/904E7120               |           45370732832

 2017-02-10 15:50:28.830207+01 | 1486738228.83021 | A/90A17678               |           45376173688

 2017-02-10 15:50:29.884006+01 | 1486738229.88401 | A/90FB1718               |           45382047512

 2017-02-10 15:50:30.934794+01 | 1486738230.93479 | A/914CE1C0               |           45387407808

 2017-02-10 15:50:31.987489+01 | 1486738231.98749 | A/91A11278               |           45392925304

 2017-02-10 15:50:33.047943+01 | 1486738233.04794 | A/91F5AC70               |           45398469744

 2017-02-10 15:50:34.1026+01 | 1486738234.1026 | A/924E2088               |           45404266632

 2017-02-10 15:50:35.153181+01 | 1486738235.15318 | A/929F98E0               |           45409605856

 2017-02-10 15:50:36.205452+01 | 1486738236.20545 | A/92FD86D0               |           45415761616

 2017-02-10 15:50:37.260924+01 | 1486738237.26092 | A/934FEB70               |           45421161328

 2017-02-10 15:50:38.313688+01 | 1486738238.31369 | A/93A58050               |           45426770000

 2017-02-10 15:50:39.366542+01 | 1486738239.36654 | A/93F9DF28               |           45432299304

 2017-02-10 15:50:40.41932+01 | 1486738240.41932 | A/944DC1F8               |           45437796856

 2017-02-10 15:50:41.471882+01 | 1486738241.47188 | A/94A16060               |           45443276896

 2017-02-10 15:50:42.527399+01 | 1486738242.5274 | A/94FB5890               |           45449173136

 2017-02-10 15:50:43.578652+01 | 1486738243.57865 | A/95489AF0               |           45454236400

 2017-02-10 15:50:44.628896+01 | 1486738244.6289 | A/959CDF40               |           45459758912

 2017-02-10 15:50:45.684116+01 | 1486738245.68412 | A/95ED4958               |           45465028952

 2017-02-10 15:50:46.740035+01 | 1486738246.74004 | A/963F81A0               |           45470417312

 2017-02-10 15:50:47.793079+01 | 1486738247.79308 | A/9694A270               |           45475996272

 2017-02-10 15:50:48.847286+01 | 1486738248.84729 | A/96EC08D8               |           45481724120

 2017-02-10 15:50:49.906333+01 | 1486738249.90633 | A/973C7798               |           45486995352

 2017-02-10 15:50:50.957885+01 | 1486738250.95789 | A/978E2390               |           45492347792

 2017-02-10 15:50:52.012914+01 | 1486738252.01291 | A/97DCAC38               |           45497494584

 2017-02-10 15:50:53.053036+01 | 1486738253.05304 | A/98366228               |           45503373864

 2017-02-10 15:50:54.107303+01 | 1486738254.1073 | A/9891C218               |           45509362200

 2017-02-10 15:50:55.159645+01 | 1486738255.15965 | A/98F8FB68               |           45516127080

 2017-02-10 15:50:56.213116+01 | 1486738256.21312 | A/9973EFA8               |           45524185000

 2017-02-10 15:50:57.266354+01 | 1486738257.26635 | A/99EBD570               |           45532042608

 2017-02-10 15:50:58.318809+01 | 1486738258.31881 | A/9A7806E0               |           45541230304

 2017-02-10 15:50:59.370298+01 | 1486738259.3703 | A/9B0251E8               |           45550293480

 2017-02-10 15:51:00.422195+01 | 1486738260.42219 | A/9B9B3298               |           45560312472

 2017-02-10 15:51:01.477172+01 | 1486738261.47717 | A/9BF97528               |           45566489896

 2017-02-10 15:51:02.531346+01 | 1486738262.53135 | A/9C59C4E8               |           45572801768

 2017-02-10 15:51:03.583943+01 | 1486738263.58394 | A/9CB9CE60               |           45579095648

 2017-02-10 15:51:04.636562+01 | 1486738264.63656 | A/9D23BE80               |           45586038400

 2017-02-10 15:51:05.692352+01 | 1486738265.69235 | A/9D8E27C8               |           45593012168

 2017-02-10 15:51:06.747484+01 | 1486738266.74748 | A/9DFE8050               |           45600374864

 2017-02-10 15:51:07.80168+01 | 1486738267.80168 | A/9E67A840               |           45607266368

 2017-02-10 15:51:08.85473+01 | 1486738268.85473 | A/9EB5F540               |           45612397888

 2017-02-10 15:51:09.907313+01 | 1486738269.90731 | A/9F0C7488               |           45618066568

 2017-02-10 15:51:10.961982+01 | 1486738270.96198 | A/9F5C57B8               |           45623302072

 2017-02-10 15:51:12.014702+01 | 1486738272.0147 | A/9FB03F60               |           45628800864

 2017-02-10 15:51:13.065617+01 | 1486738273.06562 | A/A0044F98               |           45634310040

 2017-02-10 15:51:14.116792+01 | 1486738274.11679 | A/A057B710               |           45639776016

 2017-02-10 15:51:15.169874+01 | 1486738275.16987 | A/A0AA9178               |           45645205880

 2017-02-10 15:51:16.220637+01 | 1486738276.22064 | A/A0FDDC10               |           45650664464

 2017-02-10 15:51:17.272952+01 | 1486738277.27295 | A/A1503C10               |           45656062992

 2017-02-10 15:51:18.325799+01 | 1486738278.3258 | A/A19F6EA8               |           45661253288

 2017-02-10 15:51:19.377662+01 | 1486738279.37766 | A/A1F1BC40               |           45666647104

 2017-02-10 15:51:20.429506+01 | 1486738280.42951 | A/A241CA90               |           45671893648

 2017-02-10 15:51:21.480503+01 | 1486738281.4805 | A/A2913278               |           45677097592

 2017-02-10 15:51:22.535696+01 | 1486738282.5357 | A/A2DFB9A8               |           45682244008

 2017-02-10 15:51:23.589043+01 | 1486738283.58904 | A/A332C098               |           45687685272

 2017-02-10 15:51:24.642776+01 | 1486738284.64278 | A/A37DA580               |           45692593536

 2017-02-10 15:51:25.696212+01 | 1486738285.69621 | A/A3CFD9F8               |           45697980920

