 2017-02-08 12:32:52.434181+01 | 1486553572.43418 | pgbench_branches_pkey |            57344
 2017-02-08 12:32:52.434181+01 | 1486553572.43418 | pgbench_tellers_pkey  |           229376
 2017-02-08 12:32:52.434181+01 | 1486553572.43418 | pgbench_accounts_pkey |        112336896

 2017-02-08 12:32:53.487158+01 | 1486553573.48716 | pgbench_branches_pkey |            57344
 2017-02-08 12:32:53.487158+01 | 1486553573.48716 | pgbench_tellers_pkey  |           229376
 2017-02-08 12:32:53.487158+01 | 1486553573.48716 | pgbench_accounts_pkey |        112336896

 2017-02-08 12:32:54.536085+01 | 1486553574.53608 | pgbench_branches_pkey |            57344
 2017-02-08 12:32:54.536085+01 | 1486553574.53608 | pgbench_tellers_pkey  |           229376
 2017-02-08 12:32:54.536085+01 | 1486553574.53608 | pgbench_accounts_pkey |        112336896

 2017-02-08 12:32:55.585557+01 | 1486553575.58556 | pgbench_branches_pkey |            57344
 2017-02-08 12:32:55.585557+01 | 1486553575.58556 | pgbench_tellers_pkey  |           229376
 2017-02-08 12:32:55.585557+01 | 1486553575.58556 | pgbench_accounts_pkey |        112336896

 2017-02-08 12:32:56.638428+01 | 1486553576.63843 | pgbench_branches_pkey |            57344
 2017-02-08 12:32:56.638428+01 | 1486553576.63843 | pgbench_tellers_pkey  |           229376
 2017-02-08 12:32:56.638428+01 | 1486553576.63843 | pgbench_accounts_pkey |        112336896

 2017-02-08 12:32:57.69174+01 | 1486553577.69174 | pgbench_branches_pkey |            57344
 2017-02-08 12:32:57.69174+01 | 1486553577.69174 | pgbench_tellers_pkey  |           229376
 2017-02-08 12:32:57.69174+01 | 1486553577.69174 | pgbench_accounts_pkey |        112336896

 2017-02-08 12:32:58.74221+01 | 1486553578.74221 | pgbench_branches_pkey |            57344
 2017-02-08 12:32:58.74221+01 | 1486553578.74221 | pgbench_tellers_pkey  |           229376
 2017-02-08 12:32:58.74221+01 | 1486553578.74221 | pgbench_accounts_pkey |        112336896

 2017-02-08 12:32:59.798301+01 | 1486553579.7983 | pgbench_branches_pkey |            57344
 2017-02-08 12:32:59.798301+01 | 1486553579.7983 | pgbench_tellers_pkey  |           229376
 2017-02-08 12:32:59.798301+01 | 1486553579.7983 | pgbench_accounts_pkey |        112336896

 2017-02-08 12:33:00.849949+01 | 1486553580.84995 | pgbench_branches_pkey |            57344
 2017-02-08 12:33:00.849949+01 | 1486553580.84995 | pgbench_tellers_pkey  |           229376
 2017-02-08 12:33:00.849949+01 | 1486553580.84995 | pgbench_accounts_pkey |        112336896

 2017-02-08 12:33:01.901564+01 | 1486553581.90156 | pgbench_branches_pkey |            57344
 2017-02-08 12:33:01.901564+01 | 1486553581.90156 | pgbench_tellers_pkey  |           229376
 2017-02-08 12:33:01.901564+01 | 1486553581.90156 | pgbench_accounts_pkey |        112336896

 2017-02-08 12:33:02.948861+01 | 1486553582.94886 | pgbench_branches_pkey |            57344
 2017-02-08 12:33:02.948861+01 | 1486553582.94886 | pgbench_tellers_pkey  |           229376
 2017-02-08 12:33:02.948861+01 | 1486553582.94886 | pgbench_accounts_pkey |        112336896

 2017-02-08 12:33:03.997907+01 | 1486553583.99791 | pgbench_branches_pkey |            57344
 2017-02-08 12:33:03.997907+01 | 1486553583.99791 | pgbench_tellers_pkey  |           229376
 2017-02-08 12:33:03.997907+01 | 1486553583.99791 | pgbench_accounts_pkey |        112336896

 2017-02-08 12:33:05.047821+01 | 1486553585.04782 | pgbench_branches_pkey |            57344
 2017-02-08 12:33:05.047821+01 | 1486553585.04782 | pgbench_tellers_pkey  |           229376
 2017-02-08 12:33:05.047821+01 | 1486553585.04782 | pgbench_accounts_pkey |        112336896

 2017-02-08 12:33:06.101019+01 | 1486553586.10102 | pgbench_branches_pkey |            57344
 2017-02-08 12:33:06.101019+01 | 1486553586.10102 | pgbench_tellers_pkey  |           229376
 2017-02-08 12:33:06.101019+01 | 1486553586.10102 | pgbench_accounts_pkey |        112336896

 2017-02-08 12:33:07.152334+01 | 1486553587.15233 | pgbench_branches_pkey |            57344
 2017-02-08 12:33:07.152334+01 | 1486553587.15233 | pgbench_tellers_pkey  |           229376
 2017-02-08 12:33:07.152334+01 | 1486553587.15233 | pgbench_accounts_pkey |        112336896

 2017-02-08 12:33:08.203581+01 | 1486553588.20358 | pgbench_branches_pkey |            57344
 2017-02-08 12:33:08.203581+01 | 1486553588.20358 | pgbench_tellers_pkey  |           229376
 2017-02-08 12:33:08.203581+01 | 1486553588.20358 | pgbench_accounts_pkey |        112336896

 2017-02-08 12:33:09.253406+01 | 1486553589.25341 | pgbench_branches_pkey |            57344
 2017-02-08 12:33:09.253406+01 | 1486553589.25341 | pgbench_tellers_pkey  |           229376
 2017-02-08 12:33:09.253406+01 | 1486553589.25341 | pgbench_accounts_pkey |        112336896

 2017-02-08 12:33:10.303213+01 | 1486553590.30321 | pgbench_branches_pkey |            57344
 2017-02-08 12:33:10.303213+01 | 1486553590.30321 | pgbench_tellers_pkey  |           229376
 2017-02-08 12:33:10.303213+01 | 1486553590.30321 | pgbench_accounts_pkey |        112336896

 2017-02-08 12:33:11.354835+01 | 1486553591.35484 | pgbench_branches_pkey |            57344
 2017-02-08 12:33:11.354835+01 | 1486553591.35484 | pgbench_tellers_pkey  |           229376
 2017-02-08 12:33:11.354835+01 | 1486553591.35484 | pgbench_accounts_pkey |        112336896

 2017-02-08 12:33:12.412778+01 | 1486553592.41278 | pgbench_branches_pkey |            57344
 2017-02-08 12:33:12.412778+01 | 1486553592.41278 | pgbench_tellers_pkey  |           229376
 2017-02-08 12:33:12.412778+01 | 1486553592.41278 | pgbench_accounts_pkey |        112336896

 2017-02-08 12:33:13.468356+01 | 1486553593.46836 | pgbench_branches_pkey |            57344
 2017-02-08 12:33:13.468356+01 | 1486553593.46836 | pgbench_tellers_pkey  |           229376
 2017-02-08 12:33:13.468356+01 | 1486553593.46836 | pgbench_accounts_pkey |        112336896

 2017-02-08 12:33:14.518981+01 | 1486553594.51898 | pgbench_branches_pkey |            57344
 2017-02-08 12:33:14.518981+01 | 1486553594.51898 | pgbench_tellers_pkey  |           229376
 2017-02-08 12:33:14.518981+01 | 1486553594.51898 | pgbench_accounts_pkey |        112336896

 2017-02-08 12:33:15.568952+01 | 1486553595.56895 | pgbench_branches_pkey |            57344
 2017-02-08 12:33:15.568952+01 | 1486553595.56895 | pgbench_tellers_pkey  |           229376
 2017-02-08 12:33:15.568952+01 | 1486553595.56895 | pgbench_accounts_pkey |        112336896

 2017-02-08 12:33:16.624253+01 | 1486553596.62425 | pgbench_branches_pkey |            57344
 2017-02-08 12:33:16.624253+01 | 1486553596.62425 | pgbench_tellers_pkey  |           229376
 2017-02-08 12:33:16.624253+01 | 1486553596.62425 | pgbench_accounts_pkey |        112336896

 2017-02-08 12:33:17.676454+01 | 1486553597.67645 | pgbench_branches_pkey |            57344
 2017-02-08 12:33:17.676454+01 | 1486553597.67645 | pgbench_tellers_pkey  |           229376
 2017-02-08 12:33:17.676454+01 | 1486553597.67645 | pgbench_accounts_pkey |        112336896

 2017-02-08 12:33:18.728422+01 | 1486553598.72842 | pgbench_branches_pkey |            57344
 2017-02-08 12:33:18.728422+01 | 1486553598.72842 | pgbench_tellers_pkey  |           229376
 2017-02-08 12:33:18.728422+01 | 1486553598.72842 | pgbench_accounts_pkey |        112336896

 2017-02-08 12:33:19.780117+01 | 1486553599.78012 | pgbench_branches_pkey |            57344
 2017-02-08 12:33:19.780117+01 | 1486553599.78012 | pgbench_tellers_pkey  |           229376
 2017-02-08 12:33:19.780117+01 | 1486553599.78012 | pgbench_accounts_pkey |        112336896

 2017-02-08 12:33:20.828847+01 | 1486553600.82885 | pgbench_branches_pkey |            57344
 2017-02-08 12:33:20.828847+01 | 1486553600.82885 | pgbench_tellers_pkey  |           229376
 2017-02-08 12:33:20.828847+01 | 1486553600.82885 | pgbench_accounts_pkey |        112336896

 2017-02-08 12:33:21.879144+01 | 1486553601.87914 | pgbench_branches_pkey |            57344
 2017-02-08 12:33:21.879144+01 | 1486553601.87914 | pgbench_tellers_pkey  |           229376
 2017-02-08 12:33:21.879144+01 | 1486553601.87914 | pgbench_accounts_pkey |        112336896

 2017-02-08 12:33:22.926832+01 | 1486553602.92683 | pgbench_branches_pkey |            57344
 2017-02-08 12:33:22.926832+01 | 1486553602.92683 | pgbench_tellers_pkey  |           229376
 2017-02-08 12:33:22.926832+01 | 1486553602.92683 | pgbench_accounts_pkey |        112336896

 2017-02-08 12:33:23.976727+01 | 1486553603.97673 | pgbench_branches_pkey |            57344
 2017-02-08 12:33:23.976727+01 | 1486553603.97673 | pgbench_tellers_pkey  |           229376
 2017-02-08 12:33:23.976727+01 | 1486553603.97673 | pgbench_accounts_pkey |        112336896

 2017-02-08 12:33:25.027431+01 | 1486553605.02743 | pgbench_branches_pkey |            57344
 2017-02-08 12:33:25.027431+01 | 1486553605.02743 | pgbench_tellers_pkey  |           229376
 2017-02-08 12:33:25.027431+01 | 1486553605.02743 | pgbench_accounts_pkey |        112336896

 2017-02-08 12:33:26.07957+01 | 1486553606.07957 | pgbench_branches_pkey |            57344
 2017-02-08 12:33:26.07957+01 | 1486553606.07957 | pgbench_tellers_pkey  |           229376
 2017-02-08 12:33:26.07957+01 | 1486553606.07957 | pgbench_accounts_pkey |        112336896

 2017-02-08 12:33:27.131467+01 | 1486553607.13147 | pgbench_branches_pkey |            57344
 2017-02-08 12:33:27.131467+01 | 1486553607.13147 | pgbench_tellers_pkey  |           229376
 2017-02-08 12:33:27.131467+01 | 1486553607.13147 | pgbench_accounts_pkey |        112336896

 2017-02-08 12:33:28.183833+01 | 1486553608.18383 | pgbench_branches_pkey |            57344
 2017-02-08 12:33:28.183833+01 | 1486553608.18383 | pgbench_tellers_pkey  |           229376
 2017-02-08 12:33:28.183833+01 | 1486553608.18383 | pgbench_accounts_pkey |        112336896

 2017-02-08 12:33:29.236411+01 | 1486553609.23641 | pgbench_branches_pkey |            57344
 2017-02-08 12:33:29.236411+01 | 1486553609.23641 | pgbench_tellers_pkey  |           229376
 2017-02-08 12:33:29.236411+01 | 1486553609.23641 | pgbench_accounts_pkey |        112336896

 2017-02-08 12:33:30.286314+01 | 1486553610.28631 | pgbench_branches_pkey |            57344
 2017-02-08 12:33:30.286314+01 | 1486553610.28631 | pgbench_tellers_pkey  |           229376
 2017-02-08 12:33:30.286314+01 | 1486553610.28631 | pgbench_accounts_pkey |        112336896

 2017-02-08 12:33:31.33495+01 | 1486553611.33495 | pgbench_branches_pkey |            57344
 2017-02-08 12:33:31.33495+01 | 1486553611.33495 | pgbench_tellers_pkey  |           229376
 2017-02-08 12:33:31.33495+01 | 1486553611.33495 | pgbench_accounts_pkey |        112336896

 2017-02-08 12:33:32.385861+01 | 1486553612.38586 | pgbench_branches_pkey |            57344
 2017-02-08 12:33:32.385861+01 | 1486553612.38586 | pgbench_tellers_pkey  |           229376
 2017-02-08 12:33:32.385861+01 | 1486553612.38586 | pgbench_accounts_pkey |        112336896

 2017-02-08 12:33:33.435024+01 | 1486553613.43502 | pgbench_branches_pkey |            57344
 2017-02-08 12:33:33.435024+01 | 1486553613.43502 | pgbench_tellers_pkey  |           229376
 2017-02-08 12:33:33.435024+01 | 1486553613.43502 | pgbench_accounts_pkey |        112336896

 2017-02-08 12:33:34.487194+01 | 1486553614.48719 | pgbench_branches_pkey |            57344
 2017-02-08 12:33:34.487194+01 | 1486553614.48719 | pgbench_tellers_pkey  |           229376
 2017-02-08 12:33:34.487194+01 | 1486553614.48719 | pgbench_accounts_pkey |        112336896

 2017-02-08 12:33:35.541099+01 | 1486553615.5411 | pgbench_branches_pkey |            57344
 2017-02-08 12:33:35.541099+01 | 1486553615.5411 | pgbench_tellers_pkey  |           229376
 2017-02-08 12:33:35.541099+01 | 1486553615.5411 | pgbench_accounts_pkey |        112336896

 2017-02-08 12:33:36.59229+01 | 1486553616.59229 | pgbench_branches_pkey |            57344
 2017-02-08 12:33:36.59229+01 | 1486553616.59229 | pgbench_tellers_pkey  |           229376
 2017-02-08 12:33:36.59229+01 | 1486553616.59229 | pgbench_accounts_pkey |        112336896

 2017-02-08 12:33:37.640974+01 | 1486553617.64097 | pgbench_branches_pkey |            57344
 2017-02-08 12:33:37.640974+01 | 1486553617.64097 | pgbench_tellers_pkey  |           229376
 2017-02-08 12:33:37.640974+01 | 1486553617.64097 | pgbench_accounts_pkey |        112336896

 2017-02-08 12:33:38.689961+01 | 1486553618.68996 | pgbench_branches_pkey |            57344
 2017-02-08 12:33:38.689961+01 | 1486553618.68996 | pgbench_tellers_pkey  |           229376
 2017-02-08 12:33:38.689961+01 | 1486553618.68996 | pgbench_accounts_pkey |        112336896

 2017-02-08 12:33:39.740817+01 | 1486553619.74082 | pgbench_branches_pkey |            57344
 2017-02-08 12:33:39.740817+01 | 1486553619.74082 | pgbench_tellers_pkey  |           229376
 2017-02-08 12:33:39.740817+01 | 1486553619.74082 | pgbench_accounts_pkey |        112336896

 2017-02-08 12:33:40.794509+01 | 1486553620.79451 | pgbench_branches_pkey |            57344
 2017-02-08 12:33:40.794509+01 | 1486553620.79451 | pgbench_tellers_pkey  |           229376
 2017-02-08 12:33:40.794509+01 | 1486553620.79451 | pgbench_accounts_pkey |        112336896

 2017-02-08 12:33:41.846568+01 | 1486553621.84657 | pgbench_branches_pkey |            57344
 2017-02-08 12:33:41.846568+01 | 1486553621.84657 | pgbench_tellers_pkey  |           229376
 2017-02-08 12:33:41.846568+01 | 1486553621.84657 | pgbench_accounts_pkey |        112336896

 2017-02-08 12:33:42.902047+01 | 1486553622.90205 | pgbench_branches_pkey |            57344
 2017-02-08 12:33:42.902047+01 | 1486553622.90205 | pgbench_tellers_pkey  |           229376
 2017-02-08 12:33:42.902047+01 | 1486553622.90205 | pgbench_accounts_pkey |        112336896

 2017-02-08 12:33:43.957118+01 | 1486553623.95712 | pgbench_branches_pkey |            57344
 2017-02-08 12:33:43.957118+01 | 1486553623.95712 | pgbench_tellers_pkey  |           229376
 2017-02-08 12:33:43.957118+01 | 1486553623.95712 | pgbench_accounts_pkey |        112336896

 2017-02-08 12:33:45.006676+01 | 1486553625.00668 | pgbench_branches_pkey |            57344
 2017-02-08 12:33:45.006676+01 | 1486553625.00668 | pgbench_tellers_pkey  |           229376
 2017-02-08 12:33:45.006676+01 | 1486553625.00668 | pgbench_accounts_pkey |        112336896

 2017-02-08 12:33:46.057552+01 | 1486553626.05755 | pgbench_branches_pkey |            57344
 2017-02-08 12:33:46.057552+01 | 1486553626.05755 | pgbench_tellers_pkey  |           229376
 2017-02-08 12:33:46.057552+01 | 1486553626.05755 | pgbench_accounts_pkey |        112336896

 2017-02-08 12:33:47.111388+01 | 1486553627.11139 | pgbench_branches_pkey |            57344
 2017-02-08 12:33:47.111388+01 | 1486553627.11139 | pgbench_tellers_pkey  |           229376
 2017-02-08 12:33:47.111388+01 | 1486553627.11139 | pgbench_accounts_pkey |        112336896

 2017-02-08 12:33:48.16378+01 | 1486553628.16378 | pgbench_branches_pkey |            57344
 2017-02-08 12:33:48.16378+01 | 1486553628.16378 | pgbench_tellers_pkey  |           229376
 2017-02-08 12:33:48.16378+01 | 1486553628.16378 | pgbench_accounts_pkey |        112336896

 2017-02-08 12:33:49.214573+01 | 1486553629.21457 | pgbench_branches_pkey |            57344
 2017-02-08 12:33:49.214573+01 | 1486553629.21457 | pgbench_tellers_pkey  |           229376
 2017-02-08 12:33:49.214573+01 | 1486553629.21457 | pgbench_accounts_pkey |        112336896

 2017-02-08 12:33:50.264281+01 | 1486553630.26428 | pgbench_branches_pkey |            57344
 2017-02-08 12:33:50.264281+01 | 1486553630.26428 | pgbench_tellers_pkey  |           229376
 2017-02-08 12:33:50.264281+01 | 1486553630.26428 | pgbench_accounts_pkey |        112336896

 2017-02-08 12:33:51.313135+01 | 1486553631.31313 | pgbench_branches_pkey |            57344
 2017-02-08 12:33:51.313135+01 | 1486553631.31313 | pgbench_tellers_pkey  |           229376
 2017-02-08 12:33:51.313135+01 | 1486553631.31313 | pgbench_accounts_pkey |        112336896

 2017-02-08 12:33:52.366137+01 | 1486553632.36614 | pgbench_branches_pkey |            57344
 2017-02-08 12:33:52.366137+01 | 1486553632.36614 | pgbench_tellers_pkey  |           229376
 2017-02-08 12:33:52.366137+01 | 1486553632.36614 | pgbench_accounts_pkey |        112336896

 2017-02-08 12:33:53.420972+01 | 1486553633.42097 | pgbench_branches_pkey |            57344
 2017-02-08 12:33:53.420972+01 | 1486553633.42097 | pgbench_tellers_pkey  |           229376
 2017-02-08 12:33:53.420972+01 | 1486553633.42097 | pgbench_accounts_pkey |        112336896

 2017-02-08 12:33:54.473428+01 | 1486553634.47343 | pgbench_branches_pkey |            57344
 2017-02-08 12:33:54.473428+01 | 1486553634.47343 | pgbench_tellers_pkey  |           229376
 2017-02-08 12:33:54.473428+01 | 1486553634.47343 | pgbench_accounts_pkey |        112336896

 2017-02-08 12:33:55.525773+01 | 1486553635.52577 | pgbench_branches_pkey |            57344
 2017-02-08 12:33:55.525773+01 | 1486553635.52577 | pgbench_tellers_pkey  |           229376
 2017-02-08 12:33:55.525773+01 | 1486553635.52577 | pgbench_accounts_pkey |        112336896

 2017-02-08 12:33:56.576584+01 | 1486553636.57658 | pgbench_branches_pkey |            57344
 2017-02-08 12:33:56.576584+01 | 1486553636.57658 | pgbench_tellers_pkey  |           229376
 2017-02-08 12:33:56.576584+01 | 1486553636.57658 | pgbench_accounts_pkey |        112336896

 2017-02-08 12:33:57.628004+01 | 1486553637.628 | pgbench_branches_pkey |            57344
 2017-02-08 12:33:57.628004+01 | 1486553637.628 | pgbench_tellers_pkey  |           229376
 2017-02-08 12:33:57.628004+01 | 1486553637.628 | pgbench_accounts_pkey |        112336896

 2017-02-08 12:33:58.678912+01 | 1486553638.67891 | pgbench_branches_pkey |            57344
 2017-02-08 12:33:58.678912+01 | 1486553638.67891 | pgbench_tellers_pkey  |           229376
 2017-02-08 12:33:58.678912+01 | 1486553638.67891 | pgbench_accounts_pkey |        112336896

 2017-02-08 12:33:59.73144+01 | 1486553639.73144 | pgbench_branches_pkey |            57344
 2017-02-08 12:33:59.73144+01 | 1486553639.73144 | pgbench_tellers_pkey  |           229376
 2017-02-08 12:33:59.73144+01 | 1486553639.73144 | pgbench_accounts_pkey |        112336896

 2017-02-08 12:34:00.781031+01 | 1486553640.78103 | pgbench_branches_pkey |            57344
 2017-02-08 12:34:00.781031+01 | 1486553640.78103 | pgbench_tellers_pkey  |           229376
 2017-02-08 12:34:00.781031+01 | 1486553640.78103 | pgbench_accounts_pkey |        112336896

 2017-02-08 12:34:01.834502+01 | 1486553641.8345 | pgbench_branches_pkey |            57344
 2017-02-08 12:34:01.834502+01 | 1486553641.8345 | pgbench_tellers_pkey  |           229376
 2017-02-08 12:34:01.834502+01 | 1486553641.8345 | pgbench_accounts_pkey |        112336896

 2017-02-08 12:34:02.886209+01 | 1486553642.88621 | pgbench_branches_pkey |            57344
 2017-02-08 12:34:02.886209+01 | 1486553642.88621 | pgbench_tellers_pkey  |           229376
 2017-02-08 12:34:02.886209+01 | 1486553642.88621 | pgbench_accounts_pkey |        112336896

 2017-02-08 12:34:03.935153+01 | 1486553643.93515 | pgbench_branches_pkey |            57344
 2017-02-08 12:34:03.935153+01 | 1486553643.93515 | pgbench_tellers_pkey  |           229376
 2017-02-08 12:34:03.935153+01 | 1486553643.93515 | pgbench_accounts_pkey |        112336896

 2017-02-08 12:34:04.986179+01 | 1486553644.98618 | pgbench_branches_pkey |            57344
 2017-02-08 12:34:04.986179+01 | 1486553644.98618 | pgbench_tellers_pkey  |           229376
 2017-02-08 12:34:04.986179+01 | 1486553644.98618 | pgbench_accounts_pkey |        112336896

 2017-02-08 12:34:06.035549+01 | 1486553646.03555 | pgbench_branches_pkey |            57344
 2017-02-08 12:34:06.035549+01 | 1486553646.03555 | pgbench_tellers_pkey  |           229376
 2017-02-08 12:34:06.035549+01 | 1486553646.03555 | pgbench_accounts_pkey |        112336896

 2017-02-08 12:34:07.086213+01 | 1486553647.08621 | pgbench_branches_pkey |            57344
 2017-02-08 12:34:07.086213+01 | 1486553647.08621 | pgbench_tellers_pkey  |           229376
 2017-02-08 12:34:07.086213+01 | 1486553647.08621 | pgbench_accounts_pkey |        112336896

 2017-02-08 12:34:08.135314+01 | 1486553648.13531 | pgbench_branches_pkey |            57344
 2017-02-08 12:34:08.135314+01 | 1486553648.13531 | pgbench_tellers_pkey  |           229376
 2017-02-08 12:34:08.135314+01 | 1486553648.13531 | pgbench_accounts_pkey |        112336896

 2017-02-08 12:34:09.183867+01 | 1486553649.18387 | pgbench_branches_pkey |            57344
 2017-02-08 12:34:09.183867+01 | 1486553649.18387 | pgbench_tellers_pkey  |           229376
 2017-02-08 12:34:09.183867+01 | 1486553649.18387 | pgbench_accounts_pkey |        112336896

 2017-02-08 12:34:10.234421+01 | 1486553650.23442 | pgbench_branches_pkey |            57344
 2017-02-08 12:34:10.234421+01 | 1486553650.23442 | pgbench_tellers_pkey  |           229376
 2017-02-08 12:34:10.234421+01 | 1486553650.23442 | pgbench_accounts_pkey |        112336896

 2017-02-08 12:34:11.288222+01 | 1486553651.28822 | pgbench_branches_pkey |            57344
 2017-02-08 12:34:11.288222+01 | 1486553651.28822 | pgbench_tellers_pkey  |           229376
 2017-02-08 12:34:11.288222+01 | 1486553651.28822 | pgbench_accounts_pkey |        112336896

 2017-02-08 12:34:12.333371+01 | 1486553652.33337 | pgbench_branches_pkey |            57344
 2017-02-08 12:34:12.333371+01 | 1486553652.33337 | pgbench_tellers_pkey  |           229376
 2017-02-08 12:34:12.333371+01 | 1486553652.33337 | pgbench_accounts_pkey |        112336896

 2017-02-08 12:34:13.387375+01 | 1486553653.38738 | pgbench_branches_pkey |            57344
 2017-02-08 12:34:13.387375+01 | 1486553653.38738 | pgbench_tellers_pkey  |           229376
 2017-02-08 12:34:13.387375+01 | 1486553653.38738 | pgbench_accounts_pkey |        112336896

 2017-02-08 12:34:14.433607+01 | 1486553654.43361 | pgbench_branches_pkey |            57344
 2017-02-08 12:34:14.433607+01 | 1486553654.43361 | pgbench_tellers_pkey  |           229376
 2017-02-08 12:34:14.433607+01 | 1486553654.43361 | pgbench_accounts_pkey |        112336896

 2017-02-08 12:34:15.488256+01 | 1486553655.48826 | pgbench_branches_pkey |            57344
 2017-02-08 12:34:15.488256+01 | 1486553655.48826 | pgbench_tellers_pkey  |           229376
 2017-02-08 12:34:15.488256+01 | 1486553655.48826 | pgbench_accounts_pkey |        112336896

 2017-02-08 12:34:16.539606+01 | 1486553656.53961 | pgbench_branches_pkey |            57344
 2017-02-08 12:34:16.539606+01 | 1486553656.53961 | pgbench_tellers_pkey  |           229376
 2017-02-08 12:34:16.539606+01 | 1486553656.53961 | pgbench_accounts_pkey |        112336896

 2017-02-08 12:34:17.589811+01 | 1486553657.58981 | pgbench_branches_pkey |            57344
 2017-02-08 12:34:17.589811+01 | 1486553657.58981 | pgbench_tellers_pkey  |           229376
 2017-02-08 12:34:17.589811+01 | 1486553657.58981 | pgbench_accounts_pkey |        112336896

 2017-02-08 12:34:18.640778+01 | 1486553658.64078 | pgbench_branches_pkey |            57344
 2017-02-08 12:34:18.640778+01 | 1486553658.64078 | pgbench_tellers_pkey  |           229376
 2017-02-08 12:34:18.640778+01 | 1486553658.64078 | pgbench_accounts_pkey |        112336896

 2017-02-08 12:34:19.69016+01 | 1486553659.69016 | pgbench_branches_pkey |            57344
 2017-02-08 12:34:19.69016+01 | 1486553659.69016 | pgbench_tellers_pkey  |           229376
 2017-02-08 12:34:19.69016+01 | 1486553659.69016 | pgbench_accounts_pkey |        112336896

 2017-02-08 12:34:20.741895+01 | 1486553660.74189 | pgbench_branches_pkey |            57344
 2017-02-08 12:34:20.741895+01 | 1486553660.74189 | pgbench_tellers_pkey  |           229376
 2017-02-08 12:34:20.741895+01 | 1486553660.74189 | pgbench_accounts_pkey |        112336896

 2017-02-08 12:34:21.792834+01 | 1486553661.79283 | pgbench_branches_pkey |            57344
 2017-02-08 12:34:21.792834+01 | 1486553661.79283 | pgbench_tellers_pkey  |           229376
 2017-02-08 12:34:21.792834+01 | 1486553661.79283 | pgbench_accounts_pkey |        112336896

 2017-02-08 12:34:22.842247+01 | 1486553662.84225 | pgbench_branches_pkey |            57344
 2017-02-08 12:34:22.842247+01 | 1486553662.84225 | pgbench_tellers_pkey  |           229376
 2017-02-08 12:34:22.842247+01 | 1486553662.84225 | pgbench_accounts_pkey |        112336896

 2017-02-08 12:34:23.891135+01 | 1486553663.89113 | pgbench_branches_pkey |            57344
 2017-02-08 12:34:23.891135+01 | 1486553663.89113 | pgbench_tellers_pkey  |           229376
 2017-02-08 12:34:23.891135+01 | 1486553663.89113 | pgbench_accounts_pkey |        112336896

 2017-02-08 12:34:24.939546+01 | 1486553664.93955 | pgbench_branches_pkey |            57344
 2017-02-08 12:34:24.939546+01 | 1486553664.93955 | pgbench_tellers_pkey  |           229376
 2017-02-08 12:34:24.939546+01 | 1486553664.93955 | pgbench_accounts_pkey |        112336896

 2017-02-08 12:34:25.992802+01 | 1486553665.9928 | pgbench_branches_pkey |            57344
 2017-02-08 12:34:25.992802+01 | 1486553665.9928 | pgbench_tellers_pkey  |           229376
 2017-02-08 12:34:25.992802+01 | 1486553665.9928 | pgbench_accounts_pkey |        112336896

 2017-02-08 12:34:27.044291+01 | 1486553667.04429 | pgbench_branches_pkey |            57344
 2017-02-08 12:34:27.044291+01 | 1486553667.04429 | pgbench_tellers_pkey  |           229376
 2017-02-08 12:34:27.044291+01 | 1486553667.04429 | pgbench_accounts_pkey |        112336896

 2017-02-08 12:34:28.098155+01 | 1486553668.09816 | pgbench_branches_pkey |            57344
 2017-02-08 12:34:28.098155+01 | 1486553668.09816 | pgbench_tellers_pkey  |           229376
 2017-02-08 12:34:28.098155+01 | 1486553668.09816 | pgbench_accounts_pkey |        112336896

 2017-02-08 12:34:29.146706+01 | 1486553669.14671 | pgbench_branches_pkey |            57344
 2017-02-08 12:34:29.146706+01 | 1486553669.14671 | pgbench_tellers_pkey  |           229376
 2017-02-08 12:34:29.146706+01 | 1486553669.14671 | pgbench_accounts_pkey |        112336896

 2017-02-08 12:34:30.195944+01 | 1486553670.19594 | pgbench_branches_pkey |            57344
 2017-02-08 12:34:30.195944+01 | 1486553670.19594 | pgbench_tellers_pkey  |           229376
 2017-02-08 12:34:30.195944+01 | 1486553670.19594 | pgbench_accounts_pkey |        112336896

 2017-02-08 12:34:31.249296+01 | 1486553671.2493 | pgbench_branches_pkey |            57344
 2017-02-08 12:34:31.249296+01 | 1486553671.2493 | pgbench_tellers_pkey  |           229376
 2017-02-08 12:34:31.249296+01 | 1486553671.2493 | pgbench_accounts_pkey |        112336896

 2017-02-08 12:34:32.305485+01 | 1486553672.30549 | pgbench_branches_pkey |            57344
 2017-02-08 12:34:32.305485+01 | 1486553672.30549 | pgbench_tellers_pkey  |           229376
 2017-02-08 12:34:32.305485+01 | 1486553672.30549 | pgbench_accounts_pkey |        112336896

 2017-02-08 12:34:33.358476+01 | 1486553673.35848 | pgbench_branches_pkey |            57344
 2017-02-08 12:34:33.358476+01 | 1486553673.35848 | pgbench_tellers_pkey  |           229376
 2017-02-08 12:34:33.358476+01 | 1486553673.35848 | pgbench_accounts_pkey |        112336896

 2017-02-08 12:34:34.411258+01 | 1486553674.41126 | pgbench_branches_pkey |            57344
 2017-02-08 12:34:34.411258+01 | 1486553674.41126 | pgbench_tellers_pkey  |           229376
 2017-02-08 12:34:34.411258+01 | 1486553674.41126 | pgbench_accounts_pkey |        112336896

 2017-02-08 12:34:35.461928+01 | 1486553675.46193 | pgbench_branches_pkey |            57344
 2017-02-08 12:34:35.461928+01 | 1486553675.46193 | pgbench_tellers_pkey  |           229376
 2017-02-08 12:34:35.461928+01 | 1486553675.46193 | pgbench_accounts_pkey |        112336896

 2017-02-08 12:34:36.515018+01 | 1486553676.51502 | pgbench_branches_pkey |            57344
 2017-02-08 12:34:36.515018+01 | 1486553676.51502 | pgbench_tellers_pkey  |           229376
 2017-02-08 12:34:36.515018+01 | 1486553676.51502 | pgbench_accounts_pkey |        112336896

 2017-02-08 12:34:37.570051+01 | 1486553677.57005 | pgbench_branches_pkey |            57344
 2017-02-08 12:34:37.570051+01 | 1486553677.57005 | pgbench_tellers_pkey  |           229376
 2017-02-08 12:34:37.570051+01 | 1486553677.57005 | pgbench_accounts_pkey |        112336896

 2017-02-08 12:34:38.620873+01 | 1486553678.62087 | pgbench_branches_pkey |            57344
 2017-02-08 12:34:38.620873+01 | 1486553678.62087 | pgbench_tellers_pkey  |           229376
 2017-02-08 12:34:38.620873+01 | 1486553678.62087 | pgbench_accounts_pkey |        112336896

 2017-02-08 12:34:39.675839+01 | 1486553679.67584 | pgbench_branches_pkey |            57344
 2017-02-08 12:34:39.675839+01 | 1486553679.67584 | pgbench_tellers_pkey  |           229376
 2017-02-08 12:34:39.675839+01 | 1486553679.67584 | pgbench_accounts_pkey |        112336896

 2017-02-08 12:34:40.729519+01 | 1486553680.72952 | pgbench_branches_pkey |            57344
 2017-02-08 12:34:40.729519+01 | 1486553680.72952 | pgbench_tellers_pkey  |           229376
 2017-02-08 12:34:40.729519+01 | 1486553680.72952 | pgbench_accounts_pkey |        112336896

 2017-02-08 12:34:41.784641+01 | 1486553681.78464 | pgbench_branches_pkey |            57344
 2017-02-08 12:34:41.784641+01 | 1486553681.78464 | pgbench_tellers_pkey  |           229376
 2017-02-08 12:34:41.784641+01 | 1486553681.78464 | pgbench_accounts_pkey |        112336896

 2017-02-08 12:34:42.836153+01 | 1486553682.83615 | pgbench_branches_pkey |            57344
 2017-02-08 12:34:42.836153+01 | 1486553682.83615 | pgbench_tellers_pkey  |           229376
 2017-02-08 12:34:42.836153+01 | 1486553682.83615 | pgbench_accounts_pkey |        112336896

 2017-02-08 12:34:43.888335+01 | 1486553683.88833 | pgbench_branches_pkey |            57344
 2017-02-08 12:34:43.888335+01 | 1486553683.88833 | pgbench_tellers_pkey  |           229376
 2017-02-08 12:34:43.888335+01 | 1486553683.88833 | pgbench_accounts_pkey |        112336896

 2017-02-08 12:34:44.938805+01 | 1486553684.93881 | pgbench_branches_pkey |            57344
 2017-02-08 12:34:44.938805+01 | 1486553684.93881 | pgbench_tellers_pkey  |           229376
 2017-02-08 12:34:44.938805+01 | 1486553684.93881 | pgbench_accounts_pkey |        112336896

 2017-02-08 12:34:45.990326+01 | 1486553685.99033 | pgbench_branches_pkey |            57344
 2017-02-08 12:34:45.990326+01 | 1486553685.99033 | pgbench_tellers_pkey  |           229376
 2017-02-08 12:34:45.990326+01 | 1486553685.99033 | pgbench_accounts_pkey |        112336896

 2017-02-08 12:34:47.039463+01 | 1486553687.03946 | pgbench_branches_pkey |            57344
 2017-02-08 12:34:47.039463+01 | 1486553687.03946 | pgbench_tellers_pkey  |           229376
 2017-02-08 12:34:47.039463+01 | 1486553687.03946 | pgbench_accounts_pkey |        112336896

 2017-02-08 12:34:48.09332+01 | 1486553688.09332 | pgbench_branches_pkey |            57344
 2017-02-08 12:34:48.09332+01 | 1486553688.09332 | pgbench_tellers_pkey  |           229376
 2017-02-08 12:34:48.09332+01 | 1486553688.09332 | pgbench_accounts_pkey |        112336896

 2017-02-08 12:34:49.144594+01 | 1486553689.14459 | pgbench_branches_pkey |            57344
 2017-02-08 12:34:49.144594+01 | 1486553689.14459 | pgbench_tellers_pkey  |           229376
 2017-02-08 12:34:49.144594+01 | 1486553689.14459 | pgbench_accounts_pkey |        112336896

 2017-02-08 12:34:50.196761+01 | 1486553690.19676 | pgbench_branches_pkey |            57344
 2017-02-08 12:34:50.196761+01 | 1486553690.19676 | pgbench_tellers_pkey  |           229376
 2017-02-08 12:34:50.196761+01 | 1486553690.19676 | pgbench_accounts_pkey |        112336896

 2017-02-08 12:34:51.246298+01 | 1486553691.2463 | pgbench_branches_pkey |            57344
 2017-02-08 12:34:51.246298+01 | 1486553691.2463 | pgbench_tellers_pkey  |           229376
 2017-02-08 12:34:51.246298+01 | 1486553691.2463 | pgbench_accounts_pkey |        112336896

 2017-02-08 12:34:52.298197+01 | 1486553692.2982 | pgbench_branches_pkey |            57344
 2017-02-08 12:34:52.298197+01 | 1486553692.2982 | pgbench_tellers_pkey  |           229376
 2017-02-08 12:34:52.298197+01 | 1486553692.2982 | pgbench_accounts_pkey |        112336896

 2017-02-08 12:34:53.351825+01 | 1486553693.35182 | pgbench_branches_pkey |            57344
 2017-02-08 12:34:53.351825+01 | 1486553693.35182 | pgbench_tellers_pkey  |           229376
 2017-02-08 12:34:53.351825+01 | 1486553693.35182 | pgbench_accounts_pkey |        112336896

 2017-02-08 12:34:54.402991+01 | 1486553694.40299 | pgbench_branches_pkey |            57344
 2017-02-08 12:34:54.402991+01 | 1486553694.40299 | pgbench_tellers_pkey  |           229376
 2017-02-08 12:34:54.402991+01 | 1486553694.40299 | pgbench_accounts_pkey |        112336896

 2017-02-08 12:34:55.452312+01 | 1486553695.45231 | pgbench_branches_pkey |            57344
 2017-02-08 12:34:55.452312+01 | 1486553695.45231 | pgbench_tellers_pkey  |           229376
 2017-02-08 12:34:55.452312+01 | 1486553695.45231 | pgbench_accounts_pkey |        112336896

 2017-02-08 12:34:56.505632+01 | 1486553696.50563 | pgbench_branches_pkey |            57344
 2017-02-08 12:34:56.505632+01 | 1486553696.50563 | pgbench_tellers_pkey  |           229376
 2017-02-08 12:34:56.505632+01 | 1486553696.50563 | pgbench_accounts_pkey |        112336896

 2017-02-08 12:34:57.559719+01 | 1486553697.55972 | pgbench_branches_pkey |            57344
 2017-02-08 12:34:57.559719+01 | 1486553697.55972 | pgbench_tellers_pkey  |           229376
 2017-02-08 12:34:57.559719+01 | 1486553697.55972 | pgbench_accounts_pkey |        112336896

 2017-02-08 12:34:58.608376+01 | 1486553698.60838 | pgbench_branches_pkey |            57344
 2017-02-08 12:34:58.608376+01 | 1486553698.60838 | pgbench_tellers_pkey  |           229376
 2017-02-08 12:34:58.608376+01 | 1486553698.60838 | pgbench_accounts_pkey |        112336896

 2017-02-08 12:34:59.659782+01 | 1486553699.65978 | pgbench_branches_pkey |            57344
 2017-02-08 12:34:59.659782+01 | 1486553699.65978 | pgbench_tellers_pkey  |           229376
 2017-02-08 12:34:59.659782+01 | 1486553699.65978 | pgbench_accounts_pkey |        112336896

 2017-02-08 12:35:00.715153+01 | 1486553700.71515 | pgbench_branches_pkey |            57344
 2017-02-08 12:35:00.715153+01 | 1486553700.71515 | pgbench_tellers_pkey  |           229376
 2017-02-08 12:35:00.715153+01 | 1486553700.71515 | pgbench_accounts_pkey |        112336896

 2017-02-08 12:35:01.769216+01 | 1486553701.76922 | pgbench_branches_pkey |            57344
 2017-02-08 12:35:01.769216+01 | 1486553701.76922 | pgbench_tellers_pkey  |           229376
 2017-02-08 12:35:01.769216+01 | 1486553701.76922 | pgbench_accounts_pkey |        112336896

 2017-02-08 12:35:02.822838+01 | 1486553702.82284 | pgbench_branches_pkey |            57344
 2017-02-08 12:35:02.822838+01 | 1486553702.82284 | pgbench_tellers_pkey  |           229376
 2017-02-08 12:35:02.822838+01 | 1486553702.82284 | pgbench_accounts_pkey |        112336896

 2017-02-08 12:35:03.87324+01 | 1486553703.87324 | pgbench_branches_pkey |            57344
 2017-02-08 12:35:03.87324+01 | 1486553703.87324 | pgbench_tellers_pkey  |           229376
 2017-02-08 12:35:03.87324+01 | 1486553703.87324 | pgbench_accounts_pkey |        112336896

 2017-02-08 12:35:04.922494+01 | 1486553704.92249 | pgbench_branches_pkey |            57344
 2017-02-08 12:35:04.922494+01 | 1486553704.92249 | pgbench_tellers_pkey  |           229376
 2017-02-08 12:35:04.922494+01 | 1486553704.92249 | pgbench_accounts_pkey |        112336896

 2017-02-08 12:35:05.973108+01 | 1486553705.97311 | pgbench_branches_pkey |            57344
 2017-02-08 12:35:05.973108+01 | 1486553705.97311 | pgbench_tellers_pkey  |           229376
 2017-02-08 12:35:05.973108+01 | 1486553705.97311 | pgbench_accounts_pkey |        112336896

 2017-02-08 12:35:07.027466+01 | 1486553707.02747 | pgbench_branches_pkey |            57344
 2017-02-08 12:35:07.027466+01 | 1486553707.02747 | pgbench_tellers_pkey  |           229376
 2017-02-08 12:35:07.027466+01 | 1486553707.02747 | pgbench_accounts_pkey |        112336896

 2017-02-08 12:35:08.079726+01 | 1486553708.07973 | pgbench_branches_pkey |            57344
 2017-02-08 12:35:08.079726+01 | 1486553708.07973 | pgbench_tellers_pkey  |           229376
 2017-02-08 12:35:08.079726+01 | 1486553708.07973 | pgbench_accounts_pkey |        112336896

 2017-02-08 12:35:09.132245+01 | 1486553709.13225 | pgbench_branches_pkey |            57344
 2017-02-08 12:35:09.132245+01 | 1486553709.13225 | pgbench_tellers_pkey  |           229376
 2017-02-08 12:35:09.132245+01 | 1486553709.13225 | pgbench_accounts_pkey |        112336896

 2017-02-08 12:35:10.185392+01 | 1486553710.18539 | pgbench_branches_pkey |            57344
 2017-02-08 12:35:10.185392+01 | 1486553710.18539 | pgbench_tellers_pkey  |           229376
 2017-02-08 12:35:10.185392+01 | 1486553710.18539 | pgbench_accounts_pkey |        112336896

 2017-02-08 12:35:11.235958+01 | 1486553711.23596 | pgbench_branches_pkey |            57344
 2017-02-08 12:35:11.235958+01 | 1486553711.23596 | pgbench_tellers_pkey  |           229376
 2017-02-08 12:35:11.235958+01 | 1486553711.23596 | pgbench_accounts_pkey |        112336896

 2017-02-08 12:35:12.28518+01 | 1486553712.28518 | pgbench_branches_pkey |            57344
 2017-02-08 12:35:12.28518+01 | 1486553712.28518 | pgbench_tellers_pkey  |           229376
 2017-02-08 12:35:12.28518+01 | 1486553712.28518 | pgbench_accounts_pkey |        112336896

 2017-02-08 12:35:13.339433+01 | 1486553713.33943 | pgbench_branches_pkey |            57344
 2017-02-08 12:35:13.339433+01 | 1486553713.33943 | pgbench_tellers_pkey  |           229376
 2017-02-08 12:35:13.339433+01 | 1486553713.33943 | pgbench_accounts_pkey |        112336896

 2017-02-08 12:35:14.394163+01 | 1486553714.39416 | pgbench_branches_pkey |            57344
 2017-02-08 12:35:14.394163+01 | 1486553714.39416 | pgbench_tellers_pkey  |           229376
 2017-02-08 12:35:14.394163+01 | 1486553714.39416 | pgbench_accounts_pkey |        112336896

 2017-02-08 12:35:15.4476+01 | 1486553715.4476 | pgbench_branches_pkey |            57344
 2017-02-08 12:35:15.4476+01 | 1486553715.4476 | pgbench_tellers_pkey  |           229376
 2017-02-08 12:35:15.4476+01 | 1486553715.4476 | pgbench_accounts_pkey |        112336896

 2017-02-08 12:35:16.499836+01 | 1486553716.49984 | pgbench_branches_pkey |            57344
 2017-02-08 12:35:16.499836+01 | 1486553716.49984 | pgbench_tellers_pkey  |           229376
 2017-02-08 12:35:16.499836+01 | 1486553716.49984 | pgbench_accounts_pkey |        112336896

 2017-02-08 12:35:17.544576+01 | 1486553717.54458 | pgbench_branches_pkey |            57344
 2017-02-08 12:35:17.544576+01 | 1486553717.54458 | pgbench_tellers_pkey  |           229376
 2017-02-08 12:35:17.544576+01 | 1486553717.54458 | pgbench_accounts_pkey |        112336896

 2017-02-08 12:35:18.596637+01 | 1486553718.59664 | pgbench_branches_pkey |            57344
 2017-02-08 12:35:18.596637+01 | 1486553718.59664 | pgbench_tellers_pkey  |           229376
 2017-02-08 12:35:18.596637+01 | 1486553718.59664 | pgbench_accounts_pkey |        112336896

 2017-02-08 12:35:19.655293+01 | 1486553719.65529 | pgbench_branches_pkey |            57344
 2017-02-08 12:35:19.655293+01 | 1486553719.65529 | pgbench_tellers_pkey  |           229376
 2017-02-08 12:35:19.655293+01 | 1486553719.65529 | pgbench_accounts_pkey |        112336896

 2017-02-08 12:35:20.708891+01 | 1486553720.70889 | pgbench_branches_pkey |            57344
 2017-02-08 12:35:20.708891+01 | 1486553720.70889 | pgbench_tellers_pkey  |           229376
 2017-02-08 12:35:20.708891+01 | 1486553720.70889 | pgbench_accounts_pkey |        112336896

 2017-02-08 12:35:21.765548+01 | 1486553721.76555 | pgbench_branches_pkey |            57344
 2017-02-08 12:35:21.765548+01 | 1486553721.76555 | pgbench_tellers_pkey  |           229376
 2017-02-08 12:35:21.765548+01 | 1486553721.76555 | pgbench_accounts_pkey |        112336896

 2017-02-08 12:35:22.815333+01 | 1486553722.81533 | pgbench_branches_pkey |            57344
 2017-02-08 12:35:22.815333+01 | 1486553722.81533 | pgbench_tellers_pkey  |           229376
 2017-02-08 12:35:22.815333+01 | 1486553722.81533 | pgbench_accounts_pkey |        112336896

 2017-02-08 12:35:23.866931+01 | 1486553723.86693 | pgbench_branches_pkey |            57344
 2017-02-08 12:35:23.866931+01 | 1486553723.86693 | pgbench_tellers_pkey  |           229376
 2017-02-08 12:35:23.866931+01 | 1486553723.86693 | pgbench_accounts_pkey |        112336896

 2017-02-08 12:35:24.91773+01 | 1486553724.91773 | pgbench_branches_pkey |            57344
 2017-02-08 12:35:24.91773+01 | 1486553724.91773 | pgbench_tellers_pkey  |           229376
 2017-02-08 12:35:24.91773+01 | 1486553724.91773 | pgbench_accounts_pkey |        112336896

 2017-02-08 12:35:25.973937+01 | 1486553725.97394 | pgbench_branches_pkey |            57344
 2017-02-08 12:35:25.973937+01 | 1486553725.97394 | pgbench_tellers_pkey  |           229376
 2017-02-08 12:35:25.973937+01 | 1486553725.97394 | pgbench_accounts_pkey |        112336896

 2017-02-08 12:35:27.025883+01 | 1486553727.02588 | pgbench_branches_pkey |            57344
 2017-02-08 12:35:27.025883+01 | 1486553727.02588 | pgbench_tellers_pkey  |           229376
 2017-02-08 12:35:27.025883+01 | 1486553727.02588 | pgbench_accounts_pkey |        112336896

 2017-02-08 12:35:28.079208+01 | 1486553728.07921 | pgbench_branches_pkey |            57344
 2017-02-08 12:35:28.079208+01 | 1486553728.07921 | pgbench_tellers_pkey  |           229376
 2017-02-08 12:35:28.079208+01 | 1486553728.07921 | pgbench_accounts_pkey |        112336896

 2017-02-08 12:35:29.129907+01 | 1486553729.12991 | pgbench_branches_pkey |            57344
 2017-02-08 12:35:29.129907+01 | 1486553729.12991 | pgbench_tellers_pkey  |           229376
 2017-02-08 12:35:29.129907+01 | 1486553729.12991 | pgbench_accounts_pkey |        112336896

 2017-02-08 12:35:30.181457+01 | 1486553730.18146 | pgbench_branches_pkey |            57344
 2017-02-08 12:35:30.181457+01 | 1486553730.18146 | pgbench_tellers_pkey  |           229376
 2017-02-08 12:35:30.181457+01 | 1486553730.18146 | pgbench_accounts_pkey |        112336896

 2017-02-08 12:35:31.23451+01 | 1486553731.23451 | pgbench_branches_pkey |            57344
 2017-02-08 12:35:31.23451+01 | 1486553731.23451 | pgbench_tellers_pkey  |           229376
 2017-02-08 12:35:31.23451+01 | 1486553731.23451 | pgbench_accounts_pkey |        112336896

 2017-02-08 12:35:32.283899+01 | 1486553732.2839 | pgbench_branches_pkey |            57344
 2017-02-08 12:35:32.283899+01 | 1486553732.2839 | pgbench_tellers_pkey  |           229376
 2017-02-08 12:35:32.283899+01 | 1486553732.2839 | pgbench_accounts_pkey |        112336896

 2017-02-08 12:35:33.336343+01 | 1486553733.33634 | pgbench_branches_pkey |            57344
 2017-02-08 12:35:33.336343+01 | 1486553733.33634 | pgbench_tellers_pkey  |           229376
 2017-02-08 12:35:33.336343+01 | 1486553733.33634 | pgbench_accounts_pkey |        112336896

 2017-02-08 12:35:34.390826+01 | 1486553734.39083 | pgbench_branches_pkey |            57344
 2017-02-08 12:35:34.390826+01 | 1486553734.39083 | pgbench_tellers_pkey  |           229376
 2017-02-08 12:35:34.390826+01 | 1486553734.39083 | pgbench_accounts_pkey |        112336896

 2017-02-08 12:35:35.442452+01 | 1486553735.44245 | pgbench_branches_pkey |            57344
 2017-02-08 12:35:35.442452+01 | 1486553735.44245 | pgbench_tellers_pkey  |           229376
 2017-02-08 12:35:35.442452+01 | 1486553735.44245 | pgbench_accounts_pkey |        112336896

 2017-02-08 12:35:36.494401+01 | 1486553736.4944 | pgbench_branches_pkey |            57344
 2017-02-08 12:35:36.494401+01 | 1486553736.4944 | pgbench_tellers_pkey  |           229376
 2017-02-08 12:35:36.494401+01 | 1486553736.4944 | pgbench_accounts_pkey |        112336896

 2017-02-08 12:35:37.547162+01 | 1486553737.54716 | pgbench_branches_pkey |            57344
 2017-02-08 12:35:37.547162+01 | 1486553737.54716 | pgbench_tellers_pkey  |           229376
 2017-02-08 12:35:37.547162+01 | 1486553737.54716 | pgbench_accounts_pkey |        112336896

 2017-02-08 12:35:38.596548+01 | 1486553738.59655 | pgbench_branches_pkey |            57344
 2017-02-08 12:35:38.596548+01 | 1486553738.59655 | pgbench_tellers_pkey  |           229376
 2017-02-08 12:35:38.596548+01 | 1486553738.59655 | pgbench_accounts_pkey |        112336896

 2017-02-08 12:35:39.650312+01 | 1486553739.65031 | pgbench_branches_pkey |            57344
 2017-02-08 12:35:39.650312+01 | 1486553739.65031 | pgbench_tellers_pkey  |           229376
 2017-02-08 12:35:39.650312+01 | 1486553739.65031 | pgbench_accounts_pkey |        112336896

 2017-02-08 12:35:40.706226+01 | 1486553740.70623 | pgbench_branches_pkey |            57344
 2017-02-08 12:35:40.706226+01 | 1486553740.70623 | pgbench_tellers_pkey  |           229376
 2017-02-08 12:35:40.706226+01 | 1486553740.70623 | pgbench_accounts_pkey |        112336896

 2017-02-08 12:35:41.76092+01 | 1486553741.76092 | pgbench_branches_pkey |            57344
 2017-02-08 12:35:41.76092+01 | 1486553741.76092 | pgbench_tellers_pkey  |           229376
 2017-02-08 12:35:41.76092+01 | 1486553741.76092 | pgbench_accounts_pkey |        112336896

 2017-02-08 12:35:42.810321+01 | 1486553742.81032 | pgbench_branches_pkey |            57344
 2017-02-08 12:35:42.810321+01 | 1486553742.81032 | pgbench_tellers_pkey  |           229376
 2017-02-08 12:35:42.810321+01 | 1486553742.81032 | pgbench_accounts_pkey |        112336896

 2017-02-08 12:35:43.862091+01 | 1486553743.86209 | pgbench_branches_pkey |            57344
 2017-02-08 12:35:43.862091+01 | 1486553743.86209 | pgbench_tellers_pkey  |           229376
 2017-02-08 12:35:43.862091+01 | 1486553743.86209 | pgbench_accounts_pkey |        112336896

 2017-02-08 12:35:44.916446+01 | 1486553744.91645 | pgbench_branches_pkey |            57344
 2017-02-08 12:35:44.916446+01 | 1486553744.91645 | pgbench_tellers_pkey  |           229376
 2017-02-08 12:35:44.916446+01 | 1486553744.91645 | pgbench_accounts_pkey |        112336896

 2017-02-08 12:35:45.970645+01 | 1486553745.97064 | pgbench_branches_pkey |            57344
 2017-02-08 12:35:45.970645+01 | 1486553745.97064 | pgbench_tellers_pkey  |           229376
 2017-02-08 12:35:45.970645+01 | 1486553745.97064 | pgbench_accounts_pkey |        112336896

 2017-02-08 12:35:47.020998+01 | 1486553747.021 | pgbench_branches_pkey |            57344
 2017-02-08 12:35:47.020998+01 | 1486553747.021 | pgbench_tellers_pkey  |           229376
 2017-02-08 12:35:47.020998+01 | 1486553747.021 | pgbench_accounts_pkey |        112336896

 2017-02-08 12:35:48.075381+01 | 1486553748.07538 | pgbench_branches_pkey |            57344
 2017-02-08 12:35:48.075381+01 | 1486553748.07538 | pgbench_tellers_pkey  |           229376
 2017-02-08 12:35:48.075381+01 | 1486553748.07538 | pgbench_accounts_pkey |        112336896

 2017-02-08 12:35:49.126956+01 | 1486553749.12696 | pgbench_branches_pkey |            57344
 2017-02-08 12:35:49.126956+01 | 1486553749.12696 | pgbench_tellers_pkey  |           229376
 2017-02-08 12:35:49.126956+01 | 1486553749.12696 | pgbench_accounts_pkey |        112336896

 2017-02-08 12:35:50.178768+01 | 1486553750.17877 | pgbench_branches_pkey |            57344
 2017-02-08 12:35:50.178768+01 | 1486553750.17877 | pgbench_tellers_pkey  |           229376
 2017-02-08 12:35:50.178768+01 | 1486553750.17877 | pgbench_accounts_pkey |        112336896

 2017-02-08 12:35:51.231976+01 | 1486553751.23198 | pgbench_branches_pkey |            57344
 2017-02-08 12:35:51.231976+01 | 1486553751.23198 | pgbench_tellers_pkey  |           229376
 2017-02-08 12:35:51.231976+01 | 1486553751.23198 | pgbench_accounts_pkey |        112336896

 2017-02-08 12:35:52.282213+01 | 1486553752.28221 | pgbench_branches_pkey |            57344
 2017-02-08 12:35:52.282213+01 | 1486553752.28221 | pgbench_tellers_pkey  |           229376
 2017-02-08 12:35:52.282213+01 | 1486553752.28221 | pgbench_accounts_pkey |        112336896

 2017-02-08 12:35:53.331527+01 | 1486553753.33153 | pgbench_branches_pkey |            57344
 2017-02-08 12:35:53.331527+01 | 1486553753.33153 | pgbench_tellers_pkey  |           229376
 2017-02-08 12:35:53.331527+01 | 1486553753.33153 | pgbench_accounts_pkey |        112336896

 2017-02-08 12:35:54.382742+01 | 1486553754.38274 | pgbench_branches_pkey |            57344
 2017-02-08 12:35:54.382742+01 | 1486553754.38274 | pgbench_tellers_pkey  |           229376
 2017-02-08 12:35:54.382742+01 | 1486553754.38274 | pgbench_accounts_pkey |        112336896

 2017-02-08 12:35:55.432518+01 | 1486553755.43252 | pgbench_branches_pkey |            57344
 2017-02-08 12:35:55.432518+01 | 1486553755.43252 | pgbench_tellers_pkey  |           229376
 2017-02-08 12:35:55.432518+01 | 1486553755.43252 | pgbench_accounts_pkey |        112336896

 2017-02-08 12:35:56.480466+01 | 1486553756.48047 | pgbench_branches_pkey |            57344
 2017-02-08 12:35:56.480466+01 | 1486553756.48047 | pgbench_tellers_pkey  |           229376
 2017-02-08 12:35:56.480466+01 | 1486553756.48047 | pgbench_accounts_pkey |        112336896

 2017-02-08 12:35:57.532982+01 | 1486553757.53298 | pgbench_branches_pkey |            57344
 2017-02-08 12:35:57.532982+01 | 1486553757.53298 | pgbench_tellers_pkey  |           229376
 2017-02-08 12:35:57.532982+01 | 1486553757.53298 | pgbench_accounts_pkey |        112336896

 2017-02-08 12:35:58.581557+01 | 1486553758.58156 | pgbench_branches_pkey |            57344
 2017-02-08 12:35:58.581557+01 | 1486553758.58156 | pgbench_tellers_pkey  |           229376
 2017-02-08 12:35:58.581557+01 | 1486553758.58156 | pgbench_accounts_pkey |        112336896

 2017-02-08 12:35:59.633122+01 | 1486553759.63312 | pgbench_branches_pkey |            57344
 2017-02-08 12:35:59.633122+01 | 1486553759.63312 | pgbench_tellers_pkey  |           229376
 2017-02-08 12:35:59.633122+01 | 1486553759.63312 | pgbench_accounts_pkey |        112336896

 2017-02-08 12:36:00.683838+01 | 1486553760.68384 | pgbench_branches_pkey |            57344
 2017-02-08 12:36:00.683838+01 | 1486553760.68384 | pgbench_tellers_pkey  |           229376
 2017-02-08 12:36:00.683838+01 | 1486553760.68384 | pgbench_accounts_pkey |        112336896

 2017-02-08 12:36:01.736598+01 | 1486553761.7366 | pgbench_branches_pkey |            57344
 2017-02-08 12:36:01.736598+01 | 1486553761.7366 | pgbench_tellers_pkey  |           229376
 2017-02-08 12:36:01.736598+01 | 1486553761.7366 | pgbench_accounts_pkey |        112336896

 2017-02-08 12:36:02.789249+01 | 1486553762.78925 | pgbench_branches_pkey |            57344
 2017-02-08 12:36:02.789249+01 | 1486553762.78925 | pgbench_tellers_pkey  |           229376
 2017-02-08 12:36:02.789249+01 | 1486553762.78925 | pgbench_accounts_pkey |        112336896

 2017-02-08 12:36:03.837999+01 | 1486553763.838 | pgbench_branches_pkey |            57344
 2017-02-08 12:36:03.837999+01 | 1486553763.838 | pgbench_tellers_pkey  |           229376
 2017-02-08 12:36:03.837999+01 | 1486553763.838 | pgbench_accounts_pkey |        112336896

 2017-02-08 12:36:04.89087+01 | 1486553764.89087 | pgbench_branches_pkey |            57344
 2017-02-08 12:36:04.89087+01 | 1486553764.89087 | pgbench_tellers_pkey  |           229376
 2017-02-08 12:36:04.89087+01 | 1486553764.89087 | pgbench_accounts_pkey |        112336896

 2017-02-08 12:36:05.943496+01 | 1486553765.9435 | pgbench_branches_pkey |            57344
 2017-02-08 12:36:05.943496+01 | 1486553765.9435 | pgbench_tellers_pkey  |           229376
 2017-02-08 12:36:05.943496+01 | 1486553765.9435 | pgbench_accounts_pkey |        112336896

 2017-02-08 12:36:06.999088+01 | 1486553766.99909 | pgbench_branches_pkey |            57344
 2017-02-08 12:36:06.999088+01 | 1486553766.99909 | pgbench_tellers_pkey  |           229376
 2017-02-08 12:36:06.999088+01 | 1486553766.99909 | pgbench_accounts_pkey |        112336896

 2017-02-08 12:36:08.050788+01 | 1486553768.05079 | pgbench_branches_pkey |            57344
 2017-02-08 12:36:08.050788+01 | 1486553768.05079 | pgbench_tellers_pkey  |           229376
 2017-02-08 12:36:08.050788+01 | 1486553768.05079 | pgbench_accounts_pkey |        112336896

 2017-02-08 12:36:09.102554+01 | 1486553769.10255 | pgbench_branches_pkey |            57344
 2017-02-08 12:36:09.102554+01 | 1486553769.10255 | pgbench_tellers_pkey  |           229376
 2017-02-08 12:36:09.102554+01 | 1486553769.10255 | pgbench_accounts_pkey |        112336896

 2017-02-08 12:36:10.155207+01 | 1486553770.15521 | pgbench_branches_pkey |            57344
 2017-02-08 12:36:10.155207+01 | 1486553770.15521 | pgbench_tellers_pkey  |           229376
 2017-02-08 12:36:10.155207+01 | 1486553770.15521 | pgbench_accounts_pkey |        112336896

 2017-02-08 12:36:11.207929+01 | 1486553771.20793 | pgbench_branches_pkey |            57344
 2017-02-08 12:36:11.207929+01 | 1486553771.20793 | pgbench_tellers_pkey  |           229376
 2017-02-08 12:36:11.207929+01 | 1486553771.20793 | pgbench_accounts_pkey |        112336896

 2017-02-08 12:36:12.261738+01 | 1486553772.26174 | pgbench_branches_pkey |            57344
 2017-02-08 12:36:12.261738+01 | 1486553772.26174 | pgbench_tellers_pkey  |           229376
 2017-02-08 12:36:12.261738+01 | 1486553772.26174 | pgbench_accounts_pkey |        112336896

 2017-02-08 12:36:13.311342+01 | 1486553773.31134 | pgbench_branches_pkey |            57344
 2017-02-08 12:36:13.311342+01 | 1486553773.31134 | pgbench_tellers_pkey  |           229376
 2017-02-08 12:36:13.311342+01 | 1486553773.31134 | pgbench_accounts_pkey |        112336896

 2017-02-08 12:36:14.362638+01 | 1486553774.36264 | pgbench_branches_pkey |            57344
 2017-02-08 12:36:14.362638+01 | 1486553774.36264 | pgbench_tellers_pkey  |           229376
 2017-02-08 12:36:14.362638+01 | 1486553774.36264 | pgbench_accounts_pkey |        112336896

 2017-02-08 12:36:15.404214+01 | 1486553775.40421 | pgbench_branches_pkey |            57344
 2017-02-08 12:36:15.404214+01 | 1486553775.40421 | pgbench_tellers_pkey  |           229376
 2017-02-08 12:36:15.404214+01 | 1486553775.40421 | pgbench_accounts_pkey |        112336896

 2017-02-08 12:36:16.454213+01 | 1486553776.45421 | pgbench_branches_pkey |            57344
 2017-02-08 12:36:16.454213+01 | 1486553776.45421 | pgbench_tellers_pkey  |           229376
 2017-02-08 12:36:16.454213+01 | 1486553776.45421 | pgbench_accounts_pkey |        112336896

 2017-02-08 12:36:17.50595+01 | 1486553777.50595 | pgbench_branches_pkey |            57344
 2017-02-08 12:36:17.50595+01 | 1486553777.50595 | pgbench_tellers_pkey  |           229376
 2017-02-08 12:36:17.50595+01 | 1486553777.50595 | pgbench_accounts_pkey |        112336896

 2017-02-08 12:36:18.558904+01 | 1486553778.5589 | pgbench_branches_pkey |            57344
 2017-02-08 12:36:18.558904+01 | 1486553778.5589 | pgbench_tellers_pkey  |           229376
 2017-02-08 12:36:18.558904+01 | 1486553778.5589 | pgbench_accounts_pkey |        112336896

 2017-02-08 12:36:19.610725+01 | 1486553779.61072 | pgbench_branches_pkey |            57344
 2017-02-08 12:36:19.610725+01 | 1486553779.61072 | pgbench_tellers_pkey  |           229376
 2017-02-08 12:36:19.610725+01 | 1486553779.61072 | pgbench_accounts_pkey |        112336896

 2017-02-08 12:36:20.665332+01 | 1486553780.66533 | pgbench_branches_pkey |            57344
 2017-02-08 12:36:20.665332+01 | 1486553780.66533 | pgbench_tellers_pkey  |           229376
 2017-02-08 12:36:20.665332+01 | 1486553780.66533 | pgbench_accounts_pkey |        112336896

 2017-02-08 12:36:21.716149+01 | 1486553781.71615 | pgbench_branches_pkey |            57344
 2017-02-08 12:36:21.716149+01 | 1486553781.71615 | pgbench_tellers_pkey  |           229376
 2017-02-08 12:36:21.716149+01 | 1486553781.71615 | pgbench_accounts_pkey |        112336896

 2017-02-08 12:36:22.768579+01 | 1486553782.76858 | pgbench_branches_pkey |            57344
 2017-02-08 12:36:22.768579+01 | 1486553782.76858 | pgbench_tellers_pkey  |           229376
 2017-02-08 12:36:22.768579+01 | 1486553782.76858 | pgbench_accounts_pkey |        112336896

 2017-02-08 12:36:23.821336+01 | 1486553783.82134 | pgbench_branches_pkey |            57344
 2017-02-08 12:36:23.821336+01 | 1486553783.82134 | pgbench_tellers_pkey  |           229376
 2017-02-08 12:36:23.821336+01 | 1486553783.82134 | pgbench_accounts_pkey |        112336896

 2017-02-08 12:36:24.872273+01 | 1486553784.87227 | pgbench_branches_pkey |            57344
 2017-02-08 12:36:24.872273+01 | 1486553784.87227 | pgbench_tellers_pkey  |           229376
 2017-02-08 12:36:24.872273+01 | 1486553784.87227 | pgbench_accounts_pkey |        112336896

 2017-02-08 12:36:25.927419+01 | 1486553785.92742 | pgbench_branches_pkey |            57344
 2017-02-08 12:36:25.927419+01 | 1486553785.92742 | pgbench_tellers_pkey  |           229376
 2017-02-08 12:36:25.927419+01 | 1486553785.92742 | pgbench_accounts_pkey |        112336896

 2017-02-08 12:36:26.982314+01 | 1486553786.98231 | pgbench_branches_pkey |            57344
 2017-02-08 12:36:26.982314+01 | 1486553786.98231 | pgbench_tellers_pkey  |           229376
 2017-02-08 12:36:26.982314+01 | 1486553786.98231 | pgbench_accounts_pkey |        112336896

 2017-02-08 12:36:28.033638+01 | 1486553788.03364 | pgbench_branches_pkey |            57344
 2017-02-08 12:36:28.033638+01 | 1486553788.03364 | pgbench_tellers_pkey  |           229376
 2017-02-08 12:36:28.033638+01 | 1486553788.03364 | pgbench_accounts_pkey |        112336896

 2017-02-08 12:36:29.086061+01 | 1486553789.08606 | pgbench_branches_pkey |            57344
 2017-02-08 12:36:29.086061+01 | 1486553789.08606 | pgbench_tellers_pkey  |           229376
 2017-02-08 12:36:29.086061+01 | 1486553789.08606 | pgbench_accounts_pkey |        112336896

 2017-02-08 12:36:30.143207+01 | 1486553790.14321 | pgbench_branches_pkey |            57344
 2017-02-08 12:36:30.143207+01 | 1486553790.14321 | pgbench_tellers_pkey  |           229376
 2017-02-08 12:36:30.143207+01 | 1486553790.14321 | pgbench_accounts_pkey |        112336896

 2017-02-08 12:36:31.19407+01 | 1486553791.19407 | pgbench_branches_pkey |            57344
 2017-02-08 12:36:31.19407+01 | 1486553791.19407 | pgbench_tellers_pkey  |           229376
 2017-02-08 12:36:31.19407+01 | 1486553791.19407 | pgbench_accounts_pkey |        112336896

 2017-02-08 12:36:32.247096+01 | 1486553792.2471 | pgbench_branches_pkey |            57344
 2017-02-08 12:36:32.247096+01 | 1486553792.2471 | pgbench_tellers_pkey  |           229376
 2017-02-08 12:36:32.247096+01 | 1486553792.2471 | pgbench_accounts_pkey |        112336896

 2017-02-08 12:36:33.300057+01 | 1486553793.30006 | pgbench_branches_pkey |            57344
 2017-02-08 12:36:33.300057+01 | 1486553793.30006 | pgbench_tellers_pkey  |           229376
 2017-02-08 12:36:33.300057+01 | 1486553793.30006 | pgbench_accounts_pkey |        112336896

 2017-02-08 12:36:34.352701+01 | 1486553794.3527 | pgbench_branches_pkey |            57344
 2017-02-08 12:36:34.352701+01 | 1486553794.3527 | pgbench_tellers_pkey  |           229376
 2017-02-08 12:36:34.352701+01 | 1486553794.3527 | pgbench_accounts_pkey |        112336896

 2017-02-08 12:36:35.41784+01 | 1486553795.41784 | pgbench_branches_pkey |            57344
 2017-02-08 12:36:35.41784+01 | 1486553795.41784 | pgbench_tellers_pkey  |           229376
 2017-02-08 12:36:35.41784+01 | 1486553795.41784 | pgbench_accounts_pkey |        112336896

 2017-02-08 12:36:36.471112+01 | 1486553796.47111 | pgbench_branches_pkey |            57344
 2017-02-08 12:36:36.471112+01 | 1486553796.47111 | pgbench_tellers_pkey  |           229376
 2017-02-08 12:36:36.471112+01 | 1486553796.47111 | pgbench_accounts_pkey |        112336896

 2017-02-08 12:36:37.528655+01 | 1486553797.52866 | pgbench_branches_pkey |            57344
 2017-02-08 12:36:37.528655+01 | 1486553797.52866 | pgbench_tellers_pkey  |           229376
 2017-02-08 12:36:37.528655+01 | 1486553797.52866 | pgbench_accounts_pkey |        112336896

 2017-02-08 12:36:38.587977+01 | 1486553798.58798 | pgbench_branches_pkey |            57344
 2017-02-08 12:36:38.587977+01 | 1486553798.58798 | pgbench_tellers_pkey  |           229376
 2017-02-08 12:36:38.587977+01 | 1486553798.58798 | pgbench_accounts_pkey |        112336896

 2017-02-08 12:36:39.640983+01 | 1486553799.64098 | pgbench_branches_pkey |            57344
 2017-02-08 12:36:39.640983+01 | 1486553799.64098 | pgbench_tellers_pkey  |           229376
 2017-02-08 12:36:39.640983+01 | 1486553799.64098 | pgbench_accounts_pkey |        112336896

 2017-02-08 12:36:40.693136+01 | 1486553800.69314 | pgbench_branches_pkey |            57344
 2017-02-08 12:36:40.693136+01 | 1486553800.69314 | pgbench_tellers_pkey  |           229376
 2017-02-08 12:36:40.693136+01 | 1486553800.69314 | pgbench_accounts_pkey |        112336896

 2017-02-08 12:36:41.745158+01 | 1486553801.74516 | pgbench_branches_pkey |            57344
 2017-02-08 12:36:41.745158+01 | 1486553801.74516 | pgbench_tellers_pkey  |           229376
 2017-02-08 12:36:41.745158+01 | 1486553801.74516 | pgbench_accounts_pkey |        112336896

 2017-02-08 12:36:42.800878+01 | 1486553802.80088 | pgbench_branches_pkey |            57344
 2017-02-08 12:36:42.800878+01 | 1486553802.80088 | pgbench_tellers_pkey  |           229376
 2017-02-08 12:36:42.800878+01 | 1486553802.80088 | pgbench_accounts_pkey |        112336896

 2017-02-08 12:36:43.852953+01 | 1486553803.85295 | pgbench_branches_pkey |            57344
 2017-02-08 12:36:43.852953+01 | 1486553803.85295 | pgbench_tellers_pkey  |           229376
 2017-02-08 12:36:43.852953+01 | 1486553803.85295 | pgbench_accounts_pkey |        112336896

 2017-02-08 12:36:44.903828+01 | 1486553804.90383 | pgbench_branches_pkey |            57344
 2017-02-08 12:36:44.903828+01 | 1486553804.90383 | pgbench_tellers_pkey  |           229376
 2017-02-08 12:36:44.903828+01 | 1486553804.90383 | pgbench_accounts_pkey |        112336896

 2017-02-08 12:36:45.956213+01 | 1486553805.95621 | pgbench_branches_pkey |            57344
 2017-02-08 12:36:45.956213+01 | 1486553805.95621 | pgbench_tellers_pkey  |           229376
 2017-02-08 12:36:45.956213+01 | 1486553805.95621 | pgbench_accounts_pkey |        112336896

 2017-02-08 12:36:47.009356+01 | 1486553807.00936 | pgbench_branches_pkey |            57344
 2017-02-08 12:36:47.009356+01 | 1486553807.00936 | pgbench_tellers_pkey  |           229376
 2017-02-08 12:36:47.009356+01 | 1486553807.00936 | pgbench_accounts_pkey |        112336896

 2017-02-08 12:36:48.059731+01 | 1486553808.05973 | pgbench_branches_pkey |            57344
 2017-02-08 12:36:48.059731+01 | 1486553808.05973 | pgbench_tellers_pkey  |           229376
 2017-02-08 12:36:48.059731+01 | 1486553808.05973 | pgbench_accounts_pkey |        112336896

 2017-02-08 12:36:49.113938+01 | 1486553809.11394 | pgbench_branches_pkey |            57344
 2017-02-08 12:36:49.113938+01 | 1486553809.11394 | pgbench_tellers_pkey  |           229376
 2017-02-08 12:36:49.113938+01 | 1486553809.11394 | pgbench_accounts_pkey |        112336896

 2017-02-08 12:36:50.164156+01 | 1486553810.16416 | pgbench_branches_pkey |            57344
 2017-02-08 12:36:50.164156+01 | 1486553810.16416 | pgbench_tellers_pkey  |           229376
 2017-02-08 12:36:50.164156+01 | 1486553810.16416 | pgbench_accounts_pkey |        112336896

 2017-02-08 12:36:51.216059+01 | 1486553811.21606 | pgbench_branches_pkey |            57344
 2017-02-08 12:36:51.216059+01 | 1486553811.21606 | pgbench_tellers_pkey  |           229376
 2017-02-08 12:36:51.216059+01 | 1486553811.21606 | pgbench_accounts_pkey |        112336896

 2017-02-08 12:36:52.269352+01 | 1486553812.26935 | pgbench_branches_pkey |            57344
 2017-02-08 12:36:52.269352+01 | 1486553812.26935 | pgbench_tellers_pkey  |           229376
 2017-02-08 12:36:52.269352+01 | 1486553812.26935 | pgbench_accounts_pkey |        112336896

 2017-02-08 12:36:53.324775+01 | 1486553813.32477 | pgbench_branches_pkey |            57344
 2017-02-08 12:36:53.324775+01 | 1486553813.32477 | pgbench_tellers_pkey  |           229376
 2017-02-08 12:36:53.324775+01 | 1486553813.32477 | pgbench_accounts_pkey |        112336896

 2017-02-08 12:36:54.379579+01 | 1486553814.37958 | pgbench_branches_pkey |            57344
 2017-02-08 12:36:54.379579+01 | 1486553814.37958 | pgbench_tellers_pkey  |           229376
 2017-02-08 12:36:54.379579+01 | 1486553814.37958 | pgbench_accounts_pkey |        112336896

 2017-02-08 12:36:55.434162+01 | 1486553815.43416 | pgbench_branches_pkey |            57344
 2017-02-08 12:36:55.434162+01 | 1486553815.43416 | pgbench_tellers_pkey  |           229376
 2017-02-08 12:36:55.434162+01 | 1486553815.43416 | pgbench_accounts_pkey |        112336896

 2017-02-08 12:36:56.485844+01 | 1486553816.48584 | pgbench_branches_pkey |            57344
 2017-02-08 12:36:56.485844+01 | 1486553816.48584 | pgbench_tellers_pkey  |           229376
 2017-02-08 12:36:56.485844+01 | 1486553816.48584 | pgbench_accounts_pkey |        112336896

 2017-02-08 12:36:57.537336+01 | 1486553817.53734 | pgbench_branches_pkey |            57344
 2017-02-08 12:36:57.537336+01 | 1486553817.53734 | pgbench_tellers_pkey  |           229376
 2017-02-08 12:36:57.537336+01 | 1486553817.53734 | pgbench_accounts_pkey |        112336896

 2017-02-08 12:36:58.592256+01 | 1486553818.59226 | pgbench_branches_pkey |            57344
 2017-02-08 12:36:58.592256+01 | 1486553818.59226 | pgbench_tellers_pkey  |           229376
 2017-02-08 12:36:58.592256+01 | 1486553818.59226 | pgbench_accounts_pkey |        112336896

 2017-02-08 12:36:59.645973+01 | 1486553819.64597 | pgbench_branches_pkey |            57344
 2017-02-08 12:36:59.645973+01 | 1486553819.64597 | pgbench_tellers_pkey  |           229376
 2017-02-08 12:36:59.645973+01 | 1486553819.64597 | pgbench_accounts_pkey |        112336896

 2017-02-08 12:37:00.699952+01 | 1486553820.69995 | pgbench_branches_pkey |            57344
 2017-02-08 12:37:00.699952+01 | 1486553820.69995 | pgbench_tellers_pkey  |           229376
 2017-02-08 12:37:00.699952+01 | 1486553820.69995 | pgbench_accounts_pkey |        112336896

 2017-02-08 12:37:01.753742+01 | 1486553821.75374 | pgbench_branches_pkey |            57344
 2017-02-08 12:37:01.753742+01 | 1486553821.75374 | pgbench_tellers_pkey  |           229376
 2017-02-08 12:37:01.753742+01 | 1486553821.75374 | pgbench_accounts_pkey |        112336896

 2017-02-08 12:37:02.803709+01 | 1486553822.80371 | pgbench_branches_pkey |            57344
 2017-02-08 12:37:02.803709+01 | 1486553822.80371 | pgbench_tellers_pkey  |           229376
 2017-02-08 12:37:02.803709+01 | 1486553822.80371 | pgbench_accounts_pkey |        112336896

 2017-02-08 12:37:03.856119+01 | 1486553823.85612 | pgbench_branches_pkey |            57344
 2017-02-08 12:37:03.856119+01 | 1486553823.85612 | pgbench_tellers_pkey  |           229376
 2017-02-08 12:37:03.856119+01 | 1486553823.85612 | pgbench_accounts_pkey |        112336896

 2017-02-08 12:37:04.904723+01 | 1486553824.90472 | pgbench_branches_pkey |            57344
 2017-02-08 12:37:04.904723+01 | 1486553824.90472 | pgbench_tellers_pkey  |           229376
 2017-02-08 12:37:04.904723+01 | 1486553824.90472 | pgbench_accounts_pkey |        112336896

 2017-02-08 12:37:05.956193+01 | 1486553825.95619 | pgbench_branches_pkey |            57344
 2017-02-08 12:37:05.956193+01 | 1486553825.95619 | pgbench_tellers_pkey  |           229376
 2017-02-08 12:37:05.956193+01 | 1486553825.95619 | pgbench_accounts_pkey |        112336896

 2017-02-08 12:37:07.007227+01 | 1486553827.00723 | pgbench_branches_pkey |            57344
 2017-02-08 12:37:07.007227+01 | 1486553827.00723 | pgbench_tellers_pkey  |           229376
 2017-02-08 12:37:07.007227+01 | 1486553827.00723 | pgbench_accounts_pkey |        112336896

 2017-02-08 12:37:08.059156+01 | 1486553828.05916 | pgbench_branches_pkey |            57344
 2017-02-08 12:37:08.059156+01 | 1486553828.05916 | pgbench_tellers_pkey  |           229376
 2017-02-08 12:37:08.059156+01 | 1486553828.05916 | pgbench_accounts_pkey |        112336896

 2017-02-08 12:37:09.111107+01 | 1486553829.11111 | pgbench_branches_pkey |            57344
 2017-02-08 12:37:09.111107+01 | 1486553829.11111 | pgbench_tellers_pkey  |           229376
 2017-02-08 12:37:09.111107+01 | 1486553829.11111 | pgbench_accounts_pkey |        112336896

 2017-02-08 12:37:10.162861+01 | 1486553830.16286 | pgbench_branches_pkey |            57344
 2017-02-08 12:37:10.162861+01 | 1486553830.16286 | pgbench_tellers_pkey  |           229376
 2017-02-08 12:37:10.162861+01 | 1486553830.16286 | pgbench_accounts_pkey |        112336896

 2017-02-08 12:37:11.21407+01 | 1486553831.21407 | pgbench_branches_pkey |            57344
 2017-02-08 12:37:11.21407+01 | 1486553831.21407 | pgbench_tellers_pkey  |           229376
 2017-02-08 12:37:11.21407+01 | 1486553831.21407 | pgbench_accounts_pkey |        112336896

 2017-02-08 12:37:12.267282+01 | 1486553832.26728 | pgbench_branches_pkey |            57344
 2017-02-08 12:37:12.267282+01 | 1486553832.26728 | pgbench_tellers_pkey  |           229376
 2017-02-08 12:37:12.267282+01 | 1486553832.26728 | pgbench_accounts_pkey |        112336896

 2017-02-08 12:37:13.320484+01 | 1486553833.32048 | pgbench_branches_pkey |            57344
 2017-02-08 12:37:13.320484+01 | 1486553833.32048 | pgbench_tellers_pkey  |           229376
 2017-02-08 12:37:13.320484+01 | 1486553833.32048 | pgbench_accounts_pkey |        112336896

 2017-02-08 12:37:14.37167+01 | 1486553834.37167 | pgbench_branches_pkey |            57344
 2017-02-08 12:37:14.37167+01 | 1486553834.37167 | pgbench_tellers_pkey  |           229376
 2017-02-08 12:37:14.37167+01 | 1486553834.37167 | pgbench_accounts_pkey |        112336896

 2017-02-08 12:37:15.424394+01 | 1486553835.42439 | pgbench_branches_pkey |            57344
 2017-02-08 12:37:15.424394+01 | 1486553835.42439 | pgbench_tellers_pkey  |           229376
 2017-02-08 12:37:15.424394+01 | 1486553835.42439 | pgbench_accounts_pkey |        112336896

 2017-02-08 12:37:16.486812+01 | 1486553836.48681 | pgbench_branches_pkey |            57344
 2017-02-08 12:37:16.486812+01 | 1486553836.48681 | pgbench_tellers_pkey  |           229376
 2017-02-08 12:37:16.486812+01 | 1486553836.48681 | pgbench_accounts_pkey |        112336896

 2017-02-08 12:37:17.542185+01 | 1486553837.54219 | pgbench_branches_pkey |            57344
 2017-02-08 12:37:17.542185+01 | 1486553837.54219 | pgbench_tellers_pkey  |           229376
 2017-02-08 12:37:17.542185+01 | 1486553837.54219 | pgbench_accounts_pkey |        112336896

 2017-02-08 12:37:18.593761+01 | 1486553838.59376 | pgbench_branches_pkey |            57344
 2017-02-08 12:37:18.593761+01 | 1486553838.59376 | pgbench_tellers_pkey  |           229376
 2017-02-08 12:37:18.593761+01 | 1486553838.59376 | pgbench_accounts_pkey |        112336896

 2017-02-08 12:37:19.646327+01 | 1486553839.64633 | pgbench_branches_pkey |            57344
 2017-02-08 12:37:19.646327+01 | 1486553839.64633 | pgbench_tellers_pkey  |           229376
 2017-02-08 12:37:19.646327+01 | 1486553839.64633 | pgbench_accounts_pkey |        112336896

 2017-02-08 12:37:20.698265+01 | 1486553840.69827 | pgbench_branches_pkey |            57344
 2017-02-08 12:37:20.698265+01 | 1486553840.69827 | pgbench_tellers_pkey  |           229376
 2017-02-08 12:37:20.698265+01 | 1486553840.69827 | pgbench_accounts_pkey |        112336896

 2017-02-08 12:37:21.747948+01 | 1486553841.74795 | pgbench_branches_pkey |            57344
 2017-02-08 12:37:21.747948+01 | 1486553841.74795 | pgbench_tellers_pkey  |           229376
 2017-02-08 12:37:21.747948+01 | 1486553841.74795 | pgbench_accounts_pkey |        112336896

 2017-02-08 12:37:22.80103+01 | 1486553842.80103 | pgbench_branches_pkey |            57344
 2017-02-08 12:37:22.80103+01 | 1486553842.80103 | pgbench_tellers_pkey  |           229376
 2017-02-08 12:37:22.80103+01 | 1486553842.80103 | pgbench_accounts_pkey |        112336896

 2017-02-08 12:37:23.855118+01 | 1486553843.85512 | pgbench_branches_pkey |            57344
 2017-02-08 12:37:23.855118+01 | 1486553843.85512 | pgbench_tellers_pkey  |           229376
 2017-02-08 12:37:23.855118+01 | 1486553843.85512 | pgbench_accounts_pkey |        112336896

 2017-02-08 12:37:24.907728+01 | 1486553844.90773 | pgbench_branches_pkey |            57344
 2017-02-08 12:37:24.907728+01 | 1486553844.90773 | pgbench_tellers_pkey  |           229376
 2017-02-08 12:37:24.907728+01 | 1486553844.90773 | pgbench_accounts_pkey |        112336896

 2017-02-08 12:37:25.95896+01 | 1486553845.95896 | pgbench_branches_pkey |            57344
 2017-02-08 12:37:25.95896+01 | 1486553845.95896 | pgbench_tellers_pkey  |           229376
 2017-02-08 12:37:25.95896+01 | 1486553845.95896 | pgbench_accounts_pkey |        112336896

 2017-02-08 12:37:27.012118+01 | 1486553847.01212 | pgbench_branches_pkey |            57344
 2017-02-08 12:37:27.012118+01 | 1486553847.01212 | pgbench_tellers_pkey  |           229376
 2017-02-08 12:37:27.012118+01 | 1486553847.01212 | pgbench_accounts_pkey |        112336896

 2017-02-08 12:37:28.066247+01 | 1486553848.06625 | pgbench_branches_pkey |            57344
 2017-02-08 12:37:28.066247+01 | 1486553848.06625 | pgbench_tellers_pkey  |           229376
 2017-02-08 12:37:28.066247+01 | 1486553848.06625 | pgbench_accounts_pkey |        112336896

 2017-02-08 12:37:29.119087+01 | 1486553849.11909 | pgbench_branches_pkey |            57344
 2017-02-08 12:37:29.119087+01 | 1486553849.11909 | pgbench_tellers_pkey  |           229376
 2017-02-08 12:37:29.119087+01 | 1486553849.11909 | pgbench_accounts_pkey |        112336896

 2017-02-08 12:37:30.170125+01 | 1486553850.17013 | pgbench_branches_pkey |            57344
 2017-02-08 12:37:30.170125+01 | 1486553850.17013 | pgbench_tellers_pkey  |           229376
 2017-02-08 12:37:30.170125+01 | 1486553850.17013 | pgbench_accounts_pkey |        112336896

 2017-02-08 12:37:31.221675+01 | 1486553851.22167 | pgbench_branches_pkey |            57344
 2017-02-08 12:37:31.221675+01 | 1486553851.22167 | pgbench_tellers_pkey  |           229376
 2017-02-08 12:37:31.221675+01 | 1486553851.22167 | pgbench_accounts_pkey |        112336896

 2017-02-08 12:37:32.27473+01 | 1486553852.27473 | pgbench_branches_pkey |            57344
 2017-02-08 12:37:32.27473+01 | 1486553852.27473 | pgbench_tellers_pkey  |           229376
 2017-02-08 12:37:32.27473+01 | 1486553852.27473 | pgbench_accounts_pkey |        112336896

 2017-02-08 12:37:33.326261+01 | 1486553853.32626 | pgbench_branches_pkey |            57344
 2017-02-08 12:37:33.326261+01 | 1486553853.32626 | pgbench_tellers_pkey  |           229376
 2017-02-08 12:37:33.326261+01 | 1486553853.32626 | pgbench_accounts_pkey |        112336896

 2017-02-08 12:37:34.375088+01 | 1486553854.37509 | pgbench_branches_pkey |            57344
 2017-02-08 12:37:34.375088+01 | 1486553854.37509 | pgbench_tellers_pkey  |           229376
 2017-02-08 12:37:34.375088+01 | 1486553854.37509 | pgbench_accounts_pkey |        112336896

 2017-02-08 12:37:35.429497+01 | 1486553855.4295 | pgbench_branches_pkey |            57344
 2017-02-08 12:37:35.429497+01 | 1486553855.4295 | pgbench_tellers_pkey  |           229376
 2017-02-08 12:37:35.429497+01 | 1486553855.4295 | pgbench_accounts_pkey |        112336896

 2017-02-08 12:37:36.483006+01 | 1486553856.48301 | pgbench_branches_pkey |            57344
 2017-02-08 12:37:36.483006+01 | 1486553856.48301 | pgbench_tellers_pkey  |           229376
 2017-02-08 12:37:36.483006+01 | 1486553856.48301 | pgbench_accounts_pkey |        112336896

 2017-02-08 12:37:37.532163+01 | 1486553857.53216 | pgbench_branches_pkey |            57344
 2017-02-08 12:37:37.532163+01 | 1486553857.53216 | pgbench_tellers_pkey  |           229376
 2017-02-08 12:37:37.532163+01 | 1486553857.53216 | pgbench_accounts_pkey |        112336896

 2017-02-08 12:37:38.583819+01 | 1486553858.58382 | pgbench_branches_pkey |            57344
 2017-02-08 12:37:38.583819+01 | 1486553858.58382 | pgbench_tellers_pkey  |           229376
 2017-02-08 12:37:38.583819+01 | 1486553858.58382 | pgbench_accounts_pkey |        112336896

 2017-02-08 12:37:39.640188+01 | 1486553859.64019 | pgbench_branches_pkey |            57344
 2017-02-08 12:37:39.640188+01 | 1486553859.64019 | pgbench_tellers_pkey  |           229376
 2017-02-08 12:37:39.640188+01 | 1486553859.64019 | pgbench_accounts_pkey |        112336896

 2017-02-08 12:37:40.691821+01 | 1486553860.69182 | pgbench_branches_pkey |            57344
 2017-02-08 12:37:40.691821+01 | 1486553860.69182 | pgbench_tellers_pkey  |           229376
 2017-02-08 12:37:40.691821+01 | 1486553860.69182 | pgbench_accounts_pkey |        112336896

 2017-02-08 12:37:41.743551+01 | 1486553861.74355 | pgbench_branches_pkey |            57344
 2017-02-08 12:37:41.743551+01 | 1486553861.74355 | pgbench_tellers_pkey  |           229376
 2017-02-08 12:37:41.743551+01 | 1486553861.74355 | pgbench_accounts_pkey |        112336896

 2017-02-08 12:37:42.7981+01 | 1486553862.7981 | pgbench_branches_pkey |            57344
 2017-02-08 12:37:42.7981+01 | 1486553862.7981 | pgbench_tellers_pkey  |           229376
 2017-02-08 12:37:42.7981+01 | 1486553862.7981 | pgbench_accounts_pkey |        112336896

 2017-02-08 12:37:43.850295+01 | 1486553863.8503 | pgbench_branches_pkey |            57344
 2017-02-08 12:37:43.850295+01 | 1486553863.8503 | pgbench_tellers_pkey  |           229376
 2017-02-08 12:37:43.850295+01 | 1486553863.8503 | pgbench_accounts_pkey |        112336896

 2017-02-08 12:37:44.901683+01 | 1486553864.90168 | pgbench_branches_pkey |            57344
 2017-02-08 12:37:44.901683+01 | 1486553864.90168 | pgbench_tellers_pkey  |           229376
 2017-02-08 12:37:44.901683+01 | 1486553864.90168 | pgbench_accounts_pkey |        112336896

 2017-02-08 12:37:45.954304+01 | 1486553865.9543 | pgbench_branches_pkey |            57344
 2017-02-08 12:37:45.954304+01 | 1486553865.9543 | pgbench_tellers_pkey  |           229376
 2017-02-08 12:37:45.954304+01 | 1486553865.9543 | pgbench_accounts_pkey |        112336896

 2017-02-08 12:37:47.006352+01 | 1486553867.00635 | pgbench_branches_pkey |            57344
 2017-02-08 12:37:47.006352+01 | 1486553867.00635 | pgbench_tellers_pkey  |           229376
 2017-02-08 12:37:47.006352+01 | 1486553867.00635 | pgbench_accounts_pkey |        112336896

 2017-02-08 12:37:48.062292+01 | 1486553868.06229 | pgbench_branches_pkey |            57344
 2017-02-08 12:37:48.062292+01 | 1486553868.06229 | pgbench_tellers_pkey  |           229376
 2017-02-08 12:37:48.062292+01 | 1486553868.06229 | pgbench_accounts_pkey |        112336896

 2017-02-08 12:37:49.11677+01 | 1486553869.11677 | pgbench_branches_pkey |            57344
 2017-02-08 12:37:49.11677+01 | 1486553869.11677 | pgbench_tellers_pkey  |           229376
 2017-02-08 12:37:49.11677+01 | 1486553869.11677 | pgbench_accounts_pkey |        112336896

 2017-02-08 12:37:50.168761+01 | 1486553870.16876 | pgbench_branches_pkey |            57344
 2017-02-08 12:37:50.168761+01 | 1486553870.16876 | pgbench_tellers_pkey  |           229376
 2017-02-08 12:37:50.168761+01 | 1486553870.16876 | pgbench_accounts_pkey |        112336896

 2017-02-08 12:37:51.225236+01 | 1486553871.22524 | pgbench_branches_pkey |            57344
 2017-02-08 12:37:51.225236+01 | 1486553871.22524 | pgbench_tellers_pkey  |           229376
 2017-02-08 12:37:51.225236+01 | 1486553871.22524 | pgbench_accounts_pkey |        112336896

 2017-02-08 12:37:52.279589+01 | 1486553872.27959 | pgbench_branches_pkey |            57344
 2017-02-08 12:37:52.279589+01 | 1486553872.27959 | pgbench_tellers_pkey  |           229376
 2017-02-08 12:37:52.279589+01 | 1486553872.27959 | pgbench_accounts_pkey |        112336896

