 2017-02-08 12:32:52.406837+01 | 1486553572.40684 | 0/F8434F80               |            4165160832

 2017-02-08 12:32:53.44763+01 | 1486553573.44763 | 0/FAED2108               |            4209844488

 2017-02-08 12:32:54.499085+01 | 1486553574.49908 | 0/FD1B5630               |            4246427184

 2017-02-08 12:32:55.548276+01 | 1486553575.54828 | 0/FEECFBB8               |            4276943800

 2017-02-08 12:32:56.598391+01 | 1486553576.59839 | 1/66B740                 |            4301698880

 2017-02-08 12:32:57.652921+01 | 1486553577.65292 | 1/1B15F20                |            4323368736

 2017-02-08 12:32:58.704836+01 | 1486553578.70484 | 1/2BDBB78                |            4340956024

 2017-02-08 12:32:59.757002+01 | 1486553579.757 | 1/3BB56D0                |            4357576400

 2017-02-08 12:33:00.811461+01 | 1486553580.81146 | 1/4A5F570                |            4372952432

 2017-02-08 12:33:01.862379+01 | 1486553581.86238 | 1/57F7750                |            4387206992

 2017-02-08 12:33:02.913681+01 | 1486553582.91368 | 1/648A908                |            4400392456

 2017-02-08 12:33:03.961574+01 | 1486553583.96157 | 1/6FFF3E8                |            4412404712

 2017-02-08 12:33:05.01083+01 | 1486553585.01083 | 1/7B29C38                |            4424113208

 2017-02-08 12:33:06.060076+01 | 1486553586.06008 | 1/852E730                |            4434618160

 2017-02-08 12:33:07.114682+01 | 1486553587.11468 | 1/8EE2B80                |            4444793728

 2017-02-08 12:33:08.16462+01 | 1486553588.16462 | 1/9823A60                |            4454496864

 2017-02-08 12:33:09.216719+01 | 1486553589.21672 | 1/A153EA8                |            4464131752

 2017-02-08 12:33:10.266186+01 | 1486553590.26619 | 1/AA728D0                |            4473694416

 2017-02-08 12:33:11.316681+01 | 1486553591.31668 | 1/B36EDE8                |            4483116520

 2017-02-08 12:33:12.376131+01 | 1486553592.37613 | 1/BBEEEE8                |            4492029672

 2017-02-08 12:33:13.427943+01 | 1486553593.42794 | 1/CBD0318                |            4508680984

 2017-02-08 12:33:14.480739+01 | 1486553594.48074 | 1/E0DBED8                |            4530749144

 2017-02-08 12:33:15.531679+01 | 1486553595.53168 | 1/F529EB8                |            4552040120

 2017-02-08 12:33:16.581595+01 | 1486553596.58159 | 1/107EEF28               |            4571721512

 2017-02-08 12:33:17.638364+01 | 1486553597.63836 | 1/118C3F38               |            4589371192

 2017-02-08 12:33:18.690022+01 | 1486553598.69002 | 1/1282D9C8               |            4605532616

 2017-02-08 12:33:19.741254+01 | 1486553599.74125 | 1/13AB8F80               |            4624977792

 2017-02-08 12:33:20.792727+01 | 1486553600.79273 | 1/14832148               |            4639105352

 2017-02-08 12:33:21.841847+01 | 1486553601.84185 | 1/150E7420               |            4648236064

 2017-02-08 12:33:22.89159+01 | 1486553602.89159 | 1/157B80B8               |            4655382712

 2017-02-08 12:33:23.9393+01 | 1486553603.9393 | 1/16B45950               |            4675885392

 2017-02-08 12:33:24.988901+01 | 1486553604.9889 | 1/17EF1E58               |            4696514136

 2017-02-08 12:33:26.041927+01 | 1486553606.04193 | 1/18709C40               |            4705000512

 2017-02-08 12:33:27.091874+01 | 1486553607.09187 | 1/18DF4470               |            4712252528

 2017-02-08 12:33:28.144778+01 | 1486553608.14478 | 1/19165218               |            4715860504

 2017-02-08 12:33:29.198248+01 | 1486553609.19825 | 1/194D5FF8               |            4719468536

 2017-02-08 12:33:30.249308+01 | 1486553610.24931 | 1/198578F0               |            4723144944

 2017-02-08 12:33:31.298399+01 | 1486553611.2984 | 1/19BE8820               |            4726884384

 2017-02-08 12:33:32.348312+01 | 1486553612.34831 | 1/19F81738               |            4730656568

 2017-02-08 12:33:33.398997+01 | 1486553613.399 | 1/1A2E4FC8               |            4734209992

 2017-02-08 12:33:34.447343+01 | 1486553614.44734 | 1/1A64ABF8               |            4737772536

 2017-02-08 12:33:35.501249+01 | 1486553615.50125 | 1/1A9C5218               |            4741419544

 2017-02-08 12:33:36.554459+01 | 1486553616.55446 | 1/1AD30D10               |            4745006352

 2017-02-08 12:33:37.605341+01 | 1486553617.60534 | 1/1B083180               |            4748489088

 2017-02-08 12:33:38.653882+01 | 1486553618.65388 | 1/1B3EE4F0               |            4752073968

 2017-02-08 12:33:39.70382+01 | 1486553619.70382 | 1/1B77FB00               |            4755815168

 2017-02-08 12:33:40.753858+01 | 1486553620.75386 | 1/1BB0C058               |            4759535704

 2017-02-08 12:33:41.808092+01 | 1486553621.80809 | 1/1BE79BA0               |            4763130784

 2017-02-08 12:33:42.860291+01 | 1486553622.86029 | 1/1C1D5DA8               |            4766653864

 2017-02-08 12:33:43.917588+01 | 1486553623.91759 | 1/1C5556A0               |            4770322080

 2017-02-08 12:33:44.969259+01 | 1486553624.96926 | 1/1C8A1A00               |            4773779968

 2017-02-08 12:33:46.019061+01 | 1486553626.01906 | 1/1CC00908               |            4777314568

 2017-02-08 12:33:47.073373+01 | 1486553627.07337 | 1/1CF57738               |            4780816184

 2017-02-08 12:33:48.124465+01 | 1486553628.12446 | 1/1D295D10               |            4784217360

 2017-02-08 12:33:49.17645+01 | 1486553629.17645 | 1/1D608E68               |            4787834472

 2017-02-08 12:33:50.22746+01 | 1486553630.22746 | 1/1D989DF0               |            4791508464

 2017-02-08 12:33:51.276592+01 | 1486553631.27659 | 1/1DD08E10               |            4795174416

 2017-02-08 12:33:52.325417+01 | 1486553632.32542 | 1/1E04B418               |            4798592024

 2017-02-08 12:33:53.379679+01 | 1486553633.37968 | 1/1E39E3C8               |            4802077640

 2017-02-08 12:33:54.435911+01 | 1486553634.43591 | 1/1E6EB8E0               |            4805540064

 2017-02-08 12:33:55.486572+01 | 1486553635.48657 | 1/1EA51AF8               |            4809104120

 2017-02-08 12:33:56.538259+01 | 1486553636.53826 | 1/1EDFAD28               |            4812942632

 2017-02-08 12:33:57.588776+01 | 1486553637.58878 | 1/1F11A418               |            4816217112

 2017-02-08 12:33:58.641623+01 | 1486553638.64162 | 1/1F45BC38               |            4819631160

 2017-02-08 12:33:59.692323+01 | 1486553639.69232 | 1/1F7B7248               |            4823151176

 2017-02-08 12:34:00.744918+01 | 1486553640.74492 | 1/1FAF2F10               |            4826541840

 2017-02-08 12:34:01.795271+01 | 1486553641.79527 | 1/1FE3FF28               |            4830002984

 2017-02-08 12:34:02.847566+01 | 1486553642.84757 | 1/2016E168               |            4833337704

 2017-02-08 12:34:03.898513+01 | 1486553643.89851 | 1/204BFC78               |            4836818040

 2017-02-08 12:34:04.948646+01 | 1486553644.94865 | 1/207EC870               |            4840147056

 2017-02-08 12:34:05.998247+01 | 1486553645.99825 | 1/20B482B0               |            4843668144

 2017-02-08 12:34:07.047951+01 | 1486553647.04795 | 1/20E76D78               |            4847005048

 2017-02-08 12:34:08.099798+01 | 1486553648.0998 | 1/211B8310               |            4850418448

 2017-02-08 12:34:09.147917+01 | 1486553649.14792 | 1/2151F3D8               |            4853986264

 2017-02-08 12:34:10.197905+01 | 1486553650.19791 | 1/21858BD8               |            4857367512

 2017-02-08 12:34:11.249779+01 | 1486553651.24978 | 1/21BC5C30               |            4860959792

 2017-02-08 12:34:12.302542+01 | 1486553652.30254 | 1/21F0E8E8               |            4864403688

 2017-02-08 12:34:13.348342+01 | 1486553653.34834 | 1/22241C00               |            4867759104

 2017-02-08 12:34:14.401649+01 | 1486553654.40165 | 1/22620368               |            4871816040

 2017-02-08 12:34:15.450256+01 | 1486553655.45026 | 1/22976EA8               |            4875316904

 2017-02-08 12:34:16.501823+01 | 1486553656.50182 | 1/22CD9780               |            4878866304

 2017-02-08 12:34:17.552922+01 | 1486553657.55292 | 1/22FFDE78               |            4882161272

 2017-02-08 12:34:18.60298+01 | 1486553658.60298 | 1/233042C8               |            4885332680

 2017-02-08 12:34:19.654283+01 | 1486553659.65428 | 1/23646448               |            4888749128

 2017-02-08 12:34:20.702554+01 | 1486553660.70255 | 1/23977570               |            4892095856

 2017-02-08 12:34:21.754285+01 | 1486553661.75429 | 1/23CAAE10               |            4895452688

 2017-02-08 12:34:22.806148+01 | 1486553662.80615 | 1/23FE0518               |            4898817304

 2017-02-08 12:34:23.854939+01 | 1486553663.85494 | 1/2430EF70               |            4902154096

 2017-02-08 12:34:24.90359+01 | 1486553664.90359 | 1/24627F88               |            4905402248

 2017-02-08 12:34:25.952679+01 | 1486553665.95268 | 1/2494B3B0               |            4908692400

 2017-02-08 12:34:27.005637+01 | 1486553667.00564 | 1/24C3D938               |            4911782200

 2017-02-08 12:34:28.057061+01 | 1486553668.05706 | 1/24F424B0               |            4914947248

 2017-02-08 12:34:29.110384+01 | 1486553669.11038 | 1/2523D0C8               |            4918071496

 2017-02-08 12:34:30.158927+01 | 1486553670.15893 | 1/25555A88               |            4921318024

 2017-02-08 12:34:31.208549+01 | 1486553671.20855 | 1/2588B6B8               |            4924683960

 2017-02-08 12:34:32.263744+01 | 1486553672.26374 | 1/25B99688               |            4927886984

 2017-02-08 12:34:33.318019+01 | 1486553673.31802 | 1/25EBEE18               |            4931186200

 2017-02-08 12:34:34.372764+01 | 1486553674.37276 | 1/261AE928               |            4934265128

 2017-02-08 12:34:35.423379+01 | 1486553675.42338 | 1/264BFE30               |            4937481776

 2017-02-08 12:34:36.47597+01 | 1486553676.47597 | 1/267D6E78               |            4940721784

 2017-02-08 12:34:37.529218+01 | 1486553677.52922 | 1/26AF4F38               |            4943990584

 2017-02-08 12:34:38.582393+01 | 1486553678.58239 | 1/26DF5610               |            4947138064

 2017-02-08 12:34:39.635872+01 | 1486553679.63587 | 1/270E3340               |            4950209344

 2017-02-08 12:34:40.689826+01 | 1486553680.68983 | 1/273E7E38               |            4953374264

 2017-02-08 12:34:41.744556+01 | 1486553681.74456 | 1/276EC858               |            4956538968

 2017-02-08 12:34:42.797681+01 | 1486553682.79768 | 1/27A07A10               |            4959795728

 2017-02-08 12:34:43.849645+01 | 1486553683.84964 | 1/27D20F10               |            4963045136

 2017-02-08 12:34:44.901312+01 | 1486553684.90131 | 1/28008B40               |            4966091584

 2017-02-08 12:34:45.951275+01 | 1486553685.95128 | 1/28317B10               |            4969298704

 2017-02-08 12:34:47.003316+01 | 1486553687.00332 | 1/28627970               |            4972509552

 2017-02-08 12:34:48.053466+01 | 1486553688.05347 | 1/2892A548               |            4975666504

 2017-02-08 12:34:49.106677+01 | 1486553689.10668 | 1/28C43490               |            4978914448

 2017-02-08 12:34:50.16009+01 | 1486553690.16009 | 1/28F53458               |            4982125656

 2017-02-08 12:34:51.209849+01 | 1486553691.20985 | 1/29230328               |            4985127720

 2017-02-08 12:34:52.258679+01 | 1486553692.25868 | 1/2954B048               |            4988383304

 2017-02-08 12:34:53.311444+01 | 1486553693.31144 | 1/29861BC0               |            4991622080

 2017-02-08 12:34:54.366097+01 | 1486553694.3661 | 1/29B7ED88               |            4994887048

 2017-02-08 12:34:55.416406+01 | 1486553695.41641 | 1/29E7B558               |            4998018392

 2017-02-08 12:34:56.464355+01 | 1486553696.46435 | 1/2A17AB08               |            5001161480

 2017-02-08 12:34:57.52007+01 | 1486553697.52007 | 1/2A47BD08               |            5004311816

 2017-02-08 12:34:58.57257+01 | 1486553698.57257 | 1/2A789558               |            5007512920

 2017-02-08 12:34:59.621934+01 | 1486553699.62193 | 1/2AAA4CD0               |            5010771152

 2017-02-08 12:35:00.673727+01 | 1486553700.67373 | 1/2ADE2220               |            5014168096

 2017-02-08 12:35:01.727936+01 | 1486553701.72794 | 1/2B0D4BC0               |            5017258944

 2017-02-08 12:35:02.784411+01 | 1486553702.78441 | 1/2B3F35F8               |            5020530168

 2017-02-08 12:35:03.835515+01 | 1486553703.83552 | 1/2B711320               |            5023798048

 2017-02-08 12:35:04.886614+01 | 1486553704.88661 | 1/2BA12B50               |            5026949968

 2017-02-08 12:35:05.934991+01 | 1486553705.93499 | 1/2BD24D28               |            5030169896

 2017-02-08 12:35:06.986868+01 | 1486553706.98687 | 1/2C0436B0               |            5033440944

 2017-02-08 12:35:08.041804+01 | 1486553708.0418 | 1/2C342CA8               |            5036584104

 2017-02-08 12:35:09.094611+01 | 1486553709.09461 | 1/2C665E50               |            5039873616

 2017-02-08 12:35:10.147752+01 | 1486553710.14775 | 1/2C969D68               |            5043035496

 2017-02-08 12:35:11.198983+01 | 1486553711.19898 | 1/2CC55D10               |            5046099216

 2017-02-08 12:35:12.248631+01 | 1486553712.24863 | 1/2CF7FAE0               |            5049416416

 2017-02-08 12:35:13.298231+01 | 1486553713.29823 | 1/2D28BC20               |            5052611616

 2017-02-08 12:35:14.354877+01 | 1486553714.35488 | 1/2D59EEA0               |            5055835808

 2017-02-08 12:35:15.408045+01 | 1486553715.40805 | 1/2D8B7420               |            5059081248

 2017-02-08 12:35:16.462723+01 | 1486553716.46272 | 1/2DBD4640               |            5062346304

 2017-02-08 12:35:17.514588+01 | 1486553717.51459 | 1/2DF2D378               |            5065855864

 2017-02-08 12:35:18.560127+01 | 1486553718.56013 | 1/2E40A3A8               |            5070955432

 2017-02-08 12:35:19.614807+01 | 1486553719.61481 | 1/2E8505E8               |            5075437032

 2017-02-08 12:35:20.670078+01 | 1486553720.67008 | 1/2EB58B10               |            5078616848

 2017-02-08 12:35:21.722434+01 | 1486553721.72243 | 1/2EEAC2A0               |            5082104480

 2017-02-08 12:35:22.778318+01 | 1486553722.77832 | 1/2F2A2260               |            5086257760

 2017-02-08 12:35:23.828919+01 | 1486553723.82892 | 1/2F641BB8               |            5090057144

 2017-02-08 12:35:24.880425+01 | 1486553724.88042 | 1/2F940628               |            5093197352

 2017-02-08 12:35:25.930353+01 | 1486553725.93035 | 1/2FC3B100               |            5096321280

 2017-02-08 12:35:26.986312+01 | 1486553726.98631 | 1/2FF448F0               |            5099505904

 2017-02-08 12:35:28.039055+01 | 1486553728.03906 | 1/3023B870               |            5102614640

 2017-02-08 12:35:29.092402+01 | 1486553729.0924 | 1/30554410               |            5105861648

 2017-02-08 12:35:30.141976+01 | 1486553730.14198 | 1/30851DF8               |            5108997624

 2017-02-08 12:35:31.195143+01 | 1486553731.19514 | 1/30B4FBA0               |            5112134560

 2017-02-08 12:35:32.2467+01 | 1486553732.2467 | 1/30E47E00               |            5115248128

 2017-02-08 12:35:33.296341+01 | 1486553733.29634 | 1/3114DA88               |            5118417544

 2017-02-08 12:35:34.350601+01 | 1486553734.3506 | 1/3143E4F0               |            5121500400

 2017-02-08 12:35:35.404107+01 | 1486553735.40411 | 1/3174A668               |            5124695656

 2017-02-08 12:35:36.455727+01 | 1486553736.45573 | 1/31A48108               |            5127831816

 2017-02-08 12:35:37.508099+01 | 1486553737.5081 | 1/31D6CD70               |            5131128176

 2017-02-08 12:35:38.561069+01 | 1486553738.56107 | 1/3207FAE0               |            5134351072

 2017-02-08 12:35:39.60971+01 | 1486553739.60971 | 1/32383848               |            5137512520

 2017-02-08 12:35:40.664492+01 | 1486553740.66449 | 1/32685258               |            5140664920

 2017-02-08 12:35:41.720456+01 | 1486553741.72046 | 1/329AB558               |            5143967064

 2017-02-08 12:35:42.773321+01 | 1486553742.77332 | 1/32CB4D08               |            5147151624

 2017-02-08 12:35:43.823843+01 | 1486553743.82384 | 1/32FB60F0               |            5150302448

 2017-02-08 12:35:44.875851+01 | 1486553744.87585 | 1/332A6430               |            5153383472

 2017-02-08 12:35:45.928582+01 | 1486553745.92858 | 1/335CDF20               |            5156691744

 2017-02-08 12:35:46.983256+01 | 1486553746.98326 | 1/338CAF20               |            5159825184

 2017-02-08 12:35:48.036369+01 | 1486553748.03637 | 1/33BC1750               |            5162932048

 2017-02-08 12:35:49.088621+01 | 1486553749.08862 | 1/33ED6110               |            5166162192

 2017-02-08 12:35:50.140041+01 | 1486553750.14004 | 1/341D6220               |            5169308192

 2017-02-08 12:35:51.191028+01 | 1486553751.19103 | 1/344EB4D0               |            5172540624

 2017-02-08 12:35:52.244599+01 | 1486553752.2446 | 1/347F92F8               |            5175743224

 2017-02-08 12:35:53.294623+01 | 1486553753.29462 | 1/34AF8BF8               |            5178887160

 2017-02-08 12:35:54.34395+01 | 1486553754.34395 | 1/34E22F40               |            5182205760

 2017-02-08 12:35:55.394863+01 | 1486553755.39486 | 1/3512EEC8               |            5185400520

 2017-02-08 12:35:56.444822+01 | 1486553756.44482 | 1/35439460               |            5188588640

 2017-02-08 12:35:57.494666+01 | 1486553757.49467 | 1/3574D928               |            5191817512

 2017-02-08 12:35:58.546345+01 | 1486553758.54634 | 1/35A604D8               |            5195039960

 2017-02-08 12:35:59.593994+01 | 1486553759.59399 | 1/35D64190               |            5198201232

 2017-02-08 12:36:00.645412+01 | 1486553760.64541 | 1/360653C0               |            5201351616

 2017-02-08 12:36:01.696529+01 | 1486553761.69653 | 1/36371BE8               |            5204548584

 2017-02-08 12:36:02.752093+01 | 1486553762.75209 | 1/3668C590               |            5207803280

 2017-02-08 12:36:03.802339+01 | 1486553763.80234 | 1/369A7A60               |            5211060832

 2017-02-08 12:36:04.850886+01 | 1486553764.85089 | 1/36CBFE48               |            5214305864

 2017-02-08 12:36:05.904335+01 | 1486553765.90434 | 1/36FDEA90               |            5217577616

 2017-02-08 12:36:06.957743+01 | 1486553766.95774 | 1/372EC5C0               |            5220779456

 2017-02-08 12:36:08.011984+01 | 1486553768.01198 | 1/3760A728               |            5224048424

 2017-02-08 12:36:09.064001+01 | 1486553769.064 | 1/37918570               |            5227251056

 2017-02-08 12:36:10.115092+01 | 1486553770.11509 | 1/37C19B28               |            5230402344

 2017-02-08 12:36:11.168212+01 | 1486553771.16821 | 1/37F0FCF8               |            5233507576

 2017-02-08 12:36:12.222277+01 | 1486553772.22228 | 1/382026F0               |            5236598512

 2017-02-08 12:36:13.275046+01 | 1486553773.27505 | 1/3851CA08               |            5239851528

 2017-02-08 12:36:14.32509+01 | 1486553774.32509 | 1/3884C648               |            5243192904

 2017-02-08 12:36:15.375564+01 | 1486553775.37556 | 1/38C004D0               |            5247075536

 2017-02-08 12:36:16.417178+01 | 1486553776.41718 | 1/38F19A50               |            5250325072

 2017-02-08 12:36:17.467382+01 | 1486553777.46738 | 1/392240D8               |            5253513432

 2017-02-08 12:36:18.519391+01 | 1486553778.51939 | 1/395552C0               |            5256860352

 2017-02-08 12:36:19.572589+01 | 1486553779.57259 | 1/398753F8               |            5260137464

 2017-02-08 12:36:20.625698+01 | 1486553780.6257 | 1/39B71648               |            5263267400

 2017-02-08 12:36:21.679514+01 | 1486553781.67951 | 1/39E72FD8               |            5266419672

 2017-02-08 12:36:22.729091+01 | 1486553782.72909 | 1/3A168DA0               |            5269523872

 2017-02-08 12:36:23.782367+01 | 1486553783.78237 | 1/3A480550               |            5272765776

 2017-02-08 12:36:24.835321+01 | 1486553784.83532 | 1/3A795B48               |            5275999048

 2017-02-08 12:36:25.884631+01 | 1486553785.88463 | 1/3AAA3430               |            5279200304

 2017-02-08 12:36:26.941244+01 | 1486553786.94124 | 1/3ADDD580               |            5282583936

 2017-02-08 12:36:27.997603+01 | 1486553787.9976 | 1/3B0DA6C0               |            5285717696

 2017-02-08 12:36:29.046823+01 | 1486553789.04682 | 1/3B3E0700               |            5288888064

 2017-02-08 12:36:30.100123+01 | 1486553790.10012 | 1/3B6F6E60               |            5292125792

 2017-02-08 12:36:31.1584+01 | 1486553791.1584 | 1/3B9ECFC0               |            5295230912

 2017-02-08 12:36:32.20685+01 | 1486553792.20685 | 1/3BCD9750               |            5298296656

 2017-02-08 12:36:33.261454+01 | 1486553793.26145 | 1/3BFDA9B8               |            5301447096

 2017-02-08 12:36:34.314045+01 | 1486553794.31404 | 1/3C2F63B8               |            5304705976

 2017-02-08 12:36:35.367176+01 | 1486553795.36718 | 1/3C5C3C20               |            5307644960

 2017-02-08 12:36:36.431997+01 | 1486553796.432 | 1/3C8DE410               |            5310899216

 2017-02-08 12:36:37.486226+01 | 1486553797.48623 | 1/3CBE0CA8               |            5314055336

 2017-02-08 12:36:38.542274+01 | 1486553798.54227 | 1/3CEECE78               |            5317250680

 2017-02-08 12:36:39.601628+01 | 1486553799.60163 | 1/3D1E84D8               |            5320377560

 2017-02-08 12:36:40.653507+01 | 1486553800.65351 | 1/3D4E6D80               |            5323517312

 2017-02-08 12:36:41.705994+01 | 1486553801.70599 | 1/3D8064D0               |            5326791888

 2017-02-08 12:36:42.759069+01 | 1486553802.75907 | 1/3DB10960               |            5329979744

 2017-02-08 12:36:43.815383+01 | 1486553803.81538 | 1/3DE0F9C0               |            5333121472

 2017-02-08 12:36:44.864915+01 | 1486553804.86491 | 1/3E10C9B0               |            5336254896

 2017-02-08 12:36:45.918218+01 | 1486553805.91822 | 1/3E408E88               |            5339385480

 2017-02-08 12:36:46.969642+01 | 1486553806.96964 | 1/3E7360B0               |            5342716080

 2017-02-08 12:36:48.023448+01 | 1486553808.02345 | 1/3EA4A940               |            5345945920

 2017-02-08 12:36:49.073781+01 | 1486553809.07378 | 1/3ED3E9E0               |            5349042656

 2017-02-08 12:36:50.126937+01 | 1486553810.12694 | 1/3F03ACA8               |            5352172712

 2017-02-08 12:36:51.178014+01 | 1486553811.17801 | 1/3F354AF0               |            5355424496

 2017-02-08 12:36:52.230792+01 | 1486553812.23079 | 1/3F661270               |            5358621296

 2017-02-08 12:36:53.284838+01 | 1486553813.28484 | 1/3F95C4E8               |            5361747176

 2017-02-08 12:36:54.33855+01 | 1486553814.33855 | 1/3FC57240               |            5364871744

 2017-02-08 12:36:55.39454+01 | 1486553815.39454 | 1/3FF533A8               |            5368001448

 2017-02-08 12:36:56.44836+01 | 1486553816.44836 | 1/4025A2B8               |            5371175608

 2017-02-08 12:36:57.498758+01 | 1486553817.49876 | 1/4054B208               |            5374259720

 2017-02-08 12:36:58.551982+01 | 1486553818.55198 | 1/40863420               |            5377504288

 2017-02-08 12:36:59.606555+01 | 1486553819.60655 | 1/40B6DDC8               |            5380693448

 2017-02-08 12:37:00.657979+01 | 1486553820.65798 | 1/40E5E8A0               |            5383776416

 2017-02-08 12:37:01.714722+01 | 1486553821.71472 | 1/4114A528               |            5386839336

 2017-02-08 12:37:02.767473+01 | 1486553822.76747 | 1/41446710               |            5389969168

 2017-02-08 12:37:03.816203+01 | 1486553823.8162 | 1/417553D8               |            5393175512

 2017-02-08 12:37:04.869264+01 | 1486553824.86926 | 1/41A55820               |            5396322336

 2017-02-08 12:37:05.918353+01 | 1486553825.91835 | 1/41D47150               |            5399408976

 2017-02-08 12:37:06.968999+01 | 1486553826.969 | 1/42043FB0               |            5402542000

 2017-02-08 12:37:08.019176+01 | 1486553828.01918 | 1/423343B0               |            5405623216

 2017-02-08 12:37:09.073033+01 | 1486553829.07303 | 1/4262CCA8               |            5408738472

 2017-02-08 12:37:10.123955+01 | 1486553830.12396 | 1/4291F278               |            5411828344

 2017-02-08 12:37:11.175807+01 | 1486553831.17581 | 1/42C14180               |            5414928768

 2017-02-08 12:37:12.226954+01 | 1486553832.22695 | 1/42F16660               |            5418083936

 2017-02-08 12:37:13.281262+01 | 1486553833.28126 | 1/4339D340               |            5422830400

 2017-02-08 12:37:14.333801+01 | 1486553834.3338 | 1/43856580               |            5427783040

 2017-02-08 12:37:15.384787+01 | 1486553835.38479 | 1/43B4AA30               |            5430880816

 2017-02-08 12:37:16.438918+01 | 1486553836.43892 | 1/43E71AC8               |            5434186440

 2017-02-08 12:37:17.502764+01 | 1486553837.50276 | 1/44204020               |            5437931552

 2017-02-08 12:37:18.55531+01 | 1486553838.55531 | 1/44580E30               |            5441588784

 2017-02-08 12:37:19.608717+01 | 1486553839.60872 | 1/4486A328               |            5444641576

 2017-02-08 12:37:20.658669+01 | 1486553840.65867 | 1/44B603E8               |            5447746536

 2017-02-08 12:37:21.71053+01 | 1486553841.71053 | 1/44E63750               |            5450905424

 2017-02-08 12:37:22.763194+01 | 1486553842.76319 | 1/45146E88               |            5453934216

 2017-02-08 12:37:23.814454+01 | 1486553843.81445 | 1/454247A0               |            5456938912

 2017-02-08 12:37:24.869218+01 | 1486553844.86922 | 1/4571F698               |            5460063896

 2017-02-08 12:37:25.921123+01 | 1486553845.92112 | 1/45A38CA8               |            5463313576

 2017-02-08 12:37:26.972308+01 | 1486553846.97231 | 1/45D38AF0               |            5466458864

 2017-02-08 12:37:28.027362+01 | 1486553848.02736 | 1/46032F48               |            5469581128

 2017-02-08 12:37:29.079378+01 | 1486553849.07938 | 1/46319560               |            5472621920

 2017-02-08 12:37:30.133275+01 | 1486553850.13328 | 1/466285C0               |            5475829184

 2017-02-08 12:37:31.18311+01 | 1486553851.18311 | 1/46925740               |            5478963008

 2017-02-08 12:37:32.235865+01 | 1486553852.23587 | 1/46C1B730               |            5482067760

 2017-02-08 12:37:33.288315+01 | 1486553853.28832 | 1/46F15B70               |            5485190000

 2017-02-08 12:37:34.338792+01 | 1486553854.33879 | 1/471EC710               |            5488166672

 2017-02-08 12:37:35.389527+01 | 1486553855.38953 | 1/474EEA80               |            5491321472

 2017-02-08 12:37:36.444109+01 | 1486553856.44411 | 1/47805238               |            5494559288

 2017-02-08 12:37:37.495427+01 | 1486553857.49543 | 1/47AF4B88               |            5497637768

 2017-02-08 12:37:38.545616+01 | 1486553858.54562 | 1/47DE4C20               |            5500718112

 2017-02-08 12:37:39.59666+01 | 1486553859.59666 | 1/480E3EE8               |            5503860456

 2017-02-08 12:37:40.652647+01 | 1486553860.65265 | 1/483D1120               |            5506928928

 2017-02-08 12:37:41.705264+01 | 1486553861.70526 | 1/486B8BE8               |            5509975016

 2017-02-08 12:37:42.757725+01 | 1486553862.75773 | 1/4899CF08               |            5513006856

 2017-02-08 12:37:43.811598+01 | 1486553863.8116 | 1/48CA41C0               |            5516181952

 2017-02-08 12:37:44.86471+01 | 1486553864.86471 | 1/48FADD30               |            5519367472

 2017-02-08 12:37:45.914256+01 | 1486553865.91426 | 1/49286330               |            5522350896

 2017-02-08 12:37:46.968122+01 | 1486553866.96812 | 1/495A5690               |            5525624464

 2017-02-08 12:37:48.022616+01 | 1486553868.02262 | 1/498A2478               |            5528757368

 2017-02-08 12:37:49.076725+01 | 1486553869.07673 | 1/49B89628               |            5531801128

 2017-02-08 12:37:50.130069+01 | 1486553870.13007 | 1/49EA4060               |            5535055968

 2017-02-08 12:37:51.183692+01 | 1486553871.18369 | 1/4A18CA90               |            5538106000

 2017-02-08 12:37:52.240605+01 | 1486553872.24061 | 1/4A49E688               |            5541324424

