 2017-02-08 20:04:23.782694+01 | 1486580663.78269 | pgbench_accounts |       4096401408
 2017-02-08 20:04:23.782694+01 | 1486580663.78269 | pgbench_tellers  |           139264
 2017-02-08 20:04:23.782694+01 | 1486580663.78269 | pgbench_history  |                0
 2017-02-08 20:04:23.782694+01 | 1486580663.78269 | pgbench_branches |            16384

 2017-02-08 20:04:24.855598+01 | 1486580664.8556 | pgbench_accounts |       4096401408
 2017-02-08 20:04:24.855598+01 | 1486580664.8556 | pgbench_tellers  |           139264
 2017-02-08 20:04:24.855598+01 | 1486580664.8556 | pgbench_history  |                0
 2017-02-08 20:04:24.855598+01 | 1486580664.8556 | pgbench_branches |            16384

 2017-02-08 20:04:25.92873+01 | 1486580665.92873 | pgbench_accounts |       4096401408
 2017-02-08 20:04:25.92873+01 | 1486580665.92873 | pgbench_tellers  |           139264
 2017-02-08 20:04:25.92873+01 | 1486580665.92873 | pgbench_history  |                0
 2017-02-08 20:04:25.92873+01 | 1486580665.92873 | pgbench_branches |            16384

 2017-02-08 20:04:26.998485+01 | 1486580666.99849 | pgbench_accounts |       4096401408
 2017-02-08 20:04:26.998485+01 | 1486580666.99849 | pgbench_tellers  |           139264
 2017-02-08 20:04:26.998485+01 | 1486580666.99849 | pgbench_history  |                0
 2017-02-08 20:04:26.998485+01 | 1486580666.99849 | pgbench_branches |            16384

 2017-02-08 20:04:28.067212+01 | 1486580668.06721 | pgbench_accounts |       4096401408
 2017-02-08 20:04:28.067212+01 | 1486580668.06721 | pgbench_tellers  |           139264
 2017-02-08 20:04:28.067212+01 | 1486580668.06721 | pgbench_history  |                0
 2017-02-08 20:04:28.067212+01 | 1486580668.06721 | pgbench_branches |            16384

 2017-02-08 20:04:29.131936+01 | 1486580669.13194 | pgbench_accounts |       4096401408
 2017-02-08 20:04:29.131936+01 | 1486580669.13194 | pgbench_tellers  |           139264
 2017-02-08 20:04:29.131936+01 | 1486580669.13194 | pgbench_history  |                0
 2017-02-08 20:04:29.131936+01 | 1486580669.13194 | pgbench_branches |            16384

 2017-02-08 20:04:30.194134+01 | 1486580670.19413 | pgbench_accounts |       4096401408
 2017-02-08 20:04:30.194134+01 | 1486580670.19413 | pgbench_tellers  |           139264
 2017-02-08 20:04:30.194134+01 | 1486580670.19413 | pgbench_history  |                0
 2017-02-08 20:04:30.194134+01 | 1486580670.19413 | pgbench_branches |            16384

 2017-02-08 20:04:31.268307+01 | 1486580671.26831 | pgbench_accounts |       4096401408
 2017-02-08 20:04:31.268307+01 | 1486580671.26831 | pgbench_tellers  |           139264
 2017-02-08 20:04:31.268307+01 | 1486580671.26831 | pgbench_history  |                0
 2017-02-08 20:04:31.268307+01 | 1486580671.26831 | pgbench_branches |            16384

 2017-02-08 20:04:32.341908+01 | 1486580672.34191 | pgbench_accounts |       4096401408
 2017-02-08 20:04:32.341908+01 | 1486580672.34191 | pgbench_tellers  |           139264
 2017-02-08 20:04:32.341908+01 | 1486580672.34191 | pgbench_history  |                0
 2017-02-08 20:04:32.341908+01 | 1486580672.34191 | pgbench_branches |            16384

 2017-02-08 20:04:33.428117+01 | 1486580673.42812 | pgbench_accounts |       4096401408
 2017-02-08 20:04:33.428117+01 | 1486580673.42812 | pgbench_tellers  |           139264
 2017-02-08 20:04:33.428117+01 | 1486580673.42812 | pgbench_history  |                0
 2017-02-08 20:04:33.428117+01 | 1486580673.42812 | pgbench_branches |            16384

 2017-02-08 20:04:34.502498+01 | 1486580674.5025 | pgbench_accounts |       4096401408
 2017-02-08 20:04:34.502498+01 | 1486580674.5025 | pgbench_tellers  |           139264
 2017-02-08 20:04:34.502498+01 | 1486580674.5025 | pgbench_history  |                0
 2017-02-08 20:04:34.502498+01 | 1486580674.5025 | pgbench_branches |            16384

 2017-02-08 20:04:35.573838+01 | 1486580675.57384 | pgbench_accounts |       4096401408
 2017-02-08 20:04:35.573838+01 | 1486580675.57384 | pgbench_tellers  |           139264
 2017-02-08 20:04:35.573838+01 | 1486580675.57384 | pgbench_history  |                0
 2017-02-08 20:04:35.573838+01 | 1486580675.57384 | pgbench_branches |            16384

 2017-02-08 20:04:36.633559+01 | 1486580676.63356 | pgbench_accounts |       4096401408
 2017-02-08 20:04:36.633559+01 | 1486580676.63356 | pgbench_tellers  |           139264
 2017-02-08 20:04:36.633559+01 | 1486580676.63356 | pgbench_history  |                0
 2017-02-08 20:04:36.633559+01 | 1486580676.63356 | pgbench_branches |            16384

 2017-02-08 20:04:37.703586+01 | 1486580677.70359 | pgbench_accounts |       4096401408
 2017-02-08 20:04:37.703586+01 | 1486580677.70359 | pgbench_tellers  |           139264
 2017-02-08 20:04:37.703586+01 | 1486580677.70359 | pgbench_history  |                0
 2017-02-08 20:04:37.703586+01 | 1486580677.70359 | pgbench_branches |            16384

 2017-02-08 20:04:38.769967+01 | 1486580678.76997 | pgbench_accounts |       4096401408
 2017-02-08 20:04:38.769967+01 | 1486580678.76997 | pgbench_tellers  |           139264
 2017-02-08 20:04:38.769967+01 | 1486580678.76997 | pgbench_history  |                0
 2017-02-08 20:04:38.769967+01 | 1486580678.76997 | pgbench_branches |            16384

 2017-02-08 20:04:39.839758+01 | 1486580679.83976 | pgbench_accounts |       4096401408
 2017-02-08 20:04:39.839758+01 | 1486580679.83976 | pgbench_tellers  |           139264
 2017-02-08 20:04:39.839758+01 | 1486580679.83976 | pgbench_history  |                0
 2017-02-08 20:04:39.839758+01 | 1486580679.83976 | pgbench_branches |            16384

 2017-02-08 20:04:40.923163+01 | 1486580680.92316 | pgbench_accounts |       4096401408
 2017-02-08 20:04:40.923163+01 | 1486580680.92316 | pgbench_tellers  |           139264
 2017-02-08 20:04:40.923163+01 | 1486580680.92316 | pgbench_history  |                0
 2017-02-08 20:04:40.923163+01 | 1486580680.92316 | pgbench_branches |            16384

 2017-02-08 20:04:41.98638+01 | 1486580681.98638 | pgbench_accounts |       4096401408
 2017-02-08 20:04:41.98638+01 | 1486580681.98638 | pgbench_tellers  |           139264
 2017-02-08 20:04:41.98638+01 | 1486580681.98638 | pgbench_history  |                0
 2017-02-08 20:04:41.98638+01 | 1486580681.98638 | pgbench_branches |            16384

 2017-02-08 20:04:43.061216+01 | 1486580683.06122 | pgbench_accounts |       4096401408
 2017-02-08 20:04:43.061216+01 | 1486580683.06122 | pgbench_tellers  |           139264
 2017-02-08 20:04:43.061216+01 | 1486580683.06122 | pgbench_history  |                0
 2017-02-08 20:04:43.061216+01 | 1486580683.06122 | pgbench_branches |            16384

 2017-02-08 20:04:44.127578+01 | 1486580684.12758 | pgbench_accounts |       4096401408
 2017-02-08 20:04:44.127578+01 | 1486580684.12758 | pgbench_tellers  |           139264
 2017-02-08 20:04:44.127578+01 | 1486580684.12758 | pgbench_history  |                0
 2017-02-08 20:04:44.127578+01 | 1486580684.12758 | pgbench_branches |            16384

 2017-02-08 20:04:45.191626+01 | 1486580685.19163 | pgbench_accounts |       4096401408
 2017-02-08 20:04:45.191626+01 | 1486580685.19163 | pgbench_tellers  |           139264
 2017-02-08 20:04:45.191626+01 | 1486580685.19163 | pgbench_history  |                0
 2017-02-08 20:04:45.191626+01 | 1486580685.19163 | pgbench_branches |            16384

 2017-02-08 20:04:46.278665+01 | 1486580686.27867 | pgbench_accounts |       4096401408
 2017-02-08 20:04:46.278665+01 | 1486580686.27867 | pgbench_tellers  |           139264
 2017-02-08 20:04:46.278665+01 | 1486580686.27867 | pgbench_history  |                0
 2017-02-08 20:04:46.278665+01 | 1486580686.27867 | pgbench_branches |            16384

 2017-02-08 20:04:47.340185+01 | 1486580687.34018 | pgbench_accounts |       4096401408
 2017-02-08 20:04:47.340185+01 | 1486580687.34018 | pgbench_tellers  |           139264
 2017-02-08 20:04:47.340185+01 | 1486580687.34018 | pgbench_history  |                0
 2017-02-08 20:04:47.340185+01 | 1486580687.34018 | pgbench_branches |            16384

 2017-02-08 20:04:48.408099+01 | 1486580688.4081 | pgbench_accounts |       4096401408
 2017-02-08 20:04:48.408099+01 | 1486580688.4081 | pgbench_tellers  |           139264
 2017-02-08 20:04:48.408099+01 | 1486580688.4081 | pgbench_history  |                0
 2017-02-08 20:04:48.408099+01 | 1486580688.4081 | pgbench_branches |            16384

 2017-02-08 20:04:49.465571+01 | 1486580689.46557 | pgbench_accounts |       4096401408
 2017-02-08 20:04:49.465571+01 | 1486580689.46557 | pgbench_tellers  |           139264
 2017-02-08 20:04:49.465571+01 | 1486580689.46557 | pgbench_history  |                0
 2017-02-08 20:04:49.465571+01 | 1486580689.46557 | pgbench_branches |            16384

 2017-02-08 20:04:50.532578+01 | 1486580690.53258 | pgbench_accounts |       4096401408
 2017-02-08 20:04:50.532578+01 | 1486580690.53258 | pgbench_tellers  |           139264
 2017-02-08 20:04:50.532578+01 | 1486580690.53258 | pgbench_history  |                0
 2017-02-08 20:04:50.532578+01 | 1486580690.53258 | pgbench_branches |            16384

 2017-02-08 20:04:51.600729+01 | 1486580691.60073 | pgbench_accounts |       4096401408
 2017-02-08 20:04:51.600729+01 | 1486580691.60073 | pgbench_tellers  |           139264
 2017-02-08 20:04:51.600729+01 | 1486580691.60073 | pgbench_history  |                0
 2017-02-08 20:04:51.600729+01 | 1486580691.60073 | pgbench_branches |            16384

 2017-02-08 20:04:52.673071+01 | 1486580692.67307 | pgbench_accounts |       4096401408
 2017-02-08 20:04:52.673071+01 | 1486580692.67307 | pgbench_tellers  |           139264
 2017-02-08 20:04:52.673071+01 | 1486580692.67307 | pgbench_history  |                0
 2017-02-08 20:04:52.673071+01 | 1486580692.67307 | pgbench_branches |            16384

 2017-02-08 20:04:53.743644+01 | 1486580693.74364 | pgbench_accounts |       4096401408
 2017-02-08 20:04:53.743644+01 | 1486580693.74364 | pgbench_tellers  |           139264
 2017-02-08 20:04:53.743644+01 | 1486580693.74364 | pgbench_history  |                0
 2017-02-08 20:04:53.743644+01 | 1486580693.74364 | pgbench_branches |            16384

 2017-02-08 20:04:54.807159+01 | 1486580694.80716 | pgbench_accounts |       4096401408
 2017-02-08 20:04:54.807159+01 | 1486580694.80716 | pgbench_tellers  |           139264
 2017-02-08 20:04:54.807159+01 | 1486580694.80716 | pgbench_history  |                0
 2017-02-08 20:04:54.807159+01 | 1486580694.80716 | pgbench_branches |            16384

 2017-02-08 20:04:55.879275+01 | 1486580695.87928 | pgbench_accounts |       4096401408
 2017-02-08 20:04:55.879275+01 | 1486580695.87928 | pgbench_tellers  |           139264
 2017-02-08 20:04:55.879275+01 | 1486580695.87928 | pgbench_history  |                0
 2017-02-08 20:04:55.879275+01 | 1486580695.87928 | pgbench_branches |            16384

 2017-02-08 20:04:56.962453+01 | 1486580696.96245 | pgbench_accounts |       4096401408
 2017-02-08 20:04:56.962453+01 | 1486580696.96245 | pgbench_tellers  |           139264
 2017-02-08 20:04:56.962453+01 | 1486580696.96245 | pgbench_history  |                0
 2017-02-08 20:04:56.962453+01 | 1486580696.96245 | pgbench_branches |            16384

 2017-02-08 20:04:58.025216+01 | 1486580698.02522 | pgbench_accounts |       4096401408
 2017-02-08 20:04:58.025216+01 | 1486580698.02522 | pgbench_tellers  |           139264
 2017-02-08 20:04:58.025216+01 | 1486580698.02522 | pgbench_history  |                0
 2017-02-08 20:04:58.025216+01 | 1486580698.02522 | pgbench_branches |            16384

 2017-02-08 20:04:59.10323+01 | 1486580699.10323 | pgbench_accounts |       4096401408
 2017-02-08 20:04:59.10323+01 | 1486580699.10323 | pgbench_tellers  |           139264
 2017-02-08 20:04:59.10323+01 | 1486580699.10323 | pgbench_history  |                0
 2017-02-08 20:04:59.10323+01 | 1486580699.10323 | pgbench_branches |            16384

 2017-02-08 20:05:00.186964+01 | 1486580700.18696 | pgbench_accounts |       4096401408
 2017-02-08 20:05:00.186964+01 | 1486580700.18696 | pgbench_tellers  |           139264
 2017-02-08 20:05:00.186964+01 | 1486580700.18696 | pgbench_history  |                0
 2017-02-08 20:05:00.186964+01 | 1486580700.18696 | pgbench_branches |            16384

 2017-02-08 20:05:01.256703+01 | 1486580701.2567 | pgbench_accounts |       4096401408
 2017-02-08 20:05:01.256703+01 | 1486580701.2567 | pgbench_tellers  |           139264
 2017-02-08 20:05:01.256703+01 | 1486580701.2567 | pgbench_history  |                0
 2017-02-08 20:05:01.256703+01 | 1486580701.2567 | pgbench_branches |            16384

 2017-02-08 20:05:02.325952+01 | 1486580702.32595 | pgbench_accounts |       4096401408
 2017-02-08 20:05:02.325952+01 | 1486580702.32595 | pgbench_tellers  |           139264
 2017-02-08 20:05:02.325952+01 | 1486580702.32595 | pgbench_history  |                0
 2017-02-08 20:05:02.325952+01 | 1486580702.32595 | pgbench_branches |            16384

 2017-02-08 20:05:03.397162+01 | 1486580703.39716 | pgbench_accounts |       4096401408
 2017-02-08 20:05:03.397162+01 | 1486580703.39716 | pgbench_tellers  |           139264
 2017-02-08 20:05:03.397162+01 | 1486580703.39716 | pgbench_history  |                0
 2017-02-08 20:05:03.397162+01 | 1486580703.39716 | pgbench_branches |            16384

 2017-02-08 20:05:04.459779+01 | 1486580704.45978 | pgbench_accounts |       4096401408
 2017-02-08 20:05:04.459779+01 | 1486580704.45978 | pgbench_tellers  |           139264
 2017-02-08 20:05:04.459779+01 | 1486580704.45978 | pgbench_history  |                0
 2017-02-08 20:05:04.459779+01 | 1486580704.45978 | pgbench_branches |            16384

 2017-02-08 20:05:05.538986+01 | 1486580705.53899 | pgbench_accounts |       4096401408
 2017-02-08 20:05:05.538986+01 | 1486580705.53899 | pgbench_tellers  |           139264
 2017-02-08 20:05:05.538986+01 | 1486580705.53899 | pgbench_history  |                0
 2017-02-08 20:05:05.538986+01 | 1486580705.53899 | pgbench_branches |            16384

 2017-02-08 20:05:06.596177+01 | 1486580706.59618 | pgbench_accounts |       4096401408
 2017-02-08 20:05:06.596177+01 | 1486580706.59618 | pgbench_tellers  |           139264
 2017-02-08 20:05:06.596177+01 | 1486580706.59618 | pgbench_history  |                0
 2017-02-08 20:05:06.596177+01 | 1486580706.59618 | pgbench_branches |            16384

 2017-02-08 20:05:07.671906+01 | 1486580707.67191 | pgbench_accounts |       4096401408
 2017-02-08 20:05:07.671906+01 | 1486580707.67191 | pgbench_tellers  |           139264
 2017-02-08 20:05:07.671906+01 | 1486580707.67191 | pgbench_history  |                0
 2017-02-08 20:05:07.671906+01 | 1486580707.67191 | pgbench_branches |            16384

 2017-02-08 20:05:08.75104+01 | 1486580708.75104 | pgbench_accounts |       4096401408
 2017-02-08 20:05:08.75104+01 | 1486580708.75104 | pgbench_tellers  |           139264
 2017-02-08 20:05:08.75104+01 | 1486580708.75104 | pgbench_history  |                0
 2017-02-08 20:05:08.75104+01 | 1486580708.75104 | pgbench_branches |            16384

 2017-02-08 20:05:09.829574+01 | 1486580709.82957 | pgbench_accounts |       4096401408
 2017-02-08 20:05:09.829574+01 | 1486580709.82957 | pgbench_tellers  |           139264
 2017-02-08 20:05:09.829574+01 | 1486580709.82957 | pgbench_history  |                0
 2017-02-08 20:05:09.829574+01 | 1486580709.82957 | pgbench_branches |            16384

 2017-02-08 20:05:10.891418+01 | 1486580710.89142 | pgbench_accounts |       4096401408
 2017-02-08 20:05:10.891418+01 | 1486580710.89142 | pgbench_tellers  |           139264
 2017-02-08 20:05:10.891418+01 | 1486580710.89142 | pgbench_history  |                0
 2017-02-08 20:05:10.891418+01 | 1486580710.89142 | pgbench_branches |            16384

 2017-02-08 20:05:11.960574+01 | 1486580711.96057 | pgbench_accounts |       4096401408
 2017-02-08 20:05:11.960574+01 | 1486580711.96057 | pgbench_tellers  |           139264
 2017-02-08 20:05:11.960574+01 | 1486580711.96057 | pgbench_history  |                0
 2017-02-08 20:05:11.960574+01 | 1486580711.96057 | pgbench_branches |            16384

 2017-02-08 20:05:13.024666+01 | 1486580713.02467 | pgbench_accounts |       4096401408
 2017-02-08 20:05:13.024666+01 | 1486580713.02467 | pgbench_tellers  |           139264
 2017-02-08 20:05:13.024666+01 | 1486580713.02467 | pgbench_history  |                0
 2017-02-08 20:05:13.024666+01 | 1486580713.02467 | pgbench_branches |            16384

 2017-02-08 20:05:14.095517+01 | 1486580714.09552 | pgbench_accounts |       4096401408
 2017-02-08 20:05:14.095517+01 | 1486580714.09552 | pgbench_tellers  |           139264
 2017-02-08 20:05:14.095517+01 | 1486580714.09552 | pgbench_history  |                0
 2017-02-08 20:05:14.095517+01 | 1486580714.09552 | pgbench_branches |            16384

 2017-02-08 20:05:15.157073+01 | 1486580715.15707 | pgbench_accounts |       4096401408
 2017-02-08 20:05:15.157073+01 | 1486580715.15707 | pgbench_tellers  |           139264
 2017-02-08 20:05:15.157073+01 | 1486580715.15707 | pgbench_history  |                0
 2017-02-08 20:05:15.157073+01 | 1486580715.15707 | pgbench_branches |            16384

 2017-02-08 20:05:16.22692+01 | 1486580716.22692 | pgbench_accounts |       4096401408
 2017-02-08 20:05:16.22692+01 | 1486580716.22692 | pgbench_tellers  |           139264
 2017-02-08 20:05:16.22692+01 | 1486580716.22692 | pgbench_history  |                0
 2017-02-08 20:05:16.22692+01 | 1486580716.22692 | pgbench_branches |            16384

 2017-02-08 20:05:17.305687+01 | 1486580717.30569 | pgbench_accounts |       4096401408
 2017-02-08 20:05:17.305687+01 | 1486580717.30569 | pgbench_tellers  |           139264
 2017-02-08 20:05:17.305687+01 | 1486580717.30569 | pgbench_history  |                0
 2017-02-08 20:05:17.305687+01 | 1486580717.30569 | pgbench_branches |            16384

 2017-02-08 20:05:18.370933+01 | 1486580718.37093 | pgbench_accounts |       4096401408
 2017-02-08 20:05:18.370933+01 | 1486580718.37093 | pgbench_tellers  |           139264
 2017-02-08 20:05:18.370933+01 | 1486580718.37093 | pgbench_history  |                0
 2017-02-08 20:05:18.370933+01 | 1486580718.37093 | pgbench_branches |            16384

 2017-02-08 20:05:19.455099+01 | 1486580719.4551 | pgbench_accounts |       4096401408
 2017-02-08 20:05:19.455099+01 | 1486580719.4551 | pgbench_tellers  |           139264
 2017-02-08 20:05:19.455099+01 | 1486580719.4551 | pgbench_history  |                0
 2017-02-08 20:05:19.455099+01 | 1486580719.4551 | pgbench_branches |            16384

 2017-02-08 20:05:20.537023+01 | 1486580720.53702 | pgbench_accounts |       4096401408
 2017-02-08 20:05:20.537023+01 | 1486580720.53702 | pgbench_tellers  |           139264
 2017-02-08 20:05:20.537023+01 | 1486580720.53702 | pgbench_history  |                0
 2017-02-08 20:05:20.537023+01 | 1486580720.53702 | pgbench_branches |            16384

 2017-02-08 20:05:21.606539+01 | 1486580721.60654 | pgbench_accounts |       4096401408
 2017-02-08 20:05:21.606539+01 | 1486580721.60654 | pgbench_tellers  |           139264
 2017-02-08 20:05:21.606539+01 | 1486580721.60654 | pgbench_history  |                0
 2017-02-08 20:05:21.606539+01 | 1486580721.60654 | pgbench_branches |            16384

 2017-02-08 20:05:22.693102+01 | 1486580722.6931 | pgbench_accounts |       4096401408
 2017-02-08 20:05:22.693102+01 | 1486580722.6931 | pgbench_tellers  |           139264
 2017-02-08 20:05:22.693102+01 | 1486580722.6931 | pgbench_history  |                0
 2017-02-08 20:05:22.693102+01 | 1486580722.6931 | pgbench_branches |            16384

 2017-02-08 20:05:23.761696+01 | 1486580723.7617 | pgbench_accounts |       4096401408
 2017-02-08 20:05:23.761696+01 | 1486580723.7617 | pgbench_tellers  |           139264
 2017-02-08 20:05:23.761696+01 | 1486580723.7617 | pgbench_history  |                0
 2017-02-08 20:05:23.761696+01 | 1486580723.7617 | pgbench_branches |            16384

 2017-02-08 20:05:24.844355+01 | 1486580724.84436 | pgbench_accounts |       4096401408
 2017-02-08 20:05:24.844355+01 | 1486580724.84436 | pgbench_tellers  |           139264
 2017-02-08 20:05:24.844355+01 | 1486580724.84436 | pgbench_history  |                0
 2017-02-08 20:05:24.844355+01 | 1486580724.84436 | pgbench_branches |            16384

 2017-02-08 20:05:25.926876+01 | 1486580725.92688 | pgbench_accounts |       4096401408
 2017-02-08 20:05:25.926876+01 | 1486580725.92688 | pgbench_tellers  |           139264
 2017-02-08 20:05:25.926876+01 | 1486580725.92688 | pgbench_history  |                0
 2017-02-08 20:05:25.926876+01 | 1486580725.92688 | pgbench_branches |            16384

 2017-02-08 20:05:27.002698+01 | 1486580727.0027 | pgbench_accounts |       4096401408
 2017-02-08 20:05:27.002698+01 | 1486580727.0027 | pgbench_tellers  |           139264
 2017-02-08 20:05:27.002698+01 | 1486580727.0027 | pgbench_history  |                0
 2017-02-08 20:05:27.002698+01 | 1486580727.0027 | pgbench_branches |            16384

 2017-02-08 20:05:28.074137+01 | 1486580728.07414 | pgbench_accounts |       4096401408
 2017-02-08 20:05:28.074137+01 | 1486580728.07414 | pgbench_tellers  |           139264
 2017-02-08 20:05:28.074137+01 | 1486580728.07414 | pgbench_history  |                0
 2017-02-08 20:05:28.074137+01 | 1486580728.07414 | pgbench_branches |            16384

 2017-02-08 20:05:29.148419+01 | 1486580729.14842 | pgbench_accounts |       4096401408
 2017-02-08 20:05:29.148419+01 | 1486580729.14842 | pgbench_tellers  |           139264
 2017-02-08 20:05:29.148419+01 | 1486580729.14842 | pgbench_history  |                0
 2017-02-08 20:05:29.148419+01 | 1486580729.14842 | pgbench_branches |            16384

 2017-02-08 20:05:30.214586+01 | 1486580730.21459 | pgbench_accounts |       4096401408
 2017-02-08 20:05:30.214586+01 | 1486580730.21459 | pgbench_tellers  |           139264
 2017-02-08 20:05:30.214586+01 | 1486580730.21459 | pgbench_history  |                0
 2017-02-08 20:05:30.214586+01 | 1486580730.21459 | pgbench_branches |            16384

 2017-02-08 20:05:31.284478+01 | 1486580731.28448 | pgbench_accounts |       4096401408
 2017-02-08 20:05:31.284478+01 | 1486580731.28448 | pgbench_tellers  |           139264
 2017-02-08 20:05:31.284478+01 | 1486580731.28448 | pgbench_history  |                0
 2017-02-08 20:05:31.284478+01 | 1486580731.28448 | pgbench_branches |            16384

 2017-02-08 20:05:32.35103+01 | 1486580732.35103 | pgbench_accounts |       4096401408
 2017-02-08 20:05:32.35103+01 | 1486580732.35103 | pgbench_tellers  |           139264
 2017-02-08 20:05:32.35103+01 | 1486580732.35103 | pgbench_history  |                0
 2017-02-08 20:05:32.35103+01 | 1486580732.35103 | pgbench_branches |            16384

 2017-02-08 20:05:33.427454+01 | 1486580733.42745 | pgbench_accounts |       4096401408
 2017-02-08 20:05:33.427454+01 | 1486580733.42745 | pgbench_tellers  |           139264
 2017-02-08 20:05:33.427454+01 | 1486580733.42745 | pgbench_history  |                0
 2017-02-08 20:05:33.427454+01 | 1486580733.42745 | pgbench_branches |            16384

 2017-02-08 20:05:34.503064+01 | 1486580734.50306 | pgbench_accounts |       4096401408
 2017-02-08 20:05:34.503064+01 | 1486580734.50306 | pgbench_tellers  |           139264
 2017-02-08 20:05:34.503064+01 | 1486580734.50306 | pgbench_history  |                0
 2017-02-08 20:05:34.503064+01 | 1486580734.50306 | pgbench_branches |            16384

 2017-02-08 20:05:35.577805+01 | 1486580735.57781 | pgbench_accounts |       4096401408
 2017-02-08 20:05:35.577805+01 | 1486580735.57781 | pgbench_tellers  |           139264
 2017-02-08 20:05:35.577805+01 | 1486580735.57781 | pgbench_history  |                0
 2017-02-08 20:05:35.577805+01 | 1486580735.57781 | pgbench_branches |            16384

 2017-02-08 20:05:36.648265+01 | 1486580736.64826 | pgbench_accounts |       4096401408
 2017-02-08 20:05:36.648265+01 | 1486580736.64826 | pgbench_tellers  |           139264
 2017-02-08 20:05:36.648265+01 | 1486580736.64826 | pgbench_history  |                0
 2017-02-08 20:05:36.648265+01 | 1486580736.64826 | pgbench_branches |            16384

 2017-02-08 20:05:37.718751+01 | 1486580737.71875 | pgbench_accounts |       4096401408
 2017-02-08 20:05:37.718751+01 | 1486580737.71875 | pgbench_tellers  |           139264
 2017-02-08 20:05:37.718751+01 | 1486580737.71875 | pgbench_history  |                0
 2017-02-08 20:05:37.718751+01 | 1486580737.71875 | pgbench_branches |            16384

 2017-02-08 20:05:38.800102+01 | 1486580738.8001 | pgbench_accounts |       4096401408
 2017-02-08 20:05:38.800102+01 | 1486580738.8001 | pgbench_tellers  |           139264
 2017-02-08 20:05:38.800102+01 | 1486580738.8001 | pgbench_history  |                0
 2017-02-08 20:05:38.800102+01 | 1486580738.8001 | pgbench_branches |            16384

 2017-02-08 20:05:39.86645+01 | 1486580739.86645 | pgbench_accounts |       4096401408
 2017-02-08 20:05:39.86645+01 | 1486580739.86645 | pgbench_tellers  |           139264
 2017-02-08 20:05:39.86645+01 | 1486580739.86645 | pgbench_history  |                0
 2017-02-08 20:05:39.86645+01 | 1486580739.86645 | pgbench_branches |            16384

 2017-02-08 20:05:40.943969+01 | 1486580740.94397 | pgbench_accounts |       4096401408
 2017-02-08 20:05:40.943969+01 | 1486580740.94397 | pgbench_tellers  |           139264
 2017-02-08 20:05:40.943969+01 | 1486580740.94397 | pgbench_history  |                0
 2017-02-08 20:05:40.943969+01 | 1486580740.94397 | pgbench_branches |            16384

 2017-02-08 20:05:42.020635+01 | 1486580742.02063 | pgbench_accounts |       4096401408
 2017-02-08 20:05:42.020635+01 | 1486580742.02063 | pgbench_tellers  |           139264
 2017-02-08 20:05:42.020635+01 | 1486580742.02063 | pgbench_history  |                0
 2017-02-08 20:05:42.020635+01 | 1486580742.02063 | pgbench_branches |            16384

 2017-02-08 20:05:43.102362+01 | 1486580743.10236 | pgbench_accounts |       4096401408
 2017-02-08 20:05:43.102362+01 | 1486580743.10236 | pgbench_tellers  |           139264
 2017-02-08 20:05:43.102362+01 | 1486580743.10236 | pgbench_history  |                0
 2017-02-08 20:05:43.102362+01 | 1486580743.10236 | pgbench_branches |            16384

 2017-02-08 20:05:44.175266+01 | 1486580744.17527 | pgbench_accounts |       4096401408
 2017-02-08 20:05:44.175266+01 | 1486580744.17527 | pgbench_tellers  |           139264
 2017-02-08 20:05:44.175266+01 | 1486580744.17527 | pgbench_history  |                0
 2017-02-08 20:05:44.175266+01 | 1486580744.17527 | pgbench_branches |            16384

 2017-02-08 20:05:45.263868+01 | 1486580745.26387 | pgbench_accounts |       4096401408
 2017-02-08 20:05:45.263868+01 | 1486580745.26387 | pgbench_tellers  |           139264
 2017-02-08 20:05:45.263868+01 | 1486580745.26387 | pgbench_history  |                0
 2017-02-08 20:05:45.263868+01 | 1486580745.26387 | pgbench_branches |            16384

 2017-02-08 20:05:46.329984+01 | 1486580746.32998 | pgbench_accounts |       4096401408
 2017-02-08 20:05:46.329984+01 | 1486580746.32998 | pgbench_tellers  |           139264
 2017-02-08 20:05:46.329984+01 | 1486580746.32998 | pgbench_history  |                0
 2017-02-08 20:05:46.329984+01 | 1486580746.32998 | pgbench_branches |            16384

 2017-02-08 20:05:47.395698+01 | 1486580747.3957 | pgbench_accounts |       4096401408
 2017-02-08 20:05:47.395698+01 | 1486580747.3957 | pgbench_tellers  |           139264
 2017-02-08 20:05:47.395698+01 | 1486580747.3957 | pgbench_history  |                0
 2017-02-08 20:05:47.395698+01 | 1486580747.3957 | pgbench_branches |            16384

 2017-02-08 20:05:48.475656+01 | 1486580748.47566 | pgbench_accounts |       4096401408
 2017-02-08 20:05:48.475656+01 | 1486580748.47566 | pgbench_tellers  |           139264
 2017-02-08 20:05:48.475656+01 | 1486580748.47566 | pgbench_history  |                0
 2017-02-08 20:05:48.475656+01 | 1486580748.47566 | pgbench_branches |            16384

 2017-02-08 20:05:49.541964+01 | 1486580749.54196 | pgbench_accounts |       4096401408
 2017-02-08 20:05:49.541964+01 | 1486580749.54196 | pgbench_tellers  |           139264
 2017-02-08 20:05:49.541964+01 | 1486580749.54196 | pgbench_history  |                0
 2017-02-08 20:05:49.541964+01 | 1486580749.54196 | pgbench_branches |            16384

 2017-02-08 20:05:50.613866+01 | 1486580750.61387 | pgbench_accounts |       4096401408
 2017-02-08 20:05:50.613866+01 | 1486580750.61387 | pgbench_tellers  |           139264
 2017-02-08 20:05:50.613866+01 | 1486580750.61387 | pgbench_history  |                0
 2017-02-08 20:05:50.613866+01 | 1486580750.61387 | pgbench_branches |            16384

 2017-02-08 20:05:51.699944+01 | 1486580751.69994 | pgbench_accounts |       4096401408
 2017-02-08 20:05:51.699944+01 | 1486580751.69994 | pgbench_tellers  |           139264
 2017-02-08 20:05:51.699944+01 | 1486580751.69994 | pgbench_history  |                0
 2017-02-08 20:05:51.699944+01 | 1486580751.69994 | pgbench_branches |            16384

 2017-02-08 20:05:52.774337+01 | 1486580752.77434 | pgbench_accounts |       4096401408
 2017-02-08 20:05:52.774337+01 | 1486580752.77434 | pgbench_tellers  |           139264
 2017-02-08 20:05:52.774337+01 | 1486580752.77434 | pgbench_history  |                0
 2017-02-08 20:05:52.774337+01 | 1486580752.77434 | pgbench_branches |            16384

 2017-02-08 20:05:53.839046+01 | 1486580753.83905 | pgbench_accounts |       4096401408
 2017-02-08 20:05:53.839046+01 | 1486580753.83905 | pgbench_tellers  |           139264
 2017-02-08 20:05:53.839046+01 | 1486580753.83905 | pgbench_history  |                0
 2017-02-08 20:05:53.839046+01 | 1486580753.83905 | pgbench_branches |            16384

 2017-02-08 20:05:54.9022+01 | 1486580754.9022 | pgbench_accounts |       4096401408
 2017-02-08 20:05:54.9022+01 | 1486580754.9022 | pgbench_tellers  |           139264
 2017-02-08 20:05:54.9022+01 | 1486580754.9022 | pgbench_history  |                0
 2017-02-08 20:05:54.9022+01 | 1486580754.9022 | pgbench_branches |            16384

 2017-02-08 20:05:55.972825+01 | 1486580755.97283 | pgbench_accounts |       4096401408
 2017-02-08 20:05:55.972825+01 | 1486580755.97283 | pgbench_tellers  |           139264
 2017-02-08 20:05:55.972825+01 | 1486580755.97283 | pgbench_history  |                0
 2017-02-08 20:05:55.972825+01 | 1486580755.97283 | pgbench_branches |            16384

 2017-02-08 20:05:57.040389+01 | 1486580757.04039 | pgbench_accounts |       4096401408
 2017-02-08 20:05:57.040389+01 | 1486580757.04039 | pgbench_tellers  |           139264
 2017-02-08 20:05:57.040389+01 | 1486580757.04039 | pgbench_history  |                0
 2017-02-08 20:05:57.040389+01 | 1486580757.04039 | pgbench_branches |            16384

 2017-02-08 20:05:58.111401+01 | 1486580758.1114 | pgbench_accounts |       4096401408
 2017-02-08 20:05:58.111401+01 | 1486580758.1114 | pgbench_tellers  |           139264
 2017-02-08 20:05:58.111401+01 | 1486580758.1114 | pgbench_history  |                0
 2017-02-08 20:05:58.111401+01 | 1486580758.1114 | pgbench_branches |            16384

 2017-02-08 20:05:59.181312+01 | 1486580759.18131 | pgbench_accounts |       4096401408
 2017-02-08 20:05:59.181312+01 | 1486580759.18131 | pgbench_tellers  |           139264
 2017-02-08 20:05:59.181312+01 | 1486580759.18131 | pgbench_history  |                0
 2017-02-08 20:05:59.181312+01 | 1486580759.18131 | pgbench_branches |            16384

 2017-02-08 20:06:00.281483+01 | 1486580760.28148 | pgbench_accounts |       4096401408
 2017-02-08 20:06:00.281483+01 | 1486580760.28148 | pgbench_tellers  |           139264
 2017-02-08 20:06:00.281483+01 | 1486580760.28148 | pgbench_history  |                0
 2017-02-08 20:06:00.281483+01 | 1486580760.28148 | pgbench_branches |            16384

 2017-02-08 20:06:01.352668+01 | 1486580761.35267 | pgbench_accounts |       4096401408
 2017-02-08 20:06:01.352668+01 | 1486580761.35267 | pgbench_tellers  |           139264
 2017-02-08 20:06:01.352668+01 | 1486580761.35267 | pgbench_history  |                0
 2017-02-08 20:06:01.352668+01 | 1486580761.35267 | pgbench_branches |            16384

 2017-02-08 20:06:02.415844+01 | 1486580762.41584 | pgbench_accounts |       4096401408
 2017-02-08 20:06:02.415844+01 | 1486580762.41584 | pgbench_tellers  |           139264
 2017-02-08 20:06:02.415844+01 | 1486580762.41584 | pgbench_history  |                0
 2017-02-08 20:06:02.415844+01 | 1486580762.41584 | pgbench_branches |            16384

 2017-02-08 20:06:03.48305+01 | 1486580763.48305 | pgbench_accounts |       4096401408
 2017-02-08 20:06:03.48305+01 | 1486580763.48305 | pgbench_tellers  |           139264
 2017-02-08 20:06:03.48305+01 | 1486580763.48305 | pgbench_history  |                0
 2017-02-08 20:06:03.48305+01 | 1486580763.48305 | pgbench_branches |            16384

 2017-02-08 20:06:04.54305+01 | 1486580764.54305 | pgbench_accounts |       4096401408
 2017-02-08 20:06:04.54305+01 | 1486580764.54305 | pgbench_tellers  |           139264
 2017-02-08 20:06:04.54305+01 | 1486580764.54305 | pgbench_history  |                0
 2017-02-08 20:06:04.54305+01 | 1486580764.54305 | pgbench_branches |            16384

 2017-02-08 20:06:05.609745+01 | 1486580765.60975 | pgbench_accounts |       4096401408
 2017-02-08 20:06:05.609745+01 | 1486580765.60975 | pgbench_tellers  |           139264
 2017-02-08 20:06:05.609745+01 | 1486580765.60975 | pgbench_history  |                0
 2017-02-08 20:06:05.609745+01 | 1486580765.60975 | pgbench_branches |            16384

 2017-02-08 20:06:06.695741+01 | 1486580766.69574 | pgbench_accounts |       4096401408
 2017-02-08 20:06:06.695741+01 | 1486580766.69574 | pgbench_tellers  |           139264
 2017-02-08 20:06:06.695741+01 | 1486580766.69574 | pgbench_history  |                0
 2017-02-08 20:06:06.695741+01 | 1486580766.69574 | pgbench_branches |            16384

 2017-02-08 20:06:07.765196+01 | 1486580767.7652 | pgbench_accounts |       4096401408
 2017-02-08 20:06:07.765196+01 | 1486580767.7652 | pgbench_tellers  |           139264
 2017-02-08 20:06:07.765196+01 | 1486580767.7652 | pgbench_history  |                0
 2017-02-08 20:06:07.765196+01 | 1486580767.7652 | pgbench_branches |            16384

 2017-02-08 20:06:08.821841+01 | 1486580768.82184 | pgbench_accounts |       4096401408
 2017-02-08 20:06:08.821841+01 | 1486580768.82184 | pgbench_tellers  |           139264
 2017-02-08 20:06:08.821841+01 | 1486580768.82184 | pgbench_history  |                0
 2017-02-08 20:06:08.821841+01 | 1486580768.82184 | pgbench_branches |            16384

 2017-02-08 20:06:09.903917+01 | 1486580769.90392 | pgbench_accounts |       4096401408
 2017-02-08 20:06:09.903917+01 | 1486580769.90392 | pgbench_tellers  |           139264
 2017-02-08 20:06:09.903917+01 | 1486580769.90392 | pgbench_history  |                0
 2017-02-08 20:06:09.903917+01 | 1486580769.90392 | pgbench_branches |            16384

 2017-02-08 20:06:10.968402+01 | 1486580770.9684 | pgbench_accounts |       4096401408
 2017-02-08 20:06:10.968402+01 | 1486580770.9684 | pgbench_tellers  |           139264
 2017-02-08 20:06:10.968402+01 | 1486580770.9684 | pgbench_history  |                0
 2017-02-08 20:06:10.968402+01 | 1486580770.9684 | pgbench_branches |            16384

 2017-02-08 20:06:12.033206+01 | 1486580772.03321 | pgbench_accounts |       4096401408
 2017-02-08 20:06:12.033206+01 | 1486580772.03321 | pgbench_tellers  |           139264
 2017-02-08 20:06:12.033206+01 | 1486580772.03321 | pgbench_history  |                0
 2017-02-08 20:06:12.033206+01 | 1486580772.03321 | pgbench_branches |            16384

 2017-02-08 20:06:13.091903+01 | 1486580773.0919 | pgbench_accounts |       4096401408
 2017-02-08 20:06:13.091903+01 | 1486580773.0919 | pgbench_tellers  |           139264
 2017-02-08 20:06:13.091903+01 | 1486580773.0919 | pgbench_history  |                0
 2017-02-08 20:06:13.091903+01 | 1486580773.0919 | pgbench_branches |            16384

 2017-02-08 20:06:14.169992+01 | 1486580774.16999 | pgbench_accounts |       4096401408
 2017-02-08 20:06:14.169992+01 | 1486580774.16999 | pgbench_tellers  |           139264
 2017-02-08 20:06:14.169992+01 | 1486580774.16999 | pgbench_history  |                0
 2017-02-08 20:06:14.169992+01 | 1486580774.16999 | pgbench_branches |            16384

 2017-02-08 20:06:15.238661+01 | 1486580775.23866 | pgbench_accounts |       4096401408
 2017-02-08 20:06:15.238661+01 | 1486580775.23866 | pgbench_tellers  |           139264
 2017-02-08 20:06:15.238661+01 | 1486580775.23866 | pgbench_history  |                0
 2017-02-08 20:06:15.238661+01 | 1486580775.23866 | pgbench_branches |            16384

 2017-02-08 20:06:16.306429+01 | 1486580776.30643 | pgbench_accounts |       4096401408
 2017-02-08 20:06:16.306429+01 | 1486580776.30643 | pgbench_tellers  |           139264
 2017-02-08 20:06:16.306429+01 | 1486580776.30643 | pgbench_history  |                0
 2017-02-08 20:06:16.306429+01 | 1486580776.30643 | pgbench_branches |            16384

 2017-02-08 20:06:17.397943+01 | 1486580777.39794 | pgbench_accounts |       4096401408
 2017-02-08 20:06:17.397943+01 | 1486580777.39794 | pgbench_tellers  |           139264
 2017-02-08 20:06:17.397943+01 | 1486580777.39794 | pgbench_history  |                0
 2017-02-08 20:06:17.397943+01 | 1486580777.39794 | pgbench_branches |            16384

 2017-02-08 20:06:18.485904+01 | 1486580778.4859 | pgbench_accounts |       4096401408
 2017-02-08 20:06:18.485904+01 | 1486580778.4859 | pgbench_tellers  |           139264
 2017-02-08 20:06:18.485904+01 | 1486580778.4859 | pgbench_history  |                0
 2017-02-08 20:06:18.485904+01 | 1486580778.4859 | pgbench_branches |            16384

 2017-02-08 20:06:19.554589+01 | 1486580779.55459 | pgbench_accounts |       4096401408
 2017-02-08 20:06:19.554589+01 | 1486580779.55459 | pgbench_tellers  |           139264
 2017-02-08 20:06:19.554589+01 | 1486580779.55459 | pgbench_history  |                0
 2017-02-08 20:06:19.554589+01 | 1486580779.55459 | pgbench_branches |            16384

 2017-02-08 20:06:20.616544+01 | 1486580780.61654 | pgbench_accounts |       4096401408
 2017-02-08 20:06:20.616544+01 | 1486580780.61654 | pgbench_tellers  |           139264
 2017-02-08 20:06:20.616544+01 | 1486580780.61654 | pgbench_history  |                0
 2017-02-08 20:06:20.616544+01 | 1486580780.61654 | pgbench_branches |            16384

 2017-02-08 20:06:21.683483+01 | 1486580781.68348 | pgbench_accounts |       4096401408
 2017-02-08 20:06:21.683483+01 | 1486580781.68348 | pgbench_tellers  |           139264
 2017-02-08 20:06:21.683483+01 | 1486580781.68348 | pgbench_history  |                0
 2017-02-08 20:06:21.683483+01 | 1486580781.68348 | pgbench_branches |            16384

 2017-02-08 20:06:22.753684+01 | 1486580782.75368 | pgbench_accounts |       4096401408
 2017-02-08 20:06:22.753684+01 | 1486580782.75368 | pgbench_tellers  |           139264
 2017-02-08 20:06:22.753684+01 | 1486580782.75368 | pgbench_history  |                0
 2017-02-08 20:06:22.753684+01 | 1486580782.75368 | pgbench_branches |            16384

 2017-02-08 20:06:23.820872+01 | 1486580783.82087 | pgbench_accounts |       4096401408
 2017-02-08 20:06:23.820872+01 | 1486580783.82087 | pgbench_tellers  |           139264
 2017-02-08 20:06:23.820872+01 | 1486580783.82087 | pgbench_history  |                0
 2017-02-08 20:06:23.820872+01 | 1486580783.82087 | pgbench_branches |            16384

 2017-02-08 20:06:24.902491+01 | 1486580784.90249 | pgbench_accounts |       4096401408
 2017-02-08 20:06:24.902491+01 | 1486580784.90249 | pgbench_tellers  |           139264
 2017-02-08 20:06:24.902491+01 | 1486580784.90249 | pgbench_history  |                0
 2017-02-08 20:06:24.902491+01 | 1486580784.90249 | pgbench_branches |            16384

 2017-02-08 20:06:25.969105+01 | 1486580785.96911 | pgbench_accounts |       4096401408
 2017-02-08 20:06:25.969105+01 | 1486580785.96911 | pgbench_tellers  |           139264
 2017-02-08 20:06:25.969105+01 | 1486580785.96911 | pgbench_history  |                0
 2017-02-08 20:06:25.969105+01 | 1486580785.96911 | pgbench_branches |            16384

 2017-02-08 20:06:27.041009+01 | 1486580787.04101 | pgbench_accounts |       4096401408
 2017-02-08 20:06:27.041009+01 | 1486580787.04101 | pgbench_tellers  |           139264
 2017-02-08 20:06:27.041009+01 | 1486580787.04101 | pgbench_history  |                0
 2017-02-08 20:06:27.041009+01 | 1486580787.04101 | pgbench_branches |            16384

 2017-02-08 20:06:28.116091+01 | 1486580788.11609 | pgbench_accounts |       4096401408
 2017-02-08 20:06:28.116091+01 | 1486580788.11609 | pgbench_tellers  |           139264
 2017-02-08 20:06:28.116091+01 | 1486580788.11609 | pgbench_history  |                0
 2017-02-08 20:06:28.116091+01 | 1486580788.11609 | pgbench_branches |            16384

 2017-02-08 20:06:29.194546+01 | 1486580789.19455 | pgbench_accounts |       4096401408
 2017-02-08 20:06:29.194546+01 | 1486580789.19455 | pgbench_tellers  |           139264
 2017-02-08 20:06:29.194546+01 | 1486580789.19455 | pgbench_history  |                0
 2017-02-08 20:06:29.194546+01 | 1486580789.19455 | pgbench_branches |            16384

 2017-02-08 20:06:30.253188+01 | 1486580790.25319 | pgbench_accounts |       4096401408
 2017-02-08 20:06:30.253188+01 | 1486580790.25319 | pgbench_tellers  |           139264
 2017-02-08 20:06:30.253188+01 | 1486580790.25319 | pgbench_history  |                0
 2017-02-08 20:06:30.253188+01 | 1486580790.25319 | pgbench_branches |            16384

 2017-02-08 20:06:31.330446+01 | 1486580791.33045 | pgbench_accounts |       4096401408
 2017-02-08 20:06:31.330446+01 | 1486580791.33045 | pgbench_tellers  |           139264
 2017-02-08 20:06:31.330446+01 | 1486580791.33045 | pgbench_history  |                0
 2017-02-08 20:06:31.330446+01 | 1486580791.33045 | pgbench_branches |            16384

 2017-02-08 20:06:32.415062+01 | 1486580792.41506 | pgbench_accounts |       4096401408
 2017-02-08 20:06:32.415062+01 | 1486580792.41506 | pgbench_tellers  |           139264
 2017-02-08 20:06:32.415062+01 | 1486580792.41506 | pgbench_history  |                0
 2017-02-08 20:06:32.415062+01 | 1486580792.41506 | pgbench_branches |            16384

 2017-02-08 20:06:33.501749+01 | 1486580793.50175 | pgbench_accounts |       4096401408
 2017-02-08 20:06:33.501749+01 | 1486580793.50175 | pgbench_tellers  |           139264
 2017-02-08 20:06:33.501749+01 | 1486580793.50175 | pgbench_history  |                0
 2017-02-08 20:06:33.501749+01 | 1486580793.50175 | pgbench_branches |            16384

 2017-02-08 20:06:34.580191+01 | 1486580794.58019 | pgbench_accounts |       4096401408
 2017-02-08 20:06:34.580191+01 | 1486580794.58019 | pgbench_tellers  |           139264
 2017-02-08 20:06:34.580191+01 | 1486580794.58019 | pgbench_history  |                0
 2017-02-08 20:06:34.580191+01 | 1486580794.58019 | pgbench_branches |            16384

 2017-02-08 20:06:35.642567+01 | 1486580795.64257 | pgbench_accounts |       4096401408
 2017-02-08 20:06:35.642567+01 | 1486580795.64257 | pgbench_tellers  |           139264
 2017-02-08 20:06:35.642567+01 | 1486580795.64257 | pgbench_history  |                0
 2017-02-08 20:06:35.642567+01 | 1486580795.64257 | pgbench_branches |            16384

 2017-02-08 20:06:36.718533+01 | 1486580796.71853 | pgbench_accounts |       4096401408
 2017-02-08 20:06:36.718533+01 | 1486580796.71853 | pgbench_tellers  |           139264
 2017-02-08 20:06:36.718533+01 | 1486580796.71853 | pgbench_history  |                0
 2017-02-08 20:06:36.718533+01 | 1486580796.71853 | pgbench_branches |            16384

 2017-02-08 20:06:37.775648+01 | 1486580797.77565 | pgbench_accounts |       4096401408
 2017-02-08 20:06:37.775648+01 | 1486580797.77565 | pgbench_tellers  |           139264
 2017-02-08 20:06:37.775648+01 | 1486580797.77565 | pgbench_history  |                0
 2017-02-08 20:06:37.775648+01 | 1486580797.77565 | pgbench_branches |            16384

 2017-02-08 20:06:38.849169+01 | 1486580798.84917 | pgbench_accounts |       4096401408
 2017-02-08 20:06:38.849169+01 | 1486580798.84917 | pgbench_tellers  |           139264
 2017-02-08 20:06:38.849169+01 | 1486580798.84917 | pgbench_history  |                0
 2017-02-08 20:06:38.849169+01 | 1486580798.84917 | pgbench_branches |            16384

 2017-02-08 20:06:39.918488+01 | 1486580799.91849 | pgbench_accounts |       4096401408
 2017-02-08 20:06:39.918488+01 | 1486580799.91849 | pgbench_tellers  |           139264
 2017-02-08 20:06:39.918488+01 | 1486580799.91849 | pgbench_history  |                0
 2017-02-08 20:06:39.918488+01 | 1486580799.91849 | pgbench_branches |            16384

 2017-02-08 20:06:40.996583+01 | 1486580800.99658 | pgbench_accounts |       4096401408
 2017-02-08 20:06:40.996583+01 | 1486580800.99658 | pgbench_tellers  |           139264
 2017-02-08 20:06:40.996583+01 | 1486580800.99658 | pgbench_history  |                0
 2017-02-08 20:06:40.996583+01 | 1486580800.99658 | pgbench_branches |            16384

 2017-02-08 20:06:42.082786+01 | 1486580802.08279 | pgbench_accounts |       4096401408
 2017-02-08 20:06:42.082786+01 | 1486580802.08279 | pgbench_tellers  |           139264
 2017-02-08 20:06:42.082786+01 | 1486580802.08279 | pgbench_history  |                0
 2017-02-08 20:06:42.082786+01 | 1486580802.08279 | pgbench_branches |            16384

 2017-02-08 20:06:43.157665+01 | 1486580803.15767 | pgbench_accounts |       4096401408
 2017-02-08 20:06:43.157665+01 | 1486580803.15767 | pgbench_tellers  |           139264
 2017-02-08 20:06:43.157665+01 | 1486580803.15767 | pgbench_history  |                0
 2017-02-08 20:06:43.157665+01 | 1486580803.15767 | pgbench_branches |            16384

 2017-02-08 20:06:44.232964+01 | 1486580804.23296 | pgbench_accounts |       4096401408
 2017-02-08 20:06:44.232964+01 | 1486580804.23296 | pgbench_tellers  |           139264
 2017-02-08 20:06:44.232964+01 | 1486580804.23296 | pgbench_history  |                0
 2017-02-08 20:06:44.232964+01 | 1486580804.23296 | pgbench_branches |            16384

 2017-02-08 20:06:45.32991+01 | 1486580805.32991 | pgbench_accounts |       4096401408
 2017-02-08 20:06:45.32991+01 | 1486580805.32991 | pgbench_tellers  |           139264
 2017-02-08 20:06:45.32991+01 | 1486580805.32991 | pgbench_history  |                0
 2017-02-08 20:06:45.32991+01 | 1486580805.32991 | pgbench_branches |            16384

 2017-02-08 20:06:46.400098+01 | 1486580806.4001 | pgbench_accounts |       4096401408
 2017-02-08 20:06:46.400098+01 | 1486580806.4001 | pgbench_tellers  |           139264
 2017-02-08 20:06:46.400098+01 | 1486580806.4001 | pgbench_history  |                0
 2017-02-08 20:06:46.400098+01 | 1486580806.4001 | pgbench_branches |            16384

 2017-02-08 20:06:47.463162+01 | 1486580807.46316 | pgbench_accounts |       4096401408
 2017-02-08 20:06:47.463162+01 | 1486580807.46316 | pgbench_tellers  |           139264
 2017-02-08 20:06:47.463162+01 | 1486580807.46316 | pgbench_history  |                0
 2017-02-08 20:06:47.463162+01 | 1486580807.46316 | pgbench_branches |            16384

 2017-02-08 20:06:48.535621+01 | 1486580808.53562 | pgbench_accounts |       4096401408
 2017-02-08 20:06:48.535621+01 | 1486580808.53562 | pgbench_tellers  |           139264
 2017-02-08 20:06:48.535621+01 | 1486580808.53562 | pgbench_history  |                0
 2017-02-08 20:06:48.535621+01 | 1486580808.53562 | pgbench_branches |            16384

 2017-02-08 20:06:49.608121+01 | 1486580809.60812 | pgbench_accounts |       4096401408
 2017-02-08 20:06:49.608121+01 | 1486580809.60812 | pgbench_tellers  |           139264
 2017-02-08 20:06:49.608121+01 | 1486580809.60812 | pgbench_history  |                0
 2017-02-08 20:06:49.608121+01 | 1486580809.60812 | pgbench_branches |            16384

 2017-02-08 20:06:50.685104+01 | 1486580810.6851 | pgbench_accounts |       4096401408
 2017-02-08 20:06:50.685104+01 | 1486580810.6851 | pgbench_tellers  |           139264
 2017-02-08 20:06:50.685104+01 | 1486580810.6851 | pgbench_history  |                0
 2017-02-08 20:06:50.685104+01 | 1486580810.6851 | pgbench_branches |            16384

 2017-02-08 20:06:51.760797+01 | 1486580811.7608 | pgbench_accounts |       4096401408
 2017-02-08 20:06:51.760797+01 | 1486580811.7608 | pgbench_tellers  |           139264
 2017-02-08 20:06:51.760797+01 | 1486580811.7608 | pgbench_history  |                0
 2017-02-08 20:06:51.760797+01 | 1486580811.7608 | pgbench_branches |            16384

 2017-02-08 20:06:52.830421+01 | 1486580812.83042 | pgbench_accounts |       4096401408
 2017-02-08 20:06:52.830421+01 | 1486580812.83042 | pgbench_tellers  |           139264
 2017-02-08 20:06:52.830421+01 | 1486580812.83042 | pgbench_history  |                0
 2017-02-08 20:06:52.830421+01 | 1486580812.83042 | pgbench_branches |            16384

 2017-02-08 20:06:53.9109+01 | 1486580813.9109 | pgbench_accounts |       4096401408
 2017-02-08 20:06:53.9109+01 | 1486580813.9109 | pgbench_tellers  |           139264
 2017-02-08 20:06:53.9109+01 | 1486580813.9109 | pgbench_history  |                0
 2017-02-08 20:06:53.9109+01 | 1486580813.9109 | pgbench_branches |            16384

 2017-02-08 20:06:54.986471+01 | 1486580814.98647 | pgbench_accounts |       4096401408
 2017-02-08 20:06:54.986471+01 | 1486580814.98647 | pgbench_tellers  |           139264
 2017-02-08 20:06:54.986471+01 | 1486580814.98647 | pgbench_history  |                0
 2017-02-08 20:06:54.986471+01 | 1486580814.98647 | pgbench_branches |            16384

 2017-02-08 20:06:56.056767+01 | 1486580816.05677 | pgbench_accounts |       4096401408
 2017-02-08 20:06:56.056767+01 | 1486580816.05677 | pgbench_tellers  |           139264
 2017-02-08 20:06:56.056767+01 | 1486580816.05677 | pgbench_history  |                0
 2017-02-08 20:06:56.056767+01 | 1486580816.05677 | pgbench_branches |            16384

 2017-02-08 20:06:57.130657+01 | 1486580817.13066 | pgbench_accounts |       4096401408
 2017-02-08 20:06:57.130657+01 | 1486580817.13066 | pgbench_tellers  |           139264
 2017-02-08 20:06:57.130657+01 | 1486580817.13066 | pgbench_history  |                0
 2017-02-08 20:06:57.130657+01 | 1486580817.13066 | pgbench_branches |            16384

 2017-02-08 20:06:58.215515+01 | 1486580818.21551 | pgbench_accounts |       4096401408
 2017-02-08 20:06:58.215515+01 | 1486580818.21551 | pgbench_tellers  |           139264
 2017-02-08 20:06:58.215515+01 | 1486580818.21551 | pgbench_history  |                0
 2017-02-08 20:06:58.215515+01 | 1486580818.21551 | pgbench_branches |            16384

 2017-02-08 20:06:59.283898+01 | 1486580819.2839 | pgbench_accounts |       4096401408
 2017-02-08 20:06:59.283898+01 | 1486580819.2839 | pgbench_tellers  |           139264
 2017-02-08 20:06:59.283898+01 | 1486580819.2839 | pgbench_history  |                0
 2017-02-08 20:06:59.283898+01 | 1486580819.2839 | pgbench_branches |            16384

 2017-02-08 20:07:00.365212+01 | 1486580820.36521 | pgbench_accounts |       4096401408
 2017-02-08 20:07:00.365212+01 | 1486580820.36521 | pgbench_tellers  |           139264
 2017-02-08 20:07:00.365212+01 | 1486580820.36521 | pgbench_history  |                0
 2017-02-08 20:07:00.365212+01 | 1486580820.36521 | pgbench_branches |            16384

 2017-02-08 20:07:01.444031+01 | 1486580821.44403 | pgbench_accounts |       4096401408
 2017-02-08 20:07:01.444031+01 | 1486580821.44403 | pgbench_tellers  |           139264
 2017-02-08 20:07:01.444031+01 | 1486580821.44403 | pgbench_history  |                0
 2017-02-08 20:07:01.444031+01 | 1486580821.44403 | pgbench_branches |            16384

 2017-02-08 20:07:02.528273+01 | 1486580822.52827 | pgbench_accounts |       4096401408
 2017-02-08 20:07:02.528273+01 | 1486580822.52827 | pgbench_tellers  |           139264
 2017-02-08 20:07:02.528273+01 | 1486580822.52827 | pgbench_history  |                0
 2017-02-08 20:07:02.528273+01 | 1486580822.52827 | pgbench_branches |            16384

 2017-02-08 20:07:03.609639+01 | 1486580823.60964 | pgbench_accounts |       4096401408
 2017-02-08 20:07:03.609639+01 | 1486580823.60964 | pgbench_tellers  |           139264
 2017-02-08 20:07:03.609639+01 | 1486580823.60964 | pgbench_history  |                0
 2017-02-08 20:07:03.609639+01 | 1486580823.60964 | pgbench_branches |            16384

 2017-02-08 20:07:04.694066+01 | 1486580824.69407 | pgbench_accounts |       4096401408
 2017-02-08 20:07:04.694066+01 | 1486580824.69407 | pgbench_tellers  |           139264
 2017-02-08 20:07:04.694066+01 | 1486580824.69407 | pgbench_history  |                0
 2017-02-08 20:07:04.694066+01 | 1486580824.69407 | pgbench_branches |            16384

 2017-02-08 20:07:05.779047+01 | 1486580825.77905 | pgbench_accounts |       4096401408
 2017-02-08 20:07:05.779047+01 | 1486580825.77905 | pgbench_tellers  |           139264
 2017-02-08 20:07:05.779047+01 | 1486580825.77905 | pgbench_history  |                0
 2017-02-08 20:07:05.779047+01 | 1486580825.77905 | pgbench_branches |            16384

 2017-02-08 20:07:06.84411+01 | 1486580826.84411 | pgbench_accounts |       4096401408
 2017-02-08 20:07:06.84411+01 | 1486580826.84411 | pgbench_tellers  |           139264
 2017-02-08 20:07:06.84411+01 | 1486580826.84411 | pgbench_history  |                0
 2017-02-08 20:07:06.84411+01 | 1486580826.84411 | pgbench_branches |            16384

 2017-02-08 20:07:07.911773+01 | 1486580827.91177 | pgbench_accounts |       4096401408
 2017-02-08 20:07:07.911773+01 | 1486580827.91177 | pgbench_tellers  |           139264
 2017-02-08 20:07:07.911773+01 | 1486580827.91177 | pgbench_history  |                0
 2017-02-08 20:07:07.911773+01 | 1486580827.91177 | pgbench_branches |            16384

 2017-02-08 20:07:09.001703+01 | 1486580829.0017 | pgbench_accounts |       4096401408
 2017-02-08 20:07:09.001703+01 | 1486580829.0017 | pgbench_tellers  |           139264
 2017-02-08 20:07:09.001703+01 | 1486580829.0017 | pgbench_history  |                0
 2017-02-08 20:07:09.001703+01 | 1486580829.0017 | pgbench_branches |            16384

 2017-02-08 20:07:10.064032+01 | 1486580830.06403 | pgbench_accounts |       4096401408
 2017-02-08 20:07:10.064032+01 | 1486580830.06403 | pgbench_tellers  |           139264
 2017-02-08 20:07:10.064032+01 | 1486580830.06403 | pgbench_history  |                0
 2017-02-08 20:07:10.064032+01 | 1486580830.06403 | pgbench_branches |            16384

 2017-02-08 20:07:11.136309+01 | 1486580831.13631 | pgbench_accounts |       4096401408
 2017-02-08 20:07:11.136309+01 | 1486580831.13631 | pgbench_tellers  |           139264
 2017-02-08 20:07:11.136309+01 | 1486580831.13631 | pgbench_history  |                0
 2017-02-08 20:07:11.136309+01 | 1486580831.13631 | pgbench_branches |            16384

 2017-02-08 20:07:12.20054+01 | 1486580832.20054 | pgbench_accounts |       4096401408
 2017-02-08 20:07:12.20054+01 | 1486580832.20054 | pgbench_tellers  |           139264
 2017-02-08 20:07:12.20054+01 | 1486580832.20054 | pgbench_history  |                0
 2017-02-08 20:07:12.20054+01 | 1486580832.20054 | pgbench_branches |            16384

 2017-02-08 20:07:13.289064+01 | 1486580833.28906 | pgbench_accounts |       4096401408
 2017-02-08 20:07:13.289064+01 | 1486580833.28906 | pgbench_tellers  |           139264
 2017-02-08 20:07:13.289064+01 | 1486580833.28906 | pgbench_history  |                0
 2017-02-08 20:07:13.289064+01 | 1486580833.28906 | pgbench_branches |            16384

 2017-02-08 20:07:14.364309+01 | 1486580834.36431 | pgbench_accounts |       4096401408
 2017-02-08 20:07:14.364309+01 | 1486580834.36431 | pgbench_tellers  |           139264
 2017-02-08 20:07:14.364309+01 | 1486580834.36431 | pgbench_history  |                0
 2017-02-08 20:07:14.364309+01 | 1486580834.36431 | pgbench_branches |            16384

 2017-02-08 20:07:15.428459+01 | 1486580835.42846 | pgbench_accounts |       4096401408
 2017-02-08 20:07:15.428459+01 | 1486580835.42846 | pgbench_tellers  |           139264
 2017-02-08 20:07:15.428459+01 | 1486580835.42846 | pgbench_history  |                0
 2017-02-08 20:07:15.428459+01 | 1486580835.42846 | pgbench_branches |            16384

 2017-02-08 20:07:16.505241+01 | 1486580836.50524 | pgbench_accounts |       4096401408
 2017-02-08 20:07:16.505241+01 | 1486580836.50524 | pgbench_tellers  |           139264
 2017-02-08 20:07:16.505241+01 | 1486580836.50524 | pgbench_history  |                0
 2017-02-08 20:07:16.505241+01 | 1486580836.50524 | pgbench_branches |            16384

 2017-02-08 20:07:17.574689+01 | 1486580837.57469 | pgbench_accounts |       4096401408
 2017-02-08 20:07:17.574689+01 | 1486580837.57469 | pgbench_tellers  |           139264
 2017-02-08 20:07:17.574689+01 | 1486580837.57469 | pgbench_history  |                0
 2017-02-08 20:07:17.574689+01 | 1486580837.57469 | pgbench_branches |            16384

 2017-02-08 20:07:18.660609+01 | 1486580838.66061 | pgbench_accounts |       4096401408
 2017-02-08 20:07:18.660609+01 | 1486580838.66061 | pgbench_tellers  |           139264
 2017-02-08 20:07:18.660609+01 | 1486580838.66061 | pgbench_history  |                0
 2017-02-08 20:07:18.660609+01 | 1486580838.66061 | pgbench_branches |            16384

 2017-02-08 20:07:19.734932+01 | 1486580839.73493 | pgbench_accounts |       4096401408
 2017-02-08 20:07:19.734932+01 | 1486580839.73493 | pgbench_tellers  |           139264
 2017-02-08 20:07:19.734932+01 | 1486580839.73493 | pgbench_history  |                0
 2017-02-08 20:07:19.734932+01 | 1486580839.73493 | pgbench_branches |            16384

 2017-02-08 20:07:20.829148+01 | 1486580840.82915 | pgbench_accounts |       4096401408
 2017-02-08 20:07:20.829148+01 | 1486580840.82915 | pgbench_tellers  |           139264
 2017-02-08 20:07:20.829148+01 | 1486580840.82915 | pgbench_history  |                0
 2017-02-08 20:07:20.829148+01 | 1486580840.82915 | pgbench_branches |            16384

 2017-02-08 20:07:21.919013+01 | 1486580841.91901 | pgbench_accounts |       4096401408
 2017-02-08 20:07:21.919013+01 | 1486580841.91901 | pgbench_tellers  |           139264
 2017-02-08 20:07:21.919013+01 | 1486580841.91901 | pgbench_history  |                0
 2017-02-08 20:07:21.919013+01 | 1486580841.91901 | pgbench_branches |            16384

 2017-02-08 20:07:23.003987+01 | 1486580843.00399 | pgbench_accounts |       4096401408
 2017-02-08 20:07:23.003987+01 | 1486580843.00399 | pgbench_tellers  |           139264
 2017-02-08 20:07:23.003987+01 | 1486580843.00399 | pgbench_history  |                0
 2017-02-08 20:07:23.003987+01 | 1486580843.00399 | pgbench_branches |            16384

 2017-02-08 20:07:24.088836+01 | 1486580844.08884 | pgbench_accounts |       4096401408
 2017-02-08 20:07:24.088836+01 | 1486580844.08884 | pgbench_tellers  |           139264
 2017-02-08 20:07:24.088836+01 | 1486580844.08884 | pgbench_history  |                0
 2017-02-08 20:07:24.088836+01 | 1486580844.08884 | pgbench_branches |            16384

 2017-02-08 20:07:25.1663+01 | 1486580845.1663 | pgbench_accounts |       4096401408
 2017-02-08 20:07:25.1663+01 | 1486580845.1663 | pgbench_tellers  |           139264
 2017-02-08 20:07:25.1663+01 | 1486580845.1663 | pgbench_history  |                0
 2017-02-08 20:07:25.1663+01 | 1486580845.1663 | pgbench_branches |            16384

 2017-02-08 20:07:26.233838+01 | 1486580846.23384 | pgbench_accounts |       4096401408
 2017-02-08 20:07:26.233838+01 | 1486580846.23384 | pgbench_tellers  |           139264
 2017-02-08 20:07:26.233838+01 | 1486580846.23384 | pgbench_history  |                0
 2017-02-08 20:07:26.233838+01 | 1486580846.23384 | pgbench_branches |            16384

 2017-02-08 20:07:27.312116+01 | 1486580847.31212 | pgbench_accounts |       4096401408
 2017-02-08 20:07:27.312116+01 | 1486580847.31212 | pgbench_tellers  |           139264
 2017-02-08 20:07:27.312116+01 | 1486580847.31212 | pgbench_history  |                0
 2017-02-08 20:07:27.312116+01 | 1486580847.31212 | pgbench_branches |            16384

 2017-02-08 20:07:28.396319+01 | 1486580848.39632 | pgbench_accounts |       4096401408
 2017-02-08 20:07:28.396319+01 | 1486580848.39632 | pgbench_tellers  |           139264
 2017-02-08 20:07:28.396319+01 | 1486580848.39632 | pgbench_history  |                0
 2017-02-08 20:07:28.396319+01 | 1486580848.39632 | pgbench_branches |            16384

 2017-02-08 20:07:29.48921+01 | 1486580849.48921 | pgbench_accounts |       4096401408
 2017-02-08 20:07:29.48921+01 | 1486580849.48921 | pgbench_tellers  |           139264
 2017-02-08 20:07:29.48921+01 | 1486580849.48921 | pgbench_history  |                0
 2017-02-08 20:07:29.48921+01 | 1486580849.48921 | pgbench_branches |            16384

 2017-02-08 20:07:30.559321+01 | 1486580850.55932 | pgbench_accounts |       4096401408
 2017-02-08 20:07:30.559321+01 | 1486580850.55932 | pgbench_tellers  |           139264
 2017-02-08 20:07:30.559321+01 | 1486580850.55932 | pgbench_history  |                0
 2017-02-08 20:07:30.559321+01 | 1486580850.55932 | pgbench_branches |            16384

 2017-02-08 20:07:31.635338+01 | 1486580851.63534 | pgbench_accounts |       4096401408
 2017-02-08 20:07:31.635338+01 | 1486580851.63534 | pgbench_tellers  |           139264
 2017-02-08 20:07:31.635338+01 | 1486580851.63534 | pgbench_history  |                0
 2017-02-08 20:07:31.635338+01 | 1486580851.63534 | pgbench_branches |            16384

 2017-02-08 20:07:32.699243+01 | 1486580852.69924 | pgbench_accounts |       4096401408
 2017-02-08 20:07:32.699243+01 | 1486580852.69924 | pgbench_tellers  |           139264
 2017-02-08 20:07:32.699243+01 | 1486580852.69924 | pgbench_history  |                0
 2017-02-08 20:07:32.699243+01 | 1486580852.69924 | pgbench_branches |            16384

 2017-02-08 20:07:33.783288+01 | 1486580853.78329 | pgbench_accounts |       4096401408
 2017-02-08 20:07:33.783288+01 | 1486580853.78329 | pgbench_tellers  |           139264
 2017-02-08 20:07:33.783288+01 | 1486580853.78329 | pgbench_history  |                0
 2017-02-08 20:07:33.783288+01 | 1486580853.78329 | pgbench_branches |            16384

 2017-02-08 20:07:34.857453+01 | 1486580854.85745 | pgbench_accounts |       4096401408
 2017-02-08 20:07:34.857453+01 | 1486580854.85745 | pgbench_tellers  |           139264
 2017-02-08 20:07:34.857453+01 | 1486580854.85745 | pgbench_history  |                0
 2017-02-08 20:07:34.857453+01 | 1486580854.85745 | pgbench_branches |            16384

 2017-02-08 20:07:35.934216+01 | 1486580855.93422 | pgbench_accounts |       4096401408
 2017-02-08 20:07:35.934216+01 | 1486580855.93422 | pgbench_tellers  |           139264
 2017-02-08 20:07:35.934216+01 | 1486580855.93422 | pgbench_history  |                0
 2017-02-08 20:07:35.934216+01 | 1486580855.93422 | pgbench_branches |            16384

 2017-02-08 20:07:37.008488+01 | 1486580857.00849 | pgbench_accounts |       4096401408
 2017-02-08 20:07:37.008488+01 | 1486580857.00849 | pgbench_tellers  |           139264
 2017-02-08 20:07:37.008488+01 | 1486580857.00849 | pgbench_history  |                0
 2017-02-08 20:07:37.008488+01 | 1486580857.00849 | pgbench_branches |            16384

 2017-02-08 20:07:38.084563+01 | 1486580858.08456 | pgbench_accounts |       4096401408
 2017-02-08 20:07:38.084563+01 | 1486580858.08456 | pgbench_tellers  |           139264
 2017-02-08 20:07:38.084563+01 | 1486580858.08456 | pgbench_history  |                0
 2017-02-08 20:07:38.084563+01 | 1486580858.08456 | pgbench_branches |            16384

 2017-02-08 20:07:39.155017+01 | 1486580859.15502 | pgbench_accounts |       4096401408
 2017-02-08 20:07:39.155017+01 | 1486580859.15502 | pgbench_tellers  |           139264
 2017-02-08 20:07:39.155017+01 | 1486580859.15502 | pgbench_history  |                0
 2017-02-08 20:07:39.155017+01 | 1486580859.15502 | pgbench_branches |            16384

 2017-02-08 20:07:40.218655+01 | 1486580860.21866 | pgbench_accounts |       4096401408
 2017-02-08 20:07:40.218655+01 | 1486580860.21866 | pgbench_tellers  |           139264
 2017-02-08 20:07:40.218655+01 | 1486580860.21866 | pgbench_history  |                0
 2017-02-08 20:07:40.218655+01 | 1486580860.21866 | pgbench_branches |            16384

 2017-02-08 20:07:41.286474+01 | 1486580861.28647 | pgbench_accounts |       4096401408
 2017-02-08 20:07:41.286474+01 | 1486580861.28647 | pgbench_tellers  |           139264
 2017-02-08 20:07:41.286474+01 | 1486580861.28647 | pgbench_history  |                0
 2017-02-08 20:07:41.286474+01 | 1486580861.28647 | pgbench_branches |            16384

 2017-02-08 20:07:42.359885+01 | 1486580862.35988 | pgbench_accounts |       4096401408
 2017-02-08 20:07:42.359885+01 | 1486580862.35988 | pgbench_tellers  |           139264
 2017-02-08 20:07:42.359885+01 | 1486580862.35988 | pgbench_history  |                0
 2017-02-08 20:07:42.359885+01 | 1486580862.35988 | pgbench_branches |            16384

 2017-02-08 20:07:43.444614+01 | 1486580863.44461 | pgbench_accounts |       4096401408
 2017-02-08 20:07:43.444614+01 | 1486580863.44461 | pgbench_tellers  |           139264
 2017-02-08 20:07:43.444614+01 | 1486580863.44461 | pgbench_history  |                0
 2017-02-08 20:07:43.444614+01 | 1486580863.44461 | pgbench_branches |            16384

 2017-02-08 20:07:44.527925+01 | 1486580864.52793 | pgbench_accounts |       4096401408
 2017-02-08 20:07:44.527925+01 | 1486580864.52793 | pgbench_tellers  |           139264
 2017-02-08 20:07:44.527925+01 | 1486580864.52793 | pgbench_history  |                0
 2017-02-08 20:07:44.527925+01 | 1486580864.52793 | pgbench_branches |            16384

 2017-02-08 20:07:45.600851+01 | 1486580865.60085 | pgbench_accounts |       4096401408
 2017-02-08 20:07:45.600851+01 | 1486580865.60085 | pgbench_tellers  |           139264
 2017-02-08 20:07:45.600851+01 | 1486580865.60085 | pgbench_history  |                0
 2017-02-08 20:07:45.600851+01 | 1486580865.60085 | pgbench_branches |            16384

 2017-02-08 20:07:46.666428+01 | 1486580866.66643 | pgbench_accounts |       4096401408
 2017-02-08 20:07:46.666428+01 | 1486580866.66643 | pgbench_tellers  |           139264
 2017-02-08 20:07:46.666428+01 | 1486580866.66643 | pgbench_history  |                0
 2017-02-08 20:07:46.666428+01 | 1486580866.66643 | pgbench_branches |            16384

 2017-02-08 20:07:47.742399+01 | 1486580867.7424 | pgbench_accounts |       4096401408
 2017-02-08 20:07:47.742399+01 | 1486580867.7424 | pgbench_tellers  |           139264
 2017-02-08 20:07:47.742399+01 | 1486580867.7424 | pgbench_history  |                0
 2017-02-08 20:07:47.742399+01 | 1486580867.7424 | pgbench_branches |            16384

 2017-02-08 20:07:48.805853+01 | 1486580868.80585 | pgbench_accounts |       4096401408
 2017-02-08 20:07:48.805853+01 | 1486580868.80585 | pgbench_tellers  |           139264
 2017-02-08 20:07:48.805853+01 | 1486580868.80585 | pgbench_history  |                0
 2017-02-08 20:07:48.805853+01 | 1486580868.80585 | pgbench_branches |            16384

 2017-02-08 20:07:49.876872+01 | 1486580869.87687 | pgbench_accounts |       4096401408
 2017-02-08 20:07:49.876872+01 | 1486580869.87687 | pgbench_tellers  |           139264
 2017-02-08 20:07:49.876872+01 | 1486580869.87687 | pgbench_history  |                0
 2017-02-08 20:07:49.876872+01 | 1486580869.87687 | pgbench_branches |            16384

 2017-02-08 20:07:50.946104+01 | 1486580870.9461 | pgbench_accounts |       4096401408
 2017-02-08 20:07:50.946104+01 | 1486580870.9461 | pgbench_tellers  |           139264
 2017-02-08 20:07:50.946104+01 | 1486580870.9461 | pgbench_history  |                0
 2017-02-08 20:07:50.946104+01 | 1486580870.9461 | pgbench_branches |            16384

 2017-02-08 20:07:52.010918+01 | 1486580872.01092 | pgbench_accounts |       4096401408
 2017-02-08 20:07:52.010918+01 | 1486580872.01092 | pgbench_tellers  |           139264
 2017-02-08 20:07:52.010918+01 | 1486580872.01092 | pgbench_history  |                0
 2017-02-08 20:07:52.010918+01 | 1486580872.01092 | pgbench_branches |            16384

 2017-02-08 20:07:53.089527+01 | 1486580873.08953 | pgbench_accounts |       4096401408
 2017-02-08 20:07:53.089527+01 | 1486580873.08953 | pgbench_tellers  |           139264
 2017-02-08 20:07:53.089527+01 | 1486580873.08953 | pgbench_history  |                0
 2017-02-08 20:07:53.089527+01 | 1486580873.08953 | pgbench_branches |            16384

 2017-02-08 20:07:54.161035+01 | 1486580874.16104 | pgbench_accounts |       4096401408
 2017-02-08 20:07:54.161035+01 | 1486580874.16104 | pgbench_tellers  |           139264
 2017-02-08 20:07:54.161035+01 | 1486580874.16104 | pgbench_history  |                0
 2017-02-08 20:07:54.161035+01 | 1486580874.16104 | pgbench_branches |            16384

 2017-02-08 20:07:55.226591+01 | 1486580875.22659 | pgbench_accounts |       4096401408
 2017-02-08 20:07:55.226591+01 | 1486580875.22659 | pgbench_tellers  |           139264
 2017-02-08 20:07:55.226591+01 | 1486580875.22659 | pgbench_history  |                0
 2017-02-08 20:07:55.226591+01 | 1486580875.22659 | pgbench_branches |            16384

 2017-02-08 20:07:56.298134+01 | 1486580876.29813 | pgbench_accounts |       4096401408
 2017-02-08 20:07:56.298134+01 | 1486580876.29813 | pgbench_tellers  |           139264
 2017-02-08 20:07:56.298134+01 | 1486580876.29813 | pgbench_history  |                0
 2017-02-08 20:07:56.298134+01 | 1486580876.29813 | pgbench_branches |            16384

 2017-02-08 20:07:57.373307+01 | 1486580877.37331 | pgbench_accounts |       4096401408
 2017-02-08 20:07:57.373307+01 | 1486580877.37331 | pgbench_tellers  |           139264
 2017-02-08 20:07:57.373307+01 | 1486580877.37331 | pgbench_history  |                0
 2017-02-08 20:07:57.373307+01 | 1486580877.37331 | pgbench_branches |            16384

 2017-02-08 20:07:58.456555+01 | 1486580878.45655 | pgbench_accounts |       4096401408
 2017-02-08 20:07:58.456555+01 | 1486580878.45655 | pgbench_tellers  |           139264
 2017-02-08 20:07:58.456555+01 | 1486580878.45655 | pgbench_history  |                0
 2017-02-08 20:07:58.456555+01 | 1486580878.45655 | pgbench_branches |            16384

 2017-02-08 20:07:59.540833+01 | 1486580879.54083 | pgbench_accounts |       4096401408
 2017-02-08 20:07:59.540833+01 | 1486580879.54083 | pgbench_tellers  |           139264
 2017-02-08 20:07:59.540833+01 | 1486580879.54083 | pgbench_history  |                0
 2017-02-08 20:07:59.540833+01 | 1486580879.54083 | pgbench_branches |            16384

 2017-02-08 20:08:00.61865+01 | 1486580880.61865 | pgbench_accounts |       4096401408
 2017-02-08 20:08:00.61865+01 | 1486580880.61865 | pgbench_tellers  |           139264
 2017-02-08 20:08:00.61865+01 | 1486580880.61865 | pgbench_history  |                0
 2017-02-08 20:08:00.61865+01 | 1486580880.61865 | pgbench_branches |            16384

 2017-02-08 20:08:01.695907+01 | 1486580881.69591 | pgbench_accounts |       4096401408
 2017-02-08 20:08:01.695907+01 | 1486580881.69591 | pgbench_tellers  |           139264
 2017-02-08 20:08:01.695907+01 | 1486580881.69591 | pgbench_history  |                0
 2017-02-08 20:08:01.695907+01 | 1486580881.69591 | pgbench_branches |            16384

 2017-02-08 20:08:02.771651+01 | 1486580882.77165 | pgbench_accounts |       4096401408
 2017-02-08 20:08:02.771651+01 | 1486580882.77165 | pgbench_tellers  |           139264
 2017-02-08 20:08:02.771651+01 | 1486580882.77165 | pgbench_history  |                0
 2017-02-08 20:08:02.771651+01 | 1486580882.77165 | pgbench_branches |            16384

 2017-02-08 20:08:03.851236+01 | 1486580883.85124 | pgbench_accounts |       4096401408
 2017-02-08 20:08:03.851236+01 | 1486580883.85124 | pgbench_tellers  |           139264
 2017-02-08 20:08:03.851236+01 | 1486580883.85124 | pgbench_history  |                0
 2017-02-08 20:08:03.851236+01 | 1486580883.85124 | pgbench_branches |            16384

 2017-02-08 20:08:04.929738+01 | 1486580884.92974 | pgbench_accounts |       4096401408
 2017-02-08 20:08:04.929738+01 | 1486580884.92974 | pgbench_tellers  |           139264
 2017-02-08 20:08:04.929738+01 | 1486580884.92974 | pgbench_history  |                0
 2017-02-08 20:08:04.929738+01 | 1486580884.92974 | pgbench_branches |            16384

 2017-02-08 20:08:06.014572+01 | 1486580886.01457 | pgbench_accounts |       4096401408
 2017-02-08 20:08:06.014572+01 | 1486580886.01457 | pgbench_tellers  |           139264
 2017-02-08 20:08:06.014572+01 | 1486580886.01457 | pgbench_history  |                0
 2017-02-08 20:08:06.014572+01 | 1486580886.01457 | pgbench_branches |            16384

 2017-02-08 20:08:07.095797+01 | 1486580887.0958 | pgbench_accounts |       4096401408
 2017-02-08 20:08:07.095797+01 | 1486580887.0958 | pgbench_tellers  |           139264
 2017-02-08 20:08:07.095797+01 | 1486580887.0958 | pgbench_history  |                0
 2017-02-08 20:08:07.095797+01 | 1486580887.0958 | pgbench_branches |            16384

 2017-02-08 20:08:08.189118+01 | 1486580888.18912 | pgbench_accounts |       4096401408
 2017-02-08 20:08:08.189118+01 | 1486580888.18912 | pgbench_tellers  |           139264
 2017-02-08 20:08:08.189118+01 | 1486580888.18912 | pgbench_history  |                0
 2017-02-08 20:08:08.189118+01 | 1486580888.18912 | pgbench_branches |            16384

 2017-02-08 20:08:09.2627+01 | 1486580889.2627 | pgbench_accounts |       4096401408
 2017-02-08 20:08:09.2627+01 | 1486580889.2627 | pgbench_tellers  |           139264
 2017-02-08 20:08:09.2627+01 | 1486580889.2627 | pgbench_history  |                0
 2017-02-08 20:08:09.2627+01 | 1486580889.2627 | pgbench_branches |            16384

 2017-02-08 20:08:10.334488+01 | 1486580890.33449 | pgbench_accounts |       4096401408
 2017-02-08 20:08:10.334488+01 | 1486580890.33449 | pgbench_tellers  |           139264
 2017-02-08 20:08:10.334488+01 | 1486580890.33449 | pgbench_history  |                0
 2017-02-08 20:08:10.334488+01 | 1486580890.33449 | pgbench_branches |            16384

 2017-02-08 20:08:11.409933+01 | 1486580891.40993 | pgbench_accounts |       4096401408
 2017-02-08 20:08:11.409933+01 | 1486580891.40993 | pgbench_tellers  |           139264
 2017-02-08 20:08:11.409933+01 | 1486580891.40993 | pgbench_history  |                0
 2017-02-08 20:08:11.409933+01 | 1486580891.40993 | pgbench_branches |            16384

 2017-02-08 20:08:12.490294+01 | 1486580892.49029 | pgbench_accounts |       4096401408
 2017-02-08 20:08:12.490294+01 | 1486580892.49029 | pgbench_tellers  |           139264
 2017-02-08 20:08:12.490294+01 | 1486580892.49029 | pgbench_history  |                0
 2017-02-08 20:08:12.490294+01 | 1486580892.49029 | pgbench_branches |            16384

 2017-02-08 20:08:13.563537+01 | 1486580893.56354 | pgbench_accounts |       4096401408
 2017-02-08 20:08:13.563537+01 | 1486580893.56354 | pgbench_tellers  |           139264
 2017-02-08 20:08:13.563537+01 | 1486580893.56354 | pgbench_history  |                0
 2017-02-08 20:08:13.563537+01 | 1486580893.56354 | pgbench_branches |            16384

 2017-02-08 20:08:14.628858+01 | 1486580894.62886 | pgbench_accounts |       4096401408
 2017-02-08 20:08:14.628858+01 | 1486580894.62886 | pgbench_tellers  |           139264
 2017-02-08 20:08:14.628858+01 | 1486580894.62886 | pgbench_history  |                0
 2017-02-08 20:08:14.628858+01 | 1486580894.62886 | pgbench_branches |            16384

 2017-02-08 20:08:15.707095+01 | 1486580895.70709 | pgbench_accounts |       4096401408
 2017-02-08 20:08:15.707095+01 | 1486580895.70709 | pgbench_tellers  |           139264
 2017-02-08 20:08:15.707095+01 | 1486580895.70709 | pgbench_history  |                0
 2017-02-08 20:08:15.707095+01 | 1486580895.70709 | pgbench_branches |            16384

 2017-02-08 20:08:16.797326+01 | 1486580896.79733 | pgbench_accounts |       4096401408
 2017-02-08 20:08:16.797326+01 | 1486580896.79733 | pgbench_tellers  |           139264
 2017-02-08 20:08:16.797326+01 | 1486580896.79733 | pgbench_history  |                0
 2017-02-08 20:08:16.797326+01 | 1486580896.79733 | pgbench_branches |            16384

 2017-02-08 20:08:17.877279+01 | 1486580897.87728 | pgbench_accounts |       4096401408
 2017-02-08 20:08:17.877279+01 | 1486580897.87728 | pgbench_tellers  |           139264
 2017-02-08 20:08:17.877279+01 | 1486580897.87728 | pgbench_history  |                0
 2017-02-08 20:08:17.877279+01 | 1486580897.87728 | pgbench_branches |            16384

 2017-02-08 20:08:18.946393+01 | 1486580898.94639 | pgbench_accounts |       4096401408
 2017-02-08 20:08:18.946393+01 | 1486580898.94639 | pgbench_tellers  |           139264
 2017-02-08 20:08:18.946393+01 | 1486580898.94639 | pgbench_history  |                0
 2017-02-08 20:08:18.946393+01 | 1486580898.94639 | pgbench_branches |            16384

 2017-02-08 20:08:20.033641+01 | 1486580900.03364 | pgbench_accounts |       4096401408
 2017-02-08 20:08:20.033641+01 | 1486580900.03364 | pgbench_tellers  |           139264
 2017-02-08 20:08:20.033641+01 | 1486580900.03364 | pgbench_history  |                0
 2017-02-08 20:08:20.033641+01 | 1486580900.03364 | pgbench_branches |            16384

 2017-02-08 20:08:21.125123+01 | 1486580901.12512 | pgbench_accounts |       4096401408
 2017-02-08 20:08:21.125123+01 | 1486580901.12512 | pgbench_tellers  |           139264
 2017-02-08 20:08:21.125123+01 | 1486580901.12512 | pgbench_history  |                0
 2017-02-08 20:08:21.125123+01 | 1486580901.12512 | pgbench_branches |            16384

 2017-02-08 20:08:22.20009+01 | 1486580902.20009 | pgbench_accounts |       4096401408
 2017-02-08 20:08:22.20009+01 | 1486580902.20009 | pgbench_tellers  |           139264
 2017-02-08 20:08:22.20009+01 | 1486580902.20009 | pgbench_history  |                0
 2017-02-08 20:08:22.20009+01 | 1486580902.20009 | pgbench_branches |            16384

 2017-02-08 20:08:23.280904+01 | 1486580903.2809 | pgbench_accounts |       4096401408
 2017-02-08 20:08:23.280904+01 | 1486580903.2809 | pgbench_tellers  |           139264
 2017-02-08 20:08:23.280904+01 | 1486580903.2809 | pgbench_history  |                0
 2017-02-08 20:08:23.280904+01 | 1486580903.2809 | pgbench_branches |            16384

 2017-02-08 20:08:24.362089+01 | 1486580904.36209 | pgbench_accounts |       4096401408
 2017-02-08 20:08:24.362089+01 | 1486580904.36209 | pgbench_tellers  |           139264
 2017-02-08 20:08:24.362089+01 | 1486580904.36209 | pgbench_history  |                0
 2017-02-08 20:08:24.362089+01 | 1486580904.36209 | pgbench_branches |            16384

 2017-02-08 20:08:25.41697+01 | 1486580905.41697 | pgbench_accounts |       4096401408
 2017-02-08 20:08:25.41697+01 | 1486580905.41697 | pgbench_tellers  |           139264
 2017-02-08 20:08:25.41697+01 | 1486580905.41697 | pgbench_history  |                0
 2017-02-08 20:08:25.41697+01 | 1486580905.41697 | pgbench_branches |            16384

 2017-02-08 20:08:26.491019+01 | 1486580906.49102 | pgbench_accounts |       4096401408
 2017-02-08 20:08:26.491019+01 | 1486580906.49102 | pgbench_tellers  |           139264
 2017-02-08 20:08:26.491019+01 | 1486580906.49102 | pgbench_history  |                0
 2017-02-08 20:08:26.491019+01 | 1486580906.49102 | pgbench_branches |            16384

 2017-02-08 20:08:27.554711+01 | 1486580907.55471 | pgbench_accounts |       4096401408
 2017-02-08 20:08:27.554711+01 | 1486580907.55471 | pgbench_tellers  |           139264
 2017-02-08 20:08:27.554711+01 | 1486580907.55471 | pgbench_history  |                0
 2017-02-08 20:08:27.554711+01 | 1486580907.55471 | pgbench_branches |            16384

 2017-02-08 20:08:28.620763+01 | 1486580908.62076 | pgbench_accounts |       4096401408
 2017-02-08 20:08:28.620763+01 | 1486580908.62076 | pgbench_tellers  |           139264
 2017-02-08 20:08:28.620763+01 | 1486580908.62076 | pgbench_history  |                0
 2017-02-08 20:08:28.620763+01 | 1486580908.62076 | pgbench_branches |            16384

 2017-02-08 20:08:29.689422+01 | 1486580909.68942 | pgbench_accounts |       4096401408
 2017-02-08 20:08:29.689422+01 | 1486580909.68942 | pgbench_tellers  |           139264
 2017-02-08 20:08:29.689422+01 | 1486580909.68942 | pgbench_history  |                0
 2017-02-08 20:08:29.689422+01 | 1486580909.68942 | pgbench_branches |            16384

 2017-02-08 20:08:30.745703+01 | 1486580910.7457 | pgbench_accounts |       4096401408
 2017-02-08 20:08:30.745703+01 | 1486580910.7457 | pgbench_tellers  |           139264
 2017-02-08 20:08:30.745703+01 | 1486580910.7457 | pgbench_history  |                0
 2017-02-08 20:08:30.745703+01 | 1486580910.7457 | pgbench_branches |            16384

 2017-02-08 20:08:31.815004+01 | 1486580911.815 | pgbench_accounts |       4096401408
 2017-02-08 20:08:31.815004+01 | 1486580911.815 | pgbench_tellers  |           139264
 2017-02-08 20:08:31.815004+01 | 1486580911.815 | pgbench_history  |                0
 2017-02-08 20:08:31.815004+01 | 1486580911.815 | pgbench_branches |            16384

 2017-02-08 20:08:32.876521+01 | 1486580912.87652 | pgbench_accounts |       4096401408
 2017-02-08 20:08:32.876521+01 | 1486580912.87652 | pgbench_tellers  |           139264
 2017-02-08 20:08:32.876521+01 | 1486580912.87652 | pgbench_history  |                0
 2017-02-08 20:08:32.876521+01 | 1486580912.87652 | pgbench_branches |            16384

 2017-02-08 20:08:33.94261+01 | 1486580913.94261 | pgbench_accounts |       4096401408
 2017-02-08 20:08:33.94261+01 | 1486580913.94261 | pgbench_tellers  |           139264
 2017-02-08 20:08:33.94261+01 | 1486580913.94261 | pgbench_history  |                0
 2017-02-08 20:08:33.94261+01 | 1486580913.94261 | pgbench_branches |            16384

 2017-02-08 20:08:35.011859+01 | 1486580915.01186 | pgbench_accounts |       4096401408
 2017-02-08 20:08:35.011859+01 | 1486580915.01186 | pgbench_tellers  |           139264
 2017-02-08 20:08:35.011859+01 | 1486580915.01186 | pgbench_history  |                0
 2017-02-08 20:08:35.011859+01 | 1486580915.01186 | pgbench_branches |            16384

 2017-02-08 20:08:36.077489+01 | 1486580916.07749 | pgbench_accounts |       4096401408
 2017-02-08 20:08:36.077489+01 | 1486580916.07749 | pgbench_tellers  |           139264
 2017-02-08 20:08:36.077489+01 | 1486580916.07749 | pgbench_history  |                0
 2017-02-08 20:08:36.077489+01 | 1486580916.07749 | pgbench_branches |            16384

 2017-02-08 20:08:37.139895+01 | 1486580917.13989 | pgbench_accounts |       4096401408
 2017-02-08 20:08:37.139895+01 | 1486580917.13989 | pgbench_tellers  |           139264
 2017-02-08 20:08:37.139895+01 | 1486580917.13989 | pgbench_history  |                0
 2017-02-08 20:08:37.139895+01 | 1486580917.13989 | pgbench_branches |            16384

 2017-02-08 20:08:38.21324+01 | 1486580918.21324 | pgbench_accounts |       4096401408
 2017-02-08 20:08:38.21324+01 | 1486580918.21324 | pgbench_tellers  |           139264
 2017-02-08 20:08:38.21324+01 | 1486580918.21324 | pgbench_history  |                0
 2017-02-08 20:08:38.21324+01 | 1486580918.21324 | pgbench_branches |            16384

 2017-02-08 20:08:39.291074+01 | 1486580919.29107 | pgbench_accounts |       4096401408
 2017-02-08 20:08:39.291074+01 | 1486580919.29107 | pgbench_tellers  |           139264
 2017-02-08 20:08:39.291074+01 | 1486580919.29107 | pgbench_history  |                0
 2017-02-08 20:08:39.291074+01 | 1486580919.29107 | pgbench_branches |            16384

 2017-02-08 20:08:40.373117+01 | 1486580920.37312 | pgbench_accounts |       4096401408
 2017-02-08 20:08:40.373117+01 | 1486580920.37312 | pgbench_tellers  |           139264
 2017-02-08 20:08:40.373117+01 | 1486580920.37312 | pgbench_history  |                0
 2017-02-08 20:08:40.373117+01 | 1486580920.37312 | pgbench_branches |            16384

 2017-02-08 20:08:41.44971+01 | 1486580921.44971 | pgbench_accounts |       4096401408
 2017-02-08 20:08:41.44971+01 | 1486580921.44971 | pgbench_tellers  |           139264
 2017-02-08 20:08:41.44971+01 | 1486580921.44971 | pgbench_history  |                0
 2017-02-08 20:08:41.44971+01 | 1486580921.44971 | pgbench_branches |            16384

 2017-02-08 20:08:42.520942+01 | 1486580922.52094 | pgbench_accounts |       4096401408
 2017-02-08 20:08:42.520942+01 | 1486580922.52094 | pgbench_tellers  |           139264
 2017-02-08 20:08:42.520942+01 | 1486580922.52094 | pgbench_history  |                0
 2017-02-08 20:08:42.520942+01 | 1486580922.52094 | pgbench_branches |            16384

 2017-02-08 20:08:43.588613+01 | 1486580923.58861 | pgbench_accounts |       4096401408
 2017-02-08 20:08:43.588613+01 | 1486580923.58861 | pgbench_tellers  |           139264
 2017-02-08 20:08:43.588613+01 | 1486580923.58861 | pgbench_history  |                0
 2017-02-08 20:08:43.588613+01 | 1486580923.58861 | pgbench_branches |            16384

 2017-02-08 20:08:44.668714+01 | 1486580924.66871 | pgbench_accounts |       4096401408
 2017-02-08 20:08:44.668714+01 | 1486580924.66871 | pgbench_tellers  |           139264
 2017-02-08 20:08:44.668714+01 | 1486580924.66871 | pgbench_history  |                0
 2017-02-08 20:08:44.668714+01 | 1486580924.66871 | pgbench_branches |            16384

 2017-02-08 20:08:45.764714+01 | 1486580925.76471 | pgbench_accounts |       4096401408
 2017-02-08 20:08:45.764714+01 | 1486580925.76471 | pgbench_tellers  |           139264
 2017-02-08 20:08:45.764714+01 | 1486580925.76471 | pgbench_history  |                0
 2017-02-08 20:08:45.764714+01 | 1486580925.76471 | pgbench_branches |            16384

 2017-02-08 20:08:46.833248+01 | 1486580926.83325 | pgbench_accounts |       4096401408
 2017-02-08 20:08:46.833248+01 | 1486580926.83325 | pgbench_tellers  |           139264
 2017-02-08 20:08:46.833248+01 | 1486580926.83325 | pgbench_history  |                0
 2017-02-08 20:08:46.833248+01 | 1486580926.83325 | pgbench_branches |            16384

 2017-02-08 20:08:47.896828+01 | 1486580927.89683 | pgbench_accounts |       4096401408
 2017-02-08 20:08:47.896828+01 | 1486580927.89683 | pgbench_tellers  |           139264
 2017-02-08 20:08:47.896828+01 | 1486580927.89683 | pgbench_history  |                0
 2017-02-08 20:08:47.896828+01 | 1486580927.89683 | pgbench_branches |            16384

 2017-02-08 20:08:48.970541+01 | 1486580928.97054 | pgbench_accounts |       4096401408
 2017-02-08 20:08:48.970541+01 | 1486580928.97054 | pgbench_tellers  |           139264
 2017-02-08 20:08:48.970541+01 | 1486580928.97054 | pgbench_history  |                0
 2017-02-08 20:08:48.970541+01 | 1486580928.97054 | pgbench_branches |            16384

 2017-02-08 20:08:50.025543+01 | 1486580930.02554 | pgbench_accounts |       4096401408
 2017-02-08 20:08:50.025543+01 | 1486580930.02554 | pgbench_tellers  |           139264
 2017-02-08 20:08:50.025543+01 | 1486580930.02554 | pgbench_history  |                0
 2017-02-08 20:08:50.025543+01 | 1486580930.02554 | pgbench_branches |            16384

 2017-02-08 20:08:51.094005+01 | 1486580931.09401 | pgbench_accounts |       4096401408
 2017-02-08 20:08:51.094005+01 | 1486580931.09401 | pgbench_tellers  |           139264
 2017-02-08 20:08:51.094005+01 | 1486580931.09401 | pgbench_history  |                0
 2017-02-08 20:08:51.094005+01 | 1486580931.09401 | pgbench_branches |            16384

 2017-02-08 20:08:52.175997+01 | 1486580932.176 | pgbench_accounts |       4096401408
 2017-02-08 20:08:52.175997+01 | 1486580932.176 | pgbench_tellers  |           139264
 2017-02-08 20:08:52.175997+01 | 1486580932.176 | pgbench_history  |                0
 2017-02-08 20:08:52.175997+01 | 1486580932.176 | pgbench_branches |            16384

 2017-02-08 20:08:53.246616+01 | 1486580933.24662 | pgbench_accounts |       4096401408
 2017-02-08 20:08:53.246616+01 | 1486580933.24662 | pgbench_tellers  |           139264
 2017-02-08 20:08:53.246616+01 | 1486580933.24662 | pgbench_history  |                0
 2017-02-08 20:08:53.246616+01 | 1486580933.24662 | pgbench_branches |            16384

 2017-02-08 20:08:54.329631+01 | 1486580934.32963 | pgbench_accounts |       4096401408
 2017-02-08 20:08:54.329631+01 | 1486580934.32963 | pgbench_tellers  |           139264
 2017-02-08 20:08:54.329631+01 | 1486580934.32963 | pgbench_history  |                0
 2017-02-08 20:08:54.329631+01 | 1486580934.32963 | pgbench_branches |            16384

 2017-02-08 20:08:55.405783+01 | 1486580935.40578 | pgbench_accounts |       4096401408
 2017-02-08 20:08:55.405783+01 | 1486580935.40578 | pgbench_tellers  |           139264
 2017-02-08 20:08:55.405783+01 | 1486580935.40578 | pgbench_history  |                0
 2017-02-08 20:08:55.405783+01 | 1486580935.40578 | pgbench_branches |            16384

 2017-02-08 20:08:56.500503+01 | 1486580936.5005 | pgbench_accounts |       4096401408
 2017-02-08 20:08:56.500503+01 | 1486580936.5005 | pgbench_tellers  |           139264
 2017-02-08 20:08:56.500503+01 | 1486580936.5005 | pgbench_history  |                0
 2017-02-08 20:08:56.500503+01 | 1486580936.5005 | pgbench_branches |            16384

 2017-02-08 20:08:57.590131+01 | 1486580937.59013 | pgbench_accounts |       4096401408
 2017-02-08 20:08:57.590131+01 | 1486580937.59013 | pgbench_tellers  |           139264
 2017-02-08 20:08:57.590131+01 | 1486580937.59013 | pgbench_history  |                0
 2017-02-08 20:08:57.590131+01 | 1486580937.59013 | pgbench_branches |            16384

 2017-02-08 20:08:58.663488+01 | 1486580938.66349 | pgbench_accounts |       4096401408
 2017-02-08 20:08:58.663488+01 | 1486580938.66349 | pgbench_tellers  |           139264
 2017-02-08 20:08:58.663488+01 | 1486580938.66349 | pgbench_history  |                0
 2017-02-08 20:08:58.663488+01 | 1486580938.66349 | pgbench_branches |            16384

 2017-02-08 20:08:59.73048+01 | 1486580939.73048 | pgbench_accounts |       4096401408
 2017-02-08 20:08:59.73048+01 | 1486580939.73048 | pgbench_tellers  |           139264
 2017-02-08 20:08:59.73048+01 | 1486580939.73048 | pgbench_history  |                0
 2017-02-08 20:08:59.73048+01 | 1486580939.73048 | pgbench_branches |            16384

 2017-02-08 20:09:00.799152+01 | 1486580940.79915 | pgbench_accounts |       4096401408
 2017-02-08 20:09:00.799152+01 | 1486580940.79915 | pgbench_tellers  |           139264
 2017-02-08 20:09:00.799152+01 | 1486580940.79915 | pgbench_history  |                0
 2017-02-08 20:09:00.799152+01 | 1486580940.79915 | pgbench_branches |            16384

 2017-02-08 20:09:01.875986+01 | 1486580941.87599 | pgbench_accounts |       4096401408
 2017-02-08 20:09:01.875986+01 | 1486580941.87599 | pgbench_tellers  |           139264
 2017-02-08 20:09:01.875986+01 | 1486580941.87599 | pgbench_history  |                0
 2017-02-08 20:09:01.875986+01 | 1486580941.87599 | pgbench_branches |            16384

 2017-02-08 20:09:02.934753+01 | 1486580942.93475 | pgbench_accounts |       4096401408
 2017-02-08 20:09:02.934753+01 | 1486580942.93475 | pgbench_tellers  |           139264
 2017-02-08 20:09:02.934753+01 | 1486580942.93475 | pgbench_history  |                0
 2017-02-08 20:09:02.934753+01 | 1486580942.93475 | pgbench_branches |            16384

 2017-02-08 20:09:04.030084+01 | 1486580944.03008 | pgbench_accounts |       4096401408
 2017-02-08 20:09:04.030084+01 | 1486580944.03008 | pgbench_tellers  |           139264
 2017-02-08 20:09:04.030084+01 | 1486580944.03008 | pgbench_history  |                0
 2017-02-08 20:09:04.030084+01 | 1486580944.03008 | pgbench_branches |            16384

 2017-02-08 20:09:05.103866+01 | 1486580945.10387 | pgbench_accounts |       4096401408
 2017-02-08 20:09:05.103866+01 | 1486580945.10387 | pgbench_tellers  |           139264
 2017-02-08 20:09:05.103866+01 | 1486580945.10387 | pgbench_history  |                0
 2017-02-08 20:09:05.103866+01 | 1486580945.10387 | pgbench_branches |            16384

 2017-02-08 20:09:06.178977+01 | 1486580946.17898 | pgbench_accounts |       4096401408
 2017-02-08 20:09:06.178977+01 | 1486580946.17898 | pgbench_tellers  |           139264
 2017-02-08 20:09:06.178977+01 | 1486580946.17898 | pgbench_history  |                0
 2017-02-08 20:09:06.178977+01 | 1486580946.17898 | pgbench_branches |            16384

 2017-02-08 20:09:07.247859+01 | 1486580947.24786 | pgbench_accounts |       4096401408
 2017-02-08 20:09:07.247859+01 | 1486580947.24786 | pgbench_tellers  |           139264
 2017-02-08 20:09:07.247859+01 | 1486580947.24786 | pgbench_history  |                0
 2017-02-08 20:09:07.247859+01 | 1486580947.24786 | pgbench_branches |            16384

 2017-02-08 20:09:08.329763+01 | 1486580948.32976 | pgbench_accounts |       4096401408
 2017-02-08 20:09:08.329763+01 | 1486580948.32976 | pgbench_tellers  |           139264
 2017-02-08 20:09:08.329763+01 | 1486580948.32976 | pgbench_history  |                0
 2017-02-08 20:09:08.329763+01 | 1486580948.32976 | pgbench_branches |            16384

 2017-02-08 20:09:09.405009+01 | 1486580949.40501 | pgbench_accounts |       4096401408
 2017-02-08 20:09:09.405009+01 | 1486580949.40501 | pgbench_tellers  |           139264
 2017-02-08 20:09:09.405009+01 | 1486580949.40501 | pgbench_history  |                0
 2017-02-08 20:09:09.405009+01 | 1486580949.40501 | pgbench_branches |            16384

 2017-02-08 20:09:10.478763+01 | 1486580950.47876 | pgbench_accounts |       4096401408
 2017-02-08 20:09:10.478763+01 | 1486580950.47876 | pgbench_tellers  |           139264
 2017-02-08 20:09:10.478763+01 | 1486580950.47876 | pgbench_history  |                0
 2017-02-08 20:09:10.478763+01 | 1486580950.47876 | pgbench_branches |            16384

 2017-02-08 20:09:11.558883+01 | 1486580951.55888 | pgbench_accounts |       4096401408
 2017-02-08 20:09:11.558883+01 | 1486580951.55888 | pgbench_tellers  |           139264
 2017-02-08 20:09:11.558883+01 | 1486580951.55888 | pgbench_history  |                0
 2017-02-08 20:09:11.558883+01 | 1486580951.55888 | pgbench_branches |            16384

 2017-02-08 20:09:12.633403+01 | 1486580952.6334 | pgbench_accounts |       4096401408
 2017-02-08 20:09:12.633403+01 | 1486580952.6334 | pgbench_tellers  |           139264
 2017-02-08 20:09:12.633403+01 | 1486580952.6334 | pgbench_history  |                0
 2017-02-08 20:09:12.633403+01 | 1486580952.6334 | pgbench_branches |            16384

 2017-02-08 20:09:13.70568+01 | 1486580953.70568 | pgbench_accounts |       4096401408
 2017-02-08 20:09:13.70568+01 | 1486580953.70568 | pgbench_tellers  |           139264
 2017-02-08 20:09:13.70568+01 | 1486580953.70568 | pgbench_history  |                0
 2017-02-08 20:09:13.70568+01 | 1486580953.70568 | pgbench_branches |            16384

 2017-02-08 20:09:14.771577+01 | 1486580954.77158 | pgbench_accounts |       4096401408
 2017-02-08 20:09:14.771577+01 | 1486580954.77158 | pgbench_tellers  |           139264
 2017-02-08 20:09:14.771577+01 | 1486580954.77158 | pgbench_history  |                0
 2017-02-08 20:09:14.771577+01 | 1486580954.77158 | pgbench_branches |            16384

 2017-02-08 20:09:15.828443+01 | 1486580955.82844 | pgbench_accounts |       4096401408
 2017-02-08 20:09:15.828443+01 | 1486580955.82844 | pgbench_tellers  |           139264
 2017-02-08 20:09:15.828443+01 | 1486580955.82844 | pgbench_history  |                0
 2017-02-08 20:09:15.828443+01 | 1486580955.82844 | pgbench_branches |            16384

 2017-02-08 20:09:16.90582+01 | 1486580956.90582 | pgbench_accounts |       4096401408
 2017-02-08 20:09:16.90582+01 | 1486580956.90582 | pgbench_tellers  |           139264
 2017-02-08 20:09:16.90582+01 | 1486580956.90582 | pgbench_history  |                0
 2017-02-08 20:09:16.90582+01 | 1486580956.90582 | pgbench_branches |            16384

 2017-02-08 20:09:17.988748+01 | 1486580957.98875 | pgbench_accounts |       4096401408
 2017-02-08 20:09:17.988748+01 | 1486580957.98875 | pgbench_tellers  |           139264
 2017-02-08 20:09:17.988748+01 | 1486580957.98875 | pgbench_history  |                0
 2017-02-08 20:09:17.988748+01 | 1486580957.98875 | pgbench_branches |            16384

 2017-02-08 20:09:19.070162+01 | 1486580959.07016 | pgbench_accounts |       4096401408
 2017-02-08 20:09:19.070162+01 | 1486580959.07016 | pgbench_tellers  |           139264
 2017-02-08 20:09:19.070162+01 | 1486580959.07016 | pgbench_history  |                0
 2017-02-08 20:09:19.070162+01 | 1486580959.07016 | pgbench_branches |            16384

 2017-02-08 20:09:20.131528+01 | 1486580960.13153 | pgbench_accounts |       4096401408
 2017-02-08 20:09:20.131528+01 | 1486580960.13153 | pgbench_tellers  |           139264
 2017-02-08 20:09:20.131528+01 | 1486580960.13153 | pgbench_history  |                0
 2017-02-08 20:09:20.131528+01 | 1486580960.13153 | pgbench_branches |            16384

 2017-02-08 20:09:21.210899+01 | 1486580961.2109 | pgbench_accounts |       4096401408
 2017-02-08 20:09:21.210899+01 | 1486580961.2109 | pgbench_tellers  |           139264
 2017-02-08 20:09:21.210899+01 | 1486580961.2109 | pgbench_history  |                0
 2017-02-08 20:09:21.210899+01 | 1486580961.2109 | pgbench_branches |            16384

 2017-02-08 20:09:22.291685+01 | 1486580962.29169 | pgbench_accounts |       4096401408
 2017-02-08 20:09:22.291685+01 | 1486580962.29169 | pgbench_tellers  |           139264
 2017-02-08 20:09:22.291685+01 | 1486580962.29169 | pgbench_history  |                0
 2017-02-08 20:09:22.291685+01 | 1486580962.29169 | pgbench_branches |            16384

 2017-02-08 20:09:23.371349+01 | 1486580963.37135 | pgbench_accounts |       4096401408
 2017-02-08 20:09:23.371349+01 | 1486580963.37135 | pgbench_tellers  |           139264
 2017-02-08 20:09:23.371349+01 | 1486580963.37135 | pgbench_history  |                0
 2017-02-08 20:09:23.371349+01 | 1486580963.37135 | pgbench_branches |            16384

