 2017-02-08 20:04:23.746739+01 | 1486580663.74674 | 5/FE68AA8                |           21741603496

 2017-02-08 20:04:24.817602+01 | 1486580664.8176 | 5/156E2E58               |           21834378840

 2017-02-08 20:04:25.88171+01 | 1486580665.88171 | 5/1AA47848               |           21921822792

 2017-02-08 20:04:26.95471+01 | 1486580666.95471 | 5/1F530000               |           22000369664

 2017-02-08 20:04:28.020155+01 | 1486580668.02015 | 5/23A93F60               |           22073130848

 2017-02-08 20:04:29.08845+01 | 1486580669.08845 | 5/27F2A000               |           22145048576

 2017-02-08 20:04:30.156881+01 | 1486580670.15688 | 5/2C1531B8               |           22214422968

 2017-02-08 20:04:31.216738+01 | 1486580671.21674 | 5/3007C000               |           22280650752

 2017-02-08 20:04:32.303148+01 | 1486580672.30315 | 5/33E38E00               |           22345387520

 2017-02-08 20:04:33.381948+01 | 1486580673.38195 | 5/3776B538               |           22405363000

 2017-02-08 20:04:34.453859+01 | 1486580674.45386 | 5/3AF6F5B0               |           22464099760

 2017-02-08 20:04:35.532161+01 | 1486580675.53216 | 5/3E5D3BA0               |           22521133984

 2017-02-08 20:04:36.59611+01 | 1486580676.59611 | 5/41826058               |           22573899864

 2017-02-08 20:04:37.659829+01 | 1486580677.65983 | 5/44A28000               |           22626336768

 2017-02-08 20:04:38.729361+01 | 1486580678.72936 | 5/47D91540               |           22680245568

 2017-02-08 20:04:39.792934+01 | 1486580679.79293 | 5/4ADEA000               |           22730940416

 2017-02-08 20:04:40.868689+01 | 1486580680.86869 | 5/4DA93F18               |           22777773848

 2017-02-08 20:04:41.947754+01 | 1486580681.94775 | 5/507F6D48               |           22825364808

 2017-02-08 20:04:43.018586+01 | 1486580683.01859 | 5/53423288               |           22871683720

 2017-02-08 20:04:44.087156+01 | 1486580684.08716 | 5/55C86000               |           22914031616

 2017-02-08 20:04:45.15173+01 | 1486580685.15173 | 5/5868A000               |           22958088192

 2017-02-08 20:04:46.213254+01 | 1486580686.21325 | 5/5B0D3AA0               |           23002430112

 2017-02-08 20:04:47.301491+01 | 1486580687.30149 | 5/5D9A2558               |           23045219672

 2017-02-08 20:04:48.365654+01 | 1486580688.36565 | 5/5FF66000               |           23084818432

 2017-02-08 20:04:49.429747+01 | 1486580689.42975 | 5/6261C808               |           23125411848

 2017-02-08 20:04:50.496187+01 | 1486580690.49619 | 5/64CCB790               |           23165974416

 2017-02-08 20:04:51.560899+01 | 1486580691.5609 | 5/670FD378               |           23203926904

 2017-02-08 20:04:52.633986+01 | 1486580692.63399 | 5/695647D0               |           23242098640

 2017-02-08 20:04:53.704664+01 | 1486580693.70466 | 5/6B943C30               |           23279713328

 2017-02-08 20:04:54.7672+01 | 1486580694.7672 | 5/6DB4EF78               |           23315410808

 2017-02-08 20:04:55.832746+01 | 1486580695.83275 | 5/6FD17780               |           23350835072

 2017-02-08 20:04:56.91364+01 | 1486580696.91364 | 5/72022B28               |           23387581224

 2017-02-08 20:04:57.988473+01 | 1486580697.98847 | 5/740CA000               |           23421820928

 2017-02-08 20:04:59.054385+01 | 1486580699.05438 | 5/76249800               |           23456946176

 2017-02-08 20:05:00.138195+01 | 1486580700.1382 | 5/7840EC68               |           23492357224

 2017-02-08 20:05:01.215749+01 | 1486580701.21575 | 5/7A3D71D0               |           23525683664

 2017-02-08 20:05:02.283158+01 | 1486580702.28316 | 5/7C33C000               |           23558602752

 2017-02-08 20:05:03.353687+01 | 1486580703.35369 | 5/7E287EA0               |           23591419552

 2017-02-08 20:05:04.417177+01 | 1486580704.41718 | 5/801955C0               |           23623980480

 2017-02-08 20:05:05.487794+01 | 1486580705.48779 | 5/81F2E500               |           23655015680

 2017-02-08 20:05:06.559524+01 | 1486580706.55952 | 5/83B1E000               |           23684308992

 2017-02-08 20:05:07.626106+01 | 1486580707.62611 | 5/8594A640               |           23715948096

 2017-02-08 20:05:08.694367+01 | 1486580708.69437 | 5/876722C0               |           23746519744

 2017-02-08 20:05:09.776844+01 | 1486580709.77684 | 5/893A22F0               |           23777125104

 2017-02-08 20:05:10.852442+01 | 1486580710.85244 | 5/8B08D180               |           23807447424

 2017-02-08 20:05:11.922215+01 | 1486580711.92221 | 5/8CC8A810               |           23836796944

 2017-02-08 20:05:12.984882+01 | 1486580712.98488 | 5/8E83C990               |           23865837968

 2017-02-08 20:05:14.05174+01 | 1486580714.05174 | 5/903BFBD0               |           23894686672

 2017-02-08 20:05:15.123773+01 | 1486580715.12377 | 5/91F3C0B0               |           23923507376

 2017-02-08 20:05:16.176939+01 | 1486580716.17694 | 5/93970000               |           23950983168

 2017-02-08 20:05:17.259107+01 | 1486580717.25911 | 5/953B0000               |           23978508288

 2017-02-08 20:05:18.328993+01 | 1486580718.32899 | 5/96DEFE20               |           24006032928

 2017-02-08 20:05:19.403503+01 | 1486580719.4035 | 5/98702510               |           24032322832

 2017-02-08 20:05:20.485573+01 | 1486580720.48557 | 5/9A198D38               |           24060202296

 2017-02-08 20:05:21.565594+01 | 1486580721.56559 | 5/9BB15338               |           24086926136

 2017-02-08 20:05:22.645349+01 | 1486580722.64535 | 5/9D3701A8               |           24112464296

 2017-02-08 20:05:23.716843+01 | 1486580723.71684 | 5/9EBAA558               |           24137868632

 2017-02-08 20:05:24.800678+01 | 1486580724.80068 | 5/A0340430               |           24162599984

 2017-02-08 20:05:25.872035+01 | 1486580725.87204 | 5/A1A92E40               |           24187055680

 2017-02-08 20:05:26.960444+01 | 1486580726.96044 | 5/A32D6000               |           24212496384

 2017-02-08 20:05:28.028798+01 | 1486580728.0288 | 5/A48E6CB0               |           24235633840

 2017-02-08 20:05:29.107323+01 | 1486580729.10732 | 5/A6016000               |           24259944448

 2017-02-08 20:05:30.178431+01 | 1486580730.17843 | 5/A76ACD80               |           24283630976

 2017-02-08 20:05:31.237305+01 | 1486580731.2373 | 5/A8C59E90               |           24306359952

 2017-02-08 20:05:32.311112+01 | 1486580732.31111 | 5/AA321B98               |           24330247064

 2017-02-08 20:05:33.376824+01 | 1486580733.37682 | 5/AB9568A0               |           24353532064

 2017-02-08 20:05:34.459752+01 | 1486580734.45975 | 5/ACEFC000               |           24376229888

 2017-02-08 20:05:35.527832+01 | 1486580735.52783 | 5/AE4AA9C0               |           24398965184

 2017-02-08 20:05:36.606746+01 | 1486580736.60675 | 5/AFA15C28               |           24421424168

 2017-02-08 20:05:37.67123+01 | 1486580737.67123 | 5/B0EF7160               |           24443318624

 2017-02-08 20:05:38.744807+01 | 1486580738.74481 | 5/B2471258               |           24465838680

 2017-02-08 20:05:39.828126+01 | 1486580739.82813 | 5/B384E000               |           24486666240

 2017-02-08 20:05:40.893433+01 | 1486580740.89343 | 5/B4CAE000               |           24508030976

 2017-02-08 20:05:41.977576+01 | 1486580741.97758 | 5/B613A230               |           24529576496

 2017-02-08 20:05:43.054649+01 | 1486580743.05465 | 5/B756A000               |           24550744064

 2017-02-08 20:05:44.124056+01 | 1486580744.12406 | 5/B8978BE8               |           24571775976

 2017-02-08 20:05:45.204046+01 | 1486580745.20405 | 5/B9D4FD18               |           24592579864

 2017-02-08 20:05:46.286777+01 | 1486580746.28678 | 5/BB0399F8               |           24612411896

 2017-02-08 20:05:47.349968+01 | 1486580747.34997 | 5/BC265E38               |           24631467576

 2017-02-08 20:05:48.424406+01 | 1486580748.42441 | 5/BD471D80               |           24650390912

 2017-02-08 20:05:49.498653+01 | 1486580749.49865 | 5/BE6FA3A8               |           24669823912

 2017-02-08 20:05:50.56678+01 | 1486580750.56678 | 5/BF922400               |           24688862208

 2017-02-08 20:05:51.646781+01 | 1486580751.64678 | 5/C0A8A660               |           24707114592

 2017-02-08 20:05:52.723785+01 | 1486580752.72378 | 5/C1C44000               |           24725700608

 2017-02-08 20:05:53.795381+01 | 1486580753.79538 | 5/C2CDCA30               |           24743103024

 2017-02-08 20:05:54.861623+01 | 1486580754.86162 | 5/C3E1ECC0               |           24761199808

 2017-02-08 20:05:55.924484+01 | 1486580755.92448 | 5/C4F008F8               |           24778901752

 2017-02-08 20:05:57.000392+01 | 1486580757.00039 | 5/C5EF0000               |           24795611136

 2017-02-08 20:05:58.06422+01 | 1486580758.06422 | 5/C6FC4918               |           24813259032

 2017-02-08 20:05:59.134618+01 | 1486580759.13462 | 5/C80D8000               |           24831164416

 2017-02-08 20:06:00.233264+01 | 1486580760.23326 | 5/C9104918               |           24848124184

 2017-02-08 20:06:01.309524+01 | 1486580761.30952 | 5/CA123E88               |           24865029768

 2017-02-08 20:06:02.374668+01 | 1486580762.37467 | 5/CB1081F0               |           24881693168

 2017-02-08 20:06:03.443257+01 | 1486580763.44326 | 5/CC09DDE0               |           24898035168

 2017-02-08 20:06:04.505315+01 | 1486580764.50532 | 5/CD09D688               |           24914810504

 2017-02-08 20:06:05.573271+01 | 1486580765.57327 | 5/CDF3BDE0               |           24930139616

 2017-02-08 20:06:06.63967+01 | 1486580766.63967 | 5/CEE6DC58               |           24946072664

 2017-02-08 20:06:07.731453+01 | 1486580767.73145 | 5/CFDDE528               |           24962262312

 2017-02-08 20:06:08.785313+01 | 1486580768.78531 | 5/D0BDE000               |           24976941056

 2017-02-08 20:06:09.847969+01 | 1486580769.84797 | 5/D1A48348               |           24992056136

 2017-02-08 20:06:10.924782+01 | 1486580770.92478 | 5/D27DAFC0               |           25006288832

 2017-02-08 20:06:11.997473+01 | 1486580771.99747 | 5/D360E000               |           25021177856

 2017-02-08 20:06:13.053866+01 | 1486580773.05387 | 5/D4436610               |           25036023312

 2017-02-08 20:06:14.122866+01 | 1486580774.12287 | 5/D518D740               |           25050011456

 2017-02-08 20:06:15.190764+01 | 1486580775.19076 | 5/D5E41A58               |           25063332440

 2017-02-08 20:06:16.263394+01 | 1486580776.26339 | 5/D6BED100               |           25077666048

 2017-02-08 20:06:17.341657+01 | 1486580777.34166 | 5/D7972958               |           25091844440

 2017-02-08 20:06:18.432028+01 | 1486580778.43203 | 5/D86D55A8               |           25105880488

 2017-02-08 20:06:19.515002+01 | 1486580779.515 | 5/D9476000               |           25120169984

 2017-02-08 20:06:20.575432+01 | 1486580780.57543 | 5/DA0F8720               |           25133287200

 2017-02-08 20:06:21.639804+01 | 1486580781.6398 | 5/DACF9C58               |           25145875544

 2017-02-08 20:06:22.710526+01 | 1486580782.71053 | 5/DB9663E8               |           25158902760

 2017-02-08 20:06:23.77957+01 | 1486580783.77957 | 5/DC520470               |           25171199088

 2017-02-08 20:06:24.853989+01 | 1486580784.85399 | 5/DD207058               |           25184727128

 2017-02-08 20:06:25.93231+01 | 1486580785.93231 | 5/DDE8AFF8               |           25197850616

 2017-02-08 20:06:26.994768+01 | 1486580786.99477 | 5/DEAADAF8               |           25210575608

 2017-02-08 20:06:28.0679+01 | 1486580788.0679 | 5/DF704100               |           25223512320

 2017-02-08 20:06:29.145867+01 | 1486580789.14587 | 5/E02013A0               |           25235035040

 2017-02-08 20:06:30.217506+01 | 1486580790.21751 | 5/E0D68910               |           25246992656

 2017-02-08 20:06:31.292306+01 | 1486580791.29231 | 5/E197C338               |           25259655992

 2017-02-08 20:06:32.374388+01 | 1486580792.37439 | 5/E2470258               |           25271140952

 2017-02-08 20:06:33.447423+01 | 1486580793.44742 | 5/E301A000               |           25283371008

 2017-02-08 20:06:34.537019+01 | 1486580794.53702 | 5/E3B2E3E8               |           25294988264

 2017-02-08 20:06:35.601963+01 | 1486580795.60196 | 5/E4522238               |           25305424440

 2017-02-08 20:06:36.671375+01 | 1486580796.67138 | 5/E4FA3010               |           25316438032

 2017-02-08 20:06:37.743101+01 | 1486580797.7431 | 5/E5A50840               |           25327634496

 2017-02-08 20:06:38.803058+01 | 1486580798.80306 | 5/E64EC3A8               |           25338758056

 2017-02-08 20:06:39.876551+01 | 1486580799.87655 | 5/E6F78338               |           25349817144

 2017-02-08 20:06:40.945143+01 | 1486580800.94514 | 5/E7997560               |           25360430432

 2017-02-08 20:06:42.018672+01 | 1486580802.01867 | 5/E8425898               |           25371498648

 2017-02-08 20:06:43.119759+01 | 1486580803.11976 | 5/E8ECCDA0               |           25382669728

 2017-02-08 20:06:44.178742+01 | 1486580804.17874 | 5/E98EF358               |           25393296216

 2017-02-08 20:06:45.274028+01 | 1486580805.27403 | 5/EA2D6030               |           25403678768

 2017-02-08 20:06:46.358125+01 | 1486580806.35812 | 5/EAC203D8               |           25413419992

 2017-02-08 20:06:47.420949+01 | 1486580807.42095 | 5/EB562118               |           25423126808

 2017-02-08 20:06:48.49732+01 | 1486580808.49732 | 5/EBE3A708               |           25432401672

 2017-02-08 20:06:49.558777+01 | 1486580809.55878 | 5/EC781718               |           25442129688

 2017-02-08 20:06:50.642889+01 | 1486580810.64289 | 5/ED1011C0               |           25452089792

 2017-02-08 20:06:51.707613+01 | 1486580811.70761 | 5/EDA4A230               |           25461826096

 2017-02-08 20:06:52.786535+01 | 1486580812.78654 | 5/EE362F48               |           25471364936

 2017-02-08 20:06:53.857906+01 | 1486580813.85791 | 5/EECE2CE0               |           25481325792

 2017-02-08 20:06:54.941175+01 | 1486580814.94117 | 5/EF521EA8               |           25489972904

 2017-02-08 20:06:56.008433+01 | 1486580816.00843 | 5/EFE25750               |           25499424592

 2017-02-08 20:06:57.085101+01 | 1486580817.0851 | 5/F0742448               |           25508979784

 2017-02-08 20:06:58.162616+01 | 1486580818.16262 | 5/F10064C0               |           25518171328

 2017-02-08 20:06:59.244705+01 | 1486580819.2447 | 5/F1863E40               |           25526943296

 2017-02-08 20:07:00.318298+01 | 1486580820.3183 | 5/F2059CC0               |           25535290560

 2017-02-08 20:07:01.395112+01 | 1486580821.39511 | 5/F28BFE98               |           25544097432

 2017-02-08 20:07:02.470031+01 | 1486580822.47003 | 5/F30ACFA8               |           25552408488

 2017-02-08 20:07:03.554903+01 | 1486580823.5549 | 5/F38EC2E0               |           25561055968

 2017-02-08 20:07:04.633919+01 | 1486580824.63392 | 5/F413F970               |           25569786224

 2017-02-08 20:07:05.73877+01 | 1486580825.73877 | 5/F48CBFC8               |           25577701320

 2017-02-08 20:07:06.800374+01 | 1486580826.80037 | 5/F5076BB8               |           25585740728

 2017-02-08 20:07:07.874179+01 | 1486580827.87418 | 5/F57DFCE8               |           25593511144

 2017-02-08 20:07:08.947845+01 | 1486580828.94784 | 5/F5F80950               |           25601509712

 2017-02-08 20:07:10.023469+01 | 1486580830.02347 | 5/F6725A98               |           25609525912

 2017-02-08 20:07:11.092047+01 | 1486580831.09205 | 5/F6E72D20               |           25617181984

 2017-02-08 20:07:12.159961+01 | 1486580832.15996 | 5/F766A650               |           25625536080

 2017-02-08 20:07:13.228926+01 | 1486580833.22893 | 5/F7D8D018               |           25633017880

 2017-02-08 20:07:14.312745+01 | 1486580834.31275 | 5/F84D3128               |           25640644904

 2017-02-08 20:07:15.388321+01 | 1486580835.38832 | 5/F8C30518               |           25648366872

 2017-02-08 20:07:16.454817+01 | 1486580836.45482 | 5/F931B000               |           25655619584

 2017-02-08 20:07:17.532639+01 | 1486580837.53264 | 5/F9A7E310               |           25663365904

 2017-02-08 20:07:18.602114+01 | 1486580838.60211 | 5/FA10B3F0               |           25670235120

 2017-02-08 20:07:19.687728+01 | 1486580839.68773 | 5/FA7E4E50               |           25677418064

 2017-02-08 20:07:20.77385+01 | 1486580840.77385 | 5/FAF21638               |           25685005880

 2017-02-08 20:07:21.870767+01 | 1486580841.87077 | 5/FB5BF4E8               |           25691944168

 2017-02-08 20:07:22.947071+01 | 1486580842.94707 | 5/FBBF69E8               |           25698462184

 2017-02-08 20:07:24.031173+01 | 1486580844.03117 | 5/FC32A000               |           25706012672

 2017-02-08 20:07:25.112366+01 | 1486580845.11237 | 5/FC980050               |           25712656464

 2017-02-08 20:07:26.189144+01 | 1486580846.18914 | 5/FD025118               |           25719623960

 2017-02-08 20:07:27.264497+01 | 1486580847.2645 | 5/FD642780               |           25726035840

 2017-02-08 20:07:28.338623+01 | 1486580848.33862 | 5/FDC463A8               |           25732342696

 2017-02-08 20:07:29.446267+01 | 1486580849.44627 | 5/FE2D6470               |           25739224176

 2017-02-08 20:07:30.515017+01 | 1486580850.51502 | 5/FE8C2CD8               |           25745435864

 2017-02-08 20:07:31.591191+01 | 1486580851.59119 | 5/FEF14C00               |           25752062976

 2017-02-08 20:07:32.66119+01 | 1486580852.66119 | 5/FF50BF80               |           25758318464

 2017-02-08 20:07:33.735808+01 | 1486580853.73581 | 5/FFB06C28               |           25764588584

 2017-02-08 20:07:34.812636+01 | 1486580854.81264 | 6/153C48                 |           25771195464

 2017-02-08 20:07:35.892438+01 | 1486580855.89244 | 6/737E60                 |           25777372768

 2017-02-08 20:07:36.954715+01 | 1486580856.95472 | 6/CA9478                 |           25783080056

 2017-02-08 20:07:38.034524+01 | 1486580858.03452 | 6/12B6000                |           25789423616

 2017-02-08 20:07:39.11198+01 | 1486580859.11198 | 6/1822448                |           25795109960

 2017-02-08 20:07:40.176847+01 | 1486580860.17685 | 6/1DC9798                |           25801037720

 2017-02-08 20:07:41.246242+01 | 1486580861.24624 | 6/2375B18                |           25806986008

 2017-02-08 20:07:42.308834+01 | 1486580862.30883 | 6/28C6B20                |           25812560672

 2017-02-08 20:07:43.38368+01 | 1486580863.38368 | 6/2E3E628                |           25818293800

 2017-02-08 20:07:44.477839+01 | 1486580864.47784 | 6/339BBB0                |           25823919024

 2017-02-08 20:07:45.55992+01 | 1486580865.55992 | 6/3913958                |           25829652824

 2017-02-08 20:07:46.627926+01 | 1486580866.62793 | 6/3E1F5D0                |           25834943952

 2017-02-08 20:07:47.695621+01 | 1486580867.69562 | 6/43BFC48                |           25840843848

 2017-02-08 20:07:48.764447+01 | 1486580868.76445 | 6/4906DC0                |           25846377920

 2017-02-08 20:07:49.830258+01 | 1486580869.83026 | 6/4DE0A98                |           25851464344

 2017-02-08 20:07:50.901074+01 | 1486580870.90107 | 6/535F308                |           25857225480

 2017-02-08 20:07:51.971681+01 | 1486580871.97168 | 6/5877D58                |           25862569304

 2017-02-08 20:07:53.041066+01 | 1486580873.04107 | 6/5D742F8                |           25867797240

 2017-02-08 20:07:54.115438+01 | 1486580874.11544 | 6/6293440                |           25873167424

 2017-02-08 20:07:55.183562+01 | 1486580875.18356 | 6/674DF10                |           25878126352

 2017-02-08 20:07:56.254205+01 | 1486580876.2542 | 6/6C192A0                |           25883153056

 2017-02-08 20:07:57.326137+01 | 1486580877.32614 | 6/7116578                |           25888384376

 2017-02-08 20:07:58.41613+01 | 1486580878.41613 | 6/7629410                |           25893704720

 2017-02-08 20:07:59.489143+01 | 1486580879.48914 | 6/7B05148                |           25898799432

 2017-02-08 20:08:00.570802+01 | 1486580880.5708 | 6/7F9C680                |           25903613568

 2017-02-08 20:08:01.644939+01 | 1486580881.64494 | 6/8432700                |           25908422400

 2017-02-08 20:08:02.73311+01 | 1486580882.73311 | 6/88AB9F0                |           25913113072

 2017-02-08 20:08:03.800101+01 | 1486580883.8001 | 6/8D5B878                |           25918027896

 2017-02-08 20:08:04.883176+01 | 1486580884.88318 | 6/91C0FC0                |           25922637760

 2017-02-08 20:08:05.959195+01 | 1486580885.95919 | 6/969F6E0                |           25927743200

 2017-02-08 20:08:07.047894+01 | 1486580887.04789 | 6/9B4FEE8                |           25932660456

 2017-02-08 20:08:08.126575+01 | 1486580888.12657 | 6/9FBB9E0                |           25937295840

 2017-02-08 20:08:09.215243+01 | 1486580889.21524 | 6/A438698                |           25942001304

 2017-02-08 20:08:10.296596+01 | 1486580890.2966 | 6/A86E898                |           25946417304

 2017-02-08 20:08:11.367569+01 | 1486580891.36757 | 6/AD0FA98                |           25951271576

 2017-02-08 20:08:12.451444+01 | 1486580892.45144 | 6/B1624E8                |           25955804392

 2017-02-08 20:08:13.51547+01 | 1486580893.51547 | 6/B5A87C0                |           25960286144

 2017-02-08 20:08:14.58442+01 | 1486580894.58442 | 6/B9DDA98                |           25964698264

 2017-02-08 20:08:15.65225+01 | 1486580895.65225 | 6/BDE7580                |           25968932224

 2017-02-08 20:08:16.744549+01 | 1486580896.74455 | 6/C262198                |           25973629336

 2017-02-08 20:08:17.835407+01 | 1486580897.83541 | 6/C665E20                |           25977839136

 2017-02-08 20:08:18.903876+01 | 1486580898.90388 | 6/CAD16A0                |           25982473888

 2017-02-08 20:08:19.970024+01 | 1486580899.97002 | 6/CEE4D10                |           25986747664

 2017-02-08 20:08:21.077965+01 | 1486580901.07797 | 6/D2A4448                |           25990677576

 2017-02-08 20:08:22.148239+01 | 1486580902.14824 | 6/D68B178                |           25994768760

 2017-02-08 20:08:23.229382+01 | 1486580903.22938 | 6/DA28000                |           25998557184

 2017-02-08 20:08:24.310904+01 | 1486580904.3109 | 6/DE4B8E0                |           26002897120

 2017-02-08 20:08:25.384314+01 | 1486580905.38431 | 6/E215108                |           26006868232

 2017-02-08 20:08:26.439528+01 | 1486580906.43953 | 6/E5F63D0                |           26010936272

 2017-02-08 20:08:27.51217+01 | 1486580907.51217 | 6/E9CBD40                |           26014956864

 2017-02-08 20:08:28.574688+01 | 1486580908.57469 | 6/ED51458                |           26018649176

 2017-02-08 20:08:29.64178+01 | 1486580909.64178 | 6/F100510                |           26022511888

 2017-02-08 20:08:30.710274+01 | 1486580910.71027 | 6/F4E3168                |           26026586472

 2017-02-08 20:08:31.771783+01 | 1486580911.77178 | 6/F88C1F8                |           26030424568

 2017-02-08 20:08:32.840197+01 | 1486580912.8402 | 6/FC70B18                |           26034506520

 2017-02-08 20:08:33.899412+01 | 1486580913.89941 | 6/FFE5E48                |           26038132296

 2017-02-08 20:08:34.97152+01 | 1486580914.97152 | 6/10390638               |           26041976376

 2017-02-08 20:08:36.039445+01 | 1486580916.03944 | 6/10701480               |           26045584512

 2017-02-08 20:08:37.098538+01 | 1486580917.09854 | 6/10A5ADE8               |           26049097192

 2017-02-08 20:08:38.163394+01 | 1486580918.16339 | 6/10DFEAD0               |           26052913872

 2017-02-08 20:08:39.240619+01 | 1486580919.24062 | 6/11123D18               |           26056211736

 2017-02-08 20:08:40.320835+01 | 1486580920.32084 | 6/114ADF60               |           26059923296

 2017-02-08 20:08:41.404927+01 | 1486580921.40493 | 6/117F4CA8               |           26063359144

 2017-02-08 20:08:42.471602+01 | 1486580922.4716 | 6/11B638F0               |           26066958576

 2017-02-08 20:08:43.548109+01 | 1486580923.54811 | 6/11EBF868               |           26070481000

 2017-02-08 20:08:44.614692+01 | 1486580924.61469 | 6/12203968               |           26073905512

 2017-02-08 20:08:45.709263+01 | 1486580925.70926 | 6/12560070               |           26077429872

 2017-02-08 20:08:46.793765+01 | 1486580926.79377 | 6/12867270               |           26080604784

 2017-02-08 20:08:47.856926+01 | 1486580927.85693 | 6/12BA4468               |           26084000872

 2017-02-08 20:08:48.92531+01 | 1486580928.92531 | 6/12EFFCD8               |           26087521496

 2017-02-08 20:08:49.988423+01 | 1486580929.98842 | 6/1320F608               |           26090731016

 2017-02-08 20:08:51.053222+01 | 1486580931.05322 | 6/135584D8               |           26094175448

 2017-02-08 20:08:52.122546+01 | 1486580932.12255 | 6/138691F8               |           26097390072

 2017-02-08 20:08:53.206314+01 | 1486580933.20631 | 6/13BAFD90               |           26100825488

 2017-02-08 20:08:54.268829+01 | 1486580934.26883 | 6/13ECBAD0               |           26104085200

 2017-02-08 20:08:55.356396+01 | 1486580935.3564 | 6/141D5BF0               |           26107272176

 2017-02-08 20:08:56.439811+01 | 1486580936.43981 | 6/14512000               |           26110664704

 2017-02-08 20:08:57.541043+01 | 1486580937.54104 | 6/1481CF08               |           26113855240

 2017-02-08 20:08:58.625152+01 | 1486580938.62515 | 6/14B1B8C0               |           26116995264

 2017-02-08 20:08:59.690501+01 | 1486580939.6905 | 6/14E2CF88               |           26120212360

 2017-02-08 20:09:00.755717+01 | 1486580940.75572 | 6/15129558               |           26123343192

 2017-02-08 20:09:01.830569+01 | 1486580941.83057 | 6/1545A828               |           26126690344

 2017-02-08 20:09:02.896959+01 | 1486580942.89696 | 6/157211C8               |           26129600968

 2017-02-08 20:09:03.965449+01 | 1486580943.96545 | 6/15A35BB8               |           26132831160

 2017-02-08 20:09:05.058247+01 | 1486580945.05825 | 6/15D4F5F8               |           26136081912

 2017-02-08 20:09:06.123138+01 | 1486580946.12314 | 6/16021EC0               |           26139041472

 2017-02-08 20:09:07.210312+01 | 1486580947.21031 | 6/16316C98               |           26142141592

 2017-02-08 20:09:08.270883+01 | 1486580948.27088 | 6/165F4E70               |           26145148528

 2017-02-08 20:09:09.361495+01 | 1486580949.3615 | 6/168E7650               |           26148238928

 2017-02-08 20:09:10.434438+01 | 1486580950.43444 | 6/16BBCF90               |           26151210896

 2017-02-08 20:09:11.499478+01 | 1486580951.49948 | 6/16E6FC68               |           26154040424

 2017-02-08 20:09:12.585541+01 | 1486580952.58554 | 6/17120C20               |           26156862496

 2017-02-08 20:09:13.662465+01 | 1486580953.66247 | 6/173E8D70               |           26159779184

 2017-02-08 20:09:14.731019+01 | 1486580954.73102 | 6/176B2848               |           26162702408

 2017-02-08 20:09:15.7954+01 | 1486580955.7954 | 6/1795C6A0               |           26165495456

 2017-02-08 20:09:16.850634+01 | 1486580956.85063 | 6/17BE8D70               |           26168167792

 2017-02-08 20:09:17.946265+01 | 1486580957.94626 | 6/17ECCA88               |           26171198088

 2017-02-08 20:09:19.015452+01 | 1486580959.01545 | 6/181922F8               |           26174104312

 2017-02-08 20:09:20.092058+01 | 1486580960.09206 | 6/18450000               |           26176978944

 2017-02-08 20:09:21.168105+01 | 1486580961.1681 | 6/1871B1C8               |           26179908040

 2017-02-08 20:09:22.238284+01 | 1486580962.23828 | 6/189E8ED0               |           26182848208

 2017-02-08 20:09:23.324444+01 | 1486580963.32444 | 6/18C9B250               |           26185675344

