 2017-02-10 15:41:25.33547+01 | 1486737685.33547 | pgbench_branches_pkey |            16384
 2017-02-10 15:41:25.33547+01 | 1486737685.33547 | pgbench_tellers_pkey  |            90112
 2017-02-10 15:41:25.33547+01 | 1486737685.33547 | pgbench_accounts_pkey |        690167808

 2017-02-10 15:41:26.387282+01 | 1486737686.38728 | pgbench_branches_pkey |            16384
 2017-02-10 15:41:26.387282+01 | 1486737686.38728 | pgbench_tellers_pkey  |            90112
 2017-02-10 15:41:26.387282+01 | 1486737686.38728 | pgbench_accounts_pkey |        690167808

 2017-02-10 15:41:27.436686+01 | 1486737687.43669 | pgbench_branches_pkey |            16384
 2017-02-10 15:41:27.436686+01 | 1486737687.43669 | pgbench_tellers_pkey  |            90112
 2017-02-10 15:41:27.436686+01 | 1486737687.43669 | pgbench_accounts_pkey |        690167808

 2017-02-10 15:41:28.488108+01 | 1486737688.48811 | pgbench_branches_pkey |            16384
 2017-02-10 15:41:28.488108+01 | 1486737688.48811 | pgbench_tellers_pkey  |            90112
 2017-02-10 15:41:28.488108+01 | 1486737688.48811 | pgbench_accounts_pkey |        690167808

 2017-02-10 15:41:29.537058+01 | 1486737689.53706 | pgbench_branches_pkey |            16384
 2017-02-10 15:41:29.537058+01 | 1486737689.53706 | pgbench_tellers_pkey  |            90112
 2017-02-10 15:41:29.537058+01 | 1486737689.53706 | pgbench_accounts_pkey |        690167808

 2017-02-10 15:41:30.588347+01 | 1486737690.58835 | pgbench_branches_pkey |            16384
 2017-02-10 15:41:30.588347+01 | 1486737690.58835 | pgbench_tellers_pkey  |            90112
 2017-02-10 15:41:30.588347+01 | 1486737690.58835 | pgbench_accounts_pkey |        690167808

 2017-02-10 15:41:31.641173+01 | 1486737691.64117 | pgbench_branches_pkey |            16384
 2017-02-10 15:41:31.641173+01 | 1486737691.64117 | pgbench_tellers_pkey  |            90112
 2017-02-10 15:41:31.641173+01 | 1486737691.64117 | pgbench_accounts_pkey |        690167808

 2017-02-10 15:41:32.691788+01 | 1486737692.69179 | pgbench_branches_pkey |            16384
 2017-02-10 15:41:32.691788+01 | 1486737692.69179 | pgbench_tellers_pkey  |            90112
 2017-02-10 15:41:32.691788+01 | 1486737692.69179 | pgbench_accounts_pkey |        690167808

 2017-02-10 15:41:33.742557+01 | 1486737693.74256 | pgbench_branches_pkey |            16384
 2017-02-10 15:41:33.742557+01 | 1486737693.74256 | pgbench_tellers_pkey  |            90112
 2017-02-10 15:41:33.742557+01 | 1486737693.74256 | pgbench_accounts_pkey |        690167808

 2017-02-10 15:41:34.791998+01 | 1486737694.792 | pgbench_branches_pkey |            16384
 2017-02-10 15:41:34.791998+01 | 1486737694.792 | pgbench_tellers_pkey  |            90112
 2017-02-10 15:41:34.791998+01 | 1486737694.792 | pgbench_accounts_pkey |        690167808

 2017-02-10 15:41:35.841648+01 | 1486737695.84165 | pgbench_branches_pkey |            16384
 2017-02-10 15:41:35.841648+01 | 1486737695.84165 | pgbench_tellers_pkey  |            90112
 2017-02-10 15:41:35.841648+01 | 1486737695.84165 | pgbench_accounts_pkey |        690167808

 2017-02-10 15:41:36.894829+01 | 1486737696.89483 | pgbench_branches_pkey |            16384
 2017-02-10 15:41:36.894829+01 | 1486737696.89483 | pgbench_tellers_pkey  |            90112
 2017-02-10 15:41:36.894829+01 | 1486737696.89483 | pgbench_accounts_pkey |        690167808

 2017-02-10 15:41:37.949969+01 | 1486737697.94997 | pgbench_branches_pkey |            16384
 2017-02-10 15:41:37.949969+01 | 1486737697.94997 | pgbench_tellers_pkey  |            90112
 2017-02-10 15:41:37.949969+01 | 1486737697.94997 | pgbench_accounts_pkey |        690167808

 2017-02-10 15:41:39.003587+01 | 1486737699.00359 | pgbench_branches_pkey |            16384
 2017-02-10 15:41:39.003587+01 | 1486737699.00359 | pgbench_tellers_pkey  |            90112
 2017-02-10 15:41:39.003587+01 | 1486737699.00359 | pgbench_accounts_pkey |        690167808

 2017-02-10 15:41:40.058028+01 | 1486737700.05803 | pgbench_branches_pkey |            16384
 2017-02-10 15:41:40.058028+01 | 1486737700.05803 | pgbench_tellers_pkey  |            90112
 2017-02-10 15:41:40.058028+01 | 1486737700.05803 | pgbench_accounts_pkey |        690167808

 2017-02-10 15:41:41.110925+01 | 1486737701.11092 | pgbench_branches_pkey |            16384
 2017-02-10 15:41:41.110925+01 | 1486737701.11092 | pgbench_tellers_pkey  |            90112
 2017-02-10 15:41:41.110925+01 | 1486737701.11092 | pgbench_accounts_pkey |        690167808

 2017-02-10 15:41:42.161112+01 | 1486737702.16111 | pgbench_branches_pkey |            16384
 2017-02-10 15:41:42.161112+01 | 1486737702.16111 | pgbench_tellers_pkey  |            90112
 2017-02-10 15:41:42.161112+01 | 1486737702.16111 | pgbench_accounts_pkey |        690167808

 2017-02-10 15:41:43.211815+01 | 1486737703.21182 | pgbench_branches_pkey |            16384
 2017-02-10 15:41:43.211815+01 | 1486737703.21182 | pgbench_tellers_pkey  |            90112
 2017-02-10 15:41:43.211815+01 | 1486737703.21182 | pgbench_accounts_pkey |        690167808

 2017-02-10 15:41:44.261275+01 | 1486737704.26128 | pgbench_branches_pkey |            16384
 2017-02-10 15:41:44.261275+01 | 1486737704.26128 | pgbench_tellers_pkey  |            90112
 2017-02-10 15:41:44.261275+01 | 1486737704.26128 | pgbench_accounts_pkey |        690167808

 2017-02-10 15:41:45.312014+01 | 1486737705.31201 | pgbench_branches_pkey |            16384
 2017-02-10 15:41:45.312014+01 | 1486737705.31201 | pgbench_tellers_pkey  |            90112
 2017-02-10 15:41:45.312014+01 | 1486737705.31201 | pgbench_accounts_pkey |        690167808

 2017-02-10 15:41:46.364577+01 | 1486737706.36458 | pgbench_branches_pkey |            16384
 2017-02-10 15:41:46.364577+01 | 1486737706.36458 | pgbench_tellers_pkey  |            90112
 2017-02-10 15:41:46.364577+01 | 1486737706.36458 | pgbench_accounts_pkey |        690167808

 2017-02-10 15:41:47.41779+01 | 1486737707.41779 | pgbench_branches_pkey |            16384
 2017-02-10 15:41:47.41779+01 | 1486737707.41779 | pgbench_tellers_pkey  |            90112
 2017-02-10 15:41:47.41779+01 | 1486737707.41779 | pgbench_accounts_pkey |        690167808

 2017-02-10 15:41:48.470696+01 | 1486737708.4707 | pgbench_branches_pkey |            16384
 2017-02-10 15:41:48.470696+01 | 1486737708.4707 | pgbench_tellers_pkey  |            90112
 2017-02-10 15:41:48.470696+01 | 1486737708.4707 | pgbench_accounts_pkey |        690167808

 2017-02-10 15:41:49.524044+01 | 1486737709.52404 | pgbench_branches_pkey |            16384
 2017-02-10 15:41:49.524044+01 | 1486737709.52404 | pgbench_tellers_pkey  |            90112
 2017-02-10 15:41:49.524044+01 | 1486737709.52404 | pgbench_accounts_pkey |        690167808

 2017-02-10 15:41:50.573883+01 | 1486737710.57388 | pgbench_branches_pkey |            16384
 2017-02-10 15:41:50.573883+01 | 1486737710.57388 | pgbench_tellers_pkey  |            90112
 2017-02-10 15:41:50.573883+01 | 1486737710.57388 | pgbench_accounts_pkey |        690167808

 2017-02-10 15:41:51.624389+01 | 1486737711.62439 | pgbench_branches_pkey |            16384
 2017-02-10 15:41:51.624389+01 | 1486737711.62439 | pgbench_tellers_pkey  |            90112
 2017-02-10 15:41:51.624389+01 | 1486737711.62439 | pgbench_accounts_pkey |        690167808

 2017-02-10 15:41:52.676322+01 | 1486737712.67632 | pgbench_branches_pkey |            16384
 2017-02-10 15:41:52.676322+01 | 1486737712.67632 | pgbench_tellers_pkey  |            90112
 2017-02-10 15:41:52.676322+01 | 1486737712.67632 | pgbench_accounts_pkey |        690167808

 2017-02-10 15:41:53.731052+01 | 1486737713.73105 | pgbench_branches_pkey |            16384
 2017-02-10 15:41:53.731052+01 | 1486737713.73105 | pgbench_tellers_pkey  |            90112
 2017-02-10 15:41:53.731052+01 | 1486737713.73105 | pgbench_accounts_pkey |        690167808

 2017-02-10 15:41:54.786236+01 | 1486737714.78624 | pgbench_branches_pkey |            16384
 2017-02-10 15:41:54.786236+01 | 1486737714.78624 | pgbench_tellers_pkey  |            90112
 2017-02-10 15:41:54.786236+01 | 1486737714.78624 | pgbench_accounts_pkey |        690167808

 2017-02-10 15:41:55.83769+01 | 1486737715.83769 | pgbench_branches_pkey |            16384
 2017-02-10 15:41:55.83769+01 | 1486737715.83769 | pgbench_tellers_pkey  |            90112
 2017-02-10 15:41:55.83769+01 | 1486737715.83769 | pgbench_accounts_pkey |        690167808

 2017-02-10 15:41:56.892495+01 | 1486737716.89249 | pgbench_branches_pkey |            16384
 2017-02-10 15:41:56.892495+01 | 1486737716.89249 | pgbench_tellers_pkey  |            90112
 2017-02-10 15:41:56.892495+01 | 1486737716.89249 | pgbench_accounts_pkey |        690167808

 2017-02-10 15:41:57.946654+01 | 1486737717.94665 | pgbench_branches_pkey |            16384
 2017-02-10 15:41:57.946654+01 | 1486737717.94665 | pgbench_tellers_pkey  |            90112
 2017-02-10 15:41:57.946654+01 | 1486737717.94665 | pgbench_accounts_pkey |        690167808

 2017-02-10 15:41:59.000367+01 | 1486737719.00037 | pgbench_branches_pkey |            16384
 2017-02-10 15:41:59.000367+01 | 1486737719.00037 | pgbench_tellers_pkey  |            90112
 2017-02-10 15:41:59.000367+01 | 1486737719.00037 | pgbench_accounts_pkey |        690167808

 2017-02-10 15:42:00.05042+01 | 1486737720.05042 | pgbench_branches_pkey |            16384
 2017-02-10 15:42:00.05042+01 | 1486737720.05042 | pgbench_tellers_pkey  |            90112
 2017-02-10 15:42:00.05042+01 | 1486737720.05042 | pgbench_accounts_pkey |        690167808

 2017-02-10 15:42:01.100191+01 | 1486737721.10019 | pgbench_branches_pkey |            16384
 2017-02-10 15:42:01.100191+01 | 1486737721.10019 | pgbench_tellers_pkey  |            90112
 2017-02-10 15:42:01.100191+01 | 1486737721.10019 | pgbench_accounts_pkey |        690167808

 2017-02-10 15:42:02.150865+01 | 1486737722.15087 | pgbench_branches_pkey |            16384
 2017-02-10 15:42:02.150865+01 | 1486737722.15087 | pgbench_tellers_pkey  |            90112
 2017-02-10 15:42:02.150865+01 | 1486737722.15087 | pgbench_accounts_pkey |        690167808

 2017-02-10 15:42:03.204739+01 | 1486737723.20474 | pgbench_branches_pkey |            16384
 2017-02-10 15:42:03.204739+01 | 1486737723.20474 | pgbench_tellers_pkey  |            90112
 2017-02-10 15:42:03.204739+01 | 1486737723.20474 | pgbench_accounts_pkey |        690167808

 2017-02-10 15:42:04.255785+01 | 1486737724.25578 | pgbench_branches_pkey |            16384
 2017-02-10 15:42:04.255785+01 | 1486737724.25578 | pgbench_tellers_pkey  |            90112
 2017-02-10 15:42:04.255785+01 | 1486737724.25578 | pgbench_accounts_pkey |        690167808

 2017-02-10 15:42:05.308892+01 | 1486737725.30889 | pgbench_branches_pkey |            16384
 2017-02-10 15:42:05.308892+01 | 1486737725.30889 | pgbench_tellers_pkey  |            90112
 2017-02-10 15:42:05.308892+01 | 1486737725.30889 | pgbench_accounts_pkey |        690167808

 2017-02-10 15:42:06.362757+01 | 1486737726.36276 | pgbench_branches_pkey |            16384
 2017-02-10 15:42:06.362757+01 | 1486737726.36276 | pgbench_tellers_pkey  |            90112
 2017-02-10 15:42:06.362757+01 | 1486737726.36276 | pgbench_accounts_pkey |        690167808

 2017-02-10 15:42:07.413727+01 | 1486737727.41373 | pgbench_branches_pkey |            16384
 2017-02-10 15:42:07.413727+01 | 1486737727.41373 | pgbench_tellers_pkey  |            90112
 2017-02-10 15:42:07.413727+01 | 1486737727.41373 | pgbench_accounts_pkey |        690167808

 2017-02-10 15:42:08.46475+01 | 1486737728.46475 | pgbench_branches_pkey |            16384
 2017-02-10 15:42:08.46475+01 | 1486737728.46475 | pgbench_tellers_pkey  |            90112
 2017-02-10 15:42:08.46475+01 | 1486737728.46475 | pgbench_accounts_pkey |        690167808

 2017-02-10 15:42:09.516532+01 | 1486737729.51653 | pgbench_branches_pkey |            16384
 2017-02-10 15:42:09.516532+01 | 1486737729.51653 | pgbench_tellers_pkey  |            90112
 2017-02-10 15:42:09.516532+01 | 1486737729.51653 | pgbench_accounts_pkey |        690167808

 2017-02-10 15:42:10.566875+01 | 1486737730.56687 | pgbench_branches_pkey |            16384
 2017-02-10 15:42:10.566875+01 | 1486737730.56687 | pgbench_tellers_pkey  |            90112
 2017-02-10 15:42:10.566875+01 | 1486737730.56687 | pgbench_accounts_pkey |        690167808

 2017-02-10 15:42:11.618346+01 | 1486737731.61835 | pgbench_branches_pkey |            16384
 2017-02-10 15:42:11.618346+01 | 1486737731.61835 | pgbench_tellers_pkey  |            90112
 2017-02-10 15:42:11.618346+01 | 1486737731.61835 | pgbench_accounts_pkey |        690167808

 2017-02-10 15:42:12.671746+01 | 1486737732.67175 | pgbench_branches_pkey |            16384
 2017-02-10 15:42:12.671746+01 | 1486737732.67175 | pgbench_tellers_pkey  |            90112
 2017-02-10 15:42:12.671746+01 | 1486737732.67175 | pgbench_accounts_pkey |        690167808

 2017-02-10 15:42:13.726399+01 | 1486737733.7264 | pgbench_branches_pkey |            16384
 2017-02-10 15:42:13.726399+01 | 1486737733.7264 | pgbench_tellers_pkey  |            90112
 2017-02-10 15:42:13.726399+01 | 1486737733.7264 | pgbench_accounts_pkey |        690167808

 2017-02-10 15:42:14.777791+01 | 1486737734.77779 | pgbench_branches_pkey |            16384
 2017-02-10 15:42:14.777791+01 | 1486737734.77779 | pgbench_tellers_pkey  |            90112
 2017-02-10 15:42:14.777791+01 | 1486737734.77779 | pgbench_accounts_pkey |        690167808

 2017-02-10 15:42:15.83267+01 | 1486737735.83267 | pgbench_branches_pkey |            16384
 2017-02-10 15:42:15.83267+01 | 1486737735.83267 | pgbench_tellers_pkey  |            90112
 2017-02-10 15:42:15.83267+01 | 1486737735.83267 | pgbench_accounts_pkey |        690167808

 2017-02-10 15:42:16.885632+01 | 1486737736.88563 | pgbench_branches_pkey |            16384
 2017-02-10 15:42:16.885632+01 | 1486737736.88563 | pgbench_tellers_pkey  |            90112
 2017-02-10 15:42:16.885632+01 | 1486737736.88563 | pgbench_accounts_pkey |        690167808

 2017-02-10 15:42:17.939682+01 | 1486737737.93968 | pgbench_branches_pkey |            16384
 2017-02-10 15:42:17.939682+01 | 1486737737.93968 | pgbench_tellers_pkey  |            90112
 2017-02-10 15:42:17.939682+01 | 1486737737.93968 | pgbench_accounts_pkey |        690167808

 2017-02-10 15:42:18.992785+01 | 1486737738.99278 | pgbench_branches_pkey |            16384
 2017-02-10 15:42:18.992785+01 | 1486737738.99278 | pgbench_tellers_pkey  |            90112
 2017-02-10 15:42:18.992785+01 | 1486737738.99278 | pgbench_accounts_pkey |        690167808

 2017-02-10 15:42:20.04339+01 | 1486737740.04339 | pgbench_branches_pkey |            16384
 2017-02-10 15:42:20.04339+01 | 1486737740.04339 | pgbench_tellers_pkey  |            90112
 2017-02-10 15:42:20.04339+01 | 1486737740.04339 | pgbench_accounts_pkey |        690167808

 2017-02-10 15:42:21.097014+01 | 1486737741.09701 | pgbench_branches_pkey |            16384
 2017-02-10 15:42:21.097014+01 | 1486737741.09701 | pgbench_tellers_pkey  |            90112
 2017-02-10 15:42:21.097014+01 | 1486737741.09701 | pgbench_accounts_pkey |        690167808

 2017-02-10 15:42:22.150562+01 | 1486737742.15056 | pgbench_branches_pkey |            16384
 2017-02-10 15:42:22.150562+01 | 1486737742.15056 | pgbench_tellers_pkey  |            90112
 2017-02-10 15:42:22.150562+01 | 1486737742.15056 | pgbench_accounts_pkey |        690167808

 2017-02-10 15:42:23.203703+01 | 1486737743.2037 | pgbench_branches_pkey |            16384
 2017-02-10 15:42:23.203703+01 | 1486737743.2037 | pgbench_tellers_pkey  |            90112
 2017-02-10 15:42:23.203703+01 | 1486737743.2037 | pgbench_accounts_pkey |        690167808

 2017-02-10 15:42:24.255301+01 | 1486737744.2553 | pgbench_branches_pkey |            16384
 2017-02-10 15:42:24.255301+01 | 1486737744.2553 | pgbench_tellers_pkey  |            90112
 2017-02-10 15:42:24.255301+01 | 1486737744.2553 | pgbench_accounts_pkey |        690167808

 2017-02-10 15:42:25.308364+01 | 1486737745.30836 | pgbench_branches_pkey |            16384
 2017-02-10 15:42:25.308364+01 | 1486737745.30836 | pgbench_tellers_pkey  |            90112
 2017-02-10 15:42:25.308364+01 | 1486737745.30836 | pgbench_accounts_pkey |        690167808

 2017-02-10 15:42:26.359982+01 | 1486737746.35998 | pgbench_branches_pkey |            16384
 2017-02-10 15:42:26.359982+01 | 1486737746.35998 | pgbench_tellers_pkey  |            90112
 2017-02-10 15:42:26.359982+01 | 1486737746.35998 | pgbench_accounts_pkey |        690167808

 2017-02-10 15:42:27.410043+01 | 1486737747.41004 | pgbench_branches_pkey |            16384
 2017-02-10 15:42:27.410043+01 | 1486737747.41004 | pgbench_tellers_pkey  |            90112
 2017-02-10 15:42:27.410043+01 | 1486737747.41004 | pgbench_accounts_pkey |        690167808

 2017-02-10 15:42:28.460895+01 | 1486737748.4609 | pgbench_branches_pkey |            16384
 2017-02-10 15:42:28.460895+01 | 1486737748.4609 | pgbench_tellers_pkey  |            90112
 2017-02-10 15:42:28.460895+01 | 1486737748.4609 | pgbench_accounts_pkey |        690167808

 2017-02-10 15:42:29.512746+01 | 1486737749.51275 | pgbench_branches_pkey |            16384
 2017-02-10 15:42:29.512746+01 | 1486737749.51275 | pgbench_tellers_pkey  |            90112
 2017-02-10 15:42:29.512746+01 | 1486737749.51275 | pgbench_accounts_pkey |        690167808

 2017-02-10 15:42:30.563271+01 | 1486737750.56327 | pgbench_branches_pkey |            16384
 2017-02-10 15:42:30.563271+01 | 1486737750.56327 | pgbench_tellers_pkey  |            90112
 2017-02-10 15:42:30.563271+01 | 1486737750.56327 | pgbench_accounts_pkey |        690167808

 2017-02-10 15:42:31.616027+01 | 1486737751.61603 | pgbench_branches_pkey |            16384
 2017-02-10 15:42:31.616027+01 | 1486737751.61603 | pgbench_tellers_pkey  |            90112
 2017-02-10 15:42:31.616027+01 | 1486737751.61603 | pgbench_accounts_pkey |        690167808

 2017-02-10 15:42:32.669979+01 | 1486737752.66998 | pgbench_branches_pkey |            16384
 2017-02-10 15:42:32.669979+01 | 1486737752.66998 | pgbench_tellers_pkey  |            90112
 2017-02-10 15:42:32.669979+01 | 1486737752.66998 | pgbench_accounts_pkey |        690167808

 2017-02-10 15:42:33.720822+01 | 1486737753.72082 | pgbench_branches_pkey |            16384
 2017-02-10 15:42:33.720822+01 | 1486737753.72082 | pgbench_tellers_pkey  |            90112
 2017-02-10 15:42:33.720822+01 | 1486737753.72082 | pgbench_accounts_pkey |        690167808

 2017-02-10 15:42:34.776208+01 | 1486737754.77621 | pgbench_branches_pkey |            16384
 2017-02-10 15:42:34.776208+01 | 1486737754.77621 | pgbench_tellers_pkey  |            90112
 2017-02-10 15:42:34.776208+01 | 1486737754.77621 | pgbench_accounts_pkey |        690167808

 2017-02-10 15:42:35.82712+01 | 1486737755.82712 | pgbench_branches_pkey |            16384
 2017-02-10 15:42:35.82712+01 | 1486737755.82712 | pgbench_tellers_pkey  |            90112
 2017-02-10 15:42:35.82712+01 | 1486737755.82712 | pgbench_accounts_pkey |        690167808

 2017-02-10 15:42:36.879301+01 | 1486737756.8793 | pgbench_branches_pkey |            16384
 2017-02-10 15:42:36.879301+01 | 1486737756.8793 | pgbench_tellers_pkey  |            90112
 2017-02-10 15:42:36.879301+01 | 1486737756.8793 | pgbench_accounts_pkey |        690167808

 2017-02-10 15:42:37.930333+01 | 1486737757.93033 | pgbench_branches_pkey |            16384
 2017-02-10 15:42:37.930333+01 | 1486737757.93033 | pgbench_tellers_pkey  |            90112
 2017-02-10 15:42:37.930333+01 | 1486737757.93033 | pgbench_accounts_pkey |        690167808

 2017-02-10 15:42:38.982232+01 | 1486737758.98223 | pgbench_branches_pkey |            16384
 2017-02-10 15:42:38.982232+01 | 1486737758.98223 | pgbench_tellers_pkey  |            90112
 2017-02-10 15:42:38.982232+01 | 1486737758.98223 | pgbench_accounts_pkey |        690167808

 2017-02-10 15:42:40.035645+01 | 1486737760.03565 | pgbench_branches_pkey |            16384
 2017-02-10 15:42:40.035645+01 | 1486737760.03565 | pgbench_tellers_pkey  |            90112
 2017-02-10 15:42:40.035645+01 | 1486737760.03565 | pgbench_accounts_pkey |        690167808

 2017-02-10 15:42:41.090272+01 | 1486737761.09027 | pgbench_branches_pkey |            16384
 2017-02-10 15:42:41.090272+01 | 1486737761.09027 | pgbench_tellers_pkey  |            90112
 2017-02-10 15:42:41.090272+01 | 1486737761.09027 | pgbench_accounts_pkey |        690167808

 2017-02-10 15:42:42.14172+01 | 1486737762.14172 | pgbench_branches_pkey |            16384
 2017-02-10 15:42:42.14172+01 | 1486737762.14172 | pgbench_tellers_pkey  |            90112
 2017-02-10 15:42:42.14172+01 | 1486737762.14172 | pgbench_accounts_pkey |        690167808

 2017-02-10 15:42:43.194521+01 | 1486737763.19452 | pgbench_branches_pkey |            16384
 2017-02-10 15:42:43.194521+01 | 1486737763.19452 | pgbench_tellers_pkey  |            90112
 2017-02-10 15:42:43.194521+01 | 1486737763.19452 | pgbench_accounts_pkey |        690167808

 2017-02-10 15:42:44.245837+01 | 1486737764.24584 | pgbench_branches_pkey |            16384
 2017-02-10 15:42:44.245837+01 | 1486737764.24584 | pgbench_tellers_pkey  |            90112
 2017-02-10 15:42:44.245837+01 | 1486737764.24584 | pgbench_accounts_pkey |        690167808

 2017-02-10 15:42:45.300575+01 | 1486737765.30058 | pgbench_branches_pkey |            16384
 2017-02-10 15:42:45.300575+01 | 1486737765.30058 | pgbench_tellers_pkey  |            90112
 2017-02-10 15:42:45.300575+01 | 1486737765.30058 | pgbench_accounts_pkey |        690167808

 2017-02-10 15:42:46.352919+01 | 1486737766.35292 | pgbench_branches_pkey |            16384
 2017-02-10 15:42:46.352919+01 | 1486737766.35292 | pgbench_tellers_pkey  |            90112
 2017-02-10 15:42:46.352919+01 | 1486737766.35292 | pgbench_accounts_pkey |        690167808

 2017-02-10 15:42:47.404786+01 | 1486737767.40479 | pgbench_branches_pkey |            16384
 2017-02-10 15:42:47.404786+01 | 1486737767.40479 | pgbench_tellers_pkey  |            90112
 2017-02-10 15:42:47.404786+01 | 1486737767.40479 | pgbench_accounts_pkey |        690167808

 2017-02-10 15:42:48.458418+01 | 1486737768.45842 | pgbench_branches_pkey |            16384
 2017-02-10 15:42:48.458418+01 | 1486737768.45842 | pgbench_tellers_pkey  |            90112
 2017-02-10 15:42:48.458418+01 | 1486737768.45842 | pgbench_accounts_pkey |        690167808

 2017-02-10 15:42:49.50935+01 | 1486737769.50935 | pgbench_branches_pkey |            16384
 2017-02-10 15:42:49.50935+01 | 1486737769.50935 | pgbench_tellers_pkey  |            90112
 2017-02-10 15:42:49.50935+01 | 1486737769.50935 | pgbench_accounts_pkey |        690167808

 2017-02-10 15:42:50.561126+01 | 1486737770.56113 | pgbench_branches_pkey |            16384
 2017-02-10 15:42:50.561126+01 | 1486737770.56113 | pgbench_tellers_pkey  |            90112
 2017-02-10 15:42:50.561126+01 | 1486737770.56113 | pgbench_accounts_pkey |        690167808

 2017-02-10 15:42:51.61083+01 | 1486737771.61083 | pgbench_branches_pkey |            16384
 2017-02-10 15:42:51.61083+01 | 1486737771.61083 | pgbench_tellers_pkey  |            90112
 2017-02-10 15:42:51.61083+01 | 1486737771.61083 | pgbench_accounts_pkey |        690167808

 2017-02-10 15:42:52.664623+01 | 1486737772.66462 | pgbench_branches_pkey |            16384
 2017-02-10 15:42:52.664623+01 | 1486737772.66462 | pgbench_tellers_pkey  |            90112
 2017-02-10 15:42:52.664623+01 | 1486737772.66462 | pgbench_accounts_pkey |        690167808

 2017-02-10 15:42:53.717843+01 | 1486737773.71784 | pgbench_branches_pkey |            16384
 2017-02-10 15:42:53.717843+01 | 1486737773.71784 | pgbench_tellers_pkey  |            90112
 2017-02-10 15:42:53.717843+01 | 1486737773.71784 | pgbench_accounts_pkey |        690167808

 2017-02-10 15:42:54.769664+01 | 1486737774.76966 | pgbench_branches_pkey |            16384
 2017-02-10 15:42:54.769664+01 | 1486737774.76966 | pgbench_tellers_pkey  |            90112
 2017-02-10 15:42:54.769664+01 | 1486737774.76966 | pgbench_accounts_pkey |        690167808

 2017-02-10 15:42:55.821255+01 | 1486737775.82125 | pgbench_branches_pkey |            16384
 2017-02-10 15:42:55.821255+01 | 1486737775.82125 | pgbench_tellers_pkey  |            90112
 2017-02-10 15:42:55.821255+01 | 1486737775.82125 | pgbench_accounts_pkey |        690167808

 2017-02-10 15:42:56.876541+01 | 1486737776.87654 | pgbench_branches_pkey |            16384
 2017-02-10 15:42:56.876541+01 | 1486737776.87654 | pgbench_tellers_pkey  |            90112
 2017-02-10 15:42:56.876541+01 | 1486737776.87654 | pgbench_accounts_pkey |        690167808

 2017-02-10 15:42:57.929547+01 | 1486737777.92955 | pgbench_branches_pkey |            16384
 2017-02-10 15:42:57.929547+01 | 1486737777.92955 | pgbench_tellers_pkey  |            90112
 2017-02-10 15:42:57.929547+01 | 1486737777.92955 | pgbench_accounts_pkey |        690167808

 2017-02-10 15:42:58.983341+01 | 1486737778.98334 | pgbench_branches_pkey |            16384
 2017-02-10 15:42:58.983341+01 | 1486737778.98334 | pgbench_tellers_pkey  |            90112
 2017-02-10 15:42:58.983341+01 | 1486737778.98334 | pgbench_accounts_pkey |        690167808

 2017-02-10 15:43:00.033456+01 | 1486737780.03346 | pgbench_branches_pkey |            16384
 2017-02-10 15:43:00.033456+01 | 1486737780.03346 | pgbench_tellers_pkey  |            90112
 2017-02-10 15:43:00.033456+01 | 1486737780.03346 | pgbench_accounts_pkey |        690167808

 2017-02-10 15:43:01.088533+01 | 1486737781.08853 | pgbench_branches_pkey |            16384
 2017-02-10 15:43:01.088533+01 | 1486737781.08853 | pgbench_tellers_pkey  |            90112
 2017-02-10 15:43:01.088533+01 | 1486737781.08853 | pgbench_accounts_pkey |        690167808

 2017-02-10 15:43:02.139243+01 | 1486737782.13924 | pgbench_branches_pkey |            16384
 2017-02-10 15:43:02.139243+01 | 1486737782.13924 | pgbench_tellers_pkey  |            90112
 2017-02-10 15:43:02.139243+01 | 1486737782.13924 | pgbench_accounts_pkey |        690167808

 2017-02-10 15:43:03.192675+01 | 1486737783.19268 | pgbench_branches_pkey |            16384
 2017-02-10 15:43:03.192675+01 | 1486737783.19268 | pgbench_tellers_pkey  |            90112
 2017-02-10 15:43:03.192675+01 | 1486737783.19268 | pgbench_accounts_pkey |        690167808

 2017-02-10 15:43:04.245632+01 | 1486737784.24563 | pgbench_branches_pkey |            16384
 2017-02-10 15:43:04.245632+01 | 1486737784.24563 | pgbench_tellers_pkey  |            90112
 2017-02-10 15:43:04.245632+01 | 1486737784.24563 | pgbench_accounts_pkey |        690167808

 2017-02-10 15:43:05.298501+01 | 1486737785.2985 | pgbench_branches_pkey |            16384
 2017-02-10 15:43:05.298501+01 | 1486737785.2985 | pgbench_tellers_pkey  |            90112
 2017-02-10 15:43:05.298501+01 | 1486737785.2985 | pgbench_accounts_pkey |        690167808

 2017-02-10 15:43:06.35705+01 | 1486737786.35705 | pgbench_branches_pkey |            16384
 2017-02-10 15:43:06.35705+01 | 1486737786.35705 | pgbench_tellers_pkey  |            90112
 2017-02-10 15:43:06.35705+01 | 1486737786.35705 | pgbench_accounts_pkey |        690167808

 2017-02-10 15:43:07.412776+01 | 1486737787.41278 | pgbench_branches_pkey |            16384
 2017-02-10 15:43:07.412776+01 | 1486737787.41278 | pgbench_tellers_pkey  |            90112
 2017-02-10 15:43:07.412776+01 | 1486737787.41278 | pgbench_accounts_pkey |        690167808

 2017-02-10 15:43:08.463801+01 | 1486737788.4638 | pgbench_branches_pkey |            16384
 2017-02-10 15:43:08.463801+01 | 1486737788.4638 | pgbench_tellers_pkey  |            90112
 2017-02-10 15:43:08.463801+01 | 1486737788.4638 | pgbench_accounts_pkey |        690167808

 2017-02-10 15:43:09.514862+01 | 1486737789.51486 | pgbench_branches_pkey |            16384
 2017-02-10 15:43:09.514862+01 | 1486737789.51486 | pgbench_tellers_pkey  |            90112
 2017-02-10 15:43:09.514862+01 | 1486737789.51486 | pgbench_accounts_pkey |        690167808

 2017-02-10 15:43:10.567125+01 | 1486737790.56713 | pgbench_branches_pkey |            16384
 2017-02-10 15:43:10.567125+01 | 1486737790.56713 | pgbench_tellers_pkey  |            90112
 2017-02-10 15:43:10.567125+01 | 1486737790.56713 | pgbench_accounts_pkey |        690167808

 2017-02-10 15:43:11.620341+01 | 1486737791.62034 | pgbench_branches_pkey |            16384
 2017-02-10 15:43:11.620341+01 | 1486737791.62034 | pgbench_tellers_pkey  |            90112
 2017-02-10 15:43:11.620341+01 | 1486737791.62034 | pgbench_accounts_pkey |        690167808

 2017-02-10 15:43:12.671286+01 | 1486737792.67129 | pgbench_branches_pkey |            16384
 2017-02-10 15:43:12.671286+01 | 1486737792.67129 | pgbench_tellers_pkey  |            90112
 2017-02-10 15:43:12.671286+01 | 1486737792.67129 | pgbench_accounts_pkey |        690167808

 2017-02-10 15:43:13.724532+01 | 1486737793.72453 | pgbench_branches_pkey |            16384
 2017-02-10 15:43:13.724532+01 | 1486737793.72453 | pgbench_tellers_pkey  |            90112
 2017-02-10 15:43:13.724532+01 | 1486737793.72453 | pgbench_accounts_pkey |        690167808

 2017-02-10 15:43:14.780468+01 | 1486737794.78047 | pgbench_branches_pkey |            16384
 2017-02-10 15:43:14.780468+01 | 1486737794.78047 | pgbench_tellers_pkey  |            90112
 2017-02-10 15:43:14.780468+01 | 1486737794.78047 | pgbench_accounts_pkey |        690167808

 2017-02-10 15:43:15.832817+01 | 1486737795.83282 | pgbench_branches_pkey |            16384
 2017-02-10 15:43:15.832817+01 | 1486737795.83282 | pgbench_tellers_pkey  |            90112
 2017-02-10 15:43:15.832817+01 | 1486737795.83282 | pgbench_accounts_pkey |        690167808

 2017-02-10 15:43:16.883042+01 | 1486737796.88304 | pgbench_branches_pkey |            16384
 2017-02-10 15:43:16.883042+01 | 1486737796.88304 | pgbench_tellers_pkey  |            90112
 2017-02-10 15:43:16.883042+01 | 1486737796.88304 | pgbench_accounts_pkey |        690167808

 2017-02-10 15:43:17.938188+01 | 1486737797.93819 | pgbench_branches_pkey |            16384
 2017-02-10 15:43:17.938188+01 | 1486737797.93819 | pgbench_tellers_pkey  |            90112
 2017-02-10 15:43:17.938188+01 | 1486737797.93819 | pgbench_accounts_pkey |        690167808

 2017-02-10 15:43:18.990765+01 | 1486737798.99077 | pgbench_branches_pkey |            16384
 2017-02-10 15:43:18.990765+01 | 1486737798.99077 | pgbench_tellers_pkey  |            90112
 2017-02-10 15:43:18.990765+01 | 1486737798.99077 | pgbench_accounts_pkey |        690167808

 2017-02-10 15:43:20.044219+01 | 1486737800.04422 | pgbench_branches_pkey |            16384
 2017-02-10 15:43:20.044219+01 | 1486737800.04422 | pgbench_tellers_pkey  |            90112
 2017-02-10 15:43:20.044219+01 | 1486737800.04422 | pgbench_accounts_pkey |        690167808

 2017-02-10 15:43:21.098725+01 | 1486737801.09873 | pgbench_branches_pkey |            16384
 2017-02-10 15:43:21.098725+01 | 1486737801.09873 | pgbench_tellers_pkey  |            90112
 2017-02-10 15:43:21.098725+01 | 1486737801.09873 | pgbench_accounts_pkey |        690167808

 2017-02-10 15:43:22.150201+01 | 1486737802.1502 | pgbench_branches_pkey |            16384
 2017-02-10 15:43:22.150201+01 | 1486737802.1502 | pgbench_tellers_pkey  |            90112
 2017-02-10 15:43:22.150201+01 | 1486737802.1502 | pgbench_accounts_pkey |        690167808

 2017-02-10 15:43:23.200828+01 | 1486737803.20083 | pgbench_branches_pkey |            16384
 2017-02-10 15:43:23.200828+01 | 1486737803.20083 | pgbench_tellers_pkey  |            90112
 2017-02-10 15:43:23.200828+01 | 1486737803.20083 | pgbench_accounts_pkey |        690167808

 2017-02-10 15:43:24.251412+01 | 1486737804.25141 | pgbench_branches_pkey |            16384
 2017-02-10 15:43:24.251412+01 | 1486737804.25141 | pgbench_tellers_pkey  |            90112
 2017-02-10 15:43:24.251412+01 | 1486737804.25141 | pgbench_accounts_pkey |        690167808

 2017-02-10 15:43:25.302975+01 | 1486737805.30297 | pgbench_branches_pkey |            16384
 2017-02-10 15:43:25.302975+01 | 1486737805.30297 | pgbench_tellers_pkey  |            90112
 2017-02-10 15:43:25.302975+01 | 1486737805.30297 | pgbench_accounts_pkey |        690167808

 2017-02-10 15:43:26.356487+01 | 1486737806.35649 | pgbench_branches_pkey |            16384
 2017-02-10 15:43:26.356487+01 | 1486737806.35649 | pgbench_tellers_pkey  |            90112
 2017-02-10 15:43:26.356487+01 | 1486737806.35649 | pgbench_accounts_pkey |        690167808

 2017-02-10 15:43:27.409233+01 | 1486737807.40923 | pgbench_branches_pkey |            16384
 2017-02-10 15:43:27.409233+01 | 1486737807.40923 | pgbench_tellers_pkey  |            90112
 2017-02-10 15:43:27.409233+01 | 1486737807.40923 | pgbench_accounts_pkey |        690167808

 2017-02-10 15:43:28.466683+01 | 1486737808.46668 | pgbench_branches_pkey |            16384
 2017-02-10 15:43:28.466683+01 | 1486737808.46668 | pgbench_tellers_pkey  |            90112
 2017-02-10 15:43:28.466683+01 | 1486737808.46668 | pgbench_accounts_pkey |        690167808

 2017-02-10 15:43:29.515284+01 | 1486737809.51528 | pgbench_branches_pkey |            16384
 2017-02-10 15:43:29.515284+01 | 1486737809.51528 | pgbench_tellers_pkey  |            90112
 2017-02-10 15:43:29.515284+01 | 1486737809.51528 | pgbench_accounts_pkey |        690167808

 2017-02-10 15:43:30.570239+01 | 1486737810.57024 | pgbench_branches_pkey |            16384
 2017-02-10 15:43:30.570239+01 | 1486737810.57024 | pgbench_tellers_pkey  |            90112
 2017-02-10 15:43:30.570239+01 | 1486737810.57024 | pgbench_accounts_pkey |        690167808

 2017-02-10 15:43:31.620649+01 | 1486737811.62065 | pgbench_branches_pkey |            16384
 2017-02-10 15:43:31.620649+01 | 1486737811.62065 | pgbench_tellers_pkey  |            90112
 2017-02-10 15:43:31.620649+01 | 1486737811.62065 | pgbench_accounts_pkey |        690167808

 2017-02-10 15:43:32.676571+01 | 1486737812.67657 | pgbench_branches_pkey |            16384
 2017-02-10 15:43:32.676571+01 | 1486737812.67657 | pgbench_tellers_pkey  |            90112
 2017-02-10 15:43:32.676571+01 | 1486737812.67657 | pgbench_accounts_pkey |        690167808

 2017-02-10 15:43:33.731325+01 | 1486737813.73132 | pgbench_branches_pkey |            16384
 2017-02-10 15:43:33.731325+01 | 1486737813.73132 | pgbench_tellers_pkey  |            90112
 2017-02-10 15:43:33.731325+01 | 1486737813.73132 | pgbench_accounts_pkey |        690167808

 2017-02-10 15:43:34.786147+01 | 1486737814.78615 | pgbench_branches_pkey |            16384
 2017-02-10 15:43:34.786147+01 | 1486737814.78615 | pgbench_tellers_pkey  |            90112
 2017-02-10 15:43:34.786147+01 | 1486737814.78615 | pgbench_accounts_pkey |        690167808

 2017-02-10 15:43:35.837789+01 | 1486737815.83779 | pgbench_branches_pkey |            16384
 2017-02-10 15:43:35.837789+01 | 1486737815.83779 | pgbench_tellers_pkey  |            90112
 2017-02-10 15:43:35.837789+01 | 1486737815.83779 | pgbench_accounts_pkey |        690167808

 2017-02-10 15:43:36.888595+01 | 1486737816.8886 | pgbench_branches_pkey |            16384
 2017-02-10 15:43:36.888595+01 | 1486737816.8886 | pgbench_tellers_pkey  |            90112
 2017-02-10 15:43:36.888595+01 | 1486737816.8886 | pgbench_accounts_pkey |        690167808

 2017-02-10 15:43:37.938275+01 | 1486737817.93828 | pgbench_branches_pkey |            16384
 2017-02-10 15:43:37.938275+01 | 1486737817.93828 | pgbench_tellers_pkey  |            90112
 2017-02-10 15:43:37.938275+01 | 1486737817.93828 | pgbench_accounts_pkey |        690167808

 2017-02-10 15:43:38.99174+01 | 1486737818.99174 | pgbench_branches_pkey |            16384
 2017-02-10 15:43:38.99174+01 | 1486737818.99174 | pgbench_tellers_pkey  |            90112
 2017-02-10 15:43:38.99174+01 | 1486737818.99174 | pgbench_accounts_pkey |        690167808

 2017-02-10 15:43:40.041663+01 | 1486737820.04166 | pgbench_branches_pkey |            16384
 2017-02-10 15:43:40.041663+01 | 1486737820.04166 | pgbench_tellers_pkey  |            90112
 2017-02-10 15:43:40.041663+01 | 1486737820.04166 | pgbench_accounts_pkey |        690167808

 2017-02-10 15:43:41.091498+01 | 1486737821.0915 | pgbench_branches_pkey |            16384
 2017-02-10 15:43:41.091498+01 | 1486737821.0915 | pgbench_tellers_pkey  |            90112
 2017-02-10 15:43:41.091498+01 | 1486737821.0915 | pgbench_accounts_pkey |        690167808

 2017-02-10 15:43:42.145789+01 | 1486737822.14579 | pgbench_branches_pkey |            16384
 2017-02-10 15:43:42.145789+01 | 1486737822.14579 | pgbench_tellers_pkey  |            90112
 2017-02-10 15:43:42.145789+01 | 1486737822.14579 | pgbench_accounts_pkey |        690167808

 2017-02-10 15:43:43.199338+01 | 1486737823.19934 | pgbench_branches_pkey |            16384
 2017-02-10 15:43:43.199338+01 | 1486737823.19934 | pgbench_tellers_pkey  |            90112
 2017-02-10 15:43:43.199338+01 | 1486737823.19934 | pgbench_accounts_pkey |        690167808

 2017-02-10 15:43:44.250898+01 | 1486737824.2509 | pgbench_branches_pkey |            16384
 2017-02-10 15:43:44.250898+01 | 1486737824.2509 | pgbench_tellers_pkey  |            90112
 2017-02-10 15:43:44.250898+01 | 1486737824.2509 | pgbench_accounts_pkey |        690167808

 2017-02-10 15:43:45.301974+01 | 1486737825.30197 | pgbench_branches_pkey |            16384
 2017-02-10 15:43:45.301974+01 | 1486737825.30197 | pgbench_tellers_pkey  |            90112
 2017-02-10 15:43:45.301974+01 | 1486737825.30197 | pgbench_accounts_pkey |        690167808

 2017-02-10 15:43:46.354819+01 | 1486737826.35482 | pgbench_branches_pkey |            16384
 2017-02-10 15:43:46.354819+01 | 1486737826.35482 | pgbench_tellers_pkey  |            90112
 2017-02-10 15:43:46.354819+01 | 1486737826.35482 | pgbench_accounts_pkey |        690167808

 2017-02-10 15:43:47.407143+01 | 1486737827.40714 | pgbench_branches_pkey |            16384
 2017-02-10 15:43:47.407143+01 | 1486737827.40714 | pgbench_tellers_pkey  |            90112
 2017-02-10 15:43:47.407143+01 | 1486737827.40714 | pgbench_accounts_pkey |        690167808

 2017-02-10 15:43:48.460743+01 | 1486737828.46074 | pgbench_branches_pkey |            16384
 2017-02-10 15:43:48.460743+01 | 1486737828.46074 | pgbench_tellers_pkey  |            90112
 2017-02-10 15:43:48.460743+01 | 1486737828.46074 | pgbench_accounts_pkey |        690167808

 2017-02-10 15:43:49.50994+01 | 1486737829.50994 | pgbench_branches_pkey |            16384
 2017-02-10 15:43:49.50994+01 | 1486737829.50994 | pgbench_tellers_pkey  |            90112
 2017-02-10 15:43:49.50994+01 | 1486737829.50994 | pgbench_accounts_pkey |        690167808

 2017-02-10 15:43:50.562471+01 | 1486737830.56247 | pgbench_branches_pkey |            16384
 2017-02-10 15:43:50.562471+01 | 1486737830.56247 | pgbench_tellers_pkey  |            90112
 2017-02-10 15:43:50.562471+01 | 1486737830.56247 | pgbench_accounts_pkey |        690167808

 2017-02-10 15:43:51.615615+01 | 1486737831.61561 | pgbench_branches_pkey |            16384
 2017-02-10 15:43:51.615615+01 | 1486737831.61561 | pgbench_tellers_pkey  |            90112
 2017-02-10 15:43:51.615615+01 | 1486737831.61561 | pgbench_accounts_pkey |        690167808

 2017-02-10 15:43:52.669042+01 | 1486737832.66904 | pgbench_branches_pkey |            16384
 2017-02-10 15:43:52.669042+01 | 1486737832.66904 | pgbench_tellers_pkey  |            90112
 2017-02-10 15:43:52.669042+01 | 1486737832.66904 | pgbench_accounts_pkey |        690167808

 2017-02-10 15:43:53.719687+01 | 1486737833.71969 | pgbench_branches_pkey |            16384
 2017-02-10 15:43:53.719687+01 | 1486737833.71969 | pgbench_tellers_pkey  |            90112
 2017-02-10 15:43:53.719687+01 | 1486737833.71969 | pgbench_accounts_pkey |        690167808

 2017-02-10 15:43:54.774381+01 | 1486737834.77438 | pgbench_branches_pkey |            16384
 2017-02-10 15:43:54.774381+01 | 1486737834.77438 | pgbench_tellers_pkey  |            90112
 2017-02-10 15:43:54.774381+01 | 1486737834.77438 | pgbench_accounts_pkey |        690167808

 2017-02-10 15:43:55.825561+01 | 1486737835.82556 | pgbench_branches_pkey |            16384
 2017-02-10 15:43:55.825561+01 | 1486737835.82556 | pgbench_tellers_pkey  |            90112
 2017-02-10 15:43:55.825561+01 | 1486737835.82556 | pgbench_accounts_pkey |        690167808

 2017-02-10 15:43:56.877646+01 | 1486737836.87765 | pgbench_branches_pkey |            16384
 2017-02-10 15:43:56.877646+01 | 1486737836.87765 | pgbench_tellers_pkey  |            90112
 2017-02-10 15:43:56.877646+01 | 1486737836.87765 | pgbench_accounts_pkey |        690167808

 2017-02-10 15:43:57.92764+01 | 1486737837.92764 | pgbench_branches_pkey |            16384
 2017-02-10 15:43:57.92764+01 | 1486737837.92764 | pgbench_tellers_pkey  |            90112
 2017-02-10 15:43:57.92764+01 | 1486737837.92764 | pgbench_accounts_pkey |        690167808

 2017-02-10 15:43:58.98134+01 | 1486737838.98134 | pgbench_branches_pkey |            16384
 2017-02-10 15:43:58.98134+01 | 1486737838.98134 | pgbench_tellers_pkey  |            90112
 2017-02-10 15:43:58.98134+01 | 1486737838.98134 | pgbench_accounts_pkey |        690167808

 2017-02-10 15:44:00.035784+01 | 1486737840.03578 | pgbench_branches_pkey |            16384
 2017-02-10 15:44:00.035784+01 | 1486737840.03578 | pgbench_tellers_pkey  |            90112
 2017-02-10 15:44:00.035784+01 | 1486737840.03578 | pgbench_accounts_pkey |        690167808

 2017-02-10 15:44:01.092208+01 | 1486737841.09221 | pgbench_branches_pkey |            16384
 2017-02-10 15:44:01.092208+01 | 1486737841.09221 | pgbench_tellers_pkey  |            90112
 2017-02-10 15:44:01.092208+01 | 1486737841.09221 | pgbench_accounts_pkey |        690167808

 2017-02-10 15:44:02.145105+01 | 1486737842.1451 | pgbench_branches_pkey |            16384
 2017-02-10 15:44:02.145105+01 | 1486737842.1451 | pgbench_tellers_pkey  |            90112
 2017-02-10 15:44:02.145105+01 | 1486737842.1451 | pgbench_accounts_pkey |        690167808

 2017-02-10 15:44:03.198095+01 | 1486737843.1981 | pgbench_branches_pkey |            16384
 2017-02-10 15:44:03.198095+01 | 1486737843.1981 | pgbench_tellers_pkey  |            90112
 2017-02-10 15:44:03.198095+01 | 1486737843.1981 | pgbench_accounts_pkey |        690167808

 2017-02-10 15:44:04.250908+01 | 1486737844.25091 | pgbench_branches_pkey |            16384
 2017-02-10 15:44:04.250908+01 | 1486737844.25091 | pgbench_tellers_pkey  |            90112
 2017-02-10 15:44:04.250908+01 | 1486737844.25091 | pgbench_accounts_pkey |        690167808

 2017-02-10 15:44:05.301206+01 | 1486737845.30121 | pgbench_branches_pkey |            16384
 2017-02-10 15:44:05.301206+01 | 1486737845.30121 | pgbench_tellers_pkey  |            90112
 2017-02-10 15:44:05.301206+01 | 1486737845.30121 | pgbench_accounts_pkey |        690167808

 2017-02-10 15:44:06.353753+01 | 1486737846.35375 | pgbench_branches_pkey |            16384
 2017-02-10 15:44:06.353753+01 | 1486737846.35375 | pgbench_tellers_pkey  |            90112
 2017-02-10 15:44:06.353753+01 | 1486737846.35375 | pgbench_accounts_pkey |        690167808

 2017-02-10 15:44:07.405445+01 | 1486737847.40545 | pgbench_branches_pkey |            16384
 2017-02-10 15:44:07.405445+01 | 1486737847.40545 | pgbench_tellers_pkey  |            90112
 2017-02-10 15:44:07.405445+01 | 1486737847.40545 | pgbench_accounts_pkey |        690167808

 2017-02-10 15:44:08.461175+01 | 1486737848.46117 | pgbench_branches_pkey |            16384
 2017-02-10 15:44:08.461175+01 | 1486737848.46117 | pgbench_tellers_pkey  |            90112
 2017-02-10 15:44:08.461175+01 | 1486737848.46117 | pgbench_accounts_pkey |        690167808

 2017-02-10 15:44:09.514441+01 | 1486737849.51444 | pgbench_branches_pkey |            16384
 2017-02-10 15:44:09.514441+01 | 1486737849.51444 | pgbench_tellers_pkey  |            90112
 2017-02-10 15:44:09.514441+01 | 1486737849.51444 | pgbench_accounts_pkey |        690167808

 2017-02-10 15:44:10.567123+01 | 1486737850.56712 | pgbench_branches_pkey |            16384
 2017-02-10 15:44:10.567123+01 | 1486737850.56712 | pgbench_tellers_pkey  |            90112
 2017-02-10 15:44:10.567123+01 | 1486737850.56712 | pgbench_accounts_pkey |        690167808

 2017-02-10 15:44:11.619231+01 | 1486737851.61923 | pgbench_branches_pkey |            16384
 2017-02-10 15:44:11.619231+01 | 1486737851.61923 | pgbench_tellers_pkey  |            90112
 2017-02-10 15:44:11.619231+01 | 1486737851.61923 | pgbench_accounts_pkey |        690167808

 2017-02-10 15:44:12.67353+01 | 1486737852.67353 | pgbench_branches_pkey |            16384
 2017-02-10 15:44:12.67353+01 | 1486737852.67353 | pgbench_tellers_pkey  |            90112
 2017-02-10 15:44:12.67353+01 | 1486737852.67353 | pgbench_accounts_pkey |        690167808

 2017-02-10 15:44:13.724105+01 | 1486737853.7241 | pgbench_branches_pkey |            16384
 2017-02-10 15:44:13.724105+01 | 1486737853.7241 | pgbench_tellers_pkey  |            90112
 2017-02-10 15:44:13.724105+01 | 1486737853.7241 | pgbench_accounts_pkey |        690167808

 2017-02-10 15:44:14.774517+01 | 1486737854.77452 | pgbench_branches_pkey |            16384
 2017-02-10 15:44:14.774517+01 | 1486737854.77452 | pgbench_tellers_pkey  |            90112
 2017-02-10 15:44:14.774517+01 | 1486737854.77452 | pgbench_accounts_pkey |        690167808

 2017-02-10 15:44:15.826171+01 | 1486737855.82617 | pgbench_branches_pkey |            16384
 2017-02-10 15:44:15.826171+01 | 1486737855.82617 | pgbench_tellers_pkey  |            90112
 2017-02-10 15:44:15.826171+01 | 1486737855.82617 | pgbench_accounts_pkey |        690167808

 2017-02-10 15:44:16.876188+01 | 1486737856.87619 | pgbench_branches_pkey |            16384
 2017-02-10 15:44:16.876188+01 | 1486737856.87619 | pgbench_tellers_pkey  |            90112
 2017-02-10 15:44:16.876188+01 | 1486737856.87619 | pgbench_accounts_pkey |        690167808

 2017-02-10 15:44:17.929455+01 | 1486737857.92946 | pgbench_branches_pkey |            16384
 2017-02-10 15:44:17.929455+01 | 1486737857.92946 | pgbench_tellers_pkey  |            90112
 2017-02-10 15:44:17.929455+01 | 1486737857.92946 | pgbench_accounts_pkey |        690167808

 2017-02-10 15:44:18.9819+01 | 1486737858.9819 | pgbench_branches_pkey |            16384
 2017-02-10 15:44:18.9819+01 | 1486737858.9819 | pgbench_tellers_pkey  |            90112
 2017-02-10 15:44:18.9819+01 | 1486737858.9819 | pgbench_accounts_pkey |        690167808

 2017-02-10 15:44:20.033122+01 | 1486737860.03312 | pgbench_branches_pkey |            16384
 2017-02-10 15:44:20.033122+01 | 1486737860.03312 | pgbench_tellers_pkey  |            90112
 2017-02-10 15:44:20.033122+01 | 1486737860.03312 | pgbench_accounts_pkey |        690167808

 2017-02-10 15:44:21.082989+01 | 1486737861.08299 | pgbench_branches_pkey |            16384
 2017-02-10 15:44:21.082989+01 | 1486737861.08299 | pgbench_tellers_pkey  |            90112
 2017-02-10 15:44:21.082989+01 | 1486737861.08299 | pgbench_accounts_pkey |        690167808

 2017-02-10 15:44:22.135552+01 | 1486737862.13555 | pgbench_branches_pkey |            16384
 2017-02-10 15:44:22.135552+01 | 1486737862.13555 | pgbench_tellers_pkey  |            90112
 2017-02-10 15:44:22.135552+01 | 1486737862.13555 | pgbench_accounts_pkey |        690167808

 2017-02-10 15:44:23.185999+01 | 1486737863.186 | pgbench_branches_pkey |            16384
 2017-02-10 15:44:23.185999+01 | 1486737863.186 | pgbench_tellers_pkey  |            90112
 2017-02-10 15:44:23.185999+01 | 1486737863.186 | pgbench_accounts_pkey |        690167808

 2017-02-10 15:44:24.240847+01 | 1486737864.24085 | pgbench_branches_pkey |            16384
 2017-02-10 15:44:24.240847+01 | 1486737864.24085 | pgbench_tellers_pkey  |            90112
 2017-02-10 15:44:24.240847+01 | 1486737864.24085 | pgbench_accounts_pkey |        690167808

 2017-02-10 15:44:25.294937+01 | 1486737865.29494 | pgbench_branches_pkey |            16384
 2017-02-10 15:44:25.294937+01 | 1486737865.29494 | pgbench_tellers_pkey  |            90112
 2017-02-10 15:44:25.294937+01 | 1486737865.29494 | pgbench_accounts_pkey |        690167808

 2017-02-10 15:44:26.347967+01 | 1486737866.34797 | pgbench_branches_pkey |            16384
 2017-02-10 15:44:26.347967+01 | 1486737866.34797 | pgbench_tellers_pkey  |            90112
 2017-02-10 15:44:26.347967+01 | 1486737866.34797 | pgbench_accounts_pkey |        690167808

 2017-02-10 15:44:27.3983+01 | 1486737867.3983 | pgbench_branches_pkey |            16384
 2017-02-10 15:44:27.3983+01 | 1486737867.3983 | pgbench_tellers_pkey  |            90112
 2017-02-10 15:44:27.3983+01 | 1486737867.3983 | pgbench_accounts_pkey |        690167808

 2017-02-10 15:44:28.45305+01 | 1486737868.45305 | pgbench_branches_pkey |            16384
 2017-02-10 15:44:28.45305+01 | 1486737868.45305 | pgbench_tellers_pkey  |            90112
 2017-02-10 15:44:28.45305+01 | 1486737868.45305 | pgbench_accounts_pkey |        690167808

 2017-02-10 15:44:29.504688+01 | 1486737869.50469 | pgbench_branches_pkey |            16384
 2017-02-10 15:44:29.504688+01 | 1486737869.50469 | pgbench_tellers_pkey  |            90112
 2017-02-10 15:44:29.504688+01 | 1486737869.50469 | pgbench_accounts_pkey |        690167808

 2017-02-10 15:44:30.555581+01 | 1486737870.55558 | pgbench_branches_pkey |            16384
 2017-02-10 15:44:30.555581+01 | 1486737870.55558 | pgbench_tellers_pkey  |            90112
 2017-02-10 15:44:30.555581+01 | 1486737870.55558 | pgbench_accounts_pkey |        690167808

 2017-02-10 15:44:31.61237+01 | 1486737871.61237 | pgbench_branches_pkey |            16384
 2017-02-10 15:44:31.61237+01 | 1486737871.61237 | pgbench_tellers_pkey  |            90112
 2017-02-10 15:44:31.61237+01 | 1486737871.61237 | pgbench_accounts_pkey |        690167808

 2017-02-10 15:44:32.667013+01 | 1486737872.66701 | pgbench_branches_pkey |            16384
 2017-02-10 15:44:32.667013+01 | 1486737872.66701 | pgbench_tellers_pkey  |            90112
 2017-02-10 15:44:32.667013+01 | 1486737872.66701 | pgbench_accounts_pkey |        690167808

 2017-02-10 15:44:33.718397+01 | 1486737873.7184 | pgbench_branches_pkey |            16384
 2017-02-10 15:44:33.718397+01 | 1486737873.7184 | pgbench_tellers_pkey  |            90112
 2017-02-10 15:44:33.718397+01 | 1486737873.7184 | pgbench_accounts_pkey |        690167808

 2017-02-10 15:44:34.769432+01 | 1486737874.76943 | pgbench_branches_pkey |            16384
 2017-02-10 15:44:34.769432+01 | 1486737874.76943 | pgbench_tellers_pkey  |            90112
 2017-02-10 15:44:34.769432+01 | 1486737874.76943 | pgbench_accounts_pkey |        690167808

 2017-02-10 15:44:35.822459+01 | 1486737875.82246 | pgbench_branches_pkey |            16384
 2017-02-10 15:44:35.822459+01 | 1486737875.82246 | pgbench_tellers_pkey  |            90112
 2017-02-10 15:44:35.822459+01 | 1486737875.82246 | pgbench_accounts_pkey |        690167808

 2017-02-10 15:44:36.874516+01 | 1486737876.87452 | pgbench_branches_pkey |            16384
 2017-02-10 15:44:36.874516+01 | 1486737876.87452 | pgbench_tellers_pkey  |            90112
 2017-02-10 15:44:36.874516+01 | 1486737876.87452 | pgbench_accounts_pkey |        690167808

 2017-02-10 15:44:37.928275+01 | 1486737877.92828 | pgbench_branches_pkey |            16384
 2017-02-10 15:44:37.928275+01 | 1486737877.92828 | pgbench_tellers_pkey  |            90112
 2017-02-10 15:44:37.928275+01 | 1486737877.92828 | pgbench_accounts_pkey |        690167808

 2017-02-10 15:44:38.981587+01 | 1486737878.98159 | pgbench_branches_pkey |            16384
 2017-02-10 15:44:38.981587+01 | 1486737878.98159 | pgbench_tellers_pkey  |            90112
 2017-02-10 15:44:38.981587+01 | 1486737878.98159 | pgbench_accounts_pkey |        690167808

 2017-02-10 15:44:40.036845+01 | 1486737880.03684 | pgbench_branches_pkey |            16384
 2017-02-10 15:44:40.036845+01 | 1486737880.03684 | pgbench_tellers_pkey  |            90112
 2017-02-10 15:44:40.036845+01 | 1486737880.03684 | pgbench_accounts_pkey |        690167808

 2017-02-10 15:44:41.090846+01 | 1486737881.09085 | pgbench_branches_pkey |            16384
 2017-02-10 15:44:41.090846+01 | 1486737881.09085 | pgbench_tellers_pkey  |            90112
 2017-02-10 15:44:41.090846+01 | 1486737881.09085 | pgbench_accounts_pkey |        690167808

 2017-02-10 15:44:42.142798+01 | 1486737882.1428 | pgbench_branches_pkey |            16384
 2017-02-10 15:44:42.142798+01 | 1486737882.1428 | pgbench_tellers_pkey  |            90112
 2017-02-10 15:44:42.142798+01 | 1486737882.1428 | pgbench_accounts_pkey |        690167808

 2017-02-10 15:44:43.199501+01 | 1486737883.1995 | pgbench_branches_pkey |            16384
 2017-02-10 15:44:43.199501+01 | 1486737883.1995 | pgbench_tellers_pkey  |            90112
 2017-02-10 15:44:43.199501+01 | 1486737883.1995 | pgbench_accounts_pkey |        690167808

 2017-02-10 15:44:44.260182+01 | 1486737884.26018 | pgbench_branches_pkey |            16384
 2017-02-10 15:44:44.260182+01 | 1486737884.26018 | pgbench_tellers_pkey  |            90112
 2017-02-10 15:44:44.260182+01 | 1486737884.26018 | pgbench_accounts_pkey |        690167808

 2017-02-10 15:44:45.312327+01 | 1486737885.31233 | pgbench_branches_pkey |            16384
 2017-02-10 15:44:45.312327+01 | 1486737885.31233 | pgbench_tellers_pkey  |            90112
 2017-02-10 15:44:45.312327+01 | 1486737885.31233 | pgbench_accounts_pkey |        690167808

 2017-02-10 15:44:46.364065+01 | 1486737886.36406 | pgbench_branches_pkey |            16384
 2017-02-10 15:44:46.364065+01 | 1486737886.36406 | pgbench_tellers_pkey  |            90112
 2017-02-10 15:44:46.364065+01 | 1486737886.36406 | pgbench_accounts_pkey |        690167808

 2017-02-10 15:44:47.418804+01 | 1486737887.4188 | pgbench_branches_pkey |            16384
 2017-02-10 15:44:47.418804+01 | 1486737887.4188 | pgbench_tellers_pkey  |            90112
 2017-02-10 15:44:47.418804+01 | 1486737887.4188 | pgbench_accounts_pkey |        690167808

 2017-02-10 15:44:48.470877+01 | 1486737888.47088 | pgbench_branches_pkey |            16384
 2017-02-10 15:44:48.470877+01 | 1486737888.47088 | pgbench_tellers_pkey  |            90112
 2017-02-10 15:44:48.470877+01 | 1486737888.47088 | pgbench_accounts_pkey |        690167808

 2017-02-10 15:44:49.523376+01 | 1486737889.52338 | pgbench_branches_pkey |            16384
 2017-02-10 15:44:49.523376+01 | 1486737889.52338 | pgbench_tellers_pkey  |            90112
 2017-02-10 15:44:49.523376+01 | 1486737889.52338 | pgbench_accounts_pkey |        690167808

 2017-02-10 15:44:50.586781+01 | 1486737890.58678 | pgbench_branches_pkey |            16384
 2017-02-10 15:44:50.586781+01 | 1486737890.58678 | pgbench_tellers_pkey  |            90112
 2017-02-10 15:44:50.586781+01 | 1486737890.58678 | pgbench_accounts_pkey |        690167808

 2017-02-10 15:44:51.637836+01 | 1486737891.63784 | pgbench_branches_pkey |            16384
 2017-02-10 15:44:51.637836+01 | 1486737891.63784 | pgbench_tellers_pkey  |            90112
 2017-02-10 15:44:51.637836+01 | 1486737891.63784 | pgbench_accounts_pkey |        690167808

 2017-02-10 15:44:52.688804+01 | 1486737892.6888 | pgbench_branches_pkey |            16384
 2017-02-10 15:44:52.688804+01 | 1486737892.6888 | pgbench_tellers_pkey  |            90112
 2017-02-10 15:44:52.688804+01 | 1486737892.6888 | pgbench_accounts_pkey |        690167808

 2017-02-10 15:44:53.73914+01 | 1486737893.73914 | pgbench_branches_pkey |            16384
 2017-02-10 15:44:53.73914+01 | 1486737893.73914 | pgbench_tellers_pkey  |            90112
 2017-02-10 15:44:53.73914+01 | 1486737893.73914 | pgbench_accounts_pkey |        690167808

 2017-02-10 15:44:54.791301+01 | 1486737894.7913 | pgbench_branches_pkey |            16384
 2017-02-10 15:44:54.791301+01 | 1486737894.7913 | pgbench_tellers_pkey  |            90112
 2017-02-10 15:44:54.791301+01 | 1486737894.7913 | pgbench_accounts_pkey |        690167808

 2017-02-10 15:44:55.844882+01 | 1486737895.84488 | pgbench_branches_pkey |            16384
 2017-02-10 15:44:55.844882+01 | 1486737895.84488 | pgbench_tellers_pkey  |            90112
 2017-02-10 15:44:55.844882+01 | 1486737895.84488 | pgbench_accounts_pkey |        690167808

 2017-02-10 15:44:56.899714+01 | 1486737896.89971 | pgbench_branches_pkey |            16384
 2017-02-10 15:44:56.899714+01 | 1486737896.89971 | pgbench_tellers_pkey  |            90112
 2017-02-10 15:44:56.899714+01 | 1486737896.89971 | pgbench_accounts_pkey |        690167808

 2017-02-10 15:44:57.951084+01 | 1486737897.95108 | pgbench_branches_pkey |            16384
 2017-02-10 15:44:57.951084+01 | 1486737897.95108 | pgbench_tellers_pkey  |            90112
 2017-02-10 15:44:57.951084+01 | 1486737897.95108 | pgbench_accounts_pkey |        690167808

 2017-02-10 15:44:59.004867+01 | 1486737899.00487 | pgbench_branches_pkey |            16384
 2017-02-10 15:44:59.004867+01 | 1486737899.00487 | pgbench_tellers_pkey  |            90112
 2017-02-10 15:44:59.004867+01 | 1486737899.00487 | pgbench_accounts_pkey |        690167808

 2017-02-10 15:45:00.057573+01 | 1486737900.05757 | pgbench_branches_pkey |            16384
 2017-02-10 15:45:00.057573+01 | 1486737900.05757 | pgbench_tellers_pkey  |            90112
 2017-02-10 15:45:00.057573+01 | 1486737900.05757 | pgbench_accounts_pkey |        690167808

 2017-02-10 15:45:01.112337+01 | 1486737901.11234 | pgbench_branches_pkey |            16384
 2017-02-10 15:45:01.112337+01 | 1486737901.11234 | pgbench_tellers_pkey  |            90112
 2017-02-10 15:45:01.112337+01 | 1486737901.11234 | pgbench_accounts_pkey |        690167808

 2017-02-10 15:45:02.167601+01 | 1486737902.1676 | pgbench_branches_pkey |            16384
 2017-02-10 15:45:02.167601+01 | 1486737902.1676 | pgbench_tellers_pkey  |            90112
 2017-02-10 15:45:02.167601+01 | 1486737902.1676 | pgbench_accounts_pkey |        690167808

 2017-02-10 15:45:03.219892+01 | 1486737903.21989 | pgbench_branches_pkey |            16384
 2017-02-10 15:45:03.219892+01 | 1486737903.21989 | pgbench_tellers_pkey  |            90112
 2017-02-10 15:45:03.219892+01 | 1486737903.21989 | pgbench_accounts_pkey |        690167808

 2017-02-10 15:45:04.270797+01 | 1486737904.2708 | pgbench_branches_pkey |            16384
 2017-02-10 15:45:04.270797+01 | 1486737904.2708 | pgbench_tellers_pkey  |            90112
 2017-02-10 15:45:04.270797+01 | 1486737904.2708 | pgbench_accounts_pkey |        690167808

 2017-02-10 15:45:05.324127+01 | 1486737905.32413 | pgbench_branches_pkey |            16384
 2017-02-10 15:45:05.324127+01 | 1486737905.32413 | pgbench_tellers_pkey  |            90112
 2017-02-10 15:45:05.324127+01 | 1486737905.32413 | pgbench_accounts_pkey |        690167808

 2017-02-10 15:45:06.376969+01 | 1486737906.37697 | pgbench_branches_pkey |            16384
 2017-02-10 15:45:06.376969+01 | 1486737906.37697 | pgbench_tellers_pkey  |            90112
 2017-02-10 15:45:06.376969+01 | 1486737906.37697 | pgbench_accounts_pkey |        690167808

 2017-02-10 15:45:07.432345+01 | 1486737907.43234 | pgbench_branches_pkey |            16384
 2017-02-10 15:45:07.432345+01 | 1486737907.43234 | pgbench_tellers_pkey  |            90112
 2017-02-10 15:45:07.432345+01 | 1486737907.43234 | pgbench_accounts_pkey |        690167808

 2017-02-10 15:45:08.484518+01 | 1486737908.48452 | pgbench_branches_pkey |            16384
 2017-02-10 15:45:08.484518+01 | 1486737908.48452 | pgbench_tellers_pkey  |            90112
 2017-02-10 15:45:08.484518+01 | 1486737908.48452 | pgbench_accounts_pkey |        690167808

 2017-02-10 15:45:09.529556+01 | 1486737909.52956 | pgbench_branches_pkey |            16384
 2017-02-10 15:45:09.529556+01 | 1486737909.52956 | pgbench_tellers_pkey  |            90112
 2017-02-10 15:45:09.529556+01 | 1486737909.52956 | pgbench_accounts_pkey |        690167808

 2017-02-10 15:45:10.585249+01 | 1486737910.58525 | pgbench_branches_pkey |            16384
 2017-02-10 15:45:10.585249+01 | 1486737910.58525 | pgbench_tellers_pkey  |            90112
 2017-02-10 15:45:10.585249+01 | 1486737910.58525 | pgbench_accounts_pkey |        690167808

 2017-02-10 15:45:11.635317+01 | 1486737911.63532 | pgbench_branches_pkey |            16384
 2017-02-10 15:45:11.635317+01 | 1486737911.63532 | pgbench_tellers_pkey  |            90112
 2017-02-10 15:45:11.635317+01 | 1486737911.63532 | pgbench_accounts_pkey |        690167808

 2017-02-10 15:45:12.689916+01 | 1486737912.68992 | pgbench_branches_pkey |            16384
 2017-02-10 15:45:12.689916+01 | 1486737912.68992 | pgbench_tellers_pkey  |            90112
 2017-02-10 15:45:12.689916+01 | 1486737912.68992 | pgbench_accounts_pkey |        690167808

 2017-02-10 15:45:13.742697+01 | 1486737913.7427 | pgbench_branches_pkey |            16384
 2017-02-10 15:45:13.742697+01 | 1486737913.7427 | pgbench_tellers_pkey  |            90112
 2017-02-10 15:45:13.742697+01 | 1486737913.7427 | pgbench_accounts_pkey |        690167808

 2017-02-10 15:45:14.792916+01 | 1486737914.79292 | pgbench_branches_pkey |            16384
 2017-02-10 15:45:14.792916+01 | 1486737914.79292 | pgbench_tellers_pkey  |            90112
 2017-02-10 15:45:14.792916+01 | 1486737914.79292 | pgbench_accounts_pkey |        690167808

 2017-02-10 15:45:15.842465+01 | 1486737915.84246 | pgbench_branches_pkey |            16384
 2017-02-10 15:45:15.842465+01 | 1486737915.84246 | pgbench_tellers_pkey  |            90112
 2017-02-10 15:45:15.842465+01 | 1486737915.84246 | pgbench_accounts_pkey |        690167808

 2017-02-10 15:45:16.89551+01 | 1486737916.89551 | pgbench_branches_pkey |            16384
 2017-02-10 15:45:16.89551+01 | 1486737916.89551 | pgbench_tellers_pkey  |            90112
 2017-02-10 15:45:16.89551+01 | 1486737916.89551 | pgbench_accounts_pkey |        690167808

 2017-02-10 15:45:17.946228+01 | 1486737917.94623 | pgbench_branches_pkey |            16384
 2017-02-10 15:45:17.946228+01 | 1486737917.94623 | pgbench_tellers_pkey  |            90112
 2017-02-10 15:45:17.946228+01 | 1486737917.94623 | pgbench_accounts_pkey |        690167808

 2017-02-10 15:45:18.998813+01 | 1486737918.99881 | pgbench_branches_pkey |            16384
 2017-02-10 15:45:18.998813+01 | 1486737918.99881 | pgbench_tellers_pkey  |            90112
 2017-02-10 15:45:18.998813+01 | 1486737918.99881 | pgbench_accounts_pkey |        690167808

 2017-02-10 15:45:20.049263+01 | 1486737920.04926 | pgbench_branches_pkey |            16384
 2017-02-10 15:45:20.049263+01 | 1486737920.04926 | pgbench_tellers_pkey  |            90112
 2017-02-10 15:45:20.049263+01 | 1486737920.04926 | pgbench_accounts_pkey |        690167808

 2017-02-10 15:45:21.101623+01 | 1486737921.10162 | pgbench_branches_pkey |            16384
 2017-02-10 15:45:21.101623+01 | 1486737921.10162 | pgbench_tellers_pkey  |            90112
 2017-02-10 15:45:21.101623+01 | 1486737921.10162 | pgbench_accounts_pkey |        690167808

 2017-02-10 15:45:22.153464+01 | 1486737922.15346 | pgbench_branches_pkey |            16384
 2017-02-10 15:45:22.153464+01 | 1486737922.15346 | pgbench_tellers_pkey  |            90112
 2017-02-10 15:45:22.153464+01 | 1486737922.15346 | pgbench_accounts_pkey |        690167808

 2017-02-10 15:45:23.204518+01 | 1486737923.20452 | pgbench_branches_pkey |            16384
 2017-02-10 15:45:23.204518+01 | 1486737923.20452 | pgbench_tellers_pkey  |            90112
 2017-02-10 15:45:23.204518+01 | 1486737923.20452 | pgbench_accounts_pkey |        690167808

 2017-02-10 15:45:24.258166+01 | 1486737924.25817 | pgbench_branches_pkey |            16384
 2017-02-10 15:45:24.258166+01 | 1486737924.25817 | pgbench_tellers_pkey  |            90112
 2017-02-10 15:45:24.258166+01 | 1486737924.25817 | pgbench_accounts_pkey |        690167808

 2017-02-10 15:45:25.308958+01 | 1486737925.30896 | pgbench_branches_pkey |            16384
 2017-02-10 15:45:25.308958+01 | 1486737925.30896 | pgbench_tellers_pkey  |            90112
 2017-02-10 15:45:25.308958+01 | 1486737925.30896 | pgbench_accounts_pkey |        690167808

 2017-02-10 15:45:26.362912+01 | 1486737926.36291 | pgbench_branches_pkey |            16384
 2017-02-10 15:45:26.362912+01 | 1486737926.36291 | pgbench_tellers_pkey  |            90112
 2017-02-10 15:45:26.362912+01 | 1486737926.36291 | pgbench_accounts_pkey |        690167808

 2017-02-10 15:45:27.413687+01 | 1486737927.41369 | pgbench_branches_pkey |            16384
 2017-02-10 15:45:27.413687+01 | 1486737927.41369 | pgbench_tellers_pkey  |            90112
 2017-02-10 15:45:27.413687+01 | 1486737927.41369 | pgbench_accounts_pkey |        690167808

 2017-02-10 15:45:28.465451+01 | 1486737928.46545 | pgbench_branches_pkey |            16384
 2017-02-10 15:45:28.465451+01 | 1486737928.46545 | pgbench_tellers_pkey  |            90112
 2017-02-10 15:45:28.465451+01 | 1486737928.46545 | pgbench_accounts_pkey |        690167808

 2017-02-10 15:45:29.518325+01 | 1486737929.51833 | pgbench_branches_pkey |            16384
 2017-02-10 15:45:29.518325+01 | 1486737929.51833 | pgbench_tellers_pkey  |            90112
 2017-02-10 15:45:29.518325+01 | 1486737929.51833 | pgbench_accounts_pkey |        690167808

 2017-02-10 15:45:30.570034+01 | 1486737930.57003 | pgbench_branches_pkey |            16384
 2017-02-10 15:45:30.570034+01 | 1486737930.57003 | pgbench_tellers_pkey  |            90112
 2017-02-10 15:45:30.570034+01 | 1486737930.57003 | pgbench_accounts_pkey |        690167808

 2017-02-10 15:45:31.623982+01 | 1486737931.62398 | pgbench_branches_pkey |            16384
 2017-02-10 15:45:31.623982+01 | 1486737931.62398 | pgbench_tellers_pkey  |            90112
 2017-02-10 15:45:31.623982+01 | 1486737931.62398 | pgbench_accounts_pkey |        690167808

 2017-02-10 15:45:32.677372+01 | 1486737932.67737 | pgbench_branches_pkey |            16384
 2017-02-10 15:45:32.677372+01 | 1486737932.67737 | pgbench_tellers_pkey  |            90112
 2017-02-10 15:45:32.677372+01 | 1486737932.67737 | pgbench_accounts_pkey |        690167808

 2017-02-10 15:45:33.732035+01 | 1486737933.73203 | pgbench_branches_pkey |            16384
 2017-02-10 15:45:33.732035+01 | 1486737933.73203 | pgbench_tellers_pkey  |            90112
 2017-02-10 15:45:33.732035+01 | 1486737933.73203 | pgbench_accounts_pkey |        690167808

 2017-02-10 15:45:34.781759+01 | 1486737934.78176 | pgbench_branches_pkey |            16384
 2017-02-10 15:45:34.781759+01 | 1486737934.78176 | pgbench_tellers_pkey  |            90112
 2017-02-10 15:45:34.781759+01 | 1486737934.78176 | pgbench_accounts_pkey |        690167808

 2017-02-10 15:45:35.832479+01 | 1486737935.83248 | pgbench_branches_pkey |            16384
 2017-02-10 15:45:35.832479+01 | 1486737935.83248 | pgbench_tellers_pkey  |            90112
 2017-02-10 15:45:35.832479+01 | 1486737935.83248 | pgbench_accounts_pkey |        690167808

 2017-02-10 15:45:36.88371+01 | 1486737936.88371 | pgbench_branches_pkey |            16384
 2017-02-10 15:45:36.88371+01 | 1486737936.88371 | pgbench_tellers_pkey  |            90112
 2017-02-10 15:45:36.88371+01 | 1486737936.88371 | pgbench_accounts_pkey |        690167808

 2017-02-10 15:45:37.935496+01 | 1486737937.9355 | pgbench_branches_pkey |            16384
 2017-02-10 15:45:37.935496+01 | 1486737937.9355 | pgbench_tellers_pkey  |            90112
 2017-02-10 15:45:37.935496+01 | 1486737937.9355 | pgbench_accounts_pkey |        690167808

 2017-02-10 15:45:38.988773+01 | 1486737938.98877 | pgbench_branches_pkey |            16384
 2017-02-10 15:45:38.988773+01 | 1486737938.98877 | pgbench_tellers_pkey  |            90112
 2017-02-10 15:45:38.988773+01 | 1486737938.98877 | pgbench_accounts_pkey |        690167808

 2017-02-10 15:45:40.039109+01 | 1486737940.03911 | pgbench_branches_pkey |            16384
 2017-02-10 15:45:40.039109+01 | 1486737940.03911 | pgbench_tellers_pkey  |            90112
 2017-02-10 15:45:40.039109+01 | 1486737940.03911 | pgbench_accounts_pkey |        690167808

 2017-02-10 15:45:41.091908+01 | 1486737941.09191 | pgbench_branches_pkey |            16384
 2017-02-10 15:45:41.091908+01 | 1486737941.09191 | pgbench_tellers_pkey  |            90112
 2017-02-10 15:45:41.091908+01 | 1486737941.09191 | pgbench_accounts_pkey |        690167808

 2017-02-10 15:45:42.144387+01 | 1486737942.14439 | pgbench_branches_pkey |            16384
 2017-02-10 15:45:42.144387+01 | 1486737942.14439 | pgbench_tellers_pkey  |            90112
 2017-02-10 15:45:42.144387+01 | 1486737942.14439 | pgbench_accounts_pkey |        690167808

 2017-02-10 15:45:43.196072+01 | 1486737943.19607 | pgbench_branches_pkey |            16384
 2017-02-10 15:45:43.196072+01 | 1486737943.19607 | pgbench_tellers_pkey  |            90112
 2017-02-10 15:45:43.196072+01 | 1486737943.19607 | pgbench_accounts_pkey |        690167808

 2017-02-10 15:45:44.249274+01 | 1486737944.24927 | pgbench_branches_pkey |            16384
 2017-02-10 15:45:44.249274+01 | 1486737944.24927 | pgbench_tellers_pkey  |            90112
 2017-02-10 15:45:44.249274+01 | 1486737944.24927 | pgbench_accounts_pkey |        690167808

 2017-02-10 15:45:45.302649+01 | 1486737945.30265 | pgbench_branches_pkey |            16384
 2017-02-10 15:45:45.302649+01 | 1486737945.30265 | pgbench_tellers_pkey  |            90112
 2017-02-10 15:45:45.302649+01 | 1486737945.30265 | pgbench_accounts_pkey |        690167808

 2017-02-10 15:45:46.35352+01 | 1486737946.35352 | pgbench_branches_pkey |            16384
 2017-02-10 15:45:46.35352+01 | 1486737946.35352 | pgbench_tellers_pkey  |            90112
 2017-02-10 15:45:46.35352+01 | 1486737946.35352 | pgbench_accounts_pkey |        690167808

 2017-02-10 15:45:47.406576+01 | 1486737947.40658 | pgbench_branches_pkey |            16384
 2017-02-10 15:45:47.406576+01 | 1486737947.40658 | pgbench_tellers_pkey  |            90112
 2017-02-10 15:45:47.406576+01 | 1486737947.40658 | pgbench_accounts_pkey |        690167808

 2017-02-10 15:45:48.456832+01 | 1486737948.45683 | pgbench_branches_pkey |            16384
 2017-02-10 15:45:48.456832+01 | 1486737948.45683 | pgbench_tellers_pkey  |            90112
 2017-02-10 15:45:48.456832+01 | 1486737948.45683 | pgbench_accounts_pkey |        690167808

 2017-02-10 15:45:49.51335+01 | 1486737949.51335 | pgbench_branches_pkey |            16384
 2017-02-10 15:45:49.51335+01 | 1486737949.51335 | pgbench_tellers_pkey  |            90112
 2017-02-10 15:45:49.51335+01 | 1486737949.51335 | pgbench_accounts_pkey |        690167808

 2017-02-10 15:45:50.565978+01 | 1486737950.56598 | pgbench_branches_pkey |            16384
 2017-02-10 15:45:50.565978+01 | 1486737950.56598 | pgbench_tellers_pkey  |            90112
 2017-02-10 15:45:50.565978+01 | 1486737950.56598 | pgbench_accounts_pkey |        690167808

 2017-02-10 15:45:51.619613+01 | 1486737951.61961 | pgbench_branches_pkey |            16384
 2017-02-10 15:45:51.619613+01 | 1486737951.61961 | pgbench_tellers_pkey  |            90112
 2017-02-10 15:45:51.619613+01 | 1486737951.61961 | pgbench_accounts_pkey |        690167808

 2017-02-10 15:45:52.667602+01 | 1486737952.6676 | pgbench_branches_pkey |            16384
 2017-02-10 15:45:52.667602+01 | 1486737952.6676 | pgbench_tellers_pkey  |            90112
 2017-02-10 15:45:52.667602+01 | 1486737952.6676 | pgbench_accounts_pkey |        690167808

 2017-02-10 15:45:53.721199+01 | 1486737953.7212 | pgbench_branches_pkey |            16384
 2017-02-10 15:45:53.721199+01 | 1486737953.7212 | pgbench_tellers_pkey  |            90112
 2017-02-10 15:45:53.721199+01 | 1486737953.7212 | pgbench_accounts_pkey |        690167808

 2017-02-10 15:45:54.772229+01 | 1486737954.77223 | pgbench_branches_pkey |            16384
 2017-02-10 15:45:54.772229+01 | 1486737954.77223 | pgbench_tellers_pkey  |            90112
 2017-02-10 15:45:54.772229+01 | 1486737954.77223 | pgbench_accounts_pkey |        690167808

 2017-02-10 15:45:55.822237+01 | 1486737955.82224 | pgbench_branches_pkey |            16384
 2017-02-10 15:45:55.822237+01 | 1486737955.82224 | pgbench_tellers_pkey  |            90112
 2017-02-10 15:45:55.822237+01 | 1486737955.82224 | pgbench_accounts_pkey |        690167808

 2017-02-10 15:45:56.874926+01 | 1486737956.87493 | pgbench_branches_pkey |            16384
 2017-02-10 15:45:56.874926+01 | 1486737956.87493 | pgbench_tellers_pkey  |            90112
 2017-02-10 15:45:56.874926+01 | 1486737956.87493 | pgbench_accounts_pkey |        690167808

 2017-02-10 15:45:57.927263+01 | 1486737957.92726 | pgbench_branches_pkey |            16384
 2017-02-10 15:45:57.927263+01 | 1486737957.92726 | pgbench_tellers_pkey  |            90112
 2017-02-10 15:45:57.927263+01 | 1486737957.92726 | pgbench_accounts_pkey |        690167808

 2017-02-10 15:45:58.979185+01 | 1486737958.97919 | pgbench_branches_pkey |            16384
 2017-02-10 15:45:58.979185+01 | 1486737958.97919 | pgbench_tellers_pkey  |            90112
 2017-02-10 15:45:58.979185+01 | 1486737958.97919 | pgbench_accounts_pkey |        690167808

 2017-02-10 15:46:00.030817+01 | 1486737960.03082 | pgbench_branches_pkey |            16384
 2017-02-10 15:46:00.030817+01 | 1486737960.03082 | pgbench_tellers_pkey  |            90112
 2017-02-10 15:46:00.030817+01 | 1486737960.03082 | pgbench_accounts_pkey |        690167808

 2017-02-10 15:46:01.086424+01 | 1486737961.08642 | pgbench_branches_pkey |            16384
 2017-02-10 15:46:01.086424+01 | 1486737961.08642 | pgbench_tellers_pkey  |            90112
 2017-02-10 15:46:01.086424+01 | 1486737961.08642 | pgbench_accounts_pkey |        690167808

 2017-02-10 15:46:02.13714+01 | 1486737962.13714 | pgbench_branches_pkey |            16384
 2017-02-10 15:46:02.13714+01 | 1486737962.13714 | pgbench_tellers_pkey  |            90112
 2017-02-10 15:46:02.13714+01 | 1486737962.13714 | pgbench_accounts_pkey |        690167808

 2017-02-10 15:46:03.191147+01 | 1486737963.19115 | pgbench_branches_pkey |            16384
 2017-02-10 15:46:03.191147+01 | 1486737963.19115 | pgbench_tellers_pkey  |            90112
 2017-02-10 15:46:03.191147+01 | 1486737963.19115 | pgbench_accounts_pkey |        690167808

 2017-02-10 15:46:04.242639+01 | 1486737964.24264 | pgbench_branches_pkey |            16384
 2017-02-10 15:46:04.242639+01 | 1486737964.24264 | pgbench_tellers_pkey  |            90112
 2017-02-10 15:46:04.242639+01 | 1486737964.24264 | pgbench_accounts_pkey |        690167808

 2017-02-10 15:46:05.293674+01 | 1486737965.29367 | pgbench_branches_pkey |            16384
 2017-02-10 15:46:05.293674+01 | 1486737965.29367 | pgbench_tellers_pkey  |            90112
 2017-02-10 15:46:05.293674+01 | 1486737965.29367 | pgbench_accounts_pkey |        690167808

 2017-02-10 15:46:06.345441+01 | 1486737966.34544 | pgbench_branches_pkey |            16384
 2017-02-10 15:46:06.345441+01 | 1486737966.34544 | pgbench_tellers_pkey  |            90112
 2017-02-10 15:46:06.345441+01 | 1486737966.34544 | pgbench_accounts_pkey |        690167808

 2017-02-10 15:46:07.395211+01 | 1486737967.39521 | pgbench_branches_pkey |            16384
 2017-02-10 15:46:07.395211+01 | 1486737967.39521 | pgbench_tellers_pkey  |            90112
 2017-02-10 15:46:07.395211+01 | 1486737967.39521 | pgbench_accounts_pkey |        690167808

 2017-02-10 15:46:08.444722+01 | 1486737968.44472 | pgbench_branches_pkey |            16384
 2017-02-10 15:46:08.444722+01 | 1486737968.44472 | pgbench_tellers_pkey  |            90112
 2017-02-10 15:46:08.444722+01 | 1486737968.44472 | pgbench_accounts_pkey |        690167808

 2017-02-10 15:46:09.497222+01 | 1486737969.49722 | pgbench_branches_pkey |            16384
 2017-02-10 15:46:09.497222+01 | 1486737969.49722 | pgbench_tellers_pkey  |            90112
 2017-02-10 15:46:09.497222+01 | 1486737969.49722 | pgbench_accounts_pkey |        690167808

 2017-02-10 15:46:10.549014+01 | 1486737970.54901 | pgbench_branches_pkey |            16384
 2017-02-10 15:46:10.549014+01 | 1486737970.54901 | pgbench_tellers_pkey  |            90112
 2017-02-10 15:46:10.549014+01 | 1486737970.54901 | pgbench_accounts_pkey |        690167808

 2017-02-10 15:46:11.603697+01 | 1486737971.6037 | pgbench_branches_pkey |            16384
 2017-02-10 15:46:11.603697+01 | 1486737971.6037 | pgbench_tellers_pkey  |            90112
 2017-02-10 15:46:11.603697+01 | 1486737971.6037 | pgbench_accounts_pkey |        690167808

 2017-02-10 15:46:12.652633+01 | 1486737972.65263 | pgbench_branches_pkey |            16384
 2017-02-10 15:46:12.652633+01 | 1486737972.65263 | pgbench_tellers_pkey  |            90112
 2017-02-10 15:46:12.652633+01 | 1486737972.65263 | pgbench_accounts_pkey |        690167808

 2017-02-10 15:46:13.701722+01 | 1486737973.70172 | pgbench_branches_pkey |            16384
 2017-02-10 15:46:13.701722+01 | 1486737973.70172 | pgbench_tellers_pkey  |            90112
 2017-02-10 15:46:13.701722+01 | 1486737973.70172 | pgbench_accounts_pkey |        690167808

 2017-02-10 15:46:14.757919+01 | 1486737974.75792 | pgbench_branches_pkey |            16384
 2017-02-10 15:46:14.757919+01 | 1486737974.75792 | pgbench_tellers_pkey  |            90112
 2017-02-10 15:46:14.757919+01 | 1486737974.75792 | pgbench_accounts_pkey |        690167808

 2017-02-10 15:46:15.810589+01 | 1486737975.81059 | pgbench_branches_pkey |            16384
 2017-02-10 15:46:15.810589+01 | 1486737975.81059 | pgbench_tellers_pkey  |            90112
 2017-02-10 15:46:15.810589+01 | 1486737975.81059 | pgbench_accounts_pkey |        690167808

 2017-02-10 15:46:16.866827+01 | 1486737976.86683 | pgbench_branches_pkey |            16384
 2017-02-10 15:46:16.866827+01 | 1486737976.86683 | pgbench_tellers_pkey  |            90112
 2017-02-10 15:46:16.866827+01 | 1486737976.86683 | pgbench_accounts_pkey |        690167808

 2017-02-10 15:46:17.920115+01 | 1486737977.92011 | pgbench_branches_pkey |            16384
 2017-02-10 15:46:17.920115+01 | 1486737977.92011 | pgbench_tellers_pkey  |            90112
 2017-02-10 15:46:17.920115+01 | 1486737977.92011 | pgbench_accounts_pkey |        690167808

 2017-02-10 15:46:18.972959+01 | 1486737978.97296 | pgbench_branches_pkey |            16384
 2017-02-10 15:46:18.972959+01 | 1486737978.97296 | pgbench_tellers_pkey  |            90112
 2017-02-10 15:46:18.972959+01 | 1486737978.97296 | pgbench_accounts_pkey |        690167808

 2017-02-10 15:46:20.026347+01 | 1486737980.02635 | pgbench_branches_pkey |            16384
 2017-02-10 15:46:20.026347+01 | 1486737980.02635 | pgbench_tellers_pkey  |            90112
 2017-02-10 15:46:20.026347+01 | 1486737980.02635 | pgbench_accounts_pkey |        690167808

 2017-02-10 15:46:21.076433+01 | 1486737981.07643 | pgbench_branches_pkey |            16384
 2017-02-10 15:46:21.076433+01 | 1486737981.07643 | pgbench_tellers_pkey  |            90112
 2017-02-10 15:46:21.076433+01 | 1486737981.07643 | pgbench_accounts_pkey |        690167808

 2017-02-10 15:46:22.125162+01 | 1486737982.12516 | pgbench_branches_pkey |            16384
 2017-02-10 15:46:22.125162+01 | 1486737982.12516 | pgbench_tellers_pkey  |            90112
 2017-02-10 15:46:22.125162+01 | 1486737982.12516 | pgbench_accounts_pkey |        690167808

 2017-02-10 15:46:23.176338+01 | 1486737983.17634 | pgbench_branches_pkey |            16384
 2017-02-10 15:46:23.176338+01 | 1486737983.17634 | pgbench_tellers_pkey  |            90112
 2017-02-10 15:46:23.176338+01 | 1486737983.17634 | pgbench_accounts_pkey |        690167808

 2017-02-10 15:46:24.227673+01 | 1486737984.22767 | pgbench_branches_pkey |            16384
 2017-02-10 15:46:24.227673+01 | 1486737984.22767 | pgbench_tellers_pkey  |            90112
 2017-02-10 15:46:24.227673+01 | 1486737984.22767 | pgbench_accounts_pkey |        690167808

 2017-02-10 15:46:25.280329+01 | 1486737985.28033 | pgbench_branches_pkey |            16384
 2017-02-10 15:46:25.280329+01 | 1486737985.28033 | pgbench_tellers_pkey  |            90112
 2017-02-10 15:46:25.280329+01 | 1486737985.28033 | pgbench_accounts_pkey |        690167808

