 2017-02-09 08:02:46.175305+01 | 1486623766.1753 | pgbench_branches_pkey |           737280
 2017-02-09 08:02:46.175305+01 | 1486623766.1753 | pgbench_tellers_pkey  |          2170880
 2017-02-09 08:02:46.175305+01 | 1486623766.1753 | pgbench_accounts_pkey |        673882112

 2017-02-09 08:02:47.237428+01 | 1486623767.23743 | pgbench_branches_pkey |           737280
 2017-02-09 08:02:47.237428+01 | 1486623767.23743 | pgbench_tellers_pkey  |          2170880
 2017-02-09 08:02:47.237428+01 | 1486623767.23743 | pgbench_accounts_pkey |        673882112

 2017-02-09 08:02:48.302756+01 | 1486623768.30276 | pgbench_branches_pkey |           737280
 2017-02-09 08:02:48.302756+01 | 1486623768.30276 | pgbench_tellers_pkey  |          2170880
 2017-02-09 08:02:48.302756+01 | 1486623768.30276 | pgbench_accounts_pkey |        673882112

 2017-02-09 08:02:49.370105+01 | 1486623769.37011 | pgbench_branches_pkey |           737280
 2017-02-09 08:02:49.370105+01 | 1486623769.37011 | pgbench_tellers_pkey  |          2170880
 2017-02-09 08:02:49.370105+01 | 1486623769.37011 | pgbench_accounts_pkey |        673882112

 2017-02-09 08:02:50.439765+01 | 1486623770.43976 | pgbench_branches_pkey |           737280
 2017-02-09 08:02:50.439765+01 | 1486623770.43976 | pgbench_tellers_pkey  |          2170880
 2017-02-09 08:02:50.439765+01 | 1486623770.43976 | pgbench_accounts_pkey |        673882112

 2017-02-09 08:02:51.502322+01 | 1486623771.50232 | pgbench_branches_pkey |           737280
 2017-02-09 08:02:51.502322+01 | 1486623771.50232 | pgbench_tellers_pkey  |          2170880
 2017-02-09 08:02:51.502322+01 | 1486623771.50232 | pgbench_accounts_pkey |        673882112

 2017-02-09 08:02:52.566608+01 | 1486623772.56661 | pgbench_branches_pkey |           737280
 2017-02-09 08:02:52.566608+01 | 1486623772.56661 | pgbench_tellers_pkey  |          2170880
 2017-02-09 08:02:52.566608+01 | 1486623772.56661 | pgbench_accounts_pkey |        673882112

 2017-02-09 08:02:53.637831+01 | 1486623773.63783 | pgbench_branches_pkey |           737280
 2017-02-09 08:02:53.637831+01 | 1486623773.63783 | pgbench_tellers_pkey  |          2170880
 2017-02-09 08:02:53.637831+01 | 1486623773.63783 | pgbench_accounts_pkey |        673882112

 2017-02-09 08:02:54.703999+01 | 1486623774.704 | pgbench_branches_pkey |           737280
 2017-02-09 08:02:54.703999+01 | 1486623774.704 | pgbench_tellers_pkey  |          2170880
 2017-02-09 08:02:54.703999+01 | 1486623774.704 | pgbench_accounts_pkey |        673882112

 2017-02-09 08:02:55.762549+01 | 1486623775.76255 | pgbench_branches_pkey |           737280
 2017-02-09 08:02:55.762549+01 | 1486623775.76255 | pgbench_tellers_pkey  |          2170880
 2017-02-09 08:02:55.762549+01 | 1486623775.76255 | pgbench_accounts_pkey |        673882112

 2017-02-09 08:02:56.829754+01 | 1486623776.82975 | pgbench_branches_pkey |           737280
 2017-02-09 08:02:56.829754+01 | 1486623776.82975 | pgbench_tellers_pkey  |          2170880
 2017-02-09 08:02:56.829754+01 | 1486623776.82975 | pgbench_accounts_pkey |        673882112

 2017-02-09 08:02:57.902482+01 | 1486623777.90248 | pgbench_branches_pkey |           737280
 2017-02-09 08:02:57.902482+01 | 1486623777.90248 | pgbench_tellers_pkey  |          2170880
 2017-02-09 08:02:57.902482+01 | 1486623777.90248 | pgbench_accounts_pkey |        673882112

 2017-02-09 08:02:58.9623+01 | 1486623778.9623 | pgbench_branches_pkey |           737280
 2017-02-09 08:02:58.9623+01 | 1486623778.9623 | pgbench_tellers_pkey  |          2170880
 2017-02-09 08:02:58.9623+01 | 1486623778.9623 | pgbench_accounts_pkey |        673882112

 2017-02-09 08:03:00.023949+01 | 1486623780.02395 | pgbench_branches_pkey |           737280
 2017-02-09 08:03:00.023949+01 | 1486623780.02395 | pgbench_tellers_pkey  |          2170880
 2017-02-09 08:03:00.023949+01 | 1486623780.02395 | pgbench_accounts_pkey |        673882112

 2017-02-09 08:03:01.092461+01 | 1486623781.09246 | pgbench_branches_pkey |           737280
 2017-02-09 08:03:01.092461+01 | 1486623781.09246 | pgbench_tellers_pkey  |          2170880
 2017-02-09 08:03:01.092461+01 | 1486623781.09246 | pgbench_accounts_pkey |        673882112

 2017-02-09 08:03:02.156128+01 | 1486623782.15613 | pgbench_branches_pkey |           737280
 2017-02-09 08:03:02.156128+01 | 1486623782.15613 | pgbench_tellers_pkey  |          2170880
 2017-02-09 08:03:02.156128+01 | 1486623782.15613 | pgbench_accounts_pkey |        673882112

 2017-02-09 08:03:03.213467+01 | 1486623783.21347 | pgbench_branches_pkey |           737280
 2017-02-09 08:03:03.213467+01 | 1486623783.21347 | pgbench_tellers_pkey  |          2170880
 2017-02-09 08:03:03.213467+01 | 1486623783.21347 | pgbench_accounts_pkey |        673882112

 2017-02-09 08:03:04.284699+01 | 1486623784.2847 | pgbench_branches_pkey |           737280
 2017-02-09 08:03:04.284699+01 | 1486623784.2847 | pgbench_tellers_pkey  |          2170880
 2017-02-09 08:03:04.284699+01 | 1486623784.2847 | pgbench_accounts_pkey |        673882112

 2017-02-09 08:03:05.343302+01 | 1486623785.3433 | pgbench_branches_pkey |           737280
 2017-02-09 08:03:05.343302+01 | 1486623785.3433 | pgbench_tellers_pkey  |          2170880
 2017-02-09 08:03:05.343302+01 | 1486623785.3433 | pgbench_accounts_pkey |        673882112

 2017-02-09 08:03:06.410392+01 | 1486623786.41039 | pgbench_branches_pkey |           737280
 2017-02-09 08:03:06.410392+01 | 1486623786.41039 | pgbench_tellers_pkey  |          2170880
 2017-02-09 08:03:06.410392+01 | 1486623786.41039 | pgbench_accounts_pkey |        673882112

 2017-02-09 08:03:07.465125+01 | 1486623787.46513 | pgbench_branches_pkey |           737280
 2017-02-09 08:03:07.465125+01 | 1486623787.46513 | pgbench_tellers_pkey  |          2170880
 2017-02-09 08:03:07.465125+01 | 1486623787.46513 | pgbench_accounts_pkey |        673882112

 2017-02-09 08:03:08.529985+01 | 1486623788.52998 | pgbench_branches_pkey |           737280
 2017-02-09 08:03:08.529985+01 | 1486623788.52998 | pgbench_tellers_pkey  |          2170880
 2017-02-09 08:03:08.529985+01 | 1486623788.52998 | pgbench_accounts_pkey |        673882112

 2017-02-09 08:03:09.590246+01 | 1486623789.59025 | pgbench_branches_pkey |           737280
 2017-02-09 08:03:09.590246+01 | 1486623789.59025 | pgbench_tellers_pkey  |          2170880
 2017-02-09 08:03:09.590246+01 | 1486623789.59025 | pgbench_accounts_pkey |        673882112

 2017-02-09 08:03:10.650242+01 | 1486623790.65024 | pgbench_branches_pkey |           737280
 2017-02-09 08:03:10.650242+01 | 1486623790.65024 | pgbench_tellers_pkey  |          2170880
 2017-02-09 08:03:10.650242+01 | 1486623790.65024 | pgbench_accounts_pkey |        673882112

 2017-02-09 08:03:11.712185+01 | 1486623791.71218 | pgbench_branches_pkey |           737280
 2017-02-09 08:03:11.712185+01 | 1486623791.71218 | pgbench_tellers_pkey  |          2170880
 2017-02-09 08:03:11.712185+01 | 1486623791.71218 | pgbench_accounts_pkey |        673882112

 2017-02-09 08:03:12.780591+01 | 1486623792.78059 | pgbench_branches_pkey |           737280
 2017-02-09 08:03:12.780591+01 | 1486623792.78059 | pgbench_tellers_pkey  |          2170880
 2017-02-09 08:03:12.780591+01 | 1486623792.78059 | pgbench_accounts_pkey |        673882112

 2017-02-09 08:03:13.844676+01 | 1486623793.84468 | pgbench_branches_pkey |           737280
 2017-02-09 08:03:13.844676+01 | 1486623793.84468 | pgbench_tellers_pkey  |          2170880
 2017-02-09 08:03:13.844676+01 | 1486623793.84468 | pgbench_accounts_pkey |        673882112

 2017-02-09 08:03:14.912502+01 | 1486623794.9125 | pgbench_branches_pkey |           737280
 2017-02-09 08:03:14.912502+01 | 1486623794.9125 | pgbench_tellers_pkey  |          2170880
 2017-02-09 08:03:14.912502+01 | 1486623794.9125 | pgbench_accounts_pkey |        673882112

 2017-02-09 08:03:15.962629+01 | 1486623795.96263 | pgbench_branches_pkey |           737280
 2017-02-09 08:03:15.962629+01 | 1486623795.96263 | pgbench_tellers_pkey  |          2170880
 2017-02-09 08:03:15.962629+01 | 1486623795.96263 | pgbench_accounts_pkey |        673882112

 2017-02-09 08:03:17.030154+01 | 1486623797.03015 | pgbench_branches_pkey |           737280
 2017-02-09 08:03:17.030154+01 | 1486623797.03015 | pgbench_tellers_pkey  |          2170880
 2017-02-09 08:03:17.030154+01 | 1486623797.03015 | pgbench_accounts_pkey |        673882112

 2017-02-09 08:03:18.102436+01 | 1486623798.10244 | pgbench_branches_pkey |           737280
 2017-02-09 08:03:18.102436+01 | 1486623798.10244 | pgbench_tellers_pkey  |          2170880
 2017-02-09 08:03:18.102436+01 | 1486623798.10244 | pgbench_accounts_pkey |        673882112

 2017-02-09 08:03:19.175898+01 | 1486623799.1759 | pgbench_branches_pkey |           737280
 2017-02-09 08:03:19.175898+01 | 1486623799.1759 | pgbench_tellers_pkey  |          2170880
 2017-02-09 08:03:19.175898+01 | 1486623799.1759 | pgbench_accounts_pkey |        673882112

 2017-02-09 08:03:20.251147+01 | 1486623800.25115 | pgbench_branches_pkey |           737280
 2017-02-09 08:03:20.251147+01 | 1486623800.25115 | pgbench_tellers_pkey  |          2170880
 2017-02-09 08:03:20.251147+01 | 1486623800.25115 | pgbench_accounts_pkey |        673882112

 2017-02-09 08:03:21.312952+01 | 1486623801.31295 | pgbench_branches_pkey |           737280
 2017-02-09 08:03:21.312952+01 | 1486623801.31295 | pgbench_tellers_pkey  |          2170880
 2017-02-09 08:03:21.312952+01 | 1486623801.31295 | pgbench_accounts_pkey |        673882112

 2017-02-09 08:03:22.383551+01 | 1486623802.38355 | pgbench_branches_pkey |           737280
 2017-02-09 08:03:22.383551+01 | 1486623802.38355 | pgbench_tellers_pkey  |          2170880
 2017-02-09 08:03:22.383551+01 | 1486623802.38355 | pgbench_accounts_pkey |        673882112

 2017-02-09 08:03:23.448629+01 | 1486623803.44863 | pgbench_branches_pkey |           737280
 2017-02-09 08:03:23.448629+01 | 1486623803.44863 | pgbench_tellers_pkey  |          2170880
 2017-02-09 08:03:23.448629+01 | 1486623803.44863 | pgbench_accounts_pkey |        673882112

 2017-02-09 08:03:24.513677+01 | 1486623804.51368 | pgbench_branches_pkey |           737280
 2017-02-09 08:03:24.513677+01 | 1486623804.51368 | pgbench_tellers_pkey  |          2170880
 2017-02-09 08:03:24.513677+01 | 1486623804.51368 | pgbench_accounts_pkey |        673882112

 2017-02-09 08:03:25.568648+01 | 1486623805.56865 | pgbench_branches_pkey |           737280
 2017-02-09 08:03:25.568648+01 | 1486623805.56865 | pgbench_tellers_pkey  |          2170880
 2017-02-09 08:03:25.568648+01 | 1486623805.56865 | pgbench_accounts_pkey |        673882112

 2017-02-09 08:03:26.628161+01 | 1486623806.62816 | pgbench_branches_pkey |           737280
 2017-02-09 08:03:26.628161+01 | 1486623806.62816 | pgbench_tellers_pkey  |          2170880
 2017-02-09 08:03:26.628161+01 | 1486623806.62816 | pgbench_accounts_pkey |        673882112

 2017-02-09 08:03:27.700262+01 | 1486623807.70026 | pgbench_branches_pkey |           737280
 2017-02-09 08:03:27.700262+01 | 1486623807.70026 | pgbench_tellers_pkey  |          2170880
 2017-02-09 08:03:27.700262+01 | 1486623807.70026 | pgbench_accounts_pkey |        673882112

 2017-02-09 08:03:28.763707+01 | 1486623808.76371 | pgbench_branches_pkey |           737280
 2017-02-09 08:03:28.763707+01 | 1486623808.76371 | pgbench_tellers_pkey  |          2170880
 2017-02-09 08:03:28.763707+01 | 1486623808.76371 | pgbench_accounts_pkey |        673882112

 2017-02-09 08:03:29.826796+01 | 1486623809.8268 | pgbench_branches_pkey |           737280
 2017-02-09 08:03:29.826796+01 | 1486623809.8268 | pgbench_tellers_pkey  |          2170880
 2017-02-09 08:03:29.826796+01 | 1486623809.8268 | pgbench_accounts_pkey |        673882112

 2017-02-09 08:03:30.892578+01 | 1486623810.89258 | pgbench_branches_pkey |           737280
 2017-02-09 08:03:30.892578+01 | 1486623810.89258 | pgbench_tellers_pkey  |          2170880
 2017-02-09 08:03:30.892578+01 | 1486623810.89258 | pgbench_accounts_pkey |        673882112

 2017-02-09 08:03:31.959374+01 | 1486623811.95937 | pgbench_branches_pkey |           737280
 2017-02-09 08:03:31.959374+01 | 1486623811.95937 | pgbench_tellers_pkey  |          2170880
 2017-02-09 08:03:31.959374+01 | 1486623811.95937 | pgbench_accounts_pkey |        673882112

 2017-02-09 08:03:33.021601+01 | 1486623813.0216 | pgbench_branches_pkey |           737280
 2017-02-09 08:03:33.021601+01 | 1486623813.0216 | pgbench_tellers_pkey  |          2170880
 2017-02-09 08:03:33.021601+01 | 1486623813.0216 | pgbench_accounts_pkey |        673882112

 2017-02-09 08:03:34.101112+01 | 1486623814.10111 | pgbench_branches_pkey |           737280
 2017-02-09 08:03:34.101112+01 | 1486623814.10111 | pgbench_tellers_pkey  |          2170880
 2017-02-09 08:03:34.101112+01 | 1486623814.10111 | pgbench_accounts_pkey |        673882112

 2017-02-09 08:03:35.168163+01 | 1486623815.16816 | pgbench_branches_pkey |           737280
 2017-02-09 08:03:35.168163+01 | 1486623815.16816 | pgbench_tellers_pkey  |          2170880
 2017-02-09 08:03:35.168163+01 | 1486623815.16816 | pgbench_accounts_pkey |        673882112

 2017-02-09 08:03:36.23527+01 | 1486623816.23527 | pgbench_branches_pkey |           737280
 2017-02-09 08:03:36.23527+01 | 1486623816.23527 | pgbench_tellers_pkey  |          2170880
 2017-02-09 08:03:36.23527+01 | 1486623816.23527 | pgbench_accounts_pkey |        673882112

 2017-02-09 08:03:37.302647+01 | 1486623817.30265 | pgbench_branches_pkey |           737280
 2017-02-09 08:03:37.302647+01 | 1486623817.30265 | pgbench_tellers_pkey  |          2170880
 2017-02-09 08:03:37.302647+01 | 1486623817.30265 | pgbench_accounts_pkey |        673882112

 2017-02-09 08:03:38.377047+01 | 1486623818.37705 | pgbench_branches_pkey |           737280
 2017-02-09 08:03:38.377047+01 | 1486623818.37705 | pgbench_tellers_pkey  |          2170880
 2017-02-09 08:03:38.377047+01 | 1486623818.37705 | pgbench_accounts_pkey |        673882112

 2017-02-09 08:03:39.434463+01 | 1486623819.43446 | pgbench_branches_pkey |           737280
 2017-02-09 08:03:39.434463+01 | 1486623819.43446 | pgbench_tellers_pkey  |          2170880
 2017-02-09 08:03:39.434463+01 | 1486623819.43446 | pgbench_accounts_pkey |        673882112

 2017-02-09 08:03:40.500246+01 | 1486623820.50025 | pgbench_branches_pkey |           737280
 2017-02-09 08:03:40.500246+01 | 1486623820.50025 | pgbench_tellers_pkey  |          2170880
 2017-02-09 08:03:40.500246+01 | 1486623820.50025 | pgbench_accounts_pkey |        673882112

 2017-02-09 08:03:41.572078+01 | 1486623821.57208 | pgbench_branches_pkey |           737280
 2017-02-09 08:03:41.572078+01 | 1486623821.57208 | pgbench_tellers_pkey  |          2170880
 2017-02-09 08:03:41.572078+01 | 1486623821.57208 | pgbench_accounts_pkey |        673882112

 2017-02-09 08:03:42.635904+01 | 1486623822.6359 | pgbench_branches_pkey |           737280
 2017-02-09 08:03:42.635904+01 | 1486623822.6359 | pgbench_tellers_pkey  |          2170880
 2017-02-09 08:03:42.635904+01 | 1486623822.6359 | pgbench_accounts_pkey |        673882112

 2017-02-09 08:03:43.704115+01 | 1486623823.70411 | pgbench_branches_pkey |           737280
 2017-02-09 08:03:43.704115+01 | 1486623823.70411 | pgbench_tellers_pkey  |          2170880
 2017-02-09 08:03:43.704115+01 | 1486623823.70411 | pgbench_accounts_pkey |        673882112

 2017-02-09 08:03:44.787687+01 | 1486623824.78769 | pgbench_branches_pkey |           737280
 2017-02-09 08:03:44.787687+01 | 1486623824.78769 | pgbench_tellers_pkey  |          2170880
 2017-02-09 08:03:44.787687+01 | 1486623824.78769 | pgbench_accounts_pkey |        673882112

 2017-02-09 08:03:45.845859+01 | 1486623825.84586 | pgbench_branches_pkey |           737280
 2017-02-09 08:03:45.845859+01 | 1486623825.84586 | pgbench_tellers_pkey  |          2170880
 2017-02-09 08:03:45.845859+01 | 1486623825.84586 | pgbench_accounts_pkey |        673882112

 2017-02-09 08:03:46.912246+01 | 1486623826.91225 | pgbench_branches_pkey |           737280
 2017-02-09 08:03:46.912246+01 | 1486623826.91225 | pgbench_tellers_pkey  |          2170880
 2017-02-09 08:03:46.912246+01 | 1486623826.91225 | pgbench_accounts_pkey |        673882112

 2017-02-09 08:03:47.973296+01 | 1486623827.9733 | pgbench_branches_pkey |           737280
 2017-02-09 08:03:47.973296+01 | 1486623827.9733 | pgbench_tellers_pkey  |          2170880
 2017-02-09 08:03:47.973296+01 | 1486623827.9733 | pgbench_accounts_pkey |        673882112

 2017-02-09 08:03:49.040446+01 | 1486623829.04045 | pgbench_branches_pkey |           737280
 2017-02-09 08:03:49.040446+01 | 1486623829.04045 | pgbench_tellers_pkey  |          2170880
 2017-02-09 08:03:49.040446+01 | 1486623829.04045 | pgbench_accounts_pkey |        673882112

 2017-02-09 08:03:50.101188+01 | 1486623830.10119 | pgbench_branches_pkey |           737280
 2017-02-09 08:03:50.101188+01 | 1486623830.10119 | pgbench_tellers_pkey  |          2170880
 2017-02-09 08:03:50.101188+01 | 1486623830.10119 | pgbench_accounts_pkey |        673882112

 2017-02-09 08:03:51.167888+01 | 1486623831.16789 | pgbench_branches_pkey |           737280
 2017-02-09 08:03:51.167888+01 | 1486623831.16789 | pgbench_tellers_pkey  |          2170880
 2017-02-09 08:03:51.167888+01 | 1486623831.16789 | pgbench_accounts_pkey |        673882112

 2017-02-09 08:03:52.240488+01 | 1486623832.24049 | pgbench_branches_pkey |           737280
 2017-02-09 08:03:52.240488+01 | 1486623832.24049 | pgbench_tellers_pkey  |          2170880
 2017-02-09 08:03:52.240488+01 | 1486623832.24049 | pgbench_accounts_pkey |        673882112

 2017-02-09 08:03:53.31118+01 | 1486623833.31118 | pgbench_branches_pkey |           737280
 2017-02-09 08:03:53.31118+01 | 1486623833.31118 | pgbench_tellers_pkey  |          2170880
 2017-02-09 08:03:53.31118+01 | 1486623833.31118 | pgbench_accounts_pkey |        673882112

 2017-02-09 08:03:54.375744+01 | 1486623834.37574 | pgbench_branches_pkey |           737280
 2017-02-09 08:03:54.375744+01 | 1486623834.37574 | pgbench_tellers_pkey  |          2170880
 2017-02-09 08:03:54.375744+01 | 1486623834.37574 | pgbench_accounts_pkey |        673882112

 2017-02-09 08:03:55.447304+01 | 1486623835.4473 | pgbench_branches_pkey |           737280
 2017-02-09 08:03:55.447304+01 | 1486623835.4473 | pgbench_tellers_pkey  |          2170880
 2017-02-09 08:03:55.447304+01 | 1486623835.4473 | pgbench_accounts_pkey |        673882112

 2017-02-09 08:03:56.50498+01 | 1486623836.50498 | pgbench_branches_pkey |           737280
 2017-02-09 08:03:56.50498+01 | 1486623836.50498 | pgbench_tellers_pkey  |          2170880
 2017-02-09 08:03:56.50498+01 | 1486623836.50498 | pgbench_accounts_pkey |        673882112

 2017-02-09 08:03:57.568281+01 | 1486623837.56828 | pgbench_branches_pkey |           737280
 2017-02-09 08:03:57.568281+01 | 1486623837.56828 | pgbench_tellers_pkey  |          2170880
 2017-02-09 08:03:57.568281+01 | 1486623837.56828 | pgbench_accounts_pkey |        673882112

 2017-02-09 08:03:58.635111+01 | 1486623838.63511 | pgbench_branches_pkey |           737280
 2017-02-09 08:03:58.635111+01 | 1486623838.63511 | pgbench_tellers_pkey  |          2170880
 2017-02-09 08:03:58.635111+01 | 1486623838.63511 | pgbench_accounts_pkey |        673882112

 2017-02-09 08:03:59.70416+01 | 1486623839.70416 | pgbench_branches_pkey |           737280
 2017-02-09 08:03:59.70416+01 | 1486623839.70416 | pgbench_tellers_pkey  |          2170880
 2017-02-09 08:03:59.70416+01 | 1486623839.70416 | pgbench_accounts_pkey |        673882112

 2017-02-09 08:04:00.769116+01 | 1486623840.76912 | pgbench_branches_pkey |           737280
 2017-02-09 08:04:00.769116+01 | 1486623840.76912 | pgbench_tellers_pkey  |          2170880
 2017-02-09 08:04:00.769116+01 | 1486623840.76912 | pgbench_accounts_pkey |        673882112

 2017-02-09 08:04:01.832947+01 | 1486623841.83295 | pgbench_branches_pkey |           737280
 2017-02-09 08:04:01.832947+01 | 1486623841.83295 | pgbench_tellers_pkey  |          2170880
 2017-02-09 08:04:01.832947+01 | 1486623841.83295 | pgbench_accounts_pkey |        673882112

 2017-02-09 08:04:02.911497+01 | 1486623842.9115 | pgbench_branches_pkey |           737280
 2017-02-09 08:04:02.911497+01 | 1486623842.9115 | pgbench_tellers_pkey  |          2170880
 2017-02-09 08:04:02.911497+01 | 1486623842.9115 | pgbench_accounts_pkey |        673882112

 2017-02-09 08:04:03.989297+01 | 1486623843.9893 | pgbench_branches_pkey |           737280
 2017-02-09 08:04:03.989297+01 | 1486623843.9893 | pgbench_tellers_pkey  |          2170880
 2017-02-09 08:04:03.989297+01 | 1486623843.9893 | pgbench_accounts_pkey |        673882112

 2017-02-09 08:04:05.055181+01 | 1486623845.05518 | pgbench_branches_pkey |           737280
 2017-02-09 08:04:05.055181+01 | 1486623845.05518 | pgbench_tellers_pkey  |          2170880
 2017-02-09 08:04:05.055181+01 | 1486623845.05518 | pgbench_accounts_pkey |        673882112

 2017-02-09 08:04:06.131699+01 | 1486623846.1317 | pgbench_branches_pkey |           737280
 2017-02-09 08:04:06.131699+01 | 1486623846.1317 | pgbench_tellers_pkey  |          2170880
 2017-02-09 08:04:06.131699+01 | 1486623846.1317 | pgbench_accounts_pkey |        673882112

 2017-02-09 08:04:07.195006+01 | 1486623847.19501 | pgbench_branches_pkey |           737280
 2017-02-09 08:04:07.195006+01 | 1486623847.19501 | pgbench_tellers_pkey  |          2170880
 2017-02-09 08:04:07.195006+01 | 1486623847.19501 | pgbench_accounts_pkey |        673882112

 2017-02-09 08:04:08.25252+01 | 1486623848.25252 | pgbench_branches_pkey |           737280
 2017-02-09 08:04:08.25252+01 | 1486623848.25252 | pgbench_tellers_pkey  |          2170880
 2017-02-09 08:04:08.25252+01 | 1486623848.25252 | pgbench_accounts_pkey |        673882112

 2017-02-09 08:04:09.311104+01 | 1486623849.3111 | pgbench_branches_pkey |           737280
 2017-02-09 08:04:09.311104+01 | 1486623849.3111 | pgbench_tellers_pkey  |          2170880
 2017-02-09 08:04:09.311104+01 | 1486623849.3111 | pgbench_accounts_pkey |        673882112

 2017-02-09 08:04:10.372657+01 | 1486623850.37266 | pgbench_branches_pkey |           737280
 2017-02-09 08:04:10.372657+01 | 1486623850.37266 | pgbench_tellers_pkey  |          2170880
 2017-02-09 08:04:10.372657+01 | 1486623850.37266 | pgbench_accounts_pkey |        673882112

 2017-02-09 08:04:11.446173+01 | 1486623851.44617 | pgbench_branches_pkey |           737280
 2017-02-09 08:04:11.446173+01 | 1486623851.44617 | pgbench_tellers_pkey  |          2170880
 2017-02-09 08:04:11.446173+01 | 1486623851.44617 | pgbench_accounts_pkey |        673882112

 2017-02-09 08:04:12.506589+01 | 1486623852.50659 | pgbench_branches_pkey |           737280
 2017-02-09 08:04:12.506589+01 | 1486623852.50659 | pgbench_tellers_pkey  |          2170880
 2017-02-09 08:04:12.506589+01 | 1486623852.50659 | pgbench_accounts_pkey |        673882112

 2017-02-09 08:04:13.574718+01 | 1486623853.57472 | pgbench_branches_pkey |           737280
 2017-02-09 08:04:13.574718+01 | 1486623853.57472 | pgbench_tellers_pkey  |          2170880
 2017-02-09 08:04:13.574718+01 | 1486623853.57472 | pgbench_accounts_pkey |        673882112

 2017-02-09 08:04:14.647501+01 | 1486623854.6475 | pgbench_branches_pkey |           737280
 2017-02-09 08:04:14.647501+01 | 1486623854.6475 | pgbench_tellers_pkey  |          2170880
 2017-02-09 08:04:14.647501+01 | 1486623854.6475 | pgbench_accounts_pkey |        673882112

 2017-02-09 08:04:15.70372+01 | 1486623855.70372 | pgbench_branches_pkey |           737280
 2017-02-09 08:04:15.70372+01 | 1486623855.70372 | pgbench_tellers_pkey  |          2170880
 2017-02-09 08:04:15.70372+01 | 1486623855.70372 | pgbench_accounts_pkey |        673882112

 2017-02-09 08:04:16.776746+01 | 1486623856.77675 | pgbench_branches_pkey |           737280
 2017-02-09 08:04:16.776746+01 | 1486623856.77675 | pgbench_tellers_pkey  |          2170880
 2017-02-09 08:04:16.776746+01 | 1486623856.77675 | pgbench_accounts_pkey |        673882112

 2017-02-09 08:04:17.837463+01 | 1486623857.83746 | pgbench_branches_pkey |           737280
 2017-02-09 08:04:17.837463+01 | 1486623857.83746 | pgbench_tellers_pkey  |          2170880
 2017-02-09 08:04:17.837463+01 | 1486623857.83746 | pgbench_accounts_pkey |        673882112

 2017-02-09 08:04:18.90133+01 | 1486623858.90133 | pgbench_branches_pkey |           737280
 2017-02-09 08:04:18.90133+01 | 1486623858.90133 | pgbench_tellers_pkey  |          2170880
 2017-02-09 08:04:18.90133+01 | 1486623858.90133 | pgbench_accounts_pkey |        673882112

 2017-02-09 08:04:19.961247+01 | 1486623859.96125 | pgbench_branches_pkey |           737280
 2017-02-09 08:04:19.961247+01 | 1486623859.96125 | pgbench_tellers_pkey  |          2170880
 2017-02-09 08:04:19.961247+01 | 1486623859.96125 | pgbench_accounts_pkey |        673882112

 2017-02-09 08:04:21.018912+01 | 1486623861.01891 | pgbench_branches_pkey |           737280
 2017-02-09 08:04:21.018912+01 | 1486623861.01891 | pgbench_tellers_pkey  |          2170880
 2017-02-09 08:04:21.018912+01 | 1486623861.01891 | pgbench_accounts_pkey |        673882112

 2017-02-09 08:04:22.09022+01 | 1486623862.09022 | pgbench_branches_pkey |           737280
 2017-02-09 08:04:22.09022+01 | 1486623862.09022 | pgbench_tellers_pkey  |          2170880
 2017-02-09 08:04:22.09022+01 | 1486623862.09022 | pgbench_accounts_pkey |        673882112

 2017-02-09 08:04:23.163667+01 | 1486623863.16367 | pgbench_branches_pkey |           737280
 2017-02-09 08:04:23.163667+01 | 1486623863.16367 | pgbench_tellers_pkey  |          2170880
 2017-02-09 08:04:23.163667+01 | 1486623863.16367 | pgbench_accounts_pkey |        673882112

 2017-02-09 08:04:24.240455+01 | 1486623864.24045 | pgbench_branches_pkey |           737280
 2017-02-09 08:04:24.240455+01 | 1486623864.24045 | pgbench_tellers_pkey  |          2170880
 2017-02-09 08:04:24.240455+01 | 1486623864.24045 | pgbench_accounts_pkey |        673882112

 2017-02-09 08:04:25.317364+01 | 1486623865.31736 | pgbench_branches_pkey |           737280
 2017-02-09 08:04:25.317364+01 | 1486623865.31736 | pgbench_tellers_pkey  |          2170880
 2017-02-09 08:04:25.317364+01 | 1486623865.31736 | pgbench_accounts_pkey |        673882112

 2017-02-09 08:04:26.421217+01 | 1486623866.42122 | pgbench_branches_pkey |           737280
 2017-02-09 08:04:26.421217+01 | 1486623866.42122 | pgbench_tellers_pkey  |          2170880
 2017-02-09 08:04:26.421217+01 | 1486623866.42122 | pgbench_accounts_pkey |        673882112

 2017-02-09 08:04:27.489896+01 | 1486623867.4899 | pgbench_branches_pkey |           737280
 2017-02-09 08:04:27.489896+01 | 1486623867.4899 | pgbench_tellers_pkey  |          2170880
 2017-02-09 08:04:27.489896+01 | 1486623867.4899 | pgbench_accounts_pkey |        673882112

 2017-02-09 08:04:28.55592+01 | 1486623868.55592 | pgbench_branches_pkey |           737280
 2017-02-09 08:04:28.55592+01 | 1486623868.55592 | pgbench_tellers_pkey  |          2170880
 2017-02-09 08:04:28.55592+01 | 1486623868.55592 | pgbench_accounts_pkey |        673882112

 2017-02-09 08:04:29.613756+01 | 1486623869.61376 | pgbench_branches_pkey |           737280
 2017-02-09 08:04:29.613756+01 | 1486623869.61376 | pgbench_tellers_pkey  |          2170880
 2017-02-09 08:04:29.613756+01 | 1486623869.61376 | pgbench_accounts_pkey |        673882112

 2017-02-09 08:04:30.681658+01 | 1486623870.68166 | pgbench_branches_pkey |           737280
 2017-02-09 08:04:30.681658+01 | 1486623870.68166 | pgbench_tellers_pkey  |          2170880
 2017-02-09 08:04:30.681658+01 | 1486623870.68166 | pgbench_accounts_pkey |        673882112

 2017-02-09 08:04:31.745352+01 | 1486623871.74535 | pgbench_branches_pkey |           737280
 2017-02-09 08:04:31.745352+01 | 1486623871.74535 | pgbench_tellers_pkey  |          2170880
 2017-02-09 08:04:31.745352+01 | 1486623871.74535 | pgbench_accounts_pkey |        673882112

 2017-02-09 08:04:32.814654+01 | 1486623872.81465 | pgbench_branches_pkey |           737280
 2017-02-09 08:04:32.814654+01 | 1486623872.81465 | pgbench_tellers_pkey  |          2170880
 2017-02-09 08:04:32.814654+01 | 1486623872.81465 | pgbench_accounts_pkey |        673882112

 2017-02-09 08:04:33.886437+01 | 1486623873.88644 | pgbench_branches_pkey |           737280
 2017-02-09 08:04:33.886437+01 | 1486623873.88644 | pgbench_tellers_pkey  |          2170880
 2017-02-09 08:04:33.886437+01 | 1486623873.88644 | pgbench_accounts_pkey |        673882112

 2017-02-09 08:04:34.942678+01 | 1486623874.94268 | pgbench_branches_pkey |           737280
 2017-02-09 08:04:34.942678+01 | 1486623874.94268 | pgbench_tellers_pkey  |          2170880
 2017-02-09 08:04:34.942678+01 | 1486623874.94268 | pgbench_accounts_pkey |        673882112

 2017-02-09 08:04:36.00367+01 | 1486623876.00367 | pgbench_branches_pkey |           737280
 2017-02-09 08:04:36.00367+01 | 1486623876.00367 | pgbench_tellers_pkey  |          2170880
 2017-02-09 08:04:36.00367+01 | 1486623876.00367 | pgbench_accounts_pkey |        673882112

 2017-02-09 08:04:37.074023+01 | 1486623877.07402 | pgbench_branches_pkey |           737280
 2017-02-09 08:04:37.074023+01 | 1486623877.07402 | pgbench_tellers_pkey  |          2170880
 2017-02-09 08:04:37.074023+01 | 1486623877.07402 | pgbench_accounts_pkey |        673882112

 2017-02-09 08:04:38.143142+01 | 1486623878.14314 | pgbench_branches_pkey |           737280
 2017-02-09 08:04:38.143142+01 | 1486623878.14314 | pgbench_tellers_pkey  |          2170880
 2017-02-09 08:04:38.143142+01 | 1486623878.14314 | pgbench_accounts_pkey |        673882112

 2017-02-09 08:04:39.208269+01 | 1486623879.20827 | pgbench_branches_pkey |           737280
 2017-02-09 08:04:39.208269+01 | 1486623879.20827 | pgbench_tellers_pkey  |          2170880
 2017-02-09 08:04:39.208269+01 | 1486623879.20827 | pgbench_accounts_pkey |        673882112

 2017-02-09 08:04:40.271833+01 | 1486623880.27183 | pgbench_branches_pkey |           737280
 2017-02-09 08:04:40.271833+01 | 1486623880.27183 | pgbench_tellers_pkey  |          2170880
 2017-02-09 08:04:40.271833+01 | 1486623880.27183 | pgbench_accounts_pkey |        673882112

 2017-02-09 08:04:41.336999+01 | 1486623881.337 | pgbench_branches_pkey |           737280
 2017-02-09 08:04:41.336999+01 | 1486623881.337 | pgbench_tellers_pkey  |          2170880
 2017-02-09 08:04:41.336999+01 | 1486623881.337 | pgbench_accounts_pkey |        673882112

 2017-02-09 08:04:42.400301+01 | 1486623882.4003 | pgbench_branches_pkey |           737280
 2017-02-09 08:04:42.400301+01 | 1486623882.4003 | pgbench_tellers_pkey  |          2170880
 2017-02-09 08:04:42.400301+01 | 1486623882.4003 | pgbench_accounts_pkey |        673882112

 2017-02-09 08:04:43.472992+01 | 1486623883.47299 | pgbench_branches_pkey |           737280
 2017-02-09 08:04:43.472992+01 | 1486623883.47299 | pgbench_tellers_pkey  |          2170880
 2017-02-09 08:04:43.472992+01 | 1486623883.47299 | pgbench_accounts_pkey |        673882112

 2017-02-09 08:04:44.541351+01 | 1486623884.54135 | pgbench_branches_pkey |           737280
 2017-02-09 08:04:44.541351+01 | 1486623884.54135 | pgbench_tellers_pkey  |          2170880
 2017-02-09 08:04:44.541351+01 | 1486623884.54135 | pgbench_accounts_pkey |        673882112

 2017-02-09 08:04:45.614735+01 | 1486623885.61473 | pgbench_branches_pkey |           737280
 2017-02-09 08:04:45.614735+01 | 1486623885.61473 | pgbench_tellers_pkey  |          2170880
 2017-02-09 08:04:45.614735+01 | 1486623885.61473 | pgbench_accounts_pkey |        673882112

 2017-02-09 08:04:46.679773+01 | 1486623886.67977 | pgbench_branches_pkey |           737280
 2017-02-09 08:04:46.679773+01 | 1486623886.67977 | pgbench_tellers_pkey  |          2170880
 2017-02-09 08:04:46.679773+01 | 1486623886.67977 | pgbench_accounts_pkey |        673882112

 2017-02-09 08:04:47.740709+01 | 1486623887.74071 | pgbench_branches_pkey |           737280
 2017-02-09 08:04:47.740709+01 | 1486623887.74071 | pgbench_tellers_pkey  |          2170880
 2017-02-09 08:04:47.740709+01 | 1486623887.74071 | pgbench_accounts_pkey |        673882112

 2017-02-09 08:04:48.813491+01 | 1486623888.81349 | pgbench_branches_pkey |           737280
 2017-02-09 08:04:48.813491+01 | 1486623888.81349 | pgbench_tellers_pkey  |          2170880
 2017-02-09 08:04:48.813491+01 | 1486623888.81349 | pgbench_accounts_pkey |        673882112

 2017-02-09 08:04:49.872268+01 | 1486623889.87227 | pgbench_branches_pkey |           737280
 2017-02-09 08:04:49.872268+01 | 1486623889.87227 | pgbench_tellers_pkey  |          2170880
 2017-02-09 08:04:49.872268+01 | 1486623889.87227 | pgbench_accounts_pkey |        673882112

 2017-02-09 08:04:50.941475+01 | 1486623890.94147 | pgbench_branches_pkey |           737280
 2017-02-09 08:04:50.941475+01 | 1486623890.94147 | pgbench_tellers_pkey  |          2170880
 2017-02-09 08:04:50.941475+01 | 1486623890.94147 | pgbench_accounts_pkey |        673882112

 2017-02-09 08:04:52.014426+01 | 1486623892.01443 | pgbench_branches_pkey |           737280
 2017-02-09 08:04:52.014426+01 | 1486623892.01443 | pgbench_tellers_pkey  |          2170880
 2017-02-09 08:04:52.014426+01 | 1486623892.01443 | pgbench_accounts_pkey |        673882112

 2017-02-09 08:04:53.09015+01 | 1486623893.09015 | pgbench_branches_pkey |           737280
 2017-02-09 08:04:53.09015+01 | 1486623893.09015 | pgbench_tellers_pkey  |          2170880
 2017-02-09 08:04:53.09015+01 | 1486623893.09015 | pgbench_accounts_pkey |        673882112

 2017-02-09 08:04:54.159776+01 | 1486623894.15978 | pgbench_branches_pkey |           737280
 2017-02-09 08:04:54.159776+01 | 1486623894.15978 | pgbench_tellers_pkey  |          2170880
 2017-02-09 08:04:54.159776+01 | 1486623894.15978 | pgbench_accounts_pkey |        673882112

 2017-02-09 08:04:55.224466+01 | 1486623895.22447 | pgbench_branches_pkey |           737280
 2017-02-09 08:04:55.224466+01 | 1486623895.22447 | pgbench_tellers_pkey  |          2170880
 2017-02-09 08:04:55.224466+01 | 1486623895.22447 | pgbench_accounts_pkey |        673882112

 2017-02-09 08:04:56.296925+01 | 1486623896.29693 | pgbench_branches_pkey |           737280
 2017-02-09 08:04:56.296925+01 | 1486623896.29693 | pgbench_tellers_pkey  |          2170880
 2017-02-09 08:04:56.296925+01 | 1486623896.29693 | pgbench_accounts_pkey |        673882112

 2017-02-09 08:04:57.360784+01 | 1486623897.36078 | pgbench_branches_pkey |           737280
 2017-02-09 08:04:57.360784+01 | 1486623897.36078 | pgbench_tellers_pkey  |          2170880
 2017-02-09 08:04:57.360784+01 | 1486623897.36078 | pgbench_accounts_pkey |        673882112

 2017-02-09 08:04:58.427086+01 | 1486623898.42709 | pgbench_branches_pkey |           737280
 2017-02-09 08:04:58.427086+01 | 1486623898.42709 | pgbench_tellers_pkey  |          2170880
 2017-02-09 08:04:58.427086+01 | 1486623898.42709 | pgbench_accounts_pkey |        673882112

 2017-02-09 08:04:59.484071+01 | 1486623899.48407 | pgbench_branches_pkey |           737280
 2017-02-09 08:04:59.484071+01 | 1486623899.48407 | pgbench_tellers_pkey  |          2170880
 2017-02-09 08:04:59.484071+01 | 1486623899.48407 | pgbench_accounts_pkey |        673882112

 2017-02-09 08:05:00.549848+01 | 1486623900.54985 | pgbench_branches_pkey |           737280
 2017-02-09 08:05:00.549848+01 | 1486623900.54985 | pgbench_tellers_pkey  |          2170880
 2017-02-09 08:05:00.549848+01 | 1486623900.54985 | pgbench_accounts_pkey |        673882112

 2017-02-09 08:05:01.621077+01 | 1486623901.62108 | pgbench_branches_pkey |           737280
 2017-02-09 08:05:01.621077+01 | 1486623901.62108 | pgbench_tellers_pkey  |          2170880
 2017-02-09 08:05:01.621077+01 | 1486623901.62108 | pgbench_accounts_pkey |        673882112

 2017-02-09 08:05:02.688764+01 | 1486623902.68876 | pgbench_branches_pkey |           737280
 2017-02-09 08:05:02.688764+01 | 1486623902.68876 | pgbench_tellers_pkey  |          2170880
 2017-02-09 08:05:02.688764+01 | 1486623902.68876 | pgbench_accounts_pkey |        673882112

 2017-02-09 08:05:03.758177+01 | 1486623903.75818 | pgbench_branches_pkey |           737280
 2017-02-09 08:05:03.758177+01 | 1486623903.75818 | pgbench_tellers_pkey  |          2170880
 2017-02-09 08:05:03.758177+01 | 1486623903.75818 | pgbench_accounts_pkey |        673882112

 2017-02-09 08:05:04.822157+01 | 1486623904.82216 | pgbench_branches_pkey |           737280
 2017-02-09 08:05:04.822157+01 | 1486623904.82216 | pgbench_tellers_pkey  |          2170880
 2017-02-09 08:05:04.822157+01 | 1486623904.82216 | pgbench_accounts_pkey |        673882112

 2017-02-09 08:05:05.888799+01 | 1486623905.8888 | pgbench_branches_pkey |           737280
 2017-02-09 08:05:05.888799+01 | 1486623905.8888 | pgbench_tellers_pkey  |          2170880
 2017-02-09 08:05:05.888799+01 | 1486623905.8888 | pgbench_accounts_pkey |        673882112

 2017-02-09 08:05:06.960168+01 | 1486623906.96017 | pgbench_branches_pkey |           737280
 2017-02-09 08:05:06.960168+01 | 1486623906.96017 | pgbench_tellers_pkey  |          2170880
 2017-02-09 08:05:06.960168+01 | 1486623906.96017 | pgbench_accounts_pkey |        673882112

 2017-02-09 08:05:08.049224+01 | 1486623908.04922 | pgbench_branches_pkey |           737280
 2017-02-09 08:05:08.049224+01 | 1486623908.04922 | pgbench_tellers_pkey  |          2170880
 2017-02-09 08:05:08.049224+01 | 1486623908.04922 | pgbench_accounts_pkey |        673882112

 2017-02-09 08:05:09.121115+01 | 1486623909.12111 | pgbench_branches_pkey |           737280
 2017-02-09 08:05:09.121115+01 | 1486623909.12111 | pgbench_tellers_pkey  |          2170880
 2017-02-09 08:05:09.121115+01 | 1486623909.12111 | pgbench_accounts_pkey |        673882112

 2017-02-09 08:05:10.190345+01 | 1486623910.19035 | pgbench_branches_pkey |           745472
 2017-02-09 08:05:10.190345+01 | 1486623910.19035 | pgbench_tellers_pkey  |          2170880
 2017-02-09 08:05:10.190345+01 | 1486623910.19035 | pgbench_accounts_pkey |        673882112

 2017-02-09 08:05:11.279983+01 | 1486623911.27998 | pgbench_branches_pkey |           745472
 2017-02-09 08:05:11.279983+01 | 1486623911.27998 | pgbench_tellers_pkey  |          2170880
 2017-02-09 08:05:11.279983+01 | 1486623911.27998 | pgbench_accounts_pkey |        673882112

 2017-02-09 08:05:12.339468+01 | 1486623912.33947 | pgbench_branches_pkey |           745472
 2017-02-09 08:05:12.339468+01 | 1486623912.33947 | pgbench_tellers_pkey  |          2170880
 2017-02-09 08:05:12.339468+01 | 1486623912.33947 | pgbench_accounts_pkey |        673882112

 2017-02-09 08:05:13.406898+01 | 1486623913.4069 | pgbench_branches_pkey |           745472
 2017-02-09 08:05:13.406898+01 | 1486623913.4069 | pgbench_tellers_pkey  |          2170880
 2017-02-09 08:05:13.406898+01 | 1486623913.4069 | pgbench_accounts_pkey |        673882112

 2017-02-09 08:05:14.479984+01 | 1486623914.47998 | pgbench_branches_pkey |           745472
 2017-02-09 08:05:14.479984+01 | 1486623914.47998 | pgbench_tellers_pkey  |          2170880
 2017-02-09 08:05:14.479984+01 | 1486623914.47998 | pgbench_accounts_pkey |        673882112

 2017-02-09 08:05:15.544898+01 | 1486623915.5449 | pgbench_branches_pkey |           745472
 2017-02-09 08:05:15.544898+01 | 1486623915.5449 | pgbench_tellers_pkey  |          2170880
 2017-02-09 08:05:15.544898+01 | 1486623915.5449 | pgbench_accounts_pkey |        673882112

 2017-02-09 08:05:16.604528+01 | 1486623916.60453 | pgbench_branches_pkey |           745472
 2017-02-09 08:05:16.604528+01 | 1486623916.60453 | pgbench_tellers_pkey  |          2170880
 2017-02-09 08:05:16.604528+01 | 1486623916.60453 | pgbench_accounts_pkey |        673882112

 2017-02-09 08:05:17.678377+01 | 1486623917.67838 | pgbench_branches_pkey |           745472
 2017-02-09 08:05:17.678377+01 | 1486623917.67838 | pgbench_tellers_pkey  |          2170880
 2017-02-09 08:05:17.678377+01 | 1486623917.67838 | pgbench_accounts_pkey |        673882112

 2017-02-09 08:05:18.754709+01 | 1486623918.75471 | pgbench_branches_pkey |           745472
 2017-02-09 08:05:18.754709+01 | 1486623918.75471 | pgbench_tellers_pkey  |          2170880
 2017-02-09 08:05:18.754709+01 | 1486623918.75471 | pgbench_accounts_pkey |        673882112

 2017-02-09 08:05:19.82679+01 | 1486623919.82679 | pgbench_branches_pkey |           745472
 2017-02-09 08:05:19.82679+01 | 1486623919.82679 | pgbench_tellers_pkey  |          2170880
 2017-02-09 08:05:19.82679+01 | 1486623919.82679 | pgbench_accounts_pkey |        673882112

 2017-02-09 08:05:20.885475+01 | 1486623920.88547 | pgbench_branches_pkey |           745472
 2017-02-09 08:05:20.885475+01 | 1486623920.88547 | pgbench_tellers_pkey  |          2170880
 2017-02-09 08:05:20.885475+01 | 1486623920.88547 | pgbench_accounts_pkey |        673882112

 2017-02-09 08:05:21.947879+01 | 1486623921.94788 | pgbench_branches_pkey |           745472
 2017-02-09 08:05:21.947879+01 | 1486623921.94788 | pgbench_tellers_pkey  |          2170880
 2017-02-09 08:05:21.947879+01 | 1486623921.94788 | pgbench_accounts_pkey |        673882112

 2017-02-09 08:05:23.013859+01 | 1486623923.01386 | pgbench_branches_pkey |           745472
 2017-02-09 08:05:23.013859+01 | 1486623923.01386 | pgbench_tellers_pkey  |          2170880
 2017-02-09 08:05:23.013859+01 | 1486623923.01386 | pgbench_accounts_pkey |        673882112

 2017-02-09 08:05:24.083752+01 | 1486623924.08375 | pgbench_branches_pkey |           745472
 2017-02-09 08:05:24.083752+01 | 1486623924.08375 | pgbench_tellers_pkey  |          2170880
 2017-02-09 08:05:24.083752+01 | 1486623924.08375 | pgbench_accounts_pkey |        673882112

 2017-02-09 08:05:25.159875+01 | 1486623925.15987 | pgbench_branches_pkey |           745472
 2017-02-09 08:05:25.159875+01 | 1486623925.15987 | pgbench_tellers_pkey  |          2170880
 2017-02-09 08:05:25.159875+01 | 1486623925.15987 | pgbench_accounts_pkey |        673882112

 2017-02-09 08:05:26.234662+01 | 1486623926.23466 | pgbench_branches_pkey |           745472
 2017-02-09 08:05:26.234662+01 | 1486623926.23466 | pgbench_tellers_pkey  |          2170880
 2017-02-09 08:05:26.234662+01 | 1486623926.23466 | pgbench_accounts_pkey |        673882112

 2017-02-09 08:05:27.301889+01 | 1486623927.30189 | pgbench_branches_pkey |           745472
 2017-02-09 08:05:27.301889+01 | 1486623927.30189 | pgbench_tellers_pkey  |          2170880
 2017-02-09 08:05:27.301889+01 | 1486623927.30189 | pgbench_accounts_pkey |        673882112

 2017-02-09 08:05:28.376396+01 | 1486623928.3764 | pgbench_branches_pkey |           745472
 2017-02-09 08:05:28.376396+01 | 1486623928.3764 | pgbench_tellers_pkey  |          2170880
 2017-02-09 08:05:28.376396+01 | 1486623928.3764 | pgbench_accounts_pkey |        673882112

 2017-02-09 08:05:29.437353+01 | 1486623929.43735 | pgbench_branches_pkey |           745472
 2017-02-09 08:05:29.437353+01 | 1486623929.43735 | pgbench_tellers_pkey  |          2170880
 2017-02-09 08:05:29.437353+01 | 1486623929.43735 | pgbench_accounts_pkey |        673882112

 2017-02-09 08:05:30.513712+01 | 1486623930.51371 | pgbench_branches_pkey |           745472
 2017-02-09 08:05:30.513712+01 | 1486623930.51371 | pgbench_tellers_pkey  |          2170880
 2017-02-09 08:05:30.513712+01 | 1486623930.51371 | pgbench_accounts_pkey |        673882112

 2017-02-09 08:05:31.582879+01 | 1486623931.58288 | pgbench_branches_pkey |           745472
 2017-02-09 08:05:31.582879+01 | 1486623931.58288 | pgbench_tellers_pkey  |          2170880
 2017-02-09 08:05:31.582879+01 | 1486623931.58288 | pgbench_accounts_pkey |        673882112

 2017-02-09 08:05:32.658097+01 | 1486623932.6581 | pgbench_branches_pkey |           745472
 2017-02-09 08:05:32.658097+01 | 1486623932.6581 | pgbench_tellers_pkey  |          2170880
 2017-02-09 08:05:32.658097+01 | 1486623932.6581 | pgbench_accounts_pkey |        673882112

 2017-02-09 08:05:33.721861+01 | 1486623933.72186 | pgbench_branches_pkey |           745472
 2017-02-09 08:05:33.721861+01 | 1486623933.72186 | pgbench_tellers_pkey  |          2170880
 2017-02-09 08:05:33.721861+01 | 1486623933.72186 | pgbench_accounts_pkey |        673882112

 2017-02-09 08:05:34.780759+01 | 1486623934.78076 | pgbench_branches_pkey |           745472
 2017-02-09 08:05:34.780759+01 | 1486623934.78076 | pgbench_tellers_pkey  |          2170880
 2017-02-09 08:05:34.780759+01 | 1486623934.78076 | pgbench_accounts_pkey |        673882112

 2017-02-09 08:05:35.8452+01 | 1486623935.8452 | pgbench_branches_pkey |           745472
 2017-02-09 08:05:35.8452+01 | 1486623935.8452 | pgbench_tellers_pkey  |          2170880
 2017-02-09 08:05:35.8452+01 | 1486623935.8452 | pgbench_accounts_pkey |        673882112

 2017-02-09 08:05:36.907818+01 | 1486623936.90782 | pgbench_branches_pkey |           745472
 2017-02-09 08:05:36.907818+01 | 1486623936.90782 | pgbench_tellers_pkey  |          2170880
 2017-02-09 08:05:36.907818+01 | 1486623936.90782 | pgbench_accounts_pkey |        673882112

 2017-02-09 08:05:37.968464+01 | 1486623937.96846 | pgbench_branches_pkey |           745472
 2017-02-09 08:05:37.968464+01 | 1486623937.96846 | pgbench_tellers_pkey  |          2170880
 2017-02-09 08:05:37.968464+01 | 1486623937.96846 | pgbench_accounts_pkey |        673882112

 2017-02-09 08:05:39.028182+01 | 1486623939.02818 | pgbench_branches_pkey |           745472
 2017-02-09 08:05:39.028182+01 | 1486623939.02818 | pgbench_tellers_pkey  |          2170880
 2017-02-09 08:05:39.028182+01 | 1486623939.02818 | pgbench_accounts_pkey |        673882112

 2017-02-09 08:05:40.098278+01 | 1486623940.09828 | pgbench_branches_pkey |           745472
 2017-02-09 08:05:40.098278+01 | 1486623940.09828 | pgbench_tellers_pkey  |          2170880
 2017-02-09 08:05:40.098278+01 | 1486623940.09828 | pgbench_accounts_pkey |        673882112

 2017-02-09 08:05:41.170498+01 | 1486623941.1705 | pgbench_branches_pkey |           745472
 2017-02-09 08:05:41.170498+01 | 1486623941.1705 | pgbench_tellers_pkey  |          2170880
 2017-02-09 08:05:41.170498+01 | 1486623941.1705 | pgbench_accounts_pkey |        673882112

 2017-02-09 08:05:42.242459+01 | 1486623942.24246 | pgbench_branches_pkey |           745472
 2017-02-09 08:05:42.242459+01 | 1486623942.24246 | pgbench_tellers_pkey  |          2170880
 2017-02-09 08:05:42.242459+01 | 1486623942.24246 | pgbench_accounts_pkey |        673882112

 2017-02-09 08:05:43.310963+01 | 1486623943.31096 | pgbench_branches_pkey |           745472
 2017-02-09 08:05:43.310963+01 | 1486623943.31096 | pgbench_tellers_pkey  |          2170880
 2017-02-09 08:05:43.310963+01 | 1486623943.31096 | pgbench_accounts_pkey |        673882112

 2017-02-09 08:05:44.368071+01 | 1486623944.36807 | pgbench_branches_pkey |           745472
 2017-02-09 08:05:44.368071+01 | 1486623944.36807 | pgbench_tellers_pkey  |          2170880
 2017-02-09 08:05:44.368071+01 | 1486623944.36807 | pgbench_accounts_pkey |        673882112

 2017-02-09 08:05:45.435561+01 | 1486623945.43556 | pgbench_branches_pkey |           745472
 2017-02-09 08:05:45.435561+01 | 1486623945.43556 | pgbench_tellers_pkey  |          2170880
 2017-02-09 08:05:45.435561+01 | 1486623945.43556 | pgbench_accounts_pkey |        673882112

 2017-02-09 08:05:46.510623+01 | 1486623946.51062 | pgbench_branches_pkey |           745472
 2017-02-09 08:05:46.510623+01 | 1486623946.51062 | pgbench_tellers_pkey  |          2170880
 2017-02-09 08:05:46.510623+01 | 1486623946.51062 | pgbench_accounts_pkey |        673882112

 2017-02-09 08:05:47.568247+01 | 1486623947.56825 | pgbench_branches_pkey |           745472
 2017-02-09 08:05:47.568247+01 | 1486623947.56825 | pgbench_tellers_pkey  |          2170880
 2017-02-09 08:05:47.568247+01 | 1486623947.56825 | pgbench_accounts_pkey |        673882112

 2017-02-09 08:05:48.62783+01 | 1486623948.62783 | pgbench_branches_pkey |           745472
 2017-02-09 08:05:48.62783+01 | 1486623948.62783 | pgbench_tellers_pkey  |          2170880
 2017-02-09 08:05:48.62783+01 | 1486623948.62783 | pgbench_accounts_pkey |        673882112

 2017-02-09 08:05:49.688214+01 | 1486623949.68821 | pgbench_branches_pkey |           745472
 2017-02-09 08:05:49.688214+01 | 1486623949.68821 | pgbench_tellers_pkey  |          2170880
 2017-02-09 08:05:49.688214+01 | 1486623949.68821 | pgbench_accounts_pkey |        673882112

 2017-02-09 08:05:50.748509+01 | 1486623950.74851 | pgbench_branches_pkey |           745472
 2017-02-09 08:05:50.748509+01 | 1486623950.74851 | pgbench_tellers_pkey  |          2170880
 2017-02-09 08:05:50.748509+01 | 1486623950.74851 | pgbench_accounts_pkey |        673882112

 2017-02-09 08:05:51.821803+01 | 1486623951.8218 | pgbench_branches_pkey |           745472
 2017-02-09 08:05:51.821803+01 | 1486623951.8218 | pgbench_tellers_pkey  |          2170880
 2017-02-09 08:05:51.821803+01 | 1486623951.8218 | pgbench_accounts_pkey |        673882112

 2017-02-09 08:05:52.892631+01 | 1486623952.89263 | pgbench_branches_pkey |           745472
 2017-02-09 08:05:52.892631+01 | 1486623952.89263 | pgbench_tellers_pkey  |          2170880
 2017-02-09 08:05:52.892631+01 | 1486623952.89263 | pgbench_accounts_pkey |        673882112

 2017-02-09 08:05:53.95348+01 | 1486623953.95348 | pgbench_branches_pkey |           745472
 2017-02-09 08:05:53.95348+01 | 1486623953.95348 | pgbench_tellers_pkey  |          2170880
 2017-02-09 08:05:53.95348+01 | 1486623953.95348 | pgbench_accounts_pkey |        673882112

 2017-02-09 08:05:55.010963+01 | 1486623955.01096 | pgbench_branches_pkey |           745472
 2017-02-09 08:05:55.010963+01 | 1486623955.01096 | pgbench_tellers_pkey  |          2170880
 2017-02-09 08:05:55.010963+01 | 1486623955.01096 | pgbench_accounts_pkey |        673882112

 2017-02-09 08:05:56.074123+01 | 1486623956.07412 | pgbench_branches_pkey |           745472
 2017-02-09 08:05:56.074123+01 | 1486623956.07412 | pgbench_tellers_pkey  |          2170880
 2017-02-09 08:05:56.074123+01 | 1486623956.07412 | pgbench_accounts_pkey |        673882112

 2017-02-09 08:05:57.141145+01 | 1486623957.14114 | pgbench_branches_pkey |           745472
 2017-02-09 08:05:57.141145+01 | 1486623957.14114 | pgbench_tellers_pkey  |          2170880
 2017-02-09 08:05:57.141145+01 | 1486623957.14114 | pgbench_accounts_pkey |        673882112

 2017-02-09 08:05:58.205897+01 | 1486623958.2059 | pgbench_branches_pkey |           745472
 2017-02-09 08:05:58.205897+01 | 1486623958.2059 | pgbench_tellers_pkey  |          2170880
 2017-02-09 08:05:58.205897+01 | 1486623958.2059 | pgbench_accounts_pkey |        673882112

 2017-02-09 08:05:59.271281+01 | 1486623959.27128 | pgbench_branches_pkey |           745472
 2017-02-09 08:05:59.271281+01 | 1486623959.27128 | pgbench_tellers_pkey  |          2170880
 2017-02-09 08:05:59.271281+01 | 1486623959.27128 | pgbench_accounts_pkey |        673882112

 2017-02-09 08:06:00.346798+01 | 1486623960.3468 | pgbench_branches_pkey |           745472
 2017-02-09 08:06:00.346798+01 | 1486623960.3468 | pgbench_tellers_pkey  |          2170880
 2017-02-09 08:06:00.346798+01 | 1486623960.3468 | pgbench_accounts_pkey |        673882112

 2017-02-09 08:06:01.417788+01 | 1486623961.41779 | pgbench_branches_pkey |           745472
 2017-02-09 08:06:01.417788+01 | 1486623961.41779 | pgbench_tellers_pkey  |          2170880
 2017-02-09 08:06:01.417788+01 | 1486623961.41779 | pgbench_accounts_pkey |        673882112

 2017-02-09 08:06:02.493166+01 | 1486623962.49317 | pgbench_branches_pkey |           745472
 2017-02-09 08:06:02.493166+01 | 1486623962.49317 | pgbench_tellers_pkey  |          2170880
 2017-02-09 08:06:02.493166+01 | 1486623962.49317 | pgbench_accounts_pkey |        673882112

 2017-02-09 08:06:03.560438+01 | 1486623963.56044 | pgbench_branches_pkey |           745472
 2017-02-09 08:06:03.560438+01 | 1486623963.56044 | pgbench_tellers_pkey  |          2170880
 2017-02-09 08:06:03.560438+01 | 1486623963.56044 | pgbench_accounts_pkey |        673882112

 2017-02-09 08:06:04.62687+01 | 1486623964.62687 | pgbench_branches_pkey |           745472
 2017-02-09 08:06:04.62687+01 | 1486623964.62687 | pgbench_tellers_pkey  |          2170880
 2017-02-09 08:06:04.62687+01 | 1486623964.62687 | pgbench_accounts_pkey |        673882112

 2017-02-09 08:06:05.695778+01 | 1486623965.69578 | pgbench_branches_pkey |           745472
 2017-02-09 08:06:05.695778+01 | 1486623965.69578 | pgbench_tellers_pkey  |          2170880
 2017-02-09 08:06:05.695778+01 | 1486623965.69578 | pgbench_accounts_pkey |        673882112

 2017-02-09 08:06:06.766369+01 | 1486623966.76637 | pgbench_branches_pkey |           745472
 2017-02-09 08:06:06.766369+01 | 1486623966.76637 | pgbench_tellers_pkey  |          2170880
 2017-02-09 08:06:06.766369+01 | 1486623966.76637 | pgbench_accounts_pkey |        673882112

 2017-02-09 08:06:07.832162+01 | 1486623967.83216 | pgbench_branches_pkey |           745472
 2017-02-09 08:06:07.832162+01 | 1486623967.83216 | pgbench_tellers_pkey  |          2170880
 2017-02-09 08:06:07.832162+01 | 1486623967.83216 | pgbench_accounts_pkey |        673882112

 2017-02-09 08:06:08.893899+01 | 1486623968.8939 | pgbench_branches_pkey |           745472
 2017-02-09 08:06:08.893899+01 | 1486623968.8939 | pgbench_tellers_pkey  |          2170880
 2017-02-09 08:06:08.893899+01 | 1486623968.8939 | pgbench_accounts_pkey |        673882112

 2017-02-09 08:06:09.957488+01 | 1486623969.95749 | pgbench_branches_pkey |           745472
 2017-02-09 08:06:09.957488+01 | 1486623969.95749 | pgbench_tellers_pkey  |          2170880
 2017-02-09 08:06:09.957488+01 | 1486623969.95749 | pgbench_accounts_pkey |        673882112

 2017-02-09 08:06:11.020749+01 | 1486623971.02075 | pgbench_branches_pkey |           745472
 2017-02-09 08:06:11.020749+01 | 1486623971.02075 | pgbench_tellers_pkey  |          2170880
 2017-02-09 08:06:11.020749+01 | 1486623971.02075 | pgbench_accounts_pkey |        673882112

 2017-02-09 08:06:12.090243+01 | 1486623972.09024 | pgbench_branches_pkey |           745472
 2017-02-09 08:06:12.090243+01 | 1486623972.09024 | pgbench_tellers_pkey  |          2170880
 2017-02-09 08:06:12.090243+01 | 1486623972.09024 | pgbench_accounts_pkey |        673882112

 2017-02-09 08:06:13.149673+01 | 1486623973.14967 | pgbench_branches_pkey |           745472
 2017-02-09 08:06:13.149673+01 | 1486623973.14967 | pgbench_tellers_pkey  |          2170880
 2017-02-09 08:06:13.149673+01 | 1486623973.14967 | pgbench_accounts_pkey |        673882112

 2017-02-09 08:06:14.219043+01 | 1486623974.21904 | pgbench_branches_pkey |           745472
 2017-02-09 08:06:14.219043+01 | 1486623974.21904 | pgbench_tellers_pkey  |          2170880
 2017-02-09 08:06:14.219043+01 | 1486623974.21904 | pgbench_accounts_pkey |        673882112

 2017-02-09 08:06:15.29387+01 | 1486623975.29387 | pgbench_branches_pkey |           745472
 2017-02-09 08:06:15.29387+01 | 1486623975.29387 | pgbench_tellers_pkey  |          2170880
 2017-02-09 08:06:15.29387+01 | 1486623975.29387 | pgbench_accounts_pkey |        673882112

 2017-02-09 08:06:16.348453+01 | 1486623976.34845 | pgbench_branches_pkey |           745472
 2017-02-09 08:06:16.348453+01 | 1486623976.34845 | pgbench_tellers_pkey  |          2170880
 2017-02-09 08:06:16.348453+01 | 1486623976.34845 | pgbench_accounts_pkey |        673882112

 2017-02-09 08:06:17.418094+01 | 1486623977.41809 | pgbench_branches_pkey |           745472
 2017-02-09 08:06:17.418094+01 | 1486623977.41809 | pgbench_tellers_pkey  |          2170880
 2017-02-09 08:06:17.418094+01 | 1486623977.41809 | pgbench_accounts_pkey |        673882112

 2017-02-09 08:06:18.482717+01 | 1486623978.48272 | pgbench_branches_pkey |           745472
 2017-02-09 08:06:18.482717+01 | 1486623978.48272 | pgbench_tellers_pkey  |          2170880
 2017-02-09 08:06:18.482717+01 | 1486623978.48272 | pgbench_accounts_pkey |        673882112

 2017-02-09 08:06:19.541284+01 | 1486623979.54128 | pgbench_branches_pkey |           745472
 2017-02-09 08:06:19.541284+01 | 1486623979.54128 | pgbench_tellers_pkey  |          2170880
 2017-02-09 08:06:19.541284+01 | 1486623979.54128 | pgbench_accounts_pkey |        673882112

 2017-02-09 08:06:20.620393+01 | 1486623980.62039 | pgbench_branches_pkey |           745472
 2017-02-09 08:06:20.620393+01 | 1486623980.62039 | pgbench_tellers_pkey  |          2170880
 2017-02-09 08:06:20.620393+01 | 1486623980.62039 | pgbench_accounts_pkey |        673882112

 2017-02-09 08:06:21.700911+01 | 1486623981.70091 | pgbench_branches_pkey |           745472
 2017-02-09 08:06:21.700911+01 | 1486623981.70091 | pgbench_tellers_pkey  |          2170880
 2017-02-09 08:06:21.700911+01 | 1486623981.70091 | pgbench_accounts_pkey |        673882112

 2017-02-09 08:06:22.778866+01 | 1486623982.77887 | pgbench_branches_pkey |           745472
 2017-02-09 08:06:22.778866+01 | 1486623982.77887 | pgbench_tellers_pkey  |          2170880
 2017-02-09 08:06:22.778866+01 | 1486623982.77887 | pgbench_accounts_pkey |        673882112

 2017-02-09 08:06:23.849994+01 | 1486623983.84999 | pgbench_branches_pkey |           745472
 2017-02-09 08:06:23.849994+01 | 1486623983.84999 | pgbench_tellers_pkey  |          2170880
 2017-02-09 08:06:23.849994+01 | 1486623983.84999 | pgbench_accounts_pkey |        673882112

 2017-02-09 08:06:24.918144+01 | 1486623984.91814 | pgbench_branches_pkey |           745472
 2017-02-09 08:06:24.918144+01 | 1486623984.91814 | pgbench_tellers_pkey  |          2170880
 2017-02-09 08:06:24.918144+01 | 1486623984.91814 | pgbench_accounts_pkey |        673882112

 2017-02-09 08:06:25.985014+01 | 1486623985.98501 | pgbench_branches_pkey |           745472
 2017-02-09 08:06:25.985014+01 | 1486623985.98501 | pgbench_tellers_pkey  |          2170880
 2017-02-09 08:06:25.985014+01 | 1486623985.98501 | pgbench_accounts_pkey |        673882112

 2017-02-09 08:06:27.053789+01 | 1486623987.05379 | pgbench_branches_pkey |           745472
 2017-02-09 08:06:27.053789+01 | 1486623987.05379 | pgbench_tellers_pkey  |          2170880
 2017-02-09 08:06:27.053789+01 | 1486623987.05379 | pgbench_accounts_pkey |        673882112

 2017-02-09 08:06:28.113052+01 | 1486623988.11305 | pgbench_branches_pkey |           745472
 2017-02-09 08:06:28.113052+01 | 1486623988.11305 | pgbench_tellers_pkey  |          2170880
 2017-02-09 08:06:28.113052+01 | 1486623988.11305 | pgbench_accounts_pkey |        673882112

 2017-02-09 08:06:29.181728+01 | 1486623989.18173 | pgbench_branches_pkey |           745472
 2017-02-09 08:06:29.181728+01 | 1486623989.18173 | pgbench_tellers_pkey  |          2170880
 2017-02-09 08:06:29.181728+01 | 1486623989.18173 | pgbench_accounts_pkey |        673882112

 2017-02-09 08:06:30.243005+01 | 1486623990.24301 | pgbench_branches_pkey |           745472
 2017-02-09 08:06:30.243005+01 | 1486623990.24301 | pgbench_tellers_pkey  |          2170880
 2017-02-09 08:06:30.243005+01 | 1486623990.24301 | pgbench_accounts_pkey |        673882112

 2017-02-09 08:06:31.330078+01 | 1486623991.33008 | pgbench_branches_pkey |           745472
 2017-02-09 08:06:31.330078+01 | 1486623991.33008 | pgbench_tellers_pkey  |          2170880
 2017-02-09 08:06:31.330078+01 | 1486623991.33008 | pgbench_accounts_pkey |        673882112

 2017-02-09 08:06:32.381442+01 | 1486623992.38144 | pgbench_branches_pkey |           745472
 2017-02-09 08:06:32.381442+01 | 1486623992.38144 | pgbench_tellers_pkey  |          2170880
 2017-02-09 08:06:32.381442+01 | 1486623992.38144 | pgbench_accounts_pkey |        673882112

 2017-02-09 08:06:33.442295+01 | 1486623993.4423 | pgbench_branches_pkey |           745472
 2017-02-09 08:06:33.442295+01 | 1486623993.4423 | pgbench_tellers_pkey  |          2170880
 2017-02-09 08:06:33.442295+01 | 1486623993.4423 | pgbench_accounts_pkey |        673882112

 2017-02-09 08:06:34.505753+01 | 1486623994.50575 | pgbench_branches_pkey |           745472
 2017-02-09 08:06:34.505753+01 | 1486623994.50575 | pgbench_tellers_pkey  |          2170880
 2017-02-09 08:06:34.505753+01 | 1486623994.50575 | pgbench_accounts_pkey |        673882112

 2017-02-09 08:06:35.574801+01 | 1486623995.5748 | pgbench_branches_pkey |           745472
 2017-02-09 08:06:35.574801+01 | 1486623995.5748 | pgbench_tellers_pkey  |          2170880
 2017-02-09 08:06:35.574801+01 | 1486623995.5748 | pgbench_accounts_pkey |        673882112

 2017-02-09 08:06:36.64832+01 | 1486623996.64832 | pgbench_branches_pkey |           745472
 2017-02-09 08:06:36.64832+01 | 1486623996.64832 | pgbench_tellers_pkey  |          2170880
 2017-02-09 08:06:36.64832+01 | 1486623996.64832 | pgbench_accounts_pkey |        673882112

 2017-02-09 08:06:37.724359+01 | 1486623997.72436 | pgbench_branches_pkey |           745472
 2017-02-09 08:06:37.724359+01 | 1486623997.72436 | pgbench_tellers_pkey  |          2170880
 2017-02-09 08:06:37.724359+01 | 1486623997.72436 | pgbench_accounts_pkey |        673882112

 2017-02-09 08:06:38.785878+01 | 1486623998.78588 | pgbench_branches_pkey |           745472
 2017-02-09 08:06:38.785878+01 | 1486623998.78588 | pgbench_tellers_pkey  |          2170880
 2017-02-09 08:06:38.785878+01 | 1486623998.78588 | pgbench_accounts_pkey |        673882112

 2017-02-09 08:06:39.849756+01 | 1486623999.84976 | pgbench_branches_pkey |           745472
 2017-02-09 08:06:39.849756+01 | 1486623999.84976 | pgbench_tellers_pkey  |          2170880
 2017-02-09 08:06:39.849756+01 | 1486623999.84976 | pgbench_accounts_pkey |        673882112

 2017-02-09 08:06:40.91235+01 | 1486624000.91235 | pgbench_branches_pkey |           745472
 2017-02-09 08:06:40.91235+01 | 1486624000.91235 | pgbench_tellers_pkey  |          2170880
 2017-02-09 08:06:40.91235+01 | 1486624000.91235 | pgbench_accounts_pkey |        673882112

 2017-02-09 08:06:41.976018+01 | 1486624001.97602 | pgbench_branches_pkey |           745472
 2017-02-09 08:06:41.976018+01 | 1486624001.97602 | pgbench_tellers_pkey  |          2170880
 2017-02-09 08:06:41.976018+01 | 1486624001.97602 | pgbench_accounts_pkey |        673882112

 2017-02-09 08:06:43.030587+01 | 1486624003.03059 | pgbench_branches_pkey |           745472
 2017-02-09 08:06:43.030587+01 | 1486624003.03059 | pgbench_tellers_pkey  |          2170880
 2017-02-09 08:06:43.030587+01 | 1486624003.03059 | pgbench_accounts_pkey |        673882112

 2017-02-09 08:06:44.091559+01 | 1486624004.09156 | pgbench_branches_pkey |           745472
 2017-02-09 08:06:44.091559+01 | 1486624004.09156 | pgbench_tellers_pkey  |          2170880
 2017-02-09 08:06:44.091559+01 | 1486624004.09156 | pgbench_accounts_pkey |        673882112

 2017-02-09 08:06:45.146437+01 | 1486624005.14644 | pgbench_branches_pkey |           745472
 2017-02-09 08:06:45.146437+01 | 1486624005.14644 | pgbench_tellers_pkey  |          2170880
 2017-02-09 08:06:45.146437+01 | 1486624005.14644 | pgbench_accounts_pkey |        673882112

 2017-02-09 08:06:46.211177+01 | 1486624006.21118 | pgbench_branches_pkey |           745472
 2017-02-09 08:06:46.211177+01 | 1486624006.21118 | pgbench_tellers_pkey  |          2170880
 2017-02-09 08:06:46.211177+01 | 1486624006.21118 | pgbench_accounts_pkey |        673882112

 2017-02-09 08:06:47.27492+01 | 1486624007.27492 | pgbench_branches_pkey |           745472
 2017-02-09 08:06:47.27492+01 | 1486624007.27492 | pgbench_tellers_pkey  |          2170880
 2017-02-09 08:06:47.27492+01 | 1486624007.27492 | pgbench_accounts_pkey |        673882112

 2017-02-09 08:06:48.345196+01 | 1486624008.3452 | pgbench_branches_pkey |           745472
 2017-02-09 08:06:48.345196+01 | 1486624008.3452 | pgbench_tellers_pkey  |          2170880
 2017-02-09 08:06:48.345196+01 | 1486624008.3452 | pgbench_accounts_pkey |        673882112

 2017-02-09 08:06:49.402375+01 | 1486624009.40237 | pgbench_branches_pkey |           745472
 2017-02-09 08:06:49.402375+01 | 1486624009.40237 | pgbench_tellers_pkey  |          2170880
 2017-02-09 08:06:49.402375+01 | 1486624009.40237 | pgbench_accounts_pkey |        673882112

 2017-02-09 08:06:50.461219+01 | 1486624010.46122 | pgbench_branches_pkey |           745472
 2017-02-09 08:06:50.461219+01 | 1486624010.46122 | pgbench_tellers_pkey  |          2170880
 2017-02-09 08:06:50.461219+01 | 1486624010.46122 | pgbench_accounts_pkey |        673882112

 2017-02-09 08:06:51.522403+01 | 1486624011.5224 | pgbench_branches_pkey |           745472
 2017-02-09 08:06:51.522403+01 | 1486624011.5224 | pgbench_tellers_pkey  |          2170880
 2017-02-09 08:06:51.522403+01 | 1486624011.5224 | pgbench_accounts_pkey |        673882112

 2017-02-09 08:06:52.581223+01 | 1486624012.58122 | pgbench_branches_pkey |           745472
 2017-02-09 08:06:52.581223+01 | 1486624012.58122 | pgbench_tellers_pkey  |          2170880
 2017-02-09 08:06:52.581223+01 | 1486624012.58122 | pgbench_accounts_pkey |        673882112

 2017-02-09 08:06:53.650268+01 | 1486624013.65027 | pgbench_branches_pkey |           745472
 2017-02-09 08:06:53.650268+01 | 1486624013.65027 | pgbench_tellers_pkey  |          2170880
 2017-02-09 08:06:53.650268+01 | 1486624013.65027 | pgbench_accounts_pkey |        673882112

 2017-02-09 08:06:54.711174+01 | 1486624014.71117 | pgbench_branches_pkey |           745472
 2017-02-09 08:06:54.711174+01 | 1486624014.71117 | pgbench_tellers_pkey  |          2170880
 2017-02-09 08:06:54.711174+01 | 1486624014.71117 | pgbench_accounts_pkey |        673882112

 2017-02-09 08:06:55.776468+01 | 1486624015.77647 | pgbench_branches_pkey |           745472
 2017-02-09 08:06:55.776468+01 | 1486624015.77647 | pgbench_tellers_pkey  |          2170880
 2017-02-09 08:06:55.776468+01 | 1486624015.77647 | pgbench_accounts_pkey |        673882112

 2017-02-09 08:06:56.851543+01 | 1486624016.85154 | pgbench_branches_pkey |           745472
 2017-02-09 08:06:56.851543+01 | 1486624016.85154 | pgbench_tellers_pkey  |          2170880
 2017-02-09 08:06:56.851543+01 | 1486624016.85154 | pgbench_accounts_pkey |        673882112

 2017-02-09 08:06:57.911379+01 | 1486624017.91138 | pgbench_branches_pkey |           745472
 2017-02-09 08:06:57.911379+01 | 1486624017.91138 | pgbench_tellers_pkey  |          2170880
 2017-02-09 08:06:57.911379+01 | 1486624017.91138 | pgbench_accounts_pkey |        673882112

 2017-02-09 08:06:58.987395+01 | 1486624018.9874 | pgbench_branches_pkey |           745472
 2017-02-09 08:06:58.987395+01 | 1486624018.9874 | pgbench_tellers_pkey  |          2170880
 2017-02-09 08:06:58.987395+01 | 1486624018.9874 | pgbench_accounts_pkey |        673882112

 2017-02-09 08:07:00.050462+01 | 1486624020.05046 | pgbench_branches_pkey |           745472
 2017-02-09 08:07:00.050462+01 | 1486624020.05046 | pgbench_tellers_pkey  |          2170880
 2017-02-09 08:07:00.050462+01 | 1486624020.05046 | pgbench_accounts_pkey |        673882112

 2017-02-09 08:07:01.120483+01 | 1486624021.12048 | pgbench_branches_pkey |           745472
 2017-02-09 08:07:01.120483+01 | 1486624021.12048 | pgbench_tellers_pkey  |          2170880
 2017-02-09 08:07:01.120483+01 | 1486624021.12048 | pgbench_accounts_pkey |        673882112

 2017-02-09 08:07:02.176278+01 | 1486624022.17628 | pgbench_branches_pkey |           745472
 2017-02-09 08:07:02.176278+01 | 1486624022.17628 | pgbench_tellers_pkey  |          2170880
 2017-02-09 08:07:02.176278+01 | 1486624022.17628 | pgbench_accounts_pkey |        673882112

 2017-02-09 08:07:03.255015+01 | 1486624023.25501 | pgbench_branches_pkey |           745472
 2017-02-09 08:07:03.255015+01 | 1486624023.25501 | pgbench_tellers_pkey  |          2170880
 2017-02-09 08:07:03.255015+01 | 1486624023.25501 | pgbench_accounts_pkey |        673882112

 2017-02-09 08:07:04.324185+01 | 1486624024.32418 | pgbench_branches_pkey |           745472
 2017-02-09 08:07:04.324185+01 | 1486624024.32418 | pgbench_tellers_pkey  |          2170880
 2017-02-09 08:07:04.324185+01 | 1486624024.32418 | pgbench_accounts_pkey |        673882112

 2017-02-09 08:07:05.393052+01 | 1486624025.39305 | pgbench_branches_pkey |           745472
 2017-02-09 08:07:05.393052+01 | 1486624025.39305 | pgbench_tellers_pkey  |          2170880
 2017-02-09 08:07:05.393052+01 | 1486624025.39305 | pgbench_accounts_pkey |        673882112

 2017-02-09 08:07:06.448757+01 | 1486624026.44876 | pgbench_branches_pkey |           745472
 2017-02-09 08:07:06.448757+01 | 1486624026.44876 | pgbench_tellers_pkey  |          2170880
 2017-02-09 08:07:06.448757+01 | 1486624026.44876 | pgbench_accounts_pkey |        673882112

 2017-02-09 08:07:07.5153+01 | 1486624027.5153 | pgbench_branches_pkey |           745472
 2017-02-09 08:07:07.5153+01 | 1486624027.5153 | pgbench_tellers_pkey  |          2170880
 2017-02-09 08:07:07.5153+01 | 1486624027.5153 | pgbench_accounts_pkey |        673882112

 2017-02-09 08:07:08.577104+01 | 1486624028.5771 | pgbench_branches_pkey |           745472
 2017-02-09 08:07:08.577104+01 | 1486624028.5771 | pgbench_tellers_pkey  |          2170880
 2017-02-09 08:07:08.577104+01 | 1486624028.5771 | pgbench_accounts_pkey |        673882112

 2017-02-09 08:07:09.630821+01 | 1486624029.63082 | pgbench_branches_pkey |           745472
 2017-02-09 08:07:09.630821+01 | 1486624029.63082 | pgbench_tellers_pkey  |          2170880
 2017-02-09 08:07:09.630821+01 | 1486624029.63082 | pgbench_accounts_pkey |        673882112

 2017-02-09 08:07:10.701519+01 | 1486624030.70152 | pgbench_branches_pkey |           745472
 2017-02-09 08:07:10.701519+01 | 1486624030.70152 | pgbench_tellers_pkey  |          2170880
 2017-02-09 08:07:10.701519+01 | 1486624030.70152 | pgbench_accounts_pkey |        673882112

 2017-02-09 08:07:11.77852+01 | 1486624031.77852 | pgbench_branches_pkey |           745472
 2017-02-09 08:07:11.77852+01 | 1486624031.77852 | pgbench_tellers_pkey  |          2170880
 2017-02-09 08:07:11.77852+01 | 1486624031.77852 | pgbench_accounts_pkey |        673882112

 2017-02-09 08:07:12.854031+01 | 1486624032.85403 | pgbench_branches_pkey |           745472
 2017-02-09 08:07:12.854031+01 | 1486624032.85403 | pgbench_tellers_pkey  |          2170880
 2017-02-09 08:07:12.854031+01 | 1486624032.85403 | pgbench_accounts_pkey |        673882112

 2017-02-09 08:07:13.910387+01 | 1486624033.91039 | pgbench_branches_pkey |           745472
 2017-02-09 08:07:13.910387+01 | 1486624033.91039 | pgbench_tellers_pkey  |          2170880
 2017-02-09 08:07:13.910387+01 | 1486624033.91039 | pgbench_accounts_pkey |        673882112

 2017-02-09 08:07:14.976969+01 | 1486624034.97697 | pgbench_branches_pkey |           745472
 2017-02-09 08:07:14.976969+01 | 1486624034.97697 | pgbench_tellers_pkey  |          2170880
 2017-02-09 08:07:14.976969+01 | 1486624034.97697 | pgbench_accounts_pkey |        673882112

 2017-02-09 08:07:16.03256+01 | 1486624036.03256 | pgbench_branches_pkey |           745472
 2017-02-09 08:07:16.03256+01 | 1486624036.03256 | pgbench_tellers_pkey  |          2170880
 2017-02-09 08:07:16.03256+01 | 1486624036.03256 | pgbench_accounts_pkey |        673882112

 2017-02-09 08:07:17.085454+01 | 1486624037.08545 | pgbench_branches_pkey |           745472
 2017-02-09 08:07:17.085454+01 | 1486624037.08545 | pgbench_tellers_pkey  |          2170880
 2017-02-09 08:07:17.085454+01 | 1486624037.08545 | pgbench_accounts_pkey |        673882112

 2017-02-09 08:07:18.161644+01 | 1486624038.16164 | pgbench_branches_pkey |           745472
 2017-02-09 08:07:18.161644+01 | 1486624038.16164 | pgbench_tellers_pkey  |          2170880
 2017-02-09 08:07:18.161644+01 | 1486624038.16164 | pgbench_accounts_pkey |        673882112

 2017-02-09 08:07:19.22477+01 | 1486624039.22477 | pgbench_branches_pkey |           745472
 2017-02-09 08:07:19.22477+01 | 1486624039.22477 | pgbench_tellers_pkey  |          2170880
 2017-02-09 08:07:19.22477+01 | 1486624039.22477 | pgbench_accounts_pkey |        673882112

 2017-02-09 08:07:20.304772+01 | 1486624040.30477 | pgbench_branches_pkey |           745472
 2017-02-09 08:07:20.304772+01 | 1486624040.30477 | pgbench_tellers_pkey  |          2170880
 2017-02-09 08:07:20.304772+01 | 1486624040.30477 | pgbench_accounts_pkey |        673882112

 2017-02-09 08:07:21.380095+01 | 1486624041.3801 | pgbench_branches_pkey |           745472
 2017-02-09 08:07:21.380095+01 | 1486624041.3801 | pgbench_tellers_pkey  |          2170880
 2017-02-09 08:07:21.380095+01 | 1486624041.3801 | pgbench_accounts_pkey |        673882112

 2017-02-09 08:07:22.442281+01 | 1486624042.44228 | pgbench_branches_pkey |           745472
 2017-02-09 08:07:22.442281+01 | 1486624042.44228 | pgbench_tellers_pkey  |          2170880
 2017-02-09 08:07:22.442281+01 | 1486624042.44228 | pgbench_accounts_pkey |        673882112

 2017-02-09 08:07:23.508965+01 | 1486624043.50897 | pgbench_branches_pkey |           745472
 2017-02-09 08:07:23.508965+01 | 1486624043.50897 | pgbench_tellers_pkey  |          2170880
 2017-02-09 08:07:23.508965+01 | 1486624043.50897 | pgbench_accounts_pkey |        673882112

 2017-02-09 08:07:24.583755+01 | 1486624044.58376 | pgbench_branches_pkey |           745472
 2017-02-09 08:07:24.583755+01 | 1486624044.58376 | pgbench_tellers_pkey  |          2170880
 2017-02-09 08:07:24.583755+01 | 1486624044.58376 | pgbench_accounts_pkey |        673882112

 2017-02-09 08:07:25.638541+01 | 1486624045.63854 | pgbench_branches_pkey |           745472
 2017-02-09 08:07:25.638541+01 | 1486624045.63854 | pgbench_tellers_pkey  |          2170880
 2017-02-09 08:07:25.638541+01 | 1486624045.63854 | pgbench_accounts_pkey |        673882112

 2017-02-09 08:07:26.694442+01 | 1486624046.69444 | pgbench_branches_pkey |           745472
 2017-02-09 08:07:26.694442+01 | 1486624046.69444 | pgbench_tellers_pkey  |          2170880
 2017-02-09 08:07:26.694442+01 | 1486624046.69444 | pgbench_accounts_pkey |        673882112

 2017-02-09 08:07:27.750693+01 | 1486624047.75069 | pgbench_branches_pkey |           745472
 2017-02-09 08:07:27.750693+01 | 1486624047.75069 | pgbench_tellers_pkey  |          2170880
 2017-02-09 08:07:27.750693+01 | 1486624047.75069 | pgbench_accounts_pkey |        673882112

 2017-02-09 08:07:28.805447+01 | 1486624048.80545 | pgbench_branches_pkey |           745472
 2017-02-09 08:07:28.805447+01 | 1486624048.80545 | pgbench_tellers_pkey  |          2170880
 2017-02-09 08:07:28.805447+01 | 1486624048.80545 | pgbench_accounts_pkey |        673882112

 2017-02-09 08:07:29.881803+01 | 1486624049.8818 | pgbench_branches_pkey |           745472
 2017-02-09 08:07:29.881803+01 | 1486624049.8818 | pgbench_tellers_pkey  |          2170880
 2017-02-09 08:07:29.881803+01 | 1486624049.8818 | pgbench_accounts_pkey |        673882112

 2017-02-09 08:07:30.942795+01 | 1486624050.9428 | pgbench_branches_pkey |           745472
 2017-02-09 08:07:30.942795+01 | 1486624050.9428 | pgbench_tellers_pkey  |          2170880
 2017-02-09 08:07:30.942795+01 | 1486624050.9428 | pgbench_accounts_pkey |        673882112

 2017-02-09 08:07:32.000613+01 | 1486624052.00061 | pgbench_branches_pkey |           745472
 2017-02-09 08:07:32.000613+01 | 1486624052.00061 | pgbench_tellers_pkey  |          2170880
 2017-02-09 08:07:32.000613+01 | 1486624052.00061 | pgbench_accounts_pkey |        673882112

 2017-02-09 08:07:33.087686+01 | 1486624053.08769 | pgbench_branches_pkey |           745472
 2017-02-09 08:07:33.087686+01 | 1486624053.08769 | pgbench_tellers_pkey  |          2170880
 2017-02-09 08:07:33.087686+01 | 1486624053.08769 | pgbench_accounts_pkey |        673882112

 2017-02-09 08:07:34.157074+01 | 1486624054.15707 | pgbench_branches_pkey |           745472
 2017-02-09 08:07:34.157074+01 | 1486624054.15707 | pgbench_tellers_pkey  |          2170880
 2017-02-09 08:07:34.157074+01 | 1486624054.15707 | pgbench_accounts_pkey |        673882112

 2017-02-09 08:07:35.221026+01 | 1486624055.22103 | pgbench_branches_pkey |           745472
 2017-02-09 08:07:35.221026+01 | 1486624055.22103 | pgbench_tellers_pkey  |          2170880
 2017-02-09 08:07:35.221026+01 | 1486624055.22103 | pgbench_accounts_pkey |        673882112

 2017-02-09 08:07:36.282055+01 | 1486624056.28205 | pgbench_branches_pkey |           745472
 2017-02-09 08:07:36.282055+01 | 1486624056.28205 | pgbench_tellers_pkey  |          2170880
 2017-02-09 08:07:36.282055+01 | 1486624056.28205 | pgbench_accounts_pkey |        673882112

 2017-02-09 08:07:37.345542+01 | 1486624057.34554 | pgbench_branches_pkey |           745472
 2017-02-09 08:07:37.345542+01 | 1486624057.34554 | pgbench_tellers_pkey  |          2170880
 2017-02-09 08:07:37.345542+01 | 1486624057.34554 | pgbench_accounts_pkey |        673882112

 2017-02-09 08:07:38.412194+01 | 1486624058.41219 | pgbench_branches_pkey |           745472
 2017-02-09 08:07:38.412194+01 | 1486624058.41219 | pgbench_tellers_pkey  |          2170880
 2017-02-09 08:07:38.412194+01 | 1486624058.41219 | pgbench_accounts_pkey |        673882112

 2017-02-09 08:07:39.482476+01 | 1486624059.48248 | pgbench_branches_pkey |           745472
 2017-02-09 08:07:39.482476+01 | 1486624059.48248 | pgbench_tellers_pkey  |          2170880
 2017-02-09 08:07:39.482476+01 | 1486624059.48248 | pgbench_accounts_pkey |        673882112

 2017-02-09 08:07:40.538988+01 | 1486624060.53899 | pgbench_branches_pkey |           745472
 2017-02-09 08:07:40.538988+01 | 1486624060.53899 | pgbench_tellers_pkey  |          2170880
 2017-02-09 08:07:40.538988+01 | 1486624060.53899 | pgbench_accounts_pkey |        673882112

 2017-02-09 08:07:41.604699+01 | 1486624061.6047 | pgbench_branches_pkey |           745472
 2017-02-09 08:07:41.604699+01 | 1486624061.6047 | pgbench_tellers_pkey  |          2170880
 2017-02-09 08:07:41.604699+01 | 1486624061.6047 | pgbench_accounts_pkey |        673882112

 2017-02-09 08:07:42.670311+01 | 1486624062.67031 | pgbench_branches_pkey |           745472
 2017-02-09 08:07:42.670311+01 | 1486624062.67031 | pgbench_tellers_pkey  |          2170880
 2017-02-09 08:07:42.670311+01 | 1486624062.67031 | pgbench_accounts_pkey |        673882112

 2017-02-09 08:07:43.730226+01 | 1486624063.73023 | pgbench_branches_pkey |           745472
 2017-02-09 08:07:43.730226+01 | 1486624063.73023 | pgbench_tellers_pkey  |          2170880
 2017-02-09 08:07:43.730226+01 | 1486624063.73023 | pgbench_accounts_pkey |        673882112

 2017-02-09 08:07:44.79282+01 | 1486624064.79282 | pgbench_branches_pkey |           745472
 2017-02-09 08:07:44.79282+01 | 1486624064.79282 | pgbench_tellers_pkey  |          2170880
 2017-02-09 08:07:44.79282+01 | 1486624064.79282 | pgbench_accounts_pkey |        673882112

 2017-02-09 08:07:45.858966+01 | 1486624065.85897 | pgbench_branches_pkey |           745472
 2017-02-09 08:07:45.858966+01 | 1486624065.85897 | pgbench_tellers_pkey  |          2170880
 2017-02-09 08:07:45.858966+01 | 1486624065.85897 | pgbench_accounts_pkey |        673882112

