 2017-02-08 19:28:03.614255+01 | 1486578483.61425 | pgbench_accounts |        694222848
 2017-02-08 19:28:03.614255+01 | 1486578483.61425 | pgbench_tellers  |            24576
 2017-02-08 19:28:03.614255+01 | 1486578483.61425 | pgbench_history  |                0
 2017-02-08 19:28:03.614255+01 | 1486578483.61425 | pgbench_branches |             8192

 2017-02-08 19:28:04.785507+01 | 1486578484.78551 | pgbench_accounts |        694222848
 2017-02-08 19:28:04.785507+01 | 1486578484.78551 | pgbench_tellers  |            24576
 2017-02-08 19:28:04.785507+01 | 1486578484.78551 | pgbench_history  |                0
 2017-02-08 19:28:04.785507+01 | 1486578484.78551 | pgbench_branches |             8192

 2017-02-08 19:28:05.956713+01 | 1486578485.95671 | pgbench_accounts |        694222848
 2017-02-08 19:28:05.956713+01 | 1486578485.95671 | pgbench_tellers  |            24576
 2017-02-08 19:28:05.956713+01 | 1486578485.95671 | pgbench_history  |                0
 2017-02-08 19:28:05.956713+01 | 1486578485.95671 | pgbench_branches |             8192

 2017-02-08 19:28:07.176149+01 | 1486578487.17615 | pgbench_accounts |        694222848
 2017-02-08 19:28:07.176149+01 | 1486578487.17615 | pgbench_tellers  |            24576
 2017-02-08 19:28:07.176149+01 | 1486578487.17615 | pgbench_history  |                0
 2017-02-08 19:28:07.176149+01 | 1486578487.17615 | pgbench_branches |             8192

 2017-02-08 19:28:08.390558+01 | 1486578488.39056 | pgbench_accounts |        694222848
 2017-02-08 19:28:08.390558+01 | 1486578488.39056 | pgbench_tellers  |            24576
 2017-02-08 19:28:08.390558+01 | 1486578488.39056 | pgbench_history  |                0
 2017-02-08 19:28:08.390558+01 | 1486578488.39056 | pgbench_branches |             8192

 2017-02-08 19:28:09.586199+01 | 1486578489.5862 | pgbench_accounts |        694222848
 2017-02-08 19:28:09.586199+01 | 1486578489.5862 | pgbench_tellers  |            24576
 2017-02-08 19:28:09.586199+01 | 1486578489.5862 | pgbench_history  |                0
 2017-02-08 19:28:09.586199+01 | 1486578489.5862 | pgbench_branches |             8192

 2017-02-08 19:28:10.730534+01 | 1486578490.73053 | pgbench_accounts |        694222848
 2017-02-08 19:28:10.730534+01 | 1486578490.73053 | pgbench_tellers  |            24576
 2017-02-08 19:28:10.730534+01 | 1486578490.73053 | pgbench_history  |                0
 2017-02-08 19:28:10.730534+01 | 1486578490.73053 | pgbench_branches |             8192

 2017-02-08 19:28:11.935466+01 | 1486578491.93547 | pgbench_accounts |        694222848
 2017-02-08 19:28:11.935466+01 | 1486578491.93547 | pgbench_tellers  |            24576
 2017-02-08 19:28:11.935466+01 | 1486578491.93547 | pgbench_history  |                0
 2017-02-08 19:28:11.935466+01 | 1486578491.93547 | pgbench_branches |             8192

 2017-02-08 19:28:13.128661+01 | 1486578493.12866 | pgbench_accounts |        694222848
 2017-02-08 19:28:13.128661+01 | 1486578493.12866 | pgbench_tellers  |            24576
 2017-02-08 19:28:13.128661+01 | 1486578493.12866 | pgbench_history  |                0
 2017-02-08 19:28:13.128661+01 | 1486578493.12866 | pgbench_branches |             8192

 2017-02-08 19:28:14.347584+01 | 1486578494.34758 | pgbench_accounts |        694222848
 2017-02-08 19:28:14.347584+01 | 1486578494.34758 | pgbench_tellers  |            24576
 2017-02-08 19:28:14.347584+01 | 1486578494.34758 | pgbench_history  |                0
 2017-02-08 19:28:14.347584+01 | 1486578494.34758 | pgbench_branches |             8192

 2017-02-08 19:28:15.489927+01 | 1486578495.48993 | pgbench_accounts |        694222848
 2017-02-08 19:28:15.489927+01 | 1486578495.48993 | pgbench_tellers  |            24576
 2017-02-08 19:28:15.489927+01 | 1486578495.48993 | pgbench_history  |                0
 2017-02-08 19:28:15.489927+01 | 1486578495.48993 | pgbench_branches |             8192

 2017-02-08 19:28:16.586069+01 | 1486578496.58607 | pgbench_accounts |        694222848
 2017-02-08 19:28:16.586069+01 | 1486578496.58607 | pgbench_tellers  |            24576
 2017-02-08 19:28:16.586069+01 | 1486578496.58607 | pgbench_history  |                0
 2017-02-08 19:28:16.586069+01 | 1486578496.58607 | pgbench_branches |             8192

 2017-02-08 19:28:17.730572+01 | 1486578497.73057 | pgbench_accounts |        694222848
 2017-02-08 19:28:17.730572+01 | 1486578497.73057 | pgbench_tellers  |            24576
 2017-02-08 19:28:17.730572+01 | 1486578497.73057 | pgbench_history  |                0
 2017-02-08 19:28:17.730572+01 | 1486578497.73057 | pgbench_branches |             8192

 2017-02-08 19:28:18.926017+01 | 1486578498.92602 | pgbench_accounts |        694222848
 2017-02-08 19:28:18.926017+01 | 1486578498.92602 | pgbench_tellers  |            24576
 2017-02-08 19:28:18.926017+01 | 1486578498.92602 | pgbench_history  |                0
 2017-02-08 19:28:18.926017+01 | 1486578498.92602 | pgbench_branches |             8192

 2017-02-08 19:28:20.122612+01 | 1486578500.12261 | pgbench_accounts |        694222848
 2017-02-08 19:28:20.122612+01 | 1486578500.12261 | pgbench_tellers  |            24576
 2017-02-08 19:28:20.122612+01 | 1486578500.12261 | pgbench_history  |                0
 2017-02-08 19:28:20.122612+01 | 1486578500.12261 | pgbench_branches |             8192

 2017-02-08 19:28:21.32285+01 | 1486578501.32285 | pgbench_accounts |        694222848
 2017-02-08 19:28:21.32285+01 | 1486578501.32285 | pgbench_tellers  |            24576
 2017-02-08 19:28:21.32285+01 | 1486578501.32285 | pgbench_history  |                0
 2017-02-08 19:28:21.32285+01 | 1486578501.32285 | pgbench_branches |             8192

 2017-02-08 19:28:22.51125+01 | 1486578502.51125 | pgbench_accounts |        694222848
 2017-02-08 19:28:22.51125+01 | 1486578502.51125 | pgbench_tellers  |            24576
 2017-02-08 19:28:22.51125+01 | 1486578502.51125 | pgbench_history  |                0
 2017-02-08 19:28:22.51125+01 | 1486578502.51125 | pgbench_branches |             8192

 2017-02-08 19:28:23.704943+01 | 1486578503.70494 | pgbench_accounts |        694222848
 2017-02-08 19:28:23.704943+01 | 1486578503.70494 | pgbench_tellers  |            24576
 2017-02-08 19:28:23.704943+01 | 1486578503.70494 | pgbench_history  |                0
 2017-02-08 19:28:23.704943+01 | 1486578503.70494 | pgbench_branches |             8192

 2017-02-08 19:28:24.876183+01 | 1486578504.87618 | pgbench_accounts |        694222848
 2017-02-08 19:28:24.876183+01 | 1486578504.87618 | pgbench_tellers  |            24576
 2017-02-08 19:28:24.876183+01 | 1486578504.87618 | pgbench_history  |                0
 2017-02-08 19:28:24.876183+01 | 1486578504.87618 | pgbench_branches |             8192

 2017-02-08 19:28:26.095059+01 | 1486578506.09506 | pgbench_accounts |        694222848
 2017-02-08 19:28:26.095059+01 | 1486578506.09506 | pgbench_tellers  |            24576
 2017-02-08 19:28:26.095059+01 | 1486578506.09506 | pgbench_history  |                0
 2017-02-08 19:28:26.095059+01 | 1486578506.09506 | pgbench_branches |             8192

 2017-02-08 19:28:27.324776+01 | 1486578507.32478 | pgbench_accounts |        694222848
 2017-02-08 19:28:27.324776+01 | 1486578507.32478 | pgbench_tellers  |            24576
 2017-02-08 19:28:27.324776+01 | 1486578507.32478 | pgbench_history  |                0
 2017-02-08 19:28:27.324776+01 | 1486578507.32478 | pgbench_branches |             8192

 2017-02-08 19:28:28.512459+01 | 1486578508.51246 | pgbench_accounts |        694222848
 2017-02-08 19:28:28.512459+01 | 1486578508.51246 | pgbench_tellers  |            24576
 2017-02-08 19:28:28.512459+01 | 1486578508.51246 | pgbench_history  |                0
 2017-02-08 19:28:28.512459+01 | 1486578508.51246 | pgbench_branches |             8192

 2017-02-08 19:28:29.683972+01 | 1486578509.68397 | pgbench_accounts |        694222848
 2017-02-08 19:28:29.683972+01 | 1486578509.68397 | pgbench_tellers  |            24576
 2017-02-08 19:28:29.683972+01 | 1486578509.68397 | pgbench_history  |                0
 2017-02-08 19:28:29.683972+01 | 1486578509.68397 | pgbench_branches |             8192

 2017-02-08 19:28:30.891614+01 | 1486578510.89161 | pgbench_accounts |        694222848
 2017-02-08 19:28:30.891614+01 | 1486578510.89161 | pgbench_tellers  |            24576
 2017-02-08 19:28:30.891614+01 | 1486578510.89161 | pgbench_history  |                0
 2017-02-08 19:28:30.891614+01 | 1486578510.89161 | pgbench_branches |             8192

 2017-02-08 19:28:32.105141+01 | 1486578512.10514 | pgbench_accounts |        694222848
 2017-02-08 19:28:32.105141+01 | 1486578512.10514 | pgbench_tellers  |            24576
 2017-02-08 19:28:32.105141+01 | 1486578512.10514 | pgbench_history  |                0
 2017-02-08 19:28:32.105141+01 | 1486578512.10514 | pgbench_branches |             8192

 2017-02-08 19:28:33.30474+01 | 1486578513.30474 | pgbench_accounts |        694222848
 2017-02-08 19:28:33.30474+01 | 1486578513.30474 | pgbench_tellers  |            24576
 2017-02-08 19:28:33.30474+01 | 1486578513.30474 | pgbench_history  |                0
 2017-02-08 19:28:33.30474+01 | 1486578513.30474 | pgbench_branches |             8192

 2017-02-08 19:28:34.588881+01 | 1486578514.58888 | pgbench_accounts |        694222848
 2017-02-08 19:28:34.588881+01 | 1486578514.58888 | pgbench_tellers  |            24576
 2017-02-08 19:28:34.588881+01 | 1486578514.58888 | pgbench_history  |                0
 2017-02-08 19:28:34.588881+01 | 1486578514.58888 | pgbench_branches |             8192

 2017-02-08 19:28:35.855984+01 | 1486578515.85598 | pgbench_accounts |        694222848
 2017-02-08 19:28:35.855984+01 | 1486578515.85598 | pgbench_tellers  |            24576
 2017-02-08 19:28:35.855984+01 | 1486578515.85598 | pgbench_history  |                0
 2017-02-08 19:28:35.855984+01 | 1486578515.85598 | pgbench_branches |             8192

 2017-02-08 19:28:37.121887+01 | 1486578517.12189 | pgbench_accounts |        694222848
 2017-02-08 19:28:37.121887+01 | 1486578517.12189 | pgbench_tellers  |            24576
 2017-02-08 19:28:37.121887+01 | 1486578517.12189 | pgbench_history  |                0
 2017-02-08 19:28:37.121887+01 | 1486578517.12189 | pgbench_branches |             8192

 2017-02-08 19:28:38.293075+01 | 1486578518.29308 | pgbench_accounts |        694222848
 2017-02-08 19:28:38.293075+01 | 1486578518.29308 | pgbench_tellers  |            24576
 2017-02-08 19:28:38.293075+01 | 1486578518.29308 | pgbench_history  |                0
 2017-02-08 19:28:38.293075+01 | 1486578518.29308 | pgbench_branches |             8192

 2017-02-08 19:28:39.461954+01 | 1486578519.46195 | pgbench_accounts |        694222848
 2017-02-08 19:28:39.461954+01 | 1486578519.46195 | pgbench_tellers  |            24576
 2017-02-08 19:28:39.461954+01 | 1486578519.46195 | pgbench_history  |                0
 2017-02-08 19:28:39.461954+01 | 1486578519.46195 | pgbench_branches |             8192

 2017-02-08 19:28:40.705444+01 | 1486578520.70544 | pgbench_accounts |        694222848
 2017-02-08 19:28:40.705444+01 | 1486578520.70544 | pgbench_tellers  |            24576
 2017-02-08 19:28:40.705444+01 | 1486578520.70544 | pgbench_history  |                0
 2017-02-08 19:28:40.705444+01 | 1486578520.70544 | pgbench_branches |             8192

 2017-02-08 19:28:41.866104+01 | 1486578521.8661 | pgbench_accounts |        694222848
 2017-02-08 19:28:41.866104+01 | 1486578521.8661 | pgbench_tellers  |            24576
 2017-02-08 19:28:41.866104+01 | 1486578521.8661 | pgbench_history  |                0
 2017-02-08 19:28:41.866104+01 | 1486578521.8661 | pgbench_branches |             8192

 2017-02-08 19:28:43.007544+01 | 1486578523.00754 | pgbench_accounts |        694222848
 2017-02-08 19:28:43.007544+01 | 1486578523.00754 | pgbench_tellers  |            24576
 2017-02-08 19:28:43.007544+01 | 1486578523.00754 | pgbench_history  |                0
 2017-02-08 19:28:43.007544+01 | 1486578523.00754 | pgbench_branches |             8192

 2017-02-08 19:28:44.28657+01 | 1486578524.28657 | pgbench_accounts |        694222848
 2017-02-08 19:28:44.28657+01 | 1486578524.28657 | pgbench_tellers  |            24576
 2017-02-08 19:28:44.28657+01 | 1486578524.28657 | pgbench_history  |                0
 2017-02-08 19:28:44.28657+01 | 1486578524.28657 | pgbench_branches |             8192

 2017-02-08 19:28:45.495353+01 | 1486578525.49535 | pgbench_accounts |        694222848
 2017-02-08 19:28:45.495353+01 | 1486578525.49535 | pgbench_tellers  |            24576
 2017-02-08 19:28:45.495353+01 | 1486578525.49535 | pgbench_history  |                0
 2017-02-08 19:28:45.495353+01 | 1486578525.49535 | pgbench_branches |             8192

 2017-02-08 19:28:46.744385+01 | 1486578526.74439 | pgbench_accounts |        694222848
 2017-02-08 19:28:46.744385+01 | 1486578526.74439 | pgbench_tellers  |            24576
 2017-02-08 19:28:46.744385+01 | 1486578526.74439 | pgbench_history  |                0
 2017-02-08 19:28:46.744385+01 | 1486578526.74439 | pgbench_branches |             8192

 2017-02-08 19:28:47.947758+01 | 1486578527.94776 | pgbench_accounts |        694222848
 2017-02-08 19:28:47.947758+01 | 1486578527.94776 | pgbench_tellers  |            24576
 2017-02-08 19:28:47.947758+01 | 1486578527.94776 | pgbench_history  |                0
 2017-02-08 19:28:47.947758+01 | 1486578527.94776 | pgbench_branches |             8192

 2017-02-08 19:28:49.254828+01 | 1486578529.25483 | pgbench_accounts |        694222848
 2017-02-08 19:28:49.254828+01 | 1486578529.25483 | pgbench_tellers  |            24576
 2017-02-08 19:28:49.254828+01 | 1486578529.25483 | pgbench_history  |                0
 2017-02-08 19:28:49.254828+01 | 1486578529.25483 | pgbench_branches |             8192

 2017-02-08 19:28:50.488997+01 | 1486578530.489 | pgbench_accounts |        694222848
 2017-02-08 19:28:50.488997+01 | 1486578530.489 | pgbench_tellers  |            24576
 2017-02-08 19:28:50.488997+01 | 1486578530.489 | pgbench_history  |                0
 2017-02-08 19:28:50.488997+01 | 1486578530.489 | pgbench_branches |             8192

 2017-02-08 19:28:51.735262+01 | 1486578531.73526 | pgbench_accounts |        694222848
 2017-02-08 19:28:51.735262+01 | 1486578531.73526 | pgbench_tellers  |            24576
 2017-02-08 19:28:51.735262+01 | 1486578531.73526 | pgbench_history  |                0
 2017-02-08 19:28:51.735262+01 | 1486578531.73526 | pgbench_branches |             8192

 2017-02-08 19:28:53.001436+01 | 1486578533.00144 | pgbench_accounts |        694222848
 2017-02-08 19:28:53.001436+01 | 1486578533.00144 | pgbench_tellers  |            24576
 2017-02-08 19:28:53.001436+01 | 1486578533.00144 | pgbench_history  |                0
 2017-02-08 19:28:53.001436+01 | 1486578533.00144 | pgbench_branches |             8192

 2017-02-08 19:28:54.174695+01 | 1486578534.1747 | pgbench_accounts |        694222848
 2017-02-08 19:28:54.174695+01 | 1486578534.1747 | pgbench_tellers  |            24576
 2017-02-08 19:28:54.174695+01 | 1486578534.1747 | pgbench_history  |                0
 2017-02-08 19:28:54.174695+01 | 1486578534.1747 | pgbench_branches |             8192

 2017-02-08 19:28:55.419839+01 | 1486578535.41984 | pgbench_accounts |        694222848
 2017-02-08 19:28:55.419839+01 | 1486578535.41984 | pgbench_tellers  |            24576
 2017-02-08 19:28:55.419839+01 | 1486578535.41984 | pgbench_history  |                0
 2017-02-08 19:28:55.419839+01 | 1486578535.41984 | pgbench_branches |             8192

 2017-02-08 19:28:56.677317+01 | 1486578536.67732 | pgbench_accounts |        694222848
 2017-02-08 19:28:56.677317+01 | 1486578536.67732 | pgbench_tellers  |            24576
 2017-02-08 19:28:56.677317+01 | 1486578536.67732 | pgbench_history  |                0
 2017-02-08 19:28:56.677317+01 | 1486578536.67732 | pgbench_branches |             8192

 2017-02-08 19:28:57.878285+01 | 1486578537.87828 | pgbench_accounts |        694222848
 2017-02-08 19:28:57.878285+01 | 1486578537.87828 | pgbench_tellers  |            24576
 2017-02-08 19:28:57.878285+01 | 1486578537.87828 | pgbench_history  |                0
 2017-02-08 19:28:57.878285+01 | 1486578537.87828 | pgbench_branches |             8192

 2017-02-08 19:28:59.026263+01 | 1486578539.02626 | pgbench_accounts |        694222848
 2017-02-08 19:28:59.026263+01 | 1486578539.02626 | pgbench_tellers  |            24576
 2017-02-08 19:28:59.026263+01 | 1486578539.02626 | pgbench_history  |                0
 2017-02-08 19:28:59.026263+01 | 1486578539.02626 | pgbench_branches |             8192

 2017-02-08 19:29:00.20964+01 | 1486578540.20964 | pgbench_accounts |        694222848
 2017-02-08 19:29:00.20964+01 | 1486578540.20964 | pgbench_tellers  |            24576
 2017-02-08 19:29:00.20964+01 | 1486578540.20964 | pgbench_history  |                0
 2017-02-08 19:29:00.20964+01 | 1486578540.20964 | pgbench_branches |             8192

 2017-02-08 19:29:01.439507+01 | 1486578541.43951 | pgbench_accounts |        694222848
 2017-02-08 19:29:01.439507+01 | 1486578541.43951 | pgbench_tellers  |            24576
 2017-02-08 19:29:01.439507+01 | 1486578541.43951 | pgbench_history  |                0
 2017-02-08 19:29:01.439507+01 | 1486578541.43951 | pgbench_branches |             8192

 2017-02-08 19:29:02.639496+01 | 1486578542.6395 | pgbench_accounts |        694222848
 2017-02-08 19:29:02.639496+01 | 1486578542.6395 | pgbench_tellers  |            24576
 2017-02-08 19:29:02.639496+01 | 1486578542.6395 | pgbench_history  |                0
 2017-02-08 19:29:02.639496+01 | 1486578542.6395 | pgbench_branches |             8192

 2017-02-08 19:29:03.87426+01 | 1486578543.87426 | pgbench_accounts |        694222848
 2017-02-08 19:29:03.87426+01 | 1486578543.87426 | pgbench_tellers  |            24576
 2017-02-08 19:29:03.87426+01 | 1486578543.87426 | pgbench_history  |                0
 2017-02-08 19:29:03.87426+01 | 1486578543.87426 | pgbench_branches |             8192

 2017-02-08 19:29:05.107565+01 | 1486578545.10756 | pgbench_accounts |        694222848
 2017-02-08 19:29:05.107565+01 | 1486578545.10756 | pgbench_tellers  |            24576
 2017-02-08 19:29:05.107565+01 | 1486578545.10756 | pgbench_history  |                0
 2017-02-08 19:29:05.107565+01 | 1486578545.10756 | pgbench_branches |             8192

 2017-02-08 19:29:06.347477+01 | 1486578546.34748 | pgbench_accounts |        694222848
 2017-02-08 19:29:06.347477+01 | 1486578546.34748 | pgbench_tellers  |            24576
 2017-02-08 19:29:06.347477+01 | 1486578546.34748 | pgbench_history  |                0
 2017-02-08 19:29:06.347477+01 | 1486578546.34748 | pgbench_branches |             8192

 2017-02-08 19:29:07.550393+01 | 1486578547.55039 | pgbench_accounts |        694222848
 2017-02-08 19:29:07.550393+01 | 1486578547.55039 | pgbench_tellers  |            24576
 2017-02-08 19:29:07.550393+01 | 1486578547.55039 | pgbench_history  |                0
 2017-02-08 19:29:07.550393+01 | 1486578547.55039 | pgbench_branches |             8192

 2017-02-08 19:29:08.758155+01 | 1486578548.75816 | pgbench_accounts |        694222848
 2017-02-08 19:29:08.758155+01 | 1486578548.75816 | pgbench_tellers  |            24576
 2017-02-08 19:29:08.758155+01 | 1486578548.75816 | pgbench_history  |                0
 2017-02-08 19:29:08.758155+01 | 1486578548.75816 | pgbench_branches |             8192

 2017-02-08 19:29:09.974965+01 | 1486578549.97497 | pgbench_accounts |        694222848
 2017-02-08 19:29:09.974965+01 | 1486578549.97497 | pgbench_tellers  |            24576
 2017-02-08 19:29:09.974965+01 | 1486578549.97497 | pgbench_history  |                0
 2017-02-08 19:29:09.974965+01 | 1486578549.97497 | pgbench_branches |             8192

 2017-02-08 19:29:11.220482+01 | 1486578551.22048 | pgbench_accounts |        694222848
 2017-02-08 19:29:11.220482+01 | 1486578551.22048 | pgbench_tellers  |            24576
 2017-02-08 19:29:11.220482+01 | 1486578551.22048 | pgbench_history  |                0
 2017-02-08 19:29:11.220482+01 | 1486578551.22048 | pgbench_branches |             8192

 2017-02-08 19:29:12.508645+01 | 1486578552.50865 | pgbench_accounts |        694222848
 2017-02-08 19:29:12.508645+01 | 1486578552.50865 | pgbench_tellers  |            24576
 2017-02-08 19:29:12.508645+01 | 1486578552.50865 | pgbench_history  |                0
 2017-02-08 19:29:12.508645+01 | 1486578552.50865 | pgbench_branches |             8192

 2017-02-08 19:29:13.728716+01 | 1486578553.72872 | pgbench_accounts |        694222848
 2017-02-08 19:29:13.728716+01 | 1486578553.72872 | pgbench_tellers  |            24576
 2017-02-08 19:29:13.728716+01 | 1486578553.72872 | pgbench_history  |                0
 2017-02-08 19:29:13.728716+01 | 1486578553.72872 | pgbench_branches |             8192

 2017-02-08 19:29:14.954089+01 | 1486578554.95409 | pgbench_accounts |        694222848
 2017-02-08 19:29:14.954089+01 | 1486578554.95409 | pgbench_tellers  |            24576
 2017-02-08 19:29:14.954089+01 | 1486578554.95409 | pgbench_history  |                0
 2017-02-08 19:29:14.954089+01 | 1486578554.95409 | pgbench_branches |             8192

 2017-02-08 19:29:16.209264+01 | 1486578556.20926 | pgbench_accounts |        694222848
 2017-02-08 19:29:16.209264+01 | 1486578556.20926 | pgbench_tellers  |            24576
 2017-02-08 19:29:16.209264+01 | 1486578556.20926 | pgbench_history  |                0
 2017-02-08 19:29:16.209264+01 | 1486578556.20926 | pgbench_branches |             8192

 2017-02-08 19:29:17.467011+01 | 1486578557.46701 | pgbench_accounts |        694222848
 2017-02-08 19:29:17.467011+01 | 1486578557.46701 | pgbench_tellers  |            24576
 2017-02-08 19:29:17.467011+01 | 1486578557.46701 | pgbench_history  |                0
 2017-02-08 19:29:17.467011+01 | 1486578557.46701 | pgbench_branches |             8192

 2017-02-08 19:29:18.681824+01 | 1486578558.68182 | pgbench_accounts |        694222848
 2017-02-08 19:29:18.681824+01 | 1486578558.68182 | pgbench_tellers  |            24576
 2017-02-08 19:29:18.681824+01 | 1486578558.68182 | pgbench_history  |                0
 2017-02-08 19:29:18.681824+01 | 1486578558.68182 | pgbench_branches |             8192

 2017-02-08 19:29:19.920204+01 | 1486578559.9202 | pgbench_accounts |        694222848
 2017-02-08 19:29:19.920204+01 | 1486578559.9202 | pgbench_tellers  |            24576
 2017-02-08 19:29:19.920204+01 | 1486578559.9202 | pgbench_history  |                0
 2017-02-08 19:29:19.920204+01 | 1486578559.9202 | pgbench_branches |             8192

 2017-02-08 19:29:21.138728+01 | 1486578561.13873 | pgbench_accounts |        694222848
 2017-02-08 19:29:21.138728+01 | 1486578561.13873 | pgbench_tellers  |            24576
 2017-02-08 19:29:21.138728+01 | 1486578561.13873 | pgbench_history  |                0
 2017-02-08 19:29:21.138728+01 | 1486578561.13873 | pgbench_branches |             8192

 2017-02-08 19:29:22.299959+01 | 1486578562.29996 | pgbench_accounts |        694222848
 2017-02-08 19:29:22.299959+01 | 1486578562.29996 | pgbench_tellers  |            24576
 2017-02-08 19:29:22.299959+01 | 1486578562.29996 | pgbench_history  |                0
 2017-02-08 19:29:22.299959+01 | 1486578562.29996 | pgbench_branches |             8192

 2017-02-08 19:29:23.511469+01 | 1486578563.51147 | pgbench_accounts |        694222848
 2017-02-08 19:29:23.511469+01 | 1486578563.51147 | pgbench_tellers  |            24576
 2017-02-08 19:29:23.511469+01 | 1486578563.51147 | pgbench_history  |                0
 2017-02-08 19:29:23.511469+01 | 1486578563.51147 | pgbench_branches |             8192

 2017-02-08 19:29:24.788762+01 | 1486578564.78876 | pgbench_accounts |        694222848
 2017-02-08 19:29:24.788762+01 | 1486578564.78876 | pgbench_tellers  |            24576
 2017-02-08 19:29:24.788762+01 | 1486578564.78876 | pgbench_history  |                0
 2017-02-08 19:29:24.788762+01 | 1486578564.78876 | pgbench_branches |             8192

 2017-02-08 19:29:26.084405+01 | 1486578566.0844 | pgbench_accounts |        694222848
 2017-02-08 19:29:26.084405+01 | 1486578566.0844 | pgbench_tellers  |            24576
 2017-02-08 19:29:26.084405+01 | 1486578566.0844 | pgbench_history  |                0
 2017-02-08 19:29:26.084405+01 | 1486578566.0844 | pgbench_branches |             8192

 2017-02-08 19:29:27.295873+01 | 1486578567.29587 | pgbench_accounts |        694222848
 2017-02-08 19:29:27.295873+01 | 1486578567.29587 | pgbench_tellers  |            24576
 2017-02-08 19:29:27.295873+01 | 1486578567.29587 | pgbench_history  |                0
 2017-02-08 19:29:27.295873+01 | 1486578567.29587 | pgbench_branches |             8192

 2017-02-08 19:29:28.525891+01 | 1486578568.52589 | pgbench_accounts |        694222848
 2017-02-08 19:29:28.525891+01 | 1486578568.52589 | pgbench_tellers  |            24576
 2017-02-08 19:29:28.525891+01 | 1486578568.52589 | pgbench_history  |                0
 2017-02-08 19:29:28.525891+01 | 1486578568.52589 | pgbench_branches |             8192

 2017-02-08 19:29:29.734857+01 | 1486578569.73486 | pgbench_accounts |        694222848
 2017-02-08 19:29:29.734857+01 | 1486578569.73486 | pgbench_tellers  |            24576
 2017-02-08 19:29:29.734857+01 | 1486578569.73486 | pgbench_history  |                0
 2017-02-08 19:29:29.734857+01 | 1486578569.73486 | pgbench_branches |             8192

 2017-02-08 19:29:30.930299+01 | 1486578570.9303 | pgbench_accounts |        694222848
 2017-02-08 19:29:30.930299+01 | 1486578570.9303 | pgbench_tellers  |            24576
 2017-02-08 19:29:30.930299+01 | 1486578570.9303 | pgbench_history  |                0
 2017-02-08 19:29:30.930299+01 | 1486578570.9303 | pgbench_branches |             8192

 2017-02-08 19:29:32.110367+01 | 1486578572.11037 | pgbench_accounts |        694222848
 2017-02-08 19:29:32.110367+01 | 1486578572.11037 | pgbench_tellers  |            24576
 2017-02-08 19:29:32.110367+01 | 1486578572.11037 | pgbench_history  |                0
 2017-02-08 19:29:32.110367+01 | 1486578572.11037 | pgbench_branches |             8192

 2017-02-08 19:29:33.352835+01 | 1486578573.35283 | pgbench_accounts |        694222848
 2017-02-08 19:29:33.352835+01 | 1486578573.35283 | pgbench_tellers  |            24576
 2017-02-08 19:29:33.352835+01 | 1486578573.35283 | pgbench_history  |                0
 2017-02-08 19:29:33.352835+01 | 1486578573.35283 | pgbench_branches |             8192

 2017-02-08 19:29:34.601295+01 | 1486578574.60129 | pgbench_accounts |        694222848
 2017-02-08 19:29:34.601295+01 | 1486578574.60129 | pgbench_tellers  |            24576
 2017-02-08 19:29:34.601295+01 | 1486578574.60129 | pgbench_history  |                0
 2017-02-08 19:29:34.601295+01 | 1486578574.60129 | pgbench_branches |             8192

 2017-02-08 19:29:35.76478+01 | 1486578575.76478 | pgbench_accounts |        694222848
 2017-02-08 19:29:35.76478+01 | 1486578575.76478 | pgbench_tellers  |            24576
 2017-02-08 19:29:35.76478+01 | 1486578575.76478 | pgbench_history  |                0
 2017-02-08 19:29:35.76478+01 | 1486578575.76478 | pgbench_branches |             8192

 2017-02-08 19:29:36.958926+01 | 1486578576.95893 | pgbench_accounts |        694222848
 2017-02-08 19:29:36.958926+01 | 1486578576.95893 | pgbench_tellers  |            24576
 2017-02-08 19:29:36.958926+01 | 1486578576.95893 | pgbench_history  |                0
 2017-02-08 19:29:36.958926+01 | 1486578576.95893 | pgbench_branches |             8192

 2017-02-08 19:29:38.160379+01 | 1486578578.16038 | pgbench_accounts |        694222848
 2017-02-08 19:29:38.160379+01 | 1486578578.16038 | pgbench_tellers  |            24576
 2017-02-08 19:29:38.160379+01 | 1486578578.16038 | pgbench_history  |                0
 2017-02-08 19:29:38.160379+01 | 1486578578.16038 | pgbench_branches |             8192

 2017-02-08 19:29:39.37158+01 | 1486578579.37158 | pgbench_accounts |        694222848
 2017-02-08 19:29:39.37158+01 | 1486578579.37158 | pgbench_tellers  |            24576
 2017-02-08 19:29:39.37158+01 | 1486578579.37158 | pgbench_history  |                0
 2017-02-08 19:29:39.37158+01 | 1486578579.37158 | pgbench_branches |             8192

 2017-02-08 19:29:40.706708+01 | 1486578580.70671 | pgbench_accounts |        694222848
 2017-02-08 19:29:40.706708+01 | 1486578580.70671 | pgbench_tellers  |            24576
 2017-02-08 19:29:40.706708+01 | 1486578580.70671 | pgbench_history  |                0
 2017-02-08 19:29:40.706708+01 | 1486578580.70671 | pgbench_branches |             8192

 2017-02-08 19:29:41.963111+01 | 1486578581.96311 | pgbench_accounts |        694222848
 2017-02-08 19:29:41.963111+01 | 1486578581.96311 | pgbench_tellers  |            24576
 2017-02-08 19:29:41.963111+01 | 1486578581.96311 | pgbench_history  |                0
 2017-02-08 19:29:41.963111+01 | 1486578581.96311 | pgbench_branches |             8192

 2017-02-08 19:29:43.303275+01 | 1486578583.30328 | pgbench_accounts |        694222848
 2017-02-08 19:29:43.303275+01 | 1486578583.30328 | pgbench_tellers  |            24576
 2017-02-08 19:29:43.303275+01 | 1486578583.30328 | pgbench_history  |                0
 2017-02-08 19:29:43.303275+01 | 1486578583.30328 | pgbench_branches |             8192

 2017-02-08 19:29:44.616231+01 | 1486578584.61623 | pgbench_accounts |        694222848
 2017-02-08 19:29:44.616231+01 | 1486578584.61623 | pgbench_tellers  |            24576
 2017-02-08 19:29:44.616231+01 | 1486578584.61623 | pgbench_history  |                0
 2017-02-08 19:29:44.616231+01 | 1486578584.61623 | pgbench_branches |             8192

 2017-02-08 19:29:45.891073+01 | 1486578585.89107 | pgbench_accounts |        694222848
 2017-02-08 19:29:45.891073+01 | 1486578585.89107 | pgbench_tellers  |            24576
 2017-02-08 19:29:45.891073+01 | 1486578585.89107 | pgbench_history  |                0
 2017-02-08 19:29:45.891073+01 | 1486578585.89107 | pgbench_branches |             8192

 2017-02-08 19:29:47.151193+01 | 1486578587.15119 | pgbench_accounts |        694222848
 2017-02-08 19:29:47.151193+01 | 1486578587.15119 | pgbench_tellers  |            24576
 2017-02-08 19:29:47.151193+01 | 1486578587.15119 | pgbench_history  |                0
 2017-02-08 19:29:47.151193+01 | 1486578587.15119 | pgbench_branches |             8192

 2017-02-08 19:29:48.406047+01 | 1486578588.40605 | pgbench_accounts |        694222848
 2017-02-08 19:29:48.406047+01 | 1486578588.40605 | pgbench_tellers  |            24576
 2017-02-08 19:29:48.406047+01 | 1486578588.40605 | pgbench_history  |                0
 2017-02-08 19:29:48.406047+01 | 1486578588.40605 | pgbench_branches |             8192

 2017-02-08 19:29:49.618727+01 | 1486578589.61873 | pgbench_accounts |        694222848
 2017-02-08 19:29:49.618727+01 | 1486578589.61873 | pgbench_tellers  |            24576
 2017-02-08 19:29:49.618727+01 | 1486578589.61873 | pgbench_history  |                0
 2017-02-08 19:29:49.618727+01 | 1486578589.61873 | pgbench_branches |             8192

 2017-02-08 19:29:50.841647+01 | 1486578590.84165 | pgbench_accounts |        694222848
 2017-02-08 19:29:50.841647+01 | 1486578590.84165 | pgbench_tellers  |            24576
 2017-02-08 19:29:50.841647+01 | 1486578590.84165 | pgbench_history  |                0
 2017-02-08 19:29:50.841647+01 | 1486578590.84165 | pgbench_branches |             8192

 2017-02-08 19:29:52.045853+01 | 1486578592.04585 | pgbench_accounts |        694222848
 2017-02-08 19:29:52.045853+01 | 1486578592.04585 | pgbench_tellers  |            24576
 2017-02-08 19:29:52.045853+01 | 1486578592.04585 | pgbench_history  |                0
 2017-02-08 19:29:52.045853+01 | 1486578592.04585 | pgbench_branches |             8192

 2017-02-08 19:29:53.243663+01 | 1486578593.24366 | pgbench_accounts |        694222848
 2017-02-08 19:29:53.243663+01 | 1486578593.24366 | pgbench_tellers  |            24576
 2017-02-08 19:29:53.243663+01 | 1486578593.24366 | pgbench_history  |                0
 2017-02-08 19:29:53.243663+01 | 1486578593.24366 | pgbench_branches |             8192

 2017-02-08 19:29:54.443144+01 | 1486578594.44314 | pgbench_accounts |        694222848
 2017-02-08 19:29:54.443144+01 | 1486578594.44314 | pgbench_tellers  |            24576
 2017-02-08 19:29:54.443144+01 | 1486578594.44314 | pgbench_history  |                0
 2017-02-08 19:29:54.443144+01 | 1486578594.44314 | pgbench_branches |             8192

 2017-02-08 19:29:55.720541+01 | 1486578595.72054 | pgbench_accounts |        694222848
 2017-02-08 19:29:55.720541+01 | 1486578595.72054 | pgbench_tellers  |            24576
 2017-02-08 19:29:55.720541+01 | 1486578595.72054 | pgbench_history  |                0
 2017-02-08 19:29:55.720541+01 | 1486578595.72054 | pgbench_branches |             8192

 2017-02-08 19:29:56.940474+01 | 1486578596.94047 | pgbench_accounts |        694222848
 2017-02-08 19:29:56.940474+01 | 1486578596.94047 | pgbench_tellers  |            24576
 2017-02-08 19:29:56.940474+01 | 1486578596.94047 | pgbench_history  |                0
 2017-02-08 19:29:56.940474+01 | 1486578596.94047 | pgbench_branches |             8192

 2017-02-08 19:29:58.136467+01 | 1486578598.13647 | pgbench_accounts |        694222848
 2017-02-08 19:29:58.136467+01 | 1486578598.13647 | pgbench_tellers  |            24576
 2017-02-08 19:29:58.136467+01 | 1486578598.13647 | pgbench_history  |                0
 2017-02-08 19:29:58.136467+01 | 1486578598.13647 | pgbench_branches |             8192

 2017-02-08 19:29:59.341733+01 | 1486578599.34173 | pgbench_accounts |        694222848
 2017-02-08 19:29:59.341733+01 | 1486578599.34173 | pgbench_tellers  |            24576
 2017-02-08 19:29:59.341733+01 | 1486578599.34173 | pgbench_history  |                0
 2017-02-08 19:29:59.341733+01 | 1486578599.34173 | pgbench_branches |             8192

 2017-02-08 19:30:00.552157+01 | 1486578600.55216 | pgbench_accounts |        694222848
 2017-02-08 19:30:00.552157+01 | 1486578600.55216 | pgbench_tellers  |            24576
 2017-02-08 19:30:00.552157+01 | 1486578600.55216 | pgbench_history  |                0
 2017-02-08 19:30:00.552157+01 | 1486578600.55216 | pgbench_branches |             8192

 2017-02-08 19:30:01.772315+01 | 1486578601.77232 | pgbench_accounts |        694222848
 2017-02-08 19:30:01.772315+01 | 1486578601.77232 | pgbench_tellers  |            24576
 2017-02-08 19:30:01.772315+01 | 1486578601.77232 | pgbench_history  |                0
 2017-02-08 19:30:01.772315+01 | 1486578601.77232 | pgbench_branches |             8192

 2017-02-08 19:30:03.038378+01 | 1486578603.03838 | pgbench_accounts |        694222848
 2017-02-08 19:30:03.038378+01 | 1486578603.03838 | pgbench_tellers  |            24576
 2017-02-08 19:30:03.038378+01 | 1486578603.03838 | pgbench_history  |                0
 2017-02-08 19:30:03.038378+01 | 1486578603.03838 | pgbench_branches |             8192

 2017-02-08 19:30:04.273533+01 | 1486578604.27353 | pgbench_accounts |        694222848
 2017-02-08 19:30:04.273533+01 | 1486578604.27353 | pgbench_tellers  |            24576
 2017-02-08 19:30:04.273533+01 | 1486578604.27353 | pgbench_history  |                0
 2017-02-08 19:30:04.273533+01 | 1486578604.27353 | pgbench_branches |             8192

 2017-02-08 19:30:05.470677+01 | 1486578605.47068 | pgbench_accounts |        694222848
 2017-02-08 19:30:05.470677+01 | 1486578605.47068 | pgbench_tellers  |            24576
 2017-02-08 19:30:05.470677+01 | 1486578605.47068 | pgbench_history  |                0
 2017-02-08 19:30:05.470677+01 | 1486578605.47068 | pgbench_branches |             8192

 2017-02-08 19:30:06.707593+01 | 1486578606.70759 | pgbench_accounts |        694222848
 2017-02-08 19:30:06.707593+01 | 1486578606.70759 | pgbench_tellers  |            24576
 2017-02-08 19:30:06.707593+01 | 1486578606.70759 | pgbench_history  |                0
 2017-02-08 19:30:06.707593+01 | 1486578606.70759 | pgbench_branches |             8192

 2017-02-08 19:30:07.920017+01 | 1486578607.92002 | pgbench_accounts |        694222848
 2017-02-08 19:30:07.920017+01 | 1486578607.92002 | pgbench_tellers  |            24576
 2017-02-08 19:30:07.920017+01 | 1486578607.92002 | pgbench_history  |                0
 2017-02-08 19:30:07.920017+01 | 1486578607.92002 | pgbench_branches |             8192

 2017-02-08 19:30:09.172823+01 | 1486578609.17282 | pgbench_accounts |        694222848
 2017-02-08 19:30:09.172823+01 | 1486578609.17282 | pgbench_tellers  |            24576
 2017-02-08 19:30:09.172823+01 | 1486578609.17282 | pgbench_history  |                0
 2017-02-08 19:30:09.172823+01 | 1486578609.17282 | pgbench_branches |             8192

 2017-02-08 19:30:10.424953+01 | 1486578610.42495 | pgbench_accounts |        694222848
 2017-02-08 19:30:10.424953+01 | 1486578610.42495 | pgbench_tellers  |            24576
 2017-02-08 19:30:10.424953+01 | 1486578610.42495 | pgbench_history  |                0
 2017-02-08 19:30:10.424953+01 | 1486578610.42495 | pgbench_branches |             8192

 2017-02-08 19:30:11.664639+01 | 1486578611.66464 | pgbench_accounts |        694222848
 2017-02-08 19:30:11.664639+01 | 1486578611.66464 | pgbench_tellers  |            24576
 2017-02-08 19:30:11.664639+01 | 1486578611.66464 | pgbench_history  |                0
 2017-02-08 19:30:11.664639+01 | 1486578611.66464 | pgbench_branches |             8192

 2017-02-08 19:30:12.842721+01 | 1486578612.84272 | pgbench_accounts |        694222848
 2017-02-08 19:30:12.842721+01 | 1486578612.84272 | pgbench_tellers  |            24576
 2017-02-08 19:30:12.842721+01 | 1486578612.84272 | pgbench_history  |                0
 2017-02-08 19:30:12.842721+01 | 1486578612.84272 | pgbench_branches |             8192

 2017-02-08 19:30:14.051873+01 | 1486578614.05187 | pgbench_accounts |        694222848
 2017-02-08 19:30:14.051873+01 | 1486578614.05187 | pgbench_tellers  |            24576
 2017-02-08 19:30:14.051873+01 | 1486578614.05187 | pgbench_history  |                0
 2017-02-08 19:30:14.051873+01 | 1486578614.05187 | pgbench_branches |             8192

 2017-02-08 19:30:15.325123+01 | 1486578615.32512 | pgbench_accounts |        694222848
 2017-02-08 19:30:15.325123+01 | 1486578615.32512 | pgbench_tellers  |            24576
 2017-02-08 19:30:15.325123+01 | 1486578615.32512 | pgbench_history  |                0
 2017-02-08 19:30:15.325123+01 | 1486578615.32512 | pgbench_branches |             8192

 2017-02-08 19:30:16.53667+01 | 1486578616.53667 | pgbench_accounts |        694222848
 2017-02-08 19:30:16.53667+01 | 1486578616.53667 | pgbench_tellers  |            24576
 2017-02-08 19:30:16.53667+01 | 1486578616.53667 | pgbench_history  |                0
 2017-02-08 19:30:16.53667+01 | 1486578616.53667 | pgbench_branches |             8192

 2017-02-08 19:30:17.703056+01 | 1486578617.70306 | pgbench_accounts |        694222848
 2017-02-08 19:30:17.703056+01 | 1486578617.70306 | pgbench_tellers  |            24576
 2017-02-08 19:30:17.703056+01 | 1486578617.70306 | pgbench_history  |                0
 2017-02-08 19:30:17.703056+01 | 1486578617.70306 | pgbench_branches |             8192

 2017-02-08 19:30:18.948815+01 | 1486578618.94882 | pgbench_accounts |        694222848
 2017-02-08 19:30:18.948815+01 | 1486578618.94882 | pgbench_tellers  |            24576
 2017-02-08 19:30:18.948815+01 | 1486578618.94882 | pgbench_history  |                0
 2017-02-08 19:30:18.948815+01 | 1486578618.94882 | pgbench_branches |             8192

 2017-02-08 19:30:20.162175+01 | 1486578620.16217 | pgbench_accounts |        694222848
 2017-02-08 19:30:20.162175+01 | 1486578620.16217 | pgbench_tellers  |            24576
 2017-02-08 19:30:20.162175+01 | 1486578620.16217 | pgbench_history  |                0
 2017-02-08 19:30:20.162175+01 | 1486578620.16217 | pgbench_branches |             8192

 2017-02-08 19:30:21.435738+01 | 1486578621.43574 | pgbench_accounts |        694222848
 2017-02-08 19:30:21.435738+01 | 1486578621.43574 | pgbench_tellers  |            24576
 2017-02-08 19:30:21.435738+01 | 1486578621.43574 | pgbench_history  |                0
 2017-02-08 19:30:21.435738+01 | 1486578621.43574 | pgbench_branches |             8192

 2017-02-08 19:30:22.714801+01 | 1486578622.7148 | pgbench_accounts |        694222848
 2017-02-08 19:30:22.714801+01 | 1486578622.7148 | pgbench_tellers  |            24576
 2017-02-08 19:30:22.714801+01 | 1486578622.7148 | pgbench_history  |                0
 2017-02-08 19:30:22.714801+01 | 1486578622.7148 | pgbench_branches |             8192

 2017-02-08 19:30:23.979686+01 | 1486578623.97969 | pgbench_accounts |        694222848
 2017-02-08 19:30:23.979686+01 | 1486578623.97969 | pgbench_tellers  |            24576
 2017-02-08 19:30:23.979686+01 | 1486578623.97969 | pgbench_history  |                0
 2017-02-08 19:30:23.979686+01 | 1486578623.97969 | pgbench_branches |             8192

 2017-02-08 19:30:25.22467+01 | 1486578625.22467 | pgbench_accounts |        694222848
 2017-02-08 19:30:25.22467+01 | 1486578625.22467 | pgbench_tellers  |            24576
 2017-02-08 19:30:25.22467+01 | 1486578625.22467 | pgbench_history  |                0
 2017-02-08 19:30:25.22467+01 | 1486578625.22467 | pgbench_branches |             8192

 2017-02-08 19:30:26.389674+01 | 1486578626.38967 | pgbench_accounts |        694222848
 2017-02-08 19:30:26.389674+01 | 1486578626.38967 | pgbench_tellers  |            24576
 2017-02-08 19:30:26.389674+01 | 1486578626.38967 | pgbench_history  |                0
 2017-02-08 19:30:26.389674+01 | 1486578626.38967 | pgbench_branches |             8192

 2017-02-08 19:30:27.552329+01 | 1486578627.55233 | pgbench_accounts |        694222848
 2017-02-08 19:30:27.552329+01 | 1486578627.55233 | pgbench_tellers  |            24576
 2017-02-08 19:30:27.552329+01 | 1486578627.55233 | pgbench_history  |                0
 2017-02-08 19:30:27.552329+01 | 1486578627.55233 | pgbench_branches |             8192

 2017-02-08 19:30:28.811276+01 | 1486578628.81128 | pgbench_accounts |        694222848
 2017-02-08 19:30:28.811276+01 | 1486578628.81128 | pgbench_tellers  |            24576
 2017-02-08 19:30:28.811276+01 | 1486578628.81128 | pgbench_history  |                0
 2017-02-08 19:30:28.811276+01 | 1486578628.81128 | pgbench_branches |             8192

 2017-02-08 19:30:30.086432+01 | 1486578630.08643 | pgbench_accounts |        694222848
 2017-02-08 19:30:30.086432+01 | 1486578630.08643 | pgbench_tellers  |            24576
 2017-02-08 19:30:30.086432+01 | 1486578630.08643 | pgbench_history  |                0
 2017-02-08 19:30:30.086432+01 | 1486578630.08643 | pgbench_branches |             8192

 2017-02-08 19:30:31.324354+01 | 1486578631.32435 | pgbench_accounts |        694222848
 2017-02-08 19:30:31.324354+01 | 1486578631.32435 | pgbench_tellers  |            24576
 2017-02-08 19:30:31.324354+01 | 1486578631.32435 | pgbench_history  |                0
 2017-02-08 19:30:31.324354+01 | 1486578631.32435 | pgbench_branches |             8192

 2017-02-08 19:30:32.509372+01 | 1486578632.50937 | pgbench_accounts |        694222848
 2017-02-08 19:30:32.509372+01 | 1486578632.50937 | pgbench_tellers  |            24576
 2017-02-08 19:30:32.509372+01 | 1486578632.50937 | pgbench_history  |                0
 2017-02-08 19:30:32.509372+01 | 1486578632.50937 | pgbench_branches |             8192

 2017-02-08 19:30:33.712188+01 | 1486578633.71219 | pgbench_accounts |        694222848
 2017-02-08 19:30:33.712188+01 | 1486578633.71219 | pgbench_tellers  |            24576
 2017-02-08 19:30:33.712188+01 | 1486578633.71219 | pgbench_history  |                0
 2017-02-08 19:30:33.712188+01 | 1486578633.71219 | pgbench_branches |             8192

 2017-02-08 19:30:34.942835+01 | 1486578634.94284 | pgbench_accounts |        694222848
 2017-02-08 19:30:34.942835+01 | 1486578634.94284 | pgbench_tellers  |            24576
 2017-02-08 19:30:34.942835+01 | 1486578634.94284 | pgbench_history  |                0
 2017-02-08 19:30:34.942835+01 | 1486578634.94284 | pgbench_branches |             8192

 2017-02-08 19:30:36.205518+01 | 1486578636.20552 | pgbench_accounts |        694222848
 2017-02-08 19:30:36.205518+01 | 1486578636.20552 | pgbench_tellers  |            24576
 2017-02-08 19:30:36.205518+01 | 1486578636.20552 | pgbench_history  |                0
 2017-02-08 19:30:36.205518+01 | 1486578636.20552 | pgbench_branches |             8192

 2017-02-08 19:30:37.395187+01 | 1486578637.39519 | pgbench_accounts |        694222848
 2017-02-08 19:30:37.395187+01 | 1486578637.39519 | pgbench_tellers  |            24576
 2017-02-08 19:30:37.395187+01 | 1486578637.39519 | pgbench_history  |                0
 2017-02-08 19:30:37.395187+01 | 1486578637.39519 | pgbench_branches |             8192

 2017-02-08 19:30:38.692887+01 | 1486578638.69289 | pgbench_accounts |        694222848
 2017-02-08 19:30:38.692887+01 | 1486578638.69289 | pgbench_tellers  |            24576
 2017-02-08 19:30:38.692887+01 | 1486578638.69289 | pgbench_history  |                0
 2017-02-08 19:30:38.692887+01 | 1486578638.69289 | pgbench_branches |             8192

 2017-02-08 19:30:39.946454+01 | 1486578639.94645 | pgbench_accounts |        694222848
 2017-02-08 19:30:39.946454+01 | 1486578639.94645 | pgbench_tellers  |            24576
 2017-02-08 19:30:39.946454+01 | 1486578639.94645 | pgbench_history  |                0
 2017-02-08 19:30:39.946454+01 | 1486578639.94645 | pgbench_branches |             8192

 2017-02-08 19:30:41.132804+01 | 1486578641.1328 | pgbench_accounts |        694222848
 2017-02-08 19:30:41.132804+01 | 1486578641.1328 | pgbench_tellers  |            24576
 2017-02-08 19:30:41.132804+01 | 1486578641.1328 | pgbench_history  |                0
 2017-02-08 19:30:41.132804+01 | 1486578641.1328 | pgbench_branches |             8192

 2017-02-08 19:30:42.398845+01 | 1486578642.39884 | pgbench_accounts |        694222848
 2017-02-08 19:30:42.398845+01 | 1486578642.39884 | pgbench_tellers  |            24576
 2017-02-08 19:30:42.398845+01 | 1486578642.39884 | pgbench_history  |                0
 2017-02-08 19:30:42.398845+01 | 1486578642.39884 | pgbench_branches |             8192

 2017-02-08 19:30:43.576487+01 | 1486578643.57649 | pgbench_accounts |        694222848
 2017-02-08 19:30:43.576487+01 | 1486578643.57649 | pgbench_tellers  |            24576
 2017-02-08 19:30:43.576487+01 | 1486578643.57649 | pgbench_history  |                0
 2017-02-08 19:30:43.576487+01 | 1486578643.57649 | pgbench_branches |             8192

 2017-02-08 19:30:44.881321+01 | 1486578644.88132 | pgbench_accounts |        694222848
 2017-02-08 19:30:44.881321+01 | 1486578644.88132 | pgbench_tellers  |            24576
 2017-02-08 19:30:44.881321+01 | 1486578644.88132 | pgbench_history  |                0
 2017-02-08 19:30:44.881321+01 | 1486578644.88132 | pgbench_branches |             8192

 2017-02-08 19:30:46.143214+01 | 1486578646.14321 | pgbench_accounts |        694222848
 2017-02-08 19:30:46.143214+01 | 1486578646.14321 | pgbench_tellers  |            24576
 2017-02-08 19:30:46.143214+01 | 1486578646.14321 | pgbench_history  |                0
 2017-02-08 19:30:46.143214+01 | 1486578646.14321 | pgbench_branches |             8192

 2017-02-08 19:30:47.413552+01 | 1486578647.41355 | pgbench_accounts |        694222848
 2017-02-08 19:30:47.413552+01 | 1486578647.41355 | pgbench_tellers  |            24576
 2017-02-08 19:30:47.413552+01 | 1486578647.41355 | pgbench_history  |                0
 2017-02-08 19:30:47.413552+01 | 1486578647.41355 | pgbench_branches |             8192

 2017-02-08 19:30:48.680935+01 | 1486578648.68093 | pgbench_accounts |        694222848
 2017-02-08 19:30:48.680935+01 | 1486578648.68093 | pgbench_tellers  |            24576
 2017-02-08 19:30:48.680935+01 | 1486578648.68093 | pgbench_history  |                0
 2017-02-08 19:30:48.680935+01 | 1486578648.68093 | pgbench_branches |             8192

 2017-02-08 19:30:49.84116+01 | 1486578649.84116 | pgbench_accounts |        694222848
 2017-02-08 19:30:49.84116+01 | 1486578649.84116 | pgbench_tellers  |            24576
 2017-02-08 19:30:49.84116+01 | 1486578649.84116 | pgbench_history  |                0
 2017-02-08 19:30:49.84116+01 | 1486578649.84116 | pgbench_branches |             8192

 2017-02-08 19:30:51.13767+01 | 1486578651.13767 | pgbench_accounts |        694222848
 2017-02-08 19:30:51.13767+01 | 1486578651.13767 | pgbench_tellers  |            24576
 2017-02-08 19:30:51.13767+01 | 1486578651.13767 | pgbench_history  |                0
 2017-02-08 19:30:51.13767+01 | 1486578651.13767 | pgbench_branches |             8192

 2017-02-08 19:30:52.393461+01 | 1486578652.39346 | pgbench_accounts |        694222848
 2017-02-08 19:30:52.393461+01 | 1486578652.39346 | pgbench_tellers  |            24576
 2017-02-08 19:30:52.393461+01 | 1486578652.39346 | pgbench_history  |                0
 2017-02-08 19:30:52.393461+01 | 1486578652.39346 | pgbench_branches |             8192

 2017-02-08 19:30:53.643481+01 | 1486578653.64348 | pgbench_accounts |        694222848
 2017-02-08 19:30:53.643481+01 | 1486578653.64348 | pgbench_tellers  |            24576
 2017-02-08 19:30:53.643481+01 | 1486578653.64348 | pgbench_history  |                0
 2017-02-08 19:30:53.643481+01 | 1486578653.64348 | pgbench_branches |             8192

 2017-02-08 19:30:54.838671+01 | 1486578654.83867 | pgbench_accounts |        694222848
 2017-02-08 19:30:54.838671+01 | 1486578654.83867 | pgbench_tellers  |            24576
 2017-02-08 19:30:54.838671+01 | 1486578654.83867 | pgbench_history  |                0
 2017-02-08 19:30:54.838671+01 | 1486578654.83867 | pgbench_branches |             8192

 2017-02-08 19:30:56.1157+01 | 1486578656.1157 | pgbench_accounts |        694222848
 2017-02-08 19:30:56.1157+01 | 1486578656.1157 | pgbench_tellers  |            24576
 2017-02-08 19:30:56.1157+01 | 1486578656.1157 | pgbench_history  |                0
 2017-02-08 19:30:56.1157+01 | 1486578656.1157 | pgbench_branches |             8192

 2017-02-08 19:30:57.317051+01 | 1486578657.31705 | pgbench_accounts |        694222848
 2017-02-08 19:30:57.317051+01 | 1486578657.31705 | pgbench_tellers  |            24576
 2017-02-08 19:30:57.317051+01 | 1486578657.31705 | pgbench_history  |                0
 2017-02-08 19:30:57.317051+01 | 1486578657.31705 | pgbench_branches |             8192

 2017-02-08 19:30:58.571395+01 | 1486578658.57139 | pgbench_accounts |        694222848
 2017-02-08 19:30:58.571395+01 | 1486578658.57139 | pgbench_tellers  |            24576
 2017-02-08 19:30:58.571395+01 | 1486578658.57139 | pgbench_history  |                0
 2017-02-08 19:30:58.571395+01 | 1486578658.57139 | pgbench_branches |             8192

 2017-02-08 19:30:59.831623+01 | 1486578659.83162 | pgbench_accounts |        694222848
 2017-02-08 19:30:59.831623+01 | 1486578659.83162 | pgbench_tellers  |            24576
 2017-02-08 19:30:59.831623+01 | 1486578659.83162 | pgbench_history  |                0
 2017-02-08 19:30:59.831623+01 | 1486578659.83162 | pgbench_branches |             8192

 2017-02-08 19:31:00.992324+01 | 1486578660.99232 | pgbench_accounts |        694222848
 2017-02-08 19:31:00.992324+01 | 1486578660.99232 | pgbench_tellers  |            24576
 2017-02-08 19:31:00.992324+01 | 1486578660.99232 | pgbench_history  |                0
 2017-02-08 19:31:00.992324+01 | 1486578660.99232 | pgbench_branches |             8192

 2017-02-08 19:31:02.28114+01 | 1486578662.28114 | pgbench_accounts |        694222848
 2017-02-08 19:31:02.28114+01 | 1486578662.28114 | pgbench_tellers  |            24576
 2017-02-08 19:31:02.28114+01 | 1486578662.28114 | pgbench_history  |                0
 2017-02-08 19:31:02.28114+01 | 1486578662.28114 | pgbench_branches |             8192

 2017-02-08 19:31:03.379289+01 | 1486578663.37929 | pgbench_accounts |        694222848
 2017-02-08 19:31:03.379289+01 | 1486578663.37929 | pgbench_tellers  |            24576
 2017-02-08 19:31:03.379289+01 | 1486578663.37929 | pgbench_history  |                0
 2017-02-08 19:31:03.379289+01 | 1486578663.37929 | pgbench_branches |             8192

 2017-02-08 19:31:04.558207+01 | 1486578664.55821 | pgbench_accounts |        694222848
 2017-02-08 19:31:04.558207+01 | 1486578664.55821 | pgbench_tellers  |            24576
 2017-02-08 19:31:04.558207+01 | 1486578664.55821 | pgbench_history  |                0
 2017-02-08 19:31:04.558207+01 | 1486578664.55821 | pgbench_branches |             8192

 2017-02-08 19:31:05.835169+01 | 1486578665.83517 | pgbench_accounts |        694222848
 2017-02-08 19:31:05.835169+01 | 1486578665.83517 | pgbench_tellers  |            24576
 2017-02-08 19:31:05.835169+01 | 1486578665.83517 | pgbench_history  |                0
 2017-02-08 19:31:05.835169+01 | 1486578665.83517 | pgbench_branches |             8192

 2017-02-08 19:31:07.120967+01 | 1486578667.12097 | pgbench_accounts |        694222848
 2017-02-08 19:31:07.120967+01 | 1486578667.12097 | pgbench_tellers  |            24576
 2017-02-08 19:31:07.120967+01 | 1486578667.12097 | pgbench_history  |                0
 2017-02-08 19:31:07.120967+01 | 1486578667.12097 | pgbench_branches |             8192

 2017-02-08 19:31:08.356453+01 | 1486578668.35645 | pgbench_accounts |        694222848
 2017-02-08 19:31:08.356453+01 | 1486578668.35645 | pgbench_tellers  |            24576
 2017-02-08 19:31:08.356453+01 | 1486578668.35645 | pgbench_history  |                0
 2017-02-08 19:31:08.356453+01 | 1486578668.35645 | pgbench_branches |             8192

 2017-02-08 19:31:09.561522+01 | 1486578669.56152 | pgbench_accounts |        694222848
 2017-02-08 19:31:09.561522+01 | 1486578669.56152 | pgbench_tellers  |            24576
 2017-02-08 19:31:09.561522+01 | 1486578669.56152 | pgbench_history  |                0
 2017-02-08 19:31:09.561522+01 | 1486578669.56152 | pgbench_branches |             8192

 2017-02-08 19:31:10.763859+01 | 1486578670.76386 | pgbench_accounts |        694222848
 2017-02-08 19:31:10.763859+01 | 1486578670.76386 | pgbench_tellers  |            24576
 2017-02-08 19:31:10.763859+01 | 1486578670.76386 | pgbench_history  |                0
 2017-02-08 19:31:10.763859+01 | 1486578670.76386 | pgbench_branches |             8192

 2017-02-08 19:31:11.909917+01 | 1486578671.90992 | pgbench_accounts |        694222848
 2017-02-08 19:31:11.909917+01 | 1486578671.90992 | pgbench_tellers  |            24576
 2017-02-08 19:31:11.909917+01 | 1486578671.90992 | pgbench_history  |                0
 2017-02-08 19:31:11.909917+01 | 1486578671.90992 | pgbench_branches |             8192

 2017-02-08 19:31:13.201669+01 | 1486578673.20167 | pgbench_accounts |        694222848
 2017-02-08 19:31:13.201669+01 | 1486578673.20167 | pgbench_tellers  |            24576
 2017-02-08 19:31:13.201669+01 | 1486578673.20167 | pgbench_history  |                0
 2017-02-08 19:31:13.201669+01 | 1486578673.20167 | pgbench_branches |             8192

 2017-02-08 19:31:14.454738+01 | 1486578674.45474 | pgbench_accounts |        694222848
 2017-02-08 19:31:14.454738+01 | 1486578674.45474 | pgbench_tellers  |            24576
 2017-02-08 19:31:14.454738+01 | 1486578674.45474 | pgbench_history  |                0
 2017-02-08 19:31:14.454738+01 | 1486578674.45474 | pgbench_branches |             8192

 2017-02-08 19:31:15.682542+01 | 1486578675.68254 | pgbench_accounts |        694222848
 2017-02-08 19:31:15.682542+01 | 1486578675.68254 | pgbench_tellers  |            24576
 2017-02-08 19:31:15.682542+01 | 1486578675.68254 | pgbench_history  |                0
 2017-02-08 19:31:15.682542+01 | 1486578675.68254 | pgbench_branches |             8192

 2017-02-08 19:31:16.92119+01 | 1486578676.92119 | pgbench_accounts |        694222848
 2017-02-08 19:31:16.92119+01 | 1486578676.92119 | pgbench_tellers  |            24576
 2017-02-08 19:31:16.92119+01 | 1486578676.92119 | pgbench_history  |                0
 2017-02-08 19:31:16.92119+01 | 1486578676.92119 | pgbench_branches |             8192

 2017-02-08 19:31:18.133741+01 | 1486578678.13374 | pgbench_accounts |        694222848
 2017-02-08 19:31:18.133741+01 | 1486578678.13374 | pgbench_tellers  |            24576
 2017-02-08 19:31:18.133741+01 | 1486578678.13374 | pgbench_history  |                0
 2017-02-08 19:31:18.133741+01 | 1486578678.13374 | pgbench_branches |             8192

 2017-02-08 19:31:19.355521+01 | 1486578679.35552 | pgbench_accounts |        694222848
 2017-02-08 19:31:19.355521+01 | 1486578679.35552 | pgbench_tellers  |            24576
 2017-02-08 19:31:19.355521+01 | 1486578679.35552 | pgbench_history  |                0
 2017-02-08 19:31:19.355521+01 | 1486578679.35552 | pgbench_branches |             8192

 2017-02-08 19:31:20.565975+01 | 1486578680.56597 | pgbench_accounts |        694222848
 2017-02-08 19:31:20.565975+01 | 1486578680.56597 | pgbench_tellers  |            24576
 2017-02-08 19:31:20.565975+01 | 1486578680.56597 | pgbench_history  |                0
 2017-02-08 19:31:20.565975+01 | 1486578680.56597 | pgbench_branches |             8192

 2017-02-08 19:31:21.796164+01 | 1486578681.79616 | pgbench_accounts |        694222848
 2017-02-08 19:31:21.796164+01 | 1486578681.79616 | pgbench_tellers  |            24576
 2017-02-08 19:31:21.796164+01 | 1486578681.79616 | pgbench_history  |                0
 2017-02-08 19:31:21.796164+01 | 1486578681.79616 | pgbench_branches |             8192

 2017-02-08 19:31:23.025559+01 | 1486578683.02556 | pgbench_accounts |        694222848
 2017-02-08 19:31:23.025559+01 | 1486578683.02556 | pgbench_tellers  |            24576
 2017-02-08 19:31:23.025559+01 | 1486578683.02556 | pgbench_history  |                0
 2017-02-08 19:31:23.025559+01 | 1486578683.02556 | pgbench_branches |             8192

 2017-02-08 19:31:24.199333+01 | 1486578684.19933 | pgbench_accounts |        694222848
 2017-02-08 19:31:24.199333+01 | 1486578684.19933 | pgbench_tellers  |            24576
 2017-02-08 19:31:24.199333+01 | 1486578684.19933 | pgbench_history  |                0
 2017-02-08 19:31:24.199333+01 | 1486578684.19933 | pgbench_branches |             8192

 2017-02-08 19:31:25.430533+01 | 1486578685.43053 | pgbench_accounts |        694222848
 2017-02-08 19:31:25.430533+01 | 1486578685.43053 | pgbench_tellers  |            24576
 2017-02-08 19:31:25.430533+01 | 1486578685.43053 | pgbench_history  |                0
 2017-02-08 19:31:25.430533+01 | 1486578685.43053 | pgbench_branches |             8192

 2017-02-08 19:31:26.65834+01 | 1486578686.65834 | pgbench_accounts |        694222848
 2017-02-08 19:31:26.65834+01 | 1486578686.65834 | pgbench_tellers  |            24576
 2017-02-08 19:31:26.65834+01 | 1486578686.65834 | pgbench_history  |                0
 2017-02-08 19:31:26.65834+01 | 1486578686.65834 | pgbench_branches |             8192

 2017-02-08 19:31:27.838603+01 | 1486578687.8386 | pgbench_accounts |        694222848
 2017-02-08 19:31:27.838603+01 | 1486578687.8386 | pgbench_tellers  |            24576
 2017-02-08 19:31:27.838603+01 | 1486578687.8386 | pgbench_history  |                0
 2017-02-08 19:31:27.838603+01 | 1486578687.8386 | pgbench_branches |             8192

 2017-02-08 19:31:29.036861+01 | 1486578689.03686 | pgbench_accounts |        694222848
 2017-02-08 19:31:29.036861+01 | 1486578689.03686 | pgbench_tellers  |            24576
 2017-02-08 19:31:29.036861+01 | 1486578689.03686 | pgbench_history  |                0
 2017-02-08 19:31:29.036861+01 | 1486578689.03686 | pgbench_branches |             8192

 2017-02-08 19:31:30.329203+01 | 1486578690.3292 | pgbench_accounts |        694222848
 2017-02-08 19:31:30.329203+01 | 1486578690.3292 | pgbench_tellers  |            24576
 2017-02-08 19:31:30.329203+01 | 1486578690.3292 | pgbench_history  |                0
 2017-02-08 19:31:30.329203+01 | 1486578690.3292 | pgbench_branches |             8192

 2017-02-08 19:31:31.586936+01 | 1486578691.58694 | pgbench_accounts |        694222848
 2017-02-08 19:31:31.586936+01 | 1486578691.58694 | pgbench_tellers  |            24576
 2017-02-08 19:31:31.586936+01 | 1486578691.58694 | pgbench_history  |                0
 2017-02-08 19:31:31.586936+01 | 1486578691.58694 | pgbench_branches |             8192

 2017-02-08 19:31:32.761292+01 | 1486578692.76129 | pgbench_accounts |        694222848
 2017-02-08 19:31:32.761292+01 | 1486578692.76129 | pgbench_tellers  |            24576
 2017-02-08 19:31:32.761292+01 | 1486578692.76129 | pgbench_history  |                0
 2017-02-08 19:31:32.761292+01 | 1486578692.76129 | pgbench_branches |             8192

 2017-02-08 19:31:33.996635+01 | 1486578693.99663 | pgbench_accounts |        694222848
 2017-02-08 19:31:33.996635+01 | 1486578693.99663 | pgbench_tellers  |            24576
 2017-02-08 19:31:33.996635+01 | 1486578693.99663 | pgbench_history  |                0
 2017-02-08 19:31:33.996635+01 | 1486578693.99663 | pgbench_branches |             8192

 2017-02-08 19:31:35.346729+01 | 1486578695.34673 | pgbench_accounts |        694222848
 2017-02-08 19:31:35.346729+01 | 1486578695.34673 | pgbench_tellers  |            24576
 2017-02-08 19:31:35.346729+01 | 1486578695.34673 | pgbench_history  |                0
 2017-02-08 19:31:35.346729+01 | 1486578695.34673 | pgbench_branches |             8192

 2017-02-08 19:31:36.643707+01 | 1486578696.64371 | pgbench_accounts |        694222848
 2017-02-08 19:31:36.643707+01 | 1486578696.64371 | pgbench_tellers  |            24576
 2017-02-08 19:31:36.643707+01 | 1486578696.64371 | pgbench_history  |                0
 2017-02-08 19:31:36.643707+01 | 1486578696.64371 | pgbench_branches |             8192

 2017-02-08 19:31:37.870835+01 | 1486578697.87084 | pgbench_accounts |        694222848
 2017-02-08 19:31:37.870835+01 | 1486578697.87084 | pgbench_tellers  |            24576
 2017-02-08 19:31:37.870835+01 | 1486578697.87084 | pgbench_history  |                0
 2017-02-08 19:31:37.870835+01 | 1486578697.87084 | pgbench_branches |             8192

 2017-02-08 19:31:39.045828+01 | 1486578699.04583 | pgbench_accounts |        694222848
 2017-02-08 19:31:39.045828+01 | 1486578699.04583 | pgbench_tellers  |            24576
 2017-02-08 19:31:39.045828+01 | 1486578699.04583 | pgbench_history  |                0
 2017-02-08 19:31:39.045828+01 | 1486578699.04583 | pgbench_branches |             8192

 2017-02-08 19:31:40.337293+01 | 1486578700.33729 | pgbench_accounts |        694222848
 2017-02-08 19:31:40.337293+01 | 1486578700.33729 | pgbench_tellers  |            24576
 2017-02-08 19:31:40.337293+01 | 1486578700.33729 | pgbench_history  |                0
 2017-02-08 19:31:40.337293+01 | 1486578700.33729 | pgbench_branches |             8192

 2017-02-08 19:31:41.520345+01 | 1486578701.52034 | pgbench_accounts |        694222848
 2017-02-08 19:31:41.520345+01 | 1486578701.52034 | pgbench_tellers  |            24576
 2017-02-08 19:31:41.520345+01 | 1486578701.52034 | pgbench_history  |                0
 2017-02-08 19:31:41.520345+01 | 1486578701.52034 | pgbench_branches |             8192

 2017-02-08 19:31:42.776614+01 | 1486578702.77661 | pgbench_accounts |        694222848
 2017-02-08 19:31:42.776614+01 | 1486578702.77661 | pgbench_tellers  |            24576
 2017-02-08 19:31:42.776614+01 | 1486578702.77661 | pgbench_history  |                0
 2017-02-08 19:31:42.776614+01 | 1486578702.77661 | pgbench_branches |             8192

 2017-02-08 19:31:44.037929+01 | 1486578704.03793 | pgbench_accounts |        694222848
 2017-02-08 19:31:44.037929+01 | 1486578704.03793 | pgbench_tellers  |            24576
 2017-02-08 19:31:44.037929+01 | 1486578704.03793 | pgbench_history  |                0
 2017-02-08 19:31:44.037929+01 | 1486578704.03793 | pgbench_branches |             8192

 2017-02-08 19:31:45.188378+01 | 1486578705.18838 | pgbench_accounts |        694222848
 2017-02-08 19:31:45.188378+01 | 1486578705.18838 | pgbench_tellers  |            24576
 2017-02-08 19:31:45.188378+01 | 1486578705.18838 | pgbench_history  |                0
 2017-02-08 19:31:45.188378+01 | 1486578705.18838 | pgbench_branches |             8192

 2017-02-08 19:31:46.424643+01 | 1486578706.42464 | pgbench_accounts |        694222848
 2017-02-08 19:31:46.424643+01 | 1486578706.42464 | pgbench_tellers  |            24576
 2017-02-08 19:31:46.424643+01 | 1486578706.42464 | pgbench_history  |                0
 2017-02-08 19:31:46.424643+01 | 1486578706.42464 | pgbench_branches |             8192

 2017-02-08 19:31:47.672058+01 | 1486578707.67206 | pgbench_accounts |        694222848
 2017-02-08 19:31:47.672058+01 | 1486578707.67206 | pgbench_tellers  |            24576
 2017-02-08 19:31:47.672058+01 | 1486578707.67206 | pgbench_history  |                0
 2017-02-08 19:31:47.672058+01 | 1486578707.67206 | pgbench_branches |             8192

 2017-02-08 19:31:48.911753+01 | 1486578708.91175 | pgbench_accounts |        694222848
 2017-02-08 19:31:48.911753+01 | 1486578708.91175 | pgbench_tellers  |            24576
 2017-02-08 19:31:48.911753+01 | 1486578708.91175 | pgbench_history  |                0
 2017-02-08 19:31:48.911753+01 | 1486578708.91175 | pgbench_branches |             8192

 2017-02-08 19:31:50.198272+01 | 1486578710.19827 | pgbench_accounts |        694222848
 2017-02-08 19:31:50.198272+01 | 1486578710.19827 | pgbench_tellers  |            24576
 2017-02-08 19:31:50.198272+01 | 1486578710.19827 | pgbench_history  |                0
 2017-02-08 19:31:50.198272+01 | 1486578710.19827 | pgbench_branches |             8192

 2017-02-08 19:31:51.38788+01 | 1486578711.38788 | pgbench_accounts |        694222848
 2017-02-08 19:31:51.38788+01 | 1486578711.38788 | pgbench_tellers  |            24576
 2017-02-08 19:31:51.38788+01 | 1486578711.38788 | pgbench_history  |                0
 2017-02-08 19:31:51.38788+01 | 1486578711.38788 | pgbench_branches |             8192

 2017-02-08 19:31:52.539526+01 | 1486578712.53953 | pgbench_accounts |        694222848
 2017-02-08 19:31:52.539526+01 | 1486578712.53953 | pgbench_tellers  |            24576
 2017-02-08 19:31:52.539526+01 | 1486578712.53953 | pgbench_history  |                0
 2017-02-08 19:31:52.539526+01 | 1486578712.53953 | pgbench_branches |             8192

 2017-02-08 19:31:53.822301+01 | 1486578713.8223 | pgbench_accounts |        694222848
 2017-02-08 19:31:53.822301+01 | 1486578713.8223 | pgbench_tellers  |            24576
 2017-02-08 19:31:53.822301+01 | 1486578713.8223 | pgbench_history  |                0
 2017-02-08 19:31:53.822301+01 | 1486578713.8223 | pgbench_branches |             8192

 2017-02-08 19:31:55.071751+01 | 1486578715.07175 | pgbench_accounts |        694222848
 2017-02-08 19:31:55.071751+01 | 1486578715.07175 | pgbench_tellers  |            24576
 2017-02-08 19:31:55.071751+01 | 1486578715.07175 | pgbench_history  |                0
 2017-02-08 19:31:55.071751+01 | 1486578715.07175 | pgbench_branches |             8192

 2017-02-08 19:31:56.332753+01 | 1486578716.33275 | pgbench_accounts |        694222848
 2017-02-08 19:31:56.332753+01 | 1486578716.33275 | pgbench_tellers  |            24576
 2017-02-08 19:31:56.332753+01 | 1486578716.33275 | pgbench_history  |                0
 2017-02-08 19:31:56.332753+01 | 1486578716.33275 | pgbench_branches |             8192

 2017-02-08 19:31:57.589282+01 | 1486578717.58928 | pgbench_accounts |        694222848
 2017-02-08 19:31:57.589282+01 | 1486578717.58928 | pgbench_tellers  |            24576
 2017-02-08 19:31:57.589282+01 | 1486578717.58928 | pgbench_history  |                0
 2017-02-08 19:31:57.589282+01 | 1486578717.58928 | pgbench_branches |             8192

 2017-02-08 19:31:58.817436+01 | 1486578718.81744 | pgbench_accounts |        694222848
 2017-02-08 19:31:58.817436+01 | 1486578718.81744 | pgbench_tellers  |            24576
 2017-02-08 19:31:58.817436+01 | 1486578718.81744 | pgbench_history  |                0
 2017-02-08 19:31:58.817436+01 | 1486578718.81744 | pgbench_branches |             8192

 2017-02-08 19:32:00.067068+01 | 1486578720.06707 | pgbench_accounts |        694222848
 2017-02-08 19:32:00.067068+01 | 1486578720.06707 | pgbench_tellers  |            24576
 2017-02-08 19:32:00.067068+01 | 1486578720.06707 | pgbench_history  |                0
 2017-02-08 19:32:00.067068+01 | 1486578720.06707 | pgbench_branches |             8192

 2017-02-08 19:32:01.275693+01 | 1486578721.27569 | pgbench_accounts |        694222848
 2017-02-08 19:32:01.275693+01 | 1486578721.27569 | pgbench_tellers  |            24576
 2017-02-08 19:32:01.275693+01 | 1486578721.27569 | pgbench_history  |                0
 2017-02-08 19:32:01.275693+01 | 1486578721.27569 | pgbench_branches |             8192

 2017-02-08 19:32:02.497656+01 | 1486578722.49766 | pgbench_accounts |        694222848
 2017-02-08 19:32:02.497656+01 | 1486578722.49766 | pgbench_tellers  |            24576
 2017-02-08 19:32:02.497656+01 | 1486578722.49766 | pgbench_history  |                0
 2017-02-08 19:32:02.497656+01 | 1486578722.49766 | pgbench_branches |             8192

 2017-02-08 19:32:03.70184+01 | 1486578723.70184 | pgbench_accounts |        694222848
 2017-02-08 19:32:03.70184+01 | 1486578723.70184 | pgbench_tellers  |            24576
 2017-02-08 19:32:03.70184+01 | 1486578723.70184 | pgbench_history  |                0
 2017-02-08 19:32:03.70184+01 | 1486578723.70184 | pgbench_branches |             8192

 2017-02-08 19:32:04.918763+01 | 1486578724.91876 | pgbench_accounts |        694222848
 2017-02-08 19:32:04.918763+01 | 1486578724.91876 | pgbench_tellers  |            24576
 2017-02-08 19:32:04.918763+01 | 1486578724.91876 | pgbench_history  |                0
 2017-02-08 19:32:04.918763+01 | 1486578724.91876 | pgbench_branches |             8192

 2017-02-08 19:32:06.166796+01 | 1486578726.1668 | pgbench_accounts |        694222848
 2017-02-08 19:32:06.166796+01 | 1486578726.1668 | pgbench_tellers  |            24576
 2017-02-08 19:32:06.166796+01 | 1486578726.1668 | pgbench_history  |                0
 2017-02-08 19:32:06.166796+01 | 1486578726.1668 | pgbench_branches |             8192

 2017-02-08 19:32:07.41831+01 | 1486578727.41831 | pgbench_accounts |        694222848
 2017-02-08 19:32:07.41831+01 | 1486578727.41831 | pgbench_tellers  |            24576
 2017-02-08 19:32:07.41831+01 | 1486578727.41831 | pgbench_history  |                0
 2017-02-08 19:32:07.41831+01 | 1486578727.41831 | pgbench_branches |             8192

 2017-02-08 19:32:08.621712+01 | 1486578728.62171 | pgbench_accounts |        694222848
 2017-02-08 19:32:08.621712+01 | 1486578728.62171 | pgbench_tellers  |            24576
 2017-02-08 19:32:08.621712+01 | 1486578728.62171 | pgbench_history  |                0
 2017-02-08 19:32:08.621712+01 | 1486578728.62171 | pgbench_branches |             8192

 2017-02-08 19:32:09.820732+01 | 1486578729.82073 | pgbench_accounts |        694222848
 2017-02-08 19:32:09.820732+01 | 1486578729.82073 | pgbench_tellers  |            24576
 2017-02-08 19:32:09.820732+01 | 1486578729.82073 | pgbench_history  |                0
 2017-02-08 19:32:09.820732+01 | 1486578729.82073 | pgbench_branches |             8192

 2017-02-08 19:32:11.049248+01 | 1486578731.04925 | pgbench_accounts |        694222848
 2017-02-08 19:32:11.049248+01 | 1486578731.04925 | pgbench_tellers  |            24576
 2017-02-08 19:32:11.049248+01 | 1486578731.04925 | pgbench_history  |                0
 2017-02-08 19:32:11.049248+01 | 1486578731.04925 | pgbench_branches |             8192

 2017-02-08 19:32:12.274637+01 | 1486578732.27464 | pgbench_accounts |        694222848
 2017-02-08 19:32:12.274637+01 | 1486578732.27464 | pgbench_tellers  |            24576
 2017-02-08 19:32:12.274637+01 | 1486578732.27464 | pgbench_history  |                0
 2017-02-08 19:32:12.274637+01 | 1486578732.27464 | pgbench_branches |             8192

 2017-02-08 19:32:13.549732+01 | 1486578733.54973 | pgbench_accounts |        694222848
 2017-02-08 19:32:13.549732+01 | 1486578733.54973 | pgbench_tellers  |            24576
 2017-02-08 19:32:13.549732+01 | 1486578733.54973 | pgbench_history  |                0
 2017-02-08 19:32:13.549732+01 | 1486578733.54973 | pgbench_branches |             8192

 2017-02-08 19:32:14.728516+01 | 1486578734.72852 | pgbench_accounts |        694222848
 2017-02-08 19:32:14.728516+01 | 1486578734.72852 | pgbench_tellers  |            24576
 2017-02-08 19:32:14.728516+01 | 1486578734.72852 | pgbench_history  |                0
 2017-02-08 19:32:14.728516+01 | 1486578734.72852 | pgbench_branches |             8192

 2017-02-08 19:32:15.930005+01 | 1486578735.93001 | pgbench_accounts |        694222848
 2017-02-08 19:32:15.930005+01 | 1486578735.93001 | pgbench_tellers  |            24576
 2017-02-08 19:32:15.930005+01 | 1486578735.93001 | pgbench_history  |                0
 2017-02-08 19:32:15.930005+01 | 1486578735.93001 | pgbench_branches |             8192

 2017-02-08 19:32:17.108394+01 | 1486578737.10839 | pgbench_accounts |        694222848
 2017-02-08 19:32:17.108394+01 | 1486578737.10839 | pgbench_tellers  |            24576
 2017-02-08 19:32:17.108394+01 | 1486578737.10839 | pgbench_history  |                0
 2017-02-08 19:32:17.108394+01 | 1486578737.10839 | pgbench_branches |             8192

 2017-02-08 19:32:18.280568+01 | 1486578738.28057 | pgbench_accounts |        694222848
 2017-02-08 19:32:18.280568+01 | 1486578738.28057 | pgbench_tellers  |            24576
 2017-02-08 19:32:18.280568+01 | 1486578738.28057 | pgbench_history  |                0
 2017-02-08 19:32:18.280568+01 | 1486578738.28057 | pgbench_branches |             8192

 2017-02-08 19:32:19.522046+01 | 1486578739.52205 | pgbench_accounts |        694222848
 2017-02-08 19:32:19.522046+01 | 1486578739.52205 | pgbench_tellers  |            24576
 2017-02-08 19:32:19.522046+01 | 1486578739.52205 | pgbench_history  |                0
 2017-02-08 19:32:19.522046+01 | 1486578739.52205 | pgbench_branches |             8192

 2017-02-08 19:32:20.683101+01 | 1486578740.6831 | pgbench_accounts |        694222848
 2017-02-08 19:32:20.683101+01 | 1486578740.6831 | pgbench_tellers  |            24576
 2017-02-08 19:32:20.683101+01 | 1486578740.6831 | pgbench_history  |                0
 2017-02-08 19:32:20.683101+01 | 1486578740.6831 | pgbench_branches |             8192

 2017-02-08 19:32:21.923809+01 | 1486578741.92381 | pgbench_accounts |        694222848
 2017-02-08 19:32:21.923809+01 | 1486578741.92381 | pgbench_tellers  |            24576
 2017-02-08 19:32:21.923809+01 | 1486578741.92381 | pgbench_history  |                0
 2017-02-08 19:32:21.923809+01 | 1486578741.92381 | pgbench_branches |             8192

 2017-02-08 19:32:23.143688+01 | 1486578743.14369 | pgbench_accounts |        694222848
 2017-02-08 19:32:23.143688+01 | 1486578743.14369 | pgbench_tellers  |            24576
 2017-02-08 19:32:23.143688+01 | 1486578743.14369 | pgbench_history  |                0
 2017-02-08 19:32:23.143688+01 | 1486578743.14369 | pgbench_branches |             8192

 2017-02-08 19:32:24.34148+01 | 1486578744.34148 | pgbench_accounts |        694222848
 2017-02-08 19:32:24.34148+01 | 1486578744.34148 | pgbench_tellers  |            24576
 2017-02-08 19:32:24.34148+01 | 1486578744.34148 | pgbench_history  |                0
 2017-02-08 19:32:24.34148+01 | 1486578744.34148 | pgbench_branches |             8192

 2017-02-08 19:32:25.548498+01 | 1486578745.5485 | pgbench_accounts |        694222848
 2017-02-08 19:32:25.548498+01 | 1486578745.5485 | pgbench_tellers  |            24576
 2017-02-08 19:32:25.548498+01 | 1486578745.5485 | pgbench_history  |                0
 2017-02-08 19:32:25.548498+01 | 1486578745.5485 | pgbench_branches |             8192

 2017-02-08 19:32:26.699482+01 | 1486578746.69948 | pgbench_accounts |        694222848
 2017-02-08 19:32:26.699482+01 | 1486578746.69948 | pgbench_tellers  |            24576
 2017-02-08 19:32:26.699482+01 | 1486578746.69948 | pgbench_history  |                0
 2017-02-08 19:32:26.699482+01 | 1486578746.69948 | pgbench_branches |             8192

 2017-02-08 19:32:27.919213+01 | 1486578747.91921 | pgbench_accounts |        694222848
 2017-02-08 19:32:27.919213+01 | 1486578747.91921 | pgbench_tellers  |            24576
 2017-02-08 19:32:27.919213+01 | 1486578747.91921 | pgbench_history  |                0
 2017-02-08 19:32:27.919213+01 | 1486578747.91921 | pgbench_branches |             8192

 2017-02-08 19:32:29.153727+01 | 1486578749.15373 | pgbench_accounts |        694222848
 2017-02-08 19:32:29.153727+01 | 1486578749.15373 | pgbench_tellers  |            24576
 2017-02-08 19:32:29.153727+01 | 1486578749.15373 | pgbench_history  |                0
 2017-02-08 19:32:29.153727+01 | 1486578749.15373 | pgbench_branches |             8192

 2017-02-08 19:32:30.39554+01 | 1486578750.39554 | pgbench_accounts |        694222848
 2017-02-08 19:32:30.39554+01 | 1486578750.39554 | pgbench_tellers  |            24576
 2017-02-08 19:32:30.39554+01 | 1486578750.39554 | pgbench_history  |                0
 2017-02-08 19:32:30.39554+01 | 1486578750.39554 | pgbench_branches |             8192

 2017-02-08 19:32:31.623316+01 | 1486578751.62332 | pgbench_accounts |        694222848
 2017-02-08 19:32:31.623316+01 | 1486578751.62332 | pgbench_tellers  |            24576
 2017-02-08 19:32:31.623316+01 | 1486578751.62332 | pgbench_history  |                0
 2017-02-08 19:32:31.623316+01 | 1486578751.62332 | pgbench_branches |             8192

 2017-02-08 19:32:32.908286+01 | 1486578752.90829 | pgbench_accounts |        694222848
 2017-02-08 19:32:32.908286+01 | 1486578752.90829 | pgbench_tellers  |            24576
 2017-02-08 19:32:32.908286+01 | 1486578752.90829 | pgbench_history  |                0
 2017-02-08 19:32:32.908286+01 | 1486578752.90829 | pgbench_branches |             8192

 2017-02-08 19:32:34.143691+01 | 1486578754.14369 | pgbench_accounts |        694222848
 2017-02-08 19:32:34.143691+01 | 1486578754.14369 | pgbench_tellers  |            24576
 2017-02-08 19:32:34.143691+01 | 1486578754.14369 | pgbench_history  |                0
 2017-02-08 19:32:34.143691+01 | 1486578754.14369 | pgbench_branches |             8192

 2017-02-08 19:32:35.394086+01 | 1486578755.39409 | pgbench_accounts |        694222848
 2017-02-08 19:32:35.394086+01 | 1486578755.39409 | pgbench_tellers  |            24576
 2017-02-08 19:32:35.394086+01 | 1486578755.39409 | pgbench_history  |                0
 2017-02-08 19:32:35.394086+01 | 1486578755.39409 | pgbench_branches |             8192

 2017-02-08 19:32:36.615207+01 | 1486578756.61521 | pgbench_accounts |        694222848
 2017-02-08 19:32:36.615207+01 | 1486578756.61521 | pgbench_tellers  |            24576
 2017-02-08 19:32:36.615207+01 | 1486578756.61521 | pgbench_history  |                0
 2017-02-08 19:32:36.615207+01 | 1486578756.61521 | pgbench_branches |             8192

 2017-02-08 19:32:37.871777+01 | 1486578757.87178 | pgbench_accounts |        694222848
 2017-02-08 19:32:37.871777+01 | 1486578757.87178 | pgbench_tellers  |            24576
 2017-02-08 19:32:37.871777+01 | 1486578757.87178 | pgbench_history  |                0
 2017-02-08 19:32:37.871777+01 | 1486578757.87178 | pgbench_branches |             8192

 2017-02-08 19:32:39.091011+01 | 1486578759.09101 | pgbench_accounts |        694222848
 2017-02-08 19:32:39.091011+01 | 1486578759.09101 | pgbench_tellers  |            24576
 2017-02-08 19:32:39.091011+01 | 1486578759.09101 | pgbench_history  |                0
 2017-02-08 19:32:39.091011+01 | 1486578759.09101 | pgbench_branches |             8192

 2017-02-08 19:32:40.329358+01 | 1486578760.32936 | pgbench_accounts |        694222848
 2017-02-08 19:32:40.329358+01 | 1486578760.32936 | pgbench_tellers  |            24576
 2017-02-08 19:32:40.329358+01 | 1486578760.32936 | pgbench_history  |                0
 2017-02-08 19:32:40.329358+01 | 1486578760.32936 | pgbench_branches |             8192

 2017-02-08 19:32:41.555163+01 | 1486578761.55516 | pgbench_accounts |        694222848
 2017-02-08 19:32:41.555163+01 | 1486578761.55516 | pgbench_tellers  |            24576
 2017-02-08 19:32:41.555163+01 | 1486578761.55516 | pgbench_history  |                0
 2017-02-08 19:32:41.555163+01 | 1486578761.55516 | pgbench_branches |             8192

 2017-02-08 19:32:42.787509+01 | 1486578762.78751 | pgbench_accounts |        694222848
 2017-02-08 19:32:42.787509+01 | 1486578762.78751 | pgbench_tellers  |            24576
 2017-02-08 19:32:42.787509+01 | 1486578762.78751 | pgbench_history  |                0
 2017-02-08 19:32:42.787509+01 | 1486578762.78751 | pgbench_branches |             8192

 2017-02-08 19:32:44.004438+01 | 1486578764.00444 | pgbench_accounts |        694222848
 2017-02-08 19:32:44.004438+01 | 1486578764.00444 | pgbench_tellers  |            24576
 2017-02-08 19:32:44.004438+01 | 1486578764.00444 | pgbench_history  |                0
 2017-02-08 19:32:44.004438+01 | 1486578764.00444 | pgbench_branches |             8192

 2017-02-08 19:32:45.295408+01 | 1486578765.29541 | pgbench_accounts |        694222848
 2017-02-08 19:32:45.295408+01 | 1486578765.29541 | pgbench_tellers  |            24576
 2017-02-08 19:32:45.295408+01 | 1486578765.29541 | pgbench_history  |                0
 2017-02-08 19:32:45.295408+01 | 1486578765.29541 | pgbench_branches |             8192

 2017-02-08 19:32:46.525703+01 | 1486578766.5257 | pgbench_accounts |        694222848
 2017-02-08 19:32:46.525703+01 | 1486578766.5257 | pgbench_tellers  |            24576
 2017-02-08 19:32:46.525703+01 | 1486578766.5257 | pgbench_history  |                0
 2017-02-08 19:32:46.525703+01 | 1486578766.5257 | pgbench_branches |             8192

 2017-02-08 19:32:47.772601+01 | 1486578767.7726 | pgbench_accounts |        694222848
 2017-02-08 19:32:47.772601+01 | 1486578767.7726 | pgbench_tellers  |            24576
 2017-02-08 19:32:47.772601+01 | 1486578767.7726 | pgbench_history  |                0
 2017-02-08 19:32:47.772601+01 | 1486578767.7726 | pgbench_branches |             8192

 2017-02-08 19:32:48.967622+01 | 1486578768.96762 | pgbench_accounts |        694222848
 2017-02-08 19:32:48.967622+01 | 1486578768.96762 | pgbench_tellers  |            24576
 2017-02-08 19:32:48.967622+01 | 1486578768.96762 | pgbench_history  |                0
 2017-02-08 19:32:48.967622+01 | 1486578768.96762 | pgbench_branches |             8192

 2017-02-08 19:32:50.126837+01 | 1486578770.12684 | pgbench_accounts |        694222848
 2017-02-08 19:32:50.126837+01 | 1486578770.12684 | pgbench_tellers  |            24576
 2017-02-08 19:32:50.126837+01 | 1486578770.12684 | pgbench_history  |                0
 2017-02-08 19:32:50.126837+01 | 1486578770.12684 | pgbench_branches |             8192

 2017-02-08 19:32:51.376935+01 | 1486578771.37694 | pgbench_accounts |        694222848
 2017-02-08 19:32:51.376935+01 | 1486578771.37694 | pgbench_tellers  |            24576
 2017-02-08 19:32:51.376935+01 | 1486578771.37694 | pgbench_history  |                0
 2017-02-08 19:32:51.376935+01 | 1486578771.37694 | pgbench_branches |             8192

 2017-02-08 19:32:52.562624+01 | 1486578772.56262 | pgbench_accounts |        694222848
 2017-02-08 19:32:52.562624+01 | 1486578772.56262 | pgbench_tellers  |            24576
 2017-02-08 19:32:52.562624+01 | 1486578772.56262 | pgbench_history  |                0
 2017-02-08 19:32:52.562624+01 | 1486578772.56262 | pgbench_branches |             8192

 2017-02-08 19:32:53.826279+01 | 1486578773.82628 | pgbench_accounts |        694222848
 2017-02-08 19:32:53.826279+01 | 1486578773.82628 | pgbench_tellers  |            24576
 2017-02-08 19:32:53.826279+01 | 1486578773.82628 | pgbench_history  |                0
 2017-02-08 19:32:53.826279+01 | 1486578773.82628 | pgbench_branches |             8192

 2017-02-08 19:32:55.041857+01 | 1486578775.04186 | pgbench_accounts |        694222848
 2017-02-08 19:32:55.041857+01 | 1486578775.04186 | pgbench_tellers  |            24576
 2017-02-08 19:32:55.041857+01 | 1486578775.04186 | pgbench_history  |                0
 2017-02-08 19:32:55.041857+01 | 1486578775.04186 | pgbench_branches |             8192

 2017-02-08 19:32:56.230334+01 | 1486578776.23033 | pgbench_accounts |        694222848
 2017-02-08 19:32:56.230334+01 | 1486578776.23033 | pgbench_tellers  |            24576
 2017-02-08 19:32:56.230334+01 | 1486578776.23033 | pgbench_history  |                0
 2017-02-08 19:32:56.230334+01 | 1486578776.23033 | pgbench_branches |             8192

 2017-02-08 19:32:57.382886+01 | 1486578777.38289 | pgbench_accounts |        694222848
 2017-02-08 19:32:57.382886+01 | 1486578777.38289 | pgbench_tellers  |            24576
 2017-02-08 19:32:57.382886+01 | 1486578777.38289 | pgbench_history  |                0
 2017-02-08 19:32:57.382886+01 | 1486578777.38289 | pgbench_branches |             8192

 2017-02-08 19:32:58.637945+01 | 1486578778.63794 | pgbench_accounts |        694222848
 2017-02-08 19:32:58.637945+01 | 1486578778.63794 | pgbench_tellers  |            24576
 2017-02-08 19:32:58.637945+01 | 1486578778.63794 | pgbench_history  |                0
 2017-02-08 19:32:58.637945+01 | 1486578778.63794 | pgbench_branches |             8192

 2017-02-08 19:32:59.835457+01 | 1486578779.83546 | pgbench_accounts |        694222848
 2017-02-08 19:32:59.835457+01 | 1486578779.83546 | pgbench_tellers  |            24576
 2017-02-08 19:32:59.835457+01 | 1486578779.83546 | pgbench_history  |                0
 2017-02-08 19:32:59.835457+01 | 1486578779.83546 | pgbench_branches |             8192

 2017-02-08 19:33:01.052464+01 | 1486578781.05246 | pgbench_accounts |        694222848
 2017-02-08 19:33:01.052464+01 | 1486578781.05246 | pgbench_tellers  |            24576
 2017-02-08 19:33:01.052464+01 | 1486578781.05246 | pgbench_history  |                0
 2017-02-08 19:33:01.052464+01 | 1486578781.05246 | pgbench_branches |             8192

 2017-02-08 19:33:02.278648+01 | 1486578782.27865 | pgbench_accounts |        694222848
 2017-02-08 19:33:02.278648+01 | 1486578782.27865 | pgbench_tellers  |            24576
 2017-02-08 19:33:02.278648+01 | 1486578782.27865 | pgbench_history  |                0
 2017-02-08 19:33:02.278648+01 | 1486578782.27865 | pgbench_branches |             8192

