 2017-02-08 12:12:12.480397+01 | 1486552332.4804 |                 0 |              16 |                  9625 |                  553 |            1187211 |       2198474 |            21901 |        42759928 |                     0 |      50083400 | 2017-02-08 10:56:06.890034+01

 2017-02-08 12:12:13.533992+01 | 1486552333.53399 |                 0 |              16 |                  9625 |                  553 |            1187211 |       2198474 |            21901 |        42759928 |                     0 |      50092866 | 2017-02-08 10:56:06.890034+01

 2017-02-08 12:12:14.585027+01 | 1486552334.58503 |                 0 |              16 |                  9625 |                  553 |            1187211 |       2198474 |            21901 |        42759928 |                     0 |      50105671 | 2017-02-08 10:56:06.890034+01

 2017-02-08 12:12:15.640739+01 | 1486552335.64074 |                 0 |              16 |                  9625 |                  553 |            1187211 |       2198489 |            21901 |        42759928 |                     0 |      50116483 | 2017-02-08 10:56:06.890034+01

 2017-02-08 12:12:16.698723+01 | 1486552336.69872 |                 0 |              16 |                  9625 |                  553 |            1187211 |       2198521 |            21901 |        42759928 |                     0 |      50127255 | 2017-02-08 10:56:06.890034+01

 2017-02-08 12:12:17.752694+01 | 1486552337.75269 |                 0 |              16 |                  9625 |                  553 |            1187211 |       2198581 |            21901 |        42759928 |                     0 |      50137565 | 2017-02-08 10:56:06.890034+01

 2017-02-08 12:12:18.805623+01 | 1486552338.80562 |                 0 |              16 |                  9625 |                  553 |            1187211 |       2199045 |            21903 |        42759928 |                     0 |      50150940 | 2017-02-08 10:56:06.890034+01

 2017-02-08 12:12:19.863231+01 | 1486552339.86323 |                 0 |              16 |                  9625 |                  553 |            1187211 |       2199545 |            21908 |        42759928 |                     0 |      50161972 | 2017-02-08 10:56:06.890034+01

 2017-02-08 12:12:20.923147+01 | 1486552340.92315 |                 0 |              16 |                  9625 |                  553 |            1187211 |       2200045 |            21913 |        42759928 |                     0 |      50173146 | 2017-02-08 10:56:06.890034+01

 2017-02-08 12:12:21.97596+01 | 1486552341.97596 |                 0 |              16 |                  9625 |                  553 |            1187211 |       2200545 |            21918 |        42759928 |                     0 |      50183833 | 2017-02-08 10:56:06.890034+01

 2017-02-08 12:12:23.028299+01 | 1486552343.0283 |                 0 |              16 |                  9625 |                  553 |            1187211 |       2201145 |            21924 |        42759928 |                     0 |      50198547 | 2017-02-08 10:56:06.890034+01

 2017-02-08 12:12:24.084424+01 | 1486552344.08442 |                 0 |              16 |                  9625 |                  553 |            1187211 |       2201645 |            21929 |        42759928 |                     0 |      50211521 | 2017-02-08 10:56:06.890034+01

 2017-02-08 12:12:25.145115+01 | 1486552345.14511 |                 0 |              16 |                  9625 |                  553 |            1187211 |       2202145 |            21934 |        42759928 |                     0 |      50226343 | 2017-02-08 10:56:06.890034+01

 2017-02-08 12:12:26.199345+01 | 1486552346.19935 |                 0 |              16 |                  9625 |                  553 |            1187211 |       2202645 |            21939 |        42821494 |                     0 |      50241412 | 2017-02-08 10:56:06.890034+01

 2017-02-08 12:12:27.255625+01 | 1486552347.25563 |                 0 |              16 |                  9625 |                  553 |            1187211 |       2203245 |            21945 |        42821494 |                     0 |      50259106 | 2017-02-08 10:56:06.890034+01

 2017-02-08 12:12:28.312923+01 | 1486552348.31292 |                 0 |              16 |                  9625 |                  553 |            1187211 |       2203745 |            21950 |        42821494 |                     0 |      50272457 | 2017-02-08 10:56:06.890034+01

 2017-02-08 12:12:29.370976+01 | 1486552349.37098 |                 0 |              16 |                  9625 |                  553 |            1187211 |       2204245 |            21955 |        42821494 |                     0 |      50283040 | 2017-02-08 10:56:06.890034+01

 2017-02-08 12:12:30.43498+01 | 1486552350.43498 |                 0 |              16 |                  9625 |                  553 |            1187211 |       2204745 |            21960 |        42821494 |                     0 |      50293357 | 2017-02-08 10:56:06.890034+01

 2017-02-08 12:12:31.489032+01 | 1486552351.48903 |                 0 |              16 |                  9625 |                  553 |            1187211 |       2205345 |            21966 |        42821494 |                     0 |      50305910 | 2017-02-08 10:56:06.890034+01

 2017-02-08 12:12:32.554788+01 | 1486552352.55479 |                 0 |              16 |                  9625 |                  553 |            1187211 |       2205845 |            21971 |        42821494 |                     0 |      50316844 | 2017-02-08 10:56:06.890034+01

 2017-02-08 12:12:33.622995+01 | 1486552353.62299 |                 0 |              16 |                  9625 |                  553 |            1187211 |       2206345 |            21976 |        42821494 |                     0 |      50328208 | 2017-02-08 10:56:06.890034+01

 2017-02-08 12:12:34.688259+01 | 1486552354.68826 |                 0 |              16 |                  9625 |                  553 |            1187211 |       2206845 |            21981 |        42883030 |                     0 |      50339201 | 2017-02-08 10:56:06.890034+01

 2017-02-08 12:12:35.752014+01 | 1486552355.75201 |                 0 |              16 |                  9625 |                  553 |            1187211 |       2207445 |            21987 |        42883030 |                     0 |      50352511 | 2017-02-08 10:56:06.890034+01

 2017-02-08 12:12:36.810563+01 | 1486552356.81056 |                 0 |              16 |                  9625 |                  553 |            1187211 |       2207945 |            21992 |        42883030 |                     0 |      50363612 | 2017-02-08 10:56:06.890034+01

 2017-02-08 12:12:37.862621+01 | 1486552357.86262 |                 0 |              16 |                  9625 |                  553 |            1187211 |       2208445 |            21997 |        42883030 |                     0 |      50375386 | 2017-02-08 10:56:06.890034+01

 2017-02-08 12:12:38.921546+01 | 1486552358.92155 |                 0 |              16 |                  9625 |                  553 |            1187211 |       2209045 |            22003 |        42883030 |                     0 |      50389505 | 2017-02-08 10:56:06.890034+01

 2017-02-08 12:12:39.975478+01 | 1486552359.97548 |                 0 |              16 |                  9625 |                  553 |            1187211 |       2209545 |            22008 |        42883030 |                     0 |      50401256 | 2017-02-08 10:56:06.890034+01

 2017-02-08 12:12:41.032284+01 | 1486552361.03228 |                 0 |              16 |                  9625 |                  553 |            1187211 |       2210045 |            22013 |        42883030 |                     0 |      50413037 | 2017-02-08 10:56:06.890034+01

 2017-02-08 12:12:42.086233+01 | 1486552362.08623 |                 0 |              16 |                  9625 |                  553 |            1187211 |       2210545 |            22018 |        42944566 |                     0 |      50424894 | 2017-02-08 10:56:06.890034+01

 2017-02-08 12:12:43.147609+01 | 1486552363.14761 |                 0 |              16 |                  9625 |                  553 |            1187211 |       2211145 |            22024 |        42944566 |                     0 |      50438948 | 2017-02-08 10:56:06.890034+01

 2017-02-08 12:12:44.203581+01 | 1486552364.20358 |                 0 |              16 |                  9625 |                  553 |            1187211 |       2211645 |            22029 |        42944566 |                     0 |      50450736 | 2017-02-08 10:56:06.890034+01

 2017-02-08 12:12:45.267373+01 | 1486552365.26737 |                 0 |              16 |                  9625 |                  553 |            1187211 |       2212145 |            22034 |        42944566 |                     0 |      50462309 | 2017-02-08 10:56:06.890034+01

 2017-02-08 12:12:46.3296+01 | 1486552366.3296 |                 0 |              16 |                  9625 |                  553 |            1187211 |       2212645 |            22039 |        42944566 |                     0 |      50473457 | 2017-02-08 10:56:06.890034+01

 2017-02-08 12:12:47.391263+01 | 1486552367.39126 |                 0 |              16 |                  9625 |                  553 |            1187211 |       2213245 |            22045 |        42944566 |                     0 |      50486655 | 2017-02-08 10:56:06.890034+01

 2017-02-08 12:12:48.449396+01 | 1486552368.4494 |                 0 |              16 |                  9625 |                  553 |            1187211 |       2213745 |            22050 |        42944566 |                     0 |      50497989 | 2017-02-08 10:56:06.890034+01

 2017-02-08 12:12:49.508141+01 | 1486552369.50814 |                 0 |              16 |                  9625 |                  553 |            1187211 |       2214245 |            22055 |        43006702 |                     0 |      50509255 | 2017-02-08 10:56:06.890034+01

 2017-02-08 12:12:50.565777+01 | 1486552370.56578 |                 0 |              16 |                  9625 |                  553 |            1187211 |       2214745 |            22060 |        43006702 |                     0 |      50520509 | 2017-02-08 10:56:06.890034+01

 2017-02-08 12:12:51.620273+01 | 1486552371.62027 |                 0 |              16 |                  9625 |                  553 |            1187211 |       2215345 |            22066 |        43006702 |                     0 |      50533583 | 2017-02-08 10:56:06.890034+01

 2017-02-08 12:12:52.674299+01 | 1486552372.6743 |                 0 |              16 |                  9625 |                  553 |            1187211 |       2215845 |            22071 |        43006702 |                     0 |      50544831 | 2017-02-08 10:56:06.890034+01

 2017-02-08 12:12:53.734049+01 | 1486552373.73405 |                 0 |              16 |                  9625 |                  553 |            1187211 |       2216345 |            22076 |        43006702 |                     0 |      50556121 | 2017-02-08 10:56:06.890034+01

 2017-02-08 12:12:54.792917+01 | 1486552374.79292 |                 0 |              16 |                  9625 |                  553 |            1187211 |       2216845 |            22081 |        43006702 |                     0 |      50567280 | 2017-02-08 10:56:06.890034+01

 2017-02-08 12:12:55.858933+01 | 1486552375.85893 |                 0 |              16 |                  9625 |                  553 |            1187211 |       2217445 |            22087 |        43069030 |                     0 |      50581151 | 2017-02-08 10:56:06.890034+01

 2017-02-08 12:12:56.914774+01 | 1486552376.91477 |                 0 |              16 |                  9625 |                  553 |            1187211 |       2217945 |            22092 |        43069030 |                     0 |      50591936 | 2017-02-08 10:56:06.890034+01

 2017-02-08 12:12:57.970649+01 | 1486552377.97065 |                 0 |              16 |                  9625 |                  553 |            1187211 |       2218445 |            22097 |        43069030 |                     0 |      50603330 | 2017-02-08 10:56:06.890034+01

 2017-02-08 12:12:59.028375+01 | 1486552379.02837 |                 0 |              16 |                  9625 |                  553 |            1187211 |       2218945 |            22102 |        43069030 |                     0 |      50614688 | 2017-02-08 10:56:06.890034+01

 2017-02-08 12:13:00.092614+01 | 1486552380.09261 |                 0 |              16 |                  9625 |                  553 |            1187211 |       2219545 |            22108 |        43069030 |                     0 |      50628554 | 2017-02-08 10:56:06.890034+01

 2017-02-08 12:13:01.152426+01 | 1486552381.15243 |                 0 |              16 |                  9625 |                  553 |            1187211 |       2220045 |            22113 |        43069030 |                     0 |      50639946 | 2017-02-08 10:56:06.890034+01

 2017-02-08 12:13:02.210246+01 | 1486552382.21025 |                 0 |              16 |                  9625 |                  553 |            1187211 |       2220545 |            22118 |        43131333 |                     0 |      50650909 | 2017-02-08 10:56:06.890034+01

 2017-02-08 12:13:03.267581+01 | 1486552383.26758 |                 0 |              16 |                  9625 |                  553 |            1187211 |       2221145 |            22124 |        43131333 |                     0 |      50664891 | 2017-02-08 10:56:06.890034+01

 2017-02-08 12:13:04.325395+01 | 1486552384.3254 |                 0 |              16 |                  9625 |                  553 |            1187211 |       2221645 |            22129 |        43131333 |                     0 |      50676345 | 2017-02-08 10:56:06.890034+01

 2017-02-08 12:13:05.37834+01 | 1486552385.37834 |                 0 |              16 |                  9625 |                  553 |            1187211 |       2222145 |            22134 |        43131333 |                     0 |      50687889 | 2017-02-08 10:56:06.890034+01

 2017-02-08 12:13:06.434705+01 | 1486552386.43471 |                 0 |              16 |                  9625 |                  553 |            1187211 |       2222645 |            22139 |        43131333 |                     0 |      50698888 | 2017-02-08 10:56:06.890034+01

 2017-02-08 12:13:07.49255+01 | 1486552387.49255 |                 0 |              16 |                  9625 |                  553 |            1187211 |       2223245 |            22145 |        43131333 |                     0 |      50712860 | 2017-02-08 10:56:06.890034+01

 2017-02-08 12:13:08.549478+01 | 1486552388.54948 |                 0 |              16 |                  9625 |                  553 |            1187211 |       2223745 |            22150 |        43193669 |                     0 |      50724430 | 2017-02-08 10:56:06.890034+01

 2017-02-08 12:13:09.602881+01 | 1486552389.60288 |                 0 |              16 |                  9625 |                  553 |            1187211 |       2224245 |            22155 |        43193669 |                     0 |      50736134 | 2017-02-08 10:56:06.890034+01

 2017-02-08 12:13:10.657435+01 | 1486552390.65743 |                 0 |              16 |                  9625 |                  553 |            1187211 |       2224745 |            22160 |        43193669 |                     0 |      50747770 | 2017-02-08 10:56:06.890034+01

 2017-02-08 12:13:11.713384+01 | 1486552391.71338 |                 0 |              16 |                  9625 |                  553 |            1187211 |       2225345 |            22166 |        43193669 |                     0 |      50761358 | 2017-02-08 10:56:06.890034+01

 2017-02-08 12:13:12.771195+01 | 1486552392.77119 |                 0 |              16 |                  9625 |                  553 |            1187211 |       2225845 |            22171 |        43193669 |                     0 |      50772827 | 2017-02-08 10:56:06.890034+01

 2017-02-08 12:13:13.831791+01 | 1486552393.83179 |                 0 |              16 |                  9625 |                  553 |            1187211 |       2226345 |            22176 |        43193669 |                     0 |      50784450 | 2017-02-08 10:56:06.890034+01

 2017-02-08 12:13:14.88676+01 | 1486552394.88676 |                 0 |              16 |                  9625 |                  553 |            1187211 |       2226845 |            22181 |        43256016 |                     0 |      50796302 | 2017-02-08 10:56:06.890034+01

 2017-02-08 12:13:15.946254+01 | 1486552395.94625 |                 0 |              16 |                  9625 |                  553 |            1187211 |       2227445 |            22187 |        43256016 |                     0 |      50809704 | 2017-02-08 10:56:06.890034+01

 2017-02-08 12:13:17.007987+01 | 1486552397.00799 |                 0 |              16 |                  9625 |                  553 |            1187211 |       2227945 |            22192 |        43256016 |                     0 |      50821570 | 2017-02-08 10:56:06.890034+01

 2017-02-08 12:13:18.071544+01 | 1486552398.07154 |                 0 |              16 |                  9625 |                  553 |            1187211 |       2228445 |            22197 |        43256016 |                     0 |      50833425 | 2017-02-08 10:56:06.890034+01

 2017-02-08 12:13:19.131614+01 | 1486552399.13161 |                 0 |              16 |                  9625 |                  553 |            1187211 |       2228945 |            22202 |        43256016 |                     0 |      50845202 | 2017-02-08 10:56:06.890034+01

 2017-02-08 12:13:20.193576+01 | 1486552400.19358 |                 0 |              16 |                  9625 |                  553 |            1187211 |       2229545 |            22208 |        43256016 |                     0 |      50858882 | 2017-02-08 10:56:06.890034+01

 2017-02-08 12:13:21.250198+01 | 1486552401.2502 |                 0 |              16 |                  9625 |                  553 |            1187211 |       2230045 |            22213 |        43318252 |                     0 |      50870290 | 2017-02-08 10:56:06.890034+01

 2017-02-08 12:13:22.308255+01 | 1486552402.30825 |                 0 |              16 |                  9625 |                  553 |            1187211 |       2230545 |            22218 |        43318252 |                     0 |      50881791 | 2017-02-08 10:56:06.890034+01

 2017-02-08 12:13:23.3638+01 | 1486552403.3638 |                 0 |              16 |                  9625 |                  553 |            1187211 |       2231145 |            22224 |        43318252 |                     0 |      50896108 | 2017-02-08 10:56:06.890034+01

 2017-02-08 12:13:24.414681+01 | 1486552404.41468 |                 0 |              16 |                  9625 |                  553 |            1187211 |       2231645 |            22229 |        43318252 |                     0 |      50907178 | 2017-02-08 10:56:06.890034+01

 2017-02-08 12:13:25.469925+01 | 1486552405.46992 |                 0 |              16 |                  9625 |                  553 |            1187211 |       2232145 |            22234 |        43318252 |                     0 |      50918932 | 2017-02-08 10:56:06.890034+01

 2017-02-08 12:13:26.525171+01 | 1486552406.52517 |                 0 |              16 |                  9625 |                  553 |            1187211 |       2232645 |            22239 |        43318252 |                     0 |      50930831 | 2017-02-08 10:56:06.890034+01

 2017-02-08 12:13:27.581891+01 | 1486552407.58189 |                 0 |              16 |                  9625 |                  553 |            1187211 |       2233245 |            22245 |        43318252 |                     0 |      50945070 | 2017-02-08 10:56:06.890034+01

 2017-02-08 12:13:28.639276+01 | 1486552408.63928 |                 0 |              16 |                  9625 |                  553 |            1187211 |       2233745 |            22250 |        43380588 |                     0 |      50956532 | 2017-02-08 10:56:06.890034+01

 2017-02-08 12:13:29.693357+01 | 1486552409.69336 |                 0 |              16 |                  9625 |                  553 |            1187211 |       2234245 |            22255 |        43380588 |                     0 |      50968161 | 2017-02-08 10:56:06.890034+01

 2017-02-08 12:13:30.761078+01 | 1486552410.76108 |                 0 |              16 |                  9625 |                  553 |            1187211 |       2234745 |            22260 |        43380588 |                     0 |      50979833 | 2017-02-08 10:56:06.890034+01

 2017-02-08 12:13:31.828481+01 | 1486552411.82848 |                 0 |              16 |                  9625 |                  553 |            1187211 |       2235345 |            22266 |        43380588 |                     0 |      50994197 | 2017-02-08 10:56:06.890034+01

 2017-02-08 12:13:32.879941+01 | 1486552412.87994 |                 0 |              16 |                  9625 |                  553 |            1187211 |       2235845 |            22271 |        43380588 |                     0 |      51006205 | 2017-02-08 10:56:06.890034+01

 2017-02-08 12:13:33.934651+01 | 1486552413.93465 |                 0 |              16 |                  9625 |                  553 |            1187211 |       2236345 |            22276 |        43380588 |                     0 |      51017382 | 2017-02-08 10:56:06.890034+01

 2017-02-08 12:13:34.991767+01 | 1486552414.99177 |                 0 |              16 |                  9625 |                  553 |            1187211 |       2236845 |            22281 |        43442924 |                     0 |      51029351 | 2017-02-08 10:56:06.890034+01

 2017-02-08 12:13:36.052077+01 | 1486552416.05208 |                 0 |              16 |                  9625 |                  553 |            1187211 |       2237445 |            22287 |        43442924 |                     0 |      51043724 | 2017-02-08 10:56:06.890034+01

 2017-02-08 12:13:37.117205+01 | 1486552417.1172 |                 0 |              16 |                  9625 |                  553 |            1187211 |       2237945 |            22292 |        43442924 |                     0 |      51055655 | 2017-02-08 10:56:06.890034+01

 2017-02-08 12:13:38.171225+01 | 1486552418.17123 |                 0 |              16 |                  9625 |                  553 |            1187211 |       2238445 |            22297 |        43442924 |                     0 |      51066837 | 2017-02-08 10:56:06.890034+01

 2017-02-08 12:13:39.2229+01 | 1486552419.2229 |                 0 |              16 |                  9625 |                  553 |            1187211 |       2238945 |            22302 |        43442924 |                     0 |      51078744 | 2017-02-08 10:56:06.890034+01

 2017-02-08 12:13:40.28473+01 | 1486552420.28473 |                 0 |              16 |                  9625 |                  553 |            1187211 |       2239545 |            22308 |        43442924 |                     0 |      51093382 | 2017-02-08 10:56:06.890034+01

 2017-02-08 12:13:41.337275+01 | 1486552421.33728 |                 0 |              16 |                  9625 |                  553 |            1187211 |       2240045 |            22313 |        43505260 |                     0 |      51105340 | 2017-02-08 10:56:06.890034+01

 2017-02-08 12:13:42.388877+01 | 1486552422.38888 |                 0 |              16 |                  9625 |                  553 |            1187211 |       2240545 |            22318 |        43505260 |                     0 |      51117627 | 2017-02-08 10:56:06.890034+01

 2017-02-08 12:13:43.442285+01 | 1486552423.44229 |                 0 |              16 |                  9625 |                  553 |            1187211 |       2241045 |            22323 |        43505260 |                     0 |      51129577 | 2017-02-08 10:56:06.890034+01

 2017-02-08 12:13:44.504904+01 | 1486552424.5049 |                 0 |              16 |                  9625 |                  553 |            1187211 |       2241645 |            22329 |        43505260 |                     0 |      51143607 | 2017-02-08 10:56:06.890034+01

 2017-02-08 12:13:45.560627+01 | 1486552425.56063 |                 0 |              16 |                  9625 |                  553 |            1187211 |       2242145 |            22334 |        43505260 |                     0 |      51155364 | 2017-02-08 10:56:06.890034+01

 2017-02-08 12:13:46.618797+01 | 1486552426.6188 |                 0 |              16 |                  9625 |                  553 |            1187211 |       2242645 |            22339 |        43505260 |                     0 |      51167227 | 2017-02-08 10:56:06.890034+01

 2017-02-08 12:13:47.683976+01 | 1486552427.68398 |                 0 |              16 |                  9625 |                  553 |            1187211 |       2243145 |            22344 |        43567398 |                     0 |      51179062 | 2017-02-08 10:56:06.890034+01

 2017-02-08 12:13:48.745796+01 | 1486552428.7458 |                 0 |              16 |                  9625 |                  553 |            1187211 |       2243745 |            22350 |        43567398 |                     0 |      51192820 | 2017-02-08 10:56:06.890034+01

 2017-02-08 12:13:49.846625+01 | 1486552429.84663 |                 0 |              16 |                  9625 |                  553 |            1187211 |       2244245 |            22355 |        43567398 |                     0 |      51204647 | 2017-02-08 10:56:06.890034+01

 2017-02-08 12:13:50.908237+01 | 1486552430.90824 |                 0 |              16 |                  9625 |                  553 |            1187211 |       2244845 |            22361 |        43567398 |                     0 |      51219071 | 2017-02-08 10:56:06.890034+01

 2017-02-08 12:13:51.967935+01 | 1486552431.96794 |                 0 |              16 |                  9625 |                  553 |            1187211 |       2245345 |            22366 |        43567398 |                     0 |      51231109 | 2017-02-08 10:56:06.890034+01

 2017-02-08 12:13:53.022755+01 | 1486552433.02275 |                 0 |              16 |                  9625 |                  553 |            1187211 |       2245845 |            22371 |        43567398 |                     0 |      51243132 | 2017-02-08 10:56:06.890034+01

 2017-02-08 12:13:54.081305+01 | 1486552434.08131 |                 0 |              16 |                  9625 |                  553 |            1187211 |       2246345 |            22376 |        43629735 |                     0 |      51254348 | 2017-02-08 10:56:06.890034+01

 2017-02-08 12:13:55.137127+01 | 1486552435.13713 |                 0 |              16 |                  9625 |                  553 |            1187211 |       2246845 |            22381 |        43629735 |                     0 |      51266324 | 2017-02-08 10:56:06.890034+01

 2017-02-08 12:13:56.190627+01 | 1486552436.19063 |                 0 |              16 |                  9625 |                  553 |            1187211 |       2247445 |            22387 |        43629735 |                     0 |      51280840 | 2017-02-08 10:56:06.890034+01

 2017-02-08 12:13:57.24885+01 | 1486552437.24885 |                 0 |              16 |                  9625 |                  553 |            1187211 |       2247945 |            22392 |        43629735 |                     0 |      51292939 | 2017-02-08 10:56:06.890034+01

 2017-02-08 12:13:58.309846+01 | 1486552438.30985 |                 0 |              16 |                  9625 |                  553 |            1187211 |       2248445 |            22397 |        43629735 |                     0 |      51304420 | 2017-02-08 10:56:06.890034+01

 2017-02-08 12:13:59.369453+01 | 1486552439.36945 |                 0 |              16 |                  9625 |                  553 |            1187211 |       2249045 |            22403 |        43629735 |                     0 |      51318755 | 2017-02-08 10:56:06.890034+01

 2017-02-08 12:14:00.426447+01 | 1486552440.42645 |                 0 |              16 |                  9625 |                  553 |            1187211 |       2249545 |            22408 |        43692071 |                     0 |      51330894 | 2017-02-08 10:56:06.890034+01

 2017-02-08 12:14:01.493481+01 | 1486552441.49348 |                 0 |              16 |                  9625 |                  553 |            1187211 |       2250045 |            22413 |        43692071 |                     0 |      51342809 | 2017-02-08 10:56:06.890034+01

 2017-02-08 12:14:02.552562+01 | 1486552442.55256 |                 0 |              16 |                  9625 |                  553 |            1187211 |       2250545 |            22418 |        43692071 |                     0 |      51354317 | 2017-02-08 10:56:06.890034+01

 2017-02-08 12:14:03.607116+01 | 1486552443.60712 |                 0 |              16 |                  9625 |                  553 |            1187211 |       2251145 |            22424 |        43692071 |                     0 |      51368918 | 2017-02-08 10:56:06.890034+01

 2017-02-08 12:14:04.6663+01 | 1486552444.6663 |                 0 |              16 |                  9625 |                  553 |            1187211 |       2251645 |            22429 |        43692071 |                     0 |      51380960 | 2017-02-08 10:56:06.890034+01

 2017-02-08 12:14:05.719633+01 | 1486552445.71963 |                 0 |              16 |                  9625 |                  553 |            1187211 |       2252145 |            22434 |        43692071 |                     0 |      51392904 | 2017-02-08 10:56:06.890034+01

 2017-02-08 12:14:06.77612+01 | 1486552446.77612 |                 0 |              16 |                  9625 |                  553 |            1187211 |       2252645 |            22439 |        43754508 |                     0 |      51404216 | 2017-02-08 10:56:06.890034+01

 2017-02-08 12:14:07.838747+01 | 1486552447.83875 |                 0 |              16 |                  9625 |                  553 |            1187211 |       2253245 |            22445 |        43754508 |                     0 |      51418969 | 2017-02-08 10:56:06.890034+01

 2017-02-08 12:14:08.896869+01 | 1486552448.89687 |                 0 |              16 |                  9625 |                  553 |            1187211 |       2253745 |            22450 |        43754508 |                     0 |      51430907 | 2017-02-08 10:56:06.890034+01

 2017-02-08 12:14:09.949433+01 | 1486552449.94943 |                 0 |              16 |                  9625 |                  553 |            1187211 |       2254245 |            22455 |        43754508 |                     0 |      51442862 | 2017-02-08 10:56:06.890034+01

 2017-02-08 12:14:11.005664+01 | 1486552451.00566 |                 0 |              16 |                  9625 |                  553 |            1187211 |       2254745 |            22460 |        43754508 |                     0 |      51454020 | 2017-02-08 10:56:06.890034+01

 2017-02-08 12:14:12.063712+01 | 1486552452.06371 |                 0 |              16 |                  9625 |                  553 |            1187211 |       2255345 |            22466 |        43754508 |                     0 |      51468728 | 2017-02-08 10:56:06.890034+01

 2017-02-08 12:14:13.1228+01 | 1486552453.1228 |                 0 |              16 |                  9625 |                  553 |            1187211 |       2255845 |            22471 |        43816944 |                     0 |      51480501 | 2017-02-08 10:56:06.890034+01

 2017-02-08 12:14:14.175675+01 | 1486552454.17567 |                 0 |              16 |                  9625 |                  553 |            1187211 |       2256345 |            22476 |        43816944 |                     0 |      51492234 | 2017-02-08 10:56:06.890034+01

 2017-02-08 12:14:15.239379+01 | 1486552455.23938 |                 0 |              16 |                  9625 |                  553 |            1187211 |       2256845 |            22481 |        43816944 |                     0 |      51503573 | 2017-02-08 10:56:06.890034+01

 2017-02-08 12:14:16.296975+01 | 1486552456.29697 |                 0 |              16 |                  9625 |                  553 |            1187211 |       2257445 |            22487 |        43816944 |                     0 |      51518408 | 2017-02-08 10:56:06.890034+01

 2017-02-08 12:14:17.358478+01 | 1486552457.35848 |                 0 |              16 |                  9625 |                  553 |            1187211 |       2257945 |            22492 |        43816944 |                     0 |      51530354 | 2017-02-08 10:56:06.890034+01

 2017-02-08 12:14:18.415677+01 | 1486552458.41568 |                 0 |              16 |                  9625 |                  553 |            1187211 |       2258445 |            22497 |        43816944 |                     0 |      51542431 | 2017-02-08 10:56:06.890034+01

 2017-02-08 12:14:19.475525+01 | 1486552459.47552 |                 0 |              16 |                  9625 |                  553 |            1187211 |       2258945 |            22502 |        43879280 |                     0 |      51553838 | 2017-02-08 10:56:06.890034+01

 2017-02-08 12:14:20.537269+01 | 1486552460.53727 |                 0 |              16 |                  9625 |                  553 |            1187211 |       2259545 |            22508 |        43879280 |                     0 |      51568283 | 2017-02-08 10:56:06.890034+01

 2017-02-08 12:14:21.5948+01 | 1486552461.5948 |                 0 |              16 |                  9625 |                  553 |            1187211 |       2260045 |            22513 |        43879280 |                     0 |      51580502 | 2017-02-08 10:56:06.890034+01

 2017-02-08 12:14:22.650337+01 | 1486552462.65034 |                 0 |              16 |                  9625 |                  553 |            1187211 |       2260545 |            22518 |        43879280 |                     0 |      51592601 | 2017-02-08 10:56:06.890034+01

 2017-02-08 12:14:23.707219+01 | 1486552463.70722 |                 0 |              16 |                  9625 |                  553 |            1187211 |       2261045 |            22523 |        43879280 |                     0 |      51604035 | 2017-02-08 10:56:06.890034+01

 2017-02-08 12:14:24.76709+01 | 1486552464.76709 |                 0 |              16 |                  9625 |                  553 |            1187211 |       2261645 |            22529 |        43879280 |                     0 |      51618850 | 2017-02-08 10:56:06.890034+01

 2017-02-08 12:14:25.827292+01 | 1486552465.82729 |                 0 |              16 |                  9625 |                  553 |            1187211 |       2262145 |            22534 |        43941718 |                     0 |      51630976 | 2017-02-08 10:56:06.890034+01

 2017-02-08 12:14:26.886307+01 | 1486552466.88631 |                 0 |              16 |                  9625 |                  553 |            1187211 |       2262645 |            22539 |        43941718 |                     0 |      51642842 | 2017-02-08 10:56:06.890034+01

 2017-02-08 12:14:27.943067+01 | 1486552467.94307 |                 0 |              16 |                  9625 |                  553 |            1187211 |       2263245 |            22545 |        43941718 |                     0 |      51657213 | 2017-02-08 10:56:06.890034+01

 2017-02-08 12:14:29.005802+01 | 1486552469.0058 |                 0 |              16 |                  9625 |                  553 |            1187211 |       2263745 |            22550 |        43941718 |                     0 |      51669363 | 2017-02-08 10:56:06.890034+01

 2017-02-08 12:14:30.060401+01 | 1486552470.0604 |                 0 |              16 |                  9625 |                  553 |            1187211 |       2264245 |            22555 |        43941718 |                     0 |      51681697 | 2017-02-08 10:56:06.890034+01

 2017-02-08 12:14:31.118157+01 | 1486552471.11816 |                 0 |              16 |                  9625 |                  553 |            1187211 |       2264745 |            22560 |        43941718 |                     0 |      51693101 | 2017-02-08 10:56:06.890034+01

 2017-02-08 12:14:32.173475+01 | 1486552472.17348 |                 0 |              16 |                  9625 |                  553 |            1187211 |       2265345 |            22566 |        44004054 |                     0 |      51707769 | 2017-02-08 10:56:06.890034+01

 2017-02-08 12:14:33.23156+01 | 1486552473.23156 |                 0 |              16 |                  9625 |                  553 |            1187211 |       2265845 |            22571 |        44004054 |                     0 |      51719883 | 2017-02-08 10:56:06.890034+01

 2017-02-08 12:14:34.284018+01 | 1486552474.28402 |                 0 |              16 |                  9625 |                  553 |            1187211 |       2266345 |            22576 |        44004054 |                     0 |      51731993 | 2017-02-08 10:56:06.890034+01

 2017-02-08 12:14:35.343679+01 | 1486552475.34368 |                 0 |              16 |                  9625 |                  553 |            1187211 |       2266845 |            22581 |        44004054 |                     0 |      51743421 | 2017-02-08 10:56:06.890034+01

 2017-02-08 12:14:36.398537+01 | 1486552476.39854 |                 0 |              16 |                  9625 |                  553 |            1187211 |       2267445 |            22587 |        44004054 |                     0 |      51758186 | 2017-02-08 10:56:06.890034+01

 2017-02-08 12:14:37.457469+01 | 1486552477.45747 |                 0 |              16 |                  9625 |                  553 |            1187211 |       2267945 |            22592 |        44004054 |                     0 |      51770283 | 2017-02-08 10:56:06.890034+01

 2017-02-08 12:14:38.507747+01 | 1486552478.50775 |                 0 |              16 |                  9625 |                  553 |            1187211 |       2268445 |            22597 |        44066490 |                     0 |      51782375 | 2017-02-08 10:56:06.890034+01

 2017-02-08 12:14:39.562836+01 | 1486552479.56284 |                 0 |              16 |                  9625 |                  553 |            1187211 |       2268845 |            22601 |        44066490 |                     0 |      51791392 | 2017-02-08 10:56:06.890034+01

 2017-02-08 12:14:40.61618+01 | 1486552480.61618 |                 0 |              16 |                  9625 |                  553 |            1187211 |       2269545 |            22608 |        44066490 |                     0 |      51807667 | 2017-02-08 10:56:06.890034+01

 2017-02-08 12:14:41.674447+01 | 1486552481.67445 |                 0 |              16 |                  9625 |                  553 |            1187211 |       2270045 |            22613 |        44066490 |                     0 |      51819641 | 2017-02-08 10:56:06.890034+01

 2017-02-08 12:14:42.731153+01 | 1486552482.73115 |                 0 |              16 |                  9625 |                  553 |            1187211 |       2270545 |            22618 |        44066490 |                     0 |      51831694 | 2017-02-08 10:56:06.890034+01

 2017-02-08 12:14:43.79351+01 | 1486552483.79351 |                 0 |              16 |                  9625 |                  553 |            1187211 |       2271045 |            22623 |        44066490 |                     0 |      51843790 | 2017-02-08 10:56:06.890034+01

 2017-02-08 12:14:44.845137+01 | 1486552484.84514 |                 0 |              16 |                  9625 |                  553 |            1187211 |       2271645 |            22629 |        44128626 |                     0 |      51857744 | 2017-02-08 10:56:06.890034+01

 2017-02-08 12:14:45.891618+01 | 1486552485.89162 |                 0 |              16 |                  9625 |                  553 |            1187211 |       2272045 |            22633 |        44128626 |                     0 |      51867933 | 2017-02-08 10:56:06.890034+01

 2017-02-08 12:14:46.960619+01 | 1486552486.96062 |                 0 |              16 |                  9625 |                  553 |            1187211 |       2272645 |            22639 |        44128626 |                     0 |      51881595 | 2017-02-08 10:56:06.890034+01

 2017-02-08 12:14:48.020073+01 | 1486552488.02007 |                 0 |              16 |                  9625 |                  553 |            1187211 |       2273145 |            22644 |        44128626 |                     0 |      51893304 | 2017-02-08 10:56:06.890034+01

 2017-02-08 12:14:49.078451+01 | 1486552489.07845 |                 0 |              16 |                  9625 |                  553 |            1187211 |       2273745 |            22650 |        44128626 |                     0 |      51907620 | 2017-02-08 10:56:06.890034+01

 2017-02-08 12:14:50.132151+01 | 1486552490.13215 |                 0 |              16 |                  9625 |                  553 |            1187211 |       2274245 |            22655 |        44128626 |                     0 |      51919067 | 2017-02-08 10:56:06.890034+01

 2017-02-08 12:14:51.19269+01 | 1486552491.19269 |                 0 |              16 |                  9625 |                  553 |            1187211 |       2274745 |            22660 |        44128626 |                     0 |      51929984 | 2017-02-08 10:56:06.890034+01

 2017-02-08 12:14:52.242225+01 | 1486552492.24222 |                 0 |              16 |                  9625 |                  553 |            1187211 |       2275045 |            22663 |        44190862 |                     0 |      51937101 | 2017-02-08 10:56:06.890034+01

 2017-02-08 12:14:53.303693+01 | 1486552493.30369 |                 0 |              16 |                  9625 |                  553 |            1187211 |       2275845 |            22671 |        44190862 |                     0 |      51955634 | 2017-02-08 10:56:06.890034+01

 2017-02-08 12:14:54.370391+01 | 1486552494.37039 |                 0 |              16 |                  9625 |                  553 |            1187211 |       2276345 |            22676 |        44190862 |                     0 |      51967709 | 2017-02-08 10:56:06.890034+01

 2017-02-08 12:14:55.426743+01 | 1486552495.42674 |                 0 |              16 |                  9625 |                  553 |            1187211 |       2276845 |            22681 |        44190862 |                     0 |      51979849 | 2017-02-08 10:56:06.890034+01

 2017-02-08 12:14:56.489264+01 | 1486552496.48926 |                 0 |              16 |                  9625 |                  553 |            1187211 |       2277345 |            22686 |        44190862 |                     0 |      51991460 | 2017-02-08 10:56:06.890034+01

 2017-02-08 12:14:57.56072+01 | 1486552497.56072 |                 0 |              16 |                  9625 |                  553 |            1187211 |       2277945 |            22692 |        44190862 |                     0 |      52006303 | 2017-02-08 10:56:06.890034+01

 2017-02-08 12:14:58.617216+01 | 1486552498.61722 |                 0 |              16 |                  9625 |                  553 |            1187211 |       2278445 |            22697 |        44253199 |                     0 |      52018299 | 2017-02-08 10:56:06.890034+01

 2017-02-08 12:14:59.676226+01 | 1486552499.67623 |                 0 |              16 |                  9625 |                  553 |            1187211 |       2278945 |            22702 |        44253199 |                     0 |      52030431 | 2017-02-08 10:56:06.890034+01

 2017-02-08 12:15:00.735258+01 | 1486552500.73526 |                 0 |              16 |                  9625 |                  553 |            1187211 |       2279545 |            22708 |        44253199 |                     0 |      52044317 | 2017-02-08 10:56:06.890034+01

 2017-02-08 12:15:01.797339+01 | 1486552501.79734 |                 0 |              16 |                  9625 |                  553 |            1187211 |       2280045 |            22713 |        44253199 |                     0 |      52056431 | 2017-02-08 10:56:06.890034+01

 2017-02-08 12:15:02.86028+01 | 1486552502.86028 |                 0 |              16 |                  9625 |                  553 |            1187211 |       2280545 |            22718 |        44253199 |                     0 |      52068774 | 2017-02-08 10:56:06.890034+01

 2017-02-08 12:15:03.918206+01 | 1486552503.91821 |                 0 |              16 |                  9625 |                  553 |            1187211 |       2281045 |            22723 |        44253199 |                     0 |      52080365 | 2017-02-08 10:56:06.890034+01

 2017-02-08 12:15:04.975366+01 | 1486552504.97537 |                 0 |              16 |                  9625 |                  553 |            1187211 |       2281645 |            22729 |        44315635 |                     0 |      52094882 | 2017-02-08 10:56:06.890034+01

 2017-02-08 12:15:06.035725+01 | 1486552506.03573 |                 0 |              16 |                  9625 |                  553 |            1187211 |       2282145 |            22734 |        44315635 |                     0 |      52106615 | 2017-02-08 10:56:06.890034+01

 2017-02-08 12:15:07.089171+01 | 1486552507.08917 |                 0 |              16 |                  9625 |                  553 |            1187211 |       2282645 |            22739 |        44315635 |                     0 |      52118640 | 2017-02-08 10:56:06.890034+01

 2017-02-08 12:15:08.146286+01 | 1486552508.14629 |                 0 |              16 |                  9625 |                  553 |            1187211 |       2283145 |            22744 |        44315635 |                     0 |      52130221 | 2017-02-08 10:56:06.890034+01

 2017-02-08 12:15:09.20598+01 | 1486552509.20598 |                 0 |              16 |                  9625 |                  553 |            1187211 |       2283745 |            22750 |        44315635 |                     0 |      52144731 | 2017-02-08 10:56:06.890034+01

 2017-02-08 12:15:10.26753+01 | 1486552510.26753 |                 0 |              16 |                  9625 |                  553 |            1187211 |       2284245 |            22755 |        44315635 |                     0 |      52156809 | 2017-02-08 10:56:06.890034+01

 2017-02-08 12:15:11.319198+01 | 1486552511.3192 |                 0 |              16 |                  9625 |                  553 |            1187211 |       2284745 |            22760 |        44378071 |                     0 |      52168697 | 2017-02-08 10:56:06.890034+01

 2017-02-08 12:15:12.37513+01 | 1486552512.37513 |                 0 |              16 |                  9625 |                  553 |            1187211 |       2285245 |            22765 |        44378071 |                     0 |      52180142 | 2017-02-08 10:56:06.890034+01

 2017-02-08 12:15:13.430433+01 | 1486552513.43043 |                 0 |              16 |                  9625 |                  553 |            1187211 |       2285845 |            22771 |        44378071 |                     0 |      52194567 | 2017-02-08 10:56:06.890034+01

 2017-02-08 12:15:14.4827+01 | 1486552514.4827 |                 0 |              16 |                  9625 |                  553 |            1187211 |       2286345 |            22776 |        44378071 |                     0 |      52206421 | 2017-02-08 10:56:06.890034+01

 2017-02-08 12:15:15.54137+01 | 1486552515.54137 |                 0 |              16 |                  9625 |                  553 |            1187211 |       2286845 |            22781 |        44378071 |                     0 |      52218027 | 2017-02-08 10:56:06.890034+01

 2017-02-08 12:15:16.598268+01 | 1486552516.59827 |                 0 |              16 |                  9625 |                  553 |            1187211 |       2287345 |            22786 |        44378071 |                     0 |      52229546 | 2017-02-08 10:56:06.890034+01

 2017-02-08 12:15:17.660422+01 | 1486552517.66042 |                 0 |              16 |                  9625 |                  553 |            1187211 |       2287945 |            22792 |        44440507 |                     0 |      52244270 | 2017-02-08 10:56:06.890034+01

 2017-02-08 12:15:18.714458+01 | 1486552518.71446 |                 0 |              16 |                  9625 |                  553 |            1187211 |       2288445 |            22797 |        44440507 |                     0 |      52256294 | 2017-02-08 10:56:06.890034+01

 2017-02-08 12:15:19.771977+01 | 1486552519.77198 |                 0 |              16 |                  9625 |                  553 |            1187211 |       2288945 |            22802 |        44440507 |                     0 |      52267744 | 2017-02-08 10:56:06.890034+01

 2017-02-08 12:15:20.831058+01 | 1486552520.83106 |                 0 |              16 |                  9625 |                  553 |            1187211 |       2289545 |            22808 |        44440507 |                     0 |      52282105 | 2017-02-08 10:56:06.890034+01

 2017-02-08 12:15:21.886877+01 | 1486552521.88688 |                 0 |              16 |                  9625 |                  553 |            1187211 |       2290045 |            22813 |        44440507 |                     0 |      52294136 | 2017-02-08 10:56:06.890034+01

 2017-02-08 12:15:22.950292+01 | 1486552522.95029 |                 0 |              16 |                  9625 |                  553 |            1187211 |       2290545 |            22818 |        44440507 |                     0 |      52306216 | 2017-02-08 10:56:06.890034+01

 2017-02-08 12:15:24.00114+01 | 1486552524.00114 |                 0 |              16 |                  9625 |                  553 |            1187211 |       2291045 |            22823 |        44502843 |                     0 |      52317816 | 2017-02-08 10:56:06.890034+01

 2017-02-08 12:15:25.059571+01 | 1486552525.05957 |                 0 |              16 |                  9625 |                  553 |            1187211 |       2291645 |            22829 |        44502843 |                     0 |      52332450 | 2017-02-08 10:56:06.890034+01

 2017-02-08 12:15:26.119525+01 | 1486552526.11952 |                 0 |              16 |                  9625 |                  553 |            1187211 |       2292145 |            22834 |        44502843 |                     0 |      52344503 | 2017-02-08 10:56:06.890034+01

 2017-02-08 12:15:27.176483+01 | 1486552527.17648 |                 0 |              16 |                  9625 |                  553 |            1187211 |       2292645 |            22839 |        44502843 |                     0 |      52356636 | 2017-02-08 10:56:06.890034+01

 2017-02-08 12:15:28.236475+01 | 1486552528.23647 |                 0 |              16 |                  9625 |                  553 |            1187211 |       2293145 |            22844 |        44502843 |                     0 |      52368173 | 2017-02-08 10:56:06.890034+01

 2017-02-08 12:15:29.298929+01 | 1486552529.29893 |                 0 |              16 |                  9625 |                  553 |            1187211 |       2293745 |            22850 |        44502843 |                     0 |      52382645 | 2017-02-08 10:56:06.890034+01

 2017-02-08 12:15:30.358875+01 | 1486552530.35888 |                 0 |              16 |                  9625 |                  553 |            1187211 |       2294245 |            22855 |        44565279 |                     0 |      52394940 | 2017-02-08 10:56:06.890034+01

 2017-02-08 12:15:31.415919+01 | 1486552531.41592 |                 0 |              16 |                  9625 |                  553 |            1187211 |       2294745 |            22860 |        44565279 |                     0 |      52406884 | 2017-02-08 10:56:06.890034+01

 2017-02-08 12:15:32.472569+01 | 1486552532.47257 |                 0 |              16 |                  9625 |                  553 |            1187211 |       2295245 |            22865 |        44565279 |                     0 |      52418363 | 2017-02-08 10:56:06.890034+01

 2017-02-08 12:15:33.528103+01 | 1486552533.5281 |                 0 |              16 |                  9625 |                  553 |            1187211 |       2295845 |            22871 |        44565279 |                     0 |      52432924 | 2017-02-08 10:56:06.890034+01

 2017-02-08 12:15:34.59084+01 | 1486552534.59084 |                 0 |              16 |                  9625 |                  553 |            1187211 |       2296345 |            22876 |        44565279 |                     0 |      52445189 | 2017-02-08 10:56:06.890034+01

 2017-02-08 12:15:35.645261+01 | 1486552535.64526 |                 0 |              16 |                  9625 |                  553 |            1187211 |       2296845 |            22881 |        44627717 |                     0 |      52457116 | 2017-02-08 10:56:06.890034+01

 2017-02-08 12:15:36.698477+01 | 1486552536.69848 |                 0 |              16 |                  9625 |                  553 |            1187211 |       2297345 |            22886 |        44627717 |                     0 |      52468496 | 2017-02-08 10:56:06.890034+01

 2017-02-08 12:15:37.757557+01 | 1486552537.75756 |                 0 |              16 |                  9625 |                  553 |            1187211 |       2297945 |            22892 |        44627717 |                     0 |      52483343 | 2017-02-08 10:56:06.890034+01

 2017-02-08 12:15:38.830576+01 | 1486552538.83058 |                 0 |              16 |                  9625 |                  553 |            1187211 |       2298445 |            22897 |        44627717 |                     0 |      52495337 | 2017-02-08 10:56:06.890034+01

 2017-02-08 12:15:39.895633+01 | 1486552539.89563 |                 0 |              16 |                  9625 |                  553 |            1187211 |       2298945 |            22902 |        44627717 |                     0 |      52507074 | 2017-02-08 10:56:06.890034+01

 2017-02-08 12:15:40.955987+01 | 1486552540.95599 |                 0 |              16 |                  9625 |                  553 |            1187211 |       2299445 |            22907 |        44627717 |                     0 |      52519005 | 2017-02-08 10:56:06.890034+01

 2017-02-08 12:15:42.013575+01 | 1486552542.01358 |                 0 |              16 |                  9625 |                  553 |            1187211 |       2300045 |            22913 |        44627717 |                     0 |      52533683 | 2017-02-08 10:56:06.890034+01

 2017-02-08 12:15:43.082288+01 | 1486552543.08229 |                 0 |              16 |                  9625 |                  553 |            1187211 |       2300545 |            22918 |        44690053 |                     0 |      52545968 | 2017-02-08 10:56:06.890034+01

 2017-02-08 12:15:44.15307+01 | 1486552544.15307 |                 0 |              16 |                  9625 |                  553 |            1187211 |       2301045 |            22923 |        44690053 |                     0 |      52558245 | 2017-02-08 10:56:06.890034+01

 2017-02-08 12:15:45.209275+01 | 1486552545.20928 |                 0 |              16 |                  9625 |                  553 |            1187211 |       2301645 |            22929 |        44690053 |                     0 |      52572198 | 2017-02-08 10:56:06.890034+01

 2017-02-08 12:15:46.262475+01 | 1486552546.26248 |                 0 |              16 |                  9625 |                  553 |            1187211 |       2301945 |            22932 |        44690053 |                     0 |      52579923 | 2017-02-08 10:56:06.890034+01

 2017-02-08 12:15:47.327906+01 | 1486552547.32791 |                 0 |              16 |                  9625 |                  553 |            1187211 |       2302645 |            22939 |        44690053 |                     0 |      52596255 | 2017-02-08 10:56:06.890034+01

 2017-02-08 12:15:48.3857+01 | 1486552548.3857 |                 0 |              16 |                  9625 |                  553 |            1187211 |       2303145 |            22944 |        44690053 |                     0 |      52608173 | 2017-02-08 10:56:06.890034+01

 2017-02-08 12:15:49.452965+01 | 1486552549.45297 |                 0 |              16 |                  9625 |                  553 |            1187211 |       2303745 |            22950 |        44752190 |                     0 |      52622325 | 2017-02-08 10:56:06.890034+01

 2017-02-08 12:15:50.510022+01 | 1486552550.51002 |                 0 |              16 |                  9625 |                  553 |            1187211 |       2304245 |            22955 |        44752190 |                     0 |      52633714 | 2017-02-08 10:56:06.890034+01

 2017-02-08 12:15:51.575304+01 | 1486552551.5753 |                 0 |              16 |                  9625 |                  553 |            1187211 |       2304745 |            22960 |        44752190 |                     0 |      52645389 | 2017-02-08 10:56:06.890034+01

 2017-02-08 12:15:52.642731+01 | 1486552552.64273 |                 0 |              16 |                  9625 |                  553 |            1187211 |       2305345 |            22966 |        44752190 |                     0 |      52658269 | 2017-02-08 10:56:06.890034+01

 2017-02-08 12:15:53.707318+01 | 1486552553.70732 |                 0 |              16 |                  9625 |                  553 |            1187211 |       2305845 |            22971 |        44752190 |                     0 |      52669306 | 2017-02-08 10:56:06.890034+01

 2017-02-08 12:15:54.776288+01 | 1486552554.77629 |                 0 |              16 |                  9625 |                  553 |            1187211 |       2306345 |            22976 |        44752190 |                     0 |      52681035 | 2017-02-08 10:56:06.890034+01

 2017-02-08 12:15:55.833264+01 | 1486552555.83326 |                 0 |              16 |                  9625 |                  553 |            1187211 |       2306945 |            22982 |        44814429 |                     0 |      52695248 | 2017-02-08 10:56:06.890034+01

 2017-02-08 12:15:56.886857+01 | 1486552556.88686 |                 0 |              16 |                  9625 |                  553 |            1187211 |       2307445 |            22987 |        44814429 |                     0 |      52707265 | 2017-02-08 10:56:06.890034+01

 2017-02-08 12:15:57.942819+01 | 1486552557.94282 |                 0 |              16 |                  9625 |                  553 |            1187211 |       2307945 |            22992 |        44814429 |                     0 |      52719338 | 2017-02-08 10:56:06.890034+01

 2017-02-08 12:15:59.004081+01 | 1486552559.00408 |                 0 |              16 |                  9625 |                  553 |            1187211 |       2308445 |            22997 |        44814429 |                     0 |      52731103 | 2017-02-08 10:56:06.890034+01

 2017-02-08 12:16:00.077861+01 | 1486552560.07786 |                 0 |              16 |                  9625 |                  553 |            1187211 |       2309045 |            23003 |        44814429 |                     0 |      52745401 | 2017-02-08 10:56:06.890034+01

 2017-02-08 12:16:01.139188+01 | 1486552561.13919 |                 0 |              16 |                  9625 |                  553 |            1187211 |       2309545 |            23008 |        44814429 |                     0 |      52757149 | 2017-02-08 10:56:06.890034+01

 2017-02-08 12:16:02.194899+01 | 1486552562.1949 |                 0 |              16 |                  9625 |                  553 |            1187211 |       2310045 |            23013 |        44876766 |                     0 |      52769213 | 2017-02-08 10:56:06.890034+01

 2017-02-08 12:16:03.254076+01 | 1486552563.25408 |                 0 |              16 |                  9625 |                  553 |            1187211 |       2310545 |            23018 |        44876766 |                     0 |      52781345 | 2017-02-08 10:56:06.890034+01

 2017-02-08 12:16:04.310341+01 | 1486552564.31034 |                 0 |              16 |                  9625 |                  553 |            1187211 |       2311145 |            23024 |        44876766 |                     0 |      52795125 | 2017-02-08 10:56:06.890034+01

 2017-02-08 12:16:05.367879+01 | 1486552565.36788 |                 0 |              16 |                  9625 |                  553 |            1187211 |       2311645 |            23029 |        44876766 |                     0 |      52807035 | 2017-02-08 10:56:06.890034+01

 2017-02-08 12:16:06.4288+01 | 1486552566.4288 |                 0 |              16 |                  9625 |                  553 |            1187211 |       2312145 |            23034 |        44876766 |                     0 |      52818971 | 2017-02-08 10:56:06.890034+01

 2017-02-08 12:16:07.494114+01 | 1486552567.49411 |                 0 |              16 |                  9625 |                  553 |            1187211 |       2312645 |            23039 |        44876766 |                     0 |      52830676 | 2017-02-08 10:56:06.890034+01

 2017-02-08 12:16:08.552303+01 | 1486552568.5523 |                 0 |              16 |                  9625 |                  553 |            1187211 |       2313245 |            23045 |        44939205 |                     0 |      52844585 | 2017-02-08 10:56:06.890034+01

 2017-02-08 12:16:09.611494+01 | 1486552569.61149 |                 0 |              16 |                  9625 |                  553 |            1187211 |       2313745 |            23050 |        44939205 |                     0 |      52856597 | 2017-02-08 10:56:06.890034+01

 2017-02-08 12:16:10.669641+01 | 1486552570.66964 |                 0 |              16 |                  9625 |                  553 |            1187211 |       2314245 |            23055 |        44939205 |                     0 |      52868409 | 2017-02-08 10:56:06.890034+01

 2017-02-08 12:16:11.723137+01 | 1486552571.72314 |                 0 |              16 |                  9625 |                  553 |            1187211 |       2314845 |            23061 |        44939205 |                     0 |      52882461 | 2017-02-08 10:56:06.890034+01

 2017-02-08 12:16:12.789759+01 | 1486552572.78976 |                 0 |              16 |                  9625 |                  553 |            1187211 |       2315345 |            23066 |        44939205 |                     0 |      52894184 | 2017-02-08 10:56:06.890034+01

 2017-02-08 12:16:13.848708+01 | 1486552573.84871 |                 0 |              16 |                  9625 |                  553 |            1187211 |       2315845 |            23071 |        44939205 |                     0 |      52906187 | 2017-02-08 10:56:06.890034+01

 2017-02-08 12:16:14.910297+01 | 1486552574.9103 |                 0 |              16 |                  9625 |                  553 |            1187211 |       2316345 |            23076 |        45001666 |                     0 |      52918187 | 2017-02-08 10:56:06.890034+01

 2017-02-08 12:16:15.962879+01 | 1486552575.96288 |                 0 |              16 |                  9625 |                  553 |            1187211 |       2316945 |            23082 |        45001666 |                     0 |      52932170 | 2017-02-08 10:56:06.890034+01

 2017-02-08 12:16:17.02353+01 | 1486552577.02353 |                 0 |              16 |                  9625 |                  553 |            1187211 |       2317445 |            23087 |        45001666 |                     0 |      52944119 | 2017-02-08 10:56:06.890034+01

 2017-02-08 12:16:18.088003+01 | 1486552578.088 |                 0 |              16 |                  9625 |                  553 |            1187211 |       2317945 |            23092 |        45001666 |                     0 |      52955871 | 2017-02-08 10:56:06.890034+01

 2017-02-08 12:16:19.179501+01 | 1486552579.1795 |                 0 |              16 |                  9625 |                  553 |            1187211 |       2318445 |            23097 |        45001666 |                     0 |      52967903 | 2017-02-08 10:56:06.890034+01

 2017-02-08 12:16:20.242229+01 | 1486552580.24223 |                 0 |              16 |                  9625 |                  553 |            1187211 |       2319045 |            23103 |        45001666 |                     0 |      52982028 | 2017-02-08 10:56:06.890034+01

 2017-02-08 12:16:21.304097+01 | 1486552581.3041 |                 0 |              16 |                  9625 |                  553 |            1187211 |       2319545 |            23108 |        45064103 |                     0 |      52994032 | 2017-02-08 10:56:06.890034+01

 2017-02-08 12:16:22.361478+01 | 1486552582.36148 |                 0 |              16 |                  9625 |                  553 |            1187211 |       2320045 |            23113 |        45064103 |                     0 |      53006183 | 2017-02-08 10:56:06.890034+01

 2017-02-08 12:16:23.416332+01 | 1486552583.41633 |                 0 |              16 |                  9625 |                  553 |            1187211 |       2320645 |            23119 |        45064103 |                     0 |      53019998 | 2017-02-08 10:56:06.890034+01

 2017-02-08 12:16:24.480739+01 | 1486552584.48074 |                 0 |              16 |                  9625 |                  553 |            1187211 |       2321145 |            23124 |        45064103 |                     0 |      53032061 | 2017-02-08 10:56:06.890034+01

 2017-02-08 12:16:25.533492+01 | 1486552585.53349 |                 0 |              16 |                  9625 |                  553 |            1187211 |       2321645 |            23129 |        45064103 |                     0 |      53044091 | 2017-02-08 10:56:06.890034+01

 2017-02-08 12:16:26.588639+01 | 1486552586.58864 |                 0 |              16 |                  9625 |                  553 |            1187211 |       2322145 |            23134 |        45064103 |                     0 |      53056077 | 2017-02-08 10:56:06.890034+01

 2017-02-08 12:16:27.650173+01 | 1486552587.65017 |                 0 |              16 |                  9625 |                  553 |            1187211 |       2322745 |            23140 |        45126539 |                     0 |      53069950 | 2017-02-08 10:56:06.890034+01

 2017-02-08 12:16:28.711416+01 | 1486552588.71142 |                 0 |              16 |                  9625 |                  553 |            1187211 |       2323245 |            23145 |        45126539 |                     0 |      53082002 | 2017-02-08 10:56:06.890034+01

 2017-02-08 12:16:29.771897+01 | 1486552589.7719 |                 0 |              16 |                  9625 |                  553 |            1187211 |       2323745 |            23150 |        45126539 |                     0 |      53094131 | 2017-02-08 10:56:06.890034+01

 2017-02-08 12:16:30.844844+01 | 1486552590.84484 |                 0 |              16 |                  9625 |                  553 |            1187211 |       2324245 |            23155 |        45126539 |                     0 |      53106467 | 2017-02-08 10:56:06.890034+01

 2017-02-08 12:16:31.900758+01 | 1486552591.90076 |                 0 |              16 |                  9625 |                  553 |            1187211 |       2324845 |            23161 |        45126539 |                     0 |      53120134 | 2017-02-08 10:56:06.890034+01

 2017-02-08 12:16:32.965032+01 | 1486552592.96503 |                 0 |              16 |                  9625 |                  553 |            1187211 |       2325345 |            23166 |        45126539 |                     0 |      53132408 | 2017-02-08 10:56:06.890034+01

 2017-02-08 12:16:34.021937+01 | 1486552594.02194 |                 0 |              16 |                  9625 |                  553 |            1187211 |       2325845 |            23171 |        45188888 |                     0 |      53144398 | 2017-02-08 10:56:06.890034+01

 2017-02-08 12:16:35.082401+01 | 1486552595.0824 |                 0 |              16 |                  9625 |                  553 |            1187211 |       2326445 |            23177 |        45188888 |                     0 |      53157884 | 2017-02-08 10:56:06.890034+01

 2017-02-08 12:16:36.137311+01 | 1486552596.13731 |                 0 |              16 |                  9625 |                  553 |            1187211 |       2326945 |            23182 |        45188888 |                     0 |      53169337 | 2017-02-08 10:56:06.890034+01

 2017-02-08 12:16:37.194561+01 | 1486552597.19456 |                 0 |              16 |                  9625 |                  553 |            1187211 |       2327445 |            23187 |        45188888 |                     0 |      53181264 | 2017-02-08 10:56:06.890034+01

 2017-02-08 12:16:38.251734+01 | 1486552598.25173 |                 0 |              16 |                  9625 |                  553 |            1187211 |       2327945 |            23192 |        45188888 |                     0 |      53193078 | 2017-02-08 10:56:06.890034+01

 2017-02-08 12:16:39.304235+01 | 1486552599.30423 |                 0 |              16 |                  9625 |                  553 |            1187211 |       2328445 |            23197 |        45188888 |                     0 |      53205036 | 2017-02-08 10:56:06.890034+01

 2017-02-08 12:16:40.352839+01 | 1486552600.35284 |                 0 |              16 |                  9625 |                  553 |            1187211 |       2328945 |            23202 |        45251220 |                     0 |      53216981 | 2017-02-08 10:56:06.890034+01

 2017-02-08 12:16:41.409597+01 | 1486552601.4096 |                 0 |              16 |                  9625 |                  553 |            1187211 |       2329545 |            23208 |        45251220 |                     0 |      53230828 | 2017-02-08 10:56:06.890034+01

 2017-02-08 12:16:42.465199+01 | 1486552602.4652 |                 0 |              16 |                  9625 |                  553 |            1187211 |       2330045 |            23213 |        45251220 |                     0 |      53242744 | 2017-02-08 10:56:06.890034+01

 2017-02-08 12:16:43.52253+01 | 1486552603.52253 |                 0 |              16 |                  9625 |                  553 |            1187211 |       2330645 |            23219 |        45251220 |                     0 |      53257369 | 2017-02-08 10:56:06.890034+01

 2017-02-08 12:16:44.581777+01 | 1486552604.58178 |                 0 |              16 |                  9625 |                  553 |            1187211 |       2331145 |            23224 |        45251220 |                     0 |      53269475 | 2017-02-08 10:56:06.890034+01

 2017-02-08 12:16:45.631722+01 | 1486552605.63172 |                 0 |              16 |                  9625 |                  553 |            1187211 |       2331645 |            23229 |        45251220 |                     0 |      53281508 | 2017-02-08 10:56:06.890034+01

 2017-02-08 12:16:46.688202+01 | 1486552606.6882 |                 0 |              16 |                  9625 |                  553 |            1187211 |       2332145 |            23234 |        45313457 |                     0 |      53293477 | 2017-02-08 10:56:06.890034+01

 2017-02-08 12:16:47.748307+01 | 1486552607.74831 |                 0 |              16 |                  9625 |                  553 |            1187211 |       2332745 |            23240 |        45313457 |                     0 |      53307328 | 2017-02-08 10:56:06.890034+01

 2017-02-08 12:16:48.819347+01 | 1486552608.81935 |                 0 |              16 |                  9625 |                  553 |            1187211 |       2333245 |            23245 |        45313457 |                     0 |      53318909 | 2017-02-08 10:56:06.890034+01

 2017-02-08 12:16:49.887897+01 | 1486552609.8879 |                 0 |              16 |                  9625 |                  553 |            1187211 |       2333745 |            23250 |        45313457 |                     0 |      53330449 | 2017-02-08 10:56:06.890034+01

 2017-02-08 12:16:50.945139+01 | 1486552610.94514 |                 0 |              16 |                  9625 |                  553 |            1187211 |       2334245 |            23255 |        45313457 |                     0 |      53341653 | 2017-02-08 10:56:06.890034+01

 2017-02-08 12:16:52.012278+01 | 1486552612.01228 |                 0 |              16 |                  9625 |                  553 |            1187211 |       2334845 |            23261 |        45313457 |                     0 |      53355339 | 2017-02-08 10:56:06.890034+01

 2017-02-08 12:16:53.072117+01 | 1486552613.07212 |                 0 |              16 |                  9625 |                  553 |            1187211 |       2335345 |            23266 |        45313457 |                     0 |      53366394 | 2017-02-08 10:56:06.890034+01

 2017-02-08 12:16:54.136631+01 | 1486552614.13663 |                 0 |              16 |                  9625 |                  553 |            1187211 |       2335845 |            23271 |        45375493 |                     0 |      53377137 | 2017-02-08 10:56:06.890034+01

 2017-02-08 12:16:55.20052+01 | 1486552615.20052 |                 0 |              16 |                  9625 |                  553 |            1187211 |       2336445 |            23277 |        45375493 |                     0 |      53389635 | 2017-02-08 10:56:06.890034+01

 2017-02-08 12:16:56.256822+01 | 1486552616.25682 |                 0 |              16 |                  9625 |                  553 |            1187211 |       2336945 |            23282 |        45375493 |                     0 |      53400907 | 2017-02-08 10:56:06.890034+01

 2017-02-08 12:16:57.314246+01 | 1486552617.31425 |                 0 |              16 |                  9625 |                  553 |            1187211 |       2337445 |            23287 |        45375493 |                     0 |      53412749 | 2017-02-08 10:56:06.890034+01

 2017-02-08 12:16:58.36949+01 | 1486552618.36949 |                 0 |              16 |                  9625 |                  553 |            1187211 |       2337945 |            23292 |        45375493 |                     0 |      53424930 | 2017-02-08 10:56:06.890034+01

 2017-02-08 12:16:59.442871+01 | 1486552619.44287 |                 0 |              16 |                  9625 |                  553 |            1187211 |       2338545 |            23298 |        45375493 |                     0 |      53439097 | 2017-02-08 10:56:06.890034+01

 2017-02-08 12:17:00.499792+01 | 1486552620.49979 |                 0 |              16 |                  9625 |                  553 |            1187211 |       2339045 |            23303 |        45437729 |                     0 |      53450985 | 2017-02-08 10:56:06.890034+01

 2017-02-08 12:17:01.556097+01 | 1486552621.5561 |                 0 |              16 |                  9625 |                  553 |            1187211 |       2339545 |            23308 |        45437729 |                     0 |      53463033 | 2017-02-08 10:56:06.890034+01

 2017-02-08 12:17:02.618118+01 | 1486552622.61812 |                 0 |              16 |                  9625 |                  553 |            1187211 |       2340145 |            23314 |        45437729 |                     0 |      53477280 | 2017-02-08 10:56:06.890034+01

 2017-02-08 12:17:03.679127+01 | 1486552623.67913 |                 0 |              16 |                  9625 |                  553 |            1187211 |       2340645 |            23319 |        45437729 |                     0 |      53489017 | 2017-02-08 10:56:06.890034+01

 2017-02-08 12:17:04.73452+01 | 1486552624.73452 |                 0 |              16 |                  9625 |                  553 |            1187211 |       2341145 |            23324 |        45437729 |                     0 |      53501110 | 2017-02-08 10:56:06.890034+01

 2017-02-08 12:17:05.789664+01 | 1486552625.78966 |                 0 |              16 |                  9625 |                  553 |            1187211 |       2341645 |            23329 |        45437729 |                     0 |      53512939 | 2017-02-08 10:56:06.890034+01

 2017-02-08 12:17:06.845092+01 | 1486552626.84509 |                 0 |              16 |                  9625 |                  553 |            1187211 |       2342245 |            23335 |        45500165 |                     0 |      53526505 | 2017-02-08 10:56:06.890034+01

 2017-02-08 12:17:07.902613+01 | 1486552627.90261 |                 0 |              16 |                  9625 |                  553 |            1187211 |       2342745 |            23340 |        45500165 |                     0 |      53538311 | 2017-02-08 10:56:06.890034+01

 2017-02-08 12:17:08.962732+01 | 1486552628.96273 |                 0 |              16 |                  9625 |                  553 |            1187211 |       2343245 |            23345 |        45500165 |                     0 |      53550376 | 2017-02-08 10:56:06.890034+01

 2017-02-08 12:17:10.017282+01 | 1486552630.01728 |                 0 |              16 |                  9625 |                  553 |            1187211 |       2343745 |            23350 |        45500165 |                     0 |      53562309 | 2017-02-08 10:56:06.890034+01

 2017-02-08 12:17:11.077109+01 | 1486552631.07711 |                 0 |              16 |                  9625 |                  553 |            1187211 |       2344345 |            23356 |        45500165 |                     0 |      53575907 | 2017-02-08 10:56:06.890034+01

 2017-02-08 12:17:12.136347+01 | 1486552632.13635 |                 0 |              16 |                  9625 |                  553 |            1187211 |       2344845 |            23361 |        45500165 |                     0 |      53587913 | 2017-02-08 10:56:06.890034+01

