 2017-02-08 05:22:22.066245+01 | 1486527742.06625 |                 0 |               2 |                     3 |                    0 |                  3 |           459 |                4 |         1441856 |                     0 |      72163263 | 2017-02-08 05:11:31.218687+01

 2017-02-08 05:22:23.212678+01 | 1486527743.21268 |                 0 |               3 |                     4 |                    5 |                 12 |           462 |                4 |         1473291 |                     0 |      72271031 | 2017-02-08 05:11:31.218687+01

 2017-02-08 05:22:24.389278+01 | 1486527744.38928 |                 0 |               3 |                     4 |                    5 |                 12 |           462 |                4 |         1473291 |                     0 |      72404013 | 2017-02-08 05:11:31.218687+01

 2017-02-08 05:22:25.584233+01 | 1486527745.58423 |                 0 |               3 |                     4 |                    5 |                 12 |           463 |                4 |         1473291 |                     0 |      72546788 | 2017-02-08 05:11:31.218687+01

 2017-02-08 05:22:26.773508+01 | 1486527746.77351 |                 0 |               3 |                     4 |                    5 |                 12 |           463 |                4 |         1473291 |                     0 |      72690013 | 2017-02-08 05:11:31.218687+01

 2017-02-08 05:22:27.970338+01 | 1486527747.97034 |                 0 |               3 |                     4 |                    5 |                 12 |           463 |                4 |         1473291 |                     0 |      72833615 | 2017-02-08 05:11:31.218687+01

 2017-02-08 05:22:29.164776+01 | 1486527749.16478 |                 0 |               3 |                     4 |                    5 |                 12 |           463 |                4 |         1473291 |                     0 |      72971601 | 2017-02-08 05:11:31.218687+01

 2017-02-08 05:22:30.362467+01 | 1486527750.36247 |                 0 |               3 |                     4 |                    5 |                 12 |           463 |                4 |         1473291 |                     0 |      73091470 | 2017-02-08 05:11:31.218687+01

 2017-02-08 05:22:31.516369+01 | 1486527751.51637 |                 0 |               3 |                     4 |                    5 |                 12 |           463 |                4 |         1473291 |                     0 |      73235749 | 2017-02-08 05:11:31.218687+01

 2017-02-08 05:22:32.695533+01 | 1486527752.69553 |                 0 |               3 |                     4 |                    5 |                 12 |           463 |                4 |         1473291 |                     0 |      73377921 | 2017-02-08 05:11:31.218687+01

 2017-02-08 05:22:33.881414+01 | 1486527753.88141 |                 0 |               3 |                     4 |                    5 |                 12 |           463 |                4 |         1473291 |                     0 |      73521686 | 2017-02-08 05:11:31.218687+01

 2017-02-08 05:22:35.025409+01 | 1486527755.02541 |                 0 |               3 |                     4 |                    5 |                 12 |           463 |                4 |         1473291 |                     0 |      73656755 | 2017-02-08 05:11:31.218687+01

 2017-02-08 05:22:36.215153+01 | 1486527756.21515 |                 0 |               3 |                     4 |                    5 |                 12 |           463 |                4 |         1473291 |                     0 |      73797392 | 2017-02-08 05:11:31.218687+01

 2017-02-08 05:22:37.41197+01 | 1486527757.41197 |                 0 |               3 |                     4 |                    5 |                 12 |           463 |                4 |         1473291 |                     0 |      73917363 | 2017-02-08 05:11:31.218687+01

 2017-02-08 05:22:38.606433+01 | 1486527758.60643 |                 0 |               3 |                     4 |                    5 |                 12 |           463 |                4 |         1473291 |                     0 |      74061708 | 2017-02-08 05:11:31.218687+01

 2017-02-08 05:22:39.788346+01 | 1486527759.78835 |                 0 |               3 |                     4 |                    5 |                 12 |           463 |                4 |         1473291 |                     0 |      74205948 | 2017-02-08 05:11:31.218687+01

 2017-02-08 05:22:40.966425+01 | 1486527760.96642 |                 0 |               3 |                     4 |                    5 |                 12 |           463 |                4 |         1473291 |                     0 |      74348844 | 2017-02-08 05:11:31.218687+01

 2017-02-08 05:22:42.163089+01 | 1486527762.16309 |                 0 |               3 |                     4 |                    5 |                 12 |           463 |                4 |         1473291 |                     0 |      74493520 | 2017-02-08 05:11:31.218687+01

 2017-02-08 05:22:43.360741+01 | 1486527763.36074 |                 0 |               3 |                     4 |                    5 |                 12 |           463 |                4 |         1473291 |                     0 |      74637610 | 2017-02-08 05:11:31.218687+01

 2017-02-08 05:22:44.561786+01 | 1486527764.56179 |                 0 |               3 |                     4 |                    5 |                 12 |           463 |                4 |         1473291 |                     0 |      74779403 | 2017-02-08 05:11:31.218687+01

 2017-02-08 05:22:45.709422+01 | 1486527765.70942 |                 0 |               3 |                     4 |                    5 |                 12 |           463 |                4 |         1473291 |                     0 |      74921049 | 2017-02-08 05:11:31.218687+01

 2017-02-08 05:22:46.821788+01 | 1486527766.82179 |                 0 |               3 |                     4 |                    5 |                 12 |           463 |                4 |         1473291 |                     0 |      75027552 | 2017-02-08 05:11:31.218687+01

 2017-02-08 05:22:47.957383+01 | 1486527767.95738 |                 0 |               3 |                     4 |                    5 |                 12 |           463 |                4 |         1473291 |                     0 |      75151468 | 2017-02-08 05:11:31.218687+01

 2017-02-08 05:22:49.124361+01 | 1486527769.12436 |                 0 |               3 |                     4 |                    5 |                 12 |           463 |                4 |         1473291 |                     0 |      75281422 | 2017-02-08 05:11:31.218687+01

 2017-02-08 05:22:50.198421+01 | 1486527770.19842 |                 0 |               3 |                     4 |                    5 |                 12 |           463 |                4 |         1473291 |                     0 |      75388409 | 2017-02-08 05:11:31.218687+01

 2017-02-08 05:22:51.319234+01 | 1486527771.31923 |                 0 |               3 |                     4 |                    5 |                 12 |           463 |                4 |         1473291 |                     0 |      75527662 | 2017-02-08 05:11:31.218687+01

 2017-02-08 05:22:52.49125+01 | 1486527772.49125 |                 0 |               3 |                     4 |                    5 |                 12 |           463 |                4 |         1473291 |                     0 |      75645891 | 2017-02-08 05:11:31.218687+01

 2017-02-08 05:22:53.656887+01 | 1486527773.65689 |                 0 |               3 |                     4 |                    5 |                 12 |           463 |                4 |         1473291 |                     0 |      75773952 | 2017-02-08 05:11:31.218687+01

 2017-02-08 05:22:54.813197+01 | 1486527774.8132 |                 0 |               3 |                     4 |                    5 |                 12 |           463 |                4 |         1473291 |                     0 |      75890073 | 2017-02-08 05:11:31.218687+01

 2017-02-08 05:22:55.962802+01 | 1486527775.9628 |                 0 |               3 |                     4 |                    5 |                 12 |           463 |                4 |         1473291 |                     0 |      76019415 | 2017-02-08 05:11:31.218687+01

 2017-02-08 05:22:57.098886+01 | 1486527777.09889 |                 0 |               3 |                     4 |                    5 |                 12 |           463 |                4 |         1473291 |                     0 |      76125117 | 2017-02-08 05:11:31.218687+01

 2017-02-08 05:22:58.284424+01 | 1486527778.28442 |                 0 |               3 |                     4 |                    5 |                 12 |           463 |                4 |         1473291 |                     0 |      76263915 | 2017-02-08 05:11:31.218687+01

 2017-02-08 05:22:59.475872+01 | 1486527779.47587 |                 0 |               3 |                     4 |                    5 |                 12 |           463 |                4 |         1473291 |                     0 |      76408039 | 2017-02-08 05:11:31.218687+01

 2017-02-08 05:23:00.625185+01 | 1486527780.62519 |                 0 |               3 |                     4 |                    5 |                 12 |           463 |                4 |         1473291 |                     0 |      76534781 | 2017-02-08 05:11:31.218687+01

 2017-02-08 05:23:01.711425+01 | 1486527781.71143 |                 0 |               3 |                     4 |                    5 |                 12 |           463 |                4 |         1473291 |                     0 |      76641789 | 2017-02-08 05:11:31.218687+01

 2017-02-08 05:23:02.900677+01 | 1486527782.90068 |                 0 |               3 |                     4 |                    5 |                 12 |           463 |                4 |         1473291 |                     0 |      76772208 | 2017-02-08 05:11:31.218687+01

 2017-02-08 05:23:04.098238+01 | 1486527784.09824 |                 0 |               3 |                     4 |                    5 |                 12 |           463 |                4 |         1473291 |                     0 |      76910742 | 2017-02-08 05:11:31.218687+01

 2017-02-08 05:23:05.29561+01 | 1486527785.29561 |                 0 |               3 |                     4 |                    5 |                 12 |           463 |                4 |         1473291 |                     0 |      77053132 | 2017-02-08 05:11:31.218687+01

 2017-02-08 05:23:06.493836+01 | 1486527786.49384 |                 0 |               3 |                     4 |                    5 |                 12 |           463 |                4 |         1473291 |                     0 |      77197519 | 2017-02-08 05:11:31.218687+01

 2017-02-08 05:23:07.690701+01 | 1486527787.6907 |                 0 |               3 |                     4 |                    5 |                 12 |           463 |                4 |         1473291 |                     0 |      77341478 | 2017-02-08 05:11:31.218687+01

 2017-02-08 05:23:08.88525+01 | 1486527788.88525 |                 0 |               3 |                     4 |                    5 |                 12 |           463 |                4 |         1473291 |                     0 |      77484619 | 2017-02-08 05:11:31.218687+01

 2017-02-08 05:23:10.015977+01 | 1486527790.01598 |                 0 |               3 |                     4 |                    5 |                 12 |           463 |                4 |         1473291 |                     0 |      77623956 | 2017-02-08 05:11:31.218687+01

 2017-02-08 05:23:11.188857+01 | 1486527791.18886 |                 0 |               3 |                     4 |                    5 |                 12 |           463 |                4 |         1473291 |                     0 |      77739099 | 2017-02-08 05:11:31.218687+01

 2017-02-08 05:23:12.384853+01 | 1486527792.38485 |                 0 |               3 |                     4 |                    5 |                 12 |           463 |                4 |         1473291 |                     0 |      77876282 | 2017-02-08 05:11:31.218687+01

 2017-02-08 05:23:13.584258+01 | 1486527793.58426 |                 0 |               3 |                     4 |                    5 |                 12 |           463 |                4 |         1473291 |                     0 |      78020574 | 2017-02-08 05:11:31.218687+01

 2017-02-08 05:23:14.750402+01 | 1486527794.7504 |                 0 |               3 |                     4 |                    5 |                 12 |           463 |                4 |         1473291 |                     0 |      78162527 | 2017-02-08 05:11:31.218687+01

 2017-02-08 05:23:15.909407+01 | 1486527795.90941 |                 0 |               3 |                     4 |                    5 |                 12 |           463 |                4 |         1473291 |                     0 |      78301063 | 2017-02-08 05:11:31.218687+01

 2017-02-08 05:23:17.020687+01 | 1486527797.02069 |                 0 |               3 |                     4 |                    5 |                 12 |           463 |                4 |         1473291 |                     0 |      78401205 | 2017-02-08 05:11:31.218687+01

 2017-02-08 05:23:18.153305+01 | 1486527798.15331 |                 0 |               3 |                     4 |                    5 |                 12 |           463 |                4 |         1473291 |                     0 |      78523207 | 2017-02-08 05:11:31.218687+01

 2017-02-08 05:23:19.332276+01 | 1486527799.33228 |                 0 |               3 |                     4 |                    5 |                 12 |           463 |                4 |         1473291 |                     0 |      78639777 | 2017-02-08 05:11:31.218687+01

 2017-02-08 05:23:20.514959+01 | 1486527800.51496 |                 0 |               3 |                     4 |                    5 |                 12 |           463 |                4 |         1473291 |                     0 |      78783882 | 2017-02-08 05:11:31.218687+01

 2017-02-08 05:23:21.690472+01 | 1486527801.69047 |                 0 |               3 |                     4 |                    5 |                 12 |           463 |                4 |         1473291 |                     0 |      78916739 | 2017-02-08 05:11:31.218687+01

 2017-02-08 05:23:22.874829+01 | 1486527802.87483 |                 0 |               3 |                     4 |                    5 |                 12 |           463 |                4 |         1473291 |                     0 |      79058482 | 2017-02-08 05:11:31.218687+01

 2017-02-08 05:23:24.070805+01 | 1486527804.07081 |                 0 |               3 |                     4 |                    5 |                 12 |           463 |                4 |         1473291 |                     0 |      79203158 | 2017-02-08 05:11:31.218687+01

 2017-02-08 05:23:25.273388+01 | 1486527805.27339 |                 0 |               3 |                     4 |                    5 |                 12 |           463 |                4 |         1473291 |                     0 |      79347754 | 2017-02-08 05:11:31.218687+01

 2017-02-08 05:23:26.470126+01 | 1486527806.47013 |                 0 |               3 |                     4 |                    5 |                 12 |           463 |                4 |         1473291 |                     0 |      79492048 | 2017-02-08 05:11:31.218687+01

 2017-02-08 05:23:27.662547+01 | 1486527807.66255 |                 0 |               3 |                     4 |                    5 |                 12 |           463 |                4 |         1473291 |                     0 |      79635985 | 2017-02-08 05:11:31.218687+01

 2017-02-08 05:23:28.790326+01 | 1486527808.79033 |                 0 |               3 |                     4 |                    5 |                 12 |           463 |                4 |         1473291 |                     0 |      79777410 | 2017-02-08 05:11:31.218687+01

 2017-02-08 05:23:29.971171+01 | 1486527809.97117 |                 0 |               3 |                     4 |                    5 |                 12 |           463 |                4 |         1473291 |                     0 |      79895211 | 2017-02-08 05:11:31.218687+01

 2017-02-08 05:23:31.112407+01 | 1486527811.11241 |                 0 |               3 |                     4 |                    5 |                 12 |           463 |                4 |         1473291 |                     0 |      80027536 | 2017-02-08 05:11:31.218687+01

 2017-02-08 05:23:32.277622+01 | 1486527812.27762 |                 0 |               3 |                     4 |                    5 |                 12 |           463 |                4 |         1473291 |                     0 |      80155385 | 2017-02-08 05:11:31.218687+01

 2017-02-08 05:23:33.415162+01 | 1486527813.41516 |                 0 |               3 |                     4 |                    5 |                 12 |           463 |                4 |         1473291 |                     0 |      80297992 | 2017-02-08 05:11:31.218687+01

 2017-02-08 05:23:34.587892+01 | 1486527814.58789 |                 0 |               3 |                     4 |                    5 |                 12 |           463 |                4 |         1473291 |                     0 |      80406177 | 2017-02-08 05:11:31.218687+01

 2017-02-08 05:23:35.782646+01 | 1486527815.78265 |                 0 |               3 |                     4 |                    5 |                 12 |           463 |                4 |         1473291 |                     0 |      80550294 | 2017-02-08 05:11:31.218687+01

 2017-02-08 05:23:36.899376+01 | 1486527816.89938 |                 0 |               3 |                     4 |                    5 |                 12 |           463 |                4 |         1473291 |                     0 |      80685245 | 2017-02-08 05:11:31.218687+01

 2017-02-08 05:23:38.049222+01 | 1486527818.04922 |                 0 |               3 |                     4 |                    5 |                 12 |           463 |                4 |         1473291 |                     0 |      80792632 | 2017-02-08 05:11:31.218687+01

 2017-02-08 05:23:39.233873+01 | 1486527819.23387 |                 0 |               3 |                     4 |                    5 |                 12 |           463 |                4 |         1473291 |                     0 |      80930433 | 2017-02-08 05:11:31.218687+01

 2017-02-08 05:23:40.422626+01 | 1486527820.42263 |                 0 |               3 |                     4 |                    5 |                 12 |           463 |                4 |         1473291 |                     0 |      81074892 | 2017-02-08 05:11:31.218687+01

 2017-02-08 05:23:41.588833+01 | 1486527821.58883 |                 0 |               3 |                     4 |                    5 |                 12 |           463 |                4 |         1473291 |                     0 |      81219264 | 2017-02-08 05:11:31.218687+01

 2017-02-08 05:23:42.710333+01 | 1486527822.71033 |                 0 |               3 |                     4 |                    5 |                 12 |           463 |                4 |         1473291 |                     0 |      81354621 | 2017-02-08 05:11:31.218687+01

 2017-02-08 05:23:43.834479+01 | 1486527823.83448 |                 0 |               3 |                     4 |                    5 |                 12 |           463 |                4 |         1473291 |                     0 |      81452335 | 2017-02-08 05:11:31.218687+01

 2017-02-08 05:23:44.963339+01 | 1486527824.96334 |                 0 |               3 |                     4 |                    5 |                 12 |           463 |                4 |         1473291 |                     0 |      81576794 | 2017-02-08 05:11:31.218687+01

 2017-02-08 05:23:46.13025+01 | 1486527826.13025 |                 0 |               3 |                     4 |                    5 |                 12 |           463 |                4 |         1473291 |                     0 |      81693045 | 2017-02-08 05:11:31.218687+01

 2017-02-08 05:23:47.270476+01 | 1486527827.27048 |                 0 |               3 |                     4 |                    5 |                 12 |           463 |                4 |         1473291 |                     0 |      81820342 | 2017-02-08 05:11:31.218687+01

 2017-02-08 05:23:48.45483+01 | 1486527828.45483 |                 0 |               3 |                     4 |                    5 |                 12 |           463 |                4 |         1473291 |                     0 |      81947215 | 2017-02-08 05:11:31.218687+01

 2017-02-08 05:23:49.65119+01 | 1486527829.65119 |                 0 |               3 |                     4 |                    5 |                 12 |           463 |                4 |         1473291 |                     0 |      82091409 | 2017-02-08 05:11:31.218687+01

 2017-02-08 05:23:50.841978+01 | 1486527830.84198 |                 0 |               3 |                     4 |                    5 |                 12 |           463 |                4 |         1473291 |                     0 |      82235799 | 2017-02-08 05:11:31.218687+01

 2017-02-08 05:23:52.042239+01 | 1486527832.04224 |                 0 |               3 |                     4 |                    5 |                 12 |           463 |                4 |         1473291 |                     0 |      82380161 | 2017-02-08 05:11:31.218687+01

 2017-02-08 05:23:53.189424+01 | 1486527833.18942 |                 0 |               3 |                     4 |                    5 |                 12 |           463 |                4 |         1473291 |                     0 |      82508139 | 2017-02-08 05:11:31.218687+01

 2017-02-08 05:23:54.383386+01 | 1486527834.38339 |                 0 |               3 |                     4 |                    5 |                 12 |           463 |                4 |         1473291 |                     0 |      82616983 | 2017-02-08 05:11:31.218687+01

 2017-02-08 05:23:55.542399+01 | 1486527835.5424 |                 0 |               3 |                     4 |                    5 |                 12 |           463 |                4 |         1473291 |                     0 |      82761299 | 2017-02-08 05:11:31.218687+01

 2017-02-08 05:23:56.655994+01 | 1486527836.65599 |                 0 |               3 |                     4 |                    5 |                 12 |           463 |                4 |         1473291 |                     0 |      82885366 | 2017-02-08 05:11:31.218687+01

 2017-02-08 05:23:57.77391+01 | 1486527837.77391 |                 0 |               3 |                     4 |                    5 |                 12 |           463 |                4 |         1473291 |                     0 |      82986597 | 2017-02-08 05:11:31.218687+01

 2017-02-08 05:23:58.95131+01 | 1486527838.95131 |                 0 |               3 |                     4 |                    5 |                 12 |           463 |                4 |         1473291 |                     0 |      83109561 | 2017-02-08 05:11:31.218687+01

 2017-02-08 05:24:00.10113+01 | 1486527840.10113 |                 0 |               3 |                     4 |                    5 |                 12 |           463 |                4 |         1473291 |                     0 |      83253894 | 2017-02-08 05:11:31.218687+01

 2017-02-08 05:24:01.278046+01 | 1486527841.27805 |                 0 |               3 |                     4 |                    5 |                 12 |           463 |                4 |         1473291 |                     0 |      83381738 | 2017-02-08 05:11:31.218687+01

 2017-02-08 05:24:02.427721+01 | 1486527842.42772 |                 0 |               3 |                     4 |                    5 |                 12 |           463 |                4 |         1473291 |                     0 |      83491059 | 2017-02-08 05:11:31.218687+01

 2017-02-08 05:24:03.547564+01 | 1486527843.54756 |                 0 |               3 |                     4 |                    5 |                 12 |           463 |                4 |         1473291 |                     0 |      83619304 | 2017-02-08 05:11:31.218687+01

 2017-02-08 05:24:04.67637+01 | 1486527844.67637 |                 0 |               3 |                     4 |                    5 |                 12 |           463 |                4 |         1473291 |                     0 |      83741147 | 2017-02-08 05:11:31.218687+01

 2017-02-08 05:24:05.801387+01 | 1486527845.80139 |                 0 |               3 |                     4 |                    5 |                 12 |           463 |                4 |         1473291 |                     0 |      83859687 | 2017-02-08 05:11:31.218687+01

 2017-02-08 05:24:06.972453+01 | 1486527846.97245 |                 0 |               3 |                     4 |                    5 |                 12 |           463 |                4 |         1473291 |                     0 |      83998075 | 2017-02-08 05:11:31.218687+01

 2017-02-08 05:24:08.090046+01 | 1486527848.09005 |                 0 |               3 |                     4 |                    5 |                 12 |           463 |                4 |         1473291 |                     0 |      84123321 | 2017-02-08 05:11:31.218687+01

 2017-02-08 05:24:09.273336+01 | 1486527849.27334 |                 0 |               3 |                     4 |                    5 |                 12 |           463 |                4 |         1473291 |                     0 |      84235868 | 2017-02-08 05:11:31.218687+01

 2017-02-08 05:24:10.46543+01 | 1486527850.46543 |                 0 |               3 |                     4 |                    5 |                 12 |           463 |                4 |         1473291 |                     0 |      84380398 | 2017-02-08 05:11:31.218687+01

 2017-02-08 05:24:11.661002+01 | 1486527851.661 |                 0 |               3 |                     4 |                    5 |                 12 |           463 |                4 |         1473291 |                     0 |      84524844 | 2017-02-08 05:11:31.218687+01

 2017-02-08 05:24:12.85505+01 | 1486527852.85505 |                 0 |               3 |                     4 |                    5 |                 12 |           463 |                4 |         1473291 |                     0 |      84669098 | 2017-02-08 05:11:31.218687+01

 2017-02-08 05:24:14.052839+01 | 1486527854.05284 |                 0 |               3 |                     4 |                    5 |                 12 |           463 |                4 |         1473291 |                     0 |      84813116 | 2017-02-08 05:11:31.218687+01

 2017-02-08 05:24:15.249023+01 | 1486527855.24902 |                 0 |               3 |                     4 |                    5 |                 12 |           463 |                4 |         1473291 |                     0 |      84957526 | 2017-02-08 05:11:31.218687+01

 2017-02-08 05:24:16.437607+01 | 1486527856.43761 |                 0 |               3 |                     4 |                    5 |                 12 |           463 |                4 |         1473291 |                     0 |      85101735 | 2017-02-08 05:11:31.218687+01

 2017-02-08 05:24:17.577666+01 | 1486527857.57767 |                 0 |               3 |                     4 |                    5 |                 12 |           463 |                4 |         1473291 |                     0 |      85230567 | 2017-02-08 05:11:31.218687+01

 2017-02-08 05:24:18.681127+01 | 1486527858.68113 |                 0 |               3 |                     4 |                    5 |                 12 |           463 |                4 |         1473291 |                     0 |      85329319 | 2017-02-08 05:11:31.218687+01

 2017-02-08 05:24:19.829249+01 | 1486527859.82925 |                 0 |               3 |                     4 |                    5 |                 12 |           463 |                4 |         1473291 |                     0 |      85455922 | 2017-02-08 05:11:31.218687+01

 2017-02-08 05:24:21.002173+01 | 1486527861.00217 |                 0 |               3 |                     4 |                    5 |                 12 |           463 |                4 |         1473291 |                     0 |      85570697 | 2017-02-08 05:11:31.218687+01

 2017-02-08 05:24:22.196983+01 | 1486527862.19698 |                 0 |               3 |                     4 |                    5 |                 12 |           463 |                4 |         1473291 |                     0 |      85698376 | 2017-02-08 05:11:31.218687+01

 2017-02-08 05:24:23.40068+01 | 1486527863.40068 |                 0 |               3 |                     4 |                    5 |                 12 |           463 |                4 |         1473291 |                     0 |      85842416 | 2017-02-08 05:11:31.218687+01

 2017-02-08 05:24:24.595049+01 | 1486527864.59505 |                 0 |               3 |                     4 |                    5 |                 12 |           463 |                4 |         1473291 |                     0 |      85986783 | 2017-02-08 05:11:31.218687+01

 2017-02-08 05:24:25.767609+01 | 1486527865.76761 |                 0 |               3 |                     4 |                    5 |                 12 |           463 |                4 |         1473291 |                     0 |      86128564 | 2017-02-08 05:11:31.218687+01

 2017-02-08 05:24:26.889537+01 | 1486527866.88954 |                 0 |               3 |                     4 |                    5 |                 12 |           463 |                4 |         1473291 |                     0 |      86251390 | 2017-02-08 05:11:31.218687+01

 2017-02-08 05:24:28.083951+01 | 1486527868.08395 |                 0 |               3 |                     4 |                    5 |                 12 |           463 |                4 |         1473291 |                     0 |      86381244 | 2017-02-08 05:11:31.218687+01

 2017-02-08 05:24:29.24419+01 | 1486527869.24419 |                 0 |               3 |                     4 |                    5 |                 12 |           463 |                4 |         1473291 |                     0 |      86501078 | 2017-02-08 05:11:31.218687+01

 2017-02-08 05:24:30.43982+01 | 1486527870.43982 |                 0 |               3 |                     4 |                    5 |                 12 |           463 |                4 |         1473291 |                     0 |      86639664 | 2017-02-08 05:11:31.218687+01

 2017-02-08 05:24:31.622272+01 | 1486527871.62227 |                 0 |               3 |                     4 |                    5 |                 12 |           463 |                4 |         1473291 |                     0 |      86784038 | 2017-02-08 05:11:31.218687+01

 2017-02-08 05:24:32.722863+01 | 1486527872.72286 |                 0 |               3 |                     4 |                    5 |                 12 |           463 |                4 |         1473291 |                     0 |      86916406 | 2017-02-08 05:11:31.218687+01

 2017-02-08 05:24:33.89359+01 | 1486527873.89359 |                 0 |               3 |                     4 |                    5 |                 12 |           463 |                4 |         1473291 |                     0 |      87018621 | 2017-02-08 05:11:31.218687+01

 2017-02-08 05:24:35.094015+01 | 1486527875.09401 |                 0 |               3 |                     4 |                    5 |                 12 |           463 |                4 |         1473291 |                     0 |      87162033 | 2017-02-08 05:11:31.218687+01

 2017-02-08 05:24:36.290953+01 | 1486527876.29095 |                 0 |               3 |                     4 |                    5 |                 12 |           463 |                4 |         1473291 |                     0 |      87306189 | 2017-02-08 05:11:31.218687+01

 2017-02-08 05:24:37.489252+01 | 1486527877.48925 |                 0 |               3 |                     4 |                    5 |                 12 |           463 |                4 |         1473291 |                     0 |      87438119 | 2017-02-08 05:11:31.218687+01

 2017-02-08 05:24:38.689714+01 | 1486527878.68971 |                 0 |               3 |                     4 |                    5 |                 12 |           463 |                4 |         1473291 |                     0 |      87582603 | 2017-02-08 05:11:31.218687+01

 2017-02-08 05:24:39.888696+01 | 1486527879.8887 |                 0 |               3 |                     4 |                    5 |                 12 |           463 |                4 |         1473291 |                     0 |      87725577 | 2017-02-08 05:11:31.218687+01

 2017-02-08 05:24:41.053406+01 | 1486527881.05341 |                 0 |               3 |                     4 |                    5 |                 12 |           463 |                4 |         1473291 |                     0 |      87869598 | 2017-02-08 05:11:31.218687+01

 2017-02-08 05:24:42.167389+01 | 1486527882.16739 |                 0 |               3 |                     4 |                    5 |                 12 |           463 |                4 |         1473291 |                     0 |      88011088 | 2017-02-08 05:11:31.218687+01

 2017-02-08 05:24:43.346897+01 | 1486527883.3469 |                 0 |               3 |                     4 |                    5 |                 12 |           463 |                4 |         1473291 |                     0 |      88121541 | 2017-02-08 05:11:31.218687+01

 2017-02-08 05:24:44.490313+01 | 1486527884.49031 |                 0 |               3 |                     4 |                    5 |                 12 |           463 |                4 |         1473291 |                     0 |      88266006 | 2017-02-08 05:11:31.218687+01

 2017-02-08 05:24:45.689711+01 | 1486527885.68971 |                 0 |               3 |                     4 |                    5 |                 12 |           463 |                4 |         1473291 |                     0 |      88395572 | 2017-02-08 05:11:31.218687+01

 2017-02-08 05:24:46.823581+01 | 1486527886.82358 |                 0 |               3 |                     4 |                    5 |                 12 |           463 |                4 |         1473291 |                     0 |      88533157 | 2017-02-08 05:11:31.218687+01

 2017-02-08 05:24:48.013954+01 | 1486527888.01395 |                 0 |               3 |                     4 |                    5 |                 12 |           463 |                4 |         1473291 |                     0 |      88633212 | 2017-02-08 05:11:31.218687+01

 2017-02-08 05:24:49.152188+01 | 1486527889.15219 |                 0 |               3 |                     4 |                    5 |                 12 |           463 |                4 |         1473291 |                     0 |      88775648 | 2017-02-08 05:11:31.218687+01

 2017-02-08 05:24:50.281361+01 | 1486527890.28136 |                 0 |               3 |                     4 |                    5 |                 12 |           463 |                4 |         1473291 |                     0 |      88896709 | 2017-02-08 05:11:31.218687+01

 2017-02-08 05:24:51.459011+01 | 1486527891.45901 |                 0 |               3 |                     4 |                    5 |                 12 |           463 |                4 |         1473291 |                     0 |      89027349 | 2017-02-08 05:11:31.218687+01

 2017-02-08 05:24:52.656261+01 | 1486527892.65626 |                 0 |               3 |                     4 |                    5 |                 12 |           463 |                4 |         1473291 |                     0 |      89171656 | 2017-02-08 05:11:31.218687+01

 2017-02-08 05:24:53.7914+01 | 1486527893.7914 |                 0 |               3 |                     4 |                    5 |                 12 |           463 |                4 |         1473291 |                     0 |      89291864 | 2017-02-08 05:11:31.218687+01

 2017-02-08 05:24:54.907435+01 | 1486527894.90743 |                 0 |               3 |                     4 |                    5 |                 12 |           463 |                4 |         1473291 |                     0 |      89417957 | 2017-02-08 05:11:31.218687+01

 2017-02-08 05:24:56.089006+01 | 1486527896.08901 |                 0 |               3 |                     4 |                    5 |                 12 |           463 |                4 |         1473291 |                     0 |      89559180 | 2017-02-08 05:11:31.218687+01

 2017-02-08 05:24:57.28568+01 | 1486527897.28568 |                 0 |               3 |                     4 |                    5 |                 12 |           463 |                4 |         1473291 |                     0 |      89679311 | 2017-02-08 05:11:31.218687+01

 2017-02-08 05:24:58.439405+01 | 1486527898.4394 |                 0 |               3 |                     4 |                    5 |                 12 |           463 |                4 |         1473291 |                     0 |      89823106 | 2017-02-08 05:11:31.218687+01

 2017-02-08 05:24:59.619314+01 | 1486527899.61931 |                 0 |               3 |                     4 |                    5 |                 12 |           463 |                4 |         1473291 |                     0 |      89963591 | 2017-02-08 05:11:31.218687+01

 2017-02-08 05:25:00.815724+01 | 1486527900.81572 |                 0 |               3 |                     4 |                    5 |                 12 |           463 |                4 |         1473291 |                     0 |      90107743 | 2017-02-08 05:11:31.218687+01

 2017-02-08 05:25:01.97923+01 | 1486527901.97923 |                 0 |               3 |                     4 |                    5 |                 12 |           463 |                4 |         1473291 |                     0 |      90222258 | 2017-02-08 05:11:31.218687+01

 2017-02-08 05:25:03.100289+01 | 1486527903.10029 |                 0 |               3 |                     4 |                    5 |                 12 |           463 |                4 |         1473291 |                     0 |      90378909 | 2017-02-08 05:11:31.218687+01

 2017-02-08 05:25:04.283371+01 | 1486527904.28337 |                 0 |               3 |                     4 |                    5 |                 12 |           463 |                4 |         1473291 |                     0 |      90492213 | 2017-02-08 05:11:31.218687+01

 2017-02-08 05:25:05.475207+01 | 1486527905.47521 |                 0 |               3 |                     4 |                    5 |                 12 |           463 |                4 |         1473291 |                     0 |      90634421 | 2017-02-08 05:11:31.218687+01

 2017-02-08 05:25:06.670636+01 | 1486527906.67064 |                 0 |               3 |                     4 |                    5 |                 12 |           463 |                4 |         1473291 |                     0 |      90778772 | 2017-02-08 05:11:31.218687+01

 2017-02-08 05:25:07.839352+01 | 1486527907.83935 |                 0 |               3 |                     4 |                    5 |                 12 |           463 |                4 |         1473291 |                     0 |      90923010 | 2017-02-08 05:11:31.218687+01

 2017-02-08 05:25:09.027279+01 | 1486527909.02728 |                 0 |               3 |                     4 |                    5 |                 12 |           463 |                4 |         1473291 |                     0 |      91062316 | 2017-02-08 05:11:31.218687+01

 2017-02-08 05:25:10.211676+01 | 1486527910.21168 |                 0 |               3 |                     4 |                    5 |                 12 |           463 |                4 |         1473291 |                     0 |      91204031 | 2017-02-08 05:11:31.218687+01

 2017-02-08 05:25:11.412415+01 | 1486527911.41242 |                 0 |               3 |                     4 |                    5 |                 12 |           463 |                4 |         1473291 |                     0 |      91348076 | 2017-02-08 05:11:31.218687+01

 2017-02-08 05:25:12.589165+01 | 1486527912.58916 |                 0 |               3 |                     4 |                    5 |                 12 |           463 |                4 |         1473291 |                     0 |      91467613 | 2017-02-08 05:11:31.218687+01

 2017-02-08 05:25:13.792901+01 | 1486527913.7929 |                 0 |               3 |                     4 |                    5 |                 12 |           463 |                4 |         1473291 |                     0 |      91611935 | 2017-02-08 05:11:31.218687+01

 2017-02-08 05:25:14.955753+01 | 1486527914.95575 |                 0 |               3 |                     4 |                    5 |                 12 |           463 |                4 |         1473291 |                     0 |      91753445 | 2017-02-08 05:11:31.218687+01

 2017-02-08 05:25:16.143997+01 | 1486527916.144 |                 0 |               3 |                     4 |                    5 |                 12 |           463 |                4 |         1473291 |                     0 |      91891285 | 2017-02-08 05:11:31.218687+01

 2017-02-08 05:25:17.317435+01 | 1486527917.31744 |                 0 |               3 |                     4 |                    5 |                 12 |           463 |                4 |         1473291 |                     0 |      92035353 | 2017-02-08 05:11:31.218687+01

 2017-02-08 05:25:18.409125+01 | 1486527918.40913 |                 0 |               3 |                     4 |                    5 |                 12 |           463 |                4 |         1473291 |                     0 |      92168751 | 2017-02-08 05:11:31.218687+01

 2017-02-08 05:25:19.521515+01 | 1486527919.52151 |                 0 |               3 |                     4 |                    5 |                 12 |           463 |                4 |         1473291 |                     0 |      92280936 | 2017-02-08 05:11:31.218687+01

 2017-02-08 05:25:20.706791+01 | 1486527920.70679 |                 0 |               3 |                     4 |                    5 |                 12 |           463 |                4 |         1473291 |                     0 |      92413615 | 2017-02-08 05:11:31.218687+01

 2017-02-08 05:25:21.901936+01 | 1486527921.90194 |                 0 |               3 |                     4 |                    5 |                 12 |           463 |                4 |         1473291 |                     0 |      92557812 | 2017-02-08 05:11:31.218687+01

 2017-02-08 05:25:23.047972+01 | 1486527923.04797 |                 0 |               3 |                     4 |                    5 |                 12 |           463 |                4 |         1473291 |                     0 |      92686268 | 2017-02-08 05:11:31.218687+01

 2017-02-08 05:25:24.23144+01 | 1486527924.23144 |                 0 |               3 |                     4 |                    5 |                 12 |           463 |                4 |         1473291 |                     0 |      92797725 | 2017-02-08 05:11:31.218687+01

 2017-02-08 05:25:25.430544+01 | 1486527925.43054 |                 0 |               3 |                     4 |                    5 |                 12 |           463 |                4 |         1473291 |                     0 |      92941814 | 2017-02-08 05:11:31.218687+01

 2017-02-08 05:25:26.626935+01 | 1486527926.62694 |                 0 |               3 |                     4 |                    5 |                 12 |           463 |                4 |         1473291 |                     0 |      93085205 | 2017-02-08 05:11:31.218687+01

 2017-02-08 05:25:27.759416+01 | 1486527927.75942 |                 0 |               3 |                     4 |                    5 |                 12 |           463 |                4 |         1473291 |                     0 |      93227073 | 2017-02-08 05:11:31.218687+01

 2017-02-08 05:25:28.942713+01 | 1486527928.94271 |                 0 |               3 |                     4 |                    5 |                 12 |           463 |                4 |         1473291 |                     0 |      93355547 | 2017-02-08 05:11:31.218687+01

 2017-02-08 05:25:30.14205+01 | 1486527930.14205 |                 0 |               3 |                     4 |                    5 |                 12 |           463 |                4 |         1473291 |                     0 |      93475950 | 2017-02-08 05:11:31.218687+01

 2017-02-08 05:25:31.337249+01 | 1486527931.33725 |                 0 |               3 |                     4 |                    5 |                 12 |           463 |                4 |         1473291 |                     0 |      93620117 | 2017-02-08 05:11:31.218687+01

 2017-02-08 05:25:32.473695+01 | 1486527932.4737 |                 0 |               3 |                     4 |                    5 |                 12 |           463 |                4 |         1473291 |                     0 |      93755192 | 2017-02-08 05:11:31.218687+01

 2017-02-08 05:25:33.649149+01 | 1486527933.64915 |                 0 |               3 |                     4 |                    5 |                 12 |           463 |                4 |         1473291 |                     0 |      93895425 | 2017-02-08 05:11:31.218687+01

 2017-02-08 05:25:34.834791+01 | 1486527934.83479 |                 0 |               3 |                     4 |                    5 |                 12 |           463 |                4 |         1473291 |                     0 |      94039293 | 2017-02-08 05:11:31.218687+01

 2017-02-08 05:25:35.946072+01 | 1486527935.94607 |                 0 |               3 |                     4 |                    5 |                 12 |           463 |                4 |         1473291 |                     0 |      94170108 | 2017-02-08 05:11:31.218687+01

 2017-02-08 05:25:37.052417+01 | 1486527937.05242 |                 0 |               3 |                     4 |                    5 |                 12 |           463 |                4 |         1473291 |                     0 |      94270033 | 2017-02-08 05:11:31.218687+01

 2017-02-08 05:25:38.211673+01 | 1486527938.21167 |                 0 |               3 |                     4 |                    5 |                 12 |           463 |                4 |         1473291 |                     0 |      94394873 | 2017-02-08 05:11:31.218687+01

 2017-02-08 05:25:39.388117+01 | 1486527939.38812 |                 0 |               3 |                     4 |                    5 |                 12 |           463 |                4 |         1473291 |                     0 |      94511750 | 2017-02-08 05:11:31.218687+01

 2017-02-08 05:25:40.570483+01 | 1486527940.57048 |                 0 |               3 |                     4 |                    5 |                 12 |           463 |                4 |         1473291 |                     0 |      94653612 | 2017-02-08 05:11:31.218687+01

 2017-02-08 05:25:41.772753+01 | 1486527941.77275 |                 0 |               3 |                     4 |                    5 |                 12 |           463 |                4 |         1473291 |                     0 |      94797769 | 2017-02-08 05:11:31.218687+01

 2017-02-08 05:25:42.967853+01 | 1486527942.96785 |                 0 |               3 |                     4 |                    5 |                 12 |           463 |                4 |         1473291 |                     0 |      94941957 | 2017-02-08 05:11:31.218687+01

 2017-02-08 05:25:44.165543+01 | 1486527944.16554 |                 0 |               3 |                     4 |                    5 |                 12 |           463 |                4 |         1473291 |                     0 |      95085697 | 2017-02-08 05:11:31.218687+01

 2017-02-08 05:25:45.351506+01 | 1486527945.35151 |                 0 |               3 |                     4 |                    5 |                 12 |           463 |                4 |         1473291 |                     0 |      95229441 | 2017-02-08 05:11:31.218687+01

 2017-02-08 05:25:46.545345+01 | 1486527946.54535 |                 0 |               3 |                     4 |                    5 |                 12 |           463 |                4 |         1473291 |                     0 |      95373361 | 2017-02-08 05:11:31.218687+01

 2017-02-08 05:25:47.718981+01 | 1486527947.71898 |                 0 |               3 |                     4 |                    5 |                 12 |           463 |                4 |         1473291 |                     0 |      95508807 | 2017-02-08 05:11:31.218687+01

 2017-02-08 05:25:48.915597+01 | 1486527948.9156 |                 0 |               3 |                     4 |                    5 |                 12 |           463 |                4 |         1473291 |                     0 |      95652973 | 2017-02-08 05:11:31.218687+01

 2017-02-08 05:25:50.1101+01 | 1486527950.1101 |                 0 |               3 |                     4 |                    5 |                 12 |           463 |                4 |         1473291 |                     0 |      95796762 | 2017-02-08 05:11:31.218687+01

 2017-02-08 05:25:51.300369+01 | 1486527951.30037 |                 0 |               3 |                     4 |                    5 |                 12 |           463 |                4 |         1473291 |                     0 |      95940885 | 2017-02-08 05:11:31.218687+01

 2017-02-08 05:25:52.479219+01 | 1486527952.47922 |                 0 |               3 |                     4 |                    5 |                 12 |           463 |                4 |         1473291 |                     0 |      96060382 | 2017-02-08 05:11:31.218687+01

 2017-02-08 05:25:53.678969+01 | 1486527953.67897 |                 0 |               3 |                     4 |                    5 |                 12 |           463 |                4 |         1473291 |                     0 |      96204588 | 2017-02-08 05:11:31.218687+01

 2017-02-08 05:25:54.874508+01 | 1486527954.87451 |                 0 |               3 |                     4 |                    5 |                 12 |           463 |                4 |         1473291 |                     0 |      96348896 | 2017-02-08 05:11:31.218687+01

 2017-02-08 05:25:56.048864+01 | 1486527956.04886 |                 0 |               3 |                     4 |                    5 |                 12 |           463 |                4 |         1473291 |                     0 |      96493159 | 2017-02-08 05:11:31.218687+01

 2017-02-08 05:25:57.229547+01 | 1486527957.22955 |                 0 |               3 |                     4 |                    5 |                 12 |           463 |                4 |         1473291 |                     0 |      96632398 | 2017-02-08 05:11:31.218687+01

 2017-02-08 05:25:58.41233+01 | 1486527958.41233 |                 0 |               3 |                     4 |                    5 |                 12 |           463 |                4 |         1473291 |                     0 |      96773852 | 2017-02-08 05:11:31.218687+01

 2017-02-08 05:25:59.514997+01 | 1486527959.515 |                 0 |               3 |                     4 |                    5 |                 12 |           463 |                4 |         1473291 |                     0 |      96898654 | 2017-02-08 05:11:31.218687+01

 2017-02-08 05:26:00.69884+01 | 1486527960.69884 |                 0 |               3 |                     4 |                    5 |                 12 |           463 |                4 |         1473291 |                     0 |      97001781 | 2017-02-08 05:11:31.218687+01

 2017-02-08 05:26:01.875803+01 | 1486527961.8758 |                 0 |               3 |                     4 |                    5 |                 12 |           463 |                4 |         1473291 |                     0 |      97145297 | 2017-02-08 05:11:31.218687+01

 2017-02-08 05:26:03.069283+01 | 1486527963.06928 |                 0 |               3 |                     4 |                    5 |                 12 |           463 |                4 |         1473291 |                     0 |      97289561 | 2017-02-08 05:11:31.218687+01

 2017-02-08 05:26:04.26145+01 | 1486527964.26145 |                 0 |               3 |                     4 |                    5 |                 12 |           463 |                4 |         1473291 |                     0 |      97433892 | 2017-02-08 05:11:31.218687+01

 2017-02-08 05:26:05.458544+01 | 1486527965.45854 |                 0 |               3 |                     4 |                    5 |                 12 |           463 |                4 |         1473291 |                     0 |      97578492 | 2017-02-08 05:11:31.218687+01

 2017-02-08 05:26:06.651234+01 | 1486527966.65123 |                 0 |               3 |                     4 |                    5 |                 12 |           463 |                4 |         1473291 |                     0 |      97722457 | 2017-02-08 05:11:31.218687+01

 2017-02-08 05:26:07.794154+01 | 1486527967.79415 |                 0 |               3 |                     4 |                    5 |                 12 |           463 |                4 |         1473291 |                     0 |      97866527 | 2017-02-08 05:11:31.218687+01

 2017-02-08 05:26:08.976622+01 | 1486527968.97662 |                 0 |               3 |                     4 |                    5 |                 12 |           463 |                4 |         1473291 |                     0 |      97972179 | 2017-02-08 05:11:31.218687+01

 2017-02-08 05:26:10.172851+01 | 1486527970.17285 |                 0 |               3 |                     4 |                    5 |                 12 |           463 |                4 |         1473291 |                     0 |      98115935 | 2017-02-08 05:11:31.218687+01

 2017-02-08 05:26:11.307403+01 | 1486527971.3074 |                 0 |               3 |                     4 |                    5 |                 12 |           463 |                4 |         1473291 |                     0 |      98260060 | 2017-02-08 05:11:31.218687+01

 2017-02-08 05:26:12.396584+01 | 1486527972.39658 |                 0 |               3 |                     4 |                    5 |                 12 |           463 |                4 |         1473291 |                     0 |      98362757 | 2017-02-08 05:11:31.218687+01

 2017-02-08 05:26:13.503798+01 | 1486527973.5038 |                 0 |               3 |                     4 |                    5 |                 12 |           463 |                4 |         1473291 |                     0 |      98490505 | 2017-02-08 05:11:31.218687+01

 2017-02-08 05:26:14.685755+01 | 1486527974.68576 |                 0 |               3 |                     4 |                    5 |                 12 |           463 |                4 |         1473291 |                     0 |      98594079 | 2017-02-08 05:11:31.218687+01

 2017-02-08 05:26:15.883047+01 | 1486527975.88305 |                 0 |               3 |                     4 |                    5 |                 12 |           463 |                4 |         1473291 |                     0 |      98737101 | 2017-02-08 05:11:31.218687+01

 2017-02-08 05:26:17.081154+01 | 1486527977.08115 |                 0 |               3 |                     4 |                    5 |                 12 |           463 |                4 |         1473291 |                     0 |      98875297 | 2017-02-08 05:11:31.218687+01

 2017-02-08 05:26:18.275832+01 | 1486527978.27583 |                 0 |               3 |                     4 |                    5 |                 12 |           463 |                4 |         1473291 |                     0 |      99018888 | 2017-02-08 05:11:31.218687+01

 2017-02-08 05:26:19.438998+01 | 1486527979.439 |                 0 |               3 |                     4 |                    5 |                 12 |           463 |                4 |         1473291 |                     0 |      99157755 | 2017-02-08 05:11:31.218687+01

 2017-02-08 05:26:20.627223+01 | 1486527980.62722 |                 0 |               3 |                     4 |                    5 |                 12 |           463 |                4 |         1473291 |                     0 |      99299595 | 2017-02-08 05:11:31.218687+01

 2017-02-08 05:26:21.825379+01 | 1486527981.82538 |                 0 |               3 |                     4 |                    5 |                 12 |           463 |                4 |         1473291 |                     0 |      99443862 | 2017-02-08 05:11:31.218687+01

 2017-02-08 05:26:23.019524+01 | 1486527983.01952 |                 0 |               3 |                     4 |                    5 |                 12 |           463 |                4 |         1473291 |                     0 |      99578229 | 2017-02-08 05:11:31.218687+01

 2017-02-08 05:26:24.192981+01 | 1486527984.19298 |                 0 |               3 |                     4 |                    5 |                 12 |           463 |                4 |         1473291 |                     0 |      99722435 | 2017-02-08 05:11:31.218687+01

 2017-02-08 05:26:25.349873+01 | 1486527985.34987 |                 0 |               3 |                     4 |                    5 |                 12 |           463 |                4 |         1473291 |                     0 |      99834990 | 2017-02-08 05:11:31.218687+01

 2017-02-08 05:26:26.538278+01 | 1486527986.53828 |                 0 |               3 |                     4 |                    5 |                 12 |           463 |                4 |         1473291 |                     0 |      99972198 | 2017-02-08 05:11:31.218687+01

 2017-02-08 05:26:27.734694+01 | 1486527987.73469 |                 0 |               3 |                     4 |                    5 |                 12 |           463 |                4 |         1473291 |                     0 |     100110521 | 2017-02-08 05:11:31.218687+01

 2017-02-08 05:26:28.933483+01 | 1486527988.93348 |                 0 |               3 |                     4 |                    5 |                 12 |           463 |                4 |         1473291 |                     0 |     100249957 | 2017-02-08 05:11:31.218687+01

 2017-02-08 05:26:30.126317+01 | 1486527990.12632 |                 0 |               3 |                     4 |                    5 |                 12 |           463 |                4 |         1473291 |                     0 |     100394010 | 2017-02-08 05:11:31.218687+01

 2017-02-08 05:26:31.320707+01 | 1486527991.32071 |                 0 |               3 |                     4 |                    5 |                 12 |           463 |                4 |         1473291 |                     0 |     100537916 | 2017-02-08 05:11:31.218687+01

 2017-02-08 05:26:32.467423+01 | 1486527992.46742 |                 0 |               3 |                     4 |                    5 |                 12 |           463 |                4 |         1473291 |                     0 |     100674549 | 2017-02-08 05:11:31.218687+01

 2017-02-08 05:26:33.580294+01 | 1486527993.58029 |                 0 |               3 |                     4 |                    5 |                 12 |           463 |                4 |         1473291 |                     0 |     100797683 | 2017-02-08 05:11:31.218687+01

 2017-02-08 05:26:34.733728+01 | 1486527994.73373 |                 0 |               3 |                     4 |                    5 |                 12 |           463 |                4 |         1473291 |                     0 |     100893802 | 2017-02-08 05:11:31.218687+01

 2017-02-08 05:26:35.916688+01 | 1486527995.91669 |                 0 |               3 |                     4 |                    5 |                 12 |           463 |                4 |         1473291 |                     0 |     101035448 | 2017-02-08 05:11:31.218687+01

 2017-02-08 05:26:37.098962+01 | 1486527997.09896 |                 0 |               3 |                     4 |                    5 |                 12 |           463 |                4 |         1473291 |                     0 |     101179072 | 2017-02-08 05:11:31.218687+01

 2017-02-08 05:26:38.231323+01 | 1486527998.23132 |                 0 |               3 |                     4 |                    5 |                 12 |           463 |                4 |         1473291 |                     0 |     101308616 | 2017-02-08 05:11:31.218687+01

 2017-02-08 05:26:39.360362+01 | 1486527999.36036 |                 0 |               3 |                     4 |                    5 |                 12 |           463 |                4 |         1473291 |                     0 |     101421333 | 2017-02-08 05:11:31.218687+01

 2017-02-08 05:26:40.469393+01 | 1486528000.46939 |                 0 |               3 |                     4 |                    5 |                 12 |           463 |                4 |         1473291 |                     0 |     101548291 | 2017-02-08 05:11:31.218687+01

 2017-02-08 05:26:41.581213+01 | 1486528001.58121 |                 0 |               3 |                     4 |                    5 |                 12 |           463 |                4 |         1473291 |                     0 |     101662016 | 2017-02-08 05:11:31.218687+01

 2017-02-08 05:26:42.753225+01 | 1486528002.75323 |                 0 |               3 |                     4 |                    5 |                 12 |           463 |                4 |         1473291 |                     0 |     101791676 | 2017-02-08 05:11:31.218687+01

 2017-02-08 05:26:43.950362+01 | 1486528003.95036 |                 0 |               3 |                     4 |                    5 |                 12 |           463 |                4 |         1473291 |                     0 |     101936110 | 2017-02-08 05:11:31.218687+01

 2017-02-08 05:26:45.141944+01 | 1486528005.14194 |                 0 |               3 |                     4 |                    5 |                 12 |           463 |                4 |         1473291 |                     0 |     102080477 | 2017-02-08 05:11:31.218687+01

 2017-02-08 05:26:46.337124+01 | 1486528006.33712 |                 0 |               3 |                     4 |                    5 |                 12 |           463 |                4 |         1473291 |                     0 |     102225134 | 2017-02-08 05:11:31.218687+01

 2017-02-08 05:26:47.532416+01 | 1486528007.53242 |                 0 |               3 |                     4 |                    5 |                 12 |           463 |                4 |         1473291 |                     0 |     102345071 | 2017-02-08 05:11:31.218687+01

 2017-02-08 05:26:48.666339+01 | 1486528008.66634 |                 0 |               3 |                     4 |                    5 |                 12 |           463 |                4 |         1473291 |                     0 |     102488819 | 2017-02-08 05:11:31.218687+01

 2017-02-08 05:26:49.849738+01 | 1486528009.84974 |                 0 |               3 |                     4 |                    5 |                 12 |           463 |                4 |         1473291 |                     0 |     102630559 | 2017-02-08 05:11:31.218687+01

 2017-02-08 05:26:51.049648+01 | 1486528011.04965 |                 0 |               3 |                     4 |                    5 |                 12 |           463 |                4 |         1473291 |                     0 |     102774631 | 2017-02-08 05:11:31.218687+01

 2017-02-08 05:26:52.192033+01 | 1486528012.19203 |                 0 |               3 |                     4 |                    5 |                 12 |           463 |                4 |         1473291 |                     0 |     102909964 | 2017-02-08 05:11:31.218687+01

 2017-02-08 05:26:53.295996+01 | 1486528013.296 |                 0 |               3 |                     4 |                    5 |                 12 |           463 |                4 |         1473291 |                     0 |     103010074 | 2017-02-08 05:11:31.218687+01

 2017-02-08 05:26:54.437369+01 | 1486528014.43737 |                 0 |               3 |                     4 |                    5 |                 12 |           463 |                4 |         1473291 |                     0 |     103138880 | 2017-02-08 05:11:31.218687+01

 2017-02-08 05:26:55.620427+01 | 1486528015.62043 |                 0 |               3 |                     4 |                    5 |                 12 |           463 |                4 |         1473291 |                     0 |     103281825 | 2017-02-08 05:11:31.218687+01

 2017-02-08 05:26:56.816598+01 | 1486528016.8166 |                 0 |               3 |                     4 |                    5 |                 12 |           463 |                4 |         1473291 |                     0 |     103425597 | 2017-02-08 05:11:31.218687+01

 2017-02-08 05:26:58.009008+01 | 1486528018.00901 |                 0 |               3 |                     4 |                    5 |                 12 |           463 |                4 |         1473291 |                     0 |     103545627 | 2017-02-08 05:11:31.218687+01

 2017-02-08 05:26:59.190914+01 | 1486528019.19091 |                 0 |               3 |                     4 |                    5 |                 12 |           463 |                4 |         1473291 |                     0 |     103690189 | 2017-02-08 05:11:31.218687+01

 2017-02-08 05:27:00.366791+01 | 1486528020.36679 |                 0 |               3 |                     4 |                    5 |                 12 |           463 |                4 |         1473291 |                     0 |     103833260 | 2017-02-08 05:11:31.218687+01

 2017-02-08 05:27:01.564537+01 | 1486528021.56454 |                 0 |               3 |                     4 |                    5 |                 12 |           463 |                4 |         1473291 |                     0 |     103977628 | 2017-02-08 05:11:31.218687+01

 2017-02-08 05:27:02.758977+01 | 1486528022.75898 |                 0 |               3 |                     4 |                    5 |                 12 |           463 |                4 |         1473291 |                     0 |     104121600 | 2017-02-08 05:11:31.218687+01

 2017-02-08 05:27:03.953574+01 | 1486528023.95357 |                 0 |               3 |                     4 |                    5 |                 12 |           463 |                4 |         1473291 |                     0 |     104265882 | 2017-02-08 05:11:31.218687+01

 2017-02-08 05:27:05.149783+01 | 1486528025.14978 |                 0 |               3 |                     4 |                    5 |                 12 |           463 |                4 |         1473291 |                     0 |     104410007 | 2017-02-08 05:11:31.218687+01

 2017-02-08 05:27:06.341802+01 | 1486528026.3418 |                 0 |               3 |                     4 |                    5 |                 12 |           463 |                4 |         1473291 |                     0 |     104554162 | 2017-02-08 05:11:31.218687+01

 2017-02-08 05:27:07.505651+01 | 1486528027.50565 |                 0 |               3 |                     4 |                    5 |                 12 |           463 |                4 |         1473291 |                     0 |     104697749 | 2017-02-08 05:11:31.218687+01

 2017-02-08 05:27:08.657693+01 | 1486528028.65769 |                 0 |               3 |                     4 |                    5 |                 12 |           463 |                4 |         1473291 |                     0 |     104816511 | 2017-02-08 05:11:31.218687+01

 2017-02-08 05:27:09.795762+01 | 1486528029.79576 |                 0 |               3 |                     4 |                    5 |                 12 |           463 |                4 |         1473291 |                     0 |     104955334 | 2017-02-08 05:11:31.218687+01

 2017-02-08 05:27:10.989442+01 | 1486528030.98944 |                 0 |               3 |                     4 |                    5 |                 12 |           463 |                4 |         1473291 |                     0 |     105095422 | 2017-02-08 05:11:31.218687+01

 2017-02-08 05:27:12.18695+01 | 1486528032.18695 |                 0 |               3 |                     4 |                    5 |                 12 |           463 |                4 |         1473291 |                     0 |     105239426 | 2017-02-08 05:11:31.218687+01

 2017-02-08 05:27:13.377099+01 | 1486528033.3771 |                 0 |               3 |                     4 |                    5 |                 12 |           463 |                4 |         1473291 |                     0 |     105383890 | 2017-02-08 05:11:31.218687+01

 2017-02-08 05:27:14.572787+01 | 1486528034.57279 |                 0 |               3 |                     4 |                    5 |                 12 |           463 |                4 |         1473291 |                     0 |     105527814 | 2017-02-08 05:11:31.218687+01

 2017-02-08 05:27:15.769893+01 | 1486528035.76989 |                 0 |               3 |                     4 |                    5 |                 12 |           463 |                4 |         1473291 |                     0 |     105671312 | 2017-02-08 05:11:31.218687+01

 2017-02-08 05:27:16.96468+01 | 1486528036.96468 |                 0 |               3 |                     4 |                    5 |                 12 |           463 |                4 |         1473291 |                     0 |     105791358 | 2017-02-08 05:11:31.218687+01

 2017-02-08 05:27:18.163703+01 | 1486528038.1637 |                 0 |               3 |                     4 |                    5 |                 12 |           463 |                4 |         1473291 |                     0 |     105934873 | 2017-02-08 05:11:31.218687+01

 2017-02-08 05:27:19.346292+01 | 1486528039.34629 |                 0 |               3 |                     4 |                    5 |                 12 |           463 |                4 |         1473291 |                     0 |     106078871 | 2017-02-08 05:11:31.218687+01

 2017-02-08 05:27:20.480373+01 | 1486528040.48037 |                 0 |               3 |                     4 |                    5 |                 12 |           463 |                4 |         1473291 |                     0 |     106221670 | 2017-02-08 05:11:31.218687+01

 2017-02-08 05:27:21.656841+01 | 1486528041.65684 |                 0 |               3 |                     4 |                    5 |                 12 |           463 |                4 |         1473291 |                     0 |     106364242 | 2017-02-08 05:11:31.218687+01

