 2017-02-08 05:22:22.031515+01 | 1486527742.03151 | 0/E7D923B0               |            3889767344

 2017-02-08 05:22:23.090158+01 | 1486527743.09016 | 0/E7D923B0               |            3889767344

 2017-02-08 05:22:24.243136+01 | 1486527744.24314 | 0/E7D923B0               |            3889767344

 2017-02-08 05:22:25.435568+01 | 1486527745.43557 | 0/E7D923B0               |            3889767344

 2017-02-08 05:22:26.627931+01 | 1486527746.62793 | 0/E7D923B0               |            3889767344

 2017-02-08 05:22:27.820641+01 | 1486527747.82064 | 0/E7D923B0               |            3889767344

 2017-02-08 05:22:29.01021+01 | 1486527749.01021 | 0/E7D923B0               |            3889767344

 2017-02-08 05:22:30.213634+01 | 1486527750.21363 | 0/E7D923B0               |            3889767344

 2017-02-08 05:22:31.410223+01 | 1486527751.41022 | 0/E7D923B0               |            3889767344

 2017-02-08 05:22:32.546797+01 | 1486527752.5468 | 0/E7D923B0               |            3889767344

 2017-02-08 05:22:33.742947+01 | 1486527753.74295 | 0/E7D923B0               |            3889767344

 2017-02-08 05:22:34.924646+01 | 1486527754.92465 | 0/E7D923B0               |            3889767344

 2017-02-08 05:22:36.065311+01 | 1486527756.06531 | 0/E7D923B0               |            3889767344

 2017-02-08 05:22:37.262048+01 | 1486527757.26205 | 0/E7D923E8               |            3889767400

 2017-02-08 05:22:38.458356+01 | 1486527758.45836 | 0/E7D923E8               |            3889767400

 2017-02-08 05:22:39.653253+01 | 1486527759.65325 | 0/E7D923E8               |            3889767400

 2017-02-08 05:22:40.816428+01 | 1486527760.81643 | 0/E7D923E8               |            3889767400

 2017-02-08 05:22:42.013294+01 | 1486527762.01329 | 0/E7D923E8               |            3889767400

 2017-02-08 05:22:43.209461+01 | 1486527763.20946 | 0/E7D923E8               |            3889767400

 2017-02-08 05:22:44.407899+01 | 1486527764.4079 | 0/E7D923E8               |            3889767400

 2017-02-08 05:22:45.60326+01 | 1486527765.60326 | 0/E7D923E8               |            3889767400

 2017-02-08 05:22:46.726302+01 | 1486527766.7263 | 0/E7D923E8               |            3889767400

 2017-02-08 05:22:47.841981+01 | 1486527767.84198 | 0/E7D923E8               |            3889767400

 2017-02-08 05:22:49.000307+01 | 1486527769.00031 | 0/E7D923E8               |            3889767400

 2017-02-08 05:22:50.150367+01 | 1486527770.15037 | 0/E7D923E8               |            3889767400

 2017-02-08 05:22:51.217314+01 | 1486527771.21731 | 0/E7D923E8               |            3889767400

 2017-02-08 05:22:52.366884+01 | 1486527772.36688 | 0/E7D923E8               |            3889767400

 2017-02-08 05:22:53.521367+01 | 1486527773.52137 | 0/E7D923E8               |            3889767400

 2017-02-08 05:22:54.684093+01 | 1486527774.68409 | 0/E7D923E8               |            3889767400

 2017-02-08 05:22:55.847268+01 | 1486527775.84727 | 0/E7D923E8               |            3889767400

 2017-02-08 05:22:56.981395+01 | 1486527776.9814 | 0/E7D923E8               |            3889767400

 2017-02-08 05:22:58.126525+01 | 1486527778.12652 | 0/E7D923E8               |            3889767400

 2017-02-08 05:22:59.327433+01 | 1486527779.32743 | 0/E7D923E8               |            3889767400

 2017-02-08 05:23:00.513048+01 | 1486527780.51305 | 0/E7D923E8               |            3889767400

 2017-02-08 05:23:01.64123+01 | 1486527781.64123 | 0/E7D923E8               |            3889767400

 2017-02-08 05:23:02.74677+01 | 1486527782.74677 | 0/E7D923E8               |            3889767400

 2017-02-08 05:23:03.945856+01 | 1486527783.94586 | 0/E7D923E8               |            3889767400

 2017-02-08 05:23:05.145724+01 | 1486527785.14572 | 0/E7D923E8               |            3889767400

 2017-02-08 05:23:06.342292+01 | 1486527786.34229 | 0/E7D923E8               |            3889767400

 2017-02-08 05:23:07.540384+01 | 1486527787.54038 | 0/E7D923E8               |            3889767400

 2017-02-08 05:23:08.736996+01 | 1486527788.737 | 0/E7D923E8               |            3889767400

 2017-02-08 05:23:09.931369+01 | 1486527789.93137 | 0/E7D923E8               |            3889767400

 2017-02-08 05:23:11.045843+01 | 1486527791.04584 | 0/E7D923E8               |            3889767400

 2017-02-08 05:23:12.233982+01 | 1486527792.23398 | 0/E7D923E8               |            3889767400

 2017-02-08 05:23:13.431902+01 | 1486527793.4319 | 0/E7D923E8               |            3889767400

 2017-02-08 05:23:14.628746+01 | 1486527794.62875 | 0/E7D923E8               |            3889767400

 2017-02-08 05:23:15.794486+01 | 1486527795.79449 | 0/E7D923E8               |            3889767400

 2017-02-08 05:23:16.926736+01 | 1486527796.92674 | 0/E7D923E8               |            3889767400

 2017-02-08 05:23:18.038599+01 | 1486527798.0386 | 0/E7D923E8               |            3889767400

 2017-02-08 05:23:19.182972+01 | 1486527799.18297 | 0/E7D923E8               |            3889767400

 2017-02-08 05:23:20.37683+01 | 1486527800.37683 | 0/E7D923E8               |            3889767400

 2017-02-08 05:23:21.555655+01 | 1486527801.55566 | 0/E7D923E8               |            3889767400

 2017-02-08 05:23:22.725957+01 | 1486527802.72596 | 0/E7D923E8               |            3889767400

 2017-02-08 05:23:23.921657+01 | 1486527803.92166 | 0/E7D923E8               |            3889767400

 2017-02-08 05:23:25.117788+01 | 1486527805.11779 | 0/E7D923E8               |            3889767400

 2017-02-08 05:23:26.318379+01 | 1486527806.31838 | 0/E7D923E8               |            3889767400

 2017-02-08 05:23:27.519257+01 | 1486527807.51926 | 0/E7D923E8               |            3889767400

 2017-02-08 05:23:28.696159+01 | 1486527808.69616 | 0/E7D923E8               |            3889767400

 2017-02-08 05:23:29.819782+01 | 1486527809.81978 | 0/E7D923E8               |            3889767400

 2017-02-08 05:23:31.008401+01 | 1486527811.0084 | 0/E7D923E8               |            3889767400

 2017-02-08 05:23:32.155876+01 | 1486527812.15588 | 0/E7D923E8               |            3889767400

 2017-02-08 05:23:33.317682+01 | 1486527813.31768 | 0/E7D923E8               |            3889767400

 2017-02-08 05:23:34.44003+01 | 1486527814.44003 | 0/E7D923E8               |            3889767400

 2017-02-08 05:23:35.63277+01 | 1486527815.63277 | 0/E7D923E8               |            3889767400

 2017-02-08 05:23:36.816337+01 | 1486527816.81634 | 0/E7D923E8               |            3889767400

 2017-02-08 05:23:37.92321+01 | 1486527817.92321 | 0/E7D923E8               |            3889767400

 2017-02-08 05:23:39.081411+01 | 1486527819.08141 | 0/E7D923E8               |            3889767400

 2017-02-08 05:23:40.281498+01 | 1486527820.2815 | 0/E7D923E8               |            3889767400

 2017-02-08 05:23:41.466507+01 | 1486527821.46651 | 0/E7D923E8               |            3889767400

 2017-02-08 05:23:42.621208+01 | 1486527822.62121 | 0/E7D923E8               |            3889767400

 2017-02-08 05:23:43.732801+01 | 1486527823.7328 | 0/E7D923E8               |            3889767400

 2017-02-08 05:23:44.859176+01 | 1486527824.85918 | 0/E7D923E8               |            3889767400

 2017-02-08 05:23:45.994949+01 | 1486527825.99495 | 0/E7D923E8               |            3889767400

 2017-02-08 05:23:47.155221+01 | 1486527827.15522 | 0/E7D923E8               |            3889767400

 2017-02-08 05:23:48.302023+01 | 1486527828.30202 | 0/E7D923E8               |            3889767400

 2017-02-08 05:23:49.501916+01 | 1486527829.50192 | 0/E7D923E8               |            3889767400

 2017-02-08 05:23:50.694705+01 | 1486527830.69471 | 0/E7D923E8               |            3889767400

 2017-02-08 05:23:51.889431+01 | 1486527831.88943 | 0/E7D923E8               |            3889767400

 2017-02-08 05:23:53.083522+01 | 1486527833.08352 | 0/E7D923E8               |            3889767400

 2017-02-08 05:23:54.228036+01 | 1486527834.22804 | 0/E7D923E8               |            3889767400

 2017-02-08 05:23:55.427984+01 | 1486527835.42798 | 0/E7D923E8               |            3889767400

 2017-02-08 05:23:56.563054+01 | 1486527836.56305 | 0/E7D923E8               |            3889767400

 2017-02-08 05:23:57.680808+01 | 1486527837.68081 | 0/E7D923E8               |            3889767400

 2017-02-08 05:23:58.804662+01 | 1486527838.80466 | 0/E7D923E8               |            3889767400

 2017-02-08 05:23:59.998345+01 | 1486527839.99834 | 0/E7D923E8               |            3889767400

 2017-02-08 05:24:01.127184+01 | 1486527841.12718 | 0/E7D923E8               |            3889767400

 2017-02-08 05:24:02.311413+01 | 1486527842.31141 | 0/E7D923E8               |            3889767400

 2017-02-08 05:24:03.459314+01 | 1486527843.45931 | 0/E7D923E8               |            3889767400

 2017-02-08 05:24:04.571346+01 | 1486527844.57135 | 0/E7D923E8               |            3889767400

 2017-02-08 05:24:05.707249+01 | 1486527845.70725 | 0/E7D923E8               |            3889767400

 2017-02-08 05:24:06.830502+01 | 1486527846.8305 | 0/E7D923E8               |            3889767400

 2017-02-08 05:24:07.99595+01 | 1486527847.99595 | 0/E7D923E8               |            3889767400

 2017-02-08 05:24:09.12353+01 | 1486527849.12353 | 0/E7D923E8               |            3889767400

 2017-02-08 05:24:10.318292+01 | 1486527850.31829 | 0/E7D923E8               |            3889767400

 2017-02-08 05:24:11.510102+01 | 1486527851.5101 | 0/E7D923E8               |            3889767400

 2017-02-08 05:24:12.703817+01 | 1486527852.70382 | 0/E7D923E8               |            3889767400

 2017-02-08 05:24:13.900909+01 | 1486527853.90091 | 0/E7D923E8               |            3889767400

 2017-02-08 05:24:15.102213+01 | 1486527855.10221 | 0/E7D923E8               |            3889767400

 2017-02-08 05:24:16.294538+01 | 1486527856.29454 | 0/E7D923E8               |            3889767400

 2017-02-08 05:24:17.470059+01 | 1486527857.47006 | 0/E7D923E8               |            3889767400

 2017-02-08 05:24:18.593674+01 | 1486527858.59367 | 0/E7D923E8               |            3889767400

 2017-02-08 05:24:19.692275+01 | 1486527859.69228 | 0/E7D923E8               |            3889767400

 2017-02-08 05:24:20.854063+01 | 1486527860.85406 | 0/E7D923E8               |            3889767400

 2017-02-08 05:24:22.049178+01 | 1486527862.04918 | 0/E7D923E8               |            3889767400

 2017-02-08 05:24:23.243762+01 | 1486527863.24376 | 0/E7D923E8               |            3889767400

 2017-02-08 05:24:24.447711+01 | 1486527864.44771 | 0/E7D923E8               |            3889767400

 2017-02-08 05:24:25.641794+01 | 1486527865.64179 | 0/E7D923E8               |            3889767400

 2017-02-08 05:24:26.793214+01 | 1486527866.79321 | 0/E7D923E8               |            3889767400

 2017-02-08 05:24:27.933728+01 | 1486527867.93373 | 0/E7D923E8               |            3889767400

 2017-02-08 05:24:29.11715+01 | 1486527869.11715 | 0/E7D923E8               |            3889767400

 2017-02-08 05:24:30.290221+01 | 1486527870.29022 | 0/E7D923E8               |            3889767400

 2017-02-08 05:24:31.487167+01 | 1486527871.48717 | 0/E7D923E8               |            3889767400

 2017-02-08 05:24:32.649024+01 | 1486527872.64902 | 0/E7D923E8               |            3889767400

 2017-02-08 05:24:33.746349+01 | 1486527873.74635 | 0/E7D923E8               |            3889767400

 2017-02-08 05:24:34.940866+01 | 1486527874.94087 | 0/E7D923E8               |            3889767400

 2017-02-08 05:24:36.140767+01 | 1486527876.14077 | 0/E7D923E8               |            3889767400

 2017-02-08 05:24:37.340379+01 | 1486527877.34038 | 0/E7D923E8               |            3889767400

 2017-02-08 05:24:38.536327+01 | 1486527878.53633 | 0/E7D923E8               |            3889767400

 2017-02-08 05:24:39.736728+01 | 1486527879.73673 | 0/E7D923E8               |            3889767400

 2017-02-08 05:24:40.935845+01 | 1486527880.93584 | 0/E7D923E8               |            3889767400

 2017-02-08 05:24:42.077565+01 | 1486527882.07756 | 0/E7D923E8               |            3889767400

 2017-02-08 05:24:43.197253+01 | 1486527883.19725 | 0/E7D923E8               |            3889767400

 2017-02-08 05:24:44.392701+01 | 1486527884.3927 | 0/E7D923E8               |            3889767400

 2017-02-08 05:24:45.539791+01 | 1486527885.53979 | 0/E7D923E8               |            3889767400

 2017-02-08 05:24:46.727505+01 | 1486527886.7275 | 0/E7D923E8               |            3889767400

 2017-02-08 05:24:47.86453+01 | 1486527887.86453 | 0/E7D923E8               |            3889767400

 2017-02-08 05:24:49.046839+01 | 1486527889.04684 | 0/E7D923E8               |            3889767400

 2017-02-08 05:24:50.191072+01 | 1486527890.19107 | 0/E7D923E8               |            3889767400

 2017-02-08 05:24:51.306922+01 | 1486527891.30692 | 0/E7D923E8               |            3889767400

 2017-02-08 05:24:52.505827+01 | 1486527892.50583 | 0/E7D923E8               |            3889767400

 2017-02-08 05:24:53.692244+01 | 1486527893.69224 | 0/E7D923E8               |            3889767400

 2017-02-08 05:24:54.815126+01 | 1486527894.81513 | 0/E7D923E8               |            3889767400

 2017-02-08 05:24:55.938071+01 | 1486527895.93807 | 0/E7D923E8               |            3889767400

 2017-02-08 05:24:57.136002+01 | 1486527897.136 | 0/E7D923E8               |            3889767400

 2017-02-08 05:24:58.331195+01 | 1486527898.3312 | 0/E7D923E8               |            3889767400

 2017-02-08 05:24:59.469246+01 | 1486527899.46925 | 0/E7D923E8               |            3889767400

 2017-02-08 05:25:00.666433+01 | 1486527900.66643 | 0/E7D923E8               |            3889767400

 2017-02-08 05:25:01.853935+01 | 1486527901.85394 | 0/E7D923E8               |            3889767400

 2017-02-08 05:25:03.004659+01 | 1486527903.00466 | 0/E7D923E8               |            3889767400

 2017-02-08 05:25:04.141346+01 | 1486527904.14135 | 0/E7D923E8               |            3889767400

 2017-02-08 05:25:05.324374+01 | 1486527905.32437 | 0/E7D923E8               |            3889767400

 2017-02-08 05:25:06.522014+01 | 1486527906.52201 | 0/E7D923E8               |            3889767400

 2017-02-08 05:25:07.717546+01 | 1486527907.71755 | 0/E7D923E8               |            3889767400

 2017-02-08 05:25:08.882723+01 | 1486527908.88272 | 0/E7D923E8               |            3889767400

 2017-02-08 05:25:10.063215+01 | 1486527910.06322 | 0/E7D923E8               |            3889767400

 2017-02-08 05:25:11.258569+01 | 1486527911.25857 | 0/E7D923E8               |            3889767400

 2017-02-08 05:25:12.437881+01 | 1486527912.43788 | 0/E7D923E8               |            3889767400

 2017-02-08 05:25:13.636346+01 | 1486527913.63635 | 0/E7D923E8               |            3889767400

 2017-02-08 05:25:14.839955+01 | 1486527914.83996 | 0/E7D923E8               |            3889767400

 2017-02-08 05:25:15.994682+01 | 1486527915.99468 | 0/E7D923E8               |            3889767400

 2017-02-08 05:25:17.191055+01 | 1486527917.19106 | 0/E7D923E8               |            3889767400

 2017-02-08 05:25:18.33881+01 | 1486527918.33881 | 0/E7D923E8               |            3889767400

 2017-02-08 05:25:19.424003+01 | 1486527919.424 | 0/E7D923E8               |            3889767400

 2017-02-08 05:25:20.557302+01 | 1486527920.5573 | 0/E7D923E8               |            3889767400

 2017-02-08 05:25:21.753524+01 | 1486527921.75352 | 0/E7D923E8               |            3889767400

 2017-02-08 05:25:22.94529+01 | 1486527922.94529 | 0/E7D923E8               |            3889767400

 2017-02-08 05:25:24.082898+01 | 1486527924.0829 | 0/E7D923E8               |            3889767400

 2017-02-08 05:25:25.278539+01 | 1486527925.27854 | 0/E7D923E8               |            3889767400

 2017-02-08 05:25:26.475456+01 | 1486527926.47546 | 0/E7D923E8               |            3889767400

 2017-02-08 05:25:27.673109+01 | 1486527927.67311 | 0/E7D923E8               |            3889767400

 2017-02-08 05:25:28.790262+01 | 1486527928.79026 | 0/E7D923E8               |            3889767400

 2017-02-08 05:25:29.98954+01 | 1486527929.98954 | 0/E7D923E8               |            3889767400

 2017-02-08 05:25:31.18835+01 | 1486527931.18835 | 0/E7D923E8               |            3889767400

 2017-02-08 05:25:32.373198+01 | 1486527932.3732 | 0/E7D923E8               |            3889767400

 2017-02-08 05:25:33.498637+01 | 1486527933.49864 | 0/E7D923E8               |            3889767400

 2017-02-08 05:25:34.696205+01 | 1486527934.6962 | 0/E7D923E8               |            3889767400

 2017-02-08 05:25:35.875931+01 | 1486527935.87593 | 0/E7D923E8               |            3889767400

 2017-02-08 05:25:36.967434+01 | 1486527936.96743 | 0/E7D923E8               |            3889767400

 2017-02-08 05:25:38.079634+01 | 1486527938.07963 | 0/E7D923E8               |            3889767400

 2017-02-08 05:25:39.252413+01 | 1486527939.25241 | 0/E7D923E8               |            3889767400

 2017-02-08 05:25:40.424852+01 | 1486527940.42485 | 0/E7D923E8               |            3889767400

 2017-02-08 05:25:41.617527+01 | 1486527941.61753 | 0/E7D923E8               |            3889767400

 2017-02-08 05:25:42.819358+01 | 1486527942.81936 | 0/E7D923E8               |            3889767400

 2017-02-08 05:25:44.012938+01 | 1486527944.01294 | 0/E7D923E8               |            3889767400

 2017-02-08 05:25:45.201839+01 | 1486527945.20184 | 0/E7D923E8               |            3889767400

 2017-02-08 05:25:46.397083+01 | 1486527946.39708 | 0/E7D923E8               |            3889767400

 2017-02-08 05:25:47.586168+01 | 1486527947.58617 | 0/E7D923E8               |            3889767400

 2017-02-08 05:25:48.765709+01 | 1486527948.76571 | 0/E7D923E8               |            3889767400

 2017-02-08 05:25:49.962859+01 | 1486527949.96286 | 0/E7D923E8               |            3889767400

 2017-02-08 05:25:51.15732+01 | 1486527951.15732 | 0/E7D923E8               |            3889767400

 2017-02-08 05:25:52.329905+01 | 1486527952.32991 | 0/E7D923E8               |            3889767400

 2017-02-08 05:25:53.525936+01 | 1486527953.52594 | 0/E7D923E8               |            3889767400

 2017-02-08 05:25:54.725688+01 | 1486527954.72569 | 0/E7D923E8               |            3889767400

 2017-02-08 05:25:55.919426+01 | 1486527955.91943 | 0/E7D923E8               |            3889767400

 2017-02-08 05:25:57.078665+01 | 1486527957.07867 | 0/E7D923E8               |            3889767400

 2017-02-08 05:25:58.276979+01 | 1486527958.27698 | 0/E7D923E8               |            3889767400

 2017-02-08 05:25:59.443897+01 | 1486527959.4439 | 0/E7D923E8               |            3889767400

 2017-02-08 05:26:00.547503+01 | 1486527960.5475 | 0/E7D923E8               |            3889767400

 2017-02-08 05:26:01.736363+01 | 1486527961.73636 | 0/E7D923E8               |            3889767400

 2017-02-08 05:26:02.920856+01 | 1486527962.92086 | 0/E7D923E8               |            3889767400

 2017-02-08 05:26:04.11624+01 | 1486527964.11624 | 0/E7D923E8               |            3889767400

 2017-02-08 05:26:05.308443+01 | 1486527965.30844 | 0/E7D923E8               |            3889767400

 2017-02-08 05:26:06.501714+01 | 1486527966.50171 | 0/E7D923E8               |            3889767400

 2017-02-08 05:26:07.698288+01 | 1486527967.69829 | 0/E7D923E8               |            3889767400

 2017-02-08 05:26:08.826195+01 | 1486527968.8262 | 0/E7D923E8               |            3889767400

 2017-02-08 05:26:10.024444+01 | 1486527970.02444 | 0/E7D923E8               |            3889767400

 2017-02-08 05:26:11.218895+01 | 1486527971.21889 | 0/E7D923E8               |            3889767400

 2017-02-08 05:26:12.327931+01 | 1486527972.32793 | 0/E7D923E8               |            3889767400

 2017-02-08 05:26:13.416186+01 | 1486527973.41619 | 0/E7D923E8               |            3889767400

 2017-02-08 05:26:14.544722+01 | 1486527974.54472 | 0/E7D923E8               |            3889767400

 2017-02-08 05:26:15.732586+01 | 1486527975.73259 | 0/E7D923E8               |            3889767400

 2017-02-08 05:26:16.930287+01 | 1486527976.93029 | 0/E7D923E8               |            3889767400

 2017-02-08 05:26:18.128367+01 | 1486527978.12837 | 0/E7D923E8               |            3889767400

 2017-02-08 05:26:19.312309+01 | 1486527979.31231 | 0/E7D923E8               |            3889767400

 2017-02-08 05:26:20.477482+01 | 1486527980.47748 | 0/E7D923E8               |            3889767400

 2017-02-08 05:26:21.672476+01 | 1486527981.67248 | 0/E7D923E8               |            3889767400

 2017-02-08 05:26:22.872295+01 | 1486527982.87229 | 0/E7D923E8               |            3889767400

 2017-02-08 05:26:24.066495+01 | 1486527984.06649 | 0/E7D923E8               |            3889767400

 2017-02-08 05:26:25.222231+01 | 1486527985.22223 | 0/E7D923E8               |            3889767400

 2017-02-08 05:26:26.388274+01 | 1486527986.38827 | 0/E7D923E8               |            3889767400

 2017-02-08 05:26:27.586963+01 | 1486527987.58696 | 0/E7D923E8               |            3889767400

 2017-02-08 05:26:28.781619+01 | 1486527988.78162 | 0/E7D923E8               |            3889767400

 2017-02-08 05:26:29.980616+01 | 1486527989.98062 | 0/E7D923E8               |            3889767400

 2017-02-08 05:26:31.171005+01 | 1486527991.17101 | 0/E7D923E8               |            3889767400

 2017-02-08 05:26:32.358572+01 | 1486527992.35857 | 0/E7D923E8               |            3889767400

 2017-02-08 05:26:33.490818+01 | 1486527993.49082 | 0/E7D923E8               |            3889767400

 2017-02-08 05:26:34.612955+01 | 1486527994.61296 | 0/E7D923E8               |            3889767400

 2017-02-08 05:26:35.76767+01 | 1486527995.76767 | 0/E7D923E8               |            3889767400

 2017-02-08 05:26:36.963473+01 | 1486527996.96347 | 0/E7D923E8               |            3889767400

 2017-02-08 05:26:38.132327+01 | 1486527998.13233 | 0/E7D923E8               |            3889767400

 2017-02-08 05:26:39.263289+01 | 1486527999.26329 | 0/E7D923E8               |            3889767400

 2017-02-08 05:26:40.37597+01 | 1486528000.37597 | 0/E7D923E8               |            3889767400

 2017-02-08 05:26:41.494813+01 | 1486528001.49481 | 0/E7D923E8               |            3889767400

 2017-02-08 05:26:42.605911+01 | 1486528002.60591 | 0/E7D923E8               |            3889767400

 2017-02-08 05:26:43.799975+01 | 1486528003.79997 | 0/E7D923E8               |            3889767400

 2017-02-08 05:26:44.997309+01 | 1486528004.99731 | 0/E7D923E8               |            3889767400

 2017-02-08 05:26:46.189465+01 | 1486528006.18947 | 0/E7D923E8               |            3889767400

 2017-02-08 05:26:47.384043+01 | 1486528007.38404 | 0/E7D923E8               |            3889767400

 2017-02-08 05:26:48.571209+01 | 1486528008.57121 | 0/E7D923E8               |            3889767400

 2017-02-08 05:26:49.697227+01 | 1486528009.69723 | 0/E7D923E8               |            3889767400

 2017-02-08 05:26:50.896743+01 | 1486528010.89674 | 0/E7D923E8               |            3889767400

 2017-02-08 05:26:52.085221+01 | 1486528012.08522 | 0/E7D923E8               |            3889767400

 2017-02-08 05:26:53.218193+01 | 1486528013.21819 | 0/E7D923E8               |            3889767400

 2017-02-08 05:26:54.318646+01 | 1486528014.31865 | 0/E7D923E8               |            3889767400

 2017-02-08 05:26:55.472288+01 | 1486528015.47229 | 0/E7D923E8               |            3889767400

 2017-02-08 05:26:56.665594+01 | 1486528016.66559 | 0/E7D923E8               |            3889767400

 2017-02-08 05:26:57.8616+01 | 1486528017.8616 | 0/E7D923E8               |            3889767400

 2017-02-08 05:26:59.055758+01 | 1486528019.05576 | 0/E7D923E8               |            3889767400

 2017-02-08 05:27:00.215744+01 | 1486528020.21574 | 0/E7D923E8               |            3889767400

 2017-02-08 05:27:01.413844+01 | 1486528021.41384 | 0/E7D923E8               |            3889767400

 2017-02-08 05:27:02.611362+01 | 1486528022.61136 | 0/E7D923E8               |            3889767400

 2017-02-08 05:27:03.80632+01 | 1486528023.80632 | 0/E7D923E8               |            3889767400

 2017-02-08 05:27:05.001256+01 | 1486528025.00126 | 0/E7D923E8               |            3889767400

 2017-02-08 05:27:06.196201+01 | 1486528026.1962 | 0/E7D923E8               |            3889767400

 2017-02-08 05:27:07.390444+01 | 1486528027.39044 | 0/E7D923E8               |            3889767400

 2017-02-08 05:27:08.536971+01 | 1486528028.53697 | 0/E7D923E8               |            3889767400

 2017-02-08 05:27:09.679256+01 | 1486528029.67926 | 0/E7D923E8               |            3889767400

 2017-02-08 05:27:10.838577+01 | 1486528030.83858 | 0/E7D923E8               |            3889767400

 2017-02-08 05:27:12.037608+01 | 1486528032.03761 | 0/E7D923E8               |            3889767400

 2017-02-08 05:27:13.234172+01 | 1486528033.23417 | 0/E7D923E8               |            3889767400

 2017-02-08 05:27:14.424386+01 | 1486528034.42439 | 0/E7D923E8               |            3889767400

 2017-02-08 05:27:15.619623+01 | 1486528035.61962 | 0/E7D923E8               |            3889767400

 2017-02-08 05:27:16.816846+01 | 1486528036.81685 | 0/E7D923E8               |            3889767400

 2017-02-08 05:27:18.011758+01 | 1486528038.01176 | 0/E7D923E8               |            3889767400

 2017-02-08 05:27:19.203674+01 | 1486528039.20367 | 0/E7D923E8               |            3889767400

 2017-02-08 05:27:20.371154+01 | 1486528040.37115 | 0/E7D923E8               |            3889767400

 2017-02-08 05:27:21.509989+01 | 1486528041.50999 | 0/E7D923E8               |            3889767400

