 2017-02-10 13:54:44.765239+01 | 1486731284.76524 | 2/C23653B8               |           11848274872

 2017-02-10 13:54:45.831433+01 | 1486731285.83143 | 2/C8323520               |           11948668192

 2017-02-10 13:54:46.902886+01 | 1486731286.90289 | 2/CBDA8958               |           12010031448

 2017-02-10 13:54:47.979108+01 | 1486731287.97911 | 2/CE510AB0               |           12051352240

 2017-02-10 13:54:49.061564+01 | 1486731289.06156 | 2/D01FD338               |           12081681208

 2017-02-10 13:54:50.133638+01 | 1486731290.13364 | 2/D18DDCA0               |           12105669792

 2017-02-10 13:54:51.227532+01 | 1486731291.22753 | 2/D2CEAF70               |           12126695280

 2017-02-10 13:54:52.330459+01 | 1486731292.33046 | 2/D3E35868               |           12144826472

 2017-02-10 13:54:53.405244+01 | 1486731293.40524 | 2/D4D6F430               |           12160791600

 2017-02-10 13:54:54.477634+01 | 1486731294.47763 | 2/D5B98518               |           12175639832

 2017-02-10 13:54:55.565249+01 | 1486731295.56525 | 2/D6959610               |           12190062096

 2017-02-10 13:54:56.647557+01 | 1486731296.64756 | 2/D761B268               |           12203438696

 2017-02-10 13:54:57.738997+01 | 1486731297.739 | 2/D8192160               |           12215460192

 2017-02-10 13:54:58.819116+01 | 1486731298.81912 | 2/D8C50CE0               |           12226727136

 2017-02-10 13:54:59.895874+01 | 1486731299.89587 | 2/D97573E0               |           12238287840

 2017-02-10 13:55:00.979261+01 | 1486731300.97926 | 2/DA159E08               |           12248784392

 2017-02-10 13:55:02.066839+01 | 1486731302.06684 | 2/DAE77538               |           12262536504

 2017-02-10 13:55:03.130541+01 | 1486731303.13054 | 2/DC3C72C0               |           12284883648

 2017-02-10 13:55:04.203799+01 | 1486731304.2038 | 2/DDB26550               |           12309390672

 2017-02-10 13:55:05.285355+01 | 1486731305.28536 | 2/DF0FBC60               |           12332285024

 2017-02-10 13:55:06.353067+01 | 1486731306.35307 | 2/E05238C8               |           12353419464

 2017-02-10 13:55:07.447151+01 | 1486731307.44715 | 2/E13E3220               |           12368884256

 2017-02-10 13:55:08.542858+01 | 1486731308.54286 | 2/E226EAD0               |           12384135888

 2017-02-10 13:55:09.643778+01 | 1486731309.64378 | 2/E2B22C20               |           12393262112

 2017-02-10 13:55:10.743621+01 | 1486731310.74362 | 2/E3204398               |           12400477080

 2017-02-10 13:55:11.850495+01 | 1486731311.8505 | 2/E38C1F20               |           12407545632

 2017-02-10 13:55:12.927439+01 | 1486731312.92744 | 2/E3F269B0               |           12414249392

 2017-02-10 13:55:14.005767+01 | 1486731314.00577 | 2/E4568340               |           12420809536

 2017-02-10 13:55:15.099543+01 | 1486731315.09954 | 2/E4BA97E8               |           12427368424

 2017-02-10 13:55:16.182497+01 | 1486731316.1825 | 2/E51A5E40               |           12433645120

 2017-02-10 13:55:17.279263+01 | 1486731317.27926 | 2/E57C2C50               |           12440054864

 2017-02-10 13:55:18.35365+01 | 1486731318.35365 | 2/E5DEE150               |           12446523728

 2017-02-10 13:55:19.43102+01 | 1486731319.43102 | 2/E6405540               |           12452910400

 2017-02-10 13:55:20.524783+01 | 1486731320.52478 | 2/E6A1AC20               |           12459289632

 2017-02-10 13:55:21.604677+01 | 1486731321.60468 | 2/E700D8E8               |           12465527016

 2017-02-10 13:55:22.688306+01 | 1486731322.68831 | 2/E760DC18               |           12471819288

 2017-02-10 13:55:23.765976+01 | 1486731323.76598 | 2/E7C01318               |           12478059288

 2017-02-10 13:55:24.863166+01 | 1486731324.86317 | 2/E81FD518               |           12484334872

 2017-02-10 13:55:25.940855+01 | 1486731325.94086 | 2/E882F050               |           12490829904

 2017-02-10 13:55:27.03336+01 | 1486731327.03336 | 2/E8E48B30               |           12497226544

 2017-02-10 13:55:28.121432+01 | 1486731328.12143 | 2/E9426128               |           12503376168

 2017-02-10 13:55:29.218602+01 | 1486731329.2186 | 2/E9A34EC8               |           12509728456

 2017-02-10 13:55:30.308813+01 | 1486731330.30881 | 2/EA00D880               |           12515858560

 2017-02-10 13:55:31.411803+01 | 1486731331.4118 | 2/EA64B110               |           12522402064

 2017-02-10 13:55:32.507713+01 | 1486731332.50771 | 2/EAC60F40               |           12528783168

 2017-02-10 13:55:33.606804+01 | 1486731333.6068 | 2/EB251FF0               |           12535013360

 2017-02-10 13:55:34.702437+01 | 1486731334.70244 | 2/EB856D08               |           12541324552

 2017-02-10 13:55:35.783424+01 | 1486731335.78342 | 2/EBE15FB8               |           12547350456

 2017-02-10 13:55:36.872374+01 | 1486731336.87237 | 2/EC3F15F8               |           12553491960

 2017-02-10 13:55:37.985397+01 | 1486731337.9854 | 2/ECA239F8               |           12559989240

 2017-02-10 13:55:39.062677+01 | 1486731339.06268 | 2/ED01AFA8               |           12566245288

 2017-02-10 13:55:40.142773+01 | 1486731340.14277 | 2/ED5FDD40               |           12572417344

 2017-02-10 13:55:41.239226+01 | 1486731341.23923 | 2/EDC0C698               |           12578768536

 2017-02-10 13:55:42.327687+01 | 1486731342.32769 | 2/EE20C750               |           12585060176

 2017-02-10 13:55:43.429972+01 | 1486731343.42997 | 2/EE81CE28               |           12591418920

 2017-02-10 13:55:44.498665+01 | 1486731344.49867 | 2/EEDD8C10               |           12597431312

 2017-02-10 13:55:45.587076+01 | 1486731345.58708 | 2/EF3BB938               |           12603603256

 2017-02-10 13:55:46.665509+01 | 1486731346.66551 | 2/EF97D5F0               |           12609639920

 2017-02-10 13:55:47.74916+01 | 1486731347.74916 | 2/EFF60D88               |           12615814536

 2017-02-10 13:55:48.832503+01 | 1486731348.8325 | 2/F0522BB0               |           12621851568

 2017-02-10 13:55:49.918663+01 | 1486731349.91866 | 2/F0B0DC20               |           12628057120

 2017-02-10 13:55:51.007184+01 | 1486731351.00718 | 2/F10D3F00               |           12634111744

 2017-02-10 13:55:52.11144+01 | 1486731352.11144 | 2/F16C0318               |           12640322328

 2017-02-10 13:55:53.18974+01 | 1486731353.18974 | 2/F1CBAA78               |           12646591096

 2017-02-10 13:55:54.284709+01 | 1486731354.28471 | 2/F22A1CA0               |           12652780704

 2017-02-10 13:55:55.367905+01 | 1486731355.3679 | 2/F2874F28               |           12658888488

 2017-02-10 13:55:56.453494+01 | 1486731356.45349 | 2/F2E45790               |           12664985488

 2017-02-10 13:55:57.542512+01 | 1486731357.54251 | 2/F34369D0               |           12671216080

 2017-02-10 13:55:58.615527+01 | 1486731358.61553 | 2/F3A11B20               |           12677356320

 2017-02-10 13:55:59.679979+01 | 1486731359.67998 | 2/F3FB87C8               |           12683282376

 2017-02-10 13:56:00.756131+01 | 1486731360.75613 | 2/F457B720               |           12689323808

 2017-02-10 13:56:01.864441+01 | 1486731361.86444 | 2/F4C3AFA0               |           12696399776

 2017-02-10 13:56:02.967197+01 | 1486731362.9672 | 2/F5370A30               |           12703959600

 2017-02-10 13:56:04.060157+01 | 1486731364.06016 | 2/F59ABEF0               |           12710493936

 2017-02-10 13:56:05.148889+01 | 1486731365.14889 | 2/F5F64AA8               |           12716493480

 2017-02-10 13:56:06.234678+01 | 1486731366.23468 | 2/F6614AC0               |           12723505856

 2017-02-10 13:56:07.32505+01 | 1486731367.32505 | 2/F6C7D358               |           12730225496

 2017-02-10 13:56:08.431989+01 | 1486731368.43199 | 2/F7226A40               |           12736162368

 2017-02-10 13:56:09.504923+01 | 1486731369.50492 | 2/F78010B0               |           12742299824

 2017-02-10 13:56:10.58831+01 | 1486731370.58831 | 2/F7DB8D88               |           12748295560

 2017-02-10 13:56:11.682122+01 | 1486731371.68212 | 2/F839B0C8               |           12754466000

 2017-02-10 13:56:12.768211+01 | 1486731372.76821 | 2/F8938CB0               |           12760353968

 2017-02-10 13:56:13.862323+01 | 1486731373.86232 | 2/F8ECD030               |           12766203952

 2017-02-10 13:56:14.969837+01 | 1486731374.96984 | 2/F94A34A8               |           12772324520

 2017-02-10 13:56:16.067517+01 | 1486731376.06752 | 2/F9A46FA0               |           12778237856

 2017-02-10 13:56:17.150052+01 | 1486731377.15005 | 2/F9FEADE8               |           12784152040

 2017-02-10 13:56:18.234309+01 | 1486731378.23431 | 2/FA5A8E08               |           12790173192

 2017-02-10 13:56:19.318843+01 | 1486731379.31884 | 2/FAB3FE10               |           12796034576

 2017-02-10 13:56:20.379311+01 | 1486731380.37931 | 2/FB0BD018               |           12801789976

 2017-02-10 13:56:21.460419+01 | 1486731381.46042 | 2/FB61FE40               |           12807437888

 2017-02-10 13:56:22.572434+01 | 1486731382.57243 | 2/FBBF9C08               |           12813573128

 2017-02-10 13:56:23.674617+01 | 1486731383.67462 | 2/FC1CDFA8               |           12819685288

 2017-02-10 13:56:24.765811+01 | 1486731384.76581 | 2/FC7761B0               |           12825616816

 2017-02-10 13:56:25.850848+01 | 1486731385.85085 | 2/FCCF7528               |           12831388968

 2017-02-10 13:56:26.953253+01 | 1486731386.95325 | 2/FD293C78               |           12837272696

 2017-02-10 13:56:28.036183+01 | 1486731388.03618 | 2/FD817158               |           12843053400

 2017-02-10 13:56:29.11225+01 | 1486731389.11225 | 2/FDD88538               |           12848760120

 2017-02-10 13:56:30.188513+01 | 1486731390.18851 | 2/FE31BE78               |           12854607480

 2017-02-10 13:56:31.284878+01 | 1486731391.28488 | 2/FE8B1160               |           12860461408

 2017-02-10 13:56:32.361642+01 | 1486731392.36164 | 2/FEE2BE68               |           12866207336

 2017-02-10 13:56:33.447096+01 | 1486731393.4471 | 2/FF3A7A80               |           12871957120

 2017-02-10 13:56:34.541735+01 | 1486731394.54173 | 2/FF92EF40               |           12877754176

 2017-02-10 13:56:35.621946+01 | 1486731395.62195 | 2/FFE9AF28               |           12883439400

 2017-02-10 13:56:36.702261+01 | 1486731396.70226 | 3/4161D8                 |           12889186776

 2017-02-10 13:56:37.795464+01 | 1486731397.79546 | 3/937190                 |           12894564752

 2017-02-10 13:56:38.888751+01 | 1486731398.88875 | 3/EAA468                 |           12900279400

 2017-02-10 13:56:39.953683+01 | 1486731399.95368 | 3/13FBA50                |           12905855568

 2017-02-10 13:56:41.043231+01 | 1486731401.04323 | 3/197C128                |           12911624488

 2017-02-10 13:56:42.123107+01 | 1486731402.12311 | 3/1EEA620                |           12917319200

 2017-02-10 13:56:43.21086+01 | 1486731403.21086 | 3/24702A0                |           12923110048

 2017-02-10 13:56:44.280182+01 | 1486731404.28018 | 3/29F8FA8                |           12928913320

 2017-02-10 13:56:45.360598+01 | 1486731405.3606 | 3/2F60650                |           12934579792

 2017-02-10 13:56:46.433325+01 | 1486731406.43333 | 3/34E8228                |           12940378664

 2017-02-10 13:56:47.509415+01 | 1486731407.50941 | 3/3A65EF0                |           12946136816

 2017-02-10 13:56:48.591312+01 | 1486731408.59131 | 3/3FDDFC8                |           12951871432

 2017-02-10 13:56:49.692514+01 | 1486731409.69251 | 3/454DBB8                |           12957572024

 2017-02-10 13:56:50.773662+01 | 1486731410.77366 | 3/4AB5838                |           12963239992

 2017-02-10 13:56:51.840201+01 | 1486731411.8402 | 3/4FB46E8                |           12968478440

 2017-02-10 13:56:52.917434+01 | 1486731412.91743 | 3/5515020                |           12974116896

 2017-02-10 13:56:54.016285+01 | 1486731414.01628 | 3/5AA1C30                |           12979936304

 2017-02-10 13:56:55.087195+01 | 1486731415.08719 | 3/600CC30                |           12985617456

 2017-02-10 13:56:56.165555+01 | 1486731416.16556 | 3/6574B18                |           12991286040

 2017-02-10 13:56:57.262823+01 | 1486731417.26282 | 3/6B04328                |           12997116712

 2017-02-10 13:56:58.347963+01 | 1486731418.34796 | 3/709BF78                |           13002981240

 2017-02-10 13:56:59.441415+01 | 1486731419.44142 | 3/7606878                |           13008660600

 2017-02-10 13:57:00.515389+01 | 1486731420.51539 | 3/7B5D248                |           13014258248

 2017-02-10 13:57:01.619796+01 | 1486731421.6198 | 3/817BEF0                |           13020675824

 2017-02-10 13:57:02.699867+01 | 1486731422.69987 | 3/884B2B0                |           13027816112

 2017-02-10 13:57:03.790779+01 | 1486731423.79078 | 3/8E694F8                |           13034231032

 2017-02-10 13:57:04.870174+01 | 1486731424.87017 | 3/93D1D38                |           13039902008

 2017-02-10 13:57:05.961184+01 | 1486731425.96118 | 3/99F43D8                |           13046334424

 2017-02-10 13:57:07.046271+01 | 1486731427.04627 | 3/9F874B8                |           13052179640

 2017-02-10 13:57:08.138134+01 | 1486731428.13813 | 3/A538560                |           13058147680

 2017-02-10 13:57:09.268664+01 | 1486731429.26866 | 3/AB12930                |           13064284464

 2017-02-10 13:57:10.335862+01 | 1486731430.33586 | 3/B0758D0                |           13069932752

 2017-02-10 13:57:11.404174+01 | 1486731431.40417 | 3/B5D2540                |           13075555648

 2017-02-10 13:57:12.487675+01 | 1486731432.48767 | 3/BB4FF18                |           13081313048

 2017-02-10 13:57:13.565226+01 | 1486731433.56523 | 3/C0C44A0                |           13087032480

 2017-02-10 13:57:14.645533+01 | 1486731434.64553 | 3/C61DED8                |           13092642520

 2017-02-10 13:57:15.732821+01 | 1486731435.73282 | 3/CB984B0                |           13098386608

 2017-02-10 13:57:16.803683+01 | 1486731436.80368 | 3/D0FB8A0                |           13104036000

 2017-02-10 13:57:17.89001+01 | 1486731437.89001 | 3/D65A7B0                |           13109667760

 2017-02-10 13:57:18.970499+01 | 1486731438.9705 | 3/DBA0E10                |           13115198992

 2017-02-10 13:57:20.055319+01 | 1486731440.05532 | 3/E11C428                |           13120947240

 2017-02-10 13:57:21.142964+01 | 1486731441.14296 | 3/E69F7E0                |           13126727648

 2017-02-10 13:57:22.24107+01 | 1486731442.24107 | 3/EC41A80                |           13132634752

 2017-02-10 13:57:23.316601+01 | 1486731443.3166 | 3/F1861C8                |           13138158024

 2017-02-10 13:57:24.382969+01 | 1486731444.38297 | 3/F6C67C0                |           13143664576

 2017-02-10 13:57:25.453554+01 | 1486731445.45355 | 3/FC23C20                |           13149289504

 2017-02-10 13:57:26.540236+01 | 1486731446.54024 | 3/101A59D8               |           13155064280

 2017-02-10 13:57:27.627088+01 | 1486731447.62709 | 3/1071EA70               |           13160802928

 2017-02-10 13:57:28.704284+01 | 1486731448.70428 | 3/10C75020               |           13166399520

 2017-02-10 13:57:29.781247+01 | 1486731449.78125 | 3/111BFFD8               |           13171949528

 2017-02-10 13:57:30.83751+01 | 1486731450.83751 | 3/116EE1C8               |           13177381320

 2017-02-10 13:57:31.90289+01 | 1486731451.90289 | 3/11C06948               |           13182724424

 2017-02-10 13:57:32.979879+01 | 1486731452.97988 | 3/121399E0               |           13188176352

 2017-02-10 13:57:34.059731+01 | 1486731454.05973 | 3/1268F228               |           13193769512

 2017-02-10 13:57:35.156969+01 | 1486731455.15697 | 3/12BE4A38               |           13199362616

 2017-02-10 13:57:36.243072+01 | 1486731456.24307 | 3/131377E8               |           13204944872

 2017-02-10 13:57:37.318836+01 | 1486731457.31884 | 3/136A1C70               |           13210623088

 2017-02-10 13:57:38.416097+01 | 1486731458.4161 | 3/13C1C860               |           13216368736

 2017-02-10 13:57:39.485915+01 | 1486731459.48591 | 3/14166D88               |           13221916040

 2017-02-10 13:57:40.574743+01 | 1486731460.57474 | 3/146CB788               |           13227571080

 2017-02-10 13:57:41.678834+01 | 1486731461.67883 | 3/14C02130               |           13233037616

 2017-02-10 13:57:42.765359+01 | 1486731462.76536 | 3/1517D1D8               |           13238784472

 2017-02-10 13:57:43.838577+01 | 1486731463.83858 | 3/156D4BF8               |           13244386296

 2017-02-10 13:57:44.937359+01 | 1486731464.93736 | 3/15C053A8               |           13249827752

 2017-02-10 13:57:45.999093+01 | 1486731465.99909 | 3/1615A3F8               |           13255418872

 2017-02-10 13:57:47.07573+01 | 1486731467.07573 | 3/166A1198               |           13260951960

 2017-02-10 13:57:48.153231+01 | 1486731468.15323 | 3/16BEED38               |           13266513208

 2017-02-10 13:57:49.2468+01 | 1486731469.2468 | 3/1715C818               |           13272205336

 2017-02-10 13:57:50.327044+01 | 1486731470.32704 | 3/1769B388               |           13277705096

 2017-02-10 13:57:51.390619+01 | 1486731471.39062 | 3/17BC7FC8               |           13283131336

 2017-02-10 13:57:52.480535+01 | 1486731472.48054 | 3/1811E558               |           13288727896

 2017-02-10 13:57:53.556936+01 | 1486731473.55694 | 3/1863F270               |           13294105200

 2017-02-10 13:57:54.64073+01 | 1486731474.64073 | 3/18B7AE60               |           13299592800

 2017-02-10 13:57:55.709849+01 | 1486731475.70985 | 3/190BC760               |           13305104224

 2017-02-10 13:57:56.787224+01 | 1486731476.78722 | 3/195F7920               |           13310589216

 2017-02-10 13:57:57.869507+01 | 1486731477.86951 | 3/19B37FA0               |           13316095904

 2017-02-10 13:57:58.950923+01 | 1486731478.95092 | 3/1A08F590               |           13321696656

 2017-02-10 13:58:00.053527+01 | 1486731480.05353 | 3/1A5D92E8               |           13327241960

 2017-02-10 13:58:01.149305+01 | 1486731481.14931 | 3/1AB53708               |           13332985608

 2017-02-10 13:58:02.232873+01 | 1486731482.23287 | 3/1B1A1FB8               |           13339598776

 2017-02-10 13:58:03.325838+01 | 1486731483.32584 | 3/1B81F458               |           13346403416

 2017-02-10 13:58:04.410515+01 | 1486731484.41052 | 3/1BD72428               |           13351986216

 2017-02-10 13:58:05.48376+01 | 1486731485.48376 | 3/1C2DF498               |           13357675672

 2017-02-10 13:58:06.564806+01 | 1486731486.56481 | 3/1C8ED5D0               |           13364024784

 2017-02-10 13:58:07.657849+01 | 1486731487.65785 | 3/1CED1108               |           13370200328

 2017-02-10 13:58:08.732294+01 | 1486731488.73229 | 3/1D3F0E50               |           13375573584

 2017-02-10 13:58:09.814162+01 | 1486731489.81416 | 3/1D951C50               |           13381213264

 2017-02-10 13:58:10.884784+01 | 1486731490.88478 | 3/1DE8CFD0               |           13386698704

 2017-02-10 13:58:11.964159+01 | 1486731491.96416 | 3/1E3DBAE8               |           13392263912

 2017-02-10 13:58:13.05514+01 | 1486731493.05514 | 3/1E934B70               |           13397871472

 2017-02-10 13:58:14.128867+01 | 1486731494.12887 | 3/1EE7ED48               |           13403417928

 2017-02-10 13:58:15.204202+01 | 1486731495.2042 | 3/1F3DC2D0               |           13409043152

 2017-02-10 13:58:16.288913+01 | 1486731496.28891 | 3/1F93BCB0               |           13414677680

 2017-02-10 13:58:17.385762+01 | 1486731497.38576 | 3/1FE9E8A0               |           13420325024

 2017-02-10 13:58:18.444074+01 | 1486731498.44407 | 3/203D9018               |           13425807384

 2017-02-10 13:58:19.527395+01 | 1486731499.5274 | 3/20925660               |           13431363168

 2017-02-10 13:58:20.595607+01 | 1486731500.59561 | 3/20E53A88               |           13436795528

 2017-02-10 13:58:21.686393+01 | 1486731501.68639 | 3/213C1968               |           13442488680

 2017-02-10 13:58:22.761739+01 | 1486731502.76174 | 3/218E4AC8               |           13447875272

 2017-02-10 13:58:23.843632+01 | 1486731503.84363 | 3/21E2C4B8               |           13453411512

 2017-02-10 13:58:24.898727+01 | 1486731504.89873 | 3/22315558               |           13458560344

 2017-02-10 13:58:25.974108+01 | 1486731505.97411 | 3/2283ED08               |           13463973128

 2017-02-10 13:58:27.066342+01 | 1486731507.06634 | 3/22D9A848               |           13469591624

 2017-02-10 13:58:28.138799+01 | 1486731508.1388 | 3/232D23A0               |           13475062688

 2017-02-10 13:58:29.24478+01 | 1486731509.24478 | 3/23843938               |           13480769848

 2017-02-10 13:58:30.314502+01 | 1486731510.3145 | 3/23D91190               |           13486330256

 2017-02-10 13:58:31.38552+01 | 1486731511.38552 | 3/242C4698               |           13491783320

 2017-02-10 13:58:32.471394+01 | 1486731512.47139 | 3/24828270               |           13497434736

 2017-02-10 13:58:33.565054+01 | 1486731513.56505 | 3/24D825B8               |           13503047096

 2017-02-10 13:58:34.650099+01 | 1486731514.6501 | 3/252BEAB8               |           13508537016

 2017-02-10 13:58:35.750567+01 | 1486731515.75057 | 3/2583D240               |           13514297920

 2017-02-10 13:58:36.838491+01 | 1486731516.83849 | 3/25D98DA0               |           13519916448

 2017-02-10 13:58:37.920263+01 | 1486731517.92026 | 3/262D6640               |           13525411392

 2017-02-10 13:58:38.991001+01 | 1486731518.991 | 3/267FF3D8               |           13530821592

 2017-02-10 13:58:40.076626+01 | 1486731520.07663 | 3/26D26A90               |           13536225936

 2017-02-10 13:58:41.167505+01 | 1486731521.16751 | 3/27240840               |           13541574720

 2017-02-10 13:58:42.242838+01 | 1486731522.24284 | 3/2777A048               |           13547053128

 2017-02-10 13:58:43.316838+01 | 1486731523.31684 | 3/27CB5838               |           13552539704

 2017-02-10 13:58:44.407709+01 | 1486731524.40771 | 3/2821A140               |           13558194496

 2017-02-10 13:58:45.501778+01 | 1486731525.50178 | 3/28768FA0               |           13563760544

 2017-02-10 13:58:46.574639+01 | 1486731526.57464 | 3/28C7BCC0               |           13569080512

 2017-02-10 13:58:47.648542+01 | 1486731527.64854 | 3/29177C28               |           13574306856

 2017-02-10 13:58:48.729398+01 | 1486731528.7294 | 3/296ABA00               |           13579762176

 2017-02-10 13:58:49.812271+01 | 1486731529.81227 | 3/29BE04A0               |           13585220768

 2017-02-10 13:58:50.885615+01 | 1486731530.88562 | 3/2A11A680               |           13590701696

 2017-02-10 13:58:51.984175+01 | 1486731531.98417 | 3/2A675718               |           13596317464

 2017-02-10 13:58:53.076817+01 | 1486731533.07682 | 3/2ABAD7A0               |           13601789856

 2017-02-10 13:58:54.150242+01 | 1486731534.15024 | 3/2B0CCC98               |           13607160984

 2017-02-10 13:58:55.22611+01 | 1486731535.22611 | 3/2B5E4E90               |           13612502672

 2017-02-10 13:58:56.293771+01 | 1486731536.29377 | 3/2BAFCCD0               |           13617843408

 2017-02-10 13:58:57.393335+01 | 1486731537.39334 | 3/2C05D660               |           13623481952

 2017-02-10 13:58:58.485432+01 | 1486731538.48543 | 3/2C5D6B70               |           13629221744

 2017-02-10 13:58:59.57589+01 | 1486731539.57589 | 3/2CB1D960               |           13634754912

 2017-02-10 13:59:00.672945+01 | 1486731540.67295 | 3/2D07AE98               |           13640380056

 2017-02-10 13:59:01.744558+01 | 1486731541.74456 | 3/2D673BE8               |           13646642152

 2017-02-10 13:59:02.842472+01 | 1486731542.84247 | 3/2DD41838               |           13653776440

 2017-02-10 13:59:03.927342+01 | 1486731543.92734 | 3/2E30A8B8               |           13659842744

 2017-02-10 13:59:05.001561+01 | 1486731545.00156 | 3/2E845F38               |           13665328952

 2017-02-10 13:59:06.127059+01 | 1486731546.12706 | 3/2EE7F908               |           13671856392

 2017-02-10 13:59:07.200876+01 | 1486731547.20088 | 3/2F3E48E0               |           13677512928

 2017-02-10 13:59:08.286238+01 | 1486731548.28624 | 3/2F974F08               |           13683347208

 2017-02-10 13:59:09.359621+01 | 1486731549.35962 | 3/2FEFA028               |           13689135144

 2017-02-10 13:59:10.440702+01 | 1486731550.4407 | 3/30449338               |           13694702392

 2017-02-10 13:59:11.51969+01 | 1486731551.51969 | 3/309AB9E8               |           13700348392

 2017-02-10 13:59:12.618697+01 | 1486731552.6187 | 3/30F07720               |           13705967392

 2017-02-10 13:59:13.697843+01 | 1486731553.69784 | 3/3143ED98               |           13711437208

 2017-02-10 13:59:14.795138+01 | 1486731554.79514 | 3/319A7E80               |           13717110400

 2017-02-10 13:59:15.886489+01 | 1486731555.88649 | 3/31EE5308               |           13722604296

 2017-02-10 13:59:16.946093+01 | 1486731556.94609 | 3/3241A870               |           13728065648

 2017-02-10 13:59:18.040822+01 | 1486731558.04082 | 3/329761B8               |           13733683640

 2017-02-10 13:59:19.119574+01 | 1486731559.11957 | 3/32ED1B70               |           13739301744

 2017-02-10 13:59:20.207966+01 | 1486731560.20797 | 3/334202D8               |           13744866008

 2017-02-10 13:59:21.296047+01 | 1486731561.29605 | 3/33962700               |           13750380288

 2017-02-10 13:59:22.372539+01 | 1486731562.37254 | 3/33E7C0D0               |           13755728080

 2017-02-10 13:59:23.460849+01 | 1486731563.46085 | 3/343BFC20               |           13761248288

 2017-02-10 13:59:24.550784+01 | 1486731564.55078 | 3/349080B0               |           13766787248

 2017-02-10 13:59:25.610956+01 | 1486731565.61096 | 3/34E17598               |           13772092824

 2017-02-10 13:59:26.697856+01 | 1486731566.69786 | 3/35384870               |           13777782896

 2017-02-10 13:59:27.769137+01 | 1486731567.76914 | 3/358C51E8               |           13783290344

 2017-02-10 13:59:28.849774+01 | 1486731568.84977 | 3/35E22AA8               |           13788916392

 2017-02-10 13:59:29.927552+01 | 1486731569.92755 | 3/36367A98               |           13794441880

 2017-02-10 13:59:31.006407+01 | 1486731571.00641 | 3/368B1218               |           13799985688

 2017-02-10 13:59:32.071218+01 | 1486731572.07122 | 3/36DDAFE8               |           13805400040

 2017-02-10 13:59:33.163565+01 | 1486731573.16356 | 3/37327690               |           13810955920

 2017-02-10 13:59:34.266795+01 | 1486731574.26679 | 3/37876F80               |           13816524672

 2017-02-10 13:59:35.331845+01 | 1486731575.33185 | 3/37D76AF8               |           13821766392

 2017-02-10 13:59:36.418601+01 | 1486731576.4186 | 3/382B5C08               |           13827267592

 2017-02-10 13:59:37.510136+01 | 1486731577.51014 | 3/38806470               |           13832840304

 2017-02-10 13:59:38.593467+01 | 1486731578.59347 | 3/38D28BD8               |           13838224344

 2017-02-10 13:59:39.688002+01 | 1486731579.688 | 3/392707F0               |           13843761136

 2017-02-10 13:59:40.778839+01 | 1486731580.77884 | 3/39796360               |           13849158496

 2017-02-10 13:59:41.886593+01 | 1486731581.88659 | 3/39D00E38               |           13854838328

 2017-02-10 13:59:42.975012+01 | 1486731582.97501 | 3/3A2563C8               |           13860430792

 2017-02-10 13:59:44.069542+01 | 1486731584.06954 | 3/3A796CC0               |           13865938112

