1486611329.37149|||2
1486611329.48984|||5
1486611329.61837|||5
1486611329.75307|||5
1486611329.88666|||5
1486611329.99975|||5
1486611330.11318|LWLock|buffer_mapping|3
1486611330.11318|||2
1486611330.22838|||5
1486611330.3475|||5
1486611330.48225|||5
1486611330.61619|||5
1486611330.61619|Client|ClientRead|1
1486611330.74842|||5
1486611330.8821|||5
1486611331.01426|||5
1486611331.15068|||5
1486611331.2854|||5
1486611331.41776|||5
1486611331.5532|||5
1486611331.688|||5
1486611331.82114|||6
1486611331.95243|||5
1486611332.08725|||5
1486611332.22201|||5
1486611332.35694|||5
1486611332.49175|||5
1486611332.62642|||5
1486611332.76029|||5
1486611332.89406|||5
1486611333.02808|||6
1486611333.16284|||5
1486611333.29771|||5
1486611333.43252|||5
1486611333.56654|||5
1486611333.70132|||5
1486611333.83712|||5
1486611333.97188|||5
1486611334.10667|||5
1486611334.24118|Client|ClientRead|1
1486611334.24118|||5
1486611334.37541|||5
1486611334.51011|||5
1486611334.64307|||5
1486611334.77679|||5
1486611334.91187|||5
1486611335.03854|Client|ClientRead|1
1486611335.03854|||4
1486611335.15929|||3
1486611335.15929|Client|ClientRead|2
1486611335.28808|||5
1486611335.41951|||6
1486611335.55455|||5
1486611335.68941|||5
1486611335.82441|||5
1486611335.96056|||5
1486611336.09545|||5
1486611336.23037|||5
1486611336.36124|||5
1486611336.47576|||5
1486611336.60138|||5
1486611336.60138|Client|ClientRead|1
1486611336.73244|Client|ClientRead|1
1486611336.73244|||4
1486611336.85321|||4
1486611336.85321|Client|ClientRead|1
1486611336.96116|||5
1486611337.09|||4
1486611337.09|Client|ClientRead|1
1486611337.20532|Client|ClientRead|1
1486611337.20532|||4
1486611337.32018|Client|ClientRead|1
1486611337.32018|||4
1486611337.43525|||4
1486611337.43525|Client|ClientRead|1
1486611337.56693|||5
1486611337.70178|||6
1486611337.83833|||5
1486611337.97131|||5
1486611338.10617|||5
1486611338.24006|||5
1486611338.37494|||5
1486611338.50989|||5
1486611338.64469|||5
1486611338.78031|||5
1486611338.91231|||5
1486611339.04689|||5
1486611339.17904|||5
1486611339.314|||5
1486611339.44552|||5
1486611339.58051|||6
1486611339.7154|||5
1486611339.85014|||5
1486611339.98501|||5
1486611340.11973|||5
1486611340.25456|||5
1486611340.38978|||5
1486611340.52467|||5
1486611340.65955|||5
1486611340.79442|||5
1486611340.92957|||5
1486611341.06445|||5
1486611341.19866|||5
1486611341.32998|||5
1486611341.46452|||5
1486611341.5994|||5
1486611341.73419|||5
1486611341.86896|||5
1486611342.00384|||5
1486611342.13871|||5
1486611342.27355|||5
1486611342.40615|||5
1486611342.54017|||5
1486611342.67502|||5
1486611342.81004|||5
1486611342.94494|||5
1486611343.07978|||5
1486611343.21469|||5
1486611343.34959|||5
1486611343.48447|||5
1486611343.61758|||5
1486611343.74827|||4
1486611343.74827|Client|ClientRead|1
1486611343.88366|||5
1486611344.01873|||5
1486611344.1537|||5
1486611344.28876|||5
1486611344.42364|||5
1486611344.55856|||5
1486611344.69336|||5
1486611344.82768|||6
1486611344.96225|||5
1486611345.09719|||5
1486611345.2311|||5
1486611345.36598|||5
1486611345.50082|||4
1486611345.50082|Client|ClientRead|1
1486611345.61967|||5
1486611345.75452|||5
1486611345.88767|||5
1486611346.02419|||5
1486611346.1454|||4
1486611346.1454|Client|ClientRead|1
1486611346.27115|||4
1486611346.27115|Client|ClientRead|1
1486611346.38868|Client|ClientRead|2
1486611346.38868|||3
1486611346.50939|||3
1486611346.50939|Client|ClientRead|2
1486611346.6181|||4
1486611346.6181|Client|ClientRead|1
1486611346.73042|Client|ClientRead|1
1486611346.73042|||4
1486611346.85157|Client|ClientRead|1
1486611346.85157|||4
1486611346.97669|||5
1486611347.10817|||5
1486611347.10817|Client|ClientRead|1
1486611347.23644|||4
1486611347.23644|Client|ClientRead|1
1486611347.36569|||5
1486611347.49338|Client|ClientRead|1
1486611347.49338|||4
1486611347.60219|Client|ClientRead|1
1486611347.60219|||4
1486611347.71038|Client|ClientRead|1
1486611347.71038|||4
1486611347.82686|||4
1486611347.82686|Client|ClientRead|1
1486611347.94507|||3
1486611347.94507|Client|ClientRead|2
1486611348.05425|Client|ClientRead|1
1486611348.05425|||4
1486611348.17149|||4
1486611348.17149|Client|ClientRead|1
1486611348.28416|||4
1486611348.28416|Client|ClientRead|2
1486611348.40061|Client|ClientRead|1
1486611348.40061|||4
1486611348.53196|||5
1486611348.64877|Client|ClientRead|2
1486611348.64877|||3
1486611348.76667|Client|ClientRead|1
1486611348.76667|||4
1486611348.90185|||5
1486611349.0352|||5
1486611349.17003|||5
1486611349.30493|||5
1486611349.4399|||5
1486611349.57483|||5
1486611349.70973|||5
1486611349.84465|||5
1486611349.97953|||5
1486611350.11445|||5
1486611350.24672|||5
1486611350.38052|||5
1486611350.51458|||5
1486611350.64745|||5
1486611350.78191|||5
1486611350.91682|||5
1486611351.05069|||5
1486611351.18567|||5
1486611351.32052|||5
1486611351.45435|||5
1486611351.58917|||5
1486611351.72395|||5
1486611351.85742|||5
1486611351.99235|||5
1486611352.12723|||5
1486611352.26217|||5
1486611352.39705|||5
1486611352.53018|||5
1486611352.6651|||5
1486611352.80121|||5
1486611352.93677|||5
1486611353.07148|||5
1486611353.20646|||5
1486611353.34153|||5
1486611353.47641|||5
1486611353.61115|||5
1486611353.74604|||5
1486611353.87913|||5
1486611354.01413|||5
1486611354.1489|||5
1486611354.27241|||4
1486611354.27241|Client|ClientRead|1
1486611354.39031|Client|ClientRead|1
1486611354.39031|||4
1486611354.50102|||4
1486611354.50102|Client|ClientRead|1
1486611354.62081|||5
1486611354.75594|||5
1486611354.88913|||5
1486611355.02415|||5
1486611355.15793|||5
1486611355.29379|||5
1486611355.42811|||5
1486611355.56101|||5
1486611355.69591|||5
1486611355.82046|Client|ClientRead|1
1486611355.82046|||4
1486611355.95365|||5
1486611356.08739|Client|ClientRead|1
1486611356.08739|||4
1486611356.20282|||4
1486611356.20282|Client|ClientRead|1
1486611356.32978|Client|ClientRead|1
1486611356.32978|||4
1486611356.44241|Client|ClientRead|2
1486611356.44241|||4
1486611356.56522|Client|ClientRead|1
1486611356.56522|||4
1486611356.68645|Client|ClientRead|1
1486611356.68645|||4
1486611356.80568|||5
1486611356.92827|||4
1486611356.92827|Client|ClientRead|1
1486611357.04624|||5
1486611357.17391|||5
1486611357.30877|||5
1486611357.44367|||5
1486611357.57824|||5
1486611357.71346|||5
1486611357.84816|||5
1486611357.98322|||5
1486611358.11809|||5
1486611358.25434|||5
1486611358.39013|||5
1486611358.52507|||5
1486611358.65815|||5
1486611358.79329|||6
1486611358.92806|Client|ClientRead|1
1486611358.92806|||4
1486611359.04808|||4
1486611359.04808|Client|ClientRead|1
1486611359.1756|||5
1486611359.31041|||5
1486611359.44533|||5
1486611359.5802|||5
1486611359.71529|||5
1486611359.84929|||5
1486611359.98378|||5
1486611359.98378|Client|ClientRead|1
1486611360.117|||5
1486611360.25255|||5
1486611360.3874|||5
1486611360.52189|||5
1486611360.65683|||5
1486611360.79172|||5
1486611360.92668|||5
1486611361.06149|||5
1486611361.19484|||5
1486611361.32984|||5
1486611361.4647|||5
1486611361.59841|||5
1486611361.73336|||5
1486611361.86821|||5
1486611362.00192|||4
1486611362.00192|LWLock|buffer_mapping|1
1486611362.13674|||5
1486611362.27185|||5
1486611362.40668|||5
1486611362.54162|||5
1486611362.67552|Client|ClientRead|1
1486611362.67552|||4
1486611362.79078|Client|ClientRead|1
1486611362.79078|||4
1486611362.91859|Client|ClientRead|1
1486611362.91859|||4
1486611363.04392|Client|ClientRead|1
1486611363.04392|||4
1486611363.16849|||4
1486611363.16849|Client|ClientRead|1
1486611363.28689|Client|ClientRead|1
1486611363.28689|||4
1486611363.41002|Client|ClientRead|1
1486611363.41002|||4
1486611363.52469|||4
1486611363.52469|Client|ClientRead|1
1486611363.65075|||4
1486611363.65075|Client|ClientRead|1
1486611363.78547|||5
1486611363.92073|||5
1486611364.05562|||5
1486611364.19046|||5
1486611364.32552|||5
1486611364.46047|||5
1486611364.59311|||5
1486611364.70951|||4
1486611364.70951|Client|ClientRead|1
1486611364.84157|||5
1486611364.97668|||5
1486611365.11028|||5
1486611365.24494|||5
1486611365.37889|||5
1486611365.51375|||5
1486611365.64863|||5
1486611365.78372|||6
1486611365.91859|||5
1486611366.05379|||5
1486611366.1886|||5
1486611366.3244|||5
1486611366.45925|||5
1486611366.59418|||5
1486611366.72908|||5
1486611366.86136|||6
1486611366.99779|||4
1486611366.99779|LWLock|buffer_mapping|1
1486611367.13271|||5
1486611367.26879|||5
1486611367.40373|||5
1486611367.53851|||5
1486611367.67335|||5
1486611367.80842|||5
1486611367.94329|||5
1486611368.07688|||5
1486611368.07688|LWLock|buffer_mapping|1
1486611368.21007|||5
1486611368.34409|||5
1486611368.4771|||5
1486611368.61217|||5
1486611368.74604|||5
1486611368.88081|||5
1486611369.01573|||5
1486611369.14963|||5
1486611369.28617|||5
1486611369.42025|||5
1486611369.55512|||5
1486611369.68887|||5
1486611369.82289|||5
1486611369.95777|||5
1486611370.09002|||5
1486611370.22495|||5
1486611370.36002|||5
1486611370.49243|||6
1486611370.62725|||5
1486611370.76216|||5
1486611370.8972|||5
1486611371.032|||5
1486611371.16675|||5
1486611371.30163|||5
1486611371.43668|||5
1486611371.57171|||5
1486611371.70745|||5
1486611371.84047|||5
1486611371.97549|||5
1486611372.11042|||5
1486611372.24517|||5
1486611372.38038|||5
1486611372.50803|||5
1486611372.64106|||5
1486611372.77506|||6
1486611372.90841|||5
1486611373.04246|||5
1486611373.1757|||5
1486611373.31056|||5
1486611373.44549|||5
1486611373.58022|||5
1486611373.71509|||5
1486611373.84896|||5
1486611373.98414|||6
1486611374.11897|||5
1486611374.25208|||5
1486611374.38755|||5
1486611374.52141|||5
1486611374.65554|||5
1486611374.78943|||5
1486611374.92436|||5
1486611375.05824|||5
1486611375.1932|||5
1486611375.32793|||5
1486611375.4642|||5
1486611375.59902|||5
1486611375.73391|||5
1486611375.8688|||5
1486611376.00177|||5
1486611376.13667|||5
1486611376.26699|||5
1486611376.39817|Client|ClientRead|1
1486611376.39817|||5
1486611376.52987|||5
1486611376.65485|Client|ClientRead|1
1486611376.65485|||4
1486611376.77954|Client|ClientRead|2
1486611376.77954|||3
1486611376.9038|||5
1486611377.01336|Client|ClientRead|1
1486611377.01336|||4
1486611377.12722|Client|ClientRead|1
1486611377.12722|||4
1486611377.23503|Client|ClientRead|1
1486611377.23503|||4
1486611377.34828|||4
1486611377.34828|Client|ClientRead|1
1486611377.4726|Client|ClientRead|1
1486611377.4726|||5
1486611377.59103|||4
1486611377.59103|Client|ClientRead|1
1486611377.71044|||5
1486611377.82997|Client|ClientRead|1
1486611377.82997|||4
1486611377.95176|||4
1486611377.95176|Client|ClientRead|1
1486611378.0728|Client|ClientRead|1
1486611378.0728|||4
1486611378.19381|||4
1486611378.19381|Client|ClientRead|1
1486611378.31679|Client|ClientRead|1
1486611378.31679|||4
1486611378.44291|Client|ClientRead|1
1486611378.44291|||4
1486611378.57324|||5
1486611378.70424|Client|ClientRead|1
1486611378.70424|||5
1486611378.83957|||5
1486611378.97539|||5
1486611379.11033|||5
1486611379.24537|||5
1486611379.38022|||5
1486611379.51533|||5
1486611379.65018|||5
1486611379.78518|||5
1486611379.91978|||5
1486611380.0547|||5
1486611380.19025|||5
1486611380.3234|||5
1486611380.4583|||5
1486611380.59211|||5
1486611380.72698|||5
1486611380.86014|||5
1486611380.99408|||6
1486611381.12773|||5
1486611381.26258|||5
1486611381.39828|||5
1486611381.53312|||5
1486611381.66802|||5
1486611381.8029|||5
1486611381.93778|||5
1486611382.0728|||5
1486611382.20766|||5
1486611382.34273|||5
1486611382.47589|||5
1486611382.61093|||5
1486611382.74581|||5
1486611382.88067|||5
1486611383.01594|||5
1486611383.15145|||5
1486611383.28639|Client|ClientRead|1
1486611383.28639|||5
1486611383.41296|||5
1486611383.54766|||5
1486611383.6826|||5
1486611383.81768|||5
1486611383.95263|||5
1486611384.08751|||5
1486611384.22239|||5
1486611384.35707|||5
1486611384.48999|||5
1486611384.62116|||4
1486611384.62116|Client|ClientRead|1
1486611384.74033|||5
1486611384.87523|||5
1486611385.01013|||5
1486611385.14422|||5
1486611385.27901|||5
1486611385.41381|||5
1486611385.54869|||5
1486611385.68483|||6
1486611385.82117|||5
1486611385.95669|||5
1486611386.09152|||5
1486611386.22366|||5
1486611386.35863|||5
1486611386.4934|||5
1486611386.6282|||5
1486611386.76325|||6
1486611386.89678|||5
1486611387.03148|||5
1486611387.16731|||5
1486611387.30214|||5
1486611387.43524|||5
1486611387.57022|||5
1486611387.70507|||5
1486611387.84114|||5
1486611387.97642|||6
1486611388.10981|||5
1486611388.2449|||5
1486611388.37978|||5
1486611388.51471|||5
1486611388.64955|||5
1486611388.78454|||5
1486611388.91935|||5
1486611389.05428|||5
1486611389.18927|||5
1486611389.32422|||5
1486611389.45914|||5
1486611389.59236|||5
1486611389.72739|||5
1486611389.8622|||5
1486611389.99713|||5
1486611390.13206|||5
1486611390.26432|||5
1486611390.39695|||6
1486611390.53146|||5
1486611390.66481|||5
1486611390.79974|||5
1486611390.93453|||5
1486611391.0694|||5
1486611391.20441|||5
1486611391.33938|||5
1486611391.47434|||5
1486611391.60955|||5
1486611391.74469|||5
1486611391.87965|||5
1486611392.01479|||5
1486611392.14602|||5
1486611392.27988|||5
1486611392.41474|||5
1486611392.54977|||5
1486611392.68434|||6
1486611392.81907|||5
1486611392.81907|Client|ClientRead|1
1486611392.95387|||5
1486611393.08874|||5
1486611393.22451|||5
1486611393.35979|||5
1486611393.49466|||5
1486611393.62957|||5
1486611393.76529|||5
1486611393.89847|||5
1486611394.03108|||5
1486611394.16581|||5
1486611394.30073|||5
1486611394.43584|||5
1486611394.57151|||5
1486611394.70468|||5
1486611394.83973|||5
1486611394.97309|||5
1486611395.10525|||5
1486611395.23989|||5
1486611395.3751|||5
1486611395.50936|||5
1486611395.64425|||5
1486611395.77083|LWLock|buffer_mapping|1
1486611395.77083|||4
1486611395.89302|||5
1486611396.01695|||4
1486611396.01695|Client|ClientRead|1
1486611396.15767|||5
1486611396.28657|||5
1486611396.41687|||5
1486611396.55379|||5
1486611396.67351|||5
1486611396.80592|||5
1486611396.94074|||5
1486611397.07663|||5
1486611397.21152|||5
1486611397.34644|||6
1486611397.48068|||5
1486611397.61466|||5
1486611397.74959|||5
1486611397.8829|||5
1486611398.01676|||5
1486611398.15177|||5
1486611398.28668|||5
1486611398.42155|||5
1486611398.55608|||5
1486611398.6907|||5
1486611398.82589|||5
1486611398.96079|||5
1486611399.09588|||5
1486611399.22976|||5
1486611399.36484|||5
1486611399.4997|||5
1486611399.63458|||5
1486611399.76941|Client|ClientRead|1
1486611399.76941|||5
1486611399.90337|||5
1486611400.0382|||5
1486611400.17312|||5
1486611400.30797|||5
1486611400.44282|||5
1486611400.57787|||5
1486611400.70124|||4
1486611400.70124|Client|ClientRead|1
1486611400.82122|||6
1486611400.95086|||5
1486611401.0857|||5
1486611401.21955|||5
1486611401.35449|||5
1486611401.49027|||5
1486611401.62552|||5
1486611401.75319|||5
1486611401.88706|||5
1486611402.02152|||6
1486611402.15341|||5
1486611402.28915|||5
1486611402.42412|||5
1486611402.55806|||5
1486611402.69377|||5
1486611402.82866|||5
1486611402.96357|||5
1486611403.09848|||5
1486611403.23366|||5
1486611403.36841|||5
1486611403.50218|||5
1486611403.63731|||5
1486611403.77216|||5
1486611403.90706|||5
1486611404.042|||5
1486611404.17512|||5
1486611404.31277|||4
1486611404.31277|Client|ClientRead|2
1486611404.42618|Client|ClientRead|1
1486611404.42618|||4
1486611404.53796|Client|ClientRead|1
1486611404.53796|||4
1486611404.65139|Client|ClientRead|1
1486611404.65139|||4
1486611404.77212|||5
1486611404.90706|||5
1486611405.03917|||5
1486611405.1741|||5
1486611405.30897|||5
1486611405.44423|||6
1486611405.57917|||5
1486611405.7141|||5
1486611405.84878|||5
1486611405.98363|||5
1486611406.11935|||5
1486611406.25408|||5
1486611406.38786|||5
1486611406.52301|||5
1486611406.65151|||6
1486611406.76992|||5
1486611406.90477|||5
1486611407.03967|||5
1486611407.17458|||5
1486611407.30946|||5
1486611407.44481|||5
1486611407.57964|||5
1486611407.71455|||5
1486611407.84928|||5
1486611407.98408|||5
1486611408.11541|||5
1486611408.23448|||5
1486611408.36942|||5
1486611408.50414|||5
1486611408.63899|||5
1486611408.7722|||5
1486611408.90606|||5
1486611409.03901|||5
1486611409.03901|Client|ClientRead|1
1486611409.17246|||5
1486611409.30721|||5
1486611409.44221|||5
1486611409.57611|||5
1486611409.7111|||5
1486611409.84349|||5
1486611409.97846|||5
1486611410.11346|||5
1486611410.24807|||5
1486611410.38106|||5
1486611410.51626|||5
1486611410.65114|||5
1486611410.78631|||5
1486611410.92116|||5
1486611411.05623|||5
1486611411.19112|||5
1486611411.32613|||5
1486611411.45886|||5
1486611411.59318|||5
1486611411.72705|||5
1486611411.86236|||5
1486611411.99721|||5
1486611412.13213|||5
1486611412.26593|||5
1486611412.40103|||5
1486611412.53402|||6
1486611412.66787|||6
1486611412.80268|||5
1486611412.93767|||5
1486611413.07251|||5
1486611413.20735|||5
1486611413.34224|||5
1486611413.47713|||5
1486611413.61208|||5
1486611413.74757|||6
1486611413.8795|||5
1486611414.00682|||5
1486611414.14155|||5
1486611414.27719|||5
1486611414.41226|||5
1486611414.54709|||5
1486611414.6819|||5
1486611414.81674|||5
1486611414.95068|||5
1486611415.0815|||5
1486611415.19842|||4
1486611415.19842|Client|ClientRead|1
1486611415.3112|||4
1486611415.3112|Client|ClientRead|1
1486611415.44522|||5
1486611415.57919|||5
1486611415.71406|||5
1486611415.84891|||5
1486611415.98382|||5
1486611416.10752|Client|ClientRead|1
1486611416.10752|||5
1486611416.23978|||5
1486611416.37502|||5
1486611416.5083|||5
1486611416.64224|||5
1486611416.77726|||5
1486611416.91215|||5
1486611417.04703|||5
1486611417.18006|||5
1486611417.31273|||5
1486611417.4452|||5
1486611417.58084|||5
1486611417.71596|||5
1486611417.85091|||5
1486611417.98568|||5
1486611418.12058|||5
1486611418.2555|||5
1486611418.39027|||5
1486611418.52597|||5
1486611418.65917|||5
1486611418.79403|||5
1486611418.92714|||5
1486611419.06209|||5
1486611419.19674|||5
1486611419.33178|||5
1486611419.46563|||5
1486611419.60069|||5
1486611419.73537|||5
1486611419.87041|||5
1486611420.00524|||5
1486611420.13746|||5
1486611420.27255|||5
1486611420.4072|||5
1486611420.54206|||5
1486611420.67697|||5
1486611420.80908|||5
1486611420.94381|||5
1486611421.07697|||5
1486611421.20555|||5
1486611421.32641|||5
1486611421.46026|||5
1486611421.59518|||5
1486611421.73007|||5
1486611421.86475|||5
1486611422.00019|||5
1486611422.13226|||5
1486611422.26725|||5
1486611422.403|||5
1486611422.53796|||5
1486611422.67202|||5
1486611422.8069|||5
1486611422.94215|||5
1486611423.07708|||5
1486611423.21148|||5
1486611423.34462|||5
1486611423.46866|Client|ClientRead|1
1486611423.46866|||4
1486611423.59276|||5
1486611423.7187|||5
1486611423.84447|||4
1486611423.84447|Client|ClientRead|1
1486611423.97122|Client|ClientRead|1
1486611423.97122|||4
1486611424.09383|||5
1486611424.21503|||5
1486611424.33315|Client|ClientRead|1
1486611424.33315|||4
1486611424.44821|Client|ClientRead|1
1486611424.44821|||4
1486611424.56076|||4
1486611424.56076|Client|ClientRead|1
1486611424.67939|Client|ClientRead|1
1486611424.67939|||4
1486611424.80676|Client|ClientRead|2
1486611424.80676|||3
1486611424.93273|||4
1486611424.93273|Client|ClientRead|1
1486611425.04501|Client|ClientRead|1
1486611425.04501|||4
1486611425.16046|Client|ClientRead|1
1486611425.16046|||4
1486611425.27861|Client|ClientRead|1
1486611425.27861|||4
1486611425.39929|Client|ClientRead|2
1486611425.39929|||3
1486611425.52099|||4
1486611425.52099|Client|ClientRead|1
1486611425.64562|||5
1486611425.77512|Client|ClientRead|1
1486611425.77512|||4
1486611425.90366|Client|ClientRead|1
1486611425.90366|||4
1486611426.02346|Client|ClientRead|1
1486611426.02346|||4
1486611426.13719|||5
1486611426.26254|Client|ClientRead|1
1486611426.26254|||4
1486611426.38239|Client|ClientRead|1
1486611426.38239|||4
1486611426.49913|||6
1486611426.6232|Client|ClientRead|1
1486611426.6232|||4
1486611426.75987|||4
1486611426.75987|Client|ClientRead|1
1486611426.88304|Client|ClientRead|1
1486611426.88304|||4
1486611427.01216|Client|ClientRead|1
1486611427.01216|||4
1486611427.13347|||5
1486611427.24894|Client|ClientRead|1
1486611427.24894|||4
1486611427.37552|||4
1486611427.37552|Client|ClientRead|1
1486611427.50122|Client|ClientRead|1
1486611427.50122|||4
1486611427.62821|||4
1486611427.62821|Client|ClientRead|1
1486611427.74754|||3
1486611427.74754|Client|ClientRead|2
1486611427.86697|Client|ClientRead|2
1486611427.86697|||3
1486611427.98094|||4
1486611427.98094|Client|ClientRead|1
1486611428.10268|||5
1486611428.22619|||5
1486611428.34792|Client|ClientRead|2
1486611428.34792|||3
1486611428.4672|||4
1486611428.4672|Client|ClientRead|1
1486611428.58343|Client|ClientRead|1
1486611428.58343|||4
1486611428.71104|||5
1486611428.71104|Client|ClientRead|1
1486611428.8361|||4
1486611428.8361|Client|ClientRead|1
1486611428.95733|||4
1486611428.95733|Client|ClientRead|1
1486611429.07741|||5
1486611429.21257|||5
1486611429.34435|||5
1486611429.47921|||5
1486611429.61308|||5
1486611429.74517|||5
1486611429.88|||5
1486611430.01482|||5
1486611430.14991|||5
1486611430.28493|||5
1486611430.41989|||5
1486611430.5547|||5
1486611430.68961|||5
1486611430.82374|||5
1486611430.95871|||5
1486611431.09317|||5
1486611431.22819|||5
1486611431.36427|||5
1486611431.49448|||5
1486611431.61358|||4
1486611431.61358|Client|ClientRead|1
1486611431.7392|||5
1486611431.85756|||4
1486611431.85756|Client|ClientRead|1
1486611431.9766|Client|ClientRead|1
1486611431.9766|||4
1486611432.08533|||4
1486611432.08533|Client|ClientRead|1
1486611432.20713|||5
1486611432.3314|Client|ClientRead|1
1486611432.3314|||4
1486611432.45749|||5
1486611432.58403|||5
1486611432.71933|||5
1486611432.85419|||5
1486611432.98909|||5
1486611433.12302|||5
1486611433.25789|||5
1486611433.39052|||5
1486611433.52523|||5
1486611433.66009|||5
1486611433.79501|||5
1486611433.92729|||5
1486611434.06215|||5
1486611434.19524|||5
1486611434.33036|||5
1486611434.46528|||5
1486611434.60056|||5
1486611434.73508|||5
1486611434.86999|||5
1486611435.00408|||5
1486611435.13717|||5
1486611435.27199|||5
1486611435.40723|||5
1486611435.54213|||5
1486611435.67687|||5
1486611435.81052|||6
1486611435.94334|||5
1486611436.07846|||5
1486611436.21338|||5
1486611436.34826|||5
1486611436.48222|||5
1486611436.61714|||5
1486611436.75067|||5
1486611436.8853|||5
1486611437.0197|||5
1486611437.15475|||5
1486611437.28967|||5
1486611437.42453|||5
1486611437.55931|||5
1486611437.69424|||5
1486611437.82913|||5
1486611437.96313|||5
1486611438.098|||6
1486611438.2276|Client|ClientRead|1
1486611438.2276|||4
1486611438.35656|||4
1486611438.35656|Client|ClientRead|1
1486611438.47272|Client|ClientRead|1
1486611438.47272|||4
1486611438.59308|||4
1486611438.59308|Client|ClientRead|1
1486611438.71864|Client|ClientRead|1
1486611438.71864|||4
1486611438.83577|||4
1486611438.83577|Client|ClientRead|1
1486611438.95292|||3
1486611438.95292|Client|ClientRead|2
1486611439.076|Client|ClientRead|1
1486611439.076|||4
1486611439.19589|||4
1486611439.19589|Client|ClientRead|2
1486611439.32087|||5
1486611439.4553|||5
1486611439.59027|||5
1486611439.7251|||5
1486611439.85901|||5
1486611439.98768|||4
1486611439.98768|Client|ClientRead|1
1486611440.10688|||5
1486611440.24176|||5
1486611440.37446|||5
1486611440.50919|||5
1486611440.64407|||5
1486611440.77868|||5
1486611440.91368|||5
1486611441.04849|||5
1486611441.18365|||5
1486611441.31061|||5
1486611441.44616|||5
1486611441.58014|||5
1486611441.71374|||5
1486611441.84874|||5
1486611441.98364|||5
1486611442.11872|||5
1486611442.25099|||5
1486611442.38576|||5
1486611442.5196|||5
1486611442.6536|||5
1486611442.78732|||6
1486611442.92285|||5
1486611443.05783|||5
1486611443.19278|||5
1486611443.32667|||5
1486611443.46155|||5
1486611443.59642|||5
1486611443.72393|||5
1486611443.85757|||6
1486611443.99155|||6
1486611444.12468|||5
1486611444.25957|||5
1486611444.3944|||5
1486611444.52936|||5
1486611444.66416|||5
1486611444.80035|||5
1486611444.93523|||5
1486611445.06809|||5
1486611445.20306|||5
1486611445.33799|||5
1486611445.47208|||5
1486611445.60519|||5
1486611445.7401|||5
1486611445.87506|||5
1486611446.00998|||5
1486611446.14316|||5
1486611446.27814|||5
1486611446.41182|||5
1486611446.54669|||5
1486611446.68183|||5
1486611446.81668|||5
1486611446.95163|||5
1486611447.0865|||5
1486611447.22137|||5
1486611447.35624|||5
1486611447.48622|||5
1486611447.61522|||5
1486611447.75017|||5
1486611447.885|||5
1486611448.01712|||5
1486611448.15195|||5
1486611448.28598|||5
1486611448.41992|||5
1486611448.55462|||5
1486611448.68853|||5
1486611448.82399|||5
1486611448.96046|||5
1486611449.09541|||5
1486611449.23043|||5
1486611449.36541|||5
1486611449.4994|||5
1486611449.63426|||5
1486611449.76899|||6
1486611449.90368|||5
1486611450.03856|||5
1486611450.17351|||5
1486611450.30843|||5
1486611450.44328|||5
1486611450.57816|||5
1486611450.71305|||5
1486611450.84777|||5
1486611450.98253|||5
1486611451.1173|||5
1486611451.2522|||5
1486611451.3861|||5
1486611451.52094|||5
1486611451.6568|||5
1486611451.79164|||5
1486611451.92576|||5
1486611452.06047|||5
1486611452.19498|||5
1486611452.32832|||5
1486611452.464|||5
1486611452.59895|||5
1486611452.73213|||5
1486611452.86769|||5
1486611453.00257|||5
1486611453.13748|||5
1486611453.27224|||6
1486611453.40502|||6
1486611453.5399|||5
1486611453.67383|||5
1486611453.80877|||5
1486611453.94367|||5
1486611454.08011|||5
1486611454.20669|||5
1486611454.34157|||5
1486611454.47661|||5
1486611454.47661|Client|ClientRead|1
1486611454.61091|||5
1486611454.74584|||5
1486611454.879|||5
1486611455.0137|||5
1486611455.14857|||5
1486611455.28271|||5
1486611455.41759|||5
1486611455.5515|||5
1486611455.68547|||5
1486611455.8191|||5
1486611455.95397|||5
1486611456.08998|||5
1486611456.2221|||5
1486611456.35535|||5
1486611456.48932|||5
1486611456.62433|||5
1486611456.75953|||5
1486611456.89417|||6
1486611457.02797|||5
1486611457.15907|||5
1486611457.29425|||5
1486611457.42918|||5
1486611457.56593|||5
1486611457.70082|||5
1486611457.83591|||5
1486611457.96784|||6
1486611458.10092|||5
1486611458.23202|||5
1486611458.3671|||5
1486611458.50202|||5
1486611458.63579|||5
1486611458.76812|||5
1486611458.90336|||5
1486611459.03719|||5
1486611459.17203|||5
1486611459.30712|||5
1486611459.44232|||5
1486611459.57717|||5
1486611459.71033|||5
1486611459.84521|||5
1486611459.97851|||5
1486611460.11358|||5
1486611460.2484|||5
1486611460.38189|Client|ClientRead|1
1486611460.38189|||5
1486611460.51422|||5
1486611460.64942|||5
1486611460.78421|||5
1486611460.91913|||5
1486611461.05394|||5
1486611461.18986|||5
1486611461.3248|||5
1486611461.45882|||5
1486611461.59647|||5
1486611461.73128|||5
1486611461.85499|||5
1486611461.98189|||5
1486611462.11651|||5
1486611462.25129|||5
1486611462.38623|||5
1486611462.52117|||5
1486611462.65423|||5
1486611462.79068|||5
1486611462.92429|||5
1486611463.05905|||5
1486611463.18752|||4
1486611463.18752|Client|ClientRead|1
1486611463.29491|Client|ClientRead|1
1486611463.29491|||4
1486611463.42005|||4
1486611463.42005|Client|ClientRead|1
1486611463.54617|||4
1486611463.54617|Client|ClientRead|1
1486611463.66515|Client|ClientRead|1
1486611463.66515|||4
1486611463.79115|||5
1486611463.91831|||5
1486611463.91831|Client|ClientRead|1
1486611464.04646|||4
1486611464.04646|Client|ClientRead|1
1486611464.17172|||4
1486611464.17172|Client|ClientRead|1
1486611464.29761|||5
1486611464.43257|||5
1486611464.56575|||5
1486611464.69894|||5
1486611464.834|||5
1486611464.9671|||5
1486611465.10093|||6
1486611465.23703|||5
1486611465.37173|||5
1486611465.50647|||5
1486611465.64038|||5
1486611465.77539|||5
1486611465.91017|||5
1486611466.04424|||5
1486611466.1805|||5
1486611466.31325|||5
1486611466.44838|||5
1486611466.58324|||5
1486611466.7182|||5
1486611466.85312|||5
1486611466.98815|||5
1486611467.12315|||5
1486611467.25807|||5
1486611467.39298|||5
1486611467.5259|||5
1486611467.66095|||5
1486611467.79593|||5
1486611467.93188|||5
1486611468.06678|||5
1486611468.20158|||5
1486611468.33645|||5
1486611468.4715|||5
1486611468.60609|||5
1486611468.74124|||5
1486611468.87604|||5
1486611469.00968|||5
1486611469.14622|||5
1486611469.28109|||5
1486611469.41599|||5
1486611469.55081|||5
1486611469.68608|||5
1486611469.81846|||5
1486611469.95411|||5
1486611470.08907|||5
1486611470.22216|||5
1486611470.35698|||5
1486611470.49178|||5
1486611470.62666|||5
1486611470.76161|||5
1486611470.89382|||5
1486611471.02691|||5
1486611471.16207|||5
1486611471.29592|||5
1486611471.43092|||5
1486611471.56614|||5
1486611471.70109|||5
1486611471.83683|||5
1486611471.97179|||5
1486611472.10679|||6
1486611472.2395|||6
1486611472.37439|||5
1486611472.50922|||5
1486611472.64402|||5
1486611472.77886|||5
1486611472.91401|||5
1486611473.05049|||5
1486611473.18364|||5
1486611473.31664|||5
1486611473.45149|||5
1486611473.58618|||5
1486611473.72119|||5
1486611473.85613|||5
1486611473.99094|||5
1486611474.1233|||5
1486611474.25826|||5
1486611474.3931|||5
1486611474.52781|||5
1486611474.66411|||5
1486611474.79744|||5
1486611474.93265|||5
1486611475.06648|||5
1486611475.20118|||5
1486611475.33602|||5
1486611475.46926|||5
1486611475.6041|||5
1486611475.73805|||5
1486611475.8731|||5
1486611476.00622|||5
1486611476.14127|||5
1486611476.27513|||5
1486611476.41009|||5
1486611476.54336|||5
1486611476.67827|||5
1486611476.81304|||5
1486611476.9475|||5
1486611477.07973|||5
1486611477.21492|||5
1486611477.34978|||5
1486611477.48328|||5
1486611477.61811|||5
1486611477.75292|||5
1486611477.88814|||5
1486611478.02286|||5
1486611478.15551|||5
1486611478.29127|||5
1486611478.42523|||5
1486611478.5601|||5
1486611478.69479|||5
1486611478.82983|||5
1486611478.96471|||5
1486611479.09958|||5
1486611479.23451|||5
1486611479.36945|||5
1486611479.50376|||5
1486611479.63896|||5
1486611479.77383|||5
1486611479.9087|||5
1486611480.0436|||5
1486611480.17752|||5
1486611480.30971|||5
1486611480.44267|Client|ClientRead|1
1486611480.44267|||5
1486611480.57322|||5
1486611480.70827|||5
1486611480.84317|||5
1486611480.96894|Client|ClientRead|2
1486611480.96894|||3
1486611481.08246|||4
1486611481.08246|Client|ClientRead|1
1486611481.21052|Client|ClientRead|1
1486611481.21052|||4
1486611481.3352|Client|ClientRead|1
1486611481.3352|||4
1486611481.45664|Client|ClientRead|1
1486611481.45664|||4
1486611481.58042|Client|ClientRead|1
1486611481.58042|||5
1486611481.71421|Client|ClientRead|1
1486611481.71421|||4
1486611481.84157|Client|ClientRead|2
1486611481.84157|||3
1486611481.9678|||5
1486611482.09177|||3
1486611482.09177|Client|ClientRead|2
1486611482.20965|||4
1486611482.20965|Client|ClientRead|1
1486611482.32658|||5
1486611482.43982|||5
1486611482.56452|||3
1486611482.56452|Client|ClientRead|2
1486611482.68109|Client|ClientRead|1
1486611482.68109|||5
1486611482.81501|||5
1486611482.94991|||5
1486611483.08478|||5
1486611483.20684|||5
1486611483.33415|||5
1486611483.46903|||5
1486611483.60409|||5
1486611483.73716|||5
1486611483.87116|||6
1486611484.00607|||5
1486611484.14097|||5
1486611484.2757|||5
1486611484.41057|||5
1486611484.54544|||5
1486611484.67343|||5
1486611484.80846|||5
1486611484.94348|||5
1486611485.07265|||5
1486611485.19867|Client|ClientRead|1
1486611485.19867|||4
1486611485.33191|Client|ClientRead|1
1486611485.33191|||4
1486611485.44548|||5
1486611485.56088|||4
1486611485.56088|Client|ClientRead|1
1486611485.6935|||5
1486611485.8286|||5
1486611485.96373|||5
1486611486.0986|||5
1486611486.23311|||5
1486611486.36709|||5
1486611486.50184|||5
1486611486.6368|||5
1486611486.77171|||5
1486611486.90408|||5
1486611487.03983|||5
1486611487.17472|||5
1486611487.3088|||5
1486611487.44399|||6
1486611487.57866|||5
1486611487.71361|||5
1486611487.84865|||5
1486611487.98357|||5
1486611488.11742|||5
1486611488.25263|||5
1486611488.38651|||5
1486611488.51909|||5
1486611488.6492|||6
1486611488.78412|||5
1486611488.91908|||5
1486611489.05401|||5
1486611489.18636|||5
1486611489.32139|||5
1486611489.45639|||5
1486611489.58398|||5
1486611489.71531|||5
1486611489.84847|||5
1486611489.98092|||5
1486611490.10349|Client|ClientRead|1
1486611490.10349|||4
1486611490.21134|Client|ClientRead|1
1486611490.21134|||4
1486611490.32754|||4
1486611490.32754|Client|ClientRead|1
1486611490.43622|Client|ClientRead|1
1486611490.43622|||4
1486611490.56027|||4
1486611490.56027|Client|ClientRead|1
1486611490.68444|||4
1486611490.68444|Client|ClientRead|1
1486611490.80441|||4
1486611490.80441|Client|ClientRead|1
1486611490.92387|Client|ClientRead|2
1486611490.92387|||3
1486611491.03681|Client|ClientRead|1
1486611491.03681|||4
1486611491.14529|||4
1486611491.14529|Client|ClientRead|1
1486611491.27419|Client|ClientRead|1
1486611491.27419|||4
1486611491.39427|||4
1486611491.39427|Client|ClientRead|1
1486611491.51974|||5
1486611491.65571|||5
1486611491.79093|||5
1486611491.92601|||5
1486611492.05753|||6
1486611492.19277|||5
1486611492.32797|||5
1486611492.46293|||5
1486611492.59798|||5
1486611492.73018|||5
1486611492.86511|||5
1486611493.00005|||5
1486611493.13493|||5
1486611493.27003|||5
1486611493.404|||5
1486611493.539|||5
1486611493.67391|||5
1486611493.80879|||5
1486611493.94369|||5
1486611494.07854|||5
1486611494.21339|||5
1486611494.34768|||6
1486611494.47968|||5
1486611494.61477|||5
1486611494.74968|||5
1486611494.88447|||5
1486611495.01942|||5
1486611495.15439|||5
1486611495.28923|||5
1486611495.42408|||5
1486611495.558|||5
1486611495.69255|||5
1486611495.8275|||5
1486611495.96177|||5
1486611496.07705|||5
1486611496.19904|Client|ClientRead|1
1486611496.19904|||4
1486611496.31328|||4
1486611496.31328|Client|ClientRead|1
1486611496.43491|||5
1486611496.56799|||5
1486611496.70132|||6
1486611496.83587|||5
1486611496.97163|||5
1486611497.10555|||5
1486611497.238|||5
1486611497.37315|||5
1486611497.5082|||5
1486611497.64326|||5
1486611497.77916|||5
1486611497.91243|Client|ClientRead|1
1486611497.91243|||5
1486611498.04697|||5
1486611498.18195|||5
1486611498.31678|||5
1486611498.4375|||5
1486611498.57352|||5
1486611498.7084|||5
1486611498.84337|||5
1486611498.97849|||5
1486611499.11039|||5
1486611499.24518|||5
1486611499.38032|||5
1486611499.51539|||5
1486611499.65039|||5
1486611499.78605|||5
1486611499.92079|||5
1486611500.04168|||5
1486611500.17758|||5
1486611500.3052|Client|ClientRead|1
1486611500.3052|||4
1486611500.42188|||5
1486611500.53574|Client|ClientRead|1
1486611500.53574|||4
1486611500.66607|||5
1486611500.80097|||5
1486611500.93413|||5
1486611501.06923|||5
1486611501.20239|||5
1486611501.33722|||5
1486611501.47243|||5
1486611501.60737|||5
1486611501.7422|||5
1486611501.87716|||5
1486611502.01201|||5
1486611502.14517|||5
1486611502.27912|||5
1486611502.41402|||5
1486611502.54691|||5
1486611502.67957|||5
1486611502.81428|||5
1486611502.9491|||5
1486611503.08378|||5
1486611503.20468|||5
1486611503.3414|||5
1486611503.47385|||5
1486611503.60877|||5
1486611503.7436|||6
1486611503.87625|||5
1486611504.0101|||5
1486611504.14382|||5
1486611504.27874|||5
1486611504.41356|||5
1486611504.54749|||5
1486611504.68246|||5
1486611504.81744|||5
1486611504.95223|||5
1486611504.95223|Client|ClientRead|1
1486611505.08555|||5
1486611505.22059|||5
1486611505.35526|||5
1486611505.49038|||5
1486611505.62521|||5
1486611505.7604|||5
1486611505.89531|||5
1486611506.02995|||6
1486611506.1649|||5
1486611506.29965|||5
1486611506.43489|||5
1486611506.56876|||5
1486611506.70388|||5
1486611506.82289|Client|ClientRead|1
1486611506.82289|||4
1486611506.93131|Client|ClientRead|1
1486611506.93131|||4
1486611507.04455|Client|ClientRead|1
1486611507.04455|||4
1486611507.16782|||4
1486611507.16782|Client|ClientRead|1
1486611507.29651|||5
1486611507.41862|||4
1486611507.41862|Client|ClientRead|1
1486611507.53704|Client|ClientRead|1
1486611507.53704|||4
1486611507.66434|Client|ClientRead|1
1486611507.66434|||4
1486611507.78326|||4
1486611507.78326|Client|ClientRead|1
1486611507.90854|||5
1486611508.03463|||5
1486611508.16225|||5
1486611508.29712|||5
1486611508.43211|||5
1486611508.56425|||5
1486611508.69833|||5
1486611508.83406|||5
1486611508.96725|||5
1486611509.10217|||5
1486611509.23725|||5
1486611509.37118|||5
1486611509.5055|||5
1486611509.63425|||5
1486611509.76596|Client|ClientRead|1
1486611509.76596|||4
1486611509.88319|||5
1486611510.00444|||4
1486611510.00444|Client|ClientRead|1
1486611510.13181|Client|ClientRead|1
1486611510.13181|||4
1486611510.24416|Client|ClientRead|1
1486611510.24416|||4
1486611510.35611|Client|ClientRead|1
1486611510.35611|||4
1486611510.47277|||5
1486611510.59819|Client|ClientRead|1
1486611510.59819|||4
1486611510.72544|Client|ClientRead|1
1486611510.72544|||5
1486611510.85918|||5
1486611510.99436|||5
1486611511.12924|||5
1486611511.26408|||5
1486611511.39776|||5
1486611511.53266|||5
1486611511.66662|||5
1486611511.80157|||5
1486611511.93428|||5
1486611512.06923|||5
1486611512.20548|||5
1486611512.34051|||5
1486611512.47542|||5
1486611512.61037|||5
1486611512.74433|||5
1486611512.87916|||5
1486611513.01396|||5
1486611513.14809|||5
1486611513.28242|||5
1486611513.41652|||5
1486611513.55146|||5
1486611513.68677|||5
1486611513.82165|||5
1486611513.95644|||5
1486611514.09128|||5
1486611514.22463|||5
1486611514.35733|||5
1486611514.49196|||5
1486611514.62687|||5
1486611514.76177|||5
1486611514.8975|||5
1486611515.03247|||5
1486611515.16458|||5
1486611515.29951|||5
1486611515.43406|||5
1486611515.56722|||5
1486611515.70202|||5
1486611515.83697|||5
1486611515.972|||5
1486611516.1068|||5
1486611516.24168|||5
1486611516.37738|||5
1486611516.51217|||5
1486611516.64591|||6
1486611516.78103|||5
1486611516.91595|||5
1486611517.04982|||5
1486611517.18475|||5
1486611517.31863|||5
1486611517.45337|||5
1486611517.58973|||5
1486611517.72463|||5
1486611517.84462|||5
1486611517.96599|||5
1486611518.10071|||5
1486611518.21939|||5
1486611518.35339|||5
1486611518.48821|||5
1486611518.62315|||5
1486611518.75806|||5
1486611518.89201|||5
1486611519.01564|||5
1486611519.13435|||5
1486611519.26926|||5
1486611519.40327|||5
1486611519.5382|||5
1486611519.67308|||6
1486611519.80864|||5
1486611519.94352|||5
1486611520.07826|||6
1486611520.21288|||5
1486611520.34761|||5
1486611520.48246|||5
1486611520.61732|||5
1486611520.75121|||5
1486611520.88502|||5
1486611521.01734|||5
1486611521.15222|||5
1486611521.28597|||5
1486611521.42074|||5
1486611521.55576|||5
1486611521.6907|||5
1486611521.82565|||5
1486611521.95952|||5
1486611522.09532|||5
1486611522.23025|||5
1486611522.36542|||5
1486611522.50244|||6
1486611522.63703|||5
1486611522.77021|||5
1486611522.90507|||5
1486611523.03823|||4
1486611523.03823|Client|ClientRead|1
1486611523.15714|||5
1486611523.28217|Client|ClientRead|1
1486611523.28217|||4
1486611523.40412|||4
1486611523.40412|Client|ClientRead|1
1486611523.53501|||5
1486611523.66436|||4
1486611523.66436|Client|ClientRead|1
1486611523.78332|Client|ClientRead|1
1486611523.78332|||4
1486611523.90124|||4
1486611523.90124|Client|ClientRead|1
1486611524.02552|Client|ClientRead|1
1486611524.02552|||4
1486611524.14855|Client|ClientRead|1
1486611524.14855|||4
1486611524.28058|Client|ClientRead|1
1486611524.28058|||4
1486611524.40178|Client|ClientRead|2
1486611524.40178|||3
1486611524.52136|Client|ClientRead|1
1486611524.52136|||4
1486611524.64617|||5
1486611524.78276|||5
1486611524.91778|||5
1486611525.04654|||4
1486611525.04654|Client|ClientRead|1
1486611525.17033|||4
1486611525.17033|Client|ClientRead|1
1486611525.29217|Client|ClientRead|1
1486611525.29217|||4
1486611525.41628|Client|ClientRead|1
1486611525.41628|||4
1486611525.54001|Client|ClientRead|1
1486611525.54001|||4
1486611525.66689|||4
1486611525.66689|Client|ClientRead|1
1486611525.7999|||5
1486611525.93601|||5
1486611526.07073|||5
1486611526.20492|||5
1486611526.3399|||5
1486611526.47488|||5
1486611526.60971|||5
1486611526.74285|||5
1486611526.87791|||5
1486611527.01185|||5
1486611527.14502|||6
1486611527.27898|||5
1486611527.41393|||5
1486611527.54899|||5
1486611527.684|||5
1486611527.8162|||5
1486611527.95109|||5
1486611528.08613|||5
1486611528.22105|||5
1486611528.35329|||5
1486611528.48689|||5
1486611528.62079|||5
1486611528.75582|||5
1486611528.89043|Client|ClientRead|1
1486611528.89043|||4
1486611529.01488|||5
1486611529.14978|||5
1486611529.28371|||5
1486611529.41867|||5
1486611529.55362|||5
1486611529.67319|Client|ClientRead|1
1486611529.67319|||4
1486611529.80693|||5
1486611529.941|||5
1486611530.07411|||5
1486611530.20899|||5
1486611530.34312|||5
1486611530.478|||5
1486611530.61005|||5
1486611530.61005|Client|ClientRead|1
1486611530.72386|Client|ClientRead|1
1486611530.72386|||4
1486611530.84496|Client|ClientRead|1
1486611530.84496|||4
1486611530.96219|||4
1486611530.96219|Client|ClientRead|1
1486611531.09295|||4
1486611531.09295|Client|ClientRead|1
1486611531.20469|Client|ClientRead|1
1486611531.20469|||4
1486611531.32447|Client|ClientRead|2
1486611531.32447|||3
1486611531.45388|||4
1486611531.45388|Client|ClientRead|1
1486611531.56652|Client|ClientRead|1
1486611531.56652|||4
1486611531.6882|Client|ClientRead|1
1486611531.6882|||4
1486611531.80828|||4
1486611531.80828|Client|ClientRead|1
1486611531.93262|||4
1486611531.93262|Client|ClientRead|1
1486611532.05898|Client|ClientRead|1
1486611532.05898|||4
1486611532.17834|||4
1486611532.17834|Client|ClientRead|1
1486611532.30504|||4
1486611532.30504|Client|ClientRead|1
1486611532.41827|Client|ClientRead|1
1486611532.41827|||4
1486611532.54629|Client|ClientRead|1
1486611532.54629|||4
1486611532.67077|||5
1486611532.79447|||3
1486611532.79447|Client|ClientRead|2
1486611532.90987|Client|ClientRead|1
1486611532.90987|||4
1486611533.02027|Client|ClientRead|1
1486611533.02027|||4
1486611533.13446|||3
1486611533.13446|Client|ClientRead|2
1486611533.25573|||3
1486611533.25573|Client|ClientRead|2
1486611533.37612|||4
1486611533.37612|Client|ClientRead|1
1486611533.48847|Client|ClientRead|1
1486611533.48847|||4
1486611533.60906|||4
1486611533.60906|Client|ClientRead|1
1486611533.73124|||4
1486611533.73124|Client|ClientRead|1
1486611533.85697|||3
1486611533.85697|Client|ClientRead|2
1486611533.97617|Client|ClientRead|2
1486611533.97617|||3
1486611534.10342|||4
1486611534.10342|Client|ClientRead|1
1486611534.2328|Client|ClientRead|1
1486611534.2328|||4
1486611534.35726|||4
1486611534.35726|Client|ClientRead|1
1486611534.47711|||4
1486611534.47711|Client|ClientRead|1
1486611534.5988|Client|ClientRead|1
1486611534.5988|||4
1486611534.72857|||5
1486611534.86366|||5
1486611534.9986|||5
1486611535.13141|||5
1486611535.26589|||5
1486611535.39904|||5
1486611535.53389|||5
1486611535.66963|||5
1486611535.80455|||5
1486611535.93983|||5
1486611536.07471|||5
1486611536.20728|||5
1486611536.34192|||5
1486611536.47863|||5
1486611536.61349|||5
1486611536.7483|||5
1486611536.88266|||5
1486611537.01753|||5
1486611537.15259|||5
1486611537.28747|||5
1486611537.42243|||6
1486611537.55725|||5
1486611537.69219|||5
1486611537.82713|||5
1486611537.96021|||5
1486611538.09516|||5
1486611538.23003|||5
1486611538.36507|||5
1486611538.50001|||5
1486611538.63495|||6
1486611538.76994|||5
1486611538.90475|||5
1486611539.03957|||5
1486611539.17541|||5
1486611539.30972|||5
1486611539.44267|||5
1486611539.57839|||5
1486611539.71354|||5
1486611539.84271|||4
1486611539.84271|Client|ClientRead|1
1486611539.97266|||5
1486611540.1077|||5
1486611540.24091|||5
1486611540.37393|||4
1486611540.37393|Client|ClientRead|1
1486611540.50545|Client|ClientRead|1
1486611540.50545|||4
1486611540.63311|Client|ClientRead|1
1486611540.63311|||4
1486611540.76614|||5
1486611540.90096|||6
1486611541.02589|Client|ClientRead|1
1486611541.02589|||4
1486611541.13399|||5
1486611541.25534|||4
1486611541.25534|Client|ClientRead|1
1486611541.38456|Client|ClientRead|1
1486611541.38456|||4
1486611541.50411|||2
1486611541.50411|Client|ClientRead|3
1486611541.6245|Client|ClientRead|1
1486611541.6245|||4
1486611541.75019|||4
1486611541.75019|Client|ClientRead|1
1486611541.87223|Client|ClientRead|1
1486611541.87223|||4
1486611542.00304|Client|ClientRead|1
1486611542.00304|||4
1486611542.13029|Client|ClientRead|1
1486611542.13029|||4
1486611542.25635|||5
1486611542.3891|||5
1486611542.52417|||5
1486611542.65912|||5
1486611542.7941|||5
1486611542.9281|||5
1486611543.06298|||5
1486611543.19808|||5
1486611543.33297|||5
1486611543.4681|||4
1486611543.4681|Client|ClientRead|1
1486611543.58838|||4
1486611543.58838|Client|ClientRead|1
1486611543.72082|Client|ClientRead|1
1486611543.72082|||4
1486611543.83881|Client|ClientRead|2
1486611543.83881|||3
1486611543.96601|||4
1486611543.96601|Client|ClientRead|1
1486611544.09302|Client|ClientRead|2
1486611544.09302|||3
1486611544.21523|||5
1486611544.33649|||5
1486611544.33649|Client|ClientRead|1
1486611544.45939|||4
1486611544.45939|Client|ClientRead|1
1486611544.57894|||5
1486611544.7024|Client|ClientRead|1
1486611544.7024|||4
1486611544.81932|||4
1486611544.81932|Client|ClientRead|1
1486611544.93452|||5
1486611545.05719|||4
1486611545.05719|Client|ClientRead|1
1486611545.17279|Client|ClientRead|2
1486611545.17279|||3
1486611545.29405|||5
1486611545.42371|Client|ClientRead|1
1486611545.42371|||4
1486611545.54614|||3
1486611545.54614|Client|ClientRead|2
1486611545.66622|Client|ClientRead|1
1486611545.66622|||4
1486611545.78749|||4
1486611545.78749|Client|ClientRead|1
1486611545.91552|||4
1486611545.91552|Client|ClientRead|1
1486611546.03938|Client|ClientRead|1
1486611546.03938|||4
1486611546.16411|Client|ClientRead|1
1486611546.16411|||4
1486611546.28479|Client|ClientRead|1
1486611546.28479|||4
1486611546.40406|Client|ClientRead|1
1486611546.40406|||4
1486611546.51982|||3
1486611546.51982|Client|ClientRead|2
1486611546.64387|||4
1486611546.64387|Client|ClientRead|1
1486611546.76295|Client|ClientRead|3
1486611546.76295|||2
1486611546.88127|Client|ClientRead|1
1486611546.88127|||4
1486611546.99549|Client|ClientRead|1
1486611546.99549|||4
1486611547.11432|||4
1486611547.11432|Client|ClientRead|1
1486611547.24201|||4
1486611547.24201|Client|ClientRead|1
1486611547.37313|||5
1486611547.50094|||4
1486611547.50094|Client|ClientRead|1
1486611547.61019|Client|ClientRead|1
1486611547.61019|||5
1486611547.73443|Client|ClientRead|1
1486611547.73443|||4
1486611547.85749|Client|ClientRead|1
1486611547.85749|||4
1486611547.97033|||3
1486611547.97033|Client|ClientRead|2
1486611548.08215|||4
1486611548.08215|Client|ClientRead|1
1486611548.20678|||4
1486611548.20678|Client|ClientRead|1
1486611548.32034|Client|ClientRead|1
1486611548.32034|||4
1486611548.43725|||2
1486611548.43725|Client|ClientRead|3
1486611548.56702|||3
1486611548.56702|Client|ClientRead|2
1486611548.69458|Client|ClientRead|2
1486611548.69458|||3
1486611548.8182|Client|ClientRead|1
1486611548.8182|||4
1486611548.93339|Client|ClientRead|1
1486611548.93339|||4
1486611549.05266|||3
1486611549.05266|Client|ClientRead|2
1486611549.16816|||4
1486611549.16816|Client|ClientRead|1
1486611549.27701|||5
1486611549.40174|Client|ClientRead|1
1486611549.40174|||4
1486611549.5191|||5
1486611549.63414|Client|ClientRead|1
1486611549.63414|||4
1486611549.76729|||5
1486611549.90089|||5
1486611550.03544|||5
1486611550.17034|||5
1486611550.3051|||5
1486611550.44019|||5
1486611550.57138|||5
1486611550.69799|||5
1486611550.83303|||5
1486611550.96693|||5
1486611551.10151|||5
1486611551.23624|||5
1486611551.37134|||5
1486611551.50521|||5
1486611551.6385|||5
1486611551.77342|||5
1486611551.90229|||5
1486611552.02757|||5
1486611552.15274|||5
1486611552.26778|Client|ClientRead|1
1486611552.26778|||4
1486611552.39137|Client|ClientRead|2
1486611552.39137|||3
1486611552.5185|||4
1486611552.5185|Client|ClientRead|1
1486611552.6316|||3
1486611552.6316|Client|ClientRead|2
1486611552.7464|||4
1486611552.7464|Client|ClientRead|1
1486611552.86819|Client|ClientRead|1
1486611552.86819|||4
1486611552.99013|Client|ClientRead|1
1486611552.99013|||4
1486611553.11419|||4
1486611553.11419|Client|ClientRead|1
1486611553.24216|Client|ClientRead|2
1486611553.24216|||3
1486611553.37962|||5
1486611553.51442|||5
1486611553.64845|||4
1486611553.64845|Client|ClientRead|1
1486611553.7614|Client|ClientRead|1
1486611553.7614|||4
1486611553.88821|||5
1486611554.02335|||5
1486611554.15832|||5
1486611554.29223|||5
1486611554.42661|||5
1486611554.55801|||5
1486611554.69258|||5
1486611554.8266|||5
1486611554.96116|||5
1486611555.09647|||5
1486611555.23156|||5
1486611555.36644|||5
1486611555.50174|||5
1486611555.63653|||5
1486611555.77104|||5
1486611555.90588|||5
1486611556.04066|||5
1486611556.17663|||5
1486611556.31152|||5
1486611556.44641|||5
1486611556.58034|||5
1486611556.71536|||5
1486611556.84903|||6
1486611556.9839|||5
1486611557.11871|||5
1486611557.25378|||5
1486611557.38812|||5
1486611557.52176|||5
1486611557.64315|||5
1486611557.77221|||5
1486611557.90713|||5
1486611558.04217|||5
1486611558.17633|||5
1486611558.31213|||5
1486611558.447|||5
1486611558.58174|||5
1486611558.71711|||5
1486611558.85198|||5
1486611558.98519|||5
1486611559.12019|||5
1486611559.25455|||6
1486611559.38721|||5
1486611559.52212|||5
1486611559.65341|||5
1486611559.7726|||5
1486611559.90754|||5
1486611560.04259|||5
1486611560.17743|||5
1486611560.31251|||5
1486611560.44362|||5
1486611560.57863|||5
1486611560.7135|||5
1486611560.84835|||5
1486611560.98317|||5
1486611561.1182|||5
1486611561.25219|||5
1486611561.38713|||5
1486611561.52102|||5
1486611561.65473|||6
1486611561.78654|||5
1486611561.92165|||5
1486611562.05659|||5
1486611562.19152|||5
1486611562.32778|||5
1486611562.46434|||5
1486611562.5992|||5
1486611562.73412|||5
1486611562.86881|||5
1486611563.00371|||5
1486611563.13872|||5
1486611563.27378|||5
1486611563.4023|||5
1486611563.53605|||5
1486611563.6692|||5
1486611563.80422|||5
1486611563.93914|||5
1486611564.07307|||5
1486611564.20775|||5
1486611564.34184|||5
1486611564.47681|||5
1486611564.61172|||5
1486611564.74665|||5
1486611564.88152|||5
1486611565.01637|||5
1486611565.15115|||5
1486611565.28574|||5
1486611565.42234|||5
1486611565.55722|||5
1486611565.69211|||5
1486611565.82382|||5
1486611565.95714|||5
1486611566.09217|||5
1486611566.22705|||5
1486611566.36198|||5
1486611566.4929|||5
1486611566.62782|||5
1486611566.76268|||5
1486611566.89752|||5
1486611567.03312|||5
1486611567.16794|||5
1486611567.30293|||5
1486611567.43489|||5
1486611567.56975|Client|ClientRead|1
1486611567.56975|||5
1486611567.70359|||5
1486611567.83918|||5
1486611567.97133|||5
1486611568.10639|||5
1486611568.24131|||5
1486611568.37528|||5
1486611568.51024|||5
1486611568.64504|||5
1486611568.77719|||5
1486611568.91194|||5
1486611569.04686|||5
1486611569.18175|||5
1486611569.31578|||5
1486611569.45192|||5
1486611569.58692|||5
1486611569.72081|||5
1486611569.8556|||5
1486611569.99114|||5
1486611570.12601|||5
1486611570.26089|||5
1486611570.39579|||5
1486611570.53074|||5
1486611570.66577|||5
1486611570.80096|||5
1486611570.93592|||5
1486611571.06877|||5
1486611571.19718|||4
1486611571.19718|Client|ClientRead|1
1486611571.32743|||5
1486611571.4624|||5
1486611571.59657|||5
1486611571.73148|||5
1486611571.86663|||5
1486611572.00156|||5
1486611572.13695|||5
1486611572.27097|||5
1486611572.40597|||5
1486611572.53601|||5
1486611572.66913|||5
1486611572.80408|||5
1486611572.93965|||5
1486611573.0736|Client|ClientRead|1
1486611573.0736|||4
1486611573.19264|||5
1486611573.32459|||5
1486611573.46066|||5
1486611573.5948|||5
1486611573.72981|||5
1486611573.86466|||5
1486611573.99956|||5
1486611574.1344|||5
1486611574.27007|||5
1486611574.40483|||5
1486611574.53948|||5
1486611574.67428|||5
1486611574.80943|||5
1486611574.94372|||5
1486611575.07874|||5
1486611575.21352|||5
1486611575.34839|||5
1486611575.48339|||5
1486611575.61749|||5
1486611575.75227|||5
1486611575.75227|Client|ClientRead|1
1486611575.88723|||5
1486611576.02237|||5
1486611576.15719|||5
1486611576.29207|||5
1486611576.42585|||5
1486611576.56099|||5
1486611576.6959|||5
1486611576.83212|||5
1486611576.96534|||5
1486611577.08619|||5
1486611577.19382|||5
1486611577.30823|||4
1486611577.30823|Client|ClientRead|1
1486611577.44149|||5
1486611577.57641|||5
1486611577.71118|||5
1486611577.84717|||5
1486611577.98208|||5
1486611578.11631|||6
1486611578.2514|||5
1486611578.3849|||5
1486611578.51879|||5
1486611578.65347|||5
1486611578.78839|||5
1486611578.92413|||5
1486611579.05907|||5
1486611579.19223|||5
1486611579.32681|||5
1486611579.46174|||5
1486611579.59663|||5
1486611579.73151|||5
1486611579.86537|||5
1486611580.00025|||5
1486611580.13518|||5
1486611580.27008|||5
1486611580.40504|||5
1486611580.53509|||5
1486611580.66964|||5
1486611580.8035|||5
1486611580.93856|||5
1486611581.07243|||5
1486611581.20747|||5
1486611581.34237|||5
1486611581.47739|||5
1486611581.6121|||5
1486611581.74829|||5
1486611581.87996|||5
1486611582.01475|||5
1486611582.14969|||5
1486611582.28455|||5
1486611582.41945|||5
1486611582.55439|||5
1486611582.68034|||5
1486611582.81094|||6
1486611582.93461|||5
1486611583.05523|Client|ClientRead|1
1486611583.05523|||4
1486611583.18313|||5
1486611583.29928|Client|ClientRead|1
1486611583.29928|||4
1486611583.41723|Client|ClientRead|1
1486611583.41723|||4
1486611583.54144|Client|ClientRead|1
1486611583.54144|||4
1486611583.66319|||4
1486611583.66319|Client|ClientRead|1
1486611583.78856|||4
1486611583.78856|Client|ClientRead|1
1486611583.91596|||4
1486611583.91596|Client|ClientRead|1
1486611584.04733|||6
1486611584.16617|Client|ClientRead|1
1486611584.16617|||4
1486611584.27927|Client|ClientRead|1
1486611584.27927|||4
1486611584.39006|Client|ClientRead|1
1486611584.39006|||4
1486611584.51305|||3
1486611584.51305|Client|ClientRead|2
1486611584.63279|||4
1486611584.63279|Client|ClientRead|1
1486611584.76514|Client|ClientRead|1
1486611584.76514|||4
1486611584.88995|||4
1486611584.88995|Client|ClientRead|1
1486611585.0066|Client|ClientRead|1
1486611585.0066|||4
1486611585.13091|||5
1486611585.13091|Client|ClientRead|1
1486611585.26131|||5
1486611585.3812|||4
1486611585.3812|Client|ClientRead|1
1486611585.49989|||5
1486611585.6183|Client|ClientRead|1
1486611585.6183|||4
1486611585.74052|||2
1486611585.74052|Client|ClientRead|3
1486611585.85451|||4
1486611585.85451|Client|ClientRead|1
1486611585.97721|Client|ClientRead|1
1486611585.97721|||4
1486611586.09621|||4
1486611586.09621|Client|ClientRead|1
1486611586.21136|||4
1486611586.21136|Client|ClientRead|1
1486611586.3355|||5
1486611586.45235|||4
1486611586.45235|Client|ClientRead|1
1486611586.56732|||4
1486611586.56732|Client|ClientRead|1
1486611586.68136|||4
1486611586.68136|Client|ClientRead|1
1486611586.8077|||5
1486611586.93532|||4
1486611586.93532|Client|ClientRead|1
1486611587.0572|Client|ClientRead|1
1486611587.0572|||4
1486611587.17352|||4
1486611587.17352|Client|ClientRead|1
1486611587.2807|||5
1486611587.40612|Client|ClientRead|2
1486611587.40612|||4
1486611587.52895|Client|ClientRead|1
1486611587.52895|||4
1486611587.64939|||4
1486611587.64939|Client|ClientRead|1
1486611587.76953|Client|ClientRead|1
1486611587.76953|||4
1486611587.89427|||3
1486611587.89427|Client|ClientRead|2
1486611588.01003|||4
1486611588.01003|Client|ClientRead|1
1486611588.12556|||4
1486611588.12556|Client|ClientRead|1
1486611588.24771|||4
1486611588.24771|Client|ClientRead|1
1486611588.37846|||5
1486611588.50308|||5
1486611588.50308|Client|ClientRead|1
1486611588.62285|||4
1486611588.62285|Client|ClientRead|1
1486611588.7411|Client|ClientRead|1
1486611588.7411|||4
1486611588.86321|Client|ClientRead|2
1486611588.86321|||3
1486611588.98034|||4
1486611588.98034|Client|ClientRead|1
1486611589.08819|Client|ClientRead|1
1486611589.08819|||4
1486611589.19843|||3
1486611589.19843|LWLock|buffer_mapping|1
1486611589.19843|Client|ClientRead|1
1486611589.31494|||3
1486611589.31494|Client|ClientRead|2
1486611589.42509|||4
1486611589.42509|Client|ClientRead|1
1486611589.53855|Client|ClientRead|1
1486611589.53855|||4
1486611589.66336|||5
1486611589.66336|Client|ClientRead|1
1486611589.79032|||4
1486611589.79032|Client|ClientRead|1
1486611589.91542|||4
1486611589.91542|Client|ClientRead|1
1486611590.0416|Client|ClientRead|2
1486611590.0416|||3
1486611590.15855|||4
1486611590.15855|Client|ClientRead|1
1486611590.27969|||4
1486611590.27969|Client|ClientRead|1
1486611590.39713|||3
1486611590.39713|Client|ClientRead|2
1486611590.51742|||4
1486611590.51742|Client|ClientRead|1
1486611590.63507|Client|ClientRead|1
1486611590.63507|||4
1486611590.75139|Client|ClientRead|2
1486611590.75139|||4
1486611590.87096|Client|ClientRead|1
1486611590.87096|||4
1486611590.98949|||4
1486611590.98949|Client|ClientRead|1
1486611591.10446|||3
1486611591.10446|Client|ClientRead|2
1486611591.2292|Client|ClientRead|1
1486611591.2292|||4
1486611591.34573|||3
1486611591.34573|Client|ClientRead|2
1486611591.46697|||4
1486611591.46697|Client|ClientRead|1
1486611591.58636|Client|ClientRead|1
1486611591.58636|||4
1486611591.70281|Client|ClientRead|1
1486611591.70281|||4
1486611591.83418|||5
1486611591.9668|||5
1486611592.09034|||4
1486611592.09034|Client|ClientRead|1
1486611592.20997|||4
1486611592.20997|Client|ClientRead|1
1486611592.32819|||4
1486611592.32819|Client|ClientRead|1
1486611592.44476|||4
1486611592.44476|Client|ClientRead|1
1486611592.56719|Client|ClientRead|1
1486611592.56719|||4
1486611592.68268|||5
1486611592.79414|||4
1486611592.79414|Client|ClientRead|1
1486611592.90229|Client|ClientRead|1
1486611592.90229|||4
1486611593.0204|Client|ClientRead|1
1486611593.0204|||5
1486611593.15116|Client|ClientRead|1
1486611593.15116|||4
1486611593.26827|Client|ClientRead|1
1486611593.26827|||4
1486611593.37882|||3
1486611593.37882|Client|ClientRead|2
1486611593.49286|Client|ClientRead|1
1486611593.49286|||4
1486611593.62852|||5
1486611593.76419|||5
1486611593.89805|||5
1486611594.03212|||5
1486611594.1653|||6
1486611594.29817|||5
1486611594.43116|||5
1486611594.56625|||5
1486611594.70115|||5
1486611594.83602|||5
1486611594.96917|||5
1486611595.10412|||5
1486611595.23419|||4
1486611595.23419|Client|ClientRead|1
1486611595.36322|||5
1486611595.36322|Client|ClientRead|1
1486611595.48779|||4
1486611595.48779|Client|ClientRead|1
1486611595.61036|||4
1486611595.61036|Client|ClientRead|1
1486611595.73261|||4
1486611595.73261|Client|ClientRead|1
1486611595.85411|Client|ClientRead|1
1486611595.85411|||4
1486611595.9697|||3
1486611595.9697|Client|ClientRead|2
1486611596.09899|||3
1486611596.09899|Client|ClientRead|2
1486611596.22171|Client|ClientRead|2
1486611596.22171|||3
1486611596.34582|Client|ClientRead|1
1486611596.34582|||4
1486611596.477|||4
1486611596.477|Client|ClientRead|1
1486611596.59413|||5
1486611596.70612|||4
1486611596.70612|Client|ClientRead|1
1486611596.81827|Client|ClientRead|1
1486611596.81827|||4
1486611596.93709|Client|ClientRead|1
1486611596.93709|||4
1486611597.05644|||4
1486611597.05644|Client|ClientRead|1
1486611597.17911|Client|ClientRead|1
1486611597.17911|||4
1486611597.30385|Client|ClientRead|1
1486611597.30385|||4
1486611597.42245|||5
1486611597.55523|||6
1486611597.69047|||6
1486611597.82528|||5
1486611597.95919|||5
1486611598.09517|||5
1486611598.23007|||5
1486611598.36319|||5
1486611598.49809|||5
1486611598.63147|||5
1486611598.76421|||6
1486611598.90054|||5
1486611599.03479|||5
1486611599.16966|||5
1486611599.30371|||5
1486611599.43858|||5
1486611599.57363|||5
1486611599.70848|||5
1486611599.84342|||5
1486611599.97852|||5
1486611600.1096|||5
1486611600.24458|||5
1486611600.37944|||5
1486611600.51433|||5
1486611600.64925|||5
1486611600.78409|||5
1486611600.91918|||5
1486611601.05409|||5
1486611601.18965|||6
1486611601.31535|||5
1486611601.43565|||4
1486611601.43565|Client|ClientRead|1
1486611601.55822|Client|ClientRead|1
1486611601.55822|||4
1486611601.69166|||5
1486611601.8217|||4
1486611601.8217|Client|ClientRead|1
1486611601.9457|||4
1486611601.9457|Client|ClientRead|1
1486611602.0783|||5
1486611602.21317|||5
1486611602.34878|Client|ClientRead|1
1486611602.34878|||5
1486611602.48459|||5
1486611602.61959|||5
1486611602.75475|||5
1486611602.88952|||5
1486611603.01077|||5
1486611603.13531|||5
1486611603.24825|||4
1486611603.24825|Client|ClientRead|1
1486611603.38012|||5
1486611603.50875|||5
1486611603.64353|||5
1486611603.77741|||5
1486611603.91231|||5
1486611604.04619|||5
1486611604.17936|||5
1486611604.31419|||5
1486611604.44921|||5
1486611604.58424|||5
1486611604.71714|||4
1486611604.71714|Client|ClientRead|1
1486611604.84445|Client|ClientRead|1
1486611604.84445|||4
1486611604.97161|||4
1486611604.97161|Client|ClientRead|1
1486611605.09531|||4
1486611605.09531|Client|ClientRead|1
1486611605.21897|Client|ClientRead|1
1486611605.21897|||4
1486611605.34038|||5
1486611605.47719|||5
1486611605.61152|||5
1486611605.74647|||5
1486611605.88062|||6
1486611606.0145|||5
1486611606.14974|||5
1486611606.28463|||5
1486611606.41962|||5
1486611606.55451|||5
1486611606.6894|||5
1486611606.82434|||5
1486611606.9594|Client|ClientRead|1
1486611606.9594|||5
1486611607.09516|||5
1486611607.23119|||5
1486611607.36435|||5
1486611607.49667|||5
1486611607.63234|||5
1486611607.76721|||5
1486611607.90217|||5
1486611608.0379|||5
1486611608.17269|||5
1486611608.30475|||5
1486611608.44167|||5
1486611608.57652|||5
1486611608.71223|||5
1486611608.8472|||5
1486611608.98003|||5
1486611609.11322|||5
1486611609.24835|||5
1486611609.38285|||5
1486611609.51111|Client|ClientRead|1
1486611609.51111|||4
1486611609.62464|Client|ClientRead|1
1486611609.62464|||4
1486611609.74906|||4
1486611609.74906|Client|ClientRead|1
1486611609.87955|||5
1486611610.00907|||5
1486611610.144|||5
1486611610.27884|||5
1486611610.41368|||5
1486611610.54761|||6
1486611610.68231|||5
1486611610.81717|||5
1486611610.95182|||5
1486611611.08033|||5
1486611611.20376|||5
1486611611.34217|||5
1486611611.47615|||5
1486611611.61093|Client|ClientRead|1
1486611611.61093|||5
1486611611.74477|||5
1486611611.87956|||5
1486611612.01449|||5
1486611612.14675|||5
1486611612.28176|||5
1486611612.41664|||5
1486611612.55151|||5
1486611612.68643|||5
1486611612.82136|||5
1486611612.95372|||5
1486611613.08852|||5
1486611613.22359|||5
1486611613.35842|||5
1486611613.49358|||5
1486611613.62855|||5
1486611613.76343|||5
1486611613.89839|||5
1486611614.03115|||5
1486611614.16472|||5
1486611614.2996|||5
1486611614.4345|||4
1486611614.4345|Client|ClientRead|1
1486611614.56015|||5
1486611614.69546|||5
1486611614.83058|||5
1486611614.96559|||5
1486611615.10056|||5
1486611615.23434|||4
1486611615.23434|Client|ClientRead|1
1486611615.3497|||5
1486611615.48421|||5
1486611615.61799|||5
1486611615.75319|||5
1486611615.88803|||5
1486611616.0221|||5
1486611616.15706|||5
1486611616.29193|||5
1486611616.42584|||6
1486611616.5595|||5
1486611616.6945|||5
1486611616.82789|||5
1486611616.96084|||5
1486611617.09594|||5
1486611617.23099|||5
1486611617.36471|||5
1486611617.49941|||5
1486611617.63428|||5
1486611617.76971|||5
1486611617.90218|||5
1486611618.03713|||5
1486611618.17209|||5
1486611618.30702|||5
1486611618.43551|Client|ClientRead|1
1486611618.43551|||4
1486611618.54721|||4
1486611618.54721|Client|ClientRead|1
1486611618.68464|||5
1486611618.81037|Client|ClientRead|1
1486611618.81037|||4
1486611618.9381|||5
1486611619.05824|||4
1486611619.05824|Client|ClientRead|1
1486611619.1751|Client|ClientRead|1
1486611619.1751|||4
1486611619.28726|||4
1486611619.28726|Client|ClientRead|1
1486611619.40043|||4
1486611619.40043|Client|ClientRead|1
1486611619.53263|||5
1486611619.66872|||5
1486611619.80366|||5
1486611619.93576|||6
1486611620.07059|||5
1486611620.20379|||5
1486611620.3389|||5
1486611620.4739|||5
1486611620.60958|||5
1486611620.74446|||5
1486611620.87952|||5
1486611621.01387|||6
1486611621.14475|||5
1486611621.26556|Client|ClientRead|1
1486611621.26556|||4
1486611621.38901|||4
1486611621.38901|Client|ClientRead|1
1486611621.50897|||4
1486611621.50897|Client|ClientRead|1
1486611621.62793|Client|ClientRead|1
1486611621.62793|||4
1486611621.75049|||4
1486611621.75049|Client|ClientRead|1
1486611621.87145|||5
1486611621.99421|Client|ClientRead|1
1486611621.99421|||4
1486611622.10914|||4
1486611622.10914|Client|ClientRead|1
1486611622.22497|Client|ClientRead|1
1486611622.22497|||4
1486611622.3553|Client|ClientRead|1
1486611622.3553|||4
1486611622.47117|Client|ClientRead|1
1486611622.47117|||4
1486611622.58479|Client|ClientRead|1
1486611622.58479|||4
1486611622.70742|||3
1486611622.70742|Client|ClientRead|2
1486611622.82673|Client|ClientRead|1
1486611622.82673|||4
1486611622.94524|Client|ClientRead|1
1486611622.94524|||4
1486611623.07411|||5
1486611623.20882|||6
1486611623.33687|||6
1486611623.47113|||5
1486611623.60617|||5
1486611623.7411|||5
1486611623.87614|||5
1486611624.01107|||5
1486611624.14596|||5
1486611624.27816|||5
1486611624.41283|||5
1486611624.54704|||5
1486611624.682|||5
1486611624.81596|||5
1486611624.95093|||5
1486611625.08475|||5
1486611625.21978|||5
1486611625.35371|||5
1486611625.47299|||5
1486611625.60788|||5
1486611625.74305|||5
1486611625.87794|Client|ClientRead|1
1486611625.87794|||4
1486611625.98502|||5
1486611626.10167|||4
1486611626.10167|Client|ClientRead|1
1486611626.2168|Client|ClientRead|1
1486611626.2168|||4
1486611626.33625|Client|ClientRead|1
1486611626.33625|||4
1486611626.45954|Client|ClientRead|1
1486611626.45954|||4
1486611626.58334|Client|ClientRead|1
1486611626.58334|||4
1486611626.71301|Client|ClientRead|2
1486611626.71301|||3
1486611626.83642|Client|ClientRead|1
1486611626.83642|||4
1486611626.95945|||4
1486611626.95945|Client|ClientRead|1
1486611627.07742|Client|ClientRead|1
1486611627.07742|||4
1486611627.19742|||4
1486611627.19742|Client|ClientRead|1
1486611627.31501|Client|ClientRead|1
1486611627.31501|||4
1486611627.42949|Client|ClientRead|1
1486611627.42949|||4
1486611627.54711|||4
1486611627.54711|Client|ClientRead|1
1486611627.66306|Client|ClientRead|1
1486611627.66306|||4
1486611627.79402|Client|ClientRead|1
1486611627.79402|||4
1486611627.9229|||5
1486611628.05495|||5
1486611628.18973|||5
1486611628.32564|||5
1486611628.46062|||5
1486611628.59455|||5
1486611628.73024|||5
1486611628.86551|||5
1486611629.00029|||6
1486611629.13286|||5
1486611629.26753|||5
