 2017-02-08 16:30:36.080557+01 | 1486567836.08056 | pgbench_branches_pkey |            57344
 2017-02-08 16:30:36.080557+01 | 1486567836.08056 | pgbench_tellers_pkey  |           253952
 2017-02-08 16:30:36.080557+01 | 1486567836.08056 | pgbench_accounts_pkey |        112336896

 2017-02-08 16:30:37.135796+01 | 1486567837.1358 | pgbench_branches_pkey |            57344
 2017-02-08 16:30:37.135796+01 | 1486567837.1358 | pgbench_tellers_pkey  |           253952
 2017-02-08 16:30:37.135796+01 | 1486567837.1358 | pgbench_accounts_pkey |        112336896

 2017-02-08 16:30:38.188601+01 | 1486567838.1886 | pgbench_branches_pkey |            57344
 2017-02-08 16:30:38.188601+01 | 1486567838.1886 | pgbench_tellers_pkey  |           253952
 2017-02-08 16:30:38.188601+01 | 1486567838.1886 | pgbench_accounts_pkey |        112336896

 2017-02-08 16:30:39.242627+01 | 1486567839.24263 | pgbench_branches_pkey |            57344
 2017-02-08 16:30:39.242627+01 | 1486567839.24263 | pgbench_tellers_pkey  |           253952
 2017-02-08 16:30:39.242627+01 | 1486567839.24263 | pgbench_accounts_pkey |        112336896

 2017-02-08 16:30:40.299329+01 | 1486567840.29933 | pgbench_branches_pkey |            57344
 2017-02-08 16:30:40.299329+01 | 1486567840.29933 | pgbench_tellers_pkey  |           253952
 2017-02-08 16:30:40.299329+01 | 1486567840.29933 | pgbench_accounts_pkey |        112336896

 2017-02-08 16:30:41.352521+01 | 1486567841.35252 | pgbench_branches_pkey |            57344
 2017-02-08 16:30:41.352521+01 | 1486567841.35252 | pgbench_tellers_pkey  |           253952
 2017-02-08 16:30:41.352521+01 | 1486567841.35252 | pgbench_accounts_pkey |        112336896

 2017-02-08 16:30:42.405982+01 | 1486567842.40598 | pgbench_branches_pkey |            57344
 2017-02-08 16:30:42.405982+01 | 1486567842.40598 | pgbench_tellers_pkey  |           253952
 2017-02-08 16:30:42.405982+01 | 1486567842.40598 | pgbench_accounts_pkey |        112336896

 2017-02-08 16:30:43.463507+01 | 1486567843.46351 | pgbench_branches_pkey |            57344
 2017-02-08 16:30:43.463507+01 | 1486567843.46351 | pgbench_tellers_pkey  |           253952
 2017-02-08 16:30:43.463507+01 | 1486567843.46351 | pgbench_accounts_pkey |        112336896

 2017-02-08 16:30:44.522818+01 | 1486567844.52282 | pgbench_branches_pkey |            57344
 2017-02-08 16:30:44.522818+01 | 1486567844.52282 | pgbench_tellers_pkey  |           253952
 2017-02-08 16:30:44.522818+01 | 1486567844.52282 | pgbench_accounts_pkey |        112336896

 2017-02-08 16:30:45.582912+01 | 1486567845.58291 | pgbench_branches_pkey |            57344
 2017-02-08 16:30:45.582912+01 | 1486567845.58291 | pgbench_tellers_pkey  |           253952
 2017-02-08 16:30:45.582912+01 | 1486567845.58291 | pgbench_accounts_pkey |        112336896

 2017-02-08 16:30:46.635943+01 | 1486567846.63594 | pgbench_branches_pkey |            57344
 2017-02-08 16:30:46.635943+01 | 1486567846.63594 | pgbench_tellers_pkey  |           253952
 2017-02-08 16:30:46.635943+01 | 1486567846.63594 | pgbench_accounts_pkey |        112336896

 2017-02-08 16:30:47.693394+01 | 1486567847.69339 | pgbench_branches_pkey |            57344
 2017-02-08 16:30:47.693394+01 | 1486567847.69339 | pgbench_tellers_pkey  |           253952
 2017-02-08 16:30:47.693394+01 | 1486567847.69339 | pgbench_accounts_pkey |        112336896

 2017-02-08 16:30:48.749718+01 | 1486567848.74972 | pgbench_branches_pkey |            57344
 2017-02-08 16:30:48.749718+01 | 1486567848.74972 | pgbench_tellers_pkey  |           253952
 2017-02-08 16:30:48.749718+01 | 1486567848.74972 | pgbench_accounts_pkey |        112336896

 2017-02-08 16:30:49.80624+01 | 1486567849.80624 | pgbench_branches_pkey |            57344
 2017-02-08 16:30:49.80624+01 | 1486567849.80624 | pgbench_tellers_pkey  |           253952
 2017-02-08 16:30:49.80624+01 | 1486567849.80624 | pgbench_accounts_pkey |        112336896

 2017-02-08 16:30:50.862552+01 | 1486567850.86255 | pgbench_branches_pkey |            57344
 2017-02-08 16:30:50.862552+01 | 1486567850.86255 | pgbench_tellers_pkey  |           253952
 2017-02-08 16:30:50.862552+01 | 1486567850.86255 | pgbench_accounts_pkey |        112336896

 2017-02-08 16:30:51.914905+01 | 1486567851.91491 | pgbench_branches_pkey |            57344
 2017-02-08 16:30:51.914905+01 | 1486567851.91491 | pgbench_tellers_pkey  |           253952
 2017-02-08 16:30:51.914905+01 | 1486567851.91491 | pgbench_accounts_pkey |        112336896

 2017-02-08 16:30:52.971614+01 | 1486567852.97161 | pgbench_branches_pkey |            57344
 2017-02-08 16:30:52.971614+01 | 1486567852.97161 | pgbench_tellers_pkey  |           253952
 2017-02-08 16:30:52.971614+01 | 1486567852.97161 | pgbench_accounts_pkey |        112336896

 2017-02-08 16:30:54.028004+01 | 1486567854.028 | pgbench_branches_pkey |            57344
 2017-02-08 16:30:54.028004+01 | 1486567854.028 | pgbench_tellers_pkey  |           253952
 2017-02-08 16:30:54.028004+01 | 1486567854.028 | pgbench_accounts_pkey |        112336896

 2017-02-08 16:30:55.080229+01 | 1486567855.08023 | pgbench_branches_pkey |            57344
 2017-02-08 16:30:55.080229+01 | 1486567855.08023 | pgbench_tellers_pkey  |           253952
 2017-02-08 16:30:55.080229+01 | 1486567855.08023 | pgbench_accounts_pkey |        112336896

 2017-02-08 16:30:56.139247+01 | 1486567856.13925 | pgbench_branches_pkey |            57344
 2017-02-08 16:30:56.139247+01 | 1486567856.13925 | pgbench_tellers_pkey  |           253952
 2017-02-08 16:30:56.139247+01 | 1486567856.13925 | pgbench_accounts_pkey |        112336896

 2017-02-08 16:30:57.194863+01 | 1486567857.19486 | pgbench_branches_pkey |            57344
 2017-02-08 16:30:57.194863+01 | 1486567857.19486 | pgbench_tellers_pkey  |           253952
 2017-02-08 16:30:57.194863+01 | 1486567857.19486 | pgbench_accounts_pkey |        112336896

 2017-02-08 16:30:58.249542+01 | 1486567858.24954 | pgbench_branches_pkey |            57344
 2017-02-08 16:30:58.249542+01 | 1486567858.24954 | pgbench_tellers_pkey  |           253952
 2017-02-08 16:30:58.249542+01 | 1486567858.24954 | pgbench_accounts_pkey |        112336896

 2017-02-08 16:30:59.313693+01 | 1486567859.31369 | pgbench_branches_pkey |            57344
 2017-02-08 16:30:59.313693+01 | 1486567859.31369 | pgbench_tellers_pkey  |           253952
 2017-02-08 16:30:59.313693+01 | 1486567859.31369 | pgbench_accounts_pkey |        112336896

 2017-02-08 16:31:00.365072+01 | 1486567860.36507 | pgbench_branches_pkey |            57344
 2017-02-08 16:31:00.365072+01 | 1486567860.36507 | pgbench_tellers_pkey  |           253952
 2017-02-08 16:31:00.365072+01 | 1486567860.36507 | pgbench_accounts_pkey |        112336896

 2017-02-08 16:31:01.41871+01 | 1486567861.41871 | pgbench_branches_pkey |            57344
 2017-02-08 16:31:01.41871+01 | 1486567861.41871 | pgbench_tellers_pkey  |           253952
 2017-02-08 16:31:01.41871+01 | 1486567861.41871 | pgbench_accounts_pkey |        112336896

 2017-02-08 16:31:02.480127+01 | 1486567862.48013 | pgbench_branches_pkey |            57344
 2017-02-08 16:31:02.480127+01 | 1486567862.48013 | pgbench_tellers_pkey  |           253952
 2017-02-08 16:31:02.480127+01 | 1486567862.48013 | pgbench_accounts_pkey |        112336896

 2017-02-08 16:31:03.534794+01 | 1486567863.53479 | pgbench_branches_pkey |            57344
 2017-02-08 16:31:03.534794+01 | 1486567863.53479 | pgbench_tellers_pkey  |           253952
 2017-02-08 16:31:03.534794+01 | 1486567863.53479 | pgbench_accounts_pkey |        112336896

 2017-02-08 16:31:04.59253+01 | 1486567864.59253 | pgbench_branches_pkey |            57344
 2017-02-08 16:31:04.59253+01 | 1486567864.59253 | pgbench_tellers_pkey  |           253952
 2017-02-08 16:31:04.59253+01 | 1486567864.59253 | pgbench_accounts_pkey |        112336896

 2017-02-08 16:31:05.652164+01 | 1486567865.65216 | pgbench_branches_pkey |            57344
 2017-02-08 16:31:05.652164+01 | 1486567865.65216 | pgbench_tellers_pkey  |           253952
 2017-02-08 16:31:05.652164+01 | 1486567865.65216 | pgbench_accounts_pkey |        112336896

 2017-02-08 16:31:06.71181+01 | 1486567866.71181 | pgbench_branches_pkey |            57344
 2017-02-08 16:31:06.71181+01 | 1486567866.71181 | pgbench_tellers_pkey  |           253952
 2017-02-08 16:31:06.71181+01 | 1486567866.71181 | pgbench_accounts_pkey |        112336896

 2017-02-08 16:31:07.765697+01 | 1486567867.7657 | pgbench_branches_pkey |            57344
 2017-02-08 16:31:07.765697+01 | 1486567867.7657 | pgbench_tellers_pkey  |           253952
 2017-02-08 16:31:07.765697+01 | 1486567867.7657 | pgbench_accounts_pkey |        112336896

 2017-02-08 16:31:08.823309+01 | 1486567868.82331 | pgbench_branches_pkey |            57344
 2017-02-08 16:31:08.823309+01 | 1486567868.82331 | pgbench_tellers_pkey  |           253952
 2017-02-08 16:31:08.823309+01 | 1486567868.82331 | pgbench_accounts_pkey |        112336896

 2017-02-08 16:31:09.878725+01 | 1486567869.87873 | pgbench_branches_pkey |            57344
 2017-02-08 16:31:09.878725+01 | 1486567869.87873 | pgbench_tellers_pkey  |           253952
 2017-02-08 16:31:09.878725+01 | 1486567869.87873 | pgbench_accounts_pkey |        112336896

 2017-02-08 16:31:10.936445+01 | 1486567870.93644 | pgbench_branches_pkey |            57344
 2017-02-08 16:31:10.936445+01 | 1486567870.93644 | pgbench_tellers_pkey  |           253952
 2017-02-08 16:31:10.936445+01 | 1486567870.93644 | pgbench_accounts_pkey |        112336896

 2017-02-08 16:31:11.987435+01 | 1486567871.98744 | pgbench_branches_pkey |            57344
 2017-02-08 16:31:11.987435+01 | 1486567871.98744 | pgbench_tellers_pkey  |           253952
 2017-02-08 16:31:11.987435+01 | 1486567871.98744 | pgbench_accounts_pkey |        112336896

 2017-02-08 16:31:13.041653+01 | 1486567873.04165 | pgbench_branches_pkey |            57344
 2017-02-08 16:31:13.041653+01 | 1486567873.04165 | pgbench_tellers_pkey  |           253952
 2017-02-08 16:31:13.041653+01 | 1486567873.04165 | pgbench_accounts_pkey |        112336896

 2017-02-08 16:31:14.101581+01 | 1486567874.10158 | pgbench_branches_pkey |            57344
 2017-02-08 16:31:14.101581+01 | 1486567874.10158 | pgbench_tellers_pkey  |           253952
 2017-02-08 16:31:14.101581+01 | 1486567874.10158 | pgbench_accounts_pkey |        112336896

 2017-02-08 16:31:15.156934+01 | 1486567875.15693 | pgbench_branches_pkey |            57344
 2017-02-08 16:31:15.156934+01 | 1486567875.15693 | pgbench_tellers_pkey  |           253952
 2017-02-08 16:31:15.156934+01 | 1486567875.15693 | pgbench_accounts_pkey |        112336896

 2017-02-08 16:31:16.207757+01 | 1486567876.20776 | pgbench_branches_pkey |            57344
 2017-02-08 16:31:16.207757+01 | 1486567876.20776 | pgbench_tellers_pkey  |           253952
 2017-02-08 16:31:16.207757+01 | 1486567876.20776 | pgbench_accounts_pkey |        112336896

 2017-02-08 16:31:17.260485+01 | 1486567877.26048 | pgbench_branches_pkey |            57344
 2017-02-08 16:31:17.260485+01 | 1486567877.26048 | pgbench_tellers_pkey  |           253952
 2017-02-08 16:31:17.260485+01 | 1486567877.26048 | pgbench_accounts_pkey |        112336896

 2017-02-08 16:31:18.315848+01 | 1486567878.31585 | pgbench_branches_pkey |            57344
 2017-02-08 16:31:18.315848+01 | 1486567878.31585 | pgbench_tellers_pkey  |           253952
 2017-02-08 16:31:18.315848+01 | 1486567878.31585 | pgbench_accounts_pkey |        112336896

 2017-02-08 16:31:19.369545+01 | 1486567879.36954 | pgbench_branches_pkey |            57344
 2017-02-08 16:31:19.369545+01 | 1486567879.36954 | pgbench_tellers_pkey  |           253952
 2017-02-08 16:31:19.369545+01 | 1486567879.36954 | pgbench_accounts_pkey |        112336896

 2017-02-08 16:31:20.423756+01 | 1486567880.42376 | pgbench_branches_pkey |            57344
 2017-02-08 16:31:20.423756+01 | 1486567880.42376 | pgbench_tellers_pkey  |           253952
 2017-02-08 16:31:20.423756+01 | 1486567880.42376 | pgbench_accounts_pkey |        112336896

 2017-02-08 16:31:21.478817+01 | 1486567881.47882 | pgbench_branches_pkey |            57344
 2017-02-08 16:31:21.478817+01 | 1486567881.47882 | pgbench_tellers_pkey  |           253952
 2017-02-08 16:31:21.478817+01 | 1486567881.47882 | pgbench_accounts_pkey |        112336896

 2017-02-08 16:31:22.540735+01 | 1486567882.54074 | pgbench_branches_pkey |            57344
 2017-02-08 16:31:22.540735+01 | 1486567882.54074 | pgbench_tellers_pkey  |           253952
 2017-02-08 16:31:22.540735+01 | 1486567882.54074 | pgbench_accounts_pkey |        112336896

 2017-02-08 16:31:23.597664+01 | 1486567883.59766 | pgbench_branches_pkey |            57344
 2017-02-08 16:31:23.597664+01 | 1486567883.59766 | pgbench_tellers_pkey  |           253952
 2017-02-08 16:31:23.597664+01 | 1486567883.59766 | pgbench_accounts_pkey |        112336896

 2017-02-08 16:31:24.653802+01 | 1486567884.6538 | pgbench_branches_pkey |            57344
 2017-02-08 16:31:24.653802+01 | 1486567884.6538 | pgbench_tellers_pkey  |           253952
 2017-02-08 16:31:24.653802+01 | 1486567884.6538 | pgbench_accounts_pkey |        112336896

 2017-02-08 16:31:25.708662+01 | 1486567885.70866 | pgbench_branches_pkey |            57344
 2017-02-08 16:31:25.708662+01 | 1486567885.70866 | pgbench_tellers_pkey  |           253952
 2017-02-08 16:31:25.708662+01 | 1486567885.70866 | pgbench_accounts_pkey |        112336896

 2017-02-08 16:31:26.761447+01 | 1486567886.76145 | pgbench_branches_pkey |            57344
 2017-02-08 16:31:26.761447+01 | 1486567886.76145 | pgbench_tellers_pkey  |           253952
 2017-02-08 16:31:26.761447+01 | 1486567886.76145 | pgbench_accounts_pkey |        112336896

 2017-02-08 16:31:27.816976+01 | 1486567887.81698 | pgbench_branches_pkey |            57344
 2017-02-08 16:31:27.816976+01 | 1486567887.81698 | pgbench_tellers_pkey  |           253952
 2017-02-08 16:31:27.816976+01 | 1486567887.81698 | pgbench_accounts_pkey |        112336896

 2017-02-08 16:31:28.874175+01 | 1486567888.87418 | pgbench_branches_pkey |            57344
 2017-02-08 16:31:28.874175+01 | 1486567888.87418 | pgbench_tellers_pkey  |           253952
 2017-02-08 16:31:28.874175+01 | 1486567888.87418 | pgbench_accounts_pkey |        112336896

 2017-02-08 16:31:29.93144+01 | 1486567889.93144 | pgbench_branches_pkey |            57344
 2017-02-08 16:31:29.93144+01 | 1486567889.93144 | pgbench_tellers_pkey  |           253952
 2017-02-08 16:31:29.93144+01 | 1486567889.93144 | pgbench_accounts_pkey |        112336896

 2017-02-08 16:31:30.98708+01 | 1486567890.98708 | pgbench_branches_pkey |            57344
 2017-02-08 16:31:30.98708+01 | 1486567890.98708 | pgbench_tellers_pkey  |           253952
 2017-02-08 16:31:30.98708+01 | 1486567890.98708 | pgbench_accounts_pkey |        112336896

 2017-02-08 16:31:32.053525+01 | 1486567892.05352 | pgbench_branches_pkey |            57344
 2017-02-08 16:31:32.053525+01 | 1486567892.05352 | pgbench_tellers_pkey  |           253952
 2017-02-08 16:31:32.053525+01 | 1486567892.05352 | pgbench_accounts_pkey |        112336896

 2017-02-08 16:31:33.112927+01 | 1486567893.11293 | pgbench_branches_pkey |            57344
 2017-02-08 16:31:33.112927+01 | 1486567893.11293 | pgbench_tellers_pkey  |           253952
 2017-02-08 16:31:33.112927+01 | 1486567893.11293 | pgbench_accounts_pkey |        112336896

 2017-02-08 16:31:34.174734+01 | 1486567894.17473 | pgbench_branches_pkey |            57344
 2017-02-08 16:31:34.174734+01 | 1486567894.17473 | pgbench_tellers_pkey  |           253952
 2017-02-08 16:31:34.174734+01 | 1486567894.17473 | pgbench_accounts_pkey |        112336896

 2017-02-08 16:31:35.231362+01 | 1486567895.23136 | pgbench_branches_pkey |            57344
 2017-02-08 16:31:35.231362+01 | 1486567895.23136 | pgbench_tellers_pkey  |           253952
 2017-02-08 16:31:35.231362+01 | 1486567895.23136 | pgbench_accounts_pkey |        112336896

 2017-02-08 16:31:36.293163+01 | 1486567896.29316 | pgbench_branches_pkey |            57344
 2017-02-08 16:31:36.293163+01 | 1486567896.29316 | pgbench_tellers_pkey  |           253952
 2017-02-08 16:31:36.293163+01 | 1486567896.29316 | pgbench_accounts_pkey |        112336896

 2017-02-08 16:31:37.347018+01 | 1486567897.34702 | pgbench_branches_pkey |            57344
 2017-02-08 16:31:37.347018+01 | 1486567897.34702 | pgbench_tellers_pkey  |           253952
 2017-02-08 16:31:37.347018+01 | 1486567897.34702 | pgbench_accounts_pkey |        112336896

 2017-02-08 16:31:38.40836+01 | 1486567898.40836 | pgbench_branches_pkey |            57344
 2017-02-08 16:31:38.40836+01 | 1486567898.40836 | pgbench_tellers_pkey  |           253952
 2017-02-08 16:31:38.40836+01 | 1486567898.40836 | pgbench_accounts_pkey |        112336896

 2017-02-08 16:31:39.463941+01 | 1486567899.46394 | pgbench_branches_pkey |            57344
 2017-02-08 16:31:39.463941+01 | 1486567899.46394 | pgbench_tellers_pkey  |           253952
 2017-02-08 16:31:39.463941+01 | 1486567899.46394 | pgbench_accounts_pkey |        112336896

 2017-02-08 16:31:40.526522+01 | 1486567900.52652 | pgbench_branches_pkey |            57344
 2017-02-08 16:31:40.526522+01 | 1486567900.52652 | pgbench_tellers_pkey  |           253952
 2017-02-08 16:31:40.526522+01 | 1486567900.52652 | pgbench_accounts_pkey |        112336896

 2017-02-08 16:31:41.584455+01 | 1486567901.58446 | pgbench_branches_pkey |            57344
 2017-02-08 16:31:41.584455+01 | 1486567901.58446 | pgbench_tellers_pkey  |           253952
 2017-02-08 16:31:41.584455+01 | 1486567901.58446 | pgbench_accounts_pkey |        112336896

 2017-02-08 16:31:42.641068+01 | 1486567902.64107 | pgbench_branches_pkey |            57344
 2017-02-08 16:31:42.641068+01 | 1486567902.64107 | pgbench_tellers_pkey  |           253952
 2017-02-08 16:31:42.641068+01 | 1486567902.64107 | pgbench_accounts_pkey |        112336896

 2017-02-08 16:31:43.700474+01 | 1486567903.70047 | pgbench_branches_pkey |            57344
 2017-02-08 16:31:43.700474+01 | 1486567903.70047 | pgbench_tellers_pkey  |           253952
 2017-02-08 16:31:43.700474+01 | 1486567903.70047 | pgbench_accounts_pkey |        112336896

 2017-02-08 16:31:44.758185+01 | 1486567904.75818 | pgbench_branches_pkey |            57344
 2017-02-08 16:31:44.758185+01 | 1486567904.75818 | pgbench_tellers_pkey  |           253952
 2017-02-08 16:31:44.758185+01 | 1486567904.75818 | pgbench_accounts_pkey |        112336896

 2017-02-08 16:31:45.81542+01 | 1486567905.81542 | pgbench_branches_pkey |            57344
 2017-02-08 16:31:45.81542+01 | 1486567905.81542 | pgbench_tellers_pkey  |           253952
 2017-02-08 16:31:45.81542+01 | 1486567905.81542 | pgbench_accounts_pkey |        112336896

 2017-02-08 16:31:46.873369+01 | 1486567906.87337 | pgbench_branches_pkey |            57344
 2017-02-08 16:31:46.873369+01 | 1486567906.87337 | pgbench_tellers_pkey  |           253952
 2017-02-08 16:31:46.873369+01 | 1486567906.87337 | pgbench_accounts_pkey |        112336896

 2017-02-08 16:31:47.926471+01 | 1486567907.92647 | pgbench_branches_pkey |            57344
 2017-02-08 16:31:47.926471+01 | 1486567907.92647 | pgbench_tellers_pkey  |           253952
 2017-02-08 16:31:47.926471+01 | 1486567907.92647 | pgbench_accounts_pkey |        112336896

 2017-02-08 16:31:48.986159+01 | 1486567908.98616 | pgbench_branches_pkey |            57344
 2017-02-08 16:31:48.986159+01 | 1486567908.98616 | pgbench_tellers_pkey  |           253952
 2017-02-08 16:31:48.986159+01 | 1486567908.98616 | pgbench_accounts_pkey |        112336896

 2017-02-08 16:31:50.042582+01 | 1486567910.04258 | pgbench_branches_pkey |            57344
 2017-02-08 16:31:50.042582+01 | 1486567910.04258 | pgbench_tellers_pkey  |           253952
 2017-02-08 16:31:50.042582+01 | 1486567910.04258 | pgbench_accounts_pkey |        112336896

 2017-02-08 16:31:51.099971+01 | 1486567911.09997 | pgbench_branches_pkey |            57344
 2017-02-08 16:31:51.099971+01 | 1486567911.09997 | pgbench_tellers_pkey  |           253952
 2017-02-08 16:31:51.099971+01 | 1486567911.09997 | pgbench_accounts_pkey |        112336896

 2017-02-08 16:31:52.158693+01 | 1486567912.15869 | pgbench_branches_pkey |            57344
 2017-02-08 16:31:52.158693+01 | 1486567912.15869 | pgbench_tellers_pkey  |           253952
 2017-02-08 16:31:52.158693+01 | 1486567912.15869 | pgbench_accounts_pkey |        112336896

 2017-02-08 16:31:53.211622+01 | 1486567913.21162 | pgbench_branches_pkey |            57344
 2017-02-08 16:31:53.211622+01 | 1486567913.21162 | pgbench_tellers_pkey  |           253952
 2017-02-08 16:31:53.211622+01 | 1486567913.21162 | pgbench_accounts_pkey |        112336896

 2017-02-08 16:31:54.265145+01 | 1486567914.26515 | pgbench_branches_pkey |            57344
 2017-02-08 16:31:54.265145+01 | 1486567914.26515 | pgbench_tellers_pkey  |           253952
 2017-02-08 16:31:54.265145+01 | 1486567914.26515 | pgbench_accounts_pkey |        112336896

 2017-02-08 16:31:55.324337+01 | 1486567915.32434 | pgbench_branches_pkey |            57344
 2017-02-08 16:31:55.324337+01 | 1486567915.32434 | pgbench_tellers_pkey  |           253952
 2017-02-08 16:31:55.324337+01 | 1486567915.32434 | pgbench_accounts_pkey |        112336896

 2017-02-08 16:31:56.380223+01 | 1486567916.38022 | pgbench_branches_pkey |            57344
 2017-02-08 16:31:56.380223+01 | 1486567916.38022 | pgbench_tellers_pkey  |           253952
 2017-02-08 16:31:56.380223+01 | 1486567916.38022 | pgbench_accounts_pkey |        112336896

 2017-02-08 16:31:57.435563+01 | 1486567917.43556 | pgbench_branches_pkey |            57344
 2017-02-08 16:31:57.435563+01 | 1486567917.43556 | pgbench_tellers_pkey  |           253952
 2017-02-08 16:31:57.435563+01 | 1486567917.43556 | pgbench_accounts_pkey |        112336896

 2017-02-08 16:31:58.496967+01 | 1486567918.49697 | pgbench_branches_pkey |            57344
 2017-02-08 16:31:58.496967+01 | 1486567918.49697 | pgbench_tellers_pkey  |           253952
 2017-02-08 16:31:58.496967+01 | 1486567918.49697 | pgbench_accounts_pkey |        112336896

 2017-02-08 16:31:59.559153+01 | 1486567919.55915 | pgbench_branches_pkey |            57344
 2017-02-08 16:31:59.559153+01 | 1486567919.55915 | pgbench_tellers_pkey  |           253952
 2017-02-08 16:31:59.559153+01 | 1486567919.55915 | pgbench_accounts_pkey |        112336896

 2017-02-08 16:32:00.612908+01 | 1486567920.61291 | pgbench_branches_pkey |            57344
 2017-02-08 16:32:00.612908+01 | 1486567920.61291 | pgbench_tellers_pkey  |           253952
 2017-02-08 16:32:00.612908+01 | 1486567920.61291 | pgbench_accounts_pkey |        112336896

 2017-02-08 16:32:01.671858+01 | 1486567921.67186 | pgbench_branches_pkey |            57344
 2017-02-08 16:32:01.671858+01 | 1486567921.67186 | pgbench_tellers_pkey  |           253952
 2017-02-08 16:32:01.671858+01 | 1486567921.67186 | pgbench_accounts_pkey |        112336896

 2017-02-08 16:32:02.725644+01 | 1486567922.72564 | pgbench_branches_pkey |            57344
 2017-02-08 16:32:02.725644+01 | 1486567922.72564 | pgbench_tellers_pkey  |           253952
 2017-02-08 16:32:02.725644+01 | 1486567922.72564 | pgbench_accounts_pkey |        112336896

 2017-02-08 16:32:03.780537+01 | 1486567923.78054 | pgbench_branches_pkey |            57344
 2017-02-08 16:32:03.780537+01 | 1486567923.78054 | pgbench_tellers_pkey  |           253952
 2017-02-08 16:32:03.780537+01 | 1486567923.78054 | pgbench_accounts_pkey |        112336896

 2017-02-08 16:32:04.835064+01 | 1486567924.83506 | pgbench_branches_pkey |            57344
 2017-02-08 16:32:04.835064+01 | 1486567924.83506 | pgbench_tellers_pkey  |           253952
 2017-02-08 16:32:04.835064+01 | 1486567924.83506 | pgbench_accounts_pkey |        112336896

 2017-02-08 16:32:05.891776+01 | 1486567925.89178 | pgbench_branches_pkey |            57344
 2017-02-08 16:32:05.891776+01 | 1486567925.89178 | pgbench_tellers_pkey  |           253952
 2017-02-08 16:32:05.891776+01 | 1486567925.89178 | pgbench_accounts_pkey |        112336896

 2017-02-08 16:32:06.94752+01 | 1486567926.94752 | pgbench_branches_pkey |            57344
 2017-02-08 16:32:06.94752+01 | 1486567926.94752 | pgbench_tellers_pkey  |           253952
 2017-02-08 16:32:06.94752+01 | 1486567926.94752 | pgbench_accounts_pkey |        112336896

 2017-02-08 16:32:08.009488+01 | 1486567928.00949 | pgbench_branches_pkey |            57344
 2017-02-08 16:32:08.009488+01 | 1486567928.00949 | pgbench_tellers_pkey  |           253952
 2017-02-08 16:32:08.009488+01 | 1486567928.00949 | pgbench_accounts_pkey |        112336896

 2017-02-08 16:32:09.070102+01 | 1486567929.0701 | pgbench_branches_pkey |            57344
 2017-02-08 16:32:09.070102+01 | 1486567929.0701 | pgbench_tellers_pkey  |           253952
 2017-02-08 16:32:09.070102+01 | 1486567929.0701 | pgbench_accounts_pkey |        112336896

 2017-02-08 16:32:10.129081+01 | 1486567930.12908 | pgbench_branches_pkey |            57344
 2017-02-08 16:32:10.129081+01 | 1486567930.12908 | pgbench_tellers_pkey  |           253952
 2017-02-08 16:32:10.129081+01 | 1486567930.12908 | pgbench_accounts_pkey |        112336896

 2017-02-08 16:32:11.179996+01 | 1486567931.18 | pgbench_branches_pkey |            57344
 2017-02-08 16:32:11.179996+01 | 1486567931.18 | pgbench_tellers_pkey  |           253952
 2017-02-08 16:32:11.179996+01 | 1486567931.18 | pgbench_accounts_pkey |        112336896

 2017-02-08 16:32:12.239926+01 | 1486567932.23993 | pgbench_branches_pkey |            57344
 2017-02-08 16:32:12.239926+01 | 1486567932.23993 | pgbench_tellers_pkey  |           253952
 2017-02-08 16:32:12.239926+01 | 1486567932.23993 | pgbench_accounts_pkey |        112336896

 2017-02-08 16:32:13.302957+01 | 1486567933.30296 | pgbench_branches_pkey |            57344
 2017-02-08 16:32:13.302957+01 | 1486567933.30296 | pgbench_tellers_pkey  |           253952
 2017-02-08 16:32:13.302957+01 | 1486567933.30296 | pgbench_accounts_pkey |        112336896

 2017-02-08 16:32:14.355872+01 | 1486567934.35587 | pgbench_branches_pkey |            57344
 2017-02-08 16:32:14.355872+01 | 1486567934.35587 | pgbench_tellers_pkey  |           253952
 2017-02-08 16:32:14.355872+01 | 1486567934.35587 | pgbench_accounts_pkey |        112336896

 2017-02-08 16:32:15.411967+01 | 1486567935.41197 | pgbench_branches_pkey |            57344
 2017-02-08 16:32:15.411967+01 | 1486567935.41197 | pgbench_tellers_pkey  |           253952
 2017-02-08 16:32:15.411967+01 | 1486567935.41197 | pgbench_accounts_pkey |        112336896

 2017-02-08 16:32:16.474014+01 | 1486567936.47401 | pgbench_branches_pkey |            57344
 2017-02-08 16:32:16.474014+01 | 1486567936.47401 | pgbench_tellers_pkey  |           253952
 2017-02-08 16:32:16.474014+01 | 1486567936.47401 | pgbench_accounts_pkey |        112336896

 2017-02-08 16:32:17.533087+01 | 1486567937.53309 | pgbench_branches_pkey |            57344
 2017-02-08 16:32:17.533087+01 | 1486567937.53309 | pgbench_tellers_pkey  |           253952
 2017-02-08 16:32:17.533087+01 | 1486567937.53309 | pgbench_accounts_pkey |        112336896

 2017-02-08 16:32:18.594874+01 | 1486567938.59487 | pgbench_branches_pkey |            57344
 2017-02-08 16:32:18.594874+01 | 1486567938.59487 | pgbench_tellers_pkey  |           253952
 2017-02-08 16:32:18.594874+01 | 1486567938.59487 | pgbench_accounts_pkey |        112336896

 2017-02-08 16:32:19.651768+01 | 1486567939.65177 | pgbench_branches_pkey |            57344
 2017-02-08 16:32:19.651768+01 | 1486567939.65177 | pgbench_tellers_pkey  |           253952
 2017-02-08 16:32:19.651768+01 | 1486567939.65177 | pgbench_accounts_pkey |        112336896

 2017-02-08 16:32:20.715627+01 | 1486567940.71563 | pgbench_branches_pkey |            57344
 2017-02-08 16:32:20.715627+01 | 1486567940.71563 | pgbench_tellers_pkey  |           253952
 2017-02-08 16:32:20.715627+01 | 1486567940.71563 | pgbench_accounts_pkey |        112336896

 2017-02-08 16:32:21.772374+01 | 1486567941.77237 | pgbench_branches_pkey |            57344
 2017-02-08 16:32:21.772374+01 | 1486567941.77237 | pgbench_tellers_pkey  |           253952
 2017-02-08 16:32:21.772374+01 | 1486567941.77237 | pgbench_accounts_pkey |        112336896

 2017-02-08 16:32:22.831946+01 | 1486567942.83195 | pgbench_branches_pkey |            57344
 2017-02-08 16:32:22.831946+01 | 1486567942.83195 | pgbench_tellers_pkey  |           253952
 2017-02-08 16:32:22.831946+01 | 1486567942.83195 | pgbench_accounts_pkey |        112336896

 2017-02-08 16:32:23.890531+01 | 1486567943.89053 | pgbench_branches_pkey |            57344
 2017-02-08 16:32:23.890531+01 | 1486567943.89053 | pgbench_tellers_pkey  |           253952
 2017-02-08 16:32:23.890531+01 | 1486567943.89053 | pgbench_accounts_pkey |        112336896

 2017-02-08 16:32:24.948099+01 | 1486567944.9481 | pgbench_branches_pkey |            57344
 2017-02-08 16:32:24.948099+01 | 1486567944.9481 | pgbench_tellers_pkey  |           253952
 2017-02-08 16:32:24.948099+01 | 1486567944.9481 | pgbench_accounts_pkey |        112336896

 2017-02-08 16:32:26.003598+01 | 1486567946.0036 | pgbench_branches_pkey |            57344
 2017-02-08 16:32:26.003598+01 | 1486567946.0036 | pgbench_tellers_pkey  |           253952
 2017-02-08 16:32:26.003598+01 | 1486567946.0036 | pgbench_accounts_pkey |        112336896

 2017-02-08 16:32:27.060753+01 | 1486567947.06075 | pgbench_branches_pkey |            57344
 2017-02-08 16:32:27.060753+01 | 1486567947.06075 | pgbench_tellers_pkey  |           253952
 2017-02-08 16:32:27.060753+01 | 1486567947.06075 | pgbench_accounts_pkey |        112336896

 2017-02-08 16:32:28.115835+01 | 1486567948.11583 | pgbench_branches_pkey |            57344
 2017-02-08 16:32:28.115835+01 | 1486567948.11583 | pgbench_tellers_pkey  |           253952
 2017-02-08 16:32:28.115835+01 | 1486567948.11583 | pgbench_accounts_pkey |        112336896

 2017-02-08 16:32:29.182189+01 | 1486567949.18219 | pgbench_branches_pkey |            57344
 2017-02-08 16:32:29.182189+01 | 1486567949.18219 | pgbench_tellers_pkey  |           253952
 2017-02-08 16:32:29.182189+01 | 1486567949.18219 | pgbench_accounts_pkey |        112336896

 2017-02-08 16:32:30.233896+01 | 1486567950.2339 | pgbench_branches_pkey |            57344
 2017-02-08 16:32:30.233896+01 | 1486567950.2339 | pgbench_tellers_pkey  |           253952
 2017-02-08 16:32:30.233896+01 | 1486567950.2339 | pgbench_accounts_pkey |        112336896

 2017-02-08 16:32:31.292793+01 | 1486567951.29279 | pgbench_branches_pkey |            57344
 2017-02-08 16:32:31.292793+01 | 1486567951.29279 | pgbench_tellers_pkey  |           253952
 2017-02-08 16:32:31.292793+01 | 1486567951.29279 | pgbench_accounts_pkey |        112336896

 2017-02-08 16:32:32.353464+01 | 1486567952.35346 | pgbench_branches_pkey |            57344
 2017-02-08 16:32:32.353464+01 | 1486567952.35346 | pgbench_tellers_pkey  |           253952
 2017-02-08 16:32:32.353464+01 | 1486567952.35346 | pgbench_accounts_pkey |        112336896

 2017-02-08 16:32:33.414738+01 | 1486567953.41474 | pgbench_branches_pkey |            57344
 2017-02-08 16:32:33.414738+01 | 1486567953.41474 | pgbench_tellers_pkey  |           253952
 2017-02-08 16:32:33.414738+01 | 1486567953.41474 | pgbench_accounts_pkey |        112336896

 2017-02-08 16:32:34.473002+01 | 1486567954.473 | pgbench_branches_pkey |            57344
 2017-02-08 16:32:34.473002+01 | 1486567954.473 | pgbench_tellers_pkey  |           253952
 2017-02-08 16:32:34.473002+01 | 1486567954.473 | pgbench_accounts_pkey |        112336896

 2017-02-08 16:32:35.53529+01 | 1486567955.53529 | pgbench_branches_pkey |            57344
 2017-02-08 16:32:35.53529+01 | 1486567955.53529 | pgbench_tellers_pkey  |           253952
 2017-02-08 16:32:35.53529+01 | 1486567955.53529 | pgbench_accounts_pkey |        112336896

 2017-02-08 16:32:36.595095+01 | 1486567956.59509 | pgbench_branches_pkey |            57344
 2017-02-08 16:32:36.595095+01 | 1486567956.59509 | pgbench_tellers_pkey  |           253952
 2017-02-08 16:32:36.595095+01 | 1486567956.59509 | pgbench_accounts_pkey |        112336896

 2017-02-08 16:32:37.65602+01 | 1486567957.65602 | pgbench_branches_pkey |            57344
 2017-02-08 16:32:37.65602+01 | 1486567957.65602 | pgbench_tellers_pkey  |           253952
 2017-02-08 16:32:37.65602+01 | 1486567957.65602 | pgbench_accounts_pkey |        112336896

 2017-02-08 16:32:38.709188+01 | 1486567958.70919 | pgbench_branches_pkey |            57344
 2017-02-08 16:32:38.709188+01 | 1486567958.70919 | pgbench_tellers_pkey  |           253952
 2017-02-08 16:32:38.709188+01 | 1486567958.70919 | pgbench_accounts_pkey |        112336896

 2017-02-08 16:32:39.767839+01 | 1486567959.76784 | pgbench_branches_pkey |            57344
 2017-02-08 16:32:39.767839+01 | 1486567959.76784 | pgbench_tellers_pkey  |           253952
 2017-02-08 16:32:39.767839+01 | 1486567959.76784 | pgbench_accounts_pkey |        112336896

 2017-02-08 16:32:40.824345+01 | 1486567960.82435 | pgbench_branches_pkey |            57344
 2017-02-08 16:32:40.824345+01 | 1486567960.82435 | pgbench_tellers_pkey  |           253952
 2017-02-08 16:32:40.824345+01 | 1486567960.82435 | pgbench_accounts_pkey |        112336896

 2017-02-08 16:32:41.878418+01 | 1486567961.87842 | pgbench_branches_pkey |            57344
 2017-02-08 16:32:41.878418+01 | 1486567961.87842 | pgbench_tellers_pkey  |           253952
 2017-02-08 16:32:41.878418+01 | 1486567961.87842 | pgbench_accounts_pkey |        112336896

 2017-02-08 16:32:42.933906+01 | 1486567962.93391 | pgbench_branches_pkey |            57344
 2017-02-08 16:32:42.933906+01 | 1486567962.93391 | pgbench_tellers_pkey  |           253952
 2017-02-08 16:32:42.933906+01 | 1486567962.93391 | pgbench_accounts_pkey |        112336896

 2017-02-08 16:32:43.991995+01 | 1486567963.992 | pgbench_branches_pkey |            57344
 2017-02-08 16:32:43.991995+01 | 1486567963.992 | pgbench_tellers_pkey  |           253952
 2017-02-08 16:32:43.991995+01 | 1486567963.992 | pgbench_accounts_pkey |        112336896

 2017-02-08 16:32:45.047927+01 | 1486567965.04793 | pgbench_branches_pkey |            57344
 2017-02-08 16:32:45.047927+01 | 1486567965.04793 | pgbench_tellers_pkey  |           253952
 2017-02-08 16:32:45.047927+01 | 1486567965.04793 | pgbench_accounts_pkey |        112336896

 2017-02-08 16:32:46.09042+01 | 1486567966.09042 | pgbench_branches_pkey |            57344
 2017-02-08 16:32:46.09042+01 | 1486567966.09042 | pgbench_tellers_pkey  |           253952
 2017-02-08 16:32:46.09042+01 | 1486567966.09042 | pgbench_accounts_pkey |        112336896

 2017-02-08 16:32:47.151335+01 | 1486567967.15134 | pgbench_branches_pkey |            57344
 2017-02-08 16:32:47.151335+01 | 1486567967.15134 | pgbench_tellers_pkey  |           253952
 2017-02-08 16:32:47.151335+01 | 1486567967.15134 | pgbench_accounts_pkey |        112336896

 2017-02-08 16:32:48.214654+01 | 1486567968.21465 | pgbench_branches_pkey |            57344
 2017-02-08 16:32:48.214654+01 | 1486567968.21465 | pgbench_tellers_pkey  |           253952
 2017-02-08 16:32:48.214654+01 | 1486567968.21465 | pgbench_accounts_pkey |        112336896

 2017-02-08 16:32:49.269781+01 | 1486567969.26978 | pgbench_branches_pkey |            57344
 2017-02-08 16:32:49.269781+01 | 1486567969.26978 | pgbench_tellers_pkey  |           253952
 2017-02-08 16:32:49.269781+01 | 1486567969.26978 | pgbench_accounts_pkey |        112336896

 2017-02-08 16:32:50.346044+01 | 1486567970.34604 | pgbench_branches_pkey |            57344
 2017-02-08 16:32:50.346044+01 | 1486567970.34604 | pgbench_tellers_pkey  |           253952
 2017-02-08 16:32:50.346044+01 | 1486567970.34604 | pgbench_accounts_pkey |        112336896

 2017-02-08 16:32:51.415471+01 | 1486567971.41547 | pgbench_branches_pkey |            57344
 2017-02-08 16:32:51.415471+01 | 1486567971.41547 | pgbench_tellers_pkey  |           253952
 2017-02-08 16:32:51.415471+01 | 1486567971.41547 | pgbench_accounts_pkey |        112336896

 2017-02-08 16:32:52.471378+01 | 1486567972.47138 | pgbench_branches_pkey |            57344
 2017-02-08 16:32:52.471378+01 | 1486567972.47138 | pgbench_tellers_pkey  |           253952
 2017-02-08 16:32:52.471378+01 | 1486567972.47138 | pgbench_accounts_pkey |        112336896

 2017-02-08 16:32:53.520985+01 | 1486567973.52098 | pgbench_branches_pkey |            57344
 2017-02-08 16:32:53.520985+01 | 1486567973.52098 | pgbench_tellers_pkey  |           253952
 2017-02-08 16:32:53.520985+01 | 1486567973.52098 | pgbench_accounts_pkey |        112336896

 2017-02-08 16:32:54.577883+01 | 1486567974.57788 | pgbench_branches_pkey |            57344
 2017-02-08 16:32:54.577883+01 | 1486567974.57788 | pgbench_tellers_pkey  |           253952
 2017-02-08 16:32:54.577883+01 | 1486567974.57788 | pgbench_accounts_pkey |        112336896

 2017-02-08 16:32:55.637544+01 | 1486567975.63754 | pgbench_branches_pkey |            57344
 2017-02-08 16:32:55.637544+01 | 1486567975.63754 | pgbench_tellers_pkey  |           253952
 2017-02-08 16:32:55.637544+01 | 1486567975.63754 | pgbench_accounts_pkey |        112336896

 2017-02-08 16:32:56.694069+01 | 1486567976.69407 | pgbench_branches_pkey |            57344
 2017-02-08 16:32:56.694069+01 | 1486567976.69407 | pgbench_tellers_pkey  |           253952
 2017-02-08 16:32:56.694069+01 | 1486567976.69407 | pgbench_accounts_pkey |        112336896

 2017-02-08 16:32:57.755126+01 | 1486567977.75513 | pgbench_branches_pkey |            57344
 2017-02-08 16:32:57.755126+01 | 1486567977.75513 | pgbench_tellers_pkey  |           253952
 2017-02-08 16:32:57.755126+01 | 1486567977.75513 | pgbench_accounts_pkey |        112336896

 2017-02-08 16:32:58.812491+01 | 1486567978.81249 | pgbench_branches_pkey |            57344
 2017-02-08 16:32:58.812491+01 | 1486567978.81249 | pgbench_tellers_pkey  |           253952
 2017-02-08 16:32:58.812491+01 | 1486567978.81249 | pgbench_accounts_pkey |        112336896

 2017-02-08 16:32:59.864966+01 | 1486567979.86497 | pgbench_branches_pkey |            57344
 2017-02-08 16:32:59.864966+01 | 1486567979.86497 | pgbench_tellers_pkey  |           253952
 2017-02-08 16:32:59.864966+01 | 1486567979.86497 | pgbench_accounts_pkey |        112336896

 2017-02-08 16:33:00.92763+01 | 1486567980.92763 | pgbench_branches_pkey |            57344
 2017-02-08 16:33:00.92763+01 | 1486567980.92763 | pgbench_tellers_pkey  |           253952
 2017-02-08 16:33:00.92763+01 | 1486567980.92763 | pgbench_accounts_pkey |        112336896

 2017-02-08 16:33:01.988139+01 | 1486567981.98814 | pgbench_branches_pkey |            57344
 2017-02-08 16:33:01.988139+01 | 1486567981.98814 | pgbench_tellers_pkey  |           253952
 2017-02-08 16:33:01.988139+01 | 1486567981.98814 | pgbench_accounts_pkey |        112336896

 2017-02-08 16:33:03.04689+01 | 1486567983.04689 | pgbench_branches_pkey |            57344
 2017-02-08 16:33:03.04689+01 | 1486567983.04689 | pgbench_tellers_pkey  |           253952
 2017-02-08 16:33:03.04689+01 | 1486567983.04689 | pgbench_accounts_pkey |        112336896

 2017-02-08 16:33:04.108549+01 | 1486567984.10855 | pgbench_branches_pkey |            57344
 2017-02-08 16:33:04.108549+01 | 1486567984.10855 | pgbench_tellers_pkey  |           253952
 2017-02-08 16:33:04.108549+01 | 1486567984.10855 | pgbench_accounts_pkey |        112336896

 2017-02-08 16:33:05.165344+01 | 1486567985.16534 | pgbench_branches_pkey |            57344
 2017-02-08 16:33:05.165344+01 | 1486567985.16534 | pgbench_tellers_pkey  |           253952
 2017-02-08 16:33:05.165344+01 | 1486567985.16534 | pgbench_accounts_pkey |        112336896

 2017-02-08 16:33:06.222466+01 | 1486567986.22247 | pgbench_branches_pkey |            57344
 2017-02-08 16:33:06.222466+01 | 1486567986.22247 | pgbench_tellers_pkey  |           253952
 2017-02-08 16:33:06.222466+01 | 1486567986.22247 | pgbench_accounts_pkey |        112336896

 2017-02-08 16:33:07.284193+01 | 1486567987.28419 | pgbench_branches_pkey |            57344
 2017-02-08 16:33:07.284193+01 | 1486567987.28419 | pgbench_tellers_pkey  |           253952
 2017-02-08 16:33:07.284193+01 | 1486567987.28419 | pgbench_accounts_pkey |        112336896

 2017-02-08 16:33:08.342661+01 | 1486567988.34266 | pgbench_branches_pkey |            57344
 2017-02-08 16:33:08.342661+01 | 1486567988.34266 | pgbench_tellers_pkey  |           253952
 2017-02-08 16:33:08.342661+01 | 1486567988.34266 | pgbench_accounts_pkey |        112336896

 2017-02-08 16:33:09.39714+01 | 1486567989.39714 | pgbench_branches_pkey |            57344
 2017-02-08 16:33:09.39714+01 | 1486567989.39714 | pgbench_tellers_pkey  |           253952
 2017-02-08 16:33:09.39714+01 | 1486567989.39714 | pgbench_accounts_pkey |        112336896

 2017-02-08 16:33:10.455035+01 | 1486567990.45503 | pgbench_branches_pkey |            57344
 2017-02-08 16:33:10.455035+01 | 1486567990.45503 | pgbench_tellers_pkey  |           253952
 2017-02-08 16:33:10.455035+01 | 1486567990.45503 | pgbench_accounts_pkey |        112336896

 2017-02-08 16:33:11.513413+01 | 1486567991.51341 | pgbench_branches_pkey |            57344
 2017-02-08 16:33:11.513413+01 | 1486567991.51341 | pgbench_tellers_pkey  |           253952
 2017-02-08 16:33:11.513413+01 | 1486567991.51341 | pgbench_accounts_pkey |        112336896

 2017-02-08 16:33:12.568705+01 | 1486567992.56871 | pgbench_branches_pkey |            57344
 2017-02-08 16:33:12.568705+01 | 1486567992.56871 | pgbench_tellers_pkey  |           253952
 2017-02-08 16:33:12.568705+01 | 1486567992.56871 | pgbench_accounts_pkey |        112336896

 2017-02-08 16:33:13.625745+01 | 1486567993.62575 | pgbench_branches_pkey |            57344
 2017-02-08 16:33:13.625745+01 | 1486567993.62575 | pgbench_tellers_pkey  |           253952
 2017-02-08 16:33:13.625745+01 | 1486567993.62575 | pgbench_accounts_pkey |        112336896

 2017-02-08 16:33:14.68986+01 | 1486567994.68986 | pgbench_branches_pkey |            57344
 2017-02-08 16:33:14.68986+01 | 1486567994.68986 | pgbench_tellers_pkey  |           253952
 2017-02-08 16:33:14.68986+01 | 1486567994.68986 | pgbench_accounts_pkey |        112336896

 2017-02-08 16:33:15.749375+01 | 1486567995.74938 | pgbench_branches_pkey |            57344
 2017-02-08 16:33:15.749375+01 | 1486567995.74938 | pgbench_tellers_pkey  |           253952
 2017-02-08 16:33:15.749375+01 | 1486567995.74938 | pgbench_accounts_pkey |        112336896

 2017-02-08 16:33:16.803632+01 | 1486567996.80363 | pgbench_branches_pkey |            57344
 2017-02-08 16:33:16.803632+01 | 1486567996.80363 | pgbench_tellers_pkey  |           253952
 2017-02-08 16:33:16.803632+01 | 1486567996.80363 | pgbench_accounts_pkey |        112336896

 2017-02-08 16:33:17.867206+01 | 1486567997.86721 | pgbench_branches_pkey |            57344
 2017-02-08 16:33:17.867206+01 | 1486567997.86721 | pgbench_tellers_pkey  |           253952
 2017-02-08 16:33:17.867206+01 | 1486567997.86721 | pgbench_accounts_pkey |        112336896

 2017-02-08 16:33:18.924529+01 | 1486567998.92453 | pgbench_branches_pkey |            57344
 2017-02-08 16:33:18.924529+01 | 1486567998.92453 | pgbench_tellers_pkey  |           253952
 2017-02-08 16:33:18.924529+01 | 1486567998.92453 | pgbench_accounts_pkey |        112336896

 2017-02-08 16:33:19.981988+01 | 1486567999.98199 | pgbench_branches_pkey |            57344
 2017-02-08 16:33:19.981988+01 | 1486567999.98199 | pgbench_tellers_pkey  |           253952
 2017-02-08 16:33:19.981988+01 | 1486567999.98199 | pgbench_accounts_pkey |        112336896

 2017-02-08 16:33:21.03359+01 | 1486568001.03359 | pgbench_branches_pkey |            57344
 2017-02-08 16:33:21.03359+01 | 1486568001.03359 | pgbench_tellers_pkey  |           253952
 2017-02-08 16:33:21.03359+01 | 1486568001.03359 | pgbench_accounts_pkey |        112336896

 2017-02-08 16:33:22.093318+01 | 1486568002.09332 | pgbench_branches_pkey |            57344
 2017-02-08 16:33:22.093318+01 | 1486568002.09332 | pgbench_tellers_pkey  |           253952
 2017-02-08 16:33:22.093318+01 | 1486568002.09332 | pgbench_accounts_pkey |        112336896

 2017-02-08 16:33:23.151681+01 | 1486568003.15168 | pgbench_branches_pkey |            57344
 2017-02-08 16:33:23.151681+01 | 1486568003.15168 | pgbench_tellers_pkey  |           253952
 2017-02-08 16:33:23.151681+01 | 1486568003.15168 | pgbench_accounts_pkey |        112336896

 2017-02-08 16:33:24.204052+01 | 1486568004.20405 | pgbench_branches_pkey |            57344
 2017-02-08 16:33:24.204052+01 | 1486568004.20405 | pgbench_tellers_pkey  |           253952
 2017-02-08 16:33:24.204052+01 | 1486568004.20405 | pgbench_accounts_pkey |        112336896

 2017-02-08 16:33:25.260184+01 | 1486568005.26018 | pgbench_branches_pkey |            57344
 2017-02-08 16:33:25.260184+01 | 1486568005.26018 | pgbench_tellers_pkey  |           253952
 2017-02-08 16:33:25.260184+01 | 1486568005.26018 | pgbench_accounts_pkey |        112336896

 2017-02-08 16:33:26.314009+01 | 1486568006.31401 | pgbench_branches_pkey |            57344
 2017-02-08 16:33:26.314009+01 | 1486568006.31401 | pgbench_tellers_pkey  |           253952
 2017-02-08 16:33:26.314009+01 | 1486568006.31401 | pgbench_accounts_pkey |        112336896

 2017-02-08 16:33:27.371374+01 | 1486568007.37137 | pgbench_branches_pkey |            57344
 2017-02-08 16:33:27.371374+01 | 1486568007.37137 | pgbench_tellers_pkey  |           253952
 2017-02-08 16:33:27.371374+01 | 1486568007.37137 | pgbench_accounts_pkey |        112336896

 2017-02-08 16:33:28.424871+01 | 1486568008.42487 | pgbench_branches_pkey |            57344
 2017-02-08 16:33:28.424871+01 | 1486568008.42487 | pgbench_tellers_pkey  |           253952
 2017-02-08 16:33:28.424871+01 | 1486568008.42487 | pgbench_accounts_pkey |        112336896

 2017-02-08 16:33:29.484121+01 | 1486568009.48412 | pgbench_branches_pkey |            57344
 2017-02-08 16:33:29.484121+01 | 1486568009.48412 | pgbench_tellers_pkey  |           253952
 2017-02-08 16:33:29.484121+01 | 1486568009.48412 | pgbench_accounts_pkey |        112336896

 2017-02-08 16:33:30.535316+01 | 1486568010.53532 | pgbench_branches_pkey |            57344
 2017-02-08 16:33:30.535316+01 | 1486568010.53532 | pgbench_tellers_pkey  |           253952
 2017-02-08 16:33:30.535316+01 | 1486568010.53532 | pgbench_accounts_pkey |        112336896

 2017-02-08 16:33:31.592187+01 | 1486568011.59219 | pgbench_branches_pkey |            57344
 2017-02-08 16:33:31.592187+01 | 1486568011.59219 | pgbench_tellers_pkey  |           253952
 2017-02-08 16:33:31.592187+01 | 1486568011.59219 | pgbench_accounts_pkey |        112336896

 2017-02-08 16:33:32.648518+01 | 1486568012.64852 | pgbench_branches_pkey |            57344
 2017-02-08 16:33:32.648518+01 | 1486568012.64852 | pgbench_tellers_pkey  |           253952
 2017-02-08 16:33:32.648518+01 | 1486568012.64852 | pgbench_accounts_pkey |        112336896

 2017-02-08 16:33:33.701974+01 | 1486568013.70197 | pgbench_branches_pkey |            57344
 2017-02-08 16:33:33.701974+01 | 1486568013.70197 | pgbench_tellers_pkey  |           253952
 2017-02-08 16:33:33.701974+01 | 1486568013.70197 | pgbench_accounts_pkey |        112336896

 2017-02-08 16:33:34.759346+01 | 1486568014.75935 | pgbench_branches_pkey |            57344
 2017-02-08 16:33:34.759346+01 | 1486568014.75935 | pgbench_tellers_pkey  |           253952
 2017-02-08 16:33:34.759346+01 | 1486568014.75935 | pgbench_accounts_pkey |        112336896

 2017-02-08 16:33:35.81741+01 | 1486568015.81741 | pgbench_branches_pkey |            57344
 2017-02-08 16:33:35.81741+01 | 1486568015.81741 | pgbench_tellers_pkey  |           253952
 2017-02-08 16:33:35.81741+01 | 1486568015.81741 | pgbench_accounts_pkey |        112336896

 2017-02-08 16:33:36.87238+01 | 1486568016.87238 | pgbench_branches_pkey |            57344
 2017-02-08 16:33:36.87238+01 | 1486568016.87238 | pgbench_tellers_pkey  |           253952
 2017-02-08 16:33:36.87238+01 | 1486568016.87238 | pgbench_accounts_pkey |        112336896

 2017-02-08 16:33:37.92526+01 | 1486568017.92526 | pgbench_branches_pkey |            57344
 2017-02-08 16:33:37.92526+01 | 1486568017.92526 | pgbench_tellers_pkey  |           253952
 2017-02-08 16:33:37.92526+01 | 1486568017.92526 | pgbench_accounts_pkey |        112336896

 2017-02-08 16:33:38.979248+01 | 1486568018.97925 | pgbench_branches_pkey |            57344
 2017-02-08 16:33:38.979248+01 | 1486568018.97925 | pgbench_tellers_pkey  |           253952
 2017-02-08 16:33:38.979248+01 | 1486568018.97925 | pgbench_accounts_pkey |        112336896

 2017-02-08 16:33:40.030325+01 | 1486568020.03032 | pgbench_branches_pkey |            57344
 2017-02-08 16:33:40.030325+01 | 1486568020.03032 | pgbench_tellers_pkey  |           253952
 2017-02-08 16:33:40.030325+01 | 1486568020.03032 | pgbench_accounts_pkey |        112336896

 2017-02-08 16:33:41.085082+01 | 1486568021.08508 | pgbench_branches_pkey |            57344
 2017-02-08 16:33:41.085082+01 | 1486568021.08508 | pgbench_tellers_pkey  |           253952
 2017-02-08 16:33:41.085082+01 | 1486568021.08508 | pgbench_accounts_pkey |        112336896

 2017-02-08 16:33:42.144613+01 | 1486568022.14461 | pgbench_branches_pkey |            57344
 2017-02-08 16:33:42.144613+01 | 1486568022.14461 | pgbench_tellers_pkey  |           253952
 2017-02-08 16:33:42.144613+01 | 1486568022.14461 | pgbench_accounts_pkey |        112336896

 2017-02-08 16:33:43.203973+01 | 1486568023.20397 | pgbench_branches_pkey |            57344
 2017-02-08 16:33:43.203973+01 | 1486568023.20397 | pgbench_tellers_pkey  |           253952
 2017-02-08 16:33:43.203973+01 | 1486568023.20397 | pgbench_accounts_pkey |        112336896

 2017-02-08 16:33:44.259088+01 | 1486568024.25909 | pgbench_branches_pkey |            57344
 2017-02-08 16:33:44.259088+01 | 1486568024.25909 | pgbench_tellers_pkey  |           253952
 2017-02-08 16:33:44.259088+01 | 1486568024.25909 | pgbench_accounts_pkey |        112336896

 2017-02-08 16:33:45.31153+01 | 1486568025.31153 | pgbench_branches_pkey |            57344
 2017-02-08 16:33:45.31153+01 | 1486568025.31153 | pgbench_tellers_pkey  |           253952
 2017-02-08 16:33:45.31153+01 | 1486568025.31153 | pgbench_accounts_pkey |        112336896

 2017-02-08 16:33:46.37101+01 | 1486568026.37101 | pgbench_branches_pkey |            57344
 2017-02-08 16:33:46.37101+01 | 1486568026.37101 | pgbench_tellers_pkey  |           253952
 2017-02-08 16:33:46.37101+01 | 1486568026.37101 | pgbench_accounts_pkey |        112336896

 2017-02-08 16:33:47.432759+01 | 1486568027.43276 | pgbench_branches_pkey |            57344
 2017-02-08 16:33:47.432759+01 | 1486568027.43276 | pgbench_tellers_pkey  |           253952
 2017-02-08 16:33:47.432759+01 | 1486568027.43276 | pgbench_accounts_pkey |        112336896

 2017-02-08 16:33:48.494823+01 | 1486568028.49482 | pgbench_branches_pkey |            57344
 2017-02-08 16:33:48.494823+01 | 1486568028.49482 | pgbench_tellers_pkey  |           253952
 2017-02-08 16:33:48.494823+01 | 1486568028.49482 | pgbench_accounts_pkey |        112336896

 2017-02-08 16:33:49.554435+01 | 1486568029.55444 | pgbench_branches_pkey |            57344
 2017-02-08 16:33:49.554435+01 | 1486568029.55444 | pgbench_tellers_pkey  |           253952
 2017-02-08 16:33:49.554435+01 | 1486568029.55444 | pgbench_accounts_pkey |        112336896

 2017-02-08 16:33:50.631449+01 | 1486568030.63145 | pgbench_branches_pkey |            57344
 2017-02-08 16:33:50.631449+01 | 1486568030.63145 | pgbench_tellers_pkey  |           253952
 2017-02-08 16:33:50.631449+01 | 1486568030.63145 | pgbench_accounts_pkey |        112336896

 2017-02-08 16:33:51.68196+01 | 1486568031.68196 | pgbench_branches_pkey |            57344
 2017-02-08 16:33:51.68196+01 | 1486568031.68196 | pgbench_tellers_pkey  |           253952
 2017-02-08 16:33:51.68196+01 | 1486568031.68196 | pgbench_accounts_pkey |        112336896

 2017-02-08 16:33:52.735951+01 | 1486568032.73595 | pgbench_branches_pkey |            57344
 2017-02-08 16:33:52.735951+01 | 1486568032.73595 | pgbench_tellers_pkey  |           253952
 2017-02-08 16:33:52.735951+01 | 1486568032.73595 | pgbench_accounts_pkey |        112336896

 2017-02-08 16:33:53.800078+01 | 1486568033.80008 | pgbench_branches_pkey |            57344
 2017-02-08 16:33:53.800078+01 | 1486568033.80008 | pgbench_tellers_pkey  |           253952
 2017-02-08 16:33:53.800078+01 | 1486568033.80008 | pgbench_accounts_pkey |        112336896

 2017-02-08 16:33:54.854271+01 | 1486568034.85427 | pgbench_branches_pkey |            57344
 2017-02-08 16:33:54.854271+01 | 1486568034.85427 | pgbench_tellers_pkey  |           253952
 2017-02-08 16:33:54.854271+01 | 1486568034.85427 | pgbench_accounts_pkey |        112336896

 2017-02-08 16:33:55.910749+01 | 1486568035.91075 | pgbench_branches_pkey |            57344
 2017-02-08 16:33:55.910749+01 | 1486568035.91075 | pgbench_tellers_pkey  |           253952
 2017-02-08 16:33:55.910749+01 | 1486568035.91075 | pgbench_accounts_pkey |        112336896

 2017-02-08 16:33:56.964868+01 | 1486568036.96487 | pgbench_branches_pkey |            57344
 2017-02-08 16:33:56.964868+01 | 1486568036.96487 | pgbench_tellers_pkey  |           253952
 2017-02-08 16:33:56.964868+01 | 1486568036.96487 | pgbench_accounts_pkey |        112336896

 2017-02-08 16:33:58.023089+01 | 1486568038.02309 | pgbench_branches_pkey |            57344
 2017-02-08 16:33:58.023089+01 | 1486568038.02309 | pgbench_tellers_pkey  |           253952
 2017-02-08 16:33:58.023089+01 | 1486568038.02309 | pgbench_accounts_pkey |        112336896

 2017-02-08 16:33:59.080778+01 | 1486568039.08078 | pgbench_branches_pkey |            57344
 2017-02-08 16:33:59.080778+01 | 1486568039.08078 | pgbench_tellers_pkey  |           253952
 2017-02-08 16:33:59.080778+01 | 1486568039.08078 | pgbench_accounts_pkey |        112336896

 2017-02-08 16:34:00.13927+01 | 1486568040.13927 | pgbench_branches_pkey |            57344
 2017-02-08 16:34:00.13927+01 | 1486568040.13927 | pgbench_tellers_pkey  |           253952
 2017-02-08 16:34:00.13927+01 | 1486568040.13927 | pgbench_accounts_pkey |        112336896

 2017-02-08 16:34:01.198083+01 | 1486568041.19808 | pgbench_branches_pkey |            57344
 2017-02-08 16:34:01.198083+01 | 1486568041.19808 | pgbench_tellers_pkey  |           253952
 2017-02-08 16:34:01.198083+01 | 1486568041.19808 | pgbench_accounts_pkey |        112336896

 2017-02-08 16:34:02.252415+01 | 1486568042.25241 | pgbench_branches_pkey |            57344
 2017-02-08 16:34:02.252415+01 | 1486568042.25241 | pgbench_tellers_pkey  |           253952
 2017-02-08 16:34:02.252415+01 | 1486568042.25241 | pgbench_accounts_pkey |        112336896

 2017-02-08 16:34:03.306111+01 | 1486568043.30611 | pgbench_branches_pkey |            57344
 2017-02-08 16:34:03.306111+01 | 1486568043.30611 | pgbench_tellers_pkey  |           253952
 2017-02-08 16:34:03.306111+01 | 1486568043.30611 | pgbench_accounts_pkey |        112336896

 2017-02-08 16:34:04.366939+01 | 1486568044.36694 | pgbench_branches_pkey |            57344
 2017-02-08 16:34:04.366939+01 | 1486568044.36694 | pgbench_tellers_pkey  |           253952
 2017-02-08 16:34:04.366939+01 | 1486568044.36694 | pgbench_accounts_pkey |        112336896

 2017-02-08 16:34:05.421172+01 | 1486568045.42117 | pgbench_branches_pkey |            57344
 2017-02-08 16:34:05.421172+01 | 1486568045.42117 | pgbench_tellers_pkey  |           253952
 2017-02-08 16:34:05.421172+01 | 1486568045.42117 | pgbench_accounts_pkey |        112336896

 2017-02-08 16:34:06.478869+01 | 1486568046.47887 | pgbench_branches_pkey |            57344
 2017-02-08 16:34:06.478869+01 | 1486568046.47887 | pgbench_tellers_pkey  |           253952
 2017-02-08 16:34:06.478869+01 | 1486568046.47887 | pgbench_accounts_pkey |        112336896

 2017-02-08 16:34:07.538639+01 | 1486568047.53864 | pgbench_branches_pkey |            57344
 2017-02-08 16:34:07.538639+01 | 1486568047.53864 | pgbench_tellers_pkey  |           253952
 2017-02-08 16:34:07.538639+01 | 1486568047.53864 | pgbench_accounts_pkey |        112336896

 2017-02-08 16:34:08.599462+01 | 1486568048.59946 | pgbench_branches_pkey |            57344
 2017-02-08 16:34:08.599462+01 | 1486568048.59946 | pgbench_tellers_pkey  |           253952
 2017-02-08 16:34:08.599462+01 | 1486568048.59946 | pgbench_accounts_pkey |        112336896

 2017-02-08 16:34:09.655681+01 | 1486568049.65568 | pgbench_branches_pkey |            57344
 2017-02-08 16:34:09.655681+01 | 1486568049.65568 | pgbench_tellers_pkey  |           253952
 2017-02-08 16:34:09.655681+01 | 1486568049.65568 | pgbench_accounts_pkey |        112336896

 2017-02-08 16:34:10.711213+01 | 1486568050.71121 | pgbench_branches_pkey |            57344
 2017-02-08 16:34:10.711213+01 | 1486568050.71121 | pgbench_tellers_pkey  |           253952
 2017-02-08 16:34:10.711213+01 | 1486568050.71121 | pgbench_accounts_pkey |        112336896

 2017-02-08 16:34:11.768534+01 | 1486568051.76853 | pgbench_branches_pkey |            57344
 2017-02-08 16:34:11.768534+01 | 1486568051.76853 | pgbench_tellers_pkey  |           253952
 2017-02-08 16:34:11.768534+01 | 1486568051.76853 | pgbench_accounts_pkey |        112336896

 2017-02-08 16:34:12.824734+01 | 1486568052.82473 | pgbench_branches_pkey |            57344
 2017-02-08 16:34:12.824734+01 | 1486568052.82473 | pgbench_tellers_pkey  |           253952
 2017-02-08 16:34:12.824734+01 | 1486568052.82473 | pgbench_accounts_pkey |        112336896

 2017-02-08 16:34:13.880605+01 | 1486568053.8806 | pgbench_branches_pkey |            57344
 2017-02-08 16:34:13.880605+01 | 1486568053.8806 | pgbench_tellers_pkey  |           253952
 2017-02-08 16:34:13.880605+01 | 1486568053.8806 | pgbench_accounts_pkey |        112336896

 2017-02-08 16:34:14.938872+01 | 1486568054.93887 | pgbench_branches_pkey |            57344
 2017-02-08 16:34:14.938872+01 | 1486568054.93887 | pgbench_tellers_pkey  |           253952
 2017-02-08 16:34:14.938872+01 | 1486568054.93887 | pgbench_accounts_pkey |        112336896

 2017-02-08 16:34:15.991952+01 | 1486568055.99195 | pgbench_branches_pkey |            57344
 2017-02-08 16:34:15.991952+01 | 1486568055.99195 | pgbench_tellers_pkey  |           253952
 2017-02-08 16:34:15.991952+01 | 1486568055.99195 | pgbench_accounts_pkey |        112336896

 2017-02-08 16:34:17.04681+01 | 1486568057.04681 | pgbench_branches_pkey |            57344
 2017-02-08 16:34:17.04681+01 | 1486568057.04681 | pgbench_tellers_pkey  |           253952
 2017-02-08 16:34:17.04681+01 | 1486568057.04681 | pgbench_accounts_pkey |        112336896

 2017-02-08 16:34:18.103951+01 | 1486568058.10395 | pgbench_branches_pkey |            57344
 2017-02-08 16:34:18.103951+01 | 1486568058.10395 | pgbench_tellers_pkey  |           253952
 2017-02-08 16:34:18.103951+01 | 1486568058.10395 | pgbench_accounts_pkey |        112336896

 2017-02-08 16:34:19.158672+01 | 1486568059.15867 | pgbench_branches_pkey |            57344
 2017-02-08 16:34:19.158672+01 | 1486568059.15867 | pgbench_tellers_pkey  |           253952
 2017-02-08 16:34:19.158672+01 | 1486568059.15867 | pgbench_accounts_pkey |        112336896

 2017-02-08 16:34:20.217957+01 | 1486568060.21796 | pgbench_branches_pkey |            57344
 2017-02-08 16:34:20.217957+01 | 1486568060.21796 | pgbench_tellers_pkey  |           253952
 2017-02-08 16:34:20.217957+01 | 1486568060.21796 | pgbench_accounts_pkey |        112336896

 2017-02-08 16:34:21.27929+01 | 1486568061.27929 | pgbench_branches_pkey |            57344
 2017-02-08 16:34:21.27929+01 | 1486568061.27929 | pgbench_tellers_pkey  |           253952
 2017-02-08 16:34:21.27929+01 | 1486568061.27929 | pgbench_accounts_pkey |        112336896

 2017-02-08 16:34:22.340135+01 | 1486568062.34014 | pgbench_branches_pkey |            57344
 2017-02-08 16:34:22.340135+01 | 1486568062.34014 | pgbench_tellers_pkey  |           253952
 2017-02-08 16:34:22.340135+01 | 1486568062.34014 | pgbench_accounts_pkey |        112336896

 2017-02-08 16:34:23.396269+01 | 1486568063.39627 | pgbench_branches_pkey |            57344
 2017-02-08 16:34:23.396269+01 | 1486568063.39627 | pgbench_tellers_pkey  |           253952
 2017-02-08 16:34:23.396269+01 | 1486568063.39627 | pgbench_accounts_pkey |        112336896

 2017-02-08 16:34:24.454609+01 | 1486568064.45461 | pgbench_branches_pkey |            57344
 2017-02-08 16:34:24.454609+01 | 1486568064.45461 | pgbench_tellers_pkey  |           253952
 2017-02-08 16:34:24.454609+01 | 1486568064.45461 | pgbench_accounts_pkey |        112336896

 2017-02-08 16:34:25.513026+01 | 1486568065.51303 | pgbench_branches_pkey |            57344
 2017-02-08 16:34:25.513026+01 | 1486568065.51303 | pgbench_tellers_pkey  |           253952
 2017-02-08 16:34:25.513026+01 | 1486568065.51303 | pgbench_accounts_pkey |        112336896

 2017-02-08 16:34:26.567961+01 | 1486568066.56796 | pgbench_branches_pkey |            57344
 2017-02-08 16:34:26.567961+01 | 1486568066.56796 | pgbench_tellers_pkey  |           253952
 2017-02-08 16:34:26.567961+01 | 1486568066.56796 | pgbench_accounts_pkey |        112336896

 2017-02-08 16:34:27.62114+01 | 1486568067.62114 | pgbench_branches_pkey |            57344
 2017-02-08 16:34:27.62114+01 | 1486568067.62114 | pgbench_tellers_pkey  |           253952
 2017-02-08 16:34:27.62114+01 | 1486568067.62114 | pgbench_accounts_pkey |        112336896

 2017-02-08 16:34:28.674828+01 | 1486568068.67483 | pgbench_branches_pkey |            57344
 2017-02-08 16:34:28.674828+01 | 1486568068.67483 | pgbench_tellers_pkey  |           253952
 2017-02-08 16:34:28.674828+01 | 1486568068.67483 | pgbench_accounts_pkey |        112336896

 2017-02-08 16:34:29.728058+01 | 1486568069.72806 | pgbench_branches_pkey |            57344
 2017-02-08 16:34:29.728058+01 | 1486568069.72806 | pgbench_tellers_pkey  |           253952
 2017-02-08 16:34:29.728058+01 | 1486568069.72806 | pgbench_accounts_pkey |        112336896

 2017-02-08 16:34:30.785315+01 | 1486568070.78532 | pgbench_branches_pkey |            57344
 2017-02-08 16:34:30.785315+01 | 1486568070.78532 | pgbench_tellers_pkey  |           253952
 2017-02-08 16:34:30.785315+01 | 1486568070.78532 | pgbench_accounts_pkey |        112336896

 2017-02-08 16:34:31.84169+01 | 1486568071.84169 | pgbench_branches_pkey |            57344
 2017-02-08 16:34:31.84169+01 | 1486568071.84169 | pgbench_tellers_pkey  |           253952
 2017-02-08 16:34:31.84169+01 | 1486568071.84169 | pgbench_accounts_pkey |        112336896

 2017-02-08 16:34:32.901496+01 | 1486568072.9015 | pgbench_branches_pkey |            57344
 2017-02-08 16:34:32.901496+01 | 1486568072.9015 | pgbench_tellers_pkey  |           253952
 2017-02-08 16:34:32.901496+01 | 1486568072.9015 | pgbench_accounts_pkey |        112336896

 2017-02-08 16:34:33.956661+01 | 1486568073.95666 | pgbench_branches_pkey |            57344
 2017-02-08 16:34:33.956661+01 | 1486568073.95666 | pgbench_tellers_pkey  |           253952
 2017-02-08 16:34:33.956661+01 | 1486568073.95666 | pgbench_accounts_pkey |        112336896

 2017-02-08 16:34:35.011552+01 | 1486568075.01155 | pgbench_branches_pkey |            57344
 2017-02-08 16:34:35.011552+01 | 1486568075.01155 | pgbench_tellers_pkey  |           253952
 2017-02-08 16:34:35.011552+01 | 1486568075.01155 | pgbench_accounts_pkey |        112336896

 2017-02-08 16:34:36.07678+01 | 1486568076.07678 | pgbench_branches_pkey |            57344
 2017-02-08 16:34:36.07678+01 | 1486568076.07678 | pgbench_tellers_pkey  |           253952
 2017-02-08 16:34:36.07678+01 | 1486568076.07678 | pgbench_accounts_pkey |        112336896

 2017-02-08 16:34:37.127115+01 | 1486568077.12712 | pgbench_branches_pkey |            57344
 2017-02-08 16:34:37.127115+01 | 1486568077.12712 | pgbench_tellers_pkey  |           253952
 2017-02-08 16:34:37.127115+01 | 1486568077.12712 | pgbench_accounts_pkey |        112336896

 2017-02-08 16:34:38.182067+01 | 1486568078.18207 | pgbench_branches_pkey |            57344
 2017-02-08 16:34:38.182067+01 | 1486568078.18207 | pgbench_tellers_pkey  |           253952
 2017-02-08 16:34:38.182067+01 | 1486568078.18207 | pgbench_accounts_pkey |        112336896

 2017-02-08 16:34:39.24061+01 | 1486568079.24061 | pgbench_branches_pkey |            57344
 2017-02-08 16:34:39.24061+01 | 1486568079.24061 | pgbench_tellers_pkey  |           253952
 2017-02-08 16:34:39.24061+01 | 1486568079.24061 | pgbench_accounts_pkey |        112336896

 2017-02-08 16:34:40.29441+01 | 1486568080.29441 | pgbench_branches_pkey |            57344
 2017-02-08 16:34:40.29441+01 | 1486568080.29441 | pgbench_tellers_pkey  |           253952
 2017-02-08 16:34:40.29441+01 | 1486568080.29441 | pgbench_accounts_pkey |        112336896

 2017-02-08 16:34:41.348926+01 | 1486568081.34893 | pgbench_branches_pkey |            57344
 2017-02-08 16:34:41.348926+01 | 1486568081.34893 | pgbench_tellers_pkey  |           253952
 2017-02-08 16:34:41.348926+01 | 1486568081.34893 | pgbench_accounts_pkey |        112336896

 2017-02-08 16:34:42.408176+01 | 1486568082.40818 | pgbench_branches_pkey |            57344
 2017-02-08 16:34:42.408176+01 | 1486568082.40818 | pgbench_tellers_pkey  |           253952
 2017-02-08 16:34:42.408176+01 | 1486568082.40818 | pgbench_accounts_pkey |        112336896

 2017-02-08 16:34:43.46147+01 | 1486568083.46147 | pgbench_branches_pkey |            57344
 2017-02-08 16:34:43.46147+01 | 1486568083.46147 | pgbench_tellers_pkey  |           253952
 2017-02-08 16:34:43.46147+01 | 1486568083.46147 | pgbench_accounts_pkey |        112336896

 2017-02-08 16:34:44.522931+01 | 1486568084.52293 | pgbench_branches_pkey |            57344
 2017-02-08 16:34:44.522931+01 | 1486568084.52293 | pgbench_tellers_pkey  |           253952
 2017-02-08 16:34:44.522931+01 | 1486568084.52293 | pgbench_accounts_pkey |        112336896

 2017-02-08 16:34:45.578107+01 | 1486568085.57811 | pgbench_branches_pkey |            57344
 2017-02-08 16:34:45.578107+01 | 1486568085.57811 | pgbench_tellers_pkey  |           253952
 2017-02-08 16:34:45.578107+01 | 1486568085.57811 | pgbench_accounts_pkey |        112336896

 2017-02-08 16:34:46.647004+01 | 1486568086.647 | pgbench_branches_pkey |            57344
 2017-02-08 16:34:46.647004+01 | 1486568086.647 | pgbench_tellers_pkey  |           253952
 2017-02-08 16:34:46.647004+01 | 1486568086.647 | pgbench_accounts_pkey |        112336896

 2017-02-08 16:34:47.705179+01 | 1486568087.70518 | pgbench_branches_pkey |            57344
 2017-02-08 16:34:47.705179+01 | 1486568087.70518 | pgbench_tellers_pkey  |           253952
 2017-02-08 16:34:47.705179+01 | 1486568087.70518 | pgbench_accounts_pkey |        112336896

 2017-02-08 16:34:48.7658+01 | 1486568088.7658 | pgbench_branches_pkey |            57344
 2017-02-08 16:34:48.7658+01 | 1486568088.7658 | pgbench_tellers_pkey  |           253952
 2017-02-08 16:34:48.7658+01 | 1486568088.7658 | pgbench_accounts_pkey |        112336896

 2017-02-08 16:34:49.818297+01 | 1486568089.8183 | pgbench_branches_pkey |            57344
 2017-02-08 16:34:49.818297+01 | 1486568089.8183 | pgbench_tellers_pkey  |           253952
 2017-02-08 16:34:49.818297+01 | 1486568089.8183 | pgbench_accounts_pkey |        112336896

 2017-02-08 16:34:50.882981+01 | 1486568090.88298 | pgbench_branches_pkey |            57344
 2017-02-08 16:34:50.882981+01 | 1486568090.88298 | pgbench_tellers_pkey  |           253952
 2017-02-08 16:34:50.882981+01 | 1486568090.88298 | pgbench_accounts_pkey |        112336896

 2017-02-08 16:34:51.949898+01 | 1486568091.9499 | pgbench_branches_pkey |            57344
 2017-02-08 16:34:51.949898+01 | 1486568091.9499 | pgbench_tellers_pkey  |           253952
 2017-02-08 16:34:51.949898+01 | 1486568091.9499 | pgbench_accounts_pkey |        112336896

 2017-02-08 16:34:52.999363+01 | 1486568092.99936 | pgbench_branches_pkey |            57344
 2017-02-08 16:34:52.999363+01 | 1486568092.99936 | pgbench_tellers_pkey  |           253952
 2017-02-08 16:34:52.999363+01 | 1486568092.99936 | pgbench_accounts_pkey |        112336896

 2017-02-08 16:34:54.074447+01 | 1486568094.07445 | pgbench_branches_pkey |            57344
 2017-02-08 16:34:54.074447+01 | 1486568094.07445 | pgbench_tellers_pkey  |           253952
 2017-02-08 16:34:54.074447+01 | 1486568094.07445 | pgbench_accounts_pkey |        112336896

 2017-02-08 16:34:55.128761+01 | 1486568095.12876 | pgbench_branches_pkey |            57344
 2017-02-08 16:34:55.128761+01 | 1486568095.12876 | pgbench_tellers_pkey  |           253952
 2017-02-08 16:34:55.128761+01 | 1486568095.12876 | pgbench_accounts_pkey |        112336896

 2017-02-08 16:34:56.183294+01 | 1486568096.18329 | pgbench_branches_pkey |            57344
 2017-02-08 16:34:56.183294+01 | 1486568096.18329 | pgbench_tellers_pkey  |           253952
 2017-02-08 16:34:56.183294+01 | 1486568096.18329 | pgbench_accounts_pkey |        112336896

 2017-02-08 16:34:57.245918+01 | 1486568097.24592 | pgbench_branches_pkey |            57344
 2017-02-08 16:34:57.245918+01 | 1486568097.24592 | pgbench_tellers_pkey  |           253952
 2017-02-08 16:34:57.245918+01 | 1486568097.24592 | pgbench_accounts_pkey |        112336896

 2017-02-08 16:34:58.306732+01 | 1486568098.30673 | pgbench_branches_pkey |            57344
 2017-02-08 16:34:58.306732+01 | 1486568098.30673 | pgbench_tellers_pkey  |           253952
 2017-02-08 16:34:58.306732+01 | 1486568098.30673 | pgbench_accounts_pkey |        112336896

 2017-02-08 16:34:59.362374+01 | 1486568099.36237 | pgbench_branches_pkey |            57344
 2017-02-08 16:34:59.362374+01 | 1486568099.36237 | pgbench_tellers_pkey  |           253952
 2017-02-08 16:34:59.362374+01 | 1486568099.36237 | pgbench_accounts_pkey |        112336896

 2017-02-08 16:35:00.416654+01 | 1486568100.41665 | pgbench_branches_pkey |            57344
 2017-02-08 16:35:00.416654+01 | 1486568100.41665 | pgbench_tellers_pkey  |           253952
 2017-02-08 16:35:00.416654+01 | 1486568100.41665 | pgbench_accounts_pkey |        112336896

 2017-02-08 16:35:01.472904+01 | 1486568101.4729 | pgbench_branches_pkey |            57344
 2017-02-08 16:35:01.472904+01 | 1486568101.4729 | pgbench_tellers_pkey  |           253952
 2017-02-08 16:35:01.472904+01 | 1486568101.4729 | pgbench_accounts_pkey |        112336896

 2017-02-08 16:35:02.531341+01 | 1486568102.53134 | pgbench_branches_pkey |            57344
 2017-02-08 16:35:02.531341+01 | 1486568102.53134 | pgbench_tellers_pkey  |           253952
 2017-02-08 16:35:02.531341+01 | 1486568102.53134 | pgbench_accounts_pkey |        112336896

 2017-02-08 16:35:03.587042+01 | 1486568103.58704 | pgbench_branches_pkey |            57344
 2017-02-08 16:35:03.587042+01 | 1486568103.58704 | pgbench_tellers_pkey  |           253952
 2017-02-08 16:35:03.587042+01 | 1486568103.58704 | pgbench_accounts_pkey |        112336896

 2017-02-08 16:35:04.643757+01 | 1486568104.64376 | pgbench_branches_pkey |            57344
 2017-02-08 16:35:04.643757+01 | 1486568104.64376 | pgbench_tellers_pkey  |           253952
 2017-02-08 16:35:04.643757+01 | 1486568104.64376 | pgbench_accounts_pkey |        112336896

 2017-02-08 16:35:05.70309+01 | 1486568105.70309 | pgbench_branches_pkey |            57344
 2017-02-08 16:35:05.70309+01 | 1486568105.70309 | pgbench_tellers_pkey  |           253952
 2017-02-08 16:35:05.70309+01 | 1486568105.70309 | pgbench_accounts_pkey |        112336896

 2017-02-08 16:35:06.761095+01 | 1486568106.7611 | pgbench_branches_pkey |            57344
 2017-02-08 16:35:06.761095+01 | 1486568106.7611 | pgbench_tellers_pkey  |           253952
 2017-02-08 16:35:06.761095+01 | 1486568106.7611 | pgbench_accounts_pkey |        112336896

 2017-02-08 16:35:07.82159+01 | 1486568107.82159 | pgbench_branches_pkey |            57344
 2017-02-08 16:35:07.82159+01 | 1486568107.82159 | pgbench_tellers_pkey  |           253952
 2017-02-08 16:35:07.82159+01 | 1486568107.82159 | pgbench_accounts_pkey |        112336896

 2017-02-08 16:35:08.879519+01 | 1486568108.87952 | pgbench_branches_pkey |            57344
 2017-02-08 16:35:08.879519+01 | 1486568108.87952 | pgbench_tellers_pkey  |           253952
 2017-02-08 16:35:08.879519+01 | 1486568108.87952 | pgbench_accounts_pkey |        112336896

 2017-02-08 16:35:09.936836+01 | 1486568109.93684 | pgbench_branches_pkey |            57344
 2017-02-08 16:35:09.936836+01 | 1486568109.93684 | pgbench_tellers_pkey  |           253952
 2017-02-08 16:35:09.936836+01 | 1486568109.93684 | pgbench_accounts_pkey |        112336896

 2017-02-08 16:35:10.990699+01 | 1486568110.9907 | pgbench_branches_pkey |            57344
 2017-02-08 16:35:10.990699+01 | 1486568110.9907 | pgbench_tellers_pkey  |           253952
 2017-02-08 16:35:10.990699+01 | 1486568110.9907 | pgbench_accounts_pkey |        112336896

 2017-02-08 16:35:12.04537+01 | 1486568112.04537 | pgbench_branches_pkey |            57344
 2017-02-08 16:35:12.04537+01 | 1486568112.04537 | pgbench_tellers_pkey  |           253952
 2017-02-08 16:35:12.04537+01 | 1486568112.04537 | pgbench_accounts_pkey |        112336896

 2017-02-08 16:35:13.105865+01 | 1486568113.10587 | pgbench_branches_pkey |            57344
 2017-02-08 16:35:13.105865+01 | 1486568113.10587 | pgbench_tellers_pkey  |           253952
 2017-02-08 16:35:13.105865+01 | 1486568113.10587 | pgbench_accounts_pkey |        112336896

 2017-02-08 16:35:14.163724+01 | 1486568114.16372 | pgbench_branches_pkey |            57344
 2017-02-08 16:35:14.163724+01 | 1486568114.16372 | pgbench_tellers_pkey  |           253952
 2017-02-08 16:35:14.163724+01 | 1486568114.16372 | pgbench_accounts_pkey |        112336896

 2017-02-08 16:35:15.224525+01 | 1486568115.22452 | pgbench_branches_pkey |            57344
 2017-02-08 16:35:15.224525+01 | 1486568115.22452 | pgbench_tellers_pkey  |           253952
 2017-02-08 16:35:15.224525+01 | 1486568115.22452 | pgbench_accounts_pkey |        112336896

 2017-02-08 16:35:16.288167+01 | 1486568116.28817 | pgbench_branches_pkey |            57344
 2017-02-08 16:35:16.288167+01 | 1486568116.28817 | pgbench_tellers_pkey  |           253952
 2017-02-08 16:35:16.288167+01 | 1486568116.28817 | pgbench_accounts_pkey |        112336896

 2017-02-08 16:35:17.343495+01 | 1486568117.34349 | pgbench_branches_pkey |            57344
 2017-02-08 16:35:17.343495+01 | 1486568117.34349 | pgbench_tellers_pkey  |           253952
 2017-02-08 16:35:17.343495+01 | 1486568117.34349 | pgbench_accounts_pkey |        112336896

 2017-02-08 16:35:18.397892+01 | 1486568118.39789 | pgbench_branches_pkey |            57344
 2017-02-08 16:35:18.397892+01 | 1486568118.39789 | pgbench_tellers_pkey  |           253952
 2017-02-08 16:35:18.397892+01 | 1486568118.39789 | pgbench_accounts_pkey |        112336896

 2017-02-08 16:35:19.453162+01 | 1486568119.45316 | pgbench_branches_pkey |            57344
 2017-02-08 16:35:19.453162+01 | 1486568119.45316 | pgbench_tellers_pkey  |           253952
 2017-02-08 16:35:19.453162+01 | 1486568119.45316 | pgbench_accounts_pkey |        112336896

 2017-02-08 16:35:20.507816+01 | 1486568120.50782 | pgbench_branches_pkey |            57344
 2017-02-08 16:35:20.507816+01 | 1486568120.50782 | pgbench_tellers_pkey  |           253952
 2017-02-08 16:35:20.507816+01 | 1486568120.50782 | pgbench_accounts_pkey |        112336896

 2017-02-08 16:35:21.565612+01 | 1486568121.56561 | pgbench_branches_pkey |            57344
 2017-02-08 16:35:21.565612+01 | 1486568121.56561 | pgbench_tellers_pkey  |           253952
 2017-02-08 16:35:21.565612+01 | 1486568121.56561 | pgbench_accounts_pkey |        112336896

 2017-02-08 16:35:22.624127+01 | 1486568122.62413 | pgbench_branches_pkey |            57344
 2017-02-08 16:35:22.624127+01 | 1486568122.62413 | pgbench_tellers_pkey  |           253952
 2017-02-08 16:35:22.624127+01 | 1486568122.62413 | pgbench_accounts_pkey |        112336896

 2017-02-08 16:35:23.683478+01 | 1486568123.68348 | pgbench_branches_pkey |            57344
 2017-02-08 16:35:23.683478+01 | 1486568123.68348 | pgbench_tellers_pkey  |           253952
 2017-02-08 16:35:23.683478+01 | 1486568123.68348 | pgbench_accounts_pkey |        112336896

 2017-02-08 16:35:24.736287+01 | 1486568124.73629 | pgbench_branches_pkey |            57344
 2017-02-08 16:35:24.736287+01 | 1486568124.73629 | pgbench_tellers_pkey  |           253952
 2017-02-08 16:35:24.736287+01 | 1486568124.73629 | pgbench_accounts_pkey |        112336896

 2017-02-08 16:35:25.796301+01 | 1486568125.7963 | pgbench_branches_pkey |            57344
 2017-02-08 16:35:25.796301+01 | 1486568125.7963 | pgbench_tellers_pkey  |           253952
 2017-02-08 16:35:25.796301+01 | 1486568125.7963 | pgbench_accounts_pkey |        112336896

 2017-02-08 16:35:26.855036+01 | 1486568126.85504 | pgbench_branches_pkey |            57344
 2017-02-08 16:35:26.855036+01 | 1486568126.85504 | pgbench_tellers_pkey  |           253952
 2017-02-08 16:35:26.855036+01 | 1486568126.85504 | pgbench_accounts_pkey |        112336896

 2017-02-08 16:35:27.914296+01 | 1486568127.9143 | pgbench_branches_pkey |            57344
 2017-02-08 16:35:27.914296+01 | 1486568127.9143 | pgbench_tellers_pkey  |           253952
 2017-02-08 16:35:27.914296+01 | 1486568127.9143 | pgbench_accounts_pkey |        112336896

 2017-02-08 16:35:28.968587+01 | 1486568128.96859 | pgbench_branches_pkey |            57344
 2017-02-08 16:35:28.968587+01 | 1486568128.96859 | pgbench_tellers_pkey  |           253952
 2017-02-08 16:35:28.968587+01 | 1486568128.96859 | pgbench_accounts_pkey |        112336896

 2017-02-08 16:35:30.027325+01 | 1486568130.02732 | pgbench_branches_pkey |            57344
 2017-02-08 16:35:30.027325+01 | 1486568130.02732 | pgbench_tellers_pkey  |           253952
 2017-02-08 16:35:30.027325+01 | 1486568130.02732 | pgbench_accounts_pkey |        112336896

 2017-02-08 16:35:31.088636+01 | 1486568131.08864 | pgbench_branches_pkey |            57344
 2017-02-08 16:35:31.088636+01 | 1486568131.08864 | pgbench_tellers_pkey  |           253952
 2017-02-08 16:35:31.088636+01 | 1486568131.08864 | pgbench_accounts_pkey |        112336896

 2017-02-08 16:35:32.1463+01 | 1486568132.1463 | pgbench_branches_pkey |            57344
 2017-02-08 16:35:32.1463+01 | 1486568132.1463 | pgbench_tellers_pkey  |           253952
 2017-02-08 16:35:32.1463+01 | 1486568132.1463 | pgbench_accounts_pkey |        112336896

 2017-02-08 16:35:33.207168+01 | 1486568133.20717 | pgbench_branches_pkey |            57344
 2017-02-08 16:35:33.207168+01 | 1486568133.20717 | pgbench_tellers_pkey  |           253952
 2017-02-08 16:35:33.207168+01 | 1486568133.20717 | pgbench_accounts_pkey |        112336896

 2017-02-08 16:35:34.262922+01 | 1486568134.26292 | pgbench_branches_pkey |            57344
 2017-02-08 16:35:34.262922+01 | 1486568134.26292 | pgbench_tellers_pkey  |           253952
 2017-02-08 16:35:34.262922+01 | 1486568134.26292 | pgbench_accounts_pkey |        112336896

 2017-02-08 16:35:35.318699+01 | 1486568135.3187 | pgbench_branches_pkey |            57344
 2017-02-08 16:35:35.318699+01 | 1486568135.3187 | pgbench_tellers_pkey  |           253952
 2017-02-08 16:35:35.318699+01 | 1486568135.3187 | pgbench_accounts_pkey |        112336896

