 2017-02-08 09:40:25.903476+01 | 1486543225.90348 | pgbench_branches_pkey |            40960
 2017-02-08 09:40:25.903476+01 | 1486543225.90348 | pgbench_tellers_pkey  |           122880
 2017-02-08 09:40:25.903476+01 | 1486543225.90348 | pgbench_accounts_pkey |        112336896

 2017-02-08 09:40:26.951658+01 | 1486543226.95166 | pgbench_branches_pkey |            40960
 2017-02-08 09:40:26.951658+01 | 1486543226.95166 | pgbench_tellers_pkey  |           122880
 2017-02-08 09:40:26.951658+01 | 1486543226.95166 | pgbench_accounts_pkey |        112336896

 2017-02-08 09:40:28.004435+01 | 1486543228.00444 | pgbench_branches_pkey |            40960
 2017-02-08 09:40:28.004435+01 | 1486543228.00444 | pgbench_tellers_pkey  |           122880
 2017-02-08 09:40:28.004435+01 | 1486543228.00444 | pgbench_accounts_pkey |        112336896

 2017-02-08 09:40:29.055166+01 | 1486543229.05517 | pgbench_branches_pkey |            40960
 2017-02-08 09:40:29.055166+01 | 1486543229.05517 | pgbench_tellers_pkey  |           122880
 2017-02-08 09:40:29.055166+01 | 1486543229.05517 | pgbench_accounts_pkey |        112336896

 2017-02-08 09:40:30.105511+01 | 1486543230.10551 | pgbench_branches_pkey |            40960
 2017-02-08 09:40:30.105511+01 | 1486543230.10551 | pgbench_tellers_pkey  |           122880
 2017-02-08 09:40:30.105511+01 | 1486543230.10551 | pgbench_accounts_pkey |        112336896

 2017-02-08 09:40:31.157117+01 | 1486543231.15712 | pgbench_branches_pkey |            40960
 2017-02-08 09:40:31.157117+01 | 1486543231.15712 | pgbench_tellers_pkey  |           122880
 2017-02-08 09:40:31.157117+01 | 1486543231.15712 | pgbench_accounts_pkey |        112336896

 2017-02-08 09:40:32.210187+01 | 1486543232.21019 | pgbench_branches_pkey |            40960
 2017-02-08 09:40:32.210187+01 | 1486543232.21019 | pgbench_tellers_pkey  |           122880
 2017-02-08 09:40:32.210187+01 | 1486543232.21019 | pgbench_accounts_pkey |        112336896

 2017-02-08 09:40:33.261223+01 | 1486543233.26122 | pgbench_branches_pkey |            40960
 2017-02-08 09:40:33.261223+01 | 1486543233.26122 | pgbench_tellers_pkey  |           122880
 2017-02-08 09:40:33.261223+01 | 1486543233.26122 | pgbench_accounts_pkey |        112336896

 2017-02-08 09:40:34.313108+01 | 1486543234.31311 | pgbench_branches_pkey |            40960
 2017-02-08 09:40:34.313108+01 | 1486543234.31311 | pgbench_tellers_pkey  |           122880
 2017-02-08 09:40:34.313108+01 | 1486543234.31311 | pgbench_accounts_pkey |        112336896

 2017-02-08 09:40:35.362968+01 | 1486543235.36297 | pgbench_branches_pkey |            40960
 2017-02-08 09:40:35.362968+01 | 1486543235.36297 | pgbench_tellers_pkey  |           122880
 2017-02-08 09:40:35.362968+01 | 1486543235.36297 | pgbench_accounts_pkey |        112336896

 2017-02-08 09:40:36.417525+01 | 1486543236.41753 | pgbench_branches_pkey |            40960
 2017-02-08 09:40:36.417525+01 | 1486543236.41753 | pgbench_tellers_pkey  |           122880
 2017-02-08 09:40:36.417525+01 | 1486543236.41753 | pgbench_accounts_pkey |        112336896

 2017-02-08 09:40:37.469222+01 | 1486543237.46922 | pgbench_branches_pkey |            40960
 2017-02-08 09:40:37.469222+01 | 1486543237.46922 | pgbench_tellers_pkey  |           122880
 2017-02-08 09:40:37.469222+01 | 1486543237.46922 | pgbench_accounts_pkey |        112336896

 2017-02-08 09:40:38.521404+01 | 1486543238.5214 | pgbench_branches_pkey |            40960
 2017-02-08 09:40:38.521404+01 | 1486543238.5214 | pgbench_tellers_pkey  |           122880
 2017-02-08 09:40:38.521404+01 | 1486543238.5214 | pgbench_accounts_pkey |        112336896

 2017-02-08 09:40:39.573408+01 | 1486543239.57341 | pgbench_branches_pkey |            40960
 2017-02-08 09:40:39.573408+01 | 1486543239.57341 | pgbench_tellers_pkey  |           122880
 2017-02-08 09:40:39.573408+01 | 1486543239.57341 | pgbench_accounts_pkey |        112336896

 2017-02-08 09:40:40.623986+01 | 1486543240.62399 | pgbench_branches_pkey |            40960
 2017-02-08 09:40:40.623986+01 | 1486543240.62399 | pgbench_tellers_pkey  |           122880
 2017-02-08 09:40:40.623986+01 | 1486543240.62399 | pgbench_accounts_pkey |        112336896

 2017-02-08 09:40:41.675105+01 | 1486543241.67511 | pgbench_branches_pkey |            40960
 2017-02-08 09:40:41.675105+01 | 1486543241.67511 | pgbench_tellers_pkey  |           122880
 2017-02-08 09:40:41.675105+01 | 1486543241.67511 | pgbench_accounts_pkey |        112336896

 2017-02-08 09:40:42.723983+01 | 1486543242.72398 | pgbench_branches_pkey |            40960
 2017-02-08 09:40:42.723983+01 | 1486543242.72398 | pgbench_tellers_pkey  |           122880
 2017-02-08 09:40:42.723983+01 | 1486543242.72398 | pgbench_accounts_pkey |        112336896

 2017-02-08 09:40:43.773731+01 | 1486543243.77373 | pgbench_branches_pkey |            40960
 2017-02-08 09:40:43.773731+01 | 1486543243.77373 | pgbench_tellers_pkey  |           122880
 2017-02-08 09:40:43.773731+01 | 1486543243.77373 | pgbench_accounts_pkey |        112336896

 2017-02-08 09:40:44.822537+01 | 1486543244.82254 | pgbench_branches_pkey |            40960
 2017-02-08 09:40:44.822537+01 | 1486543244.82254 | pgbench_tellers_pkey  |           122880
 2017-02-08 09:40:44.822537+01 | 1486543244.82254 | pgbench_accounts_pkey |        112336896

 2017-02-08 09:40:45.863843+01 | 1486543245.86384 | pgbench_branches_pkey |            40960
 2017-02-08 09:40:45.863843+01 | 1486543245.86384 | pgbench_tellers_pkey  |           122880
 2017-02-08 09:40:45.863843+01 | 1486543245.86384 | pgbench_accounts_pkey |        112336896

 2017-02-08 09:40:46.913887+01 | 1486543246.91389 | pgbench_branches_pkey |            40960
 2017-02-08 09:40:46.913887+01 | 1486543246.91389 | pgbench_tellers_pkey  |           122880
 2017-02-08 09:40:46.913887+01 | 1486543246.91389 | pgbench_accounts_pkey |        112336896

 2017-02-08 09:40:47.966018+01 | 1486543247.96602 | pgbench_branches_pkey |            40960
 2017-02-08 09:40:47.966018+01 | 1486543247.96602 | pgbench_tellers_pkey  |           122880
 2017-02-08 09:40:47.966018+01 | 1486543247.96602 | pgbench_accounts_pkey |        112336896

 2017-02-08 09:40:49.018933+01 | 1486543249.01893 | pgbench_branches_pkey |            40960
 2017-02-08 09:40:49.018933+01 | 1486543249.01893 | pgbench_tellers_pkey  |           122880
 2017-02-08 09:40:49.018933+01 | 1486543249.01893 | pgbench_accounts_pkey |        112336896

 2017-02-08 09:40:50.07072+01 | 1486543250.07072 | pgbench_branches_pkey |            40960
 2017-02-08 09:40:50.07072+01 | 1486543250.07072 | pgbench_tellers_pkey  |           122880
 2017-02-08 09:40:50.07072+01 | 1486543250.07072 | pgbench_accounts_pkey |        112336896

 2017-02-08 09:40:51.124705+01 | 1486543251.12471 | pgbench_branches_pkey |            40960
 2017-02-08 09:40:51.124705+01 | 1486543251.12471 | pgbench_tellers_pkey  |           122880
 2017-02-08 09:40:51.124705+01 | 1486543251.12471 | pgbench_accounts_pkey |        112336896

 2017-02-08 09:40:52.176779+01 | 1486543252.17678 | pgbench_branches_pkey |            40960
 2017-02-08 09:40:52.176779+01 | 1486543252.17678 | pgbench_tellers_pkey  |           122880
 2017-02-08 09:40:52.176779+01 | 1486543252.17678 | pgbench_accounts_pkey |        112336896

 2017-02-08 09:40:53.228673+01 | 1486543253.22867 | pgbench_branches_pkey |            40960
 2017-02-08 09:40:53.228673+01 | 1486543253.22867 | pgbench_tellers_pkey  |           122880
 2017-02-08 09:40:53.228673+01 | 1486543253.22867 | pgbench_accounts_pkey |        112336896

 2017-02-08 09:40:54.285121+01 | 1486543254.28512 | pgbench_branches_pkey |            40960
 2017-02-08 09:40:54.285121+01 | 1486543254.28512 | pgbench_tellers_pkey  |           122880
 2017-02-08 09:40:54.285121+01 | 1486543254.28512 | pgbench_accounts_pkey |        112336896

 2017-02-08 09:40:55.335157+01 | 1486543255.33516 | pgbench_branches_pkey |            40960
 2017-02-08 09:40:55.335157+01 | 1486543255.33516 | pgbench_tellers_pkey  |           122880
 2017-02-08 09:40:55.335157+01 | 1486543255.33516 | pgbench_accounts_pkey |        112336896

 2017-02-08 09:40:56.386288+01 | 1486543256.38629 | pgbench_branches_pkey |            40960
 2017-02-08 09:40:56.386288+01 | 1486543256.38629 | pgbench_tellers_pkey  |           122880
 2017-02-08 09:40:56.386288+01 | 1486543256.38629 | pgbench_accounts_pkey |        112336896

 2017-02-08 09:40:57.444556+01 | 1486543257.44456 | pgbench_branches_pkey |            40960
 2017-02-08 09:40:57.444556+01 | 1486543257.44456 | pgbench_tellers_pkey  |           122880
 2017-02-08 09:40:57.444556+01 | 1486543257.44456 | pgbench_accounts_pkey |        112336896

 2017-02-08 09:40:58.498388+01 | 1486543258.49839 | pgbench_branches_pkey |            40960
 2017-02-08 09:40:58.498388+01 | 1486543258.49839 | pgbench_tellers_pkey  |           122880
 2017-02-08 09:40:58.498388+01 | 1486543258.49839 | pgbench_accounts_pkey |        112336896

 2017-02-08 09:40:59.542118+01 | 1486543259.54212 | pgbench_branches_pkey |            40960
 2017-02-08 09:40:59.542118+01 | 1486543259.54212 | pgbench_tellers_pkey  |           122880
 2017-02-08 09:40:59.542118+01 | 1486543259.54212 | pgbench_accounts_pkey |        112336896

 2017-02-08 09:41:00.59331+01 | 1486543260.59331 | pgbench_branches_pkey |            40960
 2017-02-08 09:41:00.59331+01 | 1486543260.59331 | pgbench_tellers_pkey  |           122880
 2017-02-08 09:41:00.59331+01 | 1486543260.59331 | pgbench_accounts_pkey |        112336896

 2017-02-08 09:41:01.64192+01 | 1486543261.64192 | pgbench_branches_pkey |            40960
 2017-02-08 09:41:01.64192+01 | 1486543261.64192 | pgbench_tellers_pkey  |           122880
 2017-02-08 09:41:01.64192+01 | 1486543261.64192 | pgbench_accounts_pkey |        112336896

 2017-02-08 09:41:02.692006+01 | 1486543262.69201 | pgbench_branches_pkey |            40960
 2017-02-08 09:41:02.692006+01 | 1486543262.69201 | pgbench_tellers_pkey  |           122880
 2017-02-08 09:41:02.692006+01 | 1486543262.69201 | pgbench_accounts_pkey |        112336896

 2017-02-08 09:41:03.74443+01 | 1486543263.74443 | pgbench_branches_pkey |            40960
 2017-02-08 09:41:03.74443+01 | 1486543263.74443 | pgbench_tellers_pkey  |           122880
 2017-02-08 09:41:03.74443+01 | 1486543263.74443 | pgbench_accounts_pkey |        112336896

 2017-02-08 09:41:04.79606+01 | 1486543264.79606 | pgbench_branches_pkey |            40960
 2017-02-08 09:41:04.79606+01 | 1486543264.79606 | pgbench_tellers_pkey  |           122880
 2017-02-08 09:41:04.79606+01 | 1486543264.79606 | pgbench_accounts_pkey |        112336896

 2017-02-08 09:41:05.84923+01 | 1486543265.84923 | pgbench_branches_pkey |            40960
 2017-02-08 09:41:05.84923+01 | 1486543265.84923 | pgbench_tellers_pkey  |           122880
 2017-02-08 09:41:05.84923+01 | 1486543265.84923 | pgbench_accounts_pkey |        112336896

 2017-02-08 09:41:06.899644+01 | 1486543266.89964 | pgbench_branches_pkey |            40960
 2017-02-08 09:41:06.899644+01 | 1486543266.89964 | pgbench_tellers_pkey  |           122880
 2017-02-08 09:41:06.899644+01 | 1486543266.89964 | pgbench_accounts_pkey |        112336896

 2017-02-08 09:41:07.952175+01 | 1486543267.95217 | pgbench_branches_pkey |            40960
 2017-02-08 09:41:07.952175+01 | 1486543267.95217 | pgbench_tellers_pkey  |           122880
 2017-02-08 09:41:07.952175+01 | 1486543267.95217 | pgbench_accounts_pkey |        112336896

 2017-02-08 09:41:09.003646+01 | 1486543269.00365 | pgbench_branches_pkey |            40960
 2017-02-08 09:41:09.003646+01 | 1486543269.00365 | pgbench_tellers_pkey  |           122880
 2017-02-08 09:41:09.003646+01 | 1486543269.00365 | pgbench_accounts_pkey |        112336896

 2017-02-08 09:41:10.052712+01 | 1486543270.05271 | pgbench_branches_pkey |            40960
 2017-02-08 09:41:10.052712+01 | 1486543270.05271 | pgbench_tellers_pkey  |           122880
 2017-02-08 09:41:10.052712+01 | 1486543270.05271 | pgbench_accounts_pkey |        112336896

 2017-02-08 09:41:11.101665+01 | 1486543271.10167 | pgbench_branches_pkey |            40960
 2017-02-08 09:41:11.101665+01 | 1486543271.10167 | pgbench_tellers_pkey  |           122880
 2017-02-08 09:41:11.101665+01 | 1486543271.10167 | pgbench_accounts_pkey |        112336896

 2017-02-08 09:41:12.15294+01 | 1486543272.15294 | pgbench_branches_pkey |            40960
 2017-02-08 09:41:12.15294+01 | 1486543272.15294 | pgbench_tellers_pkey  |           122880
 2017-02-08 09:41:12.15294+01 | 1486543272.15294 | pgbench_accounts_pkey |        112336896

 2017-02-08 09:41:13.20397+01 | 1486543273.20397 | pgbench_branches_pkey |            40960
 2017-02-08 09:41:13.20397+01 | 1486543273.20397 | pgbench_tellers_pkey  |           122880
 2017-02-08 09:41:13.20397+01 | 1486543273.20397 | pgbench_accounts_pkey |        112336896

 2017-02-08 09:41:14.258594+01 | 1486543274.25859 | pgbench_branches_pkey |            40960
 2017-02-08 09:41:14.258594+01 | 1486543274.25859 | pgbench_tellers_pkey  |           122880
 2017-02-08 09:41:14.258594+01 | 1486543274.25859 | pgbench_accounts_pkey |        112336896

 2017-02-08 09:41:15.310551+01 | 1486543275.31055 | pgbench_branches_pkey |            40960
 2017-02-08 09:41:15.310551+01 | 1486543275.31055 | pgbench_tellers_pkey  |           122880
 2017-02-08 09:41:15.310551+01 | 1486543275.31055 | pgbench_accounts_pkey |        112336896

 2017-02-08 09:41:16.36445+01 | 1486543276.36445 | pgbench_branches_pkey |            40960
 2017-02-08 09:41:16.36445+01 | 1486543276.36445 | pgbench_tellers_pkey  |           122880
 2017-02-08 09:41:16.36445+01 | 1486543276.36445 | pgbench_accounts_pkey |        112336896

 2017-02-08 09:41:17.414391+01 | 1486543277.41439 | pgbench_branches_pkey |            40960
 2017-02-08 09:41:17.414391+01 | 1486543277.41439 | pgbench_tellers_pkey  |           122880
 2017-02-08 09:41:17.414391+01 | 1486543277.41439 | pgbench_accounts_pkey |        112336896

 2017-02-08 09:41:18.46802+01 | 1486543278.46802 | pgbench_branches_pkey |            40960
 2017-02-08 09:41:18.46802+01 | 1486543278.46802 | pgbench_tellers_pkey  |           122880
 2017-02-08 09:41:18.46802+01 | 1486543278.46802 | pgbench_accounts_pkey |        112336896

 2017-02-08 09:41:19.520738+01 | 1486543279.52074 | pgbench_branches_pkey |            40960
 2017-02-08 09:41:19.520738+01 | 1486543279.52074 | pgbench_tellers_pkey  |           122880
 2017-02-08 09:41:19.520738+01 | 1486543279.52074 | pgbench_accounts_pkey |        112336896

 2017-02-08 09:41:20.573445+01 | 1486543280.57345 | pgbench_branches_pkey |            40960
 2017-02-08 09:41:20.573445+01 | 1486543280.57345 | pgbench_tellers_pkey  |           122880
 2017-02-08 09:41:20.573445+01 | 1486543280.57345 | pgbench_accounts_pkey |        112336896

 2017-02-08 09:41:21.628287+01 | 1486543281.62829 | pgbench_branches_pkey |            40960
 2017-02-08 09:41:21.628287+01 | 1486543281.62829 | pgbench_tellers_pkey  |           122880
 2017-02-08 09:41:21.628287+01 | 1486543281.62829 | pgbench_accounts_pkey |        112336896

 2017-02-08 09:41:22.679935+01 | 1486543282.67993 | pgbench_branches_pkey |            40960
 2017-02-08 09:41:22.679935+01 | 1486543282.67993 | pgbench_tellers_pkey  |           122880
 2017-02-08 09:41:22.679935+01 | 1486543282.67993 | pgbench_accounts_pkey |        112336896

 2017-02-08 09:41:23.729638+01 | 1486543283.72964 | pgbench_branches_pkey |            40960
 2017-02-08 09:41:23.729638+01 | 1486543283.72964 | pgbench_tellers_pkey  |           122880
 2017-02-08 09:41:23.729638+01 | 1486543283.72964 | pgbench_accounts_pkey |        112336896

 2017-02-08 09:41:24.779838+01 | 1486543284.77984 | pgbench_branches_pkey |            40960
 2017-02-08 09:41:24.779838+01 | 1486543284.77984 | pgbench_tellers_pkey  |           122880
 2017-02-08 09:41:24.779838+01 | 1486543284.77984 | pgbench_accounts_pkey |        112336896

 2017-02-08 09:41:25.831108+01 | 1486543285.83111 | pgbench_branches_pkey |            40960
 2017-02-08 09:41:25.831108+01 | 1486543285.83111 | pgbench_tellers_pkey  |           122880
 2017-02-08 09:41:25.831108+01 | 1486543285.83111 | pgbench_accounts_pkey |        112336896

 2017-02-08 09:41:26.885608+01 | 1486543286.88561 | pgbench_branches_pkey |            40960
 2017-02-08 09:41:26.885608+01 | 1486543286.88561 | pgbench_tellers_pkey  |           122880
 2017-02-08 09:41:26.885608+01 | 1486543286.88561 | pgbench_accounts_pkey |        112336896

 2017-02-08 09:41:27.937069+01 | 1486543287.93707 | pgbench_branches_pkey |            40960
 2017-02-08 09:41:27.937069+01 | 1486543287.93707 | pgbench_tellers_pkey  |           122880
 2017-02-08 09:41:27.937069+01 | 1486543287.93707 | pgbench_accounts_pkey |        112336896

 2017-02-08 09:41:28.990661+01 | 1486543288.99066 | pgbench_branches_pkey |            40960
 2017-02-08 09:41:28.990661+01 | 1486543288.99066 | pgbench_tellers_pkey  |           122880
 2017-02-08 09:41:28.990661+01 | 1486543288.99066 | pgbench_accounts_pkey |        112336896

 2017-02-08 09:41:30.043241+01 | 1486543290.04324 | pgbench_branches_pkey |            40960
 2017-02-08 09:41:30.043241+01 | 1486543290.04324 | pgbench_tellers_pkey  |           122880
 2017-02-08 09:41:30.043241+01 | 1486543290.04324 | pgbench_accounts_pkey |        112336896

 2017-02-08 09:41:31.095625+01 | 1486543291.09562 | pgbench_branches_pkey |            40960
 2017-02-08 09:41:31.095625+01 | 1486543291.09562 | pgbench_tellers_pkey  |           122880
 2017-02-08 09:41:31.095625+01 | 1486543291.09562 | pgbench_accounts_pkey |        112336896

 2017-02-08 09:41:32.149473+01 | 1486543292.14947 | pgbench_branches_pkey |            40960
 2017-02-08 09:41:32.149473+01 | 1486543292.14947 | pgbench_tellers_pkey  |           122880
 2017-02-08 09:41:32.149473+01 | 1486543292.14947 | pgbench_accounts_pkey |        112336896

 2017-02-08 09:41:33.199939+01 | 1486543293.19994 | pgbench_branches_pkey |            40960
 2017-02-08 09:41:33.199939+01 | 1486543293.19994 | pgbench_tellers_pkey  |           122880
 2017-02-08 09:41:33.199939+01 | 1486543293.19994 | pgbench_accounts_pkey |        112336896

 2017-02-08 09:41:34.251145+01 | 1486543294.25114 | pgbench_branches_pkey |            40960
 2017-02-08 09:41:34.251145+01 | 1486543294.25114 | pgbench_tellers_pkey  |           122880
 2017-02-08 09:41:34.251145+01 | 1486543294.25114 | pgbench_accounts_pkey |        112336896

 2017-02-08 09:41:35.304525+01 | 1486543295.30452 | pgbench_branches_pkey |            40960
 2017-02-08 09:41:35.304525+01 | 1486543295.30452 | pgbench_tellers_pkey  |           122880
 2017-02-08 09:41:35.304525+01 | 1486543295.30452 | pgbench_accounts_pkey |        112336896

 2017-02-08 09:41:36.35763+01 | 1486543296.35763 | pgbench_branches_pkey |            40960
 2017-02-08 09:41:36.35763+01 | 1486543296.35763 | pgbench_tellers_pkey  |           122880
 2017-02-08 09:41:36.35763+01 | 1486543296.35763 | pgbench_accounts_pkey |        112336896

 2017-02-08 09:41:37.408851+01 | 1486543297.40885 | pgbench_branches_pkey |            40960
 2017-02-08 09:41:37.408851+01 | 1486543297.40885 | pgbench_tellers_pkey  |           122880
 2017-02-08 09:41:37.408851+01 | 1486543297.40885 | pgbench_accounts_pkey |        112336896

 2017-02-08 09:41:38.458745+01 | 1486543298.45875 | pgbench_branches_pkey |            40960
 2017-02-08 09:41:38.458745+01 | 1486543298.45875 | pgbench_tellers_pkey  |           122880
 2017-02-08 09:41:38.458745+01 | 1486543298.45875 | pgbench_accounts_pkey |        112336896

 2017-02-08 09:41:39.510884+01 | 1486543299.51088 | pgbench_branches_pkey |            40960
 2017-02-08 09:41:39.510884+01 | 1486543299.51088 | pgbench_tellers_pkey  |           122880
 2017-02-08 09:41:39.510884+01 | 1486543299.51088 | pgbench_accounts_pkey |        112336896

 2017-02-08 09:41:40.564721+01 | 1486543300.56472 | pgbench_branches_pkey |            40960
 2017-02-08 09:41:40.564721+01 | 1486543300.56472 | pgbench_tellers_pkey  |           122880
 2017-02-08 09:41:40.564721+01 | 1486543300.56472 | pgbench_accounts_pkey |        112336896

 2017-02-08 09:41:41.617079+01 | 1486543301.61708 | pgbench_branches_pkey |            40960
 2017-02-08 09:41:41.617079+01 | 1486543301.61708 | pgbench_tellers_pkey  |           122880
 2017-02-08 09:41:41.617079+01 | 1486543301.61708 | pgbench_accounts_pkey |        112336896

 2017-02-08 09:41:42.676424+01 | 1486543302.67642 | pgbench_branches_pkey |            40960
 2017-02-08 09:41:42.676424+01 | 1486543302.67642 | pgbench_tellers_pkey  |           122880
 2017-02-08 09:41:42.676424+01 | 1486543302.67642 | pgbench_accounts_pkey |        112336896

 2017-02-08 09:41:43.729406+01 | 1486543303.72941 | pgbench_branches_pkey |            40960
 2017-02-08 09:41:43.729406+01 | 1486543303.72941 | pgbench_tellers_pkey  |           122880
 2017-02-08 09:41:43.729406+01 | 1486543303.72941 | pgbench_accounts_pkey |        112336896

 2017-02-08 09:41:44.780417+01 | 1486543304.78042 | pgbench_branches_pkey |            40960
 2017-02-08 09:41:44.780417+01 | 1486543304.78042 | pgbench_tellers_pkey  |           122880
 2017-02-08 09:41:44.780417+01 | 1486543304.78042 | pgbench_accounts_pkey |        112336896

 2017-02-08 09:41:45.835951+01 | 1486543305.83595 | pgbench_branches_pkey |            40960
 2017-02-08 09:41:45.835951+01 | 1486543305.83595 | pgbench_tellers_pkey  |           122880
 2017-02-08 09:41:45.835951+01 | 1486543305.83595 | pgbench_accounts_pkey |        112336896

 2017-02-08 09:41:46.893554+01 | 1486543306.89355 | pgbench_branches_pkey |            40960
 2017-02-08 09:41:46.893554+01 | 1486543306.89355 | pgbench_tellers_pkey  |           122880
 2017-02-08 09:41:46.893554+01 | 1486543306.89355 | pgbench_accounts_pkey |        112336896

 2017-02-08 09:41:47.95299+01 | 1486543307.95299 | pgbench_branches_pkey |            40960
 2017-02-08 09:41:47.95299+01 | 1486543307.95299 | pgbench_tellers_pkey  |           122880
 2017-02-08 09:41:47.95299+01 | 1486543307.95299 | pgbench_accounts_pkey |        112336896

 2017-02-08 09:41:49.00401+01 | 1486543309.00401 | pgbench_branches_pkey |            40960
 2017-02-08 09:41:49.00401+01 | 1486543309.00401 | pgbench_tellers_pkey  |           122880
 2017-02-08 09:41:49.00401+01 | 1486543309.00401 | pgbench_accounts_pkey |        112336896

 2017-02-08 09:41:50.066628+01 | 1486543310.06663 | pgbench_branches_pkey |            40960
 2017-02-08 09:41:50.066628+01 | 1486543310.06663 | pgbench_tellers_pkey  |           122880
 2017-02-08 09:41:50.066628+01 | 1486543310.06663 | pgbench_accounts_pkey |        112336896

 2017-02-08 09:41:51.119648+01 | 1486543311.11965 | pgbench_branches_pkey |            40960
 2017-02-08 09:41:51.119648+01 | 1486543311.11965 | pgbench_tellers_pkey  |           122880
 2017-02-08 09:41:51.119648+01 | 1486543311.11965 | pgbench_accounts_pkey |        112336896

 2017-02-08 09:41:52.173006+01 | 1486543312.17301 | pgbench_branches_pkey |            40960
 2017-02-08 09:41:52.173006+01 | 1486543312.17301 | pgbench_tellers_pkey  |           122880
 2017-02-08 09:41:52.173006+01 | 1486543312.17301 | pgbench_accounts_pkey |        112336896

 2017-02-08 09:41:53.226345+01 | 1486543313.22635 | pgbench_branches_pkey |            40960
 2017-02-08 09:41:53.226345+01 | 1486543313.22635 | pgbench_tellers_pkey  |           122880
 2017-02-08 09:41:53.226345+01 | 1486543313.22635 | pgbench_accounts_pkey |        112336896

 2017-02-08 09:41:54.275834+01 | 1486543314.27583 | pgbench_branches_pkey |            40960
 2017-02-08 09:41:54.275834+01 | 1486543314.27583 | pgbench_tellers_pkey  |           122880
 2017-02-08 09:41:54.275834+01 | 1486543314.27583 | pgbench_accounts_pkey |        112336896

 2017-02-08 09:41:55.325171+01 | 1486543315.32517 | pgbench_branches_pkey |            40960
 2017-02-08 09:41:55.325171+01 | 1486543315.32517 | pgbench_tellers_pkey  |           122880
 2017-02-08 09:41:55.325171+01 | 1486543315.32517 | pgbench_accounts_pkey |        112336896

 2017-02-08 09:41:56.379584+01 | 1486543316.37958 | pgbench_branches_pkey |            40960
 2017-02-08 09:41:56.379584+01 | 1486543316.37958 | pgbench_tellers_pkey  |           122880
 2017-02-08 09:41:56.379584+01 | 1486543316.37958 | pgbench_accounts_pkey |        112336896

 2017-02-08 09:41:57.430247+01 | 1486543317.43025 | pgbench_branches_pkey |            40960
 2017-02-08 09:41:57.430247+01 | 1486543317.43025 | pgbench_tellers_pkey  |           122880
 2017-02-08 09:41:57.430247+01 | 1486543317.43025 | pgbench_accounts_pkey |        112336896

 2017-02-08 09:41:58.482056+01 | 1486543318.48206 | pgbench_branches_pkey |            40960
 2017-02-08 09:41:58.482056+01 | 1486543318.48206 | pgbench_tellers_pkey  |           122880
 2017-02-08 09:41:58.482056+01 | 1486543318.48206 | pgbench_accounts_pkey |        112336896

 2017-02-08 09:41:59.534914+01 | 1486543319.53491 | pgbench_branches_pkey |            40960
 2017-02-08 09:41:59.534914+01 | 1486543319.53491 | pgbench_tellers_pkey  |           122880
 2017-02-08 09:41:59.534914+01 | 1486543319.53491 | pgbench_accounts_pkey |        112336896

 2017-02-08 09:42:00.583797+01 | 1486543320.5838 | pgbench_branches_pkey |            40960
 2017-02-08 09:42:00.583797+01 | 1486543320.5838 | pgbench_tellers_pkey  |           122880
 2017-02-08 09:42:00.583797+01 | 1486543320.5838 | pgbench_accounts_pkey |        112336896

 2017-02-08 09:42:01.636066+01 | 1486543321.63607 | pgbench_branches_pkey |            40960
 2017-02-08 09:42:01.636066+01 | 1486543321.63607 | pgbench_tellers_pkey  |           122880
 2017-02-08 09:42:01.636066+01 | 1486543321.63607 | pgbench_accounts_pkey |        112336896

 2017-02-08 09:42:02.684197+01 | 1486543322.6842 | pgbench_branches_pkey |            40960
 2017-02-08 09:42:02.684197+01 | 1486543322.6842 | pgbench_tellers_pkey  |           122880
 2017-02-08 09:42:02.684197+01 | 1486543322.6842 | pgbench_accounts_pkey |        112336896

 2017-02-08 09:42:03.732134+01 | 1486543323.73213 | pgbench_branches_pkey |            40960
 2017-02-08 09:42:03.732134+01 | 1486543323.73213 | pgbench_tellers_pkey  |           122880
 2017-02-08 09:42:03.732134+01 | 1486543323.73213 | pgbench_accounts_pkey |        112336896

 2017-02-08 09:42:04.781298+01 | 1486543324.7813 | pgbench_branches_pkey |            40960
 2017-02-08 09:42:04.781298+01 | 1486543324.7813 | pgbench_tellers_pkey  |           122880
 2017-02-08 09:42:04.781298+01 | 1486543324.7813 | pgbench_accounts_pkey |        112336896

 2017-02-08 09:42:05.830924+01 | 1486543325.83092 | pgbench_branches_pkey |            40960
 2017-02-08 09:42:05.830924+01 | 1486543325.83092 | pgbench_tellers_pkey  |           122880
 2017-02-08 09:42:05.830924+01 | 1486543325.83092 | pgbench_accounts_pkey |        112336896

 2017-02-08 09:42:06.880572+01 | 1486543326.88057 | pgbench_branches_pkey |            40960
 2017-02-08 09:42:06.880572+01 | 1486543326.88057 | pgbench_tellers_pkey  |           122880
 2017-02-08 09:42:06.880572+01 | 1486543326.88057 | pgbench_accounts_pkey |        112336896

 2017-02-08 09:42:07.932527+01 | 1486543327.93253 | pgbench_branches_pkey |            40960
 2017-02-08 09:42:07.932527+01 | 1486543327.93253 | pgbench_tellers_pkey  |           122880
 2017-02-08 09:42:07.932527+01 | 1486543327.93253 | pgbench_accounts_pkey |        112336896

 2017-02-08 09:42:08.984629+01 | 1486543328.98463 | pgbench_branches_pkey |            40960
 2017-02-08 09:42:08.984629+01 | 1486543328.98463 | pgbench_tellers_pkey  |           122880
 2017-02-08 09:42:08.984629+01 | 1486543328.98463 | pgbench_accounts_pkey |        112336896

 2017-02-08 09:42:10.038051+01 | 1486543330.03805 | pgbench_branches_pkey |            40960
 2017-02-08 09:42:10.038051+01 | 1486543330.03805 | pgbench_tellers_pkey  |           122880
 2017-02-08 09:42:10.038051+01 | 1486543330.03805 | pgbench_accounts_pkey |        112336896

 2017-02-08 09:42:11.088239+01 | 1486543331.08824 | pgbench_branches_pkey |            40960
 2017-02-08 09:42:11.088239+01 | 1486543331.08824 | pgbench_tellers_pkey  |           122880
 2017-02-08 09:42:11.088239+01 | 1486543331.08824 | pgbench_accounts_pkey |        112336896

 2017-02-08 09:42:12.138064+01 | 1486543332.13806 | pgbench_branches_pkey |            40960
 2017-02-08 09:42:12.138064+01 | 1486543332.13806 | pgbench_tellers_pkey  |           122880
 2017-02-08 09:42:12.138064+01 | 1486543332.13806 | pgbench_accounts_pkey |        112336896

 2017-02-08 09:42:13.188889+01 | 1486543333.18889 | pgbench_branches_pkey |            40960
 2017-02-08 09:42:13.188889+01 | 1486543333.18889 | pgbench_tellers_pkey  |           122880
 2017-02-08 09:42:13.188889+01 | 1486543333.18889 | pgbench_accounts_pkey |        112336896

 2017-02-08 09:42:14.239574+01 | 1486543334.23957 | pgbench_branches_pkey |            40960
 2017-02-08 09:42:14.239574+01 | 1486543334.23957 | pgbench_tellers_pkey  |           122880
 2017-02-08 09:42:14.239574+01 | 1486543334.23957 | pgbench_accounts_pkey |        112336896

 2017-02-08 09:42:15.291222+01 | 1486543335.29122 | pgbench_branches_pkey |            40960
 2017-02-08 09:42:15.291222+01 | 1486543335.29122 | pgbench_tellers_pkey  |           122880
 2017-02-08 09:42:15.291222+01 | 1486543335.29122 | pgbench_accounts_pkey |        112336896

 2017-02-08 09:42:16.340769+01 | 1486543336.34077 | pgbench_branches_pkey |            40960
 2017-02-08 09:42:16.340769+01 | 1486543336.34077 | pgbench_tellers_pkey  |           122880
 2017-02-08 09:42:16.340769+01 | 1486543336.34077 | pgbench_accounts_pkey |        112336896

 2017-02-08 09:42:17.392908+01 | 1486543337.39291 | pgbench_branches_pkey |            40960
 2017-02-08 09:42:17.392908+01 | 1486543337.39291 | pgbench_tellers_pkey  |           122880
 2017-02-08 09:42:17.392908+01 | 1486543337.39291 | pgbench_accounts_pkey |        112336896

 2017-02-08 09:42:18.446187+01 | 1486543338.44619 | pgbench_branches_pkey |            40960
 2017-02-08 09:42:18.446187+01 | 1486543338.44619 | pgbench_tellers_pkey  |           122880
 2017-02-08 09:42:18.446187+01 | 1486543338.44619 | pgbench_accounts_pkey |        112336896

 2017-02-08 09:42:19.495294+01 | 1486543339.49529 | pgbench_branches_pkey |            40960
 2017-02-08 09:42:19.495294+01 | 1486543339.49529 | pgbench_tellers_pkey  |           122880
 2017-02-08 09:42:19.495294+01 | 1486543339.49529 | pgbench_accounts_pkey |        112336896

 2017-02-08 09:42:20.547345+01 | 1486543340.54734 | pgbench_branches_pkey |            40960
 2017-02-08 09:42:20.547345+01 | 1486543340.54734 | pgbench_tellers_pkey  |           122880
 2017-02-08 09:42:20.547345+01 | 1486543340.54734 | pgbench_accounts_pkey |        112336896

 2017-02-08 09:42:21.599991+01 | 1486543341.59999 | pgbench_branches_pkey |            40960
 2017-02-08 09:42:21.599991+01 | 1486543341.59999 | pgbench_tellers_pkey  |           122880
 2017-02-08 09:42:21.599991+01 | 1486543341.59999 | pgbench_accounts_pkey |        112336896

 2017-02-08 09:42:22.651364+01 | 1486543342.65136 | pgbench_branches_pkey |            40960
 2017-02-08 09:42:22.651364+01 | 1486543342.65136 | pgbench_tellers_pkey  |           122880
 2017-02-08 09:42:22.651364+01 | 1486543342.65136 | pgbench_accounts_pkey |        112336896

 2017-02-08 09:42:23.70581+01 | 1486543343.70581 | pgbench_branches_pkey |            40960
 2017-02-08 09:42:23.70581+01 | 1486543343.70581 | pgbench_tellers_pkey  |           122880
 2017-02-08 09:42:23.70581+01 | 1486543343.70581 | pgbench_accounts_pkey |        112336896

 2017-02-08 09:42:24.761194+01 | 1486543344.76119 | pgbench_branches_pkey |            40960
 2017-02-08 09:42:24.761194+01 | 1486543344.76119 | pgbench_tellers_pkey  |           122880
 2017-02-08 09:42:24.761194+01 | 1486543344.76119 | pgbench_accounts_pkey |        112336896

 2017-02-08 09:42:25.814167+01 | 1486543345.81417 | pgbench_branches_pkey |            40960
 2017-02-08 09:42:25.814167+01 | 1486543345.81417 | pgbench_tellers_pkey  |           122880
 2017-02-08 09:42:25.814167+01 | 1486543345.81417 | pgbench_accounts_pkey |        112336896

 2017-02-08 09:42:26.865959+01 | 1486543346.86596 | pgbench_branches_pkey |            40960
 2017-02-08 09:42:26.865959+01 | 1486543346.86596 | pgbench_tellers_pkey  |           122880
 2017-02-08 09:42:26.865959+01 | 1486543346.86596 | pgbench_accounts_pkey |        112336896

 2017-02-08 09:42:27.918269+01 | 1486543347.91827 | pgbench_branches_pkey |            40960
 2017-02-08 09:42:27.918269+01 | 1486543347.91827 | pgbench_tellers_pkey  |           122880
 2017-02-08 09:42:27.918269+01 | 1486543347.91827 | pgbench_accounts_pkey |        112336896

 2017-02-08 09:42:28.970059+01 | 1486543348.97006 | pgbench_branches_pkey |            40960
 2017-02-08 09:42:28.970059+01 | 1486543348.97006 | pgbench_tellers_pkey  |           122880
 2017-02-08 09:42:28.970059+01 | 1486543348.97006 | pgbench_accounts_pkey |        112336896

 2017-02-08 09:42:30.023349+01 | 1486543350.02335 | pgbench_branches_pkey |            40960
 2017-02-08 09:42:30.023349+01 | 1486543350.02335 | pgbench_tellers_pkey  |           122880
 2017-02-08 09:42:30.023349+01 | 1486543350.02335 | pgbench_accounts_pkey |        112336896

 2017-02-08 09:42:31.072813+01 | 1486543351.07281 | pgbench_branches_pkey |            40960
 2017-02-08 09:42:31.072813+01 | 1486543351.07281 | pgbench_tellers_pkey  |           122880
 2017-02-08 09:42:31.072813+01 | 1486543351.07281 | pgbench_accounts_pkey |        112336896

 2017-02-08 09:42:32.127721+01 | 1486543352.12772 | pgbench_branches_pkey |            40960
 2017-02-08 09:42:32.127721+01 | 1486543352.12772 | pgbench_tellers_pkey  |           122880
 2017-02-08 09:42:32.127721+01 | 1486543352.12772 | pgbench_accounts_pkey |        112336896

 2017-02-08 09:42:33.18024+01 | 1486543353.18024 | pgbench_branches_pkey |            40960
 2017-02-08 09:42:33.18024+01 | 1486543353.18024 | pgbench_tellers_pkey  |           122880
 2017-02-08 09:42:33.18024+01 | 1486543353.18024 | pgbench_accounts_pkey |        112336896

 2017-02-08 09:42:34.229709+01 | 1486543354.22971 | pgbench_branches_pkey |            40960
 2017-02-08 09:42:34.229709+01 | 1486543354.22971 | pgbench_tellers_pkey  |           122880
 2017-02-08 09:42:34.229709+01 | 1486543354.22971 | pgbench_accounts_pkey |        112336896

 2017-02-08 09:42:35.282306+01 | 1486543355.28231 | pgbench_branches_pkey |            40960
 2017-02-08 09:42:35.282306+01 | 1486543355.28231 | pgbench_tellers_pkey  |           122880
 2017-02-08 09:42:35.282306+01 | 1486543355.28231 | pgbench_accounts_pkey |        112336896

 2017-02-08 09:42:36.331558+01 | 1486543356.33156 | pgbench_branches_pkey |            40960
 2017-02-08 09:42:36.331558+01 | 1486543356.33156 | pgbench_tellers_pkey  |           122880
 2017-02-08 09:42:36.331558+01 | 1486543356.33156 | pgbench_accounts_pkey |        112336896

 2017-02-08 09:42:37.383846+01 | 1486543357.38385 | pgbench_branches_pkey |            40960
 2017-02-08 09:42:37.383846+01 | 1486543357.38385 | pgbench_tellers_pkey  |           122880
 2017-02-08 09:42:37.383846+01 | 1486543357.38385 | pgbench_accounts_pkey |        112336896

 2017-02-08 09:42:38.441938+01 | 1486543358.44194 | pgbench_branches_pkey |            40960
 2017-02-08 09:42:38.441938+01 | 1486543358.44194 | pgbench_tellers_pkey  |           122880
 2017-02-08 09:42:38.441938+01 | 1486543358.44194 | pgbench_accounts_pkey |        112336896

 2017-02-08 09:42:39.492028+01 | 1486543359.49203 | pgbench_branches_pkey |            40960
 2017-02-08 09:42:39.492028+01 | 1486543359.49203 | pgbench_tellers_pkey  |           122880
 2017-02-08 09:42:39.492028+01 | 1486543359.49203 | pgbench_accounts_pkey |        112336896

 2017-02-08 09:42:40.542264+01 | 1486543360.54226 | pgbench_branches_pkey |            40960
 2017-02-08 09:42:40.542264+01 | 1486543360.54226 | pgbench_tellers_pkey  |           122880
 2017-02-08 09:42:40.542264+01 | 1486543360.54226 | pgbench_accounts_pkey |        112336896

 2017-02-08 09:42:41.596093+01 | 1486543361.59609 | pgbench_branches_pkey |            40960
 2017-02-08 09:42:41.596093+01 | 1486543361.59609 | pgbench_tellers_pkey  |           122880
 2017-02-08 09:42:41.596093+01 | 1486543361.59609 | pgbench_accounts_pkey |        112336896

 2017-02-08 09:42:42.647785+01 | 1486543362.64778 | pgbench_branches_pkey |            40960
 2017-02-08 09:42:42.647785+01 | 1486543362.64778 | pgbench_tellers_pkey  |           122880
 2017-02-08 09:42:42.647785+01 | 1486543362.64778 | pgbench_accounts_pkey |        112336896

 2017-02-08 09:42:43.699388+01 | 1486543363.69939 | pgbench_branches_pkey |            40960
 2017-02-08 09:42:43.699388+01 | 1486543363.69939 | pgbench_tellers_pkey  |           122880
 2017-02-08 09:42:43.699388+01 | 1486543363.69939 | pgbench_accounts_pkey |        112336896

 2017-02-08 09:42:44.754293+01 | 1486543364.75429 | pgbench_branches_pkey |            40960
 2017-02-08 09:42:44.754293+01 | 1486543364.75429 | pgbench_tellers_pkey  |           122880
 2017-02-08 09:42:44.754293+01 | 1486543364.75429 | pgbench_accounts_pkey |        112336896

 2017-02-08 09:42:45.796295+01 | 1486543365.79629 | pgbench_branches_pkey |            40960
 2017-02-08 09:42:45.796295+01 | 1486543365.79629 | pgbench_tellers_pkey  |           122880
 2017-02-08 09:42:45.796295+01 | 1486543365.79629 | pgbench_accounts_pkey |        112336896

 2017-02-08 09:42:46.846486+01 | 1486543366.84649 | pgbench_branches_pkey |            40960
 2017-02-08 09:42:46.846486+01 | 1486543366.84649 | pgbench_tellers_pkey  |           122880
 2017-02-08 09:42:46.846486+01 | 1486543366.84649 | pgbench_accounts_pkey |        112336896

 2017-02-08 09:42:47.898392+01 | 1486543367.89839 | pgbench_branches_pkey |            40960
 2017-02-08 09:42:47.898392+01 | 1486543367.89839 | pgbench_tellers_pkey  |           122880
 2017-02-08 09:42:47.898392+01 | 1486543367.89839 | pgbench_accounts_pkey |        112336896

 2017-02-08 09:42:48.953617+01 | 1486543368.95362 | pgbench_branches_pkey |            40960
 2017-02-08 09:42:48.953617+01 | 1486543368.95362 | pgbench_tellers_pkey  |           122880
 2017-02-08 09:42:48.953617+01 | 1486543368.95362 | pgbench_accounts_pkey |        112336896

 2017-02-08 09:42:50.012222+01 | 1486543370.01222 | pgbench_branches_pkey |            40960
 2017-02-08 09:42:50.012222+01 | 1486543370.01222 | pgbench_tellers_pkey  |           122880
 2017-02-08 09:42:50.012222+01 | 1486543370.01222 | pgbench_accounts_pkey |        112336896

 2017-02-08 09:42:51.064235+01 | 1486543371.06423 | pgbench_branches_pkey |            40960
 2017-02-08 09:42:51.064235+01 | 1486543371.06423 | pgbench_tellers_pkey  |           122880
 2017-02-08 09:42:51.064235+01 | 1486543371.06423 | pgbench_accounts_pkey |        112336896

 2017-02-08 09:42:52.114709+01 | 1486543372.11471 | pgbench_branches_pkey |            40960
 2017-02-08 09:42:52.114709+01 | 1486543372.11471 | pgbench_tellers_pkey  |           122880
 2017-02-08 09:42:52.114709+01 | 1486543372.11471 | pgbench_accounts_pkey |        112336896

 2017-02-08 09:42:53.170115+01 | 1486543373.17011 | pgbench_branches_pkey |            40960
 2017-02-08 09:42:53.170115+01 | 1486543373.17011 | pgbench_tellers_pkey  |           122880
 2017-02-08 09:42:53.170115+01 | 1486543373.17011 | pgbench_accounts_pkey |        112336896

 2017-02-08 09:42:54.221536+01 | 1486543374.22154 | pgbench_branches_pkey |            40960
 2017-02-08 09:42:54.221536+01 | 1486543374.22154 | pgbench_tellers_pkey  |           122880
 2017-02-08 09:42:54.221536+01 | 1486543374.22154 | pgbench_accounts_pkey |        112336896

 2017-02-08 09:42:55.270996+01 | 1486543375.271 | pgbench_branches_pkey |            40960
 2017-02-08 09:42:55.270996+01 | 1486543375.271 | pgbench_tellers_pkey  |           122880
 2017-02-08 09:42:55.270996+01 | 1486543375.271 | pgbench_accounts_pkey |        112336896

 2017-02-08 09:42:56.321826+01 | 1486543376.32183 | pgbench_branches_pkey |            40960
 2017-02-08 09:42:56.321826+01 | 1486543376.32183 | pgbench_tellers_pkey  |           122880
 2017-02-08 09:42:56.321826+01 | 1486543376.32183 | pgbench_accounts_pkey |        112336896

 2017-02-08 09:42:57.374501+01 | 1486543377.3745 | pgbench_branches_pkey |            40960
 2017-02-08 09:42:57.374501+01 | 1486543377.3745 | pgbench_tellers_pkey  |           122880
 2017-02-08 09:42:57.374501+01 | 1486543377.3745 | pgbench_accounts_pkey |        112336896

 2017-02-08 09:42:58.426203+01 | 1486543378.4262 | pgbench_branches_pkey |            40960
 2017-02-08 09:42:58.426203+01 | 1486543378.4262 | pgbench_tellers_pkey  |           122880
 2017-02-08 09:42:58.426203+01 | 1486543378.4262 | pgbench_accounts_pkey |        112336896

 2017-02-08 09:42:59.475477+01 | 1486543379.47548 | pgbench_branches_pkey |            40960
 2017-02-08 09:42:59.475477+01 | 1486543379.47548 | pgbench_tellers_pkey  |           122880
 2017-02-08 09:42:59.475477+01 | 1486543379.47548 | pgbench_accounts_pkey |        112336896

 2017-02-08 09:43:00.527198+01 | 1486543380.5272 | pgbench_branches_pkey |            40960
 2017-02-08 09:43:00.527198+01 | 1486543380.5272 | pgbench_tellers_pkey  |           122880
 2017-02-08 09:43:00.527198+01 | 1486543380.5272 | pgbench_accounts_pkey |        112336896

 2017-02-08 09:43:01.576651+01 | 1486543381.57665 | pgbench_branches_pkey |            40960
 2017-02-08 09:43:01.576651+01 | 1486543381.57665 | pgbench_tellers_pkey  |           122880
 2017-02-08 09:43:01.576651+01 | 1486543381.57665 | pgbench_accounts_pkey |        112336896

 2017-02-08 09:43:02.626471+01 | 1486543382.62647 | pgbench_branches_pkey |            40960
 2017-02-08 09:43:02.626471+01 | 1486543382.62647 | pgbench_tellers_pkey  |           122880
 2017-02-08 09:43:02.626471+01 | 1486543382.62647 | pgbench_accounts_pkey |        112336896

 2017-02-08 09:43:03.679889+01 | 1486543383.67989 | pgbench_branches_pkey |            40960
 2017-02-08 09:43:03.679889+01 | 1486543383.67989 | pgbench_tellers_pkey  |           122880
 2017-02-08 09:43:03.679889+01 | 1486543383.67989 | pgbench_accounts_pkey |        112336896

 2017-02-08 09:43:04.732262+01 | 1486543384.73226 | pgbench_branches_pkey |            40960
 2017-02-08 09:43:04.732262+01 | 1486543384.73226 | pgbench_tellers_pkey  |           122880
 2017-02-08 09:43:04.732262+01 | 1486543384.73226 | pgbench_accounts_pkey |        112336896

 2017-02-08 09:43:05.785914+01 | 1486543385.78591 | pgbench_branches_pkey |            40960
 2017-02-08 09:43:05.785914+01 | 1486543385.78591 | pgbench_tellers_pkey  |           122880
 2017-02-08 09:43:05.785914+01 | 1486543385.78591 | pgbench_accounts_pkey |        112336896

 2017-02-08 09:43:06.837009+01 | 1486543386.83701 | pgbench_branches_pkey |            40960
 2017-02-08 09:43:06.837009+01 | 1486543386.83701 | pgbench_tellers_pkey  |           122880
 2017-02-08 09:43:06.837009+01 | 1486543386.83701 | pgbench_accounts_pkey |        112336896

 2017-02-08 09:43:07.888124+01 | 1486543387.88812 | pgbench_branches_pkey |            40960
 2017-02-08 09:43:07.888124+01 | 1486543387.88812 | pgbench_tellers_pkey  |           122880
 2017-02-08 09:43:07.888124+01 | 1486543387.88812 | pgbench_accounts_pkey |        112336896

 2017-02-08 09:43:08.942357+01 | 1486543388.94236 | pgbench_branches_pkey |            40960
 2017-02-08 09:43:08.942357+01 | 1486543388.94236 | pgbench_tellers_pkey  |           122880
 2017-02-08 09:43:08.942357+01 | 1486543388.94236 | pgbench_accounts_pkey |        112336896

 2017-02-08 09:43:09.991423+01 | 1486543389.99142 | pgbench_branches_pkey |            40960
 2017-02-08 09:43:09.991423+01 | 1486543389.99142 | pgbench_tellers_pkey  |           122880
 2017-02-08 09:43:09.991423+01 | 1486543389.99142 | pgbench_accounts_pkey |        112336896

 2017-02-08 09:43:11.041982+01 | 1486543391.04198 | pgbench_branches_pkey |            40960
 2017-02-08 09:43:11.041982+01 | 1486543391.04198 | pgbench_tellers_pkey  |           122880
 2017-02-08 09:43:11.041982+01 | 1486543391.04198 | pgbench_accounts_pkey |        112336896

 2017-02-08 09:43:12.092262+01 | 1486543392.09226 | pgbench_branches_pkey |            40960
 2017-02-08 09:43:12.092262+01 | 1486543392.09226 | pgbench_tellers_pkey  |           122880
 2017-02-08 09:43:12.092262+01 | 1486543392.09226 | pgbench_accounts_pkey |        112336896

 2017-02-08 09:43:13.144336+01 | 1486543393.14434 | pgbench_branches_pkey |            40960
 2017-02-08 09:43:13.144336+01 | 1486543393.14434 | pgbench_tellers_pkey  |           122880
 2017-02-08 09:43:13.144336+01 | 1486543393.14434 | pgbench_accounts_pkey |        112336896

 2017-02-08 09:43:14.197842+01 | 1486543394.19784 | pgbench_branches_pkey |            40960
 2017-02-08 09:43:14.197842+01 | 1486543394.19784 | pgbench_tellers_pkey  |           122880
 2017-02-08 09:43:14.197842+01 | 1486543394.19784 | pgbench_accounts_pkey |        112336896

 2017-02-08 09:43:15.248676+01 | 1486543395.24868 | pgbench_branches_pkey |            40960
 2017-02-08 09:43:15.248676+01 | 1486543395.24868 | pgbench_tellers_pkey  |           122880
 2017-02-08 09:43:15.248676+01 | 1486543395.24868 | pgbench_accounts_pkey |        112336896

 2017-02-08 09:43:16.304127+01 | 1486543396.30413 | pgbench_branches_pkey |            40960
 2017-02-08 09:43:16.304127+01 | 1486543396.30413 | pgbench_tellers_pkey  |           122880
 2017-02-08 09:43:16.304127+01 | 1486543396.30413 | pgbench_accounts_pkey |        112336896

 2017-02-08 09:43:17.355496+01 | 1486543397.3555 | pgbench_branches_pkey |            40960
 2017-02-08 09:43:17.355496+01 | 1486543397.3555 | pgbench_tellers_pkey  |           122880
 2017-02-08 09:43:17.355496+01 | 1486543397.3555 | pgbench_accounts_pkey |        112336896

 2017-02-08 09:43:18.406272+01 | 1486543398.40627 | pgbench_branches_pkey |            40960
 2017-02-08 09:43:18.406272+01 | 1486543398.40627 | pgbench_tellers_pkey  |           122880
 2017-02-08 09:43:18.406272+01 | 1486543398.40627 | pgbench_accounts_pkey |        112336896

 2017-02-08 09:43:19.454644+01 | 1486543399.45464 | pgbench_branches_pkey |            40960
 2017-02-08 09:43:19.454644+01 | 1486543399.45464 | pgbench_tellers_pkey  |           122880
 2017-02-08 09:43:19.454644+01 | 1486543399.45464 | pgbench_accounts_pkey |        112336896

 2017-02-08 09:43:20.508348+01 | 1486543400.50835 | pgbench_branches_pkey |            40960
 2017-02-08 09:43:20.508348+01 | 1486543400.50835 | pgbench_tellers_pkey  |           122880
 2017-02-08 09:43:20.508348+01 | 1486543400.50835 | pgbench_accounts_pkey |        112336896

 2017-02-08 09:43:21.562805+01 | 1486543401.5628 | pgbench_branches_pkey |            40960
 2017-02-08 09:43:21.562805+01 | 1486543401.5628 | pgbench_tellers_pkey  |           122880
 2017-02-08 09:43:21.562805+01 | 1486543401.5628 | pgbench_accounts_pkey |        112336896

 2017-02-08 09:43:22.611678+01 | 1486543402.61168 | pgbench_branches_pkey |            40960
 2017-02-08 09:43:22.611678+01 | 1486543402.61168 | pgbench_tellers_pkey  |           122880
 2017-02-08 09:43:22.611678+01 | 1486543402.61168 | pgbench_accounts_pkey |        112336896

 2017-02-08 09:43:23.662631+01 | 1486543403.66263 | pgbench_branches_pkey |            40960
 2017-02-08 09:43:23.662631+01 | 1486543403.66263 | pgbench_tellers_pkey  |           122880
 2017-02-08 09:43:23.662631+01 | 1486543403.66263 | pgbench_accounts_pkey |        112336896

 2017-02-08 09:43:24.716772+01 | 1486543404.71677 | pgbench_branches_pkey |            40960
 2017-02-08 09:43:24.716772+01 | 1486543404.71677 | pgbench_tellers_pkey  |           122880
 2017-02-08 09:43:24.716772+01 | 1486543404.71677 | pgbench_accounts_pkey |        112336896

 2017-02-08 09:43:25.767609+01 | 1486543405.76761 | pgbench_branches_pkey |            40960
 2017-02-08 09:43:25.767609+01 | 1486543405.76761 | pgbench_tellers_pkey  |           122880
 2017-02-08 09:43:25.767609+01 | 1486543405.76761 | pgbench_accounts_pkey |        112336896

 2017-02-08 09:43:26.820579+01 | 1486543406.82058 | pgbench_branches_pkey |            40960
 2017-02-08 09:43:26.820579+01 | 1486543406.82058 | pgbench_tellers_pkey  |           122880
 2017-02-08 09:43:26.820579+01 | 1486543406.82058 | pgbench_accounts_pkey |        112336896

 2017-02-08 09:43:27.872882+01 | 1486543407.87288 | pgbench_branches_pkey |            40960
 2017-02-08 09:43:27.872882+01 | 1486543407.87288 | pgbench_tellers_pkey  |           122880
 2017-02-08 09:43:27.872882+01 | 1486543407.87288 | pgbench_accounts_pkey |        112336896

 2017-02-08 09:43:28.931111+01 | 1486543408.93111 | pgbench_branches_pkey |            40960
 2017-02-08 09:43:28.931111+01 | 1486543408.93111 | pgbench_tellers_pkey  |           122880
 2017-02-08 09:43:28.931111+01 | 1486543408.93111 | pgbench_accounts_pkey |        112336896

 2017-02-08 09:43:29.982141+01 | 1486543409.98214 | pgbench_branches_pkey |            40960
 2017-02-08 09:43:29.982141+01 | 1486543409.98214 | pgbench_tellers_pkey  |           122880
 2017-02-08 09:43:29.982141+01 | 1486543409.98214 | pgbench_accounts_pkey |        112336896

 2017-02-08 09:43:31.035918+01 | 1486543411.03592 | pgbench_branches_pkey |            40960
 2017-02-08 09:43:31.035918+01 | 1486543411.03592 | pgbench_tellers_pkey  |           122880
 2017-02-08 09:43:31.035918+01 | 1486543411.03592 | pgbench_accounts_pkey |        112336896

 2017-02-08 09:43:32.087637+01 | 1486543412.08764 | pgbench_branches_pkey |            40960
 2017-02-08 09:43:32.087637+01 | 1486543412.08764 | pgbench_tellers_pkey  |           122880
 2017-02-08 09:43:32.087637+01 | 1486543412.08764 | pgbench_accounts_pkey |        112336896

 2017-02-08 09:43:33.137569+01 | 1486543413.13757 | pgbench_branches_pkey |            40960
 2017-02-08 09:43:33.137569+01 | 1486543413.13757 | pgbench_tellers_pkey  |           122880
 2017-02-08 09:43:33.137569+01 | 1486543413.13757 | pgbench_accounts_pkey |        112336896

 2017-02-08 09:43:34.189335+01 | 1486543414.18934 | pgbench_branches_pkey |            40960
 2017-02-08 09:43:34.189335+01 | 1486543414.18934 | pgbench_tellers_pkey  |           122880
 2017-02-08 09:43:34.189335+01 | 1486543414.18934 | pgbench_accounts_pkey |        112336896

 2017-02-08 09:43:35.243379+01 | 1486543415.24338 | pgbench_branches_pkey |            40960
 2017-02-08 09:43:35.243379+01 | 1486543415.24338 | pgbench_tellers_pkey  |           122880
 2017-02-08 09:43:35.243379+01 | 1486543415.24338 | pgbench_accounts_pkey |        112336896

 2017-02-08 09:43:36.295758+01 | 1486543416.29576 | pgbench_branches_pkey |            40960
 2017-02-08 09:43:36.295758+01 | 1486543416.29576 | pgbench_tellers_pkey  |           122880
 2017-02-08 09:43:36.295758+01 | 1486543416.29576 | pgbench_accounts_pkey |        112336896

 2017-02-08 09:43:37.350042+01 | 1486543417.35004 | pgbench_branches_pkey |            40960
 2017-02-08 09:43:37.350042+01 | 1486543417.35004 | pgbench_tellers_pkey  |           122880
 2017-02-08 09:43:37.350042+01 | 1486543417.35004 | pgbench_accounts_pkey |        112336896

 2017-02-08 09:43:38.403842+01 | 1486543418.40384 | pgbench_branches_pkey |            40960
 2017-02-08 09:43:38.403842+01 | 1486543418.40384 | pgbench_tellers_pkey  |           122880
 2017-02-08 09:43:38.403842+01 | 1486543418.40384 | pgbench_accounts_pkey |        112336896

 2017-02-08 09:43:39.45628+01 | 1486543419.45628 | pgbench_branches_pkey |            40960
 2017-02-08 09:43:39.45628+01 | 1486543419.45628 | pgbench_tellers_pkey  |           122880
 2017-02-08 09:43:39.45628+01 | 1486543419.45628 | pgbench_accounts_pkey |        112336896

 2017-02-08 09:43:40.506755+01 | 1486543420.50676 | pgbench_branches_pkey |            40960
 2017-02-08 09:43:40.506755+01 | 1486543420.50676 | pgbench_tellers_pkey  |           122880
 2017-02-08 09:43:40.506755+01 | 1486543420.50676 | pgbench_accounts_pkey |        112336896

 2017-02-08 09:43:41.557947+01 | 1486543421.55795 | pgbench_branches_pkey |            40960
 2017-02-08 09:43:41.557947+01 | 1486543421.55795 | pgbench_tellers_pkey  |           122880
 2017-02-08 09:43:41.557947+01 | 1486543421.55795 | pgbench_accounts_pkey |        112336896

 2017-02-08 09:43:42.610713+01 | 1486543422.61071 | pgbench_branches_pkey |            40960
 2017-02-08 09:43:42.610713+01 | 1486543422.61071 | pgbench_tellers_pkey  |           122880
 2017-02-08 09:43:42.610713+01 | 1486543422.61071 | pgbench_accounts_pkey |        112336896

 2017-02-08 09:43:43.663744+01 | 1486543423.66374 | pgbench_branches_pkey |            40960
 2017-02-08 09:43:43.663744+01 | 1486543423.66374 | pgbench_tellers_pkey  |           122880
 2017-02-08 09:43:43.663744+01 | 1486543423.66374 | pgbench_accounts_pkey |        112336896

 2017-02-08 09:43:44.715673+01 | 1486543424.71567 | pgbench_branches_pkey |            40960
 2017-02-08 09:43:44.715673+01 | 1486543424.71567 | pgbench_tellers_pkey  |           122880
 2017-02-08 09:43:44.715673+01 | 1486543424.71567 | pgbench_accounts_pkey |        112336896

 2017-02-08 09:43:45.760702+01 | 1486543425.7607 | pgbench_branches_pkey |            40960
 2017-02-08 09:43:45.760702+01 | 1486543425.7607 | pgbench_tellers_pkey  |           122880
 2017-02-08 09:43:45.760702+01 | 1486543425.7607 | pgbench_accounts_pkey |        112336896

 2017-02-08 09:43:46.814603+01 | 1486543426.8146 | pgbench_branches_pkey |            40960
 2017-02-08 09:43:46.814603+01 | 1486543426.8146 | pgbench_tellers_pkey  |           122880
 2017-02-08 09:43:46.814603+01 | 1486543426.8146 | pgbench_accounts_pkey |        112336896

 2017-02-08 09:43:47.870984+01 | 1486543427.87098 | pgbench_branches_pkey |            40960
 2017-02-08 09:43:47.870984+01 | 1486543427.87098 | pgbench_tellers_pkey  |           122880
 2017-02-08 09:43:47.870984+01 | 1486543427.87098 | pgbench_accounts_pkey |        112336896

 2017-02-08 09:43:48.926643+01 | 1486543428.92664 | pgbench_branches_pkey |            40960
 2017-02-08 09:43:48.926643+01 | 1486543428.92664 | pgbench_tellers_pkey  |           122880
 2017-02-08 09:43:48.926643+01 | 1486543428.92664 | pgbench_accounts_pkey |        112336896

 2017-02-08 09:43:49.988346+01 | 1486543429.98835 | pgbench_branches_pkey |            40960
 2017-02-08 09:43:49.988346+01 | 1486543429.98835 | pgbench_tellers_pkey  |           122880
 2017-02-08 09:43:49.988346+01 | 1486543429.98835 | pgbench_accounts_pkey |        112336896

 2017-02-08 09:43:51.030246+01 | 1486543431.03025 | pgbench_branches_pkey |            40960
 2017-02-08 09:43:51.030246+01 | 1486543431.03025 | pgbench_tellers_pkey  |           122880
 2017-02-08 09:43:51.030246+01 | 1486543431.03025 | pgbench_accounts_pkey |        112336896

 2017-02-08 09:43:52.080128+01 | 1486543432.08013 | pgbench_branches_pkey |            40960
 2017-02-08 09:43:52.080128+01 | 1486543432.08013 | pgbench_tellers_pkey  |           122880
 2017-02-08 09:43:52.080128+01 | 1486543432.08013 | pgbench_accounts_pkey |        112336896

 2017-02-08 09:43:53.134297+01 | 1486543433.1343 | pgbench_branches_pkey |            40960
 2017-02-08 09:43:53.134297+01 | 1486543433.1343 | pgbench_tellers_pkey  |           122880
 2017-02-08 09:43:53.134297+01 | 1486543433.1343 | pgbench_accounts_pkey |        112336896

 2017-02-08 09:43:54.18556+01 | 1486543434.18556 | pgbench_branches_pkey |            40960
 2017-02-08 09:43:54.18556+01 | 1486543434.18556 | pgbench_tellers_pkey  |           122880
 2017-02-08 09:43:54.18556+01 | 1486543434.18556 | pgbench_accounts_pkey |        112336896

 2017-02-08 09:43:55.23679+01 | 1486543435.23679 | pgbench_branches_pkey |            40960
 2017-02-08 09:43:55.23679+01 | 1486543435.23679 | pgbench_tellers_pkey  |           122880
 2017-02-08 09:43:55.23679+01 | 1486543435.23679 | pgbench_accounts_pkey |        112336896

 2017-02-08 09:43:56.293373+01 | 1486543436.29337 | pgbench_branches_pkey |            40960
 2017-02-08 09:43:56.293373+01 | 1486543436.29337 | pgbench_tellers_pkey  |           122880
 2017-02-08 09:43:56.293373+01 | 1486543436.29337 | pgbench_accounts_pkey |        112336896

 2017-02-08 09:43:57.346121+01 | 1486543437.34612 | pgbench_branches_pkey |            40960
 2017-02-08 09:43:57.346121+01 | 1486543437.34612 | pgbench_tellers_pkey  |           122880
 2017-02-08 09:43:57.346121+01 | 1486543437.34612 | pgbench_accounts_pkey |        112336896

 2017-02-08 09:43:58.396886+01 | 1486543438.39689 | pgbench_branches_pkey |            40960
 2017-02-08 09:43:58.396886+01 | 1486543438.39689 | pgbench_tellers_pkey  |           122880
 2017-02-08 09:43:58.396886+01 | 1486543438.39689 | pgbench_accounts_pkey |        112336896

 2017-02-08 09:43:59.450041+01 | 1486543439.45004 | pgbench_branches_pkey |            40960
 2017-02-08 09:43:59.450041+01 | 1486543439.45004 | pgbench_tellers_pkey  |           122880
 2017-02-08 09:43:59.450041+01 | 1486543439.45004 | pgbench_accounts_pkey |        112336896

 2017-02-08 09:44:00.508631+01 | 1486543440.50863 | pgbench_branches_pkey |            40960
 2017-02-08 09:44:00.508631+01 | 1486543440.50863 | pgbench_tellers_pkey  |           122880
 2017-02-08 09:44:00.508631+01 | 1486543440.50863 | pgbench_accounts_pkey |        112336896

 2017-02-08 09:44:01.562726+01 | 1486543441.56273 | pgbench_branches_pkey |            40960
 2017-02-08 09:44:01.562726+01 | 1486543441.56273 | pgbench_tellers_pkey  |           122880
 2017-02-08 09:44:01.562726+01 | 1486543441.56273 | pgbench_accounts_pkey |        112336896

 2017-02-08 09:44:02.61457+01 | 1486543442.61457 | pgbench_branches_pkey |            40960
 2017-02-08 09:44:02.61457+01 | 1486543442.61457 | pgbench_tellers_pkey  |           122880
 2017-02-08 09:44:02.61457+01 | 1486543442.61457 | pgbench_accounts_pkey |        112336896

 2017-02-08 09:44:03.666964+01 | 1486543443.66696 | pgbench_branches_pkey |            40960
 2017-02-08 09:44:03.666964+01 | 1486543443.66696 | pgbench_tellers_pkey  |           122880
 2017-02-08 09:44:03.666964+01 | 1486543443.66696 | pgbench_accounts_pkey |        112336896

 2017-02-08 09:44:04.717558+01 | 1486543444.71756 | pgbench_branches_pkey |            40960
 2017-02-08 09:44:04.717558+01 | 1486543444.71756 | pgbench_tellers_pkey  |           122880
 2017-02-08 09:44:04.717558+01 | 1486543444.71756 | pgbench_accounts_pkey |        112336896

 2017-02-08 09:44:05.771092+01 | 1486543445.77109 | pgbench_branches_pkey |            40960
 2017-02-08 09:44:05.771092+01 | 1486543445.77109 | pgbench_tellers_pkey  |           122880
 2017-02-08 09:44:05.771092+01 | 1486543445.77109 | pgbench_accounts_pkey |        112336896

 2017-02-08 09:44:06.821287+01 | 1486543446.82129 | pgbench_branches_pkey |            40960
 2017-02-08 09:44:06.821287+01 | 1486543446.82129 | pgbench_tellers_pkey  |           122880
 2017-02-08 09:44:06.821287+01 | 1486543446.82129 | pgbench_accounts_pkey |        112336896

 2017-02-08 09:44:07.873738+01 | 1486543447.87374 | pgbench_branches_pkey |            40960
 2017-02-08 09:44:07.873738+01 | 1486543447.87374 | pgbench_tellers_pkey  |           122880
 2017-02-08 09:44:07.873738+01 | 1486543447.87374 | pgbench_accounts_pkey |        112336896

 2017-02-08 09:44:08.92772+01 | 1486543448.92772 | pgbench_branches_pkey |            40960
 2017-02-08 09:44:08.92772+01 | 1486543448.92772 | pgbench_tellers_pkey  |           122880
 2017-02-08 09:44:08.92772+01 | 1486543448.92772 | pgbench_accounts_pkey |        112336896

 2017-02-08 09:44:09.979975+01 | 1486543449.97997 | pgbench_branches_pkey |            40960
 2017-02-08 09:44:09.979975+01 | 1486543449.97997 | pgbench_tellers_pkey  |           122880
 2017-02-08 09:44:09.979975+01 | 1486543449.97997 | pgbench_accounts_pkey |        112336896

 2017-02-08 09:44:11.03112+01 | 1486543451.03112 | pgbench_branches_pkey |            40960
 2017-02-08 09:44:11.03112+01 | 1486543451.03112 | pgbench_tellers_pkey  |           122880
 2017-02-08 09:44:11.03112+01 | 1486543451.03112 | pgbench_accounts_pkey |        112336896

 2017-02-08 09:44:12.082994+01 | 1486543452.08299 | pgbench_branches_pkey |            40960
 2017-02-08 09:44:12.082994+01 | 1486543452.08299 | pgbench_tellers_pkey  |           122880
 2017-02-08 09:44:12.082994+01 | 1486543452.08299 | pgbench_accounts_pkey |        112336896

 2017-02-08 09:44:13.136485+01 | 1486543453.13649 | pgbench_branches_pkey |            40960
 2017-02-08 09:44:13.136485+01 | 1486543453.13649 | pgbench_tellers_pkey  |           122880
 2017-02-08 09:44:13.136485+01 | 1486543453.13649 | pgbench_accounts_pkey |        112336896

 2017-02-08 09:44:14.18833+01 | 1486543454.18833 | pgbench_branches_pkey |            40960
 2017-02-08 09:44:14.18833+01 | 1486543454.18833 | pgbench_tellers_pkey  |           122880
 2017-02-08 09:44:14.18833+01 | 1486543454.18833 | pgbench_accounts_pkey |        112336896

 2017-02-08 09:44:15.240149+01 | 1486543455.24015 | pgbench_branches_pkey |            40960
 2017-02-08 09:44:15.240149+01 | 1486543455.24015 | pgbench_tellers_pkey  |           122880
 2017-02-08 09:44:15.240149+01 | 1486543455.24015 | pgbench_accounts_pkey |        112336896

 2017-02-08 09:44:16.293532+01 | 1486543456.29353 | pgbench_branches_pkey |            40960
 2017-02-08 09:44:16.293532+01 | 1486543456.29353 | pgbench_tellers_pkey  |           122880
 2017-02-08 09:44:16.293532+01 | 1486543456.29353 | pgbench_accounts_pkey |        112336896

 2017-02-08 09:44:17.344207+01 | 1486543457.34421 | pgbench_branches_pkey |            40960
 2017-02-08 09:44:17.344207+01 | 1486543457.34421 | pgbench_tellers_pkey  |           122880
 2017-02-08 09:44:17.344207+01 | 1486543457.34421 | pgbench_accounts_pkey |        112336896

 2017-02-08 09:44:18.398519+01 | 1486543458.39852 | pgbench_branches_pkey |            40960
 2017-02-08 09:44:18.398519+01 | 1486543458.39852 | pgbench_tellers_pkey  |           122880
 2017-02-08 09:44:18.398519+01 | 1486543458.39852 | pgbench_accounts_pkey |        112336896

 2017-02-08 09:44:19.447715+01 | 1486543459.44772 | pgbench_branches_pkey |            40960
 2017-02-08 09:44:19.447715+01 | 1486543459.44772 | pgbench_tellers_pkey  |           122880
 2017-02-08 09:44:19.447715+01 | 1486543459.44772 | pgbench_accounts_pkey |        112336896

 2017-02-08 09:44:20.499123+01 | 1486543460.49912 | pgbench_branches_pkey |            40960
 2017-02-08 09:44:20.499123+01 | 1486543460.49912 | pgbench_tellers_pkey  |           122880
 2017-02-08 09:44:20.499123+01 | 1486543460.49912 | pgbench_accounts_pkey |        112336896

 2017-02-08 09:44:21.551443+01 | 1486543461.55144 | pgbench_branches_pkey |            40960
 2017-02-08 09:44:21.551443+01 | 1486543461.55144 | pgbench_tellers_pkey  |           122880
 2017-02-08 09:44:21.551443+01 | 1486543461.55144 | pgbench_accounts_pkey |        112336896

 2017-02-08 09:44:22.602214+01 | 1486543462.60221 | pgbench_branches_pkey |            40960
 2017-02-08 09:44:22.602214+01 | 1486543462.60221 | pgbench_tellers_pkey  |           122880
 2017-02-08 09:44:22.602214+01 | 1486543462.60221 | pgbench_accounts_pkey |        112336896

 2017-02-08 09:44:23.652435+01 | 1486543463.65244 | pgbench_branches_pkey |            40960
 2017-02-08 09:44:23.652435+01 | 1486543463.65244 | pgbench_tellers_pkey  |           122880
 2017-02-08 09:44:23.652435+01 | 1486543463.65244 | pgbench_accounts_pkey |        112336896

 2017-02-08 09:44:24.705396+01 | 1486543464.7054 | pgbench_branches_pkey |            40960
 2017-02-08 09:44:24.705396+01 | 1486543464.7054 | pgbench_tellers_pkey  |           122880
 2017-02-08 09:44:24.705396+01 | 1486543464.7054 | pgbench_accounts_pkey |        112336896

 2017-02-08 09:44:25.754323+01 | 1486543465.75432 | pgbench_branches_pkey |            40960
 2017-02-08 09:44:25.754323+01 | 1486543465.75432 | pgbench_tellers_pkey  |           122880
 2017-02-08 09:44:25.754323+01 | 1486543465.75432 | pgbench_accounts_pkey |        112336896

 2017-02-08 09:44:26.805825+01 | 1486543466.80582 | pgbench_branches_pkey |            40960
 2017-02-08 09:44:26.805825+01 | 1486543466.80582 | pgbench_tellers_pkey  |           122880
 2017-02-08 09:44:26.805825+01 | 1486543466.80582 | pgbench_accounts_pkey |        112336896

 2017-02-08 09:44:27.858775+01 | 1486543467.85877 | pgbench_branches_pkey |            40960
 2017-02-08 09:44:27.858775+01 | 1486543467.85877 | pgbench_tellers_pkey  |           122880
 2017-02-08 09:44:27.858775+01 | 1486543467.85877 | pgbench_accounts_pkey |        112336896

 2017-02-08 09:44:28.909623+01 | 1486543468.90962 | pgbench_branches_pkey |            40960
 2017-02-08 09:44:28.909623+01 | 1486543468.90962 | pgbench_tellers_pkey  |           122880
 2017-02-08 09:44:28.909623+01 | 1486543468.90962 | pgbench_accounts_pkey |        112336896

 2017-02-08 09:44:29.957591+01 | 1486543469.95759 | pgbench_branches_pkey |            40960
 2017-02-08 09:44:29.957591+01 | 1486543469.95759 | pgbench_tellers_pkey  |           122880
 2017-02-08 09:44:29.957591+01 | 1486543469.95759 | pgbench_accounts_pkey |        112336896

 2017-02-08 09:44:31.006575+01 | 1486543471.00658 | pgbench_branches_pkey |            40960
 2017-02-08 09:44:31.006575+01 | 1486543471.00658 | pgbench_tellers_pkey  |           122880
 2017-02-08 09:44:31.006575+01 | 1486543471.00658 | pgbench_accounts_pkey |        112336896

 2017-02-08 09:44:32.05925+01 | 1486543472.05925 | pgbench_branches_pkey |            40960
 2017-02-08 09:44:32.05925+01 | 1486543472.05925 | pgbench_tellers_pkey  |           122880
 2017-02-08 09:44:32.05925+01 | 1486543472.05925 | pgbench_accounts_pkey |        112336896

 2017-02-08 09:44:33.111104+01 | 1486543473.1111 | pgbench_branches_pkey |            40960
 2017-02-08 09:44:33.111104+01 | 1486543473.1111 | pgbench_tellers_pkey  |           122880
 2017-02-08 09:44:33.111104+01 | 1486543473.1111 | pgbench_accounts_pkey |        112336896

 2017-02-08 09:44:34.162601+01 | 1486543474.1626 | pgbench_branches_pkey |            40960
 2017-02-08 09:44:34.162601+01 | 1486543474.1626 | pgbench_tellers_pkey  |           122880
 2017-02-08 09:44:34.162601+01 | 1486543474.1626 | pgbench_accounts_pkey |        112336896

 2017-02-08 09:44:35.214408+01 | 1486543475.21441 | pgbench_branches_pkey |            40960
 2017-02-08 09:44:35.214408+01 | 1486543475.21441 | pgbench_tellers_pkey  |           122880
 2017-02-08 09:44:35.214408+01 | 1486543475.21441 | pgbench_accounts_pkey |        112336896

 2017-02-08 09:44:36.263427+01 | 1486543476.26343 | pgbench_branches_pkey |            40960
 2017-02-08 09:44:36.263427+01 | 1486543476.26343 | pgbench_tellers_pkey  |           122880
 2017-02-08 09:44:36.263427+01 | 1486543476.26343 | pgbench_accounts_pkey |        112336896

 2017-02-08 09:44:37.315021+01 | 1486543477.31502 | pgbench_branches_pkey |            40960
 2017-02-08 09:44:37.315021+01 | 1486543477.31502 | pgbench_tellers_pkey  |           122880
 2017-02-08 09:44:37.315021+01 | 1486543477.31502 | pgbench_accounts_pkey |        112336896

 2017-02-08 09:44:38.367566+01 | 1486543478.36757 | pgbench_branches_pkey |            40960
 2017-02-08 09:44:38.367566+01 | 1486543478.36757 | pgbench_tellers_pkey  |           122880
 2017-02-08 09:44:38.367566+01 | 1486543478.36757 | pgbench_accounts_pkey |        112336896

 2017-02-08 09:44:39.421982+01 | 1486543479.42198 | pgbench_branches_pkey |            40960
 2017-02-08 09:44:39.421982+01 | 1486543479.42198 | pgbench_tellers_pkey  |           122880
 2017-02-08 09:44:39.421982+01 | 1486543479.42198 | pgbench_accounts_pkey |        112336896

 2017-02-08 09:44:40.473616+01 | 1486543480.47362 | pgbench_branches_pkey |            40960
 2017-02-08 09:44:40.473616+01 | 1486543480.47362 | pgbench_tellers_pkey  |           122880
 2017-02-08 09:44:40.473616+01 | 1486543480.47362 | pgbench_accounts_pkey |        112336896

 2017-02-08 09:44:41.524092+01 | 1486543481.52409 | pgbench_branches_pkey |            40960
 2017-02-08 09:44:41.524092+01 | 1486543481.52409 | pgbench_tellers_pkey  |           122880
 2017-02-08 09:44:41.524092+01 | 1486543481.52409 | pgbench_accounts_pkey |        112336896

 2017-02-08 09:44:42.572894+01 | 1486543482.57289 | pgbench_branches_pkey |            40960
 2017-02-08 09:44:42.572894+01 | 1486543482.57289 | pgbench_tellers_pkey  |           122880
 2017-02-08 09:44:42.572894+01 | 1486543482.57289 | pgbench_accounts_pkey |        112336896

 2017-02-08 09:44:43.627363+01 | 1486543483.62736 | pgbench_branches_pkey |            40960
 2017-02-08 09:44:43.627363+01 | 1486543483.62736 | pgbench_tellers_pkey  |           122880
 2017-02-08 09:44:43.627363+01 | 1486543483.62736 | pgbench_accounts_pkey |        112336896

 2017-02-08 09:44:44.679992+01 | 1486543484.67999 | pgbench_branches_pkey |            40960
 2017-02-08 09:44:44.679992+01 | 1486543484.67999 | pgbench_tellers_pkey  |           122880
 2017-02-08 09:44:44.679992+01 | 1486543484.67999 | pgbench_accounts_pkey |        112336896

 2017-02-08 09:44:45.732838+01 | 1486543485.73284 | pgbench_branches_pkey |            40960
 2017-02-08 09:44:45.732838+01 | 1486543485.73284 | pgbench_tellers_pkey  |           122880
 2017-02-08 09:44:45.732838+01 | 1486543485.73284 | pgbench_accounts_pkey |        112336896

 2017-02-08 09:44:46.785866+01 | 1486543486.78587 | pgbench_branches_pkey |            40960
 2017-02-08 09:44:46.785866+01 | 1486543486.78587 | pgbench_tellers_pkey  |           122880
 2017-02-08 09:44:46.785866+01 | 1486543486.78587 | pgbench_accounts_pkey |        112336896

 2017-02-08 09:44:47.839126+01 | 1486543487.83913 | pgbench_branches_pkey |            40960
 2017-02-08 09:44:47.839126+01 | 1486543487.83913 | pgbench_tellers_pkey  |           122880
 2017-02-08 09:44:47.839126+01 | 1486543487.83913 | pgbench_accounts_pkey |        112336896

 2017-02-08 09:44:48.894275+01 | 1486543488.89427 | pgbench_branches_pkey |            40960
 2017-02-08 09:44:48.894275+01 | 1486543488.89427 | pgbench_tellers_pkey  |           122880
 2017-02-08 09:44:48.894275+01 | 1486543488.89427 | pgbench_accounts_pkey |        112336896

 2017-02-08 09:44:49.946261+01 | 1486543489.94626 | pgbench_branches_pkey |            40960
 2017-02-08 09:44:49.946261+01 | 1486543489.94626 | pgbench_tellers_pkey  |           122880
 2017-02-08 09:44:49.946261+01 | 1486543489.94626 | pgbench_accounts_pkey |        112336896

 2017-02-08 09:44:50.99531+01 | 1486543490.99531 | pgbench_branches_pkey |            40960
 2017-02-08 09:44:50.99531+01 | 1486543490.99531 | pgbench_tellers_pkey  |           122880
 2017-02-08 09:44:50.99531+01 | 1486543490.99531 | pgbench_accounts_pkey |        112336896

 2017-02-08 09:44:52.037456+01 | 1486543492.03746 | pgbench_branches_pkey |            40960
 2017-02-08 09:44:52.037456+01 | 1486543492.03746 | pgbench_tellers_pkey  |           122880
 2017-02-08 09:44:52.037456+01 | 1486543492.03746 | pgbench_accounts_pkey |        112336896

 2017-02-08 09:44:53.091467+01 | 1486543493.09147 | pgbench_branches_pkey |            40960
 2017-02-08 09:44:53.091467+01 | 1486543493.09147 | pgbench_tellers_pkey  |           122880
 2017-02-08 09:44:53.091467+01 | 1486543493.09147 | pgbench_accounts_pkey |        112336896

 2017-02-08 09:44:54.140673+01 | 1486543494.14067 | pgbench_branches_pkey |            40960
 2017-02-08 09:44:54.140673+01 | 1486543494.14067 | pgbench_tellers_pkey  |           122880
 2017-02-08 09:44:54.140673+01 | 1486543494.14067 | pgbench_accounts_pkey |        112336896

 2017-02-08 09:44:55.192151+01 | 1486543495.19215 | pgbench_branches_pkey |            40960
 2017-02-08 09:44:55.192151+01 | 1486543495.19215 | pgbench_tellers_pkey  |           122880
 2017-02-08 09:44:55.192151+01 | 1486543495.19215 | pgbench_accounts_pkey |        112336896

 2017-02-08 09:44:56.243689+01 | 1486543496.24369 | pgbench_branches_pkey |            40960
 2017-02-08 09:44:56.243689+01 | 1486543496.24369 | pgbench_tellers_pkey  |           122880
 2017-02-08 09:44:56.243689+01 | 1486543496.24369 | pgbench_accounts_pkey |        112336896

 2017-02-08 09:44:57.296512+01 | 1486543497.29651 | pgbench_branches_pkey |            40960
 2017-02-08 09:44:57.296512+01 | 1486543497.29651 | pgbench_tellers_pkey  |           122880
 2017-02-08 09:44:57.296512+01 | 1486543497.29651 | pgbench_accounts_pkey |        112336896

 2017-02-08 09:44:58.347137+01 | 1486543498.34714 | pgbench_branches_pkey |            40960
 2017-02-08 09:44:58.347137+01 | 1486543498.34714 | pgbench_tellers_pkey  |           122880
 2017-02-08 09:44:58.347137+01 | 1486543498.34714 | pgbench_accounts_pkey |        112336896

 2017-02-08 09:44:59.395601+01 | 1486543499.3956 | pgbench_branches_pkey |            40960
 2017-02-08 09:44:59.395601+01 | 1486543499.3956 | pgbench_tellers_pkey  |           122880
 2017-02-08 09:44:59.395601+01 | 1486543499.3956 | pgbench_accounts_pkey |        112336896

 2017-02-08 09:45:00.446954+01 | 1486543500.44695 | pgbench_branches_pkey |            40960
 2017-02-08 09:45:00.446954+01 | 1486543500.44695 | pgbench_tellers_pkey  |           122880
 2017-02-08 09:45:00.446954+01 | 1486543500.44695 | pgbench_accounts_pkey |        112336896

 2017-02-08 09:45:01.500434+01 | 1486543501.50043 | pgbench_branches_pkey |            40960
 2017-02-08 09:45:01.500434+01 | 1486543501.50043 | pgbench_tellers_pkey  |           122880
 2017-02-08 09:45:01.500434+01 | 1486543501.50043 | pgbench_accounts_pkey |        112336896

 2017-02-08 09:45:02.554468+01 | 1486543502.55447 | pgbench_branches_pkey |            40960
 2017-02-08 09:45:02.554468+01 | 1486543502.55447 | pgbench_tellers_pkey  |           122880
 2017-02-08 09:45:02.554468+01 | 1486543502.55447 | pgbench_accounts_pkey |        112336896

 2017-02-08 09:45:03.60389+01 | 1486543503.60389 | pgbench_branches_pkey |            40960
 2017-02-08 09:45:03.60389+01 | 1486543503.60389 | pgbench_tellers_pkey  |           122880
 2017-02-08 09:45:03.60389+01 | 1486543503.60389 | pgbench_accounts_pkey |        112336896

 2017-02-08 09:45:04.658366+01 | 1486543504.65837 | pgbench_branches_pkey |            40960
 2017-02-08 09:45:04.658366+01 | 1486543504.65837 | pgbench_tellers_pkey  |           122880
 2017-02-08 09:45:04.658366+01 | 1486543504.65837 | pgbench_accounts_pkey |        112336896

 2017-02-08 09:45:05.710645+01 | 1486543505.71064 | pgbench_branches_pkey |            40960
 2017-02-08 09:45:05.710645+01 | 1486543505.71064 | pgbench_tellers_pkey  |           122880
 2017-02-08 09:45:05.710645+01 | 1486543505.71064 | pgbench_accounts_pkey |        112336896

 2017-02-08 09:45:06.762684+01 | 1486543506.76268 | pgbench_branches_pkey |            40960
 2017-02-08 09:45:06.762684+01 | 1486543506.76268 | pgbench_tellers_pkey  |           122880
 2017-02-08 09:45:06.762684+01 | 1486543506.76268 | pgbench_accounts_pkey |        112336896

 2017-02-08 09:45:07.815402+01 | 1486543507.8154 | pgbench_branches_pkey |            40960
 2017-02-08 09:45:07.815402+01 | 1486543507.8154 | pgbench_tellers_pkey  |           122880
 2017-02-08 09:45:07.815402+01 | 1486543507.8154 | pgbench_accounts_pkey |        112336896

 2017-02-08 09:45:08.868595+01 | 1486543508.86859 | pgbench_branches_pkey |            40960
 2017-02-08 09:45:08.868595+01 | 1486543508.86859 | pgbench_tellers_pkey  |           122880
 2017-02-08 09:45:08.868595+01 | 1486543508.86859 | pgbench_accounts_pkey |        112336896

 2017-02-08 09:45:09.921374+01 | 1486543509.92137 | pgbench_branches_pkey |            40960
 2017-02-08 09:45:09.921374+01 | 1486543509.92137 | pgbench_tellers_pkey  |           122880
 2017-02-08 09:45:09.921374+01 | 1486543509.92137 | pgbench_accounts_pkey |        112336896

 2017-02-08 09:45:10.972985+01 | 1486543510.97299 | pgbench_branches_pkey |            40960
 2017-02-08 09:45:10.972985+01 | 1486543510.97299 | pgbench_tellers_pkey  |           122880
 2017-02-08 09:45:10.972985+01 | 1486543510.97299 | pgbench_accounts_pkey |        112336896

 2017-02-08 09:45:12.023094+01 | 1486543512.02309 | pgbench_branches_pkey |            40960
 2017-02-08 09:45:12.023094+01 | 1486543512.02309 | pgbench_tellers_pkey  |           122880
 2017-02-08 09:45:12.023094+01 | 1486543512.02309 | pgbench_accounts_pkey |        112336896

 2017-02-08 09:45:13.071535+01 | 1486543513.07154 | pgbench_branches_pkey |            40960
 2017-02-08 09:45:13.071535+01 | 1486543513.07154 | pgbench_tellers_pkey  |           122880
 2017-02-08 09:45:13.071535+01 | 1486543513.07154 | pgbench_accounts_pkey |        112336896

 2017-02-08 09:45:14.121602+01 | 1486543514.1216 | pgbench_branches_pkey |            40960
 2017-02-08 09:45:14.121602+01 | 1486543514.1216 | pgbench_tellers_pkey  |           122880
 2017-02-08 09:45:14.121602+01 | 1486543514.1216 | pgbench_accounts_pkey |        112336896

 2017-02-08 09:45:15.17547+01 | 1486543515.17547 | pgbench_branches_pkey |            40960
 2017-02-08 09:45:15.17547+01 | 1486543515.17547 | pgbench_tellers_pkey  |           122880
 2017-02-08 09:45:15.17547+01 | 1486543515.17547 | pgbench_accounts_pkey |        112336896

 2017-02-08 09:45:16.228911+01 | 1486543516.22891 | pgbench_branches_pkey |            40960
 2017-02-08 09:45:16.228911+01 | 1486543516.22891 | pgbench_tellers_pkey  |           122880
 2017-02-08 09:45:16.228911+01 | 1486543516.22891 | pgbench_accounts_pkey |        112336896

 2017-02-08 09:45:17.279363+01 | 1486543517.27936 | pgbench_branches_pkey |            40960
 2017-02-08 09:45:17.279363+01 | 1486543517.27936 | pgbench_tellers_pkey  |           122880
 2017-02-08 09:45:17.279363+01 | 1486543517.27936 | pgbench_accounts_pkey |        112336896

 2017-02-08 09:45:18.334325+01 | 1486543518.33433 | pgbench_branches_pkey |            40960
 2017-02-08 09:45:18.334325+01 | 1486543518.33433 | pgbench_tellers_pkey  |           122880
 2017-02-08 09:45:18.334325+01 | 1486543518.33433 | pgbench_accounts_pkey |        112336896

 2017-02-08 09:45:19.384631+01 | 1486543519.38463 | pgbench_branches_pkey |            40960
 2017-02-08 09:45:19.384631+01 | 1486543519.38463 | pgbench_tellers_pkey  |           122880
 2017-02-08 09:45:19.384631+01 | 1486543519.38463 | pgbench_accounts_pkey |        112336896

 2017-02-08 09:45:20.442984+01 | 1486543520.44298 | pgbench_branches_pkey |            40960
 2017-02-08 09:45:20.442984+01 | 1486543520.44298 | pgbench_tellers_pkey  |           122880
 2017-02-08 09:45:20.442984+01 | 1486543520.44298 | pgbench_accounts_pkey |        112336896

 2017-02-08 09:45:21.494081+01 | 1486543521.49408 | pgbench_branches_pkey |            40960
 2017-02-08 09:45:21.494081+01 | 1486543521.49408 | pgbench_tellers_pkey  |           122880
 2017-02-08 09:45:21.494081+01 | 1486543521.49408 | pgbench_accounts_pkey |        112336896

 2017-02-08 09:45:22.546573+01 | 1486543522.54657 | pgbench_branches_pkey |            40960
 2017-02-08 09:45:22.546573+01 | 1486543522.54657 | pgbench_tellers_pkey  |           122880
 2017-02-08 09:45:22.546573+01 | 1486543522.54657 | pgbench_accounts_pkey |        112336896

 2017-02-08 09:45:23.595447+01 | 1486543523.59545 | pgbench_branches_pkey |            40960
 2017-02-08 09:45:23.595447+01 | 1486543523.59545 | pgbench_tellers_pkey  |           122880
 2017-02-08 09:45:23.595447+01 | 1486543523.59545 | pgbench_accounts_pkey |        112336896

 2017-02-08 09:45:24.646007+01 | 1486543524.64601 | pgbench_branches_pkey |            40960
 2017-02-08 09:45:24.646007+01 | 1486543524.64601 | pgbench_tellers_pkey  |           122880
 2017-02-08 09:45:24.646007+01 | 1486543524.64601 | pgbench_accounts_pkey |        112336896

 2017-02-08 09:45:25.696555+01 | 1486543525.69655 | pgbench_branches_pkey |            40960
 2017-02-08 09:45:25.696555+01 | 1486543525.69655 | pgbench_tellers_pkey  |           122880
 2017-02-08 09:45:25.696555+01 | 1486543525.69655 | pgbench_accounts_pkey |        112336896

