 2017-02-08 09:40:25.87652+01 | 1486543225.87652 | 0/F8FBA8C0               |            4177242304

 2017-02-08 09:40:26.915632+01 | 1486543226.91563 | 0/FBCDD1B0               |            4224569776

 2017-02-08 09:40:27.964327+01 | 1486543227.96433 | 0/FE8E2E90               |            4270730896

 2017-02-08 09:40:29.01795+01 | 1486543229.01795 | 1/13097B8                |            4314929080

 2017-02-08 09:40:30.069564+01 | 1486543230.06956 | 1/3B3FE38                |            4357094968

 2017-02-08 09:40:31.117788+01 | 1486543231.11779 | 1/5FFF7C0                |            4395628480

 2017-02-08 09:40:32.171216+01 | 1486543232.17122 | 1/8335220                |            4432548384

 2017-02-08 09:40:33.222736+01 | 1486543233.22274 | 1/A3DC598                |            4466787736

 2017-02-08 09:40:34.274768+01 | 1486543234.27477 | 1/C29F358                |            4499043160

 2017-02-08 09:40:35.326183+01 | 1486543235.32618 | 1/DFF3F58                |            4529799000

 2017-02-08 09:40:36.377232+01 | 1486543236.37723 | 1/FBBE3C8                |            4558939080

 2017-02-08 09:40:37.430998+01 | 1486543237.431 | 1/115280F8               |            4585586936

 2017-02-08 09:40:38.482141+01 | 1486543238.48214 | 1/12EEB060               |            4612599904

 2017-02-08 09:40:39.53396+01 | 1486543239.53396 | 1/144CEE10               |            4635553296

 2017-02-08 09:40:40.588001+01 | 1486543240.588 | 1/159F32E8               |            4657722088

 2017-02-08 09:40:41.637782+01 | 1486543241.63778 | 1/16D32CC0               |            4677905600

 2017-02-08 09:40:42.687662+01 | 1486543242.68766 | 1/17FFEAE0               |            4697615072

 2017-02-08 09:40:43.736352+01 | 1486543243.73635 | 1/1920FC08               |            4716559368

 2017-02-08 09:40:44.786701+01 | 1486543244.7867 | 1/1A24F1D0               |            4733596112

 2017-02-08 09:40:45.835156+01 | 1486543245.83516 | 1/1B3D2940               |            4751960384

 2017-02-08 09:40:46.876845+01 | 1486543246.87684 | 1/1CEB77B0               |            4780160944

 2017-02-08 09:40:47.92668+01 | 1486543247.92668 | 1/1E724828               |            4805773352

 2017-02-08 09:40:48.980872+01 | 1486543248.98087 | 1/1FDD1090               |            4829548688

 2017-02-08 09:40:50.031636+01 | 1486543250.03164 | 1/21244AE0               |            4850993888

 2017-02-08 09:40:51.083663+01 | 1486543251.08366 | 1/226CB928               |            4872517928

 2017-02-08 09:40:52.139999+01 | 1486543252.14 | 1/239B0648               |            4892329544

 2017-02-08 09:40:53.188995+01 | 1486543253.18899 | 1/24AE37F8               |            4910364664

 2017-02-08 09:40:54.246073+01 | 1486543254.24607 | 1/25B33FC0               |            4927471552

 2017-02-08 09:40:55.299009+01 | 1486543255.29901 | 1/269E1510               |            4942861584

 2017-02-08 09:40:56.347577+01 | 1486543256.34758 | 1/27C26580               |            4962018688

 2017-02-08 09:40:57.401436+01 | 1486543257.40144 | 1/28DD03B0               |            4980540336

 2017-02-08 09:40:58.459279+01 | 1486543258.45928 | 1/29BEDB80               |            4995341184

 2017-02-08 09:40:59.512284+01 | 1486543259.51228 | 1/29F02138               |            4998570296

 2017-02-08 09:41:00.556804+01 | 1486543260.5568 | 1/2A1B1DE8               |            5001387496

 2017-02-08 09:41:01.605756+01 | 1486543261.60576 | 1/2A46BB88               |            5004245896

 2017-02-08 09:41:02.65408+01 | 1486543262.65408 | 1/2A7252A8               |            5007102632

 2017-02-08 09:41:03.707188+01 | 1486543263.70719 | 1/2A9F89B8               |            5010065848

 2017-02-08 09:41:04.757359+01 | 1486543264.75736 | 1/2ACD7520               |            5013075232

 2017-02-08 09:41:05.810998+01 | 1486543265.811 | 1/2AFB0A30               |            5016062512

 2017-02-08 09:41:06.861662+01 | 1486543266.86166 | 1/2B26D3A8               |            5018932136

 2017-02-08 09:41:07.914876+01 | 1486543267.91488 | 1/2B553670               |            5021972080

 2017-02-08 09:41:08.964713+01 | 1486543268.96471 | 1/2B822F00               |            5024919296

 2017-02-08 09:41:10.016454+01 | 1486543270.01645 | 1/2BAF67B8               |            5027882936

 2017-02-08 09:41:11.0664+01 | 1486543271.0664 | 1/2BDD4E20               |            5030891040

 2017-02-08 09:41:12.114985+01 | 1486543272.11498 | 1/2C0A2B80               |            5033831296

 2017-02-08 09:41:13.16578+01 | 1486543273.16578 | 1/2C37A4D8               |            5036811480

 2017-02-08 09:41:14.21657+01 | 1486543274.21657 | 1/2C653588               |            5039797640

 2017-02-08 09:41:15.271919+01 | 1486543275.27192 | 1/2C937098               |            5042827416

 2017-02-08 09:41:16.323399+01 | 1486543276.3234 | 1/2CC22138               |            5045887288

 2017-02-08 09:41:17.377534+01 | 1486543277.37753 | 1/2CEF6688               |            5048854152

 2017-02-08 09:41:18.428867+01 | 1486543278.42887 | 1/2D1B7048               |            5051740232

 2017-02-08 09:41:19.48252+01 | 1486543279.48252 | 1/2D47E350               |            5054653264

 2017-02-08 09:41:20.534176+01 | 1486543280.53418 | 1/2D74D838               |            5057599544

 2017-02-08 09:41:21.588132+01 | 1486543281.58813 | 1/2DA1E4E0               |            5060551904

 2017-02-08 09:41:22.642336+01 | 1486543282.64234 | 1/2DD094C0               |            5063611584

 2017-02-08 09:41:23.69313+01 | 1486543283.69313 | 1/2DFD5A78               |            5066545784

 2017-02-08 09:41:24.741925+01 | 1486543284.74193 | 1/2E2A3B90               |            5069486992

 2017-02-08 09:41:25.792868+01 | 1486543285.79287 | 1/2E585988               |            5072509320

 2017-02-08 09:41:26.846056+01 | 1486543286.84606 | 1/2E8709F0               |            5075569136

 2017-02-08 09:41:27.899056+01 | 1486543287.89906 | 1/2EB56BA0               |            5078608800

 2017-02-08 09:41:28.950402+01 | 1486543288.9504 | 1/2EE22470               |            5081539696

 2017-02-08 09:41:30.005278+01 | 1486543290.00528 | 1/2F0E63F8               |            5084439544

 2017-02-08 09:41:31.055765+01 | 1486543291.05576 | 1/2F3CA938               |            5087471928

 2017-02-08 09:41:32.109695+01 | 1486543292.10969 | 1/2F69F5D8               |            5090440664

 2017-02-08 09:41:33.163471+01 | 1486543293.16347 | 1/2F999090               |            5093560464

 2017-02-08 09:41:34.211754+01 | 1486543294.21175 | 1/2FC545E0               |            5096424928

 2017-02-08 09:41:35.266248+01 | 1486543295.26625 | 1/2FEFF068               |            5099221096

 2017-02-08 09:41:36.316995+01 | 1486543296.31699 | 1/301E0418               |            5102240792

 2017-02-08 09:41:37.371572+01 | 1486543297.37157 | 1/304B5DF8               |            5105212920

 2017-02-08 09:41:38.422977+01 | 1486543298.42298 | 1/3079DA20               |            5108259360

 2017-02-08 09:41:39.470992+01 | 1486543299.47099 | 1/30A6AC30               |            5111196720

 2017-02-08 09:41:40.524058+01 | 1486543300.52406 | 1/30D5F788               |            5114296200

 2017-02-08 09:41:41.578847+01 | 1486543301.57885 | 1/3103C930               |            5117298992

 2017-02-08 09:41:42.630277+01 | 1486543302.63028 | 1/31309628               |            5120235048

 2017-02-08 09:41:43.691263+01 | 1486543303.69126 | 1/315FE568               |            5123335528

 2017-02-08 09:41:44.744289+01 | 1486543304.74429 | 1/318DD170               |            5126345072

 2017-02-08 09:41:45.793117+01 | 1486543305.79312 | 1/31BEDE30               |            5129559600

 2017-02-08 09:41:46.854424+01 | 1486543306.85442 | 1/320D7128               |            5134709032

 2017-02-08 09:41:47.911103+01 | 1486543307.9111 | 1/325A38F8               |            5139740920

 2017-02-08 09:41:48.965652+01 | 1486543308.96565 | 1/32A39B38               |            5144550200

 2017-02-08 09:41:50.016638+01 | 1486543310.01664 | 1/32E7FF40               |            5149032256

 2017-02-08 09:41:51.080061+01 | 1486543311.08006 | 1/33187FC8               |            5152210888

 2017-02-08 09:41:52.133108+01 | 1486543312.13311 | 1/33440598               |            5155063192

 2017-02-08 09:41:53.187904+01 | 1486543313.1879 | 1/3370CF98               |            5157998488

 2017-02-08 09:41:54.240324+01 | 1486543314.24032 | 1/339D31E8               |            5160907240

 2017-02-08 09:41:55.288444+01 | 1486543315.28844 | 1/33C9DCB0               |            5163834544

 2017-02-08 09:41:56.338789+01 | 1486543316.33879 | 1/33F58AE0               |            5166697184

 2017-02-08 09:41:57.392732+01 | 1486543317.39273 | 1/342067B8               |            5169506232

 2017-02-08 09:41:58.444219+01 | 1486543318.44422 | 1/344CA648               |            5172405832

 2017-02-08 09:41:59.49513+01 | 1486543319.49513 | 1/34784990               |            5175265680

 2017-02-08 09:42:00.547217+01 | 1486543320.54722 | 1/34A5DC98               |            5178252440

 2017-02-08 09:42:01.597372+01 | 1486543321.59737 | 1/34D27870               |            5181175920

 2017-02-08 09:42:02.648628+01 | 1486543322.64863 | 1/34FF8800               |            5184129024

 2017-02-08 09:42:03.696175+01 | 1486543323.69618 | 1/352A6F98               |            5186940824

 2017-02-08 09:42:04.744515+01 | 1486543324.74451 | 1/3555C418               |            5189780504

 2017-02-08 09:42:05.794428+01 | 1486543325.79443 | 1/358292B0               |            5192716976

 2017-02-08 09:42:06.844342+01 | 1486543326.84434 | 1/35AEF530               |            5195625776

 2017-02-08 09:42:07.893123+01 | 1486543327.89312 | 1/35DBB518               |            5198558488

 2017-02-08 09:42:08.947074+01 | 1486543328.94707 | 1/36087A70               |            5201492592

 2017-02-08 09:42:09.999925+01 | 1486543329.99992 | 1/36362428               |            5204485160

 2017-02-08 09:42:11.051128+01 | 1486543331.05113 | 1/3662E198               |            5207417240

 2017-02-08 09:42:12.1013+01 | 1486543332.1013 | 1/36903D80               |            5210389888

 2017-02-08 09:42:13.151906+01 | 1486543333.15191 | 1/36BD89C0               |            5213358528

 2017-02-08 09:42:14.202193+01 | 1486543334.20219 | 1/36EAFC28               |            5216336936

 2017-02-08 09:42:15.253996+01 | 1486543335.254 | 1/37175AA0               |            5219244704

 2017-02-08 09:42:16.304622+01 | 1486543336.30462 | 1/37454BA8               |            5222255528

 2017-02-08 09:42:17.353636+01 | 1486543337.35364 | 1/37733688               |            5225264776

 2017-02-08 09:42:18.407586+01 | 1486543338.40759 | 1/37A14FB0               |            5228285872

 2017-02-08 09:42:19.458242+01 | 1486543339.45824 | 1/37CF1BC0               |            5231287232

 2017-02-08 09:42:20.507895+01 | 1486543340.50789 | 1/37FE7FF8               |            5234393080

 2017-02-08 09:42:21.560326+01 | 1486543341.56033 | 1/382C8F60               |            5237411680

 2017-02-08 09:42:22.612575+01 | 1486543342.61258 | 1/385AA790               |            5240432528

 2017-02-08 09:42:23.665028+01 | 1486543343.66503 | 1/388963B0               |            5243495344

 2017-02-08 09:42:24.719147+01 | 1486543344.71915 | 1/38B856C0               |            5246572224

 2017-02-08 09:42:25.776471+01 | 1486543345.77647 | 1/38E71038               |            5249634360

 2017-02-08 09:42:26.827055+01 | 1486543346.82705 | 1/39143CD0               |            5252594896

 2017-02-08 09:42:27.879614+01 | 1486543347.87961 | 1/39422A30               |            5255604784

 2017-02-08 09:42:28.932465+01 | 1486543348.93247 | 1/39709418               |            5258646552

 2017-02-08 09:42:29.983601+01 | 1486543349.9836 | 1/399E4660               |            5261641312

 2017-02-08 09:42:31.037042+01 | 1486543351.03704 | 1/39CB2758               |            5264582488

 2017-02-08 09:42:32.086507+01 | 1486543352.08651 | 1/39F94C48               |            5267606600

 2017-02-08 09:42:33.141786+01 | 1486543353.14179 | 1/3A264298               |            5270553240

 2017-02-08 09:42:34.194153+01 | 1486543354.19415 | 1/3A54CFF8               |            5273604088

 2017-02-08 09:42:35.242639+01 | 1486543355.24264 | 1/3A8362E0               |            5276656352

 2017-02-08 09:42:36.295051+01 | 1486543356.29505 | 1/3AB42EC0               |            5279854272

 2017-02-08 09:42:37.345354+01 | 1486543357.34535 | 1/3AE45958               |            5283010904

 2017-02-08 09:42:38.39895+01 | 1486543358.39895 | 1/3B11EAA8               |            5285997224

 2017-02-08 09:42:39.455123+01 | 1486543359.45512 | 1/3B4072F0               |            5289046768

 2017-02-08 09:42:40.504667+01 | 1486543360.50467 | 1/3B6F0D18               |            5292100888

 2017-02-08 09:42:41.556317+01 | 1486543361.55632 | 1/3B9EEDE0               |            5295238624

 2017-02-08 09:42:42.609822+01 | 1486543362.60982 | 1/3BCD3F70               |            5298274160

 2017-02-08 09:42:43.660263+01 | 1486543363.66026 | 1/3BFB4628               |            5301290536

 2017-02-08 09:42:44.713102+01 | 1486543364.7131 | 1/3C28EF98               |            5304283032

 2017-02-08 09:42:45.76793+01 | 1486543365.76793 | 1/3C591B28               |            5307439912

 2017-02-08 09:42:46.808978+01 | 1486543366.80898 | 1/3CA5E5D0               |            5312472528

 2017-02-08 09:42:47.859198+01 | 1486543367.8592 | 1/3CF18938               |            5317429560

 2017-02-08 09:42:48.912667+01 | 1486543368.91267 | 1/3D399228               |            5322150440

 2017-02-08 09:42:49.967332+01 | 1486543369.96733 | 1/3D809878               |            5326805112

 2017-02-08 09:42:51.027082+01 | 1486543371.02708 | 1/3DB8ABE0               |            5330480096

 2017-02-08 09:42:52.078328+01 | 1486543372.07833 | 1/3DE5ADE8               |            5333429736

 2017-02-08 09:42:53.130392+01 | 1486543373.13039 | 1/3E1179E8               |            5336300008

 2017-02-08 09:42:54.183616+01 | 1486543374.18362 | 1/3E3C5820               |            5339109408

 2017-02-08 09:42:55.234334+01 | 1486543375.23433 | 1/3E67BA50               |            5341952592

 2017-02-08 09:42:56.283598+01 | 1486543376.2836 | 1/3E941C80               |            5344861312

 2017-02-08 09:42:57.334652+01 | 1486543377.33465 | 1/3EC0A4B0               |            5347779760

 2017-02-08 09:42:58.387594+01 | 1486543378.38759 | 1/3EED57E0               |            5350709216

 2017-02-08 09:42:59.439474+01 | 1486543379.43947 | 1/3F1845C8               |            5353522632

 2017-02-08 09:43:00.489168+01 | 1486543380.48917 | 1/3F454120               |            5356470560

 2017-02-08 09:43:01.539331+01 | 1486543381.53933 | 1/3F730C98               |            5359471768

 2017-02-08 09:43:02.590843+01 | 1486543382.59084 | 1/3F9EFE30               |            5362351664

 2017-02-08 09:43:03.639954+01 | 1486543383.63995 | 1/3FCBBBB0               |            5365283760

 2017-02-08 09:43:04.693768+01 | 1486543384.69377 | 1/3FF8DBF0               |            5368241136

 2017-02-08 09:43:05.746797+01 | 1486543385.7468 | 1/4025F9A0               |            5371197856

 2017-02-08 09:43:06.798332+01 | 1486543386.79833 | 1/4054F830               |            5374277680

 2017-02-08 09:43:07.850481+01 | 1486543387.85048 | 1/40825388               |            5377250184

 2017-02-08 09:43:08.90298+01 | 1486543388.90298 | 1/40AF2240               |            5380186688

 2017-02-08 09:43:09.955326+01 | 1486543389.95533 | 1/40DC3338               |            5383140152

 2017-02-08 09:43:11.003641+01 | 1486543391.00364 | 1/41071660               |            5385950816

 2017-02-08 09:43:12.054877+01 | 1486543392.05488 | 1/41346A10               |            5388921360

 2017-02-08 09:43:13.105216+01 | 1486543393.10522 | 1/4161CA98               |            5391895192

 2017-02-08 09:43:14.157818+01 | 1486543394.15782 | 1/418F4990               |            5394876816

 2017-02-08 09:43:15.210618+01 | 1486543395.21062 | 1/41BB14F8               |            5397746936

 2017-02-08 09:43:16.262861+01 | 1486543396.26286 | 1/41E86DF0               |            5400718832

 2017-02-08 09:43:17.316877+01 | 1486543397.31688 | 1/421521C0               |            5403648448

 2017-02-08 09:43:18.369188+01 | 1486543398.36919 | 1/4242EB80               |            5406649216

 2017-02-08 09:43:19.418718+01 | 1486543399.41872 | 1/427010C8               |            5409607880

 2017-02-08 09:43:20.467667+01 | 1486543400.46767 | 1/429E9BC0               |            5412658112

 2017-02-08 09:43:21.52258+01 | 1486543401.52258 | 1/42CC9E80               |            5415673472

 2017-02-08 09:43:22.575971+01 | 1486543402.57597 | 1/42FA4488               |            5418665096

 2017-02-08 09:43:23.624468+01 | 1486543403.62447 | 1/43274838               |            5421615160

 2017-02-08 09:43:24.675305+01 | 1486543404.6753 | 1/4354DCE0               |            5424602336

 2017-02-08 09:43:25.728873+01 | 1486543405.72887 | 1/43830158               |            5427626328

 2017-02-08 09:43:26.780135+01 | 1486543406.78013 | 1/43B17560               |            5430670688

 2017-02-08 09:43:27.834786+01 | 1486543407.83479 | 1/43E0CED8               |            5433773784

 2017-02-08 09:43:28.888534+01 | 1486543408.88853 | 1/440EDFF0               |            5436792816

 2017-02-08 09:43:29.944989+01 | 1486543409.94499 | 1/443DD2A8               |            5439869608

 2017-02-08 09:43:30.996046+01 | 1486543410.99605 | 1/446CB548               |            5442942280

 2017-02-08 09:43:32.051178+01 | 1486543412.05118 | 1/449B2A90               |            5445986960

 2017-02-08 09:43:33.101559+01 | 1486543413.10156 | 1/44C9F078               |            5449052280

 2017-02-08 09:43:34.15022+01 | 1486543414.15022 | 1/44F8DEB8               |            5452127928

 2017-02-08 09:43:35.202945+01 | 1486543415.20294 | 1/4526F060               |            5455147104

 2017-02-08 09:43:36.257901+01 | 1486543416.2579 | 1/4555D618               |            5458220568

 2017-02-08 09:43:37.308073+01 | 1486543417.30807 | 1/458468E8               |            5461272808

 2017-02-08 09:43:38.364829+01 | 1486543418.36483 | 1/45B42740               |            5464401728

 2017-02-08 09:43:39.417331+01 | 1486543419.41733 | 1/45E2FE40               |            5467471424

 2017-02-08 09:43:40.469473+01 | 1486543420.46947 | 1/46108070               |            5470453872

 2017-02-08 09:43:41.519677+01 | 1486543421.51968 | 1/46400C18               |            5473569816

 2017-02-08 09:43:42.573401+01 | 1486543422.5734 | 1/466F4F78               |            5476667256

 2017-02-08 09:43:43.624395+01 | 1486543423.62439 | 1/469E61E8               |            5479752168

 2017-02-08 09:43:44.677579+01 | 1486543424.67758 | 1/46CD17E8               |            5482813416

 2017-02-08 09:43:45.729219+01 | 1486543425.72922 | 1/46FB8570               |            5485856112

 2017-02-08 09:43:46.774508+01 | 1486543426.77451 | 1/47482BF0               |            5490879472

 2017-02-08 09:43:47.828831+01 | 1486543427.82883 | 1/47953CE0               |            5495930080

 2017-02-08 09:43:48.88872+01 | 1486543428.88872 | 1/47E14AA8               |            5500914344

 2017-02-08 09:43:49.940385+01 | 1486543429.94039 | 1/4826C040               |            5505466432

 2017-02-08 09:43:51.002221+01 | 1486543431.00222 | 1/485CC228               |            5509005864

 2017-02-08 09:43:52.043705+01 | 1486543432.0437 | 1/4886B1F8               |            5511754232

 2017-02-08 09:43:53.093842+01 | 1486543433.09384 | 1/48B32C38               |            5514669112

 2017-02-08 09:43:54.147764+01 | 1486543434.14776 | 1/48DE9828               |            5517514792

 2017-02-08 09:43:55.19838+01 | 1486543435.19838 | 1/49094B18               |            5520313112

 2017-02-08 09:43:56.251199+01 | 1486543436.2512 | 1/493577C8               |            5523208136

 2017-02-08 09:43:57.306455+01 | 1486543437.30645 | 1/495FFFB8               |            5525995448

 2017-02-08 09:43:58.359267+01 | 1486543438.35927 | 1/498CC1F8               |            5528928760

 2017-02-08 09:43:59.410849+01 | 1486543439.41085 | 1/49B925E8               |            5531837928

 2017-02-08 09:44:00.464035+01 | 1486543440.46404 | 1/49E68FF0               |            5534814192

 2017-02-08 09:44:01.521889+01 | 1486543441.52189 | 1/4A112068               |            5537603688

 2017-02-08 09:44:02.577174+01 | 1486543442.57717 | 1/4A3E8990               |            5540579728

 2017-02-08 09:44:03.626952+01 | 1486543443.62695 | 1/4A6B8DF8               |            5543529976

 2017-02-08 09:44:04.680313+01 | 1486543444.68031 | 1/4A988FA0               |            5546479520

 2017-02-08 09:44:05.731791+01 | 1486543445.73179 | 1/4AC579E0               |            5549423072

 2017-02-08 09:44:06.785423+01 | 1486543446.78542 | 1/4AF20C90               |            5552344208

 2017-02-08 09:44:07.833699+01 | 1486543447.8337 | 1/4B1EE180               |            5555282304

 2017-02-08 09:44:08.886993+01 | 1486543448.88699 | 1/4B4BFED8               |            5558238936

 2017-02-08 09:44:09.940449+01 | 1486543449.94045 | 1/4B791AE0               |            5561195232

 2017-02-08 09:44:10.994069+01 | 1486543450.99407 | 1/4BA4DAD0               |            5564062416

 2017-02-08 09:44:12.044466+01 | 1486543452.04447 | 1/4BD1CE48               |            5567008328

 2017-02-08 09:44:13.097283+01 | 1486543453.09728 | 1/4BFEB0D8               |            5569949912

 2017-02-08 09:44:14.149665+01 | 1486543454.14967 | 1/4C2AC350               |            5572838224

 2017-02-08 09:44:15.200712+01 | 1486543455.20071 | 1/4C58A938               |            5575846200

 2017-02-08 09:44:16.254917+01 | 1486543456.25492 | 1/4C861830               |            5578823728

 2017-02-08 09:44:17.30696+01 | 1486543457.30696 | 1/4CB43548               |            5581845832

 2017-02-08 09:44:18.358444+01 | 1486543458.35844 | 1/4CE19838               |            5584820280

 2017-02-08 09:44:19.411293+01 | 1486543459.41129 | 1/4D0DDC20               |            5587721248

 2017-02-08 09:44:20.460807+01 | 1486543460.46081 | 1/4D3AEF38               |            5590675256

 2017-02-08 09:44:21.513623+01 | 1486543461.51362 | 1/4D687920               |            5593659680

 2017-02-08 09:44:22.564087+01 | 1486543462.56409 | 1/4D9576E0               |            5596608224

 2017-02-08 09:44:23.615159+01 | 1486543463.61516 | 1/4DC2BED8               |            5599575768

 2017-02-08 09:44:24.665948+01 | 1486543464.66595 | 1/4DF13E60               |            5602623072

 2017-02-08 09:44:25.71767+01 | 1486543465.71767 | 1/4E1FB028               |            5605666856

 2017-02-08 09:44:26.766582+01 | 1486543466.76658 | 1/4E4D3B78               |            5608651640

 2017-02-08 09:44:27.820266+01 | 1486543467.82027 | 1/4E7B44C8               |            5611668680

 2017-02-08 09:44:28.871918+01 | 1486543468.87192 | 1/4EAA3030               |            5614743600

 2017-02-08 09:44:29.922203+01 | 1486543469.9222 | 1/4ED8AB68               |            5617789800

 2017-02-08 09:44:30.969609+01 | 1486543470.96961 | 1/4F062D60               |            5620772192

 2017-02-08 09:44:32.018592+01 | 1486543472.01859 | 1/4F33D438               |            5623764024

 2017-02-08 09:44:33.07307+01 | 1486543473.07307 | 1/4F616DF8               |            5626752504

 2017-02-08 09:44:34.12474+01 | 1486543474.12474 | 1/4F9103C0               |            5629871040

 2017-02-08 09:44:35.176182+01 | 1486543475.17618 | 1/4FBFFAE8               |            5632948968

 2017-02-08 09:44:36.227452+01 | 1486543476.22745 | 1/4FEE7D30               |            5635996976

 2017-02-08 09:44:37.276721+01 | 1486543477.27672 | 1/501CD488               |            5639033992

 2017-02-08 09:44:38.328542+01 | 1486543478.32854 | 1/504AC440               |            5642044480

 2017-02-08 09:44:39.381301+01 | 1486543479.3813 | 1/50780F40               |            5645012800

 2017-02-08 09:44:40.436566+01 | 1486543480.43657 | 1/50A60900               |            5648025856

 2017-02-08 09:44:41.486428+01 | 1486543481.48643 | 1/50D25ED8               |            5650931416

 2017-02-08 09:44:42.53711+01 | 1486543482.53711 | 1/50FFBA48               |            5653903944

 2017-02-08 09:44:43.588388+01 | 1486543483.58839 | 1/512DA9A0               |            5656914336

 2017-02-08 09:44:44.642142+01 | 1486543484.64214 | 1/515B0F90               |            5659889552

 2017-02-08 09:44:45.692578+01 | 1486543485.69258 | 1/5189BB38               |            5662948152

 2017-02-08 09:44:46.748927+01 | 1486543486.74893 | 1/51D65B70               |            5667969904

 2017-02-08 09:44:47.798681+01 | 1486543487.79868 | 1/5220AFB8               |            5672841144

 2017-02-08 09:44:48.854016+01 | 1486543488.85402 | 1/5268A058               |            5677555800

 2017-02-08 09:44:49.908217+01 | 1486543489.90822 | 1/52B05F50               |            5682257744

 2017-02-08 09:44:50.959232+01 | 1486543490.95923 | 1/52E99B50               |            5686008656

 2017-02-08 09:44:52.008886+01 | 1486543492.00889 | 1/53117AA0               |            5688621728

 2017-02-08 09:44:53.051721+01 | 1486543493.05172 | 1/533BC6C8               |            5691393736

 2017-02-08 09:44:54.103548+01 | 1486543494.10355 | 1/53664340               |            5694178112

 2017-02-08 09:44:55.153685+01 | 1486543495.15369 | 1/53924F30               |            5697064752

 2017-02-08 09:44:56.204706+01 | 1486543496.20471 | 1/53BE3E98               |            5699944088

 2017-02-08 09:44:57.258207+01 | 1486543497.25821 | 1/53EA0388               |            5702812552

 2017-02-08 09:44:58.309369+01 | 1486543498.30937 | 1/5414C478               |            5705614456

 2017-02-08 09:44:59.360393+01 | 1486543499.36039 | 1/5440CE78               |            5708500600

 2017-02-08 09:45:00.409135+01 | 1486543500.40914 | 1/546BBA40               |            5711313472

 2017-02-08 09:45:01.461178+01 | 1486543501.46118 | 1/54983C68               |            5714230376

 2017-02-08 09:45:02.513842+01 | 1486543502.51384 | 1/54C579A8               |            5717195176

 2017-02-08 09:45:03.568139+01 | 1486543503.56814 | 1/54F194F0               |            5720085744

 2017-02-08 09:45:04.61667+01 | 1486543504.61667 | 1/551CEC38               |            5722926136

 2017-02-08 09:45:05.672242+01 | 1486543505.67224 | 1/554A4688               |            5725898376

 2017-02-08 09:45:06.723786+01 | 1486543506.72379 | 1/55766350               |            5728789328

 2017-02-08 09:45:07.776211+01 | 1486543507.77621 | 1/55A33B60               |            5731728224

 2017-02-08 09:45:08.828381+01 | 1486543508.82838 | 1/55CFDF98               |            5734653848

 2017-02-08 09:45:09.883801+01 | 1486543509.8838 | 1/55FD03A8               |            5737612200

 2017-02-08 09:45:10.934799+01 | 1486543510.9348 | 1/56298260               |            5740528224

 2017-02-08 09:45:11.985193+01 | 1486543511.98519 | 1/5656E840               |            5743503424

 2017-02-08 09:45:13.035431+01 | 1486543513.03543 | 1/5683AD30               |            5746437424

 2017-02-08 09:45:14.083535+01 | 1486543514.08353 | 1/56B1CFA0               |            5749460896

 2017-02-08 09:45:15.136691+01 | 1486543515.13669 | 1/56DEB4A8               |            5752403112

 2017-02-08 09:45:16.191383+01 | 1486543516.19138 | 1/570AD578               |            5755295096

 2017-02-08 09:45:17.241456+01 | 1486543517.24146 | 1/5738B528               |            5758301480

 2017-02-08 09:45:18.293409+01 | 1486543518.29341 | 1/57654118               |            5761220888

 2017-02-08 09:45:19.347916+01 | 1486543519.34792 | 1/57926338               |            5764178744

 2017-02-08 09:45:20.4003+01 | 1486543520.4003 | 1/57BFD978               |            5767158136

 2017-02-08 09:45:21.457362+01 | 1486543521.45736 | 1/57ECA6E0               |            5770094304

 2017-02-08 09:45:22.507534+01 | 1486543522.50753 | 1/581932C8               |            5773013704

 2017-02-08 09:45:23.558538+01 | 1486543523.55854 | 1/58454850               |            5775902800

 2017-02-08 09:45:24.609452+01 | 1486543524.60945 | 1/58733CD8               |            5778914520

 2017-02-08 09:45:25.659853+01 | 1486543525.65985 | 1/58A00028               |            5781848104

