 2017-02-09 00:47:20.321298+01 | 1486597640.3213 |                 0 |              11 |                    24 |                   24 |               2188 |             0 |                0 |          241898 |                     0 |         96141 | 2017-02-08 23:52:09.264317+01

 2017-02-09 00:47:21.499865+01 | 1486597641.49987 |                 0 |              12 |                    25 |                   29 |               2194 |             0 |                0 |          241903 |                     0 |         96141 | 2017-02-08 23:52:09.264317+01

 2017-02-09 00:47:22.630947+01 | 1486597642.63095 |                 0 |              12 |                    25 |                   29 |               2194 |             0 |                0 |          241903 |                     0 |         96141 | 2017-02-08 23:52:09.264317+01

 2017-02-09 00:47:23.78823+01 | 1486597643.78823 |                 0 |              12 |                    25 |                   29 |               2194 |             0 |                0 |          241903 |                     0 |         96141 | 2017-02-08 23:52:09.264317+01

 2017-02-09 00:47:24.966779+01 | 1486597644.96678 |                 0 |              12 |                    25 |                   29 |               2194 |             0 |                0 |          241903 |                     0 |         96141 | 2017-02-08 23:52:09.264317+01

 2017-02-09 00:47:26.131205+01 | 1486597646.13121 |                 0 |              12 |                    25 |                   29 |               2194 |             0 |                0 |          241903 |                     0 |         96141 | 2017-02-08 23:52:09.264317+01

 2017-02-09 00:47:27.311954+01 | 1486597647.31195 |                 0 |              12 |                    25 |                   29 |               2194 |             0 |                0 |          241903 |                     0 |         96141 | 2017-02-08 23:52:09.264317+01

 2017-02-09 00:47:28.434196+01 | 1486597648.4342 |                 0 |              12 |                    25 |                   29 |               2194 |             0 |                0 |          241903 |                     0 |         96141 | 2017-02-08 23:52:09.264317+01

 2017-02-09 00:47:29.602042+01 | 1486597649.60204 |                 0 |              12 |                    25 |                   29 |               2194 |             0 |                0 |          241903 |                     0 |         96141 | 2017-02-08 23:52:09.264317+01

 2017-02-09 00:47:30.779479+01 | 1486597650.77948 |                 0 |              12 |                    25 |                   29 |               2194 |             0 |                0 |          241903 |                     0 |         96141 | 2017-02-08 23:52:09.264317+01

 2017-02-09 00:47:31.955559+01 | 1486597651.95556 |                 0 |              12 |                    25 |                   29 |               2194 |             0 |                0 |          241903 |                     0 |         96141 | 2017-02-08 23:52:09.264317+01

 2017-02-09 00:47:33.133962+01 | 1486597653.13396 |                 0 |              12 |                    25 |                   29 |               2194 |             0 |                0 |          241903 |                     0 |         96141 | 2017-02-08 23:52:09.264317+01

 2017-02-09 00:47:34.312513+01 | 1486597654.31251 |                 0 |              12 |                    25 |                   29 |               2194 |             0 |                0 |          241903 |                     0 |         96141 | 2017-02-08 23:52:09.264317+01

 2017-02-09 00:47:35.494607+01 | 1486597655.49461 |                 0 |              12 |                    25 |                   29 |               2194 |             0 |                0 |          241903 |                     0 |         96141 | 2017-02-08 23:52:09.264317+01

 2017-02-09 00:47:36.672313+01 | 1486597656.67231 |                 0 |              12 |                    25 |                   29 |               2194 |             0 |                0 |          241903 |                     0 |         96141 | 2017-02-08 23:52:09.264317+01

 2017-02-09 00:47:37.848483+01 | 1486597657.84848 |                 0 |              12 |                    25 |                   29 |               2194 |             0 |                0 |          241903 |                     0 |         96141 | 2017-02-08 23:52:09.264317+01

 2017-02-09 00:47:39.026944+01 | 1486597659.02694 |                 0 |              12 |                    25 |                   29 |               2194 |             0 |                0 |          241903 |                     0 |         96141 | 2017-02-08 23:52:09.264317+01

 2017-02-09 00:47:40.205048+01 | 1486597660.20505 |                 0 |              12 |                    25 |                   29 |               2194 |             0 |                0 |          241903 |                     0 |         96141 | 2017-02-08 23:52:09.264317+01

 2017-02-09 00:47:41.370236+01 | 1486597661.37024 |                 0 |              12 |                    25 |                   29 |               2194 |             0 |                0 |          241903 |                     0 |         96141 | 2017-02-08 23:52:09.264317+01

 2017-02-09 00:47:42.548197+01 | 1486597662.5482 |                 0 |              12 |                    25 |                   29 |               2194 |             0 |                0 |          241903 |                     0 |         96141 | 2017-02-08 23:52:09.264317+01

 2017-02-09 00:47:43.725622+01 | 1486597663.72562 |                 0 |              12 |                    25 |                   29 |               2194 |             0 |                0 |          241903 |                     0 |         96141 | 2017-02-08 23:52:09.264317+01

 2017-02-09 00:47:44.902125+01 | 1486597664.90212 |                 0 |              12 |                    25 |                   29 |               2194 |             0 |                0 |          241903 |                     0 |         96141 | 2017-02-08 23:52:09.264317+01

 2017-02-09 00:47:46.080644+01 | 1486597666.08064 |                 0 |              12 |                    25 |                   29 |               2194 |             0 |                0 |          241903 |                     0 |         96141 | 2017-02-08 23:52:09.264317+01

 2017-02-09 00:47:47.258027+01 | 1486597667.25803 |                 0 |              12 |                    25 |                   29 |               2194 |             0 |                0 |          241903 |                     0 |         96141 | 2017-02-08 23:52:09.264317+01

 2017-02-09 00:47:48.433858+01 | 1486597668.43386 |                 0 |              12 |                    25 |                   29 |               2194 |             0 |                0 |          241903 |                     0 |         96141 | 2017-02-08 23:52:09.264317+01

 2017-02-09 00:47:49.614958+01 | 1486597669.61496 |                 0 |              12 |                    25 |                   29 |               2194 |             0 |                0 |          241903 |                     0 |         96141 | 2017-02-08 23:52:09.264317+01

 2017-02-09 00:47:50.795239+01 | 1486597670.79524 |                 0 |              12 |                    25 |                   29 |               2194 |             0 |                0 |          241903 |                     0 |         96141 | 2017-02-08 23:52:09.264317+01

 2017-02-09 00:47:51.973951+01 | 1486597671.97395 |                 0 |              12 |                    25 |                   29 |               2194 |             0 |                0 |          241903 |                     0 |         96141 | 2017-02-08 23:52:09.264317+01

 2017-02-09 00:47:53.153163+01 | 1486597673.15316 |                 0 |              12 |                    25 |                   29 |               2194 |             0 |                0 |          241903 |                     0 |         96141 | 2017-02-08 23:52:09.264317+01

 2017-02-09 00:47:54.329783+01 | 1486597674.32978 |                 0 |              12 |                    25 |                   29 |               2194 |             0 |                0 |          241903 |                     0 |         96141 | 2017-02-08 23:52:09.264317+01

 2017-02-09 00:47:55.504964+01 | 1486597675.50496 |                 0 |              12 |                    25 |                   29 |               2194 |             0 |                0 |          241903 |                     0 |         96141 | 2017-02-08 23:52:09.264317+01

 2017-02-09 00:47:56.683474+01 | 1486597676.68347 |                 0 |              12 |                    25 |                   29 |               2194 |             0 |                0 |          241903 |                     0 |         96141 | 2017-02-08 23:52:09.264317+01

 2017-02-09 00:47:57.860564+01 | 1486597677.86056 |                 0 |              12 |                    25 |                   29 |               2194 |             0 |                0 |          241903 |                     0 |         96141 | 2017-02-08 23:52:09.264317+01

 2017-02-09 00:47:59.038336+01 | 1486597679.03834 |                 0 |              12 |                    25 |                   29 |               2194 |             0 |                0 |          241903 |                     0 |         96141 | 2017-02-08 23:52:09.264317+01

 2017-02-09 00:48:00.219743+01 | 1486597680.21974 |                 0 |              12 |                    25 |                   29 |               2194 |             0 |                0 |          241903 |                     0 |         96141 | 2017-02-08 23:52:09.264317+01

 2017-02-09 00:48:01.393707+01 | 1486597681.39371 |                 0 |              12 |                    25 |                   29 |               2194 |             0 |                0 |          241903 |                     0 |         96141 | 2017-02-08 23:52:09.264317+01

 2017-02-09 00:48:02.569409+01 | 1486597682.56941 |                 0 |              12 |                    25 |                   29 |               2194 |             0 |                0 |          241903 |                     0 |         96141 | 2017-02-08 23:52:09.264317+01

 2017-02-09 00:48:03.746395+01 | 1486597683.7464 |                 0 |              12 |                    25 |                   29 |               2194 |             0 |                0 |          241903 |                     0 |         96141 | 2017-02-08 23:52:09.264317+01

 2017-02-09 00:48:04.921217+01 | 1486597684.92122 |                 0 |              12 |                    25 |                   29 |               2194 |             0 |                0 |          241903 |                     0 |         96141 | 2017-02-08 23:52:09.264317+01

 2017-02-09 00:48:06.099794+01 | 1486597686.09979 |                 0 |              12 |                    25 |                   29 |               2194 |             0 |                0 |          241903 |                     0 |         96141 | 2017-02-08 23:52:09.264317+01

 2017-02-09 00:48:07.278032+01 | 1486597687.27803 |                 0 |              12 |                    25 |                   29 |               2194 |             0 |                0 |          241903 |                     0 |         96141 | 2017-02-08 23:52:09.264317+01

 2017-02-09 00:48:08.458819+01 | 1486597688.45882 |                 0 |              12 |                    25 |                   29 |               2194 |             0 |                0 |          241903 |                     0 |         96141 | 2017-02-08 23:52:09.264317+01

 2017-02-09 00:48:09.636552+01 | 1486597689.63655 |                 0 |              12 |                    25 |                   29 |               2194 |             0 |                0 |          241903 |                     0 |         96141 | 2017-02-08 23:52:09.264317+01

 2017-02-09 00:48:10.815992+01 | 1486597690.81599 |                 0 |              12 |                    25 |                   29 |               2194 |             0 |                0 |          241903 |                     0 |         96141 | 2017-02-08 23:52:09.264317+01

 2017-02-09 00:48:11.993698+01 | 1486597691.9937 |                 0 |              12 |                    25 |                   29 |               2194 |             0 |                0 |          241903 |                     0 |         96141 | 2017-02-08 23:52:09.264317+01

 2017-02-09 00:48:13.172223+01 | 1486597693.17222 |                 0 |              12 |                    25 |                   29 |               2194 |             0 |                0 |          241903 |                     0 |         96141 | 2017-02-08 23:52:09.264317+01

 2017-02-09 00:48:14.348215+01 | 1486597694.34822 |                 0 |              12 |                    25 |                   29 |               2194 |             0 |                0 |          241903 |                     0 |         96141 | 2017-02-08 23:52:09.264317+01

 2017-02-09 00:48:15.526698+01 | 1486597695.5267 |                 0 |              12 |                    25 |                   29 |               2194 |             0 |                0 |          241903 |                     0 |         96141 | 2017-02-08 23:52:09.264317+01

 2017-02-09 00:48:16.70545+01 | 1486597696.70545 |                 0 |              12 |                    25 |                   29 |               2194 |             0 |                0 |          241903 |                     0 |         96141 | 2017-02-08 23:52:09.264317+01

 2017-02-09 00:48:17.883715+01 | 1486597697.88371 |                 0 |              12 |                    25 |                   29 |               2194 |             0 |                0 |          241903 |                     0 |         96141 | 2017-02-08 23:52:09.264317+01

 2017-02-09 00:48:19.060171+01 | 1486597699.06017 |                 0 |              12 |                    25 |                   29 |               2194 |             0 |                0 |          241903 |                     0 |         96141 | 2017-02-08 23:52:09.264317+01

 2017-02-09 00:48:20.237069+01 | 1486597700.23707 |                 0 |              12 |                    25 |                   29 |               2194 |             0 |                0 |          241903 |                     0 |         96141 | 2017-02-08 23:52:09.264317+01

 2017-02-09 00:48:21.416833+01 | 1486597701.41683 |                 0 |              12 |                    25 |                   29 |               2194 |             0 |                0 |          241903 |                     0 |         96141 | 2017-02-08 23:52:09.264317+01

 2017-02-09 00:48:22.594326+01 | 1486597702.59433 |                 0 |              12 |                    25 |                   29 |               2194 |             0 |                0 |          241903 |                     0 |         96141 | 2017-02-08 23:52:09.264317+01

 2017-02-09 00:48:23.773693+01 | 1486597703.77369 |                 0 |              12 |                    25 |                   29 |               2194 |             0 |                0 |          241903 |                     0 |         96141 | 2017-02-08 23:52:09.264317+01

 2017-02-09 00:48:24.935046+01 | 1486597704.93505 |                 0 |              12 |                    25 |                   29 |               2194 |             0 |                0 |          241903 |                     0 |         96141 | 2017-02-08 23:52:09.264317+01

 2017-02-09 00:48:26.104343+01 | 1486597706.10434 |                 0 |              12 |                    25 |                   29 |               2194 |             0 |                0 |          241903 |                     0 |         96141 | 2017-02-08 23:52:09.264317+01

 2017-02-09 00:48:27.280188+01 | 1486597707.28019 |                 0 |              12 |                    25 |                   29 |               2194 |             0 |                0 |          241903 |                     0 |         96141 | 2017-02-08 23:52:09.264317+01

 2017-02-09 00:48:28.438734+01 | 1486597708.43873 |                 0 |              12 |                    25 |                   29 |               2194 |             0 |                0 |          241903 |                     0 |         96141 | 2017-02-08 23:52:09.264317+01

 2017-02-09 00:48:29.618311+01 | 1486597709.61831 |                 0 |              12 |                    25 |                   29 |               2194 |             0 |                0 |          241903 |                     0 |         96141 | 2017-02-08 23:52:09.264317+01

 2017-02-09 00:48:30.795984+01 | 1486597710.79598 |                 0 |              12 |                    25 |                   29 |               2194 |             0 |                0 |          241903 |                     0 |         96141 | 2017-02-08 23:52:09.264317+01

 2017-02-09 00:48:31.976766+01 | 1486597711.97677 |                 0 |              12 |                    25 |                   29 |               2194 |             0 |                0 |          241903 |                     0 |         96141 | 2017-02-08 23:52:09.264317+01

 2017-02-09 00:48:33.156889+01 | 1486597713.15689 |                 0 |              12 |                    25 |                   29 |               2194 |             0 |                0 |          241903 |                     0 |         96141 | 2017-02-08 23:52:09.264317+01

 2017-02-09 00:48:34.337305+01 | 1486597714.33731 |                 0 |              12 |                    25 |                   29 |               2194 |             0 |                0 |          241903 |                     0 |         96141 | 2017-02-08 23:52:09.264317+01

 2017-02-09 00:48:35.516471+01 | 1486597715.51647 |                 0 |              12 |                    25 |                   29 |               2194 |             0 |                0 |          241903 |                     0 |         96141 | 2017-02-08 23:52:09.264317+01

 2017-02-09 00:48:36.695651+01 | 1486597716.69565 |                 0 |              12 |                    25 |                   29 |               2194 |             0 |                0 |          241903 |                     0 |         96141 | 2017-02-08 23:52:09.264317+01

 2017-02-09 00:48:37.875507+01 | 1486597717.87551 |                 0 |              12 |                    25 |                   29 |               2194 |             0 |                0 |          241903 |                     0 |         96141 | 2017-02-08 23:52:09.264317+01

 2017-02-09 00:48:39.051562+01 | 1486597719.05156 |                 0 |              12 |                    25 |                   29 |               2194 |             0 |                0 |          241903 |                     0 |         96141 | 2017-02-08 23:52:09.264317+01

 2017-02-09 00:48:40.208669+01 | 1486597720.20867 |                 0 |              12 |                    25 |                   29 |               2194 |             0 |                0 |          241903 |                     0 |         96141 | 2017-02-08 23:52:09.264317+01

 2017-02-09 00:48:41.377023+01 | 1486597721.37702 |                 0 |              12 |                    25 |                   29 |               2194 |             0 |                0 |          241903 |                     0 |         96141 | 2017-02-08 23:52:09.264317+01

 2017-02-09 00:48:42.556313+01 | 1486597722.55631 |                 0 |              12 |                    25 |                   29 |               2194 |             0 |                0 |          241903 |                     0 |         96141 | 2017-02-08 23:52:09.264317+01

 2017-02-09 00:48:43.733633+01 | 1486597723.73363 |                 0 |              12 |                    25 |                   29 |               2194 |             0 |                0 |          241903 |                     0 |         96141 | 2017-02-08 23:52:09.264317+01

 2017-02-09 00:48:44.860378+01 | 1486597724.86038 |                 0 |              12 |                    25 |                   29 |               2194 |             0 |                0 |          241903 |                     0 |         96141 | 2017-02-08 23:52:09.264317+01

 2017-02-09 00:48:45.985836+01 | 1486597725.98584 |                 0 |              12 |                    25 |                   29 |               2194 |             0 |                0 |          241903 |                     0 |         96141 | 2017-02-08 23:52:09.264317+01

 2017-02-09 00:48:47.146744+01 | 1486597727.14674 |                 0 |              12 |                    25 |                   29 |               2194 |             0 |                0 |          241903 |                     0 |         96141 | 2017-02-08 23:52:09.264317+01

 2017-02-09 00:48:48.329047+01 | 1486597728.32905 |                 0 |              12 |                    25 |                   29 |               2194 |             0 |                0 |          241903 |                     0 |         96141 | 2017-02-08 23:52:09.264317+01

 2017-02-09 00:48:49.506474+01 | 1486597729.50647 |                 0 |              12 |                    25 |                   29 |               2194 |             0 |                0 |          241903 |                     0 |         96141 | 2017-02-08 23:52:09.264317+01

 2017-02-09 00:48:50.671066+01 | 1486597730.67107 |                 0 |              12 |                    25 |                   29 |               2194 |             0 |                0 |          241903 |                     0 |         96141 | 2017-02-08 23:52:09.264317+01

 2017-02-09 00:48:51.815166+01 | 1486597731.81517 |                 0 |              12 |                    25 |                   29 |               2194 |             0 |                0 |          241903 |                     0 |         96141 | 2017-02-08 23:52:09.264317+01

 2017-02-09 00:48:52.905844+01 | 1486597732.90584 |                 0 |              12 |                    25 |                   29 |               2194 |             0 |                0 |          241903 |                     0 |         96141 | 2017-02-08 23:52:09.264317+01

 2017-02-09 00:48:54.042574+01 | 1486597734.04257 |                 0 |              12 |                    25 |                   29 |               2194 |             0 |                0 |          241903 |                     0 |         96141 | 2017-02-08 23:52:09.264317+01

 2017-02-09 00:48:55.196026+01 | 1486597735.19603 |                 0 |              12 |                    25 |                   29 |               2194 |             0 |                0 |          241903 |                     0 |         96141 | 2017-02-08 23:52:09.264317+01

 2017-02-09 00:48:56.312242+01 | 1486597736.31224 |                 0 |              12 |                    25 |                   29 |               2194 |             0 |                0 |          241903 |                     0 |         96141 | 2017-02-08 23:52:09.264317+01

 2017-02-09 00:48:57.474698+01 | 1486597737.4747 |                 0 |              12 |                    25 |                   29 |               2194 |             0 |                0 |          241903 |                     0 |         96141 | 2017-02-08 23:52:09.264317+01

 2017-02-09 00:48:58.654486+01 | 1486597738.65449 |                 0 |              12 |                    25 |                   29 |               2194 |             0 |                0 |          241903 |                     0 |         96141 | 2017-02-08 23:52:09.264317+01

 2017-02-09 00:48:59.831556+01 | 1486597739.83156 |                 0 |              12 |                    25 |                   29 |               2194 |             0 |                0 |          241903 |                     0 |         96141 | 2017-02-08 23:52:09.264317+01

 2017-02-09 00:49:01.008552+01 | 1486597741.00855 |                 0 |              12 |                    25 |                   29 |               2194 |             0 |                0 |          241903 |                     0 |         96141 | 2017-02-08 23:52:09.264317+01

 2017-02-09 00:49:02.185403+01 | 1486597742.1854 |                 0 |              12 |                    25 |                   29 |               2194 |             0 |                0 |          241903 |                     0 |         96141 | 2017-02-08 23:52:09.264317+01

 2017-02-09 00:49:03.363279+01 | 1486597743.36328 |                 0 |              12 |                    25 |                   29 |               2194 |             0 |                0 |          241903 |                     0 |         96141 | 2017-02-08 23:52:09.264317+01

 2017-02-09 00:49:04.539573+01 | 1486597744.53957 |                 0 |              12 |                    25 |                   29 |               2194 |             0 |                0 |          241903 |                     0 |         96141 | 2017-02-08 23:52:09.264317+01

 2017-02-09 00:49:05.71978+01 | 1486597745.71978 |                 0 |              12 |                    25 |                   29 |               2194 |             0 |                0 |          241903 |                     0 |         96141 | 2017-02-08 23:52:09.264317+01

 2017-02-09 00:49:06.884762+01 | 1486597746.88476 |                 0 |              12 |                    25 |                   29 |               2194 |             0 |                0 |          241903 |                     0 |         96141 | 2017-02-08 23:52:09.264317+01

 2017-02-09 00:49:08.057575+01 | 1486597748.05757 |                 0 |              12 |                    25 |                   29 |               2194 |             0 |                0 |          241903 |                     0 |         96141 | 2017-02-08 23:52:09.264317+01

 2017-02-09 00:49:09.240401+01 | 1486597749.2404 |                 0 |              12 |                    25 |                   29 |               2194 |             0 |                0 |          241903 |                     0 |         96141 | 2017-02-08 23:52:09.264317+01

 2017-02-09 00:49:10.416805+01 | 1486597750.41681 |                 0 |              12 |                    25 |                   29 |               2194 |             0 |                0 |          241903 |                     0 |         96141 | 2017-02-08 23:52:09.264317+01

 2017-02-09 00:49:11.594747+01 | 1486597751.59475 |                 0 |              12 |                    25 |                   29 |               2194 |             0 |                0 |          241903 |                     0 |         96141 | 2017-02-08 23:52:09.264317+01

 2017-02-09 00:49:12.773596+01 | 1486597752.7736 |                 0 |              12 |                    25 |                   29 |               2194 |             0 |                0 |          241903 |                     0 |         96141 | 2017-02-08 23:52:09.264317+01

 2017-02-09 00:49:13.946323+01 | 1486597753.94632 |                 0 |              12 |                    25 |                   29 |               2194 |             0 |                0 |          241903 |                     0 |         96141 | 2017-02-08 23:52:09.264317+01

 2017-02-09 00:49:15.124249+01 | 1486597755.12425 |                 0 |              12 |                    25 |                   29 |               2194 |             0 |                0 |          241903 |                     0 |         96141 | 2017-02-08 23:52:09.264317+01

 2017-02-09 00:49:16.305433+01 | 1486597756.30543 |                 0 |              12 |                    25 |                   29 |               2194 |             0 |                0 |          241903 |                     0 |         96141 | 2017-02-08 23:52:09.264317+01

 2017-02-09 00:49:17.483941+01 | 1486597757.48394 |                 0 |              12 |                    25 |                   29 |               2194 |             0 |                0 |          241903 |                     0 |         96141 | 2017-02-08 23:52:09.264317+01

 2017-02-09 00:49:18.66327+01 | 1486597758.66327 |                 0 |              12 |                    25 |                   29 |               2194 |             0 |                0 |          241903 |                     0 |         96141 | 2017-02-08 23:52:09.264317+01

 2017-02-09 00:49:19.837995+01 | 1486597759.838 |                 0 |              12 |                    25 |                   29 |               2194 |             0 |                0 |          241903 |                     0 |         96141 | 2017-02-08 23:52:09.264317+01

 2017-02-09 00:49:21.014068+01 | 1486597761.01407 |                 0 |              12 |                    25 |                   29 |               2194 |             0 |                0 |          241903 |                     0 |         96141 | 2017-02-08 23:52:09.264317+01

 2017-02-09 00:49:22.189818+01 | 1486597762.18982 |                 0 |              12 |                    25 |                   29 |               2194 |             0 |                0 |          241903 |                     0 |         96141 | 2017-02-08 23:52:09.264317+01

 2017-02-09 00:49:23.368403+01 | 1486597763.3684 |                 0 |              12 |                    25 |                   29 |               2194 |             0 |                0 |          241903 |                     0 |         96141 | 2017-02-08 23:52:09.264317+01

 2017-02-09 00:49:24.541884+01 | 1486597764.54188 |                 0 |              12 |                    25 |                   29 |               2194 |             0 |                0 |          241903 |                     0 |         96141 | 2017-02-08 23:52:09.264317+01

 2017-02-09 00:49:25.681283+01 | 1486597765.68128 |                 0 |              12 |                    25 |                   29 |               2194 |             0 |                0 |          241903 |                     0 |         96141 | 2017-02-08 23:52:09.264317+01

 2017-02-09 00:49:26.837726+01 | 1486597766.83773 |                 0 |              12 |                    25 |                   29 |               2194 |             0 |                0 |          241903 |                     0 |         96141 | 2017-02-08 23:52:09.264317+01

 2017-02-09 00:49:28.016109+01 | 1486597768.01611 |                 0 |              12 |                    25 |                   29 |               2194 |             0 |                0 |          241903 |                     0 |         96141 | 2017-02-08 23:52:09.264317+01

 2017-02-09 00:49:29.192156+01 | 1486597769.19216 |                 0 |              12 |                    25 |                   29 |               2194 |             0 |                0 |          241903 |                     0 |         96141 | 2017-02-08 23:52:09.264317+01

 2017-02-09 00:49:30.371343+01 | 1486597770.37134 |                 0 |              12 |                    25 |                   29 |               2194 |             0 |                0 |          241903 |                     0 |         96141 | 2017-02-08 23:52:09.264317+01

 2017-02-09 00:49:31.516981+01 | 1486597771.51698 |                 0 |              12 |                    25 |                   29 |               2194 |             0 |                0 |          241903 |                     0 |         96141 | 2017-02-08 23:52:09.264317+01

 2017-02-09 00:49:32.620971+01 | 1486597772.62097 |                 0 |              12 |                    25 |                   29 |               2194 |             0 |                0 |          241903 |                     0 |         96141 | 2017-02-08 23:52:09.264317+01

 2017-02-09 00:49:33.770271+01 | 1486597773.77027 |                 0 |              12 |                    25 |                   29 |               2194 |             0 |                0 |          241903 |                     0 |         96141 | 2017-02-08 23:52:09.264317+01

 2017-02-09 00:49:34.842452+01 | 1486597774.84245 |                 0 |              12 |                    25 |                   29 |               2194 |             0 |                0 |          241903 |                     0 |         96141 | 2017-02-08 23:52:09.264317+01

 2017-02-09 00:49:36.008409+01 | 1486597776.00841 |                 0 |              12 |                    25 |                   29 |               2194 |             0 |                0 |          241903 |                     0 |         96141 | 2017-02-08 23:52:09.264317+01

 2017-02-09 00:49:37.18658+01 | 1486597777.18658 |                 0 |              12 |                    25 |                   29 |               2194 |             0 |                0 |          241903 |                     0 |         96141 | 2017-02-08 23:52:09.264317+01

 2017-02-09 00:49:38.36925+01 | 1486597778.36925 |                 0 |              12 |                    25 |                   29 |               2194 |             0 |                0 |          241903 |                     0 |         96141 | 2017-02-08 23:52:09.264317+01

 2017-02-09 00:49:39.547261+01 | 1486597779.54726 |                 0 |              12 |                    25 |                   29 |               2194 |             0 |                0 |          241903 |                     0 |         96141 | 2017-02-08 23:52:09.264317+01

 2017-02-09 00:49:40.721053+01 | 1486597780.72105 |                 0 |              12 |                    25 |                   29 |               2194 |             0 |                0 |          241903 |                     0 |         96141 | 2017-02-08 23:52:09.264317+01

 2017-02-09 00:49:41.899928+01 | 1486597781.89993 |                 0 |              12 |                    25 |                   29 |               2194 |             0 |                0 |          241903 |                     0 |         96141 | 2017-02-08 23:52:09.264317+01

 2017-02-09 00:49:43.077382+01 | 1486597783.07738 |                 0 |              12 |                    25 |                   29 |               2194 |             0 |                0 |          241903 |                     0 |         96141 | 2017-02-08 23:52:09.264317+01

 2017-02-09 00:49:44.255457+01 | 1486597784.25546 |                 0 |              12 |                    25 |                   29 |               2194 |             0 |                0 |          241903 |                     0 |         96141 | 2017-02-08 23:52:09.264317+01

 2017-02-09 00:49:45.435031+01 | 1486597785.43503 |                 0 |              12 |                    25 |                   29 |               2194 |             0 |                0 |          241903 |                     0 |         96141 | 2017-02-08 23:52:09.264317+01

 2017-02-09 00:49:46.609298+01 | 1486597786.6093 |                 0 |              12 |                    25 |                   29 |               2194 |             0 |                0 |          241903 |                     0 |         96141 | 2017-02-08 23:52:09.264317+01

 2017-02-09 00:49:47.787436+01 | 1486597787.78744 |                 0 |              12 |                    25 |                   29 |               2194 |             0 |                0 |          241903 |                     0 |         96141 | 2017-02-08 23:52:09.264317+01

 2017-02-09 00:49:48.966024+01 | 1486597788.96602 |                 0 |              12 |                    25 |                   29 |               2194 |             0 |                0 |          241903 |                     0 |         96141 | 2017-02-08 23:52:09.264317+01

 2017-02-09 00:49:50.142342+01 | 1486597790.14234 |                 0 |              12 |                    25 |                   29 |               2194 |             0 |                0 |          241903 |                     0 |         96141 | 2017-02-08 23:52:09.264317+01

 2017-02-09 00:49:51.321574+01 | 1486597791.32157 |                 0 |              12 |                    25 |                   29 |               2194 |             0 |                0 |          241903 |                     0 |         96141 | 2017-02-08 23:52:09.264317+01

 2017-02-09 00:49:52.499434+01 | 1486597792.49943 |                 0 |              12 |                    25 |                   29 |               2194 |             0 |                0 |          241903 |                     0 |         96141 | 2017-02-08 23:52:09.264317+01

 2017-02-09 00:49:53.666754+01 | 1486597793.66675 |                 0 |              12 |                    25 |                   29 |               2194 |             0 |                0 |          241903 |                     0 |         96141 | 2017-02-08 23:52:09.264317+01

 2017-02-09 00:49:54.845107+01 | 1486597794.84511 |                 0 |              12 |                    25 |                   29 |               2194 |             0 |                0 |          241903 |                     0 |         96141 | 2017-02-08 23:52:09.264317+01

 2017-02-09 00:49:56.021222+01 | 1486597796.02122 |                 0 |              12 |                    25 |                   29 |               2194 |             0 |                0 |          241903 |                     0 |         96141 | 2017-02-08 23:52:09.264317+01

 2017-02-09 00:49:57.201249+01 | 1486597797.20125 |                 0 |              12 |                    25 |                   29 |               2194 |             0 |                0 |          241903 |                     0 |         96141 | 2017-02-08 23:52:09.264317+01

 2017-02-09 00:49:58.379691+01 | 1486597798.37969 |                 0 |              12 |                    25 |                   29 |               2194 |             0 |                0 |          241903 |                     0 |         96141 | 2017-02-08 23:52:09.264317+01

 2017-02-09 00:49:59.559919+01 | 1486597799.55992 |                 0 |              12 |                    25 |                   29 |               2194 |             0 |                0 |          241903 |                     0 |         96141 | 2017-02-08 23:52:09.264317+01

 2017-02-09 00:50:00.726286+01 | 1486597800.72629 |                 0 |              12 |                    25 |                   29 |               2194 |             0 |                0 |          241903 |                     0 |         96141 | 2017-02-08 23:52:09.264317+01

 2017-02-09 00:50:01.872948+01 | 1486597801.87295 |                 0 |              12 |                    25 |                   29 |               2194 |             0 |                0 |          241903 |                     0 |         96141 | 2017-02-08 23:52:09.264317+01

 2017-02-09 00:50:03.007098+01 | 1486597803.0071 |                 0 |              12 |                    25 |                   29 |               2194 |             0 |                0 |          241903 |                     0 |         96141 | 2017-02-08 23:52:09.264317+01

 2017-02-09 00:50:04.174036+01 | 1486597804.17404 |                 0 |              12 |                    25 |                   29 |               2194 |             0 |                0 |          241903 |                     0 |         96141 | 2017-02-08 23:52:09.264317+01

 2017-02-09 00:50:05.352701+01 | 1486597805.3527 |                 0 |              12 |                    25 |                   29 |               2194 |             0 |                0 |          241903 |                     0 |         96141 | 2017-02-08 23:52:09.264317+01

 2017-02-09 00:50:06.528788+01 | 1486597806.52879 |                 0 |              12 |                    25 |                   29 |               2194 |             0 |                0 |          241903 |                     0 |         96141 | 2017-02-08 23:52:09.264317+01

 2017-02-09 00:50:07.70672+01 | 1486597807.70672 |                 0 |              12 |                    25 |                   29 |               2194 |             0 |                0 |          241903 |                     0 |         96141 | 2017-02-08 23:52:09.264317+01

 2017-02-09 00:50:08.881557+01 | 1486597808.88156 |                 0 |              12 |                    25 |                   29 |               2194 |             0 |                0 |          241903 |                     0 |         96141 | 2017-02-08 23:52:09.264317+01

 2017-02-09 00:50:10.059006+01 | 1486597810.05901 |                 0 |              12 |                    25 |                   29 |               2194 |             0 |                0 |          241903 |                     0 |         96141 | 2017-02-08 23:52:09.264317+01

 2017-02-09 00:50:11.236911+01 | 1486597811.23691 |                 0 |              12 |                    25 |                   29 |               2194 |             0 |                0 |          241903 |                     0 |         96141 | 2017-02-08 23:52:09.264317+01

 2017-02-09 00:50:12.415617+01 | 1486597812.41562 |                 0 |              12 |                    25 |                   29 |               2194 |             0 |                0 |          241903 |                     0 |         96141 | 2017-02-08 23:52:09.264317+01

 2017-02-09 00:50:13.593429+01 | 1486597813.59343 |                 0 |              12 |                    25 |                   29 |               2194 |             0 |                0 |          241903 |                     0 |         96141 | 2017-02-08 23:52:09.264317+01

 2017-02-09 00:50:14.774401+01 | 1486597814.7744 |                 0 |              12 |                    25 |                   29 |               2194 |             0 |                0 |          241903 |                     0 |         96141 | 2017-02-08 23:52:09.264317+01

 2017-02-09 00:50:15.953323+01 | 1486597815.95332 |                 0 |              12 |                    25 |                   29 |               2194 |             0 |                0 |          241903 |                     0 |         96141 | 2017-02-08 23:52:09.264317+01

 2017-02-09 00:50:17.134198+01 | 1486597817.1342 |                 0 |              12 |                    25 |                   29 |               2194 |             0 |                0 |          241903 |                     0 |         96141 | 2017-02-08 23:52:09.264317+01

 2017-02-09 00:50:18.310508+01 | 1486597818.31051 |                 0 |              12 |                    25 |                   29 |               2194 |             0 |                0 |          241903 |                     0 |         96141 | 2017-02-08 23:52:09.264317+01

 2017-02-09 00:50:19.470152+01 | 1486597819.47015 |                 0 |              12 |                    25 |                   29 |               2194 |             0 |                0 |          241903 |                     0 |         96141 | 2017-02-08 23:52:09.264317+01

 2017-02-09 00:50:20.634477+01 | 1486597820.63448 |                 0 |              12 |                    25 |                   29 |               2194 |             0 |                0 |          241903 |                     0 |         96141 | 2017-02-08 23:52:09.264317+01

 2017-02-09 00:50:21.813541+01 | 1486597821.81354 |                 0 |              12 |                    25 |                   29 |               2194 |             0 |                0 |          241903 |                     0 |         96141 | 2017-02-08 23:52:09.264317+01

 2017-02-09 00:50:22.996874+01 | 1486597822.99687 |                 0 |              12 |                    25 |                   29 |               2194 |             0 |                0 |          241903 |                     0 |         96141 | 2017-02-08 23:52:09.264317+01

 2017-02-09 00:50:24.173567+01 | 1486597824.17357 |                 0 |              12 |                    25 |                   29 |               2194 |             0 |                0 |          241903 |                     0 |         96141 | 2017-02-08 23:52:09.264317+01

 2017-02-09 00:50:25.348055+01 | 1486597825.34805 |                 0 |              12 |                    25 |                   29 |               2194 |             0 |                0 |          241903 |                     0 |         96141 | 2017-02-08 23:52:09.264317+01

 2017-02-09 00:50:26.525796+01 | 1486597826.5258 |                 0 |              12 |                    25 |                   29 |               2194 |             0 |                0 |          241903 |                     0 |         96141 | 2017-02-08 23:52:09.264317+01

 2017-02-09 00:50:27.6969+01 | 1486597827.6969 |                 0 |              12 |                    25 |                   29 |               2194 |             0 |                0 |          241903 |                     0 |         96141 | 2017-02-08 23:52:09.264317+01

 2017-02-09 00:50:28.872144+01 | 1486597828.87214 |                 0 |              12 |                    25 |                   29 |               2194 |             0 |                0 |          241903 |                     0 |         96141 | 2017-02-08 23:52:09.264317+01

 2017-02-09 00:50:30.05319+01 | 1486597830.05319 |                 0 |              12 |                    25 |                   29 |               2194 |             0 |                0 |          241903 |                     0 |         96141 | 2017-02-08 23:52:09.264317+01

 2017-02-09 00:50:31.219502+01 | 1486597831.2195 |                 0 |              12 |                    25 |                   29 |               2194 |             0 |                0 |          241903 |                     0 |         96141 | 2017-02-08 23:52:09.264317+01

 2017-02-09 00:50:32.339096+01 | 1486597832.3391 |                 0 |              12 |                    25 |                   29 |               2194 |             0 |                0 |          241903 |                     0 |         96141 | 2017-02-08 23:52:09.264317+01

 2017-02-09 00:50:33.496186+01 | 1486597833.49619 |                 0 |              12 |                    25 |                   29 |               2194 |             0 |                0 |          241903 |                     0 |         96141 | 2017-02-08 23:52:09.264317+01

 2017-02-09 00:50:34.645559+01 | 1486597834.64556 |                 0 |              12 |                    25 |                   29 |               2194 |             0 |                0 |          241903 |                     0 |         96141 | 2017-02-08 23:52:09.264317+01

 2017-02-09 00:50:35.819217+01 | 1486597835.81922 |                 0 |              12 |                    25 |                   29 |               2194 |             0 |                0 |          241903 |                     0 |         96141 | 2017-02-08 23:52:09.264317+01

 2017-02-09 00:50:36.943071+01 | 1486597836.94307 |                 0 |              12 |                    25 |                   29 |               2194 |             0 |                0 |          241903 |                     0 |         96141 | 2017-02-08 23:52:09.264317+01

 2017-02-09 00:50:38.111768+01 | 1486597838.11177 |                 0 |              12 |                    25 |                   29 |               2194 |             0 |                0 |          241903 |                     0 |         96141 | 2017-02-08 23:52:09.264317+01

 2017-02-09 00:50:39.290322+01 | 1486597839.29032 |                 0 |              12 |                    25 |                   29 |               2194 |             0 |                0 |          241903 |                     0 |         96141 | 2017-02-08 23:52:09.264317+01

 2017-02-09 00:50:40.469804+01 | 1486597840.4698 |                 0 |              12 |                    25 |                   29 |               2194 |             0 |                0 |          241903 |                     0 |         96141 | 2017-02-08 23:52:09.264317+01

 2017-02-09 00:50:41.645634+01 | 1486597841.64563 |                 0 |              12 |                    25 |                   29 |               2194 |             0 |                0 |          241903 |                     0 |         96141 | 2017-02-08 23:52:09.264317+01

 2017-02-09 00:50:42.824771+01 | 1486597842.82477 |                 0 |              12 |                    25 |                   29 |               2194 |             0 |                0 |          241903 |                     0 |         96141 | 2017-02-08 23:52:09.264317+01

 2017-02-09 00:50:44.003523+01 | 1486597844.00352 |                 0 |              12 |                    25 |                   29 |               2194 |             0 |                0 |          241903 |                     0 |         96141 | 2017-02-08 23:52:09.264317+01

 2017-02-09 00:50:45.177884+01 | 1486597845.17788 |                 0 |              12 |                    25 |                   29 |               2194 |             0 |                0 |          241903 |                     0 |         96141 | 2017-02-08 23:52:09.264317+01

 2017-02-09 00:50:46.357593+01 | 1486597846.35759 |                 0 |              12 |                    25 |                   29 |               2194 |             0 |                0 |          241903 |                     0 |         96141 | 2017-02-08 23:52:09.264317+01

 2017-02-09 00:50:47.532845+01 | 1486597847.53285 |                 0 |              12 |                    25 |                   29 |               2194 |             0 |                0 |          241903 |                     0 |         96141 | 2017-02-08 23:52:09.264317+01

 2017-02-09 00:50:48.710688+01 | 1486597848.71069 |                 0 |              12 |                    25 |                   29 |               2194 |             0 |                0 |          241903 |                     0 |         96141 | 2017-02-08 23:52:09.264317+01

 2017-02-09 00:50:49.889395+01 | 1486597849.88939 |                 0 |              12 |                    25 |                   29 |               2194 |             0 |                0 |          241903 |                     0 |         96141 | 2017-02-08 23:52:09.264317+01

 2017-02-09 00:50:51.064857+01 | 1486597851.06486 |                 0 |              12 |                    25 |                   29 |               2194 |             0 |                0 |          241903 |                     0 |         96141 | 2017-02-08 23:52:09.264317+01

 2017-02-09 00:50:52.240939+01 | 1486597852.24094 |                 0 |              12 |                    25 |                   29 |               2194 |             0 |                0 |          241903 |                     0 |         96141 | 2017-02-08 23:52:09.264317+01

 2017-02-09 00:50:53.403217+01 | 1486597853.40322 |                 0 |              12 |                    25 |                   29 |               2194 |             0 |                0 |          241903 |                     0 |         96141 | 2017-02-08 23:52:09.264317+01

 2017-02-09 00:50:54.568076+01 | 1486597854.56808 |                 0 |              12 |                    25 |                   29 |               2194 |             0 |                0 |          241903 |                     0 |         96141 | 2017-02-08 23:52:09.264317+01

 2017-02-09 00:50:55.710914+01 | 1486597855.71091 |                 0 |              12 |                    25 |                   29 |               2194 |             0 |                0 |          241903 |                     0 |         96141 | 2017-02-08 23:52:09.264317+01

 2017-02-09 00:50:56.855448+01 | 1486597856.85545 |                 0 |              12 |                    25 |                   29 |               2194 |             0 |                0 |          241903 |                     0 |         96141 | 2017-02-08 23:52:09.264317+01

 2017-02-09 00:50:58.0022+01 | 1486597858.0022 |                 0 |              12 |                    25 |                   29 |               2194 |             0 |                0 |          241903 |                     0 |         96141 | 2017-02-08 23:52:09.264317+01

 2017-02-09 00:50:59.115936+01 | 1486597859.11594 |                 0 |              12 |                    25 |                   29 |               2194 |             0 |                0 |          241903 |                     0 |         96141 | 2017-02-08 23:52:09.264317+01

 2017-02-09 00:51:00.259695+01 | 1486597860.2597 |                 0 |              12 |                    25 |                   29 |               2194 |             0 |                0 |          241903 |                     0 |         96141 | 2017-02-08 23:52:09.264317+01

 2017-02-09 00:51:01.403281+01 | 1486597861.40328 |                 0 |              12 |                    25 |                   29 |               2194 |             0 |                0 |          241903 |                     0 |         96141 | 2017-02-08 23:52:09.264317+01

 2017-02-09 00:51:02.57962+01 | 1486597862.57962 |                 0 |              12 |                    25 |                   29 |               2194 |             0 |                0 |          241903 |                     0 |         96141 | 2017-02-08 23:52:09.264317+01

 2017-02-09 00:51:03.75823+01 | 1486597863.75823 |                 0 |              12 |                    25 |                   29 |               2194 |             0 |                0 |          241903 |                     0 |         96141 | 2017-02-08 23:52:09.264317+01

 2017-02-09 00:51:04.935737+01 | 1486597864.93574 |                 0 |              12 |                    25 |                   29 |               2194 |             0 |                0 |          241903 |                     0 |         96141 | 2017-02-08 23:52:09.264317+01

 2017-02-09 00:51:06.113432+01 | 1486597866.11343 |                 0 |              12 |                    25 |                   29 |               2194 |             0 |                0 |          241903 |                     0 |         96141 | 2017-02-08 23:52:09.264317+01

 2017-02-09 00:51:07.29099+01 | 1486597867.29099 |                 0 |              12 |                    25 |                   29 |               2194 |             0 |                0 |          241903 |                     0 |         96141 | 2017-02-08 23:52:09.264317+01

 2017-02-09 00:51:08.474721+01 | 1486597868.47472 |                 0 |              12 |                    25 |                   29 |               2194 |             0 |                0 |          241903 |                     0 |         96141 | 2017-02-08 23:52:09.264317+01

 2017-02-09 00:51:09.653405+01 | 1486597869.6534 |                 0 |              12 |                    25 |                   29 |               2194 |             0 |                0 |          241903 |                     0 |         96141 | 2017-02-08 23:52:09.264317+01

 2017-02-09 00:51:10.81985+01 | 1486597870.81985 |                 0 |              12 |                    25 |                   29 |               2194 |             0 |                0 |          241903 |                     0 |         96141 | 2017-02-08 23:52:09.264317+01

 2017-02-09 00:51:11.978259+01 | 1486597871.97826 |                 0 |              12 |                    25 |                   29 |               2194 |             0 |                0 |          241903 |                     0 |         96141 | 2017-02-08 23:52:09.264317+01

 2017-02-09 00:51:13.148501+01 | 1486597873.1485 |                 0 |              12 |                    25 |                   29 |               2194 |             0 |                0 |          241903 |                     0 |         96141 | 2017-02-08 23:52:09.264317+01

 2017-02-09 00:51:14.318141+01 | 1486597874.31814 |                 0 |              12 |                    25 |                   29 |               2194 |             0 |                0 |          241903 |                     0 |         96141 | 2017-02-08 23:52:09.264317+01

 2017-02-09 00:51:15.502326+01 | 1486597875.50233 |                 0 |              12 |                    25 |                   29 |               2194 |             0 |                0 |          241903 |                     0 |         96141 | 2017-02-08 23:52:09.264317+01

 2017-02-09 00:51:16.68341+01 | 1486597876.68341 |                 0 |              12 |                    25 |                   29 |               2194 |             0 |                0 |          241903 |                     0 |         96141 | 2017-02-08 23:52:09.264317+01

 2017-02-09 00:51:17.85549+01 | 1486597877.85549 |                 0 |              12 |                    25 |                   29 |               2194 |             0 |                0 |          241903 |                     0 |         96141 | 2017-02-08 23:52:09.264317+01

 2017-02-09 00:51:19.009763+01 | 1486597879.00976 |                 0 |              12 |                    25 |                   29 |               2194 |             0 |                0 |          241903 |                     0 |         96141 | 2017-02-08 23:52:09.264317+01

 2017-02-09 00:51:20.15948+01 | 1486597880.15948 |                 0 |              12 |                    25 |                   29 |               2194 |             0 |                0 |          241903 |                     0 |         96141 | 2017-02-08 23:52:09.264317+01

 2017-02-09 00:51:21.335337+01 | 1486597881.33534 |                 0 |              12 |                    25 |                   29 |               2194 |             0 |                0 |          241903 |                     0 |         96141 | 2017-02-08 23:52:09.264317+01

 2017-02-09 00:51:22.510059+01 | 1486597882.51006 |                 0 |              12 |                    25 |                   29 |               2194 |             0 |                0 |          241903 |                     0 |         96141 | 2017-02-08 23:52:09.264317+01

 2017-02-09 00:51:23.685515+01 | 1486597883.68551 |                 0 |              12 |                    25 |                   29 |               2194 |             0 |                0 |          241903 |                     0 |         96141 | 2017-02-08 23:52:09.264317+01

 2017-02-09 00:51:24.86212+01 | 1486597884.86212 |                 0 |              12 |                    25 |                   29 |               2194 |             0 |                0 |          241903 |                     0 |         96141 | 2017-02-08 23:52:09.264317+01

 2017-02-09 00:51:26.041675+01 | 1486597886.04168 |                 0 |              12 |                    25 |                   29 |               2194 |             0 |                0 |          241903 |                     0 |         96141 | 2017-02-08 23:52:09.264317+01

 2017-02-09 00:51:27.219994+01 | 1486597887.21999 |                 0 |              12 |                    25 |                   29 |               2194 |             0 |                0 |          241903 |                     0 |         96141 | 2017-02-08 23:52:09.264317+01

 2017-02-09 00:51:28.398139+01 | 1486597888.39814 |                 0 |              12 |                    25 |                   29 |               2194 |             0 |                0 |          241903 |                     0 |         96141 | 2017-02-08 23:52:09.264317+01

 2017-02-09 00:51:29.575629+01 | 1486597889.57563 |                 0 |              12 |                    25 |                   29 |               2194 |             0 |                0 |          241903 |                     0 |         96141 | 2017-02-08 23:52:09.264317+01

 2017-02-09 00:51:30.753497+01 | 1486597890.7535 |                 0 |              12 |                    25 |                   29 |               2194 |             0 |                0 |          241903 |                     0 |         96141 | 2017-02-08 23:52:09.264317+01

 2017-02-09 00:51:31.931592+01 | 1486597891.93159 |                 0 |              12 |                    25 |                   29 |               2194 |             0 |                0 |          241903 |                     0 |         96141 | 2017-02-08 23:52:09.264317+01

 2017-02-09 00:51:33.110282+01 | 1486597893.11028 |                 0 |              12 |                    25 |                   29 |               2194 |             0 |                0 |          241903 |                     0 |         96141 | 2017-02-08 23:52:09.264317+01

 2017-02-09 00:51:34.270638+01 | 1486597894.27064 |                 0 |              12 |                    25 |                   29 |               2194 |             0 |                0 |          241903 |                     0 |         96141 | 2017-02-08 23:52:09.264317+01

 2017-02-09 00:51:35.442331+01 | 1486597895.44233 |                 0 |              12 |                    25 |                   29 |               2194 |             0 |                0 |          241903 |                     0 |         96141 | 2017-02-08 23:52:09.264317+01

 2017-02-09 00:51:36.620215+01 | 1486597896.62021 |                 0 |              12 |                    25 |                   29 |               2194 |             0 |                0 |          241903 |                     0 |         96141 | 2017-02-08 23:52:09.264317+01

 2017-02-09 00:51:37.787371+01 | 1486597897.78737 |                 0 |              12 |                    25 |                   29 |               2194 |             0 |                0 |          241903 |                     0 |         96141 | 2017-02-08 23:52:09.264317+01

 2017-02-09 00:51:38.960922+01 | 1486597898.96092 |                 0 |              12 |                    25 |                   29 |               2194 |             0 |                0 |          241903 |                     0 |         96141 | 2017-02-08 23:52:09.264317+01

 2017-02-09 00:51:40.141469+01 | 1486597900.14147 |                 0 |              12 |                    25 |                   29 |               2194 |             0 |                0 |          241903 |                     0 |         96141 | 2017-02-08 23:52:09.264317+01

 2017-02-09 00:51:41.293944+01 | 1486597901.29394 |                 0 |              12 |                    25 |                   29 |               2194 |             0 |                0 |          241903 |                     0 |         96141 | 2017-02-08 23:52:09.264317+01

 2017-02-09 00:51:42.476224+01 | 1486597902.47622 |                 0 |              12 |                    25 |                   29 |               2194 |             0 |                0 |          241903 |                     0 |         96141 | 2017-02-08 23:52:09.264317+01

 2017-02-09 00:51:43.656785+01 | 1486597903.65679 |                 0 |              12 |                    25 |                   29 |               2194 |             0 |                0 |          241903 |                     0 |         96141 | 2017-02-08 23:52:09.264317+01

 2017-02-09 00:51:44.833046+01 | 1486597904.83305 |                 0 |              12 |                    25 |                   29 |               2194 |             0 |                0 |          241903 |                     0 |         96141 | 2017-02-08 23:52:09.264317+01

 2017-02-09 00:51:46.011558+01 | 1486597906.01156 |                 0 |              12 |                    25 |                   29 |               2194 |             0 |                0 |          241903 |                     0 |         96141 | 2017-02-08 23:52:09.264317+01

 2017-02-09 00:51:47.186642+01 | 1486597907.18664 |                 0 |              12 |                    25 |                   29 |               2194 |             0 |                0 |          241903 |                     0 |         96141 | 2017-02-08 23:52:09.264317+01

 2017-02-09 00:51:48.36776+01 | 1486597908.36776 |                 0 |              12 |                    25 |                   29 |               2194 |             0 |                0 |          241903 |                     0 |         96141 | 2017-02-08 23:52:09.264317+01

 2017-02-09 00:51:49.543991+01 | 1486597909.54399 |                 0 |              12 |                    25 |                   29 |               2194 |             0 |                0 |          241903 |                     0 |         96141 | 2017-02-08 23:52:09.264317+01

 2017-02-09 00:51:50.721889+01 | 1486597910.72189 |                 0 |              12 |                    25 |                   29 |               2194 |             0 |                0 |          241903 |                     0 |         96141 | 2017-02-08 23:52:09.264317+01

 2017-02-09 00:51:51.89912+01 | 1486597911.89912 |                 0 |              12 |                    25 |                   29 |               2194 |             0 |                0 |          241903 |                     0 |         96141 | 2017-02-08 23:52:09.264317+01

 2017-02-09 00:51:53.075937+01 | 1486597913.07594 |                 0 |              12 |                    25 |                   29 |               2194 |             0 |                0 |          241903 |                     0 |         96141 | 2017-02-08 23:52:09.264317+01

 2017-02-09 00:51:54.253027+01 | 1486597914.25303 |                 0 |              12 |                    25 |                   29 |               2194 |             0 |                0 |          241903 |                     0 |         96141 | 2017-02-08 23:52:09.264317+01

 2017-02-09 00:51:55.431186+01 | 1486597915.43119 |                 0 |              12 |                    25 |                   29 |               2194 |             0 |                0 |          241903 |                     0 |         96141 | 2017-02-08 23:52:09.264317+01

 2017-02-09 00:51:56.609965+01 | 1486597916.60997 |                 0 |              12 |                    25 |                   29 |               2194 |             0 |                0 |          241903 |                     0 |         96141 | 2017-02-08 23:52:09.264317+01

 2017-02-09 00:51:57.788311+01 | 1486597917.78831 |                 0 |              12 |                    25 |                   29 |               2194 |             0 |                0 |          241903 |                     0 |         96141 | 2017-02-08 23:52:09.264317+01

 2017-02-09 00:51:58.966995+01 | 1486597918.967 |                 0 |              12 |                    25 |                   29 |               2194 |             0 |                0 |          241903 |                     0 |         96141 | 2017-02-08 23:52:09.264317+01

 2017-02-09 00:52:00.142963+01 | 1486597920.14296 |                 0 |              12 |                    25 |                   29 |               2194 |             0 |                0 |          241903 |                     0 |         96141 | 2017-02-08 23:52:09.264317+01

 2017-02-09 00:52:01.318669+01 | 1486597921.31867 |                 0 |              12 |                    25 |                   29 |               2194 |             0 |                0 |          241903 |                     0 |         96141 | 2017-02-08 23:52:09.264317+01

 2017-02-09 00:52:02.422493+01 | 1486597922.42249 |                 0 |              12 |                    25 |                   29 |               2194 |             0 |                0 |          241903 |                     0 |         96141 | 2017-02-08 23:52:09.264317+01

 2017-02-09 00:52:03.571419+01 | 1486597923.57142 |                 0 |              12 |                    25 |                   29 |               2194 |             0 |                0 |          241903 |                     0 |         96141 | 2017-02-08 23:52:09.264317+01

 2017-02-09 00:52:04.727494+01 | 1486597924.72749 |                 0 |              12 |                    25 |                   29 |               2194 |             0 |                0 |          241903 |                     0 |         96141 | 2017-02-08 23:52:09.264317+01

 2017-02-09 00:52:05.905581+01 | 1486597925.90558 |                 0 |              12 |                    25 |                   29 |               2194 |             0 |                0 |          241903 |                     0 |         96141 | 2017-02-08 23:52:09.264317+01

 2017-02-09 00:52:07.085188+01 | 1486597927.08519 |                 0 |              12 |                    25 |                   29 |               2194 |             0 |                0 |          241903 |                     0 |         96141 | 2017-02-08 23:52:09.264317+01

 2017-02-09 00:52:08.260459+01 | 1486597928.26046 |                 0 |              12 |                    25 |                   29 |               2194 |             0 |                0 |          241903 |                     0 |         96141 | 2017-02-08 23:52:09.264317+01

 2017-02-09 00:52:09.37717+01 | 1486597929.37717 |                 0 |              12 |                    25 |                   29 |               2194 |             0 |                0 |          241903 |                     0 |         96141 | 2017-02-08 23:52:09.264317+01

 2017-02-09 00:52:10.524734+01 | 1486597930.52473 |                 0 |              12 |                    25 |                   29 |               2194 |             0 |                0 |          241903 |                     0 |         96141 | 2017-02-08 23:52:09.264317+01

 2017-02-09 00:52:11.623212+01 | 1486597931.62321 |                 0 |              12 |                    25 |                   29 |               2194 |             0 |                0 |          241903 |                     0 |         96141 | 2017-02-08 23:52:09.264317+01

 2017-02-09 00:52:12.743952+01 | 1486597932.74395 |                 0 |              12 |                    25 |                   29 |               2194 |             0 |                0 |          241903 |                     0 |         96141 | 2017-02-08 23:52:09.264317+01

 2017-02-09 00:52:13.890583+01 | 1486597933.89058 |                 0 |              12 |                    25 |                   29 |               2194 |             0 |                0 |          241903 |                     0 |         96141 | 2017-02-08 23:52:09.264317+01

 2017-02-09 00:52:15.065824+01 | 1486597935.06582 |                 0 |              12 |                    25 |                   29 |               2194 |             0 |                0 |          241903 |                     0 |         96141 | 2017-02-08 23:52:09.264317+01

 2017-02-09 00:52:16.242187+01 | 1486597936.24219 |                 0 |              12 |                    25 |                   29 |               2194 |             0 |                0 |          241903 |                     0 |         96141 | 2017-02-08 23:52:09.264317+01

 2017-02-09 00:52:17.420858+01 | 1486597937.42086 |                 0 |              12 |                    25 |                   29 |               2194 |             0 |                0 |          241903 |                     0 |         96141 | 2017-02-08 23:52:09.264317+01

 2017-02-09 00:52:18.601235+01 | 1486597938.60123 |                 0 |              12 |                    25 |                   29 |               2194 |             0 |                0 |          241903 |                     0 |         96141 | 2017-02-08 23:52:09.264317+01

 2017-02-09 00:52:19.779236+01 | 1486597939.77924 |                 0 |              12 |                    25 |                   29 |               2194 |             0 |                0 |          241903 |                     0 |         96141 | 2017-02-08 23:52:09.264317+01

