 2017-02-08 19:44:22.164106+01 | 1486579462.16411 | pgbench_branches_pkey |            16384
 2017-02-08 19:44:22.164106+01 | 1486579462.16411 | pgbench_tellers_pkey  |            90112
 2017-02-08 19:44:22.164106+01 | 1486579462.16411 | pgbench_accounts_pkey |        673882112

 2017-02-08 19:44:23.218755+01 | 1486579463.21876 | pgbench_branches_pkey |            16384
 2017-02-08 19:44:23.218755+01 | 1486579463.21876 | pgbench_tellers_pkey  |            90112
 2017-02-08 19:44:23.218755+01 | 1486579463.21876 | pgbench_accounts_pkey |        673882112

 2017-02-08 19:44:24.275288+01 | 1486579464.27529 | pgbench_branches_pkey |            16384
 2017-02-08 19:44:24.275288+01 | 1486579464.27529 | pgbench_tellers_pkey  |            90112
 2017-02-08 19:44:24.275288+01 | 1486579464.27529 | pgbench_accounts_pkey |        673882112

 2017-02-08 19:44:25.342515+01 | 1486579465.34251 | pgbench_branches_pkey |            16384
 2017-02-08 19:44:25.342515+01 | 1486579465.34251 | pgbench_tellers_pkey  |            90112
 2017-02-08 19:44:25.342515+01 | 1486579465.34251 | pgbench_accounts_pkey |        673882112

 2017-02-08 19:44:26.407318+01 | 1486579466.40732 | pgbench_branches_pkey |            16384
 2017-02-08 19:44:26.407318+01 | 1486579466.40732 | pgbench_tellers_pkey  |            90112
 2017-02-08 19:44:26.407318+01 | 1486579466.40732 | pgbench_accounts_pkey |        673882112

 2017-02-08 19:44:27.463672+01 | 1486579467.46367 | pgbench_branches_pkey |            16384
 2017-02-08 19:44:27.463672+01 | 1486579467.46367 | pgbench_tellers_pkey  |            90112
 2017-02-08 19:44:27.463672+01 | 1486579467.46367 | pgbench_accounts_pkey |        673882112

 2017-02-08 19:44:28.521217+01 | 1486579468.52122 | pgbench_branches_pkey |            16384
 2017-02-08 19:44:28.521217+01 | 1486579468.52122 | pgbench_tellers_pkey  |            90112
 2017-02-08 19:44:28.521217+01 | 1486579468.52122 | pgbench_accounts_pkey |        673882112

 2017-02-08 19:44:29.578562+01 | 1486579469.57856 | pgbench_branches_pkey |            16384
 2017-02-08 19:44:29.578562+01 | 1486579469.57856 | pgbench_tellers_pkey  |            90112
 2017-02-08 19:44:29.578562+01 | 1486579469.57856 | pgbench_accounts_pkey |        673882112

 2017-02-08 19:44:30.636018+01 | 1486579470.63602 | pgbench_branches_pkey |            16384
 2017-02-08 19:44:30.636018+01 | 1486579470.63602 | pgbench_tellers_pkey  |            90112
 2017-02-08 19:44:30.636018+01 | 1486579470.63602 | pgbench_accounts_pkey |        673882112

 2017-02-08 19:44:31.701858+01 | 1486579471.70186 | pgbench_branches_pkey |            16384
 2017-02-08 19:44:31.701858+01 | 1486579471.70186 | pgbench_tellers_pkey  |            90112
 2017-02-08 19:44:31.701858+01 | 1486579471.70186 | pgbench_accounts_pkey |        673882112

 2017-02-08 19:44:32.767311+01 | 1486579472.76731 | pgbench_branches_pkey |            16384
 2017-02-08 19:44:32.767311+01 | 1486579472.76731 | pgbench_tellers_pkey  |            90112
 2017-02-08 19:44:32.767311+01 | 1486579472.76731 | pgbench_accounts_pkey |        673882112

 2017-02-08 19:44:33.839047+01 | 1486579473.83905 | pgbench_branches_pkey |            16384
 2017-02-08 19:44:33.839047+01 | 1486579473.83905 | pgbench_tellers_pkey  |            90112
 2017-02-08 19:44:33.839047+01 | 1486579473.83905 | pgbench_accounts_pkey |        673882112

 2017-02-08 19:44:34.892019+01 | 1486579474.89202 | pgbench_branches_pkey |            16384
 2017-02-08 19:44:34.892019+01 | 1486579474.89202 | pgbench_tellers_pkey  |            90112
 2017-02-08 19:44:34.892019+01 | 1486579474.89202 | pgbench_accounts_pkey |        673882112

 2017-02-08 19:44:35.960022+01 | 1486579475.96002 | pgbench_branches_pkey |            16384
 2017-02-08 19:44:35.960022+01 | 1486579475.96002 | pgbench_tellers_pkey  |            90112
 2017-02-08 19:44:35.960022+01 | 1486579475.96002 | pgbench_accounts_pkey |        673882112

 2017-02-08 19:44:37.015457+01 | 1486579477.01546 | pgbench_branches_pkey |            16384
 2017-02-08 19:44:37.015457+01 | 1486579477.01546 | pgbench_tellers_pkey  |            90112
 2017-02-08 19:44:37.015457+01 | 1486579477.01546 | pgbench_accounts_pkey |        673882112

 2017-02-08 19:44:38.074315+01 | 1486579478.07432 | pgbench_branches_pkey |            16384
 2017-02-08 19:44:38.074315+01 | 1486579478.07432 | pgbench_tellers_pkey  |            90112
 2017-02-08 19:44:38.074315+01 | 1486579478.07432 | pgbench_accounts_pkey |        673882112

 2017-02-08 19:44:39.138531+01 | 1486579479.13853 | pgbench_branches_pkey |            16384
 2017-02-08 19:44:39.138531+01 | 1486579479.13853 | pgbench_tellers_pkey  |            90112
 2017-02-08 19:44:39.138531+01 | 1486579479.13853 | pgbench_accounts_pkey |        673882112

 2017-02-08 19:44:40.197025+01 | 1486579480.19703 | pgbench_branches_pkey |            16384
 2017-02-08 19:44:40.197025+01 | 1486579480.19703 | pgbench_tellers_pkey  |            90112
 2017-02-08 19:44:40.197025+01 | 1486579480.19703 | pgbench_accounts_pkey |        673882112

 2017-02-08 19:44:41.261177+01 | 1486579481.26118 | pgbench_branches_pkey |            16384
 2017-02-08 19:44:41.261177+01 | 1486579481.26118 | pgbench_tellers_pkey  |            90112
 2017-02-08 19:44:41.261177+01 | 1486579481.26118 | pgbench_accounts_pkey |        673882112

 2017-02-08 19:44:42.321844+01 | 1486579482.32184 | pgbench_branches_pkey |            16384
 2017-02-08 19:44:42.321844+01 | 1486579482.32184 | pgbench_tellers_pkey  |            90112
 2017-02-08 19:44:42.321844+01 | 1486579482.32184 | pgbench_accounts_pkey |        673882112

 2017-02-08 19:44:43.389427+01 | 1486579483.38943 | pgbench_branches_pkey |            16384
 2017-02-08 19:44:43.389427+01 | 1486579483.38943 | pgbench_tellers_pkey  |            90112
 2017-02-08 19:44:43.389427+01 | 1486579483.38943 | pgbench_accounts_pkey |        673882112

 2017-02-08 19:44:44.457461+01 | 1486579484.45746 | pgbench_branches_pkey |            16384
 2017-02-08 19:44:44.457461+01 | 1486579484.45746 | pgbench_tellers_pkey  |            90112
 2017-02-08 19:44:44.457461+01 | 1486579484.45746 | pgbench_accounts_pkey |        673882112

 2017-02-08 19:44:45.522271+01 | 1486579485.52227 | pgbench_branches_pkey |            16384
 2017-02-08 19:44:45.522271+01 | 1486579485.52227 | pgbench_tellers_pkey  |            90112
 2017-02-08 19:44:45.522271+01 | 1486579485.52227 | pgbench_accounts_pkey |        673882112

 2017-02-08 19:44:46.595762+01 | 1486579486.59576 | pgbench_branches_pkey |            16384
 2017-02-08 19:44:46.595762+01 | 1486579486.59576 | pgbench_tellers_pkey  |            90112
 2017-02-08 19:44:46.595762+01 | 1486579486.59576 | pgbench_accounts_pkey |        673882112

 2017-02-08 19:44:47.661629+01 | 1486579487.66163 | pgbench_branches_pkey |            16384
 2017-02-08 19:44:47.661629+01 | 1486579487.66163 | pgbench_tellers_pkey  |            90112
 2017-02-08 19:44:47.661629+01 | 1486579487.66163 | pgbench_accounts_pkey |        673882112

 2017-02-08 19:44:48.738482+01 | 1486579488.73848 | pgbench_branches_pkey |            16384
 2017-02-08 19:44:48.738482+01 | 1486579488.73848 | pgbench_tellers_pkey  |            90112
 2017-02-08 19:44:48.738482+01 | 1486579488.73848 | pgbench_accounts_pkey |        673882112

 2017-02-08 19:44:49.801469+01 | 1486579489.80147 | pgbench_branches_pkey |            16384
 2017-02-08 19:44:49.801469+01 | 1486579489.80147 | pgbench_tellers_pkey  |            90112
 2017-02-08 19:44:49.801469+01 | 1486579489.80147 | pgbench_accounts_pkey |        673882112

 2017-02-08 19:44:50.860471+01 | 1486579490.86047 | pgbench_branches_pkey |            16384
 2017-02-08 19:44:50.860471+01 | 1486579490.86047 | pgbench_tellers_pkey  |            90112
 2017-02-08 19:44:50.860471+01 | 1486579490.86047 | pgbench_accounts_pkey |        673882112

 2017-02-08 19:44:51.927685+01 | 1486579491.92769 | pgbench_branches_pkey |            16384
 2017-02-08 19:44:51.927685+01 | 1486579491.92769 | pgbench_tellers_pkey  |            90112
 2017-02-08 19:44:51.927685+01 | 1486579491.92769 | pgbench_accounts_pkey |        673882112

 2017-02-08 19:44:52.998652+01 | 1486579492.99865 | pgbench_branches_pkey |            16384
 2017-02-08 19:44:52.998652+01 | 1486579492.99865 | pgbench_tellers_pkey  |            90112
 2017-02-08 19:44:52.998652+01 | 1486579492.99865 | pgbench_accounts_pkey |        673882112

 2017-02-08 19:44:54.055585+01 | 1486579494.05558 | pgbench_branches_pkey |            16384
 2017-02-08 19:44:54.055585+01 | 1486579494.05558 | pgbench_tellers_pkey  |            90112
 2017-02-08 19:44:54.055585+01 | 1486579494.05558 | pgbench_accounts_pkey |        673882112

 2017-02-08 19:44:55.121611+01 | 1486579495.12161 | pgbench_branches_pkey |            16384
 2017-02-08 19:44:55.121611+01 | 1486579495.12161 | pgbench_tellers_pkey  |            90112
 2017-02-08 19:44:55.121611+01 | 1486579495.12161 | pgbench_accounts_pkey |        673882112

 2017-02-08 19:44:56.188843+01 | 1486579496.18884 | pgbench_branches_pkey |            16384
 2017-02-08 19:44:56.188843+01 | 1486579496.18884 | pgbench_tellers_pkey  |            90112
 2017-02-08 19:44:56.188843+01 | 1486579496.18884 | pgbench_accounts_pkey |        673882112

 2017-02-08 19:44:57.247991+01 | 1486579497.24799 | pgbench_branches_pkey |            16384
 2017-02-08 19:44:57.247991+01 | 1486579497.24799 | pgbench_tellers_pkey  |            90112
 2017-02-08 19:44:57.247991+01 | 1486579497.24799 | pgbench_accounts_pkey |        673882112

 2017-02-08 19:44:58.31065+01 | 1486579498.31065 | pgbench_branches_pkey |            16384
 2017-02-08 19:44:58.31065+01 | 1486579498.31065 | pgbench_tellers_pkey  |            90112
 2017-02-08 19:44:58.31065+01 | 1486579498.31065 | pgbench_accounts_pkey |        673882112

 2017-02-08 19:44:59.376774+01 | 1486579499.37677 | pgbench_branches_pkey |            16384
 2017-02-08 19:44:59.376774+01 | 1486579499.37677 | pgbench_tellers_pkey  |            90112
 2017-02-08 19:44:59.376774+01 | 1486579499.37677 | pgbench_accounts_pkey |        673882112

 2017-02-08 19:45:00.445055+01 | 1486579500.44506 | pgbench_branches_pkey |            16384
 2017-02-08 19:45:00.445055+01 | 1486579500.44506 | pgbench_tellers_pkey  |            90112
 2017-02-08 19:45:00.445055+01 | 1486579500.44506 | pgbench_accounts_pkey |        673882112

 2017-02-08 19:45:01.514688+01 | 1486579501.51469 | pgbench_branches_pkey |            16384
 2017-02-08 19:45:01.514688+01 | 1486579501.51469 | pgbench_tellers_pkey  |            90112
 2017-02-08 19:45:01.514688+01 | 1486579501.51469 | pgbench_accounts_pkey |        673882112

 2017-02-08 19:45:02.572741+01 | 1486579502.57274 | pgbench_branches_pkey |            16384
 2017-02-08 19:45:02.572741+01 | 1486579502.57274 | pgbench_tellers_pkey  |            90112
 2017-02-08 19:45:02.572741+01 | 1486579502.57274 | pgbench_accounts_pkey |        673882112

 2017-02-08 19:45:03.637249+01 | 1486579503.63725 | pgbench_branches_pkey |            16384
 2017-02-08 19:45:03.637249+01 | 1486579503.63725 | pgbench_tellers_pkey  |            90112
 2017-02-08 19:45:03.637249+01 | 1486579503.63725 | pgbench_accounts_pkey |        673882112

 2017-02-08 19:45:04.699301+01 | 1486579504.6993 | pgbench_branches_pkey |            16384
 2017-02-08 19:45:04.699301+01 | 1486579504.6993 | pgbench_tellers_pkey  |            90112
 2017-02-08 19:45:04.699301+01 | 1486579504.6993 | pgbench_accounts_pkey |        673882112

 2017-02-08 19:45:05.759469+01 | 1486579505.75947 | pgbench_branches_pkey |            16384
 2017-02-08 19:45:05.759469+01 | 1486579505.75947 | pgbench_tellers_pkey  |            90112
 2017-02-08 19:45:05.759469+01 | 1486579505.75947 | pgbench_accounts_pkey |        673882112

 2017-02-08 19:45:06.826154+01 | 1486579506.82615 | pgbench_branches_pkey |            16384
 2017-02-08 19:45:06.826154+01 | 1486579506.82615 | pgbench_tellers_pkey  |            90112
 2017-02-08 19:45:06.826154+01 | 1486579506.82615 | pgbench_accounts_pkey |        673882112

 2017-02-08 19:45:07.887029+01 | 1486579507.88703 | pgbench_branches_pkey |            16384
 2017-02-08 19:45:07.887029+01 | 1486579507.88703 | pgbench_tellers_pkey  |            90112
 2017-02-08 19:45:07.887029+01 | 1486579507.88703 | pgbench_accounts_pkey |        673882112

 2017-02-08 19:45:08.949677+01 | 1486579508.94968 | pgbench_branches_pkey |            16384
 2017-02-08 19:45:08.949677+01 | 1486579508.94968 | pgbench_tellers_pkey  |            90112
 2017-02-08 19:45:08.949677+01 | 1486579508.94968 | pgbench_accounts_pkey |        673882112

 2017-02-08 19:45:10.016171+01 | 1486579510.01617 | pgbench_branches_pkey |            16384
 2017-02-08 19:45:10.016171+01 | 1486579510.01617 | pgbench_tellers_pkey  |            90112
 2017-02-08 19:45:10.016171+01 | 1486579510.01617 | pgbench_accounts_pkey |        673882112

 2017-02-08 19:45:11.07797+01 | 1486579511.07797 | pgbench_branches_pkey |            16384
 2017-02-08 19:45:11.07797+01 | 1486579511.07797 | pgbench_tellers_pkey  |            90112
 2017-02-08 19:45:11.07797+01 | 1486579511.07797 | pgbench_accounts_pkey |        673882112

 2017-02-08 19:45:12.13428+01 | 1486579512.13428 | pgbench_branches_pkey |            16384
 2017-02-08 19:45:12.13428+01 | 1486579512.13428 | pgbench_tellers_pkey  |            90112
 2017-02-08 19:45:12.13428+01 | 1486579512.13428 | pgbench_accounts_pkey |        673882112

 2017-02-08 19:45:13.197404+01 | 1486579513.1974 | pgbench_branches_pkey |            16384
 2017-02-08 19:45:13.197404+01 | 1486579513.1974 | pgbench_tellers_pkey  |            90112
 2017-02-08 19:45:13.197404+01 | 1486579513.1974 | pgbench_accounts_pkey |        673882112

 2017-02-08 19:45:14.258878+01 | 1486579514.25888 | pgbench_branches_pkey |            16384
 2017-02-08 19:45:14.258878+01 | 1486579514.25888 | pgbench_tellers_pkey  |            90112
 2017-02-08 19:45:14.258878+01 | 1486579514.25888 | pgbench_accounts_pkey |        673882112

 2017-02-08 19:45:15.320177+01 | 1486579515.32018 | pgbench_branches_pkey |            16384
 2017-02-08 19:45:15.320177+01 | 1486579515.32018 | pgbench_tellers_pkey  |            90112
 2017-02-08 19:45:15.320177+01 | 1486579515.32018 | pgbench_accounts_pkey |        673882112

 2017-02-08 19:45:16.38334+01 | 1486579516.38334 | pgbench_branches_pkey |            16384
 2017-02-08 19:45:16.38334+01 | 1486579516.38334 | pgbench_tellers_pkey  |            90112
 2017-02-08 19:45:16.38334+01 | 1486579516.38334 | pgbench_accounts_pkey |        673882112

 2017-02-08 19:45:17.447115+01 | 1486579517.44711 | pgbench_branches_pkey |            16384
 2017-02-08 19:45:17.447115+01 | 1486579517.44711 | pgbench_tellers_pkey  |            90112
 2017-02-08 19:45:17.447115+01 | 1486579517.44711 | pgbench_accounts_pkey |        673882112

 2017-02-08 19:45:18.515878+01 | 1486579518.51588 | pgbench_branches_pkey |            16384
 2017-02-08 19:45:18.515878+01 | 1486579518.51588 | pgbench_tellers_pkey  |            90112
 2017-02-08 19:45:18.515878+01 | 1486579518.51588 | pgbench_accounts_pkey |        673882112

 2017-02-08 19:45:19.574919+01 | 1486579519.57492 | pgbench_branches_pkey |            16384
 2017-02-08 19:45:19.574919+01 | 1486579519.57492 | pgbench_tellers_pkey  |            90112
 2017-02-08 19:45:19.574919+01 | 1486579519.57492 | pgbench_accounts_pkey |        673882112

 2017-02-08 19:45:20.653212+01 | 1486579520.65321 | pgbench_branches_pkey |            16384
 2017-02-08 19:45:20.653212+01 | 1486579520.65321 | pgbench_tellers_pkey  |            90112
 2017-02-08 19:45:20.653212+01 | 1486579520.65321 | pgbench_accounts_pkey |        673882112

 2017-02-08 19:45:21.710927+01 | 1486579521.71093 | pgbench_branches_pkey |            16384
 2017-02-08 19:45:21.710927+01 | 1486579521.71093 | pgbench_tellers_pkey  |            90112
 2017-02-08 19:45:21.710927+01 | 1486579521.71093 | pgbench_accounts_pkey |        673882112

 2017-02-08 19:45:22.779111+01 | 1486579522.77911 | pgbench_branches_pkey |            16384
 2017-02-08 19:45:22.779111+01 | 1486579522.77911 | pgbench_tellers_pkey  |            90112
 2017-02-08 19:45:22.779111+01 | 1486579522.77911 | pgbench_accounts_pkey |        673882112

 2017-02-08 19:45:23.840638+01 | 1486579523.84064 | pgbench_branches_pkey |            16384
 2017-02-08 19:45:23.840638+01 | 1486579523.84064 | pgbench_tellers_pkey  |            90112
 2017-02-08 19:45:23.840638+01 | 1486579523.84064 | pgbench_accounts_pkey |        673882112

 2017-02-08 19:45:24.904249+01 | 1486579524.90425 | pgbench_branches_pkey |            16384
 2017-02-08 19:45:24.904249+01 | 1486579524.90425 | pgbench_tellers_pkey  |            90112
 2017-02-08 19:45:24.904249+01 | 1486579524.90425 | pgbench_accounts_pkey |        673882112

 2017-02-08 19:45:25.965485+01 | 1486579525.96549 | pgbench_branches_pkey |            16384
 2017-02-08 19:45:25.965485+01 | 1486579525.96549 | pgbench_tellers_pkey  |            90112
 2017-02-08 19:45:25.965485+01 | 1486579525.96549 | pgbench_accounts_pkey |        673882112

 2017-02-08 19:45:27.030944+01 | 1486579527.03094 | pgbench_branches_pkey |            16384
 2017-02-08 19:45:27.030944+01 | 1486579527.03094 | pgbench_tellers_pkey  |            90112
 2017-02-08 19:45:27.030944+01 | 1486579527.03094 | pgbench_accounts_pkey |        673882112

 2017-02-08 19:45:28.093482+01 | 1486579528.09348 | pgbench_branches_pkey |            16384
 2017-02-08 19:45:28.093482+01 | 1486579528.09348 | pgbench_tellers_pkey  |            90112
 2017-02-08 19:45:28.093482+01 | 1486579528.09348 | pgbench_accounts_pkey |        673882112

 2017-02-08 19:45:29.147269+01 | 1486579529.14727 | pgbench_branches_pkey |            16384
 2017-02-08 19:45:29.147269+01 | 1486579529.14727 | pgbench_tellers_pkey  |            90112
 2017-02-08 19:45:29.147269+01 | 1486579529.14727 | pgbench_accounts_pkey |        673882112

 2017-02-08 19:45:30.211567+01 | 1486579530.21157 | pgbench_branches_pkey |            16384
 2017-02-08 19:45:30.211567+01 | 1486579530.21157 | pgbench_tellers_pkey  |            90112
 2017-02-08 19:45:30.211567+01 | 1486579530.21157 | pgbench_accounts_pkey |        673882112

 2017-02-08 19:45:31.275344+01 | 1486579531.27534 | pgbench_branches_pkey |            16384
 2017-02-08 19:45:31.275344+01 | 1486579531.27534 | pgbench_tellers_pkey  |            90112
 2017-02-08 19:45:31.275344+01 | 1486579531.27534 | pgbench_accounts_pkey |        673882112

 2017-02-08 19:45:32.341019+01 | 1486579532.34102 | pgbench_branches_pkey |            16384
 2017-02-08 19:45:32.341019+01 | 1486579532.34102 | pgbench_tellers_pkey  |            90112
 2017-02-08 19:45:32.341019+01 | 1486579532.34102 | pgbench_accounts_pkey |        673882112

 2017-02-08 19:45:33.413069+01 | 1486579533.41307 | pgbench_branches_pkey |            16384
 2017-02-08 19:45:33.413069+01 | 1486579533.41307 | pgbench_tellers_pkey  |            90112
 2017-02-08 19:45:33.413069+01 | 1486579533.41307 | pgbench_accounts_pkey |        673882112

 2017-02-08 19:45:34.475904+01 | 1486579534.4759 | pgbench_branches_pkey |            16384
 2017-02-08 19:45:34.475904+01 | 1486579534.4759 | pgbench_tellers_pkey  |            90112
 2017-02-08 19:45:34.475904+01 | 1486579534.4759 | pgbench_accounts_pkey |        673882112

 2017-02-08 19:45:35.531289+01 | 1486579535.53129 | pgbench_branches_pkey |            16384
 2017-02-08 19:45:35.531289+01 | 1486579535.53129 | pgbench_tellers_pkey  |            90112
 2017-02-08 19:45:35.531289+01 | 1486579535.53129 | pgbench_accounts_pkey |        673882112

 2017-02-08 19:45:36.604747+01 | 1486579536.60475 | pgbench_branches_pkey |            16384
 2017-02-08 19:45:36.604747+01 | 1486579536.60475 | pgbench_tellers_pkey  |            90112
 2017-02-08 19:45:36.604747+01 | 1486579536.60475 | pgbench_accounts_pkey |        673882112

 2017-02-08 19:45:37.673317+01 | 1486579537.67332 | pgbench_branches_pkey |            16384
 2017-02-08 19:45:37.673317+01 | 1486579537.67332 | pgbench_tellers_pkey  |            90112
 2017-02-08 19:45:37.673317+01 | 1486579537.67332 | pgbench_accounts_pkey |        673882112

 2017-02-08 19:45:38.735997+01 | 1486579538.736 | pgbench_branches_pkey |            16384
 2017-02-08 19:45:38.735997+01 | 1486579538.736 | pgbench_tellers_pkey  |            90112
 2017-02-08 19:45:38.735997+01 | 1486579538.736 | pgbench_accounts_pkey |        673882112

 2017-02-08 19:45:39.810574+01 | 1486579539.81057 | pgbench_branches_pkey |            16384
 2017-02-08 19:45:39.810574+01 | 1486579539.81057 | pgbench_tellers_pkey  |            90112
 2017-02-08 19:45:39.810574+01 | 1486579539.81057 | pgbench_accounts_pkey |        673882112

 2017-02-08 19:45:40.878493+01 | 1486579540.87849 | pgbench_branches_pkey |            16384
 2017-02-08 19:45:40.878493+01 | 1486579540.87849 | pgbench_tellers_pkey  |            90112
 2017-02-08 19:45:40.878493+01 | 1486579540.87849 | pgbench_accounts_pkey |        673882112

 2017-02-08 19:45:41.952571+01 | 1486579541.95257 | pgbench_branches_pkey |            16384
 2017-02-08 19:45:41.952571+01 | 1486579541.95257 | pgbench_tellers_pkey  |            90112
 2017-02-08 19:45:41.952571+01 | 1486579541.95257 | pgbench_accounts_pkey |        673882112

 2017-02-08 19:45:43.019998+01 | 1486579543.02 | pgbench_branches_pkey |            16384
 2017-02-08 19:45:43.019998+01 | 1486579543.02 | pgbench_tellers_pkey  |            90112
 2017-02-08 19:45:43.019998+01 | 1486579543.02 | pgbench_accounts_pkey |        673882112

 2017-02-08 19:45:44.080324+01 | 1486579544.08032 | pgbench_branches_pkey |            16384
 2017-02-08 19:45:44.080324+01 | 1486579544.08032 | pgbench_tellers_pkey  |            90112
 2017-02-08 19:45:44.080324+01 | 1486579544.08032 | pgbench_accounts_pkey |        673882112

 2017-02-08 19:45:45.142625+01 | 1486579545.14263 | pgbench_branches_pkey |            16384
 2017-02-08 19:45:45.142625+01 | 1486579545.14263 | pgbench_tellers_pkey  |            90112
 2017-02-08 19:45:45.142625+01 | 1486579545.14263 | pgbench_accounts_pkey |        673882112

 2017-02-08 19:45:46.226285+01 | 1486579546.22628 | pgbench_branches_pkey |            16384
 2017-02-08 19:45:46.226285+01 | 1486579546.22628 | pgbench_tellers_pkey  |            90112
 2017-02-08 19:45:46.226285+01 | 1486579546.22628 | pgbench_accounts_pkey |        673882112

 2017-02-08 19:45:47.282188+01 | 1486579547.28219 | pgbench_branches_pkey |            16384
 2017-02-08 19:45:47.282188+01 | 1486579547.28219 | pgbench_tellers_pkey  |            90112
 2017-02-08 19:45:47.282188+01 | 1486579547.28219 | pgbench_accounts_pkey |        673882112

 2017-02-08 19:45:48.335682+01 | 1486579548.33568 | pgbench_branches_pkey |            16384
 2017-02-08 19:45:48.335682+01 | 1486579548.33568 | pgbench_tellers_pkey  |            90112
 2017-02-08 19:45:48.335682+01 | 1486579548.33568 | pgbench_accounts_pkey |        673882112

 2017-02-08 19:45:49.397276+01 | 1486579549.39728 | pgbench_branches_pkey |            16384
 2017-02-08 19:45:49.397276+01 | 1486579549.39728 | pgbench_tellers_pkey  |            90112
 2017-02-08 19:45:49.397276+01 | 1486579549.39728 | pgbench_accounts_pkey |        673882112

 2017-02-08 19:45:50.460867+01 | 1486579550.46087 | pgbench_branches_pkey |            16384
 2017-02-08 19:45:50.460867+01 | 1486579550.46087 | pgbench_tellers_pkey  |            90112
 2017-02-08 19:45:50.460867+01 | 1486579550.46087 | pgbench_accounts_pkey |        673882112

 2017-02-08 19:45:51.522382+01 | 1486579551.52238 | pgbench_branches_pkey |            16384
 2017-02-08 19:45:51.522382+01 | 1486579551.52238 | pgbench_tellers_pkey  |            90112
 2017-02-08 19:45:51.522382+01 | 1486579551.52238 | pgbench_accounts_pkey |        673882112

 2017-02-08 19:45:52.581556+01 | 1486579552.58156 | pgbench_branches_pkey |            16384
 2017-02-08 19:45:52.581556+01 | 1486579552.58156 | pgbench_tellers_pkey  |            90112
 2017-02-08 19:45:52.581556+01 | 1486579552.58156 | pgbench_accounts_pkey |        673882112

 2017-02-08 19:45:53.637311+01 | 1486579553.63731 | pgbench_branches_pkey |            16384
 2017-02-08 19:45:53.637311+01 | 1486579553.63731 | pgbench_tellers_pkey  |            90112
 2017-02-08 19:45:53.637311+01 | 1486579553.63731 | pgbench_accounts_pkey |        673882112

 2017-02-08 19:45:54.690523+01 | 1486579554.69052 | pgbench_branches_pkey |            16384
 2017-02-08 19:45:54.690523+01 | 1486579554.69052 | pgbench_tellers_pkey  |            90112
 2017-02-08 19:45:54.690523+01 | 1486579554.69052 | pgbench_accounts_pkey |        673882112

 2017-02-08 19:45:55.745441+01 | 1486579555.74544 | pgbench_branches_pkey |            16384
 2017-02-08 19:45:55.745441+01 | 1486579555.74544 | pgbench_tellers_pkey  |            90112
 2017-02-08 19:45:55.745441+01 | 1486579555.74544 | pgbench_accounts_pkey |        673882112

 2017-02-08 19:45:56.799977+01 | 1486579556.79998 | pgbench_branches_pkey |            16384
 2017-02-08 19:45:56.799977+01 | 1486579556.79998 | pgbench_tellers_pkey  |            90112
 2017-02-08 19:45:56.799977+01 | 1486579556.79998 | pgbench_accounts_pkey |        673882112

 2017-02-08 19:45:57.884479+01 | 1486579557.88448 | pgbench_branches_pkey |            16384
 2017-02-08 19:45:57.884479+01 | 1486579557.88448 | pgbench_tellers_pkey  |            90112
 2017-02-08 19:45:57.884479+01 | 1486579557.88448 | pgbench_accounts_pkey |        673882112

 2017-02-08 19:45:58.944312+01 | 1486579558.94431 | pgbench_branches_pkey |            16384
 2017-02-08 19:45:58.944312+01 | 1486579558.94431 | pgbench_tellers_pkey  |            90112
 2017-02-08 19:45:58.944312+01 | 1486579558.94431 | pgbench_accounts_pkey |        673882112

 2017-02-08 19:46:00.023622+01 | 1486579560.02362 | pgbench_branches_pkey |            16384
 2017-02-08 19:46:00.023622+01 | 1486579560.02362 | pgbench_tellers_pkey  |            90112
 2017-02-08 19:46:00.023622+01 | 1486579560.02362 | pgbench_accounts_pkey |        673882112

 2017-02-08 19:46:01.082856+01 | 1486579561.08286 | pgbench_branches_pkey |            16384
 2017-02-08 19:46:01.082856+01 | 1486579561.08286 | pgbench_tellers_pkey  |            90112
 2017-02-08 19:46:01.082856+01 | 1486579561.08286 | pgbench_accounts_pkey |        673882112

 2017-02-08 19:46:02.130515+01 | 1486579562.13052 | pgbench_branches_pkey |            16384
 2017-02-08 19:46:02.130515+01 | 1486579562.13052 | pgbench_tellers_pkey  |            90112
 2017-02-08 19:46:02.130515+01 | 1486579562.13052 | pgbench_accounts_pkey |        673882112

 2017-02-08 19:46:03.19358+01 | 1486579563.19358 | pgbench_branches_pkey |            16384
 2017-02-08 19:46:03.19358+01 | 1486579563.19358 | pgbench_tellers_pkey  |            90112
 2017-02-08 19:46:03.19358+01 | 1486579563.19358 | pgbench_accounts_pkey |        673882112

 2017-02-08 19:46:04.254661+01 | 1486579564.25466 | pgbench_branches_pkey |            16384
 2017-02-08 19:46:04.254661+01 | 1486579564.25466 | pgbench_tellers_pkey  |            90112
 2017-02-08 19:46:04.254661+01 | 1486579564.25466 | pgbench_accounts_pkey |        673882112

 2017-02-08 19:46:05.325639+01 | 1486579565.32564 | pgbench_branches_pkey |            16384
 2017-02-08 19:46:05.325639+01 | 1486579565.32564 | pgbench_tellers_pkey  |            90112
 2017-02-08 19:46:05.325639+01 | 1486579565.32564 | pgbench_accounts_pkey |        673882112

 2017-02-08 19:46:06.399264+01 | 1486579566.39926 | pgbench_branches_pkey |            16384
 2017-02-08 19:46:06.399264+01 | 1486579566.39926 | pgbench_tellers_pkey  |            90112
 2017-02-08 19:46:06.399264+01 | 1486579566.39926 | pgbench_accounts_pkey |        673882112

 2017-02-08 19:46:07.458028+01 | 1486579567.45803 | pgbench_branches_pkey |            16384
 2017-02-08 19:46:07.458028+01 | 1486579567.45803 | pgbench_tellers_pkey  |            90112
 2017-02-08 19:46:07.458028+01 | 1486579567.45803 | pgbench_accounts_pkey |        673882112

 2017-02-08 19:46:08.521925+01 | 1486579568.52192 | pgbench_branches_pkey |            16384
 2017-02-08 19:46:08.521925+01 | 1486579568.52192 | pgbench_tellers_pkey  |            90112
 2017-02-08 19:46:08.521925+01 | 1486579568.52192 | pgbench_accounts_pkey |        673882112

 2017-02-08 19:46:09.579103+01 | 1486579569.5791 | pgbench_branches_pkey |            16384
 2017-02-08 19:46:09.579103+01 | 1486579569.5791 | pgbench_tellers_pkey  |            90112
 2017-02-08 19:46:09.579103+01 | 1486579569.5791 | pgbench_accounts_pkey |        673882112

 2017-02-08 19:46:10.638189+01 | 1486579570.63819 | pgbench_branches_pkey |            16384
 2017-02-08 19:46:10.638189+01 | 1486579570.63819 | pgbench_tellers_pkey  |            90112
 2017-02-08 19:46:10.638189+01 | 1486579570.63819 | pgbench_accounts_pkey |        673882112

 2017-02-08 19:46:11.708185+01 | 1486579571.70818 | pgbench_branches_pkey |            16384
 2017-02-08 19:46:11.708185+01 | 1486579571.70818 | pgbench_tellers_pkey  |            90112
 2017-02-08 19:46:11.708185+01 | 1486579571.70818 | pgbench_accounts_pkey |        673882112

 2017-02-08 19:46:12.769739+01 | 1486579572.76974 | pgbench_branches_pkey |            16384
 2017-02-08 19:46:12.769739+01 | 1486579572.76974 | pgbench_tellers_pkey  |            90112
 2017-02-08 19:46:12.769739+01 | 1486579572.76974 | pgbench_accounts_pkey |        673882112

 2017-02-08 19:46:13.846739+01 | 1486579573.84674 | pgbench_branches_pkey |            16384
 2017-02-08 19:46:13.846739+01 | 1486579573.84674 | pgbench_tellers_pkey  |            90112
 2017-02-08 19:46:13.846739+01 | 1486579573.84674 | pgbench_accounts_pkey |        673882112

 2017-02-08 19:46:14.910763+01 | 1486579574.91076 | pgbench_branches_pkey |            16384
 2017-02-08 19:46:14.910763+01 | 1486579574.91076 | pgbench_tellers_pkey  |            90112
 2017-02-08 19:46:14.910763+01 | 1486579574.91076 | pgbench_accounts_pkey |        673882112

 2017-02-08 19:46:15.970618+01 | 1486579575.97062 | pgbench_branches_pkey |            16384
 2017-02-08 19:46:15.970618+01 | 1486579575.97062 | pgbench_tellers_pkey  |            90112
 2017-02-08 19:46:15.970618+01 | 1486579575.97062 | pgbench_accounts_pkey |        673882112

 2017-02-08 19:46:17.027845+01 | 1486579577.02784 | pgbench_branches_pkey |            16384
 2017-02-08 19:46:17.027845+01 | 1486579577.02784 | pgbench_tellers_pkey  |            90112
 2017-02-08 19:46:17.027845+01 | 1486579577.02784 | pgbench_accounts_pkey |        673882112

 2017-02-08 19:46:18.084115+01 | 1486579578.08412 | pgbench_branches_pkey |            16384
 2017-02-08 19:46:18.084115+01 | 1486579578.08412 | pgbench_tellers_pkey  |            90112
 2017-02-08 19:46:18.084115+01 | 1486579578.08412 | pgbench_accounts_pkey |        673882112

 2017-02-08 19:46:19.14054+01 | 1486579579.14054 | pgbench_branches_pkey |            16384
 2017-02-08 19:46:19.14054+01 | 1486579579.14054 | pgbench_tellers_pkey  |            90112
 2017-02-08 19:46:19.14054+01 | 1486579579.14054 | pgbench_accounts_pkey |        673882112

 2017-02-08 19:46:20.203121+01 | 1486579580.20312 | pgbench_branches_pkey |            16384
 2017-02-08 19:46:20.203121+01 | 1486579580.20312 | pgbench_tellers_pkey  |            90112
 2017-02-08 19:46:20.203121+01 | 1486579580.20312 | pgbench_accounts_pkey |        673882112

 2017-02-08 19:46:21.263529+01 | 1486579581.26353 | pgbench_branches_pkey |            16384
 2017-02-08 19:46:21.263529+01 | 1486579581.26353 | pgbench_tellers_pkey  |            90112
 2017-02-08 19:46:21.263529+01 | 1486579581.26353 | pgbench_accounts_pkey |        673882112

 2017-02-08 19:46:22.326093+01 | 1486579582.32609 | pgbench_branches_pkey |            16384
 2017-02-08 19:46:22.326093+01 | 1486579582.32609 | pgbench_tellers_pkey  |            90112
 2017-02-08 19:46:22.326093+01 | 1486579582.32609 | pgbench_accounts_pkey |        673882112

 2017-02-08 19:46:23.385737+01 | 1486579583.38574 | pgbench_branches_pkey |            16384
 2017-02-08 19:46:23.385737+01 | 1486579583.38574 | pgbench_tellers_pkey  |            90112
 2017-02-08 19:46:23.385737+01 | 1486579583.38574 | pgbench_accounts_pkey |        673882112

 2017-02-08 19:46:24.45653+01 | 1486579584.45653 | pgbench_branches_pkey |            16384
 2017-02-08 19:46:24.45653+01 | 1486579584.45653 | pgbench_tellers_pkey  |            90112
 2017-02-08 19:46:24.45653+01 | 1486579584.45653 | pgbench_accounts_pkey |        673882112

 2017-02-08 19:46:25.517495+01 | 1486579585.51749 | pgbench_branches_pkey |            16384
 2017-02-08 19:46:25.517495+01 | 1486579585.51749 | pgbench_tellers_pkey  |            90112
 2017-02-08 19:46:25.517495+01 | 1486579585.51749 | pgbench_accounts_pkey |        673882112

 2017-02-08 19:46:26.56843+01 | 1486579586.56843 | pgbench_branches_pkey |            16384
 2017-02-08 19:46:26.56843+01 | 1486579586.56843 | pgbench_tellers_pkey  |            90112
 2017-02-08 19:46:26.56843+01 | 1486579586.56843 | pgbench_accounts_pkey |        673882112

 2017-02-08 19:46:27.630802+01 | 1486579587.6308 | pgbench_branches_pkey |            16384
 2017-02-08 19:46:27.630802+01 | 1486579587.6308 | pgbench_tellers_pkey  |            90112
 2017-02-08 19:46:27.630802+01 | 1486579587.6308 | pgbench_accounts_pkey |        673882112

 2017-02-08 19:46:28.689158+01 | 1486579588.68916 | pgbench_branches_pkey |            16384
 2017-02-08 19:46:28.689158+01 | 1486579588.68916 | pgbench_tellers_pkey  |            90112
 2017-02-08 19:46:28.689158+01 | 1486579588.68916 | pgbench_accounts_pkey |        673882112

 2017-02-08 19:46:29.751535+01 | 1486579589.75153 | pgbench_branches_pkey |            16384
 2017-02-08 19:46:29.751535+01 | 1486579589.75153 | pgbench_tellers_pkey  |            90112
 2017-02-08 19:46:29.751535+01 | 1486579589.75153 | pgbench_accounts_pkey |        673882112

 2017-02-08 19:46:30.812621+01 | 1486579590.81262 | pgbench_branches_pkey |            16384
 2017-02-08 19:46:30.812621+01 | 1486579590.81262 | pgbench_tellers_pkey  |            90112
 2017-02-08 19:46:30.812621+01 | 1486579590.81262 | pgbench_accounts_pkey |        673882112

 2017-02-08 19:46:31.888596+01 | 1486579591.8886 | pgbench_branches_pkey |            16384
 2017-02-08 19:46:31.888596+01 | 1486579591.8886 | pgbench_tellers_pkey  |            90112
 2017-02-08 19:46:31.888596+01 | 1486579591.8886 | pgbench_accounts_pkey |        673882112

 2017-02-08 19:46:32.951687+01 | 1486579592.95169 | pgbench_branches_pkey |            16384
 2017-02-08 19:46:32.951687+01 | 1486579592.95169 | pgbench_tellers_pkey  |            90112
 2017-02-08 19:46:32.951687+01 | 1486579592.95169 | pgbench_accounts_pkey |        673882112

 2017-02-08 19:46:34.026703+01 | 1486579594.0267 | pgbench_branches_pkey |            16384
 2017-02-08 19:46:34.026703+01 | 1486579594.0267 | pgbench_tellers_pkey  |            90112
 2017-02-08 19:46:34.026703+01 | 1486579594.0267 | pgbench_accounts_pkey |        673882112

 2017-02-08 19:46:35.098247+01 | 1486579595.09825 | pgbench_branches_pkey |            16384
 2017-02-08 19:46:35.098247+01 | 1486579595.09825 | pgbench_tellers_pkey  |            90112
 2017-02-08 19:46:35.098247+01 | 1486579595.09825 | pgbench_accounts_pkey |        673882112

 2017-02-08 19:46:36.17821+01 | 1486579596.17821 | pgbench_branches_pkey |            16384
 2017-02-08 19:46:36.17821+01 | 1486579596.17821 | pgbench_tellers_pkey  |            90112
 2017-02-08 19:46:36.17821+01 | 1486579596.17821 | pgbench_accounts_pkey |        673882112

 2017-02-08 19:46:37.246679+01 | 1486579597.24668 | pgbench_branches_pkey |            16384
 2017-02-08 19:46:37.246679+01 | 1486579597.24668 | pgbench_tellers_pkey  |            90112
 2017-02-08 19:46:37.246679+01 | 1486579597.24668 | pgbench_accounts_pkey |        673882112

 2017-02-08 19:46:38.303799+01 | 1486579598.3038 | pgbench_branches_pkey |            16384
 2017-02-08 19:46:38.303799+01 | 1486579598.3038 | pgbench_tellers_pkey  |            90112
 2017-02-08 19:46:38.303799+01 | 1486579598.3038 | pgbench_accounts_pkey |        673882112

 2017-02-08 19:46:39.371225+01 | 1486579599.37123 | pgbench_branches_pkey |            16384
 2017-02-08 19:46:39.371225+01 | 1486579599.37123 | pgbench_tellers_pkey  |            90112
 2017-02-08 19:46:39.371225+01 | 1486579599.37123 | pgbench_accounts_pkey |        673882112

 2017-02-08 19:46:40.435065+01 | 1486579600.43507 | pgbench_branches_pkey |            16384
 2017-02-08 19:46:40.435065+01 | 1486579600.43507 | pgbench_tellers_pkey  |            90112
 2017-02-08 19:46:40.435065+01 | 1486579600.43507 | pgbench_accounts_pkey |        673882112

 2017-02-08 19:46:41.504821+01 | 1486579601.50482 | pgbench_branches_pkey |            16384
 2017-02-08 19:46:41.504821+01 | 1486579601.50482 | pgbench_tellers_pkey  |            90112
 2017-02-08 19:46:41.504821+01 | 1486579601.50482 | pgbench_accounts_pkey |        673882112

 2017-02-08 19:46:42.594043+01 | 1486579602.59404 | pgbench_branches_pkey |            16384
 2017-02-08 19:46:42.594043+01 | 1486579602.59404 | pgbench_tellers_pkey  |            90112
 2017-02-08 19:46:42.594043+01 | 1486579602.59404 | pgbench_accounts_pkey |        673882112

 2017-02-08 19:46:43.659775+01 | 1486579603.65978 | pgbench_branches_pkey |            16384
 2017-02-08 19:46:43.659775+01 | 1486579603.65978 | pgbench_tellers_pkey  |            90112
 2017-02-08 19:46:43.659775+01 | 1486579603.65978 | pgbench_accounts_pkey |        673882112

 2017-02-08 19:46:44.735562+01 | 1486579604.73556 | pgbench_branches_pkey |            16384
 2017-02-08 19:46:44.735562+01 | 1486579604.73556 | pgbench_tellers_pkey  |            90112
 2017-02-08 19:46:44.735562+01 | 1486579604.73556 | pgbench_accounts_pkey |        673882112

 2017-02-08 19:46:45.811872+01 | 1486579605.81187 | pgbench_branches_pkey |            16384
 2017-02-08 19:46:45.811872+01 | 1486579605.81187 | pgbench_tellers_pkey  |            90112
 2017-02-08 19:46:45.811872+01 | 1486579605.81187 | pgbench_accounts_pkey |        673882112

 2017-02-08 19:46:46.876495+01 | 1486579606.87649 | pgbench_branches_pkey |            16384
 2017-02-08 19:46:46.876495+01 | 1486579606.87649 | pgbench_tellers_pkey  |            90112
 2017-02-08 19:46:46.876495+01 | 1486579606.87649 | pgbench_accounts_pkey |        673882112

 2017-02-08 19:46:47.937852+01 | 1486579607.93785 | pgbench_branches_pkey |            16384
 2017-02-08 19:46:47.937852+01 | 1486579607.93785 | pgbench_tellers_pkey  |            90112
 2017-02-08 19:46:47.937852+01 | 1486579607.93785 | pgbench_accounts_pkey |        673882112

 2017-02-08 19:46:49.020074+01 | 1486579609.02007 | pgbench_branches_pkey |            16384
 2017-02-08 19:46:49.020074+01 | 1486579609.02007 | pgbench_tellers_pkey  |            90112
 2017-02-08 19:46:49.020074+01 | 1486579609.02007 | pgbench_accounts_pkey |        673882112

 2017-02-08 19:46:50.084226+01 | 1486579610.08423 | pgbench_branches_pkey |            16384
 2017-02-08 19:46:50.084226+01 | 1486579610.08423 | pgbench_tellers_pkey  |            90112
 2017-02-08 19:46:50.084226+01 | 1486579610.08423 | pgbench_accounts_pkey |        673882112

 2017-02-08 19:46:51.148102+01 | 1486579611.1481 | pgbench_branches_pkey |            16384
 2017-02-08 19:46:51.148102+01 | 1486579611.1481 | pgbench_tellers_pkey  |            90112
 2017-02-08 19:46:51.148102+01 | 1486579611.1481 | pgbench_accounts_pkey |        673882112

 2017-02-08 19:46:52.209839+01 | 1486579612.20984 | pgbench_branches_pkey |            16384
 2017-02-08 19:46:52.209839+01 | 1486579612.20984 | pgbench_tellers_pkey  |            90112
 2017-02-08 19:46:52.209839+01 | 1486579612.20984 | pgbench_accounts_pkey |        673882112

 2017-02-08 19:46:53.272066+01 | 1486579613.27207 | pgbench_branches_pkey |            16384
 2017-02-08 19:46:53.272066+01 | 1486579613.27207 | pgbench_tellers_pkey  |            90112
 2017-02-08 19:46:53.272066+01 | 1486579613.27207 | pgbench_accounts_pkey |        673882112

 2017-02-08 19:46:54.325207+01 | 1486579614.32521 | pgbench_branches_pkey |            16384
 2017-02-08 19:46:54.325207+01 | 1486579614.32521 | pgbench_tellers_pkey  |            90112
 2017-02-08 19:46:54.325207+01 | 1486579614.32521 | pgbench_accounts_pkey |        673882112

 2017-02-08 19:46:55.390431+01 | 1486579615.39043 | pgbench_branches_pkey |            16384
 2017-02-08 19:46:55.390431+01 | 1486579615.39043 | pgbench_tellers_pkey  |            90112
 2017-02-08 19:46:55.390431+01 | 1486579615.39043 | pgbench_accounts_pkey |        673882112

 2017-02-08 19:46:56.462357+01 | 1486579616.46236 | pgbench_branches_pkey |            16384
 2017-02-08 19:46:56.462357+01 | 1486579616.46236 | pgbench_tellers_pkey  |            90112
 2017-02-08 19:46:56.462357+01 | 1486579616.46236 | pgbench_accounts_pkey |        673882112

 2017-02-08 19:46:57.535619+01 | 1486579617.53562 | pgbench_branches_pkey |            16384
 2017-02-08 19:46:57.535619+01 | 1486579617.53562 | pgbench_tellers_pkey  |            90112
 2017-02-08 19:46:57.535619+01 | 1486579617.53562 | pgbench_accounts_pkey |        673882112

 2017-02-08 19:46:58.59606+01 | 1486579618.59606 | pgbench_branches_pkey |            16384
 2017-02-08 19:46:58.59606+01 | 1486579618.59606 | pgbench_tellers_pkey  |            90112
 2017-02-08 19:46:58.59606+01 | 1486579618.59606 | pgbench_accounts_pkey |        673882112

 2017-02-08 19:46:59.667156+01 | 1486579619.66716 | pgbench_branches_pkey |            16384
 2017-02-08 19:46:59.667156+01 | 1486579619.66716 | pgbench_tellers_pkey  |            90112
 2017-02-08 19:46:59.667156+01 | 1486579619.66716 | pgbench_accounts_pkey |        673882112

 2017-02-08 19:47:00.727893+01 | 1486579620.72789 | pgbench_branches_pkey |            16384
 2017-02-08 19:47:00.727893+01 | 1486579620.72789 | pgbench_tellers_pkey  |            90112
 2017-02-08 19:47:00.727893+01 | 1486579620.72789 | pgbench_accounts_pkey |        673882112

 2017-02-08 19:47:01.795565+01 | 1486579621.79556 | pgbench_branches_pkey |            16384
 2017-02-08 19:47:01.795565+01 | 1486579621.79556 | pgbench_tellers_pkey  |            90112
 2017-02-08 19:47:01.795565+01 | 1486579621.79556 | pgbench_accounts_pkey |        673882112

 2017-02-08 19:47:02.857509+01 | 1486579622.85751 | pgbench_branches_pkey |            16384
 2017-02-08 19:47:02.857509+01 | 1486579622.85751 | pgbench_tellers_pkey  |            90112
 2017-02-08 19:47:02.857509+01 | 1486579622.85751 | pgbench_accounts_pkey |        673882112

 2017-02-08 19:47:03.924724+01 | 1486579623.92472 | pgbench_branches_pkey |            16384
 2017-02-08 19:47:03.924724+01 | 1486579623.92472 | pgbench_tellers_pkey  |            90112
 2017-02-08 19:47:03.924724+01 | 1486579623.92472 | pgbench_accounts_pkey |        673882112

 2017-02-08 19:47:04.990789+01 | 1486579624.99079 | pgbench_branches_pkey |            16384
 2017-02-08 19:47:04.990789+01 | 1486579624.99079 | pgbench_tellers_pkey  |            90112
 2017-02-08 19:47:04.990789+01 | 1486579624.99079 | pgbench_accounts_pkey |        673882112

 2017-02-08 19:47:06.056313+01 | 1486579626.05631 | pgbench_branches_pkey |            16384
 2017-02-08 19:47:06.056313+01 | 1486579626.05631 | pgbench_tellers_pkey  |            90112
 2017-02-08 19:47:06.056313+01 | 1486579626.05631 | pgbench_accounts_pkey |        673882112

 2017-02-08 19:47:07.121114+01 | 1486579627.12111 | pgbench_branches_pkey |            16384
 2017-02-08 19:47:07.121114+01 | 1486579627.12111 | pgbench_tellers_pkey  |            90112
 2017-02-08 19:47:07.121114+01 | 1486579627.12111 | pgbench_accounts_pkey |        673882112

 2017-02-08 19:47:08.195624+01 | 1486579628.19562 | pgbench_branches_pkey |            16384
 2017-02-08 19:47:08.195624+01 | 1486579628.19562 | pgbench_tellers_pkey  |            90112
 2017-02-08 19:47:08.195624+01 | 1486579628.19562 | pgbench_accounts_pkey |        673882112

 2017-02-08 19:47:09.257703+01 | 1486579629.2577 | pgbench_branches_pkey |            16384
 2017-02-08 19:47:09.257703+01 | 1486579629.2577 | pgbench_tellers_pkey  |            90112
 2017-02-08 19:47:09.257703+01 | 1486579629.2577 | pgbench_accounts_pkey |        673882112

 2017-02-08 19:47:10.328185+01 | 1486579630.32819 | pgbench_branches_pkey |            16384
 2017-02-08 19:47:10.328185+01 | 1486579630.32819 | pgbench_tellers_pkey  |            90112
 2017-02-08 19:47:10.328185+01 | 1486579630.32819 | pgbench_accounts_pkey |        673882112

 2017-02-08 19:47:11.397996+01 | 1486579631.398 | pgbench_branches_pkey |            16384
 2017-02-08 19:47:11.397996+01 | 1486579631.398 | pgbench_tellers_pkey  |            90112
 2017-02-08 19:47:11.397996+01 | 1486579631.398 | pgbench_accounts_pkey |        673882112

 2017-02-08 19:47:12.46288+01 | 1486579632.46288 | pgbench_branches_pkey |            16384
 2017-02-08 19:47:12.46288+01 | 1486579632.46288 | pgbench_tellers_pkey  |            90112
 2017-02-08 19:47:12.46288+01 | 1486579632.46288 | pgbench_accounts_pkey |        673882112

 2017-02-08 19:47:13.530415+01 | 1486579633.53042 | pgbench_branches_pkey |            16384
 2017-02-08 19:47:13.530415+01 | 1486579633.53042 | pgbench_tellers_pkey  |            90112
 2017-02-08 19:47:13.530415+01 | 1486579633.53042 | pgbench_accounts_pkey |        673882112

 2017-02-08 19:47:14.590611+01 | 1486579634.59061 | pgbench_branches_pkey |            16384
 2017-02-08 19:47:14.590611+01 | 1486579634.59061 | pgbench_tellers_pkey  |            90112
 2017-02-08 19:47:14.590611+01 | 1486579634.59061 | pgbench_accounts_pkey |        673882112

 2017-02-08 19:47:15.650174+01 | 1486579635.65017 | pgbench_branches_pkey |            16384
 2017-02-08 19:47:15.650174+01 | 1486579635.65017 | pgbench_tellers_pkey  |            90112
 2017-02-08 19:47:15.650174+01 | 1486579635.65017 | pgbench_accounts_pkey |        673882112

 2017-02-08 19:47:16.710249+01 | 1486579636.71025 | pgbench_branches_pkey |            16384
 2017-02-08 19:47:16.710249+01 | 1486579636.71025 | pgbench_tellers_pkey  |            90112
 2017-02-08 19:47:16.710249+01 | 1486579636.71025 | pgbench_accounts_pkey |        673882112

 2017-02-08 19:47:17.770737+01 | 1486579637.77074 | pgbench_branches_pkey |            16384
 2017-02-08 19:47:17.770737+01 | 1486579637.77074 | pgbench_tellers_pkey  |            90112
 2017-02-08 19:47:17.770737+01 | 1486579637.77074 | pgbench_accounts_pkey |        673882112

 2017-02-08 19:47:18.845247+01 | 1486579638.84525 | pgbench_branches_pkey |            16384
 2017-02-08 19:47:18.845247+01 | 1486579638.84525 | pgbench_tellers_pkey  |            90112
 2017-02-08 19:47:18.845247+01 | 1486579638.84525 | pgbench_accounts_pkey |        673882112

 2017-02-08 19:47:19.906425+01 | 1486579639.90642 | pgbench_branches_pkey |            16384
 2017-02-08 19:47:19.906425+01 | 1486579639.90642 | pgbench_tellers_pkey  |            90112
 2017-02-08 19:47:19.906425+01 | 1486579639.90642 | pgbench_accounts_pkey |        673882112

 2017-02-08 19:47:20.975376+01 | 1486579640.97538 | pgbench_branches_pkey |            16384
 2017-02-08 19:47:20.975376+01 | 1486579640.97538 | pgbench_tellers_pkey  |            90112
 2017-02-08 19:47:20.975376+01 | 1486579640.97538 | pgbench_accounts_pkey |        673882112

 2017-02-08 19:47:22.033102+01 | 1486579642.0331 | pgbench_branches_pkey |            16384
 2017-02-08 19:47:22.033102+01 | 1486579642.0331 | pgbench_tellers_pkey  |            90112
 2017-02-08 19:47:22.033102+01 | 1486579642.0331 | pgbench_accounts_pkey |        673882112

 2017-02-08 19:47:23.098962+01 | 1486579643.09896 | pgbench_branches_pkey |            16384
 2017-02-08 19:47:23.098962+01 | 1486579643.09896 | pgbench_tellers_pkey  |            90112
 2017-02-08 19:47:23.098962+01 | 1486579643.09896 | pgbench_accounts_pkey |        673882112

 2017-02-08 19:47:24.170666+01 | 1486579644.17067 | pgbench_branches_pkey |            16384
 2017-02-08 19:47:24.170666+01 | 1486579644.17067 | pgbench_tellers_pkey  |            90112
 2017-02-08 19:47:24.170666+01 | 1486579644.17067 | pgbench_accounts_pkey |        673882112

 2017-02-08 19:47:25.241203+01 | 1486579645.2412 | pgbench_branches_pkey |            16384
 2017-02-08 19:47:25.241203+01 | 1486579645.2412 | pgbench_tellers_pkey  |            90112
 2017-02-08 19:47:25.241203+01 | 1486579645.2412 | pgbench_accounts_pkey |        673882112

 2017-02-08 19:47:26.309787+01 | 1486579646.30979 | pgbench_branches_pkey |            16384
 2017-02-08 19:47:26.309787+01 | 1486579646.30979 | pgbench_tellers_pkey  |            90112
 2017-02-08 19:47:26.309787+01 | 1486579646.30979 | pgbench_accounts_pkey |        673882112

 2017-02-08 19:47:27.378286+01 | 1486579647.37829 | pgbench_branches_pkey |            16384
 2017-02-08 19:47:27.378286+01 | 1486579647.37829 | pgbench_tellers_pkey  |            90112
 2017-02-08 19:47:27.378286+01 | 1486579647.37829 | pgbench_accounts_pkey |        673882112

 2017-02-08 19:47:28.440367+01 | 1486579648.44037 | pgbench_branches_pkey |            16384
 2017-02-08 19:47:28.440367+01 | 1486579648.44037 | pgbench_tellers_pkey  |            90112
 2017-02-08 19:47:28.440367+01 | 1486579648.44037 | pgbench_accounts_pkey |        673882112

 2017-02-08 19:47:29.504215+01 | 1486579649.50422 | pgbench_branches_pkey |            16384
 2017-02-08 19:47:29.504215+01 | 1486579649.50422 | pgbench_tellers_pkey  |            90112
 2017-02-08 19:47:29.504215+01 | 1486579649.50422 | pgbench_accounts_pkey |        673882112

 2017-02-08 19:47:30.570661+01 | 1486579650.57066 | pgbench_branches_pkey |            16384
 2017-02-08 19:47:30.570661+01 | 1486579650.57066 | pgbench_tellers_pkey  |            90112
 2017-02-08 19:47:30.570661+01 | 1486579650.57066 | pgbench_accounts_pkey |        673882112

 2017-02-08 19:47:31.633774+01 | 1486579651.63377 | pgbench_branches_pkey |            16384
 2017-02-08 19:47:31.633774+01 | 1486579651.63377 | pgbench_tellers_pkey  |            90112
 2017-02-08 19:47:31.633774+01 | 1486579651.63377 | pgbench_accounts_pkey |        673882112

 2017-02-08 19:47:32.694773+01 | 1486579652.69477 | pgbench_branches_pkey |            16384
 2017-02-08 19:47:32.694773+01 | 1486579652.69477 | pgbench_tellers_pkey  |            90112
 2017-02-08 19:47:32.694773+01 | 1486579652.69477 | pgbench_accounts_pkey |        673882112

 2017-02-08 19:47:33.750986+01 | 1486579653.75099 | pgbench_branches_pkey |            16384
 2017-02-08 19:47:33.750986+01 | 1486579653.75099 | pgbench_tellers_pkey  |            90112
 2017-02-08 19:47:33.750986+01 | 1486579653.75099 | pgbench_accounts_pkey |        673882112

 2017-02-08 19:47:34.81425+01 | 1486579654.81425 | pgbench_branches_pkey |            16384
 2017-02-08 19:47:34.81425+01 | 1486579654.81425 | pgbench_tellers_pkey  |            90112
 2017-02-08 19:47:34.81425+01 | 1486579654.81425 | pgbench_accounts_pkey |        673882112

 2017-02-08 19:47:35.888674+01 | 1486579655.88867 | pgbench_branches_pkey |            16384
 2017-02-08 19:47:35.888674+01 | 1486579655.88867 | pgbench_tellers_pkey  |            90112
 2017-02-08 19:47:35.888674+01 | 1486579655.88867 | pgbench_accounts_pkey |        673882112

 2017-02-08 19:47:36.954135+01 | 1486579656.95413 | pgbench_branches_pkey |            16384
 2017-02-08 19:47:36.954135+01 | 1486579656.95413 | pgbench_tellers_pkey  |            90112
 2017-02-08 19:47:36.954135+01 | 1486579656.95413 | pgbench_accounts_pkey |        673882112

 2017-02-08 19:47:38.024303+01 | 1486579658.0243 | pgbench_branches_pkey |            16384
 2017-02-08 19:47:38.024303+01 | 1486579658.0243 | pgbench_tellers_pkey  |            90112
 2017-02-08 19:47:38.024303+01 | 1486579658.0243 | pgbench_accounts_pkey |        673882112

 2017-02-08 19:47:39.082163+01 | 1486579659.08216 | pgbench_branches_pkey |            16384
 2017-02-08 19:47:39.082163+01 | 1486579659.08216 | pgbench_tellers_pkey  |            90112
 2017-02-08 19:47:39.082163+01 | 1486579659.08216 | pgbench_accounts_pkey |        673882112

 2017-02-08 19:47:40.147778+01 | 1486579660.14778 | pgbench_branches_pkey |            16384
 2017-02-08 19:47:40.147778+01 | 1486579660.14778 | pgbench_tellers_pkey  |            90112
 2017-02-08 19:47:40.147778+01 | 1486579660.14778 | pgbench_accounts_pkey |        673882112

 2017-02-08 19:47:41.21294+01 | 1486579661.21294 | pgbench_branches_pkey |            16384
 2017-02-08 19:47:41.21294+01 | 1486579661.21294 | pgbench_tellers_pkey  |            90112
 2017-02-08 19:47:41.21294+01 | 1486579661.21294 | pgbench_accounts_pkey |        673882112

 2017-02-08 19:47:42.286815+01 | 1486579662.28681 | pgbench_branches_pkey |            16384
 2017-02-08 19:47:42.286815+01 | 1486579662.28681 | pgbench_tellers_pkey  |            90112
 2017-02-08 19:47:42.286815+01 | 1486579662.28681 | pgbench_accounts_pkey |        673882112

 2017-02-08 19:47:43.354048+01 | 1486579663.35405 | pgbench_branches_pkey |            16384
 2017-02-08 19:47:43.354048+01 | 1486579663.35405 | pgbench_tellers_pkey  |            90112
 2017-02-08 19:47:43.354048+01 | 1486579663.35405 | pgbench_accounts_pkey |        673882112

 2017-02-08 19:47:44.422515+01 | 1486579664.42251 | pgbench_branches_pkey |            16384
 2017-02-08 19:47:44.422515+01 | 1486579664.42251 | pgbench_tellers_pkey  |            90112
 2017-02-08 19:47:44.422515+01 | 1486579664.42251 | pgbench_accounts_pkey |        673882112

 2017-02-08 19:47:45.481237+01 | 1486579665.48124 | pgbench_branches_pkey |            16384
 2017-02-08 19:47:45.481237+01 | 1486579665.48124 | pgbench_tellers_pkey  |            90112
 2017-02-08 19:47:45.481237+01 | 1486579665.48124 | pgbench_accounts_pkey |        673882112

 2017-02-08 19:47:46.556677+01 | 1486579666.55668 | pgbench_branches_pkey |            16384
 2017-02-08 19:47:46.556677+01 | 1486579666.55668 | pgbench_tellers_pkey  |            90112
 2017-02-08 19:47:46.556677+01 | 1486579666.55668 | pgbench_accounts_pkey |        673882112

 2017-02-08 19:47:47.631261+01 | 1486579667.63126 | pgbench_branches_pkey |            16384
 2017-02-08 19:47:47.631261+01 | 1486579667.63126 | pgbench_tellers_pkey  |            90112
 2017-02-08 19:47:47.631261+01 | 1486579667.63126 | pgbench_accounts_pkey |        673882112

 2017-02-08 19:47:48.690483+01 | 1486579668.69048 | pgbench_branches_pkey |            16384
 2017-02-08 19:47:48.690483+01 | 1486579668.69048 | pgbench_tellers_pkey  |            90112
 2017-02-08 19:47:48.690483+01 | 1486579668.69048 | pgbench_accounts_pkey |        673882112

 2017-02-08 19:47:49.750713+01 | 1486579669.75071 | pgbench_branches_pkey |            16384
 2017-02-08 19:47:49.750713+01 | 1486579669.75071 | pgbench_tellers_pkey  |            90112
 2017-02-08 19:47:49.750713+01 | 1486579669.75071 | pgbench_accounts_pkey |        673882112

 2017-02-08 19:47:50.816222+01 | 1486579670.81622 | pgbench_branches_pkey |            16384
 2017-02-08 19:47:50.816222+01 | 1486579670.81622 | pgbench_tellers_pkey  |            90112
 2017-02-08 19:47:50.816222+01 | 1486579670.81622 | pgbench_accounts_pkey |        673882112

 2017-02-08 19:47:51.873946+01 | 1486579671.87395 | pgbench_branches_pkey |            16384
 2017-02-08 19:47:51.873946+01 | 1486579671.87395 | pgbench_tellers_pkey  |            90112
 2017-02-08 19:47:51.873946+01 | 1486579671.87395 | pgbench_accounts_pkey |        673882112

 2017-02-08 19:47:52.943867+01 | 1486579672.94387 | pgbench_branches_pkey |            16384
 2017-02-08 19:47:52.943867+01 | 1486579672.94387 | pgbench_tellers_pkey  |            90112
 2017-02-08 19:47:52.943867+01 | 1486579672.94387 | pgbench_accounts_pkey |        673882112

 2017-02-08 19:47:54.021366+01 | 1486579674.02137 | pgbench_branches_pkey |            16384
 2017-02-08 19:47:54.021366+01 | 1486579674.02137 | pgbench_tellers_pkey  |            90112
 2017-02-08 19:47:54.021366+01 | 1486579674.02137 | pgbench_accounts_pkey |        673882112

 2017-02-08 19:47:55.087348+01 | 1486579675.08735 | pgbench_branches_pkey |            16384
 2017-02-08 19:47:55.087348+01 | 1486579675.08735 | pgbench_tellers_pkey  |            90112
 2017-02-08 19:47:55.087348+01 | 1486579675.08735 | pgbench_accounts_pkey |        673882112

 2017-02-08 19:47:56.150198+01 | 1486579676.1502 | pgbench_branches_pkey |            16384
 2017-02-08 19:47:56.150198+01 | 1486579676.1502 | pgbench_tellers_pkey  |            90112
 2017-02-08 19:47:56.150198+01 | 1486579676.1502 | pgbench_accounts_pkey |        673882112

 2017-02-08 19:47:57.218432+01 | 1486579677.21843 | pgbench_branches_pkey |            16384
 2017-02-08 19:47:57.218432+01 | 1486579677.21843 | pgbench_tellers_pkey  |            90112
 2017-02-08 19:47:57.218432+01 | 1486579677.21843 | pgbench_accounts_pkey |        673882112

 2017-02-08 19:47:58.283216+01 | 1486579678.28322 | pgbench_branches_pkey |            16384
 2017-02-08 19:47:58.283216+01 | 1486579678.28322 | pgbench_tellers_pkey  |            90112
 2017-02-08 19:47:58.283216+01 | 1486579678.28322 | pgbench_accounts_pkey |        673882112

 2017-02-08 19:47:59.343665+01 | 1486579679.34366 | pgbench_branches_pkey |            16384
 2017-02-08 19:47:59.343665+01 | 1486579679.34366 | pgbench_tellers_pkey  |            90112
 2017-02-08 19:47:59.343665+01 | 1486579679.34366 | pgbench_accounts_pkey |        673882112

 2017-02-08 19:48:00.409714+01 | 1486579680.40971 | pgbench_branches_pkey |            16384
 2017-02-08 19:48:00.409714+01 | 1486579680.40971 | pgbench_tellers_pkey  |            90112
 2017-02-08 19:48:00.409714+01 | 1486579680.40971 | pgbench_accounts_pkey |        673882112

 2017-02-08 19:48:01.463606+01 | 1486579681.46361 | pgbench_branches_pkey |            16384
 2017-02-08 19:48:01.463606+01 | 1486579681.46361 | pgbench_tellers_pkey  |            90112
 2017-02-08 19:48:01.463606+01 | 1486579681.46361 | pgbench_accounts_pkey |        673882112

 2017-02-08 19:48:02.529996+01 | 1486579682.53 | pgbench_branches_pkey |            16384
 2017-02-08 19:48:02.529996+01 | 1486579682.53 | pgbench_tellers_pkey  |            90112
 2017-02-08 19:48:02.529996+01 | 1486579682.53 | pgbench_accounts_pkey |        673882112

 2017-02-08 19:48:03.603149+01 | 1486579683.60315 | pgbench_branches_pkey |            16384
 2017-02-08 19:48:03.603149+01 | 1486579683.60315 | pgbench_tellers_pkey  |            90112
 2017-02-08 19:48:03.603149+01 | 1486579683.60315 | pgbench_accounts_pkey |        673882112

 2017-02-08 19:48:04.667784+01 | 1486579684.66778 | pgbench_branches_pkey |            16384
 2017-02-08 19:48:04.667784+01 | 1486579684.66778 | pgbench_tellers_pkey  |            90112
 2017-02-08 19:48:04.667784+01 | 1486579684.66778 | pgbench_accounts_pkey |        673882112

 2017-02-08 19:48:05.746933+01 | 1486579685.74693 | pgbench_branches_pkey |            16384
 2017-02-08 19:48:05.746933+01 | 1486579685.74693 | pgbench_tellers_pkey  |            90112
 2017-02-08 19:48:05.746933+01 | 1486579685.74693 | pgbench_accounts_pkey |        673882112

 2017-02-08 19:48:06.812482+01 | 1486579686.81248 | pgbench_branches_pkey |            16384
 2017-02-08 19:48:06.812482+01 | 1486579686.81248 | pgbench_tellers_pkey  |            90112
 2017-02-08 19:48:06.812482+01 | 1486579686.81248 | pgbench_accounts_pkey |        673882112

 2017-02-08 19:48:07.873744+01 | 1486579687.87374 | pgbench_branches_pkey |            16384
 2017-02-08 19:48:07.873744+01 | 1486579687.87374 | pgbench_tellers_pkey  |            90112
 2017-02-08 19:48:07.873744+01 | 1486579687.87374 | pgbench_accounts_pkey |        673882112

 2017-02-08 19:48:08.944922+01 | 1486579688.94492 | pgbench_branches_pkey |            16384
 2017-02-08 19:48:08.944922+01 | 1486579688.94492 | pgbench_tellers_pkey  |            90112
 2017-02-08 19:48:08.944922+01 | 1486579688.94492 | pgbench_accounts_pkey |        673882112

 2017-02-08 19:48:10.007486+01 | 1486579690.00749 | pgbench_branches_pkey |            16384
 2017-02-08 19:48:10.007486+01 | 1486579690.00749 | pgbench_tellers_pkey  |            90112
 2017-02-08 19:48:10.007486+01 | 1486579690.00749 | pgbench_accounts_pkey |        673882112

 2017-02-08 19:48:11.067941+01 | 1486579691.06794 | pgbench_branches_pkey |            16384
 2017-02-08 19:48:11.067941+01 | 1486579691.06794 | pgbench_tellers_pkey  |            90112
 2017-02-08 19:48:11.067941+01 | 1486579691.06794 | pgbench_accounts_pkey |        673882112

 2017-02-08 19:48:12.139252+01 | 1486579692.13925 | pgbench_branches_pkey |            16384
 2017-02-08 19:48:12.139252+01 | 1486579692.13925 | pgbench_tellers_pkey  |            90112
 2017-02-08 19:48:12.139252+01 | 1486579692.13925 | pgbench_accounts_pkey |        673882112

 2017-02-08 19:48:13.213152+01 | 1486579693.21315 | pgbench_branches_pkey |            16384
 2017-02-08 19:48:13.213152+01 | 1486579693.21315 | pgbench_tellers_pkey  |            90112
 2017-02-08 19:48:13.213152+01 | 1486579693.21315 | pgbench_accounts_pkey |        673882112

 2017-02-08 19:48:14.277952+01 | 1486579694.27795 | pgbench_branches_pkey |            16384
 2017-02-08 19:48:14.277952+01 | 1486579694.27795 | pgbench_tellers_pkey  |            90112
 2017-02-08 19:48:14.277952+01 | 1486579694.27795 | pgbench_accounts_pkey |        673882112

 2017-02-08 19:48:15.340281+01 | 1486579695.34028 | pgbench_branches_pkey |            16384
 2017-02-08 19:48:15.340281+01 | 1486579695.34028 | pgbench_tellers_pkey  |            90112
 2017-02-08 19:48:15.340281+01 | 1486579695.34028 | pgbench_accounts_pkey |        673882112

 2017-02-08 19:48:16.40475+01 | 1486579696.40475 | pgbench_branches_pkey |            16384
 2017-02-08 19:48:16.40475+01 | 1486579696.40475 | pgbench_tellers_pkey  |            90112
 2017-02-08 19:48:16.40475+01 | 1486579696.40475 | pgbench_accounts_pkey |        673882112

 2017-02-08 19:48:17.466315+01 | 1486579697.46632 | pgbench_branches_pkey |            16384
 2017-02-08 19:48:17.466315+01 | 1486579697.46632 | pgbench_tellers_pkey  |            90112
 2017-02-08 19:48:17.466315+01 | 1486579697.46632 | pgbench_accounts_pkey |        673882112

 2017-02-08 19:48:18.530551+01 | 1486579698.53055 | pgbench_branches_pkey |            16384
 2017-02-08 19:48:18.530551+01 | 1486579698.53055 | pgbench_tellers_pkey  |            90112
 2017-02-08 19:48:18.530551+01 | 1486579698.53055 | pgbench_accounts_pkey |        673882112

 2017-02-08 19:48:19.585507+01 | 1486579699.58551 | pgbench_branches_pkey |            16384
 2017-02-08 19:48:19.585507+01 | 1486579699.58551 | pgbench_tellers_pkey  |            90112
 2017-02-08 19:48:19.585507+01 | 1486579699.58551 | pgbench_accounts_pkey |        673882112

 2017-02-08 19:48:20.643937+01 | 1486579700.64394 | pgbench_branches_pkey |            16384
 2017-02-08 19:48:20.643937+01 | 1486579700.64394 | pgbench_tellers_pkey  |            90112
 2017-02-08 19:48:20.643937+01 | 1486579700.64394 | pgbench_accounts_pkey |        673882112

 2017-02-08 19:48:21.706992+01 | 1486579701.70699 | pgbench_branches_pkey |            16384
 2017-02-08 19:48:21.706992+01 | 1486579701.70699 | pgbench_tellers_pkey  |            90112
 2017-02-08 19:48:21.706992+01 | 1486579701.70699 | pgbench_accounts_pkey |        673882112

 2017-02-08 19:48:22.763719+01 | 1486579702.76372 | pgbench_branches_pkey |            16384
 2017-02-08 19:48:22.763719+01 | 1486579702.76372 | pgbench_tellers_pkey  |            90112
 2017-02-08 19:48:22.763719+01 | 1486579702.76372 | pgbench_accounts_pkey |        673882112

 2017-02-08 19:48:23.828467+01 | 1486579703.82847 | pgbench_branches_pkey |            16384
 2017-02-08 19:48:23.828467+01 | 1486579703.82847 | pgbench_tellers_pkey  |            90112
 2017-02-08 19:48:23.828467+01 | 1486579703.82847 | pgbench_accounts_pkey |        673882112

 2017-02-08 19:48:24.890758+01 | 1486579704.89076 | pgbench_branches_pkey |            16384
 2017-02-08 19:48:24.890758+01 | 1486579704.89076 | pgbench_tellers_pkey  |            90112
 2017-02-08 19:48:24.890758+01 | 1486579704.89076 | pgbench_accounts_pkey |        673882112

 2017-02-08 19:48:25.965693+01 | 1486579705.96569 | pgbench_branches_pkey |            16384
 2017-02-08 19:48:25.965693+01 | 1486579705.96569 | pgbench_tellers_pkey  |            90112
 2017-02-08 19:48:25.965693+01 | 1486579705.96569 | pgbench_accounts_pkey |        673882112

 2017-02-08 19:48:27.032296+01 | 1486579707.0323 | pgbench_branches_pkey |            16384
 2017-02-08 19:48:27.032296+01 | 1486579707.0323 | pgbench_tellers_pkey  |            90112
 2017-02-08 19:48:27.032296+01 | 1486579707.0323 | pgbench_accounts_pkey |        673882112

 2017-02-08 19:48:28.095841+01 | 1486579708.09584 | pgbench_branches_pkey |            16384
 2017-02-08 19:48:28.095841+01 | 1486579708.09584 | pgbench_tellers_pkey  |            90112
 2017-02-08 19:48:28.095841+01 | 1486579708.09584 | pgbench_accounts_pkey |        673882112

 2017-02-08 19:48:29.159502+01 | 1486579709.1595 | pgbench_branches_pkey |            16384
 2017-02-08 19:48:29.159502+01 | 1486579709.1595 | pgbench_tellers_pkey  |            90112
 2017-02-08 19:48:29.159502+01 | 1486579709.1595 | pgbench_accounts_pkey |        673882112

 2017-02-08 19:48:30.224683+01 | 1486579710.22468 | pgbench_branches_pkey |            16384
 2017-02-08 19:48:30.224683+01 | 1486579710.22468 | pgbench_tellers_pkey  |            90112
 2017-02-08 19:48:30.224683+01 | 1486579710.22468 | pgbench_accounts_pkey |        673882112

 2017-02-08 19:48:31.296693+01 | 1486579711.29669 | pgbench_branches_pkey |            16384
 2017-02-08 19:48:31.296693+01 | 1486579711.29669 | pgbench_tellers_pkey  |            90112
 2017-02-08 19:48:31.296693+01 | 1486579711.29669 | pgbench_accounts_pkey |        673882112

 2017-02-08 19:48:32.372986+01 | 1486579712.37299 | pgbench_branches_pkey |            16384
 2017-02-08 19:48:32.372986+01 | 1486579712.37299 | pgbench_tellers_pkey  |            90112
 2017-02-08 19:48:32.372986+01 | 1486579712.37299 | pgbench_accounts_pkey |        673882112

 2017-02-08 19:48:33.438588+01 | 1486579713.43859 | pgbench_branches_pkey |            16384
 2017-02-08 19:48:33.438588+01 | 1486579713.43859 | pgbench_tellers_pkey  |            90112
 2017-02-08 19:48:33.438588+01 | 1486579713.43859 | pgbench_accounts_pkey |        673882112

 2017-02-08 19:48:34.506685+01 | 1486579714.50669 | pgbench_branches_pkey |            16384
 2017-02-08 19:48:34.506685+01 | 1486579714.50669 | pgbench_tellers_pkey  |            90112
 2017-02-08 19:48:34.506685+01 | 1486579714.50669 | pgbench_accounts_pkey |        673882112

 2017-02-08 19:48:35.576577+01 | 1486579715.57658 | pgbench_branches_pkey |            16384
 2017-02-08 19:48:35.576577+01 | 1486579715.57658 | pgbench_tellers_pkey  |            90112
 2017-02-08 19:48:35.576577+01 | 1486579715.57658 | pgbench_accounts_pkey |        673882112

 2017-02-08 19:48:36.647399+01 | 1486579716.6474 | pgbench_branches_pkey |            16384
 2017-02-08 19:48:36.647399+01 | 1486579716.6474 | pgbench_tellers_pkey  |            90112
 2017-02-08 19:48:36.647399+01 | 1486579716.6474 | pgbench_accounts_pkey |        673882112

 2017-02-08 19:48:37.716934+01 | 1486579717.71693 | pgbench_branches_pkey |            16384
 2017-02-08 19:48:37.716934+01 | 1486579717.71693 | pgbench_tellers_pkey  |            90112
 2017-02-08 19:48:37.716934+01 | 1486579717.71693 | pgbench_accounts_pkey |        673882112

 2017-02-08 19:48:38.794143+01 | 1486579718.79414 | pgbench_branches_pkey |            16384
 2017-02-08 19:48:38.794143+01 | 1486579718.79414 | pgbench_tellers_pkey  |            90112
 2017-02-08 19:48:38.794143+01 | 1486579718.79414 | pgbench_accounts_pkey |        673882112

 2017-02-08 19:48:39.865675+01 | 1486579719.86567 | pgbench_branches_pkey |            16384
 2017-02-08 19:48:39.865675+01 | 1486579719.86567 | pgbench_tellers_pkey  |            90112
 2017-02-08 19:48:39.865675+01 | 1486579719.86567 | pgbench_accounts_pkey |        673882112

 2017-02-08 19:48:40.933144+01 | 1486579720.93314 | pgbench_branches_pkey |            16384
 2017-02-08 19:48:40.933144+01 | 1486579720.93314 | pgbench_tellers_pkey  |            90112
 2017-02-08 19:48:40.933144+01 | 1486579720.93314 | pgbench_accounts_pkey |        673882112

 2017-02-08 19:48:42.009977+01 | 1486579722.00998 | pgbench_branches_pkey |            16384
 2017-02-08 19:48:42.009977+01 | 1486579722.00998 | pgbench_tellers_pkey  |            90112
 2017-02-08 19:48:42.009977+01 | 1486579722.00998 | pgbench_accounts_pkey |        673882112

 2017-02-08 19:48:43.075337+01 | 1486579723.07534 | pgbench_branches_pkey |            16384
 2017-02-08 19:48:43.075337+01 | 1486579723.07534 | pgbench_tellers_pkey  |            90112
 2017-02-08 19:48:43.075337+01 | 1486579723.07534 | pgbench_accounts_pkey |        673882112

 2017-02-08 19:48:44.128705+01 | 1486579724.12871 | pgbench_branches_pkey |            16384
 2017-02-08 19:48:44.128705+01 | 1486579724.12871 | pgbench_tellers_pkey  |            90112
 2017-02-08 19:48:44.128705+01 | 1486579724.12871 | pgbench_accounts_pkey |        673882112

 2017-02-08 19:48:45.195729+01 | 1486579725.19573 | pgbench_branches_pkey |            16384
 2017-02-08 19:48:45.195729+01 | 1486579725.19573 | pgbench_tellers_pkey  |            90112
 2017-02-08 19:48:45.195729+01 | 1486579725.19573 | pgbench_accounts_pkey |        673882112

 2017-02-08 19:48:46.255803+01 | 1486579726.2558 | pgbench_branches_pkey |            16384
 2017-02-08 19:48:46.255803+01 | 1486579726.2558 | pgbench_tellers_pkey  |            90112
 2017-02-08 19:48:46.255803+01 | 1486579726.2558 | pgbench_accounts_pkey |        673882112

 2017-02-08 19:48:47.321133+01 | 1486579727.32113 | pgbench_branches_pkey |            16384
 2017-02-08 19:48:47.321133+01 | 1486579727.32113 | pgbench_tellers_pkey  |            90112
 2017-02-08 19:48:47.321133+01 | 1486579727.32113 | pgbench_accounts_pkey |        673882112

 2017-02-08 19:48:48.388858+01 | 1486579728.38886 | pgbench_branches_pkey |            16384
 2017-02-08 19:48:48.388858+01 | 1486579728.38886 | pgbench_tellers_pkey  |            90112
 2017-02-08 19:48:48.388858+01 | 1486579728.38886 | pgbench_accounts_pkey |        673882112

 2017-02-08 19:48:49.45664+01 | 1486579729.45664 | pgbench_branches_pkey |            16384
 2017-02-08 19:48:49.45664+01 | 1486579729.45664 | pgbench_tellers_pkey  |            90112
 2017-02-08 19:48:49.45664+01 | 1486579729.45664 | pgbench_accounts_pkey |        673882112

 2017-02-08 19:48:50.528362+01 | 1486579730.52836 | pgbench_branches_pkey |            16384
 2017-02-08 19:48:50.528362+01 | 1486579730.52836 | pgbench_tellers_pkey  |            90112
 2017-02-08 19:48:50.528362+01 | 1486579730.52836 | pgbench_accounts_pkey |        673882112

 2017-02-08 19:48:51.586453+01 | 1486579731.58645 | pgbench_branches_pkey |            16384
 2017-02-08 19:48:51.586453+01 | 1486579731.58645 | pgbench_tellers_pkey  |            90112
 2017-02-08 19:48:51.586453+01 | 1486579731.58645 | pgbench_accounts_pkey |        673882112

 2017-02-08 19:48:52.669643+01 | 1486579732.66964 | pgbench_branches_pkey |            16384
 2017-02-08 19:48:52.669643+01 | 1486579732.66964 | pgbench_tellers_pkey  |            90112
 2017-02-08 19:48:52.669643+01 | 1486579732.66964 | pgbench_accounts_pkey |        673882112

 2017-02-08 19:48:53.736275+01 | 1486579733.73627 | pgbench_branches_pkey |            16384
 2017-02-08 19:48:53.736275+01 | 1486579733.73627 | pgbench_tellers_pkey  |            90112
 2017-02-08 19:48:53.736275+01 | 1486579733.73627 | pgbench_accounts_pkey |        673882112

 2017-02-08 19:48:54.798314+01 | 1486579734.79831 | pgbench_branches_pkey |            16384
 2017-02-08 19:48:54.798314+01 | 1486579734.79831 | pgbench_tellers_pkey  |            90112
 2017-02-08 19:48:54.798314+01 | 1486579734.79831 | pgbench_accounts_pkey |        673882112

 2017-02-08 19:48:55.86034+01 | 1486579735.86034 | pgbench_branches_pkey |            16384
 2017-02-08 19:48:55.86034+01 | 1486579735.86034 | pgbench_tellers_pkey  |            90112
 2017-02-08 19:48:55.86034+01 | 1486579735.86034 | pgbench_accounts_pkey |        673882112

 2017-02-08 19:48:56.914467+01 | 1486579736.91447 | pgbench_branches_pkey |            16384
 2017-02-08 19:48:56.914467+01 | 1486579736.91447 | pgbench_tellers_pkey  |            90112
 2017-02-08 19:48:56.914467+01 | 1486579736.91447 | pgbench_accounts_pkey |        673882112

 2017-02-08 19:48:57.973538+01 | 1486579737.97354 | pgbench_branches_pkey |            16384
 2017-02-08 19:48:57.973538+01 | 1486579737.97354 | pgbench_tellers_pkey  |            90112
 2017-02-08 19:48:57.973538+01 | 1486579737.97354 | pgbench_accounts_pkey |        673882112

 2017-02-08 19:48:59.034802+01 | 1486579739.0348 | pgbench_branches_pkey |            16384
 2017-02-08 19:48:59.034802+01 | 1486579739.0348 | pgbench_tellers_pkey  |            90112
 2017-02-08 19:48:59.034802+01 | 1486579739.0348 | pgbench_accounts_pkey |        673882112

 2017-02-08 19:49:00.10241+01 | 1486579740.10241 | pgbench_branches_pkey |            16384
 2017-02-08 19:49:00.10241+01 | 1486579740.10241 | pgbench_tellers_pkey  |            90112
 2017-02-08 19:49:00.10241+01 | 1486579740.10241 | pgbench_accounts_pkey |        673882112

 2017-02-08 19:49:01.182774+01 | 1486579741.18277 | pgbench_branches_pkey |            16384
 2017-02-08 19:49:01.182774+01 | 1486579741.18277 | pgbench_tellers_pkey  |            90112
 2017-02-08 19:49:01.182774+01 | 1486579741.18277 | pgbench_accounts_pkey |        673882112

 2017-02-08 19:49:02.246027+01 | 1486579742.24603 | pgbench_branches_pkey |            16384
 2017-02-08 19:49:02.246027+01 | 1486579742.24603 | pgbench_tellers_pkey  |            90112
 2017-02-08 19:49:02.246027+01 | 1486579742.24603 | pgbench_accounts_pkey |        673882112

 2017-02-08 19:49:03.321309+01 | 1486579743.32131 | pgbench_branches_pkey |            16384
 2017-02-08 19:49:03.321309+01 | 1486579743.32131 | pgbench_tellers_pkey  |            90112
 2017-02-08 19:49:03.321309+01 | 1486579743.32131 | pgbench_accounts_pkey |        673882112

 2017-02-08 19:49:04.382431+01 | 1486579744.38243 | pgbench_branches_pkey |            16384
 2017-02-08 19:49:04.382431+01 | 1486579744.38243 | pgbench_tellers_pkey  |            90112
 2017-02-08 19:49:04.382431+01 | 1486579744.38243 | pgbench_accounts_pkey |        673882112

 2017-02-08 19:49:05.444659+01 | 1486579745.44466 | pgbench_branches_pkey |            16384
 2017-02-08 19:49:05.444659+01 | 1486579745.44466 | pgbench_tellers_pkey  |            90112
 2017-02-08 19:49:05.444659+01 | 1486579745.44466 | pgbench_accounts_pkey |        673882112

 2017-02-08 19:49:06.511313+01 | 1486579746.51131 | pgbench_branches_pkey |            16384
 2017-02-08 19:49:06.511313+01 | 1486579746.51131 | pgbench_tellers_pkey  |            90112
 2017-02-08 19:49:06.511313+01 | 1486579746.51131 | pgbench_accounts_pkey |        673882112

 2017-02-08 19:49:07.57136+01 | 1486579747.57136 | pgbench_branches_pkey |            16384
 2017-02-08 19:49:07.57136+01 | 1486579747.57136 | pgbench_tellers_pkey  |            90112
 2017-02-08 19:49:07.57136+01 | 1486579747.57136 | pgbench_accounts_pkey |        673882112

 2017-02-08 19:49:08.638258+01 | 1486579748.63826 | pgbench_branches_pkey |            16384
 2017-02-08 19:49:08.638258+01 | 1486579748.63826 | pgbench_tellers_pkey  |            90112
 2017-02-08 19:49:08.638258+01 | 1486579748.63826 | pgbench_accounts_pkey |        673882112

 2017-02-08 19:49:09.700797+01 | 1486579749.7008 | pgbench_branches_pkey |            16384
 2017-02-08 19:49:09.700797+01 | 1486579749.7008 | pgbench_tellers_pkey  |            90112
 2017-02-08 19:49:09.700797+01 | 1486579749.7008 | pgbench_accounts_pkey |        673882112

 2017-02-08 19:49:10.765701+01 | 1486579750.7657 | pgbench_branches_pkey |            16384
 2017-02-08 19:49:10.765701+01 | 1486579750.7657 | pgbench_tellers_pkey  |            90112
 2017-02-08 19:49:10.765701+01 | 1486579750.7657 | pgbench_accounts_pkey |        673882112

 2017-02-08 19:49:11.833438+01 | 1486579751.83344 | pgbench_branches_pkey |            16384
 2017-02-08 19:49:11.833438+01 | 1486579751.83344 | pgbench_tellers_pkey  |            90112
 2017-02-08 19:49:11.833438+01 | 1486579751.83344 | pgbench_accounts_pkey |        673882112

 2017-02-08 19:49:12.914987+01 | 1486579752.91499 | pgbench_branches_pkey |            16384
 2017-02-08 19:49:12.914987+01 | 1486579752.91499 | pgbench_tellers_pkey  |            90112
 2017-02-08 19:49:12.914987+01 | 1486579752.91499 | pgbench_accounts_pkey |        673882112

 2017-02-08 19:49:13.981782+01 | 1486579753.98178 | pgbench_branches_pkey |            16384
 2017-02-08 19:49:13.981782+01 | 1486579753.98178 | pgbench_tellers_pkey  |            90112
 2017-02-08 19:49:13.981782+01 | 1486579753.98178 | pgbench_accounts_pkey |        673882112

 2017-02-08 19:49:15.046211+01 | 1486579755.04621 | pgbench_branches_pkey |            16384
 2017-02-08 19:49:15.046211+01 | 1486579755.04621 | pgbench_tellers_pkey  |            90112
 2017-02-08 19:49:15.046211+01 | 1486579755.04621 | pgbench_accounts_pkey |        673882112

 2017-02-08 19:49:16.118579+01 | 1486579756.11858 | pgbench_branches_pkey |            16384
 2017-02-08 19:49:16.118579+01 | 1486579756.11858 | pgbench_tellers_pkey  |            90112
 2017-02-08 19:49:16.118579+01 | 1486579756.11858 | pgbench_accounts_pkey |        673882112

 2017-02-08 19:49:17.185508+01 | 1486579757.18551 | pgbench_branches_pkey |            16384
 2017-02-08 19:49:17.185508+01 | 1486579757.18551 | pgbench_tellers_pkey  |            90112
 2017-02-08 19:49:17.185508+01 | 1486579757.18551 | pgbench_accounts_pkey |        673882112

 2017-02-08 19:49:18.252841+01 | 1486579758.25284 | pgbench_branches_pkey |            16384
 2017-02-08 19:49:18.252841+01 | 1486579758.25284 | pgbench_tellers_pkey  |            90112
 2017-02-08 19:49:18.252841+01 | 1486579758.25284 | pgbench_accounts_pkey |        673882112

 2017-02-08 19:49:19.32635+01 | 1486579759.32635 | pgbench_branches_pkey |            16384
 2017-02-08 19:49:19.32635+01 | 1486579759.32635 | pgbench_tellers_pkey  |            90112
 2017-02-08 19:49:19.32635+01 | 1486579759.32635 | pgbench_accounts_pkey |        673882112

 2017-02-08 19:49:20.394877+01 | 1486579760.39488 | pgbench_branches_pkey |            16384
 2017-02-08 19:49:20.394877+01 | 1486579760.39488 | pgbench_tellers_pkey  |            90112
 2017-02-08 19:49:20.394877+01 | 1486579760.39488 | pgbench_accounts_pkey |        673882112

 2017-02-08 19:49:21.460008+01 | 1486579761.46001 | pgbench_branches_pkey |            16384
 2017-02-08 19:49:21.460008+01 | 1486579761.46001 | pgbench_tellers_pkey  |            90112
 2017-02-08 19:49:21.460008+01 | 1486579761.46001 | pgbench_accounts_pkey |        673882112

