 2017-02-08 19:44:22.128743+01 | 1486579462.12874 | 1/1C714000               |            4772151296

 2017-02-08 19:44:23.180731+01 | 1486579463.18073 | 1/1FF928B8               |            4831389880

 2017-02-08 19:44:24.233902+01 | 1486579464.2339 | 1/234D14F8               |            4887221496

 2017-02-08 19:44:25.292773+01 | 1486579465.29277 | 1/26B16000               |            4944125952

 2017-02-08 19:44:26.358592+01 | 1486579466.35859 | 1/29C77060               |            4995903584

 2017-02-08 19:44:27.421833+01 | 1486579467.42183 | 1/2CBB78C8               |            5045450952

 2017-02-08 19:44:28.479474+01 | 1486579468.47947 | 1/2F924000               |            5093081088

 2017-02-08 19:44:29.536964+01 | 1486579469.53696 | 1/32508000               |            5139103744

 2017-02-08 19:44:30.594153+01 | 1486579470.59415 | 1/34FFE000               |            5184151552

 2017-02-08 19:44:31.653945+01 | 1486579471.65394 | 1/37A84000               |            5228740608

 2017-02-08 19:44:32.719783+01 | 1486579472.71978 | 1/3A39D750               |            5271836496

 2017-02-08 19:44:33.784671+01 | 1486579473.78467 | 1/3CE8E000               |            5316861952

 2017-02-08 19:44:34.851836+01 | 1486579474.85184 | 1/3F602000               |            5358231552

 2017-02-08 19:44:35.908368+01 | 1486579475.90837 | 1/41B5A670               |            5397390960

 2017-02-08 19:44:36.976562+01 | 1486579476.97656 | 1/43FB4000               |            5435506688

 2017-02-08 19:44:38.030156+01 | 1486579478.03016 | 1/46200000               |            5471469568

 2017-02-08 19:44:39.090932+01 | 1486579479.09093 | 1/48546000               |            5508456448

 2017-02-08 19:44:40.15394+01 | 1486579480.15394 | 1/4A919BA0               |            5546023840

 2017-02-08 19:44:41.218157+01 | 1486579481.21816 | 1/4CABA000               |            5581283328

 2017-02-08 19:44:42.278199+01 | 1486579482.2782 | 1/4EB21CC0               |            5615262912

 2017-02-08 19:44:43.33822+01 | 1486579483.33822 | 1/50BA7D88               |            5649366408

 2017-02-08 19:44:44.405645+01 | 1486579484.40564 | 1/52BFC000               |            5683265536

 2017-02-08 19:44:45.47488+01 | 1486579485.47488 | 1/54A66000               |            5715156992

 2017-02-08 19:44:46.539925+01 | 1486579486.53993 | 1/569389E8               |            5747476968

 2017-02-08 19:44:47.610626+01 | 1486579487.61063 | 1/587A0898               |            5779359896

 2017-02-08 19:44:48.684852+01 | 1486579488.68485 | 1/5A4EF888               |            5810092168

 2017-02-08 19:44:49.756668+01 | 1486579489.75667 | 1/5C24DCF8               |            5840887032

 2017-02-08 19:44:50.819816+01 | 1486579490.81982 | 1/5DFE61D8               |            5871919576

 2017-02-08 19:44:51.879021+01 | 1486579491.87902 | 1/5FB301A0               |            5900534176

 2017-02-08 19:44:52.944545+01 | 1486579492.94455 | 1/61636E18               |            5928873496

 2017-02-08 19:44:54.015068+01 | 1486579494.01507 | 1/631326D0               |            5957166800

 2017-02-08 19:44:55.073319+01 | 1486579495.07332 | 1/64DCE000               |            5987164160

 2017-02-08 19:44:56.140523+01 | 1486579496.14052 | 1/667D79D8               |            6014466520

 2017-02-08 19:44:57.206381+01 | 1486579497.20638 | 1/6815FC20               |            6041238560

 2017-02-08 19:44:58.263515+01 | 1486579498.26351 | 1/69A8C000               |            6067634176

 2017-02-08 19:44:59.327796+01 | 1486579499.3278 | 1/6B353660               |            6093616736

 2017-02-08 19:45:00.395593+01 | 1486579500.39559 | 1/6CB96000               |            6119055360

 2017-02-08 19:45:01.464796+01 | 1486579501.4648 | 1/6E477588               |            6145144200

 2017-02-08 19:45:02.530548+01 | 1486579502.53055 | 1/6FCCFC40               |            6170672192

 2017-02-08 19:45:03.588081+01 | 1486579503.58808 | 1/71481AB8               |            6195518136

 2017-02-08 19:45:04.651828+01 | 1486579504.65183 | 1/72BF3060               |            6220099680

 2017-02-08 19:45:05.715797+01 | 1486579505.7158 | 1/742F8000               |            6244237312

 2017-02-08 19:45:06.775864+01 | 1486579506.77586 | 1/759F2000               |            6268329984

 2017-02-08 19:45:07.84344+01 | 1486579507.84344 | 1/770D5EB0               |            6292332208

 2017-02-08 19:45:08.902496+01 | 1486579508.9025 | 1/787FFE78               |            6316621432

 2017-02-08 19:45:09.964263+01 | 1486579509.96426 | 1/79E12798               |            6339766168

 2017-02-08 19:45:11.031951+01 | 1486579511.03195 | 1/7B3C4850               |            6362515536

 2017-02-08 19:45:12.093939+01 | 1486579512.09394 | 1/7CA5F878               |            6386219128

 2017-02-08 19:45:13.156152+01 | 1486579513.15615 | 1/7E00E2A0               |            6408954528

 2017-02-08 19:45:14.216018+01 | 1486579514.21602 | 1/7F707640               |            6433044032

 2017-02-08 19:45:15.277213+01 | 1486579515.27721 | 1/80CA9960               |            6455728480

 2017-02-08 19:45:16.335822+01 | 1486579516.33582 | 1/8215DDC8               |            6477438408

 2017-02-08 19:45:17.401739+01 | 1486579517.40174 | 1/83694588               |            6499681672

 2017-02-08 19:45:18.464247+01 | 1486579518.46425 | 1/84B9D350               |            6521738064

 2017-02-08 19:45:19.53213+01 | 1486579519.53213 | 1/85FFDF80               |            6543105920

 2017-02-08 19:45:20.592361+01 | 1486579520.59236 | 1/873DF6B0               |            6563952304

 2017-02-08 19:45:21.668396+01 | 1486579521.6684 | 1/888BC000               |            6585827328

 2017-02-08 19:45:22.733697+01 | 1486579522.7337 | 1/89E230B8               |            6608269496

 2017-02-08 19:45:23.79458+01 | 1486579523.79458 | 1/8B12C158               |            6628229464

 2017-02-08 19:45:24.857203+01 | 1486579524.8572 | 1/8C4F5D20               |            6648978720

 2017-02-08 19:45:25.920569+01 | 1486579525.92057 | 1/8D806808               |            6668969992

 2017-02-08 19:45:26.98044+01 | 1486579526.98044 | 1/8EC2A460               |            6690088032

 2017-02-08 19:45:28.049684+01 | 1486579528.04968 | 1/8FF69350               |            6710268752

 2017-02-08 19:45:29.106497+01 | 1486579529.1065 | 1/911F34B0               |            6729708720

 2017-02-08 19:45:30.166175+01 | 1486579530.16617 | 1/925022D8               |            6749692632

 2017-02-08 19:45:31.228565+01 | 1486579531.22856 | 1/9380ABC0               |            6769650624

 2017-02-08 19:45:32.294539+01 | 1486579532.29454 | 1/94B01320               |            6789534496

 2017-02-08 19:45:33.355324+01 | 1486579533.35532 | 1/95D48630               |            6808700464

 2017-02-08 19:45:34.438385+01 | 1486579534.43839 | 1/96FE8460               |            6828229728

 2017-02-08 19:45:35.488653+01 | 1486579535.48865 | 1/980F5C08               |            6846110728

 2017-02-08 19:45:36.550763+01 | 1486579536.55076 | 1/993C8658               |            6865847896

 2017-02-08 19:45:37.622672+01 | 1486579537.62267 | 1/9A5B9B58               |            6884662104

 2017-02-08 19:45:38.690145+01 | 1486579538.69015 | 1/9B7BA000               |            6903537664

 2017-02-08 19:45:39.75681+01 | 1486579539.75681 | 1/9C9163C8               |            6921741256

 2017-02-08 19:45:40.831504+01 | 1486579540.8315 | 1/9DA3C868               |            6939723880

 2017-02-08 19:45:41.896723+01 | 1486579541.89672 | 1/9EB46EA8               |            6957592232

 2017-02-08 19:45:42.970812+01 | 1486579542.97081 | 1/9FC73DC8               |            6975602120

 2017-02-08 19:45:44.036315+01 | 1486579544.03631 | 1/A0DFB870               |            6993983600

 2017-02-08 19:45:45.09541+01 | 1486579545.09541 | 1/A1EBA490               |            7011542160

 2017-02-08 19:45:46.159312+01 | 1486579546.15931 | 1/A2FFE310               |            7029646096

 2017-02-08 19:45:47.238386+01 | 1486579547.23839 | 1/A400E438               |            7046489144

 2017-02-08 19:45:48.297426+01 | 1486579548.29743 | 1/A5051F40               |            7063543616

 2017-02-08 19:45:49.351563+01 | 1486579549.35156 | 1/A6056790               |            7080339344

 2017-02-08 19:45:50.414086+01 | 1486579550.41409 | 1/A704B418               |            7097070616

 2017-02-08 19:45:51.475743+01 | 1486579551.47574 | 1/A7FFEBD8               |            7113534424

 2017-02-08 19:45:52.539325+01 | 1486579552.53932 | 1/A90341C0               |            7130530240

 2017-02-08 19:45:53.598427+01 | 1486579553.59843 | 1/AA0783A8               |            7147586472

 2017-02-08 19:45:54.651702+01 | 1486579554.6517 | 1/AB045DF8               |            7164157432

 2017-02-08 19:45:55.704303+01 | 1486579555.7043 | 1/AC0C4B40               |            7181454144

 2017-02-08 19:45:56.759229+01 | 1486579556.75923 | 1/AD0114F8               |            7197496568

 2017-02-08 19:45:57.82122+01 | 1486579557.82122 | 1/ADFFE1D0               |            7214195152

 2017-02-08 19:45:58.90041+01 | 1486579558.90041 | 1/AEFFFA90               |            7230978704

 2017-02-08 19:45:59.958871+01 | 1486579559.95887 | 1/AFF2F1E0               |            7246901728

 2017-02-08 19:46:01.036332+01 | 1486579561.03633 | 1/B0DC47A0               |            7262193568

 2017-02-08 19:46:02.098461+01 | 1486579562.09846 | 1/B1C1FA40               |            7277247040

 2017-02-08 19:46:03.149667+01 | 1486579563.14967 | 1/B2AE7508               |            7292744968

 2017-02-08 19:46:04.2113+01 | 1486579564.2113 | 1/B3997510               |            7308145936

 2017-02-08 19:46:05.272502+01 | 1486579565.2725 | 1/B4768000               |            7322632192

 2017-02-08 19:46:06.345363+01 | 1486579566.34536 | 1/B5652A50               |            7338273360

 2017-02-08 19:46:07.414705+01 | 1486579567.41471 | 1/B6421D60               |            7352753504

 2017-02-08 19:46:08.475654+01 | 1486579568.47565 | 1/B71DA660               |            7367140960

 2017-02-08 19:46:09.536554+01 | 1486579569.53655 | 1/B7F7B958               |            7381432664

 2017-02-08 19:46:10.593123+01 | 1486579570.59312 | 1/B8DCE748               |            7396452168

 2017-02-08 19:46:11.657405+01 | 1486579571.6574 | 1/B9B910F0               |            7410880752

 2017-02-08 19:46:12.726219+01 | 1486579572.72622 | 1/BA89F648               |            7424570952

 2017-02-08 19:46:13.793725+01 | 1486579573.79373 | 1/BB5937A8               |            7438153640

 2017-02-08 19:46:14.861503+01 | 1486579574.8615 | 1/BC302F08               |            7452241672

 2017-02-08 19:46:15.930005+01 | 1486579575.93001 | 1/BD0200A8               |            7465992360

 2017-02-08 19:46:16.987167+01 | 1486579576.98717 | 1/BDD15D98               |            7479582104

 2017-02-08 19:46:18.042197+01 | 1486579578.0422 | 1/BEA3F170               |            7493382512

 2017-02-08 19:46:19.100277+01 | 1486579579.10028 | 1/BF7A4F98               |            7507431320

 2017-02-08 19:46:20.160497+01 | 1486579580.1605 | 1/C0525270               |            7521587824

 2017-02-08 19:46:21.219009+01 | 1486579581.21901 | 1/C1201AE8               |            7535074024

 2017-02-08 19:46:22.279651+01 | 1486579582.27965 | 1/C1EB2578               |            7548380536

 2017-02-08 19:46:23.341124+01 | 1486579583.34112 | 1/C2AA9B70               |            7560928112

 2017-02-08 19:46:24.405084+01 | 1486579584.40508 | 1/C3702980               |            7573875072

 2017-02-08 19:46:25.47261+01 | 1486579585.47261 | 1/C43BEA98               |            7587228312

 2017-02-08 19:46:26.530574+01 | 1486579586.53057 | 1/C4FD2E88               |            7599894152

 2017-02-08 19:46:27.582914+01 | 1486579587.58291 | 1/C5C5DDA8               |            7613046184

 2017-02-08 19:46:28.647325+01 | 1486579588.64733 | 1/C67CE720               |            7625041696

 2017-02-08 19:46:29.707146+01 | 1486579589.70715 | 1/C737DB58               |            7637293912

 2017-02-08 19:46:30.76875+01 | 1486579590.76875 | 1/C8000000               |            7650410496

 2017-02-08 19:46:31.834312+01 | 1486579591.83431 | 1/C8BB7FF8               |            7662698488

 2017-02-08 19:46:32.906798+01 | 1486579592.9068 | 1/C9728458               |            7674692696

 2017-02-08 19:46:33.977787+01 | 1486579593.97779 | 1/CA2E25A0               |            7686989216

 2017-02-08 19:46:35.042432+01 | 1486579595.04243 | 1/CADB8B30               |            7698352944

 2017-02-08 19:46:36.124789+01 | 1486579596.12479 | 1/CB94A610               |            7710483984

 2017-02-08 19:46:37.197933+01 | 1486579597.19793 | 1/CC4BCD70               |            7722487152

 2017-02-08 19:46:38.262242+01 | 1486579598.26224 | 1/CCFFE9B0               |            7734290864

 2017-02-08 19:46:39.319094+01 | 1486579599.31909 | 1/CDB1B090               |            7745941648

 2017-02-08 19:46:40.389854+01 | 1486579600.38985 | 1/CE5B13B0               |            7757042608

 2017-02-08 19:46:41.453739+01 | 1486579601.45374 | 1/CF0842E0               |            7768392416

 2017-02-08 19:46:42.528044+01 | 1486579602.52804 | 1/CFCC8178               |            7781253496

 2017-02-08 19:46:43.611254+01 | 1486579603.61125 | 1/D07520F8               |            7792304376

 2017-02-08 19:46:44.675249+01 | 1486579604.67525 | 1/D11F7AC0               |            7803468480

 2017-02-08 19:46:45.761006+01 | 1486579605.76101 | 1/D1D057A0               |            7815059360

 2017-02-08 19:46:46.83239+01 | 1486579606.83239 | 1/D279CC90               |            7826164880

 2017-02-08 19:46:47.893729+01 | 1486579607.89373 | 1/D329BB40               |            7837694784

 2017-02-08 19:46:48.956735+01 | 1486579608.95673 | 1/D3CDB778               |            7848441720

 2017-02-08 19:46:50.036761+01 | 1486579610.03676 | 1/D47C38A8               |            7859878056

 2017-02-08 19:46:51.104832+01 | 1486579611.10483 | 1/D51BD790               |            7870338960

 2017-02-08 19:46:52.163876+01 | 1486579612.16388 | 1/D5B9B908               |            7880685832

 2017-02-08 19:46:53.2304+01 | 1486579613.2304 | 1/D658E8A8               |            7891118248

 2017-02-08 19:46:54.285476+01 | 1486579614.28548 | 1/D7007040               |            7902097472

 2017-02-08 19:46:55.339464+01 | 1486579615.33946 | 1/D7A0B120               |            7912599840

 2017-02-08 19:46:56.413665+01 | 1486579616.41367 | 1/D83CC9B8               |            7922829752

 2017-02-08 19:46:57.480463+01 | 1486579617.48046 | 1/D8E106B0               |            7933593264

 2017-02-08 19:46:58.551982+01 | 1486579618.55198 | 1/D974C630               |            7943276080

 2017-02-08 19:46:59.611843+01 | 1486579619.61184 | 1/DA111ED0               |            7953522384

 2017-02-08 19:47:00.687469+01 | 1486579620.68747 | 1/DAAD8880               |            7963773056

 2017-02-08 19:47:01.74371+01 | 1486579621.74371 | 1/DB3EFA58               |            7973304920

 2017-02-08 19:47:02.813624+01 | 1486579622.81362 | 1/DBDEF3A8               |            7983788968

 2017-02-08 19:47:03.879685+01 | 1486579623.87968 | 1/DC755EF8               |            7993646840

 2017-02-08 19:47:04.939207+01 | 1486579624.93921 | 1/DD0B1FA8               |            8003461032

 2017-02-08 19:47:06.011666+01 | 1486579626.01167 | 1/DD9DB408               |            8013067272

 2017-02-08 19:47:07.074351+01 | 1486579627.07435 | 1/DE362388               |            8023057288

 2017-02-08 19:47:08.137069+01 | 1486579628.13707 | 1/DEC2EE30               |            8032284208

 2017-02-08 19:47:09.211042+01 | 1486579629.21104 | 1/DF4D4628               |            8041350696

 2017-02-08 19:47:10.277633+01 | 1486579630.27763 | 1/DFDB4000               |            8050655232

 2017-02-08 19:47:11.350902+01 | 1486579631.3509 | 1/E06AD958               |            8060066136

 2017-02-08 19:47:12.41529+01 | 1486579632.41529 | 1/E0F7EC28               |            8069311528

 2017-02-08 19:47:13.482253+01 | 1486579633.48225 | 1/E182EE48               |            8078421576

 2017-02-08 19:47:14.548517+01 | 1486579634.54852 | 1/E20AA060               |            8087314528

 2017-02-08 19:47:15.607359+01 | 1486579635.60736 | 1/E297CFB8               |            8096567224

 2017-02-08 19:47:16.666452+01 | 1486579636.66645 | 1/E31FEEE0               |            8105488096

 2017-02-08 19:47:17.725054+01 | 1486579637.72505 | 1/E3A70B08               |            8114342664

 2017-02-08 19:47:18.788292+01 | 1486579638.78829 | 1/E4275688               |            8122750600

 2017-02-08 19:47:19.862128+01 | 1486579639.86213 | 1/E4ACB3E8               |            8131490792

 2017-02-08 19:47:20.931458+01 | 1486579640.93146 | 1/E52F1890               |            8140036240

 2017-02-08 19:47:21.990639+01 | 1486579641.99064 | 1/E5B4CD68               |            8148798824

 2017-02-08 19:47:23.048706+01 | 1486579643.04871 | 1/E62DB688               |            8156722824

 2017-02-08 19:47:24.121761+01 | 1486579644.12176 | 1/E6AD36A8               |            8165078696

 2017-02-08 19:47:25.186879+01 | 1486579645.18688 | 1/E72845B0               |            8173143472

 2017-02-08 19:47:26.256433+01 | 1486579646.25643 | 1/E7A91A88               |            8181586568

 2017-02-08 19:47:27.330603+01 | 1486579647.3306 | 1/E824CC80               |            8189693056

 2017-02-08 19:47:28.394392+01 | 1486579648.39439 | 1/E8A1F558               |            8197895512

 2017-02-08 19:47:29.458443+01 | 1486579649.45844 | 1/E9188D38               |            8205667640

 2017-02-08 19:47:30.521975+01 | 1486579650.52198 | 1/E98DA000               |            8213340160

 2017-02-08 19:47:31.586255+01 | 1486579651.58626 | 1/EA04B138               |            8221143352

 2017-02-08 19:47:32.649908+01 | 1486579652.64991 | 1/EA8CB648               |            8230057544

 2017-02-08 19:47:33.709436+01 | 1486579653.70944 | 1/EB007908               |            8237644040

 2017-02-08 19:47:34.766004+01 | 1486579654.766 | 1/EB7E7A60               |            8245901920

 2017-02-08 19:47:35.844117+01 | 1486579655.84412 | 1/EBF7C000               |            8253849600

 2017-02-08 19:47:36.903696+01 | 1486579656.9037 | 1/EC6581E8               |            8261042664

 2017-02-08 19:47:37.973507+01 | 1486579657.97351 | 1/ECDCE000               |            8268865536

 2017-02-08 19:47:39.039393+01 | 1486579659.03939 | 1/ED5093B8               |            8276448184

 2017-02-08 19:47:40.100138+01 | 1486579660.10014 | 1/EDC979F0               |            8284371440

 2017-02-08 19:47:41.166266+01 | 1486579661.16627 | 1/EE394A68               |            8291699304

 2017-02-08 19:47:42.231219+01 | 1486579662.23122 | 1/EEA2E198               |            8298619288

 2017-02-08 19:47:43.303557+01 | 1486579663.30356 | 1/EF120E30               |            8305905200

 2017-02-08 19:47:44.375361+01 | 1486579664.37536 | 1/EF848BF0               |            8313408496

 2017-02-08 19:47:45.436347+01 | 1486579665.43635 | 1/EFEFBDF0               |            8320433648

 2017-02-08 19:47:46.496748+01 | 1486579666.49675 | 1/F05A0F08               |            8327401224

 2017-02-08 19:47:47.573858+01 | 1486579667.57386 | 1/F0CB57A8               |            8334825384

 2017-02-08 19:47:48.645086+01 | 1486579668.64509 | 1/F13974F0               |            8342041840

 2017-02-08 19:47:49.710225+01 | 1486579669.71023 | 1/F1A8F880               |            8349350016

 2017-02-08 19:47:50.769471+01 | 1486579670.76947 | 1/F2124418               |            8356250648

 2017-02-08 19:47:51.829467+01 | 1486579671.82947 | 1/F27F33C8               |            8363389896

 2017-02-08 19:47:52.896924+01 | 1486579672.89692 | 1/F2E5D198               |            8370114968

 2017-02-08 19:47:53.968012+01 | 1486579673.96801 | 1/F34C3898               |            8376826008

 2017-02-08 19:47:55.043877+01 | 1486579675.04388 | 1/F3B757D8               |            8383846360

 2017-02-08 19:47:56.102429+01 | 1486579676.10243 | 1/F41A8920               |            8390347040

 2017-02-08 19:47:57.171241+01 | 1486579677.17124 | 1/F47D3390               |            8396813200

 2017-02-08 19:47:58.236726+01 | 1486579678.23673 | 1/F4E363F8               |            8403510264

 2017-02-08 19:47:59.30096+01 | 1486579679.30096 | 1/F53F7AE8               |            8409545448

 2017-02-08 19:48:00.361606+01 | 1486579680.36161 | 1/F59DFA90               |            8415738512

 2017-02-08 19:48:01.425667+01 | 1486579681.42567 | 1/F5FF4AD0               |            8422116048

 2017-02-08 19:48:02.478603+01 | 1486579682.4786 | 1/F65AA270               |            8428102256

 2017-02-08 19:48:03.546382+01 | 1486579683.54638 | 1/F6BEE4A0               |            8434672800

 2017-02-08 19:48:04.623294+01 | 1486579684.62329 | 1/F720F3C0               |            8441099200

 2017-02-08 19:48:05.690513+01 | 1486579685.69051 | 1/F77CDF18               |            8447123224

 2017-02-08 19:48:06.762333+01 | 1486579686.76233 | 1/F7DD5220               |            8453444128

 2017-02-08 19:48:07.828378+01 | 1486579687.82838 | 1/F8382430               |            8459396144

 2017-02-08 19:48:08.897036+01 | 1486579688.89704 | 1/F890F160               |            8465215840

 2017-02-08 19:48:09.965368+01 | 1486579689.96537 | 1/F8F2F540               |            8471639360

 2017-02-08 19:48:11.024426+01 | 1486579691.02443 | 1/F947F6A0               |            8477210272

 2017-02-08 19:48:12.084158+01 | 1486579692.08416 | 1/F9A190A0               |            8483082400

 2017-02-08 19:48:13.161057+01 | 1486579693.16106 | 1/F9F974C8               |            8488842440

 2017-02-08 19:48:14.23289+01 | 1486579694.23289 | 1/FA4E72F0               |            8494412528

 2017-02-08 19:48:15.303286+01 | 1486579695.30329 | 1/FAA7E2A0               |            8500273824

 2017-02-08 19:48:16.35596+01 | 1486579696.35596 | 1/FAFE4160               |            8505934176

 2017-02-08 19:48:17.417966+01 | 1486579697.41797 | 1/FB534B90               |            8511507344

 2017-02-08 19:48:18.485429+01 | 1486579698.48543 | 1/FBAFDA98               |            8517573272

 2017-02-08 19:48:19.547876+01 | 1486579699.54788 | 1/FBFFEC00               |            8522820608

 2017-02-08 19:48:20.600114+01 | 1486579700.60011 | 1/FC55B3A8               |            8528442280

 2017-02-08 19:48:21.661677+01 | 1486579701.66168 | 1/FCACB548               |            8534144328

 2017-02-08 19:48:22.722679+01 | 1486579702.72268 | 1/FCFCAA58               |            8539384408

 2017-02-08 19:48:23.777056+01 | 1486579703.77706 | 1/FD4A24B0               |            8544462000

 2017-02-08 19:48:24.845376+01 | 1486579704.84538 | 1/FD995328               |            8549651240

 2017-02-08 19:48:25.906218+01 | 1486579705.90622 | 1/FDEC2B28               |            8555080488

 2017-02-08 19:48:26.986751+01 | 1486579706.98675 | 1/FE3D3460               |            8560391264

 2017-02-08 19:48:28.048308+01 | 1486579708.04831 | 1/FE92BD70               |            8565996912

 2017-02-08 19:48:29.110754+01 | 1486579709.11075 | 1/FEE5D6C0               |            8571442880

 2017-02-08 19:48:30.179178+01 | 1486579710.17918 | 1/FF2FE9B8               |            8576297400

 2017-02-08 19:48:31.243208+01 | 1486579711.24321 | 1/FF840338               |            8581808952

 2017-02-08 19:48:32.317351+01 | 1486579712.31735 | 1/FFD314A8               |            8586990760

 2017-02-08 19:48:33.390957+01 | 1486579713.39096 | 2/1D3D88                 |            8591850888

 2017-02-08 19:48:34.455431+01 | 1486579714.45543 | 2/6AFA48                 |            8596945480

 2017-02-08 19:48:35.531285+01 | 1486579715.53129 | 2/B8BDB0                 |            8602041776

 2017-02-08 19:48:36.594453+01 | 1486579716.59445 | 2/104FFD0                |            8607039440

 2017-02-08 19:48:37.664173+01 | 1486579717.66417 | 2/14DF7A8                |            8611821480

 2017-02-08 19:48:38.742575+01 | 1486579718.74257 | 2/1956628                |            8616502824

 2017-02-08 19:48:39.811867+01 | 1486579719.81187 | 2/1E060A0                |            8621416608

 2017-02-08 19:48:40.883967+01 | 1486579720.88397 | 2/2293E30                |            8626191920

 2017-02-08 19:48:41.958773+01 | 1486579721.95877 | 2/272E868                |            8631019624

 2017-02-08 19:48:43.03023+01 | 1486579723.03023 | 2/2BC5BF0                |            8635833328

 2017-02-08 19:48:44.091828+01 | 1486579724.09183 | 2/2FFE728                |            8640259880

 2017-02-08 19:48:45.146363+01 | 1486579725.14636 | 2/344AE18                |            8644767256

 2017-02-08 19:48:46.213237+01 | 1486579726.21324 | 2/38A4B90                |            8649329552

 2017-02-08 19:48:47.272704+01 | 1486579727.2727 | 2/3CF80A8                |            8653865128

 2017-02-08 19:48:48.338001+01 | 1486579728.338 | 2/4142D00                |            8658365696

 2017-02-08 19:48:49.407514+01 | 1486579729.40751 | 2/4588898                |            8662845592

 2017-02-08 19:48:50.476446+01 | 1486579730.47645 | 2/49AB530                |            8667182384

 2017-02-08 19:48:51.54401+01 | 1486579731.54401 | 2/4DDA878                |            8671570040

 2017-02-08 19:48:52.602743+01 | 1486579732.60274 | 2/51E08D0                |            8675789008

 2017-02-08 19:48:53.686364+01 | 1486579733.68636 | 2/5631EB8                |            8680316600

 2017-02-08 19:48:54.751764+01 | 1486579734.75176 | 2/5A20D58                |            8684440920

 2017-02-08 19:48:55.814992+01 | 1486579735.81499 | 2/5E348F0                |            8688716016

 2017-02-08 19:48:56.875549+01 | 1486579736.87555 | 2/6217590                |            8692790672

 2017-02-08 19:48:57.929185+01 | 1486579737.92918 | 2/663B7D0                |            8697133008

 2017-02-08 19:48:58.987057+01 | 1486579738.98706 | 2/6A503A0                |            8701412256

 2017-02-08 19:49:00.054995+01 | 1486579740.055 | 2/6E56918                |            8705632536

 2017-02-08 19:49:01.126378+01 | 1486579741.12638 | 2/721CCC8                |            8709590216

 2017-02-08 19:49:02.202017+01 | 1486579742.20202 | 2/75F8090                |            8713633936

 2017-02-08 19:49:03.267047+01 | 1486579743.26705 | 2/79CBA00                |            8717646336

 2017-02-08 19:49:04.342375+01 | 1486579744.34238 | 2/7D8BDA0                |            8721579424

 2017-02-08 19:49:05.399931+01 | 1486579745.39993 | 2/814A200                |            8725504512

 2017-02-08 19:49:06.464538+01 | 1486579746.46454 | 2/8512028                |            8729468968

 2017-02-08 19:49:07.529777+01 | 1486579747.52978 | 2/88E6CA0                |            8733486240

 2017-02-08 19:49:08.594599+01 | 1486579748.5946 | 2/8CC0F10                |            8737525520

 2017-02-08 19:49:09.655529+01 | 1486579749.65553 | 2/90384D8                |            8741160152

 2017-02-08 19:49:10.71522+01 | 1486579750.71522 | 2/942CBF0                |            8745307120

 2017-02-08 19:49:11.783593+01 | 1486579751.78359 | 2/979D7E0                |            8748914656

 2017-02-08 19:49:12.862667+01 | 1486579752.86267 | 2/9BB50F0                |            8753205488

 2017-02-08 19:49:13.931954+01 | 1486579753.93195 | 2/9FC92D8                |            8757482200

 2017-02-08 19:49:14.997313+01 | 1486579754.99731 | 2/A352AE8                |            8761191144

 2017-02-08 19:49:16.063123+01 | 1486579756.06312 | 2/A6DCBB0                |            8764902320

 2017-02-08 19:49:17.135982+01 | 1486579757.13598 | 2/AA67748                |            8768616264

 2017-02-08 19:49:18.207608+01 | 1486579758.20761 | 2/ADAB658                |            8772040280

 2017-02-08 19:49:19.270534+01 | 1486579759.27053 | 2/B10A070                |            8775573616

 2017-02-08 19:49:20.343536+01 | 1486579760.34354 | 2/B4AC858                |            8779384920

 2017-02-08 19:49:21.41301+01 | 1486579761.41301 | 2/B7F4FF8                |            8782827512

