 2017-02-08 08:39:38.491883+01 | 1486539578.49188 | pgbench_branches_pkey |          1171456
 2017-02-08 08:39:38.491883+01 | 1486539578.49188 | pgbench_tellers_pkey  |          3702784
 2017-02-08 08:39:38.491883+01 | 1486539578.49188 | pgbench_accounts_pkey |        673882112

 2017-02-08 08:39:39.585272+01 | 1486539579.58527 | pgbench_branches_pkey |          1171456
 2017-02-08 08:39:39.585272+01 | 1486539579.58527 | pgbench_tellers_pkey  |          3702784
 2017-02-08 08:39:39.585272+01 | 1486539579.58527 | pgbench_accounts_pkey |        673882112

 2017-02-08 08:39:40.678323+01 | 1486539580.67832 | pgbench_branches_pkey |          1171456
 2017-02-08 08:39:40.678323+01 | 1486539580.67832 | pgbench_tellers_pkey  |          3702784
 2017-02-08 08:39:40.678323+01 | 1486539580.67832 | pgbench_accounts_pkey |        673882112

 2017-02-08 08:39:41.774555+01 | 1486539581.77455 | pgbench_branches_pkey |          1171456
 2017-02-08 08:39:41.774555+01 | 1486539581.77455 | pgbench_tellers_pkey  |          3702784
 2017-02-08 08:39:41.774555+01 | 1486539581.77455 | pgbench_accounts_pkey |        673882112

 2017-02-08 08:39:42.865504+01 | 1486539582.8655 | pgbench_branches_pkey |          1171456
 2017-02-08 08:39:42.865504+01 | 1486539582.8655 | pgbench_tellers_pkey  |          3702784
 2017-02-08 08:39:42.865504+01 | 1486539582.8655 | pgbench_accounts_pkey |        673882112

 2017-02-08 08:39:43.933449+01 | 1486539583.93345 | pgbench_branches_pkey |          1171456
 2017-02-08 08:39:43.933449+01 | 1486539583.93345 | pgbench_tellers_pkey  |          3702784
 2017-02-08 08:39:43.933449+01 | 1486539583.93345 | pgbench_accounts_pkey |        673882112

 2017-02-08 08:39:45.016572+01 | 1486539585.01657 | pgbench_branches_pkey |          1171456
 2017-02-08 08:39:45.016572+01 | 1486539585.01657 | pgbench_tellers_pkey  |          3702784
 2017-02-08 08:39:45.016572+01 | 1486539585.01657 | pgbench_accounts_pkey |        673882112

 2017-02-08 08:39:46.109648+01 | 1486539586.10965 | pgbench_branches_pkey |          1171456
 2017-02-08 08:39:46.109648+01 | 1486539586.10965 | pgbench_tellers_pkey  |          3702784
 2017-02-08 08:39:46.109648+01 | 1486539586.10965 | pgbench_accounts_pkey |        673882112

 2017-02-08 08:39:47.221885+01 | 1486539587.22188 | pgbench_branches_pkey |          1171456
 2017-02-08 08:39:47.221885+01 | 1486539587.22188 | pgbench_tellers_pkey  |          3702784
 2017-02-08 08:39:47.221885+01 | 1486539587.22188 | pgbench_accounts_pkey |        673882112

 2017-02-08 08:39:48.305615+01 | 1486539588.30561 | pgbench_branches_pkey |          1171456
 2017-02-08 08:39:48.305615+01 | 1486539588.30561 | pgbench_tellers_pkey  |          3702784
 2017-02-08 08:39:48.305615+01 | 1486539588.30561 | pgbench_accounts_pkey |        673882112

 2017-02-08 08:39:49.377012+01 | 1486539589.37701 | pgbench_branches_pkey |          1171456
 2017-02-08 08:39:49.377012+01 | 1486539589.37701 | pgbench_tellers_pkey  |          3702784
 2017-02-08 08:39:49.377012+01 | 1486539589.37701 | pgbench_accounts_pkey |        673882112

 2017-02-08 08:39:50.473481+01 | 1486539590.47348 | pgbench_branches_pkey |          1171456
 2017-02-08 08:39:50.473481+01 | 1486539590.47348 | pgbench_tellers_pkey  |          3702784
 2017-02-08 08:39:50.473481+01 | 1486539590.47348 | pgbench_accounts_pkey |        673882112

 2017-02-08 08:39:51.567397+01 | 1486539591.5674 | pgbench_branches_pkey |          1171456
 2017-02-08 08:39:51.567397+01 | 1486539591.5674 | pgbench_tellers_pkey  |          3702784
 2017-02-08 08:39:51.567397+01 | 1486539591.5674 | pgbench_accounts_pkey |        673882112

 2017-02-08 08:39:52.652779+01 | 1486539592.65278 | pgbench_branches_pkey |          1171456
 2017-02-08 08:39:52.652779+01 | 1486539592.65278 | pgbench_tellers_pkey  |          3702784
 2017-02-08 08:39:52.652779+01 | 1486539592.65278 | pgbench_accounts_pkey |        673882112

 2017-02-08 08:39:53.780404+01 | 1486539593.7804 | pgbench_branches_pkey |          1171456
 2017-02-08 08:39:53.780404+01 | 1486539593.7804 | pgbench_tellers_pkey  |          3702784
 2017-02-08 08:39:53.780404+01 | 1486539593.7804 | pgbench_accounts_pkey |        673882112

 2017-02-08 08:39:54.863179+01 | 1486539594.86318 | pgbench_branches_pkey |          1171456
 2017-02-08 08:39:54.863179+01 | 1486539594.86318 | pgbench_tellers_pkey  |          3702784
 2017-02-08 08:39:54.863179+01 | 1486539594.86318 | pgbench_accounts_pkey |        673882112

 2017-02-08 08:39:55.94049+01 | 1486539595.94049 | pgbench_branches_pkey |          1171456
 2017-02-08 08:39:55.94049+01 | 1486539595.94049 | pgbench_tellers_pkey  |          3702784
 2017-02-08 08:39:55.94049+01 | 1486539595.94049 | pgbench_accounts_pkey |        673882112

 2017-02-08 08:39:57.024673+01 | 1486539597.02467 | pgbench_branches_pkey |          1171456
 2017-02-08 08:39:57.024673+01 | 1486539597.02467 | pgbench_tellers_pkey  |          3702784
 2017-02-08 08:39:57.024673+01 | 1486539597.02467 | pgbench_accounts_pkey |        673882112

 2017-02-08 08:39:58.138087+01 | 1486539598.13809 | pgbench_branches_pkey |          1171456
 2017-02-08 08:39:58.138087+01 | 1486539598.13809 | pgbench_tellers_pkey  |          3702784
 2017-02-08 08:39:58.138087+01 | 1486539598.13809 | pgbench_accounts_pkey |        673882112

 2017-02-08 08:39:59.225986+01 | 1486539599.22599 | pgbench_branches_pkey |          1171456
 2017-02-08 08:39:59.225986+01 | 1486539599.22599 | pgbench_tellers_pkey  |          3702784
 2017-02-08 08:39:59.225986+01 | 1486539599.22599 | pgbench_accounts_pkey |        673882112

 2017-02-08 08:40:00.310613+01 | 1486539600.31061 | pgbench_branches_pkey |          1171456
 2017-02-08 08:40:00.310613+01 | 1486539600.31061 | pgbench_tellers_pkey  |          3702784
 2017-02-08 08:40:00.310613+01 | 1486539600.31061 | pgbench_accounts_pkey |        673882112

 2017-02-08 08:40:01.414565+01 | 1486539601.41457 | pgbench_branches_pkey |          1171456
 2017-02-08 08:40:01.414565+01 | 1486539601.41457 | pgbench_tellers_pkey  |          3702784
 2017-02-08 08:40:01.414565+01 | 1486539601.41457 | pgbench_accounts_pkey |        673882112

 2017-02-08 08:40:02.525615+01 | 1486539602.52561 | pgbench_branches_pkey |          1171456
 2017-02-08 08:40:02.525615+01 | 1486539602.52561 | pgbench_tellers_pkey  |          3702784
 2017-02-08 08:40:02.525615+01 | 1486539602.52561 | pgbench_accounts_pkey |        673882112

 2017-02-08 08:40:03.63156+01 | 1486539603.63156 | pgbench_branches_pkey |          1171456
 2017-02-08 08:40:03.63156+01 | 1486539603.63156 | pgbench_tellers_pkey  |          3702784
 2017-02-08 08:40:03.63156+01 | 1486539603.63156 | pgbench_accounts_pkey |        673882112

 2017-02-08 08:40:04.725791+01 | 1486539604.72579 | pgbench_branches_pkey |          1171456
 2017-02-08 08:40:04.725791+01 | 1486539604.72579 | pgbench_tellers_pkey  |          3702784
 2017-02-08 08:40:04.725791+01 | 1486539604.72579 | pgbench_accounts_pkey |        673882112

 2017-02-08 08:40:05.829526+01 | 1486539605.82953 | pgbench_branches_pkey |          1171456
 2017-02-08 08:40:05.829526+01 | 1486539605.82953 | pgbench_tellers_pkey  |          3702784
 2017-02-08 08:40:05.829526+01 | 1486539605.82953 | pgbench_accounts_pkey |        673882112

 2017-02-08 08:40:06.923051+01 | 1486539606.92305 | pgbench_branches_pkey |          1171456
 2017-02-08 08:40:06.923051+01 | 1486539606.92305 | pgbench_tellers_pkey  |          3702784
 2017-02-08 08:40:06.923051+01 | 1486539606.92305 | pgbench_accounts_pkey |        673882112

 2017-02-08 08:40:08.008678+01 | 1486539608.00868 | pgbench_branches_pkey |          1171456
 2017-02-08 08:40:08.008678+01 | 1486539608.00868 | pgbench_tellers_pkey  |          3702784
 2017-02-08 08:40:08.008678+01 | 1486539608.00868 | pgbench_accounts_pkey |        673882112

 2017-02-08 08:40:09.095653+01 | 1486539609.09565 | pgbench_branches_pkey |          1171456
 2017-02-08 08:40:09.095653+01 | 1486539609.09565 | pgbench_tellers_pkey  |          3702784
 2017-02-08 08:40:09.095653+01 | 1486539609.09565 | pgbench_accounts_pkey |        673882112

 2017-02-08 08:40:10.189657+01 | 1486539610.18966 | pgbench_branches_pkey |          1171456
 2017-02-08 08:40:10.189657+01 | 1486539610.18966 | pgbench_tellers_pkey  |          3702784
 2017-02-08 08:40:10.189657+01 | 1486539610.18966 | pgbench_accounts_pkey |        673882112

 2017-02-08 08:40:11.273123+01 | 1486539611.27312 | pgbench_branches_pkey |          1171456
 2017-02-08 08:40:11.273123+01 | 1486539611.27312 | pgbench_tellers_pkey  |          3702784
 2017-02-08 08:40:11.273123+01 | 1486539611.27312 | pgbench_accounts_pkey |        673882112

 2017-02-08 08:40:12.341958+01 | 1486539612.34196 | pgbench_branches_pkey |          1171456
 2017-02-08 08:40:12.341958+01 | 1486539612.34196 | pgbench_tellers_pkey  |          3702784
 2017-02-08 08:40:12.341958+01 | 1486539612.34196 | pgbench_accounts_pkey |        673882112

 2017-02-08 08:40:13.444195+01 | 1486539613.4442 | pgbench_branches_pkey |          1171456
 2017-02-08 08:40:13.444195+01 | 1486539613.4442 | pgbench_tellers_pkey  |          3702784
 2017-02-08 08:40:13.444195+01 | 1486539613.4442 | pgbench_accounts_pkey |        673882112

 2017-02-08 08:40:14.526549+01 | 1486539614.52655 | pgbench_branches_pkey |          1171456
 2017-02-08 08:40:14.526549+01 | 1486539614.52655 | pgbench_tellers_pkey  |          3702784
 2017-02-08 08:40:14.526549+01 | 1486539614.52655 | pgbench_accounts_pkey |        673882112

 2017-02-08 08:40:15.623311+01 | 1486539615.62331 | pgbench_branches_pkey |          1171456
 2017-02-08 08:40:15.623311+01 | 1486539615.62331 | pgbench_tellers_pkey  |          3702784
 2017-02-08 08:40:15.623311+01 | 1486539615.62331 | pgbench_accounts_pkey |        673882112

 2017-02-08 08:40:16.715564+01 | 1486539616.71556 | pgbench_branches_pkey |          1171456
 2017-02-08 08:40:16.715564+01 | 1486539616.71556 | pgbench_tellers_pkey  |          3702784
 2017-02-08 08:40:16.715564+01 | 1486539616.71556 | pgbench_accounts_pkey |        673882112

 2017-02-08 08:40:17.805185+01 | 1486539617.80519 | pgbench_branches_pkey |          1171456
 2017-02-08 08:40:17.805185+01 | 1486539617.80519 | pgbench_tellers_pkey  |          3702784
 2017-02-08 08:40:17.805185+01 | 1486539617.80519 | pgbench_accounts_pkey |        673882112

 2017-02-08 08:40:18.889111+01 | 1486539618.88911 | pgbench_branches_pkey |          1171456
 2017-02-08 08:40:18.889111+01 | 1486539618.88911 | pgbench_tellers_pkey  |          3702784
 2017-02-08 08:40:18.889111+01 | 1486539618.88911 | pgbench_accounts_pkey |        673882112

 2017-02-08 08:40:20.000242+01 | 1486539620.00024 | pgbench_branches_pkey |          1171456
 2017-02-08 08:40:20.000242+01 | 1486539620.00024 | pgbench_tellers_pkey  |          3702784
 2017-02-08 08:40:20.000242+01 | 1486539620.00024 | pgbench_accounts_pkey |        673882112

 2017-02-08 08:40:21.113066+01 | 1486539621.11307 | pgbench_branches_pkey |          1171456
 2017-02-08 08:40:21.113066+01 | 1486539621.11307 | pgbench_tellers_pkey  |          3702784
 2017-02-08 08:40:21.113066+01 | 1486539621.11307 | pgbench_accounts_pkey |        673882112

 2017-02-08 08:40:22.234429+01 | 1486539622.23443 | pgbench_branches_pkey |          1171456
 2017-02-08 08:40:22.234429+01 | 1486539622.23443 | pgbench_tellers_pkey  |          3702784
 2017-02-08 08:40:22.234429+01 | 1486539622.23443 | pgbench_accounts_pkey |        673882112

 2017-02-08 08:40:23.312669+01 | 1486539623.31267 | pgbench_branches_pkey |          1171456
 2017-02-08 08:40:23.312669+01 | 1486539623.31267 | pgbench_tellers_pkey  |          3702784
 2017-02-08 08:40:23.312669+01 | 1486539623.31267 | pgbench_accounts_pkey |        673882112

 2017-02-08 08:40:24.419818+01 | 1486539624.41982 | pgbench_branches_pkey |          1171456
 2017-02-08 08:40:24.419818+01 | 1486539624.41982 | pgbench_tellers_pkey  |          3702784
 2017-02-08 08:40:24.419818+01 | 1486539624.41982 | pgbench_accounts_pkey |        673882112

 2017-02-08 08:40:25.512352+01 | 1486539625.51235 | pgbench_branches_pkey |          1171456
 2017-02-08 08:40:25.512352+01 | 1486539625.51235 | pgbench_tellers_pkey  |          3702784
 2017-02-08 08:40:25.512352+01 | 1486539625.51235 | pgbench_accounts_pkey |        673882112

 2017-02-08 08:40:26.613972+01 | 1486539626.61397 | pgbench_branches_pkey |          1171456
 2017-02-08 08:40:26.613972+01 | 1486539626.61397 | pgbench_tellers_pkey  |          3702784
 2017-02-08 08:40:26.613972+01 | 1486539626.61397 | pgbench_accounts_pkey |        673882112

 2017-02-08 08:40:27.709187+01 | 1486539627.70919 | pgbench_branches_pkey |          1171456
 2017-02-08 08:40:27.709187+01 | 1486539627.70919 | pgbench_tellers_pkey  |          3702784
 2017-02-08 08:40:27.709187+01 | 1486539627.70919 | pgbench_accounts_pkey |        673882112

 2017-02-08 08:40:28.80321+01 | 1486539628.80321 | pgbench_branches_pkey |          1171456
 2017-02-08 08:40:28.80321+01 | 1486539628.80321 | pgbench_tellers_pkey  |          3702784
 2017-02-08 08:40:28.80321+01 | 1486539628.80321 | pgbench_accounts_pkey |        673882112

 2017-02-08 08:40:29.905157+01 | 1486539629.90516 | pgbench_branches_pkey |          1171456
 2017-02-08 08:40:29.905157+01 | 1486539629.90516 | pgbench_tellers_pkey  |          3702784
 2017-02-08 08:40:29.905157+01 | 1486539629.90516 | pgbench_accounts_pkey |        673882112

 2017-02-08 08:40:31.007511+01 | 1486539631.00751 | pgbench_branches_pkey |          1171456
 2017-02-08 08:40:31.007511+01 | 1486539631.00751 | pgbench_tellers_pkey  |          3702784
 2017-02-08 08:40:31.007511+01 | 1486539631.00751 | pgbench_accounts_pkey |        673882112

 2017-02-08 08:40:32.080669+01 | 1486539632.08067 | pgbench_branches_pkey |          1171456
 2017-02-08 08:40:32.080669+01 | 1486539632.08067 | pgbench_tellers_pkey  |          3702784
 2017-02-08 08:40:32.080669+01 | 1486539632.08067 | pgbench_accounts_pkey |        673882112

 2017-02-08 08:40:33.152228+01 | 1486539633.15223 | pgbench_branches_pkey |          1171456
 2017-02-08 08:40:33.152228+01 | 1486539633.15223 | pgbench_tellers_pkey  |          3702784
 2017-02-08 08:40:33.152228+01 | 1486539633.15223 | pgbench_accounts_pkey |        673882112

 2017-02-08 08:40:34.271495+01 | 1486539634.2715 | pgbench_branches_pkey |          1171456
 2017-02-08 08:40:34.271495+01 | 1486539634.2715 | pgbench_tellers_pkey  |          3702784
 2017-02-08 08:40:34.271495+01 | 1486539634.2715 | pgbench_accounts_pkey |        673882112

 2017-02-08 08:40:35.374256+01 | 1486539635.37426 | pgbench_branches_pkey |          1171456
 2017-02-08 08:40:35.374256+01 | 1486539635.37426 | pgbench_tellers_pkey  |          3702784
 2017-02-08 08:40:35.374256+01 | 1486539635.37426 | pgbench_accounts_pkey |        673882112

 2017-02-08 08:40:36.497853+01 | 1486539636.49785 | pgbench_branches_pkey |          1171456
 2017-02-08 08:40:36.497853+01 | 1486539636.49785 | pgbench_tellers_pkey  |          3702784
 2017-02-08 08:40:36.497853+01 | 1486539636.49785 | pgbench_accounts_pkey |        673882112

 2017-02-08 08:40:37.591293+01 | 1486539637.59129 | pgbench_branches_pkey |          1171456
 2017-02-08 08:40:37.591293+01 | 1486539637.59129 | pgbench_tellers_pkey  |          3702784
 2017-02-08 08:40:37.591293+01 | 1486539637.59129 | pgbench_accounts_pkey |        673882112

 2017-02-08 08:40:38.707942+01 | 1486539638.70794 | pgbench_branches_pkey |          1171456
 2017-02-08 08:40:38.707942+01 | 1486539638.70794 | pgbench_tellers_pkey  |          3702784
 2017-02-08 08:40:38.707942+01 | 1486539638.70794 | pgbench_accounts_pkey |        673882112

 2017-02-08 08:40:39.834757+01 | 1486539639.83476 | pgbench_branches_pkey |          1171456
 2017-02-08 08:40:39.834757+01 | 1486539639.83476 | pgbench_tellers_pkey  |          3702784
 2017-02-08 08:40:39.834757+01 | 1486539639.83476 | pgbench_accounts_pkey |        673882112

 2017-02-08 08:40:40.935758+01 | 1486539640.93576 | pgbench_branches_pkey |          1171456
 2017-02-08 08:40:40.935758+01 | 1486539640.93576 | pgbench_tellers_pkey  |          3702784
 2017-02-08 08:40:40.935758+01 | 1486539640.93576 | pgbench_accounts_pkey |        673882112

 2017-02-08 08:40:42.0251+01 | 1486539642.0251 | pgbench_branches_pkey |          1171456
 2017-02-08 08:40:42.0251+01 | 1486539642.0251 | pgbench_tellers_pkey  |          3702784
 2017-02-08 08:40:42.0251+01 | 1486539642.0251 | pgbench_accounts_pkey |        673882112

 2017-02-08 08:40:43.118311+01 | 1486539643.11831 | pgbench_branches_pkey |          1171456
 2017-02-08 08:40:43.118311+01 | 1486539643.11831 | pgbench_tellers_pkey  |          3702784
 2017-02-08 08:40:43.118311+01 | 1486539643.11831 | pgbench_accounts_pkey |        673882112

 2017-02-08 08:40:44.239322+01 | 1486539644.23932 | pgbench_branches_pkey |          1171456
 2017-02-08 08:40:44.239322+01 | 1486539644.23932 | pgbench_tellers_pkey  |          3702784
 2017-02-08 08:40:44.239322+01 | 1486539644.23932 | pgbench_accounts_pkey |        673882112

 2017-02-08 08:40:45.38532+01 | 1486539645.38532 | pgbench_branches_pkey |          1171456
 2017-02-08 08:40:45.38532+01 | 1486539645.38532 | pgbench_tellers_pkey  |          3702784
 2017-02-08 08:40:45.38532+01 | 1486539645.38532 | pgbench_accounts_pkey |        673882112

 2017-02-08 08:40:46.505946+01 | 1486539646.50595 | pgbench_branches_pkey |          1171456
 2017-02-08 08:40:46.505946+01 | 1486539646.50595 | pgbench_tellers_pkey  |          3702784
 2017-02-08 08:40:46.505946+01 | 1486539646.50595 | pgbench_accounts_pkey |        673882112

 2017-02-08 08:40:47.629602+01 | 1486539647.6296 | pgbench_branches_pkey |          1171456
 2017-02-08 08:40:47.629602+01 | 1486539647.6296 | pgbench_tellers_pkey  |          3702784
 2017-02-08 08:40:47.629602+01 | 1486539647.6296 | pgbench_accounts_pkey |        673882112

 2017-02-08 08:40:48.703015+01 | 1486539648.70302 | pgbench_branches_pkey |          1171456
 2017-02-08 08:40:48.703015+01 | 1486539648.70302 | pgbench_tellers_pkey  |          3702784
 2017-02-08 08:40:48.703015+01 | 1486539648.70302 | pgbench_accounts_pkey |        673882112

 2017-02-08 08:40:49.826172+01 | 1486539649.82617 | pgbench_branches_pkey |          1171456
 2017-02-08 08:40:49.826172+01 | 1486539649.82617 | pgbench_tellers_pkey  |          3702784
 2017-02-08 08:40:49.826172+01 | 1486539649.82617 | pgbench_accounts_pkey |        673882112

 2017-02-08 08:40:50.942384+01 | 1486539650.94238 | pgbench_branches_pkey |          1171456
 2017-02-08 08:40:50.942384+01 | 1486539650.94238 | pgbench_tellers_pkey  |          3702784
 2017-02-08 08:40:50.942384+01 | 1486539650.94238 | pgbench_accounts_pkey |        673882112

 2017-02-08 08:40:52.049686+01 | 1486539652.04969 | pgbench_branches_pkey |          1171456
 2017-02-08 08:40:52.049686+01 | 1486539652.04969 | pgbench_tellers_pkey  |          3702784
 2017-02-08 08:40:52.049686+01 | 1486539652.04969 | pgbench_accounts_pkey |        673882112

 2017-02-08 08:40:53.176307+01 | 1486539653.17631 | pgbench_branches_pkey |          1171456
 2017-02-08 08:40:53.176307+01 | 1486539653.17631 | pgbench_tellers_pkey  |          3702784
 2017-02-08 08:40:53.176307+01 | 1486539653.17631 | pgbench_accounts_pkey |        673882112

 2017-02-08 08:40:54.277212+01 | 1486539654.27721 | pgbench_branches_pkey |          1171456
 2017-02-08 08:40:54.277212+01 | 1486539654.27721 | pgbench_tellers_pkey  |          3702784
 2017-02-08 08:40:54.277212+01 | 1486539654.27721 | pgbench_accounts_pkey |        673882112

 2017-02-08 08:40:55.384286+01 | 1486539655.38429 | pgbench_branches_pkey |          1171456
 2017-02-08 08:40:55.384286+01 | 1486539655.38429 | pgbench_tellers_pkey  |          3702784
 2017-02-08 08:40:55.384286+01 | 1486539655.38429 | pgbench_accounts_pkey |        673882112

 2017-02-08 08:40:56.481795+01 | 1486539656.4818 | pgbench_branches_pkey |          1171456
 2017-02-08 08:40:56.481795+01 | 1486539656.4818 | pgbench_tellers_pkey  |          3702784
 2017-02-08 08:40:56.481795+01 | 1486539656.4818 | pgbench_accounts_pkey |        673882112

 2017-02-08 08:40:57.584874+01 | 1486539657.58487 | pgbench_branches_pkey |          1171456
 2017-02-08 08:40:57.584874+01 | 1486539657.58487 | pgbench_tellers_pkey  |          3702784
 2017-02-08 08:40:57.584874+01 | 1486539657.58487 | pgbench_accounts_pkey |        673882112

 2017-02-08 08:40:58.687799+01 | 1486539658.6878 | pgbench_branches_pkey |          1171456
 2017-02-08 08:40:58.687799+01 | 1486539658.6878 | pgbench_tellers_pkey  |          3702784
 2017-02-08 08:40:58.687799+01 | 1486539658.6878 | pgbench_accounts_pkey |        673882112

 2017-02-08 08:40:59.794874+01 | 1486539659.79487 | pgbench_branches_pkey |          1171456
 2017-02-08 08:40:59.794874+01 | 1486539659.79487 | pgbench_tellers_pkey  |          3702784
 2017-02-08 08:40:59.794874+01 | 1486539659.79487 | pgbench_accounts_pkey |        673882112

 2017-02-08 08:41:00.884639+01 | 1486539660.88464 | pgbench_branches_pkey |          1171456
 2017-02-08 08:41:00.884639+01 | 1486539660.88464 | pgbench_tellers_pkey  |          3702784
 2017-02-08 08:41:00.884639+01 | 1486539660.88464 | pgbench_accounts_pkey |        673882112

 2017-02-08 08:41:01.986887+01 | 1486539661.98689 | pgbench_branches_pkey |          1171456
 2017-02-08 08:41:01.986887+01 | 1486539661.98689 | pgbench_tellers_pkey  |          3702784
 2017-02-08 08:41:01.986887+01 | 1486539661.98689 | pgbench_accounts_pkey |        673882112

 2017-02-08 08:41:03.094381+01 | 1486539663.09438 | pgbench_branches_pkey |          1171456
 2017-02-08 08:41:03.094381+01 | 1486539663.09438 | pgbench_tellers_pkey  |          3702784
 2017-02-08 08:41:03.094381+01 | 1486539663.09438 | pgbench_accounts_pkey |        673882112

 2017-02-08 08:41:04.194965+01 | 1486539664.19496 | pgbench_branches_pkey |          1171456
 2017-02-08 08:41:04.194965+01 | 1486539664.19496 | pgbench_tellers_pkey  |          3702784
 2017-02-08 08:41:04.194965+01 | 1486539664.19496 | pgbench_accounts_pkey |        673882112

 2017-02-08 08:41:05.313679+01 | 1486539665.31368 | pgbench_branches_pkey |          1171456
 2017-02-08 08:41:05.313679+01 | 1486539665.31368 | pgbench_tellers_pkey  |          3702784
 2017-02-08 08:41:05.313679+01 | 1486539665.31368 | pgbench_accounts_pkey |        673882112

 2017-02-08 08:41:06.445922+01 | 1486539666.44592 | pgbench_branches_pkey |          1171456
 2017-02-08 08:41:06.445922+01 | 1486539666.44592 | pgbench_tellers_pkey  |          3702784
 2017-02-08 08:41:06.445922+01 | 1486539666.44592 | pgbench_accounts_pkey |        673882112

 2017-02-08 08:41:07.549757+01 | 1486539667.54976 | pgbench_branches_pkey |          1171456
 2017-02-08 08:41:07.549757+01 | 1486539667.54976 | pgbench_tellers_pkey  |          3702784
 2017-02-08 08:41:07.549757+01 | 1486539667.54976 | pgbench_accounts_pkey |        673882112

 2017-02-08 08:41:08.671529+01 | 1486539668.67153 | pgbench_branches_pkey |          1171456
 2017-02-08 08:41:08.671529+01 | 1486539668.67153 | pgbench_tellers_pkey  |          3702784
 2017-02-08 08:41:08.671529+01 | 1486539668.67153 | pgbench_accounts_pkey |        673882112

 2017-02-08 08:41:09.784979+01 | 1486539669.78498 | pgbench_branches_pkey |          1171456
 2017-02-08 08:41:09.784979+01 | 1486539669.78498 | pgbench_tellers_pkey  |          3702784
 2017-02-08 08:41:09.784979+01 | 1486539669.78498 | pgbench_accounts_pkey |        673882112

 2017-02-08 08:41:10.900398+01 | 1486539670.9004 | pgbench_branches_pkey |          1171456
 2017-02-08 08:41:10.900398+01 | 1486539670.9004 | pgbench_tellers_pkey  |          3702784
 2017-02-08 08:41:10.900398+01 | 1486539670.9004 | pgbench_accounts_pkey |        673882112

 2017-02-08 08:41:11.997726+01 | 1486539671.99773 | pgbench_branches_pkey |          1171456
 2017-02-08 08:41:11.997726+01 | 1486539671.99773 | pgbench_tellers_pkey  |          3702784
 2017-02-08 08:41:11.997726+01 | 1486539671.99773 | pgbench_accounts_pkey |        673882112

 2017-02-08 08:41:13.13326+01 | 1486539673.13326 | pgbench_branches_pkey |          1171456
 2017-02-08 08:41:13.13326+01 | 1486539673.13326 | pgbench_tellers_pkey  |          3702784
 2017-02-08 08:41:13.13326+01 | 1486539673.13326 | pgbench_accounts_pkey |        673882112

 2017-02-08 08:41:14.267726+01 | 1486539674.26773 | pgbench_branches_pkey |          1171456
 2017-02-08 08:41:14.267726+01 | 1486539674.26773 | pgbench_tellers_pkey  |          3702784
 2017-02-08 08:41:14.267726+01 | 1486539674.26773 | pgbench_accounts_pkey |        673882112

 2017-02-08 08:41:15.390168+01 | 1486539675.39017 | pgbench_branches_pkey |          1171456
 2017-02-08 08:41:15.390168+01 | 1486539675.39017 | pgbench_tellers_pkey  |          3702784
 2017-02-08 08:41:15.390168+01 | 1486539675.39017 | pgbench_accounts_pkey |        673882112

 2017-02-08 08:41:16.51594+01 | 1486539676.51594 | pgbench_branches_pkey |          1171456
 2017-02-08 08:41:16.51594+01 | 1486539676.51594 | pgbench_tellers_pkey  |          3702784
 2017-02-08 08:41:16.51594+01 | 1486539676.51594 | pgbench_accounts_pkey |        673882112

 2017-02-08 08:41:17.626179+01 | 1486539677.62618 | pgbench_branches_pkey |          1171456
 2017-02-08 08:41:17.626179+01 | 1486539677.62618 | pgbench_tellers_pkey  |          3702784
 2017-02-08 08:41:17.626179+01 | 1486539677.62618 | pgbench_accounts_pkey |        673882112

 2017-02-08 08:41:18.717671+01 | 1486539678.71767 | pgbench_branches_pkey |          1171456
 2017-02-08 08:41:18.717671+01 | 1486539678.71767 | pgbench_tellers_pkey  |          3702784
 2017-02-08 08:41:18.717671+01 | 1486539678.71767 | pgbench_accounts_pkey |        673882112

 2017-02-08 08:41:19.828029+01 | 1486539679.82803 | pgbench_branches_pkey |          1171456
 2017-02-08 08:41:19.828029+01 | 1486539679.82803 | pgbench_tellers_pkey  |          3702784
 2017-02-08 08:41:19.828029+01 | 1486539679.82803 | pgbench_accounts_pkey |        673882112

 2017-02-08 08:41:20.942013+01 | 1486539680.94201 | pgbench_branches_pkey |          1171456
 2017-02-08 08:41:20.942013+01 | 1486539680.94201 | pgbench_tellers_pkey  |          3702784
 2017-02-08 08:41:20.942013+01 | 1486539680.94201 | pgbench_accounts_pkey |        673882112

 2017-02-08 08:41:22.030338+01 | 1486539682.03034 | pgbench_branches_pkey |          1171456
 2017-02-08 08:41:22.030338+01 | 1486539682.03034 | pgbench_tellers_pkey  |          3702784
 2017-02-08 08:41:22.030338+01 | 1486539682.03034 | pgbench_accounts_pkey |        673882112

 2017-02-08 08:41:23.108455+01 | 1486539683.10845 | pgbench_branches_pkey |          1171456
 2017-02-08 08:41:23.108455+01 | 1486539683.10845 | pgbench_tellers_pkey  |          3702784
 2017-02-08 08:41:23.108455+01 | 1486539683.10845 | pgbench_accounts_pkey |        673882112

 2017-02-08 08:41:24.255119+01 | 1486539684.25512 | pgbench_branches_pkey |          1171456
 2017-02-08 08:41:24.255119+01 | 1486539684.25512 | pgbench_tellers_pkey  |          3702784
 2017-02-08 08:41:24.255119+01 | 1486539684.25512 | pgbench_accounts_pkey |        673882112

 2017-02-08 08:41:25.355606+01 | 1486539685.35561 | pgbench_branches_pkey |          1171456
 2017-02-08 08:41:25.355606+01 | 1486539685.35561 | pgbench_tellers_pkey  |          3702784
 2017-02-08 08:41:25.355606+01 | 1486539685.35561 | pgbench_accounts_pkey |        673882112

 2017-02-08 08:41:26.494673+01 | 1486539686.49467 | pgbench_branches_pkey |          1171456
 2017-02-08 08:41:26.494673+01 | 1486539686.49467 | pgbench_tellers_pkey  |          3702784
 2017-02-08 08:41:26.494673+01 | 1486539686.49467 | pgbench_accounts_pkey |        673882112

 2017-02-08 08:41:27.625167+01 | 1486539687.62517 | pgbench_branches_pkey |          1171456
 2017-02-08 08:41:27.625167+01 | 1486539687.62517 | pgbench_tellers_pkey  |          3702784
 2017-02-08 08:41:27.625167+01 | 1486539687.62517 | pgbench_accounts_pkey |        673882112

 2017-02-08 08:41:28.711976+01 | 1486539688.71198 | pgbench_branches_pkey |          1171456
 2017-02-08 08:41:28.711976+01 | 1486539688.71198 | pgbench_tellers_pkey  |          3702784
 2017-02-08 08:41:28.711976+01 | 1486539688.71198 | pgbench_accounts_pkey |        673882112

 2017-02-08 08:41:29.827295+01 | 1486539689.8273 | pgbench_branches_pkey |          1171456
 2017-02-08 08:41:29.827295+01 | 1486539689.8273 | pgbench_tellers_pkey  |          3702784
 2017-02-08 08:41:29.827295+01 | 1486539689.8273 | pgbench_accounts_pkey |        673882112

 2017-02-08 08:41:30.922582+01 | 1486539690.92258 | pgbench_branches_pkey |          1171456
 2017-02-08 08:41:30.922582+01 | 1486539690.92258 | pgbench_tellers_pkey  |          3702784
 2017-02-08 08:41:30.922582+01 | 1486539690.92258 | pgbench_accounts_pkey |        673882112

 2017-02-08 08:41:32.018817+01 | 1486539692.01882 | pgbench_branches_pkey |          1171456
 2017-02-08 08:41:32.018817+01 | 1486539692.01882 | pgbench_tellers_pkey  |          3702784
 2017-02-08 08:41:32.018817+01 | 1486539692.01882 | pgbench_accounts_pkey |        673882112

 2017-02-08 08:41:33.171487+01 | 1486539693.17149 | pgbench_branches_pkey |          1171456
 2017-02-08 08:41:33.171487+01 | 1486539693.17149 | pgbench_tellers_pkey  |          3702784
 2017-02-08 08:41:33.171487+01 | 1486539693.17149 | pgbench_accounts_pkey |        673882112

 2017-02-08 08:41:34.308764+01 | 1486539694.30876 | pgbench_branches_pkey |          1171456
 2017-02-08 08:41:34.308764+01 | 1486539694.30876 | pgbench_tellers_pkey  |          3702784
 2017-02-08 08:41:34.308764+01 | 1486539694.30876 | pgbench_accounts_pkey |        673882112

 2017-02-08 08:41:35.397231+01 | 1486539695.39723 | pgbench_branches_pkey |          1171456
 2017-02-08 08:41:35.397231+01 | 1486539695.39723 | pgbench_tellers_pkey  |          3702784
 2017-02-08 08:41:35.397231+01 | 1486539695.39723 | pgbench_accounts_pkey |        673882112

 2017-02-08 08:41:36.485228+01 | 1486539696.48523 | pgbench_branches_pkey |          1171456
 2017-02-08 08:41:36.485228+01 | 1486539696.48523 | pgbench_tellers_pkey  |          3702784
 2017-02-08 08:41:36.485228+01 | 1486539696.48523 | pgbench_accounts_pkey |        673882112

 2017-02-08 08:41:37.593325+01 | 1486539697.59332 | pgbench_branches_pkey |          1171456
 2017-02-08 08:41:37.593325+01 | 1486539697.59332 | pgbench_tellers_pkey  |          3702784
 2017-02-08 08:41:37.593325+01 | 1486539697.59332 | pgbench_accounts_pkey |        673882112

 2017-02-08 08:41:38.712323+01 | 1486539698.71232 | pgbench_branches_pkey |          1171456
 2017-02-08 08:41:38.712323+01 | 1486539698.71232 | pgbench_tellers_pkey  |          3702784
 2017-02-08 08:41:38.712323+01 | 1486539698.71232 | pgbench_accounts_pkey |        673882112

 2017-02-08 08:41:39.813012+01 | 1486539699.81301 | pgbench_branches_pkey |          1171456
 2017-02-08 08:41:39.813012+01 | 1486539699.81301 | pgbench_tellers_pkey  |          3702784
 2017-02-08 08:41:39.813012+01 | 1486539699.81301 | pgbench_accounts_pkey |        673882112

 2017-02-08 08:41:40.918199+01 | 1486539700.9182 | pgbench_branches_pkey |          1171456
 2017-02-08 08:41:40.918199+01 | 1486539700.9182 | pgbench_tellers_pkey  |          3702784
 2017-02-08 08:41:40.918199+01 | 1486539700.9182 | pgbench_accounts_pkey |        673882112

 2017-02-08 08:41:42.015607+01 | 1486539702.01561 | pgbench_branches_pkey |          1171456
 2017-02-08 08:41:42.015607+01 | 1486539702.01561 | pgbench_tellers_pkey  |          3702784
 2017-02-08 08:41:42.015607+01 | 1486539702.01561 | pgbench_accounts_pkey |        673882112

 2017-02-08 08:41:43.129526+01 | 1486539703.12953 | pgbench_branches_pkey |          1171456
 2017-02-08 08:41:43.129526+01 | 1486539703.12953 | pgbench_tellers_pkey  |          3702784
 2017-02-08 08:41:43.129526+01 | 1486539703.12953 | pgbench_accounts_pkey |        673882112

 2017-02-08 08:41:44.231181+01 | 1486539704.23118 | pgbench_branches_pkey |          1171456
 2017-02-08 08:41:44.231181+01 | 1486539704.23118 | pgbench_tellers_pkey  |          3702784
 2017-02-08 08:41:44.231181+01 | 1486539704.23118 | pgbench_accounts_pkey |        673882112

 2017-02-08 08:41:45.339392+01 | 1486539705.33939 | pgbench_branches_pkey |          1171456
 2017-02-08 08:41:45.339392+01 | 1486539705.33939 | pgbench_tellers_pkey  |          3702784
 2017-02-08 08:41:45.339392+01 | 1486539705.33939 | pgbench_accounts_pkey |        673882112

 2017-02-08 08:41:46.493012+01 | 1486539706.49301 | pgbench_branches_pkey |          1171456
 2017-02-08 08:41:46.493012+01 | 1486539706.49301 | pgbench_tellers_pkey  |          3702784
 2017-02-08 08:41:46.493012+01 | 1486539706.49301 | pgbench_accounts_pkey |        673882112

 2017-02-08 08:41:47.586947+01 | 1486539707.58695 | pgbench_branches_pkey |          1171456
 2017-02-08 08:41:47.586947+01 | 1486539707.58695 | pgbench_tellers_pkey  |          3702784
 2017-02-08 08:41:47.586947+01 | 1486539707.58695 | pgbench_accounts_pkey |        673882112

 2017-02-08 08:41:48.68149+01 | 1486539708.68149 | pgbench_branches_pkey |          1171456
 2017-02-08 08:41:48.68149+01 | 1486539708.68149 | pgbench_tellers_pkey  |          3702784
 2017-02-08 08:41:48.68149+01 | 1486539708.68149 | pgbench_accounts_pkey |        673882112

 2017-02-08 08:41:49.77564+01 | 1486539709.77564 | pgbench_branches_pkey |          1171456
 2017-02-08 08:41:49.77564+01 | 1486539709.77564 | pgbench_tellers_pkey  |          3702784
 2017-02-08 08:41:49.77564+01 | 1486539709.77564 | pgbench_accounts_pkey |        673882112

 2017-02-08 08:41:50.904832+01 | 1486539710.90483 | pgbench_branches_pkey |          1171456
 2017-02-08 08:41:50.904832+01 | 1486539710.90483 | pgbench_tellers_pkey  |          3702784
 2017-02-08 08:41:50.904832+01 | 1486539710.90483 | pgbench_accounts_pkey |        673882112

 2017-02-08 08:41:52.030213+01 | 1486539712.03021 | pgbench_branches_pkey |          1171456
 2017-02-08 08:41:52.030213+01 | 1486539712.03021 | pgbench_tellers_pkey  |          3702784
 2017-02-08 08:41:52.030213+01 | 1486539712.03021 | pgbench_accounts_pkey |        673882112

 2017-02-08 08:41:53.152406+01 | 1486539713.15241 | pgbench_branches_pkey |          1171456
 2017-02-08 08:41:53.152406+01 | 1486539713.15241 | pgbench_tellers_pkey  |          3702784
 2017-02-08 08:41:53.152406+01 | 1486539713.15241 | pgbench_accounts_pkey |        673882112

 2017-02-08 08:41:54.294802+01 | 1486539714.2948 | pgbench_branches_pkey |          1171456
 2017-02-08 08:41:54.294802+01 | 1486539714.2948 | pgbench_tellers_pkey  |          3702784
 2017-02-08 08:41:54.294802+01 | 1486539714.2948 | pgbench_accounts_pkey |        673882112

 2017-02-08 08:41:55.429146+01 | 1486539715.42915 | pgbench_branches_pkey |          1171456
 2017-02-08 08:41:55.429146+01 | 1486539715.42915 | pgbench_tellers_pkey  |          3702784
 2017-02-08 08:41:55.429146+01 | 1486539715.42915 | pgbench_accounts_pkey |        673882112

 2017-02-08 08:41:56.561674+01 | 1486539716.56167 | pgbench_branches_pkey |          1171456
 2017-02-08 08:41:56.561674+01 | 1486539716.56167 | pgbench_tellers_pkey  |          3702784
 2017-02-08 08:41:56.561674+01 | 1486539716.56167 | pgbench_accounts_pkey |        673882112

 2017-02-08 08:41:57.683427+01 | 1486539717.68343 | pgbench_branches_pkey |          1171456
 2017-02-08 08:41:57.683427+01 | 1486539717.68343 | pgbench_tellers_pkey  |          3702784
 2017-02-08 08:41:57.683427+01 | 1486539717.68343 | pgbench_accounts_pkey |        673882112

 2017-02-08 08:41:58.771586+01 | 1486539718.77159 | pgbench_branches_pkey |          1171456
 2017-02-08 08:41:58.771586+01 | 1486539718.77159 | pgbench_tellers_pkey  |          3702784
 2017-02-08 08:41:58.771586+01 | 1486539718.77159 | pgbench_accounts_pkey |        673882112

 2017-02-08 08:41:59.906559+01 | 1486539719.90656 | pgbench_branches_pkey |          1171456
 2017-02-08 08:41:59.906559+01 | 1486539719.90656 | pgbench_tellers_pkey  |          3702784
 2017-02-08 08:41:59.906559+01 | 1486539719.90656 | pgbench_accounts_pkey |        673882112

 2017-02-08 08:42:01.036066+01 | 1486539721.03607 | pgbench_branches_pkey |          1171456
 2017-02-08 08:42:01.036066+01 | 1486539721.03607 | pgbench_tellers_pkey  |          3702784
 2017-02-08 08:42:01.036066+01 | 1486539721.03607 | pgbench_accounts_pkey |        673882112

 2017-02-08 08:42:02.159346+01 | 1486539722.15935 | pgbench_branches_pkey |          1171456
 2017-02-08 08:42:02.159346+01 | 1486539722.15935 | pgbench_tellers_pkey  |          3702784
 2017-02-08 08:42:02.159346+01 | 1486539722.15935 | pgbench_accounts_pkey |        673882112

 2017-02-08 08:42:03.281824+01 | 1486539723.28182 | pgbench_branches_pkey |          1171456
 2017-02-08 08:42:03.281824+01 | 1486539723.28182 | pgbench_tellers_pkey  |          3702784
 2017-02-08 08:42:03.281824+01 | 1486539723.28182 | pgbench_accounts_pkey |        673882112

 2017-02-08 08:42:04.371126+01 | 1486539724.37113 | pgbench_branches_pkey |          1171456
 2017-02-08 08:42:04.371126+01 | 1486539724.37113 | pgbench_tellers_pkey  |          3702784
 2017-02-08 08:42:04.371126+01 | 1486539724.37113 | pgbench_accounts_pkey |        673882112

 2017-02-08 08:42:05.497591+01 | 1486539725.49759 | pgbench_branches_pkey |          1171456
 2017-02-08 08:42:05.497591+01 | 1486539725.49759 | pgbench_tellers_pkey  |          3702784
 2017-02-08 08:42:05.497591+01 | 1486539725.49759 | pgbench_accounts_pkey |        673882112

 2017-02-08 08:42:06.662786+01 | 1486539726.66279 | pgbench_branches_pkey |          1171456
 2017-02-08 08:42:06.662786+01 | 1486539726.66279 | pgbench_tellers_pkey  |          3702784
 2017-02-08 08:42:06.662786+01 | 1486539726.66279 | pgbench_accounts_pkey |        673882112

 2017-02-08 08:42:07.759409+01 | 1486539727.75941 | pgbench_branches_pkey |          1171456
 2017-02-08 08:42:07.759409+01 | 1486539727.75941 | pgbench_tellers_pkey  |          3702784
 2017-02-08 08:42:07.759409+01 | 1486539727.75941 | pgbench_accounts_pkey |        673882112

 2017-02-08 08:42:08.835477+01 | 1486539728.83548 | pgbench_branches_pkey |          1171456
 2017-02-08 08:42:08.835477+01 | 1486539728.83548 | pgbench_tellers_pkey  |          3702784
 2017-02-08 08:42:08.835477+01 | 1486539728.83548 | pgbench_accounts_pkey |        673882112

 2017-02-08 08:42:09.954529+01 | 1486539729.95453 | pgbench_branches_pkey |          1171456
 2017-02-08 08:42:09.954529+01 | 1486539729.95453 | pgbench_tellers_pkey  |          3702784
 2017-02-08 08:42:09.954529+01 | 1486539729.95453 | pgbench_accounts_pkey |        673882112

 2017-02-08 08:42:11.051412+01 | 1486539731.05141 | pgbench_branches_pkey |          1171456
 2017-02-08 08:42:11.051412+01 | 1486539731.05141 | pgbench_tellers_pkey  |          3702784
 2017-02-08 08:42:11.051412+01 | 1486539731.05141 | pgbench_accounts_pkey |        673882112

 2017-02-08 08:42:12.176097+01 | 1486539732.1761 | pgbench_branches_pkey |          1171456
 2017-02-08 08:42:12.176097+01 | 1486539732.1761 | pgbench_tellers_pkey  |          3702784
 2017-02-08 08:42:12.176097+01 | 1486539732.1761 | pgbench_accounts_pkey |        673882112

 2017-02-08 08:42:13.274783+01 | 1486539733.27478 | pgbench_branches_pkey |          1171456
 2017-02-08 08:42:13.274783+01 | 1486539733.27478 | pgbench_tellers_pkey  |          3702784
 2017-02-08 08:42:13.274783+01 | 1486539733.27478 | pgbench_accounts_pkey |        673882112

 2017-02-08 08:42:14.353017+01 | 1486539734.35302 | pgbench_branches_pkey |          1171456
 2017-02-08 08:42:14.353017+01 | 1486539734.35302 | pgbench_tellers_pkey  |          3702784
 2017-02-08 08:42:14.353017+01 | 1486539734.35302 | pgbench_accounts_pkey |        673882112

 2017-02-08 08:42:15.477495+01 | 1486539735.47749 | pgbench_branches_pkey |          1171456
 2017-02-08 08:42:15.477495+01 | 1486539735.47749 | pgbench_tellers_pkey  |          3702784
 2017-02-08 08:42:15.477495+01 | 1486539735.47749 | pgbench_accounts_pkey |        673882112

 2017-02-08 08:42:16.5988+01 | 1486539736.5988 | pgbench_branches_pkey |          1171456
 2017-02-08 08:42:16.5988+01 | 1486539736.5988 | pgbench_tellers_pkey  |          3702784
 2017-02-08 08:42:16.5988+01 | 1486539736.5988 | pgbench_accounts_pkey |        673882112

 2017-02-08 08:42:17.735148+01 | 1486539737.73515 | pgbench_branches_pkey |          1171456
 2017-02-08 08:42:17.735148+01 | 1486539737.73515 | pgbench_tellers_pkey  |          3702784
 2017-02-08 08:42:17.735148+01 | 1486539737.73515 | pgbench_accounts_pkey |        673882112

 2017-02-08 08:42:18.869572+01 | 1486539738.86957 | pgbench_branches_pkey |          1171456
 2017-02-08 08:42:18.869572+01 | 1486539738.86957 | pgbench_tellers_pkey  |          3702784
 2017-02-08 08:42:18.869572+01 | 1486539738.86957 | pgbench_accounts_pkey |        673882112

 2017-02-08 08:42:19.971043+01 | 1486539739.97104 | pgbench_branches_pkey |          1171456
 2017-02-08 08:42:19.971043+01 | 1486539739.97104 | pgbench_tellers_pkey  |          3702784
 2017-02-08 08:42:19.971043+01 | 1486539739.97104 | pgbench_accounts_pkey |        673882112

 2017-02-08 08:42:21.079489+01 | 1486539741.07949 | pgbench_branches_pkey |          1171456
 2017-02-08 08:42:21.079489+01 | 1486539741.07949 | pgbench_tellers_pkey  |          3702784
 2017-02-08 08:42:21.079489+01 | 1486539741.07949 | pgbench_accounts_pkey |        673882112

 2017-02-08 08:42:22.222938+01 | 1486539742.22294 | pgbench_branches_pkey |          1171456
 2017-02-08 08:42:22.222938+01 | 1486539742.22294 | pgbench_tellers_pkey  |          3702784
 2017-02-08 08:42:22.222938+01 | 1486539742.22294 | pgbench_accounts_pkey |        673882112

 2017-02-08 08:42:23.343402+01 | 1486539743.3434 | pgbench_branches_pkey |          1171456
 2017-02-08 08:42:23.343402+01 | 1486539743.3434 | pgbench_tellers_pkey  |          3702784
 2017-02-08 08:42:23.343402+01 | 1486539743.3434 | pgbench_accounts_pkey |        673882112

 2017-02-08 08:42:24.473658+01 | 1486539744.47366 | pgbench_branches_pkey |          1171456
 2017-02-08 08:42:24.473658+01 | 1486539744.47366 | pgbench_tellers_pkey  |          3702784
 2017-02-08 08:42:24.473658+01 | 1486539744.47366 | pgbench_accounts_pkey |        673882112

 2017-02-08 08:42:25.584281+01 | 1486539745.58428 | pgbench_branches_pkey |          1171456
 2017-02-08 08:42:25.584281+01 | 1486539745.58428 | pgbench_tellers_pkey  |          3702784
 2017-02-08 08:42:25.584281+01 | 1486539745.58428 | pgbench_accounts_pkey |        673882112

 2017-02-08 08:42:26.669618+01 | 1486539746.66962 | pgbench_branches_pkey |          1171456
 2017-02-08 08:42:26.669618+01 | 1486539746.66962 | pgbench_tellers_pkey  |          3702784
 2017-02-08 08:42:26.669618+01 | 1486539746.66962 | pgbench_accounts_pkey |        673882112

 2017-02-08 08:42:27.802932+01 | 1486539747.80293 | pgbench_branches_pkey |          1171456
 2017-02-08 08:42:27.802932+01 | 1486539747.80293 | pgbench_tellers_pkey  |          3702784
 2017-02-08 08:42:27.802932+01 | 1486539747.80293 | pgbench_accounts_pkey |        673882112

 2017-02-08 08:42:28.922347+01 | 1486539748.92235 | pgbench_branches_pkey |          1171456
 2017-02-08 08:42:28.922347+01 | 1486539748.92235 | pgbench_tellers_pkey  |          3702784
 2017-02-08 08:42:28.922347+01 | 1486539748.92235 | pgbench_accounts_pkey |        673882112

 2017-02-08 08:42:30.055498+01 | 1486539750.0555 | pgbench_branches_pkey |          1171456
 2017-02-08 08:42:30.055498+01 | 1486539750.0555 | pgbench_tellers_pkey  |          3702784
 2017-02-08 08:42:30.055498+01 | 1486539750.0555 | pgbench_accounts_pkey |        673882112

 2017-02-08 08:42:31.164661+01 | 1486539751.16466 | pgbench_branches_pkey |          1171456
 2017-02-08 08:42:31.164661+01 | 1486539751.16466 | pgbench_tellers_pkey  |          3702784
 2017-02-08 08:42:31.164661+01 | 1486539751.16466 | pgbench_accounts_pkey |        673882112

 2017-02-08 08:42:32.28093+01 | 1486539752.28093 | pgbench_branches_pkey |          1171456
 2017-02-08 08:42:32.28093+01 | 1486539752.28093 | pgbench_tellers_pkey  |          3702784
 2017-02-08 08:42:32.28093+01 | 1486539752.28093 | pgbench_accounts_pkey |        673882112

 2017-02-08 08:42:33.392819+01 | 1486539753.39282 | pgbench_branches_pkey |          1171456
 2017-02-08 08:42:33.392819+01 | 1486539753.39282 | pgbench_tellers_pkey  |          3702784
 2017-02-08 08:42:33.392819+01 | 1486539753.39282 | pgbench_accounts_pkey |        673882112

 2017-02-08 08:42:34.479233+01 | 1486539754.47923 | pgbench_branches_pkey |          1171456
 2017-02-08 08:42:34.479233+01 | 1486539754.47923 | pgbench_tellers_pkey  |          3702784
 2017-02-08 08:42:34.479233+01 | 1486539754.47923 | pgbench_accounts_pkey |        673882112

 2017-02-08 08:42:35.611127+01 | 1486539755.61113 | pgbench_branches_pkey |          1171456
 2017-02-08 08:42:35.611127+01 | 1486539755.61113 | pgbench_tellers_pkey  |          3702784
 2017-02-08 08:42:35.611127+01 | 1486539755.61113 | pgbench_accounts_pkey |        673882112

 2017-02-08 08:42:36.705177+01 | 1486539756.70518 | pgbench_branches_pkey |          1171456
 2017-02-08 08:42:36.705177+01 | 1486539756.70518 | pgbench_tellers_pkey  |          3702784
 2017-02-08 08:42:36.705177+01 | 1486539756.70518 | pgbench_accounts_pkey |        673882112

 2017-02-08 08:42:37.806579+01 | 1486539757.80658 | pgbench_branches_pkey |          1171456
 2017-02-08 08:42:37.806579+01 | 1486539757.80658 | pgbench_tellers_pkey  |          3702784
 2017-02-08 08:42:37.806579+01 | 1486539757.80658 | pgbench_accounts_pkey |        673882112

 2017-02-08 08:42:38.913614+01 | 1486539758.91361 | pgbench_branches_pkey |          1171456
 2017-02-08 08:42:38.913614+01 | 1486539758.91361 | pgbench_tellers_pkey  |          3702784
 2017-02-08 08:42:38.913614+01 | 1486539758.91361 | pgbench_accounts_pkey |        673882112

 2017-02-08 08:42:40.022724+01 | 1486539760.02272 | pgbench_branches_pkey |          1171456
 2017-02-08 08:42:40.022724+01 | 1486539760.02272 | pgbench_tellers_pkey  |          3702784
 2017-02-08 08:42:40.022724+01 | 1486539760.02272 | pgbench_accounts_pkey |        673882112

 2017-02-08 08:42:41.135541+01 | 1486539761.13554 | pgbench_branches_pkey |          1171456
 2017-02-08 08:42:41.135541+01 | 1486539761.13554 | pgbench_tellers_pkey  |          3702784
 2017-02-08 08:42:41.135541+01 | 1486539761.13554 | pgbench_accounts_pkey |        673882112

 2017-02-08 08:42:42.253481+01 | 1486539762.25348 | pgbench_branches_pkey |          1171456
 2017-02-08 08:42:42.253481+01 | 1486539762.25348 | pgbench_tellers_pkey  |          3702784
 2017-02-08 08:42:42.253481+01 | 1486539762.25348 | pgbench_accounts_pkey |        673882112

 2017-02-08 08:42:43.383221+01 | 1486539763.38322 | pgbench_branches_pkey |          1171456
 2017-02-08 08:42:43.383221+01 | 1486539763.38322 | pgbench_tellers_pkey  |          3702784
 2017-02-08 08:42:43.383221+01 | 1486539763.38322 | pgbench_accounts_pkey |        673882112

 2017-02-08 08:42:44.527025+01 | 1486539764.52702 | pgbench_branches_pkey |          1171456
 2017-02-08 08:42:44.527025+01 | 1486539764.52702 | pgbench_tellers_pkey  |          3702784
 2017-02-08 08:42:44.527025+01 | 1486539764.52702 | pgbench_accounts_pkey |        673882112

 2017-02-08 08:42:45.64773+01 | 1486539765.64773 | pgbench_branches_pkey |          1171456
 2017-02-08 08:42:45.64773+01 | 1486539765.64773 | pgbench_tellers_pkey  |          3702784
 2017-02-08 08:42:45.64773+01 | 1486539765.64773 | pgbench_accounts_pkey |        673882112

 2017-02-08 08:42:46.727171+01 | 1486539766.72717 | pgbench_branches_pkey |          1171456
 2017-02-08 08:42:46.727171+01 | 1486539766.72717 | pgbench_tellers_pkey  |          3702784
 2017-02-08 08:42:46.727171+01 | 1486539766.72717 | pgbench_accounts_pkey |        673882112

 2017-02-08 08:42:47.833155+01 | 1486539767.83315 | pgbench_branches_pkey |          1171456
 2017-02-08 08:42:47.833155+01 | 1486539767.83315 | pgbench_tellers_pkey  |          3702784
 2017-02-08 08:42:47.833155+01 | 1486539767.83315 | pgbench_accounts_pkey |        673882112

 2017-02-08 08:42:48.944923+01 | 1486539768.94492 | pgbench_branches_pkey |          1171456
 2017-02-08 08:42:48.944923+01 | 1486539768.94492 | pgbench_tellers_pkey  |          3702784
 2017-02-08 08:42:48.944923+01 | 1486539768.94492 | pgbench_accounts_pkey |        673882112

 2017-02-08 08:42:50.104658+01 | 1486539770.10466 | pgbench_branches_pkey |          1171456
 2017-02-08 08:42:50.104658+01 | 1486539770.10466 | pgbench_tellers_pkey  |          3702784
 2017-02-08 08:42:50.104658+01 | 1486539770.10466 | pgbench_accounts_pkey |        673882112

 2017-02-08 08:42:51.205633+01 | 1486539771.20563 | pgbench_branches_pkey |          1171456
 2017-02-08 08:42:51.205633+01 | 1486539771.20563 | pgbench_tellers_pkey  |          3702784
 2017-02-08 08:42:51.205633+01 | 1486539771.20563 | pgbench_accounts_pkey |        673882112

 2017-02-08 08:42:52.287613+01 | 1486539772.28761 | pgbench_branches_pkey |          1171456
 2017-02-08 08:42:52.287613+01 | 1486539772.28761 | pgbench_tellers_pkey  |          3702784
 2017-02-08 08:42:52.287613+01 | 1486539772.28761 | pgbench_accounts_pkey |        673882112

 2017-02-08 08:42:53.388986+01 | 1486539773.38899 | pgbench_branches_pkey |          1171456
 2017-02-08 08:42:53.388986+01 | 1486539773.38899 | pgbench_tellers_pkey  |          3702784
 2017-02-08 08:42:53.388986+01 | 1486539773.38899 | pgbench_accounts_pkey |        673882112

 2017-02-08 08:42:54.491486+01 | 1486539774.49149 | pgbench_branches_pkey |          1171456
 2017-02-08 08:42:54.491486+01 | 1486539774.49149 | pgbench_tellers_pkey  |          3702784
 2017-02-08 08:42:54.491486+01 | 1486539774.49149 | pgbench_accounts_pkey |        673882112

 2017-02-08 08:42:55.600901+01 | 1486539775.6009 | pgbench_branches_pkey |          1171456
 2017-02-08 08:42:55.600901+01 | 1486539775.6009 | pgbench_tellers_pkey  |          3702784
 2017-02-08 08:42:55.600901+01 | 1486539775.6009 | pgbench_accounts_pkey |        673882112

 2017-02-08 08:42:56.692145+01 | 1486539776.69215 | pgbench_branches_pkey |          1171456
 2017-02-08 08:42:56.692145+01 | 1486539776.69215 | pgbench_tellers_pkey  |          3702784
 2017-02-08 08:42:56.692145+01 | 1486539776.69215 | pgbench_accounts_pkey |        673882112

 2017-02-08 08:42:57.834654+01 | 1486539777.83465 | pgbench_branches_pkey |          1171456
 2017-02-08 08:42:57.834654+01 | 1486539777.83465 | pgbench_tellers_pkey  |          3702784
 2017-02-08 08:42:57.834654+01 | 1486539777.83465 | pgbench_accounts_pkey |        673882112

 2017-02-08 08:42:58.930107+01 | 1486539778.93011 | pgbench_branches_pkey |          1171456
 2017-02-08 08:42:58.930107+01 | 1486539778.93011 | pgbench_tellers_pkey  |          3702784
 2017-02-08 08:42:58.930107+01 | 1486539778.93011 | pgbench_accounts_pkey |        673882112

 2017-02-08 08:43:00.088626+01 | 1486539780.08863 | pgbench_branches_pkey |          1171456
 2017-02-08 08:43:00.088626+01 | 1486539780.08863 | pgbench_tellers_pkey  |          3702784
 2017-02-08 08:43:00.088626+01 | 1486539780.08863 | pgbench_accounts_pkey |        673882112

 2017-02-08 08:43:01.199807+01 | 1486539781.19981 | pgbench_branches_pkey |          1171456
 2017-02-08 08:43:01.199807+01 | 1486539781.19981 | pgbench_tellers_pkey  |          3702784
 2017-02-08 08:43:01.199807+01 | 1486539781.19981 | pgbench_accounts_pkey |        673882112

 2017-02-08 08:43:02.298146+01 | 1486539782.29815 | pgbench_branches_pkey |          1171456
 2017-02-08 08:43:02.298146+01 | 1486539782.29815 | pgbench_tellers_pkey  |          3702784
 2017-02-08 08:43:02.298146+01 | 1486539782.29815 | pgbench_accounts_pkey |        673882112

 2017-02-08 08:43:03.424889+01 | 1486539783.42489 | pgbench_branches_pkey |          1171456
 2017-02-08 08:43:03.424889+01 | 1486539783.42489 | pgbench_tellers_pkey  |          3702784
 2017-02-08 08:43:03.424889+01 | 1486539783.42489 | pgbench_accounts_pkey |        673882112

 2017-02-08 08:43:04.546034+01 | 1486539784.54603 | pgbench_branches_pkey |          1171456
 2017-02-08 08:43:04.546034+01 | 1486539784.54603 | pgbench_tellers_pkey  |          3702784
 2017-02-08 08:43:04.546034+01 | 1486539784.54603 | pgbench_accounts_pkey |        673882112

 2017-02-08 08:43:05.657254+01 | 1486539785.65725 | pgbench_branches_pkey |          1171456
 2017-02-08 08:43:05.657254+01 | 1486539785.65725 | pgbench_tellers_pkey  |          3702784
 2017-02-08 08:43:05.657254+01 | 1486539785.65725 | pgbench_accounts_pkey |        673882112

 2017-02-08 08:43:06.749002+01 | 1486539786.749 | pgbench_branches_pkey |          1171456
 2017-02-08 08:43:06.749002+01 | 1486539786.749 | pgbench_tellers_pkey  |          3702784
 2017-02-08 08:43:06.749002+01 | 1486539786.749 | pgbench_accounts_pkey |        673882112

 2017-02-08 08:43:07.842543+01 | 1486539787.84254 | pgbench_branches_pkey |          1171456
 2017-02-08 08:43:07.842543+01 | 1486539787.84254 | pgbench_tellers_pkey  |          3702784
 2017-02-08 08:43:07.842543+01 | 1486539787.84254 | pgbench_accounts_pkey |        673882112

 2017-02-08 08:43:08.911982+01 | 1486539788.91198 | pgbench_branches_pkey |          1171456
 2017-02-08 08:43:08.911982+01 | 1486539788.91198 | pgbench_tellers_pkey  |          3702784
 2017-02-08 08:43:08.911982+01 | 1486539788.91198 | pgbench_accounts_pkey |        673882112

 2017-02-08 08:43:10.029322+01 | 1486539790.02932 | pgbench_branches_pkey |          1171456
 2017-02-08 08:43:10.029322+01 | 1486539790.02932 | pgbench_tellers_pkey  |          3702784
 2017-02-08 08:43:10.029322+01 | 1486539790.02932 | pgbench_accounts_pkey |        673882112

 2017-02-08 08:43:11.147261+01 | 1486539791.14726 | pgbench_branches_pkey |          1171456
 2017-02-08 08:43:11.147261+01 | 1486539791.14726 | pgbench_tellers_pkey  |          3702784
 2017-02-08 08:43:11.147261+01 | 1486539791.14726 | pgbench_accounts_pkey |        673882112

 2017-02-08 08:43:12.274819+01 | 1486539792.27482 | pgbench_branches_pkey |          1171456
 2017-02-08 08:43:12.274819+01 | 1486539792.27482 | pgbench_tellers_pkey  |          3702784
 2017-02-08 08:43:12.274819+01 | 1486539792.27482 | pgbench_accounts_pkey |        673882112

 2017-02-08 08:43:13.419535+01 | 1486539793.41953 | pgbench_branches_pkey |          1171456
 2017-02-08 08:43:13.419535+01 | 1486539793.41953 | pgbench_tellers_pkey  |          3702784
 2017-02-08 08:43:13.419535+01 | 1486539793.41953 | pgbench_accounts_pkey |        673882112

 2017-02-08 08:43:14.533304+01 | 1486539794.5333 | pgbench_branches_pkey |          1171456
 2017-02-08 08:43:14.533304+01 | 1486539794.5333 | pgbench_tellers_pkey  |          3702784
 2017-02-08 08:43:14.533304+01 | 1486539794.5333 | pgbench_accounts_pkey |        673882112

 2017-02-08 08:43:15.647869+01 | 1486539795.64787 | pgbench_branches_pkey |          1171456
 2017-02-08 08:43:15.647869+01 | 1486539795.64787 | pgbench_tellers_pkey  |          3702784
 2017-02-08 08:43:15.647869+01 | 1486539795.64787 | pgbench_accounts_pkey |        673882112

 2017-02-08 08:43:16.803029+01 | 1486539796.80303 | pgbench_branches_pkey |          1171456
 2017-02-08 08:43:16.803029+01 | 1486539796.80303 | pgbench_tellers_pkey  |          3702784
 2017-02-08 08:43:16.803029+01 | 1486539796.80303 | pgbench_accounts_pkey |        673882112

 2017-02-08 08:43:17.890546+01 | 1486539797.89055 | pgbench_branches_pkey |          1171456
 2017-02-08 08:43:17.890546+01 | 1486539797.89055 | pgbench_tellers_pkey  |          3702784
 2017-02-08 08:43:17.890546+01 | 1486539797.89055 | pgbench_accounts_pkey |        673882112

 2017-02-08 08:43:18.984455+01 | 1486539798.98446 | pgbench_branches_pkey |          1171456
 2017-02-08 08:43:18.984455+01 | 1486539798.98446 | pgbench_tellers_pkey  |          3702784
 2017-02-08 08:43:18.984455+01 | 1486539798.98446 | pgbench_accounts_pkey |        673882112

 2017-02-08 08:43:20.121887+01 | 1486539800.12189 | pgbench_branches_pkey |          1171456
 2017-02-08 08:43:20.121887+01 | 1486539800.12189 | pgbench_tellers_pkey  |          3702784
 2017-02-08 08:43:20.121887+01 | 1486539800.12189 | pgbench_accounts_pkey |        673882112

 2017-02-08 08:43:21.297428+01 | 1486539801.29743 | pgbench_branches_pkey |          1171456
 2017-02-08 08:43:21.297428+01 | 1486539801.29743 | pgbench_tellers_pkey  |          3702784
 2017-02-08 08:43:21.297428+01 | 1486539801.29743 | pgbench_accounts_pkey |        673882112

 2017-02-08 08:43:22.463058+01 | 1486539802.46306 | pgbench_branches_pkey |          1171456
 2017-02-08 08:43:22.463058+01 | 1486539802.46306 | pgbench_tellers_pkey  |          3702784
 2017-02-08 08:43:22.463058+01 | 1486539802.46306 | pgbench_accounts_pkey |        673882112

 2017-02-08 08:43:23.568403+01 | 1486539803.5684 | pgbench_branches_pkey |          1171456
 2017-02-08 08:43:23.568403+01 | 1486539803.5684 | pgbench_tellers_pkey  |          3702784
 2017-02-08 08:43:23.568403+01 | 1486539803.5684 | pgbench_accounts_pkey |        673882112

 2017-02-08 08:43:24.660272+01 | 1486539804.66027 | pgbench_branches_pkey |          1171456
 2017-02-08 08:43:24.660272+01 | 1486539804.66027 | pgbench_tellers_pkey  |          3702784
 2017-02-08 08:43:24.660272+01 | 1486539804.66027 | pgbench_accounts_pkey |        673882112

 2017-02-08 08:43:25.747464+01 | 1486539805.74746 | pgbench_branches_pkey |          1171456
 2017-02-08 08:43:25.747464+01 | 1486539805.74746 | pgbench_tellers_pkey  |          3702784
 2017-02-08 08:43:25.747464+01 | 1486539805.74746 | pgbench_accounts_pkey |        673882112

 2017-02-08 08:43:26.878595+01 | 1486539806.8786 | pgbench_branches_pkey |          1171456
 2017-02-08 08:43:26.878595+01 | 1486539806.8786 | pgbench_tellers_pkey  |          3702784
 2017-02-08 08:43:26.878595+01 | 1486539806.8786 | pgbench_accounts_pkey |        673882112

 2017-02-08 08:43:27.999028+01 | 1486539807.99903 | pgbench_branches_pkey |          1171456
 2017-02-08 08:43:27.999028+01 | 1486539807.99903 | pgbench_tellers_pkey  |          3702784
 2017-02-08 08:43:27.999028+01 | 1486539807.99903 | pgbench_accounts_pkey |        673882112

 2017-02-08 08:43:29.102123+01 | 1486539809.10212 | pgbench_branches_pkey |          1171456
 2017-02-08 08:43:29.102123+01 | 1486539809.10212 | pgbench_tellers_pkey  |          3702784
 2017-02-08 08:43:29.102123+01 | 1486539809.10212 | pgbench_accounts_pkey |        673882112

 2017-02-08 08:43:30.216706+01 | 1486539810.21671 | pgbench_branches_pkey |          1171456
 2017-02-08 08:43:30.216706+01 | 1486539810.21671 | pgbench_tellers_pkey  |          3702784
 2017-02-08 08:43:30.216706+01 | 1486539810.21671 | pgbench_accounts_pkey |        673882112

 2017-02-08 08:43:31.31983+01 | 1486539811.31983 | pgbench_branches_pkey |          1171456
 2017-02-08 08:43:31.31983+01 | 1486539811.31983 | pgbench_tellers_pkey  |          3702784
 2017-02-08 08:43:31.31983+01 | 1486539811.31983 | pgbench_accounts_pkey |        673882112

 2017-02-08 08:43:32.397171+01 | 1486539812.39717 | pgbench_branches_pkey |          1171456
 2017-02-08 08:43:32.397171+01 | 1486539812.39717 | pgbench_tellers_pkey  |          3702784
 2017-02-08 08:43:32.397171+01 | 1486539812.39717 | pgbench_accounts_pkey |        673882112

 2017-02-08 08:43:33.520544+01 | 1486539813.52054 | pgbench_branches_pkey |          1171456
 2017-02-08 08:43:33.520544+01 | 1486539813.52054 | pgbench_tellers_pkey  |          3702784
 2017-02-08 08:43:33.520544+01 | 1486539813.52054 | pgbench_accounts_pkey |        673882112

 2017-02-08 08:43:34.639195+01 | 1486539814.63919 | pgbench_branches_pkey |          1171456
 2017-02-08 08:43:34.639195+01 | 1486539814.63919 | pgbench_tellers_pkey  |          3702784
 2017-02-08 08:43:34.639195+01 | 1486539814.63919 | pgbench_accounts_pkey |        673882112

 2017-02-08 08:43:35.736421+01 | 1486539815.73642 | pgbench_branches_pkey |          1171456
 2017-02-08 08:43:35.736421+01 | 1486539815.73642 | pgbench_tellers_pkey  |          3702784
 2017-02-08 08:43:35.736421+01 | 1486539815.73642 | pgbench_accounts_pkey |        673882112

 2017-02-08 08:43:36.85758+01 | 1486539816.85758 | pgbench_branches_pkey |          1171456
 2017-02-08 08:43:36.85758+01 | 1486539816.85758 | pgbench_tellers_pkey  |          3702784
 2017-02-08 08:43:36.85758+01 | 1486539816.85758 | pgbench_accounts_pkey |        673882112

 2017-02-08 08:43:37.950952+01 | 1486539817.95095 | pgbench_branches_pkey |          1171456
 2017-02-08 08:43:37.950952+01 | 1486539817.95095 | pgbench_tellers_pkey  |          3702784
 2017-02-08 08:43:37.950952+01 | 1486539817.95095 | pgbench_accounts_pkey |        673882112

 2017-02-08 08:43:39.070234+01 | 1486539819.07023 | pgbench_branches_pkey |          1171456
 2017-02-08 08:43:39.070234+01 | 1486539819.07023 | pgbench_tellers_pkey  |          3702784
 2017-02-08 08:43:39.070234+01 | 1486539819.07023 | pgbench_accounts_pkey |        673882112

 2017-02-08 08:43:40.17599+01 | 1486539820.17599 | pgbench_branches_pkey |          1171456
 2017-02-08 08:43:40.17599+01 | 1486539820.17599 | pgbench_tellers_pkey  |          3702784
 2017-02-08 08:43:40.17599+01 | 1486539820.17599 | pgbench_accounts_pkey |        673882112

 2017-02-08 08:43:41.258001+01 | 1486539821.258 | pgbench_branches_pkey |          1171456
 2017-02-08 08:43:41.258001+01 | 1486539821.258 | pgbench_tellers_pkey  |          3702784
 2017-02-08 08:43:41.258001+01 | 1486539821.258 | pgbench_accounts_pkey |        673882112

 2017-02-08 08:43:42.350554+01 | 1486539822.35055 | pgbench_branches_pkey |          1171456
 2017-02-08 08:43:42.350554+01 | 1486539822.35055 | pgbench_tellers_pkey  |          3702784
 2017-02-08 08:43:42.350554+01 | 1486539822.35055 | pgbench_accounts_pkey |        673882112

 2017-02-08 08:43:43.447062+01 | 1486539823.44706 | pgbench_branches_pkey |          1171456
 2017-02-08 08:43:43.447062+01 | 1486539823.44706 | pgbench_tellers_pkey  |          3702784
 2017-02-08 08:43:43.447062+01 | 1486539823.44706 | pgbench_accounts_pkey |        673882112

 2017-02-08 08:43:44.557129+01 | 1486539824.55713 | pgbench_branches_pkey |          1171456
 2017-02-08 08:43:44.557129+01 | 1486539824.55713 | pgbench_tellers_pkey  |          3702784
 2017-02-08 08:43:44.557129+01 | 1486539824.55713 | pgbench_accounts_pkey |        673882112

 2017-02-08 08:43:45.707328+01 | 1486539825.70733 | pgbench_branches_pkey |          1171456
 2017-02-08 08:43:45.707328+01 | 1486539825.70733 | pgbench_tellers_pkey  |          3702784
 2017-02-08 08:43:45.707328+01 | 1486539825.70733 | pgbench_accounts_pkey |        673882112

 2017-02-08 08:43:46.831134+01 | 1486539826.83113 | pgbench_branches_pkey |          1171456
 2017-02-08 08:43:46.831134+01 | 1486539826.83113 | pgbench_tellers_pkey  |          3702784
 2017-02-08 08:43:46.831134+01 | 1486539826.83113 | pgbench_accounts_pkey |        673882112

 2017-02-08 08:43:47.935323+01 | 1486539827.93532 | pgbench_branches_pkey |          1171456
 2017-02-08 08:43:47.935323+01 | 1486539827.93532 | pgbench_tellers_pkey  |          3702784
 2017-02-08 08:43:47.935323+01 | 1486539827.93532 | pgbench_accounts_pkey |        673882112

 2017-02-08 08:43:49.03724+01 | 1486539829.03724 | pgbench_branches_pkey |          1171456
 2017-02-08 08:43:49.03724+01 | 1486539829.03724 | pgbench_tellers_pkey  |          3702784
 2017-02-08 08:43:49.03724+01 | 1486539829.03724 | pgbench_accounts_pkey |        673882112

 2017-02-08 08:43:50.160481+01 | 1486539830.16048 | pgbench_branches_pkey |          1171456
 2017-02-08 08:43:50.160481+01 | 1486539830.16048 | pgbench_tellers_pkey  |          3702784
 2017-02-08 08:43:50.160481+01 | 1486539830.16048 | pgbench_accounts_pkey |        673882112

 2017-02-08 08:43:51.309447+01 | 1486539831.30945 | pgbench_branches_pkey |          1171456
 2017-02-08 08:43:51.309447+01 | 1486539831.30945 | pgbench_tellers_pkey  |          3702784
 2017-02-08 08:43:51.309447+01 | 1486539831.30945 | pgbench_accounts_pkey |        673882112

 2017-02-08 08:43:52.410956+01 | 1486539832.41096 | pgbench_branches_pkey |          1171456
 2017-02-08 08:43:52.410956+01 | 1486539832.41096 | pgbench_tellers_pkey  |          3702784
 2017-02-08 08:43:52.410956+01 | 1486539832.41096 | pgbench_accounts_pkey |        673882112

 2017-02-08 08:43:53.515716+01 | 1486539833.51572 | pgbench_branches_pkey |          1171456
 2017-02-08 08:43:53.515716+01 | 1486539833.51572 | pgbench_tellers_pkey  |          3702784
 2017-02-08 08:43:53.515716+01 | 1486539833.51572 | pgbench_accounts_pkey |        673882112

 2017-02-08 08:43:54.619204+01 | 1486539834.6192 | pgbench_branches_pkey |          1171456
 2017-02-08 08:43:54.619204+01 | 1486539834.6192 | pgbench_tellers_pkey  |          3702784
 2017-02-08 08:43:54.619204+01 | 1486539834.6192 | pgbench_accounts_pkey |        673882112

 2017-02-08 08:43:55.729793+01 | 1486539835.72979 | pgbench_branches_pkey |          1171456
 2017-02-08 08:43:55.729793+01 | 1486539835.72979 | pgbench_tellers_pkey  |          3702784
 2017-02-08 08:43:55.729793+01 | 1486539835.72979 | pgbench_accounts_pkey |        673882112

 2017-02-08 08:43:56.844496+01 | 1486539836.8445 | pgbench_branches_pkey |          1171456
 2017-02-08 08:43:56.844496+01 | 1486539836.8445 | pgbench_tellers_pkey  |          3702784
 2017-02-08 08:43:56.844496+01 | 1486539836.8445 | pgbench_accounts_pkey |        673882112

 2017-02-08 08:43:57.959286+01 | 1486539837.95929 | pgbench_branches_pkey |          1171456
 2017-02-08 08:43:57.959286+01 | 1486539837.95929 | pgbench_tellers_pkey  |          3702784
 2017-02-08 08:43:57.959286+01 | 1486539837.95929 | pgbench_accounts_pkey |        673882112

 2017-02-08 08:43:59.057+01 | 1486539839.057 | pgbench_branches_pkey |          1171456
 2017-02-08 08:43:59.057+01 | 1486539839.057 | pgbench_tellers_pkey  |          3702784
 2017-02-08 08:43:59.057+01 | 1486539839.057 | pgbench_accounts_pkey |        673882112

 2017-02-08 08:44:00.175582+01 | 1486539840.17558 | pgbench_branches_pkey |          1171456
 2017-02-08 08:44:00.175582+01 | 1486539840.17558 | pgbench_tellers_pkey  |          3702784
 2017-02-08 08:44:00.175582+01 | 1486539840.17558 | pgbench_accounts_pkey |        673882112

 2017-02-08 08:44:01.323956+01 | 1486539841.32396 | pgbench_branches_pkey |          1171456
 2017-02-08 08:44:01.323956+01 | 1486539841.32396 | pgbench_tellers_pkey  |          3702784
 2017-02-08 08:44:01.323956+01 | 1486539841.32396 | pgbench_accounts_pkey |        673882112

 2017-02-08 08:44:02.401672+01 | 1486539842.40167 | pgbench_branches_pkey |          1171456
 2017-02-08 08:44:02.401672+01 | 1486539842.40167 | pgbench_tellers_pkey  |          3702784
 2017-02-08 08:44:02.401672+01 | 1486539842.40167 | pgbench_accounts_pkey |        673882112

 2017-02-08 08:44:03.506078+01 | 1486539843.50608 | pgbench_branches_pkey |          1171456
 2017-02-08 08:44:03.506078+01 | 1486539843.50608 | pgbench_tellers_pkey  |          3702784
 2017-02-08 08:44:03.506078+01 | 1486539843.50608 | pgbench_accounts_pkey |        673882112

 2017-02-08 08:44:04.620101+01 | 1486539844.6201 | pgbench_branches_pkey |          1171456
 2017-02-08 08:44:04.620101+01 | 1486539844.6201 | pgbench_tellers_pkey  |          3702784
 2017-02-08 08:44:04.620101+01 | 1486539844.6201 | pgbench_accounts_pkey |        673882112

 2017-02-08 08:44:05.745359+01 | 1486539845.74536 | pgbench_branches_pkey |          1171456
 2017-02-08 08:44:05.745359+01 | 1486539845.74536 | pgbench_tellers_pkey  |          3702784
 2017-02-08 08:44:05.745359+01 | 1486539845.74536 | pgbench_accounts_pkey |        673882112

 2017-02-08 08:44:06.859102+01 | 1486539846.8591 | pgbench_branches_pkey |          1171456
 2017-02-08 08:44:06.859102+01 | 1486539846.8591 | pgbench_tellers_pkey  |          3702784
 2017-02-08 08:44:06.859102+01 | 1486539846.8591 | pgbench_accounts_pkey |        673882112

 2017-02-08 08:44:07.943688+01 | 1486539847.94369 | pgbench_branches_pkey |          1171456
 2017-02-08 08:44:07.943688+01 | 1486539847.94369 | pgbench_tellers_pkey  |          3702784
 2017-02-08 08:44:07.943688+01 | 1486539847.94369 | pgbench_accounts_pkey |        673882112

 2017-02-08 08:44:09.070334+01 | 1486539849.07033 | pgbench_branches_pkey |          1171456
 2017-02-08 08:44:09.070334+01 | 1486539849.07033 | pgbench_tellers_pkey  |          3702784
 2017-02-08 08:44:09.070334+01 | 1486539849.07033 | pgbench_accounts_pkey |        673882112

 2017-02-08 08:44:10.156503+01 | 1486539850.1565 | pgbench_branches_pkey |          1171456
 2017-02-08 08:44:10.156503+01 | 1486539850.1565 | pgbench_tellers_pkey  |          3702784
 2017-02-08 08:44:10.156503+01 | 1486539850.1565 | pgbench_accounts_pkey |        673882112

 2017-02-08 08:44:11.256107+01 | 1486539851.25611 | pgbench_branches_pkey |          1171456
 2017-02-08 08:44:11.256107+01 | 1486539851.25611 | pgbench_tellers_pkey  |          3702784
 2017-02-08 08:44:11.256107+01 | 1486539851.25611 | pgbench_accounts_pkey |        673882112

 2017-02-08 08:44:12.403963+01 | 1486539852.40396 | pgbench_branches_pkey |          1171456
 2017-02-08 08:44:12.403963+01 | 1486539852.40396 | pgbench_tellers_pkey  |          3702784
 2017-02-08 08:44:12.403963+01 | 1486539852.40396 | pgbench_accounts_pkey |        673882112

 2017-02-08 08:44:13.513652+01 | 1486539853.51365 | pgbench_branches_pkey |          1171456
 2017-02-08 08:44:13.513652+01 | 1486539853.51365 | pgbench_tellers_pkey  |          3702784
 2017-02-08 08:44:13.513652+01 | 1486539853.51365 | pgbench_accounts_pkey |        673882112

 2017-02-08 08:44:14.624507+01 | 1486539854.62451 | pgbench_branches_pkey |          1171456
 2017-02-08 08:44:14.624507+01 | 1486539854.62451 | pgbench_tellers_pkey  |          3702784
 2017-02-08 08:44:14.624507+01 | 1486539854.62451 | pgbench_accounts_pkey |        673882112

 2017-02-08 08:44:15.743755+01 | 1486539855.74376 | pgbench_branches_pkey |          1171456
 2017-02-08 08:44:15.743755+01 | 1486539855.74376 | pgbench_tellers_pkey  |          3702784
 2017-02-08 08:44:15.743755+01 | 1486539855.74376 | pgbench_accounts_pkey |        673882112

 2017-02-08 08:44:16.830321+01 | 1486539856.83032 | pgbench_branches_pkey |          1171456
 2017-02-08 08:44:16.830321+01 | 1486539856.83032 | pgbench_tellers_pkey  |          3702784
 2017-02-08 08:44:16.830321+01 | 1486539856.83032 | pgbench_accounts_pkey |        673882112

 2017-02-08 08:44:17.919073+01 | 1486539857.91907 | pgbench_branches_pkey |          1171456
 2017-02-08 08:44:17.919073+01 | 1486539857.91907 | pgbench_tellers_pkey  |          3702784
 2017-02-08 08:44:17.919073+01 | 1486539857.91907 | pgbench_accounts_pkey |        673882112

 2017-02-08 08:44:18.969564+01 | 1486539858.96956 | pgbench_branches_pkey |          1171456
 2017-02-08 08:44:18.969564+01 | 1486539858.96956 | pgbench_tellers_pkey  |          3702784
 2017-02-08 08:44:18.969564+01 | 1486539858.96956 | pgbench_accounts_pkey |        673882112

 2017-02-08 08:44:20.075165+01 | 1486539860.07517 | pgbench_branches_pkey |          1171456
 2017-02-08 08:44:20.075165+01 | 1486539860.07517 | pgbench_tellers_pkey  |          3702784
 2017-02-08 08:44:20.075165+01 | 1486539860.07517 | pgbench_accounts_pkey |        673882112

 2017-02-08 08:44:21.153468+01 | 1486539861.15347 | pgbench_branches_pkey |          1171456
 2017-02-08 08:44:21.153468+01 | 1486539861.15347 | pgbench_tellers_pkey  |          3702784
 2017-02-08 08:44:21.153468+01 | 1486539861.15347 | pgbench_accounts_pkey |        673882112

 2017-02-08 08:44:22.241191+01 | 1486539862.24119 | pgbench_branches_pkey |          1171456
 2017-02-08 08:44:22.241191+01 | 1486539862.24119 | pgbench_tellers_pkey  |          3702784
 2017-02-08 08:44:22.241191+01 | 1486539862.24119 | pgbench_accounts_pkey |        673882112

 2017-02-08 08:44:23.361544+01 | 1486539863.36154 | pgbench_branches_pkey |          1171456
 2017-02-08 08:44:23.361544+01 | 1486539863.36154 | pgbench_tellers_pkey  |          3702784
 2017-02-08 08:44:23.361544+01 | 1486539863.36154 | pgbench_accounts_pkey |        673882112

 2017-02-08 08:44:24.464784+01 | 1486539864.46478 | pgbench_branches_pkey |          1171456
 2017-02-08 08:44:24.464784+01 | 1486539864.46478 | pgbench_tellers_pkey  |          3702784
 2017-02-08 08:44:24.464784+01 | 1486539864.46478 | pgbench_accounts_pkey |        673882112

 2017-02-08 08:44:25.606287+01 | 1486539865.60629 | pgbench_branches_pkey |          1171456
 2017-02-08 08:44:25.606287+01 | 1486539865.60629 | pgbench_tellers_pkey  |          3702784
 2017-02-08 08:44:25.606287+01 | 1486539865.60629 | pgbench_accounts_pkey |        673882112

 2017-02-08 08:44:26.764178+01 | 1486539866.76418 | pgbench_branches_pkey |          1171456
 2017-02-08 08:44:26.764178+01 | 1486539866.76418 | pgbench_tellers_pkey  |          3702784
 2017-02-08 08:44:26.764178+01 | 1486539866.76418 | pgbench_accounts_pkey |        673882112

 2017-02-08 08:44:27.919783+01 | 1486539867.91978 | pgbench_branches_pkey |          1171456
 2017-02-08 08:44:27.919783+01 | 1486539867.91978 | pgbench_tellers_pkey  |          3702784
 2017-02-08 08:44:27.919783+01 | 1486539867.91978 | pgbench_accounts_pkey |        673882112

 2017-02-08 08:44:29.067309+01 | 1486539869.06731 | pgbench_branches_pkey |          1171456
 2017-02-08 08:44:29.067309+01 | 1486539869.06731 | pgbench_tellers_pkey  |          3702784
 2017-02-08 08:44:29.067309+01 | 1486539869.06731 | pgbench_accounts_pkey |        673882112

 2017-02-08 08:44:30.246033+01 | 1486539870.24603 | pgbench_branches_pkey |          1171456
 2017-02-08 08:44:30.246033+01 | 1486539870.24603 | pgbench_tellers_pkey  |          3702784
 2017-02-08 08:44:30.246033+01 | 1486539870.24603 | pgbench_accounts_pkey |        673882112

 2017-02-08 08:44:31.36443+01 | 1486539871.36443 | pgbench_branches_pkey |          1171456
 2017-02-08 08:44:31.36443+01 | 1486539871.36443 | pgbench_tellers_pkey  |          3702784
 2017-02-08 08:44:31.36443+01 | 1486539871.36443 | pgbench_accounts_pkey |        673882112

 2017-02-08 08:44:32.460035+01 | 1486539872.46004 | pgbench_branches_pkey |          1171456
 2017-02-08 08:44:32.460035+01 | 1486539872.46004 | pgbench_tellers_pkey  |          3702784
 2017-02-08 08:44:32.460035+01 | 1486539872.46004 | pgbench_accounts_pkey |        673882112

 2017-02-08 08:44:33.561598+01 | 1486539873.5616 | pgbench_branches_pkey |          1171456
 2017-02-08 08:44:33.561598+01 | 1486539873.5616 | pgbench_tellers_pkey  |          3702784
 2017-02-08 08:44:33.561598+01 | 1486539873.5616 | pgbench_accounts_pkey |        673882112

 2017-02-08 08:44:34.672229+01 | 1486539874.67223 | pgbench_branches_pkey |          1171456
 2017-02-08 08:44:34.672229+01 | 1486539874.67223 | pgbench_tellers_pkey  |          3702784
 2017-02-08 08:44:34.672229+01 | 1486539874.67223 | pgbench_accounts_pkey |        673882112

 2017-02-08 08:44:35.783342+01 | 1486539875.78334 | pgbench_branches_pkey |          1171456
 2017-02-08 08:44:35.783342+01 | 1486539875.78334 | pgbench_tellers_pkey  |          3702784
 2017-02-08 08:44:35.783342+01 | 1486539875.78334 | pgbench_accounts_pkey |        673882112

 2017-02-08 08:44:36.898692+01 | 1486539876.89869 | pgbench_branches_pkey |          1171456
 2017-02-08 08:44:36.898692+01 | 1486539876.89869 | pgbench_tellers_pkey  |          3702784
 2017-02-08 08:44:36.898692+01 | 1486539876.89869 | pgbench_accounts_pkey |        673882112

 2017-02-08 08:44:38.035668+01 | 1486539878.03567 | pgbench_branches_pkey |          1171456
 2017-02-08 08:44:38.035668+01 | 1486539878.03567 | pgbench_tellers_pkey  |          3702784
 2017-02-08 08:44:38.035668+01 | 1486539878.03567 | pgbench_accounts_pkey |        673882112

