 2017-02-08 15:04:45.361257+01 | 1486562685.36126 |                 0 |              16 |                 12425 |                  697 |            1686986 |       2150740 |            21318 |        16517320 |                     0 |      15652968 | 2017-02-08 13:48:37.24488+01

 2017-02-08 15:04:46.415971+01 | 1486562686.41597 |                 0 |              16 |                 12425 |                  697 |            1686986 |       2150740 |            21318 |        16517320 |                     0 |      15656149 | 2017-02-08 13:48:37.24488+01

 2017-02-08 15:04:47.468554+01 | 1486562687.46855 |                 0 |              16 |                 12425 |                  697 |            1686986 |       2150740 |            21318 |        16517320 |                     0 |      15659335 | 2017-02-08 13:48:37.24488+01

 2017-02-08 15:04:48.521552+01 | 1486562688.52155 |                 0 |              16 |                 12425 |                  697 |            1686986 |       2150740 |            21318 |        16517320 |                     0 |      15662628 | 2017-02-08 13:48:37.24488+01

 2017-02-08 15:04:49.57248+01 | 1486562689.57248 |                 0 |              16 |                 12425 |                  697 |            1686986 |       2150740 |            21318 |        16517320 |                     0 |      15666526 | 2017-02-08 13:48:37.24488+01

 2017-02-08 15:04:50.6268+01 | 1486562690.6268 |                 0 |              16 |                 12425 |                  697 |            1686986 |       2150740 |            21318 |        16517320 |                     0 |      15669937 | 2017-02-08 13:48:37.24488+01

 2017-02-08 15:04:51.692271+01 | 1486562691.69227 |                 0 |              16 |                 12425 |                  697 |            1686986 |       2150748 |            21318 |        16517320 |                     0 |      15673381 | 2017-02-08 13:48:37.24488+01

 2017-02-08 15:04:52.74626+01 | 1486562692.74626 |                 0 |              16 |                 12425 |                  697 |            1686986 |       2150765 |            21318 |        16517320 |                     0 |      15677297 | 2017-02-08 13:48:37.24488+01

 2017-02-08 15:04:53.803059+01 | 1486562693.80306 |                 0 |              16 |                 12425 |                  697 |            1686986 |       2150775 |            21318 |        16517320 |                     0 |      15680682 | 2017-02-08 13:48:37.24488+01

 2017-02-08 15:04:54.858491+01 | 1486562694.85849 |                 0 |              16 |                 12425 |                  697 |            1686986 |       2150796 |            21318 |        16517320 |                     0 |      15684124 | 2017-02-08 13:48:37.24488+01

 2017-02-08 15:04:55.91439+01 | 1486562695.91439 |                 0 |              16 |                 12425 |                  697 |            1686986 |       2150867 |            21318 |        16517320 |                     0 |      15687618 | 2017-02-08 13:48:37.24488+01

 2017-02-08 15:04:56.970369+01 | 1486562696.97037 |                 0 |              16 |                 12425 |                  697 |            1686986 |       2151300 |            21318 |        16517320 |                     0 |      15691790 | 2017-02-08 13:48:37.24488+01

 2017-02-08 15:04:58.026181+01 | 1486562698.02618 |                 0 |              16 |                 12425 |                  697 |            1686986 |       2151762 |            21320 |        16517320 |                     0 |      15695371 | 2017-02-08 13:48:37.24488+01

 2017-02-08 15:04:59.080833+01 | 1486562699.08083 |                 0 |              16 |                 12425 |                  697 |            1686986 |       2152215 |            21320 |        16517320 |                     0 |      15698745 | 2017-02-08 13:48:37.24488+01

 2017-02-08 15:05:00.138804+01 | 1486562700.1388 |                 0 |              16 |                 12425 |                  697 |            1686986 |       2152714 |            21324 |        16517320 |                     0 |      15702297 | 2017-02-08 13:48:37.24488+01

 2017-02-08 15:05:01.192315+01 | 1486562701.19232 |                 0 |              16 |                 12425 |                  697 |            1686986 |       2153314 |            21330 |        16517320 |                     0 |      15706574 | 2017-02-08 13:48:37.24488+01

 2017-02-08 15:05:02.254016+01 | 1486562702.25402 |                 0 |              16 |                 12425 |                  697 |            1686986 |       2153814 |            21335 |        16517320 |                     0 |      15710212 | 2017-02-08 13:48:37.24488+01

 2017-02-08 15:05:03.309617+01 | 1486562703.30962 |                 0 |              16 |                 12425 |                  697 |            1686986 |       2154314 |            21340 |        16517320 |                     0 |      15713611 | 2017-02-08 13:48:37.24488+01

 2017-02-08 15:05:04.368999+01 | 1486562704.369 |                 0 |              16 |                 12425 |                  697 |            1686986 |       2154814 |            21345 |        16517320 |                     0 |      15717127 | 2017-02-08 13:48:37.24488+01

 2017-02-08 15:05:05.422638+01 | 1486562705.42264 |                 0 |              16 |                 12425 |                  697 |            1686986 |       2155414 |            21351 |        16517320 |                     0 |      15721574 | 2017-02-08 13:48:37.24488+01

 2017-02-08 15:05:06.475932+01 | 1486562706.47593 |                 0 |              16 |                 12425 |                  697 |            1686986 |       2155914 |            21356 |        16517320 |                     0 |      15724962 | 2017-02-08 13:48:37.24488+01

 2017-02-08 15:05:07.532902+01 | 1486562707.5329 |                 0 |              16 |                 12425 |                  697 |            1686986 |       2156414 |            21361 |        16517320 |                     0 |      15728678 | 2017-02-08 13:48:37.24488+01

 2017-02-08 15:05:08.590997+01 | 1486562708.591 |                 0 |              16 |                 12425 |                  697 |            1686986 |       2156914 |            21366 |        16517320 |                     0 |      15732170 | 2017-02-08 13:48:37.24488+01

 2017-02-08 15:05:09.636772+01 | 1486562709.63677 |                 0 |              16 |                 12425 |                  697 |            1686986 |       2157314 |            21370 |        16517320 |                     0 |      15734906 | 2017-02-08 13:48:37.24488+01

 2017-02-08 15:05:10.687403+01 | 1486562710.6874 |                 0 |              16 |                 12425 |                  697 |            1686986 |       2158014 |            21377 |        16517320 |                     0 |      15739992 | 2017-02-08 13:48:37.24488+01

 2017-02-08 15:05:11.754701+01 | 1486562711.7547 |                 0 |              16 |                 12425 |                  697 |            1686986 |       2158514 |            21382 |        16517320 |                     0 |      15743581 | 2017-02-08 13:48:37.24488+01

 2017-02-08 15:05:12.813643+01 | 1486562712.81364 |                 0 |              16 |                 12425 |                  697 |            1686986 |       2159014 |            21387 |        16517320 |                     0 |      15747182 | 2017-02-08 13:48:37.24488+01

 2017-02-08 15:05:13.871374+01 | 1486562713.87137 |                 0 |              16 |                 12425 |                  697 |            1686986 |       2159614 |            21393 |        16574390 |                     0 |      15751378 | 2017-02-08 13:48:37.24488+01

 2017-02-08 15:05:14.927687+01 | 1486562714.92769 |                 0 |              16 |                 12425 |                  697 |            1686986 |       2160114 |            21398 |        16574390 |                     0 |      15755166 | 2017-02-08 13:48:37.24488+01

 2017-02-08 15:05:15.981796+01 | 1486562715.9818 |                 0 |              16 |                 12425 |                  697 |            1686986 |       2160614 |            21403 |        16574390 |                     0 |      15758693 | 2017-02-08 13:48:37.24488+01

 2017-02-08 15:05:17.039311+01 | 1486562717.03931 |                 0 |              16 |                 12425 |                  697 |            1686986 |       2161114 |            21408 |        16574390 |                     0 |      15762488 | 2017-02-08 13:48:37.24488+01

 2017-02-08 15:05:18.097525+01 | 1486562718.09752 |                 0 |              16 |                 12425 |                  697 |            1686986 |       2161714 |            21414 |        16574390 |                     0 |      15766789 | 2017-02-08 13:48:37.24488+01

 2017-02-08 15:05:19.150224+01 | 1486562719.15022 |                 0 |              16 |                 12425 |                  697 |            1686986 |       2162214 |            21419 |        16574390 |                     0 |      15770629 | 2017-02-08 13:48:37.24488+01

 2017-02-08 15:05:20.208656+01 | 1486562720.20866 |                 0 |              16 |                 12425 |                  697 |            1686986 |       2162714 |            21424 |        16574390 |                     0 |      15774218 | 2017-02-08 13:48:37.24488+01

 2017-02-08 15:05:21.268662+01 | 1486562721.26866 |                 0 |              16 |                 12425 |                  697 |            1686986 |       2163214 |            21429 |        16574390 |                     0 |      15778007 | 2017-02-08 13:48:37.24488+01

 2017-02-08 15:05:22.328685+01 | 1486562722.32869 |                 0 |              16 |                 12425 |                  697 |            1686986 |       2163814 |            21435 |        16574390 |                     0 |      15782381 | 2017-02-08 13:48:37.24488+01

 2017-02-08 15:05:23.382834+01 | 1486562723.38283 |                 0 |              16 |                 12425 |                  697 |            1686986 |       2164314 |            21440 |        16574390 |                     0 |      15786222 | 2017-02-08 13:48:37.24488+01

 2017-02-08 15:05:24.438799+01 | 1486562724.4388 |                 0 |              16 |                 12425 |                  697 |            1686986 |       2164814 |            21445 |        16574390 |                     0 |      15789777 | 2017-02-08 13:48:37.24488+01

 2017-02-08 15:05:25.497491+01 | 1486562725.49749 |                 0 |              16 |                 12425 |                  697 |            1686986 |       2165314 |            21450 |        16574390 |                     0 |      15793674 | 2017-02-08 13:48:37.24488+01

 2017-02-08 15:05:26.556812+01 | 1486562726.55681 |                 0 |              16 |                 12425 |                  697 |            1686986 |       2165914 |            21456 |        16574390 |                     0 |      15797930 | 2017-02-08 13:48:37.24488+01

 2017-02-08 15:05:27.615001+01 | 1486562727.615 |                 0 |              16 |                 12425 |                  697 |            1686986 |       2166414 |            21461 |        16574390 |                     0 |      15801633 | 2017-02-08 13:48:37.24488+01

 2017-02-08 15:05:28.676145+01 | 1486562728.67615 |                 0 |              16 |                 12425 |                  697 |            1686986 |       2166914 |            21466 |        16632533 |                     0 |      15805270 | 2017-02-08 13:48:37.24488+01

 2017-02-08 15:05:29.739022+01 | 1486562729.73902 |                 0 |              16 |                 12425 |                  697 |            1686986 |       2167414 |            21471 |        16632533 |                     0 |      15809167 | 2017-02-08 13:48:37.24488+01

 2017-02-08 15:05:30.797953+01 | 1486562730.79795 |                 0 |              16 |                 12425 |                  697 |            1686986 |       2168014 |            21477 |        16632533 |                     0 |      15813518 | 2017-02-08 13:48:37.24488+01

 2017-02-08 15:05:31.854468+01 | 1486562731.85447 |                 0 |              16 |                 12425 |                  697 |            1686986 |       2168514 |            21482 |        16632533 |                     0 |      15817380 | 2017-02-08 13:48:37.24488+01

 2017-02-08 15:05:32.910936+01 | 1486562732.91094 |                 0 |              16 |                 12425 |                  697 |            1686986 |       2169014 |            21487 |        16632533 |                     0 |      15821019 | 2017-02-08 13:48:37.24488+01

 2017-02-08 15:05:33.966644+01 | 1486562733.96664 |                 0 |              16 |                 12425 |                  697 |            1686986 |       2169614 |            21493 |        16632533 |                     0 |      15825557 | 2017-02-08 13:48:37.24488+01

 2017-02-08 15:05:35.022298+01 | 1486562735.0223 |                 0 |              16 |                 12425 |                  697 |            1686986 |       2170114 |            21498 |        16632533 |                     0 |      15829189 | 2017-02-08 13:48:37.24488+01

 2017-02-08 15:05:36.076947+01 | 1486562736.07695 |                 0 |              16 |                 12425 |                  697 |            1686986 |       2170614 |            21503 |        16632533 |                     0 |      15832974 | 2017-02-08 13:48:37.24488+01

 2017-02-08 15:05:37.134704+01 | 1486562737.1347 |                 0 |              16 |                 12425 |                  697 |            1686986 |       2171114 |            21508 |        16632533 |                     0 |      15836504 | 2017-02-08 13:48:37.24488+01

 2017-02-08 15:05:38.194246+01 | 1486562738.19425 |                 0 |              16 |                 12425 |                  697 |            1686986 |       2171714 |            21514 |        16632533 |                     0 |      15841133 | 2017-02-08 13:48:37.24488+01

 2017-02-08 15:05:39.250246+01 | 1486562739.25025 |                 0 |              16 |                 12425 |                  697 |            1686986 |       2172214 |            21519 |        16632533 |                     0 |      15844845 | 2017-02-08 13:48:37.24488+01

 2017-02-08 15:05:40.303738+01 | 1486562740.30374 |                 0 |              16 |                 12425 |                  697 |            1686986 |       2172714 |            21524 |        16632533 |                     0 |      15848617 | 2017-02-08 13:48:37.24488+01

 2017-02-08 15:05:41.366932+01 | 1486562741.36693 |                 0 |              16 |                 12425 |                  697 |            1686986 |       2173214 |            21529 |        16632533 |                     0 |      15852194 | 2017-02-08 13:48:37.24488+01

 2017-02-08 15:05:42.41816+01 | 1486562742.41816 |                 0 |              16 |                 12425 |                  697 |            1686986 |       2173814 |            21535 |        16632533 |                     0 |      15856785 | 2017-02-08 13:48:37.24488+01

 2017-02-08 15:05:43.472381+01 | 1486562743.47238 |                 0 |              16 |                 12425 |                  697 |            1686986 |       2174314 |            21540 |        16632533 |                     0 |      15860430 | 2017-02-08 13:48:37.24488+01

 2017-02-08 15:05:44.529192+01 | 1486562744.52919 |                 0 |              16 |                 12425 |                  697 |            1686986 |       2174814 |            21545 |        16690370 |                     0 |      15864364 | 2017-02-08 13:48:37.24488+01

 2017-02-08 15:05:45.582512+01 | 1486562745.58251 |                 0 |              16 |                 12425 |                  697 |            1686986 |       2175314 |            21550 |        16690370 |                     0 |      15868203 | 2017-02-08 13:48:37.24488+01

 2017-02-08 15:05:46.642798+01 | 1486562746.6428 |                 0 |              16 |                 12425 |                  697 |            1686986 |       2175914 |            21556 |        16690370 |                     0 |      15872663 | 2017-02-08 13:48:37.24488+01

 2017-02-08 15:05:47.701907+01 | 1486562747.70191 |                 0 |              16 |                 12425 |                  697 |            1686986 |       2176414 |            21561 |        16690370 |                     0 |      15876519 | 2017-02-08 13:48:37.24488+01

 2017-02-08 15:05:48.756732+01 | 1486562748.75673 |                 0 |              16 |                 12425 |                  697 |            1686986 |       2176914 |            21566 |        16690370 |                     0 |      15880178 | 2017-02-08 13:48:37.24488+01

 2017-02-08 15:05:49.817996+01 | 1486562749.818 |                 0 |              16 |                 12425 |                  697 |            1686986 |       2177414 |            21571 |        16690370 |                     0 |      15884068 | 2017-02-08 13:48:37.24488+01

 2017-02-08 15:05:50.882987+01 | 1486562750.88299 |                 0 |              16 |                 12425 |                  697 |            1686986 |       2178014 |            21577 |        16690370 |                     0 |      15888363 | 2017-02-08 13:48:37.24488+01

 2017-02-08 15:05:51.935434+01 | 1486562751.93543 |                 0 |              16 |                 12425 |                  697 |            1686986 |       2178514 |            21582 |        16690370 |                     0 |      15892027 | 2017-02-08 13:48:37.24488+01

 2017-02-08 15:05:52.996682+01 | 1486562752.99668 |                 0 |              16 |                 12425 |                  697 |            1686986 |       2179014 |            21587 |        16690370 |                     0 |      15895626 | 2017-02-08 13:48:37.24488+01

 2017-02-08 15:05:54.050828+01 | 1486562754.05083 |                 0 |              16 |                 12425 |                  697 |            1686986 |       2179514 |            21592 |        16690370 |                     0 |      15899449 | 2017-02-08 13:48:37.24488+01

 2017-02-08 15:05:55.108711+01 | 1486562755.10871 |                 0 |              16 |                 12425 |                  697 |            1686986 |       2180114 |            21598 |        16690370 |                     0 |      15904043 | 2017-02-08 13:48:37.24488+01

 2017-02-08 15:05:56.164539+01 | 1486562756.16454 |                 0 |              16 |                 12425 |                  697 |            1686986 |       2180614 |            21603 |        16690370 |                     0 |      15907702 | 2017-02-08 13:48:37.24488+01

 2017-02-08 15:05:57.220908+01 | 1486562757.22091 |                 0 |              16 |                 12425 |                  697 |            1686986 |       2181114 |            21608 |        16690370 |                     0 |      15911578 | 2017-02-08 13:48:37.24488+01

 2017-02-08 15:05:58.27806+01 | 1486562758.27806 |                 0 |              16 |                 12425 |                  697 |            1686986 |       2181614 |            21613 |        16690370 |                     0 |      15915227 | 2017-02-08 13:48:37.24488+01

 2017-02-08 15:05:59.338854+01 | 1486562759.33885 |                 0 |              16 |                 12425 |                  697 |            1686986 |       2182214 |            21619 |        16690370 |                     0 |      15919833 | 2017-02-08 13:48:37.24488+01

 2017-02-08 15:06:00.402769+01 | 1486562760.40277 |                 0 |              16 |                 12425 |                  697 |            1686986 |       2182714 |            21624 |        16690370 |                     0 |      15923349 | 2017-02-08 13:48:37.24488+01

 2017-02-08 15:06:01.45934+01 | 1486562761.45934 |                 0 |              16 |                 12425 |                  697 |            1686986 |       2183214 |            21629 |        16747506 |                     0 |      15927108 | 2017-02-08 13:48:37.24488+01

 2017-02-08 15:06:02.511338+01 | 1486562762.51134 |                 0 |              16 |                 12425 |                  697 |            1686986 |       2183714 |            21634 |        16747506 |                     0 |      15930875 | 2017-02-08 13:48:37.24488+01

 2017-02-08 15:06:03.564877+01 | 1486562763.56488 |                 0 |              16 |                 12425 |                  697 |            1686986 |       2184314 |            21640 |        16747506 |                     0 |      15935365 | 2017-02-08 13:48:37.24488+01

 2017-02-08 15:06:04.624715+01 | 1486562764.62472 |                 0 |              16 |                 12425 |                  697 |            1686986 |       2184814 |            21645 |        16747506 |                     0 |      15939240 | 2017-02-08 13:48:37.24488+01

 2017-02-08 15:06:05.683385+01 | 1486562765.68338 |                 0 |              16 |                 12425 |                  697 |            1686986 |       2185314 |            21650 |        16747506 |                     0 |      15942820 | 2017-02-08 13:48:37.24488+01

 2017-02-08 15:06:06.742167+01 | 1486562766.74217 |                 0 |              16 |                 12425 |                  697 |            1686986 |       2185814 |            21655 |        16747506 |                     0 |      15946599 | 2017-02-08 13:48:37.24488+01

 2017-02-08 15:06:07.797239+01 | 1486562767.79724 |                 0 |              16 |                 12425 |                  697 |            1686986 |       2186414 |            21661 |        16747506 |                     0 |      15950947 | 2017-02-08 13:48:37.24488+01

 2017-02-08 15:06:08.853481+01 | 1486562768.85348 |                 0 |              16 |                 12425 |                  697 |            1686986 |       2186914 |            21666 |        16747506 |                     0 |      15954704 | 2017-02-08 13:48:37.24488+01

 2017-02-08 15:06:09.905114+01 | 1486562769.90511 |                 0 |              16 |                 12425 |                  697 |            1686986 |       2187414 |            21671 |        16747506 |                     0 |      15958337 | 2017-02-08 13:48:37.24488+01

 2017-02-08 15:06:10.960462+01 | 1486562770.96046 |                 0 |              16 |                 12425 |                  697 |            1686986 |       2187914 |            21676 |        16747506 |                     0 |      15961662 | 2017-02-08 13:48:37.24488+01

 2017-02-08 15:06:12.028525+01 | 1486562772.02853 |                 0 |              16 |                 12425 |                  697 |            1686986 |       2188514 |            21682 |        16747506 |                     0 |      15965950 | 2017-02-08 13:48:37.24488+01

 2017-02-08 15:06:13.086642+01 | 1486562773.08664 |                 0 |              16 |                 12425 |                  697 |            1686986 |       2189014 |            21687 |        16747506 |                     0 |      15969307 | 2017-02-08 13:48:37.24488+01

 2017-02-08 15:06:14.144137+01 | 1486562774.14414 |                 0 |              16 |                 12425 |                  697 |            1686986 |       2189514 |            21692 |        16747506 |                     0 |      15972690 | 2017-02-08 13:48:37.24488+01

 2017-02-08 15:06:15.215537+01 | 1486562775.21554 |                 0 |              16 |                 12425 |                  697 |            1686986 |       2190114 |            21698 |        16747506 |                     0 |      15976992 | 2017-02-08 13:48:37.24488+01

 2017-02-08 15:06:16.283452+01 | 1486562776.28345 |                 0 |              16 |                 12425 |                  697 |            1686986 |       2190614 |            21703 |        16747506 |                     0 |      15980277 | 2017-02-08 13:48:37.24488+01

 2017-02-08 15:06:17.339753+01 | 1486562777.33975 |                 0 |              16 |                 12425 |                  697 |            1686986 |       2191114 |            21708 |        16747506 |                     0 |      15983900 | 2017-02-08 13:48:37.24488+01

 2017-02-08 15:06:18.398683+01 | 1486562778.39868 |                 0 |              16 |                 12425 |                  697 |            1686986 |       2191614 |            21713 |        16804342 |                     0 |      15987354 | 2017-02-08 13:48:37.24488+01

 2017-02-08 15:06:19.453804+01 | 1486562779.4538 |                 0 |              16 |                 12425 |                  697 |            1686986 |       2192214 |            21719 |        16804342 |                     0 |      15991728 | 2017-02-08 13:48:37.24488+01

 2017-02-08 15:06:20.512376+01 | 1486562780.51238 |                 0 |              16 |                 12425 |                  697 |            1686986 |       2192714 |            21724 |        16804342 |                     0 |      15995213 | 2017-02-08 13:48:37.24488+01

 2017-02-08 15:06:21.570608+01 | 1486562781.57061 |                 0 |              16 |                 12425 |                  697 |            1686986 |       2193214 |            21729 |        16804342 |                     0 |      15998754 | 2017-02-08 13:48:37.24488+01

 2017-02-08 15:06:22.625359+01 | 1486562782.62536 |                 0 |              16 |                 12425 |                  697 |            1686986 |       2193714 |            21734 |        16804342 |                     0 |      16002317 | 2017-02-08 13:48:37.24488+01

 2017-02-08 15:06:23.681995+01 | 1486562783.68199 |                 0 |              16 |                 12425 |                  697 |            1686986 |       2194314 |            21740 |        16804342 |                     0 |      16006683 | 2017-02-08 13:48:37.24488+01

 2017-02-08 15:06:24.740657+01 | 1486562784.74066 |                 0 |              16 |                 12425 |                  697 |            1686986 |       2194814 |            21745 |        16804342 |                     0 |      16010114 | 2017-02-08 13:48:37.24488+01

 2017-02-08 15:06:25.798577+01 | 1486562785.79858 |                 0 |              16 |                 12425 |                  697 |            1686986 |       2195314 |            21750 |        16804342 |                     0 |      16013813 | 2017-02-08 13:48:37.24488+01

 2017-02-08 15:06:26.853613+01 | 1486562786.85361 |                 0 |              16 |                 12425 |                  697 |            1686986 |       2195814 |            21755 |        16804342 |                     0 |      16017258 | 2017-02-08 13:48:37.24488+01

 2017-02-08 15:06:27.907712+01 | 1486562787.90771 |                 0 |              16 |                 12425 |                  697 |            1686986 |       2196414 |            21761 |        16804342 |                     0 |      16021650 | 2017-02-08 13:48:37.24488+01

 2017-02-08 15:06:28.966589+01 | 1486562788.96659 |                 0 |              16 |                 12425 |                  697 |            1686986 |       2196914 |            21766 |        16804342 |                     0 |      16025116 | 2017-02-08 13:48:37.24488+01

 2017-02-08 15:06:30.027905+01 | 1486562790.0279 |                 0 |              16 |                 12425 |                  697 |            1686986 |       2197414 |            21771 |        16804342 |                     0 |      16028901 | 2017-02-08 13:48:37.24488+01

 2017-02-08 15:06:31.090832+01 | 1486562791.09083 |                 0 |              16 |                 12425 |                  697 |            1686986 |       2197914 |            21776 |        16804342 |                     0 |      16032499 | 2017-02-08 13:48:37.24488+01

 2017-02-08 15:06:32.151333+01 | 1486562792.15133 |                 0 |              16 |                 12425 |                  697 |            1686986 |       2198514 |            21782 |        16804342 |                     0 |      16036962 | 2017-02-08 13:48:37.24488+01

 2017-02-08 15:06:33.207084+01 | 1486562793.20708 |                 0 |              16 |                 12425 |                  697 |            1686986 |       2199014 |            21787 |        16862578 |                     0 |      16040439 | 2017-02-08 13:48:37.24488+01

 2017-02-08 15:06:34.26507+01 | 1486562794.26507 |                 0 |              16 |                 12425 |                  697 |            1686986 |       2199514 |            21792 |        16862578 |                     0 |      16044223 | 2017-02-08 13:48:37.24488+01

 2017-02-08 15:06:35.32396+01 | 1486562795.32396 |                 0 |              16 |                 12425 |                  697 |            1686986 |       2200114 |            21798 |        16862578 |                     0 |      16048309 | 2017-02-08 13:48:37.24488+01

 2017-02-08 15:06:36.378853+01 | 1486562796.37885 |                 0 |              16 |                 12425 |                  697 |            1686986 |       2200614 |            21803 |        16862578 |                     0 |      16052061 | 2017-02-08 13:48:37.24488+01

 2017-02-08 15:06:37.463581+01 | 1486562797.46358 |                 0 |              16 |                 12425 |                  697 |            1686986 |       2201114 |            21808 |        16862578 |                     0 |      16055950 | 2017-02-08 13:48:37.24488+01

 2017-02-08 15:06:38.543672+01 | 1486562798.54367 |                 0 |              16 |                 12425 |                  697 |            1686986 |       2201714 |            21814 |        16862578 |                     0 |      16060352 | 2017-02-08 13:48:37.24488+01

 2017-02-08 15:06:39.600537+01 | 1486562799.60054 |                 0 |              16 |                 12425 |                  697 |            1686986 |       2202214 |            21819 |        16862578 |                     0 |      16064049 | 2017-02-08 13:48:37.24488+01

 2017-02-08 15:06:40.65756+01 | 1486562800.65756 |                 0 |              16 |                 12425 |                  697 |            1686986 |       2202714 |            21824 |        16862578 |                     0 |      16067622 | 2017-02-08 13:48:37.24488+01

 2017-02-08 15:06:41.713845+01 | 1486562801.71385 |                 0 |              16 |                 12425 |                  697 |            1686986 |       2203214 |            21829 |        16862578 |                     0 |      16071270 | 2017-02-08 13:48:37.24488+01

 2017-02-08 15:06:42.773352+01 | 1486562802.77335 |                 0 |              16 |                 12425 |                  697 |            1686986 |       2203814 |            21835 |        16862578 |                     0 |      16075570 | 2017-02-08 13:48:37.24488+01

 2017-02-08 15:06:43.829526+01 | 1486562803.82953 |                 0 |              16 |                 12425 |                  697 |            1686986 |       2204314 |            21840 |        16862578 |                     0 |      16079010 | 2017-02-08 13:48:37.24488+01

 2017-02-08 15:06:44.904141+01 | 1486562804.90414 |                 0 |              16 |                 12425 |                  697 |            1686986 |       2204814 |            21845 |        16862578 |                     0 |      16082837 | 2017-02-08 13:48:37.24488+01

 2017-02-08 15:06:45.957931+01 | 1486562805.95793 |                 0 |              16 |                 12425 |                  697 |            1686986 |       2205314 |            21850 |        16862578 |                     0 |      16086399 | 2017-02-08 13:48:37.24488+01

 2017-02-08 15:06:47.017918+01 | 1486562807.01792 |                 0 |              16 |                 12425 |                  697 |            1686986 |       2205914 |            21856 |        16862578 |                     0 |      16090635 | 2017-02-08 13:48:37.24488+01

 2017-02-08 15:06:48.08216+01 | 1486562808.08216 |                 0 |              16 |                 12425 |                  697 |            1686986 |       2206414 |            21861 |        16920715 |                     0 |      16094335 | 2017-02-08 13:48:37.24488+01

 2017-02-08 15:06:49.139956+01 | 1486562809.13996 |                 0 |              16 |                 12425 |                  697 |            1686986 |       2206914 |            21866 |        16920715 |                     0 |      16097724 | 2017-02-08 13:48:37.24488+01

 2017-02-08 15:06:50.198997+01 | 1486562810.199 |                 0 |              16 |                 12425 |                  697 |            1686986 |       2207514 |            21872 |        16920715 |                     0 |      16102086 | 2017-02-08 13:48:37.24488+01

 2017-02-08 15:06:51.25734+01 | 1486562811.25734 |                 0 |              16 |                 12425 |                  697 |            1686986 |       2208014 |            21877 |        16920715 |                     0 |      16105522 | 2017-02-08 13:48:37.24488+01

 2017-02-08 15:06:52.315951+01 | 1486562812.31595 |                 0 |              16 |                 12425 |                  697 |            1686986 |       2208514 |            21882 |        16920715 |                     0 |      16109310 | 2017-02-08 13:48:37.24488+01

 2017-02-08 15:06:53.374719+01 | 1486562813.37472 |                 0 |              16 |                 12425 |                  697 |            1686986 |       2209014 |            21887 |        16920715 |                     0 |      16112660 | 2017-02-08 13:48:37.24488+01

 2017-02-08 15:06:54.430694+01 | 1486562814.43069 |                 0 |              16 |                 12425 |                  697 |            1686986 |       2209614 |            21893 |        16920715 |                     0 |      16117171 | 2017-02-08 13:48:37.24488+01

 2017-02-08 15:06:55.486749+01 | 1486562815.48675 |                 0 |              16 |                 12425 |                  697 |            1686986 |       2210114 |            21898 |        16920715 |                     0 |      16120673 | 2017-02-08 13:48:37.24488+01

 2017-02-08 15:06:56.542963+01 | 1486562816.54296 |                 0 |              16 |                 12425 |                  697 |            1686986 |       2210614 |            21903 |        16920715 |                     0 |      16124197 | 2017-02-08 13:48:37.24488+01

 2017-02-08 15:06:57.601485+01 | 1486562817.60149 |                 0 |              16 |                 12425 |                  697 |            1686986 |       2211114 |            21908 |        16920715 |                     0 |      16127857 | 2017-02-08 13:48:37.24488+01

 2017-02-08 15:06:58.659657+01 | 1486562818.65966 |                 0 |              16 |                 12425 |                  697 |            1686986 |       2211714 |            21914 |        16920715 |                     0 |      16132176 | 2017-02-08 13:48:37.24488+01

 2017-02-08 15:06:59.713994+01 | 1486562819.71399 |                 0 |              16 |                 12425 |                  697 |            1686986 |       2212214 |            21919 |        16920715 |                     0 |      16135861 | 2017-02-08 13:48:37.24488+01

 2017-02-08 15:07:00.769718+01 | 1486562820.76972 |                 0 |              16 |                 12425 |                  697 |            1686986 |       2212714 |            21924 |        16920715 |                     0 |      16139369 | 2017-02-08 13:48:37.24488+01

 2017-02-08 15:07:01.826164+01 | 1486562821.82616 |                 0 |              16 |                 12425 |                  697 |            1686986 |       2213214 |            21929 |        16979552 |                     0 |      16143079 | 2017-02-08 13:48:37.24488+01

 2017-02-08 15:07:02.88727+01 | 1486562822.88727 |                 0 |              16 |                 12425 |                  697 |            1686986 |       2213814 |            21935 |        16979552 |                     0 |      16147223 | 2017-02-08 13:48:37.24488+01

 2017-02-08 15:07:03.941405+01 | 1486562823.94141 |                 0 |              16 |                 12425 |                  697 |            1686986 |       2214314 |            21940 |        16979552 |                     0 |      16151034 | 2017-02-08 13:48:37.24488+01

 2017-02-08 15:07:04.997627+01 | 1486562824.99763 |                 0 |              16 |                 12425 |                  697 |            1686986 |       2214814 |            21945 |        16979552 |                     0 |      16154607 | 2017-02-08 13:48:37.24488+01

 2017-02-08 15:07:06.052215+01 | 1486562826.05222 |                 0 |              16 |                 12425 |                  697 |            1686986 |       2215314 |            21950 |        16979552 |                     0 |      16158249 | 2017-02-08 13:48:37.24488+01

 2017-02-08 15:07:07.111579+01 | 1486562827.11158 |                 0 |              16 |                 12425 |                  697 |            1686986 |       2215914 |            21956 |        16979552 |                     0 |      16162733 | 2017-02-08 13:48:37.24488+01

 2017-02-08 15:07:08.174831+01 | 1486562828.17483 |                 0 |              16 |                 12425 |                  697 |            1686986 |       2216414 |            21961 |        16979552 |                     0 |      16166402 | 2017-02-08 13:48:37.24488+01

 2017-02-08 15:07:09.238111+01 | 1486562829.23811 |                 0 |              16 |                 12425 |                  697 |            1686986 |       2216914 |            21966 |        16979552 |                     0 |      16170268 | 2017-02-08 13:48:37.24488+01

 2017-02-08 15:07:10.2894+01 | 1486562830.2894 |                 0 |              16 |                 12425 |                  697 |            1686986 |       2217414 |            21971 |        16979552 |                     0 |      16173909 | 2017-02-08 13:48:37.24488+01

 2017-02-08 15:07:11.347817+01 | 1486562831.34782 |                 0 |              16 |                 12425 |                  697 |            1686986 |       2218014 |            21977 |        16979552 |                     0 |      16178384 | 2017-02-08 13:48:37.24488+01

 2017-02-08 15:07:12.407075+01 | 1486562832.40707 |                 0 |              16 |                 12425 |                  697 |            1686986 |       2218514 |            21982 |        16979552 |                     0 |      16181956 | 2017-02-08 13:48:37.24488+01

 2017-02-08 15:07:13.467362+01 | 1486562833.46736 |                 0 |              16 |                 12425 |                  697 |            1686986 |       2219014 |            21987 |        16979552 |                     0 |      16185783 | 2017-02-08 13:48:37.24488+01

 2017-02-08 15:07:14.52977+01 | 1486562834.52977 |                 0 |              16 |                 12425 |                  697 |            1686986 |       2219514 |            21992 |        16979552 |                     0 |      16189316 | 2017-02-08 13:48:37.24488+01

 2017-02-08 15:07:15.581003+01 | 1486562835.581 |                 0 |              16 |                 12425 |                  697 |            1686986 |       2220114 |            21998 |        17038288 |                     0 |      16193704 | 2017-02-08 13:48:37.24488+01

 2017-02-08 15:07:16.634903+01 | 1486562836.6349 |                 0 |              16 |                 12425 |                  697 |            1686986 |       2220614 |            22003 |        17038288 |                     0 |      16197162 | 2017-02-08 13:48:37.24488+01

 2017-02-08 15:07:17.688398+01 | 1486562837.6884 |                 0 |              16 |                 12425 |                  697 |            1686986 |       2221114 |            22008 |        17038288 |                     0 |      16200708 | 2017-02-08 13:48:37.24488+01

 2017-02-08 15:07:18.747535+01 | 1486562838.74753 |                 0 |              16 |                 12425 |                  697 |            1686986 |       2221714 |            22014 |        17038288 |                     0 |      16205314 | 2017-02-08 13:48:37.24488+01

 2017-02-08 15:07:19.808275+01 | 1486562839.80827 |                 0 |              16 |                 12425 |                  697 |            1686986 |       2222214 |            22019 |        17038288 |                     0 |      16208823 | 2017-02-08 13:48:37.24488+01

 2017-02-08 15:07:20.866984+01 | 1486562840.86698 |                 0 |              16 |                 12425 |                  697 |            1686986 |       2222714 |            22024 |        17038288 |                     0 |      16212757 | 2017-02-08 13:48:37.24488+01

 2017-02-08 15:07:21.923583+01 | 1486562841.92358 |                 0 |              16 |                 12425 |                  697 |            1686986 |       2223214 |            22029 |        17038288 |                     0 |      16216313 | 2017-02-08 13:48:37.24488+01

 2017-02-08 15:07:22.991323+01 | 1486562842.99132 |                 0 |              16 |                 12425 |                  697 |            1686986 |       2223814 |            22035 |        17038288 |                     0 |      16220900 | 2017-02-08 13:48:37.24488+01

 2017-02-08 15:07:24.050249+01 | 1486562844.05025 |                 0 |              16 |                 12425 |                  697 |            1686986 |       2224314 |            22040 |        17038288 |                     0 |      16224463 | 2017-02-08 13:48:37.24488+01

 2017-02-08 15:07:25.103383+01 | 1486562845.10338 |                 0 |              16 |                 12425 |                  697 |            1686986 |       2224814 |            22045 |        17038288 |                     0 |      16228343 | 2017-02-08 13:48:37.24488+01

 2017-02-08 15:07:26.157188+01 | 1486562846.15719 |                 0 |              16 |                 12425 |                  697 |            1686986 |       2225314 |            22050 |        17038288 |                     0 |      16232031 | 2017-02-08 13:48:37.24488+01

 2017-02-08 15:07:27.212244+01 | 1486562847.21224 |                 0 |              16 |                 12425 |                  697 |            1686986 |       2225914 |            22056 |        17038288 |                     0 |      16236699 | 2017-02-08 13:48:37.24488+01

 2017-02-08 15:07:28.271531+01 | 1486562848.27153 |                 0 |              16 |                 12425 |                  697 |            1686986 |       2226414 |            22061 |        17038288 |                     0 |      16240209 | 2017-02-08 13:48:37.24488+01

 2017-02-08 15:07:29.328096+01 | 1486562849.3281 |                 0 |              16 |                 12425 |                  697 |            1686986 |       2226914 |            22066 |        17038288 |                     0 |      16244076 | 2017-02-08 13:48:37.24488+01

 2017-02-08 15:07:30.389319+01 | 1486562850.38932 |                 0 |              16 |                 12425 |                  697 |            1686986 |       2227414 |            22071 |        17096524 |                     0 |      16247916 | 2017-02-08 13:48:37.24488+01

 2017-02-08 15:07:31.446399+01 | 1486562851.4464 |                 0 |              16 |                 12425 |                  697 |            1686986 |       2228014 |            22077 |        17096524 |                     0 |      16252462 | 2017-02-08 13:48:37.24488+01

 2017-02-08 15:07:32.50247+01 | 1486562852.50247 |                 0 |              16 |                 12425 |                  697 |            1686986 |       2228514 |            22082 |        17096524 |                     0 |      16256363 | 2017-02-08 13:48:37.24488+01

 2017-02-08 15:07:33.559767+01 | 1486562853.55977 |                 0 |              16 |                 12425 |                  697 |            1686986 |       2229014 |            22087 |        17096524 |                     0 |      16260053 | 2017-02-08 13:48:37.24488+01

 2017-02-08 15:07:34.620977+01 | 1486562854.62098 |                 0 |              16 |                 12425 |                  697 |            1686986 |       2229514 |            22092 |        17096524 |                     0 |      16263948 | 2017-02-08 13:48:37.24488+01

 2017-02-08 15:07:35.67922+01 | 1486562855.67922 |                 0 |              16 |                 12425 |                  697 |            1686986 |       2230114 |            22098 |        17096524 |                     0 |      16268571 | 2017-02-08 13:48:37.24488+01

 2017-02-08 15:07:36.736001+01 | 1486562856.736 |                 0 |              16 |                 12425 |                  697 |            1686986 |       2230614 |            22103 |        17096524 |                     0 |      16272228 | 2017-02-08 13:48:37.24488+01

 2017-02-08 15:07:37.794511+01 | 1486562857.79451 |                 0 |              16 |                 12425 |                  697 |            1686986 |       2231114 |            22108 |        17096524 |                     0 |      16276090 | 2017-02-08 13:48:37.24488+01

 2017-02-08 15:07:38.848273+01 | 1486562858.84827 |                 0 |              16 |                 12425 |                  697 |            1686986 |       2231614 |            22113 |        17096524 |                     0 |      16279879 | 2017-02-08 13:48:37.24488+01

 2017-02-08 15:07:39.903358+01 | 1486562859.90336 |                 0 |              16 |                 12425 |                  697 |            1686986 |       2232214 |            22119 |        17096524 |                     0 |      16284388 | 2017-02-08 13:48:37.24488+01

 2017-02-08 15:07:40.964595+01 | 1486562860.9646 |                 0 |              16 |                 12425 |                  697 |            1686986 |       2232714 |            22124 |        17096524 |                     0 |      16288339 | 2017-02-08 13:48:37.24488+01

 2017-02-08 15:07:42.01814+01 | 1486562862.01814 |                 0 |              16 |                 12425 |                  697 |            1686986 |       2233214 |            22129 |        17096524 |                     0 |      16291972 | 2017-02-08 13:48:37.24488+01

 2017-02-08 15:07:43.083454+01 | 1486562863.08345 |                 0 |              16 |                 12425 |                  697 |            1686986 |       2233814 |            22135 |        17096524 |                     0 |      16296636 | 2017-02-08 13:48:37.24488+01

 2017-02-08 15:07:44.144228+01 | 1486562864.14423 |                 0 |              16 |                 12425 |                  697 |            1686986 |       2234314 |            22140 |        17096524 |                     0 |      16300499 | 2017-02-08 13:48:37.24488+01

 2017-02-08 15:07:45.205993+01 | 1486562865.20599 |                 0 |              16 |                 12425 |                  697 |            1686986 |       2234814 |            22145 |        17096524 |                     0 |      16303952 | 2017-02-08 13:48:37.24488+01

 2017-02-08 15:07:46.261958+01 | 1486562866.26196 |                 0 |              16 |                 12425 |                  697 |            1686986 |       2235314 |            22150 |        17096524 |                     0 |      16307655 | 2017-02-08 13:48:37.24488+01

 2017-02-08 15:07:47.32165+01 | 1486562867.32165 |                 0 |              16 |                 12425 |                  697 |            1686986 |       2235914 |            22156 |        17096524 |                     0 |      16311890 | 2017-02-08 13:48:37.24488+01

 2017-02-08 15:07:48.386981+01 | 1486562868.38698 |                 0 |              16 |                 12425 |                  697 |            1686986 |       2236414 |            22161 |        17096524 |                     0 |      16315755 | 2017-02-08 13:48:37.24488+01

 2017-02-08 15:07:49.444894+01 | 1486562869.44489 |                 0 |              16 |                 12425 |                  697 |            1686986 |       2236914 |            22166 |        17152560 |                     0 |      16319489 | 2017-02-08 13:48:37.24488+01

 2017-02-08 15:07:50.501152+01 | 1486562870.50115 |                 0 |              16 |                 12425 |                  697 |            1686986 |       2237414 |            22171 |        17152560 |                     0 |      16323042 | 2017-02-08 13:48:37.24488+01

 2017-02-08 15:07:51.558289+01 | 1486562871.55829 |                 0 |              16 |                 12425 |                  697 |            1686986 |       2238014 |            22177 |        17152560 |                     0 |      16327547 | 2017-02-08 13:48:37.24488+01

 2017-02-08 15:07:52.617547+01 | 1486562872.61755 |                 0 |              16 |                 12425 |                  697 |            1686986 |       2238514 |            22182 |        17152560 |                     0 |      16331446 | 2017-02-08 13:48:37.24488+01

 2017-02-08 15:07:53.680937+01 | 1486562873.68094 |                 0 |              16 |                 12425 |                  697 |            1686986 |       2239014 |            22187 |        17152560 |                     0 |      16335082 | 2017-02-08 13:48:37.24488+01

 2017-02-08 15:07:54.745101+01 | 1486562874.7451 |                 0 |              16 |                 12425 |                  697 |            1686986 |       2239614 |            22193 |        17152560 |                     0 |      16339653 | 2017-02-08 13:48:37.24488+01

 2017-02-08 15:07:55.802379+01 | 1486562875.80238 |                 0 |              16 |                 12425 |                  697 |            1686986 |       2240114 |            22198 |        17152560 |                     0 |      16343345 | 2017-02-08 13:48:37.24488+01

 2017-02-08 15:07:56.857912+01 | 1486562876.85791 |                 0 |              16 |                 12425 |                  697 |            1686986 |       2240614 |            22203 |        17152560 |                     0 |      16347316 | 2017-02-08 13:48:37.24488+01

 2017-02-08 15:07:57.916183+01 | 1486562877.91618 |                 0 |              16 |                 12425 |                  697 |            1686986 |       2241114 |            22208 |        17152560 |                     0 |      16351248 | 2017-02-08 13:48:37.24488+01

 2017-02-08 15:07:58.974671+01 | 1486562878.97467 |                 0 |              16 |                 12425 |                  697 |            1686986 |       2241714 |            22214 |        17152560 |                     0 |      16355661 | 2017-02-08 13:48:37.24488+01

 2017-02-08 15:08:00.027689+01 | 1486562880.02769 |                 0 |              16 |                 12425 |                  697 |            1686986 |       2242214 |            22219 |        17152560 |                     0 |      16359658 | 2017-02-08 13:48:37.24488+01

 2017-02-08 15:08:01.08466+01 | 1486562881.08466 |                 0 |              16 |                 12425 |                  697 |            1686986 |       2242714 |            22224 |        17152560 |                     0 |      16363477 | 2017-02-08 13:48:37.24488+01

 2017-02-08 15:08:02.142275+01 | 1486562882.14228 |                 0 |              16 |                 12425 |                  697 |            1686986 |       2243214 |            22229 |        17152560 |                     0 |      16367131 | 2017-02-08 13:48:37.24488+01

 2017-02-08 15:08:03.200551+01 | 1486562883.20055 |                 0 |              16 |                 12425 |                  697 |            1686986 |       2243814 |            22235 |        17152560 |                     0 |      16371702 | 2017-02-08 13:48:37.24488+01

 2017-02-08 15:08:04.260454+01 | 1486562884.26045 |                 0 |              16 |                 12425 |                  697 |            1686986 |       2244314 |            22240 |        17152560 |                     0 |      16375352 | 2017-02-08 13:48:37.24488+01

 2017-02-08 15:08:05.323914+01 | 1486562885.32391 |                 0 |              16 |                 12425 |                  697 |            1686986 |       2244814 |            22245 |        17152560 |                     0 |      16379015 | 2017-02-08 13:48:37.24488+01

 2017-02-08 15:08:06.379448+01 | 1486562886.37945 |                 0 |              16 |                 12425 |                  697 |            1686986 |       2245314 |            22250 |        17152560 |                     0 |      16382857 | 2017-02-08 13:48:37.24488+01

 2017-02-08 15:08:07.434825+01 | 1486562887.43482 |                 0 |              16 |                 12425 |                  697 |            1686986 |       2245914 |            22256 |        17152560 |                     0 |      16387193 | 2017-02-08 13:48:37.24488+01

 2017-02-08 15:08:08.489139+01 | 1486562888.48914 |                 0 |              16 |                 12425 |                  697 |            1686986 |       2246414 |            22261 |        17208597 |                     0 |      16391014 | 2017-02-08 13:48:37.24488+01

 2017-02-08 15:08:09.540852+01 | 1486562889.54085 |                 0 |              16 |                 12425 |                  697 |            1686986 |       2246914 |            22266 |        17208597 |                     0 |      16394639 | 2017-02-08 13:48:37.24488+01

 2017-02-08 15:08:10.589412+01 | 1486562890.58941 |                 0 |              16 |                 12425 |                  697 |            1686986 |       2247314 |            22270 |        17208597 |                     0 |      16397512 | 2017-02-08 13:48:37.24488+01

 2017-02-08 15:08:11.643667+01 | 1486562891.64367 |                 0 |              16 |                 12425 |                  697 |            1686986 |       2248014 |            22277 |        17208597 |                     0 |      16402876 | 2017-02-08 13:48:37.24488+01

 2017-02-08 15:08:12.706648+01 | 1486562892.70665 |                 0 |              16 |                 12425 |                  697 |            1686986 |       2248514 |            22282 |        17208597 |                     0 |      16406366 | 2017-02-08 13:48:37.24488+01

 2017-02-08 15:08:13.767383+01 | 1486562893.76738 |                 0 |              16 |                 12425 |                  697 |            1686986 |       2249014 |            22287 |        17208597 |                     0 |      16410054 | 2017-02-08 13:48:37.24488+01

 2017-02-08 15:08:14.821492+01 | 1486562894.82149 |                 0 |              16 |                 12425 |                  697 |            1686986 |       2249514 |            22292 |        17208597 |                     0 |      16413561 | 2017-02-08 13:48:37.24488+01

 2017-02-08 15:08:15.878545+01 | 1486562895.87855 |                 0 |              16 |                 12425 |                  697 |            1686986 |       2250114 |            22298 |        17208597 |                     0 |      16417804 | 2017-02-08 13:48:37.24488+01

 2017-02-08 15:08:16.936688+01 | 1486562896.93669 |                 0 |              16 |                 12425 |                  697 |            1686986 |       2250614 |            22303 |        17208597 |                     0 |      16421386 | 2017-02-08 13:48:37.24488+01

 2017-02-08 15:08:17.997205+01 | 1486562897.99721 |                 0 |              16 |                 12425 |                  697 |            1686986 |       2251114 |            22308 |        17208597 |                     0 |      16425014 | 2017-02-08 13:48:37.24488+01

 2017-02-08 15:08:19.045817+01 | 1486562899.04582 |                 0 |              16 |                 12425 |                  697 |            1686986 |       2251514 |            22312 |        17208597 |                     0 |      16427754 | 2017-02-08 13:48:37.24488+01

 2017-02-08 15:08:20.1068+01 | 1486562900.1068 |                 0 |              16 |                 12425 |                  697 |            1686986 |       2252214 |            22319 |        17208597 |                     0 |      16432875 | 2017-02-08 13:48:37.24488+01

 2017-02-08 15:08:21.164528+01 | 1486562901.16453 |                 0 |              16 |                 12425 |                  697 |            1686986 |       2252714 |            22324 |        17208597 |                     0 |      16436545 | 2017-02-08 13:48:37.24488+01

 2017-02-08 15:08:22.22091+01 | 1486562902.22091 |                 0 |              16 |                 12425 |                  697 |            1686986 |       2253214 |            22329 |        17208597 |                     0 |      16440003 | 2017-02-08 13:48:37.24488+01

 2017-02-08 15:08:23.274377+01 | 1486562903.27438 |                 0 |              16 |                 12425 |                  697 |            1686986 |       2253714 |            22334 |        17208597 |                     0 |      16443799 | 2017-02-08 13:48:37.24488+01

 2017-02-08 15:08:24.329873+01 | 1486562904.32987 |                 0 |              16 |                 12425 |                  697 |            1686986 |       2254314 |            22340 |        17265934 |                     0 |      16448142 | 2017-02-08 13:48:37.24488+01

 2017-02-08 15:08:25.390854+01 | 1486562905.39085 |                 0 |              16 |                 12425 |                  697 |            1686986 |       2254814 |            22345 |        17265934 |                     0 |      16451992 | 2017-02-08 13:48:37.24488+01

 2017-02-08 15:08:26.441927+01 | 1486562906.44193 |                 0 |              16 |                 12425 |                  697 |            1686986 |       2255314 |            22350 |        17265934 |                     0 |      16455640 | 2017-02-08 13:48:37.24488+01

 2017-02-08 15:08:27.500291+01 | 1486562907.50029 |                 0 |              16 |                 12425 |                  697 |            1686986 |       2255814 |            22355 |        17265934 |                     0 |      16459398 | 2017-02-08 13:48:37.24488+01

 2017-02-08 15:08:28.558186+01 | 1486562908.55819 |                 0 |              16 |                 12425 |                  697 |            1686986 |       2256414 |            22361 |        17265934 |                     0 |      16464031 | 2017-02-08 13:48:37.24488+01

 2017-02-08 15:08:29.616519+01 | 1486562909.61652 |                 0 |              16 |                 12425 |                  697 |            1686986 |       2256914 |            22366 |        17265934 |                     0 |      16467629 | 2017-02-08 13:48:37.24488+01

 2017-02-08 15:08:30.673368+01 | 1486562910.67337 |                 0 |              16 |                 12425 |                  697 |            1686986 |       2257414 |            22371 |        17265934 |                     0 |      16471482 | 2017-02-08 13:48:37.24488+01

 2017-02-08 15:08:31.734329+01 | 1486562911.73433 |                 0 |              16 |                 12425 |                  697 |            1686986 |       2257914 |            22376 |        17265934 |                     0 |      16475321 | 2017-02-08 13:48:37.24488+01

 2017-02-08 15:08:32.792498+01 | 1486562912.7925 |                 0 |              16 |                 12425 |                  697 |            1686986 |       2258514 |            22382 |        17265934 |                     0 |      16479816 | 2017-02-08 13:48:37.24488+01

 2017-02-08 15:08:33.854551+01 | 1486562913.85455 |                 0 |              16 |                 12425 |                  697 |            1686986 |       2259014 |            22387 |        17265934 |                     0 |      16483555 | 2017-02-08 13:48:37.24488+01

 2017-02-08 15:08:34.914377+01 | 1486562914.91438 |                 0 |              16 |                 12425 |                  697 |            1686986 |       2259514 |            22392 |        17265934 |                     0 |      16487273 | 2017-02-08 13:48:37.24488+01

 2017-02-08 15:08:35.977332+01 | 1486562915.97733 |                 0 |              16 |                 12425 |                  697 |            1686986 |       2260114 |            22398 |        17265934 |                     0 |      16491731 | 2017-02-08 13:48:37.24488+01

 2017-02-08 15:08:37.03449+01 | 1486562917.03449 |                 0 |              16 |                 12425 |                  697 |            1686986 |       2260614 |            22403 |        17265934 |                     0 |      16495527 | 2017-02-08 13:48:37.24488+01

 2017-02-08 15:08:38.099325+01 | 1486562918.09932 |                 0 |              16 |                 12425 |                  697 |            1686986 |       2261114 |            22408 |        17265934 |                     0 |      16499071 | 2017-02-08 13:48:37.24488+01

 2017-02-08 15:08:39.155148+01 | 1486562919.15515 |                 0 |              16 |                 12425 |                  697 |            1686986 |       2261614 |            22413 |        17265934 |                     0 |      16502985 | 2017-02-08 13:48:37.24488+01

 2017-02-08 15:08:40.213805+01 | 1486562920.2138 |                 0 |              16 |                 12425 |                  697 |            1686986 |       2262214 |            22419 |        17265934 |                     0 |      16507500 | 2017-02-08 13:48:37.24488+01

 2017-02-08 15:08:41.276836+01 | 1486562921.27684 |                 0 |              16 |                 12425 |                  697 |            1686986 |       2262714 |            22424 |        17265934 |                     0 |      16511086 | 2017-02-08 13:48:37.24488+01

 2017-02-08 15:08:42.332538+01 | 1486562922.33254 |                 0 |              16 |                 12425 |                  697 |            1686986 |       2263214 |            22429 |        17265934 |                     0 |      16514959 | 2017-02-08 13:48:37.24488+01

 2017-02-08 15:08:43.392772+01 | 1486562923.39277 |                 0 |              16 |                 12425 |                  697 |            1686986 |       2263714 |            22434 |        17321871 |                     0 |      16518730 | 2017-02-08 13:48:37.24488+01

 2017-02-08 15:08:44.451798+01 | 1486562924.4518 |                 0 |              16 |                 12425 |                  697 |            1686986 |       2264314 |            22440 |        17321871 |                     0 |      16523098 | 2017-02-08 13:48:37.24488+01

 2017-02-08 15:08:45.509666+01 | 1486562925.50967 |                 0 |              16 |                 12425 |                  697 |            1686986 |       2264814 |            22445 |        17321871 |                     0 |      16526917 | 2017-02-08 13:48:37.24488+01

 2017-02-08 15:08:46.570608+01 | 1486562926.57061 |                 0 |              16 |                 12425 |                  697 |            1686986 |       2265314 |            22450 |        17321871 |                     0 |      16530457 | 2017-02-08 13:48:37.24488+01

 2017-02-08 15:08:47.629705+01 | 1486562927.6297 |                 0 |              16 |                 12425 |                  697 |            1686986 |       2265914 |            22456 |        17321871 |                     0 |      16535076 | 2017-02-08 13:48:37.24488+01

 2017-02-08 15:08:48.685847+01 | 1486562928.68585 |                 0 |              16 |                 12425 |                  697 |            1686986 |       2266414 |            22461 |        17321871 |                     0 |      16538814 | 2017-02-08 13:48:37.24488+01

 2017-02-08 15:08:49.739861+01 | 1486562929.73986 |                 0 |              16 |                 12425 |                  697 |            1686986 |       2266914 |            22466 |        17321871 |                     0 |      16542328 | 2017-02-08 13:48:37.24488+01

 2017-02-08 15:08:50.797009+01 | 1486562930.79701 |                 0 |              16 |                 12425 |                  697 |            1686986 |       2267414 |            22471 |        17321871 |                     0 |      16546233 | 2017-02-08 13:48:37.24488+01

 2017-02-08 15:08:51.851563+01 | 1486562931.85156 |                 0 |              16 |                 12425 |                  697 |            1686986 |       2268014 |            22477 |        17321871 |                     0 |      16550578 | 2017-02-08 13:48:37.24488+01

 2017-02-08 15:08:52.907378+01 | 1486562932.90738 |                 0 |              16 |                 12425 |                  697 |            1686986 |       2268514 |            22482 |        17321871 |                     0 |      16554412 | 2017-02-08 13:48:37.24488+01

 2017-02-08 15:08:53.963296+01 | 1486562933.9633 |                 0 |              16 |                 12425 |                  697 |            1686986 |       2269014 |            22487 |        17321871 |                     0 |      16558143 | 2017-02-08 13:48:37.24488+01

 2017-02-08 15:08:55.01582+01 | 1486562935.01582 |                 0 |              16 |                 12425 |                  697 |            1686986 |       2269514 |            22492 |        17321871 |                     0 |      16561742 | 2017-02-08 13:48:37.24488+01

 2017-02-08 15:08:56.079886+01 | 1486562936.07989 |                 0 |              16 |                 12425 |                  697 |            1686986 |       2270014 |            22497 |        17321871 |                     0 |      16565465 | 2017-02-08 13:48:37.24488+01

 2017-02-08 15:08:57.140679+01 | 1486562937.14068 |                 0 |              16 |                 12425 |                  697 |            1686986 |       2270614 |            22503 |        17321871 |                     0 |      16569995 | 2017-02-08 13:48:37.24488+01

 2017-02-08 15:08:58.193976+01 | 1486562938.19398 |                 0 |              16 |                 12425 |                  697 |            1686986 |       2271114 |            22508 |        17321871 |                     0 |      16573508 | 2017-02-08 13:48:37.24488+01

 2017-02-08 15:08:59.249534+01 | 1486562939.24953 |                 0 |              16 |                 12425 |                  697 |            1686986 |       2271614 |            22513 |        17321871 |                     0 |      16577206 | 2017-02-08 13:48:37.24488+01

 2017-02-08 15:09:00.307745+01 | 1486562940.30774 |                 0 |              16 |                 12425 |                  697 |            1686986 |       2272214 |            22519 |        17321871 |                     0 |      16581599 | 2017-02-08 13:48:37.24488+01

 2017-02-08 15:09:01.363416+01 | 1486562941.36342 |                 0 |              16 |                 12425 |                  697 |            1686986 |       2272714 |            22524 |        17321871 |                     0 |      16585104 | 2017-02-08 13:48:37.24488+01

 2017-02-08 15:09:02.419401+01 | 1486562942.4194 |                 0 |              16 |                 12425 |                  697 |            1686986 |       2273214 |            22529 |        17321871 |                     0 |      16589058 | 2017-02-08 13:48:37.24488+01

 2017-02-08 15:09:03.477003+01 | 1486562943.477 |                 0 |              16 |                 12425 |                  697 |            1686986 |       2273714 |            22534 |        17377707 |                     0 |      16592594 | 2017-02-08 13:48:37.24488+01

 2017-02-08 15:09:04.532844+01 | 1486562944.53284 |                 0 |              16 |                 12425 |                  697 |            1686986 |       2274314 |            22540 |        17377707 |                     0 |      16597289 | 2017-02-08 13:48:37.24488+01

 2017-02-08 15:09:05.590416+01 | 1486562945.59042 |                 0 |              16 |                 12425 |                  697 |            1686986 |       2274814 |            22545 |        17377707 |                     0 |      16601026 | 2017-02-08 13:48:37.24488+01

 2017-02-08 15:09:06.646709+01 | 1486562946.64671 |                 0 |              16 |                 12425 |                  697 |            1686986 |       2275314 |            22550 |        17377707 |                     0 |      16604625 | 2017-02-08 13:48:37.24488+01

 2017-02-08 15:09:07.708393+01 | 1486562947.70839 |                 0 |              16 |                 12425 |                  697 |            1686986 |       2275814 |            22555 |        17377707 |                     0 |      16608483 | 2017-02-08 13:48:37.24488+01

 2017-02-08 15:09:08.765441+01 | 1486562948.76544 |                 0 |              16 |                 12425 |                  697 |            1686986 |       2276414 |            22561 |        17377707 |                     0 |      16613044 | 2017-02-08 13:48:37.24488+01

 2017-02-08 15:09:09.817725+01 | 1486562949.81772 |                 0 |              16 |                 12425 |                  697 |            1686986 |       2276714 |            22564 |        17377707 |                     0 |      16615073 | 2017-02-08 13:48:37.24488+01

 2017-02-08 15:09:10.871479+01 | 1486562950.87148 |                 0 |              16 |                 12425 |                  697 |            1686986 |       2277314 |            22570 |        17377707 |                     0 |      16619566 | 2017-02-08 13:48:37.24488+01

 2017-02-08 15:09:11.930484+01 | 1486562951.93048 |                 0 |              16 |                 12425 |                  697 |            1686986 |       2277914 |            22576 |        17377707 |                     0 |      16623836 | 2017-02-08 13:48:37.24488+01

 2017-02-08 15:09:12.986402+01 | 1486562952.9864 |                 0 |              16 |                 12425 |                  697 |            1686986 |       2278514 |            22582 |        17377707 |                     0 |      16628256 | 2017-02-08 13:48:37.24488+01

 2017-02-08 15:09:14.048093+01 | 1486562954.04809 |                 0 |              16 |                 12425 |                  697 |            1686986 |       2279014 |            22587 |        17377707 |                     0 |      16631767 | 2017-02-08 13:48:37.24488+01

 2017-02-08 15:09:15.103597+01 | 1486562955.1036 |                 0 |              16 |                 12425 |                  697 |            1686986 |       2279514 |            22592 |        17377707 |                     0 |      16635360 | 2017-02-08 13:48:37.24488+01

 2017-02-08 15:09:16.165028+01 | 1486562956.16503 |                 0 |              16 |                 12425 |                  697 |            1686986 |       2280014 |            22597 |        17377707 |                     0 |      16638979 | 2017-02-08 13:48:37.24488+01

 2017-02-08 15:09:17.227581+01 | 1486562957.22758 |                 0 |              16 |                 12425 |                  697 |            1686986 |       2280614 |            22603 |        17377707 |                     0 |      16643347 | 2017-02-08 13:48:37.24488+01

 2017-02-08 15:09:18.286575+01 | 1486562958.28658 |                 0 |              16 |                 12425 |                  697 |            1686986 |       2281114 |            22608 |        17377707 |                     0 |      16646890 | 2017-02-08 13:48:37.24488+01

 2017-02-08 15:09:19.343197+01 | 1486562959.3432 |                 0 |              16 |                 12425 |                  697 |            1686986 |       2281614 |            22613 |        17435043 |                     0 |      16650525 | 2017-02-08 13:48:37.24488+01

 2017-02-08 15:09:20.404234+01 | 1486562960.40423 |                 0 |              16 |                 12425 |                  697 |            1686986 |       2282214 |            22619 |        17435043 |                     0 |      16654679 | 2017-02-08 13:48:37.24488+01

 2017-02-08 15:09:21.467822+01 | 1486562961.46782 |                 0 |              16 |                 12425 |                  697 |            1686986 |       2282714 |            22624 |        17435043 |                     0 |      16658412 | 2017-02-08 13:48:37.24488+01

 2017-02-08 15:09:22.536889+01 | 1486562962.53689 |                 0 |              16 |                 12425 |                  697 |            1686986 |       2283214 |            22629 |        17435043 |                     0 |      16661823 | 2017-02-08 13:48:37.24488+01

 2017-02-08 15:09:23.597365+01 | 1486562963.59736 |                 0 |              16 |                 12425 |                  697 |            1686986 |       2283714 |            22634 |        17435043 |                     0 |      16665586 | 2017-02-08 13:48:37.24488+01

 2017-02-08 15:09:24.655543+01 | 1486562964.65554 |                 0 |              16 |                 12425 |                  697 |            1686986 |       2284314 |            22640 |        17435043 |                     0 |      16669819 | 2017-02-08 13:48:37.24488+01

 2017-02-08 15:09:25.715742+01 | 1486562965.71574 |                 0 |              16 |                 12425 |                  697 |            1686986 |       2284814 |            22645 |        17435043 |                     0 |      16673499 | 2017-02-08 13:48:37.24488+01

 2017-02-08 15:09:26.780768+01 | 1486562966.78077 |                 0 |              16 |                 12425 |                  697 |            1686986 |       2285314 |            22650 |        17435043 |                     0 |      16676996 | 2017-02-08 13:48:37.24488+01

 2017-02-08 15:09:27.83404+01 | 1486562967.83404 |                 0 |              16 |                 12425 |                  697 |            1686986 |       2285814 |            22655 |        17435043 |                     0 |      16680603 | 2017-02-08 13:48:37.24488+01

 2017-02-08 15:09:28.892061+01 | 1486562968.89206 |                 0 |              16 |                 12425 |                  697 |            1686986 |       2286414 |            22661 |        17435043 |                     0 |      16684788 | 2017-02-08 13:48:37.24488+01

 2017-02-08 15:09:29.951206+01 | 1486562969.95121 |                 0 |              16 |                 12425 |                  697 |            1686986 |       2286914 |            22666 |        17435043 |                     0 |      16688296 | 2017-02-08 13:48:37.24488+01

 2017-02-08 15:09:31.008954+01 | 1486562971.00895 |                 0 |              16 |                 12425 |                  697 |            1686986 |       2287414 |            22671 |        17435043 |                     0 |      16691977 | 2017-02-08 13:48:37.24488+01

 2017-02-08 15:09:32.064257+01 | 1486562972.06426 |                 0 |              16 |                 12425 |                  697 |            1686986 |       2288014 |            22677 |        17435043 |                     0 |      16696285 | 2017-02-08 13:48:37.24488+01

 2017-02-08 15:09:33.125473+01 | 1486562973.12547 |                 0 |              16 |                 12425 |                  697 |            1686986 |       2288514 |            22682 |        17435043 |                     0 |      16700049 | 2017-02-08 13:48:37.24488+01

 2017-02-08 15:09:34.18414+01 | 1486562974.18414 |                 0 |              16 |                 12425 |                  697 |            1686986 |       2289014 |            22687 |        17493679 |                     0 |      16703589 | 2017-02-08 13:48:37.24488+01

 2017-02-08 15:09:35.245741+01 | 1486562975.24574 |                 0 |              16 |                 12425 |                  697 |            1686986 |       2289514 |            22692 |        17493679 |                     0 |      16707377 | 2017-02-08 13:48:37.24488+01

 2017-02-08 15:09:36.303533+01 | 1486562976.30353 |                 0 |              16 |                 12425 |                  697 |            1686986 |       2290114 |            22698 |        17493679 |                     0 |      16711659 | 2017-02-08 13:48:37.24488+01

 2017-02-08 15:09:37.35914+01 | 1486562977.35914 |                 0 |              16 |                 12425 |                  697 |            1686986 |       2290614 |            22703 |        17493679 |                     0 |      16715471 | 2017-02-08 13:48:37.24488+01

 2017-02-08 15:09:38.418891+01 | 1486562978.41889 |                 0 |              16 |                 12425 |                  697 |            1686986 |       2291114 |            22708 |        17493679 |                     0 |      16718958 | 2017-02-08 13:48:37.24488+01

 2017-02-08 15:09:39.473723+01 | 1486562979.47372 |                 0 |              16 |                 12425 |                  697 |            1686986 |       2291614 |            22713 |        17493679 |                     0 |      16722640 | 2017-02-08 13:48:37.24488+01

 2017-02-08 15:09:40.537534+01 | 1486562980.53753 |                 0 |              16 |                 12425 |                  697 |            1686986 |       2292214 |            22719 |        17493679 |                     0 |      16727062 | 2017-02-08 13:48:37.24488+01

 2017-02-08 15:09:41.6019+01 | 1486562981.6019 |                 0 |              16 |                 12425 |                  697 |            1686986 |       2292714 |            22724 |        17493679 |                     0 |      16730654 | 2017-02-08 13:48:37.24488+01

 2017-02-08 15:09:42.661503+01 | 1486562982.6615 |                 0 |              16 |                 12425 |                  697 |            1686986 |       2293214 |            22729 |        17493679 |                     0 |      16734493 | 2017-02-08 13:48:37.24488+01

 2017-02-08 15:09:43.719428+01 | 1486562983.71943 |                 0 |              16 |                 12425 |                  697 |            1686986 |       2293714 |            22734 |        17493679 |                     0 |      16738034 | 2017-02-08 13:48:37.24488+01

 2017-02-08 15:09:44.77121+01 | 1486562984.77121 |                 0 |              16 |                 12425 |                  697 |            1686986 |       2294314 |            22740 |        17493679 |                     0 |      16742660 | 2017-02-08 13:48:37.24488+01

