 2017-02-08 10:00:30.087614+01 | 1486544430.08761 |                 0 |               7 |                  3416 |                  838 |             577355 |         39408 |              391 |          368798 |                     0 |        224107 | 2017-02-08 09:30:15.25352+01

 2017-02-08 10:00:31.142321+01 | 1486544431.14232 |                 0 |               7 |                  3416 |                  838 |             577355 |         39408 |              391 |          368798 |                     0 |        224191 | 2017-02-08 09:30:15.25352+01

 2017-02-08 10:00:32.193803+01 | 1486544432.1938 |                 0 |               7 |                  3416 |                  838 |             577355 |         39408 |              391 |          368798 |                     0 |        224191 | 2017-02-08 09:30:15.25352+01

 2017-02-08 10:00:33.248385+01 | 1486544433.24838 |                 0 |               7 |                  3416 |                  838 |             577355 |         39408 |              391 |          368798 |                     0 |        224286 | 2017-02-08 09:30:15.25352+01

 2017-02-08 10:00:34.306554+01 | 1486544434.30655 |                 0 |               7 |                  3416 |                  838 |             577355 |         39408 |              391 |          368798 |                     0 |        224361 | 2017-02-08 09:30:15.25352+01

 2017-02-08 10:00:35.36295+01 | 1486544435.36295 |                 0 |               7 |                  3416 |                  838 |             577355 |         39408 |              391 |          368798 |                     0 |        224424 | 2017-02-08 09:30:15.25352+01

 2017-02-08 10:00:36.41573+01 | 1486544436.41573 |                 0 |               7 |                  3416 |                  838 |             577355 |         39408 |              391 |          368798 |                     0 |        224488 | 2017-02-08 09:30:15.25352+01

 2017-02-08 10:00:37.47132+01 | 1486544437.47132 |                 0 |               7 |                  3416 |                  838 |             577355 |         39408 |              391 |          368798 |                     0 |        224567 | 2017-02-08 09:30:15.25352+01

 2017-02-08 10:00:38.523794+01 | 1486544438.52379 |                 0 |               7 |                  3416 |                  838 |             577355 |         39408 |              391 |          368798 |                     0 |        224632 | 2017-02-08 09:30:15.25352+01

 2017-02-08 10:00:39.576729+01 | 1486544439.57673 |                 0 |               7 |                  3416 |                  838 |             577355 |         39408 |              391 |          368798 |                     0 |        224696 | 2017-02-08 09:30:15.25352+01

 2017-02-08 10:00:40.631426+01 | 1486544440.63143 |                 0 |               7 |                  3416 |                  838 |             577355 |         39408 |              391 |          368798 |                     0 |        224761 | 2017-02-08 09:30:15.25352+01

 2017-02-08 10:00:41.684959+01 | 1486544441.68496 |                 0 |               7 |                  3416 |                  838 |             577355 |         39408 |              391 |          368798 |                     0 |        224841 | 2017-02-08 09:30:15.25352+01

 2017-02-08 10:00:42.742763+01 | 1486544442.74276 |                 0 |               7 |                  3416 |                  838 |             577355 |         39408 |              391 |          368798 |                     0 |        224908 | 2017-02-08 09:30:15.25352+01

 2017-02-08 10:00:43.798634+01 | 1486544443.79863 |                 0 |               7 |                  3416 |                  838 |             577355 |         39408 |              391 |          368798 |                     0 |        224976 | 2017-02-08 09:30:15.25352+01

 2017-02-08 10:00:44.852854+01 | 1486544444.85285 |                 0 |               7 |                  3416 |                  838 |             577355 |         39408 |              391 |          368798 |                     0 |        225056 | 2017-02-08 09:30:15.25352+01

 2017-02-08 10:00:45.907777+01 | 1486544445.90778 |                 0 |               7 |                  3416 |                  838 |             577355 |         39408 |              391 |          368798 |                     0 |        225123 | 2017-02-08 09:30:15.25352+01

 2017-02-08 10:00:46.961179+01 | 1486544446.96118 |                 0 |               7 |                  3416 |                  838 |             577355 |         39408 |              391 |          368798 |                     0 |        225189 | 2017-02-08 09:30:15.25352+01

 2017-02-08 10:00:48.01959+01 | 1486544448.01959 |                 0 |               7 |                  3416 |                  838 |             577355 |         39408 |              391 |          368798 |                     0 |        225253 | 2017-02-08 09:30:15.25352+01

 2017-02-08 10:00:49.078162+01 | 1486544449.07816 |                 0 |               7 |                  3416 |                  838 |             577355 |         39408 |              391 |          368798 |                     0 |        225328 | 2017-02-08 09:30:15.25352+01

 2017-02-08 10:00:50.140189+01 | 1486544450.14019 |                 0 |               7 |                  3416 |                  838 |             577355 |         39408 |              391 |          368798 |                     0 |        225393 | 2017-02-08 09:30:15.25352+01

 2017-02-08 10:00:51.195248+01 | 1486544451.19525 |                 0 |               7 |                  3416 |                  838 |             577355 |         39408 |              391 |          368798 |                     0 |        225457 | 2017-02-08 09:30:15.25352+01

 2017-02-08 10:00:52.252702+01 | 1486544452.2527 |                 0 |               7 |                  3416 |                  838 |             577355 |         39408 |              391 |          368798 |                     0 |        225533 | 2017-02-08 09:30:15.25352+01

 2017-02-08 10:00:53.311237+01 | 1486544453.31124 |                 0 |               7 |                  3416 |                  838 |             577355 |         39408 |              391 |          368798 |                     0 |        225598 | 2017-02-08 09:30:15.25352+01

 2017-02-08 10:00:54.369628+01 | 1486544454.36963 |                 0 |               7 |                  3416 |                  838 |             577355 |         39408 |              391 |          368798 |                     0 |        225662 | 2017-02-08 09:30:15.25352+01

 2017-02-08 10:00:55.41419+01 | 1486544455.41419 |                 0 |               7 |                  3416 |                  838 |             577355 |         39408 |              391 |          368798 |                     0 |        225712 | 2017-02-08 09:30:15.25352+01

 2017-02-08 10:00:56.467698+01 | 1486544456.4677 |                 0 |               7 |                  3416 |                  838 |             577355 |         39408 |              391 |          368798 |                     0 |        225856 | 2017-02-08 09:30:15.25352+01

 2017-02-08 10:00:57.518602+01 | 1486544457.5186 |                 0 |               7 |                  3416 |                  838 |             577355 |         39408 |              391 |          368798 |                     0 |        225856 | 2017-02-08 09:30:15.25352+01

 2017-02-08 10:00:58.574743+01 | 1486544458.57474 |                 0 |               7 |                  3416 |                  838 |             577355 |         39408 |              391 |          368798 |                     0 |        225948 | 2017-02-08 09:30:15.25352+01

 2017-02-08 10:00:59.628371+01 | 1486544459.62837 |                 0 |               7 |                  3416 |                  838 |             577355 |         39408 |              391 |          368798 |                     0 |        226020 | 2017-02-08 09:30:15.25352+01

 2017-02-08 10:01:00.680977+01 | 1486544460.68098 |                 0 |               7 |                  3416 |                  838 |             577355 |         39408 |              391 |          368798 |                     0 |        226105 | 2017-02-08 09:30:15.25352+01

 2017-02-08 10:01:01.742199+01 | 1486544461.7422 |                 0 |               7 |                  3416 |                  838 |             577355 |         39408 |              391 |          368798 |                     0 |        226175 | 2017-02-08 09:30:15.25352+01

 2017-02-08 10:01:02.796211+01 | 1486544462.79621 |                 0 |               7 |                  3416 |                  838 |             577355 |         39408 |              391 |          368798 |                     0 |        226243 | 2017-02-08 09:30:15.25352+01

 2017-02-08 10:01:03.856516+01 | 1486544463.85652 |                 0 |               7 |                  3416 |                  838 |             577355 |         39408 |              391 |          368798 |                     0 |        226311 | 2017-02-08 09:30:15.25352+01

 2017-02-08 10:01:04.910566+01 | 1486544464.91057 |                 0 |               7 |                  3416 |                  838 |             577355 |         39408 |              391 |          368798 |                     0 |        226395 | 2017-02-08 09:30:15.25352+01

 2017-02-08 10:01:05.973418+01 | 1486544465.97342 |                 0 |               7 |                  3416 |                  838 |             577355 |         39408 |              391 |          368798 |                     0 |        226465 | 2017-02-08 09:30:15.25352+01

 2017-02-08 10:01:07.031718+01 | 1486544467.03172 |                 0 |               7 |                  3416 |                  838 |             577355 |         39408 |              391 |          368798 |                     0 |        226536 | 2017-02-08 09:30:15.25352+01

 2017-02-08 10:01:08.085667+01 | 1486544468.08567 |                 0 |               7 |                  3416 |                  838 |             577355 |         39408 |              391 |          368798 |                     0 |        226606 | 2017-02-08 09:30:15.25352+01

 2017-02-08 10:01:09.145543+01 | 1486544469.14554 |                 0 |               7 |                  3416 |                  838 |             577355 |         39408 |              391 |          368798 |                     0 |        226687 | 2017-02-08 09:30:15.25352+01

 2017-02-08 10:01:10.198821+01 | 1486544470.19882 |                 0 |               7 |                  3416 |                  838 |             577355 |         39408 |              391 |          368798 |                     0 |        226755 | 2017-02-08 09:30:15.25352+01

 2017-02-08 10:01:11.25501+01 | 1486544471.25501 |                 0 |               7 |                  3416 |                  838 |             577355 |         39408 |              391 |          368798 |                     0 |        226824 | 2017-02-08 09:30:15.25352+01

 2017-02-08 10:01:12.312963+01 | 1486544472.31296 |                 0 |               7 |                  3416 |                  838 |             577355 |         39408 |              391 |          368798 |                     0 |        226911 | 2017-02-08 09:30:15.25352+01

 2017-02-08 10:01:13.369072+01 | 1486544473.36907 |                 0 |               7 |                  3416 |                  838 |             577355 |         39408 |              391 |          368798 |                     0 |        226978 | 2017-02-08 09:30:15.25352+01

 2017-02-08 10:01:14.421843+01 | 1486544474.42184 |                 0 |               7 |                  3416 |                  838 |             577355 |         39408 |              391 |          368798 |                     0 |        227050 | 2017-02-08 09:30:15.25352+01

 2017-02-08 10:01:15.478259+01 | 1486544475.47826 |                 0 |               7 |                  3416 |                  838 |             577355 |         39408 |              391 |          368798 |                     0 |        227117 | 2017-02-08 09:30:15.25352+01

 2017-02-08 10:01:16.537045+01 | 1486544476.53705 |                 0 |               7 |                  3416 |                  838 |             577355 |         39408 |              391 |          368798 |                     0 |        227199 | 2017-02-08 09:30:15.25352+01

 2017-02-08 10:01:17.596508+01 | 1486544477.59651 |                 0 |               7 |                  3416 |                  838 |             577355 |         39408 |              391 |          368798 |                     0 |        227272 | 2017-02-08 09:30:15.25352+01

 2017-02-08 10:01:18.649334+01 | 1486544478.64933 |                 0 |               7 |                  3416 |                  838 |             577355 |         39408 |              391 |          368798 |                     0 |        227338 | 2017-02-08 09:30:15.25352+01

 2017-02-08 10:01:19.700857+01 | 1486544479.70086 |                 0 |               7 |                  3416 |                  838 |             577355 |         39408 |              391 |          368798 |                     0 |        227423 | 2017-02-08 09:30:15.25352+01

 2017-02-08 10:01:20.757062+01 | 1486544480.75706 |                 0 |               7 |                  3416 |                  838 |             577355 |         39408 |              391 |          368798 |                     0 |        227492 | 2017-02-08 09:30:15.25352+01

 2017-02-08 10:01:21.815875+01 | 1486544481.81588 |                 0 |               7 |                  3416 |                  838 |             577355 |         39408 |              391 |          368798 |                     0 |        227561 | 2017-02-08 09:30:15.25352+01

 2017-02-08 10:01:22.871511+01 | 1486544482.87151 |                 0 |               7 |                  3416 |                  838 |             577355 |         39408 |              391 |          368798 |                     0 |        227630 | 2017-02-08 09:30:15.25352+01

 2017-02-08 10:01:23.922557+01 | 1486544483.92256 |                 0 |               7 |                  3416 |                  838 |             577355 |         39408 |              391 |          368798 |                     0 |        227714 | 2017-02-08 09:30:15.25352+01

 2017-02-08 10:01:24.9799+01 | 1486544484.9799 |                 0 |               7 |                  3416 |                  838 |             577355 |         39408 |              391 |          368798 |                     0 |        227783 | 2017-02-08 09:30:15.25352+01

 2017-02-08 10:01:26.032809+01 | 1486544486.03281 |                 0 |               7 |                  3416 |                  838 |             577355 |         39408 |              391 |          368798 |                     0 |        227863 | 2017-02-08 09:30:15.25352+01

 2017-02-08 10:01:27.086281+01 | 1486544487.08628 |                 0 |               7 |                  3416 |                  838 |             577355 |         39408 |              391 |          368798 |                     0 |        227997 | 2017-02-08 09:30:15.25352+01

 2017-02-08 10:01:28.140382+01 | 1486544488.14038 |                 0 |               7 |                  3416 |                  838 |             577355 |         39408 |              391 |          368798 |                     0 |        227997 | 2017-02-08 09:30:15.25352+01

 2017-02-08 10:01:29.199054+01 | 1486544489.19905 |                 0 |               7 |                  3416 |                  838 |             577355 |         39408 |              391 |          368798 |                     0 |        228069 | 2017-02-08 09:30:15.25352+01

 2017-02-08 10:01:30.264824+01 | 1486544490.26482 |                 0 |               7 |                  3416 |                  838 |             577355 |         39408 |              391 |          368798 |                     0 |        228145 | 2017-02-08 09:30:15.25352+01

 2017-02-08 10:01:31.324309+01 | 1486544491.32431 |                 0 |               7 |                  3416 |                  838 |             577355 |         39408 |              391 |          368798 |                     0 |        228226 | 2017-02-08 09:30:15.25352+01

 2017-02-08 10:01:32.379447+01 | 1486544492.37945 |                 0 |               7 |                  3416 |                  838 |             577355 |         39408 |              391 |          368798 |                     0 |        228298 | 2017-02-08 09:30:15.25352+01

 2017-02-08 10:01:33.434296+01 | 1486544493.4343 |                 0 |               7 |                  3416 |                  838 |             577355 |         39408 |              391 |          368798 |                     0 |        228365 | 2017-02-08 09:30:15.25352+01

 2017-02-08 10:01:34.495887+01 | 1486544494.49589 |                 0 |               7 |                  3416 |                  838 |             577355 |         39408 |              391 |          368798 |                     0 |        228444 | 2017-02-08 09:30:15.25352+01

 2017-02-08 10:01:35.548427+01 | 1486544495.54843 |                 0 |               7 |                  3416 |                  838 |             577355 |         39408 |              391 |          368798 |                     0 |        228506 | 2017-02-08 09:30:15.25352+01

 2017-02-08 10:01:36.601089+01 | 1486544496.60109 |                 0 |               7 |                  3416 |                  838 |             577355 |         39408 |              391 |          368798 |                     0 |        228578 | 2017-02-08 09:30:15.25352+01

 2017-02-08 10:01:37.654552+01 | 1486544497.65455 |                 0 |               7 |                  3416 |                  838 |             577355 |         39408 |              391 |          368798 |                     0 |        228647 | 2017-02-08 09:30:15.25352+01

 2017-02-08 10:01:38.715671+01 | 1486544498.71567 |                 0 |               7 |                  3416 |                  838 |             577355 |         39408 |              391 |          368798 |                     0 |        228729 | 2017-02-08 09:30:15.25352+01

 2017-02-08 10:01:39.774035+01 | 1486544499.77403 |                 0 |               7 |                  3416 |                  838 |             577355 |         39408 |              391 |          368798 |                     0 |        228797 | 2017-02-08 09:30:15.25352+01

 2017-02-08 10:01:40.830223+01 | 1486544500.83022 |                 0 |               7 |                  3416 |                  838 |             577355 |         39408 |              391 |          368798 |                     0 |        228865 | 2017-02-08 09:30:15.25352+01

 2017-02-08 10:01:41.884129+01 | 1486544501.88413 |                 0 |               7 |                  3416 |                  838 |             577355 |         39408 |              391 |          368798 |                     0 |        228934 | 2017-02-08 09:30:15.25352+01

 2017-02-08 10:01:42.942943+01 | 1486544502.94294 |                 0 |               7 |                  3416 |                  838 |             577355 |         39408 |              391 |          368798 |                     0 |        229017 | 2017-02-08 09:30:15.25352+01

 2017-02-08 10:01:43.996517+01 | 1486544503.99652 |                 0 |               7 |                  3416 |                  838 |             577355 |         39408 |              391 |          368798 |                     0 |        229087 | 2017-02-08 09:30:15.25352+01

 2017-02-08 10:01:45.051266+01 | 1486544505.05127 |                 0 |               7 |                  3416 |                  838 |             577355 |         39408 |              391 |          368798 |                     0 |        229157 | 2017-02-08 09:30:15.25352+01

 2017-02-08 10:01:46.11728+01 | 1486544506.11728 |                 0 |               7 |                  3416 |                  838 |             577355 |         39408 |              391 |          368798 |                     0 |        229240 | 2017-02-08 09:30:15.25352+01

 2017-02-08 10:01:47.168026+01 | 1486544507.16803 |                 0 |               7 |                  3416 |                  838 |             577355 |         39408 |              391 |          368798 |                     0 |        229304 | 2017-02-08 09:30:15.25352+01

 2017-02-08 10:01:48.225898+01 | 1486544508.2259 |                 0 |               7 |                  3416 |                  838 |             577355 |         39408 |              391 |          368798 |                     0 |        229368 | 2017-02-08 09:30:15.25352+01

 2017-02-08 10:01:49.28401+01 | 1486544509.28401 |                 0 |               7 |                  3416 |                  838 |             577355 |         39408 |              391 |          368798 |                     0 |        229434 | 2017-02-08 09:30:15.25352+01

 2017-02-08 10:01:50.360147+01 | 1486544510.36015 |                 0 |               7 |                  3416 |                  838 |             577355 |         39408 |              391 |          368798 |                     0 |        229514 | 2017-02-08 09:30:15.25352+01

 2017-02-08 10:01:51.422365+01 | 1486544511.42236 |                 0 |               7 |                  3416 |                  838 |             577355 |         39408 |              391 |          368798 |                     0 |        229581 | 2017-02-08 09:30:15.25352+01

 2017-02-08 10:01:52.47295+01 | 1486544512.47295 |                 0 |               7 |                  3416 |                  838 |             577355 |         39408 |              391 |          368798 |                     0 |        229619 | 2017-02-08 09:30:15.25352+01

 2017-02-08 10:01:53.529172+01 | 1486544513.52917 |                 0 |               7 |                  3416 |                  838 |             577355 |         39408 |              391 |          368798 |                     0 |        229751 | 2017-02-08 09:30:15.25352+01

 2017-02-08 10:01:54.585938+01 | 1486544514.58594 |                 0 |               7 |                  3416 |                  838 |             577355 |         39408 |              391 |          368798 |                     0 |        229801 | 2017-02-08 09:30:15.25352+01

 2017-02-08 10:01:55.641727+01 | 1486544515.64173 |                 0 |               7 |                  3416 |                  838 |             577355 |         39408 |              391 |          368798 |                     0 |        229873 | 2017-02-08 09:30:15.25352+01

 2017-02-08 10:01:56.702802+01 | 1486544516.7028 |                 0 |               7 |                  3416 |                  838 |             577355 |         39408 |              391 |          368798 |                     0 |        229944 | 2017-02-08 09:30:15.25352+01

 2017-02-08 10:01:57.759915+01 | 1486544517.75992 |                 0 |               7 |                  3416 |                  838 |             577355 |         39408 |              391 |          368798 |                     0 |        230029 | 2017-02-08 09:30:15.25352+01

 2017-02-08 10:01:58.819939+01 | 1486544518.81994 |                 0 |               7 |                  3416 |                  838 |             577355 |         39408 |              391 |          368798 |                     0 |        230097 | 2017-02-08 09:30:15.25352+01

 2017-02-08 10:01:59.875134+01 | 1486544519.87513 |                 0 |               7 |                  3416 |                  838 |             577355 |         39408 |              391 |          368798 |                     0 |        230168 | 2017-02-08 09:30:15.25352+01

 2017-02-08 10:02:00.929793+01 | 1486544520.92979 |                 0 |               7 |                  3416 |                  838 |             577355 |         39408 |              391 |          368798 |                     0 |        230253 | 2017-02-08 09:30:15.25352+01

 2017-02-08 10:02:01.991226+01 | 1486544521.99123 |                 0 |               7 |                  3416 |                  838 |             577355 |         39408 |              391 |          368798 |                     0 |        230324 | 2017-02-08 09:30:15.25352+01

 2017-02-08 10:02:03.052204+01 | 1486544523.0522 |                 0 |               7 |                  3416 |                  838 |             577355 |         39408 |              391 |          368798 |                     0 |        230412 | 2017-02-08 09:30:15.25352+01

 2017-02-08 10:02:04.109504+01 | 1486544524.1095 |                 0 |               7 |                  3416 |                  838 |             577355 |         39408 |              391 |          368798 |                     0 |        230463 | 2017-02-08 09:30:15.25352+01

 2017-02-08 10:02:05.165663+01 | 1486544525.16566 |                 0 |               7 |                  3416 |                  838 |             577355 |         39408 |              391 |          368798 |                     0 |        230545 | 2017-02-08 09:30:15.25352+01

 2017-02-08 10:02:06.22319+01 | 1486544526.22319 |                 0 |               7 |                  3416 |                  838 |             577355 |         39408 |              391 |          368798 |                     0 |        230630 | 2017-02-08 09:30:15.25352+01

 2017-02-08 10:02:07.284912+01 | 1486544527.28491 |                 0 |               7 |                  3416 |                  838 |             577355 |         39408 |              391 |          368798 |                     0 |        230686 | 2017-02-08 09:30:15.25352+01

 2017-02-08 10:02:08.343974+01 | 1486544528.34397 |                 0 |               7 |                  3416 |                  838 |             577355 |         39408 |              391 |          368798 |                     0 |        230769 | 2017-02-08 09:30:15.25352+01

 2017-02-08 10:02:09.405917+01 | 1486544529.40592 |                 0 |               7 |                  3416 |                  838 |             577355 |         39408 |              391 |          368798 |                     0 |        230841 | 2017-02-08 09:30:15.25352+01

 2017-02-08 10:02:10.468199+01 | 1486544530.4682 |                 0 |               7 |                  3416 |                  838 |             577355 |         39408 |              391 |          368798 |                     0 |        230910 | 2017-02-08 09:30:15.25352+01

 2017-02-08 10:02:11.526273+01 | 1486544531.52627 |                 0 |               7 |                  3416 |                  838 |             577355 |         39408 |              391 |          368798 |                     0 |        230978 | 2017-02-08 09:30:15.25352+01

 2017-02-08 10:02:12.586968+01 | 1486544532.58697 |                 0 |               7 |                  3416 |                  838 |             577355 |         39408 |              391 |          368798 |                     0 |        231065 | 2017-02-08 09:30:15.25352+01

 2017-02-08 10:02:13.642024+01 | 1486544533.64202 |                 0 |               7 |                  3416 |                  838 |             577355 |         39408 |              391 |          368798 |                     0 |        231132 | 2017-02-08 09:30:15.25352+01

 2017-02-08 10:02:14.696157+01 | 1486544534.69616 |                 0 |               7 |                  3416 |                  838 |             577355 |         39408 |              391 |          368798 |                     0 |        231212 | 2017-02-08 09:30:15.25352+01

 2017-02-08 10:02:15.755465+01 | 1486544535.75547 |                 0 |               7 |                  3416 |                  838 |             577355 |         39408 |              391 |          368798 |                     0 |        231285 | 2017-02-08 09:30:15.25352+01

 2017-02-08 10:02:16.809855+01 | 1486544536.80985 |                 0 |               7 |                  3416 |                  838 |             577355 |         39408 |              391 |          368798 |                     0 |        231356 | 2017-02-08 09:30:15.25352+01

 2017-02-08 10:02:17.865867+01 | 1486544537.86587 |                 0 |               7 |                  3416 |                  838 |             577355 |         39408 |              391 |          368798 |                     0 |        231428 | 2017-02-08 09:30:15.25352+01

 2017-02-08 10:02:18.922902+01 | 1486544538.9229 |                 0 |               7 |                  3416 |                  838 |             577355 |         39408 |              391 |          368798 |                     0 |        231497 | 2017-02-08 09:30:15.25352+01

 2017-02-08 10:02:19.979693+01 | 1486544539.97969 |                 0 |               7 |                  3416 |                  838 |             577355 |         39408 |              391 |          368798 |                     0 |        231580 | 2017-02-08 09:30:15.25352+01

 2017-02-08 10:02:21.03615+01 | 1486544541.03615 |                 0 |               7 |                  3416 |                  838 |             577355 |         39408 |              391 |          368798 |                     0 |        231650 | 2017-02-08 09:30:15.25352+01

 2017-02-08 10:02:22.088104+01 | 1486544542.0881 |                 0 |               7 |                  3416 |                  838 |             577355 |         39408 |              391 |          368798 |                     0 |        231717 | 2017-02-08 09:30:15.25352+01

 2017-02-08 10:02:23.142675+01 | 1486544543.14267 |                 0 |               7 |                  3416 |                  838 |             577355 |         39408 |              391 |          368798 |                     0 |        231788 | 2017-02-08 09:30:15.25352+01

 2017-02-08 10:02:24.199756+01 | 1486544544.19976 |                 0 |               7 |                  3416 |                  838 |             577355 |         39408 |              391 |          368798 |                     0 |        231870 | 2017-02-08 09:30:15.25352+01

 2017-02-08 10:02:25.260289+01 | 1486544545.26029 |                 0 |               7 |                  3416 |                  838 |             577355 |         39408 |              391 |          368798 |                     0 |        231945 | 2017-02-08 09:30:15.25352+01

 2017-02-08 10:02:26.320488+01 | 1486544546.32049 |                 0 |               7 |                  3416 |                  838 |             577355 |         39408 |              391 |          368798 |                     0 |        232073 | 2017-02-08 09:30:15.25352+01

 2017-02-08 10:02:27.372259+01 | 1486544547.37226 |                 0 |               7 |                  3416 |                  838 |             577355 |         39408 |              391 |          368798 |                     0 |        232089 | 2017-02-08 09:30:15.25352+01

 2017-02-08 10:02:28.427174+01 | 1486544548.42717 |                 0 |               7 |                  3416 |                  838 |             577355 |         39408 |              391 |          368798 |                     0 |        232179 | 2017-02-08 09:30:15.25352+01

 2017-02-08 10:02:29.481544+01 | 1486544549.48154 |                 0 |               7 |                  3416 |                  838 |             577355 |         39408 |              391 |          368798 |                     0 |        232227 | 2017-02-08 09:30:15.25352+01

 2017-02-08 10:02:30.541403+01 | 1486544550.5414 |                 0 |               7 |                  3416 |                  838 |             577355 |         39408 |              391 |          368798 |                     0 |        232315 | 2017-02-08 09:30:15.25352+01

 2017-02-08 10:02:31.599382+01 | 1486544551.59938 |                 0 |               7 |                  3416 |                  838 |             577355 |         39408 |              391 |          368798 |                     0 |        232387 | 2017-02-08 09:30:15.25352+01

 2017-02-08 10:02:32.656678+01 | 1486544552.65668 |                 0 |               7 |                  3416 |                  838 |             577355 |         39408 |              391 |          368798 |                     0 |        232451 | 2017-02-08 09:30:15.25352+01

 2017-02-08 10:02:33.708426+01 | 1486544553.70843 |                 0 |               7 |                  3416 |                  838 |             577355 |         39408 |              391 |          368798 |                     0 |        232538 | 2017-02-08 09:30:15.25352+01

 2017-02-08 10:02:34.760563+01 | 1486544554.76056 |                 0 |               7 |                  3416 |                  838 |             577355 |         39408 |              391 |          368798 |                     0 |        232606 | 2017-02-08 09:30:15.25352+01

 2017-02-08 10:02:35.816435+01 | 1486544555.81644 |                 0 |               7 |                  3416 |                  838 |             577355 |         39408 |              391 |          368798 |                     0 |        232674 | 2017-02-08 09:30:15.25352+01

 2017-02-08 10:02:36.875511+01 | 1486544556.87551 |                 0 |               7 |                  3416 |                  838 |             577355 |         39408 |              391 |          368798 |                     0 |        232740 | 2017-02-08 09:30:15.25352+01

 2017-02-08 10:02:37.931753+01 | 1486544557.93175 |                 0 |               7 |                  3416 |                  838 |             577355 |         39408 |              391 |          368798 |                     0 |        232823 | 2017-02-08 09:30:15.25352+01

 2017-02-08 10:02:38.983297+01 | 1486544558.9833 |                 0 |               7 |                  3416 |                  838 |             577355 |         39408 |              391 |          368798 |                     0 |        232891 | 2017-02-08 09:30:15.25352+01

 2017-02-08 10:02:40.037007+01 | 1486544560.03701 |                 0 |               7 |                  3416 |                  838 |             577355 |         39408 |              391 |          368798 |                     0 |        232971 | 2017-02-08 09:30:15.25352+01

 2017-02-08 10:02:41.087809+01 | 1486544561.08781 |                 0 |               7 |                  3416 |                  838 |             577355 |         39408 |              391 |          368798 |                     0 |        233043 | 2017-02-08 09:30:15.25352+01

 2017-02-08 10:02:42.147934+01 | 1486544562.14793 |                 0 |               7 |                  3416 |                  838 |             577355 |         39408 |              391 |          368798 |                     0 |        233124 | 2017-02-08 09:30:15.25352+01

 2017-02-08 10:02:43.203143+01 | 1486544563.20314 |                 0 |               7 |                  3416 |                  838 |             577355 |         39408 |              391 |          368798 |                     0 |        233184 | 2017-02-08 09:30:15.25352+01

 2017-02-08 10:02:44.26042+01 | 1486544564.26042 |                 0 |               7 |                  3416 |                  838 |             577355 |         39408 |              391 |          368798 |                     0 |        233254 | 2017-02-08 09:30:15.25352+01

 2017-02-08 10:02:45.316124+01 | 1486544565.31612 |                 0 |               7 |                  3416 |                  838 |             577355 |         39408 |              391 |          368798 |                     0 |        233336 | 2017-02-08 09:30:15.25352+01

 2017-02-08 10:02:46.361972+01 | 1486544566.36197 |                 0 |               7 |                  3416 |                  838 |             577355 |         39408 |              391 |          368798 |                     0 |        233408 | 2017-02-08 09:30:15.25352+01

 2017-02-08 10:02:47.421669+01 | 1486544567.42167 |                 0 |               7 |                  3416 |                  838 |             577355 |         39408 |              391 |          368798 |                     0 |        233474 | 2017-02-08 09:30:15.25352+01

 2017-02-08 10:02:48.47473+01 | 1486544568.47473 |                 0 |               7 |                  3416 |                  838 |             577355 |         39408 |              391 |          368798 |                     0 |        233552 | 2017-02-08 09:30:15.25352+01

 2017-02-08 10:02:49.538232+01 | 1486544569.53823 |                 0 |               7 |                  3416 |                  838 |             577355 |         39408 |              391 |          368798 |                     0 |        233615 | 2017-02-08 09:30:15.25352+01

 2017-02-08 10:02:50.613975+01 | 1486544570.61398 |                 0 |               7 |                  3416 |                  838 |             577355 |         39408 |              391 |          368798 |                     0 |        233682 | 2017-02-08 09:30:15.25352+01

 2017-02-08 10:02:51.675165+01 | 1486544571.67516 |                 0 |               7 |                  3416 |                  838 |             577355 |         39408 |              391 |          368798 |                     0 |        233761 | 2017-02-08 09:30:15.25352+01

 2017-02-08 10:02:52.733489+01 | 1486544572.73349 |                 0 |               7 |                  3416 |                  838 |             577355 |         39408 |              391 |          368798 |                     0 |        233846 | 2017-02-08 09:30:15.25352+01

 2017-02-08 10:02:53.796626+01 | 1486544573.79663 |                 0 |               7 |                  3416 |                  838 |             577355 |         39408 |              391 |          368798 |                     0 |        233902 | 2017-02-08 09:30:15.25352+01

 2017-02-08 10:02:54.855096+01 | 1486544574.8551 |                 0 |               7 |                  3416 |                  838 |             577355 |         39408 |              391 |          368798 |                     0 |        233969 | 2017-02-08 09:30:15.25352+01

 2017-02-08 10:02:55.910164+01 | 1486544575.91016 |                 0 |               7 |                  3416 |                  838 |             577355 |         39408 |              391 |          368798 |                     0 |        234054 | 2017-02-08 09:30:15.25352+01

 2017-02-08 10:02:56.963995+01 | 1486544576.96399 |                 0 |               7 |                  3416 |                  838 |             577355 |         39408 |              391 |          368798 |                     0 |        234123 | 2017-02-08 09:30:15.25352+01

 2017-02-08 10:02:58.016882+01 | 1486544578.01688 |                 0 |               7 |                  3416 |                  838 |             577355 |         39408 |              391 |          368798 |                     0 |        234192 | 2017-02-08 09:30:15.25352+01

 2017-02-08 10:02:59.073196+01 | 1486544579.0732 |                 0 |               7 |                  3416 |                  838 |             577355 |         39408 |              391 |          368798 |                     0 |        234263 | 2017-02-08 09:30:15.25352+01

 2017-02-08 10:03:00.128663+01 | 1486544580.12866 |                 0 |               7 |                  3416 |                  838 |             577355 |         39408 |              391 |          368798 |                     0 |        234338 | 2017-02-08 09:30:15.25352+01

 2017-02-08 10:03:01.184369+01 | 1486544581.18437 |                 0 |               7 |                  3416 |                  838 |             577355 |         39408 |              391 |          368798 |                     0 |        234429 | 2017-02-08 09:30:15.25352+01

 2017-02-08 10:03:02.241414+01 | 1486544582.24141 |                 0 |               7 |                  3416 |                  838 |             577355 |         39408 |              391 |          368798 |                     0 |        234480 | 2017-02-08 09:30:15.25352+01

 2017-02-08 10:03:03.294647+01 | 1486544583.29465 |                 0 |               7 |                  3416 |                  838 |             577355 |         39408 |              391 |          368798 |                     0 |        234568 | 2017-02-08 09:30:15.25352+01

 2017-02-08 10:03:04.350942+01 | 1486544584.35094 |                 0 |               7 |                  3416 |                  838 |             577355 |         39408 |              391 |          368798 |                     0 |        234643 | 2017-02-08 09:30:15.25352+01

 2017-02-08 10:03:05.409633+01 | 1486544585.40963 |                 0 |               7 |                  3416 |                  838 |             577355 |         39408 |              391 |          368798 |                     0 |        234707 | 2017-02-08 09:30:15.25352+01

 2017-02-08 10:03:06.478302+01 | 1486544586.4783 |                 0 |               7 |                  3416 |                  838 |             577355 |         39408 |              391 |          368798 |                     0 |        234769 | 2017-02-08 09:30:15.25352+01

 2017-02-08 10:03:07.540983+01 | 1486544587.54098 |                 0 |               7 |                  3416 |                  838 |             577355 |         39408 |              391 |          368798 |                     0 |        234857 | 2017-02-08 09:30:15.25352+01

 2017-02-08 10:03:08.606146+01 | 1486544588.60615 |                 0 |               7 |                  3416 |                  838 |             577355 |         39408 |              391 |          368798 |                     0 |        234924 | 2017-02-08 09:30:15.25352+01

 2017-02-08 10:03:09.662297+01 | 1486544589.6623 |                 0 |               7 |                  3416 |                  838 |             577355 |         39408 |              391 |          368798 |                     0 |        234993 | 2017-02-08 09:30:15.25352+01

 2017-02-08 10:03:10.721782+01 | 1486544590.72178 |                 0 |               7 |                  3416 |                  838 |             577355 |         39408 |              391 |          368798 |                     0 |        235074 | 2017-02-08 09:30:15.25352+01

 2017-02-08 10:03:11.779139+01 | 1486544591.77914 |                 0 |               7 |                  3416 |                  838 |             577355 |         39408 |              391 |          368798 |                     0 |        235157 | 2017-02-08 09:30:15.25352+01

 2017-02-08 10:03:12.832873+01 | 1486544592.83287 |                 0 |               7 |                  3416 |                  838 |             577355 |         39408 |              391 |          368798 |                     0 |        235213 | 2017-02-08 09:30:15.25352+01

 2017-02-08 10:03:13.88709+01 | 1486544593.88709 |                 0 |               7 |                  3416 |                  838 |             577355 |         39408 |              391 |          368798 |                     0 |        235282 | 2017-02-08 09:30:15.25352+01

 2017-02-08 10:03:14.94437+01 | 1486544594.94437 |                 0 |               7 |                  3416 |                  838 |             577355 |         39408 |              391 |          368798 |                     0 |        235365 | 2017-02-08 09:30:15.25352+01

 2017-02-08 10:03:15.998933+01 | 1486544595.99893 |                 0 |               7 |                  3416 |                  838 |             577355 |         39408 |              391 |          368798 |                     0 |        235434 | 2017-02-08 09:30:15.25352+01

 2017-02-08 10:03:17.050481+01 | 1486544597.05048 |                 0 |               7 |                  3416 |                  838 |             577355 |         39408 |              391 |          368798 |                     0 |        235502 | 2017-02-08 09:30:15.25352+01

 2017-02-08 10:03:18.108513+01 | 1486544598.10851 |                 0 |               7 |                  3416 |                  838 |             577355 |         39408 |              391 |          368798 |                     0 |        235570 | 2017-02-08 09:30:15.25352+01

 2017-02-08 10:03:19.164747+01 | 1486544599.16475 |                 0 |               7 |                  3416 |                  838 |             577355 |         39408 |              391 |          368798 |                     0 |        235653 | 2017-02-08 09:30:15.25352+01

 2017-02-08 10:03:20.226093+01 | 1486544600.22609 |                 0 |               7 |                  3416 |                  838 |             577355 |         39408 |              391 |          368798 |                     0 |        235724 | 2017-02-08 09:30:15.25352+01

 2017-02-08 10:03:21.284166+01 | 1486544601.28417 |                 0 |               7 |                  3416 |                  838 |             577355 |         39408 |              391 |          368798 |                     0 |        235792 | 2017-02-08 09:30:15.25352+01

 2017-02-08 10:03:22.33986+01 | 1486544602.33986 |                 0 |               7 |                  3416 |                  838 |             577355 |         39408 |              391 |          368798 |                     0 |        235872 | 2017-02-08 09:30:15.25352+01

 2017-02-08 10:03:23.394243+01 | 1486544603.39424 |                 0 |               7 |                  3416 |                  838 |             577355 |         39408 |              391 |          368798 |                     0 |        235941 | 2017-02-08 09:30:15.25352+01

 2017-02-08 10:03:24.449834+01 | 1486544604.44983 |                 0 |               7 |                  3416 |                  838 |             577355 |         39408 |              391 |          368798 |                     0 |        236010 | 2017-02-08 09:30:15.25352+01

 2017-02-08 10:03:25.507223+01 | 1486544605.50722 |                 0 |               7 |                  3416 |                  838 |             577355 |         39408 |              391 |          368798 |                     0 |        236079 | 2017-02-08 09:30:15.25352+01

 2017-02-08 10:03:26.56698+01 | 1486544606.56698 |                 0 |               7 |                  3416 |                  838 |             577355 |         39408 |              391 |          368798 |                     0 |        236161 | 2017-02-08 09:30:15.25352+01

 2017-02-08 10:03:27.627217+01 | 1486544607.62722 |                 0 |               7 |                  3416 |                  838 |             577355 |         39408 |              391 |          368798 |                     0 |        236230 | 2017-02-08 09:30:15.25352+01

 2017-02-08 10:03:28.678164+01 | 1486544608.67816 |                 0 |               7 |                  3416 |                  838 |             577355 |         39408 |              391 |          368798 |                     0 |        236299 | 2017-02-08 09:30:15.25352+01

 2017-02-08 10:03:29.73242+01 | 1486544609.73242 |                 0 |               7 |                  3416 |                  838 |             577355 |         39408 |              391 |          368798 |                     0 |        236383 | 2017-02-08 09:30:15.25352+01

 2017-02-08 10:03:30.787239+01 | 1486544610.78724 |                 0 |               7 |                  3416 |                  838 |             577355 |         39408 |              391 |          368798 |                     0 |        236451 | 2017-02-08 09:30:15.25352+01

 2017-02-08 10:03:31.850798+01 | 1486544611.8508 |                 0 |               7 |                  3416 |                  838 |             577355 |         39408 |              391 |          368798 |                     0 |        236520 | 2017-02-08 09:30:15.25352+01

 2017-02-08 10:03:32.906725+01 | 1486544612.90672 |                 0 |               7 |                  3416 |                  838 |             577355 |         39408 |              391 |          368798 |                     0 |        236589 | 2017-02-08 09:30:15.25352+01

 2017-02-08 10:03:33.958809+01 | 1486544613.95881 |                 0 |               7 |                  3416 |                  838 |             577355 |         39408 |              391 |          368798 |                     0 |        236671 | 2017-02-08 09:30:15.25352+01

 2017-02-08 10:03:35.015843+01 | 1486544615.01584 |                 0 |               7 |                  3416 |                  838 |             577355 |         39408 |              391 |          368798 |                     0 |        236740 | 2017-02-08 09:30:15.25352+01

 2017-02-08 10:03:36.069679+01 | 1486544616.06968 |                 0 |               7 |                  3416 |                  838 |             577355 |         39408 |              391 |          368798 |                     0 |        236808 | 2017-02-08 09:30:15.25352+01

 2017-02-08 10:03:37.128304+01 | 1486544617.1283 |                 0 |               7 |                  3416 |                  838 |             577355 |         39408 |              391 |          368798 |                     0 |        236878 | 2017-02-08 09:30:15.25352+01

 2017-02-08 10:03:38.18417+01 | 1486544618.18417 |                 0 |               7 |                  3416 |                  838 |             577355 |         39408 |              391 |          368798 |                     0 |        236959 | 2017-02-08 09:30:15.25352+01

 2017-02-08 10:03:39.237485+01 | 1486544619.23748 |                 0 |               7 |                  3416 |                  838 |             577355 |         39408 |              391 |          368798 |                     0 |        237029 | 2017-02-08 09:30:15.25352+01

 2017-02-08 10:03:40.292378+01 | 1486544620.29238 |                 0 |               7 |                  3416 |                  838 |             577355 |         39408 |              391 |          368798 |                     0 |        237095 | 2017-02-08 09:30:15.25352+01

 2017-02-08 10:03:41.34706+01 | 1486544621.34706 |                 0 |               7 |                  3416 |                  838 |             577355 |         39408 |              391 |          368798 |                     0 |        237181 | 2017-02-08 09:30:15.25352+01

 2017-02-08 10:03:42.406388+01 | 1486544622.40639 |                 0 |               7 |                  3416 |                  838 |             577355 |         39408 |              391 |          368798 |                     0 |        237247 | 2017-02-08 09:30:15.25352+01

 2017-02-08 10:03:43.46324+01 | 1486544623.46324 |                 0 |               7 |                  3416 |                  838 |             577355 |         39408 |              391 |          368798 |                     0 |        237318 | 2017-02-08 09:30:15.25352+01

 2017-02-08 10:03:44.51797+01 | 1486544624.51797 |                 0 |               7 |                  3416 |                  838 |             577355 |         39408 |              391 |          368798 |                     0 |        237385 | 2017-02-08 09:30:15.25352+01

 2017-02-08 10:03:45.571906+01 | 1486544625.57191 |                 0 |               7 |                  3416 |                  838 |             577355 |         39408 |              391 |          368798 |                     0 |        237469 | 2017-02-08 09:30:15.25352+01

 2017-02-08 10:03:46.63029+01 | 1486544626.63029 |                 0 |               7 |                  3416 |                  838 |             577355 |         39408 |              391 |          368798 |                     0 |        237524 | 2017-02-08 09:30:15.25352+01

 2017-02-08 10:03:47.693205+01 | 1486544627.69321 |                 0 |               7 |                  3416 |                  838 |             577355 |         39408 |              391 |          368798 |                     0 |        237603 | 2017-02-08 09:30:15.25352+01

 2017-02-08 10:03:48.747456+01 | 1486544628.74746 |                 0 |               7 |                  3416 |                  838 |             577355 |         39408 |              391 |          368798 |                     0 |        237680 | 2017-02-08 09:30:15.25352+01

 2017-02-08 10:03:49.804097+01 | 1486544629.8041 |                 0 |               7 |                  3416 |                  838 |             577355 |         39408 |              391 |          368798 |                     0 |        237749 | 2017-02-08 09:30:15.25352+01

 2017-02-08 10:03:50.861911+01 | 1486544630.86191 |                 0 |               7 |                  3416 |                  838 |             577355 |         39408 |              391 |          368798 |                     0 |        237814 | 2017-02-08 09:30:15.25352+01

 2017-02-08 10:03:51.930153+01 | 1486544631.93015 |                 0 |               7 |                  3416 |                  838 |             577355 |         39408 |              391 |          368798 |                     0 |        237881 | 2017-02-08 09:30:15.25352+01

 2017-02-08 10:03:52.986853+01 | 1486544632.98685 |                 0 |               7 |                  3416 |                  838 |             577355 |         39408 |              391 |          368798 |                     0 |        237962 | 2017-02-08 09:30:15.25352+01

 2017-02-08 10:03:54.040095+01 | 1486544634.0401 |                 0 |               7 |                  3416 |                  838 |             577355 |         39408 |              391 |          368798 |                     0 |        238034 | 2017-02-08 09:30:15.25352+01

 2017-02-08 10:03:55.0983+01 | 1486544635.0983 |                 0 |               7 |                  3416 |                  838 |             577355 |         39408 |              391 |          368798 |                     0 |        238104 | 2017-02-08 09:30:15.25352+01

 2017-02-08 10:03:56.155431+01 | 1486544636.15543 |                 0 |               7 |                  3416 |                  838 |             577355 |         39408 |              391 |          368798 |                     0 |        238186 | 2017-02-08 09:30:15.25352+01

 2017-02-08 10:03:57.21016+01 | 1486544637.21016 |                 0 |               7 |                  3416 |                  838 |             577355 |         39408 |              391 |          368798 |                     0 |        238258 | 2017-02-08 09:30:15.25352+01

 2017-02-08 10:03:58.266964+01 | 1486544638.26696 |                 0 |               7 |                  3416 |                  838 |             577355 |         39408 |              391 |          368798 |                     0 |        238329 | 2017-02-08 09:30:15.25352+01

 2017-02-08 10:03:59.325542+01 | 1486544639.32554 |                 0 |               7 |                  3416 |                  838 |             577355 |         39408 |              391 |          368798 |                     0 |        238400 | 2017-02-08 09:30:15.25352+01

 2017-02-08 10:04:00.383239+01 | 1486544640.38324 |                 0 |               7 |                  3416 |                  838 |             577355 |         39408 |              391 |          368798 |                     0 |        238484 | 2017-02-08 09:30:15.25352+01

 2017-02-08 10:04:01.44187+01 | 1486544641.44187 |                 0 |               7 |                  3416 |                  838 |             577355 |         39408 |              391 |          368798 |                     0 |        238555 | 2017-02-08 09:30:15.25352+01

 2017-02-08 10:04:02.496353+01 | 1486544642.49635 |                 0 |               7 |                  3416 |                  838 |             577355 |         39408 |              391 |          368798 |                     0 |        238632 | 2017-02-08 09:30:15.25352+01

 2017-02-08 10:04:03.553963+01 | 1486544643.55396 |                 0 |               7 |                  3416 |                  838 |             577355 |         39408 |              391 |          368798 |                     0 |        238724 | 2017-02-08 09:30:15.25352+01

 2017-02-08 10:04:04.608929+01 | 1486544644.60893 |                 0 |               7 |                  3416 |                  838 |             577355 |         39408 |              391 |          368798 |                     0 |        238780 | 2017-02-08 09:30:15.25352+01

 2017-02-08 10:04:05.663371+01 | 1486544645.66337 |                 0 |               7 |                  3416 |                  838 |             577355 |         39408 |              391 |          368798 |                     0 |        238849 | 2017-02-08 09:30:15.25352+01

 2017-02-08 10:04:06.718246+01 | 1486544646.71825 |                 0 |               7 |                  3416 |                  838 |             577355 |         39408 |              391 |          368798 |                     0 |        238917 | 2017-02-08 09:30:15.25352+01

 2017-02-08 10:04:07.775575+01 | 1486544647.77557 |                 0 |               7 |                  3416 |                  838 |             577355 |         39408 |              391 |          368798 |                     0 |        239002 | 2017-02-08 09:30:15.25352+01

 2017-02-08 10:04:08.83339+01 | 1486544648.83339 |                 0 |               7 |                  3416 |                  838 |             577355 |         39408 |              391 |          368798 |                     0 |        239071 | 2017-02-08 09:30:15.25352+01

 2017-02-08 10:04:09.889072+01 | 1486544649.88907 |                 0 |               7 |                  3416 |                  838 |             577355 |         39408 |              391 |          368798 |                     0 |        239140 | 2017-02-08 09:30:15.25352+01

 2017-02-08 10:04:10.943337+01 | 1486544650.94334 |                 0 |               7 |                  3416 |                  838 |             577355 |         39408 |              391 |          368798 |                     0 |        239211 | 2017-02-08 09:30:15.25352+01

 2017-02-08 10:04:11.996496+01 | 1486544651.9965 |                 0 |               7 |                  3416 |                  838 |             577355 |         39408 |              391 |          368798 |                     0 |        239294 | 2017-02-08 09:30:15.25352+01

 2017-02-08 10:04:13.052283+01 | 1486544653.05228 |                 0 |               7 |                  3416 |                  838 |             577355 |         39408 |              391 |          368798 |                     0 |        239365 | 2017-02-08 09:30:15.25352+01

 2017-02-08 10:04:14.110551+01 | 1486544654.11055 |                 0 |               7 |                  3416 |                  838 |             577355 |         39408 |              391 |          368798 |                     0 |        239433 | 2017-02-08 09:30:15.25352+01

 2017-02-08 10:04:15.163042+01 | 1486544655.16304 |                 0 |               7 |                  3416 |                  838 |             577355 |         39408 |              391 |          368798 |                     0 |        239505 | 2017-02-08 09:30:15.25352+01

 2017-02-08 10:04:16.218738+01 | 1486544656.21874 |                 0 |               7 |                  3416 |                  838 |             577355 |         39408 |              391 |          368798 |                     0 |        239587 | 2017-02-08 09:30:15.25352+01

 2017-02-08 10:04:17.274426+01 | 1486544657.27443 |                 0 |               7 |                  3416 |                  838 |             577355 |         39408 |              391 |          368798 |                     0 |        239658 | 2017-02-08 09:30:15.25352+01

 2017-02-08 10:04:18.326944+01 | 1486544658.32694 |                 0 |               7 |                  3416 |                  838 |             577355 |         39408 |              391 |          368798 |                     0 |        239728 | 2017-02-08 09:30:15.25352+01

 2017-02-08 10:04:19.383181+01 | 1486544659.38318 |                 0 |               7 |                  3416 |                  838 |             577355 |         39408 |              391 |          368798 |                     0 |        239810 | 2017-02-08 09:30:15.25352+01

 2017-02-08 10:04:20.43752+01 | 1486544660.43752 |                 0 |               7 |                  3416 |                  838 |             577355 |         39408 |              391 |          368798 |                     0 |        239881 | 2017-02-08 09:30:15.25352+01

 2017-02-08 10:04:21.496934+01 | 1486544661.49693 |                 0 |               7 |                  3416 |                  838 |             577355 |         39408 |              391 |          368798 |                     0 |        239951 | 2017-02-08 09:30:15.25352+01

 2017-02-08 10:04:22.555573+01 | 1486544662.55557 |                 0 |               7 |                  3416 |                  838 |             577355 |         39408 |              391 |          368798 |                     0 |        240021 | 2017-02-08 09:30:15.25352+01

 2017-02-08 10:04:23.610509+01 | 1486544663.61051 |                 0 |               7 |                  3416 |                  838 |             577355 |         39408 |              391 |          368798 |                     0 |        240103 | 2017-02-08 09:30:15.25352+01

 2017-02-08 10:04:24.663666+01 | 1486544664.66367 |                 0 |               7 |                  3416 |                  838 |             577355 |         39408 |              391 |          368798 |                     0 |        240174 | 2017-02-08 09:30:15.25352+01

 2017-02-08 10:04:25.71602+01 | 1486544665.71602 |                 0 |               7 |                  3416 |                  838 |             577355 |         39408 |              391 |          368798 |                     0 |        240244 | 2017-02-08 09:30:15.25352+01

 2017-02-08 10:04:26.774825+01 | 1486544666.77483 |                 0 |               7 |                  3416 |                  838 |             577355 |         39408 |              391 |          368798 |                     0 |        240313 | 2017-02-08 09:30:15.25352+01

 2017-02-08 10:04:27.831325+01 | 1486544667.83133 |                 0 |               7 |                  3416 |                  838 |             577355 |         39408 |              391 |          368798 |                     0 |        240398 | 2017-02-08 09:30:15.25352+01

 2017-02-08 10:04:28.890224+01 | 1486544668.89022 |                 0 |               7 |                  3416 |                  838 |             577355 |         39408 |              391 |          368798 |                     0 |        240468 | 2017-02-08 09:30:15.25352+01

 2017-02-08 10:04:29.947749+01 | 1486544669.94775 |                 0 |               7 |                  3416 |                  838 |             577355 |         39408 |              391 |          368798 |                     0 |        240537 | 2017-02-08 09:30:15.25352+01

 2017-02-08 10:04:31.002665+01 | 1486544671.00267 |                 0 |               7 |                  3416 |                  838 |             577355 |         39408 |              391 |          368798 |                     0 |        240621 | 2017-02-08 09:30:15.25352+01

 2017-02-08 10:04:32.058302+01 | 1486544672.0583 |                 0 |               7 |                  3416 |                  838 |             577355 |         39408 |              391 |          368798 |                     0 |        240692 | 2017-02-08 09:30:15.25352+01

 2017-02-08 10:04:33.11433+01 | 1486544673.11433 |                 0 |               7 |                  3416 |                  838 |             577355 |         39408 |              391 |          368798 |                     0 |        240764 | 2017-02-08 09:30:15.25352+01

 2017-02-08 10:04:34.167278+01 | 1486544674.16728 |                 0 |               7 |                  3416 |                  838 |             577355 |         39408 |              391 |          368798 |                     0 |        240830 | 2017-02-08 09:30:15.25352+01

 2017-02-08 10:04:35.226504+01 | 1486544675.2265 |                 0 |               7 |                  3416 |                  838 |             577355 |         39408 |              391 |          368798 |                     0 |        240901 | 2017-02-08 09:30:15.25352+01

 2017-02-08 10:04:36.284006+01 | 1486544676.28401 |                 0 |               7 |                  3416 |                  838 |             577355 |         39408 |              391 |          368798 |                     0 |        240989 | 2017-02-08 09:30:15.25352+01

 2017-02-08 10:04:37.340786+01 | 1486544677.34079 |                 0 |               7 |                  3416 |                  838 |             577355 |         39408 |              391 |          368798 |                     0 |        241064 | 2017-02-08 09:30:15.25352+01

 2017-02-08 10:04:38.396571+01 | 1486544678.39657 |                 0 |               7 |                  3416 |                  838 |             577355 |         39408 |              391 |          368798 |                     0 |        241142 | 2017-02-08 09:30:15.25352+01

 2017-02-08 10:04:39.450304+01 | 1486544679.4503 |                 0 |               7 |                  3416 |                  838 |             577355 |         39408 |              391 |          368798 |                     0 |        241197 | 2017-02-08 09:30:15.25352+01

 2017-02-08 10:04:40.511666+01 | 1486544680.51167 |                 0 |               7 |                  3416 |                  838 |             577355 |         39408 |              391 |          368798 |                     0 |        241302 | 2017-02-08 09:30:15.25352+01

 2017-02-08 10:04:41.566319+01 | 1486544681.56632 |                 0 |               7 |                  3416 |                  838 |             577355 |         39408 |              391 |          368798 |                     0 |        241350 | 2017-02-08 09:30:15.25352+01

 2017-02-08 10:04:42.618592+01 | 1486544682.61859 |                 0 |               7 |                  3416 |                  838 |             577355 |         39408 |              391 |          368798 |                     0 |        241418 | 2017-02-08 09:30:15.25352+01

 2017-02-08 10:04:43.673676+01 | 1486544683.67368 |                 0 |               7 |                  3416 |                  838 |             577355 |         39408 |              391 |          368798 |                     0 |        241487 | 2017-02-08 09:30:15.25352+01

 2017-02-08 10:04:44.728996+01 | 1486544684.729 |                 0 |               7 |                  3416 |                  838 |             577355 |         39408 |              391 |          368798 |                     0 |        241573 | 2017-02-08 09:30:15.25352+01

 2017-02-08 10:04:45.787173+01 | 1486544685.78717 |                 0 |               7 |                  3416 |                  838 |             577355 |         39408 |              391 |          368798 |                     0 |        241640 | 2017-02-08 09:30:15.25352+01

 2017-02-08 10:04:46.835884+01 | 1486544686.83588 |                 0 |               7 |                  3416 |                  838 |             577355 |         39408 |              391 |          368798 |                     0 |        241681 | 2017-02-08 09:30:15.25352+01

 2017-02-08 10:04:47.894061+01 | 1486544687.89406 |                 0 |               7 |                  3416 |                  838 |             577355 |         39408 |              391 |          368798 |                     0 |        241787 | 2017-02-08 09:30:15.25352+01

 2017-02-08 10:04:48.954414+01 | 1486544688.95441 |                 0 |               7 |                  3416 |                  838 |             577355 |         39408 |              391 |          368798 |                     0 |        241849 | 2017-02-08 09:30:15.25352+01

 2017-02-08 10:04:50.009389+01 | 1486544690.00939 |                 0 |               7 |                  3416 |                  838 |             577355 |         39408 |              391 |          368798 |                     0 |        241920 | 2017-02-08 09:30:15.25352+01

 2017-02-08 10:04:51.074773+01 | 1486544691.07477 |                 0 |               7 |                  3416 |                  838 |             577355 |         39408 |              391 |          368798 |                     0 |        241984 | 2017-02-08 09:30:15.25352+01

 2017-02-08 10:04:52.130934+01 | 1486544692.13093 |                 0 |               7 |                  3416 |                  838 |             577355 |         39408 |              391 |          368798 |                     0 |        242064 | 2017-02-08 09:30:15.25352+01

 2017-02-08 10:04:53.187199+01 | 1486544693.1872 |                 0 |               7 |                  3416 |                  838 |             577355 |         39408 |              391 |          368798 |                     0 |        242138 | 2017-02-08 09:30:15.25352+01

 2017-02-08 10:04:54.242538+01 | 1486544694.24254 |                 0 |               7 |                  3416 |                  838 |             577355 |         39408 |              391 |          368798 |                     0 |        242207 | 2017-02-08 09:30:15.25352+01

 2017-02-08 10:04:55.300259+01 | 1486544695.30026 |                 0 |               7 |                  3416 |                  838 |             577355 |         39408 |              391 |          368798 |                     0 |        242279 | 2017-02-08 09:30:15.25352+01

 2017-02-08 10:04:56.351899+01 | 1486544696.3519 |                 0 |               7 |                  3416 |                  838 |             577355 |         39408 |              391 |          368798 |                     0 |        242351 | 2017-02-08 09:30:15.25352+01

 2017-02-08 10:04:57.409309+01 | 1486544697.40931 |                 0 |               7 |                  3416 |                  838 |             577355 |         39408 |              391 |          368798 |                     0 |        242440 | 2017-02-08 09:30:15.25352+01

 2017-02-08 10:04:58.46242+01 | 1486544698.46242 |                 0 |               7 |                  3416 |                  838 |             577355 |         39408 |              391 |          368798 |                     0 |        242505 | 2017-02-08 09:30:15.25352+01

 2017-02-08 10:04:59.516945+01 | 1486544699.51694 |                 0 |               7 |                  3416 |                  838 |             577355 |         39408 |              391 |          368798 |                     0 |        242576 | 2017-02-08 09:30:15.25352+01

 2017-02-08 10:05:00.57716+01 | 1486544700.57716 |                 0 |               7 |                  3416 |                  838 |             577355 |         39408 |              391 |          368798 |                     0 |        242687 | 2017-02-08 09:30:15.25352+01

 2017-02-08 10:05:01.634574+01 | 1486544701.63457 |                 0 |               7 |                  3416 |                  838 |             577355 |         39408 |              391 |          368798 |                     0 |        242718 | 2017-02-08 09:30:15.25352+01

 2017-02-08 10:05:02.692467+01 | 1486544702.69247 |                 0 |               7 |                  3416 |                  838 |             577355 |         39408 |              391 |          368798 |                     0 |        242813 | 2017-02-08 09:30:15.25352+01

 2017-02-08 10:05:03.747504+01 | 1486544703.7475 |                 0 |               7 |                  3416 |                  838 |             577355 |         39408 |              391 |          368798 |                     0 |        242900 | 2017-02-08 09:30:15.25352+01

 2017-02-08 10:05:04.808084+01 | 1486544704.80808 |                 0 |               7 |                  3416 |                  838 |             577355 |         39408 |              391 |          368798 |                     0 |        242946 | 2017-02-08 09:30:15.25352+01

 2017-02-08 10:05:05.864661+01 | 1486544705.86466 |                 0 |               7 |                  3416 |                  838 |             577355 |         39408 |              391 |          368798 |                     0 |        243019 | 2017-02-08 09:30:15.25352+01

 2017-02-08 10:05:06.92346+01 | 1486544706.92346 |                 0 |               7 |                  3416 |                  838 |             577355 |         39408 |              391 |          368798 |                     0 |        243091 | 2017-02-08 09:30:15.25352+01

 2017-02-08 10:05:07.980035+01 | 1486544707.98004 |                 0 |               7 |                  3416 |                  838 |             577355 |         39408 |              391 |          368798 |                     0 |        243187 | 2017-02-08 09:30:15.25352+01

 2017-02-08 10:05:09.036324+01 | 1486544709.03632 |                 0 |               7 |                  3416 |                  838 |             577355 |         39408 |              391 |          368798 |                     0 |        243239 | 2017-02-08 09:30:15.25352+01

 2017-02-08 10:05:10.091085+01 | 1486544710.09108 |                 0 |               7 |                  3416 |                  838 |             577355 |         39408 |              391 |          368798 |                     0 |        243312 | 2017-02-08 09:30:15.25352+01

 2017-02-08 10:05:11.149417+01 | 1486544711.14942 |                 0 |               7 |                  3416 |                  838 |             577355 |         39408 |              391 |          368798 |                     0 |        243383 | 2017-02-08 09:30:15.25352+01

 2017-02-08 10:05:12.205634+01 | 1486544712.20563 |                 0 |               7 |                  3416 |                  838 |             577355 |         39408 |              391 |          368798 |                     0 |        243457 | 2017-02-08 09:30:15.25352+01

 2017-02-08 10:05:13.259093+01 | 1486544713.25909 |                 0 |               7 |                  3416 |                  838 |             577355 |         39408 |              391 |          368798 |                     0 |        243528 | 2017-02-08 09:30:15.25352+01

 2017-02-08 10:05:14.317395+01 | 1486544714.31739 |                 0 |               7 |                  3416 |                  838 |             577355 |         39408 |              391 |          368798 |                     0 |        243609 | 2017-02-08 09:30:15.25352+01

 2017-02-08 10:05:15.375206+01 | 1486544715.37521 |                 0 |               7 |                  3416 |                  838 |             577355 |         39408 |              391 |          368798 |                     0 |        243680 | 2017-02-08 09:30:15.25352+01

 2017-02-08 10:05:16.43477+01 | 1486544716.43477 |                 0 |               7 |                  3416 |                  838 |             577355 |         39408 |              391 |          368798 |                     0 |        243749 | 2017-02-08 09:30:15.25352+01

 2017-02-08 10:05:17.496274+01 | 1486544717.49627 |                 0 |               7 |                  3416 |                  838 |             577355 |         39408 |              391 |          368798 |                     0 |        243832 | 2017-02-08 09:30:15.25352+01

 2017-02-08 10:05:18.552348+01 | 1486544718.55235 |                 0 |               7 |                  3416 |                  838 |             577355 |         39408 |              391 |          368798 |                     0 |        243902 | 2017-02-08 09:30:15.25352+01

 2017-02-08 10:05:19.609339+01 | 1486544719.60934 |                 0 |               7 |                  3416 |                  838 |             577355 |         39408 |              391 |          368798 |                     0 |        243972 | 2017-02-08 09:30:15.25352+01

 2017-02-08 10:05:20.670873+01 | 1486544720.67087 |                 0 |               7 |                  3416 |                  838 |             577355 |         39408 |              391 |          368798 |                     0 |        244040 | 2017-02-08 09:30:15.25352+01

 2017-02-08 10:05:21.731693+01 | 1486544721.73169 |                 0 |               7 |                  3416 |                  838 |             577355 |         39408 |              391 |          368798 |                     0 |        244126 | 2017-02-08 09:30:15.25352+01

 2017-02-08 10:05:22.786641+01 | 1486544722.78664 |                 0 |               7 |                  3416 |                  838 |             577355 |         39408 |              391 |          368798 |                     0 |        244195 | 2017-02-08 09:30:15.25352+01

 2017-02-08 10:05:23.844011+01 | 1486544723.84401 |                 0 |               7 |                  3416 |                  838 |             577355 |         39408 |              391 |          368798 |                     0 |        244272 | 2017-02-08 09:30:15.25352+01

 2017-02-08 10:05:24.89679+01 | 1486544724.89679 |                 0 |               7 |                  3416 |                  838 |             577355 |         39408 |              391 |          368798 |                     0 |        244350 | 2017-02-08 09:30:15.25352+01

 2017-02-08 10:05:25.957474+01 | 1486544725.95747 |                 0 |               7 |                  3416 |                  838 |             577355 |         39408 |              391 |          368798 |                     0 |        244521 | 2017-02-08 09:30:15.25352+01

 2017-02-08 10:05:27.008521+01 | 1486544727.00852 |                 0 |               7 |                  3416 |                  838 |             577355 |         39408 |              391 |          368798 |                     0 |        244521 | 2017-02-08 09:30:15.25352+01

 2017-02-08 10:05:28.063359+01 | 1486544728.06336 |                 0 |               7 |                  3416 |                  838 |             577355 |         39408 |              391 |          368798 |                     0 |        244568 | 2017-02-08 09:30:15.25352+01

 2017-02-08 10:05:29.116492+01 | 1486544729.11649 |                 0 |               7 |                  3416 |                  838 |             577355 |         39408 |              391 |          368798 |                     0 |        244634 | 2017-02-08 09:30:15.25352+01

