 2017-02-08 02:35:31.170708+01 | 1486517731.17071 | pgbench_branches_pkey |            16384
 2017-02-08 02:35:31.170708+01 | 1486517731.17071 | pgbench_tellers_pkey  |            90112
 2017-02-08 02:35:31.170708+01 | 1486517731.17071 | pgbench_accounts_pkey |        673882112

 2017-02-08 02:35:32.4006+01 | 1486517732.4006 | pgbench_branches_pkey |            16384
 2017-02-08 02:35:32.4006+01 | 1486517732.4006 | pgbench_tellers_pkey  |            90112
 2017-02-08 02:35:32.4006+01 | 1486517732.4006 | pgbench_accounts_pkey |        673882112

 2017-02-08 02:35:33.642597+01 | 1486517733.6426 | pgbench_branches_pkey |            16384
 2017-02-08 02:35:33.642597+01 | 1486517733.6426 | pgbench_tellers_pkey  |            90112
 2017-02-08 02:35:33.642597+01 | 1486517733.6426 | pgbench_accounts_pkey |        673882112

 2017-02-08 02:35:34.908087+01 | 1486517734.90809 | pgbench_branches_pkey |            16384
 2017-02-08 02:35:34.908087+01 | 1486517734.90809 | pgbench_tellers_pkey  |            90112
 2017-02-08 02:35:34.908087+01 | 1486517734.90809 | pgbench_accounts_pkey |        673882112

 2017-02-08 02:35:36.145651+01 | 1486517736.14565 | pgbench_branches_pkey |            16384
 2017-02-08 02:35:36.145651+01 | 1486517736.14565 | pgbench_tellers_pkey  |            90112
 2017-02-08 02:35:36.145651+01 | 1486517736.14565 | pgbench_accounts_pkey |        673882112

 2017-02-08 02:35:37.371188+01 | 1486517737.37119 | pgbench_branches_pkey |            16384
 2017-02-08 02:35:37.371188+01 | 1486517737.37119 | pgbench_tellers_pkey  |            90112
 2017-02-08 02:35:37.371188+01 | 1486517737.37119 | pgbench_accounts_pkey |        673882112

 2017-02-08 02:35:38.644837+01 | 1486517738.64484 | pgbench_branches_pkey |            16384
 2017-02-08 02:35:38.644837+01 | 1486517738.64484 | pgbench_tellers_pkey  |            90112
 2017-02-08 02:35:38.644837+01 | 1486517738.64484 | pgbench_accounts_pkey |        673882112

 2017-02-08 02:35:39.908162+01 | 1486517739.90816 | pgbench_branches_pkey |            16384
 2017-02-08 02:35:39.908162+01 | 1486517739.90816 | pgbench_tellers_pkey  |            90112
 2017-02-08 02:35:39.908162+01 | 1486517739.90816 | pgbench_accounts_pkey |        673882112

 2017-02-08 02:35:41.142969+01 | 1486517741.14297 | pgbench_branches_pkey |            16384
 2017-02-08 02:35:41.142969+01 | 1486517741.14297 | pgbench_tellers_pkey  |            90112
 2017-02-08 02:35:41.142969+01 | 1486517741.14297 | pgbench_accounts_pkey |        673882112

 2017-02-08 02:35:42.337208+01 | 1486517742.33721 | pgbench_branches_pkey |            16384
 2017-02-08 02:35:42.337208+01 | 1486517742.33721 | pgbench_tellers_pkey  |            90112
 2017-02-08 02:35:42.337208+01 | 1486517742.33721 | pgbench_accounts_pkey |        673882112

 2017-02-08 02:35:43.539778+01 | 1486517743.53978 | pgbench_branches_pkey |            16384
 2017-02-08 02:35:43.539778+01 | 1486517743.53978 | pgbench_tellers_pkey  |            90112
 2017-02-08 02:35:43.539778+01 | 1486517743.53978 | pgbench_accounts_pkey |        673882112

 2017-02-08 02:35:44.774864+01 | 1486517744.77486 | pgbench_branches_pkey |            16384
 2017-02-08 02:35:44.774864+01 | 1486517744.77486 | pgbench_tellers_pkey  |            90112
 2017-02-08 02:35:44.774864+01 | 1486517744.77486 | pgbench_accounts_pkey |        673882112

 2017-02-08 02:35:46.04458+01 | 1486517746.04458 | pgbench_branches_pkey |            16384
 2017-02-08 02:35:46.04458+01 | 1486517746.04458 | pgbench_tellers_pkey  |            90112
 2017-02-08 02:35:46.04458+01 | 1486517746.04458 | pgbench_accounts_pkey |        673882112

 2017-02-08 02:35:47.321686+01 | 1486517747.32169 | pgbench_branches_pkey |            16384
 2017-02-08 02:35:47.321686+01 | 1486517747.32169 | pgbench_tellers_pkey  |            90112
 2017-02-08 02:35:47.321686+01 | 1486517747.32169 | pgbench_accounts_pkey |        673882112

 2017-02-08 02:35:48.57566+01 | 1486517748.57566 | pgbench_branches_pkey |            16384
 2017-02-08 02:35:48.57566+01 | 1486517748.57566 | pgbench_tellers_pkey  |            90112
 2017-02-08 02:35:48.57566+01 | 1486517748.57566 | pgbench_accounts_pkey |        673882112

 2017-02-08 02:35:49.803652+01 | 1486517749.80365 | pgbench_branches_pkey |            16384
 2017-02-08 02:35:49.803652+01 | 1486517749.80365 | pgbench_tellers_pkey  |            90112
 2017-02-08 02:35:49.803652+01 | 1486517749.80365 | pgbench_accounts_pkey |        673882112

 2017-02-08 02:35:51.051969+01 | 1486517751.05197 | pgbench_branches_pkey |            16384
 2017-02-08 02:35:51.051969+01 | 1486517751.05197 | pgbench_tellers_pkey  |            90112
 2017-02-08 02:35:51.051969+01 | 1486517751.05197 | pgbench_accounts_pkey |        673882112

 2017-02-08 02:35:52.258014+01 | 1486517752.25801 | pgbench_branches_pkey |            16384
 2017-02-08 02:35:52.258014+01 | 1486517752.25801 | pgbench_tellers_pkey  |            90112
 2017-02-08 02:35:52.258014+01 | 1486517752.25801 | pgbench_accounts_pkey |        673882112

 2017-02-08 02:35:53.512997+01 | 1486517753.513 | pgbench_branches_pkey |            16384
 2017-02-08 02:35:53.512997+01 | 1486517753.513 | pgbench_tellers_pkey  |            90112
 2017-02-08 02:35:53.512997+01 | 1486517753.513 | pgbench_accounts_pkey |        673882112

 2017-02-08 02:35:54.734509+01 | 1486517754.73451 | pgbench_branches_pkey |            16384
 2017-02-08 02:35:54.734509+01 | 1486517754.73451 | pgbench_tellers_pkey  |            90112
 2017-02-08 02:35:54.734509+01 | 1486517754.73451 | pgbench_accounts_pkey |        673882112

 2017-02-08 02:35:55.979231+01 | 1486517755.97923 | pgbench_branches_pkey |            16384
 2017-02-08 02:35:55.979231+01 | 1486517755.97923 | pgbench_tellers_pkey  |            90112
 2017-02-08 02:35:55.979231+01 | 1486517755.97923 | pgbench_accounts_pkey |        673882112

 2017-02-08 02:35:57.227436+01 | 1486517757.22744 | pgbench_branches_pkey |            16384
 2017-02-08 02:35:57.227436+01 | 1486517757.22744 | pgbench_tellers_pkey  |            90112
 2017-02-08 02:35:57.227436+01 | 1486517757.22744 | pgbench_accounts_pkey |        673882112

 2017-02-08 02:35:58.475016+01 | 1486517758.47502 | pgbench_branches_pkey |            16384
 2017-02-08 02:35:58.475016+01 | 1486517758.47502 | pgbench_tellers_pkey  |            90112
 2017-02-08 02:35:58.475016+01 | 1486517758.47502 | pgbench_accounts_pkey |        673882112

 2017-02-08 02:35:59.666565+01 | 1486517759.66656 | pgbench_branches_pkey |            16384
 2017-02-08 02:35:59.666565+01 | 1486517759.66656 | pgbench_tellers_pkey  |            90112
 2017-02-08 02:35:59.666565+01 | 1486517759.66656 | pgbench_accounts_pkey |        673882112

 2017-02-08 02:36:00.90646+01 | 1486517760.90646 | pgbench_branches_pkey |            16384
 2017-02-08 02:36:00.90646+01 | 1486517760.90646 | pgbench_tellers_pkey  |            90112
 2017-02-08 02:36:00.90646+01 | 1486517760.90646 | pgbench_accounts_pkey |        673882112

 2017-02-08 02:36:02.084728+01 | 1486517762.08473 | pgbench_branches_pkey |            16384
 2017-02-08 02:36:02.084728+01 | 1486517762.08473 | pgbench_tellers_pkey  |            90112
 2017-02-08 02:36:02.084728+01 | 1486517762.08473 | pgbench_accounts_pkey |        673882112

 2017-02-08 02:36:03.316197+01 | 1486517763.3162 | pgbench_branches_pkey |            16384
 2017-02-08 02:36:03.316197+01 | 1486517763.3162 | pgbench_tellers_pkey  |            90112
 2017-02-08 02:36:03.316197+01 | 1486517763.3162 | pgbench_accounts_pkey |        673882112

 2017-02-08 02:36:04.565227+01 | 1486517764.56523 | pgbench_branches_pkey |            16384
 2017-02-08 02:36:04.565227+01 | 1486517764.56523 | pgbench_tellers_pkey  |            90112
 2017-02-08 02:36:04.565227+01 | 1486517764.56523 | pgbench_accounts_pkey |        673882112

 2017-02-08 02:36:05.747276+01 | 1486517765.74728 | pgbench_branches_pkey |            16384
 2017-02-08 02:36:05.747276+01 | 1486517765.74728 | pgbench_tellers_pkey  |            90112
 2017-02-08 02:36:05.747276+01 | 1486517765.74728 | pgbench_accounts_pkey |        673882112

 2017-02-08 02:36:06.938946+01 | 1486517766.93895 | pgbench_branches_pkey |            16384
 2017-02-08 02:36:06.938946+01 | 1486517766.93895 | pgbench_tellers_pkey  |            90112
 2017-02-08 02:36:06.938946+01 | 1486517766.93895 | pgbench_accounts_pkey |        673882112

 2017-02-08 02:36:08.110126+01 | 1486517768.11013 | pgbench_branches_pkey |            16384
 2017-02-08 02:36:08.110126+01 | 1486517768.11013 | pgbench_tellers_pkey  |            90112
 2017-02-08 02:36:08.110126+01 | 1486517768.11013 | pgbench_accounts_pkey |        673882112

 2017-02-08 02:36:09.396262+01 | 1486517769.39626 | pgbench_branches_pkey |            16384
 2017-02-08 02:36:09.396262+01 | 1486517769.39626 | pgbench_tellers_pkey  |            90112
 2017-02-08 02:36:09.396262+01 | 1486517769.39626 | pgbench_accounts_pkey |        673882112

 2017-02-08 02:36:10.583567+01 | 1486517770.58357 | pgbench_branches_pkey |            16384
 2017-02-08 02:36:10.583567+01 | 1486517770.58357 | pgbench_tellers_pkey  |            90112
 2017-02-08 02:36:10.583567+01 | 1486517770.58357 | pgbench_accounts_pkey |        673882112

 2017-02-08 02:36:11.778296+01 | 1486517771.7783 | pgbench_branches_pkey |            16384
 2017-02-08 02:36:11.778296+01 | 1486517771.7783 | pgbench_tellers_pkey  |            90112
 2017-02-08 02:36:11.778296+01 | 1486517771.7783 | pgbench_accounts_pkey |        673882112

 2017-02-08 02:36:13.064713+01 | 1486517773.06471 | pgbench_branches_pkey |            16384
 2017-02-08 02:36:13.064713+01 | 1486517773.06471 | pgbench_tellers_pkey  |            90112
 2017-02-08 02:36:13.064713+01 | 1486517773.06471 | pgbench_accounts_pkey |        673882112

 2017-02-08 02:36:14.283819+01 | 1486517774.28382 | pgbench_branches_pkey |            16384
 2017-02-08 02:36:14.283819+01 | 1486517774.28382 | pgbench_tellers_pkey  |            90112
 2017-02-08 02:36:14.283819+01 | 1486517774.28382 | pgbench_accounts_pkey |        673882112

 2017-02-08 02:36:15.549563+01 | 1486517775.54956 | pgbench_branches_pkey |            16384
 2017-02-08 02:36:15.549563+01 | 1486517775.54956 | pgbench_tellers_pkey  |            90112
 2017-02-08 02:36:15.549563+01 | 1486517775.54956 | pgbench_accounts_pkey |        673882112

 2017-02-08 02:36:16.759174+01 | 1486517776.75917 | pgbench_branches_pkey |            16384
 2017-02-08 02:36:16.759174+01 | 1486517776.75917 | pgbench_tellers_pkey  |            90112
 2017-02-08 02:36:16.759174+01 | 1486517776.75917 | pgbench_accounts_pkey |        673882112

 2017-02-08 02:36:17.968084+01 | 1486517777.96808 | pgbench_branches_pkey |            16384
 2017-02-08 02:36:17.968084+01 | 1486517777.96808 | pgbench_tellers_pkey  |            90112
 2017-02-08 02:36:17.968084+01 | 1486517777.96808 | pgbench_accounts_pkey |        673882112

 2017-02-08 02:36:19.167276+01 | 1486517779.16728 | pgbench_branches_pkey |            16384
 2017-02-08 02:36:19.167276+01 | 1486517779.16728 | pgbench_tellers_pkey  |            90112
 2017-02-08 02:36:19.167276+01 | 1486517779.16728 | pgbench_accounts_pkey |        673882112

 2017-02-08 02:36:20.3992+01 | 1486517780.3992 | pgbench_branches_pkey |            16384
 2017-02-08 02:36:20.3992+01 | 1486517780.3992 | pgbench_tellers_pkey  |            90112
 2017-02-08 02:36:20.3992+01 | 1486517780.3992 | pgbench_accounts_pkey |        673882112

 2017-02-08 02:36:21.63674+01 | 1486517781.63674 | pgbench_branches_pkey |            16384
 2017-02-08 02:36:21.63674+01 | 1486517781.63674 | pgbench_tellers_pkey  |            90112
 2017-02-08 02:36:21.63674+01 | 1486517781.63674 | pgbench_accounts_pkey |        673882112

 2017-02-08 02:36:22.86363+01 | 1486517782.86363 | pgbench_branches_pkey |            16384
 2017-02-08 02:36:22.86363+01 | 1486517782.86363 | pgbench_tellers_pkey  |            90112
 2017-02-08 02:36:22.86363+01 | 1486517782.86363 | pgbench_accounts_pkey |        673882112

 2017-02-08 02:36:24.098007+01 | 1486517784.09801 | pgbench_branches_pkey |            16384
 2017-02-08 02:36:24.098007+01 | 1486517784.09801 | pgbench_tellers_pkey  |            90112
 2017-02-08 02:36:24.098007+01 | 1486517784.09801 | pgbench_accounts_pkey |        673882112

 2017-02-08 02:36:25.334334+01 | 1486517785.33433 | pgbench_branches_pkey |            16384
 2017-02-08 02:36:25.334334+01 | 1486517785.33433 | pgbench_tellers_pkey  |            90112
 2017-02-08 02:36:25.334334+01 | 1486517785.33433 | pgbench_accounts_pkey |        673882112

 2017-02-08 02:36:26.550098+01 | 1486517786.5501 | pgbench_branches_pkey |            16384
 2017-02-08 02:36:26.550098+01 | 1486517786.5501 | pgbench_tellers_pkey  |            90112
 2017-02-08 02:36:26.550098+01 | 1486517786.5501 | pgbench_accounts_pkey |        673882112

 2017-02-08 02:36:27.81373+01 | 1486517787.81373 | pgbench_branches_pkey |            16384
 2017-02-08 02:36:27.81373+01 | 1486517787.81373 | pgbench_tellers_pkey  |            90112
 2017-02-08 02:36:27.81373+01 | 1486517787.81373 | pgbench_accounts_pkey |        673882112

 2017-02-08 02:36:29.078369+01 | 1486517789.07837 | pgbench_branches_pkey |            16384
 2017-02-08 02:36:29.078369+01 | 1486517789.07837 | pgbench_tellers_pkey  |            90112
 2017-02-08 02:36:29.078369+01 | 1486517789.07837 | pgbench_accounts_pkey |        673882112

 2017-02-08 02:36:30.325996+01 | 1486517790.326 | pgbench_branches_pkey |            16384
 2017-02-08 02:36:30.325996+01 | 1486517790.326 | pgbench_tellers_pkey  |            90112
 2017-02-08 02:36:30.325996+01 | 1486517790.326 | pgbench_accounts_pkey |        673882112

 2017-02-08 02:36:31.55769+01 | 1486517791.55769 | pgbench_branches_pkey |            16384
 2017-02-08 02:36:31.55769+01 | 1486517791.55769 | pgbench_tellers_pkey  |            90112
 2017-02-08 02:36:31.55769+01 | 1486517791.55769 | pgbench_accounts_pkey |        673882112

 2017-02-08 02:36:32.783592+01 | 1486517792.78359 | pgbench_branches_pkey |            16384
 2017-02-08 02:36:32.783592+01 | 1486517792.78359 | pgbench_tellers_pkey  |            90112
 2017-02-08 02:36:32.783592+01 | 1486517792.78359 | pgbench_accounts_pkey |        673882112

 2017-02-08 02:36:33.956254+01 | 1486517793.95625 | pgbench_branches_pkey |            16384
 2017-02-08 02:36:33.956254+01 | 1486517793.95625 | pgbench_tellers_pkey  |            90112
 2017-02-08 02:36:33.956254+01 | 1486517793.95625 | pgbench_accounts_pkey |        673882112

 2017-02-08 02:36:35.1626+01 | 1486517795.1626 | pgbench_branches_pkey |            16384
 2017-02-08 02:36:35.1626+01 | 1486517795.1626 | pgbench_tellers_pkey  |            90112
 2017-02-08 02:36:35.1626+01 | 1486517795.1626 | pgbench_accounts_pkey |        673882112

 2017-02-08 02:36:36.413462+01 | 1486517796.41346 | pgbench_branches_pkey |            16384
 2017-02-08 02:36:36.413462+01 | 1486517796.41346 | pgbench_tellers_pkey  |            90112
 2017-02-08 02:36:36.413462+01 | 1486517796.41346 | pgbench_accounts_pkey |        673882112

 2017-02-08 02:36:37.664412+01 | 1486517797.66441 | pgbench_branches_pkey |            16384
 2017-02-08 02:36:37.664412+01 | 1486517797.66441 | pgbench_tellers_pkey  |            90112
 2017-02-08 02:36:37.664412+01 | 1486517797.66441 | pgbench_accounts_pkey |        673882112

 2017-02-08 02:36:38.907165+01 | 1486517798.90717 | pgbench_branches_pkey |            16384
 2017-02-08 02:36:38.907165+01 | 1486517798.90717 | pgbench_tellers_pkey  |            90112
 2017-02-08 02:36:38.907165+01 | 1486517798.90717 | pgbench_accounts_pkey |        673882112

 2017-02-08 02:36:40.145114+01 | 1486517800.14511 | pgbench_branches_pkey |            16384
 2017-02-08 02:36:40.145114+01 | 1486517800.14511 | pgbench_tellers_pkey  |            90112
 2017-02-08 02:36:40.145114+01 | 1486517800.14511 | pgbench_accounts_pkey |        673882112

 2017-02-08 02:36:41.374308+01 | 1486517801.37431 | pgbench_branches_pkey |            16384
 2017-02-08 02:36:41.374308+01 | 1486517801.37431 | pgbench_tellers_pkey  |            90112
 2017-02-08 02:36:41.374308+01 | 1486517801.37431 | pgbench_accounts_pkey |        673882112

 2017-02-08 02:36:42.599345+01 | 1486517802.59934 | pgbench_branches_pkey |            16384
 2017-02-08 02:36:42.599345+01 | 1486517802.59934 | pgbench_tellers_pkey  |            90112
 2017-02-08 02:36:42.599345+01 | 1486517802.59934 | pgbench_accounts_pkey |        673882112

 2017-02-08 02:36:43.84072+01 | 1486517803.84072 | pgbench_branches_pkey |            16384
 2017-02-08 02:36:43.84072+01 | 1486517803.84072 | pgbench_tellers_pkey  |            90112
 2017-02-08 02:36:43.84072+01 | 1486517803.84072 | pgbench_accounts_pkey |        673882112

 2017-02-08 02:36:45.072497+01 | 1486517805.0725 | pgbench_branches_pkey |            16384
 2017-02-08 02:36:45.072497+01 | 1486517805.0725 | pgbench_tellers_pkey  |            90112
 2017-02-08 02:36:45.072497+01 | 1486517805.0725 | pgbench_accounts_pkey |        673882112

 2017-02-08 02:36:46.278008+01 | 1486517806.27801 | pgbench_branches_pkey |            16384
 2017-02-08 02:36:46.278008+01 | 1486517806.27801 | pgbench_tellers_pkey  |            90112
 2017-02-08 02:36:46.278008+01 | 1486517806.27801 | pgbench_accounts_pkey |        673882112

 2017-02-08 02:36:47.513237+01 | 1486517807.51324 | pgbench_branches_pkey |            16384
 2017-02-08 02:36:47.513237+01 | 1486517807.51324 | pgbench_tellers_pkey  |            90112
 2017-02-08 02:36:47.513237+01 | 1486517807.51324 | pgbench_accounts_pkey |        673882112

 2017-02-08 02:36:48.690309+01 | 1486517808.69031 | pgbench_branches_pkey |            16384
 2017-02-08 02:36:48.690309+01 | 1486517808.69031 | pgbench_tellers_pkey  |            90112
 2017-02-08 02:36:48.690309+01 | 1486517808.69031 | pgbench_accounts_pkey |        673882112

 2017-02-08 02:36:49.912546+01 | 1486517809.91255 | pgbench_branches_pkey |            16384
 2017-02-08 02:36:49.912546+01 | 1486517809.91255 | pgbench_tellers_pkey  |            90112
 2017-02-08 02:36:49.912546+01 | 1486517809.91255 | pgbench_accounts_pkey |        673882112

 2017-02-08 02:36:51.145431+01 | 1486517811.14543 | pgbench_branches_pkey |            16384
 2017-02-08 02:36:51.145431+01 | 1486517811.14543 | pgbench_tellers_pkey  |            90112
 2017-02-08 02:36:51.145431+01 | 1486517811.14543 | pgbench_accounts_pkey |        673882112

 2017-02-08 02:36:52.360749+01 | 1486517812.36075 | pgbench_branches_pkey |            16384
 2017-02-08 02:36:52.360749+01 | 1486517812.36075 | pgbench_tellers_pkey  |            90112
 2017-02-08 02:36:52.360749+01 | 1486517812.36075 | pgbench_accounts_pkey |        673882112

 2017-02-08 02:36:53.565847+01 | 1486517813.56585 | pgbench_branches_pkey |            16384
 2017-02-08 02:36:53.565847+01 | 1486517813.56585 | pgbench_tellers_pkey  |            90112
 2017-02-08 02:36:53.565847+01 | 1486517813.56585 | pgbench_accounts_pkey |        673882112

 2017-02-08 02:36:54.8223+01 | 1486517814.8223 | pgbench_branches_pkey |            16384
 2017-02-08 02:36:54.8223+01 | 1486517814.8223 | pgbench_tellers_pkey  |            90112
 2017-02-08 02:36:54.8223+01 | 1486517814.8223 | pgbench_accounts_pkey |        673882112

 2017-02-08 02:36:56.053302+01 | 1486517816.0533 | pgbench_branches_pkey |            16384
 2017-02-08 02:36:56.053302+01 | 1486517816.0533 | pgbench_tellers_pkey  |            90112
 2017-02-08 02:36:56.053302+01 | 1486517816.0533 | pgbench_accounts_pkey |        673882112

 2017-02-08 02:36:57.255507+01 | 1486517817.25551 | pgbench_branches_pkey |            16384
 2017-02-08 02:36:57.255507+01 | 1486517817.25551 | pgbench_tellers_pkey  |            90112
 2017-02-08 02:36:57.255507+01 | 1486517817.25551 | pgbench_accounts_pkey |        673882112

 2017-02-08 02:36:58.491224+01 | 1486517818.49122 | pgbench_branches_pkey |            16384
 2017-02-08 02:36:58.491224+01 | 1486517818.49122 | pgbench_tellers_pkey  |            90112
 2017-02-08 02:36:58.491224+01 | 1486517818.49122 | pgbench_accounts_pkey |        673882112

 2017-02-08 02:36:59.683087+01 | 1486517819.68309 | pgbench_branches_pkey |            16384
 2017-02-08 02:36:59.683087+01 | 1486517819.68309 | pgbench_tellers_pkey  |            90112
 2017-02-08 02:36:59.683087+01 | 1486517819.68309 | pgbench_accounts_pkey |        673882112

 2017-02-08 02:37:00.868684+01 | 1486517820.86868 | pgbench_branches_pkey |            16384
 2017-02-08 02:37:00.868684+01 | 1486517820.86868 | pgbench_tellers_pkey  |            90112
 2017-02-08 02:37:00.868684+01 | 1486517820.86868 | pgbench_accounts_pkey |        673882112

 2017-02-08 02:37:02.089652+01 | 1486517822.08965 | pgbench_branches_pkey |            16384
 2017-02-08 02:37:02.089652+01 | 1486517822.08965 | pgbench_tellers_pkey  |            90112
 2017-02-08 02:37:02.089652+01 | 1486517822.08965 | pgbench_accounts_pkey |        673882112

 2017-02-08 02:37:03.312197+01 | 1486517823.3122 | pgbench_branches_pkey |            16384
 2017-02-08 02:37:03.312197+01 | 1486517823.3122 | pgbench_tellers_pkey  |            90112
 2017-02-08 02:37:03.312197+01 | 1486517823.3122 | pgbench_accounts_pkey |        673882112

 2017-02-08 02:37:04.48336+01 | 1486517824.48336 | pgbench_branches_pkey |            16384
 2017-02-08 02:37:04.48336+01 | 1486517824.48336 | pgbench_tellers_pkey  |            90112
 2017-02-08 02:37:04.48336+01 | 1486517824.48336 | pgbench_accounts_pkey |        673882112

 2017-02-08 02:37:05.670567+01 | 1486517825.67057 | pgbench_branches_pkey |            16384
 2017-02-08 02:37:05.670567+01 | 1486517825.67057 | pgbench_tellers_pkey  |            90112
 2017-02-08 02:37:05.670567+01 | 1486517825.67057 | pgbench_accounts_pkey |        673882112

 2017-02-08 02:37:06.936229+01 | 1486517826.93623 | pgbench_branches_pkey |            16384
 2017-02-08 02:37:06.936229+01 | 1486517826.93623 | pgbench_tellers_pkey  |            90112
 2017-02-08 02:37:06.936229+01 | 1486517826.93623 | pgbench_accounts_pkey |        673882112

 2017-02-08 02:37:08.153492+01 | 1486517828.15349 | pgbench_branches_pkey |            16384
 2017-02-08 02:37:08.153492+01 | 1486517828.15349 | pgbench_tellers_pkey  |            90112
 2017-02-08 02:37:08.153492+01 | 1486517828.15349 | pgbench_accounts_pkey |        673882112

 2017-02-08 02:37:09.376333+01 | 1486517829.37633 | pgbench_branches_pkey |            16384
 2017-02-08 02:37:09.376333+01 | 1486517829.37633 | pgbench_tellers_pkey  |            90112
 2017-02-08 02:37:09.376333+01 | 1486517829.37633 | pgbench_accounts_pkey |        673882112

 2017-02-08 02:37:10.624783+01 | 1486517830.62478 | pgbench_branches_pkey |            16384
 2017-02-08 02:37:10.624783+01 | 1486517830.62478 | pgbench_tellers_pkey  |            90112
 2017-02-08 02:37:10.624783+01 | 1486517830.62478 | pgbench_accounts_pkey |        673882112

 2017-02-08 02:37:11.847898+01 | 1486517831.8479 | pgbench_branches_pkey |            16384
 2017-02-08 02:37:11.847898+01 | 1486517831.8479 | pgbench_tellers_pkey  |            90112
 2017-02-08 02:37:11.847898+01 | 1486517831.8479 | pgbench_accounts_pkey |        673882112

 2017-02-08 02:37:13.066179+01 | 1486517833.06618 | pgbench_branches_pkey |            16384
 2017-02-08 02:37:13.066179+01 | 1486517833.06618 | pgbench_tellers_pkey  |            90112
 2017-02-08 02:37:13.066179+01 | 1486517833.06618 | pgbench_accounts_pkey |        673882112

 2017-02-08 02:37:14.297548+01 | 1486517834.29755 | pgbench_branches_pkey |            16384
 2017-02-08 02:37:14.297548+01 | 1486517834.29755 | pgbench_tellers_pkey  |            90112
 2017-02-08 02:37:14.297548+01 | 1486517834.29755 | pgbench_accounts_pkey |        673882112

 2017-02-08 02:37:15.547921+01 | 1486517835.54792 | pgbench_branches_pkey |            16384
 2017-02-08 02:37:15.547921+01 | 1486517835.54792 | pgbench_tellers_pkey  |            90112
 2017-02-08 02:37:15.547921+01 | 1486517835.54792 | pgbench_accounts_pkey |        673882112

 2017-02-08 02:37:16.80405+01 | 1486517836.80405 | pgbench_branches_pkey |            16384
 2017-02-08 02:37:16.80405+01 | 1486517836.80405 | pgbench_tellers_pkey  |            90112
 2017-02-08 02:37:16.80405+01 | 1486517836.80405 | pgbench_accounts_pkey |        673882112

 2017-02-08 02:37:18.063179+01 | 1486517838.06318 | pgbench_branches_pkey |            16384
 2017-02-08 02:37:18.063179+01 | 1486517838.06318 | pgbench_tellers_pkey  |            90112
 2017-02-08 02:37:18.063179+01 | 1486517838.06318 | pgbench_accounts_pkey |        673882112

 2017-02-08 02:37:19.268482+01 | 1486517839.26848 | pgbench_branches_pkey |            16384
 2017-02-08 02:37:19.268482+01 | 1486517839.26848 | pgbench_tellers_pkey  |            90112
 2017-02-08 02:37:19.268482+01 | 1486517839.26848 | pgbench_accounts_pkey |        673882112

 2017-02-08 02:37:20.513688+01 | 1486517840.51369 | pgbench_branches_pkey |            16384
 2017-02-08 02:37:20.513688+01 | 1486517840.51369 | pgbench_tellers_pkey  |            90112
 2017-02-08 02:37:20.513688+01 | 1486517840.51369 | pgbench_accounts_pkey |        673882112

 2017-02-08 02:37:21.74681+01 | 1486517841.74681 | pgbench_branches_pkey |            16384
 2017-02-08 02:37:21.74681+01 | 1486517841.74681 | pgbench_tellers_pkey  |            90112
 2017-02-08 02:37:21.74681+01 | 1486517841.74681 | pgbench_accounts_pkey |        673882112

 2017-02-08 02:37:22.941861+01 | 1486517842.94186 | pgbench_branches_pkey |            16384
 2017-02-08 02:37:22.941861+01 | 1486517842.94186 | pgbench_tellers_pkey  |            90112
 2017-02-08 02:37:22.941861+01 | 1486517842.94186 | pgbench_accounts_pkey |        673882112

 2017-02-08 02:37:24.208551+01 | 1486517844.20855 | pgbench_branches_pkey |            16384
 2017-02-08 02:37:24.208551+01 | 1486517844.20855 | pgbench_tellers_pkey  |            90112
 2017-02-08 02:37:24.208551+01 | 1486517844.20855 | pgbench_accounts_pkey |        673882112

 2017-02-08 02:37:25.430346+01 | 1486517845.43035 | pgbench_branches_pkey |            16384
 2017-02-08 02:37:25.430346+01 | 1486517845.43035 | pgbench_tellers_pkey  |            90112
 2017-02-08 02:37:25.430346+01 | 1486517845.43035 | pgbench_accounts_pkey |        673882112

 2017-02-08 02:37:26.66091+01 | 1486517846.66091 | pgbench_branches_pkey |            16384
 2017-02-08 02:37:26.66091+01 | 1486517846.66091 | pgbench_tellers_pkey  |            90112
 2017-02-08 02:37:26.66091+01 | 1486517846.66091 | pgbench_accounts_pkey |        673882112

 2017-02-08 02:37:27.898589+01 | 1486517847.89859 | pgbench_branches_pkey |            16384
 2017-02-08 02:37:27.898589+01 | 1486517847.89859 | pgbench_tellers_pkey  |            90112
 2017-02-08 02:37:27.898589+01 | 1486517847.89859 | pgbench_accounts_pkey |        673882112

 2017-02-08 02:37:29.106466+01 | 1486517849.10647 | pgbench_branches_pkey |            16384
 2017-02-08 02:37:29.106466+01 | 1486517849.10647 | pgbench_tellers_pkey  |            90112
 2017-02-08 02:37:29.106466+01 | 1486517849.10647 | pgbench_accounts_pkey |        673882112

 2017-02-08 02:37:30.362789+01 | 1486517850.36279 | pgbench_branches_pkey |            16384
 2017-02-08 02:37:30.362789+01 | 1486517850.36279 | pgbench_tellers_pkey  |            90112
 2017-02-08 02:37:30.362789+01 | 1486517850.36279 | pgbench_accounts_pkey |        673882112

 2017-02-08 02:37:31.613603+01 | 1486517851.6136 | pgbench_branches_pkey |            16384
 2017-02-08 02:37:31.613603+01 | 1486517851.6136 | pgbench_tellers_pkey  |            90112
 2017-02-08 02:37:31.613603+01 | 1486517851.6136 | pgbench_accounts_pkey |        673882112

 2017-02-08 02:37:32.864622+01 | 1486517852.86462 | pgbench_branches_pkey |            16384
 2017-02-08 02:37:32.864622+01 | 1486517852.86462 | pgbench_tellers_pkey  |            90112
 2017-02-08 02:37:32.864622+01 | 1486517852.86462 | pgbench_accounts_pkey |        673882112

 2017-02-08 02:37:34.09629+01 | 1486517854.09629 | pgbench_branches_pkey |            16384
 2017-02-08 02:37:34.09629+01 | 1486517854.09629 | pgbench_tellers_pkey  |            90112
 2017-02-08 02:37:34.09629+01 | 1486517854.09629 | pgbench_accounts_pkey |        673882112

 2017-02-08 02:37:35.332773+01 | 1486517855.33277 | pgbench_branches_pkey |            16384
 2017-02-08 02:37:35.332773+01 | 1486517855.33277 | pgbench_tellers_pkey  |            90112
 2017-02-08 02:37:35.332773+01 | 1486517855.33277 | pgbench_accounts_pkey |        673882112

 2017-02-08 02:37:36.536632+01 | 1486517856.53663 | pgbench_branches_pkey |            16384
 2017-02-08 02:37:36.536632+01 | 1486517856.53663 | pgbench_tellers_pkey  |            90112
 2017-02-08 02:37:36.536632+01 | 1486517856.53663 | pgbench_accounts_pkey |        673882112

 2017-02-08 02:37:37.777561+01 | 1486517857.77756 | pgbench_branches_pkey |            16384
 2017-02-08 02:37:37.777561+01 | 1486517857.77756 | pgbench_tellers_pkey  |            90112
 2017-02-08 02:37:37.777561+01 | 1486517857.77756 | pgbench_accounts_pkey |        673882112

 2017-02-08 02:37:39.004714+01 | 1486517859.00471 | pgbench_branches_pkey |            16384
 2017-02-08 02:37:39.004714+01 | 1486517859.00471 | pgbench_tellers_pkey  |            90112
 2017-02-08 02:37:39.004714+01 | 1486517859.00471 | pgbench_accounts_pkey |        673882112

 2017-02-08 02:37:40.232952+01 | 1486517860.23295 | pgbench_branches_pkey |            16384
 2017-02-08 02:37:40.232952+01 | 1486517860.23295 | pgbench_tellers_pkey  |            90112
 2017-02-08 02:37:40.232952+01 | 1486517860.23295 | pgbench_accounts_pkey |        673882112

 2017-02-08 02:37:41.490766+01 | 1486517861.49077 | pgbench_branches_pkey |            16384
 2017-02-08 02:37:41.490766+01 | 1486517861.49077 | pgbench_tellers_pkey  |            90112
 2017-02-08 02:37:41.490766+01 | 1486517861.49077 | pgbench_accounts_pkey |        673882112

 2017-02-08 02:37:42.712196+01 | 1486517862.7122 | pgbench_branches_pkey |            16384
 2017-02-08 02:37:42.712196+01 | 1486517862.7122 | pgbench_tellers_pkey  |            90112
 2017-02-08 02:37:42.712196+01 | 1486517862.7122 | pgbench_accounts_pkey |        673882112

 2017-02-08 02:37:43.954319+01 | 1486517863.95432 | pgbench_branches_pkey |            16384
 2017-02-08 02:37:43.954319+01 | 1486517863.95432 | pgbench_tellers_pkey  |            90112
 2017-02-08 02:37:43.954319+01 | 1486517863.95432 | pgbench_accounts_pkey |        673882112

 2017-02-08 02:37:45.185857+01 | 1486517865.18586 | pgbench_branches_pkey |            16384
 2017-02-08 02:37:45.185857+01 | 1486517865.18586 | pgbench_tellers_pkey  |            90112
 2017-02-08 02:37:45.185857+01 | 1486517865.18586 | pgbench_accounts_pkey |        673882112

 2017-02-08 02:37:46.374681+01 | 1486517866.37468 | pgbench_branches_pkey |            16384
 2017-02-08 02:37:46.374681+01 | 1486517866.37468 | pgbench_tellers_pkey  |            90112
 2017-02-08 02:37:46.374681+01 | 1486517866.37468 | pgbench_accounts_pkey |        673882112

 2017-02-08 02:37:47.63578+01 | 1486517867.63578 | pgbench_branches_pkey |            16384
 2017-02-08 02:37:47.63578+01 | 1486517867.63578 | pgbench_tellers_pkey  |            90112
 2017-02-08 02:37:47.63578+01 | 1486517867.63578 | pgbench_accounts_pkey |        673882112

 2017-02-08 02:37:48.885853+01 | 1486517868.88585 | pgbench_branches_pkey |            16384
 2017-02-08 02:37:48.885853+01 | 1486517868.88585 | pgbench_tellers_pkey  |            90112
 2017-02-08 02:37:48.885853+01 | 1486517868.88585 | pgbench_accounts_pkey |        673882112

 2017-02-08 02:37:50.143575+01 | 1486517870.14357 | pgbench_branches_pkey |            16384
 2017-02-08 02:37:50.143575+01 | 1486517870.14357 | pgbench_tellers_pkey  |            90112
 2017-02-08 02:37:50.143575+01 | 1486517870.14357 | pgbench_accounts_pkey |        673882112

 2017-02-08 02:37:51.370273+01 | 1486517871.37027 | pgbench_branches_pkey |            16384
 2017-02-08 02:37:51.370273+01 | 1486517871.37027 | pgbench_tellers_pkey  |            90112
 2017-02-08 02:37:51.370273+01 | 1486517871.37027 | pgbench_accounts_pkey |        673882112

 2017-02-08 02:37:52.577339+01 | 1486517872.57734 | pgbench_branches_pkey |            16384
 2017-02-08 02:37:52.577339+01 | 1486517872.57734 | pgbench_tellers_pkey  |            90112
 2017-02-08 02:37:52.577339+01 | 1486517872.57734 | pgbench_accounts_pkey |        673882112

 2017-02-08 02:37:53.804769+01 | 1486517873.80477 | pgbench_branches_pkey |            16384
 2017-02-08 02:37:53.804769+01 | 1486517873.80477 | pgbench_tellers_pkey  |            90112
 2017-02-08 02:37:53.804769+01 | 1486517873.80477 | pgbench_accounts_pkey |        673882112

 2017-02-08 02:37:55.049058+01 | 1486517875.04906 | pgbench_branches_pkey |            16384
 2017-02-08 02:37:55.049058+01 | 1486517875.04906 | pgbench_tellers_pkey  |            90112
 2017-02-08 02:37:55.049058+01 | 1486517875.04906 | pgbench_accounts_pkey |        673882112

 2017-02-08 02:37:56.227425+01 | 1486517876.22743 | pgbench_branches_pkey |            16384
 2017-02-08 02:37:56.227425+01 | 1486517876.22743 | pgbench_tellers_pkey  |            90112
 2017-02-08 02:37:56.227425+01 | 1486517876.22743 | pgbench_accounts_pkey |        673882112

 2017-02-08 02:37:57.447286+01 | 1486517877.44729 | pgbench_branches_pkey |            16384
 2017-02-08 02:37:57.447286+01 | 1486517877.44729 | pgbench_tellers_pkey  |            90112
 2017-02-08 02:37:57.447286+01 | 1486517877.44729 | pgbench_accounts_pkey |        673882112

 2017-02-08 02:37:58.695314+01 | 1486517878.69531 | pgbench_branches_pkey |            16384
 2017-02-08 02:37:58.695314+01 | 1486517878.69531 | pgbench_tellers_pkey  |            90112
 2017-02-08 02:37:58.695314+01 | 1486517878.69531 | pgbench_accounts_pkey |        673882112

 2017-02-08 02:37:59.966195+01 | 1486517879.9662 | pgbench_branches_pkey |            16384
 2017-02-08 02:37:59.966195+01 | 1486517879.9662 | pgbench_tellers_pkey  |            90112
 2017-02-08 02:37:59.966195+01 | 1486517879.9662 | pgbench_accounts_pkey |        673882112

 2017-02-08 02:38:01.183509+01 | 1486517881.18351 | pgbench_branches_pkey |            16384
 2017-02-08 02:38:01.183509+01 | 1486517881.18351 | pgbench_tellers_pkey  |            90112
 2017-02-08 02:38:01.183509+01 | 1486517881.18351 | pgbench_accounts_pkey |        673882112

 2017-02-08 02:38:02.414797+01 | 1486517882.4148 | pgbench_branches_pkey |            16384
 2017-02-08 02:38:02.414797+01 | 1486517882.4148 | pgbench_tellers_pkey  |            90112
 2017-02-08 02:38:02.414797+01 | 1486517882.4148 | pgbench_accounts_pkey |        673882112

 2017-02-08 02:38:03.670737+01 | 1486517883.67074 | pgbench_branches_pkey |            16384
 2017-02-08 02:38:03.670737+01 | 1486517883.67074 | pgbench_tellers_pkey  |            90112
 2017-02-08 02:38:03.670737+01 | 1486517883.67074 | pgbench_accounts_pkey |        673882112

 2017-02-08 02:38:04.858284+01 | 1486517884.85828 | pgbench_branches_pkey |            16384
 2017-02-08 02:38:04.858284+01 | 1486517884.85828 | pgbench_tellers_pkey  |            90112
 2017-02-08 02:38:04.858284+01 | 1486517884.85828 | pgbench_accounts_pkey |        673882112

 2017-02-08 02:38:06.121451+01 | 1486517886.12145 | pgbench_branches_pkey |            16384
 2017-02-08 02:38:06.121451+01 | 1486517886.12145 | pgbench_tellers_pkey  |            90112
 2017-02-08 02:38:06.121451+01 | 1486517886.12145 | pgbench_accounts_pkey |        673882112

 2017-02-08 02:38:07.354636+01 | 1486517887.35464 | pgbench_branches_pkey |            16384
 2017-02-08 02:38:07.354636+01 | 1486517887.35464 | pgbench_tellers_pkey  |            90112
 2017-02-08 02:38:07.354636+01 | 1486517887.35464 | pgbench_accounts_pkey |        673882112

 2017-02-08 02:38:08.56859+01 | 1486517888.56859 | pgbench_branches_pkey |            16384
 2017-02-08 02:38:08.56859+01 | 1486517888.56859 | pgbench_tellers_pkey  |            90112
 2017-02-08 02:38:08.56859+01 | 1486517888.56859 | pgbench_accounts_pkey |        673882112

 2017-02-08 02:38:09.806067+01 | 1486517889.80607 | pgbench_branches_pkey |            16384
 2017-02-08 02:38:09.806067+01 | 1486517889.80607 | pgbench_tellers_pkey  |            90112
 2017-02-08 02:38:09.806067+01 | 1486517889.80607 | pgbench_accounts_pkey |        673882112

 2017-02-08 02:38:11.079153+01 | 1486517891.07915 | pgbench_branches_pkey |            16384
 2017-02-08 02:38:11.079153+01 | 1486517891.07915 | pgbench_tellers_pkey  |            90112
 2017-02-08 02:38:11.079153+01 | 1486517891.07915 | pgbench_accounts_pkey |        673882112

 2017-02-08 02:38:12.312504+01 | 1486517892.3125 | pgbench_branches_pkey |            16384
 2017-02-08 02:38:12.312504+01 | 1486517892.3125 | pgbench_tellers_pkey  |            90112
 2017-02-08 02:38:12.312504+01 | 1486517892.3125 | pgbench_accounts_pkey |        673882112

 2017-02-08 02:38:13.542017+01 | 1486517893.54202 | pgbench_branches_pkey |            16384
 2017-02-08 02:38:13.542017+01 | 1486517893.54202 | pgbench_tellers_pkey  |            90112
 2017-02-08 02:38:13.542017+01 | 1486517893.54202 | pgbench_accounts_pkey |        673882112

 2017-02-08 02:38:14.745393+01 | 1486517894.74539 | pgbench_branches_pkey |            16384
 2017-02-08 02:38:14.745393+01 | 1486517894.74539 | pgbench_tellers_pkey  |            90112
 2017-02-08 02:38:14.745393+01 | 1486517894.74539 | pgbench_accounts_pkey |        673882112

 2017-02-08 02:38:15.949319+01 | 1486517895.94932 | pgbench_branches_pkey |            16384
 2017-02-08 02:38:15.949319+01 | 1486517895.94932 | pgbench_tellers_pkey  |            90112
 2017-02-08 02:38:15.949319+01 | 1486517895.94932 | pgbench_accounts_pkey |        673882112

 2017-02-08 02:38:17.155395+01 | 1486517897.1554 | pgbench_branches_pkey |            16384
 2017-02-08 02:38:17.155395+01 | 1486517897.1554 | pgbench_tellers_pkey  |            90112
 2017-02-08 02:38:17.155395+01 | 1486517897.1554 | pgbench_accounts_pkey |        673882112

 2017-02-08 02:38:18.391792+01 | 1486517898.39179 | pgbench_branches_pkey |            16384
 2017-02-08 02:38:18.391792+01 | 1486517898.39179 | pgbench_tellers_pkey  |            90112
 2017-02-08 02:38:18.391792+01 | 1486517898.39179 | pgbench_accounts_pkey |        673882112

 2017-02-08 02:38:19.612049+01 | 1486517899.61205 | pgbench_branches_pkey |            16384
 2017-02-08 02:38:19.612049+01 | 1486517899.61205 | pgbench_tellers_pkey  |            90112
 2017-02-08 02:38:19.612049+01 | 1486517899.61205 | pgbench_accounts_pkey |        673882112

 2017-02-08 02:38:20.851609+01 | 1486517900.85161 | pgbench_branches_pkey |            16384
 2017-02-08 02:38:20.851609+01 | 1486517900.85161 | pgbench_tellers_pkey  |            90112
 2017-02-08 02:38:20.851609+01 | 1486517900.85161 | pgbench_accounts_pkey |        673882112

 2017-02-08 02:38:22.046772+01 | 1486517902.04677 | pgbench_branches_pkey |            16384
 2017-02-08 02:38:22.046772+01 | 1486517902.04677 | pgbench_tellers_pkey  |            90112
 2017-02-08 02:38:22.046772+01 | 1486517902.04677 | pgbench_accounts_pkey |        673882112

 2017-02-08 02:38:23.28261+01 | 1486517903.28261 | pgbench_branches_pkey |            16384
 2017-02-08 02:38:23.28261+01 | 1486517903.28261 | pgbench_tellers_pkey  |            90112
 2017-02-08 02:38:23.28261+01 | 1486517903.28261 | pgbench_accounts_pkey |        673882112

 2017-02-08 02:38:24.436807+01 | 1486517904.43681 | pgbench_branches_pkey |            16384
 2017-02-08 02:38:24.436807+01 | 1486517904.43681 | pgbench_tellers_pkey  |            90112
 2017-02-08 02:38:24.436807+01 | 1486517904.43681 | pgbench_accounts_pkey |        673882112

 2017-02-08 02:38:25.618964+01 | 1486517905.61896 | pgbench_branches_pkey |            16384
 2017-02-08 02:38:25.618964+01 | 1486517905.61896 | pgbench_tellers_pkey  |            90112
 2017-02-08 02:38:25.618964+01 | 1486517905.61896 | pgbench_accounts_pkey |        673882112

 2017-02-08 02:38:26.903384+01 | 1486517906.90338 | pgbench_branches_pkey |            16384
 2017-02-08 02:38:26.903384+01 | 1486517906.90338 | pgbench_tellers_pkey  |            90112
 2017-02-08 02:38:26.903384+01 | 1486517906.90338 | pgbench_accounts_pkey |        673882112

 2017-02-08 02:38:28.07071+01 | 1486517908.07071 | pgbench_branches_pkey |            16384
 2017-02-08 02:38:28.07071+01 | 1486517908.07071 | pgbench_tellers_pkey  |            90112
 2017-02-08 02:38:28.07071+01 | 1486517908.07071 | pgbench_accounts_pkey |        673882112

 2017-02-08 02:38:29.322357+01 | 1486517909.32236 | pgbench_branches_pkey |            16384
 2017-02-08 02:38:29.322357+01 | 1486517909.32236 | pgbench_tellers_pkey  |            90112
 2017-02-08 02:38:29.322357+01 | 1486517909.32236 | pgbench_accounts_pkey |        673882112

 2017-02-08 02:38:30.555398+01 | 1486517910.5554 | pgbench_branches_pkey |            16384
 2017-02-08 02:38:30.555398+01 | 1486517910.5554 | pgbench_tellers_pkey  |            90112
 2017-02-08 02:38:30.555398+01 | 1486517910.5554 | pgbench_accounts_pkey |        673882112

 2017-02-08 02:38:31.805869+01 | 1486517911.80587 | pgbench_branches_pkey |            16384
 2017-02-08 02:38:31.805869+01 | 1486517911.80587 | pgbench_tellers_pkey  |            90112
 2017-02-08 02:38:31.805869+01 | 1486517911.80587 | pgbench_accounts_pkey |        673882112

 2017-02-08 02:38:33.04703+01 | 1486517913.04703 | pgbench_branches_pkey |            16384
 2017-02-08 02:38:33.04703+01 | 1486517913.04703 | pgbench_tellers_pkey  |            90112
 2017-02-08 02:38:33.04703+01 | 1486517913.04703 | pgbench_accounts_pkey |        673882112

 2017-02-08 02:38:34.257935+01 | 1486517914.25794 | pgbench_branches_pkey |            16384
 2017-02-08 02:38:34.257935+01 | 1486517914.25794 | pgbench_tellers_pkey  |            90112
 2017-02-08 02:38:34.257935+01 | 1486517914.25794 | pgbench_accounts_pkey |        673882112

 2017-02-08 02:38:35.499478+01 | 1486517915.49948 | pgbench_branches_pkey |            16384
 2017-02-08 02:38:35.499478+01 | 1486517915.49948 | pgbench_tellers_pkey  |            90112
 2017-02-08 02:38:35.499478+01 | 1486517915.49948 | pgbench_accounts_pkey |        673882112

 2017-02-08 02:38:36.736354+01 | 1486517916.73635 | pgbench_branches_pkey |            16384
 2017-02-08 02:38:36.736354+01 | 1486517916.73635 | pgbench_tellers_pkey  |            90112
 2017-02-08 02:38:36.736354+01 | 1486517916.73635 | pgbench_accounts_pkey |        673882112

 2017-02-08 02:38:37.927939+01 | 1486517917.92794 | pgbench_branches_pkey |            16384
 2017-02-08 02:38:37.927939+01 | 1486517917.92794 | pgbench_tellers_pkey  |            90112
 2017-02-08 02:38:37.927939+01 | 1486517917.92794 | pgbench_accounts_pkey |        673882112

 2017-02-08 02:38:39.151723+01 | 1486517919.15172 | pgbench_branches_pkey |            16384
 2017-02-08 02:38:39.151723+01 | 1486517919.15172 | pgbench_tellers_pkey  |            90112
 2017-02-08 02:38:39.151723+01 | 1486517919.15172 | pgbench_accounts_pkey |        673882112

 2017-02-08 02:38:40.33406+01 | 1486517920.33406 | pgbench_branches_pkey |            16384
 2017-02-08 02:38:40.33406+01 | 1486517920.33406 | pgbench_tellers_pkey  |            90112
 2017-02-08 02:38:40.33406+01 | 1486517920.33406 | pgbench_accounts_pkey |        673882112

 2017-02-08 02:38:41.600888+01 | 1486517921.60089 | pgbench_branches_pkey |            16384
 2017-02-08 02:38:41.600888+01 | 1486517921.60089 | pgbench_tellers_pkey  |            90112
 2017-02-08 02:38:41.600888+01 | 1486517921.60089 | pgbench_accounts_pkey |        673882112

 2017-02-08 02:38:42.783439+01 | 1486517922.78344 | pgbench_branches_pkey |            16384
 2017-02-08 02:38:42.783439+01 | 1486517922.78344 | pgbench_tellers_pkey  |            90112
 2017-02-08 02:38:42.783439+01 | 1486517922.78344 | pgbench_accounts_pkey |        673882112

 2017-02-08 02:38:44.029957+01 | 1486517924.02996 | pgbench_branches_pkey |            16384
 2017-02-08 02:38:44.029957+01 | 1486517924.02996 | pgbench_tellers_pkey  |            90112
 2017-02-08 02:38:44.029957+01 | 1486517924.02996 | pgbench_accounts_pkey |        673882112

 2017-02-08 02:38:45.255492+01 | 1486517925.25549 | pgbench_branches_pkey |            16384
 2017-02-08 02:38:45.255492+01 | 1486517925.25549 | pgbench_tellers_pkey  |            90112
 2017-02-08 02:38:45.255492+01 | 1486517925.25549 | pgbench_accounts_pkey |        673882112

 2017-02-08 02:38:46.450845+01 | 1486517926.45085 | pgbench_branches_pkey |            16384
 2017-02-08 02:38:46.450845+01 | 1486517926.45085 | pgbench_tellers_pkey  |            90112
 2017-02-08 02:38:46.450845+01 | 1486517926.45085 | pgbench_accounts_pkey |        673882112

 2017-02-08 02:38:47.733352+01 | 1486517927.73335 | pgbench_branches_pkey |            16384
 2017-02-08 02:38:47.733352+01 | 1486517927.73335 | pgbench_tellers_pkey  |            90112
 2017-02-08 02:38:47.733352+01 | 1486517927.73335 | pgbench_accounts_pkey |        673882112

 2017-02-08 02:38:48.925131+01 | 1486517928.92513 | pgbench_branches_pkey |            16384
 2017-02-08 02:38:48.925131+01 | 1486517928.92513 | pgbench_tellers_pkey  |            90112
 2017-02-08 02:38:48.925131+01 | 1486517928.92513 | pgbench_accounts_pkey |        673882112

 2017-02-08 02:38:50.161718+01 | 1486517930.16172 | pgbench_branches_pkey |            16384
 2017-02-08 02:38:50.161718+01 | 1486517930.16172 | pgbench_tellers_pkey  |            90112
 2017-02-08 02:38:50.161718+01 | 1486517930.16172 | pgbench_accounts_pkey |        673882112

 2017-02-08 02:38:51.365813+01 | 1486517931.36581 | pgbench_branches_pkey |            16384
 2017-02-08 02:38:51.365813+01 | 1486517931.36581 | pgbench_tellers_pkey  |            90112
 2017-02-08 02:38:51.365813+01 | 1486517931.36581 | pgbench_accounts_pkey |        673882112

 2017-02-08 02:38:52.572432+01 | 1486517932.57243 | pgbench_branches_pkey |            16384
 2017-02-08 02:38:52.572432+01 | 1486517932.57243 | pgbench_tellers_pkey  |            90112
 2017-02-08 02:38:52.572432+01 | 1486517932.57243 | pgbench_accounts_pkey |        673882112

 2017-02-08 02:38:53.808909+01 | 1486517933.80891 | pgbench_branches_pkey |            16384
 2017-02-08 02:38:53.808909+01 | 1486517933.80891 | pgbench_tellers_pkey  |            90112
 2017-02-08 02:38:53.808909+01 | 1486517933.80891 | pgbench_accounts_pkey |        673882112

 2017-02-08 02:38:55.016786+01 | 1486517935.01679 | pgbench_branches_pkey |            16384
 2017-02-08 02:38:55.016786+01 | 1486517935.01679 | pgbench_tellers_pkey  |            90112
 2017-02-08 02:38:55.016786+01 | 1486517935.01679 | pgbench_accounts_pkey |        673882112

 2017-02-08 02:38:56.258036+01 | 1486517936.25804 | pgbench_branches_pkey |            16384
 2017-02-08 02:38:56.258036+01 | 1486517936.25804 | pgbench_tellers_pkey  |            90112
 2017-02-08 02:38:56.258036+01 | 1486517936.25804 | pgbench_accounts_pkey |        673882112

 2017-02-08 02:38:57.472969+01 | 1486517937.47297 | pgbench_branches_pkey |            16384
 2017-02-08 02:38:57.472969+01 | 1486517937.47297 | pgbench_tellers_pkey  |            90112
 2017-02-08 02:38:57.472969+01 | 1486517937.47297 | pgbench_accounts_pkey |        673882112

 2017-02-08 02:38:58.662094+01 | 1486517938.66209 | pgbench_branches_pkey |            16384
 2017-02-08 02:38:58.662094+01 | 1486517938.66209 | pgbench_tellers_pkey  |            90112
 2017-02-08 02:38:58.662094+01 | 1486517938.66209 | pgbench_accounts_pkey |        673882112

 2017-02-08 02:38:59.855713+01 | 1486517939.85571 | pgbench_branches_pkey |            16384
 2017-02-08 02:38:59.855713+01 | 1486517939.85571 | pgbench_tellers_pkey  |            90112
 2017-02-08 02:38:59.855713+01 | 1486517939.85571 | pgbench_accounts_pkey |        673882112

 2017-02-08 02:39:01.055204+01 | 1486517941.0552 | pgbench_branches_pkey |            16384
 2017-02-08 02:39:01.055204+01 | 1486517941.0552 | pgbench_tellers_pkey  |            90112
 2017-02-08 02:39:01.055204+01 | 1486517941.0552 | pgbench_accounts_pkey |        673882112

 2017-02-08 02:39:02.295672+01 | 1486517942.29567 | pgbench_branches_pkey |            16384
 2017-02-08 02:39:02.295672+01 | 1486517942.29567 | pgbench_tellers_pkey  |            90112
 2017-02-08 02:39:02.295672+01 | 1486517942.29567 | pgbench_accounts_pkey |        673882112

 2017-02-08 02:39:03.491989+01 | 1486517943.49199 | pgbench_branches_pkey |            16384
 2017-02-08 02:39:03.491989+01 | 1486517943.49199 | pgbench_tellers_pkey  |            90112
 2017-02-08 02:39:03.491989+01 | 1486517943.49199 | pgbench_accounts_pkey |        673882112

 2017-02-08 02:39:04.722242+01 | 1486517944.72224 | pgbench_branches_pkey |            16384
 2017-02-08 02:39:04.722242+01 | 1486517944.72224 | pgbench_tellers_pkey  |            90112
 2017-02-08 02:39:04.722242+01 | 1486517944.72224 | pgbench_accounts_pkey |        673882112

 2017-02-08 02:39:05.958768+01 | 1486517945.95877 | pgbench_branches_pkey |            16384
 2017-02-08 02:39:05.958768+01 | 1486517945.95877 | pgbench_tellers_pkey  |            90112
 2017-02-08 02:39:05.958768+01 | 1486517945.95877 | pgbench_accounts_pkey |        673882112

 2017-02-08 02:39:07.188986+01 | 1486517947.18899 | pgbench_branches_pkey |            16384
 2017-02-08 02:39:07.188986+01 | 1486517947.18899 | pgbench_tellers_pkey  |            90112
 2017-02-08 02:39:07.188986+01 | 1486517947.18899 | pgbench_accounts_pkey |        673882112

 2017-02-08 02:39:08.459864+01 | 1486517948.45986 | pgbench_branches_pkey |            16384
 2017-02-08 02:39:08.459864+01 | 1486517948.45986 | pgbench_tellers_pkey  |            90112
 2017-02-08 02:39:08.459864+01 | 1486517948.45986 | pgbench_accounts_pkey |        673882112

 2017-02-08 02:39:09.664193+01 | 1486517949.66419 | pgbench_branches_pkey |            16384
 2017-02-08 02:39:09.664193+01 | 1486517949.66419 | pgbench_tellers_pkey  |            90112
 2017-02-08 02:39:09.664193+01 | 1486517949.66419 | pgbench_accounts_pkey |        673882112

 2017-02-08 02:39:10.912705+01 | 1486517950.9127 | pgbench_branches_pkey |            16384
 2017-02-08 02:39:10.912705+01 | 1486517950.9127 | pgbench_tellers_pkey  |            90112
 2017-02-08 02:39:10.912705+01 | 1486517950.9127 | pgbench_accounts_pkey |        673882112

 2017-02-08 02:39:12.158928+01 | 1486517952.15893 | pgbench_branches_pkey |            16384
 2017-02-08 02:39:12.158928+01 | 1486517952.15893 | pgbench_tellers_pkey  |            90112
 2017-02-08 02:39:12.158928+01 | 1486517952.15893 | pgbench_accounts_pkey |        673882112

 2017-02-08 02:39:13.415418+01 | 1486517953.41542 | pgbench_branches_pkey |            16384
 2017-02-08 02:39:13.415418+01 | 1486517953.41542 | pgbench_tellers_pkey  |            90112
 2017-02-08 02:39:13.415418+01 | 1486517953.41542 | pgbench_accounts_pkey |        673882112

 2017-02-08 02:39:14.711577+01 | 1486517954.71158 | pgbench_branches_pkey |            16384
 2017-02-08 02:39:14.711577+01 | 1486517954.71158 | pgbench_tellers_pkey  |            90112
 2017-02-08 02:39:14.711577+01 | 1486517954.71158 | pgbench_accounts_pkey |        673882112

 2017-02-08 02:39:15.986882+01 | 1486517955.98688 | pgbench_branches_pkey |            16384
 2017-02-08 02:39:15.986882+01 | 1486517955.98688 | pgbench_tellers_pkey  |            90112
 2017-02-08 02:39:15.986882+01 | 1486517955.98688 | pgbench_accounts_pkey |        673882112

 2017-02-08 02:39:17.231085+01 | 1486517957.23109 | pgbench_branches_pkey |            16384
 2017-02-08 02:39:17.231085+01 | 1486517957.23109 | pgbench_tellers_pkey  |            90112
 2017-02-08 02:39:17.231085+01 | 1486517957.23109 | pgbench_accounts_pkey |        673882112

 2017-02-08 02:39:18.480606+01 | 1486517958.48061 | pgbench_branches_pkey |            16384
 2017-02-08 02:39:18.480606+01 | 1486517958.48061 | pgbench_tellers_pkey  |            90112
 2017-02-08 02:39:18.480606+01 | 1486517958.48061 | pgbench_accounts_pkey |        673882112

 2017-02-08 02:39:19.671324+01 | 1486517959.67132 | pgbench_branches_pkey |            16384
 2017-02-08 02:39:19.671324+01 | 1486517959.67132 | pgbench_tellers_pkey  |            90112
 2017-02-08 02:39:19.671324+01 | 1486517959.67132 | pgbench_accounts_pkey |        673882112

 2017-02-08 02:39:20.85962+01 | 1486517960.85962 | pgbench_branches_pkey |            16384
 2017-02-08 02:39:20.85962+01 | 1486517960.85962 | pgbench_tellers_pkey  |            90112
 2017-02-08 02:39:20.85962+01 | 1486517960.85962 | pgbench_accounts_pkey |        673882112

 2017-02-08 02:39:22.138363+01 | 1486517962.13836 | pgbench_branches_pkey |            16384
 2017-02-08 02:39:22.138363+01 | 1486517962.13836 | pgbench_tellers_pkey  |            90112
 2017-02-08 02:39:22.138363+01 | 1486517962.13836 | pgbench_accounts_pkey |        673882112

 2017-02-08 02:39:23.403476+01 | 1486517963.40348 | pgbench_branches_pkey |            16384
 2017-02-08 02:39:23.403476+01 | 1486517963.40348 | pgbench_tellers_pkey  |            90112
 2017-02-08 02:39:23.403476+01 | 1486517963.40348 | pgbench_accounts_pkey |        673882112

 2017-02-08 02:39:24.563669+01 | 1486517964.56367 | pgbench_branches_pkey |            16384
 2017-02-08 02:39:24.563669+01 | 1486517964.56367 | pgbench_tellers_pkey  |            90112
 2017-02-08 02:39:24.563669+01 | 1486517964.56367 | pgbench_accounts_pkey |        673882112

 2017-02-08 02:39:25.75165+01 | 1486517965.75165 | pgbench_branches_pkey |            16384
 2017-02-08 02:39:25.75165+01 | 1486517965.75165 | pgbench_tellers_pkey  |            90112
 2017-02-08 02:39:25.75165+01 | 1486517965.75165 | pgbench_accounts_pkey |        673882112

 2017-02-08 02:39:26.926399+01 | 1486517966.9264 | pgbench_branches_pkey |            16384
 2017-02-08 02:39:26.926399+01 | 1486517966.9264 | pgbench_tellers_pkey  |            90112
 2017-02-08 02:39:26.926399+01 | 1486517966.9264 | pgbench_accounts_pkey |        673882112

 2017-02-08 02:39:28.11479+01 | 1486517968.11479 | pgbench_branches_pkey |            16384
 2017-02-08 02:39:28.11479+01 | 1486517968.11479 | pgbench_tellers_pkey  |            90112
 2017-02-08 02:39:28.11479+01 | 1486517968.11479 | pgbench_accounts_pkey |        673882112

 2017-02-08 02:39:29.299605+01 | 1486517969.2996 | pgbench_branches_pkey |            16384
 2017-02-08 02:39:29.299605+01 | 1486517969.2996 | pgbench_tellers_pkey  |            90112
 2017-02-08 02:39:29.299605+01 | 1486517969.2996 | pgbench_accounts_pkey |        673882112

 2017-02-08 02:39:30.529924+01 | 1486517970.52992 | pgbench_branches_pkey |            16384
 2017-02-08 02:39:30.529924+01 | 1486517970.52992 | pgbench_tellers_pkey  |            90112
 2017-02-08 02:39:30.529924+01 | 1486517970.52992 | pgbench_accounts_pkey |        673882112

 2017-02-08 02:39:31.764335+01 | 1486517971.76433 | pgbench_branches_pkey |            16384
 2017-02-08 02:39:31.764335+01 | 1486517971.76433 | pgbench_tellers_pkey  |            90112
 2017-02-08 02:39:31.764335+01 | 1486517971.76433 | pgbench_accounts_pkey |        673882112

 2017-02-08 02:39:32.986996+01 | 1486517972.987 | pgbench_branches_pkey |            16384
 2017-02-08 02:39:32.986996+01 | 1486517972.987 | pgbench_tellers_pkey  |            90112
 2017-02-08 02:39:32.986996+01 | 1486517972.987 | pgbench_accounts_pkey |        673882112

 2017-02-08 02:39:34.264802+01 | 1486517974.2648 | pgbench_branches_pkey |            16384
 2017-02-08 02:39:34.264802+01 | 1486517974.2648 | pgbench_tellers_pkey  |            90112
 2017-02-08 02:39:34.264802+01 | 1486517974.2648 | pgbench_accounts_pkey |        673882112

 2017-02-08 02:39:35.507128+01 | 1486517975.50713 | pgbench_branches_pkey |            16384
 2017-02-08 02:39:35.507128+01 | 1486517975.50713 | pgbench_tellers_pkey  |            90112
 2017-02-08 02:39:35.507128+01 | 1486517975.50713 | pgbench_accounts_pkey |        673882112

 2017-02-08 02:39:36.763224+01 | 1486517976.76322 | pgbench_branches_pkey |            16384
 2017-02-08 02:39:36.763224+01 | 1486517976.76322 | pgbench_tellers_pkey  |            90112
 2017-02-08 02:39:36.763224+01 | 1486517976.76322 | pgbench_accounts_pkey |        673882112

 2017-02-08 02:39:37.95326+01 | 1486517977.95326 | pgbench_branches_pkey |            16384
 2017-02-08 02:39:37.95326+01 | 1486517977.95326 | pgbench_tellers_pkey  |            90112
 2017-02-08 02:39:37.95326+01 | 1486517977.95326 | pgbench_accounts_pkey |        673882112

 2017-02-08 02:39:39.188323+01 | 1486517979.18832 | pgbench_branches_pkey |            16384
 2017-02-08 02:39:39.188323+01 | 1486517979.18832 | pgbench_tellers_pkey  |            90112
 2017-02-08 02:39:39.188323+01 | 1486517979.18832 | pgbench_accounts_pkey |        673882112

 2017-02-08 02:39:40.414076+01 | 1486517980.41408 | pgbench_branches_pkey |            16384
 2017-02-08 02:39:40.414076+01 | 1486517980.41408 | pgbench_tellers_pkey  |            90112
 2017-02-08 02:39:40.414076+01 | 1486517980.41408 | pgbench_accounts_pkey |        673882112

 2017-02-08 02:39:41.638882+01 | 1486517981.63888 | pgbench_branches_pkey |            16384
 2017-02-08 02:39:41.638882+01 | 1486517981.63888 | pgbench_tellers_pkey  |            90112
 2017-02-08 02:39:41.638882+01 | 1486517981.63888 | pgbench_accounts_pkey |        673882112

 2017-02-08 02:39:42.882214+01 | 1486517982.88221 | pgbench_branches_pkey |            16384
 2017-02-08 02:39:42.882214+01 | 1486517982.88221 | pgbench_tellers_pkey  |            90112
 2017-02-08 02:39:42.882214+01 | 1486517982.88221 | pgbench_accounts_pkey |        673882112

 2017-02-08 02:39:44.136025+01 | 1486517984.13602 | pgbench_branches_pkey |            16384
 2017-02-08 02:39:44.136025+01 | 1486517984.13602 | pgbench_tellers_pkey  |            90112
 2017-02-08 02:39:44.136025+01 | 1486517984.13602 | pgbench_accounts_pkey |        673882112

 2017-02-08 02:39:45.461437+01 | 1486517985.46144 | pgbench_branches_pkey |            16384
 2017-02-08 02:39:45.461437+01 | 1486517985.46144 | pgbench_tellers_pkey  |            90112
 2017-02-08 02:39:45.461437+01 | 1486517985.46144 | pgbench_accounts_pkey |        673882112

 2017-02-08 02:39:46.696598+01 | 1486517986.6966 | pgbench_branches_pkey |            16384
 2017-02-08 02:39:46.696598+01 | 1486517986.6966 | pgbench_tellers_pkey  |            90112
 2017-02-08 02:39:46.696598+01 | 1486517986.6966 | pgbench_accounts_pkey |        673882112

 2017-02-08 02:39:47.9189+01 | 1486517987.9189 | pgbench_branches_pkey |            16384
 2017-02-08 02:39:47.9189+01 | 1486517987.9189 | pgbench_tellers_pkey  |            90112
 2017-02-08 02:39:47.9189+01 | 1486517987.9189 | pgbench_accounts_pkey |        673882112

 2017-02-08 02:39:49.14734+01 | 1486517989.14734 | pgbench_branches_pkey |            16384
 2017-02-08 02:39:49.14734+01 | 1486517989.14734 | pgbench_tellers_pkey  |            90112
 2017-02-08 02:39:49.14734+01 | 1486517989.14734 | pgbench_accounts_pkey |        673882112

 2017-02-08 02:39:50.382802+01 | 1486517990.3828 | pgbench_branches_pkey |            16384
 2017-02-08 02:39:50.382802+01 | 1486517990.3828 | pgbench_tellers_pkey  |            90112
 2017-02-08 02:39:50.382802+01 | 1486517990.3828 | pgbench_accounts_pkey |        673882112

 2017-02-08 02:39:51.6103+01 | 1486517991.6103 | pgbench_branches_pkey |            16384
 2017-02-08 02:39:51.6103+01 | 1486517991.6103 | pgbench_tellers_pkey  |            90112
 2017-02-08 02:39:51.6103+01 | 1486517991.6103 | pgbench_accounts_pkey |        673882112

 2017-02-08 02:39:52.830082+01 | 1486517992.83008 | pgbench_branches_pkey |            16384
 2017-02-08 02:39:52.830082+01 | 1486517992.83008 | pgbench_tellers_pkey  |            90112
 2017-02-08 02:39:52.830082+01 | 1486517992.83008 | pgbench_accounts_pkey |        673882112

 2017-02-08 02:39:54.039556+01 | 1486517994.03956 | pgbench_branches_pkey |            16384
 2017-02-08 02:39:54.039556+01 | 1486517994.03956 | pgbench_tellers_pkey  |            90112
 2017-02-08 02:39:54.039556+01 | 1486517994.03956 | pgbench_accounts_pkey |        673882112

 2017-02-08 02:39:55.240299+01 | 1486517995.2403 | pgbench_branches_pkey |            16384
 2017-02-08 02:39:55.240299+01 | 1486517995.2403 | pgbench_tellers_pkey  |            90112
 2017-02-08 02:39:55.240299+01 | 1486517995.2403 | pgbench_accounts_pkey |        673882112

 2017-02-08 02:39:56.489981+01 | 1486517996.48998 | pgbench_branches_pkey |            16384
 2017-02-08 02:39:56.489981+01 | 1486517996.48998 | pgbench_tellers_pkey  |            90112
 2017-02-08 02:39:56.489981+01 | 1486517996.48998 | pgbench_accounts_pkey |        673882112

 2017-02-08 02:39:57.733209+01 | 1486517997.73321 | pgbench_branches_pkey |            16384
 2017-02-08 02:39:57.733209+01 | 1486517997.73321 | pgbench_tellers_pkey  |            90112
 2017-02-08 02:39:57.733209+01 | 1486517997.73321 | pgbench_accounts_pkey |        673882112

 2017-02-08 02:39:58.955057+01 | 1486517998.95506 | pgbench_branches_pkey |            16384
 2017-02-08 02:39:58.955057+01 | 1486517998.95506 | pgbench_tellers_pkey  |            90112
 2017-02-08 02:39:58.955057+01 | 1486517998.95506 | pgbench_accounts_pkey |        673882112

 2017-02-08 02:40:00.15662+01 | 1486518000.15662 | pgbench_branches_pkey |            16384
 2017-02-08 02:40:00.15662+01 | 1486518000.15662 | pgbench_tellers_pkey  |            90112
 2017-02-08 02:40:00.15662+01 | 1486518000.15662 | pgbench_accounts_pkey |        673882112

 2017-02-08 02:40:01.379687+01 | 1486518001.37969 | pgbench_branches_pkey |            16384
 2017-02-08 02:40:01.379687+01 | 1486518001.37969 | pgbench_tellers_pkey  |            90112
 2017-02-08 02:40:01.379687+01 | 1486518001.37969 | pgbench_accounts_pkey |        673882112

 2017-02-08 02:40:02.566676+01 | 1486518002.56668 | pgbench_branches_pkey |            16384
 2017-02-08 02:40:02.566676+01 | 1486518002.56668 | pgbench_tellers_pkey  |            90112
 2017-02-08 02:40:02.566676+01 | 1486518002.56668 | pgbench_accounts_pkey |        673882112

 2017-02-08 02:40:03.783274+01 | 1486518003.78327 | pgbench_branches_pkey |            16384
 2017-02-08 02:40:03.783274+01 | 1486518003.78327 | pgbench_tellers_pkey  |            90112
 2017-02-08 02:40:03.783274+01 | 1486518003.78327 | pgbench_accounts_pkey |        673882112

 2017-02-08 02:40:05.034112+01 | 1486518005.03411 | pgbench_branches_pkey |            16384
 2017-02-08 02:40:05.034112+01 | 1486518005.03411 | pgbench_tellers_pkey  |            90112
 2017-02-08 02:40:05.034112+01 | 1486518005.03411 | pgbench_accounts_pkey |        673882112

 2017-02-08 02:40:06.334449+01 | 1486518006.33445 | pgbench_branches_pkey |            16384
 2017-02-08 02:40:06.334449+01 | 1486518006.33445 | pgbench_tellers_pkey  |            90112
 2017-02-08 02:40:06.334449+01 | 1486518006.33445 | pgbench_accounts_pkey |        673882112

 2017-02-08 02:40:07.566052+01 | 1486518007.56605 | pgbench_branches_pkey |            16384
 2017-02-08 02:40:07.566052+01 | 1486518007.56605 | pgbench_tellers_pkey  |            90112
 2017-02-08 02:40:07.566052+01 | 1486518007.56605 | pgbench_accounts_pkey |        673882112

 2017-02-08 02:40:08.832435+01 | 1486518008.83243 | pgbench_branches_pkey |            16384
 2017-02-08 02:40:08.832435+01 | 1486518008.83243 | pgbench_tellers_pkey  |            90112
 2017-02-08 02:40:08.832435+01 | 1486518008.83243 | pgbench_accounts_pkey |        673882112

 2017-02-08 02:40:10.095266+01 | 1486518010.09527 | pgbench_branches_pkey |            16384
 2017-02-08 02:40:10.095266+01 | 1486518010.09527 | pgbench_tellers_pkey  |            90112
 2017-02-08 02:40:10.095266+01 | 1486518010.09527 | pgbench_accounts_pkey |        673882112

 2017-02-08 02:40:11.325709+01 | 1486518011.32571 | pgbench_branches_pkey |            16384
 2017-02-08 02:40:11.325709+01 | 1486518011.32571 | pgbench_tellers_pkey  |            90112
 2017-02-08 02:40:11.325709+01 | 1486518011.32571 | pgbench_accounts_pkey |        673882112

 2017-02-08 02:40:12.505388+01 | 1486518012.50539 | pgbench_branches_pkey |            16384
 2017-02-08 02:40:12.505388+01 | 1486518012.50539 | pgbench_tellers_pkey  |            90112
 2017-02-08 02:40:12.505388+01 | 1486518012.50539 | pgbench_accounts_pkey |        673882112

 2017-02-08 02:40:13.714967+01 | 1486518013.71497 | pgbench_branches_pkey |            16384
 2017-02-08 02:40:13.714967+01 | 1486518013.71497 | pgbench_tellers_pkey  |            90112
 2017-02-08 02:40:13.714967+01 | 1486518013.71497 | pgbench_accounts_pkey |        673882112

 2017-02-08 02:40:15.022632+01 | 1486518015.02263 | pgbench_branches_pkey |            16384
 2017-02-08 02:40:15.022632+01 | 1486518015.02263 | pgbench_tellers_pkey  |            90112
 2017-02-08 02:40:15.022632+01 | 1486518015.02263 | pgbench_accounts_pkey |        673882112

 2017-02-08 02:40:16.27307+01 | 1486518016.27307 | pgbench_branches_pkey |            16384
 2017-02-08 02:40:16.27307+01 | 1486518016.27307 | pgbench_tellers_pkey  |            90112
 2017-02-08 02:40:16.27307+01 | 1486518016.27307 | pgbench_accounts_pkey |        673882112

 2017-02-08 02:40:17.539888+01 | 1486518017.53989 | pgbench_branches_pkey |            16384
 2017-02-08 02:40:17.539888+01 | 1486518017.53989 | pgbench_tellers_pkey  |            90112
 2017-02-08 02:40:17.539888+01 | 1486518017.53989 | pgbench_accounts_pkey |        673882112

 2017-02-08 02:40:18.753921+01 | 1486518018.75392 | pgbench_branches_pkey |            16384
 2017-02-08 02:40:18.753921+01 | 1486518018.75392 | pgbench_tellers_pkey  |            90112
 2017-02-08 02:40:18.753921+01 | 1486518018.75392 | pgbench_accounts_pkey |        673882112

 2017-02-08 02:40:20.05449+01 | 1486518020.05449 | pgbench_branches_pkey |            16384
 2017-02-08 02:40:20.05449+01 | 1486518020.05449 | pgbench_tellers_pkey  |            90112
 2017-02-08 02:40:20.05449+01 | 1486518020.05449 | pgbench_accounts_pkey |        673882112

 2017-02-08 02:40:21.285467+01 | 1486518021.28547 | pgbench_branches_pkey |            16384
 2017-02-08 02:40:21.285467+01 | 1486518021.28547 | pgbench_tellers_pkey  |            90112
 2017-02-08 02:40:21.285467+01 | 1486518021.28547 | pgbench_accounts_pkey |        673882112

 2017-02-08 02:40:22.50683+01 | 1486518022.50683 | pgbench_branches_pkey |            16384
 2017-02-08 02:40:22.50683+01 | 1486518022.50683 | pgbench_tellers_pkey  |            90112
 2017-02-08 02:40:22.50683+01 | 1486518022.50683 | pgbench_accounts_pkey |        673882112

 2017-02-08 02:40:23.70832+01 | 1486518023.70832 | pgbench_branches_pkey |            16384
 2017-02-08 02:40:23.70832+01 | 1486518023.70832 | pgbench_tellers_pkey  |            90112
 2017-02-08 02:40:23.70832+01 | 1486518023.70832 | pgbench_accounts_pkey |        673882112

 2017-02-08 02:40:24.888993+01 | 1486518024.88899 | pgbench_branches_pkey |            16384
 2017-02-08 02:40:24.888993+01 | 1486518024.88899 | pgbench_tellers_pkey  |            90112
 2017-02-08 02:40:24.888993+01 | 1486518024.88899 | pgbench_accounts_pkey |        673882112

 2017-02-08 02:40:26.094115+01 | 1486518026.09412 | pgbench_branches_pkey |            16384
 2017-02-08 02:40:26.094115+01 | 1486518026.09412 | pgbench_tellers_pkey  |            90112
 2017-02-08 02:40:26.094115+01 | 1486518026.09412 | pgbench_accounts_pkey |        673882112

 2017-02-08 02:40:27.334689+01 | 1486518027.33469 | pgbench_branches_pkey |            16384
 2017-02-08 02:40:27.334689+01 | 1486518027.33469 | pgbench_tellers_pkey  |            90112
 2017-02-08 02:40:27.334689+01 | 1486518027.33469 | pgbench_accounts_pkey |        673882112

 2017-02-08 02:40:28.5596+01 | 1486518028.5596 | pgbench_branches_pkey |            16384
 2017-02-08 02:40:28.5596+01 | 1486518028.5596 | pgbench_tellers_pkey  |            90112
 2017-02-08 02:40:28.5596+01 | 1486518028.5596 | pgbench_accounts_pkey |        673882112

 2017-02-08 02:40:29.777116+01 | 1486518029.77712 | pgbench_branches_pkey |            16384
 2017-02-08 02:40:29.777116+01 | 1486518029.77712 | pgbench_tellers_pkey  |            90112
 2017-02-08 02:40:29.777116+01 | 1486518029.77712 | pgbench_accounts_pkey |        673882112

 2017-02-08 02:40:30.948987+01 | 1486518030.94899 | pgbench_branches_pkey |            16384
 2017-02-08 02:40:30.948987+01 | 1486518030.94899 | pgbench_tellers_pkey  |            90112
 2017-02-08 02:40:30.948987+01 | 1486518030.94899 | pgbench_accounts_pkey |        673882112

