 2017-02-08 02:35:31.187707+01 | 1486517731.18771 |                 0 |               4 |                     6 |                    8 |                 14 |           560 |                5 |         1473199 |                     0 |     107918513 | 2017-02-08 02:19:40.96972+01

 2017-02-08 02:35:32.423658+01 | 1486517732.42366 |                 0 |               4 |                     6 |                    8 |                 14 |           563 |                5 |         1473199 |                     0 |     108042549 | 2017-02-08 02:19:40.96972+01

 2017-02-08 02:35:33.677809+01 | 1486517733.67781 |                 0 |               4 |                     6 |                    8 |                 14 |           564 |                5 |         1473199 |                     0 |     108174995 | 2017-02-08 02:19:40.96972+01

 2017-02-08 02:35:34.923821+01 | 1486517734.92382 |                 0 |               4 |                     6 |                    8 |                 14 |           564 |                5 |         1473199 |                     0 |     108333280 | 2017-02-08 02:19:40.96972+01

 2017-02-08 02:35:36.179566+01 | 1486517736.17957 |                 0 |               4 |                     6 |                    8 |                 14 |           564 |                5 |         1473199 |                     0 |     108467393 | 2017-02-08 02:19:40.96972+01

 2017-02-08 02:35:37.392417+01 | 1486517737.39242 |                 0 |               4 |                     6 |                    8 |                 14 |           564 |                5 |         1473199 |                     0 |     108602410 | 2017-02-08 02:19:40.96972+01

 2017-02-08 02:35:38.670451+01 | 1486517738.67045 |                 0 |               4 |                     6 |                    8 |                 14 |           564 |                5 |         1473199 |                     0 |     108737129 | 2017-02-08 02:19:40.96972+01

 2017-02-08 02:35:39.93553+01 | 1486517739.93553 |                 0 |               4 |                     6 |                    8 |                 14 |           564 |                5 |         1473199 |                     0 |     108872542 | 2017-02-08 02:19:40.96972+01

 2017-02-08 02:35:41.149878+01 | 1486517741.14988 |                 0 |               4 |                     6 |                    8 |                 14 |           564 |                5 |         1473199 |                     0 |     109008254 | 2017-02-08 02:19:40.96972+01

 2017-02-08 02:35:42.366501+01 | 1486517742.3665 |                 0 |               4 |                     6 |                    8 |                 14 |           564 |                5 |         1473199 |                     0 |     109168680 | 2017-02-08 02:19:40.96972+01

 2017-02-08 02:35:43.569811+01 | 1486517743.56981 |                 0 |               4 |                     6 |                    8 |                 14 |           564 |                5 |         1473199 |                     0 |     109305857 | 2017-02-08 02:19:40.96972+01

 2017-02-08 02:35:44.812163+01 | 1486517744.81216 |                 0 |               4 |                     6 |                    8 |                 14 |           564 |                5 |         1473199 |                     0 |     109443323 | 2017-02-08 02:19:40.96972+01

 2017-02-08 02:35:46.064111+01 | 1486517746.06411 |                 0 |               4 |                     6 |                    8 |                 14 |           564 |                5 |         1473199 |                     0 |     109579072 | 2017-02-08 02:19:40.96972+01

 2017-02-08 02:35:47.339697+01 | 1486517747.3397 |                 0 |               4 |                     6 |                    8 |                 14 |           564 |                5 |         1473199 |                     0 |     109717415 | 2017-02-08 02:19:40.96972+01

 2017-02-08 02:35:48.597584+01 | 1486517748.59758 |                 0 |               4 |                     6 |                    8 |                 14 |           564 |                5 |         1473199 |                     0 |     109854019 | 2017-02-08 02:19:40.96972+01

 2017-02-08 02:35:49.839427+01 | 1486517749.83943 |                 0 |               4 |                     6 |                    8 |                 14 |           564 |                5 |         1473199 |                     0 |     110014911 | 2017-02-08 02:19:40.96972+01

 2017-02-08 02:35:51.070955+01 | 1486517751.07096 |                 0 |               4 |                     6 |                    8 |                 14 |           564 |                5 |         1473199 |                     0 |     110152005 | 2017-02-08 02:19:40.96972+01

 2017-02-08 02:35:52.271354+01 | 1486517752.27135 |                 0 |               4 |                     6 |                    8 |                 14 |           564 |                5 |         1473199 |                     0 |     110287839 | 2017-02-08 02:19:40.96972+01

 2017-02-08 02:35:53.533999+01 | 1486517753.534 |                 0 |               4 |                     6 |                    8 |                 14 |           564 |                5 |         1473199 |                     0 |     110425570 | 2017-02-08 02:19:40.96972+01

 2017-02-08 02:35:54.767164+01 | 1486517754.76716 |                 0 |               4 |                     6 |                    8 |                 14 |           564 |                5 |         1473199 |                     0 |     110561436 | 2017-02-08 02:19:40.96972+01

 2017-02-08 02:35:56.008248+01 | 1486517756.00825 |                 0 |               4 |                     6 |                    8 |                 14 |           564 |                5 |         1473199 |                     0 |     110698306 | 2017-02-08 02:19:40.96972+01

 2017-02-08 02:35:57.243086+01 | 1486517757.24309 |                 0 |               4 |                     6 |                    8 |                 14 |           564 |                5 |         1473199 |                     0 |     110833026 | 2017-02-08 02:19:40.96972+01

 2017-02-08 02:35:58.506091+01 | 1486517758.50609 |                 0 |               4 |                     6 |                    8 |                 14 |           564 |                5 |         1473199 |                     0 |     110970648 | 2017-02-08 02:19:40.96972+01

 2017-02-08 02:35:59.698223+01 | 1486517759.69822 |                 0 |               4 |                     6 |                    8 |                 14 |           564 |                5 |         1473199 |                     0 |     111127199 | 2017-02-08 02:19:40.96972+01

 2017-02-08 02:36:00.931094+01 | 1486517760.93109 |                 0 |               4 |                     6 |                    8 |                 14 |           564 |                5 |         1473199 |                     0 |     111262199 | 2017-02-08 02:19:40.96972+01

 2017-02-08 02:36:02.109107+01 | 1486517762.10911 |                 0 |               4 |                     6 |                    8 |                 14 |           564 |                5 |         1473199 |                     0 |     111398971 | 2017-02-08 02:19:40.96972+01

 2017-02-08 02:36:03.349988+01 | 1486517763.34999 |                 0 |               4 |                     6 |                    8 |                 14 |           564 |                5 |         1473199 |                     0 |     111536792 | 2017-02-08 02:19:40.96972+01

 2017-02-08 02:36:04.57862+01 | 1486517764.57862 |                 0 |               4 |                     6 |                    8 |                 14 |           564 |                5 |         1473199 |                     0 |     111672948 | 2017-02-08 02:19:40.96972+01

 2017-02-08 02:36:05.757117+01 | 1486517765.75712 |                 0 |               4 |                     6 |                    8 |                 14 |           564 |                5 |         1473199 |                     0 |     111809842 | 2017-02-08 02:19:40.96972+01

 2017-02-08 02:36:06.951069+01 | 1486517766.95107 |                 0 |               4 |                     6 |                    8 |                 14 |           564 |                5 |         1473199 |                     0 |     111947746 | 2017-02-08 02:19:40.96972+01

 2017-02-08 02:36:08.126117+01 | 1486517768.12612 |                 0 |               4 |                     6 |                    8 |                 14 |           564 |                5 |         1473199 |                     0 |     112060645 | 2017-02-08 02:19:40.96972+01

 2017-02-08 02:36:09.42784+01 | 1486517769.42784 |                 0 |               4 |                     6 |                    8 |                 14 |           564 |                5 |         1473199 |                     0 |     112196410 | 2017-02-08 02:19:40.96972+01

 2017-02-08 02:36:10.598012+01 | 1486517770.59801 |                 0 |               4 |                     6 |                    8 |                 14 |           564 |                5 |         1473199 |                     0 |     112356582 | 2017-02-08 02:19:40.96972+01

 2017-02-08 02:36:11.810797+01 | 1486517771.8108 |                 0 |               4 |                     6 |                    8 |                 14 |           564 |                5 |         1473199 |                     0 |     112469483 | 2017-02-08 02:19:40.96972+01

 2017-02-08 02:36:13.088819+01 | 1486517773.08882 |                 0 |               4 |                     6 |                    8 |                 14 |           564 |                5 |         1473199 |                     0 |     112626682 | 2017-02-08 02:19:40.96972+01

 2017-02-08 02:36:14.318506+01 | 1486517774.31851 |                 0 |               4 |                     6 |                    8 |                 14 |           564 |                5 |         1473199 |                     0 |     112764107 | 2017-02-08 02:19:40.96972+01

 2017-02-08 02:36:15.58369+01 | 1486517775.58369 |                 0 |               4 |                     6 |                    8 |                 14 |           564 |                5 |         1473199 |                     0 |     112900727 | 2017-02-08 02:19:40.96972+01

 2017-02-08 02:36:16.789267+01 | 1486517776.78927 |                 0 |               4 |                     6 |                    8 |                 14 |           564 |                5 |         1473199 |                     0 |     113036068 | 2017-02-08 02:19:40.96972+01

 2017-02-08 02:36:17.984234+01 | 1486517777.98423 |                 0 |               4 |                     6 |                    8 |                 14 |           564 |                5 |         1473199 |                     0 |     113172945 | 2017-02-08 02:19:40.96972+01

 2017-02-08 02:36:19.172714+01 | 1486517779.17271 |                 0 |               4 |                     6 |                    8 |                 14 |           564 |                5 |         1473199 |                     0 |     113306231 | 2017-02-08 02:19:40.96972+01

 2017-02-08 02:36:20.429425+01 | 1486517780.42943 |                 0 |               4 |                     6 |                    8 |                 14 |           564 |                5 |         1473199 |                     0 |     113441702 | 2017-02-08 02:19:40.96972+01

 2017-02-08 02:36:21.658926+01 | 1486517781.65893 |                 0 |               4 |                     6 |                    8 |                 14 |           564 |                5 |         1473199 |                     0 |     113579027 | 2017-02-08 02:19:40.96972+01

 2017-02-08 02:36:22.883003+01 | 1486517782.883 |                 0 |               4 |                     6 |                    8 |                 14 |           564 |                5 |         1473199 |                     0 |     113739604 | 2017-02-08 02:19:40.96972+01

 2017-02-08 02:36:24.121644+01 | 1486517784.12164 |                 0 |               4 |                     6 |                    8 |                 14 |           564 |                5 |         1473199 |                     0 |     113876743 | 2017-02-08 02:19:40.96972+01

 2017-02-08 02:36:25.360091+01 | 1486517785.36009 |                 0 |               4 |                     6 |                    8 |                 14 |           564 |                5 |         1473199 |                     0 |     114013702 | 2017-02-08 02:19:40.96972+01

 2017-02-08 02:36:26.573121+01 | 1486517786.57312 |                 0 |               4 |                     6 |                    8 |                 14 |           564 |                5 |         1473199 |                     0 |     114148392 | 2017-02-08 02:19:40.96972+01

 2017-02-08 02:36:27.848441+01 | 1486517787.84844 |                 0 |               4 |                     6 |                    8 |                 14 |           564 |                5 |         1473199 |                     0 |     114283706 | 2017-02-08 02:19:40.96972+01

 2017-02-08 02:36:29.099164+01 | 1486517789.09916 |                 0 |               4 |                     6 |                    8 |                 14 |           564 |                5 |         1473199 |                     0 |     114418821 | 2017-02-08 02:19:40.96972+01

 2017-02-08 02:36:30.354723+01 | 1486517790.35472 |                 0 |               4 |                     6 |                    8 |                 14 |           564 |                5 |         1473199 |                     0 |     114578158 | 2017-02-08 02:19:40.96972+01

 2017-02-08 02:36:31.57847+01 | 1486517791.57847 |                 0 |               4 |                     6 |                    8 |                 14 |           564 |                5 |         1473199 |                     0 |     114717107 | 2017-02-08 02:19:40.96972+01

 2017-02-08 02:36:32.809603+01 | 1486517792.8096 |                 0 |               4 |                     6 |                    8 |                 14 |           564 |                5 |         1473199 |                     0 |     114851380 | 2017-02-08 02:19:40.96972+01

 2017-02-08 02:36:33.961628+01 | 1486517793.96163 |                 0 |               4 |                     6 |                    8 |                 14 |           564 |                5 |         1473199 |                     0 |     114987942 | 2017-02-08 02:19:40.96972+01

 2017-02-08 02:36:35.188285+01 | 1486517795.18829 |                 0 |               4 |                     6 |                    8 |                 14 |           564 |                5 |         1473199 |                     0 |     115112192 | 2017-02-08 02:19:40.96972+01

 2017-02-08 02:36:36.437364+01 | 1486517796.43736 |                 0 |               4 |                     6 |                    8 |                 14 |           564 |                5 |         1473199 |                     0 |     115247901 | 2017-02-08 02:19:40.96972+01

 2017-02-08 02:36:37.701436+01 | 1486517797.70144 |                 0 |               4 |                     6 |                    8 |                 14 |           564 |                5 |         1473199 |                     0 |     115384822 | 2017-02-08 02:19:40.96972+01

 2017-02-08 02:36:38.941078+01 | 1486517798.94108 |                 0 |               4 |                     6 |                    8 |                 14 |           564 |                5 |         1473199 |                     0 |     115521606 | 2017-02-08 02:19:40.96972+01

 2017-02-08 02:36:40.167305+01 | 1486517800.1673 |                 0 |               4 |                     6 |                    8 |                 14 |           564 |                5 |         1473199 |                     0 |     115659198 | 2017-02-08 02:19:40.96972+01

 2017-02-08 02:36:41.388791+01 | 1486517801.38879 |                 0 |               4 |                     6 |                    8 |                 14 |           564 |                5 |         1473199 |                     0 |     115818653 | 2017-02-08 02:19:40.96972+01

 2017-02-08 02:36:42.627964+01 | 1486517802.62796 |                 0 |               4 |                     6 |                    8 |                 14 |           564 |                5 |         1473199 |                     0 |     115931562 | 2017-02-08 02:19:40.96972+01

 2017-02-08 02:36:43.858353+01 | 1486517803.85835 |                 0 |               4 |                     6 |                    8 |                 14 |           564 |                5 |         1473199 |                     0 |     116090977 | 2017-02-08 02:19:40.96972+01

 2017-02-08 02:36:45.086663+01 | 1486517805.08666 |                 0 |               4 |                     6 |                    8 |                 14 |           564 |                5 |         1473199 |                     0 |     116227405 | 2017-02-08 02:19:40.96972+01

 2017-02-08 02:36:46.293514+01 | 1486517806.29351 |                 0 |               4 |                     6 |                    8 |                 14 |           564 |                5 |         1473199 |                     0 |     116363596 | 2017-02-08 02:19:40.96972+01

 2017-02-08 02:36:47.536932+01 | 1486517807.53693 |                 0 |               4 |                     6 |                    8 |                 14 |           564 |                5 |         1473199 |                     0 |     116499971 | 2017-02-08 02:19:40.96972+01

 2017-02-08 02:36:48.7045+01 | 1486517808.7045 |                 0 |               4 |                     6 |                    8 |                 14 |           564 |                5 |         1473199 |                     0 |     116639636 | 2017-02-08 02:19:40.96972+01

 2017-02-08 02:36:49.941057+01 | 1486517809.94106 |                 0 |               4 |                     6 |                    8 |                 14 |           564 |                5 |         1473199 |                     0 |     116775737 | 2017-02-08 02:19:40.96972+01

 2017-02-08 02:36:51.175308+01 | 1486517811.17531 |                 0 |               4 |                     6 |                    8 |                 14 |           564 |                5 |         1473199 |                     0 |     116915264 | 2017-02-08 02:19:40.96972+01

 2017-02-08 02:36:52.384847+01 | 1486517812.38485 |                 0 |               4 |                     6 |                    8 |                 14 |           564 |                5 |         1473199 |                     0 |     117051217 | 2017-02-08 02:19:40.96972+01

 2017-02-08 02:36:53.590661+01 | 1486517813.59066 |                 0 |               4 |                     6 |                    8 |                 14 |           564 |                5 |         1473199 |                     0 |     117185565 | 2017-02-08 02:19:40.96972+01

 2017-02-08 02:36:54.845298+01 | 1486517814.8453 |                 0 |               4 |                     6 |                    8 |                 14 |           564 |                5 |         1473199 |                     0 |     117322837 | 2017-02-08 02:19:40.96972+01

 2017-02-08 02:36:56.078865+01 | 1486517816.07887 |                 0 |               4 |                     6 |                    8 |                 14 |           564 |                5 |         1473199 |                     0 |     117458437 | 2017-02-08 02:19:40.96972+01

 2017-02-08 02:36:57.276033+01 | 1486517817.27603 |                 0 |               4 |                     6 |                    8 |                 14 |           564 |                5 |         1473199 |                     0 |     117595868 | 2017-02-08 02:19:40.96972+01

 2017-02-08 02:36:58.515158+01 | 1486517818.51516 |                 0 |               4 |                     6 |                    8 |                 14 |           564 |                5 |         1473199 |                     0 |     117730192 | 2017-02-08 02:19:40.96972+01

 2017-02-08 02:36:59.702708+01 | 1486517819.70271 |                 0 |               4 |                     6 |                    8 |                 14 |           564 |                5 |         1473199 |                     0 |     117865158 | 2017-02-08 02:19:40.96972+01

 2017-02-08 02:37:00.886362+01 | 1486517820.88636 |                 0 |               4 |                     6 |                    8 |                 14 |           564 |                5 |         1473199 |                     0 |     118000193 | 2017-02-08 02:19:40.96972+01

 2017-02-08 02:37:02.109496+01 | 1486517822.1095 |                 0 |               4 |                     6 |                    8 |                 14 |           564 |                5 |         1473199 |                     0 |     118135623 | 2017-02-08 02:19:40.96972+01

 2017-02-08 02:37:03.328368+01 | 1486517823.32837 |                 0 |               4 |                     6 |                    8 |                 14 |           564 |                5 |         1473199 |                     0 |     118274595 | 2017-02-08 02:19:40.96972+01

 2017-02-08 02:37:04.503228+01 | 1486517824.50323 |                 0 |               4 |                     6 |                    8 |                 14 |           564 |                5 |         1473199 |                     0 |     118410787 | 2017-02-08 02:19:40.96972+01

 2017-02-08 02:37:05.700874+01 | 1486517825.70087 |                 0 |               4 |                     6 |                    8 |                 14 |           564 |                5 |         1473199 |                     0 |     118549274 | 2017-02-08 02:19:40.96972+01

 2017-02-08 02:37:06.946256+01 | 1486517826.94626 |                 0 |               4 |                     6 |                    8 |                 14 |           564 |                5 |         1473199 |                     0 |     118683618 | 2017-02-08 02:19:40.96972+01

 2017-02-08 02:37:08.183868+01 | 1486517828.18387 |                 0 |               4 |                     6 |                    8 |                 14 |           564 |                5 |         1473199 |                     0 |     118820439 | 2017-02-08 02:19:40.96972+01

 2017-02-08 02:37:09.407249+01 | 1486517829.40725 |                 0 |               4 |                     6 |                    8 |                 14 |           564 |                5 |         1473199 |                     0 |     118956697 | 2017-02-08 02:19:40.96972+01

 2017-02-08 02:37:10.643941+01 | 1486517830.64394 |                 0 |               4 |                     6 |                    8 |                 14 |           564 |                5 |         1473199 |                     0 |     119117122 | 2017-02-08 02:19:40.96972+01

 2017-02-08 02:37:11.876126+01 | 1486517831.87613 |                 0 |               4 |                     6 |                    8 |                 14 |           564 |                5 |         1473199 |                     0 |     119229530 | 2017-02-08 02:19:40.96972+01

 2017-02-08 02:37:13.087989+01 | 1486517833.08799 |                 0 |               4 |                     6 |                    8 |                 14 |           564 |                5 |         1473199 |                     0 |     119388726 | 2017-02-08 02:19:40.96972+01

 2017-02-08 02:37:14.336854+01 | 1486517834.33685 |                 0 |               4 |                     6 |                    8 |                 14 |           564 |                5 |         1473199 |                     0 |     119523857 | 2017-02-08 02:19:40.96972+01

 2017-02-08 02:37:15.573374+01 | 1486517835.57337 |                 0 |               4 |                     6 |                    8 |                 14 |           564 |                5 |         1473199 |                     0 |     119659999 | 2017-02-08 02:19:40.96972+01

 2017-02-08 02:37:16.842314+01 | 1486517836.84231 |                 0 |               4 |                     6 |                    8 |                 14 |           564 |                5 |         1473199 |                     0 |     119798556 | 2017-02-08 02:19:40.96972+01

 2017-02-08 02:37:18.079684+01 | 1486517838.07968 |                 0 |               4 |                     6 |                    8 |                 14 |           564 |                5 |         1473199 |                     0 |     119935201 | 2017-02-08 02:19:40.96972+01

 2017-02-08 02:37:19.30001+01 | 1486517839.30001 |                 0 |               4 |                     6 |                    8 |                 14 |           564 |                5 |         1473199 |                     0 |     120094422 | 2017-02-08 02:19:40.96972+01

 2017-02-08 02:37:20.543041+01 | 1486517840.54304 |                 0 |               4 |                     6 |                    8 |                 14 |           564 |                5 |         1473199 |                     0 |     120230705 | 2017-02-08 02:19:40.96972+01

 2017-02-08 02:37:21.777904+01 | 1486517841.7779 |                 0 |               4 |                     6 |                    8 |                 14 |           564 |                5 |         1473199 |                     0 |     120364770 | 2017-02-08 02:19:40.96972+01

 2017-02-08 02:37:22.974869+01 | 1486517842.97487 |                 0 |               4 |                     6 |                    8 |                 14 |           564 |                5 |         1473199 |                     0 |     120501047 | 2017-02-08 02:19:40.96972+01

 2017-02-08 02:37:24.234046+01 | 1486517844.23405 |                 0 |               4 |                     6 |                    8 |                 14 |           564 |                5 |         1473199 |                     0 |     120638454 | 2017-02-08 02:19:40.96972+01

 2017-02-08 02:37:25.444239+01 | 1486517845.44424 |                 0 |               4 |                     6 |                    8 |                 14 |           564 |                5 |         1473199 |                     0 |     120773462 | 2017-02-08 02:19:40.96972+01

 2017-02-08 02:37:26.684311+01 | 1486517846.68431 |                 0 |               4 |                     6 |                    8 |                 14 |           564 |                5 |         1473199 |                     0 |     120911883 | 2017-02-08 02:19:40.96972+01

 2017-02-08 02:37:27.920952+01 | 1486517847.92095 |                 0 |               4 |                     6 |                    8 |                 14 |           564 |                5 |         1473199 |                     0 |     121046940 | 2017-02-08 02:19:40.96972+01

 2017-02-08 02:37:29.133016+01 | 1486517849.13302 |                 0 |               4 |                     6 |                    8 |                 14 |           564 |                5 |         1473199 |                     0 |     121181639 | 2017-02-08 02:19:40.96972+01

 2017-02-08 02:37:30.394774+01 | 1486517850.39477 |                 0 |               4 |                     6 |                    8 |                 14 |           564 |                5 |         1473199 |                     0 |     121343235 | 2017-02-08 02:19:40.96972+01

 2017-02-08 02:37:31.634252+01 | 1486517851.63425 |                 0 |               4 |                     6 |                    8 |                 14 |           564 |                5 |         1473199 |                     0 |     121479224 | 2017-02-08 02:19:40.96972+01

 2017-02-08 02:37:32.888134+01 | 1486517852.88813 |                 0 |               4 |                     6 |                    8 |                 14 |           564 |                5 |         1473199 |                     0 |     121616491 | 2017-02-08 02:19:40.96972+01

 2017-02-08 02:37:34.107753+01 | 1486517854.10775 |                 0 |               4 |                     6 |                    8 |                 14 |           564 |                5 |         1473199 |                     0 |     121751589 | 2017-02-08 02:19:40.96972+01

 2017-02-08 02:37:35.349991+01 | 1486517855.34999 |                 0 |               4 |                     6 |                    8 |                 14 |           564 |                5 |         1473199 |                     0 |     121887133 | 2017-02-08 02:19:40.96972+01

 2017-02-08 02:37:36.576988+01 | 1486517856.57699 |                 0 |               4 |                     6 |                    8 |                 14 |           564 |                5 |         1473199 |                     0 |     122023753 | 2017-02-08 02:19:40.96972+01

 2017-02-08 02:37:37.782919+01 | 1486517857.78292 |                 0 |               4 |                     6 |                    8 |                 14 |           564 |                5 |         1473199 |                     0 |     122158605 | 2017-02-08 02:19:40.96972+01

 2017-02-08 02:37:39.04654+01 | 1486517859.04654 |                 0 |               4 |                     6 |                    8 |                 14 |           564 |                5 |         1473199 |                     0 |     122295985 | 2017-02-08 02:19:40.96972+01

 2017-02-08 02:37:40.261549+01 | 1486517860.26155 |                 0 |               4 |                     6 |                    8 |                 14 |           564 |                5 |         1473199 |                     0 |     122454677 | 2017-02-08 02:19:40.96972+01

 2017-02-08 02:37:41.513658+01 | 1486517861.51366 |                 0 |               4 |                     6 |                    8 |                 14 |           564 |                5 |         1473199 |                     0 |     122591113 | 2017-02-08 02:19:40.96972+01

 2017-02-08 02:37:42.718857+01 | 1486517862.71886 |                 0 |               4 |                     6 |                    8 |                 14 |           564 |                5 |         1473199 |                     0 |     122727240 | 2017-02-08 02:19:40.96972+01

 2017-02-08 02:37:43.974875+01 | 1486517863.97487 |                 0 |               4 |                     6 |                    8 |                 14 |           564 |                5 |         1473199 |                     0 |     122863519 | 2017-02-08 02:19:40.96972+01

 2017-02-08 02:37:45.21502+01 | 1486517865.21502 |                 0 |               4 |                     6 |                    8 |                 14 |           564 |                5 |         1473199 |                     0 |     122999395 | 2017-02-08 02:19:40.96972+01

 2017-02-08 02:37:46.403406+01 | 1486517866.40341 |                 0 |               4 |                     6 |                    8 |                 14 |           564 |                5 |         1473199 |                     0 |     123133882 | 2017-02-08 02:19:40.96972+01

 2017-02-08 02:37:47.654928+01 | 1486517867.65493 |                 0 |               4 |                     6 |                    8 |                 14 |           564 |                5 |         1473199 |                     0 |     123271341 | 2017-02-08 02:19:40.96972+01

 2017-02-08 02:37:48.917509+01 | 1486517868.91751 |                 0 |               4 |                     6 |                    8 |                 14 |           564 |                5 |         1473199 |                     0 |     123408147 | 2017-02-08 02:19:40.96972+01

 2017-02-08 02:37:50.175289+01 | 1486517870.17529 |                 0 |               4 |                     6 |                    8 |                 14 |           564 |                5 |         1473199 |                     0 |     123567872 | 2017-02-08 02:19:40.96972+01

 2017-02-08 02:37:51.398575+01 | 1486517871.39858 |                 0 |               4 |                     6 |                    8 |                 14 |           564 |                5 |         1473199 |                     0 |     123705263 | 2017-02-08 02:19:40.96972+01

 2017-02-08 02:37:52.602136+01 | 1486517872.60214 |                 0 |               4 |                     6 |                    8 |                 14 |           564 |                5 |         1473199 |                     0 |     123840982 | 2017-02-08 02:19:40.96972+01

 2017-02-08 02:37:53.833721+01 | 1486517873.83372 |                 0 |               4 |                     6 |                    8 |                 14 |           564 |                5 |         1473199 |                     0 |     123978163 | 2017-02-08 02:19:40.96972+01

 2017-02-08 02:37:55.066594+01 | 1486517875.06659 |                 0 |               4 |                     6 |                    8 |                 14 |           564 |                5 |         1473199 |                     0 |     124115491 | 2017-02-08 02:19:40.96972+01

 2017-02-08 02:37:56.23298+01 | 1486517876.23298 |                 0 |               4 |                     6 |                    8 |                 14 |           564 |                5 |         1473199 |                     0 |     124252452 | 2017-02-08 02:19:40.96972+01

 2017-02-08 02:37:57.481789+01 | 1486517877.48179 |                 0 |               4 |                     6 |                    8 |                 14 |           564 |                5 |         1473199 |                     0 |     124389803 | 2017-02-08 02:19:40.96972+01

 2017-02-08 02:37:58.722165+01 | 1486517878.72217 |                 0 |               4 |                     6 |                    8 |                 14 |           564 |                5 |         1473199 |                     0 |     124526816 | 2017-02-08 02:19:40.96972+01

 2017-02-08 02:37:59.984741+01 | 1486517879.98474 |                 0 |               4 |                     6 |                    8 |                 14 |           564 |                5 |         1473199 |                     0 |     124664911 | 2017-02-08 02:19:40.96972+01

 2017-02-08 02:38:01.206638+01 | 1486517881.20664 |                 0 |               4 |                     6 |                    8 |                 14 |           564 |                5 |         1473199 |                     0 |     124823396 | 2017-02-08 02:19:40.96972+01

 2017-02-08 02:38:02.42899+01 | 1486517882.42899 |                 0 |               4 |                     6 |                    8 |                 14 |           564 |                5 |         1473199 |                     0 |     124957914 | 2017-02-08 02:19:40.96972+01

 2017-02-08 02:38:03.704085+01 | 1486517883.70409 |                 0 |               4 |                     6 |                    8 |                 14 |           564 |                5 |         1473199 |                     0 |     125094377 | 2017-02-08 02:19:40.96972+01

 2017-02-08 02:38:04.87793+01 | 1486517884.87793 |                 0 |               4 |                     6 |                    8 |                 14 |           564 |                5 |         1473199 |                     0 |     125230961 | 2017-02-08 02:19:40.96972+01

 2017-02-08 02:38:06.156565+01 | 1486517886.15656 |                 0 |               4 |                     6 |                    8 |                 14 |           564 |                5 |         1473199 |                     0 |     125368678 | 2017-02-08 02:19:40.96972+01

 2017-02-08 02:38:07.379104+01 | 1486517887.3791 |                 0 |               4 |                     6 |                    8 |                 14 |           564 |                5 |         1473199 |                     0 |     125505179 | 2017-02-08 02:19:40.96972+01

 2017-02-08 02:38:08.603442+01 | 1486517888.60344 |                 0 |               4 |                     6 |                    8 |                 14 |           564 |                5 |         1473199 |                     0 |     125642664 | 2017-02-08 02:19:40.96972+01

 2017-02-08 02:38:09.828061+01 | 1486517889.82806 |                 0 |               4 |                     6 |                    8 |                 14 |           564 |                5 |         1473199 |                     0 |     125779921 | 2017-02-08 02:19:40.96972+01

 2017-02-08 02:38:11.114466+01 | 1486517891.11447 |                 0 |               4 |                     6 |                    8 |                 14 |           564 |                5 |         1473199 |                     0 |     125916468 | 2017-02-08 02:19:40.96972+01

 2017-02-08 02:38:12.344657+01 | 1486517892.34466 |                 0 |               4 |                     6 |                    8 |                 14 |           564 |                5 |         1473199 |                     0 |     126076655 | 2017-02-08 02:19:40.96972+01

 2017-02-08 02:38:13.5549+01 | 1486517893.5549 |                 0 |               4 |                     6 |                    8 |                 14 |           564 |                5 |         1473199 |                     0 |     126214741 | 2017-02-08 02:19:40.96972+01

 2017-02-08 02:38:14.776204+01 | 1486517894.7762 |                 0 |               4 |                     6 |                    8 |                 14 |           564 |                5 |         1473199 |                     0 |     126351965 | 2017-02-08 02:19:40.96972+01

 2017-02-08 02:38:15.961079+01 | 1486517895.96108 |                 0 |               4 |                     6 |                    8 |                 14 |           564 |                5 |         1473199 |                     0 |     126487319 | 2017-02-08 02:19:40.96972+01

 2017-02-08 02:38:17.172909+01 | 1486517897.17291 |                 0 |               4 |                     6 |                    8 |                 14 |           564 |                5 |         1473199 |                     0 |     126622047 | 2017-02-08 02:19:40.96972+01

 2017-02-08 02:38:18.409557+01 | 1486517898.40956 |                 0 |               4 |                     6 |                    8 |                 14 |           564 |                5 |         1473199 |                     0 |     126758052 | 2017-02-08 02:19:40.96972+01

 2017-02-08 02:38:19.631228+01 | 1486517899.63123 |                 0 |               4 |                     6 |                    8 |                 14 |           564 |                5 |         1473199 |                     0 |     126894512 | 2017-02-08 02:19:40.96972+01

 2017-02-08 02:38:20.869141+01 | 1486517900.86914 |                 0 |               4 |                     6 |                    8 |                 14 |           564 |                5 |         1473199 |                     0 |     127031079 | 2017-02-08 02:19:40.96972+01

 2017-02-08 02:38:22.07864+01 | 1486517902.07864 |                 0 |               4 |                     6 |                    8 |                 14 |           564 |                5 |         1473199 |                     0 |     127166270 | 2017-02-08 02:19:40.96972+01

 2017-02-08 02:38:23.306526+01 | 1486517903.30653 |                 0 |               4 |                     6 |                    8 |                 14 |           564 |                5 |         1473199 |                     0 |     127302461 | 2017-02-08 02:19:40.96972+01

 2017-02-08 02:38:24.451385+01 | 1486517904.45139 |                 0 |               4 |                     6 |                    8 |                 14 |           564 |                5 |         1473199 |                     0 |     127439243 | 2017-02-08 02:19:40.96972+01

 2017-02-08 02:38:25.665333+01 | 1486517905.66533 |                 0 |               4 |                     6 |                    8 |                 14 |           564 |                5 |         1473199 |                     0 |     127575639 | 2017-02-08 02:19:40.96972+01

 2017-02-08 02:38:26.932603+01 | 1486517906.9326 |                 0 |               4 |                     6 |                    8 |                 14 |           564 |                5 |         1473199 |                     0 |     127712115 | 2017-02-08 02:19:40.96972+01

 2017-02-08 02:38:28.08547+01 | 1486517908.08547 |                 0 |               4 |                     6 |                    8 |                 14 |           564 |                5 |         1473199 |                     0 |     127847640 | 2017-02-08 02:19:40.96972+01

 2017-02-08 02:38:29.353647+01 | 1486517909.35365 |                 0 |               4 |                     6 |                    8 |                 14 |           564 |                5 |         1473199 |                     0 |     127983250 | 2017-02-08 02:19:40.96972+01

 2017-02-08 02:38:30.575788+01 | 1486517910.57579 |                 0 |               4 |                     6 |                    8 |                 14 |           564 |                5 |         1473199 |                     0 |     128121258 | 2017-02-08 02:19:40.96972+01

 2017-02-08 02:38:31.838289+01 | 1486517911.83829 |                 0 |               4 |                     6 |                    8 |                 14 |           564 |                5 |         1473199 |                     0 |     128256693 | 2017-02-08 02:19:40.96972+01

 2017-02-08 02:38:33.069722+01 | 1486517913.06972 |                 0 |               4 |                     6 |                    8 |                 14 |           564 |                5 |         1473199 |                     0 |     128416583 | 2017-02-08 02:19:40.96972+01

 2017-02-08 02:38:34.283139+01 | 1486517914.28314 |                 0 |               4 |                     6 |                    8 |                 14 |           564 |                5 |         1473199 |                     0 |     128553221 | 2017-02-08 02:19:40.96972+01

 2017-02-08 02:38:35.505054+01 | 1486517915.50505 |                 0 |               4 |                     6 |                    8 |                 14 |           564 |                5 |         1473199 |                     0 |     128691565 | 2017-02-08 02:19:40.96972+01

 2017-02-08 02:38:36.750622+01 | 1486517916.75062 |                 0 |               4 |                     6 |                    8 |                 14 |           564 |                5 |         1473199 |                     0 |     128828567 | 2017-02-08 02:19:40.96972+01

 2017-02-08 02:38:37.950992+01 | 1486517917.95099 |                 0 |               4 |                     6 |                    8 |                 14 |           564 |                5 |         1473199 |                     0 |     128965008 | 2017-02-08 02:19:40.96972+01

 2017-02-08 02:38:39.168029+01 | 1486517919.16803 |                 0 |               4 |                     6 |                    8 |                 14 |           564 |                5 |         1473199 |                     0 |     129100830 | 2017-02-08 02:19:40.96972+01

 2017-02-08 02:38:40.362721+01 | 1486517920.36272 |                 0 |               4 |                     6 |                    8 |                 14 |           564 |                5 |         1473199 |                     0 |     129237636 | 2017-02-08 02:19:40.96972+01

 2017-02-08 02:38:41.606299+01 | 1486517921.6063 |                 0 |               4 |                     6 |                    8 |                 14 |           564 |                5 |         1473199 |                     0 |     129396709 | 2017-02-08 02:19:40.96972+01

 2017-02-08 02:38:42.822982+01 | 1486517922.82298 |                 0 |               4 |                     6 |                    8 |                 14 |           564 |                5 |         1473199 |                     0 |     129510741 | 2017-02-08 02:19:40.96972+01

 2017-02-08 02:38:44.046085+01 | 1486517924.04608 |                 0 |               4 |                     6 |                    8 |                 14 |           564 |                5 |         1473199 |                     0 |     129647082 | 2017-02-08 02:19:40.96972+01

 2017-02-08 02:38:45.270984+01 | 1486517925.27098 |                 0 |               4 |                     6 |                    8 |                 14 |           564 |                5 |         1473199 |                     0 |     129781866 | 2017-02-08 02:19:40.96972+01

 2017-02-08 02:38:46.477168+01 | 1486517926.47717 |                 0 |               4 |                     6 |                    8 |                 14 |           564 |                5 |         1473199 |                     0 |     129916757 | 2017-02-08 02:19:40.96972+01

 2017-02-08 02:38:47.758247+01 | 1486517927.75825 |                 0 |               4 |                     6 |                    8 |                 14 |           564 |                5 |         1473199 |                     0 |     130053347 | 2017-02-08 02:19:40.96972+01

 2017-02-08 02:38:48.934798+01 | 1486517928.9348 |                 0 |               4 |                     6 |                    8 |                 14 |           564 |                5 |         1473199 |                     0 |     130212478 | 2017-02-08 02:19:40.96972+01

 2017-02-08 02:38:50.197898+01 | 1486517930.1979 |                 0 |               4 |                     6 |                    8 |                 14 |           564 |                5 |         1473199 |                     0 |     130329419 | 2017-02-08 02:19:40.96972+01

 2017-02-08 02:38:51.398819+01 | 1486517931.39882 |                 0 |               4 |                     6 |                    8 |                 14 |           564 |                5 |         1473199 |                     0 |     130489419 | 2017-02-08 02:19:40.96972+01

 2017-02-08 02:38:52.602554+01 | 1486517932.60255 |                 0 |               4 |                     6 |                    8 |                 14 |           564 |                5 |         1473199 |                     0 |     130625632 | 2017-02-08 02:19:40.96972+01

 2017-02-08 02:38:53.832111+01 | 1486517933.83211 |                 0 |               4 |                     6 |                    8 |                 14 |           564 |                5 |         1473199 |                     0 |     130761525 | 2017-02-08 02:19:40.96972+01

 2017-02-08 02:38:55.044751+01 | 1486517935.04475 |                 0 |               4 |                     6 |                    8 |                 14 |           564 |                5 |         1473199 |                     0 |     130898405 | 2017-02-08 02:19:40.96972+01

 2017-02-08 02:38:56.283696+01 | 1486517936.2837 |                 0 |               4 |                     6 |                    8 |                 14 |           564 |                5 |         1473199 |                     0 |     131034389 | 2017-02-08 02:19:40.96972+01

 2017-02-08 02:38:57.496257+01 | 1486517937.49626 |                 0 |               4 |                     6 |                    8 |                 14 |           564 |                5 |         1473199 |                     0 |     131170303 | 2017-02-08 02:19:40.96972+01

 2017-02-08 02:38:58.691623+01 | 1486517938.69162 |                 0 |               4 |                     6 |                    8 |                 14 |           564 |                5 |         1473199 |                     0 |     131305459 | 2017-02-08 02:19:40.96972+01

 2017-02-08 02:38:59.881721+01 | 1486517939.88172 |                 0 |               4 |                     6 |                    8 |                 14 |           564 |                5 |         1473199 |                     0 |     131441134 | 2017-02-08 02:19:40.96972+01

 2017-02-08 02:39:01.07818+01 | 1486517941.07818 |                 0 |               4 |                     6 |                    8 |                 14 |           564 |                5 |         1473199 |                     0 |     131577167 | 2017-02-08 02:19:40.96972+01

 2017-02-08 02:39:02.320036+01 | 1486517942.32004 |                 0 |               4 |                     6 |                    8 |                 14 |           564 |                5 |         1473199 |                     0 |     131713115 | 2017-02-08 02:19:40.96972+01

 2017-02-08 02:39:03.49742+01 | 1486517943.49742 |                 0 |               4 |                     6 |                    8 |                 14 |           564 |                5 |         1473199 |                     0 |     131848682 | 2017-02-08 02:19:40.96972+01

 2017-02-08 02:39:04.748937+01 | 1486517944.74894 |                 0 |               4 |                     6 |                    8 |                 14 |           564 |                5 |         1473199 |                     0 |     131986226 | 2017-02-08 02:19:40.96972+01

 2017-02-08 02:39:05.991957+01 | 1486517945.99196 |                 0 |               4 |                     6 |                    8 |                 14 |           564 |                5 |         1473199 |                     0 |     132119988 | 2017-02-08 02:19:40.96972+01

 2017-02-08 02:39:07.224555+01 | 1486517947.22456 |                 0 |               4 |                     6 |                    8 |                 14 |           564 |                5 |         1473199 |                     0 |     132256814 | 2017-02-08 02:19:40.96972+01

 2017-02-08 02:39:08.490615+01 | 1486517948.49061 |                 0 |               4 |                     6 |                    8 |                 14 |           564 |                5 |         1473199 |                     0 |     132393321 | 2017-02-08 02:19:40.96972+01

 2017-02-08 02:39:09.680764+01 | 1486517949.68076 |                 0 |               4 |                     6 |                    8 |                 14 |           564 |                5 |         1473199 |                     0 |     132529829 | 2017-02-08 02:19:40.96972+01

 2017-02-08 02:39:10.943392+01 | 1486517950.94339 |                 0 |               4 |                     6 |                    8 |                 14 |           564 |                5 |         1473199 |                     0 |     132689148 | 2017-02-08 02:19:40.96972+01

 2017-02-08 02:39:12.181942+01 | 1486517952.18194 |                 0 |               4 |                     6 |                    8 |                 14 |           564 |                5 |         1473199 |                     0 |     132826526 | 2017-02-08 02:19:40.96972+01

 2017-02-08 02:39:13.43971+01 | 1486517953.43971 |                 0 |               4 |                     6 |                    8 |                 14 |           564 |                5 |         1473199 |                     0 |     132963396 | 2017-02-08 02:19:40.96972+01

 2017-02-08 02:39:14.748777+01 | 1486517954.74878 |                 0 |               4 |                     6 |                    8 |                 14 |           564 |                5 |         1473199 |                     0 |     133099245 | 2017-02-08 02:19:40.96972+01

 2017-02-08 02:39:16.014307+01 | 1486517956.01431 |                 0 |               4 |                     6 |                    8 |                 14 |           564 |                5 |         1473199 |                     0 |     133258149 | 2017-02-08 02:19:40.96972+01

 2017-02-08 02:39:17.253999+01 | 1486517957.254 |                 0 |               4 |                     6 |                    8 |                 14 |           564 |                5 |         1473199 |                     0 |     133392456 | 2017-02-08 02:19:40.96972+01

 2017-02-08 02:39:18.504083+01 | 1486517958.50408 |                 0 |               4 |                     6 |                    8 |                 14 |           564 |                5 |         1473199 |                     0 |     133528942 | 2017-02-08 02:19:40.96972+01

 2017-02-08 02:39:19.678146+01 | 1486517959.67815 |                 0 |               4 |                     6 |                    8 |                 14 |           564 |                5 |         1473199 |                     0 |     133668377 | 2017-02-08 02:19:40.96972+01

 2017-02-08 02:39:20.874802+01 | 1486517960.8748 |                 0 |               4 |                     6 |                    8 |                 14 |           564 |                5 |         1473199 |                     0 |     133801548 | 2017-02-08 02:19:40.96972+01

 2017-02-08 02:39:22.183904+01 | 1486517962.1839 |                 0 |               4 |                     6 |                    8 |                 14 |           564 |                5 |         1473199 |                     0 |     133938043 | 2017-02-08 02:19:40.96972+01

 2017-02-08 02:39:23.417467+01 | 1486517963.41747 |                 0 |               4 |                     6 |                    8 |                 14 |           564 |                5 |         1473199 |                     0 |     134075026 | 2017-02-08 02:19:40.96972+01

 2017-02-08 02:39:24.586328+01 | 1486517964.58633 |                 0 |               4 |                     6 |                    8 |                 14 |           564 |                5 |         1473199 |                     0 |     134212030 | 2017-02-08 02:19:40.96972+01

 2017-02-08 02:39:25.761402+01 | 1486517965.7614 |                 0 |               4 |                     6 |                    8 |                 14 |           564 |                5 |         1473199 |                     0 |     134347679 | 2017-02-08 02:19:40.96972+01

 2017-02-08 02:39:26.950199+01 | 1486517966.9502 |                 0 |               4 |                     6 |                    8 |                 14 |           564 |                5 |         1473199 |                     0 |     134482901 | 2017-02-08 02:19:40.96972+01

 2017-02-08 02:39:28.120286+01 | 1486517968.12029 |                 0 |               4 |                     6 |                    8 |                 14 |           564 |                5 |         1473199 |                     0 |     134616838 | 2017-02-08 02:19:40.96972+01

 2017-02-08 02:39:29.322421+01 | 1486517969.32242 |                 0 |               4 |                     6 |                    8 |                 14 |           564 |                5 |         1473199 |                     0 |     134752831 | 2017-02-08 02:19:40.96972+01

 2017-02-08 02:39:30.556932+01 | 1486517970.55693 |                 0 |               4 |                     6 |                    8 |                 14 |           564 |                5 |         1473199 |                     0 |     134888313 | 2017-02-08 02:19:40.96972+01

 2017-02-08 02:39:31.812721+01 | 1486517971.81272 |                 0 |               4 |                     6 |                    8 |                 14 |           564 |                5 |         1473199 |                     0 |     135022541 | 2017-02-08 02:19:40.96972+01

 2017-02-08 02:39:33.015634+01 | 1486517973.01563 |                 0 |               4 |                     6 |                    8 |                 14 |           564 |                5 |         1473199 |                     0 |     135160796 | 2017-02-08 02:19:40.96972+01

 2017-02-08 02:39:34.290377+01 | 1486517974.29038 |                 0 |               4 |                     6 |                    8 |                 14 |           564 |                5 |         1473199 |                     0 |     135296519 | 2017-02-08 02:19:40.96972+01

 2017-02-08 02:39:35.527875+01 | 1486517975.52787 |                 0 |               4 |                     6 |                    8 |                 14 |           564 |                5 |         1473199 |                     0 |     135455118 | 2017-02-08 02:19:40.96972+01

 2017-02-08 02:39:36.804837+01 | 1486517976.80484 |                 0 |               4 |                     6 |                    8 |                 14 |           564 |                5 |         1473199 |                     0 |     135592025 | 2017-02-08 02:19:40.96972+01

 2017-02-08 02:39:37.977662+01 | 1486517977.97766 |                 0 |               4 |                     6 |                    8 |                 14 |           564 |                5 |         1473199 |                     0 |     135728531 | 2017-02-08 02:19:40.96972+01

 2017-02-08 02:39:39.210065+01 | 1486517979.21006 |                 0 |               4 |                     6 |                    8 |                 14 |           564 |                5 |         1473199 |                     0 |     135866475 | 2017-02-08 02:19:40.96972+01

 2017-02-08 02:39:40.419492+01 | 1486517980.41949 |                 0 |               4 |                     6 |                    8 |                 14 |           564 |                5 |         1473199 |                     0 |     136005246 | 2017-02-08 02:19:40.96972+01

 2017-02-08 02:39:41.671221+01 | 1486517981.67122 |                 0 |               4 |                     6 |                    8 |                 14 |           564 |                5 |         1473199 |                     0 |     136141071 | 2017-02-08 02:19:40.96972+01

 2017-02-08 02:39:42.90931+01 | 1486517982.90931 |                 0 |               4 |                     6 |                    8 |                 14 |           564 |                5 |         1473199 |                     0 |     136275889 | 2017-02-08 02:19:40.96972+01

 2017-02-08 02:39:44.173812+01 | 1486517984.17381 |                 0 |               4 |                     6 |                    8 |                 14 |           564 |                5 |         1473199 |                     0 |     136414254 | 2017-02-08 02:19:40.96972+01

 2017-02-08 02:39:45.48383+01 | 1486517985.48383 |                 0 |               4 |                     6 |                    8 |                 14 |           564 |                5 |         1473199 |                     0 |     136574140 | 2017-02-08 02:19:40.96972+01

 2017-02-08 02:39:46.72388+01 | 1486517986.72388 |                 0 |               4 |                     6 |                    8 |                 14 |           564 |                5 |         1473199 |                     0 |     136711376 | 2017-02-08 02:19:40.96972+01

 2017-02-08 02:39:47.938023+01 | 1486517987.93802 |                 0 |               4 |                     6 |                    8 |                 14 |           564 |                5 |         1473199 |                     0 |     136848712 | 2017-02-08 02:19:40.96972+01

 2017-02-08 02:39:49.175487+01 | 1486517989.17549 |                 0 |               4 |                     6 |                    8 |                 14 |           564 |                5 |         1473199 |                     0 |     136985889 | 2017-02-08 02:19:40.96972+01

 2017-02-08 02:39:50.406205+01 | 1486517990.4062 |                 0 |               4 |                     6 |                    8 |                 14 |           564 |                5 |         1473199 |                     0 |     137121082 | 2017-02-08 02:19:40.96972+01

 2017-02-08 02:39:51.638851+01 | 1486517991.63885 |                 0 |               4 |                     6 |                    8 |                 14 |           564 |                5 |         1473199 |                     0 |     137257356 | 2017-02-08 02:19:40.96972+01

 2017-02-08 02:39:52.85236+01 | 1486517992.85236 |                 0 |               4 |                     6 |                    8 |                 14 |           564 |                5 |         1473199 |                     0 |     137415990 | 2017-02-08 02:19:40.96972+01

 2017-02-08 02:39:54.059362+01 | 1486517994.05936 |                 0 |               4 |                     6 |                    8 |                 14 |           564 |                5 |         1473199 |                     0 |     137550212 | 2017-02-08 02:19:40.96972+01

 2017-02-08 02:39:55.258571+01 | 1486517995.25857 |                 0 |               4 |                     6 |                    8 |                 14 |           564 |                5 |         1473199 |                     0 |     137663470 | 2017-02-08 02:19:40.96972+01

 2017-02-08 02:39:56.509138+01 | 1486517996.50914 |                 0 |               4 |                     6 |                    8 |                 14 |           564 |                5 |         1473199 |                     0 |     137819770 | 2017-02-08 02:19:40.96972+01

 2017-02-08 02:39:57.754877+01 | 1486517997.75488 |                 0 |               4 |                     6 |                    8 |                 14 |           564 |                5 |         1473199 |                     0 |     137955268 | 2017-02-08 02:19:40.96972+01

 2017-02-08 02:39:58.972226+01 | 1486517998.97223 |                 0 |               4 |                     6 |                    8 |                 14 |           564 |                5 |         1473199 |                     0 |     138090894 | 2017-02-08 02:19:40.96972+01

 2017-02-08 02:40:00.189606+01 | 1486518000.18961 |                 0 |               4 |                     6 |                    8 |                 14 |           564 |                5 |         1473199 |                     0 |     138227277 | 2017-02-08 02:19:40.96972+01

 2017-02-08 02:40:01.394029+01 | 1486518001.39403 |                 0 |               4 |                     6 |                    8 |                 14 |           564 |                5 |         1473199 |                     0 |     138361952 | 2017-02-08 02:19:40.96972+01

 2017-02-08 02:40:02.582338+01 | 1486518002.58234 |                 0 |               4 |                     6 |                    8 |                 14 |           564 |                5 |         1473199 |                     0 |     138497159 | 2017-02-08 02:19:40.96972+01

 2017-02-08 02:40:03.810693+01 | 1486518003.81069 |                 0 |               4 |                     6 |                    8 |                 14 |           564 |                5 |         1473199 |                     0 |     138634210 | 2017-02-08 02:19:40.96972+01

 2017-02-08 02:40:05.066621+01 | 1486518005.06662 |                 0 |               4 |                     6 |                    8 |                 14 |           564 |                5 |         1473199 |                     0 |     138770998 | 2017-02-08 02:19:40.96972+01

 2017-02-08 02:40:06.375922+01 | 1486518006.37592 |                 0 |               4 |                     6 |                    8 |                 14 |           564 |                5 |         1473199 |                     0 |     138906354 | 2017-02-08 02:19:40.96972+01

 2017-02-08 02:40:07.596637+01 | 1486518007.59664 |                 0 |               4 |                     6 |                    8 |                 14 |           564 |                5 |         1473199 |                     0 |     139065349 | 2017-02-08 02:19:40.96972+01

 2017-02-08 02:40:08.865131+01 | 1486518008.86513 |                 0 |               4 |                     6 |                    8 |                 14 |           564 |                5 |         1473199 |                     0 |     139201520 | 2017-02-08 02:19:40.96972+01

 2017-02-08 02:40:10.107067+01 | 1486518010.10707 |                 0 |               4 |                     6 |                    8 |                 14 |           564 |                5 |         1473199 |                     0 |     139339344 | 2017-02-08 02:19:40.96972+01

 2017-02-08 02:40:11.345857+01 | 1486518011.34586 |                 0 |               4 |                     6 |                    8 |                 14 |           564 |                5 |         1473199 |                     0 |     139478192 | 2017-02-08 02:19:40.96972+01

 2017-02-08 02:40:12.511719+01 | 1486518012.51172 |                 0 |               4 |                     6 |                    8 |                 14 |           564 |                5 |         1473199 |                     0 |     139615941 | 2017-02-08 02:19:40.96972+01

 2017-02-08 02:40:13.751251+01 | 1486518013.75125 |                 0 |               4 |                     6 |                    8 |                 14 |           564 |                5 |         1473199 |                     0 |     139751405 | 2017-02-08 02:19:40.96972+01

 2017-02-08 02:40:15.052251+01 | 1486518015.05225 |                 0 |               4 |                     6 |                    8 |                 14 |           564 |                5 |         1473199 |                     0 |     139911879 | 2017-02-08 02:19:40.96972+01

 2017-02-08 02:40:16.300597+01 | 1486518016.3006 |                 0 |               4 |                     6 |                    8 |                 14 |           564 |                5 |         1473199 |                     0 |     140049898 | 2017-02-08 02:19:40.96972+01

 2017-02-08 02:40:17.54973+01 | 1486518017.54973 |                 0 |               4 |                     6 |                    8 |                 14 |           564 |                5 |         1473199 |                     0 |     140185431 | 2017-02-08 02:19:40.96972+01

 2017-02-08 02:40:18.7862+01 | 1486518018.7862 |                 0 |               4 |                     6 |                    8 |                 14 |           564 |                5 |         1473199 |                     0 |     140322381 | 2017-02-08 02:19:40.96972+01

 2017-02-08 02:40:20.0645+01 | 1486518020.0645 |                 0 |               4 |                     6 |                    8 |                 14 |           564 |                5 |         1473199 |                     0 |     140460480 | 2017-02-08 02:19:40.96972+01

 2017-02-08 02:40:21.313633+01 | 1486518021.31363 |                 0 |               4 |                     6 |                    8 |                 14 |           564 |                5 |         1473199 |                     0 |     140620935 | 2017-02-08 02:19:40.96972+01

 2017-02-08 02:40:22.537321+01 | 1486518022.53732 |                 0 |               4 |                     6 |                    8 |                 14 |           564 |                5 |         1473199 |                     0 |     140758134 | 2017-02-08 02:19:40.96972+01

 2017-02-08 02:40:23.721233+01 | 1486518023.72123 |                 0 |               4 |                     6 |                    8 |                 14 |           564 |                5 |         1473199 |                     0 |     140895059 | 2017-02-08 02:19:40.96972+01

 2017-02-08 02:40:24.89715+01 | 1486518024.89715 |                 0 |               4 |                     6 |                    8 |                 14 |           564 |                5 |         1473199 |                     0 |     141031108 | 2017-02-08 02:19:40.96972+01

 2017-02-08 02:40:26.112025+01 | 1486518026.11203 |                 0 |               4 |                     6 |                    8 |                 14 |           564 |                5 |         1473199 |                     0 |     141142806 | 2017-02-08 02:19:40.96972+01

 2017-02-08 02:40:27.35866+01 | 1486518027.35866 |                 0 |               4 |                     6 |                    8 |                 14 |           564 |                5 |         1473199 |                     0 |     141299987 | 2017-02-08 02:19:40.96972+01

 2017-02-08 02:40:28.58191+01 | 1486518028.58191 |                 0 |               4 |                     6 |                    8 |                 14 |           564 |                5 |         1473199 |                     0 |     141437699 | 2017-02-08 02:19:40.96972+01

 2017-02-08 02:40:29.807247+01 | 1486518029.80725 |                 0 |               4 |                     6 |                    8 |                 14 |           564 |                5 |         1473199 |                     0 |     141571479 | 2017-02-08 02:19:40.96972+01

 2017-02-08 02:40:30.980671+01 | 1486518030.98067 |                 0 |               4 |                     6 |                    8 |                 14 |           564 |                5 |         1473199 |                     0 |     141706946 | 2017-02-08 02:19:40.96972+01

