 2017-02-08 16:05:31.500767+01 | 1486566331.50077 | pgbench_branches_pkey |            57344
 2017-02-08 16:05:31.500767+01 | 1486566331.50077 | pgbench_tellers_pkey  |           253952
 2017-02-08 16:05:31.500767+01 | 1486566331.50077 | pgbench_accounts_pkey |        112336896

 2017-02-08 16:05:32.597182+01 | 1486566332.59718 | pgbench_branches_pkey |            57344
 2017-02-08 16:05:32.597182+01 | 1486566332.59718 | pgbench_tellers_pkey  |           253952
 2017-02-08 16:05:32.597182+01 | 1486566332.59718 | pgbench_accounts_pkey |        112336896

 2017-02-08 16:05:33.722564+01 | 1486566333.72256 | pgbench_branches_pkey |            57344
 2017-02-08 16:05:33.722564+01 | 1486566333.72256 | pgbench_tellers_pkey  |           253952
 2017-02-08 16:05:33.722564+01 | 1486566333.72256 | pgbench_accounts_pkey |        112336896

 2017-02-08 16:05:34.814804+01 | 1486566334.8148 | pgbench_branches_pkey |            57344
 2017-02-08 16:05:34.814804+01 | 1486566334.8148 | pgbench_tellers_pkey  |           253952
 2017-02-08 16:05:34.814804+01 | 1486566334.8148 | pgbench_accounts_pkey |        112336896

 2017-02-08 16:05:35.93667+01 | 1486566335.93667 | pgbench_branches_pkey |            57344
 2017-02-08 16:05:35.93667+01 | 1486566335.93667 | pgbench_tellers_pkey  |           253952
 2017-02-08 16:05:35.93667+01 | 1486566335.93667 | pgbench_accounts_pkey |        112336896

 2017-02-08 16:05:37.037599+01 | 1486566337.0376 | pgbench_branches_pkey |            57344
 2017-02-08 16:05:37.037599+01 | 1486566337.0376 | pgbench_tellers_pkey  |           253952
 2017-02-08 16:05:37.037599+01 | 1486566337.0376 | pgbench_accounts_pkey |        112336896

 2017-02-08 16:05:38.140953+01 | 1486566338.14095 | pgbench_branches_pkey |            57344
 2017-02-08 16:05:38.140953+01 | 1486566338.14095 | pgbench_tellers_pkey  |           253952
 2017-02-08 16:05:38.140953+01 | 1486566338.14095 | pgbench_accounts_pkey |        112336896

 2017-02-08 16:05:39.242624+01 | 1486566339.24262 | pgbench_branches_pkey |            57344
 2017-02-08 16:05:39.242624+01 | 1486566339.24262 | pgbench_tellers_pkey  |           253952
 2017-02-08 16:05:39.242624+01 | 1486566339.24262 | pgbench_accounts_pkey |        112336896

 2017-02-08 16:05:40.337495+01 | 1486566340.3375 | pgbench_branches_pkey |            57344
 2017-02-08 16:05:40.337495+01 | 1486566340.3375 | pgbench_tellers_pkey  |           253952
 2017-02-08 16:05:40.337495+01 | 1486566340.3375 | pgbench_accounts_pkey |        112336896

 2017-02-08 16:05:41.450179+01 | 1486566341.45018 | pgbench_branches_pkey |            57344
 2017-02-08 16:05:41.450179+01 | 1486566341.45018 | pgbench_tellers_pkey  |           253952
 2017-02-08 16:05:41.450179+01 | 1486566341.45018 | pgbench_accounts_pkey |        112336896

 2017-02-08 16:05:42.549378+01 | 1486566342.54938 | pgbench_branches_pkey |            57344
 2017-02-08 16:05:42.549378+01 | 1486566342.54938 | pgbench_tellers_pkey  |           253952
 2017-02-08 16:05:42.549378+01 | 1486566342.54938 | pgbench_accounts_pkey |        112336896

 2017-02-08 16:05:43.654915+01 | 1486566343.65492 | pgbench_branches_pkey |            57344
 2017-02-08 16:05:43.654915+01 | 1486566343.65492 | pgbench_tellers_pkey  |           253952
 2017-02-08 16:05:43.654915+01 | 1486566343.65492 | pgbench_accounts_pkey |        112336896

 2017-02-08 16:05:44.766525+01 | 1486566344.76653 | pgbench_branches_pkey |            57344
 2017-02-08 16:05:44.766525+01 | 1486566344.76653 | pgbench_tellers_pkey  |           253952
 2017-02-08 16:05:44.766525+01 | 1486566344.76653 | pgbench_accounts_pkey |        112336896

 2017-02-08 16:05:45.864261+01 | 1486566345.86426 | pgbench_branches_pkey |            57344
 2017-02-08 16:05:45.864261+01 | 1486566345.86426 | pgbench_tellers_pkey  |           253952
 2017-02-08 16:05:45.864261+01 | 1486566345.86426 | pgbench_accounts_pkey |        112336896

 2017-02-08 16:05:46.96795+01 | 1486566346.96795 | pgbench_branches_pkey |            57344
 2017-02-08 16:05:46.96795+01 | 1486566346.96795 | pgbench_tellers_pkey  |           253952
 2017-02-08 16:05:46.96795+01 | 1486566346.96795 | pgbench_accounts_pkey |        112336896

 2017-02-08 16:05:48.096832+01 | 1486566348.09683 | pgbench_branches_pkey |            57344
 2017-02-08 16:05:48.096832+01 | 1486566348.09683 | pgbench_tellers_pkey  |           253952
 2017-02-08 16:05:48.096832+01 | 1486566348.09683 | pgbench_accounts_pkey |        112336896

 2017-02-08 16:05:49.188954+01 | 1486566349.18895 | pgbench_branches_pkey |            57344
 2017-02-08 16:05:49.188954+01 | 1486566349.18895 | pgbench_tellers_pkey  |           253952
 2017-02-08 16:05:49.188954+01 | 1486566349.18895 | pgbench_accounts_pkey |        112336896

 2017-02-08 16:05:50.298929+01 | 1486566350.29893 | pgbench_branches_pkey |            57344
 2017-02-08 16:05:50.298929+01 | 1486566350.29893 | pgbench_tellers_pkey  |           253952
 2017-02-08 16:05:50.298929+01 | 1486566350.29893 | pgbench_accounts_pkey |        112336896

 2017-02-08 16:05:51.379095+01 | 1486566351.3791 | pgbench_branches_pkey |            57344
 2017-02-08 16:05:51.379095+01 | 1486566351.3791 | pgbench_tellers_pkey  |           253952
 2017-02-08 16:05:51.379095+01 | 1486566351.3791 | pgbench_accounts_pkey |        112336896

 2017-02-08 16:05:52.507803+01 | 1486566352.5078 | pgbench_branches_pkey |            57344
 2017-02-08 16:05:52.507803+01 | 1486566352.5078 | pgbench_tellers_pkey  |           253952
 2017-02-08 16:05:52.507803+01 | 1486566352.5078 | pgbench_accounts_pkey |        112336896

 2017-02-08 16:05:53.690054+01 | 1486566353.69005 | pgbench_branches_pkey |            57344
 2017-02-08 16:05:53.690054+01 | 1486566353.69005 | pgbench_tellers_pkey  |           253952
 2017-02-08 16:05:53.690054+01 | 1486566353.69005 | pgbench_accounts_pkey |        112336896

 2017-02-08 16:05:54.797625+01 | 1486566354.79763 | pgbench_branches_pkey |            57344
 2017-02-08 16:05:54.797625+01 | 1486566354.79763 | pgbench_tellers_pkey  |           253952
 2017-02-08 16:05:54.797625+01 | 1486566354.79763 | pgbench_accounts_pkey |        112336896

 2017-02-08 16:05:55.915136+01 | 1486566355.91514 | pgbench_branches_pkey |            57344
 2017-02-08 16:05:55.915136+01 | 1486566355.91514 | pgbench_tellers_pkey  |           253952
 2017-02-08 16:05:55.915136+01 | 1486566355.91514 | pgbench_accounts_pkey |        112336896

 2017-02-08 16:05:57.016861+01 | 1486566357.01686 | pgbench_branches_pkey |            57344
 2017-02-08 16:05:57.016861+01 | 1486566357.01686 | pgbench_tellers_pkey  |           253952
 2017-02-08 16:05:57.016861+01 | 1486566357.01686 | pgbench_accounts_pkey |        112336896

 2017-02-08 16:05:58.127049+01 | 1486566358.12705 | pgbench_branches_pkey |            57344
 2017-02-08 16:05:58.127049+01 | 1486566358.12705 | pgbench_tellers_pkey  |           253952
 2017-02-08 16:05:58.127049+01 | 1486566358.12705 | pgbench_accounts_pkey |        112336896

 2017-02-08 16:05:59.228183+01 | 1486566359.22818 | pgbench_branches_pkey |            57344
 2017-02-08 16:05:59.228183+01 | 1486566359.22818 | pgbench_tellers_pkey  |           253952
 2017-02-08 16:05:59.228183+01 | 1486566359.22818 | pgbench_accounts_pkey |        112336896

 2017-02-08 16:06:00.328274+01 | 1486566360.32827 | pgbench_branches_pkey |            57344
 2017-02-08 16:06:00.328274+01 | 1486566360.32827 | pgbench_tellers_pkey  |           253952
 2017-02-08 16:06:00.328274+01 | 1486566360.32827 | pgbench_accounts_pkey |        112336896

 2017-02-08 16:06:01.435003+01 | 1486566361.435 | pgbench_branches_pkey |            57344
 2017-02-08 16:06:01.435003+01 | 1486566361.435 | pgbench_tellers_pkey  |           253952
 2017-02-08 16:06:01.435003+01 | 1486566361.435 | pgbench_accounts_pkey |        112336896

 2017-02-08 16:06:02.530161+01 | 1486566362.53016 | pgbench_branches_pkey |            57344
 2017-02-08 16:06:02.530161+01 | 1486566362.53016 | pgbench_tellers_pkey  |           253952
 2017-02-08 16:06:02.530161+01 | 1486566362.53016 | pgbench_accounts_pkey |        112336896

 2017-02-08 16:06:03.652307+01 | 1486566363.65231 | pgbench_branches_pkey |            57344
 2017-02-08 16:06:03.652307+01 | 1486566363.65231 | pgbench_tellers_pkey  |           253952
 2017-02-08 16:06:03.652307+01 | 1486566363.65231 | pgbench_accounts_pkey |        112336896

 2017-02-08 16:06:04.739027+01 | 1486566364.73903 | pgbench_branches_pkey |            57344
 2017-02-08 16:06:04.739027+01 | 1486566364.73903 | pgbench_tellers_pkey  |           253952
 2017-02-08 16:06:04.739027+01 | 1486566364.73903 | pgbench_accounts_pkey |        112336896

 2017-02-08 16:06:05.862806+01 | 1486566365.86281 | pgbench_branches_pkey |            57344
 2017-02-08 16:06:05.862806+01 | 1486566365.86281 | pgbench_tellers_pkey  |           253952
 2017-02-08 16:06:05.862806+01 | 1486566365.86281 | pgbench_accounts_pkey |        112336896

 2017-02-08 16:06:06.978886+01 | 1486566366.97889 | pgbench_branches_pkey |            57344
 2017-02-08 16:06:06.978886+01 | 1486566366.97889 | pgbench_tellers_pkey  |           253952
 2017-02-08 16:06:06.978886+01 | 1486566366.97889 | pgbench_accounts_pkey |        112336896

 2017-02-08 16:06:08.115209+01 | 1486566368.11521 | pgbench_branches_pkey |            57344
 2017-02-08 16:06:08.115209+01 | 1486566368.11521 | pgbench_tellers_pkey  |           253952
 2017-02-08 16:06:08.115209+01 | 1486566368.11521 | pgbench_accounts_pkey |        112336896

 2017-02-08 16:06:09.220734+01 | 1486566369.22073 | pgbench_branches_pkey |            57344
 2017-02-08 16:06:09.220734+01 | 1486566369.22073 | pgbench_tellers_pkey  |           253952
 2017-02-08 16:06:09.220734+01 | 1486566369.22073 | pgbench_accounts_pkey |        112336896

 2017-02-08 16:06:10.360591+01 | 1486566370.36059 | pgbench_branches_pkey |            57344
 2017-02-08 16:06:10.360591+01 | 1486566370.36059 | pgbench_tellers_pkey  |           253952
 2017-02-08 16:06:10.360591+01 | 1486566370.36059 | pgbench_accounts_pkey |        112336896

 2017-02-08 16:06:11.470159+01 | 1486566371.47016 | pgbench_branches_pkey |            57344
 2017-02-08 16:06:11.470159+01 | 1486566371.47016 | pgbench_tellers_pkey  |           253952
 2017-02-08 16:06:11.470159+01 | 1486566371.47016 | pgbench_accounts_pkey |        112336896

 2017-02-08 16:06:12.583059+01 | 1486566372.58306 | pgbench_branches_pkey |            57344
 2017-02-08 16:06:12.583059+01 | 1486566372.58306 | pgbench_tellers_pkey  |           253952
 2017-02-08 16:06:12.583059+01 | 1486566372.58306 | pgbench_accounts_pkey |        112336896

 2017-02-08 16:06:13.68117+01 | 1486566373.68117 | pgbench_branches_pkey |            57344
 2017-02-08 16:06:13.68117+01 | 1486566373.68117 | pgbench_tellers_pkey  |           253952
 2017-02-08 16:06:13.68117+01 | 1486566373.68117 | pgbench_accounts_pkey |        112336896

 2017-02-08 16:06:14.778263+01 | 1486566374.77826 | pgbench_branches_pkey |            57344
 2017-02-08 16:06:14.778263+01 | 1486566374.77826 | pgbench_tellers_pkey  |           253952
 2017-02-08 16:06:14.778263+01 | 1486566374.77826 | pgbench_accounts_pkey |        112336896

 2017-02-08 16:06:15.877969+01 | 1486566375.87797 | pgbench_branches_pkey |            57344
 2017-02-08 16:06:15.877969+01 | 1486566375.87797 | pgbench_tellers_pkey  |           253952
 2017-02-08 16:06:15.877969+01 | 1486566375.87797 | pgbench_accounts_pkey |        112336896

 2017-02-08 16:06:17.000135+01 | 1486566377.00013 | pgbench_branches_pkey |            57344
 2017-02-08 16:06:17.000135+01 | 1486566377.00013 | pgbench_tellers_pkey  |           253952
 2017-02-08 16:06:17.000135+01 | 1486566377.00013 | pgbench_accounts_pkey |        112336896

 2017-02-08 16:06:18.131329+01 | 1486566378.13133 | pgbench_branches_pkey |            57344
 2017-02-08 16:06:18.131329+01 | 1486566378.13133 | pgbench_tellers_pkey  |           253952
 2017-02-08 16:06:18.131329+01 | 1486566378.13133 | pgbench_accounts_pkey |        112336896

 2017-02-08 16:06:19.245742+01 | 1486566379.24574 | pgbench_branches_pkey |            57344
 2017-02-08 16:06:19.245742+01 | 1486566379.24574 | pgbench_tellers_pkey  |           253952
 2017-02-08 16:06:19.245742+01 | 1486566379.24574 | pgbench_accounts_pkey |        112336896

 2017-02-08 16:06:20.386466+01 | 1486566380.38647 | pgbench_branches_pkey |            57344
 2017-02-08 16:06:20.386466+01 | 1486566380.38647 | pgbench_tellers_pkey  |           253952
 2017-02-08 16:06:20.386466+01 | 1486566380.38647 | pgbench_accounts_pkey |        112336896

 2017-02-08 16:06:21.483797+01 | 1486566381.4838 | pgbench_branches_pkey |            57344
 2017-02-08 16:06:21.483797+01 | 1486566381.4838 | pgbench_tellers_pkey  |           253952
 2017-02-08 16:06:21.483797+01 | 1486566381.4838 | pgbench_accounts_pkey |        112336896

 2017-02-08 16:06:22.574612+01 | 1486566382.57461 | pgbench_branches_pkey |            57344
 2017-02-08 16:06:22.574612+01 | 1486566382.57461 | pgbench_tellers_pkey  |           253952
 2017-02-08 16:06:22.574612+01 | 1486566382.57461 | pgbench_accounts_pkey |        112336896

 2017-02-08 16:06:23.702593+01 | 1486566383.70259 | pgbench_branches_pkey |            57344
 2017-02-08 16:06:23.702593+01 | 1486566383.70259 | pgbench_tellers_pkey  |           253952
 2017-02-08 16:06:23.702593+01 | 1486566383.70259 | pgbench_accounts_pkey |        112336896

 2017-02-08 16:06:24.825654+01 | 1486566384.82565 | pgbench_branches_pkey |            57344
 2017-02-08 16:06:24.825654+01 | 1486566384.82565 | pgbench_tellers_pkey  |           253952
 2017-02-08 16:06:24.825654+01 | 1486566384.82565 | pgbench_accounts_pkey |        112336896

 2017-02-08 16:06:25.936409+01 | 1486566385.93641 | pgbench_branches_pkey |            57344
 2017-02-08 16:06:25.936409+01 | 1486566385.93641 | pgbench_tellers_pkey  |           253952
 2017-02-08 16:06:25.936409+01 | 1486566385.93641 | pgbench_accounts_pkey |        112336896

 2017-02-08 16:06:27.047168+01 | 1486566387.04717 | pgbench_branches_pkey |            57344
 2017-02-08 16:06:27.047168+01 | 1486566387.04717 | pgbench_tellers_pkey  |           253952
 2017-02-08 16:06:27.047168+01 | 1486566387.04717 | pgbench_accounts_pkey |        112336896

 2017-02-08 16:06:28.150421+01 | 1486566388.15042 | pgbench_branches_pkey |            57344
 2017-02-08 16:06:28.150421+01 | 1486566388.15042 | pgbench_tellers_pkey  |           253952
 2017-02-08 16:06:28.150421+01 | 1486566388.15042 | pgbench_accounts_pkey |        112336896

 2017-02-08 16:06:29.264548+01 | 1486566389.26455 | pgbench_branches_pkey |            57344
 2017-02-08 16:06:29.264548+01 | 1486566389.26455 | pgbench_tellers_pkey  |           253952
 2017-02-08 16:06:29.264548+01 | 1486566389.26455 | pgbench_accounts_pkey |        112336896

 2017-02-08 16:06:30.360147+01 | 1486566390.36015 | pgbench_branches_pkey |            57344
 2017-02-08 16:06:30.360147+01 | 1486566390.36015 | pgbench_tellers_pkey  |           253952
 2017-02-08 16:06:30.360147+01 | 1486566390.36015 | pgbench_accounts_pkey |        112336896

 2017-02-08 16:06:31.4697+01 | 1486566391.4697 | pgbench_branches_pkey |            57344
 2017-02-08 16:06:31.4697+01 | 1486566391.4697 | pgbench_tellers_pkey  |           253952
 2017-02-08 16:06:31.4697+01 | 1486566391.4697 | pgbench_accounts_pkey |        112336896

 2017-02-08 16:06:32.580138+01 | 1486566392.58014 | pgbench_branches_pkey |            57344
 2017-02-08 16:06:32.580138+01 | 1486566392.58014 | pgbench_tellers_pkey  |           253952
 2017-02-08 16:06:32.580138+01 | 1486566392.58014 | pgbench_accounts_pkey |        112336896

 2017-02-08 16:06:33.713462+01 | 1486566393.71346 | pgbench_branches_pkey |            57344
 2017-02-08 16:06:33.713462+01 | 1486566393.71346 | pgbench_tellers_pkey  |           253952
 2017-02-08 16:06:33.713462+01 | 1486566393.71346 | pgbench_accounts_pkey |        112336896

 2017-02-08 16:06:34.840644+01 | 1486566394.84064 | pgbench_branches_pkey |            57344
 2017-02-08 16:06:34.840644+01 | 1486566394.84064 | pgbench_tellers_pkey  |           253952
 2017-02-08 16:06:34.840644+01 | 1486566394.84064 | pgbench_accounts_pkey |        112336896

 2017-02-08 16:06:35.975729+01 | 1486566395.97573 | pgbench_branches_pkey |            57344
 2017-02-08 16:06:35.975729+01 | 1486566395.97573 | pgbench_tellers_pkey  |           253952
 2017-02-08 16:06:35.975729+01 | 1486566395.97573 | pgbench_accounts_pkey |        112336896

 2017-02-08 16:06:37.058366+01 | 1486566397.05837 | pgbench_branches_pkey |            57344
 2017-02-08 16:06:37.058366+01 | 1486566397.05837 | pgbench_tellers_pkey  |           253952
 2017-02-08 16:06:37.058366+01 | 1486566397.05837 | pgbench_accounts_pkey |        112336896

 2017-02-08 16:06:38.128229+01 | 1486566398.12823 | pgbench_branches_pkey |            57344
 2017-02-08 16:06:38.128229+01 | 1486566398.12823 | pgbench_tellers_pkey  |           253952
 2017-02-08 16:06:38.128229+01 | 1486566398.12823 | pgbench_accounts_pkey |        112336896

 2017-02-08 16:06:39.25191+01 | 1486566399.25191 | pgbench_branches_pkey |            57344
 2017-02-08 16:06:39.25191+01 | 1486566399.25191 | pgbench_tellers_pkey  |           253952
 2017-02-08 16:06:39.25191+01 | 1486566399.25191 | pgbench_accounts_pkey |        112336896

 2017-02-08 16:06:40.365637+01 | 1486566400.36564 | pgbench_branches_pkey |            57344
 2017-02-08 16:06:40.365637+01 | 1486566400.36564 | pgbench_tellers_pkey  |           253952
 2017-02-08 16:06:40.365637+01 | 1486566400.36564 | pgbench_accounts_pkey |        112336896

 2017-02-08 16:06:41.46585+01 | 1486566401.46585 | pgbench_branches_pkey |            57344
 2017-02-08 16:06:41.46585+01 | 1486566401.46585 | pgbench_tellers_pkey  |           253952
 2017-02-08 16:06:41.46585+01 | 1486566401.46585 | pgbench_accounts_pkey |        112336896

 2017-02-08 16:06:42.573232+01 | 1486566402.57323 | pgbench_branches_pkey |            57344
 2017-02-08 16:06:42.573232+01 | 1486566402.57323 | pgbench_tellers_pkey  |           253952
 2017-02-08 16:06:42.573232+01 | 1486566402.57323 | pgbench_accounts_pkey |        112336896

 2017-02-08 16:06:43.700781+01 | 1486566403.70078 | pgbench_branches_pkey |            57344
 2017-02-08 16:06:43.700781+01 | 1486566403.70078 | pgbench_tellers_pkey  |           253952
 2017-02-08 16:06:43.700781+01 | 1486566403.70078 | pgbench_accounts_pkey |        112336896

 2017-02-08 16:06:44.801674+01 | 1486566404.80167 | pgbench_branches_pkey |            57344
 2017-02-08 16:06:44.801674+01 | 1486566404.80167 | pgbench_tellers_pkey  |           253952
 2017-02-08 16:06:44.801674+01 | 1486566404.80167 | pgbench_accounts_pkey |        112336896

 2017-02-08 16:06:45.908978+01 | 1486566405.90898 | pgbench_branches_pkey |            57344
 2017-02-08 16:06:45.908978+01 | 1486566405.90898 | pgbench_tellers_pkey  |           253952
 2017-02-08 16:06:45.908978+01 | 1486566405.90898 | pgbench_accounts_pkey |        112336896

 2017-02-08 16:06:47.002518+01 | 1486566407.00252 | pgbench_branches_pkey |            57344
 2017-02-08 16:06:47.002518+01 | 1486566407.00252 | pgbench_tellers_pkey  |           253952
 2017-02-08 16:06:47.002518+01 | 1486566407.00252 | pgbench_accounts_pkey |        112336896

 2017-02-08 16:06:48.108534+01 | 1486566408.10853 | pgbench_branches_pkey |            57344
 2017-02-08 16:06:48.108534+01 | 1486566408.10853 | pgbench_tellers_pkey  |           253952
 2017-02-08 16:06:48.108534+01 | 1486566408.10853 | pgbench_accounts_pkey |        112336896

 2017-02-08 16:06:49.219844+01 | 1486566409.21984 | pgbench_branches_pkey |            57344
 2017-02-08 16:06:49.219844+01 | 1486566409.21984 | pgbench_tellers_pkey  |           253952
 2017-02-08 16:06:49.219844+01 | 1486566409.21984 | pgbench_accounts_pkey |        112336896

 2017-02-08 16:06:50.317386+01 | 1486566410.31739 | pgbench_branches_pkey |            57344
 2017-02-08 16:06:50.317386+01 | 1486566410.31739 | pgbench_tellers_pkey  |           253952
 2017-02-08 16:06:50.317386+01 | 1486566410.31739 | pgbench_accounts_pkey |        112336896

 2017-02-08 16:06:51.403337+01 | 1486566411.40334 | pgbench_branches_pkey |            57344
 2017-02-08 16:06:51.403337+01 | 1486566411.40334 | pgbench_tellers_pkey  |           253952
 2017-02-08 16:06:51.403337+01 | 1486566411.40334 | pgbench_accounts_pkey |        112336896

 2017-02-08 16:06:52.50291+01 | 1486566412.50291 | pgbench_branches_pkey |            57344
 2017-02-08 16:06:52.50291+01 | 1486566412.50291 | pgbench_tellers_pkey  |           253952
 2017-02-08 16:06:52.50291+01 | 1486566412.50291 | pgbench_accounts_pkey |        112336896

 2017-02-08 16:06:53.611331+01 | 1486566413.61133 | pgbench_branches_pkey |            57344
 2017-02-08 16:06:53.611331+01 | 1486566413.61133 | pgbench_tellers_pkey  |           253952
 2017-02-08 16:06:53.611331+01 | 1486566413.61133 | pgbench_accounts_pkey |        112336896

 2017-02-08 16:06:54.704605+01 | 1486566414.70461 | pgbench_branches_pkey |            57344
 2017-02-08 16:06:54.704605+01 | 1486566414.70461 | pgbench_tellers_pkey  |           253952
 2017-02-08 16:06:54.704605+01 | 1486566414.70461 | pgbench_accounts_pkey |        112336896

 2017-02-08 16:06:55.823838+01 | 1486566415.82384 | pgbench_branches_pkey |            57344
 2017-02-08 16:06:55.823838+01 | 1486566415.82384 | pgbench_tellers_pkey  |           253952
 2017-02-08 16:06:55.823838+01 | 1486566415.82384 | pgbench_accounts_pkey |        112336896

 2017-02-08 16:06:56.933135+01 | 1486566416.93314 | pgbench_branches_pkey |            57344
 2017-02-08 16:06:56.933135+01 | 1486566416.93314 | pgbench_tellers_pkey  |           253952
 2017-02-08 16:06:56.933135+01 | 1486566416.93314 | pgbench_accounts_pkey |        112336896

 2017-02-08 16:06:58.054851+01 | 1486566418.05485 | pgbench_branches_pkey |            57344
 2017-02-08 16:06:58.054851+01 | 1486566418.05485 | pgbench_tellers_pkey  |           253952
 2017-02-08 16:06:58.054851+01 | 1486566418.05485 | pgbench_accounts_pkey |        112336896

 2017-02-08 16:06:59.136524+01 | 1486566419.13652 | pgbench_branches_pkey |            57344
 2017-02-08 16:06:59.136524+01 | 1486566419.13652 | pgbench_tellers_pkey  |           253952
 2017-02-08 16:06:59.136524+01 | 1486566419.13652 | pgbench_accounts_pkey |        112336896

 2017-02-08 16:07:00.225703+01 | 1486566420.2257 | pgbench_branches_pkey |            57344
 2017-02-08 16:07:00.225703+01 | 1486566420.2257 | pgbench_tellers_pkey  |           253952
 2017-02-08 16:07:00.225703+01 | 1486566420.2257 | pgbench_accounts_pkey |        112336896

 2017-02-08 16:07:01.324634+01 | 1486566421.32463 | pgbench_branches_pkey |            57344
 2017-02-08 16:07:01.324634+01 | 1486566421.32463 | pgbench_tellers_pkey  |           253952
 2017-02-08 16:07:01.324634+01 | 1486566421.32463 | pgbench_accounts_pkey |        112336896

 2017-02-08 16:07:02.420218+01 | 1486566422.42022 | pgbench_branches_pkey |            57344
 2017-02-08 16:07:02.420218+01 | 1486566422.42022 | pgbench_tellers_pkey  |           253952
 2017-02-08 16:07:02.420218+01 | 1486566422.42022 | pgbench_accounts_pkey |        112336896

 2017-02-08 16:07:03.526899+01 | 1486566423.5269 | pgbench_branches_pkey |            57344
 2017-02-08 16:07:03.526899+01 | 1486566423.5269 | pgbench_tellers_pkey  |           253952
 2017-02-08 16:07:03.526899+01 | 1486566423.5269 | pgbench_accounts_pkey |        112336896

 2017-02-08 16:07:04.624202+01 | 1486566424.6242 | pgbench_branches_pkey |            57344
 2017-02-08 16:07:04.624202+01 | 1486566424.6242 | pgbench_tellers_pkey  |           253952
 2017-02-08 16:07:04.624202+01 | 1486566424.6242 | pgbench_accounts_pkey |        112336896

 2017-02-08 16:07:05.732955+01 | 1486566425.73295 | pgbench_branches_pkey |            57344
 2017-02-08 16:07:05.732955+01 | 1486566425.73295 | pgbench_tellers_pkey  |           253952
 2017-02-08 16:07:05.732955+01 | 1486566425.73295 | pgbench_accounts_pkey |        112336896

 2017-02-08 16:07:06.831382+01 | 1486566426.83138 | pgbench_branches_pkey |            57344
 2017-02-08 16:07:06.831382+01 | 1486566426.83138 | pgbench_tellers_pkey  |           253952
 2017-02-08 16:07:06.831382+01 | 1486566426.83138 | pgbench_accounts_pkey |        112336896

 2017-02-08 16:07:07.937188+01 | 1486566427.93719 | pgbench_branches_pkey |            57344
 2017-02-08 16:07:07.937188+01 | 1486566427.93719 | pgbench_tellers_pkey  |           253952
 2017-02-08 16:07:07.937188+01 | 1486566427.93719 | pgbench_accounts_pkey |        112336896

 2017-02-08 16:07:09.004943+01 | 1486566429.00494 | pgbench_branches_pkey |            57344
 2017-02-08 16:07:09.004943+01 | 1486566429.00494 | pgbench_tellers_pkey  |           253952
 2017-02-08 16:07:09.004943+01 | 1486566429.00494 | pgbench_accounts_pkey |        112336896

 2017-02-08 16:07:10.118371+01 | 1486566430.11837 | pgbench_branches_pkey |            57344
 2017-02-08 16:07:10.118371+01 | 1486566430.11837 | pgbench_tellers_pkey  |           253952
 2017-02-08 16:07:10.118371+01 | 1486566430.11837 | pgbench_accounts_pkey |        112336896

 2017-02-08 16:07:11.218517+01 | 1486566431.21852 | pgbench_branches_pkey |            57344
 2017-02-08 16:07:11.218517+01 | 1486566431.21852 | pgbench_tellers_pkey  |           253952
 2017-02-08 16:07:11.218517+01 | 1486566431.21852 | pgbench_accounts_pkey |        112336896

 2017-02-08 16:07:12.314283+01 | 1486566432.31428 | pgbench_branches_pkey |            57344
 2017-02-08 16:07:12.314283+01 | 1486566432.31428 | pgbench_tellers_pkey  |           253952
 2017-02-08 16:07:12.314283+01 | 1486566432.31428 | pgbench_accounts_pkey |        112336896

 2017-02-08 16:07:13.435751+01 | 1486566433.43575 | pgbench_branches_pkey |            57344
 2017-02-08 16:07:13.435751+01 | 1486566433.43575 | pgbench_tellers_pkey  |           253952
 2017-02-08 16:07:13.435751+01 | 1486566433.43575 | pgbench_accounts_pkey |        112336896

 2017-02-08 16:07:14.555547+01 | 1486566434.55555 | pgbench_branches_pkey |            57344
 2017-02-08 16:07:14.555547+01 | 1486566434.55555 | pgbench_tellers_pkey  |           253952
 2017-02-08 16:07:14.555547+01 | 1486566434.55555 | pgbench_accounts_pkey |        112336896

 2017-02-08 16:07:15.660467+01 | 1486566435.66047 | pgbench_branches_pkey |            57344
 2017-02-08 16:07:15.660467+01 | 1486566435.66047 | pgbench_tellers_pkey  |           253952
 2017-02-08 16:07:15.660467+01 | 1486566435.66047 | pgbench_accounts_pkey |        112336896

 2017-02-08 16:07:16.750161+01 | 1486566436.75016 | pgbench_branches_pkey |            57344
 2017-02-08 16:07:16.750161+01 | 1486566436.75016 | pgbench_tellers_pkey  |           253952
 2017-02-08 16:07:16.750161+01 | 1486566436.75016 | pgbench_accounts_pkey |        112336896

 2017-02-08 16:07:17.887933+01 | 1486566437.88793 | pgbench_branches_pkey |            57344
 2017-02-08 16:07:17.887933+01 | 1486566437.88793 | pgbench_tellers_pkey  |           253952
 2017-02-08 16:07:17.887933+01 | 1486566437.88793 | pgbench_accounts_pkey |        112336896

 2017-02-08 16:07:18.996742+01 | 1486566438.99674 | pgbench_branches_pkey |            57344
 2017-02-08 16:07:18.996742+01 | 1486566438.99674 | pgbench_tellers_pkey  |           253952
 2017-02-08 16:07:18.996742+01 | 1486566438.99674 | pgbench_accounts_pkey |        112336896

 2017-02-08 16:07:20.082791+01 | 1486566440.08279 | pgbench_branches_pkey |            57344
 2017-02-08 16:07:20.082791+01 | 1486566440.08279 | pgbench_tellers_pkey  |           253952
 2017-02-08 16:07:20.082791+01 | 1486566440.08279 | pgbench_accounts_pkey |        112336896

 2017-02-08 16:07:21.196272+01 | 1486566441.19627 | pgbench_branches_pkey |            57344
 2017-02-08 16:07:21.196272+01 | 1486566441.19627 | pgbench_tellers_pkey  |           253952
 2017-02-08 16:07:21.196272+01 | 1486566441.19627 | pgbench_accounts_pkey |        112336896

 2017-02-08 16:07:22.298299+01 | 1486566442.2983 | pgbench_branches_pkey |            57344
 2017-02-08 16:07:22.298299+01 | 1486566442.2983 | pgbench_tellers_pkey  |           253952
 2017-02-08 16:07:22.298299+01 | 1486566442.2983 | pgbench_accounts_pkey |        112336896

 2017-02-08 16:07:23.40202+01 | 1486566443.40202 | pgbench_branches_pkey |            57344
 2017-02-08 16:07:23.40202+01 | 1486566443.40202 | pgbench_tellers_pkey  |           253952
 2017-02-08 16:07:23.40202+01 | 1486566443.40202 | pgbench_accounts_pkey |        112336896

 2017-02-08 16:07:24.50993+01 | 1486566444.50993 | pgbench_branches_pkey |            57344
 2017-02-08 16:07:24.50993+01 | 1486566444.50993 | pgbench_tellers_pkey  |           253952
 2017-02-08 16:07:24.50993+01 | 1486566444.50993 | pgbench_accounts_pkey |        112336896

 2017-02-08 16:07:25.60294+01 | 1486566445.60294 | pgbench_branches_pkey |            57344
 2017-02-08 16:07:25.60294+01 | 1486566445.60294 | pgbench_tellers_pkey  |           253952
 2017-02-08 16:07:25.60294+01 | 1486566445.60294 | pgbench_accounts_pkey |        112336896

 2017-02-08 16:07:26.703725+01 | 1486566446.70373 | pgbench_branches_pkey |            57344
 2017-02-08 16:07:26.703725+01 | 1486566446.70373 | pgbench_tellers_pkey  |           253952
 2017-02-08 16:07:26.703725+01 | 1486566446.70373 | pgbench_accounts_pkey |        112336896

 2017-02-08 16:07:27.803734+01 | 1486566447.80373 | pgbench_branches_pkey |            57344
 2017-02-08 16:07:27.803734+01 | 1486566447.80373 | pgbench_tellers_pkey  |           253952
 2017-02-08 16:07:27.803734+01 | 1486566447.80373 | pgbench_accounts_pkey |        112336896

 2017-02-08 16:07:28.94146+01 | 1486566448.94146 | pgbench_branches_pkey |            57344
 2017-02-08 16:07:28.94146+01 | 1486566448.94146 | pgbench_tellers_pkey  |           253952
 2017-02-08 16:07:28.94146+01 | 1486566448.94146 | pgbench_accounts_pkey |        112336896

 2017-02-08 16:07:30.048587+01 | 1486566450.04859 | pgbench_branches_pkey |            57344
 2017-02-08 16:07:30.048587+01 | 1486566450.04859 | pgbench_tellers_pkey  |           253952
 2017-02-08 16:07:30.048587+01 | 1486566450.04859 | pgbench_accounts_pkey |        112336896

 2017-02-08 16:07:31.146287+01 | 1486566451.14629 | pgbench_branches_pkey |            57344
 2017-02-08 16:07:31.146287+01 | 1486566451.14629 | pgbench_tellers_pkey  |           253952
 2017-02-08 16:07:31.146287+01 | 1486566451.14629 | pgbench_accounts_pkey |        112336896

 2017-02-08 16:07:32.234026+01 | 1486566452.23403 | pgbench_branches_pkey |            57344
 2017-02-08 16:07:32.234026+01 | 1486566452.23403 | pgbench_tellers_pkey  |           253952
 2017-02-08 16:07:32.234026+01 | 1486566452.23403 | pgbench_accounts_pkey |        112336896

 2017-02-08 16:07:33.346068+01 | 1486566453.34607 | pgbench_branches_pkey |            57344
 2017-02-08 16:07:33.346068+01 | 1486566453.34607 | pgbench_tellers_pkey  |           253952
 2017-02-08 16:07:33.346068+01 | 1486566453.34607 | pgbench_accounts_pkey |        112336896

 2017-02-08 16:07:34.430494+01 | 1486566454.43049 | pgbench_branches_pkey |            57344
 2017-02-08 16:07:34.430494+01 | 1486566454.43049 | pgbench_tellers_pkey  |           253952
 2017-02-08 16:07:34.430494+01 | 1486566454.43049 | pgbench_accounts_pkey |        112336896

 2017-02-08 16:07:35.526054+01 | 1486566455.52605 | pgbench_branches_pkey |            57344
 2017-02-08 16:07:35.526054+01 | 1486566455.52605 | pgbench_tellers_pkey  |           253952
 2017-02-08 16:07:35.526054+01 | 1486566455.52605 | pgbench_accounts_pkey |        112336896

 2017-02-08 16:07:36.603991+01 | 1486566456.60399 | pgbench_branches_pkey |            57344
 2017-02-08 16:07:36.603991+01 | 1486566456.60399 | pgbench_tellers_pkey  |           253952
 2017-02-08 16:07:36.603991+01 | 1486566456.60399 | pgbench_accounts_pkey |        112336896

 2017-02-08 16:07:37.697225+01 | 1486566457.69723 | pgbench_branches_pkey |            57344
 2017-02-08 16:07:37.697225+01 | 1486566457.69723 | pgbench_tellers_pkey  |           253952
 2017-02-08 16:07:37.697225+01 | 1486566457.69723 | pgbench_accounts_pkey |        112336896

 2017-02-08 16:07:38.814492+01 | 1486566458.81449 | pgbench_branches_pkey |            57344
 2017-02-08 16:07:38.814492+01 | 1486566458.81449 | pgbench_tellers_pkey  |           253952
 2017-02-08 16:07:38.814492+01 | 1486566458.81449 | pgbench_accounts_pkey |        112336896

 2017-02-08 16:07:39.898671+01 | 1486566459.89867 | pgbench_branches_pkey |            57344
 2017-02-08 16:07:39.898671+01 | 1486566459.89867 | pgbench_tellers_pkey  |           253952
 2017-02-08 16:07:39.898671+01 | 1486566459.89867 | pgbench_accounts_pkey |        112336896

 2017-02-08 16:07:41.006006+01 | 1486566461.00601 | pgbench_branches_pkey |            57344
 2017-02-08 16:07:41.006006+01 | 1486566461.00601 | pgbench_tellers_pkey  |           253952
 2017-02-08 16:07:41.006006+01 | 1486566461.00601 | pgbench_accounts_pkey |        112336896

 2017-02-08 16:07:42.120523+01 | 1486566462.12052 | pgbench_branches_pkey |            57344
 2017-02-08 16:07:42.120523+01 | 1486566462.12052 | pgbench_tellers_pkey  |           253952
 2017-02-08 16:07:42.120523+01 | 1486566462.12052 | pgbench_accounts_pkey |        112336896

 2017-02-08 16:07:43.230418+01 | 1486566463.23042 | pgbench_branches_pkey |            57344
 2017-02-08 16:07:43.230418+01 | 1486566463.23042 | pgbench_tellers_pkey  |           253952
 2017-02-08 16:07:43.230418+01 | 1486566463.23042 | pgbench_accounts_pkey |        112336896

 2017-02-08 16:07:44.331143+01 | 1486566464.33114 | pgbench_branches_pkey |            57344
 2017-02-08 16:07:44.331143+01 | 1486566464.33114 | pgbench_tellers_pkey  |           253952
 2017-02-08 16:07:44.331143+01 | 1486566464.33114 | pgbench_accounts_pkey |        112336896

 2017-02-08 16:07:45.460254+01 | 1486566465.46025 | pgbench_branches_pkey |            57344
 2017-02-08 16:07:45.460254+01 | 1486566465.46025 | pgbench_tellers_pkey  |           253952
 2017-02-08 16:07:45.460254+01 | 1486566465.46025 | pgbench_accounts_pkey |        112336896

 2017-02-08 16:07:46.584075+01 | 1486566466.58407 | pgbench_branches_pkey |            57344
 2017-02-08 16:07:46.584075+01 | 1486566466.58407 | pgbench_tellers_pkey  |           253952
 2017-02-08 16:07:46.584075+01 | 1486566466.58407 | pgbench_accounts_pkey |        112336896

 2017-02-08 16:07:47.705065+01 | 1486566467.70507 | pgbench_branches_pkey |            57344
 2017-02-08 16:07:47.705065+01 | 1486566467.70507 | pgbench_tellers_pkey  |           253952
 2017-02-08 16:07:47.705065+01 | 1486566467.70507 | pgbench_accounts_pkey |        112336896

 2017-02-08 16:07:48.847515+01 | 1486566468.84752 | pgbench_branches_pkey |            57344
 2017-02-08 16:07:48.847515+01 | 1486566468.84752 | pgbench_tellers_pkey  |           253952
 2017-02-08 16:07:48.847515+01 | 1486566468.84752 | pgbench_accounts_pkey |        112336896

 2017-02-08 16:07:49.956765+01 | 1486566469.95676 | pgbench_branches_pkey |            57344
 2017-02-08 16:07:49.956765+01 | 1486566469.95676 | pgbench_tellers_pkey  |           253952
 2017-02-08 16:07:49.956765+01 | 1486566469.95676 | pgbench_accounts_pkey |        112336896

 2017-02-08 16:07:51.057473+01 | 1486566471.05747 | pgbench_branches_pkey |            57344
 2017-02-08 16:07:51.057473+01 | 1486566471.05747 | pgbench_tellers_pkey  |           253952
 2017-02-08 16:07:51.057473+01 | 1486566471.05747 | pgbench_accounts_pkey |        112336896

 2017-02-08 16:07:52.148181+01 | 1486566472.14818 | pgbench_branches_pkey |            57344
 2017-02-08 16:07:52.148181+01 | 1486566472.14818 | pgbench_tellers_pkey  |           253952
 2017-02-08 16:07:52.148181+01 | 1486566472.14818 | pgbench_accounts_pkey |        112336896

 2017-02-08 16:07:53.235171+01 | 1486566473.23517 | pgbench_branches_pkey |            57344
 2017-02-08 16:07:53.235171+01 | 1486566473.23517 | pgbench_tellers_pkey  |           253952
 2017-02-08 16:07:53.235171+01 | 1486566473.23517 | pgbench_accounts_pkey |        112336896

 2017-02-08 16:07:54.366181+01 | 1486566474.36618 | pgbench_branches_pkey |            57344
 2017-02-08 16:07:54.366181+01 | 1486566474.36618 | pgbench_tellers_pkey  |           253952
 2017-02-08 16:07:54.366181+01 | 1486566474.36618 | pgbench_accounts_pkey |        112336896

 2017-02-08 16:07:55.490559+01 | 1486566475.49056 | pgbench_branches_pkey |            57344
 2017-02-08 16:07:55.490559+01 | 1486566475.49056 | pgbench_tellers_pkey  |           253952
 2017-02-08 16:07:55.490559+01 | 1486566475.49056 | pgbench_accounts_pkey |        112336896

 2017-02-08 16:07:56.581137+01 | 1486566476.58114 | pgbench_branches_pkey |            57344
 2017-02-08 16:07:56.581137+01 | 1486566476.58114 | pgbench_tellers_pkey  |           253952
 2017-02-08 16:07:56.581137+01 | 1486566476.58114 | pgbench_accounts_pkey |        112336896

 2017-02-08 16:07:57.670456+01 | 1486566477.67046 | pgbench_branches_pkey |            57344
 2017-02-08 16:07:57.670456+01 | 1486566477.67046 | pgbench_tellers_pkey  |           253952
 2017-02-08 16:07:57.670456+01 | 1486566477.67046 | pgbench_accounts_pkey |        112336896

 2017-02-08 16:07:58.774447+01 | 1486566478.77445 | pgbench_branches_pkey |            57344
 2017-02-08 16:07:58.774447+01 | 1486566478.77445 | pgbench_tellers_pkey  |           253952
 2017-02-08 16:07:58.774447+01 | 1486566478.77445 | pgbench_accounts_pkey |        112336896

 2017-02-08 16:07:59.909483+01 | 1486566479.90948 | pgbench_branches_pkey |            57344
 2017-02-08 16:07:59.909483+01 | 1486566479.90948 | pgbench_tellers_pkey  |           253952
 2017-02-08 16:07:59.909483+01 | 1486566479.90948 | pgbench_accounts_pkey |        112336896

 2017-02-08 16:08:01.037268+01 | 1486566481.03727 | pgbench_branches_pkey |            57344
 2017-02-08 16:08:01.037268+01 | 1486566481.03727 | pgbench_tellers_pkey  |           253952
 2017-02-08 16:08:01.037268+01 | 1486566481.03727 | pgbench_accounts_pkey |        112336896

 2017-02-08 16:08:02.159934+01 | 1486566482.15993 | pgbench_branches_pkey |            57344
 2017-02-08 16:08:02.159934+01 | 1486566482.15993 | pgbench_tellers_pkey  |           253952
 2017-02-08 16:08:02.159934+01 | 1486566482.15993 | pgbench_accounts_pkey |        112336896

 2017-02-08 16:08:03.282839+01 | 1486566483.28284 | pgbench_branches_pkey |            57344
 2017-02-08 16:08:03.282839+01 | 1486566483.28284 | pgbench_tellers_pkey  |           253952
 2017-02-08 16:08:03.282839+01 | 1486566483.28284 | pgbench_accounts_pkey |        112336896

 2017-02-08 16:08:04.402438+01 | 1486566484.40244 | pgbench_branches_pkey |            57344
 2017-02-08 16:08:04.402438+01 | 1486566484.40244 | pgbench_tellers_pkey  |           253952
 2017-02-08 16:08:04.402438+01 | 1486566484.40244 | pgbench_accounts_pkey |        112336896

 2017-02-08 16:08:05.501255+01 | 1486566485.50126 | pgbench_branches_pkey |            57344
 2017-02-08 16:08:05.501255+01 | 1486566485.50126 | pgbench_tellers_pkey  |           253952
 2017-02-08 16:08:05.501255+01 | 1486566485.50126 | pgbench_accounts_pkey |        112336896

 2017-02-08 16:08:06.625812+01 | 1486566486.62581 | pgbench_branches_pkey |            57344
 2017-02-08 16:08:06.625812+01 | 1486566486.62581 | pgbench_tellers_pkey  |           253952
 2017-02-08 16:08:06.625812+01 | 1486566486.62581 | pgbench_accounts_pkey |        112336896

 2017-02-08 16:08:07.728564+01 | 1486566487.72856 | pgbench_branches_pkey |            57344
 2017-02-08 16:08:07.728564+01 | 1486566487.72856 | pgbench_tellers_pkey  |           253952
 2017-02-08 16:08:07.728564+01 | 1486566487.72856 | pgbench_accounts_pkey |        112336896

 2017-02-08 16:08:08.854798+01 | 1486566488.8548 | pgbench_branches_pkey |            57344
 2017-02-08 16:08:08.854798+01 | 1486566488.8548 | pgbench_tellers_pkey  |           253952
 2017-02-08 16:08:08.854798+01 | 1486566488.8548 | pgbench_accounts_pkey |        112336896

 2017-02-08 16:08:09.962988+01 | 1486566489.96299 | pgbench_branches_pkey |            57344
 2017-02-08 16:08:09.962988+01 | 1486566489.96299 | pgbench_tellers_pkey  |           253952
 2017-02-08 16:08:09.962988+01 | 1486566489.96299 | pgbench_accounts_pkey |        112336896

 2017-02-08 16:08:11.099153+01 | 1486566491.09915 | pgbench_branches_pkey |            57344
 2017-02-08 16:08:11.099153+01 | 1486566491.09915 | pgbench_tellers_pkey  |           253952
 2017-02-08 16:08:11.099153+01 | 1486566491.09915 | pgbench_accounts_pkey |        112336896

 2017-02-08 16:08:12.200734+01 | 1486566492.20073 | pgbench_branches_pkey |            57344
 2017-02-08 16:08:12.200734+01 | 1486566492.20073 | pgbench_tellers_pkey  |           253952
 2017-02-08 16:08:12.200734+01 | 1486566492.20073 | pgbench_accounts_pkey |        112336896

 2017-02-08 16:08:13.291085+01 | 1486566493.29109 | pgbench_branches_pkey |            57344
 2017-02-08 16:08:13.291085+01 | 1486566493.29109 | pgbench_tellers_pkey  |           253952
 2017-02-08 16:08:13.291085+01 | 1486566493.29109 | pgbench_accounts_pkey |        112336896

 2017-02-08 16:08:14.387286+01 | 1486566494.38729 | pgbench_branches_pkey |            57344
 2017-02-08 16:08:14.387286+01 | 1486566494.38729 | pgbench_tellers_pkey  |           253952
 2017-02-08 16:08:14.387286+01 | 1486566494.38729 | pgbench_accounts_pkey |        112336896

 2017-02-08 16:08:15.509456+01 | 1486566495.50946 | pgbench_branches_pkey |            57344
 2017-02-08 16:08:15.509456+01 | 1486566495.50946 | pgbench_tellers_pkey  |           253952
 2017-02-08 16:08:15.509456+01 | 1486566495.50946 | pgbench_accounts_pkey |        112336896

 2017-02-08 16:08:16.616499+01 | 1486566496.6165 | pgbench_branches_pkey |            57344
 2017-02-08 16:08:16.616499+01 | 1486566496.6165 | pgbench_tellers_pkey  |           253952
 2017-02-08 16:08:16.616499+01 | 1486566496.6165 | pgbench_accounts_pkey |        112336896

 2017-02-08 16:08:17.710239+01 | 1486566497.71024 | pgbench_branches_pkey |            57344
 2017-02-08 16:08:17.710239+01 | 1486566497.71024 | pgbench_tellers_pkey  |           253952
 2017-02-08 16:08:17.710239+01 | 1486566497.71024 | pgbench_accounts_pkey |        112336896

 2017-02-08 16:08:18.808279+01 | 1486566498.80828 | pgbench_branches_pkey |            57344
 2017-02-08 16:08:18.808279+01 | 1486566498.80828 | pgbench_tellers_pkey  |           253952
 2017-02-08 16:08:18.808279+01 | 1486566498.80828 | pgbench_accounts_pkey |        112336896

 2017-02-08 16:08:19.916994+01 | 1486566499.91699 | pgbench_branches_pkey |            57344
 2017-02-08 16:08:19.916994+01 | 1486566499.91699 | pgbench_tellers_pkey  |           253952
 2017-02-08 16:08:19.916994+01 | 1486566499.91699 | pgbench_accounts_pkey |        112336896

 2017-02-08 16:08:21.002158+01 | 1486566501.00216 | pgbench_branches_pkey |            57344
 2017-02-08 16:08:21.002158+01 | 1486566501.00216 | pgbench_tellers_pkey  |           253952
 2017-02-08 16:08:21.002158+01 | 1486566501.00216 | pgbench_accounts_pkey |        112336896

 2017-02-08 16:08:22.088551+01 | 1486566502.08855 | pgbench_branches_pkey |            57344
 2017-02-08 16:08:22.088551+01 | 1486566502.08855 | pgbench_tellers_pkey  |           253952
 2017-02-08 16:08:22.088551+01 | 1486566502.08855 | pgbench_accounts_pkey |        112336896

 2017-02-08 16:08:23.183414+01 | 1486566503.18341 | pgbench_branches_pkey |            57344
 2017-02-08 16:08:23.183414+01 | 1486566503.18341 | pgbench_tellers_pkey  |           253952
 2017-02-08 16:08:23.183414+01 | 1486566503.18341 | pgbench_accounts_pkey |        112336896

 2017-02-08 16:08:24.275728+01 | 1486566504.27573 | pgbench_branches_pkey |            57344
 2017-02-08 16:08:24.275728+01 | 1486566504.27573 | pgbench_tellers_pkey  |           253952
 2017-02-08 16:08:24.275728+01 | 1486566504.27573 | pgbench_accounts_pkey |        112336896

 2017-02-08 16:08:25.402138+01 | 1486566505.40214 | pgbench_branches_pkey |            57344
 2017-02-08 16:08:25.402138+01 | 1486566505.40214 | pgbench_tellers_pkey  |           253952
 2017-02-08 16:08:25.402138+01 | 1486566505.40214 | pgbench_accounts_pkey |        112336896

 2017-02-08 16:08:26.52193+01 | 1486566506.52193 | pgbench_branches_pkey |            57344
 2017-02-08 16:08:26.52193+01 | 1486566506.52193 | pgbench_tellers_pkey  |           253952
 2017-02-08 16:08:26.52193+01 | 1486566506.52193 | pgbench_accounts_pkey |        112336896

 2017-02-08 16:08:27.654992+01 | 1486566507.65499 | pgbench_branches_pkey |            57344
 2017-02-08 16:08:27.654992+01 | 1486566507.65499 | pgbench_tellers_pkey  |           253952
 2017-02-08 16:08:27.654992+01 | 1486566507.65499 | pgbench_accounts_pkey |        112336896

 2017-02-08 16:08:28.7635+01 | 1486566508.7635 | pgbench_branches_pkey |            57344
 2017-02-08 16:08:28.7635+01 | 1486566508.7635 | pgbench_tellers_pkey  |           253952
 2017-02-08 16:08:28.7635+01 | 1486566508.7635 | pgbench_accounts_pkey |        112336896

 2017-02-08 16:08:29.86929+01 | 1486566509.86929 | pgbench_branches_pkey |            57344
 2017-02-08 16:08:29.86929+01 | 1486566509.86929 | pgbench_tellers_pkey  |           253952
 2017-02-08 16:08:29.86929+01 | 1486566509.86929 | pgbench_accounts_pkey |        112336896

 2017-02-08 16:08:30.981353+01 | 1486566510.98135 | pgbench_branches_pkey |            57344
 2017-02-08 16:08:30.981353+01 | 1486566510.98135 | pgbench_tellers_pkey  |           253952
 2017-02-08 16:08:30.981353+01 | 1486566510.98135 | pgbench_accounts_pkey |        112336896

 2017-02-08 16:08:32.08958+01 | 1486566512.08958 | pgbench_branches_pkey |            57344
 2017-02-08 16:08:32.08958+01 | 1486566512.08958 | pgbench_tellers_pkey  |           253952
 2017-02-08 16:08:32.08958+01 | 1486566512.08958 | pgbench_accounts_pkey |        112336896

 2017-02-08 16:08:33.189728+01 | 1486566513.18973 | pgbench_branches_pkey |            57344
 2017-02-08 16:08:33.189728+01 | 1486566513.18973 | pgbench_tellers_pkey  |           253952
 2017-02-08 16:08:33.189728+01 | 1486566513.18973 | pgbench_accounts_pkey |        112336896

 2017-02-08 16:08:34.287374+01 | 1486566514.28737 | pgbench_branches_pkey |            57344
 2017-02-08 16:08:34.287374+01 | 1486566514.28737 | pgbench_tellers_pkey  |           253952
 2017-02-08 16:08:34.287374+01 | 1486566514.28737 | pgbench_accounts_pkey |        112336896

 2017-02-08 16:08:35.371544+01 | 1486566515.37154 | pgbench_branches_pkey |            57344
 2017-02-08 16:08:35.371544+01 | 1486566515.37154 | pgbench_tellers_pkey  |           253952
 2017-02-08 16:08:35.371544+01 | 1486566515.37154 | pgbench_accounts_pkey |        112336896

 2017-02-08 16:08:36.483264+01 | 1486566516.48326 | pgbench_branches_pkey |            57344
 2017-02-08 16:08:36.483264+01 | 1486566516.48326 | pgbench_tellers_pkey  |           253952
 2017-02-08 16:08:36.483264+01 | 1486566516.48326 | pgbench_accounts_pkey |        112336896

 2017-02-08 16:08:37.584937+01 | 1486566517.58494 | pgbench_branches_pkey |            57344
 2017-02-08 16:08:37.584937+01 | 1486566517.58494 | pgbench_tellers_pkey  |           253952
 2017-02-08 16:08:37.584937+01 | 1486566517.58494 | pgbench_accounts_pkey |        112336896

 2017-02-08 16:08:38.690625+01 | 1486566518.69062 | pgbench_branches_pkey |            57344
 2017-02-08 16:08:38.690625+01 | 1486566518.69062 | pgbench_tellers_pkey  |           253952
 2017-02-08 16:08:38.690625+01 | 1486566518.69062 | pgbench_accounts_pkey |        112336896

 2017-02-08 16:08:39.794564+01 | 1486566519.79456 | pgbench_branches_pkey |            57344
 2017-02-08 16:08:39.794564+01 | 1486566519.79456 | pgbench_tellers_pkey  |           253952
 2017-02-08 16:08:39.794564+01 | 1486566519.79456 | pgbench_accounts_pkey |        112336896

 2017-02-08 16:08:40.891918+01 | 1486566520.89192 | pgbench_branches_pkey |            57344
 2017-02-08 16:08:40.891918+01 | 1486566520.89192 | pgbench_tellers_pkey  |           253952
 2017-02-08 16:08:40.891918+01 | 1486566520.89192 | pgbench_accounts_pkey |        112336896

 2017-02-08 16:08:42.009556+01 | 1486566522.00956 | pgbench_branches_pkey |            57344
 2017-02-08 16:08:42.009556+01 | 1486566522.00956 | pgbench_tellers_pkey  |           253952
 2017-02-08 16:08:42.009556+01 | 1486566522.00956 | pgbench_accounts_pkey |        112336896

 2017-02-08 16:08:43.155742+01 | 1486566523.15574 | pgbench_branches_pkey |            57344
 2017-02-08 16:08:43.155742+01 | 1486566523.15574 | pgbench_tellers_pkey  |           253952
 2017-02-08 16:08:43.155742+01 | 1486566523.15574 | pgbench_accounts_pkey |        112336896

 2017-02-08 16:08:44.285109+01 | 1486566524.28511 | pgbench_branches_pkey |            57344
 2017-02-08 16:08:44.285109+01 | 1486566524.28511 | pgbench_tellers_pkey  |           253952
 2017-02-08 16:08:44.285109+01 | 1486566524.28511 | pgbench_accounts_pkey |        112336896

 2017-02-08 16:08:45.38616+01 | 1486566525.38616 | pgbench_branches_pkey |            57344
 2017-02-08 16:08:45.38616+01 | 1486566525.38616 | pgbench_tellers_pkey  |           253952
 2017-02-08 16:08:45.38616+01 | 1486566525.38616 | pgbench_accounts_pkey |        112336896

 2017-02-08 16:08:46.523177+01 | 1486566526.52318 | pgbench_branches_pkey |            57344
 2017-02-08 16:08:46.523177+01 | 1486566526.52318 | pgbench_tellers_pkey  |           253952
 2017-02-08 16:08:46.523177+01 | 1486566526.52318 | pgbench_accounts_pkey |        112336896

 2017-02-08 16:08:47.627299+01 | 1486566527.6273 | pgbench_branches_pkey |            57344
 2017-02-08 16:08:47.627299+01 | 1486566527.6273 | pgbench_tellers_pkey  |           253952
 2017-02-08 16:08:47.627299+01 | 1486566527.6273 | pgbench_accounts_pkey |        112336896

 2017-02-08 16:08:48.76083+01 | 1486566528.76083 | pgbench_branches_pkey |            57344
 2017-02-08 16:08:48.76083+01 | 1486566528.76083 | pgbench_tellers_pkey  |           253952
 2017-02-08 16:08:48.76083+01 | 1486566528.76083 | pgbench_accounts_pkey |        112336896

 2017-02-08 16:08:49.868726+01 | 1486566529.86873 | pgbench_branches_pkey |            57344
 2017-02-08 16:08:49.868726+01 | 1486566529.86873 | pgbench_tellers_pkey  |           253952
 2017-02-08 16:08:49.868726+01 | 1486566529.86873 | pgbench_accounts_pkey |        112336896

 2017-02-08 16:08:50.986562+01 | 1486566530.98656 | pgbench_branches_pkey |            57344
 2017-02-08 16:08:50.986562+01 | 1486566530.98656 | pgbench_tellers_pkey  |           253952
 2017-02-08 16:08:50.986562+01 | 1486566530.98656 | pgbench_accounts_pkey |        112336896

 2017-02-08 16:08:52.108273+01 | 1486566532.10827 | pgbench_branches_pkey |            57344
 2017-02-08 16:08:52.108273+01 | 1486566532.10827 | pgbench_tellers_pkey  |           253952
 2017-02-08 16:08:52.108273+01 | 1486566532.10827 | pgbench_accounts_pkey |        112336896

 2017-02-08 16:08:53.197846+01 | 1486566533.19785 | pgbench_branches_pkey |            57344
 2017-02-08 16:08:53.197846+01 | 1486566533.19785 | pgbench_tellers_pkey  |           253952
 2017-02-08 16:08:53.197846+01 | 1486566533.19785 | pgbench_accounts_pkey |        112336896

 2017-02-08 16:08:54.328216+01 | 1486566534.32822 | pgbench_branches_pkey |            57344
 2017-02-08 16:08:54.328216+01 | 1486566534.32822 | pgbench_tellers_pkey  |           253952
 2017-02-08 16:08:54.328216+01 | 1486566534.32822 | pgbench_accounts_pkey |        112336896

 2017-02-08 16:08:55.452348+01 | 1486566535.45235 | pgbench_branches_pkey |            57344
 2017-02-08 16:08:55.452348+01 | 1486566535.45235 | pgbench_tellers_pkey  |           253952
 2017-02-08 16:08:55.452348+01 | 1486566535.45235 | pgbench_accounts_pkey |        112336896

 2017-02-08 16:08:56.57132+01 | 1486566536.57132 | pgbench_branches_pkey |            57344
 2017-02-08 16:08:56.57132+01 | 1486566536.57132 | pgbench_tellers_pkey  |           253952
 2017-02-08 16:08:56.57132+01 | 1486566536.57132 | pgbench_accounts_pkey |        112336896

 2017-02-08 16:08:57.679173+01 | 1486566537.67917 | pgbench_branches_pkey |            57344
 2017-02-08 16:08:57.679173+01 | 1486566537.67917 | pgbench_tellers_pkey  |           253952
 2017-02-08 16:08:57.679173+01 | 1486566537.67917 | pgbench_accounts_pkey |        112336896

 2017-02-08 16:08:58.800589+01 | 1486566538.80059 | pgbench_branches_pkey |            57344
 2017-02-08 16:08:58.800589+01 | 1486566538.80059 | pgbench_tellers_pkey  |           253952
 2017-02-08 16:08:58.800589+01 | 1486566538.80059 | pgbench_accounts_pkey |        112336896

 2017-02-08 16:08:59.91812+01 | 1486566539.91812 | pgbench_branches_pkey |            57344
 2017-02-08 16:08:59.91812+01 | 1486566539.91812 | pgbench_tellers_pkey  |           253952
 2017-02-08 16:08:59.91812+01 | 1486566539.91812 | pgbench_accounts_pkey |        112336896

 2017-02-08 16:09:01.034905+01 | 1486566541.0349 | pgbench_branches_pkey |            57344
 2017-02-08 16:09:01.034905+01 | 1486566541.0349 | pgbench_tellers_pkey  |           253952
 2017-02-08 16:09:01.034905+01 | 1486566541.0349 | pgbench_accounts_pkey |        112336896

 2017-02-08 16:09:02.144099+01 | 1486566542.1441 | pgbench_branches_pkey |            57344
 2017-02-08 16:09:02.144099+01 | 1486566542.1441 | pgbench_tellers_pkey  |           253952
 2017-02-08 16:09:02.144099+01 | 1486566542.1441 | pgbench_accounts_pkey |        112336896

 2017-02-08 16:09:03.263575+01 | 1486566543.26358 | pgbench_branches_pkey |            57344
 2017-02-08 16:09:03.263575+01 | 1486566543.26358 | pgbench_tellers_pkey  |           253952
 2017-02-08 16:09:03.263575+01 | 1486566543.26358 | pgbench_accounts_pkey |        112336896

 2017-02-08 16:09:04.346394+01 | 1486566544.34639 | pgbench_branches_pkey |            57344
 2017-02-08 16:09:04.346394+01 | 1486566544.34639 | pgbench_tellers_pkey  |           253952
 2017-02-08 16:09:04.346394+01 | 1486566544.34639 | pgbench_accounts_pkey |        112336896

 2017-02-08 16:09:05.433436+01 | 1486566545.43344 | pgbench_branches_pkey |            57344
 2017-02-08 16:09:05.433436+01 | 1486566545.43344 | pgbench_tellers_pkey  |           253952
 2017-02-08 16:09:05.433436+01 | 1486566545.43344 | pgbench_accounts_pkey |        112336896

 2017-02-08 16:09:06.5264+01 | 1486566546.5264 | pgbench_branches_pkey |            57344
 2017-02-08 16:09:06.5264+01 | 1486566546.5264 | pgbench_tellers_pkey  |           253952
 2017-02-08 16:09:06.5264+01 | 1486566546.5264 | pgbench_accounts_pkey |        112336896

 2017-02-08 16:09:07.624011+01 | 1486566547.62401 | pgbench_branches_pkey |            57344
 2017-02-08 16:09:07.624011+01 | 1486566547.62401 | pgbench_tellers_pkey  |           253952
 2017-02-08 16:09:07.624011+01 | 1486566547.62401 | pgbench_accounts_pkey |        112336896

 2017-02-08 16:09:08.720708+01 | 1486566548.72071 | pgbench_branches_pkey |            57344
 2017-02-08 16:09:08.720708+01 | 1486566548.72071 | pgbench_tellers_pkey  |           253952
 2017-02-08 16:09:08.720708+01 | 1486566548.72071 | pgbench_accounts_pkey |        112336896

 2017-02-08 16:09:09.804828+01 | 1486566549.80483 | pgbench_branches_pkey |            57344
 2017-02-08 16:09:09.804828+01 | 1486566549.80483 | pgbench_tellers_pkey  |           253952
 2017-02-08 16:09:09.804828+01 | 1486566549.80483 | pgbench_accounts_pkey |        112336896

 2017-02-08 16:09:10.896055+01 | 1486566550.89605 | pgbench_branches_pkey |            57344
 2017-02-08 16:09:10.896055+01 | 1486566550.89605 | pgbench_tellers_pkey  |           253952
 2017-02-08 16:09:10.896055+01 | 1486566550.89605 | pgbench_accounts_pkey |        112336896

 2017-02-08 16:09:12.026582+01 | 1486566552.02658 | pgbench_branches_pkey |            57344
 2017-02-08 16:09:12.026582+01 | 1486566552.02658 | pgbench_tellers_pkey  |           253952
 2017-02-08 16:09:12.026582+01 | 1486566552.02658 | pgbench_accounts_pkey |        112336896

 2017-02-08 16:09:13.152114+01 | 1486566553.15211 | pgbench_branches_pkey |            57344
 2017-02-08 16:09:13.152114+01 | 1486566553.15211 | pgbench_tellers_pkey  |           253952
 2017-02-08 16:09:13.152114+01 | 1486566553.15211 | pgbench_accounts_pkey |        112336896

 2017-02-08 16:09:14.252814+01 | 1486566554.25281 | pgbench_branches_pkey |            57344
 2017-02-08 16:09:14.252814+01 | 1486566554.25281 | pgbench_tellers_pkey  |           253952
 2017-02-08 16:09:14.252814+01 | 1486566554.25281 | pgbench_accounts_pkey |        112336896

 2017-02-08 16:09:15.361661+01 | 1486566555.36166 | pgbench_branches_pkey |            57344
 2017-02-08 16:09:15.361661+01 | 1486566555.36166 | pgbench_tellers_pkey  |           253952
 2017-02-08 16:09:15.361661+01 | 1486566555.36166 | pgbench_accounts_pkey |        112336896

 2017-02-08 16:09:16.464612+01 | 1486566556.46461 | pgbench_branches_pkey |            57344
 2017-02-08 16:09:16.464612+01 | 1486566556.46461 | pgbench_tellers_pkey  |           253952
 2017-02-08 16:09:16.464612+01 | 1486566556.46461 | pgbench_accounts_pkey |        112336896

 2017-02-08 16:09:17.597474+01 | 1486566557.59747 | pgbench_branches_pkey |            57344
 2017-02-08 16:09:17.597474+01 | 1486566557.59747 | pgbench_tellers_pkey  |           253952
 2017-02-08 16:09:17.597474+01 | 1486566557.59747 | pgbench_accounts_pkey |        112336896

 2017-02-08 16:09:18.715344+01 | 1486566558.71534 | pgbench_branches_pkey |            57344
 2017-02-08 16:09:18.715344+01 | 1486566558.71534 | pgbench_tellers_pkey  |           253952
 2017-02-08 16:09:18.715344+01 | 1486566558.71534 | pgbench_accounts_pkey |        112336896

 2017-02-08 16:09:19.815105+01 | 1486566559.8151 | pgbench_branches_pkey |            57344
 2017-02-08 16:09:19.815105+01 | 1486566559.8151 | pgbench_tellers_pkey  |           253952
 2017-02-08 16:09:19.815105+01 | 1486566559.8151 | pgbench_accounts_pkey |        112336896

 2017-02-08 16:09:20.924357+01 | 1486566560.92436 | pgbench_branches_pkey |            57344
 2017-02-08 16:09:20.924357+01 | 1486566560.92436 | pgbench_tellers_pkey  |           253952
 2017-02-08 16:09:20.924357+01 | 1486566560.92436 | pgbench_accounts_pkey |        112336896

 2017-02-08 16:09:22.033991+01 | 1486566562.03399 | pgbench_branches_pkey |            57344
 2017-02-08 16:09:22.033991+01 | 1486566562.03399 | pgbench_tellers_pkey  |           253952
 2017-02-08 16:09:22.033991+01 | 1486566562.03399 | pgbench_accounts_pkey |        112336896

 2017-02-08 16:09:23.172879+01 | 1486566563.17288 | pgbench_branches_pkey |            57344
 2017-02-08 16:09:23.172879+01 | 1486566563.17288 | pgbench_tellers_pkey  |           253952
 2017-02-08 16:09:23.172879+01 | 1486566563.17288 | pgbench_accounts_pkey |        112336896

 2017-02-08 16:09:24.263594+01 | 1486566564.26359 | pgbench_branches_pkey |            57344
 2017-02-08 16:09:24.263594+01 | 1486566564.26359 | pgbench_tellers_pkey  |           253952
 2017-02-08 16:09:24.263594+01 | 1486566564.26359 | pgbench_accounts_pkey |        112336896

 2017-02-08 16:09:25.371041+01 | 1486566565.37104 | pgbench_branches_pkey |            57344
 2017-02-08 16:09:25.371041+01 | 1486566565.37104 | pgbench_tellers_pkey  |           253952
 2017-02-08 16:09:25.371041+01 | 1486566565.37104 | pgbench_accounts_pkey |        112336896

 2017-02-08 16:09:26.461821+01 | 1486566566.46182 | pgbench_branches_pkey |            57344
 2017-02-08 16:09:26.461821+01 | 1486566566.46182 | pgbench_tellers_pkey  |           253952
 2017-02-08 16:09:26.461821+01 | 1486566566.46182 | pgbench_accounts_pkey |        112336896

 2017-02-08 16:09:27.564123+01 | 1486566567.56412 | pgbench_branches_pkey |            57344
 2017-02-08 16:09:27.564123+01 | 1486566567.56412 | pgbench_tellers_pkey  |           253952
 2017-02-08 16:09:27.564123+01 | 1486566567.56412 | pgbench_accounts_pkey |        112336896

 2017-02-08 16:09:28.648934+01 | 1486566568.64893 | pgbench_branches_pkey |            57344
 2017-02-08 16:09:28.648934+01 | 1486566568.64893 | pgbench_tellers_pkey  |           253952
 2017-02-08 16:09:28.648934+01 | 1486566568.64893 | pgbench_accounts_pkey |        112336896

 2017-02-08 16:09:29.754417+01 | 1486566569.75442 | pgbench_branches_pkey |            57344
 2017-02-08 16:09:29.754417+01 | 1486566569.75442 | pgbench_tellers_pkey  |           253952
 2017-02-08 16:09:29.754417+01 | 1486566569.75442 | pgbench_accounts_pkey |        112336896

 2017-02-08 16:09:30.894995+01 | 1486566570.89499 | pgbench_branches_pkey |            57344
 2017-02-08 16:09:30.894995+01 | 1486566570.89499 | pgbench_tellers_pkey  |           253952
 2017-02-08 16:09:30.894995+01 | 1486566570.89499 | pgbench_accounts_pkey |        112336896

 2017-02-08 16:09:32.02841+01 | 1486566572.02841 | pgbench_branches_pkey |            57344
 2017-02-08 16:09:32.02841+01 | 1486566572.02841 | pgbench_tellers_pkey  |           253952
 2017-02-08 16:09:32.02841+01 | 1486566572.02841 | pgbench_accounts_pkey |        112336896

 2017-02-08 16:09:33.099718+01 | 1486566573.09972 | pgbench_branches_pkey |            57344
 2017-02-08 16:09:33.099718+01 | 1486566573.09972 | pgbench_tellers_pkey  |           253952
 2017-02-08 16:09:33.099718+01 | 1486566573.09972 | pgbench_accounts_pkey |        112336896

 2017-02-08 16:09:34.19297+01 | 1486566574.19297 | pgbench_branches_pkey |            57344
 2017-02-08 16:09:34.19297+01 | 1486566574.19297 | pgbench_tellers_pkey  |           253952
 2017-02-08 16:09:34.19297+01 | 1486566574.19297 | pgbench_accounts_pkey |        112336896

 2017-02-08 16:09:35.29791+01 | 1486566575.29791 | pgbench_branches_pkey |            57344
 2017-02-08 16:09:35.29791+01 | 1486566575.29791 | pgbench_tellers_pkey  |           253952
 2017-02-08 16:09:35.29791+01 | 1486566575.29791 | pgbench_accounts_pkey |        112336896

 2017-02-08 16:09:36.415595+01 | 1486566576.4156 | pgbench_branches_pkey |            57344
 2017-02-08 16:09:36.415595+01 | 1486566576.4156 | pgbench_tellers_pkey  |           253952
 2017-02-08 16:09:36.415595+01 | 1486566576.4156 | pgbench_accounts_pkey |        112336896

 2017-02-08 16:09:37.554006+01 | 1486566577.55401 | pgbench_branches_pkey |            57344
 2017-02-08 16:09:37.554006+01 | 1486566577.55401 | pgbench_tellers_pkey  |           253952
 2017-02-08 16:09:37.554006+01 | 1486566577.55401 | pgbench_accounts_pkey |        112336896

 2017-02-08 16:09:38.662541+01 | 1486566578.66254 | pgbench_branches_pkey |            57344
 2017-02-08 16:09:38.662541+01 | 1486566578.66254 | pgbench_tellers_pkey  |           253952
 2017-02-08 16:09:38.662541+01 | 1486566578.66254 | pgbench_accounts_pkey |        112336896

 2017-02-08 16:09:39.781983+01 | 1486566579.78198 | pgbench_branches_pkey |            57344
 2017-02-08 16:09:39.781983+01 | 1486566579.78198 | pgbench_tellers_pkey  |           253952
 2017-02-08 16:09:39.781983+01 | 1486566579.78198 | pgbench_accounts_pkey |        112336896

 2017-02-08 16:09:40.898344+01 | 1486566580.89834 | pgbench_branches_pkey |            57344
 2017-02-08 16:09:40.898344+01 | 1486566580.89834 | pgbench_tellers_pkey  |           253952
 2017-02-08 16:09:40.898344+01 | 1486566580.89834 | pgbench_accounts_pkey |        112336896

 2017-02-08 16:09:42.006392+01 | 1486566582.00639 | pgbench_branches_pkey |            57344
 2017-02-08 16:09:42.006392+01 | 1486566582.00639 | pgbench_tellers_pkey  |           253952
 2017-02-08 16:09:42.006392+01 | 1486566582.00639 | pgbench_accounts_pkey |        112336896

 2017-02-08 16:09:43.115447+01 | 1486566583.11545 | pgbench_branches_pkey |            57344
 2017-02-08 16:09:43.115447+01 | 1486566583.11545 | pgbench_tellers_pkey  |           253952
 2017-02-08 16:09:43.115447+01 | 1486566583.11545 | pgbench_accounts_pkey |        112336896

 2017-02-08 16:09:44.231733+01 | 1486566584.23173 | pgbench_branches_pkey |            57344
 2017-02-08 16:09:44.231733+01 | 1486566584.23173 | pgbench_tellers_pkey  |           253952
 2017-02-08 16:09:44.231733+01 | 1486566584.23173 | pgbench_accounts_pkey |        112336896

 2017-02-08 16:09:45.333541+01 | 1486566585.33354 | pgbench_branches_pkey |            57344
 2017-02-08 16:09:45.333541+01 | 1486566585.33354 | pgbench_tellers_pkey  |           253952
 2017-02-08 16:09:45.333541+01 | 1486566585.33354 | pgbench_accounts_pkey |        112336896

 2017-02-08 16:09:46.42555+01 | 1486566586.42555 | pgbench_branches_pkey |            57344
 2017-02-08 16:09:46.42555+01 | 1486566586.42555 | pgbench_tellers_pkey  |           253952
 2017-02-08 16:09:46.42555+01 | 1486566586.42555 | pgbench_accounts_pkey |        112336896

 2017-02-08 16:09:47.537287+01 | 1486566587.53729 | pgbench_branches_pkey |            57344
 2017-02-08 16:09:47.537287+01 | 1486566587.53729 | pgbench_tellers_pkey  |           253952
 2017-02-08 16:09:47.537287+01 | 1486566587.53729 | pgbench_accounts_pkey |        112336896

 2017-02-08 16:09:48.669757+01 | 1486566588.66976 | pgbench_branches_pkey |            57344
 2017-02-08 16:09:48.669757+01 | 1486566588.66976 | pgbench_tellers_pkey  |           253952
 2017-02-08 16:09:48.669757+01 | 1486566588.66976 | pgbench_accounts_pkey |        112336896

 2017-02-08 16:09:49.775825+01 | 1486566589.77583 | pgbench_branches_pkey |            57344
 2017-02-08 16:09:49.775825+01 | 1486566589.77583 | pgbench_tellers_pkey  |           253952
 2017-02-08 16:09:49.775825+01 | 1486566589.77583 | pgbench_accounts_pkey |        112336896

 2017-02-08 16:09:50.877116+01 | 1486566590.87712 | pgbench_branches_pkey |            57344
 2017-02-08 16:09:50.877116+01 | 1486566590.87712 | pgbench_tellers_pkey  |           253952
 2017-02-08 16:09:50.877116+01 | 1486566590.87712 | pgbench_accounts_pkey |        112336896

 2017-02-08 16:09:52.01625+01 | 1486566592.01625 | pgbench_branches_pkey |            57344
 2017-02-08 16:09:52.01625+01 | 1486566592.01625 | pgbench_tellers_pkey  |           253952
 2017-02-08 16:09:52.01625+01 | 1486566592.01625 | pgbench_accounts_pkey |        112336896

 2017-02-08 16:09:53.137654+01 | 1486566593.13765 | pgbench_branches_pkey |            57344
 2017-02-08 16:09:53.137654+01 | 1486566593.13765 | pgbench_tellers_pkey  |           253952
 2017-02-08 16:09:53.137654+01 | 1486566593.13765 | pgbench_accounts_pkey |        112336896

 2017-02-08 16:09:54.262509+01 | 1486566594.26251 | pgbench_branches_pkey |            57344
 2017-02-08 16:09:54.262509+01 | 1486566594.26251 | pgbench_tellers_pkey  |           253952
 2017-02-08 16:09:54.262509+01 | 1486566594.26251 | pgbench_accounts_pkey |        112336896

 2017-02-08 16:09:55.347435+01 | 1486566595.34743 | pgbench_branches_pkey |            57344
 2017-02-08 16:09:55.347435+01 | 1486566595.34743 | pgbench_tellers_pkey  |           253952
 2017-02-08 16:09:55.347435+01 | 1486566595.34743 | pgbench_accounts_pkey |        112336896

 2017-02-08 16:09:56.45356+01 | 1486566596.45356 | pgbench_branches_pkey |            57344
 2017-02-08 16:09:56.45356+01 | 1486566596.45356 | pgbench_tellers_pkey  |           253952
 2017-02-08 16:09:56.45356+01 | 1486566596.45356 | pgbench_accounts_pkey |        112336896

 2017-02-08 16:09:57.580481+01 | 1486566597.58048 | pgbench_branches_pkey |            57344
 2017-02-08 16:09:57.580481+01 | 1486566597.58048 | pgbench_tellers_pkey  |           253952
 2017-02-08 16:09:57.580481+01 | 1486566597.58048 | pgbench_accounts_pkey |        112336896

 2017-02-08 16:09:58.681282+01 | 1486566598.68128 | pgbench_branches_pkey |            57344
 2017-02-08 16:09:58.681282+01 | 1486566598.68128 | pgbench_tellers_pkey  |           253952
 2017-02-08 16:09:58.681282+01 | 1486566598.68128 | pgbench_accounts_pkey |        112336896

 2017-02-08 16:09:59.788898+01 | 1486566599.7889 | pgbench_branches_pkey |            57344
 2017-02-08 16:09:59.788898+01 | 1486566599.7889 | pgbench_tellers_pkey  |           253952
 2017-02-08 16:09:59.788898+01 | 1486566599.7889 | pgbench_accounts_pkey |        112336896

 2017-02-08 16:10:00.910417+01 | 1486566600.91042 | pgbench_branches_pkey |            57344
 2017-02-08 16:10:00.910417+01 | 1486566600.91042 | pgbench_tellers_pkey  |           253952
 2017-02-08 16:10:00.910417+01 | 1486566600.91042 | pgbench_accounts_pkey |        112336896

 2017-02-08 16:10:02.033925+01 | 1486566602.03393 | pgbench_branches_pkey |            57344
 2017-02-08 16:10:02.033925+01 | 1486566602.03393 | pgbench_tellers_pkey  |           253952
 2017-02-08 16:10:02.033925+01 | 1486566602.03393 | pgbench_accounts_pkey |        112336896

 2017-02-08 16:10:03.171147+01 | 1486566603.17115 | pgbench_branches_pkey |            57344
 2017-02-08 16:10:03.171147+01 | 1486566603.17115 | pgbench_tellers_pkey  |           253952
 2017-02-08 16:10:03.171147+01 | 1486566603.17115 | pgbench_accounts_pkey |        112336896

 2017-02-08 16:10:04.285123+01 | 1486566604.28512 | pgbench_branches_pkey |            57344
 2017-02-08 16:10:04.285123+01 | 1486566604.28512 | pgbench_tellers_pkey  |           253952
 2017-02-08 16:10:04.285123+01 | 1486566604.28512 | pgbench_accounts_pkey |        112336896

 2017-02-08 16:10:05.408602+01 | 1486566605.4086 | pgbench_branches_pkey |            57344
 2017-02-08 16:10:05.408602+01 | 1486566605.4086 | pgbench_tellers_pkey  |           253952
 2017-02-08 16:10:05.408602+01 | 1486566605.4086 | pgbench_accounts_pkey |        112336896

 2017-02-08 16:10:06.520895+01 | 1486566606.5209 | pgbench_branches_pkey |            57344
 2017-02-08 16:10:06.520895+01 | 1486566606.5209 | pgbench_tellers_pkey  |           253952
 2017-02-08 16:10:06.520895+01 | 1486566606.5209 | pgbench_accounts_pkey |        112336896

 2017-02-08 16:10:07.649872+01 | 1486566607.64987 | pgbench_branches_pkey |            57344
 2017-02-08 16:10:07.649872+01 | 1486566607.64987 | pgbench_tellers_pkey  |           253952
 2017-02-08 16:10:07.649872+01 | 1486566607.64987 | pgbench_accounts_pkey |        112336896

 2017-02-08 16:10:08.745259+01 | 1486566608.74526 | pgbench_branches_pkey |            57344
 2017-02-08 16:10:08.745259+01 | 1486566608.74526 | pgbench_tellers_pkey  |           253952
 2017-02-08 16:10:08.745259+01 | 1486566608.74526 | pgbench_accounts_pkey |        112336896

 2017-02-08 16:10:09.871081+01 | 1486566609.87108 | pgbench_branches_pkey |            57344
 2017-02-08 16:10:09.871081+01 | 1486566609.87108 | pgbench_tellers_pkey  |           253952
 2017-02-08 16:10:09.871081+01 | 1486566609.87108 | pgbench_accounts_pkey |        112336896

 2017-02-08 16:10:10.967053+01 | 1486566610.96705 | pgbench_branches_pkey |            57344
 2017-02-08 16:10:10.967053+01 | 1486566610.96705 | pgbench_tellers_pkey  |           253952
 2017-02-08 16:10:10.967053+01 | 1486566610.96705 | pgbench_accounts_pkey |        112336896

 2017-02-08 16:10:12.071622+01 | 1486566612.07162 | pgbench_branches_pkey |            57344
 2017-02-08 16:10:12.071622+01 | 1486566612.07162 | pgbench_tellers_pkey  |           253952
 2017-02-08 16:10:12.071622+01 | 1486566612.07162 | pgbench_accounts_pkey |        112336896

 2017-02-08 16:10:13.185069+01 | 1486566613.18507 | pgbench_branches_pkey |            57344
 2017-02-08 16:10:13.185069+01 | 1486566613.18507 | pgbench_tellers_pkey  |           253952
 2017-02-08 16:10:13.185069+01 | 1486566613.18507 | pgbench_accounts_pkey |        112336896

 2017-02-08 16:10:14.301051+01 | 1486566614.30105 | pgbench_branches_pkey |            57344
 2017-02-08 16:10:14.301051+01 | 1486566614.30105 | pgbench_tellers_pkey  |           253952
 2017-02-08 16:10:14.301051+01 | 1486566614.30105 | pgbench_accounts_pkey |        112336896

 2017-02-08 16:10:15.425587+01 | 1486566615.42559 | pgbench_branches_pkey |            57344
 2017-02-08 16:10:15.425587+01 | 1486566615.42559 | pgbench_tellers_pkey  |           253952
 2017-02-08 16:10:15.425587+01 | 1486566615.42559 | pgbench_accounts_pkey |        112336896

 2017-02-08 16:10:16.511835+01 | 1486566616.51184 | pgbench_branches_pkey |            57344
 2017-02-08 16:10:16.511835+01 | 1486566616.51184 | pgbench_tellers_pkey  |           253952
 2017-02-08 16:10:16.511835+01 | 1486566616.51184 | pgbench_accounts_pkey |        112336896

 2017-02-08 16:10:17.628431+01 | 1486566617.62843 | pgbench_branches_pkey |            57344
 2017-02-08 16:10:17.628431+01 | 1486566617.62843 | pgbench_tellers_pkey  |           253952
 2017-02-08 16:10:17.628431+01 | 1486566617.62843 | pgbench_accounts_pkey |        112336896

 2017-02-08 16:10:18.721946+01 | 1486566618.72195 | pgbench_branches_pkey |            57344
 2017-02-08 16:10:18.721946+01 | 1486566618.72195 | pgbench_tellers_pkey  |           253952
 2017-02-08 16:10:18.721946+01 | 1486566618.72195 | pgbench_accounts_pkey |        112336896

 2017-02-08 16:10:19.832989+01 | 1486566619.83299 | pgbench_branches_pkey |            57344
 2017-02-08 16:10:19.832989+01 | 1486566619.83299 | pgbench_tellers_pkey  |           253952
 2017-02-08 16:10:19.832989+01 | 1486566619.83299 | pgbench_accounts_pkey |        112336896

 2017-02-08 16:10:20.966848+01 | 1486566620.96685 | pgbench_branches_pkey |            57344
 2017-02-08 16:10:20.966848+01 | 1486566620.96685 | pgbench_tellers_pkey  |           253952
 2017-02-08 16:10:20.966848+01 | 1486566620.96685 | pgbench_accounts_pkey |        112336896

 2017-02-08 16:10:22.089496+01 | 1486566622.0895 | pgbench_branches_pkey |            57344
 2017-02-08 16:10:22.089496+01 | 1486566622.0895 | pgbench_tellers_pkey  |           253952
 2017-02-08 16:10:22.089496+01 | 1486566622.0895 | pgbench_accounts_pkey |        112336896

 2017-02-08 16:10:23.192499+01 | 1486566623.1925 | pgbench_branches_pkey |            57344
 2017-02-08 16:10:23.192499+01 | 1486566623.1925 | pgbench_tellers_pkey  |           253952
 2017-02-08 16:10:23.192499+01 | 1486566623.1925 | pgbench_accounts_pkey |        112336896

 2017-02-08 16:10:24.297936+01 | 1486566624.29794 | pgbench_branches_pkey |            57344
 2017-02-08 16:10:24.297936+01 | 1486566624.29794 | pgbench_tellers_pkey  |           253952
 2017-02-08 16:10:24.297936+01 | 1486566624.29794 | pgbench_accounts_pkey |        112336896

 2017-02-08 16:10:25.394517+01 | 1486566625.39452 | pgbench_branches_pkey |            57344
 2017-02-08 16:10:25.394517+01 | 1486566625.39452 | pgbench_tellers_pkey  |           253952
 2017-02-08 16:10:25.394517+01 | 1486566625.39452 | pgbench_accounts_pkey |        112336896

 2017-02-08 16:10:26.501361+01 | 1486566626.50136 | pgbench_branches_pkey |            57344
 2017-02-08 16:10:26.501361+01 | 1486566626.50136 | pgbench_tellers_pkey  |           253952
 2017-02-08 16:10:26.501361+01 | 1486566626.50136 | pgbench_accounts_pkey |        112336896

 2017-02-08 16:10:27.628441+01 | 1486566627.62844 | pgbench_branches_pkey |            57344
 2017-02-08 16:10:27.628441+01 | 1486566627.62844 | pgbench_tellers_pkey  |           253952
 2017-02-08 16:10:27.628441+01 | 1486566627.62844 | pgbench_accounts_pkey |        112336896

 2017-02-08 16:10:28.770204+01 | 1486566628.7702 | pgbench_branches_pkey |            57344
 2017-02-08 16:10:28.770204+01 | 1486566628.7702 | pgbench_tellers_pkey  |           253952
 2017-02-08 16:10:28.770204+01 | 1486566628.7702 | pgbench_accounts_pkey |        112336896

 2017-02-08 16:10:29.880698+01 | 1486566629.8807 | pgbench_branches_pkey |            57344
 2017-02-08 16:10:29.880698+01 | 1486566629.8807 | pgbench_tellers_pkey  |           253952
 2017-02-08 16:10:29.880698+01 | 1486566629.8807 | pgbench_accounts_pkey |        112336896

 2017-02-08 16:10:31.01348+01 | 1486566631.01348 | pgbench_branches_pkey |            57344
 2017-02-08 16:10:31.01348+01 | 1486566631.01348 | pgbench_tellers_pkey  |           253952
 2017-02-08 16:10:31.01348+01 | 1486566631.01348 | pgbench_accounts_pkey |        112336896

