 2017-02-08 03:15:32.186779+01 | 1486520132.18678 | 0/E7DC3608               |            3889968648

 2017-02-08 03:15:33.364328+01 | 1486520133.36433 | 0/E7DC3608               |            3889968648

 2017-02-08 03:15:34.523204+01 | 1486520134.5232 | 0/E7DC3608               |            3889968648

 2017-02-08 03:15:35.660041+01 | 1486520135.66004 | 0/E7DC3608               |            3889968648

 2017-02-08 03:15:36.850651+01 | 1486520136.85065 | 0/E7DC3608               |            3889968648

 2017-02-08 03:15:38.042785+01 | 1486520138.04278 | 0/E7DC3608               |            3889968648

 2017-02-08 03:15:39.236448+01 | 1486520139.23645 | 0/E7DC3608               |            3889968648

 2017-02-08 03:15:40.434249+01 | 1486520140.43425 | 0/E7DC3608               |            3889968648

 2017-02-08 03:15:41.629691+01 | 1486520141.62969 | 0/E7DC3608               |            3889968648

 2017-02-08 03:15:42.825157+01 | 1486520142.82516 | 0/E7DC3608               |            3889968648

 2017-02-08 03:15:44.019552+01 | 1486520144.01955 | 0/E7DC3608               |            3889968648

 2017-02-08 03:15:45.209985+01 | 1486520145.20999 | 0/E7DC3608               |            3889968648

 2017-02-08 03:15:46.404935+01 | 1486520146.40493 | 0/E7DC3608               |            3889968648

 2017-02-08 03:15:47.563308+01 | 1486520147.56331 | 0/E7DC3640               |            3889968704

 2017-02-08 03:15:48.712215+01 | 1486520148.71221 | 0/E7DC3640               |            3889968704

 2017-02-08 03:15:49.908026+01 | 1486520149.90803 | 0/E7DC3640               |            3889968704

 2017-02-08 03:15:51.093717+01 | 1486520151.09372 | 0/E7DC3640               |            3889968704

 2017-02-08 03:15:52.223176+01 | 1486520152.22318 | 0/E7DC3640               |            3889968704

 2017-02-08 03:15:53.410137+01 | 1486520153.41014 | 0/E7DC3640               |            3889968704

 2017-02-08 03:15:54.528551+01 | 1486520154.52855 | 0/E7DC3640               |            3889968704

 2017-02-08 03:15:55.71669+01 | 1486520155.71669 | 0/E7DC3640               |            3889968704

 2017-02-08 03:15:56.866362+01 | 1486520156.86636 | 0/E7DC3640               |            3889968704

 2017-02-08 03:15:58.066325+01 | 1486520158.06632 | 0/E7DC3640               |            3889968704

 2017-02-08 03:15:59.236838+01 | 1486520159.23684 | 0/E7DC3640               |            3889968704

 2017-02-08 03:16:00.424591+01 | 1486520160.42459 | 0/E7DC3640               |            3889968704

 2017-02-08 03:16:01.602204+01 | 1486520161.6022 | 0/E7DC3640               |            3889968704

 2017-02-08 03:16:02.797888+01 | 1486520162.79789 | 0/E7DC3640               |            3889968704

 2017-02-08 03:16:03.99111+01 | 1486520163.99111 | 0/E7DC3640               |            3889968704

 2017-02-08 03:16:05.18933+01 | 1486520165.18933 | 0/E7DC3640               |            3889968704

 2017-02-08 03:16:06.350364+01 | 1486520166.35036 | 0/E7DC3640               |            3889968704

 2017-02-08 03:16:07.54475+01 | 1486520167.54475 | 0/E7DC3640               |            3889968704

 2017-02-08 03:16:08.691958+01 | 1486520168.69196 | 0/E7DC3640               |            3889968704

 2017-02-08 03:16:09.886643+01 | 1486520169.88664 | 0/E7DC3640               |            3889968704

 2017-02-08 03:16:11.00012+01 | 1486520171.00012 | 0/E7DC3640               |            3889968704

 2017-02-08 03:16:12.194108+01 | 1486520172.19411 | 0/E7DC3640               |            3889968704

 2017-02-08 03:16:13.389184+01 | 1486520173.38918 | 0/E7DC3640               |            3889968704

 2017-02-08 03:16:14.583996+01 | 1486520174.584 | 0/E7DC3640               |            3889968704

 2017-02-08 03:16:15.778785+01 | 1486520175.77878 | 0/E7DC3640               |            3889968704

 2017-02-08 03:16:16.911949+01 | 1486520176.91195 | 0/E7DC3640               |            3889968704

 2017-02-08 03:16:18.104463+01 | 1486520178.10446 | 0/E7DC3640               |            3889968704

 2017-02-08 03:16:19.297935+01 | 1486520179.29794 | 0/E7DC3640               |            3889968704

 2017-02-08 03:16:20.479582+01 | 1486520180.47958 | 0/E7DC3640               |            3889968704

 2017-02-08 03:16:21.674946+01 | 1486520181.67495 | 0/E7DC3640               |            3889968704

 2017-02-08 03:16:22.85848+01 | 1486520182.85848 | 0/E7DC3640               |            3889968704

 2017-02-08 03:16:23.996356+01 | 1486520183.99636 | 0/E7DC3640               |            3889968704

 2017-02-08 03:16:25.172924+01 | 1486520185.17292 | 0/E7DC3640               |            3889968704

 2017-02-08 03:16:26.370649+01 | 1486520186.37065 | 0/E7DC3640               |            3889968704

 2017-02-08 03:16:27.529728+01 | 1486520187.52973 | 0/E7DC3640               |            3889968704

 2017-02-08 03:16:28.728404+01 | 1486520188.7284 | 0/E7DC3640               |            3889968704

 2017-02-08 03:16:29.926885+01 | 1486520189.92688 | 0/E7DC3640               |            3889968704

 2017-02-08 03:16:31.12014+01 | 1486520191.12014 | 0/E7DC3640               |            3889968704

 2017-02-08 03:16:32.292301+01 | 1486520192.2923 | 0/E7DC3640               |            3889968704

 2017-02-08 03:16:33.444135+01 | 1486520193.44413 | 0/E7DC3640               |            3889968704

 2017-02-08 03:16:34.630593+01 | 1486520194.63059 | 0/E7DC3640               |            3889968704

 2017-02-08 03:16:35.732626+01 | 1486520195.73263 | 0/E7DC3640               |            3889968704

 2017-02-08 03:16:36.921236+01 | 1486520196.92124 | 0/E7DC3640               |            3889968704

 2017-02-08 03:16:38.101347+01 | 1486520198.10135 | 0/E7DC3640               |            3889968704

 2017-02-08 03:16:39.228936+01 | 1486520199.22894 | 0/E7DC3640               |            3889968704

 2017-02-08 03:16:40.381911+01 | 1486520200.38191 | 0/E7DC3640               |            3889968704

 2017-02-08 03:16:41.577178+01 | 1486520201.57718 | 0/E7DC3640               |            3889968704

 2017-02-08 03:16:42.772301+01 | 1486520202.7723 | 0/E7DC3640               |            3889968704

 2017-02-08 03:16:43.968242+01 | 1486520203.96824 | 0/E7DC3640               |            3889968704

 2017-02-08 03:16:45.163848+01 | 1486520205.16385 | 0/E7DC3640               |            3889968704

 2017-02-08 03:16:46.346905+01 | 1486520206.3469 | 0/E7DC3640               |            3889968704

 2017-02-08 03:16:47.464924+01 | 1486520207.46492 | 0/E7DC3640               |            3889968704

 2017-02-08 03:16:48.593453+01 | 1486520208.59345 | 0/E7DC3640               |            3889968704

 2017-02-08 03:16:49.723162+01 | 1486520209.72316 | 0/E7DC3640               |            3889968704

 2017-02-08 03:16:50.896998+01 | 1486520210.897 | 0/E7DC3640               |            3889968704

 2017-02-08 03:16:52.090054+01 | 1486520212.09005 | 0/E7DC3640               |            3889968704

 2017-02-08 03:16:53.235117+01 | 1486520213.23512 | 0/E7DC3640               |            3889968704

 2017-02-08 03:16:54.39616+01 | 1486520214.39616 | 0/E7DC3640               |            3889968704

 2017-02-08 03:16:55.562901+01 | 1486520215.5629 | 0/E7DC3640               |            3889968704

 2017-02-08 03:16:56.762132+01 | 1486520216.76213 | 0/E7DC3640               |            3889968704

 2017-02-08 03:16:57.95905+01 | 1486520217.95905 | 0/E7DC3640               |            3889968704

 2017-02-08 03:16:59.088766+01 | 1486520219.08877 | 0/E7DC3640               |            3889968704

 2017-02-08 03:17:00.280513+01 | 1486520220.28051 | 0/E7DC3640               |            3889968704

 2017-02-08 03:17:01.447085+01 | 1486520221.44708 | 0/E7DC3640               |            3889968704

 2017-02-08 03:17:02.644263+01 | 1486520222.64426 | 0/E7DC3640               |            3889968704

 2017-02-08 03:17:03.822358+01 | 1486520223.82236 | 0/E7DC3640               |            3889968704

 2017-02-08 03:17:05.015314+01 | 1486520225.01531 | 0/E7DC3640               |            3889968704

 2017-02-08 03:17:06.111969+01 | 1486520226.11197 | 0/E7DC3640               |            3889968704

 2017-02-08 03:17:07.309677+01 | 1486520227.30968 | 0/E7DC3640               |            3889968704

 2017-02-08 03:17:08.502494+01 | 1486520228.50249 | 0/E7DC3640               |            3889968704

 2017-02-08 03:17:09.699173+01 | 1486520229.69917 | 0/E7DC3640               |            3889968704

 2017-02-08 03:17:10.868073+01 | 1486520230.86807 | 0/E7DC3640               |            3889968704

 2017-02-08 03:17:12.062818+01 | 1486520232.06282 | 0/E7DC3640               |            3889968704

 2017-02-08 03:17:13.257839+01 | 1486520233.25784 | 0/E7DC3640               |            3889968704

 2017-02-08 03:17:14.372549+01 | 1486520234.37255 | 0/E7DC3640               |            3889968704

 2017-02-08 03:17:15.482516+01 | 1486520235.48252 | 0/E7DC3640               |            3889968704

 2017-02-08 03:17:16.642119+01 | 1486520236.64212 | 0/E7DC3640               |            3889968704

 2017-02-08 03:17:17.834984+01 | 1486520237.83498 | 0/E7DC3640               |            3889968704

 2017-02-08 03:17:19.002942+01 | 1486520239.00294 | 0/E7DC3640               |            3889968704

 2017-02-08 03:17:20.191313+01 | 1486520240.19131 | 0/E7DC3640               |            3889968704

 2017-02-08 03:17:21.379535+01 | 1486520241.37953 | 0/E7DC3640               |            3889968704

 2017-02-08 03:17:22.573731+01 | 1486520242.57373 | 0/E7DC3640               |            3889968704

 2017-02-08 03:17:23.746304+01 | 1486520243.7463 | 0/E7DC3640               |            3889968704

 2017-02-08 03:17:24.937316+01 | 1486520244.93732 | 0/E7DC3640               |            3889968704

 2017-02-08 03:17:26.136099+01 | 1486520246.1361 | 0/E7DC3640               |            3889968704

 2017-02-08 03:17:27.332578+01 | 1486520247.33258 | 0/E7DC3640               |            3889968704

 2017-02-08 03:17:28.525443+01 | 1486520248.52544 | 0/E7DC3640               |            3889968704

 2017-02-08 03:17:29.722251+01 | 1486520249.72225 | 0/E7DC3640               |            3889968704

 2017-02-08 03:17:30.890714+01 | 1486520250.89071 | 0/E7DC3640               |            3889968704

 2017-02-08 03:17:32.085078+01 | 1486520252.08508 | 0/E7DC3640               |            3889968704

 2017-02-08 03:17:33.237558+01 | 1486520253.23756 | 0/E7DC3640               |            3889968704

 2017-02-08 03:17:34.325622+01 | 1486520254.32562 | 0/E7DC3640               |            3889968704

 2017-02-08 03:17:35.440294+01 | 1486520255.44029 | 0/E7DC3640               |            3889968704

 2017-02-08 03:17:36.62723+01 | 1486520256.62723 | 0/E7DC3640               |            3889968704

 2017-02-08 03:17:37.704338+01 | 1486520257.70434 | 0/E7DC3640               |            3889968704

 2017-02-08 03:17:38.820392+01 | 1486520258.82039 | 0/E7DC3640               |            3889968704

 2017-02-08 03:17:40.008668+01 | 1486520260.00867 | 0/E7DC3640               |            3889968704

 2017-02-08 03:17:41.107428+01 | 1486520261.10743 | 0/E7DC3640               |            3889968704

 2017-02-08 03:17:42.239339+01 | 1486520262.23934 | 0/E7DC3640               |            3889968704

 2017-02-08 03:17:43.361136+01 | 1486520263.36114 | 0/E7DC3640               |            3889968704

 2017-02-08 03:17:44.560151+01 | 1486520264.56015 | 0/E7DC3640               |            3889968704

 2017-02-08 03:17:45.734959+01 | 1486520265.73496 | 0/E7DC3640               |            3889968704

 2017-02-08 03:17:46.931314+01 | 1486520266.93131 | 0/E7DC3640               |            3889968704

 2017-02-08 03:17:48.127359+01 | 1486520268.12736 | 0/E7DC3640               |            3889968704

 2017-02-08 03:17:49.322661+01 | 1486520269.32266 | 0/E7DC3640               |            3889968704

 2017-02-08 03:17:50.509493+01 | 1486520270.50949 | 0/E7DC3640               |            3889968704

 2017-02-08 03:17:51.644258+01 | 1486520271.64426 | 0/E7DC3640               |            3889968704

 2017-02-08 03:17:52.838048+01 | 1486520272.83805 | 0/E7DC3640               |            3889968704

 2017-02-08 03:17:54.030763+01 | 1486520274.03076 | 0/E7DC3640               |            3889968704

 2017-02-08 03:17:55.225063+01 | 1486520275.22506 | 0/E7DC3640               |            3889968704

 2017-02-08 03:17:56.417518+01 | 1486520276.41752 | 0/E7DC3640               |            3889968704

 2017-02-08 03:17:57.616653+01 | 1486520277.61665 | 0/E7DC3640               |            3889968704

 2017-02-08 03:17:58.804532+01 | 1486520278.80453 | 0/E7DC3640               |            3889968704

 2017-02-08 03:18:00.003301+01 | 1486520280.0033 | 0/E7DC3640               |            3889968704

 2017-02-08 03:18:01.199432+01 | 1486520281.19943 | 0/E7DC3640               |            3889968704

 2017-02-08 03:18:02.339493+01 | 1486520282.33949 | 0/E7DC3640               |            3889968704

 2017-02-08 03:18:03.478957+01 | 1486520283.47896 | 0/E7DC3640               |            3889968704

 2017-02-08 03:18:04.674721+01 | 1486520284.67472 | 0/E7DC3640               |            3889968704

 2017-02-08 03:18:05.849999+01 | 1486520285.85 | 0/E7DC3640               |            3889968704

 2017-02-08 03:18:07.052886+01 | 1486520287.05289 | 0/E7DC3640               |            3889968704

 2017-02-08 03:18:08.246454+01 | 1486520288.24645 | 0/E7DC3640               |            3889968704

 2017-02-08 03:18:09.442175+01 | 1486520289.44217 | 0/E7DC3640               |            3889968704

 2017-02-08 03:18:10.611175+01 | 1486520290.61118 | 0/E7DC3640               |            3889968704

 2017-02-08 03:18:11.806451+01 | 1486520291.80645 | 0/E7DC3640               |            3889968704

 2017-02-08 03:18:12.943357+01 | 1486520292.94336 | 0/E7DC3640               |            3889968704

 2017-02-08 03:18:14.082088+01 | 1486520294.08209 | 0/E7DC3640               |            3889968704

 2017-02-08 03:18:15.274712+01 | 1486520295.27471 | 0/E7DC3640               |            3889968704

 2017-02-08 03:18:16.442529+01 | 1486520296.44253 | 0/E7DC3640               |            3889968704

 2017-02-08 03:18:17.562983+01 | 1486520297.56298 | 0/E7DC3640               |            3889968704

 2017-02-08 03:18:18.718071+01 | 1486520298.71807 | 0/E7DC3640               |            3889968704

 2017-02-08 03:18:19.904285+01 | 1486520299.90428 | 0/E7DC3640               |            3889968704

 2017-02-08 03:18:21.064269+01 | 1486520301.06427 | 0/E7DC3640               |            3889968704

 2017-02-08 03:18:22.231753+01 | 1486520302.23175 | 0/E7DC3640               |            3889968704

 2017-02-08 03:18:23.322551+01 | 1486520303.32255 | 0/E7DC3640               |            3889968704

 2017-02-08 03:18:24.513211+01 | 1486520304.51321 | 0/E7DC3640               |            3889968704

 2017-02-08 03:18:25.692695+01 | 1486520305.69269 | 0/E7DC3640               |            3889968704

 2017-02-08 03:18:26.802312+01 | 1486520306.80231 | 0/E7DC3640               |            3889968704

 2017-02-08 03:18:27.965553+01 | 1486520307.96555 | 0/E7DC3640               |            3889968704

 2017-02-08 03:18:29.101072+01 | 1486520309.10107 | 0/E7DC3640               |            3889968704

 2017-02-08 03:18:30.268962+01 | 1486520310.26896 | 0/E7DC3640               |            3889968704

 2017-02-08 03:18:31.45475+01 | 1486520311.45475 | 0/E7DC3640               |            3889968704

 2017-02-08 03:18:32.65143+01 | 1486520312.65143 | 0/E7DC3640               |            3889968704

 2017-02-08 03:18:33.836098+01 | 1486520313.8361 | 0/E7DC3640               |            3889968704

 2017-02-08 03:18:34.973687+01 | 1486520314.97369 | 0/E7DC3640               |            3889968704

 2017-02-08 03:18:36.150524+01 | 1486520316.15052 | 0/E7DC3640               |            3889968704

 2017-02-08 03:18:37.279093+01 | 1486520317.27909 | 0/E7DC3640               |            3889968704

 2017-02-08 03:18:38.473862+01 | 1486520318.47386 | 0/E7DC3640               |            3889968704

 2017-02-08 03:18:39.675932+01 | 1486520319.67593 | 0/E7DC3640               |            3889968704

 2017-02-08 03:18:40.825158+01 | 1486520320.82516 | 0/E7DC3640               |            3889968704

 2017-02-08 03:18:42.018482+01 | 1486520322.01848 | 0/E7DC3640               |            3889968704

 2017-02-08 03:18:43.211452+01 | 1486520323.21145 | 0/E7DC3640               |            3889968704

 2017-02-08 03:18:44.405403+01 | 1486520324.4054 | 0/E7DC3640               |            3889968704

 2017-02-08 03:18:45.604377+01 | 1486520325.60438 | 0/E7DC3640               |            3889968704

 2017-02-08 03:18:46.77687+01 | 1486520326.77687 | 0/E7DC3640               |            3889968704

 2017-02-08 03:18:47.974006+01 | 1486520327.97401 | 0/E7DC3640               |            3889968704

 2017-02-08 03:18:49.168722+01 | 1486520329.16872 | 0/E7DC3640               |            3889968704

 2017-02-08 03:18:50.364846+01 | 1486520330.36485 | 0/E7DC3640               |            3889968704

 2017-02-08 03:18:51.560557+01 | 1486520331.56056 | 0/E7DC3640               |            3889968704

 2017-02-08 03:18:52.750378+01 | 1486520332.75038 | 0/E7DC3640               |            3889968704

 2017-02-08 03:18:53.943528+01 | 1486520333.94353 | 0/E7DC3640               |            3889968704

 2017-02-08 03:18:55.130122+01 | 1486520335.13012 | 0/E7DC3640               |            3889968704

 2017-02-08 03:18:56.327769+01 | 1486520336.32777 | 0/E7DC3640               |            3889968704

 2017-02-08 03:18:57.522792+01 | 1486520337.52279 | 0/E7DC3640               |            3889968704

 2017-02-08 03:18:58.714202+01 | 1486520338.7142 | 0/E7DC3640               |            3889968704

 2017-02-08 03:18:59.914272+01 | 1486520339.91427 | 0/E7DC3640               |            3889968704

 2017-02-08 03:19:01.088533+01 | 1486520341.08853 | 0/E7DC3640               |            3889968704

 2017-02-08 03:19:02.211571+01 | 1486520342.21157 | 0/E7DC3640               |            3889968704

 2017-02-08 03:19:03.399453+01 | 1486520343.39945 | 0/E7DC3640               |            3889968704

 2017-02-08 03:19:04.540613+01 | 1486520344.54061 | 0/E7DC3640               |            3889968704

 2017-02-08 03:19:05.687791+01 | 1486520345.68779 | 0/E7DC3640               |            3889968704

 2017-02-08 03:19:06.846074+01 | 1486520346.84607 | 0/E7DC3640               |            3889968704

 2017-02-08 03:19:08.010557+01 | 1486520348.01056 | 0/E7DC3640               |            3889968704

 2017-02-08 03:19:09.204265+01 | 1486520349.20427 | 0/E7DC3640               |            3889968704

 2017-02-08 03:19:10.398386+01 | 1486520350.39839 | 0/E7DC3640               |            3889968704

 2017-02-08 03:19:11.58749+01 | 1486520351.58749 | 0/E7DC3640               |            3889968704

 2017-02-08 03:19:12.742318+01 | 1486520352.74232 | 0/E7DC3640               |            3889968704

 2017-02-08 03:19:13.911437+01 | 1486520353.91144 | 0/E7DC3640               |            3889968704

 2017-02-08 03:19:15.035783+01 | 1486520355.03578 | 0/E7DC3640               |            3889968704

 2017-02-08 03:19:16.2311+01 | 1486520356.2311 | 0/E7DC3640               |            3889968704

 2017-02-08 03:19:17.425377+01 | 1486520357.42538 | 0/E7DC3640               |            3889968704

 2017-02-08 03:19:18.618832+01 | 1486520358.61883 | 0/E7DC3640               |            3889968704

 2017-02-08 03:19:19.81428+01 | 1486520359.81428 | 0/E7DC3640               |            3889968704

 2017-02-08 03:19:21.005115+01 | 1486520361.00512 | 0/E7DC3640               |            3889968704

 2017-02-08 03:19:22.166999+01 | 1486520362.167 | 0/E7DC3640               |            3889968704

 2017-02-08 03:19:23.325001+01 | 1486520363.325 | 0/E7DC3640               |            3889968704

 2017-02-08 03:19:24.517764+01 | 1486520364.51776 | 0/E7DC3640               |            3889968704

 2017-02-08 03:19:25.714987+01 | 1486520365.71499 | 0/E7DC3640               |            3889968704

 2017-02-08 03:19:26.911969+01 | 1486520366.91197 | 0/E7DC3640               |            3889968704

 2017-02-08 03:19:28.105341+01 | 1486520368.10534 | 0/E7DC3640               |            3889968704

 2017-02-08 03:19:29.30124+01 | 1486520369.30124 | 0/E7DC3640               |            3889968704

 2017-02-08 03:19:30.473592+01 | 1486520370.47359 | 0/E7DC3640               |            3889968704

 2017-02-08 03:19:31.666905+01 | 1486520371.6669 | 0/E7DC3640               |            3889968704

 2017-02-08 03:19:32.864562+01 | 1486520372.86456 | 0/E7DC3640               |            3889968704

 2017-02-08 03:19:34.05935+01 | 1486520374.05935 | 0/E7DC3640               |            3889968704

 2017-02-08 03:19:35.252462+01 | 1486520375.25246 | 0/E7DC3640               |            3889968704

 2017-02-08 03:19:36.443516+01 | 1486520376.44352 | 0/E7DC3640               |            3889968704

 2017-02-08 03:19:37.640749+01 | 1486520377.64075 | 0/E7DC3640               |            3889968704

 2017-02-08 03:19:38.835707+01 | 1486520378.83571 | 0/E7DC3640               |            3889968704

 2017-02-08 03:19:40.029982+01 | 1486520380.02998 | 0/E7DC3640               |            3889968704

 2017-02-08 03:19:41.224676+01 | 1486520381.22468 | 0/E7DC3640               |            3889968704

 2017-02-08 03:19:42.422035+01 | 1486520382.42203 | 0/E7DC3640               |            3889968704

 2017-02-08 03:19:43.61756+01 | 1486520383.61756 | 0/E7DC3640               |            3889968704

 2017-02-08 03:19:44.80616+01 | 1486520384.80616 | 0/E7DC3640               |            3889968704

 2017-02-08 03:19:46.003431+01 | 1486520386.00343 | 0/E7DC3640               |            3889968704

 2017-02-08 03:19:47.196747+01 | 1486520387.19675 | 0/E7DC3640               |            3889968704

 2017-02-08 03:19:48.39042+01 | 1486520388.39042 | 0/E7DC3640               |            3889968704

 2017-02-08 03:19:49.585582+01 | 1486520389.58558 | 0/E7DC3640               |            3889968704

 2017-02-08 03:19:50.780208+01 | 1486520390.78021 | 0/E7DC3640               |            3889968704

 2017-02-08 03:19:51.976108+01 | 1486520391.97611 | 0/E7DC3640               |            3889968704

 2017-02-08 03:19:53.169421+01 | 1486520393.16942 | 0/E7DC3640               |            3889968704

 2017-02-08 03:19:54.359525+01 | 1486520394.35952 | 0/E7DC3640               |            3889968704

 2017-02-08 03:19:55.534158+01 | 1486520395.53416 | 0/E7DC3640               |            3889968704

 2017-02-08 03:19:56.727312+01 | 1486520396.72731 | 0/E7DC3640               |            3889968704

 2017-02-08 03:19:57.923942+01 | 1486520397.92394 | 0/E7DC3640               |            3889968704

 2017-02-08 03:19:59.11653+01 | 1486520399.11653 | 0/E7DC3640               |            3889968704

 2017-02-08 03:20:00.314769+01 | 1486520400.31477 | 0/E7DC3640               |            3889968704

 2017-02-08 03:20:01.515071+01 | 1486520401.51507 | 0/E7DC3640               |            3889968704

 2017-02-08 03:20:02.706148+01 | 1486520402.70615 | 0/E7DC3640               |            3889968704

 2017-02-08 03:20:03.868128+01 | 1486520403.86813 | 0/E7DC3640               |            3889968704

 2017-02-08 03:20:05.057997+01 | 1486520405.058 | 0/E7DC3640               |            3889968704

 2017-02-08 03:20:06.217107+01 | 1486520406.21711 | 0/E7DC3640               |            3889968704

 2017-02-08 03:20:07.408656+01 | 1486520407.40866 | 0/E7DC3640               |            3889968704

 2017-02-08 03:20:08.603813+01 | 1486520408.60381 | 0/E7DC3640               |            3889968704

 2017-02-08 03:20:09.765302+01 | 1486520409.7653 | 0/E7DC3640               |            3889968704

 2017-02-08 03:20:10.955317+01 | 1486520410.95532 | 0/E7DC3640               |            3889968704

 2017-02-08 03:20:12.14532+01 | 1486520412.14532 | 0/E7DC3640               |            3889968704

 2017-02-08 03:20:13.341495+01 | 1486520413.3415 | 0/E7DC3640               |            3889968704

 2017-02-08 03:20:14.535507+01 | 1486520414.53551 | 0/E7DC3640               |            3889968704

 2017-02-08 03:20:15.667112+01 | 1486520415.66711 | 0/E7DC3640               |            3889968704

 2017-02-08 03:20:16.859171+01 | 1486520416.85917 | 0/E7DC3640               |            3889968704

 2017-02-08 03:20:18.057969+01 | 1486520418.05797 | 0/E7DC3640               |            3889968704

 2017-02-08 03:20:19.251228+01 | 1486520419.25123 | 0/E7DC3640               |            3889968704

 2017-02-08 03:20:20.444512+01 | 1486520420.44451 | 0/E7DC3640               |            3889968704

 2017-02-08 03:20:21.569941+01 | 1486520421.56994 | 0/E7DC3640               |            3889968704

 2017-02-08 03:20:22.768123+01 | 1486520422.76812 | 0/E7DC3640               |            3889968704

 2017-02-08 03:20:23.963659+01 | 1486520423.96366 | 0/E7DC3640               |            3889968704

 2017-02-08 03:20:25.156949+01 | 1486520425.15695 | 0/E7DC3640               |            3889968704

 2017-02-08 03:20:26.352179+01 | 1486520426.35218 | 0/E7DC3640               |            3889968704

 2017-02-08 03:20:27.546142+01 | 1486520427.54614 | 0/E7DC3640               |            3889968704

 2017-02-08 03:20:28.737087+01 | 1486520428.73709 | 0/E7DC3640               |            3889968704

 2017-02-08 03:20:29.859772+01 | 1486520429.85977 | 0/E7DC3640               |            3889968704

 2017-02-08 03:20:30.998311+01 | 1486520430.99831 | 0/E7DC3640               |            3889968704

 2017-02-08 03:20:32.160978+01 | 1486520432.16098 | 0/E7DC3640               |            3889968704

