 2017-02-08 22:10:13.47655+01 | 1486588213.47655 |                 0 |              15 |                  5423 |                 3658 |            1277843 |             0 |                0 |          244734 |                     0 |         98952 | 2017-02-08 20:59:52.862777+01

 2017-02-08 22:10:14.534749+01 | 1486588214.53475 |                 0 |              15 |                  5423 |                 3658 |            1277843 |             0 |                0 |          244734 |                     0 |         98952 | 2017-02-08 20:59:52.862777+01

 2017-02-08 22:10:15.592766+01 | 1486588215.59277 |                 0 |              15 |                  5423 |                 3658 |            1277843 |             0 |                0 |          244734 |                     0 |         98952 | 2017-02-08 20:59:52.862777+01

 2017-02-08 22:10:16.645927+01 | 1486588216.64593 |                 0 |              15 |                  5423 |                 3658 |            1277843 |             0 |                0 |          244734 |                     0 |         98952 | 2017-02-08 20:59:52.862777+01

 2017-02-08 22:10:17.701195+01 | 1486588217.7012 |                 0 |              15 |                  5423 |                 3658 |            1277843 |             0 |                0 |          244734 |                     0 |         98952 | 2017-02-08 20:59:52.862777+01

 2017-02-08 22:10:18.760972+01 | 1486588218.76097 |                 0 |              15 |                  5423 |                 3658 |            1277843 |             0 |                0 |          244734 |                     0 |         98952 | 2017-02-08 20:59:52.862777+01

 2017-02-08 22:10:19.819838+01 | 1486588219.81984 |                 0 |              15 |                  5423 |                 3658 |            1277843 |             0 |                0 |          244734 |                     0 |         98952 | 2017-02-08 20:59:52.862777+01

 2017-02-08 22:10:20.882644+01 | 1486588220.88264 |                 0 |              15 |                  5423 |                 3658 |            1277843 |             0 |                0 |          244734 |                     0 |         98952 | 2017-02-08 20:59:52.862777+01

 2017-02-08 22:10:21.946275+01 | 1486588221.94627 |                 0 |              15 |                  5423 |                 3658 |            1277843 |             0 |                0 |          244734 |                     0 |         98952 | 2017-02-08 20:59:52.862777+01

 2017-02-08 22:10:23.005161+01 | 1486588223.00516 |                 0 |              15 |                  5423 |                 3658 |            1277843 |             0 |                0 |          244734 |                     0 |         98952 | 2017-02-08 20:59:52.862777+01

 2017-02-08 22:10:24.062815+01 | 1486588224.06281 |                 0 |              15 |                  5423 |                 3658 |            1277843 |             0 |                0 |          244734 |                     0 |         98952 | 2017-02-08 20:59:52.862777+01

 2017-02-08 22:10:25.110696+01 | 1486588225.1107 |                 0 |              15 |                  5423 |                 3658 |            1277843 |             0 |                0 |          244734 |                     0 |         98952 | 2017-02-08 20:59:52.862777+01

 2017-02-08 22:10:26.171208+01 | 1486588226.17121 |                 0 |              15 |                  5423 |                 3658 |            1277843 |             0 |                0 |          244734 |                     0 |         98952 | 2017-02-08 20:59:52.862777+01

 2017-02-08 22:10:27.232391+01 | 1486588227.23239 |                 0 |              15 |                  5423 |                 3658 |            1277843 |             0 |                0 |          244734 |                     0 |         98952 | 2017-02-08 20:59:52.862777+01

 2017-02-08 22:10:28.302619+01 | 1486588228.30262 |                 0 |              15 |                  5423 |                 3658 |            1277843 |             0 |                0 |          244734 |                     0 |         98952 | 2017-02-08 20:59:52.862777+01

 2017-02-08 22:10:29.35754+01 | 1486588229.35754 |                 0 |              15 |                  5423 |                 3658 |            1277843 |             0 |                0 |          244734 |                     0 |         98952 | 2017-02-08 20:59:52.862777+01

 2017-02-08 22:10:30.4173+01 | 1486588230.4173 |                 0 |              15 |                  5423 |                 3658 |            1277843 |             0 |                0 |          244734 |                     0 |         98952 | 2017-02-08 20:59:52.862777+01

 2017-02-08 22:10:31.478423+01 | 1486588231.47842 |                 0 |              15 |                  5423 |                 3658 |            1277843 |             0 |                0 |          244734 |                     0 |         98952 | 2017-02-08 20:59:52.862777+01

 2017-02-08 22:10:32.534339+01 | 1486588232.53434 |                 0 |              15 |                  5423 |                 3658 |            1277843 |             0 |                0 |          244734 |                     0 |         98952 | 2017-02-08 20:59:52.862777+01

 2017-02-08 22:10:33.592342+01 | 1486588233.59234 |                 0 |              15 |                  5423 |                 3658 |            1277843 |             0 |                0 |          244734 |                     0 |         98952 | 2017-02-08 20:59:52.862777+01

 2017-02-08 22:10:34.656711+01 | 1486588234.65671 |                 0 |              15 |                  5423 |                 3658 |            1277843 |             0 |                0 |          244734 |                     0 |         98952 | 2017-02-08 20:59:52.862777+01

 2017-02-08 22:10:35.715705+01 | 1486588235.7157 |                 0 |              15 |                  5423 |                 3658 |            1277843 |             0 |                0 |          244734 |                     0 |         98952 | 2017-02-08 20:59:52.862777+01

 2017-02-08 22:10:36.77678+01 | 1486588236.77678 |                 0 |              15 |                  5423 |                 3658 |            1277843 |             0 |                0 |          244734 |                     0 |         98952 | 2017-02-08 20:59:52.862777+01

 2017-02-08 22:10:37.835756+01 | 1486588237.83576 |                 0 |              15 |                  5423 |                 3658 |            1277843 |             0 |                0 |          244734 |                     0 |         98952 | 2017-02-08 20:59:52.862777+01

 2017-02-08 22:10:38.898274+01 | 1486588238.89827 |                 0 |              15 |                  5423 |                 3658 |            1277843 |             0 |                0 |          244734 |                     0 |         98952 | 2017-02-08 20:59:52.862777+01

 2017-02-08 22:10:39.952862+01 | 1486588239.95286 |                 0 |              15 |                  5423 |                 3658 |            1277843 |             0 |                0 |          244734 |                     0 |         98952 | 2017-02-08 20:59:52.862777+01

 2017-02-08 22:10:41.016134+01 | 1486588241.01613 |                 0 |              15 |                  5423 |                 3658 |            1277843 |             0 |                0 |          244734 |                     0 |         98952 | 2017-02-08 20:59:52.862777+01

 2017-02-08 22:10:42.084601+01 | 1486588242.0846 |                 0 |              15 |                  5423 |                 3658 |            1277843 |             0 |                0 |          244734 |                     0 |         98952 | 2017-02-08 20:59:52.862777+01

 2017-02-08 22:10:43.148594+01 | 1486588243.14859 |                 0 |              15 |                  5423 |                 3658 |            1277843 |             0 |                0 |          244734 |                     0 |         98952 | 2017-02-08 20:59:52.862777+01

 2017-02-08 22:10:44.208043+01 | 1486588244.20804 |                 0 |              15 |                  5423 |                 3658 |            1277843 |             0 |                0 |          244734 |                     0 |         98952 | 2017-02-08 20:59:52.862777+01

 2017-02-08 22:10:45.275741+01 | 1486588245.27574 |                 0 |              15 |                  5423 |                 3658 |            1277843 |             0 |                0 |          244734 |                     0 |         98952 | 2017-02-08 20:59:52.862777+01

 2017-02-08 22:10:46.337987+01 | 1486588246.33799 |                 0 |              15 |                  5423 |                 3658 |            1277843 |             0 |                0 |          244734 |                     0 |         98952 | 2017-02-08 20:59:52.862777+01

 2017-02-08 22:10:47.4036+01 | 1486588247.4036 |                 0 |              15 |                  5423 |                 3658 |            1277843 |             0 |                0 |          244734 |                     0 |         98952 | 2017-02-08 20:59:52.862777+01

 2017-02-08 22:10:48.465759+01 | 1486588248.46576 |                 0 |              15 |                  5423 |                 3658 |            1277843 |             0 |                0 |          244734 |                     0 |         98952 | 2017-02-08 20:59:52.862777+01

 2017-02-08 22:10:49.531837+01 | 1486588249.53184 |                 0 |              15 |                  5423 |                 3658 |            1277843 |             0 |                0 |          244734 |                     0 |         98952 | 2017-02-08 20:59:52.862777+01

 2017-02-08 22:10:50.58619+01 | 1486588250.58619 |                 0 |              15 |                  5423 |                 3658 |            1277843 |             0 |                0 |          244734 |                     0 |         98952 | 2017-02-08 20:59:52.862777+01

 2017-02-08 22:10:51.641311+01 | 1486588251.64131 |                 0 |              15 |                  5423 |                 3658 |            1277843 |             0 |                0 |          244734 |                     0 |         98952 | 2017-02-08 20:59:52.862777+01

 2017-02-08 22:10:52.698127+01 | 1486588252.69813 |                 0 |              15 |                  5423 |                 3658 |            1277843 |             0 |                0 |          244734 |                     0 |         98952 | 2017-02-08 20:59:52.862777+01

 2017-02-08 22:10:53.756646+01 | 1486588253.75665 |                 0 |              15 |                  5423 |                 3658 |            1277843 |             0 |                0 |          244734 |                     0 |         98952 | 2017-02-08 20:59:52.862777+01

 2017-02-08 22:10:54.815142+01 | 1486588254.81514 |                 0 |              15 |                  5423 |                 3658 |            1277843 |             0 |                0 |          244734 |                     0 |         98952 | 2017-02-08 20:59:52.862777+01

 2017-02-08 22:10:55.874872+01 | 1486588255.87487 |                 0 |              15 |                  5423 |                 3658 |            1277843 |             0 |                0 |          244734 |                     0 |         98952 | 2017-02-08 20:59:52.862777+01

 2017-02-08 22:10:56.94172+01 | 1486588256.94172 |                 0 |              15 |                  5423 |                 3658 |            1277843 |             0 |                0 |          244734 |                     0 |         98952 | 2017-02-08 20:59:52.862777+01

 2017-02-08 22:10:57.994801+01 | 1486588257.9948 |                 0 |              15 |                  5423 |                 3658 |            1277843 |             0 |                0 |          244734 |                     0 |         98952 | 2017-02-08 20:59:52.862777+01

 2017-02-08 22:10:59.049021+01 | 1486588259.04902 |                 0 |              15 |                  5423 |                 3658 |            1277843 |             0 |                0 |          244734 |                     0 |         98952 | 2017-02-08 20:59:52.862777+01

 2017-02-08 22:11:00.106507+01 | 1486588260.10651 |                 0 |              15 |                  5423 |                 3658 |            1277843 |             0 |                0 |          244734 |                     0 |         98952 | 2017-02-08 20:59:52.862777+01

 2017-02-08 22:11:01.171798+01 | 1486588261.1718 |                 0 |              15 |                  5423 |                 3658 |            1277843 |             0 |                0 |          244734 |                     0 |         98952 | 2017-02-08 20:59:52.862777+01

 2017-02-08 22:11:02.238216+01 | 1486588262.23822 |                 0 |              15 |                  5423 |                 3658 |            1277843 |             0 |                0 |          244734 |                     0 |         98952 | 2017-02-08 20:59:52.862777+01

 2017-02-08 22:11:03.297992+01 | 1486588263.29799 |                 0 |              15 |                  5423 |                 3658 |            1277843 |             0 |                0 |          244734 |                     0 |         98952 | 2017-02-08 20:59:52.862777+01

 2017-02-08 22:11:04.356117+01 | 1486588264.35612 |                 0 |              15 |                  5423 |                 3658 |            1277843 |             0 |                0 |          244734 |                     0 |         98952 | 2017-02-08 20:59:52.862777+01

 2017-02-08 22:11:05.417552+01 | 1486588265.41755 |                 0 |              15 |                  5423 |                 3658 |            1277843 |             0 |                0 |          244734 |                     0 |         98952 | 2017-02-08 20:59:52.862777+01

 2017-02-08 22:11:06.473239+01 | 1486588266.47324 |                 0 |              15 |                  5423 |                 3658 |            1277843 |             0 |                0 |          244734 |                     0 |         98952 | 2017-02-08 20:59:52.862777+01

 2017-02-08 22:11:07.527209+01 | 1486588267.52721 |                 0 |              15 |                  5423 |                 3658 |            1277843 |             0 |                0 |          244734 |                     0 |         98952 | 2017-02-08 20:59:52.862777+01

 2017-02-08 22:11:08.585964+01 | 1486588268.58596 |                 0 |              15 |                  5423 |                 3658 |            1277843 |             0 |                0 |          244734 |                     0 |         98952 | 2017-02-08 20:59:52.862777+01

 2017-02-08 22:11:09.644085+01 | 1486588269.64408 |                 0 |              15 |                  5423 |                 3658 |            1277843 |             0 |                0 |          244734 |                     0 |         98952 | 2017-02-08 20:59:52.862777+01

 2017-02-08 22:11:10.699608+01 | 1486588270.69961 |                 0 |              15 |                  5423 |                 3658 |            1277843 |             0 |                0 |          244734 |                     0 |         98952 | 2017-02-08 20:59:52.862777+01

 2017-02-08 22:11:11.770805+01 | 1486588271.7708 |                 0 |              15 |                  5423 |                 3658 |            1277843 |             0 |                0 |          244734 |                     0 |         98952 | 2017-02-08 20:59:52.862777+01

 2017-02-08 22:11:12.835691+01 | 1486588272.83569 |                 0 |              15 |                  5423 |                 3658 |            1277843 |             0 |                0 |          244734 |                     0 |         98952 | 2017-02-08 20:59:52.862777+01

 2017-02-08 22:11:13.894633+01 | 1486588273.89463 |                 0 |              15 |                  5423 |                 3658 |            1277843 |             0 |                0 |          244734 |                     0 |         98952 | 2017-02-08 20:59:52.862777+01

 2017-02-08 22:11:14.948732+01 | 1486588274.94873 |                 0 |              15 |                  5423 |                 3658 |            1277843 |             0 |                0 |          244734 |                     0 |         98952 | 2017-02-08 20:59:52.862777+01

 2017-02-08 22:11:16.004677+01 | 1486588276.00468 |                 0 |              15 |                  5423 |                 3658 |            1277843 |             0 |                0 |          244734 |                     0 |         98952 | 2017-02-08 20:59:52.862777+01

 2017-02-08 22:11:17.066226+01 | 1486588277.06623 |                 0 |              15 |                  5423 |                 3658 |            1277843 |             0 |                0 |          244734 |                     0 |         98952 | 2017-02-08 20:59:52.862777+01

 2017-02-08 22:11:18.123+01 | 1486588278.123 |                 0 |              15 |                  5423 |                 3658 |            1277843 |             0 |                0 |          244734 |                     0 |         98952 | 2017-02-08 20:59:52.862777+01

 2017-02-08 22:11:19.184774+01 | 1486588279.18477 |                 0 |              15 |                  5423 |                 3658 |            1277843 |             0 |                0 |          244734 |                     0 |         98952 | 2017-02-08 20:59:52.862777+01

 2017-02-08 22:11:20.244139+01 | 1486588280.24414 |                 0 |              15 |                  5423 |                 3658 |            1277843 |             0 |                0 |          244734 |                     0 |         98952 | 2017-02-08 20:59:52.862777+01

 2017-02-08 22:11:21.30338+01 | 1486588281.30338 |                 0 |              15 |                  5423 |                 3658 |            1277843 |             0 |                0 |          244734 |                     0 |         98952 | 2017-02-08 20:59:52.862777+01

 2017-02-08 22:11:22.36446+01 | 1486588282.36446 |                 0 |              15 |                  5423 |                 3658 |            1277843 |             0 |                0 |          244734 |                     0 |         98952 | 2017-02-08 20:59:52.862777+01

 2017-02-08 22:11:23.424232+01 | 1486588283.42423 |                 0 |              15 |                  5423 |                 3658 |            1277843 |             0 |                0 |          244734 |                     0 |         98952 | 2017-02-08 20:59:52.862777+01

 2017-02-08 22:11:24.489606+01 | 1486588284.48961 |                 0 |              15 |                  5423 |                 3658 |            1277843 |             0 |                0 |          244734 |                     0 |         98952 | 2017-02-08 20:59:52.862777+01

 2017-02-08 22:11:25.553197+01 | 1486588285.5532 |                 0 |              15 |                  5423 |                 3658 |            1277843 |             0 |                0 |          244734 |                     0 |         98952 | 2017-02-08 20:59:52.862777+01

 2017-02-08 22:11:26.62445+01 | 1486588286.62445 |                 0 |              15 |                  5423 |                 3658 |            1277843 |             0 |                0 |          244734 |                     0 |         98952 | 2017-02-08 20:59:52.862777+01

 2017-02-08 22:11:27.688731+01 | 1486588287.68873 |                 0 |              15 |                  5423 |                 3658 |            1277843 |             0 |                0 |          244734 |                     0 |         98952 | 2017-02-08 20:59:52.862777+01

 2017-02-08 22:11:28.770372+01 | 1486588288.77037 |                 0 |              15 |                  5423 |                 3658 |            1277843 |             0 |                0 |          244734 |                     0 |         98952 | 2017-02-08 20:59:52.862777+01

 2017-02-08 22:11:29.834839+01 | 1486588289.83484 |                 0 |              15 |                  5423 |                 3658 |            1277843 |             0 |                0 |          244734 |                     0 |         98952 | 2017-02-08 20:59:52.862777+01

 2017-02-08 22:11:30.892309+01 | 1486588290.89231 |                 0 |              15 |                  5423 |                 3658 |            1277843 |             0 |                0 |          244734 |                     0 |         98952 | 2017-02-08 20:59:52.862777+01

 2017-02-08 22:11:31.949686+01 | 1486588291.94969 |                 0 |              15 |                  5423 |                 3658 |            1277843 |             0 |                0 |          244734 |                     0 |         98952 | 2017-02-08 20:59:52.862777+01

 2017-02-08 22:11:33.006537+01 | 1486588293.00654 |                 0 |              15 |                  5423 |                 3658 |            1277843 |             0 |                0 |          244734 |                     0 |         98952 | 2017-02-08 20:59:52.862777+01

 2017-02-08 22:11:34.068518+01 | 1486588294.06852 |                 0 |              15 |                  5423 |                 3658 |            1277843 |             0 |                0 |          244734 |                     0 |         98952 | 2017-02-08 20:59:52.862777+01

 2017-02-08 22:11:35.135397+01 | 1486588295.1354 |                 0 |              15 |                  5423 |                 3658 |            1277843 |             0 |                0 |          244734 |                     0 |         98952 | 2017-02-08 20:59:52.862777+01

 2017-02-08 22:11:36.190496+01 | 1486588296.1905 |                 0 |              15 |                  5423 |                 3658 |            1277843 |             0 |                0 |          244734 |                     0 |         98952 | 2017-02-08 20:59:52.862777+01

 2017-02-08 22:11:37.248847+01 | 1486588297.24885 |                 0 |              15 |                  5423 |                 3658 |            1277843 |             0 |                0 |          244734 |                     0 |         98952 | 2017-02-08 20:59:52.862777+01

 2017-02-08 22:11:38.305019+01 | 1486588298.30502 |                 0 |              15 |                  5423 |                 3658 |            1277843 |             0 |                0 |          244734 |                     0 |         98952 | 2017-02-08 20:59:52.862777+01

 2017-02-08 22:11:39.362661+01 | 1486588299.36266 |                 0 |              15 |                  5423 |                 3658 |            1277843 |             0 |                0 |          244734 |                     0 |         98952 | 2017-02-08 20:59:52.862777+01

 2017-02-08 22:11:40.422858+01 | 1486588300.42286 |                 0 |              15 |                  5423 |                 3658 |            1277843 |             0 |                0 |          244734 |                     0 |         98952 | 2017-02-08 20:59:52.862777+01

 2017-02-08 22:11:41.489857+01 | 1486588301.48986 |                 0 |              15 |                  5423 |                 3658 |            1277843 |             0 |                0 |          244734 |                     0 |         98952 | 2017-02-08 20:59:52.862777+01

 2017-02-08 22:11:42.545304+01 | 1486588302.5453 |                 0 |              15 |                  5423 |                 3658 |            1277843 |             0 |                0 |          244734 |                     0 |         98952 | 2017-02-08 20:59:52.862777+01

 2017-02-08 22:11:43.597098+01 | 1486588303.5971 |                 0 |              15 |                  5423 |                 3658 |            1277843 |             0 |                0 |          244734 |                     0 |         98952 | 2017-02-08 20:59:52.862777+01

 2017-02-08 22:11:44.651337+01 | 1486588304.65134 |                 0 |              15 |                  5423 |                 3658 |            1277843 |             0 |                0 |          244734 |                     0 |         98952 | 2017-02-08 20:59:52.862777+01

 2017-02-08 22:11:45.710364+01 | 1486588305.71036 |                 0 |              15 |                  5423 |                 3658 |            1277843 |             0 |                0 |          244734 |                     0 |         98952 | 2017-02-08 20:59:52.862777+01

 2017-02-08 22:11:46.768929+01 | 1486588306.76893 |                 0 |              15 |                  5423 |                 3658 |            1277843 |             0 |                0 |          244734 |                     0 |         98952 | 2017-02-08 20:59:52.862777+01

 2017-02-08 22:11:47.832053+01 | 1486588307.83205 |                 0 |              15 |                  5423 |                 3658 |            1277843 |             0 |                0 |          244734 |                     0 |         98952 | 2017-02-08 20:59:52.862777+01

 2017-02-08 22:11:48.897035+01 | 1486588308.89703 |                 0 |              15 |                  5423 |                 3658 |            1277843 |             0 |                0 |          244734 |                     0 |         98952 | 2017-02-08 20:59:52.862777+01

 2017-02-08 22:11:49.96115+01 | 1486588309.96115 |                 0 |              15 |                  5423 |                 3658 |            1277843 |             0 |                0 |          244734 |                     0 |         98952 | 2017-02-08 20:59:52.862777+01

 2017-02-08 22:11:51.022943+01 | 1486588311.02294 |                 0 |              15 |                  5423 |                 3658 |            1277843 |             0 |                0 |          244734 |                     0 |         98952 | 2017-02-08 20:59:52.862777+01

 2017-02-08 22:11:52.086332+01 | 1486588312.08633 |                 0 |              15 |                  5423 |                 3658 |            1277843 |             0 |                0 |          244734 |                     0 |         98952 | 2017-02-08 20:59:52.862777+01

 2017-02-08 22:11:53.14515+01 | 1486588313.14515 |                 0 |              15 |                  5423 |                 3658 |            1277843 |             0 |                0 |          244734 |                     0 |         98952 | 2017-02-08 20:59:52.862777+01

 2017-02-08 22:11:54.205697+01 | 1486588314.2057 |                 0 |              15 |                  5423 |                 3658 |            1277843 |             0 |                0 |          244734 |                     0 |         98952 | 2017-02-08 20:59:52.862777+01

 2017-02-08 22:11:55.266775+01 | 1486588315.26677 |                 0 |              15 |                  5423 |                 3658 |            1277843 |             0 |                0 |          244734 |                     0 |         98952 | 2017-02-08 20:59:52.862777+01

 2017-02-08 22:11:56.333735+01 | 1486588316.33373 |                 0 |              15 |                  5423 |                 3658 |            1277843 |             0 |                0 |          244734 |                     0 |         98952 | 2017-02-08 20:59:52.862777+01

 2017-02-08 22:11:57.394722+01 | 1486588317.39472 |                 0 |              15 |                  5423 |                 3658 |            1277843 |             0 |                0 |          244734 |                     0 |         98952 | 2017-02-08 20:59:52.862777+01

 2017-02-08 22:11:58.465547+01 | 1486588318.46555 |                 0 |              15 |                  5423 |                 3658 |            1277843 |             0 |                0 |          244734 |                     0 |         98952 | 2017-02-08 20:59:52.862777+01

 2017-02-08 22:11:59.538519+01 | 1486588319.53852 |                 0 |              15 |                  5423 |                 3658 |            1277843 |             0 |                0 |          244734 |                     0 |         98952 | 2017-02-08 20:59:52.862777+01

 2017-02-08 22:12:00.601082+01 | 1486588320.60108 |                 0 |              15 |                  5423 |                 3658 |            1277843 |             0 |                0 |          244734 |                     0 |         98952 | 2017-02-08 20:59:52.862777+01

 2017-02-08 22:12:01.658856+01 | 1486588321.65886 |                 0 |              15 |                  5423 |                 3658 |            1277843 |             0 |                0 |          244734 |                     0 |         98952 | 2017-02-08 20:59:52.862777+01

 2017-02-08 22:12:02.721775+01 | 1486588322.72178 |                 0 |              15 |                  5423 |                 3658 |            1277843 |             0 |                0 |          244734 |                     0 |         98952 | 2017-02-08 20:59:52.862777+01

 2017-02-08 22:12:03.783608+01 | 1486588323.78361 |                 0 |              15 |                  5423 |                 3658 |            1277843 |             0 |                0 |          244734 |                     0 |         98952 | 2017-02-08 20:59:52.862777+01

 2017-02-08 22:12:04.846198+01 | 1486588324.8462 |                 0 |              15 |                  5423 |                 3658 |            1277843 |             0 |                0 |          244734 |                     0 |         98952 | 2017-02-08 20:59:52.862777+01

 2017-02-08 22:12:05.896732+01 | 1486588325.89673 |                 0 |              15 |                  5423 |                 3658 |            1277843 |             0 |                0 |          244734 |                     0 |         98952 | 2017-02-08 20:59:52.862777+01

 2017-02-08 22:12:06.956886+01 | 1486588326.95689 |                 0 |              15 |                  5423 |                 3658 |            1277843 |             0 |                0 |          244734 |                     0 |         98952 | 2017-02-08 20:59:52.862777+01

 2017-02-08 22:12:08.015102+01 | 1486588328.0151 |                 0 |              15 |                  5423 |                 3658 |            1277843 |             0 |                0 |          244734 |                     0 |         98952 | 2017-02-08 20:59:52.862777+01

 2017-02-08 22:12:09.0728+01 | 1486588329.0728 |                 0 |              15 |                  5423 |                 3658 |            1277843 |             0 |                0 |          244734 |                     0 |         98952 | 2017-02-08 20:59:52.862777+01

 2017-02-08 22:12:10.133779+01 | 1486588330.13378 |                 0 |              15 |                  5423 |                 3658 |            1277843 |             0 |                0 |          244734 |                     0 |         98952 | 2017-02-08 20:59:52.862777+01

 2017-02-08 22:12:11.193914+01 | 1486588331.19391 |                 0 |              15 |                  5423 |                 3658 |            1277843 |             0 |                0 |          244734 |                     0 |         98952 | 2017-02-08 20:59:52.862777+01

 2017-02-08 22:12:12.255881+01 | 1486588332.25588 |                 0 |              15 |                  5423 |                 3658 |            1277843 |             0 |                0 |          244734 |                     0 |         98952 | 2017-02-08 20:59:52.862777+01

 2017-02-08 22:12:13.31788+01 | 1486588333.31788 |                 0 |              15 |                  5423 |                 3658 |            1277843 |             0 |                0 |          244734 |                     0 |         98952 | 2017-02-08 20:59:52.862777+01

 2017-02-08 22:12:14.381495+01 | 1486588334.38149 |                 0 |              15 |                  5423 |                 3658 |            1277843 |             0 |                0 |          244734 |                     0 |         98952 | 2017-02-08 20:59:52.862777+01

 2017-02-08 22:12:15.447407+01 | 1486588335.44741 |                 0 |              15 |                  5423 |                 3658 |            1277843 |             0 |                0 |          244734 |                     0 |         98952 | 2017-02-08 20:59:52.862777+01

 2017-02-08 22:12:16.506006+01 | 1486588336.50601 |                 0 |              15 |                  5423 |                 3658 |            1277843 |             0 |                0 |          244734 |                     0 |         98952 | 2017-02-08 20:59:52.862777+01

 2017-02-08 22:12:17.570728+01 | 1486588337.57073 |                 0 |              15 |                  5423 |                 3658 |            1277843 |             0 |                0 |          244734 |                     0 |         98952 | 2017-02-08 20:59:52.862777+01

 2017-02-08 22:12:18.634274+01 | 1486588338.63427 |                 0 |              15 |                  5423 |                 3658 |            1277843 |             0 |                0 |          244734 |                     0 |         98952 | 2017-02-08 20:59:52.862777+01

 2017-02-08 22:12:19.695897+01 | 1486588339.6959 |                 0 |              15 |                  5423 |                 3658 |            1277843 |             0 |                0 |          244734 |                     0 |         98952 | 2017-02-08 20:59:52.862777+01

 2017-02-08 22:12:20.75508+01 | 1486588340.75508 |                 0 |              15 |                  5423 |                 3658 |            1277843 |             0 |                0 |          244734 |                     0 |         98952 | 2017-02-08 20:59:52.862777+01

 2017-02-08 22:12:21.817476+01 | 1486588341.81748 |                 0 |              15 |                  5423 |                 3658 |            1277843 |             0 |                0 |          244734 |                     0 |         98952 | 2017-02-08 20:59:52.862777+01

 2017-02-08 22:12:22.876221+01 | 1486588342.87622 |                 0 |              15 |                  5423 |                 3658 |            1277843 |             0 |                0 |          244734 |                     0 |         98952 | 2017-02-08 20:59:52.862777+01

 2017-02-08 22:12:23.935622+01 | 1486588343.93562 |                 0 |              15 |                  5423 |                 3658 |            1277843 |             0 |                0 |          244734 |                     0 |         98952 | 2017-02-08 20:59:52.862777+01

 2017-02-08 22:12:24.997733+01 | 1486588344.99773 |                 0 |              15 |                  5423 |                 3658 |            1277843 |             0 |                0 |          244734 |                     0 |         98952 | 2017-02-08 20:59:52.862777+01

 2017-02-08 22:12:26.053428+01 | 1486588346.05343 |                 0 |              15 |                  5423 |                 3658 |            1277843 |             0 |                0 |          244734 |                     0 |         98952 | 2017-02-08 20:59:52.862777+01

 2017-02-08 22:12:27.107686+01 | 1486588347.10769 |                 0 |              15 |                  5423 |                 3658 |            1277843 |             0 |                0 |          244734 |                     0 |         98952 | 2017-02-08 20:59:52.862777+01

 2017-02-08 22:12:28.170478+01 | 1486588348.17048 |                 0 |              15 |                  5423 |                 3658 |            1277843 |             0 |                0 |          244734 |                     0 |         98952 | 2017-02-08 20:59:52.862777+01

 2017-02-08 22:12:29.233265+01 | 1486588349.23326 |                 0 |              15 |                  5423 |                 3658 |            1277843 |             0 |                0 |          244734 |                     0 |         98952 | 2017-02-08 20:59:52.862777+01

 2017-02-08 22:12:30.302456+01 | 1486588350.30246 |                 0 |              15 |                  5423 |                 3658 |            1277843 |             0 |                0 |          244734 |                     0 |         98952 | 2017-02-08 20:59:52.862777+01

 2017-02-08 22:12:31.363394+01 | 1486588351.36339 |                 0 |              15 |                  5423 |                 3658 |            1277843 |             0 |                0 |          244734 |                     0 |         98952 | 2017-02-08 20:59:52.862777+01

 2017-02-08 22:12:32.431578+01 | 1486588352.43158 |                 0 |              15 |                  5423 |                 3658 |            1277843 |             0 |                0 |          244734 |                     0 |         98952 | 2017-02-08 20:59:52.862777+01

 2017-02-08 22:12:33.486202+01 | 1486588353.4862 |                 0 |              15 |                  5423 |                 3658 |            1277843 |             0 |                0 |          244734 |                     0 |         98952 | 2017-02-08 20:59:52.862777+01

 2017-02-08 22:12:34.5504+01 | 1486588354.5504 |                 0 |              15 |                  5423 |                 3658 |            1277843 |             0 |                0 |          244734 |                     0 |         98952 | 2017-02-08 20:59:52.862777+01

 2017-02-08 22:12:35.604042+01 | 1486588355.60404 |                 0 |              15 |                  5423 |                 3658 |            1277843 |             0 |                0 |          244734 |                     0 |         98952 | 2017-02-08 20:59:52.862777+01

 2017-02-08 22:12:36.66517+01 | 1486588356.66517 |                 0 |              15 |                  5423 |                 3658 |            1277843 |             0 |                0 |          244734 |                     0 |         98952 | 2017-02-08 20:59:52.862777+01

 2017-02-08 22:12:37.723642+01 | 1486588357.72364 |                 0 |              15 |                  5423 |                 3658 |            1277843 |             0 |                0 |          244734 |                     0 |         98952 | 2017-02-08 20:59:52.862777+01

 2017-02-08 22:12:38.788852+01 | 1486588358.78885 |                 0 |              15 |                  5423 |                 3658 |            1277843 |             0 |                0 |          244734 |                     0 |         98952 | 2017-02-08 20:59:52.862777+01

 2017-02-08 22:12:39.851456+01 | 1486588359.85146 |                 0 |              15 |                  5423 |                 3658 |            1277843 |             0 |                0 |          244734 |                     0 |         98952 | 2017-02-08 20:59:52.862777+01

 2017-02-08 22:12:40.907061+01 | 1486588360.90706 |                 0 |              15 |                  5423 |                 3658 |            1277843 |             0 |                0 |          244734 |                     0 |         98952 | 2017-02-08 20:59:52.862777+01

 2017-02-08 22:12:41.964437+01 | 1486588361.96444 |                 0 |              15 |                  5423 |                 3658 |            1277843 |             0 |                0 |          244734 |                     0 |         98952 | 2017-02-08 20:59:52.862777+01

 2017-02-08 22:12:43.021945+01 | 1486588363.02194 |                 0 |              15 |                  5423 |                 3658 |            1277843 |             0 |                0 |          244734 |                     0 |         98952 | 2017-02-08 20:59:52.862777+01

 2017-02-08 22:12:44.084185+01 | 1486588364.08418 |                 0 |              15 |                  5423 |                 3658 |            1277843 |             0 |                0 |          244734 |                     0 |         98952 | 2017-02-08 20:59:52.862777+01

 2017-02-08 22:12:45.14207+01 | 1486588365.14207 |                 0 |              15 |                  5423 |                 3658 |            1277843 |             0 |                0 |          244734 |                     0 |         98952 | 2017-02-08 20:59:52.862777+01

 2017-02-08 22:12:46.199754+01 | 1486588366.19975 |                 0 |              15 |                  5423 |                 3658 |            1277843 |             0 |                0 |          244734 |                     0 |         98952 | 2017-02-08 20:59:52.862777+01

 2017-02-08 22:12:47.259331+01 | 1486588367.25933 |                 0 |              15 |                  5423 |                 3658 |            1277843 |             0 |                0 |          244734 |                     0 |         98952 | 2017-02-08 20:59:52.862777+01

 2017-02-08 22:12:48.31483+01 | 1486588368.31483 |                 0 |              15 |                  5423 |                 3658 |            1277843 |             0 |                0 |          244734 |                     0 |         98952 | 2017-02-08 20:59:52.862777+01

 2017-02-08 22:12:49.375184+01 | 1486588369.37518 |                 0 |              15 |                  5423 |                 3658 |            1277843 |             0 |                0 |          244734 |                     0 |         98952 | 2017-02-08 20:59:52.862777+01

 2017-02-08 22:12:50.432895+01 | 1486588370.43289 |                 0 |              15 |                  5423 |                 3658 |            1277843 |             0 |                0 |          244734 |                     0 |         98952 | 2017-02-08 20:59:52.862777+01

 2017-02-08 22:12:51.495773+01 | 1486588371.49577 |                 0 |              15 |                  5423 |                 3658 |            1277843 |             0 |                0 |          244734 |                     0 |         98952 | 2017-02-08 20:59:52.862777+01

 2017-02-08 22:12:52.552738+01 | 1486588372.55274 |                 0 |              15 |                  5423 |                 3658 |            1277843 |             0 |                0 |          244734 |                     0 |         98952 | 2017-02-08 20:59:52.862777+01

 2017-02-08 22:12:53.60846+01 | 1486588373.60846 |                 0 |              15 |                  5423 |                 3658 |            1277843 |             0 |                0 |          244734 |                     0 |         98952 | 2017-02-08 20:59:52.862777+01

 2017-02-08 22:12:54.665802+01 | 1486588374.6658 |                 0 |              15 |                  5423 |                 3658 |            1277843 |             0 |                0 |          244734 |                     0 |         98952 | 2017-02-08 20:59:52.862777+01

 2017-02-08 22:12:55.726894+01 | 1486588375.72689 |                 0 |              15 |                  5423 |                 3658 |            1277843 |             0 |                0 |          244734 |                     0 |         98952 | 2017-02-08 20:59:52.862777+01

 2017-02-08 22:12:56.788385+01 | 1486588376.78838 |                 0 |              15 |                  5423 |                 3658 |            1277843 |             0 |                0 |          244734 |                     0 |         98952 | 2017-02-08 20:59:52.862777+01

 2017-02-08 22:12:57.844863+01 | 1486588377.84486 |                 0 |              15 |                  5423 |                 3658 |            1277843 |             0 |                0 |          244734 |                     0 |         98952 | 2017-02-08 20:59:52.862777+01

 2017-02-08 22:12:58.900587+01 | 1486588378.90059 |                 0 |              15 |                  5423 |                 3658 |            1277843 |             0 |                0 |          244734 |                     0 |         98952 | 2017-02-08 20:59:52.862777+01

 2017-02-08 22:12:59.95514+01 | 1486588379.95514 |                 0 |              15 |                  5423 |                 3658 |            1277843 |             0 |                0 |          244734 |                     0 |         98952 | 2017-02-08 20:59:52.862777+01

 2017-02-08 22:13:01.00799+01 | 1486588381.00799 |                 0 |              15 |                  5423 |                 3658 |            1277843 |             0 |                0 |          244734 |                     0 |         98952 | 2017-02-08 20:59:52.862777+01

 2017-02-08 22:13:02.060239+01 | 1486588382.06024 |                 0 |              15 |                  5423 |                 3658 |            1277843 |             0 |                0 |          244734 |                     0 |         98952 | 2017-02-08 20:59:52.862777+01

 2017-02-08 22:13:03.127063+01 | 1486588383.12706 |                 0 |              15 |                  5423 |                 3658 |            1277843 |             0 |                0 |          244734 |                     0 |         98952 | 2017-02-08 20:59:52.862777+01

 2017-02-08 22:13:04.187949+01 | 1486588384.18795 |                 0 |              15 |                  5423 |                 3658 |            1277843 |             0 |                0 |          244734 |                     0 |         98952 | 2017-02-08 20:59:52.862777+01

 2017-02-08 22:13:05.24907+01 | 1486588385.24907 |                 0 |              15 |                  5423 |                 3658 |            1277843 |             0 |                0 |          244734 |                     0 |         98952 | 2017-02-08 20:59:52.862777+01

 2017-02-08 22:13:06.305125+01 | 1486588386.30512 |                 0 |              15 |                  5423 |                 3658 |            1277843 |             0 |                0 |          244734 |                     0 |         98952 | 2017-02-08 20:59:52.862777+01

 2017-02-08 22:13:07.364952+01 | 1486588387.36495 |                 0 |              15 |                  5423 |                 3658 |            1277843 |             0 |                0 |          244734 |                     0 |         98952 | 2017-02-08 20:59:52.862777+01

 2017-02-08 22:13:08.431795+01 | 1486588388.43179 |                 0 |              15 |                  5423 |                 3658 |            1277843 |             0 |                0 |          244734 |                     0 |         98952 | 2017-02-08 20:59:52.862777+01

 2017-02-08 22:13:09.494361+01 | 1486588389.49436 |                 0 |              15 |                  5423 |                 3658 |            1277843 |             0 |                0 |          244734 |                     0 |         98952 | 2017-02-08 20:59:52.862777+01

 2017-02-08 22:13:10.555526+01 | 1486588390.55553 |                 0 |              15 |                  5423 |                 3658 |            1277843 |             0 |                0 |          244734 |                     0 |         98952 | 2017-02-08 20:59:52.862777+01

 2017-02-08 22:13:11.617088+01 | 1486588391.61709 |                 0 |              15 |                  5423 |                 3658 |            1277843 |             0 |                0 |          244734 |                     0 |         98952 | 2017-02-08 20:59:52.862777+01

 2017-02-08 22:13:12.682075+01 | 1486588392.68208 |                 0 |              15 |                  5423 |                 3658 |            1277843 |             0 |                0 |          244734 |                     0 |         98952 | 2017-02-08 20:59:52.862777+01

 2017-02-08 22:13:13.740645+01 | 1486588393.74064 |                 0 |              15 |                  5423 |                 3658 |            1277843 |             0 |                0 |          244734 |                     0 |         98952 | 2017-02-08 20:59:52.862777+01

 2017-02-08 22:13:14.794688+01 | 1486588394.79469 |                 0 |              15 |                  5423 |                 3658 |            1277843 |             0 |                0 |          244734 |                     0 |         98952 | 2017-02-08 20:59:52.862777+01

 2017-02-08 22:13:15.853586+01 | 1486588395.85359 |                 0 |              15 |                  5423 |                 3658 |            1277843 |             0 |                0 |          244734 |                     0 |         98952 | 2017-02-08 20:59:52.862777+01

 2017-02-08 22:13:16.920711+01 | 1486588396.92071 |                 0 |              15 |                  5423 |                 3658 |            1277843 |             0 |                0 |          244734 |                     0 |         98952 | 2017-02-08 20:59:52.862777+01

 2017-02-08 22:13:17.981635+01 | 1486588397.98164 |                 0 |              15 |                  5423 |                 3658 |            1277843 |             0 |                0 |          244734 |                     0 |         98952 | 2017-02-08 20:59:52.862777+01

 2017-02-08 22:13:19.037473+01 | 1486588399.03747 |                 0 |              15 |                  5423 |                 3658 |            1277843 |             0 |                0 |          244734 |                     0 |         98952 | 2017-02-08 20:59:52.862777+01

 2017-02-08 22:13:20.102533+01 | 1486588400.10253 |                 0 |              15 |                  5423 |                 3658 |            1277843 |             0 |                0 |          244734 |                     0 |         98952 | 2017-02-08 20:59:52.862777+01

 2017-02-08 22:13:21.167064+01 | 1486588401.16706 |                 0 |              15 |                  5423 |                 3658 |            1277843 |             0 |                0 |          244734 |                     0 |         98952 | 2017-02-08 20:59:52.862777+01

 2017-02-08 22:13:22.224796+01 | 1486588402.2248 |                 0 |              15 |                  5423 |                 3658 |            1277843 |             0 |                0 |          244734 |                     0 |         98952 | 2017-02-08 20:59:52.862777+01

 2017-02-08 22:13:23.279355+01 | 1486588403.27936 |                 0 |              15 |                  5423 |                 3658 |            1277843 |             0 |                0 |          244734 |                     0 |         98952 | 2017-02-08 20:59:52.862777+01

 2017-02-08 22:13:24.346414+01 | 1486588404.34641 |                 0 |              15 |                  5423 |                 3658 |            1277843 |             0 |                0 |          244734 |                     0 |         98952 | 2017-02-08 20:59:52.862777+01

 2017-02-08 22:13:25.408798+01 | 1486588405.4088 |                 0 |              15 |                  5423 |                 3658 |            1277843 |             0 |                0 |          244734 |                     0 |         98952 | 2017-02-08 20:59:52.862777+01

 2017-02-08 22:13:26.477429+01 | 1486588406.47743 |                 0 |              15 |                  5423 |                 3658 |            1277843 |             0 |                0 |          244734 |                     0 |         98952 | 2017-02-08 20:59:52.862777+01

 2017-02-08 22:13:27.536078+01 | 1486588407.53608 |                 0 |              15 |                  5423 |                 3658 |            1277843 |             0 |                0 |          244734 |                     0 |         98952 | 2017-02-08 20:59:52.862777+01

 2017-02-08 22:13:28.596657+01 | 1486588408.59666 |                 0 |              15 |                  5423 |                 3658 |            1277843 |             0 |                0 |          244734 |                     0 |         98952 | 2017-02-08 20:59:52.862777+01

 2017-02-08 22:13:29.654442+01 | 1486588409.65444 |                 0 |              15 |                  5423 |                 3658 |            1277843 |             0 |                0 |          244734 |                     0 |         98952 | 2017-02-08 20:59:52.862777+01

 2017-02-08 22:13:30.717814+01 | 1486588410.71781 |                 0 |              15 |                  5423 |                 3658 |            1277843 |             0 |                0 |          244734 |                     0 |         98952 | 2017-02-08 20:59:52.862777+01

 2017-02-08 22:13:31.77977+01 | 1486588411.77977 |                 0 |              15 |                  5423 |                 3658 |            1277843 |             0 |                0 |          244734 |                     0 |         98952 | 2017-02-08 20:59:52.862777+01

 2017-02-08 22:13:32.837419+01 | 1486588412.83742 |                 0 |              15 |                  5423 |                 3658 |            1277843 |             0 |                0 |          244734 |                     0 |         98952 | 2017-02-08 20:59:52.862777+01

 2017-02-08 22:13:33.895647+01 | 1486588413.89565 |                 0 |              15 |                  5423 |                 3658 |            1277843 |             0 |                0 |          244734 |                     0 |         98952 | 2017-02-08 20:59:52.862777+01

 2017-02-08 22:13:34.952538+01 | 1486588414.95254 |                 0 |              15 |                  5423 |                 3658 |            1277843 |             0 |                0 |          244734 |                     0 |         98952 | 2017-02-08 20:59:52.862777+01

 2017-02-08 22:13:36.011215+01 | 1486588416.01121 |                 0 |              15 |                  5423 |                 3658 |            1277843 |             0 |                0 |          244734 |                     0 |         98952 | 2017-02-08 20:59:52.862777+01

 2017-02-08 22:13:37.072234+01 | 1486588417.07223 |                 0 |              15 |                  5423 |                 3658 |            1277843 |             0 |                0 |          244734 |                     0 |         98952 | 2017-02-08 20:59:52.862777+01

 2017-02-08 22:13:38.131802+01 | 1486588418.1318 |                 0 |              15 |                  5423 |                 3658 |            1277843 |             0 |                0 |          244734 |                     0 |         98952 | 2017-02-08 20:59:52.862777+01

 2017-02-08 22:13:39.189421+01 | 1486588419.18942 |                 0 |              15 |                  5423 |                 3658 |            1277843 |             0 |                0 |          244734 |                     0 |         98952 | 2017-02-08 20:59:52.862777+01

 2017-02-08 22:13:40.253384+01 | 1486588420.25338 |                 0 |              15 |                  5423 |                 3658 |            1277843 |             0 |                0 |          244734 |                     0 |         98952 | 2017-02-08 20:59:52.862777+01

 2017-02-08 22:13:41.316417+01 | 1486588421.31642 |                 0 |              15 |                  5423 |                 3658 |            1277843 |             0 |                0 |          244734 |                     0 |         98952 | 2017-02-08 20:59:52.862777+01

 2017-02-08 22:13:42.377412+01 | 1486588422.37741 |                 0 |              15 |                  5423 |                 3658 |            1277843 |             0 |                0 |          244734 |                     0 |         98952 | 2017-02-08 20:59:52.862777+01

 2017-02-08 22:13:43.43471+01 | 1486588423.43471 |                 0 |              15 |                  5423 |                 3658 |            1277843 |             0 |                0 |          244734 |                     0 |         98952 | 2017-02-08 20:59:52.862777+01

 2017-02-08 22:13:44.49187+01 | 1486588424.49187 |                 0 |              15 |                  5423 |                 3658 |            1277843 |             0 |                0 |          244734 |                     0 |         98952 | 2017-02-08 20:59:52.862777+01

 2017-02-08 22:13:45.552589+01 | 1486588425.55259 |                 0 |              15 |                  5423 |                 3658 |            1277843 |             0 |                0 |          244734 |                     0 |         98952 | 2017-02-08 20:59:52.862777+01

 2017-02-08 22:13:46.613007+01 | 1486588426.61301 |                 0 |              15 |                  5423 |                 3658 |            1277843 |             0 |                0 |          244734 |                     0 |         98952 | 2017-02-08 20:59:52.862777+01

 2017-02-08 22:13:47.67237+01 | 1486588427.67237 |                 0 |              15 |                  5423 |                 3658 |            1277843 |             0 |                0 |          244734 |                     0 |         98952 | 2017-02-08 20:59:52.862777+01

 2017-02-08 22:13:48.72861+01 | 1486588428.72861 |                 0 |              15 |                  5423 |                 3658 |            1277843 |             0 |                0 |          244734 |                     0 |         98952 | 2017-02-08 20:59:52.862777+01

 2017-02-08 22:13:49.782969+01 | 1486588429.78297 |                 0 |              15 |                  5423 |                 3658 |            1277843 |             0 |                0 |          244734 |                     0 |         98952 | 2017-02-08 20:59:52.862777+01

 2017-02-08 22:13:50.845503+01 | 1486588430.8455 |                 0 |              15 |                  5423 |                 3658 |            1277843 |             0 |                0 |          244734 |                     0 |         98952 | 2017-02-08 20:59:52.862777+01

 2017-02-08 22:13:51.906393+01 | 1486588431.90639 |                 0 |              15 |                  5423 |                 3658 |            1277843 |             0 |                0 |          244734 |                     0 |         98952 | 2017-02-08 20:59:52.862777+01

 2017-02-08 22:13:52.964938+01 | 1486588432.96494 |                 0 |              15 |                  5423 |                 3658 |            1277843 |             0 |                0 |          244734 |                     0 |         98952 | 2017-02-08 20:59:52.862777+01

 2017-02-08 22:13:54.023107+01 | 1486588434.02311 |                 0 |              15 |                  5423 |                 3658 |            1277843 |             0 |                0 |          244734 |                     0 |         98952 | 2017-02-08 20:59:52.862777+01

 2017-02-08 22:13:55.077429+01 | 1486588435.07743 |                 0 |              15 |                  5423 |                 3658 |            1277843 |             0 |                0 |          244734 |                     0 |         98952 | 2017-02-08 20:59:52.862777+01

 2017-02-08 22:13:56.140412+01 | 1486588436.14041 |                 0 |              15 |                  5423 |                 3658 |            1277843 |             0 |                0 |          244734 |                     0 |         98952 | 2017-02-08 20:59:52.862777+01

 2017-02-08 22:13:57.197842+01 | 1486588437.19784 |                 0 |              15 |                  5423 |                 3658 |            1277843 |             0 |                0 |          244734 |                     0 |         98952 | 2017-02-08 20:59:52.862777+01

 2017-02-08 22:13:58.258512+01 | 1486588438.25851 |                 0 |              15 |                  5423 |                 3658 |            1277843 |             0 |                0 |          244734 |                     0 |         98952 | 2017-02-08 20:59:52.862777+01

 2017-02-08 22:13:59.31709+01 | 1486588439.31709 |                 0 |              15 |                  5423 |                 3658 |            1277843 |             0 |                0 |          244734 |                     0 |         98952 | 2017-02-08 20:59:52.862777+01

 2017-02-08 22:14:00.38404+01 | 1486588440.38404 |                 0 |              15 |                  5423 |                 3658 |            1277843 |             0 |                0 |          244734 |                     0 |         98952 | 2017-02-08 20:59:52.862777+01

 2017-02-08 22:14:01.447982+01 | 1486588441.44798 |                 0 |              15 |                  5423 |                 3658 |            1277843 |             0 |                0 |          244734 |                     0 |         98952 | 2017-02-08 20:59:52.862777+01

 2017-02-08 22:14:02.505965+01 | 1486588442.50596 |                 0 |              15 |                  5423 |                 3658 |            1277843 |             0 |                0 |          244734 |                     0 |         98952 | 2017-02-08 20:59:52.862777+01

 2017-02-08 22:14:03.564202+01 | 1486588443.5642 |                 0 |              15 |                  5423 |                 3658 |            1277843 |             0 |                0 |          244734 |                     0 |         98952 | 2017-02-08 20:59:52.862777+01

 2017-02-08 22:14:04.626011+01 | 1486588444.62601 |                 0 |              15 |                  5423 |                 3658 |            1277843 |             0 |                0 |          244734 |                     0 |         98952 | 2017-02-08 20:59:52.862777+01

 2017-02-08 22:14:05.686939+01 | 1486588445.68694 |                 0 |              15 |                  5423 |                 3658 |            1277843 |             0 |                0 |          244734 |                     0 |         98952 | 2017-02-08 20:59:52.862777+01

 2017-02-08 22:14:06.749791+01 | 1486588446.74979 |                 0 |              15 |                  5423 |                 3658 |            1277843 |             0 |                0 |          244734 |                     0 |         98952 | 2017-02-08 20:59:52.862777+01

 2017-02-08 22:14:07.810534+01 | 1486588447.81053 |                 0 |              15 |                  5423 |                 3658 |            1277843 |             0 |                0 |          244734 |                     0 |         98952 | 2017-02-08 20:59:52.862777+01

 2017-02-08 22:14:08.878532+01 | 1486588448.87853 |                 0 |              15 |                  5423 |                 3658 |            1277843 |             0 |                0 |          244734 |                     0 |         98952 | 2017-02-08 20:59:52.862777+01

 2017-02-08 22:14:09.942185+01 | 1486588449.94218 |                 0 |              15 |                  5423 |                 3658 |            1277843 |             0 |                0 |          244734 |                     0 |         98952 | 2017-02-08 20:59:52.862777+01

 2017-02-08 22:14:11.000192+01 | 1486588451.00019 |                 0 |              15 |                  5423 |                 3658 |            1277843 |             0 |                0 |          244734 |                     0 |         98952 | 2017-02-08 20:59:52.862777+01

 2017-02-08 22:14:12.054841+01 | 1486588452.05484 |                 0 |              15 |                  5423 |                 3658 |            1277843 |             0 |                0 |          244734 |                     0 |         98952 | 2017-02-08 20:59:52.862777+01

 2017-02-08 22:14:13.111246+01 | 1486588453.11125 |                 0 |              15 |                  5423 |                 3658 |            1277843 |             0 |                0 |          244734 |                     0 |         98952 | 2017-02-08 20:59:52.862777+01

 2017-02-08 22:14:14.166082+01 | 1486588454.16608 |                 0 |              15 |                  5423 |                 3658 |            1277843 |             0 |                0 |          244734 |                     0 |         98952 | 2017-02-08 20:59:52.862777+01

 2017-02-08 22:14:15.232063+01 | 1486588455.23206 |                 0 |              15 |                  5423 |                 3658 |            1277843 |             0 |                0 |          244734 |                     0 |         98952 | 2017-02-08 20:59:52.862777+01

 2017-02-08 22:14:16.299346+01 | 1486588456.29935 |                 0 |              15 |                  5423 |                 3658 |            1277843 |             0 |                0 |          244734 |                     0 |         98952 | 2017-02-08 20:59:52.862777+01

 2017-02-08 22:14:17.361017+01 | 1486588457.36102 |                 0 |              15 |                  5423 |                 3658 |            1277843 |             0 |                0 |          244734 |                     0 |         98952 | 2017-02-08 20:59:52.862777+01

 2017-02-08 22:14:18.419307+01 | 1486588458.41931 |                 0 |              15 |                  5423 |                 3658 |            1277843 |             0 |                0 |          244734 |                     0 |         98952 | 2017-02-08 20:59:52.862777+01

 2017-02-08 22:14:19.47545+01 | 1486588459.47545 |                 0 |              15 |                  5423 |                 3658 |            1277843 |             0 |                0 |          244734 |                     0 |         98952 | 2017-02-08 20:59:52.862777+01

 2017-02-08 22:14:20.535495+01 | 1486588460.5355 |                 0 |              15 |                  5423 |                 3658 |            1277843 |             0 |                0 |          244734 |                     0 |         98952 | 2017-02-08 20:59:52.862777+01

 2017-02-08 22:14:21.601322+01 | 1486588461.60132 |                 0 |              15 |                  5423 |                 3658 |            1277843 |             0 |                0 |          244734 |                     0 |         98952 | 2017-02-08 20:59:52.862777+01

 2017-02-08 22:14:22.673525+01 | 1486588462.67353 |                 0 |              15 |                  5423 |                 3658 |            1277843 |             0 |                0 |          244734 |                     0 |         98952 | 2017-02-08 20:59:52.862777+01

 2017-02-08 22:14:23.730723+01 | 1486588463.73072 |                 0 |              15 |                  5423 |                 3658 |            1277843 |             0 |                0 |          244734 |                     0 |         98952 | 2017-02-08 20:59:52.862777+01

 2017-02-08 22:14:24.79551+01 | 1486588464.79551 |                 0 |              15 |                  5423 |                 3658 |            1277843 |             0 |                0 |          244734 |                     0 |         98952 | 2017-02-08 20:59:52.862777+01

 2017-02-08 22:14:25.853851+01 | 1486588465.85385 |                 0 |              15 |                  5423 |                 3658 |            1277843 |             0 |                0 |          244734 |                     0 |         98952 | 2017-02-08 20:59:52.862777+01

 2017-02-08 22:14:26.91198+01 | 1486588466.91198 |                 0 |              15 |                  5423 |                 3658 |            1277843 |             0 |                0 |          244734 |                     0 |         98952 | 2017-02-08 20:59:52.862777+01

 2017-02-08 22:14:27.96965+01 | 1486588467.96965 |                 0 |              15 |                  5423 |                 3658 |            1277843 |             0 |                0 |          244734 |                     0 |         98952 | 2017-02-08 20:59:52.862777+01

 2017-02-08 22:14:29.032672+01 | 1486588469.03267 |                 0 |              15 |                  5423 |                 3658 |            1277843 |             0 |                0 |          244734 |                     0 |         98952 | 2017-02-08 20:59:52.862777+01

 2017-02-08 22:14:30.09506+01 | 1486588470.09506 |                 0 |              15 |                  5423 |                 3658 |            1277843 |             0 |                0 |          244734 |                     0 |         98952 | 2017-02-08 20:59:52.862777+01

 2017-02-08 22:14:31.162921+01 | 1486588471.16292 |                 0 |              15 |                  5423 |                 3658 |            1277843 |             0 |                0 |          244734 |                     0 |         98952 | 2017-02-08 20:59:52.862777+01

 2017-02-08 22:14:32.232022+01 | 1486588472.23202 |                 0 |              15 |                  5423 |                 3658 |            1277843 |             0 |                0 |          244734 |                     0 |         98952 | 2017-02-08 20:59:52.862777+01

 2017-02-08 22:14:33.293339+01 | 1486588473.29334 |                 0 |              15 |                  5423 |                 3658 |            1277843 |             0 |                0 |          244734 |                     0 |         98952 | 2017-02-08 20:59:52.862777+01

 2017-02-08 22:14:34.357645+01 | 1486588474.35765 |                 0 |              15 |                  5423 |                 3658 |            1277843 |             0 |                0 |          244734 |                     0 |         98952 | 2017-02-08 20:59:52.862777+01

 2017-02-08 22:14:35.42191+01 | 1486588475.42191 |                 0 |              15 |                  5423 |                 3658 |            1277843 |             0 |                0 |          244734 |                     0 |         98952 | 2017-02-08 20:59:52.862777+01

 2017-02-08 22:14:36.480637+01 | 1486588476.48064 |                 0 |              15 |                  5423 |                 3658 |            1277843 |             0 |                0 |          244734 |                     0 |         98952 | 2017-02-08 20:59:52.862777+01

 2017-02-08 22:14:37.546743+01 | 1486588477.54674 |                 0 |              15 |                  5423 |                 3658 |            1277843 |             0 |                0 |          244734 |                     0 |         98952 | 2017-02-08 20:59:52.862777+01

 2017-02-08 22:14:38.615088+01 | 1486588478.61509 |                 0 |              15 |                  5423 |                 3658 |            1277843 |             0 |                0 |          244734 |                     0 |         98952 | 2017-02-08 20:59:52.862777+01

 2017-02-08 22:14:39.674904+01 | 1486588479.6749 |                 0 |              15 |                  5423 |                 3658 |            1277843 |             0 |                0 |          244734 |                     0 |         98952 | 2017-02-08 20:59:52.862777+01

 2017-02-08 22:14:40.73759+01 | 1486588480.73759 |                 0 |              15 |                  5423 |                 3658 |            1277843 |             0 |                0 |          244734 |                     0 |         98952 | 2017-02-08 20:59:52.862777+01

 2017-02-08 22:14:41.794849+01 | 1486588481.79485 |                 0 |              15 |                  5423 |                 3658 |            1277843 |             0 |                0 |          244734 |                     0 |         98952 | 2017-02-08 20:59:52.862777+01

 2017-02-08 22:14:42.871286+01 | 1486588482.87129 |                 0 |              15 |                  5423 |                 3658 |            1277843 |             0 |                0 |          244734 |                     0 |         98952 | 2017-02-08 20:59:52.862777+01

 2017-02-08 22:14:43.926602+01 | 1486588483.9266 |                 0 |              15 |                  5423 |                 3658 |            1277843 |             0 |                0 |          244734 |                     0 |         98952 | 2017-02-08 20:59:52.862777+01

 2017-02-08 22:14:44.984256+01 | 1486588484.98426 |                 0 |              15 |                  5423 |                 3658 |            1277843 |             0 |                0 |          244734 |                     0 |         98952 | 2017-02-08 20:59:52.862777+01

 2017-02-08 22:14:46.041277+01 | 1486588486.04128 |                 0 |              15 |                  5423 |                 3658 |            1277843 |             0 |                0 |          244734 |                     0 |         98952 | 2017-02-08 20:59:52.862777+01

 2017-02-08 22:14:47.102361+01 | 1486588487.10236 |                 0 |              15 |                  5423 |                 3658 |            1277843 |             0 |                0 |          244734 |                     0 |         98952 | 2017-02-08 20:59:52.862777+01

 2017-02-08 22:14:48.163894+01 | 1486588488.16389 |                 0 |              15 |                  5423 |                 3658 |            1277843 |             0 |                0 |          244734 |                     0 |         98952 | 2017-02-08 20:59:52.862777+01

 2017-02-08 22:14:49.224056+01 | 1486588489.22406 |                 0 |              15 |                  5423 |                 3658 |            1277843 |             0 |                0 |          244734 |                     0 |         98952 | 2017-02-08 20:59:52.862777+01

 2017-02-08 22:14:50.283521+01 | 1486588490.28352 |                 0 |              15 |                  5423 |                 3658 |            1277843 |             0 |                0 |          244734 |                     0 |         98952 | 2017-02-08 20:59:52.862777+01

 2017-02-08 22:14:51.347516+01 | 1486588491.34752 |                 0 |              15 |                  5423 |                 3658 |            1277843 |             0 |                0 |          244734 |                     0 |         98952 | 2017-02-08 20:59:52.862777+01

 2017-02-08 22:14:52.40765+01 | 1486588492.40765 |                 0 |              15 |                  5423 |                 3658 |            1277843 |             0 |                0 |          244734 |                     0 |         98952 | 2017-02-08 20:59:52.862777+01

 2017-02-08 22:14:53.470082+01 | 1486588493.47008 |                 0 |              15 |                  5423 |                 3658 |            1277843 |             0 |                0 |          244734 |                     0 |         98952 | 2017-02-08 20:59:52.862777+01

 2017-02-08 22:14:54.526327+01 | 1486588494.52633 |                 0 |              15 |                  5423 |                 3658 |            1277843 |             0 |                0 |          244734 |                     0 |         98952 | 2017-02-08 20:59:52.862777+01

 2017-02-08 22:14:55.589168+01 | 1486588495.58917 |                 0 |              15 |                  5423 |                 3658 |            1277843 |             0 |                0 |          244734 |                     0 |         98952 | 2017-02-08 20:59:52.862777+01

 2017-02-08 22:14:56.652936+01 | 1486588496.65294 |                 0 |              15 |                  5423 |                 3658 |            1277843 |             0 |                0 |          244734 |                     0 |         98952 | 2017-02-08 20:59:52.862777+01

 2017-02-08 22:14:57.721657+01 | 1486588497.72166 |                 0 |              15 |                  5423 |                 3658 |            1277843 |             0 |                0 |          244734 |                     0 |         98952 | 2017-02-08 20:59:52.862777+01

 2017-02-08 22:14:58.77918+01 | 1486588498.77918 |                 0 |              15 |                  5423 |                 3658 |            1277843 |             0 |                0 |          244734 |                     0 |         98952 | 2017-02-08 20:59:52.862777+01

 2017-02-08 22:14:59.838827+01 | 1486588499.83883 |                 0 |              15 |                  5423 |                 3658 |            1277843 |             0 |                0 |          244734 |                     0 |         98952 | 2017-02-08 20:59:52.862777+01

 2017-02-08 22:15:00.899873+01 | 1486588500.89987 |                 0 |              15 |                  5423 |                 3658 |            1277843 |             0 |                0 |          244734 |                     0 |         98952 | 2017-02-08 20:59:52.862777+01

 2017-02-08 22:15:01.952495+01 | 1486588501.9525 |                 0 |              15 |                  5423 |                 3658 |            1277843 |             0 |                0 |          244734 |                     0 |         98952 | 2017-02-08 20:59:52.862777+01

 2017-02-08 22:15:03.007768+01 | 1486588503.00777 |                 0 |              15 |                  5423 |                 3658 |            1277843 |             0 |                0 |          244734 |                     0 |         98952 | 2017-02-08 20:59:52.862777+01

 2017-02-08 22:15:04.064692+01 | 1486588504.06469 |                 0 |              15 |                  5423 |                 3658 |            1277843 |             0 |                0 |          244734 |                     0 |         98952 | 2017-02-08 20:59:52.862777+01

 2017-02-08 22:15:05.12441+01 | 1486588505.12441 |                 0 |              15 |                  5423 |                 3658 |            1277843 |             0 |                0 |          244734 |                     0 |         98952 | 2017-02-08 20:59:52.862777+01

 2017-02-08 22:15:06.185334+01 | 1486588506.18533 |                 0 |              15 |                  5423 |                 3658 |            1277843 |             0 |                0 |          244734 |                     0 |         98952 | 2017-02-08 20:59:52.862777+01

 2017-02-08 22:15:07.243566+01 | 1486588507.24357 |                 0 |              15 |                  5423 |                 3658 |            1277843 |             0 |                0 |          244734 |                     0 |         98952 | 2017-02-08 20:59:52.862777+01

 2017-02-08 22:15:08.300511+01 | 1486588508.30051 |                 0 |              15 |                  5423 |                 3658 |            1277843 |             0 |                0 |          244734 |                     0 |         98952 | 2017-02-08 20:59:52.862777+01

 2017-02-08 22:15:09.363992+01 | 1486588509.36399 |                 0 |              15 |                  5423 |                 3658 |            1277843 |             0 |                0 |          244734 |                     0 |         98952 | 2017-02-08 20:59:52.862777+01

 2017-02-08 22:15:10.430301+01 | 1486588510.4303 |                 0 |              15 |                  5423 |                 3658 |            1277843 |             0 |                0 |          244734 |                     0 |         98952 | 2017-02-08 20:59:52.862777+01

 2017-02-08 22:15:11.48997+01 | 1486588511.48997 |                 0 |              15 |                  5423 |                 3658 |            1277843 |             0 |                0 |          244734 |                     0 |         98952 | 2017-02-08 20:59:52.862777+01

 2017-02-08 22:15:12.544998+01 | 1486588512.545 |                 0 |              15 |                  5423 |                 3658 |            1277843 |             0 |                0 |          244734 |                     0 |         98952 | 2017-02-08 20:59:52.862777+01

