 2017-02-08 06:22:24.016195+01 | 1486531344.0162 | 0/E7DD4CC8               |            3890040008

 2017-02-08 06:22:25.103926+01 | 1486531345.10393 | 0/E7DD4CC8               |            3890040008

 2017-02-08 06:22:26.295291+01 | 1486531346.29529 | 0/E7DD4CC8               |            3890040008

 2017-02-08 06:22:27.434417+01 | 1486531347.43442 | 0/E7DD4CC8               |            3890040008

 2017-02-08 06:22:28.636279+01 | 1486531348.63628 | 0/E7DD4CC8               |            3890040008

 2017-02-08 06:22:29.83194+01 | 1486531349.83194 | 0/E7DD4CC8               |            3890040008

 2017-02-08 06:22:31.021293+01 | 1486531351.02129 | 0/E7DD4CC8               |            3890040008

 2017-02-08 06:22:32.153169+01 | 1486531352.15317 | 0/E7DD4CC8               |            3890040008

 2017-02-08 06:22:33.349514+01 | 1486531353.34951 | 0/E7DD4CC8               |            3890040008

 2017-02-08 06:22:34.542616+01 | 1486531354.54262 | 0/E7DD4CC8               |            3890040008

 2017-02-08 06:22:35.729727+01 | 1486531355.72973 | 0/E7DD4CC8               |            3890040008

 2017-02-08 06:22:36.896367+01 | 1486531356.89637 | 0/E7DD4CC8               |            3890040008

 2017-02-08 06:22:38.066414+01 | 1486531358.06641 | 0/E7DD4CC8               |            3890040008

 2017-02-08 06:22:39.261671+01 | 1486531359.26167 | 0/E7DD4D00               |            3890040064

 2017-02-08 06:22:40.433703+01 | 1486531360.4337 | 0/E7DD4D00               |            3890040064

 2017-02-08 06:22:41.514232+01 | 1486531361.51423 | 0/E7DD4D00               |            3890040064

 2017-02-08 06:22:42.707435+01 | 1486531362.70743 | 0/E7DD4D00               |            3890040064

 2017-02-08 06:22:43.899545+01 | 1486531363.89954 | 0/E7DD4D00               |            3890040064

 2017-02-08 06:22:45.095382+01 | 1486531365.09538 | 0/E7DD4D00               |            3890040064

 2017-02-08 06:22:46.288522+01 | 1486531366.28852 | 0/E7DD4D00               |            3890040064

 2017-02-08 06:22:47.411175+01 | 1486531367.41118 | 0/E7DD4D00               |            3890040064

 2017-02-08 06:22:48.534368+01 | 1486531368.53437 | 0/E7DD4D00               |            3890040064

 2017-02-08 06:22:49.690181+01 | 1486531369.69018 | 0/E7DD4D00               |            3890040064

 2017-02-08 06:22:50.798991+01 | 1486531370.79899 | 0/E7DD4D00               |            3890040064

 2017-02-08 06:22:51.960428+01 | 1486531371.96043 | 0/E7DD4D00               |            3890040064

 2017-02-08 06:22:53.119268+01 | 1486531373.11927 | 0/E7DD4D00               |            3890040064

 2017-02-08 06:22:54.273649+01 | 1486531374.27365 | 0/E7DD4D00               |            3890040064

 2017-02-08 06:22:55.453161+01 | 1486531375.45316 | 0/E7DD4D00               |            3890040064

 2017-02-08 06:22:56.604976+01 | 1486531376.60498 | 0/E7DD4D00               |            3890040064

 2017-02-08 06:22:57.72925+01 | 1486531377.72925 | 0/E7DD4D00               |            3890040064

 2017-02-08 06:22:58.849103+01 | 1486531378.8491 | 0/E7DD4D00               |            3890040064

 2017-02-08 06:22:59.982219+01 | 1486531379.98222 | 0/E7DD4D00               |            3890040064

 2017-02-08 06:23:01.170412+01 | 1486531381.17041 | 0/E7DD4D00               |            3890040064

 2017-02-08 06:23:02.311956+01 | 1486531382.31196 | 0/E7DD4D00               |            3890040064

 2017-02-08 06:23:03.508856+01 | 1486531383.50886 | 0/E7DD4D00               |            3890040064

 2017-02-08 06:23:04.695728+01 | 1486531384.69573 | 0/E7DD4D00               |            3890040064

 2017-02-08 06:23:05.891586+01 | 1486531385.89159 | 0/E7DD4D00               |            3890040064

 2017-02-08 06:23:07.08745+01 | 1486531387.08745 | 0/E7DD4D00               |            3890040064

 2017-02-08 06:23:08.212292+01 | 1486531388.21229 | 0/E7DD4D00               |            3890040064

 2017-02-08 06:23:09.405657+01 | 1486531389.40566 | 0/E7DD4D00               |            3890040064

 2017-02-08 06:23:10.564713+01 | 1486531390.56471 | 0/E7DD4D00               |            3890040064

 2017-02-08 06:23:11.723092+01 | 1486531391.72309 | 0/E7DD4D00               |            3890040064

 2017-02-08 06:23:12.91912+01 | 1486531392.91912 | 0/E7DD4D00               |            3890040064

 2017-02-08 06:23:14.113551+01 | 1486531394.11355 | 0/E7DD4D00               |            3890040064

 2017-02-08 06:23:15.309487+01 | 1486531395.30949 | 0/E7DD4D00               |            3890040064

 2017-02-08 06:23:16.505941+01 | 1486531396.50594 | 0/E7DD4D00               |            3890040064

 2017-02-08 06:23:17.703124+01 | 1486531397.70312 | 0/E7DD4D00               |            3890040064

 2017-02-08 06:23:18.899667+01 | 1486531398.89967 | 0/E7DD4D00               |            3890040064

 2017-02-08 06:23:20.096791+01 | 1486531400.09679 | 0/E7DD4D00               |            3890040064

 2017-02-08 06:23:21.28861+01 | 1486531401.28861 | 0/E7DD4D00               |            3890040064

 2017-02-08 06:23:22.483986+01 | 1486531402.48399 | 0/E7DD4D00               |            3890040064

 2017-02-08 06:23:23.679485+01 | 1486531403.67949 | 0/E7DD4D00               |            3890040064

 2017-02-08 06:23:24.878093+01 | 1486531404.87809 | 0/E7DD4D00               |            3890040064

 2017-02-08 06:23:26.067217+01 | 1486531406.06722 | 0/E7DD4D00               |            3890040064

 2017-02-08 06:23:27.219191+01 | 1486531407.21919 | 0/E7DD4D00               |            3890040064

 2017-02-08 06:23:28.41059+01 | 1486531408.41059 | 0/E7DD4D00               |            3890040064

 2017-02-08 06:23:29.608689+01 | 1486531409.60869 | 0/E7DD4D00               |            3890040064

 2017-02-08 06:23:30.803307+01 | 1486531410.80331 | 0/E7DD4D00               |            3890040064

 2017-02-08 06:23:31.995889+01 | 1486531411.99589 | 0/E7DD4D00               |            3890040064

 2017-02-08 06:23:33.15136+01 | 1486531413.15136 | 0/E7DD4D00               |            3890040064

 2017-02-08 06:23:34.350079+01 | 1486531414.35008 | 0/E7DD4D00               |            3890040064

 2017-02-08 06:23:35.462266+01 | 1486531415.46227 | 0/E7DD4D00               |            3890040064

 2017-02-08 06:23:36.555324+01 | 1486531416.55532 | 0/E7DD4D00               |            3890040064

 2017-02-08 06:23:37.74942+01 | 1486531417.74942 | 0/E7DD4D00               |            3890040064

 2017-02-08 06:23:38.874348+01 | 1486531418.87435 | 0/E7DD4D00               |            3890040064

 2017-02-08 06:23:40.016759+01 | 1486531420.01676 | 0/E7DD4D00               |            3890040064

 2017-02-08 06:23:41.211621+01 | 1486531421.21162 | 0/E7DD4D00               |            3890040064

 2017-02-08 06:23:42.410872+01 | 1486531422.41087 | 0/E7DD4D00               |            3890040064

 2017-02-08 06:23:43.607469+01 | 1486531423.60747 | 0/E7DD4D00               |            3890040064

 2017-02-08 06:23:44.800459+01 | 1486531424.80046 | 0/E7DD4D00               |            3890040064

 2017-02-08 06:23:45.974109+01 | 1486531425.97411 | 0/E7DD4D00               |            3890040064

 2017-02-08 06:23:47.166562+01 | 1486531427.16656 | 0/E7DD4D00               |            3890040064

 2017-02-08 06:23:48.349589+01 | 1486531428.34959 | 0/E7DD4D00               |            3890040064

 2017-02-08 06:23:49.457411+01 | 1486531429.45741 | 0/E7DD4D00               |            3890040064

 2017-02-08 06:23:50.617366+01 | 1486531430.61737 | 0/E7DD4D00               |            3890040064

 2017-02-08 06:23:51.752126+01 | 1486531431.75213 | 0/E7DD4D00               |            3890040064

 2017-02-08 06:23:52.951482+01 | 1486531432.95148 | 0/E7DD4D00               |            3890040064

 2017-02-08 06:23:54.148533+01 | 1486531434.14853 | 0/E7DD4D00               |            3890040064

 2017-02-08 06:23:55.349765+01 | 1486531435.34977 | 0/E7DD4D00               |            3890040064

 2017-02-08 06:23:56.5121+01 | 1486531436.5121 | 0/E7DD4D00               |            3890040064

 2017-02-08 06:23:57.69879+01 | 1486531437.69879 | 0/E7DD4D00               |            3890040064

 2017-02-08 06:23:58.895339+01 | 1486531438.89534 | 0/E7DD4D00               |            3890040064

 2017-02-08 06:24:00.082386+01 | 1486531440.08239 | 0/E7DD4D00               |            3890040064

 2017-02-08 06:24:01.215031+01 | 1486531441.21503 | 0/E7DD4D00               |            3890040064

 2017-02-08 06:24:02.415348+01 | 1486531442.41535 | 0/E7DD4D00               |            3890040064

 2017-02-08 06:24:03.619775+01 | 1486531443.61978 | 0/E7DD4D00               |            3890040064

 2017-02-08 06:24:04.724268+01 | 1486531444.72427 | 0/E7DD4D00               |            3890040064

 2017-02-08 06:24:05.923844+01 | 1486531445.92384 | 0/E7DD4D00               |            3890040064

 2017-02-08 06:24:07.117386+01 | 1486531447.11739 | 0/E7DD4D00               |            3890040064

 2017-02-08 06:24:08.314343+01 | 1486531448.31434 | 0/E7DD4D00               |            3890040064

 2017-02-08 06:24:09.51047+01 | 1486531449.51047 | 0/E7DD4D00               |            3890040064

 2017-02-08 06:24:10.704876+01 | 1486531450.70488 | 0/E7DD4D00               |            3890040064

 2017-02-08 06:24:11.901035+01 | 1486531451.90104 | 0/E7DD4D00               |            3890040064

 2017-02-08 06:24:13.095848+01 | 1486531453.09585 | 0/E7DD4D00               |            3890040064

 2017-02-08 06:24:14.260298+01 | 1486531454.2603 | 0/E7DD4D00               |            3890040064

 2017-02-08 06:24:15.441223+01 | 1486531455.44122 | 0/E7DD4D00               |            3890040064

 2017-02-08 06:24:16.637227+01 | 1486531456.63723 | 0/E7DD4D00               |            3890040064

 2017-02-08 06:24:17.818825+01 | 1486531457.81883 | 0/E7DD4D00               |            3890040064

 2017-02-08 06:24:18.939366+01 | 1486531458.93937 | 0/E7DD4D00               |            3890040064

 2017-02-08 06:24:20.064091+01 | 1486531460.06409 | 0/E7DD4D00               |            3890040064

 2017-02-08 06:24:21.255245+01 | 1486531461.25524 | 0/E7DD4D00               |            3890040064

 2017-02-08 06:24:22.394247+01 | 1486531462.39425 | 0/E7DD4D00               |            3890040064

 2017-02-08 06:24:23.575343+01 | 1486531463.57534 | 0/E7DD4D00               |            3890040064

 2017-02-08 06:24:24.685085+01 | 1486531464.68509 | 0/E7DD4D00               |            3890040064

 2017-02-08 06:24:25.871942+01 | 1486531465.87194 | 0/E7DD4D00               |            3890040064

 2017-02-08 06:24:26.999231+01 | 1486531466.99923 | 0/E7DD4D00               |            3890040064

 2017-02-08 06:24:28.18805+01 | 1486531468.18805 | 0/E7DD4D00               |            3890040064

 2017-02-08 06:24:29.32424+01 | 1486531469.32424 | 0/E7DD4D00               |            3890040064

 2017-02-08 06:24:30.517714+01 | 1486531470.51771 | 0/E7DD4D00               |            3890040064

 2017-02-08 06:24:31.691221+01 | 1486531471.69122 | 0/E7DD4D00               |            3890040064

 2017-02-08 06:24:32.877755+01 | 1486531472.87775 | 0/E7DD4D00               |            3890040064

 2017-02-08 06:24:34.02692+01 | 1486531474.02692 | 0/E7DD4D00               |            3890040064

 2017-02-08 06:24:35.148776+01 | 1486531475.14878 | 0/E7DD4D00               |            3890040064

 2017-02-08 06:24:36.283251+01 | 1486531476.28325 | 0/E7DD4D00               |            3890040064

 2017-02-08 06:24:37.482424+01 | 1486531477.48242 | 0/E7DD4D00               |            3890040064

 2017-02-08 06:24:38.677228+01 | 1486531478.67723 | 0/E7DD4D00               |            3890040064

 2017-02-08 06:24:39.873072+01 | 1486531479.87307 | 0/E7DD4D00               |            3890040064

 2017-02-08 06:24:41.071086+01 | 1486531481.07109 | 0/E7DD4D00               |            3890040064

 2017-02-08 06:24:42.264481+01 | 1486531482.26448 | 0/E7DD4D00               |            3890040064

 2017-02-08 06:24:43.458723+01 | 1486531483.45872 | 0/E7DD4D00               |            3890040064

 2017-02-08 06:24:44.63205+01 | 1486531484.63205 | 0/E7DD4D00               |            3890040064

 2017-02-08 06:24:45.830353+01 | 1486531485.83035 | 0/E7DD4D00               |            3890040064

 2017-02-08 06:24:47.024395+01 | 1486531487.02439 | 0/E7DD4D00               |            3890040064

 2017-02-08 06:24:48.219912+01 | 1486531488.21991 | 0/E7DD4D00               |            3890040064

 2017-02-08 06:24:49.413245+01 | 1486531489.41324 | 0/E7DD4D00               |            3890040064

 2017-02-08 06:24:50.610953+01 | 1486531490.61095 | 0/E7DD4D00               |            3890040064

 2017-02-08 06:24:51.80812+01 | 1486531491.80812 | 0/E7DD4D00               |            3890040064

 2017-02-08 06:24:53.004835+01 | 1486531493.00483 | 0/E7DD4D00               |            3890040064

 2017-02-08 06:24:54.201827+01 | 1486531494.20183 | 0/E7DD4D00               |            3890040064

 2017-02-08 06:24:55.398331+01 | 1486531495.39833 | 0/E7DD4D00               |            3890040064

 2017-02-08 06:24:56.58669+01 | 1486531496.58669 | 0/E7DD4D00               |            3890040064

 2017-02-08 06:24:57.714828+01 | 1486531497.71483 | 0/E7DD4D00               |            3890040064

 2017-02-08 06:24:58.88532+01 | 1486531498.88532 | 0/E7DD4D00               |            3890040064

 2017-02-08 06:25:00.084382+01 | 1486531500.08438 | 0/E7DD4D00               |            3890040064

 2017-02-08 06:25:01.258275+01 | 1486531501.25828 | 0/E7DD4D00               |            3890040064

 2017-02-08 06:25:02.45903+01 | 1486531502.45903 | 0/E7DD4D00               |            3890040064

 2017-02-08 06:25:03.6529+01 | 1486531503.6529 | 0/E7DD4D00               |            3890040064

 2017-02-08 06:25:04.841573+01 | 1486531504.84157 | 0/E7DD4D00               |            3890040064

 2017-02-08 06:25:06.041272+01 | 1486531506.04127 | 0/E7DD4D00               |            3890040064

 2017-02-08 06:25:07.237057+01 | 1486531507.23706 | 0/E7DD4D00               |            3890040064

 2017-02-08 06:25:08.425399+01 | 1486531508.4254 | 0/E7DD4D00               |            3890040064

 2017-02-08 06:25:09.527652+01 | 1486531509.52765 | 0/E7DD4D00               |            3890040064

 2017-02-08 06:25:10.723144+01 | 1486531510.72314 | 0/E7DD4D00               |            3890040064

 2017-02-08 06:25:11.923526+01 | 1486531511.92353 | 0/E7DD4D00               |            3890040064

 2017-02-08 06:25:13.123425+01 | 1486531513.12343 | 0/E7DD4D00               |            3890040064

 2017-02-08 06:25:14.264416+01 | 1486531514.26442 | 0/E7DD4D00               |            3890040064

 2017-02-08 06:25:15.453879+01 | 1486531515.45388 | 0/E7DD4D00               |            3890040064

 2017-02-08 06:25:16.644344+01 | 1486531516.64434 | 0/E7DD4D00               |            3890040064

 2017-02-08 06:25:17.74436+01 | 1486531517.74436 | 0/E7DD4D00               |            3890040064

 2017-02-08 06:25:18.834341+01 | 1486531518.83434 | 0/E7DD4D00               |            3890040064

 2017-02-08 06:25:19.95198+01 | 1486531519.95198 | 0/E7DD4D00               |            3890040064

 2017-02-08 06:25:21.135239+01 | 1486531521.13524 | 0/E7DD4D00               |            3890040064

 2017-02-08 06:25:22.297397+01 | 1486531522.2974 | 0/E7DD4D00               |            3890040064

 2017-02-08 06:25:23.49313+01 | 1486531523.49313 | 0/E7DD4D00               |            3890040064

 2017-02-08 06:25:24.63273+01 | 1486531524.63273 | 0/E7DD4D00               |            3890040064

 2017-02-08 06:25:25.829273+01 | 1486531525.82927 | 0/E7DD4D00               |            3890040064

 2017-02-08 06:25:26.96905+01 | 1486531526.96905 | 0/E7DD4D00               |            3890040064

 2017-02-08 06:25:28.157274+01 | 1486531528.15727 | 0/E7DD4D00               |            3890040064

 2017-02-08 06:25:29.284749+01 | 1486531529.28475 | 0/E7DD4D00               |            3890040064

 2017-02-08 06:25:30.413314+01 | 1486531530.41331 | 0/E7DD4D00               |            3890040064

 2017-02-08 06:25:31.607407+01 | 1486531531.60741 | 0/E7DD4D00               |            3890040064

 2017-02-08 06:25:32.800098+01 | 1486531532.8001 | 0/E7DD4D00               |            3890040064

 2017-02-08 06:25:33.977237+01 | 1486531533.97724 | 0/E7DD4D00               |            3890040064

 2017-02-08 06:25:35.171874+01 | 1486531535.17187 | 0/E7DD4D00               |            3890040064

 2017-02-08 06:25:36.31528+01 | 1486531536.31528 | 0/E7DD4D00               |            3890040064

 2017-02-08 06:25:37.502986+01 | 1486531537.50299 | 0/E7DD4D00               |            3890040064

 2017-02-08 06:25:38.697349+01 | 1486531538.69735 | 0/E7DD4D00               |            3890040064

 2017-02-08 06:25:39.889239+01 | 1486531539.88924 | 0/E7DD4D00               |            3890040064

 2017-02-08 06:25:41.089343+01 | 1486531541.08934 | 0/E7DD4D00               |            3890040064

 2017-02-08 06:25:42.269347+01 | 1486531542.26935 | 0/E7DD4D00               |            3890040064

 2017-02-08 06:25:43.40646+01 | 1486531543.40646 | 0/E7DD4D00               |            3890040064

 2017-02-08 06:25:44.601781+01 | 1486531544.60178 | 0/E7DD4D00               |            3890040064

 2017-02-08 06:25:45.796275+01 | 1486531545.79627 | 0/E7DD4D00               |            3890040064

 2017-02-08 06:25:46.997289+01 | 1486531546.99729 | 0/E7DD4D00               |            3890040064

 2017-02-08 06:25:48.190111+01 | 1486531548.19011 | 0/E7DD4D00               |            3890040064

 2017-02-08 06:25:49.388436+01 | 1486531549.38844 | 0/E7DD4D00               |            3890040064

 2017-02-08 06:25:50.579062+01 | 1486531550.57906 | 0/E7DD4D00               |            3890040064

 2017-02-08 06:25:51.747079+01 | 1486531551.74708 | 0/E7DD4D00               |            3890040064

 2017-02-08 06:25:52.941941+01 | 1486531552.94194 | 0/E7DD4D00               |            3890040064

 2017-02-08 06:25:54.141562+01 | 1486531554.14156 | 0/E7DD4D00               |            3890040064

 2017-02-08 06:25:55.281667+01 | 1486531555.28167 | 0/E7DD4D00               |            3890040064

 2017-02-08 06:25:56.439172+01 | 1486531556.43917 | 0/E7DD4D00               |            3890040064

 2017-02-08 06:25:57.633697+01 | 1486531557.6337 | 0/E7DD4D00               |            3890040064

 2017-02-08 06:25:58.776598+01 | 1486531558.7766 | 0/E7DD4D00               |            3890040064

 2017-02-08 06:25:59.907784+01 | 1486531559.90778 | 0/E7DD4D00               |            3890040064

 2017-02-08 06:26:01.104465+01 | 1486531561.10447 | 0/E7DD4D00               |            3890040064

 2017-02-08 06:26:02.288509+01 | 1486531562.28851 | 0/E7DD4D00               |            3890040064

 2017-02-08 06:26:03.484564+01 | 1486531563.48456 | 0/E7DD4D00               |            3890040064

 2017-02-08 06:26:04.664074+01 | 1486531564.66407 | 0/E7DD4D00               |            3890040064

 2017-02-08 06:26:05.858895+01 | 1486531565.8589 | 0/E7DD4D00               |            3890040064

 2017-02-08 06:26:07.056807+01 | 1486531567.05681 | 0/E7DD4D00               |            3890040064

 2017-02-08 06:26:08.254916+01 | 1486531568.25492 | 0/E7DD4D00               |            3890040064

 2017-02-08 06:26:09.450829+01 | 1486531569.45083 | 0/E7DD4D00               |            3890040064

 2017-02-08 06:26:10.647451+01 | 1486531570.64745 | 0/E7DD4D00               |            3890040064

 2017-02-08 06:26:11.836186+01 | 1486531571.83619 | 0/E7DD4D00               |            3890040064

 2017-02-08 06:26:12.972503+01 | 1486531572.9725 | 0/E7DD4D00               |            3890040064

 2017-02-08 06:26:14.131892+01 | 1486531574.13189 | 0/E7DD4D00               |            3890040064

 2017-02-08 06:26:15.330434+01 | 1486531575.33043 | 0/E7DD4D00               |            3890040064

 2017-02-08 06:26:16.510361+01 | 1486531576.51036 | 0/E7DD4D00               |            3890040064

 2017-02-08 06:26:17.678256+01 | 1486531577.67826 | 0/E7DD4D00               |            3890040064

 2017-02-08 06:26:18.879294+01 | 1486531578.87929 | 0/E7DD4D00               |            3890040064

 2017-02-08 06:26:20.075173+01 | 1486531580.07517 | 0/E7DD4D00               |            3890040064

 2017-02-08 06:26:21.24757+01 | 1486531581.24757 | 0/E7DD4D00               |            3890040064

 2017-02-08 06:26:22.444797+01 | 1486531582.4448 | 0/E7DD4D00               |            3890040064

 2017-02-08 06:26:23.640718+01 | 1486531583.64072 | 0/E7DD4D00               |            3890040064

 2017-02-08 06:26:24.835601+01 | 1486531584.8356 | 0/E7DD4D00               |            3890040064

 2017-02-08 06:26:26.03568+01 | 1486531586.03568 | 0/E7DD4D00               |            3890040064

 2017-02-08 06:26:27.229281+01 | 1486531587.22928 | 0/E7DD4D00               |            3890040064

 2017-02-08 06:26:28.420219+01 | 1486531588.42022 | 0/E7DD4D00               |            3890040064

 2017-02-08 06:26:29.5233+01 | 1486531589.5233 | 0/E7DD4D00               |            3890040064

 2017-02-08 06:26:30.701644+01 | 1486531590.70164 | 0/E7DD4D00               |            3890040064

 2017-02-08 06:26:31.832204+01 | 1486531591.8322 | 0/E7DD4D00               |            3890040064

 2017-02-08 06:26:33.026701+01 | 1486531593.0267 | 0/E7DD4D00               |            3890040064

 2017-02-08 06:26:34.221824+01 | 1486531594.22182 | 0/E7DD4D00               |            3890040064

 2017-02-08 06:26:35.356139+01 | 1486531595.35614 | 0/E7DD4D00               |            3890040064

 2017-02-08 06:26:36.510365+01 | 1486531596.51037 | 0/E7DD4D00               |            3890040064

 2017-02-08 06:26:37.701413+01 | 1486531597.70141 | 0/E7DD4D00               |            3890040064

 2017-02-08 06:26:38.815204+01 | 1486531598.8152 | 0/E7DD4D00               |            3890040064

 2017-02-08 06:26:39.946405+01 | 1486531599.9464 | 0/E7DD4D00               |            3890040064

 2017-02-08 06:26:41.12366+01 | 1486531601.12366 | 0/E7DD4D00               |            3890040064

 2017-02-08 06:26:42.257909+01 | 1486531602.25791 | 0/E7DD4D00               |            3890040064

 2017-02-08 06:26:43.454884+01 | 1486531603.45488 | 0/E7DD4D00               |            3890040064

 2017-02-08 06:26:44.646867+01 | 1486531604.64687 | 0/E7DD4D00               |            3890040064

 2017-02-08 06:26:45.841859+01 | 1486531605.84186 | 0/E7DD4D00               |            3890040064

 2017-02-08 06:26:47.045009+01 | 1486531607.04501 | 0/E7DD4D00               |            3890040064

 2017-02-08 06:26:48.243915+01 | 1486531608.24392 | 0/E7DD4D00               |            3890040064

 2017-02-08 06:26:49.438328+01 | 1486531609.43833 | 0/E7DD4D00               |            3890040064

 2017-02-08 06:26:50.568881+01 | 1486531610.56888 | 0/E7DD4D00               |            3890040064

 2017-02-08 06:26:51.643095+01 | 1486531611.6431 | 0/E7DD4D00               |            3890040064

 2017-02-08 06:26:52.763056+01 | 1486531612.76306 | 0/E7DD4D00               |            3890040064

 2017-02-08 06:26:53.962237+01 | 1486531613.96224 | 0/E7DD4D00               |            3890040064

 2017-02-08 06:26:55.153934+01 | 1486531615.15393 | 0/E7DD4D00               |            3890040064

 2017-02-08 06:26:56.350103+01 | 1486531616.3501 | 0/E7DD4D00               |            3890040064

 2017-02-08 06:26:57.547439+01 | 1486531617.54744 | 0/E7DD4D00               |            3890040064

 2017-02-08 06:26:58.746462+01 | 1486531618.74646 | 0/E7DD4D00               |            3890040064

 2017-02-08 06:26:59.930742+01 | 1486531619.93074 | 0/E7DD4D00               |            3890040064

 2017-02-08 06:27:01.118339+01 | 1486531621.11834 | 0/E7DD4D00               |            3890040064

 2017-02-08 06:27:02.278428+01 | 1486531622.27843 | 0/E7DD4D00               |            3890040064

 2017-02-08 06:27:03.477457+01 | 1486531623.47746 | 0/E7DD4D00               |            3890040064

 2017-02-08 06:27:04.665793+01 | 1486531624.66579 | 0/E7DD4D00               |            3890040064

 2017-02-08 06:27:05.848221+01 | 1486531625.84822 | 0/E7DD4D00               |            3890040064

 2017-02-08 06:27:07.043479+01 | 1486531627.04348 | 0/E7DD4D00               |            3890040064

 2017-02-08 06:27:08.241053+01 | 1486531628.24105 | 0/E7DD4D00               |            3890040064

 2017-02-08 06:27:09.431603+01 | 1486531629.4316 | 0/E7DD4D00               |            3890040064

 2017-02-08 06:27:10.565177+01 | 1486531630.56518 | 0/E7DD4D00               |            3890040064

 2017-02-08 06:27:11.730957+01 | 1486531631.73096 | 0/E7DD4D00               |            3890040064

 2017-02-08 06:27:12.927825+01 | 1486531632.92782 | 0/E7DD4D00               |            3890040064

 2017-02-08 06:27:14.122631+01 | 1486531634.12263 | 0/E7DD4D00               |            3890040064

 2017-02-08 06:27:15.317513+01 | 1486531635.31751 | 0/E7DD4D00               |            3890040064

 2017-02-08 06:27:16.514873+01 | 1486531636.51487 | 0/E7DD4D00               |            3890040064

 2017-02-08 06:27:17.680945+01 | 1486531637.68094 | 0/E7DD4D00               |            3890040064

 2017-02-08 06:27:18.873072+01 | 1486531638.87307 | 0/E7DD4D00               |            3890040064

 2017-02-08 06:27:20.065891+01 | 1486531640.06589 | 0/E7DD4D00               |            3890040064

 2017-02-08 06:27:21.215504+01 | 1486531641.2155 | 0/E7DD4D00               |            3890040064

 2017-02-08 06:27:22.374292+01 | 1486531642.37429 | 0/E7DD4D00               |            3890040064

 2017-02-08 06:27:23.564389+01 | 1486531643.56439 | 0/E7DD4D00               |            3890040064

