 2017-02-08 17:37:06.337961+01 | 1486571826.33796 | A/19229DB8               |           43371371960

 2017-02-08 17:37:07.381458+01 | 1486571827.38146 | A/1C5A3A70               |           43425348208

 2017-02-08 17:37:08.436209+01 | 1486571828.43621 | A/1F83D8B8               |           43478407352

 2017-02-08 17:37:09.486591+01 | 1486571829.48659 | A/227BC1F0               |           43528208880

 2017-02-08 17:37:10.541178+01 | 1486571830.54118 | A/256024D0               |           43576730832

 2017-02-08 17:37:11.590697+01 | 1486571831.5907 | A/28202260               |           43622867552

 2017-02-08 17:37:12.640023+01 | 1486571832.64002 | A/2AC32240               |           43667104320

 2017-02-08 17:37:13.692333+01 | 1486571833.69233 | A/2D43F8A0               |           43709102240

 2017-02-08 17:37:14.745498+01 | 1486571834.7455 | A/2FC77EF0               |           43751276272

 2017-02-08 17:37:15.795652+01 | 1486571835.79565 | A/321D1CF0               |           43790441712

 2017-02-08 17:37:16.84613+01 | 1486571836.84613 | A/345A76C8               |           43828016840

 2017-02-08 17:37:17.900929+01 | 1486571837.90093 | A/3682DF20               |           43864219424

 2017-02-08 17:37:18.956582+01 | 1486571838.95658 | A/389451A8               |           43898917288

 2017-02-08 17:37:20.011032+01 | 1486571840.01103 | A/3A9DA2F8               |           43933082360

 2017-02-08 17:37:21.068032+01 | 1486571841.06803 | A/3C99BF60               |           43966381920

 2017-02-08 17:37:22.119315+01 | 1486571842.11931 | A/3E6E74D8               |           43997099224

 2017-02-08 17:37:23.169339+01 | 1486571843.16934 | A/402D9788               |           44026402696

 2017-02-08 17:37:24.228058+01 | 1486571844.22806 | A/41F284A0               |           44056085664

 2017-02-08 17:37:25.281243+01 | 1486571845.28124 | A/43987E68               |           44083740264

 2017-02-08 17:37:26.338453+01 | 1486571846.33845 | A/45311208               |           44110516744

 2017-02-08 17:37:27.392703+01 | 1486571847.3927 | A/46BAB300               |           44136313600

 2017-02-08 17:37:28.444296+01 | 1486571848.4443 | A/4834D248               |           44161094216

 2017-02-08 17:37:29.495803+01 | 1486571849.4958 | A/49A3BEE0               |           44185140960

 2017-02-08 17:37:30.549696+01 | 1486571850.5497 | A/4B0FD128               |           44209000744

 2017-02-08 17:37:31.603282+01 | 1486571851.60328 | A/4C72BCC0               |           44232260800

 2017-02-08 17:37:32.658929+01 | 1486571852.65893 | A/4DC8ECF8               |           44254686456

 2017-02-08 17:37:33.713675+01 | 1486571853.71368 | A/4F10F720               |           44276184864

 2017-02-08 17:37:34.76714+01 | 1486571854.76714 | A/50475548               |           44296525128

 2017-02-08 17:37:35.819488+01 | 1486571855.81949 | A/51967040               |           44318486592

 2017-02-08 17:37:36.861255+01 | 1486571856.86125 | A/5322D188               |           44344463752

 2017-02-08 17:37:37.914608+01 | 1486571857.91461 | A/54AB1E28               |           44370173480

 2017-02-08 17:37:38.971615+01 | 1486571858.97162 | A/56159870               |           44393928816

 2017-02-08 17:37:40.026775+01 | 1486571860.02677 | A/578E39D0               |           44418611664

 2017-02-08 17:37:41.076904+01 | 1486571861.0769 | A/58F61AE0               |           44442196704

 2017-02-08 17:37:42.126956+01 | 1486571862.12696 | A/5A4594C0               |           44464182464

 2017-02-08 17:37:43.18162+01 | 1486571863.18162 | A/5BA2CAD8               |           44487068376

 2017-02-08 17:37:44.234201+01 | 1486571864.2342 | A/5CF37310               |           44509131536

 2017-02-08 17:37:45.286578+01 | 1486571865.28658 | A/5E277308               |           44529316616

 2017-02-08 17:37:46.338579+01 | 1486571866.33858 | A/5F6A5AF0               |           44550478576

 2017-02-08 17:37:47.391751+01 | 1486571867.39175 | A/609F2540               |           44570715456

 2017-02-08 17:37:48.447837+01 | 1486571868.44784 | A/61C35400               |           44589863936

 2017-02-08 17:37:49.501322+01 | 1486571869.50132 | A/62F01208               |           44609573384

 2017-02-08 17:37:50.556134+01 | 1486571870.55613 | A/641A5250               |           44629119568

 2017-02-08 17:37:51.607966+01 | 1486571871.60797 | A/653AD830               |           44648028208

 2017-02-08 17:37:52.6624+01 | 1486571872.6624 | A/665FFCE8               |           44667239656

 2017-02-08 17:37:53.714006+01 | 1486571873.71401 | A/676F5278               |           44685021816

 2017-02-08 17:37:54.765354+01 | 1486571874.76535 | A/6890BA38               |           44703988280

 2017-02-08 17:37:55.81931+01 | 1486571875.81931 | A/69A95C48               |           44722379848

 2017-02-08 17:37:56.871135+01 | 1486571876.87113 | A/6AB7A170               |           44740092272

 2017-02-08 17:37:57.924001+01 | 1486571877.924 | A/6BCECB80               |           44758387584

 2017-02-08 17:37:58.978185+01 | 1486571878.97818 | A/6CDF0A50               |           44776230008

 2017-02-08 17:38:00.031653+01 | 1486571880.03165 | A/6DE44B90               |           44793351056

 2017-02-08 17:38:01.08457+01 | 1486571881.08457 | A/6EEE4190               |           44810781072

 2017-02-08 17:38:02.138842+01 | 1486571882.13884 | A/6FEBA660               |           44827387488

 2017-02-08 17:38:03.191297+01 | 1486571883.1913 | A/70EDD030               |           44844306480

 2017-02-08 17:38:04.246203+01 | 1486571884.2462 | A/71F6A8D0               |           44861663440

 2017-02-08 17:38:05.299686+01 | 1486571885.29969 | A/72EFE6E8               |           44877997800

 2017-02-08 17:38:06.352893+01 | 1486571886.35289 | A/73EFC2A0               |           44894765728

 2017-02-08 17:38:07.405624+01 | 1486571887.40562 | A/74EF5EB8               |           44911517368

 2017-02-08 17:38:08.457748+01 | 1486571888.45775 | A/75E4B258               |           44927595096

 2017-02-08 17:38:09.512183+01 | 1486571889.51218 | A/76DFFFC0               |           44944064448

 2017-02-08 17:38:10.565519+01 | 1486571890.56552 | A/77DE3668               |           44960724584

 2017-02-08 17:38:11.619121+01 | 1486571891.61912 | A/78D46D78               |           44976860536

 2017-02-08 17:38:12.674413+01 | 1486571892.67441 | A/79C9E6F0               |           44992947952

 2017-02-08 17:38:13.727969+01 | 1486571893.72797 | A/7ABB2B20               |           45008759584

 2017-02-08 17:38:14.777894+01 | 1486571894.77789 | A/7BB6AD30               |           45025242416

 2017-02-08 17:38:15.832124+01 | 1486571895.83212 | A/7CAC8030               |           45041352752

 2017-02-08 17:38:16.884251+01 | 1486571896.88425 | A/7D971FA0               |           45056728992

 2017-02-08 17:38:17.935869+01 | 1486571897.93587 | A/7E8F9750               |           45073012560

 2017-02-08 17:38:18.993701+01 | 1486571898.9937 | A/7F808EB0               |           45088804528

 2017-02-08 17:38:20.047249+01 | 1486571900.04725 | A/8070A288               |           45104538248

 2017-02-08 17:38:21.102057+01 | 1486571901.10206 | A/81548E08               |           45119475208

 2017-02-08 17:38:22.15828+01 | 1486571902.15828 | A/8241FEA0               |           45135036064

 2017-02-08 17:38:23.213427+01 | 1486571903.21343 | A/833461A8               |           45150921128

 2017-02-08 17:38:24.267925+01 | 1486571904.26793 | A/841A2B90               |           45165980560

 2017-02-08 17:38:25.323191+01 | 1486571905.32319 | A/85095540               |           45181654336

 2017-02-08 17:38:26.378576+01 | 1486571906.37858 | A/85FA3AC0               |           45197441728

 2017-02-08 17:38:27.433384+01 | 1486571907.43338 | A/86DB8EC8               |           45212208840

 2017-02-08 17:38:28.483433+01 | 1486571908.48343 | A/87C1BBA8               |           45227293608

 2017-02-08 17:38:29.537193+01 | 1486571909.53719 | A/88AB4788               |           45242599304

 2017-02-08 17:38:30.593977+01 | 1486571910.59398 | A/898ECC38               |           45257509944

 2017-02-08 17:38:31.647601+01 | 1486571911.6476 | A/8A75CE78               |           45272649336

 2017-02-08 17:38:32.699238+01 | 1486571912.69924 | A/8B581E30               |           45287480880

 2017-02-08 17:38:33.761548+01 | 1486571913.76155 | A/8C37AFF0               |           45302132720

 2017-02-08 17:38:34.81986+01 | 1486571914.81986 | A/8D231C60               |           45317561440

 2017-02-08 17:38:35.876994+01 | 1486571915.87699 | A/8DD9B7F8               |           45329528824

 2017-02-08 17:38:36.923022+01 | 1486571916.92302 | A/8E787330               |           45339931440

 2017-02-08 17:38:37.974526+01 | 1486571917.97453 | A/8F287A58               |           45351467608

 2017-02-08 17:38:39.027482+01 | 1486571919.02748 | A/8FE8FC00               |           45364083712

 2017-02-08 17:38:40.080398+01 | 1486571920.0804 | A/90CF16F0               |           45379163888

 2017-02-08 17:38:41.133209+01 | 1486571921.13321 | A/91A3A118               |           45393092888

 2017-02-08 17:38:42.190685+01 | 1486571922.19069 | A/928377A8               |           45407762344

 2017-02-08 17:38:43.245687+01 | 1486571923.24569 | A/9361B3C8               |           45422326728

 2017-02-08 17:38:44.299145+01 | 1486571924.29914 | A/942BB1D8               |           45435564504

 2017-02-08 17:38:45.350553+01 | 1486571925.35055 | A/95060318               |           45449872152

 2017-02-08 17:38:46.403049+01 | 1486571926.40305 | A/95D68C50               |           45463538768

 2017-02-08 17:38:47.460464+01 | 1486571927.46046 | A/96ABCBC8               |           45477514184

 2017-02-08 17:38:48.513511+01 | 1486571928.51351 | A/9781FD60               |           45491551584

 2017-02-08 17:38:49.566986+01 | 1486571929.56699 | A/984BA1F0               |           45504766448

 2017-02-08 17:38:50.620095+01 | 1486571930.6201 | A/9916BCF0               |           45518077168

 2017-02-08 17:38:51.678379+01 | 1486571931.67838 | A/99DD5270               |           45531091568

 2017-02-08 17:38:52.733284+01 | 1486571932.73328 | A/9AA96568               |           45544465768

 2017-02-08 17:38:53.787642+01 | 1486571933.78764 | A/9B78BAA8               |           45558053544

 2017-02-08 17:38:54.839964+01 | 1486571934.83996 | A/9C40BFD0               |           45571162064

 2017-02-08 17:38:55.894664+01 | 1486571935.89466 | A/9D0E1FB8               |           45584621496

 2017-02-08 17:38:56.948429+01 | 1486571936.94843 | A/9DD4C360               |           45597639520

 2017-02-08 17:38:58.000012+01 | 1486571938.00001 | A/9EA15330               |           45611045680

 2017-02-08 17:38:59.053006+01 | 1486571939.05301 | A/9F6899F0               |           45624105456

 2017-02-08 17:39:00.106289+01 | 1486571940.10629 | A/A0278E10               |           45636619792

 2017-02-08 17:39:01.157019+01 | 1486571941.15702 | A/A0EBE0D8               |           45649486040

 2017-02-08 17:39:02.210818+01 | 1486571942.21082 | A/A1A4CAB8               |           45661604536

 2017-02-08 17:39:03.264957+01 | 1486571943.26496 | A/A25E27C8               |           45673752520

 2017-02-08 17:39:04.320678+01 | 1486571944.32068 | A/A31ED5D8               |           45686379992

 2017-02-08 17:39:05.373153+01 | 1486571945.37315 | A/A3D96CC8               |           45698608328

 2017-02-08 17:39:06.428074+01 | 1486571946.42807 | A/A48FE998               |           45710567832

 2017-02-08 17:39:07.481311+01 | 1486571947.48131 | A/A53E1F98               |           45721984920

 2017-02-08 17:39:08.533096+01 | 1486571948.5331 | A/A5F66830               |           45734062128

 2017-02-08 17:39:09.586131+01 | 1486571949.58613 | A/A6B06130               |           45746250544

 2017-02-08 17:39:10.642506+01 | 1486571950.64251 | A/A75BD0A8               |           45757485224

 2017-02-08 17:39:11.694341+01 | 1486571951.69434 | A/A80EE710               |           45769221904

 2017-02-08 17:39:12.7472+01 | 1486571952.7472 | A/A8B006B0               |           45779781296

 2017-02-08 17:39:13.799269+01 | 1486571953.79927 | A/A956BFF0               |           45790707696

 2017-02-08 17:39:14.851084+01 | 1486571954.85108 | A/A9F9B140               |           45801386304

 2017-02-08 17:39:15.908577+01 | 1486571955.90858 | A/AA9C02C8               |           45812024008

 2017-02-08 17:39:16.960589+01 | 1486571956.96059 | A/AB409198               |           45822808472

 2017-02-08 17:39:18.011211+01 | 1486571958.01121 | A/ABDFC4C8               |           45833241800

 2017-02-08 17:39:19.062215+01 | 1486571959.06222 | A/AC7A4078               |           45843366008

 2017-02-08 17:39:20.117906+01 | 1486571960.11791 | A/AD1A5218               |           45853856280

 2017-02-08 17:39:21.166783+01 | 1486571961.16678 | A/ADB23A90               |           45863811728

 2017-02-08 17:39:22.2189+01 | 1486571962.2189 | A/AE4EB8B0               |           45874067632

 2017-02-08 17:39:23.270865+01 | 1486571963.27086 | A/AEECBC90               |           45884423312

 2017-02-08 17:39:24.325661+01 | 1486571964.32566 | A/AF82C988               |           45894257032

 2017-02-08 17:39:25.377778+01 | 1486571965.37778 | A/B01609D8               |           45903907288

 2017-02-08 17:39:26.429764+01 | 1486571966.42976 | A/B0A88028               |           45913505832

 2017-02-08 17:39:27.484052+01 | 1486571967.48405 | A/B139DD30               |           45923032368

 2017-02-08 17:39:28.537042+01 | 1486571968.53704 | A/B1C81968               |           45932353896

 2017-02-08 17:39:29.588717+01 | 1486571969.58872 | A/B25FAB98               |           45942287256

 2017-02-08 17:39:30.641558+01 | 1486571970.64156 | A/B2F370E8               |           45951971560

 2017-02-08 17:39:31.694002+01 | 1486571971.694 | A/B38B5F40               |           45961928512

 2017-02-08 17:39:32.751572+01 | 1486571972.75157 | A/B41E4110               |           45971554576

 2017-02-08 17:39:33.808411+01 | 1486571973.80841 | A/B4ABE0A0               |           45980836000

 2017-02-08 17:39:34.862307+01 | 1486571974.86231 | A/B5391BA0               |           45990091680

 2017-02-08 17:39:35.915385+01 | 1486571975.91539 | A/B5B7D770               |           45998397296

 2017-02-08 17:39:36.959698+01 | 1486571976.9597 | A/B6217010               |           46005317648

 2017-02-08 17:39:38.013075+01 | 1486571978.01308 | A/B698D438               |           46013142072

 2017-02-08 17:39:39.070945+01 | 1486571979.07095 | A/B717C0E0               |           46021460192

 2017-02-08 17:39:40.125577+01 | 1486571980.12558 | A/B7A11510               |           46030460176

 2017-02-08 17:39:41.176233+01 | 1486571981.17623 | A/B826D1C8               |           46039224776

 2017-02-08 17:39:42.228361+01 | 1486571982.22836 | A/B8A860D0               |           46047715536

 2017-02-08 17:39:43.283619+01 | 1486571983.28362 | A/B9241680               |           46055822976

 2017-02-08 17:39:44.332472+01 | 1486571984.33247 | A/B9A98CE8               |           46064569576

 2017-02-08 17:39:45.385035+01 | 1486571985.38504 | A/BA2EE230               |           46073307696

 2017-02-08 17:39:46.435336+01 | 1486571986.43534 | A/BAAA9CB0               |           46081416368

 2017-02-08 17:39:47.487072+01 | 1486571987.48707 | A/BB28F510               |           46089696528

 2017-02-08 17:39:48.541225+01 | 1486571988.54122 | A/BBA324C0               |           46097704128

 2017-02-08 17:39:49.594779+01 | 1486571989.59478 | A/BC209698               |           46105925272

 2017-02-08 17:39:50.652349+01 | 1486571990.65235 | A/BC9BC388               |           46113997704

 2017-02-08 17:39:51.705783+01 | 1486571991.70578 | A/BD0C3DA8               |           46121369000

 2017-02-08 17:39:52.756194+01 | 1486571992.75619 | A/BD84BE58               |           46129266264

 2017-02-08 17:39:53.80811+01 | 1486571993.80811 | A/BDF6BD30               |           46136737072

 2017-02-08 17:39:54.858773+01 | 1486571994.85877 | A/BE681460               |           46144164960

 2017-02-08 17:39:55.909402+01 | 1486571995.9094 | A/BED5AC88               |           46151347336

 2017-02-08 17:39:56.96247+01 | 1486571996.96247 | A/BF408498               |           46158349464

 2017-02-08 17:39:58.011792+01 | 1486571998.01179 | A/BFA45910               |           46164891920

 2017-02-08 17:39:59.063023+01 | 1486571999.06302 | A/C00C0CC0               |           46171688128

 2017-02-08 17:40:00.115951+01 | 1486572000.11595 | A/C072E5A8               |           46178428328

 2017-02-08 17:40:01.176918+01 | 1486572001.17692 | A/C0D76638               |           46185014840

 2017-02-08 17:40:02.230348+01 | 1486572002.23035 | A/C13F3598               |           46191818136

 2017-02-08 17:40:03.289122+01 | 1486572003.28912 | A/C1A3E5B0               |           46198416816

 2017-02-08 17:40:04.342202+01 | 1486572004.3422 | A/C208A568               |           46205019496

 2017-02-08 17:40:05.394128+01 | 1486572005.39413 | A/C27752C0               |           46212272832

 2017-02-08 17:40:06.445713+01 | 1486572006.44571 | A/C2D9DFD8               |           46218731480

 2017-02-08 17:40:07.497475+01 | 1486572007.49747 | A/C339DF70               |           46225022832

 2017-02-08 17:40:08.550162+01 | 1486572008.55016 | A/C3A0EB20               |           46231776032

 2017-02-08 17:40:09.608118+01 | 1486572009.60812 | A/C4069FA0               |           46238441376

 2017-02-08 17:40:10.666209+01 | 1486572010.66621 | A/C4663DE0               |           46244707808

 2017-02-08 17:40:11.721223+01 | 1486572011.72122 | A/C4CDDB90               |           46251498384

 2017-02-08 17:40:12.775934+01 | 1486572012.77593 | A/C52B64D0               |           46257628936

 2017-02-08 17:40:13.825525+01 | 1486572013.82553 | A/C58F63F8               |           46264181752

 2017-02-08 17:40:14.877837+01 | 1486572014.87784 | A/C5F72268               |           46270980712

 2017-02-08 17:40:15.932337+01 | 1486572015.93234 | A/C663FDE8               |           46278114792

 2017-02-08 17:40:16.982322+01 | 1486572016.98232 | A/C6C50AE0               |           46284475104

 2017-02-08 17:40:18.034479+01 | 1486572018.03448 | A/C7125AA0               |           46289541792

 2017-02-08 17:40:19.086895+01 | 1486572019.08689 | A/C79A85B0               |           46298465712

 2017-02-08 17:40:20.140147+01 | 1486572020.14015 | A/C8B14B10               |           46316735248

 2017-02-08 17:40:21.193594+01 | 1486572021.19359 | A/CA151C90               |           46340054160

 2017-02-08 17:40:22.248242+01 | 1486572022.24824 | A/CB64EDA0               |           46362062240

 2017-02-08 17:40:23.298501+01 | 1486572023.2985 | A/CC92AE88               |           46381837960

 2017-02-08 17:40:24.354024+01 | 1486572024.35402 | A/CD8904F0               |           46397981936

 2017-02-08 17:40:25.419847+01 | 1486572025.41985 | A/CE739668               |           46413354600

 2017-02-08 17:40:26.472506+01 | 1486572026.47251 | A/CF5C8C98               |           46428621976

 2017-02-08 17:40:27.526004+01 | 1486572027.526 | A/D0363DB8               |           46442888632

 2017-02-08 17:40:28.57864+01 | 1486572028.57864 | A/D0F1FDD0               |           46455193040

 2017-02-08 17:40:29.635791+01 | 1486572029.63579 | A/D1A8B530               |           46467167536

 2017-02-08 17:40:30.685367+01 | 1486572030.68537 | A/D25B96A0               |           46478890656

 2017-02-08 17:40:31.739546+01 | 1486572031.73955 | A/D30D7FC8               |           46490550216

 2017-02-08 17:40:32.796992+01 | 1486572032.79699 | A/D3B1AFB8               |           46501310392

 2017-02-08 17:40:33.856088+01 | 1486572033.85609 | A/D449DB40               |           46511283008

 2017-02-08 17:40:34.911763+01 | 1486572034.91176 | A/D4E83C30               |           46521662512

 2017-02-08 17:40:35.965754+01 | 1486572035.96575 | A/D5703C40               |           46530575424

 2017-02-08 17:40:37.010086+01 | 1486572037.01009 | A/D5E09C00               |           46537939968

 2017-02-08 17:40:38.064367+01 | 1486572038.06437 | A/D65465C0               |           46545528256

 2017-02-08 17:40:39.119528+01 | 1486572039.11953 | A/D6C4DD60               |           46552898912

 2017-02-08 17:40:40.174604+01 | 1486572040.1746 | A/D736D3E0               |           46560367584

 2017-02-08 17:40:41.224913+01 | 1486572041.22491 | A/D7BA1260               |           46568968800

 2017-02-08 17:40:42.277453+01 | 1486572042.27745 | A/D8353500               |           46577038592

 2017-02-08 17:40:43.32857+01 | 1486572043.32857 | A/D89B6250               |           46583734864

 2017-02-08 17:40:44.382364+01 | 1486572044.38236 | A/D8FA4040               |           46589952064

 2017-02-08 17:40:45.435275+01 | 1486572045.43528 | A/D9490F20               |           46595116832

 2017-02-08 17:40:46.491569+01 | 1486572046.49157 | A/D98E3028               |           46599647272

 2017-02-08 17:40:47.545577+01 | 1486572047.54558 | A/D9CE1618               |           46603834904

 2017-02-08 17:40:48.595549+01 | 1486572048.59555 | A/DA0FE608               |           46608147976

 2017-02-08 17:40:49.648303+01 | 1486572049.6483 | A/DA501DF8               |           46612356600

 2017-02-08 17:40:50.700485+01 | 1486572050.70048 | A/DA8A69D8               |           46616177112

 2017-02-08 17:40:51.756259+01 | 1486572051.75626 | A/DAC616C0               |           46620088000

 2017-02-08 17:40:52.810302+01 | 1486572052.8103 | A/DB03D280               |           46624133760

 2017-02-08 17:40:53.866459+01 | 1486572053.86646 | A/DB3E7BB8               |           46627978168

 2017-02-08 17:40:54.918478+01 | 1486572054.91848 | A/DB797540               |           46631843136

 2017-02-08 17:40:55.974257+01 | 1486572055.97426 | A/DBAFF9B8               |           46635415992

 2017-02-08 17:40:57.034041+01 | 1486572057.03404 | A/DBED96A0               |           46639453856

 2017-02-08 17:40:58.08587+01 | 1486572058.08587 | A/DC2C8DB0               |           46643580336

 2017-02-08 17:40:59.138615+01 | 1486572059.13861 | A/DC63A320               |           46647190304

 2017-02-08 17:41:00.190184+01 | 1486572060.19018 | A/DC9DB038               |           46650994744

 2017-02-08 17:41:01.243735+01 | 1486572061.24374 | A/DCD428B8               |           46654564536

 2017-02-08 17:41:02.294463+01 | 1486572062.29446 | A/DD0E56D0               |           46658377424

 2017-02-08 17:41:03.344028+01 | 1486572063.34403 | A/DD477E30               |           46662123056

 2017-02-08 17:41:04.399495+01 | 1486572064.39949 | A/DD7FFD58               |           46665825624

 2017-02-08 17:41:05.450943+01 | 1486572065.45094 | A/DDBA7380               |           46669656960

 2017-02-08 17:41:06.502508+01 | 1486572066.50251 | A/DDF64680               |           46673577600

 2017-02-08 17:41:07.559096+01 | 1486572067.5591 | A/DE2F4E88               |           46677315208

 2017-02-08 17:41:08.608788+01 | 1486572068.60879 | A/DE682450               |           46681039952

 2017-02-08 17:41:09.661925+01 | 1486572069.66193 | A/DE9F7C28               |           46684666920

 2017-02-08 17:41:10.711438+01 | 1486572070.71144 | A/DED7F590               |           46688368016

 2017-02-08 17:41:11.76161+01 | 1486572071.76161 | A/DF13F670               |           46692300400

 2017-02-08 17:41:12.813967+01 | 1486572072.81397 | A/DF4DC5C0               |           46696089024

 2017-02-08 17:41:13.868325+01 | 1486572073.86832 | A/DF892090               |           46699978896

 2017-02-08 17:41:14.925355+01 | 1486572074.92535 | A/DFC35A08               |           46703794696

 2017-02-08 17:41:15.975903+01 | 1486572075.9759 | A/E0015A58               |           46707858008

 2017-02-08 17:41:17.027847+01 | 1486572077.02785 | A/E03ED0E8               |           46711886056

 2017-02-08 17:41:18.081121+01 | 1486572078.08112 | A/E0757BA0               |           46715468704

 2017-02-08 17:41:19.13402+01 | 1486572079.13402 | A/E0B3AE50               |           46719544912

 2017-02-08 17:41:20.186488+01 | 1486572080.18649 | A/E0EE9628               |           46723405352

 2017-02-08 17:41:21.243491+01 | 1486572081.24349 | A/E1308D18               |           46727728408

 2017-02-08 17:41:22.299205+01 | 1486572082.29921 | A/E17221A8               |           46732026280

 2017-02-08 17:41:23.357513+01 | 1486572083.35751 | A/E1B8D348               |           46736659272

 2017-02-08 17:41:24.410676+01 | 1486572084.41068 | A/E1FC1390               |           46741066640

 2017-02-08 17:41:25.465553+01 | 1486572085.46555 | A/E23D3E38               |           46745337400

 2017-02-08 17:41:26.520394+01 | 1486572086.52039 | A/E2811FF0               |           46749786096

 2017-02-08 17:41:27.574408+01 | 1486572087.57441 | A/E2BFAE78               |           46753885816

 2017-02-08 17:41:28.62926+01 | 1486572088.62926 | A/E303A860               |           46758340704

 2017-02-08 17:41:29.681736+01 | 1486572089.68174 | A/E342F860               |           46762489952

 2017-02-08 17:41:30.73156+01 | 1486572090.73156 | A/E383AB40               |           46766730048

 2017-02-08 17:41:31.785679+01 | 1486572091.78568 | A/E3C6D290               |           46771131024

 2017-02-08 17:41:32.842834+01 | 1486572092.84283 | A/E406CCE8               |           46775323880

 2017-02-08 17:41:33.89217+01 | 1486572093.89217 | A/E4465800               |           46779488256

 2017-02-08 17:41:34.947516+01 | 1486572094.94752 | A/E48318C0               |           46783469760

 2017-02-08 17:41:36.006245+01 | 1486572096.00624 | A/E4C3C4D0               |           46787708112

 2017-02-08 17:41:37.047022+01 | 1486572097.04702 | A/E500E338               |           46791713592

 2017-02-08 17:41:38.098806+01 | 1486572098.09881 | A/E543CF80               |           46796099456

 2017-02-08 17:41:39.153614+01 | 1486572099.15361 | A/E58D50A8               |           46800916648

 2017-02-08 17:41:40.205424+01 | 1486572100.20542 | A/E5D65728               |           46805702440

 2017-02-08 17:41:41.259938+01 | 1486572101.25994 | A/E61B1438               |           46810207288

 2017-02-08 17:41:42.315105+01 | 1486572102.3151 | A/E655AD48               |           46814047560

 2017-02-08 17:41:43.35885+01 | 1486572103.35885 | A/E68A0650               |           46817478224

 2017-02-08 17:41:44.416738+01 | 1486572104.41674 | A/E6C022C0               |           46821024448

 2017-02-08 17:41:45.468801+01 | 1486572105.4688 | A/E6F8FAD0               |           46824749776

 2017-02-08 17:41:46.525282+01 | 1486572106.52528 | A/E72D7DF0               |           46828191216

 2017-02-08 17:41:47.575847+01 | 1486572107.57585 | A/E765BC28               |           46831877160

 2017-02-08 17:41:48.628389+01 | 1486572108.62839 | A/E798EE70               |           46835232368

 2017-02-08 17:41:49.686729+01 | 1486572109.68673 | A/E7D029F8               |           46838852088

 2017-02-08 17:41:50.742373+01 | 1486572110.74237 | A/E80659A8               |           46842403240

 2017-02-08 17:41:51.795234+01 | 1486572111.79523 | A/E83D3590               |           46845998480

 2017-02-08 17:41:52.849741+01 | 1486572112.84974 | A/E87679D8               |           46849751512

 2017-02-08 17:41:53.903339+01 | 1486572113.90334 | A/E8A9AA30               |           46853106224

 2017-02-08 17:41:54.954324+01 | 1486572114.95432 | A/E8DFFCB8               |           46856666296

 2017-02-08 17:41:56.007589+01 | 1486572116.00759 | A/E916E798               |           46860265368

 2017-02-08 17:41:57.061618+01 | 1486572117.06162 | A/E94D1A28               |           46863817256

 2017-02-08 17:41:58.117207+01 | 1486572118.11721 | A/E9803060               |           46867165280

 2017-02-08 17:41:59.169136+01 | 1486572119.16914 | A/E9B694B0               |           46870729904

 2017-02-08 17:42:00.223512+01 | 1486572120.22351 | A/E9EA23F0               |           46874108912

 2017-02-08 17:42:01.277107+01 | 1486572121.27711 | A/EA1F67C0               |           46877599680

 2017-02-08 17:42:02.330569+01 | 1486572122.33057 | A/EA5531F8               |           46881124856

 2017-02-08 17:42:03.382547+01 | 1486572123.38255 | A/EA88FB48               |           46884518728

 2017-02-08 17:42:04.43783+01 | 1486572124.43783 | A/EAC0FA78               |           46888188536

 2017-02-08 17:42:05.487937+01 | 1486572125.48794 | A/EAF20FF8               |           46891405304

