 2017-02-08 02:50:31.624565+01 | 1486518631.62456 | pgbench_accounts |       4028858368
 2017-02-08 02:50:31.624565+01 | 1486518631.62456 | pgbench_tellers  |           139264
 2017-02-08 02:50:31.624565+01 | 1486518631.62456 | pgbench_history  |                0
 2017-02-08 02:50:31.624565+01 | 1486518631.62456 | pgbench_branches |            16384

 2017-02-08 02:50:32.876575+01 | 1486518632.87657 | pgbench_accounts |       4028858368
 2017-02-08 02:50:32.876575+01 | 1486518632.87657 | pgbench_tellers  |           139264
 2017-02-08 02:50:32.876575+01 | 1486518632.87657 | pgbench_history  |                0
 2017-02-08 02:50:32.876575+01 | 1486518632.87657 | pgbench_branches |            16384

 2017-02-08 02:50:34.152619+01 | 1486518634.15262 | pgbench_accounts |       4028858368
 2017-02-08 02:50:34.152619+01 | 1486518634.15262 | pgbench_tellers  |           139264
 2017-02-08 02:50:34.152619+01 | 1486518634.15262 | pgbench_history  |                0
 2017-02-08 02:50:34.152619+01 | 1486518634.15262 | pgbench_branches |            16384

 2017-02-08 02:50:35.43047+01 | 1486518635.43047 | pgbench_accounts |       4028858368
 2017-02-08 02:50:35.43047+01 | 1486518635.43047 | pgbench_tellers  |           139264
 2017-02-08 02:50:35.43047+01 | 1486518635.43047 | pgbench_history  |                0
 2017-02-08 02:50:35.43047+01 | 1486518635.43047 | pgbench_branches |            16384

 2017-02-08 02:50:36.710378+01 | 1486518636.71038 | pgbench_accounts |       4028858368
 2017-02-08 02:50:36.710378+01 | 1486518636.71038 | pgbench_tellers  |           139264
 2017-02-08 02:50:36.710378+01 | 1486518636.71038 | pgbench_history  |                0
 2017-02-08 02:50:36.710378+01 | 1486518636.71038 | pgbench_branches |            16384

 2017-02-08 02:50:37.986066+01 | 1486518637.98607 | pgbench_accounts |       4028858368
 2017-02-08 02:50:37.986066+01 | 1486518637.98607 | pgbench_tellers  |           139264
 2017-02-08 02:50:37.986066+01 | 1486518637.98607 | pgbench_history  |                0
 2017-02-08 02:50:37.986066+01 | 1486518637.98607 | pgbench_branches |            16384

 2017-02-08 02:50:39.271205+01 | 1486518639.2712 | pgbench_accounts |       4028858368
 2017-02-08 02:50:39.271205+01 | 1486518639.2712 | pgbench_tellers  |           139264
 2017-02-08 02:50:39.271205+01 | 1486518639.2712 | pgbench_history  |                0
 2017-02-08 02:50:39.271205+01 | 1486518639.2712 | pgbench_branches |            16384

 2017-02-08 02:50:40.512807+01 | 1486518640.51281 | pgbench_accounts |       4028858368
 2017-02-08 02:50:40.512807+01 | 1486518640.51281 | pgbench_tellers  |           139264
 2017-02-08 02:50:40.512807+01 | 1486518640.51281 | pgbench_history  |                0
 2017-02-08 02:50:40.512807+01 | 1486518640.51281 | pgbench_branches |            16384

 2017-02-08 02:50:41.731863+01 | 1486518641.73186 | pgbench_accounts |       4028858368
 2017-02-08 02:50:41.731863+01 | 1486518641.73186 | pgbench_tellers  |           139264
 2017-02-08 02:50:41.731863+01 | 1486518641.73186 | pgbench_history  |                0
 2017-02-08 02:50:41.731863+01 | 1486518641.73186 | pgbench_branches |            16384

 2017-02-08 02:50:42.973485+01 | 1486518642.97348 | pgbench_accounts |       4028858368
 2017-02-08 02:50:42.973485+01 | 1486518642.97348 | pgbench_tellers  |           139264
 2017-02-08 02:50:42.973485+01 | 1486518642.97348 | pgbench_history  |                0
 2017-02-08 02:50:42.973485+01 | 1486518642.97348 | pgbench_branches |            16384

 2017-02-08 02:50:44.249057+01 | 1486518644.24906 | pgbench_accounts |       4028858368
 2017-02-08 02:50:44.249057+01 | 1486518644.24906 | pgbench_tellers  |           139264
 2017-02-08 02:50:44.249057+01 | 1486518644.24906 | pgbench_history  |                0
 2017-02-08 02:50:44.249057+01 | 1486518644.24906 | pgbench_branches |            16384

 2017-02-08 02:50:45.487938+01 | 1486518645.48794 | pgbench_accounts |       4028858368
 2017-02-08 02:50:45.487938+01 | 1486518645.48794 | pgbench_tellers  |           139264
 2017-02-08 02:50:45.487938+01 | 1486518645.48794 | pgbench_history  |                0
 2017-02-08 02:50:45.487938+01 | 1486518645.48794 | pgbench_branches |            16384

 2017-02-08 02:50:46.715756+01 | 1486518646.71576 | pgbench_accounts |       4028858368
 2017-02-08 02:50:46.715756+01 | 1486518646.71576 | pgbench_tellers  |           139264
 2017-02-08 02:50:46.715756+01 | 1486518646.71576 | pgbench_history  |                0
 2017-02-08 02:50:46.715756+01 | 1486518646.71576 | pgbench_branches |            16384

 2017-02-08 02:50:48.015223+01 | 1486518648.01522 | pgbench_accounts |       4028858368
 2017-02-08 02:50:48.015223+01 | 1486518648.01522 | pgbench_tellers  |           139264
 2017-02-08 02:50:48.015223+01 | 1486518648.01522 | pgbench_history  |                0
 2017-02-08 02:50:48.015223+01 | 1486518648.01522 | pgbench_branches |            16384

 2017-02-08 02:50:49.227233+01 | 1486518649.22723 | pgbench_accounts |       4028858368
 2017-02-08 02:50:49.227233+01 | 1486518649.22723 | pgbench_tellers  |           139264
 2017-02-08 02:50:49.227233+01 | 1486518649.22723 | pgbench_history  |                0
 2017-02-08 02:50:49.227233+01 | 1486518649.22723 | pgbench_branches |            16384

 2017-02-08 02:50:50.460622+01 | 1486518650.46062 | pgbench_accounts |       4028858368
 2017-02-08 02:50:50.460622+01 | 1486518650.46062 | pgbench_tellers  |           139264
 2017-02-08 02:50:50.460622+01 | 1486518650.46062 | pgbench_history  |                0
 2017-02-08 02:50:50.460622+01 | 1486518650.46062 | pgbench_branches |            16384

 2017-02-08 02:50:51.71928+01 | 1486518651.71928 | pgbench_accounts |       4028858368
 2017-02-08 02:50:51.71928+01 | 1486518651.71928 | pgbench_tellers  |           139264
 2017-02-08 02:50:51.71928+01 | 1486518651.71928 | pgbench_history  |                0
 2017-02-08 02:50:51.71928+01 | 1486518651.71928 | pgbench_branches |            16384

 2017-02-08 02:50:52.924622+01 | 1486518652.92462 | pgbench_accounts |       4028858368
 2017-02-08 02:50:52.924622+01 | 1486518652.92462 | pgbench_tellers  |           139264
 2017-02-08 02:50:52.924622+01 | 1486518652.92462 | pgbench_history  |                0
 2017-02-08 02:50:52.924622+01 | 1486518652.92462 | pgbench_branches |            16384

 2017-02-08 02:50:54.184848+01 | 1486518654.18485 | pgbench_accounts |       4028858368
 2017-02-08 02:50:54.184848+01 | 1486518654.18485 | pgbench_tellers  |           139264
 2017-02-08 02:50:54.184848+01 | 1486518654.18485 | pgbench_history  |                0
 2017-02-08 02:50:54.184848+01 | 1486518654.18485 | pgbench_branches |            16384

 2017-02-08 02:50:55.4277+01 | 1486518655.4277 | pgbench_accounts |       4028858368
 2017-02-08 02:50:55.4277+01 | 1486518655.4277 | pgbench_tellers  |           139264
 2017-02-08 02:50:55.4277+01 | 1486518655.4277 | pgbench_history  |                0
 2017-02-08 02:50:55.4277+01 | 1486518655.4277 | pgbench_branches |            16384

 2017-02-08 02:50:56.627816+01 | 1486518656.62782 | pgbench_accounts |       4028858368
 2017-02-08 02:50:56.627816+01 | 1486518656.62782 | pgbench_tellers  |           139264
 2017-02-08 02:50:56.627816+01 | 1486518656.62782 | pgbench_history  |                0
 2017-02-08 02:50:56.627816+01 | 1486518656.62782 | pgbench_branches |            16384

 2017-02-08 02:50:57.856984+01 | 1486518657.85698 | pgbench_accounts |       4028858368
 2017-02-08 02:50:57.856984+01 | 1486518657.85698 | pgbench_tellers  |           139264
 2017-02-08 02:50:57.856984+01 | 1486518657.85698 | pgbench_history  |                0
 2017-02-08 02:50:57.856984+01 | 1486518657.85698 | pgbench_branches |            16384

 2017-02-08 02:50:59.058177+01 | 1486518659.05818 | pgbench_accounts |       4028858368
 2017-02-08 02:50:59.058177+01 | 1486518659.05818 | pgbench_tellers  |           139264
 2017-02-08 02:50:59.058177+01 | 1486518659.05818 | pgbench_history  |                0
 2017-02-08 02:50:59.058177+01 | 1486518659.05818 | pgbench_branches |            16384

 2017-02-08 02:51:00.308957+01 | 1486518660.30896 | pgbench_accounts |       4028858368
 2017-02-08 02:51:00.308957+01 | 1486518660.30896 | pgbench_tellers  |           139264
 2017-02-08 02:51:00.308957+01 | 1486518660.30896 | pgbench_history  |                0
 2017-02-08 02:51:00.308957+01 | 1486518660.30896 | pgbench_branches |            16384

 2017-02-08 02:51:01.527031+01 | 1486518661.52703 | pgbench_accounts |       4028858368
 2017-02-08 02:51:01.527031+01 | 1486518661.52703 | pgbench_tellers  |           139264
 2017-02-08 02:51:01.527031+01 | 1486518661.52703 | pgbench_history  |                0
 2017-02-08 02:51:01.527031+01 | 1486518661.52703 | pgbench_branches |            16384

 2017-02-08 02:51:02.752652+01 | 1486518662.75265 | pgbench_accounts |       4028858368
 2017-02-08 02:51:02.752652+01 | 1486518662.75265 | pgbench_tellers  |           139264
 2017-02-08 02:51:02.752652+01 | 1486518662.75265 | pgbench_history  |                0
 2017-02-08 02:51:02.752652+01 | 1486518662.75265 | pgbench_branches |            16384

 2017-02-08 02:51:03.953965+01 | 1486518663.95396 | pgbench_accounts |       4028858368
 2017-02-08 02:51:03.953965+01 | 1486518663.95396 | pgbench_tellers  |           139264
 2017-02-08 02:51:03.953965+01 | 1486518663.95396 | pgbench_history  |                0
 2017-02-08 02:51:03.953965+01 | 1486518663.95396 | pgbench_branches |            16384

 2017-02-08 02:51:05.21796+01 | 1486518665.21796 | pgbench_accounts |       4028858368
 2017-02-08 02:51:05.21796+01 | 1486518665.21796 | pgbench_tellers  |           139264
 2017-02-08 02:51:05.21796+01 | 1486518665.21796 | pgbench_history  |                0
 2017-02-08 02:51:05.21796+01 | 1486518665.21796 | pgbench_branches |            16384

 2017-02-08 02:51:06.450863+01 | 1486518666.45086 | pgbench_accounts |       4028858368
 2017-02-08 02:51:06.450863+01 | 1486518666.45086 | pgbench_tellers  |           139264
 2017-02-08 02:51:06.450863+01 | 1486518666.45086 | pgbench_history  |                0
 2017-02-08 02:51:06.450863+01 | 1486518666.45086 | pgbench_branches |            16384

 2017-02-08 02:51:07.719535+01 | 1486518667.71954 | pgbench_accounts |       4028858368
 2017-02-08 02:51:07.719535+01 | 1486518667.71954 | pgbench_tellers  |           139264
 2017-02-08 02:51:07.719535+01 | 1486518667.71954 | pgbench_history  |                0
 2017-02-08 02:51:07.719535+01 | 1486518667.71954 | pgbench_branches |            16384

 2017-02-08 02:51:08.966565+01 | 1486518668.96656 | pgbench_accounts |       4028858368
 2017-02-08 02:51:08.966565+01 | 1486518668.96656 | pgbench_tellers  |           139264
 2017-02-08 02:51:08.966565+01 | 1486518668.96656 | pgbench_history  |                0
 2017-02-08 02:51:08.966565+01 | 1486518668.96656 | pgbench_branches |            16384

 2017-02-08 02:51:10.188226+01 | 1486518670.18823 | pgbench_accounts |       4028858368
 2017-02-08 02:51:10.188226+01 | 1486518670.18823 | pgbench_tellers  |           139264
 2017-02-08 02:51:10.188226+01 | 1486518670.18823 | pgbench_history  |                0
 2017-02-08 02:51:10.188226+01 | 1486518670.18823 | pgbench_branches |            16384

 2017-02-08 02:51:11.388422+01 | 1486518671.38842 | pgbench_accounts |       4028858368
 2017-02-08 02:51:11.388422+01 | 1486518671.38842 | pgbench_tellers  |           139264
 2017-02-08 02:51:11.388422+01 | 1486518671.38842 | pgbench_history  |                0
 2017-02-08 02:51:11.388422+01 | 1486518671.38842 | pgbench_branches |            16384

 2017-02-08 02:51:12.562794+01 | 1486518672.56279 | pgbench_accounts |       4028858368
 2017-02-08 02:51:12.562794+01 | 1486518672.56279 | pgbench_tellers  |           139264
 2017-02-08 02:51:12.562794+01 | 1486518672.56279 | pgbench_history  |                0
 2017-02-08 02:51:12.562794+01 | 1486518672.56279 | pgbench_branches |            16384

 2017-02-08 02:51:13.715356+01 | 1486518673.71536 | pgbench_accounts |       4028858368
 2017-02-08 02:51:13.715356+01 | 1486518673.71536 | pgbench_tellers  |           139264
 2017-02-08 02:51:13.715356+01 | 1486518673.71536 | pgbench_history  |                0
 2017-02-08 02:51:13.715356+01 | 1486518673.71536 | pgbench_branches |            16384

 2017-02-08 02:51:14.986629+01 | 1486518674.98663 | pgbench_accounts |       4028858368
 2017-02-08 02:51:14.986629+01 | 1486518674.98663 | pgbench_tellers  |           139264
 2017-02-08 02:51:14.986629+01 | 1486518674.98663 | pgbench_history  |                0
 2017-02-08 02:51:14.986629+01 | 1486518674.98663 | pgbench_branches |            16384

 2017-02-08 02:51:16.22465+01 | 1486518676.22465 | pgbench_accounts |       4028858368
 2017-02-08 02:51:16.22465+01 | 1486518676.22465 | pgbench_tellers  |           139264
 2017-02-08 02:51:16.22465+01 | 1486518676.22465 | pgbench_history  |                0
 2017-02-08 02:51:16.22465+01 | 1486518676.22465 | pgbench_branches |            16384

 2017-02-08 02:51:17.477973+01 | 1486518677.47797 | pgbench_accounts |       4028858368
 2017-02-08 02:51:17.477973+01 | 1486518677.47797 | pgbench_tellers  |           139264
 2017-02-08 02:51:17.477973+01 | 1486518677.47797 | pgbench_history  |                0
 2017-02-08 02:51:17.477973+01 | 1486518677.47797 | pgbench_branches |            16384

 2017-02-08 02:51:18.725555+01 | 1486518678.72555 | pgbench_accounts |       4028858368
 2017-02-08 02:51:18.725555+01 | 1486518678.72555 | pgbench_tellers  |           139264
 2017-02-08 02:51:18.725555+01 | 1486518678.72555 | pgbench_history  |                0
 2017-02-08 02:51:18.725555+01 | 1486518678.72555 | pgbench_branches |            16384

 2017-02-08 02:51:20.010628+01 | 1486518680.01063 | pgbench_accounts |       4028858368
 2017-02-08 02:51:20.010628+01 | 1486518680.01063 | pgbench_tellers  |           139264
 2017-02-08 02:51:20.010628+01 | 1486518680.01063 | pgbench_history  |                0
 2017-02-08 02:51:20.010628+01 | 1486518680.01063 | pgbench_branches |            16384

 2017-02-08 02:51:21.266449+01 | 1486518681.26645 | pgbench_accounts |       4028858368
 2017-02-08 02:51:21.266449+01 | 1486518681.26645 | pgbench_tellers  |           139264
 2017-02-08 02:51:21.266449+01 | 1486518681.26645 | pgbench_history  |                0
 2017-02-08 02:51:21.266449+01 | 1486518681.26645 | pgbench_branches |            16384

 2017-02-08 02:51:22.493723+01 | 1486518682.49372 | pgbench_accounts |       4028858368
 2017-02-08 02:51:22.493723+01 | 1486518682.49372 | pgbench_tellers  |           139264
 2017-02-08 02:51:22.493723+01 | 1486518682.49372 | pgbench_history  |                0
 2017-02-08 02:51:22.493723+01 | 1486518682.49372 | pgbench_branches |            16384

 2017-02-08 02:51:23.765806+01 | 1486518683.76581 | pgbench_accounts |       4028858368
 2017-02-08 02:51:23.765806+01 | 1486518683.76581 | pgbench_tellers  |           139264
 2017-02-08 02:51:23.765806+01 | 1486518683.76581 | pgbench_history  |                0
 2017-02-08 02:51:23.765806+01 | 1486518683.76581 | pgbench_branches |            16384

 2017-02-08 02:51:25.04693+01 | 1486518685.04693 | pgbench_accounts |       4028858368
 2017-02-08 02:51:25.04693+01 | 1486518685.04693 | pgbench_tellers  |           139264
 2017-02-08 02:51:25.04693+01 | 1486518685.04693 | pgbench_history  |                0
 2017-02-08 02:51:25.04693+01 | 1486518685.04693 | pgbench_branches |            16384

 2017-02-08 02:51:26.276426+01 | 1486518686.27643 | pgbench_accounts |       4028858368
 2017-02-08 02:51:26.276426+01 | 1486518686.27643 | pgbench_tellers  |           139264
 2017-02-08 02:51:26.276426+01 | 1486518686.27643 | pgbench_history  |                0
 2017-02-08 02:51:26.276426+01 | 1486518686.27643 | pgbench_branches |            16384

 2017-02-08 02:51:27.534028+01 | 1486518687.53403 | pgbench_accounts |       4028858368
 2017-02-08 02:51:27.534028+01 | 1486518687.53403 | pgbench_tellers  |           139264
 2017-02-08 02:51:27.534028+01 | 1486518687.53403 | pgbench_history  |                0
 2017-02-08 02:51:27.534028+01 | 1486518687.53403 | pgbench_branches |            16384

 2017-02-08 02:51:28.787568+01 | 1486518688.78757 | pgbench_accounts |       4028858368
 2017-02-08 02:51:28.787568+01 | 1486518688.78757 | pgbench_tellers  |           139264
 2017-02-08 02:51:28.787568+01 | 1486518688.78757 | pgbench_history  |                0
 2017-02-08 02:51:28.787568+01 | 1486518688.78757 | pgbench_branches |            16384

 2017-02-08 02:51:29.980435+01 | 1486518689.98043 | pgbench_accounts |       4028858368
 2017-02-08 02:51:29.980435+01 | 1486518689.98043 | pgbench_tellers  |           139264
 2017-02-08 02:51:29.980435+01 | 1486518689.98043 | pgbench_history  |                0
 2017-02-08 02:51:29.980435+01 | 1486518689.98043 | pgbench_branches |            16384

 2017-02-08 02:51:31.246396+01 | 1486518691.2464 | pgbench_accounts |       4028858368
 2017-02-08 02:51:31.246396+01 | 1486518691.2464 | pgbench_tellers  |           139264
 2017-02-08 02:51:31.246396+01 | 1486518691.2464 | pgbench_history  |                0
 2017-02-08 02:51:31.246396+01 | 1486518691.2464 | pgbench_branches |            16384

 2017-02-08 02:51:32.472294+01 | 1486518692.47229 | pgbench_accounts |       4028858368
 2017-02-08 02:51:32.472294+01 | 1486518692.47229 | pgbench_tellers  |           139264
 2017-02-08 02:51:32.472294+01 | 1486518692.47229 | pgbench_history  |                0
 2017-02-08 02:51:32.472294+01 | 1486518692.47229 | pgbench_branches |            16384

 2017-02-08 02:51:33.654452+01 | 1486518693.65445 | pgbench_accounts |       4028858368
 2017-02-08 02:51:33.654452+01 | 1486518693.65445 | pgbench_tellers  |           139264
 2017-02-08 02:51:33.654452+01 | 1486518693.65445 | pgbench_history  |                0
 2017-02-08 02:51:33.654452+01 | 1486518693.65445 | pgbench_branches |            16384

 2017-02-08 02:51:34.928932+01 | 1486518694.92893 | pgbench_accounts |       4028858368
 2017-02-08 02:51:34.928932+01 | 1486518694.92893 | pgbench_tellers  |           139264
 2017-02-08 02:51:34.928932+01 | 1486518694.92893 | pgbench_history  |                0
 2017-02-08 02:51:34.928932+01 | 1486518694.92893 | pgbench_branches |            16384

 2017-02-08 02:51:36.18806+01 | 1486518696.18806 | pgbench_accounts |       4028858368
 2017-02-08 02:51:36.18806+01 | 1486518696.18806 | pgbench_tellers  |           139264
 2017-02-08 02:51:36.18806+01 | 1486518696.18806 | pgbench_history  |                0
 2017-02-08 02:51:36.18806+01 | 1486518696.18806 | pgbench_branches |            16384

 2017-02-08 02:51:37.43685+01 | 1486518697.43685 | pgbench_accounts |       4028858368
 2017-02-08 02:51:37.43685+01 | 1486518697.43685 | pgbench_tellers  |           139264
 2017-02-08 02:51:37.43685+01 | 1486518697.43685 | pgbench_history  |                0
 2017-02-08 02:51:37.43685+01 | 1486518697.43685 | pgbench_branches |            16384

 2017-02-08 02:51:38.705486+01 | 1486518698.70549 | pgbench_accounts |       4028858368
 2017-02-08 02:51:38.705486+01 | 1486518698.70549 | pgbench_tellers  |           139264
 2017-02-08 02:51:38.705486+01 | 1486518698.70549 | pgbench_history  |                0
 2017-02-08 02:51:38.705486+01 | 1486518698.70549 | pgbench_branches |            16384

 2017-02-08 02:51:39.88461+01 | 1486518699.88461 | pgbench_accounts |       4028858368
 2017-02-08 02:51:39.88461+01 | 1486518699.88461 | pgbench_tellers  |           139264
 2017-02-08 02:51:39.88461+01 | 1486518699.88461 | pgbench_history  |                0
 2017-02-08 02:51:39.88461+01 | 1486518699.88461 | pgbench_branches |            16384

 2017-02-08 02:51:41.136831+01 | 1486518701.13683 | pgbench_accounts |       4028858368
 2017-02-08 02:51:41.136831+01 | 1486518701.13683 | pgbench_tellers  |           139264
 2017-02-08 02:51:41.136831+01 | 1486518701.13683 | pgbench_history  |                0
 2017-02-08 02:51:41.136831+01 | 1486518701.13683 | pgbench_branches |            16384

 2017-02-08 02:51:42.411678+01 | 1486518702.41168 | pgbench_accounts |       4028858368
 2017-02-08 02:51:42.411678+01 | 1486518702.41168 | pgbench_tellers  |           139264
 2017-02-08 02:51:42.411678+01 | 1486518702.41168 | pgbench_history  |                0
 2017-02-08 02:51:42.411678+01 | 1486518702.41168 | pgbench_branches |            16384

 2017-02-08 02:51:43.608042+01 | 1486518703.60804 | pgbench_accounts |       4028858368
 2017-02-08 02:51:43.608042+01 | 1486518703.60804 | pgbench_tellers  |           139264
 2017-02-08 02:51:43.608042+01 | 1486518703.60804 | pgbench_history  |                0
 2017-02-08 02:51:43.608042+01 | 1486518703.60804 | pgbench_branches |            16384

 2017-02-08 02:51:44.814788+01 | 1486518704.81479 | pgbench_accounts |       4028858368
 2017-02-08 02:51:44.814788+01 | 1486518704.81479 | pgbench_tellers  |           139264
 2017-02-08 02:51:44.814788+01 | 1486518704.81479 | pgbench_history  |                0
 2017-02-08 02:51:44.814788+01 | 1486518704.81479 | pgbench_branches |            16384

 2017-02-08 02:51:46.01978+01 | 1486518706.01978 | pgbench_accounts |       4028858368
 2017-02-08 02:51:46.01978+01 | 1486518706.01978 | pgbench_tellers  |           139264
 2017-02-08 02:51:46.01978+01 | 1486518706.01978 | pgbench_history  |                0
 2017-02-08 02:51:46.01978+01 | 1486518706.01978 | pgbench_branches |            16384

 2017-02-08 02:51:47.258812+01 | 1486518707.25881 | pgbench_accounts |       4028858368
 2017-02-08 02:51:47.258812+01 | 1486518707.25881 | pgbench_tellers  |           139264
 2017-02-08 02:51:47.258812+01 | 1486518707.25881 | pgbench_history  |                0
 2017-02-08 02:51:47.258812+01 | 1486518707.25881 | pgbench_branches |            16384

 2017-02-08 02:51:48.521317+01 | 1486518708.52132 | pgbench_accounts |       4028858368
 2017-02-08 02:51:48.521317+01 | 1486518708.52132 | pgbench_tellers  |           139264
 2017-02-08 02:51:48.521317+01 | 1486518708.52132 | pgbench_history  |                0
 2017-02-08 02:51:48.521317+01 | 1486518708.52132 | pgbench_branches |            16384

 2017-02-08 02:51:49.778827+01 | 1486518709.77883 | pgbench_accounts |       4028858368
 2017-02-08 02:51:49.778827+01 | 1486518709.77883 | pgbench_tellers  |           139264
 2017-02-08 02:51:49.778827+01 | 1486518709.77883 | pgbench_history  |                0
 2017-02-08 02:51:49.778827+01 | 1486518709.77883 | pgbench_branches |            16384

 2017-02-08 02:51:51.018284+01 | 1486518711.01828 | pgbench_accounts |       4028858368
 2017-02-08 02:51:51.018284+01 | 1486518711.01828 | pgbench_tellers  |           139264
 2017-02-08 02:51:51.018284+01 | 1486518711.01828 | pgbench_history  |                0
 2017-02-08 02:51:51.018284+01 | 1486518711.01828 | pgbench_branches |            16384

 2017-02-08 02:51:52.296856+01 | 1486518712.29686 | pgbench_accounts |       4028858368
 2017-02-08 02:51:52.296856+01 | 1486518712.29686 | pgbench_tellers  |           139264
 2017-02-08 02:51:52.296856+01 | 1486518712.29686 | pgbench_history  |                0
 2017-02-08 02:51:52.296856+01 | 1486518712.29686 | pgbench_branches |            16384

 2017-02-08 02:51:53.492652+01 | 1486518713.49265 | pgbench_accounts |       4028858368
 2017-02-08 02:51:53.492652+01 | 1486518713.49265 | pgbench_tellers  |           139264
 2017-02-08 02:51:53.492652+01 | 1486518713.49265 | pgbench_history  |                0
 2017-02-08 02:51:53.492652+01 | 1486518713.49265 | pgbench_branches |            16384

 2017-02-08 02:51:54.72042+01 | 1486518714.72042 | pgbench_accounts |       4028858368
 2017-02-08 02:51:54.72042+01 | 1486518714.72042 | pgbench_tellers  |           139264
 2017-02-08 02:51:54.72042+01 | 1486518714.72042 | pgbench_history  |                0
 2017-02-08 02:51:54.72042+01 | 1486518714.72042 | pgbench_branches |            16384

 2017-02-08 02:51:55.956959+01 | 1486518715.95696 | pgbench_accounts |       4028858368
 2017-02-08 02:51:55.956959+01 | 1486518715.95696 | pgbench_tellers  |           139264
 2017-02-08 02:51:55.956959+01 | 1486518715.95696 | pgbench_history  |                0
 2017-02-08 02:51:55.956959+01 | 1486518715.95696 | pgbench_branches |            16384

 2017-02-08 02:51:57.203259+01 | 1486518717.20326 | pgbench_accounts |       4028858368
 2017-02-08 02:51:57.203259+01 | 1486518717.20326 | pgbench_tellers  |           139264
 2017-02-08 02:51:57.203259+01 | 1486518717.20326 | pgbench_history  |                0
 2017-02-08 02:51:57.203259+01 | 1486518717.20326 | pgbench_branches |            16384

 2017-02-08 02:51:58.435665+01 | 1486518718.43566 | pgbench_accounts |       4028858368
 2017-02-08 02:51:58.435665+01 | 1486518718.43566 | pgbench_tellers  |           139264
 2017-02-08 02:51:58.435665+01 | 1486518718.43566 | pgbench_history  |                0
 2017-02-08 02:51:58.435665+01 | 1486518718.43566 | pgbench_branches |            16384

 2017-02-08 02:51:59.666117+01 | 1486518719.66612 | pgbench_accounts |       4028858368
 2017-02-08 02:51:59.666117+01 | 1486518719.66612 | pgbench_tellers  |           139264
 2017-02-08 02:51:59.666117+01 | 1486518719.66612 | pgbench_history  |                0
 2017-02-08 02:51:59.666117+01 | 1486518719.66612 | pgbench_branches |            16384

 2017-02-08 02:52:00.912891+01 | 1486518720.91289 | pgbench_accounts |       4028858368
 2017-02-08 02:52:00.912891+01 | 1486518720.91289 | pgbench_tellers  |           139264
 2017-02-08 02:52:00.912891+01 | 1486518720.91289 | pgbench_history  |                0
 2017-02-08 02:52:00.912891+01 | 1486518720.91289 | pgbench_branches |            16384

 2017-02-08 02:52:02.156781+01 | 1486518722.15678 | pgbench_accounts |       4028858368
 2017-02-08 02:52:02.156781+01 | 1486518722.15678 | pgbench_tellers  |           139264
 2017-02-08 02:52:02.156781+01 | 1486518722.15678 | pgbench_history  |                0
 2017-02-08 02:52:02.156781+01 | 1486518722.15678 | pgbench_branches |            16384

 2017-02-08 02:52:03.435643+01 | 1486518723.43564 | pgbench_accounts |       4028858368
 2017-02-08 02:52:03.435643+01 | 1486518723.43564 | pgbench_tellers  |           139264
 2017-02-08 02:52:03.435643+01 | 1486518723.43564 | pgbench_history  |                0
 2017-02-08 02:52:03.435643+01 | 1486518723.43564 | pgbench_branches |            16384

 2017-02-08 02:52:04.632064+01 | 1486518724.63206 | pgbench_accounts |       4028858368
 2017-02-08 02:52:04.632064+01 | 1486518724.63206 | pgbench_tellers  |           139264
 2017-02-08 02:52:04.632064+01 | 1486518724.63206 | pgbench_history  |                0
 2017-02-08 02:52:04.632064+01 | 1486518724.63206 | pgbench_branches |            16384

 2017-02-08 02:52:05.853582+01 | 1486518725.85358 | pgbench_accounts |       4028858368
 2017-02-08 02:52:05.853582+01 | 1486518725.85358 | pgbench_tellers  |           139264
 2017-02-08 02:52:05.853582+01 | 1486518725.85358 | pgbench_history  |                0
 2017-02-08 02:52:05.853582+01 | 1486518725.85358 | pgbench_branches |            16384

 2017-02-08 02:52:07.154756+01 | 1486518727.15476 | pgbench_accounts |       4028858368
 2017-02-08 02:52:07.154756+01 | 1486518727.15476 | pgbench_tellers  |           139264
 2017-02-08 02:52:07.154756+01 | 1486518727.15476 | pgbench_history  |                0
 2017-02-08 02:52:07.154756+01 | 1486518727.15476 | pgbench_branches |            16384

 2017-02-08 02:52:08.396346+01 | 1486518728.39635 | pgbench_accounts |       4028858368
 2017-02-08 02:52:08.396346+01 | 1486518728.39635 | pgbench_tellers  |           139264
 2017-02-08 02:52:08.396346+01 | 1486518728.39635 | pgbench_history  |                0
 2017-02-08 02:52:08.396346+01 | 1486518728.39635 | pgbench_branches |            16384

 2017-02-08 02:52:09.622639+01 | 1486518729.62264 | pgbench_accounts |       4028858368
 2017-02-08 02:52:09.622639+01 | 1486518729.62264 | pgbench_tellers  |           139264
 2017-02-08 02:52:09.622639+01 | 1486518729.62264 | pgbench_history  |                0
 2017-02-08 02:52:09.622639+01 | 1486518729.62264 | pgbench_branches |            16384

 2017-02-08 02:52:10.851568+01 | 1486518730.85157 | pgbench_accounts |       4028858368
 2017-02-08 02:52:10.851568+01 | 1486518730.85157 | pgbench_tellers  |           139264
 2017-02-08 02:52:10.851568+01 | 1486518730.85157 | pgbench_history  |                0
 2017-02-08 02:52:10.851568+01 | 1486518730.85157 | pgbench_branches |            16384

 2017-02-08 02:52:12.114883+01 | 1486518732.11488 | pgbench_accounts |       4028858368
 2017-02-08 02:52:12.114883+01 | 1486518732.11488 | pgbench_tellers  |           139264
 2017-02-08 02:52:12.114883+01 | 1486518732.11488 | pgbench_history  |                0
 2017-02-08 02:52:12.114883+01 | 1486518732.11488 | pgbench_branches |            16384

 2017-02-08 02:52:13.305117+01 | 1486518733.30512 | pgbench_accounts |       4028858368
 2017-02-08 02:52:13.305117+01 | 1486518733.30512 | pgbench_tellers  |           139264
 2017-02-08 02:52:13.305117+01 | 1486518733.30512 | pgbench_history  |                0
 2017-02-08 02:52:13.305117+01 | 1486518733.30512 | pgbench_branches |            16384

 2017-02-08 02:52:14.545398+01 | 1486518734.5454 | pgbench_accounts |       4028858368
 2017-02-08 02:52:14.545398+01 | 1486518734.5454 | pgbench_tellers  |           139264
 2017-02-08 02:52:14.545398+01 | 1486518734.5454 | pgbench_history  |                0
 2017-02-08 02:52:14.545398+01 | 1486518734.5454 | pgbench_branches |            16384

 2017-02-08 02:52:15.850701+01 | 1486518735.8507 | pgbench_accounts |       4028858368
 2017-02-08 02:52:15.850701+01 | 1486518735.8507 | pgbench_tellers  |           139264
 2017-02-08 02:52:15.850701+01 | 1486518735.8507 | pgbench_history  |                0
 2017-02-08 02:52:15.850701+01 | 1486518735.8507 | pgbench_branches |            16384

 2017-02-08 02:52:17.065278+01 | 1486518737.06528 | pgbench_accounts |       4028858368
 2017-02-08 02:52:17.065278+01 | 1486518737.06528 | pgbench_tellers  |           139264
 2017-02-08 02:52:17.065278+01 | 1486518737.06528 | pgbench_history  |                0
 2017-02-08 02:52:17.065278+01 | 1486518737.06528 | pgbench_branches |            16384

 2017-02-08 02:52:18.279624+01 | 1486518738.27962 | pgbench_accounts |       4028858368
 2017-02-08 02:52:18.279624+01 | 1486518738.27962 | pgbench_tellers  |           139264
 2017-02-08 02:52:18.279624+01 | 1486518738.27962 | pgbench_history  |                0
 2017-02-08 02:52:18.279624+01 | 1486518738.27962 | pgbench_branches |            16384

 2017-02-08 02:52:19.424454+01 | 1486518739.42445 | pgbench_accounts |       4028858368
 2017-02-08 02:52:19.424454+01 | 1486518739.42445 | pgbench_tellers  |           139264
 2017-02-08 02:52:19.424454+01 | 1486518739.42445 | pgbench_history  |                0
 2017-02-08 02:52:19.424454+01 | 1486518739.42445 | pgbench_branches |            16384

 2017-02-08 02:52:20.638463+01 | 1486518740.63846 | pgbench_accounts |       4028858368
 2017-02-08 02:52:20.638463+01 | 1486518740.63846 | pgbench_tellers  |           139264
 2017-02-08 02:52:20.638463+01 | 1486518740.63846 | pgbench_history  |                0
 2017-02-08 02:52:20.638463+01 | 1486518740.63846 | pgbench_branches |            16384

 2017-02-08 02:52:21.790812+01 | 1486518741.79081 | pgbench_accounts |       4028858368
 2017-02-08 02:52:21.790812+01 | 1486518741.79081 | pgbench_tellers  |           139264
 2017-02-08 02:52:21.790812+01 | 1486518741.79081 | pgbench_history  |                0
 2017-02-08 02:52:21.790812+01 | 1486518741.79081 | pgbench_branches |            16384

 2017-02-08 02:52:23.035415+01 | 1486518743.03541 | pgbench_accounts |       4028858368
 2017-02-08 02:52:23.035415+01 | 1486518743.03541 | pgbench_tellers  |           139264
 2017-02-08 02:52:23.035415+01 | 1486518743.03541 | pgbench_history  |                0
 2017-02-08 02:52:23.035415+01 | 1486518743.03541 | pgbench_branches |            16384

 2017-02-08 02:52:24.311637+01 | 1486518744.31164 | pgbench_accounts |       4028858368
 2017-02-08 02:52:24.311637+01 | 1486518744.31164 | pgbench_tellers  |           139264
 2017-02-08 02:52:24.311637+01 | 1486518744.31164 | pgbench_history  |                0
 2017-02-08 02:52:24.311637+01 | 1486518744.31164 | pgbench_branches |            16384

 2017-02-08 02:52:25.562884+01 | 1486518745.56288 | pgbench_accounts |       4028858368
 2017-02-08 02:52:25.562884+01 | 1486518745.56288 | pgbench_tellers  |           139264
 2017-02-08 02:52:25.562884+01 | 1486518745.56288 | pgbench_history  |                0
 2017-02-08 02:52:25.562884+01 | 1486518745.56288 | pgbench_branches |            16384

 2017-02-08 02:52:26.777893+01 | 1486518746.77789 | pgbench_accounts |       4028858368
 2017-02-08 02:52:26.777893+01 | 1486518746.77789 | pgbench_tellers  |           139264
 2017-02-08 02:52:26.777893+01 | 1486518746.77789 | pgbench_history  |                0
 2017-02-08 02:52:26.777893+01 | 1486518746.77789 | pgbench_branches |            16384

 2017-02-08 02:52:28.028398+01 | 1486518748.0284 | pgbench_accounts |       4028858368
 2017-02-08 02:52:28.028398+01 | 1486518748.0284 | pgbench_tellers  |           139264
 2017-02-08 02:52:28.028398+01 | 1486518748.0284 | pgbench_history  |                0
 2017-02-08 02:52:28.028398+01 | 1486518748.0284 | pgbench_branches |            16384

 2017-02-08 02:52:29.286982+01 | 1486518749.28698 | pgbench_accounts |       4028858368
 2017-02-08 02:52:29.286982+01 | 1486518749.28698 | pgbench_tellers  |           139264
 2017-02-08 02:52:29.286982+01 | 1486518749.28698 | pgbench_history  |                0
 2017-02-08 02:52:29.286982+01 | 1486518749.28698 | pgbench_branches |            16384

 2017-02-08 02:52:30.499102+01 | 1486518750.4991 | pgbench_accounts |       4028858368
 2017-02-08 02:52:30.499102+01 | 1486518750.4991 | pgbench_tellers  |           139264
 2017-02-08 02:52:30.499102+01 | 1486518750.4991 | pgbench_history  |                0
 2017-02-08 02:52:30.499102+01 | 1486518750.4991 | pgbench_branches |            16384

 2017-02-08 02:52:31.740475+01 | 1486518751.74047 | pgbench_accounts |       4028858368
 2017-02-08 02:52:31.740475+01 | 1486518751.74047 | pgbench_tellers  |           139264
 2017-02-08 02:52:31.740475+01 | 1486518751.74047 | pgbench_history  |                0
 2017-02-08 02:52:31.740475+01 | 1486518751.74047 | pgbench_branches |            16384

 2017-02-08 02:52:32.995141+01 | 1486518752.99514 | pgbench_accounts |       4028858368
 2017-02-08 02:52:32.995141+01 | 1486518752.99514 | pgbench_tellers  |           139264
 2017-02-08 02:52:32.995141+01 | 1486518752.99514 | pgbench_history  |                0
 2017-02-08 02:52:32.995141+01 | 1486518752.99514 | pgbench_branches |            16384

 2017-02-08 02:52:34.268585+01 | 1486518754.26858 | pgbench_accounts |       4028858368
 2017-02-08 02:52:34.268585+01 | 1486518754.26858 | pgbench_tellers  |           139264
 2017-02-08 02:52:34.268585+01 | 1486518754.26858 | pgbench_history  |                0
 2017-02-08 02:52:34.268585+01 | 1486518754.26858 | pgbench_branches |            16384

 2017-02-08 02:52:35.472301+01 | 1486518755.4723 | pgbench_accounts |       4028858368
 2017-02-08 02:52:35.472301+01 | 1486518755.4723 | pgbench_tellers  |           139264
 2017-02-08 02:52:35.472301+01 | 1486518755.4723 | pgbench_history  |                0
 2017-02-08 02:52:35.472301+01 | 1486518755.4723 | pgbench_branches |            16384

 2017-02-08 02:52:36.684509+01 | 1486518756.68451 | pgbench_accounts |       4028858368
 2017-02-08 02:52:36.684509+01 | 1486518756.68451 | pgbench_tellers  |           139264
 2017-02-08 02:52:36.684509+01 | 1486518756.68451 | pgbench_history  |                0
 2017-02-08 02:52:36.684509+01 | 1486518756.68451 | pgbench_branches |            16384

 2017-02-08 02:52:37.870564+01 | 1486518757.87056 | pgbench_accounts |       4028858368
 2017-02-08 02:52:37.870564+01 | 1486518757.87056 | pgbench_tellers  |           139264
 2017-02-08 02:52:37.870564+01 | 1486518757.87056 | pgbench_history  |                0
 2017-02-08 02:52:37.870564+01 | 1486518757.87056 | pgbench_branches |            16384

 2017-02-08 02:52:39.099191+01 | 1486518759.09919 | pgbench_accounts |       4028858368
 2017-02-08 02:52:39.099191+01 | 1486518759.09919 | pgbench_tellers  |           139264
 2017-02-08 02:52:39.099191+01 | 1486518759.09919 | pgbench_history  |                0
 2017-02-08 02:52:39.099191+01 | 1486518759.09919 | pgbench_branches |            16384

 2017-02-08 02:52:40.399802+01 | 1486518760.3998 | pgbench_accounts |       4028858368
 2017-02-08 02:52:40.399802+01 | 1486518760.3998 | pgbench_tellers  |           139264
 2017-02-08 02:52:40.399802+01 | 1486518760.3998 | pgbench_history  |                0
 2017-02-08 02:52:40.399802+01 | 1486518760.3998 | pgbench_branches |            16384

 2017-02-08 02:52:41.61139+01 | 1486518761.61139 | pgbench_accounts |       4028858368
 2017-02-08 02:52:41.61139+01 | 1486518761.61139 | pgbench_tellers  |           139264
 2017-02-08 02:52:41.61139+01 | 1486518761.61139 | pgbench_history  |                0
 2017-02-08 02:52:41.61139+01 | 1486518761.61139 | pgbench_branches |            16384

 2017-02-08 02:52:42.868134+01 | 1486518762.86813 | pgbench_accounts |       4028858368
 2017-02-08 02:52:42.868134+01 | 1486518762.86813 | pgbench_tellers  |           139264
 2017-02-08 02:52:42.868134+01 | 1486518762.86813 | pgbench_history  |                0
 2017-02-08 02:52:42.868134+01 | 1486518762.86813 | pgbench_branches |            16384

 2017-02-08 02:52:44.125942+01 | 1486518764.12594 | pgbench_accounts |       4028858368
 2017-02-08 02:52:44.125942+01 | 1486518764.12594 | pgbench_tellers  |           139264
 2017-02-08 02:52:44.125942+01 | 1486518764.12594 | pgbench_history  |                0
 2017-02-08 02:52:44.125942+01 | 1486518764.12594 | pgbench_branches |            16384

 2017-02-08 02:52:45.368203+01 | 1486518765.3682 | pgbench_accounts |       4028858368
 2017-02-08 02:52:45.368203+01 | 1486518765.3682 | pgbench_tellers  |           139264
 2017-02-08 02:52:45.368203+01 | 1486518765.3682 | pgbench_history  |                0
 2017-02-08 02:52:45.368203+01 | 1486518765.3682 | pgbench_branches |            16384

 2017-02-08 02:52:46.621904+01 | 1486518766.6219 | pgbench_accounts |       4028858368
 2017-02-08 02:52:46.621904+01 | 1486518766.6219 | pgbench_tellers  |           139264
 2017-02-08 02:52:46.621904+01 | 1486518766.6219 | pgbench_history  |                0
 2017-02-08 02:52:46.621904+01 | 1486518766.6219 | pgbench_branches |            16384

 2017-02-08 02:52:47.878343+01 | 1486518767.87834 | pgbench_accounts |       4028858368
 2017-02-08 02:52:47.878343+01 | 1486518767.87834 | pgbench_tellers  |           139264
 2017-02-08 02:52:47.878343+01 | 1486518767.87834 | pgbench_history  |                0
 2017-02-08 02:52:47.878343+01 | 1486518767.87834 | pgbench_branches |            16384

 2017-02-08 02:52:49.040601+01 | 1486518769.0406 | pgbench_accounts |       4028858368
 2017-02-08 02:52:49.040601+01 | 1486518769.0406 | pgbench_tellers  |           139264
 2017-02-08 02:52:49.040601+01 | 1486518769.0406 | pgbench_history  |                0
 2017-02-08 02:52:49.040601+01 | 1486518769.0406 | pgbench_branches |            16384

 2017-02-08 02:52:50.2609+01 | 1486518770.2609 | pgbench_accounts |       4028858368
 2017-02-08 02:52:50.2609+01 | 1486518770.2609 | pgbench_tellers  |           139264
 2017-02-08 02:52:50.2609+01 | 1486518770.2609 | pgbench_history  |                0
 2017-02-08 02:52:50.2609+01 | 1486518770.2609 | pgbench_branches |            16384

 2017-02-08 02:52:51.46946+01 | 1486518771.46946 | pgbench_accounts |       4028858368
 2017-02-08 02:52:51.46946+01 | 1486518771.46946 | pgbench_tellers  |           139264
 2017-02-08 02:52:51.46946+01 | 1486518771.46946 | pgbench_history  |                0
 2017-02-08 02:52:51.46946+01 | 1486518771.46946 | pgbench_branches |            16384

 2017-02-08 02:52:52.684301+01 | 1486518772.6843 | pgbench_accounts |       4028858368
 2017-02-08 02:52:52.684301+01 | 1486518772.6843 | pgbench_tellers  |           139264
 2017-02-08 02:52:52.684301+01 | 1486518772.6843 | pgbench_history  |                0
 2017-02-08 02:52:52.684301+01 | 1486518772.6843 | pgbench_branches |            16384

 2017-02-08 02:52:53.923393+01 | 1486518773.92339 | pgbench_accounts |       4028858368
 2017-02-08 02:52:53.923393+01 | 1486518773.92339 | pgbench_tellers  |           139264
 2017-02-08 02:52:53.923393+01 | 1486518773.92339 | pgbench_history  |                0
 2017-02-08 02:52:53.923393+01 | 1486518773.92339 | pgbench_branches |            16384

 2017-02-08 02:52:55.186424+01 | 1486518775.18642 | pgbench_accounts |       4028858368
 2017-02-08 02:52:55.186424+01 | 1486518775.18642 | pgbench_tellers  |           139264
 2017-02-08 02:52:55.186424+01 | 1486518775.18642 | pgbench_history  |                0
 2017-02-08 02:52:55.186424+01 | 1486518775.18642 | pgbench_branches |            16384

 2017-02-08 02:52:56.484786+01 | 1486518776.48479 | pgbench_accounts |       4028858368
 2017-02-08 02:52:56.484786+01 | 1486518776.48479 | pgbench_tellers  |           139264
 2017-02-08 02:52:56.484786+01 | 1486518776.48479 | pgbench_history  |                0
 2017-02-08 02:52:56.484786+01 | 1486518776.48479 | pgbench_branches |            16384

 2017-02-08 02:52:57.71347+01 | 1486518777.71347 | pgbench_accounts |       4028858368
 2017-02-08 02:52:57.71347+01 | 1486518777.71347 | pgbench_tellers  |           139264
 2017-02-08 02:52:57.71347+01 | 1486518777.71347 | pgbench_history  |                0
 2017-02-08 02:52:57.71347+01 | 1486518777.71347 | pgbench_branches |            16384

 2017-02-08 02:52:58.968871+01 | 1486518778.96887 | pgbench_accounts |       4028858368
 2017-02-08 02:52:58.968871+01 | 1486518778.96887 | pgbench_tellers  |           139264
 2017-02-08 02:52:58.968871+01 | 1486518778.96887 | pgbench_history  |                0
 2017-02-08 02:52:58.968871+01 | 1486518778.96887 | pgbench_branches |            16384

 2017-02-08 02:53:00.153849+01 | 1486518780.15385 | pgbench_accounts |       4028858368
 2017-02-08 02:53:00.153849+01 | 1486518780.15385 | pgbench_tellers  |           139264
 2017-02-08 02:53:00.153849+01 | 1486518780.15385 | pgbench_history  |                0
 2017-02-08 02:53:00.153849+01 | 1486518780.15385 | pgbench_branches |            16384

 2017-02-08 02:53:01.421662+01 | 1486518781.42166 | pgbench_accounts |       4028858368
 2017-02-08 02:53:01.421662+01 | 1486518781.42166 | pgbench_tellers  |           139264
 2017-02-08 02:53:01.421662+01 | 1486518781.42166 | pgbench_history  |                0
 2017-02-08 02:53:01.421662+01 | 1486518781.42166 | pgbench_branches |            16384

 2017-02-08 02:53:02.696437+01 | 1486518782.69644 | pgbench_accounts |       4028858368
 2017-02-08 02:53:02.696437+01 | 1486518782.69644 | pgbench_tellers  |           139264
 2017-02-08 02:53:02.696437+01 | 1486518782.69644 | pgbench_history  |                0
 2017-02-08 02:53:02.696437+01 | 1486518782.69644 | pgbench_branches |            16384

 2017-02-08 02:53:03.990347+01 | 1486518783.99035 | pgbench_accounts |       4028858368
 2017-02-08 02:53:03.990347+01 | 1486518783.99035 | pgbench_tellers  |           139264
 2017-02-08 02:53:03.990347+01 | 1486518783.99035 | pgbench_history  |                0
 2017-02-08 02:53:03.990347+01 | 1486518783.99035 | pgbench_branches |            16384

 2017-02-08 02:53:05.182834+01 | 1486518785.18283 | pgbench_accounts |       4028858368
 2017-02-08 02:53:05.182834+01 | 1486518785.18283 | pgbench_tellers  |           139264
 2017-02-08 02:53:05.182834+01 | 1486518785.18283 | pgbench_history  |                0
 2017-02-08 02:53:05.182834+01 | 1486518785.18283 | pgbench_branches |            16384

 2017-02-08 02:53:06.375952+01 | 1486518786.37595 | pgbench_accounts |       4028858368
 2017-02-08 02:53:06.375952+01 | 1486518786.37595 | pgbench_tellers  |           139264
 2017-02-08 02:53:06.375952+01 | 1486518786.37595 | pgbench_history  |                0
 2017-02-08 02:53:06.375952+01 | 1486518786.37595 | pgbench_branches |            16384

 2017-02-08 02:53:07.660972+01 | 1486518787.66097 | pgbench_accounts |       4028858368
 2017-02-08 02:53:07.660972+01 | 1486518787.66097 | pgbench_tellers  |           139264
 2017-02-08 02:53:07.660972+01 | 1486518787.66097 | pgbench_history  |                0
 2017-02-08 02:53:07.660972+01 | 1486518787.66097 | pgbench_branches |            16384

 2017-02-08 02:53:08.857704+01 | 1486518788.8577 | pgbench_accounts |       4028858368
 2017-02-08 02:53:08.857704+01 | 1486518788.8577 | pgbench_tellers  |           139264
 2017-02-08 02:53:08.857704+01 | 1486518788.8577 | pgbench_history  |                0
 2017-02-08 02:53:08.857704+01 | 1486518788.8577 | pgbench_branches |            16384

 2017-02-08 02:53:10.093809+01 | 1486518790.09381 | pgbench_accounts |       4028858368
 2017-02-08 02:53:10.093809+01 | 1486518790.09381 | pgbench_tellers  |           139264
 2017-02-08 02:53:10.093809+01 | 1486518790.09381 | pgbench_history  |                0
 2017-02-08 02:53:10.093809+01 | 1486518790.09381 | pgbench_branches |            16384

 2017-02-08 02:53:11.300199+01 | 1486518791.3002 | pgbench_accounts |       4028858368
 2017-02-08 02:53:11.300199+01 | 1486518791.3002 | pgbench_tellers  |           139264
 2017-02-08 02:53:11.300199+01 | 1486518791.3002 | pgbench_history  |                0
 2017-02-08 02:53:11.300199+01 | 1486518791.3002 | pgbench_branches |            16384

 2017-02-08 02:53:12.453217+01 | 1486518792.45322 | pgbench_accounts |       4028858368
 2017-02-08 02:53:12.453217+01 | 1486518792.45322 | pgbench_tellers  |           139264
 2017-02-08 02:53:12.453217+01 | 1486518792.45322 | pgbench_history  |                0
 2017-02-08 02:53:12.453217+01 | 1486518792.45322 | pgbench_branches |            16384

 2017-02-08 02:53:13.69053+01 | 1486518793.69053 | pgbench_accounts |       4028858368
 2017-02-08 02:53:13.69053+01 | 1486518793.69053 | pgbench_tellers  |           139264
 2017-02-08 02:53:13.69053+01 | 1486518793.69053 | pgbench_history  |                0
 2017-02-08 02:53:13.69053+01 | 1486518793.69053 | pgbench_branches |            16384

 2017-02-08 02:53:14.9795+01 | 1486518794.9795 | pgbench_accounts |       4028858368
 2017-02-08 02:53:14.9795+01 | 1486518794.9795 | pgbench_tellers  |           139264
 2017-02-08 02:53:14.9795+01 | 1486518794.9795 | pgbench_history  |                0
 2017-02-08 02:53:14.9795+01 | 1486518794.9795 | pgbench_branches |            16384

 2017-02-08 02:53:16.21265+01 | 1486518796.21265 | pgbench_accounts |       4028858368
 2017-02-08 02:53:16.21265+01 | 1486518796.21265 | pgbench_tellers  |           139264
 2017-02-08 02:53:16.21265+01 | 1486518796.21265 | pgbench_history  |                0
 2017-02-08 02:53:16.21265+01 | 1486518796.21265 | pgbench_branches |            16384

 2017-02-08 02:53:17.419938+01 | 1486518797.41994 | pgbench_accounts |       4028858368
 2017-02-08 02:53:17.419938+01 | 1486518797.41994 | pgbench_tellers  |           139264
 2017-02-08 02:53:17.419938+01 | 1486518797.41994 | pgbench_history  |                0
 2017-02-08 02:53:17.419938+01 | 1486518797.41994 | pgbench_branches |            16384

 2017-02-08 02:53:18.640432+01 | 1486518798.64043 | pgbench_accounts |       4028858368
 2017-02-08 02:53:18.640432+01 | 1486518798.64043 | pgbench_tellers  |           139264
 2017-02-08 02:53:18.640432+01 | 1486518798.64043 | pgbench_history  |                0
 2017-02-08 02:53:18.640432+01 | 1486518798.64043 | pgbench_branches |            16384

 2017-02-08 02:53:19.84983+01 | 1486518799.84983 | pgbench_accounts |       4028858368
 2017-02-08 02:53:19.84983+01 | 1486518799.84983 | pgbench_tellers  |           139264
 2017-02-08 02:53:19.84983+01 | 1486518799.84983 | pgbench_history  |                0
 2017-02-08 02:53:19.84983+01 | 1486518799.84983 | pgbench_branches |            16384

 2017-02-08 02:53:21.092566+01 | 1486518801.09257 | pgbench_accounts |       4028858368
 2017-02-08 02:53:21.092566+01 | 1486518801.09257 | pgbench_tellers  |           139264
 2017-02-08 02:53:21.092566+01 | 1486518801.09257 | pgbench_history  |                0
 2017-02-08 02:53:21.092566+01 | 1486518801.09257 | pgbench_branches |            16384

 2017-02-08 02:53:22.3101+01 | 1486518802.3101 | pgbench_accounts |       4028858368
 2017-02-08 02:53:22.3101+01 | 1486518802.3101 | pgbench_tellers  |           139264
 2017-02-08 02:53:22.3101+01 | 1486518802.3101 | pgbench_history  |                0
 2017-02-08 02:53:22.3101+01 | 1486518802.3101 | pgbench_branches |            16384

 2017-02-08 02:53:23.521004+01 | 1486518803.521 | pgbench_accounts |       4028858368
 2017-02-08 02:53:23.521004+01 | 1486518803.521 | pgbench_tellers  |           139264
 2017-02-08 02:53:23.521004+01 | 1486518803.521 | pgbench_history  |                0
 2017-02-08 02:53:23.521004+01 | 1486518803.521 | pgbench_branches |            16384

 2017-02-08 02:53:24.737382+01 | 1486518804.73738 | pgbench_accounts |       4028858368
 2017-02-08 02:53:24.737382+01 | 1486518804.73738 | pgbench_tellers  |           139264
 2017-02-08 02:53:24.737382+01 | 1486518804.73738 | pgbench_history  |                0
 2017-02-08 02:53:24.737382+01 | 1486518804.73738 | pgbench_branches |            16384

 2017-02-08 02:53:25.949868+01 | 1486518805.94987 | pgbench_accounts |       4028858368
 2017-02-08 02:53:25.949868+01 | 1486518805.94987 | pgbench_tellers  |           139264
 2017-02-08 02:53:25.949868+01 | 1486518805.94987 | pgbench_history  |                0
 2017-02-08 02:53:25.949868+01 | 1486518805.94987 | pgbench_branches |            16384

 2017-02-08 02:53:27.192966+01 | 1486518807.19297 | pgbench_accounts |       4028858368
 2017-02-08 02:53:27.192966+01 | 1486518807.19297 | pgbench_tellers  |           139264
 2017-02-08 02:53:27.192966+01 | 1486518807.19297 | pgbench_history  |                0
 2017-02-08 02:53:27.192966+01 | 1486518807.19297 | pgbench_branches |            16384

 2017-02-08 02:53:28.413813+01 | 1486518808.41381 | pgbench_accounts |       4028858368
 2017-02-08 02:53:28.413813+01 | 1486518808.41381 | pgbench_tellers  |           139264
 2017-02-08 02:53:28.413813+01 | 1486518808.41381 | pgbench_history  |                0
 2017-02-08 02:53:28.413813+01 | 1486518808.41381 | pgbench_branches |            16384

 2017-02-08 02:53:29.601283+01 | 1486518809.60128 | pgbench_accounts |       4028858368
 2017-02-08 02:53:29.601283+01 | 1486518809.60128 | pgbench_tellers  |           139264
 2017-02-08 02:53:29.601283+01 | 1486518809.60128 | pgbench_history  |                0
 2017-02-08 02:53:29.601283+01 | 1486518809.60128 | pgbench_branches |            16384

 2017-02-08 02:53:30.860419+01 | 1486518810.86042 | pgbench_accounts |       4028858368
 2017-02-08 02:53:30.860419+01 | 1486518810.86042 | pgbench_tellers  |           139264
 2017-02-08 02:53:30.860419+01 | 1486518810.86042 | pgbench_history  |                0
 2017-02-08 02:53:30.860419+01 | 1486518810.86042 | pgbench_branches |            16384

 2017-02-08 02:53:32.11942+01 | 1486518812.11942 | pgbench_accounts |       4028858368
 2017-02-08 02:53:32.11942+01 | 1486518812.11942 | pgbench_tellers  |           139264
 2017-02-08 02:53:32.11942+01 | 1486518812.11942 | pgbench_history  |                0
 2017-02-08 02:53:32.11942+01 | 1486518812.11942 | pgbench_branches |            16384

 2017-02-08 02:53:33.371821+01 | 1486518813.37182 | pgbench_accounts |       4028858368
 2017-02-08 02:53:33.371821+01 | 1486518813.37182 | pgbench_tellers  |           139264
 2017-02-08 02:53:33.371821+01 | 1486518813.37182 | pgbench_history  |                0
 2017-02-08 02:53:33.371821+01 | 1486518813.37182 | pgbench_branches |            16384

 2017-02-08 02:53:34.655286+01 | 1486518814.65529 | pgbench_accounts |       4028858368
 2017-02-08 02:53:34.655286+01 | 1486518814.65529 | pgbench_tellers  |           139264
 2017-02-08 02:53:34.655286+01 | 1486518814.65529 | pgbench_history  |                0
 2017-02-08 02:53:34.655286+01 | 1486518814.65529 | pgbench_branches |            16384

 2017-02-08 02:53:35.943055+01 | 1486518815.94305 | pgbench_accounts |       4028858368
 2017-02-08 02:53:35.943055+01 | 1486518815.94305 | pgbench_tellers  |           139264
 2017-02-08 02:53:35.943055+01 | 1486518815.94305 | pgbench_history  |                0
 2017-02-08 02:53:35.943055+01 | 1486518815.94305 | pgbench_branches |            16384

 2017-02-08 02:53:37.161381+01 | 1486518817.16138 | pgbench_accounts |       4028858368
 2017-02-08 02:53:37.161381+01 | 1486518817.16138 | pgbench_tellers  |           139264
 2017-02-08 02:53:37.161381+01 | 1486518817.16138 | pgbench_history  |                0
 2017-02-08 02:53:37.161381+01 | 1486518817.16138 | pgbench_branches |            16384

 2017-02-08 02:53:38.477223+01 | 1486518818.47722 | pgbench_accounts |       4028858368
 2017-02-08 02:53:38.477223+01 | 1486518818.47722 | pgbench_tellers  |           139264
 2017-02-08 02:53:38.477223+01 | 1486518818.47722 | pgbench_history  |                0
 2017-02-08 02:53:38.477223+01 | 1486518818.47722 | pgbench_branches |            16384

 2017-02-08 02:53:39.67456+01 | 1486518819.67456 | pgbench_accounts |       4028858368
 2017-02-08 02:53:39.67456+01 | 1486518819.67456 | pgbench_tellers  |           139264
 2017-02-08 02:53:39.67456+01 | 1486518819.67456 | pgbench_history  |                0
 2017-02-08 02:53:39.67456+01 | 1486518819.67456 | pgbench_branches |            16384

 2017-02-08 02:53:40.891549+01 | 1486518820.89155 | pgbench_accounts |       4028858368
 2017-02-08 02:53:40.891549+01 | 1486518820.89155 | pgbench_tellers  |           139264
 2017-02-08 02:53:40.891549+01 | 1486518820.89155 | pgbench_history  |                0
 2017-02-08 02:53:40.891549+01 | 1486518820.89155 | pgbench_branches |            16384

 2017-02-08 02:53:42.179556+01 | 1486518822.17956 | pgbench_accounts |       4028858368
 2017-02-08 02:53:42.179556+01 | 1486518822.17956 | pgbench_tellers  |           139264
 2017-02-08 02:53:42.179556+01 | 1486518822.17956 | pgbench_history  |                0
 2017-02-08 02:53:42.179556+01 | 1486518822.17956 | pgbench_branches |            16384

 2017-02-08 02:53:43.44721+01 | 1486518823.44721 | pgbench_accounts |       4028858368
 2017-02-08 02:53:43.44721+01 | 1486518823.44721 | pgbench_tellers  |           139264
 2017-02-08 02:53:43.44721+01 | 1486518823.44721 | pgbench_history  |                0
 2017-02-08 02:53:43.44721+01 | 1486518823.44721 | pgbench_branches |            16384

 2017-02-08 02:53:44.669815+01 | 1486518824.66982 | pgbench_accounts |       4028858368
 2017-02-08 02:53:44.669815+01 | 1486518824.66982 | pgbench_tellers  |           139264
 2017-02-08 02:53:44.669815+01 | 1486518824.66982 | pgbench_history  |                0
 2017-02-08 02:53:44.669815+01 | 1486518824.66982 | pgbench_branches |            16384

 2017-02-08 02:53:45.879979+01 | 1486518825.87998 | pgbench_accounts |       4028858368
 2017-02-08 02:53:45.879979+01 | 1486518825.87998 | pgbench_tellers  |           139264
 2017-02-08 02:53:45.879979+01 | 1486518825.87998 | pgbench_history  |                0
 2017-02-08 02:53:45.879979+01 | 1486518825.87998 | pgbench_branches |            16384

 2017-02-08 02:53:47.084909+01 | 1486518827.08491 | pgbench_accounts |       4028858368
 2017-02-08 02:53:47.084909+01 | 1486518827.08491 | pgbench_tellers  |           139264
 2017-02-08 02:53:47.084909+01 | 1486518827.08491 | pgbench_history  |                0
 2017-02-08 02:53:47.084909+01 | 1486518827.08491 | pgbench_branches |            16384

 2017-02-08 02:53:48.359904+01 | 1486518828.3599 | pgbench_accounts |       4028858368
 2017-02-08 02:53:48.359904+01 | 1486518828.3599 | pgbench_tellers  |           139264
 2017-02-08 02:53:48.359904+01 | 1486518828.3599 | pgbench_history  |                0
 2017-02-08 02:53:48.359904+01 | 1486518828.3599 | pgbench_branches |            16384

 2017-02-08 02:53:49.56124+01 | 1486518829.56124 | pgbench_accounts |       4028858368
 2017-02-08 02:53:49.56124+01 | 1486518829.56124 | pgbench_tellers  |           139264
 2017-02-08 02:53:49.56124+01 | 1486518829.56124 | pgbench_history  |                0
 2017-02-08 02:53:49.56124+01 | 1486518829.56124 | pgbench_branches |            16384

 2017-02-08 02:53:50.803585+01 | 1486518830.80359 | pgbench_accounts |       4028858368
 2017-02-08 02:53:50.803585+01 | 1486518830.80359 | pgbench_tellers  |           139264
 2017-02-08 02:53:50.803585+01 | 1486518830.80359 | pgbench_history  |                0
 2017-02-08 02:53:50.803585+01 | 1486518830.80359 | pgbench_branches |            16384

 2017-02-08 02:53:52.119014+01 | 1486518832.11901 | pgbench_accounts |       4028858368
 2017-02-08 02:53:52.119014+01 | 1486518832.11901 | pgbench_tellers  |           139264
 2017-02-08 02:53:52.119014+01 | 1486518832.11901 | pgbench_history  |                0
 2017-02-08 02:53:52.119014+01 | 1486518832.11901 | pgbench_branches |            16384

 2017-02-08 02:53:53.391573+01 | 1486518833.39157 | pgbench_accounts |       4028858368
 2017-02-08 02:53:53.391573+01 | 1486518833.39157 | pgbench_tellers  |           139264
 2017-02-08 02:53:53.391573+01 | 1486518833.39157 | pgbench_history  |                0
 2017-02-08 02:53:53.391573+01 | 1486518833.39157 | pgbench_branches |            16384

 2017-02-08 02:53:54.634256+01 | 1486518834.63426 | pgbench_accounts |       4028858368
 2017-02-08 02:53:54.634256+01 | 1486518834.63426 | pgbench_tellers  |           139264
 2017-02-08 02:53:54.634256+01 | 1486518834.63426 | pgbench_history  |                0
 2017-02-08 02:53:54.634256+01 | 1486518834.63426 | pgbench_branches |            16384

 2017-02-08 02:53:55.895219+01 | 1486518835.89522 | pgbench_accounts |       4028858368
 2017-02-08 02:53:55.895219+01 | 1486518835.89522 | pgbench_tellers  |           139264
 2017-02-08 02:53:55.895219+01 | 1486518835.89522 | pgbench_history  |                0
 2017-02-08 02:53:55.895219+01 | 1486518835.89522 | pgbench_branches |            16384

 2017-02-08 02:53:57.120349+01 | 1486518837.12035 | pgbench_accounts |       4028858368
 2017-02-08 02:53:57.120349+01 | 1486518837.12035 | pgbench_tellers  |           139264
 2017-02-08 02:53:57.120349+01 | 1486518837.12035 | pgbench_history  |                0
 2017-02-08 02:53:57.120349+01 | 1486518837.12035 | pgbench_branches |            16384

 2017-02-08 02:53:58.36465+01 | 1486518838.36465 | pgbench_accounts |       4028858368
 2017-02-08 02:53:58.36465+01 | 1486518838.36465 | pgbench_tellers  |           139264
 2017-02-08 02:53:58.36465+01 | 1486518838.36465 | pgbench_history  |                0
 2017-02-08 02:53:58.36465+01 | 1486518838.36465 | pgbench_branches |            16384

 2017-02-08 02:53:59.609964+01 | 1486518839.60996 | pgbench_accounts |       4028858368
 2017-02-08 02:53:59.609964+01 | 1486518839.60996 | pgbench_tellers  |           139264
 2017-02-08 02:53:59.609964+01 | 1486518839.60996 | pgbench_history  |                0
 2017-02-08 02:53:59.609964+01 | 1486518839.60996 | pgbench_branches |            16384

 2017-02-08 02:54:00.834117+01 | 1486518840.83412 | pgbench_accounts |       4028858368
 2017-02-08 02:54:00.834117+01 | 1486518840.83412 | pgbench_tellers  |           139264
 2017-02-08 02:54:00.834117+01 | 1486518840.83412 | pgbench_history  |                0
 2017-02-08 02:54:00.834117+01 | 1486518840.83412 | pgbench_branches |            16384

 2017-02-08 02:54:02.074838+01 | 1486518842.07484 | pgbench_accounts |       4028858368
 2017-02-08 02:54:02.074838+01 | 1486518842.07484 | pgbench_tellers  |           139264
 2017-02-08 02:54:02.074838+01 | 1486518842.07484 | pgbench_history  |                0
 2017-02-08 02:54:02.074838+01 | 1486518842.07484 | pgbench_branches |            16384

 2017-02-08 02:54:03.30365+01 | 1486518843.30365 | pgbench_accounts |       4028858368
 2017-02-08 02:54:03.30365+01 | 1486518843.30365 | pgbench_tellers  |           139264
 2017-02-08 02:54:03.30365+01 | 1486518843.30365 | pgbench_history  |                0
 2017-02-08 02:54:03.30365+01 | 1486518843.30365 | pgbench_branches |            16384

 2017-02-08 02:54:04.553556+01 | 1486518844.55356 | pgbench_accounts |       4028858368
 2017-02-08 02:54:04.553556+01 | 1486518844.55356 | pgbench_tellers  |           139264
 2017-02-08 02:54:04.553556+01 | 1486518844.55356 | pgbench_history  |                0
 2017-02-08 02:54:04.553556+01 | 1486518844.55356 | pgbench_branches |            16384

 2017-02-08 02:54:05.794407+01 | 1486518845.79441 | pgbench_accounts |       4028858368
 2017-02-08 02:54:05.794407+01 | 1486518845.79441 | pgbench_tellers  |           139264
 2017-02-08 02:54:05.794407+01 | 1486518845.79441 | pgbench_history  |                0
 2017-02-08 02:54:05.794407+01 | 1486518845.79441 | pgbench_branches |            16384

 2017-02-08 02:54:07.03275+01 | 1486518847.03275 | pgbench_accounts |       4028858368
 2017-02-08 02:54:07.03275+01 | 1486518847.03275 | pgbench_tellers  |           139264
 2017-02-08 02:54:07.03275+01 | 1486518847.03275 | pgbench_history  |                0
 2017-02-08 02:54:07.03275+01 | 1486518847.03275 | pgbench_branches |            16384

 2017-02-08 02:54:08.259063+01 | 1486518848.25906 | pgbench_accounts |       4028858368
 2017-02-08 02:54:08.259063+01 | 1486518848.25906 | pgbench_tellers  |           139264
 2017-02-08 02:54:08.259063+01 | 1486518848.25906 | pgbench_history  |                0
 2017-02-08 02:54:08.259063+01 | 1486518848.25906 | pgbench_branches |            16384

 2017-02-08 02:54:09.461907+01 | 1486518849.46191 | pgbench_accounts |       4028858368
 2017-02-08 02:54:09.461907+01 | 1486518849.46191 | pgbench_tellers  |           139264
 2017-02-08 02:54:09.461907+01 | 1486518849.46191 | pgbench_history  |                0
 2017-02-08 02:54:09.461907+01 | 1486518849.46191 | pgbench_branches |            16384

 2017-02-08 02:54:10.734808+01 | 1486518850.73481 | pgbench_accounts |       4028858368
 2017-02-08 02:54:10.734808+01 | 1486518850.73481 | pgbench_tellers  |           139264
 2017-02-08 02:54:10.734808+01 | 1486518850.73481 | pgbench_history  |                0
 2017-02-08 02:54:10.734808+01 | 1486518850.73481 | pgbench_branches |            16384

 2017-02-08 02:54:12.003219+01 | 1486518852.00322 | pgbench_accounts |       4028858368
 2017-02-08 02:54:12.003219+01 | 1486518852.00322 | pgbench_tellers  |           139264
 2017-02-08 02:54:12.003219+01 | 1486518852.00322 | pgbench_history  |                0
 2017-02-08 02:54:12.003219+01 | 1486518852.00322 | pgbench_branches |            16384

 2017-02-08 02:54:13.197565+01 | 1486518853.19757 | pgbench_accounts |       4028858368
 2017-02-08 02:54:13.197565+01 | 1486518853.19757 | pgbench_tellers  |           139264
 2017-02-08 02:54:13.197565+01 | 1486518853.19757 | pgbench_history  |                0
 2017-02-08 02:54:13.197565+01 | 1486518853.19757 | pgbench_branches |            16384

 2017-02-08 02:54:14.426221+01 | 1486518854.42622 | pgbench_accounts |       4028858368
 2017-02-08 02:54:14.426221+01 | 1486518854.42622 | pgbench_tellers  |           139264
 2017-02-08 02:54:14.426221+01 | 1486518854.42622 | pgbench_history  |                0
 2017-02-08 02:54:14.426221+01 | 1486518854.42622 | pgbench_branches |            16384

 2017-02-08 02:54:15.690791+01 | 1486518855.69079 | pgbench_accounts |       4028858368
 2017-02-08 02:54:15.690791+01 | 1486518855.69079 | pgbench_tellers  |           139264
 2017-02-08 02:54:15.690791+01 | 1486518855.69079 | pgbench_history  |                0
 2017-02-08 02:54:15.690791+01 | 1486518855.69079 | pgbench_branches |            16384

 2017-02-08 02:54:16.8981+01 | 1486518856.8981 | pgbench_accounts |       4028858368
 2017-02-08 02:54:16.8981+01 | 1486518856.8981 | pgbench_tellers  |           139264
 2017-02-08 02:54:16.8981+01 | 1486518856.8981 | pgbench_history  |                0
 2017-02-08 02:54:16.8981+01 | 1486518856.8981 | pgbench_branches |            16384

 2017-02-08 02:54:18.122857+01 | 1486518858.12286 | pgbench_accounts |       4028858368
 2017-02-08 02:54:18.122857+01 | 1486518858.12286 | pgbench_tellers  |           139264
 2017-02-08 02:54:18.122857+01 | 1486518858.12286 | pgbench_history  |                0
 2017-02-08 02:54:18.122857+01 | 1486518858.12286 | pgbench_branches |            16384

 2017-02-08 02:54:19.402752+01 | 1486518859.40275 | pgbench_accounts |       4028858368
 2017-02-08 02:54:19.402752+01 | 1486518859.40275 | pgbench_tellers  |           139264
 2017-02-08 02:54:19.402752+01 | 1486518859.40275 | pgbench_history  |                0
 2017-02-08 02:54:19.402752+01 | 1486518859.40275 | pgbench_branches |            16384

 2017-02-08 02:54:20.653091+01 | 1486518860.65309 | pgbench_accounts |       4028858368
 2017-02-08 02:54:20.653091+01 | 1486518860.65309 | pgbench_tellers  |           139264
 2017-02-08 02:54:20.653091+01 | 1486518860.65309 | pgbench_history  |                0
 2017-02-08 02:54:20.653091+01 | 1486518860.65309 | pgbench_branches |            16384

 2017-02-08 02:54:21.934996+01 | 1486518861.935 | pgbench_accounts |       4028858368
 2017-02-08 02:54:21.934996+01 | 1486518861.935 | pgbench_tellers  |           139264
 2017-02-08 02:54:21.934996+01 | 1486518861.935 | pgbench_history  |                0
 2017-02-08 02:54:21.934996+01 | 1486518861.935 | pgbench_branches |            16384

 2017-02-08 02:54:23.223847+01 | 1486518863.22385 | pgbench_accounts |       4028858368
 2017-02-08 02:54:23.223847+01 | 1486518863.22385 | pgbench_tellers  |           139264
 2017-02-08 02:54:23.223847+01 | 1486518863.22385 | pgbench_history  |                0
 2017-02-08 02:54:23.223847+01 | 1486518863.22385 | pgbench_branches |            16384

 2017-02-08 02:54:24.443016+01 | 1486518864.44302 | pgbench_accounts |       4028858368
 2017-02-08 02:54:24.443016+01 | 1486518864.44302 | pgbench_tellers  |           139264
 2017-02-08 02:54:24.443016+01 | 1486518864.44302 | pgbench_history  |                0
 2017-02-08 02:54:24.443016+01 | 1486518864.44302 | pgbench_branches |            16384

 2017-02-08 02:54:25.697409+01 | 1486518865.69741 | pgbench_accounts |       4028858368
 2017-02-08 02:54:25.697409+01 | 1486518865.69741 | pgbench_tellers  |           139264
 2017-02-08 02:54:25.697409+01 | 1486518865.69741 | pgbench_history  |                0
 2017-02-08 02:54:25.697409+01 | 1486518865.69741 | pgbench_branches |            16384

 2017-02-08 02:54:26.955405+01 | 1486518866.9554 | pgbench_accounts |       4028858368
 2017-02-08 02:54:26.955405+01 | 1486518866.9554 | pgbench_tellers  |           139264
 2017-02-08 02:54:26.955405+01 | 1486518866.9554 | pgbench_history  |                0
 2017-02-08 02:54:26.955405+01 | 1486518866.9554 | pgbench_branches |            16384

 2017-02-08 02:54:28.166704+01 | 1486518868.1667 | pgbench_accounts |       4028858368
 2017-02-08 02:54:28.166704+01 | 1486518868.1667 | pgbench_tellers  |           139264
 2017-02-08 02:54:28.166704+01 | 1486518868.1667 | pgbench_history  |                0
 2017-02-08 02:54:28.166704+01 | 1486518868.1667 | pgbench_branches |            16384

 2017-02-08 02:54:29.406257+01 | 1486518869.40626 | pgbench_accounts |       4028858368
 2017-02-08 02:54:29.406257+01 | 1486518869.40626 | pgbench_tellers  |           139264
 2017-02-08 02:54:29.406257+01 | 1486518869.40626 | pgbench_history  |                0
 2017-02-08 02:54:29.406257+01 | 1486518869.40626 | pgbench_branches |            16384

 2017-02-08 02:54:30.57496+01 | 1486518870.57496 | pgbench_accounts |       4028858368
 2017-02-08 02:54:30.57496+01 | 1486518870.57496 | pgbench_tellers  |           139264
 2017-02-08 02:54:30.57496+01 | 1486518870.57496 | pgbench_history  |                0
 2017-02-08 02:54:30.57496+01 | 1486518870.57496 | pgbench_branches |            16384

 2017-02-08 02:54:31.817317+01 | 1486518871.81732 | pgbench_accounts |       4028858368
 2017-02-08 02:54:31.817317+01 | 1486518871.81732 | pgbench_tellers  |           139264
 2017-02-08 02:54:31.817317+01 | 1486518871.81732 | pgbench_history  |                0
 2017-02-08 02:54:31.817317+01 | 1486518871.81732 | pgbench_branches |            16384

 2017-02-08 02:54:33.032131+01 | 1486518873.03213 | pgbench_accounts |       4028858368
 2017-02-08 02:54:33.032131+01 | 1486518873.03213 | pgbench_tellers  |           139264
 2017-02-08 02:54:33.032131+01 | 1486518873.03213 | pgbench_history  |                0
 2017-02-08 02:54:33.032131+01 | 1486518873.03213 | pgbench_branches |            16384

 2017-02-08 02:54:34.247061+01 | 1486518874.24706 | pgbench_accounts |       4028858368
 2017-02-08 02:54:34.247061+01 | 1486518874.24706 | pgbench_tellers  |           139264
 2017-02-08 02:54:34.247061+01 | 1486518874.24706 | pgbench_history  |                0
 2017-02-08 02:54:34.247061+01 | 1486518874.24706 | pgbench_branches |            16384

 2017-02-08 02:54:35.516755+01 | 1486518875.51676 | pgbench_accounts |       4028858368
 2017-02-08 02:54:35.516755+01 | 1486518875.51676 | pgbench_tellers  |           139264
 2017-02-08 02:54:35.516755+01 | 1486518875.51676 | pgbench_history  |                0
 2017-02-08 02:54:35.516755+01 | 1486518875.51676 | pgbench_branches |            16384

 2017-02-08 02:54:36.777568+01 | 1486518876.77757 | pgbench_accounts |       4028858368
 2017-02-08 02:54:36.777568+01 | 1486518876.77757 | pgbench_tellers  |           139264
 2017-02-08 02:54:36.777568+01 | 1486518876.77757 | pgbench_history  |                0
 2017-02-08 02:54:36.777568+01 | 1486518876.77757 | pgbench_branches |            16384

 2017-02-08 02:54:38.069229+01 | 1486518878.06923 | pgbench_accounts |       4028858368
 2017-02-08 02:54:38.069229+01 | 1486518878.06923 | pgbench_tellers  |           139264
 2017-02-08 02:54:38.069229+01 | 1486518878.06923 | pgbench_history  |                0
 2017-02-08 02:54:38.069229+01 | 1486518878.06923 | pgbench_branches |            16384

 2017-02-08 02:54:39.311591+01 | 1486518879.31159 | pgbench_accounts |       4028858368
 2017-02-08 02:54:39.311591+01 | 1486518879.31159 | pgbench_tellers  |           139264
 2017-02-08 02:54:39.311591+01 | 1486518879.31159 | pgbench_history  |                0
 2017-02-08 02:54:39.311591+01 | 1486518879.31159 | pgbench_branches |            16384

 2017-02-08 02:54:40.549799+01 | 1486518880.5498 | pgbench_accounts |       4028858368
 2017-02-08 02:54:40.549799+01 | 1486518880.5498 | pgbench_tellers  |           139264
 2017-02-08 02:54:40.549799+01 | 1486518880.5498 | pgbench_history  |                0
 2017-02-08 02:54:40.549799+01 | 1486518880.5498 | pgbench_branches |            16384

 2017-02-08 02:54:41.746578+01 | 1486518881.74658 | pgbench_accounts |       4028858368
 2017-02-08 02:54:41.746578+01 | 1486518881.74658 | pgbench_tellers  |           139264
 2017-02-08 02:54:41.746578+01 | 1486518881.74658 | pgbench_history  |                0
 2017-02-08 02:54:41.746578+01 | 1486518881.74658 | pgbench_branches |            16384

 2017-02-08 02:54:42.933392+01 | 1486518882.93339 | pgbench_accounts |       4028858368
 2017-02-08 02:54:42.933392+01 | 1486518882.93339 | pgbench_tellers  |           139264
 2017-02-08 02:54:42.933392+01 | 1486518882.93339 | pgbench_history  |                0
 2017-02-08 02:54:42.933392+01 | 1486518882.93339 | pgbench_branches |            16384

 2017-02-08 02:54:44.176219+01 | 1486518884.17622 | pgbench_accounts |       4028858368
 2017-02-08 02:54:44.176219+01 | 1486518884.17622 | pgbench_tellers  |           139264
 2017-02-08 02:54:44.176219+01 | 1486518884.17622 | pgbench_history  |                0
 2017-02-08 02:54:44.176219+01 | 1486518884.17622 | pgbench_branches |            16384

 2017-02-08 02:54:45.375862+01 | 1486518885.37586 | pgbench_accounts |       4028858368
 2017-02-08 02:54:45.375862+01 | 1486518885.37586 | pgbench_tellers  |           139264
 2017-02-08 02:54:45.375862+01 | 1486518885.37586 | pgbench_history  |                0
 2017-02-08 02:54:45.375862+01 | 1486518885.37586 | pgbench_branches |            16384

 2017-02-08 02:54:46.613835+01 | 1486518886.61384 | pgbench_accounts |       4028858368
 2017-02-08 02:54:46.613835+01 | 1486518886.61384 | pgbench_tellers  |           139264
 2017-02-08 02:54:46.613835+01 | 1486518886.61384 | pgbench_history  |                0
 2017-02-08 02:54:46.613835+01 | 1486518886.61384 | pgbench_branches |            16384

 2017-02-08 02:54:47.841481+01 | 1486518887.84148 | pgbench_accounts |       4028858368
 2017-02-08 02:54:47.841481+01 | 1486518887.84148 | pgbench_tellers  |           139264
 2017-02-08 02:54:47.841481+01 | 1486518887.84148 | pgbench_history  |                0
 2017-02-08 02:54:47.841481+01 | 1486518887.84148 | pgbench_branches |            16384

 2017-02-08 02:54:49.059538+01 | 1486518889.05954 | pgbench_accounts |       4028858368
 2017-02-08 02:54:49.059538+01 | 1486518889.05954 | pgbench_tellers  |           139264
 2017-02-08 02:54:49.059538+01 | 1486518889.05954 | pgbench_history  |                0
 2017-02-08 02:54:49.059538+01 | 1486518889.05954 | pgbench_branches |            16384

 2017-02-08 02:54:50.287204+01 | 1486518890.2872 | pgbench_accounts |       4028858368
 2017-02-08 02:54:50.287204+01 | 1486518890.2872 | pgbench_tellers  |           139264
 2017-02-08 02:54:50.287204+01 | 1486518890.2872 | pgbench_history  |                0
 2017-02-08 02:54:50.287204+01 | 1486518890.2872 | pgbench_branches |            16384

 2017-02-08 02:54:51.568166+01 | 1486518891.56817 | pgbench_accounts |       4028858368
 2017-02-08 02:54:51.568166+01 | 1486518891.56817 | pgbench_tellers  |           139264
 2017-02-08 02:54:51.568166+01 | 1486518891.56817 | pgbench_history  |                0
 2017-02-08 02:54:51.568166+01 | 1486518891.56817 | pgbench_branches |            16384

 2017-02-08 02:54:52.798688+01 | 1486518892.79869 | pgbench_accounts |       4028858368
 2017-02-08 02:54:52.798688+01 | 1486518892.79869 | pgbench_tellers  |           139264
 2017-02-08 02:54:52.798688+01 | 1486518892.79869 | pgbench_history  |                0
 2017-02-08 02:54:52.798688+01 | 1486518892.79869 | pgbench_branches |            16384

 2017-02-08 02:54:54.00929+01 | 1486518894.00929 | pgbench_accounts |       4028858368
 2017-02-08 02:54:54.00929+01 | 1486518894.00929 | pgbench_tellers  |           139264
 2017-02-08 02:54:54.00929+01 | 1486518894.00929 | pgbench_history  |                0
 2017-02-08 02:54:54.00929+01 | 1486518894.00929 | pgbench_branches |            16384

 2017-02-08 02:54:55.238584+01 | 1486518895.23858 | pgbench_accounts |       4028858368
 2017-02-08 02:54:55.238584+01 | 1486518895.23858 | pgbench_tellers  |           139264
 2017-02-08 02:54:55.238584+01 | 1486518895.23858 | pgbench_history  |                0
 2017-02-08 02:54:55.238584+01 | 1486518895.23858 | pgbench_branches |            16384

 2017-02-08 02:54:56.455568+01 | 1486518896.45557 | pgbench_accounts |       4028858368
 2017-02-08 02:54:56.455568+01 | 1486518896.45557 | pgbench_tellers  |           139264
 2017-02-08 02:54:56.455568+01 | 1486518896.45557 | pgbench_history  |                0
 2017-02-08 02:54:56.455568+01 | 1486518896.45557 | pgbench_branches |            16384

 2017-02-08 02:54:57.714215+01 | 1486518897.71422 | pgbench_accounts |       4028858368
 2017-02-08 02:54:57.714215+01 | 1486518897.71422 | pgbench_tellers  |           139264
 2017-02-08 02:54:57.714215+01 | 1486518897.71422 | pgbench_history  |                0
 2017-02-08 02:54:57.714215+01 | 1486518897.71422 | pgbench_branches |            16384

 2017-02-08 02:54:58.914288+01 | 1486518898.91429 | pgbench_accounts |       4028858368
 2017-02-08 02:54:58.914288+01 | 1486518898.91429 | pgbench_tellers  |           139264
 2017-02-08 02:54:58.914288+01 | 1486518898.91429 | pgbench_history  |                0
 2017-02-08 02:54:58.914288+01 | 1486518898.91429 | pgbench_branches |            16384

 2017-02-08 02:55:00.172311+01 | 1486518900.17231 | pgbench_accounts |       4028858368
 2017-02-08 02:55:00.172311+01 | 1486518900.17231 | pgbench_tellers  |           139264
 2017-02-08 02:55:00.172311+01 | 1486518900.17231 | pgbench_history  |                0
 2017-02-08 02:55:00.172311+01 | 1486518900.17231 | pgbench_branches |            16384

 2017-02-08 02:55:01.412046+01 | 1486518901.41205 | pgbench_accounts |       4028858368
 2017-02-08 02:55:01.412046+01 | 1486518901.41205 | pgbench_tellers  |           139264
 2017-02-08 02:55:01.412046+01 | 1486518901.41205 | pgbench_history  |                0
 2017-02-08 02:55:01.412046+01 | 1486518901.41205 | pgbench_branches |            16384

 2017-02-08 02:55:02.674532+01 | 1486518902.67453 | pgbench_accounts |       4028858368
 2017-02-08 02:55:02.674532+01 | 1486518902.67453 | pgbench_tellers  |           139264
 2017-02-08 02:55:02.674532+01 | 1486518902.67453 | pgbench_history  |                0
 2017-02-08 02:55:02.674532+01 | 1486518902.67453 | pgbench_branches |            16384

 2017-02-08 02:55:03.861022+01 | 1486518903.86102 | pgbench_accounts |       4028858368
 2017-02-08 02:55:03.861022+01 | 1486518903.86102 | pgbench_tellers  |           139264
 2017-02-08 02:55:03.861022+01 | 1486518903.86102 | pgbench_history  |                0
 2017-02-08 02:55:03.861022+01 | 1486518903.86102 | pgbench_branches |            16384

 2017-02-08 02:55:05.053894+01 | 1486518905.05389 | pgbench_accounts |       4028858368
 2017-02-08 02:55:05.053894+01 | 1486518905.05389 | pgbench_tellers  |           139264
 2017-02-08 02:55:05.053894+01 | 1486518905.05389 | pgbench_history  |                0
 2017-02-08 02:55:05.053894+01 | 1486518905.05389 | pgbench_branches |            16384

 2017-02-08 02:55:06.32188+01 | 1486518906.32188 | pgbench_accounts |       4028858368
 2017-02-08 02:55:06.32188+01 | 1486518906.32188 | pgbench_tellers  |           139264
 2017-02-08 02:55:06.32188+01 | 1486518906.32188 | pgbench_history  |                0
 2017-02-08 02:55:06.32188+01 | 1486518906.32188 | pgbench_branches |            16384

 2017-02-08 02:55:07.570678+01 | 1486518907.57068 | pgbench_accounts |       4028858368
 2017-02-08 02:55:07.570678+01 | 1486518907.57068 | pgbench_tellers  |           139264
 2017-02-08 02:55:07.570678+01 | 1486518907.57068 | pgbench_history  |                0
 2017-02-08 02:55:07.570678+01 | 1486518907.57068 | pgbench_branches |            16384

 2017-02-08 02:55:08.796849+01 | 1486518908.79685 | pgbench_accounts |       4028858368
 2017-02-08 02:55:08.796849+01 | 1486518908.79685 | pgbench_tellers  |           139264
 2017-02-08 02:55:08.796849+01 | 1486518908.79685 | pgbench_history  |                0
 2017-02-08 02:55:08.796849+01 | 1486518908.79685 | pgbench_branches |            16384

 2017-02-08 02:55:10.018142+01 | 1486518910.01814 | pgbench_accounts |       4028858368
 2017-02-08 02:55:10.018142+01 | 1486518910.01814 | pgbench_tellers  |           139264
 2017-02-08 02:55:10.018142+01 | 1486518910.01814 | pgbench_history  |                0
 2017-02-08 02:55:10.018142+01 | 1486518910.01814 | pgbench_branches |            16384

 2017-02-08 02:55:11.250934+01 | 1486518911.25093 | pgbench_accounts |       4028858368
 2017-02-08 02:55:11.250934+01 | 1486518911.25093 | pgbench_tellers  |           139264
 2017-02-08 02:55:11.250934+01 | 1486518911.25093 | pgbench_history  |                0
 2017-02-08 02:55:11.250934+01 | 1486518911.25093 | pgbench_branches |            16384

 2017-02-08 02:55:12.474983+01 | 1486518912.47498 | pgbench_accounts |       4028858368
 2017-02-08 02:55:12.474983+01 | 1486518912.47498 | pgbench_tellers  |           139264
 2017-02-08 02:55:12.474983+01 | 1486518912.47498 | pgbench_history  |                0
 2017-02-08 02:55:12.474983+01 | 1486518912.47498 | pgbench_branches |            16384

 2017-02-08 02:55:13.692734+01 | 1486518913.69273 | pgbench_accounts |       4028858368
 2017-02-08 02:55:13.692734+01 | 1486518913.69273 | pgbench_tellers  |           139264
 2017-02-08 02:55:13.692734+01 | 1486518913.69273 | pgbench_history  |                0
 2017-02-08 02:55:13.692734+01 | 1486518913.69273 | pgbench_branches |            16384

 2017-02-08 02:55:14.860552+01 | 1486518914.86055 | pgbench_accounts |       4028858368
 2017-02-08 02:55:14.860552+01 | 1486518914.86055 | pgbench_tellers  |           139264
 2017-02-08 02:55:14.860552+01 | 1486518914.86055 | pgbench_history  |                0
 2017-02-08 02:55:14.860552+01 | 1486518914.86055 | pgbench_branches |            16384

 2017-02-08 02:55:16.105098+01 | 1486518916.1051 | pgbench_accounts |       4028858368
 2017-02-08 02:55:16.105098+01 | 1486518916.1051 | pgbench_tellers  |           139264
 2017-02-08 02:55:16.105098+01 | 1486518916.1051 | pgbench_history  |                0
 2017-02-08 02:55:16.105098+01 | 1486518916.1051 | pgbench_branches |            16384

 2017-02-08 02:55:17.32781+01 | 1486518917.32781 | pgbench_accounts |       4028858368
 2017-02-08 02:55:17.32781+01 | 1486518917.32781 | pgbench_tellers  |           139264
 2017-02-08 02:55:17.32781+01 | 1486518917.32781 | pgbench_history  |                0
 2017-02-08 02:55:17.32781+01 | 1486518917.32781 | pgbench_branches |            16384

 2017-02-08 02:55:18.585683+01 | 1486518918.58568 | pgbench_accounts |       4028858368
 2017-02-08 02:55:18.585683+01 | 1486518918.58568 | pgbench_tellers  |           139264
 2017-02-08 02:55:18.585683+01 | 1486518918.58568 | pgbench_history  |                0
 2017-02-08 02:55:18.585683+01 | 1486518918.58568 | pgbench_branches |            16384

 2017-02-08 02:55:19.825825+01 | 1486518919.82582 | pgbench_accounts |       4028858368
 2017-02-08 02:55:19.825825+01 | 1486518919.82582 | pgbench_tellers  |           139264
 2017-02-08 02:55:19.825825+01 | 1486518919.82582 | pgbench_history  |                0
 2017-02-08 02:55:19.825825+01 | 1486518919.82582 | pgbench_branches |            16384

 2017-02-08 02:55:21.001951+01 | 1486518921.00195 | pgbench_accounts |       4028858368
 2017-02-08 02:55:21.001951+01 | 1486518921.00195 | pgbench_tellers  |           139264
 2017-02-08 02:55:21.001951+01 | 1486518921.00195 | pgbench_history  |                0
 2017-02-08 02:55:21.001951+01 | 1486518921.00195 | pgbench_branches |            16384

 2017-02-08 02:55:22.230149+01 | 1486518922.23015 | pgbench_accounts |       4028858368
 2017-02-08 02:55:22.230149+01 | 1486518922.23015 | pgbench_tellers  |           139264
 2017-02-08 02:55:22.230149+01 | 1486518922.23015 | pgbench_history  |                0
 2017-02-08 02:55:22.230149+01 | 1486518922.23015 | pgbench_branches |            16384

 2017-02-08 02:55:23.458309+01 | 1486518923.45831 | pgbench_accounts |       4028858368
 2017-02-08 02:55:23.458309+01 | 1486518923.45831 | pgbench_tellers  |           139264
 2017-02-08 02:55:23.458309+01 | 1486518923.45831 | pgbench_history  |                0
 2017-02-08 02:55:23.458309+01 | 1486518923.45831 | pgbench_branches |            16384

 2017-02-08 02:55:24.71764+01 | 1486518924.71764 | pgbench_accounts |       4028858368
 2017-02-08 02:55:24.71764+01 | 1486518924.71764 | pgbench_tellers  |           139264
 2017-02-08 02:55:24.71764+01 | 1486518924.71764 | pgbench_history  |                0
 2017-02-08 02:55:24.71764+01 | 1486518924.71764 | pgbench_branches |            16384

 2017-02-08 02:55:25.961136+01 | 1486518925.96114 | pgbench_accounts |       4028858368
 2017-02-08 02:55:25.961136+01 | 1486518925.96114 | pgbench_tellers  |           139264
 2017-02-08 02:55:25.961136+01 | 1486518925.96114 | pgbench_history  |                0
 2017-02-08 02:55:25.961136+01 | 1486518925.96114 | pgbench_branches |            16384

 2017-02-08 02:55:27.15311+01 | 1486518927.15311 | pgbench_accounts |       4028858368
 2017-02-08 02:55:27.15311+01 | 1486518927.15311 | pgbench_tellers  |           139264
 2017-02-08 02:55:27.15311+01 | 1486518927.15311 | pgbench_history  |                0
 2017-02-08 02:55:27.15311+01 | 1486518927.15311 | pgbench_branches |            16384

 2017-02-08 02:55:28.374533+01 | 1486518928.37453 | pgbench_accounts |       4028858368
 2017-02-08 02:55:28.374533+01 | 1486518928.37453 | pgbench_tellers  |           139264
 2017-02-08 02:55:28.374533+01 | 1486518928.37453 | pgbench_history  |                0
 2017-02-08 02:55:28.374533+01 | 1486518928.37453 | pgbench_branches |            16384

 2017-02-08 02:55:29.57173+01 | 1486518929.57173 | pgbench_accounts |       4028858368
 2017-02-08 02:55:29.57173+01 | 1486518929.57173 | pgbench_tellers  |           139264
 2017-02-08 02:55:29.57173+01 | 1486518929.57173 | pgbench_history  |                0
 2017-02-08 02:55:29.57173+01 | 1486518929.57173 | pgbench_branches |            16384

 2017-02-08 02:55:30.789843+01 | 1486518930.78984 | pgbench_accounts |       4028858368
 2017-02-08 02:55:30.789843+01 | 1486518930.78984 | pgbench_tellers  |           139264
 2017-02-08 02:55:30.789843+01 | 1486518930.78984 | pgbench_history  |                0
 2017-02-08 02:55:30.789843+01 | 1486518930.78984 | pgbench_branches |            16384

