 2017-02-08 02:50:31.48885+01 | 1486518631.48885 | 0/E7DA7748               |            3889854280

 2017-02-08 02:50:32.727271+01 | 1486518632.72727 | 0/E7DA7780               |            3889854336

 2017-02-08 02:50:34.001273+01 | 1486518634.00127 | 0/E7DA7780               |            3889854336

 2017-02-08 02:50:35.278128+01 | 1486518635.27813 | 0/E7DA7780               |            3889854336

 2017-02-08 02:50:36.551149+01 | 1486518636.55115 | 0/E7DA7780               |            3889854336

 2017-02-08 02:50:37.833889+01 | 1486518637.83389 | 0/E7DA7780               |            3889854336

 2017-02-08 02:50:39.112692+01 | 1486518639.11269 | 0/E7DA7780               |            3889854336

 2017-02-08 02:50:40.398002+01 | 1486518640.398 | 0/E7DA7780               |            3889854336

 2017-02-08 02:50:41.623786+01 | 1486518641.62379 | 0/E7DA7780               |            3889854336

 2017-02-08 02:50:42.806798+01 | 1486518642.8068 | 0/E7DA7780               |            3889854336

 2017-02-08 02:50:44.094953+01 | 1486518644.09495 | 0/E7DA7780               |            3889854336

 2017-02-08 02:50:45.365872+01 | 1486518645.36587 | 0/E7DA7780               |            3889854336

 2017-02-08 02:50:46.581999+01 | 1486518646.582 | 0/E7DA7780               |            3889854336

 2017-02-08 02:50:47.839628+01 | 1486518647.83963 | 0/E7DA7780               |            3889854336

 2017-02-08 02:50:49.122712+01 | 1486518649.12271 | 0/E7DA7780               |            3889854336

 2017-02-08 02:50:50.320766+01 | 1486518650.32077 | 0/E7DA7780               |            3889854336

 2017-02-08 02:50:51.56188+01 | 1486518651.56188 | 0/E7DA7780               |            3889854336

 2017-02-08 02:50:52.765277+01 | 1486518652.76528 | 0/E7DA7780               |            3889854336

 2017-02-08 02:50:54.033961+01 | 1486518654.03396 | 0/E7DA7780               |            3889854336

 2017-02-08 02:50:55.290215+01 | 1486518655.29022 | 0/E7DA7780               |            3889854336

 2017-02-08 02:50:56.536179+01 | 1486518656.53618 | 0/E7DA7780               |            3889854336

 2017-02-08 02:50:57.720989+01 | 1486518657.72099 | 0/E7DA7780               |            3889854336

 2017-02-08 02:50:58.957243+01 | 1486518658.95724 | 0/E7DA7780               |            3889854336

 2017-02-08 02:51:00.194321+01 | 1486518660.19432 | 0/E7DA7780               |            3889854336

 2017-02-08 02:51:01.412969+01 | 1486518661.41297 | 0/E7DA7780               |            3889854336

 2017-02-08 02:51:02.624888+01 | 1486518662.62489 | 0/E7DA7780               |            3889854336

 2017-02-08 02:51:03.822937+01 | 1486518663.82294 | 0/E7DA7780               |            3889854336

 2017-02-08 02:51:05.054523+01 | 1486518665.05452 | 0/E7DA7780               |            3889854336

 2017-02-08 02:51:06.335741+01 | 1486518666.33574 | 0/E7DA7780               |            3889854336

 2017-02-08 02:51:07.563301+01 | 1486518667.5633 | 0/E7DA7780               |            3889854336

 2017-02-08 02:51:08.79698+01 | 1486518668.79698 | 0/E7DA7780               |            3889854336

 2017-02-08 02:51:10.083172+01 | 1486518670.08317 | 0/E7DA7780               |            3889854336

 2017-02-08 02:51:11.290281+01 | 1486518671.29028 | 0/E7DA7780               |            3889854336

 2017-02-08 02:51:12.46119+01 | 1486518672.46119 | 0/E7DA7780               |            3889854336

 2017-02-08 02:51:13.64014+01 | 1486518673.64014 | 0/E7DA7780               |            3889854336

 2017-02-08 02:51:14.863975+01 | 1486518674.86398 | 0/E7DA7780               |            3889854336

 2017-02-08 02:51:16.077793+01 | 1486518676.07779 | 0/E7DA7780               |            3889854336

 2017-02-08 02:51:17.325396+01 | 1486518677.3254 | 0/E7DA7780               |            3889854336

 2017-02-08 02:51:18.571834+01 | 1486518678.57183 | 0/E7DA7780               |            3889854336

 2017-02-08 02:51:19.841828+01 | 1486518679.84183 | 0/E7DA7780               |            3889854336

 2017-02-08 02:51:21.146195+01 | 1486518681.14619 | 0/E7DA7780               |            3889854336

 2017-02-08 02:51:22.354445+01 | 1486518682.35444 | 0/E7DA7780               |            3889854336

 2017-02-08 02:51:23.615758+01 | 1486518683.61576 | 0/E7DA7780               |            3889854336

 2017-02-08 02:51:24.879833+01 | 1486518684.87983 | 0/E7DA7780               |            3889854336

 2017-02-08 02:51:26.128738+01 | 1486518686.12874 | 0/E7DA7780               |            3889854336

 2017-02-08 02:51:27.388703+01 | 1486518687.3887 | 0/E7DA7780               |            3889854336

 2017-02-08 02:51:28.629502+01 | 1486518688.6295 | 0/E7DA7780               |            3889854336

 2017-02-08 02:51:29.87651+01 | 1486518689.87651 | 0/E7DA7780               |            3889854336

 2017-02-08 02:51:31.093526+01 | 1486518691.09353 | 0/E7DA7780               |            3889854336

 2017-02-08 02:51:32.329483+01 | 1486518692.32948 | 0/E7DA7780               |            3889854336

 2017-02-08 02:51:33.54785+01 | 1486518693.54785 | 0/E7DA7780               |            3889854336

 2017-02-08 02:51:34.756308+01 | 1486518694.75631 | 0/E7DA7780               |            3889854336

 2017-02-08 02:51:36.049655+01 | 1486518696.04965 | 0/E7DA7780               |            3889854336

 2017-02-08 02:51:37.28702+01 | 1486518697.28702 | 0/E7DA7780               |            3889854336

 2017-02-08 02:51:38.560356+01 | 1486518698.56036 | 0/E7DA7780               |            3889854336

 2017-02-08 02:51:39.803167+01 | 1486518699.80317 | 0/E7DA7780               |            3889854336

 2017-02-08 02:51:40.98176+01 | 1486518700.98176 | 0/E7DA7780               |            3889854336

 2017-02-08 02:51:42.24687+01 | 1486518702.24687 | 0/E7DA7780               |            3889854336

 2017-02-08 02:51:43.496386+01 | 1486518703.49639 | 0/E7DA7780               |            3889854336

 2017-02-08 02:51:44.699187+01 | 1486518704.69919 | 0/E7DA7780               |            3889854336

 2017-02-08 02:51:45.899472+01 | 1486518705.89947 | 0/E7DA7780               |            3889854336

 2017-02-08 02:51:47.123113+01 | 1486518707.12311 | 0/E7DA7780               |            3889854336

 2017-02-08 02:51:48.380673+01 | 1486518708.38067 | 0/E7DA7780               |            3889854336

 2017-02-08 02:51:49.643063+01 | 1486518709.64306 | 0/E7DA7780               |            3889854336

 2017-02-08 02:51:50.88435+01 | 1486518710.88435 | 0/E7DA7780               |            3889854336

 2017-02-08 02:51:52.146705+01 | 1486518712.1467 | 0/E7DA7780               |            3889854336

 2017-02-08 02:51:53.401732+01 | 1486518713.40173 | 0/E7DA7780               |            3889854336

 2017-02-08 02:51:54.576945+01 | 1486518714.57695 | 0/E7DA7780               |            3889854336

 2017-02-08 02:51:55.841432+01 | 1486518715.84143 | 0/E7DA7780               |            3889854336

 2017-02-08 02:51:57.054673+01 | 1486518717.05467 | 0/E7DA7780               |            3889854336

 2017-02-08 02:51:58.319442+01 | 1486518718.31944 | 0/E7DA7780               |            3889854336

 2017-02-08 02:51:59.527878+01 | 1486518719.52788 | 0/E7DA7780               |            3889854336

 2017-02-08 02:52:00.773272+01 | 1486518720.77327 | 0/E7DA7780               |            3889854336

 2017-02-08 02:52:02.016882+01 | 1486518722.01688 | 0/E7DA7780               |            3889854336

 2017-02-08 02:52:03.291798+01 | 1486518723.2918 | 0/E7DA7780               |            3889854336

 2017-02-08 02:52:04.515667+01 | 1486518724.51567 | 0/E7DA7780               |            3889854336

 2017-02-08 02:52:05.728745+01 | 1486518725.72874 | 0/E7DA7780               |            3889854336

 2017-02-08 02:52:06.996777+01 | 1486518726.99678 | 0/E7DA7780               |            3889854336

 2017-02-08 02:52:08.279894+01 | 1486518728.27989 | 0/E7DA7780               |            3889854336

 2017-02-08 02:52:09.499553+01 | 1486518729.49955 | 0/E7DA7780               |            3889854336

 2017-02-08 02:52:10.723709+01 | 1486518730.72371 | 0/E7DA7780               |            3889854336

 2017-02-08 02:52:11.960481+01 | 1486518731.96048 | 0/E7DA7780               |            3889854336

 2017-02-08 02:52:13.215487+01 | 1486518733.21549 | 0/E7DA7780               |            3889854336

 2017-02-08 02:52:14.392368+01 | 1486518734.39237 | 0/E7DA7780               |            3889854336

 2017-02-08 02:52:15.70639+01 | 1486518735.70639 | 0/E7DA7780               |            3889854336

 2017-02-08 02:52:16.922027+01 | 1486518736.92203 | 0/E7DA7780               |            3889854336

 2017-02-08 02:52:18.167975+01 | 1486518738.16797 | 0/E7DA7780               |            3889854336

 2017-02-08 02:52:19.307671+01 | 1486518739.30767 | 0/E7DA7780               |            3889854336

 2017-02-08 02:52:20.532636+01 | 1486518740.53264 | 0/E7DA7780               |            3889854336

 2017-02-08 02:52:21.730627+01 | 1486518741.73063 | 0/E7DA7780               |            3889854336

 2017-02-08 02:52:22.854869+01 | 1486518742.85487 | 0/E7DA7780               |            3889854336

 2017-02-08 02:52:24.153784+01 | 1486518744.15378 | 0/E7DA7780               |            3889854336

 2017-02-08 02:52:25.403902+01 | 1486518745.4039 | 0/E7DA7780               |            3889854336

 2017-02-08 02:52:26.659321+01 | 1486518746.65932 | 0/E7DA7780               |            3889854336

 2017-02-08 02:52:27.891241+01 | 1486518747.89124 | 0/E7DA7780               |            3889854336

 2017-02-08 02:52:29.118839+01 | 1486518749.11884 | 0/E7DA7780               |            3889854336

 2017-02-08 02:52:30.397442+01 | 1486518750.39744 | 0/E7DA7780               |            3889854336

 2017-02-08 02:52:31.633718+01 | 1486518751.63372 | 0/E7DA7780               |            3889854336

 2017-02-08 02:52:32.863609+01 | 1486518752.86361 | 0/E7DA7780               |            3889854336

 2017-02-08 02:52:34.12563+01 | 1486518754.12563 | 0/E7DA7780               |            3889854336

 2017-02-08 02:52:35.349166+01 | 1486518755.34917 | 0/E7DA7780               |            3889854336

 2017-02-08 02:52:36.568691+01 | 1486518756.56869 | 0/E7DA7780               |            3889854336

 2017-02-08 02:52:37.715547+01 | 1486518757.71555 | 0/E7DA7780               |            3889854336

 2017-02-08 02:52:39.002543+01 | 1486518759.00254 | 0/E7DA7780               |            3889854336

 2017-02-08 02:52:40.22421+01 | 1486518760.22421 | 0/E7DA7780               |            3889854336

 2017-02-08 02:52:41.50717+01 | 1486518761.50717 | 0/E7DA7780               |            3889854336

 2017-02-08 02:52:42.729993+01 | 1486518762.72999 | 0/E7DA7780               |            3889854336

 2017-02-08 02:52:43.987526+01 | 1486518763.98753 | 0/E7DA7780               |            3889854336

 2017-02-08 02:52:45.219478+01 | 1486518765.21948 | 0/E7DA7780               |            3889854336

 2017-02-08 02:52:46.481342+01 | 1486518766.48134 | 0/E7DA7780               |            3889854336

 2017-02-08 02:52:47.747716+01 | 1486518767.74772 | 0/E7DA7780               |            3889854336

 2017-02-08 02:52:48.927259+01 | 1486518768.92726 | 0/E7DA7780               |            3889854336

 2017-02-08 02:52:50.154876+01 | 1486518770.15488 | 0/E7DA7780               |            3889854336

 2017-02-08 02:52:51.364924+01 | 1486518771.36492 | 0/E7DA7780               |            3889854336

 2017-02-08 02:52:52.573098+01 | 1486518772.5731 | 0/E7DA7780               |            3889854336

 2017-02-08 02:52:53.792971+01 | 1486518773.79297 | 0/E7DA7780               |            3889854336

 2017-02-08 02:52:55.027619+01 | 1486518775.02762 | 0/E7DA7780               |            3889854336

 2017-02-08 02:52:56.314684+01 | 1486518776.31468 | 0/E7DA7780               |            3889854336

 2017-02-08 02:52:57.581579+01 | 1486518777.58158 | 0/E7DA7780               |            3889854336

 2017-02-08 02:52:58.821084+01 | 1486518778.82108 | 0/E7DA7780               |            3889854336

 2017-02-08 02:53:00.032541+01 | 1486518780.03254 | 0/E7DA7780               |            3889854336

 2017-02-08 02:53:01.276678+01 | 1486518781.27668 | 0/E7DA7780               |            3889854336

 2017-02-08 02:53:02.555314+01 | 1486518782.55531 | 0/E7DA7780               |            3889854336

 2017-02-08 02:53:03.79677+01 | 1486518783.79677 | 0/E7DA7780               |            3889854336

 2017-02-08 02:53:05.093779+01 | 1486518785.09378 | 0/E7DA7780               |            3889854336

 2017-02-08 02:53:06.24139+01 | 1486518786.24139 | 0/E7DA7780               |            3889854336

 2017-02-08 02:53:07.514815+01 | 1486518787.51482 | 0/E7DA7780               |            3889854336

 2017-02-08 02:53:08.730628+01 | 1486518788.73063 | 0/E7DA7780               |            3889854336

 2017-02-08 02:53:09.952014+01 | 1486518789.95201 | 0/E7DA7780               |            3889854336

 2017-02-08 02:53:11.178063+01 | 1486518791.17806 | 0/E7DA7780               |            3889854336

 2017-02-08 02:53:12.369626+01 | 1486518792.36963 | 0/E7DA7780               |            3889854336

 2017-02-08 02:53:13.550738+01 | 1486518793.55074 | 0/E7DA7780               |            3889854336

 2017-02-08 02:53:14.831842+01 | 1486518794.83184 | 0/E7DA7780               |            3889854336

 2017-02-08 02:53:16.063449+01 | 1486518796.06345 | 0/E7DA7780               |            3889854336

 2017-02-08 02:53:17.314655+01 | 1486518797.31466 | 0/E7DA7780               |            3889854336

 2017-02-08 02:53:18.512424+01 | 1486518798.51242 | 0/E7DA7780               |            3889854336

 2017-02-08 02:53:19.711536+01 | 1486518799.71154 | 0/E7DA7780               |            3889854336

 2017-02-08 02:53:20.975765+01 | 1486518800.97576 | 0/E7DA7780               |            3889854336

 2017-02-08 02:53:22.16525+01 | 1486518802.16525 | 0/E7DA7780               |            3889854336

 2017-02-08 02:53:23.405191+01 | 1486518803.40519 | 0/E7DA7780               |            3889854336

 2017-02-08 02:53:24.605926+01 | 1486518804.60593 | 0/E7DA7780               |            3889854336

 2017-02-08 02:53:25.811726+01 | 1486518805.81173 | 0/E7DA7780               |            3889854336

 2017-02-08 02:53:27.042722+01 | 1486518807.04272 | 0/E7DA7780               |            3889854336

 2017-02-08 02:53:28.291499+01 | 1486518808.2915 | 0/E7DA7780               |            3889854336

 2017-02-08 02:53:29.508986+01 | 1486518809.50899 | 0/E7DA7780               |            3889854336

 2017-02-08 02:53:30.67987+01 | 1486518810.67987 | 0/E7DA7780               |            3889854336

 2017-02-08 02:53:31.974085+01 | 1486518811.97409 | 0/E7DA7780               |            3889854336

 2017-02-08 02:53:33.227995+01 | 1486518813.22799 | 0/E7DA7780               |            3889854336

 2017-02-08 02:53:34.496105+01 | 1486518814.4961 | 0/E7DA7780               |            3889854336

 2017-02-08 02:53:35.78685+01 | 1486518815.78685 | 0/E7DA7780               |            3889854336

 2017-02-08 02:53:37.037142+01 | 1486518817.03714 | 0/E7DA7780               |            3889854336

 2017-02-08 02:53:38.291864+01 | 1486518818.29186 | 0/E7DA7780               |            3889854336

 2017-02-08 02:53:39.565649+01 | 1486518819.56565 | 0/E7DA7780               |            3889854336

 2017-02-08 02:53:40.735279+01 | 1486518820.73528 | 0/E7DA7780               |            3889854336

 2017-02-08 02:53:42.01898+01 | 1486518822.01898 | 0/E7DA7780               |            3889854336

 2017-02-08 02:53:43.283416+01 | 1486518823.28342 | 0/E7DA7780               |            3889854336

 2017-02-08 02:53:44.529277+01 | 1486518824.52928 | 0/E7DA7780               |            3889854336

 2017-02-08 02:53:45.755254+01 | 1486518825.75525 | 0/E7DA7780               |            3889854336

 2017-02-08 02:53:46.9896+01 | 1486518826.9896 | 0/E7DA7780               |            3889854336

 2017-02-08 02:53:48.201089+01 | 1486518828.20109 | 0/E7DA7780               |            3889854336

 2017-02-08 02:53:49.453149+01 | 1486518829.45315 | 0/E7DA7780               |            3889854336

 2017-02-08 02:53:50.660559+01 | 1486518830.66056 | 0/E7DA7780               |            3889854336

 2017-02-08 02:53:51.933032+01 | 1486518831.93303 | 0/E7DA7780               |            3889854336

 2017-02-08 02:53:53.229225+01 | 1486518833.22922 | 0/E7DA7780               |            3889854336

 2017-02-08 02:53:54.491022+01 | 1486518834.49102 | 0/E7DA7780               |            3889854336

 2017-02-08 02:53:55.730367+01 | 1486518835.73037 | 0/E7DA7780               |            3889854336

 2017-02-08 02:53:57.008081+01 | 1486518837.00808 | 0/E7DA7780               |            3889854336

 2017-02-08 02:53:58.2271+01 | 1486518838.2271 | 0/E7DA7780               |            3889854336

 2017-02-08 02:53:59.448273+01 | 1486518839.44827 | 0/E7DA7780               |            3889854336

 2017-02-08 02:54:00.730605+01 | 1486518840.7306 | 0/E7DA7780               |            3889854336

 2017-02-08 02:54:01.930929+01 | 1486518841.93093 | 0/E7DA7780               |            3889854336

 2017-02-08 02:54:03.178626+01 | 1486518843.17863 | 0/E7DA7780               |            3889854336

 2017-02-08 02:54:04.408799+01 | 1486518844.4088 | 0/E7DA7780               |            3889854336

 2017-02-08 02:54:05.653623+01 | 1486518845.65362 | 0/E7DA7780               |            3889854336

 2017-02-08 02:54:06.891924+01 | 1486518846.89192 | 0/E7DA7780               |            3889854336

 2017-02-08 02:54:08.105029+01 | 1486518848.10503 | 0/E7DA7780               |            3889854336

 2017-02-08 02:54:09.3451+01 | 1486518849.3451 | 0/E7DA7780               |            3889854336

 2017-02-08 02:54:10.557299+01 | 1486518850.5573 | 0/E7DA7780               |            3889854336

 2017-02-08 02:54:11.844105+01 | 1486518851.84411 | 0/E7DA7780               |            3889854336

 2017-02-08 02:54:13.093652+01 | 1486518853.09365 | 0/E7DA7780               |            3889854336

 2017-02-08 02:54:14.30067+01 | 1486518854.30067 | 0/E7DA7780               |            3889854336

 2017-02-08 02:54:15.549078+01 | 1486518855.54908 | 0/E7DA7780               |            3889854336

 2017-02-08 02:54:16.768116+01 | 1486518856.76812 | 0/E7DA7780               |            3889854336

 2017-02-08 02:54:17.977661+01 | 1486518857.97766 | 0/E7DA7780               |            3889854336

 2017-02-08 02:54:19.235357+01 | 1486518859.23536 | 0/E7DA7780               |            3889854336

 2017-02-08 02:54:20.492702+01 | 1486518860.4927 | 0/E7DA7780               |            3889854336

 2017-02-08 02:54:21.769091+01 | 1486518861.76909 | 0/E7DA7780               |            3889854336

 2017-02-08 02:54:23.080495+01 | 1486518863.0805 | 0/E7DA7780               |            3889854336

 2017-02-08 02:54:24.326173+01 | 1486518864.32617 | 0/E7DA7780               |            3889854336

 2017-02-08 02:54:25.538113+01 | 1486518865.53811 | 0/E7DA7780               |            3889854336

 2017-02-08 02:54:26.820936+01 | 1486518866.82094 | 0/E7DA7780               |            3889854336

 2017-02-08 02:54:28.048962+01 | 1486518868.04896 | 0/E7DA7780               |            3889854336

 2017-02-08 02:54:29.28514+01 | 1486518869.28514 | 0/E7DA7780               |            3889854336

 2017-02-08 02:54:30.504282+01 | 1486518870.50428 | 0/E7DA7780               |            3889854336

 2017-02-08 02:54:31.646731+01 | 1486518871.64673 | 0/E7DA7780               |            3889854336

 2017-02-08 02:54:32.922711+01 | 1486518872.92271 | 0/E7DA7780               |            3889854336

 2017-02-08 02:54:34.108514+01 | 1486518874.10851 | 0/E7DA7780               |            3889854336

 2017-02-08 02:54:35.35919+01 | 1486518875.35919 | 0/E7DA7780               |            3889854336

 2017-02-08 02:54:36.620278+01 | 1486518876.62028 | 0/E7DA7780               |            3889854336

 2017-02-08 02:54:37.901056+01 | 1486518877.90106 | 0/E7DA7780               |            3889854336

 2017-02-08 02:54:39.164412+01 | 1486518879.16441 | 0/E7DA7780               |            3889854336

 2017-02-08 02:54:40.429615+01 | 1486518880.42962 | 0/E7DA7780               |            3889854336

 2017-02-08 02:54:41.625028+01 | 1486518881.62503 | 0/E7DA7780               |            3889854336

 2017-02-08 02:54:42.820914+01 | 1486518882.82091 | 0/E7DA7780               |            3889854336

 2017-02-08 02:54:44.054703+01 | 1486518884.0547 | 0/E7DA7780               |            3889854336

 2017-02-08 02:54:45.283077+01 | 1486518885.28308 | 0/E7DA7780               |            3889854336

 2017-02-08 02:54:46.476806+01 | 1486518886.47681 | 0/E7DA7780               |            3889854336

 2017-02-08 02:54:47.713382+01 | 1486518887.71338 | 0/E7DA7780               |            3889854336

 2017-02-08 02:54:48.939528+01 | 1486518888.93953 | 0/E7DA7780               |            3889854336

 2017-02-08 02:54:50.147402+01 | 1486518890.1474 | 0/E7DA7780               |            3889854336

 2017-02-08 02:54:51.426297+01 | 1486518891.4263 | 0/E7DA7780               |            3889854336

 2017-02-08 02:54:52.647804+01 | 1486518892.6478 | 0/E7DA7780               |            3889854336

 2017-02-08 02:54:53.911538+01 | 1486518893.91154 | 0/E7DA7780               |            3889854336

 2017-02-08 02:54:55.09703+01 | 1486518895.09703 | 0/E7DA7780               |            3889854336

 2017-02-08 02:54:56.328237+01 | 1486518896.32824 | 0/E7DA7780               |            3889854336

 2017-02-08 02:54:57.580257+01 | 1486518897.58026 | 0/E7DA7780               |            3889854336

 2017-02-08 02:54:58.777053+01 | 1486518898.77705 | 0/E7DA7780               |            3889854336

 2017-02-08 02:55:00.004327+01 | 1486518900.00433 | 0/E7DA7780               |            3889854336

 2017-02-08 02:55:01.286122+01 | 1486518901.28612 | 0/E7DA7780               |            3889854336

 2017-02-08 02:55:02.529358+01 | 1486518902.52936 | 0/E7DA7780               |            3889854336

 2017-02-08 02:55:03.764927+01 | 1486518903.76493 | 0/E7DA7780               |            3889854336

 2017-02-08 02:55:04.935281+01 | 1486518904.93528 | 0/E7DA7780               |            3889854336

 2017-02-08 02:55:06.13884+01 | 1486518906.13884 | 0/E7DA7780               |            3889854336

 2017-02-08 02:55:07.457588+01 | 1486518907.45759 | 0/E7DA7780               |            3889854336

 2017-02-08 02:55:08.682526+01 | 1486518908.68253 | 0/E7DA7780               |            3889854336

 2017-02-08 02:55:09.905127+01 | 1486518909.90513 | 0/E7DA7780               |            3889854336

 2017-02-08 02:55:11.122824+01 | 1486518911.12282 | 0/E7DA7780               |            3889854336

 2017-02-08 02:55:12.360623+01 | 1486518912.36062 | 0/E7DA7780               |            3889854336

 2017-02-08 02:55:13.574468+01 | 1486518913.57447 | 0/E7DA7780               |            3889854336

 2017-02-08 02:55:14.730808+01 | 1486518914.73081 | 0/E7DA7780               |            3889854336

 2017-02-08 02:55:15.958352+01 | 1486518915.95835 | 0/E7DA7780               |            3889854336

 2017-02-08 02:55:17.222791+01 | 1486518917.22279 | 0/E7DA7780               |            3889854336

 2017-02-08 02:55:18.468016+01 | 1486518918.46802 | 0/E7DA7780               |            3889854336

 2017-02-08 02:55:19.688943+01 | 1486518919.68894 | 0/E7DA7780               |            3889854336

 2017-02-08 02:55:20.924005+01 | 1486518920.92401 | 0/E7DA7780               |            3889854336

 2017-02-08 02:55:22.122511+01 | 1486518922.12251 | 0/E7DA7780               |            3889854336

 2017-02-08 02:55:23.326885+01 | 1486518923.32688 | 0/E7DA7780               |            3889854336

 2017-02-08 02:55:24.57569+01 | 1486518924.57569 | 0/E7DA7780               |            3889854336

 2017-02-08 02:55:25.820774+01 | 1486518925.82077 | 0/E7DA7780               |            3889854336

 2017-02-08 02:55:27.036869+01 | 1486518927.03687 | 0/E7DA7780               |            3889854336

 2017-02-08 02:55:28.24113+01 | 1486518928.24113 | 0/E7DA7780               |            3889854336

 2017-02-08 02:55:29.488787+01 | 1486518929.48879 | 0/E7DA7780               |            3889854336

 2017-02-08 02:55:30.656998+01 | 1486518930.657 | 0/E7DA7780               |            3889854336

