 2017-02-08 06:32:24.563621+01 | 1486531944.56362 |                 0 |              17 |                    21 |                   46 |                 40 |           515 |                4 |         1473361 |                     0 |     552945736 | 2017-02-08 05:11:31.218687+01

 2017-02-08 06:32:25.901806+01 | 1486531945.90181 |                 0 |              17 |                    21 |                   46 |                 40 |           518 |                4 |         1473361 |                     0 |     553078434 | 2017-02-08 05:11:31.218687+01

 2017-02-08 06:32:27.221244+01 | 1486531947.22124 |                 0 |              17 |                    21 |                   46 |                 40 |           519 |                4 |         1473361 |                     0 |     553235264 | 2017-02-08 05:11:31.218687+01

 2017-02-08 06:32:28.493876+01 | 1486531948.49388 |                 0 |              17 |                    21 |                   46 |                 40 |           519 |                4 |         1473361 |                     0 |     553370718 | 2017-02-08 05:11:31.218687+01

 2017-02-08 06:32:29.801905+01 | 1486531949.8019 |                 0 |              17 |                    21 |                   46 |                 40 |           519 |                4 |         1473361 |                     0 |     553531093 | 2017-02-08 05:11:31.218687+01

 2017-02-08 06:32:31.147731+01 | 1486531951.14773 |                 0 |              17 |                    21 |                   46 |                 40 |           519 |                4 |         1473361 |                     0 |     553670162 | 2017-02-08 05:11:31.218687+01

 2017-02-08 06:32:32.572161+01 | 1486531952.57216 |                 0 |              17 |                    21 |                   46 |                 40 |           519 |                4 |         1473361 |                     0 |     553836939 | 2017-02-08 05:11:31.218687+01

 2017-02-08 06:32:33.893079+01 | 1486531953.89308 |                 0 |              17 |                    21 |                   46 |                 40 |           519 |                4 |         1473361 |                     0 |     554000280 | 2017-02-08 05:11:31.218687+01

 2017-02-08 06:32:35.21302+01 | 1486531955.21302 |                 0 |              17 |                    21 |                   46 |                 40 |           519 |                4 |         1473361 |                     0 |     554140551 | 2017-02-08 05:11:31.218687+01

 2017-02-08 06:32:36.553707+01 | 1486531956.55371 |                 0 |              17 |                    21 |                   46 |                 40 |           519 |                4 |         1473361 |                     0 |     554306179 | 2017-02-08 05:11:31.218687+01

 2017-02-08 06:32:37.816478+01 | 1486531957.81648 |                 0 |              17 |                    21 |                   46 |                 40 |           519 |                4 |         1473361 |                     0 |     554470607 | 2017-02-08 05:11:31.218687+01

 2017-02-08 06:32:39.158149+01 | 1486531959.15815 |                 0 |              17 |                    21 |                   46 |                 40 |           519 |                4 |         1473361 |                     0 |     554611214 | 2017-02-08 05:11:31.218687+01

 2017-02-08 06:32:40.515348+01 | 1486531960.51535 |                 0 |              17 |                    21 |                   46 |                 40 |           519 |                4 |         1473361 |                     0 |     554775065 | 2017-02-08 05:11:31.218687+01

 2017-02-08 06:32:41.895743+01 | 1486531961.89574 |                 0 |              17 |                    21 |                   46 |                 40 |           519 |                4 |         1473361 |                     0 |     554915226 | 2017-02-08 05:11:31.218687+01

 2017-02-08 06:32:43.211818+01 | 1486531963.21182 |                 0 |              17 |                    21 |                   46 |                 40 |           519 |                4 |         1473361 |                     0 |     555081405 | 2017-02-08 05:11:31.218687+01

 2017-02-08 06:32:44.554789+01 | 1486531964.55479 |                 0 |              17 |                    21 |                   46 |                 40 |           519 |                4 |         1473361 |                     0 |     555248198 | 2017-02-08 05:11:31.218687+01

 2017-02-08 06:32:45.948537+01 | 1486531965.94854 |                 0 |              17 |                    21 |                   46 |                 40 |           519 |                4 |         1473361 |                     0 |     555411892 | 2017-02-08 05:11:31.218687+01

 2017-02-08 06:32:47.328448+01 | 1486531967.32845 |                 0 |              17 |                    21 |                   46 |                 40 |           519 |                4 |         1473361 |                     0 |     555553686 | 2017-02-08 05:11:31.218687+01

 2017-02-08 06:32:48.752204+01 | 1486531968.7522 |                 0 |              17 |                    21 |                   46 |                 40 |           519 |                4 |         1473361 |                     0 |     555717219 | 2017-02-08 05:11:31.218687+01

 2017-02-08 06:32:50.12621+01 | 1486531970.12621 |                 0 |              17 |                    21 |                   46 |                 40 |           519 |                4 |         1473361 |                     0 |     555901058 | 2017-02-08 05:11:31.218687+01

 2017-02-08 06:32:51.458469+01 | 1486531971.45847 |                 0 |              17 |                    21 |                   46 |                 40 |           519 |                4 |         1473361 |                     0 |     556045602 | 2017-02-08 05:11:31.218687+01

 2017-02-08 06:32:52.822462+01 | 1486531972.82246 |                 0 |              17 |                    21 |                   46 |                 40 |           519 |                4 |         1473361 |                     0 |     556211498 | 2017-02-08 05:11:31.218687+01

 2017-02-08 06:32:54.195441+01 | 1486531974.19544 |                 0 |              17 |                    21 |                   46 |                 40 |           519 |                4 |         1473361 |                     0 |     556378657 | 2017-02-08 05:11:31.218687+01

 2017-02-08 06:32:55.560325+01 | 1486531975.56032 |                 0 |              17 |                    21 |                   46 |                 40 |           519 |                4 |         1473361 |                     0 |     556519759 | 2017-02-08 05:11:31.218687+01

 2017-02-08 06:32:56.903754+01 | 1486531976.90375 |                 0 |              17 |                    21 |                   46 |                 40 |           519 |                4 |         1473361 |                     0 |     556688358 | 2017-02-08 05:11:31.218687+01

 2017-02-08 06:32:58.310776+01 | 1486531978.31078 |                 0 |              17 |                    21 |                   46 |                 40 |           519 |                4 |         1473361 |                     0 |     556853649 | 2017-02-08 05:11:31.218687+01

 2017-02-08 06:32:59.649812+01 | 1486531979.64981 |                 0 |              17 |                    21 |                   46 |                 40 |           519 |                4 |         1473361 |                     0 |     557019671 | 2017-02-08 05:11:31.218687+01

 2017-02-08 06:33:00.955976+01 | 1486531980.95598 |                 0 |              17 |                    21 |                   46 |                 40 |           519 |                4 |         1473361 |                     0 |     557163048 | 2017-02-08 05:11:31.218687+01

 2017-02-08 06:33:02.329689+01 | 1486531982.32969 |                 0 |              17 |                    21 |                   46 |                 40 |           519 |                4 |         1473361 |                     0 |     557329295 | 2017-02-08 05:11:31.218687+01

 2017-02-08 06:33:03.696726+01 | 1486531983.69673 |                 0 |              17 |                    21 |                   46 |                 40 |           519 |                4 |         1473361 |                     0 |     557518444 | 2017-02-08 05:11:31.218687+01

 2017-02-08 06:33:05.021379+01 | 1486531985.02138 |                 0 |              17 |                    21 |                   46 |                 40 |           519 |                4 |         1473361 |                     0 |     557662240 | 2017-02-08 05:11:31.218687+01

 2017-02-08 06:33:06.346485+01 | 1486531986.34648 |                 0 |              17 |                    21 |                   46 |                 40 |           519 |                4 |         1473361 |                     0 |     557805942 | 2017-02-08 05:11:31.218687+01

 2017-02-08 06:33:07.67044+01 | 1486531987.67044 |                 0 |              17 |                    21 |                   46 |                 40 |           519 |                4 |         1473361 |                     0 |     557972596 | 2017-02-08 05:11:31.218687+01

 2017-02-08 06:33:09.031411+01 | 1486531989.03141 |                 0 |              17 |                    21 |                   46 |                 40 |           519 |                4 |         1473361 |                     0 |     558114872 | 2017-02-08 05:11:31.218687+01

 2017-02-08 06:33:10.36171+01 | 1486531990.36171 |                 0 |              17 |                    21 |                   46 |                 40 |           519 |                4 |         1473361 |                     0 |     558278998 | 2017-02-08 05:11:31.218687+01

 2017-02-08 06:33:11.670097+01 | 1486531991.6701 |                 0 |              17 |                    21 |                   46 |                 40 |           519 |                4 |         1473361 |                     0 |     558421275 | 2017-02-08 05:11:31.218687+01

 2017-02-08 06:33:12.949497+01 | 1486531992.9495 |                 0 |              17 |                    21 |                   46 |                 40 |           519 |                4 |         1473361 |                     0 |     558588276 | 2017-02-08 05:11:31.218687+01

 2017-02-08 06:33:14.324358+01 | 1486531994.32436 |                 0 |              17 |                    21 |                   46 |                 40 |           519 |                4 |         1473361 |                     0 |     558728318 | 2017-02-08 05:11:31.218687+01

 2017-02-08 06:33:15.71642+01 | 1486531995.71642 |                 0 |              17 |                    21 |                   46 |                 40 |           519 |                4 |         1473361 |                     0 |     558889619 | 2017-02-08 05:11:31.218687+01

 2017-02-08 06:33:17.114034+01 | 1486531997.11403 |                 0 |              17 |                    21 |                   46 |                 40 |           519 |                4 |         1473361 |                     0 |     559051933 | 2017-02-08 05:11:31.218687+01

 2017-02-08 06:33:18.461829+01 | 1486531998.46183 |                 0 |              17 |                    21 |                   46 |                 40 |           519 |                4 |         1473361 |                     0 |     559219267 | 2017-02-08 05:11:31.218687+01

 2017-02-08 06:33:19.843167+01 | 1486531999.84317 |                 0 |              17 |                    21 |                   46 |                 40 |           519 |                4 |         1473361 |                     0 |     559381363 | 2017-02-08 05:11:31.218687+01

 2017-02-08 06:33:21.190257+01 | 1486532001.19026 |                 0 |              17 |                    21 |                   46 |                 40 |           519 |                4 |         1473361 |                     0 |     559547387 | 2017-02-08 05:11:31.218687+01

 2017-02-08 06:33:22.527924+01 | 1486532002.52792 |                 0 |              17 |                    21 |                   46 |                 40 |           519 |                4 |         1473361 |                     0 |     559690118 | 2017-02-08 05:11:31.218687+01

 2017-02-08 06:33:23.84391+01 | 1486532003.84391 |                 0 |              17 |                    21 |                   46 |                 40 |           519 |                4 |         1473361 |                     0 |     559858427 | 2017-02-08 05:11:31.218687+01

 2017-02-08 06:33:25.180943+01 | 1486532005.18094 |                 0 |              17 |                    21 |                   46 |                 40 |           519 |                4 |         1473361 |                     0 |     560003965 | 2017-02-08 05:11:31.218687+01

 2017-02-08 06:33:26.5485+01 | 1486532006.5485 |                 0 |              17 |                    21 |                   46 |                 40 |           519 |                4 |         1473361 |                     0 |     560170458 | 2017-02-08 05:11:31.218687+01

 2017-02-08 06:33:27.926218+01 | 1486532007.92622 |                 0 |              17 |                    21 |                   46 |                 40 |           519 |                4 |         1473361 |                     0 |     560334721 | 2017-02-08 05:11:31.218687+01

 2017-02-08 06:33:29.359655+01 | 1486532009.35965 |                 0 |              17 |                    21 |                   46 |                 40 |           519 |                4 |         1473361 |                     0 |     560496285 | 2017-02-08 05:11:31.218687+01

 2017-02-08 06:33:30.762349+01 | 1486532010.76235 |                 0 |              17 |                    21 |                   46 |                 40 |           519 |                4 |         1473361 |                     0 |     560657916 | 2017-02-08 05:11:31.218687+01

 2017-02-08 06:33:32.09307+01 | 1486532012.09307 |                 0 |              17 |                    21 |                   46 |                 40 |           519 |                4 |         1473361 |                     0 |     560821921 | 2017-02-08 05:11:31.218687+01

 2017-02-08 06:33:33.469461+01 | 1486532013.46946 |                 0 |              17 |                    21 |                   46 |                 40 |           519 |                4 |         1473361 |                     0 |     560965739 | 2017-02-08 05:11:31.218687+01

 2017-02-08 06:33:34.887143+01 | 1486532014.88714 |                 0 |              17 |                    21 |                   46 |                 40 |           519 |                4 |         1473361 |                     0 |     561131757 | 2017-02-08 05:11:31.218687+01

 2017-02-08 06:33:36.251854+01 | 1486532016.25185 |                 0 |              17 |                    21 |                   46 |                 40 |           519 |                4 |         1473361 |                     0 |     561295404 | 2017-02-08 05:11:31.218687+01

 2017-02-08 06:33:37.62034+01 | 1486532017.62034 |                 0 |              17 |                    21 |                   46 |                 40 |           519 |                4 |         1473361 |                     0 |     561461616 | 2017-02-08 05:11:31.218687+01

 2017-02-08 06:33:39.028097+01 | 1486532019.0281 |                 0 |              17 |                    21 |                   46 |                 40 |           519 |                4 |         1473361 |                     0 |     561627525 | 2017-02-08 05:11:31.218687+01

 2017-02-08 06:33:40.405462+01 | 1486532020.40546 |                 0 |              17 |                    21 |                   46 |                 40 |           519 |                4 |         1473361 |                     0 |     561793841 | 2017-02-08 05:11:31.218687+01

 2017-02-08 06:33:41.738156+01 | 1486532021.73816 |                 0 |              17 |                    21 |                   46 |                 40 |           519 |                4 |         1473361 |                     0 |     561959501 | 2017-02-08 05:11:31.218687+01

 2017-02-08 06:33:43.151267+01 | 1486532023.15127 |                 0 |              17 |                    21 |                   46 |                 40 |           519 |                4 |         1473361 |                     0 |     562103617 | 2017-02-08 05:11:31.218687+01

 2017-02-08 06:33:44.531342+01 | 1486532024.53134 |                 0 |              17 |                    21 |                   46 |                 40 |           519 |                4 |         1473361 |                     0 |     562270661 | 2017-02-08 05:11:31.218687+01

 2017-02-08 06:33:45.930725+01 | 1486532025.93073 |                 0 |              17 |                    21 |                   46 |                 40 |           519 |                4 |         1473361 |                     0 |     562437327 | 2017-02-08 05:11:31.218687+01

 2017-02-08 06:33:47.283379+01 | 1486532027.28338 |                 0 |              17 |                    21 |                   46 |                 40 |           519 |                4 |         1473361 |                     0 |     562603654 | 2017-02-08 05:11:31.218687+01

 2017-02-08 06:33:48.636276+01 | 1486532028.63628 |                 0 |              17 |                    21 |                   46 |                 40 |           519 |                4 |         1473361 |                     0 |     562771047 | 2017-02-08 05:11:31.218687+01

 2017-02-08 06:33:49.949168+01 | 1486532029.94917 |                 0 |              17 |                    21 |                   46 |                 40 |           519 |                4 |         1473361 |                     0 |     562935289 | 2017-02-08 05:11:31.218687+01

 2017-02-08 06:33:51.19421+01 | 1486532031.19421 |                 0 |              17 |                    21 |                   46 |                 40 |           519 |                4 |         1473361 |                     0 |     563079962 | 2017-02-08 05:11:31.218687+01

 2017-02-08 06:33:52.57564+01 | 1486532032.57564 |                 0 |              17 |                    21 |                   46 |                 40 |           519 |                4 |         1473361 |                     0 |     563222739 | 2017-02-08 05:11:31.218687+01

 2017-02-08 06:33:53.934409+01 | 1486532033.93441 |                 0 |              17 |                    21 |                   46 |                 40 |           519 |                4 |         1473361 |                     0 |     563389898 | 2017-02-08 05:11:31.218687+01

 2017-02-08 06:33:55.326586+01 | 1486532035.32659 |                 0 |              17 |                    21 |                   46 |                 40 |           519 |                4 |         1473361 |                     0 |     563556319 | 2017-02-08 05:11:31.218687+01

 2017-02-08 06:33:56.705266+01 | 1486532036.70527 |                 0 |              17 |                    21 |                   46 |                 40 |           519 |                4 |         1473361 |                     0 |     563723142 | 2017-02-08 05:11:31.218687+01

 2017-02-08 06:33:58.121126+01 | 1486532038.12113 |                 0 |              17 |                    21 |                   46 |                 40 |           519 |                4 |         1473361 |                     0 |     563890275 | 2017-02-08 05:11:31.218687+01

 2017-02-08 06:33:59.486787+01 | 1486532039.48679 |                 0 |              17 |                    21 |                   46 |                 40 |           519 |                4 |         1473361 |                     0 |     564055939 | 2017-02-08 05:11:31.218687+01

 2017-02-08 06:34:00.865697+01 | 1486532040.8657 |                 0 |              17 |                    21 |                   46 |                 40 |           519 |                4 |         1473361 |                     0 |     564198298 | 2017-02-08 05:11:31.218687+01

 2017-02-08 06:34:02.181199+01 | 1486532042.1812 |                 0 |              17 |                    21 |                   46 |                 40 |           519 |                4 |         1473361 |                     0 |     564365274 | 2017-02-08 05:11:31.218687+01

 2017-02-08 06:34:03.537518+01 | 1486532043.53752 |                 0 |              17 |                    21 |                   46 |                 40 |           519 |                4 |         1473361 |                     0 |     564528215 | 2017-02-08 05:11:31.218687+01

 2017-02-08 06:34:04.850102+01 | 1486532044.8501 |                 0 |              17 |                    21 |                   46 |                 40 |           519 |                4 |         1473361 |                     0 |     564670801 | 2017-02-08 05:11:31.218687+01

 2017-02-08 06:34:06.210338+01 | 1486532046.21034 |                 0 |              17 |                    21 |                   46 |                 40 |           519 |                4 |         1473361 |                     0 |     564841519 | 2017-02-08 05:11:31.218687+01

 2017-02-08 06:34:07.585048+01 | 1486532047.58505 |                 0 |              17 |                    21 |                   46 |                 40 |           519 |                4 |         1473361 |                     0 |     565007701 | 2017-02-08 05:11:31.218687+01

 2017-02-08 06:34:08.934866+01 | 1486532048.93487 |                 0 |              17 |                    21 |                   46 |                 40 |           519 |                4 |         1473361 |                     0 |     565147669 | 2017-02-08 05:11:31.218687+01

 2017-02-08 06:34:10.31556+01 | 1486532050.31556 |                 0 |              17 |                    21 |                   46 |                 40 |           519 |                4 |         1473361 |                     0 |     565317450 | 2017-02-08 05:11:31.218687+01

 2017-02-08 06:34:11.603811+01 | 1486532051.60381 |                 0 |              17 |                    21 |                   46 |                 40 |           519 |                4 |         1473361 |                     0 |     565483092 | 2017-02-08 05:11:31.218687+01

 2017-02-08 06:34:12.957169+01 | 1486532052.95717 |                 0 |              17 |                    21 |                   46 |                 40 |           519 |                4 |         1473361 |                     0 |     565622648 | 2017-02-08 05:11:31.218687+01

 2017-02-08 06:34:14.28235+01 | 1486532054.28235 |                 0 |              17 |                    21 |                   46 |                 40 |           519 |                4 |         1473361 |                     0 |     565788170 | 2017-02-08 05:11:31.218687+01

 2017-02-08 06:34:15.670293+01 | 1486532055.67029 |                 0 |              17 |                    21 |                   46 |                 40 |           519 |                4 |         1473361 |                     0 |     565951151 | 2017-02-08 05:11:31.218687+01

 2017-02-08 06:34:17.031041+01 | 1486532057.03104 |                 0 |              17 |                    21 |                   46 |                 40 |           519 |                4 |         1473361 |                     0 |     566116724 | 2017-02-08 05:11:31.218687+01

 2017-02-08 06:34:18.351369+01 | 1486532058.35137 |                 0 |              17 |                    21 |                   46 |                 40 |           519 |                4 |         1473361 |                     0 |     566260975 | 2017-02-08 05:11:31.218687+01

 2017-02-08 06:34:19.740281+01 | 1486532059.74028 |                 0 |              17 |                    21 |                   46 |                 40 |           519 |                4 |         1473361 |                     0 |     566427592 | 2017-02-08 05:11:31.218687+01

 2017-02-08 06:34:21.131239+01 | 1486532061.13124 |                 0 |              17 |                    21 |                   46 |                 40 |           519 |                4 |         1473361 |                     0 |     566595282 | 2017-02-08 05:11:31.218687+01

 2017-02-08 06:34:22.509889+01 | 1486532062.50989 |                 0 |              17 |                    21 |                   46 |                 40 |           519 |                4 |         1473361 |                     0 |     566762364 | 2017-02-08 05:11:31.218687+01

 2017-02-08 06:34:23.879032+01 | 1486532063.87903 |                 0 |              17 |                    21 |                   46 |                 40 |           519 |                4 |         1473361 |                     0 |     566903096 | 2017-02-08 05:11:31.218687+01

 2017-02-08 06:34:25.194751+01 | 1486532065.19475 |                 0 |              17 |                    21 |                   46 |                 40 |           519 |                4 |         1473361 |                     0 |     567068176 | 2017-02-08 05:11:31.218687+01

 2017-02-08 06:34:26.599183+01 | 1486532066.59918 |                 0 |              17 |                    21 |                   46 |                 40 |           519 |                4 |         1473361 |                     0 |     567234700 | 2017-02-08 05:11:31.218687+01

 2017-02-08 06:34:27.897647+01 | 1486532067.89765 |                 0 |              17 |                    21 |                   46 |                 40 |           519 |                4 |         1473361 |                     0 |     567401453 | 2017-02-08 05:11:31.218687+01

 2017-02-08 06:34:29.281866+01 | 1486532069.28187 |                 0 |              17 |                    21 |                   46 |                 40 |           519 |                4 |         1473361 |                     0 |     567545278 | 2017-02-08 05:11:31.218687+01

 2017-02-08 06:34:30.678452+01 | 1486532070.67845 |                 0 |              17 |                    21 |                   46 |                 40 |           519 |                4 |         1473361 |                     0 |     567708961 | 2017-02-08 05:11:31.218687+01

 2017-02-08 06:34:31.975919+01 | 1486532071.97592 |                 0 |              17 |                    21 |                   46 |                 40 |           519 |                4 |         1473361 |                     0 |     567871343 | 2017-02-08 05:11:31.218687+01

 2017-02-08 06:34:33.368142+01 | 1486532073.36814 |                 0 |              17 |                    21 |                   46 |                 40 |           519 |                4 |         1473361 |                     0 |     568011861 | 2017-02-08 05:11:31.218687+01

 2017-02-08 06:34:34.770427+01 | 1486532074.77043 |                 0 |              17 |                    21 |                   46 |                 40 |           519 |                4 |         1473361 |                     0 |     568174960 | 2017-02-08 05:11:31.218687+01

 2017-02-08 06:34:36.154378+01 | 1486532076.15438 |                 0 |              17 |                    21 |                   46 |                 40 |           519 |                4 |         1473361 |                     0 |     568339714 | 2017-02-08 05:11:31.218687+01

 2017-02-08 06:34:37.528487+01 | 1486532077.52849 |                 0 |              17 |                    21 |                   46 |                 40 |           519 |                4 |         1473361 |                     0 |     568504180 | 2017-02-08 05:11:31.218687+01

 2017-02-08 06:34:38.898274+01 | 1486532078.89827 |                 0 |              17 |                    21 |                   46 |                 40 |           519 |                4 |         1473361 |                     0 |     568668567 | 2017-02-08 05:11:31.218687+01

 2017-02-08 06:34:40.289428+01 | 1486532080.28943 |                 0 |              17 |                    21 |                   46 |                 40 |           519 |                4 |         1473361 |                     0 |     568832666 | 2017-02-08 05:11:31.218687+01

 2017-02-08 06:34:41.601169+01 | 1486532081.60117 |                 0 |              17 |                    21 |                   46 |                 40 |           519 |                4 |         1473361 |                     0 |     568998990 | 2017-02-08 05:11:31.218687+01

 2017-02-08 06:34:42.955399+01 | 1486532082.9554 |                 0 |              17 |                    21 |                   46 |                 40 |           519 |                4 |         1473361 |                     0 |     569138329 | 2017-02-08 05:11:31.218687+01

 2017-02-08 06:34:44.260409+01 | 1486532084.26041 |                 0 |              17 |                    21 |                   46 |                 40 |           519 |                4 |         1473361 |                     0 |     569300468 | 2017-02-08 05:11:31.218687+01

 2017-02-08 06:34:45.555878+01 | 1486532085.55588 |                 0 |              17 |                    21 |                   46 |                 40 |           519 |                4 |         1473361 |                     0 |     569443938 | 2017-02-08 05:11:31.218687+01

 2017-02-08 06:34:46.957284+01 | 1486532086.95728 |                 0 |              17 |                    21 |                   46 |                 40 |           519 |                4 |         1473361 |                     0 |     569609823 | 2017-02-08 05:11:31.218687+01

 2017-02-08 06:34:48.367011+01 | 1486532088.36701 |                 0 |              17 |                    21 |                   46 |                 40 |           519 |                4 |         1473361 |                     0 |     569776920 | 2017-02-08 05:11:31.218687+01

 2017-02-08 06:34:49.731063+01 | 1486532089.73106 |                 0 |              17 |                    21 |                   46 |                 40 |           519 |                4 |         1473361 |                     0 |     569944912 | 2017-02-08 05:11:31.218687+01

 2017-02-08 06:34:51.125949+01 | 1486532091.12595 |                 0 |              17 |                    21 |                   46 |                 40 |           519 |                4 |         1473361 |                     0 |     570091283 | 2017-02-08 05:11:31.218687+01

 2017-02-08 06:34:52.4807+01 | 1486532092.4807 |                 0 |              17 |                    21 |                   46 |                 40 |           519 |                4 |         1473361 |                     0 |     570257644 | 2017-02-08 05:11:31.218687+01

 2017-02-08 06:34:53.857498+01 | 1486532093.8575 |                 0 |              17 |                    21 |                   46 |                 40 |           519 |                4 |         1473361 |                     0 |     570424486 | 2017-02-08 05:11:31.218687+01

 2017-02-08 06:34:55.228431+01 | 1486532095.22843 |                 0 |              17 |                    21 |                   46 |                 40 |           519 |                4 |         1473361 |                     0 |     570588231 | 2017-02-08 05:11:31.218687+01

 2017-02-08 06:34:56.566771+01 | 1486532096.56677 |                 0 |              17 |                    21 |                   46 |                 40 |           519 |                4 |         1473361 |                     0 |     570754475 | 2017-02-08 05:11:31.218687+01

 2017-02-08 06:34:57.937079+01 | 1486532097.93708 |                 0 |              17 |                    21 |                   46 |                 40 |           519 |                4 |         1473361 |                     0 |     570895835 | 2017-02-08 05:11:31.218687+01

 2017-02-08 06:34:59.328006+01 | 1486532099.32801 |                 0 |              17 |                    21 |                   46 |                 40 |           519 |                4 |         1473361 |                     0 |     571060089 | 2017-02-08 05:11:31.218687+01

 2017-02-08 06:35:00.666912+01 | 1486532100.66691 |                 0 |              17 |                    21 |                   46 |                 40 |           519 |                4 |         1473361 |                     0 |     571227385 | 2017-02-08 05:11:31.218687+01

 2017-02-08 06:35:02.046077+01 | 1486532102.04608 |                 0 |              17 |                    21 |                   46 |                 40 |           519 |                4 |         1473361 |                     0 |     571393855 | 2017-02-08 05:11:31.218687+01

 2017-02-08 06:35:03.402453+01 | 1486532103.40245 |                 0 |              17 |                    21 |                   46 |                 40 |           519 |                4 |         1473361 |                     0 |     571562508 | 2017-02-08 05:11:31.218687+01

 2017-02-08 06:35:04.751265+01 | 1486532104.75127 |                 0 |              17 |                    21 |                   46 |                 40 |           519 |                4 |         1473361 |                     0 |     571701202 | 2017-02-08 05:11:31.218687+01

 2017-02-08 06:35:06.085699+01 | 1486532106.0857 |                 0 |              17 |                    21 |                   46 |                 40 |           519 |                4 |         1473361 |                     0 |     571868445 | 2017-02-08 05:11:31.218687+01

 2017-02-08 06:35:07.432951+01 | 1486532107.43295 |                 0 |              17 |                    21 |                   46 |                 40 |           519 |                4 |         1473361 |                     0 |     572035328 | 2017-02-08 05:11:31.218687+01

 2017-02-08 06:35:08.640012+01 | 1486532108.64001 |                 0 |              17 |                    21 |                   46 |                 40 |           519 |                4 |         1473361 |                     0 |     572177768 | 2017-02-08 05:11:31.218687+01

 2017-02-08 06:35:10.021156+01 | 1486532110.02116 |                 0 |              17 |                    21 |                   46 |                 40 |           519 |                4 |         1473361 |                     0 |     572319647 | 2017-02-08 05:11:31.218687+01

 2017-02-08 06:35:11.333691+01 | 1486532111.33369 |                 0 |              17 |                    21 |                   46 |                 40 |           519 |                4 |         1473361 |                     0 |     572484863 | 2017-02-08 05:11:31.218687+01

 2017-02-08 06:35:12.609345+01 | 1486532112.60934 |                 0 |              17 |                    21 |                   46 |                 40 |           519 |                4 |         1473361 |                     0 |     572628397 | 2017-02-08 05:11:31.218687+01

 2017-02-08 06:35:13.913161+01 | 1486532113.91316 |                 0 |              17 |                    21 |                   46 |                 40 |           519 |                4 |         1473361 |                     0 |     572799373 | 2017-02-08 05:11:31.218687+01

 2017-02-08 06:35:15.298692+01 | 1486532115.29869 |                 0 |              17 |                    21 |                   46 |                 40 |           519 |                4 |         1473361 |                     0 |     572940392 | 2017-02-08 05:11:31.218687+01

 2017-02-08 06:35:16.650334+01 | 1486532116.65033 |                 0 |              17 |                    21 |                   46 |                 40 |           519 |                4 |         1473361 |                     0 |     573107385 | 2017-02-08 05:11:31.218687+01

 2017-02-08 06:35:17.944296+01 | 1486532117.9443 |                 0 |              17 |                    21 |                   46 |                 40 |           519 |                4 |         1473361 |                     0 |     573275070 | 2017-02-08 05:11:31.218687+01

 2017-02-08 06:35:19.266421+01 | 1486532119.26642 |                 0 |              17 |                    21 |                   46 |                 40 |           519 |                4 |         1473361 |                     0 |     573417367 | 2017-02-08 05:11:31.218687+01

 2017-02-08 06:35:20.630138+01 | 1486532120.63014 |                 0 |              17 |                    21 |                   46 |                 40 |           519 |                4 |         1473361 |                     0 |     573583839 | 2017-02-08 05:11:31.218687+01

 2017-02-08 06:35:21.993246+01 | 1486532121.99325 |                 0 |              17 |                    21 |                   46 |                 40 |           519 |                4 |         1473361 |                     0 |     573749710 | 2017-02-08 05:11:31.218687+01

 2017-02-08 06:35:23.338171+01 | 1486532123.33817 |                 0 |              17 |                    21 |                   46 |                 40 |           519 |                4 |         1473361 |                     0 |     573915339 | 2017-02-08 05:11:31.218687+01

 2017-02-08 06:35:24.750819+01 | 1486532124.75082 |                 0 |              17 |                    21 |                   46 |                 40 |           519 |                4 |         1473361 |                     0 |     574057487 | 2017-02-08 05:11:31.218687+01

 2017-02-08 06:35:26.12733+01 | 1486532126.12733 |                 0 |              17 |                    21 |                   46 |                 40 |           519 |                4 |         1473361 |                     0 |     574226416 | 2017-02-08 05:11:31.218687+01

 2017-02-08 06:35:27.438602+01 | 1486532127.4386 |                 0 |              17 |                    21 |                   46 |                 40 |           519 |                4 |         1473361 |                     0 |     574395975 | 2017-02-08 05:11:31.218687+01

 2017-02-08 06:35:28.78156+01 | 1486532128.78156 |                 0 |              17 |                    21 |                   46 |                 40 |           519 |                4 |         1473361 |                     0 |     574562687 | 2017-02-08 05:11:31.218687+01

 2017-02-08 06:35:30.176952+01 | 1486532130.17695 |                 0 |              17 |                    21 |                   46 |                 40 |           519 |                4 |         1473361 |                     0 |     574705332 | 2017-02-08 05:11:31.218687+01

 2017-02-08 06:35:31.51656+01 | 1486532131.51656 |                 0 |              17 |                    21 |                   46 |                 40 |           519 |                4 |         1473361 |                     0 |     574871427 | 2017-02-08 05:11:31.218687+01

 2017-02-08 06:35:32.871096+01 | 1486532132.8711 |                 0 |              17 |                    21 |                   46 |                 40 |           519 |                4 |         1473361 |                     0 |     575036762 | 2017-02-08 05:11:31.218687+01

 2017-02-08 06:35:34.222061+01 | 1486532134.22206 |                 0 |              17 |                    21 |                   46 |                 40 |           519 |                4 |         1473361 |                     0 |     575175184 | 2017-02-08 05:11:31.218687+01

 2017-02-08 06:35:35.633134+01 | 1486532135.63313 |                 0 |              17 |                    21 |                   46 |                 40 |           519 |                4 |         1473361 |                     0 |     575338228 | 2017-02-08 05:11:31.218687+01

 2017-02-08 06:35:37.007568+01 | 1486532137.00757 |                 0 |              17 |                    21 |                   46 |                 40 |           519 |                4 |         1473361 |                     0 |     575500903 | 2017-02-08 05:11:31.218687+01

 2017-02-08 06:35:38.434547+01 | 1486532138.43455 |                 0 |              17 |                    21 |                   46 |                 40 |           519 |                4 |         1473361 |                     0 |     575669310 | 2017-02-08 05:11:31.218687+01

 2017-02-08 06:35:39.83359+01 | 1486532139.83359 |                 0 |              17 |                    21 |                   46 |                 40 |           519 |                4 |         1473361 |                     0 |     575836418 | 2017-02-08 05:11:31.218687+01

 2017-02-08 06:35:41.203699+01 | 1486532141.2037 |                 0 |              17 |                    21 |                   46 |                 40 |           519 |                4 |         1473361 |                     0 |     575999282 | 2017-02-08 05:11:31.218687+01

 2017-02-08 06:35:42.580166+01 | 1486532142.58017 |                 0 |              17 |                    21 |                   46 |                 40 |           519 |                4 |         1473361 |                     0 |     576162660 | 2017-02-08 05:11:31.218687+01

 2017-02-08 06:35:43.921658+01 | 1486532143.92166 |                 0 |              17 |                    21 |                   46 |                 40 |           519 |                4 |         1473361 |                     0 |     576329235 | 2017-02-08 05:11:31.218687+01

 2017-02-08 06:35:45.237073+01 | 1486532145.23707 |                 0 |              17 |                    21 |                   46 |                 40 |           519 |                4 |         1473361 |                     0 |     576472761 | 2017-02-08 05:11:31.218687+01

 2017-02-08 06:35:46.575711+01 | 1486532146.57571 |                 0 |              17 |                    21 |                   46 |                 40 |           519 |                4 |         1473361 |                     0 |     576638895 | 2017-02-08 05:11:31.218687+01

 2017-02-08 06:35:47.943221+01 | 1486532147.94322 |                 0 |              17 |                    21 |                   46 |                 40 |           519 |                4 |         1473361 |                     0 |     576783116 | 2017-02-08 05:11:31.218687+01

 2017-02-08 06:35:49.341055+01 | 1486532149.34105 |                 0 |              17 |                    21 |                   46 |                 40 |           519 |                4 |         1473361 |                     0 |     576949492 | 2017-02-08 05:11:31.218687+01

 2017-02-08 06:35:50.788916+01 | 1486532150.78892 |                 0 |              17 |                    21 |                   46 |                 40 |           519 |                4 |         1473361 |                     0 |     577115949 | 2017-02-08 05:11:31.218687+01

 2017-02-08 06:35:52.158072+01 | 1486532152.15807 |                 0 |              17 |                    21 |                   46 |                 40 |           519 |                4 |         1473361 |                     0 |     577282930 | 2017-02-08 05:11:31.218687+01

 2017-02-08 06:35:53.540071+01 | 1486532153.54007 |                 0 |              17 |                    21 |                   46 |                 40 |           519 |                4 |         1473361 |                     0 |     577450646 | 2017-02-08 05:11:31.218687+01

 2017-02-08 06:35:54.854726+01 | 1486532154.85473 |                 0 |              17 |                    21 |                   46 |                 40 |           519 |                4 |         1473361 |                     0 |     577618482 | 2017-02-08 05:11:31.218687+01

 2017-02-08 06:35:56.221315+01 | 1486532156.22131 |                 0 |              17 |                    21 |                   46 |                 40 |           519 |                4 |         1473361 |                     0 |     577785543 | 2017-02-08 05:11:31.218687+01

 2017-02-08 06:35:57.554759+01 | 1486532157.55476 |                 0 |              17 |                    21 |                   46 |                 40 |           519 |                4 |         1473361 |                     0 |     577927847 | 2017-02-08 05:11:31.218687+01

 2017-02-08 06:35:58.924803+01 | 1486532158.9248 |                 0 |              17 |                    21 |                   46 |                 40 |           519 |                4 |         1473361 |                     0 |     578094418 | 2017-02-08 05:11:31.218687+01

 2017-02-08 06:36:00.312871+01 | 1486532160.31287 |                 0 |              17 |                    21 |                   46 |                 40 |           519 |                4 |         1473361 |                     0 |     578260463 | 2017-02-08 05:11:31.218687+01

 2017-02-08 06:36:01.712045+01 | 1486532161.71204 |                 0 |              17 |                    21 |                   46 |                 40 |           519 |                4 |         1473361 |                     0 |     578422754 | 2017-02-08 05:11:31.218687+01

 2017-02-08 06:36:03.07624+01 | 1486532163.07624 |                 0 |              17 |                    21 |                   46 |                 40 |           519 |                4 |         1473361 |                     0 |     578584839 | 2017-02-08 05:11:31.218687+01

 2017-02-08 06:36:04.449537+01 | 1486532164.44954 |                 0 |              17 |                    21 |                   46 |                 40 |           519 |                4 |         1473361 |                     0 |     578750665 | 2017-02-08 05:11:31.218687+01

 2017-02-08 06:36:05.830639+01 | 1486532165.83064 |                 0 |              17 |                    21 |                   46 |                 40 |           519 |                4 |         1473361 |                     0 |     578892992 | 2017-02-08 05:11:31.218687+01

 2017-02-08 06:36:07.238602+01 | 1486532167.2386 |                 0 |              17 |                    21 |                   46 |                 40 |           519 |                4 |         1473361 |                     0 |     579057286 | 2017-02-08 05:11:31.218687+01

 2017-02-08 06:36:08.595013+01 | 1486532168.59501 |                 0 |              17 |                    21 |                   46 |                 40 |           519 |                4 |         1473361 |                     0 |     579221534 | 2017-02-08 05:11:31.218687+01

 2017-02-08 06:36:09.958686+01 | 1486532169.95869 |                 0 |              17 |                    21 |                   46 |                 40 |           519 |                4 |         1473361 |                     0 |     579388099 | 2017-02-08 05:11:31.218687+01

 2017-02-08 06:36:11.359036+01 | 1486532171.35904 |                 0 |              17 |                    21 |                   46 |                 40 |           519 |                4 |         1473361 |                     0 |     579526890 | 2017-02-08 05:11:31.218687+01

 2017-02-08 06:36:12.699325+01 | 1486532172.69933 |                 0 |              17 |                    21 |                   46 |                 40 |           519 |                4 |         1473361 |                     0 |     579692296 | 2017-02-08 05:11:31.218687+01

 2017-02-08 06:36:14.052896+01 | 1486532174.0529 |                 0 |              17 |                    21 |                   46 |                 40 |           519 |                4 |         1473361 |                     0 |     579857404 | 2017-02-08 05:11:31.218687+01

 2017-02-08 06:36:15.418309+01 | 1486532175.41831 |                 0 |              17 |                    21 |                   46 |                 40 |           519 |                4 |         1473361 |                     0 |     580024195 | 2017-02-08 05:11:31.218687+01

 2017-02-08 06:36:16.751539+01 | 1486532176.75154 |                 0 |              17 |                    21 |                   46 |                 40 |           519 |                4 |         1473361 |                     0 |     580165344 | 2017-02-08 05:11:31.218687+01

 2017-02-08 06:36:18.108458+01 | 1486532178.10846 |                 0 |              17 |                    21 |                   46 |                 40 |           519 |                4 |         1473361 |                     0 |     580329335 | 2017-02-08 05:11:31.218687+01

 2017-02-08 06:36:19.334328+01 | 1486532179.33433 |                 0 |              17 |                    21 |                   46 |                 40 |           519 |                4 |         1473361 |                     0 |     580495394 | 2017-02-08 05:11:31.218687+01

 2017-02-08 06:36:20.703624+01 | 1486532180.70362 |                 0 |              17 |                    21 |                   46 |                 40 |           519 |                4 |         1473361 |                     0 |     580636586 | 2017-02-08 05:11:31.218687+01

 2017-02-08 06:36:22.047529+01 | 1486532182.04753 |                 0 |              17 |                    21 |                   46 |                 40 |           519 |                4 |         1473361 |                     0 |     580799929 | 2017-02-08 05:11:31.218687+01

 2017-02-08 06:36:23.444757+01 | 1486532183.44476 |                 0 |              17 |                    21 |                   46 |                 40 |           519 |                4 |         1473361 |                     0 |     580938582 | 2017-02-08 05:11:31.218687+01

 2017-02-08 06:36:24.868908+01 | 1486532184.86891 |                 0 |              17 |                    21 |                   46 |                 40 |           519 |                4 |         1473361 |                     0 |     581103888 | 2017-02-08 05:11:31.218687+01

 2017-02-08 06:36:26.262517+01 | 1486532186.26252 |                 0 |              17 |                    21 |                   46 |                 40 |           519 |                4 |         1473361 |                     0 |     581270882 | 2017-02-08 05:11:31.218687+01

 2017-02-08 06:36:27.640606+01 | 1486532187.64061 |                 0 |              17 |                    21 |                   46 |                 40 |           519 |                4 |         1473361 |                     0 |     581437413 | 2017-02-08 05:11:31.218687+01

 2017-02-08 06:36:29.01696+01 | 1486532189.01696 |                 0 |              17 |                    21 |                   46 |                 40 |           519 |                4 |         1473361 |                     0 |     581601016 | 2017-02-08 05:11:31.218687+01

 2017-02-08 06:36:30.397868+01 | 1486532190.39787 |                 0 |              17 |                    21 |                   46 |                 40 |           519 |                4 |         1473361 |                     0 |     581763354 | 2017-02-08 05:11:31.218687+01

 2017-02-08 06:36:31.762375+01 | 1486532191.76238 |                 0 |              17 |                    21 |                   46 |                 40 |           519 |                4 |         1473361 |                     0 |     581927537 | 2017-02-08 05:11:31.218687+01

 2017-02-08 06:36:33.125604+01 | 1486532193.1256 |                 0 |              17 |                    21 |                   46 |                 40 |           519 |                4 |         1473361 |                     0 |     582092749 | 2017-02-08 05:11:31.218687+01

 2017-02-08 06:36:34.465394+01 | 1486532194.46539 |                 0 |              17 |                    21 |                   46 |                 40 |           519 |                4 |         1473361 |                     0 |     582233757 | 2017-02-08 05:11:31.218687+01

 2017-02-08 06:36:35.86229+01 | 1486532195.86229 |                 0 |              17 |                    21 |                   46 |                 40 |           519 |                4 |         1473361 |                     0 |     582388713 | 2017-02-08 05:11:31.218687+01

 2017-02-08 06:36:37.217139+01 | 1486532197.21714 |                 0 |              17 |                    21 |                   46 |                 40 |           519 |                4 |         1473361 |                     0 |     582550714 | 2017-02-08 05:11:31.218687+01

 2017-02-08 06:36:38.555077+01 | 1486532198.55508 |                 0 |              17 |                    21 |                   46 |                 40 |           519 |                4 |         1473361 |                     0 |     582693518 | 2017-02-08 05:11:31.218687+01

 2017-02-08 06:36:39.941994+01 | 1486532199.94199 |                 0 |              17 |                    21 |                   46 |                 40 |           519 |                4 |         1473361 |                     0 |     582859853 | 2017-02-08 05:11:31.218687+01

 2017-02-08 06:36:41.311121+01 | 1486532201.31112 |                 0 |              17 |                    21 |                   46 |                 40 |           519 |                4 |         1473361 |                     0 |     583029196 | 2017-02-08 05:11:31.218687+01

 2017-02-08 06:36:42.684277+01 | 1486532202.68428 |                 0 |              17 |                    21 |                   46 |                 40 |           519 |                4 |         1473361 |                     0 |     583195249 | 2017-02-08 05:11:31.218687+01

 2017-02-08 06:36:44.001538+01 | 1486532204.00154 |                 0 |              17 |                    21 |                   46 |                 40 |           519 |                4 |         1473361 |                     0 |     583360441 | 2017-02-08 05:11:31.218687+01

 2017-02-08 06:36:45.376111+01 | 1486532205.37611 |                 0 |              17 |                    21 |                   46 |                 40 |           519 |                4 |         1473361 |                     0 |     583502122 | 2017-02-08 05:11:31.218687+01

 2017-02-08 06:36:46.749487+01 | 1486532206.74949 |                 0 |              17 |                    21 |                   46 |                 40 |           519 |                4 |         1473361 |                     0 |     583668086 | 2017-02-08 05:11:31.218687+01

 2017-02-08 06:36:48.134741+01 | 1486532208.13474 |                 0 |              17 |                    21 |                   46 |                 40 |           519 |                4 |         1473361 |                     0 |     583834254 | 2017-02-08 05:11:31.218687+01

 2017-02-08 06:36:49.485965+01 | 1486532209.48597 |                 0 |              17 |                    21 |                   46 |                 40 |           519 |                4 |         1473361 |                     0 |     584000904 | 2017-02-08 05:11:31.218687+01

 2017-02-08 06:36:50.848636+01 | 1486532210.84864 |                 0 |              17 |                    21 |                   46 |                 40 |           519 |                4 |         1473361 |                     0 |     584167016 | 2017-02-08 05:11:31.218687+01

 2017-02-08 06:36:52.162803+01 | 1486532212.1628 |                 0 |              17 |                    21 |                   46 |                 40 |           519 |                4 |         1473361 |                     0 |     584309593 | 2017-02-08 05:11:31.218687+01

 2017-02-08 06:36:53.496592+01 | 1486532213.49659 |                 0 |              17 |                    21 |                   46 |                 40 |           519 |                4 |         1473361 |                     0 |     584476039 | 2017-02-08 05:11:31.218687+01

 2017-02-08 06:36:54.834412+01 | 1486532214.83441 |                 0 |              17 |                    21 |                   46 |                 40 |           519 |                4 |         1473361 |                     0 |     584617013 | 2017-02-08 05:11:31.218687+01

 2017-02-08 06:36:56.165626+01 | 1486532216.16563 |                 0 |              17 |                    21 |                   46 |                 40 |           519 |                4 |         1473361 |                     0 |     584784322 | 2017-02-08 05:11:31.218687+01

 2017-02-08 06:36:57.482328+01 | 1486532217.48233 |                 0 |              17 |                    21 |                   46 |                 40 |           519 |                4 |         1473361 |                     0 |     584951762 | 2017-02-08 05:11:31.218687+01

 2017-02-08 06:36:58.776897+01 | 1486532218.7769 |                 0 |              17 |                    21 |                   46 |                 40 |           519 |                4 |         1473361 |                     0 |     585091765 | 2017-02-08 05:11:31.218687+01

 2017-02-08 06:37:00.101478+01 | 1486532220.10148 |                 0 |              17 |                    21 |                   46 |                 40 |           519 |                4 |         1473361 |                     0 |     585235574 | 2017-02-08 05:11:31.218687+01

 2017-02-08 06:37:01.490874+01 | 1486532221.49087 |                 0 |              17 |                    21 |                   46 |                 40 |           519 |                4 |         1473361 |                     0 |     585401269 | 2017-02-08 05:11:31.218687+01

 2017-02-08 06:37:02.867964+01 | 1486532222.86796 |                 0 |              17 |                    21 |                   46 |                 40 |           519 |                4 |         1473361 |                     0 |     585566084 | 2017-02-08 05:11:31.218687+01

 2017-02-08 06:37:04.244998+01 | 1486532224.245 |                 0 |              17 |                    21 |                   46 |                 40 |           519 |                4 |         1473361 |                     0 |     585708599 | 2017-02-08 05:11:31.218687+01

 2017-02-08 06:37:05.601053+01 | 1486532225.60105 |                 0 |              17 |                    21 |                   46 |                 40 |           519 |                4 |         1473361 |                     0 |     585900055 | 2017-02-08 05:11:31.218687+01

 2017-02-08 06:37:06.951073+01 | 1486532226.95107 |                 0 |              17 |                    21 |                   46 |                 40 |           519 |                4 |         1473361 |                     0 |     586042720 | 2017-02-08 05:11:31.218687+01

 2017-02-08 06:37:08.319988+01 | 1486532228.31999 |                 0 |              17 |                    21 |                   46 |                 40 |           519 |                4 |         1473361 |                     0 |     586206270 | 2017-02-08 05:11:31.218687+01

 2017-02-08 06:37:09.631668+01 | 1486532229.63167 |                 0 |              17 |                    21 |                   46 |                 40 |           519 |                4 |         1473361 |                     0 |     586369657 | 2017-02-08 05:11:31.218687+01

 2017-02-08 06:37:11.002634+01 | 1486532231.00263 |                 0 |              17 |                    21 |                   46 |                 40 |           519 |                4 |         1473361 |                     0 |     586512513 | 2017-02-08 05:11:31.218687+01

 2017-02-08 06:37:12.286193+01 | 1486532232.28619 |                 0 |              17 |                    21 |                   46 |                 40 |           519 |                4 |         1473361 |                     0 |     586677711 | 2017-02-08 05:11:31.218687+01

 2017-02-08 06:37:13.590346+01 | 1486532233.59035 |                 0 |              17 |                    21 |                   46 |                 40 |           519 |                4 |         1473361 |                     0 |     586822181 | 2017-02-08 05:11:31.218687+01

 2017-02-08 06:37:14.905176+01 | 1486532234.90518 |                 0 |              17 |                    21 |                   46 |                 40 |           519 |                4 |         1473361 |                     0 |     586989256 | 2017-02-08 05:11:31.218687+01

 2017-02-08 06:37:16.161197+01 | 1486532236.1612 |                 0 |              17 |                    21 |                   46 |                 40 |           519 |                4 |         1473361 |                     0 |     587133089 | 2017-02-08 05:11:31.218687+01

 2017-02-08 06:37:17.504014+01 | 1486532237.50401 |                 0 |              17 |                    21 |                   46 |                 40 |           519 |                4 |         1473361 |                     0 |     587302214 | 2017-02-08 05:11:31.218687+01

 2017-02-08 06:37:18.892846+01 | 1486532238.89285 |                 0 |              17 |                    21 |                   46 |                 40 |           519 |                4 |         1473361 |                     0 |     587463581 | 2017-02-08 05:11:31.218687+01

 2017-02-08 06:37:20.271298+01 | 1486532240.2713 |                 0 |              17 |                    21 |                   46 |                 40 |           519 |                4 |         1473361 |                     0 |     587601142 | 2017-02-08 05:11:31.218687+01

 2017-02-08 06:37:21.564963+01 | 1486532241.56496 |                 0 |              17 |                    21 |                   46 |                 40 |           519 |                4 |         1473361 |                     0 |     587767684 | 2017-02-08 05:11:31.218687+01

 2017-02-08 06:37:22.902396+01 | 1486532242.9024 |                 0 |              17 |                    21 |                   46 |                 40 |           519 |                4 |         1473361 |                     0 |     587935043 | 2017-02-08 05:11:31.218687+01

 2017-02-08 06:37:24.248237+01 | 1486532244.24824 |                 0 |              17 |                    21 |                   46 |                 40 |           519 |                4 |         1473361 |                     0 |     588077823 | 2017-02-08 05:11:31.218687+01

