 2017-02-08 02:30:30.893853+01 | 1486517430.89385 |                 0 |               3 |                     5 |                    5 |                 12 |           556 |                5 |         1473194 |                     0 |      73183779 | 2017-02-08 02:19:40.96972+01

 2017-02-08 02:30:32.052261+01 | 1486517432.05226 |                 0 |               3 |                     5 |                    5 |                 12 |           559 |                5 |         1473194 |                     0 |      73301026 | 2017-02-08 02:19:40.96972+01

 2017-02-08 02:30:33.179938+01 | 1486517433.17994 |                 0 |               3 |                     5 |                    5 |                 12 |           559 |                5 |         1473194 |                     0 |      73430569 | 2017-02-08 02:19:40.96972+01

 2017-02-08 02:30:34.292088+01 | 1486517434.29209 |                 0 |               3 |                     5 |                    5 |                 12 |           560 |                5 |         1473194 |                     0 |      73548326 | 2017-02-08 02:19:40.96972+01

 2017-02-08 02:30:35.464124+01 | 1486517435.46412 |                 0 |               3 |                     5 |                    5 |                 12 |           560 |                5 |         1473194 |                     0 |      73661872 | 2017-02-08 02:19:40.96972+01

 2017-02-08 02:30:36.657492+01 | 1486517436.65749 |                 0 |               3 |                     5 |                    5 |                 12 |           560 |                5 |         1473194 |                     0 |      73805734 | 2017-02-08 02:19:40.96972+01

 2017-02-08 02:30:37.849355+01 | 1486517437.84935 |                 0 |               3 |                     5 |                    5 |                 12 |           560 |                5 |         1473194 |                     0 |      73950194 | 2017-02-08 02:19:40.96972+01

 2017-02-08 02:30:39.050085+01 | 1486517439.05009 |                 0 |               3 |                     5 |                    5 |                 12 |           560 |                5 |         1473194 |                     0 |      74093847 | 2017-02-08 02:19:40.96972+01

 2017-02-08 02:30:40.179581+01 | 1486517440.17958 |                 0 |               3 |                     5 |                    5 |                 12 |           560 |                5 |         1473194 |                     0 |      74225841 | 2017-02-08 02:19:40.96972+01

 2017-02-08 02:30:41.344741+01 | 1486517441.34474 |                 0 |               3 |                     5 |                    5 |                 12 |           560 |                5 |         1473194 |                     0 |      74326411 | 2017-02-08 02:19:40.96972+01

 2017-02-08 02:30:42.479198+01 | 1486517442.4792 |                 0 |               3 |                     5 |                    5 |                 12 |           560 |                5 |         1473194 |                     0 |      74465289 | 2017-02-08 02:19:40.96972+01

 2017-02-08 02:30:43.659688+01 | 1486517443.65969 |                 0 |               3 |                     5 |                    5 |                 12 |           560 |                5 |         1473194 |                     0 |      74604663 | 2017-02-08 02:19:40.96972+01

 2017-02-08 02:30:44.826112+01 | 1486517444.82611 |                 0 |               3 |                     5 |                    5 |                 12 |           560 |                5 |         1473194 |                     0 |      74749395 | 2017-02-08 02:19:40.96972+01

 2017-02-08 02:30:46.002314+01 | 1486517446.00231 |                 0 |               3 |                     5 |                    5 |                 12 |           560 |                5 |         1473194 |                     0 |      74863213 | 2017-02-08 02:19:40.96972+01

 2017-02-08 02:30:47.196788+01 | 1486517447.19679 |                 0 |               3 |                     5 |                    5 |                 12 |           560 |                5 |         1473194 |                     0 |      75007941 | 2017-02-08 02:19:40.96972+01

 2017-02-08 02:30:48.350918+01 | 1486517448.35092 |                 0 |               3 |                     5 |                    5 |                 12 |           560 |                5 |         1473194 |                     0 |      75152659 | 2017-02-08 02:19:40.96972+01

 2017-02-08 02:30:49.48146+01 | 1486517449.48146 |                 0 |               3 |                     5 |                    5 |                 12 |           560 |                5 |         1473194 |                     0 |      75292507 | 2017-02-08 02:19:40.96972+01

 2017-02-08 02:30:50.621022+01 | 1486517450.62102 |                 0 |               3 |                     5 |                    5 |                 12 |           560 |                5 |         1473194 |                     0 |      75397349 | 2017-02-08 02:19:40.96972+01

 2017-02-08 02:30:51.745291+01 | 1486517451.74529 |                 0 |               3 |                     5 |                    5 |                 12 |           560 |                5 |         1473194 |                     0 |      75526137 | 2017-02-08 02:19:40.96972+01

 2017-02-08 02:30:52.917649+01 | 1486517452.91765 |                 0 |               3 |                     5 |                    5 |                 12 |           560 |                5 |         1473194 |                     0 |      75666848 | 2017-02-08 02:19:40.96972+01

 2017-02-08 02:30:54.087723+01 | 1486517454.08772 |                 0 |               3 |                     5 |                    5 |                 12 |           560 |                5 |         1473194 |                     0 |      75811830 | 2017-02-08 02:19:40.96972+01

 2017-02-08 02:30:55.219337+01 | 1486517455.21934 |                 0 |               3 |                     5 |                    5 |                 12 |           560 |                5 |         1473194 |                     0 |      75925438 | 2017-02-08 02:19:40.96972+01

 2017-02-08 02:30:56.322259+01 | 1486517456.32226 |                 0 |               3 |                     5 |                    5 |                 12 |           560 |                5 |         1473194 |                     0 |      76046042 | 2017-02-08 02:19:40.96972+01

 2017-02-08 02:30:57.497414+01 | 1486517457.49741 |                 0 |               3 |                     5 |                    5 |                 12 |           560 |                5 |         1473194 |                     0 |      76155324 | 2017-02-08 02:19:40.96972+01

 2017-02-08 02:30:58.694973+01 | 1486517458.69497 |                 0 |               3 |                     5 |                    5 |                 12 |           560 |                5 |         1473194 |                     0 |      76300218 | 2017-02-08 02:19:40.96972+01

 2017-02-08 02:30:59.827383+01 | 1486517459.82738 |                 0 |               3 |                     5 |                    5 |                 12 |           560 |                5 |         1473194 |                     0 |      76437886 | 2017-02-08 02:19:40.96972+01

 2017-02-08 02:31:01.010254+01 | 1486517461.01025 |                 0 |               3 |                     5 |                    5 |                 12 |           560 |                5 |         1473194 |                     0 |      76571907 | 2017-02-08 02:19:40.96972+01

 2017-02-08 02:31:02.191303+01 | 1486517462.1913 |                 0 |               3 |                     5 |                    5 |                 12 |           560 |                5 |         1473194 |                     0 |      76716520 | 2017-02-08 02:19:40.96972+01

 2017-02-08 02:31:03.355307+01 | 1486517463.35531 |                 0 |               3 |                     5 |                    5 |                 12 |           560 |                5 |         1473194 |                     0 |      76855888 | 2017-02-08 02:19:40.96972+01

 2017-02-08 02:31:04.535041+01 | 1486517464.53504 |                 0 |               3 |                     5 |                    5 |                 12 |           560 |                5 |         1473194 |                     0 |      76963572 | 2017-02-08 02:19:40.96972+01

 2017-02-08 02:31:05.726755+01 | 1486517465.72675 |                 0 |               3 |                     5 |                    5 |                 12 |           560 |                5 |         1473194 |                     0 |      77108441 | 2017-02-08 02:19:40.96972+01

 2017-02-08 02:31:06.920303+01 | 1486517466.9203 |                 0 |               3 |                     5 |                    5 |                 12 |           560 |                5 |         1473194 |                     0 |      77253003 | 2017-02-08 02:19:40.96972+01

 2017-02-08 02:31:08.093239+01 | 1486517468.09324 |                 0 |               3 |                     5 |                    5 |                 12 |           560 |                5 |         1473194 |                     0 |      77394145 | 2017-02-08 02:19:40.96972+01

 2017-02-08 02:31:09.285679+01 | 1486517469.28568 |                 0 |               3 |                     5 |                    5 |                 12 |           560 |                5 |         1473194 |                     0 |      77537473 | 2017-02-08 02:19:40.96972+01

 2017-02-08 02:31:10.47807+01 | 1486517470.47807 |                 0 |               3 |                     5 |                    5 |                 12 |           560 |                5 |         1473194 |                     0 |      77681908 | 2017-02-08 02:19:40.96972+01

 2017-02-08 02:31:11.66575+01 | 1486517471.66575 |                 0 |               3 |                     5 |                    5 |                 12 |           560 |                5 |         1473194 |                     0 |      77802323 | 2017-02-08 02:19:40.96972+01

 2017-02-08 02:31:12.819319+01 | 1486517472.81932 |                 0 |               3 |                     5 |                    5 |                 12 |           560 |                5 |         1473194 |                     0 |      77971330 | 2017-02-08 02:19:40.96972+01

 2017-02-08 02:31:13.964309+01 | 1486517473.96431 |                 0 |               3 |                     5 |                    5 |                 12 |           560 |                5 |         1473194 |                     0 |      78087694 | 2017-02-08 02:19:40.96972+01

 2017-02-08 02:31:15.104446+01 | 1486517475.10445 |                 0 |               3 |                     5 |                    5 |                 12 |           560 |                5 |         1473194 |                     0 |      78221050 | 2017-02-08 02:19:40.96972+01

 2017-02-08 02:31:16.297978+01 | 1486517476.29798 |                 0 |               3 |                     5 |                    5 |                 12 |           560 |                5 |         1473194 |                     0 |      78360830 | 2017-02-08 02:19:40.96972+01

 2017-02-08 02:31:17.495795+01 | 1486517477.4958 |                 0 |               3 |                     5 |                    5 |                 12 |           560 |                5 |         1473194 |                     0 |      78504566 | 2017-02-08 02:19:40.96972+01

 2017-02-08 02:31:18.65665+01 | 1486517478.65665 |                 0 |               3 |                     5 |                    5 |                 12 |           560 |                5 |         1473194 |                     0 |      78649427 | 2017-02-08 02:19:40.96972+01

 2017-02-08 02:31:19.834685+01 | 1486517479.83469 |                 0 |               3 |                     5 |                    5 |                 12 |           560 |                5 |         1473194 |                     0 |      78763892 | 2017-02-08 02:19:40.96972+01

 2017-02-08 02:31:21.015323+01 | 1486517481.01532 |                 0 |               3 |                     5 |                    5 |                 12 |           560 |                5 |         1473194 |                     0 |      78904412 | 2017-02-08 02:19:40.96972+01

 2017-02-08 02:31:22.19542+01 | 1486517482.19542 |                 0 |               3 |                     5 |                    5 |                 12 |           560 |                5 |         1473194 |                     0 |      79048786 | 2017-02-08 02:19:40.96972+01

 2017-02-08 02:31:23.372234+01 | 1486517483.37223 |                 0 |               3 |                     5 |                    5 |                 12 |           560 |                5 |         1473194 |                     0 |      79186072 | 2017-02-08 02:19:40.96972+01

 2017-02-08 02:31:24.497344+01 | 1486517484.49734 |                 0 |               3 |                     5 |                    5 |                 12 |           560 |                5 |         1473194 |                     0 |      79319659 | 2017-02-08 02:19:40.96972+01

 2017-02-08 02:31:25.670962+01 | 1486517485.67096 |                 0 |               3 |                     5 |                    5 |                 12 |           560 |                5 |         1473194 |                     0 |      79437688 | 2017-02-08 02:19:40.96972+01

 2017-02-08 02:31:26.86462+01 | 1486517486.86462 |                 0 |               3 |                     5 |                    5 |                 12 |           560 |                5 |         1473194 |                     0 |      79581901 | 2017-02-08 02:19:40.96972+01

 2017-02-08 02:31:28.052854+01 | 1486517488.05285 |                 0 |               3 |                     5 |                    5 |                 12 |           560 |                5 |         1473194 |                     0 |      79726489 | 2017-02-08 02:19:40.96972+01

 2017-02-08 02:31:29.220332+01 | 1486517489.22033 |                 0 |               3 |                     5 |                    5 |                 12 |           560 |                5 |         1473194 |                     0 |      79871248 | 2017-02-08 02:19:40.96972+01

 2017-02-08 02:31:30.404019+01 | 1486517490.40402 |                 0 |               3 |                     5 |                    5 |                 12 |           560 |                5 |         1473194 |                     0 |      80014413 | 2017-02-08 02:19:40.96972+01

 2017-02-08 02:31:31.599175+01 | 1486517491.59917 |                 0 |               3 |                     5 |                    5 |                 12 |           560 |                5 |         1473194 |                     0 |      80158975 | 2017-02-08 02:19:40.96972+01

 2017-02-08 02:31:32.70908+01 | 1486517492.70908 |                 0 |               3 |                     5 |                    5 |                 12 |           560 |                5 |         1473194 |                     0 |      80279633 | 2017-02-08 02:19:40.96972+01

 2017-02-08 02:31:33.840792+01 | 1486517493.84079 |                 0 |               3 |                     5 |                    5 |                 12 |           560 |                5 |         1473194 |                     0 |      80406419 | 2017-02-08 02:19:40.96972+01

 2017-02-08 02:31:34.943033+01 | 1486517494.94303 |                 0 |               3 |                     5 |                    5 |                 12 |           560 |                5 |         1473194 |                     0 |      80503751 | 2017-02-08 02:19:40.96972+01

 2017-02-08 02:31:36.131282+01 | 1486517496.13128 |                 0 |               3 |                     5 |                    5 |                 12 |           560 |                5 |         1473194 |                     0 |      80631569 | 2017-02-08 02:19:40.96972+01

 2017-02-08 02:31:37.313753+01 | 1486517497.31375 |                 0 |               3 |                     5 |                    5 |                 12 |           560 |                5 |         1473194 |                     0 |      80776452 | 2017-02-08 02:19:40.96972+01

 2017-02-08 02:31:38.437354+01 | 1486517498.43735 |                 0 |               3 |                     5 |                    5 |                 12 |           560 |                5 |         1473194 |                     0 |      80910541 | 2017-02-08 02:19:40.96972+01

 2017-02-08 02:31:39.559333+01 | 1486517499.55933 |                 0 |               3 |                     5 |                    5 |                 12 |           560 |                5 |         1473194 |                     0 |      81010885 | 2017-02-08 02:19:40.96972+01

 2017-02-08 02:31:40.744372+01 | 1486517500.74437 |                 0 |               3 |                     5 |                    5 |                 12 |           560 |                5 |         1473194 |                     0 |      81138261 | 2017-02-08 02:19:40.96972+01

 2017-02-08 02:31:41.937535+01 | 1486517501.93754 |                 0 |               3 |                     5 |                    5 |                 12 |           560 |                5 |         1473194 |                     0 |      81283045 | 2017-02-08 02:19:40.96972+01

 2017-02-08 02:31:43.072536+01 | 1486517503.07254 |                 0 |               3 |                     5 |                    5 |                 12 |           560 |                5 |         1473194 |                     0 |      81426839 | 2017-02-08 02:19:40.96972+01

 2017-02-08 02:31:44.253058+01 | 1486517504.25306 |                 0 |               3 |                     5 |                    5 |                 12 |           560 |                5 |         1473194 |                     0 |      81545987 | 2017-02-08 02:19:40.96972+01

 2017-02-08 02:31:45.45274+01 | 1486517505.45274 |                 0 |               3 |                     5 |                    5 |                 12 |           560 |                5 |         1473194 |                     0 |      81690818 | 2017-02-08 02:19:40.96972+01

 2017-02-08 02:31:46.647816+01 | 1486517506.64782 |                 0 |               3 |                     5 |                    5 |                 12 |           560 |                5 |         1473194 |                     0 |      81835365 | 2017-02-08 02:19:40.96972+01

 2017-02-08 02:31:47.844199+01 | 1486517507.8442 |                 0 |               3 |                     5 |                    5 |                 12 |           560 |                5 |         1473194 |                     0 |      81980001 | 2017-02-08 02:19:40.96972+01

 2017-02-08 02:31:49.038884+01 | 1486517509.03888 |                 0 |               3 |                     5 |                    5 |                 12 |           560 |                5 |         1473194 |                     0 |      82124492 | 2017-02-08 02:19:40.96972+01

 2017-02-08 02:31:50.233616+01 | 1486517510.23362 |                 0 |               3 |                     5 |                    5 |                 12 |           560 |                5 |         1473194 |                     0 |      82269452 | 2017-02-08 02:19:40.96972+01

 2017-02-08 02:31:51.426866+01 | 1486517511.42687 |                 0 |               3 |                     5 |                    5 |                 12 |           560 |                5 |         1473194 |                     0 |      82414194 | 2017-02-08 02:19:40.96972+01

 2017-02-08 02:31:52.600272+01 | 1486517512.60027 |                 0 |               3 |                     5 |                    5 |                 12 |           560 |                5 |         1473194 |                     0 |      82558304 | 2017-02-08 02:19:40.96972+01

 2017-02-08 02:31:53.797493+01 | 1486517513.79749 |                 0 |               3 |                     5 |                    5 |                 12 |           560 |                5 |         1473194 |                     0 |      82703177 | 2017-02-08 02:19:40.96972+01

 2017-02-08 02:31:54.992479+01 | 1486517514.99248 |                 0 |               3 |                     5 |                    5 |                 12 |           560 |                5 |         1473194 |                     0 |      82847947 | 2017-02-08 02:19:40.96972+01

 2017-02-08 02:31:56.121356+01 | 1486517516.12136 |                 0 |               3 |                     5 |                    5 |                 12 |           560 |                5 |         1473194 |                     0 |      82956490 | 2017-02-08 02:19:40.96972+01

 2017-02-08 02:31:57.284032+01 | 1486517517.28403 |                 0 |               3 |                     5 |                    5 |                 12 |           560 |                5 |         1473194 |                     0 |      83077567 | 2017-02-08 02:19:40.96972+01

 2017-02-08 02:31:58.428328+01 | 1486517518.42833 |                 0 |               3 |                     5 |                    5 |                 12 |           560 |                5 |         1473194 |                     0 |      83200662 | 2017-02-08 02:19:40.96972+01

 2017-02-08 02:31:59.550348+01 | 1486517519.55035 |                 0 |               3 |                     5 |                    5 |                 12 |           560 |                5 |         1473194 |                     0 |      83327591 | 2017-02-08 02:19:40.96972+01

 2017-02-08 02:32:00.699337+01 | 1486517520.69934 |                 0 |               3 |                     5 |                    5 |                 12 |           560 |                5 |         1473194 |                     0 |      83442098 | 2017-02-08 02:19:40.96972+01

 2017-02-08 02:32:01.781213+01 | 1486517521.78121 |                 0 |               3 |                     5 |                    5 |                 12 |           560 |                5 |         1473194 |                     0 |      83562087 | 2017-02-08 02:19:40.96972+01

 2017-02-08 02:32:02.885297+01 | 1486517522.8853 |                 0 |               3 |                     5 |                    5 |                 12 |           560 |                5 |         1473194 |                     0 |      83669567 | 2017-02-08 02:19:40.96972+01

 2017-02-08 02:32:04.076878+01 | 1486517524.07688 |                 0 |               3 |                     5 |                    5 |                 12 |           560 |                5 |         1473194 |                     0 |      83808627 | 2017-02-08 02:19:40.96972+01

 2017-02-08 02:32:05.271766+01 | 1486517525.27177 |                 0 |               3 |                     5 |                    5 |                 12 |           560 |                5 |         1473194 |                     0 |      83953260 | 2017-02-08 02:19:40.96972+01

 2017-02-08 02:32:06.466203+01 | 1486517526.4662 |                 0 |               3 |                     5 |                    5 |                 12 |           560 |                5 |         1473194 |                     0 |      84097406 | 2017-02-08 02:19:40.96972+01

 2017-02-08 02:32:07.661794+01 | 1486517527.66179 |                 0 |               3 |                     5 |                    5 |                 12 |           560 |                5 |         1473194 |                     0 |      84240616 | 2017-02-08 02:19:40.96972+01

 2017-02-08 02:32:08.858734+01 | 1486517528.85873 |                 0 |               3 |                     5 |                    5 |                 12 |           560 |                5 |         1473194 |                     0 |      84361440 | 2017-02-08 02:19:40.96972+01

 2017-02-08 02:32:10.053561+01 | 1486517530.05356 |                 0 |               3 |                     5 |                    5 |                 12 |           560 |                5 |         1473194 |                     0 |      84505733 | 2017-02-08 02:19:40.96972+01

 2017-02-08 02:32:11.226275+01 | 1486517531.22627 |                 0 |               3 |                     5 |                    5 |                 12 |           560 |                5 |         1473194 |                     0 |      84649566 | 2017-02-08 02:19:40.96972+01

 2017-02-08 02:32:12.413277+01 | 1486517532.41328 |                 0 |               3 |                     5 |                    5 |                 12 |           560 |                5 |         1473194 |                     0 |      84787412 | 2017-02-08 02:19:40.96972+01

 2017-02-08 02:32:13.611047+01 | 1486517533.61105 |                 0 |               3 |                     5 |                    5 |                 12 |           560 |                5 |         1473194 |                     0 |      84932061 | 2017-02-08 02:19:40.96972+01

 2017-02-08 02:32:14.794292+01 | 1486517534.79429 |                 0 |               3 |                     5 |                    5 |                 12 |           560 |                5 |         1473194 |                     0 |      85062586 | 2017-02-08 02:19:40.96972+01

 2017-02-08 02:32:15.992414+01 | 1486517535.99241 |                 0 |               3 |                     5 |                    5 |                 12 |           560 |                5 |         1473194 |                     0 |      85207392 | 2017-02-08 02:19:40.96972+01

 2017-02-08 02:32:17.143645+01 | 1486517537.14365 |                 0 |               3 |                     5 |                    5 |                 12 |           560 |                5 |         1473194 |                     0 |      85352104 | 2017-02-08 02:19:40.96972+01

 2017-02-08 02:32:18.291502+01 | 1486517538.2915 |                 0 |               3 |                     5 |                    5 |                 12 |           560 |                5 |         1473194 |                     0 |      85453767 | 2017-02-08 02:19:40.96972+01

 2017-02-08 02:32:19.4383+01 | 1486517539.4383 |                 0 |               3 |                     5 |                    5 |                 12 |           560 |                5 |         1473194 |                     0 |      85579442 | 2017-02-08 02:19:40.96972+01

 2017-02-08 02:32:20.622446+01 | 1486517540.62245 |                 0 |               3 |                     5 |                    5 |                 12 |           560 |                5 |         1473194 |                     0 |      85718778 | 2017-02-08 02:19:40.96972+01

 2017-02-08 02:32:21.822054+01 | 1486517541.82205 |                 0 |               3 |                     5 |                    5 |                 12 |           560 |                5 |         1473194 |                     0 |      85863699 | 2017-02-08 02:19:40.96972+01

 2017-02-08 02:32:23.016515+01 | 1486517543.01652 |                 0 |               3 |                     5 |                    5 |                 12 |           560 |                5 |         1473194 |                     0 |      86008546 | 2017-02-08 02:19:40.96972+01

 2017-02-08 02:32:24.209776+01 | 1486517544.20978 |                 0 |               3 |                     5 |                    5 |                 12 |           560 |                5 |         1473194 |                     0 |      86153071 | 2017-02-08 02:19:40.96972+01

 2017-02-08 02:32:25.40295+01 | 1486517545.40295 |                 0 |               3 |                     5 |                    5 |                 12 |           560 |                5 |         1473194 |                     0 |      86297637 | 2017-02-08 02:19:40.96972+01

 2017-02-08 02:32:26.602505+01 | 1486517546.6025 |                 0 |               3 |                     5 |                    5 |                 12 |           560 |                5 |         1473194 |                     0 |      86418065 | 2017-02-08 02:19:40.96972+01

 2017-02-08 02:32:27.709509+01 | 1486517547.70951 |                 0 |               3 |                     5 |                    5 |                 12 |           560 |                5 |         1473194 |                     0 |      86561610 | 2017-02-08 02:19:40.96972+01

 2017-02-08 02:32:28.879843+01 | 1486517548.87984 |                 0 |               3 |                     5 |                    5 |                 12 |           560 |                5 |         1473194 |                     0 |      86700377 | 2017-02-08 02:19:40.96972+01

 2017-02-08 02:32:30.075765+01 | 1486517550.07576 |                 0 |               3 |                     5 |                    5 |                 12 |           560 |                5 |         1473194 |                     0 |      86844915 | 2017-02-08 02:19:40.96972+01

 2017-02-08 02:32:31.265412+01 | 1486517551.26541 |                 0 |               3 |                     5 |                    5 |                 12 |           560 |                5 |         1473194 |                     0 |      86989700 | 2017-02-08 02:19:40.96972+01

 2017-02-08 02:32:32.44761+01 | 1486517552.44761 |                 0 |               3 |                     5 |                    5 |                 12 |           560 |                5 |         1473194 |                     0 |      87134613 | 2017-02-08 02:19:40.96972+01

 2017-02-08 02:32:33.62887+01 | 1486517553.62887 |                 0 |               3 |                     5 |                    5 |                 12 |           560 |                5 |         1473194 |                     0 |      87254067 | 2017-02-08 02:19:40.96972+01

 2017-02-08 02:32:34.822635+01 | 1486517554.82263 |                 0 |               3 |                     5 |                    5 |                 12 |           560 |                5 |         1473194 |                     0 |      87398853 | 2017-02-08 02:19:40.96972+01

 2017-02-08 02:32:36.022922+01 | 1486517556.02292 |                 0 |               3 |                     5 |                    5 |                 12 |           560 |                5 |         1473194 |                     0 |      87543454 | 2017-02-08 02:19:40.96972+01

 2017-02-08 02:32:37.167338+01 | 1486517557.16734 |                 0 |               3 |                     5 |                    5 |                 12 |           560 |                5 |         1473194 |                     0 |      87684067 | 2017-02-08 02:19:40.96972+01

 2017-02-08 02:32:38.337204+01 | 1486517558.3372 |                 0 |               3 |                     5 |                    5 |                 12 |           560 |                5 |         1473194 |                     0 |      87822515 | 2017-02-08 02:19:40.96972+01

 2017-02-08 02:32:39.527135+01 | 1486517559.52713 |                 0 |               3 |                     5 |                    5 |                 12 |           560 |                5 |         1473194 |                     0 |      87951624 | 2017-02-08 02:19:40.96972+01

 2017-02-08 02:32:40.71315+01 | 1486517560.71315 |                 0 |               3 |                     5 |                    5 |                 12 |           560 |                5 |         1473194 |                     0 |      88096367 | 2017-02-08 02:19:40.96972+01

 2017-02-08 02:32:41.909578+01 | 1486517561.90958 |                 0 |               3 |                     5 |                    5 |                 12 |           560 |                5 |         1473194 |                     0 |      88216710 | 2017-02-08 02:19:40.96972+01

 2017-02-08 02:32:43.052965+01 | 1486517563.05296 |                 0 |               3 |                     5 |                    5 |                 12 |           560 |                5 |         1473194 |                     0 |      88358542 | 2017-02-08 02:19:40.96972+01

 2017-02-08 02:32:44.1791+01 | 1486517564.1791 |                 0 |               3 |                     5 |                    5 |                 12 |           560 |                5 |         1473194 |                     0 |      88479834 | 2017-02-08 02:19:40.96972+01

 2017-02-08 02:32:45.302183+01 | 1486517565.30218 |                 0 |               3 |                     5 |                    5 |                 12 |           560 |                5 |         1473194 |                     0 |      88600560 | 2017-02-08 02:19:40.96972+01

 2017-02-08 02:32:46.433708+01 | 1486517566.43371 |                 0 |               3 |                     5 |                    5 |                 12 |           560 |                5 |         1473194 |                     0 |      88700028 | 2017-02-08 02:19:40.96972+01

 2017-02-08 02:32:47.611005+01 | 1486517567.61101 |                 0 |               3 |                     5 |                    5 |                 12 |           560 |                5 |         1473194 |                     0 |      88835021 | 2017-02-08 02:19:40.96972+01

 2017-02-08 02:32:48.806983+01 | 1486517568.80698 |                 0 |               3 |                     5 |                    5 |                 12 |           560 |                5 |         1473194 |                     0 |      88978300 | 2017-02-08 02:19:40.96972+01

 2017-02-08 02:32:50.002289+01 | 1486517570.00229 |                 0 |               3 |                     5 |                    5 |                 12 |           560 |                5 |         1473194 |                     0 |      89122702 | 2017-02-08 02:19:40.96972+01

 2017-02-08 02:32:51.197759+01 | 1486517571.19776 |                 0 |               3 |                     5 |                    5 |                 12 |           560 |                5 |         1473194 |                     0 |      89266372 | 2017-02-08 02:19:40.96972+01

 2017-02-08 02:32:52.389991+01 | 1486517572.38999 |                 0 |               3 |                     5 |                    5 |                 12 |           560 |                5 |         1473194 |                     0 |      89387012 | 2017-02-08 02:19:40.96972+01

 2017-02-08 02:32:53.584309+01 | 1486517573.58431 |                 0 |               3 |                     5 |                    5 |                 12 |           560 |                5 |         1473194 |                     0 |      89531995 | 2017-02-08 02:19:40.96972+01

 2017-02-08 02:32:54.741365+01 | 1486517574.74136 |                 0 |               3 |                     5 |                    5 |                 12 |           560 |                5 |         1473194 |                     0 |      89670898 | 2017-02-08 02:19:40.96972+01

 2017-02-08 02:32:55.878182+01 | 1486517575.87818 |                 0 |               3 |                     5 |                    5 |                 12 |           560 |                5 |         1473194 |                     0 |      89791998 | 2017-02-08 02:19:40.96972+01

 2017-02-08 02:32:57.023084+01 | 1486517577.02308 |                 0 |               3 |                     5 |                    5 |                 12 |           560 |                5 |         1473194 |                     0 |      89915565 | 2017-02-08 02:19:40.96972+01

 2017-02-08 02:32:58.20551+01 | 1486517578.20551 |                 0 |               3 |                     5 |                    5 |                 12 |           560 |                5 |         1473194 |                     0 |      90021327 | 2017-02-08 02:19:40.96972+01

 2017-02-08 02:32:59.396943+01 | 1486517579.39694 |                 0 |               3 |                     5 |                    5 |                 12 |           560 |                5 |         1473194 |                     0 |      90165788 | 2017-02-08 02:19:40.96972+01

 2017-02-08 02:33:00.595905+01 | 1486517580.59591 |                 0 |               3 |                     5 |                    5 |                 12 |           560 |                5 |         1473194 |                     0 |      90310653 | 2017-02-08 02:19:40.96972+01

 2017-02-08 02:33:01.791023+01 | 1486517581.79102 |                 0 |               3 |                     5 |                    5 |                 12 |           560 |                5 |         1473194 |                     0 |      90455167 | 2017-02-08 02:19:40.96972+01

 2017-02-08 02:33:02.971662+01 | 1486517582.97166 |                 0 |               3 |                     5 |                    5 |                 12 |           560 |                5 |         1473194 |                     0 |      90599563 | 2017-02-08 02:19:40.96972+01

 2017-02-08 02:33:04.168048+01 | 1486517584.16805 |                 0 |               3 |                     5 |                    5 |                 12 |           560 |                5 |         1473194 |                     0 |      90744077 | 2017-02-08 02:19:40.96972+01

 2017-02-08 02:33:05.350367+01 | 1486517585.35037 |                 0 |               3 |                     5 |                    5 |                 12 |           560 |                5 |         1473194 |                     0 |      90888572 | 2017-02-08 02:19:40.96972+01

 2017-02-08 02:33:06.538907+01 | 1486517586.53891 |                 0 |               3 |                     5 |                    5 |                 12 |           560 |                5 |         1473194 |                     0 |      91032605 | 2017-02-08 02:19:40.96972+01

 2017-02-08 02:33:07.731815+01 | 1486517587.73182 |                 0 |               3 |                     5 |                    5 |                 12 |           560 |                5 |         1473194 |                     0 |      91177385 | 2017-02-08 02:19:40.96972+01

 2017-02-08 02:33:08.926899+01 | 1486517588.9269 |                 0 |               3 |                     5 |                    5 |                 12 |           560 |                5 |         1473194 |                     0 |      91298039 | 2017-02-08 02:19:40.96972+01

 2017-02-08 02:33:10.122559+01 | 1486517590.12256 |                 0 |               3 |                     5 |                    5 |                 12 |           560 |                5 |         1473194 |                     0 |      91442619 | 2017-02-08 02:19:40.96972+01

 2017-02-08 02:33:11.319546+01 | 1486517591.31955 |                 0 |               3 |                     5 |                    5 |                 12 |           560 |                5 |         1473194 |                     0 |      91587521 | 2017-02-08 02:19:40.96972+01

 2017-02-08 02:33:12.495261+01 | 1486517592.49526 |                 0 |               3 |                     5 |                    5 |                 12 |           560 |                5 |         1473194 |                     0 |      91732496 | 2017-02-08 02:19:40.96972+01

 2017-02-08 02:33:13.685314+01 | 1486517593.68531 |                 0 |               3 |                     5 |                    5 |                 12 |           560 |                5 |         1473194 |                     0 |      91865583 | 2017-02-08 02:19:40.96972+01

 2017-02-08 02:33:14.883533+01 | 1486517594.88353 |                 0 |               3 |                     5 |                    5 |                 12 |           560 |                5 |         1473194 |                     0 |      92010634 | 2017-02-08 02:19:40.96972+01

 2017-02-08 02:33:16.077346+01 | 1486517596.07735 |                 0 |               3 |                     5 |                    5 |                 12 |           560 |                5 |         1473194 |                     0 |      92153529 | 2017-02-08 02:19:40.96972+01

 2017-02-08 02:33:17.270718+01 | 1486517597.27072 |                 0 |               3 |                     5 |                    5 |                 12 |           560 |                5 |         1473194 |                     0 |      92298212 | 2017-02-08 02:19:40.96972+01

 2017-02-08 02:33:18.465863+01 | 1486517598.46586 |                 0 |               3 |                     5 |                    5 |                 12 |           560 |                5 |         1473194 |                     0 |      92442916 | 2017-02-08 02:19:40.96972+01

 2017-02-08 02:33:19.658152+01 | 1486517599.65815 |                 0 |               3 |                     5 |                    5 |                 12 |           560 |                5 |         1473194 |                     0 |      92587471 | 2017-02-08 02:19:40.96972+01

 2017-02-08 02:33:20.80538+01 | 1486517600.80538 |                 0 |               3 |                     5 |                    5 |                 12 |           560 |                5 |         1473194 |                     0 |      92731729 | 2017-02-08 02:19:40.96972+01

 2017-02-08 02:33:21.950334+01 | 1486517601.95033 |                 0 |               3 |                     5 |                    5 |                 12 |           560 |                5 |         1473194 |                     0 |      92846241 | 2017-02-08 02:19:40.96972+01

 2017-02-08 02:33:23.133997+01 | 1486517603.134 |                 0 |               3 |                     5 |                    5 |                 12 |           560 |                5 |         1473194 |                     0 |      92989984 | 2017-02-08 02:19:40.96972+01

 2017-02-08 02:33:24.330438+01 | 1486517604.33044 |                 0 |               3 |                     5 |                    5 |                 12 |           560 |                5 |         1473194 |                     0 |      93134282 | 2017-02-08 02:19:40.96972+01

 2017-02-08 02:33:25.518993+01 | 1486517605.51899 |                 0 |               3 |                     5 |                    5 |                 12 |           560 |                5 |         1473194 |                     0 |      93277719 | 2017-02-08 02:19:40.96972+01

 2017-02-08 02:33:26.696515+01 | 1486517606.69652 |                 0 |               3 |                     5 |                    5 |                 12 |           560 |                5 |         1473194 |                     0 |      93418058 | 2017-02-08 02:19:40.96972+01

 2017-02-08 02:33:27.891832+01 | 1486517607.89183 |                 0 |               3 |                     5 |                    5 |                 12 |           560 |                5 |         1473194 |                     0 |      93562700 | 2017-02-08 02:19:40.96972+01

 2017-02-08 02:33:29.082129+01 | 1486517609.08213 |                 0 |               3 |                     5 |                    5 |                 12 |           560 |                5 |         1473194 |                     0 |      93682989 | 2017-02-08 02:19:40.96972+01

 2017-02-08 02:33:30.256084+01 | 1486517610.25608 |                 0 |               3 |                     5 |                    5 |                 12 |           560 |                5 |         1473194 |                     0 |      93827138 | 2017-02-08 02:19:40.96972+01

 2017-02-08 02:33:31.434837+01 | 1486517611.43484 |                 0 |               3 |                     5 |                    5 |                 12 |           560 |                5 |         1473194 |                     0 |      93953965 | 2017-02-08 02:19:40.96972+01

 2017-02-08 02:33:32.630186+01 | 1486517612.63019 |                 0 |               3 |                     5 |                    5 |                 12 |           560 |                5 |         1473194 |                     0 |      94097695 | 2017-02-08 02:19:40.96972+01

 2017-02-08 02:33:33.762458+01 | 1486517613.76246 |                 0 |               3 |                     5 |                    5 |                 12 |           560 |                5 |         1473194 |                     0 |      94229312 | 2017-02-08 02:19:40.96972+01

 2017-02-08 02:33:34.952397+01 | 1486517614.9524 |                 0 |               3 |                     5 |                    5 |                 12 |           560 |                5 |         1473194 |                     0 |      94366111 | 2017-02-08 02:19:40.96972+01

 2017-02-08 02:33:36.146256+01 | 1486517616.14626 |                 0 |               3 |                     5 |                    5 |                 12 |           560 |                5 |         1473194 |                     0 |      94486770 | 2017-02-08 02:19:40.96972+01

 2017-02-08 02:33:37.340909+01 | 1486517617.34091 |                 0 |               3 |                     5 |                    5 |                 12 |           560 |                5 |         1473194 |                     0 |      94631623 | 2017-02-08 02:19:40.96972+01

 2017-02-08 02:33:38.533766+01 | 1486517618.53377 |                 0 |               3 |                     5 |                    5 |                 12 |           560 |                5 |         1473194 |                     0 |      94776220 | 2017-02-08 02:19:40.96972+01

 2017-02-08 02:33:39.732093+01 | 1486517619.73209 |                 0 |               3 |                     5 |                    5 |                 12 |           560 |                5 |         1473194 |                     0 |      94920603 | 2017-02-08 02:19:40.96972+01

 2017-02-08 02:33:40.912744+01 | 1486517620.91274 |                 0 |               3 |                     5 |                    5 |                 12 |           560 |                5 |         1473194 |                     0 |      95065707 | 2017-02-08 02:19:40.96972+01

 2017-02-08 02:33:42.089462+01 | 1486517622.08946 |                 0 |               3 |                     5 |                    5 |                 12 |           560 |                5 |         1473194 |                     0 |      95209786 | 2017-02-08 02:19:40.96972+01

 2017-02-08 02:33:43.279714+01 | 1486517623.27971 |                 0 |               3 |                     5 |                    5 |                 12 |           560 |                5 |         1473194 |                     0 |      95354313 | 2017-02-08 02:19:40.96972+01

 2017-02-08 02:33:44.474543+01 | 1486517624.47454 |                 0 |               3 |                     5 |                    5 |                 12 |           560 |                5 |         1473194 |                     0 |      95498528 | 2017-02-08 02:19:40.96972+01

 2017-02-08 02:33:45.673764+01 | 1486517625.67376 |                 0 |               3 |                     5 |                    5 |                 12 |           560 |                5 |         1473194 |                     0 |      95641371 | 2017-02-08 02:19:40.96972+01

 2017-02-08 02:33:46.810482+01 | 1486517626.81048 |                 0 |               3 |                     5 |                    5 |                 12 |           560 |                5 |         1473194 |                     0 |      95782681 | 2017-02-08 02:19:40.96972+01

 2017-02-08 02:33:47.994454+01 | 1486517627.99445 |                 0 |               3 |                     5 |                    5 |                 12 |           560 |                5 |         1473194 |                     0 |      95896685 | 2017-02-08 02:19:40.96972+01

 2017-02-08 02:33:49.184468+01 | 1486517629.18447 |                 0 |               3 |                     5 |                    5 |                 12 |           560 |                5 |         1473194 |                     0 |      96041657 | 2017-02-08 02:19:40.96972+01

 2017-02-08 02:33:50.379137+01 | 1486517630.37914 |                 0 |               3 |                     5 |                    5 |                 12 |           560 |                5 |         1473194 |                     0 |      96186614 | 2017-02-08 02:19:40.96972+01

 2017-02-08 02:33:51.554983+01 | 1486517631.55498 |                 0 |               3 |                     5 |                    5 |                 12 |           560 |                5 |         1473194 |                     0 |      96326380 | 2017-02-08 02:19:40.96972+01

 2017-02-08 02:33:52.69068+01 | 1486517632.69068 |                 0 |               3 |                     5 |                    5 |                 12 |           560 |                5 |         1473194 |                     0 |      96467313 | 2017-02-08 02:19:40.96972+01

 2017-02-08 02:33:53.861097+01 | 1486517633.8611 |                 0 |               3 |                     5 |                    5 |                 12 |           560 |                5 |         1473194 |                     0 |      96586188 | 2017-02-08 02:19:40.96972+01

 2017-02-08 02:33:55.011292+01 | 1486517635.01129 |                 0 |               3 |                     5 |                    5 |                 12 |           560 |                5 |         1473194 |                     0 |      96731142 | 2017-02-08 02:19:40.96972+01

 2017-02-08 02:33:56.141501+01 | 1486517636.1415 |                 0 |               3 |                     5 |                    5 |                 12 |           560 |                5 |         1473194 |                     0 |      96858888 | 2017-02-08 02:19:40.96972+01

 2017-02-08 02:33:57.298875+01 | 1486517637.29888 |                 0 |               3 |                     5 |                    5 |                 12 |           560 |                5 |         1473194 |                     0 |      96993357 | 2017-02-08 02:19:40.96972+01

 2017-02-08 02:33:58.445852+01 | 1486517638.44585 |                 0 |               3 |                     5 |                    5 |                 12 |           560 |                5 |         1473194 |                     0 |      97102537 | 2017-02-08 02:19:40.96972+01

 2017-02-08 02:33:59.580237+01 | 1486517639.58024 |                 0 |               3 |                     5 |                    5 |                 12 |           560 |                5 |         1473194 |                     0 |      97227043 | 2017-02-08 02:19:40.96972+01

 2017-02-08 02:34:00.761119+01 | 1486517640.76112 |                 0 |               3 |                     5 |                    5 |                 12 |           560 |                5 |         1473194 |                     0 |      97359470 | 2017-02-08 02:19:40.96972+01

 2017-02-08 02:34:01.956966+01 | 1486517641.95697 |                 0 |               3 |                     5 |                    5 |                 12 |           560 |                5 |         1473194 |                     0 |      97503666 | 2017-02-08 02:19:40.96972+01

 2017-02-08 02:34:03.157015+01 | 1486517643.15702 |                 0 |               3 |                     5 |                    5 |                 12 |           560 |                5 |         1473194 |                     0 |      97624216 | 2017-02-08 02:19:40.96972+01

 2017-02-08 02:34:04.320927+01 | 1486517644.32093 |                 0 |               3 |                     5 |                    5 |                 12 |           560 |                5 |         1473194 |                     0 |      97757162 | 2017-02-08 02:19:40.96972+01

 2017-02-08 02:34:05.417072+01 | 1486517645.41707 |                 0 |               3 |                     5 |                    5 |                 12 |           560 |                5 |         1473194 |                     0 |      97885327 | 2017-02-08 02:19:40.96972+01

 2017-02-08 02:34:06.596171+01 | 1486517646.59617 |                 0 |               3 |                     5 |                    5 |                 12 |           560 |                5 |         1473194 |                     0 |      98016984 | 2017-02-08 02:19:40.96972+01

 2017-02-08 02:34:07.789324+01 | 1486517647.78932 |                 0 |               3 |                     5 |                    5 |                 12 |           560 |                5 |         1473194 |                     0 |      98137428 | 2017-02-08 02:19:40.96972+01

 2017-02-08 02:34:08.970479+01 | 1486517648.97048 |                 0 |               3 |                     5 |                    5 |                 12 |           560 |                5 |         1473194 |                     0 |      98281403 | 2017-02-08 02:19:40.96972+01

 2017-02-08 02:34:10.166931+01 | 1486517650.16693 |                 0 |               3 |                     5 |                    5 |                 12 |           560 |                5 |         1473194 |                     0 |      98426273 | 2017-02-08 02:19:40.96972+01

 2017-02-08 02:34:11.343648+01 | 1486517651.34365 |                 0 |               3 |                     5 |                    5 |                 12 |           560 |                5 |         1473194 |                     0 |      98570601 | 2017-02-08 02:19:40.96972+01

 2017-02-08 02:34:12.518194+01 | 1486517652.51819 |                 0 |               3 |                     5 |                    5 |                 12 |           560 |                5 |         1473194 |                     0 |      98709783 | 2017-02-08 02:19:40.96972+01

 2017-02-08 02:34:13.712728+01 | 1486517653.71273 |                 0 |               3 |                     5 |                    5 |                 12 |           560 |                5 |         1473194 |                     0 |      98854318 | 2017-02-08 02:19:40.96972+01

 2017-02-08 02:34:14.909972+01 | 1486517654.90997 |                 0 |               3 |                     5 |                    5 |                 12 |           560 |                5 |         1473194 |                     0 |      98998596 | 2017-02-08 02:19:40.96972+01

 2017-02-08 02:34:16.10285+01 | 1486517656.10285 |                 0 |               3 |                     5 |                    5 |                 12 |           560 |                5 |         1473194 |                     0 |      99143229 | 2017-02-08 02:19:40.96972+01

 2017-02-08 02:34:17.300023+01 | 1486517657.30002 |                 0 |               3 |                     5 |                    5 |                 12 |           560 |                5 |         1473194 |                     0 |      99287953 | 2017-02-08 02:19:40.96972+01

 2017-02-08 02:34:18.449308+01 | 1486517658.44931 |                 0 |               3 |                     5 |                    5 |                 12 |           560 |                5 |         1473194 |                     0 |      99431708 | 2017-02-08 02:19:40.96972+01

 2017-02-08 02:34:19.629838+01 | 1486517659.62984 |                 0 |               3 |                     5 |                    5 |                 12 |           560 |                5 |         1473194 |                     0 |      99550986 | 2017-02-08 02:19:40.96972+01

 2017-02-08 02:34:20.769317+01 | 1486517660.76932 |                 0 |               3 |                     5 |                    5 |                 12 |           560 |                5 |         1473194 |                     0 |      99684412 | 2017-02-08 02:19:40.96972+01

 2017-02-08 02:34:21.949639+01 | 1486517661.94964 |                 0 |               3 |                     5 |                    5 |                 12 |           560 |                5 |         1473194 |                     0 |      99812075 | 2017-02-08 02:19:40.96972+01

 2017-02-08 02:34:23.139353+01 | 1486517663.13935 |                 0 |               3 |                     5 |                    5 |                 12 |           560 |                5 |         1473194 |                     0 |      99956887 | 2017-02-08 02:19:40.96972+01

 2017-02-08 02:34:24.266347+01 | 1486517664.26635 |                 0 |               3 |                     5 |                    5 |                 12 |           560 |                5 |         1473194 |                     0 |     100071885 | 2017-02-08 02:19:40.96972+01

 2017-02-08 02:34:25.437482+01 | 1486517665.43748 |                 0 |               3 |                     5 |                    5 |                 12 |           560 |                5 |         1473194 |                     0 |     100206398 | 2017-02-08 02:19:40.96972+01

 2017-02-08 02:34:26.627829+01 | 1486517666.62783 |                 0 |               3 |                     5 |                    5 |                 12 |           560 |                5 |         1473194 |                     0 |     100351061 | 2017-02-08 02:19:40.96972+01

 2017-02-08 02:34:27.829001+01 | 1486517667.829 |                 0 |               3 |                     5 |                    5 |                 12 |           560 |                5 |         1473194 |                     0 |     100495641 | 2017-02-08 02:19:40.96972+01

 2017-02-08 02:34:29.024326+01 | 1486517669.02433 |                 0 |               3 |                     5 |                    5 |                 12 |           560 |                5 |         1473194 |                     0 |     100640860 | 2017-02-08 02:19:40.96972+01

 2017-02-08 02:34:30.222338+01 | 1486517670.22234 |                 0 |               3 |                     5 |                    5 |                 12 |           560 |                5 |         1473194 |                     0 |     100779751 | 2017-02-08 02:19:40.96972+01

 2017-02-08 02:34:31.418663+01 | 1486517671.41866 |                 0 |               3 |                     5 |                    5 |                 12 |           560 |                5 |         1473194 |                     0 |     100924750 | 2017-02-08 02:19:40.96972+01

 2017-02-08 02:34:32.611494+01 | 1486517672.61149 |                 0 |               3 |                     5 |                    5 |                 12 |           560 |                5 |         1473194 |                     0 |     101068318 | 2017-02-08 02:19:40.96972+01

 2017-02-08 02:34:33.80653+01 | 1486517673.80653 |                 0 |               3 |                     5 |                    5 |                 12 |           560 |                5 |         1473194 |                     0 |     101212707 | 2017-02-08 02:19:40.96972+01

 2017-02-08 02:34:35.001632+01 | 1486517675.00163 |                 0 |               3 |                     5 |                    5 |                 12 |           560 |                5 |         1473194 |                     0 |     101332346 | 2017-02-08 02:19:40.96972+01

 2017-02-08 02:34:36.197467+01 | 1486517676.19747 |                 0 |               3 |                     5 |                    5 |                 12 |           560 |                5 |         1473194 |                     0 |     101477073 | 2017-02-08 02:19:40.96972+01

 2017-02-08 02:34:37.388296+01 | 1486517677.3883 |                 0 |               3 |                     5 |                    5 |                 12 |           560 |                5 |         1473194 |                     0 |     101621991 | 2017-02-08 02:19:40.96972+01

 2017-02-08 02:34:38.581659+01 | 1486517678.58166 |                 0 |               3 |                     5 |                    5 |                 12 |           560 |                5 |         1473194 |                     0 |     101762108 | 2017-02-08 02:19:40.96972+01

 2017-02-08 02:34:39.780925+01 | 1486517679.78093 |                 0 |               3 |                     5 |                    5 |                 12 |           560 |                5 |         1473194 |                     0 |     101902003 | 2017-02-08 02:19:40.96972+01

 2017-02-08 02:34:40.975452+01 | 1486517680.97545 |                 0 |               3 |                     5 |                    5 |                 12 |           560 |                5 |         1473194 |                     0 |     102046528 | 2017-02-08 02:19:40.96972+01

 2017-02-08 02:34:42.172961+01 | 1486517682.17296 |                 0 |               3 |                     5 |                    5 |                 12 |           560 |                5 |         1473194 |                     0 |     102191075 | 2017-02-08 02:19:40.96972+01

 2017-02-08 02:34:43.369493+01 | 1486517683.36949 |                 0 |               3 |                     5 |                    5 |                 12 |           560 |                5 |         1473194 |                     0 |     102334518 | 2017-02-08 02:19:40.96972+01

 2017-02-08 02:34:44.565162+01 | 1486517684.56516 |                 0 |               3 |                     5 |                    5 |                 12 |           560 |                5 |         1473194 |                     0 |     102479131 | 2017-02-08 02:19:40.96972+01

 2017-02-08 02:34:45.737336+01 | 1486517685.73734 |                 0 |               3 |                     5 |                    5 |                 12 |           560 |                5 |         1473194 |                     0 |     102622999 | 2017-02-08 02:19:40.96972+01

 2017-02-08 02:34:46.892295+01 | 1486517686.89229 |                 0 |               3 |                     5 |                    5 |                 12 |           560 |                5 |         1473194 |                     0 |     102766100 | 2017-02-08 02:19:40.96972+01

 2017-02-08 02:34:48.076769+01 | 1486517688.07677 |                 0 |               3 |                     5 |                    5 |                 12 |           560 |                5 |         1473194 |                     0 |     102882137 | 2017-02-08 02:19:40.96972+01

 2017-02-08 02:34:49.269607+01 | 1486517689.26961 |                 0 |               3 |                     5 |                    5 |                 12 |           560 |                5 |         1473194 |                     0 |     103027170 | 2017-02-08 02:19:40.96972+01

 2017-02-08 02:34:50.465907+01 | 1486517690.46591 |                 0 |               3 |                     5 |                    5 |                 12 |           560 |                5 |         1473194 |                     0 |     103171855 | 2017-02-08 02:19:40.96972+01

 2017-02-08 02:34:51.661278+01 | 1486517691.66128 |                 0 |               3 |                     5 |                    5 |                 12 |           560 |                5 |         1473194 |                     0 |     103316254 | 2017-02-08 02:19:40.96972+01

 2017-02-08 02:34:52.809374+01 | 1486517692.80937 |                 0 |               3 |                     5 |                    5 |                 12 |           560 |                5 |         1473194 |                     0 |     103460647 | 2017-02-08 02:19:40.96972+01

 2017-02-08 02:34:53.990239+01 | 1486517693.99024 |                 0 |               3 |                     5 |                    5 |                 12 |           560 |                5 |         1473194 |                     0 |     103604214 | 2017-02-08 02:19:40.96972+01

 2017-02-08 02:34:55.184961+01 | 1486517695.18496 |                 0 |               3 |                     5 |                    5 |                 12 |           560 |                5 |         1473194 |                     0 |     103748522 | 2017-02-08 02:19:40.96972+01

 2017-02-08 02:34:56.380113+01 | 1486517696.38011 |                 0 |               3 |                     5 |                    5 |                 12 |           560 |                5 |         1473194 |                     0 |     103868716 | 2017-02-08 02:19:40.96972+01

 2017-02-08 02:34:57.574203+01 | 1486517697.5742 |                 0 |               3 |                     5 |                    5 |                 12 |           560 |                5 |         1473194 |                     0 |     104013641 | 2017-02-08 02:19:40.96972+01

 2017-02-08 02:34:58.763993+01 | 1486517698.76399 |                 0 |               3 |                     5 |                    5 |                 12 |           560 |                5 |         1473194 |                     0 |     104158471 | 2017-02-08 02:19:40.96972+01

 2017-02-08 02:34:59.954725+01 | 1486517699.95473 |                 0 |               3 |                     5 |                    5 |                 12 |           560 |                5 |         1473194 |                     0 |     104302740 | 2017-02-08 02:19:40.96972+01

 2017-02-08 02:35:01.153236+01 | 1486517701.15324 |                 0 |               3 |                     5 |                    5 |                 12 |           560 |                5 |         1473194 |                     0 |     104447290 | 2017-02-08 02:19:40.96972+01

 2017-02-08 02:35:02.331301+01 | 1486517702.3313 |                 0 |               3 |                     5 |                    5 |                 12 |           560 |                5 |         1473194 |                     0 |     104588147 | 2017-02-08 02:19:40.96972+01

 2017-02-08 02:35:03.517793+01 | 1486517703.51779 |                 0 |               3 |                     5 |                    5 |                 12 |           560 |                5 |         1473194 |                     0 |     104732271 | 2017-02-08 02:19:40.96972+01

 2017-02-08 02:35:04.713062+01 | 1486517704.71306 |                 0 |               3 |                     5 |                    5 |                 12 |           560 |                5 |         1473194 |                     0 |     104876283 | 2017-02-08 02:19:40.96972+01

 2017-02-08 02:35:05.910987+01 | 1486517705.91099 |                 0 |               3 |                     5 |                    5 |                 12 |           560 |                5 |         1473194 |                     0 |     105020904 | 2017-02-08 02:19:40.96972+01

 2017-02-08 02:35:07.110567+01 | 1486517707.11057 |                 0 |               3 |                     5 |                    5 |                 12 |           560 |                5 |         1473194 |                     0 |     105165449 | 2017-02-08 02:19:40.96972+01

 2017-02-08 02:35:08.306854+01 | 1486517708.30685 |                 0 |               3 |                     5 |                    5 |                 12 |           560 |                5 |         1473194 |                     0 |     105309877 | 2017-02-08 02:19:40.96972+01

 2017-02-08 02:35:09.484724+01 | 1486517709.48472 |                 0 |               3 |                     5 |                    5 |                 12 |           560 |                5 |         1473194 |                     0 |     105454237 | 2017-02-08 02:19:40.96972+01

 2017-02-08 02:35:10.668803+01 | 1486517710.6688 |                 0 |               3 |                     5 |                    5 |                 12 |           560 |                5 |         1473194 |                     0 |     105574524 | 2017-02-08 02:19:40.96972+01

 2017-02-08 02:35:11.844468+01 | 1486517711.84447 |                 0 |               3 |                     5 |                    5 |                 12 |           560 |                5 |         1473194 |                     0 |     105691382 | 2017-02-08 02:19:40.96972+01

 2017-02-08 02:35:13.044854+01 | 1486517713.04485 |                 0 |               3 |                     5 |                    5 |                 12 |           560 |                5 |         1473194 |                     0 |     105859995 | 2017-02-08 02:19:40.96972+01

 2017-02-08 02:35:14.239229+01 | 1486517714.23923 |                 0 |               3 |                     5 |                    5 |                 12 |           560 |                5 |         1473194 |                     0 |     106004755 | 2017-02-08 02:19:40.96972+01

 2017-02-08 02:35:15.384951+01 | 1486517715.38495 |                 0 |               3 |                     5 |                    5 |                 12 |           560 |                5 |         1473194 |                     0 |     106142850 | 2017-02-08 02:19:40.96972+01

 2017-02-08 02:35:16.566924+01 | 1486517716.56692 |                 0 |               3 |                     5 |                    5 |                 12 |           560 |                5 |         1473194 |                     0 |     106280262 | 2017-02-08 02:19:40.96972+01

 2017-02-08 02:35:17.762846+01 | 1486517717.76285 |                 0 |               3 |                     5 |                    5 |                 12 |           560 |                5 |         1473194 |                     0 |     106424573 | 2017-02-08 02:19:40.96972+01

 2017-02-08 02:35:18.957141+01 | 1486517718.95714 |                 0 |               3 |                     5 |                    5 |                 12 |           560 |                5 |         1473194 |                     0 |     106545021 | 2017-02-08 02:19:40.96972+01

 2017-02-08 02:35:20.152621+01 | 1486517720.15262 |                 0 |               3 |                     5 |                    5 |                 12 |           560 |                5 |         1473194 |                     0 |     106689907 | 2017-02-08 02:19:40.96972+01

 2017-02-08 02:35:21.311247+01 | 1486517721.31125 |                 0 |               3 |                     5 |                    5 |                 12 |           560 |                5 |         1473194 |                     0 |     106834711 | 2017-02-08 02:19:40.96972+01

 2017-02-08 02:35:22.433277+01 | 1486517722.43328 |                 0 |               3 |                     5 |                    5 |                 12 |           560 |                5 |         1473194 |                     0 |     106968738 | 2017-02-08 02:19:40.96972+01

 2017-02-08 02:35:23.540622+01 | 1486517723.54062 |                 0 |               3 |                     5 |                    5 |                 12 |           560 |                5 |         1473194 |                     0 |     107090073 | 2017-02-08 02:19:40.96972+01

 2017-02-08 02:35:24.694372+01 | 1486517724.69437 |                 0 |               3 |                     5 |                    5 |                 12 |           560 |                5 |         1473194 |                     0 |     107189268 | 2017-02-08 02:19:40.96972+01

 2017-02-08 02:35:25.872681+01 | 1486517725.87268 |                 0 |               3 |                     5 |                    5 |                 12 |           560 |                5 |         1473194 |                     0 |     107329569 | 2017-02-08 02:19:40.96972+01

 2017-02-08 02:35:27.066945+01 | 1486517727.06695 |                 0 |               3 |                     5 |                    5 |                 12 |           560 |                5 |         1473194 |                     0 |     107474638 | 2017-02-08 02:19:40.96972+01

 2017-02-08 02:35:28.265507+01 | 1486517728.26551 |                 0 |               3 |                     5 |                    5 |                 12 |           560 |                5 |         1473194 |                     0 |     107619359 | 2017-02-08 02:19:40.96972+01

 2017-02-08 02:35:29.441875+01 | 1486517729.44187 |                 0 |               3 |                     5 |                    5 |                 12 |           560 |                5 |         1473194 |                     0 |     107761599 | 2017-02-08 02:19:40.96972+01

 2017-02-08 02:35:30.62035+01 | 1486517730.62035 |                 0 |               3 |                     5 |                    5 |                 12 |           560 |                5 |         1473194 |                     0 |     107872287 | 2017-02-08 02:19:40.96972+01

