 2017-02-10 15:26:21.81268+01 | 1486736781.81268 | pgbench_branches_pkey |            16384
 2017-02-10 15:26:21.81268+01 | 1486736781.81268 | pgbench_tellers_pkey  |            90112
 2017-02-10 15:26:21.81268+01 | 1486736781.81268 | pgbench_accounts_pkey |        690167808

 2017-02-10 15:26:22.863279+01 | 1486736782.86328 | pgbench_branches_pkey |            16384
 2017-02-10 15:26:22.863279+01 | 1486736782.86328 | pgbench_tellers_pkey  |            90112
 2017-02-10 15:26:22.863279+01 | 1486736782.86328 | pgbench_accounts_pkey |        690167808

 2017-02-10 15:26:23.912549+01 | 1486736783.91255 | pgbench_branches_pkey |            16384
 2017-02-10 15:26:23.912549+01 | 1486736783.91255 | pgbench_tellers_pkey  |            90112
 2017-02-10 15:26:23.912549+01 | 1486736783.91255 | pgbench_accounts_pkey |        690167808

 2017-02-10 15:26:24.962892+01 | 1486736784.96289 | pgbench_branches_pkey |            16384
 2017-02-10 15:26:24.962892+01 | 1486736784.96289 | pgbench_tellers_pkey  |            90112
 2017-02-10 15:26:24.962892+01 | 1486736784.96289 | pgbench_accounts_pkey |        690167808

 2017-02-10 15:26:26.012012+01 | 1486736786.01201 | pgbench_branches_pkey |            16384
 2017-02-10 15:26:26.012012+01 | 1486736786.01201 | pgbench_tellers_pkey  |            90112
 2017-02-10 15:26:26.012012+01 | 1486736786.01201 | pgbench_accounts_pkey |        690167808

 2017-02-10 15:26:27.063214+01 | 1486736787.06321 | pgbench_branches_pkey |            16384
 2017-02-10 15:26:27.063214+01 | 1486736787.06321 | pgbench_tellers_pkey  |            90112
 2017-02-10 15:26:27.063214+01 | 1486736787.06321 | pgbench_accounts_pkey |        690167808

 2017-02-10 15:26:28.11379+01 | 1486736788.11379 | pgbench_branches_pkey |            16384
 2017-02-10 15:26:28.11379+01 | 1486736788.11379 | pgbench_tellers_pkey  |            90112
 2017-02-10 15:26:28.11379+01 | 1486736788.11379 | pgbench_accounts_pkey |        690167808

 2017-02-10 15:26:29.165212+01 | 1486736789.16521 | pgbench_branches_pkey |            16384
 2017-02-10 15:26:29.165212+01 | 1486736789.16521 | pgbench_tellers_pkey  |            90112
 2017-02-10 15:26:29.165212+01 | 1486736789.16521 | pgbench_accounts_pkey |        690167808

 2017-02-10 15:26:30.215784+01 | 1486736790.21578 | pgbench_branches_pkey |            16384
 2017-02-10 15:26:30.215784+01 | 1486736790.21578 | pgbench_tellers_pkey  |            90112
 2017-02-10 15:26:30.215784+01 | 1486736790.21578 | pgbench_accounts_pkey |        690167808

 2017-02-10 15:26:31.267336+01 | 1486736791.26734 | pgbench_branches_pkey |            16384
 2017-02-10 15:26:31.267336+01 | 1486736791.26734 | pgbench_tellers_pkey  |            90112
 2017-02-10 15:26:31.267336+01 | 1486736791.26734 | pgbench_accounts_pkey |        690167808

 2017-02-10 15:26:32.3172+01 | 1486736792.3172 | pgbench_branches_pkey |            16384
 2017-02-10 15:26:32.3172+01 | 1486736792.3172 | pgbench_tellers_pkey  |            90112
 2017-02-10 15:26:32.3172+01 | 1486736792.3172 | pgbench_accounts_pkey |        690167808

 2017-02-10 15:26:33.367268+01 | 1486736793.36727 | pgbench_branches_pkey |            16384
 2017-02-10 15:26:33.367268+01 | 1486736793.36727 | pgbench_tellers_pkey  |            90112
 2017-02-10 15:26:33.367268+01 | 1486736793.36727 | pgbench_accounts_pkey |        690167808

 2017-02-10 15:26:34.418017+01 | 1486736794.41802 | pgbench_branches_pkey |            16384
 2017-02-10 15:26:34.418017+01 | 1486736794.41802 | pgbench_tellers_pkey  |            90112
 2017-02-10 15:26:34.418017+01 | 1486736794.41802 | pgbench_accounts_pkey |        690167808

 2017-02-10 15:26:35.468009+01 | 1486736795.46801 | pgbench_branches_pkey |            16384
 2017-02-10 15:26:35.468009+01 | 1486736795.46801 | pgbench_tellers_pkey  |            90112
 2017-02-10 15:26:35.468009+01 | 1486736795.46801 | pgbench_accounts_pkey |        690167808

 2017-02-10 15:26:36.520994+01 | 1486736796.52099 | pgbench_branches_pkey |            16384
 2017-02-10 15:26:36.520994+01 | 1486736796.52099 | pgbench_tellers_pkey  |            90112
 2017-02-10 15:26:36.520994+01 | 1486736796.52099 | pgbench_accounts_pkey |        690167808

 2017-02-10 15:26:37.577004+01 | 1486736797.577 | pgbench_branches_pkey |            16384
 2017-02-10 15:26:37.577004+01 | 1486736797.577 | pgbench_tellers_pkey  |            90112
 2017-02-10 15:26:37.577004+01 | 1486736797.577 | pgbench_accounts_pkey |        690167808

 2017-02-10 15:26:38.631448+01 | 1486736798.63145 | pgbench_branches_pkey |            16384
 2017-02-10 15:26:38.631448+01 | 1486736798.63145 | pgbench_tellers_pkey  |            90112
 2017-02-10 15:26:38.631448+01 | 1486736798.63145 | pgbench_accounts_pkey |        690167808

 2017-02-10 15:26:39.682532+01 | 1486736799.68253 | pgbench_branches_pkey |            16384
 2017-02-10 15:26:39.682532+01 | 1486736799.68253 | pgbench_tellers_pkey  |            90112
 2017-02-10 15:26:39.682532+01 | 1486736799.68253 | pgbench_accounts_pkey |        690167808

 2017-02-10 15:26:40.731333+01 | 1486736800.73133 | pgbench_branches_pkey |            16384
 2017-02-10 15:26:40.731333+01 | 1486736800.73133 | pgbench_tellers_pkey  |            90112
 2017-02-10 15:26:40.731333+01 | 1486736800.73133 | pgbench_accounts_pkey |        690167808

 2017-02-10 15:26:41.783738+01 | 1486736801.78374 | pgbench_branches_pkey |            16384
 2017-02-10 15:26:41.783738+01 | 1486736801.78374 | pgbench_tellers_pkey  |            90112
 2017-02-10 15:26:41.783738+01 | 1486736801.78374 | pgbench_accounts_pkey |        690167808

 2017-02-10 15:26:42.835667+01 | 1486736802.83567 | pgbench_branches_pkey |            16384
 2017-02-10 15:26:42.835667+01 | 1486736802.83567 | pgbench_tellers_pkey  |            90112
 2017-02-10 15:26:42.835667+01 | 1486736802.83567 | pgbench_accounts_pkey |        690167808

 2017-02-10 15:26:43.886152+01 | 1486736803.88615 | pgbench_branches_pkey |            16384
 2017-02-10 15:26:43.886152+01 | 1486736803.88615 | pgbench_tellers_pkey  |            90112
 2017-02-10 15:26:43.886152+01 | 1486736803.88615 | pgbench_accounts_pkey |        690167808

 2017-02-10 15:26:44.940337+01 | 1486736804.94034 | pgbench_branches_pkey |            16384
 2017-02-10 15:26:44.940337+01 | 1486736804.94034 | pgbench_tellers_pkey  |            90112
 2017-02-10 15:26:44.940337+01 | 1486736804.94034 | pgbench_accounts_pkey |        690167808

 2017-02-10 15:26:45.992503+01 | 1486736805.9925 | pgbench_branches_pkey |            16384
 2017-02-10 15:26:45.992503+01 | 1486736805.9925 | pgbench_tellers_pkey  |            90112
 2017-02-10 15:26:45.992503+01 | 1486736805.9925 | pgbench_accounts_pkey |        690167808

 2017-02-10 15:26:47.044452+01 | 1486736807.04445 | pgbench_branches_pkey |            16384
 2017-02-10 15:26:47.044452+01 | 1486736807.04445 | pgbench_tellers_pkey  |            90112
 2017-02-10 15:26:47.044452+01 | 1486736807.04445 | pgbench_accounts_pkey |        690167808

 2017-02-10 15:26:48.095408+01 | 1486736808.09541 | pgbench_branches_pkey |            16384
 2017-02-10 15:26:48.095408+01 | 1486736808.09541 | pgbench_tellers_pkey  |            90112
 2017-02-10 15:26:48.095408+01 | 1486736808.09541 | pgbench_accounts_pkey |        690167808

 2017-02-10 15:26:49.147453+01 | 1486736809.14745 | pgbench_branches_pkey |            16384
 2017-02-10 15:26:49.147453+01 | 1486736809.14745 | pgbench_tellers_pkey  |            90112
 2017-02-10 15:26:49.147453+01 | 1486736809.14745 | pgbench_accounts_pkey |        690167808

 2017-02-10 15:26:50.200383+01 | 1486736810.20038 | pgbench_branches_pkey |            16384
 2017-02-10 15:26:50.200383+01 | 1486736810.20038 | pgbench_tellers_pkey  |            90112
 2017-02-10 15:26:50.200383+01 | 1486736810.20038 | pgbench_accounts_pkey |        690167808

 2017-02-10 15:26:51.252032+01 | 1486736811.25203 | pgbench_branches_pkey |            16384
 2017-02-10 15:26:51.252032+01 | 1486736811.25203 | pgbench_tellers_pkey  |            90112
 2017-02-10 15:26:51.252032+01 | 1486736811.25203 | pgbench_accounts_pkey |        690167808

 2017-02-10 15:26:52.300839+01 | 1486736812.30084 | pgbench_branches_pkey |            16384
 2017-02-10 15:26:52.300839+01 | 1486736812.30084 | pgbench_tellers_pkey  |            90112
 2017-02-10 15:26:52.300839+01 | 1486736812.30084 | pgbench_accounts_pkey |        690167808

 2017-02-10 15:26:53.35076+01 | 1486736813.35076 | pgbench_branches_pkey |            16384
 2017-02-10 15:26:53.35076+01 | 1486736813.35076 | pgbench_tellers_pkey  |            90112
 2017-02-10 15:26:53.35076+01 | 1486736813.35076 | pgbench_accounts_pkey |        690167808

 2017-02-10 15:26:54.405283+01 | 1486736814.40528 | pgbench_branches_pkey |            16384
 2017-02-10 15:26:54.405283+01 | 1486736814.40528 | pgbench_tellers_pkey  |            90112
 2017-02-10 15:26:54.405283+01 | 1486736814.40528 | pgbench_accounts_pkey |        690167808

 2017-02-10 15:26:55.456265+01 | 1486736815.45626 | pgbench_branches_pkey |            16384
 2017-02-10 15:26:55.456265+01 | 1486736815.45626 | pgbench_tellers_pkey  |            90112
 2017-02-10 15:26:55.456265+01 | 1486736815.45626 | pgbench_accounts_pkey |        690167808

 2017-02-10 15:26:56.505391+01 | 1486736816.50539 | pgbench_branches_pkey |            16384
 2017-02-10 15:26:56.505391+01 | 1486736816.50539 | pgbench_tellers_pkey  |            90112
 2017-02-10 15:26:56.505391+01 | 1486736816.50539 | pgbench_accounts_pkey |        690167808

 2017-02-10 15:26:57.553874+01 | 1486736817.55387 | pgbench_branches_pkey |            16384
 2017-02-10 15:26:57.553874+01 | 1486736817.55387 | pgbench_tellers_pkey  |            90112
 2017-02-10 15:26:57.553874+01 | 1486736817.55387 | pgbench_accounts_pkey |        690167808

 2017-02-10 15:26:58.603471+01 | 1486736818.60347 | pgbench_branches_pkey |            16384
 2017-02-10 15:26:58.603471+01 | 1486736818.60347 | pgbench_tellers_pkey  |            90112
 2017-02-10 15:26:58.603471+01 | 1486736818.60347 | pgbench_accounts_pkey |        690167808

 2017-02-10 15:26:59.656584+01 | 1486736819.65658 | pgbench_branches_pkey |            16384
 2017-02-10 15:26:59.656584+01 | 1486736819.65658 | pgbench_tellers_pkey  |            90112
 2017-02-10 15:26:59.656584+01 | 1486736819.65658 | pgbench_accounts_pkey |        690167808

 2017-02-10 15:27:00.708494+01 | 1486736820.70849 | pgbench_branches_pkey |            16384
 2017-02-10 15:27:00.708494+01 | 1486736820.70849 | pgbench_tellers_pkey  |            90112
 2017-02-10 15:27:00.708494+01 | 1486736820.70849 | pgbench_accounts_pkey |        690167808

 2017-02-10 15:27:01.758839+01 | 1486736821.75884 | pgbench_branches_pkey |            16384
 2017-02-10 15:27:01.758839+01 | 1486736821.75884 | pgbench_tellers_pkey  |            90112
 2017-02-10 15:27:01.758839+01 | 1486736821.75884 | pgbench_accounts_pkey |        690167808

 2017-02-10 15:27:02.812276+01 | 1486736822.81228 | pgbench_branches_pkey |            16384
 2017-02-10 15:27:02.812276+01 | 1486736822.81228 | pgbench_tellers_pkey  |            90112
 2017-02-10 15:27:02.812276+01 | 1486736822.81228 | pgbench_accounts_pkey |        690167808

 2017-02-10 15:27:03.864915+01 | 1486736823.86491 | pgbench_branches_pkey |            16384
 2017-02-10 15:27:03.864915+01 | 1486736823.86491 | pgbench_tellers_pkey  |            90112
 2017-02-10 15:27:03.864915+01 | 1486736823.86491 | pgbench_accounts_pkey |        690167808

 2017-02-10 15:27:04.915176+01 | 1486736824.91518 | pgbench_branches_pkey |            16384
 2017-02-10 15:27:04.915176+01 | 1486736824.91518 | pgbench_tellers_pkey  |            90112
 2017-02-10 15:27:04.915176+01 | 1486736824.91518 | pgbench_accounts_pkey |        690167808

 2017-02-10 15:27:05.967863+01 | 1486736825.96786 | pgbench_branches_pkey |            16384
 2017-02-10 15:27:05.967863+01 | 1486736825.96786 | pgbench_tellers_pkey  |            90112
 2017-02-10 15:27:05.967863+01 | 1486736825.96786 | pgbench_accounts_pkey |        690167808

 2017-02-10 15:27:07.019175+01 | 1486736827.01918 | pgbench_branches_pkey |            16384
 2017-02-10 15:27:07.019175+01 | 1486736827.01918 | pgbench_tellers_pkey  |            90112
 2017-02-10 15:27:07.019175+01 | 1486736827.01918 | pgbench_accounts_pkey |        690167808

 2017-02-10 15:27:08.070349+01 | 1486736828.07035 | pgbench_branches_pkey |            16384
 2017-02-10 15:27:08.070349+01 | 1486736828.07035 | pgbench_tellers_pkey  |            90112
 2017-02-10 15:27:08.070349+01 | 1486736828.07035 | pgbench_accounts_pkey |        690167808

 2017-02-10 15:27:09.123282+01 | 1486736829.12328 | pgbench_branches_pkey |            16384
 2017-02-10 15:27:09.123282+01 | 1486736829.12328 | pgbench_tellers_pkey  |            90112
 2017-02-10 15:27:09.123282+01 | 1486736829.12328 | pgbench_accounts_pkey |        690167808

 2017-02-10 15:27:10.17765+01 | 1486736830.17765 | pgbench_branches_pkey |            16384
 2017-02-10 15:27:10.17765+01 | 1486736830.17765 | pgbench_tellers_pkey  |            90112
 2017-02-10 15:27:10.17765+01 | 1486736830.17765 | pgbench_accounts_pkey |        690167808

 2017-02-10 15:27:11.229422+01 | 1486736831.22942 | pgbench_branches_pkey |            16384
 2017-02-10 15:27:11.229422+01 | 1486736831.22942 | pgbench_tellers_pkey  |            90112
 2017-02-10 15:27:11.229422+01 | 1486736831.22942 | pgbench_accounts_pkey |        690167808

 2017-02-10 15:27:12.27902+01 | 1486736832.27902 | pgbench_branches_pkey |            16384
 2017-02-10 15:27:12.27902+01 | 1486736832.27902 | pgbench_tellers_pkey  |            90112
 2017-02-10 15:27:12.27902+01 | 1486736832.27902 | pgbench_accounts_pkey |        690167808

 2017-02-10 15:27:13.333011+01 | 1486736833.33301 | pgbench_branches_pkey |            16384
 2017-02-10 15:27:13.333011+01 | 1486736833.33301 | pgbench_tellers_pkey  |            90112
 2017-02-10 15:27:13.333011+01 | 1486736833.33301 | pgbench_accounts_pkey |        690167808

 2017-02-10 15:27:14.384362+01 | 1486736834.38436 | pgbench_branches_pkey |            16384
 2017-02-10 15:27:14.384362+01 | 1486736834.38436 | pgbench_tellers_pkey  |            90112
 2017-02-10 15:27:14.384362+01 | 1486736834.38436 | pgbench_accounts_pkey |        690167808

 2017-02-10 15:27:15.439099+01 | 1486736835.4391 | pgbench_branches_pkey |            16384
 2017-02-10 15:27:15.439099+01 | 1486736835.4391 | pgbench_tellers_pkey  |            90112
 2017-02-10 15:27:15.439099+01 | 1486736835.4391 | pgbench_accounts_pkey |        690167808

 2017-02-10 15:27:16.496659+01 | 1486736836.49666 | pgbench_branches_pkey |            16384
 2017-02-10 15:27:16.496659+01 | 1486736836.49666 | pgbench_tellers_pkey  |            90112
 2017-02-10 15:27:16.496659+01 | 1486736836.49666 | pgbench_accounts_pkey |        690167808

 2017-02-10 15:27:17.545618+01 | 1486736837.54562 | pgbench_branches_pkey |            16384
 2017-02-10 15:27:17.545618+01 | 1486736837.54562 | pgbench_tellers_pkey  |            90112
 2017-02-10 15:27:17.545618+01 | 1486736837.54562 | pgbench_accounts_pkey |        690167808

 2017-02-10 15:27:18.596686+01 | 1486736838.59669 | pgbench_branches_pkey |            16384
 2017-02-10 15:27:18.596686+01 | 1486736838.59669 | pgbench_tellers_pkey  |            90112
 2017-02-10 15:27:18.596686+01 | 1486736838.59669 | pgbench_accounts_pkey |        690167808

 2017-02-10 15:27:19.648862+01 | 1486736839.64886 | pgbench_branches_pkey |            16384
 2017-02-10 15:27:19.648862+01 | 1486736839.64886 | pgbench_tellers_pkey  |            90112
 2017-02-10 15:27:19.648862+01 | 1486736839.64886 | pgbench_accounts_pkey |        690167808

 2017-02-10 15:27:20.70224+01 | 1486736840.70224 | pgbench_branches_pkey |            16384
 2017-02-10 15:27:20.70224+01 | 1486736840.70224 | pgbench_tellers_pkey  |            90112
 2017-02-10 15:27:20.70224+01 | 1486736840.70224 | pgbench_accounts_pkey |        690167808

 2017-02-10 15:27:21.755676+01 | 1486736841.75568 | pgbench_branches_pkey |            16384
 2017-02-10 15:27:21.755676+01 | 1486736841.75568 | pgbench_tellers_pkey  |            90112
 2017-02-10 15:27:21.755676+01 | 1486736841.75568 | pgbench_accounts_pkey |        690167808

 2017-02-10 15:27:22.80922+01 | 1486736842.80922 | pgbench_branches_pkey |            16384
 2017-02-10 15:27:22.80922+01 | 1486736842.80922 | pgbench_tellers_pkey  |            90112
 2017-02-10 15:27:22.80922+01 | 1486736842.80922 | pgbench_accounts_pkey |        690167808

 2017-02-10 15:27:23.862559+01 | 1486736843.86256 | pgbench_branches_pkey |            16384
 2017-02-10 15:27:23.862559+01 | 1486736843.86256 | pgbench_tellers_pkey  |            90112
 2017-02-10 15:27:23.862559+01 | 1486736843.86256 | pgbench_accounts_pkey |        690167808

 2017-02-10 15:27:24.912507+01 | 1486736844.91251 | pgbench_branches_pkey |            16384
 2017-02-10 15:27:24.912507+01 | 1486736844.91251 | pgbench_tellers_pkey  |            90112
 2017-02-10 15:27:24.912507+01 | 1486736844.91251 | pgbench_accounts_pkey |        690167808

 2017-02-10 15:27:25.966964+01 | 1486736845.96696 | pgbench_branches_pkey |            16384
 2017-02-10 15:27:25.966964+01 | 1486736845.96696 | pgbench_tellers_pkey  |            90112
 2017-02-10 15:27:25.966964+01 | 1486736845.96696 | pgbench_accounts_pkey |        690167808

 2017-02-10 15:27:27.019623+01 | 1486736847.01962 | pgbench_branches_pkey |            16384
 2017-02-10 15:27:27.019623+01 | 1486736847.01962 | pgbench_tellers_pkey  |            90112
 2017-02-10 15:27:27.019623+01 | 1486736847.01962 | pgbench_accounts_pkey |        690167808

 2017-02-10 15:27:28.071303+01 | 1486736848.0713 | pgbench_branches_pkey |            16384
 2017-02-10 15:27:28.071303+01 | 1486736848.0713 | pgbench_tellers_pkey  |            90112
 2017-02-10 15:27:28.071303+01 | 1486736848.0713 | pgbench_accounts_pkey |        690167808

 2017-02-10 15:27:29.123915+01 | 1486736849.12391 | pgbench_branches_pkey |            16384
 2017-02-10 15:27:29.123915+01 | 1486736849.12391 | pgbench_tellers_pkey  |            90112
 2017-02-10 15:27:29.123915+01 | 1486736849.12391 | pgbench_accounts_pkey |        690167808

 2017-02-10 15:27:30.174404+01 | 1486736850.1744 | pgbench_branches_pkey |            16384
 2017-02-10 15:27:30.174404+01 | 1486736850.1744 | pgbench_tellers_pkey  |            90112
 2017-02-10 15:27:30.174404+01 | 1486736850.1744 | pgbench_accounts_pkey |        690167808

 2017-02-10 15:27:31.224803+01 | 1486736851.2248 | pgbench_branches_pkey |            16384
 2017-02-10 15:27:31.224803+01 | 1486736851.2248 | pgbench_tellers_pkey  |            90112
 2017-02-10 15:27:31.224803+01 | 1486736851.2248 | pgbench_accounts_pkey |        690167808

 2017-02-10 15:27:32.278528+01 | 1486736852.27853 | pgbench_branches_pkey |            16384
 2017-02-10 15:27:32.278528+01 | 1486736852.27853 | pgbench_tellers_pkey  |            90112
 2017-02-10 15:27:32.278528+01 | 1486736852.27853 | pgbench_accounts_pkey |        690167808

 2017-02-10 15:27:33.332539+01 | 1486736853.33254 | pgbench_branches_pkey |            16384
 2017-02-10 15:27:33.332539+01 | 1486736853.33254 | pgbench_tellers_pkey  |            90112
 2017-02-10 15:27:33.332539+01 | 1486736853.33254 | pgbench_accounts_pkey |        690167808

 2017-02-10 15:27:34.376203+01 | 1486736854.3762 | pgbench_branches_pkey |            16384
 2017-02-10 15:27:34.376203+01 | 1486736854.3762 | pgbench_tellers_pkey  |            90112
 2017-02-10 15:27:34.376203+01 | 1486736854.3762 | pgbench_accounts_pkey |        690167808

 2017-02-10 15:27:35.430088+01 | 1486736855.43009 | pgbench_branches_pkey |            16384
 2017-02-10 15:27:35.430088+01 | 1486736855.43009 | pgbench_tellers_pkey  |            90112
 2017-02-10 15:27:35.430088+01 | 1486736855.43009 | pgbench_accounts_pkey |        690167808

 2017-02-10 15:27:36.481146+01 | 1486736856.48115 | pgbench_branches_pkey |            16384
 2017-02-10 15:27:36.481146+01 | 1486736856.48115 | pgbench_tellers_pkey  |            90112
 2017-02-10 15:27:36.481146+01 | 1486736856.48115 | pgbench_accounts_pkey |        690167808

 2017-02-10 15:27:37.531899+01 | 1486736857.5319 | pgbench_branches_pkey |            16384
 2017-02-10 15:27:37.531899+01 | 1486736857.5319 | pgbench_tellers_pkey  |            90112
 2017-02-10 15:27:37.531899+01 | 1486736857.5319 | pgbench_accounts_pkey |        690167808

 2017-02-10 15:27:38.58372+01 | 1486736858.58372 | pgbench_branches_pkey |            16384
 2017-02-10 15:27:38.58372+01 | 1486736858.58372 | pgbench_tellers_pkey  |            90112
 2017-02-10 15:27:38.58372+01 | 1486736858.58372 | pgbench_accounts_pkey |        690167808

 2017-02-10 15:27:39.635564+01 | 1486736859.63556 | pgbench_branches_pkey |            16384
 2017-02-10 15:27:39.635564+01 | 1486736859.63556 | pgbench_tellers_pkey  |            90112
 2017-02-10 15:27:39.635564+01 | 1486736859.63556 | pgbench_accounts_pkey |        690167808

 2017-02-10 15:27:40.688163+01 | 1486736860.68816 | pgbench_branches_pkey |            16384
 2017-02-10 15:27:40.688163+01 | 1486736860.68816 | pgbench_tellers_pkey  |            90112
 2017-02-10 15:27:40.688163+01 | 1486736860.68816 | pgbench_accounts_pkey |        690167808

 2017-02-10 15:27:41.740367+01 | 1486736861.74037 | pgbench_branches_pkey |            16384
 2017-02-10 15:27:41.740367+01 | 1486736861.74037 | pgbench_tellers_pkey  |            90112
 2017-02-10 15:27:41.740367+01 | 1486736861.74037 | pgbench_accounts_pkey |        690167808

 2017-02-10 15:27:42.79213+01 | 1486736862.79213 | pgbench_branches_pkey |            16384
 2017-02-10 15:27:42.79213+01 | 1486736862.79213 | pgbench_tellers_pkey  |            90112
 2017-02-10 15:27:42.79213+01 | 1486736862.79213 | pgbench_accounts_pkey |        690167808

 2017-02-10 15:27:43.843357+01 | 1486736863.84336 | pgbench_branches_pkey |            16384
 2017-02-10 15:27:43.843357+01 | 1486736863.84336 | pgbench_tellers_pkey  |            90112
 2017-02-10 15:27:43.843357+01 | 1486736863.84336 | pgbench_accounts_pkey |        690167808

 2017-02-10 15:27:44.896856+01 | 1486736864.89686 | pgbench_branches_pkey |            16384
 2017-02-10 15:27:44.896856+01 | 1486736864.89686 | pgbench_tellers_pkey  |            90112
 2017-02-10 15:27:44.896856+01 | 1486736864.89686 | pgbench_accounts_pkey |        690167808

 2017-02-10 15:27:45.948668+01 | 1486736865.94867 | pgbench_branches_pkey |            16384
 2017-02-10 15:27:45.948668+01 | 1486736865.94867 | pgbench_tellers_pkey  |            90112
 2017-02-10 15:27:45.948668+01 | 1486736865.94867 | pgbench_accounts_pkey |        690167808

 2017-02-10 15:27:47.001636+01 | 1486736867.00164 | pgbench_branches_pkey |            16384
 2017-02-10 15:27:47.001636+01 | 1486736867.00164 | pgbench_tellers_pkey  |            90112
 2017-02-10 15:27:47.001636+01 | 1486736867.00164 | pgbench_accounts_pkey |        690167808

 2017-02-10 15:27:48.055634+01 | 1486736868.05563 | pgbench_branches_pkey |            16384
 2017-02-10 15:27:48.055634+01 | 1486736868.05563 | pgbench_tellers_pkey  |            90112
 2017-02-10 15:27:48.055634+01 | 1486736868.05563 | pgbench_accounts_pkey |        690167808

 2017-02-10 15:27:49.104996+01 | 1486736869.105 | pgbench_branches_pkey |            16384
 2017-02-10 15:27:49.104996+01 | 1486736869.105 | pgbench_tellers_pkey  |            90112
 2017-02-10 15:27:49.104996+01 | 1486736869.105 | pgbench_accounts_pkey |        690167808

 2017-02-10 15:27:50.15465+01 | 1486736870.15465 | pgbench_branches_pkey |            16384
 2017-02-10 15:27:50.15465+01 | 1486736870.15465 | pgbench_tellers_pkey  |            90112
 2017-02-10 15:27:50.15465+01 | 1486736870.15465 | pgbench_accounts_pkey |        690167808

 2017-02-10 15:27:51.204281+01 | 1486736871.20428 | pgbench_branches_pkey |            16384
 2017-02-10 15:27:51.204281+01 | 1486736871.20428 | pgbench_tellers_pkey  |            90112
 2017-02-10 15:27:51.204281+01 | 1486736871.20428 | pgbench_accounts_pkey |        690167808

 2017-02-10 15:27:52.257058+01 | 1486736872.25706 | pgbench_branches_pkey |            16384
 2017-02-10 15:27:52.257058+01 | 1486736872.25706 | pgbench_tellers_pkey  |            90112
 2017-02-10 15:27:52.257058+01 | 1486736872.25706 | pgbench_accounts_pkey |        690167808

 2017-02-10 15:27:53.308274+01 | 1486736873.30827 | pgbench_branches_pkey |            16384
 2017-02-10 15:27:53.308274+01 | 1486736873.30827 | pgbench_tellers_pkey  |            90112
 2017-02-10 15:27:53.308274+01 | 1486736873.30827 | pgbench_accounts_pkey |        690167808

 2017-02-10 15:27:54.35747+01 | 1486736874.35747 | pgbench_branches_pkey |            16384
 2017-02-10 15:27:54.35747+01 | 1486736874.35747 | pgbench_tellers_pkey  |            90112
 2017-02-10 15:27:54.35747+01 | 1486736874.35747 | pgbench_accounts_pkey |        690167808

 2017-02-10 15:27:55.409286+01 | 1486736875.40929 | pgbench_branches_pkey |            16384
 2017-02-10 15:27:55.409286+01 | 1486736875.40929 | pgbench_tellers_pkey  |            90112
 2017-02-10 15:27:55.409286+01 | 1486736875.40929 | pgbench_accounts_pkey |        690167808

 2017-02-10 15:27:56.462313+01 | 1486736876.46231 | pgbench_branches_pkey |            16384
 2017-02-10 15:27:56.462313+01 | 1486736876.46231 | pgbench_tellers_pkey  |            90112
 2017-02-10 15:27:56.462313+01 | 1486736876.46231 | pgbench_accounts_pkey |        690167808

 2017-02-10 15:27:57.511895+01 | 1486736877.51189 | pgbench_branches_pkey |            16384
 2017-02-10 15:27:57.511895+01 | 1486736877.51189 | pgbench_tellers_pkey  |            90112
 2017-02-10 15:27:57.511895+01 | 1486736877.51189 | pgbench_accounts_pkey |        690167808

 2017-02-10 15:27:58.562143+01 | 1486736878.56214 | pgbench_branches_pkey |            16384
 2017-02-10 15:27:58.562143+01 | 1486736878.56214 | pgbench_tellers_pkey  |            90112
 2017-02-10 15:27:58.562143+01 | 1486736878.56214 | pgbench_accounts_pkey |        690167808

 2017-02-10 15:27:59.61549+01 | 1486736879.61549 | pgbench_branches_pkey |            16384
 2017-02-10 15:27:59.61549+01 | 1486736879.61549 | pgbench_tellers_pkey  |            90112
 2017-02-10 15:27:59.61549+01 | 1486736879.61549 | pgbench_accounts_pkey |        690167808

 2017-02-10 15:28:00.66028+01 | 1486736880.66028 | pgbench_branches_pkey |            16384
 2017-02-10 15:28:00.66028+01 | 1486736880.66028 | pgbench_tellers_pkey  |            90112
 2017-02-10 15:28:00.66028+01 | 1486736880.66028 | pgbench_accounts_pkey |        690167808

 2017-02-10 15:28:01.710742+01 | 1486736881.71074 | pgbench_branches_pkey |            16384
 2017-02-10 15:28:01.710742+01 | 1486736881.71074 | pgbench_tellers_pkey  |            90112
 2017-02-10 15:28:01.710742+01 | 1486736881.71074 | pgbench_accounts_pkey |        690167808

 2017-02-10 15:28:02.761324+01 | 1486736882.76132 | pgbench_branches_pkey |            16384
 2017-02-10 15:28:02.761324+01 | 1486736882.76132 | pgbench_tellers_pkey  |            90112
 2017-02-10 15:28:02.761324+01 | 1486736882.76132 | pgbench_accounts_pkey |        690167808

 2017-02-10 15:28:03.81447+01 | 1486736883.81447 | pgbench_branches_pkey |            16384
 2017-02-10 15:28:03.81447+01 | 1486736883.81447 | pgbench_tellers_pkey  |            90112
 2017-02-10 15:28:03.81447+01 | 1486736883.81447 | pgbench_accounts_pkey |        690167808

 2017-02-10 15:28:04.867497+01 | 1486736884.8675 | pgbench_branches_pkey |            16384
 2017-02-10 15:28:04.867497+01 | 1486736884.8675 | pgbench_tellers_pkey  |            90112
 2017-02-10 15:28:04.867497+01 | 1486736884.8675 | pgbench_accounts_pkey |        690167808

 2017-02-10 15:28:05.921262+01 | 1486736885.92126 | pgbench_branches_pkey |            16384
 2017-02-10 15:28:05.921262+01 | 1486736885.92126 | pgbench_tellers_pkey  |            90112
 2017-02-10 15:28:05.921262+01 | 1486736885.92126 | pgbench_accounts_pkey |        690167808

 2017-02-10 15:28:06.972742+01 | 1486736886.97274 | pgbench_branches_pkey |            16384
 2017-02-10 15:28:06.972742+01 | 1486736886.97274 | pgbench_tellers_pkey  |            90112
 2017-02-10 15:28:06.972742+01 | 1486736886.97274 | pgbench_accounts_pkey |        690167808

 2017-02-10 15:28:08.026892+01 | 1486736888.02689 | pgbench_branches_pkey |            16384
 2017-02-10 15:28:08.026892+01 | 1486736888.02689 | pgbench_tellers_pkey  |            90112
 2017-02-10 15:28:08.026892+01 | 1486736888.02689 | pgbench_accounts_pkey |        690167808

 2017-02-10 15:28:09.081221+01 | 1486736889.08122 | pgbench_branches_pkey |            16384
 2017-02-10 15:28:09.081221+01 | 1486736889.08122 | pgbench_tellers_pkey  |            90112
 2017-02-10 15:28:09.081221+01 | 1486736889.08122 | pgbench_accounts_pkey |        690167808

 2017-02-10 15:28:10.132957+01 | 1486736890.13296 | pgbench_branches_pkey |            16384
 2017-02-10 15:28:10.132957+01 | 1486736890.13296 | pgbench_tellers_pkey  |            90112
 2017-02-10 15:28:10.132957+01 | 1486736890.13296 | pgbench_accounts_pkey |        690167808

 2017-02-10 15:28:11.185458+01 | 1486736891.18546 | pgbench_branches_pkey |            16384
 2017-02-10 15:28:11.185458+01 | 1486736891.18546 | pgbench_tellers_pkey  |            90112
 2017-02-10 15:28:11.185458+01 | 1486736891.18546 | pgbench_accounts_pkey |        690167808

 2017-02-10 15:28:12.237229+01 | 1486736892.23723 | pgbench_branches_pkey |            16384
 2017-02-10 15:28:12.237229+01 | 1486736892.23723 | pgbench_tellers_pkey  |            90112
 2017-02-10 15:28:12.237229+01 | 1486736892.23723 | pgbench_accounts_pkey |        690167808

 2017-02-10 15:28:13.288346+01 | 1486736893.28835 | pgbench_branches_pkey |            16384
 2017-02-10 15:28:13.288346+01 | 1486736893.28835 | pgbench_tellers_pkey  |            90112
 2017-02-10 15:28:13.288346+01 | 1486736893.28835 | pgbench_accounts_pkey |        690167808

 2017-02-10 15:28:14.338979+01 | 1486736894.33898 | pgbench_branches_pkey |            16384
 2017-02-10 15:28:14.338979+01 | 1486736894.33898 | pgbench_tellers_pkey  |            90112
 2017-02-10 15:28:14.338979+01 | 1486736894.33898 | pgbench_accounts_pkey |        690167808

 2017-02-10 15:28:15.390256+01 | 1486736895.39026 | pgbench_branches_pkey |            16384
 2017-02-10 15:28:15.390256+01 | 1486736895.39026 | pgbench_tellers_pkey  |            90112
 2017-02-10 15:28:15.390256+01 | 1486736895.39026 | pgbench_accounts_pkey |        690167808

 2017-02-10 15:28:16.443375+01 | 1486736896.44338 | pgbench_branches_pkey |            16384
 2017-02-10 15:28:16.443375+01 | 1486736896.44338 | pgbench_tellers_pkey  |            90112
 2017-02-10 15:28:16.443375+01 | 1486736896.44338 | pgbench_accounts_pkey |        690167808

 2017-02-10 15:28:17.498381+01 | 1486736897.49838 | pgbench_branches_pkey |            16384
 2017-02-10 15:28:17.498381+01 | 1486736897.49838 | pgbench_tellers_pkey  |            90112
 2017-02-10 15:28:17.498381+01 | 1486736897.49838 | pgbench_accounts_pkey |        690167808

 2017-02-10 15:28:18.547963+01 | 1486736898.54796 | pgbench_branches_pkey |            16384
 2017-02-10 15:28:18.547963+01 | 1486736898.54796 | pgbench_tellers_pkey  |            90112
 2017-02-10 15:28:18.547963+01 | 1486736898.54796 | pgbench_accounts_pkey |        690167808

 2017-02-10 15:28:19.600984+01 | 1486736899.60098 | pgbench_branches_pkey |            16384
 2017-02-10 15:28:19.600984+01 | 1486736899.60098 | pgbench_tellers_pkey  |            90112
 2017-02-10 15:28:19.600984+01 | 1486736899.60098 | pgbench_accounts_pkey |        690167808

 2017-02-10 15:28:20.654335+01 | 1486736900.65434 | pgbench_branches_pkey |            16384
 2017-02-10 15:28:20.654335+01 | 1486736900.65434 | pgbench_tellers_pkey  |            90112
 2017-02-10 15:28:20.654335+01 | 1486736900.65434 | pgbench_accounts_pkey |        690167808

 2017-02-10 15:28:21.707506+01 | 1486736901.70751 | pgbench_branches_pkey |            16384
 2017-02-10 15:28:21.707506+01 | 1486736901.70751 | pgbench_tellers_pkey  |            90112
 2017-02-10 15:28:21.707506+01 | 1486736901.70751 | pgbench_accounts_pkey |        690167808

 2017-02-10 15:28:22.7627+01 | 1486736902.7627 | pgbench_branches_pkey |            16384
 2017-02-10 15:28:22.7627+01 | 1486736902.7627 | pgbench_tellers_pkey  |            90112
 2017-02-10 15:28:22.7627+01 | 1486736902.7627 | pgbench_accounts_pkey |        690167808

 2017-02-10 15:28:23.818408+01 | 1486736903.81841 | pgbench_branches_pkey |            16384
 2017-02-10 15:28:23.818408+01 | 1486736903.81841 | pgbench_tellers_pkey  |            90112
 2017-02-10 15:28:23.818408+01 | 1486736903.81841 | pgbench_accounts_pkey |        690167808

 2017-02-10 15:28:24.870399+01 | 1486736904.8704 | pgbench_branches_pkey |            16384
 2017-02-10 15:28:24.870399+01 | 1486736904.8704 | pgbench_tellers_pkey  |            90112
 2017-02-10 15:28:24.870399+01 | 1486736904.8704 | pgbench_accounts_pkey |        690167808

 2017-02-10 15:28:25.920913+01 | 1486736905.92091 | pgbench_branches_pkey |            16384
 2017-02-10 15:28:25.920913+01 | 1486736905.92091 | pgbench_tellers_pkey  |            90112
 2017-02-10 15:28:25.920913+01 | 1486736905.92091 | pgbench_accounts_pkey |        690167808

 2017-02-10 15:28:26.971689+01 | 1486736906.97169 | pgbench_branches_pkey |            16384
 2017-02-10 15:28:26.971689+01 | 1486736906.97169 | pgbench_tellers_pkey  |            90112
 2017-02-10 15:28:26.971689+01 | 1486736906.97169 | pgbench_accounts_pkey |        690167808

 2017-02-10 15:28:28.022395+01 | 1486736908.02239 | pgbench_branches_pkey |            16384
 2017-02-10 15:28:28.022395+01 | 1486736908.02239 | pgbench_tellers_pkey  |            90112
 2017-02-10 15:28:28.022395+01 | 1486736908.02239 | pgbench_accounts_pkey |        690167808

 2017-02-10 15:28:29.077042+01 | 1486736909.07704 | pgbench_branches_pkey |            16384
 2017-02-10 15:28:29.077042+01 | 1486736909.07704 | pgbench_tellers_pkey  |            90112
 2017-02-10 15:28:29.077042+01 | 1486736909.07704 | pgbench_accounts_pkey |        690167808

 2017-02-10 15:28:30.129296+01 | 1486736910.1293 | pgbench_branches_pkey |            16384
 2017-02-10 15:28:30.129296+01 | 1486736910.1293 | pgbench_tellers_pkey  |            90112
 2017-02-10 15:28:30.129296+01 | 1486736910.1293 | pgbench_accounts_pkey |        690167808

 2017-02-10 15:28:31.17954+01 | 1486736911.17954 | pgbench_branches_pkey |            16384
 2017-02-10 15:28:31.17954+01 | 1486736911.17954 | pgbench_tellers_pkey  |            90112
 2017-02-10 15:28:31.17954+01 | 1486736911.17954 | pgbench_accounts_pkey |        690167808

 2017-02-10 15:28:32.233058+01 | 1486736912.23306 | pgbench_branches_pkey |            16384
 2017-02-10 15:28:32.233058+01 | 1486736912.23306 | pgbench_tellers_pkey  |            90112
 2017-02-10 15:28:32.233058+01 | 1486736912.23306 | pgbench_accounts_pkey |        690167808

 2017-02-10 15:28:33.287102+01 | 1486736913.2871 | pgbench_branches_pkey |            16384
 2017-02-10 15:28:33.287102+01 | 1486736913.2871 | pgbench_tellers_pkey  |            90112
 2017-02-10 15:28:33.287102+01 | 1486736913.2871 | pgbench_accounts_pkey |        690167808

 2017-02-10 15:28:34.336868+01 | 1486736914.33687 | pgbench_branches_pkey |            16384
 2017-02-10 15:28:34.336868+01 | 1486736914.33687 | pgbench_tellers_pkey  |            90112
 2017-02-10 15:28:34.336868+01 | 1486736914.33687 | pgbench_accounts_pkey |        690167808

 2017-02-10 15:28:35.386815+01 | 1486736915.38682 | pgbench_branches_pkey |            16384
 2017-02-10 15:28:35.386815+01 | 1486736915.38682 | pgbench_tellers_pkey  |            90112
 2017-02-10 15:28:35.386815+01 | 1486736915.38682 | pgbench_accounts_pkey |        690167808

 2017-02-10 15:28:36.439526+01 | 1486736916.43953 | pgbench_branches_pkey |            16384
 2017-02-10 15:28:36.439526+01 | 1486736916.43953 | pgbench_tellers_pkey  |            90112
 2017-02-10 15:28:36.439526+01 | 1486736916.43953 | pgbench_accounts_pkey |        690167808

 2017-02-10 15:28:37.493598+01 | 1486736917.4936 | pgbench_branches_pkey |            16384
 2017-02-10 15:28:37.493598+01 | 1486736917.4936 | pgbench_tellers_pkey  |            90112
 2017-02-10 15:28:37.493598+01 | 1486736917.4936 | pgbench_accounts_pkey |        690167808

 2017-02-10 15:28:38.54581+01 | 1486736918.54581 | pgbench_branches_pkey |            16384
 2017-02-10 15:28:38.54581+01 | 1486736918.54581 | pgbench_tellers_pkey  |            90112
 2017-02-10 15:28:38.54581+01 | 1486736918.54581 | pgbench_accounts_pkey |        690167808

 2017-02-10 15:28:39.598935+01 | 1486736919.59893 | pgbench_branches_pkey |            16384
 2017-02-10 15:28:39.598935+01 | 1486736919.59893 | pgbench_tellers_pkey  |            90112
 2017-02-10 15:28:39.598935+01 | 1486736919.59893 | pgbench_accounts_pkey |        690167808

 2017-02-10 15:28:40.650253+01 | 1486736920.65025 | pgbench_branches_pkey |            16384
 2017-02-10 15:28:40.650253+01 | 1486736920.65025 | pgbench_tellers_pkey  |            90112
 2017-02-10 15:28:40.650253+01 | 1486736920.65025 | pgbench_accounts_pkey |        690167808

 2017-02-10 15:28:41.701242+01 | 1486736921.70124 | pgbench_branches_pkey |            16384
 2017-02-10 15:28:41.701242+01 | 1486736921.70124 | pgbench_tellers_pkey  |            90112
 2017-02-10 15:28:41.701242+01 | 1486736921.70124 | pgbench_accounts_pkey |        690167808

 2017-02-10 15:28:42.75409+01 | 1486736922.75409 | pgbench_branches_pkey |            16384
 2017-02-10 15:28:42.75409+01 | 1486736922.75409 | pgbench_tellers_pkey  |            90112
 2017-02-10 15:28:42.75409+01 | 1486736922.75409 | pgbench_accounts_pkey |        690167808

 2017-02-10 15:28:43.80444+01 | 1486736923.80444 | pgbench_branches_pkey |            16384
 2017-02-10 15:28:43.80444+01 | 1486736923.80444 | pgbench_tellers_pkey  |            90112
 2017-02-10 15:28:43.80444+01 | 1486736923.80444 | pgbench_accounts_pkey |        690167808

 2017-02-10 15:28:44.857018+01 | 1486736924.85702 | pgbench_branches_pkey |            16384
 2017-02-10 15:28:44.857018+01 | 1486736924.85702 | pgbench_tellers_pkey  |            90112
 2017-02-10 15:28:44.857018+01 | 1486736924.85702 | pgbench_accounts_pkey |        690167808

 2017-02-10 15:28:45.909905+01 | 1486736925.9099 | pgbench_branches_pkey |            16384
 2017-02-10 15:28:45.909905+01 | 1486736925.9099 | pgbench_tellers_pkey  |            90112
 2017-02-10 15:28:45.909905+01 | 1486736925.9099 | pgbench_accounts_pkey |        690167808

 2017-02-10 15:28:46.963491+01 | 1486736926.96349 | pgbench_branches_pkey |            16384
 2017-02-10 15:28:46.963491+01 | 1486736926.96349 | pgbench_tellers_pkey  |            90112
 2017-02-10 15:28:46.963491+01 | 1486736926.96349 | pgbench_accounts_pkey |        690167808

 2017-02-10 15:28:48.016623+01 | 1486736928.01662 | pgbench_branches_pkey |            16384
 2017-02-10 15:28:48.016623+01 | 1486736928.01662 | pgbench_tellers_pkey  |            90112
 2017-02-10 15:28:48.016623+01 | 1486736928.01662 | pgbench_accounts_pkey |        690167808

 2017-02-10 15:28:49.069036+01 | 1486736929.06904 | pgbench_branches_pkey |            16384
 2017-02-10 15:28:49.069036+01 | 1486736929.06904 | pgbench_tellers_pkey  |            90112
 2017-02-10 15:28:49.069036+01 | 1486736929.06904 | pgbench_accounts_pkey |        690167808

 2017-02-10 15:28:50.118065+01 | 1486736930.11807 | pgbench_branches_pkey |            16384
 2017-02-10 15:28:50.118065+01 | 1486736930.11807 | pgbench_tellers_pkey  |            90112
 2017-02-10 15:28:50.118065+01 | 1486736930.11807 | pgbench_accounts_pkey |        690167808

 2017-02-10 15:28:51.169381+01 | 1486736931.16938 | pgbench_branches_pkey |            16384
 2017-02-10 15:28:51.169381+01 | 1486736931.16938 | pgbench_tellers_pkey  |            90112
 2017-02-10 15:28:51.169381+01 | 1486736931.16938 | pgbench_accounts_pkey |        690167808

 2017-02-10 15:28:52.223536+01 | 1486736932.22354 | pgbench_branches_pkey |            16384
 2017-02-10 15:28:52.223536+01 | 1486736932.22354 | pgbench_tellers_pkey  |            90112
 2017-02-10 15:28:52.223536+01 | 1486736932.22354 | pgbench_accounts_pkey |        690167808

 2017-02-10 15:28:53.276515+01 | 1486736933.27652 | pgbench_branches_pkey |            16384
 2017-02-10 15:28:53.276515+01 | 1486736933.27652 | pgbench_tellers_pkey  |            90112
 2017-02-10 15:28:53.276515+01 | 1486736933.27652 | pgbench_accounts_pkey |        690167808

 2017-02-10 15:28:54.33012+01 | 1486736934.33012 | pgbench_branches_pkey |            16384
 2017-02-10 15:28:54.33012+01 | 1486736934.33012 | pgbench_tellers_pkey  |            90112
 2017-02-10 15:28:54.33012+01 | 1486736934.33012 | pgbench_accounts_pkey |        690167808

 2017-02-10 15:28:55.381603+01 | 1486736935.3816 | pgbench_branches_pkey |            16384
 2017-02-10 15:28:55.381603+01 | 1486736935.3816 | pgbench_tellers_pkey  |            90112
 2017-02-10 15:28:55.381603+01 | 1486736935.3816 | pgbench_accounts_pkey |        690167808

 2017-02-10 15:28:56.436705+01 | 1486736936.43671 | pgbench_branches_pkey |            16384
 2017-02-10 15:28:56.436705+01 | 1486736936.43671 | pgbench_tellers_pkey  |            90112
 2017-02-10 15:28:56.436705+01 | 1486736936.43671 | pgbench_accounts_pkey |        690167808

 2017-02-10 15:28:57.489864+01 | 1486736937.48986 | pgbench_branches_pkey |            16384
 2017-02-10 15:28:57.489864+01 | 1486736937.48986 | pgbench_tellers_pkey  |            90112
 2017-02-10 15:28:57.489864+01 | 1486736937.48986 | pgbench_accounts_pkey |        690167808

 2017-02-10 15:28:58.54164+01 | 1486736938.54164 | pgbench_branches_pkey |            16384
 2017-02-10 15:28:58.54164+01 | 1486736938.54164 | pgbench_tellers_pkey  |            90112
 2017-02-10 15:28:58.54164+01 | 1486736938.54164 | pgbench_accounts_pkey |        690167808

 2017-02-10 15:28:59.592987+01 | 1486736939.59299 | pgbench_branches_pkey |            16384
 2017-02-10 15:28:59.592987+01 | 1486736939.59299 | pgbench_tellers_pkey  |            90112
 2017-02-10 15:28:59.592987+01 | 1486736939.59299 | pgbench_accounts_pkey |        690167808

 2017-02-10 15:29:00.647177+01 | 1486736940.64718 | pgbench_branches_pkey |            16384
 2017-02-10 15:29:00.647177+01 | 1486736940.64718 | pgbench_tellers_pkey  |            90112
 2017-02-10 15:29:00.647177+01 | 1486736940.64718 | pgbench_accounts_pkey |        690167808

 2017-02-10 15:29:01.69931+01 | 1486736941.69931 | pgbench_branches_pkey |            16384
 2017-02-10 15:29:01.69931+01 | 1486736941.69931 | pgbench_tellers_pkey  |            90112
 2017-02-10 15:29:01.69931+01 | 1486736941.69931 | pgbench_accounts_pkey |        690167808

 2017-02-10 15:29:02.750819+01 | 1486736942.75082 | pgbench_branches_pkey |            16384
 2017-02-10 15:29:02.750819+01 | 1486736942.75082 | pgbench_tellers_pkey  |            90112
 2017-02-10 15:29:02.750819+01 | 1486736942.75082 | pgbench_accounts_pkey |        690167808

 2017-02-10 15:29:03.80362+01 | 1486736943.80362 | pgbench_branches_pkey |            16384
 2017-02-10 15:29:03.80362+01 | 1486736943.80362 | pgbench_tellers_pkey  |            90112
 2017-02-10 15:29:03.80362+01 | 1486736943.80362 | pgbench_accounts_pkey |        690167808

 2017-02-10 15:29:04.855405+01 | 1486736944.85541 | pgbench_branches_pkey |            16384
 2017-02-10 15:29:04.855405+01 | 1486736944.85541 | pgbench_tellers_pkey  |            90112
 2017-02-10 15:29:04.855405+01 | 1486736944.85541 | pgbench_accounts_pkey |        690167808

 2017-02-10 15:29:05.909229+01 | 1486736945.90923 | pgbench_branches_pkey |            16384
 2017-02-10 15:29:05.909229+01 | 1486736945.90923 | pgbench_tellers_pkey  |            90112
 2017-02-10 15:29:05.909229+01 | 1486736945.90923 | pgbench_accounts_pkey |        690167808

 2017-02-10 15:29:06.962759+01 | 1486736946.96276 | pgbench_branches_pkey |            16384
 2017-02-10 15:29:06.962759+01 | 1486736946.96276 | pgbench_tellers_pkey  |            90112
 2017-02-10 15:29:06.962759+01 | 1486736946.96276 | pgbench_accounts_pkey |        690167808

 2017-02-10 15:29:08.011643+01 | 1486736948.01164 | pgbench_branches_pkey |            16384
 2017-02-10 15:29:08.011643+01 | 1486736948.01164 | pgbench_tellers_pkey  |            90112
 2017-02-10 15:29:08.011643+01 | 1486736948.01164 | pgbench_accounts_pkey |        690167808

 2017-02-10 15:29:09.063543+01 | 1486736949.06354 | pgbench_branches_pkey |            16384
 2017-02-10 15:29:09.063543+01 | 1486736949.06354 | pgbench_tellers_pkey  |            90112
 2017-02-10 15:29:09.063543+01 | 1486736949.06354 | pgbench_accounts_pkey |        690167808

 2017-02-10 15:29:10.117407+01 | 1486736950.11741 | pgbench_branches_pkey |            16384
 2017-02-10 15:29:10.117407+01 | 1486736950.11741 | pgbench_tellers_pkey  |            90112
 2017-02-10 15:29:10.117407+01 | 1486736950.11741 | pgbench_accounts_pkey |        690167808

 2017-02-10 15:29:11.172947+01 | 1486736951.17295 | pgbench_branches_pkey |            16384
 2017-02-10 15:29:11.172947+01 | 1486736951.17295 | pgbench_tellers_pkey  |            90112
 2017-02-10 15:29:11.172947+01 | 1486736951.17295 | pgbench_accounts_pkey |        690167808

 2017-02-10 15:29:12.226359+01 | 1486736952.22636 | pgbench_branches_pkey |            16384
 2017-02-10 15:29:12.226359+01 | 1486736952.22636 | pgbench_tellers_pkey  |            90112
 2017-02-10 15:29:12.226359+01 | 1486736952.22636 | pgbench_accounts_pkey |        690167808

 2017-02-10 15:29:13.276194+01 | 1486736953.27619 | pgbench_branches_pkey |            16384
 2017-02-10 15:29:13.276194+01 | 1486736953.27619 | pgbench_tellers_pkey  |            90112
 2017-02-10 15:29:13.276194+01 | 1486736953.27619 | pgbench_accounts_pkey |        690167808

 2017-02-10 15:29:14.328748+01 | 1486736954.32875 | pgbench_branches_pkey |            16384
 2017-02-10 15:29:14.328748+01 | 1486736954.32875 | pgbench_tellers_pkey  |            90112
 2017-02-10 15:29:14.328748+01 | 1486736954.32875 | pgbench_accounts_pkey |        690167808

 2017-02-10 15:29:15.377249+01 | 1486736955.37725 | pgbench_branches_pkey |            16384
 2017-02-10 15:29:15.377249+01 | 1486736955.37725 | pgbench_tellers_pkey  |            90112
 2017-02-10 15:29:15.377249+01 | 1486736955.37725 | pgbench_accounts_pkey |        690167808

 2017-02-10 15:29:16.431599+01 | 1486736956.4316 | pgbench_branches_pkey |            16384
 2017-02-10 15:29:16.431599+01 | 1486736956.4316 | pgbench_tellers_pkey  |            90112
 2017-02-10 15:29:16.431599+01 | 1486736956.4316 | pgbench_accounts_pkey |        690167808

 2017-02-10 15:29:17.485178+01 | 1486736957.48518 | pgbench_branches_pkey |            16384
 2017-02-10 15:29:17.485178+01 | 1486736957.48518 | pgbench_tellers_pkey  |            90112
 2017-02-10 15:29:17.485178+01 | 1486736957.48518 | pgbench_accounts_pkey |        690167808

 2017-02-10 15:29:18.540448+01 | 1486736958.54045 | pgbench_branches_pkey |            16384
 2017-02-10 15:29:18.540448+01 | 1486736958.54045 | pgbench_tellers_pkey  |            90112
 2017-02-10 15:29:18.540448+01 | 1486736958.54045 | pgbench_accounts_pkey |        690167808

 2017-02-10 15:29:19.595354+01 | 1486736959.59535 | pgbench_branches_pkey |            16384
 2017-02-10 15:29:19.595354+01 | 1486736959.59535 | pgbench_tellers_pkey  |            90112
 2017-02-10 15:29:19.595354+01 | 1486736959.59535 | pgbench_accounts_pkey |        690167808

 2017-02-10 15:29:20.64736+01 | 1486736960.64736 | pgbench_branches_pkey |            16384
 2017-02-10 15:29:20.64736+01 | 1486736960.64736 | pgbench_tellers_pkey  |            90112
 2017-02-10 15:29:20.64736+01 | 1486736960.64736 | pgbench_accounts_pkey |        690167808

 2017-02-10 15:29:21.69904+01 | 1486736961.69904 | pgbench_branches_pkey |            16384
 2017-02-10 15:29:21.69904+01 | 1486736961.69904 | pgbench_tellers_pkey  |            90112
 2017-02-10 15:29:21.69904+01 | 1486736961.69904 | pgbench_accounts_pkey |        690167808

 2017-02-10 15:29:22.748367+01 | 1486736962.74837 | pgbench_branches_pkey |            16384
 2017-02-10 15:29:22.748367+01 | 1486736962.74837 | pgbench_tellers_pkey  |            90112
 2017-02-10 15:29:22.748367+01 | 1486736962.74837 | pgbench_accounts_pkey |        690167808

 2017-02-10 15:29:23.800952+01 | 1486736963.80095 | pgbench_branches_pkey |            16384
 2017-02-10 15:29:23.800952+01 | 1486736963.80095 | pgbench_tellers_pkey  |            90112
 2017-02-10 15:29:23.800952+01 | 1486736963.80095 | pgbench_accounts_pkey |        690167808

 2017-02-10 15:29:24.852907+01 | 1486736964.85291 | pgbench_branches_pkey |            16384
 2017-02-10 15:29:24.852907+01 | 1486736964.85291 | pgbench_tellers_pkey  |            90112
 2017-02-10 15:29:24.852907+01 | 1486736964.85291 | pgbench_accounts_pkey |        690167808

 2017-02-10 15:29:25.90462+01 | 1486736965.90462 | pgbench_branches_pkey |            16384
 2017-02-10 15:29:25.90462+01 | 1486736965.90462 | pgbench_tellers_pkey  |            90112
 2017-02-10 15:29:25.90462+01 | 1486736965.90462 | pgbench_accounts_pkey |        690167808

 2017-02-10 15:29:26.961138+01 | 1486736966.96114 | pgbench_branches_pkey |            16384
 2017-02-10 15:29:26.961138+01 | 1486736966.96114 | pgbench_tellers_pkey  |            90112
 2017-02-10 15:29:26.961138+01 | 1486736966.96114 | pgbench_accounts_pkey |        690167808

 2017-02-10 15:29:28.014224+01 | 1486736968.01422 | pgbench_branches_pkey |            16384
 2017-02-10 15:29:28.014224+01 | 1486736968.01422 | pgbench_tellers_pkey  |            90112
 2017-02-10 15:29:28.014224+01 | 1486736968.01422 | pgbench_accounts_pkey |        690167808

 2017-02-10 15:29:29.064266+01 | 1486736969.06427 | pgbench_branches_pkey |            16384
 2017-02-10 15:29:29.064266+01 | 1486736969.06427 | pgbench_tellers_pkey  |            90112
 2017-02-10 15:29:29.064266+01 | 1486736969.06427 | pgbench_accounts_pkey |        690167808

 2017-02-10 15:29:30.114319+01 | 1486736970.11432 | pgbench_branches_pkey |            16384
 2017-02-10 15:29:30.114319+01 | 1486736970.11432 | pgbench_tellers_pkey  |            90112
 2017-02-10 15:29:30.114319+01 | 1486736970.11432 | pgbench_accounts_pkey |        690167808

 2017-02-10 15:29:31.167679+01 | 1486736971.16768 | pgbench_branches_pkey |            16384
 2017-02-10 15:29:31.167679+01 | 1486736971.16768 | pgbench_tellers_pkey  |            90112
 2017-02-10 15:29:31.167679+01 | 1486736971.16768 | pgbench_accounts_pkey |        690167808

 2017-02-10 15:29:32.223282+01 | 1486736972.22328 | pgbench_branches_pkey |            16384
 2017-02-10 15:29:32.223282+01 | 1486736972.22328 | pgbench_tellers_pkey  |            90112
 2017-02-10 15:29:32.223282+01 | 1486736972.22328 | pgbench_accounts_pkey |        690167808

 2017-02-10 15:29:33.276533+01 | 1486736973.27653 | pgbench_branches_pkey |            16384
 2017-02-10 15:29:33.276533+01 | 1486736973.27653 | pgbench_tellers_pkey  |            90112
 2017-02-10 15:29:33.276533+01 | 1486736973.27653 | pgbench_accounts_pkey |        690167808

 2017-02-10 15:29:34.328223+01 | 1486736974.32822 | pgbench_branches_pkey |            16384
 2017-02-10 15:29:34.328223+01 | 1486736974.32822 | pgbench_tellers_pkey  |            90112
 2017-02-10 15:29:34.328223+01 | 1486736974.32822 | pgbench_accounts_pkey |        690167808

 2017-02-10 15:29:35.378688+01 | 1486736975.37869 | pgbench_branches_pkey |            16384
 2017-02-10 15:29:35.378688+01 | 1486736975.37869 | pgbench_tellers_pkey  |            90112
 2017-02-10 15:29:35.378688+01 | 1486736975.37869 | pgbench_accounts_pkey |        690167808

 2017-02-10 15:29:36.435569+01 | 1486736976.43557 | pgbench_branches_pkey |            16384
 2017-02-10 15:29:36.435569+01 | 1486736976.43557 | pgbench_tellers_pkey  |            90112
 2017-02-10 15:29:36.435569+01 | 1486736976.43557 | pgbench_accounts_pkey |        690167808

 2017-02-10 15:29:37.487708+01 | 1486736977.48771 | pgbench_branches_pkey |            16384
 2017-02-10 15:29:37.487708+01 | 1486736977.48771 | pgbench_tellers_pkey  |            90112
 2017-02-10 15:29:37.487708+01 | 1486736977.48771 | pgbench_accounts_pkey |        690167808

 2017-02-10 15:29:38.540361+01 | 1486736978.54036 | pgbench_branches_pkey |            16384
 2017-02-10 15:29:38.540361+01 | 1486736978.54036 | pgbench_tellers_pkey  |            90112
 2017-02-10 15:29:38.540361+01 | 1486736978.54036 | pgbench_accounts_pkey |        690167808

 2017-02-10 15:29:39.59584+01 | 1486736979.59584 | pgbench_branches_pkey |            16384
 2017-02-10 15:29:39.59584+01 | 1486736979.59584 | pgbench_tellers_pkey  |            90112
 2017-02-10 15:29:39.59584+01 | 1486736979.59584 | pgbench_accounts_pkey |        690167808

 2017-02-10 15:29:40.647709+01 | 1486736980.64771 | pgbench_branches_pkey |            16384
 2017-02-10 15:29:40.647709+01 | 1486736980.64771 | pgbench_tellers_pkey  |            90112
 2017-02-10 15:29:40.647709+01 | 1486736980.64771 | pgbench_accounts_pkey |        690167808

 2017-02-10 15:29:41.702528+01 | 1486736981.70253 | pgbench_branches_pkey |            16384
 2017-02-10 15:29:41.702528+01 | 1486736981.70253 | pgbench_tellers_pkey  |            90112
 2017-02-10 15:29:41.702528+01 | 1486736981.70253 | pgbench_accounts_pkey |        690167808

 2017-02-10 15:29:42.755989+01 | 1486736982.75599 | pgbench_branches_pkey |            16384
 2017-02-10 15:29:42.755989+01 | 1486736982.75599 | pgbench_tellers_pkey  |            90112
 2017-02-10 15:29:42.755989+01 | 1486736982.75599 | pgbench_accounts_pkey |        690167808

 2017-02-10 15:29:43.80811+01 | 1486736983.80811 | pgbench_branches_pkey |            16384
 2017-02-10 15:29:43.80811+01 | 1486736983.80811 | pgbench_tellers_pkey  |            90112
 2017-02-10 15:29:43.80811+01 | 1486736983.80811 | pgbench_accounts_pkey |        690167808

 2017-02-10 15:29:44.861848+01 | 1486736984.86185 | pgbench_branches_pkey |            16384
 2017-02-10 15:29:44.861848+01 | 1486736984.86185 | pgbench_tellers_pkey  |            90112
 2017-02-10 15:29:44.861848+01 | 1486736984.86185 | pgbench_accounts_pkey |        690167808

 2017-02-10 15:29:45.914283+01 | 1486736985.91428 | pgbench_branches_pkey |            16384
 2017-02-10 15:29:45.914283+01 | 1486736985.91428 | pgbench_tellers_pkey  |            90112
 2017-02-10 15:29:45.914283+01 | 1486736985.91428 | pgbench_accounts_pkey |        690167808

 2017-02-10 15:29:46.981257+01 | 1486736986.98126 | pgbench_branches_pkey |            16384
 2017-02-10 15:29:46.981257+01 | 1486736986.98126 | pgbench_tellers_pkey  |            90112
 2017-02-10 15:29:46.981257+01 | 1486736986.98126 | pgbench_accounts_pkey |        690167808

 2017-02-10 15:29:48.033709+01 | 1486736988.03371 | pgbench_branches_pkey |            16384
 2017-02-10 15:29:48.033709+01 | 1486736988.03371 | pgbench_tellers_pkey  |            90112
 2017-02-10 15:29:48.033709+01 | 1486736988.03371 | pgbench_accounts_pkey |        690167808

 2017-02-10 15:29:49.087766+01 | 1486736989.08777 | pgbench_branches_pkey |            16384
 2017-02-10 15:29:49.087766+01 | 1486736989.08777 | pgbench_tellers_pkey  |            90112
 2017-02-10 15:29:49.087766+01 | 1486736989.08777 | pgbench_accounts_pkey |        690167808

 2017-02-10 15:29:50.138457+01 | 1486736990.13846 | pgbench_branches_pkey |            16384
 2017-02-10 15:29:50.138457+01 | 1486736990.13846 | pgbench_tellers_pkey  |            90112
 2017-02-10 15:29:50.138457+01 | 1486736990.13846 | pgbench_accounts_pkey |        690167808

 2017-02-10 15:29:51.190374+01 | 1486736991.19037 | pgbench_branches_pkey |            16384
 2017-02-10 15:29:51.190374+01 | 1486736991.19037 | pgbench_tellers_pkey  |            90112
 2017-02-10 15:29:51.190374+01 | 1486736991.19037 | pgbench_accounts_pkey |        690167808

 2017-02-10 15:29:52.243862+01 | 1486736992.24386 | pgbench_branches_pkey |            16384
 2017-02-10 15:29:52.243862+01 | 1486736992.24386 | pgbench_tellers_pkey  |            90112
 2017-02-10 15:29:52.243862+01 | 1486736992.24386 | pgbench_accounts_pkey |        690167808

 2017-02-10 15:29:53.296319+01 | 1486736993.29632 | pgbench_branches_pkey |            16384
 2017-02-10 15:29:53.296319+01 | 1486736993.29632 | pgbench_tellers_pkey  |            90112
 2017-02-10 15:29:53.296319+01 | 1486736993.29632 | pgbench_accounts_pkey |        690167808

 2017-02-10 15:29:54.348055+01 | 1486736994.34805 | pgbench_branches_pkey |            16384
 2017-02-10 15:29:54.348055+01 | 1486736994.34805 | pgbench_tellers_pkey  |            90112
 2017-02-10 15:29:54.348055+01 | 1486736994.34805 | pgbench_accounts_pkey |        690167808

 2017-02-10 15:29:55.396957+01 | 1486736995.39696 | pgbench_branches_pkey |            16384
 2017-02-10 15:29:55.396957+01 | 1486736995.39696 | pgbench_tellers_pkey  |            90112
 2017-02-10 15:29:55.396957+01 | 1486736995.39696 | pgbench_accounts_pkey |        690167808

 2017-02-10 15:29:56.450841+01 | 1486736996.45084 | pgbench_branches_pkey |            16384
 2017-02-10 15:29:56.450841+01 | 1486736996.45084 | pgbench_tellers_pkey  |            90112
 2017-02-10 15:29:56.450841+01 | 1486736996.45084 | pgbench_accounts_pkey |        690167808

 2017-02-10 15:29:57.503208+01 | 1486736997.50321 | pgbench_branches_pkey |            16384
 2017-02-10 15:29:57.503208+01 | 1486736997.50321 | pgbench_tellers_pkey  |            90112
 2017-02-10 15:29:57.503208+01 | 1486736997.50321 | pgbench_accounts_pkey |        690167808

 2017-02-10 15:29:58.554591+01 | 1486736998.55459 | pgbench_branches_pkey |            16384
 2017-02-10 15:29:58.554591+01 | 1486736998.55459 | pgbench_tellers_pkey  |            90112
 2017-02-10 15:29:58.554591+01 | 1486736998.55459 | pgbench_accounts_pkey |        690167808

 2017-02-10 15:29:59.609272+01 | 1486736999.60927 | pgbench_branches_pkey |            16384
 2017-02-10 15:29:59.609272+01 | 1486736999.60927 | pgbench_tellers_pkey  |            90112
 2017-02-10 15:29:59.609272+01 | 1486736999.60927 | pgbench_accounts_pkey |        690167808

 2017-02-10 15:30:00.66084+01 | 1486737000.66084 | pgbench_branches_pkey |            16384
 2017-02-10 15:30:00.66084+01 | 1486737000.66084 | pgbench_tellers_pkey  |            90112
 2017-02-10 15:30:00.66084+01 | 1486737000.66084 | pgbench_accounts_pkey |        690167808

 2017-02-10 15:30:01.710676+01 | 1486737001.71068 | pgbench_branches_pkey |            16384
 2017-02-10 15:30:01.710676+01 | 1486737001.71068 | pgbench_tellers_pkey  |            90112
 2017-02-10 15:30:01.710676+01 | 1486737001.71068 | pgbench_accounts_pkey |        690167808

 2017-02-10 15:30:02.761476+01 | 1486737002.76148 | pgbench_branches_pkey |            16384
 2017-02-10 15:30:02.761476+01 | 1486737002.76148 | pgbench_tellers_pkey  |            90112
 2017-02-10 15:30:02.761476+01 | 1486737002.76148 | pgbench_accounts_pkey |        690167808

 2017-02-10 15:30:03.814178+01 | 1486737003.81418 | pgbench_branches_pkey |            16384
 2017-02-10 15:30:03.814178+01 | 1486737003.81418 | pgbench_tellers_pkey  |            90112
 2017-02-10 15:30:03.814178+01 | 1486737003.81418 | pgbench_accounts_pkey |        690167808

 2017-02-10 15:30:04.865229+01 | 1486737004.86523 | pgbench_branches_pkey |            16384
 2017-02-10 15:30:04.865229+01 | 1486737004.86523 | pgbench_tellers_pkey  |            90112
 2017-02-10 15:30:04.865229+01 | 1486737004.86523 | pgbench_accounts_pkey |        690167808

 2017-02-10 15:30:05.916432+01 | 1486737005.91643 | pgbench_branches_pkey |            16384
 2017-02-10 15:30:05.916432+01 | 1486737005.91643 | pgbench_tellers_pkey  |            90112
 2017-02-10 15:30:05.916432+01 | 1486737005.91643 | pgbench_accounts_pkey |        690167808

 2017-02-10 15:30:06.965436+01 | 1486737006.96544 | pgbench_branches_pkey |            16384
 2017-02-10 15:30:06.965436+01 | 1486737006.96544 | pgbench_tellers_pkey  |            90112
 2017-02-10 15:30:06.965436+01 | 1486737006.96544 | pgbench_accounts_pkey |        690167808

 2017-02-10 15:30:08.016988+01 | 1486737008.01699 | pgbench_branches_pkey |            16384
 2017-02-10 15:30:08.016988+01 | 1486737008.01699 | pgbench_tellers_pkey  |            90112
 2017-02-10 15:30:08.016988+01 | 1486737008.01699 | pgbench_accounts_pkey |        690167808

 2017-02-10 15:30:09.070324+01 | 1486737009.07032 | pgbench_branches_pkey |            16384
 2017-02-10 15:30:09.070324+01 | 1486737009.07032 | pgbench_tellers_pkey  |            90112
 2017-02-10 15:30:09.070324+01 | 1486737009.07032 | pgbench_accounts_pkey |        690167808

 2017-02-10 15:30:10.1216+01 | 1486737010.1216 | pgbench_branches_pkey |            16384
 2017-02-10 15:30:10.1216+01 | 1486737010.1216 | pgbench_tellers_pkey  |            90112
 2017-02-10 15:30:10.1216+01 | 1486737010.1216 | pgbench_accounts_pkey |        690167808

 2017-02-10 15:30:11.179506+01 | 1486737011.17951 | pgbench_branches_pkey |            16384
 2017-02-10 15:30:11.179506+01 | 1486737011.17951 | pgbench_tellers_pkey  |            90112
 2017-02-10 15:30:11.179506+01 | 1486737011.17951 | pgbench_accounts_pkey |        690167808

 2017-02-10 15:30:12.233026+01 | 1486737012.23303 | pgbench_branches_pkey |            16384
 2017-02-10 15:30:12.233026+01 | 1486737012.23303 | pgbench_tellers_pkey  |            90112
 2017-02-10 15:30:12.233026+01 | 1486737012.23303 | pgbench_accounts_pkey |        690167808

 2017-02-10 15:30:13.284849+01 | 1486737013.28485 | pgbench_branches_pkey |            16384
 2017-02-10 15:30:13.284849+01 | 1486737013.28485 | pgbench_tellers_pkey  |            90112
 2017-02-10 15:30:13.284849+01 | 1486737013.28485 | pgbench_accounts_pkey |        690167808

 2017-02-10 15:30:14.335185+01 | 1486737014.33519 | pgbench_branches_pkey |            16384
 2017-02-10 15:30:14.335185+01 | 1486737014.33519 | pgbench_tellers_pkey  |            90112
 2017-02-10 15:30:14.335185+01 | 1486737014.33519 | pgbench_accounts_pkey |        690167808

 2017-02-10 15:30:15.384171+01 | 1486737015.38417 | pgbench_branches_pkey |            16384
 2017-02-10 15:30:15.384171+01 | 1486737015.38417 | pgbench_tellers_pkey  |            90112
 2017-02-10 15:30:15.384171+01 | 1486737015.38417 | pgbench_accounts_pkey |        690167808

 2017-02-10 15:30:16.435151+01 | 1486737016.43515 | pgbench_branches_pkey |            16384
 2017-02-10 15:30:16.435151+01 | 1486737016.43515 | pgbench_tellers_pkey  |            90112
 2017-02-10 15:30:16.435151+01 | 1486737016.43515 | pgbench_accounts_pkey |        690167808

 2017-02-10 15:30:17.488452+01 | 1486737017.48845 | pgbench_branches_pkey |            16384
 2017-02-10 15:30:17.488452+01 | 1486737017.48845 | pgbench_tellers_pkey  |            90112
 2017-02-10 15:30:17.488452+01 | 1486737017.48845 | pgbench_accounts_pkey |        690167808

 2017-02-10 15:30:18.541068+01 | 1486737018.54107 | pgbench_branches_pkey |            16384
 2017-02-10 15:30:18.541068+01 | 1486737018.54107 | pgbench_tellers_pkey  |            90112
 2017-02-10 15:30:18.541068+01 | 1486737018.54107 | pgbench_accounts_pkey |        690167808

 2017-02-10 15:30:19.596663+01 | 1486737019.59666 | pgbench_branches_pkey |            16384
 2017-02-10 15:30:19.596663+01 | 1486737019.59666 | pgbench_tellers_pkey  |            90112
 2017-02-10 15:30:19.596663+01 | 1486737019.59666 | pgbench_accounts_pkey |        690167808

 2017-02-10 15:30:20.649796+01 | 1486737020.6498 | pgbench_branches_pkey |            16384
 2017-02-10 15:30:20.649796+01 | 1486737020.6498 | pgbench_tellers_pkey  |            90112
 2017-02-10 15:30:20.649796+01 | 1486737020.6498 | pgbench_accounts_pkey |        690167808

 2017-02-10 15:30:21.703375+01 | 1486737021.70338 | pgbench_branches_pkey |            16384
 2017-02-10 15:30:21.703375+01 | 1486737021.70338 | pgbench_tellers_pkey  |            90112
 2017-02-10 15:30:21.703375+01 | 1486737021.70338 | pgbench_accounts_pkey |        690167808

 2017-02-10 15:30:22.753617+01 | 1486737022.75362 | pgbench_branches_pkey |            16384
 2017-02-10 15:30:22.753617+01 | 1486737022.75362 | pgbench_tellers_pkey  |            90112
 2017-02-10 15:30:22.753617+01 | 1486737022.75362 | pgbench_accounts_pkey |        690167808

 2017-02-10 15:30:23.804291+01 | 1486737023.80429 | pgbench_branches_pkey |            16384
 2017-02-10 15:30:23.804291+01 | 1486737023.80429 | pgbench_tellers_pkey  |            90112
 2017-02-10 15:30:23.804291+01 | 1486737023.80429 | pgbench_accounts_pkey |        690167808

 2017-02-10 15:30:24.857114+01 | 1486737024.85711 | pgbench_branches_pkey |            16384
 2017-02-10 15:30:24.857114+01 | 1486737024.85711 | pgbench_tellers_pkey  |            90112
 2017-02-10 15:30:24.857114+01 | 1486737024.85711 | pgbench_accounts_pkey |        690167808

 2017-02-10 15:30:25.911852+01 | 1486737025.91185 | pgbench_branches_pkey |            16384
 2017-02-10 15:30:25.911852+01 | 1486737025.91185 | pgbench_tellers_pkey  |            90112
 2017-02-10 15:30:25.911852+01 | 1486737025.91185 | pgbench_accounts_pkey |        690167808

 2017-02-10 15:30:26.964841+01 | 1486737026.96484 | pgbench_branches_pkey |            16384
 2017-02-10 15:30:26.964841+01 | 1486737026.96484 | pgbench_tellers_pkey  |            90112
 2017-02-10 15:30:26.964841+01 | 1486737026.96484 | pgbench_accounts_pkey |        690167808

 2017-02-10 15:30:28.019564+01 | 1486737028.01956 | pgbench_branches_pkey |            16384
 2017-02-10 15:30:28.019564+01 | 1486737028.01956 | pgbench_tellers_pkey  |            90112
 2017-02-10 15:30:28.019564+01 | 1486737028.01956 | pgbench_accounts_pkey |        690167808

 2017-02-10 15:30:29.072198+01 | 1486737029.0722 | pgbench_branches_pkey |            16384
 2017-02-10 15:30:29.072198+01 | 1486737029.0722 | pgbench_tellers_pkey  |            90112
 2017-02-10 15:30:29.072198+01 | 1486737029.0722 | pgbench_accounts_pkey |        690167808

 2017-02-10 15:30:30.121609+01 | 1486737030.12161 | pgbench_branches_pkey |            16384
 2017-02-10 15:30:30.121609+01 | 1486737030.12161 | pgbench_tellers_pkey  |            90112
 2017-02-10 15:30:30.121609+01 | 1486737030.12161 | pgbench_accounts_pkey |        690167808

 2017-02-10 15:30:31.172245+01 | 1486737031.17225 | pgbench_branches_pkey |            16384
 2017-02-10 15:30:31.172245+01 | 1486737031.17225 | pgbench_tellers_pkey  |            90112
 2017-02-10 15:30:31.172245+01 | 1486737031.17225 | pgbench_accounts_pkey |        690167808

 2017-02-10 15:30:32.222501+01 | 1486737032.2225 | pgbench_branches_pkey |            16384
 2017-02-10 15:30:32.222501+01 | 1486737032.2225 | pgbench_tellers_pkey  |            90112
 2017-02-10 15:30:32.222501+01 | 1486737032.2225 | pgbench_accounts_pkey |        690167808

 2017-02-10 15:30:33.271746+01 | 1486737033.27175 | pgbench_branches_pkey |            16384
 2017-02-10 15:30:33.271746+01 | 1486737033.27175 | pgbench_tellers_pkey  |            90112
 2017-02-10 15:30:33.271746+01 | 1486737033.27175 | pgbench_accounts_pkey |        690167808

 2017-02-10 15:30:34.323325+01 | 1486737034.32332 | pgbench_branches_pkey |            16384
 2017-02-10 15:30:34.323325+01 | 1486737034.32332 | pgbench_tellers_pkey  |            90112
 2017-02-10 15:30:34.323325+01 | 1486737034.32332 | pgbench_accounts_pkey |        690167808

 2017-02-10 15:30:35.377549+01 | 1486737035.37755 | pgbench_branches_pkey |            16384
 2017-02-10 15:30:35.377549+01 | 1486737035.37755 | pgbench_tellers_pkey  |            90112
 2017-02-10 15:30:35.377549+01 | 1486737035.37755 | pgbench_accounts_pkey |        690167808

 2017-02-10 15:30:36.429431+01 | 1486737036.42943 | pgbench_branches_pkey |            16384
 2017-02-10 15:30:36.429431+01 | 1486737036.42943 | pgbench_tellers_pkey  |            90112
 2017-02-10 15:30:36.429431+01 | 1486737036.42943 | pgbench_accounts_pkey |        690167808

 2017-02-10 15:30:37.481626+01 | 1486737037.48163 | pgbench_branches_pkey |            16384
 2017-02-10 15:30:37.481626+01 | 1486737037.48163 | pgbench_tellers_pkey  |            90112
 2017-02-10 15:30:37.481626+01 | 1486737037.48163 | pgbench_accounts_pkey |        690167808

 2017-02-10 15:30:38.535+01 | 1486737038.535 | pgbench_branches_pkey |            16384
 2017-02-10 15:30:38.535+01 | 1486737038.535 | pgbench_tellers_pkey  |            90112
 2017-02-10 15:30:38.535+01 | 1486737038.535 | pgbench_accounts_pkey |        690167808

 2017-02-10 15:30:39.586658+01 | 1486737039.58666 | pgbench_branches_pkey |            16384
 2017-02-10 15:30:39.586658+01 | 1486737039.58666 | pgbench_tellers_pkey  |            90112
 2017-02-10 15:30:39.586658+01 | 1486737039.58666 | pgbench_accounts_pkey |        690167808

 2017-02-10 15:30:40.64048+01 | 1486737040.64048 | pgbench_branches_pkey |            16384
 2017-02-10 15:30:40.64048+01 | 1486737040.64048 | pgbench_tellers_pkey  |            90112
 2017-02-10 15:30:40.64048+01 | 1486737040.64048 | pgbench_accounts_pkey |        690167808

 2017-02-10 15:30:41.693664+01 | 1486737041.69366 | pgbench_branches_pkey |            16384
 2017-02-10 15:30:41.693664+01 | 1486737041.69366 | pgbench_tellers_pkey  |            90112
 2017-02-10 15:30:41.693664+01 | 1486737041.69366 | pgbench_accounts_pkey |        690167808

 2017-02-10 15:30:42.747011+01 | 1486737042.74701 | pgbench_branches_pkey |            16384
 2017-02-10 15:30:42.747011+01 | 1486737042.74701 | pgbench_tellers_pkey  |            90112
 2017-02-10 15:30:42.747011+01 | 1486737042.74701 | pgbench_accounts_pkey |        690167808

 2017-02-10 15:30:43.801803+01 | 1486737043.8018 | pgbench_branches_pkey |            16384
 2017-02-10 15:30:43.801803+01 | 1486737043.8018 | pgbench_tellers_pkey  |            90112
 2017-02-10 15:30:43.801803+01 | 1486737043.8018 | pgbench_accounts_pkey |        690167808

 2017-02-10 15:30:44.855427+01 | 1486737044.85543 | pgbench_branches_pkey |            16384
 2017-02-10 15:30:44.855427+01 | 1486737044.85543 | pgbench_tellers_pkey  |            90112
 2017-02-10 15:30:44.855427+01 | 1486737044.85543 | pgbench_accounts_pkey |        690167808

 2017-02-10 15:30:45.911609+01 | 1486737045.91161 | pgbench_branches_pkey |            16384
 2017-02-10 15:30:45.911609+01 | 1486737045.91161 | pgbench_tellers_pkey  |            90112
 2017-02-10 15:30:45.911609+01 | 1486737045.91161 | pgbench_accounts_pkey |        690167808

 2017-02-10 15:30:46.962431+01 | 1486737046.96243 | pgbench_branches_pkey |            16384
 2017-02-10 15:30:46.962431+01 | 1486737046.96243 | pgbench_tellers_pkey  |            90112
 2017-02-10 15:30:46.962431+01 | 1486737046.96243 | pgbench_accounts_pkey |        690167808

 2017-02-10 15:30:48.014101+01 | 1486737048.0141 | pgbench_branches_pkey |            16384
 2017-02-10 15:30:48.014101+01 | 1486737048.0141 | pgbench_tellers_pkey  |            90112
 2017-02-10 15:30:48.014101+01 | 1486737048.0141 | pgbench_accounts_pkey |        690167808

 2017-02-10 15:30:49.066619+01 | 1486737049.06662 | pgbench_branches_pkey |            16384
 2017-02-10 15:30:49.066619+01 | 1486737049.06662 | pgbench_tellers_pkey  |            90112
 2017-02-10 15:30:49.066619+01 | 1486737049.06662 | pgbench_accounts_pkey |        690167808

 2017-02-10 15:30:50.119936+01 | 1486737050.11994 | pgbench_branches_pkey |            16384
 2017-02-10 15:30:50.119936+01 | 1486737050.11994 | pgbench_tellers_pkey  |            90112
 2017-02-10 15:30:50.119936+01 | 1486737050.11994 | pgbench_accounts_pkey |        690167808

 2017-02-10 15:30:51.174294+01 | 1486737051.17429 | pgbench_branches_pkey |            16384
 2017-02-10 15:30:51.174294+01 | 1486737051.17429 | pgbench_tellers_pkey  |            90112
 2017-02-10 15:30:51.174294+01 | 1486737051.17429 | pgbench_accounts_pkey |        690167808

 2017-02-10 15:30:52.225892+01 | 1486737052.22589 | pgbench_branches_pkey |            16384
 2017-02-10 15:30:52.225892+01 | 1486737052.22589 | pgbench_tellers_pkey  |            90112
 2017-02-10 15:30:52.225892+01 | 1486737052.22589 | pgbench_accounts_pkey |        690167808

 2017-02-10 15:30:53.276961+01 | 1486737053.27696 | pgbench_branches_pkey |            16384
 2017-02-10 15:30:53.276961+01 | 1486737053.27696 | pgbench_tellers_pkey  |            90112
 2017-02-10 15:30:53.276961+01 | 1486737053.27696 | pgbench_accounts_pkey |        690167808

 2017-02-10 15:30:54.330358+01 | 1486737054.33036 | pgbench_branches_pkey |            16384
 2017-02-10 15:30:54.330358+01 | 1486737054.33036 | pgbench_tellers_pkey  |            90112
 2017-02-10 15:30:54.330358+01 | 1486737054.33036 | pgbench_accounts_pkey |        690167808

 2017-02-10 15:30:55.380999+01 | 1486737055.381 | pgbench_branches_pkey |            16384
 2017-02-10 15:30:55.380999+01 | 1486737055.381 | pgbench_tellers_pkey  |            90112
 2017-02-10 15:30:55.380999+01 | 1486737055.381 | pgbench_accounts_pkey |        690167808

 2017-02-10 15:30:56.4342+01 | 1486737056.4342 | pgbench_branches_pkey |            16384
 2017-02-10 15:30:56.4342+01 | 1486737056.4342 | pgbench_tellers_pkey  |            90112
 2017-02-10 15:30:56.4342+01 | 1486737056.4342 | pgbench_accounts_pkey |        690167808

 2017-02-10 15:30:57.485492+01 | 1486737057.48549 | pgbench_branches_pkey |            16384
 2017-02-10 15:30:57.485492+01 | 1486737057.48549 | pgbench_tellers_pkey  |            90112
 2017-02-10 15:30:57.485492+01 | 1486737057.48549 | pgbench_accounts_pkey |        690167808

 2017-02-10 15:30:58.539509+01 | 1486737058.53951 | pgbench_branches_pkey |            16384
 2017-02-10 15:30:58.539509+01 | 1486737058.53951 | pgbench_tellers_pkey  |            90112
 2017-02-10 15:30:58.539509+01 | 1486737058.53951 | pgbench_accounts_pkey |        690167808

 2017-02-10 15:30:59.59114+01 | 1486737059.59114 | pgbench_branches_pkey |            16384
 2017-02-10 15:30:59.59114+01 | 1486737059.59114 | pgbench_tellers_pkey  |            90112
 2017-02-10 15:30:59.59114+01 | 1486737059.59114 | pgbench_accounts_pkey |        690167808

 2017-02-10 15:31:00.645401+01 | 1486737060.6454 | pgbench_branches_pkey |            16384
 2017-02-10 15:31:00.645401+01 | 1486737060.6454 | pgbench_tellers_pkey  |            90112
 2017-02-10 15:31:00.645401+01 | 1486737060.6454 | pgbench_accounts_pkey |        690167808

 2017-02-10 15:31:01.697161+01 | 1486737061.69716 | pgbench_branches_pkey |            16384
 2017-02-10 15:31:01.697161+01 | 1486737061.69716 | pgbench_tellers_pkey  |            90112
 2017-02-10 15:31:01.697161+01 | 1486737061.69716 | pgbench_accounts_pkey |        690167808

 2017-02-10 15:31:02.752896+01 | 1486737062.7529 | pgbench_branches_pkey |            16384
 2017-02-10 15:31:02.752896+01 | 1486737062.7529 | pgbench_tellers_pkey  |            90112
 2017-02-10 15:31:02.752896+01 | 1486737062.7529 | pgbench_accounts_pkey |        690167808

 2017-02-10 15:31:03.805348+01 | 1486737063.80535 | pgbench_branches_pkey |            16384
 2017-02-10 15:31:03.805348+01 | 1486737063.80535 | pgbench_tellers_pkey  |            90112
 2017-02-10 15:31:03.805348+01 | 1486737063.80535 | pgbench_accounts_pkey |        690167808

 2017-02-10 15:31:04.855633+01 | 1486737064.85563 | pgbench_branches_pkey |            16384
 2017-02-10 15:31:04.855633+01 | 1486737064.85563 | pgbench_tellers_pkey  |            90112
 2017-02-10 15:31:04.855633+01 | 1486737064.85563 | pgbench_accounts_pkey |        690167808

 2017-02-10 15:31:05.906772+01 | 1486737065.90677 | pgbench_branches_pkey |            16384
 2017-02-10 15:31:05.906772+01 | 1486737065.90677 | pgbench_tellers_pkey  |            90112
 2017-02-10 15:31:05.906772+01 | 1486737065.90677 | pgbench_accounts_pkey |        690167808

 2017-02-10 15:31:06.965202+01 | 1486737066.9652 | pgbench_branches_pkey |            16384
 2017-02-10 15:31:06.965202+01 | 1486737066.9652 | pgbench_tellers_pkey  |            90112
 2017-02-10 15:31:06.965202+01 | 1486737066.9652 | pgbench_accounts_pkey |        690167808

 2017-02-10 15:31:08.016241+01 | 1486737068.01624 | pgbench_branches_pkey |            16384
 2017-02-10 15:31:08.016241+01 | 1486737068.01624 | pgbench_tellers_pkey  |            90112
 2017-02-10 15:31:08.016241+01 | 1486737068.01624 | pgbench_accounts_pkey |        690167808

 2017-02-10 15:31:09.067316+01 | 1486737069.06732 | pgbench_branches_pkey |            16384
 2017-02-10 15:31:09.067316+01 | 1486737069.06732 | pgbench_tellers_pkey  |            90112
 2017-02-10 15:31:09.067316+01 | 1486737069.06732 | pgbench_accounts_pkey |        690167808

 2017-02-10 15:31:10.118591+01 | 1486737070.11859 | pgbench_branches_pkey |            16384
 2017-02-10 15:31:10.118591+01 | 1486737070.11859 | pgbench_tellers_pkey  |            90112
 2017-02-10 15:31:10.118591+01 | 1486737070.11859 | pgbench_accounts_pkey |        690167808

 2017-02-10 15:31:11.173074+01 | 1486737071.17307 | pgbench_branches_pkey |            16384
 2017-02-10 15:31:11.173074+01 | 1486737071.17307 | pgbench_tellers_pkey  |            90112
 2017-02-10 15:31:11.173074+01 | 1486737071.17307 | pgbench_accounts_pkey |        690167808

 2017-02-10 15:31:12.22355+01 | 1486737072.22355 | pgbench_branches_pkey |            16384
 2017-02-10 15:31:12.22355+01 | 1486737072.22355 | pgbench_tellers_pkey  |            90112
 2017-02-10 15:31:12.22355+01 | 1486737072.22355 | pgbench_accounts_pkey |        690167808

 2017-02-10 15:31:13.275011+01 | 1486737073.27501 | pgbench_branches_pkey |            16384
 2017-02-10 15:31:13.275011+01 | 1486737073.27501 | pgbench_tellers_pkey  |            90112
 2017-02-10 15:31:13.275011+01 | 1486737073.27501 | pgbench_accounts_pkey |        690167808

 2017-02-10 15:31:14.328217+01 | 1486737074.32822 | pgbench_branches_pkey |            16384
 2017-02-10 15:31:14.328217+01 | 1486737074.32822 | pgbench_tellers_pkey  |            90112
 2017-02-10 15:31:14.328217+01 | 1486737074.32822 | pgbench_accounts_pkey |        690167808

 2017-02-10 15:31:15.383209+01 | 1486737075.38321 | pgbench_branches_pkey |            16384
 2017-02-10 15:31:15.383209+01 | 1486737075.38321 | pgbench_tellers_pkey  |            90112
 2017-02-10 15:31:15.383209+01 | 1486737075.38321 | pgbench_accounts_pkey |        690167808

 2017-02-10 15:31:16.43714+01 | 1486737076.43714 | pgbench_branches_pkey |            16384
 2017-02-10 15:31:16.43714+01 | 1486737076.43714 | pgbench_tellers_pkey  |            90112
 2017-02-10 15:31:16.43714+01 | 1486737076.43714 | pgbench_accounts_pkey |        690167808

 2017-02-10 15:31:17.489663+01 | 1486737077.48966 | pgbench_branches_pkey |            16384
 2017-02-10 15:31:17.489663+01 | 1486737077.48966 | pgbench_tellers_pkey  |            90112
 2017-02-10 15:31:17.489663+01 | 1486737077.48966 | pgbench_accounts_pkey |        690167808

 2017-02-10 15:31:18.54177+01 | 1486737078.54177 | pgbench_branches_pkey |            16384
 2017-02-10 15:31:18.54177+01 | 1486737078.54177 | pgbench_tellers_pkey  |            90112
 2017-02-10 15:31:18.54177+01 | 1486737078.54177 | pgbench_accounts_pkey |        690167808

 2017-02-10 15:31:19.594126+01 | 1486737079.59413 | pgbench_branches_pkey |            16384
 2017-02-10 15:31:19.594126+01 | 1486737079.59413 | pgbench_tellers_pkey  |            90112
 2017-02-10 15:31:19.594126+01 | 1486737079.59413 | pgbench_accounts_pkey |        690167808

 2017-02-10 15:31:20.645364+01 | 1486737080.64536 | pgbench_branches_pkey |            16384
 2017-02-10 15:31:20.645364+01 | 1486737080.64536 | pgbench_tellers_pkey  |            90112
 2017-02-10 15:31:20.645364+01 | 1486737080.64536 | pgbench_accounts_pkey |        690167808

 2017-02-10 15:31:21.698323+01 | 1486737081.69832 | pgbench_branches_pkey |            16384
 2017-02-10 15:31:21.698323+01 | 1486737081.69832 | pgbench_tellers_pkey  |            90112
 2017-02-10 15:31:21.698323+01 | 1486737081.69832 | pgbench_accounts_pkey |        690167808

