 2017-02-10 15:26:21.817292+01 | 1486736781.81729 |                 0 |               9 |                  5995 |                  452 |             830345 |       1159949 |            11551 |        12209281 |                     0 |      11572040 | 2017-02-10 14:45:20.166902+01

 2017-02-10 15:26:22.867933+01 | 1486736782.86793 |                 0 |               9 |                  5995 |                  452 |             830345 |       1159949 |            11551 |        12209281 |                     0 |      11574816 | 2017-02-10 14:45:20.166902+01

 2017-02-10 15:26:23.917008+01 | 1486736783.91701 |                 0 |               9 |                  5995 |                  452 |             830345 |       1159949 |            11551 |        12209281 |                     0 |      11577807 | 2017-02-10 14:45:20.166902+01

 2017-02-10 15:26:24.967371+01 | 1486736784.96737 |                 0 |               9 |                  5995 |                  452 |             830345 |       1159949 |            11551 |        12209281 |                     0 |      11580722 | 2017-02-10 14:45:20.166902+01

 2017-02-10 15:26:26.017154+01 | 1486736786.01715 |                 0 |               9 |                  5995 |                  452 |             830345 |       1159949 |            11551 |        12209281 |                     0 |      11584295 | 2017-02-10 14:45:20.166902+01

 2017-02-10 15:26:27.06803+01 | 1486736787.06803 |                 0 |               9 |                  5995 |                  452 |             830345 |       1159949 |            11551 |        12209281 |                     0 |      11587353 | 2017-02-10 14:45:20.166902+01

 2017-02-10 15:26:28.118261+01 | 1486736788.11826 |                 0 |               9 |                  5995 |                  452 |             830345 |       1159950 |            11551 |        12209281 |                     0 |      11590199 | 2017-02-10 14:45:20.166902+01

 2017-02-10 15:26:29.169658+01 | 1486736789.16966 |                 0 |               9 |                  5995 |                  452 |             830345 |       1159951 |            11551 |        12209281 |                     0 |      11593169 | 2017-02-10 14:45:20.166902+01

 2017-02-10 15:26:30.220203+01 | 1486736790.2202 |                 0 |               9 |                  5995 |                  452 |             830345 |       1159952 |            11551 |        12209281 |                     0 |      11596936 | 2017-02-10 14:45:20.166902+01

 2017-02-10 15:26:31.271629+01 | 1486736791.27163 |                 0 |               9 |                  5995 |                  452 |             830345 |       1159956 |            11551 |        12209281 |                     0 |      11599977 | 2017-02-10 14:45:20.166902+01

 2017-02-10 15:26:32.322138+01 | 1486736792.32214 |                 0 |               9 |                  5995 |                  452 |             830345 |       1159967 |            11551 |        12209281 |                     0 |      11603222 | 2017-02-10 14:45:20.166902+01

 2017-02-10 15:26:33.371709+01 | 1486736793.37171 |                 0 |               9 |                  5995 |                  452 |             830345 |       1159974 |            11551 |        12209281 |                     0 |      11606316 | 2017-02-10 14:45:20.166902+01

 2017-02-10 15:26:34.422507+01 | 1486736794.42251 |                 0 |               9 |                  5995 |                  452 |             830345 |       1160047 |            11551 |        12209281 |                     0 |      11609952 | 2017-02-10 14:45:20.166902+01

 2017-02-10 15:26:35.473223+01 | 1486736795.47322 |                 0 |               9 |                  5995 |                  452 |             830345 |       1160191 |            11551 |        12209281 |                     0 |      11613036 | 2017-02-10 14:45:20.166902+01

 2017-02-10 15:26:36.526175+01 | 1486736796.52618 |                 0 |               9 |                  5995 |                  452 |             830345 |       1160430 |            11552 |        12209281 |                     0 |      11616181 | 2017-02-10 14:45:20.166902+01

 2017-02-10 15:26:37.581761+01 | 1486736797.58176 |                 0 |               9 |                  5995 |                  452 |             830345 |       1160665 |            11552 |        12209281 |                     0 |      11619171 | 2017-02-10 14:45:20.166902+01

 2017-02-10 15:26:38.63647+01 | 1486736798.63647 |                 0 |               9 |                  5995 |                  452 |             830345 |       1161106 |            11553 |        12209281 |                     0 |      11622782 | 2017-02-10 14:45:20.166902+01

 2017-02-10 15:26:39.686893+01 | 1486736799.68689 |                 0 |               9 |                  5995 |                  452 |             830345 |       1161495 |            11553 |        12209281 |                     0 |      11625920 | 2017-02-10 14:45:20.166902+01

 2017-02-10 15:26:40.735767+01 | 1486736800.73577 |                 0 |               9 |                  5995 |                  452 |             830345 |       1161960 |            11557 |        12209281 |                     0 |      11629069 | 2017-02-10 14:45:20.166902+01

 2017-02-10 15:26:41.789774+01 | 1486736801.78977 |                 0 |               9 |                  5995 |                  452 |             830345 |       1162460 |            11562 |        12209281 |                     0 |      11632126 | 2017-02-10 14:45:20.166902+01

 2017-02-10 15:26:42.840204+01 | 1486736802.8402 |                 0 |               9 |                  5995 |                  452 |             830345 |       1163060 |            11568 |        12209281 |                     0 |      11636052 | 2017-02-10 14:45:20.166902+01

 2017-02-10 15:26:43.89116+01 | 1486736803.89116 |                 0 |               9 |                  5995 |                  452 |             830345 |       1163560 |            11573 |        12209281 |                     0 |      11638964 | 2017-02-10 14:45:20.166902+01

 2017-02-10 15:26:44.945138+01 | 1486736804.94514 |                 0 |               9 |                  5995 |                  452 |             830345 |       1164060 |            11578 |        12209281 |                     0 |      11642241 | 2017-02-10 14:45:20.166902+01

 2017-02-10 15:26:45.997424+01 | 1486736805.99742 |                 0 |               9 |                  5995 |                  452 |             830345 |       1164560 |            11583 |        12209281 |                     0 |      11645480 | 2017-02-10 14:45:20.166902+01

 2017-02-10 15:26:47.04893+01 | 1486736807.04893 |                 0 |               9 |                  5995 |                  452 |             830345 |       1165160 |            11589 |        12209281 |                     0 |      11649293 | 2017-02-10 14:45:20.166902+01

 2017-02-10 15:26:48.099811+01 | 1486736808.09981 |                 0 |               9 |                  5995 |                  452 |             830345 |       1165660 |            11594 |        12209281 |                     0 |      11652246 | 2017-02-10 14:45:20.166902+01

 2017-02-10 15:26:49.152283+01 | 1486736809.15228 |                 0 |               9 |                  5995 |                  452 |             830345 |       1166160 |            11599 |        12209281 |                     0 |      11655407 | 2017-02-10 14:45:20.166902+01

 2017-02-10 15:26:50.204935+01 | 1486736810.20494 |                 0 |               9 |                  5995 |                  452 |             830345 |       1166660 |            11604 |        12209281 |                     0 |      11658442 | 2017-02-10 14:45:20.166902+01

 2017-02-10 15:26:51.25654+01 | 1486736811.25654 |                 0 |               9 |                  5995 |                  452 |             830345 |       1167160 |            11609 |        12209281 |                     0 |      11661519 | 2017-02-10 14:45:20.166902+01

 2017-02-10 15:26:52.305856+01 | 1486736812.30586 |                 0 |               9 |                  5995 |                  452 |             830345 |       1167760 |            11615 |        12209281 |                     0 |      11665454 | 2017-02-10 14:45:20.166902+01

 2017-02-10 15:26:53.355515+01 | 1486736813.35552 |                 0 |               9 |                  5995 |                  452 |             830345 |       1168260 |            11620 |        12209281 |                     0 |      11668365 | 2017-02-10 14:45:20.166902+01

 2017-02-10 15:26:54.409957+01 | 1486736814.40996 |                 0 |               9 |                  5995 |                  452 |             830345 |       1168760 |            11625 |        12209281 |                     0 |      11670964 | 2017-02-10 14:45:20.166902+01

 2017-02-10 15:26:55.460768+01 | 1486736815.46077 |                 0 |               9 |                  5995 |                  452 |             830345 |       1169260 |            11630 |        12209281 |                     0 |      11673836 | 2017-02-10 14:45:20.166902+01

 2017-02-10 15:26:56.509704+01 | 1486736816.5097 |                 0 |               9 |                  5995 |                  452 |             830345 |       1169860 |            11636 |        12209281 |                     0 |      11677368 | 2017-02-10 14:45:20.166902+01

 2017-02-10 15:26:57.558569+01 | 1486736817.55857 |                 0 |               9 |                  5995 |                  452 |             830345 |       1170360 |            11641 |        12209281 |                     0 |      11680210 | 2017-02-10 14:45:20.166902+01

 2017-02-10 15:26:58.607944+01 | 1486736818.60794 |                 0 |               9 |                  5995 |                  452 |             830345 |       1170860 |            11646 |        12209281 |                     0 |      11683120 | 2017-02-10 14:45:20.166902+01

 2017-02-10 15:26:59.661463+01 | 1486736819.66146 |                 0 |               9 |                  5995 |                  452 |             830345 |       1171360 |            11651 |        12263506 |                     0 |      11686148 | 2017-02-10 14:45:20.166902+01

 2017-02-10 15:27:00.713192+01 | 1486736820.71319 |                 0 |               9 |                  5995 |                  452 |             830345 |       1171860 |            11656 |        12263506 |                     0 |      11689208 | 2017-02-10 14:45:20.166902+01

 2017-02-10 15:27:01.763752+01 | 1486736821.76375 |                 0 |               9 |                  5995 |                  452 |             830345 |       1172460 |            11662 |        12263506 |                     0 |      11692786 | 2017-02-10 14:45:20.166902+01

 2017-02-10 15:27:02.817884+01 | 1486736822.81788 |                 0 |               9 |                  5995 |                  452 |             830345 |       1172960 |            11667 |        12263506 |                     0 |      11695820 | 2017-02-10 14:45:20.166902+01

 2017-02-10 15:27:03.869431+01 | 1486736823.86943 |                 0 |               9 |                  5995 |                  452 |             830345 |       1173460 |            11672 |        12263506 |                     0 |      11698729 | 2017-02-10 14:45:20.166902+01

 2017-02-10 15:27:04.9205+01 | 1486736824.9205 |                 0 |               9 |                  5995 |                  452 |             830345 |       1173960 |            11677 |        12263506 |                     0 |      11701797 | 2017-02-10 14:45:20.166902+01

 2017-02-10 15:27:05.972621+01 | 1486736825.97262 |                 0 |               9 |                  5995 |                  452 |             830345 |       1174560 |            11683 |        12263506 |                     0 |      11705345 | 2017-02-10 14:45:20.166902+01

 2017-02-10 15:27:07.024358+01 | 1486736827.02436 |                 0 |               9 |                  5995 |                  452 |             830345 |       1175060 |            11688 |        12263506 |                     0 |      11708413 | 2017-02-10 14:45:20.166902+01

 2017-02-10 15:27:08.075541+01 | 1486736828.07554 |                 0 |               9 |                  5995 |                  452 |             830345 |       1175560 |            11693 |        12263506 |                     0 |      11711439 | 2017-02-10 14:45:20.166902+01

 2017-02-10 15:27:09.129522+01 | 1486736829.12952 |                 0 |               9 |                  5995 |                  452 |             830345 |       1176060 |            11698 |        12263506 |                     0 |      11714309 | 2017-02-10 14:45:20.166902+01

 2017-02-10 15:27:10.182215+01 | 1486736830.18221 |                 0 |               9 |                  5995 |                  452 |             830345 |       1176660 |            11704 |        12263506 |                     0 |      11718112 | 2017-02-10 14:45:20.166902+01

 2017-02-10 15:27:11.234459+01 | 1486736831.23446 |                 0 |               9 |                  5995 |                  452 |             830345 |       1177160 |            11709 |        12263506 |                     0 |      11720937 | 2017-02-10 14:45:20.166902+01

 2017-02-10 15:27:12.283506+01 | 1486736832.28351 |                 0 |               9 |                  5995 |                  452 |             830345 |       1177660 |            11714 |        12263506 |                     0 |      11724181 | 2017-02-10 14:45:20.166902+01

 2017-02-10 15:27:13.337943+01 | 1486736833.33794 |                 0 |               9 |                  5995 |                  452 |             830345 |       1178160 |            11719 |        12263506 |                     0 |      11727286 | 2017-02-10 14:45:20.166902+01

 2017-02-10 15:27:14.391103+01 | 1486736834.3911 |                 0 |               9 |                  5995 |                  452 |             830345 |       1178660 |            11724 |        12263506 |                     0 |      11730313 | 2017-02-10 14:45:20.166902+01

 2017-02-10 15:27:15.443755+01 | 1486736835.44375 |                 0 |               9 |                  5995 |                  452 |             830345 |       1179260 |            11730 |        12263506 |                     0 |      11734034 | 2017-02-10 14:45:20.166902+01

 2017-02-10 15:27:16.501141+01 | 1486736836.50114 |                 0 |               9 |                  5995 |                  452 |             830345 |       1179760 |            11735 |        12263506 |                     0 |      11737003 | 2017-02-10 14:45:20.166902+01

 2017-02-10 15:27:17.550386+01 | 1486736837.55039 |                 0 |               9 |                  5995 |                  452 |             830345 |       1180260 |            11740 |        12320042 |                     0 |      11740140 | 2017-02-10 14:45:20.166902+01

 2017-02-10 15:27:18.601661+01 | 1486736838.60166 |                 0 |               9 |                  5995 |                  452 |             830345 |       1180760 |            11745 |        12320042 |                     0 |      11743462 | 2017-02-10 14:45:20.166902+01

 2017-02-10 15:27:19.654798+01 | 1486736839.6548 |                 0 |               9 |                  5995 |                  452 |             830345 |       1181360 |            11751 |        12320042 |                     0 |      11747229 | 2017-02-10 14:45:20.166902+01

 2017-02-10 15:27:20.707672+01 | 1486736840.70767 |                 0 |               9 |                  5995 |                  452 |             830345 |       1181860 |            11756 |        12320042 |                     0 |      11750329 | 2017-02-10 14:45:20.166902+01

 2017-02-10 15:27:21.760717+01 | 1486736841.76072 |                 0 |               9 |                  5995 |                  452 |             830345 |       1182360 |            11761 |        12320042 |                     0 |      11753384 | 2017-02-10 14:45:20.166902+01

 2017-02-10 15:27:22.814751+01 | 1486736842.81475 |                 0 |               9 |                  5995 |                  452 |             830345 |       1182860 |            11766 |        12320042 |                     0 |      11756569 | 2017-02-10 14:45:20.166902+01

 2017-02-10 15:27:23.86711+01 | 1486736843.86711 |                 0 |               9 |                  5995 |                  452 |             830345 |       1183460 |            11772 |        12320042 |                     0 |      11760195 | 2017-02-10 14:45:20.166902+01

 2017-02-10 15:27:24.917178+01 | 1486736844.91718 |                 0 |               9 |                  5995 |                  452 |             830345 |       1183960 |            11777 |        12320042 |                     0 |      11763251 | 2017-02-10 14:45:20.166902+01

 2017-02-10 15:27:25.972164+01 | 1486736845.97216 |                 0 |               9 |                  5995 |                  452 |             830345 |       1184460 |            11782 |        12320042 |                     0 |      11766324 | 2017-02-10 14:45:20.166902+01

 2017-02-10 15:27:27.025232+01 | 1486736847.02523 |                 0 |               9 |                  5995 |                  452 |             830345 |       1184960 |            11787 |        12320042 |                     0 |      11769462 | 2017-02-10 14:45:20.166902+01

 2017-02-10 15:27:28.075974+01 | 1486736848.07597 |                 0 |               9 |                  5995 |                  452 |             830345 |       1185560 |            11793 |        12320042 |                     0 |      11773095 | 2017-02-10 14:45:20.166902+01

 2017-02-10 15:27:29.128433+01 | 1486736849.12843 |                 0 |               9 |                  5995 |                  452 |             830345 |       1186060 |            11798 |        12320042 |                     0 |      11776108 | 2017-02-10 14:45:20.166902+01

 2017-02-10 15:27:30.179488+01 | 1486736850.17949 |                 0 |               9 |                  5995 |                  452 |             830345 |       1186560 |            11803 |        12320042 |                     0 |      11779286 | 2017-02-10 14:45:20.166902+01

 2017-02-10 15:27:31.229419+01 | 1486736851.22942 |                 0 |               9 |                  5995 |                  452 |             830345 |       1187060 |            11808 |        12320042 |                     0 |      11782467 | 2017-02-10 14:45:20.166902+01

 2017-02-10 15:27:32.283919+01 | 1486736852.28392 |                 0 |               9 |                  5995 |                  452 |             830345 |       1187660 |            11814 |        12320042 |                     0 |      11786135 | 2017-02-10 14:45:20.166902+01

 2017-02-10 15:27:33.337874+01 | 1486736853.33787 |                 0 |               9 |                  5995 |                  452 |             830345 |       1188160 |            11819 |        12378178 |                     0 |      11789395 | 2017-02-10 14:45:20.166902+01

 2017-02-10 15:27:34.38162+01 | 1486736854.38162 |                 0 |               9 |                  5995 |                  452 |             830345 |       1188660 |            11824 |        12378178 |                     0 |      11792485 | 2017-02-10 14:45:20.166902+01

 2017-02-10 15:27:35.434732+01 | 1486736855.43473 |                 0 |               9 |                  5995 |                  452 |             830345 |       1189160 |            11829 |        12378178 |                     0 |      11795475 | 2017-02-10 14:45:20.166902+01

 2017-02-10 15:27:36.485619+01 | 1486736856.48562 |                 0 |               9 |                  5995 |                  452 |             830345 |       1189660 |            11834 |        12378178 |                     0 |      11798422 | 2017-02-10 14:45:20.166902+01

 2017-02-10 15:27:37.53638+01 | 1486736857.53638 |                 0 |               9 |                  5995 |                  452 |             830345 |       1190260 |            11840 |        12378178 |                     0 |      11801959 | 2017-02-10 14:45:20.166902+01

 2017-02-10 15:27:38.588206+01 | 1486736858.58821 |                 0 |               9 |                  5995 |                  452 |             830345 |       1190760 |            11845 |        12378178 |                     0 |      11804939 | 2017-02-10 14:45:20.166902+01

 2017-02-10 15:27:39.64022+01 | 1486736859.64022 |                 0 |               9 |                  5995 |                  452 |             830345 |       1191260 |            11850 |        12378178 |                     0 |      11807918 | 2017-02-10 14:45:20.166902+01

 2017-02-10 15:27:40.692657+01 | 1486736860.69266 |                 0 |               9 |                  5995 |                  452 |             830345 |       1191760 |            11855 |        12378178 |                     0 |      11810811 | 2017-02-10 14:45:20.166902+01

 2017-02-10 15:27:41.744863+01 | 1486736861.74486 |                 0 |               9 |                  5995 |                  452 |             830345 |       1192360 |            11861 |        12378178 |                     0 |      11814428 | 2017-02-10 14:45:20.166902+01

 2017-02-10 15:27:42.798504+01 | 1486736862.7985 |                 0 |               9 |                  5995 |                  452 |             830345 |       1192860 |            11866 |        12378178 |                     0 |      11817528 | 2017-02-10 14:45:20.166902+01

 2017-02-10 15:27:43.848426+01 | 1486736863.84843 |                 0 |               9 |                  5995 |                  452 |             830345 |       1193360 |            11871 |        12378178 |                     0 |      11820381 | 2017-02-10 14:45:20.166902+01

 2017-02-10 15:27:44.901433+01 | 1486736864.90143 |                 0 |               9 |                  5995 |                  452 |             830345 |       1193860 |            11876 |        12378178 |                     0 |      11823367 | 2017-02-10 14:45:20.166902+01

 2017-02-10 15:27:45.953456+01 | 1486736865.95346 |                 0 |               9 |                  5995 |                  452 |             830345 |       1194460 |            11882 |        12378178 |                     0 |      11827001 | 2017-02-10 14:45:20.166902+01

 2017-02-10 15:27:47.006739+01 | 1486736867.00674 |                 0 |               9 |                  5995 |                  452 |             830345 |       1194960 |            11887 |        12378178 |                     0 |      11830063 | 2017-02-10 14:45:20.166902+01

 2017-02-10 15:27:48.0601+01 | 1486736868.0601 |                 0 |               9 |                  5995 |                  452 |             830345 |       1195460 |            11892 |        12378178 |                     0 |      11832867 | 2017-02-10 14:45:20.166902+01

 2017-02-10 15:27:49.109344+01 | 1486736869.10934 |                 0 |               9 |                  5995 |                  452 |             830345 |       1195960 |            11897 |        12378178 |                     0 |      11835798 | 2017-02-10 14:45:20.166902+01

 2017-02-10 15:27:50.159139+01 | 1486736870.15914 |                 0 |               9 |                  5995 |                  452 |             830345 |       1196460 |            11902 |        12378178 |                     0 |      11838803 | 2017-02-10 14:45:20.166902+01

 2017-02-10 15:27:51.208696+01 | 1486736871.2087 |                 0 |               9 |                  5995 |                  452 |             830345 |       1197060 |            11908 |        12378178 |                     0 |      11842180 | 2017-02-10 14:45:20.166902+01

 2017-02-10 15:27:52.262928+01 | 1486736872.26293 |                 0 |               9 |                  5995 |                  452 |             830345 |       1197560 |            11913 |        12378178 |                     0 |      11845229 | 2017-02-10 14:45:20.166902+01

 2017-02-10 15:27:53.31271+01 | 1486736873.31271 |                 0 |               9 |                  5995 |                  452 |             830345 |       1198060 |            11918 |        12378178 |                     0 |      11848086 | 2017-02-10 14:45:20.166902+01

 2017-02-10 15:27:54.362167+01 | 1486736874.36217 |                 0 |               9 |                  5995 |                  452 |             830345 |       1198560 |            11923 |        12433214 |                     0 |      11850947 | 2017-02-10 14:45:20.166902+01

 2017-02-10 15:27:55.414424+01 | 1486736875.41442 |                 0 |               9 |                  5995 |                  452 |             830345 |       1199160 |            11929 |        12433214 |                     0 |      11854324 | 2017-02-10 14:45:20.166902+01

 2017-02-10 15:27:56.467147+01 | 1486736876.46715 |                 0 |               9 |                  5995 |                  452 |             830345 |       1199660 |            11934 |        12433214 |                     0 |      11857210 | 2017-02-10 14:45:20.166902+01

 2017-02-10 15:27:57.516325+01 | 1486736877.51632 |                 0 |               9 |                  5995 |                  452 |             830345 |       1200160 |            11939 |        12433214 |                     0 |      11860175 | 2017-02-10 14:45:20.166902+01

 2017-02-10 15:27:58.566618+01 | 1486736878.56662 |                 0 |               9 |                  5995 |                  452 |             830345 |       1200660 |            11944 |        12433214 |                     0 |      11862951 | 2017-02-10 14:45:20.166902+01

 2017-02-10 15:27:59.620604+01 | 1486736879.6206 |                 0 |               9 |                  5995 |                  452 |             830345 |       1201160 |            11949 |        12433214 |                     0 |      11865882 | 2017-02-10 14:45:20.166902+01

 2017-02-10 15:28:00.664685+01 | 1486736880.66469 |                 0 |               9 |                  5995 |                  452 |             830345 |       1201760 |            11955 |        12433214 |                     0 |      11869372 | 2017-02-10 14:45:20.166902+01

 2017-02-10 15:28:01.715512+01 | 1486736881.71551 |                 0 |               9 |                  5995 |                  452 |             830345 |       1202260 |            11960 |        12433214 |                     0 |      11872320 | 2017-02-10 14:45:20.166902+01

 2017-02-10 15:28:02.765777+01 | 1486736882.76578 |                 0 |               9 |                  5995 |                  452 |             830345 |       1202760 |            11965 |        12433214 |                     0 |      11875124 | 2017-02-10 14:45:20.166902+01

 2017-02-10 15:28:03.819486+01 | 1486736883.81949 |                 0 |               9 |                  5995 |                  452 |             830345 |       1203260 |            11970 |        12433214 |                     0 |      11878042 | 2017-02-10 14:45:20.166902+01

 2017-02-10 15:28:04.872628+01 | 1486736884.87263 |                 0 |               9 |                  5995 |                  452 |             830345 |       1203860 |            11976 |        12433214 |                     0 |      11881359 | 2017-02-10 14:45:20.166902+01

 2017-02-10 15:28:05.926386+01 | 1486736885.92639 |                 0 |               9 |                  5995 |                  452 |             830345 |       1204360 |            11981 |        12433214 |                     0 |      11884312 | 2017-02-10 14:45:20.166902+01

 2017-02-10 15:28:06.978838+01 | 1486736886.97884 |                 0 |               9 |                  5995 |                  452 |             830345 |       1204860 |            11986 |        12433214 |                     0 |      11887285 | 2017-02-10 14:45:20.166902+01

 2017-02-10 15:28:08.032098+01 | 1486736888.0321 |                 0 |               9 |                  5995 |                  452 |             830345 |       1205360 |            11991 |        12433214 |                     0 |      11890300 | 2017-02-10 14:45:20.166902+01

 2017-02-10 15:28:09.085712+01 | 1486736889.08571 |                 0 |               9 |                  5995 |                  452 |             830345 |       1205960 |            11997 |        12433214 |                     0 |      11893579 | 2017-02-10 14:45:20.166902+01

 2017-02-10 15:28:10.137942+01 | 1486736890.13794 |                 0 |               9 |                  5995 |                  452 |             830345 |       1206460 |            12002 |        12433214 |                     0 |      11896546 | 2017-02-10 14:45:20.166902+01

 2017-02-10 15:28:11.190578+01 | 1486736891.19058 |                 0 |               9 |                  5995 |                  452 |             830345 |       1206960 |            12007 |        12433214 |                     0 |      11899547 | 2017-02-10 14:45:20.166902+01

 2017-02-10 15:28:12.241526+01 | 1486736892.24153 |                 0 |               9 |                  5995 |                  452 |             830345 |       1207460 |            12012 |        12433214 |                     0 |      11902300 | 2017-02-10 14:45:20.166902+01

 2017-02-10 15:28:13.293144+01 | 1486736893.29314 |                 0 |               9 |                  5995 |                  452 |             830345 |       1207960 |            12017 |        12433214 |                     0 |      11905247 | 2017-02-10 14:45:20.166902+01

 2017-02-10 15:28:14.344093+01 | 1486736894.34409 |                 0 |               9 |                  5995 |                  452 |             830345 |       1208560 |            12023 |        12433214 |                     0 |      11908750 | 2017-02-10 14:45:20.166902+01

 2017-02-10 15:28:15.395374+01 | 1486736895.39537 |                 0 |               9 |                  5995 |                  452 |             830345 |       1209060 |            12028 |        12433214 |                     0 |      11911628 | 2017-02-10 14:45:20.166902+01

 2017-02-10 15:28:16.448476+01 | 1486736896.44848 |                 0 |               9 |                  5995 |                  452 |             830345 |       1209560 |            12033 |        12487650 |                     0 |      11914450 | 2017-02-10 14:45:20.166902+01

 2017-02-10 15:28:17.50358+01 | 1486736897.50358 |                 0 |               9 |                  5995 |                  452 |             830345 |       1210060 |            12038 |        12487650 |                     0 |      11917446 | 2017-02-10 14:45:20.166902+01

 2017-02-10 15:28:18.552723+01 | 1486736898.55272 |                 0 |               9 |                  5995 |                  452 |             830345 |       1210660 |            12044 |        12487650 |                     0 |      11920999 | 2017-02-10 14:45:20.166902+01

 2017-02-10 15:28:19.60631+01 | 1486736899.60631 |                 0 |               9 |                  5995 |                  452 |             830345 |       1211160 |            12049 |        12487650 |                     0 |      11923695 | 2017-02-10 14:45:20.166902+01

 2017-02-10 15:28:20.65918+01 | 1486736900.65918 |                 0 |               9 |                  5995 |                  452 |             830345 |       1211660 |            12054 |        12487650 |                     0 |      11926623 | 2017-02-10 14:45:20.166902+01

 2017-02-10 15:28:21.712729+01 | 1486736901.71273 |                 0 |               9 |                  5995 |                  452 |             830345 |       1212160 |            12059 |        12487650 |                     0 |      11929570 | 2017-02-10 14:45:20.166902+01

 2017-02-10 15:28:22.767152+01 | 1486736902.76715 |                 0 |               9 |                  5995 |                  452 |             830345 |       1212760 |            12065 |        12487650 |                     0 |      11933052 | 2017-02-10 14:45:20.166902+01

 2017-02-10 15:28:23.823423+01 | 1486736903.82342 |                 0 |               9 |                  5995 |                  452 |             830345 |       1213260 |            12070 |        12487650 |                     0 |      11935912 | 2017-02-10 14:45:20.166902+01

 2017-02-10 15:28:24.875198+01 | 1486736904.8752 |                 0 |               9 |                  5995 |                  452 |             830345 |       1213760 |            12075 |        12487650 |                     0 |      11938774 | 2017-02-10 14:45:20.166902+01

 2017-02-10 15:28:25.925689+01 | 1486736905.92569 |                 0 |               9 |                  5995 |                  452 |             830345 |       1214260 |            12080 |        12487650 |                     0 |      11941657 | 2017-02-10 14:45:20.166902+01

 2017-02-10 15:28:26.976883+01 | 1486736906.97688 |                 0 |               9 |                  5995 |                  452 |             830345 |       1214860 |            12086 |        12487650 |                     0 |      11945015 | 2017-02-10 14:45:20.166902+01

 2017-02-10 15:28:28.027338+01 | 1486736908.02734 |                 0 |               9 |                  5995 |                  452 |             830345 |       1215360 |            12091 |        12487650 |                     0 |      11947926 | 2017-02-10 14:45:20.166902+01

 2017-02-10 15:28:29.083598+01 | 1486736909.0836 |                 0 |               9 |                  5995 |                  452 |             830345 |       1215860 |            12096 |        12487650 |                     0 |      11950796 | 2017-02-10 14:45:20.166902+01

 2017-02-10 15:28:30.133712+01 | 1486736910.13371 |                 0 |               9 |                  5995 |                  452 |             830345 |       1216360 |            12101 |        12487650 |                     0 |      11953654 | 2017-02-10 14:45:20.166902+01

 2017-02-10 15:28:31.185496+01 | 1486736911.1855 |                 0 |               9 |                  5995 |                  452 |             830345 |       1216860 |            12106 |        12487650 |                     0 |      11956391 | 2017-02-10 14:45:20.166902+01

 2017-02-10 15:28:32.238191+01 | 1486736912.23819 |                 0 |               9 |                  5995 |                  452 |             830345 |       1217460 |            12112 |        12487650 |                     0 |      11959908 | 2017-02-10 14:45:20.166902+01

 2017-02-10 15:28:33.292192+01 | 1486736913.29219 |                 0 |               9 |                  5995 |                  452 |             830345 |       1217960 |            12117 |        12487650 |                     0 |      11962849 | 2017-02-10 14:45:20.166902+01

 2017-02-10 15:28:34.341321+01 | 1486736914.34132 |                 0 |               9 |                  5995 |                  452 |             830345 |       1218460 |            12122 |        12487650 |                     0 |      11965702 | 2017-02-10 14:45:20.166902+01

 2017-02-10 15:28:35.391243+01 | 1486736915.39124 |                 0 |               9 |                  5995 |                  452 |             830345 |       1218960 |            12127 |        12487650 |                     0 |      11968554 | 2017-02-10 14:45:20.166902+01

 2017-02-10 15:28:36.444249+01 | 1486736916.44425 |                 0 |               9 |                  5995 |                  452 |             830345 |       1219560 |            12133 |        12487650 |                     0 |      11972144 | 2017-02-10 14:45:20.166902+01

 2017-02-10 15:28:37.498343+01 | 1486736917.49834 |                 0 |               9 |                  5995 |                  452 |             830345 |       1220060 |            12138 |        12487650 |                     0 |      11975074 | 2017-02-10 14:45:20.166902+01

 2017-02-10 15:28:38.550956+01 | 1486736918.55096 |                 0 |               9 |                  5995 |                  452 |             830345 |       1220560 |            12143 |        12487650 |                     0 |      11977802 | 2017-02-10 14:45:20.166902+01

 2017-02-10 15:28:39.603954+01 | 1486736919.60395 |                 0 |               9 |                  5995 |                  452 |             830345 |       1221060 |            12148 |        12487650 |                     0 |      11980646 | 2017-02-10 14:45:20.166902+01

 2017-02-10 15:28:40.654697+01 | 1486736920.6547 |                 0 |               9 |                  5995 |                  452 |             830345 |       1221660 |            12154 |        12541023 |                     0 |      11984195 | 2017-02-10 14:45:20.166902+01

 2017-02-10 15:28:41.705804+01 | 1486736921.7058 |                 0 |               9 |                  5995 |                  452 |             830345 |       1222160 |            12159 |        12541023 |                     0 |      11986858 | 2017-02-10 14:45:20.166902+01

 2017-02-10 15:28:42.759368+01 | 1486736922.75937 |                 0 |               9 |                  5995 |                  452 |             830345 |       1222660 |            12164 |        12541023 |                     0 |      11989782 | 2017-02-10 14:45:20.166902+01

 2017-02-10 15:28:43.808832+01 | 1486736923.80883 |                 0 |               9 |                  5995 |                  452 |             830345 |       1223160 |            12169 |        12541023 |                     0 |      11992554 | 2017-02-10 14:45:20.166902+01

 2017-02-10 15:28:44.862234+01 | 1486736924.86223 |                 0 |               9 |                  5995 |                  452 |             830345 |       1223660 |            12174 |        12541023 |                     0 |      11995488 | 2017-02-10 14:45:20.166902+01

 2017-02-10 15:28:45.914926+01 | 1486736925.91493 |                 0 |               9 |                  5995 |                  452 |             830345 |       1224260 |            12180 |        12541023 |                     0 |      11998796 | 2017-02-10 14:45:20.166902+01

 2017-02-10 15:28:46.96869+01 | 1486736926.96869 |                 0 |               9 |                  5995 |                  452 |             830345 |       1224760 |            12185 |        12541023 |                     0 |      12001589 | 2017-02-10 14:45:20.166902+01

 2017-02-10 15:28:48.022253+01 | 1486736928.02225 |                 0 |               9 |                  5995 |                  452 |             830345 |       1225260 |            12190 |        12541023 |                     0 |      12004415 | 2017-02-10 14:45:20.166902+01

 2017-02-10 15:28:49.073999+01 | 1486736929.074 |                 0 |               9 |                  5995 |                  452 |             830345 |       1225760 |            12195 |        12541023 |                     0 |      12007335 | 2017-02-10 14:45:20.166902+01

 2017-02-10 15:28:50.122521+01 | 1486736930.12252 |                 0 |               9 |                  5995 |                  452 |             830345 |       1226360 |            12201 |        12541023 |                     0 |      12010695 | 2017-02-10 14:45:20.166902+01

 2017-02-10 15:28:51.174603+01 | 1486736931.1746 |                 0 |               9 |                  5995 |                  452 |             830345 |       1226860 |            12206 |        12541023 |                     0 |      12013541 | 2017-02-10 14:45:20.166902+01

 2017-02-10 15:28:52.228841+01 | 1486736932.22884 |                 0 |               9 |                  5995 |                  452 |             830345 |       1227360 |            12211 |        12541023 |                     0 |      12016350 | 2017-02-10 14:45:20.166902+01

 2017-02-10 15:28:53.281399+01 | 1486736933.2814 |                 0 |               9 |                  5995 |                  452 |             830345 |       1227860 |            12216 |        12541023 |                     0 |      12018858 | 2017-02-10 14:45:20.166902+01

 2017-02-10 15:28:54.336128+01 | 1486736934.33613 |                 0 |               9 |                  5995 |                  452 |             830345 |       1228460 |            12222 |        12541023 |                     0 |      12022198 | 2017-02-10 14:45:20.166902+01

 2017-02-10 15:28:55.386237+01 | 1486736935.38624 |                 0 |               9 |                  5995 |                  452 |             830345 |       1228960 |            12227 |        12541023 |                     0 |      12024977 | 2017-02-10 14:45:20.166902+01

 2017-02-10 15:28:56.442341+01 | 1486736936.44234 |                 0 |               9 |                  5995 |                  452 |             830345 |       1229460 |            12232 |        12541023 |                     0 |      12027536 | 2017-02-10 14:45:20.166902+01

 2017-02-10 15:28:57.495872+01 | 1486736937.49587 |                 0 |               9 |                  5995 |                  452 |             830345 |       1229960 |            12237 |        12541023 |                     0 |      12030331 | 2017-02-10 14:45:20.166902+01

 2017-02-10 15:28:58.546625+01 | 1486736938.54662 |                 0 |               9 |                  5995 |                  452 |             830345 |       1230560 |            12243 |        12541023 |                     0 |      12033410 | 2017-02-10 14:45:20.166902+01

 2017-02-10 15:28:59.597556+01 | 1486736939.59756 |                 0 |               9 |                  5995 |                  452 |             830345 |       1231060 |            12248 |        12541023 |                     0 |      12036182 | 2017-02-10 14:45:20.166902+01

 2017-02-10 15:29:00.652035+01 | 1486736940.65203 |                 0 |               9 |                  5995 |                  452 |             830345 |       1231560 |            12253 |        12541023 |                     0 |      12038791 | 2017-02-10 14:45:20.166902+01

 2017-02-10 15:29:01.704084+01 | 1486736941.70408 |                 0 |               9 |                  5995 |                  452 |             830345 |       1232060 |            12258 |        12596226 |                     0 |      12041473 | 2017-02-10 14:45:20.166902+01

 2017-02-10 15:29:02.755818+01 | 1486736942.75582 |                 0 |               9 |                  5995 |                  452 |             830345 |       1232560 |            12263 |        12596226 |                     0 |      12044135 | 2017-02-10 14:45:20.166902+01

 2017-02-10 15:29:03.808559+01 | 1486736943.80856 |                 0 |               9 |                  5995 |                  452 |             830345 |       1233160 |            12269 |        12596226 |                     0 |      12047173 | 2017-02-10 14:45:20.166902+01

 2017-02-10 15:29:04.860462+01 | 1486736944.86046 |                 0 |               9 |                  5995 |                  452 |             830345 |       1233660 |            12274 |        12596226 |                     0 |      12049853 | 2017-02-10 14:45:20.166902+01

 2017-02-10 15:29:05.913662+01 | 1486736945.91366 |                 0 |               9 |                  5995 |                  452 |             830345 |       1234160 |            12279 |        12596226 |                     0 |      12052327 | 2017-02-10 14:45:20.166902+01

 2017-02-10 15:29:06.967301+01 | 1486736946.9673 |                 0 |               9 |                  5995 |                  452 |             830345 |       1234660 |            12284 |        12596226 |                     0 |      12054965 | 2017-02-10 14:45:20.166902+01

 2017-02-10 15:29:08.016222+01 | 1486736948.01622 |                 0 |               9 |                  5995 |                  452 |             830345 |       1235260 |            12290 |        12596226 |                     0 |      12057950 | 2017-02-10 14:45:20.166902+01

 2017-02-10 15:29:09.068797+01 | 1486736949.0688 |                 0 |               9 |                  5995 |                  452 |             830345 |       1235760 |            12295 |        12596226 |                     0 |      12060601 | 2017-02-10 14:45:20.166902+01

 2017-02-10 15:29:10.12299+01 | 1486736950.12299 |                 0 |               9 |                  5995 |                  452 |             830345 |       1236260 |            12300 |        12596226 |                     0 |      12063288 | 2017-02-10 14:45:20.166902+01

 2017-02-10 15:29:11.178421+01 | 1486736951.17842 |                 0 |               9 |                  5995 |                  452 |             830345 |       1236760 |            12305 |        12596226 |                     0 |      12065901 | 2017-02-10 14:45:20.166902+01

 2017-02-10 15:29:12.230854+01 | 1486736952.23085 |                 0 |               9 |                  5995 |                  452 |             830345 |       1237360 |            12311 |        12596226 |                     0 |      12069163 | 2017-02-10 14:45:20.166902+01

 2017-02-10 15:29:13.281515+01 | 1486736953.28151 |                 0 |               9 |                  5995 |                  452 |             830345 |       1237860 |            12316 |        12596226 |                     0 |      12071611 | 2017-02-10 14:45:20.166902+01

 2017-02-10 15:29:14.333251+01 | 1486736954.33325 |                 0 |               9 |                  5995 |                  452 |             830345 |       1238360 |            12321 |        12596226 |                     0 |      12074293 | 2017-02-10 14:45:20.166902+01

 2017-02-10 15:29:15.383601+01 | 1486736955.3836 |                 0 |               9 |                  5995 |                  452 |             830345 |       1238860 |            12326 |        12596226 |                     0 |      12077022 | 2017-02-10 14:45:20.166902+01

 2017-02-10 15:29:16.437885+01 | 1486736956.43789 |                 0 |               9 |                  5995 |                  452 |             830345 |       1239460 |            12332 |        12596226 |                     0 |      12080274 | 2017-02-10 14:45:20.166902+01

 2017-02-10 15:29:17.490182+01 | 1486736957.49018 |                 0 |               9 |                  5995 |                  452 |             830345 |       1239960 |            12337 |        12596226 |                     0 |      12082973 | 2017-02-10 14:45:20.166902+01

 2017-02-10 15:29:18.545705+01 | 1486736958.54571 |                 0 |               9 |                  5995 |                  452 |             830345 |       1240460 |            12342 |        12653463 |                     0 |      12085591 | 2017-02-10 14:45:20.166902+01

 2017-02-10 15:29:19.600871+01 | 1486736959.60087 |                 0 |               9 |                  5995 |                  452 |             830345 |       1240960 |            12347 |        12653463 |                     0 |      12088263 | 2017-02-10 14:45:20.166902+01

 2017-02-10 15:29:20.652414+01 | 1486736960.65241 |                 0 |               9 |                  5995 |                  452 |             830345 |       1241560 |            12353 |        12653463 |                     0 |      12091570 | 2017-02-10 14:45:20.166902+01

 2017-02-10 15:29:21.703552+01 | 1486736961.70355 |                 0 |               9 |                  5995 |                  452 |             830345 |       1242060 |            12358 |        12653463 |                     0 |      12094441 | 2017-02-10 14:45:20.166902+01

 2017-02-10 15:29:22.752875+01 | 1486736962.75288 |                 0 |               9 |                  5995 |                  452 |             830345 |       1242560 |            12363 |        12653463 |                     0 |      12097112 | 2017-02-10 14:45:20.166902+01

 2017-02-10 15:29:23.806101+01 | 1486736963.8061 |                 0 |               9 |                  5995 |                  452 |             830345 |       1243060 |            12368 |        12653463 |                     0 |      12099886 | 2017-02-10 14:45:20.166902+01

 2017-02-10 15:29:24.857698+01 | 1486736964.8577 |                 0 |               9 |                  5995 |                  452 |             830345 |       1243560 |            12373 |        12653463 |                     0 |      12102474 | 2017-02-10 14:45:20.166902+01

 2017-02-10 15:29:25.909575+01 | 1486736965.90957 |                 0 |               9 |                  5995 |                  452 |             830345 |       1244160 |            12379 |        12653463 |                     0 |      12105793 | 2017-02-10 14:45:20.166902+01

 2017-02-10 15:29:26.966357+01 | 1486736966.96636 |                 0 |               9 |                  5995 |                  452 |             830345 |       1244660 |            12384 |        12653463 |                     0 |      12108427 | 2017-02-10 14:45:20.166902+01

 2017-02-10 15:29:28.018733+01 | 1486736968.01873 |                 0 |               9 |                  5995 |                  452 |             830345 |       1245160 |            12389 |        12653463 |                     0 |      12111308 | 2017-02-10 14:45:20.166902+01

 2017-02-10 15:29:29.068692+01 | 1486736969.06869 |                 0 |               9 |                  5995 |                  452 |             830345 |       1245660 |            12394 |        12653463 |                     0 |      12114179 | 2017-02-10 14:45:20.166902+01

 2017-02-10 15:29:30.118774+01 | 1486736970.11877 |                 0 |               9 |                  5995 |                  452 |             830345 |       1246260 |            12400 |        12653463 |                     0 |      12117375 | 2017-02-10 14:45:20.166902+01

 2017-02-10 15:29:31.172204+01 | 1486736971.1722 |                 0 |               9 |                  5995 |                  452 |             830345 |       1246760 |            12405 |        12653463 |                     0 |      12120269 | 2017-02-10 14:45:20.166902+01

 2017-02-10 15:29:32.22887+01 | 1486736972.22887 |                 0 |               9 |                  5995 |                  452 |             830345 |       1247260 |            12410 |        12653463 |                     0 |      12123024 | 2017-02-10 14:45:20.166902+01

 2017-02-10 15:29:33.281048+01 | 1486736973.28105 |                 0 |               9 |                  5995 |                  452 |             830345 |       1247760 |            12415 |        12653463 |                     0 |      12125925 | 2017-02-10 14:45:20.166902+01

 2017-02-10 15:29:34.333573+01 | 1486736974.33357 |                 0 |               9 |                  5995 |                  452 |             830345 |       1248360 |            12421 |        12711000 |                     0 |      12129349 | 2017-02-10 14:45:20.166902+01

 2017-02-10 15:29:35.384077+01 | 1486736975.38408 |                 0 |               9 |                  5995 |                  452 |             830345 |       1248860 |            12426 |        12711000 |                     0 |      12132166 | 2017-02-10 14:45:20.166902+01

 2017-02-10 15:29:36.440622+01 | 1486736976.44062 |                 0 |               9 |                  5995 |                  452 |             830345 |       1249360 |            12431 |        12711000 |                     0 |      12134888 | 2017-02-10 14:45:20.166902+01

 2017-02-10 15:29:37.492729+01 | 1486736977.49273 |                 0 |               9 |                  5995 |                  452 |             830345 |       1249860 |            12436 |        12711000 |                     0 |      12137747 | 2017-02-10 14:45:20.166902+01

 2017-02-10 15:29:38.545229+01 | 1486736978.54523 |                 0 |               9 |                  5995 |                  452 |             830345 |       1250460 |            12442 |        12711000 |                     0 |      12141066 | 2017-02-10 14:45:20.166902+01

 2017-02-10 15:29:39.60054+01 | 1486736979.60054 |                 0 |               9 |                  5995 |                  452 |             830345 |       1250960 |            12447 |        12711000 |                     0 |      12143941 | 2017-02-10 14:45:20.166902+01

 2017-02-10 15:29:40.652422+01 | 1486736980.65242 |                 0 |               9 |                  5995 |                  452 |             830345 |       1251460 |            12452 |        12711000 |                     0 |      12146703 | 2017-02-10 14:45:20.166902+01

 2017-02-10 15:29:41.707787+01 | 1486736981.70779 |                 0 |               9 |                  5995 |                  452 |             830345 |       1251960 |            12457 |        12711000 |                     0 |      12149699 | 2017-02-10 14:45:20.166902+01

 2017-02-10 15:29:42.760719+01 | 1486736982.76072 |                 0 |               9 |                  5995 |                  452 |             830345 |       1252460 |            12462 |        12711000 |                     0 |      12152440 | 2017-02-10 14:45:20.166902+01

 2017-02-10 15:29:43.812705+01 | 1486736983.81271 |                 0 |               9 |                  5995 |                  452 |             830345 |       1253060 |            12468 |        12711000 |                     0 |      12155787 | 2017-02-10 14:45:20.166902+01

 2017-02-10 15:29:44.866687+01 | 1486736984.86669 |                 0 |               9 |                  5995 |                  452 |             830345 |       1253560 |            12473 |        12711000 |                     0 |      12158616 | 2017-02-10 14:45:20.166902+01

 2017-02-10 15:29:45.91911+01 | 1486736985.91911 |                 0 |               9 |                  5995 |                  452 |             830345 |       1254060 |            12478 |        12711000 |                     0 |      12161464 | 2017-02-10 14:45:20.166902+01

 2017-02-10 15:29:46.985804+01 | 1486736986.9858 |                 0 |               9 |                  5995 |                  452 |             830345 |       1254560 |            12483 |        12711000 |                     0 |      12164424 | 2017-02-10 14:45:20.166902+01

 2017-02-10 15:29:48.038238+01 | 1486736988.03824 |                 0 |               9 |                  5995 |                  452 |             830345 |       1255160 |            12489 |        12711000 |                     0 |      12167797 | 2017-02-10 14:45:20.166902+01

 2017-02-10 15:29:49.09291+01 | 1486736989.09291 |                 0 |               9 |                  5995 |                  452 |             830345 |       1255660 |            12494 |        12711000 |                     0 |      12170738 | 2017-02-10 14:45:20.166902+01

 2017-02-10 15:29:50.143293+01 | 1486736990.14329 |                 0 |               9 |                  5995 |                  452 |             830345 |       1256160 |            12499 |        12768736 |                     0 |      12173447 | 2017-02-10 14:45:20.166902+01

 2017-02-10 15:29:51.195214+01 | 1486736991.19521 |                 0 |               9 |                  5995 |                  452 |             830345 |       1256660 |            12504 |        12768736 |                     0 |      12176289 | 2017-02-10 14:45:20.166902+01

 2017-02-10 15:29:52.249251+01 | 1486736992.24925 |                 0 |               9 |                  5995 |                  452 |             830345 |       1257260 |            12510 |        12768736 |                     0 |      12179628 | 2017-02-10 14:45:20.166902+01

 2017-02-10 15:29:53.301564+01 | 1486736993.30156 |                 0 |               9 |                  5995 |                  452 |             830345 |       1257760 |            12515 |        12768736 |                     0 |      12182545 | 2017-02-10 14:45:20.166902+01

 2017-02-10 15:29:54.352515+01 | 1486736994.35251 |                 0 |               9 |                  5995 |                  452 |             830345 |       1258260 |            12520 |        12768736 |                     0 |      12185338 | 2017-02-10 14:45:20.166902+01

 2017-02-10 15:29:55.401689+01 | 1486736995.40169 |                 0 |               9 |                  5995 |                  452 |             830345 |       1258760 |            12525 |        12768736 |                     0 |      12188224 | 2017-02-10 14:45:20.166902+01

 2017-02-10 15:29:56.455678+01 | 1486736996.45568 |                 0 |               9 |                  5995 |                  452 |             830345 |       1259360 |            12531 |        12768736 |                     0 |      12191576 | 2017-02-10 14:45:20.166902+01

 2017-02-10 15:29:57.507672+01 | 1486736997.50767 |                 0 |               9 |                  5995 |                  452 |             830345 |       1259860 |            12536 |        12768736 |                     0 |      12194570 | 2017-02-10 14:45:20.166902+01

 2017-02-10 15:29:58.559657+01 | 1486736998.55966 |                 0 |               9 |                  5995 |                  452 |             830345 |       1260360 |            12541 |        12768736 |                     0 |      12197421 | 2017-02-10 14:45:20.166902+01

 2017-02-10 15:29:59.614152+01 | 1486736999.61415 |                 0 |               9 |                  5995 |                  452 |             830345 |       1260860 |            12546 |        12768736 |                     0 |      12200064 | 2017-02-10 14:45:20.166902+01

 2017-02-10 15:30:00.66585+01 | 1486737000.66585 |                 0 |               9 |                  5995 |                  452 |             830345 |       1261460 |            12552 |        12768736 |                     0 |      12203538 | 2017-02-10 14:45:20.166902+01

 2017-02-10 15:30:01.715136+01 | 1486737001.71514 |                 0 |               9 |                  5995 |                  452 |             830345 |       1261960 |            12557 |        12768736 |                     0 |      12206175 | 2017-02-10 14:45:20.166902+01

 2017-02-10 15:30:02.766322+01 | 1486737002.76632 |                 0 |               9 |                  5995 |                  452 |             830345 |       1262460 |            12562 |        12768736 |                     0 |      12208904 | 2017-02-10 14:45:20.166902+01

 2017-02-10 15:30:03.8189+01 | 1486737003.8189 |                 0 |               9 |                  5995 |                  452 |             830345 |       1262960 |            12567 |        12768736 |                     0 |      12211732 | 2017-02-10 14:45:20.166902+01

 2017-02-10 15:30:04.870186+01 | 1486737004.87019 |                 0 |               9 |                  5995 |                  452 |             830345 |       1263460 |            12572 |        12768736 |                     0 |      12214631 | 2017-02-10 14:45:20.166902+01

 2017-02-10 15:30:05.921195+01 | 1486737005.9212 |                 0 |               9 |                  5995 |                  452 |             830345 |       1264060 |            12578 |        12826273 |                     0 |      12217807 | 2017-02-10 14:45:20.166902+01

 2017-02-10 15:30:06.970053+01 | 1486737006.97005 |                 0 |               9 |                  5995 |                  452 |             830345 |       1264560 |            12583 |        12826273 |                     0 |      12220641 | 2017-02-10 14:45:20.166902+01

 2017-02-10 15:30:08.022177+01 | 1486737008.02218 |                 0 |               9 |                  5995 |                  452 |             830345 |       1265060 |            12588 |        12826273 |                     0 |      12223483 | 2017-02-10 14:45:20.166902+01

 2017-02-10 15:30:09.075315+01 | 1486737009.07531 |                 0 |               9 |                  5995 |                  452 |             830345 |       1265560 |            12593 |        12826273 |                     0 |      12226293 | 2017-02-10 14:45:20.166902+01

 2017-02-10 15:30:10.126755+01 | 1486737010.12675 |                 0 |               9 |                  5995 |                  452 |             830345 |       1266160 |            12599 |        12826273 |                     0 |      12229622 | 2017-02-10 14:45:20.166902+01

 2017-02-10 15:30:11.185363+01 | 1486737011.18536 |                 0 |               9 |                  5995 |                  452 |             830345 |       1266660 |            12604 |        12826273 |                     0 |      12232509 | 2017-02-10 14:45:20.166902+01

 2017-02-10 15:30:12.237527+01 | 1486737012.23753 |                 0 |               9 |                  5995 |                  452 |             830345 |       1267160 |            12609 |        12826273 |                     0 |      12235322 | 2017-02-10 14:45:20.166902+01

 2017-02-10 15:30:13.289231+01 | 1486737013.28923 |                 0 |               9 |                  5995 |                  452 |             830345 |       1267660 |            12614 |        12826273 |                     0 |      12238078 | 2017-02-10 14:45:20.166902+01

 2017-02-10 15:30:14.339731+01 | 1486737014.33973 |                 0 |               9 |                  5995 |                  452 |             830345 |       1268160 |            12619 |        12826273 |                     0 |      12240995 | 2017-02-10 14:45:20.166902+01

 2017-02-10 15:30:15.38867+01 | 1486737015.38867 |                 0 |               9 |                  5995 |                  452 |             830345 |       1268760 |            12625 |        12826273 |                     0 |      12244394 | 2017-02-10 14:45:20.166902+01

 2017-02-10 15:30:16.439626+01 | 1486737016.43963 |                 0 |               9 |                  5995 |                  452 |             830345 |       1269260 |            12630 |        12826273 |                     0 |      12247252 | 2017-02-10 14:45:20.166902+01

 2017-02-10 15:30:17.493327+01 | 1486737017.49333 |                 0 |               9 |                  5995 |                  452 |             830345 |       1269760 |            12635 |        12826273 |                     0 |      12250025 | 2017-02-10 14:45:20.166902+01

 2017-02-10 15:30:18.545509+01 | 1486737018.54551 |                 0 |               9 |                  5995 |                  452 |             830345 |       1270260 |            12640 |        12826273 |                     0 |      12253009 | 2017-02-10 14:45:20.166902+01

 2017-02-10 15:30:19.601799+01 | 1486737019.6018 |                 0 |               9 |                  5995 |                  452 |             830345 |       1270860 |            12646 |        12826273 |                     0 |      12256329 | 2017-02-10 14:45:20.166902+01

 2017-02-10 15:30:20.654687+01 | 1486737020.65469 |                 0 |               9 |                  5995 |                  452 |             830345 |       1271360 |            12651 |        12826273 |                     0 |      12259264 | 2017-02-10 14:45:20.166902+01

 2017-02-10 15:30:21.708092+01 | 1486737021.70809 |                 0 |               9 |                  5995 |                  452 |             830345 |       1271860 |            12656 |        12884010 |                     0 |      12262074 | 2017-02-10 14:45:20.166902+01

 2017-02-10 15:30:22.758511+01 | 1486737022.75851 |                 0 |               9 |                  5995 |                  452 |             830345 |       1272360 |            12661 |        12884010 |                     0 |      12265034 | 2017-02-10 14:45:20.166902+01

 2017-02-10 15:30:23.809711+01 | 1486737023.80971 |                 0 |               9 |                  5995 |                  452 |             830345 |       1272960 |            12667 |        12884010 |                     0 |      12268442 | 2017-02-10 14:45:20.166902+01

 2017-02-10 15:30:24.861978+01 | 1486737024.86198 |                 0 |               9 |                  5995 |                  452 |             830345 |       1273460 |            12672 |        12884010 |                     0 |      12271534 | 2017-02-10 14:45:20.166902+01

 2017-02-10 15:30:25.91636+01 | 1486737025.91636 |                 0 |               9 |                  5995 |                  452 |             830345 |       1273960 |            12677 |        12884010 |                     0 |      12274283 | 2017-02-10 14:45:20.166902+01

 2017-02-10 15:30:26.970155+01 | 1486737026.97016 |                 0 |               9 |                  5995 |                  452 |             830345 |       1274460 |            12682 |        12884010 |                     0 |      12277182 | 2017-02-10 14:45:20.166902+01

 2017-02-10 15:30:28.02487+01 | 1486737028.02487 |                 0 |               9 |                  5995 |                  452 |             830345 |       1275060 |            12688 |        12884010 |                     0 |      12280630 | 2017-02-10 14:45:20.166902+01

 2017-02-10 15:30:29.076617+01 | 1486737029.07662 |                 0 |               9 |                  5995 |                  452 |             830345 |       1275560 |            12693 |        12884010 |                     0 |      12283582 | 2017-02-10 14:45:20.166902+01

 2017-02-10 15:30:30.126213+01 | 1486737030.12621 |                 0 |               9 |                  5995 |                  452 |             830345 |       1276060 |            12698 |        12884010 |                     0 |      12286193 | 2017-02-10 14:45:20.166902+01

 2017-02-10 15:30:31.177205+01 | 1486737031.17721 |                 0 |               9 |                  5995 |                  452 |             830345 |       1276560 |            12703 |        12884010 |                     0 |      12289119 | 2017-02-10 14:45:20.166902+01

 2017-02-10 15:30:32.226957+01 | 1486737032.22696 |                 0 |               9 |                  5995 |                  452 |             830345 |       1277060 |            12708 |        12884010 |                     0 |      12292066 | 2017-02-10 14:45:20.166902+01

 2017-02-10 15:30:33.276347+01 | 1486737033.27635 |                 0 |               9 |                  5995 |                  452 |             830345 |       1277660 |            12714 |        12884010 |                     0 |      12295283 | 2017-02-10 14:45:20.166902+01

 2017-02-10 15:30:34.328469+01 | 1486737034.32847 |                 0 |               9 |                  5995 |                  452 |             830345 |       1278160 |            12719 |        12884010 |                     0 |      12298151 | 2017-02-10 14:45:20.166902+01

 2017-02-10 15:30:35.38237+01 | 1486737035.38237 |                 0 |               9 |                  5995 |                  452 |             830345 |       1278660 |            12724 |        12884010 |                     0 |      12300952 | 2017-02-10 14:45:20.166902+01

 2017-02-10 15:30:36.434252+01 | 1486737036.43425 |                 0 |               9 |                  5995 |                  452 |             830345 |       1279160 |            12729 |        12884010 |                     0 |      12303806 | 2017-02-10 14:45:20.166902+01

 2017-02-10 15:30:37.48627+01 | 1486737037.48627 |                 0 |               9 |                  5995 |                  452 |             830345 |       1279760 |            12735 |        12884010 |                     0 |      12307039 | 2017-02-10 14:45:20.166902+01

 2017-02-10 15:30:38.540015+01 | 1486737038.54001 |                 0 |               9 |                  5995 |                  452 |             830345 |       1280260 |            12740 |        12941371 |                     0 |      12309996 | 2017-02-10 14:45:20.166902+01

 2017-02-10 15:30:39.592892+01 | 1486737039.59289 |                 0 |               9 |                  5995 |                  452 |             830345 |       1280760 |            12745 |        12941371 |                     0 |      12312937 | 2017-02-10 14:45:20.166902+01

 2017-02-10 15:30:40.645489+01 | 1486737040.64549 |                 0 |               9 |                  5995 |                  452 |             830345 |       1281260 |            12750 |        12941371 |                     0 |      12315692 | 2017-02-10 14:45:20.166902+01

 2017-02-10 15:30:41.698232+01 | 1486737041.69823 |                 0 |               9 |                  5995 |                  452 |             830345 |       1281860 |            12756 |        12941371 |                     0 |      12319042 | 2017-02-10 14:45:20.166902+01

 2017-02-10 15:30:42.752206+01 | 1486737042.75221 |                 0 |               9 |                  5995 |                  452 |             830345 |       1282360 |            12761 |        12941371 |                     0 |      12321924 | 2017-02-10 14:45:20.166902+01

 2017-02-10 15:30:43.807522+01 | 1486737043.80752 |                 0 |               9 |                  5995 |                  452 |             830345 |       1282860 |            12766 |        12941371 |                     0 |      12324663 | 2017-02-10 14:45:20.166902+01

 2017-02-10 15:30:44.861411+01 | 1486737044.86141 |                 0 |               9 |                  5995 |                  452 |             830345 |       1283360 |            12771 |        12941371 |                     0 |      12327436 | 2017-02-10 14:45:20.166902+01

 2017-02-10 15:30:45.916229+01 | 1486737045.91623 |                 0 |               9 |                  5995 |                  452 |             830345 |       1283960 |            12777 |        12941371 |                     0 |      12330898 | 2017-02-10 14:45:20.166902+01

 2017-02-10 15:30:46.966888+01 | 1486737046.96689 |                 0 |               9 |                  5995 |                  452 |             830345 |       1284460 |            12782 |        12941371 |                     0 |      12333763 | 2017-02-10 14:45:20.166902+01

 2017-02-10 15:30:48.018657+01 | 1486737048.01866 |                 0 |               9 |                  5995 |                  452 |             830345 |       1284960 |            12787 |        12941371 |                     0 |      12336558 | 2017-02-10 14:45:20.166902+01

 2017-02-10 15:30:49.071733+01 | 1486737049.07173 |                 0 |               9 |                  5995 |                  452 |             830345 |       1285460 |            12792 |        12941371 |                     0 |      12339470 | 2017-02-10 14:45:20.166902+01

 2017-02-10 15:30:50.125028+01 | 1486737050.12503 |                 0 |               9 |                  5995 |                  452 |             830345 |       1286060 |            12798 |        12941371 |                     0 |      12343040 | 2017-02-10 14:45:20.166902+01

 2017-02-10 15:30:51.178957+01 | 1486737051.17896 |                 0 |               9 |                  5995 |                  452 |             830345 |       1286560 |            12803 |        12941371 |                     0 |      12345944 | 2017-02-10 14:45:20.166902+01

 2017-02-10 15:30:52.230406+01 | 1486737052.23041 |                 0 |               9 |                  5995 |                  452 |             830345 |       1287060 |            12808 |        12941371 |                     0 |      12348680 | 2017-02-10 14:45:20.166902+01

 2017-02-10 15:30:53.282684+01 | 1486737053.28268 |                 0 |               9 |                  5995 |                  452 |             830345 |       1287560 |            12813 |        12941371 |                     0 |      12351587 | 2017-02-10 14:45:20.166902+01

 2017-02-10 15:30:54.335051+01 | 1486737054.33505 |                 0 |               9 |                  5995 |                  452 |             830345 |       1288060 |            12818 |        12941371 |                     0 |      12354508 | 2017-02-10 14:45:20.166902+01

 2017-02-10 15:30:55.38551+01 | 1486737055.38551 |                 0 |               9 |                  5995 |                  452 |             830345 |       1288660 |            12824 |        12941371 |                     0 |      12357707 | 2017-02-10 14:45:20.166902+01

 2017-02-10 15:30:56.439823+01 | 1486737056.43982 |                 0 |               9 |                  5995 |                  452 |             830345 |       1289160 |            12829 |        12941371 |                     0 |      12360699 | 2017-02-10 14:45:20.166902+01

 2017-02-10 15:30:57.490081+01 | 1486737057.49008 |                 0 |               9 |                  5995 |                  452 |             830345 |       1289660 |            12834 |        12997286 |                     0 |      12363507 | 2017-02-10 14:45:20.166902+01

 2017-02-10 15:30:58.544031+01 | 1486737058.54403 |                 0 |               9 |                  5995 |                  452 |             830345 |       1290160 |            12839 |        12997286 |                     0 |      12366320 | 2017-02-10 14:45:20.166902+01

 2017-02-10 15:30:59.596114+01 | 1486737059.59611 |                 0 |               9 |                  5995 |                  452 |             830345 |       1290760 |            12845 |        12997286 |                     0 |      12369774 | 2017-02-10 14:45:20.166902+01

 2017-02-10 15:31:00.650301+01 | 1486737060.6503 |                 0 |               9 |                  5995 |                  452 |             830345 |       1291260 |            12850 |        12997286 |                     0 |      12372501 | 2017-02-10 14:45:20.166902+01

 2017-02-10 15:31:01.702549+01 | 1486737061.70255 |                 0 |               9 |                  5995 |                  452 |             830345 |       1291760 |            12855 |        12997286 |                     0 |      12375382 | 2017-02-10 14:45:20.166902+01

 2017-02-10 15:31:02.75819+01 | 1486737062.75819 |                 0 |               9 |                  5995 |                  452 |             830345 |       1292260 |            12860 |        12997286 |                     0 |      12378415 | 2017-02-10 14:45:20.166902+01

 2017-02-10 15:31:03.810076+01 | 1486737063.81008 |                 0 |               9 |                  5995 |                  452 |             830345 |       1292860 |            12866 |        12997286 |                     0 |      12381680 | 2017-02-10 14:45:20.166902+01

 2017-02-10 15:31:04.860222+01 | 1486737064.86022 |                 0 |               9 |                  5995 |                  452 |             830345 |       1293360 |            12871 |        12997286 |                     0 |      12384658 | 2017-02-10 14:45:20.166902+01

 2017-02-10 15:31:05.914529+01 | 1486737065.91453 |                 0 |               9 |                  5995 |                  452 |             830345 |       1293860 |            12876 |        12997286 |                     0 |      12387481 | 2017-02-10 14:45:20.166902+01

 2017-02-10 15:31:06.969889+01 | 1486737066.96989 |                 0 |               9 |                  5995 |                  452 |             830345 |       1294360 |            12881 |        12997286 |                     0 |      12390280 | 2017-02-10 14:45:20.166902+01

 2017-02-10 15:31:08.021446+01 | 1486737068.02145 |                 0 |               9 |                  5995 |                  452 |             830345 |       1294960 |            12887 |        12997286 |                     0 |      12393791 | 2017-02-10 14:45:20.166902+01

 2017-02-10 15:31:09.071773+01 | 1486737069.07177 |                 0 |               9 |                  5995 |                  452 |             830345 |       1295460 |            12892 |        12997286 |                     0 |      12396663 | 2017-02-10 14:45:20.166902+01

 2017-02-10 15:31:10.123921+01 | 1486737070.12392 |                 0 |               9 |                  5995 |                  452 |             830345 |       1295960 |            12897 |        12997286 |                     0 |      12399422 | 2017-02-10 14:45:20.166902+01

 2017-02-10 15:31:11.178164+01 | 1486737071.17816 |                 0 |               9 |                  5995 |                  452 |             830345 |       1296460 |            12902 |        12997286 |                     0 |      12402414 | 2017-02-10 14:45:20.166902+01

 2017-02-10 15:31:12.228398+01 | 1486737072.2284 |                 0 |               9 |                  5995 |                  452 |             830345 |       1297060 |            12908 |        12997286 |                     0 |      12405963 | 2017-02-10 14:45:20.166902+01

 2017-02-10 15:31:13.279743+01 | 1486737073.27974 |                 0 |               9 |                  5995 |                  452 |             830345 |       1297560 |            12913 |        12997286 |                     0 |      12408781 | 2017-02-10 14:45:20.166902+01

 2017-02-10 15:31:14.333284+01 | 1486737074.33328 |                 0 |               9 |                  5995 |                  452 |             830345 |       1298060 |            12918 |        12997286 |                     0 |      12411660 | 2017-02-10 14:45:20.166902+01

 2017-02-10 15:31:15.388874+01 | 1486737075.38887 |                 0 |               9 |                  5995 |                  452 |             830345 |       1298560 |            12923 |        12997286 |                     0 |      12414568 | 2017-02-10 14:45:20.166902+01

 2017-02-10 15:31:16.441658+01 | 1486737076.44166 |                 0 |               9 |                  5995 |                  452 |             830345 |       1299060 |            12928 |        12997286 |                     0 |      12417614 | 2017-02-10 14:45:20.166902+01

 2017-02-10 15:31:17.494483+01 | 1486737077.49448 |                 0 |               9 |                  5995 |                  452 |             830345 |       1299660 |            12934 |        12997286 |                     0 |      12421030 | 2017-02-10 14:45:20.166902+01

 2017-02-10 15:31:18.546568+01 | 1486737078.54657 |                 0 |               9 |                  5995 |                  452 |             830345 |       1300160 |            12939 |        13052222 |                     0 |      12423985 | 2017-02-10 14:45:20.166902+01

 2017-02-10 15:31:19.599311+01 | 1486737079.59931 |                 0 |               9 |                  5995 |                  452 |             830345 |       1300660 |            12944 |        13052222 |                     0 |      12426921 | 2017-02-10 14:45:20.166902+01

 2017-02-10 15:31:20.650438+01 | 1486737080.65044 |                 0 |               9 |                  5995 |                  452 |             830345 |       1301160 |            12949 |        13052222 |                     0 |      12429758 | 2017-02-10 14:45:20.166902+01

 2017-02-10 15:31:21.702785+01 | 1486737081.70279 |                 0 |               9 |                  5995 |                  452 |             830345 |       1301760 |            12955 |        13052222 |                     0 |      12433307 | 2017-02-10 14:45:20.166902+01

