 2017-02-09 02:23:35.701156+01 | 1486603415.70116 | pgbench_accounts |       4028858368
 2017-02-09 02:23:35.701156+01 | 1486603415.70116 | pgbench_tellers  |           139264
 2017-02-09 02:23:35.701156+01 | 1486603415.70116 | pgbench_history  |                0
 2017-02-09 02:23:35.701156+01 | 1486603415.70116 | pgbench_branches |            16384

 2017-02-09 02:23:37.107257+01 | 1486603417.10726 | pgbench_accounts |       4028858368
 2017-02-09 02:23:37.107257+01 | 1486603417.10726 | pgbench_tellers  |           139264
 2017-02-09 02:23:37.107257+01 | 1486603417.10726 | pgbench_history  |                0
 2017-02-09 02:23:37.107257+01 | 1486603417.10726 | pgbench_branches |            16384

 2017-02-09 02:23:38.527675+01 | 1486603418.52767 | pgbench_accounts |       4028858368
 2017-02-09 02:23:38.527675+01 | 1486603418.52767 | pgbench_tellers  |           139264
 2017-02-09 02:23:38.527675+01 | 1486603418.52767 | pgbench_history  |                0
 2017-02-09 02:23:38.527675+01 | 1486603418.52767 | pgbench_branches |            16384

 2017-02-09 02:23:39.918543+01 | 1486603419.91854 | pgbench_accounts |       4028858368
 2017-02-09 02:23:39.918543+01 | 1486603419.91854 | pgbench_tellers  |           139264
 2017-02-09 02:23:39.918543+01 | 1486603419.91854 | pgbench_history  |                0
 2017-02-09 02:23:39.918543+01 | 1486603419.91854 | pgbench_branches |            16384

 2017-02-09 02:23:41.323031+01 | 1486603421.32303 | pgbench_accounts |       4028858368
 2017-02-09 02:23:41.323031+01 | 1486603421.32303 | pgbench_tellers  |           139264
 2017-02-09 02:23:41.323031+01 | 1486603421.32303 | pgbench_history  |                0
 2017-02-09 02:23:41.323031+01 | 1486603421.32303 | pgbench_branches |            16384

 2017-02-09 02:23:42.699696+01 | 1486603422.6997 | pgbench_accounts |       4028858368
 2017-02-09 02:23:42.699696+01 | 1486603422.6997 | pgbench_tellers  |           139264
 2017-02-09 02:23:42.699696+01 | 1486603422.6997 | pgbench_history  |                0
 2017-02-09 02:23:42.699696+01 | 1486603422.6997 | pgbench_branches |            16384

 2017-02-09 02:23:43.981134+01 | 1486603423.98113 | pgbench_accounts |       4028858368
 2017-02-09 02:23:43.981134+01 | 1486603423.98113 | pgbench_tellers  |           139264
 2017-02-09 02:23:43.981134+01 | 1486603423.98113 | pgbench_history  |                0
 2017-02-09 02:23:43.981134+01 | 1486603423.98113 | pgbench_branches |            16384

 2017-02-09 02:23:45.303177+01 | 1486603425.30318 | pgbench_accounts |       4028858368
 2017-02-09 02:23:45.303177+01 | 1486603425.30318 | pgbench_tellers  |           139264
 2017-02-09 02:23:45.303177+01 | 1486603425.30318 | pgbench_history  |                0
 2017-02-09 02:23:45.303177+01 | 1486603425.30318 | pgbench_branches |            16384

 2017-02-09 02:23:46.662518+01 | 1486603426.66252 | pgbench_accounts |       4028858368
 2017-02-09 02:23:46.662518+01 | 1486603426.66252 | pgbench_tellers  |           139264
 2017-02-09 02:23:46.662518+01 | 1486603426.66252 | pgbench_history  |                0
 2017-02-09 02:23:46.662518+01 | 1486603426.66252 | pgbench_branches |            16384

 2017-02-09 02:23:48.03648+01 | 1486603428.03648 | pgbench_accounts |       4028858368
 2017-02-09 02:23:48.03648+01 | 1486603428.03648 | pgbench_tellers  |           139264
 2017-02-09 02:23:48.03648+01 | 1486603428.03648 | pgbench_history  |                0
 2017-02-09 02:23:48.03648+01 | 1486603428.03648 | pgbench_branches |            16384

 2017-02-09 02:23:49.394518+01 | 1486603429.39452 | pgbench_accounts |       4028858368
 2017-02-09 02:23:49.394518+01 | 1486603429.39452 | pgbench_tellers  |           139264
 2017-02-09 02:23:49.394518+01 | 1486603429.39452 | pgbench_history  |                0
 2017-02-09 02:23:49.394518+01 | 1486603429.39452 | pgbench_branches |            16384

 2017-02-09 02:23:50.806488+01 | 1486603430.80649 | pgbench_accounts |       4028858368
 2017-02-09 02:23:50.806488+01 | 1486603430.80649 | pgbench_tellers  |           139264
 2017-02-09 02:23:50.806488+01 | 1486603430.80649 | pgbench_history  |                0
 2017-02-09 02:23:50.806488+01 | 1486603430.80649 | pgbench_branches |            16384

 2017-02-09 02:23:52.154733+01 | 1486603432.15473 | pgbench_accounts |       4028858368
 2017-02-09 02:23:52.154733+01 | 1486603432.15473 | pgbench_tellers  |           139264
 2017-02-09 02:23:52.154733+01 | 1486603432.15473 | pgbench_history  |                0
 2017-02-09 02:23:52.154733+01 | 1486603432.15473 | pgbench_branches |            16384

 2017-02-09 02:23:53.515035+01 | 1486603433.51503 | pgbench_accounts |       4028858368
 2017-02-09 02:23:53.515035+01 | 1486603433.51503 | pgbench_tellers  |           139264
 2017-02-09 02:23:53.515035+01 | 1486603433.51503 | pgbench_history  |                0
 2017-02-09 02:23:53.515035+01 | 1486603433.51503 | pgbench_branches |            16384

 2017-02-09 02:23:54.840163+01 | 1486603434.84016 | pgbench_accounts |       4028858368
 2017-02-09 02:23:54.840163+01 | 1486603434.84016 | pgbench_tellers  |           139264
 2017-02-09 02:23:54.840163+01 | 1486603434.84016 | pgbench_history  |                0
 2017-02-09 02:23:54.840163+01 | 1486603434.84016 | pgbench_branches |            16384

 2017-02-09 02:23:56.152911+01 | 1486603436.15291 | pgbench_accounts |       4028858368
 2017-02-09 02:23:56.152911+01 | 1486603436.15291 | pgbench_tellers  |           139264
 2017-02-09 02:23:56.152911+01 | 1486603436.15291 | pgbench_history  |                0
 2017-02-09 02:23:56.152911+01 | 1486603436.15291 | pgbench_branches |            16384

 2017-02-09 02:23:57.575014+01 | 1486603437.57501 | pgbench_accounts |       4028858368
 2017-02-09 02:23:57.575014+01 | 1486603437.57501 | pgbench_tellers  |           139264
 2017-02-09 02:23:57.575014+01 | 1486603437.57501 | pgbench_history  |                0
 2017-02-09 02:23:57.575014+01 | 1486603437.57501 | pgbench_branches |            16384

 2017-02-09 02:23:59.013496+01 | 1486603439.0135 | pgbench_accounts |       4028858368
 2017-02-09 02:23:59.013496+01 | 1486603439.0135 | pgbench_tellers  |           139264
 2017-02-09 02:23:59.013496+01 | 1486603439.0135 | pgbench_history  |                0
 2017-02-09 02:23:59.013496+01 | 1486603439.0135 | pgbench_branches |            16384

 2017-02-09 02:24:00.361953+01 | 1486603440.36195 | pgbench_accounts |       4028858368
 2017-02-09 02:24:00.361953+01 | 1486603440.36195 | pgbench_tellers  |           139264
 2017-02-09 02:24:00.361953+01 | 1486603440.36195 | pgbench_history  |                0
 2017-02-09 02:24:00.361953+01 | 1486603440.36195 | pgbench_branches |            16384

 2017-02-09 02:24:01.721176+01 | 1486603441.72118 | pgbench_accounts |       4028858368
 2017-02-09 02:24:01.721176+01 | 1486603441.72118 | pgbench_tellers  |           139264
 2017-02-09 02:24:01.721176+01 | 1486603441.72118 | pgbench_history  |                0
 2017-02-09 02:24:01.721176+01 | 1486603441.72118 | pgbench_branches |            16384

 2017-02-09 02:24:03.060881+01 | 1486603443.06088 | pgbench_accounts |       4028858368
 2017-02-09 02:24:03.060881+01 | 1486603443.06088 | pgbench_tellers  |           139264
 2017-02-09 02:24:03.060881+01 | 1486603443.06088 | pgbench_history  |                0
 2017-02-09 02:24:03.060881+01 | 1486603443.06088 | pgbench_branches |            16384

 2017-02-09 02:24:04.479219+01 | 1486603444.47922 | pgbench_accounts |       4028858368
 2017-02-09 02:24:04.479219+01 | 1486603444.47922 | pgbench_tellers  |           139264
 2017-02-09 02:24:04.479219+01 | 1486603444.47922 | pgbench_history  |                0
 2017-02-09 02:24:04.479219+01 | 1486603444.47922 | pgbench_branches |            16384

 2017-02-09 02:24:05.888848+01 | 1486603445.88885 | pgbench_accounts |       4028858368
 2017-02-09 02:24:05.888848+01 | 1486603445.88885 | pgbench_tellers  |           139264
 2017-02-09 02:24:05.888848+01 | 1486603445.88885 | pgbench_history  |                0
 2017-02-09 02:24:05.888848+01 | 1486603445.88885 | pgbench_branches |            16384

 2017-02-09 02:24:07.248745+01 | 1486603447.24874 | pgbench_accounts |       4028858368
 2017-02-09 02:24:07.248745+01 | 1486603447.24874 | pgbench_tellers  |           139264
 2017-02-09 02:24:07.248745+01 | 1486603447.24874 | pgbench_history  |                0
 2017-02-09 02:24:07.248745+01 | 1486603447.24874 | pgbench_branches |            16384

 2017-02-09 02:24:08.665891+01 | 1486603448.66589 | pgbench_accounts |       4028858368
 2017-02-09 02:24:08.665891+01 | 1486603448.66589 | pgbench_tellers  |           139264
 2017-02-09 02:24:08.665891+01 | 1486603448.66589 | pgbench_history  |                0
 2017-02-09 02:24:08.665891+01 | 1486603448.66589 | pgbench_branches |            16384

 2017-02-09 02:24:10.073062+01 | 1486603450.07306 | pgbench_accounts |       4028858368
 2017-02-09 02:24:10.073062+01 | 1486603450.07306 | pgbench_tellers  |           139264
 2017-02-09 02:24:10.073062+01 | 1486603450.07306 | pgbench_history  |                0
 2017-02-09 02:24:10.073062+01 | 1486603450.07306 | pgbench_branches |            16384

 2017-02-09 02:24:11.505398+01 | 1486603451.5054 | pgbench_accounts |       4028858368
 2017-02-09 02:24:11.505398+01 | 1486603451.5054 | pgbench_tellers  |           139264
 2017-02-09 02:24:11.505398+01 | 1486603451.5054 | pgbench_history  |                0
 2017-02-09 02:24:11.505398+01 | 1486603451.5054 | pgbench_branches |            16384

 2017-02-09 02:24:12.900751+01 | 1486603452.90075 | pgbench_accounts |       4028858368
 2017-02-09 02:24:12.900751+01 | 1486603452.90075 | pgbench_tellers  |           139264
 2017-02-09 02:24:12.900751+01 | 1486603452.90075 | pgbench_history  |                0
 2017-02-09 02:24:12.900751+01 | 1486603452.90075 | pgbench_branches |            16384

 2017-02-09 02:24:14.232455+01 | 1486603454.23246 | pgbench_accounts |       4028858368
 2017-02-09 02:24:14.232455+01 | 1486603454.23246 | pgbench_tellers  |           139264
 2017-02-09 02:24:14.232455+01 | 1486603454.23246 | pgbench_history  |                0
 2017-02-09 02:24:14.232455+01 | 1486603454.23246 | pgbench_branches |            16384

 2017-02-09 02:24:15.614274+01 | 1486603455.61427 | pgbench_accounts |       4028858368
 2017-02-09 02:24:15.614274+01 | 1486603455.61427 | pgbench_tellers  |           139264
 2017-02-09 02:24:15.614274+01 | 1486603455.61427 | pgbench_history  |                0
 2017-02-09 02:24:15.614274+01 | 1486603455.61427 | pgbench_branches |            16384

 2017-02-09 02:24:16.903062+01 | 1486603456.90306 | pgbench_accounts |       4028858368
 2017-02-09 02:24:16.903062+01 | 1486603456.90306 | pgbench_tellers  |           139264
 2017-02-09 02:24:16.903062+01 | 1486603456.90306 | pgbench_history  |                0
 2017-02-09 02:24:16.903062+01 | 1486603456.90306 | pgbench_branches |            16384

 2017-02-09 02:24:18.291748+01 | 1486603458.29175 | pgbench_accounts |       4028858368
 2017-02-09 02:24:18.291748+01 | 1486603458.29175 | pgbench_tellers  |           139264
 2017-02-09 02:24:18.291748+01 | 1486603458.29175 | pgbench_history  |                0
 2017-02-09 02:24:18.291748+01 | 1486603458.29175 | pgbench_branches |            16384

 2017-02-09 02:24:19.648109+01 | 1486603459.64811 | pgbench_accounts |       4028858368
 2017-02-09 02:24:19.648109+01 | 1486603459.64811 | pgbench_tellers  |           139264
 2017-02-09 02:24:19.648109+01 | 1486603459.64811 | pgbench_history  |                0
 2017-02-09 02:24:19.648109+01 | 1486603459.64811 | pgbench_branches |            16384

 2017-02-09 02:24:20.948485+01 | 1486603460.94848 | pgbench_accounts |       4028858368
 2017-02-09 02:24:20.948485+01 | 1486603460.94848 | pgbench_tellers  |           139264
 2017-02-09 02:24:20.948485+01 | 1486603460.94848 | pgbench_history  |                0
 2017-02-09 02:24:20.948485+01 | 1486603460.94848 | pgbench_branches |            16384

 2017-02-09 02:24:22.312043+01 | 1486603462.31204 | pgbench_accounts |       4028858368
 2017-02-09 02:24:22.312043+01 | 1486603462.31204 | pgbench_tellers  |           139264
 2017-02-09 02:24:22.312043+01 | 1486603462.31204 | pgbench_history  |                0
 2017-02-09 02:24:22.312043+01 | 1486603462.31204 | pgbench_branches |            16384

 2017-02-09 02:24:23.6589+01 | 1486603463.6589 | pgbench_accounts |       4028858368
 2017-02-09 02:24:23.6589+01 | 1486603463.6589 | pgbench_tellers  |           139264
 2017-02-09 02:24:23.6589+01 | 1486603463.6589 | pgbench_history  |                0
 2017-02-09 02:24:23.6589+01 | 1486603463.6589 | pgbench_branches |            16384

 2017-02-09 02:24:25.101084+01 | 1486603465.10108 | pgbench_accounts |       4028858368
 2017-02-09 02:24:25.101084+01 | 1486603465.10108 | pgbench_tellers  |           139264
 2017-02-09 02:24:25.101084+01 | 1486603465.10108 | pgbench_history  |                0
 2017-02-09 02:24:25.101084+01 | 1486603465.10108 | pgbench_branches |            16384

 2017-02-09 02:24:26.488556+01 | 1486603466.48856 | pgbench_accounts |       4028858368
 2017-02-09 02:24:26.488556+01 | 1486603466.48856 | pgbench_tellers  |           139264
 2017-02-09 02:24:26.488556+01 | 1486603466.48856 | pgbench_history  |                0
 2017-02-09 02:24:26.488556+01 | 1486603466.48856 | pgbench_branches |            16384

 2017-02-09 02:24:27.781841+01 | 1486603467.78184 | pgbench_accounts |       4028858368
 2017-02-09 02:24:27.781841+01 | 1486603467.78184 | pgbench_tellers  |           139264
 2017-02-09 02:24:27.781841+01 | 1486603467.78184 | pgbench_history  |                0
 2017-02-09 02:24:27.781841+01 | 1486603467.78184 | pgbench_branches |            16384

 2017-02-09 02:24:29.101961+01 | 1486603469.10196 | pgbench_accounts |       4028858368
 2017-02-09 02:24:29.101961+01 | 1486603469.10196 | pgbench_tellers  |           139264
 2017-02-09 02:24:29.101961+01 | 1486603469.10196 | pgbench_history  |                0
 2017-02-09 02:24:29.101961+01 | 1486603469.10196 | pgbench_branches |            16384

 2017-02-09 02:24:30.463404+01 | 1486603470.4634 | pgbench_accounts |       4028858368
 2017-02-09 02:24:30.463404+01 | 1486603470.4634 | pgbench_tellers  |           139264
 2017-02-09 02:24:30.463404+01 | 1486603470.4634 | pgbench_history  |                0
 2017-02-09 02:24:30.463404+01 | 1486603470.4634 | pgbench_branches |            16384

 2017-02-09 02:24:31.860996+01 | 1486603471.861 | pgbench_accounts |       4028858368
 2017-02-09 02:24:31.860996+01 | 1486603471.861 | pgbench_tellers  |           139264
 2017-02-09 02:24:31.860996+01 | 1486603471.861 | pgbench_history  |                0
 2017-02-09 02:24:31.860996+01 | 1486603471.861 | pgbench_branches |            16384

 2017-02-09 02:24:33.198599+01 | 1486603473.1986 | pgbench_accounts |       4028858368
 2017-02-09 02:24:33.198599+01 | 1486603473.1986 | pgbench_tellers  |           139264
 2017-02-09 02:24:33.198599+01 | 1486603473.1986 | pgbench_history  |                0
 2017-02-09 02:24:33.198599+01 | 1486603473.1986 | pgbench_branches |            16384

 2017-02-09 02:24:34.558583+01 | 1486603474.55858 | pgbench_accounts |       4028858368
 2017-02-09 02:24:34.558583+01 | 1486603474.55858 | pgbench_tellers  |           139264
 2017-02-09 02:24:34.558583+01 | 1486603474.55858 | pgbench_history  |                0
 2017-02-09 02:24:34.558583+01 | 1486603474.55858 | pgbench_branches |            16384

 2017-02-09 02:24:35.892371+01 | 1486603475.89237 | pgbench_accounts |       4028858368
 2017-02-09 02:24:35.892371+01 | 1486603475.89237 | pgbench_tellers  |           139264
 2017-02-09 02:24:35.892371+01 | 1486603475.89237 | pgbench_history  |                0
 2017-02-09 02:24:35.892371+01 | 1486603475.89237 | pgbench_branches |            16384

 2017-02-09 02:24:37.269531+01 | 1486603477.26953 | pgbench_accounts |       4028858368
 2017-02-09 02:24:37.269531+01 | 1486603477.26953 | pgbench_tellers  |           139264
 2017-02-09 02:24:37.269531+01 | 1486603477.26953 | pgbench_history  |                0
 2017-02-09 02:24:37.269531+01 | 1486603477.26953 | pgbench_branches |            16384

 2017-02-09 02:24:38.56708+01 | 1486603478.56708 | pgbench_accounts |       4028858368
 2017-02-09 02:24:38.56708+01 | 1486603478.56708 | pgbench_tellers  |           139264
 2017-02-09 02:24:38.56708+01 | 1486603478.56708 | pgbench_history  |                0
 2017-02-09 02:24:38.56708+01 | 1486603478.56708 | pgbench_branches |            16384

 2017-02-09 02:24:39.900918+01 | 1486603479.90092 | pgbench_accounts |       4028858368
 2017-02-09 02:24:39.900918+01 | 1486603479.90092 | pgbench_tellers  |           139264
 2017-02-09 02:24:39.900918+01 | 1486603479.90092 | pgbench_history  |                0
 2017-02-09 02:24:39.900918+01 | 1486603479.90092 | pgbench_branches |            16384

 2017-02-09 02:24:41.224964+01 | 1486603481.22496 | pgbench_accounts |       4028858368
 2017-02-09 02:24:41.224964+01 | 1486603481.22496 | pgbench_tellers  |           139264
 2017-02-09 02:24:41.224964+01 | 1486603481.22496 | pgbench_history  |                0
 2017-02-09 02:24:41.224964+01 | 1486603481.22496 | pgbench_branches |            16384

 2017-02-09 02:24:42.579689+01 | 1486603482.57969 | pgbench_accounts |       4028858368
 2017-02-09 02:24:42.579689+01 | 1486603482.57969 | pgbench_tellers  |           139264
 2017-02-09 02:24:42.579689+01 | 1486603482.57969 | pgbench_history  |                0
 2017-02-09 02:24:42.579689+01 | 1486603482.57969 | pgbench_branches |            16384

 2017-02-09 02:24:43.945666+01 | 1486603483.94567 | pgbench_accounts |       4028858368
 2017-02-09 02:24:43.945666+01 | 1486603483.94567 | pgbench_tellers  |           139264
 2017-02-09 02:24:43.945666+01 | 1486603483.94567 | pgbench_history  |                0
 2017-02-09 02:24:43.945666+01 | 1486603483.94567 | pgbench_branches |            16384

 2017-02-09 02:24:45.283757+01 | 1486603485.28376 | pgbench_accounts |       4028858368
 2017-02-09 02:24:45.283757+01 | 1486603485.28376 | pgbench_tellers  |           139264
 2017-02-09 02:24:45.283757+01 | 1486603485.28376 | pgbench_history  |                0
 2017-02-09 02:24:45.283757+01 | 1486603485.28376 | pgbench_branches |            16384

 2017-02-09 02:24:46.635755+01 | 1486603486.63576 | pgbench_accounts |       4028858368
 2017-02-09 02:24:46.635755+01 | 1486603486.63576 | pgbench_tellers  |           139264
 2017-02-09 02:24:46.635755+01 | 1486603486.63576 | pgbench_history  |                0
 2017-02-09 02:24:46.635755+01 | 1486603486.63576 | pgbench_branches |            16384

 2017-02-09 02:24:47.990383+01 | 1486603487.99038 | pgbench_accounts |       4028858368
 2017-02-09 02:24:47.990383+01 | 1486603487.99038 | pgbench_tellers  |           139264
 2017-02-09 02:24:47.990383+01 | 1486603487.99038 | pgbench_history  |                0
 2017-02-09 02:24:47.990383+01 | 1486603487.99038 | pgbench_branches |            16384

 2017-02-09 02:24:49.34384+01 | 1486603489.34384 | pgbench_accounts |       4028858368
 2017-02-09 02:24:49.34384+01 | 1486603489.34384 | pgbench_tellers  |           139264
 2017-02-09 02:24:49.34384+01 | 1486603489.34384 | pgbench_history  |                0
 2017-02-09 02:24:49.34384+01 | 1486603489.34384 | pgbench_branches |            16384

 2017-02-09 02:24:50.751231+01 | 1486603490.75123 | pgbench_accounts |       4028858368
 2017-02-09 02:24:50.751231+01 | 1486603490.75123 | pgbench_tellers  |           139264
 2017-02-09 02:24:50.751231+01 | 1486603490.75123 | pgbench_history  |                0
 2017-02-09 02:24:50.751231+01 | 1486603490.75123 | pgbench_branches |            16384

 2017-02-09 02:24:52.103826+01 | 1486603492.10383 | pgbench_accounts |       4028858368
 2017-02-09 02:24:52.103826+01 | 1486603492.10383 | pgbench_tellers  |           139264
 2017-02-09 02:24:52.103826+01 | 1486603492.10383 | pgbench_history  |                0
 2017-02-09 02:24:52.103826+01 | 1486603492.10383 | pgbench_branches |            16384

 2017-02-09 02:24:53.422762+01 | 1486603493.42276 | pgbench_accounts |       4028858368
 2017-02-09 02:24:53.422762+01 | 1486603493.42276 | pgbench_tellers  |           139264
 2017-02-09 02:24:53.422762+01 | 1486603493.42276 | pgbench_history  |                0
 2017-02-09 02:24:53.422762+01 | 1486603493.42276 | pgbench_branches |            16384

 2017-02-09 02:24:54.781478+01 | 1486603494.78148 | pgbench_accounts |       4028858368
 2017-02-09 02:24:54.781478+01 | 1486603494.78148 | pgbench_tellers  |           139264
 2017-02-09 02:24:54.781478+01 | 1486603494.78148 | pgbench_history  |                0
 2017-02-09 02:24:54.781478+01 | 1486603494.78148 | pgbench_branches |            16384

 2017-02-09 02:24:56.226484+01 | 1486603496.22648 | pgbench_accounts |       4028858368
 2017-02-09 02:24:56.226484+01 | 1486603496.22648 | pgbench_tellers  |           139264
 2017-02-09 02:24:56.226484+01 | 1486603496.22648 | pgbench_history  |                0
 2017-02-09 02:24:56.226484+01 | 1486603496.22648 | pgbench_branches |            16384

 2017-02-09 02:24:57.52229+01 | 1486603497.52229 | pgbench_accounts |       4028858368
 2017-02-09 02:24:57.52229+01 | 1486603497.52229 | pgbench_tellers  |           139264
 2017-02-09 02:24:57.52229+01 | 1486603497.52229 | pgbench_history  |                0
 2017-02-09 02:24:57.52229+01 | 1486603497.52229 | pgbench_branches |            16384

 2017-02-09 02:24:58.921754+01 | 1486603498.92175 | pgbench_accounts |       4028858368
 2017-02-09 02:24:58.921754+01 | 1486603498.92175 | pgbench_tellers  |           139264
 2017-02-09 02:24:58.921754+01 | 1486603498.92175 | pgbench_history  |                0
 2017-02-09 02:24:58.921754+01 | 1486603498.92175 | pgbench_branches |            16384

 2017-02-09 02:25:00.278385+01 | 1486603500.27838 | pgbench_accounts |       4028858368
 2017-02-09 02:25:00.278385+01 | 1486603500.27838 | pgbench_tellers  |           139264
 2017-02-09 02:25:00.278385+01 | 1486603500.27838 | pgbench_history  |                0
 2017-02-09 02:25:00.278385+01 | 1486603500.27838 | pgbench_branches |            16384

 2017-02-09 02:25:01.651772+01 | 1486603501.65177 | pgbench_accounts |       4028858368
 2017-02-09 02:25:01.651772+01 | 1486603501.65177 | pgbench_tellers  |           139264
 2017-02-09 02:25:01.651772+01 | 1486603501.65177 | pgbench_history  |                0
 2017-02-09 02:25:01.651772+01 | 1486603501.65177 | pgbench_branches |            16384

 2017-02-09 02:25:02.997711+01 | 1486603502.99771 | pgbench_accounts |       4028858368
 2017-02-09 02:25:02.997711+01 | 1486603502.99771 | pgbench_tellers  |           139264
 2017-02-09 02:25:02.997711+01 | 1486603502.99771 | pgbench_history  |                0
 2017-02-09 02:25:02.997711+01 | 1486603502.99771 | pgbench_branches |            16384

 2017-02-09 02:25:04.367815+01 | 1486603504.36782 | pgbench_accounts |       4028858368
 2017-02-09 02:25:04.367815+01 | 1486603504.36782 | pgbench_tellers  |           139264
 2017-02-09 02:25:04.367815+01 | 1486603504.36782 | pgbench_history  |                0
 2017-02-09 02:25:04.367815+01 | 1486603504.36782 | pgbench_branches |            16384

 2017-02-09 02:25:05.75588+01 | 1486603505.75588 | pgbench_accounts |       4028858368
 2017-02-09 02:25:05.75588+01 | 1486603505.75588 | pgbench_tellers  |           139264
 2017-02-09 02:25:05.75588+01 | 1486603505.75588 | pgbench_history  |                0
 2017-02-09 02:25:05.75588+01 | 1486603505.75588 | pgbench_branches |            16384

 2017-02-09 02:25:07.101384+01 | 1486603507.10138 | pgbench_accounts |       4028858368
 2017-02-09 02:25:07.101384+01 | 1486603507.10138 | pgbench_tellers  |           139264
 2017-02-09 02:25:07.101384+01 | 1486603507.10138 | pgbench_history  |                0
 2017-02-09 02:25:07.101384+01 | 1486603507.10138 | pgbench_branches |            16384

 2017-02-09 02:25:08.525947+01 | 1486603508.52595 | pgbench_accounts |       4028858368
 2017-02-09 02:25:08.525947+01 | 1486603508.52595 | pgbench_tellers  |           139264
 2017-02-09 02:25:08.525947+01 | 1486603508.52595 | pgbench_history  |                0
 2017-02-09 02:25:08.525947+01 | 1486603508.52595 | pgbench_branches |            16384

 2017-02-09 02:25:10.013459+01 | 1486603510.01346 | pgbench_accounts |       4028858368
 2017-02-09 02:25:10.013459+01 | 1486603510.01346 | pgbench_tellers  |           139264
 2017-02-09 02:25:10.013459+01 | 1486603510.01346 | pgbench_history  |                0
 2017-02-09 02:25:10.013459+01 | 1486603510.01346 | pgbench_branches |            16384

 2017-02-09 02:25:11.425751+01 | 1486603511.42575 | pgbench_accounts |       4028858368
 2017-02-09 02:25:11.425751+01 | 1486603511.42575 | pgbench_tellers  |           139264
 2017-02-09 02:25:11.425751+01 | 1486603511.42575 | pgbench_history  |                0
 2017-02-09 02:25:11.425751+01 | 1486603511.42575 | pgbench_branches |            16384

 2017-02-09 02:25:12.797629+01 | 1486603512.79763 | pgbench_accounts |       4028858368
 2017-02-09 02:25:12.797629+01 | 1486603512.79763 | pgbench_tellers  |           139264
 2017-02-09 02:25:12.797629+01 | 1486603512.79763 | pgbench_history  |                0
 2017-02-09 02:25:12.797629+01 | 1486603512.79763 | pgbench_branches |            16384

 2017-02-09 02:25:14.158943+01 | 1486603514.15894 | pgbench_accounts |       4028858368
 2017-02-09 02:25:14.158943+01 | 1486603514.15894 | pgbench_tellers  |           139264
 2017-02-09 02:25:14.158943+01 | 1486603514.15894 | pgbench_history  |                0
 2017-02-09 02:25:14.158943+01 | 1486603514.15894 | pgbench_branches |            16384

 2017-02-09 02:25:15.457203+01 | 1486603515.4572 | pgbench_accounts |       4028858368
 2017-02-09 02:25:15.457203+01 | 1486603515.4572 | pgbench_tellers  |           139264
 2017-02-09 02:25:15.457203+01 | 1486603515.4572 | pgbench_history  |                0
 2017-02-09 02:25:15.457203+01 | 1486603515.4572 | pgbench_branches |            16384

 2017-02-09 02:25:16.771426+01 | 1486603516.77143 | pgbench_accounts |       4028858368
 2017-02-09 02:25:16.771426+01 | 1486603516.77143 | pgbench_tellers  |           139264
 2017-02-09 02:25:16.771426+01 | 1486603516.77143 | pgbench_history  |                0
 2017-02-09 02:25:16.771426+01 | 1486603516.77143 | pgbench_branches |            16384

 2017-02-09 02:25:18.102875+01 | 1486603518.10287 | pgbench_accounts |       4028858368
 2017-02-09 02:25:18.102875+01 | 1486603518.10287 | pgbench_tellers  |           139264
 2017-02-09 02:25:18.102875+01 | 1486603518.10287 | pgbench_history  |                0
 2017-02-09 02:25:18.102875+01 | 1486603518.10287 | pgbench_branches |            16384

 2017-02-09 02:25:19.443291+01 | 1486603519.44329 | pgbench_accounts |       4028858368
 2017-02-09 02:25:19.443291+01 | 1486603519.44329 | pgbench_tellers  |           139264
 2017-02-09 02:25:19.443291+01 | 1486603519.44329 | pgbench_history  |                0
 2017-02-09 02:25:19.443291+01 | 1486603519.44329 | pgbench_branches |            16384

 2017-02-09 02:25:20.762048+01 | 1486603520.76205 | pgbench_accounts |       4028858368
 2017-02-09 02:25:20.762048+01 | 1486603520.76205 | pgbench_tellers  |           139264
 2017-02-09 02:25:20.762048+01 | 1486603520.76205 | pgbench_history  |                0
 2017-02-09 02:25:20.762048+01 | 1486603520.76205 | pgbench_branches |            16384

 2017-02-09 02:25:22.110984+01 | 1486603522.11098 | pgbench_accounts |       4028858368
 2017-02-09 02:25:22.110984+01 | 1486603522.11098 | pgbench_tellers  |           139264
 2017-02-09 02:25:22.110984+01 | 1486603522.11098 | pgbench_history  |                0
 2017-02-09 02:25:22.110984+01 | 1486603522.11098 | pgbench_branches |            16384

 2017-02-09 02:25:23.479421+01 | 1486603523.47942 | pgbench_accounts |       4028858368
 2017-02-09 02:25:23.479421+01 | 1486603523.47942 | pgbench_tellers  |           139264
 2017-02-09 02:25:23.479421+01 | 1486603523.47942 | pgbench_history  |                0
 2017-02-09 02:25:23.479421+01 | 1486603523.47942 | pgbench_branches |            16384

 2017-02-09 02:25:24.856792+01 | 1486603524.85679 | pgbench_accounts |       4028858368
 2017-02-09 02:25:24.856792+01 | 1486603524.85679 | pgbench_tellers  |           139264
 2017-02-09 02:25:24.856792+01 | 1486603524.85679 | pgbench_history  |                0
 2017-02-09 02:25:24.856792+01 | 1486603524.85679 | pgbench_branches |            16384

 2017-02-09 02:25:26.25195+01 | 1486603526.25195 | pgbench_accounts |       4028858368
 2017-02-09 02:25:26.25195+01 | 1486603526.25195 | pgbench_tellers  |           139264
 2017-02-09 02:25:26.25195+01 | 1486603526.25195 | pgbench_history  |                0
 2017-02-09 02:25:26.25195+01 | 1486603526.25195 | pgbench_branches |            16384

 2017-02-09 02:25:27.657486+01 | 1486603527.65749 | pgbench_accounts |       4028858368
 2017-02-09 02:25:27.657486+01 | 1486603527.65749 | pgbench_tellers  |           139264
 2017-02-09 02:25:27.657486+01 | 1486603527.65749 | pgbench_history  |                0
 2017-02-09 02:25:27.657486+01 | 1486603527.65749 | pgbench_branches |            16384

 2017-02-09 02:25:29.045504+01 | 1486603529.0455 | pgbench_accounts |       4028858368
 2017-02-09 02:25:29.045504+01 | 1486603529.0455 | pgbench_tellers  |           139264
 2017-02-09 02:25:29.045504+01 | 1486603529.0455 | pgbench_history  |                0
 2017-02-09 02:25:29.045504+01 | 1486603529.0455 | pgbench_branches |            16384

 2017-02-09 02:25:30.367664+01 | 1486603530.36766 | pgbench_accounts |       4028858368
 2017-02-09 02:25:30.367664+01 | 1486603530.36766 | pgbench_tellers  |           139264
 2017-02-09 02:25:30.367664+01 | 1486603530.36766 | pgbench_history  |                0
 2017-02-09 02:25:30.367664+01 | 1486603530.36766 | pgbench_branches |            16384

 2017-02-09 02:25:31.738669+01 | 1486603531.73867 | pgbench_accounts |       4028858368
 2017-02-09 02:25:31.738669+01 | 1486603531.73867 | pgbench_tellers  |           139264
 2017-02-09 02:25:31.738669+01 | 1486603531.73867 | pgbench_history  |                0
 2017-02-09 02:25:31.738669+01 | 1486603531.73867 | pgbench_branches |            16384

 2017-02-09 02:25:33.120471+01 | 1486603533.12047 | pgbench_accounts |       4028858368
 2017-02-09 02:25:33.120471+01 | 1486603533.12047 | pgbench_tellers  |           139264
 2017-02-09 02:25:33.120471+01 | 1486603533.12047 | pgbench_history  |                0
 2017-02-09 02:25:33.120471+01 | 1486603533.12047 | pgbench_branches |            16384

 2017-02-09 02:25:34.389427+01 | 1486603534.38943 | pgbench_accounts |       4028858368
 2017-02-09 02:25:34.389427+01 | 1486603534.38943 | pgbench_tellers  |           139264
 2017-02-09 02:25:34.389427+01 | 1486603534.38943 | pgbench_history  |                0
 2017-02-09 02:25:34.389427+01 | 1486603534.38943 | pgbench_branches |            16384

 2017-02-09 02:25:35.749735+01 | 1486603535.74974 | pgbench_accounts |       4028858368
 2017-02-09 02:25:35.749735+01 | 1486603535.74974 | pgbench_tellers  |           139264
 2017-02-09 02:25:35.749735+01 | 1486603535.74974 | pgbench_history  |                0
 2017-02-09 02:25:35.749735+01 | 1486603535.74974 | pgbench_branches |            16384

 2017-02-09 02:25:37.043871+01 | 1486603537.04387 | pgbench_accounts |       4028858368
 2017-02-09 02:25:37.043871+01 | 1486603537.04387 | pgbench_tellers  |           139264
 2017-02-09 02:25:37.043871+01 | 1486603537.04387 | pgbench_history  |                0
 2017-02-09 02:25:37.043871+01 | 1486603537.04387 | pgbench_branches |            16384

 2017-02-09 02:25:38.407582+01 | 1486603538.40758 | pgbench_accounts |       4028858368
 2017-02-09 02:25:38.407582+01 | 1486603538.40758 | pgbench_tellers  |           139264
 2017-02-09 02:25:38.407582+01 | 1486603538.40758 | pgbench_history  |                0
 2017-02-09 02:25:38.407582+01 | 1486603538.40758 | pgbench_branches |            16384

 2017-02-09 02:25:39.794154+01 | 1486603539.79415 | pgbench_accounts |       4028858368
 2017-02-09 02:25:39.794154+01 | 1486603539.79415 | pgbench_tellers  |           139264
 2017-02-09 02:25:39.794154+01 | 1486603539.79415 | pgbench_history  |                0
 2017-02-09 02:25:39.794154+01 | 1486603539.79415 | pgbench_branches |            16384

 2017-02-09 02:25:41.182372+01 | 1486603541.18237 | pgbench_accounts |       4028858368
 2017-02-09 02:25:41.182372+01 | 1486603541.18237 | pgbench_tellers  |           139264
 2017-02-09 02:25:41.182372+01 | 1486603541.18237 | pgbench_history  |                0
 2017-02-09 02:25:41.182372+01 | 1486603541.18237 | pgbench_branches |            16384

 2017-02-09 02:25:42.534999+01 | 1486603542.535 | pgbench_accounts |       4028858368
 2017-02-09 02:25:42.534999+01 | 1486603542.535 | pgbench_tellers  |           139264
 2017-02-09 02:25:42.534999+01 | 1486603542.535 | pgbench_history  |                0
 2017-02-09 02:25:42.534999+01 | 1486603542.535 | pgbench_branches |            16384

 2017-02-09 02:25:43.940216+01 | 1486603543.94022 | pgbench_accounts |       4028858368
 2017-02-09 02:25:43.940216+01 | 1486603543.94022 | pgbench_tellers  |           139264
 2017-02-09 02:25:43.940216+01 | 1486603543.94022 | pgbench_history  |                0
 2017-02-09 02:25:43.940216+01 | 1486603543.94022 | pgbench_branches |            16384

 2017-02-09 02:25:45.241913+01 | 1486603545.24191 | pgbench_accounts |       4028858368
 2017-02-09 02:25:45.241913+01 | 1486603545.24191 | pgbench_tellers  |           139264
 2017-02-09 02:25:45.241913+01 | 1486603545.24191 | pgbench_history  |                0
 2017-02-09 02:25:45.241913+01 | 1486603545.24191 | pgbench_branches |            16384

 2017-02-09 02:25:46.582243+01 | 1486603546.58224 | pgbench_accounts |       4028858368
 2017-02-09 02:25:46.582243+01 | 1486603546.58224 | pgbench_tellers  |           139264
 2017-02-09 02:25:46.582243+01 | 1486603546.58224 | pgbench_history  |                0
 2017-02-09 02:25:46.582243+01 | 1486603546.58224 | pgbench_branches |            16384

 2017-02-09 02:25:47.936813+01 | 1486603547.93681 | pgbench_accounts |       4028858368
 2017-02-09 02:25:47.936813+01 | 1486603547.93681 | pgbench_tellers  |           139264
 2017-02-09 02:25:47.936813+01 | 1486603547.93681 | pgbench_history  |                0
 2017-02-09 02:25:47.936813+01 | 1486603547.93681 | pgbench_branches |            16384

 2017-02-09 02:25:49.283337+01 | 1486603549.28334 | pgbench_accounts |       4028858368
 2017-02-09 02:25:49.283337+01 | 1486603549.28334 | pgbench_tellers  |           139264
 2017-02-09 02:25:49.283337+01 | 1486603549.28334 | pgbench_history  |                0
 2017-02-09 02:25:49.283337+01 | 1486603549.28334 | pgbench_branches |            16384

 2017-02-09 02:25:50.590717+01 | 1486603550.59072 | pgbench_accounts |       4028858368
 2017-02-09 02:25:50.590717+01 | 1486603550.59072 | pgbench_tellers  |           139264
 2017-02-09 02:25:50.590717+01 | 1486603550.59072 | pgbench_history  |                0
 2017-02-09 02:25:50.590717+01 | 1486603550.59072 | pgbench_branches |            16384

 2017-02-09 02:25:51.943376+01 | 1486603551.94338 | pgbench_accounts |       4028858368
 2017-02-09 02:25:51.943376+01 | 1486603551.94338 | pgbench_tellers  |           139264
 2017-02-09 02:25:51.943376+01 | 1486603551.94338 | pgbench_history  |                0
 2017-02-09 02:25:51.943376+01 | 1486603551.94338 | pgbench_branches |            16384

 2017-02-09 02:25:53.283161+01 | 1486603553.28316 | pgbench_accounts |       4028858368
 2017-02-09 02:25:53.283161+01 | 1486603553.28316 | pgbench_tellers  |           139264
 2017-02-09 02:25:53.283161+01 | 1486603553.28316 | pgbench_history  |                0
 2017-02-09 02:25:53.283161+01 | 1486603553.28316 | pgbench_branches |            16384

 2017-02-09 02:25:54.586288+01 | 1486603554.58629 | pgbench_accounts |       4028858368
 2017-02-09 02:25:54.586288+01 | 1486603554.58629 | pgbench_tellers  |           139264
 2017-02-09 02:25:54.586288+01 | 1486603554.58629 | pgbench_history  |                0
 2017-02-09 02:25:54.586288+01 | 1486603554.58629 | pgbench_branches |            16384

 2017-02-09 02:25:55.960139+01 | 1486603555.96014 | pgbench_accounts |       4028858368
 2017-02-09 02:25:55.960139+01 | 1486603555.96014 | pgbench_tellers  |           139264
 2017-02-09 02:25:55.960139+01 | 1486603555.96014 | pgbench_history  |                0
 2017-02-09 02:25:55.960139+01 | 1486603555.96014 | pgbench_branches |            16384

 2017-02-09 02:25:57.344098+01 | 1486603557.3441 | pgbench_accounts |       4028858368
 2017-02-09 02:25:57.344098+01 | 1486603557.3441 | pgbench_tellers  |           139264
 2017-02-09 02:25:57.344098+01 | 1486603557.3441 | pgbench_history  |                0
 2017-02-09 02:25:57.344098+01 | 1486603557.3441 | pgbench_branches |            16384

 2017-02-09 02:25:58.726097+01 | 1486603558.7261 | pgbench_accounts |       4028858368
 2017-02-09 02:25:58.726097+01 | 1486603558.7261 | pgbench_tellers  |           139264
 2017-02-09 02:25:58.726097+01 | 1486603558.7261 | pgbench_history  |                0
 2017-02-09 02:25:58.726097+01 | 1486603558.7261 | pgbench_branches |            16384

 2017-02-09 02:26:00.10637+01 | 1486603560.10637 | pgbench_accounts |       4028858368
 2017-02-09 02:26:00.10637+01 | 1486603560.10637 | pgbench_tellers  |           139264
 2017-02-09 02:26:00.10637+01 | 1486603560.10637 | pgbench_history  |                0
 2017-02-09 02:26:00.10637+01 | 1486603560.10637 | pgbench_branches |            16384

 2017-02-09 02:26:01.4855+01 | 1486603561.4855 | pgbench_accounts |       4028858368
 2017-02-09 02:26:01.4855+01 | 1486603561.4855 | pgbench_tellers  |           139264
 2017-02-09 02:26:01.4855+01 | 1486603561.4855 | pgbench_history  |                0
 2017-02-09 02:26:01.4855+01 | 1486603561.4855 | pgbench_branches |            16384

 2017-02-09 02:26:02.86772+01 | 1486603562.86772 | pgbench_accounts |       4028858368
 2017-02-09 02:26:02.86772+01 | 1486603562.86772 | pgbench_tellers  |           139264
 2017-02-09 02:26:02.86772+01 | 1486603562.86772 | pgbench_history  |                0
 2017-02-09 02:26:02.86772+01 | 1486603562.86772 | pgbench_branches |            16384

 2017-02-09 02:26:04.194748+01 | 1486603564.19475 | pgbench_accounts |       4028858368
 2017-02-09 02:26:04.194748+01 | 1486603564.19475 | pgbench_tellers  |           139264
 2017-02-09 02:26:04.194748+01 | 1486603564.19475 | pgbench_history  |                0
 2017-02-09 02:26:04.194748+01 | 1486603564.19475 | pgbench_branches |            16384

 2017-02-09 02:26:05.554173+01 | 1486603565.55417 | pgbench_accounts |       4028858368
 2017-02-09 02:26:05.554173+01 | 1486603565.55417 | pgbench_tellers  |           139264
 2017-02-09 02:26:05.554173+01 | 1486603565.55417 | pgbench_history  |                0
 2017-02-09 02:26:05.554173+01 | 1486603565.55417 | pgbench_branches |            16384

 2017-02-09 02:26:06.891695+01 | 1486603566.8917 | pgbench_accounts |       4028858368
 2017-02-09 02:26:06.891695+01 | 1486603566.8917 | pgbench_tellers  |           139264
 2017-02-09 02:26:06.891695+01 | 1486603566.8917 | pgbench_history  |                0
 2017-02-09 02:26:06.891695+01 | 1486603566.8917 | pgbench_branches |            16384

 2017-02-09 02:26:08.205008+01 | 1486603568.20501 | pgbench_accounts |       4028858368
 2017-02-09 02:26:08.205008+01 | 1486603568.20501 | pgbench_tellers  |           139264
 2017-02-09 02:26:08.205008+01 | 1486603568.20501 | pgbench_history  |                0
 2017-02-09 02:26:08.205008+01 | 1486603568.20501 | pgbench_branches |            16384

 2017-02-09 02:26:09.541822+01 | 1486603569.54182 | pgbench_accounts |       4028858368
 2017-02-09 02:26:09.541822+01 | 1486603569.54182 | pgbench_tellers  |           139264
 2017-02-09 02:26:09.541822+01 | 1486603569.54182 | pgbench_history  |                0
 2017-02-09 02:26:09.541822+01 | 1486603569.54182 | pgbench_branches |            16384

 2017-02-09 02:26:10.910393+01 | 1486603570.91039 | pgbench_accounts |       4028858368
 2017-02-09 02:26:10.910393+01 | 1486603570.91039 | pgbench_tellers  |           139264
 2017-02-09 02:26:10.910393+01 | 1486603570.91039 | pgbench_history  |                0
 2017-02-09 02:26:10.910393+01 | 1486603570.91039 | pgbench_branches |            16384

 2017-02-09 02:26:12.30224+01 | 1486603572.30224 | pgbench_accounts |       4028858368
 2017-02-09 02:26:12.30224+01 | 1486603572.30224 | pgbench_tellers  |           139264
 2017-02-09 02:26:12.30224+01 | 1486603572.30224 | pgbench_history  |                0
 2017-02-09 02:26:12.30224+01 | 1486603572.30224 | pgbench_branches |            16384

 2017-02-09 02:26:13.674876+01 | 1486603573.67488 | pgbench_accounts |       4028858368
 2017-02-09 02:26:13.674876+01 | 1486603573.67488 | pgbench_tellers  |           139264
 2017-02-09 02:26:13.674876+01 | 1486603573.67488 | pgbench_history  |                0
 2017-02-09 02:26:13.674876+01 | 1486603573.67488 | pgbench_branches |            16384

 2017-02-09 02:26:15.087894+01 | 1486603575.08789 | pgbench_accounts |       4028858368
 2017-02-09 02:26:15.087894+01 | 1486603575.08789 | pgbench_tellers  |           139264
 2017-02-09 02:26:15.087894+01 | 1486603575.08789 | pgbench_history  |                0
 2017-02-09 02:26:15.087894+01 | 1486603575.08789 | pgbench_branches |            16384

 2017-02-09 02:26:16.491621+01 | 1486603576.49162 | pgbench_accounts |       4028858368
 2017-02-09 02:26:16.491621+01 | 1486603576.49162 | pgbench_tellers  |           139264
 2017-02-09 02:26:16.491621+01 | 1486603576.49162 | pgbench_history  |                0
 2017-02-09 02:26:16.491621+01 | 1486603576.49162 | pgbench_branches |            16384

 2017-02-09 02:26:17.842641+01 | 1486603577.84264 | pgbench_accounts |       4028858368
 2017-02-09 02:26:17.842641+01 | 1486603577.84264 | pgbench_tellers  |           139264
 2017-02-09 02:26:17.842641+01 | 1486603577.84264 | pgbench_history  |                0
 2017-02-09 02:26:17.842641+01 | 1486603577.84264 | pgbench_branches |            16384

 2017-02-09 02:26:19.212613+01 | 1486603579.21261 | pgbench_accounts |       4028858368
 2017-02-09 02:26:19.212613+01 | 1486603579.21261 | pgbench_tellers  |           139264
 2017-02-09 02:26:19.212613+01 | 1486603579.21261 | pgbench_history  |                0
 2017-02-09 02:26:19.212613+01 | 1486603579.21261 | pgbench_branches |            16384

 2017-02-09 02:26:20.606035+01 | 1486603580.60603 | pgbench_accounts |       4028858368
 2017-02-09 02:26:20.606035+01 | 1486603580.60603 | pgbench_tellers  |           139264
 2017-02-09 02:26:20.606035+01 | 1486603580.60603 | pgbench_history  |                0
 2017-02-09 02:26:20.606035+01 | 1486603580.60603 | pgbench_branches |            16384

 2017-02-09 02:26:21.973367+01 | 1486603581.97337 | pgbench_accounts |       4028858368
 2017-02-09 02:26:21.973367+01 | 1486603581.97337 | pgbench_tellers  |           139264
 2017-02-09 02:26:21.973367+01 | 1486603581.97337 | pgbench_history  |                0
 2017-02-09 02:26:21.973367+01 | 1486603581.97337 | pgbench_branches |            16384

 2017-02-09 02:26:23.245385+01 | 1486603583.24538 | pgbench_accounts |       4028858368
 2017-02-09 02:26:23.245385+01 | 1486603583.24538 | pgbench_tellers  |           139264
 2017-02-09 02:26:23.245385+01 | 1486603583.24538 | pgbench_history  |                0
 2017-02-09 02:26:23.245385+01 | 1486603583.24538 | pgbench_branches |            16384

 2017-02-09 02:26:24.647373+01 | 1486603584.64737 | pgbench_accounts |       4028858368
 2017-02-09 02:26:24.647373+01 | 1486603584.64737 | pgbench_tellers  |           139264
 2017-02-09 02:26:24.647373+01 | 1486603584.64737 | pgbench_history  |                0
 2017-02-09 02:26:24.647373+01 | 1486603584.64737 | pgbench_branches |            16384

 2017-02-09 02:26:25.971645+01 | 1486603585.97165 | pgbench_accounts |       4028858368
 2017-02-09 02:26:25.971645+01 | 1486603585.97165 | pgbench_tellers  |           139264
 2017-02-09 02:26:25.971645+01 | 1486603585.97165 | pgbench_history  |                0
 2017-02-09 02:26:25.971645+01 | 1486603585.97165 | pgbench_branches |            16384

 2017-02-09 02:26:27.294534+01 | 1486603587.29453 | pgbench_accounts |       4028858368
 2017-02-09 02:26:27.294534+01 | 1486603587.29453 | pgbench_tellers  |           139264
 2017-02-09 02:26:27.294534+01 | 1486603587.29453 | pgbench_history  |                0
 2017-02-09 02:26:27.294534+01 | 1486603587.29453 | pgbench_branches |            16384

 2017-02-09 02:26:28.655918+01 | 1486603588.65592 | pgbench_accounts |       4028858368
 2017-02-09 02:26:28.655918+01 | 1486603588.65592 | pgbench_tellers  |           139264
 2017-02-09 02:26:28.655918+01 | 1486603588.65592 | pgbench_history  |                0
 2017-02-09 02:26:28.655918+01 | 1486603588.65592 | pgbench_branches |            16384

 2017-02-09 02:26:30.01161+01 | 1486603590.01161 | pgbench_accounts |       4028858368
 2017-02-09 02:26:30.01161+01 | 1486603590.01161 | pgbench_tellers  |           139264
 2017-02-09 02:26:30.01161+01 | 1486603590.01161 | pgbench_history  |                0
 2017-02-09 02:26:30.01161+01 | 1486603590.01161 | pgbench_branches |            16384

 2017-02-09 02:26:31.463166+01 | 1486603591.46317 | pgbench_accounts |       4028858368
 2017-02-09 02:26:31.463166+01 | 1486603591.46317 | pgbench_tellers  |           139264
 2017-02-09 02:26:31.463166+01 | 1486603591.46317 | pgbench_history  |                0
 2017-02-09 02:26:31.463166+01 | 1486603591.46317 | pgbench_branches |            16384

 2017-02-09 02:26:32.847647+01 | 1486603592.84765 | pgbench_accounts |       4028858368
 2017-02-09 02:26:32.847647+01 | 1486603592.84765 | pgbench_tellers  |           139264
 2017-02-09 02:26:32.847647+01 | 1486603592.84765 | pgbench_history  |                0
 2017-02-09 02:26:32.847647+01 | 1486603592.84765 | pgbench_branches |            16384

 2017-02-09 02:26:34.259076+01 | 1486603594.25908 | pgbench_accounts |       4028858368
 2017-02-09 02:26:34.259076+01 | 1486603594.25908 | pgbench_tellers  |           139264
 2017-02-09 02:26:34.259076+01 | 1486603594.25908 | pgbench_history  |                0
 2017-02-09 02:26:34.259076+01 | 1486603594.25908 | pgbench_branches |            16384

 2017-02-09 02:26:35.607359+01 | 1486603595.60736 | pgbench_accounts |       4028858368
 2017-02-09 02:26:35.607359+01 | 1486603595.60736 | pgbench_tellers  |           139264
 2017-02-09 02:26:35.607359+01 | 1486603595.60736 | pgbench_history  |                0
 2017-02-09 02:26:35.607359+01 | 1486603595.60736 | pgbench_branches |            16384

 2017-02-09 02:26:36.990916+01 | 1486603596.99092 | pgbench_accounts |       4028858368
 2017-02-09 02:26:36.990916+01 | 1486603596.99092 | pgbench_tellers  |           139264
 2017-02-09 02:26:36.990916+01 | 1486603596.99092 | pgbench_history  |                0
 2017-02-09 02:26:36.990916+01 | 1486603596.99092 | pgbench_branches |            16384

 2017-02-09 02:26:38.312387+01 | 1486603598.31239 | pgbench_accounts |       4028858368
 2017-02-09 02:26:38.312387+01 | 1486603598.31239 | pgbench_tellers  |           139264
 2017-02-09 02:26:38.312387+01 | 1486603598.31239 | pgbench_history  |                0
 2017-02-09 02:26:38.312387+01 | 1486603598.31239 | pgbench_branches |            16384

 2017-02-09 02:26:39.71111+01 | 1486603599.71111 | pgbench_accounts |       4028858368
 2017-02-09 02:26:39.71111+01 | 1486603599.71111 | pgbench_tellers  |           139264
 2017-02-09 02:26:39.71111+01 | 1486603599.71111 | pgbench_history  |                0
 2017-02-09 02:26:39.71111+01 | 1486603599.71111 | pgbench_branches |            16384

 2017-02-09 02:26:41.123293+01 | 1486603601.12329 | pgbench_accounts |       4028858368
 2017-02-09 02:26:41.123293+01 | 1486603601.12329 | pgbench_tellers  |           139264
 2017-02-09 02:26:41.123293+01 | 1486603601.12329 | pgbench_history  |                0
 2017-02-09 02:26:41.123293+01 | 1486603601.12329 | pgbench_branches |            16384

 2017-02-09 02:26:42.558449+01 | 1486603602.55845 | pgbench_accounts |       4028858368
 2017-02-09 02:26:42.558449+01 | 1486603602.55845 | pgbench_tellers  |           139264
 2017-02-09 02:26:42.558449+01 | 1486603602.55845 | pgbench_history  |                0
 2017-02-09 02:26:42.558449+01 | 1486603602.55845 | pgbench_branches |            16384

 2017-02-09 02:26:43.954898+01 | 1486603603.9549 | pgbench_accounts |       4028858368
 2017-02-09 02:26:43.954898+01 | 1486603603.9549 | pgbench_tellers  |           139264
 2017-02-09 02:26:43.954898+01 | 1486603603.9549 | pgbench_history  |                0
 2017-02-09 02:26:43.954898+01 | 1486603603.9549 | pgbench_branches |            16384

 2017-02-09 02:26:45.365622+01 | 1486603605.36562 | pgbench_accounts |       4028858368
 2017-02-09 02:26:45.365622+01 | 1486603605.36562 | pgbench_tellers  |           139264
 2017-02-09 02:26:45.365622+01 | 1486603605.36562 | pgbench_history  |                0
 2017-02-09 02:26:45.365622+01 | 1486603605.36562 | pgbench_branches |            16384

 2017-02-09 02:26:46.748711+01 | 1486603606.74871 | pgbench_accounts |       4028858368
 2017-02-09 02:26:46.748711+01 | 1486603606.74871 | pgbench_tellers  |           139264
 2017-02-09 02:26:46.748711+01 | 1486603606.74871 | pgbench_history  |                0
 2017-02-09 02:26:46.748711+01 | 1486603606.74871 | pgbench_branches |            16384

 2017-02-09 02:26:48.121957+01 | 1486603608.12196 | pgbench_accounts |       4028858368
 2017-02-09 02:26:48.121957+01 | 1486603608.12196 | pgbench_tellers  |           139264
 2017-02-09 02:26:48.121957+01 | 1486603608.12196 | pgbench_history  |                0
 2017-02-09 02:26:48.121957+01 | 1486603608.12196 | pgbench_branches |            16384

 2017-02-09 02:26:49.472743+01 | 1486603609.47274 | pgbench_accounts |       4028858368
 2017-02-09 02:26:49.472743+01 | 1486603609.47274 | pgbench_tellers  |           139264
 2017-02-09 02:26:49.472743+01 | 1486603609.47274 | pgbench_history  |                0
 2017-02-09 02:26:49.472743+01 | 1486603609.47274 | pgbench_branches |            16384

 2017-02-09 02:26:50.813672+01 | 1486603610.81367 | pgbench_accounts |       4028858368
 2017-02-09 02:26:50.813672+01 | 1486603610.81367 | pgbench_tellers  |           139264
 2017-02-09 02:26:50.813672+01 | 1486603610.81367 | pgbench_history  |                0
 2017-02-09 02:26:50.813672+01 | 1486603610.81367 | pgbench_branches |            16384

 2017-02-09 02:26:52.134925+01 | 1486603612.13492 | pgbench_accounts |       4028858368
 2017-02-09 02:26:52.134925+01 | 1486603612.13492 | pgbench_tellers  |           139264
 2017-02-09 02:26:52.134925+01 | 1486603612.13492 | pgbench_history  |                0
 2017-02-09 02:26:52.134925+01 | 1486603612.13492 | pgbench_branches |            16384

 2017-02-09 02:26:53.512917+01 | 1486603613.51292 | pgbench_accounts |       4028858368
 2017-02-09 02:26:53.512917+01 | 1486603613.51292 | pgbench_tellers  |           139264
 2017-02-09 02:26:53.512917+01 | 1486603613.51292 | pgbench_history  |                0
 2017-02-09 02:26:53.512917+01 | 1486603613.51292 | pgbench_branches |            16384

 2017-02-09 02:26:54.838689+01 | 1486603614.83869 | pgbench_accounts |       4028858368
 2017-02-09 02:26:54.838689+01 | 1486603614.83869 | pgbench_tellers  |           139264
 2017-02-09 02:26:54.838689+01 | 1486603614.83869 | pgbench_history  |                0
 2017-02-09 02:26:54.838689+01 | 1486603614.83869 | pgbench_branches |            16384

 2017-02-09 02:26:56.197511+01 | 1486603616.19751 | pgbench_accounts |       4028858368
 2017-02-09 02:26:56.197511+01 | 1486603616.19751 | pgbench_tellers  |           139264
 2017-02-09 02:26:56.197511+01 | 1486603616.19751 | pgbench_history  |                0
 2017-02-09 02:26:56.197511+01 | 1486603616.19751 | pgbench_branches |            16384

 2017-02-09 02:26:57.559145+01 | 1486603617.55914 | pgbench_accounts |       4028858368
 2017-02-09 02:26:57.559145+01 | 1486603617.55914 | pgbench_tellers  |           139264
 2017-02-09 02:26:57.559145+01 | 1486603617.55914 | pgbench_history  |                0
 2017-02-09 02:26:57.559145+01 | 1486603617.55914 | pgbench_branches |            16384

 2017-02-09 02:26:58.914415+01 | 1486603618.91441 | pgbench_accounts |       4028858368
 2017-02-09 02:26:58.914415+01 | 1486603618.91441 | pgbench_tellers  |           139264
 2017-02-09 02:26:58.914415+01 | 1486603618.91441 | pgbench_history  |                0
 2017-02-09 02:26:58.914415+01 | 1486603618.91441 | pgbench_branches |            16384

 2017-02-09 02:27:00.290046+01 | 1486603620.29005 | pgbench_accounts |       4028858368
 2017-02-09 02:27:00.290046+01 | 1486603620.29005 | pgbench_tellers  |           139264
 2017-02-09 02:27:00.290046+01 | 1486603620.29005 | pgbench_history  |                0
 2017-02-09 02:27:00.290046+01 | 1486603620.29005 | pgbench_branches |            16384

 2017-02-09 02:27:01.695734+01 | 1486603621.69573 | pgbench_accounts |       4028858368
 2017-02-09 02:27:01.695734+01 | 1486603621.69573 | pgbench_tellers  |           139264
 2017-02-09 02:27:01.695734+01 | 1486603621.69573 | pgbench_history  |                0
 2017-02-09 02:27:01.695734+01 | 1486603621.69573 | pgbench_branches |            16384

 2017-02-09 02:27:03.012736+01 | 1486603623.01274 | pgbench_accounts |       4028858368
 2017-02-09 02:27:03.012736+01 | 1486603623.01274 | pgbench_tellers  |           139264
 2017-02-09 02:27:03.012736+01 | 1486603623.01274 | pgbench_history  |                0
 2017-02-09 02:27:03.012736+01 | 1486603623.01274 | pgbench_branches |            16384

 2017-02-09 02:27:04.392793+01 | 1486603624.39279 | pgbench_accounts |       4028858368
 2017-02-09 02:27:04.392793+01 | 1486603624.39279 | pgbench_tellers  |           139264
 2017-02-09 02:27:04.392793+01 | 1486603624.39279 | pgbench_history  |                0
 2017-02-09 02:27:04.392793+01 | 1486603624.39279 | pgbench_branches |            16384

 2017-02-09 02:27:05.809429+01 | 1486603625.80943 | pgbench_accounts |       4028858368
 2017-02-09 02:27:05.809429+01 | 1486603625.80943 | pgbench_tellers  |           139264
 2017-02-09 02:27:05.809429+01 | 1486603625.80943 | pgbench_history  |                0
 2017-02-09 02:27:05.809429+01 | 1486603625.80943 | pgbench_branches |            16384

 2017-02-09 02:27:07.241151+01 | 1486603627.24115 | pgbench_accounts |       4028858368
 2017-02-09 02:27:07.241151+01 | 1486603627.24115 | pgbench_tellers  |           139264
 2017-02-09 02:27:07.241151+01 | 1486603627.24115 | pgbench_history  |                0
 2017-02-09 02:27:07.241151+01 | 1486603627.24115 | pgbench_branches |            16384

 2017-02-09 02:27:08.674013+01 | 1486603628.67401 | pgbench_accounts |       4028858368
 2017-02-09 02:27:08.674013+01 | 1486603628.67401 | pgbench_tellers  |           139264
 2017-02-09 02:27:08.674013+01 | 1486603628.67401 | pgbench_history  |                0
 2017-02-09 02:27:08.674013+01 | 1486603628.67401 | pgbench_branches |            16384

 2017-02-09 02:27:10.090509+01 | 1486603630.09051 | pgbench_accounts |       4028858368
 2017-02-09 02:27:10.090509+01 | 1486603630.09051 | pgbench_tellers  |           139264
 2017-02-09 02:27:10.090509+01 | 1486603630.09051 | pgbench_history  |                0
 2017-02-09 02:27:10.090509+01 | 1486603630.09051 | pgbench_branches |            16384

 2017-02-09 02:27:11.407695+01 | 1486603631.4077 | pgbench_accounts |       4028858368
 2017-02-09 02:27:11.407695+01 | 1486603631.4077 | pgbench_tellers  |           139264
 2017-02-09 02:27:11.407695+01 | 1486603631.4077 | pgbench_history  |                0
 2017-02-09 02:27:11.407695+01 | 1486603631.4077 | pgbench_branches |            16384

 2017-02-09 02:27:12.783303+01 | 1486603632.7833 | pgbench_accounts |       4028858368
 2017-02-09 02:27:12.783303+01 | 1486603632.7833 | pgbench_tellers  |           139264
 2017-02-09 02:27:12.783303+01 | 1486603632.7833 | pgbench_history  |                0
 2017-02-09 02:27:12.783303+01 | 1486603632.7833 | pgbench_branches |            16384

 2017-02-09 02:27:14.177743+01 | 1486603634.17774 | pgbench_accounts |       4028858368
 2017-02-09 02:27:14.177743+01 | 1486603634.17774 | pgbench_tellers  |           139264
 2017-02-09 02:27:14.177743+01 | 1486603634.17774 | pgbench_history  |                0
 2017-02-09 02:27:14.177743+01 | 1486603634.17774 | pgbench_branches |            16384

 2017-02-09 02:27:15.59478+01 | 1486603635.59478 | pgbench_accounts |       4028858368
 2017-02-09 02:27:15.59478+01 | 1486603635.59478 | pgbench_tellers  |           139264
 2017-02-09 02:27:15.59478+01 | 1486603635.59478 | pgbench_history  |                0
 2017-02-09 02:27:15.59478+01 | 1486603635.59478 | pgbench_branches |            16384

 2017-02-09 02:27:16.91745+01 | 1486603636.91745 | pgbench_accounts |       4028858368
 2017-02-09 02:27:16.91745+01 | 1486603636.91745 | pgbench_tellers  |           139264
 2017-02-09 02:27:16.91745+01 | 1486603636.91745 | pgbench_history  |                0
 2017-02-09 02:27:16.91745+01 | 1486603636.91745 | pgbench_branches |            16384

 2017-02-09 02:27:18.348485+01 | 1486603638.34848 | pgbench_accounts |       4028858368
 2017-02-09 02:27:18.348485+01 | 1486603638.34848 | pgbench_tellers  |           139264
 2017-02-09 02:27:18.348485+01 | 1486603638.34848 | pgbench_history  |                0
 2017-02-09 02:27:18.348485+01 | 1486603638.34848 | pgbench_branches |            16384

 2017-02-09 02:27:19.674332+01 | 1486603639.67433 | pgbench_accounts |       4028858368
 2017-02-09 02:27:19.674332+01 | 1486603639.67433 | pgbench_tellers  |           139264
 2017-02-09 02:27:19.674332+01 | 1486603639.67433 | pgbench_history  |                0
 2017-02-09 02:27:19.674332+01 | 1486603639.67433 | pgbench_branches |            16384

 2017-02-09 02:27:21.054988+01 | 1486603641.05499 | pgbench_accounts |       4028858368
 2017-02-09 02:27:21.054988+01 | 1486603641.05499 | pgbench_tellers  |           139264
 2017-02-09 02:27:21.054988+01 | 1486603641.05499 | pgbench_history  |                0
 2017-02-09 02:27:21.054988+01 | 1486603641.05499 | pgbench_branches |            16384

 2017-02-09 02:27:22.421112+01 | 1486603642.42111 | pgbench_accounts |       4028858368
 2017-02-09 02:27:22.421112+01 | 1486603642.42111 | pgbench_tellers  |           139264
 2017-02-09 02:27:22.421112+01 | 1486603642.42111 | pgbench_history  |                0
 2017-02-09 02:27:22.421112+01 | 1486603642.42111 | pgbench_branches |            16384

 2017-02-09 02:27:23.811182+01 | 1486603643.81118 | pgbench_accounts |       4028858368
 2017-02-09 02:27:23.811182+01 | 1486603643.81118 | pgbench_tellers  |           139264
 2017-02-09 02:27:23.811182+01 | 1486603643.81118 | pgbench_history  |                0
 2017-02-09 02:27:23.811182+01 | 1486603643.81118 | pgbench_branches |            16384

 2017-02-09 02:27:25.175347+01 | 1486603645.17535 | pgbench_accounts |       4028858368
 2017-02-09 02:27:25.175347+01 | 1486603645.17535 | pgbench_tellers  |           139264
 2017-02-09 02:27:25.175347+01 | 1486603645.17535 | pgbench_history  |                0
 2017-02-09 02:27:25.175347+01 | 1486603645.17535 | pgbench_branches |            16384

 2017-02-09 02:27:26.540284+01 | 1486603646.54028 | pgbench_accounts |       4028858368
 2017-02-09 02:27:26.540284+01 | 1486603646.54028 | pgbench_tellers  |           139264
 2017-02-09 02:27:26.540284+01 | 1486603646.54028 | pgbench_history  |                0
 2017-02-09 02:27:26.540284+01 | 1486603646.54028 | pgbench_branches |            16384

 2017-02-09 02:27:27.927316+01 | 1486603647.92732 | pgbench_accounts |       4028858368
 2017-02-09 02:27:27.927316+01 | 1486603647.92732 | pgbench_tellers  |           139264
 2017-02-09 02:27:27.927316+01 | 1486603647.92732 | pgbench_history  |                0
 2017-02-09 02:27:27.927316+01 | 1486603647.92732 | pgbench_branches |            16384

 2017-02-09 02:27:29.290605+01 | 1486603649.29061 | pgbench_accounts |       4028858368
 2017-02-09 02:27:29.290605+01 | 1486603649.29061 | pgbench_tellers  |           139264
 2017-02-09 02:27:29.290605+01 | 1486603649.29061 | pgbench_history  |                0
 2017-02-09 02:27:29.290605+01 | 1486603649.29061 | pgbench_branches |            16384

 2017-02-09 02:27:30.644652+01 | 1486603650.64465 | pgbench_accounts |       4028858368
 2017-02-09 02:27:30.644652+01 | 1486603650.64465 | pgbench_tellers  |           139264
 2017-02-09 02:27:30.644652+01 | 1486603650.64465 | pgbench_history  |                0
 2017-02-09 02:27:30.644652+01 | 1486603650.64465 | pgbench_branches |            16384

 2017-02-09 02:27:31.936618+01 | 1486603651.93662 | pgbench_accounts |       4028858368
 2017-02-09 02:27:31.936618+01 | 1486603651.93662 | pgbench_tellers  |           139264
 2017-02-09 02:27:31.936618+01 | 1486603651.93662 | pgbench_history  |                0
 2017-02-09 02:27:31.936618+01 | 1486603651.93662 | pgbench_branches |            16384

 2017-02-09 02:27:33.27792+01 | 1486603653.27792 | pgbench_accounts |       4028858368
 2017-02-09 02:27:33.27792+01 | 1486603653.27792 | pgbench_tellers  |           139264
 2017-02-09 02:27:33.27792+01 | 1486603653.27792 | pgbench_history  |                0
 2017-02-09 02:27:33.27792+01 | 1486603653.27792 | pgbench_branches |            16384

 2017-02-09 02:27:34.612635+01 | 1486603654.61263 | pgbench_accounts |       4028858368
 2017-02-09 02:27:34.612635+01 | 1486603654.61263 | pgbench_tellers  |           139264
 2017-02-09 02:27:34.612635+01 | 1486603654.61263 | pgbench_history  |                0
 2017-02-09 02:27:34.612635+01 | 1486603654.61263 | pgbench_branches |            16384

 2017-02-09 02:27:36.008979+01 | 1486603656.00898 | pgbench_accounts |       4028858368
 2017-02-09 02:27:36.008979+01 | 1486603656.00898 | pgbench_tellers  |           139264
 2017-02-09 02:27:36.008979+01 | 1486603656.00898 | pgbench_history  |                0
 2017-02-09 02:27:36.008979+01 | 1486603656.00898 | pgbench_branches |            16384

 2017-02-09 02:27:37.352108+01 | 1486603657.35211 | pgbench_accounts |       4028858368
 2017-02-09 02:27:37.352108+01 | 1486603657.35211 | pgbench_tellers  |           139264
 2017-02-09 02:27:37.352108+01 | 1486603657.35211 | pgbench_history  |                0
 2017-02-09 02:27:37.352108+01 | 1486603657.35211 | pgbench_branches |            16384

 2017-02-09 02:27:38.671423+01 | 1486603658.67142 | pgbench_accounts |       4028858368
 2017-02-09 02:27:38.671423+01 | 1486603658.67142 | pgbench_tellers  |           139264
 2017-02-09 02:27:38.671423+01 | 1486603658.67142 | pgbench_history  |                0
 2017-02-09 02:27:38.671423+01 | 1486603658.67142 | pgbench_branches |            16384

 2017-02-09 02:27:39.984098+01 | 1486603659.9841 | pgbench_accounts |       4028858368
 2017-02-09 02:27:39.984098+01 | 1486603659.9841 | pgbench_tellers  |           139264
 2017-02-09 02:27:39.984098+01 | 1486603659.9841 | pgbench_history  |                0
 2017-02-09 02:27:39.984098+01 | 1486603659.9841 | pgbench_branches |            16384

 2017-02-09 02:27:41.266277+01 | 1486603661.26628 | pgbench_accounts |       4028858368
 2017-02-09 02:27:41.266277+01 | 1486603661.26628 | pgbench_tellers  |           139264
 2017-02-09 02:27:41.266277+01 | 1486603661.26628 | pgbench_history  |                0
 2017-02-09 02:27:41.266277+01 | 1486603661.26628 | pgbench_branches |            16384

 2017-02-09 02:27:42.651826+01 | 1486603662.65183 | pgbench_accounts |       4028858368
 2017-02-09 02:27:42.651826+01 | 1486603662.65183 | pgbench_tellers  |           139264
 2017-02-09 02:27:42.651826+01 | 1486603662.65183 | pgbench_history  |                0
 2017-02-09 02:27:42.651826+01 | 1486603662.65183 | pgbench_branches |            16384

 2017-02-09 02:27:44.060555+01 | 1486603664.06055 | pgbench_accounts |       4028858368
 2017-02-09 02:27:44.060555+01 | 1486603664.06055 | pgbench_tellers  |           139264
 2017-02-09 02:27:44.060555+01 | 1486603664.06055 | pgbench_history  |                0
 2017-02-09 02:27:44.060555+01 | 1486603664.06055 | pgbench_branches |            16384

 2017-02-09 02:27:45.441415+01 | 1486603665.44142 | pgbench_accounts |       4028858368
 2017-02-09 02:27:45.441415+01 | 1486603665.44142 | pgbench_tellers  |           139264
 2017-02-09 02:27:45.441415+01 | 1486603665.44142 | pgbench_history  |                0
 2017-02-09 02:27:45.441415+01 | 1486603665.44142 | pgbench_branches |            16384

 2017-02-09 02:27:46.741915+01 | 1486603666.74191 | pgbench_accounts |       4028858368
 2017-02-09 02:27:46.741915+01 | 1486603666.74191 | pgbench_tellers  |           139264
 2017-02-09 02:27:46.741915+01 | 1486603666.74191 | pgbench_history  |                0
 2017-02-09 02:27:46.741915+01 | 1486603666.74191 | pgbench_branches |            16384

 2017-02-09 02:27:48.074192+01 | 1486603668.07419 | pgbench_accounts |       4028858368
 2017-02-09 02:27:48.074192+01 | 1486603668.07419 | pgbench_tellers  |           139264
 2017-02-09 02:27:48.074192+01 | 1486603668.07419 | pgbench_history  |                0
 2017-02-09 02:27:48.074192+01 | 1486603668.07419 | pgbench_branches |            16384

 2017-02-09 02:27:49.49775+01 | 1486603669.49775 | pgbench_accounts |       4028858368
 2017-02-09 02:27:49.49775+01 | 1486603669.49775 | pgbench_tellers  |           139264
 2017-02-09 02:27:49.49775+01 | 1486603669.49775 | pgbench_history  |                0
 2017-02-09 02:27:49.49775+01 | 1486603669.49775 | pgbench_branches |            16384

 2017-02-09 02:27:50.907469+01 | 1486603670.90747 | pgbench_accounts |       4028858368
 2017-02-09 02:27:50.907469+01 | 1486603670.90747 | pgbench_tellers  |           139264
 2017-02-09 02:27:50.907469+01 | 1486603670.90747 | pgbench_history  |                0
 2017-02-09 02:27:50.907469+01 | 1486603670.90747 | pgbench_branches |            16384

 2017-02-09 02:27:52.300379+01 | 1486603672.30038 | pgbench_accounts |       4028858368
 2017-02-09 02:27:52.300379+01 | 1486603672.30038 | pgbench_tellers  |           139264
 2017-02-09 02:27:52.300379+01 | 1486603672.30038 | pgbench_history  |                0
 2017-02-09 02:27:52.300379+01 | 1486603672.30038 | pgbench_branches |            16384

 2017-02-09 02:27:53.708079+01 | 1486603673.70808 | pgbench_accounts |       4028858368
 2017-02-09 02:27:53.708079+01 | 1486603673.70808 | pgbench_tellers  |           139264
 2017-02-09 02:27:53.708079+01 | 1486603673.70808 | pgbench_history  |                0
 2017-02-09 02:27:53.708079+01 | 1486603673.70808 | pgbench_branches |            16384

 2017-02-09 02:27:55.122052+01 | 1486603675.12205 | pgbench_accounts |       4028858368
 2017-02-09 02:27:55.122052+01 | 1486603675.12205 | pgbench_tellers  |           139264
 2017-02-09 02:27:55.122052+01 | 1486603675.12205 | pgbench_history  |                0
 2017-02-09 02:27:55.122052+01 | 1486603675.12205 | pgbench_branches |            16384

 2017-02-09 02:27:56.440885+01 | 1486603676.44089 | pgbench_accounts |       4028858368
 2017-02-09 02:27:56.440885+01 | 1486603676.44089 | pgbench_tellers  |           139264
 2017-02-09 02:27:56.440885+01 | 1486603676.44089 | pgbench_history  |                0
 2017-02-09 02:27:56.440885+01 | 1486603676.44089 | pgbench_branches |            16384

 2017-02-09 02:27:57.852397+01 | 1486603677.8524 | pgbench_accounts |       4028858368
 2017-02-09 02:27:57.852397+01 | 1486603677.8524 | pgbench_tellers  |           139264
 2017-02-09 02:27:57.852397+01 | 1486603677.8524 | pgbench_history  |                0
 2017-02-09 02:27:57.852397+01 | 1486603677.8524 | pgbench_branches |            16384

 2017-02-09 02:27:59.217693+01 | 1486603679.21769 | pgbench_accounts |       4028858368
 2017-02-09 02:27:59.217693+01 | 1486603679.21769 | pgbench_tellers  |           139264
 2017-02-09 02:27:59.217693+01 | 1486603679.21769 | pgbench_history  |                0
 2017-02-09 02:27:59.217693+01 | 1486603679.21769 | pgbench_branches |            16384

 2017-02-09 02:28:00.566558+01 | 1486603680.56656 | pgbench_accounts |       4028858368
 2017-02-09 02:28:00.566558+01 | 1486603680.56656 | pgbench_tellers  |           139264
 2017-02-09 02:28:00.566558+01 | 1486603680.56656 | pgbench_history  |                0
 2017-02-09 02:28:00.566558+01 | 1486603680.56656 | pgbench_branches |            16384

 2017-02-09 02:28:01.955926+01 | 1486603681.95593 | pgbench_accounts |       4028858368
 2017-02-09 02:28:01.955926+01 | 1486603681.95593 | pgbench_tellers  |           139264
 2017-02-09 02:28:01.955926+01 | 1486603681.95593 | pgbench_history  |                0
 2017-02-09 02:28:01.955926+01 | 1486603681.95593 | pgbench_branches |            16384

 2017-02-09 02:28:03.308573+01 | 1486603683.30857 | pgbench_accounts |       4028858368
 2017-02-09 02:28:03.308573+01 | 1486603683.30857 | pgbench_tellers  |           139264
 2017-02-09 02:28:03.308573+01 | 1486603683.30857 | pgbench_history  |                0
 2017-02-09 02:28:03.308573+01 | 1486603683.30857 | pgbench_branches |            16384

 2017-02-09 02:28:04.650117+01 | 1486603684.65012 | pgbench_accounts |       4028858368
 2017-02-09 02:28:04.650117+01 | 1486603684.65012 | pgbench_tellers  |           139264
 2017-02-09 02:28:04.650117+01 | 1486603684.65012 | pgbench_history  |                0
 2017-02-09 02:28:04.650117+01 | 1486603684.65012 | pgbench_branches |            16384

 2017-02-09 02:28:05.979887+01 | 1486603685.97989 | pgbench_accounts |       4028858368
 2017-02-09 02:28:05.979887+01 | 1486603685.97989 | pgbench_tellers  |           139264
 2017-02-09 02:28:05.979887+01 | 1486603685.97989 | pgbench_history  |                0
 2017-02-09 02:28:05.979887+01 | 1486603685.97989 | pgbench_branches |            16384

 2017-02-09 02:28:07.333914+01 | 1486603687.33391 | pgbench_accounts |       4028858368
 2017-02-09 02:28:07.333914+01 | 1486603687.33391 | pgbench_tellers  |           139264
 2017-02-09 02:28:07.333914+01 | 1486603687.33391 | pgbench_history  |                0
 2017-02-09 02:28:07.333914+01 | 1486603687.33391 | pgbench_branches |            16384

 2017-02-09 02:28:08.718247+01 | 1486603688.71825 | pgbench_accounts |       4028858368
 2017-02-09 02:28:08.718247+01 | 1486603688.71825 | pgbench_tellers  |           139264
 2017-02-09 02:28:08.718247+01 | 1486603688.71825 | pgbench_history  |                0
 2017-02-09 02:28:08.718247+01 | 1486603688.71825 | pgbench_branches |            16384

 2017-02-09 02:28:10.096448+01 | 1486603690.09645 | pgbench_accounts |       4028858368
 2017-02-09 02:28:10.096448+01 | 1486603690.09645 | pgbench_tellers  |           139264
 2017-02-09 02:28:10.096448+01 | 1486603690.09645 | pgbench_history  |                0
 2017-02-09 02:28:10.096448+01 | 1486603690.09645 | pgbench_branches |            16384

 2017-02-09 02:28:11.444674+01 | 1486603691.44467 | pgbench_accounts |       4028858368
 2017-02-09 02:28:11.444674+01 | 1486603691.44467 | pgbench_tellers  |           139264
 2017-02-09 02:28:11.444674+01 | 1486603691.44467 | pgbench_history  |                0
 2017-02-09 02:28:11.444674+01 | 1486603691.44467 | pgbench_branches |            16384

 2017-02-09 02:28:12.796276+01 | 1486603692.79628 | pgbench_accounts |       4028858368
 2017-02-09 02:28:12.796276+01 | 1486603692.79628 | pgbench_tellers  |           139264
 2017-02-09 02:28:12.796276+01 | 1486603692.79628 | pgbench_history  |                0
 2017-02-09 02:28:12.796276+01 | 1486603692.79628 | pgbench_branches |            16384

 2017-02-09 02:28:14.138367+01 | 1486603694.13837 | pgbench_accounts |       4028858368
 2017-02-09 02:28:14.138367+01 | 1486603694.13837 | pgbench_tellers  |           139264
 2017-02-09 02:28:14.138367+01 | 1486603694.13837 | pgbench_history  |                0
 2017-02-09 02:28:14.138367+01 | 1486603694.13837 | pgbench_branches |            16384

 2017-02-09 02:28:15.549546+01 | 1486603695.54955 | pgbench_accounts |       4028858368
 2017-02-09 02:28:15.549546+01 | 1486603695.54955 | pgbench_tellers  |           139264
 2017-02-09 02:28:15.549546+01 | 1486603695.54955 | pgbench_history  |                0
 2017-02-09 02:28:15.549546+01 | 1486603695.54955 | pgbench_branches |            16384

 2017-02-09 02:28:16.897827+01 | 1486603696.89783 | pgbench_accounts |       4028858368
 2017-02-09 02:28:16.897827+01 | 1486603696.89783 | pgbench_tellers  |           139264
 2017-02-09 02:28:16.897827+01 | 1486603696.89783 | pgbench_history  |                0
 2017-02-09 02:28:16.897827+01 | 1486603696.89783 | pgbench_branches |            16384

 2017-02-09 02:28:18.221673+01 | 1486603698.22167 | pgbench_accounts |       4028858368
 2017-02-09 02:28:18.221673+01 | 1486603698.22167 | pgbench_tellers  |           139264
 2017-02-09 02:28:18.221673+01 | 1486603698.22167 | pgbench_history  |                0
 2017-02-09 02:28:18.221673+01 | 1486603698.22167 | pgbench_branches |            16384

 2017-02-09 02:28:19.562543+01 | 1486603699.56254 | pgbench_accounts |       4028858368
 2017-02-09 02:28:19.562543+01 | 1486603699.56254 | pgbench_tellers  |           139264
 2017-02-09 02:28:19.562543+01 | 1486603699.56254 | pgbench_history  |                0
 2017-02-09 02:28:19.562543+01 | 1486603699.56254 | pgbench_branches |            16384

 2017-02-09 02:28:20.983878+01 | 1486603700.98388 | pgbench_accounts |       4028858368
 2017-02-09 02:28:20.983878+01 | 1486603700.98388 | pgbench_tellers  |           139264
 2017-02-09 02:28:20.983878+01 | 1486603700.98388 | pgbench_history  |                0
 2017-02-09 02:28:20.983878+01 | 1486603700.98388 | pgbench_branches |            16384

 2017-02-09 02:28:22.420244+01 | 1486603702.42024 | pgbench_accounts |       4028858368
 2017-02-09 02:28:22.420244+01 | 1486603702.42024 | pgbench_tellers  |           139264
 2017-02-09 02:28:22.420244+01 | 1486603702.42024 | pgbench_history  |                0
 2017-02-09 02:28:22.420244+01 | 1486603702.42024 | pgbench_branches |            16384

 2017-02-09 02:28:23.789775+01 | 1486603703.78977 | pgbench_accounts |       4028858368
 2017-02-09 02:28:23.789775+01 | 1486603703.78977 | pgbench_tellers  |           139264
 2017-02-09 02:28:23.789775+01 | 1486603703.78977 | pgbench_history  |                0
 2017-02-09 02:28:23.789775+01 | 1486603703.78977 | pgbench_branches |            16384

 2017-02-09 02:28:25.121406+01 | 1486603705.12141 | pgbench_accounts |       4028858368
 2017-02-09 02:28:25.121406+01 | 1486603705.12141 | pgbench_tellers  |           139264
 2017-02-09 02:28:25.121406+01 | 1486603705.12141 | pgbench_history  |                0
 2017-02-09 02:28:25.121406+01 | 1486603705.12141 | pgbench_branches |            16384

 2017-02-09 02:28:26.50635+01 | 1486603706.50635 | pgbench_accounts |       4028858368
 2017-02-09 02:28:26.50635+01 | 1486603706.50635 | pgbench_tellers  |           139264
 2017-02-09 02:28:26.50635+01 | 1486603706.50635 | pgbench_history  |                0
 2017-02-09 02:28:26.50635+01 | 1486603706.50635 | pgbench_branches |            16384

 2017-02-09 02:28:27.831914+01 | 1486603707.83191 | pgbench_accounts |       4028858368
 2017-02-09 02:28:27.831914+01 | 1486603707.83191 | pgbench_tellers  |           139264
 2017-02-09 02:28:27.831914+01 | 1486603707.83191 | pgbench_history  |                0
 2017-02-09 02:28:27.831914+01 | 1486603707.83191 | pgbench_branches |            16384

 2017-02-09 02:28:29.224781+01 | 1486603709.22478 | pgbench_accounts |       4028858368
 2017-02-09 02:28:29.224781+01 | 1486603709.22478 | pgbench_tellers  |           139264
 2017-02-09 02:28:29.224781+01 | 1486603709.22478 | pgbench_history  |                0
 2017-02-09 02:28:29.224781+01 | 1486603709.22478 | pgbench_branches |            16384

 2017-02-09 02:28:30.525355+01 | 1486603710.52536 | pgbench_accounts |       4028858368
 2017-02-09 02:28:30.525355+01 | 1486603710.52536 | pgbench_tellers  |           139264
 2017-02-09 02:28:30.525355+01 | 1486603710.52536 | pgbench_history  |                0
 2017-02-09 02:28:30.525355+01 | 1486603710.52536 | pgbench_branches |            16384

 2017-02-09 02:28:31.893914+01 | 1486603711.89391 | pgbench_accounts |       4028858368
 2017-02-09 02:28:31.893914+01 | 1486603711.89391 | pgbench_tellers  |           139264
 2017-02-09 02:28:31.893914+01 | 1486603711.89391 | pgbench_history  |                0
 2017-02-09 02:28:31.893914+01 | 1486603711.89391 | pgbench_branches |            16384

 2017-02-09 02:28:33.305499+01 | 1486603713.3055 | pgbench_accounts |       4028858368
 2017-02-09 02:28:33.305499+01 | 1486603713.3055 | pgbench_tellers  |           139264
 2017-02-09 02:28:33.305499+01 | 1486603713.3055 | pgbench_history  |                0
 2017-02-09 02:28:33.305499+01 | 1486603713.3055 | pgbench_branches |            16384

 2017-02-09 02:28:34.649897+01 | 1486603714.6499 | pgbench_accounts |       4028858368
 2017-02-09 02:28:34.649897+01 | 1486603714.6499 | pgbench_tellers  |           139264
 2017-02-09 02:28:34.649897+01 | 1486603714.6499 | pgbench_history  |                0
 2017-02-09 02:28:34.649897+01 | 1486603714.6499 | pgbench_branches |            16384

