 2017-02-08 07:28:06.006559+01 | 1486535286.00656 | pgbench_accounts |        695533568
 2017-02-08 07:28:06.006559+01 | 1486535286.00656 | pgbench_tellers  |          2146304
 2017-02-08 07:28:06.006559+01 | 1486535286.00656 | pgbench_history  |          1007616
 2017-02-08 07:28:06.006559+01 | 1486535286.00656 | pgbench_branches |          1785856

 2017-02-08 07:28:07.078034+01 | 1486535287.07803 | pgbench_accounts |        695533568
 2017-02-08 07:28:07.078034+01 | 1486535287.07803 | pgbench_tellers  |          2146304
 2017-02-08 07:28:07.078034+01 | 1486535287.07803 | pgbench_history  |          1007616
 2017-02-08 07:28:07.078034+01 | 1486535287.07803 | pgbench_branches |          1785856

 2017-02-08 07:28:08.146857+01 | 1486535288.14686 | pgbench_accounts |        695533568
 2017-02-08 07:28:08.146857+01 | 1486535288.14686 | pgbench_tellers  |          2146304
 2017-02-08 07:28:08.146857+01 | 1486535288.14686 | pgbench_history  |          1384448
 2017-02-08 07:28:08.146857+01 | 1486535288.14686 | pgbench_branches |          1785856

 2017-02-08 07:28:09.233826+01 | 1486535289.23383 | pgbench_accounts |        695533568
 2017-02-08 07:28:09.233826+01 | 1486535289.23383 | pgbench_tellers  |          2146304
 2017-02-08 07:28:09.233826+01 | 1486535289.23383 | pgbench_history  |          1966080
 2017-02-08 07:28:09.233826+01 | 1486535289.23383 | pgbench_branches |          1785856

 2017-02-08 07:28:10.331104+01 | 1486535290.3311 | pgbench_accounts |        695533568
 2017-02-08 07:28:10.331104+01 | 1486535290.3311 | pgbench_tellers  |          2146304
 2017-02-08 07:28:10.331104+01 | 1486535290.3311 | pgbench_history  |          2703360
 2017-02-08 07:28:10.331104+01 | 1486535290.3311 | pgbench_branches |          1785856

 2017-02-08 07:28:11.403999+01 | 1486535291.404 | pgbench_accounts |        695533568
 2017-02-08 07:28:11.403999+01 | 1486535291.404 | pgbench_tellers  |          2146304
 2017-02-08 07:28:11.403999+01 | 1486535291.404 | pgbench_history  |          3383296
 2017-02-08 07:28:11.403999+01 | 1486535291.404 | pgbench_branches |          1785856

 2017-02-08 07:28:12.494664+01 | 1486535292.49466 | pgbench_accounts |        695533568
 2017-02-08 07:28:12.494664+01 | 1486535292.49466 | pgbench_tellers  |          2146304
 2017-02-08 07:28:12.494664+01 | 1486535292.49466 | pgbench_history  |          4022272
 2017-02-08 07:28:12.494664+01 | 1486535292.49466 | pgbench_branches |          1785856

 2017-02-08 07:28:13.595886+01 | 1486535293.59589 | pgbench_accounts |        695533568
 2017-02-08 07:28:13.595886+01 | 1486535293.59589 | pgbench_tellers  |          2146304
 2017-02-08 07:28:13.595886+01 | 1486535293.59589 | pgbench_history  |          4800512
 2017-02-08 07:28:13.595886+01 | 1486535293.59589 | pgbench_branches |          1785856

 2017-02-08 07:28:14.69539+01 | 1486535294.69539 | pgbench_accounts |        695533568
 2017-02-08 07:28:14.69539+01 | 1486535294.69539 | pgbench_tellers  |          2146304
 2017-02-08 07:28:14.69539+01 | 1486535294.69539 | pgbench_history  |          5513216
 2017-02-08 07:28:14.69539+01 | 1486535294.69539 | pgbench_branches |          1785856

 2017-02-08 07:28:15.778292+01 | 1486535295.77829 | pgbench_accounts |        695533568
 2017-02-08 07:28:15.778292+01 | 1486535295.77829 | pgbench_tellers  |          2146304
 2017-02-08 07:28:15.778292+01 | 1486535295.77829 | pgbench_history  |          6225920
 2017-02-08 07:28:15.778292+01 | 1486535295.77829 | pgbench_branches |          1785856

 2017-02-08 07:28:16.854852+01 | 1486535296.85485 | pgbench_accounts |        695533568
 2017-02-08 07:28:16.854852+01 | 1486535296.85485 | pgbench_tellers  |          2146304
 2017-02-08 07:28:16.854852+01 | 1486535296.85485 | pgbench_history  |          6979584
 2017-02-08 07:28:16.854852+01 | 1486535296.85485 | pgbench_branches |          1785856

 2017-02-08 07:28:17.948476+01 | 1486535297.94848 | pgbench_accounts |        695533568
 2017-02-08 07:28:17.948476+01 | 1486535297.94848 | pgbench_tellers  |          2146304
 2017-02-08 07:28:17.948476+01 | 1486535297.94848 | pgbench_history  |          7684096
 2017-02-08 07:28:17.948476+01 | 1486535297.94848 | pgbench_branches |          1785856

 2017-02-08 07:28:19.059272+01 | 1486535299.05927 | pgbench_accounts |        695533568
 2017-02-08 07:28:19.059272+01 | 1486535299.05927 | pgbench_tellers  |          2146304
 2017-02-08 07:28:19.059272+01 | 1486535299.05927 | pgbench_history  |          8429568
 2017-02-08 07:28:19.059272+01 | 1486535299.05927 | pgbench_branches |          1785856

 2017-02-08 07:28:20.154974+01 | 1486535300.15497 | pgbench_accounts |        695533568
 2017-02-08 07:28:20.154974+01 | 1486535300.15497 | pgbench_tellers  |          2146304
 2017-02-08 07:28:20.154974+01 | 1486535300.15497 | pgbench_history  |          9101312
 2017-02-08 07:28:20.154974+01 | 1486535300.15497 | pgbench_branches |          1785856

 2017-02-08 07:28:21.24202+01 | 1486535301.24202 | pgbench_accounts |        695533568
 2017-02-08 07:28:21.24202+01 | 1486535301.24202 | pgbench_tellers  |          2146304
 2017-02-08 07:28:21.24202+01 | 1486535301.24202 | pgbench_history  |          9789440
 2017-02-08 07:28:21.24202+01 | 1486535301.24202 | pgbench_branches |          1785856

 2017-02-08 07:28:22.349091+01 | 1486535302.34909 | pgbench_accounts |        695533568
 2017-02-08 07:28:22.349091+01 | 1486535302.34909 | pgbench_tellers  |          2146304
 2017-02-08 07:28:22.349091+01 | 1486535302.34909 | pgbench_history  |         10518528
 2017-02-08 07:28:22.349091+01 | 1486535302.34909 | pgbench_branches |          1785856

 2017-02-08 07:28:23.447252+01 | 1486535303.44725 | pgbench_accounts |        695533568
 2017-02-08 07:28:23.447252+01 | 1486535303.44725 | pgbench_tellers  |          2146304
 2017-02-08 07:28:23.447252+01 | 1486535303.44725 | pgbench_history  |         11288576
 2017-02-08 07:28:23.447252+01 | 1486535303.44725 | pgbench_branches |          1785856

 2017-02-08 07:28:24.536753+01 | 1486535304.53675 | pgbench_accounts |        695533568
 2017-02-08 07:28:24.536753+01 | 1486535304.53675 | pgbench_tellers  |          2146304
 2017-02-08 07:28:24.536753+01 | 1486535304.53675 | pgbench_history  |         12247040
 2017-02-08 07:28:24.536753+01 | 1486535304.53675 | pgbench_branches |          1785856

 2017-02-08 07:28:25.639381+01 | 1486535305.63938 | pgbench_accounts |        695533568
 2017-02-08 07:28:25.639381+01 | 1486535305.63938 | pgbench_tellers  |          2146304
 2017-02-08 07:28:25.639381+01 | 1486535305.63938 | pgbench_history  |         12894208
 2017-02-08 07:28:25.639381+01 | 1486535305.63938 | pgbench_branches |          1785856

 2017-02-08 07:28:26.717892+01 | 1486535306.71789 | pgbench_accounts |        695533568
 2017-02-08 07:28:26.717892+01 | 1486535306.71789 | pgbench_tellers  |          2146304
 2017-02-08 07:28:26.717892+01 | 1486535306.71789 | pgbench_history  |         13606912
 2017-02-08 07:28:26.717892+01 | 1486535306.71789 | pgbench_branches |          1785856

 2017-02-08 07:28:27.81983+01 | 1486535307.81983 | pgbench_accounts |        695533568
 2017-02-08 07:28:27.81983+01 | 1486535307.81983 | pgbench_tellers  |          2146304
 2017-02-08 07:28:27.81983+01 | 1486535307.81983 | pgbench_history  |         14073856
 2017-02-08 07:28:27.81983+01 | 1486535307.81983 | pgbench_branches |          1785856

 2017-02-08 07:28:28.913052+01 | 1486535308.91305 | pgbench_accounts |        695533568
 2017-02-08 07:28:28.913052+01 | 1486535308.91305 | pgbench_tellers  |          2146304
 2017-02-08 07:28:28.913052+01 | 1486535308.91305 | pgbench_history  |         15147008
 2017-02-08 07:28:28.913052+01 | 1486535308.91305 | pgbench_branches |          1785856

 2017-02-08 07:28:30.028873+01 | 1486535310.02887 | pgbench_accounts |        695533568
 2017-02-08 07:28:30.028873+01 | 1486535310.02887 | pgbench_tellers  |          2146304
 2017-02-08 07:28:30.028873+01 | 1486535310.02887 | pgbench_history  |         15695872
 2017-02-08 07:28:30.028873+01 | 1486535310.02887 | pgbench_branches |          1785856

 2017-02-08 07:28:31.147868+01 | 1486535311.14787 | pgbench_accounts |        695533568
 2017-02-08 07:28:31.147868+01 | 1486535311.14787 | pgbench_tellers  |          2146304
 2017-02-08 07:28:31.147868+01 | 1486535311.14787 | pgbench_history  |         16203776
 2017-02-08 07:28:31.147868+01 | 1486535311.14787 | pgbench_branches |          1785856

 2017-02-08 07:28:32.271638+01 | 1486535312.27164 | pgbench_accounts |        695533568
 2017-02-08 07:28:32.271638+01 | 1486535312.27164 | pgbench_tellers  |          2146304
 2017-02-08 07:28:32.271638+01 | 1486535312.27164 | pgbench_history  |         17162240
 2017-02-08 07:28:32.271638+01 | 1486535312.27164 | pgbench_branches |          1785856

 2017-02-08 07:28:33.36468+01 | 1486535313.36468 | pgbench_accounts |        695533568
 2017-02-08 07:28:33.36468+01 | 1486535313.36468 | pgbench_tellers  |          2146304
 2017-02-08 07:28:33.36468+01 | 1486535313.36468 | pgbench_history  |         17743872
 2017-02-08 07:28:33.36468+01 | 1486535313.36468 | pgbench_branches |          1785856

 2017-02-08 07:28:34.470549+01 | 1486535314.47055 | pgbench_accounts |        695533568
 2017-02-08 07:28:34.470549+01 | 1486535314.47055 | pgbench_tellers  |          2146304
 2017-02-08 07:28:34.470549+01 | 1486535314.47055 | pgbench_history  |         18464768
 2017-02-08 07:28:34.470549+01 | 1486535314.47055 | pgbench_branches |          1785856

 2017-02-08 07:28:35.580988+01 | 1486535315.58099 | pgbench_accounts |        695533568
 2017-02-08 07:28:35.580988+01 | 1486535315.58099 | pgbench_tellers  |          2146304
 2017-02-08 07:28:35.580988+01 | 1486535315.58099 | pgbench_history  |         19210240
 2017-02-08 07:28:35.580988+01 | 1486535315.58099 | pgbench_branches |          1785856

 2017-02-08 07:28:36.690468+01 | 1486535316.69047 | pgbench_accounts |        695533568
 2017-02-08 07:28:36.690468+01 | 1486535316.69047 | pgbench_tellers  |          2146304
 2017-02-08 07:28:36.690468+01 | 1486535316.69047 | pgbench_history  |         19972096
 2017-02-08 07:28:36.690468+01 | 1486535316.69047 | pgbench_branches |          1785856

 2017-02-08 07:28:37.779694+01 | 1486535317.77969 | pgbench_accounts |        695533568
 2017-02-08 07:28:37.779694+01 | 1486535317.77969 | pgbench_tellers  |          2146304
 2017-02-08 07:28:37.779694+01 | 1486535317.77969 | pgbench_history  |         20684800
 2017-02-08 07:28:37.779694+01 | 1486535317.77969 | pgbench_branches |          1785856

 2017-02-08 07:28:38.890657+01 | 1486535318.89066 | pgbench_accounts |        695533568
 2017-02-08 07:28:38.890657+01 | 1486535318.89066 | pgbench_tellers  |          2146304
 2017-02-08 07:28:38.890657+01 | 1486535318.89066 | pgbench_history  |         21446656
 2017-02-08 07:28:38.890657+01 | 1486535318.89066 | pgbench_branches |          1785856

 2017-02-08 07:28:40.002483+01 | 1486535320.00248 | pgbench_accounts |        695533568
 2017-02-08 07:28:40.002483+01 | 1486535320.00248 | pgbench_tellers  |          2146304
 2017-02-08 07:28:40.002483+01 | 1486535320.00248 | pgbench_history  |         22192128
 2017-02-08 07:28:40.002483+01 | 1486535320.00248 | pgbench_branches |          1785856

 2017-02-08 07:28:41.121899+01 | 1486535321.1219 | pgbench_accounts |        695533568
 2017-02-08 07:28:41.121899+01 | 1486535321.1219 | pgbench_tellers  |          2146304
 2017-02-08 07:28:41.121899+01 | 1486535321.1219 | pgbench_history  |         22953984
 2017-02-08 07:28:41.121899+01 | 1486535321.1219 | pgbench_branches |          1785856

 2017-02-08 07:28:42.215266+01 | 1486535322.21527 | pgbench_accounts |        695533568
 2017-02-08 07:28:42.215266+01 | 1486535322.21527 | pgbench_tellers  |          2146304
 2017-02-08 07:28:42.215266+01 | 1486535322.21527 | pgbench_history  |         23691264
 2017-02-08 07:28:42.215266+01 | 1486535322.21527 | pgbench_branches |          1785856

 2017-02-08 07:28:43.340993+01 | 1486535323.34099 | pgbench_accounts |        695533568
 2017-02-08 07:28:43.340993+01 | 1486535323.34099 | pgbench_tellers  |          2146304
 2017-02-08 07:28:43.340993+01 | 1486535323.34099 | pgbench_history  |         24469504
 2017-02-08 07:28:43.340993+01 | 1486535323.34099 | pgbench_branches |          1785856

 2017-02-08 07:28:44.440372+01 | 1486535324.44037 | pgbench_accounts |        695533568
 2017-02-08 07:28:44.440372+01 | 1486535324.44037 | pgbench_tellers  |          2146304
 2017-02-08 07:28:44.440372+01 | 1486535324.44037 | pgbench_history  |         25214976
 2017-02-08 07:28:44.440372+01 | 1486535324.44037 | pgbench_branches |          1785856

 2017-02-08 07:28:45.539599+01 | 1486535325.5396 | pgbench_accounts |        695533568
 2017-02-08 07:28:45.539599+01 | 1486535325.5396 | pgbench_tellers  |          2146304
 2017-02-08 07:28:45.539599+01 | 1486535325.5396 | pgbench_history  |         25935872
 2017-02-08 07:28:45.539599+01 | 1486535325.5396 | pgbench_branches |          1785856

 2017-02-08 07:28:46.648227+01 | 1486535326.64823 | pgbench_accounts |        695533568
 2017-02-08 07:28:46.648227+01 | 1486535326.64823 | pgbench_tellers  |          2146304
 2017-02-08 07:28:46.648227+01 | 1486535326.64823 | pgbench_history  |         26681344
 2017-02-08 07:28:46.648227+01 | 1486535326.64823 | pgbench_branches |          1785856

 2017-02-08 07:28:47.732761+01 | 1486535327.73276 | pgbench_accounts |        695533568
 2017-02-08 07:28:47.732761+01 | 1486535327.73276 | pgbench_tellers  |          2146304
 2017-02-08 07:28:47.732761+01 | 1486535327.73276 | pgbench_history  |         27459584
 2017-02-08 07:28:47.732761+01 | 1486535327.73276 | pgbench_branches |          1785856

 2017-02-08 07:28:48.818248+01 | 1486535328.81825 | pgbench_accounts |        695533568
 2017-02-08 07:28:48.818248+01 | 1486535328.81825 | pgbench_tellers  |          2146304
 2017-02-08 07:28:48.818248+01 | 1486535328.81825 | pgbench_history  |         28172288
 2017-02-08 07:28:48.818248+01 | 1486535328.81825 | pgbench_branches |          1785856

 2017-02-08 07:28:49.922445+01 | 1486535329.92245 | pgbench_accounts |        695533568
 2017-02-08 07:28:49.922445+01 | 1486535329.92245 | pgbench_tellers  |          2146304
 2017-02-08 07:28:49.922445+01 | 1486535329.92245 | pgbench_history  |         28925952
 2017-02-08 07:28:49.922445+01 | 1486535329.92245 | pgbench_branches |          1785856

 2017-02-08 07:28:51.065356+01 | 1486535331.06536 | pgbench_accounts |        695533568
 2017-02-08 07:28:51.065356+01 | 1486535331.06536 | pgbench_tellers  |          2146304
 2017-02-08 07:28:51.065356+01 | 1486535331.06536 | pgbench_history  |         29712384
 2017-02-08 07:28:51.065356+01 | 1486535331.06536 | pgbench_branches |          1785856

 2017-02-08 07:28:52.178145+01 | 1486535332.17814 | pgbench_accounts |        695533568
 2017-02-08 07:28:52.178145+01 | 1486535332.17814 | pgbench_tellers  |          2146304
 2017-02-08 07:28:52.178145+01 | 1486535332.17814 | pgbench_history  |         30851072
 2017-02-08 07:28:52.178145+01 | 1486535332.17814 | pgbench_branches |          1785856

 2017-02-08 07:28:53.302432+01 | 1486535333.30243 | pgbench_accounts |        695533568
 2017-02-08 07:28:53.302432+01 | 1486535333.30243 | pgbench_tellers  |          2146304
 2017-02-08 07:28:53.302432+01 | 1486535333.30243 | pgbench_history  |         31203328
 2017-02-08 07:28:53.302432+01 | 1486535333.30243 | pgbench_branches |          1785856

 2017-02-08 07:28:54.418509+01 | 1486535334.41851 | pgbench_accounts |        695533568
 2017-02-08 07:28:54.418509+01 | 1486535334.41851 | pgbench_tellers  |          2146304
 2017-02-08 07:28:54.418509+01 | 1486535334.41851 | pgbench_history  |         32178176
 2017-02-08 07:28:54.418509+01 | 1486535334.41851 | pgbench_branches |          1785856

 2017-02-08 07:28:55.52695+01 | 1486535335.52695 | pgbench_accounts |        695533568
 2017-02-08 07:28:55.52695+01 | 1486535335.52695 | pgbench_tellers  |          2146304
 2017-02-08 07:28:55.52695+01 | 1486535335.52695 | pgbench_history  |         32784384
 2017-02-08 07:28:55.52695+01 | 1486535335.52695 | pgbench_branches |          1785856

 2017-02-08 07:28:56.636065+01 | 1486535336.63607 | pgbench_accounts |        695533568
 2017-02-08 07:28:56.636065+01 | 1486535336.63607 | pgbench_tellers  |          2146304
 2017-02-08 07:28:56.636065+01 | 1486535336.63607 | pgbench_history  |         33726464
 2017-02-08 07:28:56.636065+01 | 1486535336.63607 | pgbench_branches |          1785856

 2017-02-08 07:28:57.713754+01 | 1486535337.71375 | pgbench_accounts |        695533568
 2017-02-08 07:28:57.713754+01 | 1486535337.71375 | pgbench_tellers  |          2146304
 2017-02-08 07:28:57.713754+01 | 1486535337.71375 | pgbench_history  |         34283520
 2017-02-08 07:28:57.713754+01 | 1486535337.71375 | pgbench_branches |          1785856

 2017-02-08 07:28:58.807549+01 | 1486535338.80755 | pgbench_accounts |        695533568
 2017-02-08 07:28:58.807549+01 | 1486535338.80755 | pgbench_tellers  |          2146304
 2017-02-08 07:28:58.807549+01 | 1486535338.80755 | pgbench_history  |         34922496
 2017-02-08 07:28:58.807549+01 | 1486535338.80755 | pgbench_branches |          1785856

 2017-02-08 07:28:59.917957+01 | 1486535339.91796 | pgbench_accounts |        695533568
 2017-02-08 07:28:59.917957+01 | 1486535339.91796 | pgbench_tellers  |          2146304
 2017-02-08 07:28:59.917957+01 | 1486535339.91796 | pgbench_history  |         35700736
 2017-02-08 07:28:59.917957+01 | 1486535339.91796 | pgbench_branches |          1785856

 2017-02-08 07:29:01.035225+01 | 1486535341.03522 | pgbench_accounts |        695533568
 2017-02-08 07:29:01.035225+01 | 1486535341.03522 | pgbench_tellers  |          2146304
 2017-02-08 07:29:01.035225+01 | 1486535341.03522 | pgbench_history  |         36454400
 2017-02-08 07:29:01.035225+01 | 1486535341.03522 | pgbench_branches |          1785856

 2017-02-08 07:29:02.139273+01 | 1486535342.13927 | pgbench_accounts |        695533568
 2017-02-08 07:29:02.139273+01 | 1486535342.13927 | pgbench_tellers  |          2146304
 2017-02-08 07:29:02.139273+01 | 1486535342.13927 | pgbench_history  |         37199872
 2017-02-08 07:29:02.139273+01 | 1486535342.13927 | pgbench_branches |          1785856

 2017-02-08 07:29:03.222584+01 | 1486535343.22258 | pgbench_accounts |        695533568
 2017-02-08 07:29:03.222584+01 | 1486535343.22258 | pgbench_tellers  |          2146304
 2017-02-08 07:29:03.222584+01 | 1486535343.22258 | pgbench_history  |         37912576
 2017-02-08 07:29:03.222584+01 | 1486535343.22258 | pgbench_branches |          1785856

 2017-02-08 07:29:04.305386+01 | 1486535344.30539 | pgbench_accounts |        695533568
 2017-02-08 07:29:04.305386+01 | 1486535344.30539 | pgbench_tellers  |          2146304
 2017-02-08 07:29:04.305386+01 | 1486535344.30539 | pgbench_history  |         38658048
 2017-02-08 07:29:04.305386+01 | 1486535344.30539 | pgbench_branches |          1785856

 2017-02-08 07:29:05.435123+01 | 1486535345.43512 | pgbench_accounts |        695533568
 2017-02-08 07:29:05.435123+01 | 1486535345.43512 | pgbench_tellers  |          2146304
 2017-02-08 07:29:05.435123+01 | 1486535345.43512 | pgbench_history  |         39395328
 2017-02-08 07:29:05.435123+01 | 1486535345.43512 | pgbench_branches |          1785856

 2017-02-08 07:29:06.53807+01 | 1486535346.53807 | pgbench_accounts |        695533568
 2017-02-08 07:29:06.53807+01 | 1486535346.53807 | pgbench_tellers  |          2146304
 2017-02-08 07:29:06.53807+01 | 1486535346.53807 | pgbench_history  |         40140800
 2017-02-08 07:29:06.53807+01 | 1486535346.53807 | pgbench_branches |          1785856

 2017-02-08 07:29:07.63784+01 | 1486535347.63784 | pgbench_accounts |        695533568
 2017-02-08 07:29:07.63784+01 | 1486535347.63784 | pgbench_tellers  |          2146304
 2017-02-08 07:29:07.63784+01 | 1486535347.63784 | pgbench_history  |         41721856
 2017-02-08 07:29:07.63784+01 | 1486535347.63784 | pgbench_branches |          1785856

 2017-02-08 07:29:08.707584+01 | 1486535348.70758 | pgbench_accounts |        695533568
 2017-02-08 07:29:08.707584+01 | 1486535348.70758 | pgbench_tellers  |          2146304
 2017-02-08 07:29:08.707584+01 | 1486535348.70758 | pgbench_history  |         41721856
 2017-02-08 07:29:08.707584+01 | 1486535348.70758 | pgbench_branches |          1785856

 2017-02-08 07:29:09.817408+01 | 1486535349.81741 | pgbench_accounts |        695533568
 2017-02-08 07:29:09.817408+01 | 1486535349.81741 | pgbench_tellers  |          2146304
 2017-02-08 07:29:09.817408+01 | 1486535349.81741 | pgbench_history  |         42803200
 2017-02-08 07:29:09.817408+01 | 1486535349.81741 | pgbench_branches |          1785856

 2017-02-08 07:29:10.936557+01 | 1486535350.93656 | pgbench_accounts |        695533568
 2017-02-08 07:29:10.936557+01 | 1486535350.93656 | pgbench_tellers  |          2146304
 2017-02-08 07:29:10.936557+01 | 1486535350.93656 | pgbench_history  |         43319296
 2017-02-08 07:29:10.936557+01 | 1486535350.93656 | pgbench_branches |          1785856

 2017-02-08 07:29:12.030246+01 | 1486535352.03025 | pgbench_accounts |        695533568
 2017-02-08 07:29:12.030246+01 | 1486535352.03025 | pgbench_tellers  |          2146304
 2017-02-08 07:29:12.030246+01 | 1486535352.03025 | pgbench_history  |         43835392
 2017-02-08 07:29:12.030246+01 | 1486535352.03025 | pgbench_branches |          1785856

 2017-02-08 07:29:13.140565+01 | 1486535353.14056 | pgbench_accounts |        695533568
 2017-02-08 07:29:13.140565+01 | 1486535353.14056 | pgbench_tellers  |          2146304
 2017-02-08 07:29:13.140565+01 | 1486535353.14056 | pgbench_history  |         44613632
 2017-02-08 07:29:13.140565+01 | 1486535353.14056 | pgbench_branches |          1785856

 2017-02-08 07:29:14.235833+01 | 1486535354.23583 | pgbench_accounts |        695533568
 2017-02-08 07:29:14.235833+01 | 1486535354.23583 | pgbench_tellers  |          2146304
 2017-02-08 07:29:14.235833+01 | 1486535354.23583 | pgbench_history  |         45375488
 2017-02-08 07:29:14.235833+01 | 1486535354.23583 | pgbench_branches |          1785856

 2017-02-08 07:29:15.343391+01 | 1486535355.34339 | pgbench_accounts |        695533568
 2017-02-08 07:29:15.343391+01 | 1486535355.34339 | pgbench_tellers  |          2146304
 2017-02-08 07:29:15.343391+01 | 1486535355.34339 | pgbench_history  |         46366720
 2017-02-08 07:29:15.343391+01 | 1486535355.34339 | pgbench_branches |          1785856

 2017-02-08 07:29:16.45654+01 | 1486535356.45654 | pgbench_accounts |        695533568
 2017-02-08 07:29:16.45654+01 | 1486535356.45654 | pgbench_tellers  |          2146304
 2017-02-08 07:29:16.45654+01 | 1486535356.45654 | pgbench_history  |         46989312
 2017-02-08 07:29:16.45654+01 | 1486535356.45654 | pgbench_branches |          1785856

 2017-02-08 07:29:17.573747+01 | 1486535357.57375 | pgbench_accounts |        695533568
 2017-02-08 07:29:17.573747+01 | 1486535357.57375 | pgbench_tellers  |          2146304
 2017-02-08 07:29:17.573747+01 | 1486535357.57375 | pgbench_history  |         47570944
 2017-02-08 07:29:17.573747+01 | 1486535357.57375 | pgbench_branches |          1785856

 2017-02-08 07:29:18.685497+01 | 1486535358.6855 | pgbench_accounts |        695533568
 2017-02-08 07:29:18.685497+01 | 1486535358.6855 | pgbench_tellers  |          2146304
 2017-02-08 07:29:18.685497+01 | 1486535358.6855 | pgbench_history  |         48381952
 2017-02-08 07:29:18.685497+01 | 1486535358.6855 | pgbench_branches |          1785856

 2017-02-08 07:29:19.817101+01 | 1486535359.8171 | pgbench_accounts |        695533568
 2017-02-08 07:29:19.817101+01 | 1486535359.8171 | pgbench_tellers  |          2146304
 2017-02-08 07:29:19.817101+01 | 1486535359.8171 | pgbench_history  |         49053696
 2017-02-08 07:29:19.817101+01 | 1486535359.8171 | pgbench_branches |          1785856

 2017-02-08 07:29:20.941186+01 | 1486535360.94119 | pgbench_accounts |        695533568
 2017-02-08 07:29:20.941186+01 | 1486535360.94119 | pgbench_tellers  |          2146304
 2017-02-08 07:29:20.941186+01 | 1486535360.94119 | pgbench_history  |         50372608
 2017-02-08 07:29:20.941186+01 | 1486535360.94119 | pgbench_branches |          1785856

 2017-02-08 07:29:22.033243+01 | 1486535362.03324 | pgbench_accounts |        695533568
 2017-02-08 07:29:22.033243+01 | 1486535362.03324 | pgbench_tellers  |          2146304
 2017-02-08 07:29:22.033243+01 | 1486535362.03324 | pgbench_history  |         50561024
 2017-02-08 07:29:22.033243+01 | 1486535362.03324 | pgbench_branches |          1785856

 2017-02-08 07:29:23.166872+01 | 1486535363.16687 | pgbench_accounts |        695533568
 2017-02-08 07:29:23.166872+01 | 1486535363.16687 | pgbench_tellers  |          2146304
 2017-02-08 07:29:23.166872+01 | 1486535363.16687 | pgbench_history  |         51642368
 2017-02-08 07:29:23.166872+01 | 1486535363.16687 | pgbench_branches |          1785856

 2017-02-08 07:29:24.272375+01 | 1486535364.27238 | pgbench_accounts |        695533568
 2017-02-08 07:29:24.272375+01 | 1486535364.27238 | pgbench_tellers  |          2146304
 2017-02-08 07:29:24.272375+01 | 1486535364.27238 | pgbench_history  |         52158464
 2017-02-08 07:29:24.272375+01 | 1486535364.27238 | pgbench_branches |          1785856

 2017-02-08 07:29:25.407152+01 | 1486535365.40715 | pgbench_accounts |        695533568
 2017-02-08 07:29:25.407152+01 | 1486535365.40715 | pgbench_tellers  |          2146304
 2017-02-08 07:29:25.407152+01 | 1486535365.40715 | pgbench_history  |         52838400
 2017-02-08 07:29:25.407152+01 | 1486535365.40715 | pgbench_branches |          1785856

 2017-02-08 07:29:26.530093+01 | 1486535366.53009 | pgbench_accounts |        695533568
 2017-02-08 07:29:26.530093+01 | 1486535366.53009 | pgbench_tellers  |          2146304
 2017-02-08 07:29:26.530093+01 | 1486535366.53009 | pgbench_history  |         53436416
 2017-02-08 07:29:26.530093+01 | 1486535366.53009 | pgbench_branches |          1785856

 2017-02-08 07:29:27.641274+01 | 1486535367.64127 | pgbench_accounts |        695533568
 2017-02-08 07:29:27.641274+01 | 1486535367.64127 | pgbench_tellers  |          2146304
 2017-02-08 07:29:27.641274+01 | 1486535367.64127 | pgbench_history  |         55271424
 2017-02-08 07:29:27.641274+01 | 1486535367.64127 | pgbench_branches |          1785856

 2017-02-08 07:29:28.730687+01 | 1486535368.73069 | pgbench_accounts |        695533568
 2017-02-08 07:29:28.730687+01 | 1486535368.73069 | pgbench_tellers  |          2146304
 2017-02-08 07:29:28.730687+01 | 1486535368.73069 | pgbench_history  |         55271424
 2017-02-08 07:29:28.730687+01 | 1486535368.73069 | pgbench_branches |          1785856

 2017-02-08 07:29:29.815121+01 | 1486535369.81512 | pgbench_accounts |        695533568
 2017-02-08 07:29:29.815121+01 | 1486535369.81512 | pgbench_tellers  |          2146304
 2017-02-08 07:29:29.815121+01 | 1486535369.81512 | pgbench_history  |         55697408
 2017-02-08 07:29:29.815121+01 | 1486535369.81512 | pgbench_branches |          1785856

 2017-02-08 07:29:30.909283+01 | 1486535370.90928 | pgbench_accounts |        695533568
 2017-02-08 07:29:30.909283+01 | 1486535370.90928 | pgbench_tellers  |          2146304
 2017-02-08 07:29:30.909283+01 | 1486535370.90928 | pgbench_history  |         56451072
 2017-02-08 07:29:30.909283+01 | 1486535370.90928 | pgbench_branches |          1785856

 2017-02-08 07:29:32.035659+01 | 1486535372.03566 | pgbench_accounts |        695533568
 2017-02-08 07:29:32.035659+01 | 1486535372.03566 | pgbench_tellers  |          2146304
 2017-02-08 07:29:32.035659+01 | 1486535372.03566 | pgbench_history  |         57229312
 2017-02-08 07:29:32.035659+01 | 1486535372.03566 | pgbench_branches |          1785856

 2017-02-08 07:29:33.179001+01 | 1486535373.179 | pgbench_accounts |        695533568
 2017-02-08 07:29:33.179001+01 | 1486535373.179 | pgbench_tellers  |          2146304
 2017-02-08 07:29:33.179001+01 | 1486535373.179 | pgbench_history  |         57991168
 2017-02-08 07:29:33.179001+01 | 1486535373.179 | pgbench_branches |          1785856

 2017-02-08 07:29:34.336841+01 | 1486535374.33684 | pgbench_accounts |        695533568
 2017-02-08 07:29:34.336841+01 | 1486535374.33684 | pgbench_tellers  |          2146304
 2017-02-08 07:29:34.336841+01 | 1486535374.33684 | pgbench_history  |         58793984
 2017-02-08 07:29:34.336841+01 | 1486535374.33684 | pgbench_branches |          1785856

 2017-02-08 07:29:35.458596+01 | 1486535375.4586 | pgbench_accounts |        695533568
 2017-02-08 07:29:35.458596+01 | 1486535375.4586 | pgbench_tellers  |          2146304
 2017-02-08 07:29:35.458596+01 | 1486535375.4586 | pgbench_history  |         59555840
 2017-02-08 07:29:35.458596+01 | 1486535375.4586 | pgbench_branches |          1785856

 2017-02-08 07:29:36.593953+01 | 1486535376.59395 | pgbench_accounts |        695533568
 2017-02-08 07:29:36.593953+01 | 1486535376.59395 | pgbench_tellers  |          2146304
 2017-02-08 07:29:36.593953+01 | 1486535376.59395 | pgbench_history  |         60334080
 2017-02-08 07:29:36.593953+01 | 1486535376.59395 | pgbench_branches |          1785856

 2017-02-08 07:29:37.724649+01 | 1486535377.72465 | pgbench_accounts |        695533568
 2017-02-08 07:29:37.724649+01 | 1486535377.72465 | pgbench_tellers  |          2146304
 2017-02-08 07:29:37.724649+01 | 1486535377.72465 | pgbench_history  |         61104128
 2017-02-08 07:29:37.724649+01 | 1486535377.72465 | pgbench_branches |          1785856

 2017-02-08 07:29:38.85956+01 | 1486535378.85956 | pgbench_accounts |        695533568
 2017-02-08 07:29:38.85956+01 | 1486535378.85956 | pgbench_tellers  |          2146304
 2017-02-08 07:29:38.85956+01 | 1486535378.85956 | pgbench_history  |         61841408
 2017-02-08 07:29:38.85956+01 | 1486535378.85956 | pgbench_branches |          1785856

 2017-02-08 07:29:39.95837+01 | 1486535379.95837 | pgbench_accounts |        695533568
 2017-02-08 07:29:39.95837+01 | 1486535379.95837 | pgbench_tellers  |          2146304
 2017-02-08 07:29:39.95837+01 | 1486535379.95837 | pgbench_history  |         62586880
 2017-02-08 07:29:39.95837+01 | 1486535379.95837 | pgbench_branches |          1785856

 2017-02-08 07:29:41.053584+01 | 1486535381.05358 | pgbench_accounts |        695533568
 2017-02-08 07:29:41.053584+01 | 1486535381.05358 | pgbench_tellers  |          2146304
 2017-02-08 07:29:41.053584+01 | 1486535381.05358 | pgbench_history  |         63266816
 2017-02-08 07:29:41.053584+01 | 1486535381.05358 | pgbench_branches |          1785856

 2017-02-08 07:29:42.15857+01 | 1486535382.15857 | pgbench_accounts |        695533568
 2017-02-08 07:29:42.15857+01 | 1486535382.15857 | pgbench_tellers  |          2146304
 2017-02-08 07:29:42.15857+01 | 1486535382.15857 | pgbench_history  |         64102400
 2017-02-08 07:29:42.15857+01 | 1486535382.15857 | pgbench_branches |          1785856

 2017-02-08 07:29:43.240522+01 | 1486535383.24052 | pgbench_accounts |        695533568
 2017-02-08 07:29:43.240522+01 | 1486535383.24052 | pgbench_tellers  |          2146304
 2017-02-08 07:29:43.240522+01 | 1486535383.24052 | pgbench_history  |         64872448
 2017-02-08 07:29:43.240522+01 | 1486535383.24052 | pgbench_branches |          1785856

 2017-02-08 07:29:44.375675+01 | 1486535384.37567 | pgbench_accounts |        695533568
 2017-02-08 07:29:44.375675+01 | 1486535384.37567 | pgbench_tellers  |          2146304
 2017-02-08 07:29:44.375675+01 | 1486535384.37567 | pgbench_history  |         65601536
 2017-02-08 07:29:44.375675+01 | 1486535384.37567 | pgbench_branches |          1785856

 2017-02-08 07:29:45.476925+01 | 1486535385.47692 | pgbench_accounts |        695533568
 2017-02-08 07:29:45.476925+01 | 1486535385.47692 | pgbench_tellers  |          2146304
 2017-02-08 07:29:45.476925+01 | 1486535385.47692 | pgbench_history  |         67600384
 2017-02-08 07:29:45.476925+01 | 1486535385.47692 | pgbench_branches |          1785856

 2017-02-08 07:29:46.605019+01 | 1486535386.60502 | pgbench_accounts |        695533568
 2017-02-08 07:29:46.605019+01 | 1486535386.60502 | pgbench_tellers  |          2146304
 2017-02-08 07:29:46.605019+01 | 1486535386.60502 | pgbench_history  |         67600384
 2017-02-08 07:29:46.605019+01 | 1486535386.60502 | pgbench_branches |          1785856

 2017-02-08 07:29:47.716996+01 | 1486535387.717 | pgbench_accounts |        695533568
 2017-02-08 07:29:47.716996+01 | 1486535387.717 | pgbench_tellers  |          2146304
 2017-02-08 07:29:47.716996+01 | 1486535387.717 | pgbench_history  |         68460544
 2017-02-08 07:29:47.716996+01 | 1486535387.717 | pgbench_branches |          1785856

 2017-02-08 07:29:48.842007+01 | 1486535388.84201 | pgbench_accounts |        695533568
 2017-02-08 07:29:48.842007+01 | 1486535388.84201 | pgbench_tellers  |          2146304
 2017-02-08 07:29:48.842007+01 | 1486535388.84201 | pgbench_history  |         68820992
 2017-02-08 07:29:48.842007+01 | 1486535388.84201 | pgbench_branches |          1785856

 2017-02-08 07:29:49.956866+01 | 1486535389.95687 | pgbench_accounts |        695533568
 2017-02-08 07:29:49.956866+01 | 1486535389.95687 | pgbench_tellers  |          2146304
 2017-02-08 07:29:49.956866+01 | 1486535389.95687 | pgbench_history  |         69500928
 2017-02-08 07:29:49.956866+01 | 1486535389.95687 | pgbench_branches |          1785856

 2017-02-08 07:29:51.078352+01 | 1486535391.07835 | pgbench_accounts |        695533568
 2017-02-08 07:29:51.078352+01 | 1486535391.07835 | pgbench_tellers  |          2146304
 2017-02-08 07:29:51.078352+01 | 1486535391.07835 | pgbench_history  |         70606848
 2017-02-08 07:29:51.078352+01 | 1486535391.07835 | pgbench_branches |          1785856

 2017-02-08 07:29:52.188082+01 | 1486535392.18808 | pgbench_accounts |        695533568
 2017-02-08 07:29:52.188082+01 | 1486535392.18808 | pgbench_tellers  |          2146304
 2017-02-08 07:29:52.188082+01 | 1486535392.18808 | pgbench_history  |         71286784
 2017-02-08 07:29:52.188082+01 | 1486535392.18808 | pgbench_branches |          1785856

 2017-02-08 07:29:53.329876+01 | 1486535393.32988 | pgbench_accounts |        695533568
 2017-02-08 07:29:53.329876+01 | 1486535393.32988 | pgbench_tellers  |          2146304
 2017-02-08 07:29:53.329876+01 | 1486535393.32988 | pgbench_history  |         72155136
 2017-02-08 07:29:53.329876+01 | 1486535393.32988 | pgbench_branches |          1785856

 2017-02-08 07:29:54.440717+01 | 1486535394.44072 | pgbench_accounts |        695533568
 2017-02-08 07:29:54.440717+01 | 1486535394.44072 | pgbench_tellers  |          2146304
 2017-02-08 07:29:54.440717+01 | 1486535394.44072 | pgbench_history  |         72343552
 2017-02-08 07:29:54.440717+01 | 1486535394.44072 | pgbench_branches |          1785856

 2017-02-08 07:29:55.563828+01 | 1486535395.56383 | pgbench_accounts |        695533568
 2017-02-08 07:29:55.563828+01 | 1486535395.56383 | pgbench_tellers  |          2146304
 2017-02-08 07:29:55.563828+01 | 1486535395.56383 | pgbench_history  |         73277440
 2017-02-08 07:29:55.563828+01 | 1486535395.56383 | pgbench_branches |          1785856

 2017-02-08 07:29:56.653745+01 | 1486535396.65374 | pgbench_accounts |        695533568
 2017-02-08 07:29:56.653745+01 | 1486535396.65374 | pgbench_tellers  |          2146304
 2017-02-08 07:29:56.653745+01 | 1486535396.65374 | pgbench_history  |         74145792
 2017-02-08 07:29:56.653745+01 | 1486535396.65374 | pgbench_branches |          1785856

 2017-02-08 07:29:57.778406+01 | 1486535397.77841 | pgbench_accounts |        695533568
 2017-02-08 07:29:57.778406+01 | 1486535397.77841 | pgbench_tellers  |          2146304
 2017-02-08 07:29:57.778406+01 | 1486535397.77841 | pgbench_history  |         75644928
 2017-02-08 07:29:57.778406+01 | 1486535397.77841 | pgbench_branches |          1785856

 2017-02-08 07:29:58.894576+01 | 1486535398.89458 | pgbench_accounts |        695533568
 2017-02-08 07:29:58.894576+01 | 1486535398.89458 | pgbench_tellers  |          2146304
 2017-02-08 07:29:58.894576+01 | 1486535398.89458 | pgbench_history  |         75644928
 2017-02-08 07:29:58.894576+01 | 1486535398.89458 | pgbench_branches |          1785856

 2017-02-08 07:30:00.029664+01 | 1486535400.02966 | pgbench_accounts |        695533568
 2017-02-08 07:30:00.029664+01 | 1486535400.02966 | pgbench_tellers  |          2146304
 2017-02-08 07:30:00.029664+01 | 1486535400.02966 | pgbench_history  |         76161024
 2017-02-08 07:30:00.029664+01 | 1486535400.02966 | pgbench_branches |          1785856

 2017-02-08 07:30:01.15247+01 | 1486535401.15247 | pgbench_accounts |        695533568
 2017-02-08 07:30:01.15247+01 | 1486535401.15247 | pgbench_tellers  |          2146304
 2017-02-08 07:30:01.15247+01 | 1486535401.15247 | pgbench_history  |         76922880
 2017-02-08 07:30:01.15247+01 | 1486535401.15247 | pgbench_branches |          1785856

 2017-02-08 07:30:02.259879+01 | 1486535402.25988 | pgbench_accounts |        695533568
 2017-02-08 07:30:02.259879+01 | 1486535402.25988 | pgbench_tellers  |          2146304
 2017-02-08 07:30:02.259879+01 | 1486535402.25988 | pgbench_history  |         77946880
 2017-02-08 07:30:02.259879+01 | 1486535402.25988 | pgbench_branches |          1785856

 2017-02-08 07:30:03.398263+01 | 1486535403.39826 | pgbench_accounts |        695533568
 2017-02-08 07:30:03.398263+01 | 1486535403.39826 | pgbench_tellers  |          2146304
 2017-02-08 07:30:03.398263+01 | 1486535403.39826 | pgbench_history  |         78512128
 2017-02-08 07:30:03.398263+01 | 1486535403.39826 | pgbench_branches |          1785856

 2017-02-08 07:30:04.48389+01 | 1486535404.48389 | pgbench_accounts |        695533568
 2017-02-08 07:30:04.48389+01 | 1486535404.48389 | pgbench_tellers  |          2146304
 2017-02-08 07:30:04.48389+01 | 1486535404.48389 | pgbench_history  |         79200256
 2017-02-08 07:30:04.48389+01 | 1486535404.48389 | pgbench_branches |          1785856

 2017-02-08 07:30:05.587645+01 | 1486535405.58765 | pgbench_accounts |        695533568
 2017-02-08 07:30:05.587645+01 | 1486535405.58765 | pgbench_tellers  |          2146304
 2017-02-08 07:30:05.587645+01 | 1486535405.58765 | pgbench_history  |         79904768
 2017-02-08 07:30:05.587645+01 | 1486535405.58765 | pgbench_branches |          1785856

 2017-02-08 07:30:06.702283+01 | 1486535406.70228 | pgbench_accounts |        695533568
 2017-02-08 07:30:06.702283+01 | 1486535406.70228 | pgbench_tellers  |          2146304
 2017-02-08 07:30:06.702283+01 | 1486535406.70228 | pgbench_history  |         80650240
 2017-02-08 07:30:06.702283+01 | 1486535406.70228 | pgbench_branches |          1785856

 2017-02-08 07:30:07.793918+01 | 1486535407.79392 | pgbench_accounts |        695533568
 2017-02-08 07:30:07.793918+01 | 1486535407.79392 | pgbench_tellers  |          2146304
 2017-02-08 07:30:07.793918+01 | 1486535407.79392 | pgbench_history  |         81379328
 2017-02-08 07:30:07.793918+01 | 1486535407.79392 | pgbench_branches |          1785856

 2017-02-08 07:30:08.861433+01 | 1486535408.86143 | pgbench_accounts |        695533568
 2017-02-08 07:30:08.861433+01 | 1486535408.86143 | pgbench_tellers  |          2146304
 2017-02-08 07:30:08.861433+01 | 1486535408.86143 | pgbench_history  |         82100224
 2017-02-08 07:30:08.861433+01 | 1486535408.86143 | pgbench_branches |          1785856

 2017-02-08 07:30:09.935893+01 | 1486535409.93589 | pgbench_accounts |        695533568
 2017-02-08 07:30:09.935893+01 | 1486535409.93589 | pgbench_tellers  |          2146304
 2017-02-08 07:30:09.935893+01 | 1486535409.93589 | pgbench_history  |         82829312
 2017-02-08 07:30:09.935893+01 | 1486535409.93589 | pgbench_branches |          1785856

 2017-02-08 07:30:11.031876+01 | 1486535411.03188 | pgbench_accounts |        695533568
 2017-02-08 07:30:11.031876+01 | 1486535411.03188 | pgbench_tellers  |          2146304
 2017-02-08 07:30:11.031876+01 | 1486535411.03188 | pgbench_history  |         83582976
 2017-02-08 07:30:11.031876+01 | 1486535411.03188 | pgbench_branches |          1785856

 2017-02-08 07:30:12.176041+01 | 1486535412.17604 | pgbench_accounts |        695533568
 2017-02-08 07:30:12.176041+01 | 1486535412.17604 | pgbench_tellers  |          2146304
 2017-02-08 07:30:12.176041+01 | 1486535412.17604 | pgbench_history  |         84353024
 2017-02-08 07:30:12.176041+01 | 1486535412.17604 | pgbench_branches |          1785856

 2017-02-08 07:30:13.283438+01 | 1486535413.28344 | pgbench_accounts |        695533568
 2017-02-08 07:30:13.283438+01 | 1486535413.28344 | pgbench_tellers  |          2146304
 2017-02-08 07:30:13.283438+01 | 1486535413.28344 | pgbench_history  |         85106688
 2017-02-08 07:30:13.283438+01 | 1486535413.28344 | pgbench_branches |          1785856

 2017-02-08 07:30:14.393711+01 | 1486535414.39371 | pgbench_accounts |        695533568
 2017-02-08 07:30:14.393711+01 | 1486535414.39371 | pgbench_tellers  |          2146304
 2017-02-08 07:30:14.393711+01 | 1486535414.39371 | pgbench_history  |         85868544
 2017-02-08 07:30:14.393711+01 | 1486535414.39371 | pgbench_branches |          1785856

 2017-02-08 07:30:15.503027+01 | 1486535415.50303 | pgbench_accounts |        695533568
 2017-02-08 07:30:15.503027+01 | 1486535415.50303 | pgbench_tellers  |          2146304
 2017-02-08 07:30:15.503027+01 | 1486535415.50303 | pgbench_history  |         86589440
 2017-02-08 07:30:15.503027+01 | 1486535415.50303 | pgbench_branches |          1785856

 2017-02-08 07:30:16.611528+01 | 1486535416.61153 | pgbench_accounts |        695533568
 2017-02-08 07:30:16.611528+01 | 1486535416.61153 | pgbench_tellers  |          2146304
 2017-02-08 07:30:16.611528+01 | 1486535416.61153 | pgbench_history  |         87343104
 2017-02-08 07:30:16.611528+01 | 1486535416.61153 | pgbench_branches |          1785856

 2017-02-08 07:30:17.733399+01 | 1486535417.7334 | pgbench_accounts |        695533568
 2017-02-08 07:30:17.733399+01 | 1486535417.7334 | pgbench_tellers  |          2146304
 2017-02-08 07:30:17.733399+01 | 1486535417.7334 | pgbench_history  |         89202688
 2017-02-08 07:30:17.733399+01 | 1486535417.7334 | pgbench_branches |          1785856

 2017-02-08 07:30:18.864924+01 | 1486535418.86492 | pgbench_accounts |        695533568
 2017-02-08 07:30:18.864924+01 | 1486535418.86492 | pgbench_tellers  |          2146304
 2017-02-08 07:30:18.864924+01 | 1486535418.86492 | pgbench_history  |         89202688
 2017-02-08 07:30:18.864924+01 | 1486535418.86492 | pgbench_branches |          1785856

 2017-02-08 07:30:19.976524+01 | 1486535419.97652 | pgbench_accounts |        695533568
 2017-02-08 07:30:19.976524+01 | 1486535419.97652 | pgbench_tellers  |          2146304
 2017-02-08 07:30:19.976524+01 | 1486535419.97652 | pgbench_history  |         89743360
 2017-02-08 07:30:19.976524+01 | 1486535419.97652 | pgbench_branches |          1785856

 2017-02-08 07:30:21.104919+01 | 1486535421.10492 | pgbench_accounts |        695533568
 2017-02-08 07:30:21.104919+01 | 1486535421.10492 | pgbench_tellers  |          2146304
 2017-02-08 07:30:21.104919+01 | 1486535421.10492 | pgbench_history  |         90365952
 2017-02-08 07:30:21.104919+01 | 1486535421.10492 | pgbench_branches |          1785856

 2017-02-08 07:30:22.187397+01 | 1486535422.1874 | pgbench_accounts |        695533568
 2017-02-08 07:30:22.187397+01 | 1486535422.1874 | pgbench_tellers  |          2146304
 2017-02-08 07:30:22.187397+01 | 1486535422.1874 | pgbench_history  |         91021312
 2017-02-08 07:30:22.187397+01 | 1486535422.1874 | pgbench_branches |          1785856

 2017-02-08 07:30:23.279421+01 | 1486535423.27942 | pgbench_accounts |        695533568
 2017-02-08 07:30:23.279421+01 | 1486535423.27942 | pgbench_tellers  |          2146304
 2017-02-08 07:30:23.279421+01 | 1486535423.27942 | pgbench_history  |         91750400
 2017-02-08 07:30:23.279421+01 | 1486535423.27942 | pgbench_branches |          1785856

 2017-02-08 07:30:24.403315+01 | 1486535424.40332 | pgbench_accounts |        695533568
 2017-02-08 07:30:24.403315+01 | 1486535424.40332 | pgbench_tellers  |          2146304
 2017-02-08 07:30:24.403315+01 | 1486535424.40332 | pgbench_history  |         92463104
 2017-02-08 07:30:24.403315+01 | 1486535424.40332 | pgbench_branches |          1785856

 2017-02-08 07:30:25.550093+01 | 1486535425.55009 | pgbench_accounts |        695533568
 2017-02-08 07:30:25.550093+01 | 1486535425.55009 | pgbench_tellers  |          2146304
 2017-02-08 07:30:25.550093+01 | 1486535425.55009 | pgbench_history  |         93200384
 2017-02-08 07:30:25.550093+01 | 1486535425.55009 | pgbench_branches |          1785856

 2017-02-08 07:30:26.649446+01 | 1486535426.64945 | pgbench_accounts |        695533568
 2017-02-08 07:30:26.649446+01 | 1486535426.64945 | pgbench_tellers  |          2146304
 2017-02-08 07:30:26.649446+01 | 1486535426.64945 | pgbench_history  |         94552064
 2017-02-08 07:30:26.649446+01 | 1486535426.64945 | pgbench_branches |          1785856

 2017-02-08 07:30:27.73184+01 | 1486535427.73184 | pgbench_accounts |        695533568
 2017-02-08 07:30:27.73184+01 | 1486535427.73184 | pgbench_tellers  |          2146304
 2017-02-08 07:30:27.73184+01 | 1486535427.73184 | pgbench_history  |         94789632
 2017-02-08 07:30:27.73184+01 | 1486535427.73184 | pgbench_branches |          1785856

 2017-02-08 07:30:28.841025+01 | 1486535428.84103 | pgbench_accounts |        695533568
 2017-02-08 07:30:28.841025+01 | 1486535428.84103 | pgbench_tellers  |          2146304
 2017-02-08 07:30:28.841025+01 | 1486535428.84103 | pgbench_history  |         95526912
 2017-02-08 07:30:28.841025+01 | 1486535428.84103 | pgbench_branches |          1785856

 2017-02-08 07:30:29.953319+01 | 1486535429.95332 | pgbench_accounts |        695533568
 2017-02-08 07:30:29.953319+01 | 1486535429.95332 | pgbench_tellers  |          2146304
 2017-02-08 07:30:29.953319+01 | 1486535429.95332 | pgbench_history  |         96321536
 2017-02-08 07:30:29.953319+01 | 1486535429.95332 | pgbench_branches |          1785856

 2017-02-08 07:30:31.046443+01 | 1486535431.04644 | pgbench_accounts |        695533568
 2017-02-08 07:30:31.046443+01 | 1486535431.04644 | pgbench_tellers  |          2146304
 2017-02-08 07:30:31.046443+01 | 1486535431.04644 | pgbench_history  |         97091584
 2017-02-08 07:30:31.046443+01 | 1486535431.04644 | pgbench_branches |          1785856

 2017-02-08 07:30:32.152136+01 | 1486535432.15214 | pgbench_accounts |        695533568
 2017-02-08 07:30:32.152136+01 | 1486535432.15214 | pgbench_tellers  |          2146304
 2017-02-08 07:30:32.152136+01 | 1486535432.15214 | pgbench_history  |         97869824
 2017-02-08 07:30:32.152136+01 | 1486535432.15214 | pgbench_branches |          1785856

 2017-02-08 07:30:33.245972+01 | 1486535433.24597 | pgbench_accounts |        695533568
 2017-02-08 07:30:33.245972+01 | 1486535433.24597 | pgbench_tellers  |          2146304
 2017-02-08 07:30:33.245972+01 | 1486535433.24597 | pgbench_history  |         98631680
 2017-02-08 07:30:33.245972+01 | 1486535433.24597 | pgbench_branches |          1785856

 2017-02-08 07:30:34.343285+01 | 1486535434.34329 | pgbench_accounts |        695533568
 2017-02-08 07:30:34.343285+01 | 1486535434.34329 | pgbench_tellers  |          2146304
 2017-02-08 07:30:34.343285+01 | 1486535434.34329 | pgbench_history  |         99385344
 2017-02-08 07:30:34.343285+01 | 1486535434.34329 | pgbench_branches |          1785856

 2017-02-08 07:30:35.448899+01 | 1486535435.4489 | pgbench_accounts |        695533568
 2017-02-08 07:30:35.448899+01 | 1486535435.4489 | pgbench_tellers  |          2146304
 2017-02-08 07:30:35.448899+01 | 1486535435.4489 | pgbench_history  |        100147200
 2017-02-08 07:30:35.448899+01 | 1486535435.4489 | pgbench_branches |          1785856

 2017-02-08 07:30:36.549181+01 | 1486535436.54918 | pgbench_accounts |        695533568
 2017-02-08 07:30:36.549181+01 | 1486535436.54918 | pgbench_tellers  |          2146304
 2017-02-08 07:30:36.549181+01 | 1486535436.54918 | pgbench_history  |        100925440
 2017-02-08 07:30:36.549181+01 | 1486535436.54918 | pgbench_branches |          1785856

 2017-02-08 07:30:37.633792+01 | 1486535437.63379 | pgbench_accounts |        695533568
 2017-02-08 07:30:37.633792+01 | 1486535437.63379 | pgbench_tellers  |          2146304
 2017-02-08 07:30:37.633792+01 | 1486535437.63379 | pgbench_history  |        101900288
 2017-02-08 07:30:37.633792+01 | 1486535437.63379 | pgbench_branches |          1785856

 2017-02-08 07:30:38.717438+01 | 1486535438.71744 | pgbench_accounts |        695533568
 2017-02-08 07:30:38.717438+01 | 1486535438.71744 | pgbench_tellers  |          2146304
 2017-02-08 07:30:38.717438+01 | 1486535438.71744 | pgbench_history  |        102662144
 2017-02-08 07:30:38.717438+01 | 1486535438.71744 | pgbench_branches |          1785856

 2017-02-08 07:30:39.804943+01 | 1486535439.80494 | pgbench_accounts |        695533568
 2017-02-08 07:30:39.804943+01 | 1486535439.80494 | pgbench_tellers  |          2146304
 2017-02-08 07:30:39.804943+01 | 1486535439.80494 | pgbench_history  |        103874560
 2017-02-08 07:30:39.804943+01 | 1486535439.80494 | pgbench_branches |          1785856

 2017-02-08 07:30:40.922593+01 | 1486535440.92259 | pgbench_accounts |        695533568
 2017-02-08 07:30:40.922593+01 | 1486535440.92259 | pgbench_tellers  |          2146304
 2017-02-08 07:30:40.922593+01 | 1486535440.92259 | pgbench_history  |        103874560
 2017-02-08 07:30:40.922593+01 | 1486535440.92259 | pgbench_branches |          1785856

 2017-02-08 07:30:42.010519+01 | 1486535442.01052 | pgbench_accounts |        695533568
 2017-02-08 07:30:42.010519+01 | 1486535442.01052 | pgbench_tellers  |          2146304
 2017-02-08 07:30:42.010519+01 | 1486535442.01052 | pgbench_history  |        104677376
 2017-02-08 07:30:42.010519+01 | 1486535442.01052 | pgbench_branches |          1785856

 2017-02-08 07:30:43.135242+01 | 1486535443.13524 | pgbench_accounts |        695533568
 2017-02-08 07:30:43.135242+01 | 1486535443.13524 | pgbench_tellers  |          2146304
 2017-02-08 07:30:43.135242+01 | 1486535443.13524 | pgbench_history  |        105570304
 2017-02-08 07:30:43.135242+01 | 1486535443.13524 | pgbench_branches |          1785856

 2017-02-08 07:30:44.222614+01 | 1486535444.22261 | pgbench_accounts |        695533568
 2017-02-08 07:30:44.222614+01 | 1486535444.22261 | pgbench_tellers  |          2146304
 2017-02-08 07:30:44.222614+01 | 1486535444.22261 | pgbench_history  |        107347968
 2017-02-08 07:30:44.222614+01 | 1486535444.22261 | pgbench_branches |          1785856

 2017-02-08 07:30:45.321467+01 | 1486535445.32147 | pgbench_accounts |        695533568
 2017-02-08 07:30:45.321467+01 | 1486535445.32147 | pgbench_tellers  |          2146304
 2017-02-08 07:30:45.321467+01 | 1486535445.32147 | pgbench_history  |        107347968
 2017-02-08 07:30:45.321467+01 | 1486535445.32147 | pgbench_branches |          1785856

 2017-02-08 07:30:46.427098+01 | 1486535446.4271 | pgbench_accounts |        695533568
 2017-02-08 07:30:46.427098+01 | 1486535446.4271 | pgbench_tellers  |          2146304
 2017-02-08 07:30:46.427098+01 | 1486535446.4271 | pgbench_history  |        107700224
 2017-02-08 07:30:46.427098+01 | 1486535446.4271 | pgbench_branches |          1785856

 2017-02-08 07:30:47.533506+01 | 1486535447.53351 | pgbench_accounts |        695533568
 2017-02-08 07:30:47.533506+01 | 1486535447.53351 | pgbench_tellers  |          2146304
 2017-02-08 07:30:47.533506+01 | 1486535447.53351 | pgbench_history  |        108945408
 2017-02-08 07:30:47.533506+01 | 1486535447.53351 | pgbench_branches |          1785856

 2017-02-08 07:30:48.617769+01 | 1486535448.61777 | pgbench_accounts |        695533568
 2017-02-08 07:30:48.617769+01 | 1486535448.61777 | pgbench_tellers  |          2146304
 2017-02-08 07:30:48.617769+01 | 1486535448.61777 | pgbench_history  |        109330432
 2017-02-08 07:30:48.617769+01 | 1486535448.61777 | pgbench_branches |          1785856

 2017-02-08 07:30:49.718418+01 | 1486535449.71842 | pgbench_accounts |        695533568
 2017-02-08 07:30:49.718418+01 | 1486535449.71842 | pgbench_tellers  |          2146304
 2017-02-08 07:30:49.718418+01 | 1486535449.71842 | pgbench_history  |        110125056
 2017-02-08 07:30:49.718418+01 | 1486535449.71842 | pgbench_branches |          1785856

 2017-02-08 07:30:50.829721+01 | 1486535450.82972 | pgbench_accounts |        695533568
 2017-02-08 07:30:50.829721+01 | 1486535450.82972 | pgbench_tellers  |          2146304
 2017-02-08 07:30:50.829721+01 | 1486535450.82972 | pgbench_history  |        110870528
 2017-02-08 07:30:50.829721+01 | 1486535450.82972 | pgbench_branches |          1785856

 2017-02-08 07:30:51.953307+01 | 1486535451.95331 | pgbench_accounts |        695533568
 2017-02-08 07:30:51.953307+01 | 1486535451.95331 | pgbench_tellers  |          2146304
 2017-02-08 07:30:51.953307+01 | 1486535451.95331 | pgbench_history  |        111640576
 2017-02-08 07:30:51.953307+01 | 1486535451.95331 | pgbench_branches |          1785856

 2017-02-08 07:30:53.07388+01 | 1486535453.07388 | pgbench_accounts |        695533568
 2017-02-08 07:30:53.07388+01 | 1486535453.07388 | pgbench_tellers  |          2146304
 2017-02-08 07:30:53.07388+01 | 1486535453.07388 | pgbench_history  |        112336896
 2017-02-08 07:30:53.07388+01 | 1486535453.07388 | pgbench_branches |          1785856

 2017-02-08 07:30:54.18935+01 | 1486535454.18935 | pgbench_accounts |        695533568
 2017-02-08 07:30:54.18935+01 | 1486535454.18935 | pgbench_tellers  |          2146304
 2017-02-08 07:30:54.18935+01 | 1486535454.18935 | pgbench_history  |        113344512
 2017-02-08 07:30:54.18935+01 | 1486535454.18935 | pgbench_branches |          1785856

 2017-02-08 07:30:55.309797+01 | 1486535455.3098 | pgbench_accounts |        695533568
 2017-02-08 07:30:55.309797+01 | 1486535455.3098 | pgbench_tellers  |          2146304
 2017-02-08 07:30:55.309797+01 | 1486535455.3098 | pgbench_history  |        114212864
 2017-02-08 07:30:55.309797+01 | 1486535455.3098 | pgbench_branches |          1785856

 2017-02-08 07:30:56.380572+01 | 1486535456.38057 | pgbench_accounts |        695533568
 2017-02-08 07:30:56.380572+01 | 1486535456.38057 | pgbench_tellers  |          2146304
 2017-02-08 07:30:56.380572+01 | 1486535456.38057 | pgbench_history  |        114589696
 2017-02-08 07:30:56.380572+01 | 1486535456.38057 | pgbench_branches |          1785856

 2017-02-08 07:30:57.482381+01 | 1486535457.48238 | pgbench_accounts |        695533568
 2017-02-08 07:30:57.482381+01 | 1486535457.48238 | pgbench_tellers  |          2146304
 2017-02-08 07:30:57.482381+01 | 1486535457.48238 | pgbench_history  |        115572736
 2017-02-08 07:30:57.482381+01 | 1486535457.48238 | pgbench_branches |          1785856

 2017-02-08 07:30:58.591819+01 | 1486535458.59182 | pgbench_accounts |        695533568
 2017-02-08 07:30:58.591819+01 | 1486535458.59182 | pgbench_tellers  |          2146304
 2017-02-08 07:30:58.591819+01 | 1486535458.59182 | pgbench_history  |        116162560
 2017-02-08 07:30:58.591819+01 | 1486535458.59182 | pgbench_branches |          1785856

 2017-02-08 07:30:59.720453+01 | 1486535459.72045 | pgbench_accounts |        695533568
 2017-02-08 07:30:59.720453+01 | 1486535459.72045 | pgbench_tellers  |          2146304
 2017-02-08 07:30:59.720453+01 | 1486535459.72045 | pgbench_history  |        116981760
 2017-02-08 07:30:59.720453+01 | 1486535459.72045 | pgbench_branches |          1785856

 2017-02-08 07:31:00.819185+01 | 1486535460.81919 | pgbench_accounts |        695533568
 2017-02-08 07:31:00.819185+01 | 1486535460.81919 | pgbench_tellers  |          2146304
 2017-02-08 07:31:00.819185+01 | 1486535460.81919 | pgbench_history  |        117743616
 2017-02-08 07:31:00.819185+01 | 1486535460.81919 | pgbench_branches |          1785856

 2017-02-08 07:31:01.947279+01 | 1486535461.94728 | pgbench_accounts |        695533568
 2017-02-08 07:31:01.947279+01 | 1486535461.94728 | pgbench_tellers  |          2146304
 2017-02-08 07:31:01.947279+01 | 1486535461.94728 | pgbench_history  |        118505472
 2017-02-08 07:31:01.947279+01 | 1486535461.94728 | pgbench_branches |          1785856

 2017-02-08 07:31:03.062088+01 | 1486535463.06209 | pgbench_accounts |        695533568
 2017-02-08 07:31:03.062088+01 | 1486535463.06209 | pgbench_tellers  |          2146304
 2017-02-08 07:31:03.062088+01 | 1486535463.06209 | pgbench_history  |        119250944
 2017-02-08 07:31:03.062088+01 | 1486535463.06209 | pgbench_branches |          1785856

 2017-02-08 07:31:04.154243+01 | 1486535464.15424 | pgbench_accounts |        695533568
 2017-02-08 07:31:04.154243+01 | 1486535464.15424 | pgbench_tellers  |          2146304
 2017-02-08 07:31:04.154243+01 | 1486535464.15424 | pgbench_history  |        120004608
 2017-02-08 07:31:04.154243+01 | 1486535464.15424 | pgbench_branches |          1785856

 2017-02-08 07:31:05.257514+01 | 1486535465.25751 | pgbench_accounts |        695533568
 2017-02-08 07:31:05.257514+01 | 1486535465.25751 | pgbench_tellers  |          2146304
 2017-02-08 07:31:05.257514+01 | 1486535465.25751 | pgbench_history  |        120766464
 2017-02-08 07:31:05.257514+01 | 1486535465.25751 | pgbench_branches |          1785856

 2017-02-08 07:31:06.343354+01 | 1486535466.34335 | pgbench_accounts |        695533568
 2017-02-08 07:31:06.343354+01 | 1486535466.34335 | pgbench_tellers  |          2146304
 2017-02-08 07:31:06.343354+01 | 1486535466.34335 | pgbench_history  |        121643008
 2017-02-08 07:31:06.343354+01 | 1486535466.34335 | pgbench_branches |          1785856

 2017-02-08 07:31:07.449523+01 | 1486535467.44952 | pgbench_accounts |        695533568
 2017-02-08 07:31:07.449523+01 | 1486535467.44952 | pgbench_tellers  |          2146304
 2017-02-08 07:31:07.449523+01 | 1486535467.44952 | pgbench_history  |        122699776
 2017-02-08 07:31:07.449523+01 | 1486535467.44952 | pgbench_branches |          1785856

 2017-02-08 07:31:08.545015+01 | 1486535468.54502 | pgbench_accounts |        695533568
 2017-02-08 07:31:08.545015+01 | 1486535468.54502 | pgbench_tellers  |          2146304
 2017-02-08 07:31:08.545015+01 | 1486535468.54502 | pgbench_history  |        123117568
 2017-02-08 07:31:08.545015+01 | 1486535468.54502 | pgbench_branches |          1785856

 2017-02-08 07:31:09.63921+01 | 1486535469.63921 | pgbench_accounts |        695533568
 2017-02-08 07:31:09.63921+01 | 1486535469.63921 | pgbench_tellers  |          2146304
 2017-02-08 07:31:09.63921+01 | 1486535469.63921 | pgbench_history  |        124010496
 2017-02-08 07:31:09.63921+01 | 1486535469.63921 | pgbench_branches |          1785856

 2017-02-08 07:31:10.74278+01 | 1486535470.74278 | pgbench_accounts |        695533568
 2017-02-08 07:31:10.74278+01 | 1486535470.74278 | pgbench_tellers  |          2146304
 2017-02-08 07:31:10.74278+01 | 1486535470.74278 | pgbench_history  |        124592128
 2017-02-08 07:31:10.74278+01 | 1486535470.74278 | pgbench_branches |          1785856

 2017-02-08 07:31:11.860968+01 | 1486535471.86097 | pgbench_accounts |        695533568
 2017-02-08 07:31:11.860968+01 | 1486535471.86097 | pgbench_tellers  |          2146304
 2017-02-08 07:31:11.860968+01 | 1486535471.86097 | pgbench_history  |        125288448
 2017-02-08 07:31:11.860968+01 | 1486535471.86097 | pgbench_branches |          1785856

 2017-02-08 07:31:12.963283+01 | 1486535472.96328 | pgbench_accounts |        695533568
 2017-02-08 07:31:12.963283+01 | 1486535472.96328 | pgbench_tellers  |          2146304
 2017-02-08 07:31:12.963283+01 | 1486535472.96328 | pgbench_history  |        126050304
 2017-02-08 07:31:12.963283+01 | 1486535472.96328 | pgbench_branches |          1785856

 2017-02-08 07:31:14.090796+01 | 1486535474.0908 | pgbench_accounts |        695533568
 2017-02-08 07:31:14.090796+01 | 1486535474.0908 | pgbench_tellers  |          2146304
 2017-02-08 07:31:14.090796+01 | 1486535474.0908 | pgbench_history  |        126861312
 2017-02-08 07:31:14.090796+01 | 1486535474.0908 | pgbench_branches |          1785856

 2017-02-08 07:31:15.197795+01 | 1486535475.19779 | pgbench_accounts |        695533568
 2017-02-08 07:31:15.197795+01 | 1486535475.19779 | pgbench_tellers  |          2146304
 2017-02-08 07:31:15.197795+01 | 1486535475.19779 | pgbench_history  |        127598592
 2017-02-08 07:31:15.197795+01 | 1486535475.19779 | pgbench_branches |          1785856

 2017-02-08 07:31:16.311077+01 | 1486535476.31108 | pgbench_accounts |        695533568
 2017-02-08 07:31:16.311077+01 | 1486535476.31108 | pgbench_tellers  |          2146304
 2017-02-08 07:31:16.311077+01 | 1486535476.31108 | pgbench_history  |        128385024
 2017-02-08 07:31:16.311077+01 | 1486535476.31108 | pgbench_branches |          1785856

 2017-02-08 07:31:17.42996+01 | 1486535477.42996 | pgbench_accounts |        695533568
 2017-02-08 07:31:17.42996+01 | 1486535477.42996 | pgbench_tellers  |          2146304
 2017-02-08 07:31:17.42996+01 | 1486535477.42996 | pgbench_history  |        129638400
 2017-02-08 07:31:17.42996+01 | 1486535477.42996 | pgbench_branches |          1785856

 2017-02-08 07:31:18.541881+01 | 1486535478.54188 | pgbench_accounts |        695533568
 2017-02-08 07:31:18.541881+01 | 1486535478.54188 | pgbench_tellers  |          2146304
 2017-02-08 07:31:18.541881+01 | 1486535478.54188 | pgbench_history  |        130023424
 2017-02-08 07:31:18.541881+01 | 1486535478.54188 | pgbench_branches |          1785856

 2017-02-08 07:31:19.641572+01 | 1486535479.64157 | pgbench_accounts |        695533568
 2017-02-08 07:31:19.641572+01 | 1486535479.64157 | pgbench_tellers  |          2146304
 2017-02-08 07:31:19.641572+01 | 1486535479.64157 | pgbench_history  |        130605056
 2017-02-08 07:31:19.641572+01 | 1486535479.64157 | pgbench_branches |          1785856

 2017-02-08 07:31:20.758536+01 | 1486535480.75854 | pgbench_accounts |        695533568
 2017-02-08 07:31:20.758536+01 | 1486535480.75854 | pgbench_tellers  |          2146304
 2017-02-08 07:31:20.758536+01 | 1486535480.75854 | pgbench_history  |        131325952
 2017-02-08 07:31:20.758536+01 | 1486535480.75854 | pgbench_branches |          1785856

 2017-02-08 07:31:21.860048+01 | 1486535481.86005 | pgbench_accounts |        695533568
 2017-02-08 07:31:21.860048+01 | 1486535481.86005 | pgbench_tellers  |          2146304
 2017-02-08 07:31:21.860048+01 | 1486535481.86005 | pgbench_history  |        132038656
 2017-02-08 07:31:21.860048+01 | 1486535481.86005 | pgbench_branches |          1785856

 2017-02-08 07:31:22.948647+01 | 1486535482.94865 | pgbench_accounts |        695533568
 2017-02-08 07:31:22.948647+01 | 1486535482.94865 | pgbench_tellers  |          2146304
 2017-02-08 07:31:22.948647+01 | 1486535482.94865 | pgbench_history  |        132759552
 2017-02-08 07:31:22.948647+01 | 1486535482.94865 | pgbench_branches |          1785856

 2017-02-08 07:31:24.041849+01 | 1486535484.04185 | pgbench_accounts |        695533568
 2017-02-08 07:31:24.041849+01 | 1486535484.04185 | pgbench_tellers  |          2146304
 2017-02-08 07:31:24.041849+01 | 1486535484.04185 | pgbench_history  |        133447680
 2017-02-08 07:31:24.041849+01 | 1486535484.04185 | pgbench_branches |          1785856

 2017-02-08 07:31:25.141856+01 | 1486535485.14186 | pgbench_accounts |        695533568
 2017-02-08 07:31:25.141856+01 | 1486535485.14186 | pgbench_tellers  |          2146304
 2017-02-08 07:31:25.141856+01 | 1486535485.14186 | pgbench_history  |        134176768
 2017-02-08 07:31:25.141856+01 | 1486535485.14186 | pgbench_branches |          1785856

 2017-02-08 07:31:26.245813+01 | 1486535486.24581 | pgbench_accounts |        695533568
 2017-02-08 07:31:26.245813+01 | 1486535486.24581 | pgbench_tellers  |          2146304
 2017-02-08 07:31:26.245813+01 | 1486535486.24581 | pgbench_history  |        134955008
 2017-02-08 07:31:26.245813+01 | 1486535486.24581 | pgbench_branches |          1785856

 2017-02-08 07:31:27.353724+01 | 1486535487.35372 | pgbench_accounts |        695533568
 2017-02-08 07:31:27.353724+01 | 1486535487.35372 | pgbench_tellers  |          2146304
 2017-02-08 07:31:27.353724+01 | 1486535487.35372 | pgbench_history  |        135741440
 2017-02-08 07:31:27.353724+01 | 1486535487.35372 | pgbench_branches |          1785856

 2017-02-08 07:31:28.460828+01 | 1486535488.46083 | pgbench_accounts |        695533568
 2017-02-08 07:31:28.460828+01 | 1486535488.46083 | pgbench_tellers  |          2146304
 2017-02-08 07:31:28.460828+01 | 1486535488.46083 | pgbench_history  |        136470528
 2017-02-08 07:31:28.460828+01 | 1486535488.46083 | pgbench_branches |          1785856

 2017-02-08 07:31:29.572414+01 | 1486535489.57241 | pgbench_accounts |        695533568
 2017-02-08 07:31:29.572414+01 | 1486535489.57241 | pgbench_tellers  |          2146304
 2017-02-08 07:31:29.572414+01 | 1486535489.57241 | pgbench_history  |        137216000
 2017-02-08 07:31:29.572414+01 | 1486535489.57241 | pgbench_branches |          1785856

 2017-02-08 07:31:30.680436+01 | 1486535490.68044 | pgbench_accounts |        695533568
 2017-02-08 07:31:30.680436+01 | 1486535490.68044 | pgbench_tellers  |          2146304
 2017-02-08 07:31:30.680436+01 | 1486535490.68044 | pgbench_history  |        137969664
 2017-02-08 07:31:30.680436+01 | 1486535490.68044 | pgbench_branches |          1785856

 2017-02-08 07:31:31.762356+01 | 1486535491.76236 | pgbench_accounts |        695533568
 2017-02-08 07:31:31.762356+01 | 1486535491.76236 | pgbench_tellers  |          2146304
 2017-02-08 07:31:31.762356+01 | 1486535491.76236 | pgbench_history  |        138723328
 2017-02-08 07:31:31.762356+01 | 1486535491.76236 | pgbench_branches |          1785856

 2017-02-08 07:31:32.89047+01 | 1486535492.89047 | pgbench_accounts |        695533568
 2017-02-08 07:31:32.89047+01 | 1486535492.89047 | pgbench_tellers  |          2146304
 2017-02-08 07:31:32.89047+01 | 1486535492.89047 | pgbench_history  |        139526144
 2017-02-08 07:31:32.89047+01 | 1486535492.89047 | pgbench_branches |          1785856

 2017-02-08 07:31:34.008363+01 | 1486535494.00836 | pgbench_accounts |        695533568
 2017-02-08 07:31:34.008363+01 | 1486535494.00836 | pgbench_tellers  |          2146304
 2017-02-08 07:31:34.008363+01 | 1486535494.00836 | pgbench_history  |        140222464
 2017-02-08 07:31:34.008363+01 | 1486535494.00836 | pgbench_branches |          1785856

 2017-02-08 07:31:35.131083+01 | 1486535495.13108 | pgbench_accounts |        695533568
 2017-02-08 07:31:35.131083+01 | 1486535495.13108 | pgbench_tellers  |          2146304
 2017-02-08 07:31:35.131083+01 | 1486535495.13108 | pgbench_history  |        140861440
 2017-02-08 07:31:35.131083+01 | 1486535495.13108 | pgbench_branches |          1785856

 2017-02-08 07:31:36.218926+01 | 1486535496.21893 | pgbench_accounts |        695533568
 2017-02-08 07:31:36.218926+01 | 1486535496.21893 | pgbench_tellers  |          2146304
 2017-02-08 07:31:36.218926+01 | 1486535496.21893 | pgbench_history  |        141795328
 2017-02-08 07:31:36.218926+01 | 1486535496.21893 | pgbench_branches |          1785856

 2017-02-08 07:31:37.320112+01 | 1486535497.32011 | pgbench_accounts |        695533568
 2017-02-08 07:31:37.320112+01 | 1486535497.32011 | pgbench_tellers  |          2146304
 2017-02-08 07:31:37.320112+01 | 1486535497.32011 | pgbench_history  |        142483456
 2017-02-08 07:31:37.320112+01 | 1486535497.32011 | pgbench_branches |          1785856

 2017-02-08 07:31:38.44402+01 | 1486535498.44402 | pgbench_accounts |        695533568
 2017-02-08 07:31:38.44402+01 | 1486535498.44402 | pgbench_tellers  |          2146304
 2017-02-08 07:31:38.44402+01 | 1486535498.44402 | pgbench_history  |        143163392
 2017-02-08 07:31:38.44402+01 | 1486535498.44402 | pgbench_branches |          1785856

 2017-02-08 07:31:39.551855+01 | 1486535499.55186 | pgbench_accounts |        695533568
 2017-02-08 07:31:39.551855+01 | 1486535499.55186 | pgbench_tellers  |          2146304
 2017-02-08 07:31:39.551855+01 | 1486535499.55186 | pgbench_history  |        144187392
 2017-02-08 07:31:39.551855+01 | 1486535499.55186 | pgbench_branches |          1785856

 2017-02-08 07:31:40.660401+01 | 1486535500.6604 | pgbench_accounts |        695533568
 2017-02-08 07:31:40.660401+01 | 1486535500.6604 | pgbench_tellers  |          2146304
 2017-02-08 07:31:40.660401+01 | 1486535500.6604 | pgbench_history  |        144564224
 2017-02-08 07:31:40.660401+01 | 1486535500.6604 | pgbench_branches |          1785856

 2017-02-08 07:31:41.759167+01 | 1486535501.75917 | pgbench_accounts |        695533568
 2017-02-08 07:31:41.759167+01 | 1486535501.75917 | pgbench_tellers  |          2146304
 2017-02-08 07:31:41.759167+01 | 1486535501.75917 | pgbench_history  |        145440768
 2017-02-08 07:31:41.759167+01 | 1486535501.75917 | pgbench_branches |          1785856

 2017-02-08 07:31:42.866945+01 | 1486535502.86695 | pgbench_accounts |        695533568
 2017-02-08 07:31:42.866945+01 | 1486535502.86695 | pgbench_tellers  |          2146304
 2017-02-08 07:31:42.866945+01 | 1486535502.86695 | pgbench_history  |        146137088
 2017-02-08 07:31:42.866945+01 | 1486535502.86695 | pgbench_branches |          1785856

 2017-02-08 07:31:43.989384+01 | 1486535503.98938 | pgbench_accounts |        695533568
 2017-02-08 07:31:43.989384+01 | 1486535503.98938 | pgbench_tellers  |          2146304
 2017-02-08 07:31:43.989384+01 | 1486535503.98938 | pgbench_history  |        146956288
 2017-02-08 07:31:43.989384+01 | 1486535503.98938 | pgbench_branches |          1785856

 2017-02-08 07:31:45.126005+01 | 1486535505.126 | pgbench_accounts |        695533568
 2017-02-08 07:31:45.126005+01 | 1486535505.126 | pgbench_tellers  |          2146304
 2017-02-08 07:31:45.126005+01 | 1486535505.126 | pgbench_history  |        149274624
 2017-02-08 07:31:45.126005+01 | 1486535505.126 | pgbench_branches |          1785856

 2017-02-08 07:31:46.267593+01 | 1486535506.26759 | pgbench_accounts |        695533568
 2017-02-08 07:31:46.267593+01 | 1486535506.26759 | pgbench_tellers  |          2146304
 2017-02-08 07:31:46.267593+01 | 1486535506.26759 | pgbench_history  |        149274624
 2017-02-08 07:31:46.267593+01 | 1486535506.26759 | pgbench_branches |          1785856

 2017-02-08 07:31:47.390399+01 | 1486535507.3904 | pgbench_accounts |        695533568
 2017-02-08 07:31:47.390399+01 | 1486535507.3904 | pgbench_tellers  |          2146304
 2017-02-08 07:31:47.390399+01 | 1486535507.3904 | pgbench_history  |        149274624
 2017-02-08 07:31:47.390399+01 | 1486535507.3904 | pgbench_branches |          1785856

 2017-02-08 07:31:48.480594+01 | 1486535508.48059 | pgbench_accounts |        695533568
 2017-02-08 07:31:48.480594+01 | 1486535508.48059 | pgbench_tellers  |          2146304
 2017-02-08 07:31:48.480594+01 | 1486535508.48059 | pgbench_history  |        150290432
 2017-02-08 07:31:48.480594+01 | 1486535508.48059 | pgbench_branches |          1785856

 2017-02-08 07:31:49.608259+01 | 1486535509.60826 | pgbench_accounts |        695533568
 2017-02-08 07:31:49.608259+01 | 1486535509.60826 | pgbench_tellers  |          2146304
 2017-02-08 07:31:49.608259+01 | 1486535509.60826 | pgbench_history  |        150642688
 2017-02-08 07:31:49.608259+01 | 1486535509.60826 | pgbench_branches |          1785856

 2017-02-08 07:31:50.709323+01 | 1486535510.70932 | pgbench_accounts |        695533568
 2017-02-08 07:31:50.709323+01 | 1486535510.70932 | pgbench_tellers  |          2146304
 2017-02-08 07:31:50.709323+01 | 1486535510.70932 | pgbench_history  |        151715840
 2017-02-08 07:31:50.709323+01 | 1486535510.70932 | pgbench_branches |          1785856

 2017-02-08 07:31:51.819528+01 | 1486535511.81953 | pgbench_accounts |        695533568
 2017-02-08 07:31:51.819528+01 | 1486535511.81953 | pgbench_tellers  |          2146304
 2017-02-08 07:31:51.819528+01 | 1486535511.81953 | pgbench_history  |        153706496
 2017-02-08 07:31:51.819528+01 | 1486535511.81953 | pgbench_branches |          1785856

 2017-02-08 07:31:52.899309+01 | 1486535512.89931 | pgbench_accounts |        695533568
 2017-02-08 07:31:52.899309+01 | 1486535512.89931 | pgbench_tellers  |          2146304
 2017-02-08 07:31:52.899309+01 | 1486535512.89931 | pgbench_history  |        153706496
 2017-02-08 07:31:52.899309+01 | 1486535512.89931 | pgbench_branches |          1785856

 2017-02-08 07:31:53.988309+01 | 1486535513.98831 | pgbench_accounts |        695533568
 2017-02-08 07:31:53.988309+01 | 1486535513.98831 | pgbench_tellers  |          2146304
 2017-02-08 07:31:53.988309+01 | 1486535513.98831 | pgbench_history  |        153706496
 2017-02-08 07:31:53.988309+01 | 1486535513.98831 | pgbench_branches |          1785856

 2017-02-08 07:31:55.084342+01 | 1486535515.08434 | pgbench_accounts |        695533568
 2017-02-08 07:31:55.084342+01 | 1486535515.08434 | pgbench_tellers  |          2146304
 2017-02-08 07:31:55.084342+01 | 1486535515.08434 | pgbench_history  |        154329088
 2017-02-08 07:31:55.084342+01 | 1486535515.08434 | pgbench_branches |          1785856

 2017-02-08 07:31:56.172025+01 | 1486535516.17202 | pgbench_accounts |        695533568
 2017-02-08 07:31:56.172025+01 | 1486535516.17202 | pgbench_tellers  |          2146304
 2017-02-08 07:31:56.172025+01 | 1486535516.17202 | pgbench_history  |        156155904
 2017-02-08 07:31:56.172025+01 | 1486535516.17202 | pgbench_branches |          1785856

 2017-02-08 07:31:57.25967+01 | 1486535517.25967 | pgbench_accounts |        695533568
 2017-02-08 07:31:57.25967+01 | 1486535517.25967 | pgbench_tellers  |          2146304
 2017-02-08 07:31:57.25967+01 | 1486535517.25967 | pgbench_history  |        156155904
 2017-02-08 07:31:57.25967+01 | 1486535517.25967 | pgbench_branches |          1785856

 2017-02-08 07:31:58.374822+01 | 1486535518.37482 | pgbench_accounts |        695533568
 2017-02-08 07:31:58.374822+01 | 1486535518.37482 | pgbench_tellers  |          2146304
 2017-02-08 07:31:58.374822+01 | 1486535518.37482 | pgbench_history  |        156573696
 2017-02-08 07:31:58.374822+01 | 1486535518.37482 | pgbench_branches |          1785856

 2017-02-08 07:31:59.510174+01 | 1486535519.51017 | pgbench_accounts |        695533568
 2017-02-08 07:31:59.510174+01 | 1486535519.51017 | pgbench_tellers  |          2146304
 2017-02-08 07:31:59.510174+01 | 1486535519.51017 | pgbench_history  |        157646848
 2017-02-08 07:31:59.510174+01 | 1486535519.51017 | pgbench_branches |          1785856

 2017-02-08 07:32:00.625049+01 | 1486535520.62505 | pgbench_accounts |        695533568
 2017-02-08 07:32:00.625049+01 | 1486535520.62505 | pgbench_tellers  |          2146304
 2017-02-08 07:32:00.625049+01 | 1486535520.62505 | pgbench_history  |        158089216
 2017-02-08 07:32:00.625049+01 | 1486535520.62505 | pgbench_branches |          1785856

 2017-02-08 07:32:01.734559+01 | 1486535521.73456 | pgbench_accounts |        695533568
 2017-02-08 07:32:01.734559+01 | 1486535521.73456 | pgbench_tellers  |          2146304
 2017-02-08 07:32:01.734559+01 | 1486535521.73456 | pgbench_history  |        158892032
 2017-02-08 07:32:01.734559+01 | 1486535521.73456 | pgbench_branches |          1785856

 2017-02-08 07:32:02.846294+01 | 1486535522.84629 | pgbench_accounts |        695533568
 2017-02-08 07:32:02.846294+01 | 1486535522.84629 | pgbench_tellers  |          2146304
 2017-02-08 07:32:02.846294+01 | 1486535522.84629 | pgbench_history  |        159678464
 2017-02-08 07:32:02.846294+01 | 1486535522.84629 | pgbench_branches |          1785856

 2017-02-08 07:32:03.954297+01 | 1486535523.9543 | pgbench_accounts |        695533568
 2017-02-08 07:32:03.954297+01 | 1486535523.9543 | pgbench_tellers  |          2146304
 2017-02-08 07:32:03.954297+01 | 1486535523.9543 | pgbench_history  |        160579584
 2017-02-08 07:32:03.954297+01 | 1486535523.9543 | pgbench_branches |          1785856

 2017-02-08 07:32:05.06745+01 | 1486535525.06745 | pgbench_accounts |        695533568
 2017-02-08 07:32:05.06745+01 | 1486535525.06745 | pgbench_tellers  |          2146304
 2017-02-08 07:32:05.06745+01 | 1486535525.06745 | pgbench_history  |        161062912
 2017-02-08 07:32:05.06745+01 | 1486535525.06745 | pgbench_branches |          1785856

 2017-02-08 07:32:06.174383+01 | 1486535526.17438 | pgbench_accounts |        695533568
 2017-02-08 07:32:06.174383+01 | 1486535526.17438 | pgbench_tellers  |          2146304
 2017-02-08 07:32:06.174383+01 | 1486535526.17438 | pgbench_history  |        162521088
 2017-02-08 07:32:06.174383+01 | 1486535526.17438 | pgbench_branches |          1785856

 2017-02-08 07:32:07.30803+01 | 1486535527.30803 | pgbench_accounts |        695533568
 2017-02-08 07:32:07.30803+01 | 1486535527.30803 | pgbench_tellers  |          2146304
 2017-02-08 07:32:07.30803+01 | 1486535527.30803 | pgbench_history  |        162709504
 2017-02-08 07:32:07.30803+01 | 1486535527.30803 | pgbench_branches |          1785856

 2017-02-08 07:32:08.407147+01 | 1486535528.40715 | pgbench_accounts |        695533568
 2017-02-08 07:32:08.407147+01 | 1486535528.40715 | pgbench_tellers  |          2146304
 2017-02-08 07:32:08.407147+01 | 1486535528.40715 | pgbench_history  |        163536896
 2017-02-08 07:32:08.407147+01 | 1486535528.40715 | pgbench_branches |          1785856

 2017-02-08 07:32:09.548618+01 | 1486535529.54862 | pgbench_accounts |        695533568
 2017-02-08 07:32:09.548618+01 | 1486535529.54862 | pgbench_tellers  |          2146304
 2017-02-08 07:32:09.548618+01 | 1486535529.54862 | pgbench_history  |        164118528
 2017-02-08 07:32:09.548618+01 | 1486535529.54862 | pgbench_branches |          1785856

 2017-02-08 07:32:10.658289+01 | 1486535530.65829 | pgbench_accounts |        695533568
 2017-02-08 07:32:10.658289+01 | 1486535530.65829 | pgbench_tellers  |          2146304
 2017-02-08 07:32:10.658289+01 | 1486535530.65829 | pgbench_history  |        165765120
 2017-02-08 07:32:10.658289+01 | 1486535530.65829 | pgbench_branches |          1785856

 2017-02-08 07:32:11.791255+01 | 1486535531.79125 | pgbench_accounts |        695533568
 2017-02-08 07:32:11.791255+01 | 1486535531.79125 | pgbench_tellers  |          2146304
 2017-02-08 07:32:11.791255+01 | 1486535531.79125 | pgbench_history  |        165765120
 2017-02-08 07:32:11.791255+01 | 1486535531.79125 | pgbench_branches |          1785856

 2017-02-08 07:32:12.888991+01 | 1486535532.88899 | pgbench_accounts |        695533568
 2017-02-08 07:32:12.888991+01 | 1486535532.88899 | pgbench_tellers  |          2146304
 2017-02-08 07:32:12.888991+01 | 1486535532.88899 | pgbench_history  |        166535168
 2017-02-08 07:32:12.888991+01 | 1486535532.88899 | pgbench_branches |          1785856

 2017-02-08 07:32:13.980451+01 | 1486535533.98045 | pgbench_accounts |        695533568
 2017-02-08 07:32:13.980451+01 | 1486535533.98045 | pgbench_tellers  |          2146304
 2017-02-08 07:32:13.980451+01 | 1486535533.98045 | pgbench_history  |        167092224
 2017-02-08 07:32:13.980451+01 | 1486535533.98045 | pgbench_branches |          1785856

 2017-02-08 07:32:15.062696+01 | 1486535535.0627 | pgbench_accounts |        695533568
 2017-02-08 07:32:15.062696+01 | 1486535535.0627 | pgbench_tellers  |          2146304
 2017-02-08 07:32:15.062696+01 | 1486535535.0627 | pgbench_history  |        168099840
 2017-02-08 07:32:15.062696+01 | 1486535535.0627 | pgbench_branches |          1785856

 2017-02-08 07:32:16.169244+01 | 1486535536.16924 | pgbench_accounts |        695533568
 2017-02-08 07:32:16.169244+01 | 1486535536.16924 | pgbench_tellers  |          2146304
 2017-02-08 07:32:16.169244+01 | 1486535536.16924 | pgbench_history  |        168615936
 2017-02-08 07:32:16.169244+01 | 1486535536.16924 | pgbench_branches |          1785856

 2017-02-08 07:32:17.292986+01 | 1486535537.29299 | pgbench_accounts |        695533568
 2017-02-08 07:32:17.292986+01 | 1486535537.29299 | pgbench_tellers  |          2146304
 2017-02-08 07:32:17.292986+01 | 1486535537.29299 | pgbench_history  |        170270720
 2017-02-08 07:32:17.292986+01 | 1486535537.29299 | pgbench_branches |          1785856

 2017-02-08 07:32:18.400997+01 | 1486535538.401 | pgbench_accounts |        695533568
 2017-02-08 07:32:18.400997+01 | 1486535538.401 | pgbench_tellers  |          2146304
 2017-02-08 07:32:18.400997+01 | 1486535538.401 | pgbench_history  |        170270720
 2017-02-08 07:32:18.400997+01 | 1486535538.401 | pgbench_branches |          1785856

 2017-02-08 07:32:19.491959+01 | 1486535539.49196 | pgbench_accounts |        695533568
 2017-02-08 07:32:19.491959+01 | 1486535539.49196 | pgbench_tellers  |          2146304
 2017-02-08 07:32:19.491959+01 | 1486535539.49196 | pgbench_history  |        171769856
 2017-02-08 07:32:19.491959+01 | 1486535539.49196 | pgbench_branches |          1785856

 2017-02-08 07:32:20.592767+01 | 1486535540.59277 | pgbench_accounts |        695533568
 2017-02-08 07:32:20.592767+01 | 1486535540.59277 | pgbench_tellers  |          2146304
 2017-02-08 07:32:20.592767+01 | 1486535540.59277 | pgbench_history  |        171769856
 2017-02-08 07:32:20.592767+01 | 1486535540.59277 | pgbench_branches |          1785856

 2017-02-08 07:32:21.726986+01 | 1486535541.72699 | pgbench_accounts |        695533568
 2017-02-08 07:32:21.726986+01 | 1486535541.72699 | pgbench_tellers  |          2146304
 2017-02-08 07:32:21.726986+01 | 1486535541.72699 | pgbench_history  |        172384256
 2017-02-08 07:32:21.726986+01 | 1486535541.72699 | pgbench_branches |          1785856

 2017-02-08 07:32:22.835111+01 | 1486535542.83511 | pgbench_accounts |        695533568
 2017-02-08 07:32:22.835111+01 | 1486535542.83511 | pgbench_tellers  |          2146304
 2017-02-08 07:32:22.835111+01 | 1486535542.83511 | pgbench_history  |        173170688
 2017-02-08 07:32:22.835111+01 | 1486535542.83511 | pgbench_branches |          1785856

 2017-02-08 07:32:23.919716+01 | 1486535543.91972 | pgbench_accounts |        695533568
 2017-02-08 07:32:23.919716+01 | 1486535543.91972 | pgbench_tellers  |          2146304
 2017-02-08 07:32:23.919716+01 | 1486535543.91972 | pgbench_history  |        173768704
 2017-02-08 07:32:23.919716+01 | 1486535543.91972 | pgbench_branches |          1785856

 2017-02-08 07:32:25.007001+01 | 1486535545.007 | pgbench_accounts |        695533568
 2017-02-08 07:32:25.007001+01 | 1486535545.007 | pgbench_tellers  |          2146304
 2017-02-08 07:32:25.007001+01 | 1486535545.007 | pgbench_history  |        174686208
 2017-02-08 07:32:25.007001+01 | 1486535545.007 | pgbench_branches |          1785856

 2017-02-08 07:32:26.118873+01 | 1486535546.11887 | pgbench_accounts |        695533568
 2017-02-08 07:32:26.118873+01 | 1486535546.11887 | pgbench_tellers  |          2146304
 2017-02-08 07:32:26.118873+01 | 1486535546.11887 | pgbench_history  |        175325184
 2017-02-08 07:32:26.118873+01 | 1486535546.11887 | pgbench_branches |          1785856

 2017-02-08 07:32:27.225115+01 | 1486535547.22512 | pgbench_accounts |        695533568
 2017-02-08 07:32:27.225115+01 | 1486535547.22512 | pgbench_tellers  |          2146304
 2017-02-08 07:32:27.225115+01 | 1486535547.22512 | pgbench_history  |        176054272
 2017-02-08 07:32:27.225115+01 | 1486535547.22512 | pgbench_branches |          1785856

 2017-02-08 07:32:28.349689+01 | 1486535548.34969 | pgbench_accounts |        695533568
 2017-02-08 07:32:28.349689+01 | 1486535548.34969 | pgbench_tellers  |          2146304
 2017-02-08 07:32:28.349689+01 | 1486535548.34969 | pgbench_history  |        176709632
 2017-02-08 07:32:28.349689+01 | 1486535548.34969 | pgbench_branches |          1785856

 2017-02-08 07:32:29.452872+01 | 1486535549.45287 | pgbench_accounts |        695533568
 2017-02-08 07:32:29.452872+01 | 1486535549.45287 | pgbench_tellers  |          2146304
 2017-02-08 07:32:29.452872+01 | 1486535549.45287 | pgbench_history  |        177422336
 2017-02-08 07:32:29.452872+01 | 1486535549.45287 | pgbench_branches |          1785856

 2017-02-08 07:32:30.582463+01 | 1486535550.58246 | pgbench_accounts |        695533568
 2017-02-08 07:32:30.582463+01 | 1486535550.58246 | pgbench_tellers  |          2146304
 2017-02-08 07:32:30.582463+01 | 1486535550.58246 | pgbench_history  |        178388992
 2017-02-08 07:32:30.582463+01 | 1486535550.58246 | pgbench_branches |          1785856

 2017-02-08 07:32:31.673097+01 | 1486535551.6731 | pgbench_accounts |        695533568
 2017-02-08 07:32:31.673097+01 | 1486535551.6731 | pgbench_tellers  |          2146304
 2017-02-08 07:32:31.673097+01 | 1486535551.6731 | pgbench_history  |        179339264
 2017-02-08 07:32:31.673097+01 | 1486535551.6731 | pgbench_branches |          1785856

 2017-02-08 07:32:32.767599+01 | 1486535552.7676 | pgbench_accounts |        695533568
 2017-02-08 07:32:32.767599+01 | 1486535552.7676 | pgbench_tellers  |          2146304
 2017-02-08 07:32:32.767599+01 | 1486535552.7676 | pgbench_history  |        179740672
 2017-02-08 07:32:32.767599+01 | 1486535552.7676 | pgbench_branches |          1785856

 2017-02-08 07:32:33.897563+01 | 1486535553.89756 | pgbench_accounts |        695533568
 2017-02-08 07:32:33.897563+01 | 1486535553.89756 | pgbench_tellers  |          2146304
 2017-02-08 07:32:33.897563+01 | 1486535553.89756 | pgbench_history  |        180543488
 2017-02-08 07:32:33.897563+01 | 1486535553.89756 | pgbench_branches |          1785856

 2017-02-08 07:32:35.002495+01 | 1486535555.0025 | pgbench_accounts |        695533568
 2017-02-08 07:32:35.002495+01 | 1486535555.0025 | pgbench_tellers  |          2146304
 2017-02-08 07:32:35.002495+01 | 1486535555.0025 | pgbench_history  |        181313536
 2017-02-08 07:32:35.002495+01 | 1486535555.0025 | pgbench_branches |          1785856

 2017-02-08 07:32:36.123437+01 | 1486535556.12344 | pgbench_accounts |        695533568
 2017-02-08 07:32:36.123437+01 | 1486535556.12344 | pgbench_tellers  |          2146304
 2017-02-08 07:32:36.123437+01 | 1486535556.12344 | pgbench_history  |        182067200
 2017-02-08 07:32:36.123437+01 | 1486535556.12344 | pgbench_branches |          1785856

 2017-02-08 07:32:37.203124+01 | 1486535557.20312 | pgbench_accounts |        695533568
 2017-02-08 07:32:37.203124+01 | 1486535557.20312 | pgbench_tellers  |          2146304
 2017-02-08 07:32:37.203124+01 | 1486535557.20312 | pgbench_history  |        182853632
 2017-02-08 07:32:37.203124+01 | 1486535557.20312 | pgbench_branches |          1785856

 2017-02-08 07:32:38.297486+01 | 1486535558.29749 | pgbench_accounts |        695533568
 2017-02-08 07:32:38.297486+01 | 1486535558.29749 | pgbench_tellers  |          2146304
 2017-02-08 07:32:38.297486+01 | 1486535558.29749 | pgbench_history  |        183574528
 2017-02-08 07:32:38.297486+01 | 1486535558.29749 | pgbench_branches |          1785856

 2017-02-08 07:32:39.388152+01 | 1486535559.38815 | pgbench_accounts |        695533568
 2017-02-08 07:32:39.388152+01 | 1486535559.38815 | pgbench_tellers  |          2146304
 2017-02-08 07:32:39.388152+01 | 1486535559.38815 | pgbench_history  |        184336384
 2017-02-08 07:32:39.388152+01 | 1486535559.38815 | pgbench_branches |          1785856

 2017-02-08 07:32:40.489011+01 | 1486535560.48901 | pgbench_accounts |        695533568
 2017-02-08 07:32:40.489011+01 | 1486535560.48901 | pgbench_tellers  |          2146304
 2017-02-08 07:32:40.489011+01 | 1486535560.48901 | pgbench_history  |        185171968
 2017-02-08 07:32:40.489011+01 | 1486535560.48901 | pgbench_branches |          1785856

 2017-02-08 07:32:41.613563+01 | 1486535561.61356 | pgbench_accounts |        695533568
 2017-02-08 07:32:41.613563+01 | 1486535561.61356 | pgbench_tellers  |          2146304
 2017-02-08 07:32:41.613563+01 | 1486535561.61356 | pgbench_history  |        186671104
 2017-02-08 07:32:41.613563+01 | 1486535561.61356 | pgbench_branches |          1785856

 2017-02-08 07:32:42.692133+01 | 1486535562.69213 | pgbench_accounts |        695533568
 2017-02-08 07:32:42.692133+01 | 1486535562.69213 | pgbench_tellers  |          2146304
 2017-02-08 07:32:42.692133+01 | 1486535562.69213 | pgbench_history  |        186671104
 2017-02-08 07:32:42.692133+01 | 1486535562.69213 | pgbench_branches |          1785856

 2017-02-08 07:32:43.793433+01 | 1486535563.79343 | pgbench_accounts |        695533568
 2017-02-08 07:32:43.793433+01 | 1486535563.79343 | pgbench_tellers  |          2146304
 2017-02-08 07:32:43.793433+01 | 1486535563.79343 | pgbench_history  |        187383808
 2017-02-08 07:32:43.793433+01 | 1486535563.79343 | pgbench_branches |          1785856

 2017-02-08 07:32:44.904691+01 | 1486535564.90469 | pgbench_accounts |        695533568
 2017-02-08 07:32:44.904691+01 | 1486535564.90469 | pgbench_tellers  |          2146304
 2017-02-08 07:32:44.904691+01 | 1486535564.90469 | pgbench_history  |        188481536
 2017-02-08 07:32:44.904691+01 | 1486535564.90469 | pgbench_branches |          1785856

 2017-02-08 07:32:46.006917+01 | 1486535566.00692 | pgbench_accounts |        695533568
 2017-02-08 07:32:46.006917+01 | 1486535566.00692 | pgbench_tellers  |          2146304
 2017-02-08 07:32:46.006917+01 | 1486535566.00692 | pgbench_history  |        189718528
 2017-02-08 07:32:46.006917+01 | 1486535566.00692 | pgbench_branches |          1785856

 2017-02-08 07:32:47.143424+01 | 1486535567.14342 | pgbench_accounts |        695533568
 2017-02-08 07:32:47.143424+01 | 1486535567.14342 | pgbench_tellers  |          2146304
 2017-02-08 07:32:47.143424+01 | 1486535567.14342 | pgbench_history  |        189718528
 2017-02-08 07:32:47.143424+01 | 1486535567.14342 | pgbench_branches |          1785856

 2017-02-08 07:32:48.260241+01 | 1486535568.26024 | pgbench_accounts |        695533568
 2017-02-08 07:32:48.260241+01 | 1486535568.26024 | pgbench_tellers  |          2146304
 2017-02-08 07:32:48.260241+01 | 1486535568.26024 | pgbench_history  |        190455808
 2017-02-08 07:32:48.260241+01 | 1486535568.26024 | pgbench_branches |          1785856

 2017-02-08 07:32:49.365277+01 | 1486535569.36528 | pgbench_accounts |        695533568
 2017-02-08 07:32:49.365277+01 | 1486535569.36528 | pgbench_tellers  |          2146304
 2017-02-08 07:32:49.365277+01 | 1486535569.36528 | pgbench_history  |        191176704
 2017-02-08 07:32:49.365277+01 | 1486535569.36528 | pgbench_branches |          1785856

 2017-02-08 07:32:50.47154+01 | 1486535570.47154 | pgbench_accounts |        695533568
 2017-02-08 07:32:50.47154+01 | 1486535570.47154 | pgbench_tellers  |          2146304
 2017-02-08 07:32:50.47154+01 | 1486535570.47154 | pgbench_history  |        192077824
 2017-02-08 07:32:50.47154+01 | 1486535570.47154 | pgbench_branches |          1785856

 2017-02-08 07:32:51.576408+01 | 1486535571.57641 | pgbench_accounts |        695533568
 2017-02-08 07:32:51.576408+01 | 1486535571.57641 | pgbench_tellers  |          2146304
 2017-02-08 07:32:51.576408+01 | 1486535571.57641 | pgbench_history  |        193175552
 2017-02-08 07:32:51.576408+01 | 1486535571.57641 | pgbench_branches |          1785856

 2017-02-08 07:32:52.686401+01 | 1486535572.6864 | pgbench_accounts |        695533568
 2017-02-08 07:32:52.686401+01 | 1486535572.6864 | pgbench_tellers  |          2146304
 2017-02-08 07:32:52.686401+01 | 1486535572.6864 | pgbench_history  |        193568768
 2017-02-08 07:32:52.686401+01 | 1486535572.6864 | pgbench_branches |          1785856

 2017-02-08 07:32:53.792191+01 | 1486535573.79219 | pgbench_accounts |        695533568
 2017-02-08 07:32:53.792191+01 | 1486535573.79219 | pgbench_tellers  |          2146304
 2017-02-08 07:32:53.792191+01 | 1486535573.79219 | pgbench_history  |        194248704
 2017-02-08 07:32:53.792191+01 | 1486535573.79219 | pgbench_branches |          1785856

 2017-02-08 07:32:54.910922+01 | 1486535574.91092 | pgbench_accounts |        695533568
 2017-02-08 07:32:54.910922+01 | 1486535574.91092 | pgbench_tellers  |          2146304
 2017-02-08 07:32:54.910922+01 | 1486535574.91092 | pgbench_history  |        195485696
 2017-02-08 07:32:54.910922+01 | 1486535574.91092 | pgbench_branches |          1785856

 2017-02-08 07:32:55.99488+01 | 1486535575.99488 | pgbench_accounts |        695533568
 2017-02-08 07:32:55.99488+01 | 1486535575.99488 | pgbench_tellers  |          2146304
 2017-02-08 07:32:55.99488+01 | 1486535575.99488 | pgbench_history  |        195854336
 2017-02-08 07:32:55.99488+01 | 1486535575.99488 | pgbench_branches |          1785856

 2017-02-08 07:32:57.07712+01 | 1486535577.07712 | pgbench_accounts |        695533568
 2017-02-08 07:32:57.07712+01 | 1486535577.07712 | pgbench_tellers  |          2146304
 2017-02-08 07:32:57.07712+01 | 1486535577.07712 | pgbench_history  |        196550656
 2017-02-08 07:32:57.07712+01 | 1486535577.07712 | pgbench_branches |          1785856

 2017-02-08 07:32:58.173556+01 | 1486535578.17356 | pgbench_accounts |        695533568
 2017-02-08 07:32:58.173556+01 | 1486535578.17356 | pgbench_tellers  |          2146304
 2017-02-08 07:32:58.173556+01 | 1486535578.17356 | pgbench_history  |        197312512
 2017-02-08 07:32:58.173556+01 | 1486535578.17356 | pgbench_branches |          1785856

 2017-02-08 07:32:59.283416+01 | 1486535579.28342 | pgbench_accounts |        695533568
 2017-02-08 07:32:59.283416+01 | 1486535579.28342 | pgbench_tellers  |          2146304
 2017-02-08 07:32:59.283416+01 | 1486535579.28342 | pgbench_history  |        198098944
 2017-02-08 07:32:59.283416+01 | 1486535579.28342 | pgbench_branches |          1785856

 2017-02-08 07:33:00.385474+01 | 1486535580.38547 | pgbench_accounts |        695533568
 2017-02-08 07:33:00.385474+01 | 1486535580.38547 | pgbench_tellers  |          2146304
 2017-02-08 07:33:00.385474+01 | 1486535580.38547 | pgbench_history  |        198828032
 2017-02-08 07:33:00.385474+01 | 1486535580.38547 | pgbench_branches |          1785856

 2017-02-08 07:33:01.496502+01 | 1486535581.4965 | pgbench_accounts |        695533568
 2017-02-08 07:33:01.496502+01 | 1486535581.4965 | pgbench_tellers  |          2146304
 2017-02-08 07:33:01.496502+01 | 1486535581.4965 | pgbench_history  |        199598080
 2017-02-08 07:33:01.496502+01 | 1486535581.4965 | pgbench_branches |          1785856

 2017-02-08 07:33:02.595262+01 | 1486535582.59526 | pgbench_accounts |        695533568
 2017-02-08 07:33:02.595262+01 | 1486535582.59526 | pgbench_tellers  |          2146304
 2017-02-08 07:33:02.595262+01 | 1486535582.59526 | pgbench_history  |        200368128
 2017-02-08 07:33:02.595262+01 | 1486535582.59526 | pgbench_branches |          1785856

 2017-02-08 07:33:03.710065+01 | 1486535583.71006 | pgbench_accounts |        695533568
 2017-02-08 07:33:03.710065+01 | 1486535583.71006 | pgbench_tellers  |          2146304
 2017-02-08 07:33:03.710065+01 | 1486535583.71006 | pgbench_history  |        201129984
 2017-02-08 07:33:03.710065+01 | 1486535583.71006 | pgbench_branches |          1785856

 2017-02-08 07:33:04.821917+01 | 1486535584.82192 | pgbench_accounts |        695533568
 2017-02-08 07:33:04.821917+01 | 1486535584.82192 | pgbench_tellers  |          2146304
 2017-02-08 07:33:04.821917+01 | 1486535584.82192 | pgbench_history  |        201891840
 2017-02-08 07:33:04.821917+01 | 1486535584.82192 | pgbench_branches |          1785856

 2017-02-08 07:33:05.91002+01 | 1486535585.91002 | pgbench_accounts |        695533568
 2017-02-08 07:33:05.91002+01 | 1486535585.91002 | pgbench_tellers  |          2146304
 2017-02-08 07:33:05.91002+01 | 1486535585.91002 | pgbench_history  |        202645504
 2017-02-08 07:33:05.91002+01 | 1486535585.91002 | pgbench_branches |          1785856

