 2017-02-09 04:20:28.908848+01 | 1486610428.90885 |                 0 |               3 |                     5 |                   24 |                 17 |           667 |                6 |         1473078 |                     0 |      39473141 | 2017-02-09 04:09:38.75805+01

 2017-02-09 04:20:29.970131+01 | 1486610429.97013 |                 0 |               3 |                     5 |                   24 |                 17 |           667 |                6 |         1473078 |                     0 |      39536884 | 2017-02-09 04:09:38.75805+01

 2017-02-09 04:20:31.080397+01 | 1486610431.0804 |                 0 |               3 |                     5 |                   24 |                 17 |           670 |                6 |         1473078 |                     0 |      39600925 | 2017-02-09 04:09:38.75805+01

 2017-02-09 04:20:32.255368+01 | 1486610432.25537 |                 0 |               3 |                     5 |                   24 |                 17 |           670 |                6 |         1473078 |                     0 |      39683071 | 2017-02-09 04:09:38.75805+01

 2017-02-09 04:20:33.436917+01 | 1486610433.43692 |                 0 |               3 |                     5 |                   24 |                 17 |           671 |                6 |         1473078 |                     0 |      39766985 | 2017-02-09 04:09:38.75805+01

 2017-02-09 04:20:34.617438+01 | 1486610434.61744 |                 0 |               3 |                     5 |                   24 |                 17 |           671 |                6 |         1473078 |                     0 |      39850768 | 2017-02-09 04:09:38.75805+01

 2017-02-09 04:20:35.797533+01 | 1486610435.79753 |                 0 |               3 |                     5 |                   24 |                 17 |           671 |                6 |         1473078 |                     0 |      39920905 | 2017-02-09 04:09:38.75805+01

 2017-02-09 04:20:36.977161+01 | 1486610436.97716 |                 0 |               3 |                     5 |                   24 |                 17 |           671 |                6 |         1473078 |                     0 |      40005072 | 2017-02-09 04:09:38.75805+01

 2017-02-09 04:20:38.155764+01 | 1486610438.15576 |                 0 |               3 |                     5 |                   24 |                 17 |           671 |                6 |         1473078 |                     0 |      40089517 | 2017-02-09 04:09:38.75805+01

 2017-02-09 04:20:39.336942+01 | 1486610439.33694 |                 0 |               3 |                     5 |                   24 |                 17 |           671 |                6 |         1473078 |                     0 |      40174029 | 2017-02-09 04:09:38.75805+01

 2017-02-09 04:20:40.503512+01 | 1486610440.50351 |                 0 |               3 |                     5 |                   24 |                 17 |           671 |                6 |         1473078 |                     0 |      40258658 | 2017-02-09 04:09:38.75805+01

 2017-02-09 04:20:41.685964+01 | 1486610441.68596 |                 0 |               3 |                     5 |                   24 |                 17 |           671 |                6 |         1473078 |                     0 |      40342856 | 2017-02-09 04:09:38.75805+01

 2017-02-09 04:20:42.867929+01 | 1486610442.86793 |                 0 |               3 |                     5 |                   24 |                 17 |           671 |                6 |         1473078 |                     0 |      40427543 | 2017-02-09 04:09:38.75805+01

 2017-02-09 04:20:44.05044+01 | 1486610444.05044 |                 0 |               3 |                     5 |                   24 |                 17 |           671 |                6 |         1473078 |                     0 |      40512127 | 2017-02-09 04:09:38.75805+01

 2017-02-09 04:20:45.233967+01 | 1486610445.23397 |                 0 |               3 |                     5 |                   24 |                 17 |           671 |                6 |         1473078 |                     0 |      40582371 | 2017-02-09 04:09:38.75805+01

 2017-02-09 04:20:46.416296+01 | 1486610446.4163 |                 0 |               3 |                     5 |                   24 |                 17 |           671 |                6 |         1473078 |                     0 |      40665942 | 2017-02-09 04:09:38.75805+01

 2017-02-09 04:20:47.6009+01 | 1486610447.6009 |                 0 |               3 |                     5 |                   24 |                 17 |           671 |                6 |         1473078 |                     0 |      40750651 | 2017-02-09 04:09:38.75805+01

 2017-02-09 04:20:48.785955+01 | 1486610448.78595 |                 0 |               3 |                     5 |                   24 |                 17 |           671 |                6 |         1473078 |                     0 |      40835404 | 2017-02-09 04:09:38.75805+01

 2017-02-09 04:20:49.974835+01 | 1486610449.97483 |                 0 |               3 |                     5 |                   24 |                 17 |           671 |                6 |         1473078 |                     0 |      40919880 | 2017-02-09 04:09:38.75805+01

 2017-02-09 04:20:51.156815+01 | 1486610451.15682 |                 0 |               3 |                     5 |                   24 |                 17 |           671 |                6 |         1473078 |                     0 |      41004239 | 2017-02-09 04:09:38.75805+01

 2017-02-09 04:20:52.338806+01 | 1486610452.33881 |                 0 |               3 |                     5 |                   24 |                 17 |           671 |                6 |         1473078 |                     0 |      41088970 | 2017-02-09 04:09:38.75805+01

 2017-02-09 04:20:53.518797+01 | 1486610453.5188 |                 0 |               3 |                     5 |                   24 |                 17 |           671 |                6 |         1473078 |                     0 |      41173411 | 2017-02-09 04:09:38.75805+01

 2017-02-09 04:20:54.709991+01 | 1486610454.70999 |                 0 |               3 |                     5 |                   24 |                 17 |           671 |                6 |         1473078 |                     0 |      41258032 | 2017-02-09 04:09:38.75805+01

 2017-02-09 04:20:55.889284+01 | 1486610455.88928 |                 0 |               3 |                     5 |                   24 |                 17 |           671 |                6 |         1473078 |                     0 |      41328438 | 2017-02-09 04:09:38.75805+01

 2017-02-09 04:20:57.048036+01 | 1486610457.04804 |                 0 |               3 |                     5 |                   24 |                 17 |           671 |                6 |         1473078 |                     0 |      41413058 | 2017-02-09 04:09:38.75805+01

 2017-02-09 04:20:58.226178+01 | 1486610458.22618 |                 0 |               3 |                     5 |                   24 |                 17 |           671 |                6 |         1473078 |                     0 |      41496931 | 2017-02-09 04:09:38.75805+01

 2017-02-09 04:20:59.406998+01 | 1486610459.407 |                 0 |               3 |                     5 |                   24 |                 17 |           671 |                6 |         1473078 |                     0 |      41581811 | 2017-02-09 04:09:38.75805+01

 2017-02-09 04:21:00.58724+01 | 1486610460.58724 |                 0 |               3 |                     5 |                   24 |                 17 |           671 |                6 |         1473078 |                     0 |      41666438 | 2017-02-09 04:09:38.75805+01

 2017-02-09 04:21:01.76454+01 | 1486610461.76454 |                 0 |               3 |                     5 |                   24 |                 17 |           671 |                6 |         1473078 |                     0 |      41751155 | 2017-02-09 04:09:38.75805+01

 2017-02-09 04:21:02.947813+01 | 1486610462.94781 |                 0 |               3 |                     5 |                   24 |                 17 |           671 |                6 |         1473078 |                     0 |      41835399 | 2017-02-09 04:09:38.75805+01

 2017-02-09 04:21:04.129634+01 | 1486610464.12963 |                 0 |               3 |                     5 |                   24 |                 17 |           671 |                6 |         1473078 |                     0 |      41906165 | 2017-02-09 04:09:38.75805+01

 2017-02-09 04:21:05.272067+01 | 1486610465.27207 |                 0 |               3 |                     5 |                   24 |                 17 |           671 |                6 |         1473078 |                     0 |      41990769 | 2017-02-09 04:09:38.75805+01

 2017-02-09 04:21:06.439573+01 | 1486610466.43957 |                 0 |               3 |                     5 |                   24 |                 17 |           671 |                6 |         1473078 |                     0 |      42074325 | 2017-02-09 04:09:38.75805+01

 2017-02-09 04:21:07.590255+01 | 1486610467.59026 |                 0 |               3 |                     5 |                   24 |                 17 |           671 |                6 |         1473078 |                     0 |      42158950 | 2017-02-09 04:09:38.75805+01

 2017-02-09 04:21:08.767715+01 | 1486610468.76771 |                 0 |               3 |                     5 |                   24 |                 17 |           671 |                6 |         1473078 |                     0 |      42228681 | 2017-02-09 04:09:38.75805+01

 2017-02-09 04:21:09.944548+01 | 1486610469.94455 |                 0 |               3 |                     5 |                   24 |                 17 |           671 |                6 |         1473078 |                     0 |      42313263 | 2017-02-09 04:09:38.75805+01

 2017-02-09 04:21:11.127505+01 | 1486610471.12751 |                 0 |               3 |                     5 |                   24 |                 17 |           671 |                6 |         1473078 |                     0 |      42398146 | 2017-02-09 04:09:38.75805+01

 2017-02-09 04:21:12.284671+01 | 1486610472.28467 |                 0 |               3 |                     5 |                   24 |                 17 |           671 |                6 |         1473078 |                     0 |      42482688 | 2017-02-09 04:09:38.75805+01

 2017-02-09 04:21:13.391055+01 | 1486610473.39106 |                 0 |               3 |                     5 |                   24 |                 17 |           671 |                6 |         1473078 |                     0 |      42557535 | 2017-02-09 04:09:38.75805+01

 2017-02-09 04:21:14.553954+01 | 1486610474.55395 |                 0 |               3 |                     5 |                   24 |                 17 |           671 |                6 |         1473078 |                     0 |      42620429 | 2017-02-09 04:09:38.75805+01

 2017-02-09 04:21:15.739051+01 | 1486610475.73905 |                 0 |               3 |                     5 |                   24 |                 17 |           671 |                6 |         1473078 |                     0 |      42705115 | 2017-02-09 04:09:38.75805+01

 2017-02-09 04:21:16.92555+01 | 1486610476.92555 |                 0 |               3 |                     5 |                   24 |                 17 |           671 |                6 |         1473078 |                     0 |      42789924 | 2017-02-09 04:09:38.75805+01

 2017-02-09 04:21:18.10804+01 | 1486610478.10804 |                 0 |               3 |                     5 |                   24 |                 17 |           671 |                6 |         1473078 |                     0 |      42874550 | 2017-02-09 04:09:38.75805+01

 2017-02-09 04:21:19.289526+01 | 1486610479.28953 |                 0 |               3 |                     5 |                   24 |                 17 |           671 |                6 |         1473078 |                     0 |      42959529 | 2017-02-09 04:09:38.75805+01

 2017-02-09 04:21:20.470405+01 | 1486610480.47041 |                 0 |               3 |                     5 |                   24 |                 17 |           671 |                6 |         1473078 |                     0 |      43044259 | 2017-02-09 04:09:38.75805+01

 2017-02-09 04:21:21.654144+01 | 1486610481.65414 |                 0 |               3 |                     5 |                   24 |                 17 |           671 |                6 |         1473078 |                     0 |      43128833 | 2017-02-09 04:09:38.75805+01

 2017-02-09 04:21:22.8385+01 | 1486610482.8385 |                 0 |               3 |                     5 |                   24 |                 17 |           671 |                6 |         1473078 |                     0 |      43213541 | 2017-02-09 04:09:38.75805+01

 2017-02-09 04:21:24.008575+01 | 1486610484.00857 |                 0 |               3 |                     5 |                   24 |                 17 |           671 |                6 |         1473078 |                     0 |      43283934 | 2017-02-09 04:09:38.75805+01

 2017-02-09 04:21:25.193165+01 | 1486610485.19317 |                 0 |               3 |                     5 |                   24 |                 17 |           671 |                6 |         1473078 |                     0 |      43368348 | 2017-02-09 04:09:38.75805+01

 2017-02-09 04:21:26.348246+01 | 1486610486.34825 |                 0 |               3 |                     5 |                   24 |                 17 |           671 |                6 |         1473078 |                     0 |      43452913 | 2017-02-09 04:09:38.75805+01

 2017-02-09 04:21:27.520923+01 | 1486610487.52092 |                 0 |               3 |                     5 |                   24 |                 17 |           671 |                6 |         1473078 |                     0 |      43537070 | 2017-02-09 04:09:38.75805+01

 2017-02-09 04:21:28.703303+01 | 1486610488.7033 |                 0 |               3 |                     5 |                   24 |                 17 |           671 |                6 |         1473078 |                     0 |      43621605 | 2017-02-09 04:09:38.75805+01

 2017-02-09 04:21:29.888967+01 | 1486610489.88897 |                 0 |               3 |                     5 |                   24 |                 17 |           671 |                6 |         1473078 |                     0 |      43706466 | 2017-02-09 04:09:38.75805+01

 2017-02-09 04:21:31.072601+01 | 1486610491.0726 |                 0 |               3 |                     5 |                   24 |                 17 |           671 |                6 |         1473078 |                     0 |      43776688 | 2017-02-09 04:09:38.75805+01

 2017-02-09 04:21:32.255998+01 | 1486610492.256 |                 0 |               3 |                     5 |                   24 |                 17 |           671 |                6 |         1473078 |                     0 |      43861353 | 2017-02-09 04:09:38.75805+01

 2017-02-09 04:21:33.436684+01 | 1486610493.43668 |                 0 |               3 |                     5 |                   24 |                 17 |           671 |                6 |         1473078 |                     0 |      43946103 | 2017-02-09 04:09:38.75805+01

 2017-02-09 04:21:34.616034+01 | 1486610494.61603 |                 0 |               3 |                     5 |                   24 |                 17 |           671 |                6 |         1473078 |                     0 |      44030746 | 2017-02-09 04:09:38.75805+01

 2017-02-09 04:21:35.783329+01 | 1486610495.78333 |                 0 |               3 |                     5 |                   24 |                 17 |           671 |                6 |         1473078 |                     0 |      44112024 | 2017-02-09 04:09:38.75805+01

 2017-02-09 04:21:36.938117+01 | 1486610496.93812 |                 0 |               3 |                     5 |                   24 |                 17 |           671 |                6 |         1473078 |                     0 |      44189948 | 2017-02-09 04:09:38.75805+01

 2017-02-09 04:21:38.109102+01 | 1486610498.1091 |                 0 |               3 |                     5 |                   24 |                 17 |           671 |                6 |         1473078 |                     0 |      44273614 | 2017-02-09 04:09:38.75805+01

 2017-02-09 04:21:39.289927+01 | 1486610499.28993 |                 0 |               3 |                     5 |                   24 |                 17 |           671 |                6 |         1473078 |                     0 |      44342189 | 2017-02-09 04:09:38.75805+01

 2017-02-09 04:21:40.446123+01 | 1486610500.44612 |                 0 |               3 |                     5 |                   24 |                 17 |           671 |                6 |         1473078 |                     0 |      44426775 | 2017-02-09 04:09:38.75805+01

 2017-02-09 04:21:41.611727+01 | 1486610501.61173 |                 0 |               3 |                     5 |                   24 |                 17 |           671 |                6 |         1473078 |                     0 |      44503955 | 2017-02-09 04:09:38.75805+01

 2017-02-09 04:21:42.766637+01 | 1486610502.76664 |                 0 |               3 |                     5 |                   24 |                 17 |           671 |                6 |         1473078 |                     0 |      44585594 | 2017-02-09 04:09:38.75805+01

 2017-02-09 04:21:43.91418+01 | 1486610503.91418 |                 0 |               3 |                     5 |                   24 |                 17 |           671 |                6 |         1473078 |                     0 |      44649653 | 2017-02-09 04:09:38.75805+01

 2017-02-09 04:21:45.093547+01 | 1486610505.09355 |                 0 |               3 |                     5 |                   24 |                 17 |           671 |                6 |         1473078 |                     0 |      44731264 | 2017-02-09 04:09:38.75805+01

 2017-02-09 04:21:46.223298+01 | 1486610506.2233 |                 0 |               3 |                     5 |                   24 |                 17 |           671 |                6 |         1473078 |                     0 |      44814645 | 2017-02-09 04:09:38.75805+01

 2017-02-09 04:21:47.401591+01 | 1486610507.40159 |                 0 |               3 |                     5 |                   24 |                 17 |           671 |                6 |         1473078 |                     0 |      44897232 | 2017-02-09 04:09:38.75805+01

 2017-02-09 04:21:48.585055+01 | 1486610508.58506 |                 0 |               3 |                     5 |                   24 |                 17 |           671 |                6 |         1473078 |                     0 |      44981914 | 2017-02-09 04:09:38.75805+01

 2017-02-09 04:21:49.766537+01 | 1486610509.76654 |                 0 |               3 |                     5 |                   24 |                 17 |           671 |                6 |         1473078 |                     0 |      45052215 | 2017-02-09 04:09:38.75805+01

 2017-02-09 04:21:50.944117+01 | 1486610510.94412 |                 0 |               3 |                     5 |                   24 |                 17 |           671 |                6 |         1473078 |                     0 |      45136733 | 2017-02-09 04:09:38.75805+01

 2017-02-09 04:21:52.125098+01 | 1486610512.1251 |                 0 |               3 |                     5 |                   24 |                 17 |           671 |                6 |         1473078 |                     0 |      45221337 | 2017-02-09 04:09:38.75805+01

 2017-02-09 04:21:53.294347+01 | 1486610513.29435 |                 0 |               3 |                     5 |                   24 |                 17 |           671 |                6 |         1473078 |                     0 |      45306162 | 2017-02-09 04:09:38.75805+01

 2017-02-09 04:21:54.458159+01 | 1486610514.45816 |                 0 |               3 |                     5 |                   24 |                 17 |           671 |                6 |         1473078 |                     0 |      45388813 | 2017-02-09 04:09:38.75805+01

 2017-02-09 04:21:55.632365+01 | 1486610515.63236 |                 0 |               3 |                     5 |                   24 |                 17 |           671 |                6 |         1473078 |                     0 |      45473640 | 2017-02-09 04:09:38.75805+01

 2017-02-09 04:21:56.811663+01 | 1486610516.81166 |                 0 |               3 |                     5 |                   24 |                 17 |           671 |                6 |         1473078 |                     0 |      45557913 | 2017-02-09 04:09:38.75805+01

 2017-02-09 04:21:57.995703+01 | 1486610517.9957 |                 0 |               3 |                     5 |                   24 |                 17 |           671 |                6 |         1473078 |                     0 |      45627141 | 2017-02-09 04:09:38.75805+01

 2017-02-09 04:21:59.180669+01 | 1486610519.18067 |                 0 |               3 |                     5 |                   24 |                 17 |           671 |                6 |         1473078 |                     0 |      45711669 | 2017-02-09 04:09:38.75805+01

 2017-02-09 04:22:00.355607+01 | 1486610520.35561 |                 0 |               3 |                     5 |                   24 |                 17 |           671 |                6 |         1473078 |                     0 |      45791609 | 2017-02-09 04:09:38.75805+01

 2017-02-09 04:22:01.537187+01 | 1486610521.53719 |                 0 |               3 |                     5 |                   24 |                 17 |           671 |                6 |         1473078 |                     0 |      45876036 | 2017-02-09 04:09:38.75805+01

 2017-02-09 04:22:02.720046+01 | 1486610522.72005 |                 0 |               3 |                     5 |                   24 |                 17 |           671 |                6 |         1473078 |                     0 |      45960480 | 2017-02-09 04:09:38.75805+01

 2017-02-09 04:22:03.903787+01 | 1486610523.90379 |                 0 |               3 |                     5 |                   24 |                 17 |           671 |                6 |         1473078 |                     0 |      46045320 | 2017-02-09 04:09:38.75805+01

 2017-02-09 04:22:05.085991+01 | 1486610525.08599 |                 0 |               3 |                     5 |                   24 |                 17 |           671 |                6 |         1473078 |                     0 |      46129999 | 2017-02-09 04:09:38.75805+01

 2017-02-09 04:22:06.265392+01 | 1486610526.26539 |                 0 |               3 |                     5 |                   24 |                 17 |           671 |                6 |         1473078 |                     0 |      46214792 | 2017-02-09 04:09:38.75805+01

 2017-02-09 04:22:07.45023+01 | 1486610527.45023 |                 0 |               3 |                     5 |                   24 |                 17 |           671 |                6 |         1473078 |                     0 |      46285297 | 2017-02-09 04:09:38.75805+01

 2017-02-09 04:22:08.632659+01 | 1486610528.63266 |                 0 |               3 |                     5 |                   24 |                 17 |           671 |                6 |         1473078 |                     0 |      46370006 | 2017-02-09 04:09:38.75805+01

 2017-02-09 04:22:09.812019+01 | 1486610529.81202 |                 0 |               3 |                     5 |                   24 |                 17 |           671 |                6 |         1473078 |                     0 |      46454486 | 2017-02-09 04:09:38.75805+01

 2017-02-09 04:22:10.99444+01 | 1486610530.99444 |                 0 |               3 |                     5 |                   24 |                 17 |           671 |                6 |         1473078 |                     0 |      46539075 | 2017-02-09 04:09:38.75805+01

 2017-02-09 04:22:12.17529+01 | 1486610532.17529 |                 0 |               3 |                     5 |                   24 |                 17 |           671 |                6 |         1473078 |                     0 |      46623125 | 2017-02-09 04:09:38.75805+01

 2017-02-09 04:22:13.351523+01 | 1486610533.35152 |                 0 |               3 |                     5 |                   24 |                 17 |           671 |                6 |         1473078 |                     0 |      46707775 | 2017-02-09 04:09:38.75805+01

 2017-02-09 04:22:14.532419+01 | 1486610534.53242 |                 0 |               3 |                     5 |                   24 |                 17 |           671 |                6 |         1473078 |                     0 |      46792428 | 2017-02-09 04:09:38.75805+01

 2017-02-09 04:22:15.715091+01 | 1486610535.71509 |                 0 |               3 |                     5 |                   24 |                 17 |           671 |                6 |         1473078 |                     0 |      46876686 | 2017-02-09 04:09:38.75805+01

 2017-02-09 04:22:16.897611+01 | 1486610536.89761 |                 0 |               3 |                     5 |                   24 |                 17 |           671 |                6 |         1473078 |                     0 |      46946832 | 2017-02-09 04:09:38.75805+01

 2017-02-09 04:22:18.079844+01 | 1486610538.07984 |                 0 |               3 |                     5 |                   24 |                 17 |           671 |                6 |         1473078 |                     0 |      47031421 | 2017-02-09 04:09:38.75805+01

 2017-02-09 04:22:19.258878+01 | 1486610539.25888 |                 0 |               3 |                     5 |                   24 |                 17 |           671 |                6 |         1473078 |                     0 |      47115908 | 2017-02-09 04:09:38.75805+01

 2017-02-09 04:22:20.437531+01 | 1486610540.43753 |                 0 |               3 |                     5 |                   24 |                 17 |           671 |                6 |         1473078 |                     0 |      47200317 | 2017-02-09 04:09:38.75805+01

 2017-02-09 04:22:21.594631+01 | 1486610541.59463 |                 0 |               3 |                     5 |                   24 |                 17 |           671 |                6 |         1473078 |                     0 |      47284800 | 2017-02-09 04:09:38.75805+01

 2017-02-09 04:22:22.761426+01 | 1486610542.76143 |                 0 |               3 |                     5 |                   24 |                 17 |           671 |                6 |         1473078 |                     0 |      47368618 | 2017-02-09 04:09:38.75805+01

 2017-02-09 04:22:23.943823+01 | 1486610543.94382 |                 0 |               3 |                     5 |                   24 |                 17 |           671 |                6 |         1473078 |                     0 |      47453118 | 2017-02-09 04:09:38.75805+01

 2017-02-09 04:22:25.123473+01 | 1486610545.12347 |                 0 |               3 |                     5 |                   24 |                 17 |           671 |                6 |         1473078 |                     0 |      47523572 | 2017-02-09 04:09:38.75805+01

 2017-02-09 04:22:26.28647+01 | 1486610546.28647 |                 0 |               3 |                     5 |                   24 |                 17 |           671 |                6 |         1473078 |                     0 |      47608044 | 2017-02-09 04:09:38.75805+01

 2017-02-09 04:22:27.470225+01 | 1486610547.47023 |                 0 |               3 |                     5 |                   24 |                 17 |           671 |                6 |         1473078 |                     0 |      47692770 | 2017-02-09 04:09:38.75805+01

 2017-02-09 04:22:28.65318+01 | 1486610548.65318 |                 0 |               3 |                     5 |                   24 |                 17 |           671 |                6 |         1473078 |                     0 |      47777139 | 2017-02-09 04:09:38.75805+01

 2017-02-09 04:22:29.838069+01 | 1486610549.83807 |                 0 |               3 |                     5 |                   24 |                 17 |           671 |                6 |         1473078 |                     0 |      47862057 | 2017-02-09 04:09:38.75805+01

 2017-02-09 04:22:31.022743+01 | 1486610551.02274 |                 0 |               3 |                     5 |                   24 |                 17 |           671 |                6 |         1473078 |                     0 |      47946858 | 2017-02-09 04:09:38.75805+01

 2017-02-09 04:22:32.185648+01 | 1486610552.18565 |                 0 |               3 |                     5 |                   24 |                 17 |           671 |                6 |         1473078 |                     0 |      48031493 | 2017-02-09 04:09:38.75805+01

 2017-02-09 04:22:33.309063+01 | 1486610553.30906 |                 0 |               3 |                     5 |                   24 |                 17 |           671 |                6 |         1473078 |                     0 |      48101892 | 2017-02-09 04:09:38.75805+01

 2017-02-09 04:22:34.471009+01 | 1486610554.47101 |                 0 |               3 |                     5 |                   24 |                 17 |           671 |                6 |         1473078 |                     0 |      48182366 | 2017-02-09 04:09:38.75805+01

 2017-02-09 04:22:35.653213+01 | 1486610555.65321 |                 0 |               3 |                     5 |                   24 |                 17 |           671 |                6 |         1473078 |                     0 |      48266572 | 2017-02-09 04:09:38.75805+01

 2017-02-09 04:22:36.838102+01 | 1486610556.8381 |                 0 |               3 |                     5 |                   24 |                 17 |           671 |                6 |         1473078 |                     0 |      48351295 | 2017-02-09 04:09:38.75805+01

 2017-02-09 04:22:37.998042+01 | 1486610557.99804 |                 0 |               3 |                     5 |                   24 |                 17 |           671 |                6 |         1473078 |                     0 |      48435944 | 2017-02-09 04:09:38.75805+01

 2017-02-09 04:22:39.17068+01 | 1486610559.17068 |                 0 |               3 |                     5 |                   24 |                 17 |           671 |                6 |         1473078 |                     0 |      48506293 | 2017-02-09 04:09:38.75805+01

 2017-02-09 04:22:40.353283+01 | 1486610560.35328 |                 0 |               3 |                     5 |                   24 |                 17 |           671 |                6 |         1473078 |                     0 |      48591049 | 2017-02-09 04:09:38.75805+01

 2017-02-09 04:22:41.535627+01 | 1486610561.53563 |                 0 |               3 |                     5 |                   24 |                 17 |           671 |                6 |         1473078 |                     0 |      48674547 | 2017-02-09 04:09:38.75805+01

 2017-02-09 04:22:42.714708+01 | 1486610562.71471 |                 0 |               3 |                     5 |                   24 |                 17 |           671 |                6 |         1473078 |                     0 |      48759133 | 2017-02-09 04:09:38.75805+01

 2017-02-09 04:22:43.899605+01 | 1486610563.89961 |                 0 |               3 |                     5 |                   24 |                 17 |           671 |                6 |         1473078 |                     0 |      48843760 | 2017-02-09 04:09:38.75805+01

 2017-02-09 04:22:45.084421+01 | 1486610565.08442 |                 0 |               3 |                     5 |                   24 |                 17 |           671 |                6 |         1473078 |                     0 |      48928449 | 2017-02-09 04:09:38.75805+01

 2017-02-09 04:22:46.266646+01 | 1486610566.26665 |                 0 |               3 |                     5 |                   24 |                 17 |           671 |                6 |         1473078 |                     0 |      49013103 | 2017-02-09 04:09:38.75805+01

 2017-02-09 04:22:47.448287+01 | 1486610567.44829 |                 0 |               3 |                     5 |                   24 |                 17 |           671 |                6 |         1473078 |                     0 |      49083203 | 2017-02-09 04:09:38.75805+01

 2017-02-09 04:22:48.629484+01 | 1486610568.62948 |                 0 |               3 |                     5 |                   24 |                 17 |           671 |                6 |         1473078 |                     0 |      49166912 | 2017-02-09 04:09:38.75805+01

 2017-02-09 04:22:49.815796+01 | 1486610569.8158 |                 0 |               3 |                     5 |                   24 |                 17 |           671 |                6 |         1473078 |                     0 |      49251220 | 2017-02-09 04:09:38.75805+01

 2017-02-09 04:22:50.997048+01 | 1486610570.99705 |                 0 |               3 |                     5 |                   24 |                 17 |           671 |                6 |         1473078 |                     0 |      49335583 | 2017-02-09 04:09:38.75805+01

 2017-02-09 04:22:52.163567+01 | 1486610572.16357 |                 0 |               3 |                     5 |                   24 |                 17 |           671 |                6 |         1473078 |                     0 |      49414447 | 2017-02-09 04:09:38.75805+01

 2017-02-09 04:22:53.345744+01 | 1486610573.34574 |                 0 |               3 |                     5 |                   24 |                 17 |           671 |                6 |         1473078 |                     0 |      49499135 | 2017-02-09 04:09:38.75805+01

 2017-02-09 04:22:54.461016+01 | 1486610574.46102 |                 0 |               3 |                     5 |                   24 |                 17 |           671 |                6 |         1473078 |                     0 |      49583450 | 2017-02-09 04:09:38.75805+01

 2017-02-09 04:22:55.62412+01 | 1486610575.62412 |                 0 |               3 |                     5 |                   24 |                 17 |           671 |                6 |         1473078 |                     0 |      49653616 | 2017-02-09 04:09:38.75805+01

 2017-02-09 04:22:56.80572+01 | 1486610576.80572 |                 0 |               3 |                     5 |                   24 |                 17 |           671 |                6 |         1473078 |                     0 |      49738318 | 2017-02-09 04:09:38.75805+01

 2017-02-09 04:22:57.987917+01 | 1486610577.98792 |                 0 |               3 |                     5 |                   24 |                 17 |           671 |                6 |         1473078 |                     0 |      49822875 | 2017-02-09 04:09:38.75805+01

 2017-02-09 04:22:59.170398+01 | 1486610579.1704 |                 0 |               3 |                     5 |                   24 |                 17 |           671 |                6 |         1473078 |                     0 |      49907151 | 2017-02-09 04:09:38.75805+01

 2017-02-09 04:23:00.351308+01 | 1486610580.35131 |                 0 |               3 |                     5 |                   24 |                 17 |           671 |                6 |         1473078 |                     0 |      49991615 | 2017-02-09 04:09:38.75805+01

 2017-02-09 04:23:01.529441+01 | 1486610581.52944 |                 0 |               3 |                     5 |                   24 |                 17 |           671 |                6 |         1473078 |                     0 |      50076116 | 2017-02-09 04:09:38.75805+01

 2017-02-09 04:23:02.711772+01 | 1486610582.71177 |                 0 |               3 |                     5 |                   24 |                 17 |           671 |                6 |         1473078 |                     0 |      50146953 | 2017-02-09 04:09:38.75805+01

 2017-02-09 04:23:03.896004+01 | 1486610583.896 |                 0 |               3 |                     5 |                   24 |                 17 |           671 |                6 |         1473078 |                     0 |      50231422 | 2017-02-09 04:09:38.75805+01

 2017-02-09 04:23:05.077442+01 | 1486610585.07744 |                 0 |               3 |                     5 |                   24 |                 17 |           671 |                6 |         1473078 |                     0 |      50316121 | 2017-02-09 04:09:38.75805+01

 2017-02-09 04:23:06.259527+01 | 1486610586.25953 |                 0 |               3 |                     5 |                   24 |                 17 |           671 |                6 |         1473078 |                     0 |      50400509 | 2017-02-09 04:09:38.75805+01

 2017-02-09 04:23:07.442862+01 | 1486610587.44286 |                 0 |               3 |                     5 |                   24 |                 17 |           671 |                6 |         1473078 |                     0 |      50485154 | 2017-02-09 04:09:38.75805+01

 2017-02-09 04:23:08.625379+01 | 1486610588.62538 |                 0 |               3 |                     5 |                   24 |                 17 |           671 |                6 |         1473078 |                     0 |      50569671 | 2017-02-09 04:09:38.75805+01

 2017-02-09 04:23:09.805672+01 | 1486610589.80567 |                 0 |               3 |                     5 |                   24 |                 17 |           671 |                6 |         1473078 |                     0 |      50653619 | 2017-02-09 04:09:38.75805+01

 2017-02-09 04:23:10.987459+01 | 1486610590.98746 |                 0 |               3 |                     5 |                   24 |                 17 |           671 |                6 |         1473078 |                     0 |      50738383 | 2017-02-09 04:09:38.75805+01

 2017-02-09 04:23:12.170339+01 | 1486610592.17034 |                 0 |               3 |                     5 |                   24 |                 17 |           671 |                6 |         1473078 |                     0 |      50808060 | 2017-02-09 04:09:38.75805+01

 2017-02-09 04:23:13.352152+01 | 1486610593.35215 |                 0 |               3 |                     5 |                   24 |                 17 |           671 |                6 |         1473078 |                     0 |      50892531 | 2017-02-09 04:09:38.75805+01

 2017-02-09 04:23:14.534481+01 | 1486610594.53448 |                 0 |               3 |                     5 |                   24 |                 17 |           671 |                6 |         1473078 |                     0 |      50977208 | 2017-02-09 04:09:38.75805+01

 2017-02-09 04:23:15.711307+01 | 1486610595.71131 |                 0 |               3 |                     5 |                   24 |                 17 |           671 |                6 |         1473078 |                     0 |      51061384 | 2017-02-09 04:09:38.75805+01

 2017-02-09 04:23:16.827257+01 | 1486610596.82726 |                 0 |               3 |                     5 |                   24 |                 17 |           671 |                6 |         1473078 |                     0 |      51140998 | 2017-02-09 04:09:38.75805+01

 2017-02-09 04:23:17.947285+01 | 1486610597.94728 |                 0 |               3 |                     5 |                   24 |                 17 |           671 |                6 |         1473078 |                     0 |      51204108 | 2017-02-09 04:09:38.75805+01

 2017-02-09 04:23:19.048247+01 | 1486610599.04825 |                 0 |               3 |                     5 |                   24 |                 17 |           671 |                6 |         1473078 |                     0 |      51279904 | 2017-02-09 04:09:38.75805+01

 2017-02-09 04:23:20.173149+01 | 1486610600.17315 |                 0 |               3 |                     5 |                   24 |                 17 |           671 |                6 |         1473078 |                     0 |      51347992 | 2017-02-09 04:09:38.75805+01

 2017-02-09 04:23:21.311172+01 | 1486610601.31117 |                 0 |               3 |                     5 |                   24 |                 17 |           671 |                6 |         1473078 |                     0 |      51432190 | 2017-02-09 04:09:38.75805+01

 2017-02-09 04:23:22.433202+01 | 1486610602.4332 |                 0 |               3 |                     5 |                   24 |                 17 |           671 |                6 |         1473078 |                     0 |      51509568 | 2017-02-09 04:09:38.75805+01

 2017-02-09 04:23:23.521952+01 | 1486610603.52195 |                 0 |               3 |                     5 |                   24 |                 17 |           671 |                6 |         1473078 |                     0 |      51573253 | 2017-02-09 04:09:38.75805+01

 2017-02-09 04:23:24.685762+01 | 1486610604.68576 |                 0 |               3 |                     5 |                   24 |                 17 |           671 |                6 |         1473078 |                     0 |      51649513 | 2017-02-09 04:09:38.75805+01

 2017-02-09 04:23:25.872977+01 | 1486610605.87298 |                 0 |               3 |                     5 |                   24 |                 17 |           671 |                6 |         1473078 |                     0 |      51733754 | 2017-02-09 04:09:38.75805+01

 2017-02-09 04:23:27.05693+01 | 1486610607.05693 |                 0 |               3 |                     5 |                   24 |                 17 |           671 |                6 |         1473078 |                     0 |      51817912 | 2017-02-09 04:09:38.75805+01

 2017-02-09 04:23:28.23999+01 | 1486610608.23999 |                 0 |               3 |                     5 |                   24 |                 17 |           671 |                6 |         1473078 |                     0 |      51888286 | 2017-02-09 04:09:38.75805+01

 2017-02-09 04:23:29.412255+01 | 1486610609.41226 |                 0 |               3 |                     5 |                   24 |                 17 |           671 |                6 |         1473078 |                     0 |      51973015 | 2017-02-09 04:09:38.75805+01

 2017-02-09 04:23:30.57949+01 | 1486610610.57949 |                 0 |               3 |                     5 |                   24 |                 17 |           671 |                6 |         1473078 |                     0 |      52057449 | 2017-02-09 04:09:38.75805+01

 2017-02-09 04:23:31.744399+01 | 1486610611.7444 |                 0 |               3 |                     5 |                   24 |                 17 |           671 |                6 |         1473078 |                     0 |      52137031 | 2017-02-09 04:09:38.75805+01

 2017-02-09 04:23:32.914734+01 | 1486610612.91473 |                 0 |               3 |                     5 |                   24 |                 17 |           671 |                6 |         1473078 |                     0 |      52217345 | 2017-02-09 04:09:38.75805+01

 2017-02-09 04:23:34.09964+01 | 1486610614.09964 |                 0 |               3 |                     5 |                   24 |                 17 |           671 |                6 |         1473078 |                     0 |      52302351 | 2017-02-09 04:09:38.75805+01

 2017-02-09 04:23:35.282396+01 | 1486610615.2824 |                 0 |               3 |                     5 |                   24 |                 17 |           671 |                6 |         1473078 |                     0 |      52373142 | 2017-02-09 04:09:38.75805+01

 2017-02-09 04:23:36.468854+01 | 1486610616.46885 |                 0 |               3 |                     5 |                   24 |                 17 |           671 |                6 |         1473078 |                     0 |      52458006 | 2017-02-09 04:09:38.75805+01

 2017-02-09 04:23:37.650698+01 | 1486610617.6507 |                 0 |               3 |                     5 |                   24 |                 17 |           671 |                6 |         1473078 |                     0 |      52542698 | 2017-02-09 04:09:38.75805+01

 2017-02-09 04:23:38.806458+01 | 1486610618.80646 |                 0 |               3 |                     5 |                   24 |                 17 |           671 |                6 |         1473078 |                     0 |      52626843 | 2017-02-09 04:09:38.75805+01

 2017-02-09 04:23:39.976171+01 | 1486610619.97617 |                 0 |               3 |                     5 |                   24 |                 17 |           671 |                6 |         1473078 |                     0 |      52710170 | 2017-02-09 04:09:38.75805+01

 2017-02-09 04:23:41.141283+01 | 1486610621.14128 |                 0 |               3 |                     5 |                   24 |                 17 |           671 |                6 |         1473078 |                     0 |      52794858 | 2017-02-09 04:09:38.75805+01

 2017-02-09 04:23:42.319819+01 | 1486610622.31982 |                 0 |               3 |                     5 |                   24 |                 17 |           671 |                6 |         1473078 |                     0 |      52864519 | 2017-02-09 04:09:38.75805+01

 2017-02-09 04:23:43.500207+01 | 1486610623.50021 |                 0 |               3 |                     5 |                   24 |                 17 |           671 |                6 |         1473078 |                     0 |      52949130 | 2017-02-09 04:09:38.75805+01

 2017-02-09 04:23:44.681229+01 | 1486610624.68123 |                 0 |               3 |                     5 |                   24 |                 17 |           671 |                6 |         1473078 |                     0 |      53033833 | 2017-02-09 04:09:38.75805+01

 2017-02-09 04:23:45.86052+01 | 1486610625.86052 |                 0 |               3 |                     5 |                   24 |                 17 |           671 |                6 |         1473078 |                     0 |      53118310 | 2017-02-09 04:09:38.75805+01

 2017-02-09 04:23:47.043232+01 | 1486610627.04323 |                 0 |               3 |                     5 |                   24 |                 17 |           671 |                6 |         1473078 |                     0 |      53203052 | 2017-02-09 04:09:38.75805+01

 2017-02-09 04:23:48.232865+01 | 1486610628.23287 |                 0 |               3 |                     5 |                   24 |                 17 |           671 |                6 |         1473078 |                     0 |      53287497 | 2017-02-09 04:09:38.75805+01

 2017-02-09 04:23:49.413962+01 | 1486610629.41396 |                 0 |               3 |                     5 |                   24 |                 17 |           671 |                6 |         1473078 |                     0 |      53371760 | 2017-02-09 04:09:38.75805+01

 2017-02-09 04:23:50.597582+01 | 1486610630.59758 |                 0 |               3 |                     5 |                   24 |                 17 |           671 |                6 |         1473078 |                     0 |      53456441 | 2017-02-09 04:09:38.75805+01

 2017-02-09 04:23:51.781524+01 | 1486610631.78152 |                 0 |               3 |                     5 |                   24 |                 17 |           671 |                6 |         1473078 |                     0 |      53541177 | 2017-02-09 04:09:38.75805+01

 2017-02-09 04:23:52.96379+01 | 1486610632.96379 |                 0 |               3 |                     5 |                   24 |                 17 |           671 |                6 |         1473078 |                     0 |      53611715 | 2017-02-09 04:09:38.75805+01

 2017-02-09 04:23:54.14542+01 | 1486610634.14542 |                 0 |               3 |                     5 |                   24 |                 17 |           671 |                6 |         1473078 |                     0 |      53696357 | 2017-02-09 04:09:38.75805+01

 2017-02-09 04:23:55.328286+01 | 1486610635.32829 |                 0 |               3 |                     5 |                   24 |                 17 |           671 |                6 |         1473078 |                     0 |      53780769 | 2017-02-09 04:09:38.75805+01

 2017-02-09 04:23:56.514769+01 | 1486610636.51477 |                 0 |               3 |                     5 |                   24 |                 17 |           671 |                6 |         1473078 |                     0 |      53865072 | 2017-02-09 04:09:38.75805+01

 2017-02-09 04:23:57.677003+01 | 1486610637.677 |                 0 |               3 |                     5 |                   24 |                 17 |           671 |                6 |         1473078 |                     0 |      53949767 | 2017-02-09 04:09:38.75805+01

 2017-02-09 04:23:58.815873+01 | 1486610638.81587 |                 0 |               3 |                     5 |                   24 |                 17 |           671 |                6 |         1473078 |                     0 |      54033971 | 2017-02-09 04:09:38.75805+01

 2017-02-09 04:23:59.961954+01 | 1486610639.96195 |                 0 |               3 |                     5 |                   24 |                 17 |           671 |                6 |         1473078 |                     0 |      54102638 | 2017-02-09 04:09:38.75805+01

 2017-02-09 04:24:01.112271+01 | 1486610641.11227 |                 0 |               3 |                     5 |                   24 |                 17 |           671 |                6 |         1473078 |                     0 |      54180049 | 2017-02-09 04:09:38.75805+01

 2017-02-09 04:24:02.255278+01 | 1486610642.25528 |                 0 |               3 |                     5 |                   24 |                 17 |           671 |                6 |         1473078 |                     0 |      54262006 | 2017-02-09 04:09:38.75805+01

 2017-02-09 04:24:03.417886+01 | 1486610643.41789 |                 0 |               3 |                     5 |                   24 |                 17 |           671 |                6 |         1473078 |                     0 |      54328208 | 2017-02-09 04:09:38.75805+01

 2017-02-09 04:24:04.588385+01 | 1486610644.58839 |                 0 |               3 |                     5 |                   24 |                 17 |           671 |                6 |         1473078 |                     0 |      54412775 | 2017-02-09 04:09:38.75805+01

 2017-02-09 04:24:05.773753+01 | 1486610645.77375 |                 0 |               3 |                     5 |                   24 |                 17 |           671 |                6 |         1473078 |                     0 |      54497434 | 2017-02-09 04:09:38.75805+01

 2017-02-09 04:24:06.960125+01 | 1486610646.96012 |                 0 |               3 |                     5 |                   24 |                 17 |           671 |                6 |         1473078 |                     0 |      54582387 | 2017-02-09 04:09:38.75805+01

 2017-02-09 04:24:08.095226+01 | 1486610648.09523 |                 0 |               3 |                     5 |                   24 |                 17 |           671 |                6 |         1473078 |                     0 |      54663741 | 2017-02-09 04:09:38.75805+01

 2017-02-09 04:24:09.186215+01 | 1486610649.18621 |                 0 |               3 |                     5 |                   24 |                 17 |           671 |                6 |         1473078 |                     0 |      54727463 | 2017-02-09 04:09:38.75805+01

 2017-02-09 04:24:10.350016+01 | 1486610650.35002 |                 0 |               3 |                     5 |                   24 |                 17 |           671 |                6 |         1473078 |                     0 |      54809902 | 2017-02-09 04:09:38.75805+01

 2017-02-09 04:24:11.532604+01 | 1486610651.5326 |                 0 |               3 |                     5 |                   24 |                 17 |           671 |                6 |         1473078 |                     0 |      54894373 | 2017-02-09 04:09:38.75805+01

 2017-02-09 04:24:12.71763+01 | 1486610652.71763 |                 0 |               3 |                     5 |                   24 |                 17 |           671 |                6 |         1473078 |                     0 |      54979154 | 2017-02-09 04:09:38.75805+01

 2017-02-09 04:24:13.903172+01 | 1486610653.90317 |                 0 |               3 |                     5 |                   24 |                 17 |           671 |                6 |         1473078 |                     0 |      55063783 | 2017-02-09 04:09:38.75805+01

 2017-02-09 04:24:15.071057+01 | 1486610655.07106 |                 0 |               3 |                     5 |                   24 |                 17 |           671 |                6 |         1473078 |                     0 |      55134085 | 2017-02-09 04:09:38.75805+01

 2017-02-09 04:24:16.241147+01 | 1486610656.24115 |                 0 |               3 |                     5 |                   24 |                 17 |           671 |                6 |         1473078 |                     0 |      55218255 | 2017-02-09 04:09:38.75805+01

 2017-02-09 04:24:17.425773+01 | 1486610657.42577 |                 0 |               3 |                     5 |                   24 |                 17 |           671 |                6 |         1473078 |                     0 |      55302916 | 2017-02-09 04:09:38.75805+01

 2017-02-09 04:24:18.612489+01 | 1486610658.61249 |                 0 |               3 |                     5 |                   24 |                 17 |           671 |                6 |         1473078 |                     0 |      55387280 | 2017-02-09 04:09:38.75805+01

 2017-02-09 04:24:19.795058+01 | 1486610659.79506 |                 0 |               3 |                     5 |                   24 |                 17 |           671 |                6 |         1473078 |                     0 |      55471626 | 2017-02-09 04:09:38.75805+01

 2017-02-09 04:24:20.974829+01 | 1486610660.97483 |                 0 |               3 |                     5 |                   24 |                 17 |           671 |                6 |         1473078 |                     0 |      55556350 | 2017-02-09 04:09:38.75805+01

 2017-02-09 04:24:22.161138+01 | 1486610662.16114 |                 0 |               3 |                     5 |                   24 |                 17 |           671 |                6 |         1473078 |                     0 |      55641047 | 2017-02-09 04:09:38.75805+01

 2017-02-09 04:24:23.335069+01 | 1486610663.33507 |                 0 |               3 |                     5 |                   24 |                 17 |           671 |                6 |         1473078 |                     0 |      55725381 | 2017-02-09 04:09:38.75805+01

 2017-02-09 04:24:24.499255+01 | 1486610664.49925 |                 0 |               3 |                     5 |                   24 |                 17 |           671 |                6 |         1473078 |                     0 |      55795678 | 2017-02-09 04:09:38.75805+01

 2017-02-09 04:24:25.678392+01 | 1486610665.67839 |                 0 |               3 |                     5 |                   24 |                 17 |           671 |                6 |         1473078 |                     0 |      55880276 | 2017-02-09 04:09:38.75805+01

 2017-02-09 04:24:26.864057+01 | 1486610666.86406 |                 0 |               3 |                     5 |                   24 |                 17 |           671 |                6 |         1473078 |                     0 |      55964941 | 2017-02-09 04:09:38.75805+01

 2017-02-09 04:24:28.047094+01 | 1486610668.04709 |                 0 |               3 |                     5 |                   24 |                 17 |           671 |                6 |         1473078 |                     0 |      56049486 | 2017-02-09 04:09:38.75805+01

 2017-02-09 04:24:29.183961+01 | 1486610669.18396 |                 0 |               3 |                     5 |                   24 |                 17 |           671 |                6 |         1473078 |                     0 |      56134028 | 2017-02-09 04:09:38.75805+01

 2017-02-09 04:24:30.36305+01 | 1486610670.36305 |                 0 |               3 |                     5 |                   24 |                 17 |           671 |                6 |         1473078 |                     0 |      56203235 | 2017-02-09 04:09:38.75805+01

 2017-02-09 04:24:31.544807+01 | 1486610671.54481 |                 0 |               3 |                     5 |                   24 |                 17 |           671 |                6 |         1473078 |                     0 |      56287347 | 2017-02-09 04:09:38.75805+01

 2017-02-09 04:24:32.728764+01 | 1486610672.72876 |                 0 |               3 |                     5 |                   24 |                 17 |           671 |                6 |         1473078 |                     0 |      56371632 | 2017-02-09 04:09:38.75805+01

 2017-02-09 04:24:33.846763+01 | 1486610673.84676 |                 0 |               3 |                     5 |                   24 |                 17 |           671 |                6 |         1473078 |                     0 |      56456302 | 2017-02-09 04:09:38.75805+01

 2017-02-09 04:24:35.009471+01 | 1486610675.00947 |                 0 |               3 |                     5 |                   24 |                 17 |           671 |                6 |         1473078 |                     0 |      56540740 | 2017-02-09 04:09:38.75805+01

 2017-02-09 04:24:36.177622+01 | 1486610676.17762 |                 0 |               3 |                     5 |                   24 |                 17 |           671 |                6 |         1473078 |                     0 |      56610583 | 2017-02-09 04:09:38.75805+01

 2017-02-09 04:24:37.327453+01 | 1486610677.32745 |                 0 |               3 |                     5 |                   24 |                 17 |           671 |                6 |         1473078 |                     0 |      56695220 | 2017-02-09 04:09:38.75805+01

 2017-02-09 04:24:38.45846+01 | 1486610678.45846 |                 0 |               3 |                     5 |                   24 |                 17 |           671 |                6 |         1473078 |                     0 |      56779689 | 2017-02-09 04:09:38.75805+01

 2017-02-09 04:24:39.58027+01 | 1486610679.58027 |                 0 |               3 |                     5 |                   24 |                 17 |           671 |                6 |         1473078 |                     0 |      56858797 | 2017-02-09 04:09:38.75805+01

 2017-02-09 04:24:40.715281+01 | 1486610680.71528 |                 0 |               3 |                     5 |                   24 |                 17 |           671 |                6 |         1473078 |                     0 |      56925405 | 2017-02-09 04:09:38.75805+01

 2017-02-09 04:24:41.875874+01 | 1486610681.87587 |                 0 |               3 |                     5 |                   24 |                 17 |           671 |                6 |         1473078 |                     0 |      57005930 | 2017-02-09 04:09:38.75805+01

 2017-02-09 04:24:43.05708+01 | 1486610683.05708 |                 0 |               3 |                     5 |                   24 |                 17 |           671 |                6 |         1473078 |                     0 |      57090527 | 2017-02-09 04:09:38.75805+01

 2017-02-09 04:24:44.242404+01 | 1486610684.2424 |                 0 |               3 |                     5 |                   24 |                 17 |           671 |                6 |         1473078 |                     0 |      57160535 | 2017-02-09 04:09:38.75805+01

 2017-02-09 04:24:45.426832+01 | 1486610685.42683 |                 0 |               3 |                     5 |                   24 |                 17 |           671 |                6 |         1473078 |                     0 |      57245197 | 2017-02-09 04:09:38.75805+01

 2017-02-09 04:24:46.613399+01 | 1486610686.6134 |                 0 |               3 |                     5 |                   24 |                 17 |           671 |                6 |         1473078 |                     0 |      57329863 | 2017-02-09 04:09:38.75805+01

 2017-02-09 04:24:47.789787+01 | 1486610687.78979 |                 0 |               3 |                     5 |                   24 |                 17 |           671 |                6 |         1473078 |                     0 |      57414490 | 2017-02-09 04:09:38.75805+01

 2017-02-09 04:24:48.970839+01 | 1486610688.97084 |                 0 |               3 |                     5 |                   24 |                 17 |           671 |                6 |         1473078 |                     0 |      57498723 | 2017-02-09 04:09:38.75805+01

 2017-02-09 04:24:50.110276+01 | 1486610690.11028 |                 0 |               3 |                     5 |                   24 |                 17 |           671 |                6 |         1473078 |                     0 |      57583245 | 2017-02-09 04:09:38.75805+01

 2017-02-09 04:24:51.271575+01 | 1486610691.27157 |                 0 |               3 |                     5 |                   24 |                 17 |           671 |                6 |         1473078 |                     0 |      57666508 | 2017-02-09 04:09:38.75805+01

 2017-02-09 04:24:52.439035+01 | 1486610692.43903 |                 0 |               3 |                     5 |                   24 |                 17 |           671 |                6 |         1473078 |                     0 |      57730625 | 2017-02-09 04:09:38.75805+01

 2017-02-09 04:24:53.58154+01 | 1486610693.58154 |                 0 |               3 |                     5 |                   24 |                 17 |           671 |                6 |         1473078 |                     0 |      57812837 | 2017-02-09 04:09:38.75805+01

 2017-02-09 04:24:54.662322+01 | 1486610694.66232 |                 0 |               3 |                     5 |                   24 |                 17 |           671 |                6 |         1473078 |                     0 |      57885595 | 2017-02-09 04:09:38.75805+01

 2017-02-09 04:24:55.751014+01 | 1486610695.75101 |                 0 |               3 |                     5 |                   24 |                 17 |           671 |                6 |         1473078 |                     0 |      57947530 | 2017-02-09 04:09:38.75805+01

 2017-02-09 04:24:56.84322+01 | 1486610696.84322 |                 0 |               3 |                     5 |                   24 |                 17 |           671 |                6 |         1473078 |                     0 |      58010208 | 2017-02-09 04:09:38.75805+01

 2017-02-09 04:24:57.972297+01 | 1486610697.9723 |                 0 |               3 |                     5 |                   24 |                 17 |           671 |                6 |         1473078 |                     0 |      58084453 | 2017-02-09 04:09:38.75805+01

 2017-02-09 04:24:59.083414+01 | 1486610699.08341 |                 0 |               3 |                     5 |                   24 |                 17 |           671 |                6 |         1473078 |                     0 |      58160196 | 2017-02-09 04:09:38.75805+01

 2017-02-09 04:25:00.203375+01 | 1486610700.20338 |                 0 |               3 |                     5 |                   24 |                 17 |           671 |                6 |         1473078 |                     0 |      58229207 | 2017-02-09 04:09:38.75805+01

 2017-02-09 04:25:01.374883+01 | 1486610701.37488 |                 0 |               3 |                     5 |                   24 |                 17 |           671 |                6 |         1473078 |                     0 |      58305754 | 2017-02-09 04:09:38.75805+01

 2017-02-09 04:25:02.559729+01 | 1486610702.55973 |                 0 |               3 |                     5 |                   24 |                 17 |           671 |                6 |         1473078 |                     0 |      58390246 | 2017-02-09 04:09:38.75805+01

 2017-02-09 04:25:03.717068+01 | 1486610703.71707 |                 0 |               3 |                     5 |                   24 |                 17 |           671 |                6 |         1473078 |                     0 |      58474706 | 2017-02-09 04:09:38.75805+01

 2017-02-09 04:25:04.883065+01 | 1486610704.88306 |                 0 |               3 |                     5 |                   24 |                 17 |           671 |                6 |         1473078 |                     0 |      58544535 | 2017-02-09 04:09:38.75805+01

 2017-02-09 04:25:06.067791+01 | 1486610706.06779 |                 0 |               3 |                     5 |                   24 |                 17 |           671 |                6 |         1473078 |                     0 |      58629056 | 2017-02-09 04:09:38.75805+01

 2017-02-09 04:25:07.250281+01 | 1486610707.25028 |                 0 |               3 |                     5 |                   24 |                 17 |           671 |                6 |         1473078 |                     0 |      58713476 | 2017-02-09 04:09:38.75805+01

 2017-02-09 04:25:08.432818+01 | 1486610708.43282 |                 0 |               3 |                     5 |                   24 |                 17 |           671 |                6 |         1473078 |                     0 |      58797932 | 2017-02-09 04:09:38.75805+01

 2017-02-09 04:25:09.603494+01 | 1486610709.60349 |                 0 |               3 |                     5 |                   24 |                 17 |           671 |                6 |         1473078 |                     0 |      58868214 | 2017-02-09 04:09:38.75805+01

 2017-02-09 04:25:10.718345+01 | 1486610710.71834 |                 0 |               3 |                     5 |                   24 |                 17 |           671 |                6 |         1473078 |                     0 |      58966966 | 2017-02-09 04:09:38.75805+01

 2017-02-09 04:25:11.860846+01 | 1486610711.86085 |                 0 |               3 |                     5 |                   24 |                 17 |           671 |                6 |         1473078 |                     0 |      59027378 | 2017-02-09 04:09:38.75805+01

 2017-02-09 04:25:12.973238+01 | 1486610712.97324 |                 0 |               3 |                     5 |                   24 |                 17 |           671 |                6 |         1473078 |                     0 |      59100896 | 2017-02-09 04:09:38.75805+01

 2017-02-09 04:25:14.149621+01 | 1486610714.14962 |                 0 |               3 |                     5 |                   24 |                 17 |           671 |                6 |         1473078 |                     0 |      59168631 | 2017-02-09 04:09:38.75805+01

 2017-02-09 04:25:15.331702+01 | 1486610715.3317 |                 0 |               3 |                     5 |                   24 |                 17 |           671 |                6 |         1473078 |                     0 |      59253308 | 2017-02-09 04:09:38.75805+01

 2017-02-09 04:25:16.515916+01 | 1486610716.51592 |                 0 |               3 |                     5 |                   24 |                 17 |           671 |                6 |         1473078 |                     0 |      59337735 | 2017-02-09 04:09:38.75805+01

 2017-02-09 04:25:17.69702+01 | 1486610717.69702 |                 0 |               3 |                     5 |                   24 |                 17 |           671 |                6 |         1473078 |                     0 |      59422499 | 2017-02-09 04:09:38.75805+01

 2017-02-09 04:25:18.878363+01 | 1486610718.87836 |                 0 |               3 |                     5 |                   24 |                 17 |           671 |                6 |         1473078 |                     0 |      59507065 | 2017-02-09 04:09:38.75805+01

 2017-02-09 04:25:20.048616+01 | 1486610720.04862 |                 0 |               3 |                     5 |                   24 |                 17 |           671 |                6 |         1473078 |                     0 |      59591947 | 2017-02-09 04:09:38.75805+01

 2017-02-09 04:25:21.214121+01 | 1486610721.21412 |                 0 |               3 |                     5 |                   24 |                 17 |           671 |                6 |         1473078 |                     0 |      59660682 | 2017-02-09 04:09:38.75805+01

 2017-02-09 04:25:22.395481+01 | 1486610722.39548 |                 0 |               3 |                     5 |                   24 |                 17 |           671 |                6 |         1473078 |                     0 |      59745190 | 2017-02-09 04:09:38.75805+01

 2017-02-09 04:25:23.57931+01 | 1486610723.57931 |                 0 |               3 |                     5 |                   24 |                 17 |           671 |                6 |         1473078 |                     0 |      59829813 | 2017-02-09 04:09:38.75805+01

 2017-02-09 04:25:24.760029+01 | 1486610724.76003 |                 0 |               3 |                     5 |                   24 |                 17 |           671 |                6 |         1473078 |                     0 |      59914425 | 2017-02-09 04:09:38.75805+01

 2017-02-09 04:25:25.942178+01 | 1486610725.94218 |                 0 |               3 |                     5 |                   24 |                 17 |           671 |                6 |         1473078 |                     0 |      59999367 | 2017-02-09 04:09:38.75805+01

 2017-02-09 04:25:27.116922+01 | 1486610727.11692 |                 0 |               3 |                     5 |                   24 |                 17 |           671 |                6 |         1473078 |                     0 |      60083678 | 2017-02-09 04:09:38.75805+01

 2017-02-09 04:25:28.285685+01 | 1486610728.28569 |                 0 |               3 |                     5 |                   24 |                 17 |           671 |                6 |         1473078 |                     0 |      60168127 | 2017-02-09 04:09:38.75805+01

