 2017-02-09 05:46:05.229527+01 | 1486615565.22953 | 0/B284A900               |            2995038464

 2017-02-09 05:46:06.275468+01 | 1486615566.27547 | 0/B4CCBD88               |            3033316744

 2017-02-09 05:46:07.32822+01 | 1486615567.32822 | 0/B6F16330               |            3069272880

 2017-02-09 05:46:08.379773+01 | 1486615568.37977 | 0/B90B9250               |            3104543312

 2017-02-09 05:46:09.43196+01 | 1486615569.43196 | 0/BB1AC558               |            3139093848

 2017-02-09 05:46:10.481984+01 | 1486615570.48198 | 0/BD0C65F0               |            3171706352

 2017-02-09 05:46:11.532277+01 | 1486615571.53228 | 0/BEEDA0C8               |            3203244232

 2017-02-09 05:46:12.583357+01 | 1486615572.58336 | 0/C0A0B878               |            3231758456

 2017-02-09 05:46:13.635811+01 | 1486615573.63581 | 0/C23FED38               |            3258969400

 2017-02-09 05:46:14.68762+01 | 1486615574.68762 | 0/C3D48440               |            3285484608

 2017-02-09 05:46:15.736654+01 | 1486615575.73665 | 0/C5431A40               |            3309509184

 2017-02-09 05:46:16.792468+01 | 1486615576.79247 | 0/C6B5C0E8               |            3333800168

 2017-02-09 05:46:17.842829+01 | 1486615577.84283 | 0/C8058880               |            3355805824

 2017-02-09 05:46:18.894631+01 | 1486615578.89463 | 0/C95167B8               |            3377555384

 2017-02-09 05:46:19.947522+01 | 1486615579.94752 | 0/CA85D058               |            3397767256

 2017-02-09 05:46:20.998524+01 | 1486615580.99852 | 0/CBB248B8               |            3417458872

 2017-02-09 05:46:22.049389+01 | 1486615582.04939 | 0/CCD7FE50               |            3436707408

 2017-02-09 05:46:23.106623+01 | 1486615583.10662 | 0/CDEC3A18               |            3454810648

 2017-02-09 05:46:24.168093+01 | 1486615584.16809 | 0/CEFAAA30               |            3472534064

 2017-02-09 05:46:25.218349+01 | 1486615585.21835 | 0/D023EE68               |            3492015720

 2017-02-09 05:46:26.261006+01 | 1486615586.26101 | 0/D1F5E6F8               |            3522553592

 2017-02-09 05:46:27.314242+01 | 1486615587.31424 | 0/D3AC4EE0               |            3551284960

 2017-02-09 05:46:28.363673+01 | 1486615588.36367 | 0/D53C7430               |            3577508912

 2017-02-09 05:46:29.416713+01 | 1486615589.41671 | 0/D6C3FC38               |            3603168312

 2017-02-09 05:46:30.475042+01 | 1486615590.47504 | 0/D82815D8               |            3626505688

 2017-02-09 05:46:31.529337+01 | 1486615591.52934 | 0/D97F9EA8               |            3649019560

 2017-02-09 05:46:32.584611+01 | 1486615592.58461 | 0/DABB78E8               |            3669719272

 2017-02-09 05:46:33.636557+01 | 1486615593.63656 | 0/DBF4E6B8               |            3690260152

 2017-02-09 05:46:34.691141+01 | 1486615594.69114 | 0/DD16BDB0               |            3709255088

 2017-02-09 05:46:35.75196+01 | 1486615595.75196 | 0/DE270508               |            3727099144

 2017-02-09 05:46:36.8142+01 | 1486615596.8142 | 0/DF2B2980               |            3744147840

 2017-02-09 05:46:37.868734+01 | 1486615597.86873 | 0/E03640E0               |            3761651936

 2017-02-09 05:46:38.924698+01 | 1486615598.9247 | 0/E15140D0               |            3780198608

 2017-02-09 05:46:39.982242+01 | 1486615599.98224 | 0/E2089D08               |            3792215304

 2017-02-09 05:46:41.036529+01 | 1486615601.03653 | 0/E22E3CE8               |            3794681064

 2017-02-09 05:46:42.098396+01 | 1486615602.0984 | 0/E2541870               |            3797162096

 2017-02-09 05:46:43.158676+01 | 1486615603.15868 | 0/E2796F10               |            3799609104

 2017-02-09 05:46:44.21171+01 | 1486615604.21171 | 0/E29C8000               |            3801907200

 2017-02-09 05:46:45.268111+01 | 1486615605.26811 | 0/E2C0A818               |            3804276760

 2017-02-09 05:46:46.323293+01 | 1486615606.32329 | 0/E2E4AE00               |            3806637568

 2017-02-09 05:46:47.38229+01 | 1486615607.38229 | 0/E309C728               |            3809068840

 2017-02-09 05:46:48.441025+01 | 1486615608.44103 | 0/E32CF090               |            3811373200

 2017-02-09 05:46:49.501035+01 | 1486615609.50103 | 0/E3513AE0               |            3813751520

 2017-02-09 05:46:50.555805+01 | 1486615610.5558 | 0/E3746000               |            3816054784

 2017-02-09 05:46:51.609578+01 | 1486615611.60958 | 0/E3988230               |            3818422832

 2017-02-09 05:46:52.668379+01 | 1486615612.66838 | 0/E3BD4818               |            3820832792

 2017-02-09 05:46:53.728112+01 | 1486615613.72811 | 0/E3E25658               |            3823261272

 2017-02-09 05:46:54.783486+01 | 1486615614.78349 | 0/E405BC20               |            3825581088

 2017-02-09 05:46:55.839525+01 | 1486615615.83952 | 0/E42A7800               |            3827988480

 2017-02-09 05:46:56.900647+01 | 1486615616.90065 | 0/E44F6C58               |            3830410328

 2017-02-09 05:46:57.960396+01 | 1486615617.9604 | 0/E474E3B8               |            3832865720

 2017-02-09 05:46:59.014826+01 | 1486615619.01483 | 0/E49B6EF0               |            3835391728

 2017-02-09 05:47:00.080872+01 | 1486615620.08087 | 0/E4C19390               |            3837891472

 2017-02-09 05:47:01.133821+01 | 1486615621.13382 | 0/E4E78CC8               |            3840380104

 2017-02-09 05:47:02.200394+01 | 1486615622.20039 | 0/E50C9E90               |            3842809488

 2017-02-09 05:47:03.268518+01 | 1486615623.26852 | 0/E5331788               |            3845330824

 2017-02-09 05:47:04.325426+01 | 1486615624.32543 | 0/E558D728               |            3847804712

 2017-02-09 05:47:05.380524+01 | 1486615625.38052 | 0/E57E94C8               |            3850278088

 2017-02-09 05:47:06.435463+01 | 1486615626.43546 | 0/E5A3A1C8               |            3852706248

 2017-02-09 05:47:07.501453+01 | 1486615627.50145 | 0/E5CA4FD8               |            3855241176

 2017-02-09 05:47:08.559544+01 | 1486615628.55954 | 0/E5F0EF78               |            3857772408

 2017-02-09 05:47:09.623148+01 | 1486615629.62315 | 0/E6152860               |            3860146272

 2017-02-09 05:47:10.677085+01 | 1486615630.67708 | 0/E6392998               |            3862505880

 2017-02-09 05:47:11.733349+01 | 1486615631.73335 | 0/E65E8340               |            3864953664

 2017-02-09 05:47:12.795963+01 | 1486615632.79596 | 0/E6847610               |            3867440656

 2017-02-09 05:47:13.856508+01 | 1486615633.85651 | 0/E6ABDD80               |            3870023040

 2017-02-09 05:47:14.921858+01 | 1486615634.92186 | 0/E6D14EA0               |            3872476832

 2017-02-09 05:47:15.979621+01 | 1486615635.97962 | 0/E6F69CB0               |            3874921648

 2017-02-09 05:47:17.040278+01 | 1486615637.04028 | 0/E71AE958               |            3877300568

 2017-02-09 05:47:18.102361+01 | 1486615638.10236 | 0/E74002B0               |            3879731888

 2017-02-09 05:47:19.153874+01 | 1486615639.15387 | 0/E764DFA8               |            3882147752

 2017-02-09 05:47:20.209965+01 | 1486615640.20996 | 0/E789CC90               |            3884567696

 2017-02-09 05:47:21.272942+01 | 1486615641.27294 | 0/E7AEA0B8               |            3886981304

 2017-02-09 05:47:22.330286+01 | 1486615642.33029 | 0/E7D13E30               |            3889249840

 2017-02-09 05:47:23.389696+01 | 1486615643.3897 | 0/E7F72FD0               |            3891736528

 2017-02-09 05:47:24.443133+01 | 1486615644.44313 | 0/E81C50A0               |            3894169760

 2017-02-09 05:47:25.502981+01 | 1486615645.50298 | 0/E85065C8               |            3897583048

 2017-02-09 05:47:26.554945+01 | 1486615646.55494 | 0/E89698A8               |            3902183592

 2017-02-09 05:47:27.619583+01 | 1486615647.61958 | 0/E8DCC438               |            3906782264

 2017-02-09 05:47:28.686116+01 | 1486615648.68612 | 0/E91F6240               |            3911148096

 2017-02-09 05:47:29.744459+01 | 1486615649.74446 | 0/E955E208               |            3914719752

 2017-02-09 05:47:30.806224+01 | 1486615650.80622 | 0/E97E57A8               |            3917371304

 2017-02-09 05:47:31.86918+01 | 1486615651.86918 | 0/E9A0F070               |            3919638640

 2017-02-09 05:47:32.930413+01 | 1486615652.93041 | 0/E9C3FE80               |            3921936000

 2017-02-09 05:47:33.992259+01 | 1486615653.99226 | 0/E9E651D8               |            3924185560

 2017-02-09 05:47:35.055039+01 | 1486615655.05504 | 0/EA085978               |            3926415736

 2017-02-09 05:47:36.107455+01 | 1486615656.10746 | 0/EA2C5F68               |            3928776552

 2017-02-09 05:47:37.161098+01 | 1486615657.1611 | 0/EA4F1B10               |            3931052816

 2017-02-09 05:47:38.220349+01 | 1486615658.22035 | 0/EA724D20               |            3933359392

 2017-02-09 05:47:39.284351+01 | 1486615659.28435 | 0/EA9640F8               |            3935715576

 2017-02-09 05:47:40.350856+01 | 1486615660.35086 | 0/EAB8EBB8               |            3937987512

 2017-02-09 05:47:41.41318+01 | 1486615661.41318 | 0/EADD3C48               |            3940367432

 2017-02-09 05:47:42.470078+01 | 1486615662.47008 | 0/EB00BF18               |            3942694680

 2017-02-09 05:47:43.52761+01 | 1486615663.52761 | 0/EB261160               |            3945140576

 2017-02-09 05:47:44.596872+01 | 1486615664.59687 | 0/EB492BC0               |            3947441088

 2017-02-09 05:47:45.655903+01 | 1486615665.6559 | 0/EB6D31C8               |            3949801928

 2017-02-09 05:47:46.709673+01 | 1486615666.70967 | 0/EB8FE0B8               |            3952074936

 2017-02-09 05:47:47.768434+01 | 1486615667.76843 | 0/EBB3AAB0               |            3954420400

 2017-02-09 05:47:48.836431+01 | 1486615668.83643 | 0/EBD83E60               |            3956817504

 2017-02-09 05:47:49.892693+01 | 1486615669.89269 | 0/EBFB3E18               |            3959111192

 2017-02-09 05:47:50.955597+01 | 1486615670.9556 | 0/EC1EC1D0               |            3961438672

 2017-02-09 05:47:52.016137+01 | 1486615672.01614 | 0/EC4247B8               |            3963766712

 2017-02-09 05:47:53.080418+01 | 1486615673.08042 | 0/EC66FD50               |            3966172496

 2017-02-09 05:47:54.137927+01 | 1486615674.13793 | 0/EC8C2A78               |            3968608888

 2017-02-09 05:47:55.200414+01 | 1486615675.20041 | 0/ECB14380               |            3971040128

 2017-02-09 05:47:56.268335+01 | 1486615676.26834 | 0/ECD65E98               |            3973471896

 2017-02-09 05:47:57.333578+01 | 1486615677.33358 | 0/ECFBA978               |            3975915896

 2017-02-09 05:47:58.403891+01 | 1486615678.40389 | 0/ED1FB678               |            3978278520

 2017-02-09 05:47:59.46158+01 | 1486615679.46158 | 0/ED44DF28               |            3980713768

 2017-02-09 05:48:00.526145+01 | 1486615680.52614 | 0/ED6AACD0               |            3983191248

 2017-02-09 05:48:01.583781+01 | 1486615681.58378 | 0/ED905D00               |            3985661184

 2017-02-09 05:48:02.649366+01 | 1486615682.64937 | 0/EDB59A68               |            3988101736

 2017-02-09 05:48:03.709393+01 | 1486615683.70939 | 0/EDDA19B0               |            3990493616

 2017-02-09 05:48:04.765488+01 | 1486615684.76549 | 0/EDFEFB00               |            3992910592

 2017-02-09 05:48:05.818993+01 | 1486615685.81899 | 0/EE227DC0               |            3995237824

 2017-02-09 05:48:06.882409+01 | 1486615686.88241 | 0/EE46D048               |            3997618248

 2017-02-09 05:48:07.944626+01 | 1486615687.94463 | 0/EE6C0490               |            4000056464

 2017-02-09 05:48:09.010579+01 | 1486615689.01058 | 0/EE92A380               |            4002587520

 2017-02-09 05:48:10.07313+01 | 1486615690.07313 | 0/EEB81568               |            4005041512

 2017-02-09 05:48:11.128872+01 | 1486615691.12887 | 0/EEDCF748               |            4007458632

 2017-02-09 05:48:12.19311+01 | 1486615692.19311 | 0/EF038D80               |            4009987456

 2017-02-09 05:48:13.245729+01 | 1486615693.24573 | 0/EF293258               |            4012454488

 2017-02-09 05:48:14.299833+01 | 1486615694.29983 | 0/EF4F6BE0               |            4014959584

 2017-02-09 05:48:15.370709+01 | 1486615695.37071 | 0/EF75E730               |            4017481520

 2017-02-09 05:48:16.437731+01 | 1486615696.43773 | 0/EF9AF430               |            4019909680

 2017-02-09 05:48:17.49649+01 | 1486615697.49649 | 0/EFC0A750               |            4022380368

 2017-02-09 05:48:18.552453+01 | 1486615698.55245 | 0/EFE6DA08               |            4024883720

 2017-02-09 05:48:19.6209+01 | 1486615699.6209 | 0/F00D6410               |            4027409424

 2017-02-09 05:48:20.682561+01 | 1486615700.68256 | 0/F0344350               |            4029956944

 2017-02-09 05:48:21.738976+01 | 1486615701.73898 | 0/F0590CA0               |            4032367776

 2017-02-09 05:48:22.801436+01 | 1486615702.80144 | 0/F07DECB0               |            4034784432

 2017-02-09 05:48:23.866827+01 | 1486615703.86683 | 0/F0A30AF0               |            4037217008

 2017-02-09 05:48:24.935425+01 | 1486615704.93543 | 0/F0C95698               |            4039726744

 2017-02-09 05:48:25.998572+01 | 1486615705.99857 | 0/F10C4A18               |            4044114456

 2017-02-09 05:48:27.05921+01 | 1486615707.05921 | 0/F1538A10               |            4048783888

 2017-02-09 05:48:28.122999+01 | 1486615708.123 | 0/F195CE50               |            4053126736

 2017-02-09 05:48:29.189412+01 | 1486615709.18941 | 0/F1D5EC98               |            4057328792

 2017-02-09 05:48:30.249973+01 | 1486615710.24997 | 0/F203CA28               |            4060334632

 2017-02-09 05:48:31.29467+01 | 1486615711.29467 | 0/F2260260               |            4062577248

 2017-02-09 05:48:32.355807+01 | 1486615712.35581 | 0/F24913C8               |            4064875464

 2017-02-09 05:48:33.409353+01 | 1486615713.40935 | 0/F26AEEA0               |            4067094176

 2017-02-09 05:48:34.466321+01 | 1486615714.46632 | 0/F28D3F48               |            4069343048

 2017-02-09 05:48:35.518028+01 | 1486615715.51803 | 0/F2AEB5C0               |            4071536064

 2017-02-09 05:48:36.570527+01 | 1486615716.57053 | 0/F2D1D990               |            4073838992

 2017-02-09 05:48:37.628906+01 | 1486615717.62891 | 0/F2F4C708               |            4076128008

 2017-02-09 05:48:38.695661+01 | 1486615718.69566 | 0/F3170E80               |            4078374528

 2017-02-09 05:48:39.748537+01 | 1486615719.74854 | 0/F33A24E0               |            4080674016

 2017-02-09 05:48:40.810695+01 | 1486615720.81069 | 0/F35CE978               |            4082952568

 2017-02-09 05:48:41.869174+01 | 1486615721.86917 | 0/F37EF8F0               |            4085184752

 2017-02-09 05:48:42.930811+01 | 1486615722.93081 | 0/F3A09B38               |            4087388984

 2017-02-09 05:48:43.994836+01 | 1486615723.99484 | 0/F3C4D0E0               |            4089762016

 2017-02-09 05:48:45.055854+01 | 1486615725.05585 | 0/F3E78420               |            4092036128

 2017-02-09 05:48:46.119608+01 | 1486615726.11961 | 0/F40962D8               |            4094255832

 2017-02-09 05:48:47.180343+01 | 1486615727.18034 | 0/F42D1050               |            4096594000

 2017-02-09 05:48:48.241143+01 | 1486615728.24114 | 0/F450AB58               |            4098927448

 2017-02-09 05:48:49.302133+01 | 1486615729.30213 | 0/F4739748               |            4101216072

 2017-02-09 05:48:50.373629+01 | 1486615730.37363 | 0/F497BC08               |            4103584776

 2017-02-09 05:48:51.431795+01 | 1486615731.43179 | 0/F4BAD7F8               |            4105885688

 2017-02-09 05:48:52.487332+01 | 1486615732.48733 | 0/F4DD0930               |            4108126512

 2017-02-09 05:48:53.545424+01 | 1486615733.54542 | 0/F4FF9DB0               |            4110392752

 2017-02-09 05:48:54.597599+01 | 1486615734.5976 | 0/F5219990               |            4112619920

 2017-02-09 05:48:55.660082+01 | 1486615735.66008 | 0/F54502B0               |            4114940592

 2017-02-09 05:48:56.724679+01 | 1486615736.72468 | 0/F5679588               |            4117206408

 2017-02-09 05:48:57.780339+01 | 1486615737.78034 | 0/F58A25C8               |            4119471560

 2017-02-09 05:48:58.844065+01 | 1486615738.84406 | 0/F5AD65B0               |            4121781680

 2017-02-09 05:48:59.894424+01 | 1486615739.89442 | 0/F5D05208               |            4124070408

 2017-02-09 05:49:00.951401+01 | 1486615740.9514 | 0/F5F340B0               |            4126359728

 2017-02-09 05:49:02.004158+01 | 1486615742.00416 | 0/F61584A0               |            4128605344

 2017-02-09 05:49:03.06146+01 | 1486615743.06146 | 0/F6392E28               |            4130942504

 2017-02-09 05:49:04.132873+01 | 1486615744.13287 | 0/F65CDBF0               |            4133280752

 2017-02-09 05:49:05.194287+01 | 1486615745.19429 | 0/F680BE68               |            4135632488

 2017-02-09 05:49:06.25617+01 | 1486615746.25617 | 0/F6A4CE68               |            4137995880

 2017-02-09 05:49:07.315905+01 | 1486615747.31591 | 0/F6C97220               |            4140397088

 2017-02-09 05:49:08.378408+01 | 1486615748.37841 | 0/F6ED97A8               |            4142765992

 2017-02-09 05:49:09.436085+01 | 1486615749.43608 | 0/F710D898               |            4145076376

 2017-02-09 05:49:10.498383+01 | 1486615750.49838 | 0/F7358D20               |            4147481888

 2017-02-09 05:49:11.552722+01 | 1486615751.55272 | 0/F75956F8               |            4149827320

 2017-02-09 05:49:12.613082+01 | 1486615752.61308 | 0/F77D7FC8               |            4152197064

 2017-02-09 05:49:13.671136+01 | 1486615753.67114 | 0/F7A34238               |            4154671672

 2017-02-09 05:49:14.740733+01 | 1486615754.74073 | 0/F7C908C8               |            4157147336

 2017-02-09 05:49:15.806403+01 | 1486615755.8064 | 0/F7EE0628               |            4159571496

 2017-02-09 05:49:16.87223+01 | 1486615756.87223 | 0/F811DD88               |            4161920392

 2017-02-09 05:49:17.933363+01 | 1486615757.93336 | 0/F8364FD8               |            4164308952

 2017-02-09 05:49:18.992961+01 | 1486615758.99296 | 0/F85BB860               |            4166760544

 2017-02-09 05:49:20.056686+01 | 1486615760.05669 | 0/F8821680               |            4169275008

 2017-02-09 05:49:21.115436+01 | 1486615761.11544 | 0/F8A7E758               |            4171753304

 2017-02-09 05:49:22.175444+01 | 1486615762.17544 | 0/F8CDA7D0               |            4174227408

 2017-02-09 05:49:23.238891+01 | 1486615763.23889 | 0/F8F2C658               |            4176660056

 2017-02-09 05:49:24.303172+01 | 1486615764.30317 | 0/F9178D38               |            4179070264

 2017-02-09 05:49:25.368408+01 | 1486615765.36841 | 0/F9471D00               |            4182187264

 2017-02-09 05:49:26.431389+01 | 1486615766.43139 | 0/F98F9F88               |            4186939272

 2017-02-09 05:49:27.493383+01 | 1486615767.49338 | 0/F9D50400               |            4191486976

 2017-02-09 05:49:28.557181+01 | 1486615768.55718 | 0/FA15E080               |            4195737728

 2017-02-09 05:49:29.624965+01 | 1486615769.62496 | 0/FA4CEC60               |            4199345248

 2017-02-09 05:49:30.688773+01 | 1486615770.68877 | 0/FA7B72C0               |            4202394304

 2017-02-09 05:49:31.751775+01 | 1486615771.75178 | 0/FA9D80E8               |            4204626152

 2017-02-09 05:49:32.809796+01 | 1486615772.8098 | 0/FABFCA90               |            4206873232

 2017-02-09 05:49:33.86575+01 | 1486615773.86575 | 0/FAE25BE8               |            4209138664

 2017-02-09 05:49:34.928844+01 | 1486615774.92884 | 0/FB048FE8               |            4211380200

 2017-02-09 05:49:35.988864+01 | 1486615775.98886 | 0/FB26B778               |            4213618552

 2017-02-09 05:49:37.05428+01 | 1486615777.05428 | 0/FB47EC18               |            4215794712

 2017-02-09 05:49:38.118723+01 | 1486615778.11872 | 0/FB6B5EF0               |            4218117872

 2017-02-09 05:49:39.17856+01 | 1486615779.17856 | 0/FB8E9ED8               |            4220427992

 2017-02-09 05:49:40.23888+01 | 1486615780.23888 | 0/FBB0DD38               |            4222672184

 2017-02-09 05:49:41.300627+01 | 1486615781.30063 | 0/FBD42B80               |            4224985984

 2017-02-09 05:49:42.357307+01 | 1486615782.35731 | 0/FBF6D400               |            4227257344

 2017-02-09 05:49:43.432304+01 | 1486615783.4323 | 0/FC18E6D0               |            4229490384

 2017-02-09 05:49:44.488479+01 | 1486615784.48848 | 0/FC3CA178               |            4231831928

 2017-02-09 05:49:45.547705+01 | 1486615785.5477 | 0/FC606120               |            4234174752

 2017-02-09 05:49:46.604148+01 | 1486615786.60415 | 0/FC82BC90               |            4236426384

 2017-02-09 05:49:47.66702+01 | 1486615787.66702 | 0/FCA55058               |            4238692440

 2017-02-09 05:49:48.727847+01 | 1486615788.72785 | 0/FCC92C90               |            4241042576

 2017-02-09 05:49:49.791518+01 | 1486615789.79152 | 0/FCECAB98               |            4243368856

 2017-02-09 05:49:50.858583+01 | 1486615790.85858 | 0/FD0F9998               |            4245658008

 2017-02-09 05:49:51.91964+01 | 1486615791.91964 | 0/FD341950               |            4248050000

 2017-02-09 05:49:52.98626+01 | 1486615792.98626 | 0/FD576800               |            4250363904

 2017-02-09 05:49:54.051909+01 | 1486615794.05191 | 0/FD7ADB90               |            4252687248

 2017-02-09 05:49:55.114948+01 | 1486615795.11495 | 0/FD9EEB30               |            4255050544

 2017-02-09 05:49:56.170362+01 | 1486615796.17036 | 0/FDC235C8               |            4257363400

 2017-02-09 05:49:57.234186+01 | 1486615797.23419 | 0/FDE73438               |            4259787832

 2017-02-09 05:49:58.294511+01 | 1486615798.29451 | 0/FE0AA3C0               |            4262110144

 2017-02-09 05:49:59.354802+01 | 1486615799.3548 | 0/FE2E4598               |            4264445336

 2017-02-09 05:50:00.42168+01 | 1486615800.42168 | 0/FE522780               |            4266796928

 2017-02-09 05:50:01.48371+01 | 1486615801.48371 | 0/FE75C8C8               |            4269131976

 2017-02-09 05:50:02.540489+01 | 1486615802.54049 | 0/FE99B968               |            4271487336

 2017-02-09 05:50:03.601381+01 | 1486615803.60138 | 0/FEBDBBA8               |            4273847208

 2017-02-09 05:50:04.661756+01 | 1486615804.66176 | 0/FEE17E98               |            4276190872

 2017-02-09 05:50:05.71629+01 | 1486615805.71629 | 0/FF050E60               |            4278521440

 2017-02-09 05:50:06.778472+01 | 1486615806.77847 | 0/FF28C060               |            4280860768

 2017-02-09 05:50:07.843867+01 | 1486615807.84387 | 0/FF4DCCA0               |            4283288736

 2017-02-09 05:50:08.904859+01 | 1486615808.90486 | 0/FF715008               |            4285616136

 2017-02-09 05:50:09.965681+01 | 1486615809.96568 | 0/FF964E50               |            4288040528

 2017-02-09 05:50:11.024153+01 | 1486615811.02415 | 0/FFBA4328               |            4290396968

 2017-02-09 05:50:12.086065+01 | 1486615812.08607 | 0/FFE06B08               |            4292897544

 2017-02-09 05:50:13.151565+01 | 1486615813.15157 | 1/44FD0                  |            4295249872

 2017-02-09 05:50:14.212883+01 | 1486615814.21288 | 1/297220                 |            4297683488

 2017-02-09 05:50:15.270744+01 | 1486615815.27074 | 1/4E1850                 |            4300085328

 2017-02-09 05:50:16.33463+01 | 1486615816.33463 | 1/732250                 |            4302512720

 2017-02-09 05:50:17.404094+01 | 1486615817.40409 | 1/99AD38                 |            4305038648

 2017-02-09 05:50:18.475529+01 | 1486615818.47553 | 1/BF2970                 |            4307495280

 2017-02-09 05:50:19.532726+01 | 1486615819.53273 | 1/E4DCD0                 |            4309966032

 2017-02-09 05:50:20.590704+01 | 1486615820.5907 | 1/10A0DA8                |            4312403368

 2017-02-09 05:50:21.657327+01 | 1486615821.65733 | 1/12F9AC8                |            4314864328

 2017-02-09 05:50:22.722999+01 | 1486615822.723 | 1/155D818                |            4317370392

 2017-02-09 05:50:23.788966+01 | 1486615823.78897 | 1/17B4338                |            4319822648

 2017-02-09 05:50:24.852855+01 | 1486615824.85285 | 1/1A18710                |            4322330384

 2017-02-09 05:50:25.931272+01 | 1486615825.93127 | 1/1E10E28                |            4326493736

 2017-02-09 05:50:26.999211+01 | 1486615826.99921 | 1/2276870                |            4331104368

 2017-02-09 05:50:28.068696+01 | 1486615828.0687 | 1/26BDAE0                |            4335590112

 2017-02-09 05:50:29.13321+01 | 1486615829.13321 | 1/2AD4CA8                |            4339879080

 2017-02-09 05:50:30.194683+01 | 1486615830.19468 | 1/2E08DE0                |            4343238112

 2017-02-09 05:50:31.25633+01 | 1486615831.25633 | 1/3027798                |            4345460632

 2017-02-09 05:50:32.314431+01 | 1486615832.31443 | 1/3242B10                |            4347669264

 2017-02-09 05:50:33.369778+01 | 1486615833.36978 | 1/3467A88                |            4349917832

 2017-02-09 05:50:34.432625+01 | 1486615834.43263 | 1/3680EC8                |            4352118472

 2017-02-09 05:50:35.494702+01 | 1486615835.4947 | 1/38A6080                |            4354367616

 2017-02-09 05:50:36.562405+01 | 1486615836.56241 | 1/3AD52F8                |            4356657912

 2017-02-09 05:50:37.619999+01 | 1486615837.62 | 1/3D09500                |            4358968576

 2017-02-09 05:50:38.679296+01 | 1486615838.6793 | 1/3F2A5C8                |            4361201096

 2017-02-09 05:50:39.740137+01 | 1486615839.74014 | 1/41479B0                |            4363418032

 2017-02-09 05:50:40.798055+01 | 1486615840.79805 | 1/4369A08                |            4365654536

 2017-02-09 05:50:41.86668+01 | 1486615841.86668 | 1/4595A38                |            4367931960

 2017-02-09 05:50:42.931027+01 | 1486615842.93103 | 1/47BF3A0                |            4370199456

 2017-02-09 05:50:43.990878+01 | 1486615843.99088 | 1/49F1308                |            4372501256

 2017-02-09 05:50:45.049053+01 | 1486615845.04905 | 1/4C21BA0                |            4374797216

 2017-02-09 05:50:46.120223+01 | 1486615846.12022 | 1/4E61400                |            4377154560

 2017-02-09 05:50:47.180527+01 | 1486615847.18053 | 1/508FBA8                |            4379442088

 2017-02-09 05:50:48.238569+01 | 1486615848.23857 | 1/52BBA18                |            4381719064

 2017-02-09 05:50:49.297305+01 | 1486615849.29731 | 1/5501510                |            4384101648

 2017-02-09 05:50:50.370694+01 | 1486615850.37069 | 1/572FA80                |            4386388608

 2017-02-09 05:50:51.428168+01 | 1486615851.42817 | 1/5963358                |            4388696920

 2017-02-09 05:50:52.483859+01 | 1486615852.48386 | 1/5B9DC70                |            4391033968

 2017-02-09 05:50:53.546432+01 | 1486615853.54643 | 1/5DD6950                |            4393363792

 2017-02-09 05:50:54.601267+01 | 1486615854.60127 | 1/5FFFEE8                |            4395630312

 2017-02-09 05:50:55.655382+01 | 1486615855.65538 | 1/6225BA8                |            4397882280

 2017-02-09 05:50:56.725603+01 | 1486615856.7256 | 1/6469AB0                |            4400257712

 2017-02-09 05:50:57.785103+01 | 1486615857.7851 | 1/6695D00                |            4402535680

 2017-02-09 05:50:58.84779+01 | 1486615858.84779 | 1/68C5F20                |            4404829984

 2017-02-09 05:50:59.912076+01 | 1486615859.91208 | 1/6AFFCF0                |            4407164144

 2017-02-09 05:51:00.976728+01 | 1486615860.97673 | 1/6D45B00                |            4409547520

 2017-02-09 05:51:02.047379+01 | 1486615862.04738 | 1/6F859F8                |            4411906552

 2017-02-09 05:51:03.1155+01 | 1486615863.1155 | 1/71B8C80                |            4414213248

 2017-02-09 05:51:04.191154+01 | 1486615864.19115 | 1/7400000                |            4416602112

