 2017-02-10 18:08:44.329801+01 | 1486746524.3298 | pgbench_branches_pkey |            16384
 2017-02-10 18:08:44.329801+01 | 1486746524.3298 | pgbench_tellers_pkey  |            90112
 2017-02-10 18:08:44.329801+01 | 1486746524.3298 | pgbench_accounts_pkey |        689364992

 2017-02-10 18:08:45.380184+01 | 1486746525.38018 | pgbench_branches_pkey |            16384
 2017-02-10 18:08:45.380184+01 | 1486746525.38018 | pgbench_tellers_pkey  |            90112
 2017-02-10 18:08:45.380184+01 | 1486746525.38018 | pgbench_accounts_pkey |        689364992

 2017-02-10 18:08:46.430733+01 | 1486746526.43073 | pgbench_branches_pkey |            16384
 2017-02-10 18:08:46.430733+01 | 1486746526.43073 | pgbench_tellers_pkey  |            90112
 2017-02-10 18:08:46.430733+01 | 1486746526.43073 | pgbench_accounts_pkey |        689364992

 2017-02-10 18:08:47.482917+01 | 1486746527.48292 | pgbench_branches_pkey |            16384
 2017-02-10 18:08:47.482917+01 | 1486746527.48292 | pgbench_tellers_pkey  |            90112
 2017-02-10 18:08:47.482917+01 | 1486746527.48292 | pgbench_accounts_pkey |        689364992

 2017-02-10 18:08:48.532383+01 | 1486746528.53238 | pgbench_branches_pkey |            16384
 2017-02-10 18:08:48.532383+01 | 1486746528.53238 | pgbench_tellers_pkey  |            90112
 2017-02-10 18:08:48.532383+01 | 1486746528.53238 | pgbench_accounts_pkey |        689364992

 2017-02-10 18:08:49.583267+01 | 1486746529.58327 | pgbench_branches_pkey |            16384
 2017-02-10 18:08:49.583267+01 | 1486746529.58327 | pgbench_tellers_pkey  |            90112
 2017-02-10 18:08:49.583267+01 | 1486746529.58327 | pgbench_accounts_pkey |        689364992

 2017-02-10 18:08:50.634276+01 | 1486746530.63428 | pgbench_branches_pkey |            16384
 2017-02-10 18:08:50.634276+01 | 1486746530.63428 | pgbench_tellers_pkey  |            90112
 2017-02-10 18:08:50.634276+01 | 1486746530.63428 | pgbench_accounts_pkey |        689364992

 2017-02-10 18:08:51.685856+01 | 1486746531.68586 | pgbench_branches_pkey |            16384
 2017-02-10 18:08:51.685856+01 | 1486746531.68586 | pgbench_tellers_pkey  |            90112
 2017-02-10 18:08:51.685856+01 | 1486746531.68586 | pgbench_accounts_pkey |        689364992

 2017-02-10 18:08:52.738263+01 | 1486746532.73826 | pgbench_branches_pkey |            16384
 2017-02-10 18:08:52.738263+01 | 1486746532.73826 | pgbench_tellers_pkey  |            90112
 2017-02-10 18:08:52.738263+01 | 1486746532.73826 | pgbench_accounts_pkey |        689364992

 2017-02-10 18:08:53.789232+01 | 1486746533.78923 | pgbench_branches_pkey |            16384
 2017-02-10 18:08:53.789232+01 | 1486746533.78923 | pgbench_tellers_pkey  |            90112
 2017-02-10 18:08:53.789232+01 | 1486746533.78923 | pgbench_accounts_pkey |        689364992

 2017-02-10 18:08:54.841511+01 | 1486746534.84151 | pgbench_branches_pkey |            16384
 2017-02-10 18:08:54.841511+01 | 1486746534.84151 | pgbench_tellers_pkey  |            90112
 2017-02-10 18:08:54.841511+01 | 1486746534.84151 | pgbench_accounts_pkey |        689364992

 2017-02-10 18:08:55.89414+01 | 1486746535.89414 | pgbench_branches_pkey |            16384
 2017-02-10 18:08:55.89414+01 | 1486746535.89414 | pgbench_tellers_pkey  |            90112
 2017-02-10 18:08:55.89414+01 | 1486746535.89414 | pgbench_accounts_pkey |        689364992

 2017-02-10 18:08:56.946848+01 | 1486746536.94685 | pgbench_branches_pkey |            16384
 2017-02-10 18:08:56.946848+01 | 1486746536.94685 | pgbench_tellers_pkey  |            90112
 2017-02-10 18:08:56.946848+01 | 1486746536.94685 | pgbench_accounts_pkey |        689364992

 2017-02-10 18:08:57.997671+01 | 1486746537.99767 | pgbench_branches_pkey |            16384
 2017-02-10 18:08:57.997671+01 | 1486746537.99767 | pgbench_tellers_pkey  |            90112
 2017-02-10 18:08:57.997671+01 | 1486746537.99767 | pgbench_accounts_pkey |        689364992

 2017-02-10 18:08:59.051193+01 | 1486746539.05119 | pgbench_branches_pkey |            16384
 2017-02-10 18:08:59.051193+01 | 1486746539.05119 | pgbench_tellers_pkey  |            90112
 2017-02-10 18:08:59.051193+01 | 1486746539.05119 | pgbench_accounts_pkey |        689364992

 2017-02-10 18:09:00.110433+01 | 1486746540.11043 | pgbench_branches_pkey |            16384
 2017-02-10 18:09:00.110433+01 | 1486746540.11043 | pgbench_tellers_pkey  |            90112
 2017-02-10 18:09:00.110433+01 | 1486746540.11043 | pgbench_accounts_pkey |        689364992

 2017-02-10 18:09:01.16453+01 | 1486746541.16453 | pgbench_branches_pkey |            16384
 2017-02-10 18:09:01.16453+01 | 1486746541.16453 | pgbench_tellers_pkey  |            90112
 2017-02-10 18:09:01.16453+01 | 1486746541.16453 | pgbench_accounts_pkey |        689364992

 2017-02-10 18:09:02.215557+01 | 1486746542.21556 | pgbench_branches_pkey |            16384
 2017-02-10 18:09:02.215557+01 | 1486746542.21556 | pgbench_tellers_pkey  |            90112
 2017-02-10 18:09:02.215557+01 | 1486746542.21556 | pgbench_accounts_pkey |        689364992

 2017-02-10 18:09:03.268523+01 | 1486746543.26852 | pgbench_branches_pkey |            16384
 2017-02-10 18:09:03.268523+01 | 1486746543.26852 | pgbench_tellers_pkey  |            90112
 2017-02-10 18:09:03.268523+01 | 1486746543.26852 | pgbench_accounts_pkey |        689364992

 2017-02-10 18:09:04.322133+01 | 1486746544.32213 | pgbench_branches_pkey |            16384
 2017-02-10 18:09:04.322133+01 | 1486746544.32213 | pgbench_tellers_pkey  |            90112
 2017-02-10 18:09:04.322133+01 | 1486746544.32213 | pgbench_accounts_pkey |        689364992

 2017-02-10 18:09:05.374173+01 | 1486746545.37417 | pgbench_branches_pkey |            16384
 2017-02-10 18:09:05.374173+01 | 1486746545.37417 | pgbench_tellers_pkey  |            90112
 2017-02-10 18:09:05.374173+01 | 1486746545.37417 | pgbench_accounts_pkey |        689364992

 2017-02-10 18:09:06.426936+01 | 1486746546.42694 | pgbench_branches_pkey |            16384
 2017-02-10 18:09:06.426936+01 | 1486746546.42694 | pgbench_tellers_pkey  |            90112
 2017-02-10 18:09:06.426936+01 | 1486746546.42694 | pgbench_accounts_pkey |        689364992

 2017-02-10 18:09:07.478289+01 | 1486746547.47829 | pgbench_branches_pkey |            16384
 2017-02-10 18:09:07.478289+01 | 1486746547.47829 | pgbench_tellers_pkey  |            90112
 2017-02-10 18:09:07.478289+01 | 1486746547.47829 | pgbench_accounts_pkey |        689364992

 2017-02-10 18:09:08.529427+01 | 1486746548.52943 | pgbench_branches_pkey |            16384
 2017-02-10 18:09:08.529427+01 | 1486746548.52943 | pgbench_tellers_pkey  |            90112
 2017-02-10 18:09:08.529427+01 | 1486746548.52943 | pgbench_accounts_pkey |        689364992

 2017-02-10 18:09:09.580567+01 | 1486746549.58057 | pgbench_branches_pkey |            16384
 2017-02-10 18:09:09.580567+01 | 1486746549.58057 | pgbench_tellers_pkey  |            90112
 2017-02-10 18:09:09.580567+01 | 1486746549.58057 | pgbench_accounts_pkey |        689364992

 2017-02-10 18:09:10.633808+01 | 1486746550.63381 | pgbench_branches_pkey |            16384
 2017-02-10 18:09:10.633808+01 | 1486746550.63381 | pgbench_tellers_pkey  |            90112
 2017-02-10 18:09:10.633808+01 | 1486746550.63381 | pgbench_accounts_pkey |        689364992

 2017-02-10 18:09:11.689228+01 | 1486746551.68923 | pgbench_branches_pkey |            16384
 2017-02-10 18:09:11.689228+01 | 1486746551.68923 | pgbench_tellers_pkey  |            90112
 2017-02-10 18:09:11.689228+01 | 1486746551.68923 | pgbench_accounts_pkey |        689364992

 2017-02-10 18:09:12.741+01 | 1486746552.741 | pgbench_branches_pkey |            16384
 2017-02-10 18:09:12.741+01 | 1486746552.741 | pgbench_tellers_pkey  |            90112
 2017-02-10 18:09:12.741+01 | 1486746552.741 | pgbench_accounts_pkey |        689364992

 2017-02-10 18:09:13.794416+01 | 1486746553.79442 | pgbench_branches_pkey |            16384
 2017-02-10 18:09:13.794416+01 | 1486746553.79442 | pgbench_tellers_pkey  |            90112
 2017-02-10 18:09:13.794416+01 | 1486746553.79442 | pgbench_accounts_pkey |        689364992

 2017-02-10 18:09:14.848199+01 | 1486746554.8482 | pgbench_branches_pkey |            16384
 2017-02-10 18:09:14.848199+01 | 1486746554.8482 | pgbench_tellers_pkey  |            90112
 2017-02-10 18:09:14.848199+01 | 1486746554.8482 | pgbench_accounts_pkey |        689364992

 2017-02-10 18:09:15.901394+01 | 1486746555.90139 | pgbench_branches_pkey |            16384
 2017-02-10 18:09:15.901394+01 | 1486746555.90139 | pgbench_tellers_pkey  |            90112
 2017-02-10 18:09:15.901394+01 | 1486746555.90139 | pgbench_accounts_pkey |        689364992

 2017-02-10 18:09:16.958613+01 | 1486746556.95861 | pgbench_branches_pkey |            16384
 2017-02-10 18:09:16.958613+01 | 1486746556.95861 | pgbench_tellers_pkey  |            90112
 2017-02-10 18:09:16.958613+01 | 1486746556.95861 | pgbench_accounts_pkey |        689364992

 2017-02-10 18:09:18.001792+01 | 1486746558.00179 | pgbench_branches_pkey |            16384
 2017-02-10 18:09:18.001792+01 | 1486746558.00179 | pgbench_tellers_pkey  |            90112
 2017-02-10 18:09:18.001792+01 | 1486746558.00179 | pgbench_accounts_pkey |        689364992

 2017-02-10 18:09:19.056892+01 | 1486746559.05689 | pgbench_branches_pkey |            16384
 2017-02-10 18:09:19.056892+01 | 1486746559.05689 | pgbench_tellers_pkey  |            90112
 2017-02-10 18:09:19.056892+01 | 1486746559.05689 | pgbench_accounts_pkey |        689364992

 2017-02-10 18:09:20.111847+01 | 1486746560.11185 | pgbench_branches_pkey |            16384
 2017-02-10 18:09:20.111847+01 | 1486746560.11185 | pgbench_tellers_pkey  |            90112
 2017-02-10 18:09:20.111847+01 | 1486746560.11185 | pgbench_accounts_pkey |        689364992

 2017-02-10 18:09:21.163969+01 | 1486746561.16397 | pgbench_branches_pkey |            16384
 2017-02-10 18:09:21.163969+01 | 1486746561.16397 | pgbench_tellers_pkey  |            90112
 2017-02-10 18:09:21.163969+01 | 1486746561.16397 | pgbench_accounts_pkey |        689364992

 2017-02-10 18:09:22.217264+01 | 1486746562.21726 | pgbench_branches_pkey |            16384
 2017-02-10 18:09:22.217264+01 | 1486746562.21726 | pgbench_tellers_pkey  |            90112
 2017-02-10 18:09:22.217264+01 | 1486746562.21726 | pgbench_accounts_pkey |        689364992

 2017-02-10 18:09:23.271255+01 | 1486746563.27126 | pgbench_branches_pkey |            16384
 2017-02-10 18:09:23.271255+01 | 1486746563.27126 | pgbench_tellers_pkey  |            90112
 2017-02-10 18:09:23.271255+01 | 1486746563.27126 | pgbench_accounts_pkey |        689364992

 2017-02-10 18:09:24.325516+01 | 1486746564.32552 | pgbench_branches_pkey |            16384
 2017-02-10 18:09:24.325516+01 | 1486746564.32552 | pgbench_tellers_pkey  |            90112
 2017-02-10 18:09:24.325516+01 | 1486746564.32552 | pgbench_accounts_pkey |        689364992

 2017-02-10 18:09:25.377359+01 | 1486746565.37736 | pgbench_branches_pkey |            16384
 2017-02-10 18:09:25.377359+01 | 1486746565.37736 | pgbench_tellers_pkey  |            90112
 2017-02-10 18:09:25.377359+01 | 1486746565.37736 | pgbench_accounts_pkey |        689364992

 2017-02-10 18:09:26.435066+01 | 1486746566.43507 | pgbench_branches_pkey |            16384
 2017-02-10 18:09:26.435066+01 | 1486746566.43507 | pgbench_tellers_pkey  |            90112
 2017-02-10 18:09:26.435066+01 | 1486746566.43507 | pgbench_accounts_pkey |        689364992

 2017-02-10 18:09:27.487165+01 | 1486746567.48716 | pgbench_branches_pkey |            16384
 2017-02-10 18:09:27.487165+01 | 1486746567.48716 | pgbench_tellers_pkey  |            90112
 2017-02-10 18:09:27.487165+01 | 1486746567.48716 | pgbench_accounts_pkey |        689364992

 2017-02-10 18:09:28.539562+01 | 1486746568.53956 | pgbench_branches_pkey |            16384
 2017-02-10 18:09:28.539562+01 | 1486746568.53956 | pgbench_tellers_pkey  |            90112
 2017-02-10 18:09:28.539562+01 | 1486746568.53956 | pgbench_accounts_pkey |        689364992

 2017-02-10 18:09:29.591635+01 | 1486746569.59163 | pgbench_branches_pkey |            16384
 2017-02-10 18:09:29.591635+01 | 1486746569.59163 | pgbench_tellers_pkey  |            90112
 2017-02-10 18:09:29.591635+01 | 1486746569.59163 | pgbench_accounts_pkey |        689364992

 2017-02-10 18:09:30.643063+01 | 1486746570.64306 | pgbench_branches_pkey |            16384
 2017-02-10 18:09:30.643063+01 | 1486746570.64306 | pgbench_tellers_pkey  |            90112
 2017-02-10 18:09:30.643063+01 | 1486746570.64306 | pgbench_accounts_pkey |        689364992

 2017-02-10 18:09:31.696174+01 | 1486746571.69617 | pgbench_branches_pkey |            16384
 2017-02-10 18:09:31.696174+01 | 1486746571.69617 | pgbench_tellers_pkey  |            90112
 2017-02-10 18:09:31.696174+01 | 1486746571.69617 | pgbench_accounts_pkey |        689364992

 2017-02-10 18:09:32.749451+01 | 1486746572.74945 | pgbench_branches_pkey |            16384
 2017-02-10 18:09:32.749451+01 | 1486746572.74945 | pgbench_tellers_pkey  |            90112
 2017-02-10 18:09:32.749451+01 | 1486746572.74945 | pgbench_accounts_pkey |        689364992

 2017-02-10 18:09:33.803104+01 | 1486746573.8031 | pgbench_branches_pkey |            16384
 2017-02-10 18:09:33.803104+01 | 1486746573.8031 | pgbench_tellers_pkey  |            90112
 2017-02-10 18:09:33.803104+01 | 1486746573.8031 | pgbench_accounts_pkey |        689364992

 2017-02-10 18:09:34.854625+01 | 1486746574.85462 | pgbench_branches_pkey |            16384
 2017-02-10 18:09:34.854625+01 | 1486746574.85462 | pgbench_tellers_pkey  |            90112
 2017-02-10 18:09:34.854625+01 | 1486746574.85462 | pgbench_accounts_pkey |        689364992

 2017-02-10 18:09:35.908554+01 | 1486746575.90855 | pgbench_branches_pkey |            16384
 2017-02-10 18:09:35.908554+01 | 1486746575.90855 | pgbench_tellers_pkey  |            90112
 2017-02-10 18:09:35.908554+01 | 1486746575.90855 | pgbench_accounts_pkey |        689364992

 2017-02-10 18:09:36.961802+01 | 1486746576.9618 | pgbench_branches_pkey |            16384
 2017-02-10 18:09:36.961802+01 | 1486746576.9618 | pgbench_tellers_pkey  |            90112
 2017-02-10 18:09:36.961802+01 | 1486746576.9618 | pgbench_accounts_pkey |        689364992

 2017-02-10 18:09:38.013933+01 | 1486746578.01393 | pgbench_branches_pkey |            16384
 2017-02-10 18:09:38.013933+01 | 1486746578.01393 | pgbench_tellers_pkey  |            90112
 2017-02-10 18:09:38.013933+01 | 1486746578.01393 | pgbench_accounts_pkey |        689364992

 2017-02-10 18:09:39.074094+01 | 1486746579.07409 | pgbench_branches_pkey |            16384
 2017-02-10 18:09:39.074094+01 | 1486746579.07409 | pgbench_tellers_pkey  |            90112
 2017-02-10 18:09:39.074094+01 | 1486746579.07409 | pgbench_accounts_pkey |        689364992

 2017-02-10 18:09:40.126101+01 | 1486746580.1261 | pgbench_branches_pkey |            16384
 2017-02-10 18:09:40.126101+01 | 1486746580.1261 | pgbench_tellers_pkey  |            90112
 2017-02-10 18:09:40.126101+01 | 1486746580.1261 | pgbench_accounts_pkey |        689364992

 2017-02-10 18:09:41.181665+01 | 1486746581.18166 | pgbench_branches_pkey |            16384
 2017-02-10 18:09:41.181665+01 | 1486746581.18166 | pgbench_tellers_pkey  |            90112
 2017-02-10 18:09:41.181665+01 | 1486746581.18166 | pgbench_accounts_pkey |        689364992

 2017-02-10 18:09:42.239106+01 | 1486746582.23911 | pgbench_branches_pkey |            16384
 2017-02-10 18:09:42.239106+01 | 1486746582.23911 | pgbench_tellers_pkey  |            90112
 2017-02-10 18:09:42.239106+01 | 1486746582.23911 | pgbench_accounts_pkey |        689364992

 2017-02-10 18:09:43.294667+01 | 1486746583.29467 | pgbench_branches_pkey |            16384
 2017-02-10 18:09:43.294667+01 | 1486746583.29467 | pgbench_tellers_pkey  |            90112
 2017-02-10 18:09:43.294667+01 | 1486746583.29467 | pgbench_accounts_pkey |        689364992

 2017-02-10 18:09:44.350487+01 | 1486746584.35049 | pgbench_branches_pkey |            16384
 2017-02-10 18:09:44.350487+01 | 1486746584.35049 | pgbench_tellers_pkey  |            90112
 2017-02-10 18:09:44.350487+01 | 1486746584.35049 | pgbench_accounts_pkey |        689364992

 2017-02-10 18:09:45.402247+01 | 1486746585.40225 | pgbench_branches_pkey |            16384
 2017-02-10 18:09:45.402247+01 | 1486746585.40225 | pgbench_tellers_pkey  |            90112
 2017-02-10 18:09:45.402247+01 | 1486746585.40225 | pgbench_accounts_pkey |        689364992

 2017-02-10 18:09:46.457627+01 | 1486746586.45763 | pgbench_branches_pkey |            16384
 2017-02-10 18:09:46.457627+01 | 1486746586.45763 | pgbench_tellers_pkey  |            90112
 2017-02-10 18:09:46.457627+01 | 1486746586.45763 | pgbench_accounts_pkey |        689364992

 2017-02-10 18:09:47.509145+01 | 1486746587.50915 | pgbench_branches_pkey |            16384
 2017-02-10 18:09:47.509145+01 | 1486746587.50915 | pgbench_tellers_pkey  |            90112
 2017-02-10 18:09:47.509145+01 | 1486746587.50915 | pgbench_accounts_pkey |        689364992

 2017-02-10 18:09:48.563914+01 | 1486746588.56391 | pgbench_branches_pkey |            16384
 2017-02-10 18:09:48.563914+01 | 1486746588.56391 | pgbench_tellers_pkey  |            90112
 2017-02-10 18:09:48.563914+01 | 1486746588.56391 | pgbench_accounts_pkey |        689364992

 2017-02-10 18:09:49.616754+01 | 1486746589.61675 | pgbench_branches_pkey |            16384
 2017-02-10 18:09:49.616754+01 | 1486746589.61675 | pgbench_tellers_pkey  |            90112
 2017-02-10 18:09:49.616754+01 | 1486746589.61675 | pgbench_accounts_pkey |        689364992

 2017-02-10 18:09:50.676901+01 | 1486746590.6769 | pgbench_branches_pkey |            16384
 2017-02-10 18:09:50.676901+01 | 1486746590.6769 | pgbench_tellers_pkey  |            90112
 2017-02-10 18:09:50.676901+01 | 1486746590.6769 | pgbench_accounts_pkey |        689364992

 2017-02-10 18:09:51.730541+01 | 1486746591.73054 | pgbench_branches_pkey |            16384
 2017-02-10 18:09:51.730541+01 | 1486746591.73054 | pgbench_tellers_pkey  |            90112
 2017-02-10 18:09:51.730541+01 | 1486746591.73054 | pgbench_accounts_pkey |        689364992

 2017-02-10 18:09:52.7866+01 | 1486746592.7866 | pgbench_branches_pkey |            16384
 2017-02-10 18:09:52.7866+01 | 1486746592.7866 | pgbench_tellers_pkey  |            90112
 2017-02-10 18:09:52.7866+01 | 1486746592.7866 | pgbench_accounts_pkey |        689364992

 2017-02-10 18:09:53.841954+01 | 1486746593.84195 | pgbench_branches_pkey |            16384
 2017-02-10 18:09:53.841954+01 | 1486746593.84195 | pgbench_tellers_pkey  |            90112
 2017-02-10 18:09:53.841954+01 | 1486746593.84195 | pgbench_accounts_pkey |        689364992

 2017-02-10 18:09:54.89464+01 | 1486746594.89464 | pgbench_branches_pkey |            16384
 2017-02-10 18:09:54.89464+01 | 1486746594.89464 | pgbench_tellers_pkey  |            90112
 2017-02-10 18:09:54.89464+01 | 1486746594.89464 | pgbench_accounts_pkey |        689364992

 2017-02-10 18:09:55.94667+01 | 1486746595.94667 | pgbench_branches_pkey |            16384
 2017-02-10 18:09:55.94667+01 | 1486746595.94667 | pgbench_tellers_pkey  |            90112
 2017-02-10 18:09:55.94667+01 | 1486746595.94667 | pgbench_accounts_pkey |        689364992

 2017-02-10 18:09:57.002191+01 | 1486746597.00219 | pgbench_branches_pkey |            16384
 2017-02-10 18:09:57.002191+01 | 1486746597.00219 | pgbench_tellers_pkey  |            90112
 2017-02-10 18:09:57.002191+01 | 1486746597.00219 | pgbench_accounts_pkey |        689364992

 2017-02-10 18:09:58.054787+01 | 1486746598.05479 | pgbench_branches_pkey |            16384
 2017-02-10 18:09:58.054787+01 | 1486746598.05479 | pgbench_tellers_pkey  |            90112
 2017-02-10 18:09:58.054787+01 | 1486746598.05479 | pgbench_accounts_pkey |        689364992

 2017-02-10 18:09:59.109423+01 | 1486746599.10942 | pgbench_branches_pkey |            16384
 2017-02-10 18:09:59.109423+01 | 1486746599.10942 | pgbench_tellers_pkey  |            90112
 2017-02-10 18:09:59.109423+01 | 1486746599.10942 | pgbench_accounts_pkey |        689364992

 2017-02-10 18:10:00.165015+01 | 1486746600.16501 | pgbench_branches_pkey |            16384
 2017-02-10 18:10:00.165015+01 | 1486746600.16501 | pgbench_tellers_pkey  |            90112
 2017-02-10 18:10:00.165015+01 | 1486746600.16501 | pgbench_accounts_pkey |        689364992

 2017-02-10 18:10:01.220538+01 | 1486746601.22054 | pgbench_branches_pkey |            16384
 2017-02-10 18:10:01.220538+01 | 1486746601.22054 | pgbench_tellers_pkey  |            90112
 2017-02-10 18:10:01.220538+01 | 1486746601.22054 | pgbench_accounts_pkey |        689364992

 2017-02-10 18:10:02.272784+01 | 1486746602.27278 | pgbench_branches_pkey |            16384
 2017-02-10 18:10:02.272784+01 | 1486746602.27278 | pgbench_tellers_pkey  |            90112
 2017-02-10 18:10:02.272784+01 | 1486746602.27278 | pgbench_accounts_pkey |        689364992

 2017-02-10 18:10:03.323866+01 | 1486746603.32387 | pgbench_branches_pkey |            16384
 2017-02-10 18:10:03.323866+01 | 1486746603.32387 | pgbench_tellers_pkey  |            90112
 2017-02-10 18:10:03.323866+01 | 1486746603.32387 | pgbench_accounts_pkey |        689364992

 2017-02-10 18:10:04.378029+01 | 1486746604.37803 | pgbench_branches_pkey |            16384
 2017-02-10 18:10:04.378029+01 | 1486746604.37803 | pgbench_tellers_pkey  |            90112
 2017-02-10 18:10:04.378029+01 | 1486746604.37803 | pgbench_accounts_pkey |        689364992

 2017-02-10 18:10:05.432312+01 | 1486746605.43231 | pgbench_branches_pkey |            16384
 2017-02-10 18:10:05.432312+01 | 1486746605.43231 | pgbench_tellers_pkey  |            90112
 2017-02-10 18:10:05.432312+01 | 1486746605.43231 | pgbench_accounts_pkey |        689364992

 2017-02-10 18:10:06.487985+01 | 1486746606.48798 | pgbench_branches_pkey |            16384
 2017-02-10 18:10:06.487985+01 | 1486746606.48798 | pgbench_tellers_pkey  |            90112
 2017-02-10 18:10:06.487985+01 | 1486746606.48798 | pgbench_accounts_pkey |        689364992

 2017-02-10 18:10:07.543696+01 | 1486746607.5437 | pgbench_branches_pkey |            16384
 2017-02-10 18:10:07.543696+01 | 1486746607.5437 | pgbench_tellers_pkey  |            90112
 2017-02-10 18:10:07.543696+01 | 1486746607.5437 | pgbench_accounts_pkey |        689364992

 2017-02-10 18:10:08.596985+01 | 1486746608.59699 | pgbench_branches_pkey |            16384
 2017-02-10 18:10:08.596985+01 | 1486746608.59699 | pgbench_tellers_pkey  |            90112
 2017-02-10 18:10:08.596985+01 | 1486746608.59699 | pgbench_accounts_pkey |        689364992

 2017-02-10 18:10:09.648857+01 | 1486746609.64886 | pgbench_branches_pkey |            16384
 2017-02-10 18:10:09.648857+01 | 1486746609.64886 | pgbench_tellers_pkey  |            90112
 2017-02-10 18:10:09.648857+01 | 1486746609.64886 | pgbench_accounts_pkey |        689364992

 2017-02-10 18:10:10.705313+01 | 1486746610.70531 | pgbench_branches_pkey |            16384
 2017-02-10 18:10:10.705313+01 | 1486746610.70531 | pgbench_tellers_pkey  |            90112
 2017-02-10 18:10:10.705313+01 | 1486746610.70531 | pgbench_accounts_pkey |        689364992

 2017-02-10 18:10:11.758155+01 | 1486746611.75816 | pgbench_branches_pkey |            16384
 2017-02-10 18:10:11.758155+01 | 1486746611.75816 | pgbench_tellers_pkey  |            90112
 2017-02-10 18:10:11.758155+01 | 1486746611.75816 | pgbench_accounts_pkey |        689364992

 2017-02-10 18:10:12.81185+01 | 1486746612.81185 | pgbench_branches_pkey |            16384
 2017-02-10 18:10:12.81185+01 | 1486746612.81185 | pgbench_tellers_pkey  |            90112
 2017-02-10 18:10:12.81185+01 | 1486746612.81185 | pgbench_accounts_pkey |        689364992

 2017-02-10 18:10:13.866901+01 | 1486746613.8669 | pgbench_branches_pkey |            16384
 2017-02-10 18:10:13.866901+01 | 1486746613.8669 | pgbench_tellers_pkey  |            90112
 2017-02-10 18:10:13.866901+01 | 1486746613.8669 | pgbench_accounts_pkey |        689364992

 2017-02-10 18:10:14.924024+01 | 1486746614.92402 | pgbench_branches_pkey |            16384
 2017-02-10 18:10:14.924024+01 | 1486746614.92402 | pgbench_tellers_pkey  |            90112
 2017-02-10 18:10:14.924024+01 | 1486746614.92402 | pgbench_accounts_pkey |        689364992

 2017-02-10 18:10:15.975183+01 | 1486746615.97518 | pgbench_branches_pkey |            16384
 2017-02-10 18:10:15.975183+01 | 1486746615.97518 | pgbench_tellers_pkey  |            90112
 2017-02-10 18:10:15.975183+01 | 1486746615.97518 | pgbench_accounts_pkey |        689364992

 2017-02-10 18:10:17.031385+01 | 1486746617.03138 | pgbench_branches_pkey |            16384
 2017-02-10 18:10:17.031385+01 | 1486746617.03138 | pgbench_tellers_pkey  |            90112
 2017-02-10 18:10:17.031385+01 | 1486746617.03138 | pgbench_accounts_pkey |        689364992

 2017-02-10 18:10:18.073009+01 | 1486746618.07301 | pgbench_branches_pkey |            16384
 2017-02-10 18:10:18.073009+01 | 1486746618.07301 | pgbench_tellers_pkey  |            90112
 2017-02-10 18:10:18.073009+01 | 1486746618.07301 | pgbench_accounts_pkey |        689364992

 2017-02-10 18:10:19.123176+01 | 1486746619.12318 | pgbench_branches_pkey |            16384
 2017-02-10 18:10:19.123176+01 | 1486746619.12318 | pgbench_tellers_pkey  |            90112
 2017-02-10 18:10:19.123176+01 | 1486746619.12318 | pgbench_accounts_pkey |        689364992

 2017-02-10 18:10:20.176797+01 | 1486746620.1768 | pgbench_branches_pkey |            16384
 2017-02-10 18:10:20.176797+01 | 1486746620.1768 | pgbench_tellers_pkey  |            90112
 2017-02-10 18:10:20.176797+01 | 1486746620.1768 | pgbench_accounts_pkey |        689364992

 2017-02-10 18:10:21.231588+01 | 1486746621.23159 | pgbench_branches_pkey |            16384
 2017-02-10 18:10:21.231588+01 | 1486746621.23159 | pgbench_tellers_pkey  |            90112
 2017-02-10 18:10:21.231588+01 | 1486746621.23159 | pgbench_accounts_pkey |        689364992

 2017-02-10 18:10:22.28289+01 | 1486746622.28289 | pgbench_branches_pkey |            16384
 2017-02-10 18:10:22.28289+01 | 1486746622.28289 | pgbench_tellers_pkey  |            90112
 2017-02-10 18:10:22.28289+01 | 1486746622.28289 | pgbench_accounts_pkey |        689364992

 2017-02-10 18:10:23.335808+01 | 1486746623.33581 | pgbench_branches_pkey |            16384
 2017-02-10 18:10:23.335808+01 | 1486746623.33581 | pgbench_tellers_pkey  |            90112
 2017-02-10 18:10:23.335808+01 | 1486746623.33581 | pgbench_accounts_pkey |        689364992

 2017-02-10 18:10:24.375317+01 | 1486746624.37532 | pgbench_branches_pkey |            16384
 2017-02-10 18:10:24.375317+01 | 1486746624.37532 | pgbench_tellers_pkey  |            90112
 2017-02-10 18:10:24.375317+01 | 1486746624.37532 | pgbench_accounts_pkey |        689364992

 2017-02-10 18:10:25.427327+01 | 1486746625.42733 | pgbench_branches_pkey |            16384
 2017-02-10 18:10:25.427327+01 | 1486746625.42733 | pgbench_tellers_pkey  |            90112
 2017-02-10 18:10:25.427327+01 | 1486746625.42733 | pgbench_accounts_pkey |        689364992

 2017-02-10 18:10:26.478085+01 | 1486746626.47809 | pgbench_branches_pkey |            16384
 2017-02-10 18:10:26.478085+01 | 1486746626.47809 | pgbench_tellers_pkey  |            90112
 2017-02-10 18:10:26.478085+01 | 1486746626.47809 | pgbench_accounts_pkey |        689364992

 2017-02-10 18:10:27.529666+01 | 1486746627.52967 | pgbench_branches_pkey |            16384
 2017-02-10 18:10:27.529666+01 | 1486746627.52967 | pgbench_tellers_pkey  |            90112
 2017-02-10 18:10:27.529666+01 | 1486746627.52967 | pgbench_accounts_pkey |        689364992

 2017-02-10 18:10:28.581479+01 | 1486746628.58148 | pgbench_branches_pkey |            16384
 2017-02-10 18:10:28.581479+01 | 1486746628.58148 | pgbench_tellers_pkey  |            90112
 2017-02-10 18:10:28.581479+01 | 1486746628.58148 | pgbench_accounts_pkey |        689364992

 2017-02-10 18:10:29.633209+01 | 1486746629.63321 | pgbench_branches_pkey |            16384
 2017-02-10 18:10:29.633209+01 | 1486746629.63321 | pgbench_tellers_pkey  |            90112
 2017-02-10 18:10:29.633209+01 | 1486746629.63321 | pgbench_accounts_pkey |        689364992

 2017-02-10 18:10:30.684894+01 | 1486746630.68489 | pgbench_branches_pkey |            16384
 2017-02-10 18:10:30.684894+01 | 1486746630.68489 | pgbench_tellers_pkey  |            90112
 2017-02-10 18:10:30.684894+01 | 1486746630.68489 | pgbench_accounts_pkey |        689364992

 2017-02-10 18:10:31.739712+01 | 1486746631.73971 | pgbench_branches_pkey |            16384
 2017-02-10 18:10:31.739712+01 | 1486746631.73971 | pgbench_tellers_pkey  |            90112
 2017-02-10 18:10:31.739712+01 | 1486746631.73971 | pgbench_accounts_pkey |        689364992

 2017-02-10 18:10:32.793425+01 | 1486746632.79343 | pgbench_branches_pkey |            16384
 2017-02-10 18:10:32.793425+01 | 1486746632.79343 | pgbench_tellers_pkey  |            90112
 2017-02-10 18:10:32.793425+01 | 1486746632.79343 | pgbench_accounts_pkey |        689364992

 2017-02-10 18:10:33.849443+01 | 1486746633.84944 | pgbench_branches_pkey |            16384
 2017-02-10 18:10:33.849443+01 | 1486746633.84944 | pgbench_tellers_pkey  |            90112
 2017-02-10 18:10:33.849443+01 | 1486746633.84944 | pgbench_accounts_pkey |        689364992

 2017-02-10 18:10:34.902312+01 | 1486746634.90231 | pgbench_branches_pkey |            16384
 2017-02-10 18:10:34.902312+01 | 1486746634.90231 | pgbench_tellers_pkey  |            90112
 2017-02-10 18:10:34.902312+01 | 1486746634.90231 | pgbench_accounts_pkey |        689364992

 2017-02-10 18:10:35.953078+01 | 1486746635.95308 | pgbench_branches_pkey |            16384
 2017-02-10 18:10:35.953078+01 | 1486746635.95308 | pgbench_tellers_pkey  |            90112
 2017-02-10 18:10:35.953078+01 | 1486746635.95308 | pgbench_accounts_pkey |        689364992

 2017-02-10 18:10:37.003232+01 | 1486746637.00323 | pgbench_branches_pkey |            16384
 2017-02-10 18:10:37.003232+01 | 1486746637.00323 | pgbench_tellers_pkey  |            90112
 2017-02-10 18:10:37.003232+01 | 1486746637.00323 | pgbench_accounts_pkey |        689364992

 2017-02-10 18:10:38.057238+01 | 1486746638.05724 | pgbench_branches_pkey |            16384
 2017-02-10 18:10:38.057238+01 | 1486746638.05724 | pgbench_tellers_pkey  |            90112
 2017-02-10 18:10:38.057238+01 | 1486746638.05724 | pgbench_accounts_pkey |        689364992

 2017-02-10 18:10:39.12229+01 | 1486746639.12229 | pgbench_branches_pkey |            16384
 2017-02-10 18:10:39.12229+01 | 1486746639.12229 | pgbench_tellers_pkey  |            90112
 2017-02-10 18:10:39.12229+01 | 1486746639.12229 | pgbench_accounts_pkey |        689364992

 2017-02-10 18:10:40.183439+01 | 1486746640.18344 | pgbench_branches_pkey |            16384
 2017-02-10 18:10:40.183439+01 | 1486746640.18344 | pgbench_tellers_pkey  |            90112
 2017-02-10 18:10:40.183439+01 | 1486746640.18344 | pgbench_accounts_pkey |        689364992

 2017-02-10 18:10:41.235243+01 | 1486746641.23524 | pgbench_branches_pkey |            16384
 2017-02-10 18:10:41.235243+01 | 1486746641.23524 | pgbench_tellers_pkey  |            90112
 2017-02-10 18:10:41.235243+01 | 1486746641.23524 | pgbench_accounts_pkey |        689364992

 2017-02-10 18:10:42.287504+01 | 1486746642.2875 | pgbench_branches_pkey |            16384
 2017-02-10 18:10:42.287504+01 | 1486746642.2875 | pgbench_tellers_pkey  |            90112
 2017-02-10 18:10:42.287504+01 | 1486746642.2875 | pgbench_accounts_pkey |        689364992

 2017-02-10 18:10:43.338431+01 | 1486746643.33843 | pgbench_branches_pkey |            16384
 2017-02-10 18:10:43.338431+01 | 1486746643.33843 | pgbench_tellers_pkey  |            90112
 2017-02-10 18:10:43.338431+01 | 1486746643.33843 | pgbench_accounts_pkey |        689364992

 2017-02-10 18:10:44.389557+01 | 1486746644.38956 | pgbench_branches_pkey |            16384
 2017-02-10 18:10:44.389557+01 | 1486746644.38956 | pgbench_tellers_pkey  |            90112
 2017-02-10 18:10:44.389557+01 | 1486746644.38956 | pgbench_accounts_pkey |        689364992

 2017-02-10 18:10:45.442773+01 | 1486746645.44277 | pgbench_branches_pkey |            16384
 2017-02-10 18:10:45.442773+01 | 1486746645.44277 | pgbench_tellers_pkey  |            90112
 2017-02-10 18:10:45.442773+01 | 1486746645.44277 | pgbench_accounts_pkey |        689364992

 2017-02-10 18:10:46.49271+01 | 1486746646.49271 | pgbench_branches_pkey |            16384
 2017-02-10 18:10:46.49271+01 | 1486746646.49271 | pgbench_tellers_pkey  |            90112
 2017-02-10 18:10:46.49271+01 | 1486746646.49271 | pgbench_accounts_pkey |        689364992

 2017-02-10 18:10:47.544999+01 | 1486746647.545 | pgbench_branches_pkey |            16384
 2017-02-10 18:10:47.544999+01 | 1486746647.545 | pgbench_tellers_pkey  |            90112
 2017-02-10 18:10:47.544999+01 | 1486746647.545 | pgbench_accounts_pkey |        689364992

 2017-02-10 18:10:48.600747+01 | 1486746648.60075 | pgbench_branches_pkey |            16384
 2017-02-10 18:10:48.600747+01 | 1486746648.60075 | pgbench_tellers_pkey  |            90112
 2017-02-10 18:10:48.600747+01 | 1486746648.60075 | pgbench_accounts_pkey |        689364992

 2017-02-10 18:10:49.654514+01 | 1486746649.65451 | pgbench_branches_pkey |            16384
 2017-02-10 18:10:49.654514+01 | 1486746649.65451 | pgbench_tellers_pkey  |            90112
 2017-02-10 18:10:49.654514+01 | 1486746649.65451 | pgbench_accounts_pkey |        689364992

 2017-02-10 18:10:50.70965+01 | 1486746650.70965 | pgbench_branches_pkey |            16384
 2017-02-10 18:10:50.70965+01 | 1486746650.70965 | pgbench_tellers_pkey  |            90112
 2017-02-10 18:10:50.70965+01 | 1486746650.70965 | pgbench_accounts_pkey |        689364992

 2017-02-10 18:10:51.761857+01 | 1486746651.76186 | pgbench_branches_pkey |            16384
 2017-02-10 18:10:51.761857+01 | 1486746651.76186 | pgbench_tellers_pkey  |            90112
 2017-02-10 18:10:51.761857+01 | 1486746651.76186 | pgbench_accounts_pkey |        689364992

 2017-02-10 18:10:52.814205+01 | 1486746652.8142 | pgbench_branches_pkey |            16384
 2017-02-10 18:10:52.814205+01 | 1486746652.8142 | pgbench_tellers_pkey  |            90112
 2017-02-10 18:10:52.814205+01 | 1486746652.8142 | pgbench_accounts_pkey |        689364992

 2017-02-10 18:10:53.865527+01 | 1486746653.86553 | pgbench_branches_pkey |            16384
 2017-02-10 18:10:53.865527+01 | 1486746653.86553 | pgbench_tellers_pkey  |            90112
 2017-02-10 18:10:53.865527+01 | 1486746653.86553 | pgbench_accounts_pkey |        689364992

 2017-02-10 18:10:54.921045+01 | 1486746654.92105 | pgbench_branches_pkey |            16384
 2017-02-10 18:10:54.921045+01 | 1486746654.92105 | pgbench_tellers_pkey  |            90112
 2017-02-10 18:10:54.921045+01 | 1486746654.92105 | pgbench_accounts_pkey |        689364992

 2017-02-10 18:10:55.988622+01 | 1486746655.98862 | pgbench_branches_pkey |            16384
 2017-02-10 18:10:55.988622+01 | 1486746655.98862 | pgbench_tellers_pkey  |            90112
 2017-02-10 18:10:55.988622+01 | 1486746655.98862 | pgbench_accounts_pkey |        689364992

 2017-02-10 18:10:57.040224+01 | 1486746657.04022 | pgbench_branches_pkey |            16384
 2017-02-10 18:10:57.040224+01 | 1486746657.04022 | pgbench_tellers_pkey  |            90112
 2017-02-10 18:10:57.040224+01 | 1486746657.04022 | pgbench_accounts_pkey |        689364992

 2017-02-10 18:10:58.094556+01 | 1486746658.09456 | pgbench_branches_pkey |            16384
 2017-02-10 18:10:58.094556+01 | 1486746658.09456 | pgbench_tellers_pkey  |            90112
 2017-02-10 18:10:58.094556+01 | 1486746658.09456 | pgbench_accounts_pkey |        689364992

 2017-02-10 18:10:59.145103+01 | 1486746659.1451 | pgbench_branches_pkey |            16384
 2017-02-10 18:10:59.145103+01 | 1486746659.1451 | pgbench_tellers_pkey  |            90112
 2017-02-10 18:10:59.145103+01 | 1486746659.1451 | pgbench_accounts_pkey |        689364992

 2017-02-10 18:11:00.195703+01 | 1486746660.1957 | pgbench_branches_pkey |            16384
 2017-02-10 18:11:00.195703+01 | 1486746660.1957 | pgbench_tellers_pkey  |            90112
 2017-02-10 18:11:00.195703+01 | 1486746660.1957 | pgbench_accounts_pkey |        689364992

 2017-02-10 18:11:01.246381+01 | 1486746661.24638 | pgbench_branches_pkey |            16384
 2017-02-10 18:11:01.246381+01 | 1486746661.24638 | pgbench_tellers_pkey  |            90112
 2017-02-10 18:11:01.246381+01 | 1486746661.24638 | pgbench_accounts_pkey |        689364992

 2017-02-10 18:11:02.297948+01 | 1486746662.29795 | pgbench_branches_pkey |            16384
 2017-02-10 18:11:02.297948+01 | 1486746662.29795 | pgbench_tellers_pkey  |            90112
 2017-02-10 18:11:02.297948+01 | 1486746662.29795 | pgbench_accounts_pkey |        689364992

 2017-02-10 18:11:03.349048+01 | 1486746663.34905 | pgbench_branches_pkey |            16384
 2017-02-10 18:11:03.349048+01 | 1486746663.34905 | pgbench_tellers_pkey  |            90112
 2017-02-10 18:11:03.349048+01 | 1486746663.34905 | pgbench_accounts_pkey |        689364992

 2017-02-10 18:11:04.398438+01 | 1486746664.39844 | pgbench_branches_pkey |            16384
 2017-02-10 18:11:04.398438+01 | 1486746664.39844 | pgbench_tellers_pkey  |            90112
 2017-02-10 18:11:04.398438+01 | 1486746664.39844 | pgbench_accounts_pkey |        689364992

 2017-02-10 18:11:05.471969+01 | 1486746665.47197 | pgbench_branches_pkey |            16384
 2017-02-10 18:11:05.471969+01 | 1486746665.47197 | pgbench_tellers_pkey  |            90112
 2017-02-10 18:11:05.471969+01 | 1486746665.47197 | pgbench_accounts_pkey |        689364992

 2017-02-10 18:11:06.529085+01 | 1486746666.52908 | pgbench_branches_pkey |            16384
 2017-02-10 18:11:06.529085+01 | 1486746666.52908 | pgbench_tellers_pkey  |            90112
 2017-02-10 18:11:06.529085+01 | 1486746666.52908 | pgbench_accounts_pkey |        689364992

 2017-02-10 18:11:07.581902+01 | 1486746667.5819 | pgbench_branches_pkey |            16384
 2017-02-10 18:11:07.581902+01 | 1486746667.5819 | pgbench_tellers_pkey  |            90112
 2017-02-10 18:11:07.581902+01 | 1486746667.5819 | pgbench_accounts_pkey |        689364992

 2017-02-10 18:11:08.634213+01 | 1486746668.63421 | pgbench_branches_pkey |            16384
 2017-02-10 18:11:08.634213+01 | 1486746668.63421 | pgbench_tellers_pkey  |            90112
 2017-02-10 18:11:08.634213+01 | 1486746668.63421 | pgbench_accounts_pkey |        689364992

 2017-02-10 18:11:09.687001+01 | 1486746669.687 | pgbench_branches_pkey |            16384
 2017-02-10 18:11:09.687001+01 | 1486746669.687 | pgbench_tellers_pkey  |            90112
 2017-02-10 18:11:09.687001+01 | 1486746669.687 | pgbench_accounts_pkey |        689364992

 2017-02-10 18:11:10.740605+01 | 1486746670.74061 | pgbench_branches_pkey |            16384
 2017-02-10 18:11:10.740605+01 | 1486746670.74061 | pgbench_tellers_pkey  |            90112
 2017-02-10 18:11:10.740605+01 | 1486746670.74061 | pgbench_accounts_pkey |        689364992

 2017-02-10 18:11:11.793868+01 | 1486746671.79387 | pgbench_branches_pkey |            16384
 2017-02-10 18:11:11.793868+01 | 1486746671.79387 | pgbench_tellers_pkey  |            90112
 2017-02-10 18:11:11.793868+01 | 1486746671.79387 | pgbench_accounts_pkey |        689364992

 2017-02-10 18:11:12.846441+01 | 1486746672.84644 | pgbench_branches_pkey |            16384
 2017-02-10 18:11:12.846441+01 | 1486746672.84644 | pgbench_tellers_pkey  |            90112
 2017-02-10 18:11:12.846441+01 | 1486746672.84644 | pgbench_accounts_pkey |        689364992

 2017-02-10 18:11:13.903277+01 | 1486746673.90328 | pgbench_branches_pkey |            16384
 2017-02-10 18:11:13.903277+01 | 1486746673.90328 | pgbench_tellers_pkey  |            90112
 2017-02-10 18:11:13.903277+01 | 1486746673.90328 | pgbench_accounts_pkey |        689364992

 2017-02-10 18:11:14.952624+01 | 1486746674.95262 | pgbench_branches_pkey |            16384
 2017-02-10 18:11:14.952624+01 | 1486746674.95262 | pgbench_tellers_pkey  |            90112
 2017-02-10 18:11:14.952624+01 | 1486746674.95262 | pgbench_accounts_pkey |        689364992

 2017-02-10 18:11:16.002785+01 | 1486746676.00278 | pgbench_branches_pkey |            16384
 2017-02-10 18:11:16.002785+01 | 1486746676.00278 | pgbench_tellers_pkey  |            90112
 2017-02-10 18:11:16.002785+01 | 1486746676.00278 | pgbench_accounts_pkey |        689364992

 2017-02-10 18:11:17.062271+01 | 1486746677.06227 | pgbench_branches_pkey |            16384
 2017-02-10 18:11:17.062271+01 | 1486746677.06227 | pgbench_tellers_pkey  |            90112
 2017-02-10 18:11:17.062271+01 | 1486746677.06227 | pgbench_accounts_pkey |        689364992

 2017-02-10 18:11:18.107496+01 | 1486746678.1075 | pgbench_branches_pkey |            16384
 2017-02-10 18:11:18.107496+01 | 1486746678.1075 | pgbench_tellers_pkey  |            90112
 2017-02-10 18:11:18.107496+01 | 1486746678.1075 | pgbench_accounts_pkey |        689364992

 2017-02-10 18:11:19.165534+01 | 1486746679.16553 | pgbench_branches_pkey |            16384
 2017-02-10 18:11:19.165534+01 | 1486746679.16553 | pgbench_tellers_pkey  |            90112
 2017-02-10 18:11:19.165534+01 | 1486746679.16553 | pgbench_accounts_pkey |        689364992

 2017-02-10 18:11:20.217735+01 | 1486746680.21774 | pgbench_branches_pkey |            16384
 2017-02-10 18:11:20.217735+01 | 1486746680.21774 | pgbench_tellers_pkey  |            90112
 2017-02-10 18:11:20.217735+01 | 1486746680.21774 | pgbench_accounts_pkey |        689364992

 2017-02-10 18:11:21.271716+01 | 1486746681.27172 | pgbench_branches_pkey |            16384
 2017-02-10 18:11:21.271716+01 | 1486746681.27172 | pgbench_tellers_pkey  |            90112
 2017-02-10 18:11:21.271716+01 | 1486746681.27172 | pgbench_accounts_pkey |        689364992

 2017-02-10 18:11:22.323874+01 | 1486746682.32387 | pgbench_branches_pkey |            16384
 2017-02-10 18:11:22.323874+01 | 1486746682.32387 | pgbench_tellers_pkey  |            90112
 2017-02-10 18:11:22.323874+01 | 1486746682.32387 | pgbench_accounts_pkey |        689364992

 2017-02-10 18:11:23.37889+01 | 1486746683.37889 | pgbench_branches_pkey |            16384
 2017-02-10 18:11:23.37889+01 | 1486746683.37889 | pgbench_tellers_pkey  |            90112
 2017-02-10 18:11:23.37889+01 | 1486746683.37889 | pgbench_accounts_pkey |        689364992

 2017-02-10 18:11:24.43217+01 | 1486746684.43217 | pgbench_branches_pkey |            16384
 2017-02-10 18:11:24.43217+01 | 1486746684.43217 | pgbench_tellers_pkey  |            90112
 2017-02-10 18:11:24.43217+01 | 1486746684.43217 | pgbench_accounts_pkey |        689364992

 2017-02-10 18:11:25.485561+01 | 1486746685.48556 | pgbench_branches_pkey |            16384
 2017-02-10 18:11:25.485561+01 | 1486746685.48556 | pgbench_tellers_pkey  |            90112
 2017-02-10 18:11:25.485561+01 | 1486746685.48556 | pgbench_accounts_pkey |        689364992

 2017-02-10 18:11:26.525021+01 | 1486746686.52502 | pgbench_branches_pkey |            16384
 2017-02-10 18:11:26.525021+01 | 1486746686.52502 | pgbench_tellers_pkey  |            90112
 2017-02-10 18:11:26.525021+01 | 1486746686.52502 | pgbench_accounts_pkey |        689364992

 2017-02-10 18:11:27.578535+01 | 1486746687.57854 | pgbench_branches_pkey |            16384
 2017-02-10 18:11:27.578535+01 | 1486746687.57854 | pgbench_tellers_pkey  |            90112
 2017-02-10 18:11:27.578535+01 | 1486746687.57854 | pgbench_accounts_pkey |        689364992

 2017-02-10 18:11:28.633056+01 | 1486746688.63306 | pgbench_branches_pkey |            16384
 2017-02-10 18:11:28.633056+01 | 1486746688.63306 | pgbench_tellers_pkey  |            90112
 2017-02-10 18:11:28.633056+01 | 1486746688.63306 | pgbench_accounts_pkey |        689364992

 2017-02-10 18:11:29.688902+01 | 1486746689.6889 | pgbench_branches_pkey |            16384
 2017-02-10 18:11:29.688902+01 | 1486746689.6889 | pgbench_tellers_pkey  |            90112
 2017-02-10 18:11:29.688902+01 | 1486746689.6889 | pgbench_accounts_pkey |        689364992

 2017-02-10 18:11:30.758531+01 | 1486746690.75853 | pgbench_branches_pkey |            16384
 2017-02-10 18:11:30.758531+01 | 1486746690.75853 | pgbench_tellers_pkey  |            90112
 2017-02-10 18:11:30.758531+01 | 1486746690.75853 | pgbench_accounts_pkey |        689364992

 2017-02-10 18:11:31.813667+01 | 1486746691.81367 | pgbench_branches_pkey |            16384
 2017-02-10 18:11:31.813667+01 | 1486746691.81367 | pgbench_tellers_pkey  |            90112
 2017-02-10 18:11:31.813667+01 | 1486746691.81367 | pgbench_accounts_pkey |        689364992

 2017-02-10 18:11:32.864695+01 | 1486746692.8647 | pgbench_branches_pkey |            16384
 2017-02-10 18:11:32.864695+01 | 1486746692.8647 | pgbench_tellers_pkey  |            90112
 2017-02-10 18:11:32.864695+01 | 1486746692.8647 | pgbench_accounts_pkey |        689364992

 2017-02-10 18:11:33.917652+01 | 1486746693.91765 | pgbench_branches_pkey |            16384
 2017-02-10 18:11:33.917652+01 | 1486746693.91765 | pgbench_tellers_pkey  |            90112
 2017-02-10 18:11:33.917652+01 | 1486746693.91765 | pgbench_accounts_pkey |        689364992

 2017-02-10 18:11:34.968595+01 | 1486746694.9686 | pgbench_branches_pkey |            16384
 2017-02-10 18:11:34.968595+01 | 1486746694.9686 | pgbench_tellers_pkey  |            90112
 2017-02-10 18:11:34.968595+01 | 1486746694.9686 | pgbench_accounts_pkey |        689364992

 2017-02-10 18:11:36.019696+01 | 1486746696.0197 | pgbench_branches_pkey |            16384
 2017-02-10 18:11:36.019696+01 | 1486746696.0197 | pgbench_tellers_pkey  |            90112
 2017-02-10 18:11:36.019696+01 | 1486746696.0197 | pgbench_accounts_pkey |        689364992

 2017-02-10 18:11:37.083393+01 | 1486746697.08339 | pgbench_branches_pkey |            16384
 2017-02-10 18:11:37.083393+01 | 1486746697.08339 | pgbench_tellers_pkey  |            90112
 2017-02-10 18:11:37.083393+01 | 1486746697.08339 | pgbench_accounts_pkey |        689364992

 2017-02-10 18:11:38.135533+01 | 1486746698.13553 | pgbench_branches_pkey |            16384
 2017-02-10 18:11:38.135533+01 | 1486746698.13553 | pgbench_tellers_pkey  |            90112
 2017-02-10 18:11:38.135533+01 | 1486746698.13553 | pgbench_accounts_pkey |        689364992

 2017-02-10 18:11:39.188388+01 | 1486746699.18839 | pgbench_branches_pkey |            16384
 2017-02-10 18:11:39.188388+01 | 1486746699.18839 | pgbench_tellers_pkey  |            90112
 2017-02-10 18:11:39.188388+01 | 1486746699.18839 | pgbench_accounts_pkey |        689364992

 2017-02-10 18:11:40.240305+01 | 1486746700.2403 | pgbench_branches_pkey |            16384
 2017-02-10 18:11:40.240305+01 | 1486746700.2403 | pgbench_tellers_pkey  |            90112
 2017-02-10 18:11:40.240305+01 | 1486746700.2403 | pgbench_accounts_pkey |        689364992

 2017-02-10 18:11:41.29307+01 | 1486746701.29307 | pgbench_branches_pkey |            16384
 2017-02-10 18:11:41.29307+01 | 1486746701.29307 | pgbench_tellers_pkey  |            90112
 2017-02-10 18:11:41.29307+01 | 1486746701.29307 | pgbench_accounts_pkey |        689364992

 2017-02-10 18:11:42.345488+01 | 1486746702.34549 | pgbench_branches_pkey |            16384
 2017-02-10 18:11:42.345488+01 | 1486746702.34549 | pgbench_tellers_pkey  |            90112
 2017-02-10 18:11:42.345488+01 | 1486746702.34549 | pgbench_accounts_pkey |        689364992

 2017-02-10 18:11:43.400946+01 | 1486746703.40095 | pgbench_branches_pkey |            16384
 2017-02-10 18:11:43.400946+01 | 1486746703.40095 | pgbench_tellers_pkey  |            90112
 2017-02-10 18:11:43.400946+01 | 1486746703.40095 | pgbench_accounts_pkey |        689364992

 2017-02-10 18:11:44.453678+01 | 1486746704.45368 | pgbench_branches_pkey |            16384
 2017-02-10 18:11:44.453678+01 | 1486746704.45368 | pgbench_tellers_pkey  |            90112
 2017-02-10 18:11:44.453678+01 | 1486746704.45368 | pgbench_accounts_pkey |        689364992

 2017-02-10 18:11:45.525918+01 | 1486746705.52592 | pgbench_branches_pkey |            16384
 2017-02-10 18:11:45.525918+01 | 1486746705.52592 | pgbench_tellers_pkey  |            90112
 2017-02-10 18:11:45.525918+01 | 1486746705.52592 | pgbench_accounts_pkey |        689364992

 2017-02-10 18:11:46.57891+01 | 1486746706.57891 | pgbench_branches_pkey |            16384
 2017-02-10 18:11:46.57891+01 | 1486746706.57891 | pgbench_tellers_pkey  |            90112
 2017-02-10 18:11:46.57891+01 | 1486746706.57891 | pgbench_accounts_pkey |        689364992

 2017-02-10 18:11:47.633279+01 | 1486746707.63328 | pgbench_branches_pkey |            16384
 2017-02-10 18:11:47.633279+01 | 1486746707.63328 | pgbench_tellers_pkey  |            90112
 2017-02-10 18:11:47.633279+01 | 1486746707.63328 | pgbench_accounts_pkey |        689364992

 2017-02-10 18:11:48.688271+01 | 1486746708.68827 | pgbench_branches_pkey |            16384
 2017-02-10 18:11:48.688271+01 | 1486746708.68827 | pgbench_tellers_pkey  |            90112
 2017-02-10 18:11:48.688271+01 | 1486746708.68827 | pgbench_accounts_pkey |        689364992

 2017-02-10 18:11:49.739618+01 | 1486746709.73962 | pgbench_branches_pkey |            16384
 2017-02-10 18:11:49.739618+01 | 1486746709.73962 | pgbench_tellers_pkey  |            90112
 2017-02-10 18:11:49.739618+01 | 1486746709.73962 | pgbench_accounts_pkey |        689364992

 2017-02-10 18:11:50.793209+01 | 1486746710.79321 | pgbench_branches_pkey |            16384
 2017-02-10 18:11:50.793209+01 | 1486746710.79321 | pgbench_tellers_pkey  |            90112
 2017-02-10 18:11:50.793209+01 | 1486746710.79321 | pgbench_accounts_pkey |        689364992

 2017-02-10 18:11:51.847018+01 | 1486746711.84702 | pgbench_branches_pkey |            16384
 2017-02-10 18:11:51.847018+01 | 1486746711.84702 | pgbench_tellers_pkey  |            90112
 2017-02-10 18:11:51.847018+01 | 1486746711.84702 | pgbench_accounts_pkey |        689364992

 2017-02-10 18:11:52.901476+01 | 1486746712.90148 | pgbench_branches_pkey |            16384
 2017-02-10 18:11:52.901476+01 | 1486746712.90148 | pgbench_tellers_pkey  |            90112
 2017-02-10 18:11:52.901476+01 | 1486746712.90148 | pgbench_accounts_pkey |        689364992

 2017-02-10 18:11:53.955837+01 | 1486746713.95584 | pgbench_branches_pkey |            16384
 2017-02-10 18:11:53.955837+01 | 1486746713.95584 | pgbench_tellers_pkey  |            90112
 2017-02-10 18:11:53.955837+01 | 1486746713.95584 | pgbench_accounts_pkey |        689364992

 2017-02-10 18:11:55.010143+01 | 1486746715.01014 | pgbench_branches_pkey |            16384
 2017-02-10 18:11:55.010143+01 | 1486746715.01014 | pgbench_tellers_pkey  |            90112
 2017-02-10 18:11:55.010143+01 | 1486746715.01014 | pgbench_accounts_pkey |        689364992

 2017-02-10 18:11:56.065338+01 | 1486746716.06534 | pgbench_branches_pkey |            16384
 2017-02-10 18:11:56.065338+01 | 1486746716.06534 | pgbench_tellers_pkey  |            90112
 2017-02-10 18:11:56.065338+01 | 1486746716.06534 | pgbench_accounts_pkey |        689364992

 2017-02-10 18:11:57.117473+01 | 1486746717.11747 | pgbench_branches_pkey |            16384
 2017-02-10 18:11:57.117473+01 | 1486746717.11747 | pgbench_tellers_pkey  |            90112
 2017-02-10 18:11:57.117473+01 | 1486746717.11747 | pgbench_accounts_pkey |        689364992

 2017-02-10 18:11:58.167985+01 | 1486746718.16798 | pgbench_branches_pkey |            16384
 2017-02-10 18:11:58.167985+01 | 1486746718.16798 | pgbench_tellers_pkey  |            90112
 2017-02-10 18:11:58.167985+01 | 1486746718.16798 | pgbench_accounts_pkey |        689364992

 2017-02-10 18:11:59.218641+01 | 1486746719.21864 | pgbench_branches_pkey |            16384
 2017-02-10 18:11:59.218641+01 | 1486746719.21864 | pgbench_tellers_pkey  |            90112
 2017-02-10 18:11:59.218641+01 | 1486746719.21864 | pgbench_accounts_pkey |        689364992

 2017-02-10 18:12:00.274878+01 | 1486746720.27488 | pgbench_branches_pkey |            16384
 2017-02-10 18:12:00.274878+01 | 1486746720.27488 | pgbench_tellers_pkey  |            90112
 2017-02-10 18:12:00.274878+01 | 1486746720.27488 | pgbench_accounts_pkey |        689364992

 2017-02-10 18:12:01.326643+01 | 1486746721.32664 | pgbench_branches_pkey |            16384
 2017-02-10 18:12:01.326643+01 | 1486746721.32664 | pgbench_tellers_pkey  |            90112
 2017-02-10 18:12:01.326643+01 | 1486746721.32664 | pgbench_accounts_pkey |        689364992

 2017-02-10 18:12:02.380154+01 | 1486746722.38015 | pgbench_branches_pkey |            16384
 2017-02-10 18:12:02.380154+01 | 1486746722.38015 | pgbench_tellers_pkey  |            90112
 2017-02-10 18:12:02.380154+01 | 1486746722.38015 | pgbench_accounts_pkey |        689364992

 2017-02-10 18:12:03.433756+01 | 1486746723.43376 | pgbench_branches_pkey |            16384
 2017-02-10 18:12:03.433756+01 | 1486746723.43376 | pgbench_tellers_pkey  |            90112
 2017-02-10 18:12:03.433756+01 | 1486746723.43376 | pgbench_accounts_pkey |        689364992

 2017-02-10 18:12:04.487542+01 | 1486746724.48754 | pgbench_branches_pkey |            16384
 2017-02-10 18:12:04.487542+01 | 1486746724.48754 | pgbench_tellers_pkey  |            90112
 2017-02-10 18:12:04.487542+01 | 1486746724.48754 | pgbench_accounts_pkey |        689364992

 2017-02-10 18:12:05.542948+01 | 1486746725.54295 | pgbench_branches_pkey |            16384
 2017-02-10 18:12:05.542948+01 | 1486746725.54295 | pgbench_tellers_pkey  |            90112
 2017-02-10 18:12:05.542948+01 | 1486746725.54295 | pgbench_accounts_pkey |        689364992

 2017-02-10 18:12:06.594065+01 | 1486746726.59406 | pgbench_branches_pkey |            16384
 2017-02-10 18:12:06.594065+01 | 1486746726.59406 | pgbench_tellers_pkey  |            90112
 2017-02-10 18:12:06.594065+01 | 1486746726.59406 | pgbench_accounts_pkey |        689364992

 2017-02-10 18:12:07.644704+01 | 1486746727.6447 | pgbench_branches_pkey |            16384
 2017-02-10 18:12:07.644704+01 | 1486746727.6447 | pgbench_tellers_pkey  |            90112
 2017-02-10 18:12:07.644704+01 | 1486746727.6447 | pgbench_accounts_pkey |        689364992

 2017-02-10 18:12:08.697921+01 | 1486746728.69792 | pgbench_branches_pkey |            16384
 2017-02-10 18:12:08.697921+01 | 1486746728.69792 | pgbench_tellers_pkey  |            90112
 2017-02-10 18:12:08.697921+01 | 1486746728.69792 | pgbench_accounts_pkey |        689364992

 2017-02-10 18:12:09.749311+01 | 1486746729.74931 | pgbench_branches_pkey |            16384
 2017-02-10 18:12:09.749311+01 | 1486746729.74931 | pgbench_tellers_pkey  |            90112
 2017-02-10 18:12:09.749311+01 | 1486746729.74931 | pgbench_accounts_pkey |        689364992

 2017-02-10 18:12:10.801988+01 | 1486746730.80199 | pgbench_branches_pkey |            16384
 2017-02-10 18:12:10.801988+01 | 1486746730.80199 | pgbench_tellers_pkey  |            90112
 2017-02-10 18:12:10.801988+01 | 1486746730.80199 | pgbench_accounts_pkey |        689364992

 2017-02-10 18:12:11.855583+01 | 1486746731.85558 | pgbench_branches_pkey |            16384
 2017-02-10 18:12:11.855583+01 | 1486746731.85558 | pgbench_tellers_pkey  |            90112
 2017-02-10 18:12:11.855583+01 | 1486746731.85558 | pgbench_accounts_pkey |        689364992

 2017-02-10 18:12:12.911448+01 | 1486746732.91145 | pgbench_branches_pkey |            16384
 2017-02-10 18:12:12.911448+01 | 1486746732.91145 | pgbench_tellers_pkey  |            90112
 2017-02-10 18:12:12.911448+01 | 1486746732.91145 | pgbench_accounts_pkey |        689364992

 2017-02-10 18:12:13.967961+01 | 1486746733.96796 | pgbench_branches_pkey |            16384
 2017-02-10 18:12:13.967961+01 | 1486746733.96796 | pgbench_tellers_pkey  |            90112
 2017-02-10 18:12:13.967961+01 | 1486746733.96796 | pgbench_accounts_pkey |        689364992

 2017-02-10 18:12:15.020501+01 | 1486746735.0205 | pgbench_branches_pkey |            16384
 2017-02-10 18:12:15.020501+01 | 1486746735.0205 | pgbench_tellers_pkey  |            90112
 2017-02-10 18:12:15.020501+01 | 1486746735.0205 | pgbench_accounts_pkey |        689364992

 2017-02-10 18:12:16.074108+01 | 1486746736.07411 | pgbench_branches_pkey |            16384
 2017-02-10 18:12:16.074108+01 | 1486746736.07411 | pgbench_tellers_pkey  |            90112
 2017-02-10 18:12:16.074108+01 | 1486746736.07411 | pgbench_accounts_pkey |        689364992

 2017-02-10 18:12:17.127034+01 | 1486746737.12703 | pgbench_branches_pkey |            16384
 2017-02-10 18:12:17.127034+01 | 1486746737.12703 | pgbench_tellers_pkey  |            90112
 2017-02-10 18:12:17.127034+01 | 1486746737.12703 | pgbench_accounts_pkey |        689364992

 2017-02-10 18:12:18.17+01 | 1486746738.17 | pgbench_branches_pkey |            16384
 2017-02-10 18:12:18.17+01 | 1486746738.17 | pgbench_tellers_pkey  |            90112
 2017-02-10 18:12:18.17+01 | 1486746738.17 | pgbench_accounts_pkey |        689364992

 2017-02-10 18:12:19.226506+01 | 1486746739.22651 | pgbench_branches_pkey |            16384
 2017-02-10 18:12:19.226506+01 | 1486746739.22651 | pgbench_tellers_pkey  |            90112
 2017-02-10 18:12:19.226506+01 | 1486746739.22651 | pgbench_accounts_pkey |        689364992

 2017-02-10 18:12:20.278907+01 | 1486746740.27891 | pgbench_branches_pkey |            16384
 2017-02-10 18:12:20.278907+01 | 1486746740.27891 | pgbench_tellers_pkey  |            90112
 2017-02-10 18:12:20.278907+01 | 1486746740.27891 | pgbench_accounts_pkey |        689364992

 2017-02-10 18:12:21.333296+01 | 1486746741.3333 | pgbench_branches_pkey |            16384
 2017-02-10 18:12:21.333296+01 | 1486746741.3333 | pgbench_tellers_pkey  |            90112
 2017-02-10 18:12:21.333296+01 | 1486746741.3333 | pgbench_accounts_pkey |        689364992

 2017-02-10 18:12:22.386351+01 | 1486746742.38635 | pgbench_branches_pkey |            16384
 2017-02-10 18:12:22.386351+01 | 1486746742.38635 | pgbench_tellers_pkey  |            90112
 2017-02-10 18:12:22.386351+01 | 1486746742.38635 | pgbench_accounts_pkey |        689364992

 2017-02-10 18:12:23.440946+01 | 1486746743.44095 | pgbench_branches_pkey |            16384
 2017-02-10 18:12:23.440946+01 | 1486746743.44095 | pgbench_tellers_pkey  |            90112
 2017-02-10 18:12:23.440946+01 | 1486746743.44095 | pgbench_accounts_pkey |        689364992

 2017-02-10 18:12:24.489905+01 | 1486746744.48991 | pgbench_branches_pkey |            16384
 2017-02-10 18:12:24.489905+01 | 1486746744.48991 | pgbench_tellers_pkey  |            90112
 2017-02-10 18:12:24.489905+01 | 1486746744.48991 | pgbench_accounts_pkey |        689364992

 2017-02-10 18:12:25.543589+01 | 1486746745.54359 | pgbench_branches_pkey |            16384
 2017-02-10 18:12:25.543589+01 | 1486746745.54359 | pgbench_tellers_pkey  |            90112
 2017-02-10 18:12:25.543589+01 | 1486746745.54359 | pgbench_accounts_pkey |        689364992

 2017-02-10 18:12:26.595035+01 | 1486746746.59504 | pgbench_branches_pkey |            16384
 2017-02-10 18:12:26.595035+01 | 1486746746.59504 | pgbench_tellers_pkey  |            90112
 2017-02-10 18:12:26.595035+01 | 1486746746.59504 | pgbench_accounts_pkey |        689364992

 2017-02-10 18:12:27.65134+01 | 1486746747.65134 | pgbench_branches_pkey |            16384
 2017-02-10 18:12:27.65134+01 | 1486746747.65134 | pgbench_tellers_pkey  |            90112
 2017-02-10 18:12:27.65134+01 | 1486746747.65134 | pgbench_accounts_pkey |        689364992

 2017-02-10 18:12:28.706972+01 | 1486746748.70697 | pgbench_branches_pkey |            16384
 2017-02-10 18:12:28.706972+01 | 1486746748.70697 | pgbench_tellers_pkey  |            90112
 2017-02-10 18:12:28.706972+01 | 1486746748.70697 | pgbench_accounts_pkey |        689364992

 2017-02-10 18:12:29.761847+01 | 1486746749.76185 | pgbench_branches_pkey |            16384
 2017-02-10 18:12:29.761847+01 | 1486746749.76185 | pgbench_tellers_pkey  |            90112
 2017-02-10 18:12:29.761847+01 | 1486746749.76185 | pgbench_accounts_pkey |        689364992

 2017-02-10 18:12:30.817237+01 | 1486746750.81724 | pgbench_branches_pkey |            16384
 2017-02-10 18:12:30.817237+01 | 1486746750.81724 | pgbench_tellers_pkey  |            90112
 2017-02-10 18:12:30.817237+01 | 1486746750.81724 | pgbench_accounts_pkey |        689364992

 2017-02-10 18:12:31.868162+01 | 1486746751.86816 | pgbench_branches_pkey |            16384
 2017-02-10 18:12:31.868162+01 | 1486746751.86816 | pgbench_tellers_pkey  |            90112
 2017-02-10 18:12:31.868162+01 | 1486746751.86816 | pgbench_accounts_pkey |        689364992

 2017-02-10 18:12:32.920014+01 | 1486746752.92001 | pgbench_branches_pkey |            16384
 2017-02-10 18:12:32.920014+01 | 1486746752.92001 | pgbench_tellers_pkey  |            90112
 2017-02-10 18:12:32.920014+01 | 1486746752.92001 | pgbench_accounts_pkey |        689364992

 2017-02-10 18:12:33.971713+01 | 1486746753.97171 | pgbench_branches_pkey |            16384
 2017-02-10 18:12:33.971713+01 | 1486746753.97171 | pgbench_tellers_pkey  |            90112
 2017-02-10 18:12:33.971713+01 | 1486746753.97171 | pgbench_accounts_pkey |        689364992

 2017-02-10 18:12:35.024809+01 | 1486746755.02481 | pgbench_branches_pkey |            16384
 2017-02-10 18:12:35.024809+01 | 1486746755.02481 | pgbench_tellers_pkey  |            90112
 2017-02-10 18:12:35.024809+01 | 1486746755.02481 | pgbench_accounts_pkey |        689364992

 2017-02-10 18:12:36.075347+01 | 1486746756.07535 | pgbench_branches_pkey |            16384
 2017-02-10 18:12:36.075347+01 | 1486746756.07535 | pgbench_tellers_pkey  |            90112
 2017-02-10 18:12:36.075347+01 | 1486746756.07535 | pgbench_accounts_pkey |        689364992

 2017-02-10 18:12:37.130465+01 | 1486746757.13047 | pgbench_branches_pkey |            16384
 2017-02-10 18:12:37.130465+01 | 1486746757.13047 | pgbench_tellers_pkey  |            90112
 2017-02-10 18:12:37.130465+01 | 1486746757.13047 | pgbench_accounts_pkey |        689364992

 2017-02-10 18:12:38.188827+01 | 1486746758.18883 | pgbench_branches_pkey |            16384
 2017-02-10 18:12:38.188827+01 | 1486746758.18883 | pgbench_tellers_pkey  |            90112
 2017-02-10 18:12:38.188827+01 | 1486746758.18883 | pgbench_accounts_pkey |        689364992

 2017-02-10 18:12:39.239346+01 | 1486746759.23935 | pgbench_branches_pkey |            16384
 2017-02-10 18:12:39.239346+01 | 1486746759.23935 | pgbench_tellers_pkey  |            90112
 2017-02-10 18:12:39.239346+01 | 1486746759.23935 | pgbench_accounts_pkey |        689364992

 2017-02-10 18:12:40.291962+01 | 1486746760.29196 | pgbench_branches_pkey |            16384
 2017-02-10 18:12:40.291962+01 | 1486746760.29196 | pgbench_tellers_pkey  |            90112
 2017-02-10 18:12:40.291962+01 | 1486746760.29196 | pgbench_accounts_pkey |        689364992

 2017-02-10 18:12:41.342759+01 | 1486746761.34276 | pgbench_branches_pkey |            16384
 2017-02-10 18:12:41.342759+01 | 1486746761.34276 | pgbench_tellers_pkey  |            90112
 2017-02-10 18:12:41.342759+01 | 1486746761.34276 | pgbench_accounts_pkey |        689364992

 2017-02-10 18:12:42.395629+01 | 1486746762.39563 | pgbench_branches_pkey |            16384
 2017-02-10 18:12:42.395629+01 | 1486746762.39563 | pgbench_tellers_pkey  |            90112
 2017-02-10 18:12:42.395629+01 | 1486746762.39563 | pgbench_accounts_pkey |        689364992

 2017-02-10 18:12:43.44576+01 | 1486746763.44576 | pgbench_branches_pkey |            16384
 2017-02-10 18:12:43.44576+01 | 1486746763.44576 | pgbench_tellers_pkey  |            90112
 2017-02-10 18:12:43.44576+01 | 1486746763.44576 | pgbench_accounts_pkey |        689364992

 2017-02-10 18:12:44.498761+01 | 1486746764.49876 | pgbench_branches_pkey |            16384
 2017-02-10 18:12:44.498761+01 | 1486746764.49876 | pgbench_tellers_pkey  |            90112
 2017-02-10 18:12:44.498761+01 | 1486746764.49876 | pgbench_accounts_pkey |        689364992

 2017-02-10 18:12:45.551124+01 | 1486746765.55112 | pgbench_branches_pkey |            16384
 2017-02-10 18:12:45.551124+01 | 1486746765.55112 | pgbench_tellers_pkey  |            90112
 2017-02-10 18:12:45.551124+01 | 1486746765.55112 | pgbench_accounts_pkey |        689364992

 2017-02-10 18:12:46.602481+01 | 1486746766.60248 | pgbench_branches_pkey |            16384
 2017-02-10 18:12:46.602481+01 | 1486746766.60248 | pgbench_tellers_pkey  |            90112
 2017-02-10 18:12:46.602481+01 | 1486746766.60248 | pgbench_accounts_pkey |        689364992

 2017-02-10 18:12:47.653652+01 | 1486746767.65365 | pgbench_branches_pkey |            16384
 2017-02-10 18:12:47.653652+01 | 1486746767.65365 | pgbench_tellers_pkey  |            90112
 2017-02-10 18:12:47.653652+01 | 1486746767.65365 | pgbench_accounts_pkey |        689364992

 2017-02-10 18:12:48.704252+01 | 1486746768.70425 | pgbench_branches_pkey |            16384
 2017-02-10 18:12:48.704252+01 | 1486746768.70425 | pgbench_tellers_pkey  |            90112
 2017-02-10 18:12:48.704252+01 | 1486746768.70425 | pgbench_accounts_pkey |        689364992

 2017-02-10 18:12:49.755654+01 | 1486746769.75565 | pgbench_branches_pkey |            16384
 2017-02-10 18:12:49.755654+01 | 1486746769.75565 | pgbench_tellers_pkey  |            90112
 2017-02-10 18:12:49.755654+01 | 1486746769.75565 | pgbench_accounts_pkey |        689364992

 2017-02-10 18:12:50.811999+01 | 1486746770.812 | pgbench_branches_pkey |            16384
 2017-02-10 18:12:50.811999+01 | 1486746770.812 | pgbench_tellers_pkey  |            90112
 2017-02-10 18:12:50.811999+01 | 1486746770.812 | pgbench_accounts_pkey |        689364992

 2017-02-10 18:12:51.866614+01 | 1486746771.86661 | pgbench_branches_pkey |            16384
 2017-02-10 18:12:51.866614+01 | 1486746771.86661 | pgbench_tellers_pkey  |            90112
 2017-02-10 18:12:51.866614+01 | 1486746771.86661 | pgbench_accounts_pkey |        689364992

 2017-02-10 18:12:52.920241+01 | 1486746772.92024 | pgbench_branches_pkey |            16384
 2017-02-10 18:12:52.920241+01 | 1486746772.92024 | pgbench_tellers_pkey  |            90112
 2017-02-10 18:12:52.920241+01 | 1486746772.92024 | pgbench_accounts_pkey |        689364992

 2017-02-10 18:12:53.974419+01 | 1486746773.97442 | pgbench_branches_pkey |            16384
 2017-02-10 18:12:53.974419+01 | 1486746773.97442 | pgbench_tellers_pkey  |            90112
 2017-02-10 18:12:53.974419+01 | 1486746773.97442 | pgbench_accounts_pkey |        689364992

 2017-02-10 18:12:55.026469+01 | 1486746775.02647 | pgbench_branches_pkey |            16384
 2017-02-10 18:12:55.026469+01 | 1486746775.02647 | pgbench_tellers_pkey  |            90112
 2017-02-10 18:12:55.026469+01 | 1486746775.02647 | pgbench_accounts_pkey |        689364992

 2017-02-10 18:12:56.077415+01 | 1486746776.07741 | pgbench_branches_pkey |            16384
 2017-02-10 18:12:56.077415+01 | 1486746776.07741 | pgbench_tellers_pkey  |            90112
 2017-02-10 18:12:56.077415+01 | 1486746776.07741 | pgbench_accounts_pkey |        689364992

 2017-02-10 18:12:57.130323+01 | 1486746777.13032 | pgbench_branches_pkey |            16384
 2017-02-10 18:12:57.130323+01 | 1486746777.13032 | pgbench_tellers_pkey  |            90112
 2017-02-10 18:12:57.130323+01 | 1486746777.13032 | pgbench_accounts_pkey |        689364992

 2017-02-10 18:12:58.181145+01 | 1486746778.18114 | pgbench_branches_pkey |            16384
 2017-02-10 18:12:58.181145+01 | 1486746778.18114 | pgbench_tellers_pkey  |            90112
 2017-02-10 18:12:58.181145+01 | 1486746778.18114 | pgbench_accounts_pkey |        689364992

 2017-02-10 18:12:59.239138+01 | 1486746779.23914 | pgbench_branches_pkey |            16384
 2017-02-10 18:12:59.239138+01 | 1486746779.23914 | pgbench_tellers_pkey  |            90112
 2017-02-10 18:12:59.239138+01 | 1486746779.23914 | pgbench_accounts_pkey |        689364992

 2017-02-10 18:13:00.293492+01 | 1486746780.29349 | pgbench_branches_pkey |            16384
 2017-02-10 18:13:00.293492+01 | 1486746780.29349 | pgbench_tellers_pkey  |            90112
 2017-02-10 18:13:00.293492+01 | 1486746780.29349 | pgbench_accounts_pkey |        689364992

 2017-02-10 18:13:01.344122+01 | 1486746781.34412 | pgbench_branches_pkey |            16384
 2017-02-10 18:13:01.344122+01 | 1486746781.34412 | pgbench_tellers_pkey  |            90112
 2017-02-10 18:13:01.344122+01 | 1486746781.34412 | pgbench_accounts_pkey |        689364992

 2017-02-10 18:13:02.401028+01 | 1486746782.40103 | pgbench_branches_pkey |            16384
 2017-02-10 18:13:02.401028+01 | 1486746782.40103 | pgbench_tellers_pkey  |            90112
 2017-02-10 18:13:02.401028+01 | 1486746782.40103 | pgbench_accounts_pkey |        689364992

 2017-02-10 18:13:03.456224+01 | 1486746783.45622 | pgbench_branches_pkey |            16384
 2017-02-10 18:13:03.456224+01 | 1486746783.45622 | pgbench_tellers_pkey  |            90112
 2017-02-10 18:13:03.456224+01 | 1486746783.45622 | pgbench_accounts_pkey |        689364992

 2017-02-10 18:13:04.508114+01 | 1486746784.50811 | pgbench_branches_pkey |            16384
 2017-02-10 18:13:04.508114+01 | 1486746784.50811 | pgbench_tellers_pkey  |            90112
 2017-02-10 18:13:04.508114+01 | 1486746784.50811 | pgbench_accounts_pkey |        689364992

 2017-02-10 18:13:05.561079+01 | 1486746785.56108 | pgbench_branches_pkey |            16384
 2017-02-10 18:13:05.561079+01 | 1486746785.56108 | pgbench_tellers_pkey  |            90112
 2017-02-10 18:13:05.561079+01 | 1486746785.56108 | pgbench_accounts_pkey |        689364992

 2017-02-10 18:13:06.615284+01 | 1486746786.61528 | pgbench_branches_pkey |            16384
 2017-02-10 18:13:06.615284+01 | 1486746786.61528 | pgbench_tellers_pkey  |            90112
 2017-02-10 18:13:06.615284+01 | 1486746786.61528 | pgbench_accounts_pkey |        689364992

 2017-02-10 18:13:07.669066+01 | 1486746787.66907 | pgbench_branches_pkey |            16384
 2017-02-10 18:13:07.669066+01 | 1486746787.66907 | pgbench_tellers_pkey  |            90112
 2017-02-10 18:13:07.669066+01 | 1486746787.66907 | pgbench_accounts_pkey |        689364992

 2017-02-10 18:13:08.72253+01 | 1486746788.72253 | pgbench_branches_pkey |            16384
 2017-02-10 18:13:08.72253+01 | 1486746788.72253 | pgbench_tellers_pkey  |            90112
 2017-02-10 18:13:08.72253+01 | 1486746788.72253 | pgbench_accounts_pkey |        689364992

 2017-02-10 18:13:09.772811+01 | 1486746789.77281 | pgbench_branches_pkey |            16384
 2017-02-10 18:13:09.772811+01 | 1486746789.77281 | pgbench_tellers_pkey  |            90112
 2017-02-10 18:13:09.772811+01 | 1486746789.77281 | pgbench_accounts_pkey |        689364992

 2017-02-10 18:13:10.828386+01 | 1486746790.82839 | pgbench_branches_pkey |            16384
 2017-02-10 18:13:10.828386+01 | 1486746790.82839 | pgbench_tellers_pkey  |            90112
 2017-02-10 18:13:10.828386+01 | 1486746790.82839 | pgbench_accounts_pkey |        689364992

 2017-02-10 18:13:11.881524+01 | 1486746791.88152 | pgbench_branches_pkey |            16384
 2017-02-10 18:13:11.881524+01 | 1486746791.88152 | pgbench_tellers_pkey  |            90112
 2017-02-10 18:13:11.881524+01 | 1486746791.88152 | pgbench_accounts_pkey |        689364992

 2017-02-10 18:13:12.933296+01 | 1486746792.9333 | pgbench_branches_pkey |            16384
 2017-02-10 18:13:12.933296+01 | 1486746792.9333 | pgbench_tellers_pkey  |            90112
 2017-02-10 18:13:12.933296+01 | 1486746792.9333 | pgbench_accounts_pkey |        689364992

 2017-02-10 18:13:13.986537+01 | 1486746793.98654 | pgbench_branches_pkey |            16384
 2017-02-10 18:13:13.986537+01 | 1486746793.98654 | pgbench_tellers_pkey  |            90112
 2017-02-10 18:13:13.986537+01 | 1486746793.98654 | pgbench_accounts_pkey |        689364992

 2017-02-10 18:13:15.038923+01 | 1486746795.03892 | pgbench_branches_pkey |            16384
 2017-02-10 18:13:15.038923+01 | 1486746795.03892 | pgbench_tellers_pkey  |            90112
 2017-02-10 18:13:15.038923+01 | 1486746795.03892 | pgbench_accounts_pkey |        689364992

 2017-02-10 18:13:16.089024+01 | 1486746796.08902 | pgbench_branches_pkey |            16384
 2017-02-10 18:13:16.089024+01 | 1486746796.08902 | pgbench_tellers_pkey  |            90112
 2017-02-10 18:13:16.089024+01 | 1486746796.08902 | pgbench_accounts_pkey |        689364992

 2017-02-10 18:13:17.139657+01 | 1486746797.13966 | pgbench_branches_pkey |            16384
 2017-02-10 18:13:17.139657+01 | 1486746797.13966 | pgbench_tellers_pkey  |            90112
 2017-02-10 18:13:17.139657+01 | 1486746797.13966 | pgbench_accounts_pkey |        689364992

 2017-02-10 18:13:18.18221+01 | 1486746798.18221 | pgbench_branches_pkey |            16384
 2017-02-10 18:13:18.18221+01 | 1486746798.18221 | pgbench_tellers_pkey  |            90112
 2017-02-10 18:13:18.18221+01 | 1486746798.18221 | pgbench_accounts_pkey |        689364992

 2017-02-10 18:13:19.259241+01 | 1486746799.25924 | pgbench_branches_pkey |            16384
 2017-02-10 18:13:19.259241+01 | 1486746799.25924 | pgbench_tellers_pkey  |            90112
 2017-02-10 18:13:19.259241+01 | 1486746799.25924 | pgbench_accounts_pkey |        689364992

 2017-02-10 18:13:20.31079+01 | 1486746800.31079 | pgbench_branches_pkey |            16384
 2017-02-10 18:13:20.31079+01 | 1486746800.31079 | pgbench_tellers_pkey  |            90112
 2017-02-10 18:13:20.31079+01 | 1486746800.31079 | pgbench_accounts_pkey |        689364992

 2017-02-10 18:13:21.363314+01 | 1486746801.36331 | pgbench_branches_pkey |            16384
 2017-02-10 18:13:21.363314+01 | 1486746801.36331 | pgbench_tellers_pkey  |            90112
 2017-02-10 18:13:21.363314+01 | 1486746801.36331 | pgbench_accounts_pkey |        689364992

 2017-02-10 18:13:22.416506+01 | 1486746802.41651 | pgbench_branches_pkey |            16384
 2017-02-10 18:13:22.416506+01 | 1486746802.41651 | pgbench_tellers_pkey  |            90112
 2017-02-10 18:13:22.416506+01 | 1486746802.41651 | pgbench_accounts_pkey |        689364992

 2017-02-10 18:13:23.474031+01 | 1486746803.47403 | pgbench_branches_pkey |            16384
 2017-02-10 18:13:23.474031+01 | 1486746803.47403 | pgbench_tellers_pkey  |            90112
 2017-02-10 18:13:23.474031+01 | 1486746803.47403 | pgbench_accounts_pkey |        689364992

 2017-02-10 18:13:24.52561+01 | 1486746804.52561 | pgbench_branches_pkey |            16384
 2017-02-10 18:13:24.52561+01 | 1486746804.52561 | pgbench_tellers_pkey  |            90112
 2017-02-10 18:13:24.52561+01 | 1486746804.52561 | pgbench_accounts_pkey |        689364992

 2017-02-10 18:13:25.577742+01 | 1486746805.57774 | pgbench_branches_pkey |            16384
 2017-02-10 18:13:25.577742+01 | 1486746805.57774 | pgbench_tellers_pkey  |            90112
 2017-02-10 18:13:25.577742+01 | 1486746805.57774 | pgbench_accounts_pkey |        689364992

 2017-02-10 18:13:26.631908+01 | 1486746806.63191 | pgbench_branches_pkey |            16384
 2017-02-10 18:13:26.631908+01 | 1486746806.63191 | pgbench_tellers_pkey  |            90112
 2017-02-10 18:13:26.631908+01 | 1486746806.63191 | pgbench_accounts_pkey |        689364992

 2017-02-10 18:13:27.68445+01 | 1486746807.68445 | pgbench_branches_pkey |            16384
 2017-02-10 18:13:27.68445+01 | 1486746807.68445 | pgbench_tellers_pkey  |            90112
 2017-02-10 18:13:27.68445+01 | 1486746807.68445 | pgbench_accounts_pkey |        689364992

 2017-02-10 18:13:28.737341+01 | 1486746808.73734 | pgbench_branches_pkey |            16384
 2017-02-10 18:13:28.737341+01 | 1486746808.73734 | pgbench_tellers_pkey  |            90112
 2017-02-10 18:13:28.737341+01 | 1486746808.73734 | pgbench_accounts_pkey |        689364992

 2017-02-10 18:13:29.790632+01 | 1486746809.79063 | pgbench_branches_pkey |            16384
 2017-02-10 18:13:29.790632+01 | 1486746809.79063 | pgbench_tellers_pkey  |            90112
 2017-02-10 18:13:29.790632+01 | 1486746809.79063 | pgbench_accounts_pkey |        689364992

 2017-02-10 18:13:30.842121+01 | 1486746810.84212 | pgbench_branches_pkey |            16384
 2017-02-10 18:13:30.842121+01 | 1486746810.84212 | pgbench_tellers_pkey  |            90112
 2017-02-10 18:13:30.842121+01 | 1486746810.84212 | pgbench_accounts_pkey |        689364992

 2017-02-10 18:13:31.896895+01 | 1486746811.89689 | pgbench_branches_pkey |            16384
 2017-02-10 18:13:31.896895+01 | 1486746811.89689 | pgbench_tellers_pkey  |            90112
 2017-02-10 18:13:31.896895+01 | 1486746811.89689 | pgbench_accounts_pkey |        689364992

 2017-02-10 18:13:32.951525+01 | 1486746812.95152 | pgbench_branches_pkey |            16384
 2017-02-10 18:13:32.951525+01 | 1486746812.95152 | pgbench_tellers_pkey  |            90112
 2017-02-10 18:13:32.951525+01 | 1486746812.95152 | pgbench_accounts_pkey |        689364992

 2017-02-10 18:13:34.005875+01 | 1486746814.00588 | pgbench_branches_pkey |            16384
 2017-02-10 18:13:34.005875+01 | 1486746814.00588 | pgbench_tellers_pkey  |            90112
 2017-02-10 18:13:34.005875+01 | 1486746814.00588 | pgbench_accounts_pkey |        689364992

 2017-02-10 18:13:35.059417+01 | 1486746815.05942 | pgbench_branches_pkey |            16384
 2017-02-10 18:13:35.059417+01 | 1486746815.05942 | pgbench_tellers_pkey  |            90112
 2017-02-10 18:13:35.059417+01 | 1486746815.05942 | pgbench_accounts_pkey |        689364992

 2017-02-10 18:13:36.118564+01 | 1486746816.11856 | pgbench_branches_pkey |            16384
 2017-02-10 18:13:36.118564+01 | 1486746816.11856 | pgbench_tellers_pkey  |            90112
 2017-02-10 18:13:36.118564+01 | 1486746816.11856 | pgbench_accounts_pkey |        689364992

 2017-02-10 18:13:37.170013+01 | 1486746817.17001 | pgbench_branches_pkey |            16384
 2017-02-10 18:13:37.170013+01 | 1486746817.17001 | pgbench_tellers_pkey  |            90112
 2017-02-10 18:13:37.170013+01 | 1486746817.17001 | pgbench_accounts_pkey |        689364992

 2017-02-10 18:13:38.224066+01 | 1486746818.22407 | pgbench_branches_pkey |            16384
 2017-02-10 18:13:38.224066+01 | 1486746818.22407 | pgbench_tellers_pkey  |            90112
 2017-02-10 18:13:38.224066+01 | 1486746818.22407 | pgbench_accounts_pkey |        689364992

 2017-02-10 18:13:39.275386+01 | 1486746819.27539 | pgbench_branches_pkey |            16384
 2017-02-10 18:13:39.275386+01 | 1486746819.27539 | pgbench_tellers_pkey  |            90112
 2017-02-10 18:13:39.275386+01 | 1486746819.27539 | pgbench_accounts_pkey |        689364992

 2017-02-10 18:13:40.328357+01 | 1486746820.32836 | pgbench_branches_pkey |            16384
 2017-02-10 18:13:40.328357+01 | 1486746820.32836 | pgbench_tellers_pkey  |            90112
 2017-02-10 18:13:40.328357+01 | 1486746820.32836 | pgbench_accounts_pkey |        689364992

 2017-02-10 18:13:41.382136+01 | 1486746821.38214 | pgbench_branches_pkey |            16384
 2017-02-10 18:13:41.382136+01 | 1486746821.38214 | pgbench_tellers_pkey  |            90112
 2017-02-10 18:13:41.382136+01 | 1486746821.38214 | pgbench_accounts_pkey |        689364992

 2017-02-10 18:13:42.433277+01 | 1486746822.43328 | pgbench_branches_pkey |            16384
 2017-02-10 18:13:42.433277+01 | 1486746822.43328 | pgbench_tellers_pkey  |            90112
 2017-02-10 18:13:42.433277+01 | 1486746822.43328 | pgbench_accounts_pkey |        689364992

 2017-02-10 18:13:43.485534+01 | 1486746823.48553 | pgbench_branches_pkey |            16384
 2017-02-10 18:13:43.485534+01 | 1486746823.48553 | pgbench_tellers_pkey  |            90112
 2017-02-10 18:13:43.485534+01 | 1486746823.48553 | pgbench_accounts_pkey |        689364992

