 2017-02-10 18:08:44.334865+01 | 1486746524.33487 |                 0 |               7 |                  4442 |                  269 |             590159 |        868889 |             8649 |         9463893 |                     0 |       8431702 | 2017-02-10 17:37:46.976846+01

 2017-02-10 18:08:45.384887+01 | 1486746525.38489 |                 0 |               7 |                  4442 |                  269 |             590159 |        868889 |             8649 |         9463893 |                     0 |       8434855 | 2017-02-10 17:37:46.976846+01

 2017-02-10 18:08:46.43548+01 | 1486746526.43548 |                 0 |               7 |                  4442 |                  269 |             590159 |        868889 |             8649 |         9463893 |                     0 |       8439088 | 2017-02-10 17:37:46.976846+01

 2017-02-10 18:08:47.487492+01 | 1486746527.48749 |                 0 |               7 |                  4442 |                  269 |             590159 |        868889 |             8649 |         9463893 |                     0 |       8442679 | 2017-02-10 17:37:46.976846+01

 2017-02-10 18:08:48.537234+01 | 1486746528.53723 |                 0 |               7 |                  4442 |                  269 |             590159 |        868889 |             8649 |         9463893 |                     0 |       8446363 | 2017-02-10 17:37:46.976846+01

 2017-02-10 18:08:49.587746+01 | 1486746529.58775 |                 0 |               7 |                  4442 |                  269 |             590159 |        868896 |             8649 |         9463893 |                     0 |       8450214 | 2017-02-10 17:37:46.976846+01

 2017-02-10 18:08:50.639555+01 | 1486746530.63955 |                 0 |               7 |                  4442 |                  269 |             590159 |        868925 |             8649 |         9463893 |                     0 |       8454812 | 2017-02-10 17:37:46.976846+01

 2017-02-10 18:08:51.690453+01 | 1486746531.69045 |                 0 |               7 |                  4442 |                  269 |             590159 |        868949 |             8649 |         9463893 |                     0 |       8458551 | 2017-02-10 17:37:46.976846+01

 2017-02-10 18:08:52.743494+01 | 1486746532.74349 |                 0 |               7 |                  4442 |                  269 |             590159 |        868991 |             8649 |         9463893 |                     0 |       8462608 | 2017-02-10 17:37:46.976846+01

 2017-02-10 18:08:53.794463+01 | 1486746533.79446 |                 0 |               7 |                  4442 |                  269 |             590159 |        869335 |             8649 |         9463893 |                     0 |       8466574 | 2017-02-10 17:37:46.976846+01

 2017-02-10 18:08:54.846084+01 | 1486746534.84608 |                 0 |               7 |                  4442 |                  269 |             590159 |        869920 |             8653 |         9463893 |                     0 |       8471612 | 2017-02-10 17:37:46.976846+01

 2017-02-10 18:08:55.898652+01 | 1486746535.89865 |                 0 |               7 |                  4442 |                  269 |             590159 |        870400 |             8657 |         9463893 |                     0 |       8475861 | 2017-02-10 17:37:46.976846+01

 2017-02-10 18:08:56.95198+01 | 1486746536.95198 |                 0 |               7 |                  4442 |                  269 |             590159 |        870900 |             8662 |         9463893 |                     0 |       8480009 | 2017-02-10 17:37:46.976846+01

 2017-02-10 18:08:58.003878+01 | 1486746538.00388 |                 0 |               7 |                  4442 |                  269 |             590159 |        871400 |             8667 |         9463893 |                     0 |       8483732 | 2017-02-10 17:37:46.976846+01

 2017-02-10 18:08:59.056044+01 | 1486746539.05604 |                 0 |               7 |                  4442 |                  269 |             590159 |        871900 |             8672 |         9463893 |                     0 |       8488054 | 2017-02-10 17:37:46.976846+01

 2017-02-10 18:09:00.115002+01 | 1486746540.115 |                 0 |               7 |                  4442 |                  269 |             590159 |        872500 |             8678 |         9463893 |                     0 |       8493109 | 2017-02-10 17:37:46.976846+01

 2017-02-10 18:09:01.169198+01 | 1486746541.1692 |                 0 |               7 |                  4442 |                  269 |             590159 |        873000 |             8683 |         9463893 |                     0 |       8497064 | 2017-02-10 17:37:46.976846+01

 2017-02-10 18:09:02.221483+01 | 1486746542.22148 |                 0 |               7 |                  4442 |                  269 |             590159 |        873500 |             8688 |         9463893 |                     0 |       8501274 | 2017-02-10 17:37:46.976846+01

 2017-02-10 18:09:03.273169+01 | 1486746543.27317 |                 0 |               7 |                  4442 |                  269 |             590159 |        874000 |             8693 |         9463893 |                     0 |       8505275 | 2017-02-10 17:37:46.976846+01

 2017-02-10 18:09:04.326623+01 | 1486746544.32662 |                 0 |               7 |                  4442 |                  269 |             590159 |        874600 |             8699 |         9463893 |                     0 |       8510456 | 2017-02-10 17:37:46.976846+01

 2017-02-10 18:09:05.379256+01 | 1486746545.37926 |                 0 |               7 |                  4442 |                  269 |             590159 |        875100 |             8704 |         9463893 |                     0 |       8514482 | 2017-02-10 17:37:46.976846+01

 2017-02-10 18:09:06.432094+01 | 1486746546.43209 |                 0 |               7 |                  4442 |                  269 |             590159 |        875600 |             8709 |         9463893 |                     0 |       8518948 | 2017-02-10 17:37:46.976846+01

 2017-02-10 18:09:07.483055+01 | 1486746547.48306 |                 0 |               7 |                  4442 |                  269 |             590159 |        876100 |             8714 |         9463893 |                     0 |       8523031 | 2017-02-10 17:37:46.976846+01

 2017-02-10 18:09:08.53407+01 | 1486746548.53407 |                 0 |               7 |                  4442 |                  269 |             590159 |        876700 |             8720 |         9463893 |                     0 |       8528201 | 2017-02-10 17:37:46.976846+01

 2017-02-10 18:09:09.585463+01 | 1486746549.58546 |                 0 |               7 |                  4442 |                  269 |             590159 |        877200 |             8725 |         9521418 |                     0 |       8532337 | 2017-02-10 17:37:46.976846+01

 2017-02-10 18:09:10.639332+01 | 1486746550.63933 |                 0 |               7 |                  4442 |                  269 |             590159 |        877700 |             8730 |         9521418 |                     0 |       8536855 | 2017-02-10 17:37:46.976846+01

 2017-02-10 18:09:11.694847+01 | 1486746551.69485 |                 0 |               7 |                  4442 |                  269 |             590159 |        878200 |             8735 |         9521418 |                     0 |       8541137 | 2017-02-10 17:37:46.976846+01

 2017-02-10 18:09:12.745514+01 | 1486746552.74551 |                 0 |               7 |                  4442 |                  269 |             590159 |        878800 |             8741 |         9521418 |                     0 |       8546405 | 2017-02-10 17:37:46.976846+01

 2017-02-10 18:09:13.800156+01 | 1486746553.80016 |                 0 |               7 |                  4442 |                  269 |             590159 |        879300 |             8746 |         9521418 |                     0 |       8550670 | 2017-02-10 17:37:46.976846+01

 2017-02-10 18:09:14.853291+01 | 1486746554.85329 |                 0 |               7 |                  4442 |                  269 |             590159 |        879800 |             8751 |         9521418 |                     0 |       8555224 | 2017-02-10 17:37:46.976846+01

 2017-02-10 18:09:15.906034+01 | 1486746555.90603 |                 0 |               7 |                  4442 |                  269 |             590159 |        880300 |             8756 |         9521418 |                     0 |       8559318 | 2017-02-10 17:37:46.976846+01

 2017-02-10 18:09:16.96316+01 | 1486746556.96316 |                 0 |               7 |                  4442 |                  269 |             590159 |        880900 |             8762 |         9521418 |                     0 |       8564889 | 2017-02-10 17:37:46.976846+01

 2017-02-10 18:09:18.006529+01 | 1486746558.00653 |                 0 |               7 |                  4442 |                  269 |             590159 |        881400 |             8767 |         9521418 |                     0 |       8569138 | 2017-02-10 17:37:46.976846+01

 2017-02-10 18:09:19.061852+01 | 1486746559.06185 |                 0 |               7 |                  4442 |                  269 |             590159 |        881900 |             8772 |         9521418 |                     0 |       8573628 | 2017-02-10 17:37:46.976846+01

 2017-02-10 18:09:20.116971+01 | 1486746560.11697 |                 0 |               7 |                  4442 |                  269 |             590159 |        882400 |             8777 |         9521418 |                     0 |       8577749 | 2017-02-10 17:37:46.976846+01

 2017-02-10 18:09:21.169171+01 | 1486746561.16917 |                 0 |               7 |                  4442 |                  269 |             590159 |        882900 |             8782 |         9521418 |                     0 |       8582264 | 2017-02-10 17:37:46.976846+01

 2017-02-10 18:09:22.221765+01 | 1486746562.22177 |                 0 |               7 |                  4442 |                  269 |             590159 |        883500 |             8788 |         9521418 |                     0 |       8587447 | 2017-02-10 17:37:46.976846+01

 2017-02-10 18:09:23.276408+01 | 1486746563.27641 |                 0 |               7 |                  4442 |                  269 |             590159 |        884000 |             8793 |         9521418 |                     0 |       8591976 | 2017-02-10 17:37:46.976846+01

 2017-02-10 18:09:24.330991+01 | 1486746564.33099 |                 0 |               7 |                  4442 |                  269 |             590159 |        884500 |             8798 |         9579654 |                     0 |       8596091 | 2017-02-10 17:37:46.976846+01

 2017-02-10 18:09:25.382505+01 | 1486746565.3825 |                 0 |               7 |                  4442 |                  269 |             590159 |        885000 |             8803 |         9579654 |                     0 |       8600659 | 2017-02-10 17:37:46.976846+01

 2017-02-10 18:09:26.439746+01 | 1486746566.43975 |                 0 |               7 |                  4442 |                  269 |             590159 |        885600 |             8809 |         9579654 |                     0 |       8605926 | 2017-02-10 17:37:46.976846+01

 2017-02-10 18:09:27.491808+01 | 1486746567.49181 |                 0 |               7 |                  4442 |                  269 |             590159 |        886100 |             8814 |         9579654 |                     0 |       8610481 | 2017-02-10 17:37:46.976846+01

 2017-02-10 18:09:28.544195+01 | 1486746568.54419 |                 0 |               7 |                  4442 |                  269 |             590159 |        886600 |             8819 |         9579654 |                     0 |       8614790 | 2017-02-10 17:37:46.976846+01

 2017-02-10 18:09:29.596338+01 | 1486746569.59634 |                 0 |               7 |                  4442 |                  269 |             590159 |        887100 |             8824 |         9579654 |                     0 |       8619367 | 2017-02-10 17:37:46.976846+01

 2017-02-10 18:09:30.648078+01 | 1486746570.64808 |                 0 |               7 |                  4442 |                  269 |             590159 |        887700 |             8830 |         9579654 |                     0 |       8624804 | 2017-02-10 17:37:46.976846+01

 2017-02-10 18:09:31.701137+01 | 1486746571.70114 |                 0 |               7 |                  4442 |                  269 |             590159 |        888200 |             8835 |         9579654 |                     0 |       8629393 | 2017-02-10 17:37:46.976846+01

 2017-02-10 18:09:32.754013+01 | 1486746572.75401 |                 0 |               7 |                  4442 |                  269 |             590159 |        888700 |             8840 |         9579654 |                     0 |       8633767 | 2017-02-10 17:37:46.976846+01

 2017-02-10 18:09:33.807698+01 | 1486746573.8077 |                 0 |               7 |                  4442 |                  269 |             590159 |        889200 |             8845 |         9579654 |                     0 |       8638323 | 2017-02-10 17:37:46.976846+01

 2017-02-10 18:09:34.859989+01 | 1486746574.85999 |                 0 |               7 |                  4442 |                  269 |             590159 |        889800 |             8851 |         9579654 |                     0 |       8643566 | 2017-02-10 17:37:46.976846+01

 2017-02-10 18:09:35.913089+01 | 1486746575.91309 |                 0 |               7 |                  4442 |                  269 |             590159 |        890300 |             8856 |         9579654 |                     0 |       8648245 | 2017-02-10 17:37:46.976846+01

 2017-02-10 18:09:36.966684+01 | 1486746576.96668 |                 0 |               7 |                  4442 |                  269 |             590159 |        890800 |             8861 |         9579654 |                     0 |       8652562 | 2017-02-10 17:37:46.976846+01

 2017-02-10 18:09:38.019507+01 | 1486746578.01951 |                 0 |               7 |                  4442 |                  269 |             590159 |        891300 |             8866 |         9579654 |                     0 |       8656979 | 2017-02-10 17:37:46.976846+01

 2017-02-10 18:09:39.079608+01 | 1486746579.07961 |                 0 |               7 |                  4442 |                  269 |             590159 |        891800 |             8871 |         9637990 |                     0 |       8661515 | 2017-02-10 17:37:46.976846+01

 2017-02-10 18:09:40.130676+01 | 1486746580.13068 |                 0 |               7 |                  4442 |                  269 |             590159 |        892400 |             8877 |         9637990 |                     0 |       8666116 | 2017-02-10 17:37:46.976846+01

 2017-02-10 18:09:41.18694+01 | 1486746581.18694 |                 0 |               7 |                  4442 |                  269 |             590159 |        892900 |             8882 |         9637990 |                     0 |       8670382 | 2017-02-10 17:37:46.976846+01

 2017-02-10 18:09:42.24364+01 | 1486746582.24364 |                 0 |               7 |                  4442 |                  269 |             590159 |        893400 |             8887 |         9637990 |                     0 |       8674641 | 2017-02-10 17:37:46.976846+01

 2017-02-10 18:09:43.299982+01 | 1486746583.29998 |                 0 |               7 |                  4442 |                  269 |             590159 |        893900 |             8892 |         9637990 |                     0 |       8678726 | 2017-02-10 17:37:46.976846+01

 2017-02-10 18:09:44.355432+01 | 1486746584.35543 |                 0 |               7 |                  4442 |                  269 |             590159 |        894500 |             8898 |         9637990 |                     0 |       8683874 | 2017-02-10 17:37:46.976846+01

 2017-02-10 18:09:45.407474+01 | 1486746585.40747 |                 0 |               7 |                  4442 |                  269 |             590159 |        895000 |             8903 |         9637990 |                     0 |       8687877 | 2017-02-10 17:37:46.976846+01

 2017-02-10 18:09:46.462225+01 | 1486746586.46222 |                 0 |               7 |                  4442 |                  269 |             590159 |        895500 |             8908 |         9637990 |                     0 |       8692199 | 2017-02-10 17:37:46.976846+01

 2017-02-10 18:09:47.514292+01 | 1486746587.51429 |                 0 |               7 |                  4442 |                  269 |             590159 |        896000 |             8913 |         9637990 |                     0 |       8696380 | 2017-02-10 17:37:46.976846+01

 2017-02-10 18:09:48.570207+01 | 1486746588.57021 |                 0 |               7 |                  4442 |                  269 |             590159 |        896600 |             8919 |         9637990 |                     0 |       8701710 | 2017-02-10 17:37:46.976846+01

 2017-02-10 18:09:49.62277+01 | 1486746589.62277 |                 0 |               7 |                  4442 |                  269 |             590159 |        897100 |             8924 |         9637990 |                     0 |       8705991 | 2017-02-10 17:37:46.976846+01

 2017-02-10 18:09:50.68143+01 | 1486746590.68143 |                 0 |               7 |                  4442 |                  269 |             590159 |        897600 |             8929 |         9637990 |                     0 |       8710399 | 2017-02-10 17:37:46.976846+01

 2017-02-10 18:09:51.735731+01 | 1486746591.73573 |                 0 |               7 |                  4442 |                  269 |             590159 |        898100 |             8934 |         9637990 |                     0 |       8714621 | 2017-02-10 17:37:46.976846+01

 2017-02-10 18:09:52.791328+01 | 1486746592.79133 |                 0 |               7 |                  4442 |                  269 |             590159 |        898700 |             8940 |         9637990 |                     0 |       8720150 | 2017-02-10 17:37:46.976846+01

 2017-02-10 18:09:53.846819+01 | 1486746593.84682 |                 0 |               7 |                  4442 |                  269 |             590159 |        899200 |             8945 |         9695927 |                     0 |       8724476 | 2017-02-10 17:37:46.976846+01

 2017-02-10 18:09:54.899228+01 | 1486746594.89923 |                 0 |               7 |                  4442 |                  269 |             590159 |        899700 |             8950 |         9695927 |                     0 |       8729029 | 2017-02-10 17:37:46.976846+01

 2017-02-10 18:09:55.95183+01 | 1486746595.95183 |                 0 |               7 |                  4442 |                  269 |             590159 |        900200 |             8955 |         9695927 |                     0 |       8733335 | 2017-02-10 17:37:46.976846+01

 2017-02-10 18:09:57.010361+01 | 1486746597.01036 |                 0 |               7 |                  4442 |                  269 |             590159 |        900800 |             8961 |         9695927 |                     0 |       8738535 | 2017-02-10 17:37:46.976846+01

 2017-02-10 18:09:58.060003+01 | 1486746598.06 |                 0 |               7 |                  4442 |                  269 |             590159 |        901300 |             8966 |         9695927 |                     0 |       8743168 | 2017-02-10 17:37:46.976846+01

 2017-02-10 18:09:59.114877+01 | 1486746599.11488 |                 0 |               7 |                  4442 |                  269 |             590159 |        901800 |             8971 |         9695927 |                     0 |       8747886 | 2017-02-10 17:37:46.976846+01

 2017-02-10 18:10:00.170596+01 | 1486746600.1706 |                 0 |               7 |                  4442 |                  269 |             590159 |        902300 |             8976 |         9695927 |                     0 |       8752283 | 2017-02-10 17:37:46.976846+01

 2017-02-10 18:10:01.227423+01 | 1486746601.22742 |                 0 |               7 |                  4442 |                  269 |             590159 |        902900 |             8982 |         9695927 |                     0 |       8757588 | 2017-02-10 17:37:46.976846+01

 2017-02-10 18:10:02.277712+01 | 1486746602.27771 |                 0 |               7 |                  4442 |                  269 |             590159 |        903400 |             8987 |         9695927 |                     0 |       8761917 | 2017-02-10 17:37:46.976846+01

 2017-02-10 18:10:03.328337+01 | 1486746603.32834 |                 0 |               7 |                  4442 |                  269 |             590159 |        903900 |             8992 |         9695927 |                     0 |       8766314 | 2017-02-10 17:37:46.976846+01

 2017-02-10 18:10:04.382929+01 | 1486746604.38293 |                 0 |               7 |                  4442 |                  269 |             590159 |        904400 |             8997 |         9695927 |                     0 |       8770831 | 2017-02-10 17:37:46.976846+01

 2017-02-10 18:10:05.441085+01 | 1486746605.44109 |                 0 |               7 |                  4442 |                  269 |             590159 |        905000 |             9003 |         9695927 |                     0 |       8775945 | 2017-02-10 17:37:46.976846+01

 2017-02-10 18:10:06.492483+01 | 1486746606.49248 |                 0 |               7 |                  4442 |                  269 |             590159 |        905500 |             9008 |         9695927 |                     0 |       8780534 | 2017-02-10 17:37:46.976846+01

 2017-02-10 18:10:07.549093+01 | 1486746607.54909 |                 0 |               7 |                  4442 |                  269 |             590159 |        906000 |             9013 |         9754563 |                     0 |       8784841 | 2017-02-10 17:37:46.976846+01

 2017-02-10 18:10:08.601803+01 | 1486746608.6018 |                 0 |               7 |                  4442 |                  269 |             590159 |        906500 |             9018 |         9754563 |                     0 |       8789272 | 2017-02-10 17:37:46.976846+01

 2017-02-10 18:10:09.654164+01 | 1486746609.65416 |                 0 |               7 |                  4442 |                  269 |             590159 |        907100 |             9024 |         9754563 |                     0 |       8794626 | 2017-02-10 17:37:46.976846+01

 2017-02-10 18:10:10.71127+01 | 1486746610.71127 |                 0 |               7 |                  4442 |                  269 |             590159 |        907600 |             9029 |         9754563 |                     0 |       8798945 | 2017-02-10 17:37:46.976846+01

 2017-02-10 18:10:11.763629+01 | 1486746611.76363 |                 0 |               7 |                  4442 |                  269 |             590159 |        908100 |             9034 |         9754563 |                     0 |       8803408 | 2017-02-10 17:37:46.976846+01

 2017-02-10 18:10:12.817711+01 | 1486746612.81771 |                 0 |               7 |                  4442 |                  269 |             590159 |        908600 |             9039 |         9754563 |                     0 |       8807790 | 2017-02-10 17:37:46.976846+01

 2017-02-10 18:10:13.872886+01 | 1486746613.87289 |                 0 |               7 |                  4442 |                  269 |             590159 |        909100 |             9044 |         9754563 |                     0 |       8811941 | 2017-02-10 17:37:46.976846+01

 2017-02-10 18:10:14.929237+01 | 1486746614.92924 |                 0 |               7 |                  4442 |                  269 |             590159 |        909700 |             9050 |         9754563 |                     0 |       8817350 | 2017-02-10 17:37:46.976846+01

 2017-02-10 18:10:15.983066+01 | 1486746615.98307 |                 0 |               7 |                  4442 |                  269 |             590159 |        910200 |             9055 |         9754563 |                     0 |       8821582 | 2017-02-10 17:37:46.976846+01

 2017-02-10 18:10:17.035831+01 | 1486746617.03583 |                 0 |               7 |                  4442 |                  269 |             590159 |        910700 |             9060 |         9754563 |                     0 |       8825963 | 2017-02-10 17:37:46.976846+01

 2017-02-10 18:10:18.078409+01 | 1486746618.07841 |                 0 |               7 |                  4442 |                  269 |             590159 |        911200 |             9065 |         9754563 |                     0 |       8830216 | 2017-02-10 17:37:46.976846+01

 2017-02-10 18:10:19.128221+01 | 1486746619.12822 |                 0 |               7 |                  4442 |                  269 |             590159 |        911800 |             9071 |         9754563 |                     0 |       8835396 | 2017-02-10 17:37:46.976846+01

 2017-02-10 18:10:20.181719+01 | 1486746620.18172 |                 0 |               7 |                  4442 |                  269 |             590159 |        912300 |             9076 |         9814099 |                     0 |       8839965 | 2017-02-10 17:37:46.976846+01

 2017-02-10 18:10:21.236168+01 | 1486746621.23617 |                 0 |               7 |                  4442 |                  269 |             590159 |        912800 |             9081 |         9814099 |                     0 |       8844263 | 2017-02-10 17:37:46.976846+01

 2017-02-10 18:10:22.288692+01 | 1486746622.28869 |                 0 |               7 |                  4442 |                  269 |             590159 |        913300 |             9086 |         9814099 |                     0 |       8848561 | 2017-02-10 17:37:46.976846+01

 2017-02-10 18:10:23.340619+01 | 1486746623.34062 |                 0 |               7 |                  4442 |                  269 |             590159 |        913900 |             9092 |         9814099 |                     0 |       8854252 | 2017-02-10 17:37:46.976846+01

 2017-02-10 18:10:24.380108+01 | 1486746624.38011 |                 0 |               7 |                  4442 |                  269 |             590159 |        914300 |             9096 |         9814099 |                     0 |       8857661 | 2017-02-10 17:37:46.976846+01

 2017-02-10 18:10:25.431968+01 | 1486746625.43197 |                 0 |               7 |                  4442 |                  269 |             590159 |        914900 |             9102 |         9814099 |                     0 |       8863295 | 2017-02-10 17:37:46.976846+01

 2017-02-10 18:10:26.483084+01 | 1486746626.48308 |                 0 |               7 |                  4442 |                  269 |             590159 |        915400 |             9107 |         9814099 |                     0 |       8867666 | 2017-02-10 17:37:46.976846+01

 2017-02-10 18:10:27.534715+01 | 1486746627.53471 |                 0 |               7 |                  4442 |                  269 |             590159 |        915900 |             9112 |         9814099 |                     0 |       8872390 | 2017-02-10 17:37:46.976846+01

 2017-02-10 18:10:28.586081+01 | 1486746628.58608 |                 0 |               7 |                  4442 |                  269 |             590159 |        916500 |             9118 |         9814099 |                     0 |       8877895 | 2017-02-10 17:37:46.976846+01

 2017-02-10 18:10:29.638527+01 | 1486746629.63853 |                 0 |               7 |                  4442 |                  269 |             590159 |        917000 |             9123 |         9814099 |                     0 |       8882662 | 2017-02-10 17:37:46.976846+01

 2017-02-10 18:10:30.689321+01 | 1486746630.68932 |                 0 |               7 |                  4442 |                  269 |             590159 |        917500 |             9128 |         9814099 |                     0 |       8887035 | 2017-02-10 17:37:46.976846+01

 2017-02-10 18:10:31.746185+01 | 1486746631.74619 |                 0 |               7 |                  4442 |                  269 |             590159 |        918000 |             9133 |         9814099 |                     0 |       8891670 | 2017-02-10 17:37:46.976846+01

 2017-02-10 18:10:32.797892+01 | 1486746632.79789 |                 0 |               7 |                  4442 |                  269 |             590159 |        918600 |             9139 |         9814099 |                     0 |       8897022 | 2017-02-10 17:37:46.976846+01

 2017-02-10 18:10:33.856123+01 | 1486746633.85612 |                 0 |               7 |                  4442 |                  269 |             590159 |        919100 |             9144 |         9872536 |                     0 |       8901745 | 2017-02-10 17:37:46.976846+01

 2017-02-10 18:10:34.907146+01 | 1486746634.90715 |                 0 |               7 |                  4442 |                  269 |             590159 |        919600 |             9149 |         9872536 |                     0 |       8906172 | 2017-02-10 17:37:46.976846+01

 2017-02-10 18:10:35.957623+01 | 1486746635.95762 |                 0 |               7 |                  4442 |                  269 |             590159 |        920100 |             9154 |         9872536 |                     0 |       8910960 | 2017-02-10 17:37:46.976846+01

 2017-02-10 18:10:37.007882+01 | 1486746637.00788 |                 0 |               7 |                  4442 |                  269 |             590159 |        920600 |             9159 |         9872536 |                     0 |       8915664 | 2017-02-10 17:37:46.976846+01

 2017-02-10 18:10:38.062363+01 | 1486746638.06236 |                 0 |               7 |                  4442 |                  269 |             590159 |        921200 |             9165 |         9872536 |                     0 |       8921031 | 2017-02-10 17:37:46.976846+01

 2017-02-10 18:10:39.131174+01 | 1486746639.13117 |                 0 |               7 |                  4442 |                  269 |             590159 |        921700 |             9170 |         9872536 |                     0 |       8925845 | 2017-02-10 17:37:46.976846+01

 2017-02-10 18:10:40.188344+01 | 1486746640.18834 |                 0 |               7 |                  4442 |                  269 |             590159 |        922200 |             9175 |         9872536 |                     0 |       8930203 | 2017-02-10 17:37:46.976846+01

 2017-02-10 18:10:41.241027+01 | 1486746641.24103 |                 0 |               7 |                  4442 |                  269 |             590159 |        922800 |             9181 |         9872536 |                     0 |       8935909 | 2017-02-10 17:37:46.976846+01

 2017-02-10 18:10:42.292022+01 | 1486746642.29202 |                 0 |               7 |                  4442 |                  269 |             590159 |        923300 |             9186 |         9872536 |                     0 |       8940381 | 2017-02-10 17:37:46.976846+01

 2017-02-10 18:10:43.344243+01 | 1486746643.34424 |                 0 |               7 |                  4442 |                  269 |             590159 |        923800 |             9191 |         9872536 |                     0 |       8944932 | 2017-02-10 17:37:46.976846+01

 2017-02-10 18:10:44.396537+01 | 1486746644.39654 |                 0 |               7 |                  4442 |                  269 |             590159 |        924300 |             9196 |         9872536 |                     0 |       8949373 | 2017-02-10 17:37:46.976846+01

 2017-02-10 18:10:45.447368+01 | 1486746645.44737 |                 0 |               7 |                  4442 |                  269 |             590159 |        924800 |             9201 |         9872536 |                     0 |       8953968 | 2017-02-10 17:37:46.976846+01

 2017-02-10 18:10:46.497465+01 | 1486746646.49746 |                 0 |               7 |                  4442 |                  269 |             590159 |        925400 |             9207 |         9872536 |                     0 |       8959224 | 2017-02-10 17:37:46.976846+01

 2017-02-10 18:10:47.549867+01 | 1486746647.54987 |                 0 |               7 |                  4442 |                  269 |             590159 |        925900 |             9212 |         9872536 |                     0 |       8963919 | 2017-02-10 17:37:46.976846+01

 2017-02-10 18:10:48.605432+01 | 1486746648.60543 |                 0 |               7 |                  4442 |                  269 |             590159 |        926400 |             9217 |         9872536 |                     0 |       8968289 | 2017-02-10 17:37:46.976846+01

 2017-02-10 18:10:49.65958+01 | 1486746649.65958 |                 0 |               7 |                  4442 |                  269 |             590159 |        926900 |             9222 |         9930172 |                     0 |       8973003 | 2017-02-10 17:37:46.976846+01

 2017-02-10 18:10:50.714117+01 | 1486746650.71412 |                 0 |               7 |                  4442 |                  269 |             590159 |        927500 |             9228 |         9930172 |                     0 |       8978500 | 2017-02-10 17:37:46.976846+01

 2017-02-10 18:10:51.766997+01 | 1486746651.767 |                 0 |               7 |                  4442 |                  269 |             590159 |        928000 |             9233 |         9930172 |                     0 |       8983239 | 2017-02-10 17:37:46.976846+01

 2017-02-10 18:10:52.818738+01 | 1486746652.81874 |                 0 |               7 |                  4442 |                  269 |             590159 |        928500 |             9238 |         9930172 |                     0 |       8987981 | 2017-02-10 17:37:46.976846+01

 2017-02-10 18:10:53.873608+01 | 1486746653.87361 |                 0 |               7 |                  4442 |                  269 |             590159 |        929000 |             9243 |         9930172 |                     0 |       8992423 | 2017-02-10 17:37:46.976846+01

 2017-02-10 18:10:54.940576+01 | 1486746654.94058 |                 0 |               7 |                  4442 |                  269 |             590159 |        929600 |             9249 |         9930172 |                     0 |       8998169 | 2017-02-10 17:37:46.976846+01

 2017-02-10 18:10:55.99361+01 | 1486746655.99361 |                 0 |               7 |                  4442 |                  269 |             590159 |        930100 |             9254 |         9930172 |                     0 |       9002649 | 2017-02-10 17:37:46.976846+01

 2017-02-10 18:10:57.044651+01 | 1486746657.04465 |                 0 |               7 |                  4442 |                  269 |             590159 |        930600 |             9259 |         9930172 |                     0 |       9007299 | 2017-02-10 17:37:46.976846+01

 2017-02-10 18:10:58.099048+01 | 1486746658.09905 |                 0 |               7 |                  4442 |                  269 |             590159 |        931100 |             9264 |         9930172 |                     0 |       9011752 | 2017-02-10 17:37:46.976846+01

 2017-02-10 18:10:59.149605+01 | 1486746659.14961 |                 0 |               7 |                  4442 |                  269 |             590159 |        931700 |             9270 |         9930172 |                     0 |       9017422 | 2017-02-10 17:37:46.976846+01

 2017-02-10 18:11:00.20024+01 | 1486746660.20024 |                 0 |               7 |                  4442 |                  269 |             590159 |        932200 |             9275 |         9930172 |                     0 |       9021928 | 2017-02-10 17:37:46.976846+01

 2017-02-10 18:11:01.251475+01 | 1486746661.25148 |                 0 |               7 |                  4442 |                  269 |             590159 |        932700 |             9280 |         9930172 |                     0 |       9026444 | 2017-02-10 17:37:46.976846+01

 2017-02-10 18:11:02.302682+01 | 1486746662.30268 |                 0 |               7 |                  4442 |                  269 |             590159 |        933200 |             9285 |         9930172 |                     0 |       9031090 | 2017-02-10 17:37:46.976846+01

 2017-02-10 18:11:03.353519+01 | 1486746663.35352 |                 0 |               7 |                  4442 |                  269 |             590159 |        933800 |             9291 |         9930172 |                     0 |       9036419 | 2017-02-10 17:37:46.976846+01

 2017-02-10 18:11:04.402943+01 | 1486746664.40294 |                 0 |               7 |                  4442 |                  269 |             590159 |        934300 |             9296 |         9930172 |                     0 |       9041156 | 2017-02-10 17:37:46.976846+01

 2017-02-10 18:11:05.476964+01 | 1486746665.47696 |                 0 |               7 |                  4442 |                  269 |             590159 |        934800 |             9301 |         9987908 |                     0 |       9045952 | 2017-02-10 17:37:46.976846+01

 2017-02-10 18:11:06.534525+01 | 1486746666.53452 |                 0 |               7 |                  4442 |                  269 |             590159 |        935300 |             9306 |         9987908 |                     0 |       9050372 | 2017-02-10 17:37:46.976846+01

 2017-02-10 18:11:07.587309+01 | 1486746667.58731 |                 0 |               7 |                  4442 |                  269 |             590159 |        935900 |             9312 |         9987908 |                     0 |       9056009 | 2017-02-10 17:37:46.976846+01

 2017-02-10 18:11:08.639377+01 | 1486746668.63938 |                 0 |               7 |                  4442 |                  269 |             590159 |        936400 |             9317 |         9987908 |                     0 |       9060533 | 2017-02-10 17:37:46.976846+01

 2017-02-10 18:11:09.691892+01 | 1486746669.69189 |                 0 |               7 |                  4442 |                  269 |             590159 |        936900 |             9322 |         9987908 |                     0 |       9065279 | 2017-02-10 17:37:46.976846+01

 2017-02-10 18:11:10.745509+01 | 1486746670.74551 |                 0 |               7 |                  4442 |                  269 |             590159 |        937400 |             9327 |         9987908 |                     0 |       9069697 | 2017-02-10 17:37:46.976846+01

 2017-02-10 18:11:11.799+01 | 1486746671.799 |                 0 |               7 |                  4442 |                  269 |             590159 |        937900 |             9332 |         9987908 |                     0 |       9074346 | 2017-02-10 17:37:46.976846+01

 2017-02-10 18:11:12.851434+01 | 1486746672.85143 |                 0 |               7 |                  4442 |                  269 |             590159 |        938500 |             9338 |         9987908 |                     0 |       9079731 | 2017-02-10 17:37:46.976846+01

 2017-02-10 18:11:13.907976+01 | 1486746673.90798 |                 0 |               7 |                  4442 |                  269 |             590159 |        939000 |             9343 |         9987908 |                     0 |       9084525 | 2017-02-10 17:37:46.976846+01

 2017-02-10 18:11:14.957233+01 | 1486746674.95723 |                 0 |               7 |                  4442 |                  269 |             590159 |        939500 |             9348 |         9987908 |                     0 |       9088968 | 2017-02-10 17:37:46.976846+01

 2017-02-10 18:11:16.007881+01 | 1486746676.00788 |                 0 |               7 |                  4442 |                  269 |             590159 |        940000 |             9353 |         9987908 |                     0 |       9093748 | 2017-02-10 17:37:46.976846+01

 2017-02-10 18:11:17.067787+01 | 1486746677.06779 |                 0 |               7 |                  4442 |                  269 |             590159 |        940600 |             9359 |         9987908 |                     0 |       9099262 | 2017-02-10 17:37:46.976846+01

 2017-02-10 18:11:18.112337+01 | 1486746678.11234 |                 0 |               7 |                  4442 |                  269 |             590159 |        941100 |             9364 |         9987908 |                     0 |       9103938 | 2017-02-10 17:37:46.976846+01

 2017-02-10 18:11:19.17031+01 | 1486746679.17031 |                 0 |               7 |                  4442 |                  269 |             590159 |        941600 |             9369 |         9987908 |                     0 |       9108332 | 2017-02-10 17:37:46.976846+01

 2017-02-10 18:11:20.222336+01 | 1486746680.22234 |                 0 |               7 |                  4442 |                  269 |             590159 |        942100 |             9374 |         9987908 |                     0 |       9113033 | 2017-02-10 17:37:46.976846+01

 2017-02-10 18:11:21.276373+01 | 1486746681.27637 |                 0 |               7 |                  4442 |                  269 |             590159 |        942700 |             9380 |        10045949 |                     0 |       9118466 | 2017-02-10 17:37:46.976846+01

 2017-02-10 18:11:22.328508+01 | 1486746682.32851 |                 0 |               7 |                  4442 |                  269 |             590159 |        943200 |             9385 |        10045949 |                     0 |       9122743 | 2017-02-10 17:37:46.976846+01

 2017-02-10 18:11:23.383735+01 | 1486746683.38373 |                 0 |               7 |                  4442 |                  269 |             590159 |        943700 |             9390 |        10045949 |                     0 |       9127450 | 2017-02-10 17:37:46.976846+01

 2017-02-10 18:11:24.436807+01 | 1486746684.43681 |                 0 |               7 |                  4442 |                  269 |             590159 |        944200 |             9395 |        10045949 |                     0 |       9131947 | 2017-02-10 17:37:46.976846+01

 2017-02-10 18:11:25.490301+01 | 1486746685.4903 |                 0 |               7 |                  4442 |                  269 |             590159 |        944800 |             9401 |        10045949 |                     0 |       9137641 | 2017-02-10 17:37:46.976846+01

 2017-02-10 18:11:26.529659+01 | 1486746686.52966 |                 0 |               7 |                  4442 |                  269 |             590159 |        945100 |             9404 |        10045949 |                     0 |       9140512 | 2017-02-10 17:37:46.976846+01

 2017-02-10 18:11:27.583615+01 | 1486746687.58362 |                 0 |               7 |                  4442 |                  269 |             590159 |        945800 |             9411 |        10045949 |                     0 |       9146682 | 2017-02-10 17:37:46.976846+01

 2017-02-10 18:11:28.637583+01 | 1486746688.63758 |                 0 |               7 |                  4442 |                  269 |             590159 |        946300 |             9416 |        10045949 |                     0 |       9151112 | 2017-02-10 17:37:46.976846+01

 2017-02-10 18:11:29.693469+01 | 1486746689.69347 |                 0 |               7 |                  4442 |                  269 |             590159 |        946800 |             9421 |        10045949 |                     0 |       9155617 | 2017-02-10 17:37:46.976846+01

 2017-02-10 18:11:30.764558+01 | 1486746690.76456 |                 0 |               7 |                  4442 |                  269 |             590159 |        947400 |             9427 |        10045949 |                     0 |       9160958 | 2017-02-10 17:37:46.976846+01

 2017-02-10 18:11:31.818499+01 | 1486746691.8185 |                 0 |               7 |                  4442 |                  269 |             590159 |        947900 |             9432 |        10045949 |                     0 |       9165654 | 2017-02-10 17:37:46.976846+01

 2017-02-10 18:11:32.86932+01 | 1486746692.86932 |                 0 |               7 |                  4442 |                  269 |             590159 |        948400 |             9437 |        10045949 |                     0 |       9170026 | 2017-02-10 17:37:46.976846+01

 2017-02-10 18:11:33.922509+01 | 1486746693.92251 |                 0 |               7 |                  4442 |                  269 |             590159 |        949000 |             9443 |        10045949 |                     0 |       9175665 | 2017-02-10 17:37:46.976846+01

 2017-02-10 18:11:34.973424+01 | 1486746694.97342 |                 0 |               7 |                  4442 |                  269 |             590159 |        949500 |             9448 |        10104485 |                     0 |       9180230 | 2017-02-10 17:37:46.976846+01

 2017-02-10 18:11:36.025161+01 | 1486746696.02516 |                 0 |               7 |                  4442 |                  269 |             590159 |        950000 |             9453 |        10104485 |                     0 |       9185066 | 2017-02-10 17:37:46.976846+01

 2017-02-10 18:11:37.087922+01 | 1486746697.08792 |                 0 |               7 |                  4442 |                  269 |             590159 |        950500 |             9458 |        10104485 |                     0 |       9189521 | 2017-02-10 17:37:46.976846+01

 2017-02-10 18:11:38.140508+01 | 1486746698.14051 |                 0 |               7 |                  4442 |                  269 |             590159 |        951100 |             9464 |        10104485 |                     0 |       9194791 | 2017-02-10 17:37:46.976846+01

 2017-02-10 18:11:39.193505+01 | 1486746699.19351 |                 0 |               7 |                  4442 |                  269 |             590159 |        951600 |             9469 |        10104485 |                     0 |       9199098 | 2017-02-10 17:37:46.976846+01

 2017-02-10 18:11:40.246521+01 | 1486746700.24652 |                 0 |               7 |                  4442 |                  269 |             590159 |        952100 |             9474 |        10104485 |                     0 |       9203730 | 2017-02-10 17:37:46.976846+01

 2017-02-10 18:11:41.297562+01 | 1486746701.29756 |                 0 |               7 |                  4442 |                  269 |             590159 |        952600 |             9479 |        10104485 |                     0 |       9208219 | 2017-02-10 17:37:46.976846+01

 2017-02-10 18:11:42.351136+01 | 1486746702.35114 |                 0 |               7 |                  4442 |                  269 |             590159 |        953100 |             9484 |        10104485 |                     0 |       9212822 | 2017-02-10 17:37:46.976846+01

 2017-02-10 18:11:43.405689+01 | 1486746703.40569 |                 0 |               7 |                  4442 |                  269 |             590159 |        953700 |             9490 |        10104485 |                     0 |       9218264 | 2017-02-10 17:37:46.976846+01

 2017-02-10 18:11:44.458719+01 | 1486746704.45872 |                 0 |               7 |                  4442 |                  269 |             590159 |        954200 |             9495 |        10104485 |                     0 |       9223018 | 2017-02-10 17:37:46.976846+01

 2017-02-10 18:11:45.531114+01 | 1486746705.53111 |                 0 |               7 |                  4442 |                  269 |             590159 |        954700 |             9500 |        10104485 |                     0 |       9227790 | 2017-02-10 17:37:46.976846+01

 2017-02-10 18:11:46.58415+01 | 1486746706.58415 |                 0 |               7 |                  4442 |                  269 |             590159 |        955300 |             9506 |        10104485 |                     0 |       9233184 | 2017-02-10 17:37:46.976846+01

 2017-02-10 18:11:47.640216+01 | 1486746707.64022 |                 0 |               7 |                  4442 |                  269 |             590159 |        955800 |             9511 |        10104485 |                     0 |       9238065 | 2017-02-10 17:37:46.976846+01

 2017-02-10 18:11:48.692916+01 | 1486746708.69292 |                 0 |               7 |                  4442 |                  269 |             590159 |        956300 |             9516 |        10104485 |                     0 |       9242285 | 2017-02-10 17:37:46.976846+01

 2017-02-10 18:11:49.744194+01 | 1486746709.74419 |                 0 |               7 |                  4442 |                  269 |             590159 |        956800 |             9521 |        10104485 |                     0 |       9247043 | 2017-02-10 17:37:46.976846+01

 2017-02-10 18:11:50.797949+01 | 1486746710.79795 |                 0 |               7 |                  4442 |                  269 |             590159 |        957300 |             9526 |        10162121 |                     0 |       9251556 | 2017-02-10 17:37:46.976846+01

 2017-02-10 18:11:51.851793+01 | 1486746711.85179 |                 0 |               7 |                  4442 |                  269 |             590159 |        957900 |             9532 |        10162121 |                     0 |       9257248 | 2017-02-10 17:37:46.976846+01

 2017-02-10 18:11:52.905964+01 | 1486746712.90596 |                 0 |               7 |                  4442 |                  269 |             590159 |        958400 |             9537 |        10162121 |                     0 |       9261636 | 2017-02-10 17:37:46.976846+01

 2017-02-10 18:11:53.961392+01 | 1486746713.96139 |                 0 |               7 |                  4442 |                  269 |             590159 |        958900 |             9542 |        10162121 |                     0 |       9266314 | 2017-02-10 17:37:46.976846+01

 2017-02-10 18:11:55.016647+01 | 1486746715.01665 |                 0 |               7 |                  4442 |                  269 |             590159 |        959400 |             9547 |        10162121 |                     0 |       9271059 | 2017-02-10 17:37:46.976846+01

 2017-02-10 18:11:56.069866+01 | 1486746716.06987 |                 0 |               7 |                  4442 |                  269 |             590159 |        960000 |             9553 |        10162121 |                     0 |       9276656 | 2017-02-10 17:37:46.976846+01

 2017-02-10 18:11:57.122801+01 | 1486746717.1228 |                 0 |               7 |                  4442 |                  269 |             590159 |        960500 |             9558 |        10162121 |                     0 |       9281021 | 2017-02-10 17:37:46.976846+01

 2017-02-10 18:11:58.172694+01 | 1486746718.17269 |                 0 |               7 |                  4442 |                  269 |             590159 |        961000 |             9563 |        10162121 |                     0 |       9285807 | 2017-02-10 17:37:46.976846+01

 2017-02-10 18:11:59.227908+01 | 1486746719.22791 |                 0 |               7 |                  4442 |                  269 |             590159 |        961500 |             9568 |        10162121 |                     0 |       9290449 | 2017-02-10 17:37:46.976846+01

 2017-02-10 18:12:00.27943+01 | 1486746720.27943 |                 0 |               7 |                  4442 |                  269 |             590159 |        962100 |             9574 |        10162121 |                     0 |       9295576 | 2017-02-10 17:37:46.976846+01

 2017-02-10 18:12:01.331359+01 | 1486746721.33136 |                 0 |               7 |                  4442 |                  269 |             590159 |        962600 |             9579 |        10162121 |                     0 |       9300201 | 2017-02-10 17:37:46.976846+01

 2017-02-10 18:12:02.384979+01 | 1486746722.38498 |                 0 |               7 |                  4442 |                  269 |             590159 |        963100 |             9584 |        10162121 |                     0 |       9304723 | 2017-02-10 17:37:46.976846+01

 2017-02-10 18:12:03.438407+01 | 1486746723.43841 |                 0 |               7 |                  4442 |                  269 |             590159 |        963600 |             9589 |        10162121 |                     0 |       9309490 | 2017-02-10 17:37:46.976846+01

 2017-02-10 18:12:04.492506+01 | 1486746724.49251 |                 0 |               7 |                  4442 |                  269 |             590159 |        964200 |             9595 |        10162121 |                     0 |       9314705 | 2017-02-10 17:37:46.976846+01

 2017-02-10 18:12:05.547579+01 | 1486746725.54758 |                 0 |               7 |                  4442 |                  269 |             590159 |        964700 |             9600 |        10162121 |                     0 |       9319478 | 2017-02-10 17:37:46.976846+01

 2017-02-10 18:12:06.598731+01 | 1486746726.59873 |                 0 |               7 |                  4442 |                  269 |             590159 |        965200 |             9605 |        10219757 |                     0 |       9324047 | 2017-02-10 17:37:46.976846+01

 2017-02-10 18:12:07.649475+01 | 1486746727.64948 |                 0 |               7 |                  4442 |                  269 |             590159 |        965700 |             9610 |        10219757 |                     0 |       9328791 | 2017-02-10 17:37:46.976846+01

 2017-02-10 18:12:08.703247+01 | 1486746728.70325 |                 0 |               7 |                  4442 |                  269 |             590159 |        966200 |             9615 |        10219757 |                     0 |       9333168 | 2017-02-10 17:37:46.976846+01

 2017-02-10 18:12:09.754006+01 | 1486746729.75401 |                 0 |               7 |                  4442 |                  269 |             590159 |        966800 |             9621 |        10219757 |                     0 |       9338759 | 2017-02-10 17:37:46.976846+01

 2017-02-10 18:12:10.806612+01 | 1486746730.80661 |                 0 |               7 |                  4442 |                  269 |             590159 |        967300 |             9626 |        10219757 |                     0 |       9343149 | 2017-02-10 17:37:46.976846+01

 2017-02-10 18:12:11.860846+01 | 1486746731.86085 |                 0 |               7 |                  4442 |                  269 |             590159 |        967800 |             9631 |        10219757 |                     0 |       9347747 | 2017-02-10 17:37:46.976846+01

 2017-02-10 18:12:12.916241+01 | 1486746732.91624 |                 0 |               7 |                  4442 |                  269 |             590159 |        968300 |             9636 |        10219757 |                     0 |       9352329 | 2017-02-10 17:37:46.976846+01

 2017-02-10 18:12:13.972653+01 | 1486746733.97265 |                 0 |               7 |                  4442 |                  269 |             590159 |        968900 |             9642 |        10219757 |                     0 |       9357593 | 2017-02-10 17:37:46.976846+01

 2017-02-10 18:12:15.026201+01 | 1486746735.0262 |                 0 |               7 |                  4442 |                  269 |             590159 |        969400 |             9647 |        10219757 |                     0 |       9362238 | 2017-02-10 17:37:46.976846+01

 2017-02-10 18:12:16.078767+01 | 1486746736.07877 |                 0 |               7 |                  4442 |                  269 |             590159 |        969900 |             9652 |        10219757 |                     0 |       9366492 | 2017-02-10 17:37:46.976846+01

 2017-02-10 18:12:17.13163+01 | 1486746737.13163 |                 0 |               7 |                  4442 |                  269 |             590159 |        970400 |             9657 |        10219757 |                     0 |       9371136 | 2017-02-10 17:37:46.976846+01

 2017-02-10 18:12:18.175477+01 | 1486746738.17548 |                 0 |               7 |                  4442 |                  269 |             590159 |        970900 |             9662 |        10219757 |                     0 |       9375592 | 2017-02-10 17:37:46.976846+01

 2017-02-10 18:12:19.2321+01 | 1486746739.2321 |                 0 |               7 |                  4442 |                  269 |             590159 |        971500 |             9668 |        10219757 |                     0 |       9381092 | 2017-02-10 17:37:46.976846+01

 2017-02-10 18:12:20.284595+01 | 1486746740.2846 |                 0 |               7 |                  4442 |                  269 |             590159 |        972000 |             9673 |        10219757 |                     0 |       9385450 | 2017-02-10 17:37:46.976846+01

 2017-02-10 18:12:21.33788+01 | 1486746741.33788 |                 0 |               7 |                  4442 |                  269 |             590159 |        972500 |             9678 |        10219757 |                     0 |       9389937 | 2017-02-10 17:37:46.976846+01

 2017-02-10 18:12:22.391324+01 | 1486746742.39132 |                 0 |               7 |                  4442 |                  269 |             590159 |        973100 |             9684 |        10277394 |                     0 |       9395295 | 2017-02-10 17:37:46.976846+01

 2017-02-10 18:12:23.445603+01 | 1486746743.4456 |                 0 |               7 |                  4442 |                  269 |             590159 |        973600 |             9689 |        10277394 |                     0 |       9399915 | 2017-02-10 17:37:46.976846+01

 2017-02-10 18:12:24.49454+01 | 1486746744.49454 |                 0 |               7 |                  4442 |                  269 |             590159 |        974100 |             9694 |        10277394 |                     0 |       9404182 | 2017-02-10 17:37:46.976846+01

 2017-02-10 18:12:25.548147+01 | 1486746745.54815 |                 0 |               7 |                  4442 |                  269 |             590159 |        974600 |             9699 |        10277394 |                     0 |       9408809 | 2017-02-10 17:37:46.976846+01

 2017-02-10 18:12:26.599687+01 | 1486746746.59969 |                 0 |               7 |                  4442 |                  269 |             590159 |        975100 |             9704 |        10277394 |                     0 |       9413259 | 2017-02-10 17:37:46.976846+01

 2017-02-10 18:12:27.655871+01 | 1486746747.65587 |                 0 |               7 |                  4442 |                  269 |             590159 |        975700 |             9710 |        10277394 |                     0 |       9419029 | 2017-02-10 17:37:46.976846+01

 2017-02-10 18:12:28.71263+01 | 1486746748.71263 |                 0 |               7 |                  4442 |                  269 |             590159 |        976200 |             9715 |        10277394 |                     0 |       9423368 | 2017-02-10 17:37:46.976846+01

 2017-02-10 18:12:29.766382+01 | 1486746749.76638 |                 0 |               7 |                  4442 |                  269 |             590159 |        976700 |             9720 |        10277394 |                     0 |       9427993 | 2017-02-10 17:37:46.976846+01

 2017-02-10 18:12:30.822194+01 | 1486746750.82219 |                 0 |               7 |                  4442 |                  269 |             590159 |        977200 |             9725 |        10277394 |                     0 |       9432387 | 2017-02-10 17:37:46.976846+01

 2017-02-10 18:12:31.872969+01 | 1486746751.87297 |                 0 |               7 |                  4442 |                  269 |             590159 |        977800 |             9731 |        10277394 |                     0 |       9437969 | 2017-02-10 17:37:46.976846+01

 2017-02-10 18:12:32.924911+01 | 1486746752.92491 |                 0 |               7 |                  4442 |                  269 |             590159 |        978300 |             9736 |        10277394 |                     0 |       9442324 | 2017-02-10 17:37:46.976846+01

 2017-02-10 18:12:33.977515+01 | 1486746753.97751 |                 0 |               7 |                  4442 |                  269 |             590159 |        978800 |             9741 |        10277394 |                     0 |       9447006 | 2017-02-10 17:37:46.976846+01

 2017-02-10 18:12:35.029476+01 | 1486746755.02948 |                 0 |               7 |                  4442 |                  269 |             590159 |        979300 |             9746 |        10277394 |                     0 |       9451735 | 2017-02-10 17:37:46.976846+01

 2017-02-10 18:12:36.080715+01 | 1486746756.08071 |                 0 |               7 |                  4442 |                  269 |             590159 |        979900 |             9752 |        10277394 |                     0 |       9457288 | 2017-02-10 17:37:46.976846+01

 2017-02-10 18:12:37.135116+01 | 1486746757.13512 |                 0 |               7 |                  4442 |                  269 |             590159 |        980400 |             9757 |        10277394 |                     0 |       9461939 | 2017-02-10 17:37:46.976846+01

 2017-02-10 18:12:38.19354+01 | 1486746758.19354 |                 0 |               7 |                  4442 |                  269 |             590159 |        980900 |             9762 |        10335130 |                     0 |       9466415 | 2017-02-10 17:37:46.976846+01

 2017-02-10 18:12:39.24408+01 | 1486746759.24408 |                 0 |               7 |                  4442 |                  269 |             590159 |        981400 |             9767 |        10335130 |                     0 |       9470981 | 2017-02-10 17:37:46.976846+01

 2017-02-10 18:12:40.296493+01 | 1486746760.29649 |                 0 |               7 |                  4442 |                  269 |             590159 |        982000 |             9773 |        10335130 |                     0 |       9476550 | 2017-02-10 17:37:46.976846+01

 2017-02-10 18:12:41.34771+01 | 1486746761.34771 |                 0 |               7 |                  4442 |                  269 |             590159 |        982500 |             9778 |        10335130 |                     0 |       9481039 | 2017-02-10 17:37:46.976846+01

 2017-02-10 18:12:42.400418+01 | 1486746762.40042 |                 0 |               7 |                  4442 |                  269 |             590159 |        983000 |             9783 |        10335130 |                     0 |       9485723 | 2017-02-10 17:37:46.976846+01

 2017-02-10 18:12:43.450803+01 | 1486746763.4508 |                 0 |               7 |                  4442 |                  269 |             590159 |        983500 |             9788 |        10335130 |                     0 |       9490172 | 2017-02-10 17:37:46.976846+01

 2017-02-10 18:12:44.503427+01 | 1486746764.50343 |                 0 |               7 |                  4442 |                  269 |             590159 |        984100 |             9794 |        10335130 |                     0 |       9495892 | 2017-02-10 17:37:46.976846+01

 2017-02-10 18:12:45.555689+01 | 1486746765.55569 |                 0 |               7 |                  4442 |                  269 |             590159 |        984600 |             9799 |        10335130 |                     0 |       9500416 | 2017-02-10 17:37:46.976846+01

 2017-02-10 18:12:46.606978+01 | 1486746766.60698 |                 0 |               7 |                  4442 |                  269 |             590159 |        985100 |             9804 |        10335130 |                     0 |       9504956 | 2017-02-10 17:37:46.976846+01

 2017-02-10 18:12:47.658452+01 | 1486746767.65845 |                 0 |               7 |                  4442 |                  269 |             590159 |        985600 |             9809 |        10335130 |                     0 |       9509700 | 2017-02-10 17:37:46.976846+01

 2017-02-10 18:12:48.709341+01 | 1486746768.70934 |                 0 |               7 |                  4442 |                  269 |             590159 |        986100 |             9814 |        10335130 |                     0 |       9514295 | 2017-02-10 17:37:46.976846+01

 2017-02-10 18:12:49.760737+01 | 1486746769.76074 |                 0 |               7 |                  4442 |                  269 |             590159 |        986700 |             9820 |        10335130 |                     0 |       9519998 | 2017-02-10 17:37:46.976846+01

 2017-02-10 18:12:50.817566+01 | 1486746770.81757 |                 0 |               7 |                  4442 |                  269 |             590159 |        987200 |             9825 |        10335130 |                     0 |       9524542 | 2017-02-10 17:37:46.976846+01

 2017-02-10 18:12:51.871798+01 | 1486746771.8718 |                 0 |               7 |                  4442 |                  269 |             590159 |        987700 |             9830 |        10335130 |                     0 |       9529144 | 2017-02-10 17:37:46.976846+01

 2017-02-10 18:12:52.925189+01 | 1486746772.92519 |                 0 |               7 |                  4442 |                  269 |             590159 |        988200 |             9835 |        10335130 |                     0 |       9533535 | 2017-02-10 17:37:46.976846+01

 2017-02-10 18:12:53.979717+01 | 1486746773.97972 |                 0 |               7 |                  4442 |                  269 |             590159 |        988800 |             9841 |        10392766 |                     0 |       9539262 | 2017-02-10 17:37:46.976846+01

 2017-02-10 18:12:55.03093+01 | 1486746775.03093 |                 0 |               7 |                  4442 |                  269 |             590159 |        989300 |             9846 |        10392766 |                     0 |       9543772 | 2017-02-10 17:37:46.976846+01

 2017-02-10 18:12:56.082128+01 | 1486746776.08213 |                 0 |               7 |                  4442 |                  269 |             590159 |        989800 |             9851 |        10392766 |                     0 |       9548573 | 2017-02-10 17:37:46.976846+01

 2017-02-10 18:12:57.134978+01 | 1486746777.13498 |                 0 |               7 |                  4442 |                  269 |             590159 |        990300 |             9856 |        10392766 |                     0 |       9553014 | 2017-02-10 17:37:46.976846+01

 2017-02-10 18:12:58.18726+01 | 1486746778.18726 |                 0 |               7 |                  4442 |                  269 |             590159 |        990900 |             9862 |        10392766 |                     0 |       9558772 | 2017-02-10 17:37:46.976846+01

 2017-02-10 18:12:59.244233+01 | 1486746779.24423 |                 0 |               7 |                  4442 |                  269 |             590159 |        991400 |             9867 |        10392766 |                     0 |       9563186 | 2017-02-10 17:37:46.976846+01

 2017-02-10 18:13:00.298299+01 | 1486746780.2983 |                 0 |               7 |                  4442 |                  269 |             590159 |        991900 |             9872 |        10392766 |                     0 |       9567918 | 2017-02-10 17:37:46.976846+01

 2017-02-10 18:13:01.349647+01 | 1486746781.34965 |                 0 |               7 |                  4442 |                  269 |             590159 |        992400 |             9877 |        10392766 |                     0 |       9572627 | 2017-02-10 17:37:46.976846+01

 2017-02-10 18:13:02.407207+01 | 1486746782.40721 |                 0 |               7 |                  4442 |                  269 |             590159 |        993000 |             9883 |        10392766 |                     0 |       9577909 | 2017-02-10 17:37:46.976846+01

 2017-02-10 18:13:03.460856+01 | 1486746783.46086 |                 0 |               7 |                  4442 |                  269 |             590159 |        993500 |             9888 |        10392766 |                     0 |       9582805 | 2017-02-10 17:37:46.976846+01

 2017-02-10 18:13:04.513197+01 | 1486746784.5132 |                 0 |               7 |                  4442 |                  269 |             590159 |        994000 |             9893 |        10392766 |                     0 |       9587376 | 2017-02-10 17:37:46.976846+01

 2017-02-10 18:13:05.566978+01 | 1486746785.56698 |                 0 |               7 |                  4442 |                  269 |             590159 |        994500 |             9898 |        10392766 |                     0 |       9592017 | 2017-02-10 17:37:46.976846+01

 2017-02-10 18:13:06.619719+01 | 1486746786.61972 |                 0 |               7 |                  4442 |                  269 |             590159 |        995100 |             9904 |        10392766 |                     0 |       9597457 | 2017-02-10 17:37:46.976846+01

 2017-02-10 18:13:07.675618+01 | 1486746787.67562 |                 0 |               7 |                  4442 |                  269 |             590159 |        995600 |             9909 |        10392766 |                     0 |       9602252 | 2017-02-10 17:37:46.976846+01

 2017-02-10 18:13:08.727069+01 | 1486746788.72707 |                 0 |               7 |                  4442 |                  269 |             590159 |        996100 |             9914 |        10392766 |                     0 |       9606726 | 2017-02-10 17:37:46.976846+01

 2017-02-10 18:13:09.777718+01 | 1486746789.77772 |                 0 |               7 |                  4442 |                  269 |             590159 |        996600 |             9919 |        10450502 |                     0 |       9611481 | 2017-02-10 17:37:46.976846+01

 2017-02-10 18:13:10.832939+01 | 1486746790.83294 |                 0 |               7 |                  4442 |                  269 |             590159 |        997100 |             9924 |        10450502 |                     0 |       9615852 | 2017-02-10 17:37:46.976846+01

 2017-02-10 18:13:11.886526+01 | 1486746791.88653 |                 0 |               7 |                  4442 |                  269 |             590159 |        997700 |             9930 |        10450502 |                     0 |       9621587 | 2017-02-10 17:37:46.976846+01

 2017-02-10 18:13:12.938072+01 | 1486746792.93807 |                 0 |               7 |                  4442 |                  269 |             590159 |        998200 |             9935 |        10450502 |                     0 |       9626017 | 2017-02-10 17:37:46.976846+01

 2017-02-10 18:13:13.9917+01 | 1486746793.9917 |                 0 |               7 |                  4442 |                  269 |             590159 |        998700 |             9940 |        10450502 |                     0 |       9630732 | 2017-02-10 17:37:46.976846+01

 2017-02-10 18:13:15.043413+01 | 1486746795.04341 |                 0 |               7 |                  4442 |                  269 |             590159 |        999200 |             9945 |        10450502 |                     0 |       9635243 | 2017-02-10 17:37:46.976846+01

 2017-02-10 18:13:16.093962+01 | 1486746796.09396 |                 0 |               7 |                  4442 |                  269 |             590159 |        999800 |             9951 |        10450502 |                     0 |       9640949 | 2017-02-10 17:37:46.976846+01

 2017-02-10 18:13:17.144222+01 | 1486746797.14422 |                 0 |               7 |                  4442 |                  269 |             590159 |       1000300 |             9956 |        10450502 |                     0 |       9645435 | 2017-02-10 17:37:46.976846+01

 2017-02-10 18:13:18.187635+01 | 1486746798.18763 |                 0 |               7 |                  4442 |                  269 |             590159 |       1000800 |             9961 |        10450502 |                     0 |       9650059 | 2017-02-10 17:37:46.976846+01

 2017-02-10 18:13:19.263804+01 | 1486746799.2638 |                 0 |               7 |                  4442 |                  269 |             590159 |       1001300 |             9966 |        10450502 |                     0 |       9654915 | 2017-02-10 17:37:46.976846+01

 2017-02-10 18:13:20.315323+01 | 1486746800.31532 |                 0 |               7 |                  4442 |                  269 |             590159 |       1001900 |             9972 |        10450502 |                     0 |       9660279 | 2017-02-10 17:37:46.976846+01

 2017-02-10 18:13:21.368212+01 | 1486746801.36821 |                 0 |               7 |                  4442 |                  269 |             590159 |       1002400 |             9977 |        10450502 |                     0 |       9664855 | 2017-02-10 17:37:46.976846+01

 2017-02-10 18:13:22.42385+01 | 1486746802.42385 |                 0 |               7 |                  4442 |                  269 |             590159 |       1002900 |             9982 |        10450502 |                     0 |       9669381 | 2017-02-10 17:37:46.976846+01

 2017-02-10 18:13:23.478832+01 | 1486746803.47883 |                 0 |               7 |                  4442 |                  269 |             590159 |       1003400 |             9987 |        10450502 |                     0 |       9673853 | 2017-02-10 17:37:46.976846+01

 2017-02-10 18:13:24.530126+01 | 1486746804.53013 |                 0 |               7 |                  4442 |                  269 |             590159 |       1004000 |             9993 |        10508538 |                     0 |       9679225 | 2017-02-10 17:37:46.976846+01

 2017-02-10 18:13:25.58292+01 | 1486746805.58292 |                 0 |               7 |                  4442 |                  269 |             590159 |       1004500 |             9998 |        10508538 |                     0 |       9683740 | 2017-02-10 17:37:46.976846+01

 2017-02-10 18:13:26.636899+01 | 1486746806.6369 |                 0 |               7 |                  4442 |                  269 |             590159 |       1005000 |            10003 |        10508538 |                     0 |       9688512 | 2017-02-10 17:37:46.976846+01

 2017-02-10 18:13:27.689333+01 | 1486746807.68933 |                 0 |               7 |                  4442 |                  269 |             590159 |       1005500 |            10008 |        10508538 |                     0 |       9692982 | 2017-02-10 17:37:46.976846+01

 2017-02-10 18:13:28.742336+01 | 1486746808.74234 |                 0 |               7 |                  4442 |                  269 |             590159 |       1006100 |            10014 |        10508538 |                     0 |       9698651 | 2017-02-10 17:37:46.976846+01

 2017-02-10 18:13:29.795759+01 | 1486746809.79576 |                 0 |               7 |                  4442 |                  269 |             590159 |       1006600 |            10019 |        10508538 |                     0 |       9703226 | 2017-02-10 17:37:46.976846+01

 2017-02-10 18:13:30.84712+01 | 1486746810.84712 |                 0 |               7 |                  4442 |                  269 |             590159 |       1007100 |            10024 |        10508538 |                     0 |       9707948 | 2017-02-10 17:37:46.976846+01

 2017-02-10 18:13:31.902139+01 | 1486746811.90214 |                 0 |               7 |                  4442 |                  269 |             590159 |       1007600 |            10029 |        10508538 |                     0 |       9712666 | 2017-02-10 17:37:46.976846+01

 2017-02-10 18:13:32.95636+01 | 1486746812.95636 |                 0 |               7 |                  4442 |                  269 |             590159 |       1008100 |            10034 |        10508538 |                     0 |       9717221 | 2017-02-10 17:37:46.976846+01

 2017-02-10 18:13:34.010468+01 | 1486746814.01047 |                 0 |               7 |                  4442 |                  269 |             590159 |       1008700 |            10040 |        10508538 |                     0 |       9723011 | 2017-02-10 17:37:46.976846+01

 2017-02-10 18:13:35.064318+01 | 1486746815.06432 |                 0 |               7 |                  4442 |                  269 |             590159 |       1009200 |            10045 |        10508538 |                     0 |       9727327 | 2017-02-10 17:37:46.976846+01

 2017-02-10 18:13:36.123362+01 | 1486746816.12336 |                 0 |               7 |                  4442 |                  269 |             590159 |       1009700 |            10050 |        10508538 |                     0 |       9731960 | 2017-02-10 17:37:46.976846+01

 2017-02-10 18:13:37.176369+01 | 1486746817.17637 |                 0 |               7 |                  4442 |                  269 |             590159 |       1010200 |            10055 |        10508538 |                     0 |       9736397 | 2017-02-10 17:37:46.976846+01

 2017-02-10 18:13:38.229223+01 | 1486746818.22922 |                 0 |               7 |                  4442 |                  269 |             590159 |       1010800 |            10061 |        10508538 |                     0 |       9742111 | 2017-02-10 17:37:46.976846+01

 2017-02-10 18:13:39.28019+01 | 1486746819.28019 |                 0 |               7 |                  4442 |                  269 |             590159 |       1011300 |            10066 |        10508538 |                     0 |       9746621 | 2017-02-10 17:37:46.976846+01

 2017-02-10 18:13:40.332928+01 | 1486746820.33293 |                 0 |               7 |                  4442 |                  269 |             590159 |       1011800 |            10071 |        10566174 |                     0 |       9751332 | 2017-02-10 17:37:46.976846+01

 2017-02-10 18:13:41.387069+01 | 1486746821.38707 |                 0 |               7 |                  4442 |                  269 |             590159 |       1012300 |            10076 |        10566174 |                     0 |       9755920 | 2017-02-10 17:37:46.976846+01

 2017-02-10 18:13:42.437825+01 | 1486746822.43782 |                 0 |               7 |                  4442 |                  269 |             590159 |       1012900 |            10082 |        10566174 |                     0 |       9761679 | 2017-02-10 17:37:46.976846+01

 2017-02-10 18:13:43.490135+01 | 1486746823.49013 |                 0 |               7 |                  4442 |                  269 |             590159 |       1013400 |            10087 |        10566174 |                     0 |       9766189 | 2017-02-10 17:37:46.976846+01

