 2017-02-10 18:23:47.811134+01 | 1486747427.81113 | 7/5E8D3A28               |           31651084840

 2017-02-10 18:23:48.856127+01 | 1486747428.85613 | 7/640233D0               |           31742637008

 2017-02-10 18:23:49.909084+01 | 1486747429.90908 | 7/693EEB60               |           31830502240

 2017-02-10 18:23:50.96079+01 | 1486747430.96079 | 7/6E23AB90               |           31912602512

 2017-02-10 18:23:52.014518+01 | 1486747432.01452 | 7/72EBE120               |           31992832288

 2017-02-10 18:23:53.069191+01 | 1486747433.06919 | 7/775B8828               |           32067258408

 2017-02-10 18:23:54.122143+01 | 1486747434.12214 | 7/7B9485B0               |           32138102192

 2017-02-10 18:23:55.176587+01 | 1486747435.17659 | 7/7F5B1798               |           32201447320

 2017-02-10 18:23:56.229659+01 | 1486747436.22966 | 7/831E7018               |           32264581144

 2017-02-10 18:23:57.280205+01 | 1486747437.28021 | 7/86878160               |           32321798496

 2017-02-10 18:23:58.330761+01 | 1486747438.33076 | 7/89E8BD90               |           32378502544

 2017-02-10 18:23:59.381532+01 | 1486747439.38153 | 7/8D0C31C0               |           32431157696

 2017-02-10 18:24:00.43458+01 | 1486747440.43458 | 7/8FF62AF0               |           32480045808

 2017-02-10 18:24:01.487695+01 | 1486747441.48769 | 7/9296E4F0               |           32524133616

 2017-02-10 18:24:02.538384+01 | 1486747442.53838 | 7/95349500               |           32568022272

 2017-02-10 18:24:03.588667+01 | 1486747443.58867 | 7/97A28E90               |           32608784016

 2017-02-10 18:24:04.638938+01 | 1486747444.63894 | 7/99F47A30               |           32647707184

 2017-02-10 18:24:05.689975+01 | 1486747445.68998 | 7/9C374278               |           32685638264

 2017-02-10 18:24:06.740236+01 | 1486747446.74024 | 7/9E49B210               |           32720400912

 2017-02-10 18:24:07.793779+01 | 1486747447.79378 | 7/A05A66A0               |           32755050144

 2017-02-10 18:24:08.844125+01 | 1486747448.84413 | 7/A2406B80               |           32786901888

 2017-02-10 18:24:09.896489+01 | 1486747449.89649 | 7/A42DE188               |           32819241352

 2017-02-10 18:24:10.950104+01 | 1486747450.9501 | 7/A5F7F820               |           32849262624

 2017-02-10 18:24:12.002226+01 | 1486747452.00223 | 7/A7B06DA8               |           32878128552

 2017-02-10 18:24:13.056577+01 | 1486747453.05658 | 7/A955CD90               |           32905743760

 2017-02-10 18:24:14.109116+01 | 1486747454.10912 | 7/AAE4B9A0               |           32931887520

 2017-02-10 18:24:15.161132+01 | 1486747455.16113 | 7/AC678A70               |           32957237872

 2017-02-10 18:24:16.215221+01 | 1486747456.21522 | 7/ADDB0860               |           32981583968

 2017-02-10 18:24:17.26533+01 | 1486747457.26533 | 7/AF4BB8A8               |           33005746344

 2017-02-10 18:24:18.319681+01 | 1486747458.31968 | 7/B09C75B8               |           33027814840

 2017-02-10 18:24:19.371061+01 | 1486747459.37106 | 7/B1E1FF10               |           33049149200

 2017-02-10 18:24:20.424906+01 | 1486747460.42491 | 7/B319C0D8               |           33069580504

 2017-02-10 18:24:21.477842+01 | 1486747461.47784 | 7/B468FCB0               |           33091550384

 2017-02-10 18:24:22.531844+01 | 1486747462.53184 | 7/B5A94D28               |           33112542504

 2017-02-10 18:24:23.585372+01 | 1486747463.58537 | 7/B6E3CAF8               |           33133153016

 2017-02-10 18:24:24.636774+01 | 1486747464.63677 | 7/B80003A0               |           33151779744

 2017-02-10 18:24:25.69062+01 | 1486747465.69062 | 7/B921EB88               |           33170779016

 2017-02-10 18:24:26.74219+01 | 1486747466.74219 | 7/BA357B00               |           33188838144

 2017-02-10 18:24:27.793047+01 | 1486747467.79305 | 7/BB538A88               |           33207585416

 2017-02-10 18:24:28.849312+01 | 1486747468.84931 | 7/BC5A62F8               |           33224811256

 2017-02-10 18:24:29.903435+01 | 1486747469.90343 | 7/BD6489B0               |           33242253744

 2017-02-10 18:24:30.956391+01 | 1486747470.95639 | 7/BE5BF278               |           33258467960

 2017-02-10 18:24:32.008235+01 | 1486747472.00823 | 7/BF6167F0               |           33275602928

 2017-02-10 18:24:33.08321+01 | 1486747473.08321 | 7/C05FD418               |           33292276760

 2017-02-10 18:24:34.134753+01 | 1486747474.13475 | 7/C14B4048               |           33307705416

 2017-02-10 18:24:35.186372+01 | 1486747475.18637 | 7/C243EA00               |           33324001792

 2017-02-10 18:24:36.238102+01 | 1486747476.2381 | 7/C32EC8A0               |           33339394208

 2017-02-10 18:24:37.288414+01 | 1486747477.28841 | 7/C42DD9F8               |           33356110328

 2017-02-10 18:24:38.338985+01 | 1486747478.33898 | 7/C52C6A58               |           33372793432

 2017-02-10 18:24:39.389811+01 | 1486747479.38981 | 7/C5FDD928               |           33386518824

 2017-02-10 18:24:40.441421+01 | 1486747480.44142 | 7/C6C051B0               |           33399263664

 2017-02-10 18:24:41.497969+01 | 1486747481.49797 | 7/C797FC30               |           33413397552

 2017-02-10 18:24:42.551689+01 | 1486747482.55169 | 7/CA388158               |           33457471832

 2017-02-10 18:24:43.606416+01 | 1486747483.60642 | 7/CC5C6D58               |           33493380440

 2017-02-10 18:24:44.659173+01 | 1486747484.65917 | 7/CE4AA150               |           33525768528

 2017-02-10 18:24:45.715254+01 | 1486747485.71525 | 7/D01A4170               |           33556152688

 2017-02-10 18:24:46.766686+01 | 1486747486.76669 | 7/D1DC4298               |           33585644184

 2017-02-10 18:24:47.820432+01 | 1486747487.82043 | 7/D3942F88               |           33614475144

 2017-02-10 18:24:48.87469+01 | 1486747488.87469 | 7/D516B5C0               |           33639806400

 2017-02-10 18:24:49.927309+01 | 1486747489.92731 | 7/D68181B0               |           33663582640

 2017-02-10 18:24:50.979533+01 | 1486747490.97953 | 7/D7E89A70               |           33687116400

 2017-02-10 18:24:52.031744+01 | 1486747492.03174 | 7/D9325A90               |           33708726928

 2017-02-10 18:24:53.084635+01 | 1486747493.08464 | 7/DA622B00               |           33728637696

 2017-02-10 18:24:54.137146+01 | 1486747494.13715 | 7/DB5D1168               |           33745080680

 2017-02-10 18:24:55.197673+01 | 1486747495.19767 | 7/DC0FE830               |           33756801072

 2017-02-10 18:24:56.25387+01 | 1486747496.25387 | 7/DCC682F0               |           33768768240

 2017-02-10 18:24:57.305184+01 | 1486747497.30518 | 7/DD9A2D80               |           33782640000

 2017-02-10 18:24:58.356931+01 | 1486747498.35693 | 7/DE7455C8               |           33796937160

 2017-02-10 18:24:59.413198+01 | 1486747499.4132 | 7/DF4B8B48               |           33811041096

 2017-02-10 18:25:00.463192+01 | 1486747500.46319 | 7/E01DCE30               |           33824820784

 2017-02-10 18:25:01.518948+01 | 1486747501.51895 | 7/E0E231C8               |           33837691336

 2017-02-10 18:25:02.571399+01 | 1486747502.5714 | 7/E19CD440               |           33849922624

 2017-02-10 18:25:03.625747+01 | 1486747503.62575 | 7/E23F1BE8               |           33860557800

 2017-02-10 18:25:04.679165+01 | 1486747504.67916 | 7/E2E1CD98               |           33871220120

 2017-02-10 18:25:05.732112+01 | 1486747505.73211 | 7/E3C6E430               |           33886233648

 2017-02-10 18:25:06.790789+01 | 1486747506.79079 | 7/E463A2D8               |           33896506072

 2017-02-10 18:25:07.842423+01 | 1486747507.84242 | 7/E4F45660               |           33905989216

 2017-02-10 18:25:08.89492+01 | 1486747508.89492 | 7/E5873F40               |           33915617088

 2017-02-10 18:25:09.976749+01 | 1486747509.97675 | 7/E6199DD8               |           33925209560

 2017-02-10 18:25:11.03157+01 | 1486747511.03157 | 7/E6A00E00               |           33934020096

 2017-02-10 18:25:12.083966+01 | 1486747512.08397 | 7/E72D43A0               |           33943274400

 2017-02-10 18:25:13.134994+01 | 1486747513.13499 | 7/E7B73710               |           33952315152

 2017-02-10 18:25:14.187422+01 | 1486747514.18742 | 7/E8428518               |           33961444632

 2017-02-10 18:25:15.238059+01 | 1486747515.23806 | 7/E8CCEA68               |           33970514536

 2017-02-10 18:25:16.29129+01 | 1486747516.29129 | 7/E952EED8               |           33979297496

 2017-02-10 18:25:17.342157+01 | 1486747517.34216 | 7/E9D8A118               |           33988059416

 2017-02-10 18:25:18.398725+01 | 1486747518.39873 | 7/EA67C2D0               |           33997439696

 2017-02-10 18:25:19.443196+01 | 1486747519.4432 | 7/EAE88FC0               |           34005880768

 2017-02-10 18:25:20.503007+01 | 1486747520.50301 | 7/EB760D20               |           34015153440

 2017-02-10 18:25:21.557053+01 | 1486747521.55705 | 7/EBFA3B18               |           34023815960

 2017-02-10 18:25:22.610464+01 | 1486747522.61046 | 7/EC77A678               |           34032035448

 2017-02-10 18:25:23.665323+01 | 1486747523.66532 | 7/ECFDAD18               |           34040818968

 2017-02-10 18:25:24.721804+01 | 1486747524.7218 | 7/ED8A7F80               |           34050047872

 2017-02-10 18:25:25.775688+01 | 1486747525.77569 | 7/EE16C330               |           34059240240

 2017-02-10 18:25:26.829623+01 | 1486747526.82962 | 7/EEB1C858               |           34069399640

 2017-02-10 18:25:27.879673+01 | 1486747527.87967 | 7/EF4A54C8               |           34079397064

 2017-02-10 18:25:28.937123+01 | 1486747528.93712 | 7/EFE8E420               |           34089788448

 2017-02-10 18:25:29.989386+01 | 1486747529.98939 | 7/F085E8F0               |           34100078832

 2017-02-10 18:25:31.039594+01 | 1486747531.03959 | 7/F1298798               |           34110801816

 2017-02-10 18:25:32.091113+01 | 1486747532.09111 | 7/F1CF7710               |           34121676560

 2017-02-10 18:25:33.141976+01 | 1486747533.14198 | 7/F273EFA0               |           34132455328

 2017-02-10 18:25:34.196299+01 | 1486747534.1963 | 7/F32AC5D0               |           34144437712

 2017-02-10 18:25:35.247605+01 | 1486747535.24761 | 7/F3E00930               |           34156316976

 2017-02-10 18:25:36.30033+01 | 1486747536.30033 | 7/F49B6D70               |           34168597872

 2017-02-10 18:25:37.351387+01 | 1486747537.35139 | 7/F558D0A0               |           34181009568

 2017-02-10 18:25:38.4036+01 | 1486747538.4036 | 7/F6264C30               |           34194476080

 2017-02-10 18:25:39.456456+01 | 1486747539.45646 | 7/F6F7BDE8               |           34208202216

 2017-02-10 18:25:40.508662+01 | 1486747540.50866 | 7/F7D1CA80               |           34222492288

 2017-02-10 18:25:41.560444+01 | 1486747541.56044 | 7/F8735360               |           34233078624

 2017-02-10 18:25:42.611126+01 | 1486747542.61113 | 7/F8DD9150               |           34240041296

 2017-02-10 18:25:43.664169+01 | 1486747543.66417 | 7/F94794A8               |           34246988968

 2017-02-10 18:25:44.715498+01 | 1486747544.7155 | 7/F9A97E80               |           34253405824

 2017-02-10 18:25:45.767065+01 | 1486747545.76707 | 7/FA0EEFF8               |           34260054008

 2017-02-10 18:25:46.819475+01 | 1486747546.81947 | 7/FA71E0C0               |           34266538176

 2017-02-10 18:25:47.870896+01 | 1486747547.8709 | 7/FAD53BD0               |           34273049552

 2017-02-10 18:25:48.921734+01 | 1486747548.92173 | 7/FB3134E8               |           34279077096

 2017-02-10 18:25:49.973364+01 | 1486747549.97336 | 7/FB9937B0               |           34285893552

 2017-02-10 18:25:51.025289+01 | 1486747551.02529 | 7/FBF7BE98               |           34292088472

 2017-02-10 18:25:52.077699+01 | 1486747552.0777 | 7/FC5B4400               |           34298610688

 2017-02-10 18:25:53.129438+01 | 1486747553.12944 | 7/FCB81970               |           34304694640

 2017-02-10 18:25:54.18637+01 | 1486747554.18637 | 7/FD1EBF48               |           34311421768

 2017-02-10 18:25:55.237943+01 | 1486747555.23794 | 7/FD7ADDA0               |           34317458848

 2017-02-10 18:25:56.289178+01 | 1486747556.28918 | 7/FDDD6AD8               |           34323917528

 2017-02-10 18:25:57.339871+01 | 1486747557.33987 | 7/FE3EFE60               |           34330312288

 2017-02-10 18:25:58.392076+01 | 1486747558.39208 | 7/FE9FFBA0               |           34336668576

 2017-02-10 18:25:59.443572+01 | 1486747559.44357 | 7/FEFDC430               |           34342814768

 2017-02-10 18:26:00.493485+01 | 1486747560.49348 | 7/FF5EA250               |           34349163088

 2017-02-10 18:26:01.544997+01 | 1486747561.545 | 7/FFBE4910               |           34355431696

 2017-02-10 18:26:02.597558+01 | 1486747562.59756 | 8/1D08E8                 |           34361641192

 2017-02-10 18:26:03.64892+01 | 1486747563.64892 | 8/7C5840                 |           34367887424

 2017-02-10 18:26:04.699994+01 | 1486747564.69999 | 8/E1E428                 |           34374542376

 2017-02-10 18:26:05.751295+01 | 1486747565.7513 | 8/13DC6D0                |           34380564176

 2017-02-10 18:26:06.802775+01 | 1486747566.80277 | 8/19C0988                |           34386741640

 2017-02-10 18:26:07.858041+01 | 1486747567.85804 | 8/1F7B1A8                |           34392748456

 2017-02-10 18:26:08.910987+01 | 1486747568.91099 | 8/2595D58                |           34399149400

 2017-02-10 18:26:09.961537+01 | 1486747569.96154 | 8/2BA0C48                |           34405485640

 2017-02-10 18:26:11.013688+01 | 1486747571.01369 | 8/3160E18                |           34411515416

 2017-02-10 18:26:12.063818+01 | 1486747572.06382 | 8/3782648                |           34417944136

 2017-02-10 18:26:13.116413+01 | 1486747573.11641 | 8/3D30448                |           34423899208

 2017-02-10 18:26:14.168197+01 | 1486747574.1682 | 8/431B8E8                |           34430105832

 2017-02-10 18:26:15.221315+01 | 1486747575.22131 | 8/48CF530                |           34436085040

 2017-02-10 18:26:16.277029+01 | 1486747576.27703 | 8/4F17710                |           34442671888

 2017-02-10 18:26:17.326136+01 | 1486747577.32614 | 8/54BBDE0                |           34448588256

 2017-02-10 18:26:18.37771+01 | 1486747578.37771 | 8/5A52350                |           34454446928

 2017-02-10 18:26:19.436568+01 | 1486747579.43657 | 8/5FCA878                |           34460182648

 2017-02-10 18:26:20.488503+01 | 1486747580.4885 | 8/6525FC0                |           34465800128

 2017-02-10 18:26:21.541929+01 | 1486747581.54193 | 8/6AD1690                |           34471745168

 2017-02-10 18:26:22.59874+01 | 1486747582.59874 | 8/7041E48                |           34477448776

 2017-02-10 18:26:23.65358+01 | 1486747583.65358 | 8/760A380                |           34483512192

 2017-02-10 18:26:24.707941+01 | 1486747584.70794 | 8/7C14098                |           34489843864

 2017-02-10 18:26:25.759331+01 | 1486747585.75933 | 8/8183E90                |           34495544976

 2017-02-10 18:26:26.811439+01 | 1486747586.81144 | 8/878EBB8                |           34501880760

 2017-02-10 18:26:27.851709+01 | 1486747587.85171 | 8/8CC6160                |           34507350368

 2017-02-10 18:26:28.904154+01 | 1486747588.90415 | 8/92601D0                |           34513224144

 2017-02-10 18:26:29.95624+01 | 1486747589.95624 | 8/97AD4A0                |           34518783136

 2017-02-10 18:26:31.008588+01 | 1486747591.00859 | 8/9D69608                |           34524796424

 2017-02-10 18:26:32.062957+01 | 1486747592.06296 | 8/A2E38E8                |           34530539752

 2017-02-10 18:26:33.116966+01 | 1486747593.11697 | 8/A8CEB58                |           34536745816

 2017-02-10 18:26:34.172735+01 | 1486747594.17273 | 8/AE47770                |           34542483312

 2017-02-10 18:26:35.225663+01 | 1486747595.22566 | 8/B41C850                |           34548598864

 2017-02-10 18:26:36.285105+01 | 1486747596.2851 | 8/B975230                |           34554204720

 2017-02-10 18:26:37.336643+01 | 1486747597.33664 | 8/BEB8AC0                |           34559724224

 2017-02-10 18:26:38.388875+01 | 1486747598.38888 | 8/C39A8B0                |           34564843696

 2017-02-10 18:26:39.442132+01 | 1486747599.44213 | 8/C9552B0                |           34570850992

 2017-02-10 18:26:40.499045+01 | 1486747600.49904 | 8/CEC9FB0                |           34576572336

 2017-02-10 18:26:41.552996+01 | 1486747601.553 | 8/D435EB0                |           34582257328

 2017-02-10 18:26:42.604538+01 | 1486747602.60454 | 8/D99CD60                |           34587921760

 2017-02-10 18:26:43.654995+01 | 1486747603.65499 | 8/DEE6C38                |           34593467448

 2017-02-10 18:26:44.704666+01 | 1486747604.70467 | 8/E3EF450                |           34598745168

 2017-02-10 18:26:45.758125+01 | 1486747605.75813 | 8/E94B410                |           34604364816

 2017-02-10 18:26:46.810957+01 | 1486747606.81096 | 8/EEE8878                |           34610251896

 2017-02-10 18:26:47.865502+01 | 1486747607.8655 | 8/F475CC8                |           34616073416

 2017-02-10 18:26:48.918653+01 | 1486747608.91865 | 8/FA16660                |           34621974112

 2017-02-10 18:26:49.972712+01 | 1486747609.97271 | 8/FF453A8                |           34627408808

 2017-02-10 18:26:51.02337+01 | 1486747611.02337 | 8/104E30F0               |           34633298160

 2017-02-10 18:26:52.076883+01 | 1486747612.07688 | 8/10A14130               |           34638741808

 2017-02-10 18:26:53.129385+01 | 1486747613.12938 | 8/10FCD198               |           34644742552

 2017-02-10 18:26:54.182855+01 | 1486747614.18285 | 8/11506E00               |           34650222080

 2017-02-10 18:26:55.236661+01 | 1486747615.23666 | 8/11AC3AE8               |           34656238312

 2017-02-10 18:26:56.290692+01 | 1486747616.29069 | 8/11FD2CC0               |           34661543104

 2017-02-10 18:26:57.342333+01 | 1486747617.34233 | 8/12517538               |           34667066680

 2017-02-10 18:26:58.394151+01 | 1486747618.39415 | 8/12A3F460               |           34672473184

 2017-02-10 18:26:59.452063+01 | 1486747619.45206 | 8/12FB83E0               |           34678211552

 2017-02-10 18:27:00.503578+01 | 1486747620.50358 | 8/134D7690               |           34683582096

 2017-02-10 18:27:01.556708+01 | 1486747621.55671 | 8/13A73218               |           34689462808

 2017-02-10 18:27:02.610246+01 | 1486747622.61025 | 8/13FCCFC8               |           34695073736

 2017-02-10 18:27:03.663078+01 | 1486747623.66308 | 8/1454A9A0               |           34700831136

 2017-02-10 18:27:04.713371+01 | 1486747624.71337 | 8/14A4E6A8               |           34706089640

 2017-02-10 18:27:05.769157+01 | 1486747625.76916 | 8/14F740C8               |           34711486664

 2017-02-10 18:27:06.820629+01 | 1486747626.82063 | 8/154D5C70               |           34717129840

 2017-02-10 18:27:07.873315+01 | 1486747627.87332 | 8/15A17190               |           34722640272

 2017-02-10 18:27:08.923267+01 | 1486747628.92327 | 8/15F5F0A8               |           34728177832

 2017-02-10 18:27:09.976463+01 | 1486747629.97646 | 8/164B6E78               |           34733780600

 2017-02-10 18:27:11.040417+01 | 1486747631.04042 | 8/16A09E58               |           34739363416

 2017-02-10 18:27:12.092311+01 | 1486747632.09231 | 8/16FA7B90               |           34745252752

 2017-02-10 18:27:13.157017+01 | 1486747633.15702 | 8/174DD2C0               |           34750714560

 2017-02-10 18:27:14.209968+01 | 1486747634.20997 | 8/17A22BD8               |           34756242392

 2017-02-10 18:27:15.280977+01 | 1486747635.28098 | 8/17F5EE40               |           34761731648

 2017-02-10 18:27:16.331676+01 | 1486747636.33168 | 8/184B6C20               |           34767334432

 2017-02-10 18:27:17.385965+01 | 1486747637.38597 | 8/189A05F0               |           34772485616

 2017-02-10 18:27:18.43964+01 | 1486747638.43964 | 8/18F065B0               |           34778146224

 2017-02-10 18:27:19.499579+01 | 1486747639.49958 | 8/193FC668               |           34783348328

 2017-02-10 18:27:20.55071+01 | 1486747640.55071 | 8/19943F68               |           34788884328

 2017-02-10 18:27:21.601773+01 | 1486747641.60177 | 8/19E53070               |           34794188912

 2017-02-10 18:27:22.657061+01 | 1486747642.65706 | 8/1A378960               |           34799585632

 2017-02-10 18:27:23.709675+01 | 1486747643.70968 | 8/1A8B95E0               |           34805093856

 2017-02-10 18:27:24.766816+01 | 1486747644.76682 | 8/1AD9B910               |           34810214672

 2017-02-10 18:27:25.818083+01 | 1486747645.81808 | 8/1B2D6F20               |           34815700768

 2017-02-10 18:27:26.871934+01 | 1486747646.87193 | 8/1B7F6BE0               |           34821073888

 2017-02-10 18:27:27.926533+01 | 1486747647.92653 | 8/1BD24C18               |           34826505240

 2017-02-10 18:27:28.98337+01 | 1486747648.98337 | 8/1C210DC8               |           34831666632

 2017-02-10 18:27:30.035535+01 | 1486747650.03554 | 8/1C723A00               |           34836986368

 2017-02-10 18:27:31.086194+01 | 1486747651.08619 | 8/1CC08B98               |           34842119064

 2017-02-10 18:27:32.137936+01 | 1486747652.13794 | 8/1D14C8A0               |           34847639712

 2017-02-10 18:27:33.193483+01 | 1486747653.19348 | 8/1D688168               |           34853126504

 2017-02-10 18:27:34.259634+01 | 1486747654.25963 | 8/1DB7FC48               |           34858335304

 2017-02-10 18:27:35.311881+01 | 1486747655.31188 | 8/1E085910               |           34863601936

 2017-02-10 18:27:36.366674+01 | 1486747656.36667 | 8/1E58DFD8               |           34868879320

 2017-02-10 18:27:37.421077+01 | 1486747657.42108 | 8/1EAD1820               |           34874398752

 2017-02-10 18:27:38.472812+01 | 1486747658.47281 | 8/1EFB5A58               |           34879527512

 2017-02-10 18:27:39.534745+01 | 1486747659.53474 | 8/1F500250               |           34885075536

 2017-02-10 18:27:40.585035+01 | 1486747660.58504 | 8/1F9D7418               |           34890150936

 2017-02-10 18:27:41.638943+01 | 1486747661.63894 | 8/1FF10BF0               |           34895629296

 2017-02-10 18:27:42.692876+01 | 1486747662.69288 | 8/203BE158               |           34900533592

 2017-02-10 18:27:43.749285+01 | 1486747663.74928 | 8/208DE0D0               |           34905907408

 2017-02-10 18:27:44.801123+01 | 1486747664.80112 | 8/20DB9410               |           34910999568

 2017-02-10 18:27:45.853815+01 | 1486747665.85382 | 8/212C0560               |           34916271456

 2017-02-10 18:27:46.904981+01 | 1486747666.90498 | 8/21752740               |           34921064256

 2017-02-10 18:27:47.958881+01 | 1486747667.95888 | 8/21C3E070               |           34926223472

 2017-02-10 18:27:49.011919+01 | 1486747669.01192 | 8/221155E8               |           34931299816

 2017-02-10 18:27:50.063135+01 | 1486747670.06313 | 8/22630B60               |           34936654688

 2017-02-10 18:27:51.118126+01 | 1486747671.11813 | 8/22ADCEA8               |           34941554344

 2017-02-10 18:27:52.170605+01 | 1486747672.1706 | 8/22FE5328               |           34946831144

 2017-02-10 18:27:53.22646+01 | 1486747673.22646 | 8/234900F8               |           34951725304

 2017-02-10 18:27:54.277537+01 | 1486747674.27754 | 8/23976880               |           34956863616

 2017-02-10 18:27:55.339828+01 | 1486747675.33983 | 8/23E65418               |           34962035736

 2017-02-10 18:27:56.393599+01 | 1486747676.3936 | 8/24373D10               |           34967338256

 2017-02-10 18:27:57.446678+01 | 1486747677.44668 | 8/24842890               |           34972379280

 2017-02-10 18:27:58.500005+01 | 1486747678.50001 | 8/24D3B0E0               |           34977591520

 2017-02-10 18:27:59.552922+01 | 1486747679.55292 | 8/2520AD60               |           34982636896

 2017-02-10 18:28:00.606584+01 | 1486747680.60658 | 8/25701F28               |           34987843368

 2017-02-10 18:28:01.660778+01 | 1486747681.66078 | 8/25BB2068               |           34992758888

 2017-02-10 18:28:02.713355+01 | 1486747682.71336 | 8/260CD728               |           34998114088

 2017-02-10 18:28:03.767178+01 | 1486747683.76718 | 8/26579D50               |           35003014480

 2017-02-10 18:28:04.819911+01 | 1486747684.81991 | 8/26A4B7F0               |           35008067568

 2017-02-10 18:28:05.871107+01 | 1486747685.87111 | 8/26F0DD30               |           35013057840

 2017-02-10 18:28:06.92535+01 | 1486747686.92535 | 8/273F0530               |           35018179888

 2017-02-10 18:28:07.98224+01 | 1486747687.98224 | 8/278C55B8               |           35023246776

 2017-02-10 18:28:09.032844+01 | 1486747689.03284 | 8/27D8C9C8               |           35028257224

 2017-02-10 18:28:10.084102+01 | 1486747690.0841 | 8/2821EA58               |           35033049688

 2017-02-10 18:28:11.133991+01 | 1486747691.13399 | 8/2870DC38               |           35038223416

 2017-02-10 18:28:12.186772+01 | 1486747692.18677 | 8/28BF8740               |           35043379008

 2017-02-10 18:28:13.236594+01 | 1486747693.23659 | 8/290B6D50               |           35048353104

 2017-02-10 18:28:14.28998+01 | 1486747694.28998 | 8/295ABFC8               |           35053551560

 2017-02-10 18:28:15.344864+01 | 1486747695.34486 | 8/29A602C0               |           35058483904

 2017-02-10 18:28:16.396429+01 | 1486747696.39643 | 8/29FA6200               |           35064013312

 2017-02-10 18:28:17.447709+01 | 1486747697.44771 | 8/2A46B818               |           35069016088

 2017-02-10 18:28:18.500257+01 | 1486747698.50026 | 8/2A98C148               |           35074392392

 2017-02-10 18:28:19.541227+01 | 1486747699.54123 | 8/2AE145D0               |           35079144912

 2017-02-10 18:28:20.592711+01 | 1486747700.59271 | 8/2B2FC0A0               |           35084288160

 2017-02-10 18:28:21.645641+01 | 1486747701.64564 | 8/2B7F8AA8               |           35089517224

 2017-02-10 18:28:22.70169+01 | 1486747702.70169 | 8/2BD0F3D8               |           35094852568

 2017-02-10 18:28:23.757056+01 | 1486747703.75706 | 8/2C1A5FE8               |           35099664360

 2017-02-10 18:28:24.810499+01 | 1486747704.8105 | 8/2C6963B8               |           35104842680

 2017-02-10 18:28:25.864434+01 | 1486747705.86443 | 8/2CBB0D40               |           35110194496

 2017-02-10 18:28:26.918789+01 | 1486747706.91879 | 8/2D063190               |           35115118992

 2017-02-10 18:28:27.968854+01 | 1486747707.96885 | 8/2D564AA0               |           35120368288

 2017-02-10 18:28:29.019739+01 | 1486747709.01974 | 8/2DA27A28               |           35125361192

 2017-02-10 18:28:30.089001+01 | 1486747710.089 | 8/2DEEC498               |           35130360984

 2017-02-10 18:28:31.142993+01 | 1486747711.14299 | 8/2E3F72F0               |           35135648496

 2017-02-10 18:28:32.201927+01 | 1486747712.20193 | 8/2E8A6B20               |           35140561696

 2017-02-10 18:28:33.252065+01 | 1486747713.25206 | 8/2ED6F0E8               |           35145576680

 2017-02-10 18:28:34.305315+01 | 1486747714.30532 | 8/2F21DB50               |           35150486352

 2017-02-10 18:28:35.362638+01 | 1486747715.36264 | 8/2F727708               |           35155769096

 2017-02-10 18:28:36.418915+01 | 1486747716.41892 | 8/2FBAF318               |           35160519448

 2017-02-10 18:28:37.472003+01 | 1486747717.472 | 8/300AAB38               |           35165743928

 2017-02-10 18:28:38.523956+01 | 1486747718.52396 | 8/30555B98               |           35170638744

 2017-02-10 18:28:39.579774+01 | 1486747719.57977 | 8/30A45A20               |           35175815712

 2017-02-10 18:28:40.632472+01 | 1486747720.63247 | 8/30ED7D10               |           35180608784

 2017-02-10 18:28:41.684823+01 | 1486747721.68482 | 8/313A6740               |           35185649472

 2017-02-10 18:28:42.737179+01 | 1486747722.73718 | 8/31815828               |           35190298664

 2017-02-10 18:28:43.791643+01 | 1486747723.79164 | 8/31CE8B30               |           35195358000

 2017-02-10 18:28:44.843466+01 | 1486747724.84347 | 8/3218FBB0               |           35200236464

 2017-02-10 18:28:45.897635+01 | 1486747725.89763 | 8/3266B858               |           35205331032

 2017-02-10 18:28:46.952312+01 | 1486747726.95231 | 8/32B0C1B8               |           35210183096

