 2017-02-09 11:15:10.690134+01 | 1486635310.69013 |                 0 |              17 |                  9865 |                  677 |            1241441 |       2326057 |            23105 |        34434365 |                     0 |      39464303 | 2017-02-09 09:54:05.959359+01

 2017-02-09 11:15:11.848336+01 | 1486635311.84834 |                 0 |              17 |                  9865 |                  677 |            1241441 |       2326057 |            23105 |        34434365 |                     0 |      39474986 | 2017-02-09 09:54:05.959359+01

 2017-02-09 11:15:12.980946+01 | 1486635312.98095 |                 0 |              17 |                  9865 |                  677 |            1241441 |       2326057 |            23105 |        34434365 |                     0 |      39484594 | 2017-02-09 09:54:05.959359+01

 2017-02-09 11:15:14.113183+01 | 1486635314.11318 |                 0 |              17 |                  9865 |                  677 |            1241441 |       2326067 |            23105 |        34434365 |                     0 |      39496028 | 2017-02-09 09:54:05.959359+01

 2017-02-09 11:15:15.248354+01 | 1486635315.24835 |                 0 |              17 |                  9865 |                  677 |            1241441 |       2326110 |            23105 |        34434365 |                     0 |      39507525 | 2017-02-09 09:54:05.959359+01

 2017-02-09 11:15:16.431882+01 | 1486635316.43188 |                 0 |              17 |                  9865 |                  677 |            1241441 |       2326184 |            23105 |        34434365 |                     0 |      39516711 | 2017-02-09 09:54:05.959359+01

 2017-02-09 11:15:17.568526+01 | 1486635317.56853 |                 0 |              17 |                  9865 |                  677 |            1241441 |       2326529 |            23105 |        34434365 |                     0 |      39528212 | 2017-02-09 09:54:05.959359+01

 2017-02-09 11:15:18.73413+01 | 1486635318.73413 |                 0 |              17 |                  9865 |                  677 |            1241441 |       2327052 |            23106 |        34434365 |                     0 |      39539838 | 2017-02-09 09:54:05.959359+01

 2017-02-09 11:15:19.89664+01 | 1486635319.89664 |                 0 |              17 |                  9865 |                  677 |            1241441 |       2327652 |            23112 |        34434365 |                     0 |      39550871 | 2017-02-09 09:54:05.959359+01

 2017-02-09 11:15:21.102487+01 | 1486635321.10249 |                 0 |              17 |                  9865 |                  677 |            1241441 |       2328152 |            23117 |        34434365 |                     0 |      39560486 | 2017-02-09 09:54:05.959359+01

 2017-02-09 11:15:22.25946+01 | 1486635322.25946 |                 0 |              17 |                  9865 |                  677 |            1241441 |       2328752 |            23123 |        34434365 |                     0 |      39571508 | 2017-02-09 09:54:05.959359+01

 2017-02-09 11:15:23.420535+01 | 1486635323.42054 |                 0 |              17 |                  9865 |                  677 |            1241441 |       2329352 |            23129 |        34434365 |                     0 |      39582542 | 2017-02-09 09:54:05.959359+01

 2017-02-09 11:15:24.561013+01 | 1486635324.56101 |                 0 |              17 |                  9865 |                  677 |            1241441 |       2329952 |            23135 |        34434365 |                     0 |      39593534 | 2017-02-09 09:54:05.959359+01

 2017-02-09 11:15:25.708014+01 | 1486635325.70801 |                 0 |              17 |                  9865 |                  677 |            1241441 |       2330552 |            23141 |        34434365 |                     0 |      39604436 | 2017-02-09 09:54:05.959359+01

 2017-02-09 11:15:26.813216+01 | 1486635326.81322 |                 0 |              17 |                  9865 |                  677 |            1241441 |       2331052 |            23146 |        34495106 |                     0 |      39613604 | 2017-02-09 09:54:05.959359+01

 2017-02-09 11:15:27.910456+01 | 1486635327.91046 |                 0 |              17 |                  9865 |                  677 |            1241441 |       2331652 |            23152 |        34495106 |                     0 |      39624700 | 2017-02-09 09:54:05.959359+01

 2017-02-09 11:15:29.03506+01 | 1486635329.03506 |                 0 |              17 |                  9865 |                  677 |            1241441 |       2332152 |            23157 |        34495106 |                     0 |      39633906 | 2017-02-09 09:54:05.959359+01

 2017-02-09 11:15:30.124988+01 | 1486635330.12499 |                 0 |              17 |                  9865 |                  677 |            1241441 |       2332752 |            23163 |        34495106 |                     0 |      39644570 | 2017-02-09 09:54:05.959359+01

 2017-02-09 11:15:31.290961+01 | 1486635331.29096 |                 0 |              17 |                  9865 |                  677 |            1241441 |       2333252 |            23168 |        34495106 |                     0 |      39653971 | 2017-02-09 09:54:05.959359+01

 2017-02-09 11:15:32.417944+01 | 1486635332.41794 |                 0 |              17 |                  9865 |                  677 |            1241441 |       2333852 |            23174 |        34495106 |                     0 |      39665086 | 2017-02-09 09:54:05.959359+01

 2017-02-09 11:15:33.586182+01 | 1486635333.58618 |                 0 |              17 |                  9865 |                  677 |            1241441 |       2334452 |            23180 |        34495106 |                     0 |      39676231 | 2017-02-09 09:54:05.959359+01

 2017-02-09 11:15:34.767196+01 | 1486635334.7672 |                 0 |              17 |                  9865 |                  677 |            1241441 |       2335052 |            23186 |        34556642 |                     0 |      39686998 | 2017-02-09 09:54:05.959359+01

 2017-02-09 11:15:35.921488+01 | 1486635335.92149 |                 0 |              17 |                  9865 |                  677 |            1241441 |       2335552 |            23191 |        34556642 |                     0 |      39695961 | 2017-02-09 09:54:05.959359+01

 2017-02-09 11:15:37.021481+01 | 1486635337.02148 |                 0 |              17 |                  9865 |                  677 |            1241441 |       2336152 |            23197 |        34556642 |                     0 |      39706710 | 2017-02-09 09:54:05.959359+01

 2017-02-09 11:15:38.111745+01 | 1486635338.11175 |                 0 |              17 |                  9865 |                  677 |            1241441 |       2336652 |            23202 |        34556642 |                     0 |      39715988 | 2017-02-09 09:54:05.959359+01

 2017-02-09 11:15:39.223522+01 | 1486635339.22352 |                 0 |              17 |                  9865 |                  677 |            1241441 |       2337252 |            23208 |        34556642 |                     0 |      39726959 | 2017-02-09 09:54:05.959359+01

 2017-02-09 11:15:40.350244+01 | 1486635340.35024 |                 0 |              17 |                  9865 |                  677 |            1241441 |       2337852 |            23214 |        34556642 |                     0 |      39737485 | 2017-02-09 09:54:05.959359+01

 2017-02-09 11:15:41.490423+01 | 1486635341.49042 |                 0 |              17 |                  9865 |                  677 |            1241441 |       2338352 |            23219 |        34556642 |                     0 |      39746404 | 2017-02-09 09:54:05.959359+01

 2017-02-09 11:15:42.59337+01 | 1486635342.59337 |                 0 |              17 |                  9865 |                  677 |            1241441 |       2338952 |            23225 |        34556642 |                     0 |      39757041 | 2017-02-09 09:54:05.959359+01

 2017-02-09 11:15:43.716521+01 | 1486635343.71652 |                 0 |              17 |                  9865 |                  677 |            1241441 |       2339452 |            23230 |        34617778 |                     0 |      39765858 | 2017-02-09 09:54:05.959359+01

 2017-02-09 11:15:44.843928+01 | 1486635344.84393 |                 0 |              17 |                  9865 |                  677 |            1241441 |       2340052 |            23236 |        34617778 |                     0 |      39776715 | 2017-02-09 09:54:05.959359+01

 2017-02-09 11:15:45.997942+01 | 1486635345.99794 |                 0 |              17 |                  9865 |                  677 |            1241441 |       2340552 |            23241 |        34617778 |                     0 |      39785476 | 2017-02-09 09:54:05.959359+01

 2017-02-09 11:15:47.131978+01 | 1486635347.13198 |                 0 |              17 |                  9865 |                  677 |            1241441 |       2341152 |            23247 |        34617778 |                     0 |      39796240 | 2017-02-09 09:54:05.959359+01

 2017-02-09 11:15:48.284526+01 | 1486635348.28453 |                 0 |              17 |                  9865 |                  677 |            1241441 |       2341752 |            23253 |        34617778 |                     0 |      39806865 | 2017-02-09 09:54:05.959359+01

 2017-02-09 11:15:49.417297+01 | 1486635349.4173 |                 0 |              17 |                  9865 |                  677 |            1241441 |       2342352 |            23259 |        34617778 |                     0 |      39817568 | 2017-02-09 09:54:05.959359+01

 2017-02-09 11:15:50.563217+01 | 1486635350.56322 |                 0 |              17 |                  9865 |                  677 |            1241441 |       2342852 |            23264 |        34617778 |                     0 |      39826333 | 2017-02-09 09:54:05.959359+01

 2017-02-09 11:15:51.675788+01 | 1486635351.67579 |                 0 |              17 |                  9865 |                  677 |            1241441 |       2343452 |            23270 |        34679159 |                     0 |      39836883 | 2017-02-09 09:54:05.959359+01

 2017-02-09 11:15:52.800362+01 | 1486635352.80036 |                 0 |              17 |                  9865 |                  677 |            1241441 |       2343952 |            23275 |        34679159 |                     0 |      39845572 | 2017-02-09 09:54:05.959359+01

 2017-02-09 11:15:53.92791+01 | 1486635353.92791 |                 0 |              17 |                  9865 |                  677 |            1241441 |       2344552 |            23281 |        34679159 |                     0 |      39856188 | 2017-02-09 09:54:05.959359+01

 2017-02-09 11:15:55.100704+01 | 1486635355.1007 |                 0 |              17 |                  9865 |                  677 |            1241441 |       2345152 |            23287 |        34679159 |                     0 |      39866942 | 2017-02-09 09:54:05.959359+01

 2017-02-09 11:15:56.256113+01 | 1486635356.25611 |                 0 |              17 |                  9865 |                  677 |            1241441 |       2345652 |            23292 |        34679159 |                     0 |      39875758 | 2017-02-09 09:54:05.959359+01

 2017-02-09 11:15:57.386249+01 | 1486635357.38625 |                 0 |              17 |                  9865 |                  677 |            1241441 |       2346252 |            23298 |        34679159 |                     0 |      39886619 | 2017-02-09 09:54:05.959359+01

 2017-02-09 11:15:58.523974+01 | 1486635358.52397 |                 0 |              17 |                  9865 |                  677 |            1241441 |       2346852 |            23304 |        34679159 |                     0 |      39897194 | 2017-02-09 09:54:05.959359+01

 2017-02-09 11:15:59.633328+01 | 1486635359.63333 |                 0 |              17 |                  9865 |                  677 |            1241441 |       2347452 |            23310 |        34740756 |                     0 |      39908110 | 2017-02-09 09:54:05.959359+01

 2017-02-09 11:16:00.816997+01 | 1486635360.817 |                 0 |              17 |                  9865 |                  677 |            1241441 |       2347952 |            23315 |        34740756 |                     0 |      39917176 | 2017-02-09 09:54:05.959359+01

 2017-02-09 11:16:02.006232+01 | 1486635362.00623 |                 0 |              17 |                  9865 |                  677 |            1241441 |       2348552 |            23321 |        34740756 |                     0 |      39928189 | 2017-02-09 09:54:05.959359+01

 2017-02-09 11:16:03.191126+01 | 1486635363.19113 |                 0 |              17 |                  9865 |                  677 |            1241441 |       2349152 |            23327 |        34740756 |                     0 |      39939264 | 2017-02-09 09:54:05.959359+01

 2017-02-09 11:16:04.324699+01 | 1486635364.3247 |                 0 |              17 |                  9865 |                  677 |            1241441 |       2349752 |            23333 |        34740756 |                     0 |      39950408 | 2017-02-09 09:54:05.959359+01

 2017-02-09 11:16:05.387442+01 | 1486635365.38744 |                 0 |              17 |                  9865 |                  677 |            1241441 |       2350252 |            23338 |        34740756 |                     0 |      39959554 | 2017-02-09 09:54:05.959359+01

 2017-02-09 11:16:06.507679+01 | 1486635366.50768 |                 0 |              17 |                  9865 |                  677 |            1241441 |       2350852 |            23344 |        34740756 |                     0 |      39970189 | 2017-02-09 09:54:05.959359+01

 2017-02-09 11:16:07.672306+01 | 1486635367.67231 |                 0 |              17 |                  9865 |                  677 |            1241441 |       2351352 |            23349 |        34802592 |                     0 |      39979364 | 2017-02-09 09:54:05.959359+01

 2017-02-09 11:16:08.824482+01 | 1486635368.82448 |                 0 |              17 |                  9865 |                  677 |            1241441 |       2351952 |            23355 |        34802592 |                     0 |      39990673 | 2017-02-09 09:54:05.959359+01

 2017-02-09 11:16:09.948535+01 | 1486635369.94853 |                 0 |              17 |                  9865 |                  677 |            1241441 |       2352552 |            23361 |        34802592 |                     0 |      40001869 | 2017-02-09 09:54:05.959359+01

 2017-02-09 11:16:11.125468+01 | 1486635371.12547 |                 0 |              17 |                  9865 |                  677 |            1241441 |       2353052 |            23366 |        34802592 |                     0 |      40011187 | 2017-02-09 09:54:05.959359+01

 2017-02-09 11:16:12.298129+01 | 1486635372.29813 |                 0 |              17 |                  9865 |                  677 |            1241441 |       2353652 |            23372 |        34802592 |                     0 |      40022581 | 2017-02-09 09:54:05.959359+01

 2017-02-09 11:16:13.459264+01 | 1486635373.45926 |                 0 |              17 |                  9865 |                  677 |            1241441 |       2354252 |            23378 |        34802592 |                     0 |      40033910 | 2017-02-09 09:54:05.959359+01

 2017-02-09 11:16:14.581959+01 | 1486635374.58196 |                 0 |              17 |                  9865 |                  677 |            1241441 |       2354852 |            23384 |        34864428 |                     0 |      40044888 | 2017-02-09 09:54:05.959359+01

 2017-02-09 11:16:15.769821+01 | 1486635375.76982 |                 0 |              17 |                  9865 |                  677 |            1241441 |       2355352 |            23389 |        34864428 |                     0 |      40054223 | 2017-02-09 09:54:05.959359+01

 2017-02-09 11:16:16.957625+01 | 1486635376.95762 |                 0 |              17 |                  9865 |                  677 |            1241441 |       2355952 |            23395 |        34864428 |                     0 |      40065665 | 2017-02-09 09:54:05.959359+01

 2017-02-09 11:16:18.077837+01 | 1486635378.07784 |                 0 |              17 |                  9865 |                  677 |            1241441 |       2356552 |            23401 |        34864428 |                     0 |      40077176 | 2017-02-09 09:54:05.959359+01

 2017-02-09 11:16:19.23648+01 | 1486635379.23648 |                 0 |              17 |                  9865 |                  677 |            1241441 |       2357152 |            23407 |        34864428 |                     0 |      40088659 | 2017-02-09 09:54:05.959359+01

 2017-02-09 11:16:20.386111+01 | 1486635380.38611 |                 0 |              17 |                  9865 |                  677 |            1241441 |       2357652 |            23412 |        34864428 |                     0 |      40098009 | 2017-02-09 09:54:05.959359+01

 2017-02-09 11:16:21.536748+01 | 1486635381.53675 |                 0 |              17 |                  9865 |                  677 |            1241441 |       2358152 |            23417 |        34864428 |                     0 |      40107560 | 2017-02-09 09:54:05.959359+01

 2017-02-09 11:16:22.624309+01 | 1486635382.62431 |                 0 |              17 |                  9865 |                  677 |            1241441 |       2358752 |            23423 |        34926264 |                     0 |      40119680 | 2017-02-09 09:54:05.959359+01

 2017-02-09 11:16:23.792259+01 | 1486635383.79226 |                 0 |              17 |                  9865 |                  677 |            1241441 |       2359352 |            23429 |        34926264 |                     0 |      40131652 | 2017-02-09 09:54:05.959359+01

 2017-02-09 11:16:24.922793+01 | 1486635384.92279 |                 0 |              17 |                  9865 |                  677 |            1241441 |       2359952 |            23435 |        34926264 |                     0 |      40143930 | 2017-02-09 09:54:05.959359+01

 2017-02-09 11:16:26.059978+01 | 1486635386.05998 |                 0 |              17 |                  9865 |                  677 |            1241441 |       2360552 |            23441 |        34926264 |                     0 |      40156017 | 2017-02-09 09:54:05.959359+01

 2017-02-09 11:16:27.238181+01 | 1486635387.23818 |                 0 |              17 |                  9865 |                  677 |            1241441 |       2361052 |            23446 |        34926264 |                     0 |      40166285 | 2017-02-09 09:54:05.959359+01

 2017-02-09 11:16:28.393391+01 | 1486635388.39339 |                 0 |              17 |                  9865 |                  677 |            1241441 |       2361652 |            23452 |        34926264 |                     0 |      40178570 | 2017-02-09 09:54:05.959359+01

 2017-02-09 11:16:29.578729+01 | 1486635389.57873 |                 0 |              17 |                  9865 |                  677 |            1241441 |       2362252 |            23458 |        34926264 |                     0 |      40190680 | 2017-02-09 09:54:05.959359+01

 2017-02-09 11:16:30.766779+01 | 1486635390.76678 |                 0 |              17 |                  9865 |                  677 |            1241441 |       2362852 |            23464 |        34987500 |                     0 |      40202619 | 2017-02-09 09:54:05.959359+01

 2017-02-09 11:16:31.913462+01 | 1486635391.91346 |                 0 |              17 |                  9865 |                  677 |            1241441 |       2363452 |            23470 |        34987500 |                     0 |      40214877 | 2017-02-09 09:54:05.959359+01

 2017-02-09 11:16:33.054247+01 | 1486635393.05425 |                 0 |              17 |                  9865 |                  677 |            1241441 |       2363952 |            23475 |        34987500 |                     0 |      40225155 | 2017-02-09 09:54:05.959359+01

 2017-02-09 11:16:34.198105+01 | 1486635394.19811 |                 0 |              17 |                  9865 |                  677 |            1241441 |       2364552 |            23481 |        34987500 |                     0 |      40237288 | 2017-02-09 09:54:05.959359+01

 2017-02-09 11:16:35.392935+01 | 1486635395.39294 |                 0 |              17 |                  9865 |                  677 |            1241441 |       2365152 |            23487 |        34987500 |                     0 |      40249955 | 2017-02-09 09:54:05.959359+01

 2017-02-09 11:16:36.652593+01 | 1486635396.65259 |                 0 |              17 |                  9865 |                  677 |            1241441 |       2365752 |            23493 |        34987500 |                     0 |      40261533 | 2017-02-09 09:54:05.959359+01

 2017-02-09 11:16:37.842995+01 | 1486635397.84299 |                 0 |              17 |                  9865 |                  677 |            1241441 |       2366352 |            23499 |        34987500 |                     0 |      40273323 | 2017-02-09 09:54:05.959359+01

 2017-02-09 11:16:39.031436+01 | 1486635399.03144 |                 0 |              17 |                  9865 |                  677 |            1241441 |       2366952 |            23505 |        34987500 |                     0 |      40285424 | 2017-02-09 09:54:05.959359+01

 2017-02-09 11:16:40.191454+01 | 1486635400.19145 |                 0 |              17 |                  9865 |                  677 |            1241441 |       2367552 |            23511 |        35048636 |                     0 |      40297489 | 2017-02-09 09:54:05.959359+01

 2017-02-09 11:16:41.348086+01 | 1486635401.34809 |                 0 |              17 |                  9865 |                  677 |            1241441 |       2368152 |            23517 |        35048636 |                     0 |      40309398 | 2017-02-09 09:54:05.959359+01

 2017-02-09 11:16:42.493623+01 | 1486635402.49362 |                 0 |              17 |                  9865 |                  677 |            1241441 |       2368652 |            23522 |        35048636 |                     0 |      40319348 | 2017-02-09 09:54:05.959359+01

 2017-02-09 11:16:43.671143+01 | 1486635403.67114 |                 0 |              17 |                  9865 |                  677 |            1241441 |       2369252 |            23528 |        35048636 |                     0 |      40331309 | 2017-02-09 09:54:05.959359+01

 2017-02-09 11:16:44.82362+01 | 1486635404.82362 |                 0 |              17 |                  9865 |                  677 |            1241441 |       2369852 |            23534 |        35048636 |                     0 |      40343000 | 2017-02-09 09:54:05.959359+01

 2017-02-09 11:16:45.974047+01 | 1486635405.97405 |                 0 |              17 |                  9865 |                  677 |            1241441 |       2370452 |            23540 |        35048636 |                     0 |      40354195 | 2017-02-09 09:54:05.959359+01

 2017-02-09 11:16:47.185029+01 | 1486635407.18503 |                 0 |              17 |                  9865 |                  677 |            1241441 |       2370952 |            23545 |        35048636 |                     0 |      40363906 | 2017-02-09 09:54:05.959359+01

 2017-02-09 11:16:48.315638+01 | 1486635408.31564 |                 0 |              17 |                  9865 |                  677 |            1241441 |       2371552 |            23551 |        35110309 |                     0 |      40375420 | 2017-02-09 09:54:05.959359+01

 2017-02-09 11:16:49.493304+01 | 1486635409.4933 |                 0 |              17 |                  9865 |                  677 |            1241441 |       2372152 |            23557 |        35110309 |                     0 |      40386898 | 2017-02-09 09:54:05.959359+01

 2017-02-09 11:16:50.678114+01 | 1486635410.67811 |                 0 |              17 |                  9865 |                  677 |            1241441 |       2372752 |            23563 |        35110309 |                     0 |      40398529 | 2017-02-09 09:54:05.959359+01

 2017-02-09 11:16:51.801664+01 | 1486635411.80166 |                 0 |              17 |                  9865 |                  677 |            1241441 |       2373352 |            23569 |        35110309 |                     0 |      40410093 | 2017-02-09 09:54:05.959359+01

 2017-02-09 11:16:52.903595+01 | 1486635412.90359 |                 0 |              17 |                  9865 |                  677 |            1241441 |       2373852 |            23574 |        35110309 |                     0 |      40419715 | 2017-02-09 09:54:05.959359+01

 2017-02-09 11:16:54.045405+01 | 1486635414.0454 |                 0 |              17 |                  9865 |                  677 |            1241441 |       2374452 |            23580 |        35110309 |                     0 |      40431305 | 2017-02-09 09:54:05.959359+01

 2017-02-09 11:16:55.214987+01 | 1486635415.21499 |                 0 |              17 |                  9865 |                  677 |            1241441 |       2375052 |            23586 |        35172154 |                     0 |      40442540 | 2017-02-09 09:54:05.959359+01

 2017-02-09 11:16:56.365122+01 | 1486635416.36512 |                 0 |              17 |                  9865 |                  677 |            1241441 |       2375552 |            23591 |        35172154 |                     0 |      40452206 | 2017-02-09 09:54:05.959359+01

 2017-02-09 11:16:57.53121+01 | 1486635417.53121 |                 0 |              17 |                  9865 |                  677 |            1241441 |       2376152 |            23597 |        35172154 |                     0 |      40463699 | 2017-02-09 09:54:05.959359+01

 2017-02-09 11:16:58.717903+01 | 1486635418.7179 |                 0 |              17 |                  9865 |                  677 |            1241441 |       2376752 |            23603 |        35172154 |                     0 |      40475444 | 2017-02-09 09:54:05.959359+01

 2017-02-09 11:16:59.899852+01 | 1486635419.89985 |                 0 |              17 |                  9865 |                  677 |            1241441 |       2377352 |            23609 |        35172154 |                     0 |      40487057 | 2017-02-09 09:54:05.959359+01

 2017-02-09 11:17:01.031968+01 | 1486635421.03197 |                 0 |              17 |                  9865 |                  677 |            1241441 |       2377952 |            23615 |        35172154 |                     0 |      40498711 | 2017-02-09 09:54:05.959359+01

 2017-02-09 11:17:02.118326+01 | 1486635422.11833 |                 0 |              17 |                  9865 |                  677 |            1241441 |       2378452 |            23620 |        35172154 |                     0 |      40508347 | 2017-02-09 09:54:05.959359+01

 2017-02-09 11:17:03.270973+01 | 1486635423.27097 |                 0 |              17 |                  9865 |                  677 |            1241441 |       2379052 |            23626 |        35233891 |                     0 |      40519814 | 2017-02-09 09:54:05.959359+01

 2017-02-09 11:17:04.486052+01 | 1486635424.48605 |                 0 |              17 |                  9865 |                  677 |            1241441 |       2379552 |            23631 |        35233891 |                     0 |      40529647 | 2017-02-09 09:54:05.959359+01

 2017-02-09 11:17:05.617298+01 | 1486635425.6173 |                 0 |              17 |                  9865 |                  677 |            1241441 |       2380152 |            23637 |        35233891 |                     0 |      40541412 | 2017-02-09 09:54:05.959359+01

 2017-02-09 11:17:06.794794+01 | 1486635426.79479 |                 0 |              17 |                  9865 |                  677 |            1241441 |       2380752 |            23643 |        35233891 |                     0 |      40553082 | 2017-02-09 09:54:05.959359+01

 2017-02-09 11:17:07.925117+01 | 1486635427.92512 |                 0 |              17 |                  9865 |                  677 |            1241441 |       2381352 |            23649 |        35233891 |                     0 |      40564789 | 2017-02-09 09:54:05.959359+01

 2017-02-09 11:17:09.088866+01 | 1486635429.08887 |                 0 |              17 |                  9865 |                  677 |            1241441 |       2381952 |            23655 |        35233891 |                     0 |      40576442 | 2017-02-09 09:54:05.959359+01

 2017-02-09 11:17:10.203875+01 | 1486635430.20388 |                 0 |              17 |                  9865 |                  677 |            1241441 |       2382452 |            23660 |        35295693 |                     0 |      40585927 | 2017-02-09 09:54:05.959359+01

 2017-02-09 11:17:11.30338+01 | 1486635431.30338 |                 0 |              17 |                  9865 |                  677 |            1241441 |       2383052 |            23666 |        35295693 |                     0 |      40597590 | 2017-02-09 09:54:05.959359+01

 2017-02-09 11:17:12.383346+01 | 1486635432.38335 |                 0 |              17 |                  9865 |                  677 |            1241441 |       2383552 |            23671 |        35295693 |                     0 |      40607177 | 2017-02-09 09:54:05.959359+01

 2017-02-09 11:17:13.507724+01 | 1486635433.50772 |                 0 |              17 |                  9865 |                  677 |            1241441 |       2384152 |            23677 |        35295693 |                     0 |      40618527 | 2017-02-09 09:54:05.959359+01

 2017-02-09 11:17:14.699714+01 | 1486635434.69971 |                 0 |              17 |                  9865 |                  677 |            1241441 |       2384652 |            23682 |        35295693 |                     0 |      40628278 | 2017-02-09 09:54:05.959359+01

 2017-02-09 11:17:15.878778+01 | 1486635435.87878 |                 0 |              17 |                  9865 |                  677 |            1241441 |       2385252 |            23688 |        35295693 |                     0 |      40639905 | 2017-02-09 09:54:05.959359+01

 2017-02-09 11:17:17.038464+01 | 1486635437.03846 |                 0 |              17 |                  9865 |                  677 |            1241441 |       2385852 |            23694 |        35295693 |                     0 |      40651688 | 2017-02-09 09:54:05.959359+01

 2017-02-09 11:17:18.197058+01 | 1486635438.19706 |                 0 |              17 |                  9865 |                  677 |            1241441 |       2386452 |            23700 |        35357529 |                     0 |      40663519 | 2017-02-09 09:54:05.959359+01

 2017-02-09 11:17:19.33292+01 | 1486635439.33292 |                 0 |              17 |                  9865 |                  677 |            1241441 |       2386952 |            23705 |        35357529 |                     0 |      40673156 | 2017-02-09 09:54:05.959359+01

 2017-02-09 11:17:20.448032+01 | 1486635440.44803 |                 0 |              17 |                  9865 |                  677 |            1241441 |       2387552 |            23711 |        35357529 |                     0 |      40684882 | 2017-02-09 09:54:05.959359+01

 2017-02-09 11:17:21.577556+01 | 1486635441.57756 |                 0 |              17 |                  9865 |                  677 |            1241441 |       2388152 |            23717 |        35357529 |                     0 |      40696365 | 2017-02-09 09:54:05.959359+01

 2017-02-09 11:17:22.721184+01 | 1486635442.72118 |                 0 |              17 |                  9865 |                  677 |            1241441 |       2388652 |            23722 |        35357529 |                     0 |      40706140 | 2017-02-09 09:54:05.959359+01

 2017-02-09 11:17:23.929427+01 | 1486635443.92943 |                 0 |              17 |                  9865 |                  677 |            1241441 |       2389252 |            23728 |        35357529 |                     0 |      40717651 | 2017-02-09 09:54:05.959359+01

 2017-02-09 11:17:25.063186+01 | 1486635445.06319 |                 0 |              17 |                  9865 |                  677 |            1241441 |       2389852 |            23734 |        35419265 |                     0 |      40729427 | 2017-02-09 09:54:05.959359+01

 2017-02-09 11:17:26.233308+01 | 1486635446.23331 |                 0 |              17 |                  9865 |                  677 |            1241441 |       2390452 |            23740 |        35419265 |                     0 |      40741139 | 2017-02-09 09:54:05.959359+01

 2017-02-09 11:17:27.392102+01 | 1486635447.3921 |                 0 |              17 |                  9865 |                  677 |            1241441 |       2391052 |            23746 |        35419265 |                     0 |      40752889 | 2017-02-09 09:54:05.959359+01

 2017-02-09 11:17:28.507407+01 | 1486635448.50741 |                 0 |              17 |                  9865 |                  677 |            1241441 |       2391552 |            23751 |        35419265 |                     0 |      40762793 | 2017-02-09 09:54:05.959359+01

 2017-02-09 11:17:29.678092+01 | 1486635449.67809 |                 0 |              17 |                  9865 |                  677 |            1241441 |       2392152 |            23757 |        35419265 |                     0 |      40774348 | 2017-02-09 09:54:05.959359+01

 2017-02-09 11:17:30.856307+01 | 1486635450.85631 |                 0 |              17 |                  9865 |                  677 |            1241441 |       2392652 |            23762 |        35419265 |                     0 |      40784185 | 2017-02-09 09:54:05.959359+01

 2017-02-09 11:17:32.036662+01 | 1486635452.03666 |                 0 |              17 |                  9865 |                  677 |            1241441 |       2393252 |            23768 |        35419265 |                     0 |      40795783 | 2017-02-09 09:54:05.959359+01

 2017-02-09 11:17:33.194689+01 | 1486635453.19469 |                 0 |              17 |                  9865 |                  677 |            1241441 |       2393852 |            23774 |        35481102 |                     0 |      40807614 | 2017-02-09 09:54:05.959359+01

 2017-02-09 11:17:34.367817+01 | 1486635454.36782 |                 0 |              17 |                  9865 |                  677 |            1241441 |       2394452 |            23780 |        35481102 |                     0 |      40819494 | 2017-02-09 09:54:05.959359+01

 2017-02-09 11:17:35.553405+01 | 1486635455.55341 |                 0 |              17 |                  9865 |                  677 |            1241441 |       2395052 |            23786 |        35481102 |                     0 |      40831240 | 2017-02-09 09:54:05.959359+01

 2017-02-09 11:17:36.634338+01 | 1486635456.63434 |                 0 |              17 |                  9865 |                  677 |            1241441 |       2395652 |            23792 |        35481102 |                     0 |      40843044 | 2017-02-09 09:54:05.959359+01

 2017-02-09 11:17:37.73033+01 | 1486635457.73033 |                 0 |              17 |                  9865 |                  677 |            1241441 |       2396152 |            23797 |        35481102 |                     0 |      40852894 | 2017-02-09 09:54:05.959359+01

 2017-02-09 11:17:38.915574+01 | 1486635458.91557 |                 0 |              17 |                  9865 |                  677 |            1241441 |       2396652 |            23802 |        35481102 |                     0 |      40862665 | 2017-02-09 09:54:05.959359+01

 2017-02-09 11:17:40.10749+01 | 1486635460.10749 |                 0 |              17 |                  9865 |                  677 |            1241441 |       2397352 |            23809 |        35481102 |                     0 |      40875996 | 2017-02-09 09:54:05.959359+01

 2017-02-09 11:17:41.298513+01 | 1486635461.29851 |                 0 |              17 |                  9865 |                  677 |            1241441 |       2397852 |            23814 |        35542817 |                     0 |      40886157 | 2017-02-09 09:54:05.959359+01

 2017-02-09 11:17:42.430811+01 | 1486635462.43081 |                 0 |              17 |                  9865 |                  677 |            1241441 |       2398452 |            23820 |        35542817 |                     0 |      40898332 | 2017-02-09 09:54:05.959359+01

 2017-02-09 11:17:43.61666+01 | 1486635463.61666 |                 0 |              17 |                  9865 |                  677 |            1241441 |       2399052 |            23826 |        35542817 |                     0 |      40910605 | 2017-02-09 09:54:05.959359+01

 2017-02-09 11:17:44.772694+01 | 1486635464.77269 |                 0 |              17 |                  9865 |                  677 |            1241441 |       2399652 |            23832 |        35542817 |                     0 |      40922574 | 2017-02-09 09:54:05.959359+01

 2017-02-09 11:17:45.852578+01 | 1486635465.85258 |                 0 |              17 |                  9865 |                  677 |            1241441 |       2400152 |            23837 |        35542817 |                     0 |      40932376 | 2017-02-09 09:54:05.959359+01

 2017-02-09 11:17:47.004342+01 | 1486635467.00434 |                 0 |              17 |                  9865 |                  677 |            1241441 |       2400752 |            23843 |        35542817 |                     0 |      40944223 | 2017-02-09 09:54:05.959359+01

 2017-02-09 11:17:48.200994+01 | 1486635468.20099 |                 0 |              17 |                  9865 |                  677 |            1241441 |       2401352 |            23849 |        35604735 |                     0 |      40956027 | 2017-02-09 09:54:05.959359+01

 2017-02-09 11:17:49.311964+01 | 1486635469.31196 |                 0 |              17 |                  9865 |                  677 |            1241441 |       2401852 |            23854 |        35604735 |                     0 |      40965887 | 2017-02-09 09:54:05.959359+01

 2017-02-09 11:17:50.495723+01 | 1486635470.49572 |                 0 |              17 |                  9865 |                  677 |            1241441 |       2402452 |            23860 |        35604735 |                     0 |      40977957 | 2017-02-09 09:54:05.959359+01

 2017-02-09 11:17:51.645628+01 | 1486635471.64563 |                 0 |              17 |                  9865 |                  677 |            1241441 |       2403052 |            23866 |        35604735 |                     0 |      40990068 | 2017-02-09 09:54:05.959359+01

 2017-02-09 11:17:52.832434+01 | 1486635472.83243 |                 0 |              17 |                  9865 |                  677 |            1241441 |       2403652 |            23872 |        35604735 |                     0 |      41001922 | 2017-02-09 09:54:05.959359+01

 2017-02-09 11:17:54.018725+01 | 1486635474.01872 |                 0 |              17 |                  9865 |                  677 |            1241441 |       2404252 |            23878 |        35604735 |                     0 |      41013688 | 2017-02-09 09:54:05.959359+01

 2017-02-09 11:17:55.093797+01 | 1486635475.0938 |                 0 |              17 |                  9865 |                  677 |            1241441 |       2404752 |            23883 |        35604735 |                     0 |      41023473 | 2017-02-09 09:54:05.959359+01

 2017-02-09 11:17:56.251303+01 | 1486635476.2513 |                 0 |              17 |                  9865 |                  677 |            1241441 |       2405352 |            23889 |        35666483 |                     0 |      41034804 | 2017-02-09 09:54:05.959359+01

 2017-02-09 11:17:57.454063+01 | 1486635477.45406 |                 0 |              17 |                  9865 |                  677 |            1241441 |       2405952 |            23895 |        35666483 |                     0 |      41046555 | 2017-02-09 09:54:05.959359+01

 2017-02-09 11:17:58.624723+01 | 1486635478.62472 |                 0 |              17 |                  9865 |                  677 |            1241441 |       2406552 |            23901 |        35666483 |                     0 |      41058584 | 2017-02-09 09:54:05.959359+01

 2017-02-09 11:17:59.816714+01 | 1486635479.81671 |                 0 |              17 |                  9865 |                  677 |            1241441 |       2407152 |            23907 |        35666483 |                     0 |      41070487 | 2017-02-09 09:54:05.959359+01

 2017-02-09 11:18:00.961637+01 | 1486635480.96164 |                 0 |              17 |                  9865 |                  677 |            1241441 |       2407652 |            23912 |        35666483 |                     0 |      41080139 | 2017-02-09 09:54:05.959359+01

 2017-02-09 11:18:02.108573+01 | 1486635482.10857 |                 0 |              17 |                  9865 |                  677 |            1241441 |       2408252 |            23918 |        35666483 |                     0 |      41091933 | 2017-02-09 09:54:05.959359+01

 2017-02-09 11:18:03.240483+01 | 1486635483.24048 |                 0 |              17 |                  9865 |                  677 |            1241441 |       2408852 |            23924 |        35728318 |                     0 |      41103616 | 2017-02-09 09:54:05.959359+01

 2017-02-09 11:18:04.345006+01 | 1486635484.34501 |                 0 |              17 |                  9865 |                  677 |            1241441 |       2409352 |            23929 |        35728318 |                     0 |      41113788 | 2017-02-09 09:54:05.959359+01

 2017-02-09 11:18:05.526675+01 | 1486635485.52667 |                 0 |              17 |                  9865 |                  677 |            1241441 |       2409952 |            23935 |        35728318 |                     0 |      41125255 | 2017-02-09 09:54:05.959359+01

 2017-02-09 11:18:06.735139+01 | 1486635486.73514 |                 0 |              17 |                  9865 |                  677 |            1241441 |       2410552 |            23941 |        35728318 |                     0 |      41137367 | 2017-02-09 09:54:05.959359+01

 2017-02-09 11:18:07.897631+01 | 1486635487.89763 |                 0 |              17 |                  9865 |                  677 |            1241441 |       2411152 |            23947 |        35728318 |                     0 |      41149278 | 2017-02-09 09:54:05.959359+01

 2017-02-09 11:18:09.12169+01 | 1486635489.12169 |                 0 |              17 |                  9865 |                  677 |            1241441 |       2411752 |            23953 |        35728318 |                     0 |      41161228 | 2017-02-09 09:54:05.959359+01

 2017-02-09 11:18:10.284049+01 | 1486635490.28405 |                 0 |              17 |                  9865 |                  677 |            1241441 |       2412352 |            23959 |        35790158 |                     0 |      41173098 | 2017-02-09 09:54:05.959359+01

 2017-02-09 11:18:11.42226+01 | 1486635491.42226 |                 0 |              17 |                  9865 |                  677 |            1241441 |       2412852 |            23964 |        35790158 |                     0 |      41182953 | 2017-02-09 09:54:05.959359+01

 2017-02-09 11:18:12.607006+01 | 1486635492.60701 |                 0 |              17 |                  9865 |                  677 |            1241441 |       2413452 |            23970 |        35790158 |                     0 |      41194640 | 2017-02-09 09:54:05.959359+01

 2017-02-09 11:18:13.746217+01 | 1486635493.74622 |                 0 |              17 |                  9865 |                  677 |            1241441 |       2414052 |            23976 |        35790158 |                     0 |      41206550 | 2017-02-09 09:54:05.959359+01

 2017-02-09 11:18:14.884341+01 | 1486635494.88434 |                 0 |              17 |                  9865 |                  677 |            1241441 |       2414652 |            23982 |        35790158 |                     0 |      41218469 | 2017-02-09 09:54:05.959359+01

 2017-02-09 11:18:16.064349+01 | 1486635496.06435 |                 0 |              17 |                  9865 |                  677 |            1241441 |       2415152 |            23987 |        35790158 |                     0 |      41228358 | 2017-02-09 09:54:05.959359+01

 2017-02-09 11:18:17.206333+01 | 1486635497.20633 |                 0 |              17 |                  9865 |                  677 |            1241441 |       2415752 |            23993 |        35790158 |                     0 |      41240346 | 2017-02-09 09:54:05.959359+01

 2017-02-09 11:18:18.355617+01 | 1486635498.35562 |                 0 |              17 |                  9865 |                  677 |            1241441 |       2416352 |            23999 |        35851897 |                     0 |      41252326 | 2017-02-09 09:54:05.959359+01

 2017-02-09 11:18:19.465892+01 | 1486635499.46589 |                 0 |              17 |                  9865 |                  677 |            1241441 |       2416852 |            24004 |        35851897 |                     0 |      41262437 | 2017-02-09 09:54:05.959359+01

 2017-02-09 11:18:20.649513+01 | 1486635500.64951 |                 0 |              17 |                  9865 |                  677 |            1241441 |       2417452 |            24010 |        35851897 |                     0 |      41274112 | 2017-02-09 09:54:05.959359+01

 2017-02-09 11:18:21.786121+01 | 1486635501.78612 |                 0 |              17 |                  9865 |                  677 |            1241441 |       2418052 |            24016 |        35851897 |                     0 |      41286102 | 2017-02-09 09:54:05.959359+01

 2017-02-09 11:18:22.984864+01 | 1486635502.98486 |                 0 |              17 |                  9865 |                  677 |            1241441 |       2418652 |            24022 |        35851897 |                     0 |      41297829 | 2017-02-09 09:54:05.959359+01

 2017-02-09 11:18:24.139255+01 | 1486635504.13926 |                 0 |              17 |                  9865 |                  677 |            1241441 |       2419152 |            24027 |        35851897 |                     0 |      41307788 | 2017-02-09 09:54:05.959359+01

 2017-02-09 11:18:25.321797+01 | 1486635505.3218 |                 0 |              17 |                  9865 |                  677 |            1241441 |       2419752 |            24033 |        35913783 |                     0 |      41319657 | 2017-02-09 09:54:05.959359+01

 2017-02-09 11:18:26.468114+01 | 1486635506.46811 |                 0 |              17 |                  9865 |                  677 |            1241441 |       2420352 |            24039 |        35913783 |                     0 |      41331887 | 2017-02-09 09:54:05.959359+01

 2017-02-09 11:18:27.585379+01 | 1486635507.58538 |                 0 |              17 |                  9865 |                  677 |            1241441 |       2420952 |            24045 |        35913783 |                     0 |      41343580 | 2017-02-09 09:54:05.959359+01

 2017-02-09 11:18:28.766686+01 | 1486635508.76669 |                 0 |              17 |                  9865 |                  677 |            1241441 |       2421452 |            24050 |        35913783 |                     0 |      41353507 | 2017-02-09 09:54:05.959359+01

 2017-02-09 11:18:29.971642+01 | 1486635509.97164 |                 0 |              17 |                  9865 |                  677 |            1241441 |       2422052 |            24056 |        35913783 |                     0 |      41365503 | 2017-02-09 09:54:05.959359+01

 2017-02-09 11:18:31.142999+01 | 1486635511.143 |                 0 |              17 |                  9865 |                  677 |            1241441 |       2422652 |            24062 |        35913783 |                     0 |      41377402 | 2017-02-09 09:54:05.959359+01

 2017-02-09 11:18:32.325918+01 | 1486635512.32592 |                 0 |              17 |                  9865 |                  677 |            1241441 |       2423252 |            24068 |        35913783 |                     0 |      41389335 | 2017-02-09 09:54:05.959359+01

 2017-02-09 11:18:33.473941+01 | 1486635513.47394 |                 0 |              17 |                  9865 |                  677 |            1241441 |       2423852 |            24074 |        35975572 |                     0 |      41401263 | 2017-02-09 09:54:05.959359+01

 2017-02-09 11:18:34.573419+01 | 1486635514.57342 |                 0 |              17 |                  9865 |                  677 |            1241441 |       2424352 |            24079 |        35975572 |                     0 |      41411151 | 2017-02-09 09:54:05.959359+01

 2017-02-09 11:18:35.742845+01 | 1486635515.74285 |                 0 |              17 |                  9865 |                  677 |            1241441 |       2424952 |            24085 |        35975572 |                     0 |      41423189 | 2017-02-09 09:54:05.959359+01

 2017-02-09 11:18:36.947479+01 | 1486635516.94748 |                 0 |              17 |                  9865 |                  677 |            1241441 |       2425552 |            24091 |        35975572 |                     0 |      41434906 | 2017-02-09 09:54:05.959359+01

 2017-02-09 11:18:38.151659+01 | 1486635518.15166 |                 0 |              17 |                  9865 |                  677 |            1241441 |       2426152 |            24097 |        35975572 |                     0 |      41447101 | 2017-02-09 09:54:05.959359+01

 2017-02-09 11:18:39.339024+01 | 1486635519.33902 |                 0 |              17 |                  9865 |                  677 |            1241441 |       2426752 |            24103 |        35975572 |                     0 |      41459388 | 2017-02-09 09:54:05.959359+01

 2017-02-09 11:18:40.491254+01 | 1486635520.49125 |                 0 |              17 |                  9865 |                  677 |            1241441 |       2427352 |            24109 |        36037409 |                     0 |      41471727 | 2017-02-09 09:54:05.959359+01

 2017-02-09 11:18:41.617267+01 | 1486635521.61727 |                 0 |              17 |                  9865 |                  677 |            1241441 |       2427852 |            24114 |        36037409 |                     0 |      41482000 | 2017-02-09 09:54:05.959359+01

 2017-02-09 11:18:42.763941+01 | 1486635522.76394 |                 0 |              17 |                  9865 |                  677 |            1241441 |       2428452 |            24120 |        36037409 |                     0 |      41495277 | 2017-02-09 09:54:05.959359+01

 2017-02-09 11:18:43.922341+01 | 1486635523.92234 |                 0 |              17 |                  9865 |                  677 |            1241441 |       2429052 |            24126 |        36037409 |                     0 |      41508294 | 2017-02-09 09:54:05.959359+01

 2017-02-09 11:18:45.09219+01 | 1486635525.09219 |                 0 |              17 |                  9865 |                  677 |            1241441 |       2429652 |            24132 |        36037409 |                     0 |      41521942 | 2017-02-09 09:54:05.959359+01

 2017-02-09 11:18:46.316199+01 | 1486635526.3162 |                 0 |              17 |                  9865 |                  677 |            1241441 |       2430252 |            24138 |        36037409 |                     0 |      41534468 | 2017-02-09 09:54:05.959359+01

 2017-02-09 11:18:47.524922+01 | 1486635527.52492 |                 0 |              17 |                  9865 |                  677 |            1241441 |       2430752 |            24143 |        36037409 |                     0 |      41544558 | 2017-02-09 09:54:05.959359+01

 2017-02-09 11:18:48.666203+01 | 1486635528.6662 |                 0 |              17 |                  9865 |                  677 |            1241441 |       2431352 |            24149 |        36099247 |                     0 |      41556828 | 2017-02-09 09:54:05.959359+01

 2017-02-09 11:18:49.766163+01 | 1486635529.76616 |                 0 |              17 |                  9865 |                  677 |            1241441 |       2431952 |            24155 |        36099247 |                     0 |      41569268 | 2017-02-09 09:54:05.959359+01

 2017-02-09 11:18:50.89191+01 | 1486635530.89191 |                 0 |              17 |                  9865 |                  677 |            1241441 |       2432552 |            24161 |        36099247 |                     0 |      41581607 | 2017-02-09 09:54:05.959359+01

 2017-02-09 11:18:52.128778+01 | 1486635532.12878 |                 0 |              17 |                  9865 |                  677 |            1241441 |       2433052 |            24166 |        36099247 |                     0 |      41591966 | 2017-02-09 09:54:05.959359+01

 2017-02-09 11:18:53.295309+01 | 1486635533.29531 |                 0 |              17 |                  9865 |                  677 |            1241441 |       2433652 |            24172 |        36099247 |                     0 |      41603934 | 2017-02-09 09:54:05.959359+01

 2017-02-09 11:18:54.483847+01 | 1486635534.48385 |                 0 |              17 |                  9865 |                  677 |            1241441 |       2434252 |            24178 |        36099247 |                     0 |      41616161 | 2017-02-09 09:54:05.959359+01

 2017-02-09 11:18:55.679759+01 | 1486635535.67976 |                 0 |              17 |                  9865 |                  677 |            1241441 |       2434852 |            24184 |        36160986 |                     0 |      41628438 | 2017-02-09 09:54:05.959359+01

 2017-02-09 11:18:56.881892+01 | 1486635536.88189 |                 0 |              17 |                  9865 |                  677 |            1241441 |       2435452 |            24190 |        36160986 |                     0 |      41640635 | 2017-02-09 09:54:05.959359+01

 2017-02-09 11:18:57.974153+01 | 1486635537.97415 |                 0 |              17 |                  9865 |                  677 |            1241441 |       2436052 |            24196 |        36160986 |                     0 |      41652698 | 2017-02-09 09:54:05.959359+01

 2017-02-09 11:18:59.076331+01 | 1486635539.07633 |                 0 |              17 |                  9865 |                  677 |            1241441 |       2436552 |            24201 |        36160986 |                     0 |      41662813 | 2017-02-09 09:54:05.959359+01

 2017-02-09 11:19:00.286678+01 | 1486635540.28668 |                 0 |              17 |                  9865 |                  677 |            1241441 |       2437152 |            24207 |        36160986 |                     0 |      41674577 | 2017-02-09 09:54:05.959359+01

 2017-02-09 11:19:01.44652+01 | 1486635541.44652 |                 0 |              17 |                  9865 |                  677 |            1241441 |       2437752 |            24213 |        36160986 |                     0 |      41686817 | 2017-02-09 09:54:05.959359+01

 2017-02-09 11:19:02.617813+01 | 1486635542.61781 |                 0 |              17 |                  9865 |                  677 |            1241441 |       2438352 |            24219 |        36160986 |                     0 |      41699061 | 2017-02-09 09:54:05.959359+01

 2017-02-09 11:19:03.814858+01 | 1486635543.81486 |                 0 |              17 |                  9865 |                  677 |            1241441 |       2438952 |            24225 |        36222824 |                     0 |      41711426 | 2017-02-09 09:54:05.959359+01

 2017-02-09 11:19:04.983052+01 | 1486635544.98305 |                 0 |              17 |                  9865 |                  677 |            1241441 |       2439552 |            24231 |        36222824 |                     0 |      41723285 | 2017-02-09 09:54:05.959359+01

 2017-02-09 11:19:06.127128+01 | 1486635546.12713 |                 0 |              17 |                  9865 |                  677 |            1241441 |       2440052 |            24236 |        36222824 |                     0 |      41733230 | 2017-02-09 09:54:05.959359+01

 2017-02-09 11:19:07.292899+01 | 1486635547.2929 |                 0 |              17 |                  9865 |                  677 |            1241441 |       2440652 |            24242 |        36222824 |                     0 |      41745562 | 2017-02-09 09:54:05.959359+01

 2017-02-09 11:19:08.459747+01 | 1486635548.45975 |                 0 |              17 |                  9865 |                  677 |            1241441 |       2441252 |            24248 |        36222824 |                     0 |      41757725 | 2017-02-09 09:54:05.959359+01

 2017-02-09 11:19:09.64313+01 | 1486635549.64313 |                 0 |              17 |                  9865 |                  677 |            1241441 |       2441852 |            24254 |        36222824 |                     0 |      41769867 | 2017-02-09 09:54:05.959359+01

 2017-02-09 11:19:10.788202+01 | 1486635550.7882 |                 0 |              17 |                  9865 |                  677 |            1241441 |       2442352 |            24259 |        36284660 |                     0 |      41780100 | 2017-02-09 09:54:05.959359+01

 2017-02-09 11:19:11.905411+01 | 1486635551.90541 |                 0 |              17 |                  9865 |                  677 |            1241441 |       2442952 |            24265 |        36284660 |                     0 |      41792415 | 2017-02-09 09:54:05.959359+01

 2017-02-09 11:19:13.040301+01 | 1486635553.0403 |                 0 |              17 |                  9865 |                  677 |            1241441 |       2443552 |            24271 |        36284660 |                     0 |      41804292 | 2017-02-09 09:54:05.959359+01

 2017-02-09 11:19:14.221021+01 | 1486635554.22102 |                 0 |              17 |                  9865 |                  677 |            1241441 |       2444052 |            24276 |        36284660 |                     0 |      41814467 | 2017-02-09 09:54:05.959359+01

 2017-02-09 11:19:15.395868+01 | 1486635555.39587 |                 0 |              17 |                  9865 |                  677 |            1241441 |       2444652 |            24282 |        36284660 |                     0 |      41826833 | 2017-02-09 09:54:05.959359+01

 2017-02-09 11:19:16.556007+01 | 1486635556.55601 |                 0 |              17 |                  9865 |                  677 |            1241441 |       2445252 |            24288 |        36284660 |                     0 |      41839061 | 2017-02-09 09:54:05.959359+01

 2017-02-09 11:19:17.747317+01 | 1486635557.74732 |                 0 |              17 |                  9865 |                  677 |            1241441 |       2445852 |            24294 |        36346597 |                     0 |      41851332 | 2017-02-09 09:54:05.959359+01

 2017-02-09 11:19:18.897576+01 | 1486635558.89758 |                 0 |              17 |                  9865 |                  677 |            1241441 |       2446452 |            24300 |        36346597 |                     0 |      41863662 | 2017-02-09 09:54:05.959359+01

 2017-02-09 11:19:20.062628+01 | 1486635560.06263 |                 0 |              17 |                  9865 |                  677 |            1241441 |       2446952 |            24305 |        36346597 |                     0 |      41873821 | 2017-02-09 09:54:05.959359+01

 2017-02-09 11:19:21.273683+01 | 1486635561.27368 |                 0 |              17 |                  9865 |                  677 |            1241441 |       2447552 |            24311 |        36346597 |                     0 |      41885763 | 2017-02-09 09:54:05.959359+01

 2017-02-09 11:19:22.459335+01 | 1486635562.45934 |                 0 |              17 |                  9865 |                  677 |            1241441 |       2448152 |            24317 |        36346597 |                     0 |      41898087 | 2017-02-09 09:54:05.959359+01

 2017-02-09 11:19:23.66375+01 | 1486635563.66375 |                 0 |              17 |                  9865 |                  677 |            1241441 |       2448752 |            24323 |        36346597 |                     0 |      41910377 | 2017-02-09 09:54:05.959359+01

 2017-02-09 11:19:24.862989+01 | 1486635564.86299 |                 0 |              17 |                  9865 |                  677 |            1241441 |       2449352 |            24329 |        36408433 |                     0 |      41922529 | 2017-02-09 09:54:05.959359+01

 2017-02-09 11:19:25.956358+01 | 1486635565.95636 |                 0 |              17 |                  9865 |                  677 |            1241441 |       2449952 |            24335 |        36408433 |                     0 |      41934606 | 2017-02-09 09:54:05.959359+01

 2017-02-09 11:19:27.13002+01 | 1486635567.13002 |                 0 |              17 |                  9865 |                  677 |            1241441 |       2450552 |            24341 |        36408433 |                     0 |      41946390 | 2017-02-09 09:54:05.959359+01

 2017-02-09 11:19:28.34381+01 | 1486635568.34381 |                 0 |              17 |                  9865 |                  677 |            1241441 |       2451052 |            24346 |        36408433 |                     0 |      41956619 | 2017-02-09 09:54:05.959359+01

 2017-02-09 11:19:29.532732+01 | 1486635569.53273 |                 0 |              17 |                  9865 |                  677 |            1241441 |       2451652 |            24352 |        36408433 |                     0 |      41969013 | 2017-02-09 09:54:05.959359+01

 2017-02-09 11:19:30.747125+01 | 1486635570.74712 |                 0 |              17 |                  9865 |                  677 |            1241441 |       2452252 |            24358 |        36408433 |                     0 |      41981393 | 2017-02-09 09:54:05.959359+01

 2017-02-09 11:19:31.876072+01 | 1486635571.87607 |                 0 |              17 |                  9865 |                  677 |            1241441 |       2452852 |            24364 |        36408433 |                     0 |      41993681 | 2017-02-09 09:54:05.959359+01

 2017-02-09 11:19:32.980087+01 | 1486635572.98009 |                 0 |              17 |                  9865 |                  677 |            1241441 |       2453452 |            24370 |        36470269 |                     0 |      42005859 | 2017-02-09 09:54:05.959359+01

 2017-02-09 11:19:34.153656+01 | 1486635574.15366 |                 0 |              17 |                  9865 |                  677 |            1241441 |       2454052 |            24376 |        36470269 |                     0 |      42017702 | 2017-02-09 09:54:05.959359+01

 2017-02-09 11:19:35.264008+01 | 1486635575.26401 |                 0 |              17 |                  9865 |                  677 |            1241441 |       2454552 |            24381 |        36470269 |                     0 |      42027788 | 2017-02-09 09:54:05.959359+01

 2017-02-09 11:19:36.481366+01 | 1486635576.48137 |                 0 |              17 |                  9865 |                  677 |            1241441 |       2455152 |            24387 |        36470269 |                     0 |      42039985 | 2017-02-09 09:54:05.959359+01

 2017-02-09 11:19:37.659442+01 | 1486635577.65944 |                 0 |              17 |                  9865 |                  677 |            1241441 |       2455752 |            24393 |        36470269 |                     0 |      42052376 | 2017-02-09 09:54:05.959359+01

 2017-02-09 11:19:38.889245+01 | 1486635578.88925 |                 0 |              17 |                  9865 |                  677 |            1241441 |       2456352 |            24399 |        36470269 |                     0 |      42064519 | 2017-02-09 09:54:05.959359+01

 2017-02-09 11:19:40.093781+01 | 1486635580.09378 |                 0 |              17 |                  9865 |                  677 |            1241441 |       2456952 |            24405 |        36532105 |                     0 |      42077036 | 2017-02-09 09:54:05.959359+01

 2017-02-09 11:19:41.239054+01 | 1486635581.23905 |                 0 |              17 |                  9865 |                  677 |            1241441 |       2457552 |            24411 |        36532105 |                     0 |      42089862 | 2017-02-09 09:54:05.959359+01

 2017-02-09 11:19:42.414602+01 | 1486635582.4146 |                 0 |              17 |                  9865 |                  677 |            1241441 |       2458152 |            24417 |        36532105 |                     0 |      42102677 | 2017-02-09 09:54:05.959359+01

 2017-02-09 11:19:43.591162+01 | 1486635583.59116 |                 0 |              17 |                  9865 |                  677 |            1241441 |       2458652 |            24422 |        36532105 |                     0 |      42114289 | 2017-02-09 09:54:05.959359+01

 2017-02-09 11:19:44.813476+01 | 1486635584.81348 |                 0 |              17 |                  9865 |                  677 |            1241441 |       2459252 |            24428 |        36532105 |                     0 |      42128234 | 2017-02-09 09:54:05.959359+01

 2017-02-09 11:19:45.94356+01 | 1486635585.94356 |                 0 |              17 |                  9865 |                  677 |            1241441 |       2459852 |            24434 |        36532105 |                     0 |      42142287 | 2017-02-09 09:54:05.959359+01

 2017-02-09 11:19:47.092786+01 | 1486635587.09279 |                 0 |              17 |                  9865 |                  677 |            1241441 |       2460452 |            24440 |        36594042 |                     0 |      42156047 | 2017-02-09 09:54:05.959359+01

 2017-02-09 11:19:48.286837+01 | 1486635588.28684 |                 0 |              17 |                  9865 |                  677 |            1241441 |       2461052 |            24446 |        36594042 |                     0 |      42168625 | 2017-02-09 09:54:05.959359+01

 2017-02-09 11:19:49.460733+01 | 1486635589.46073 |                 0 |              17 |                  9865 |                  677 |            1241441 |       2461652 |            24452 |        36594042 |                     0 |      42181130 | 2017-02-09 09:54:05.959359+01

 2017-02-09 11:19:50.616441+01 | 1486635590.61644 |                 0 |              17 |                  9865 |                  677 |            1241441 |       2462252 |            24458 |        36594042 |                     0 |      42193711 | 2017-02-09 09:54:05.959359+01

 2017-02-09 11:19:51.781509+01 | 1486635591.78151 |                 0 |              17 |                  9865 |                  677 |            1241441 |       2462752 |            24463 |        36594042 |                     0 |      42204147 | 2017-02-09 09:54:05.959359+01

 2017-02-09 11:19:52.975773+01 | 1486635592.97577 |                 0 |              17 |                  9865 |                  677 |            1241441 |       2463352 |            24469 |        36594042 |                     0 |      42216631 | 2017-02-09 09:54:05.959359+01

 2017-02-09 11:19:54.122445+01 | 1486635594.12245 |                 0 |              17 |                  9865 |                  677 |            1241441 |       2463952 |            24475 |        36594042 |                     0 |      42229139 | 2017-02-09 09:54:05.959359+01

 2017-02-09 11:19:55.302881+01 | 1486635595.30288 |                 0 |              17 |                  9865 |                  677 |            1241441 |       2464552 |            24481 |        36655578 |                     0 |      42241630 | 2017-02-09 09:54:05.959359+01

 2017-02-09 11:19:56.515445+01 | 1486635596.51544 |                 0 |              17 |                  9865 |                  677 |            1241441 |       2465152 |            24487 |        36655578 |                     0 |      42253995 | 2017-02-09 09:54:05.959359+01

 2017-02-09 11:19:57.66281+01 | 1486635597.66281 |                 0 |              17 |                  9865 |                  677 |            1241441 |       2465752 |            24493 |        36655578 |                     0 |      42266263 | 2017-02-09 09:54:05.959359+01

 2017-02-09 11:19:58.834744+01 | 1486635598.83474 |                 0 |              17 |                  9865 |                  677 |            1241441 |       2466252 |            24498 |        36655578 |                     0 |      42276368 | 2017-02-09 09:54:05.959359+01

 2017-02-09 11:19:59.997143+01 | 1486635599.99714 |                 0 |              17 |                  9865 |                  677 |            1241441 |       2466852 |            24504 |        36655578 |                     0 |      42288675 | 2017-02-09 09:54:05.959359+01

 2017-02-09 11:20:01.201712+01 | 1486635601.20171 |                 0 |              17 |                  9865 |                  677 |            1241441 |       2467452 |            24510 |        36655578 |                     0 |      42301145 | 2017-02-09 09:54:05.959359+01

 2017-02-09 11:20:02.331719+01 | 1486635602.33172 |                 0 |              17 |                  9865 |                  677 |            1241441 |       2468052 |            24516 |        36717514 |                     0 |      42313387 | 2017-02-09 09:54:05.959359+01

 2017-02-09 11:20:03.543911+01 | 1486635603.54391 |                 0 |              17 |                  9865 |                  677 |            1241441 |       2468552 |            24521 |        36717514 |                     0 |      42323508 | 2017-02-09 09:54:05.959359+01

 2017-02-09 11:20:04.665928+01 | 1486635604.66593 |                 0 |              17 |                  9865 |                  677 |            1241441 |       2469152 |            24527 |        36717514 |                     0 |      42336052 | 2017-02-09 09:54:05.959359+01

 2017-02-09 11:20:05.792753+01 | 1486635605.79275 |                 0 |              17 |                  9865 |                  677 |            1241441 |       2469752 |            24533 |        36717514 |                     0 |      42347943 | 2017-02-09 09:54:05.959359+01

 2017-02-09 11:20:06.968304+01 | 1486635606.9683 |                 0 |              17 |                  9865 |                  677 |            1241441 |       2470352 |            24539 |        36717514 |                     0 |      42360265 | 2017-02-09 09:54:05.959359+01

 2017-02-09 11:20:08.091344+01 | 1486635608.09134 |                 0 |              17 |                  9865 |                  677 |            1241441 |       2470952 |            24545 |        36717514 |                     0 |      42372484 | 2017-02-09 09:54:05.959359+01

 2017-02-09 11:20:09.26632+01 | 1486635609.26632 |                 0 |              17 |                  9865 |                  677 |            1241441 |       2471452 |            24550 |        36717514 |                     0 |      42382488 | 2017-02-09 09:54:05.959359+01

 2017-02-09 11:20:10.398062+01 | 1486635610.39806 |                 0 |              17 |                  9865 |                  677 |            1241441 |       2472052 |            24556 |        36779451 |                     0 |      42394722 | 2017-02-09 09:54:05.959359+01

