 2017-02-10 18:48:53.638618+01 | 1486748933.63862 | pgbench_branches_pkey |            16384
 2017-02-10 18:48:53.638618+01 | 1486748933.63862 | pgbench_tellers_pkey  |            90112
 2017-02-10 18:48:53.638618+01 | 1486748933.63862 | pgbench_accounts_pkey |        689405952

 2017-02-10 18:48:54.686973+01 | 1486748934.68697 | pgbench_branches_pkey |            16384
 2017-02-10 18:48:54.686973+01 | 1486748934.68697 | pgbench_tellers_pkey  |            90112
 2017-02-10 18:48:54.686973+01 | 1486748934.68697 | pgbench_accounts_pkey |        689405952

 2017-02-10 18:48:55.738388+01 | 1486748935.73839 | pgbench_branches_pkey |            16384
 2017-02-10 18:48:55.738388+01 | 1486748935.73839 | pgbench_tellers_pkey  |            90112
 2017-02-10 18:48:55.738388+01 | 1486748935.73839 | pgbench_accounts_pkey |        689405952

 2017-02-10 18:48:56.789006+01 | 1486748936.78901 | pgbench_branches_pkey |            16384
 2017-02-10 18:48:56.789006+01 | 1486748936.78901 | pgbench_tellers_pkey  |            90112
 2017-02-10 18:48:56.789006+01 | 1486748936.78901 | pgbench_accounts_pkey |        689405952

 2017-02-10 18:48:57.840914+01 | 1486748937.84091 | pgbench_branches_pkey |            16384
 2017-02-10 18:48:57.840914+01 | 1486748937.84091 | pgbench_tellers_pkey  |            90112
 2017-02-10 18:48:57.840914+01 | 1486748937.84091 | pgbench_accounts_pkey |        689405952

 2017-02-10 18:48:58.900355+01 | 1486748938.90036 | pgbench_branches_pkey |            16384
 2017-02-10 18:48:58.900355+01 | 1486748938.90036 | pgbench_tellers_pkey  |            90112
 2017-02-10 18:48:58.900355+01 | 1486748938.90036 | pgbench_accounts_pkey |        689405952

 2017-02-10 18:48:59.955106+01 | 1486748939.95511 | pgbench_branches_pkey |            16384
 2017-02-10 18:48:59.955106+01 | 1486748939.95511 | pgbench_tellers_pkey  |            90112
 2017-02-10 18:48:59.955106+01 | 1486748939.95511 | pgbench_accounts_pkey |        689405952

 2017-02-10 18:49:01.00551+01 | 1486748941.00551 | pgbench_branches_pkey |            16384
 2017-02-10 18:49:01.00551+01 | 1486748941.00551 | pgbench_tellers_pkey  |            90112
 2017-02-10 18:49:01.00551+01 | 1486748941.00551 | pgbench_accounts_pkey |        689405952

 2017-02-10 18:49:02.058629+01 | 1486748942.05863 | pgbench_branches_pkey |            16384
 2017-02-10 18:49:02.058629+01 | 1486748942.05863 | pgbench_tellers_pkey  |            90112
 2017-02-10 18:49:02.058629+01 | 1486748942.05863 | pgbench_accounts_pkey |        689405952

 2017-02-10 18:49:03.111417+01 | 1486748943.11142 | pgbench_branches_pkey |            16384
 2017-02-10 18:49:03.111417+01 | 1486748943.11142 | pgbench_tellers_pkey  |            90112
 2017-02-10 18:49:03.111417+01 | 1486748943.11142 | pgbench_accounts_pkey |        689405952

 2017-02-10 18:49:04.163172+01 | 1486748944.16317 | pgbench_branches_pkey |            16384
 2017-02-10 18:49:04.163172+01 | 1486748944.16317 | pgbench_tellers_pkey  |            90112
 2017-02-10 18:49:04.163172+01 | 1486748944.16317 | pgbench_accounts_pkey |        689405952

 2017-02-10 18:49:05.213093+01 | 1486748945.21309 | pgbench_branches_pkey |            16384
 2017-02-10 18:49:05.213093+01 | 1486748945.21309 | pgbench_tellers_pkey  |            90112
 2017-02-10 18:49:05.213093+01 | 1486748945.21309 | pgbench_accounts_pkey |        689405952

 2017-02-10 18:49:06.264831+01 | 1486748946.26483 | pgbench_branches_pkey |            16384
 2017-02-10 18:49:06.264831+01 | 1486748946.26483 | pgbench_tellers_pkey  |            90112
 2017-02-10 18:49:06.264831+01 | 1486748946.26483 | pgbench_accounts_pkey |        689405952

 2017-02-10 18:49:07.316591+01 | 1486748947.31659 | pgbench_branches_pkey |            16384
 2017-02-10 18:49:07.316591+01 | 1486748947.31659 | pgbench_tellers_pkey  |            90112
 2017-02-10 18:49:07.316591+01 | 1486748947.31659 | pgbench_accounts_pkey |        689405952

 2017-02-10 18:49:08.368596+01 | 1486748948.3686 | pgbench_branches_pkey |            16384
 2017-02-10 18:49:08.368596+01 | 1486748948.3686 | pgbench_tellers_pkey  |            90112
 2017-02-10 18:49:08.368596+01 | 1486748948.3686 | pgbench_accounts_pkey |        689405952

 2017-02-10 18:49:09.422203+01 | 1486748949.4222 | pgbench_branches_pkey |            16384
 2017-02-10 18:49:09.422203+01 | 1486748949.4222 | pgbench_tellers_pkey  |            90112
 2017-02-10 18:49:09.422203+01 | 1486748949.4222 | pgbench_accounts_pkey |        689405952

 2017-02-10 18:49:10.474002+01 | 1486748950.474 | pgbench_branches_pkey |            16384
 2017-02-10 18:49:10.474002+01 | 1486748950.474 | pgbench_tellers_pkey  |            90112
 2017-02-10 18:49:10.474002+01 | 1486748950.474 | pgbench_accounts_pkey |        689405952

 2017-02-10 18:49:11.5279+01 | 1486748951.5279 | pgbench_branches_pkey |            16384
 2017-02-10 18:49:11.5279+01 | 1486748951.5279 | pgbench_tellers_pkey  |            90112
 2017-02-10 18:49:11.5279+01 | 1486748951.5279 | pgbench_accounts_pkey |        689405952

 2017-02-10 18:49:12.581577+01 | 1486748952.58158 | pgbench_branches_pkey |            16384
 2017-02-10 18:49:12.581577+01 | 1486748952.58158 | pgbench_tellers_pkey  |            90112
 2017-02-10 18:49:12.581577+01 | 1486748952.58158 | pgbench_accounts_pkey |        689405952

 2017-02-10 18:49:13.634536+01 | 1486748953.63454 | pgbench_branches_pkey |            16384
 2017-02-10 18:49:13.634536+01 | 1486748953.63454 | pgbench_tellers_pkey  |            90112
 2017-02-10 18:49:13.634536+01 | 1486748953.63454 | pgbench_accounts_pkey |        689405952

 2017-02-10 18:49:14.68479+01 | 1486748954.68479 | pgbench_branches_pkey |            16384
 2017-02-10 18:49:14.68479+01 | 1486748954.68479 | pgbench_tellers_pkey  |            90112
 2017-02-10 18:49:14.68479+01 | 1486748954.68479 | pgbench_accounts_pkey |        689405952

 2017-02-10 18:49:15.737009+01 | 1486748955.73701 | pgbench_branches_pkey |            16384
 2017-02-10 18:49:15.737009+01 | 1486748955.73701 | pgbench_tellers_pkey  |            90112
 2017-02-10 18:49:15.737009+01 | 1486748955.73701 | pgbench_accounts_pkey |        689405952

 2017-02-10 18:49:16.791746+01 | 1486748956.79175 | pgbench_branches_pkey |            16384
 2017-02-10 18:49:16.791746+01 | 1486748956.79175 | pgbench_tellers_pkey  |            90112
 2017-02-10 18:49:16.791746+01 | 1486748956.79175 | pgbench_accounts_pkey |        689405952

 2017-02-10 18:49:17.845447+01 | 1486748957.84545 | pgbench_branches_pkey |            16384
 2017-02-10 18:49:17.845447+01 | 1486748957.84545 | pgbench_tellers_pkey  |            90112
 2017-02-10 18:49:17.845447+01 | 1486748957.84545 | pgbench_accounts_pkey |        689405952

 2017-02-10 18:49:18.898053+01 | 1486748958.89805 | pgbench_branches_pkey |            16384
 2017-02-10 18:49:18.898053+01 | 1486748958.89805 | pgbench_tellers_pkey  |            90112
 2017-02-10 18:49:18.898053+01 | 1486748958.89805 | pgbench_accounts_pkey |        689405952

 2017-02-10 18:49:19.951657+01 | 1486748959.95166 | pgbench_branches_pkey |            16384
 2017-02-10 18:49:19.951657+01 | 1486748959.95166 | pgbench_tellers_pkey  |            90112
 2017-02-10 18:49:19.951657+01 | 1486748959.95166 | pgbench_accounts_pkey |        689405952

 2017-02-10 18:49:21.003996+01 | 1486748961.004 | pgbench_branches_pkey |            16384
 2017-02-10 18:49:21.003996+01 | 1486748961.004 | pgbench_tellers_pkey  |            90112
 2017-02-10 18:49:21.003996+01 | 1486748961.004 | pgbench_accounts_pkey |        689405952

 2017-02-10 18:49:22.058338+01 | 1486748962.05834 | pgbench_branches_pkey |            16384
 2017-02-10 18:49:22.058338+01 | 1486748962.05834 | pgbench_tellers_pkey  |            90112
 2017-02-10 18:49:22.058338+01 | 1486748962.05834 | pgbench_accounts_pkey |        689405952

 2017-02-10 18:49:23.111319+01 | 1486748963.11132 | pgbench_branches_pkey |            16384
 2017-02-10 18:49:23.111319+01 | 1486748963.11132 | pgbench_tellers_pkey  |            90112
 2017-02-10 18:49:23.111319+01 | 1486748963.11132 | pgbench_accounts_pkey |        689405952

 2017-02-10 18:49:24.162523+01 | 1486748964.16252 | pgbench_branches_pkey |            16384
 2017-02-10 18:49:24.162523+01 | 1486748964.16252 | pgbench_tellers_pkey  |            90112
 2017-02-10 18:49:24.162523+01 | 1486748964.16252 | pgbench_accounts_pkey |        689405952

 2017-02-10 18:49:25.214776+01 | 1486748965.21478 | pgbench_branches_pkey |            16384
 2017-02-10 18:49:25.214776+01 | 1486748965.21478 | pgbench_tellers_pkey  |            90112
 2017-02-10 18:49:25.214776+01 | 1486748965.21478 | pgbench_accounts_pkey |        689405952

 2017-02-10 18:49:26.268589+01 | 1486748966.26859 | pgbench_branches_pkey |            16384
 2017-02-10 18:49:26.268589+01 | 1486748966.26859 | pgbench_tellers_pkey  |            90112
 2017-02-10 18:49:26.268589+01 | 1486748966.26859 | pgbench_accounts_pkey |        689405952

 2017-02-10 18:49:27.318824+01 | 1486748967.31882 | pgbench_branches_pkey |            16384
 2017-02-10 18:49:27.318824+01 | 1486748967.31882 | pgbench_tellers_pkey  |            90112
 2017-02-10 18:49:27.318824+01 | 1486748967.31882 | pgbench_accounts_pkey |        689405952

 2017-02-10 18:49:28.369145+01 | 1486748968.36914 | pgbench_branches_pkey |            16384
 2017-02-10 18:49:28.369145+01 | 1486748968.36914 | pgbench_tellers_pkey  |            90112
 2017-02-10 18:49:28.369145+01 | 1486748968.36914 | pgbench_accounts_pkey |        689405952

 2017-02-10 18:49:29.422039+01 | 1486748969.42204 | pgbench_branches_pkey |            16384
 2017-02-10 18:49:29.422039+01 | 1486748969.42204 | pgbench_tellers_pkey  |            90112
 2017-02-10 18:49:29.422039+01 | 1486748969.42204 | pgbench_accounts_pkey |        689405952

 2017-02-10 18:49:30.475126+01 | 1486748970.47513 | pgbench_branches_pkey |            16384
 2017-02-10 18:49:30.475126+01 | 1486748970.47513 | pgbench_tellers_pkey  |            90112
 2017-02-10 18:49:30.475126+01 | 1486748970.47513 | pgbench_accounts_pkey |        689405952

 2017-02-10 18:49:31.526311+01 | 1486748971.52631 | pgbench_branches_pkey |            16384
 2017-02-10 18:49:31.526311+01 | 1486748971.52631 | pgbench_tellers_pkey  |            90112
 2017-02-10 18:49:31.526311+01 | 1486748971.52631 | pgbench_accounts_pkey |        689405952

 2017-02-10 18:49:32.579432+01 | 1486748972.57943 | pgbench_branches_pkey |            16384
 2017-02-10 18:49:32.579432+01 | 1486748972.57943 | pgbench_tellers_pkey  |            90112
 2017-02-10 18:49:32.579432+01 | 1486748972.57943 | pgbench_accounts_pkey |        689405952

 2017-02-10 18:49:33.63087+01 | 1486748973.63087 | pgbench_branches_pkey |            16384
 2017-02-10 18:49:33.63087+01 | 1486748973.63087 | pgbench_tellers_pkey  |            90112
 2017-02-10 18:49:33.63087+01 | 1486748973.63087 | pgbench_accounts_pkey |        689405952

 2017-02-10 18:49:34.681953+01 | 1486748974.68195 | pgbench_branches_pkey |            16384
 2017-02-10 18:49:34.681953+01 | 1486748974.68195 | pgbench_tellers_pkey  |            90112
 2017-02-10 18:49:34.681953+01 | 1486748974.68195 | pgbench_accounts_pkey |        689405952

 2017-02-10 18:49:35.733186+01 | 1486748975.73319 | pgbench_branches_pkey |            16384
 2017-02-10 18:49:35.733186+01 | 1486748975.73319 | pgbench_tellers_pkey  |            90112
 2017-02-10 18:49:35.733186+01 | 1486748975.73319 | pgbench_accounts_pkey |        689405952

 2017-02-10 18:49:36.785588+01 | 1486748976.78559 | pgbench_branches_pkey |            16384
 2017-02-10 18:49:36.785588+01 | 1486748976.78559 | pgbench_tellers_pkey  |            90112
 2017-02-10 18:49:36.785588+01 | 1486748976.78559 | pgbench_accounts_pkey |        689405952

 2017-02-10 18:49:37.841336+01 | 1486748977.84134 | pgbench_branches_pkey |            16384
 2017-02-10 18:49:37.841336+01 | 1486748977.84134 | pgbench_tellers_pkey  |            90112
 2017-02-10 18:49:37.841336+01 | 1486748977.84134 | pgbench_accounts_pkey |        689405952

 2017-02-10 18:49:38.893367+01 | 1486748978.89337 | pgbench_branches_pkey |            16384
 2017-02-10 18:49:38.893367+01 | 1486748978.89337 | pgbench_tellers_pkey  |            90112
 2017-02-10 18:49:38.893367+01 | 1486748978.89337 | pgbench_accounts_pkey |        689405952

 2017-02-10 18:49:39.945238+01 | 1486748979.94524 | pgbench_branches_pkey |            16384
 2017-02-10 18:49:39.945238+01 | 1486748979.94524 | pgbench_tellers_pkey  |            90112
 2017-02-10 18:49:39.945238+01 | 1486748979.94524 | pgbench_accounts_pkey |        689405952

 2017-02-10 18:49:40.997979+01 | 1486748980.99798 | pgbench_branches_pkey |            16384
 2017-02-10 18:49:40.997979+01 | 1486748980.99798 | pgbench_tellers_pkey  |            90112
 2017-02-10 18:49:40.997979+01 | 1486748980.99798 | pgbench_accounts_pkey |        689405952

 2017-02-10 18:49:42.051335+01 | 1486748982.05134 | pgbench_branches_pkey |            16384
 2017-02-10 18:49:42.051335+01 | 1486748982.05134 | pgbench_tellers_pkey  |            90112
 2017-02-10 18:49:42.051335+01 | 1486748982.05134 | pgbench_accounts_pkey |        689405952

 2017-02-10 18:49:43.103444+01 | 1486748983.10344 | pgbench_branches_pkey |            16384
 2017-02-10 18:49:43.103444+01 | 1486748983.10344 | pgbench_tellers_pkey  |            90112
 2017-02-10 18:49:43.103444+01 | 1486748983.10344 | pgbench_accounts_pkey |        689405952

 2017-02-10 18:49:44.152979+01 | 1486748984.15298 | pgbench_branches_pkey |            16384
 2017-02-10 18:49:44.152979+01 | 1486748984.15298 | pgbench_tellers_pkey  |            90112
 2017-02-10 18:49:44.152979+01 | 1486748984.15298 | pgbench_accounts_pkey |        689405952

 2017-02-10 18:49:45.209531+01 | 1486748985.20953 | pgbench_branches_pkey |            16384
 2017-02-10 18:49:45.209531+01 | 1486748985.20953 | pgbench_tellers_pkey  |            90112
 2017-02-10 18:49:45.209531+01 | 1486748985.20953 | pgbench_accounts_pkey |        689405952

 2017-02-10 18:49:46.264202+01 | 1486748986.2642 | pgbench_branches_pkey |            16384
 2017-02-10 18:49:46.264202+01 | 1486748986.2642 | pgbench_tellers_pkey  |            90112
 2017-02-10 18:49:46.264202+01 | 1486748986.2642 | pgbench_accounts_pkey |        689405952

 2017-02-10 18:49:47.315817+01 | 1486748987.31582 | pgbench_branches_pkey |            16384
 2017-02-10 18:49:47.315817+01 | 1486748987.31582 | pgbench_tellers_pkey  |            90112
 2017-02-10 18:49:47.315817+01 | 1486748987.31582 | pgbench_accounts_pkey |        689405952

 2017-02-10 18:49:48.369184+01 | 1486748988.36918 | pgbench_branches_pkey |            16384
 2017-02-10 18:49:48.369184+01 | 1486748988.36918 | pgbench_tellers_pkey  |            90112
 2017-02-10 18:49:48.369184+01 | 1486748988.36918 | pgbench_accounts_pkey |        689405952

 2017-02-10 18:49:49.420212+01 | 1486748989.42021 | pgbench_branches_pkey |            16384
 2017-02-10 18:49:49.420212+01 | 1486748989.42021 | pgbench_tellers_pkey  |            90112
 2017-02-10 18:49:49.420212+01 | 1486748989.42021 | pgbench_accounts_pkey |        689405952

 2017-02-10 18:49:50.471692+01 | 1486748990.47169 | pgbench_branches_pkey |            16384
 2017-02-10 18:49:50.471692+01 | 1486748990.47169 | pgbench_tellers_pkey  |            90112
 2017-02-10 18:49:50.471692+01 | 1486748990.47169 | pgbench_accounts_pkey |        689405952

 2017-02-10 18:49:51.52451+01 | 1486748991.52451 | pgbench_branches_pkey |            16384
 2017-02-10 18:49:51.52451+01 | 1486748991.52451 | pgbench_tellers_pkey  |            90112
 2017-02-10 18:49:51.52451+01 | 1486748991.52451 | pgbench_accounts_pkey |        689405952

 2017-02-10 18:49:52.580643+01 | 1486748992.58064 | pgbench_branches_pkey |            16384
 2017-02-10 18:49:52.580643+01 | 1486748992.58064 | pgbench_tellers_pkey  |            90112
 2017-02-10 18:49:52.580643+01 | 1486748992.58064 | pgbench_accounts_pkey |        689405952

 2017-02-10 18:49:53.632235+01 | 1486748993.63224 | pgbench_branches_pkey |            16384
 2017-02-10 18:49:53.632235+01 | 1486748993.63224 | pgbench_tellers_pkey  |            90112
 2017-02-10 18:49:53.632235+01 | 1486748993.63224 | pgbench_accounts_pkey |        689405952

 2017-02-10 18:49:54.685205+01 | 1486748994.6852 | pgbench_branches_pkey |            16384
 2017-02-10 18:49:54.685205+01 | 1486748994.6852 | pgbench_tellers_pkey  |            90112
 2017-02-10 18:49:54.685205+01 | 1486748994.6852 | pgbench_accounts_pkey |        689405952

 2017-02-10 18:49:55.736765+01 | 1486748995.73676 | pgbench_branches_pkey |            16384
 2017-02-10 18:49:55.736765+01 | 1486748995.73676 | pgbench_tellers_pkey  |            90112
 2017-02-10 18:49:55.736765+01 | 1486748995.73676 | pgbench_accounts_pkey |        689405952

 2017-02-10 18:49:56.786553+01 | 1486748996.78655 | pgbench_branches_pkey |            16384
 2017-02-10 18:49:56.786553+01 | 1486748996.78655 | pgbench_tellers_pkey  |            90112
 2017-02-10 18:49:56.786553+01 | 1486748996.78655 | pgbench_accounts_pkey |        689405952

 2017-02-10 18:49:57.836694+01 | 1486748997.83669 | pgbench_branches_pkey |            16384
 2017-02-10 18:49:57.836694+01 | 1486748997.83669 | pgbench_tellers_pkey  |            90112
 2017-02-10 18:49:57.836694+01 | 1486748997.83669 | pgbench_accounts_pkey |        689405952

 2017-02-10 18:49:58.888318+01 | 1486748998.88832 | pgbench_branches_pkey |            16384
 2017-02-10 18:49:58.888318+01 | 1486748998.88832 | pgbench_tellers_pkey  |            90112
 2017-02-10 18:49:58.888318+01 | 1486748998.88832 | pgbench_accounts_pkey |        689405952

 2017-02-10 18:49:59.93844+01 | 1486748999.93844 | pgbench_branches_pkey |            16384
 2017-02-10 18:49:59.93844+01 | 1486748999.93844 | pgbench_tellers_pkey  |            90112
 2017-02-10 18:49:59.93844+01 | 1486748999.93844 | pgbench_accounts_pkey |        689405952

 2017-02-10 18:50:00.993062+01 | 1486749000.99306 | pgbench_branches_pkey |            16384
 2017-02-10 18:50:00.993062+01 | 1486749000.99306 | pgbench_tellers_pkey  |            90112
 2017-02-10 18:50:00.993062+01 | 1486749000.99306 | pgbench_accounts_pkey |        689405952

 2017-02-10 18:50:02.043709+01 | 1486749002.04371 | pgbench_branches_pkey |            16384
 2017-02-10 18:50:02.043709+01 | 1486749002.04371 | pgbench_tellers_pkey  |            90112
 2017-02-10 18:50:02.043709+01 | 1486749002.04371 | pgbench_accounts_pkey |        689405952

 2017-02-10 18:50:03.094596+01 | 1486749003.0946 | pgbench_branches_pkey |            16384
 2017-02-10 18:50:03.094596+01 | 1486749003.0946 | pgbench_tellers_pkey  |            90112
 2017-02-10 18:50:03.094596+01 | 1486749003.0946 | pgbench_accounts_pkey |        689405952

 2017-02-10 18:50:04.150577+01 | 1486749004.15058 | pgbench_branches_pkey |            16384
 2017-02-10 18:50:04.150577+01 | 1486749004.15058 | pgbench_tellers_pkey  |            90112
 2017-02-10 18:50:04.150577+01 | 1486749004.15058 | pgbench_accounts_pkey |        689405952

 2017-02-10 18:50:05.204507+01 | 1486749005.20451 | pgbench_branches_pkey |            16384
 2017-02-10 18:50:05.204507+01 | 1486749005.20451 | pgbench_tellers_pkey  |            90112
 2017-02-10 18:50:05.204507+01 | 1486749005.20451 | pgbench_accounts_pkey |        689405952

 2017-02-10 18:50:06.255192+01 | 1486749006.25519 | pgbench_branches_pkey |            16384
 2017-02-10 18:50:06.255192+01 | 1486749006.25519 | pgbench_tellers_pkey  |            90112
 2017-02-10 18:50:06.255192+01 | 1486749006.25519 | pgbench_accounts_pkey |        689405952

 2017-02-10 18:50:07.307419+01 | 1486749007.30742 | pgbench_branches_pkey |            16384
 2017-02-10 18:50:07.307419+01 | 1486749007.30742 | pgbench_tellers_pkey  |            90112
 2017-02-10 18:50:07.307419+01 | 1486749007.30742 | pgbench_accounts_pkey |        689405952

 2017-02-10 18:50:08.360014+01 | 1486749008.36001 | pgbench_branches_pkey |            16384
 2017-02-10 18:50:08.360014+01 | 1486749008.36001 | pgbench_tellers_pkey  |            90112
 2017-02-10 18:50:08.360014+01 | 1486749008.36001 | pgbench_accounts_pkey |        689405952

 2017-02-10 18:50:09.412119+01 | 1486749009.41212 | pgbench_branches_pkey |            16384
 2017-02-10 18:50:09.412119+01 | 1486749009.41212 | pgbench_tellers_pkey  |            90112
 2017-02-10 18:50:09.412119+01 | 1486749009.41212 | pgbench_accounts_pkey |        689405952

 2017-02-10 18:50:10.466393+01 | 1486749010.46639 | pgbench_branches_pkey |            16384
 2017-02-10 18:50:10.466393+01 | 1486749010.46639 | pgbench_tellers_pkey  |            90112
 2017-02-10 18:50:10.466393+01 | 1486749010.46639 | pgbench_accounts_pkey |        689405952

 2017-02-10 18:50:11.520017+01 | 1486749011.52002 | pgbench_branches_pkey |            16384
 2017-02-10 18:50:11.520017+01 | 1486749011.52002 | pgbench_tellers_pkey  |            90112
 2017-02-10 18:50:11.520017+01 | 1486749011.52002 | pgbench_accounts_pkey |        689405952

 2017-02-10 18:50:12.569503+01 | 1486749012.5695 | pgbench_branches_pkey |            16384
 2017-02-10 18:50:12.569503+01 | 1486749012.5695 | pgbench_tellers_pkey  |            90112
 2017-02-10 18:50:12.569503+01 | 1486749012.5695 | pgbench_accounts_pkey |        689405952

 2017-02-10 18:50:13.621403+01 | 1486749013.6214 | pgbench_branches_pkey |            16384
 2017-02-10 18:50:13.621403+01 | 1486749013.6214 | pgbench_tellers_pkey  |            90112
 2017-02-10 18:50:13.621403+01 | 1486749013.6214 | pgbench_accounts_pkey |        689405952

 2017-02-10 18:50:14.674645+01 | 1486749014.67464 | pgbench_branches_pkey |            16384
 2017-02-10 18:50:14.674645+01 | 1486749014.67464 | pgbench_tellers_pkey  |            90112
 2017-02-10 18:50:14.674645+01 | 1486749014.67464 | pgbench_accounts_pkey |        689405952

 2017-02-10 18:50:15.728505+01 | 1486749015.7285 | pgbench_branches_pkey |            16384
 2017-02-10 18:50:15.728505+01 | 1486749015.7285 | pgbench_tellers_pkey  |            90112
 2017-02-10 18:50:15.728505+01 | 1486749015.7285 | pgbench_accounts_pkey |        689405952

 2017-02-10 18:50:16.782568+01 | 1486749016.78257 | pgbench_branches_pkey |            16384
 2017-02-10 18:50:16.782568+01 | 1486749016.78257 | pgbench_tellers_pkey  |            90112
 2017-02-10 18:50:16.782568+01 | 1486749016.78257 | pgbench_accounts_pkey |        689405952

 2017-02-10 18:50:17.832321+01 | 1486749017.83232 | pgbench_branches_pkey |            16384
 2017-02-10 18:50:17.832321+01 | 1486749017.83232 | pgbench_tellers_pkey  |            90112
 2017-02-10 18:50:17.832321+01 | 1486749017.83232 | pgbench_accounts_pkey |        689405952

 2017-02-10 18:50:18.884741+01 | 1486749018.88474 | pgbench_branches_pkey |            16384
 2017-02-10 18:50:18.884741+01 | 1486749018.88474 | pgbench_tellers_pkey  |            90112
 2017-02-10 18:50:18.884741+01 | 1486749018.88474 | pgbench_accounts_pkey |        689405952

 2017-02-10 18:50:19.935167+01 | 1486749019.93517 | pgbench_branches_pkey |            16384
 2017-02-10 18:50:19.935167+01 | 1486749019.93517 | pgbench_tellers_pkey  |            90112
 2017-02-10 18:50:19.935167+01 | 1486749019.93517 | pgbench_accounts_pkey |        689405952

 2017-02-10 18:50:20.986195+01 | 1486749020.9862 | pgbench_branches_pkey |            16384
 2017-02-10 18:50:20.986195+01 | 1486749020.9862 | pgbench_tellers_pkey  |            90112
 2017-02-10 18:50:20.986195+01 | 1486749020.9862 | pgbench_accounts_pkey |        689405952

 2017-02-10 18:50:22.036241+01 | 1486749022.03624 | pgbench_branches_pkey |            16384
 2017-02-10 18:50:22.036241+01 | 1486749022.03624 | pgbench_tellers_pkey  |            90112
 2017-02-10 18:50:22.036241+01 | 1486749022.03624 | pgbench_accounts_pkey |        689405952

 2017-02-10 18:50:23.088613+01 | 1486749023.08861 | pgbench_branches_pkey |            16384
 2017-02-10 18:50:23.088613+01 | 1486749023.08861 | pgbench_tellers_pkey  |            90112
 2017-02-10 18:50:23.088613+01 | 1486749023.08861 | pgbench_accounts_pkey |        689405952

 2017-02-10 18:50:24.140808+01 | 1486749024.14081 | pgbench_branches_pkey |            16384
 2017-02-10 18:50:24.140808+01 | 1486749024.14081 | pgbench_tellers_pkey  |            90112
 2017-02-10 18:50:24.140808+01 | 1486749024.14081 | pgbench_accounts_pkey |        689405952

 2017-02-10 18:50:25.193143+01 | 1486749025.19314 | pgbench_branches_pkey |            16384
 2017-02-10 18:50:25.193143+01 | 1486749025.19314 | pgbench_tellers_pkey  |            90112
 2017-02-10 18:50:25.193143+01 | 1486749025.19314 | pgbench_accounts_pkey |        689405952

 2017-02-10 18:50:26.24481+01 | 1486749026.24481 | pgbench_branches_pkey |            16384
 2017-02-10 18:50:26.24481+01 | 1486749026.24481 | pgbench_tellers_pkey  |            90112
 2017-02-10 18:50:26.24481+01 | 1486749026.24481 | pgbench_accounts_pkey |        689405952

 2017-02-10 18:50:27.299003+01 | 1486749027.299 | pgbench_branches_pkey |            16384
 2017-02-10 18:50:27.299003+01 | 1486749027.299 | pgbench_tellers_pkey  |            90112
 2017-02-10 18:50:27.299003+01 | 1486749027.299 | pgbench_accounts_pkey |        689405952

 2017-02-10 18:50:28.353015+01 | 1486749028.35301 | pgbench_branches_pkey |            16384
 2017-02-10 18:50:28.353015+01 | 1486749028.35301 | pgbench_tellers_pkey  |            90112
 2017-02-10 18:50:28.353015+01 | 1486749028.35301 | pgbench_accounts_pkey |        689405952

 2017-02-10 18:50:29.407872+01 | 1486749029.40787 | pgbench_branches_pkey |            16384
 2017-02-10 18:50:29.407872+01 | 1486749029.40787 | pgbench_tellers_pkey  |            90112
 2017-02-10 18:50:29.407872+01 | 1486749029.40787 | pgbench_accounts_pkey |        689405952

 2017-02-10 18:50:30.459288+01 | 1486749030.45929 | pgbench_branches_pkey |            16384
 2017-02-10 18:50:30.459288+01 | 1486749030.45929 | pgbench_tellers_pkey  |            90112
 2017-02-10 18:50:30.459288+01 | 1486749030.45929 | pgbench_accounts_pkey |        689405952

 2017-02-10 18:50:31.511882+01 | 1486749031.51188 | pgbench_branches_pkey |            16384
 2017-02-10 18:50:31.511882+01 | 1486749031.51188 | pgbench_tellers_pkey  |            90112
 2017-02-10 18:50:31.511882+01 | 1486749031.51188 | pgbench_accounts_pkey |        689405952

 2017-02-10 18:50:32.563222+01 | 1486749032.56322 | pgbench_branches_pkey |            16384
 2017-02-10 18:50:32.563222+01 | 1486749032.56322 | pgbench_tellers_pkey  |            90112
 2017-02-10 18:50:32.563222+01 | 1486749032.56322 | pgbench_accounts_pkey |        689405952

 2017-02-10 18:50:33.613719+01 | 1486749033.61372 | pgbench_branches_pkey |            16384
 2017-02-10 18:50:33.613719+01 | 1486749033.61372 | pgbench_tellers_pkey  |            90112
 2017-02-10 18:50:33.613719+01 | 1486749033.61372 | pgbench_accounts_pkey |        689405952

 2017-02-10 18:50:34.667386+01 | 1486749034.66739 | pgbench_branches_pkey |            16384
 2017-02-10 18:50:34.667386+01 | 1486749034.66739 | pgbench_tellers_pkey  |            90112
 2017-02-10 18:50:34.667386+01 | 1486749034.66739 | pgbench_accounts_pkey |        689405952

 2017-02-10 18:50:35.72258+01 | 1486749035.72258 | pgbench_branches_pkey |            16384
 2017-02-10 18:50:35.72258+01 | 1486749035.72258 | pgbench_tellers_pkey  |            90112
 2017-02-10 18:50:35.72258+01 | 1486749035.72258 | pgbench_accounts_pkey |        689405952

 2017-02-10 18:50:36.787675+01 | 1486749036.78767 | pgbench_branches_pkey |            16384
 2017-02-10 18:50:36.787675+01 | 1486749036.78767 | pgbench_tellers_pkey  |            90112
 2017-02-10 18:50:36.787675+01 | 1486749036.78767 | pgbench_accounts_pkey |        689405952

 2017-02-10 18:50:37.839529+01 | 1486749037.83953 | pgbench_branches_pkey |            16384
 2017-02-10 18:50:37.839529+01 | 1486749037.83953 | pgbench_tellers_pkey  |            90112
 2017-02-10 18:50:37.839529+01 | 1486749037.83953 | pgbench_accounts_pkey |        689405952

 2017-02-10 18:50:38.892365+01 | 1486749038.89236 | pgbench_branches_pkey |            16384
 2017-02-10 18:50:38.892365+01 | 1486749038.89236 | pgbench_tellers_pkey  |            90112
 2017-02-10 18:50:38.892365+01 | 1486749038.89236 | pgbench_accounts_pkey |        689405952

 2017-02-10 18:50:39.947769+01 | 1486749039.94777 | pgbench_branches_pkey |            16384
 2017-02-10 18:50:39.947769+01 | 1486749039.94777 | pgbench_tellers_pkey  |            90112
 2017-02-10 18:50:39.947769+01 | 1486749039.94777 | pgbench_accounts_pkey |        689405952

 2017-02-10 18:50:41.001408+01 | 1486749041.00141 | pgbench_branches_pkey |            16384
 2017-02-10 18:50:41.001408+01 | 1486749041.00141 | pgbench_tellers_pkey  |            90112
 2017-02-10 18:50:41.001408+01 | 1486749041.00141 | pgbench_accounts_pkey |        689405952

 2017-02-10 18:50:42.057157+01 | 1486749042.05716 | pgbench_branches_pkey |            16384
 2017-02-10 18:50:42.057157+01 | 1486749042.05716 | pgbench_tellers_pkey  |            90112
 2017-02-10 18:50:42.057157+01 | 1486749042.05716 | pgbench_accounts_pkey |        689405952

 2017-02-10 18:50:43.113168+01 | 1486749043.11317 | pgbench_branches_pkey |            16384
 2017-02-10 18:50:43.113168+01 | 1486749043.11317 | pgbench_tellers_pkey  |            90112
 2017-02-10 18:50:43.113168+01 | 1486749043.11317 | pgbench_accounts_pkey |        689405952

 2017-02-10 18:50:44.164976+01 | 1486749044.16498 | pgbench_branches_pkey |            16384
 2017-02-10 18:50:44.164976+01 | 1486749044.16498 | pgbench_tellers_pkey  |            90112
 2017-02-10 18:50:44.164976+01 | 1486749044.16498 | pgbench_accounts_pkey |        689405952

 2017-02-10 18:50:45.217961+01 | 1486749045.21796 | pgbench_branches_pkey |            16384
 2017-02-10 18:50:45.217961+01 | 1486749045.21796 | pgbench_tellers_pkey  |            90112
 2017-02-10 18:50:45.217961+01 | 1486749045.21796 | pgbench_accounts_pkey |        689405952

 2017-02-10 18:50:46.271573+01 | 1486749046.27157 | pgbench_branches_pkey |            16384
 2017-02-10 18:50:46.271573+01 | 1486749046.27157 | pgbench_tellers_pkey  |            90112
 2017-02-10 18:50:46.271573+01 | 1486749046.27157 | pgbench_accounts_pkey |        689405952

 2017-02-10 18:50:47.324559+01 | 1486749047.32456 | pgbench_branches_pkey |            16384
 2017-02-10 18:50:47.324559+01 | 1486749047.32456 | pgbench_tellers_pkey  |            90112
 2017-02-10 18:50:47.324559+01 | 1486749047.32456 | pgbench_accounts_pkey |        689405952

 2017-02-10 18:50:48.377572+01 | 1486749048.37757 | pgbench_branches_pkey |            16384
 2017-02-10 18:50:48.377572+01 | 1486749048.37757 | pgbench_tellers_pkey  |            90112
 2017-02-10 18:50:48.377572+01 | 1486749048.37757 | pgbench_accounts_pkey |        689405952

 2017-02-10 18:50:49.429984+01 | 1486749049.42998 | pgbench_branches_pkey |            16384
 2017-02-10 18:50:49.429984+01 | 1486749049.42998 | pgbench_tellers_pkey  |            90112
 2017-02-10 18:50:49.429984+01 | 1486749049.42998 | pgbench_accounts_pkey |        689405952

 2017-02-10 18:50:50.484767+01 | 1486749050.48477 | pgbench_branches_pkey |            16384
 2017-02-10 18:50:50.484767+01 | 1486749050.48477 | pgbench_tellers_pkey  |            90112
 2017-02-10 18:50:50.484767+01 | 1486749050.48477 | pgbench_accounts_pkey |        689405952

 2017-02-10 18:50:51.538096+01 | 1486749051.5381 | pgbench_branches_pkey |            16384
 2017-02-10 18:50:51.538096+01 | 1486749051.5381 | pgbench_tellers_pkey  |            90112
 2017-02-10 18:50:51.538096+01 | 1486749051.5381 | pgbench_accounts_pkey |        689405952

 2017-02-10 18:50:52.592807+01 | 1486749052.59281 | pgbench_branches_pkey |            16384
 2017-02-10 18:50:52.592807+01 | 1486749052.59281 | pgbench_tellers_pkey  |            90112
 2017-02-10 18:50:52.592807+01 | 1486749052.59281 | pgbench_accounts_pkey |        689405952

 2017-02-10 18:50:53.650258+01 | 1486749053.65026 | pgbench_branches_pkey |            16384
 2017-02-10 18:50:53.650258+01 | 1486749053.65026 | pgbench_tellers_pkey  |            90112
 2017-02-10 18:50:53.650258+01 | 1486749053.65026 | pgbench_accounts_pkey |        689405952

 2017-02-10 18:50:54.705519+01 | 1486749054.70552 | pgbench_branches_pkey |            16384
 2017-02-10 18:50:54.705519+01 | 1486749054.70552 | pgbench_tellers_pkey  |            90112
 2017-02-10 18:50:54.705519+01 | 1486749054.70552 | pgbench_accounts_pkey |        689405952

 2017-02-10 18:50:55.75774+01 | 1486749055.75774 | pgbench_branches_pkey |            16384
 2017-02-10 18:50:55.75774+01 | 1486749055.75774 | pgbench_tellers_pkey  |            90112
 2017-02-10 18:50:55.75774+01 | 1486749055.75774 | pgbench_accounts_pkey |        689405952

 2017-02-10 18:50:56.809083+01 | 1486749056.80908 | pgbench_branches_pkey |            16384
 2017-02-10 18:50:56.809083+01 | 1486749056.80908 | pgbench_tellers_pkey  |            90112
 2017-02-10 18:50:56.809083+01 | 1486749056.80908 | pgbench_accounts_pkey |        689405952

 2017-02-10 18:50:57.860273+01 | 1486749057.86027 | pgbench_branches_pkey |            16384
 2017-02-10 18:50:57.860273+01 | 1486749057.86027 | pgbench_tellers_pkey  |            90112
 2017-02-10 18:50:57.860273+01 | 1486749057.86027 | pgbench_accounts_pkey |        689405952

 2017-02-10 18:50:58.91228+01 | 1486749058.91228 | pgbench_branches_pkey |            16384
 2017-02-10 18:50:58.91228+01 | 1486749058.91228 | pgbench_tellers_pkey  |            90112
 2017-02-10 18:50:58.91228+01 | 1486749058.91228 | pgbench_accounts_pkey |        689405952

 2017-02-10 18:50:59.964476+01 | 1486749059.96448 | pgbench_branches_pkey |            16384
 2017-02-10 18:50:59.964476+01 | 1486749059.96448 | pgbench_tellers_pkey  |            90112
 2017-02-10 18:50:59.964476+01 | 1486749059.96448 | pgbench_accounts_pkey |        689405952

 2017-02-10 18:51:01.018969+01 | 1486749061.01897 | pgbench_branches_pkey |            16384
 2017-02-10 18:51:01.018969+01 | 1486749061.01897 | pgbench_tellers_pkey  |            90112
 2017-02-10 18:51:01.018969+01 | 1486749061.01897 | pgbench_accounts_pkey |        689405952

 2017-02-10 18:51:02.069844+01 | 1486749062.06984 | pgbench_branches_pkey |            16384
 2017-02-10 18:51:02.069844+01 | 1486749062.06984 | pgbench_tellers_pkey  |            90112
 2017-02-10 18:51:02.069844+01 | 1486749062.06984 | pgbench_accounts_pkey |        689405952

 2017-02-10 18:51:03.119994+01 | 1486749063.11999 | pgbench_branches_pkey |            16384
 2017-02-10 18:51:03.119994+01 | 1486749063.11999 | pgbench_tellers_pkey  |            90112
 2017-02-10 18:51:03.119994+01 | 1486749063.11999 | pgbench_accounts_pkey |        689405952

 2017-02-10 18:51:04.172695+01 | 1486749064.17269 | pgbench_branches_pkey |            16384
 2017-02-10 18:51:04.172695+01 | 1486749064.17269 | pgbench_tellers_pkey  |            90112
 2017-02-10 18:51:04.172695+01 | 1486749064.17269 | pgbench_accounts_pkey |        689405952

 2017-02-10 18:51:05.226889+01 | 1486749065.22689 | pgbench_branches_pkey |            16384
 2017-02-10 18:51:05.226889+01 | 1486749065.22689 | pgbench_tellers_pkey  |            90112
 2017-02-10 18:51:05.226889+01 | 1486749065.22689 | pgbench_accounts_pkey |        689405952

 2017-02-10 18:51:06.284739+01 | 1486749066.28474 | pgbench_branches_pkey |            16384
 2017-02-10 18:51:06.284739+01 | 1486749066.28474 | pgbench_tellers_pkey  |            90112
 2017-02-10 18:51:06.284739+01 | 1486749066.28474 | pgbench_accounts_pkey |        689405952

 2017-02-10 18:51:07.341304+01 | 1486749067.3413 | pgbench_branches_pkey |            16384
 2017-02-10 18:51:07.341304+01 | 1486749067.3413 | pgbench_tellers_pkey  |            90112
 2017-02-10 18:51:07.341304+01 | 1486749067.3413 | pgbench_accounts_pkey |        689405952

 2017-02-10 18:51:08.397333+01 | 1486749068.39733 | pgbench_branches_pkey |            16384
 2017-02-10 18:51:08.397333+01 | 1486749068.39733 | pgbench_tellers_pkey  |            90112
 2017-02-10 18:51:08.397333+01 | 1486749068.39733 | pgbench_accounts_pkey |        689405952

 2017-02-10 18:51:09.4488+01 | 1486749069.4488 | pgbench_branches_pkey |            16384
 2017-02-10 18:51:09.4488+01 | 1486749069.4488 | pgbench_tellers_pkey  |            90112
 2017-02-10 18:51:09.4488+01 | 1486749069.4488 | pgbench_accounts_pkey |        689405952

 2017-02-10 18:51:10.500621+01 | 1486749070.50062 | pgbench_branches_pkey |            16384
 2017-02-10 18:51:10.500621+01 | 1486749070.50062 | pgbench_tellers_pkey  |            90112
 2017-02-10 18:51:10.500621+01 | 1486749070.50062 | pgbench_accounts_pkey |        689405952

 2017-02-10 18:51:11.558236+01 | 1486749071.55824 | pgbench_branches_pkey |            16384
 2017-02-10 18:51:11.558236+01 | 1486749071.55824 | pgbench_tellers_pkey  |            90112
 2017-02-10 18:51:11.558236+01 | 1486749071.55824 | pgbench_accounts_pkey |        689405952

 2017-02-10 18:51:12.610328+01 | 1486749072.61033 | pgbench_branches_pkey |            16384
 2017-02-10 18:51:12.610328+01 | 1486749072.61033 | pgbench_tellers_pkey  |            90112
 2017-02-10 18:51:12.610328+01 | 1486749072.61033 | pgbench_accounts_pkey |        689405952

 2017-02-10 18:51:13.660507+01 | 1486749073.66051 | pgbench_branches_pkey |            16384
 2017-02-10 18:51:13.660507+01 | 1486749073.66051 | pgbench_tellers_pkey  |            90112
 2017-02-10 18:51:13.660507+01 | 1486749073.66051 | pgbench_accounts_pkey |        689405952

 2017-02-10 18:51:14.711501+01 | 1486749074.7115 | pgbench_branches_pkey |            16384
 2017-02-10 18:51:14.711501+01 | 1486749074.7115 | pgbench_tellers_pkey  |            90112
 2017-02-10 18:51:14.711501+01 | 1486749074.7115 | pgbench_accounts_pkey |        689405952

 2017-02-10 18:51:15.768325+01 | 1486749075.76833 | pgbench_branches_pkey |            16384
 2017-02-10 18:51:15.768325+01 | 1486749075.76833 | pgbench_tellers_pkey  |            90112
 2017-02-10 18:51:15.768325+01 | 1486749075.76833 | pgbench_accounts_pkey |        689405952

 2017-02-10 18:51:16.819588+01 | 1486749076.81959 | pgbench_branches_pkey |            16384
 2017-02-10 18:51:16.819588+01 | 1486749076.81959 | pgbench_tellers_pkey  |            90112
 2017-02-10 18:51:16.819588+01 | 1486749076.81959 | pgbench_accounts_pkey |        689405952

 2017-02-10 18:51:17.87237+01 | 1486749077.87237 | pgbench_branches_pkey |            16384
 2017-02-10 18:51:17.87237+01 | 1486749077.87237 | pgbench_tellers_pkey  |            90112
 2017-02-10 18:51:17.87237+01 | 1486749077.87237 | pgbench_accounts_pkey |        689405952

 2017-02-10 18:51:18.923389+01 | 1486749078.92339 | pgbench_branches_pkey |            16384
 2017-02-10 18:51:18.923389+01 | 1486749078.92339 | pgbench_tellers_pkey  |            90112
 2017-02-10 18:51:18.923389+01 | 1486749078.92339 | pgbench_accounts_pkey |        689405952

 2017-02-10 18:51:19.975388+01 | 1486749079.97539 | pgbench_branches_pkey |            16384
 2017-02-10 18:51:19.975388+01 | 1486749079.97539 | pgbench_tellers_pkey  |            90112
 2017-02-10 18:51:19.975388+01 | 1486749079.97539 | pgbench_accounts_pkey |        689405952

 2017-02-10 18:51:21.029613+01 | 1486749081.02961 | pgbench_branches_pkey |            16384
 2017-02-10 18:51:21.029613+01 | 1486749081.02961 | pgbench_tellers_pkey  |            90112
 2017-02-10 18:51:21.029613+01 | 1486749081.02961 | pgbench_accounts_pkey |        689405952

 2017-02-10 18:51:22.083083+01 | 1486749082.08308 | pgbench_branches_pkey |            16384
 2017-02-10 18:51:22.083083+01 | 1486749082.08308 | pgbench_tellers_pkey  |            90112
 2017-02-10 18:51:22.083083+01 | 1486749082.08308 | pgbench_accounts_pkey |        689405952

 2017-02-10 18:51:23.133201+01 | 1486749083.1332 | pgbench_branches_pkey |            16384
 2017-02-10 18:51:23.133201+01 | 1486749083.1332 | pgbench_tellers_pkey  |            90112
 2017-02-10 18:51:23.133201+01 | 1486749083.1332 | pgbench_accounts_pkey |        689405952

 2017-02-10 18:51:24.182516+01 | 1486749084.18252 | pgbench_branches_pkey |            16384
 2017-02-10 18:51:24.182516+01 | 1486749084.18252 | pgbench_tellers_pkey  |            90112
 2017-02-10 18:51:24.182516+01 | 1486749084.18252 | pgbench_accounts_pkey |        689405952

 2017-02-10 18:51:25.235099+01 | 1486749085.2351 | pgbench_branches_pkey |            16384
 2017-02-10 18:51:25.235099+01 | 1486749085.2351 | pgbench_tellers_pkey  |            90112
 2017-02-10 18:51:25.235099+01 | 1486749085.2351 | pgbench_accounts_pkey |        689405952

 2017-02-10 18:51:26.288111+01 | 1486749086.28811 | pgbench_branches_pkey |            16384
 2017-02-10 18:51:26.288111+01 | 1486749086.28811 | pgbench_tellers_pkey  |            90112
 2017-02-10 18:51:26.288111+01 | 1486749086.28811 | pgbench_accounts_pkey |        689405952

 2017-02-10 18:51:27.341191+01 | 1486749087.34119 | pgbench_branches_pkey |            16384
 2017-02-10 18:51:27.341191+01 | 1486749087.34119 | pgbench_tellers_pkey  |            90112
 2017-02-10 18:51:27.341191+01 | 1486749087.34119 | pgbench_accounts_pkey |        689405952

 2017-02-10 18:51:28.395638+01 | 1486749088.39564 | pgbench_branches_pkey |            16384
 2017-02-10 18:51:28.395638+01 | 1486749088.39564 | pgbench_tellers_pkey  |            90112
 2017-02-10 18:51:28.395638+01 | 1486749088.39564 | pgbench_accounts_pkey |        689405952

 2017-02-10 18:51:29.446919+01 | 1486749089.44692 | pgbench_branches_pkey |            16384
 2017-02-10 18:51:29.446919+01 | 1486749089.44692 | pgbench_tellers_pkey  |            90112
 2017-02-10 18:51:29.446919+01 | 1486749089.44692 | pgbench_accounts_pkey |        689405952

 2017-02-10 18:51:30.497543+01 | 1486749090.49754 | pgbench_branches_pkey |            16384
 2017-02-10 18:51:30.497543+01 | 1486749090.49754 | pgbench_tellers_pkey  |            90112
 2017-02-10 18:51:30.497543+01 | 1486749090.49754 | pgbench_accounts_pkey |        689405952

 2017-02-10 18:51:31.549323+01 | 1486749091.54932 | pgbench_branches_pkey |            16384
 2017-02-10 18:51:31.549323+01 | 1486749091.54932 | pgbench_tellers_pkey  |            90112
 2017-02-10 18:51:31.549323+01 | 1486749091.54932 | pgbench_accounts_pkey |        689405952

 2017-02-10 18:51:32.603031+01 | 1486749092.60303 | pgbench_branches_pkey |            16384
 2017-02-10 18:51:32.603031+01 | 1486749092.60303 | pgbench_tellers_pkey  |            90112
 2017-02-10 18:51:32.603031+01 | 1486749092.60303 | pgbench_accounts_pkey |        689405952

 2017-02-10 18:51:33.65524+01 | 1486749093.65524 | pgbench_branches_pkey |            16384
 2017-02-10 18:51:33.65524+01 | 1486749093.65524 | pgbench_tellers_pkey  |            90112
 2017-02-10 18:51:33.65524+01 | 1486749093.65524 | pgbench_accounts_pkey |        689405952

 2017-02-10 18:51:34.704373+01 | 1486749094.70437 | pgbench_branches_pkey |            16384
 2017-02-10 18:51:34.704373+01 | 1486749094.70437 | pgbench_tellers_pkey  |            90112
 2017-02-10 18:51:34.704373+01 | 1486749094.70437 | pgbench_accounts_pkey |        689405952

 2017-02-10 18:51:35.756527+01 | 1486749095.75653 | pgbench_branches_pkey |            16384
 2017-02-10 18:51:35.756527+01 | 1486749095.75653 | pgbench_tellers_pkey  |            90112
 2017-02-10 18:51:35.756527+01 | 1486749095.75653 | pgbench_accounts_pkey |        689405952

 2017-02-10 18:51:36.807971+01 | 1486749096.80797 | pgbench_branches_pkey |            16384
 2017-02-10 18:51:36.807971+01 | 1486749096.80797 | pgbench_tellers_pkey  |            90112
 2017-02-10 18:51:36.807971+01 | 1486749096.80797 | pgbench_accounts_pkey |        689405952

 2017-02-10 18:51:37.862978+01 | 1486749097.86298 | pgbench_branches_pkey |            16384
 2017-02-10 18:51:37.862978+01 | 1486749097.86298 | pgbench_tellers_pkey  |            90112
 2017-02-10 18:51:37.862978+01 | 1486749097.86298 | pgbench_accounts_pkey |        689405952

 2017-02-10 18:51:38.917507+01 | 1486749098.91751 | pgbench_branches_pkey |            16384
 2017-02-10 18:51:38.917507+01 | 1486749098.91751 | pgbench_tellers_pkey  |            90112
 2017-02-10 18:51:38.917507+01 | 1486749098.91751 | pgbench_accounts_pkey |        689405952

 2017-02-10 18:51:39.9702+01 | 1486749099.9702 | pgbench_branches_pkey |            16384
 2017-02-10 18:51:39.9702+01 | 1486749099.9702 | pgbench_tellers_pkey  |            90112
 2017-02-10 18:51:39.9702+01 | 1486749099.9702 | pgbench_accounts_pkey |        689405952

 2017-02-10 18:51:41.025257+01 | 1486749101.02526 | pgbench_branches_pkey |            16384
 2017-02-10 18:51:41.025257+01 | 1486749101.02526 | pgbench_tellers_pkey  |            90112
 2017-02-10 18:51:41.025257+01 | 1486749101.02526 | pgbench_accounts_pkey |        689405952

 2017-02-10 18:51:42.078359+01 | 1486749102.07836 | pgbench_branches_pkey |            16384
 2017-02-10 18:51:42.078359+01 | 1486749102.07836 | pgbench_tellers_pkey  |            90112
 2017-02-10 18:51:42.078359+01 | 1486749102.07836 | pgbench_accounts_pkey |        689405952

 2017-02-10 18:51:43.131227+01 | 1486749103.13123 | pgbench_branches_pkey |            16384
 2017-02-10 18:51:43.131227+01 | 1486749103.13123 | pgbench_tellers_pkey  |            90112
 2017-02-10 18:51:43.131227+01 | 1486749103.13123 | pgbench_accounts_pkey |        689405952

 2017-02-10 18:51:44.183924+01 | 1486749104.18392 | pgbench_branches_pkey |            16384
 2017-02-10 18:51:44.183924+01 | 1486749104.18392 | pgbench_tellers_pkey  |            90112
 2017-02-10 18:51:44.183924+01 | 1486749104.18392 | pgbench_accounts_pkey |        689405952

 2017-02-10 18:51:45.236235+01 | 1486749105.23623 | pgbench_branches_pkey |            16384
 2017-02-10 18:51:45.236235+01 | 1486749105.23623 | pgbench_tellers_pkey  |            90112
 2017-02-10 18:51:45.236235+01 | 1486749105.23623 | pgbench_accounts_pkey |        689405952

 2017-02-10 18:51:46.287094+01 | 1486749106.28709 | pgbench_branches_pkey |            16384
 2017-02-10 18:51:46.287094+01 | 1486749106.28709 | pgbench_tellers_pkey  |            90112
 2017-02-10 18:51:46.287094+01 | 1486749106.28709 | pgbench_accounts_pkey |        689405952

 2017-02-10 18:51:47.338517+01 | 1486749107.33852 | pgbench_branches_pkey |            16384
 2017-02-10 18:51:47.338517+01 | 1486749107.33852 | pgbench_tellers_pkey  |            90112
 2017-02-10 18:51:47.338517+01 | 1486749107.33852 | pgbench_accounts_pkey |        689405952

 2017-02-10 18:51:48.388801+01 | 1486749108.3888 | pgbench_branches_pkey |            16384
 2017-02-10 18:51:48.388801+01 | 1486749108.3888 | pgbench_tellers_pkey  |            90112
 2017-02-10 18:51:48.388801+01 | 1486749108.3888 | pgbench_accounts_pkey |        689405952

 2017-02-10 18:51:49.441906+01 | 1486749109.44191 | pgbench_branches_pkey |            16384
 2017-02-10 18:51:49.441906+01 | 1486749109.44191 | pgbench_tellers_pkey  |            90112
 2017-02-10 18:51:49.441906+01 | 1486749109.44191 | pgbench_accounts_pkey |        689405952

 2017-02-10 18:51:50.494966+01 | 1486749110.49497 | pgbench_branches_pkey |            16384
 2017-02-10 18:51:50.494966+01 | 1486749110.49497 | pgbench_tellers_pkey  |            90112
 2017-02-10 18:51:50.494966+01 | 1486749110.49497 | pgbench_accounts_pkey |        689405952

 2017-02-10 18:51:51.548179+01 | 1486749111.54818 | pgbench_branches_pkey |            16384
 2017-02-10 18:51:51.548179+01 | 1486749111.54818 | pgbench_tellers_pkey  |            90112
 2017-02-10 18:51:51.548179+01 | 1486749111.54818 | pgbench_accounts_pkey |        689405952

 2017-02-10 18:51:52.599831+01 | 1486749112.59983 | pgbench_branches_pkey |            16384
 2017-02-10 18:51:52.599831+01 | 1486749112.59983 | pgbench_tellers_pkey  |            90112
 2017-02-10 18:51:52.599831+01 | 1486749112.59983 | pgbench_accounts_pkey |        689405952

 2017-02-10 18:51:53.652811+01 | 1486749113.65281 | pgbench_branches_pkey |            16384
 2017-02-10 18:51:53.652811+01 | 1486749113.65281 | pgbench_tellers_pkey  |            90112
 2017-02-10 18:51:53.652811+01 | 1486749113.65281 | pgbench_accounts_pkey |        689405952

 2017-02-10 18:51:54.705384+01 | 1486749114.70538 | pgbench_branches_pkey |            16384
 2017-02-10 18:51:54.705384+01 | 1486749114.70538 | pgbench_tellers_pkey  |            90112
 2017-02-10 18:51:54.705384+01 | 1486749114.70538 | pgbench_accounts_pkey |        689405952

 2017-02-10 18:51:55.761021+01 | 1486749115.76102 | pgbench_branches_pkey |            16384
 2017-02-10 18:51:55.761021+01 | 1486749115.76102 | pgbench_tellers_pkey  |            90112
 2017-02-10 18:51:55.761021+01 | 1486749115.76102 | pgbench_accounts_pkey |        689405952

 2017-02-10 18:51:56.813745+01 | 1486749116.81375 | pgbench_branches_pkey |            16384
 2017-02-10 18:51:56.813745+01 | 1486749116.81375 | pgbench_tellers_pkey  |            90112
 2017-02-10 18:51:56.813745+01 | 1486749116.81375 | pgbench_accounts_pkey |        689405952

 2017-02-10 18:51:57.865021+01 | 1486749117.86502 | pgbench_branches_pkey |            16384
 2017-02-10 18:51:57.865021+01 | 1486749117.86502 | pgbench_tellers_pkey  |            90112
 2017-02-10 18:51:57.865021+01 | 1486749117.86502 | pgbench_accounts_pkey |        689405952

 2017-02-10 18:51:58.918865+01 | 1486749118.91886 | pgbench_branches_pkey |            16384
 2017-02-10 18:51:58.918865+01 | 1486749118.91886 | pgbench_tellers_pkey  |            90112
 2017-02-10 18:51:58.918865+01 | 1486749118.91886 | pgbench_accounts_pkey |        689405952

 2017-02-10 18:51:59.968367+01 | 1486749119.96837 | pgbench_branches_pkey |            16384
 2017-02-10 18:51:59.968367+01 | 1486749119.96837 | pgbench_tellers_pkey  |            90112
 2017-02-10 18:51:59.968367+01 | 1486749119.96837 | pgbench_accounts_pkey |        689405952

 2017-02-10 18:52:01.018044+01 | 1486749121.01804 | pgbench_branches_pkey |            16384
 2017-02-10 18:52:01.018044+01 | 1486749121.01804 | pgbench_tellers_pkey  |            90112
 2017-02-10 18:52:01.018044+01 | 1486749121.01804 | pgbench_accounts_pkey |        689405952

 2017-02-10 18:52:02.062089+01 | 1486749122.06209 | pgbench_branches_pkey |            16384
 2017-02-10 18:52:02.062089+01 | 1486749122.06209 | pgbench_tellers_pkey  |            90112
 2017-02-10 18:52:02.062089+01 | 1486749122.06209 | pgbench_accounts_pkey |        689405952

 2017-02-10 18:52:03.114666+01 | 1486749123.11467 | pgbench_branches_pkey |            16384
 2017-02-10 18:52:03.114666+01 | 1486749123.11467 | pgbench_tellers_pkey  |            90112
 2017-02-10 18:52:03.114666+01 | 1486749123.11467 | pgbench_accounts_pkey |        689405952

 2017-02-10 18:52:04.167735+01 | 1486749124.16774 | pgbench_branches_pkey |            16384
 2017-02-10 18:52:04.167735+01 | 1486749124.16774 | pgbench_tellers_pkey  |            90112
 2017-02-10 18:52:04.167735+01 | 1486749124.16774 | pgbench_accounts_pkey |        689405952

 2017-02-10 18:52:05.237993+01 | 1486749125.23799 | pgbench_branches_pkey |            16384
 2017-02-10 18:52:05.237993+01 | 1486749125.23799 | pgbench_tellers_pkey  |            90112
 2017-02-10 18:52:05.237993+01 | 1486749125.23799 | pgbench_accounts_pkey |        689405952

 2017-02-10 18:52:06.289733+01 | 1486749126.28973 | pgbench_branches_pkey |            16384
 2017-02-10 18:52:06.289733+01 | 1486749126.28973 | pgbench_tellers_pkey  |            90112
 2017-02-10 18:52:06.289733+01 | 1486749126.28973 | pgbench_accounts_pkey |        689405952

 2017-02-10 18:52:07.341912+01 | 1486749127.34191 | pgbench_branches_pkey |            16384
 2017-02-10 18:52:07.341912+01 | 1486749127.34191 | pgbench_tellers_pkey  |            90112
 2017-02-10 18:52:07.341912+01 | 1486749127.34191 | pgbench_accounts_pkey |        689405952

 2017-02-10 18:52:08.391204+01 | 1486749128.3912 | pgbench_branches_pkey |            16384
 2017-02-10 18:52:08.391204+01 | 1486749128.3912 | pgbench_tellers_pkey  |            90112
 2017-02-10 18:52:08.391204+01 | 1486749128.3912 | pgbench_accounts_pkey |        689405952

 2017-02-10 18:52:09.444001+01 | 1486749129.444 | pgbench_branches_pkey |            16384
 2017-02-10 18:52:09.444001+01 | 1486749129.444 | pgbench_tellers_pkey  |            90112
 2017-02-10 18:52:09.444001+01 | 1486749129.444 | pgbench_accounts_pkey |        689405952

 2017-02-10 18:52:10.494878+01 | 1486749130.49488 | pgbench_branches_pkey |            16384
 2017-02-10 18:52:10.494878+01 | 1486749130.49488 | pgbench_tellers_pkey  |            90112
 2017-02-10 18:52:10.494878+01 | 1486749130.49488 | pgbench_accounts_pkey |        689405952

 2017-02-10 18:52:11.545519+01 | 1486749131.54552 | pgbench_branches_pkey |            16384
 2017-02-10 18:52:11.545519+01 | 1486749131.54552 | pgbench_tellers_pkey  |            90112
 2017-02-10 18:52:11.545519+01 | 1486749131.54552 | pgbench_accounts_pkey |        689405952

 2017-02-10 18:52:12.597441+01 | 1486749132.59744 | pgbench_branches_pkey |            16384
 2017-02-10 18:52:12.597441+01 | 1486749132.59744 | pgbench_tellers_pkey  |            90112
 2017-02-10 18:52:12.597441+01 | 1486749132.59744 | pgbench_accounts_pkey |        689405952

 2017-02-10 18:52:13.650149+01 | 1486749133.65015 | pgbench_branches_pkey |            16384
 2017-02-10 18:52:13.650149+01 | 1486749133.65015 | pgbench_tellers_pkey  |            90112
 2017-02-10 18:52:13.650149+01 | 1486749133.65015 | pgbench_accounts_pkey |        689405952

 2017-02-10 18:52:14.702314+01 | 1486749134.70231 | pgbench_branches_pkey |            16384
 2017-02-10 18:52:14.702314+01 | 1486749134.70231 | pgbench_tellers_pkey  |            90112
 2017-02-10 18:52:14.702314+01 | 1486749134.70231 | pgbench_accounts_pkey |        689405952

 2017-02-10 18:52:15.753301+01 | 1486749135.7533 | pgbench_branches_pkey |            16384
 2017-02-10 18:52:15.753301+01 | 1486749135.7533 | pgbench_tellers_pkey  |            90112
 2017-02-10 18:52:15.753301+01 | 1486749135.7533 | pgbench_accounts_pkey |        689405952

 2017-02-10 18:52:16.804576+01 | 1486749136.80458 | pgbench_branches_pkey |            16384
 2017-02-10 18:52:16.804576+01 | 1486749136.80458 | pgbench_tellers_pkey  |            90112
 2017-02-10 18:52:16.804576+01 | 1486749136.80458 | pgbench_accounts_pkey |        689405952

 2017-02-10 18:52:17.85878+01 | 1486749137.85878 | pgbench_branches_pkey |            16384
 2017-02-10 18:52:17.85878+01 | 1486749137.85878 | pgbench_tellers_pkey  |            90112
 2017-02-10 18:52:17.85878+01 | 1486749137.85878 | pgbench_accounts_pkey |        689405952

 2017-02-10 18:52:18.913871+01 | 1486749138.91387 | pgbench_branches_pkey |            16384
 2017-02-10 18:52:18.913871+01 | 1486749138.91387 | pgbench_tellers_pkey  |            90112
 2017-02-10 18:52:18.913871+01 | 1486749138.91387 | pgbench_accounts_pkey |        689405952

 2017-02-10 18:52:19.965133+01 | 1486749139.96513 | pgbench_branches_pkey |            16384
 2017-02-10 18:52:19.965133+01 | 1486749139.96513 | pgbench_tellers_pkey  |            90112
 2017-02-10 18:52:19.965133+01 | 1486749139.96513 | pgbench_accounts_pkey |        689405952

 2017-02-10 18:52:21.017513+01 | 1486749141.01751 | pgbench_branches_pkey |            16384
 2017-02-10 18:52:21.017513+01 | 1486749141.01751 | pgbench_tellers_pkey  |            90112
 2017-02-10 18:52:21.017513+01 | 1486749141.01751 | pgbench_accounts_pkey |        689405952

 2017-02-10 18:52:22.082255+01 | 1486749142.08225 | pgbench_branches_pkey |            16384
 2017-02-10 18:52:22.082255+01 | 1486749142.08225 | pgbench_tellers_pkey  |            90112
 2017-02-10 18:52:22.082255+01 | 1486749142.08225 | pgbench_accounts_pkey |        689405952

 2017-02-10 18:52:23.134315+01 | 1486749143.13432 | pgbench_branches_pkey |            16384
 2017-02-10 18:52:23.134315+01 | 1486749143.13432 | pgbench_tellers_pkey  |            90112
 2017-02-10 18:52:23.134315+01 | 1486749143.13432 | pgbench_accounts_pkey |        689405952

 2017-02-10 18:52:24.187058+01 | 1486749144.18706 | pgbench_branches_pkey |            16384
 2017-02-10 18:52:24.187058+01 | 1486749144.18706 | pgbench_tellers_pkey  |            90112
 2017-02-10 18:52:24.187058+01 | 1486749144.18706 | pgbench_accounts_pkey |        689405952

 2017-02-10 18:52:25.240346+01 | 1486749145.24035 | pgbench_branches_pkey |            16384
 2017-02-10 18:52:25.240346+01 | 1486749145.24035 | pgbench_tellers_pkey  |            90112
 2017-02-10 18:52:25.240346+01 | 1486749145.24035 | pgbench_accounts_pkey |        689405952

 2017-02-10 18:52:26.294275+01 | 1486749146.29428 | pgbench_branches_pkey |            16384
 2017-02-10 18:52:26.294275+01 | 1486749146.29428 | pgbench_tellers_pkey  |            90112
 2017-02-10 18:52:26.294275+01 | 1486749146.29428 | pgbench_accounts_pkey |        689405952

 2017-02-10 18:52:27.34579+01 | 1486749147.34579 | pgbench_branches_pkey |            16384
 2017-02-10 18:52:27.34579+01 | 1486749147.34579 | pgbench_tellers_pkey  |            90112
 2017-02-10 18:52:27.34579+01 | 1486749147.34579 | pgbench_accounts_pkey |        689405952

 2017-02-10 18:52:28.397412+01 | 1486749148.39741 | pgbench_branches_pkey |            16384
 2017-02-10 18:52:28.397412+01 | 1486749148.39741 | pgbench_tellers_pkey  |            90112
 2017-02-10 18:52:28.397412+01 | 1486749148.39741 | pgbench_accounts_pkey |        689405952

 2017-02-10 18:52:29.451822+01 | 1486749149.45182 | pgbench_branches_pkey |            16384
 2017-02-10 18:52:29.451822+01 | 1486749149.45182 | pgbench_tellers_pkey  |            90112
 2017-02-10 18:52:29.451822+01 | 1486749149.45182 | pgbench_accounts_pkey |        689405952

 2017-02-10 18:52:30.505904+01 | 1486749150.5059 | pgbench_branches_pkey |            16384
 2017-02-10 18:52:30.505904+01 | 1486749150.5059 | pgbench_tellers_pkey  |            90112
 2017-02-10 18:52:30.505904+01 | 1486749150.5059 | pgbench_accounts_pkey |        689405952

 2017-02-10 18:52:31.5593+01 | 1486749151.5593 | pgbench_branches_pkey |            16384
 2017-02-10 18:52:31.5593+01 | 1486749151.5593 | pgbench_tellers_pkey  |            90112
 2017-02-10 18:52:31.5593+01 | 1486749151.5593 | pgbench_accounts_pkey |        689405952

 2017-02-10 18:52:32.616778+01 | 1486749152.61678 | pgbench_branches_pkey |            16384
 2017-02-10 18:52:32.616778+01 | 1486749152.61678 | pgbench_tellers_pkey  |            90112
 2017-02-10 18:52:32.616778+01 | 1486749152.61678 | pgbench_accounts_pkey |        689405952

 2017-02-10 18:52:33.668851+01 | 1486749153.66885 | pgbench_branches_pkey |            16384
 2017-02-10 18:52:33.668851+01 | 1486749153.66885 | pgbench_tellers_pkey  |            90112
 2017-02-10 18:52:33.668851+01 | 1486749153.66885 | pgbench_accounts_pkey |        689405952

 2017-02-10 18:52:34.723026+01 | 1486749154.72303 | pgbench_branches_pkey |            16384
 2017-02-10 18:52:34.723026+01 | 1486749154.72303 | pgbench_tellers_pkey  |            90112
 2017-02-10 18:52:34.723026+01 | 1486749154.72303 | pgbench_accounts_pkey |        689405952

 2017-02-10 18:52:35.778074+01 | 1486749155.77807 | pgbench_branches_pkey |            16384
 2017-02-10 18:52:35.778074+01 | 1486749155.77807 | pgbench_tellers_pkey  |            90112
 2017-02-10 18:52:35.778074+01 | 1486749155.77807 | pgbench_accounts_pkey |        689405952

 2017-02-10 18:52:36.830013+01 | 1486749156.83001 | pgbench_branches_pkey |            16384
 2017-02-10 18:52:36.830013+01 | 1486749156.83001 | pgbench_tellers_pkey  |            90112
 2017-02-10 18:52:36.830013+01 | 1486749156.83001 | pgbench_accounts_pkey |        689405952

 2017-02-10 18:52:37.884001+01 | 1486749157.884 | pgbench_branches_pkey |            16384
 2017-02-10 18:52:37.884001+01 | 1486749157.884 | pgbench_tellers_pkey  |            90112
 2017-02-10 18:52:37.884001+01 | 1486749157.884 | pgbench_accounts_pkey |        689405952

 2017-02-10 18:52:38.933017+01 | 1486749158.93302 | pgbench_branches_pkey |            16384
 2017-02-10 18:52:38.933017+01 | 1486749158.93302 | pgbench_tellers_pkey  |            90112
 2017-02-10 18:52:38.933017+01 | 1486749158.93302 | pgbench_accounts_pkey |        689405952

 2017-02-10 18:52:39.98491+01 | 1486749159.98491 | pgbench_branches_pkey |            16384
 2017-02-10 18:52:39.98491+01 | 1486749159.98491 | pgbench_tellers_pkey  |            90112
 2017-02-10 18:52:39.98491+01 | 1486749159.98491 | pgbench_accounts_pkey |        689405952

 2017-02-10 18:52:41.035803+01 | 1486749161.0358 | pgbench_branches_pkey |            16384
 2017-02-10 18:52:41.035803+01 | 1486749161.0358 | pgbench_tellers_pkey  |            90112
 2017-02-10 18:52:41.035803+01 | 1486749161.0358 | pgbench_accounts_pkey |        689405952

 2017-02-10 18:52:42.084281+01 | 1486749162.08428 | pgbench_branches_pkey |            16384
 2017-02-10 18:52:42.084281+01 | 1486749162.08428 | pgbench_tellers_pkey  |            90112
 2017-02-10 18:52:42.084281+01 | 1486749162.08428 | pgbench_accounts_pkey |        689405952

 2017-02-10 18:52:43.135885+01 | 1486749163.13589 | pgbench_branches_pkey |            16384
 2017-02-10 18:52:43.135885+01 | 1486749163.13589 | pgbench_tellers_pkey  |            90112
 2017-02-10 18:52:43.135885+01 | 1486749163.13589 | pgbench_accounts_pkey |        689405952

 2017-02-10 18:52:44.190481+01 | 1486749164.19048 | pgbench_branches_pkey |            16384
 2017-02-10 18:52:44.190481+01 | 1486749164.19048 | pgbench_tellers_pkey  |            90112
 2017-02-10 18:52:44.190481+01 | 1486749164.19048 | pgbench_accounts_pkey |        689405952

 2017-02-10 18:52:45.245111+01 | 1486749165.24511 | pgbench_branches_pkey |            16384
 2017-02-10 18:52:45.245111+01 | 1486749165.24511 | pgbench_tellers_pkey  |            90112
 2017-02-10 18:52:45.245111+01 | 1486749165.24511 | pgbench_accounts_pkey |        689405952

 2017-02-10 18:52:46.295773+01 | 1486749166.29577 | pgbench_branches_pkey |            16384
 2017-02-10 18:52:46.295773+01 | 1486749166.29577 | pgbench_tellers_pkey  |            90112
 2017-02-10 18:52:46.295773+01 | 1486749166.29577 | pgbench_accounts_pkey |        689405952

 2017-02-10 18:52:47.350155+01 | 1486749167.35016 | pgbench_branches_pkey |            16384
 2017-02-10 18:52:47.350155+01 | 1486749167.35016 | pgbench_tellers_pkey  |            90112
 2017-02-10 18:52:47.350155+01 | 1486749167.35016 | pgbench_accounts_pkey |        689405952

 2017-02-10 18:52:48.400752+01 | 1486749168.40075 | pgbench_branches_pkey |            16384
 2017-02-10 18:52:48.400752+01 | 1486749168.40075 | pgbench_tellers_pkey  |            90112
 2017-02-10 18:52:48.400752+01 | 1486749168.40075 | pgbench_accounts_pkey |        689405952

 2017-02-10 18:52:49.451451+01 | 1486749169.45145 | pgbench_branches_pkey |            16384
 2017-02-10 18:52:49.451451+01 | 1486749169.45145 | pgbench_tellers_pkey  |            90112
 2017-02-10 18:52:49.451451+01 | 1486749169.45145 | pgbench_accounts_pkey |        689405952

 2017-02-10 18:52:50.503747+01 | 1486749170.50375 | pgbench_branches_pkey |            16384
 2017-02-10 18:52:50.503747+01 | 1486749170.50375 | pgbench_tellers_pkey  |            90112
 2017-02-10 18:52:50.503747+01 | 1486749170.50375 | pgbench_accounts_pkey |        689405952

 2017-02-10 18:52:51.560197+01 | 1486749171.5602 | pgbench_branches_pkey |            16384
 2017-02-10 18:52:51.560197+01 | 1486749171.5602 | pgbench_tellers_pkey  |            90112
 2017-02-10 18:52:51.560197+01 | 1486749171.5602 | pgbench_accounts_pkey |        689405952

 2017-02-10 18:52:52.614386+01 | 1486749172.61439 | pgbench_branches_pkey |            16384
 2017-02-10 18:52:52.614386+01 | 1486749172.61439 | pgbench_tellers_pkey  |            90112
 2017-02-10 18:52:52.614386+01 | 1486749172.61439 | pgbench_accounts_pkey |        689405952

 2017-02-10 18:52:53.665391+01 | 1486749173.66539 | pgbench_branches_pkey |            16384
 2017-02-10 18:52:53.665391+01 | 1486749173.66539 | pgbench_tellers_pkey  |            90112
 2017-02-10 18:52:53.665391+01 | 1486749173.66539 | pgbench_accounts_pkey |        689405952

 2017-02-10 18:52:54.718402+01 | 1486749174.7184 | pgbench_branches_pkey |            16384
 2017-02-10 18:52:54.718402+01 | 1486749174.7184 | pgbench_tellers_pkey  |            90112
 2017-02-10 18:52:54.718402+01 | 1486749174.7184 | pgbench_accounts_pkey |        689405952

 2017-02-10 18:52:55.771263+01 | 1486749175.77126 | pgbench_branches_pkey |            16384
 2017-02-10 18:52:55.771263+01 | 1486749175.77126 | pgbench_tellers_pkey  |            90112
 2017-02-10 18:52:55.771263+01 | 1486749175.77126 | pgbench_accounts_pkey |        689405952

 2017-02-10 18:52:56.823133+01 | 1486749176.82313 | pgbench_branches_pkey |            16384
 2017-02-10 18:52:56.823133+01 | 1486749176.82313 | pgbench_tellers_pkey  |            90112
 2017-02-10 18:52:56.823133+01 | 1486749176.82313 | pgbench_accounts_pkey |        689405952

 2017-02-10 18:52:57.872023+01 | 1486749177.87202 | pgbench_branches_pkey |            16384
 2017-02-10 18:52:57.872023+01 | 1486749177.87202 | pgbench_tellers_pkey  |            90112
 2017-02-10 18:52:57.872023+01 | 1486749177.87202 | pgbench_accounts_pkey |        689405952

 2017-02-10 18:52:58.921687+01 | 1486749178.92169 | pgbench_branches_pkey |            16384
 2017-02-10 18:52:58.921687+01 | 1486749178.92169 | pgbench_tellers_pkey  |            90112
 2017-02-10 18:52:58.921687+01 | 1486749178.92169 | pgbench_accounts_pkey |        689405952

 2017-02-10 18:52:59.972247+01 | 1486749179.97225 | pgbench_branches_pkey |            16384
 2017-02-10 18:52:59.972247+01 | 1486749179.97225 | pgbench_tellers_pkey  |            90112
 2017-02-10 18:52:59.972247+01 | 1486749179.97225 | pgbench_accounts_pkey |        689405952

 2017-02-10 18:53:01.023549+01 | 1486749181.02355 | pgbench_branches_pkey |            16384
 2017-02-10 18:53:01.023549+01 | 1486749181.02355 | pgbench_tellers_pkey  |            90112
 2017-02-10 18:53:01.023549+01 | 1486749181.02355 | pgbench_accounts_pkey |        689405952

 2017-02-10 18:53:02.079313+01 | 1486749182.07931 | pgbench_branches_pkey |            16384
 2017-02-10 18:53:02.079313+01 | 1486749182.07931 | pgbench_tellers_pkey  |            90112
 2017-02-10 18:53:02.079313+01 | 1486749182.07931 | pgbench_accounts_pkey |        689405952

 2017-02-10 18:53:03.131202+01 | 1486749183.1312 | pgbench_branches_pkey |            16384
 2017-02-10 18:53:03.131202+01 | 1486749183.1312 | pgbench_tellers_pkey  |            90112
 2017-02-10 18:53:03.131202+01 | 1486749183.1312 | pgbench_accounts_pkey |        689405952

 2017-02-10 18:53:04.180167+01 | 1486749184.18017 | pgbench_branches_pkey |            16384
 2017-02-10 18:53:04.180167+01 | 1486749184.18017 | pgbench_tellers_pkey  |            90112
 2017-02-10 18:53:04.180167+01 | 1486749184.18017 | pgbench_accounts_pkey |        689405952

 2017-02-10 18:53:05.231733+01 | 1486749185.23173 | pgbench_branches_pkey |            16384
 2017-02-10 18:53:05.231733+01 | 1486749185.23173 | pgbench_tellers_pkey  |            90112
 2017-02-10 18:53:05.231733+01 | 1486749185.23173 | pgbench_accounts_pkey |        689405952

 2017-02-10 18:53:06.282543+01 | 1486749186.28254 | pgbench_branches_pkey |            16384
 2017-02-10 18:53:06.282543+01 | 1486749186.28254 | pgbench_tellers_pkey  |            90112
 2017-02-10 18:53:06.282543+01 | 1486749186.28254 | pgbench_accounts_pkey |        689405952

 2017-02-10 18:53:07.333473+01 | 1486749187.33347 | pgbench_branches_pkey |            16384
 2017-02-10 18:53:07.333473+01 | 1486749187.33347 | pgbench_tellers_pkey  |            90112
 2017-02-10 18:53:07.333473+01 | 1486749187.33347 | pgbench_accounts_pkey |        689405952

 2017-02-10 18:53:08.384058+01 | 1486749188.38406 | pgbench_branches_pkey |            16384
 2017-02-10 18:53:08.384058+01 | 1486749188.38406 | pgbench_tellers_pkey  |            90112
 2017-02-10 18:53:08.384058+01 | 1486749188.38406 | pgbench_accounts_pkey |        689405952

 2017-02-10 18:53:09.43408+01 | 1486749189.43408 | pgbench_branches_pkey |            16384
 2017-02-10 18:53:09.43408+01 | 1486749189.43408 | pgbench_tellers_pkey  |            90112
 2017-02-10 18:53:09.43408+01 | 1486749189.43408 | pgbench_accounts_pkey |        689405952

 2017-02-10 18:53:10.484435+01 | 1486749190.48444 | pgbench_branches_pkey |            16384
 2017-02-10 18:53:10.484435+01 | 1486749190.48444 | pgbench_tellers_pkey  |            90112
 2017-02-10 18:53:10.484435+01 | 1486749190.48444 | pgbench_accounts_pkey |        689405952

 2017-02-10 18:53:11.536296+01 | 1486749191.5363 | pgbench_branches_pkey |            16384
 2017-02-10 18:53:11.536296+01 | 1486749191.5363 | pgbench_tellers_pkey  |            90112
 2017-02-10 18:53:11.536296+01 | 1486749191.5363 | pgbench_accounts_pkey |        689405952

 2017-02-10 18:53:12.591217+01 | 1486749192.59122 | pgbench_branches_pkey |            16384
 2017-02-10 18:53:12.591217+01 | 1486749192.59122 | pgbench_tellers_pkey  |            90112
 2017-02-10 18:53:12.591217+01 | 1486749192.59122 | pgbench_accounts_pkey |        689405952

 2017-02-10 18:53:13.642762+01 | 1486749193.64276 | pgbench_branches_pkey |            16384
 2017-02-10 18:53:13.642762+01 | 1486749193.64276 | pgbench_tellers_pkey  |            90112
 2017-02-10 18:53:13.642762+01 | 1486749193.64276 | pgbench_accounts_pkey |        689405952

 2017-02-10 18:53:14.695766+01 | 1486749194.69577 | pgbench_branches_pkey |            16384
 2017-02-10 18:53:14.695766+01 | 1486749194.69577 | pgbench_tellers_pkey  |            90112
 2017-02-10 18:53:14.695766+01 | 1486749194.69577 | pgbench_accounts_pkey |        689405952

 2017-02-10 18:53:15.746981+01 | 1486749195.74698 | pgbench_branches_pkey |            16384
 2017-02-10 18:53:15.746981+01 | 1486749195.74698 | pgbench_tellers_pkey  |            90112
 2017-02-10 18:53:15.746981+01 | 1486749195.74698 | pgbench_accounts_pkey |        689405952

 2017-02-10 18:53:16.80217+01 | 1486749196.80217 | pgbench_branches_pkey |            16384
 2017-02-10 18:53:16.80217+01 | 1486749196.80217 | pgbench_tellers_pkey  |            90112
 2017-02-10 18:53:16.80217+01 | 1486749196.80217 | pgbench_accounts_pkey |        689405952

 2017-02-10 18:53:17.857816+01 | 1486749197.85782 | pgbench_branches_pkey |            16384
 2017-02-10 18:53:17.857816+01 | 1486749197.85782 | pgbench_tellers_pkey  |            90112
 2017-02-10 18:53:17.857816+01 | 1486749197.85782 | pgbench_accounts_pkey |        689405952

 2017-02-10 18:53:18.909848+01 | 1486749198.90985 | pgbench_branches_pkey |            16384
 2017-02-10 18:53:18.909848+01 | 1486749198.90985 | pgbench_tellers_pkey  |            90112
 2017-02-10 18:53:18.909848+01 | 1486749198.90985 | pgbench_accounts_pkey |        689405952

 2017-02-10 18:53:19.961825+01 | 1486749199.96182 | pgbench_branches_pkey |            16384
 2017-02-10 18:53:19.961825+01 | 1486749199.96182 | pgbench_tellers_pkey  |            90112
 2017-02-10 18:53:19.961825+01 | 1486749199.96182 | pgbench_accounts_pkey |        689405952

 2017-02-10 18:53:21.014671+01 | 1486749201.01467 | pgbench_branches_pkey |            16384
 2017-02-10 18:53:21.014671+01 | 1486749201.01467 | pgbench_tellers_pkey  |            90112
 2017-02-10 18:53:21.014671+01 | 1486749201.01467 | pgbench_accounts_pkey |        689405952

 2017-02-10 18:53:22.065404+01 | 1486749202.0654 | pgbench_branches_pkey |            16384
 2017-02-10 18:53:22.065404+01 | 1486749202.0654 | pgbench_tellers_pkey  |            90112
 2017-02-10 18:53:22.065404+01 | 1486749202.0654 | pgbench_accounts_pkey |        689405952

 2017-02-10 18:53:23.118376+01 | 1486749203.11838 | pgbench_branches_pkey |            16384
 2017-02-10 18:53:23.118376+01 | 1486749203.11838 | pgbench_tellers_pkey  |            90112
 2017-02-10 18:53:23.118376+01 | 1486749203.11838 | pgbench_accounts_pkey |        689405952

 2017-02-10 18:53:24.173762+01 | 1486749204.17376 | pgbench_branches_pkey |            16384
 2017-02-10 18:53:24.173762+01 | 1486749204.17376 | pgbench_tellers_pkey  |            90112
 2017-02-10 18:53:24.173762+01 | 1486749204.17376 | pgbench_accounts_pkey |        689405952

 2017-02-10 18:53:25.226963+01 | 1486749205.22696 | pgbench_branches_pkey |            16384
 2017-02-10 18:53:25.226963+01 | 1486749205.22696 | pgbench_tellers_pkey  |            90112
 2017-02-10 18:53:25.226963+01 | 1486749205.22696 | pgbench_accounts_pkey |        689405952

 2017-02-10 18:53:26.2774+01 | 1486749206.2774 | pgbench_branches_pkey |            16384
 2017-02-10 18:53:26.2774+01 | 1486749206.2774 | pgbench_tellers_pkey  |            90112
 2017-02-10 18:53:26.2774+01 | 1486749206.2774 | pgbench_accounts_pkey |        689405952

 2017-02-10 18:53:27.331097+01 | 1486749207.3311 | pgbench_branches_pkey |            16384
 2017-02-10 18:53:27.331097+01 | 1486749207.3311 | pgbench_tellers_pkey  |            90112
 2017-02-10 18:53:27.331097+01 | 1486749207.3311 | pgbench_accounts_pkey |        689405952

 2017-02-10 18:53:28.384081+01 | 1486749208.38408 | pgbench_branches_pkey |            16384
 2017-02-10 18:53:28.384081+01 | 1486749208.38408 | pgbench_tellers_pkey  |            90112
 2017-02-10 18:53:28.384081+01 | 1486749208.38408 | pgbench_accounts_pkey |        689405952

 2017-02-10 18:53:29.434391+01 | 1486749209.43439 | pgbench_branches_pkey |            16384
 2017-02-10 18:53:29.434391+01 | 1486749209.43439 | pgbench_tellers_pkey  |            90112
 2017-02-10 18:53:29.434391+01 | 1486749209.43439 | pgbench_accounts_pkey |        689405952

 2017-02-10 18:53:30.485669+01 | 1486749210.48567 | pgbench_branches_pkey |            16384
 2017-02-10 18:53:30.485669+01 | 1486749210.48567 | pgbench_tellers_pkey  |            90112
 2017-02-10 18:53:30.485669+01 | 1486749210.48567 | pgbench_accounts_pkey |        689405952

 2017-02-10 18:53:31.536204+01 | 1486749211.5362 | pgbench_branches_pkey |            16384
 2017-02-10 18:53:31.536204+01 | 1486749211.5362 | pgbench_tellers_pkey  |            90112
 2017-02-10 18:53:31.536204+01 | 1486749211.5362 | pgbench_accounts_pkey |        689405952

 2017-02-10 18:53:32.590303+01 | 1486749212.5903 | pgbench_branches_pkey |            16384
 2017-02-10 18:53:32.590303+01 | 1486749212.5903 | pgbench_tellers_pkey  |            90112
 2017-02-10 18:53:32.590303+01 | 1486749212.5903 | pgbench_accounts_pkey |        689405952

 2017-02-10 18:53:33.641935+01 | 1486749213.64194 | pgbench_branches_pkey |            16384
 2017-02-10 18:53:33.641935+01 | 1486749213.64194 | pgbench_tellers_pkey  |            90112
 2017-02-10 18:53:33.641935+01 | 1486749213.64194 | pgbench_accounts_pkey |        689405952

 2017-02-10 18:53:34.693047+01 | 1486749214.69305 | pgbench_branches_pkey |            16384
 2017-02-10 18:53:34.693047+01 | 1486749214.69305 | pgbench_tellers_pkey  |            90112
 2017-02-10 18:53:34.693047+01 | 1486749214.69305 | pgbench_accounts_pkey |        689405952

 2017-02-10 18:53:35.746935+01 | 1486749215.74693 | pgbench_branches_pkey |            16384
 2017-02-10 18:53:35.746935+01 | 1486749215.74693 | pgbench_tellers_pkey  |            90112
 2017-02-10 18:53:35.746935+01 | 1486749215.74693 | pgbench_accounts_pkey |        689405952

 2017-02-10 18:53:36.800869+01 | 1486749216.80087 | pgbench_branches_pkey |            16384
 2017-02-10 18:53:36.800869+01 | 1486749216.80087 | pgbench_tellers_pkey  |            90112
 2017-02-10 18:53:36.800869+01 | 1486749216.80087 | pgbench_accounts_pkey |        689405952

 2017-02-10 18:53:37.853743+01 | 1486749217.85374 | pgbench_branches_pkey |            16384
 2017-02-10 18:53:37.853743+01 | 1486749217.85374 | pgbench_tellers_pkey  |            90112
 2017-02-10 18:53:37.853743+01 | 1486749217.85374 | pgbench_accounts_pkey |        689405952

 2017-02-10 18:53:38.904545+01 | 1486749218.90455 | pgbench_branches_pkey |            16384
 2017-02-10 18:53:38.904545+01 | 1486749218.90455 | pgbench_tellers_pkey  |            90112
 2017-02-10 18:53:38.904545+01 | 1486749218.90455 | pgbench_accounts_pkey |        689405952

 2017-02-10 18:53:39.953984+01 | 1486749219.95398 | pgbench_branches_pkey |            16384
 2017-02-10 18:53:39.953984+01 | 1486749219.95398 | pgbench_tellers_pkey  |            90112
 2017-02-10 18:53:39.953984+01 | 1486749219.95398 | pgbench_accounts_pkey |        689405952

 2017-02-10 18:53:41.005309+01 | 1486749221.00531 | pgbench_branches_pkey |            16384
 2017-02-10 18:53:41.005309+01 | 1486749221.00531 | pgbench_tellers_pkey  |            90112
 2017-02-10 18:53:41.005309+01 | 1486749221.00531 | pgbench_accounts_pkey |        689405952

 2017-02-10 18:53:42.057976+01 | 1486749222.05798 | pgbench_branches_pkey |            16384
 2017-02-10 18:53:42.057976+01 | 1486749222.05798 | pgbench_tellers_pkey  |            90112
 2017-02-10 18:53:42.057976+01 | 1486749222.05798 | pgbench_accounts_pkey |        689405952

 2017-02-10 18:53:43.110684+01 | 1486749223.11068 | pgbench_branches_pkey |            16384
 2017-02-10 18:53:43.110684+01 | 1486749223.11068 | pgbench_tellers_pkey  |            90112
 2017-02-10 18:53:43.110684+01 | 1486749223.11068 | pgbench_accounts_pkey |        689405952

 2017-02-10 18:53:44.16145+01 | 1486749224.16145 | pgbench_branches_pkey |            16384
 2017-02-10 18:53:44.16145+01 | 1486749224.16145 | pgbench_tellers_pkey  |            90112
 2017-02-10 18:53:44.16145+01 | 1486749224.16145 | pgbench_accounts_pkey |        689405952

 2017-02-10 18:53:45.21448+01 | 1486749225.21448 | pgbench_branches_pkey |            16384
 2017-02-10 18:53:45.21448+01 | 1486749225.21448 | pgbench_tellers_pkey  |            90112
 2017-02-10 18:53:45.21448+01 | 1486749225.21448 | pgbench_accounts_pkey |        689405952

 2017-02-10 18:53:46.264817+01 | 1486749226.26482 | pgbench_branches_pkey |            16384
 2017-02-10 18:53:46.264817+01 | 1486749226.26482 | pgbench_tellers_pkey  |            90112
 2017-02-10 18:53:46.264817+01 | 1486749226.26482 | pgbench_accounts_pkey |        689405952

 2017-02-10 18:53:47.31554+01 | 1486749227.31554 | pgbench_branches_pkey |            16384
 2017-02-10 18:53:47.31554+01 | 1486749227.31554 | pgbench_tellers_pkey  |            90112
 2017-02-10 18:53:47.31554+01 | 1486749227.31554 | pgbench_accounts_pkey |        689405952

 2017-02-10 18:53:48.372033+01 | 1486749228.37203 | pgbench_branches_pkey |            16384
 2017-02-10 18:53:48.372033+01 | 1486749228.37203 | pgbench_tellers_pkey  |            90112
 2017-02-10 18:53:48.372033+01 | 1486749228.37203 | pgbench_accounts_pkey |        689405952

 2017-02-10 18:53:49.423231+01 | 1486749229.42323 | pgbench_branches_pkey |            16384
 2017-02-10 18:53:49.423231+01 | 1486749229.42323 | pgbench_tellers_pkey  |            90112
 2017-02-10 18:53:49.423231+01 | 1486749229.42323 | pgbench_accounts_pkey |        689405952

 2017-02-10 18:53:50.475167+01 | 1486749230.47517 | pgbench_branches_pkey |            16384
 2017-02-10 18:53:50.475167+01 | 1486749230.47517 | pgbench_tellers_pkey  |            90112
 2017-02-10 18:53:50.475167+01 | 1486749230.47517 | pgbench_accounts_pkey |        689405952

 2017-02-10 18:53:51.525795+01 | 1486749231.52579 | pgbench_branches_pkey |            16384
 2017-02-10 18:53:51.525795+01 | 1486749231.52579 | pgbench_tellers_pkey  |            90112
 2017-02-10 18:53:51.525795+01 | 1486749231.52579 | pgbench_accounts_pkey |        689405952

 2017-02-10 18:53:52.575936+01 | 1486749232.57594 | pgbench_branches_pkey |            16384
 2017-02-10 18:53:52.575936+01 | 1486749232.57594 | pgbench_tellers_pkey  |            90112
 2017-02-10 18:53:52.575936+01 | 1486749232.57594 | pgbench_accounts_pkey |        689405952

