 2017-02-08 04:36:06.578049+01 | 1486524966.57805 | 0/27C9ABF8               |             667528184

 2017-02-08 04:36:07.94013+01 | 1486524967.94013 | 0/27C9AC30               |             667528240

 2017-02-08 04:36:09.300879+01 | 1486524969.30088 | 0/27C9AC30               |             667528240

 2017-02-08 04:36:10.654685+01 | 1486524970.65469 | 0/27C9AC30               |             667528240

 2017-02-08 04:36:12.049824+01 | 1486524972.04982 | 0/27C9AC30               |             667528240

 2017-02-08 04:36:13.40607+01 | 1486524973.40607 | 0/27C9AC30               |             667528240

 2017-02-08 04:36:14.72014+01 | 1486524974.72014 | 0/27C9AC30               |             667528240

 2017-02-08 04:36:16.174538+01 | 1486524976.17454 | 0/27C9AC30               |             667528240

 2017-02-08 04:36:17.563956+01 | 1486524977.56396 | 0/27C9AC30               |             667528240

 2017-02-08 04:36:18.91451+01 | 1486524978.91451 | 0/27C9AC30               |             667528240

 2017-02-08 04:36:20.324847+01 | 1486524980.32485 | 0/27C9AC30               |             667528240

 2017-02-08 04:36:21.695446+01 | 1486524981.69545 | 0/27C9AC30               |             667528240

 2017-02-08 04:36:23.016686+01 | 1486524983.01669 | 0/27C9AC30               |             667528240

 2017-02-08 04:36:24.181996+01 | 1486524984.182 | 0/27C9AC30               |             667528240

 2017-02-08 04:36:25.573333+01 | 1486524985.57333 | 0/27C9AC30               |             667528240

 2017-02-08 04:36:26.932285+01 | 1486524986.93229 | 0/27C9AC30               |             667528240

 2017-02-08 04:36:28.307582+01 | 1486524988.30758 | 0/27C9AC30               |             667528240

 2017-02-08 04:36:29.656145+01 | 1486524989.65615 | 0/27C9AC30               |             667528240

 2017-02-08 04:36:31.029637+01 | 1486524991.02964 | 0/27C9AC30               |             667528240

 2017-02-08 04:36:32.45278+01 | 1486524992.45278 | 0/27C9AC30               |             667528240

 2017-02-08 04:36:33.860337+01 | 1486524993.86034 | 0/27C9AC30               |             667528240

 2017-02-08 04:36:35.258993+01 | 1486524995.25899 | 0/27C9AC30               |             667528240

 2017-02-08 04:36:36.647132+01 | 1486524996.64713 | 0/27C9AC30               |             667528240

 2017-02-08 04:36:38.024434+01 | 1486524998.02443 | 0/27C9AC30               |             667528240

 2017-02-08 04:36:39.376416+01 | 1486524999.37642 | 0/27C9AC30               |             667528240

 2017-02-08 04:36:40.754262+01 | 1486525000.75426 | 0/27C9AC30               |             667528240

 2017-02-08 04:36:42.063797+01 | 1486525002.0638 | 0/27C9AC30               |             667528240

 2017-02-08 04:36:43.467819+01 | 1486525003.46782 | 0/27C9AC30               |             667528240

 2017-02-08 04:36:44.779523+01 | 1486525004.77952 | 0/27C9AC30               |             667528240

 2017-02-08 04:36:46.12344+01 | 1486525006.12344 | 0/27C9AC30               |             667528240

 2017-02-08 04:36:47.507936+01 | 1486525007.50794 | 0/27C9AC30               |             667528240

 2017-02-08 04:36:48.896421+01 | 1486525008.89642 | 0/27C9AC30               |             667528240

 2017-02-08 04:36:50.220183+01 | 1486525010.22018 | 0/27C9AC30               |             667528240

 2017-02-08 04:36:51.576555+01 | 1486525011.57656 | 0/27C9AC30               |             667528240

 2017-02-08 04:36:52.993779+01 | 1486525012.99378 | 0/27C9AC30               |             667528240

 2017-02-08 04:36:54.386796+01 | 1486525014.3868 | 0/27C9AC30               |             667528240

 2017-02-08 04:36:55.76443+01 | 1486525015.76443 | 0/27C9AC30               |             667528240

 2017-02-08 04:36:57.093604+01 | 1486525017.0936 | 0/27C9AC30               |             667528240

 2017-02-08 04:36:58.387017+01 | 1486525018.38702 | 0/27C9AC30               |             667528240

 2017-02-08 04:36:59.815479+01 | 1486525019.81548 | 0/27C9AC30               |             667528240

 2017-02-08 04:37:01.188231+01 | 1486525021.18823 | 0/27C9AC30               |             667528240

 2017-02-08 04:37:02.56489+01 | 1486525022.56489 | 0/27C9AC30               |             667528240

 2017-02-08 04:37:03.936745+01 | 1486525023.93674 | 0/27C9AC30               |             667528240

 2017-02-08 04:37:05.320107+01 | 1486525025.32011 | 0/27C9AC30               |             667528240

 2017-02-08 04:37:06.701194+01 | 1486525026.70119 | 0/27C9AC30               |             667528240

 2017-02-08 04:37:08.083917+01 | 1486525028.08392 | 0/27C9AC30               |             667528240

 2017-02-08 04:37:09.457119+01 | 1486525029.45712 | 0/27C9AC30               |             667528240

 2017-02-08 04:37:10.826285+01 | 1486525030.82628 | 0/27C9AC30               |             667528240

 2017-02-08 04:37:12.17397+01 | 1486525032.17397 | 0/27C9AC30               |             667528240

 2017-02-08 04:37:13.327376+01 | 1486525033.32738 | 0/27C9AC30               |             667528240

 2017-02-08 04:37:14.711914+01 | 1486525034.71191 | 0/27C9AC30               |             667528240

 2017-02-08 04:37:16.083077+01 | 1486525036.08308 | 0/27C9AC30               |             667528240

 2017-02-08 04:37:17.458762+01 | 1486525037.45876 | 0/27C9AC30               |             667528240

 2017-02-08 04:37:18.837149+01 | 1486525038.83715 | 0/27C9AC30               |             667528240

 2017-02-08 04:37:20.242749+01 | 1486525040.24275 | 0/27C9AC30               |             667528240

 2017-02-08 04:37:21.594269+01 | 1486525041.59427 | 0/27C9AC30               |             667528240

 2017-02-08 04:37:22.939815+01 | 1486525042.93982 | 0/27C9AC30               |             667528240

 2017-02-08 04:37:24.221304+01 | 1486525044.2213 | 0/27C9AC30               |             667528240

 2017-02-08 04:37:25.63526+01 | 1486525045.63526 | 0/27C9AC30               |             667528240

 2017-02-08 04:37:26.984198+01 | 1486525046.9842 | 0/27C9AC30               |             667528240

 2017-02-08 04:37:28.379427+01 | 1486525048.37943 | 0/27C9AC30               |             667528240

 2017-02-08 04:37:29.750511+01 | 1486525049.75051 | 0/27C9AC30               |             667528240

 2017-02-08 04:37:31.138956+01 | 1486525051.13896 | 0/27C9AC30               |             667528240

 2017-02-08 04:37:32.508315+01 | 1486525052.50832 | 0/27C9AC30               |             667528240

 2017-02-08 04:37:33.855898+01 | 1486525053.8559 | 0/27C9AC30               |             667528240

 2017-02-08 04:37:35.233258+01 | 1486525055.23326 | 0/27C9AC30               |             667528240

 2017-02-08 04:37:36.625108+01 | 1486525056.62511 | 0/27C9AC30               |             667528240

 2017-02-08 04:37:38.041488+01 | 1486525058.04149 | 0/27C9AC30               |             667528240

 2017-02-08 04:37:39.402045+01 | 1486525059.40205 | 0/27C9AC30               |             667528240

 2017-02-08 04:37:40.751505+01 | 1486525060.7515 | 0/27C9AC30               |             667528240

 2017-02-08 04:37:42.127774+01 | 1486525062.12777 | 0/27C9AC30               |             667528240

 2017-02-08 04:37:43.502884+01 | 1486525063.50288 | 0/27C9AC30               |             667528240

 2017-02-08 04:37:44.856989+01 | 1486525064.85699 | 0/27C9AC30               |             667528240

 2017-02-08 04:37:46.220256+01 | 1486525066.22026 | 0/27C9AC30               |             667528240

 2017-02-08 04:37:47.569302+01 | 1486525067.5693 | 0/27C9AC30               |             667528240

 2017-02-08 04:37:48.899434+01 | 1486525068.89943 | 0/27C9AC30               |             667528240

 2017-02-08 04:37:50.281356+01 | 1486525070.28136 | 0/27C9AC30               |             667528240

 2017-02-08 04:37:51.668784+01 | 1486525071.66878 | 0/27C9AC30               |             667528240

 2017-02-08 04:37:53.088401+01 | 1486525073.0884 | 0/27C9AC30               |             667528240

 2017-02-08 04:37:54.447768+01 | 1486525074.44777 | 0/27C9AC30               |             667528240

 2017-02-08 04:37:55.781743+01 | 1486525075.78174 | 0/27C9AC30               |             667528240

 2017-02-08 04:37:57.1499+01 | 1486525077.1499 | 0/27C9AC30               |             667528240

 2017-02-08 04:37:58.538508+01 | 1486525078.53851 | 0/27C9AC30               |             667528240

 2017-02-08 04:37:59.910148+01 | 1486525079.91015 | 0/27C9AC30               |             667528240

 2017-02-08 04:38:01.177361+01 | 1486525081.17736 | 0/27C9AC30               |             667528240

 2017-02-08 04:38:02.580944+01 | 1486525082.58094 | 0/27C9AC30               |             667528240

 2017-02-08 04:38:03.888544+01 | 1486525083.88854 | 0/27C9AC30               |             667528240

 2017-02-08 04:38:05.334043+01 | 1486525085.33404 | 0/27C9AC30               |             667528240

 2017-02-08 04:38:06.746196+01 | 1486525086.7462 | 0/27C9AC30               |             667528240

 2017-02-08 04:38:08.140864+01 | 1486525088.14086 | 0/27C9AC30               |             667528240

 2017-02-08 04:38:09.535716+01 | 1486525089.53572 | 0/27C9AC30               |             667528240

 2017-02-08 04:38:10.919577+01 | 1486525090.91958 | 0/27C9AC30               |             667528240

 2017-02-08 04:38:12.288413+01 | 1486525092.28841 | 0/27C9AC30               |             667528240

 2017-02-08 04:38:13.67643+01 | 1486525093.67643 | 0/27C9AC30               |             667528240

 2017-02-08 04:38:15.079985+01 | 1486525095.07998 | 0/27C9AC30               |             667528240

 2017-02-08 04:38:16.421897+01 | 1486525096.4219 | 0/27C9AC30               |             667528240

 2017-02-08 04:38:17.79324+01 | 1486525097.79324 | 0/27C9AC30               |             667528240

 2017-02-08 04:38:19.173162+01 | 1486525099.17316 | 0/27C9AC30               |             667528240

 2017-02-08 04:38:20.549969+01 | 1486525100.54997 | 0/27C9AC30               |             667528240

 2017-02-08 04:38:21.948157+01 | 1486525101.94816 | 0/27C9AC30               |             667528240

 2017-02-08 04:38:23.342636+01 | 1486525103.34264 | 0/27C9AC30               |             667528240

 2017-02-08 04:38:24.660704+01 | 1486525104.6607 | 0/27C9AC30               |             667528240

 2017-02-08 04:38:26.020054+01 | 1486525106.02005 | 0/27C9AC30               |             667528240

 2017-02-08 04:38:27.495738+01 | 1486525107.49574 | 0/27C9AC30               |             667528240

 2017-02-08 04:38:28.816149+01 | 1486525108.81615 | 0/27C9AC30               |             667528240

 2017-02-08 04:38:30.163291+01 | 1486525110.16329 | 0/27C9AC30               |             667528240

 2017-02-08 04:38:31.531489+01 | 1486525111.53149 | 0/27C9AC30               |             667528240

 2017-02-08 04:38:32.874529+01 | 1486525112.87453 | 0/27C9AC30               |             667528240

 2017-02-08 04:38:34.26314+01 | 1486525114.26314 | 0/27C9AC30               |             667528240

 2017-02-08 04:38:35.674202+01 | 1486525115.6742 | 0/27C9AC30               |             667528240

 2017-02-08 04:38:37.042673+01 | 1486525117.04267 | 0/27C9AC30               |             667528240

 2017-02-08 04:38:38.425277+01 | 1486525118.42528 | 0/27C9AC30               |             667528240

 2017-02-08 04:38:39.820872+01 | 1486525119.82087 | 0/27C9AC30               |             667528240

 2017-02-08 04:38:41.217963+01 | 1486525121.21796 | 0/27C9AC30               |             667528240

 2017-02-08 04:38:42.62012+01 | 1486525122.62012 | 0/27C9AC30               |             667528240

 2017-02-08 04:38:44.060344+01 | 1486525124.06034 | 0/27C9AC30               |             667528240

 2017-02-08 04:38:45.458835+01 | 1486525125.45883 | 0/27C9AC30               |             667528240

 2017-02-08 04:38:46.892246+01 | 1486525126.89225 | 0/27C9AC30               |             667528240

 2017-02-08 04:38:48.127374+01 | 1486525128.12737 | 0/27C9AC30               |             667528240

 2017-02-08 04:38:49.485524+01 | 1486525129.48552 | 0/27C9AC30               |             667528240

 2017-02-08 04:38:50.89332+01 | 1486525130.89332 | 0/27C9AC30               |             667528240

 2017-02-08 04:38:52.324121+01 | 1486525132.32412 | 0/27C9AC30               |             667528240

 2017-02-08 04:38:53.642646+01 | 1486525133.64265 | 0/27C9AC30               |             667528240

 2017-02-08 04:38:55.087033+01 | 1486525135.08703 | 0/27C9AC30               |             667528240

 2017-02-08 04:38:56.404672+01 | 1486525136.40467 | 0/27C9AC30               |             667528240

 2017-02-08 04:38:57.73872+01 | 1486525137.73872 | 0/27C9AC30               |             667528240

 2017-02-08 04:38:59.109805+01 | 1486525139.10981 | 0/27C9AC30               |             667528240

 2017-02-08 04:39:00.434318+01 | 1486525140.43432 | 0/27C9AC30               |             667528240

 2017-02-08 04:39:01.747718+01 | 1486525141.74772 | 0/27C9AC30               |             667528240

 2017-02-08 04:39:03.10964+01 | 1486525143.10964 | 0/27C9AC30               |             667528240

 2017-02-08 04:39:04.523997+01 | 1486525144.524 | 0/27C9AC30               |             667528240

 2017-02-08 04:39:05.967354+01 | 1486525145.96735 | 0/27C9AC30               |             667528240

 2017-02-08 04:39:07.362241+01 | 1486525147.36224 | 0/27C9AC30               |             667528240

 2017-02-08 04:39:08.737474+01 | 1486525148.73747 | 0/27C9AC30               |             667528240

 2017-02-08 04:39:10.134949+01 | 1486525150.13495 | 0/27C9AC30               |             667528240

 2017-02-08 04:39:11.505313+01 | 1486525151.50531 | 0/27C9AC30               |             667528240

 2017-02-08 04:39:12.86518+01 | 1486525152.86518 | 0/27C9AC30               |             667528240

 2017-02-08 04:39:14.221541+01 | 1486525154.22154 | 0/27C9AC30               |             667528240

 2017-02-08 04:39:15.634784+01 | 1486525155.63478 | 0/27C9AC30               |             667528240

 2017-02-08 04:39:17.020646+01 | 1486525157.02065 | 0/27C9AC30               |             667528240

 2017-02-08 04:39:18.406795+01 | 1486525158.4068 | 0/27C9AC30               |             667528240

 2017-02-08 04:39:19.747252+01 | 1486525159.74725 | 0/27C9AC30               |             667528240

 2017-02-08 04:39:21.122982+01 | 1486525161.12298 | 0/27C9AC30               |             667528240

 2017-02-08 04:39:22.509403+01 | 1486525162.5094 | 0/27C9AC30               |             667528240

 2017-02-08 04:39:23.90508+01 | 1486525163.90508 | 0/27C9AC30               |             667528240

 2017-02-08 04:39:25.225461+01 | 1486525165.22546 | 0/27C9AC30               |             667528240

 2017-02-08 04:39:26.631889+01 | 1486525166.63189 | 0/27C9AC30               |             667528240

 2017-02-08 04:39:28.008269+01 | 1486525168.00827 | 0/27C9AC30               |             667528240

 2017-02-08 04:39:29.425471+01 | 1486525169.42547 | 0/27C9AC30               |             667528240

 2017-02-08 04:39:30.780029+01 | 1486525170.78003 | 0/27C9AC30               |             667528240

 2017-02-08 04:39:31.98807+01 | 1486525171.98807 | 0/27C9AC30               |             667528240

 2017-02-08 04:39:33.353561+01 | 1486525173.35356 | 0/27C9AC30               |             667528240

 2017-02-08 04:39:34.750542+01 | 1486525174.75054 | 0/27C9AC30               |             667528240

 2017-02-08 04:39:36.189084+01 | 1486525176.18908 | 0/27C9AC30               |             667528240

 2017-02-08 04:39:37.484091+01 | 1486525177.48409 | 0/27C9AC30               |             667528240

 2017-02-08 04:39:38.858083+01 | 1486525178.85808 | 0/27C9AC30               |             667528240

 2017-02-08 04:39:40.292697+01 | 1486525180.2927 | 0/27C9AC30               |             667528240

 2017-02-08 04:39:41.510707+01 | 1486525181.51071 | 0/27C9AC30               |             667528240

 2017-02-08 04:39:42.750464+01 | 1486525182.75046 | 0/27C9AC30               |             667528240

 2017-02-08 04:39:44.11987+01 | 1486525184.11987 | 0/27C9AC30               |             667528240

 2017-02-08 04:39:45.469339+01 | 1486525185.46934 | 0/27C9AC30               |             667528240

 2017-02-08 04:39:46.831279+01 | 1486525186.83128 | 0/27C9AC30               |             667528240

 2017-02-08 04:39:47.987319+01 | 1486525187.98732 | 0/27C9AC30               |             667528240

 2017-02-08 04:39:49.385565+01 | 1486525189.38557 | 0/27C9AC30               |             667528240

 2017-02-08 04:39:50.779215+01 | 1486525190.77922 | 0/27C9AC30               |             667528240

 2017-02-08 04:39:52.142253+01 | 1486525192.14225 | 0/27C9AC30               |             667528240

 2017-02-08 04:39:53.524101+01 | 1486525193.5241 | 0/27C9AC30               |             667528240

 2017-02-08 04:39:54.871355+01 | 1486525194.87136 | 0/27C9AC30               |             667528240

 2017-02-08 04:39:56.248579+01 | 1486525196.24858 | 0/27C9AC30               |             667528240

 2017-02-08 04:39:57.632518+01 | 1486525197.63252 | 0/27C9AC30               |             667528240

 2017-02-08 04:39:59.0279+01 | 1486525199.0279 | 0/27C9AC30               |             667528240

 2017-02-08 04:40:00.41034+01 | 1486525200.41034 | 0/27C9AC30               |             667528240

 2017-02-08 04:40:01.789195+01 | 1486525201.7892 | 0/27C9AC30               |             667528240

 2017-02-08 04:40:03.159209+01 | 1486525203.15921 | 0/27C9AC30               |             667528240

 2017-02-08 04:40:04.478931+01 | 1486525204.47893 | 0/27C9AC30               |             667528240

 2017-02-08 04:40:05.78984+01 | 1486525205.78984 | 0/27C9AC30               |             667528240

 2017-02-08 04:40:07.171931+01 | 1486525207.17193 | 0/27C9AC30               |             667528240

 2017-02-08 04:40:08.574666+01 | 1486525208.57467 | 0/27C9AC30               |             667528240

 2017-02-08 04:40:09.968156+01 | 1486525209.96816 | 0/27C9AC30               |             667528240

 2017-02-08 04:40:11.350196+01 | 1486525211.3502 | 0/27C9AC30               |             667528240

 2017-02-08 04:40:12.703107+01 | 1486525212.70311 | 0/27C9AC30               |             667528240

 2017-02-08 04:40:14.042333+01 | 1486525214.04233 | 0/27C9AC30               |             667528240

 2017-02-08 04:40:15.298143+01 | 1486525215.29814 | 0/27C9AC30               |             667528240

 2017-02-08 04:40:16.63997+01 | 1486525216.63997 | 0/27C9AC30               |             667528240

 2017-02-08 04:40:18.015172+01 | 1486525218.01517 | 0/27C9AC30               |             667528240

 2017-02-08 04:40:19.419676+01 | 1486525219.41968 | 0/27C9AC30               |             667528240

 2017-02-08 04:40:20.791083+01 | 1486525220.79108 | 0/27C9AC30               |             667528240

 2017-02-08 04:40:22.081041+01 | 1486525222.08104 | 0/27C9AC30               |             667528240

 2017-02-08 04:40:23.489868+01 | 1486525223.48987 | 0/27C9AC30               |             667528240

 2017-02-08 04:40:24.889981+01 | 1486525224.88998 | 0/27C9AC30               |             667528240

 2017-02-08 04:40:26.28935+01 | 1486525226.28935 | 0/27C9AC30               |             667528240

 2017-02-08 04:40:27.642258+01 | 1486525227.64226 | 0/27C9AC30               |             667528240

 2017-02-08 04:40:28.996637+01 | 1486525228.99664 | 0/27C9AC30               |             667528240

 2017-02-08 04:40:30.292717+01 | 1486525230.29272 | 0/27C9AC30               |             667528240

 2017-02-08 04:40:31.718889+01 | 1486525231.71889 | 0/27C9AC30               |             667528240

 2017-02-08 04:40:33.006675+01 | 1486525233.00668 | 0/27C9AC30               |             667528240

 2017-02-08 04:40:34.395047+01 | 1486525234.39505 | 0/27C9AC30               |             667528240

 2017-02-08 04:40:35.784753+01 | 1486525235.78475 | 0/27C9AC30               |             667528240

 2017-02-08 04:40:37.242482+01 | 1486525237.24248 | 0/27C9AC30               |             667528240

 2017-02-08 04:40:38.61005+01 | 1486525238.61005 | 0/27C9AC30               |             667528240

 2017-02-08 04:40:39.989759+01 | 1486525239.98976 | 0/27C9AC30               |             667528240

 2017-02-08 04:40:41.424169+01 | 1486525241.42417 | 0/27C9AC30               |             667528240

 2017-02-08 04:40:42.795363+01 | 1486525242.79536 | 0/27C9AC30               |             667528240

 2017-02-08 04:40:44.184653+01 | 1486525244.18465 | 0/27C9AC30               |             667528240

 2017-02-08 04:40:45.437788+01 | 1486525245.43779 | 0/27C9AC30               |             667528240

 2017-02-08 04:40:46.831569+01 | 1486525246.83157 | 0/27C9AC30               |             667528240

 2017-02-08 04:40:48.183086+01 | 1486525248.18309 | 0/27C9AC30               |             667528240

 2017-02-08 04:40:49.588275+01 | 1486525249.58827 | 0/27C9AC30               |             667528240

 2017-02-08 04:40:50.942845+01 | 1486525250.94285 | 0/27C9AC30               |             667528240

 2017-02-08 04:40:52.130934+01 | 1486525252.13093 | 0/27C9AC30               |             667528240

 2017-02-08 04:40:53.509906+01 | 1486525253.50991 | 0/27C9AC30               |             667528240

 2017-02-08 04:40:54.888819+01 | 1486525254.88882 | 0/27C9AC30               |             667528240

 2017-02-08 04:40:56.280571+01 | 1486525256.28057 | 0/27C9AC30               |             667528240

 2017-02-08 04:40:57.651604+01 | 1486525257.6516 | 0/27C9AC30               |             667528240

 2017-02-08 04:40:59.023571+01 | 1486525259.02357 | 0/27C9AC30               |             667528240

 2017-02-08 04:41:00.383219+01 | 1486525260.38322 | 0/27C9AC30               |             667528240

 2017-02-08 04:41:01.768507+01 | 1486525261.76851 | 0/27C9AC30               |             667528240

 2017-02-08 04:41:03.158334+01 | 1486525263.15833 | 0/27C9AC30               |             667528240

 2017-02-08 04:41:04.592911+01 | 1486525264.59291 | 0/27C9AC30               |             667528240

 2017-02-08 04:41:05.946322+01 | 1486525265.94632 | 0/27C9AC30               |             667528240

