 2017-02-09 07:42:41.739666+01 | 1486622561.73967 |                 0 |               9 |                  4978 |                  385 |             576150 |       1165290 |            11581 |        18322378 |                     0 |      20274113 | 2017-02-09 07:01:44.169082+01

 2017-02-09 07:42:42.794199+01 | 1486622562.7942 |                 0 |               9 |                  4978 |                  385 |             576150 |       1165290 |            11581 |        18322378 |                     0 |      20278837 | 2017-02-09 07:01:44.169082+01

 2017-02-09 07:42:43.852511+01 | 1486622563.85251 |                 0 |               9 |                  4978 |                  385 |             576150 |       1165290 |            11581 |        18322378 |                     0 |      20285659 | 2017-02-09 07:01:44.169082+01

 2017-02-09 07:42:44.916693+01 | 1486622564.91669 |                 0 |               9 |                  4978 |                  385 |             576150 |       1165290 |            11581 |        18322378 |                     0 |      20291310 | 2017-02-09 07:01:44.169082+01

 2017-02-09 07:42:45.974927+01 | 1486622565.97493 |                 0 |               9 |                  4978 |                  385 |             576150 |       1165290 |            11581 |        18322378 |                     0 |      20296898 | 2017-02-09 07:01:44.169082+01

 2017-02-09 07:42:47.030846+01 | 1486622567.03085 |                 0 |               9 |                  4978 |                  385 |             576150 |       1165294 |            11581 |        18322378 |                     0 |      20303323 | 2017-02-09 07:01:44.169082+01

 2017-02-09 07:42:48.084354+01 | 1486622568.08435 |                 0 |               9 |                  4978 |                  385 |             576150 |       1165316 |            11581 |        18322378 |                     0 |      20308894 | 2017-02-09 07:01:44.169082+01

 2017-02-09 07:42:49.141309+01 | 1486622569.14131 |                 0 |               9 |                  4978 |                  385 |             576150 |       1165355 |            11581 |        18322378 |                     0 |      20314507 | 2017-02-09 07:01:44.169082+01

 2017-02-09 07:42:50.206069+01 | 1486622570.20607 |                 0 |               9 |                  4978 |                  385 |             576150 |       1165397 |            11581 |        18322378 |                     0 |      20320067 | 2017-02-09 07:01:44.169082+01

 2017-02-09 07:42:51.258135+01 | 1486622571.25814 |                 0 |               9 |                  4978 |                  385 |             576150 |       1165466 |            11581 |        18322378 |                     0 |      20326568 | 2017-02-09 07:01:44.169082+01

 2017-02-09 07:42:52.322426+01 | 1486622572.32243 |                 0 |               9 |                  4978 |                  385 |             576150 |       1165557 |            11581 |        18322378 |                     0 |      20332192 | 2017-02-09 07:01:44.169082+01

 2017-02-09 07:42:53.382196+01 | 1486622573.3822 |                 0 |               9 |                  4978 |                  385 |             576150 |       1165884 |            11581 |        18322378 |                     0 |      20337842 | 2017-02-09 07:01:44.169082+01

 2017-02-09 07:42:54.440619+01 | 1486622574.44062 |                 0 |               9 |                  4978 |                  385 |             576150 |       1166347 |            11581 |        18322378 |                     0 |      20344628 | 2017-02-09 07:01:44.169082+01

 2017-02-09 07:42:55.50585+01 | 1486622575.50585 |                 0 |               9 |                  4978 |                  385 |             576150 |       1166789 |            11582 |        18322378 |                     0 |      20350300 | 2017-02-09 07:01:44.169082+01

 2017-02-09 07:42:56.563657+01 | 1486622576.56366 |                 0 |               9 |                  4978 |                  385 |             576150 |       1167162 |            11582 |        18322378 |                     0 |      20355713 | 2017-02-09 07:01:44.169082+01

 2017-02-09 07:42:57.633683+01 | 1486622577.63368 |                 0 |               9 |                  4978 |                  385 |             576150 |       1167613 |            11582 |        18322378 |                     0 |      20361440 | 2017-02-09 07:01:44.169082+01

 2017-02-09 07:42:58.691653+01 | 1486622578.69165 |                 0 |               9 |                  4978 |                  385 |             576150 |       1168213 |            11588 |        18322378 |                     0 |      20368171 | 2017-02-09 07:01:44.169082+01

 2017-02-09 07:42:59.744809+01 | 1486622579.74481 |                 0 |               9 |                  4978 |                  385 |             576150 |       1168713 |            11593 |        18322378 |                     0 |      20373521 | 2017-02-09 07:01:44.169082+01

 2017-02-09 07:43:00.803195+01 | 1486622580.80319 |                 0 |               9 |                  4978 |                  385 |             576150 |       1169213 |            11598 |        18322378 |                     0 |      20378738 | 2017-02-09 07:01:44.169082+01

 2017-02-09 07:43:01.86521+01 | 1486622581.86521 |                 0 |               9 |                  4978 |                  385 |             576150 |       1169813 |            11604 |        18322378 |                     0 |      20385387 | 2017-02-09 07:01:44.169082+01

 2017-02-09 07:43:02.919207+01 | 1486622582.91921 |                 0 |               9 |                  4978 |                  385 |             576150 |       1170313 |            11609 |        18322378 |                     0 |      20390479 | 2017-02-09 07:01:44.169082+01

 2017-02-09 07:43:03.977933+01 | 1486622583.97793 |                 0 |               9 |                  4978 |                  385 |             576150 |       1170813 |            11614 |        18322378 |                     0 |      20395649 | 2017-02-09 07:01:44.169082+01

 2017-02-09 07:43:05.047738+01 | 1486622585.04774 |                 0 |               9 |                  4978 |                  385 |             576150 |       1171313 |            11619 |        18322378 |                     0 |      20400747 | 2017-02-09 07:01:44.169082+01

 2017-02-09 07:43:06.111025+01 | 1486622586.11103 |                 0 |               9 |                  4978 |                  385 |             576150 |       1171913 |            11625 |        18381391 |                     0 |      20407152 | 2017-02-09 07:01:44.169082+01

 2017-02-09 07:43:07.174337+01 | 1486622587.17434 |                 0 |               9 |                  4978 |                  385 |             576150 |       1172413 |            11630 |        18381391 |                     0 |      20412140 | 2017-02-09 07:01:44.169082+01

 2017-02-09 07:43:08.232368+01 | 1486622588.23237 |                 0 |               9 |                  4978 |                  385 |             576150 |       1172913 |            11635 |        18381391 |                     0 |      20417624 | 2017-02-09 07:01:44.169082+01

 2017-02-09 07:43:09.293916+01 | 1486622589.29392 |                 0 |               9 |                  4978 |                  385 |             576150 |       1173413 |            11640 |        18381391 |                     0 |      20422605 | 2017-02-09 07:01:44.169082+01

 2017-02-09 07:43:10.349371+01 | 1486622590.34937 |                 0 |               9 |                  4978 |                  385 |             576150 |       1174013 |            11646 |        18381391 |                     0 |      20429105 | 2017-02-09 07:01:44.169082+01

 2017-02-09 07:43:11.413547+01 | 1486622591.41355 |                 0 |               9 |                  4978 |                  385 |             576150 |       1174513 |            11651 |        18381391 |                     0 |      20434061 | 2017-02-09 07:01:44.169082+01

 2017-02-09 07:43:12.46619+01 | 1486622592.46619 |                 0 |               9 |                  4978 |                  385 |             576150 |       1175013 |            11656 |        18381391 |                     0 |      20439283 | 2017-02-09 07:01:44.169082+01

 2017-02-09 07:43:13.525295+01 | 1486622593.5253 |                 0 |               9 |                  4978 |                  385 |             576150 |       1175613 |            11662 |        18381391 |                     0 |      20445391 | 2017-02-09 07:01:44.169082+01

 2017-02-09 07:43:14.579957+01 | 1486622594.57996 |                 0 |               9 |                  4978 |                  385 |             576150 |       1176113 |            11667 |        18381391 |                     0 |      20450374 | 2017-02-09 07:01:44.169082+01

 2017-02-09 07:43:15.628434+01 | 1486622595.62843 |                 0 |               9 |                  4978 |                  385 |             576150 |       1176613 |            11672 |        18381391 |                     0 |      20455634 | 2017-02-09 07:01:44.169082+01

 2017-02-09 07:43:16.690427+01 | 1486622596.69043 |                 0 |               9 |                  4978 |                  385 |             576150 |       1177113 |            11677 |        18381391 |                     0 |      20460577 | 2017-02-09 07:01:44.169082+01

 2017-02-09 07:43:17.748478+01 | 1486622597.74848 |                 0 |               9 |                  4978 |                  385 |             576150 |       1177713 |            11683 |        18381391 |                     0 |      20466916 | 2017-02-09 07:01:44.169082+01

 2017-02-09 07:43:18.807518+01 | 1486622598.80752 |                 0 |               9 |                  4978 |                  385 |             576150 |       1178213 |            11688 |        18381391 |                     0 |      20471957 | 2017-02-09 07:01:44.169082+01

 2017-02-09 07:43:19.863322+01 | 1486622599.86332 |                 0 |               9 |                  4978 |                  385 |             576150 |       1178713 |            11693 |        18440128 |                     0 |      20477156 | 2017-02-09 07:01:44.169082+01

 2017-02-09 07:43:20.923566+01 | 1486622600.92357 |                 0 |               9 |                  4978 |                  385 |             576150 |       1179213 |            11698 |        18440128 |                     0 |      20482054 | 2017-02-09 07:01:44.169082+01

 2017-02-09 07:43:21.979402+01 | 1486622601.9794 |                 0 |               9 |                  4978 |                  385 |             576150 |       1179813 |            11704 |        18440128 |                     0 |      20488068 | 2017-02-09 07:01:44.169082+01

 2017-02-09 07:43:23.036329+01 | 1486622603.03633 |                 0 |               9 |                  4978 |                  385 |             576150 |       1180313 |            11709 |        18440128 |                     0 |      20493208 | 2017-02-09 07:01:44.169082+01

 2017-02-09 07:43:24.091547+01 | 1486622604.09155 |                 0 |               9 |                  4978 |                  385 |             576150 |       1180813 |            11714 |        18440128 |                     0 |      20498034 | 2017-02-09 07:01:44.169082+01

 2017-02-09 07:43:25.152968+01 | 1486622605.15297 |                 0 |               9 |                  4978 |                  385 |             576150 |       1181313 |            11719 |        18440128 |                     0 |      20503327 | 2017-02-09 07:01:44.169082+01

 2017-02-09 07:43:26.208721+01 | 1486622606.20872 |                 0 |               9 |                  4978 |                  385 |             576150 |       1181913 |            11725 |        18440128 |                     0 |      20509454 | 2017-02-09 07:01:44.169082+01

 2017-02-09 07:43:27.266721+01 | 1486622607.26672 |                 0 |               9 |                  4978 |                  385 |             576150 |       1182413 |            11730 |        18440128 |                     0 |      20514555 | 2017-02-09 07:01:44.169082+01

 2017-02-09 07:43:28.325869+01 | 1486622608.32587 |                 0 |               9 |                  4978 |                  385 |             576150 |       1182913 |            11735 |        18440128 |                     0 |      20519945 | 2017-02-09 07:01:44.169082+01

 2017-02-09 07:43:29.392369+01 | 1486622609.39237 |                 0 |               9 |                  4978 |                  385 |             576150 |       1183413 |            11740 |        18440128 |                     0 |      20525067 | 2017-02-09 07:01:44.169082+01

 2017-02-09 07:43:30.449849+01 | 1486622610.44985 |                 0 |               9 |                  4978 |                  385 |             576150 |       1184013 |            11746 |        18440128 |                     0 |      20531257 | 2017-02-09 07:01:44.169082+01

 2017-02-09 07:43:31.506544+01 | 1486622611.50654 |                 0 |               9 |                  4978 |                  385 |             576150 |       1184513 |            11751 |        18440128 |                     0 |      20536785 | 2017-02-09 07:01:44.169082+01

 2017-02-09 07:43:32.572233+01 | 1486622612.57223 |                 0 |               9 |                  4978 |                  385 |             576150 |       1185013 |            11756 |        18499765 |                     0 |      20542058 | 2017-02-09 07:01:44.169082+01

 2017-02-09 07:43:33.633348+01 | 1486622613.63335 |                 0 |               9 |                  4978 |                  385 |             576150 |       1185613 |            11762 |        18499765 |                     0 |      20548159 | 2017-02-09 07:01:44.169082+01

 2017-02-09 07:43:34.695193+01 | 1486622614.69519 |                 0 |               9 |                  4978 |                  385 |             576150 |       1186113 |            11767 |        18499765 |                     0 |      20553402 | 2017-02-09 07:01:44.169082+01

 2017-02-09 07:43:35.761329+01 | 1486622615.76133 |                 0 |               9 |                  4978 |                  385 |             576150 |       1186613 |            11772 |        18499765 |                     0 |      20558922 | 2017-02-09 07:01:44.169082+01

 2017-02-09 07:43:36.82193+01 | 1486622616.82193 |                 0 |               9 |                  4978 |                  385 |             576150 |       1187113 |            11777 |        18499765 |                     0 |      20564054 | 2017-02-09 07:01:44.169082+01

 2017-02-09 07:43:37.883014+01 | 1486622617.88301 |                 0 |               9 |                  4978 |                  385 |             576150 |       1187713 |            11783 |        18499765 |                     0 |      20570264 | 2017-02-09 07:01:44.169082+01

 2017-02-09 07:43:38.938178+01 | 1486622618.93818 |                 0 |               9 |                  4978 |                  385 |             576150 |       1188213 |            11788 |        18499765 |                     0 |      20575762 | 2017-02-09 07:01:44.169082+01

 2017-02-09 07:43:39.994947+01 | 1486622619.99495 |                 0 |               9 |                  4978 |                  385 |             576150 |       1188713 |            11793 |        18499765 |                     0 |      20580899 | 2017-02-09 07:01:44.169082+01

 2017-02-09 07:43:41.052042+01 | 1486622621.05204 |                 0 |               9 |                  4978 |                  385 |             576150 |       1189213 |            11798 |        18499765 |                     0 |      20586075 | 2017-02-09 07:01:44.169082+01

 2017-02-09 07:43:42.107653+01 | 1486622622.10765 |                 0 |               9 |                  4978 |                  385 |             576150 |       1189813 |            11804 |        18499765 |                     0 |      20592609 | 2017-02-09 07:01:44.169082+01

 2017-02-09 07:43:43.170788+01 | 1486622623.17079 |                 0 |               9 |                  4978 |                  385 |             576150 |       1190313 |            11809 |        18559801 |                     0 |      20597846 | 2017-02-09 07:01:44.169082+01

 2017-02-09 07:43:44.241634+01 | 1486622624.24163 |                 0 |               9 |                  4978 |                  385 |             576150 |       1190813 |            11814 |        18559801 |                     0 |      20603158 | 2017-02-09 07:01:44.169082+01

 2017-02-09 07:43:45.297983+01 | 1486622625.29798 |                 0 |               9 |                  4978 |                  385 |             576150 |       1191413 |            11820 |        18559801 |                     0 |      20609475 | 2017-02-09 07:01:44.169082+01

 2017-02-09 07:43:46.358049+01 | 1486622626.35805 |                 0 |               9 |                  4978 |                  385 |             576150 |       1191913 |            11825 |        18559801 |                     0 |      20615051 | 2017-02-09 07:01:44.169082+01

 2017-02-09 07:43:47.417334+01 | 1486622627.41733 |                 0 |               9 |                  4978 |                  385 |             576150 |       1192413 |            11830 |        18559801 |                     0 |      20620270 | 2017-02-09 07:01:44.169082+01

 2017-02-09 07:43:48.481664+01 | 1486622628.48166 |                 0 |               9 |                  4978 |                  385 |             576150 |       1192913 |            11835 |        18559801 |                     0 |      20625635 | 2017-02-09 07:01:44.169082+01

 2017-02-09 07:43:49.541728+01 | 1486622629.54173 |                 0 |               9 |                  4978 |                  385 |             576150 |       1193513 |            11841 |        18559801 |                     0 |      20632440 | 2017-02-09 07:01:44.169082+01

 2017-02-09 07:43:50.599861+01 | 1486622630.59986 |                 0 |               9 |                  4978 |                  385 |             576150 |       1194013 |            11846 |        18559801 |                     0 |      20637793 | 2017-02-09 07:01:44.169082+01

 2017-02-09 07:43:51.653568+01 | 1486622631.65357 |                 0 |               9 |                  4978 |                  385 |             576150 |       1194513 |            11851 |        18559801 |                     0 |      20643076 | 2017-02-09 07:01:44.169082+01

 2017-02-09 07:43:52.715399+01 | 1486622632.7154 |                 0 |               9 |                  4978 |                  385 |             576150 |       1195013 |            11856 |        18559801 |                     0 |      20648743 | 2017-02-09 07:01:44.169082+01

 2017-02-09 07:43:53.784318+01 | 1486622633.78432 |                 0 |               9 |                  4978 |                  385 |             576150 |       1195613 |            11862 |        18619837 |                     0 |      20655199 | 2017-02-09 07:01:44.169082+01

 2017-02-09 07:43:54.841666+01 | 1486622634.84167 |                 0 |               9 |                  4978 |                  385 |             576150 |       1196113 |            11867 |        18619837 |                     0 |      20660587 | 2017-02-09 07:01:44.169082+01

 2017-02-09 07:43:55.893493+01 | 1486622635.89349 |                 0 |               9 |                  4978 |                  385 |             576150 |       1196613 |            11872 |        18619837 |                     0 |      20666182 | 2017-02-09 07:01:44.169082+01

 2017-02-09 07:43:56.947855+01 | 1486622636.94785 |                 0 |               9 |                  4978 |                  385 |             576150 |       1197213 |            11878 |        18619837 |                     0 |      20672643 | 2017-02-09 07:01:44.169082+01

 2017-02-09 07:43:58.012324+01 | 1486622638.01232 |                 0 |               9 |                  4978 |                  385 |             576150 |       1197713 |            11883 |        18619837 |                     0 |      20677893 | 2017-02-09 07:01:44.169082+01

 2017-02-09 07:43:59.071136+01 | 1486622639.07114 |                 0 |               9 |                  4978 |                  385 |             576150 |       1198213 |            11888 |        18619837 |                     0 |      20683248 | 2017-02-09 07:01:44.169082+01

 2017-02-09 07:44:00.13614+01 | 1486622640.13614 |                 0 |               9 |                  4978 |                  385 |             576150 |       1198713 |            11893 |        18619837 |                     0 |      20688883 | 2017-02-09 07:01:44.169082+01

 2017-02-09 07:44:01.200043+01 | 1486622641.20004 |                 0 |               9 |                  4978 |                  385 |             576150 |       1199313 |            11899 |        18619837 |                     0 |      20695433 | 2017-02-09 07:01:44.169082+01

 2017-02-09 07:44:02.258795+01 | 1486622642.2588 |                 0 |               9 |                  4978 |                  385 |             576150 |       1199813 |            11904 |        18619837 |                     0 |      20702832 | 2017-02-09 07:01:44.169082+01

 2017-02-09 07:44:03.316254+01 | 1486622643.31625 |                 0 |               9 |                  4978 |                  385 |             576150 |       1200313 |            11909 |        18619837 |                     0 |      20711757 | 2017-02-09 07:01:44.169082+01

 2017-02-09 07:44:04.373466+01 | 1486622644.37347 |                 0 |               9 |                  4978 |                  385 |             576150 |       1200813 |            11914 |        18680075 |                     0 |      20720171 | 2017-02-09 07:01:44.169082+01

 2017-02-09 07:44:05.441557+01 | 1486622645.44156 |                 0 |               9 |                  4978 |                  385 |             576150 |       1201413 |            11920 |        18680075 |                     0 |      20730129 | 2017-02-09 07:01:44.169082+01

 2017-02-09 07:44:06.503027+01 | 1486622646.50303 |                 0 |               9 |                  4978 |                  385 |             576150 |       1201913 |            11925 |        18680075 |                     0 |      20738500 | 2017-02-09 07:01:44.169082+01

 2017-02-09 07:44:07.568505+01 | 1486622647.56851 |                 0 |               9 |                  4978 |                  385 |             576150 |       1202413 |            11930 |        18680075 |                     0 |      20746409 | 2017-02-09 07:01:44.169082+01

 2017-02-09 07:44:08.628627+01 | 1486622648.62863 |                 0 |               9 |                  4978 |                  385 |             576150 |       1203013 |            11936 |        18680075 |                     0 |      20757015 | 2017-02-09 07:01:44.169082+01

 2017-02-09 07:44:09.687062+01 | 1486622649.68706 |                 0 |               9 |                  4978 |                  385 |             576150 |       1203513 |            11941 |        18680075 |                     0 |      20765159 | 2017-02-09 07:01:44.169082+01

 2017-02-09 07:44:10.748641+01 | 1486622650.74864 |                 0 |               9 |                  4978 |                  385 |             576150 |       1204013 |            11946 |        18680075 |                     0 |      20773548 | 2017-02-09 07:01:44.169082+01

 2017-02-09 07:44:11.808624+01 | 1486622651.80862 |                 0 |               9 |                  4978 |                  385 |             576150 |       1204513 |            11951 |        18680075 |                     0 |      20782054 | 2017-02-09 07:01:44.169082+01

 2017-02-09 07:44:12.870729+01 | 1486622652.87073 |                 0 |               9 |                  4978 |                  385 |             576150 |       1205113 |            11957 |        18680075 |                     0 |      20791605 | 2017-02-09 07:01:44.169082+01

 2017-02-09 07:44:13.934357+01 | 1486622653.93436 |                 0 |               9 |                  4978 |                  385 |             576150 |       1205613 |            11962 |        18680075 |                     0 |      20800286 | 2017-02-09 07:01:44.169082+01

 2017-02-09 07:44:15.00042+01 | 1486622655.00042 |                 0 |               9 |                  4978 |                  385 |             576150 |       1206113 |            11967 |        18680075 |                     0 |      20808767 | 2017-02-09 07:01:44.169082+01

 2017-02-09 07:44:16.050813+01 | 1486622656.05081 |                 0 |               9 |                  4978 |                  385 |             576150 |       1206713 |            11973 |        18680075 |                     0 |      20819508 | 2017-02-09 07:01:44.169082+01

 2017-02-09 07:44:17.126129+01 | 1486622657.12613 |                 0 |               9 |                  4978 |                  385 |             576150 |       1207213 |            11978 |        18739722 |                     0 |      20827456 | 2017-02-09 07:01:44.169082+01

 2017-02-09 07:44:18.197346+01 | 1486622658.19735 |                 0 |               9 |                  4978 |                  385 |             576150 |       1207713 |            11983 |        18739722 |                     0 |      20834772 | 2017-02-09 07:01:44.169082+01

 2017-02-09 07:44:19.254268+01 | 1486622659.25427 |                 0 |               9 |                  4978 |                  385 |             576150 |       1208313 |            11989 |        18739722 |                     0 |      20844444 | 2017-02-09 07:01:44.169082+01

 2017-02-09 07:44:20.316114+01 | 1486622660.31611 |                 0 |               9 |                  4978 |                  385 |             576150 |       1208813 |            11994 |        18739722 |                     0 |      20852331 | 2017-02-09 07:01:44.169082+01

 2017-02-09 07:44:21.380893+01 | 1486622661.38089 |                 0 |               9 |                  4978 |                  385 |             576150 |       1209313 |            11999 |        18739722 |                     0 |      20859915 | 2017-02-09 07:01:44.169082+01

 2017-02-09 07:44:22.4367+01 | 1486622662.4367 |                 0 |               9 |                  4978 |                  385 |             576150 |       1209813 |            12004 |        18739722 |                     0 |      20867884 | 2017-02-09 07:01:44.169082+01

 2017-02-09 07:44:23.496626+01 | 1486622663.49663 |                 0 |               9 |                  4978 |                  385 |             576150 |       1210413 |            12010 |        18739722 |                     0 |      20877157 | 2017-02-09 07:01:44.169082+01

 2017-02-09 07:44:24.558795+01 | 1486622664.55879 |                 0 |               9 |                  4978 |                  385 |             576150 |       1210913 |            12015 |        18739722 |                     0 |      20884394 | 2017-02-09 07:01:44.169082+01

 2017-02-09 07:44:25.615165+01 | 1486622665.61516 |                 0 |               9 |                  4978 |                  385 |             576150 |       1211413 |            12020 |        18739722 |                     0 |      20892070 | 2017-02-09 07:01:44.169082+01

 2017-02-09 07:44:26.674057+01 | 1486622666.67406 |                 0 |               9 |                  4978 |                  385 |             576150 |       1211913 |            12025 |        18739722 |                     0 |      20899481 | 2017-02-09 07:01:44.169082+01

 2017-02-09 07:44:27.733265+01 | 1486622667.73326 |                 0 |               9 |                  4978 |                  385 |             576150 |       1212513 |            12031 |        18799558 |                     0 |      20908452 | 2017-02-09 07:01:44.169082+01

 2017-02-09 07:44:28.78842+01 | 1486622668.78842 |                 0 |               9 |                  4978 |                  385 |             576150 |       1213013 |            12036 |        18799558 |                     0 |      20916243 | 2017-02-09 07:01:44.169082+01

 2017-02-09 07:44:29.851978+01 | 1486622669.85198 |                 0 |               9 |                  4978 |                  385 |             576150 |       1213513 |            12041 |        18799558 |                     0 |      20923675 | 2017-02-09 07:01:44.169082+01

 2017-02-09 07:44:30.90758+01 | 1486622670.90758 |                 0 |               9 |                  4978 |                  385 |             576150 |       1214013 |            12046 |        18799558 |                     0 |      20930786 | 2017-02-09 07:01:44.169082+01

 2017-02-09 07:44:31.961041+01 | 1486622671.96104 |                 0 |               9 |                  4978 |                  385 |             576150 |       1214613 |            12052 |        18799558 |                     0 |      20939937 | 2017-02-09 07:01:44.169082+01

 2017-02-09 07:44:33.021081+01 | 1486622673.02108 |                 0 |               9 |                  4978 |                  385 |             576150 |       1215113 |            12057 |        18799558 |                     0 |      20946824 | 2017-02-09 07:01:44.169082+01

 2017-02-09 07:44:34.080365+01 | 1486622674.08036 |                 0 |               9 |                  4978 |                  385 |             576150 |       1215613 |            12062 |        18799558 |                     0 |      20953675 | 2017-02-09 07:01:44.169082+01

 2017-02-09 07:44:35.137903+01 | 1486622675.1379 |                 0 |               9 |                  4978 |                  385 |             576150 |       1216213 |            12068 |        18799558 |                     0 |      20962370 | 2017-02-09 07:01:44.169082+01

 2017-02-09 07:44:36.203496+01 | 1486622676.2035 |                 0 |               9 |                  4978 |                  385 |             576150 |       1216713 |            12073 |        18799558 |                     0 |      20969391 | 2017-02-09 07:01:44.169082+01

 2017-02-09 07:44:37.278148+01 | 1486622677.27815 |                 0 |               9 |                  4978 |                  385 |             576150 |       1217213 |            12078 |        18799558 |                     0 |      20976302 | 2017-02-09 07:01:44.169082+01

 2017-02-09 07:44:38.330566+01 | 1486622678.33057 |                 0 |               9 |                  4978 |                  385 |             576150 |       1217713 |            12083 |        18799558 |                     0 |      20983586 | 2017-02-09 07:01:44.169082+01

 2017-02-09 07:44:39.388777+01 | 1486622679.38878 |                 0 |               9 |                  4978 |                  385 |             576150 |       1218313 |            12089 |        18859357 |                     0 |      20991568 | 2017-02-09 07:01:44.169082+01

 2017-02-09 07:44:40.442745+01 | 1486622680.44274 |                 0 |               9 |                  4978 |                  385 |             576150 |       1218813 |            12094 |        18859357 |                     0 |      20998137 | 2017-02-09 07:01:44.169082+01

 2017-02-09 07:44:41.509479+01 | 1486622681.50948 |                 0 |               9 |                  4978 |                  385 |             576150 |       1219313 |            12099 |        18859357 |                     0 |      21005112 | 2017-02-09 07:01:44.169082+01

 2017-02-09 07:44:42.566004+01 | 1486622682.566 |                 0 |               9 |                  4978 |                  385 |             576150 |       1219813 |            12104 |        18859357 |                     0 |      21011552 | 2017-02-09 07:01:44.169082+01

 2017-02-09 07:44:43.628526+01 | 1486622683.62853 |                 0 |               9 |                  4978 |                  385 |             576150 |       1220413 |            12110 |        18859357 |                     0 |      21019290 | 2017-02-09 07:01:44.169082+01

 2017-02-09 07:44:44.683263+01 | 1486622684.68326 |                 0 |               9 |                  4978 |                  385 |             576150 |       1220913 |            12115 |        18859357 |                     0 |      21026029 | 2017-02-09 07:01:44.169082+01

 2017-02-09 07:44:45.743392+01 | 1486622685.74339 |                 0 |               9 |                  4978 |                  385 |             576150 |       1221413 |            12120 |        18859357 |                     0 |      21032266 | 2017-02-09 07:01:44.169082+01

 2017-02-09 07:44:46.813479+01 | 1486622686.81348 |                 0 |               9 |                  4978 |                  385 |             576150 |       1222013 |            12126 |        18859357 |                     0 |      21040277 | 2017-02-09 07:01:44.169082+01

 2017-02-09 07:44:47.866133+01 | 1486622687.86613 |                 0 |               9 |                  4978 |                  385 |             576150 |       1222513 |            12131 |        18859357 |                     0 |      21046886 | 2017-02-09 07:01:44.169082+01

 2017-02-09 07:44:48.922941+01 | 1486622688.92294 |                 0 |               9 |                  4978 |                  385 |             576150 |       1223013 |            12136 |        18859357 |                     0 |      21053209 | 2017-02-09 07:01:44.169082+01

 2017-02-09 07:44:49.975952+01 | 1486622689.97595 |                 0 |               9 |                  4978 |                  385 |             576150 |       1223513 |            12141 |        18859357 |                     0 |      21059388 | 2017-02-09 07:01:44.169082+01

 2017-02-09 07:44:51.038469+01 | 1486622691.03847 |                 0 |               9 |                  4978 |                  385 |             576150 |       1224113 |            12147 |        18919240 |                     0 |      21066967 | 2017-02-09 07:01:44.169082+01

 2017-02-09 07:44:52.106447+01 | 1486622692.10645 |                 0 |               9 |                  4978 |                  385 |             576150 |       1224613 |            12152 |        18919240 |                     0 |      21073496 | 2017-02-09 07:01:44.169082+01

 2017-02-09 07:44:53.178838+01 | 1486622693.17884 |                 0 |               9 |                  4978 |                  385 |             576150 |       1225113 |            12157 |        18919240 |                     0 |      21079539 | 2017-02-09 07:01:44.169082+01

 2017-02-09 07:44:54.246882+01 | 1486622694.24688 |                 0 |               9 |                  4978 |                  385 |             576150 |       1225713 |            12163 |        18919240 |                     0 |      21086890 | 2017-02-09 07:01:44.169082+01

 2017-02-09 07:44:55.310854+01 | 1486622695.31085 |                 0 |               9 |                  4978 |                  385 |             576150 |       1226213 |            12168 |        18919240 |                     0 |      21093258 | 2017-02-09 07:01:44.169082+01

 2017-02-09 07:44:56.392375+01 | 1486622696.39237 |                 0 |               9 |                  4978 |                  385 |             576150 |       1226713 |            12173 |        18919240 |                     0 |      21099323 | 2017-02-09 07:01:44.169082+01

 2017-02-09 07:44:57.454439+01 | 1486622697.45444 |                 0 |               9 |                  4978 |                  385 |             576150 |       1227313 |            12179 |        18919240 |                     0 |      21106796 | 2017-02-09 07:01:44.169082+01

 2017-02-09 07:44:58.515545+01 | 1486622698.51554 |                 0 |               9 |                  4978 |                  385 |             576150 |       1227813 |            12184 |        18919240 |                     0 |      21113197 | 2017-02-09 07:01:44.169082+01

 2017-02-09 07:44:59.571224+01 | 1486622699.57122 |                 0 |               9 |                  4978 |                  385 |             576150 |       1228313 |            12189 |        18919240 |                     0 |      21119308 | 2017-02-09 07:01:44.169082+01

 2017-02-09 07:45:00.630652+01 | 1486622700.63065 |                 0 |               9 |                  4978 |                  385 |             576150 |       1228813 |            12194 |        18919240 |                     0 |      21125109 | 2017-02-09 07:01:44.169082+01

 2017-02-09 07:45:01.689675+01 | 1486622701.68968 |                 0 |               9 |                  4978 |                  385 |             576150 |       1229413 |            12200 |        18919240 |                     0 |      21132484 | 2017-02-09 07:01:44.169082+01

 2017-02-09 07:45:02.746744+01 | 1486622702.74674 |                 0 |               9 |                  4978 |                  385 |             576150 |       1229913 |            12205 |        18979176 |                     0 |      21138651 | 2017-02-09 07:01:44.169082+01

 2017-02-09 07:45:03.79831+01 | 1486622703.79831 |                 0 |               9 |                  4978 |                  385 |             576150 |       1230413 |            12210 |        18979176 |                     0 |      21144725 | 2017-02-09 07:01:44.169082+01

 2017-02-09 07:45:04.862866+01 | 1486622704.86287 |                 0 |               9 |                  4978 |                  385 |             576150 |       1230913 |            12215 |        18979176 |                     0 |      21150781 | 2017-02-09 07:01:44.169082+01

 2017-02-09 07:45:05.920986+01 | 1486622705.92099 |                 0 |               9 |                  4978 |                  385 |             576150 |       1231513 |            12221 |        18979176 |                     0 |      21158293 | 2017-02-09 07:01:44.169082+01

 2017-02-09 07:45:06.985885+01 | 1486622706.98588 |                 0 |               9 |                  4978 |                  385 |             576150 |       1232013 |            12226 |        18979176 |                     0 |      21164121 | 2017-02-09 07:01:44.169082+01

 2017-02-09 07:45:08.045497+01 | 1486622708.0455 |                 0 |               9 |                  4978 |                  385 |             576150 |       1232513 |            12231 |        18979176 |                     0 |      21169979 | 2017-02-09 07:01:44.169082+01

 2017-02-09 07:45:09.113727+01 | 1486622709.11373 |                 0 |               9 |                  4978 |                  385 |             576150 |       1233013 |            12236 |        18979176 |                     0 |      21176173 | 2017-02-09 07:01:44.169082+01

 2017-02-09 07:45:10.170164+01 | 1486622710.17016 |                 0 |               9 |                  4978 |                  385 |             576150 |       1233613 |            12242 |        18979176 |                     0 |      21183432 | 2017-02-09 07:01:44.169082+01

 2017-02-09 07:45:11.226663+01 | 1486622711.22666 |                 0 |               9 |                  4978 |                  385 |             576150 |       1234113 |            12247 |        18979176 |                     0 |      21189461 | 2017-02-09 07:01:44.169082+01

 2017-02-09 07:45:12.278343+01 | 1486622712.27834 |                 0 |               9 |                  4978 |                  385 |             576150 |       1234613 |            12252 |        18979176 |                     0 |      21195652 | 2017-02-09 07:01:44.169082+01

 2017-02-09 07:45:13.332628+01 | 1486622713.33263 |                 0 |               9 |                  4978 |                  385 |             576150 |       1235113 |            12257 |        19039312 |                     0 |      21201561 | 2017-02-09 07:01:44.169082+01

 2017-02-09 07:45:14.400938+01 | 1486622714.40094 |                 0 |               9 |                  4978 |                  385 |             576150 |       1235713 |            12263 |        19039312 |                     0 |      21208655 | 2017-02-09 07:01:44.169082+01

 2017-02-09 07:45:15.461074+01 | 1486622715.46107 |                 0 |               9 |                  4978 |                  385 |             576150 |       1236213 |            12268 |        19039312 |                     0 |      21214592 | 2017-02-09 07:01:44.169082+01

 2017-02-09 07:45:16.52805+01 | 1486622716.52805 |                 0 |               9 |                  4978 |                  385 |             576150 |       1236713 |            12273 |        19039312 |                     0 |      21220752 | 2017-02-09 07:01:44.169082+01

 2017-02-09 07:45:17.588981+01 | 1486622717.58898 |                 0 |               9 |                  4978 |                  385 |             576150 |       1237313 |            12279 |        19039312 |                     0 |      21227736 | 2017-02-09 07:01:44.169082+01

 2017-02-09 07:45:18.655484+01 | 1486622718.65548 |                 0 |               9 |                  4978 |                  385 |             576150 |       1237813 |            12284 |        19039312 |                     0 |      21233609 | 2017-02-09 07:01:44.169082+01

 2017-02-09 07:45:19.725214+01 | 1486622719.72521 |                 0 |               9 |                  4978 |                  385 |             576150 |       1238313 |            12289 |        19039312 |                     0 |      21239772 | 2017-02-09 07:01:44.169082+01

 2017-02-09 07:45:20.788157+01 | 1486622720.78816 |                 0 |               9 |                  4978 |                  385 |             576150 |       1238813 |            12294 |        19039312 |                     0 |      21245617 | 2017-02-09 07:01:44.169082+01

 2017-02-09 07:45:21.853043+01 | 1486622721.85304 |                 0 |               9 |                  4978 |                  385 |             576150 |       1239413 |            12300 |        19039312 |                     0 |      21252856 | 2017-02-09 07:01:44.169082+01

 2017-02-09 07:45:22.910662+01 | 1486622722.91066 |                 0 |               9 |                  4978 |                  385 |             576150 |       1239913 |            12305 |        19039312 |                     0 |      21259008 | 2017-02-09 07:01:44.169082+01

 2017-02-09 07:45:23.974825+01 | 1486622723.97482 |                 0 |               9 |                  4978 |                  385 |             576150 |       1240413 |            12310 |        19099254 |                     0 |      21264617 | 2017-02-09 07:01:44.169082+01

 2017-02-09 07:45:25.043328+01 | 1486622725.04333 |                 0 |               9 |                  4978 |                  385 |             576150 |       1241013 |            12316 |        19099254 |                     0 |      21271787 | 2017-02-09 07:01:44.169082+01

 2017-02-09 07:45:26.109563+01 | 1486622726.10956 |                 0 |               9 |                  4978 |                  385 |             576150 |       1241513 |            12321 |        19099254 |                     0 |      21277669 | 2017-02-09 07:01:44.169082+01

 2017-02-09 07:45:27.162865+01 | 1486622727.16286 |                 0 |               9 |                  4978 |                  385 |             576150 |       1242013 |            12326 |        19099254 |                     0 |      21283969 | 2017-02-09 07:01:44.169082+01

 2017-02-09 07:45:28.226751+01 | 1486622728.22675 |                 0 |               9 |                  4978 |                  385 |             576150 |       1242513 |            12331 |        19099254 |                     0 |      21289812 | 2017-02-09 07:01:44.169082+01

 2017-02-09 07:45:29.286887+01 | 1486622729.28689 |                 0 |               9 |                  4978 |                  385 |             576150 |       1243113 |            12337 |        19099254 |                     0 |      21296994 | 2017-02-09 07:01:44.169082+01

 2017-02-09 07:45:30.344443+01 | 1486622730.34444 |                 0 |               9 |                  4978 |                  385 |             576150 |       1243613 |            12342 |        19099254 |                     0 |      21303102 | 2017-02-09 07:01:44.169082+01

 2017-02-09 07:45:31.405496+01 | 1486622731.4055 |                 0 |               9 |                  4978 |                  385 |             576150 |       1244113 |            12347 |        19099254 |                     0 |      21309130 | 2017-02-09 07:01:44.169082+01

 2017-02-09 07:45:32.469342+01 | 1486622732.46934 |                 0 |               9 |                  4978 |                  385 |             576150 |       1244713 |            12353 |        19099254 |                     0 |      21316111 | 2017-02-09 07:01:44.169082+01

 2017-02-09 07:45:33.532274+01 | 1486622733.53227 |                 0 |               9 |                  4978 |                  385 |             576150 |       1245213 |            12358 |        19099254 |                     0 |      21321937 | 2017-02-09 07:01:44.169082+01

 2017-02-09 07:45:34.601117+01 | 1486622734.60112 |                 0 |               9 |                  4978 |                  385 |             576150 |       1245713 |            12363 |        19099254 |                     0 |      21327934 | 2017-02-09 07:01:44.169082+01

 2017-02-09 07:45:35.681171+01 | 1486622735.68117 |                 0 |               9 |                  4978 |                  385 |             576150 |       1246213 |            12368 |        19159491 |                     0 |      21333722 | 2017-02-09 07:01:44.169082+01

 2017-02-09 07:45:36.74822+01 | 1486622736.74822 |                 0 |               9 |                  4978 |                  385 |             576150 |       1246813 |            12374 |        19159491 |                     0 |      21340663 | 2017-02-09 07:01:44.169082+01

 2017-02-09 07:45:37.800837+01 | 1486622737.80084 |                 0 |               9 |                  4978 |                  385 |             576150 |       1247313 |            12379 |        19159491 |                     0 |      21346726 | 2017-02-09 07:01:44.169082+01

 2017-02-09 07:45:38.86099+01 | 1486622738.86099 |                 0 |               9 |                  4978 |                  385 |             576150 |       1247813 |            12384 |        19159491 |                     0 |      21352366 | 2017-02-09 07:01:44.169082+01

 2017-02-09 07:45:39.918471+01 | 1486622739.91847 |                 0 |               9 |                  4978 |                  385 |             576150 |       1248413 |            12390 |        19159491 |                     0 |      21359363 | 2017-02-09 07:01:44.169082+01

 2017-02-09 07:45:40.984994+01 | 1486622740.98499 |                 0 |               9 |                  4978 |                  385 |             576150 |       1248913 |            12395 |        19159491 |                     0 |      21365029 | 2017-02-09 07:01:44.169082+01

 2017-02-09 07:45:42.047844+01 | 1486622742.04784 |                 0 |               9 |                  4978 |                  385 |             576150 |       1249413 |            12400 |        19159491 |                     0 |      21371029 | 2017-02-09 07:01:44.169082+01

 2017-02-09 07:45:43.114967+01 | 1486622743.11497 |                 0 |               9 |                  4978 |                  385 |             576150 |       1249913 |            12405 |        19159491 |                     0 |      21376761 | 2017-02-09 07:01:44.169082+01

 2017-02-09 07:45:44.180537+01 | 1486622744.18054 |                 0 |               9 |                  4978 |                  385 |             576150 |       1250513 |            12411 |        19159491 |                     0 |      21383829 | 2017-02-09 07:01:44.169082+01

 2017-02-09 07:45:45.266344+01 | 1486622745.26634 |                 0 |               9 |                  4978 |                  385 |             576150 |       1251013 |            12416 |        19159491 |                     0 |      21389981 | 2017-02-09 07:01:44.169082+01

 2017-02-09 07:45:46.332313+01 | 1486622746.33231 |                 0 |               9 |                  4978 |                  385 |             576150 |       1251513 |            12421 |        19219528 |                     0 |      21395733 | 2017-02-09 07:01:44.169082+01

 2017-02-09 07:45:47.399965+01 | 1486622747.39997 |                 0 |               9 |                  4978 |                  385 |             576150 |       1252113 |            12427 |        19219528 |                     0 |      21402654 | 2017-02-09 07:01:44.169082+01

 2017-02-09 07:45:48.473517+01 | 1486622748.47352 |                 0 |               9 |                  4978 |                  385 |             576150 |       1252613 |            12432 |        19219528 |                     0 |      21408376 | 2017-02-09 07:01:44.169082+01

 2017-02-09 07:45:49.539412+01 | 1486622749.53941 |                 0 |               9 |                  4978 |                  385 |             576150 |       1253113 |            12437 |        19219528 |                     0 |      21414551 | 2017-02-09 07:01:44.169082+01

 2017-02-09 07:45:50.598479+01 | 1486622750.59848 |                 0 |               9 |                  4978 |                  385 |             576150 |       1253713 |            12443 |        19219528 |                     0 |      21421523 | 2017-02-09 07:01:44.169082+01

 2017-02-09 07:45:51.65369+01 | 1486622751.65369 |                 0 |               9 |                  4978 |                  385 |             576150 |       1254213 |            12448 |        19219528 |                     0 |      21427236 | 2017-02-09 07:01:44.169082+01

 2017-02-09 07:45:52.71415+01 | 1486622752.71415 |                 0 |               9 |                  4978 |                  385 |             576150 |       1254713 |            12453 |        19219528 |                     0 |      21433380 | 2017-02-09 07:01:44.169082+01

 2017-02-09 07:45:53.77292+01 | 1486622753.77292 |                 0 |               9 |                  4978 |                  385 |             576150 |       1255313 |            12459 |        19219528 |                     0 |      21440298 | 2017-02-09 07:01:44.169082+01

 2017-02-09 07:45:54.832355+01 | 1486622754.83236 |                 0 |               9 |                  4978 |                  385 |             576150 |       1255813 |            12464 |        19219528 |                     0 |      21446021 | 2017-02-09 07:01:44.169082+01

 2017-02-09 07:45:55.896325+01 | 1486622755.89633 |                 0 |               9 |                  4978 |                  385 |             576150 |       1256313 |            12469 |        19219528 |                     0 |      21451848 | 2017-02-09 07:01:44.169082+01

 2017-02-09 07:45:56.958528+01 | 1486622756.95853 |                 0 |               9 |                  4978 |                  385 |             576150 |       1256813 |            12474 |        19279764 |                     0 |      21457933 | 2017-02-09 07:01:44.169082+01

 2017-02-09 07:45:58.01499+01 | 1486622758.01499 |                 0 |               9 |                  4978 |                  385 |             576150 |       1257413 |            12480 |        19279764 |                     0 |      21464849 | 2017-02-09 07:01:44.169082+01

 2017-02-09 07:45:59.074489+01 | 1486622759.07449 |                 0 |               9 |                  4978 |                  385 |             576150 |       1257913 |            12485 |        19279764 |                     0 |      21470718 | 2017-02-09 07:01:44.169082+01

 2017-02-09 07:46:00.134899+01 | 1486622760.1349 |                 0 |               9 |                  4978 |                  385 |             576150 |       1258413 |            12490 |        19279764 |                     0 |      21476661 | 2017-02-09 07:01:44.169082+01

 2017-02-09 07:46:01.198546+01 | 1486622761.19855 |                 0 |               9 |                  4978 |                  385 |             576150 |       1258913 |            12495 |        19279764 |                     0 |      21482434 | 2017-02-09 07:01:44.169082+01

 2017-02-09 07:46:02.264311+01 | 1486622762.26431 |                 0 |               9 |                  4978 |                  385 |             576150 |       1259513 |            12501 |        19279764 |                     0 |      21489424 | 2017-02-09 07:01:44.169082+01

 2017-02-09 07:46:03.327036+01 | 1486622763.32704 |                 0 |               9 |                  4978 |                  385 |             576150 |       1260013 |            12506 |        19279764 |                     0 |      21495160 | 2017-02-09 07:01:44.169082+01

 2017-02-09 07:46:04.38625+01 | 1486622764.38625 |                 0 |               9 |                  4978 |                  385 |             576150 |       1260513 |            12511 |        19279764 |                     0 |      21501248 | 2017-02-09 07:01:44.169082+01

 2017-02-09 07:46:05.456072+01 | 1486622765.45607 |                 0 |               9 |                  4978 |                  385 |             576150 |       1261113 |            12517 |        19279764 |                     0 |      21508160 | 2017-02-09 07:01:44.169082+01

 2017-02-09 07:46:06.511324+01 | 1486622766.51132 |                 0 |               9 |                  4978 |                  385 |             576150 |       1261613 |            12522 |        19279764 |                     0 |      21513921 | 2017-02-09 07:01:44.169082+01

 2017-02-09 07:46:07.567818+01 | 1486622767.56782 |                 0 |               9 |                  4978 |                  385 |             576150 |       1262113 |            12527 |        19339921 |                     0 |      21520111 | 2017-02-09 07:01:44.169082+01

 2017-02-09 07:46:08.635321+01 | 1486622768.63532 |                 0 |               9 |                  4978 |                  385 |             576150 |       1262613 |            12532 |        19339921 |                     0 |      21525892 | 2017-02-09 07:01:44.169082+01

 2017-02-09 07:46:09.690529+01 | 1486622769.69053 |                 0 |               9 |                  4978 |                  385 |             576150 |       1263213 |            12538 |        19339921 |                     0 |      21532690 | 2017-02-09 07:01:44.169082+01

 2017-02-09 07:46:10.749369+01 | 1486622770.74937 |                 0 |               9 |                  4978 |                  385 |             576150 |       1263713 |            12543 |        19339921 |                     0 |      21538479 | 2017-02-09 07:01:44.169082+01

 2017-02-09 07:46:11.814049+01 | 1486622771.81405 |                 0 |               9 |                  4978 |                  385 |             576150 |       1264213 |            12548 |        19339921 |                     0 |      21544504 | 2017-02-09 07:01:44.169082+01

 2017-02-09 07:46:12.870207+01 | 1486622772.87021 |                 0 |               9 |                  4978 |                  385 |             576150 |       1264813 |            12554 |        19339921 |                     0 |      21551603 | 2017-02-09 07:01:44.169082+01

 2017-02-09 07:46:13.93522+01 | 1486622773.93522 |                 0 |               9 |                  4978 |                  385 |             576150 |       1265313 |            12559 |        19339921 |                     0 |      21557401 | 2017-02-09 07:01:44.169082+01

 2017-02-09 07:46:14.990121+01 | 1486622774.99012 |                 0 |               9 |                  4978 |                  385 |             576150 |       1265813 |            12564 |        19339921 |                     0 |      21563508 | 2017-02-09 07:01:44.169082+01

 2017-02-09 07:46:16.03695+01 | 1486622776.03695 |                 0 |               9 |                  4978 |                  385 |             576150 |       1266313 |            12569 |        19339921 |                     0 |      21569307 | 2017-02-09 07:01:44.169082+01

 2017-02-09 07:46:17.100114+01 | 1486622777.10011 |                 0 |               9 |                  4978 |                  385 |             576150 |       1266813 |            12574 |        19339921 |                     0 |      21574957 | 2017-02-09 07:01:44.169082+01

 2017-02-09 07:46:18.168818+01 | 1486622778.16882 |                 0 |               9 |                  4978 |                  385 |             576150 |       1267413 |            12580 |        19339921 |                     0 |      21582108 | 2017-02-09 07:01:44.169082+01

 2017-02-09 07:46:19.228626+01 | 1486622779.22863 |                 0 |               9 |                  4978 |                  385 |             576150 |       1267913 |            12585 |        19399957 |                     0 |      21587530 | 2017-02-09 07:01:44.169082+01

 2017-02-09 07:46:20.291323+01 | 1486622780.29132 |                 0 |               9 |                  4978 |                  385 |             576150 |       1268413 |            12590 |        19399957 |                     0 |      21593199 | 2017-02-09 07:01:44.169082+01

 2017-02-09 07:46:21.351493+01 | 1486622781.35149 |                 0 |               9 |                  4978 |                  385 |             576150 |       1269013 |            12596 |        19399957 |                     0 |      21600384 | 2017-02-09 07:01:44.169082+01

 2017-02-09 07:46:22.416906+01 | 1486622782.41691 |                 0 |               9 |                  4978 |                  385 |             576150 |       1269513 |            12601 |        19399957 |                     0 |      21606132 | 2017-02-09 07:01:44.169082+01

 2017-02-09 07:46:23.475675+01 | 1486622783.47568 |                 0 |               9 |                  4978 |                  385 |             576150 |       1270013 |            12606 |        19399957 |                     0 |      21611901 | 2017-02-09 07:01:44.169082+01

 2017-02-09 07:46:24.537634+01 | 1486622784.53763 |                 0 |               9 |                  4978 |                  385 |             576150 |       1270513 |            12611 |        19399957 |                     0 |      21617694 | 2017-02-09 07:01:44.169082+01

 2017-02-09 07:46:25.61233+01 | 1486622785.61233 |                 0 |               9 |                  4978 |                  385 |             576150 |       1271113 |            12617 |        19399957 |                     0 |      21625005 | 2017-02-09 07:01:44.169082+01

 2017-02-09 07:46:26.674283+01 | 1486622786.67428 |                 0 |               9 |                  4978 |                  385 |             576150 |       1271613 |            12622 |        19399957 |                     0 |      21630740 | 2017-02-09 07:01:44.169082+01

 2017-02-09 07:46:27.733373+01 | 1486622787.73337 |                 0 |               9 |                  4978 |                  385 |             576150 |       1272113 |            12627 |        19399957 |                     0 |      21636342 | 2017-02-09 07:01:44.169082+01

 2017-02-09 07:46:28.78837+01 | 1486622788.78837 |                 0 |               9 |                  4978 |                  385 |             576150 |       1272713 |            12633 |        19399957 |                     0 |      21643393 | 2017-02-09 07:01:44.169082+01

 2017-02-09 07:46:29.855502+01 | 1486622789.8555 |                 0 |               9 |                  4978 |                  385 |             576150 |       1273213 |            12638 |        19460093 |                     0 |      21649340 | 2017-02-09 07:01:44.169082+01

 2017-02-09 07:46:30.92308+01 | 1486622790.92308 |                 0 |               9 |                  4978 |                  385 |             576150 |       1273713 |            12643 |        19460093 |                     0 |      21655153 | 2017-02-09 07:01:44.169082+01

 2017-02-09 07:46:31.980717+01 | 1486622791.98072 |                 0 |               9 |                  4978 |                  385 |             576150 |       1274213 |            12648 |        19460093 |                     0 |      21660950 | 2017-02-09 07:01:44.169082+01

 2017-02-09 07:46:33.04173+01 | 1486622793.04173 |                 0 |               9 |                  4978 |                  385 |             576150 |       1274813 |            12654 |        19460093 |                     0 |      21668186 | 2017-02-09 07:01:44.169082+01

 2017-02-09 07:46:34.105618+01 | 1486622794.10562 |                 0 |               9 |                  4978 |                  385 |             576150 |       1275313 |            12659 |        19460093 |                     0 |      21673986 | 2017-02-09 07:01:44.169082+01

 2017-02-09 07:46:35.181317+01 | 1486622795.18132 |                 0 |               9 |                  4978 |                  385 |             576150 |       1275813 |            12664 |        19460093 |                     0 |      21679784 | 2017-02-09 07:01:44.169082+01

 2017-02-09 07:46:36.241445+01 | 1486622796.24145 |                 0 |               9 |                  4978 |                  385 |             576150 |       1276413 |            12670 |        19460093 |                     0 |      21686363 | 2017-02-09 07:01:44.169082+01

 2017-02-09 07:46:37.304644+01 | 1486622797.30464 |                 0 |               9 |                  4978 |                  385 |             576150 |       1276913 |            12675 |        19460093 |                     0 |      21692106 | 2017-02-09 07:01:44.169082+01

 2017-02-09 07:46:38.374911+01 | 1486622798.37491 |                 0 |               9 |                  4978 |                  385 |             576150 |       1277413 |            12680 |        19460093 |                     0 |      21697838 | 2017-02-09 07:01:44.169082+01

 2017-02-09 07:46:39.443571+01 | 1486622799.44357 |                 0 |               9 |                  4978 |                  385 |             576150 |       1277913 |            12685 |        19460093 |                     0 |      21703633 | 2017-02-09 07:01:44.169082+01

 2017-02-09 07:46:40.515422+01 | 1486622800.51542 |                 0 |               9 |                  4978 |                  385 |             576150 |       1278513 |            12691 |        19520229 |                     0 |      21710965 | 2017-02-09 07:01:44.169082+01

 2017-02-09 07:46:41.584553+01 | 1486622801.58455 |                 0 |               9 |                  4978 |                  385 |             576150 |       1279013 |            12696 |        19520229 |                     0 |      21716825 | 2017-02-09 07:01:44.169082+01

 2017-02-09 07:46:42.654711+01 | 1486622802.65471 |                 0 |               9 |                  4978 |                  385 |             576150 |       1279513 |            12701 |        19520229 |                     0 |      21722786 | 2017-02-09 07:01:44.169082+01

 2017-02-09 07:46:43.716002+01 | 1486622803.716 |                 0 |               9 |                  4978 |                  385 |             576150 |       1280113 |            12707 |        19520229 |                     0 |      21729946 | 2017-02-09 07:01:44.169082+01

 2017-02-09 07:46:44.781449+01 | 1486622804.78145 |                 0 |               9 |                  4978 |                  385 |             576150 |       1280613 |            12712 |        19520229 |                     0 |      21736122 | 2017-02-09 07:01:44.169082+01

 2017-02-09 07:46:45.839152+01 | 1486622805.83915 |                 0 |               9 |                  4978 |                  385 |             576150 |       1281113 |            12717 |        19520229 |                     0 |      21741907 | 2017-02-09 07:01:44.169082+01

 2017-02-09 07:46:46.913119+01 | 1486622806.91312 |                 0 |               9 |                  4978 |                  385 |             576150 |       1281613 |            12722 |        19520229 |                     0 |      21747683 | 2017-02-09 07:01:44.169082+01

 2017-02-09 07:46:47.968559+01 | 1486622807.96856 |                 0 |               9 |                  4978 |                  385 |             576150 |       1282213 |            12728 |        19520229 |                     0 |      21755131 | 2017-02-09 07:01:44.169082+01

 2017-02-09 07:46:49.033318+01 | 1486622809.03332 |                 0 |               9 |                  4978 |                  385 |             576150 |       1282713 |            12733 |        19520229 |                     0 |      21760928 | 2017-02-09 07:01:44.169082+01

 2017-02-09 07:46:50.098026+01 | 1486622810.09803 |                 0 |               9 |                  4978 |                  385 |             576150 |       1283213 |            12738 |        19520229 |                     0 |      21766766 | 2017-02-09 07:01:44.169082+01

 2017-02-09 07:46:51.174286+01 | 1486622811.17429 |                 0 |               9 |                  4978 |                  385 |             576150 |       1283813 |            12744 |        19580466 |                     0 |      21773677 | 2017-02-09 07:01:44.169082+01

 2017-02-09 07:46:52.232012+01 | 1486622812.23201 |                 0 |               9 |                  4978 |                  385 |             576150 |       1284313 |            12749 |        19580466 |                     0 |      21779823 | 2017-02-09 07:01:44.169082+01

 2017-02-09 07:46:53.304686+01 | 1486622813.30469 |                 0 |               9 |                  4978 |                  385 |             576150 |       1284813 |            12754 |        19580466 |                     0 |      21785711 | 2017-02-09 07:01:44.169082+01

 2017-02-09 07:46:54.358698+01 | 1486622814.3587 |                 0 |               9 |                  4978 |                  385 |             576150 |       1285413 |            12760 |        19580466 |                     0 |      21792839 | 2017-02-09 07:01:44.169082+01

 2017-02-09 07:46:55.417959+01 | 1486622815.41796 |                 0 |               9 |                  4978 |                  385 |             576150 |       1285913 |            12765 |        19580466 |                     0 |      21798662 | 2017-02-09 07:01:44.169082+01

 2017-02-09 07:46:56.476644+01 | 1486622816.47664 |                 0 |               9 |                  4978 |                  385 |             576150 |       1286413 |            12770 |        19580466 |                     0 |      21804582 | 2017-02-09 07:01:44.169082+01

 2017-02-09 07:46:57.54499+01 | 1486622817.54499 |                 0 |               9 |                  4978 |                  385 |             576150 |       1286913 |            12775 |        19580466 |                     0 |      21810340 | 2017-02-09 07:01:44.169082+01

 2017-02-09 07:46:58.602019+01 | 1486622818.60202 |                 0 |               9 |                  4978 |                  385 |             576150 |       1287513 |            12781 |        19580466 |                     0 |      21817308 | 2017-02-09 07:01:44.169082+01

 2017-02-09 07:46:59.663376+01 | 1486622819.66338 |                 0 |               9 |                  4978 |                  385 |             576150 |       1288013 |            12786 |        19580466 |                     0 |      21823179 | 2017-02-09 07:01:44.169082+01

 2017-02-09 07:47:00.716839+01 | 1486622820.71684 |                 0 |               9 |                  4978 |                  385 |             576150 |       1288513 |            12791 |        19580466 |                     0 |      21828824 | 2017-02-09 07:01:44.169082+01

 2017-02-09 07:47:01.777645+01 | 1486622821.77765 |                 0 |               9 |                  4978 |                  385 |             576150 |       1289013 |            12796 |        19640603 |                     0 |      21834335 | 2017-02-09 07:01:44.169082+01

 2017-02-09 07:47:02.832429+01 | 1486622822.83243 |                 0 |               9 |                  4978 |                  385 |             576150 |       1289613 |            12802 |        19640603 |                     0 |      21841278 | 2017-02-09 07:01:44.169082+01

 2017-02-09 07:47:03.898739+01 | 1486622823.89874 |                 0 |               9 |                  4978 |                  385 |             576150 |       1290113 |            12807 |        19640603 |                     0 |      21847166 | 2017-02-09 07:01:44.169082+01

 2017-02-09 07:47:04.962034+01 | 1486622824.96203 |                 0 |               9 |                  4978 |                  385 |             576150 |       1290613 |            12812 |        19640603 |                     0 |      21852930 | 2017-02-09 07:01:44.169082+01

 2017-02-09 07:47:06.022548+01 | 1486622826.02255 |                 0 |               9 |                  4978 |                  385 |             576150 |       1291113 |            12817 |        19640603 |                     0 |      21858685 | 2017-02-09 07:01:44.169082+01

 2017-02-09 07:47:07.084915+01 | 1486622827.08491 |                 0 |               9 |                  4978 |                  385 |             576150 |       1291713 |            12823 |        19640603 |                     0 |      21865741 | 2017-02-09 07:01:44.169082+01

 2017-02-09 07:47:08.148779+01 | 1486622828.14878 |                 0 |               9 |                  4978 |                  385 |             576150 |       1292213 |            12828 |        19640603 |                     0 |      21871547 | 2017-02-09 07:01:44.169082+01

 2017-02-09 07:47:09.206219+01 | 1486622829.20622 |                 0 |               9 |                  4978 |                  385 |             576150 |       1292713 |            12833 |        19640603 |                     0 |      21877275 | 2017-02-09 07:01:44.169082+01

 2017-02-09 07:47:10.256929+01 | 1486622830.25693 |                 0 |               9 |                  4978 |                  385 |             576150 |       1293313 |            12839 |        19640603 |                     0 |      21883987 | 2017-02-09 07:01:44.169082+01

 2017-02-09 07:47:11.318375+01 | 1486622831.31838 |                 0 |               9 |                  4978 |                  385 |             576150 |       1293813 |            12844 |        19640603 |                     0 |      21889979 | 2017-02-09 07:01:44.169082+01

 2017-02-09 07:47:12.37875+01 | 1486622832.37875 |                 0 |               9 |                  4978 |                  385 |             576150 |       1294313 |            12849 |        19700762 |                     0 |      21895781 | 2017-02-09 07:01:44.169082+01

 2017-02-09 07:47:13.439373+01 | 1486622833.43937 |                 0 |               9 |                  4978 |                  385 |             576150 |       1294813 |            12854 |        19700762 |                     0 |      21901382 | 2017-02-09 07:01:44.169082+01

 2017-02-09 07:47:14.500935+01 | 1486622834.50094 |                 0 |               9 |                  4978 |                  385 |             576150 |       1295413 |            12860 |        19700762 |                     0 |      21908691 | 2017-02-09 07:01:44.169082+01

 2017-02-09 07:47:15.545435+01 | 1486622835.54543 |                 0 |               9 |                  4978 |                  385 |             576150 |       1295813 |            12864 |        19700762 |                     0 |      21913207 | 2017-02-09 07:01:44.169082+01

 2017-02-09 07:47:16.614944+01 | 1486622836.61494 |                 0 |               9 |                  4978 |                  385 |             576150 |       1296413 |            12870 |        19700762 |                     0 |      21920001 | 2017-02-09 07:01:44.169082+01

 2017-02-09 07:47:17.687445+01 | 1486622837.68744 |                 0 |               9 |                  4978 |                  385 |             576150 |       1296913 |            12875 |        19700762 |                     0 |      21926183 | 2017-02-09 07:01:44.169082+01

 2017-02-09 07:47:18.752535+01 | 1486622838.75254 |                 0 |               9 |                  4978 |                  385 |             576150 |       1297513 |            12881 |        19700762 |                     0 |      21933179 | 2017-02-09 07:01:44.169082+01

 2017-02-09 07:47:19.810392+01 | 1486622839.81039 |                 0 |               9 |                  4978 |                  385 |             576150 |       1298013 |            12886 |        19700762 |                     0 |      21938751 | 2017-02-09 07:01:44.169082+01

 2017-02-09 07:47:20.869+01 | 1486622840.869 |                 0 |               9 |                  4978 |                  385 |             576150 |       1298513 |            12891 |        19700762 |                     0 |      21944610 | 2017-02-09 07:01:44.169082+01

 2017-02-09 07:47:21.934953+01 | 1486622841.93495 |                 0 |               9 |                  4978 |                  385 |             576150 |       1299113 |            12897 |        19700762 |                     0 |      21951544 | 2017-02-09 07:01:44.169082+01

 2017-02-09 07:47:22.991874+01 | 1486622842.99187 |                 0 |               9 |                  4978 |                  385 |             576150 |       1299613 |            12902 |        19700762 |                     0 |      21957479 | 2017-02-09 07:01:44.169082+01

 2017-02-09 07:47:24.044935+01 | 1486622844.04493 |                 0 |               9 |                  4978 |                  385 |             576150 |       1300113 |            12907 |        19760699 |                     0 |      21963549 | 2017-02-09 07:01:44.169082+01

 2017-02-09 07:47:25.107278+01 | 1486622845.10728 |                 0 |               9 |                  4978 |                  385 |             576150 |       1300613 |            12912 |        19760699 |                     0 |      21969190 | 2017-02-09 07:01:44.169082+01

 2017-02-09 07:47:26.165988+01 | 1486622846.16599 |                 0 |               9 |                  4978 |                  385 |             576150 |       1301213 |            12918 |        19760699 |                     0 |      21976271 | 2017-02-09 07:01:44.169082+01

 2017-02-09 07:47:27.227379+01 | 1486622847.22738 |                 0 |               9 |                  4978 |                  385 |             576150 |       1301713 |            12923 |        19760699 |                     0 |      21982019 | 2017-02-09 07:01:44.169082+01

 2017-02-09 07:47:28.294508+01 | 1486622848.29451 |                 0 |               9 |                  4978 |                  385 |             576150 |       1302213 |            12928 |        19760699 |                     0 |      21988148 | 2017-02-09 07:01:44.169082+01

 2017-02-09 07:47:29.359089+01 | 1486622849.35909 |                 0 |               9 |                  4978 |                  385 |             576150 |       1302713 |            12933 |        19760699 |                     0 |      21993657 | 2017-02-09 07:01:44.169082+01

 2017-02-09 07:47:30.429307+01 | 1486622850.42931 |                 0 |               9 |                  4978 |                  385 |             576150 |       1303313 |            12939 |        19760699 |                     0 |      22000582 | 2017-02-09 07:01:44.169082+01

 2017-02-09 07:47:31.482392+01 | 1486622851.48239 |                 0 |               9 |                  4978 |                  385 |             576150 |       1303813 |            12944 |        19760699 |                     0 |      22006591 | 2017-02-09 07:01:44.169082+01

 2017-02-09 07:47:32.543027+01 | 1486622852.54303 |                 0 |               9 |                  4978 |                  385 |             576150 |       1304313 |            12949 |        19760699 |                     0 |      22012406 | 2017-02-09 07:01:44.169082+01

 2017-02-09 07:47:33.607243+01 | 1486622853.60724 |                 0 |               9 |                  4978 |                  385 |             576150 |       1304913 |            12955 |        19760699 |                     0 |      22019229 | 2017-02-09 07:01:44.169082+01

 2017-02-09 07:47:34.668636+01 | 1486622854.66864 |                 0 |               9 |                  4978 |                  385 |             576150 |       1305413 |            12960 |        19820935 |                     0 |      22024840 | 2017-02-09 07:01:44.169082+01

 2017-02-09 07:47:35.724969+01 | 1486622855.72497 |                 0 |               9 |                  4978 |                  385 |             576150 |       1305913 |            12965 |        19820935 |                     0 |      22030951 | 2017-02-09 07:01:44.169082+01

 2017-02-09 07:47:36.793659+01 | 1486622856.79366 |                 0 |               9 |                  4978 |                  385 |             576150 |       1306413 |            12970 |        19820935 |                     0 |      22036677 | 2017-02-09 07:01:44.169082+01

 2017-02-09 07:47:37.859963+01 | 1486622857.85996 |                 0 |               9 |                  4978 |                  385 |             576150 |       1307013 |            12976 |        19820935 |                     0 |      22043665 | 2017-02-09 07:01:44.169082+01

 2017-02-09 07:47:38.914741+01 | 1486622858.91474 |                 0 |               9 |                  4978 |                  385 |             576150 |       1307513 |            12981 |        19820935 |                     0 |      22049617 | 2017-02-09 07:01:44.169082+01

 2017-02-09 07:47:39.987324+01 | 1486622859.98732 |                 0 |               9 |                  4978 |                  385 |             576150 |       1308013 |            12986 |        19820935 |                     0 |      22055459 | 2017-02-09 07:01:44.169082+01

 2017-02-09 07:47:41.046403+01 | 1486622861.0464 |                 0 |               9 |                  4978 |                  385 |             576150 |       1308613 |            12992 |        19820935 |                     0 |      22062413 | 2017-02-09 07:01:44.169082+01

