 2017-02-08 03:40:33.29159+01 | 1486521633.29159 | pgbench_accounts |       4028858368
 2017-02-08 03:40:33.29159+01 | 1486521633.29159 | pgbench_tellers  |           139264
 2017-02-08 03:40:33.29159+01 | 1486521633.29159 | pgbench_history  |                0
 2017-02-08 03:40:33.29159+01 | 1486521633.29159 | pgbench_branches |            16384

 2017-02-08 03:40:34.686717+01 | 1486521634.68672 | pgbench_accounts |       4028858368
 2017-02-08 03:40:34.686717+01 | 1486521634.68672 | pgbench_tellers  |           139264
 2017-02-08 03:40:34.686717+01 | 1486521634.68672 | pgbench_history  |                0
 2017-02-08 03:40:34.686717+01 | 1486521634.68672 | pgbench_branches |            16384

 2017-02-08 03:40:36.036284+01 | 1486521636.03628 | pgbench_accounts |       4028858368
 2017-02-08 03:40:36.036284+01 | 1486521636.03628 | pgbench_tellers  |           139264
 2017-02-08 03:40:36.036284+01 | 1486521636.03628 | pgbench_history  |                0
 2017-02-08 03:40:36.036284+01 | 1486521636.03628 | pgbench_branches |            16384

 2017-02-08 03:40:37.429457+01 | 1486521637.42946 | pgbench_accounts |       4028858368
 2017-02-08 03:40:37.429457+01 | 1486521637.42946 | pgbench_tellers  |           139264
 2017-02-08 03:40:37.429457+01 | 1486521637.42946 | pgbench_history  |                0
 2017-02-08 03:40:37.429457+01 | 1486521637.42946 | pgbench_branches |            16384

 2017-02-08 03:40:38.746923+01 | 1486521638.74692 | pgbench_accounts |       4028858368
 2017-02-08 03:40:38.746923+01 | 1486521638.74692 | pgbench_tellers  |           139264
 2017-02-08 03:40:38.746923+01 | 1486521638.74692 | pgbench_history  |                0
 2017-02-08 03:40:38.746923+01 | 1486521638.74692 | pgbench_branches |            16384

 2017-02-08 03:40:40.120502+01 | 1486521640.1205 | pgbench_accounts |       4028858368
 2017-02-08 03:40:40.120502+01 | 1486521640.1205 | pgbench_tellers  |           139264
 2017-02-08 03:40:40.120502+01 | 1486521640.1205 | pgbench_history  |                0
 2017-02-08 03:40:40.120502+01 | 1486521640.1205 | pgbench_branches |            16384

 2017-02-08 03:40:41.459083+01 | 1486521641.45908 | pgbench_accounts |       4028858368
 2017-02-08 03:40:41.459083+01 | 1486521641.45908 | pgbench_tellers  |           139264
 2017-02-08 03:40:41.459083+01 | 1486521641.45908 | pgbench_history  |                0
 2017-02-08 03:40:41.459083+01 | 1486521641.45908 | pgbench_branches |            16384

 2017-02-08 03:40:42.831469+01 | 1486521642.83147 | pgbench_accounts |       4028858368
 2017-02-08 03:40:42.831469+01 | 1486521642.83147 | pgbench_tellers  |           139264
 2017-02-08 03:40:42.831469+01 | 1486521642.83147 | pgbench_history  |                0
 2017-02-08 03:40:42.831469+01 | 1486521642.83147 | pgbench_branches |            16384

 2017-02-08 03:40:44.191085+01 | 1486521644.19109 | pgbench_accounts |       4028858368
 2017-02-08 03:40:44.191085+01 | 1486521644.19109 | pgbench_tellers  |           139264
 2017-02-08 03:40:44.191085+01 | 1486521644.19109 | pgbench_history  |                0
 2017-02-08 03:40:44.191085+01 | 1486521644.19109 | pgbench_branches |            16384

 2017-02-08 03:40:45.572348+01 | 1486521645.57235 | pgbench_accounts |       4028858368
 2017-02-08 03:40:45.572348+01 | 1486521645.57235 | pgbench_tellers  |           139264
 2017-02-08 03:40:45.572348+01 | 1486521645.57235 | pgbench_history  |                0
 2017-02-08 03:40:45.572348+01 | 1486521645.57235 | pgbench_branches |            16384

 2017-02-08 03:40:46.961275+01 | 1486521646.96128 | pgbench_accounts |       4028858368
 2017-02-08 03:40:46.961275+01 | 1486521646.96128 | pgbench_tellers  |           139264
 2017-02-08 03:40:46.961275+01 | 1486521646.96128 | pgbench_history  |                0
 2017-02-08 03:40:46.961275+01 | 1486521646.96128 | pgbench_branches |            16384

 2017-02-08 03:40:48.316319+01 | 1486521648.31632 | pgbench_accounts |       4028858368
 2017-02-08 03:40:48.316319+01 | 1486521648.31632 | pgbench_tellers  |           139264
 2017-02-08 03:40:48.316319+01 | 1486521648.31632 | pgbench_history  |                0
 2017-02-08 03:40:48.316319+01 | 1486521648.31632 | pgbench_branches |            16384

 2017-02-08 03:40:49.655149+01 | 1486521649.65515 | pgbench_accounts |       4028858368
 2017-02-08 03:40:49.655149+01 | 1486521649.65515 | pgbench_tellers  |           139264
 2017-02-08 03:40:49.655149+01 | 1486521649.65515 | pgbench_history  |                0
 2017-02-08 03:40:49.655149+01 | 1486521649.65515 | pgbench_branches |            16384

 2017-02-08 03:40:51.052834+01 | 1486521651.05283 | pgbench_accounts |       4028858368
 2017-02-08 03:40:51.052834+01 | 1486521651.05283 | pgbench_tellers  |           139264
 2017-02-08 03:40:51.052834+01 | 1486521651.05283 | pgbench_history  |                0
 2017-02-08 03:40:51.052834+01 | 1486521651.05283 | pgbench_branches |            16384

 2017-02-08 03:40:52.440678+01 | 1486521652.44068 | pgbench_accounts |       4028858368
 2017-02-08 03:40:52.440678+01 | 1486521652.44068 | pgbench_tellers  |           139264
 2017-02-08 03:40:52.440678+01 | 1486521652.44068 | pgbench_history  |                0
 2017-02-08 03:40:52.440678+01 | 1486521652.44068 | pgbench_branches |            16384

 2017-02-08 03:40:53.83694+01 | 1486521653.83694 | pgbench_accounts |       4028858368
 2017-02-08 03:40:53.83694+01 | 1486521653.83694 | pgbench_tellers  |           139264
 2017-02-08 03:40:53.83694+01 | 1486521653.83694 | pgbench_history  |                0
 2017-02-08 03:40:53.83694+01 | 1486521653.83694 | pgbench_branches |            16384

 2017-02-08 03:40:55.193329+01 | 1486521655.19333 | pgbench_accounts |       4028858368
 2017-02-08 03:40:55.193329+01 | 1486521655.19333 | pgbench_tellers  |           139264
 2017-02-08 03:40:55.193329+01 | 1486521655.19333 | pgbench_history  |                0
 2017-02-08 03:40:55.193329+01 | 1486521655.19333 | pgbench_branches |            16384

 2017-02-08 03:40:56.446312+01 | 1486521656.44631 | pgbench_accounts |       4028858368
 2017-02-08 03:40:56.446312+01 | 1486521656.44631 | pgbench_tellers  |           139264
 2017-02-08 03:40:56.446312+01 | 1486521656.44631 | pgbench_history  |                0
 2017-02-08 03:40:56.446312+01 | 1486521656.44631 | pgbench_branches |            16384

 2017-02-08 03:40:57.821889+01 | 1486521657.82189 | pgbench_accounts |       4028858368
 2017-02-08 03:40:57.821889+01 | 1486521657.82189 | pgbench_tellers  |           139264
 2017-02-08 03:40:57.821889+01 | 1486521657.82189 | pgbench_history  |                0
 2017-02-08 03:40:57.821889+01 | 1486521657.82189 | pgbench_branches |            16384

 2017-02-08 03:40:59.218882+01 | 1486521659.21888 | pgbench_accounts |       4028858368
 2017-02-08 03:40:59.218882+01 | 1486521659.21888 | pgbench_tellers  |           139264
 2017-02-08 03:40:59.218882+01 | 1486521659.21888 | pgbench_history  |                0
 2017-02-08 03:40:59.218882+01 | 1486521659.21888 | pgbench_branches |            16384

 2017-02-08 03:41:00.574156+01 | 1486521660.57416 | pgbench_accounts |       4028858368
 2017-02-08 03:41:00.574156+01 | 1486521660.57416 | pgbench_tellers  |           139264
 2017-02-08 03:41:00.574156+01 | 1486521660.57416 | pgbench_history  |                0
 2017-02-08 03:41:00.574156+01 | 1486521660.57416 | pgbench_branches |            16384

 2017-02-08 03:41:01.911911+01 | 1486521661.91191 | pgbench_accounts |       4028858368
 2017-02-08 03:41:01.911911+01 | 1486521661.91191 | pgbench_tellers  |           139264
 2017-02-08 03:41:01.911911+01 | 1486521661.91191 | pgbench_history  |                0
 2017-02-08 03:41:01.911911+01 | 1486521661.91191 | pgbench_branches |            16384

 2017-02-08 03:41:03.279337+01 | 1486521663.27934 | pgbench_accounts |       4028858368
 2017-02-08 03:41:03.279337+01 | 1486521663.27934 | pgbench_tellers  |           139264
 2017-02-08 03:41:03.279337+01 | 1486521663.27934 | pgbench_history  |                0
 2017-02-08 03:41:03.279337+01 | 1486521663.27934 | pgbench_branches |            16384

 2017-02-08 03:41:04.585435+01 | 1486521664.58543 | pgbench_accounts |       4028858368
 2017-02-08 03:41:04.585435+01 | 1486521664.58543 | pgbench_tellers  |           139264
 2017-02-08 03:41:04.585435+01 | 1486521664.58543 | pgbench_history  |                0
 2017-02-08 03:41:04.585435+01 | 1486521664.58543 | pgbench_branches |            16384

 2017-02-08 03:41:05.881874+01 | 1486521665.88187 | pgbench_accounts |       4028858368
 2017-02-08 03:41:05.881874+01 | 1486521665.88187 | pgbench_tellers  |           139264
 2017-02-08 03:41:05.881874+01 | 1486521665.88187 | pgbench_history  |                0
 2017-02-08 03:41:05.881874+01 | 1486521665.88187 | pgbench_branches |            16384

 2017-02-08 03:41:07.202513+01 | 1486521667.20251 | pgbench_accounts |       4028858368
 2017-02-08 03:41:07.202513+01 | 1486521667.20251 | pgbench_tellers  |           139264
 2017-02-08 03:41:07.202513+01 | 1486521667.20251 | pgbench_history  |                0
 2017-02-08 03:41:07.202513+01 | 1486521667.20251 | pgbench_branches |            16384

 2017-02-08 03:41:08.53324+01 | 1486521668.53324 | pgbench_accounts |       4028858368
 2017-02-08 03:41:08.53324+01 | 1486521668.53324 | pgbench_tellers  |           139264
 2017-02-08 03:41:08.53324+01 | 1486521668.53324 | pgbench_history  |                0
 2017-02-08 03:41:08.53324+01 | 1486521668.53324 | pgbench_branches |            16384

 2017-02-08 03:41:09.865949+01 | 1486521669.86595 | pgbench_accounts |       4028858368
 2017-02-08 03:41:09.865949+01 | 1486521669.86595 | pgbench_tellers  |           139264
 2017-02-08 03:41:09.865949+01 | 1486521669.86595 | pgbench_history  |                0
 2017-02-08 03:41:09.865949+01 | 1486521669.86595 | pgbench_branches |            16384

 2017-02-08 03:41:11.168184+01 | 1486521671.16818 | pgbench_accounts |       4028858368
 2017-02-08 03:41:11.168184+01 | 1486521671.16818 | pgbench_tellers  |           139264
 2017-02-08 03:41:11.168184+01 | 1486521671.16818 | pgbench_history  |                0
 2017-02-08 03:41:11.168184+01 | 1486521671.16818 | pgbench_branches |            16384

 2017-02-08 03:41:12.479196+01 | 1486521672.4792 | pgbench_accounts |       4028858368
 2017-02-08 03:41:12.479196+01 | 1486521672.4792 | pgbench_tellers  |           139264
 2017-02-08 03:41:12.479196+01 | 1486521672.4792 | pgbench_history  |                0
 2017-02-08 03:41:12.479196+01 | 1486521672.4792 | pgbench_branches |            16384

 2017-02-08 03:41:13.867717+01 | 1486521673.86772 | pgbench_accounts |       4028858368
 2017-02-08 03:41:13.867717+01 | 1486521673.86772 | pgbench_tellers  |           139264
 2017-02-08 03:41:13.867717+01 | 1486521673.86772 | pgbench_history  |                0
 2017-02-08 03:41:13.867717+01 | 1486521673.86772 | pgbench_branches |            16384

 2017-02-08 03:41:15.221176+01 | 1486521675.22118 | pgbench_accounts |       4028858368
 2017-02-08 03:41:15.221176+01 | 1486521675.22118 | pgbench_tellers  |           139264
 2017-02-08 03:41:15.221176+01 | 1486521675.22118 | pgbench_history  |                0
 2017-02-08 03:41:15.221176+01 | 1486521675.22118 | pgbench_branches |            16384

 2017-02-08 03:41:16.580613+01 | 1486521676.58061 | pgbench_accounts |       4028858368
 2017-02-08 03:41:16.580613+01 | 1486521676.58061 | pgbench_tellers  |           139264
 2017-02-08 03:41:16.580613+01 | 1486521676.58061 | pgbench_history  |                0
 2017-02-08 03:41:16.580613+01 | 1486521676.58061 | pgbench_branches |            16384

 2017-02-08 03:41:17.917638+01 | 1486521677.91764 | pgbench_accounts |       4028858368
 2017-02-08 03:41:17.917638+01 | 1486521677.91764 | pgbench_tellers  |           139264
 2017-02-08 03:41:17.917638+01 | 1486521677.91764 | pgbench_history  |                0
 2017-02-08 03:41:17.917638+01 | 1486521677.91764 | pgbench_branches |            16384

 2017-02-08 03:41:19.296693+01 | 1486521679.29669 | pgbench_accounts |       4028858368
 2017-02-08 03:41:19.296693+01 | 1486521679.29669 | pgbench_tellers  |           139264
 2017-02-08 03:41:19.296693+01 | 1486521679.29669 | pgbench_history  |                0
 2017-02-08 03:41:19.296693+01 | 1486521679.29669 | pgbench_branches |            16384

 2017-02-08 03:41:20.664442+01 | 1486521680.66444 | pgbench_accounts |       4028858368
 2017-02-08 03:41:20.664442+01 | 1486521680.66444 | pgbench_tellers  |           139264
 2017-02-08 03:41:20.664442+01 | 1486521680.66444 | pgbench_history  |                0
 2017-02-08 03:41:20.664442+01 | 1486521680.66444 | pgbench_branches |            16384

 2017-02-08 03:41:22.010506+01 | 1486521682.01051 | pgbench_accounts |       4028858368
 2017-02-08 03:41:22.010506+01 | 1486521682.01051 | pgbench_tellers  |           139264
 2017-02-08 03:41:22.010506+01 | 1486521682.01051 | pgbench_history  |                0
 2017-02-08 03:41:22.010506+01 | 1486521682.01051 | pgbench_branches |            16384

 2017-02-08 03:41:23.410841+01 | 1486521683.41084 | pgbench_accounts |       4028858368
 2017-02-08 03:41:23.410841+01 | 1486521683.41084 | pgbench_tellers  |           139264
 2017-02-08 03:41:23.410841+01 | 1486521683.41084 | pgbench_history  |                0
 2017-02-08 03:41:23.410841+01 | 1486521683.41084 | pgbench_branches |            16384

 2017-02-08 03:41:24.775528+01 | 1486521684.77553 | pgbench_accounts |       4028858368
 2017-02-08 03:41:24.775528+01 | 1486521684.77553 | pgbench_tellers  |           139264
 2017-02-08 03:41:24.775528+01 | 1486521684.77553 | pgbench_history  |                0
 2017-02-08 03:41:24.775528+01 | 1486521684.77553 | pgbench_branches |            16384

 2017-02-08 03:41:26.141739+01 | 1486521686.14174 | pgbench_accounts |       4028858368
 2017-02-08 03:41:26.141739+01 | 1486521686.14174 | pgbench_tellers  |           139264
 2017-02-08 03:41:26.141739+01 | 1486521686.14174 | pgbench_history  |                0
 2017-02-08 03:41:26.141739+01 | 1486521686.14174 | pgbench_branches |            16384

 2017-02-08 03:41:27.51383+01 | 1486521687.51383 | pgbench_accounts |       4028858368
 2017-02-08 03:41:27.51383+01 | 1486521687.51383 | pgbench_tellers  |           139264
 2017-02-08 03:41:27.51383+01 | 1486521687.51383 | pgbench_history  |                0
 2017-02-08 03:41:27.51383+01 | 1486521687.51383 | pgbench_branches |            16384

 2017-02-08 03:41:28.894356+01 | 1486521688.89436 | pgbench_accounts |       4028858368
 2017-02-08 03:41:28.894356+01 | 1486521688.89436 | pgbench_tellers  |           139264
 2017-02-08 03:41:28.894356+01 | 1486521688.89436 | pgbench_history  |                0
 2017-02-08 03:41:28.894356+01 | 1486521688.89436 | pgbench_branches |            16384

 2017-02-08 03:41:30.233416+01 | 1486521690.23342 | pgbench_accounts |       4028858368
 2017-02-08 03:41:30.233416+01 | 1486521690.23342 | pgbench_tellers  |           139264
 2017-02-08 03:41:30.233416+01 | 1486521690.23342 | pgbench_history  |                0
 2017-02-08 03:41:30.233416+01 | 1486521690.23342 | pgbench_branches |            16384

 2017-02-08 03:41:31.624124+01 | 1486521691.62412 | pgbench_accounts |       4028858368
 2017-02-08 03:41:31.624124+01 | 1486521691.62412 | pgbench_tellers  |           139264
 2017-02-08 03:41:31.624124+01 | 1486521691.62412 | pgbench_history  |                0
 2017-02-08 03:41:31.624124+01 | 1486521691.62412 | pgbench_branches |            16384

 2017-02-08 03:41:33.009201+01 | 1486521693.0092 | pgbench_accounts |       4028858368
 2017-02-08 03:41:33.009201+01 | 1486521693.0092 | pgbench_tellers  |           139264
 2017-02-08 03:41:33.009201+01 | 1486521693.0092 | pgbench_history  |                0
 2017-02-08 03:41:33.009201+01 | 1486521693.0092 | pgbench_branches |            16384

 2017-02-08 03:41:34.386224+01 | 1486521694.38622 | pgbench_accounts |       4028858368
 2017-02-08 03:41:34.386224+01 | 1486521694.38622 | pgbench_tellers  |           139264
 2017-02-08 03:41:34.386224+01 | 1486521694.38622 | pgbench_history  |                0
 2017-02-08 03:41:34.386224+01 | 1486521694.38622 | pgbench_branches |            16384

 2017-02-08 03:41:35.781703+01 | 1486521695.7817 | pgbench_accounts |       4028858368
 2017-02-08 03:41:35.781703+01 | 1486521695.7817 | pgbench_tellers  |           139264
 2017-02-08 03:41:35.781703+01 | 1486521695.7817 | pgbench_history  |                0
 2017-02-08 03:41:35.781703+01 | 1486521695.7817 | pgbench_branches |            16384

 2017-02-08 03:41:37.170411+01 | 1486521697.17041 | pgbench_accounts |       4028858368
 2017-02-08 03:41:37.170411+01 | 1486521697.17041 | pgbench_tellers  |           139264
 2017-02-08 03:41:37.170411+01 | 1486521697.17041 | pgbench_history  |                0
 2017-02-08 03:41:37.170411+01 | 1486521697.17041 | pgbench_branches |            16384

 2017-02-08 03:41:38.497216+01 | 1486521698.49722 | pgbench_accounts |       4028858368
 2017-02-08 03:41:38.497216+01 | 1486521698.49722 | pgbench_tellers  |           139264
 2017-02-08 03:41:38.497216+01 | 1486521698.49722 | pgbench_history  |                0
 2017-02-08 03:41:38.497216+01 | 1486521698.49722 | pgbench_branches |            16384

 2017-02-08 03:41:39.795025+01 | 1486521699.79503 | pgbench_accounts |       4028858368
 2017-02-08 03:41:39.795025+01 | 1486521699.79503 | pgbench_tellers  |           139264
 2017-02-08 03:41:39.795025+01 | 1486521699.79503 | pgbench_history  |                0
 2017-02-08 03:41:39.795025+01 | 1486521699.79503 | pgbench_branches |            16384

 2017-02-08 03:41:41.184453+01 | 1486521701.18445 | pgbench_accounts |       4028858368
 2017-02-08 03:41:41.184453+01 | 1486521701.18445 | pgbench_tellers  |           139264
 2017-02-08 03:41:41.184453+01 | 1486521701.18445 | pgbench_history  |                0
 2017-02-08 03:41:41.184453+01 | 1486521701.18445 | pgbench_branches |            16384

 2017-02-08 03:41:42.460773+01 | 1486521702.46077 | pgbench_accounts |       4028858368
 2017-02-08 03:41:42.460773+01 | 1486521702.46077 | pgbench_tellers  |           139264
 2017-02-08 03:41:42.460773+01 | 1486521702.46077 | pgbench_history  |                0
 2017-02-08 03:41:42.460773+01 | 1486521702.46077 | pgbench_branches |            16384

 2017-02-08 03:41:43.75964+01 | 1486521703.75964 | pgbench_accounts |       4028858368
 2017-02-08 03:41:43.75964+01 | 1486521703.75964 | pgbench_tellers  |           139264
 2017-02-08 03:41:43.75964+01 | 1486521703.75964 | pgbench_history  |                0
 2017-02-08 03:41:43.75964+01 | 1486521703.75964 | pgbench_branches |            16384

 2017-02-08 03:41:45.047064+01 | 1486521705.04706 | pgbench_accounts |       4028858368
 2017-02-08 03:41:45.047064+01 | 1486521705.04706 | pgbench_tellers  |           139264
 2017-02-08 03:41:45.047064+01 | 1486521705.04706 | pgbench_history  |                0
 2017-02-08 03:41:45.047064+01 | 1486521705.04706 | pgbench_branches |            16384

 2017-02-08 03:41:46.406028+01 | 1486521706.40603 | pgbench_accounts |       4028858368
 2017-02-08 03:41:46.406028+01 | 1486521706.40603 | pgbench_tellers  |           139264
 2017-02-08 03:41:46.406028+01 | 1486521706.40603 | pgbench_history  |                0
 2017-02-08 03:41:46.406028+01 | 1486521706.40603 | pgbench_branches |            16384

 2017-02-08 03:41:47.753103+01 | 1486521707.7531 | pgbench_accounts |       4028858368
 2017-02-08 03:41:47.753103+01 | 1486521707.7531 | pgbench_tellers  |           139264
 2017-02-08 03:41:47.753103+01 | 1486521707.7531 | pgbench_history  |                0
 2017-02-08 03:41:47.753103+01 | 1486521707.7531 | pgbench_branches |            16384

 2017-02-08 03:41:49.1457+01 | 1486521709.1457 | pgbench_accounts |       4028858368
 2017-02-08 03:41:49.1457+01 | 1486521709.1457 | pgbench_tellers  |           139264
 2017-02-08 03:41:49.1457+01 | 1486521709.1457 | pgbench_history  |                0
 2017-02-08 03:41:49.1457+01 | 1486521709.1457 | pgbench_branches |            16384

 2017-02-08 03:41:50.487729+01 | 1486521710.48773 | pgbench_accounts |       4028858368
 2017-02-08 03:41:50.487729+01 | 1486521710.48773 | pgbench_tellers  |           139264
 2017-02-08 03:41:50.487729+01 | 1486521710.48773 | pgbench_history  |                0
 2017-02-08 03:41:50.487729+01 | 1486521710.48773 | pgbench_branches |            16384

 2017-02-08 03:41:51.843662+01 | 1486521711.84366 | pgbench_accounts |       4028858368
 2017-02-08 03:41:51.843662+01 | 1486521711.84366 | pgbench_tellers  |           139264
 2017-02-08 03:41:51.843662+01 | 1486521711.84366 | pgbench_history  |                0
 2017-02-08 03:41:51.843662+01 | 1486521711.84366 | pgbench_branches |            16384

 2017-02-08 03:41:53.185016+01 | 1486521713.18502 | pgbench_accounts |       4028858368
 2017-02-08 03:41:53.185016+01 | 1486521713.18502 | pgbench_tellers  |           139264
 2017-02-08 03:41:53.185016+01 | 1486521713.18502 | pgbench_history  |                0
 2017-02-08 03:41:53.185016+01 | 1486521713.18502 | pgbench_branches |            16384

 2017-02-08 03:41:54.531591+01 | 1486521714.53159 | pgbench_accounts |       4028858368
 2017-02-08 03:41:54.531591+01 | 1486521714.53159 | pgbench_tellers  |           139264
 2017-02-08 03:41:54.531591+01 | 1486521714.53159 | pgbench_history  |                0
 2017-02-08 03:41:54.531591+01 | 1486521714.53159 | pgbench_branches |            16384

 2017-02-08 03:41:55.87811+01 | 1486521715.87811 | pgbench_accounts |       4028858368
 2017-02-08 03:41:55.87811+01 | 1486521715.87811 | pgbench_tellers  |           139264
 2017-02-08 03:41:55.87811+01 | 1486521715.87811 | pgbench_history  |                0
 2017-02-08 03:41:55.87811+01 | 1486521715.87811 | pgbench_branches |            16384

 2017-02-08 03:41:57.23639+01 | 1486521717.23639 | pgbench_accounts |       4028858368
 2017-02-08 03:41:57.23639+01 | 1486521717.23639 | pgbench_tellers  |           139264
 2017-02-08 03:41:57.23639+01 | 1486521717.23639 | pgbench_history  |                0
 2017-02-08 03:41:57.23639+01 | 1486521717.23639 | pgbench_branches |            16384

 2017-02-08 03:41:58.618857+01 | 1486521718.61886 | pgbench_accounts |       4028858368
 2017-02-08 03:41:58.618857+01 | 1486521718.61886 | pgbench_tellers  |           139264
 2017-02-08 03:41:58.618857+01 | 1486521718.61886 | pgbench_history  |                0
 2017-02-08 03:41:58.618857+01 | 1486521718.61886 | pgbench_branches |            16384

 2017-02-08 03:41:59.994811+01 | 1486521719.99481 | pgbench_accounts |       4028858368
 2017-02-08 03:41:59.994811+01 | 1486521719.99481 | pgbench_tellers  |           139264
 2017-02-08 03:41:59.994811+01 | 1486521719.99481 | pgbench_history  |                0
 2017-02-08 03:41:59.994811+01 | 1486521719.99481 | pgbench_branches |            16384

 2017-02-08 03:42:01.381632+01 | 1486521721.38163 | pgbench_accounts |       4028858368
 2017-02-08 03:42:01.381632+01 | 1486521721.38163 | pgbench_tellers  |           139264
 2017-02-08 03:42:01.381632+01 | 1486521721.38163 | pgbench_history  |                0
 2017-02-08 03:42:01.381632+01 | 1486521721.38163 | pgbench_branches |            16384

 2017-02-08 03:42:02.766277+01 | 1486521722.76628 | pgbench_accounts |       4028858368
 2017-02-08 03:42:02.766277+01 | 1486521722.76628 | pgbench_tellers  |           139264
 2017-02-08 03:42:02.766277+01 | 1486521722.76628 | pgbench_history  |                0
 2017-02-08 03:42:02.766277+01 | 1486521722.76628 | pgbench_branches |            16384

 2017-02-08 03:42:04.014431+01 | 1486521724.01443 | pgbench_accounts |       4028858368
 2017-02-08 03:42:04.014431+01 | 1486521724.01443 | pgbench_tellers  |           139264
 2017-02-08 03:42:04.014431+01 | 1486521724.01443 | pgbench_history  |                0
 2017-02-08 03:42:04.014431+01 | 1486521724.01443 | pgbench_branches |            16384

 2017-02-08 03:42:05.424986+01 | 1486521725.42499 | pgbench_accounts |       4028858368
 2017-02-08 03:42:05.424986+01 | 1486521725.42499 | pgbench_tellers  |           139264
 2017-02-08 03:42:05.424986+01 | 1486521725.42499 | pgbench_history  |                0
 2017-02-08 03:42:05.424986+01 | 1486521725.42499 | pgbench_branches |            16384

 2017-02-08 03:42:06.828203+01 | 1486521726.8282 | pgbench_accounts |       4028858368
 2017-02-08 03:42:06.828203+01 | 1486521726.8282 | pgbench_tellers  |           139264
 2017-02-08 03:42:06.828203+01 | 1486521726.8282 | pgbench_history  |                0
 2017-02-08 03:42:06.828203+01 | 1486521726.8282 | pgbench_branches |            16384

 2017-02-08 03:42:08.190309+01 | 1486521728.19031 | pgbench_accounts |       4028858368
 2017-02-08 03:42:08.190309+01 | 1486521728.19031 | pgbench_tellers  |           139264
 2017-02-08 03:42:08.190309+01 | 1486521728.19031 | pgbench_history  |                0
 2017-02-08 03:42:08.190309+01 | 1486521728.19031 | pgbench_branches |            16384

 2017-02-08 03:42:09.614478+01 | 1486521729.61448 | pgbench_accounts |       4028858368
 2017-02-08 03:42:09.614478+01 | 1486521729.61448 | pgbench_tellers  |           139264
 2017-02-08 03:42:09.614478+01 | 1486521729.61448 | pgbench_history  |                0
 2017-02-08 03:42:09.614478+01 | 1486521729.61448 | pgbench_branches |            16384

 2017-02-08 03:42:10.941562+01 | 1486521730.94156 | pgbench_accounts |       4028858368
 2017-02-08 03:42:10.941562+01 | 1486521730.94156 | pgbench_tellers  |           139264
 2017-02-08 03:42:10.941562+01 | 1486521730.94156 | pgbench_history  |                0
 2017-02-08 03:42:10.941562+01 | 1486521730.94156 | pgbench_branches |            16384

 2017-02-08 03:42:12.314609+01 | 1486521732.31461 | pgbench_accounts |       4028858368
 2017-02-08 03:42:12.314609+01 | 1486521732.31461 | pgbench_tellers  |           139264
 2017-02-08 03:42:12.314609+01 | 1486521732.31461 | pgbench_history  |                0
 2017-02-08 03:42:12.314609+01 | 1486521732.31461 | pgbench_branches |            16384

 2017-02-08 03:42:13.661782+01 | 1486521733.66178 | pgbench_accounts |       4028858368
 2017-02-08 03:42:13.661782+01 | 1486521733.66178 | pgbench_tellers  |           139264
 2017-02-08 03:42:13.661782+01 | 1486521733.66178 | pgbench_history  |                0
 2017-02-08 03:42:13.661782+01 | 1486521733.66178 | pgbench_branches |            16384

 2017-02-08 03:42:15.009778+01 | 1486521735.00978 | pgbench_accounts |       4028858368
 2017-02-08 03:42:15.009778+01 | 1486521735.00978 | pgbench_tellers  |           139264
 2017-02-08 03:42:15.009778+01 | 1486521735.00978 | pgbench_history  |                0
 2017-02-08 03:42:15.009778+01 | 1486521735.00978 | pgbench_branches |            16384

 2017-02-08 03:42:16.359564+01 | 1486521736.35956 | pgbench_accounts |       4028858368
 2017-02-08 03:42:16.359564+01 | 1486521736.35956 | pgbench_tellers  |           139264
 2017-02-08 03:42:16.359564+01 | 1486521736.35956 | pgbench_history  |                0
 2017-02-08 03:42:16.359564+01 | 1486521736.35956 | pgbench_branches |            16384

 2017-02-08 03:42:17.711815+01 | 1486521737.71182 | pgbench_accounts |       4028858368
 2017-02-08 03:42:17.711815+01 | 1486521737.71182 | pgbench_tellers  |           139264
 2017-02-08 03:42:17.711815+01 | 1486521737.71182 | pgbench_history  |                0
 2017-02-08 03:42:17.711815+01 | 1486521737.71182 | pgbench_branches |            16384

 2017-02-08 03:42:19.075576+01 | 1486521739.07558 | pgbench_accounts |       4028858368
 2017-02-08 03:42:19.075576+01 | 1486521739.07558 | pgbench_tellers  |           139264
 2017-02-08 03:42:19.075576+01 | 1486521739.07558 | pgbench_history  |                0
 2017-02-08 03:42:19.075576+01 | 1486521739.07558 | pgbench_branches |            16384

 2017-02-08 03:42:20.410491+01 | 1486521740.41049 | pgbench_accounts |       4028858368
 2017-02-08 03:42:20.410491+01 | 1486521740.41049 | pgbench_tellers  |           139264
 2017-02-08 03:42:20.410491+01 | 1486521740.41049 | pgbench_history  |                0
 2017-02-08 03:42:20.410491+01 | 1486521740.41049 | pgbench_branches |            16384

 2017-02-08 03:42:21.79724+01 | 1486521741.79724 | pgbench_accounts |       4028858368
 2017-02-08 03:42:21.79724+01 | 1486521741.79724 | pgbench_tellers  |           139264
 2017-02-08 03:42:21.79724+01 | 1486521741.79724 | pgbench_history  |                0
 2017-02-08 03:42:21.79724+01 | 1486521741.79724 | pgbench_branches |            16384

 2017-02-08 03:42:23.159838+01 | 1486521743.15984 | pgbench_accounts |       4028858368
 2017-02-08 03:42:23.159838+01 | 1486521743.15984 | pgbench_tellers  |           139264
 2017-02-08 03:42:23.159838+01 | 1486521743.15984 | pgbench_history  |                0
 2017-02-08 03:42:23.159838+01 | 1486521743.15984 | pgbench_branches |            16384

 2017-02-08 03:42:24.499412+01 | 1486521744.49941 | pgbench_accounts |       4028858368
 2017-02-08 03:42:24.499412+01 | 1486521744.49941 | pgbench_tellers  |           139264
 2017-02-08 03:42:24.499412+01 | 1486521744.49941 | pgbench_history  |                0
 2017-02-08 03:42:24.499412+01 | 1486521744.49941 | pgbench_branches |            16384

 2017-02-08 03:42:25.828063+01 | 1486521745.82806 | pgbench_accounts |       4028858368
 2017-02-08 03:42:25.828063+01 | 1486521745.82806 | pgbench_tellers  |           139264
 2017-02-08 03:42:25.828063+01 | 1486521745.82806 | pgbench_history  |                0
 2017-02-08 03:42:25.828063+01 | 1486521745.82806 | pgbench_branches |            16384

 2017-02-08 03:42:27.213875+01 | 1486521747.21388 | pgbench_accounts |       4028858368
 2017-02-08 03:42:27.213875+01 | 1486521747.21388 | pgbench_tellers  |           139264
 2017-02-08 03:42:27.213875+01 | 1486521747.21388 | pgbench_history  |                0
 2017-02-08 03:42:27.213875+01 | 1486521747.21388 | pgbench_branches |            16384

 2017-02-08 03:42:28.644289+01 | 1486521748.64429 | pgbench_accounts |       4028858368
 2017-02-08 03:42:28.644289+01 | 1486521748.64429 | pgbench_tellers  |           139264
 2017-02-08 03:42:28.644289+01 | 1486521748.64429 | pgbench_history  |                0
 2017-02-08 03:42:28.644289+01 | 1486521748.64429 | pgbench_branches |            16384

 2017-02-08 03:42:30.008854+01 | 1486521750.00885 | pgbench_accounts |       4028858368
 2017-02-08 03:42:30.008854+01 | 1486521750.00885 | pgbench_tellers  |           139264
 2017-02-08 03:42:30.008854+01 | 1486521750.00885 | pgbench_history  |                0
 2017-02-08 03:42:30.008854+01 | 1486521750.00885 | pgbench_branches |            16384

 2017-02-08 03:42:31.365629+01 | 1486521751.36563 | pgbench_accounts |       4028858368
 2017-02-08 03:42:31.365629+01 | 1486521751.36563 | pgbench_tellers  |           139264
 2017-02-08 03:42:31.365629+01 | 1486521751.36563 | pgbench_history  |                0
 2017-02-08 03:42:31.365629+01 | 1486521751.36563 | pgbench_branches |            16384

 2017-02-08 03:42:32.708022+01 | 1486521752.70802 | pgbench_accounts |       4028858368
 2017-02-08 03:42:32.708022+01 | 1486521752.70802 | pgbench_tellers  |           139264
 2017-02-08 03:42:32.708022+01 | 1486521752.70802 | pgbench_history  |                0
 2017-02-08 03:42:32.708022+01 | 1486521752.70802 | pgbench_branches |            16384

 2017-02-08 03:42:34.099131+01 | 1486521754.09913 | pgbench_accounts |       4028858368
 2017-02-08 03:42:34.099131+01 | 1486521754.09913 | pgbench_tellers  |           139264
 2017-02-08 03:42:34.099131+01 | 1486521754.09913 | pgbench_history  |                0
 2017-02-08 03:42:34.099131+01 | 1486521754.09913 | pgbench_branches |            16384

 2017-02-08 03:42:35.493549+01 | 1486521755.49355 | pgbench_accounts |       4028858368
 2017-02-08 03:42:35.493549+01 | 1486521755.49355 | pgbench_tellers  |           139264
 2017-02-08 03:42:35.493549+01 | 1486521755.49355 | pgbench_history  |                0
 2017-02-08 03:42:35.493549+01 | 1486521755.49355 | pgbench_branches |            16384

 2017-02-08 03:42:36.82885+01 | 1486521756.82885 | pgbench_accounts |       4028858368
 2017-02-08 03:42:36.82885+01 | 1486521756.82885 | pgbench_tellers  |           139264
 2017-02-08 03:42:36.82885+01 | 1486521756.82885 | pgbench_history  |                0
 2017-02-08 03:42:36.82885+01 | 1486521756.82885 | pgbench_branches |            16384

 2017-02-08 03:42:38.221119+01 | 1486521758.22112 | pgbench_accounts |       4028858368
 2017-02-08 03:42:38.221119+01 | 1486521758.22112 | pgbench_tellers  |           139264
 2017-02-08 03:42:38.221119+01 | 1486521758.22112 | pgbench_history  |                0
 2017-02-08 03:42:38.221119+01 | 1486521758.22112 | pgbench_branches |            16384

 2017-02-08 03:42:39.507034+01 | 1486521759.50703 | pgbench_accounts |       4028858368
 2017-02-08 03:42:39.507034+01 | 1486521759.50703 | pgbench_tellers  |           139264
 2017-02-08 03:42:39.507034+01 | 1486521759.50703 | pgbench_history  |                0
 2017-02-08 03:42:39.507034+01 | 1486521759.50703 | pgbench_branches |            16384

 2017-02-08 03:42:40.896504+01 | 1486521760.8965 | pgbench_accounts |       4028858368
 2017-02-08 03:42:40.896504+01 | 1486521760.8965 | pgbench_tellers  |           139264
 2017-02-08 03:42:40.896504+01 | 1486521760.8965 | pgbench_history  |                0
 2017-02-08 03:42:40.896504+01 | 1486521760.8965 | pgbench_branches |            16384

 2017-02-08 03:42:42.230481+01 | 1486521762.23048 | pgbench_accounts |       4028858368
 2017-02-08 03:42:42.230481+01 | 1486521762.23048 | pgbench_tellers  |           139264
 2017-02-08 03:42:42.230481+01 | 1486521762.23048 | pgbench_history  |                0
 2017-02-08 03:42:42.230481+01 | 1486521762.23048 | pgbench_branches |            16384

 2017-02-08 03:42:43.590156+01 | 1486521763.59016 | pgbench_accounts |       4028858368
 2017-02-08 03:42:43.590156+01 | 1486521763.59016 | pgbench_tellers  |           139264
 2017-02-08 03:42:43.590156+01 | 1486521763.59016 | pgbench_history  |                0
 2017-02-08 03:42:43.590156+01 | 1486521763.59016 | pgbench_branches |            16384

 2017-02-08 03:42:44.904069+01 | 1486521764.90407 | pgbench_accounts |       4028858368
 2017-02-08 03:42:44.904069+01 | 1486521764.90407 | pgbench_tellers  |           139264
 2017-02-08 03:42:44.904069+01 | 1486521764.90407 | pgbench_history  |                0
 2017-02-08 03:42:44.904069+01 | 1486521764.90407 | pgbench_branches |            16384

 2017-02-08 03:42:46.303516+01 | 1486521766.30352 | pgbench_accounts |       4028858368
 2017-02-08 03:42:46.303516+01 | 1486521766.30352 | pgbench_tellers  |           139264
 2017-02-08 03:42:46.303516+01 | 1486521766.30352 | pgbench_history  |                0
 2017-02-08 03:42:46.303516+01 | 1486521766.30352 | pgbench_branches |            16384

 2017-02-08 03:42:47.700053+01 | 1486521767.70005 | pgbench_accounts |       4028858368
 2017-02-08 03:42:47.700053+01 | 1486521767.70005 | pgbench_tellers  |           139264
 2017-02-08 03:42:47.700053+01 | 1486521767.70005 | pgbench_history  |                0
 2017-02-08 03:42:47.700053+01 | 1486521767.70005 | pgbench_branches |            16384

 2017-02-08 03:42:49.044401+01 | 1486521769.0444 | pgbench_accounts |       4028858368
 2017-02-08 03:42:49.044401+01 | 1486521769.0444 | pgbench_tellers  |           139264
 2017-02-08 03:42:49.044401+01 | 1486521769.0444 | pgbench_history  |                0
 2017-02-08 03:42:49.044401+01 | 1486521769.0444 | pgbench_branches |            16384

 2017-02-08 03:42:50.387285+01 | 1486521770.38728 | pgbench_accounts |       4028858368
 2017-02-08 03:42:50.387285+01 | 1486521770.38728 | pgbench_tellers  |           139264
 2017-02-08 03:42:50.387285+01 | 1486521770.38728 | pgbench_history  |                0
 2017-02-08 03:42:50.387285+01 | 1486521770.38728 | pgbench_branches |            16384

 2017-02-08 03:42:51.664931+01 | 1486521771.66493 | pgbench_accounts |       4028858368
 2017-02-08 03:42:51.664931+01 | 1486521771.66493 | pgbench_tellers  |           139264
 2017-02-08 03:42:51.664931+01 | 1486521771.66493 | pgbench_history  |                0
 2017-02-08 03:42:51.664931+01 | 1486521771.66493 | pgbench_branches |            16384

 2017-02-08 03:42:53.032891+01 | 1486521773.03289 | pgbench_accounts |       4028858368
 2017-02-08 03:42:53.032891+01 | 1486521773.03289 | pgbench_tellers  |           139264
 2017-02-08 03:42:53.032891+01 | 1486521773.03289 | pgbench_history  |                0
 2017-02-08 03:42:53.032891+01 | 1486521773.03289 | pgbench_branches |            16384

 2017-02-08 03:42:54.350174+01 | 1486521774.35017 | pgbench_accounts |       4028858368
 2017-02-08 03:42:54.350174+01 | 1486521774.35017 | pgbench_tellers  |           139264
 2017-02-08 03:42:54.350174+01 | 1486521774.35017 | pgbench_history  |                0
 2017-02-08 03:42:54.350174+01 | 1486521774.35017 | pgbench_branches |            16384

 2017-02-08 03:42:55.750521+01 | 1486521775.75052 | pgbench_accounts |       4028858368
 2017-02-08 03:42:55.750521+01 | 1486521775.75052 | pgbench_tellers  |           139264
 2017-02-08 03:42:55.750521+01 | 1486521775.75052 | pgbench_history  |                0
 2017-02-08 03:42:55.750521+01 | 1486521775.75052 | pgbench_branches |            16384

 2017-02-08 03:42:57.064441+01 | 1486521777.06444 | pgbench_accounts |       4028858368
 2017-02-08 03:42:57.064441+01 | 1486521777.06444 | pgbench_tellers  |           139264
 2017-02-08 03:42:57.064441+01 | 1486521777.06444 | pgbench_history  |                0
 2017-02-08 03:42:57.064441+01 | 1486521777.06444 | pgbench_branches |            16384

 2017-02-08 03:42:58.47764+01 | 1486521778.47764 | pgbench_accounts |       4028858368
 2017-02-08 03:42:58.47764+01 | 1486521778.47764 | pgbench_tellers  |           139264
 2017-02-08 03:42:58.47764+01 | 1486521778.47764 | pgbench_history  |                0
 2017-02-08 03:42:58.47764+01 | 1486521778.47764 | pgbench_branches |            16384

 2017-02-08 03:42:59.881985+01 | 1486521779.88198 | pgbench_accounts |       4028858368
 2017-02-08 03:42:59.881985+01 | 1486521779.88198 | pgbench_tellers  |           139264
 2017-02-08 03:42:59.881985+01 | 1486521779.88198 | pgbench_history  |                0
 2017-02-08 03:42:59.881985+01 | 1486521779.88198 | pgbench_branches |            16384

 2017-02-08 03:43:01.252762+01 | 1486521781.25276 | pgbench_accounts |       4028858368
 2017-02-08 03:43:01.252762+01 | 1486521781.25276 | pgbench_tellers  |           139264
 2017-02-08 03:43:01.252762+01 | 1486521781.25276 | pgbench_history  |                0
 2017-02-08 03:43:01.252762+01 | 1486521781.25276 | pgbench_branches |            16384

 2017-02-08 03:43:02.620824+01 | 1486521782.62082 | pgbench_accounts |       4028858368
 2017-02-08 03:43:02.620824+01 | 1486521782.62082 | pgbench_tellers  |           139264
 2017-02-08 03:43:02.620824+01 | 1486521782.62082 | pgbench_history  |                0
 2017-02-08 03:43:02.620824+01 | 1486521782.62082 | pgbench_branches |            16384

 2017-02-08 03:43:04.000682+01 | 1486521784.00068 | pgbench_accounts |       4028858368
 2017-02-08 03:43:04.000682+01 | 1486521784.00068 | pgbench_tellers  |           139264
 2017-02-08 03:43:04.000682+01 | 1486521784.00068 | pgbench_history  |                0
 2017-02-08 03:43:04.000682+01 | 1486521784.00068 | pgbench_branches |            16384

 2017-02-08 03:43:05.345156+01 | 1486521785.34516 | pgbench_accounts |       4028858368
 2017-02-08 03:43:05.345156+01 | 1486521785.34516 | pgbench_tellers  |           139264
 2017-02-08 03:43:05.345156+01 | 1486521785.34516 | pgbench_history  |                0
 2017-02-08 03:43:05.345156+01 | 1486521785.34516 | pgbench_branches |            16384

 2017-02-08 03:43:06.618542+01 | 1486521786.61854 | pgbench_accounts |       4028858368
 2017-02-08 03:43:06.618542+01 | 1486521786.61854 | pgbench_tellers  |           139264
 2017-02-08 03:43:06.618542+01 | 1486521786.61854 | pgbench_history  |                0
 2017-02-08 03:43:06.618542+01 | 1486521786.61854 | pgbench_branches |            16384

 2017-02-08 03:43:07.991654+01 | 1486521787.99165 | pgbench_accounts |       4028858368
 2017-02-08 03:43:07.991654+01 | 1486521787.99165 | pgbench_tellers  |           139264
 2017-02-08 03:43:07.991654+01 | 1486521787.99165 | pgbench_history  |                0
 2017-02-08 03:43:07.991654+01 | 1486521787.99165 | pgbench_branches |            16384

 2017-02-08 03:43:09.299186+01 | 1486521789.29919 | pgbench_accounts |       4028858368
 2017-02-08 03:43:09.299186+01 | 1486521789.29919 | pgbench_tellers  |           139264
 2017-02-08 03:43:09.299186+01 | 1486521789.29919 | pgbench_history  |                0
 2017-02-08 03:43:09.299186+01 | 1486521789.29919 | pgbench_branches |            16384

 2017-02-08 03:43:10.669235+01 | 1486521790.66923 | pgbench_accounts |       4028858368
 2017-02-08 03:43:10.669235+01 | 1486521790.66923 | pgbench_tellers  |           139264
 2017-02-08 03:43:10.669235+01 | 1486521790.66923 | pgbench_history  |                0
 2017-02-08 03:43:10.669235+01 | 1486521790.66923 | pgbench_branches |            16384

 2017-02-08 03:43:11.99675+01 | 1486521791.99675 | pgbench_accounts |       4028858368
 2017-02-08 03:43:11.99675+01 | 1486521791.99675 | pgbench_tellers  |           139264
 2017-02-08 03:43:11.99675+01 | 1486521791.99675 | pgbench_history  |                0
 2017-02-08 03:43:11.99675+01 | 1486521791.99675 | pgbench_branches |            16384

 2017-02-08 03:43:13.320522+01 | 1486521793.32052 | pgbench_accounts |       4028858368
 2017-02-08 03:43:13.320522+01 | 1486521793.32052 | pgbench_tellers  |           139264
 2017-02-08 03:43:13.320522+01 | 1486521793.32052 | pgbench_history  |                0
 2017-02-08 03:43:13.320522+01 | 1486521793.32052 | pgbench_branches |            16384

 2017-02-08 03:43:14.642537+01 | 1486521794.64254 | pgbench_accounts |       4028858368
 2017-02-08 03:43:14.642537+01 | 1486521794.64254 | pgbench_tellers  |           139264
 2017-02-08 03:43:14.642537+01 | 1486521794.64254 | pgbench_history  |                0
 2017-02-08 03:43:14.642537+01 | 1486521794.64254 | pgbench_branches |            16384

 2017-02-08 03:43:15.996434+01 | 1486521795.99643 | pgbench_accounts |       4028858368
 2017-02-08 03:43:15.996434+01 | 1486521795.99643 | pgbench_tellers  |           139264
 2017-02-08 03:43:15.996434+01 | 1486521795.99643 | pgbench_history  |                0
 2017-02-08 03:43:15.996434+01 | 1486521795.99643 | pgbench_branches |            16384

 2017-02-08 03:43:17.382377+01 | 1486521797.38238 | pgbench_accounts |       4028858368
 2017-02-08 03:43:17.382377+01 | 1486521797.38238 | pgbench_tellers  |           139264
 2017-02-08 03:43:17.382377+01 | 1486521797.38238 | pgbench_history  |                0
 2017-02-08 03:43:17.382377+01 | 1486521797.38238 | pgbench_branches |            16384

 2017-02-08 03:43:18.77545+01 | 1486521798.77545 | pgbench_accounts |       4028858368
 2017-02-08 03:43:18.77545+01 | 1486521798.77545 | pgbench_tellers  |           139264
 2017-02-08 03:43:18.77545+01 | 1486521798.77545 | pgbench_history  |                0
 2017-02-08 03:43:18.77545+01 | 1486521798.77545 | pgbench_branches |            16384

 2017-02-08 03:43:20.088068+01 | 1486521800.08807 | pgbench_accounts |       4028858368
 2017-02-08 03:43:20.088068+01 | 1486521800.08807 | pgbench_tellers  |           139264
 2017-02-08 03:43:20.088068+01 | 1486521800.08807 | pgbench_history  |                0
 2017-02-08 03:43:20.088068+01 | 1486521800.08807 | pgbench_branches |            16384

 2017-02-08 03:43:21.445107+01 | 1486521801.44511 | pgbench_accounts |       4028858368
 2017-02-08 03:43:21.445107+01 | 1486521801.44511 | pgbench_tellers  |           139264
 2017-02-08 03:43:21.445107+01 | 1486521801.44511 | pgbench_history  |                0
 2017-02-08 03:43:21.445107+01 | 1486521801.44511 | pgbench_branches |            16384

 2017-02-08 03:43:22.821168+01 | 1486521802.82117 | pgbench_accounts |       4028858368
 2017-02-08 03:43:22.821168+01 | 1486521802.82117 | pgbench_tellers  |           139264
 2017-02-08 03:43:22.821168+01 | 1486521802.82117 | pgbench_history  |                0
 2017-02-08 03:43:22.821168+01 | 1486521802.82117 | pgbench_branches |            16384

 2017-02-08 03:43:24.189755+01 | 1486521804.18975 | pgbench_accounts |       4028858368
 2017-02-08 03:43:24.189755+01 | 1486521804.18975 | pgbench_tellers  |           139264
 2017-02-08 03:43:24.189755+01 | 1486521804.18975 | pgbench_history  |                0
 2017-02-08 03:43:24.189755+01 | 1486521804.18975 | pgbench_branches |            16384

 2017-02-08 03:43:25.587915+01 | 1486521805.58791 | pgbench_accounts |       4028858368
 2017-02-08 03:43:25.587915+01 | 1486521805.58791 | pgbench_tellers  |           139264
 2017-02-08 03:43:25.587915+01 | 1486521805.58791 | pgbench_history  |                0
 2017-02-08 03:43:25.587915+01 | 1486521805.58791 | pgbench_branches |            16384

 2017-02-08 03:43:26.975963+01 | 1486521806.97596 | pgbench_accounts |       4028858368
 2017-02-08 03:43:26.975963+01 | 1486521806.97596 | pgbench_tellers  |           139264
 2017-02-08 03:43:26.975963+01 | 1486521806.97596 | pgbench_history  |                0
 2017-02-08 03:43:26.975963+01 | 1486521806.97596 | pgbench_branches |            16384

 2017-02-08 03:43:28.337527+01 | 1486521808.33753 | pgbench_accounts |       4028858368
 2017-02-08 03:43:28.337527+01 | 1486521808.33753 | pgbench_tellers  |           139264
 2017-02-08 03:43:28.337527+01 | 1486521808.33753 | pgbench_history  |                0
 2017-02-08 03:43:28.337527+01 | 1486521808.33753 | pgbench_branches |            16384

 2017-02-08 03:43:29.675981+01 | 1486521809.67598 | pgbench_accounts |       4028858368
 2017-02-08 03:43:29.675981+01 | 1486521809.67598 | pgbench_tellers  |           139264
 2017-02-08 03:43:29.675981+01 | 1486521809.67598 | pgbench_history  |                0
 2017-02-08 03:43:29.675981+01 | 1486521809.67598 | pgbench_branches |            16384

 2017-02-08 03:43:31.029436+01 | 1486521811.02944 | pgbench_accounts |       4028858368
 2017-02-08 03:43:31.029436+01 | 1486521811.02944 | pgbench_tellers  |           139264
 2017-02-08 03:43:31.029436+01 | 1486521811.02944 | pgbench_history  |                0
 2017-02-08 03:43:31.029436+01 | 1486521811.02944 | pgbench_branches |            16384

 2017-02-08 03:43:32.368284+01 | 1486521812.36828 | pgbench_accounts |       4028858368
 2017-02-08 03:43:32.368284+01 | 1486521812.36828 | pgbench_tellers  |           139264
 2017-02-08 03:43:32.368284+01 | 1486521812.36828 | pgbench_history  |                0
 2017-02-08 03:43:32.368284+01 | 1486521812.36828 | pgbench_branches |            16384

 2017-02-08 03:43:33.739595+01 | 1486521813.73959 | pgbench_accounts |       4028858368
 2017-02-08 03:43:33.739595+01 | 1486521813.73959 | pgbench_tellers  |           139264
 2017-02-08 03:43:33.739595+01 | 1486521813.73959 | pgbench_history  |                0
 2017-02-08 03:43:33.739595+01 | 1486521813.73959 | pgbench_branches |            16384

 2017-02-08 03:43:35.074922+01 | 1486521815.07492 | pgbench_accounts |       4028858368
 2017-02-08 03:43:35.074922+01 | 1486521815.07492 | pgbench_tellers  |           139264
 2017-02-08 03:43:35.074922+01 | 1486521815.07492 | pgbench_history  |                0
 2017-02-08 03:43:35.074922+01 | 1486521815.07492 | pgbench_branches |            16384

 2017-02-08 03:43:36.458049+01 | 1486521816.45805 | pgbench_accounts |       4028858368
 2017-02-08 03:43:36.458049+01 | 1486521816.45805 | pgbench_tellers  |           139264
 2017-02-08 03:43:36.458049+01 | 1486521816.45805 | pgbench_history  |                0
 2017-02-08 03:43:36.458049+01 | 1486521816.45805 | pgbench_branches |            16384

 2017-02-08 03:43:37.819463+01 | 1486521817.81946 | pgbench_accounts |       4028858368
 2017-02-08 03:43:37.819463+01 | 1486521817.81946 | pgbench_tellers  |           139264
 2017-02-08 03:43:37.819463+01 | 1486521817.81946 | pgbench_history  |                0
 2017-02-08 03:43:37.819463+01 | 1486521817.81946 | pgbench_branches |            16384

 2017-02-08 03:43:39.185326+01 | 1486521819.18533 | pgbench_accounts |       4028858368
 2017-02-08 03:43:39.185326+01 | 1486521819.18533 | pgbench_tellers  |           139264
 2017-02-08 03:43:39.185326+01 | 1486521819.18533 | pgbench_history  |                0
 2017-02-08 03:43:39.185326+01 | 1486521819.18533 | pgbench_branches |            16384

 2017-02-08 03:43:40.565894+01 | 1486521820.56589 | pgbench_accounts |       4028858368
 2017-02-08 03:43:40.565894+01 | 1486521820.56589 | pgbench_tellers  |           139264
 2017-02-08 03:43:40.565894+01 | 1486521820.56589 | pgbench_history  |                0
 2017-02-08 03:43:40.565894+01 | 1486521820.56589 | pgbench_branches |            16384

 2017-02-08 03:43:41.941663+01 | 1486521821.94166 | pgbench_accounts |       4028858368
 2017-02-08 03:43:41.941663+01 | 1486521821.94166 | pgbench_tellers  |           139264
 2017-02-08 03:43:41.941663+01 | 1486521821.94166 | pgbench_history  |                0
 2017-02-08 03:43:41.941663+01 | 1486521821.94166 | pgbench_branches |            16384

 2017-02-08 03:43:43.313943+01 | 1486521823.31394 | pgbench_accounts |       4028858368
 2017-02-08 03:43:43.313943+01 | 1486521823.31394 | pgbench_tellers  |           139264
 2017-02-08 03:43:43.313943+01 | 1486521823.31394 | pgbench_history  |                0
 2017-02-08 03:43:43.313943+01 | 1486521823.31394 | pgbench_branches |            16384

 2017-02-08 03:43:44.697705+01 | 1486521824.69771 | pgbench_accounts |       4028858368
 2017-02-08 03:43:44.697705+01 | 1486521824.69771 | pgbench_tellers  |           139264
 2017-02-08 03:43:44.697705+01 | 1486521824.69771 | pgbench_history  |                0
 2017-02-08 03:43:44.697705+01 | 1486521824.69771 | pgbench_branches |            16384

 2017-02-08 03:43:46.028536+01 | 1486521826.02854 | pgbench_accounts |       4028858368
 2017-02-08 03:43:46.028536+01 | 1486521826.02854 | pgbench_tellers  |           139264
 2017-02-08 03:43:46.028536+01 | 1486521826.02854 | pgbench_history  |                0
 2017-02-08 03:43:46.028536+01 | 1486521826.02854 | pgbench_branches |            16384

 2017-02-08 03:43:47.456764+01 | 1486521827.45676 | pgbench_accounts |       4028858368
 2017-02-08 03:43:47.456764+01 | 1486521827.45676 | pgbench_tellers  |           139264
 2017-02-08 03:43:47.456764+01 | 1486521827.45676 | pgbench_history  |                0
 2017-02-08 03:43:47.456764+01 | 1486521827.45676 | pgbench_branches |            16384

 2017-02-08 03:43:48.82312+01 | 1486521828.82312 | pgbench_accounts |       4028858368
 2017-02-08 03:43:48.82312+01 | 1486521828.82312 | pgbench_tellers  |           139264
 2017-02-08 03:43:48.82312+01 | 1486521828.82312 | pgbench_history  |                0
 2017-02-08 03:43:48.82312+01 | 1486521828.82312 | pgbench_branches |            16384

 2017-02-08 03:43:50.19172+01 | 1486521830.19172 | pgbench_accounts |       4028858368
 2017-02-08 03:43:50.19172+01 | 1486521830.19172 | pgbench_tellers  |           139264
 2017-02-08 03:43:50.19172+01 | 1486521830.19172 | pgbench_history  |                0
 2017-02-08 03:43:50.19172+01 | 1486521830.19172 | pgbench_branches |            16384

 2017-02-08 03:43:51.6007+01 | 1486521831.6007 | pgbench_accounts |       4028858368
 2017-02-08 03:43:51.6007+01 | 1486521831.6007 | pgbench_tellers  |           139264
 2017-02-08 03:43:51.6007+01 | 1486521831.6007 | pgbench_history  |                0
 2017-02-08 03:43:51.6007+01 | 1486521831.6007 | pgbench_branches |            16384

 2017-02-08 03:43:53.000572+01 | 1486521833.00057 | pgbench_accounts |       4028858368
 2017-02-08 03:43:53.000572+01 | 1486521833.00057 | pgbench_tellers  |           139264
 2017-02-08 03:43:53.000572+01 | 1486521833.00057 | pgbench_history  |                0
 2017-02-08 03:43:53.000572+01 | 1486521833.00057 | pgbench_branches |            16384

 2017-02-08 03:43:54.387172+01 | 1486521834.38717 | pgbench_accounts |       4028858368
 2017-02-08 03:43:54.387172+01 | 1486521834.38717 | pgbench_tellers  |           139264
 2017-02-08 03:43:54.387172+01 | 1486521834.38717 | pgbench_history  |                0
 2017-02-08 03:43:54.387172+01 | 1486521834.38717 | pgbench_branches |            16384

 2017-02-08 03:43:55.796715+01 | 1486521835.79672 | pgbench_accounts |       4028858368
 2017-02-08 03:43:55.796715+01 | 1486521835.79672 | pgbench_tellers  |           139264
 2017-02-08 03:43:55.796715+01 | 1486521835.79672 | pgbench_history  |                0
 2017-02-08 03:43:55.796715+01 | 1486521835.79672 | pgbench_branches |            16384

 2017-02-08 03:43:57.131666+01 | 1486521837.13167 | pgbench_accounts |       4028858368
 2017-02-08 03:43:57.131666+01 | 1486521837.13167 | pgbench_tellers  |           139264
 2017-02-08 03:43:57.131666+01 | 1486521837.13167 | pgbench_history  |                0
 2017-02-08 03:43:57.131666+01 | 1486521837.13167 | pgbench_branches |            16384

 2017-02-08 03:43:58.448705+01 | 1486521838.4487 | pgbench_accounts |       4028858368
 2017-02-08 03:43:58.448705+01 | 1486521838.4487 | pgbench_tellers  |           139264
 2017-02-08 03:43:58.448705+01 | 1486521838.4487 | pgbench_history  |                0
 2017-02-08 03:43:58.448705+01 | 1486521838.4487 | pgbench_branches |            16384

 2017-02-08 03:43:59.850387+01 | 1486521839.85039 | pgbench_accounts |       4028858368
 2017-02-08 03:43:59.850387+01 | 1486521839.85039 | pgbench_tellers  |           139264
 2017-02-08 03:43:59.850387+01 | 1486521839.85039 | pgbench_history  |                0
 2017-02-08 03:43:59.850387+01 | 1486521839.85039 | pgbench_branches |            16384

 2017-02-08 03:44:01.192548+01 | 1486521841.19255 | pgbench_accounts |       4028858368
 2017-02-08 03:44:01.192548+01 | 1486521841.19255 | pgbench_tellers  |           139264
 2017-02-08 03:44:01.192548+01 | 1486521841.19255 | pgbench_history  |                0
 2017-02-08 03:44:01.192548+01 | 1486521841.19255 | pgbench_branches |            16384

 2017-02-08 03:44:02.548458+01 | 1486521842.54846 | pgbench_accounts |       4028858368
 2017-02-08 03:44:02.548458+01 | 1486521842.54846 | pgbench_tellers  |           139264
 2017-02-08 03:44:02.548458+01 | 1486521842.54846 | pgbench_history  |                0
 2017-02-08 03:44:02.548458+01 | 1486521842.54846 | pgbench_branches |            16384

 2017-02-08 03:44:03.882366+01 | 1486521843.88237 | pgbench_accounts |       4028858368
 2017-02-08 03:44:03.882366+01 | 1486521843.88237 | pgbench_tellers  |           139264
 2017-02-08 03:44:03.882366+01 | 1486521843.88237 | pgbench_history  |                0
 2017-02-08 03:44:03.882366+01 | 1486521843.88237 | pgbench_branches |            16384

 2017-02-08 03:44:05.272844+01 | 1486521845.27284 | pgbench_accounts |       4028858368
 2017-02-08 03:44:05.272844+01 | 1486521845.27284 | pgbench_tellers  |           139264
 2017-02-08 03:44:05.272844+01 | 1486521845.27284 | pgbench_history  |                0
 2017-02-08 03:44:05.272844+01 | 1486521845.27284 | pgbench_branches |            16384

 2017-02-08 03:44:06.60001+01 | 1486521846.60001 | pgbench_accounts |       4028858368
 2017-02-08 03:44:06.60001+01 | 1486521846.60001 | pgbench_tellers  |           139264
 2017-02-08 03:44:06.60001+01 | 1486521846.60001 | pgbench_history  |                0
 2017-02-08 03:44:06.60001+01 | 1486521846.60001 | pgbench_branches |            16384

 2017-02-08 03:44:07.976087+01 | 1486521847.97609 | pgbench_accounts |       4028858368
 2017-02-08 03:44:07.976087+01 | 1486521847.97609 | pgbench_tellers  |           139264
 2017-02-08 03:44:07.976087+01 | 1486521847.97609 | pgbench_history  |                0
 2017-02-08 03:44:07.976087+01 | 1486521847.97609 | pgbench_branches |            16384

 2017-02-08 03:44:09.34371+01 | 1486521849.34371 | pgbench_accounts |       4028858368
 2017-02-08 03:44:09.34371+01 | 1486521849.34371 | pgbench_tellers  |           139264
 2017-02-08 03:44:09.34371+01 | 1486521849.34371 | pgbench_history  |                0
 2017-02-08 03:44:09.34371+01 | 1486521849.34371 | pgbench_branches |            16384

 2017-02-08 03:44:10.727205+01 | 1486521850.72721 | pgbench_accounts |       4028858368
 2017-02-08 03:44:10.727205+01 | 1486521850.72721 | pgbench_tellers  |           139264
 2017-02-08 03:44:10.727205+01 | 1486521850.72721 | pgbench_history  |                0
 2017-02-08 03:44:10.727205+01 | 1486521850.72721 | pgbench_branches |            16384

 2017-02-08 03:44:12.098523+01 | 1486521852.09852 | pgbench_accounts |       4028858368
 2017-02-08 03:44:12.098523+01 | 1486521852.09852 | pgbench_tellers  |           139264
 2017-02-08 03:44:12.098523+01 | 1486521852.09852 | pgbench_history  |                0
 2017-02-08 03:44:12.098523+01 | 1486521852.09852 | pgbench_branches |            16384

 2017-02-08 03:44:13.456247+01 | 1486521853.45625 | pgbench_accounts |       4028858368
 2017-02-08 03:44:13.456247+01 | 1486521853.45625 | pgbench_tellers  |           139264
 2017-02-08 03:44:13.456247+01 | 1486521853.45625 | pgbench_history  |                0
 2017-02-08 03:44:13.456247+01 | 1486521853.45625 | pgbench_branches |            16384

 2017-02-08 03:44:14.832736+01 | 1486521854.83274 | pgbench_accounts |       4028858368
 2017-02-08 03:44:14.832736+01 | 1486521854.83274 | pgbench_tellers  |           139264
 2017-02-08 03:44:14.832736+01 | 1486521854.83274 | pgbench_history  |                0
 2017-02-08 03:44:14.832736+01 | 1486521854.83274 | pgbench_branches |            16384

 2017-02-08 03:44:16.216364+01 | 1486521856.21636 | pgbench_accounts |       4028858368
 2017-02-08 03:44:16.216364+01 | 1486521856.21636 | pgbench_tellers  |           139264
 2017-02-08 03:44:16.216364+01 | 1486521856.21636 | pgbench_history  |                0
 2017-02-08 03:44:16.216364+01 | 1486521856.21636 | pgbench_branches |            16384

 2017-02-08 03:44:17.586693+01 | 1486521857.58669 | pgbench_accounts |       4028858368
 2017-02-08 03:44:17.586693+01 | 1486521857.58669 | pgbench_tellers  |           139264
 2017-02-08 03:44:17.586693+01 | 1486521857.58669 | pgbench_history  |                0
 2017-02-08 03:44:17.586693+01 | 1486521857.58669 | pgbench_branches |            16384

 2017-02-08 03:44:18.916981+01 | 1486521858.91698 | pgbench_accounts |       4028858368
 2017-02-08 03:44:18.916981+01 | 1486521858.91698 | pgbench_tellers  |           139264
 2017-02-08 03:44:18.916981+01 | 1486521858.91698 | pgbench_history  |                0
 2017-02-08 03:44:18.916981+01 | 1486521858.91698 | pgbench_branches |            16384

 2017-02-08 03:44:20.247335+01 | 1486521860.24733 | pgbench_accounts |       4028858368
 2017-02-08 03:44:20.247335+01 | 1486521860.24733 | pgbench_tellers  |           139264
 2017-02-08 03:44:20.247335+01 | 1486521860.24733 | pgbench_history  |                0
 2017-02-08 03:44:20.247335+01 | 1486521860.24733 | pgbench_branches |            16384

 2017-02-08 03:44:21.64474+01 | 1486521861.64474 | pgbench_accounts |       4028858368
 2017-02-08 03:44:21.64474+01 | 1486521861.64474 | pgbench_tellers  |           139264
 2017-02-08 03:44:21.64474+01 | 1486521861.64474 | pgbench_history  |                0
 2017-02-08 03:44:21.64474+01 | 1486521861.64474 | pgbench_branches |            16384

 2017-02-08 03:44:23.040338+01 | 1486521863.04034 | pgbench_accounts |       4028858368
 2017-02-08 03:44:23.040338+01 | 1486521863.04034 | pgbench_tellers  |           139264
 2017-02-08 03:44:23.040338+01 | 1486521863.04034 | pgbench_history  |                0
 2017-02-08 03:44:23.040338+01 | 1486521863.04034 | pgbench_branches |            16384

 2017-02-08 03:44:24.336684+01 | 1486521864.33668 | pgbench_accounts |       4028858368
 2017-02-08 03:44:24.336684+01 | 1486521864.33668 | pgbench_tellers  |           139264
 2017-02-08 03:44:24.336684+01 | 1486521864.33668 | pgbench_history  |                0
 2017-02-08 03:44:24.336684+01 | 1486521864.33668 | pgbench_branches |            16384

 2017-02-08 03:44:25.676919+01 | 1486521865.67692 | pgbench_accounts |       4028858368
 2017-02-08 03:44:25.676919+01 | 1486521865.67692 | pgbench_tellers  |           139264
 2017-02-08 03:44:25.676919+01 | 1486521865.67692 | pgbench_history  |                0
 2017-02-08 03:44:25.676919+01 | 1486521865.67692 | pgbench_branches |            16384

 2017-02-08 03:44:27.016992+01 | 1486521867.01699 | pgbench_accounts |       4028858368
 2017-02-08 03:44:27.016992+01 | 1486521867.01699 | pgbench_tellers  |           139264
 2017-02-08 03:44:27.016992+01 | 1486521867.01699 | pgbench_history  |                0
 2017-02-08 03:44:27.016992+01 | 1486521867.01699 | pgbench_branches |            16384

 2017-02-08 03:44:28.409811+01 | 1486521868.40981 | pgbench_accounts |       4028858368
 2017-02-08 03:44:28.409811+01 | 1486521868.40981 | pgbench_tellers  |           139264
 2017-02-08 03:44:28.409811+01 | 1486521868.40981 | pgbench_history  |                0
 2017-02-08 03:44:28.409811+01 | 1486521868.40981 | pgbench_branches |            16384

 2017-02-08 03:44:29.788267+01 | 1486521869.78827 | pgbench_accounts |       4028858368
 2017-02-08 03:44:29.788267+01 | 1486521869.78827 | pgbench_tellers  |           139264
 2017-02-08 03:44:29.788267+01 | 1486521869.78827 | pgbench_history  |                0
 2017-02-08 03:44:29.788267+01 | 1486521869.78827 | pgbench_branches |            16384

 2017-02-08 03:44:31.164762+01 | 1486521871.16476 | pgbench_accounts |       4028858368
 2017-02-08 03:44:31.164762+01 | 1486521871.16476 | pgbench_tellers  |           139264
 2017-02-08 03:44:31.164762+01 | 1486521871.16476 | pgbench_history  |                0
 2017-02-08 03:44:31.164762+01 | 1486521871.16476 | pgbench_branches |            16384

 2017-02-08 03:44:32.558646+01 | 1486521872.55865 | pgbench_accounts |       4028858368
 2017-02-08 03:44:32.558646+01 | 1486521872.55865 | pgbench_tellers  |           139264
 2017-02-08 03:44:32.558646+01 | 1486521872.55865 | pgbench_history  |                0
 2017-02-08 03:44:32.558646+01 | 1486521872.55865 | pgbench_branches |            16384

 2017-02-08 03:44:33.971683+01 | 1486521873.97168 | pgbench_accounts |       4028858368
 2017-02-08 03:44:33.971683+01 | 1486521873.97168 | pgbench_tellers  |           139264
 2017-02-08 03:44:33.971683+01 | 1486521873.97168 | pgbench_history  |                0
 2017-02-08 03:44:33.971683+01 | 1486521873.97168 | pgbench_branches |            16384

 2017-02-08 03:44:35.348189+01 | 1486521875.34819 | pgbench_accounts |       4028858368
 2017-02-08 03:44:35.348189+01 | 1486521875.34819 | pgbench_tellers  |           139264
 2017-02-08 03:44:35.348189+01 | 1486521875.34819 | pgbench_history  |                0
 2017-02-08 03:44:35.348189+01 | 1486521875.34819 | pgbench_branches |            16384

 2017-02-08 03:44:36.649146+01 | 1486521876.64915 | pgbench_accounts |       4028858368
 2017-02-08 03:44:36.649146+01 | 1486521876.64915 | pgbench_tellers  |           139264
 2017-02-08 03:44:36.649146+01 | 1486521876.64915 | pgbench_history  |                0
 2017-02-08 03:44:36.649146+01 | 1486521876.64915 | pgbench_branches |            16384

 2017-02-08 03:44:37.982669+01 | 1486521877.98267 | pgbench_accounts |       4028858368
 2017-02-08 03:44:37.982669+01 | 1486521877.98267 | pgbench_tellers  |           139264
 2017-02-08 03:44:37.982669+01 | 1486521877.98267 | pgbench_history  |                0
 2017-02-08 03:44:37.982669+01 | 1486521877.98267 | pgbench_branches |            16384

 2017-02-08 03:44:39.349408+01 | 1486521879.34941 | pgbench_accounts |       4028858368
 2017-02-08 03:44:39.349408+01 | 1486521879.34941 | pgbench_tellers  |           139264
 2017-02-08 03:44:39.349408+01 | 1486521879.34941 | pgbench_history  |                0
 2017-02-08 03:44:39.349408+01 | 1486521879.34941 | pgbench_branches |            16384

 2017-02-08 03:44:40.66783+01 | 1486521880.66783 | pgbench_accounts |       4028858368
 2017-02-08 03:44:40.66783+01 | 1486521880.66783 | pgbench_tellers  |           139264
 2017-02-08 03:44:40.66783+01 | 1486521880.66783 | pgbench_history  |                0
 2017-02-08 03:44:40.66783+01 | 1486521880.66783 | pgbench_branches |            16384

 2017-02-08 03:44:42.028999+01 | 1486521882.029 | pgbench_accounts |       4028858368
 2017-02-08 03:44:42.028999+01 | 1486521882.029 | pgbench_tellers  |           139264
 2017-02-08 03:44:42.028999+01 | 1486521882.029 | pgbench_history  |                0
 2017-02-08 03:44:42.028999+01 | 1486521882.029 | pgbench_branches |            16384

 2017-02-08 03:44:43.36319+01 | 1486521883.36319 | pgbench_accounts |       4028858368
 2017-02-08 03:44:43.36319+01 | 1486521883.36319 | pgbench_tellers  |           139264
 2017-02-08 03:44:43.36319+01 | 1486521883.36319 | pgbench_history  |                0
 2017-02-08 03:44:43.36319+01 | 1486521883.36319 | pgbench_branches |            16384

 2017-02-08 03:44:44.751979+01 | 1486521884.75198 | pgbench_accounts |       4028858368
 2017-02-08 03:44:44.751979+01 | 1486521884.75198 | pgbench_tellers  |           139264
 2017-02-08 03:44:44.751979+01 | 1486521884.75198 | pgbench_history  |                0
 2017-02-08 03:44:44.751979+01 | 1486521884.75198 | pgbench_branches |            16384

 2017-02-08 03:44:46.105488+01 | 1486521886.10549 | pgbench_accounts |       4028858368
 2017-02-08 03:44:46.105488+01 | 1486521886.10549 | pgbench_tellers  |           139264
 2017-02-08 03:44:46.105488+01 | 1486521886.10549 | pgbench_history  |                0
 2017-02-08 03:44:46.105488+01 | 1486521886.10549 | pgbench_branches |            16384

 2017-02-08 03:44:47.386057+01 | 1486521887.38606 | pgbench_accounts |       4028858368
 2017-02-08 03:44:47.386057+01 | 1486521887.38606 | pgbench_tellers  |           139264
 2017-02-08 03:44:47.386057+01 | 1486521887.38606 | pgbench_history  |                0
 2017-02-08 03:44:47.386057+01 | 1486521887.38606 | pgbench_branches |            16384

 2017-02-08 03:44:48.776813+01 | 1486521888.77681 | pgbench_accounts |       4028858368
 2017-02-08 03:44:48.776813+01 | 1486521888.77681 | pgbench_tellers  |           139264
 2017-02-08 03:44:48.776813+01 | 1486521888.77681 | pgbench_history  |                0
 2017-02-08 03:44:48.776813+01 | 1486521888.77681 | pgbench_branches |            16384

 2017-02-08 03:44:50.148727+01 | 1486521890.14873 | pgbench_accounts |       4028858368
 2017-02-08 03:44:50.148727+01 | 1486521890.14873 | pgbench_tellers  |           139264
 2017-02-08 03:44:50.148727+01 | 1486521890.14873 | pgbench_history  |                0
 2017-02-08 03:44:50.148727+01 | 1486521890.14873 | pgbench_branches |            16384

 2017-02-08 03:44:51.527108+01 | 1486521891.52711 | pgbench_accounts |       4028858368
 2017-02-08 03:44:51.527108+01 | 1486521891.52711 | pgbench_tellers  |           139264
 2017-02-08 03:44:51.527108+01 | 1486521891.52711 | pgbench_history  |                0
 2017-02-08 03:44:51.527108+01 | 1486521891.52711 | pgbench_branches |            16384

 2017-02-08 03:44:52.911266+01 | 1486521892.91127 | pgbench_accounts |       4028858368
 2017-02-08 03:44:52.911266+01 | 1486521892.91127 | pgbench_tellers  |           139264
 2017-02-08 03:44:52.911266+01 | 1486521892.91127 | pgbench_history  |                0
 2017-02-08 03:44:52.911266+01 | 1486521892.91127 | pgbench_branches |            16384

 2017-02-08 03:44:54.268786+01 | 1486521894.26879 | pgbench_accounts |       4028858368
 2017-02-08 03:44:54.268786+01 | 1486521894.26879 | pgbench_tellers  |           139264
 2017-02-08 03:44:54.268786+01 | 1486521894.26879 | pgbench_history  |                0
 2017-02-08 03:44:54.268786+01 | 1486521894.26879 | pgbench_branches |            16384

 2017-02-08 03:44:55.631143+01 | 1486521895.63114 | pgbench_accounts |       4028858368
 2017-02-08 03:44:55.631143+01 | 1486521895.63114 | pgbench_tellers  |           139264
 2017-02-08 03:44:55.631143+01 | 1486521895.63114 | pgbench_history  |                0
 2017-02-08 03:44:55.631143+01 | 1486521895.63114 | pgbench_branches |            16384

 2017-02-08 03:44:56.942275+01 | 1486521896.94228 | pgbench_accounts |       4028858368
 2017-02-08 03:44:56.942275+01 | 1486521896.94228 | pgbench_tellers  |           139264
 2017-02-08 03:44:56.942275+01 | 1486521896.94228 | pgbench_history  |                0
 2017-02-08 03:44:56.942275+01 | 1486521896.94228 | pgbench_branches |            16384

 2017-02-08 03:44:58.264125+01 | 1486521898.26413 | pgbench_accounts |       4028858368
 2017-02-08 03:44:58.264125+01 | 1486521898.26413 | pgbench_tellers  |           139264
 2017-02-08 03:44:58.264125+01 | 1486521898.26413 | pgbench_history  |                0
 2017-02-08 03:44:58.264125+01 | 1486521898.26413 | pgbench_branches |            16384

 2017-02-08 03:44:59.587697+01 | 1486521899.5877 | pgbench_accounts |       4028858368
 2017-02-08 03:44:59.587697+01 | 1486521899.5877 | pgbench_tellers  |           139264
 2017-02-08 03:44:59.587697+01 | 1486521899.5877 | pgbench_history  |                0
 2017-02-08 03:44:59.587697+01 | 1486521899.5877 | pgbench_branches |            16384

 2017-02-08 03:45:00.977079+01 | 1486521900.97708 | pgbench_accounts |       4028858368
 2017-02-08 03:45:00.977079+01 | 1486521900.97708 | pgbench_tellers  |           139264
 2017-02-08 03:45:00.977079+01 | 1486521900.97708 | pgbench_history  |                0
 2017-02-08 03:45:00.977079+01 | 1486521900.97708 | pgbench_branches |            16384

 2017-02-08 03:45:02.29536+01 | 1486521902.29536 | pgbench_accounts |       4028858368
 2017-02-08 03:45:02.29536+01 | 1486521902.29536 | pgbench_tellers  |           139264
 2017-02-08 03:45:02.29536+01 | 1486521902.29536 | pgbench_history  |                0
 2017-02-08 03:45:02.29536+01 | 1486521902.29536 | pgbench_branches |            16384

 2017-02-08 03:45:03.627476+01 | 1486521903.62748 | pgbench_accounts |       4028858368
 2017-02-08 03:45:03.627476+01 | 1486521903.62748 | pgbench_tellers  |           139264
 2017-02-08 03:45:03.627476+01 | 1486521903.62748 | pgbench_history  |                0
 2017-02-08 03:45:03.627476+01 | 1486521903.62748 | pgbench_branches |            16384

 2017-02-08 03:45:05.004402+01 | 1486521905.0044 | pgbench_accounts |       4028858368
 2017-02-08 03:45:05.004402+01 | 1486521905.0044 | pgbench_tellers  |           139264
 2017-02-08 03:45:05.004402+01 | 1486521905.0044 | pgbench_history  |                0
 2017-02-08 03:45:05.004402+01 | 1486521905.0044 | pgbench_branches |            16384

 2017-02-08 03:45:06.337328+01 | 1486521906.33733 | pgbench_accounts |       4028858368
 2017-02-08 03:45:06.337328+01 | 1486521906.33733 | pgbench_tellers  |           139264
 2017-02-08 03:45:06.337328+01 | 1486521906.33733 | pgbench_history  |                0
 2017-02-08 03:45:06.337328+01 | 1486521906.33733 | pgbench_branches |            16384

 2017-02-08 03:45:07.579185+01 | 1486521907.57919 | pgbench_accounts |       4028858368
 2017-02-08 03:45:07.579185+01 | 1486521907.57919 | pgbench_tellers  |           139264
 2017-02-08 03:45:07.579185+01 | 1486521907.57919 | pgbench_history  |                0
 2017-02-08 03:45:07.579185+01 | 1486521907.57919 | pgbench_branches |            16384

 2017-02-08 03:45:08.913493+01 | 1486521908.91349 | pgbench_accounts |       4028858368
 2017-02-08 03:45:08.913493+01 | 1486521908.91349 | pgbench_tellers  |           139264
 2017-02-08 03:45:08.913493+01 | 1486521908.91349 | pgbench_history  |                0
 2017-02-08 03:45:08.913493+01 | 1486521908.91349 | pgbench_branches |            16384

 2017-02-08 03:45:10.185565+01 | 1486521910.18556 | pgbench_accounts |       4028858368
 2017-02-08 03:45:10.185565+01 | 1486521910.18556 | pgbench_tellers  |           139264
 2017-02-08 03:45:10.185565+01 | 1486521910.18556 | pgbench_history  |                0
 2017-02-08 03:45:10.185565+01 | 1486521910.18556 | pgbench_branches |            16384

 2017-02-08 03:45:11.573336+01 | 1486521911.57334 | pgbench_accounts |       4028858368
 2017-02-08 03:45:11.573336+01 | 1486521911.57334 | pgbench_tellers  |           139264
 2017-02-08 03:45:11.573336+01 | 1486521911.57334 | pgbench_history  |                0
 2017-02-08 03:45:11.573336+01 | 1486521911.57334 | pgbench_branches |            16384

 2017-02-08 03:45:12.922009+01 | 1486521912.92201 | pgbench_accounts |       4028858368
 2017-02-08 03:45:12.922009+01 | 1486521912.92201 | pgbench_tellers  |           139264
 2017-02-08 03:45:12.922009+01 | 1486521912.92201 | pgbench_history  |                0
 2017-02-08 03:45:12.922009+01 | 1486521912.92201 | pgbench_branches |            16384

 2017-02-08 03:45:14.270391+01 | 1486521914.27039 | pgbench_accounts |       4028858368
 2017-02-08 03:45:14.270391+01 | 1486521914.27039 | pgbench_tellers  |           139264
 2017-02-08 03:45:14.270391+01 | 1486521914.27039 | pgbench_history  |                0
 2017-02-08 03:45:14.270391+01 | 1486521914.27039 | pgbench_branches |            16384

 2017-02-08 03:45:15.627955+01 | 1486521915.62795 | pgbench_accounts |       4028858368
 2017-02-08 03:45:15.627955+01 | 1486521915.62795 | pgbench_tellers  |           139264
 2017-02-08 03:45:15.627955+01 | 1486521915.62795 | pgbench_history  |                0
 2017-02-08 03:45:15.627955+01 | 1486521915.62795 | pgbench_branches |            16384

 2017-02-08 03:45:16.989084+01 | 1486521916.98908 | pgbench_accounts |       4028858368
 2017-02-08 03:45:16.989084+01 | 1486521916.98908 | pgbench_tellers  |           139264
 2017-02-08 03:45:16.989084+01 | 1486521916.98908 | pgbench_history  |                0
 2017-02-08 03:45:16.989084+01 | 1486521916.98908 | pgbench_branches |            16384

 2017-02-08 03:45:18.325215+01 | 1486521918.32522 | pgbench_accounts |       4028858368
 2017-02-08 03:45:18.325215+01 | 1486521918.32522 | pgbench_tellers  |           139264
 2017-02-08 03:45:18.325215+01 | 1486521918.32522 | pgbench_history  |                0
 2017-02-08 03:45:18.325215+01 | 1486521918.32522 | pgbench_branches |            16384

 2017-02-08 03:45:19.671137+01 | 1486521919.67114 | pgbench_accounts |       4028858368
 2017-02-08 03:45:19.671137+01 | 1486521919.67114 | pgbench_tellers  |           139264
 2017-02-08 03:45:19.671137+01 | 1486521919.67114 | pgbench_history  |                0
 2017-02-08 03:45:19.671137+01 | 1486521919.67114 | pgbench_branches |            16384

 2017-02-08 03:45:21.048668+01 | 1486521921.04867 | pgbench_accounts |       4028858368
 2017-02-08 03:45:21.048668+01 | 1486521921.04867 | pgbench_tellers  |           139264
 2017-02-08 03:45:21.048668+01 | 1486521921.04867 | pgbench_history  |                0
 2017-02-08 03:45:21.048668+01 | 1486521921.04867 | pgbench_branches |            16384

 2017-02-08 03:45:22.424328+01 | 1486521922.42433 | pgbench_accounts |       4028858368
 2017-02-08 03:45:22.424328+01 | 1486521922.42433 | pgbench_tellers  |           139264
 2017-02-08 03:45:22.424328+01 | 1486521922.42433 | pgbench_history  |                0
 2017-02-08 03:45:22.424328+01 | 1486521922.42433 | pgbench_branches |            16384

 2017-02-08 03:45:23.786463+01 | 1486521923.78646 | pgbench_accounts |       4028858368
 2017-02-08 03:45:23.786463+01 | 1486521923.78646 | pgbench_tellers  |           139264
 2017-02-08 03:45:23.786463+01 | 1486521923.78646 | pgbench_history  |                0
 2017-02-08 03:45:23.786463+01 | 1486521923.78646 | pgbench_branches |            16384

 2017-02-08 03:45:25.085591+01 | 1486521925.08559 | pgbench_accounts |       4028858368
 2017-02-08 03:45:25.085591+01 | 1486521925.08559 | pgbench_tellers  |           139264
 2017-02-08 03:45:25.085591+01 | 1486521925.08559 | pgbench_history  |                0
 2017-02-08 03:45:25.085591+01 | 1486521925.08559 | pgbench_branches |            16384

 2017-02-08 03:45:26.488494+01 | 1486521926.48849 | pgbench_accounts |       4028858368
 2017-02-08 03:45:26.488494+01 | 1486521926.48849 | pgbench_tellers  |           139264
 2017-02-08 03:45:26.488494+01 | 1486521926.48849 | pgbench_history  |                0
 2017-02-08 03:45:26.488494+01 | 1486521926.48849 | pgbench_branches |            16384

 2017-02-08 03:45:27.83112+01 | 1486521927.83112 | pgbench_accounts |       4028858368
 2017-02-08 03:45:27.83112+01 | 1486521927.83112 | pgbench_tellers  |           139264
 2017-02-08 03:45:27.83112+01 | 1486521927.83112 | pgbench_history  |                0
 2017-02-08 03:45:27.83112+01 | 1486521927.83112 | pgbench_branches |            16384

 2017-02-08 03:45:29.18004+01 | 1486521929.18004 | pgbench_accounts |       4028858368
 2017-02-08 03:45:29.18004+01 | 1486521929.18004 | pgbench_tellers  |           139264
 2017-02-08 03:45:29.18004+01 | 1486521929.18004 | pgbench_history  |                0
 2017-02-08 03:45:29.18004+01 | 1486521929.18004 | pgbench_branches |            16384

 2017-02-08 03:45:30.563088+01 | 1486521930.56309 | pgbench_accounts |       4028858368
 2017-02-08 03:45:30.563088+01 | 1486521930.56309 | pgbench_tellers  |           139264
 2017-02-08 03:45:30.563088+01 | 1486521930.56309 | pgbench_history  |                0
 2017-02-08 03:45:30.563088+01 | 1486521930.56309 | pgbench_branches |            16384

 2017-02-08 03:45:31.945521+01 | 1486521931.94552 | pgbench_accounts |       4028858368
 2017-02-08 03:45:31.945521+01 | 1486521931.94552 | pgbench_tellers  |           139264
 2017-02-08 03:45:31.945521+01 | 1486521931.94552 | pgbench_history  |                0
 2017-02-08 03:45:31.945521+01 | 1486521931.94552 | pgbench_branches |            16384

