 2017-02-09 07:22:37.867618+01 | 1486621357.86762 |                 0 |               5 |                  2489 |                  205 |             259055 |        582808 |             5798 |         9980099 |                     0 |       9991974 | 2017-02-09 07:01:44.169082+01

 2017-02-09 07:22:39.003861+01 | 1486621359.00386 |                 0 |               5 |                  2489 |                  205 |             259055 |        582808 |             5798 |         9980099 |                     0 |      10002362 | 2017-02-09 07:01:44.169082+01

 2017-02-09 07:22:40.141787+01 | 1486621360.14179 |                 0 |               5 |                  2489 |                  205 |             259055 |        582808 |             5798 |         9980099 |                     0 |      10013807 | 2017-02-09 07:01:44.169082+01

 2017-02-09 07:22:41.269976+01 | 1486621361.26998 |                 0 |               5 |                  2489 |                  205 |             259055 |        582817 |             5798 |         9980099 |                     0 |      10023449 | 2017-02-09 07:01:44.169082+01

 2017-02-09 07:22:42.401675+01 | 1486621362.40167 |                 0 |               5 |                  2489 |                  205 |             259055 |        582855 |             5798 |         9980099 |                     0 |      10034822 | 2017-02-09 07:01:44.169082+01

 2017-02-09 07:22:43.552252+01 | 1486621363.55225 |                 0 |               5 |                  2489 |                  205 |             259055 |        582924 |             5798 |         9980099 |                     0 |      10044051 | 2017-02-09 07:01:44.169082+01

 2017-02-09 07:22:44.664365+01 | 1486621364.66437 |                 0 |               5 |                  2489 |                  205 |             259055 |        583191 |             5798 |         9980099 |                     0 |      10055690 | 2017-02-09 07:01:44.169082+01

 2017-02-09 07:22:45.842374+01 | 1486621365.84237 |                 0 |               5 |                  2489 |                  205 |             259055 |        583755 |             5801 |         9980099 |                     0 |      10067338 | 2017-02-09 07:01:44.169082+01

 2017-02-09 07:22:46.987126+01 | 1486621366.98713 |                 0 |               5 |                  2489 |                  205 |             259055 |        584355 |             5807 |         9980099 |                     0 |      10078442 | 2017-02-09 07:01:44.169082+01

 2017-02-09 07:22:48.128806+01 | 1486621368.12881 |                 0 |               5 |                  2489 |                  205 |             259055 |        584855 |             5812 |         9980099 |                     0 |      10087586 | 2017-02-09 07:01:44.169082+01

 2017-02-09 07:22:49.292787+01 | 1486621369.29279 |                 0 |               5 |                  2489 |                  205 |             259055 |        585455 |             5818 |         9980099 |                     0 |      10098440 | 2017-02-09 07:01:44.169082+01

 2017-02-09 07:22:50.473386+01 | 1486621370.47339 |                 0 |               5 |                  2489 |                  205 |             259055 |        586055 |             5824 |         9980099 |                     0 |      10109191 | 2017-02-09 07:01:44.169082+01

 2017-02-09 07:22:51.630647+01 | 1486621371.63065 |                 0 |               5 |                  2489 |                  205 |             259055 |        586655 |             5830 |         9980099 |                     0 |      10120110 | 2017-02-09 07:01:44.169082+01

 2017-02-09 07:22:52.760132+01 | 1486621372.76013 |                 0 |               5 |                  2489 |                  205 |             259055 |        587155 |             5835 |         9980099 |                     0 |      10129094 | 2017-02-09 07:01:44.169082+01

 2017-02-09 07:22:53.860812+01 | 1486621373.86081 |                 0 |               5 |                  2489 |                  205 |             259055 |        587755 |             5841 |        10040788 |                     0 |      10139977 | 2017-02-09 07:01:44.169082+01

 2017-02-09 07:22:54.99977+01 | 1486621374.99977 |                 0 |               5 |                  2489 |                  205 |             259055 |        588255 |             5846 |        10040788 |                     0 |      10149110 | 2017-02-09 07:01:44.169082+01

 2017-02-09 07:22:56.165642+01 | 1486621376.16564 |                 0 |               5 |                  2489 |                  205 |             259055 |        588855 |             5852 |        10040788 |                     0 |      10160229 | 2017-02-09 07:01:44.169082+01

 2017-02-09 07:22:57.293352+01 | 1486621377.29335 |                 0 |               5 |                  2489 |                  205 |             259055 |        589455 |             5858 |        10040788 |                     0 |      10171268 | 2017-02-09 07:01:44.169082+01

 2017-02-09 07:22:58.400945+01 | 1486621378.40094 |                 0 |               5 |                  2489 |                  205 |             259055 |        589955 |             5863 |        10040788 |                     0 |      10180246 | 2017-02-09 07:01:44.169082+01

 2017-02-09 07:22:59.541635+01 | 1486621379.54164 |                 0 |               5 |                  2489 |                  205 |             259055 |        590555 |             5869 |        10040788 |                     0 |      10191266 | 2017-02-09 07:01:44.169082+01

 2017-02-09 07:23:00.691598+01 | 1486621380.6916 |                 0 |               5 |                  2489 |                  205 |             259055 |        591155 |             5875 |        10040788 |                     0 |      10202391 | 2017-02-09 07:01:44.169082+01

 2017-02-09 07:23:01.788045+01 | 1486621381.78804 |                 0 |               5 |                  2489 |                  205 |             259055 |        591655 |             5880 |        10102325 |                     0 |      10211509 | 2017-02-09 07:01:44.169082+01

 2017-02-09 07:23:02.889834+01 | 1486621382.88983 |                 0 |               5 |                  2489 |                  205 |             259055 |        592255 |             5886 |        10102325 |                     0 |      10222886 | 2017-02-09 07:01:44.169082+01

 2017-02-09 07:23:04.079206+01 | 1486621384.07921 |                 0 |               5 |                  2489 |                  205 |             259055 |        592755 |             5891 |        10102325 |                     0 |      10232319 | 2017-02-09 07:01:44.169082+01

 2017-02-09 07:23:05.259518+01 | 1486621385.25952 |                 0 |               5 |                  2489 |                  205 |             259055 |        593355 |             5897 |        10102325 |                     0 |      10243030 | 2017-02-09 07:01:44.169082+01

 2017-02-09 07:23:06.439144+01 | 1486621386.43914 |                 0 |               5 |                  2489 |                  205 |             259055 |        593955 |             5903 |        10102325 |                     0 |      10254212 | 2017-02-09 07:01:44.169082+01

 2017-02-09 07:23:07.579802+01 | 1486621387.5798 |                 0 |               5 |                  2489 |                  205 |             259055 |        594555 |             5909 |        10102325 |                     0 |      10265394 | 2017-02-09 07:01:44.169082+01

 2017-02-09 07:23:08.728407+01 | 1486621388.72841 |                 0 |               5 |                  2489 |                  205 |             259055 |        595155 |             5915 |        10102325 |                     0 |      10276569 | 2017-02-09 07:01:44.169082+01

 2017-02-09 07:23:09.891371+01 | 1486621389.89137 |                 0 |               5 |                  2489 |                  205 |             259055 |        595655 |             5920 |        10164035 |                     0 |      10285826 | 2017-02-09 07:01:44.169082+01

 2017-02-09 07:23:11.089426+01 | 1486621391.08943 |                 0 |               5 |                  2489 |                  205 |             259055 |        596255 |             5926 |        10164035 |                     0 |      10297223 | 2017-02-09 07:01:44.169082+01

 2017-02-09 07:23:12.21367+01 | 1486621392.21367 |                 0 |               5 |                  2489 |                  205 |             259055 |        596855 |             5932 |        10164035 |                     0 |      10308540 | 2017-02-09 07:01:44.169082+01

 2017-02-09 07:23:13.382794+01 | 1486621393.38279 |                 0 |               5 |                  2489 |                  205 |             259055 |        597455 |             5938 |        10164035 |                     0 |      10319945 | 2017-02-09 07:01:44.169082+01

 2017-02-09 07:23:14.549831+01 | 1486621394.54983 |                 0 |               5 |                  2489 |                  205 |             259055 |        597955 |             5943 |        10164035 |                     0 |      10329464 | 2017-02-09 07:01:44.169082+01

 2017-02-09 07:23:15.650202+01 | 1486621395.6502 |                 0 |               5 |                  2489 |                  205 |             259055 |        598355 |             5947 |        10164035 |                     0 |      10337153 | 2017-02-09 07:01:44.169082+01

 2017-02-09 07:23:16.75117+01 | 1486621396.75117 |                 0 |               5 |                  2489 |                  205 |             259055 |        599155 |             5955 |        10164035 |                     0 |      10351781 | 2017-02-09 07:01:44.169082+01

 2017-02-09 07:23:17.860766+01 | 1486621397.86077 |                 0 |               5 |                  2489 |                  205 |             259055 |        599655 |             5960 |        10225763 |                     0 |      10361267 | 2017-02-09 07:01:44.169082+01

 2017-02-09 07:23:19.033905+01 | 1486621399.03391 |                 0 |               5 |                  2489 |                  205 |             259055 |        600255 |             5966 |        10225763 |                     0 |      10372713 | 2017-02-09 07:01:44.169082+01

 2017-02-09 07:23:20.196179+01 | 1486621400.19618 |                 0 |               5 |                  2489 |                  205 |             259055 |        600755 |             5971 |        10225763 |                     0 |      10382475 | 2017-02-09 07:01:44.169082+01

 2017-02-09 07:23:21.395724+01 | 1486621401.39572 |                 0 |               5 |                  2489 |                  205 |             259055 |        601355 |             5977 |        10225763 |                     0 |      10393745 | 2017-02-09 07:01:44.169082+01

 2017-02-09 07:23:22.53582+01 | 1486621402.53582 |                 0 |               5 |                  2489 |                  205 |             259055 |        601955 |             5983 |        10225763 |                     0 |      10405327 | 2017-02-09 07:01:44.169082+01

 2017-02-09 07:23:23.655783+01 | 1486621403.65578 |                 0 |               5 |                  2489 |                  205 |             259055 |        602555 |             5989 |        10225763 |                     0 |      10416719 | 2017-02-09 07:01:44.169082+01

 2017-02-09 07:23:24.753164+01 | 1486621404.75316 |                 0 |               5 |                  2489 |                  205 |             259055 |        603055 |             5994 |        10225763 |                     0 |      10426189 | 2017-02-09 07:01:44.169082+01

 2017-02-09 07:23:25.874656+01 | 1486621405.87466 |                 0 |               5 |                  2489 |                  205 |             259055 |        603655 |             6000 |        10287499 |                     0 |      10437414 | 2017-02-09 07:01:44.169082+01

 2017-02-09 07:23:27.029931+01 | 1486621407.02993 |                 0 |               5 |                  2489 |                  205 |             259055 |        604155 |             6005 |        10287499 |                     0 |      10446984 | 2017-02-09 07:01:44.169082+01

 2017-02-09 07:23:28.174355+01 | 1486621408.17436 |                 0 |               5 |                  2489 |                  205 |             259055 |        604755 |             6011 |        10287499 |                     0 |      10458292 | 2017-02-09 07:01:44.169082+01

 2017-02-09 07:23:29.3468+01 | 1486621409.3468 |                 0 |               5 |                  2489 |                  205 |             259055 |        605355 |             6017 |        10287499 |                     0 |      10469638 | 2017-02-09 07:01:44.169082+01

 2017-02-09 07:23:30.502412+01 | 1486621410.50241 |                 0 |               5 |                  2489 |                  205 |             259055 |        605955 |             6023 |        10287499 |                     0 |      10481098 | 2017-02-09 07:01:44.169082+01

 2017-02-09 07:23:31.678226+01 | 1486621411.67823 |                 0 |               5 |                  2489 |                  205 |             259055 |        606555 |             6029 |        10287499 |                     0 |      10492830 | 2017-02-09 07:01:44.169082+01

 2017-02-09 07:23:32.834242+01 | 1486621412.83424 |                 0 |               5 |                  2489 |                  205 |             259055 |        607055 |             6034 |        10349238 |                     0 |      10502400 | 2017-02-09 07:01:44.169082+01

 2017-02-09 07:23:33.962204+01 | 1486621413.9622 |                 0 |               5 |                  2489 |                  205 |             259055 |        607655 |             6040 |        10349238 |                     0 |      10513872 | 2017-02-09 07:01:44.169082+01

 2017-02-09 07:23:35.076386+01 | 1486621415.07639 |                 0 |               5 |                  2489 |                  205 |             259055 |        608255 |             6046 |        10349238 |                     0 |      10525160 | 2017-02-09 07:01:44.169082+01

 2017-02-09 07:23:36.196995+01 | 1486621416.197 |                 0 |               5 |                  2489 |                  205 |             259055 |        608755 |             6051 |        10349238 |                     0 |      10534794 | 2017-02-09 07:01:44.169082+01

 2017-02-09 07:23:37.383943+01 | 1486621417.38394 |                 0 |               5 |                  2489 |                  205 |             259055 |        609355 |             6057 |        10349238 |                     0 |      10546181 | 2017-02-09 07:01:44.169082+01

 2017-02-09 07:23:38.54577+01 | 1486621418.54577 |                 0 |               5 |                  2489 |                  205 |             259055 |        609955 |             6063 |        10349238 |                     0 |      10557881 | 2017-02-09 07:01:44.169082+01

 2017-02-09 07:23:39.695468+01 | 1486621419.69547 |                 0 |               5 |                  2489 |                  205 |             259055 |        610555 |             6069 |        10349238 |                     0 |      10569476 | 2017-02-09 07:01:44.169082+01

 2017-02-09 07:23:40.875397+01 | 1486621420.8754 |                 0 |               5 |                  2489 |                  205 |             259055 |        611055 |             6074 |        10410974 |                     0 |      10579056 | 2017-02-09 07:01:44.169082+01

 2017-02-09 07:23:42.052496+01 | 1486621422.0525 |                 0 |               5 |                  2489 |                  205 |             259055 |        611655 |             6080 |        10410974 |                     0 |      10590661 | 2017-02-09 07:01:44.169082+01

 2017-02-09 07:23:43.131606+01 | 1486621423.13161 |                 0 |               5 |                  2489 |                  205 |             259055 |        612255 |             6086 |        10410974 |                     0 |      10602417 | 2017-02-09 07:01:44.169082+01

 2017-02-09 07:23:44.247961+01 | 1486621424.24796 |                 0 |               5 |                  2489 |                  205 |             259055 |        612755 |             6091 |        10410974 |                     0 |      10612142 | 2017-02-09 07:01:44.169082+01

 2017-02-09 07:23:45.420543+01 | 1486621425.42054 |                 0 |               5 |                  2489 |                  205 |             259055 |        613355 |             6097 |        10410974 |                     0 |      10623382 | 2017-02-09 07:01:44.169082+01

 2017-02-09 07:23:46.597557+01 | 1486621426.59756 |                 0 |               5 |                  2489 |                  205 |             259055 |        613955 |             6103 |        10410974 |                     0 |      10634935 | 2017-02-09 07:01:44.169082+01

 2017-02-09 07:23:47.787786+01 | 1486621427.78779 |                 0 |               5 |                  2489 |                  205 |             259055 |        614555 |             6109 |        10410974 |                     0 |      10646779 | 2017-02-09 07:01:44.169082+01

 2017-02-09 07:23:48.966848+01 | 1486621428.96685 |                 0 |               5 |                  2489 |                  205 |             259055 |        615155 |             6115 |        10472711 |                     0 |      10658352 | 2017-02-09 07:01:44.169082+01

 2017-02-09 07:23:50.144941+01 | 1486621430.14494 |                 0 |               5 |                  2489 |                  205 |             259055 |        615655 |             6120 |        10472711 |                     0 |      10668002 | 2017-02-09 07:01:44.169082+01

 2017-02-09 07:23:51.254453+01 | 1486621431.25445 |                 0 |               5 |                  2489 |                  205 |             259055 |        616255 |             6126 |        10472711 |                     0 |      10679726 | 2017-02-09 07:01:44.169082+01

 2017-02-09 07:23:52.387393+01 | 1486621432.38739 |                 0 |               5 |                  2489 |                  205 |             259055 |        616855 |             6132 |        10472711 |                     0 |      10691081 | 2017-02-09 07:01:44.169082+01

 2017-02-09 07:23:53.556876+01 | 1486621433.55688 |                 0 |               5 |                  2489 |                  205 |             259055 |        617355 |             6137 |        10472711 |                     0 |      10700733 | 2017-02-09 07:01:44.169082+01

 2017-02-09 07:23:54.706435+01 | 1486621434.70643 |                 0 |               5 |                  2489 |                  205 |             259055 |        617955 |             6143 |        10472711 |                     0 |      10712228 | 2017-02-09 07:01:44.169082+01

 2017-02-09 07:23:55.892717+01 | 1486621435.89272 |                 0 |               5 |                  2489 |                  205 |             259055 |        618555 |             6149 |        10534547 |                     0 |      10723875 | 2017-02-09 07:01:44.169082+01

 2017-02-09 07:23:57.032366+01 | 1486621437.03237 |                 0 |               5 |                  2489 |                  205 |             259055 |        619155 |             6155 |        10534547 |                     0 |      10735431 | 2017-02-09 07:01:44.169082+01

 2017-02-09 07:23:58.240819+01 | 1486621438.24082 |                 0 |               5 |                  2489 |                  205 |             259055 |        619755 |             6161 |        10534547 |                     0 |      10747002 | 2017-02-09 07:01:44.169082+01

 2017-02-09 07:23:59.37873+01 | 1486621439.37873 |                 0 |               5 |                  2489 |                  205 |             259055 |        620355 |             6167 |        10534547 |                     0 |      10758708 | 2017-02-09 07:01:44.169082+01

 2017-02-09 07:24:00.542634+01 | 1486621440.54263 |                 0 |               5 |                  2489 |                  205 |             259055 |        620855 |             6172 |        10534547 |                     0 |      10768386 | 2017-02-09 07:01:44.169082+01

 2017-02-09 07:24:01.723565+01 | 1486621441.72357 |                 0 |               5 |                  2489 |                  205 |             259055 |        621455 |             6178 |        10534547 |                     0 |      10779536 | 2017-02-09 07:01:44.169082+01

 2017-02-09 07:24:02.913962+01 | 1486621442.91396 |                 0 |               5 |                  2489 |                  205 |             259055 |        622055 |             6184 |        10534547 |                     0 |      10791167 | 2017-02-09 07:01:44.169082+01

 2017-02-09 07:24:04.106251+01 | 1486621444.10625 |                 0 |               5 |                  2489 |                  205 |             259055 |        622655 |             6190 |        10596283 |                     0 |      10802989 | 2017-02-09 07:01:44.169082+01

 2017-02-09 07:24:05.281312+01 | 1486621445.28131 |                 0 |               5 |                  2489 |                  205 |             259055 |        623255 |             6196 |        10596283 |                     0 |      10814713 | 2017-02-09 07:01:44.169082+01

 2017-02-09 07:24:06.455676+01 | 1486621446.45568 |                 0 |               5 |                  2489 |                  205 |             259055 |        623855 |             6202 |        10596283 |                     0 |      10826460 | 2017-02-09 07:01:44.169082+01

 2017-02-09 07:24:07.611797+01 | 1486621447.6118 |                 0 |               5 |                  2489 |                  205 |             259055 |        624355 |             6207 |        10596283 |                     0 |      10836293 | 2017-02-09 07:01:44.169082+01

 2017-02-09 07:24:08.782367+01 | 1486621448.78237 |                 0 |               5 |                  2489 |                  205 |             259055 |        624955 |             6213 |        10596283 |                     0 |      10847759 | 2017-02-09 07:01:44.169082+01

 2017-02-09 07:24:09.998258+01 | 1486621449.99826 |                 0 |               5 |                  2489 |                  205 |             259055 |        625555 |             6219 |        10596283 |                     0 |      10859449 | 2017-02-09 07:01:44.169082+01

 2017-02-09 07:24:11.205722+01 | 1486621451.20572 |                 0 |               5 |                  2489 |                  205 |             259055 |        626155 |             6225 |        10658149 |                     0 |      10871126 | 2017-02-09 07:01:44.169082+01

 2017-02-09 07:24:12.367185+01 | 1486621452.36719 |                 0 |               5 |                  2489 |                  205 |             259055 |        626755 |             6231 |        10658149 |                     0 |      10882835 | 2017-02-09 07:01:44.169082+01

 2017-02-09 07:24:13.492092+01 | 1486621453.49209 |                 0 |               5 |                  2489 |                  205 |             259055 |        627355 |             6237 |        10658149 |                     0 |      10894270 | 2017-02-09 07:01:44.169082+01

 2017-02-09 07:24:14.649739+01 | 1486621454.64974 |                 0 |               5 |                  2489 |                  205 |             259055 |        627855 |             6242 |        10658149 |                     0 |      10903911 | 2017-02-09 07:01:44.169082+01

 2017-02-09 07:24:15.756513+01 | 1486621455.75651 |                 0 |               5 |                  2489 |                  205 |             259055 |        628255 |             6246 |        10658149 |                     0 |      10911587 | 2017-02-09 07:01:44.169082+01

 2017-02-09 07:24:16.822141+01 | 1486621456.82214 |                 0 |               5 |                  2489 |                  205 |             259055 |        628955 |             6253 |        10658149 |                     0 |      10925449 | 2017-02-09 07:01:44.169082+01

 2017-02-09 07:24:17.988412+01 | 1486621457.98841 |                 0 |               5 |                  2489 |                  205 |             259055 |        629555 |             6259 |        10658149 |                     0 |      10937083 | 2017-02-09 07:01:44.169082+01

 2017-02-09 07:24:19.162521+01 | 1486621459.16252 |                 0 |               5 |                  2489 |                  205 |             259055 |        630155 |             6265 |        10719885 |                     0 |      10948734 | 2017-02-09 07:01:44.169082+01

 2017-02-09 07:24:20.343052+01 | 1486621460.34305 |                 0 |               5 |                  2489 |                  205 |             259055 |        630755 |             6271 |        10719885 |                     0 |      10960489 | 2017-02-09 07:01:44.169082+01

 2017-02-09 07:24:21.539884+01 | 1486621461.53988 |                 0 |               5 |                  2489 |                  205 |             259055 |        631255 |             6276 |        10719885 |                     0 |      10970244 | 2017-02-09 07:01:44.169082+01

 2017-02-09 07:24:22.723981+01 | 1486621462.72398 |                 0 |               5 |                  2489 |                  205 |             259055 |        631855 |             6282 |        10719885 |                     0 |      10982049 | 2017-02-09 07:01:44.169082+01

 2017-02-09 07:24:23.877438+01 | 1486621463.87744 |                 0 |               5 |                  2489 |                  205 |             259055 |        632455 |             6288 |        10719885 |                     0 |      10993853 | 2017-02-09 07:01:44.169082+01

 2017-02-09 07:24:25.075482+01 | 1486621465.07548 |                 0 |               5 |                  2489 |                  205 |             259055 |        633055 |             6294 |        10719885 |                     0 |      11005636 | 2017-02-09 07:01:44.169082+01

 2017-02-09 07:24:26.151177+01 | 1486621466.15118 |                 0 |               5 |                  2489 |                  205 |             259055 |        633655 |             6300 |        10781721 |                     0 |      11017379 | 2017-02-09 07:01:44.169082+01

 2017-02-09 07:24:27.274165+01 | 1486621467.27416 |                 0 |               5 |                  2489 |                  205 |             259055 |        634155 |             6305 |        10781721 |                     0 |      11027087 | 2017-02-09 07:01:44.169082+01

 2017-02-09 07:24:28.470431+01 | 1486621468.47043 |                 0 |               5 |                  2489 |                  205 |             259055 |        634755 |             6311 |        10781721 |                     0 |      11038207 | 2017-02-09 07:01:44.169082+01

 2017-02-09 07:24:29.683769+01 | 1486621469.68377 |                 0 |               5 |                  2489 |                  205 |             259055 |        635355 |             6317 |        10781721 |                     0 |      11050141 | 2017-02-09 07:01:44.169082+01

 2017-02-09 07:24:30.836958+01 | 1486621470.83696 |                 0 |               5 |                  2489 |                  205 |             259055 |        635955 |             6323 |        10781721 |                     0 |      11061921 | 2017-02-09 07:01:44.169082+01

 2017-02-09 07:24:32.014306+01 | 1486621472.01431 |                 0 |               5 |                  2489 |                  205 |             259055 |        636555 |             6329 |        10781721 |                     0 |      11073851 | 2017-02-09 07:01:44.169082+01

 2017-02-09 07:24:33.155717+01 | 1486621473.15572 |                 0 |               5 |                  2489 |                  205 |             259055 |        637055 |             6334 |        10781721 |                     0 |      11083675 | 2017-02-09 07:01:44.169082+01

 2017-02-09 07:24:34.228595+01 | 1486621474.2286 |                 0 |               5 |                  2489 |                  205 |             259055 |        637655 |             6340 |        10843459 |                     0 |      11095256 | 2017-02-09 07:01:44.169082+01

 2017-02-09 07:24:35.346242+01 | 1486621475.34624 |                 0 |               5 |                  2489 |                  205 |             259055 |        638155 |             6345 |        10843459 |                     0 |      11105033 | 2017-02-09 07:01:44.169082+01

 2017-02-09 07:24:36.520391+01 | 1486621476.52039 |                 0 |               5 |                  2489 |                  205 |             259055 |        638755 |             6351 |        10843459 |                     0 |      11116203 | 2017-02-09 07:01:44.169082+01

 2017-02-09 07:24:37.682318+01 | 1486621477.68232 |                 0 |               5 |                  2489 |                  205 |             259055 |        639355 |             6357 |        10843459 |                     0 |      11128120 | 2017-02-09 07:01:44.169082+01

 2017-02-09 07:24:38.882875+01 | 1486621478.88287 |                 0 |               5 |                  2489 |                  205 |             259055 |        639955 |             6363 |        10843459 |                     0 |      11139831 | 2017-02-09 07:01:44.169082+01

 2017-02-09 07:24:40.054499+01 | 1486621480.0545 |                 0 |               5 |                  2489 |                  205 |             259055 |        640555 |             6369 |        10843459 |                     0 |      11151548 | 2017-02-09 07:01:44.169082+01

 2017-02-09 07:24:41.221804+01 | 1486621481.2218 |                 0 |               5 |                  2489 |                  205 |             259055 |        641055 |             6374 |        10905296 |                     0 |      11161376 | 2017-02-09 07:01:44.169082+01

 2017-02-09 07:24:42.370434+01 | 1486621482.37043 |                 0 |               5 |                  2489 |                  205 |             259055 |        641655 |             6380 |        10905296 |                     0 |      11173173 | 2017-02-09 07:01:44.169082+01

 2017-02-09 07:24:43.504475+01 | 1486621483.50448 |                 0 |               5 |                  2489 |                  205 |             259055 |        642255 |             6386 |        10905296 |                     0 |      11184746 | 2017-02-09 07:01:44.169082+01

 2017-02-09 07:24:44.712002+01 | 1486621484.712 |                 0 |               5 |                  2489 |                  205 |             259055 |        642855 |             6392 |        10905296 |                     0 |      11196217 | 2017-02-09 07:01:44.169082+01

 2017-02-09 07:24:45.905954+01 | 1486621485.90595 |                 0 |               5 |                  2489 |                  205 |             259055 |        643455 |             6398 |        10905296 |                     0 |      11207981 | 2017-02-09 07:01:44.169082+01

 2017-02-09 07:24:47.096025+01 | 1486621487.09602 |                 0 |               5 |                  2489 |                  205 |             259055 |        644055 |             6404 |        10905296 |                     0 |      11219825 | 2017-02-09 07:01:44.169082+01

 2017-02-09 07:24:48.286385+01 | 1486621488.28639 |                 0 |               5 |                  2489 |                  205 |             259055 |        644655 |             6410 |        10967132 |                     0 |      11231597 | 2017-02-09 07:01:44.169082+01

 2017-02-09 07:24:49.434938+01 | 1486621489.43494 |                 0 |               5 |                  2489 |                  205 |             259055 |        645155 |             6415 |        10967132 |                     0 |      11241333 | 2017-02-09 07:01:44.169082+01

 2017-02-09 07:24:50.544599+01 | 1486621490.5446 |                 0 |               5 |                  2489 |                  205 |             259055 |        645755 |             6421 |        10967132 |                     0 |      11253076 | 2017-02-09 07:01:44.169082+01

 2017-02-09 07:24:51.732806+01 | 1486621491.73281 |                 0 |               5 |                  2489 |                  205 |             259055 |        646355 |             6427 |        10967132 |                     0 |      11264515 | 2017-02-09 07:01:44.169082+01

 2017-02-09 07:24:52.89194+01 | 1486621492.89194 |                 0 |               5 |                  2489 |                  205 |             259055 |        646955 |             6433 |        10967132 |                     0 |      11276324 | 2017-02-09 07:01:44.169082+01

 2017-02-09 07:24:54.066909+01 | 1486621494.06691 |                 0 |               5 |                  2489 |                  205 |             259055 |        647455 |             6438 |        10967132 |                     0 |      11286284 | 2017-02-09 07:01:44.169082+01

 2017-02-09 07:24:55.255162+01 | 1486621495.25516 |                 0 |               5 |                  2489 |                  205 |             259055 |        648055 |             6444 |        10967132 |                     0 |      11297789 | 2017-02-09 07:01:44.169082+01

 2017-02-09 07:24:56.437792+01 | 1486621496.43779 |                 0 |               5 |                  2489 |                  205 |             259055 |        648655 |             6450 |        11028868 |                     0 |      11309590 | 2017-02-09 07:01:44.169082+01

 2017-02-09 07:24:57.604907+01 | 1486621497.60491 |                 0 |               5 |                  2489 |                  205 |             259055 |        649255 |             6456 |        11028868 |                     0 |      11321467 | 2017-02-09 07:01:44.169082+01

 2017-02-09 07:24:58.83662+01 | 1486621498.83662 |                 0 |               5 |                  2489 |                  205 |             259055 |        649855 |             6462 |        11028868 |                     0 |      11332921 | 2017-02-09 07:01:44.169082+01

 2017-02-09 07:24:59.966581+01 | 1486621499.96658 |                 0 |               5 |                  2489 |                  205 |             259055 |        650455 |             6468 |        11028868 |                     0 |      11344266 | 2017-02-09 07:01:44.169082+01

 2017-02-09 07:25:01.119045+01 | 1486621501.11905 |                 0 |               5 |                  2489 |                  205 |             259055 |        650955 |             6473 |        11028868 |                     0 |      11354010 | 2017-02-09 07:01:44.169082+01

 2017-02-09 07:25:02.275768+01 | 1486621502.27577 |                 0 |               5 |                  2489 |                  205 |             259055 |        651555 |             6479 |        11028868 |                     0 |      11365386 | 2017-02-09 07:01:44.169082+01

 2017-02-09 07:25:03.495624+01 | 1486621503.49562 |                 0 |               5 |                  2489 |                  205 |             259055 |        652155 |             6485 |        11028868 |                     0 |      11376529 | 2017-02-09 07:01:44.169082+01

 2017-02-09 07:25:04.629259+01 | 1486621504.62926 |                 0 |               5 |                  2489 |                  205 |             259055 |        652755 |             6491 |        11090504 |                     0 |      11387856 | 2017-02-09 07:01:44.169082+01

 2017-02-09 07:25:05.748231+01 | 1486621505.74823 |                 0 |               5 |                  2489 |                  205 |             259055 |        653355 |             6497 |        11090504 |                     0 |      11399359 | 2017-02-09 07:01:44.169082+01

 2017-02-09 07:25:06.886757+01 | 1486621506.88676 |                 0 |               5 |                  2489 |                  205 |             259055 |        653855 |             6502 |        11090504 |                     0 |      11408954 | 2017-02-09 07:01:44.169082+01

 2017-02-09 07:25:08.054962+01 | 1486621508.05496 |                 0 |               5 |                  2489 |                  205 |             259055 |        654455 |             6508 |        11090504 |                     0 |      11420198 | 2017-02-09 07:01:44.169082+01

 2017-02-09 07:25:09.281886+01 | 1486621509.28189 |                 0 |               5 |                  2489 |                  205 |             259055 |        655055 |             6514 |        11090504 |                     0 |      11431579 | 2017-02-09 07:01:44.169082+01

 2017-02-09 07:25:10.446936+01 | 1486621510.44694 |                 0 |               5 |                  2489 |                  205 |             259055 |        655655 |             6520 |        11090504 |                     0 |      11443022 | 2017-02-09 07:01:44.169082+01

 2017-02-09 07:25:11.640012+01 | 1486621511.64001 |                 0 |               5 |                  2489 |                  205 |             259055 |        656255 |             6526 |        11090504 |                     0 |      11454298 | 2017-02-09 07:01:44.169082+01

 2017-02-09 07:25:12.817549+01 | 1486621512.81755 |                 0 |               5 |                  2489 |                  205 |             259055 |        656755 |             6531 |        11151940 |                     0 |      11463575 | 2017-02-09 07:01:44.169082+01

 2017-02-09 07:25:13.973716+01 | 1486621513.97372 |                 0 |               5 |                  2489 |                  205 |             259055 |        657355 |             6537 |        11151940 |                     0 |      11474671 | 2017-02-09 07:01:44.169082+01

 2017-02-09 07:25:15.126673+01 | 1486621515.12667 |                 0 |               5 |                  2489 |                  205 |             259055 |        657855 |             6542 |        11151940 |                     0 |      11483837 | 2017-02-09 07:01:44.169082+01

 2017-02-09 07:25:16.253268+01 | 1486621516.25327 |                 0 |               5 |                  2489 |                  205 |             259055 |        658555 |             6549 |        11151940 |                     0 |      11496910 | 2017-02-09 07:01:44.169082+01

 2017-02-09 07:25:17.383109+01 | 1486621517.38311 |                 0 |               5 |                  2489 |                  205 |             259055 |        659055 |             6554 |        11151940 |                     0 |      11506271 | 2017-02-09 07:01:44.169082+01

 2017-02-09 07:25:18.54127+01 | 1486621518.54127 |                 0 |               5 |                  2489 |                  205 |             259055 |        659655 |             6560 |        11151940 |                     0 |      11517225 | 2017-02-09 07:01:44.169082+01

 2017-02-09 07:25:19.696219+01 | 1486621519.69622 |                 0 |               5 |                  2489 |                  205 |             259055 |        660255 |             6566 |        11151940 |                     0 |      11528576 | 2017-02-09 07:01:44.169082+01

 2017-02-09 07:25:20.876669+01 | 1486621520.87667 |                 0 |               5 |                  2489 |                  205 |             259055 |        660755 |             6571 |        11213477 |                     0 |      11537910 | 2017-02-09 07:01:44.169082+01

 2017-02-09 07:25:22.095485+01 | 1486621522.09548 |                 0 |               5 |                  2489 |                  205 |             259055 |        661355 |             6577 |        11213477 |                     0 |      11548869 | 2017-02-09 07:01:44.169082+01

 2017-02-09 07:25:23.20918+01 | 1486621523.20918 |                 0 |               5 |                  2489 |                  205 |             259055 |        661955 |             6583 |        11213477 |                     0 |      11560377 | 2017-02-09 07:01:44.169082+01

 2017-02-09 07:25:24.381925+01 | 1486621524.38193 |                 0 |               5 |                  2489 |                  205 |             259055 |        662555 |             6589 |        11213477 |                     0 |      11572174 | 2017-02-09 07:01:44.169082+01

 2017-02-09 07:25:25.556055+01 | 1486621525.55606 |                 0 |               5 |                  2489 |                  205 |             259055 |        663155 |             6595 |        11213477 |                     0 |      11583900 | 2017-02-09 07:01:44.169082+01

 2017-02-09 07:25:26.672133+01 | 1486621526.67213 |                 0 |               5 |                  2489 |                  205 |             259055 |        663755 |             6601 |        11213477 |                     0 |      11595619 | 2017-02-09 07:01:44.169082+01

 2017-02-09 07:25:27.78524+01 | 1486621527.78524 |                 0 |               5 |                  2489 |                  205 |             259055 |        664255 |             6606 |        11275314 |                     0 |      11605319 | 2017-02-09 07:01:44.169082+01

 2017-02-09 07:25:28.939518+01 | 1486621528.93952 |                 0 |               5 |                  2489 |                  205 |             259055 |        664855 |             6612 |        11275314 |                     0 |      11616841 | 2017-02-09 07:01:44.169082+01

 2017-02-09 07:25:30.126292+01 | 1486621530.12629 |                 0 |               5 |                  2489 |                  205 |             259055 |        665455 |             6618 |        11275314 |                     0 |      11628560 | 2017-02-09 07:01:44.169082+01

 2017-02-09 07:25:31.334101+01 | 1486621531.3341 |                 0 |               5 |                  2489 |                  205 |             259055 |        665955 |             6623 |        11275314 |                     0 |      11638280 | 2017-02-09 07:01:44.169082+01

 2017-02-09 07:25:32.456814+01 | 1486621532.45681 |                 0 |               5 |                  2489 |                  205 |             259055 |        666455 |             6628 |        11275314 |                     0 |      11648114 | 2017-02-09 07:01:44.169082+01

 2017-02-09 07:25:33.654602+01 | 1486621533.6546 |                 0 |               5 |                  2489 |                  205 |             259055 |        667155 |             6635 |        11275314 |                     0 |      11662717 | 2017-02-09 07:01:44.169082+01

 2017-02-09 07:25:34.850531+01 | 1486621534.85053 |                 0 |               5 |                  2489 |                  205 |             259055 |        667755 |             6641 |        11275314 |                     0 |      11675457 | 2017-02-09 07:01:44.169082+01

 2017-02-09 07:25:36.021863+01 | 1486621536.02186 |                 0 |               5 |                  2489 |                  205 |             259055 |        668355 |             6647 |        11337050 |                     0 |      11688186 | 2017-02-09 07:01:44.169082+01

 2017-02-09 07:25:37.178411+01 | 1486621537.17841 |                 0 |               5 |                  2489 |                  205 |             259055 |        668955 |             6653 |        11337050 |                     0 |      11700644 | 2017-02-09 07:01:44.169082+01

 2017-02-09 07:25:38.309455+01 | 1486621538.30945 |                 0 |               5 |                  2489 |                  205 |             259055 |        669455 |             6658 |        11337050 |                     0 |      11710884 | 2017-02-09 07:01:44.169082+01

 2017-02-09 07:25:39.436978+01 | 1486621539.43698 |                 0 |               5 |                  2489 |                  205 |             259055 |        670055 |             6664 |        11337050 |                     0 |      11723391 | 2017-02-09 07:01:44.169082+01

 2017-02-09 07:25:40.615249+01 | 1486621540.61525 |                 0 |               5 |                  2489 |                  205 |             259055 |        670655 |             6670 |        11337050 |                     0 |      11735866 | 2017-02-09 07:01:44.169082+01

 2017-02-09 07:25:41.775119+01 | 1486621541.77512 |                 0 |               5 |                  2489 |                  205 |             259055 |        671255 |             6676 |        11337050 |                     0 |      11748754 | 2017-02-09 07:01:44.169082+01

 2017-02-09 07:25:42.921267+01 | 1486621542.92127 |                 0 |               5 |                  2489 |                  205 |             259055 |        671755 |             6681 |        11337050 |                     0 |      11759258 | 2017-02-09 07:01:44.169082+01

 2017-02-09 07:25:44.104669+01 | 1486621544.10467 |                 0 |               5 |                  2489 |                  205 |             259055 |        672355 |             6687 |        11398286 |                     0 |      11771961 | 2017-02-09 07:01:44.169082+01

 2017-02-09 07:25:45.307358+01 | 1486621545.30736 |                 0 |               5 |                  2489 |                  205 |             259055 |        672955 |             6693 |        11398286 |                     0 |      11784554 | 2017-02-09 07:01:44.169082+01

 2017-02-09 07:25:46.454184+01 | 1486621546.45418 |                 0 |               5 |                  2489 |                  205 |             259055 |        673555 |             6699 |        11398286 |                     0 |      11797131 | 2017-02-09 07:01:44.169082+01

 2017-02-09 07:25:47.622117+01 | 1486621547.62212 |                 0 |               5 |                  2489 |                  205 |             259055 |        674055 |             6704 |        11398286 |                     0 |      11807436 | 2017-02-09 07:01:44.169082+01

 2017-02-09 07:25:48.786099+01 | 1486621548.7861 |                 0 |               5 |                  2489 |                  205 |             259055 |        674655 |             6710 |        11398286 |                     0 |      11819990 | 2017-02-09 07:01:44.169082+01

 2017-02-09 07:25:49.914+01 | 1486621549.914 |                 0 |               5 |                  2489 |                  205 |             259055 |        675255 |             6716 |        11398286 |                     0 |      11832338 | 2017-02-09 07:01:44.169082+01

 2017-02-09 07:25:51.099341+01 | 1486621551.09934 |                 0 |               5 |                  2489 |                  205 |             259055 |        675855 |             6722 |        11398286 |                     0 |      11844692 | 2017-02-09 07:01:44.169082+01

 2017-02-09 07:25:52.252457+01 | 1486621552.25246 |                 0 |               5 |                  2489 |                  205 |             259055 |        676455 |             6728 |        11398286 |                     0 |      11857567 | 2017-02-09 07:01:44.169082+01

 2017-02-09 07:25:53.434147+01 | 1486621553.43415 |                 0 |               5 |                  2489 |                  205 |             259055 |        676955 |             6733 |        11459423 |                     0 |      11868066 | 2017-02-09 07:01:44.169082+01

 2017-02-09 07:25:54.624739+01 | 1486621554.62474 |                 0 |               5 |                  2489 |                  205 |             259055 |        677555 |             6739 |        11459423 |                     0 |      11880545 | 2017-02-09 07:01:44.169082+01

 2017-02-09 07:25:55.82743+01 | 1486621555.82743 |                 0 |               5 |                  2489 |                  205 |             259055 |        678155 |             6745 |        11459423 |                     0 |      11892730 | 2017-02-09 07:01:44.169082+01

 2017-02-09 07:25:57.008843+01 | 1486621557.00884 |                 0 |               5 |                  2489 |                  205 |             259055 |        678755 |             6751 |        11459423 |                     0 |      11904988 | 2017-02-09 07:01:44.169082+01

 2017-02-09 07:25:58.167737+01 | 1486621558.16774 |                 0 |               5 |                  2489 |                  205 |             259055 |        679355 |             6757 |        11459423 |                     0 |      11917497 | 2017-02-09 07:01:44.169082+01

 2017-02-09 07:25:59.318638+01 | 1486621559.31864 |                 0 |               5 |                  2489 |                  205 |             259055 |        679955 |             6763 |        11459423 |                     0 |      11929846 | 2017-02-09 07:01:44.169082+01

 2017-02-09 07:26:00.484268+01 | 1486621560.48427 |                 0 |               5 |                  2489 |                  205 |             259055 |        680455 |             6768 |        11459423 |                     0 |      11940609 | 2017-02-09 07:01:44.169082+01

 2017-02-09 07:26:01.602348+01 | 1486621561.60235 |                 0 |               5 |                  2489 |                  205 |             259055 |        681055 |             6774 |        11520559 |                     0 |      11953157 | 2017-02-09 07:01:44.169082+01

 2017-02-09 07:26:02.769155+01 | 1486621562.76916 |                 0 |               5 |                  2489 |                  205 |             259055 |        681655 |             6780 |        11520559 |                     0 |      11965411 | 2017-02-09 07:01:44.169082+01

 2017-02-09 07:26:03.932053+01 | 1486621563.93205 |                 0 |               5 |                  2489 |                  205 |             259055 |        682255 |             6786 |        11520559 |                     0 |      11978028 | 2017-02-09 07:01:44.169082+01

 2017-02-09 07:26:05.077601+01 | 1486621565.0776 |                 0 |               5 |                  2489 |                  205 |             259055 |        682755 |             6791 |        11520559 |                     0 |      11988022 | 2017-02-09 07:01:44.169082+01

 2017-02-09 07:26:06.291647+01 | 1486621566.29165 |                 0 |               5 |                  2489 |                  205 |             259055 |        683355 |             6797 |        11520559 |                     0 |      12000569 | 2017-02-09 07:01:44.169082+01

 2017-02-09 07:26:07.472126+01 | 1486621567.47213 |                 0 |               5 |                  2489 |                  205 |             259055 |        683955 |             6803 |        11520559 |                     0 |      12013039 | 2017-02-09 07:01:44.169082+01

 2017-02-09 07:26:08.631983+01 | 1486621568.63198 |                 0 |               5 |                  2489 |                  205 |             259055 |        684555 |             6809 |        11520559 |                     0 |      12025375 | 2017-02-09 07:01:44.169082+01

 2017-02-09 07:26:09.809959+01 | 1486621569.80996 |                 0 |               5 |                  2489 |                  205 |             259055 |        685155 |             6815 |        11520559 |                     0 |      12037819 | 2017-02-09 07:01:44.169082+01

 2017-02-09 07:26:10.961663+01 | 1486621570.96166 |                 0 |               5 |                  2489 |                  205 |             259055 |        685755 |             6821 |        11581695 |                     0 |      12049901 | 2017-02-09 07:01:44.169082+01

 2017-02-09 07:26:12.132287+01 | 1486621572.13229 |                 0 |               5 |                  2489 |                  205 |             259055 |        686255 |             6826 |        11581695 |                     0 |      12060498 | 2017-02-09 07:01:44.169082+01

 2017-02-09 07:26:13.282091+01 | 1486621573.28209 |                 0 |               5 |                  2489 |                  205 |             259055 |        686855 |             6832 |        11581695 |                     0 |      12073045 | 2017-02-09 07:01:44.169082+01

 2017-02-09 07:26:14.401745+01 | 1486621574.40175 |                 0 |               5 |                  2489 |                  205 |             259055 |        687455 |             6838 |        11581695 |                     0 |      12085248 | 2017-02-09 07:01:44.169082+01

 2017-02-09 07:26:15.583584+01 | 1486621575.58358 |                 0 |               5 |                  2489 |                  205 |             259055 |        687955 |             6843 |        11581695 |                     0 |      12095537 | 2017-02-09 07:01:44.169082+01

 2017-02-09 07:26:16.760769+01 | 1486621576.76077 |                 0 |               5 |                  2489 |                  205 |             259055 |        688555 |             6849 |        11581695 |                     0 |      12107673 | 2017-02-09 07:01:44.169082+01

 2017-02-09 07:26:17.897845+01 | 1486621577.89785 |                 0 |               5 |                  2489 |                  205 |             259055 |        689155 |             6855 |        11581695 |                     0 |      12119824 | 2017-02-09 07:01:44.169082+01

 2017-02-09 07:26:19.088105+01 | 1486621579.0881 |                 0 |               5 |                  2489 |                  205 |             259055 |        689755 |             6861 |        11643131 |                     0 |      12132433 | 2017-02-09 07:01:44.169082+01

 2017-02-09 07:26:20.237605+01 | 1486621580.23761 |                 0 |               5 |                  2489 |                  205 |             259055 |        690355 |             6867 |        11643131 |                     0 |      12144464 | 2017-02-09 07:01:44.169082+01

 2017-02-09 07:26:21.400324+01 | 1486621581.40032 |                 0 |               5 |                  2489 |                  205 |             259055 |        690955 |             6873 |        11643131 |                     0 |      12156466 | 2017-02-09 07:01:44.169082+01

 2017-02-09 07:26:22.575256+01 | 1486621582.57526 |                 0 |               5 |                  2489 |                  205 |             259055 |        691455 |             6878 |        11643131 |                     0 |      12166531 | 2017-02-09 07:01:44.169082+01

 2017-02-09 07:26:23.741665+01 | 1486621583.74166 |                 0 |               5 |                  2489 |                  205 |             259055 |        692055 |             6884 |        11643131 |                     0 |      12178533 | 2017-02-09 07:01:44.169082+01

 2017-02-09 07:26:24.862521+01 | 1486621584.86252 |                 0 |               5 |                  2489 |                  205 |             259055 |        692655 |             6890 |        11643131 |                     0 |      12190400 | 2017-02-09 07:01:44.169082+01

 2017-02-09 07:26:26.024974+01 | 1486621586.02497 |                 0 |               5 |                  2489 |                  205 |             259055 |        693255 |             6896 |        11643131 |                     0 |      12202658 | 2017-02-09 07:01:44.169082+01

 2017-02-09 07:26:27.127205+01 | 1486621587.1272 |                 0 |               5 |                  2489 |                  205 |             259055 |        693755 |             6901 |        11704873 |                     0 |      12212848 | 2017-02-09 07:01:44.169082+01

 2017-02-09 07:26:28.310792+01 | 1486621588.31079 |                 0 |               5 |                  2489 |                  205 |             259055 |        694355 |             6907 |        11704873 |                     0 |      12224945 | 2017-02-09 07:01:44.169082+01

 2017-02-09 07:26:29.495256+01 | 1486621589.49526 |                 0 |               5 |                  2489 |                  205 |             259055 |        694955 |             6913 |        11704873 |                     0 |      12236969 | 2017-02-09 07:01:44.169082+01

 2017-02-09 07:26:30.627012+01 | 1486621590.62701 |                 0 |               5 |                  2489 |                  205 |             259055 |        695555 |             6919 |        11704873 |                     0 |      12248908 | 2017-02-09 07:01:44.169082+01

 2017-02-09 07:26:31.812712+01 | 1486621591.81271 |                 0 |               5 |                  2489 |                  205 |             259055 |        696055 |             6924 |        11704873 |                     0 |      12259043 | 2017-02-09 07:01:44.169082+01

 2017-02-09 07:26:32.998566+01 | 1486621592.99857 |                 0 |               5 |                  2489 |                  205 |             259055 |        696655 |             6930 |        11704873 |                     0 |      12271687 | 2017-02-09 07:01:44.169082+01

 2017-02-09 07:26:34.141429+01 | 1486621594.14143 |                 0 |               5 |                  2489 |                  205 |             259055 |        697255 |             6936 |        11766709 |                     0 |      12283679 | 2017-02-09 07:01:44.169082+01

 2017-02-09 07:26:35.299696+01 | 1486621595.2997 |                 0 |               5 |                  2489 |                  205 |             259055 |        697855 |             6942 |        11766709 |                     0 |      12295765 | 2017-02-09 07:01:44.169082+01

 2017-02-09 07:26:36.425856+01 | 1486621596.42586 |                 0 |               5 |                  2489 |                  205 |             259055 |        698355 |             6947 |        11766709 |                     0 |      12304967 | 2017-02-09 07:01:44.169082+01

 2017-02-09 07:26:37.556388+01 | 1486621597.55639 |                 0 |               5 |                  2489 |                  205 |             259055 |        698955 |             6953 |        11766709 |                     0 |      12316636 | 2017-02-09 07:01:44.169082+01

 2017-02-09 07:26:38.745036+01 | 1486621598.74504 |                 0 |               5 |                  2489 |                  205 |             259055 |        699555 |             6959 |        11766709 |                     0 |      12328069 | 2017-02-09 07:01:44.169082+01

 2017-02-09 07:26:39.913418+01 | 1486621599.91342 |                 0 |               5 |                  2489 |                  205 |             259055 |        700155 |             6965 |        11766709 |                     0 |      12339925 | 2017-02-09 07:01:44.169082+01

 2017-02-09 07:26:41.059114+01 | 1486621601.05911 |                 0 |               5 |                  2489 |                  205 |             259055 |        700655 |             6970 |        11766709 |                     0 |      12349480 | 2017-02-09 07:01:44.169082+01

 2017-02-09 07:26:42.21189+01 | 1486621602.21189 |                 0 |               5 |                  2489 |                  205 |             259055 |        701255 |             6976 |        11828346 |                     0 |      12361053 | 2017-02-09 07:01:44.169082+01

 2017-02-09 07:26:43.34222+01 | 1486621603.34222 |                 0 |               5 |                  2489 |                  205 |             259055 |        701855 |             6982 |        11828346 |                     0 |      12372963 | 2017-02-09 07:01:44.169082+01

 2017-02-09 07:26:44.481795+01 | 1486621604.4818 |                 0 |               5 |                  2489 |                  205 |             259055 |        702355 |             6987 |        11828346 |                     0 |      12382692 | 2017-02-09 07:01:44.169082+01

 2017-02-09 07:26:45.634923+01 | 1486621605.63492 |                 0 |               5 |                  2489 |                  205 |             259055 |        702955 |             6993 |        11828346 |                     0 |      12394400 | 2017-02-09 07:01:44.169082+01

 2017-02-09 07:26:46.789562+01 | 1486621606.78956 |                 0 |               5 |                  2489 |                  205 |             259055 |        703555 |             6999 |        11828346 |                     0 |      12405893 | 2017-02-09 07:01:44.169082+01

 2017-02-09 07:26:47.994383+01 | 1486621607.99438 |                 0 |               5 |                  2489 |                  205 |             259055 |        704155 |             7005 |        11828346 |                     0 |      12417702 | 2017-02-09 07:01:44.169082+01

 2017-02-09 07:26:49.180184+01 | 1486621609.18018 |                 0 |               5 |                  2489 |                  205 |             259055 |        704755 |             7011 |        11890183 |                     0 |      12429403 | 2017-02-09 07:01:44.169082+01

 2017-02-09 07:26:50.361421+01 | 1486621610.36142 |                 0 |               5 |                  2489 |                  205 |             259055 |        705255 |             7016 |        11890183 |                     0 |      12439208 | 2017-02-09 07:01:44.169082+01

 2017-02-09 07:26:51.496244+01 | 1486621611.49624 |                 0 |               5 |                  2489 |                  205 |             259055 |        705855 |             7022 |        11890183 |                     0 |      12450905 | 2017-02-09 07:01:44.169082+01

 2017-02-09 07:26:52.63939+01 | 1486621612.63939 |                 0 |               5 |                  2489 |                  205 |             259055 |        706455 |             7028 |        11890183 |                     0 |      12462586 | 2017-02-09 07:01:44.169082+01

 2017-02-09 07:26:53.860644+01 | 1486621613.86064 |                 0 |               5 |                  2489 |                  205 |             259055 |        707055 |             7034 |        11890183 |                     0 |      12473963 | 2017-02-09 07:01:44.169082+01

 2017-02-09 07:26:55.020131+01 | 1486621615.02013 |                 0 |               5 |                  2489 |                  205 |             259055 |        707655 |             7040 |        11890183 |                     0 |      12485763 | 2017-02-09 07:01:44.169082+01

 2017-02-09 07:26:56.198837+01 | 1486621616.19884 |                 0 |               5 |                  2489 |                  205 |             259055 |        708255 |             7046 |        11890183 |                     0 |      12497720 | 2017-02-09 07:01:44.169082+01

 2017-02-09 07:26:57.401492+01 | 1486621617.40149 |                 0 |               5 |                  2489 |                  205 |             259055 |        708755 |             7051 |        11951956 |                     0 |      12507439 | 2017-02-09 07:01:44.169082+01

 2017-02-09 07:26:58.511485+01 | 1486621618.51149 |                 0 |               5 |                  2489 |                  205 |             259055 |        709355 |             7057 |        11951956 |                     0 |      12519436 | 2017-02-09 07:01:44.169082+01

 2017-02-09 07:26:59.667988+01 | 1486621619.66799 |                 0 |               5 |                  2489 |                  205 |             259055 |        709955 |             7063 |        11951956 |                     0 |      12531117 | 2017-02-09 07:01:44.169082+01

 2017-02-09 07:27:00.823111+01 | 1486621620.82311 |                 0 |               5 |                  2489 |                  205 |             259055 |        710555 |             7069 |        11951956 |                     0 |      12542535 | 2017-02-09 07:01:44.169082+01

 2017-02-09 07:27:02.006334+01 | 1486621622.00633 |                 0 |               5 |                  2489 |                  205 |             259055 |        711055 |             7074 |        11951956 |                     0 |      12552273 | 2017-02-09 07:01:44.169082+01

 2017-02-09 07:27:03.209285+01 | 1486621623.20929 |                 0 |               5 |                  2489 |                  205 |             259055 |        711655 |             7080 |        11951956 |                     0 |      12563950 | 2017-02-09 07:01:44.169082+01

 2017-02-09 07:27:04.354121+01 | 1486621624.35412 |                 0 |               5 |                  2489 |                  205 |             259055 |        712255 |             7086 |        12013792 |                     0 |      12575925 | 2017-02-09 07:01:44.169082+01

 2017-02-09 07:27:05.527096+01 | 1486621625.5271 |                 0 |               5 |                  2489 |                  205 |             259055 |        712855 |             7092 |        12013792 |                     0 |      12587716 | 2017-02-09 07:01:44.169082+01

 2017-02-09 07:27:06.699811+01 | 1486621626.69981 |                 0 |               5 |                  2489 |                  205 |             259055 |        713455 |             7098 |        12013792 |                     0 |      12599636 | 2017-02-09 07:01:44.169082+01

 2017-02-09 07:27:07.81064+01 | 1486621627.81064 |                 0 |               5 |                  2489 |                  205 |             259055 |        714055 |             7104 |        12013792 |                     0 |      12611298 | 2017-02-09 07:01:44.169082+01

 2017-02-09 07:27:08.98712+01 | 1486621628.98712 |                 0 |               5 |                  2489 |                  205 |             259055 |        714555 |             7109 |        12013792 |                     0 |      12621025 | 2017-02-09 07:01:44.169082+01

 2017-02-09 07:27:10.168864+01 | 1486621630.16886 |                 0 |               5 |                  2489 |                  205 |             259055 |        715155 |             7115 |        12013792 |                     0 |      12632590 | 2017-02-09 07:01:44.169082+01

 2017-02-09 07:27:11.330009+01 | 1486621631.33001 |                 0 |               5 |                  2489 |                  205 |             259055 |        715755 |             7121 |        12013792 |                     0 |      12644455 | 2017-02-09 07:01:44.169082+01

 2017-02-09 07:27:12.457099+01 | 1486621632.4571 |                 0 |               5 |                  2489 |                  205 |             259055 |        716355 |             7127 |        12075628 |                     0 |      12656158 | 2017-02-09 07:01:44.169082+01

 2017-02-09 07:27:13.581622+01 | 1486621633.58162 |                 0 |               5 |                  2489 |                  205 |             259055 |        716855 |             7132 |        12075628 |                     0 |      12665937 | 2017-02-09 07:01:44.169082+01

 2017-02-09 07:27:14.719529+01 | 1486621634.71953 |                 0 |               5 |                  2489 |                  205 |             259055 |        717455 |             7138 |        12075628 |                     0 |      12677763 | 2017-02-09 07:01:44.169082+01

 2017-02-09 07:27:15.825119+01 | 1486621635.82512 |                 0 |               5 |                  2489 |                  205 |             259055 |        717755 |             7141 |        12075628 |                     0 |      12683503 | 2017-02-09 07:01:44.169082+01

 2017-02-09 07:27:16.979378+01 | 1486621636.97938 |                 0 |               5 |                  2489 |                  205 |             259055 |        718555 |             7149 |        12075628 |                     0 |      12699374 | 2017-02-09 07:01:44.169082+01

 2017-02-09 07:27:18.098645+01 | 1486621638.09864 |                 0 |               5 |                  2489 |                  205 |             259055 |        719155 |             7155 |        12075628 |                     0 |      12711291 | 2017-02-09 07:01:44.169082+01

 2017-02-09 07:27:19.235362+01 | 1486621639.23536 |                 0 |               5 |                  2489 |                  205 |             259055 |        719655 |             7160 |        12137264 |                     0 |      12721277 | 2017-02-09 07:01:44.169082+01

 2017-02-09 07:27:20.329887+01 | 1486621640.32989 |                 0 |               5 |                  2489 |                  205 |             259055 |        720255 |             7166 |        12137264 |                     0 |      12733269 | 2017-02-09 07:01:44.169082+01

 2017-02-09 07:27:21.497999+01 | 1486621641.498 |                 0 |               5 |                  2489 |                  205 |             259055 |        720755 |             7171 |        12137264 |                     0 |      12743277 | 2017-02-09 07:01:44.169082+01

 2017-02-09 07:27:22.602867+01 | 1486621642.60287 |                 0 |               5 |                  2489 |                  205 |             259055 |        721355 |             7177 |        12137264 |                     0 |      12754913 | 2017-02-09 07:01:44.169082+01

 2017-02-09 07:27:23.720426+01 | 1486621643.72043 |                 0 |               5 |                  2489 |                  205 |             259055 |        721955 |             7183 |        12137264 |                     0 |      12766926 | 2017-02-09 07:01:44.169082+01

 2017-02-09 07:27:24.831867+01 | 1486621644.83187 |                 0 |               5 |                  2489 |                  205 |             259055 |        722455 |             7188 |        12137264 |                     0 |      12776997 | 2017-02-09 07:01:44.169082+01

 2017-02-09 07:27:26.01807+01 | 1486621646.01807 |                 0 |               5 |                  2489 |                  205 |             259055 |        723055 |             7194 |        12137264 |                     0 |      12789251 | 2017-02-09 07:01:44.169082+01

 2017-02-09 07:27:27.215441+01 | 1486621647.21544 |                 0 |               5 |                  2489 |                  205 |             259055 |        723655 |             7200 |        12199100 |                     0 |      12801293 | 2017-02-09 07:01:44.169082+01

 2017-02-09 07:27:28.39005+01 | 1486621648.39005 |                 0 |               5 |                  2489 |                  205 |             259055 |        724255 |             7206 |        12199100 |                     0 |      12813531 | 2017-02-09 07:01:44.169082+01

 2017-02-09 07:27:29.536869+01 | 1486621649.53687 |                 0 |               5 |                  2489 |                  205 |             259055 |        724755 |             7211 |        12199100 |                     0 |      12823481 | 2017-02-09 07:01:44.169082+01

 2017-02-09 07:27:30.703816+01 | 1486621650.70382 |                 0 |               5 |                  2489 |                  205 |             259055 |        725355 |             7217 |        12199100 |                     0 |      12835561 | 2017-02-09 07:01:44.169082+01

 2017-02-09 07:27:31.897735+01 | 1486621651.89774 |                 0 |               5 |                  2489 |                  205 |             259055 |        725955 |             7223 |        12199100 |                     0 |      12847289 | 2017-02-09 07:01:44.169082+01

 2017-02-09 07:27:32.998322+01 | 1486621652.99832 |                 0 |               5 |                  2489 |                  205 |             259055 |        726555 |             7229 |        12199100 |                     0 |      12859487 | 2017-02-09 07:01:44.169082+01

 2017-02-09 07:27:34.098259+01 | 1486621654.09826 |                 0 |               5 |                  2489 |                  205 |             259055 |        727055 |             7234 |        12199100 |                     0 |      12869352 | 2017-02-09 07:01:44.169082+01

 2017-02-09 07:27:35.27961+01 | 1486621655.27961 |                 0 |               5 |                  2489 |                  205 |             259055 |        727655 |             7240 |        12260836 |                     0 |      12881486 | 2017-02-09 07:01:44.169082+01

 2017-02-09 07:27:36.465049+01 | 1486621656.46505 |                 0 |               5 |                  2489 |                  205 |             259055 |        728255 |             7246 |        12260836 |                     0 |      12893311 | 2017-02-09 07:01:44.169082+01

 2017-02-09 07:27:37.621438+01 | 1486621657.62144 |                 0 |               5 |                  2489 |                  205 |             259055 |        728855 |             7252 |        12260836 |                     0 |      12904793 | 2017-02-09 07:01:44.169082+01

