 2017-02-09 06:06:09.037614+01 | 1486616769.03761 | pgbench_accounts |        694558720
 2017-02-09 06:06:09.037614+01 | 1486616769.03761 | pgbench_tellers  |           827392
 2017-02-09 06:06:09.037614+01 | 1486616769.03761 | pgbench_history  |           368640
 2017-02-09 06:06:09.037614+01 | 1486616769.03761 | pgbench_branches |          1155072

 2017-02-09 06:06:10.095385+01 | 1486616770.09539 | pgbench_accounts |        694558720
 2017-02-09 06:06:10.095385+01 | 1486616770.09539 | pgbench_tellers  |           827392
 2017-02-09 06:06:10.095385+01 | 1486616770.09539 | pgbench_history  |           434176
 2017-02-09 06:06:10.095385+01 | 1486616770.09539 | pgbench_branches |          1155072

 2017-02-09 06:06:11.165391+01 | 1486616771.16539 | pgbench_accounts |        694558720
 2017-02-09 06:06:11.165391+01 | 1486616771.16539 | pgbench_tellers  |           827392
 2017-02-09 06:06:11.165391+01 | 1486616771.16539 | pgbench_history  |           827392
 2017-02-09 06:06:11.165391+01 | 1486616771.16539 | pgbench_branches |          1155072

 2017-02-09 06:06:12.231931+01 | 1486616772.23193 | pgbench_accounts |        694558720
 2017-02-09 06:06:12.231931+01 | 1486616772.23193 | pgbench_tellers  |           827392
 2017-02-09 06:06:12.231931+01 | 1486616772.23193 | pgbench_history  |          1220608
 2017-02-09 06:06:12.231931+01 | 1486616772.23193 | pgbench_branches |          1155072

 2017-02-09 06:06:13.290962+01 | 1486616773.29096 | pgbench_accounts |        694558720
 2017-02-09 06:06:13.290962+01 | 1486616773.29096 | pgbench_tellers  |           827392
 2017-02-09 06:06:13.290962+01 | 1486616773.29096 | pgbench_history  |          1613824
 2017-02-09 06:06:13.290962+01 | 1486616773.29096 | pgbench_branches |          1155072

 2017-02-09 06:06:14.3479+01 | 1486616774.3479 | pgbench_accounts |        694558720
 2017-02-09 06:06:14.3479+01 | 1486616774.3479 | pgbench_tellers  |           827392
 2017-02-09 06:06:14.3479+01 | 1486616774.3479 | pgbench_history  |          2007040
 2017-02-09 06:06:14.3479+01 | 1486616774.3479 | pgbench_branches |          1155072

 2017-02-09 06:06:15.406568+01 | 1486616775.40657 | pgbench_accounts |        694558720
 2017-02-09 06:06:15.406568+01 | 1486616775.40657 | pgbench_tellers  |           827392
 2017-02-09 06:06:15.406568+01 | 1486616775.40657 | pgbench_history  |          2588672
 2017-02-09 06:06:15.406568+01 | 1486616775.40657 | pgbench_branches |          1155072

 2017-02-09 06:06:16.471753+01 | 1486616776.47175 | pgbench_accounts |        694558720
 2017-02-09 06:06:16.471753+01 | 1486616776.47175 | pgbench_tellers  |           827392
 2017-02-09 06:06:16.471753+01 | 1486616776.47175 | pgbench_history  |          2793472
 2017-02-09 06:06:16.471753+01 | 1486616776.47175 | pgbench_branches |          1155072

 2017-02-09 06:06:17.532146+01 | 1486616777.53215 | pgbench_accounts |        694558720
 2017-02-09 06:06:17.532146+01 | 1486616777.53215 | pgbench_tellers  |           827392
 2017-02-09 06:06:17.532146+01 | 1486616777.53215 | pgbench_history  |          3227648
 2017-02-09 06:06:17.532146+01 | 1486616777.53215 | pgbench_branches |          1155072

 2017-02-09 06:06:18.60127+01 | 1486616778.60127 | pgbench_accounts |        694558720
 2017-02-09 06:06:18.60127+01 | 1486616778.60127 | pgbench_tellers  |           827392
 2017-02-09 06:06:18.60127+01 | 1486616778.60127 | pgbench_history  |          3645440
 2017-02-09 06:06:18.60127+01 | 1486616778.60127 | pgbench_branches |          1155072

 2017-02-09 06:06:19.663547+01 | 1486616779.66355 | pgbench_accounts |        694558720
 2017-02-09 06:06:19.663547+01 | 1486616779.66355 | pgbench_tellers  |           827392
 2017-02-09 06:06:19.663547+01 | 1486616779.66355 | pgbench_history  |          4038656
 2017-02-09 06:06:19.663547+01 | 1486616779.66355 | pgbench_branches |          1155072

 2017-02-09 06:06:20.727621+01 | 1486616780.72762 | pgbench_accounts |        694558720
 2017-02-09 06:06:20.727621+01 | 1486616780.72762 | pgbench_tellers  |           827392
 2017-02-09 06:06:20.727621+01 | 1486616780.72762 | pgbench_history  |          4472832
 2017-02-09 06:06:20.727621+01 | 1486616780.72762 | pgbench_branches |          1155072

 2017-02-09 06:06:21.791471+01 | 1486616781.79147 | pgbench_accounts |        694558720
 2017-02-09 06:06:21.791471+01 | 1486616781.79147 | pgbench_tellers  |           827392
 2017-02-09 06:06:21.791471+01 | 1486616781.79147 | pgbench_history  |          4890624
 2017-02-09 06:06:21.791471+01 | 1486616781.79147 | pgbench_branches |          1155072

 2017-02-09 06:06:22.858834+01 | 1486616782.85883 | pgbench_accounts |        694558720
 2017-02-09 06:06:22.858834+01 | 1486616782.85883 | pgbench_tellers  |           827392
 2017-02-09 06:06:22.858834+01 | 1486616782.85883 | pgbench_history  |          5292032
 2017-02-09 06:06:22.858834+01 | 1486616782.85883 | pgbench_branches |          1155072

 2017-02-09 06:06:23.92531+01 | 1486616783.92531 | pgbench_accounts |        694558720
 2017-02-09 06:06:23.92531+01 | 1486616783.92531 | pgbench_tellers  |           827392
 2017-02-09 06:06:23.92531+01 | 1486616783.92531 | pgbench_history  |          5709824
 2017-02-09 06:06:23.92531+01 | 1486616783.92531 | pgbench_branches |          1155072

 2017-02-09 06:06:24.981051+01 | 1486616784.98105 | pgbench_accounts |        694558720
 2017-02-09 06:06:24.981051+01 | 1486616784.98105 | pgbench_tellers  |           827392
 2017-02-09 06:06:24.981051+01 | 1486616784.98105 | pgbench_history  |          6127616
 2017-02-09 06:06:24.981051+01 | 1486616784.98105 | pgbench_branches |          1155072

 2017-02-09 06:06:26.033783+01 | 1486616786.03378 | pgbench_accounts |        694558720
 2017-02-09 06:06:26.033783+01 | 1486616786.03378 | pgbench_tellers  |           827392
 2017-02-09 06:06:26.033783+01 | 1486616786.03378 | pgbench_history  |          6537216
 2017-02-09 06:06:26.033783+01 | 1486616786.03378 | pgbench_branches |          1155072

 2017-02-09 06:06:27.10233+01 | 1486616787.10233 | pgbench_accounts |        694558720
 2017-02-09 06:06:27.10233+01 | 1486616787.10233 | pgbench_tellers  |           827392
 2017-02-09 06:06:27.10233+01 | 1486616787.10233 | pgbench_history  |          6938624
 2017-02-09 06:06:27.10233+01 | 1486616787.10233 | pgbench_branches |          1155072

 2017-02-09 06:06:28.166694+01 | 1486616788.16669 | pgbench_accounts |        694558720
 2017-02-09 06:06:28.166694+01 | 1486616788.16669 | pgbench_tellers  |           827392
 2017-02-09 06:06:28.166694+01 | 1486616788.16669 | pgbench_history  |          7348224
 2017-02-09 06:06:28.166694+01 | 1486616788.16669 | pgbench_branches |          1155072

 2017-02-09 06:06:29.236375+01 | 1486616789.23638 | pgbench_accounts |        694558720
 2017-02-09 06:06:29.236375+01 | 1486616789.23638 | pgbench_tellers  |           827392
 2017-02-09 06:06:29.236375+01 | 1486616789.23638 | pgbench_history  |          7749632
 2017-02-09 06:06:29.236375+01 | 1486616789.23638 | pgbench_branches |          1155072

 2017-02-09 06:06:30.307185+01 | 1486616790.30718 | pgbench_accounts |        694558720
 2017-02-09 06:06:30.307185+01 | 1486616790.30718 | pgbench_tellers  |           827392
 2017-02-09 06:06:30.307185+01 | 1486616790.30718 | pgbench_history  |          8167424
 2017-02-09 06:06:30.307185+01 | 1486616790.30718 | pgbench_branches |          1155072

 2017-02-09 06:06:31.378759+01 | 1486616791.37876 | pgbench_accounts |        694558720
 2017-02-09 06:06:31.378759+01 | 1486616791.37876 | pgbench_tellers  |           827392
 2017-02-09 06:06:31.378759+01 | 1486616791.37876 | pgbench_history  |          8560640
 2017-02-09 06:06:31.378759+01 | 1486616791.37876 | pgbench_branches |          1155072

 2017-02-09 06:06:32.439287+01 | 1486616792.43929 | pgbench_accounts |        694558720
 2017-02-09 06:06:32.439287+01 | 1486616792.43929 | pgbench_tellers  |           827392
 2017-02-09 06:06:32.439287+01 | 1486616792.43929 | pgbench_history  |          8962048
 2017-02-09 06:06:32.439287+01 | 1486616792.43929 | pgbench_branches |          1155072

 2017-02-09 06:06:33.510021+01 | 1486616793.51002 | pgbench_accounts |        694558720
 2017-02-09 06:06:33.510021+01 | 1486616793.51002 | pgbench_tellers  |           827392
 2017-02-09 06:06:33.510021+01 | 1486616793.51002 | pgbench_history  |          9388032
 2017-02-09 06:06:33.510021+01 | 1486616793.51002 | pgbench_branches |          1155072

 2017-02-09 06:06:34.571927+01 | 1486616794.57193 | pgbench_accounts |        694558720
 2017-02-09 06:06:34.571927+01 | 1486616794.57193 | pgbench_tellers  |           827392
 2017-02-09 06:06:34.571927+01 | 1486616794.57193 | pgbench_history  |          9797632
 2017-02-09 06:06:34.571927+01 | 1486616794.57193 | pgbench_branches |          1155072

 2017-02-09 06:06:35.644276+01 | 1486616795.64428 | pgbench_accounts |        694558720
 2017-02-09 06:06:35.644276+01 | 1486616795.64428 | pgbench_tellers  |           827392
 2017-02-09 06:06:35.644276+01 | 1486616795.64428 | pgbench_history  |         10182656
 2017-02-09 06:06:35.644276+01 | 1486616795.64428 | pgbench_branches |          1155072

 2017-02-09 06:06:36.696134+01 | 1486616796.69613 | pgbench_accounts |        694558720
 2017-02-09 06:06:36.696134+01 | 1486616796.69613 | pgbench_tellers  |           827392
 2017-02-09 06:06:36.696134+01 | 1486616796.69613 | pgbench_history  |         10690560
 2017-02-09 06:06:36.696134+01 | 1486616796.69613 | pgbench_branches |          1155072

 2017-02-09 06:06:37.757093+01 | 1486616797.75709 | pgbench_accounts |        694558720
 2017-02-09 06:06:37.757093+01 | 1486616797.75709 | pgbench_tellers  |           827392
 2017-02-09 06:06:37.757093+01 | 1486616797.75709 | pgbench_history  |         11010048
 2017-02-09 06:06:37.757093+01 | 1486616797.75709 | pgbench_branches |          1155072

 2017-02-09 06:06:38.818385+01 | 1486616798.81838 | pgbench_accounts |        694558720
 2017-02-09 06:06:38.818385+01 | 1486616798.81838 | pgbench_tellers  |           827392
 2017-02-09 06:06:38.818385+01 | 1486616798.81838 | pgbench_history  |         11468800
 2017-02-09 06:06:38.818385+01 | 1486616798.81838 | pgbench_branches |          1155072

 2017-02-09 06:06:39.883721+01 | 1486616799.88372 | pgbench_accounts |        694558720
 2017-02-09 06:06:39.883721+01 | 1486616799.88372 | pgbench_tellers  |           827392
 2017-02-09 06:06:39.883721+01 | 1486616799.88372 | pgbench_history  |         11878400
 2017-02-09 06:06:39.883721+01 | 1486616799.88372 | pgbench_branches |          1155072

 2017-02-09 06:06:40.950001+01 | 1486616800.95 | pgbench_accounts |        694558720
 2017-02-09 06:06:40.950001+01 | 1486616800.95 | pgbench_tellers  |           827392
 2017-02-09 06:06:40.950001+01 | 1486616800.95 | pgbench_history  |         12312576
 2017-02-09 06:06:40.950001+01 | 1486616800.95 | pgbench_branches |          1155072

 2017-02-09 06:06:42.012689+01 | 1486616802.01269 | pgbench_accounts |        694558720
 2017-02-09 06:06:42.012689+01 | 1486616802.01269 | pgbench_tellers  |           827392
 2017-02-09 06:06:42.012689+01 | 1486616802.01269 | pgbench_history  |         12746752
 2017-02-09 06:06:42.012689+01 | 1486616802.01269 | pgbench_branches |          1155072

 2017-02-09 06:06:43.074148+01 | 1486616803.07415 | pgbench_accounts |        694558720
 2017-02-09 06:06:43.074148+01 | 1486616803.07415 | pgbench_tellers  |           827392
 2017-02-09 06:06:43.074148+01 | 1486616803.07415 | pgbench_history  |         13164544
 2017-02-09 06:06:43.074148+01 | 1486616803.07415 | pgbench_branches |          1155072

 2017-02-09 06:06:44.132377+01 | 1486616804.13238 | pgbench_accounts |        694558720
 2017-02-09 06:06:44.132377+01 | 1486616804.13238 | pgbench_tellers  |           827392
 2017-02-09 06:06:44.132377+01 | 1486616804.13238 | pgbench_history  |         13590528
 2017-02-09 06:06:44.132377+01 | 1486616804.13238 | pgbench_branches |          1155072

 2017-02-09 06:06:45.188591+01 | 1486616805.18859 | pgbench_accounts |        694558720
 2017-02-09 06:06:45.188591+01 | 1486616805.18859 | pgbench_tellers  |           827392
 2017-02-09 06:06:45.188591+01 | 1486616805.18859 | pgbench_history  |         14016512
 2017-02-09 06:06:45.188591+01 | 1486616805.18859 | pgbench_branches |          1155072

 2017-02-09 06:06:46.258675+01 | 1486616806.25868 | pgbench_accounts |        694558720
 2017-02-09 06:06:46.258675+01 | 1486616806.25868 | pgbench_tellers  |           827392
 2017-02-09 06:06:46.258675+01 | 1486616806.25868 | pgbench_history  |         14434304
 2017-02-09 06:06:46.258675+01 | 1486616806.25868 | pgbench_branches |          1155072

 2017-02-09 06:06:47.321426+01 | 1486616807.32143 | pgbench_accounts |        694558720
 2017-02-09 06:06:47.321426+01 | 1486616807.32143 | pgbench_tellers  |           827392
 2017-02-09 06:06:47.321426+01 | 1486616807.32143 | pgbench_history  |         14876672
 2017-02-09 06:06:47.321426+01 | 1486616807.32143 | pgbench_branches |          1155072

 2017-02-09 06:06:48.37352+01 | 1486616808.37352 | pgbench_accounts |        694558720
 2017-02-09 06:06:48.37352+01 | 1486616808.37352 | pgbench_tellers  |           827392
 2017-02-09 06:06:48.37352+01 | 1486616808.37352 | pgbench_history  |         15294464
 2017-02-09 06:06:48.37352+01 | 1486616808.37352 | pgbench_branches |          1155072

 2017-02-09 06:06:49.43455+01 | 1486616809.43455 | pgbench_accounts |        694558720
 2017-02-09 06:06:49.43455+01 | 1486616809.43455 | pgbench_tellers  |           827392
 2017-02-09 06:06:49.43455+01 | 1486616809.43455 | pgbench_history  |         15720448
 2017-02-09 06:06:49.43455+01 | 1486616809.43455 | pgbench_branches |          1155072

 2017-02-09 06:06:50.494531+01 | 1486616810.49453 | pgbench_accounts |        694558720
 2017-02-09 06:06:50.494531+01 | 1486616810.49453 | pgbench_tellers  |           827392
 2017-02-09 06:06:50.494531+01 | 1486616810.49453 | pgbench_history  |         16146432
 2017-02-09 06:06:50.494531+01 | 1486616810.49453 | pgbench_branches |          1155072

 2017-02-09 06:06:51.563349+01 | 1486616811.56335 | pgbench_accounts |        694558720
 2017-02-09 06:06:51.563349+01 | 1486616811.56335 | pgbench_tellers  |           827392
 2017-02-09 06:06:51.563349+01 | 1486616811.56335 | pgbench_history  |         16572416
 2017-02-09 06:06:51.563349+01 | 1486616811.56335 | pgbench_branches |          1155072

 2017-02-09 06:06:52.630011+01 | 1486616812.63001 | pgbench_accounts |        694558720
 2017-02-09 06:06:52.630011+01 | 1486616812.63001 | pgbench_tellers  |           827392
 2017-02-09 06:06:52.630011+01 | 1486616812.63001 | pgbench_history  |         17006592
 2017-02-09 06:06:52.630011+01 | 1486616812.63001 | pgbench_branches |          1155072

 2017-02-09 06:06:53.697973+01 | 1486616813.69797 | pgbench_accounts |        694558720
 2017-02-09 06:06:53.697973+01 | 1486616813.69797 | pgbench_tellers  |           827392
 2017-02-09 06:06:53.697973+01 | 1486616813.69797 | pgbench_history  |         17424384
 2017-02-09 06:06:53.697973+01 | 1486616813.69797 | pgbench_branches |          1155072

 2017-02-09 06:06:54.762855+01 | 1486616814.76286 | pgbench_accounts |        694558720
 2017-02-09 06:06:54.762855+01 | 1486616814.76286 | pgbench_tellers  |           827392
 2017-02-09 06:06:54.762855+01 | 1486616814.76286 | pgbench_history  |         17866752
 2017-02-09 06:06:54.762855+01 | 1486616814.76286 | pgbench_branches |          1155072

 2017-02-09 06:06:55.827932+01 | 1486616815.82793 | pgbench_accounts |        694558720
 2017-02-09 06:06:55.827932+01 | 1486616815.82793 | pgbench_tellers  |           827392
 2017-02-09 06:06:55.827932+01 | 1486616815.82793 | pgbench_history  |         18276352
 2017-02-09 06:06:55.827932+01 | 1486616815.82793 | pgbench_branches |          1155072

 2017-02-09 06:06:56.895012+01 | 1486616816.89501 | pgbench_accounts |        694558720
 2017-02-09 06:06:56.895012+01 | 1486616816.89501 | pgbench_tellers  |           827392
 2017-02-09 06:06:56.895012+01 | 1486616816.89501 | pgbench_history  |         18735104
 2017-02-09 06:06:56.895012+01 | 1486616816.89501 | pgbench_branches |          1155072

 2017-02-09 06:06:57.964036+01 | 1486616817.96404 | pgbench_accounts |        694558720
 2017-02-09 06:06:57.964036+01 | 1486616817.96404 | pgbench_tellers  |           827392
 2017-02-09 06:06:57.964036+01 | 1486616817.96404 | pgbench_history  |         19161088
 2017-02-09 06:06:57.964036+01 | 1486616817.96404 | pgbench_branches |          1155072

 2017-02-09 06:06:59.024972+01 | 1486616819.02497 | pgbench_accounts |        694558720
 2017-02-09 06:06:59.024972+01 | 1486616819.02497 | pgbench_tellers  |           827392
 2017-02-09 06:06:59.024972+01 | 1486616819.02497 | pgbench_history  |         19578880
 2017-02-09 06:06:59.024972+01 | 1486616819.02497 | pgbench_branches |          1155072

 2017-02-09 06:07:00.086151+01 | 1486616820.08615 | pgbench_accounts |        694558720
 2017-02-09 06:07:00.086151+01 | 1486616820.08615 | pgbench_tellers  |           827392
 2017-02-09 06:07:00.086151+01 | 1486616820.08615 | pgbench_history  |         19996672
 2017-02-09 06:07:00.086151+01 | 1486616820.08615 | pgbench_branches |          1155072

 2017-02-09 06:07:01.150224+01 | 1486616821.15022 | pgbench_accounts |        694558720
 2017-02-09 06:07:01.150224+01 | 1486616821.15022 | pgbench_tellers  |           827392
 2017-02-09 06:07:01.150224+01 | 1486616821.15022 | pgbench_history  |         20439040
 2017-02-09 06:07:01.150224+01 | 1486616821.15022 | pgbench_branches |          1155072

 2017-02-09 06:07:02.21191+01 | 1486616822.21191 | pgbench_accounts |        694558720
 2017-02-09 06:07:02.21191+01 | 1486616822.21191 | pgbench_tellers  |           827392
 2017-02-09 06:07:02.21191+01 | 1486616822.21191 | pgbench_history  |         20856832
 2017-02-09 06:07:02.21191+01 | 1486616822.21191 | pgbench_branches |          1155072

 2017-02-09 06:07:03.277104+01 | 1486616823.2771 | pgbench_accounts |        694558720
 2017-02-09 06:07:03.277104+01 | 1486616823.2771 | pgbench_tellers  |           827392
 2017-02-09 06:07:03.277104+01 | 1486616823.2771 | pgbench_history  |         21291008
 2017-02-09 06:07:03.277104+01 | 1486616823.2771 | pgbench_branches |          1155072

 2017-02-09 06:07:04.346442+01 | 1486616824.34644 | pgbench_accounts |        694558720
 2017-02-09 06:07:04.346442+01 | 1486616824.34644 | pgbench_tellers  |           827392
 2017-02-09 06:07:04.346442+01 | 1486616824.34644 | pgbench_history  |         21708800
 2017-02-09 06:07:04.346442+01 | 1486616824.34644 | pgbench_branches |          1155072

 2017-02-09 06:07:05.414198+01 | 1486616825.4142 | pgbench_accounts |        694558720
 2017-02-09 06:07:05.414198+01 | 1486616825.4142 | pgbench_tellers  |           827392
 2017-02-09 06:07:05.414198+01 | 1486616825.4142 | pgbench_history  |         22151168
 2017-02-09 06:07:05.414198+01 | 1486616825.4142 | pgbench_branches |          1155072

 2017-02-09 06:07:06.474352+01 | 1486616826.47435 | pgbench_accounts |        694558720
 2017-02-09 06:07:06.474352+01 | 1486616826.47435 | pgbench_tellers  |           827392
 2017-02-09 06:07:06.474352+01 | 1486616826.47435 | pgbench_history  |         22585344
 2017-02-09 06:07:06.474352+01 | 1486616826.47435 | pgbench_branches |          1155072

 2017-02-09 06:07:07.54131+01 | 1486616827.54131 | pgbench_accounts |        694558720
 2017-02-09 06:07:07.54131+01 | 1486616827.54131 | pgbench_tellers  |           827392
 2017-02-09 06:07:07.54131+01 | 1486616827.54131 | pgbench_history  |         23003136
 2017-02-09 06:07:07.54131+01 | 1486616827.54131 | pgbench_branches |          1155072

 2017-02-09 06:07:08.603788+01 | 1486616828.60379 | pgbench_accounts |        694558720
 2017-02-09 06:07:08.603788+01 | 1486616828.60379 | pgbench_tellers  |           827392
 2017-02-09 06:07:08.603788+01 | 1486616828.60379 | pgbench_history  |         23453696
 2017-02-09 06:07:08.603788+01 | 1486616828.60379 | pgbench_branches |          1155072

 2017-02-09 06:07:09.663752+01 | 1486616829.66375 | pgbench_accounts |        694558720
 2017-02-09 06:07:09.663752+01 | 1486616829.66375 | pgbench_tellers  |           827392
 2017-02-09 06:07:09.663752+01 | 1486616829.66375 | pgbench_history  |         23855104
 2017-02-09 06:07:09.663752+01 | 1486616829.66375 | pgbench_branches |          1155072

 2017-02-09 06:07:10.728358+01 | 1486616830.72836 | pgbench_accounts |        694558720
 2017-02-09 06:07:10.728358+01 | 1486616830.72836 | pgbench_tellers  |           827392
 2017-02-09 06:07:10.728358+01 | 1486616830.72836 | pgbench_history  |         24297472
 2017-02-09 06:07:10.728358+01 | 1486616830.72836 | pgbench_branches |          1155072

 2017-02-09 06:07:11.79999+01 | 1486616831.79999 | pgbench_accounts |        694558720
 2017-02-09 06:07:11.79999+01 | 1486616831.79999 | pgbench_tellers  |           827392
 2017-02-09 06:07:11.79999+01 | 1486616831.79999 | pgbench_history  |         24707072
 2017-02-09 06:07:11.79999+01 | 1486616831.79999 | pgbench_branches |          1155072

 2017-02-09 06:07:12.860289+01 | 1486616832.86029 | pgbench_accounts |        694558720
 2017-02-09 06:07:12.860289+01 | 1486616832.86029 | pgbench_tellers  |           827392
 2017-02-09 06:07:12.860289+01 | 1486616832.86029 | pgbench_history  |         25149440
 2017-02-09 06:07:12.860289+01 | 1486616832.86029 | pgbench_branches |          1155072

 2017-02-09 06:07:13.919243+01 | 1486616833.91924 | pgbench_accounts |        694558720
 2017-02-09 06:07:13.919243+01 | 1486616833.91924 | pgbench_tellers  |           827392
 2017-02-09 06:07:13.919243+01 | 1486616833.91924 | pgbench_history  |         25559040
 2017-02-09 06:07:13.919243+01 | 1486616833.91924 | pgbench_branches |          1155072

 2017-02-09 06:07:14.983389+01 | 1486616834.98339 | pgbench_accounts |        694558720
 2017-02-09 06:07:14.983389+01 | 1486616834.98339 | pgbench_tellers  |           827392
 2017-02-09 06:07:14.983389+01 | 1486616834.98339 | pgbench_history  |         26001408
 2017-02-09 06:07:14.983389+01 | 1486616834.98339 | pgbench_branches |          1155072

 2017-02-09 06:07:16.049642+01 | 1486616836.04964 | pgbench_accounts |        694558720
 2017-02-09 06:07:16.049642+01 | 1486616836.04964 | pgbench_tellers  |           827392
 2017-02-09 06:07:16.049642+01 | 1486616836.04964 | pgbench_history  |         26411008
 2017-02-09 06:07:16.049642+01 | 1486616836.04964 | pgbench_branches |          1155072

 2017-02-09 06:07:17.123507+01 | 1486616837.12351 | pgbench_accounts |        694558720
 2017-02-09 06:07:17.123507+01 | 1486616837.12351 | pgbench_tellers  |           827392
 2017-02-09 06:07:17.123507+01 | 1486616837.12351 | pgbench_history  |         27033600
 2017-02-09 06:07:17.123507+01 | 1486616837.12351 | pgbench_branches |          1155072

 2017-02-09 06:07:18.189791+01 | 1486616838.18979 | pgbench_accounts |        694558720
 2017-02-09 06:07:18.189791+01 | 1486616838.18979 | pgbench_tellers  |           827392
 2017-02-09 06:07:18.189791+01 | 1486616838.18979 | pgbench_history  |         27295744
 2017-02-09 06:07:18.189791+01 | 1486616838.18979 | pgbench_branches |          1155072

 2017-02-09 06:07:19.259456+01 | 1486616839.25946 | pgbench_accounts |        694558720
 2017-02-09 06:07:19.259456+01 | 1486616839.25946 | pgbench_tellers  |           827392
 2017-02-09 06:07:19.259456+01 | 1486616839.25946 | pgbench_history  |         27688960
 2017-02-09 06:07:19.259456+01 | 1486616839.25946 | pgbench_branches |          1155072

 2017-02-09 06:07:20.319772+01 | 1486616840.31977 | pgbench_accounts |        694558720
 2017-02-09 06:07:20.319772+01 | 1486616840.31977 | pgbench_tellers  |           827392
 2017-02-09 06:07:20.319772+01 | 1486616840.31977 | pgbench_history  |         28123136
 2017-02-09 06:07:20.319772+01 | 1486616840.31977 | pgbench_branches |          1155072

 2017-02-09 06:07:21.381986+01 | 1486616841.38199 | pgbench_accounts |        694558720
 2017-02-09 06:07:21.381986+01 | 1486616841.38199 | pgbench_tellers  |           827392
 2017-02-09 06:07:21.381986+01 | 1486616841.38199 | pgbench_history  |         28549120
 2017-02-09 06:07:21.381986+01 | 1486616841.38199 | pgbench_branches |          1155072

 2017-02-09 06:07:22.451371+01 | 1486616842.45137 | pgbench_accounts |        694558720
 2017-02-09 06:07:22.451371+01 | 1486616842.45137 | pgbench_tellers  |           827392
 2017-02-09 06:07:22.451371+01 | 1486616842.45137 | pgbench_history  |         28991488
 2017-02-09 06:07:22.451371+01 | 1486616842.45137 | pgbench_branches |          1155072

 2017-02-09 06:07:23.510656+01 | 1486616843.51066 | pgbench_accounts |        694558720
 2017-02-09 06:07:23.510656+01 | 1486616843.51066 | pgbench_tellers  |           827392
 2017-02-09 06:07:23.510656+01 | 1486616843.51066 | pgbench_history  |         29417472
 2017-02-09 06:07:23.510656+01 | 1486616843.51066 | pgbench_branches |          1155072

 2017-02-09 06:07:24.576607+01 | 1486616844.57661 | pgbench_accounts |        694558720
 2017-02-09 06:07:24.576607+01 | 1486616844.57661 | pgbench_tellers  |           827392
 2017-02-09 06:07:24.576607+01 | 1486616844.57661 | pgbench_history  |         29859840
 2017-02-09 06:07:24.576607+01 | 1486616844.57661 | pgbench_branches |          1155072

 2017-02-09 06:07:25.638567+01 | 1486616845.63857 | pgbench_accounts |        694558720
 2017-02-09 06:07:25.638567+01 | 1486616845.63857 | pgbench_tellers  |           827392
 2017-02-09 06:07:25.638567+01 | 1486616845.63857 | pgbench_history  |         30269440
 2017-02-09 06:07:25.638567+01 | 1486616845.63857 | pgbench_branches |          1155072

 2017-02-09 06:07:26.701737+01 | 1486616846.70174 | pgbench_accounts |        694558720
 2017-02-09 06:07:26.701737+01 | 1486616846.70174 | pgbench_tellers  |           827392
 2017-02-09 06:07:26.701737+01 | 1486616846.70174 | pgbench_history  |         30670848
 2017-02-09 06:07:26.701737+01 | 1486616846.70174 | pgbench_branches |          1155072

 2017-02-09 06:07:27.775567+01 | 1486616847.77557 | pgbench_accounts |        694558720
 2017-02-09 06:07:27.775567+01 | 1486616847.77557 | pgbench_tellers  |           827392
 2017-02-09 06:07:27.775567+01 | 1486616847.77557 | pgbench_history  |         31088640
 2017-02-09 06:07:27.775567+01 | 1486616847.77557 | pgbench_branches |          1155072

 2017-02-09 06:07:28.846939+01 | 1486616848.84694 | pgbench_accounts |        694558720
 2017-02-09 06:07:28.846939+01 | 1486616848.84694 | pgbench_tellers  |           827392
 2017-02-09 06:07:28.846939+01 | 1486616848.84694 | pgbench_history  |         31490048
 2017-02-09 06:07:28.846939+01 | 1486616848.84694 | pgbench_branches |          1155072

 2017-02-09 06:07:29.90285+01 | 1486616849.90285 | pgbench_accounts |        694558720
 2017-02-09 06:07:29.90285+01 | 1486616849.90285 | pgbench_tellers  |           827392
 2017-02-09 06:07:29.90285+01 | 1486616849.90285 | pgbench_history  |         32038912
 2017-02-09 06:07:29.90285+01 | 1486616849.90285 | pgbench_branches |          1155072

 2017-02-09 06:07:30.977353+01 | 1486616850.97735 | pgbench_accounts |        694558720
 2017-02-09 06:07:30.977353+01 | 1486616850.97735 | pgbench_tellers  |           827392
 2017-02-09 06:07:30.977353+01 | 1486616850.97735 | pgbench_history  |         32415744
 2017-02-09 06:07:30.977353+01 | 1486616850.97735 | pgbench_branches |          1155072

 2017-02-09 06:07:32.04944+01 | 1486616852.04944 | pgbench_accounts |        694558720
 2017-02-09 06:07:32.04944+01 | 1486616852.04944 | pgbench_tellers  |           827392
 2017-02-09 06:07:32.04944+01 | 1486616852.04944 | pgbench_history  |         32792576
 2017-02-09 06:07:32.04944+01 | 1486616852.04944 | pgbench_branches |          1155072

 2017-02-09 06:07:33.110992+01 | 1486616853.11099 | pgbench_accounts |        694558720
 2017-02-09 06:07:33.110992+01 | 1486616853.11099 | pgbench_tellers  |           827392
 2017-02-09 06:07:33.110992+01 | 1486616853.11099 | pgbench_history  |         33136640
 2017-02-09 06:07:33.110992+01 | 1486616853.11099 | pgbench_branches |          1155072

 2017-02-09 06:07:34.177537+01 | 1486616854.17754 | pgbench_accounts |        694558720
 2017-02-09 06:07:34.177537+01 | 1486616854.17754 | pgbench_tellers  |           827392
 2017-02-09 06:07:34.177537+01 | 1486616854.17754 | pgbench_history  |         33579008
 2017-02-09 06:07:34.177537+01 | 1486616854.17754 | pgbench_branches |          1155072

 2017-02-09 06:07:35.24318+01 | 1486616855.24318 | pgbench_accounts |        694558720
 2017-02-09 06:07:35.24318+01 | 1486616855.24318 | pgbench_tellers  |           827392
 2017-02-09 06:07:35.24318+01 | 1486616855.24318 | pgbench_history  |         34013184
 2017-02-09 06:07:35.24318+01 | 1486616855.24318 | pgbench_branches |          1155072

 2017-02-09 06:07:36.310185+01 | 1486616856.31018 | pgbench_accounts |        694558720
 2017-02-09 06:07:36.310185+01 | 1486616856.31018 | pgbench_tellers  |           827392
 2017-02-09 06:07:36.310185+01 | 1486616856.31018 | pgbench_history  |         34439168
 2017-02-09 06:07:36.310185+01 | 1486616856.31018 | pgbench_branches |          1155072

 2017-02-09 06:07:37.368575+01 | 1486616857.36858 | pgbench_accounts |        694558720
 2017-02-09 06:07:37.368575+01 | 1486616857.36858 | pgbench_tellers  |           827392
 2017-02-09 06:07:37.368575+01 | 1486616857.36858 | pgbench_history  |         34889728
 2017-02-09 06:07:37.368575+01 | 1486616857.36858 | pgbench_branches |          1155072

 2017-02-09 06:07:38.439385+01 | 1486616858.43938 | pgbench_accounts |        694558720
 2017-02-09 06:07:38.439385+01 | 1486616858.43938 | pgbench_tellers  |           827392
 2017-02-09 06:07:38.439385+01 | 1486616858.43938 | pgbench_history  |         35291136
 2017-02-09 06:07:38.439385+01 | 1486616858.43938 | pgbench_branches |          1155072

 2017-02-09 06:07:39.505012+01 | 1486616859.50501 | pgbench_accounts |        694558720
 2017-02-09 06:07:39.505012+01 | 1486616859.50501 | pgbench_tellers  |           827392
 2017-02-09 06:07:39.505012+01 | 1486616859.50501 | pgbench_history  |         35741696
 2017-02-09 06:07:39.505012+01 | 1486616859.50501 | pgbench_branches |          1155072

 2017-02-09 06:07:40.573326+01 | 1486616860.57333 | pgbench_accounts |        694558720
 2017-02-09 06:07:40.573326+01 | 1486616860.57333 | pgbench_tellers  |           827392
 2017-02-09 06:07:40.573326+01 | 1486616860.57333 | pgbench_history  |         36143104
 2017-02-09 06:07:40.573326+01 | 1486616860.57333 | pgbench_branches |          1155072

 2017-02-09 06:07:41.634412+01 | 1486616861.63441 | pgbench_accounts |        694558720
 2017-02-09 06:07:41.634412+01 | 1486616861.63441 | pgbench_tellers  |           827392
 2017-02-09 06:07:41.634412+01 | 1486616861.63441 | pgbench_history  |         36585472
 2017-02-09 06:07:41.634412+01 | 1486616861.63441 | pgbench_branches |          1155072

 2017-02-09 06:07:42.68847+01 | 1486616862.68847 | pgbench_accounts |        694558720
 2017-02-09 06:07:42.68847+01 | 1486616862.68847 | pgbench_tellers  |           827392
 2017-02-09 06:07:42.68847+01 | 1486616862.68847 | pgbench_history  |         37003264
 2017-02-09 06:07:42.68847+01 | 1486616862.68847 | pgbench_branches |          1155072

 2017-02-09 06:07:43.750361+01 | 1486616863.75036 | pgbench_accounts |        694558720
 2017-02-09 06:07:43.750361+01 | 1486616863.75036 | pgbench_tellers  |           827392
 2017-02-09 06:07:43.750361+01 | 1486616863.75036 | pgbench_history  |         37437440
 2017-02-09 06:07:43.750361+01 | 1486616863.75036 | pgbench_branches |          1155072

 2017-02-09 06:07:44.820915+01 | 1486616864.82091 | pgbench_accounts |        694558720
 2017-02-09 06:07:44.820915+01 | 1486616864.82091 | pgbench_tellers  |           827392
 2017-02-09 06:07:44.820915+01 | 1486616864.82091 | pgbench_history  |         37863424
 2017-02-09 06:07:44.820915+01 | 1486616864.82091 | pgbench_branches |          1155072

 2017-02-09 06:07:45.8862+01 | 1486616865.8862 | pgbench_accounts |        694558720
 2017-02-09 06:07:45.8862+01 | 1486616865.8862 | pgbench_tellers  |           827392
 2017-02-09 06:07:45.8862+01 | 1486616865.8862 | pgbench_history  |         38281216
 2017-02-09 06:07:45.8862+01 | 1486616865.8862 | pgbench_branches |          1155072

 2017-02-09 06:07:46.965454+01 | 1486616866.96545 | pgbench_accounts |        694558720
 2017-02-09 06:07:46.965454+01 | 1486616866.96545 | pgbench_tellers  |           827392
 2017-02-09 06:07:46.965454+01 | 1486616866.96545 | pgbench_history  |         38723584
 2017-02-09 06:07:46.965454+01 | 1486616866.96545 | pgbench_branches |          1155072

 2017-02-09 06:07:48.035006+01 | 1486616868.03501 | pgbench_accounts |        694558720
 2017-02-09 06:07:48.035006+01 | 1486616868.03501 | pgbench_tellers  |           827392
 2017-02-09 06:07:48.035006+01 | 1486616868.03501 | pgbench_history  |         39149568
 2017-02-09 06:07:48.035006+01 | 1486616868.03501 | pgbench_branches |          1155072

 2017-02-09 06:07:49.093814+01 | 1486616869.09381 | pgbench_accounts |        694558720
 2017-02-09 06:07:49.093814+01 | 1486616869.09381 | pgbench_tellers  |           827392
 2017-02-09 06:07:49.093814+01 | 1486616869.09381 | pgbench_history  |         39575552
 2017-02-09 06:07:49.093814+01 | 1486616869.09381 | pgbench_branches |          1155072

 2017-02-09 06:07:50.156426+01 | 1486616870.15643 | pgbench_accounts |        694558720
 2017-02-09 06:07:50.156426+01 | 1486616870.15643 | pgbench_tellers  |           827392
 2017-02-09 06:07:50.156426+01 | 1486616870.15643 | pgbench_history  |         40001536
 2017-02-09 06:07:50.156426+01 | 1486616870.15643 | pgbench_branches |          1155072

 2017-02-09 06:07:51.219102+01 | 1486616871.2191 | pgbench_accounts |        694558720
 2017-02-09 06:07:51.219102+01 | 1486616871.2191 | pgbench_tellers  |           827392
 2017-02-09 06:07:51.219102+01 | 1486616871.2191 | pgbench_history  |         40427520
 2017-02-09 06:07:51.219102+01 | 1486616871.2191 | pgbench_branches |          1155072

 2017-02-09 06:07:52.287502+01 | 1486616872.2875 | pgbench_accounts |        694558720
 2017-02-09 06:07:52.287502+01 | 1486616872.2875 | pgbench_tellers  |           827392
 2017-02-09 06:07:52.287502+01 | 1486616872.2875 | pgbench_history  |         40853504
 2017-02-09 06:07:52.287502+01 | 1486616872.2875 | pgbench_branches |          1155072

 2017-02-09 06:07:53.359416+01 | 1486616873.35942 | pgbench_accounts |        694558720
 2017-02-09 06:07:53.359416+01 | 1486616873.35942 | pgbench_tellers  |           827392
 2017-02-09 06:07:53.359416+01 | 1486616873.35942 | pgbench_history  |         41279488
 2017-02-09 06:07:53.359416+01 | 1486616873.35942 | pgbench_branches |          1155072

 2017-02-09 06:07:54.415834+01 | 1486616874.41583 | pgbench_accounts |        694558720
 2017-02-09 06:07:54.415834+01 | 1486616874.41583 | pgbench_tellers  |           827392
 2017-02-09 06:07:54.415834+01 | 1486616874.41583 | pgbench_history  |         41697280
 2017-02-09 06:07:54.415834+01 | 1486616874.41583 | pgbench_branches |          1155072

 2017-02-09 06:07:55.47421+01 | 1486616875.47421 | pgbench_accounts |        694558720
 2017-02-09 06:07:55.47421+01 | 1486616875.47421 | pgbench_tellers  |           827392
 2017-02-09 06:07:55.47421+01 | 1486616875.47421 | pgbench_history  |         42139648
 2017-02-09 06:07:55.47421+01 | 1486616875.47421 | pgbench_branches |          1155072

 2017-02-09 06:07:56.545261+01 | 1486616876.54526 | pgbench_accounts |        694558720
 2017-02-09 06:07:56.545261+01 | 1486616876.54526 | pgbench_tellers  |           827392
 2017-02-09 06:07:56.545261+01 | 1486616876.54526 | pgbench_history  |         42565632
 2017-02-09 06:07:56.545261+01 | 1486616876.54526 | pgbench_branches |          1155072

 2017-02-09 06:07:57.615948+01 | 1486616877.61595 | pgbench_accounts |        694558720
 2017-02-09 06:07:57.615948+01 | 1486616877.61595 | pgbench_tellers  |           827392
 2017-02-09 06:07:57.615948+01 | 1486616877.61595 | pgbench_history  |         43188224
 2017-02-09 06:07:57.615948+01 | 1486616877.61595 | pgbench_branches |          1155072

 2017-02-09 06:07:58.675161+01 | 1486616878.67516 | pgbench_accounts |        694558720
 2017-02-09 06:07:58.675161+01 | 1486616878.67516 | pgbench_tellers  |           827392
 2017-02-09 06:07:58.675161+01 | 1486616878.67516 | pgbench_history  |         43442176
 2017-02-09 06:07:58.675161+01 | 1486616878.67516 | pgbench_branches |          1155072

 2017-02-09 06:07:59.743924+01 | 1486616879.74392 | pgbench_accounts |        694558720
 2017-02-09 06:07:59.743924+01 | 1486616879.74392 | pgbench_tellers  |           827392
 2017-02-09 06:07:59.743924+01 | 1486616879.74392 | pgbench_history  |         43843584
 2017-02-09 06:07:59.743924+01 | 1486616879.74392 | pgbench_branches |          1155072

 2017-02-09 06:08:00.810088+01 | 1486616880.81009 | pgbench_accounts |        694558720
 2017-02-09 06:08:00.810088+01 | 1486616880.81009 | pgbench_tellers  |           827392
 2017-02-09 06:08:00.810088+01 | 1486616880.81009 | pgbench_history  |         44294144
 2017-02-09 06:08:00.810088+01 | 1486616880.81009 | pgbench_branches |          1155072

 2017-02-09 06:08:01.87805+01 | 1486616881.87805 | pgbench_accounts |        694558720
 2017-02-09 06:08:01.87805+01 | 1486616881.87805 | pgbench_tellers  |           827392
 2017-02-09 06:08:01.87805+01 | 1486616881.87805 | pgbench_history  |         44695552
 2017-02-09 06:08:01.87805+01 | 1486616881.87805 | pgbench_branches |          1155072

 2017-02-09 06:08:02.933866+01 | 1486616882.93387 | pgbench_accounts |        694558720
 2017-02-09 06:08:02.933866+01 | 1486616882.93387 | pgbench_tellers  |           827392
 2017-02-09 06:08:02.933866+01 | 1486616882.93387 | pgbench_history  |         45146112
 2017-02-09 06:08:02.933866+01 | 1486616882.93387 | pgbench_branches |          1155072

 2017-02-09 06:08:04.00369+01 | 1486616884.00369 | pgbench_accounts |        694558720
 2017-02-09 06:08:04.00369+01 | 1486616884.00369 | pgbench_tellers  |           827392
 2017-02-09 06:08:04.00369+01 | 1486616884.00369 | pgbench_history  |         45572096
 2017-02-09 06:08:04.00369+01 | 1486616884.00369 | pgbench_branches |          1155072

 2017-02-09 06:08:05.096697+01 | 1486616885.0967 | pgbench_accounts |        694558720
 2017-02-09 06:08:05.096697+01 | 1486616885.0967 | pgbench_tellers  |           827392
 2017-02-09 06:08:05.096697+01 | 1486616885.0967 | pgbench_history  |         45998080
 2017-02-09 06:08:05.096697+01 | 1486616885.0967 | pgbench_branches |          1155072

 2017-02-09 06:08:06.154979+01 | 1486616886.15498 | pgbench_accounts |        694558720
 2017-02-09 06:08:06.154979+01 | 1486616886.15498 | pgbench_tellers  |           827392
 2017-02-09 06:08:06.154979+01 | 1486616886.15498 | pgbench_history  |         46440448
 2017-02-09 06:08:06.154979+01 | 1486616886.15498 | pgbench_branches |          1155072

 2017-02-09 06:08:07.220048+01 | 1486616887.22005 | pgbench_accounts |        694558720
 2017-02-09 06:08:07.220048+01 | 1486616887.22005 | pgbench_tellers  |           827392
 2017-02-09 06:08:07.220048+01 | 1486616887.22005 | pgbench_history  |         46850048
 2017-02-09 06:08:07.220048+01 | 1486616887.22005 | pgbench_branches |          1155072

 2017-02-09 06:08:08.286728+01 | 1486616888.28673 | pgbench_accounts |        694558720
 2017-02-09 06:08:08.286728+01 | 1486616888.28673 | pgbench_tellers  |           827392
 2017-02-09 06:08:08.286728+01 | 1486616888.28673 | pgbench_history  |         47300608
 2017-02-09 06:08:08.286728+01 | 1486616888.28673 | pgbench_branches |          1155072

 2017-02-09 06:08:09.349173+01 | 1486616889.34917 | pgbench_accounts |        694558720
 2017-02-09 06:08:09.349173+01 | 1486616889.34917 | pgbench_tellers  |           827392
 2017-02-09 06:08:09.349173+01 | 1486616889.34917 | pgbench_history  |         47718400
 2017-02-09 06:08:09.349173+01 | 1486616889.34917 | pgbench_branches |          1155072

 2017-02-09 06:08:10.409946+01 | 1486616890.40995 | pgbench_accounts |        694558720
 2017-02-09 06:08:10.409946+01 | 1486616890.40995 | pgbench_tellers  |           827392
 2017-02-09 06:08:10.409946+01 | 1486616890.40995 | pgbench_history  |         48144384
 2017-02-09 06:08:10.409946+01 | 1486616890.40995 | pgbench_branches |          1155072

 2017-02-09 06:08:11.471004+01 | 1486616891.471 | pgbench_accounts |        694558720
 2017-02-09 06:08:11.471004+01 | 1486616891.471 | pgbench_tellers  |           827392
 2017-02-09 06:08:11.471004+01 | 1486616891.471 | pgbench_history  |         48570368
 2017-02-09 06:08:11.471004+01 | 1486616891.471 | pgbench_branches |          1155072

 2017-02-09 06:08:12.532602+01 | 1486616892.5326 | pgbench_accounts |        694558720
 2017-02-09 06:08:12.532602+01 | 1486616892.5326 | pgbench_tellers  |           827392
 2017-02-09 06:08:12.532602+01 | 1486616892.5326 | pgbench_history  |         48988160
 2017-02-09 06:08:12.532602+01 | 1486616892.5326 | pgbench_branches |          1155072

 2017-02-09 06:08:13.610799+01 | 1486616893.6108 | pgbench_accounts |        694558720
 2017-02-09 06:08:13.610799+01 | 1486616893.6108 | pgbench_tellers  |           827392
 2017-02-09 06:08:13.610799+01 | 1486616893.6108 | pgbench_history  |         49422336
 2017-02-09 06:08:13.610799+01 | 1486616893.6108 | pgbench_branches |          1155072

 2017-02-09 06:08:14.672963+01 | 1486616894.67296 | pgbench_accounts |        694558720
 2017-02-09 06:08:14.672963+01 | 1486616894.67296 | pgbench_tellers  |           827392
 2017-02-09 06:08:14.672963+01 | 1486616894.67296 | pgbench_history  |         49856512
 2017-02-09 06:08:14.672963+01 | 1486616894.67296 | pgbench_branches |          1155072

 2017-02-09 06:08:15.731415+01 | 1486616895.73142 | pgbench_accounts |        694558720
 2017-02-09 06:08:15.731415+01 | 1486616895.73142 | pgbench_tellers  |           827392
 2017-02-09 06:08:15.731415+01 | 1486616895.73142 | pgbench_history  |         50266112
 2017-02-09 06:08:15.731415+01 | 1486616895.73142 | pgbench_branches |          1155072

 2017-02-09 06:08:16.800482+01 | 1486616896.80048 | pgbench_accounts |        694558720
 2017-02-09 06:08:16.800482+01 | 1486616896.80048 | pgbench_tellers  |           827392
 2017-02-09 06:08:16.800482+01 | 1486616896.80048 | pgbench_history  |         50708480
 2017-02-09 06:08:16.800482+01 | 1486616896.80048 | pgbench_branches |          1155072

 2017-02-09 06:08:17.861363+01 | 1486616897.86136 | pgbench_accounts |        694558720
 2017-02-09 06:08:17.861363+01 | 1486616897.86136 | pgbench_tellers  |           827392
 2017-02-09 06:08:17.861363+01 | 1486616897.86136 | pgbench_history  |         51109888
 2017-02-09 06:08:17.861363+01 | 1486616897.86136 | pgbench_branches |          1155072

 2017-02-09 06:08:18.921228+01 | 1486616898.92123 | pgbench_accounts |        694558720
 2017-02-09 06:08:18.921228+01 | 1486616898.92123 | pgbench_tellers  |           827392
 2017-02-09 06:08:18.921228+01 | 1486616898.92123 | pgbench_history  |         51552256
 2017-02-09 06:08:18.921228+01 | 1486616898.92123 | pgbench_branches |          1155072

 2017-02-09 06:08:19.98429+01 | 1486616899.98429 | pgbench_accounts |        694558720
 2017-02-09 06:08:19.98429+01 | 1486616899.98429 | pgbench_tellers  |           827392
 2017-02-09 06:08:19.98429+01 | 1486616899.98429 | pgbench_history  |         51970048
 2017-02-09 06:08:19.98429+01 | 1486616899.98429 | pgbench_branches |          1155072

 2017-02-09 06:08:21.048144+01 | 1486616901.04814 | pgbench_accounts |        694558720
 2017-02-09 06:08:21.048144+01 | 1486616901.04814 | pgbench_tellers  |           827392
 2017-02-09 06:08:21.048144+01 | 1486616901.04814 | pgbench_history  |         52396032
 2017-02-09 06:08:21.048144+01 | 1486616901.04814 | pgbench_branches |          1155072

 2017-02-09 06:08:22.111126+01 | 1486616902.11113 | pgbench_accounts |        694558720
 2017-02-09 06:08:22.111126+01 | 1486616902.11113 | pgbench_tellers  |           827392
 2017-02-09 06:08:22.111126+01 | 1486616902.11113 | pgbench_history  |         52822016
 2017-02-09 06:08:22.111126+01 | 1486616902.11113 | pgbench_branches |          1155072

 2017-02-09 06:08:23.187597+01 | 1486616903.1876 | pgbench_accounts |        694558720
 2017-02-09 06:08:23.187597+01 | 1486616903.1876 | pgbench_tellers  |           827392
 2017-02-09 06:08:23.187597+01 | 1486616903.1876 | pgbench_history  |         53272576
 2017-02-09 06:08:23.187597+01 | 1486616903.1876 | pgbench_branches |          1155072

 2017-02-09 06:08:24.244818+01 | 1486616904.24482 | pgbench_accounts |        694558720
 2017-02-09 06:08:24.244818+01 | 1486616904.24482 | pgbench_tellers  |           827392
 2017-02-09 06:08:24.244818+01 | 1486616904.24482 | pgbench_history  |         53682176
 2017-02-09 06:08:24.244818+01 | 1486616904.24482 | pgbench_branches |          1155072

 2017-02-09 06:08:25.299907+01 | 1486616905.29991 | pgbench_accounts |        694558720
 2017-02-09 06:08:25.299907+01 | 1486616905.29991 | pgbench_tellers  |           827392
 2017-02-09 06:08:25.299907+01 | 1486616905.29991 | pgbench_history  |         54108160
 2017-02-09 06:08:25.299907+01 | 1486616905.29991 | pgbench_branches |          1155072

 2017-02-09 06:08:26.353639+01 | 1486616906.35364 | pgbench_accounts |        694558720
 2017-02-09 06:08:26.353639+01 | 1486616906.35364 | pgbench_tellers  |           827392
 2017-02-09 06:08:26.353639+01 | 1486616906.35364 | pgbench_history  |         54517760
 2017-02-09 06:08:26.353639+01 | 1486616906.35364 | pgbench_branches |          1155072

 2017-02-09 06:08:27.416752+01 | 1486616907.41675 | pgbench_accounts |        694558720
 2017-02-09 06:08:27.416752+01 | 1486616907.41675 | pgbench_tellers  |           827392
 2017-02-09 06:08:27.416752+01 | 1486616907.41675 | pgbench_history  |         54919168
 2017-02-09 06:08:27.416752+01 | 1486616907.41675 | pgbench_branches |          1155072

 2017-02-09 06:08:28.491783+01 | 1486616908.49178 | pgbench_accounts |        694558720
 2017-02-09 06:08:28.491783+01 | 1486616908.49178 | pgbench_tellers  |           827392
 2017-02-09 06:08:28.491783+01 | 1486616908.49178 | pgbench_history  |         55312384
 2017-02-09 06:08:28.491783+01 | 1486616908.49178 | pgbench_branches |          1155072

 2017-02-09 06:08:29.552576+01 | 1486616909.55258 | pgbench_accounts |        694558720
 2017-02-09 06:08:29.552576+01 | 1486616909.55258 | pgbench_tellers  |           827392
 2017-02-09 06:08:29.552576+01 | 1486616909.55258 | pgbench_history  |         55738368
 2017-02-09 06:08:29.552576+01 | 1486616909.55258 | pgbench_branches |          1155072

 2017-02-09 06:08:30.616828+01 | 1486616910.61683 | pgbench_accounts |        694558720
 2017-02-09 06:08:30.616828+01 | 1486616910.61683 | pgbench_tellers  |           827392
 2017-02-09 06:08:30.616828+01 | 1486616910.61683 | pgbench_history  |         56131584
 2017-02-09 06:08:30.616828+01 | 1486616910.61683 | pgbench_branches |          1155072

 2017-02-09 06:08:31.685461+01 | 1486616911.68546 | pgbench_accounts |        694558720
 2017-02-09 06:08:31.685461+01 | 1486616911.68546 | pgbench_tellers  |           827392
 2017-02-09 06:08:31.685461+01 | 1486616911.68546 | pgbench_history  |         56606720
 2017-02-09 06:08:31.685461+01 | 1486616911.68546 | pgbench_branches |          1155072

 2017-02-09 06:08:32.747616+01 | 1486616912.74762 | pgbench_accounts |        694558720
 2017-02-09 06:08:32.747616+01 | 1486616912.74762 | pgbench_tellers  |           827392
 2017-02-09 06:08:32.747616+01 | 1486616912.74762 | pgbench_history  |         56999936
 2017-02-09 06:08:32.747616+01 | 1486616912.74762 | pgbench_branches |          1155072

 2017-02-09 06:08:33.810306+01 | 1486616913.81031 | pgbench_accounts |        694558720
 2017-02-09 06:08:33.810306+01 | 1486616913.81031 | pgbench_tellers  |           827392
 2017-02-09 06:08:33.810306+01 | 1486616913.81031 | pgbench_history  |         57450496
 2017-02-09 06:08:33.810306+01 | 1486616913.81031 | pgbench_branches |          1155072

 2017-02-09 06:08:34.874085+01 | 1486616914.87408 | pgbench_accounts |        694558720
 2017-02-09 06:08:34.874085+01 | 1486616914.87408 | pgbench_tellers  |           827392
 2017-02-09 06:08:34.874085+01 | 1486616914.87408 | pgbench_history  |         57851904
 2017-02-09 06:08:34.874085+01 | 1486616914.87408 | pgbench_branches |          1155072

 2017-02-09 06:08:35.935298+01 | 1486616915.9353 | pgbench_accounts |        694558720
 2017-02-09 06:08:35.935298+01 | 1486616915.9353 | pgbench_tellers  |           827392
 2017-02-09 06:08:35.935298+01 | 1486616915.9353 | pgbench_history  |         58310656
 2017-02-09 06:08:35.935298+01 | 1486616915.9353 | pgbench_branches |          1155072

 2017-02-09 06:08:36.991639+01 | 1486616916.99164 | pgbench_accounts |        694558720
 2017-02-09 06:08:36.991639+01 | 1486616916.99164 | pgbench_tellers  |           827392
 2017-02-09 06:08:36.991639+01 | 1486616916.99164 | pgbench_history  |         58736640
 2017-02-09 06:08:36.991639+01 | 1486616916.99164 | pgbench_branches |          1155072

 2017-02-09 06:08:38.063797+01 | 1486616918.0638 | pgbench_accounts |        694558720
 2017-02-09 06:08:38.063797+01 | 1486616918.0638 | pgbench_tellers  |           827392
 2017-02-09 06:08:38.063797+01 | 1486616918.0638 | pgbench_history  |         59162624
 2017-02-09 06:08:38.063797+01 | 1486616918.0638 | pgbench_branches |          1155072

 2017-02-09 06:08:39.126468+01 | 1486616919.12647 | pgbench_accounts |        694558720
 2017-02-09 06:08:39.126468+01 | 1486616919.12647 | pgbench_tellers  |           827392
 2017-02-09 06:08:39.126468+01 | 1486616919.12647 | pgbench_history  |         59588608
 2017-02-09 06:08:39.126468+01 | 1486616919.12647 | pgbench_branches |          1155072

 2017-02-09 06:08:40.195656+01 | 1486616920.19566 | pgbench_accounts |        694558720
 2017-02-09 06:08:40.195656+01 | 1486616920.19566 | pgbench_tellers  |           827392
 2017-02-09 06:08:40.195656+01 | 1486616920.19566 | pgbench_history  |         60022784
 2017-02-09 06:08:40.195656+01 | 1486616920.19566 | pgbench_branches |          1155072

 2017-02-09 06:08:41.260678+01 | 1486616921.26068 | pgbench_accounts |        694558720
 2017-02-09 06:08:41.260678+01 | 1486616921.26068 | pgbench_tellers  |           827392
 2017-02-09 06:08:41.260678+01 | 1486616921.26068 | pgbench_history  |         60473344
 2017-02-09 06:08:41.260678+01 | 1486616921.26068 | pgbench_branches |          1155072

 2017-02-09 06:08:42.33392+01 | 1486616922.33392 | pgbench_accounts |        694558720
 2017-02-09 06:08:42.33392+01 | 1486616922.33392 | pgbench_tellers  |           827392
 2017-02-09 06:08:42.33392+01 | 1486616922.33392 | pgbench_history  |         60882944
 2017-02-09 06:08:42.33392+01 | 1486616922.33392 | pgbench_branches |          1155072

 2017-02-09 06:08:43.399997+01 | 1486616923.4 | pgbench_accounts |        694558720
 2017-02-09 06:08:43.399997+01 | 1486616923.4 | pgbench_tellers  |           827392
 2017-02-09 06:08:43.399997+01 | 1486616923.4 | pgbench_history  |         61325312
 2017-02-09 06:08:43.399997+01 | 1486616923.4 | pgbench_branches |          1155072

 2017-02-09 06:08:44.457562+01 | 1486616924.45756 | pgbench_accounts |        694558720
 2017-02-09 06:08:44.457562+01 | 1486616924.45756 | pgbench_tellers  |           827392
 2017-02-09 06:08:44.457562+01 | 1486616924.45756 | pgbench_history  |         61857792
 2017-02-09 06:08:44.457562+01 | 1486616924.45756 | pgbench_branches |          1155072

 2017-02-09 06:08:45.528467+01 | 1486616925.52847 | pgbench_accounts |        694558720
 2017-02-09 06:08:45.528467+01 | 1486616925.52847 | pgbench_tellers  |           827392
 2017-02-09 06:08:45.528467+01 | 1486616925.52847 | pgbench_history  |         62267392
 2017-02-09 06:08:45.528467+01 | 1486616925.52847 | pgbench_branches |          1155072

 2017-02-09 06:08:46.590079+01 | 1486616926.59008 | pgbench_accounts |        694558720
 2017-02-09 06:08:46.590079+01 | 1486616926.59008 | pgbench_tellers  |           827392
 2017-02-09 06:08:46.590079+01 | 1486616926.59008 | pgbench_history  |         62619648
 2017-02-09 06:08:46.590079+01 | 1486616926.59008 | pgbench_branches |          1155072

 2017-02-09 06:08:47.652793+01 | 1486616927.65279 | pgbench_accounts |        694558720
 2017-02-09 06:08:47.652793+01 | 1486616927.65279 | pgbench_tellers  |           827392
 2017-02-09 06:08:47.652793+01 | 1486616927.65279 | pgbench_history  |         62996480
 2017-02-09 06:08:47.652793+01 | 1486616927.65279 | pgbench_branches |          1155072

 2017-02-09 06:08:48.725188+01 | 1486616928.72519 | pgbench_accounts |        694558720
 2017-02-09 06:08:48.725188+01 | 1486616928.72519 | pgbench_tellers  |           827392
 2017-02-09 06:08:48.725188+01 | 1486616928.72519 | pgbench_history  |         63447040
 2017-02-09 06:08:48.725188+01 | 1486616928.72519 | pgbench_branches |          1155072

 2017-02-09 06:08:49.791618+01 | 1486616929.79162 | pgbench_accounts |        694558720
 2017-02-09 06:08:49.791618+01 | 1486616929.79162 | pgbench_tellers  |           827392
 2017-02-09 06:08:49.791618+01 | 1486616929.79162 | pgbench_history  |         63889408
 2017-02-09 06:08:49.791618+01 | 1486616929.79162 | pgbench_branches |          1155072

 2017-02-09 06:08:50.853079+01 | 1486616930.85308 | pgbench_accounts |        694558720
 2017-02-09 06:08:50.853079+01 | 1486616930.85308 | pgbench_tellers  |           827392
 2017-02-09 06:08:50.853079+01 | 1486616930.85308 | pgbench_history  |         64315392
 2017-02-09 06:08:50.853079+01 | 1486616930.85308 | pgbench_branches |          1155072

 2017-02-09 06:08:51.910931+01 | 1486616931.91093 | pgbench_accounts |        694558720
 2017-02-09 06:08:51.910931+01 | 1486616931.91093 | pgbench_tellers  |           827392
 2017-02-09 06:08:51.910931+01 | 1486616931.91093 | pgbench_history  |         64749568
 2017-02-09 06:08:51.910931+01 | 1486616931.91093 | pgbench_branches |          1155072

 2017-02-09 06:08:52.976993+01 | 1486616932.97699 | pgbench_accounts |        694558720
 2017-02-09 06:08:52.976993+01 | 1486616932.97699 | pgbench_tellers  |           827392
 2017-02-09 06:08:52.976993+01 | 1486616932.97699 | pgbench_history  |         65167360
 2017-02-09 06:08:52.976993+01 | 1486616932.97699 | pgbench_branches |          1155072

 2017-02-09 06:08:54.042919+01 | 1486616934.04292 | pgbench_accounts |        694558720
 2017-02-09 06:08:54.042919+01 | 1486616934.04292 | pgbench_tellers  |           827392
 2017-02-09 06:08:54.042919+01 | 1486616934.04292 | pgbench_history  |         65601536
 2017-02-09 06:08:54.042919+01 | 1486616934.04292 | pgbench_branches |          1155072

 2017-02-09 06:08:55.103593+01 | 1486616935.10359 | pgbench_accounts |        694558720
 2017-02-09 06:08:55.103593+01 | 1486616935.10359 | pgbench_tellers  |           827392
 2017-02-09 06:08:55.103593+01 | 1486616935.10359 | pgbench_history  |         66035712
 2017-02-09 06:08:55.103593+01 | 1486616935.10359 | pgbench_branches |          1155072

 2017-02-09 06:08:56.171779+01 | 1486616936.17178 | pgbench_accounts |        694558720
 2017-02-09 06:08:56.171779+01 | 1486616936.17178 | pgbench_tellers  |           827392
 2017-02-09 06:08:56.171779+01 | 1486616936.17178 | pgbench_history  |         66461696
 2017-02-09 06:08:56.171779+01 | 1486616936.17178 | pgbench_branches |          1155072

 2017-02-09 06:08:57.229242+01 | 1486616937.22924 | pgbench_accounts |        694558720
 2017-02-09 06:08:57.229242+01 | 1486616937.22924 | pgbench_tellers  |           827392
 2017-02-09 06:08:57.229242+01 | 1486616937.22924 | pgbench_history  |         66895872
 2017-02-09 06:08:57.229242+01 | 1486616937.22924 | pgbench_branches |          1155072

 2017-02-09 06:08:58.287664+01 | 1486616938.28766 | pgbench_accounts |        694558720
 2017-02-09 06:08:58.287664+01 | 1486616938.28766 | pgbench_tellers  |           827392
 2017-02-09 06:08:58.287664+01 | 1486616938.28766 | pgbench_history  |         67305472
 2017-02-09 06:08:58.287664+01 | 1486616938.28766 | pgbench_branches |          1155072

 2017-02-09 06:08:59.354927+01 | 1486616939.35493 | pgbench_accounts |        694558720
 2017-02-09 06:08:59.354927+01 | 1486616939.35493 | pgbench_tellers  |           827392
 2017-02-09 06:08:59.354927+01 | 1486616939.35493 | pgbench_history  |         67747840
 2017-02-09 06:08:59.354927+01 | 1486616939.35493 | pgbench_branches |          1155072

 2017-02-09 06:09:00.422079+01 | 1486616940.42208 | pgbench_accounts |        694558720
 2017-02-09 06:09:00.422079+01 | 1486616940.42208 | pgbench_tellers  |           827392
 2017-02-09 06:09:00.422079+01 | 1486616940.42208 | pgbench_history  |         68190208
 2017-02-09 06:09:00.422079+01 | 1486616940.42208 | pgbench_branches |          1155072

 2017-02-09 06:09:01.492917+01 | 1486616941.49292 | pgbench_accounts |        694558720
 2017-02-09 06:09:01.492917+01 | 1486616941.49292 | pgbench_tellers  |           827392
 2017-02-09 06:09:01.492917+01 | 1486616941.49292 | pgbench_history  |         68657152
 2017-02-09 06:09:01.492917+01 | 1486616941.49292 | pgbench_branches |          1155072

 2017-02-09 06:09:02.555374+01 | 1486616942.55537 | pgbench_accounts |        694558720
 2017-02-09 06:09:02.555374+01 | 1486616942.55537 | pgbench_tellers  |           827392
 2017-02-09 06:09:02.555374+01 | 1486616942.55537 | pgbench_history  |         69083136
 2017-02-09 06:09:02.555374+01 | 1486616942.55537 | pgbench_branches |          1155072

 2017-02-09 06:09:03.615456+01 | 1486616943.61546 | pgbench_accounts |        694558720
 2017-02-09 06:09:03.615456+01 | 1486616943.61546 | pgbench_tellers  |           827392
 2017-02-09 06:09:03.615456+01 | 1486616943.61546 | pgbench_history  |         69468160
 2017-02-09 06:09:03.615456+01 | 1486616943.61546 | pgbench_branches |          1155072

 2017-02-09 06:09:04.686141+01 | 1486616944.68614 | pgbench_accounts |        694558720
 2017-02-09 06:09:04.686141+01 | 1486616944.68614 | pgbench_tellers  |           827392
 2017-02-09 06:09:04.686141+01 | 1486616944.68614 | pgbench_history  |         69885952
 2017-02-09 06:09:04.686141+01 | 1486616944.68614 | pgbench_branches |          1155072

 2017-02-09 06:09:05.752315+01 | 1486616945.75232 | pgbench_accounts |        694558720
 2017-02-09 06:09:05.752315+01 | 1486616945.75232 | pgbench_tellers  |           827392
 2017-02-09 06:09:05.752315+01 | 1486616945.75232 | pgbench_history  |         70320128
 2017-02-09 06:09:05.752315+01 | 1486616945.75232 | pgbench_branches |          1155072

 2017-02-09 06:09:06.815049+01 | 1486616946.81505 | pgbench_accounts |        694558720
 2017-02-09 06:09:06.815049+01 | 1486616946.81505 | pgbench_tellers  |           827392
 2017-02-09 06:09:06.815049+01 | 1486616946.81505 | pgbench_history  |         70737920
 2017-02-09 06:09:06.815049+01 | 1486616946.81505 | pgbench_branches |          1155072

 2017-02-09 06:09:07.876351+01 | 1486616947.87635 | pgbench_accounts |        694558720
 2017-02-09 06:09:07.876351+01 | 1486616947.87635 | pgbench_tellers  |           827392
 2017-02-09 06:09:07.876351+01 | 1486616947.87635 | pgbench_history  |         71188480
 2017-02-09 06:09:07.876351+01 | 1486616947.87635 | pgbench_branches |          1155072

 2017-02-09 06:09:08.939348+01 | 1486616948.93935 | pgbench_accounts |        694558720
 2017-02-09 06:09:08.939348+01 | 1486616948.93935 | pgbench_tellers  |           827392
 2017-02-09 06:09:08.939348+01 | 1486616948.93935 | pgbench_history  |         71598080
 2017-02-09 06:09:08.939348+01 | 1486616948.93935 | pgbench_branches |          1155072

 2017-02-09 06:09:10.005744+01 | 1486616950.00574 | pgbench_accounts |        694558720
 2017-02-09 06:09:10.005744+01 | 1486616950.00574 | pgbench_tellers  |           827392
 2017-02-09 06:09:10.005744+01 | 1486616950.00574 | pgbench_history  |         72032256
 2017-02-09 06:09:10.005744+01 | 1486616950.00574 | pgbench_branches |          1155072

 2017-02-09 06:09:11.069197+01 | 1486616951.0692 | pgbench_accounts |        694558720
 2017-02-09 06:09:11.069197+01 | 1486616951.0692 | pgbench_tellers  |           827392
 2017-02-09 06:09:11.069197+01 | 1486616951.0692 | pgbench_history  |         72458240
 2017-02-09 06:09:11.069197+01 | 1486616951.0692 | pgbench_branches |          1155072

 2017-02-09 06:09:12.130821+01 | 1486616952.13082 | pgbench_accounts |        694558720
 2017-02-09 06:09:12.130821+01 | 1486616952.13082 | pgbench_tellers  |           827392
 2017-02-09 06:09:12.130821+01 | 1486616952.13082 | pgbench_history  |         72892416
 2017-02-09 06:09:12.130821+01 | 1486616952.13082 | pgbench_branches |          1155072

 2017-02-09 06:09:13.190605+01 | 1486616953.1906 | pgbench_accounts |        694558720
 2017-02-09 06:09:13.190605+01 | 1486616953.1906 | pgbench_tellers  |           827392
 2017-02-09 06:09:13.190605+01 | 1486616953.1906 | pgbench_history  |         73318400
 2017-02-09 06:09:13.190605+01 | 1486616953.1906 | pgbench_branches |          1155072

 2017-02-09 06:09:14.24499+01 | 1486616954.24499 | pgbench_accounts |        694558720
 2017-02-09 06:09:14.24499+01 | 1486616954.24499 | pgbench_tellers  |           827392
 2017-02-09 06:09:14.24499+01 | 1486616954.24499 | pgbench_history  |         73728000
 2017-02-09 06:09:14.24499+01 | 1486616954.24499 | pgbench_branches |          1155072

 2017-02-09 06:09:15.306215+01 | 1486616955.30622 | pgbench_accounts |        694558720
 2017-02-09 06:09:15.306215+01 | 1486616955.30622 | pgbench_tellers  |           827392
 2017-02-09 06:09:15.306215+01 | 1486616955.30622 | pgbench_history  |         74170368
 2017-02-09 06:09:15.306215+01 | 1486616955.30622 | pgbench_branches |          1155072

 2017-02-09 06:09:16.37607+01 | 1486616956.37607 | pgbench_accounts |        694558720
 2017-02-09 06:09:16.37607+01 | 1486616956.37607 | pgbench_tellers  |           827392
 2017-02-09 06:09:16.37607+01 | 1486616956.37607 | pgbench_history  |         74588160
 2017-02-09 06:09:16.37607+01 | 1486616956.37607 | pgbench_branches |          1155072

 2017-02-09 06:09:17.440002+01 | 1486616957.44 | pgbench_accounts |        694558720
 2017-02-09 06:09:17.440002+01 | 1486616957.44 | pgbench_tellers  |           827392
 2017-02-09 06:09:17.440002+01 | 1486616957.44 | pgbench_history  |         75030528
 2017-02-09 06:09:17.440002+01 | 1486616957.44 | pgbench_branches |          1155072

 2017-02-09 06:09:18.508421+01 | 1486616958.50842 | pgbench_accounts |        694558720
 2017-02-09 06:09:18.508421+01 | 1486616958.50842 | pgbench_tellers  |           827392
 2017-02-09 06:09:18.508421+01 | 1486616958.50842 | pgbench_history  |         75448320
 2017-02-09 06:09:18.508421+01 | 1486616958.50842 | pgbench_branches |          1155072

 2017-02-09 06:09:19.566106+01 | 1486616959.56611 | pgbench_accounts |        694558720
 2017-02-09 06:09:19.566106+01 | 1486616959.56611 | pgbench_tellers  |           827392
 2017-02-09 06:09:19.566106+01 | 1486616959.56611 | pgbench_history  |         75882496
 2017-02-09 06:09:19.566106+01 | 1486616959.56611 | pgbench_branches |          1155072

 2017-02-09 06:09:20.62916+01 | 1486616960.62916 | pgbench_accounts |        694558720
 2017-02-09 06:09:20.62916+01 | 1486616960.62916 | pgbench_tellers  |           827392
 2017-02-09 06:09:20.62916+01 | 1486616960.62916 | pgbench_history  |         76308480
 2017-02-09 06:09:20.62916+01 | 1486616960.62916 | pgbench_branches |          1155072

 2017-02-09 06:09:21.701346+01 | 1486616961.70135 | pgbench_accounts |        694558720
 2017-02-09 06:09:21.701346+01 | 1486616961.70135 | pgbench_tellers  |           827392
 2017-02-09 06:09:21.701346+01 | 1486616961.70135 | pgbench_history  |         76734464
 2017-02-09 06:09:21.701346+01 | 1486616961.70135 | pgbench_branches |          1155072

 2017-02-09 06:09:22.76382+01 | 1486616962.76382 | pgbench_accounts |        694558720
 2017-02-09 06:09:22.76382+01 | 1486616962.76382 | pgbench_tellers  |           827392
 2017-02-09 06:09:22.76382+01 | 1486616962.76382 | pgbench_history  |         77168640
 2017-02-09 06:09:22.76382+01 | 1486616962.76382 | pgbench_branches |          1155072

 2017-02-09 06:09:23.821586+01 | 1486616963.82159 | pgbench_accounts |        694558720
 2017-02-09 06:09:23.821586+01 | 1486616963.82159 | pgbench_tellers  |           827392
 2017-02-09 06:09:23.821586+01 | 1486616963.82159 | pgbench_history  |         77570048
 2017-02-09 06:09:23.821586+01 | 1486616963.82159 | pgbench_branches |          1155072

 2017-02-09 06:09:24.888849+01 | 1486616964.88885 | pgbench_accounts |        694558720
 2017-02-09 06:09:24.888849+01 | 1486616964.88885 | pgbench_tellers  |           827392
 2017-02-09 06:09:24.888849+01 | 1486616964.88885 | pgbench_history  |         78028800
 2017-02-09 06:09:24.888849+01 | 1486616964.88885 | pgbench_branches |          1155072

 2017-02-09 06:09:25.95203+01 | 1486616965.95203 | pgbench_accounts |        694558720
 2017-02-09 06:09:25.95203+01 | 1486616965.95203 | pgbench_tellers  |           827392
 2017-02-09 06:09:25.95203+01 | 1486616965.95203 | pgbench_history  |         78561280
 2017-02-09 06:09:25.95203+01 | 1486616965.95203 | pgbench_branches |          1155072

 2017-02-09 06:09:27.026868+01 | 1486616967.02687 | pgbench_accounts |        694558720
 2017-02-09 06:09:27.026868+01 | 1486616967.02687 | pgbench_tellers  |           827392
 2017-02-09 06:09:27.026868+01 | 1486616967.02687 | pgbench_history  |         79306752
 2017-02-09 06:09:27.026868+01 | 1486616967.02687 | pgbench_branches |          1155072

 2017-02-09 06:09:28.081484+01 | 1486616968.08148 | pgbench_accounts |        694558720
 2017-02-09 06:09:28.081484+01 | 1486616968.08148 | pgbench_tellers  |           827392
 2017-02-09 06:09:28.081484+01 | 1486616968.08148 | pgbench_history  |         79306752
 2017-02-09 06:09:28.081484+01 | 1486616968.08148 | pgbench_branches |          1155072

 2017-02-09 06:09:29.142988+01 | 1486616969.14299 | pgbench_accounts |        694558720
 2017-02-09 06:09:29.142988+01 | 1486616969.14299 | pgbench_tellers  |           827392
 2017-02-09 06:09:29.142988+01 | 1486616969.14299 | pgbench_history  |         79691776
 2017-02-09 06:09:29.142988+01 | 1486616969.14299 | pgbench_branches |          1155072

 2017-02-09 06:09:30.220608+01 | 1486616970.22061 | pgbench_accounts |        694558720
 2017-02-09 06:09:30.220608+01 | 1486616970.22061 | pgbench_tellers  |           827392
 2017-02-09 06:09:30.220608+01 | 1486616970.22061 | pgbench_history  |         80035840
 2017-02-09 06:09:30.220608+01 | 1486616970.22061 | pgbench_branches |          1155072

 2017-02-09 06:09:31.285757+01 | 1486616971.28576 | pgbench_accounts |        694558720
 2017-02-09 06:09:31.285757+01 | 1486616971.28576 | pgbench_tellers  |           827392
 2017-02-09 06:09:31.285757+01 | 1486616971.28576 | pgbench_history  |         80470016
 2017-02-09 06:09:31.285757+01 | 1486616971.28576 | pgbench_branches |          1155072

 2017-02-09 06:09:32.345103+01 | 1486616972.3451 | pgbench_accounts |        694558720
 2017-02-09 06:09:32.345103+01 | 1486616972.3451 | pgbench_tellers  |           827392
 2017-02-09 06:09:32.345103+01 | 1486616972.3451 | pgbench_history  |         80879616
 2017-02-09 06:09:32.345103+01 | 1486616972.3451 | pgbench_branches |          1155072

 2017-02-09 06:09:33.398239+01 | 1486616973.39824 | pgbench_accounts |        694558720
 2017-02-09 06:09:33.398239+01 | 1486616973.39824 | pgbench_tellers  |           827392
 2017-02-09 06:09:33.398239+01 | 1486616973.39824 | pgbench_history  |         81330176
 2017-02-09 06:09:33.398239+01 | 1486616973.39824 | pgbench_branches |          1155072

 2017-02-09 06:09:34.467065+01 | 1486616974.46707 | pgbench_accounts |        694558720
 2017-02-09 06:09:34.467065+01 | 1486616974.46707 | pgbench_tellers  |           827392
 2017-02-09 06:09:34.467065+01 | 1486616974.46707 | pgbench_history  |         81764352
 2017-02-09 06:09:34.467065+01 | 1486616974.46707 | pgbench_branches |          1155072

 2017-02-09 06:09:35.522563+01 | 1486616975.52256 | pgbench_accounts |        694558720
 2017-02-09 06:09:35.522563+01 | 1486616975.52256 | pgbench_tellers  |           827392
 2017-02-09 06:09:35.522563+01 | 1486616975.52256 | pgbench_history  |         82182144
 2017-02-09 06:09:35.522563+01 | 1486616975.52256 | pgbench_branches |          1155072

 2017-02-09 06:09:36.600409+01 | 1486616976.60041 | pgbench_accounts |        694558720
 2017-02-09 06:09:36.600409+01 | 1486616976.60041 | pgbench_tellers  |           827392
 2017-02-09 06:09:36.600409+01 | 1486616976.60041 | pgbench_history  |         82624512
 2017-02-09 06:09:36.600409+01 | 1486616976.60041 | pgbench_branches |          1155072

 2017-02-09 06:09:37.670472+01 | 1486616977.67047 | pgbench_accounts |        694558720
 2017-02-09 06:09:37.670472+01 | 1486616977.67047 | pgbench_tellers  |           827392
 2017-02-09 06:09:37.670472+01 | 1486616977.67047 | pgbench_history  |         83042304
 2017-02-09 06:09:37.670472+01 | 1486616977.67047 | pgbench_branches |          1155072

 2017-02-09 06:09:38.736826+01 | 1486616978.73683 | pgbench_accounts |        694558720
 2017-02-09 06:09:38.736826+01 | 1486616978.73683 | pgbench_tellers  |           827392
 2017-02-09 06:09:38.736826+01 | 1486616978.73683 | pgbench_history  |         83566592
 2017-02-09 06:09:38.736826+01 | 1486616978.73683 | pgbench_branches |          1155072

 2017-02-09 06:09:39.81194+01 | 1486616979.81194 | pgbench_accounts |        694558720
 2017-02-09 06:09:39.81194+01 | 1486616979.81194 | pgbench_tellers  |           827392
 2017-02-09 06:09:39.81194+01 | 1486616979.81194 | pgbench_history  |         83894272
 2017-02-09 06:09:39.81194+01 | 1486616979.81194 | pgbench_branches |          1155072

 2017-02-09 06:09:40.87805+01 | 1486616980.87805 | pgbench_accounts |        694558720
 2017-02-09 06:09:40.87805+01 | 1486616980.87805 | pgbench_tellers  |           827392
 2017-02-09 06:09:40.87805+01 | 1486616980.87805 | pgbench_history  |         84353024
 2017-02-09 06:09:40.87805+01 | 1486616980.87805 | pgbench_branches |          1155072

 2017-02-09 06:09:41.940854+01 | 1486616981.94085 | pgbench_accounts |        694558720
 2017-02-09 06:09:41.940854+01 | 1486616981.94085 | pgbench_tellers  |           827392
 2017-02-09 06:09:41.940854+01 | 1486616981.94085 | pgbench_history  |         84770816
 2017-02-09 06:09:41.940854+01 | 1486616981.94085 | pgbench_branches |          1155072

 2017-02-09 06:09:42.997623+01 | 1486616982.99762 | pgbench_accounts |        694558720
 2017-02-09 06:09:42.997623+01 | 1486616982.99762 | pgbench_tellers  |           827392
 2017-02-09 06:09:42.997623+01 | 1486616982.99762 | pgbench_history  |         85196800
 2017-02-09 06:09:42.997623+01 | 1486616982.99762 | pgbench_branches |          1155072

 2017-02-09 06:09:44.055586+01 | 1486616984.05559 | pgbench_accounts |        694558720
 2017-02-09 06:09:44.055586+01 | 1486616984.05559 | pgbench_tellers  |           827392
 2017-02-09 06:09:44.055586+01 | 1486616984.05559 | pgbench_history  |         85614592
 2017-02-09 06:09:44.055586+01 | 1486616984.05559 | pgbench_branches |          1155072

 2017-02-09 06:09:45.114974+01 | 1486616985.11497 | pgbench_accounts |        694558720
 2017-02-09 06:09:45.114974+01 | 1486616985.11497 | pgbench_tellers  |           827392
 2017-02-09 06:09:45.114974+01 | 1486616985.11497 | pgbench_history  |         86048768
 2017-02-09 06:09:45.114974+01 | 1486616985.11497 | pgbench_branches |          1155072

 2017-02-09 06:09:46.176987+01 | 1486616986.17699 | pgbench_accounts |        694558720
 2017-02-09 06:09:46.176987+01 | 1486616986.17699 | pgbench_tellers  |           827392
 2017-02-09 06:09:46.176987+01 | 1486616986.17699 | pgbench_history  |         86474752
 2017-02-09 06:09:46.176987+01 | 1486616986.17699 | pgbench_branches |          1155072

 2017-02-09 06:09:47.241115+01 | 1486616987.24112 | pgbench_accounts |        694558720
 2017-02-09 06:09:47.241115+01 | 1486616987.24112 | pgbench_tellers  |           827392
 2017-02-09 06:09:47.241115+01 | 1486616987.24112 | pgbench_history  |         86884352
 2017-02-09 06:09:47.241115+01 | 1486616987.24112 | pgbench_branches |          1155072

 2017-02-09 06:09:48.306406+01 | 1486616988.30641 | pgbench_accounts |        694558720
 2017-02-09 06:09:48.306406+01 | 1486616988.30641 | pgbench_tellers  |           827392
 2017-02-09 06:09:48.306406+01 | 1486616988.30641 | pgbench_history  |         87334912
 2017-02-09 06:09:48.306406+01 | 1486616988.30641 | pgbench_branches |          1155072

 2017-02-09 06:09:49.363176+01 | 1486616989.36318 | pgbench_accounts |        694558720
 2017-02-09 06:09:49.363176+01 | 1486616989.36318 | pgbench_tellers  |           827392
 2017-02-09 06:09:49.363176+01 | 1486616989.36318 | pgbench_history  |         87752704
 2017-02-09 06:09:49.363176+01 | 1486616989.36318 | pgbench_branches |          1155072

 2017-02-09 06:09:50.424418+01 | 1486616990.42442 | pgbench_accounts |        694558720
 2017-02-09 06:09:50.424418+01 | 1486616990.42442 | pgbench_tellers  |           827392
 2017-02-09 06:09:50.424418+01 | 1486616990.42442 | pgbench_history  |         88186880
 2017-02-09 06:09:50.424418+01 | 1486616990.42442 | pgbench_branches |          1155072

 2017-02-09 06:09:51.490312+01 | 1486616991.49031 | pgbench_accounts |        694558720
 2017-02-09 06:09:51.490312+01 | 1486616991.49031 | pgbench_tellers  |           827392
 2017-02-09 06:09:51.490312+01 | 1486616991.49031 | pgbench_history  |         88604672
 2017-02-09 06:09:51.490312+01 | 1486616991.49031 | pgbench_branches |          1155072

 2017-02-09 06:09:52.549928+01 | 1486616992.54993 | pgbench_accounts |        694558720
 2017-02-09 06:09:52.549928+01 | 1486616992.54993 | pgbench_tellers  |           827392
 2017-02-09 06:09:52.549928+01 | 1486616992.54993 | pgbench_history  |         89030656
 2017-02-09 06:09:52.549928+01 | 1486616992.54993 | pgbench_branches |          1155072

 2017-02-09 06:09:53.610551+01 | 1486616993.61055 | pgbench_accounts |        694558720
 2017-02-09 06:09:53.610551+01 | 1486616993.61055 | pgbench_tellers  |           827392
 2017-02-09 06:09:53.610551+01 | 1486616993.61055 | pgbench_history  |         89448448
 2017-02-09 06:09:53.610551+01 | 1486616993.61055 | pgbench_branches |          1155072

 2017-02-09 06:09:54.674623+01 | 1486616994.67462 | pgbench_accounts |        694558720
 2017-02-09 06:09:54.674623+01 | 1486616994.67462 | pgbench_tellers  |           827392
 2017-02-09 06:09:54.674623+01 | 1486616994.67462 | pgbench_history  |         89874432
 2017-02-09 06:09:54.674623+01 | 1486616994.67462 | pgbench_branches |          1155072

 2017-02-09 06:09:55.737695+01 | 1486616995.73769 | pgbench_accounts |        694558720
 2017-02-09 06:09:55.737695+01 | 1486616995.73769 | pgbench_tellers  |           827392
 2017-02-09 06:09:55.737695+01 | 1486616995.73769 | pgbench_history  |         90300416
 2017-02-09 06:09:55.737695+01 | 1486616995.73769 | pgbench_branches |          1155072

 2017-02-09 06:09:56.795822+01 | 1486616996.79582 | pgbench_accounts |        694558720
 2017-02-09 06:09:56.795822+01 | 1486616996.79582 | pgbench_tellers  |           827392
 2017-02-09 06:09:56.795822+01 | 1486616996.79582 | pgbench_history  |         90734592
 2017-02-09 06:09:56.795822+01 | 1486616996.79582 | pgbench_branches |          1155072

 2017-02-09 06:09:57.858492+01 | 1486616997.85849 | pgbench_accounts |        694558720
 2017-02-09 06:09:57.858492+01 | 1486616997.85849 | pgbench_tellers  |           827392
 2017-02-09 06:09:57.858492+01 | 1486616997.85849 | pgbench_history  |         91144192
 2017-02-09 06:09:57.858492+01 | 1486616997.85849 | pgbench_branches |          1155072

 2017-02-09 06:09:58.929984+01 | 1486616998.92998 | pgbench_accounts |        694558720
 2017-02-09 06:09:58.929984+01 | 1486616998.92998 | pgbench_tellers  |           827392
 2017-02-09 06:09:58.929984+01 | 1486616998.92998 | pgbench_history  |         91586560
 2017-02-09 06:09:58.929984+01 | 1486616998.92998 | pgbench_branches |          1155072

 2017-02-09 06:09:59.990885+01 | 1486616999.99089 | pgbench_accounts |        694558720
 2017-02-09 06:09:59.990885+01 | 1486616999.99089 | pgbench_tellers  |           827392
 2017-02-09 06:09:59.990885+01 | 1486616999.99089 | pgbench_history  |         92004352
 2017-02-09 06:09:59.990885+01 | 1486616999.99089 | pgbench_branches |          1155072

 2017-02-09 06:10:01.048223+01 | 1486617001.04822 | pgbench_accounts |        694558720
 2017-02-09 06:10:01.048223+01 | 1486617001.04822 | pgbench_tellers  |           827392
 2017-02-09 06:10:01.048223+01 | 1486617001.04822 | pgbench_history  |         92438528
 2017-02-09 06:10:01.048223+01 | 1486617001.04822 | pgbench_branches |          1155072

 2017-02-09 06:10:02.121859+01 | 1486617002.12186 | pgbench_accounts |        694558720
 2017-02-09 06:10:02.121859+01 | 1486617002.12186 | pgbench_tellers  |           827392
 2017-02-09 06:10:02.121859+01 | 1486617002.12186 | pgbench_history  |         92856320
 2017-02-09 06:10:02.121859+01 | 1486617002.12186 | pgbench_branches |          1155072

 2017-02-09 06:10:03.194843+01 | 1486617003.19484 | pgbench_accounts |        694558720
 2017-02-09 06:10:03.194843+01 | 1486617003.19484 | pgbench_tellers  |           827392
 2017-02-09 06:10:03.194843+01 | 1486617003.19484 | pgbench_history  |         93298688
 2017-02-09 06:10:03.194843+01 | 1486617003.19484 | pgbench_branches |          1155072

 2017-02-09 06:10:04.257524+01 | 1486617004.25752 | pgbench_accounts |        694558720
 2017-02-09 06:10:04.257524+01 | 1486617004.25752 | pgbench_tellers  |           827392
 2017-02-09 06:10:04.257524+01 | 1486617004.25752 | pgbench_history  |         93716480
 2017-02-09 06:10:04.257524+01 | 1486617004.25752 | pgbench_branches |          1155072

 2017-02-09 06:10:05.322532+01 | 1486617005.32253 | pgbench_accounts |        694558720
 2017-02-09 06:10:05.322532+01 | 1486617005.32253 | pgbench_tellers  |           827392
 2017-02-09 06:10:05.322532+01 | 1486617005.32253 | pgbench_history  |         94150656
 2017-02-09 06:10:05.322532+01 | 1486617005.32253 | pgbench_branches |          1155072

 2017-02-09 06:10:06.397575+01 | 1486617006.39757 | pgbench_accounts |        694558720
 2017-02-09 06:10:06.397575+01 | 1486617006.39757 | pgbench_tellers  |           827392
 2017-02-09 06:10:06.397575+01 | 1486617006.39757 | pgbench_history  |         94576640
 2017-02-09 06:10:06.397575+01 | 1486617006.39757 | pgbench_branches |          1155072

 2017-02-09 06:10:07.458269+01 | 1486617007.45827 | pgbench_accounts |        694558720
 2017-02-09 06:10:07.458269+01 | 1486617007.45827 | pgbench_tellers  |           827392
 2017-02-09 06:10:07.458269+01 | 1486617007.45827 | pgbench_history  |         95002624
 2017-02-09 06:10:07.458269+01 | 1486617007.45827 | pgbench_branches |          1155072

 2017-02-09 06:10:08.525162+01 | 1486617008.52516 | pgbench_accounts |        694558720
 2017-02-09 06:10:08.525162+01 | 1486617008.52516 | pgbench_tellers  |           827392
 2017-02-09 06:10:08.525162+01 | 1486617008.52516 | pgbench_history  |         95428608
 2017-02-09 06:10:08.525162+01 | 1486617008.52516 | pgbench_branches |          1155072

 2017-02-09 06:10:09.589378+01 | 1486617009.58938 | pgbench_accounts |        694558720
 2017-02-09 06:10:09.589378+01 | 1486617009.58938 | pgbench_tellers  |           827392
 2017-02-09 06:10:09.589378+01 | 1486617009.58938 | pgbench_history  |         95854592
 2017-02-09 06:10:09.589378+01 | 1486617009.58938 | pgbench_branches |          1155072

 2017-02-09 06:10:10.655246+01 | 1486617010.65525 | pgbench_accounts |        694558720
 2017-02-09 06:10:10.655246+01 | 1486617010.65525 | pgbench_tellers  |           827392
 2017-02-09 06:10:10.655246+01 | 1486617010.65525 | pgbench_history  |         96280576
 2017-02-09 06:10:10.655246+01 | 1486617010.65525 | pgbench_branches |          1155072

 2017-02-09 06:10:11.715845+01 | 1486617011.71585 | pgbench_accounts |        694558720
 2017-02-09 06:10:11.715845+01 | 1486617011.71585 | pgbench_tellers  |           827392
 2017-02-09 06:10:11.715845+01 | 1486617011.71585 | pgbench_history  |         96698368
 2017-02-09 06:10:11.715845+01 | 1486617011.71585 | pgbench_branches |          1155072

 2017-02-09 06:10:12.777077+01 | 1486617012.77708 | pgbench_accounts |        694558720
 2017-02-09 06:10:12.777077+01 | 1486617012.77708 | pgbench_tellers  |           827392
 2017-02-09 06:10:12.777077+01 | 1486617012.77708 | pgbench_history  |         97132544
 2017-02-09 06:10:12.777077+01 | 1486617012.77708 | pgbench_branches |          1155072

 2017-02-09 06:10:13.835363+01 | 1486617013.83536 | pgbench_accounts |        694558720
 2017-02-09 06:10:13.835363+01 | 1486617013.83536 | pgbench_tellers  |           827392
 2017-02-09 06:10:13.835363+01 | 1486617013.83536 | pgbench_history  |         97550336
 2017-02-09 06:10:13.835363+01 | 1486617013.83536 | pgbench_branches |          1155072

 2017-02-09 06:10:14.897631+01 | 1486617014.89763 | pgbench_accounts |        694558720
 2017-02-09 06:10:14.897631+01 | 1486617014.89763 | pgbench_tellers  |           827392
 2017-02-09 06:10:14.897631+01 | 1486617014.89763 | pgbench_history  |         97984512
 2017-02-09 06:10:14.897631+01 | 1486617014.89763 | pgbench_branches |          1155072

 2017-02-09 06:10:15.966967+01 | 1486617015.96697 | pgbench_accounts |        694558720
 2017-02-09 06:10:15.966967+01 | 1486617015.96697 | pgbench_tellers  |           827392
 2017-02-09 06:10:15.966967+01 | 1486617015.96697 | pgbench_history  |         98402304
 2017-02-09 06:10:15.966967+01 | 1486617015.96697 | pgbench_branches |          1155072

 2017-02-09 06:10:17.022571+01 | 1486617017.02257 | pgbench_accounts |        694558720
 2017-02-09 06:10:17.022571+01 | 1486617017.02257 | pgbench_tellers  |           827392
 2017-02-09 06:10:17.022571+01 | 1486617017.02257 | pgbench_history  |         98828288
 2017-02-09 06:10:17.022571+01 | 1486617017.02257 | pgbench_branches |          1155072

 2017-02-09 06:10:18.084024+01 | 1486617018.08402 | pgbench_accounts |        694558720
 2017-02-09 06:10:18.084024+01 | 1486617018.08402 | pgbench_tellers  |           827392
 2017-02-09 06:10:18.084024+01 | 1486617018.08402 | pgbench_history  |         99246080
 2017-02-09 06:10:18.084024+01 | 1486617018.08402 | pgbench_branches |          1155072

 2017-02-09 06:10:19.14194+01 | 1486617019.14194 | pgbench_accounts |        694558720
 2017-02-09 06:10:19.14194+01 | 1486617019.14194 | pgbench_tellers  |           827392
 2017-02-09 06:10:19.14194+01 | 1486617019.14194 | pgbench_history  |         99663872
 2017-02-09 06:10:19.14194+01 | 1486617019.14194 | pgbench_branches |          1155072

 2017-02-09 06:10:20.206682+01 | 1486617020.20668 | pgbench_accounts |        694558720
 2017-02-09 06:10:20.206682+01 | 1486617020.20668 | pgbench_tellers  |           827392
 2017-02-09 06:10:20.206682+01 | 1486617020.20668 | pgbench_history  |        100098048
 2017-02-09 06:10:20.206682+01 | 1486617020.20668 | pgbench_branches |          1155072

 2017-02-09 06:10:21.271853+01 | 1486617021.27185 | pgbench_accounts |        694558720
 2017-02-09 06:10:21.271853+01 | 1486617021.27185 | pgbench_tellers  |           827392
 2017-02-09 06:10:21.271853+01 | 1486617021.27185 | pgbench_history  |        100524032
 2017-02-09 06:10:21.271853+01 | 1486617021.27185 | pgbench_branches |          1155072

 2017-02-09 06:10:22.335204+01 | 1486617022.3352 | pgbench_accounts |        694558720
 2017-02-09 06:10:22.335204+01 | 1486617022.3352 | pgbench_tellers  |           827392
 2017-02-09 06:10:22.335204+01 | 1486617022.3352 | pgbench_history  |        100950016
 2017-02-09 06:10:22.335204+01 | 1486617022.3352 | pgbench_branches |          1155072

 2017-02-09 06:10:23.395357+01 | 1486617023.39536 | pgbench_accounts |        694558720
 2017-02-09 06:10:23.395357+01 | 1486617023.39536 | pgbench_tellers  |           827392
 2017-02-09 06:10:23.395357+01 | 1486617023.39536 | pgbench_history  |        101376000
 2017-02-09 06:10:23.395357+01 | 1486617023.39536 | pgbench_branches |          1155072

 2017-02-09 06:10:24.459616+01 | 1486617024.45962 | pgbench_accounts |        694558720
 2017-02-09 06:10:24.459616+01 | 1486617024.45962 | pgbench_tellers  |           827392
 2017-02-09 06:10:24.459616+01 | 1486617024.45962 | pgbench_history  |        101801984
 2017-02-09 06:10:24.459616+01 | 1486617024.45962 | pgbench_branches |          1155072

 2017-02-09 06:10:25.51733+01 | 1486617025.51733 | pgbench_accounts |        694558720
 2017-02-09 06:10:25.51733+01 | 1486617025.51733 | pgbench_tellers  |           827392
 2017-02-09 06:10:25.51733+01 | 1486617025.51733 | pgbench_history  |        102227968
 2017-02-09 06:10:25.51733+01 | 1486617025.51733 | pgbench_branches |          1155072

 2017-02-09 06:10:26.576896+01 | 1486617026.5769 | pgbench_accounts |        694558720
 2017-02-09 06:10:26.576896+01 | 1486617026.5769 | pgbench_tellers  |           827392
 2017-02-09 06:10:26.576896+01 | 1486617026.5769 | pgbench_history  |        102637568
 2017-02-09 06:10:26.576896+01 | 1486617026.5769 | pgbench_branches |          1155072

 2017-02-09 06:10:27.656293+01 | 1486617027.65629 | pgbench_accounts |        694558720
 2017-02-09 06:10:27.656293+01 | 1486617027.65629 | pgbench_tellers  |           827392
 2017-02-09 06:10:27.656293+01 | 1486617027.65629 | pgbench_history  |        103038976
 2017-02-09 06:10:27.656293+01 | 1486617027.65629 | pgbench_branches |          1155072

 2017-02-09 06:10:28.715502+01 | 1486617028.7155 | pgbench_accounts |        694558720
 2017-02-09 06:10:28.715502+01 | 1486617028.7155 | pgbench_tellers  |           827392
 2017-02-09 06:10:28.715502+01 | 1486617028.7155 | pgbench_history  |        103432192
 2017-02-09 06:10:28.715502+01 | 1486617028.7155 | pgbench_branches |          1155072

 2017-02-09 06:10:29.785845+01 | 1486617029.78585 | pgbench_accounts |        694558720
 2017-02-09 06:10:29.785845+01 | 1486617029.78585 | pgbench_tellers  |           827392
 2017-02-09 06:10:29.785845+01 | 1486617029.78585 | pgbench_history  |        103841792
 2017-02-09 06:10:29.785845+01 | 1486617029.78585 | pgbench_branches |          1155072

 2017-02-09 06:10:30.847789+01 | 1486617030.84779 | pgbench_accounts |        694558720
 2017-02-09 06:10:30.847789+01 | 1486617030.84779 | pgbench_tellers  |           827392
 2017-02-09 06:10:30.847789+01 | 1486617030.84779 | pgbench_history  |        104251392
 2017-02-09 06:10:30.847789+01 | 1486617030.84779 | pgbench_branches |          1155072

 2017-02-09 06:10:31.919963+01 | 1486617031.91996 | pgbench_accounts |        694558720
 2017-02-09 06:10:31.919963+01 | 1486617031.91996 | pgbench_tellers  |           827392
 2017-02-09 06:10:31.919963+01 | 1486617031.91996 | pgbench_history  |        104693760
 2017-02-09 06:10:31.919963+01 | 1486617031.91996 | pgbench_branches |          1155072

 2017-02-09 06:10:32.984612+01 | 1486617032.98461 | pgbench_accounts |        694558720
 2017-02-09 06:10:32.984612+01 | 1486617032.98461 | pgbench_tellers  |           827392
 2017-02-09 06:10:32.984612+01 | 1486617032.98461 | pgbench_history  |        105136128
 2017-02-09 06:10:32.984612+01 | 1486617032.98461 | pgbench_branches |          1155072

 2017-02-09 06:10:34.056225+01 | 1486617034.05623 | pgbench_accounts |        694558720
 2017-02-09 06:10:34.056225+01 | 1486617034.05623 | pgbench_tellers  |           827392
 2017-02-09 06:10:34.056225+01 | 1486617034.05623 | pgbench_history  |        105545728
 2017-02-09 06:10:34.056225+01 | 1486617034.05623 | pgbench_branches |          1155072

 2017-02-09 06:10:35.131441+01 | 1486617035.13144 | pgbench_accounts |        694558720
 2017-02-09 06:10:35.131441+01 | 1486617035.13144 | pgbench_tellers  |           827392
 2017-02-09 06:10:35.131441+01 | 1486617035.13144 | pgbench_history  |        106004480
 2017-02-09 06:10:35.131441+01 | 1486617035.13144 | pgbench_branches |          1155072

 2017-02-09 06:10:36.197553+01 | 1486617036.19755 | pgbench_accounts |        694558720
 2017-02-09 06:10:36.197553+01 | 1486617036.19755 | pgbench_tellers  |           827392
 2017-02-09 06:10:36.197553+01 | 1486617036.19755 | pgbench_history  |        106405888
 2017-02-09 06:10:36.197553+01 | 1486617036.19755 | pgbench_branches |          1155072

 2017-02-09 06:10:37.262772+01 | 1486617037.26277 | pgbench_accounts |        694558720
 2017-02-09 06:10:37.262772+01 | 1486617037.26277 | pgbench_tellers  |           827392
 2017-02-09 06:10:37.262772+01 | 1486617037.26277 | pgbench_history  |        106856448
 2017-02-09 06:10:37.262772+01 | 1486617037.26277 | pgbench_branches |          1155072

 2017-02-09 06:10:38.329373+01 | 1486617038.32937 | pgbench_accounts |        694558720
 2017-02-09 06:10:38.329373+01 | 1486617038.32937 | pgbench_tellers  |           827392
 2017-02-09 06:10:38.329373+01 | 1486617038.32937 | pgbench_history  |        107282432
 2017-02-09 06:10:38.329373+01 | 1486617038.32937 | pgbench_branches |          1155072

 2017-02-09 06:10:39.393417+01 | 1486617039.39342 | pgbench_accounts |        694558720
 2017-02-09 06:10:39.393417+01 | 1486617039.39342 | pgbench_tellers  |           827392
 2017-02-09 06:10:39.393417+01 | 1486617039.39342 | pgbench_history  |        107782144
 2017-02-09 06:10:39.393417+01 | 1486617039.39342 | pgbench_branches |          1155072

 2017-02-09 06:10:40.453063+01 | 1486617040.45306 | pgbench_accounts |        694558720
 2017-02-09 06:10:40.453063+01 | 1486617040.45306 | pgbench_tellers  |           827392
 2017-02-09 06:10:40.453063+01 | 1486617040.45306 | pgbench_history  |        108199936
 2017-02-09 06:10:40.453063+01 | 1486617040.45306 | pgbench_branches |          1155072

 2017-02-09 06:10:41.524907+01 | 1486617041.52491 | pgbench_accounts |        694558720
 2017-02-09 06:10:41.524907+01 | 1486617041.52491 | pgbench_tellers  |           827392
 2017-02-09 06:10:41.524907+01 | 1486617041.52491 | pgbench_history  |        108593152
 2017-02-09 06:10:41.524907+01 | 1486617041.52491 | pgbench_branches |          1155072

 2017-02-09 06:10:42.602367+01 | 1486617042.60237 | pgbench_accounts |        694558720
 2017-02-09 06:10:42.602367+01 | 1486617042.60237 | pgbench_tellers  |           827392
 2017-02-09 06:10:42.602367+01 | 1486617042.60237 | pgbench_history  |        109002752
 2017-02-09 06:10:42.602367+01 | 1486617042.60237 | pgbench_branches |          1155072

 2017-02-09 06:10:43.662007+01 | 1486617043.66201 | pgbench_accounts |        694558720
 2017-02-09 06:10:43.662007+01 | 1486617043.66201 | pgbench_tellers  |           827392
 2017-02-09 06:10:43.662007+01 | 1486617043.66201 | pgbench_history  |        109445120
 2017-02-09 06:10:43.662007+01 | 1486617043.66201 | pgbench_branches |          1155072

 2017-02-09 06:10:44.725332+01 | 1486617044.72533 | pgbench_accounts |        694558720
 2017-02-09 06:10:44.725332+01 | 1486617044.72533 | pgbench_tellers  |           827392
 2017-02-09 06:10:44.725332+01 | 1486617044.72533 | pgbench_history  |        109838336
 2017-02-09 06:10:44.725332+01 | 1486617044.72533 | pgbench_branches |          1155072

 2017-02-09 06:10:45.784285+01 | 1486617045.78429 | pgbench_accounts |        694558720
 2017-02-09 06:10:45.784285+01 | 1486617045.78429 | pgbench_tellers  |           827392
 2017-02-09 06:10:45.784285+01 | 1486617045.78429 | pgbench_history  |        110297088
 2017-02-09 06:10:45.784285+01 | 1486617045.78429 | pgbench_branches |          1155072

 2017-02-09 06:10:46.843258+01 | 1486617046.84326 | pgbench_accounts |        694558720
 2017-02-09 06:10:46.843258+01 | 1486617046.84326 | pgbench_tellers  |           827392
 2017-02-09 06:10:46.843258+01 | 1486617046.84326 | pgbench_history  |        110706688
 2017-02-09 06:10:46.843258+01 | 1486617046.84326 | pgbench_branches |          1155072

 2017-02-09 06:10:47.906463+01 | 1486617047.90646 | pgbench_accounts |        694558720
 2017-02-09 06:10:47.906463+01 | 1486617047.90646 | pgbench_tellers  |           827392
 2017-02-09 06:10:47.906463+01 | 1486617047.90646 | pgbench_history  |        111132672
 2017-02-09 06:10:47.906463+01 | 1486617047.90646 | pgbench_branches |          1155072

 2017-02-09 06:10:48.964946+01 | 1486617048.96495 | pgbench_accounts |        694558720
 2017-02-09 06:10:48.964946+01 | 1486617048.96495 | pgbench_tellers  |           827392
 2017-02-09 06:10:48.964946+01 | 1486617048.96495 | pgbench_history  |        111550464
 2017-02-09 06:10:48.964946+01 | 1486617048.96495 | pgbench_branches |          1155072

 2017-02-09 06:10:50.026967+01 | 1486617050.02697 | pgbench_accounts |        694558720
 2017-02-09 06:10:50.026967+01 | 1486617050.02697 | pgbench_tellers  |           827392
 2017-02-09 06:10:50.026967+01 | 1486617050.02697 | pgbench_history  |        111984640
 2017-02-09 06:10:50.026967+01 | 1486617050.02697 | pgbench_branches |          1155072

 2017-02-09 06:10:51.089817+01 | 1486617051.08982 | pgbench_accounts |        694558720
 2017-02-09 06:10:51.089817+01 | 1486617051.08982 | pgbench_tellers  |           827392
 2017-02-09 06:10:51.089817+01 | 1486617051.08982 | pgbench_history  |        112410624
 2017-02-09 06:10:51.089817+01 | 1486617051.08982 | pgbench_branches |          1155072

 2017-02-09 06:10:52.160243+01 | 1486617052.16024 | pgbench_accounts |        694558720
 2017-02-09 06:10:52.160243+01 | 1486617052.16024 | pgbench_tellers  |           827392
 2017-02-09 06:10:52.160243+01 | 1486617052.16024 | pgbench_history  |        112820224
 2017-02-09 06:10:52.160243+01 | 1486617052.16024 | pgbench_branches |          1155072

 2017-02-09 06:10:53.23326+01 | 1486617053.23326 | pgbench_accounts |        694558720
 2017-02-09 06:10:53.23326+01 | 1486617053.23326 | pgbench_tellers  |           827392
 2017-02-09 06:10:53.23326+01 | 1486617053.23326 | pgbench_history  |        113262592
 2017-02-09 06:10:53.23326+01 | 1486617053.23326 | pgbench_branches |          1155072

 2017-02-09 06:10:54.302405+01 | 1486617054.30241 | pgbench_accounts |        694558720
 2017-02-09 06:10:54.302405+01 | 1486617054.30241 | pgbench_tellers  |           827392
 2017-02-09 06:10:54.302405+01 | 1486617054.30241 | pgbench_history  |        113688576
 2017-02-09 06:10:54.302405+01 | 1486617054.30241 | pgbench_branches |          1155072

 2017-02-09 06:10:55.367091+01 | 1486617055.36709 | pgbench_accounts |        694558720
 2017-02-09 06:10:55.367091+01 | 1486617055.36709 | pgbench_tellers  |           827392
 2017-02-09 06:10:55.367091+01 | 1486617055.36709 | pgbench_history  |        114114560
 2017-02-09 06:10:55.367091+01 | 1486617055.36709 | pgbench_branches |          1155072

 2017-02-09 06:10:56.435895+01 | 1486617056.43589 | pgbench_accounts |        694558720
 2017-02-09 06:10:56.435895+01 | 1486617056.43589 | pgbench_tellers  |           827392
 2017-02-09 06:10:56.435895+01 | 1486617056.43589 | pgbench_history  |        114556928
 2017-02-09 06:10:56.435895+01 | 1486617056.43589 | pgbench_branches |          1155072

 2017-02-09 06:10:57.504543+01 | 1486617057.50454 | pgbench_accounts |        694558720
 2017-02-09 06:10:57.504543+01 | 1486617057.50454 | pgbench_tellers  |           827392
 2017-02-09 06:10:57.504543+01 | 1486617057.50454 | pgbench_history  |        114974720
 2017-02-09 06:10:57.504543+01 | 1486617057.50454 | pgbench_branches |          1155072

 2017-02-09 06:10:58.567762+01 | 1486617058.56776 | pgbench_accounts |        694558720
 2017-02-09 06:10:58.567762+01 | 1486617058.56776 | pgbench_tellers  |           827392
 2017-02-09 06:10:58.567762+01 | 1486617058.56776 | pgbench_history  |        115408896
 2017-02-09 06:10:58.567762+01 | 1486617058.56776 | pgbench_branches |          1155072

 2017-02-09 06:10:59.627189+01 | 1486617059.62719 | pgbench_accounts |        694558720
 2017-02-09 06:10:59.627189+01 | 1486617059.62719 | pgbench_tellers  |           827392
 2017-02-09 06:10:59.627189+01 | 1486617059.62719 | pgbench_history  |        115826688
 2017-02-09 06:10:59.627189+01 | 1486617059.62719 | pgbench_branches |          1155072

 2017-02-09 06:11:00.698847+01 | 1486617060.69885 | pgbench_accounts |        694558720
 2017-02-09 06:11:00.698847+01 | 1486617060.69885 | pgbench_tellers  |           827392
 2017-02-09 06:11:00.698847+01 | 1486617060.69885 | pgbench_history  |        116244480
 2017-02-09 06:11:00.698847+01 | 1486617060.69885 | pgbench_branches |          1155072

 2017-02-09 06:11:01.760358+01 | 1486617061.76036 | pgbench_accounts |        694558720
 2017-02-09 06:11:01.760358+01 | 1486617061.76036 | pgbench_tellers  |           827392
 2017-02-09 06:11:01.760358+01 | 1486617061.76036 | pgbench_history  |        116678656
 2017-02-09 06:11:01.760358+01 | 1486617061.76036 | pgbench_branches |          1155072

 2017-02-09 06:11:02.829406+01 | 1486617062.82941 | pgbench_accounts |        694558720
 2017-02-09 06:11:02.829406+01 | 1486617062.82941 | pgbench_tellers  |           827392
 2017-02-09 06:11:02.829406+01 | 1486617062.82941 | pgbench_history  |        117088256
 2017-02-09 06:11:02.829406+01 | 1486617062.82941 | pgbench_branches |          1155072

 2017-02-09 06:11:03.888062+01 | 1486617063.88806 | pgbench_accounts |        694558720
 2017-02-09 06:11:03.888062+01 | 1486617063.88806 | pgbench_tellers  |           827392
 2017-02-09 06:11:03.888062+01 | 1486617063.88806 | pgbench_history  |        117530624
 2017-02-09 06:11:03.888062+01 | 1486617063.88806 | pgbench_branches |          1155072

 2017-02-09 06:11:04.96033+01 | 1486617064.96033 | pgbench_accounts |        694558720
 2017-02-09 06:11:04.96033+01 | 1486617064.96033 | pgbench_tellers  |           827392
 2017-02-09 06:11:04.96033+01 | 1486617064.96033 | pgbench_history  |        117940224
 2017-02-09 06:11:04.96033+01 | 1486617064.96033 | pgbench_branches |          1155072

 2017-02-09 06:11:06.017648+01 | 1486617066.01765 | pgbench_accounts |        694558720
 2017-02-09 06:11:06.017648+01 | 1486617066.01765 | pgbench_tellers  |           827392
 2017-02-09 06:11:06.017648+01 | 1486617066.01765 | pgbench_history  |        118390784
 2017-02-09 06:11:06.017648+01 | 1486617066.01765 | pgbench_branches |          1155072

 2017-02-09 06:11:07.090925+01 | 1486617067.09092 | pgbench_accounts |        694558720
 2017-02-09 06:11:07.090925+01 | 1486617067.09092 | pgbench_tellers  |           827392
 2017-02-09 06:11:07.090925+01 | 1486617067.09092 | pgbench_history  |        118792192
 2017-02-09 06:11:07.090925+01 | 1486617067.09092 | pgbench_branches |          1155072

 2017-02-09 06:11:08.152605+01 | 1486617068.15261 | pgbench_accounts |        694558720
 2017-02-09 06:11:08.152605+01 | 1486617068.15261 | pgbench_tellers  |           827392
 2017-02-09 06:11:08.152605+01 | 1486617068.15261 | pgbench_history  |        119234560
 2017-02-09 06:11:08.152605+01 | 1486617068.15261 | pgbench_branches |          1155072

