 2017-02-10 15:01:15.811486+01 | 1486735275.81149 | pgbench_branches_pkey |            16384
 2017-02-10 15:01:15.811486+01 | 1486735275.81149 | pgbench_tellers_pkey  |            90112
 2017-02-10 15:01:15.811486+01 | 1486735275.81149 | pgbench_accounts_pkey |        690102272

 2017-02-10 15:01:16.862566+01 | 1486735276.86257 | pgbench_branches_pkey |            16384
 2017-02-10 15:01:16.862566+01 | 1486735276.86257 | pgbench_tellers_pkey  |            90112
 2017-02-10 15:01:16.862566+01 | 1486735276.86257 | pgbench_accounts_pkey |        690102272

 2017-02-10 15:01:17.915746+01 | 1486735277.91575 | pgbench_branches_pkey |            16384
 2017-02-10 15:01:17.915746+01 | 1486735277.91575 | pgbench_tellers_pkey  |            90112
 2017-02-10 15:01:17.915746+01 | 1486735277.91575 | pgbench_accounts_pkey |        690102272

 2017-02-10 15:01:18.971838+01 | 1486735278.97184 | pgbench_branches_pkey |            16384
 2017-02-10 15:01:18.971838+01 | 1486735278.97184 | pgbench_tellers_pkey  |            90112
 2017-02-10 15:01:18.971838+01 | 1486735278.97184 | pgbench_accounts_pkey |        690102272

 2017-02-10 15:01:20.02429+01 | 1486735280.02429 | pgbench_branches_pkey |            16384
 2017-02-10 15:01:20.02429+01 | 1486735280.02429 | pgbench_tellers_pkey  |            90112
 2017-02-10 15:01:20.02429+01 | 1486735280.02429 | pgbench_accounts_pkey |        690102272

 2017-02-10 15:01:21.079199+01 | 1486735281.0792 | pgbench_branches_pkey |            16384
 2017-02-10 15:01:21.079199+01 | 1486735281.0792 | pgbench_tellers_pkey  |            90112
 2017-02-10 15:01:21.079199+01 | 1486735281.0792 | pgbench_accounts_pkey |        690102272

 2017-02-10 15:01:22.129203+01 | 1486735282.1292 | pgbench_branches_pkey |            16384
 2017-02-10 15:01:22.129203+01 | 1486735282.1292 | pgbench_tellers_pkey  |            90112
 2017-02-10 15:01:22.129203+01 | 1486735282.1292 | pgbench_accounts_pkey |        690102272

 2017-02-10 15:01:23.181455+01 | 1486735283.18145 | pgbench_branches_pkey |            16384
 2017-02-10 15:01:23.181455+01 | 1486735283.18145 | pgbench_tellers_pkey  |            90112
 2017-02-10 15:01:23.181455+01 | 1486735283.18145 | pgbench_accounts_pkey |        690102272

 2017-02-10 15:01:24.233383+01 | 1486735284.23338 | pgbench_branches_pkey |            16384
 2017-02-10 15:01:24.233383+01 | 1486735284.23338 | pgbench_tellers_pkey  |            90112
 2017-02-10 15:01:24.233383+01 | 1486735284.23338 | pgbench_accounts_pkey |        690102272

 2017-02-10 15:01:25.283967+01 | 1486735285.28397 | pgbench_branches_pkey |            16384
 2017-02-10 15:01:25.283967+01 | 1486735285.28397 | pgbench_tellers_pkey  |            90112
 2017-02-10 15:01:25.283967+01 | 1486735285.28397 | pgbench_accounts_pkey |        690102272

 2017-02-10 15:01:26.33542+01 | 1486735286.33542 | pgbench_branches_pkey |            16384
 2017-02-10 15:01:26.33542+01 | 1486735286.33542 | pgbench_tellers_pkey  |            90112
 2017-02-10 15:01:26.33542+01 | 1486735286.33542 | pgbench_accounts_pkey |        690102272

 2017-02-10 15:01:27.38552+01 | 1486735287.38552 | pgbench_branches_pkey |            16384
 2017-02-10 15:01:27.38552+01 | 1486735287.38552 | pgbench_tellers_pkey  |            90112
 2017-02-10 15:01:27.38552+01 | 1486735287.38552 | pgbench_accounts_pkey |        690102272

 2017-02-10 15:01:28.436336+01 | 1486735288.43634 | pgbench_branches_pkey |            16384
 2017-02-10 15:01:28.436336+01 | 1486735288.43634 | pgbench_tellers_pkey  |            90112
 2017-02-10 15:01:28.436336+01 | 1486735288.43634 | pgbench_accounts_pkey |        690102272

 2017-02-10 15:01:29.489354+01 | 1486735289.48935 | pgbench_branches_pkey |            16384
 2017-02-10 15:01:29.489354+01 | 1486735289.48935 | pgbench_tellers_pkey  |            90112
 2017-02-10 15:01:29.489354+01 | 1486735289.48935 | pgbench_accounts_pkey |        690102272

 2017-02-10 15:01:30.541428+01 | 1486735290.54143 | pgbench_branches_pkey |            16384
 2017-02-10 15:01:30.541428+01 | 1486735290.54143 | pgbench_tellers_pkey  |            90112
 2017-02-10 15:01:30.541428+01 | 1486735290.54143 | pgbench_accounts_pkey |        690102272

 2017-02-10 15:01:31.593066+01 | 1486735291.59307 | pgbench_branches_pkey |            16384
 2017-02-10 15:01:31.593066+01 | 1486735291.59307 | pgbench_tellers_pkey  |            90112
 2017-02-10 15:01:31.593066+01 | 1486735291.59307 | pgbench_accounts_pkey |        690102272

 2017-02-10 15:01:32.645743+01 | 1486735292.64574 | pgbench_branches_pkey |            16384
 2017-02-10 15:01:32.645743+01 | 1486735292.64574 | pgbench_tellers_pkey  |            90112
 2017-02-10 15:01:32.645743+01 | 1486735292.64574 | pgbench_accounts_pkey |        690102272

 2017-02-10 15:01:33.699613+01 | 1486735293.69961 | pgbench_branches_pkey |            16384
 2017-02-10 15:01:33.699613+01 | 1486735293.69961 | pgbench_tellers_pkey  |            90112
 2017-02-10 15:01:33.699613+01 | 1486735293.69961 | pgbench_accounts_pkey |        690102272

 2017-02-10 15:01:34.752467+01 | 1486735294.75247 | pgbench_branches_pkey |            16384
 2017-02-10 15:01:34.752467+01 | 1486735294.75247 | pgbench_tellers_pkey  |            90112
 2017-02-10 15:01:34.752467+01 | 1486735294.75247 | pgbench_accounts_pkey |        690102272

 2017-02-10 15:01:35.804489+01 | 1486735295.80449 | pgbench_branches_pkey |            16384
 2017-02-10 15:01:35.804489+01 | 1486735295.80449 | pgbench_tellers_pkey  |            90112
 2017-02-10 15:01:35.804489+01 | 1486735295.80449 | pgbench_accounts_pkey |        690102272

 2017-02-10 15:01:36.859477+01 | 1486735296.85948 | pgbench_branches_pkey |            16384
 2017-02-10 15:01:36.859477+01 | 1486735296.85948 | pgbench_tellers_pkey  |            90112
 2017-02-10 15:01:36.859477+01 | 1486735296.85948 | pgbench_accounts_pkey |        690102272

 2017-02-10 15:01:37.9157+01 | 1486735297.9157 | pgbench_branches_pkey |            16384
 2017-02-10 15:01:37.9157+01 | 1486735297.9157 | pgbench_tellers_pkey  |            90112
 2017-02-10 15:01:37.9157+01 | 1486735297.9157 | pgbench_accounts_pkey |        690102272

 2017-02-10 15:01:38.968086+01 | 1486735298.96809 | pgbench_branches_pkey |            16384
 2017-02-10 15:01:38.968086+01 | 1486735298.96809 | pgbench_tellers_pkey  |            90112
 2017-02-10 15:01:38.968086+01 | 1486735298.96809 | pgbench_accounts_pkey |        690102272

 2017-02-10 15:01:40.019164+01 | 1486735300.01916 | pgbench_branches_pkey |            16384
 2017-02-10 15:01:40.019164+01 | 1486735300.01916 | pgbench_tellers_pkey  |            90112
 2017-02-10 15:01:40.019164+01 | 1486735300.01916 | pgbench_accounts_pkey |        690102272

 2017-02-10 15:01:41.073786+01 | 1486735301.07379 | pgbench_branches_pkey |            16384
 2017-02-10 15:01:41.073786+01 | 1486735301.07379 | pgbench_tellers_pkey  |            90112
 2017-02-10 15:01:41.073786+01 | 1486735301.07379 | pgbench_accounts_pkey |        690102272

 2017-02-10 15:01:42.127734+01 | 1486735302.12773 | pgbench_branches_pkey |            16384
 2017-02-10 15:01:42.127734+01 | 1486735302.12773 | pgbench_tellers_pkey  |            90112
 2017-02-10 15:01:42.127734+01 | 1486735302.12773 | pgbench_accounts_pkey |        690102272

 2017-02-10 15:01:43.178591+01 | 1486735303.17859 | pgbench_branches_pkey |            16384
 2017-02-10 15:01:43.178591+01 | 1486735303.17859 | pgbench_tellers_pkey  |            90112
 2017-02-10 15:01:43.178591+01 | 1486735303.17859 | pgbench_accounts_pkey |        690102272

 2017-02-10 15:01:44.230542+01 | 1486735304.23054 | pgbench_branches_pkey |            16384
 2017-02-10 15:01:44.230542+01 | 1486735304.23054 | pgbench_tellers_pkey  |            90112
 2017-02-10 15:01:44.230542+01 | 1486735304.23054 | pgbench_accounts_pkey |        690102272

 2017-02-10 15:01:45.2827+01 | 1486735305.2827 | pgbench_branches_pkey |            16384
 2017-02-10 15:01:45.2827+01 | 1486735305.2827 | pgbench_tellers_pkey  |            90112
 2017-02-10 15:01:45.2827+01 | 1486735305.2827 | pgbench_accounts_pkey |        690102272

 2017-02-10 15:01:46.336436+01 | 1486735306.33644 | pgbench_branches_pkey |            16384
 2017-02-10 15:01:46.336436+01 | 1486735306.33644 | pgbench_tellers_pkey  |            90112
 2017-02-10 15:01:46.336436+01 | 1486735306.33644 | pgbench_accounts_pkey |        690102272

 2017-02-10 15:01:47.389544+01 | 1486735307.38954 | pgbench_branches_pkey |            16384
 2017-02-10 15:01:47.389544+01 | 1486735307.38954 | pgbench_tellers_pkey  |            90112
 2017-02-10 15:01:47.389544+01 | 1486735307.38954 | pgbench_accounts_pkey |        690102272

 2017-02-10 15:01:48.439909+01 | 1486735308.43991 | pgbench_branches_pkey |            16384
 2017-02-10 15:01:48.439909+01 | 1486735308.43991 | pgbench_tellers_pkey  |            90112
 2017-02-10 15:01:48.439909+01 | 1486735308.43991 | pgbench_accounts_pkey |        690102272

 2017-02-10 15:01:49.493974+01 | 1486735309.49397 | pgbench_branches_pkey |            16384
 2017-02-10 15:01:49.493974+01 | 1486735309.49397 | pgbench_tellers_pkey  |            90112
 2017-02-10 15:01:49.493974+01 | 1486735309.49397 | pgbench_accounts_pkey |        690102272

 2017-02-10 15:01:50.546868+01 | 1486735310.54687 | pgbench_branches_pkey |            16384
 2017-02-10 15:01:50.546868+01 | 1486735310.54687 | pgbench_tellers_pkey  |            90112
 2017-02-10 15:01:50.546868+01 | 1486735310.54687 | pgbench_accounts_pkey |        690102272

 2017-02-10 15:01:51.599251+01 | 1486735311.59925 | pgbench_branches_pkey |            16384
 2017-02-10 15:01:51.599251+01 | 1486735311.59925 | pgbench_tellers_pkey  |            90112
 2017-02-10 15:01:51.599251+01 | 1486735311.59925 | pgbench_accounts_pkey |        690102272

 2017-02-10 15:01:52.650408+01 | 1486735312.65041 | pgbench_branches_pkey |            16384
 2017-02-10 15:01:52.650408+01 | 1486735312.65041 | pgbench_tellers_pkey  |            90112
 2017-02-10 15:01:52.650408+01 | 1486735312.65041 | pgbench_accounts_pkey |        690102272

 2017-02-10 15:01:53.70477+01 | 1486735313.70477 | pgbench_branches_pkey |            16384
 2017-02-10 15:01:53.70477+01 | 1486735313.70477 | pgbench_tellers_pkey  |            90112
 2017-02-10 15:01:53.70477+01 | 1486735313.70477 | pgbench_accounts_pkey |        690102272

 2017-02-10 15:01:54.762987+01 | 1486735314.76299 | pgbench_branches_pkey |            16384
 2017-02-10 15:01:54.762987+01 | 1486735314.76299 | pgbench_tellers_pkey  |            90112
 2017-02-10 15:01:54.762987+01 | 1486735314.76299 | pgbench_accounts_pkey |        690102272

 2017-02-10 15:01:55.820968+01 | 1486735315.82097 | pgbench_branches_pkey |            16384
 2017-02-10 15:01:55.820968+01 | 1486735315.82097 | pgbench_tellers_pkey  |            90112
 2017-02-10 15:01:55.820968+01 | 1486735315.82097 | pgbench_accounts_pkey |        690102272

 2017-02-10 15:01:56.871677+01 | 1486735316.87168 | pgbench_branches_pkey |            16384
 2017-02-10 15:01:56.871677+01 | 1486735316.87168 | pgbench_tellers_pkey  |            90112
 2017-02-10 15:01:56.871677+01 | 1486735316.87168 | pgbench_accounts_pkey |        690102272

 2017-02-10 15:01:57.9253+01 | 1486735317.9253 | pgbench_branches_pkey |            16384
 2017-02-10 15:01:57.9253+01 | 1486735317.9253 | pgbench_tellers_pkey  |            90112
 2017-02-10 15:01:57.9253+01 | 1486735317.9253 | pgbench_accounts_pkey |        690102272

 2017-02-10 15:01:58.978867+01 | 1486735318.97887 | pgbench_branches_pkey |            16384
 2017-02-10 15:01:58.978867+01 | 1486735318.97887 | pgbench_tellers_pkey  |            90112
 2017-02-10 15:01:58.978867+01 | 1486735318.97887 | pgbench_accounts_pkey |        690102272

 2017-02-10 15:02:00.029849+01 | 1486735320.02985 | pgbench_branches_pkey |            16384
 2017-02-10 15:02:00.029849+01 | 1486735320.02985 | pgbench_tellers_pkey  |            90112
 2017-02-10 15:02:00.029849+01 | 1486735320.02985 | pgbench_accounts_pkey |        690102272

 2017-02-10 15:02:01.081492+01 | 1486735321.08149 | pgbench_branches_pkey |            16384
 2017-02-10 15:02:01.081492+01 | 1486735321.08149 | pgbench_tellers_pkey  |            90112
 2017-02-10 15:02:01.081492+01 | 1486735321.08149 | pgbench_accounts_pkey |        690102272

 2017-02-10 15:02:02.134218+01 | 1486735322.13422 | pgbench_branches_pkey |            16384
 2017-02-10 15:02:02.134218+01 | 1486735322.13422 | pgbench_tellers_pkey  |            90112
 2017-02-10 15:02:02.134218+01 | 1486735322.13422 | pgbench_accounts_pkey |        690102272

 2017-02-10 15:02:03.186147+01 | 1486735323.18615 | pgbench_branches_pkey |            16384
 2017-02-10 15:02:03.186147+01 | 1486735323.18615 | pgbench_tellers_pkey  |            90112
 2017-02-10 15:02:03.186147+01 | 1486735323.18615 | pgbench_accounts_pkey |        690102272

 2017-02-10 15:02:04.23875+01 | 1486735324.23875 | pgbench_branches_pkey |            16384
 2017-02-10 15:02:04.23875+01 | 1486735324.23875 | pgbench_tellers_pkey  |            90112
 2017-02-10 15:02:04.23875+01 | 1486735324.23875 | pgbench_accounts_pkey |        690102272

 2017-02-10 15:02:05.289754+01 | 1486735325.28975 | pgbench_branches_pkey |            16384
 2017-02-10 15:02:05.289754+01 | 1486735325.28975 | pgbench_tellers_pkey  |            90112
 2017-02-10 15:02:05.289754+01 | 1486735325.28975 | pgbench_accounts_pkey |        690102272

 2017-02-10 15:02:06.347004+01 | 1486735326.347 | pgbench_branches_pkey |            16384
 2017-02-10 15:02:06.347004+01 | 1486735326.347 | pgbench_tellers_pkey  |            90112
 2017-02-10 15:02:06.347004+01 | 1486735326.347 | pgbench_accounts_pkey |        690102272

 2017-02-10 15:02:07.39803+01 | 1486735327.39803 | pgbench_branches_pkey |            16384
 2017-02-10 15:02:07.39803+01 | 1486735327.39803 | pgbench_tellers_pkey  |            90112
 2017-02-10 15:02:07.39803+01 | 1486735327.39803 | pgbench_accounts_pkey |        690102272

 2017-02-10 15:02:08.449145+01 | 1486735328.44915 | pgbench_branches_pkey |            16384
 2017-02-10 15:02:08.449145+01 | 1486735328.44915 | pgbench_tellers_pkey  |            90112
 2017-02-10 15:02:08.449145+01 | 1486735328.44915 | pgbench_accounts_pkey |        690102272

 2017-02-10 15:02:09.504077+01 | 1486735329.50408 | pgbench_branches_pkey |            16384
 2017-02-10 15:02:09.504077+01 | 1486735329.50408 | pgbench_tellers_pkey  |            90112
 2017-02-10 15:02:09.504077+01 | 1486735329.50408 | pgbench_accounts_pkey |        690102272

 2017-02-10 15:02:10.555391+01 | 1486735330.55539 | pgbench_branches_pkey |            16384
 2017-02-10 15:02:10.555391+01 | 1486735330.55539 | pgbench_tellers_pkey  |            90112
 2017-02-10 15:02:10.555391+01 | 1486735330.55539 | pgbench_accounts_pkey |        690102272

 2017-02-10 15:02:11.609621+01 | 1486735331.60962 | pgbench_branches_pkey |            16384
 2017-02-10 15:02:11.609621+01 | 1486735331.60962 | pgbench_tellers_pkey  |            90112
 2017-02-10 15:02:11.609621+01 | 1486735331.60962 | pgbench_accounts_pkey |        690102272

 2017-02-10 15:02:12.662589+01 | 1486735332.66259 | pgbench_branches_pkey |            16384
 2017-02-10 15:02:12.662589+01 | 1486735332.66259 | pgbench_tellers_pkey  |            90112
 2017-02-10 15:02:12.662589+01 | 1486735332.66259 | pgbench_accounts_pkey |        690102272

 2017-02-10 15:02:13.713474+01 | 1486735333.71347 | pgbench_branches_pkey |            16384
 2017-02-10 15:02:13.713474+01 | 1486735333.71347 | pgbench_tellers_pkey  |            90112
 2017-02-10 15:02:13.713474+01 | 1486735333.71347 | pgbench_accounts_pkey |        690102272

 2017-02-10 15:02:14.77085+01 | 1486735334.77085 | pgbench_branches_pkey |            16384
 2017-02-10 15:02:14.77085+01 | 1486735334.77085 | pgbench_tellers_pkey  |            90112
 2017-02-10 15:02:14.77085+01 | 1486735334.77085 | pgbench_accounts_pkey |        690102272

 2017-02-10 15:02:15.828437+01 | 1486735335.82844 | pgbench_branches_pkey |            16384
 2017-02-10 15:02:15.828437+01 | 1486735335.82844 | pgbench_tellers_pkey  |            90112
 2017-02-10 15:02:15.828437+01 | 1486735335.82844 | pgbench_accounts_pkey |        690102272

 2017-02-10 15:02:16.879387+01 | 1486735336.87939 | pgbench_branches_pkey |            16384
 2017-02-10 15:02:16.879387+01 | 1486735336.87939 | pgbench_tellers_pkey  |            90112
 2017-02-10 15:02:16.879387+01 | 1486735336.87939 | pgbench_accounts_pkey |        690102272

 2017-02-10 15:02:17.932917+01 | 1486735337.93292 | pgbench_branches_pkey |            16384
 2017-02-10 15:02:17.932917+01 | 1486735337.93292 | pgbench_tellers_pkey  |            90112
 2017-02-10 15:02:17.932917+01 | 1486735337.93292 | pgbench_accounts_pkey |        690102272

 2017-02-10 15:02:18.984229+01 | 1486735338.98423 | pgbench_branches_pkey |            16384
 2017-02-10 15:02:18.984229+01 | 1486735338.98423 | pgbench_tellers_pkey  |            90112
 2017-02-10 15:02:18.984229+01 | 1486735338.98423 | pgbench_accounts_pkey |        690102272

 2017-02-10 15:02:20.037892+01 | 1486735340.03789 | pgbench_branches_pkey |            16384
 2017-02-10 15:02:20.037892+01 | 1486735340.03789 | pgbench_tellers_pkey  |            90112
 2017-02-10 15:02:20.037892+01 | 1486735340.03789 | pgbench_accounts_pkey |        690102272

 2017-02-10 15:02:21.092398+01 | 1486735341.0924 | pgbench_branches_pkey |            16384
 2017-02-10 15:02:21.092398+01 | 1486735341.0924 | pgbench_tellers_pkey  |            90112
 2017-02-10 15:02:21.092398+01 | 1486735341.0924 | pgbench_accounts_pkey |        690102272

 2017-02-10 15:02:22.143069+01 | 1486735342.14307 | pgbench_branches_pkey |            16384
 2017-02-10 15:02:22.143069+01 | 1486735342.14307 | pgbench_tellers_pkey  |            90112
 2017-02-10 15:02:22.143069+01 | 1486735342.14307 | pgbench_accounts_pkey |        690102272

 2017-02-10 15:02:23.196132+01 | 1486735343.19613 | pgbench_branches_pkey |            16384
 2017-02-10 15:02:23.196132+01 | 1486735343.19613 | pgbench_tellers_pkey  |            90112
 2017-02-10 15:02:23.196132+01 | 1486735343.19613 | pgbench_accounts_pkey |        690102272

 2017-02-10 15:02:24.25173+01 | 1486735344.25173 | pgbench_branches_pkey |            16384
 2017-02-10 15:02:24.25173+01 | 1486735344.25173 | pgbench_tellers_pkey  |            90112
 2017-02-10 15:02:24.25173+01 | 1486735344.25173 | pgbench_accounts_pkey |        690102272

 2017-02-10 15:02:25.308535+01 | 1486735345.30854 | pgbench_branches_pkey |            16384
 2017-02-10 15:02:25.308535+01 | 1486735345.30854 | pgbench_tellers_pkey  |            90112
 2017-02-10 15:02:25.308535+01 | 1486735345.30854 | pgbench_accounts_pkey |        690102272

 2017-02-10 15:02:26.362977+01 | 1486735346.36298 | pgbench_branches_pkey |            16384
 2017-02-10 15:02:26.362977+01 | 1486735346.36298 | pgbench_tellers_pkey  |            90112
 2017-02-10 15:02:26.362977+01 | 1486735346.36298 | pgbench_accounts_pkey |        690102272

 2017-02-10 15:02:27.416049+01 | 1486735347.41605 | pgbench_branches_pkey |            16384
 2017-02-10 15:02:27.416049+01 | 1486735347.41605 | pgbench_tellers_pkey  |            90112
 2017-02-10 15:02:27.416049+01 | 1486735347.41605 | pgbench_accounts_pkey |        690102272

 2017-02-10 15:02:28.469394+01 | 1486735348.46939 | pgbench_branches_pkey |            16384
 2017-02-10 15:02:28.469394+01 | 1486735348.46939 | pgbench_tellers_pkey  |            90112
 2017-02-10 15:02:28.469394+01 | 1486735348.46939 | pgbench_accounts_pkey |        690102272

 2017-02-10 15:02:29.522721+01 | 1486735349.52272 | pgbench_branches_pkey |            16384
 2017-02-10 15:02:29.522721+01 | 1486735349.52272 | pgbench_tellers_pkey  |            90112
 2017-02-10 15:02:29.522721+01 | 1486735349.52272 | pgbench_accounts_pkey |        690102272

 2017-02-10 15:02:30.577594+01 | 1486735350.57759 | pgbench_branches_pkey |            16384
 2017-02-10 15:02:30.577594+01 | 1486735350.57759 | pgbench_tellers_pkey  |            90112
 2017-02-10 15:02:30.577594+01 | 1486735350.57759 | pgbench_accounts_pkey |        690102272

 2017-02-10 15:02:31.636008+01 | 1486735351.63601 | pgbench_branches_pkey |            16384
 2017-02-10 15:02:31.636008+01 | 1486735351.63601 | pgbench_tellers_pkey  |            90112
 2017-02-10 15:02:31.636008+01 | 1486735351.63601 | pgbench_accounts_pkey |        690102272

 2017-02-10 15:02:32.688908+01 | 1486735352.68891 | pgbench_branches_pkey |            16384
 2017-02-10 15:02:32.688908+01 | 1486735352.68891 | pgbench_tellers_pkey  |            90112
 2017-02-10 15:02:32.688908+01 | 1486735352.68891 | pgbench_accounts_pkey |        690102272

 2017-02-10 15:02:33.741582+01 | 1486735353.74158 | pgbench_branches_pkey |            16384
 2017-02-10 15:02:33.741582+01 | 1486735353.74158 | pgbench_tellers_pkey  |            90112
 2017-02-10 15:02:33.741582+01 | 1486735353.74158 | pgbench_accounts_pkey |        690102272

 2017-02-10 15:02:34.793607+01 | 1486735354.79361 | pgbench_branches_pkey |            16384
 2017-02-10 15:02:34.793607+01 | 1486735354.79361 | pgbench_tellers_pkey  |            90112
 2017-02-10 15:02:34.793607+01 | 1486735354.79361 | pgbench_accounts_pkey |        690102272

 2017-02-10 15:02:35.885673+01 | 1486735355.88567 | pgbench_branches_pkey |            16384
 2017-02-10 15:02:35.885673+01 | 1486735355.88567 | pgbench_tellers_pkey  |            90112
 2017-02-10 15:02:35.885673+01 | 1486735355.88567 | pgbench_accounts_pkey |        690102272

 2017-02-10 15:02:36.935053+01 | 1486735356.93505 | pgbench_branches_pkey |            16384
 2017-02-10 15:02:36.935053+01 | 1486735356.93505 | pgbench_tellers_pkey  |            90112
 2017-02-10 15:02:36.935053+01 | 1486735356.93505 | pgbench_accounts_pkey |        690102272

 2017-02-10 15:02:37.988096+01 | 1486735357.9881 | pgbench_branches_pkey |            16384
 2017-02-10 15:02:37.988096+01 | 1486735357.9881 | pgbench_tellers_pkey  |            90112
 2017-02-10 15:02:37.988096+01 | 1486735357.9881 | pgbench_accounts_pkey |        690102272

 2017-02-10 15:02:39.040226+01 | 1486735359.04023 | pgbench_branches_pkey |            16384
 2017-02-10 15:02:39.040226+01 | 1486735359.04023 | pgbench_tellers_pkey  |            90112
 2017-02-10 15:02:39.040226+01 | 1486735359.04023 | pgbench_accounts_pkey |        690102272

 2017-02-10 15:02:40.091675+01 | 1486735360.09168 | pgbench_branches_pkey |            16384
 2017-02-10 15:02:40.091675+01 | 1486735360.09168 | pgbench_tellers_pkey  |            90112
 2017-02-10 15:02:40.091675+01 | 1486735360.09168 | pgbench_accounts_pkey |        690102272

 2017-02-10 15:02:41.14473+01 | 1486735361.14473 | pgbench_branches_pkey |            16384
 2017-02-10 15:02:41.14473+01 | 1486735361.14473 | pgbench_tellers_pkey  |            90112
 2017-02-10 15:02:41.14473+01 | 1486735361.14473 | pgbench_accounts_pkey |        690102272

 2017-02-10 15:02:42.19511+01 | 1486735362.19511 | pgbench_branches_pkey |            16384
 2017-02-10 15:02:42.19511+01 | 1486735362.19511 | pgbench_tellers_pkey  |            90112
 2017-02-10 15:02:42.19511+01 | 1486735362.19511 | pgbench_accounts_pkey |        690102272

 2017-02-10 15:02:43.249674+01 | 1486735363.24967 | pgbench_branches_pkey |            16384
 2017-02-10 15:02:43.249674+01 | 1486735363.24967 | pgbench_tellers_pkey  |            90112
 2017-02-10 15:02:43.249674+01 | 1486735363.24967 | pgbench_accounts_pkey |        690102272

 2017-02-10 15:02:44.305105+01 | 1486735364.3051 | pgbench_branches_pkey |            16384
 2017-02-10 15:02:44.305105+01 | 1486735364.3051 | pgbench_tellers_pkey  |            90112
 2017-02-10 15:02:44.305105+01 | 1486735364.3051 | pgbench_accounts_pkey |        690102272

 2017-02-10 15:02:45.362012+01 | 1486735365.36201 | pgbench_branches_pkey |            16384
 2017-02-10 15:02:45.362012+01 | 1486735365.36201 | pgbench_tellers_pkey  |            90112
 2017-02-10 15:02:45.362012+01 | 1486735365.36201 | pgbench_accounts_pkey |        690102272

 2017-02-10 15:02:46.417831+01 | 1486735366.41783 | pgbench_branches_pkey |            16384
 2017-02-10 15:02:46.417831+01 | 1486735366.41783 | pgbench_tellers_pkey  |            90112
 2017-02-10 15:02:46.417831+01 | 1486735366.41783 | pgbench_accounts_pkey |        690102272

 2017-02-10 15:02:47.470226+01 | 1486735367.47023 | pgbench_branches_pkey |            16384
 2017-02-10 15:02:47.470226+01 | 1486735367.47023 | pgbench_tellers_pkey  |            90112
 2017-02-10 15:02:47.470226+01 | 1486735367.47023 | pgbench_accounts_pkey |        690102272

 2017-02-10 15:02:48.522726+01 | 1486735368.52273 | pgbench_branches_pkey |            16384
 2017-02-10 15:02:48.522726+01 | 1486735368.52273 | pgbench_tellers_pkey  |            90112
 2017-02-10 15:02:48.522726+01 | 1486735368.52273 | pgbench_accounts_pkey |        690102272

 2017-02-10 15:02:49.587017+01 | 1486735369.58702 | pgbench_branches_pkey |            16384
 2017-02-10 15:02:49.587017+01 | 1486735369.58702 | pgbench_tellers_pkey  |            90112
 2017-02-10 15:02:49.587017+01 | 1486735369.58702 | pgbench_accounts_pkey |        690102272

 2017-02-10 15:02:50.638824+01 | 1486735370.63882 | pgbench_branches_pkey |            16384
 2017-02-10 15:02:50.638824+01 | 1486735370.63882 | pgbench_tellers_pkey  |            90112
 2017-02-10 15:02:50.638824+01 | 1486735370.63882 | pgbench_accounts_pkey |        690102272

 2017-02-10 15:02:51.691881+01 | 1486735371.69188 | pgbench_branches_pkey |            16384
 2017-02-10 15:02:51.691881+01 | 1486735371.69188 | pgbench_tellers_pkey  |            90112
 2017-02-10 15:02:51.691881+01 | 1486735371.69188 | pgbench_accounts_pkey |        690102272

 2017-02-10 15:02:52.744665+01 | 1486735372.74466 | pgbench_branches_pkey |            16384
 2017-02-10 15:02:52.744665+01 | 1486735372.74466 | pgbench_tellers_pkey  |            90112
 2017-02-10 15:02:52.744665+01 | 1486735372.74466 | pgbench_accounts_pkey |        690102272

 2017-02-10 15:02:53.797496+01 | 1486735373.7975 | pgbench_branches_pkey |            16384
 2017-02-10 15:02:53.797496+01 | 1486735373.7975 | pgbench_tellers_pkey  |            90112
 2017-02-10 15:02:53.797496+01 | 1486735373.7975 | pgbench_accounts_pkey |        690102272

 2017-02-10 15:02:54.84885+01 | 1486735374.84885 | pgbench_branches_pkey |            16384
 2017-02-10 15:02:54.84885+01 | 1486735374.84885 | pgbench_tellers_pkey  |            90112
 2017-02-10 15:02:54.84885+01 | 1486735374.84885 | pgbench_accounts_pkey |        690102272

 2017-02-10 15:02:55.908633+01 | 1486735375.90863 | pgbench_branches_pkey |            16384
 2017-02-10 15:02:55.908633+01 | 1486735375.90863 | pgbench_tellers_pkey  |            90112
 2017-02-10 15:02:55.908633+01 | 1486735375.90863 | pgbench_accounts_pkey |        690102272

 2017-02-10 15:02:56.96189+01 | 1486735376.96189 | pgbench_branches_pkey |            16384
 2017-02-10 15:02:56.96189+01 | 1486735376.96189 | pgbench_tellers_pkey  |            90112
 2017-02-10 15:02:56.96189+01 | 1486735376.96189 | pgbench_accounts_pkey |        690102272

 2017-02-10 15:02:58.016833+01 | 1486735378.01683 | pgbench_branches_pkey |            16384
 2017-02-10 15:02:58.016833+01 | 1486735378.01683 | pgbench_tellers_pkey  |            90112
 2017-02-10 15:02:58.016833+01 | 1486735378.01683 | pgbench_accounts_pkey |        690102272

 2017-02-10 15:02:59.069243+01 | 1486735379.06924 | pgbench_branches_pkey |            16384
 2017-02-10 15:02:59.069243+01 | 1486735379.06924 | pgbench_tellers_pkey  |            90112
 2017-02-10 15:02:59.069243+01 | 1486735379.06924 | pgbench_accounts_pkey |        690102272

 2017-02-10 15:03:00.121024+01 | 1486735380.12102 | pgbench_branches_pkey |            16384
 2017-02-10 15:03:00.121024+01 | 1486735380.12102 | pgbench_tellers_pkey  |            90112
 2017-02-10 15:03:00.121024+01 | 1486735380.12102 | pgbench_accounts_pkey |        690102272

 2017-02-10 15:03:01.178178+01 | 1486735381.17818 | pgbench_branches_pkey |            16384
 2017-02-10 15:03:01.178178+01 | 1486735381.17818 | pgbench_tellers_pkey  |            90112
 2017-02-10 15:03:01.178178+01 | 1486735381.17818 | pgbench_accounts_pkey |        690102272

 2017-02-10 15:03:02.229342+01 | 1486735382.22934 | pgbench_branches_pkey |            16384
 2017-02-10 15:03:02.229342+01 | 1486735382.22934 | pgbench_tellers_pkey  |            90112
 2017-02-10 15:03:02.229342+01 | 1486735382.22934 | pgbench_accounts_pkey |        690102272

 2017-02-10 15:03:03.282552+01 | 1486735383.28255 | pgbench_branches_pkey |            16384
 2017-02-10 15:03:03.282552+01 | 1486735383.28255 | pgbench_tellers_pkey  |            90112
 2017-02-10 15:03:03.282552+01 | 1486735383.28255 | pgbench_accounts_pkey |        690102272

 2017-02-10 15:03:04.33448+01 | 1486735384.33448 | pgbench_branches_pkey |            16384
 2017-02-10 15:03:04.33448+01 | 1486735384.33448 | pgbench_tellers_pkey  |            90112
 2017-02-10 15:03:04.33448+01 | 1486735384.33448 | pgbench_accounts_pkey |        690102272

 2017-02-10 15:03:05.388914+01 | 1486735385.38891 | pgbench_branches_pkey |            16384
 2017-02-10 15:03:05.388914+01 | 1486735385.38891 | pgbench_tellers_pkey  |            90112
 2017-02-10 15:03:05.388914+01 | 1486735385.38891 | pgbench_accounts_pkey |        690102272

 2017-02-10 15:03:06.440828+01 | 1486735386.44083 | pgbench_branches_pkey |            16384
 2017-02-10 15:03:06.440828+01 | 1486735386.44083 | pgbench_tellers_pkey  |            90112
 2017-02-10 15:03:06.440828+01 | 1486735386.44083 | pgbench_accounts_pkey |        690102272

 2017-02-10 15:03:07.492327+01 | 1486735387.49233 | pgbench_branches_pkey |            16384
 2017-02-10 15:03:07.492327+01 | 1486735387.49233 | pgbench_tellers_pkey  |            90112
 2017-02-10 15:03:07.492327+01 | 1486735387.49233 | pgbench_accounts_pkey |        690102272

 2017-02-10 15:03:08.544075+01 | 1486735388.54408 | pgbench_branches_pkey |            16384
 2017-02-10 15:03:08.544075+01 | 1486735388.54408 | pgbench_tellers_pkey  |            90112
 2017-02-10 15:03:08.544075+01 | 1486735388.54408 | pgbench_accounts_pkey |        690102272

 2017-02-10 15:03:09.596899+01 | 1486735389.5969 | pgbench_branches_pkey |            16384
 2017-02-10 15:03:09.596899+01 | 1486735389.5969 | pgbench_tellers_pkey  |            90112
 2017-02-10 15:03:09.596899+01 | 1486735389.5969 | pgbench_accounts_pkey |        690102272

 2017-02-10 15:03:10.648533+01 | 1486735390.64853 | pgbench_branches_pkey |            16384
 2017-02-10 15:03:10.648533+01 | 1486735390.64853 | pgbench_tellers_pkey  |            90112
 2017-02-10 15:03:10.648533+01 | 1486735390.64853 | pgbench_accounts_pkey |        690102272

 2017-02-10 15:03:11.704691+01 | 1486735391.70469 | pgbench_branches_pkey |            16384
 2017-02-10 15:03:11.704691+01 | 1486735391.70469 | pgbench_tellers_pkey  |            90112
 2017-02-10 15:03:11.704691+01 | 1486735391.70469 | pgbench_accounts_pkey |        690102272

 2017-02-10 15:03:12.75773+01 | 1486735392.75773 | pgbench_branches_pkey |            16384
 2017-02-10 15:03:12.75773+01 | 1486735392.75773 | pgbench_tellers_pkey  |            90112
 2017-02-10 15:03:12.75773+01 | 1486735392.75773 | pgbench_accounts_pkey |        690102272

 2017-02-10 15:03:13.809217+01 | 1486735393.80922 | pgbench_branches_pkey |            16384
 2017-02-10 15:03:13.809217+01 | 1486735393.80922 | pgbench_tellers_pkey  |            90112
 2017-02-10 15:03:13.809217+01 | 1486735393.80922 | pgbench_accounts_pkey |        690102272

 2017-02-10 15:03:14.861128+01 | 1486735394.86113 | pgbench_branches_pkey |            16384
 2017-02-10 15:03:14.861128+01 | 1486735394.86113 | pgbench_tellers_pkey  |            90112
 2017-02-10 15:03:14.861128+01 | 1486735394.86113 | pgbench_accounts_pkey |        690102272

 2017-02-10 15:03:15.916955+01 | 1486735395.91695 | pgbench_branches_pkey |            16384
 2017-02-10 15:03:15.916955+01 | 1486735395.91695 | pgbench_tellers_pkey  |            90112
 2017-02-10 15:03:15.916955+01 | 1486735395.91695 | pgbench_accounts_pkey |        690102272

 2017-02-10 15:03:16.972094+01 | 1486735396.97209 | pgbench_branches_pkey |            16384
 2017-02-10 15:03:16.972094+01 | 1486735396.97209 | pgbench_tellers_pkey  |            90112
 2017-02-10 15:03:16.972094+01 | 1486735396.97209 | pgbench_accounts_pkey |        690102272

 2017-02-10 15:03:18.025585+01 | 1486735398.02558 | pgbench_branches_pkey |            16384
 2017-02-10 15:03:18.025585+01 | 1486735398.02558 | pgbench_tellers_pkey  |            90112
 2017-02-10 15:03:18.025585+01 | 1486735398.02558 | pgbench_accounts_pkey |        690102272

 2017-02-10 15:03:19.080217+01 | 1486735399.08022 | pgbench_branches_pkey |            16384
 2017-02-10 15:03:19.080217+01 | 1486735399.08022 | pgbench_tellers_pkey  |            90112
 2017-02-10 15:03:19.080217+01 | 1486735399.08022 | pgbench_accounts_pkey |        690102272

 2017-02-10 15:03:20.131982+01 | 1486735400.13198 | pgbench_branches_pkey |            16384
 2017-02-10 15:03:20.131982+01 | 1486735400.13198 | pgbench_tellers_pkey  |            90112
 2017-02-10 15:03:20.131982+01 | 1486735400.13198 | pgbench_accounts_pkey |        690102272

 2017-02-10 15:03:21.184256+01 | 1486735401.18426 | pgbench_branches_pkey |            16384
 2017-02-10 15:03:21.184256+01 | 1486735401.18426 | pgbench_tellers_pkey  |            90112
 2017-02-10 15:03:21.184256+01 | 1486735401.18426 | pgbench_accounts_pkey |        690102272

 2017-02-10 15:03:22.239846+01 | 1486735402.23985 | pgbench_branches_pkey |            16384
 2017-02-10 15:03:22.239846+01 | 1486735402.23985 | pgbench_tellers_pkey  |            90112
 2017-02-10 15:03:22.239846+01 | 1486735402.23985 | pgbench_accounts_pkey |        690102272

 2017-02-10 15:03:23.291163+01 | 1486735403.29116 | pgbench_branches_pkey |            16384
 2017-02-10 15:03:23.291163+01 | 1486735403.29116 | pgbench_tellers_pkey  |            90112
 2017-02-10 15:03:23.291163+01 | 1486735403.29116 | pgbench_accounts_pkey |        690102272

 2017-02-10 15:03:24.343698+01 | 1486735404.3437 | pgbench_branches_pkey |            16384
 2017-02-10 15:03:24.343698+01 | 1486735404.3437 | pgbench_tellers_pkey  |            90112
 2017-02-10 15:03:24.343698+01 | 1486735404.3437 | pgbench_accounts_pkey |        690102272

 2017-02-10 15:03:25.396204+01 | 1486735405.3962 | pgbench_branches_pkey |            16384
 2017-02-10 15:03:25.396204+01 | 1486735405.3962 | pgbench_tellers_pkey  |            90112
 2017-02-10 15:03:25.396204+01 | 1486735405.3962 | pgbench_accounts_pkey |        690102272

 2017-02-10 15:03:26.449359+01 | 1486735406.44936 | pgbench_branches_pkey |            16384
 2017-02-10 15:03:26.449359+01 | 1486735406.44936 | pgbench_tellers_pkey  |            90112
 2017-02-10 15:03:26.449359+01 | 1486735406.44936 | pgbench_accounts_pkey |        690102272

 2017-02-10 15:03:27.501124+01 | 1486735407.50112 | pgbench_branches_pkey |            16384
 2017-02-10 15:03:27.501124+01 | 1486735407.50112 | pgbench_tellers_pkey  |            90112
 2017-02-10 15:03:27.501124+01 | 1486735407.50112 | pgbench_accounts_pkey |        690102272

 2017-02-10 15:03:28.552171+01 | 1486735408.55217 | pgbench_branches_pkey |            16384
 2017-02-10 15:03:28.552171+01 | 1486735408.55217 | pgbench_tellers_pkey  |            90112
 2017-02-10 15:03:28.552171+01 | 1486735408.55217 | pgbench_accounts_pkey |        690102272

 2017-02-10 15:03:29.604256+01 | 1486735409.60426 | pgbench_branches_pkey |            16384
 2017-02-10 15:03:29.604256+01 | 1486735409.60426 | pgbench_tellers_pkey  |            90112
 2017-02-10 15:03:29.604256+01 | 1486735409.60426 | pgbench_accounts_pkey |        690102272

 2017-02-10 15:03:30.657793+01 | 1486735410.65779 | pgbench_branches_pkey |            16384
 2017-02-10 15:03:30.657793+01 | 1486735410.65779 | pgbench_tellers_pkey  |            90112
 2017-02-10 15:03:30.657793+01 | 1486735410.65779 | pgbench_accounts_pkey |        690102272

 2017-02-10 15:03:31.708922+01 | 1486735411.70892 | pgbench_branches_pkey |            16384
 2017-02-10 15:03:31.708922+01 | 1486735411.70892 | pgbench_tellers_pkey  |            90112
 2017-02-10 15:03:31.708922+01 | 1486735411.70892 | pgbench_accounts_pkey |        690102272

 2017-02-10 15:03:32.765546+01 | 1486735412.76555 | pgbench_branches_pkey |            16384
 2017-02-10 15:03:32.765546+01 | 1486735412.76555 | pgbench_tellers_pkey  |            90112
 2017-02-10 15:03:32.765546+01 | 1486735412.76555 | pgbench_accounts_pkey |        690102272

 2017-02-10 15:03:33.817233+01 | 1486735413.81723 | pgbench_branches_pkey |            16384
 2017-02-10 15:03:33.817233+01 | 1486735413.81723 | pgbench_tellers_pkey  |            90112
 2017-02-10 15:03:33.817233+01 | 1486735413.81723 | pgbench_accounts_pkey |        690102272

 2017-02-10 15:03:34.869347+01 | 1486735414.86935 | pgbench_branches_pkey |            16384
 2017-02-10 15:03:34.869347+01 | 1486735414.86935 | pgbench_tellers_pkey  |            90112
 2017-02-10 15:03:34.869347+01 | 1486735414.86935 | pgbench_accounts_pkey |        690102272

 2017-02-10 15:03:35.922935+01 | 1486735415.92294 | pgbench_branches_pkey |            16384
 2017-02-10 15:03:35.922935+01 | 1486735415.92294 | pgbench_tellers_pkey  |            90112
 2017-02-10 15:03:35.922935+01 | 1486735415.92294 | pgbench_accounts_pkey |        690102272

 2017-02-10 15:03:36.974505+01 | 1486735416.9745 | pgbench_branches_pkey |            16384
 2017-02-10 15:03:36.974505+01 | 1486735416.9745 | pgbench_tellers_pkey  |            90112
 2017-02-10 15:03:36.974505+01 | 1486735416.9745 | pgbench_accounts_pkey |        690102272

 2017-02-10 15:03:38.0249+01 | 1486735418.0249 | pgbench_branches_pkey |            16384
 2017-02-10 15:03:38.0249+01 | 1486735418.0249 | pgbench_tellers_pkey  |            90112
 2017-02-10 15:03:38.0249+01 | 1486735418.0249 | pgbench_accounts_pkey |        690102272

 2017-02-10 15:03:39.07598+01 | 1486735419.07598 | pgbench_branches_pkey |            16384
 2017-02-10 15:03:39.07598+01 | 1486735419.07598 | pgbench_tellers_pkey  |            90112
 2017-02-10 15:03:39.07598+01 | 1486735419.07598 | pgbench_accounts_pkey |        690102272

 2017-02-10 15:03:40.131401+01 | 1486735420.1314 | pgbench_branches_pkey |            16384
 2017-02-10 15:03:40.131401+01 | 1486735420.1314 | pgbench_tellers_pkey  |            90112
 2017-02-10 15:03:40.131401+01 | 1486735420.1314 | pgbench_accounts_pkey |        690102272

 2017-02-10 15:03:41.182087+01 | 1486735421.18209 | pgbench_branches_pkey |            16384
 2017-02-10 15:03:41.182087+01 | 1486735421.18209 | pgbench_tellers_pkey  |            90112
 2017-02-10 15:03:41.182087+01 | 1486735421.18209 | pgbench_accounts_pkey |        690102272

 2017-02-10 15:03:42.237333+01 | 1486735422.23733 | pgbench_branches_pkey |            16384
 2017-02-10 15:03:42.237333+01 | 1486735422.23733 | pgbench_tellers_pkey  |            90112
 2017-02-10 15:03:42.237333+01 | 1486735422.23733 | pgbench_accounts_pkey |        690102272

 2017-02-10 15:03:43.289945+01 | 1486735423.28994 | pgbench_branches_pkey |            16384
 2017-02-10 15:03:43.289945+01 | 1486735423.28994 | pgbench_tellers_pkey  |            90112
 2017-02-10 15:03:43.289945+01 | 1486735423.28994 | pgbench_accounts_pkey |        690102272

 2017-02-10 15:03:44.342107+01 | 1486735424.34211 | pgbench_branches_pkey |            16384
 2017-02-10 15:03:44.342107+01 | 1486735424.34211 | pgbench_tellers_pkey  |            90112
 2017-02-10 15:03:44.342107+01 | 1486735424.34211 | pgbench_accounts_pkey |        690102272

 2017-02-10 15:03:45.39501+01 | 1486735425.39501 | pgbench_branches_pkey |            16384
 2017-02-10 15:03:45.39501+01 | 1486735425.39501 | pgbench_tellers_pkey  |            90112
 2017-02-10 15:03:45.39501+01 | 1486735425.39501 | pgbench_accounts_pkey |        690102272

 2017-02-10 15:03:46.447126+01 | 1486735426.44713 | pgbench_branches_pkey |            16384
 2017-02-10 15:03:46.447126+01 | 1486735426.44713 | pgbench_tellers_pkey  |            90112
 2017-02-10 15:03:46.447126+01 | 1486735426.44713 | pgbench_accounts_pkey |        690102272

 2017-02-10 15:03:47.499536+01 | 1486735427.49954 | pgbench_branches_pkey |            16384
 2017-02-10 15:03:47.499536+01 | 1486735427.49954 | pgbench_tellers_pkey  |            90112
 2017-02-10 15:03:47.499536+01 | 1486735427.49954 | pgbench_accounts_pkey |        690102272

 2017-02-10 15:03:48.551205+01 | 1486735428.5512 | pgbench_branches_pkey |            16384
 2017-02-10 15:03:48.551205+01 | 1486735428.5512 | pgbench_tellers_pkey  |            90112
 2017-02-10 15:03:48.551205+01 | 1486735428.5512 | pgbench_accounts_pkey |        690102272

 2017-02-10 15:03:49.603934+01 | 1486735429.60393 | pgbench_branches_pkey |            16384
 2017-02-10 15:03:49.603934+01 | 1486735429.60393 | pgbench_tellers_pkey  |            90112
 2017-02-10 15:03:49.603934+01 | 1486735429.60393 | pgbench_accounts_pkey |        690102272

 2017-02-10 15:03:50.653715+01 | 1486735430.65371 | pgbench_branches_pkey |            16384
 2017-02-10 15:03:50.653715+01 | 1486735430.65371 | pgbench_tellers_pkey  |            90112
 2017-02-10 15:03:50.653715+01 | 1486735430.65371 | pgbench_accounts_pkey |        690102272

 2017-02-10 15:03:51.711524+01 | 1486735431.71152 | pgbench_branches_pkey |            16384
 2017-02-10 15:03:51.711524+01 | 1486735431.71152 | pgbench_tellers_pkey  |            90112
 2017-02-10 15:03:51.711524+01 | 1486735431.71152 | pgbench_accounts_pkey |        690102272

 2017-02-10 15:03:52.762245+01 | 1486735432.76224 | pgbench_branches_pkey |            16384
 2017-02-10 15:03:52.762245+01 | 1486735432.76224 | pgbench_tellers_pkey  |            90112
 2017-02-10 15:03:52.762245+01 | 1486735432.76224 | pgbench_accounts_pkey |        690102272

 2017-02-10 15:03:53.814611+01 | 1486735433.81461 | pgbench_branches_pkey |            16384
 2017-02-10 15:03:53.814611+01 | 1486735433.81461 | pgbench_tellers_pkey  |            90112
 2017-02-10 15:03:53.814611+01 | 1486735433.81461 | pgbench_accounts_pkey |        690102272

 2017-02-10 15:03:54.86715+01 | 1486735434.86715 | pgbench_branches_pkey |            16384
 2017-02-10 15:03:54.86715+01 | 1486735434.86715 | pgbench_tellers_pkey  |            90112
 2017-02-10 15:03:54.86715+01 | 1486735434.86715 | pgbench_accounts_pkey |        690102272

 2017-02-10 15:03:55.920191+01 | 1486735435.92019 | pgbench_branches_pkey |            16384
 2017-02-10 15:03:55.920191+01 | 1486735435.92019 | pgbench_tellers_pkey  |            90112
 2017-02-10 15:03:55.920191+01 | 1486735435.92019 | pgbench_accounts_pkey |        690102272

 2017-02-10 15:03:56.971541+01 | 1486735436.97154 | pgbench_branches_pkey |            16384
 2017-02-10 15:03:56.971541+01 | 1486735436.97154 | pgbench_tellers_pkey  |            90112
 2017-02-10 15:03:56.971541+01 | 1486735436.97154 | pgbench_accounts_pkey |        690102272

 2017-02-10 15:03:58.025829+01 | 1486735438.02583 | pgbench_branches_pkey |            16384
 2017-02-10 15:03:58.025829+01 | 1486735438.02583 | pgbench_tellers_pkey  |            90112
 2017-02-10 15:03:58.025829+01 | 1486735438.02583 | pgbench_accounts_pkey |        690102272

 2017-02-10 15:03:59.06633+01 | 1486735439.06633 | pgbench_branches_pkey |            16384
 2017-02-10 15:03:59.06633+01 | 1486735439.06633 | pgbench_tellers_pkey  |            90112
 2017-02-10 15:03:59.06633+01 | 1486735439.06633 | pgbench_accounts_pkey |        690102272

 2017-02-10 15:04:00.117784+01 | 1486735440.11778 | pgbench_branches_pkey |            16384
 2017-02-10 15:04:00.117784+01 | 1486735440.11778 | pgbench_tellers_pkey  |            90112
 2017-02-10 15:04:00.117784+01 | 1486735440.11778 | pgbench_accounts_pkey |        690102272

 2017-02-10 15:04:01.169843+01 | 1486735441.16984 | pgbench_branches_pkey |            16384
 2017-02-10 15:04:01.169843+01 | 1486735441.16984 | pgbench_tellers_pkey  |            90112
 2017-02-10 15:04:01.169843+01 | 1486735441.16984 | pgbench_accounts_pkey |        690102272

 2017-02-10 15:04:02.22316+01 | 1486735442.22316 | pgbench_branches_pkey |            16384
 2017-02-10 15:04:02.22316+01 | 1486735442.22316 | pgbench_tellers_pkey  |            90112
 2017-02-10 15:04:02.22316+01 | 1486735442.22316 | pgbench_accounts_pkey |        690102272

 2017-02-10 15:04:03.275857+01 | 1486735443.27586 | pgbench_branches_pkey |            16384
 2017-02-10 15:04:03.275857+01 | 1486735443.27586 | pgbench_tellers_pkey  |            90112
 2017-02-10 15:04:03.275857+01 | 1486735443.27586 | pgbench_accounts_pkey |        690102272

 2017-02-10 15:04:04.326491+01 | 1486735444.32649 | pgbench_branches_pkey |            16384
 2017-02-10 15:04:04.326491+01 | 1486735444.32649 | pgbench_tellers_pkey  |            90112
 2017-02-10 15:04:04.326491+01 | 1486735444.32649 | pgbench_accounts_pkey |        690102272

 2017-02-10 15:04:05.379857+01 | 1486735445.37986 | pgbench_branches_pkey |            16384
 2017-02-10 15:04:05.379857+01 | 1486735445.37986 | pgbench_tellers_pkey  |            90112
 2017-02-10 15:04:05.379857+01 | 1486735445.37986 | pgbench_accounts_pkey |        690102272

 2017-02-10 15:04:06.430346+01 | 1486735446.43035 | pgbench_branches_pkey |            16384
 2017-02-10 15:04:06.430346+01 | 1486735446.43035 | pgbench_tellers_pkey  |            90112
 2017-02-10 15:04:06.430346+01 | 1486735446.43035 | pgbench_accounts_pkey |        690102272

 2017-02-10 15:04:07.482582+01 | 1486735447.48258 | pgbench_branches_pkey |            16384
 2017-02-10 15:04:07.482582+01 | 1486735447.48258 | pgbench_tellers_pkey  |            90112
 2017-02-10 15:04:07.482582+01 | 1486735447.48258 | pgbench_accounts_pkey |        690102272

 2017-02-10 15:04:08.534222+01 | 1486735448.53422 | pgbench_branches_pkey |            16384
 2017-02-10 15:04:08.534222+01 | 1486735448.53422 | pgbench_tellers_pkey  |            90112
 2017-02-10 15:04:08.534222+01 | 1486735448.53422 | pgbench_accounts_pkey |        690102272

 2017-02-10 15:04:09.585333+01 | 1486735449.58533 | pgbench_branches_pkey |            16384
 2017-02-10 15:04:09.585333+01 | 1486735449.58533 | pgbench_tellers_pkey  |            90112
 2017-02-10 15:04:09.585333+01 | 1486735449.58533 | pgbench_accounts_pkey |        690102272

 2017-02-10 15:04:10.645355+01 | 1486735450.64535 | pgbench_branches_pkey |            16384
 2017-02-10 15:04:10.645355+01 | 1486735450.64535 | pgbench_tellers_pkey  |            90112
 2017-02-10 15:04:10.645355+01 | 1486735450.64535 | pgbench_accounts_pkey |        690102272

 2017-02-10 15:04:11.698404+01 | 1486735451.6984 | pgbench_branches_pkey |            16384
 2017-02-10 15:04:11.698404+01 | 1486735451.6984 | pgbench_tellers_pkey  |            90112
 2017-02-10 15:04:11.698404+01 | 1486735451.6984 | pgbench_accounts_pkey |        690102272

 2017-02-10 15:04:12.751714+01 | 1486735452.75171 | pgbench_branches_pkey |            16384
 2017-02-10 15:04:12.751714+01 | 1486735452.75171 | pgbench_tellers_pkey  |            90112
 2017-02-10 15:04:12.751714+01 | 1486735452.75171 | pgbench_accounts_pkey |        690102272

 2017-02-10 15:04:13.805139+01 | 1486735453.80514 | pgbench_branches_pkey |            16384
 2017-02-10 15:04:13.805139+01 | 1486735453.80514 | pgbench_tellers_pkey  |            90112
 2017-02-10 15:04:13.805139+01 | 1486735453.80514 | pgbench_accounts_pkey |        690102272

 2017-02-10 15:04:14.855099+01 | 1486735454.8551 | pgbench_branches_pkey |            16384
 2017-02-10 15:04:14.855099+01 | 1486735454.8551 | pgbench_tellers_pkey  |            90112
 2017-02-10 15:04:14.855099+01 | 1486735454.8551 | pgbench_accounts_pkey |        690102272

 2017-02-10 15:04:15.907582+01 | 1486735455.90758 | pgbench_branches_pkey |            16384
 2017-02-10 15:04:15.907582+01 | 1486735455.90758 | pgbench_tellers_pkey  |            90112
 2017-02-10 15:04:15.907582+01 | 1486735455.90758 | pgbench_accounts_pkey |        690102272

 2017-02-10 15:04:16.959753+01 | 1486735456.95975 | pgbench_branches_pkey |            16384
 2017-02-10 15:04:16.959753+01 | 1486735456.95975 | pgbench_tellers_pkey  |            90112
 2017-02-10 15:04:16.959753+01 | 1486735456.95975 | pgbench_accounts_pkey |        690102272

 2017-02-10 15:04:18.010111+01 | 1486735458.01011 | pgbench_branches_pkey |            16384
 2017-02-10 15:04:18.010111+01 | 1486735458.01011 | pgbench_tellers_pkey  |            90112
 2017-02-10 15:04:18.010111+01 | 1486735458.01011 | pgbench_accounts_pkey |        690102272

 2017-02-10 15:04:19.061142+01 | 1486735459.06114 | pgbench_branches_pkey |            16384
 2017-02-10 15:04:19.061142+01 | 1486735459.06114 | pgbench_tellers_pkey  |            90112
 2017-02-10 15:04:19.061142+01 | 1486735459.06114 | pgbench_accounts_pkey |        690102272

 2017-02-10 15:04:20.113072+01 | 1486735460.11307 | pgbench_branches_pkey |            16384
 2017-02-10 15:04:20.113072+01 | 1486735460.11307 | pgbench_tellers_pkey  |            90112
 2017-02-10 15:04:20.113072+01 | 1486735460.11307 | pgbench_accounts_pkey |        690102272

 2017-02-10 15:04:21.163837+01 | 1486735461.16384 | pgbench_branches_pkey |            16384
 2017-02-10 15:04:21.163837+01 | 1486735461.16384 | pgbench_tellers_pkey  |            90112
 2017-02-10 15:04:21.163837+01 | 1486735461.16384 | pgbench_accounts_pkey |        690102272

 2017-02-10 15:04:22.217387+01 | 1486735462.21739 | pgbench_branches_pkey |            16384
 2017-02-10 15:04:22.217387+01 | 1486735462.21739 | pgbench_tellers_pkey  |            90112
 2017-02-10 15:04:22.217387+01 | 1486735462.21739 | pgbench_accounts_pkey |        690102272

 2017-02-10 15:04:23.2697+01 | 1486735463.2697 | pgbench_branches_pkey |            16384
 2017-02-10 15:04:23.2697+01 | 1486735463.2697 | pgbench_tellers_pkey  |            90112
 2017-02-10 15:04:23.2697+01 | 1486735463.2697 | pgbench_accounts_pkey |        690102272

 2017-02-10 15:04:24.324737+01 | 1486735464.32474 | pgbench_branches_pkey |            16384
 2017-02-10 15:04:24.324737+01 | 1486735464.32474 | pgbench_tellers_pkey  |            90112
 2017-02-10 15:04:24.324737+01 | 1486735464.32474 | pgbench_accounts_pkey |        690102272

 2017-02-10 15:04:25.378552+01 | 1486735465.37855 | pgbench_branches_pkey |            16384
 2017-02-10 15:04:25.378552+01 | 1486735465.37855 | pgbench_tellers_pkey  |            90112
 2017-02-10 15:04:25.378552+01 | 1486735465.37855 | pgbench_accounts_pkey |        690102272

 2017-02-10 15:04:26.430187+01 | 1486735466.43019 | pgbench_branches_pkey |            16384
 2017-02-10 15:04:26.430187+01 | 1486735466.43019 | pgbench_tellers_pkey  |            90112
 2017-02-10 15:04:26.430187+01 | 1486735466.43019 | pgbench_accounts_pkey |        690102272

 2017-02-10 15:04:27.481119+01 | 1486735467.48112 | pgbench_branches_pkey |            16384
 2017-02-10 15:04:27.481119+01 | 1486735467.48112 | pgbench_tellers_pkey  |            90112
 2017-02-10 15:04:27.481119+01 | 1486735467.48112 | pgbench_accounts_pkey |        690102272

 2017-02-10 15:04:28.534596+01 | 1486735468.5346 | pgbench_branches_pkey |            16384
 2017-02-10 15:04:28.534596+01 | 1486735468.5346 | pgbench_tellers_pkey  |            90112
 2017-02-10 15:04:28.534596+01 | 1486735468.5346 | pgbench_accounts_pkey |        690102272

 2017-02-10 15:04:29.588273+01 | 1486735469.58827 | pgbench_branches_pkey |            16384
 2017-02-10 15:04:29.588273+01 | 1486735469.58827 | pgbench_tellers_pkey  |            90112
 2017-02-10 15:04:29.588273+01 | 1486735469.58827 | pgbench_accounts_pkey |        690102272

 2017-02-10 15:04:30.639716+01 | 1486735470.63972 | pgbench_branches_pkey |            16384
 2017-02-10 15:04:30.639716+01 | 1486735470.63972 | pgbench_tellers_pkey  |            90112
 2017-02-10 15:04:30.639716+01 | 1486735470.63972 | pgbench_accounts_pkey |        690102272

 2017-02-10 15:04:31.695672+01 | 1486735471.69567 | pgbench_branches_pkey |            16384
 2017-02-10 15:04:31.695672+01 | 1486735471.69567 | pgbench_tellers_pkey  |            90112
 2017-02-10 15:04:31.695672+01 | 1486735471.69567 | pgbench_accounts_pkey |        690102272

 2017-02-10 15:04:32.747551+01 | 1486735472.74755 | pgbench_branches_pkey |            16384
 2017-02-10 15:04:32.747551+01 | 1486735472.74755 | pgbench_tellers_pkey  |            90112
 2017-02-10 15:04:32.747551+01 | 1486735472.74755 | pgbench_accounts_pkey |        690102272

 2017-02-10 15:04:33.799077+01 | 1486735473.79908 | pgbench_branches_pkey |            16384
 2017-02-10 15:04:33.799077+01 | 1486735473.79908 | pgbench_tellers_pkey  |            90112
 2017-02-10 15:04:33.799077+01 | 1486735473.79908 | pgbench_accounts_pkey |        690102272

 2017-02-10 15:04:34.85584+01 | 1486735474.85584 | pgbench_branches_pkey |            16384
 2017-02-10 15:04:34.85584+01 | 1486735474.85584 | pgbench_tellers_pkey  |            90112
 2017-02-10 15:04:34.85584+01 | 1486735474.85584 | pgbench_accounts_pkey |        690102272

 2017-02-10 15:04:35.906928+01 | 1486735475.90693 | pgbench_branches_pkey |            16384
 2017-02-10 15:04:35.906928+01 | 1486735475.90693 | pgbench_tellers_pkey  |            90112
 2017-02-10 15:04:35.906928+01 | 1486735475.90693 | pgbench_accounts_pkey |        690102272

 2017-02-10 15:04:36.958982+01 | 1486735476.95898 | pgbench_branches_pkey |            16384
 2017-02-10 15:04:36.958982+01 | 1486735476.95898 | pgbench_tellers_pkey  |            90112
 2017-02-10 15:04:36.958982+01 | 1486735476.95898 | pgbench_accounts_pkey |        690102272

 2017-02-10 15:04:38.01412+01 | 1486735478.01412 | pgbench_branches_pkey |            16384
 2017-02-10 15:04:38.01412+01 | 1486735478.01412 | pgbench_tellers_pkey  |            90112
 2017-02-10 15:04:38.01412+01 | 1486735478.01412 | pgbench_accounts_pkey |        690102272

 2017-02-10 15:04:39.067423+01 | 1486735479.06742 | pgbench_branches_pkey |            16384
 2017-02-10 15:04:39.067423+01 | 1486735479.06742 | pgbench_tellers_pkey  |            90112
 2017-02-10 15:04:39.067423+01 | 1486735479.06742 | pgbench_accounts_pkey |        690102272

 2017-02-10 15:04:40.119426+01 | 1486735480.11943 | pgbench_branches_pkey |            16384
 2017-02-10 15:04:40.119426+01 | 1486735480.11943 | pgbench_tellers_pkey  |            90112
 2017-02-10 15:04:40.119426+01 | 1486735480.11943 | pgbench_accounts_pkey |        690102272

 2017-02-10 15:04:41.176646+01 | 1486735481.17665 | pgbench_branches_pkey |            16384
 2017-02-10 15:04:41.176646+01 | 1486735481.17665 | pgbench_tellers_pkey  |            90112
 2017-02-10 15:04:41.176646+01 | 1486735481.17665 | pgbench_accounts_pkey |        690102272

 2017-02-10 15:04:42.227763+01 | 1486735482.22776 | pgbench_branches_pkey |            16384
 2017-02-10 15:04:42.227763+01 | 1486735482.22776 | pgbench_tellers_pkey  |            90112
 2017-02-10 15:04:42.227763+01 | 1486735482.22776 | pgbench_accounts_pkey |        690102272

 2017-02-10 15:04:43.280161+01 | 1486735483.28016 | pgbench_branches_pkey |            16384
 2017-02-10 15:04:43.280161+01 | 1486735483.28016 | pgbench_tellers_pkey  |            90112
 2017-02-10 15:04:43.280161+01 | 1486735483.28016 | pgbench_accounts_pkey |        690102272

 2017-02-10 15:04:44.332657+01 | 1486735484.33266 | pgbench_branches_pkey |            16384
 2017-02-10 15:04:44.332657+01 | 1486735484.33266 | pgbench_tellers_pkey  |            90112
 2017-02-10 15:04:44.332657+01 | 1486735484.33266 | pgbench_accounts_pkey |        690102272

 2017-02-10 15:04:45.3891+01 | 1486735485.3891 | pgbench_branches_pkey |            16384
 2017-02-10 15:04:45.3891+01 | 1486735485.3891 | pgbench_tellers_pkey  |            90112
 2017-02-10 15:04:45.3891+01 | 1486735485.3891 | pgbench_accounts_pkey |        690102272

 2017-02-10 15:04:46.4428+01 | 1486735486.4428 | pgbench_branches_pkey |            16384
 2017-02-10 15:04:46.4428+01 | 1486735486.4428 | pgbench_tellers_pkey  |            90112
 2017-02-10 15:04:46.4428+01 | 1486735486.4428 | pgbench_accounts_pkey |        690102272

 2017-02-10 15:04:47.493472+01 | 1486735487.49347 | pgbench_branches_pkey |            16384
 2017-02-10 15:04:47.493472+01 | 1486735487.49347 | pgbench_tellers_pkey  |            90112
 2017-02-10 15:04:47.493472+01 | 1486735487.49347 | pgbench_accounts_pkey |        690102272

 2017-02-10 15:04:48.548868+01 | 1486735488.54887 | pgbench_branches_pkey |            16384
 2017-02-10 15:04:48.548868+01 | 1486735488.54887 | pgbench_tellers_pkey  |            90112
 2017-02-10 15:04:48.548868+01 | 1486735488.54887 | pgbench_accounts_pkey |        690102272

 2017-02-10 15:04:49.607046+01 | 1486735489.60705 | pgbench_branches_pkey |            16384
 2017-02-10 15:04:49.607046+01 | 1486735489.60705 | pgbench_tellers_pkey  |            90112
 2017-02-10 15:04:49.607046+01 | 1486735489.60705 | pgbench_accounts_pkey |        690102272

 2017-02-10 15:04:50.656859+01 | 1486735490.65686 | pgbench_branches_pkey |            16384
 2017-02-10 15:04:50.656859+01 | 1486735490.65686 | pgbench_tellers_pkey  |            90112
 2017-02-10 15:04:50.656859+01 | 1486735490.65686 | pgbench_accounts_pkey |        690102272

 2017-02-10 15:04:51.707702+01 | 1486735491.7077 | pgbench_branches_pkey |            16384
 2017-02-10 15:04:51.707702+01 | 1486735491.7077 | pgbench_tellers_pkey  |            90112
 2017-02-10 15:04:51.707702+01 | 1486735491.7077 | pgbench_accounts_pkey |        690102272

 2017-02-10 15:04:52.762249+01 | 1486735492.76225 | pgbench_branches_pkey |            16384
 2017-02-10 15:04:52.762249+01 | 1486735492.76225 | pgbench_tellers_pkey  |            90112
 2017-02-10 15:04:52.762249+01 | 1486735492.76225 | pgbench_accounts_pkey |        690102272

 2017-02-10 15:04:53.818524+01 | 1486735493.81852 | pgbench_branches_pkey |            16384
 2017-02-10 15:04:53.818524+01 | 1486735493.81852 | pgbench_tellers_pkey  |            90112
 2017-02-10 15:04:53.818524+01 | 1486735493.81852 | pgbench_accounts_pkey |        690102272

 2017-02-10 15:04:54.870098+01 | 1486735494.8701 | pgbench_branches_pkey |            16384
 2017-02-10 15:04:54.870098+01 | 1486735494.8701 | pgbench_tellers_pkey  |            90112
 2017-02-10 15:04:54.870098+01 | 1486735494.8701 | pgbench_accounts_pkey |        690102272

 2017-02-10 15:04:55.923686+01 | 1486735495.92369 | pgbench_branches_pkey |            16384
 2017-02-10 15:04:55.923686+01 | 1486735495.92369 | pgbench_tellers_pkey  |            90112
 2017-02-10 15:04:55.923686+01 | 1486735495.92369 | pgbench_accounts_pkey |        690102272

 2017-02-10 15:04:56.985547+01 | 1486735496.98555 | pgbench_branches_pkey |            16384
 2017-02-10 15:04:56.985547+01 | 1486735496.98555 | pgbench_tellers_pkey  |            90112
 2017-02-10 15:04:56.985547+01 | 1486735496.98555 | pgbench_accounts_pkey |        690102272

 2017-02-10 15:04:58.037121+01 | 1486735498.03712 | pgbench_branches_pkey |            16384
 2017-02-10 15:04:58.037121+01 | 1486735498.03712 | pgbench_tellers_pkey  |            90112
 2017-02-10 15:04:58.037121+01 | 1486735498.03712 | pgbench_accounts_pkey |        690102272

 2017-02-10 15:04:59.089324+01 | 1486735499.08932 | pgbench_branches_pkey |            16384
 2017-02-10 15:04:59.089324+01 | 1486735499.08932 | pgbench_tellers_pkey  |            90112
 2017-02-10 15:04:59.089324+01 | 1486735499.08932 | pgbench_accounts_pkey |        690102272

 2017-02-10 15:05:00.140427+01 | 1486735500.14043 | pgbench_branches_pkey |            16384
 2017-02-10 15:05:00.140427+01 | 1486735500.14043 | pgbench_tellers_pkey  |            90112
 2017-02-10 15:05:00.140427+01 | 1486735500.14043 | pgbench_accounts_pkey |        690102272

 2017-02-10 15:05:01.193455+01 | 1486735501.19345 | pgbench_branches_pkey |            16384
 2017-02-10 15:05:01.193455+01 | 1486735501.19345 | pgbench_tellers_pkey  |            90112
 2017-02-10 15:05:01.193455+01 | 1486735501.19345 | pgbench_accounts_pkey |        690102272

 2017-02-10 15:05:02.247746+01 | 1486735502.24775 | pgbench_branches_pkey |            16384
 2017-02-10 15:05:02.247746+01 | 1486735502.24775 | pgbench_tellers_pkey  |            90112
 2017-02-10 15:05:02.247746+01 | 1486735502.24775 | pgbench_accounts_pkey |        690102272

 2017-02-10 15:05:03.301313+01 | 1486735503.30131 | pgbench_branches_pkey |            16384
 2017-02-10 15:05:03.301313+01 | 1486735503.30131 | pgbench_tellers_pkey  |            90112
 2017-02-10 15:05:03.301313+01 | 1486735503.30131 | pgbench_accounts_pkey |        690102272

 2017-02-10 15:05:04.359642+01 | 1486735504.35964 | pgbench_branches_pkey |            16384
 2017-02-10 15:05:04.359642+01 | 1486735504.35964 | pgbench_tellers_pkey  |            90112
 2017-02-10 15:05:04.359642+01 | 1486735504.35964 | pgbench_accounts_pkey |        690102272

 2017-02-10 15:05:05.416455+01 | 1486735505.41646 | pgbench_branches_pkey |            16384
 2017-02-10 15:05:05.416455+01 | 1486735505.41646 | pgbench_tellers_pkey  |            90112
 2017-02-10 15:05:05.416455+01 | 1486735505.41646 | pgbench_accounts_pkey |        690102272

 2017-02-10 15:05:06.469347+01 | 1486735506.46935 | pgbench_branches_pkey |            16384
 2017-02-10 15:05:06.469347+01 | 1486735506.46935 | pgbench_tellers_pkey  |            90112
 2017-02-10 15:05:06.469347+01 | 1486735506.46935 | pgbench_accounts_pkey |        690102272

 2017-02-10 15:05:07.52158+01 | 1486735507.52158 | pgbench_branches_pkey |            16384
 2017-02-10 15:05:07.52158+01 | 1486735507.52158 | pgbench_tellers_pkey  |            90112
 2017-02-10 15:05:07.52158+01 | 1486735507.52158 | pgbench_accounts_pkey |        690102272

 2017-02-10 15:05:08.575906+01 | 1486735508.57591 | pgbench_branches_pkey |            16384
 2017-02-10 15:05:08.575906+01 | 1486735508.57591 | pgbench_tellers_pkey  |            90112
 2017-02-10 15:05:08.575906+01 | 1486735508.57591 | pgbench_accounts_pkey |        690102272

 2017-02-10 15:05:09.627165+01 | 1486735509.62717 | pgbench_branches_pkey |            16384
 2017-02-10 15:05:09.627165+01 | 1486735509.62717 | pgbench_tellers_pkey  |            90112
 2017-02-10 15:05:09.627165+01 | 1486735509.62717 | pgbench_accounts_pkey |        690102272

 2017-02-10 15:05:10.679798+01 | 1486735510.6798 | pgbench_branches_pkey |            16384
 2017-02-10 15:05:10.679798+01 | 1486735510.6798 | pgbench_tellers_pkey  |            90112
 2017-02-10 15:05:10.679798+01 | 1486735510.6798 | pgbench_accounts_pkey |        690102272

 2017-02-10 15:05:11.729624+01 | 1486735511.72962 | pgbench_branches_pkey |            16384
 2017-02-10 15:05:11.729624+01 | 1486735511.72962 | pgbench_tellers_pkey  |            90112
 2017-02-10 15:05:11.729624+01 | 1486735511.72962 | pgbench_accounts_pkey |        690102272

 2017-02-10 15:05:12.784715+01 | 1486735512.78471 | pgbench_branches_pkey |            16384
 2017-02-10 15:05:12.784715+01 | 1486735512.78471 | pgbench_tellers_pkey  |            90112
 2017-02-10 15:05:12.784715+01 | 1486735512.78471 | pgbench_accounts_pkey |        690102272

 2017-02-10 15:05:13.836908+01 | 1486735513.83691 | pgbench_branches_pkey |            16384
 2017-02-10 15:05:13.836908+01 | 1486735513.83691 | pgbench_tellers_pkey  |            90112
 2017-02-10 15:05:13.836908+01 | 1486735513.83691 | pgbench_accounts_pkey |        690102272

 2017-02-10 15:05:14.890015+01 | 1486735514.89001 | pgbench_branches_pkey |            16384
 2017-02-10 15:05:14.890015+01 | 1486735514.89001 | pgbench_tellers_pkey  |            90112
 2017-02-10 15:05:14.890015+01 | 1486735514.89001 | pgbench_accounts_pkey |        690102272

 2017-02-10 15:05:15.943096+01 | 1486735515.9431 | pgbench_branches_pkey |            16384
 2017-02-10 15:05:15.943096+01 | 1486735515.9431 | pgbench_tellers_pkey  |            90112
 2017-02-10 15:05:15.943096+01 | 1486735515.9431 | pgbench_accounts_pkey |        690102272

 2017-02-10 15:05:16.995876+01 | 1486735516.99588 | pgbench_branches_pkey |            16384
 2017-02-10 15:05:16.995876+01 | 1486735516.99588 | pgbench_tellers_pkey  |            90112
 2017-02-10 15:05:16.995876+01 | 1486735516.99588 | pgbench_accounts_pkey |        690102272

 2017-02-10 15:05:18.048542+01 | 1486735518.04854 | pgbench_branches_pkey |            16384
 2017-02-10 15:05:18.048542+01 | 1486735518.04854 | pgbench_tellers_pkey  |            90112
 2017-02-10 15:05:18.048542+01 | 1486735518.04854 | pgbench_accounts_pkey |        690102272

 2017-02-10 15:05:19.101005+01 | 1486735519.10101 | pgbench_branches_pkey |            16384
 2017-02-10 15:05:19.101005+01 | 1486735519.10101 | pgbench_tellers_pkey  |            90112
 2017-02-10 15:05:19.101005+01 | 1486735519.10101 | pgbench_accounts_pkey |        690102272

 2017-02-10 15:05:20.149846+01 | 1486735520.14985 | pgbench_branches_pkey |            16384
 2017-02-10 15:05:20.149846+01 | 1486735520.14985 | pgbench_tellers_pkey  |            90112
 2017-02-10 15:05:20.149846+01 | 1486735520.14985 | pgbench_accounts_pkey |        690102272

 2017-02-10 15:05:21.202121+01 | 1486735521.20212 | pgbench_branches_pkey |            16384
 2017-02-10 15:05:21.202121+01 | 1486735521.20212 | pgbench_tellers_pkey  |            90112
 2017-02-10 15:05:21.202121+01 | 1486735521.20212 | pgbench_accounts_pkey |        690102272

 2017-02-10 15:05:22.255477+01 | 1486735522.25548 | pgbench_branches_pkey |            16384
 2017-02-10 15:05:22.255477+01 | 1486735522.25548 | pgbench_tellers_pkey  |            90112
 2017-02-10 15:05:22.255477+01 | 1486735522.25548 | pgbench_accounts_pkey |        690102272

 2017-02-10 15:05:23.307802+01 | 1486735523.3078 | pgbench_branches_pkey |            16384
 2017-02-10 15:05:23.307802+01 | 1486735523.3078 | pgbench_tellers_pkey  |            90112
 2017-02-10 15:05:23.307802+01 | 1486735523.3078 | pgbench_accounts_pkey |        690102272

 2017-02-10 15:05:24.359912+01 | 1486735524.35991 | pgbench_branches_pkey |            16384
 2017-02-10 15:05:24.359912+01 | 1486735524.35991 | pgbench_tellers_pkey  |            90112
 2017-02-10 15:05:24.359912+01 | 1486735524.35991 | pgbench_accounts_pkey |        690102272

 2017-02-10 15:05:25.41119+01 | 1486735525.41119 | pgbench_branches_pkey |            16384
 2017-02-10 15:05:25.41119+01 | 1486735525.41119 | pgbench_tellers_pkey  |            90112
 2017-02-10 15:05:25.41119+01 | 1486735525.41119 | pgbench_accounts_pkey |        690102272

 2017-02-10 15:05:26.464081+01 | 1486735526.46408 | pgbench_branches_pkey |            16384
 2017-02-10 15:05:26.464081+01 | 1486735526.46408 | pgbench_tellers_pkey  |            90112
 2017-02-10 15:05:26.464081+01 | 1486735526.46408 | pgbench_accounts_pkey |        690102272

 2017-02-10 15:05:27.517361+01 | 1486735527.51736 | pgbench_branches_pkey |            16384
 2017-02-10 15:05:27.517361+01 | 1486735527.51736 | pgbench_tellers_pkey  |            90112
 2017-02-10 15:05:27.517361+01 | 1486735527.51736 | pgbench_accounts_pkey |        690102272

 2017-02-10 15:05:28.569205+01 | 1486735528.56921 | pgbench_branches_pkey |            16384
 2017-02-10 15:05:28.569205+01 | 1486735528.56921 | pgbench_tellers_pkey  |            90112
 2017-02-10 15:05:28.569205+01 | 1486735528.56921 | pgbench_accounts_pkey |        690102272

 2017-02-10 15:05:29.62522+01 | 1486735529.62522 | pgbench_branches_pkey |            16384
 2017-02-10 15:05:29.62522+01 | 1486735529.62522 | pgbench_tellers_pkey  |            90112
 2017-02-10 15:05:29.62522+01 | 1486735529.62522 | pgbench_accounts_pkey |        690102272

 2017-02-10 15:05:30.679716+01 | 1486735530.67972 | pgbench_branches_pkey |            16384
 2017-02-10 15:05:30.679716+01 | 1486735530.67972 | pgbench_tellers_pkey  |            90112
 2017-02-10 15:05:30.679716+01 | 1486735530.67972 | pgbench_accounts_pkey |        690102272

 2017-02-10 15:05:31.731795+01 | 1486735531.7318 | pgbench_branches_pkey |            16384
 2017-02-10 15:05:31.731795+01 | 1486735531.7318 | pgbench_tellers_pkey  |            90112
 2017-02-10 15:05:31.731795+01 | 1486735531.7318 | pgbench_accounts_pkey |        690102272

 2017-02-10 15:05:32.781438+01 | 1486735532.78144 | pgbench_branches_pkey |            16384
 2017-02-10 15:05:32.781438+01 | 1486735532.78144 | pgbench_tellers_pkey  |            90112
 2017-02-10 15:05:32.781438+01 | 1486735532.78144 | pgbench_accounts_pkey |        690102272

 2017-02-10 15:05:33.833415+01 | 1486735533.83342 | pgbench_branches_pkey |            16384
 2017-02-10 15:05:33.833415+01 | 1486735533.83342 | pgbench_tellers_pkey  |            90112
 2017-02-10 15:05:33.833415+01 | 1486735533.83342 | pgbench_accounts_pkey |        690102272

 2017-02-10 15:05:34.889338+01 | 1486735534.88934 | pgbench_branches_pkey |            16384
 2017-02-10 15:05:34.889338+01 | 1486735534.88934 | pgbench_tellers_pkey  |            90112
 2017-02-10 15:05:34.889338+01 | 1486735534.88934 | pgbench_accounts_pkey |        690102272

 2017-02-10 15:05:35.943967+01 | 1486735535.94397 | pgbench_branches_pkey |            16384
 2017-02-10 15:05:35.943967+01 | 1486735535.94397 | pgbench_tellers_pkey  |            90112
 2017-02-10 15:05:35.943967+01 | 1486735535.94397 | pgbench_accounts_pkey |        690102272

 2017-02-10 15:05:36.997088+01 | 1486735536.99709 | pgbench_branches_pkey |            16384
 2017-02-10 15:05:36.997088+01 | 1486735536.99709 | pgbench_tellers_pkey  |            90112
 2017-02-10 15:05:36.997088+01 | 1486735536.99709 | pgbench_accounts_pkey |        690102272

 2017-02-10 15:05:38.05002+01 | 1486735538.05002 | pgbench_branches_pkey |            16384
 2017-02-10 15:05:38.05002+01 | 1486735538.05002 | pgbench_tellers_pkey  |            90112
 2017-02-10 15:05:38.05002+01 | 1486735538.05002 | pgbench_accounts_pkey |        690102272

 2017-02-10 15:05:39.106305+01 | 1486735539.1063 | pgbench_branches_pkey |            16384
 2017-02-10 15:05:39.106305+01 | 1486735539.1063 | pgbench_tellers_pkey  |            90112
 2017-02-10 15:05:39.106305+01 | 1486735539.1063 | pgbench_accounts_pkey |        690102272

 2017-02-10 15:05:40.158344+01 | 1486735540.15834 | pgbench_branches_pkey |            16384
 2017-02-10 15:05:40.158344+01 | 1486735540.15834 | pgbench_tellers_pkey  |            90112
 2017-02-10 15:05:40.158344+01 | 1486735540.15834 | pgbench_accounts_pkey |        690102272

 2017-02-10 15:05:41.212165+01 | 1486735541.21217 | pgbench_branches_pkey |            16384
 2017-02-10 15:05:41.212165+01 | 1486735541.21217 | pgbench_tellers_pkey  |            90112
 2017-02-10 15:05:41.212165+01 | 1486735541.21217 | pgbench_accounts_pkey |        690102272

 2017-02-10 15:05:42.263617+01 | 1486735542.26362 | pgbench_branches_pkey |            16384
 2017-02-10 15:05:42.263617+01 | 1486735542.26362 | pgbench_tellers_pkey  |            90112
 2017-02-10 15:05:42.263617+01 | 1486735542.26362 | pgbench_accounts_pkey |        690102272

 2017-02-10 15:05:43.316632+01 | 1486735543.31663 | pgbench_branches_pkey |            16384
 2017-02-10 15:05:43.316632+01 | 1486735543.31663 | pgbench_tellers_pkey  |            90112
 2017-02-10 15:05:43.316632+01 | 1486735543.31663 | pgbench_accounts_pkey |        690102272

 2017-02-10 15:05:44.370662+01 | 1486735544.37066 | pgbench_branches_pkey |            16384
 2017-02-10 15:05:44.370662+01 | 1486735544.37066 | pgbench_tellers_pkey  |            90112
 2017-02-10 15:05:44.370662+01 | 1486735544.37066 | pgbench_accounts_pkey |        690102272

 2017-02-10 15:05:45.423104+01 | 1486735545.4231 | pgbench_branches_pkey |            16384
 2017-02-10 15:05:45.423104+01 | 1486735545.4231 | pgbench_tellers_pkey  |            90112
 2017-02-10 15:05:45.423104+01 | 1486735545.4231 | pgbench_accounts_pkey |        690102272

 2017-02-10 15:05:46.474351+01 | 1486735546.47435 | pgbench_branches_pkey |            16384
 2017-02-10 15:05:46.474351+01 | 1486735546.47435 | pgbench_tellers_pkey  |            90112
 2017-02-10 15:05:46.474351+01 | 1486735546.47435 | pgbench_accounts_pkey |        690102272

 2017-02-10 15:05:47.529501+01 | 1486735547.5295 | pgbench_branches_pkey |            16384
 2017-02-10 15:05:47.529501+01 | 1486735547.5295 | pgbench_tellers_pkey  |            90112
 2017-02-10 15:05:47.529501+01 | 1486735547.5295 | pgbench_accounts_pkey |        690102272

 2017-02-10 15:05:48.580916+01 | 1486735548.58092 | pgbench_branches_pkey |            16384
 2017-02-10 15:05:48.580916+01 | 1486735548.58092 | pgbench_tellers_pkey  |            90112
 2017-02-10 15:05:48.580916+01 | 1486735548.58092 | pgbench_accounts_pkey |        690102272

 2017-02-10 15:05:49.634222+01 | 1486735549.63422 | pgbench_branches_pkey |            16384
 2017-02-10 15:05:49.634222+01 | 1486735549.63422 | pgbench_tellers_pkey  |            90112
 2017-02-10 15:05:49.634222+01 | 1486735549.63422 | pgbench_accounts_pkey |        690102272

 2017-02-10 15:05:50.687894+01 | 1486735550.68789 | pgbench_branches_pkey |            16384
 2017-02-10 15:05:50.687894+01 | 1486735550.68789 | pgbench_tellers_pkey  |            90112
 2017-02-10 15:05:50.687894+01 | 1486735550.68789 | pgbench_accounts_pkey |        690102272

 2017-02-10 15:05:51.74046+01 | 1486735551.74046 | pgbench_branches_pkey |            16384
 2017-02-10 15:05:51.74046+01 | 1486735551.74046 | pgbench_tellers_pkey  |            90112
 2017-02-10 15:05:51.74046+01 | 1486735551.74046 | pgbench_accounts_pkey |        690102272

 2017-02-10 15:05:52.793957+01 | 1486735552.79396 | pgbench_branches_pkey |            16384
 2017-02-10 15:05:52.793957+01 | 1486735552.79396 | pgbench_tellers_pkey  |            90112
 2017-02-10 15:05:52.793957+01 | 1486735552.79396 | pgbench_accounts_pkey |        690102272

 2017-02-10 15:05:53.846449+01 | 1486735553.84645 | pgbench_branches_pkey |            16384
 2017-02-10 15:05:53.846449+01 | 1486735553.84645 | pgbench_tellers_pkey  |            90112
 2017-02-10 15:05:53.846449+01 | 1486735553.84645 | pgbench_accounts_pkey |        690102272

 2017-02-10 15:05:54.903054+01 | 1486735554.90305 | pgbench_branches_pkey |            16384
 2017-02-10 15:05:54.903054+01 | 1486735554.90305 | pgbench_tellers_pkey  |            90112
 2017-02-10 15:05:54.903054+01 | 1486735554.90305 | pgbench_accounts_pkey |        690102272

 2017-02-10 15:05:55.954738+01 | 1486735555.95474 | pgbench_branches_pkey |            16384
 2017-02-10 15:05:55.954738+01 | 1486735555.95474 | pgbench_tellers_pkey  |            90112
 2017-02-10 15:05:55.954738+01 | 1486735555.95474 | pgbench_accounts_pkey |        690102272

 2017-02-10 15:05:57.008345+01 | 1486735557.00834 | pgbench_branches_pkey |            16384
 2017-02-10 15:05:57.008345+01 | 1486735557.00834 | pgbench_tellers_pkey  |            90112
 2017-02-10 15:05:57.008345+01 | 1486735557.00834 | pgbench_accounts_pkey |        690102272

 2017-02-10 15:05:58.062843+01 | 1486735558.06284 | pgbench_branches_pkey |            16384
 2017-02-10 15:05:58.062843+01 | 1486735558.06284 | pgbench_tellers_pkey  |            90112
 2017-02-10 15:05:58.062843+01 | 1486735558.06284 | pgbench_accounts_pkey |        690102272

 2017-02-10 15:05:59.113939+01 | 1486735559.11394 | pgbench_branches_pkey |            16384
 2017-02-10 15:05:59.113939+01 | 1486735559.11394 | pgbench_tellers_pkey  |            90112
 2017-02-10 15:05:59.113939+01 | 1486735559.11394 | pgbench_accounts_pkey |        690102272

 2017-02-10 15:06:00.170197+01 | 1486735560.1702 | pgbench_branches_pkey |            16384
 2017-02-10 15:06:00.170197+01 | 1486735560.1702 | pgbench_tellers_pkey  |            90112
 2017-02-10 15:06:00.170197+01 | 1486735560.1702 | pgbench_accounts_pkey |        690102272

 2017-02-10 15:06:01.225902+01 | 1486735561.2259 | pgbench_branches_pkey |            16384
 2017-02-10 15:06:01.225902+01 | 1486735561.2259 | pgbench_tellers_pkey  |            90112
 2017-02-10 15:06:01.225902+01 | 1486735561.2259 | pgbench_accounts_pkey |        690102272

 2017-02-10 15:06:02.279744+01 | 1486735562.27974 | pgbench_branches_pkey |            16384
 2017-02-10 15:06:02.279744+01 | 1486735562.27974 | pgbench_tellers_pkey  |            90112
 2017-02-10 15:06:02.279744+01 | 1486735562.27974 | pgbench_accounts_pkey |        690102272

 2017-02-10 15:06:03.33426+01 | 1486735563.33426 | pgbench_branches_pkey |            16384
 2017-02-10 15:06:03.33426+01 | 1486735563.33426 | pgbench_tellers_pkey  |            90112
 2017-02-10 15:06:03.33426+01 | 1486735563.33426 | pgbench_accounts_pkey |        690102272

 2017-02-10 15:06:04.38702+01 | 1486735564.38702 | pgbench_branches_pkey |            16384
 2017-02-10 15:06:04.38702+01 | 1486735564.38702 | pgbench_tellers_pkey  |            90112
 2017-02-10 15:06:04.38702+01 | 1486735564.38702 | pgbench_accounts_pkey |        690102272

 2017-02-10 15:06:05.438346+01 | 1486735565.43835 | pgbench_branches_pkey |            16384
 2017-02-10 15:06:05.438346+01 | 1486735565.43835 | pgbench_tellers_pkey  |            90112
 2017-02-10 15:06:05.438346+01 | 1486735565.43835 | pgbench_accounts_pkey |        690102272

 2017-02-10 15:06:06.493618+01 | 1486735566.49362 | pgbench_branches_pkey |            16384
 2017-02-10 15:06:06.493618+01 | 1486735566.49362 | pgbench_tellers_pkey  |            90112
 2017-02-10 15:06:06.493618+01 | 1486735566.49362 | pgbench_accounts_pkey |        690102272

 2017-02-10 15:06:07.547831+01 | 1486735567.54783 | pgbench_branches_pkey |            16384
 2017-02-10 15:06:07.547831+01 | 1486735567.54783 | pgbench_tellers_pkey  |            90112
 2017-02-10 15:06:07.547831+01 | 1486735567.54783 | pgbench_accounts_pkey |        690102272

 2017-02-10 15:06:08.599623+01 | 1486735568.59962 | pgbench_branches_pkey |            16384
 2017-02-10 15:06:08.599623+01 | 1486735568.59962 | pgbench_tellers_pkey  |            90112
 2017-02-10 15:06:08.599623+01 | 1486735568.59962 | pgbench_accounts_pkey |        690102272

 2017-02-10 15:06:09.652748+01 | 1486735569.65275 | pgbench_branches_pkey |            16384
 2017-02-10 15:06:09.652748+01 | 1486735569.65275 | pgbench_tellers_pkey  |            90112
 2017-02-10 15:06:09.652748+01 | 1486735569.65275 | pgbench_accounts_pkey |        690102272

 2017-02-10 15:06:10.703687+01 | 1486735570.70369 | pgbench_branches_pkey |            16384
 2017-02-10 15:06:10.703687+01 | 1486735570.70369 | pgbench_tellers_pkey  |            90112
 2017-02-10 15:06:10.703687+01 | 1486735570.70369 | pgbench_accounts_pkey |        690102272

 2017-02-10 15:06:11.759371+01 | 1486735571.75937 | pgbench_branches_pkey |            16384
 2017-02-10 15:06:11.759371+01 | 1486735571.75937 | pgbench_tellers_pkey  |            90112
 2017-02-10 15:06:11.759371+01 | 1486735571.75937 | pgbench_accounts_pkey |        690102272

 2017-02-10 15:06:12.812416+01 | 1486735572.81242 | pgbench_branches_pkey |            16384
 2017-02-10 15:06:12.812416+01 | 1486735572.81242 | pgbench_tellers_pkey  |            90112
 2017-02-10 15:06:12.812416+01 | 1486735572.81242 | pgbench_accounts_pkey |        690102272

 2017-02-10 15:06:13.863546+01 | 1486735573.86355 | pgbench_branches_pkey |            16384
 2017-02-10 15:06:13.863546+01 | 1486735573.86355 | pgbench_tellers_pkey  |            90112
 2017-02-10 15:06:13.863546+01 | 1486735573.86355 | pgbench_accounts_pkey |        690102272

 2017-02-10 15:06:14.914318+01 | 1486735574.91432 | pgbench_branches_pkey |            16384
 2017-02-10 15:06:14.914318+01 | 1486735574.91432 | pgbench_tellers_pkey  |            90112
 2017-02-10 15:06:14.914318+01 | 1486735574.91432 | pgbench_accounts_pkey |        690102272

