 2017-02-08 20:34:26.51508+01 | 1486582466.51508 | pgbench_accounts |       4119797760
 2017-02-08 20:34:26.51508+01 | 1486582466.51508 | pgbench_tellers  |           139264
 2017-02-08 20:34:26.51508+01 | 1486582466.51508 | pgbench_history  |                0
 2017-02-08 20:34:26.51508+01 | 1486582466.51508 | pgbench_branches |            16384

 2017-02-08 20:34:27.595921+01 | 1486582467.59592 | pgbench_accounts |       4119797760
 2017-02-08 20:34:27.595921+01 | 1486582467.59592 | pgbench_tellers  |           139264
 2017-02-08 20:34:27.595921+01 | 1486582467.59592 | pgbench_history  |                0
 2017-02-08 20:34:27.595921+01 | 1486582467.59592 | pgbench_branches |            16384

 2017-02-08 20:34:28.660978+01 | 1486582468.66098 | pgbench_accounts |       4119797760
 2017-02-08 20:34:28.660978+01 | 1486582468.66098 | pgbench_tellers  |           139264
 2017-02-08 20:34:28.660978+01 | 1486582468.66098 | pgbench_history  |                0
 2017-02-08 20:34:28.660978+01 | 1486582468.66098 | pgbench_branches |            16384

 2017-02-08 20:34:29.74557+01 | 1486582469.74557 | pgbench_accounts |       4119797760
 2017-02-08 20:34:29.74557+01 | 1486582469.74557 | pgbench_tellers  |           139264
 2017-02-08 20:34:29.74557+01 | 1486582469.74557 | pgbench_history  |                0
 2017-02-08 20:34:29.74557+01 | 1486582469.74557 | pgbench_branches |            16384

 2017-02-08 20:34:30.814846+01 | 1486582470.81485 | pgbench_accounts |       4119797760
 2017-02-08 20:34:30.814846+01 | 1486582470.81485 | pgbench_tellers  |           139264
 2017-02-08 20:34:30.814846+01 | 1486582470.81485 | pgbench_history  |                0
 2017-02-08 20:34:30.814846+01 | 1486582470.81485 | pgbench_branches |            16384

 2017-02-08 20:34:31.877308+01 | 1486582471.87731 | pgbench_accounts |       4119797760
 2017-02-08 20:34:31.877308+01 | 1486582471.87731 | pgbench_tellers  |           139264
 2017-02-08 20:34:31.877308+01 | 1486582471.87731 | pgbench_history  |                0
 2017-02-08 20:34:31.877308+01 | 1486582471.87731 | pgbench_branches |            16384

 2017-02-08 20:34:32.942829+01 | 1486582472.94283 | pgbench_accounts |       4119797760
 2017-02-08 20:34:32.942829+01 | 1486582472.94283 | pgbench_tellers  |           139264
 2017-02-08 20:34:32.942829+01 | 1486582472.94283 | pgbench_history  |                0
 2017-02-08 20:34:32.942829+01 | 1486582472.94283 | pgbench_branches |            16384

 2017-02-08 20:34:34.00982+01 | 1486582474.00982 | pgbench_accounts |       4119797760
 2017-02-08 20:34:34.00982+01 | 1486582474.00982 | pgbench_tellers  |           139264
 2017-02-08 20:34:34.00982+01 | 1486582474.00982 | pgbench_history  |                0
 2017-02-08 20:34:34.00982+01 | 1486582474.00982 | pgbench_branches |            16384

 2017-02-08 20:34:35.077864+01 | 1486582475.07786 | pgbench_accounts |       4119797760
 2017-02-08 20:34:35.077864+01 | 1486582475.07786 | pgbench_tellers  |           139264
 2017-02-08 20:34:35.077864+01 | 1486582475.07786 | pgbench_history  |                0
 2017-02-08 20:34:35.077864+01 | 1486582475.07786 | pgbench_branches |            16384

 2017-02-08 20:34:36.151914+01 | 1486582476.15191 | pgbench_accounts |       4119797760
 2017-02-08 20:34:36.151914+01 | 1486582476.15191 | pgbench_tellers  |           139264
 2017-02-08 20:34:36.151914+01 | 1486582476.15191 | pgbench_history  |                0
 2017-02-08 20:34:36.151914+01 | 1486582476.15191 | pgbench_branches |            16384

 2017-02-08 20:34:37.234579+01 | 1486582477.23458 | pgbench_accounts |       4119797760
 2017-02-08 20:34:37.234579+01 | 1486582477.23458 | pgbench_tellers  |           139264
 2017-02-08 20:34:37.234579+01 | 1486582477.23458 | pgbench_history  |                0
 2017-02-08 20:34:37.234579+01 | 1486582477.23458 | pgbench_branches |            16384

 2017-02-08 20:34:38.301768+01 | 1486582478.30177 | pgbench_accounts |       4119797760
 2017-02-08 20:34:38.301768+01 | 1486582478.30177 | pgbench_tellers  |           139264
 2017-02-08 20:34:38.301768+01 | 1486582478.30177 | pgbench_history  |                0
 2017-02-08 20:34:38.301768+01 | 1486582478.30177 | pgbench_branches |            16384

 2017-02-08 20:34:39.358931+01 | 1486582479.35893 | pgbench_accounts |       4119797760
 2017-02-08 20:34:39.358931+01 | 1486582479.35893 | pgbench_tellers  |           139264
 2017-02-08 20:34:39.358931+01 | 1486582479.35893 | pgbench_history  |                0
 2017-02-08 20:34:39.358931+01 | 1486582479.35893 | pgbench_branches |            16384

 2017-02-08 20:34:40.421025+01 | 1486582480.42103 | pgbench_accounts |       4119797760
 2017-02-08 20:34:40.421025+01 | 1486582480.42103 | pgbench_tellers  |           139264
 2017-02-08 20:34:40.421025+01 | 1486582480.42103 | pgbench_history  |                0
 2017-02-08 20:34:40.421025+01 | 1486582480.42103 | pgbench_branches |            16384

 2017-02-08 20:34:41.491144+01 | 1486582481.49114 | pgbench_accounts |       4119797760
 2017-02-08 20:34:41.491144+01 | 1486582481.49114 | pgbench_tellers  |           139264
 2017-02-08 20:34:41.491144+01 | 1486582481.49114 | pgbench_history  |                0
 2017-02-08 20:34:41.491144+01 | 1486582481.49114 | pgbench_branches |            16384

 2017-02-08 20:34:42.568706+01 | 1486582482.56871 | pgbench_accounts |       4119797760
 2017-02-08 20:34:42.568706+01 | 1486582482.56871 | pgbench_tellers  |           139264
 2017-02-08 20:34:42.568706+01 | 1486582482.56871 | pgbench_history  |                0
 2017-02-08 20:34:42.568706+01 | 1486582482.56871 | pgbench_branches |            16384

 2017-02-08 20:34:43.641049+01 | 1486582483.64105 | pgbench_accounts |       4119797760
 2017-02-08 20:34:43.641049+01 | 1486582483.64105 | pgbench_tellers  |           139264
 2017-02-08 20:34:43.641049+01 | 1486582483.64105 | pgbench_history  |                0
 2017-02-08 20:34:43.641049+01 | 1486582483.64105 | pgbench_branches |            16384

 2017-02-08 20:34:44.703114+01 | 1486582484.70311 | pgbench_accounts |       4119797760
 2017-02-08 20:34:44.703114+01 | 1486582484.70311 | pgbench_tellers  |           139264
 2017-02-08 20:34:44.703114+01 | 1486582484.70311 | pgbench_history  |                0
 2017-02-08 20:34:44.703114+01 | 1486582484.70311 | pgbench_branches |            16384

 2017-02-08 20:34:45.762636+01 | 1486582485.76264 | pgbench_accounts |       4119797760
 2017-02-08 20:34:45.762636+01 | 1486582485.76264 | pgbench_tellers  |           139264
 2017-02-08 20:34:45.762636+01 | 1486582485.76264 | pgbench_history  |                0
 2017-02-08 20:34:45.762636+01 | 1486582485.76264 | pgbench_branches |            16384

 2017-02-08 20:34:46.829422+01 | 1486582486.82942 | pgbench_accounts |       4119797760
 2017-02-08 20:34:46.829422+01 | 1486582486.82942 | pgbench_tellers  |           139264
 2017-02-08 20:34:46.829422+01 | 1486582486.82942 | pgbench_history  |                0
 2017-02-08 20:34:46.829422+01 | 1486582486.82942 | pgbench_branches |            16384

 2017-02-08 20:34:47.892789+01 | 1486582487.89279 | pgbench_accounts |       4119797760
 2017-02-08 20:34:47.892789+01 | 1486582487.89279 | pgbench_tellers  |           139264
 2017-02-08 20:34:47.892789+01 | 1486582487.89279 | pgbench_history  |                0
 2017-02-08 20:34:47.892789+01 | 1486582487.89279 | pgbench_branches |            16384

 2017-02-08 20:34:48.967062+01 | 1486582488.96706 | pgbench_accounts |       4119797760
 2017-02-08 20:34:48.967062+01 | 1486582488.96706 | pgbench_tellers  |           139264
 2017-02-08 20:34:48.967062+01 | 1486582488.96706 | pgbench_history  |                0
 2017-02-08 20:34:48.967062+01 | 1486582488.96706 | pgbench_branches |            16384

 2017-02-08 20:34:50.032276+01 | 1486582490.03228 | pgbench_accounts |       4119797760
 2017-02-08 20:34:50.032276+01 | 1486582490.03228 | pgbench_tellers  |           139264
 2017-02-08 20:34:50.032276+01 | 1486582490.03228 | pgbench_history  |                0
 2017-02-08 20:34:50.032276+01 | 1486582490.03228 | pgbench_branches |            16384

 2017-02-08 20:34:51.101369+01 | 1486582491.10137 | pgbench_accounts |       4119797760
 2017-02-08 20:34:51.101369+01 | 1486582491.10137 | pgbench_tellers  |           139264
 2017-02-08 20:34:51.101369+01 | 1486582491.10137 | pgbench_history  |                0
 2017-02-08 20:34:51.101369+01 | 1486582491.10137 | pgbench_branches |            16384

 2017-02-08 20:34:52.184683+01 | 1486582492.18468 | pgbench_accounts |       4119797760
 2017-02-08 20:34:52.184683+01 | 1486582492.18468 | pgbench_tellers  |           139264
 2017-02-08 20:34:52.184683+01 | 1486582492.18468 | pgbench_history  |                0
 2017-02-08 20:34:52.184683+01 | 1486582492.18468 | pgbench_branches |            16384

 2017-02-08 20:34:53.288124+01 | 1486582493.28812 | pgbench_accounts |       4119797760
 2017-02-08 20:34:53.288124+01 | 1486582493.28812 | pgbench_tellers  |           139264
 2017-02-08 20:34:53.288124+01 | 1486582493.28812 | pgbench_history  |                0
 2017-02-08 20:34:53.288124+01 | 1486582493.28812 | pgbench_branches |            16384

 2017-02-08 20:34:54.364647+01 | 1486582494.36465 | pgbench_accounts |       4119797760
 2017-02-08 20:34:54.364647+01 | 1486582494.36465 | pgbench_tellers  |           139264
 2017-02-08 20:34:54.364647+01 | 1486582494.36465 | pgbench_history  |                0
 2017-02-08 20:34:54.364647+01 | 1486582494.36465 | pgbench_branches |            16384

 2017-02-08 20:34:55.441657+01 | 1486582495.44166 | pgbench_accounts |       4119797760
 2017-02-08 20:34:55.441657+01 | 1486582495.44166 | pgbench_tellers  |           139264
 2017-02-08 20:34:55.441657+01 | 1486582495.44166 | pgbench_history  |                0
 2017-02-08 20:34:55.441657+01 | 1486582495.44166 | pgbench_branches |            16384

 2017-02-08 20:34:56.512453+01 | 1486582496.51245 | pgbench_accounts |       4119797760
 2017-02-08 20:34:56.512453+01 | 1486582496.51245 | pgbench_tellers  |           139264
 2017-02-08 20:34:56.512453+01 | 1486582496.51245 | pgbench_history  |                0
 2017-02-08 20:34:56.512453+01 | 1486582496.51245 | pgbench_branches |            16384

 2017-02-08 20:34:57.572649+01 | 1486582497.57265 | pgbench_accounts |       4119797760
 2017-02-08 20:34:57.572649+01 | 1486582497.57265 | pgbench_tellers  |           139264
 2017-02-08 20:34:57.572649+01 | 1486582497.57265 | pgbench_history  |                0
 2017-02-08 20:34:57.572649+01 | 1486582497.57265 | pgbench_branches |            16384

 2017-02-08 20:34:58.639188+01 | 1486582498.63919 | pgbench_accounts |       4119797760
 2017-02-08 20:34:58.639188+01 | 1486582498.63919 | pgbench_tellers  |           139264
 2017-02-08 20:34:58.639188+01 | 1486582498.63919 | pgbench_history  |                0
 2017-02-08 20:34:58.639188+01 | 1486582498.63919 | pgbench_branches |            16384

 2017-02-08 20:34:59.706083+01 | 1486582499.70608 | pgbench_accounts |       4119797760
 2017-02-08 20:34:59.706083+01 | 1486582499.70608 | pgbench_tellers  |           139264
 2017-02-08 20:34:59.706083+01 | 1486582499.70608 | pgbench_history  |                0
 2017-02-08 20:34:59.706083+01 | 1486582499.70608 | pgbench_branches |            16384

 2017-02-08 20:35:00.781636+01 | 1486582500.78164 | pgbench_accounts |       4119797760
 2017-02-08 20:35:00.781636+01 | 1486582500.78164 | pgbench_tellers  |           139264
 2017-02-08 20:35:00.781636+01 | 1486582500.78164 | pgbench_history  |                0
 2017-02-08 20:35:00.781636+01 | 1486582500.78164 | pgbench_branches |            16384

 2017-02-08 20:35:01.846464+01 | 1486582501.84646 | pgbench_accounts |       4119797760
 2017-02-08 20:35:01.846464+01 | 1486582501.84646 | pgbench_tellers  |           139264
 2017-02-08 20:35:01.846464+01 | 1486582501.84646 | pgbench_history  |                0
 2017-02-08 20:35:01.846464+01 | 1486582501.84646 | pgbench_branches |            16384

 2017-02-08 20:35:02.931578+01 | 1486582502.93158 | pgbench_accounts |       4119797760
 2017-02-08 20:35:02.931578+01 | 1486582502.93158 | pgbench_tellers  |           139264
 2017-02-08 20:35:02.931578+01 | 1486582502.93158 | pgbench_history  |                0
 2017-02-08 20:35:02.931578+01 | 1486582502.93158 | pgbench_branches |            16384

 2017-02-08 20:35:03.992216+01 | 1486582503.99222 | pgbench_accounts |       4119797760
 2017-02-08 20:35:03.992216+01 | 1486582503.99222 | pgbench_tellers  |           139264
 2017-02-08 20:35:03.992216+01 | 1486582503.99222 | pgbench_history  |                0
 2017-02-08 20:35:03.992216+01 | 1486582503.99222 | pgbench_branches |            16384

 2017-02-08 20:35:05.053734+01 | 1486582505.05373 | pgbench_accounts |       4119797760
 2017-02-08 20:35:05.053734+01 | 1486582505.05373 | pgbench_tellers  |           139264
 2017-02-08 20:35:05.053734+01 | 1486582505.05373 | pgbench_history  |                0
 2017-02-08 20:35:05.053734+01 | 1486582505.05373 | pgbench_branches |            16384

 2017-02-08 20:35:06.132754+01 | 1486582506.13275 | pgbench_accounts |       4119797760
 2017-02-08 20:35:06.132754+01 | 1486582506.13275 | pgbench_tellers  |           139264
 2017-02-08 20:35:06.132754+01 | 1486582506.13275 | pgbench_history  |                0
 2017-02-08 20:35:06.132754+01 | 1486582506.13275 | pgbench_branches |            16384

 2017-02-08 20:35:07.198559+01 | 1486582507.19856 | pgbench_accounts |       4119797760
 2017-02-08 20:35:07.198559+01 | 1486582507.19856 | pgbench_tellers  |           139264
 2017-02-08 20:35:07.198559+01 | 1486582507.19856 | pgbench_history  |                0
 2017-02-08 20:35:07.198559+01 | 1486582507.19856 | pgbench_branches |            16384

 2017-02-08 20:35:08.264031+01 | 1486582508.26403 | pgbench_accounts |       4119797760
 2017-02-08 20:35:08.264031+01 | 1486582508.26403 | pgbench_tellers  |           139264
 2017-02-08 20:35:08.264031+01 | 1486582508.26403 | pgbench_history  |                0
 2017-02-08 20:35:08.264031+01 | 1486582508.26403 | pgbench_branches |            16384

 2017-02-08 20:35:09.332939+01 | 1486582509.33294 | pgbench_accounts |       4119797760
 2017-02-08 20:35:09.332939+01 | 1486582509.33294 | pgbench_tellers  |           139264
 2017-02-08 20:35:09.332939+01 | 1486582509.33294 | pgbench_history  |                0
 2017-02-08 20:35:09.332939+01 | 1486582509.33294 | pgbench_branches |            16384

 2017-02-08 20:35:10.417212+01 | 1486582510.41721 | pgbench_accounts |       4119797760
 2017-02-08 20:35:10.417212+01 | 1486582510.41721 | pgbench_tellers  |           139264
 2017-02-08 20:35:10.417212+01 | 1486582510.41721 | pgbench_history  |                0
 2017-02-08 20:35:10.417212+01 | 1486582510.41721 | pgbench_branches |            16384

 2017-02-08 20:35:11.492743+01 | 1486582511.49274 | pgbench_accounts |       4119797760
 2017-02-08 20:35:11.492743+01 | 1486582511.49274 | pgbench_tellers  |           139264
 2017-02-08 20:35:11.492743+01 | 1486582511.49274 | pgbench_history  |                0
 2017-02-08 20:35:11.492743+01 | 1486582511.49274 | pgbench_branches |            16384

 2017-02-08 20:35:12.564951+01 | 1486582512.56495 | pgbench_accounts |       4119797760
 2017-02-08 20:35:12.564951+01 | 1486582512.56495 | pgbench_tellers  |           139264
 2017-02-08 20:35:12.564951+01 | 1486582512.56495 | pgbench_history  |                0
 2017-02-08 20:35:12.564951+01 | 1486582512.56495 | pgbench_branches |            16384

 2017-02-08 20:35:13.634891+01 | 1486582513.63489 | pgbench_accounts |       4119797760
 2017-02-08 20:35:13.634891+01 | 1486582513.63489 | pgbench_tellers  |           139264
 2017-02-08 20:35:13.634891+01 | 1486582513.63489 | pgbench_history  |                0
 2017-02-08 20:35:13.634891+01 | 1486582513.63489 | pgbench_branches |            16384

 2017-02-08 20:35:14.709446+01 | 1486582514.70945 | pgbench_accounts |       4119797760
 2017-02-08 20:35:14.709446+01 | 1486582514.70945 | pgbench_tellers  |           139264
 2017-02-08 20:35:14.709446+01 | 1486582514.70945 | pgbench_history  |                0
 2017-02-08 20:35:14.709446+01 | 1486582514.70945 | pgbench_branches |            16384

 2017-02-08 20:35:15.779091+01 | 1486582515.77909 | pgbench_accounts |       4119797760
 2017-02-08 20:35:15.779091+01 | 1486582515.77909 | pgbench_tellers  |           139264
 2017-02-08 20:35:15.779091+01 | 1486582515.77909 | pgbench_history  |                0
 2017-02-08 20:35:15.779091+01 | 1486582515.77909 | pgbench_branches |            16384

 2017-02-08 20:35:16.851101+01 | 1486582516.8511 | pgbench_accounts |       4119797760
 2017-02-08 20:35:16.851101+01 | 1486582516.8511 | pgbench_tellers  |           139264
 2017-02-08 20:35:16.851101+01 | 1486582516.8511 | pgbench_history  |                0
 2017-02-08 20:35:16.851101+01 | 1486582516.8511 | pgbench_branches |            16384

 2017-02-08 20:35:17.915285+01 | 1486582517.91529 | pgbench_accounts |       4119797760
 2017-02-08 20:35:17.915285+01 | 1486582517.91529 | pgbench_tellers  |           139264
 2017-02-08 20:35:17.915285+01 | 1486582517.91529 | pgbench_history  |                0
 2017-02-08 20:35:17.915285+01 | 1486582517.91529 | pgbench_branches |            16384

 2017-02-08 20:35:19.00744+01 | 1486582519.00744 | pgbench_accounts |       4119797760
 2017-02-08 20:35:19.00744+01 | 1486582519.00744 | pgbench_tellers  |           139264
 2017-02-08 20:35:19.00744+01 | 1486582519.00744 | pgbench_history  |                0
 2017-02-08 20:35:19.00744+01 | 1486582519.00744 | pgbench_branches |            16384

 2017-02-08 20:35:20.078504+01 | 1486582520.0785 | pgbench_accounts |       4119797760
 2017-02-08 20:35:20.078504+01 | 1486582520.0785 | pgbench_tellers  |           139264
 2017-02-08 20:35:20.078504+01 | 1486582520.0785 | pgbench_history  |                0
 2017-02-08 20:35:20.078504+01 | 1486582520.0785 | pgbench_branches |            16384

 2017-02-08 20:35:21.158522+01 | 1486582521.15852 | pgbench_accounts |       4119797760
 2017-02-08 20:35:21.158522+01 | 1486582521.15852 | pgbench_tellers  |           139264
 2017-02-08 20:35:21.158522+01 | 1486582521.15852 | pgbench_history  |                0
 2017-02-08 20:35:21.158522+01 | 1486582521.15852 | pgbench_branches |            16384

 2017-02-08 20:35:22.243529+01 | 1486582522.24353 | pgbench_accounts |       4119797760
 2017-02-08 20:35:22.243529+01 | 1486582522.24353 | pgbench_tellers  |           139264
 2017-02-08 20:35:22.243529+01 | 1486582522.24353 | pgbench_history  |                0
 2017-02-08 20:35:22.243529+01 | 1486582522.24353 | pgbench_branches |            16384

 2017-02-08 20:35:23.321934+01 | 1486582523.32193 | pgbench_accounts |       4119797760
 2017-02-08 20:35:23.321934+01 | 1486582523.32193 | pgbench_tellers  |           139264
 2017-02-08 20:35:23.321934+01 | 1486582523.32193 | pgbench_history  |                0
 2017-02-08 20:35:23.321934+01 | 1486582523.32193 | pgbench_branches |            16384

 2017-02-08 20:35:24.394682+01 | 1486582524.39468 | pgbench_accounts |       4119797760
 2017-02-08 20:35:24.394682+01 | 1486582524.39468 | pgbench_tellers  |           139264
 2017-02-08 20:35:24.394682+01 | 1486582524.39468 | pgbench_history  |                0
 2017-02-08 20:35:24.394682+01 | 1486582524.39468 | pgbench_branches |            16384

 2017-02-08 20:35:25.475106+01 | 1486582525.47511 | pgbench_accounts |       4119797760
 2017-02-08 20:35:25.475106+01 | 1486582525.47511 | pgbench_tellers  |           139264
 2017-02-08 20:35:25.475106+01 | 1486582525.47511 | pgbench_history  |                0
 2017-02-08 20:35:25.475106+01 | 1486582525.47511 | pgbench_branches |            16384

 2017-02-08 20:35:26.547603+01 | 1486582526.5476 | pgbench_accounts |       4119797760
 2017-02-08 20:35:26.547603+01 | 1486582526.5476 | pgbench_tellers  |           139264
 2017-02-08 20:35:26.547603+01 | 1486582526.5476 | pgbench_history  |                0
 2017-02-08 20:35:26.547603+01 | 1486582526.5476 | pgbench_branches |            16384

 2017-02-08 20:35:27.626682+01 | 1486582527.62668 | pgbench_accounts |       4119797760
 2017-02-08 20:35:27.626682+01 | 1486582527.62668 | pgbench_tellers  |           139264
 2017-02-08 20:35:27.626682+01 | 1486582527.62668 | pgbench_history  |                0
 2017-02-08 20:35:27.626682+01 | 1486582527.62668 | pgbench_branches |            16384

 2017-02-08 20:35:28.691572+01 | 1486582528.69157 | pgbench_accounts |       4119797760
 2017-02-08 20:35:28.691572+01 | 1486582528.69157 | pgbench_tellers  |           139264
 2017-02-08 20:35:28.691572+01 | 1486582528.69157 | pgbench_history  |                0
 2017-02-08 20:35:28.691572+01 | 1486582528.69157 | pgbench_branches |            16384

 2017-02-08 20:35:29.76762+01 | 1486582529.76762 | pgbench_accounts |       4119797760
 2017-02-08 20:35:29.76762+01 | 1486582529.76762 | pgbench_tellers  |           139264
 2017-02-08 20:35:29.76762+01 | 1486582529.76762 | pgbench_history  |                0
 2017-02-08 20:35:29.76762+01 | 1486582529.76762 | pgbench_branches |            16384

 2017-02-08 20:35:30.844984+01 | 1486582530.84498 | pgbench_accounts |       4119797760
 2017-02-08 20:35:30.844984+01 | 1486582530.84498 | pgbench_tellers  |           139264
 2017-02-08 20:35:30.844984+01 | 1486582530.84498 | pgbench_history  |                0
 2017-02-08 20:35:30.844984+01 | 1486582530.84498 | pgbench_branches |            16384

 2017-02-08 20:35:31.914397+01 | 1486582531.9144 | pgbench_accounts |       4119797760
 2017-02-08 20:35:31.914397+01 | 1486582531.9144 | pgbench_tellers  |           139264
 2017-02-08 20:35:31.914397+01 | 1486582531.9144 | pgbench_history  |                0
 2017-02-08 20:35:31.914397+01 | 1486582531.9144 | pgbench_branches |            16384

 2017-02-08 20:35:33.013266+01 | 1486582533.01327 | pgbench_accounts |       4119797760
 2017-02-08 20:35:33.013266+01 | 1486582533.01327 | pgbench_tellers  |           139264
 2017-02-08 20:35:33.013266+01 | 1486582533.01327 | pgbench_history  |                0
 2017-02-08 20:35:33.013266+01 | 1486582533.01327 | pgbench_branches |            16384

 2017-02-08 20:35:34.082978+01 | 1486582534.08298 | pgbench_accounts |       4119797760
 2017-02-08 20:35:34.082978+01 | 1486582534.08298 | pgbench_tellers  |           139264
 2017-02-08 20:35:34.082978+01 | 1486582534.08298 | pgbench_history  |                0
 2017-02-08 20:35:34.082978+01 | 1486582534.08298 | pgbench_branches |            16384

 2017-02-08 20:35:35.154856+01 | 1486582535.15486 | pgbench_accounts |       4119797760
 2017-02-08 20:35:35.154856+01 | 1486582535.15486 | pgbench_tellers  |           139264
 2017-02-08 20:35:35.154856+01 | 1486582535.15486 | pgbench_history  |                0
 2017-02-08 20:35:35.154856+01 | 1486582535.15486 | pgbench_branches |            16384

 2017-02-08 20:35:36.216147+01 | 1486582536.21615 | pgbench_accounts |       4119797760
 2017-02-08 20:35:36.216147+01 | 1486582536.21615 | pgbench_tellers  |           139264
 2017-02-08 20:35:36.216147+01 | 1486582536.21615 | pgbench_history  |                0
 2017-02-08 20:35:36.216147+01 | 1486582536.21615 | pgbench_branches |            16384

 2017-02-08 20:35:37.282124+01 | 1486582537.28212 | pgbench_accounts |       4119797760
 2017-02-08 20:35:37.282124+01 | 1486582537.28212 | pgbench_tellers  |           139264
 2017-02-08 20:35:37.282124+01 | 1486582537.28212 | pgbench_history  |                0
 2017-02-08 20:35:37.282124+01 | 1486582537.28212 | pgbench_branches |            16384

 2017-02-08 20:35:38.351594+01 | 1486582538.35159 | pgbench_accounts |       4119797760
 2017-02-08 20:35:38.351594+01 | 1486582538.35159 | pgbench_tellers  |           139264
 2017-02-08 20:35:38.351594+01 | 1486582538.35159 | pgbench_history  |                0
 2017-02-08 20:35:38.351594+01 | 1486582538.35159 | pgbench_branches |            16384

 2017-02-08 20:35:39.426138+01 | 1486582539.42614 | pgbench_accounts |       4119797760
 2017-02-08 20:35:39.426138+01 | 1486582539.42614 | pgbench_tellers  |           139264
 2017-02-08 20:35:39.426138+01 | 1486582539.42614 | pgbench_history  |                0
 2017-02-08 20:35:39.426138+01 | 1486582539.42614 | pgbench_branches |            16384

 2017-02-08 20:35:40.499972+01 | 1486582540.49997 | pgbench_accounts |       4119797760
 2017-02-08 20:35:40.499972+01 | 1486582540.49997 | pgbench_tellers  |           139264
 2017-02-08 20:35:40.499972+01 | 1486582540.49997 | pgbench_history  |                0
 2017-02-08 20:35:40.499972+01 | 1486582540.49997 | pgbench_branches |            16384

 2017-02-08 20:35:41.580123+01 | 1486582541.58012 | pgbench_accounts |       4119797760
 2017-02-08 20:35:41.580123+01 | 1486582541.58012 | pgbench_tellers  |           139264
 2017-02-08 20:35:41.580123+01 | 1486582541.58012 | pgbench_history  |                0
 2017-02-08 20:35:41.580123+01 | 1486582541.58012 | pgbench_branches |            16384

 2017-02-08 20:35:42.644087+01 | 1486582542.64409 | pgbench_accounts |       4119797760
 2017-02-08 20:35:42.644087+01 | 1486582542.64409 | pgbench_tellers  |           139264
 2017-02-08 20:35:42.644087+01 | 1486582542.64409 | pgbench_history  |                0
 2017-02-08 20:35:42.644087+01 | 1486582542.64409 | pgbench_branches |            16384

 2017-02-08 20:35:43.707575+01 | 1486582543.70758 | pgbench_accounts |       4119797760
 2017-02-08 20:35:43.707575+01 | 1486582543.70758 | pgbench_tellers  |           139264
 2017-02-08 20:35:43.707575+01 | 1486582543.70758 | pgbench_history  |                0
 2017-02-08 20:35:43.707575+01 | 1486582543.70758 | pgbench_branches |            16384

 2017-02-08 20:35:44.772032+01 | 1486582544.77203 | pgbench_accounts |       4119797760
 2017-02-08 20:35:44.772032+01 | 1486582544.77203 | pgbench_tellers  |           139264
 2017-02-08 20:35:44.772032+01 | 1486582544.77203 | pgbench_history  |                0
 2017-02-08 20:35:44.772032+01 | 1486582544.77203 | pgbench_branches |            16384

 2017-02-08 20:35:45.843391+01 | 1486582545.84339 | pgbench_accounts |       4119797760
 2017-02-08 20:35:45.843391+01 | 1486582545.84339 | pgbench_tellers  |           139264
 2017-02-08 20:35:45.843391+01 | 1486582545.84339 | pgbench_history  |                0
 2017-02-08 20:35:45.843391+01 | 1486582545.84339 | pgbench_branches |            16384

 2017-02-08 20:35:46.909869+01 | 1486582546.90987 | pgbench_accounts |       4119797760
 2017-02-08 20:35:46.909869+01 | 1486582546.90987 | pgbench_tellers  |           139264
 2017-02-08 20:35:46.909869+01 | 1486582546.90987 | pgbench_history  |                0
 2017-02-08 20:35:46.909869+01 | 1486582546.90987 | pgbench_branches |            16384

 2017-02-08 20:35:47.996857+01 | 1486582547.99686 | pgbench_accounts |       4119797760
 2017-02-08 20:35:47.996857+01 | 1486582547.99686 | pgbench_tellers  |           139264
 2017-02-08 20:35:47.996857+01 | 1486582547.99686 | pgbench_history  |                0
 2017-02-08 20:35:47.996857+01 | 1486582547.99686 | pgbench_branches |            16384

 2017-02-08 20:35:49.071136+01 | 1486582549.07114 | pgbench_accounts |       4119797760
 2017-02-08 20:35:49.071136+01 | 1486582549.07114 | pgbench_tellers  |           139264
 2017-02-08 20:35:49.071136+01 | 1486582549.07114 | pgbench_history  |                0
 2017-02-08 20:35:49.071136+01 | 1486582549.07114 | pgbench_branches |            16384

 2017-02-08 20:35:50.149541+01 | 1486582550.14954 | pgbench_accounts |       4119797760
 2017-02-08 20:35:50.149541+01 | 1486582550.14954 | pgbench_tellers  |           139264
 2017-02-08 20:35:50.149541+01 | 1486582550.14954 | pgbench_history  |                0
 2017-02-08 20:35:50.149541+01 | 1486582550.14954 | pgbench_branches |            16384

 2017-02-08 20:35:51.21972+01 | 1486582551.21972 | pgbench_accounts |       4119797760
 2017-02-08 20:35:51.21972+01 | 1486582551.21972 | pgbench_tellers  |           139264
 2017-02-08 20:35:51.21972+01 | 1486582551.21972 | pgbench_history  |                0
 2017-02-08 20:35:51.21972+01 | 1486582551.21972 | pgbench_branches |            16384

 2017-02-08 20:35:52.319313+01 | 1486582552.31931 | pgbench_accounts |       4119797760
 2017-02-08 20:35:52.319313+01 | 1486582552.31931 | pgbench_tellers  |           139264
 2017-02-08 20:35:52.319313+01 | 1486582552.31931 | pgbench_history  |                0
 2017-02-08 20:35:52.319313+01 | 1486582552.31931 | pgbench_branches |            16384

 2017-02-08 20:35:53.413637+01 | 1486582553.41364 | pgbench_accounts |       4119797760
 2017-02-08 20:35:53.413637+01 | 1486582553.41364 | pgbench_tellers  |           139264
 2017-02-08 20:35:53.413637+01 | 1486582553.41364 | pgbench_history  |                0
 2017-02-08 20:35:53.413637+01 | 1486582553.41364 | pgbench_branches |            16384

 2017-02-08 20:35:54.492147+01 | 1486582554.49215 | pgbench_accounts |       4119797760
 2017-02-08 20:35:54.492147+01 | 1486582554.49215 | pgbench_tellers  |           139264
 2017-02-08 20:35:54.492147+01 | 1486582554.49215 | pgbench_history  |                0
 2017-02-08 20:35:54.492147+01 | 1486582554.49215 | pgbench_branches |            16384

 2017-02-08 20:35:55.552334+01 | 1486582555.55233 | pgbench_accounts |       4119797760
 2017-02-08 20:35:55.552334+01 | 1486582555.55233 | pgbench_tellers  |           139264
 2017-02-08 20:35:55.552334+01 | 1486582555.55233 | pgbench_history  |                0
 2017-02-08 20:35:55.552334+01 | 1486582555.55233 | pgbench_branches |            16384

 2017-02-08 20:35:56.638918+01 | 1486582556.63892 | pgbench_accounts |       4119797760
 2017-02-08 20:35:56.638918+01 | 1486582556.63892 | pgbench_tellers  |           139264
 2017-02-08 20:35:56.638918+01 | 1486582556.63892 | pgbench_history  |                0
 2017-02-08 20:35:56.638918+01 | 1486582556.63892 | pgbench_branches |            16384

 2017-02-08 20:35:57.729369+01 | 1486582557.72937 | pgbench_accounts |       4119797760
 2017-02-08 20:35:57.729369+01 | 1486582557.72937 | pgbench_tellers  |           139264
 2017-02-08 20:35:57.729369+01 | 1486582557.72937 | pgbench_history  |                0
 2017-02-08 20:35:57.729369+01 | 1486582557.72937 | pgbench_branches |            16384

 2017-02-08 20:35:58.818983+01 | 1486582558.81898 | pgbench_accounts |       4119797760
 2017-02-08 20:35:58.818983+01 | 1486582558.81898 | pgbench_tellers  |           139264
 2017-02-08 20:35:58.818983+01 | 1486582558.81898 | pgbench_history  |                0
 2017-02-08 20:35:58.818983+01 | 1486582558.81898 | pgbench_branches |            16384

 2017-02-08 20:35:59.888722+01 | 1486582559.88872 | pgbench_accounts |       4119797760
 2017-02-08 20:35:59.888722+01 | 1486582559.88872 | pgbench_tellers  |           139264
 2017-02-08 20:35:59.888722+01 | 1486582559.88872 | pgbench_history  |                0
 2017-02-08 20:35:59.888722+01 | 1486582559.88872 | pgbench_branches |            16384

 2017-02-08 20:36:00.959386+01 | 1486582560.95939 | pgbench_accounts |       4119797760
 2017-02-08 20:36:00.959386+01 | 1486582560.95939 | pgbench_tellers  |           139264
 2017-02-08 20:36:00.959386+01 | 1486582560.95939 | pgbench_history  |                0
 2017-02-08 20:36:00.959386+01 | 1486582560.95939 | pgbench_branches |            16384

 2017-02-08 20:36:02.040742+01 | 1486582562.04074 | pgbench_accounts |       4119797760
 2017-02-08 20:36:02.040742+01 | 1486582562.04074 | pgbench_tellers  |           139264
 2017-02-08 20:36:02.040742+01 | 1486582562.04074 | pgbench_history  |                0
 2017-02-08 20:36:02.040742+01 | 1486582562.04074 | pgbench_branches |            16384

 2017-02-08 20:36:03.10421+01 | 1486582563.10421 | pgbench_accounts |       4119797760
 2017-02-08 20:36:03.10421+01 | 1486582563.10421 | pgbench_tellers  |           139264
 2017-02-08 20:36:03.10421+01 | 1486582563.10421 | pgbench_history  |                0
 2017-02-08 20:36:03.10421+01 | 1486582563.10421 | pgbench_branches |            16384

 2017-02-08 20:36:04.181663+01 | 1486582564.18166 | pgbench_accounts |       4119797760
 2017-02-08 20:36:04.181663+01 | 1486582564.18166 | pgbench_tellers  |           139264
 2017-02-08 20:36:04.181663+01 | 1486582564.18166 | pgbench_history  |                0
 2017-02-08 20:36:04.181663+01 | 1486582564.18166 | pgbench_branches |            16384

 2017-02-08 20:36:05.273991+01 | 1486582565.27399 | pgbench_accounts |       4119797760
 2017-02-08 20:36:05.273991+01 | 1486582565.27399 | pgbench_tellers  |           139264
 2017-02-08 20:36:05.273991+01 | 1486582565.27399 | pgbench_history  |                0
 2017-02-08 20:36:05.273991+01 | 1486582565.27399 | pgbench_branches |            16384

 2017-02-08 20:36:06.373437+01 | 1486582566.37344 | pgbench_accounts |       4119797760
 2017-02-08 20:36:06.373437+01 | 1486582566.37344 | pgbench_tellers  |           139264
 2017-02-08 20:36:06.373437+01 | 1486582566.37344 | pgbench_history  |                0
 2017-02-08 20:36:06.373437+01 | 1486582566.37344 | pgbench_branches |            16384

 2017-02-08 20:36:07.448478+01 | 1486582567.44848 | pgbench_accounts |       4119797760
 2017-02-08 20:36:07.448478+01 | 1486582567.44848 | pgbench_tellers  |           139264
 2017-02-08 20:36:07.448478+01 | 1486582567.44848 | pgbench_history  |                0
 2017-02-08 20:36:07.448478+01 | 1486582567.44848 | pgbench_branches |            16384

 2017-02-08 20:36:08.528094+01 | 1486582568.52809 | pgbench_accounts |       4119797760
 2017-02-08 20:36:08.528094+01 | 1486582568.52809 | pgbench_tellers  |           139264
 2017-02-08 20:36:08.528094+01 | 1486582568.52809 | pgbench_history  |                0
 2017-02-08 20:36:08.528094+01 | 1486582568.52809 | pgbench_branches |            16384

 2017-02-08 20:36:09.607293+01 | 1486582569.60729 | pgbench_accounts |       4119797760
 2017-02-08 20:36:09.607293+01 | 1486582569.60729 | pgbench_tellers  |           139264
 2017-02-08 20:36:09.607293+01 | 1486582569.60729 | pgbench_history  |                0
 2017-02-08 20:36:09.607293+01 | 1486582569.60729 | pgbench_branches |            16384

 2017-02-08 20:36:10.67179+01 | 1486582570.67179 | pgbench_accounts |       4119797760
 2017-02-08 20:36:10.67179+01 | 1486582570.67179 | pgbench_tellers  |           139264
 2017-02-08 20:36:10.67179+01 | 1486582570.67179 | pgbench_history  |                0
 2017-02-08 20:36:10.67179+01 | 1486582570.67179 | pgbench_branches |            16384

 2017-02-08 20:36:11.735219+01 | 1486582571.73522 | pgbench_accounts |       4119797760
 2017-02-08 20:36:11.735219+01 | 1486582571.73522 | pgbench_tellers  |           139264
 2017-02-08 20:36:11.735219+01 | 1486582571.73522 | pgbench_history  |                0
 2017-02-08 20:36:11.735219+01 | 1486582571.73522 | pgbench_branches |            16384

 2017-02-08 20:36:12.808518+01 | 1486582572.80852 | pgbench_accounts |       4119797760
 2017-02-08 20:36:12.808518+01 | 1486582572.80852 | pgbench_tellers  |           139264
 2017-02-08 20:36:12.808518+01 | 1486582572.80852 | pgbench_history  |                0
 2017-02-08 20:36:12.808518+01 | 1486582572.80852 | pgbench_branches |            16384

 2017-02-08 20:36:13.87773+01 | 1486582573.87773 | pgbench_accounts |       4119797760
 2017-02-08 20:36:13.87773+01 | 1486582573.87773 | pgbench_tellers  |           139264
 2017-02-08 20:36:13.87773+01 | 1486582573.87773 | pgbench_history  |                0
 2017-02-08 20:36:13.87773+01 | 1486582573.87773 | pgbench_branches |            16384

 2017-02-08 20:36:14.95653+01 | 1486582574.95653 | pgbench_accounts |       4119797760
 2017-02-08 20:36:14.95653+01 | 1486582574.95653 | pgbench_tellers  |           139264
 2017-02-08 20:36:14.95653+01 | 1486582574.95653 | pgbench_history  |                0
 2017-02-08 20:36:14.95653+01 | 1486582574.95653 | pgbench_branches |            16384

 2017-02-08 20:36:16.020591+01 | 1486582576.02059 | pgbench_accounts |       4119797760
 2017-02-08 20:36:16.020591+01 | 1486582576.02059 | pgbench_tellers  |           139264
 2017-02-08 20:36:16.020591+01 | 1486582576.02059 | pgbench_history  |                0
 2017-02-08 20:36:16.020591+01 | 1486582576.02059 | pgbench_branches |            16384

 2017-02-08 20:36:17.095609+01 | 1486582577.09561 | pgbench_accounts |       4119797760
 2017-02-08 20:36:17.095609+01 | 1486582577.09561 | pgbench_tellers  |           139264
 2017-02-08 20:36:17.095609+01 | 1486582577.09561 | pgbench_history  |                0
 2017-02-08 20:36:17.095609+01 | 1486582577.09561 | pgbench_branches |            16384

 2017-02-08 20:36:18.169872+01 | 1486582578.16987 | pgbench_accounts |       4119797760
 2017-02-08 20:36:18.169872+01 | 1486582578.16987 | pgbench_tellers  |           139264
 2017-02-08 20:36:18.169872+01 | 1486582578.16987 | pgbench_history  |                0
 2017-02-08 20:36:18.169872+01 | 1486582578.16987 | pgbench_branches |            16384

 2017-02-08 20:36:19.242968+01 | 1486582579.24297 | pgbench_accounts |       4119797760
 2017-02-08 20:36:19.242968+01 | 1486582579.24297 | pgbench_tellers  |           139264
 2017-02-08 20:36:19.242968+01 | 1486582579.24297 | pgbench_history  |                0
 2017-02-08 20:36:19.242968+01 | 1486582579.24297 | pgbench_branches |            16384

 2017-02-08 20:36:20.324001+01 | 1486582580.324 | pgbench_accounts |       4119797760
 2017-02-08 20:36:20.324001+01 | 1486582580.324 | pgbench_tellers  |           139264
 2017-02-08 20:36:20.324001+01 | 1486582580.324 | pgbench_history  |                0
 2017-02-08 20:36:20.324001+01 | 1486582580.324 | pgbench_branches |            16384

 2017-02-08 20:36:21.395575+01 | 1486582581.39558 | pgbench_accounts |       4119797760
 2017-02-08 20:36:21.395575+01 | 1486582581.39558 | pgbench_tellers  |           139264
 2017-02-08 20:36:21.395575+01 | 1486582581.39558 | pgbench_history  |                0
 2017-02-08 20:36:21.395575+01 | 1486582581.39558 | pgbench_branches |            16384

 2017-02-08 20:36:22.469509+01 | 1486582582.46951 | pgbench_accounts |       4119797760
 2017-02-08 20:36:22.469509+01 | 1486582582.46951 | pgbench_tellers  |           139264
 2017-02-08 20:36:22.469509+01 | 1486582582.46951 | pgbench_history  |                0
 2017-02-08 20:36:22.469509+01 | 1486582582.46951 | pgbench_branches |            16384

 2017-02-08 20:36:23.54042+01 | 1486582583.54042 | pgbench_accounts |       4119797760
 2017-02-08 20:36:23.54042+01 | 1486582583.54042 | pgbench_tellers  |           139264
 2017-02-08 20:36:23.54042+01 | 1486582583.54042 | pgbench_history  |                0
 2017-02-08 20:36:23.54042+01 | 1486582583.54042 | pgbench_branches |            16384

 2017-02-08 20:36:24.616897+01 | 1486582584.6169 | pgbench_accounts |       4119797760
 2017-02-08 20:36:24.616897+01 | 1486582584.6169 | pgbench_tellers  |           139264
 2017-02-08 20:36:24.616897+01 | 1486582584.6169 | pgbench_history  |                0
 2017-02-08 20:36:24.616897+01 | 1486582584.6169 | pgbench_branches |            16384

 2017-02-08 20:36:25.687572+01 | 1486582585.68757 | pgbench_accounts |       4119797760
 2017-02-08 20:36:25.687572+01 | 1486582585.68757 | pgbench_tellers  |           139264
 2017-02-08 20:36:25.687572+01 | 1486582585.68757 | pgbench_history  |                0
 2017-02-08 20:36:25.687572+01 | 1486582585.68757 | pgbench_branches |            16384

 2017-02-08 20:36:26.751638+01 | 1486582586.75164 | pgbench_accounts |       4119797760
 2017-02-08 20:36:26.751638+01 | 1486582586.75164 | pgbench_tellers  |           139264
 2017-02-08 20:36:26.751638+01 | 1486582586.75164 | pgbench_history  |                0
 2017-02-08 20:36:26.751638+01 | 1486582586.75164 | pgbench_branches |            16384

 2017-02-08 20:36:27.831149+01 | 1486582587.83115 | pgbench_accounts |       4119797760
 2017-02-08 20:36:27.831149+01 | 1486582587.83115 | pgbench_tellers  |           139264
 2017-02-08 20:36:27.831149+01 | 1486582587.83115 | pgbench_history  |                0
 2017-02-08 20:36:27.831149+01 | 1486582587.83115 | pgbench_branches |            16384

 2017-02-08 20:36:28.897393+01 | 1486582588.89739 | pgbench_accounts |       4119797760
 2017-02-08 20:36:28.897393+01 | 1486582588.89739 | pgbench_tellers  |           139264
 2017-02-08 20:36:28.897393+01 | 1486582588.89739 | pgbench_history  |                0
 2017-02-08 20:36:28.897393+01 | 1486582588.89739 | pgbench_branches |            16384

 2017-02-08 20:36:29.964043+01 | 1486582589.96404 | pgbench_accounts |       4119797760
 2017-02-08 20:36:29.964043+01 | 1486582589.96404 | pgbench_tellers  |           139264
 2017-02-08 20:36:29.964043+01 | 1486582589.96404 | pgbench_history  |                0
 2017-02-08 20:36:29.964043+01 | 1486582589.96404 | pgbench_branches |            16384

 2017-02-08 20:36:31.044353+01 | 1486582591.04435 | pgbench_accounts |       4119797760
 2017-02-08 20:36:31.044353+01 | 1486582591.04435 | pgbench_tellers  |           139264
 2017-02-08 20:36:31.044353+01 | 1486582591.04435 | pgbench_history  |                0
 2017-02-08 20:36:31.044353+01 | 1486582591.04435 | pgbench_branches |            16384

 2017-02-08 20:36:32.12+01 | 1486582592.12 | pgbench_accounts |       4119797760
 2017-02-08 20:36:32.12+01 | 1486582592.12 | pgbench_tellers  |           139264
 2017-02-08 20:36:32.12+01 | 1486582592.12 | pgbench_history  |                0
 2017-02-08 20:36:32.12+01 | 1486582592.12 | pgbench_branches |            16384

 2017-02-08 20:36:33.190995+01 | 1486582593.19099 | pgbench_accounts |       4119797760
 2017-02-08 20:36:33.190995+01 | 1486582593.19099 | pgbench_tellers  |           139264
 2017-02-08 20:36:33.190995+01 | 1486582593.19099 | pgbench_history  |                0
 2017-02-08 20:36:33.190995+01 | 1486582593.19099 | pgbench_branches |            16384

 2017-02-08 20:36:34.264033+01 | 1486582594.26403 | pgbench_accounts |       4119797760
 2017-02-08 20:36:34.264033+01 | 1486582594.26403 | pgbench_tellers  |           139264
 2017-02-08 20:36:34.264033+01 | 1486582594.26403 | pgbench_history  |                0
 2017-02-08 20:36:34.264033+01 | 1486582594.26403 | pgbench_branches |            16384

 2017-02-08 20:36:35.355906+01 | 1486582595.35591 | pgbench_accounts |       4119797760
 2017-02-08 20:36:35.355906+01 | 1486582595.35591 | pgbench_tellers  |           139264
 2017-02-08 20:36:35.355906+01 | 1486582595.35591 | pgbench_history  |                0
 2017-02-08 20:36:35.355906+01 | 1486582595.35591 | pgbench_branches |            16384

 2017-02-08 20:36:36.429389+01 | 1486582596.42939 | pgbench_accounts |       4119797760
 2017-02-08 20:36:36.429389+01 | 1486582596.42939 | pgbench_tellers  |           139264
 2017-02-08 20:36:36.429389+01 | 1486582596.42939 | pgbench_history  |                0
 2017-02-08 20:36:36.429389+01 | 1486582596.42939 | pgbench_branches |            16384

 2017-02-08 20:36:37.513714+01 | 1486582597.51371 | pgbench_accounts |       4119797760
 2017-02-08 20:36:37.513714+01 | 1486582597.51371 | pgbench_tellers  |           139264
 2017-02-08 20:36:37.513714+01 | 1486582597.51371 | pgbench_history  |                0
 2017-02-08 20:36:37.513714+01 | 1486582597.51371 | pgbench_branches |            16384

 2017-02-08 20:36:38.604003+01 | 1486582598.604 | pgbench_accounts |       4119797760
 2017-02-08 20:36:38.604003+01 | 1486582598.604 | pgbench_tellers  |           139264
 2017-02-08 20:36:38.604003+01 | 1486582598.604 | pgbench_history  |                0
 2017-02-08 20:36:38.604003+01 | 1486582598.604 | pgbench_branches |            16384

 2017-02-08 20:36:39.682137+01 | 1486582599.68214 | pgbench_accounts |       4119797760
 2017-02-08 20:36:39.682137+01 | 1486582599.68214 | pgbench_tellers  |           139264
 2017-02-08 20:36:39.682137+01 | 1486582599.68214 | pgbench_history  |                0
 2017-02-08 20:36:39.682137+01 | 1486582599.68214 | pgbench_branches |            16384

 2017-02-08 20:36:40.765293+01 | 1486582600.76529 | pgbench_accounts |       4119797760
 2017-02-08 20:36:40.765293+01 | 1486582600.76529 | pgbench_tellers  |           139264
 2017-02-08 20:36:40.765293+01 | 1486582600.76529 | pgbench_history  |                0
 2017-02-08 20:36:40.765293+01 | 1486582600.76529 | pgbench_branches |            16384

 2017-02-08 20:36:41.834803+01 | 1486582601.8348 | pgbench_accounts |       4119797760
 2017-02-08 20:36:41.834803+01 | 1486582601.8348 | pgbench_tellers  |           139264
 2017-02-08 20:36:41.834803+01 | 1486582601.8348 | pgbench_history  |                0
 2017-02-08 20:36:41.834803+01 | 1486582601.8348 | pgbench_branches |            16384

 2017-02-08 20:36:42.906581+01 | 1486582602.90658 | pgbench_accounts |       4119797760
 2017-02-08 20:36:42.906581+01 | 1486582602.90658 | pgbench_tellers  |           139264
 2017-02-08 20:36:42.906581+01 | 1486582602.90658 | pgbench_history  |                0
 2017-02-08 20:36:42.906581+01 | 1486582602.90658 | pgbench_branches |            16384

 2017-02-08 20:36:43.985279+01 | 1486582603.98528 | pgbench_accounts |       4119797760
 2017-02-08 20:36:43.985279+01 | 1486582603.98528 | pgbench_tellers  |           139264
 2017-02-08 20:36:43.985279+01 | 1486582603.98528 | pgbench_history  |                0
 2017-02-08 20:36:43.985279+01 | 1486582603.98528 | pgbench_branches |            16384

 2017-02-08 20:36:45.044927+01 | 1486582605.04493 | pgbench_accounts |       4119797760
 2017-02-08 20:36:45.044927+01 | 1486582605.04493 | pgbench_tellers  |           139264
 2017-02-08 20:36:45.044927+01 | 1486582605.04493 | pgbench_history  |                0
 2017-02-08 20:36:45.044927+01 | 1486582605.04493 | pgbench_branches |            16384

 2017-02-08 20:36:46.111671+01 | 1486582606.11167 | pgbench_accounts |       4119797760
 2017-02-08 20:36:46.111671+01 | 1486582606.11167 | pgbench_tellers  |           139264
 2017-02-08 20:36:46.111671+01 | 1486582606.11167 | pgbench_history  |                0
 2017-02-08 20:36:46.111671+01 | 1486582606.11167 | pgbench_branches |            16384

 2017-02-08 20:36:47.181924+01 | 1486582607.18192 | pgbench_accounts |       4119797760
 2017-02-08 20:36:47.181924+01 | 1486582607.18192 | pgbench_tellers  |           139264
 2017-02-08 20:36:47.181924+01 | 1486582607.18192 | pgbench_history  |                0
 2017-02-08 20:36:47.181924+01 | 1486582607.18192 | pgbench_branches |            16384

 2017-02-08 20:36:48.249657+01 | 1486582608.24966 | pgbench_accounts |       4119797760
 2017-02-08 20:36:48.249657+01 | 1486582608.24966 | pgbench_tellers  |           139264
 2017-02-08 20:36:48.249657+01 | 1486582608.24966 | pgbench_history  |                0
 2017-02-08 20:36:48.249657+01 | 1486582608.24966 | pgbench_branches |            16384

 2017-02-08 20:36:49.334973+01 | 1486582609.33497 | pgbench_accounts |       4119797760
 2017-02-08 20:36:49.334973+01 | 1486582609.33497 | pgbench_tellers  |           139264
 2017-02-08 20:36:49.334973+01 | 1486582609.33497 | pgbench_history  |                0
 2017-02-08 20:36:49.334973+01 | 1486582609.33497 | pgbench_branches |            16384

 2017-02-08 20:36:50.430563+01 | 1486582610.43056 | pgbench_accounts |       4119797760
 2017-02-08 20:36:50.430563+01 | 1486582610.43056 | pgbench_tellers  |           139264
 2017-02-08 20:36:50.430563+01 | 1486582610.43056 | pgbench_history  |                0
 2017-02-08 20:36:50.430563+01 | 1486582610.43056 | pgbench_branches |            16384

 2017-02-08 20:36:51.527022+01 | 1486582611.52702 | pgbench_accounts |       4119797760
 2017-02-08 20:36:51.527022+01 | 1486582611.52702 | pgbench_tellers  |           139264
 2017-02-08 20:36:51.527022+01 | 1486582611.52702 | pgbench_history  |                0
 2017-02-08 20:36:51.527022+01 | 1486582611.52702 | pgbench_branches |            16384

 2017-02-08 20:36:52.609874+01 | 1486582612.60987 | pgbench_accounts |       4119797760
 2017-02-08 20:36:52.609874+01 | 1486582612.60987 | pgbench_tellers  |           139264
 2017-02-08 20:36:52.609874+01 | 1486582612.60987 | pgbench_history  |                0
 2017-02-08 20:36:52.609874+01 | 1486582612.60987 | pgbench_branches |            16384

 2017-02-08 20:36:53.686479+01 | 1486582613.68648 | pgbench_accounts |       4119797760
 2017-02-08 20:36:53.686479+01 | 1486582613.68648 | pgbench_tellers  |           139264
 2017-02-08 20:36:53.686479+01 | 1486582613.68648 | pgbench_history  |                0
 2017-02-08 20:36:53.686479+01 | 1486582613.68648 | pgbench_branches |            16384

 2017-02-08 20:36:54.759348+01 | 1486582614.75935 | pgbench_accounts |       4119797760
 2017-02-08 20:36:54.759348+01 | 1486582614.75935 | pgbench_tellers  |           139264
 2017-02-08 20:36:54.759348+01 | 1486582614.75935 | pgbench_history  |                0
 2017-02-08 20:36:54.759348+01 | 1486582614.75935 | pgbench_branches |            16384

 2017-02-08 20:36:55.835879+01 | 1486582615.83588 | pgbench_accounts |       4119797760
 2017-02-08 20:36:55.835879+01 | 1486582615.83588 | pgbench_tellers  |           139264
 2017-02-08 20:36:55.835879+01 | 1486582615.83588 | pgbench_history  |                0
 2017-02-08 20:36:55.835879+01 | 1486582615.83588 | pgbench_branches |            16384

 2017-02-08 20:36:56.908396+01 | 1486582616.9084 | pgbench_accounts |       4119797760
 2017-02-08 20:36:56.908396+01 | 1486582616.9084 | pgbench_tellers  |           139264
 2017-02-08 20:36:56.908396+01 | 1486582616.9084 | pgbench_history  |                0
 2017-02-08 20:36:56.908396+01 | 1486582616.9084 | pgbench_branches |            16384

 2017-02-08 20:36:57.977347+01 | 1486582617.97735 | pgbench_accounts |       4119797760
 2017-02-08 20:36:57.977347+01 | 1486582617.97735 | pgbench_tellers  |           139264
 2017-02-08 20:36:57.977347+01 | 1486582617.97735 | pgbench_history  |                0
 2017-02-08 20:36:57.977347+01 | 1486582617.97735 | pgbench_branches |            16384

 2017-02-08 20:36:59.048444+01 | 1486582619.04844 | pgbench_accounts |       4119797760
 2017-02-08 20:36:59.048444+01 | 1486582619.04844 | pgbench_tellers  |           139264
 2017-02-08 20:36:59.048444+01 | 1486582619.04844 | pgbench_history  |                0
 2017-02-08 20:36:59.048444+01 | 1486582619.04844 | pgbench_branches |            16384

 2017-02-08 20:37:00.119714+01 | 1486582620.11971 | pgbench_accounts |       4119797760
 2017-02-08 20:37:00.119714+01 | 1486582620.11971 | pgbench_tellers  |           139264
 2017-02-08 20:37:00.119714+01 | 1486582620.11971 | pgbench_history  |                0
 2017-02-08 20:37:00.119714+01 | 1486582620.11971 | pgbench_branches |            16384

 2017-02-08 20:37:01.218879+01 | 1486582621.21888 | pgbench_accounts |       4119797760
 2017-02-08 20:37:01.218879+01 | 1486582621.21888 | pgbench_tellers  |           139264
 2017-02-08 20:37:01.218879+01 | 1486582621.21888 | pgbench_history  |                0
 2017-02-08 20:37:01.218879+01 | 1486582621.21888 | pgbench_branches |            16384

 2017-02-08 20:37:02.284654+01 | 1486582622.28465 | pgbench_accounts |       4119797760
 2017-02-08 20:37:02.284654+01 | 1486582622.28465 | pgbench_tellers  |           139264
 2017-02-08 20:37:02.284654+01 | 1486582622.28465 | pgbench_history  |                0
 2017-02-08 20:37:02.284654+01 | 1486582622.28465 | pgbench_branches |            16384

 2017-02-08 20:37:03.353374+01 | 1486582623.35337 | pgbench_accounts |       4119797760
 2017-02-08 20:37:03.353374+01 | 1486582623.35337 | pgbench_tellers  |           139264
 2017-02-08 20:37:03.353374+01 | 1486582623.35337 | pgbench_history  |                0
 2017-02-08 20:37:03.353374+01 | 1486582623.35337 | pgbench_branches |            16384

 2017-02-08 20:37:04.431231+01 | 1486582624.43123 | pgbench_accounts |       4119797760
 2017-02-08 20:37:04.431231+01 | 1486582624.43123 | pgbench_tellers  |           139264
 2017-02-08 20:37:04.431231+01 | 1486582624.43123 | pgbench_history  |                0
 2017-02-08 20:37:04.431231+01 | 1486582624.43123 | pgbench_branches |            16384

 2017-02-08 20:37:05.499986+01 | 1486582625.49999 | pgbench_accounts |       4119797760
 2017-02-08 20:37:05.499986+01 | 1486582625.49999 | pgbench_tellers  |           139264
 2017-02-08 20:37:05.499986+01 | 1486582625.49999 | pgbench_history  |                0
 2017-02-08 20:37:05.499986+01 | 1486582625.49999 | pgbench_branches |            16384

 2017-02-08 20:37:06.584074+01 | 1486582626.58407 | pgbench_accounts |       4119797760
 2017-02-08 20:37:06.584074+01 | 1486582626.58407 | pgbench_tellers  |           139264
 2017-02-08 20:37:06.584074+01 | 1486582626.58407 | pgbench_history  |                0
 2017-02-08 20:37:06.584074+01 | 1486582626.58407 | pgbench_branches |            16384

 2017-02-08 20:37:07.666839+01 | 1486582627.66684 | pgbench_accounts |       4119797760
 2017-02-08 20:37:07.666839+01 | 1486582627.66684 | pgbench_tellers  |           139264
 2017-02-08 20:37:07.666839+01 | 1486582627.66684 | pgbench_history  |                0
 2017-02-08 20:37:07.666839+01 | 1486582627.66684 | pgbench_branches |            16384

 2017-02-08 20:37:08.736985+01 | 1486582628.73698 | pgbench_accounts |       4119797760
 2017-02-08 20:37:08.736985+01 | 1486582628.73698 | pgbench_tellers  |           139264
 2017-02-08 20:37:08.736985+01 | 1486582628.73698 | pgbench_history  |                0
 2017-02-08 20:37:08.736985+01 | 1486582628.73698 | pgbench_branches |            16384

 2017-02-08 20:37:09.819299+01 | 1486582629.8193 | pgbench_accounts |       4119797760
 2017-02-08 20:37:09.819299+01 | 1486582629.8193 | pgbench_tellers  |           139264
 2017-02-08 20:37:09.819299+01 | 1486582629.8193 | pgbench_history  |                0
 2017-02-08 20:37:09.819299+01 | 1486582629.8193 | pgbench_branches |            16384

 2017-02-08 20:37:10.897457+01 | 1486582630.89746 | pgbench_accounts |       4119797760
 2017-02-08 20:37:10.897457+01 | 1486582630.89746 | pgbench_tellers  |           139264
 2017-02-08 20:37:10.897457+01 | 1486582630.89746 | pgbench_history  |                0
 2017-02-08 20:37:10.897457+01 | 1486582630.89746 | pgbench_branches |            16384

 2017-02-08 20:37:11.965059+01 | 1486582631.96506 | pgbench_accounts |       4119797760
 2017-02-08 20:37:11.965059+01 | 1486582631.96506 | pgbench_tellers  |           139264
 2017-02-08 20:37:11.965059+01 | 1486582631.96506 | pgbench_history  |                0
 2017-02-08 20:37:11.965059+01 | 1486582631.96506 | pgbench_branches |            16384

 2017-02-08 20:37:13.051054+01 | 1486582633.05105 | pgbench_accounts |       4119797760
 2017-02-08 20:37:13.051054+01 | 1486582633.05105 | pgbench_tellers  |           139264
 2017-02-08 20:37:13.051054+01 | 1486582633.05105 | pgbench_history  |                0
 2017-02-08 20:37:13.051054+01 | 1486582633.05105 | pgbench_branches |            16384

 2017-02-08 20:37:14.121082+01 | 1486582634.12108 | pgbench_accounts |       4119797760
 2017-02-08 20:37:14.121082+01 | 1486582634.12108 | pgbench_tellers  |           139264
 2017-02-08 20:37:14.121082+01 | 1486582634.12108 | pgbench_history  |                0
 2017-02-08 20:37:14.121082+01 | 1486582634.12108 | pgbench_branches |            16384

 2017-02-08 20:37:15.194177+01 | 1486582635.19418 | pgbench_accounts |       4120059904
 2017-02-08 20:37:15.194177+01 | 1486582635.19418 | pgbench_tellers  |           139264
 2017-02-08 20:37:15.194177+01 | 1486582635.19418 | pgbench_history  |                0
 2017-02-08 20:37:15.194177+01 | 1486582635.19418 | pgbench_branches |            16384

 2017-02-08 20:37:16.265072+01 | 1486582636.26507 | pgbench_accounts |       4120256512
 2017-02-08 20:37:16.265072+01 | 1486582636.26507 | pgbench_tellers  |           139264
 2017-02-08 20:37:16.265072+01 | 1486582636.26507 | pgbench_history  |                0
 2017-02-08 20:37:16.265072+01 | 1486582636.26507 | pgbench_branches |            16384

 2017-02-08 20:37:17.339589+01 | 1486582637.33959 | pgbench_accounts |       4120469504
 2017-02-08 20:37:17.339589+01 | 1486582637.33959 | pgbench_tellers  |           139264
 2017-02-08 20:37:17.339589+01 | 1486582637.33959 | pgbench_history  |                0
 2017-02-08 20:37:17.339589+01 | 1486582637.33959 | pgbench_branches |            16384

 2017-02-08 20:37:18.43133+01 | 1486582638.43133 | pgbench_accounts |       4120690688
 2017-02-08 20:37:18.43133+01 | 1486582638.43133 | pgbench_tellers  |           139264
 2017-02-08 20:37:18.43133+01 | 1486582638.43133 | pgbench_history  |                0
 2017-02-08 20:37:18.43133+01 | 1486582638.43133 | pgbench_branches |            16384

 2017-02-08 20:37:19.519581+01 | 1486582639.51958 | pgbench_accounts |       4120911872
 2017-02-08 20:37:19.519581+01 | 1486582639.51958 | pgbench_tellers  |           139264
 2017-02-08 20:37:19.519581+01 | 1486582639.51958 | pgbench_history  |                0
 2017-02-08 20:37:19.519581+01 | 1486582639.51958 | pgbench_branches |            16384

 2017-02-08 20:37:20.59379+01 | 1486582640.59379 | pgbench_accounts |       4121124864
 2017-02-08 20:37:20.59379+01 | 1486582640.59379 | pgbench_tellers  |           139264
 2017-02-08 20:37:20.59379+01 | 1486582640.59379 | pgbench_history  |                0
 2017-02-08 20:37:20.59379+01 | 1486582640.59379 | pgbench_branches |            16384

 2017-02-08 20:37:21.669316+01 | 1486582641.66932 | pgbench_accounts |       4121329664
 2017-02-08 20:37:21.669316+01 | 1486582641.66932 | pgbench_tellers  |           139264
 2017-02-08 20:37:21.669316+01 | 1486582641.66932 | pgbench_history  |                0
 2017-02-08 20:37:21.669316+01 | 1486582641.66932 | pgbench_branches |            16384

 2017-02-08 20:37:22.73303+01 | 1486582642.73303 | pgbench_accounts |       4121526272
 2017-02-08 20:37:22.73303+01 | 1486582642.73303 | pgbench_tellers  |           139264
 2017-02-08 20:37:22.73303+01 | 1486582642.73303 | pgbench_history  |                0
 2017-02-08 20:37:22.73303+01 | 1486582642.73303 | pgbench_branches |            16384

 2017-02-08 20:37:23.822898+01 | 1486582643.8229 | pgbench_accounts |       4121640960
 2017-02-08 20:37:23.822898+01 | 1486582643.8229 | pgbench_tellers  |           139264
 2017-02-08 20:37:23.822898+01 | 1486582643.8229 | pgbench_history  |                0
 2017-02-08 20:37:23.822898+01 | 1486582643.8229 | pgbench_branches |            16384

 2017-02-08 20:37:24.892695+01 | 1486582644.89269 | pgbench_accounts |       4121845760
 2017-02-08 20:37:24.892695+01 | 1486582644.89269 | pgbench_tellers  |           139264
 2017-02-08 20:37:24.892695+01 | 1486582644.89269 | pgbench_history  |                0
 2017-02-08 20:37:24.892695+01 | 1486582644.89269 | pgbench_branches |            16384

 2017-02-08 20:37:25.976371+01 | 1486582645.97637 | pgbench_accounts |       4122034176
 2017-02-08 20:37:25.976371+01 | 1486582645.97637 | pgbench_tellers  |           139264
 2017-02-08 20:37:25.976371+01 | 1486582645.97637 | pgbench_history  |                0
 2017-02-08 20:37:25.976371+01 | 1486582645.97637 | pgbench_branches |            16384

 2017-02-08 20:37:27.047683+01 | 1486582647.04768 | pgbench_accounts |       4122238976
 2017-02-08 20:37:27.047683+01 | 1486582647.04768 | pgbench_tellers  |           139264
 2017-02-08 20:37:27.047683+01 | 1486582647.04768 | pgbench_history  |                0
 2017-02-08 20:37:27.047683+01 | 1486582647.04768 | pgbench_branches |            16384

 2017-02-08 20:37:28.130907+01 | 1486582648.13091 | pgbench_accounts |       4122411008
 2017-02-08 20:37:28.130907+01 | 1486582648.13091 | pgbench_tellers  |           139264
 2017-02-08 20:37:28.130907+01 | 1486582648.13091 | pgbench_history  |                0
 2017-02-08 20:37:28.130907+01 | 1486582648.13091 | pgbench_branches |            16384

 2017-02-08 20:37:29.200572+01 | 1486582649.20057 | pgbench_accounts |       4122599424
 2017-02-08 20:37:29.200572+01 | 1486582649.20057 | pgbench_tellers  |           139264
 2017-02-08 20:37:29.200572+01 | 1486582649.20057 | pgbench_history  |                0
 2017-02-08 20:37:29.200572+01 | 1486582649.20057 | pgbench_branches |            16384

 2017-02-08 20:37:30.273862+01 | 1486582650.27386 | pgbench_accounts |       4122787840
 2017-02-08 20:37:30.273862+01 | 1486582650.27386 | pgbench_tellers  |           139264
 2017-02-08 20:37:30.273862+01 | 1486582650.27386 | pgbench_history  |                0
 2017-02-08 20:37:30.273862+01 | 1486582650.27386 | pgbench_branches |            16384

 2017-02-08 20:37:31.35585+01 | 1486582651.35585 | pgbench_accounts |       4122959872
 2017-02-08 20:37:31.35585+01 | 1486582651.35585 | pgbench_tellers  |           139264
 2017-02-08 20:37:31.35585+01 | 1486582651.35585 | pgbench_history  |                0
 2017-02-08 20:37:31.35585+01 | 1486582651.35585 | pgbench_branches |            16384

 2017-02-08 20:37:32.426077+01 | 1486582652.42608 | pgbench_accounts |       4123140096
 2017-02-08 20:37:32.426077+01 | 1486582652.42608 | pgbench_tellers  |           139264
 2017-02-08 20:37:32.426077+01 | 1486582652.42608 | pgbench_history  |                0
 2017-02-08 20:37:32.426077+01 | 1486582652.42608 | pgbench_branches |            16384

 2017-02-08 20:37:33.539998+01 | 1486582653.54 | pgbench_accounts |       4123328512
 2017-02-08 20:37:33.539998+01 | 1486582653.54 | pgbench_tellers  |           139264
 2017-02-08 20:37:33.539998+01 | 1486582653.54 | pgbench_history  |                0
 2017-02-08 20:37:33.539998+01 | 1486582653.54 | pgbench_branches |            16384

 2017-02-08 20:37:34.600062+01 | 1486582654.60006 | pgbench_accounts |       4123500544
 2017-02-08 20:37:34.600062+01 | 1486582654.60006 | pgbench_tellers  |           139264
 2017-02-08 20:37:34.600062+01 | 1486582654.60006 | pgbench_history  |                0
 2017-02-08 20:37:34.600062+01 | 1486582654.60006 | pgbench_branches |            16384

 2017-02-08 20:37:35.684031+01 | 1486582655.68403 | pgbench_accounts |       4123688960
 2017-02-08 20:37:35.684031+01 | 1486582655.68403 | pgbench_tellers  |           139264
 2017-02-08 20:37:35.684031+01 | 1486582655.68403 | pgbench_history  |                0
 2017-02-08 20:37:35.684031+01 | 1486582655.68403 | pgbench_branches |            16384

 2017-02-08 20:37:36.765493+01 | 1486582656.76549 | pgbench_accounts |       4123869184
 2017-02-08 20:37:36.765493+01 | 1486582656.76549 | pgbench_tellers  |           139264
 2017-02-08 20:37:36.765493+01 | 1486582656.76549 | pgbench_history  |                0
 2017-02-08 20:37:36.765493+01 | 1486582656.76549 | pgbench_branches |            16384

 2017-02-08 20:37:37.837065+01 | 1486582657.83706 | pgbench_accounts |       4124024832
 2017-02-08 20:37:37.837065+01 | 1486582657.83706 | pgbench_tellers  |           139264
 2017-02-08 20:37:37.837065+01 | 1486582657.83706 | pgbench_history  |                0
 2017-02-08 20:37:37.837065+01 | 1486582657.83706 | pgbench_branches |            16384

 2017-02-08 20:37:38.929415+01 | 1486582658.92941 | pgbench_accounts |       4124221440
 2017-02-08 20:37:38.929415+01 | 1486582658.92941 | pgbench_tellers  |           139264
 2017-02-08 20:37:38.929415+01 | 1486582658.92941 | pgbench_history  |                0
 2017-02-08 20:37:38.929415+01 | 1486582658.92941 | pgbench_branches |            16384

 2017-02-08 20:37:40.019285+01 | 1486582660.01928 | pgbench_accounts |       4124385280
 2017-02-08 20:37:40.019285+01 | 1486582660.01928 | pgbench_tellers  |           139264
 2017-02-08 20:37:40.019285+01 | 1486582660.01928 | pgbench_history  |                0
 2017-02-08 20:37:40.019285+01 | 1486582660.01928 | pgbench_branches |            16384

 2017-02-08 20:37:41.094752+01 | 1486582661.09475 | pgbench_accounts |       4124557312
 2017-02-08 20:37:41.094752+01 | 1486582661.09475 | pgbench_tellers  |           139264
 2017-02-08 20:37:41.094752+01 | 1486582661.09475 | pgbench_history  |                0
 2017-02-08 20:37:41.094752+01 | 1486582661.09475 | pgbench_branches |            16384

 2017-02-08 20:37:42.164941+01 | 1486582662.16494 | pgbench_accounts |       4124721152
 2017-02-08 20:37:42.164941+01 | 1486582662.16494 | pgbench_tellers  |           139264
 2017-02-08 20:37:42.164941+01 | 1486582662.16494 | pgbench_history  |                0
 2017-02-08 20:37:42.164941+01 | 1486582662.16494 | pgbench_branches |            16384

 2017-02-08 20:37:43.245559+01 | 1486582663.24556 | pgbench_accounts |       4124901376
 2017-02-08 20:37:43.245559+01 | 1486582663.24556 | pgbench_tellers  |           139264
 2017-02-08 20:37:43.245559+01 | 1486582663.24556 | pgbench_history  |                0
 2017-02-08 20:37:43.245559+01 | 1486582663.24556 | pgbench_branches |            16384

 2017-02-08 20:37:44.309627+01 | 1486582664.30963 | pgbench_accounts |       4125048832
 2017-02-08 20:37:44.309627+01 | 1486582664.30963 | pgbench_tellers  |           139264
 2017-02-08 20:37:44.309627+01 | 1486582664.30963 | pgbench_history  |                0
 2017-02-08 20:37:44.309627+01 | 1486582664.30963 | pgbench_branches |            16384

 2017-02-08 20:37:45.387433+01 | 1486582665.38743 | pgbench_accounts |       4125204480
 2017-02-08 20:37:45.387433+01 | 1486582665.38743 | pgbench_tellers  |           139264
 2017-02-08 20:37:45.387433+01 | 1486582665.38743 | pgbench_history  |                0
 2017-02-08 20:37:45.387433+01 | 1486582665.38743 | pgbench_branches |            16384

 2017-02-08 20:37:46.456672+01 | 1486582666.45667 | pgbench_accounts |       4125360128
 2017-02-08 20:37:46.456672+01 | 1486582666.45667 | pgbench_tellers  |           139264
 2017-02-08 20:37:46.456672+01 | 1486582666.45667 | pgbench_history  |                0
 2017-02-08 20:37:46.456672+01 | 1486582666.45667 | pgbench_branches |            16384

 2017-02-08 20:37:47.534565+01 | 1486582667.53456 | pgbench_accounts |       4125523968
 2017-02-08 20:37:47.534565+01 | 1486582667.53456 | pgbench_tellers  |           139264
 2017-02-08 20:37:47.534565+01 | 1486582667.53456 | pgbench_history  |                0
 2017-02-08 20:37:47.534565+01 | 1486582667.53456 | pgbench_branches |            16384

 2017-02-08 20:37:48.60476+01 | 1486582668.60476 | pgbench_accounts |       4125671424
 2017-02-08 20:37:48.60476+01 | 1486582668.60476 | pgbench_tellers  |           139264
 2017-02-08 20:37:48.60476+01 | 1486582668.60476 | pgbench_history  |                0
 2017-02-08 20:37:48.60476+01 | 1486582668.60476 | pgbench_branches |            16384

 2017-02-08 20:37:49.667496+01 | 1486582669.6675 | pgbench_accounts |       4125835264
 2017-02-08 20:37:49.667496+01 | 1486582669.6675 | pgbench_tellers  |           139264
 2017-02-08 20:37:49.667496+01 | 1486582669.6675 | pgbench_history  |                0
 2017-02-08 20:37:49.667496+01 | 1486582669.6675 | pgbench_branches |            16384

 2017-02-08 20:37:50.758799+01 | 1486582670.7588 | pgbench_accounts |       4125990912
 2017-02-08 20:37:50.758799+01 | 1486582670.7588 | pgbench_tellers  |           139264
 2017-02-08 20:37:50.758799+01 | 1486582670.7588 | pgbench_history  |                0
 2017-02-08 20:37:50.758799+01 | 1486582670.7588 | pgbench_branches |            16384

 2017-02-08 20:37:51.831813+01 | 1486582671.83181 | pgbench_accounts |       4126138368
 2017-02-08 20:37:51.831813+01 | 1486582671.83181 | pgbench_tellers  |           139264
 2017-02-08 20:37:51.831813+01 | 1486582671.83181 | pgbench_history  |                0
 2017-02-08 20:37:51.831813+01 | 1486582671.83181 | pgbench_branches |            16384

 2017-02-08 20:37:52.900538+01 | 1486582672.90054 | pgbench_accounts |       4126277632
 2017-02-08 20:37:52.900538+01 | 1486582672.90054 | pgbench_tellers  |           139264
 2017-02-08 20:37:52.900538+01 | 1486582672.90054 | pgbench_history  |                0
 2017-02-08 20:37:52.900538+01 | 1486582672.90054 | pgbench_branches |            16384

 2017-02-08 20:37:53.965878+01 | 1486582673.96588 | pgbench_accounts |       4126433280
 2017-02-08 20:37:53.965878+01 | 1486582673.96588 | pgbench_tellers  |           139264
 2017-02-08 20:37:53.965878+01 | 1486582673.96588 | pgbench_history  |                0
 2017-02-08 20:37:53.965878+01 | 1486582673.96588 | pgbench_branches |            16384

 2017-02-08 20:37:55.032662+01 | 1486582675.03266 | pgbench_accounts |       4126564352
 2017-02-08 20:37:55.032662+01 | 1486582675.03266 | pgbench_tellers  |           139264
 2017-02-08 20:37:55.032662+01 | 1486582675.03266 | pgbench_history  |                0
 2017-02-08 20:37:55.032662+01 | 1486582675.03266 | pgbench_branches |            16384

 2017-02-08 20:37:56.094878+01 | 1486582676.09488 | pgbench_accounts |       4126720000
 2017-02-08 20:37:56.094878+01 | 1486582676.09488 | pgbench_tellers  |           139264
 2017-02-08 20:37:56.094878+01 | 1486582676.09488 | pgbench_history  |                0
 2017-02-08 20:37:56.094878+01 | 1486582676.09488 | pgbench_branches |            16384

 2017-02-08 20:37:57.166137+01 | 1486582677.16614 | pgbench_accounts |       4126867456
 2017-02-08 20:37:57.166137+01 | 1486582677.16614 | pgbench_tellers  |           139264
 2017-02-08 20:37:57.166137+01 | 1486582677.16614 | pgbench_history  |                0
 2017-02-08 20:37:57.166137+01 | 1486582677.16614 | pgbench_branches |            16384

 2017-02-08 20:37:58.244163+01 | 1486582678.24416 | pgbench_accounts |       4127014912
 2017-02-08 20:37:58.244163+01 | 1486582678.24416 | pgbench_tellers  |           139264
 2017-02-08 20:37:58.244163+01 | 1486582678.24416 | pgbench_history  |                0
 2017-02-08 20:37:58.244163+01 | 1486582678.24416 | pgbench_branches |            16384

 2017-02-08 20:37:59.310437+01 | 1486582679.31044 | pgbench_accounts |       4127154176
 2017-02-08 20:37:59.310437+01 | 1486582679.31044 | pgbench_tellers  |           139264
 2017-02-08 20:37:59.310437+01 | 1486582679.31044 | pgbench_history  |                0
 2017-02-08 20:37:59.310437+01 | 1486582679.31044 | pgbench_branches |            16384

 2017-02-08 20:38:00.384357+01 | 1486582680.38436 | pgbench_accounts |       4127293440
 2017-02-08 20:38:00.384357+01 | 1486582680.38436 | pgbench_tellers  |           139264
 2017-02-08 20:38:00.384357+01 | 1486582680.38436 | pgbench_history  |                0
 2017-02-08 20:38:00.384357+01 | 1486582680.38436 | pgbench_branches |            16384

 2017-02-08 20:38:01.455182+01 | 1486582681.45518 | pgbench_accounts |       4127432704
 2017-02-08 20:38:01.455182+01 | 1486582681.45518 | pgbench_tellers  |           139264
 2017-02-08 20:38:01.455182+01 | 1486582681.45518 | pgbench_history  |                0
 2017-02-08 20:38:01.455182+01 | 1486582681.45518 | pgbench_branches |            16384

 2017-02-08 20:38:02.536837+01 | 1486582682.53684 | pgbench_accounts |       4127580160
 2017-02-08 20:38:02.536837+01 | 1486582682.53684 | pgbench_tellers  |           139264
 2017-02-08 20:38:02.536837+01 | 1486582682.53684 | pgbench_history  |                0
 2017-02-08 20:38:02.536837+01 | 1486582682.53684 | pgbench_branches |            16384

 2017-02-08 20:38:03.597254+01 | 1486582683.59725 | pgbench_accounts |       4127727616
 2017-02-08 20:38:03.597254+01 | 1486582683.59725 | pgbench_tellers  |           139264
 2017-02-08 20:38:03.597254+01 | 1486582683.59725 | pgbench_history  |                0
 2017-02-08 20:38:03.597254+01 | 1486582683.59725 | pgbench_branches |            16384

 2017-02-08 20:38:04.677174+01 | 1486582684.67717 | pgbench_accounts |       4127858688
 2017-02-08 20:38:04.677174+01 | 1486582684.67717 | pgbench_tellers  |           139264
 2017-02-08 20:38:04.677174+01 | 1486582684.67717 | pgbench_history  |                0
 2017-02-08 20:38:04.677174+01 | 1486582684.67717 | pgbench_branches |            16384

 2017-02-08 20:38:05.746152+01 | 1486582685.74615 | pgbench_accounts |       4128006144
 2017-02-08 20:38:05.746152+01 | 1486582685.74615 | pgbench_tellers  |           139264
 2017-02-08 20:38:05.746152+01 | 1486582685.74615 | pgbench_history  |                0
 2017-02-08 20:38:05.746152+01 | 1486582685.74615 | pgbench_branches |            16384

 2017-02-08 20:38:06.827964+01 | 1486582686.82796 | pgbench_accounts |       4128137216
 2017-02-08 20:38:06.827964+01 | 1486582686.82796 | pgbench_tellers  |           139264
 2017-02-08 20:38:06.827964+01 | 1486582686.82796 | pgbench_history  |                0
 2017-02-08 20:38:06.827964+01 | 1486582686.82796 | pgbench_branches |            16384

 2017-02-08 20:38:07.891498+01 | 1486582687.8915 | pgbench_accounts |       4128276480
 2017-02-08 20:38:07.891498+01 | 1486582687.8915 | pgbench_tellers  |           139264
 2017-02-08 20:38:07.891498+01 | 1486582687.8915 | pgbench_history  |                0
 2017-02-08 20:38:07.891498+01 | 1486582687.8915 | pgbench_branches |            16384

 2017-02-08 20:38:08.959051+01 | 1486582688.95905 | pgbench_accounts |       4128391168
 2017-02-08 20:38:08.959051+01 | 1486582688.95905 | pgbench_tellers  |           139264
 2017-02-08 20:38:08.959051+01 | 1486582688.95905 | pgbench_history  |                0
 2017-02-08 20:38:08.959051+01 | 1486582688.95905 | pgbench_branches |            16384

 2017-02-08 20:38:10.02007+01 | 1486582690.02007 | pgbench_accounts |       4128522240
 2017-02-08 20:38:10.02007+01 | 1486582690.02007 | pgbench_tellers  |           139264
 2017-02-08 20:38:10.02007+01 | 1486582690.02007 | pgbench_history  |                0
 2017-02-08 20:38:10.02007+01 | 1486582690.02007 | pgbench_branches |            16384

 2017-02-08 20:38:11.082537+01 | 1486582691.08254 | pgbench_accounts |       4128669696
 2017-02-08 20:38:11.082537+01 | 1486582691.08254 | pgbench_tellers  |           139264
 2017-02-08 20:38:11.082537+01 | 1486582691.08254 | pgbench_history  |                0
 2017-02-08 20:38:11.082537+01 | 1486582691.08254 | pgbench_branches |            16384

 2017-02-08 20:38:12.168427+01 | 1486582692.16843 | pgbench_accounts |       4128800768
 2017-02-08 20:38:12.168427+01 | 1486582692.16843 | pgbench_tellers  |           139264
 2017-02-08 20:38:12.168427+01 | 1486582692.16843 | pgbench_history  |                0
 2017-02-08 20:38:12.168427+01 | 1486582692.16843 | pgbench_branches |            16384

 2017-02-08 20:38:13.244331+01 | 1486582693.24433 | pgbench_accounts |       4128923648
 2017-02-08 20:38:13.244331+01 | 1486582693.24433 | pgbench_tellers  |           139264
 2017-02-08 20:38:13.244331+01 | 1486582693.24433 | pgbench_history  |                0
 2017-02-08 20:38:13.244331+01 | 1486582693.24433 | pgbench_branches |            16384

 2017-02-08 20:38:14.312345+01 | 1486582694.31235 | pgbench_accounts |       4129046528
 2017-02-08 20:38:14.312345+01 | 1486582694.31235 | pgbench_tellers  |           139264
 2017-02-08 20:38:14.312345+01 | 1486582694.31235 | pgbench_history  |                0
 2017-02-08 20:38:14.312345+01 | 1486582694.31235 | pgbench_branches |            16384

 2017-02-08 20:38:15.387383+01 | 1486582695.38738 | pgbench_accounts |       4129177600
 2017-02-08 20:38:15.387383+01 | 1486582695.38738 | pgbench_tellers  |           139264
 2017-02-08 20:38:15.387383+01 | 1486582695.38738 | pgbench_history  |                0
 2017-02-08 20:38:15.387383+01 | 1486582695.38738 | pgbench_branches |            16384

 2017-02-08 20:38:16.460763+01 | 1486582696.46076 | pgbench_accounts |       4129308672
 2017-02-08 20:38:16.460763+01 | 1486582696.46076 | pgbench_tellers  |           139264
 2017-02-08 20:38:16.460763+01 | 1486582696.46076 | pgbench_history  |                0
 2017-02-08 20:38:16.460763+01 | 1486582696.46076 | pgbench_branches |            16384

 2017-02-08 20:38:17.544613+01 | 1486582697.54461 | pgbench_accounts |       4129431552
 2017-02-08 20:38:17.544613+01 | 1486582697.54461 | pgbench_tellers  |           139264
 2017-02-08 20:38:17.544613+01 | 1486582697.54461 | pgbench_history  |                0
 2017-02-08 20:38:17.544613+01 | 1486582697.54461 | pgbench_branches |            16384

 2017-02-08 20:38:18.630127+01 | 1486582698.63013 | pgbench_accounts |       4129570816
 2017-02-08 20:38:18.630127+01 | 1486582698.63013 | pgbench_tellers  |           139264
 2017-02-08 20:38:18.630127+01 | 1486582698.63013 | pgbench_history  |                0
 2017-02-08 20:38:18.630127+01 | 1486582698.63013 | pgbench_branches |            16384

 2017-02-08 20:38:19.705031+01 | 1486582699.70503 | pgbench_accounts |       4129701888
 2017-02-08 20:38:19.705031+01 | 1486582699.70503 | pgbench_tellers  |           139264
 2017-02-08 20:38:19.705031+01 | 1486582699.70503 | pgbench_history  |                0
 2017-02-08 20:38:19.705031+01 | 1486582699.70503 | pgbench_branches |            16384

 2017-02-08 20:38:20.767631+01 | 1486582700.76763 | pgbench_accounts |       4129824768
 2017-02-08 20:38:20.767631+01 | 1486582700.76763 | pgbench_tellers  |           139264
 2017-02-08 20:38:20.767631+01 | 1486582700.76763 | pgbench_history  |                0
 2017-02-08 20:38:20.767631+01 | 1486582700.76763 | pgbench_branches |            16384

 2017-02-08 20:38:21.832495+01 | 1486582701.83249 | pgbench_accounts |       4129947648
 2017-02-08 20:38:21.832495+01 | 1486582701.83249 | pgbench_tellers  |           139264
 2017-02-08 20:38:21.832495+01 | 1486582701.83249 | pgbench_history  |                0
 2017-02-08 20:38:21.832495+01 | 1486582701.83249 | pgbench_branches |            16384

 2017-02-08 20:38:22.899895+01 | 1486582702.89989 | pgbench_accounts |       4130070528
 2017-02-08 20:38:22.899895+01 | 1486582702.89989 | pgbench_tellers  |           139264
 2017-02-08 20:38:22.899895+01 | 1486582702.89989 | pgbench_history  |                0
 2017-02-08 20:38:22.899895+01 | 1486582702.89989 | pgbench_branches |            16384

 2017-02-08 20:38:23.956801+01 | 1486582703.9568 | pgbench_accounts |       4130193408
 2017-02-08 20:38:23.956801+01 | 1486582703.9568 | pgbench_tellers  |           139264
 2017-02-08 20:38:23.956801+01 | 1486582703.9568 | pgbench_history  |                0
 2017-02-08 20:38:23.956801+01 | 1486582703.9568 | pgbench_branches |            16384

 2017-02-08 20:38:25.030575+01 | 1486582705.03058 | pgbench_accounts |       4130299904
 2017-02-08 20:38:25.030575+01 | 1486582705.03058 | pgbench_tellers  |           139264
 2017-02-08 20:38:25.030575+01 | 1486582705.03058 | pgbench_history  |                0
 2017-02-08 20:38:25.030575+01 | 1486582705.03058 | pgbench_branches |            16384

 2017-02-08 20:38:26.107941+01 | 1486582706.10794 | pgbench_accounts |       4130414592
 2017-02-08 20:38:26.107941+01 | 1486582706.10794 | pgbench_tellers  |           139264
 2017-02-08 20:38:26.107941+01 | 1486582706.10794 | pgbench_history  |                0
 2017-02-08 20:38:26.107941+01 | 1486582706.10794 | pgbench_branches |            16384

 2017-02-08 20:38:27.182847+01 | 1486582707.18285 | pgbench_accounts |       4130521088
 2017-02-08 20:38:27.182847+01 | 1486582707.18285 | pgbench_tellers  |           139264
 2017-02-08 20:38:27.182847+01 | 1486582707.18285 | pgbench_history  |                0
 2017-02-08 20:38:27.182847+01 | 1486582707.18285 | pgbench_branches |            16384

 2017-02-08 20:38:28.255027+01 | 1486582708.25503 | pgbench_accounts |       4130635776
 2017-02-08 20:38:28.255027+01 | 1486582708.25503 | pgbench_tellers  |           139264
 2017-02-08 20:38:28.255027+01 | 1486582708.25503 | pgbench_history  |                0
 2017-02-08 20:38:28.255027+01 | 1486582708.25503 | pgbench_branches |            16384

 2017-02-08 20:38:29.339545+01 | 1486582709.33955 | pgbench_accounts |       4130766848
 2017-02-08 20:38:29.339545+01 | 1486582709.33955 | pgbench_tellers  |           139264
 2017-02-08 20:38:29.339545+01 | 1486582709.33955 | pgbench_history  |                0
 2017-02-08 20:38:29.339545+01 | 1486582709.33955 | pgbench_branches |            16384

 2017-02-08 20:38:30.421071+01 | 1486582710.42107 | pgbench_accounts |       4130897920
 2017-02-08 20:38:30.421071+01 | 1486582710.42107 | pgbench_tellers  |           139264
 2017-02-08 20:38:30.421071+01 | 1486582710.42107 | pgbench_history  |                0
 2017-02-08 20:38:30.421071+01 | 1486582710.42107 | pgbench_branches |            16384

 2017-02-08 20:38:31.48911+01 | 1486582711.48911 | pgbench_accounts |       4130979840
 2017-02-08 20:38:31.48911+01 | 1486582711.48911 | pgbench_tellers  |           139264
 2017-02-08 20:38:31.48911+01 | 1486582711.48911 | pgbench_history  |                0
 2017-02-08 20:38:31.48911+01 | 1486582711.48911 | pgbench_branches |            16384

 2017-02-08 20:38:32.584503+01 | 1486582712.5845 | pgbench_accounts |       4131102720
 2017-02-08 20:38:32.584503+01 | 1486582712.5845 | pgbench_tellers  |           139264
 2017-02-08 20:38:32.584503+01 | 1486582712.5845 | pgbench_history  |                0
 2017-02-08 20:38:32.584503+01 | 1486582712.5845 | pgbench_branches |            16384

 2017-02-08 20:38:33.661619+01 | 1486582713.66162 | pgbench_accounts |       4131225600
 2017-02-08 20:38:33.661619+01 | 1486582713.66162 | pgbench_tellers  |           139264
 2017-02-08 20:38:33.661619+01 | 1486582713.66162 | pgbench_history  |                0
 2017-02-08 20:38:33.661619+01 | 1486582713.66162 | pgbench_branches |            16384

 2017-02-08 20:38:34.765633+01 | 1486582714.76563 | pgbench_accounts |       4131348480
 2017-02-08 20:38:34.765633+01 | 1486582714.76563 | pgbench_tellers  |           139264
 2017-02-08 20:38:34.765633+01 | 1486582714.76563 | pgbench_history  |                0
 2017-02-08 20:38:34.765633+01 | 1486582714.76563 | pgbench_branches |            16384

 2017-02-08 20:38:35.84303+01 | 1486582715.84303 | pgbench_accounts |       4131446784
 2017-02-08 20:38:35.84303+01 | 1486582715.84303 | pgbench_tellers  |           139264
 2017-02-08 20:38:35.84303+01 | 1486582715.84303 | pgbench_history  |                0
 2017-02-08 20:38:35.84303+01 | 1486582715.84303 | pgbench_branches |            16384

 2017-02-08 20:38:36.917661+01 | 1486582716.91766 | pgbench_accounts |       4131569664
 2017-02-08 20:38:36.917661+01 | 1486582716.91766 | pgbench_tellers  |           139264
 2017-02-08 20:38:36.917661+01 | 1486582716.91766 | pgbench_history  |                0
 2017-02-08 20:38:36.917661+01 | 1486582716.91766 | pgbench_branches |            16384

 2017-02-08 20:38:37.983712+01 | 1486582717.98371 | pgbench_accounts |       4131659776
 2017-02-08 20:38:37.983712+01 | 1486582717.98371 | pgbench_tellers  |           139264
 2017-02-08 20:38:37.983712+01 | 1486582717.98371 | pgbench_history  |                0
 2017-02-08 20:38:37.983712+01 | 1486582717.98371 | pgbench_branches |            16384

 2017-02-08 20:38:39.07078+01 | 1486582719.07078 | pgbench_accounts |       4131774464
 2017-02-08 20:38:39.07078+01 | 1486582719.07078 | pgbench_tellers  |           139264
 2017-02-08 20:38:39.07078+01 | 1486582719.07078 | pgbench_history  |                0
 2017-02-08 20:38:39.07078+01 | 1486582719.07078 | pgbench_branches |            16384

 2017-02-08 20:38:40.144661+01 | 1486582720.14466 | pgbench_accounts |       4131889152
 2017-02-08 20:38:40.144661+01 | 1486582720.14466 | pgbench_tellers  |           139264
 2017-02-08 20:38:40.144661+01 | 1486582720.14466 | pgbench_history  |                0
 2017-02-08 20:38:40.144661+01 | 1486582720.14466 | pgbench_branches |            16384

 2017-02-08 20:38:41.230541+01 | 1486582721.23054 | pgbench_accounts |       4132003840
 2017-02-08 20:38:41.230541+01 | 1486582721.23054 | pgbench_tellers  |           139264
 2017-02-08 20:38:41.230541+01 | 1486582721.23054 | pgbench_history  |                0
 2017-02-08 20:38:41.230541+01 | 1486582721.23054 | pgbench_branches |            16384

 2017-02-08 20:38:42.302032+01 | 1486582722.30203 | pgbench_accounts |       4132085760
 2017-02-08 20:38:42.302032+01 | 1486582722.30203 | pgbench_tellers  |           139264
 2017-02-08 20:38:42.302032+01 | 1486582722.30203 | pgbench_history  |                0
 2017-02-08 20:38:42.302032+01 | 1486582722.30203 | pgbench_branches |            16384

 2017-02-08 20:38:43.380692+01 | 1486582723.38069 | pgbench_accounts |       4132200448
 2017-02-08 20:38:43.380692+01 | 1486582723.38069 | pgbench_tellers  |           139264
 2017-02-08 20:38:43.380692+01 | 1486582723.38069 | pgbench_history  |                0
 2017-02-08 20:38:43.380692+01 | 1486582723.38069 | pgbench_branches |            16384

 2017-02-08 20:38:44.449488+01 | 1486582724.44949 | pgbench_accounts |       4132315136
 2017-02-08 20:38:44.449488+01 | 1486582724.44949 | pgbench_tellers  |           139264
 2017-02-08 20:38:44.449488+01 | 1486582724.44949 | pgbench_history  |                0
 2017-02-08 20:38:44.449488+01 | 1486582724.44949 | pgbench_branches |            16384

 2017-02-08 20:38:45.512082+01 | 1486582725.51208 | pgbench_accounts |       4132388864
 2017-02-08 20:38:45.512082+01 | 1486582725.51208 | pgbench_tellers  |           139264
 2017-02-08 20:38:45.512082+01 | 1486582725.51208 | pgbench_history  |                0
 2017-02-08 20:38:45.512082+01 | 1486582725.51208 | pgbench_branches |            16384

 2017-02-08 20:38:46.575864+01 | 1486582726.57586 | pgbench_accounts |       4132511744
 2017-02-08 20:38:46.575864+01 | 1486582726.57586 | pgbench_tellers  |           139264
 2017-02-08 20:38:46.575864+01 | 1486582726.57586 | pgbench_history  |                0
 2017-02-08 20:38:46.575864+01 | 1486582726.57586 | pgbench_branches |            16384

 2017-02-08 20:38:47.669618+01 | 1486582727.66962 | pgbench_accounts |       4132610048
 2017-02-08 20:38:47.669618+01 | 1486582727.66962 | pgbench_tellers  |           139264
 2017-02-08 20:38:47.669618+01 | 1486582727.66962 | pgbench_history  |                0
 2017-02-08 20:38:47.669618+01 | 1486582727.66962 | pgbench_branches |            16384

 2017-02-08 20:38:48.733079+01 | 1486582728.73308 | pgbench_accounts |       4132708352
 2017-02-08 20:38:48.733079+01 | 1486582728.73308 | pgbench_tellers  |           139264
 2017-02-08 20:38:48.733079+01 | 1486582728.73308 | pgbench_history  |                0
 2017-02-08 20:38:48.733079+01 | 1486582728.73308 | pgbench_branches |            16384

 2017-02-08 20:38:49.815929+01 | 1486582729.81593 | pgbench_accounts |       4132806656
 2017-02-08 20:38:49.815929+01 | 1486582729.81593 | pgbench_tellers  |           139264
 2017-02-08 20:38:49.815929+01 | 1486582729.81593 | pgbench_history  |                0
 2017-02-08 20:38:49.815929+01 | 1486582729.81593 | pgbench_branches |            16384

 2017-02-08 20:38:50.891323+01 | 1486582730.89132 | pgbench_accounts |       4132904960
 2017-02-08 20:38:50.891323+01 | 1486582730.89132 | pgbench_tellers  |           139264
 2017-02-08 20:38:50.891323+01 | 1486582730.89132 | pgbench_history  |                0
 2017-02-08 20:38:50.891323+01 | 1486582730.89132 | pgbench_branches |            16384

 2017-02-08 20:38:51.967245+01 | 1486582731.96725 | pgbench_accounts |       4133011456
 2017-02-08 20:38:51.967245+01 | 1486582731.96725 | pgbench_tellers  |           139264
 2017-02-08 20:38:51.967245+01 | 1486582731.96725 | pgbench_history  |                0
 2017-02-08 20:38:51.967245+01 | 1486582731.96725 | pgbench_branches |            16384

 2017-02-08 20:38:53.032978+01 | 1486582733.03298 | pgbench_accounts |       4133093376
 2017-02-08 20:38:53.032978+01 | 1486582733.03298 | pgbench_tellers  |           139264
 2017-02-08 20:38:53.032978+01 | 1486582733.03298 | pgbench_history  |                0
 2017-02-08 20:38:53.032978+01 | 1486582733.03298 | pgbench_branches |            16384

 2017-02-08 20:38:54.113051+01 | 1486582734.11305 | pgbench_accounts |       4133199872
 2017-02-08 20:38:54.113051+01 | 1486582734.11305 | pgbench_tellers  |           139264
 2017-02-08 20:38:54.113051+01 | 1486582734.11305 | pgbench_history  |                0
 2017-02-08 20:38:54.113051+01 | 1486582734.11305 | pgbench_branches |            16384

 2017-02-08 20:38:55.191733+01 | 1486582735.19173 | pgbench_accounts |       4133306368
 2017-02-08 20:38:55.191733+01 | 1486582735.19173 | pgbench_tellers  |           139264
 2017-02-08 20:38:55.191733+01 | 1486582735.19173 | pgbench_history  |                0
 2017-02-08 20:38:55.191733+01 | 1486582735.19173 | pgbench_branches |            16384

 2017-02-08 20:38:56.270604+01 | 1486582736.2706 | pgbench_accounts |       4133371904
 2017-02-08 20:38:56.270604+01 | 1486582736.2706 | pgbench_tellers  |           139264
 2017-02-08 20:38:56.270604+01 | 1486582736.2706 | pgbench_history  |                0
 2017-02-08 20:38:56.270604+01 | 1486582736.2706 | pgbench_branches |            16384

 2017-02-08 20:38:57.34522+01 | 1486582737.34522 | pgbench_accounts |       4133486592
 2017-02-08 20:38:57.34522+01 | 1486582737.34522 | pgbench_tellers  |           139264
 2017-02-08 20:38:57.34522+01 | 1486582737.34522 | pgbench_history  |                0
 2017-02-08 20:38:57.34522+01 | 1486582737.34522 | pgbench_branches |            16384

 2017-02-08 20:38:58.41935+01 | 1486582738.41935 | pgbench_accounts |       4133568512
 2017-02-08 20:38:58.41935+01 | 1486582738.41935 | pgbench_tellers  |           139264
 2017-02-08 20:38:58.41935+01 | 1486582738.41935 | pgbench_history  |                0
 2017-02-08 20:38:58.41935+01 | 1486582738.41935 | pgbench_branches |            16384

 2017-02-08 20:38:59.490508+01 | 1486582739.49051 | pgbench_accounts |       4133666816
 2017-02-08 20:38:59.490508+01 | 1486582739.49051 | pgbench_tellers  |           139264
 2017-02-08 20:38:59.490508+01 | 1486582739.49051 | pgbench_history  |                0
 2017-02-08 20:38:59.490508+01 | 1486582739.49051 | pgbench_branches |            16384

 2017-02-08 20:39:00.573283+01 | 1486582740.57328 | pgbench_accounts |       4133756928
 2017-02-08 20:39:00.573283+01 | 1486582740.57328 | pgbench_tellers  |           139264
 2017-02-08 20:39:00.573283+01 | 1486582740.57328 | pgbench_history  |                0
 2017-02-08 20:39:00.573283+01 | 1486582740.57328 | pgbench_branches |            16384

 2017-02-08 20:39:01.659539+01 | 1486582741.65954 | pgbench_accounts |       4133871616
 2017-02-08 20:39:01.659539+01 | 1486582741.65954 | pgbench_tellers  |           139264
 2017-02-08 20:39:01.659539+01 | 1486582741.65954 | pgbench_history  |                0
 2017-02-08 20:39:01.659539+01 | 1486582741.65954 | pgbench_branches |            16384

 2017-02-08 20:39:02.75627+01 | 1486582742.75627 | pgbench_accounts |       4133945344
 2017-02-08 20:39:02.75627+01 | 1486582742.75627 | pgbench_tellers  |           139264
 2017-02-08 20:39:02.75627+01 | 1486582742.75627 | pgbench_history  |                0
 2017-02-08 20:39:02.75627+01 | 1486582742.75627 | pgbench_branches |            16384

 2017-02-08 20:39:03.83139+01 | 1486582743.83139 | pgbench_accounts |       4134027264
 2017-02-08 20:39:03.83139+01 | 1486582743.83139 | pgbench_tellers  |           139264
 2017-02-08 20:39:03.83139+01 | 1486582743.83139 | pgbench_history  |                0
 2017-02-08 20:39:03.83139+01 | 1486582743.83139 | pgbench_branches |            16384

 2017-02-08 20:39:04.904152+01 | 1486582744.90415 | pgbench_accounts |       4134133760
 2017-02-08 20:39:04.904152+01 | 1486582744.90415 | pgbench_tellers  |           139264
 2017-02-08 20:39:04.904152+01 | 1486582744.90415 | pgbench_history  |                0
 2017-02-08 20:39:04.904152+01 | 1486582744.90415 | pgbench_branches |            16384

 2017-02-08 20:39:05.977363+01 | 1486582745.97736 | pgbench_accounts |       4134215680
 2017-02-08 20:39:05.977363+01 | 1486582745.97736 | pgbench_tellers  |           139264
 2017-02-08 20:39:05.977363+01 | 1486582745.97736 | pgbench_history  |                0
 2017-02-08 20:39:05.977363+01 | 1486582745.97736 | pgbench_branches |            16384

 2017-02-08 20:39:07.051774+01 | 1486582747.05177 | pgbench_accounts |       4134322176
 2017-02-08 20:39:07.051774+01 | 1486582747.05177 | pgbench_tellers  |           139264
 2017-02-08 20:39:07.051774+01 | 1486582747.05177 | pgbench_history  |                0
 2017-02-08 20:39:07.051774+01 | 1486582747.05177 | pgbench_branches |            16384

 2017-02-08 20:39:08.125031+01 | 1486582748.12503 | pgbench_accounts |       4134412288
 2017-02-08 20:39:08.125031+01 | 1486582748.12503 | pgbench_tellers  |           139264
 2017-02-08 20:39:08.125031+01 | 1486582748.12503 | pgbench_history  |                0
 2017-02-08 20:39:08.125031+01 | 1486582748.12503 | pgbench_branches |            16384

 2017-02-08 20:39:09.186338+01 | 1486582749.18634 | pgbench_accounts |       4134486016
 2017-02-08 20:39:09.186338+01 | 1486582749.18634 | pgbench_tellers  |           139264
 2017-02-08 20:39:09.186338+01 | 1486582749.18634 | pgbench_history  |                0
 2017-02-08 20:39:09.186338+01 | 1486582749.18634 | pgbench_branches |            16384

 2017-02-08 20:39:10.274141+01 | 1486582750.27414 | pgbench_accounts |       4134551552
 2017-02-08 20:39:10.274141+01 | 1486582750.27414 | pgbench_tellers  |           139264
 2017-02-08 20:39:10.274141+01 | 1486582750.27414 | pgbench_history  |                0
 2017-02-08 20:39:10.274141+01 | 1486582750.27414 | pgbench_branches |            16384

 2017-02-08 20:39:11.340575+01 | 1486582751.34057 | pgbench_accounts |       4134666240
 2017-02-08 20:39:11.340575+01 | 1486582751.34057 | pgbench_tellers  |           139264
 2017-02-08 20:39:11.340575+01 | 1486582751.34057 | pgbench_history  |                0
 2017-02-08 20:39:11.340575+01 | 1486582751.34057 | pgbench_branches |            16384

 2017-02-08 20:39:12.413694+01 | 1486582752.41369 | pgbench_accounts |       4134731776
 2017-02-08 20:39:12.413694+01 | 1486582752.41369 | pgbench_tellers  |           139264
 2017-02-08 20:39:12.413694+01 | 1486582752.41369 | pgbench_history  |                0
 2017-02-08 20:39:12.413694+01 | 1486582752.41369 | pgbench_branches |            16384

 2017-02-08 20:39:13.517264+01 | 1486582753.51726 | pgbench_accounts |       4134813696
 2017-02-08 20:39:13.517264+01 | 1486582753.51726 | pgbench_tellers  |           139264
 2017-02-08 20:39:13.517264+01 | 1486582753.51726 | pgbench_history  |                0
 2017-02-08 20:39:13.517264+01 | 1486582753.51726 | pgbench_branches |            16384

 2017-02-08 20:39:14.594313+01 | 1486582754.59431 | pgbench_accounts |       4134903808
 2017-02-08 20:39:14.594313+01 | 1486582754.59431 | pgbench_tellers  |           139264
 2017-02-08 20:39:14.594313+01 | 1486582754.59431 | pgbench_history  |                0
 2017-02-08 20:39:14.594313+01 | 1486582754.59431 | pgbench_branches |            16384

 2017-02-08 20:39:15.668727+01 | 1486582755.66873 | pgbench_accounts |       4134969344
 2017-02-08 20:39:15.668727+01 | 1486582755.66873 | pgbench_tellers  |           139264
 2017-02-08 20:39:15.668727+01 | 1486582755.66873 | pgbench_history  |                0
 2017-02-08 20:39:15.668727+01 | 1486582755.66873 | pgbench_branches |            16384

 2017-02-08 20:39:16.747167+01 | 1486582756.74717 | pgbench_accounts |       4135067648
 2017-02-08 20:39:16.747167+01 | 1486582756.74717 | pgbench_tellers  |           139264
 2017-02-08 20:39:16.747167+01 | 1486582756.74717 | pgbench_history  |                0
 2017-02-08 20:39:16.747167+01 | 1486582756.74717 | pgbench_branches |            16384

 2017-02-08 20:39:17.83535+01 | 1486582757.83535 | pgbench_accounts |       4135141376
 2017-02-08 20:39:17.83535+01 | 1486582757.83535 | pgbench_tellers  |           139264
 2017-02-08 20:39:17.83535+01 | 1486582757.83535 | pgbench_history  |                0
 2017-02-08 20:39:17.83535+01 | 1486582757.83535 | pgbench_branches |            16384

 2017-02-08 20:39:18.915595+01 | 1486582758.9156 | pgbench_accounts |       4135215104
 2017-02-08 20:39:18.915595+01 | 1486582758.9156 | pgbench_tellers  |           139264
 2017-02-08 20:39:18.915595+01 | 1486582758.9156 | pgbench_history  |                0
 2017-02-08 20:39:18.915595+01 | 1486582758.9156 | pgbench_branches |            16384

 2017-02-08 20:39:19.991388+01 | 1486582759.99139 | pgbench_accounts |       4135313408
 2017-02-08 20:39:19.991388+01 | 1486582759.99139 | pgbench_tellers  |           139264
 2017-02-08 20:39:19.991388+01 | 1486582759.99139 | pgbench_history  |                0
 2017-02-08 20:39:19.991388+01 | 1486582759.99139 | pgbench_branches |            16384

 2017-02-08 20:39:21.049588+01 | 1486582761.04959 | pgbench_accounts |       4135378944
 2017-02-08 20:39:21.049588+01 | 1486582761.04959 | pgbench_tellers  |           139264
 2017-02-08 20:39:21.049588+01 | 1486582761.04959 | pgbench_history  |                0
 2017-02-08 20:39:21.049588+01 | 1486582761.04959 | pgbench_branches |            16384

 2017-02-08 20:39:22.131559+01 | 1486582762.13156 | pgbench_accounts |       4135460864
 2017-02-08 20:39:22.131559+01 | 1486582762.13156 | pgbench_tellers  |           139264
 2017-02-08 20:39:22.131559+01 | 1486582762.13156 | pgbench_history  |                0
 2017-02-08 20:39:22.131559+01 | 1486582762.13156 | pgbench_branches |            16384

 2017-02-08 20:39:23.247761+01 | 1486582763.24776 | pgbench_accounts |       4135542784
 2017-02-08 20:39:23.247761+01 | 1486582763.24776 | pgbench_tellers  |           139264
 2017-02-08 20:39:23.247761+01 | 1486582763.24776 | pgbench_history  |                0
 2017-02-08 20:39:23.247761+01 | 1486582763.24776 | pgbench_branches |            16384

 2017-02-08 20:39:24.330002+01 | 1486582764.33 | pgbench_accounts |       4135616512
 2017-02-08 20:39:24.330002+01 | 1486582764.33 | pgbench_tellers  |           139264
 2017-02-08 20:39:24.330002+01 | 1486582764.33 | pgbench_history  |                0
 2017-02-08 20:39:24.330002+01 | 1486582764.33 | pgbench_branches |            16384

 2017-02-08 20:39:25.404599+01 | 1486582765.4046 | pgbench_accounts |       4135698432
 2017-02-08 20:39:25.404599+01 | 1486582765.4046 | pgbench_tellers  |           139264
 2017-02-08 20:39:25.404599+01 | 1486582765.4046 | pgbench_history  |                0
 2017-02-08 20:39:25.404599+01 | 1486582765.4046 | pgbench_branches |            16384

