 2017-02-08 15:40:27.024424+01 | 1486564827.02442 | pgbench_branches_pkey |            57344
 2017-02-08 15:40:27.024424+01 | 1486564827.02442 | pgbench_tellers_pkey  |           253952
 2017-02-08 15:40:27.024424+01 | 1486564827.02442 | pgbench_accounts_pkey |        112336896

 2017-02-08 15:40:28.075843+01 | 1486564828.07584 | pgbench_branches_pkey |            57344
 2017-02-08 15:40:28.075843+01 | 1486564828.07584 | pgbench_tellers_pkey  |           253952
 2017-02-08 15:40:28.075843+01 | 1486564828.07584 | pgbench_accounts_pkey |        112336896

 2017-02-08 15:40:29.12892+01 | 1486564829.12892 | pgbench_branches_pkey |            57344
 2017-02-08 15:40:29.12892+01 | 1486564829.12892 | pgbench_tellers_pkey  |           253952
 2017-02-08 15:40:29.12892+01 | 1486564829.12892 | pgbench_accounts_pkey |        112336896

 2017-02-08 15:40:30.180476+01 | 1486564830.18048 | pgbench_branches_pkey |            57344
 2017-02-08 15:40:30.180476+01 | 1486564830.18048 | pgbench_tellers_pkey  |           253952
 2017-02-08 15:40:30.180476+01 | 1486564830.18048 | pgbench_accounts_pkey |        112336896

 2017-02-08 15:40:31.234406+01 | 1486564831.23441 | pgbench_branches_pkey |            57344
 2017-02-08 15:40:31.234406+01 | 1486564831.23441 | pgbench_tellers_pkey  |           253952
 2017-02-08 15:40:31.234406+01 | 1486564831.23441 | pgbench_accounts_pkey |        112336896

 2017-02-08 15:40:32.284865+01 | 1486564832.28486 | pgbench_branches_pkey |            57344
 2017-02-08 15:40:32.284865+01 | 1486564832.28486 | pgbench_tellers_pkey  |           253952
 2017-02-08 15:40:32.284865+01 | 1486564832.28486 | pgbench_accounts_pkey |        112336896

 2017-02-08 15:40:33.335254+01 | 1486564833.33525 | pgbench_branches_pkey |            57344
 2017-02-08 15:40:33.335254+01 | 1486564833.33525 | pgbench_tellers_pkey  |           253952
 2017-02-08 15:40:33.335254+01 | 1486564833.33525 | pgbench_accounts_pkey |        112336896

 2017-02-08 15:40:34.387034+01 | 1486564834.38703 | pgbench_branches_pkey |            57344
 2017-02-08 15:40:34.387034+01 | 1486564834.38703 | pgbench_tellers_pkey  |           253952
 2017-02-08 15:40:34.387034+01 | 1486564834.38703 | pgbench_accounts_pkey |        112336896

 2017-02-08 15:40:35.440854+01 | 1486564835.44085 | pgbench_branches_pkey |            57344
 2017-02-08 15:40:35.440854+01 | 1486564835.44085 | pgbench_tellers_pkey  |           253952
 2017-02-08 15:40:35.440854+01 | 1486564835.44085 | pgbench_accounts_pkey |        112336896

 2017-02-08 15:40:36.492081+01 | 1486564836.49208 | pgbench_branches_pkey |            57344
 2017-02-08 15:40:36.492081+01 | 1486564836.49208 | pgbench_tellers_pkey  |           253952
 2017-02-08 15:40:36.492081+01 | 1486564836.49208 | pgbench_accounts_pkey |        112336896

 2017-02-08 15:40:37.545923+01 | 1486564837.54592 | pgbench_branches_pkey |            57344
 2017-02-08 15:40:37.545923+01 | 1486564837.54592 | pgbench_tellers_pkey  |           253952
 2017-02-08 15:40:37.545923+01 | 1486564837.54592 | pgbench_accounts_pkey |        112336896

 2017-02-08 15:40:38.596826+01 | 1486564838.59683 | pgbench_branches_pkey |            57344
 2017-02-08 15:40:38.596826+01 | 1486564838.59683 | pgbench_tellers_pkey  |           253952
 2017-02-08 15:40:38.596826+01 | 1486564838.59683 | pgbench_accounts_pkey |        112336896

 2017-02-08 15:40:39.650658+01 | 1486564839.65066 | pgbench_branches_pkey |            57344
 2017-02-08 15:40:39.650658+01 | 1486564839.65066 | pgbench_tellers_pkey  |           253952
 2017-02-08 15:40:39.650658+01 | 1486564839.65066 | pgbench_accounts_pkey |        112336896

 2017-02-08 15:40:40.706439+01 | 1486564840.70644 | pgbench_branches_pkey |            57344
 2017-02-08 15:40:40.706439+01 | 1486564840.70644 | pgbench_tellers_pkey  |           253952
 2017-02-08 15:40:40.706439+01 | 1486564840.70644 | pgbench_accounts_pkey |        112336896

 2017-02-08 15:40:41.759875+01 | 1486564841.75988 | pgbench_branches_pkey |            57344
 2017-02-08 15:40:41.759875+01 | 1486564841.75988 | pgbench_tellers_pkey  |           253952
 2017-02-08 15:40:41.759875+01 | 1486564841.75988 | pgbench_accounts_pkey |        112336896

 2017-02-08 15:40:42.812983+01 | 1486564842.81298 | pgbench_branches_pkey |            57344
 2017-02-08 15:40:42.812983+01 | 1486564842.81298 | pgbench_tellers_pkey  |           253952
 2017-02-08 15:40:42.812983+01 | 1486564842.81298 | pgbench_accounts_pkey |        112336896

 2017-02-08 15:40:43.867101+01 | 1486564843.8671 | pgbench_branches_pkey |            57344
 2017-02-08 15:40:43.867101+01 | 1486564843.8671 | pgbench_tellers_pkey  |           253952
 2017-02-08 15:40:43.867101+01 | 1486564843.8671 | pgbench_accounts_pkey |        112336896

 2017-02-08 15:40:44.913688+01 | 1486564844.91369 | pgbench_branches_pkey |            57344
 2017-02-08 15:40:44.913688+01 | 1486564844.91369 | pgbench_tellers_pkey  |           253952
 2017-02-08 15:40:44.913688+01 | 1486564844.91369 | pgbench_accounts_pkey |        112336896

 2017-02-08 15:40:45.964916+01 | 1486564845.96492 | pgbench_branches_pkey |            57344
 2017-02-08 15:40:45.964916+01 | 1486564845.96492 | pgbench_tellers_pkey  |           253952
 2017-02-08 15:40:45.964916+01 | 1486564845.96492 | pgbench_accounts_pkey |        112336896

 2017-02-08 15:40:47.018633+01 | 1486564847.01863 | pgbench_branches_pkey |            57344
 2017-02-08 15:40:47.018633+01 | 1486564847.01863 | pgbench_tellers_pkey  |           253952
 2017-02-08 15:40:47.018633+01 | 1486564847.01863 | pgbench_accounts_pkey |        112336896

 2017-02-08 15:40:48.070988+01 | 1486564848.07099 | pgbench_branches_pkey |            57344
 2017-02-08 15:40:48.070988+01 | 1486564848.07099 | pgbench_tellers_pkey  |           253952
 2017-02-08 15:40:48.070988+01 | 1486564848.07099 | pgbench_accounts_pkey |        112336896

 2017-02-08 15:40:49.12304+01 | 1486564849.12304 | pgbench_branches_pkey |            57344
 2017-02-08 15:40:49.12304+01 | 1486564849.12304 | pgbench_tellers_pkey  |           253952
 2017-02-08 15:40:49.12304+01 | 1486564849.12304 | pgbench_accounts_pkey |        112336896

 2017-02-08 15:40:50.177325+01 | 1486564850.17733 | pgbench_branches_pkey |            57344
 2017-02-08 15:40:50.177325+01 | 1486564850.17733 | pgbench_tellers_pkey  |           253952
 2017-02-08 15:40:50.177325+01 | 1486564850.17733 | pgbench_accounts_pkey |        112336896

 2017-02-08 15:40:51.22881+01 | 1486564851.22881 | pgbench_branches_pkey |            57344
 2017-02-08 15:40:51.22881+01 | 1486564851.22881 | pgbench_tellers_pkey  |           253952
 2017-02-08 15:40:51.22881+01 | 1486564851.22881 | pgbench_accounts_pkey |        112336896

 2017-02-08 15:40:52.281986+01 | 1486564852.28199 | pgbench_branches_pkey |            57344
 2017-02-08 15:40:52.281986+01 | 1486564852.28199 | pgbench_tellers_pkey  |           253952
 2017-02-08 15:40:52.281986+01 | 1486564852.28199 | pgbench_accounts_pkey |        112336896

 2017-02-08 15:40:53.335523+01 | 1486564853.33552 | pgbench_branches_pkey |            57344
 2017-02-08 15:40:53.335523+01 | 1486564853.33552 | pgbench_tellers_pkey  |           253952
 2017-02-08 15:40:53.335523+01 | 1486564853.33552 | pgbench_accounts_pkey |        112336896

 2017-02-08 15:40:54.385389+01 | 1486564854.38539 | pgbench_branches_pkey |            57344
 2017-02-08 15:40:54.385389+01 | 1486564854.38539 | pgbench_tellers_pkey  |           253952
 2017-02-08 15:40:54.385389+01 | 1486564854.38539 | pgbench_accounts_pkey |        112336896

 2017-02-08 15:40:55.434868+01 | 1486564855.43487 | pgbench_branches_pkey |            57344
 2017-02-08 15:40:55.434868+01 | 1486564855.43487 | pgbench_tellers_pkey  |           253952
 2017-02-08 15:40:55.434868+01 | 1486564855.43487 | pgbench_accounts_pkey |        112336896

 2017-02-08 15:40:56.486906+01 | 1486564856.48691 | pgbench_branches_pkey |            57344
 2017-02-08 15:40:56.486906+01 | 1486564856.48691 | pgbench_tellers_pkey  |           253952
 2017-02-08 15:40:56.486906+01 | 1486564856.48691 | pgbench_accounts_pkey |        112336896

 2017-02-08 15:40:57.543271+01 | 1486564857.54327 | pgbench_branches_pkey |            57344
 2017-02-08 15:40:57.543271+01 | 1486564857.54327 | pgbench_tellers_pkey  |           253952
 2017-02-08 15:40:57.543271+01 | 1486564857.54327 | pgbench_accounts_pkey |        112336896

 2017-02-08 15:40:58.598763+01 | 1486564858.59876 | pgbench_branches_pkey |            57344
 2017-02-08 15:40:58.598763+01 | 1486564858.59876 | pgbench_tellers_pkey  |           253952
 2017-02-08 15:40:58.598763+01 | 1486564858.59876 | pgbench_accounts_pkey |        112336896

 2017-02-08 15:40:59.649922+01 | 1486564859.64992 | pgbench_branches_pkey |            57344
 2017-02-08 15:40:59.649922+01 | 1486564859.64992 | pgbench_tellers_pkey  |           253952
 2017-02-08 15:40:59.649922+01 | 1486564859.64992 | pgbench_accounts_pkey |        112336896

 2017-02-08 15:41:00.701904+01 | 1486564860.7019 | pgbench_branches_pkey |            57344
 2017-02-08 15:41:00.701904+01 | 1486564860.7019 | pgbench_tellers_pkey  |           253952
 2017-02-08 15:41:00.701904+01 | 1486564860.7019 | pgbench_accounts_pkey |        112336896

 2017-02-08 15:41:01.753345+01 | 1486564861.75335 | pgbench_branches_pkey |            57344
 2017-02-08 15:41:01.753345+01 | 1486564861.75335 | pgbench_tellers_pkey  |           253952
 2017-02-08 15:41:01.753345+01 | 1486564861.75335 | pgbench_accounts_pkey |        112336896

 2017-02-08 15:41:02.804399+01 | 1486564862.8044 | pgbench_branches_pkey |            57344
 2017-02-08 15:41:02.804399+01 | 1486564862.8044 | pgbench_tellers_pkey  |           253952
 2017-02-08 15:41:02.804399+01 | 1486564862.8044 | pgbench_accounts_pkey |        112336896

 2017-02-08 15:41:03.858027+01 | 1486564863.85803 | pgbench_branches_pkey |            57344
 2017-02-08 15:41:03.858027+01 | 1486564863.85803 | pgbench_tellers_pkey  |           253952
 2017-02-08 15:41:03.858027+01 | 1486564863.85803 | pgbench_accounts_pkey |        112336896

 2017-02-08 15:41:04.90996+01 | 1486564864.90996 | pgbench_branches_pkey |            57344
 2017-02-08 15:41:04.90996+01 | 1486564864.90996 | pgbench_tellers_pkey  |           253952
 2017-02-08 15:41:04.90996+01 | 1486564864.90996 | pgbench_accounts_pkey |        112336896

 2017-02-08 15:41:05.963286+01 | 1486564865.96329 | pgbench_branches_pkey |            57344
 2017-02-08 15:41:05.963286+01 | 1486564865.96329 | pgbench_tellers_pkey  |           253952
 2017-02-08 15:41:05.963286+01 | 1486564865.96329 | pgbench_accounts_pkey |        112336896

 2017-02-08 15:41:07.016418+01 | 1486564867.01642 | pgbench_branches_pkey |            57344
 2017-02-08 15:41:07.016418+01 | 1486564867.01642 | pgbench_tellers_pkey  |           253952
 2017-02-08 15:41:07.016418+01 | 1486564867.01642 | pgbench_accounts_pkey |        112336896

 2017-02-08 15:41:08.069327+01 | 1486564868.06933 | pgbench_branches_pkey |            57344
 2017-02-08 15:41:08.069327+01 | 1486564868.06933 | pgbench_tellers_pkey  |           253952
 2017-02-08 15:41:08.069327+01 | 1486564868.06933 | pgbench_accounts_pkey |        112336896

 2017-02-08 15:41:09.123757+01 | 1486564869.12376 | pgbench_branches_pkey |            57344
 2017-02-08 15:41:09.123757+01 | 1486564869.12376 | pgbench_tellers_pkey  |           253952
 2017-02-08 15:41:09.123757+01 | 1486564869.12376 | pgbench_accounts_pkey |        112336896

 2017-02-08 15:41:10.175335+01 | 1486564870.17533 | pgbench_branches_pkey |            57344
 2017-02-08 15:41:10.175335+01 | 1486564870.17533 | pgbench_tellers_pkey  |           253952
 2017-02-08 15:41:10.175335+01 | 1486564870.17533 | pgbench_accounts_pkey |        112336896

 2017-02-08 15:41:11.226237+01 | 1486564871.22624 | pgbench_branches_pkey |            57344
 2017-02-08 15:41:11.226237+01 | 1486564871.22624 | pgbench_tellers_pkey  |           253952
 2017-02-08 15:41:11.226237+01 | 1486564871.22624 | pgbench_accounts_pkey |        112336896

 2017-02-08 15:41:12.27613+01 | 1486564872.27613 | pgbench_branches_pkey |            57344
 2017-02-08 15:41:12.27613+01 | 1486564872.27613 | pgbench_tellers_pkey  |           253952
 2017-02-08 15:41:12.27613+01 | 1486564872.27613 | pgbench_accounts_pkey |        112336896

 2017-02-08 15:41:13.329327+01 | 1486564873.32933 | pgbench_branches_pkey |            57344
 2017-02-08 15:41:13.329327+01 | 1486564873.32933 | pgbench_tellers_pkey  |           253952
 2017-02-08 15:41:13.329327+01 | 1486564873.32933 | pgbench_accounts_pkey |        112336896

 2017-02-08 15:41:14.382075+01 | 1486564874.38208 | pgbench_branches_pkey |            57344
 2017-02-08 15:41:14.382075+01 | 1486564874.38208 | pgbench_tellers_pkey  |           253952
 2017-02-08 15:41:14.382075+01 | 1486564874.38208 | pgbench_accounts_pkey |        112336896

 2017-02-08 15:41:15.433948+01 | 1486564875.43395 | pgbench_branches_pkey |            57344
 2017-02-08 15:41:15.433948+01 | 1486564875.43395 | pgbench_tellers_pkey  |           253952
 2017-02-08 15:41:15.433948+01 | 1486564875.43395 | pgbench_accounts_pkey |        112336896

 2017-02-08 15:41:16.487442+01 | 1486564876.48744 | pgbench_branches_pkey |            57344
 2017-02-08 15:41:16.487442+01 | 1486564876.48744 | pgbench_tellers_pkey  |           253952
 2017-02-08 15:41:16.487442+01 | 1486564876.48744 | pgbench_accounts_pkey |        112336896

 2017-02-08 15:41:17.537341+01 | 1486564877.53734 | pgbench_branches_pkey |            57344
 2017-02-08 15:41:17.537341+01 | 1486564877.53734 | pgbench_tellers_pkey  |           253952
 2017-02-08 15:41:17.537341+01 | 1486564877.53734 | pgbench_accounts_pkey |        112336896

 2017-02-08 15:41:18.588471+01 | 1486564878.58847 | pgbench_branches_pkey |            57344
 2017-02-08 15:41:18.588471+01 | 1486564878.58847 | pgbench_tellers_pkey  |           253952
 2017-02-08 15:41:18.588471+01 | 1486564878.58847 | pgbench_accounts_pkey |        112336896

 2017-02-08 15:41:19.642794+01 | 1486564879.64279 | pgbench_branches_pkey |            57344
 2017-02-08 15:41:19.642794+01 | 1486564879.64279 | pgbench_tellers_pkey  |           253952
 2017-02-08 15:41:19.642794+01 | 1486564879.64279 | pgbench_accounts_pkey |        112336896

 2017-02-08 15:41:20.694145+01 | 1486564880.69414 | pgbench_branches_pkey |            57344
 2017-02-08 15:41:20.694145+01 | 1486564880.69414 | pgbench_tellers_pkey  |           253952
 2017-02-08 15:41:20.694145+01 | 1486564880.69414 | pgbench_accounts_pkey |        112336896

 2017-02-08 15:41:21.746817+01 | 1486564881.74682 | pgbench_branches_pkey |            57344
 2017-02-08 15:41:21.746817+01 | 1486564881.74682 | pgbench_tellers_pkey  |           253952
 2017-02-08 15:41:21.746817+01 | 1486564881.74682 | pgbench_accounts_pkey |        112336896

 2017-02-08 15:41:22.801213+01 | 1486564882.80121 | pgbench_branches_pkey |            57344
 2017-02-08 15:41:22.801213+01 | 1486564882.80121 | pgbench_tellers_pkey  |           253952
 2017-02-08 15:41:22.801213+01 | 1486564882.80121 | pgbench_accounts_pkey |        112336896

 2017-02-08 15:41:23.853948+01 | 1486564883.85395 | pgbench_branches_pkey |            57344
 2017-02-08 15:41:23.853948+01 | 1486564883.85395 | pgbench_tellers_pkey  |           253952
 2017-02-08 15:41:23.853948+01 | 1486564883.85395 | pgbench_accounts_pkey |        112336896

 2017-02-08 15:41:24.906824+01 | 1486564884.90682 | pgbench_branches_pkey |            57344
 2017-02-08 15:41:24.906824+01 | 1486564884.90682 | pgbench_tellers_pkey  |           253952
 2017-02-08 15:41:24.906824+01 | 1486564884.90682 | pgbench_accounts_pkey |        112336896

 2017-02-08 15:41:25.956752+01 | 1486564885.95675 | pgbench_branches_pkey |            57344
 2017-02-08 15:41:25.956752+01 | 1486564885.95675 | pgbench_tellers_pkey  |           253952
 2017-02-08 15:41:25.956752+01 | 1486564885.95675 | pgbench_accounts_pkey |        112336896

 2017-02-08 15:41:27.009343+01 | 1486564887.00934 | pgbench_branches_pkey |            57344
 2017-02-08 15:41:27.009343+01 | 1486564887.00934 | pgbench_tellers_pkey  |           253952
 2017-02-08 15:41:27.009343+01 | 1486564887.00934 | pgbench_accounts_pkey |        112336896

 2017-02-08 15:41:28.060117+01 | 1486564888.06012 | pgbench_branches_pkey |            57344
 2017-02-08 15:41:28.060117+01 | 1486564888.06012 | pgbench_tellers_pkey  |           253952
 2017-02-08 15:41:28.060117+01 | 1486564888.06012 | pgbench_accounts_pkey |        112336896

 2017-02-08 15:41:29.114392+01 | 1486564889.11439 | pgbench_branches_pkey |            57344
 2017-02-08 15:41:29.114392+01 | 1486564889.11439 | pgbench_tellers_pkey  |           253952
 2017-02-08 15:41:29.114392+01 | 1486564889.11439 | pgbench_accounts_pkey |        112336896

 2017-02-08 15:41:30.167291+01 | 1486564890.16729 | pgbench_branches_pkey |            57344
 2017-02-08 15:41:30.167291+01 | 1486564890.16729 | pgbench_tellers_pkey  |           253952
 2017-02-08 15:41:30.167291+01 | 1486564890.16729 | pgbench_accounts_pkey |        112336896

 2017-02-08 15:41:31.218752+01 | 1486564891.21875 | pgbench_branches_pkey |            57344
 2017-02-08 15:41:31.218752+01 | 1486564891.21875 | pgbench_tellers_pkey  |           253952
 2017-02-08 15:41:31.218752+01 | 1486564891.21875 | pgbench_accounts_pkey |        112336896

 2017-02-08 15:41:32.274575+01 | 1486564892.27457 | pgbench_branches_pkey |            57344
 2017-02-08 15:41:32.274575+01 | 1486564892.27457 | pgbench_tellers_pkey  |           253952
 2017-02-08 15:41:32.274575+01 | 1486564892.27457 | pgbench_accounts_pkey |        112336896

 2017-02-08 15:41:33.325044+01 | 1486564893.32504 | pgbench_branches_pkey |            57344
 2017-02-08 15:41:33.325044+01 | 1486564893.32504 | pgbench_tellers_pkey  |           253952
 2017-02-08 15:41:33.325044+01 | 1486564893.32504 | pgbench_accounts_pkey |        112336896

 2017-02-08 15:41:34.378185+01 | 1486564894.37819 | pgbench_branches_pkey |            57344
 2017-02-08 15:41:34.378185+01 | 1486564894.37819 | pgbench_tellers_pkey  |           253952
 2017-02-08 15:41:34.378185+01 | 1486564894.37819 | pgbench_accounts_pkey |        112336896

 2017-02-08 15:41:35.432795+01 | 1486564895.4328 | pgbench_branches_pkey |            57344
 2017-02-08 15:41:35.432795+01 | 1486564895.4328 | pgbench_tellers_pkey  |           253952
 2017-02-08 15:41:35.432795+01 | 1486564895.4328 | pgbench_accounts_pkey |        112336896

 2017-02-08 15:41:36.486257+01 | 1486564896.48626 | pgbench_branches_pkey |            57344
 2017-02-08 15:41:36.486257+01 | 1486564896.48626 | pgbench_tellers_pkey  |           253952
 2017-02-08 15:41:36.486257+01 | 1486564896.48626 | pgbench_accounts_pkey |        112336896

 2017-02-08 15:41:37.539828+01 | 1486564897.53983 | pgbench_branches_pkey |            57344
 2017-02-08 15:41:37.539828+01 | 1486564897.53983 | pgbench_tellers_pkey  |           253952
 2017-02-08 15:41:37.539828+01 | 1486564897.53983 | pgbench_accounts_pkey |        112336896

 2017-02-08 15:41:38.58942+01 | 1486564898.58942 | pgbench_branches_pkey |            57344
 2017-02-08 15:41:38.58942+01 | 1486564898.58942 | pgbench_tellers_pkey  |           253952
 2017-02-08 15:41:38.58942+01 | 1486564898.58942 | pgbench_accounts_pkey |        112336896

 2017-02-08 15:41:39.641531+01 | 1486564899.64153 | pgbench_branches_pkey |            57344
 2017-02-08 15:41:39.641531+01 | 1486564899.64153 | pgbench_tellers_pkey  |           253952
 2017-02-08 15:41:39.641531+01 | 1486564899.64153 | pgbench_accounts_pkey |        112336896

 2017-02-08 15:41:40.692932+01 | 1486564900.69293 | pgbench_branches_pkey |            57344
 2017-02-08 15:41:40.692932+01 | 1486564900.69293 | pgbench_tellers_pkey  |           253952
 2017-02-08 15:41:40.692932+01 | 1486564900.69293 | pgbench_accounts_pkey |        112336896

 2017-02-08 15:41:41.745252+01 | 1486564901.74525 | pgbench_branches_pkey |            57344
 2017-02-08 15:41:41.745252+01 | 1486564901.74525 | pgbench_tellers_pkey  |           253952
 2017-02-08 15:41:41.745252+01 | 1486564901.74525 | pgbench_accounts_pkey |        112336896

 2017-02-08 15:41:42.796351+01 | 1486564902.79635 | pgbench_branches_pkey |            57344
 2017-02-08 15:41:42.796351+01 | 1486564902.79635 | pgbench_tellers_pkey  |           253952
 2017-02-08 15:41:42.796351+01 | 1486564902.79635 | pgbench_accounts_pkey |        112336896

 2017-02-08 15:41:43.848156+01 | 1486564903.84816 | pgbench_branches_pkey |            57344
 2017-02-08 15:41:43.848156+01 | 1486564903.84816 | pgbench_tellers_pkey  |           253952
 2017-02-08 15:41:43.848156+01 | 1486564903.84816 | pgbench_accounts_pkey |        112336896

 2017-02-08 15:41:44.892911+01 | 1486564904.89291 | pgbench_branches_pkey |            57344
 2017-02-08 15:41:44.892911+01 | 1486564904.89291 | pgbench_tellers_pkey  |           253952
 2017-02-08 15:41:44.892911+01 | 1486564904.89291 | pgbench_accounts_pkey |        112336896

 2017-02-08 15:41:45.945078+01 | 1486564905.94508 | pgbench_branches_pkey |            57344
 2017-02-08 15:41:45.945078+01 | 1486564905.94508 | pgbench_tellers_pkey  |           253952
 2017-02-08 15:41:45.945078+01 | 1486564905.94508 | pgbench_accounts_pkey |        112336896

 2017-02-08 15:41:46.997457+01 | 1486564906.99746 | pgbench_branches_pkey |            57344
 2017-02-08 15:41:46.997457+01 | 1486564906.99746 | pgbench_tellers_pkey  |           253952
 2017-02-08 15:41:46.997457+01 | 1486564906.99746 | pgbench_accounts_pkey |        112336896

 2017-02-08 15:41:48.059116+01 | 1486564908.05912 | pgbench_branches_pkey |            57344
 2017-02-08 15:41:48.059116+01 | 1486564908.05912 | pgbench_tellers_pkey  |           253952
 2017-02-08 15:41:48.059116+01 | 1486564908.05912 | pgbench_accounts_pkey |        112336896

 2017-02-08 15:41:49.110698+01 | 1486564909.1107 | pgbench_branches_pkey |            57344
 2017-02-08 15:41:49.110698+01 | 1486564909.1107 | pgbench_tellers_pkey  |           253952
 2017-02-08 15:41:49.110698+01 | 1486564909.1107 | pgbench_accounts_pkey |        112336896

 2017-02-08 15:41:50.162285+01 | 1486564910.16229 | pgbench_branches_pkey |            57344
 2017-02-08 15:41:50.162285+01 | 1486564910.16229 | pgbench_tellers_pkey  |           253952
 2017-02-08 15:41:50.162285+01 | 1486564910.16229 | pgbench_accounts_pkey |        112336896

 2017-02-08 15:41:51.215056+01 | 1486564911.21506 | pgbench_branches_pkey |            57344
 2017-02-08 15:41:51.215056+01 | 1486564911.21506 | pgbench_tellers_pkey  |           253952
 2017-02-08 15:41:51.215056+01 | 1486564911.21506 | pgbench_accounts_pkey |        112336896

 2017-02-08 15:41:52.268024+01 | 1486564912.26802 | pgbench_branches_pkey |            57344
 2017-02-08 15:41:52.268024+01 | 1486564912.26802 | pgbench_tellers_pkey  |           253952
 2017-02-08 15:41:52.268024+01 | 1486564912.26802 | pgbench_accounts_pkey |        112336896

 2017-02-08 15:41:53.323399+01 | 1486564913.3234 | pgbench_branches_pkey |            57344
 2017-02-08 15:41:53.323399+01 | 1486564913.3234 | pgbench_tellers_pkey  |           253952
 2017-02-08 15:41:53.323399+01 | 1486564913.3234 | pgbench_accounts_pkey |        112336896

 2017-02-08 15:41:54.373159+01 | 1486564914.37316 | pgbench_branches_pkey |            57344
 2017-02-08 15:41:54.373159+01 | 1486564914.37316 | pgbench_tellers_pkey  |           253952
 2017-02-08 15:41:54.373159+01 | 1486564914.37316 | pgbench_accounts_pkey |        112336896

 2017-02-08 15:41:55.426351+01 | 1486564915.42635 | pgbench_branches_pkey |            57344
 2017-02-08 15:41:55.426351+01 | 1486564915.42635 | pgbench_tellers_pkey  |           253952
 2017-02-08 15:41:55.426351+01 | 1486564915.42635 | pgbench_accounts_pkey |        112336896

 2017-02-08 15:41:56.477874+01 | 1486564916.47787 | pgbench_branches_pkey |            57344
 2017-02-08 15:41:56.477874+01 | 1486564916.47787 | pgbench_tellers_pkey  |           253952
 2017-02-08 15:41:56.477874+01 | 1486564916.47787 | pgbench_accounts_pkey |        112336896

 2017-02-08 15:41:57.528385+01 | 1486564917.52838 | pgbench_branches_pkey |            57344
 2017-02-08 15:41:57.528385+01 | 1486564917.52838 | pgbench_tellers_pkey  |           253952
 2017-02-08 15:41:57.528385+01 | 1486564917.52838 | pgbench_accounts_pkey |        112336896

 2017-02-08 15:41:58.578947+01 | 1486564918.57895 | pgbench_branches_pkey |            57344
 2017-02-08 15:41:58.578947+01 | 1486564918.57895 | pgbench_tellers_pkey  |           253952
 2017-02-08 15:41:58.578947+01 | 1486564918.57895 | pgbench_accounts_pkey |        112336896

 2017-02-08 15:41:59.629064+01 | 1486564919.62906 | pgbench_branches_pkey |            57344
 2017-02-08 15:41:59.629064+01 | 1486564919.62906 | pgbench_tellers_pkey  |           253952
 2017-02-08 15:41:59.629064+01 | 1486564919.62906 | pgbench_accounts_pkey |        112336896

 2017-02-08 15:42:00.681573+01 | 1486564920.68157 | pgbench_branches_pkey |            57344
 2017-02-08 15:42:00.681573+01 | 1486564920.68157 | pgbench_tellers_pkey  |           253952
 2017-02-08 15:42:00.681573+01 | 1486564920.68157 | pgbench_accounts_pkey |        112336896

 2017-02-08 15:42:01.734819+01 | 1486564921.73482 | pgbench_branches_pkey |            57344
 2017-02-08 15:42:01.734819+01 | 1486564921.73482 | pgbench_tellers_pkey  |           253952
 2017-02-08 15:42:01.734819+01 | 1486564921.73482 | pgbench_accounts_pkey |        112336896

 2017-02-08 15:42:02.788022+01 | 1486564922.78802 | pgbench_branches_pkey |            57344
 2017-02-08 15:42:02.788022+01 | 1486564922.78802 | pgbench_tellers_pkey  |           253952
 2017-02-08 15:42:02.788022+01 | 1486564922.78802 | pgbench_accounts_pkey |        112336896

 2017-02-08 15:42:03.841192+01 | 1486564923.84119 | pgbench_branches_pkey |            57344
 2017-02-08 15:42:03.841192+01 | 1486564923.84119 | pgbench_tellers_pkey  |           253952
 2017-02-08 15:42:03.841192+01 | 1486564923.84119 | pgbench_accounts_pkey |        112336896

 2017-02-08 15:42:04.897932+01 | 1486564924.89793 | pgbench_branches_pkey |            57344
 2017-02-08 15:42:04.897932+01 | 1486564924.89793 | pgbench_tellers_pkey  |           253952
 2017-02-08 15:42:04.897932+01 | 1486564924.89793 | pgbench_accounts_pkey |        112336896

 2017-02-08 15:42:05.948651+01 | 1486564925.94865 | pgbench_branches_pkey |            57344
 2017-02-08 15:42:05.948651+01 | 1486564925.94865 | pgbench_tellers_pkey  |           253952
 2017-02-08 15:42:05.948651+01 | 1486564925.94865 | pgbench_accounts_pkey |        112336896

 2017-02-08 15:42:07.000689+01 | 1486564927.00069 | pgbench_branches_pkey |            57344
 2017-02-08 15:42:07.000689+01 | 1486564927.00069 | pgbench_tellers_pkey  |           253952
 2017-02-08 15:42:07.000689+01 | 1486564927.00069 | pgbench_accounts_pkey |        112336896

 2017-02-08 15:42:08.048775+01 | 1486564928.04877 | pgbench_branches_pkey |            57344
 2017-02-08 15:42:08.048775+01 | 1486564928.04877 | pgbench_tellers_pkey  |           253952
 2017-02-08 15:42:08.048775+01 | 1486564928.04877 | pgbench_accounts_pkey |        112336896

 2017-02-08 15:42:09.0974+01 | 1486564929.0974 | pgbench_branches_pkey |            57344
 2017-02-08 15:42:09.0974+01 | 1486564929.0974 | pgbench_tellers_pkey  |           253952
 2017-02-08 15:42:09.0974+01 | 1486564929.0974 | pgbench_accounts_pkey |        112336896

 2017-02-08 15:42:10.147766+01 | 1486564930.14777 | pgbench_branches_pkey |            57344
 2017-02-08 15:42:10.147766+01 | 1486564930.14777 | pgbench_tellers_pkey  |           253952
 2017-02-08 15:42:10.147766+01 | 1486564930.14777 | pgbench_accounts_pkey |        112336896

 2017-02-08 15:42:11.200454+01 | 1486564931.20045 | pgbench_branches_pkey |            57344
 2017-02-08 15:42:11.200454+01 | 1486564931.20045 | pgbench_tellers_pkey  |           253952
 2017-02-08 15:42:11.200454+01 | 1486564931.20045 | pgbench_accounts_pkey |        112336896

 2017-02-08 15:42:12.25039+01 | 1486564932.25039 | pgbench_branches_pkey |            57344
 2017-02-08 15:42:12.25039+01 | 1486564932.25039 | pgbench_tellers_pkey  |           253952
 2017-02-08 15:42:12.25039+01 | 1486564932.25039 | pgbench_accounts_pkey |        112336896

 2017-02-08 15:42:13.302442+01 | 1486564933.30244 | pgbench_branches_pkey |            57344
 2017-02-08 15:42:13.302442+01 | 1486564933.30244 | pgbench_tellers_pkey  |           253952
 2017-02-08 15:42:13.302442+01 | 1486564933.30244 | pgbench_accounts_pkey |        112336896

 2017-02-08 15:42:14.353335+01 | 1486564934.35333 | pgbench_branches_pkey |            57344
 2017-02-08 15:42:14.353335+01 | 1486564934.35333 | pgbench_tellers_pkey  |           253952
 2017-02-08 15:42:14.353335+01 | 1486564934.35333 | pgbench_accounts_pkey |        112336896

 2017-02-08 15:42:15.406645+01 | 1486564935.40665 | pgbench_branches_pkey |            57344
 2017-02-08 15:42:15.406645+01 | 1486564935.40665 | pgbench_tellers_pkey  |           253952
 2017-02-08 15:42:15.406645+01 | 1486564935.40665 | pgbench_accounts_pkey |        112336896

 2017-02-08 15:42:16.460598+01 | 1486564936.4606 | pgbench_branches_pkey |            57344
 2017-02-08 15:42:16.460598+01 | 1486564936.4606 | pgbench_tellers_pkey  |           253952
 2017-02-08 15:42:16.460598+01 | 1486564936.4606 | pgbench_accounts_pkey |        112336896

 2017-02-08 15:42:17.51394+01 | 1486564937.51394 | pgbench_branches_pkey |            57344
 2017-02-08 15:42:17.51394+01 | 1486564937.51394 | pgbench_tellers_pkey  |           253952
 2017-02-08 15:42:17.51394+01 | 1486564937.51394 | pgbench_accounts_pkey |        112336896

 2017-02-08 15:42:18.568188+01 | 1486564938.56819 | pgbench_branches_pkey |            57344
 2017-02-08 15:42:18.568188+01 | 1486564938.56819 | pgbench_tellers_pkey  |           253952
 2017-02-08 15:42:18.568188+01 | 1486564938.56819 | pgbench_accounts_pkey |        112336896

 2017-02-08 15:42:19.623104+01 | 1486564939.6231 | pgbench_branches_pkey |            57344
 2017-02-08 15:42:19.623104+01 | 1486564939.6231 | pgbench_tellers_pkey  |           253952
 2017-02-08 15:42:19.623104+01 | 1486564939.6231 | pgbench_accounts_pkey |        112336896

 2017-02-08 15:42:20.672512+01 | 1486564940.67251 | pgbench_branches_pkey |            57344
 2017-02-08 15:42:20.672512+01 | 1486564940.67251 | pgbench_tellers_pkey  |           253952
 2017-02-08 15:42:20.672512+01 | 1486564940.67251 | pgbench_accounts_pkey |        112336896

 2017-02-08 15:42:21.722164+01 | 1486564941.72216 | pgbench_branches_pkey |            57344
 2017-02-08 15:42:21.722164+01 | 1486564941.72216 | pgbench_tellers_pkey  |           253952
 2017-02-08 15:42:21.722164+01 | 1486564941.72216 | pgbench_accounts_pkey |        112336896

 2017-02-08 15:42:22.774371+01 | 1486564942.77437 | pgbench_branches_pkey |            57344
 2017-02-08 15:42:22.774371+01 | 1486564942.77437 | pgbench_tellers_pkey  |           253952
 2017-02-08 15:42:22.774371+01 | 1486564942.77437 | pgbench_accounts_pkey |        112336896

 2017-02-08 15:42:23.826795+01 | 1486564943.8268 | pgbench_branches_pkey |            57344
 2017-02-08 15:42:23.826795+01 | 1486564943.8268 | pgbench_tellers_pkey  |           253952
 2017-02-08 15:42:23.826795+01 | 1486564943.8268 | pgbench_accounts_pkey |        112336896

 2017-02-08 15:42:24.879005+01 | 1486564944.879 | pgbench_branches_pkey |            57344
 2017-02-08 15:42:24.879005+01 | 1486564944.879 | pgbench_tellers_pkey  |           253952
 2017-02-08 15:42:24.879005+01 | 1486564944.879 | pgbench_accounts_pkey |        112336896

 2017-02-08 15:42:25.928383+01 | 1486564945.92838 | pgbench_branches_pkey |            57344
 2017-02-08 15:42:25.928383+01 | 1486564945.92838 | pgbench_tellers_pkey  |           253952
 2017-02-08 15:42:25.928383+01 | 1486564945.92838 | pgbench_accounts_pkey |        112336896

 2017-02-08 15:42:26.982357+01 | 1486564946.98236 | pgbench_branches_pkey |            57344
 2017-02-08 15:42:26.982357+01 | 1486564946.98236 | pgbench_tellers_pkey  |           253952
 2017-02-08 15:42:26.982357+01 | 1486564946.98236 | pgbench_accounts_pkey |        112336896

 2017-02-08 15:42:28.033054+01 | 1486564948.03305 | pgbench_branches_pkey |            57344
 2017-02-08 15:42:28.033054+01 | 1486564948.03305 | pgbench_tellers_pkey  |           253952
 2017-02-08 15:42:28.033054+01 | 1486564948.03305 | pgbench_accounts_pkey |        112336896

 2017-02-08 15:42:29.084292+01 | 1486564949.08429 | pgbench_branches_pkey |            57344
 2017-02-08 15:42:29.084292+01 | 1486564949.08429 | pgbench_tellers_pkey  |           253952
 2017-02-08 15:42:29.084292+01 | 1486564949.08429 | pgbench_accounts_pkey |        112336896

 2017-02-08 15:42:30.133948+01 | 1486564950.13395 | pgbench_branches_pkey |            57344
 2017-02-08 15:42:30.133948+01 | 1486564950.13395 | pgbench_tellers_pkey  |           253952
 2017-02-08 15:42:30.133948+01 | 1486564950.13395 | pgbench_accounts_pkey |        112336896

 2017-02-08 15:42:31.186031+01 | 1486564951.18603 | pgbench_branches_pkey |            57344
 2017-02-08 15:42:31.186031+01 | 1486564951.18603 | pgbench_tellers_pkey  |           253952
 2017-02-08 15:42:31.186031+01 | 1486564951.18603 | pgbench_accounts_pkey |        112336896

 2017-02-08 15:42:32.238457+01 | 1486564952.23846 | pgbench_branches_pkey |            57344
 2017-02-08 15:42:32.238457+01 | 1486564952.23846 | pgbench_tellers_pkey  |           253952
 2017-02-08 15:42:32.238457+01 | 1486564952.23846 | pgbench_accounts_pkey |        112336896

 2017-02-08 15:42:33.289094+01 | 1486564953.28909 | pgbench_branches_pkey |            57344
 2017-02-08 15:42:33.289094+01 | 1486564953.28909 | pgbench_tellers_pkey  |           253952
 2017-02-08 15:42:33.289094+01 | 1486564953.28909 | pgbench_accounts_pkey |        112336896

 2017-02-08 15:42:34.341799+01 | 1486564954.3418 | pgbench_branches_pkey |            57344
 2017-02-08 15:42:34.341799+01 | 1486564954.3418 | pgbench_tellers_pkey  |           253952
 2017-02-08 15:42:34.341799+01 | 1486564954.3418 | pgbench_accounts_pkey |        112336896

 2017-02-08 15:42:35.394959+01 | 1486564955.39496 | pgbench_branches_pkey |            57344
 2017-02-08 15:42:35.394959+01 | 1486564955.39496 | pgbench_tellers_pkey  |           253952
 2017-02-08 15:42:35.394959+01 | 1486564955.39496 | pgbench_accounts_pkey |        112336896

 2017-02-08 15:42:36.44641+01 | 1486564956.44641 | pgbench_branches_pkey |            57344
 2017-02-08 15:42:36.44641+01 | 1486564956.44641 | pgbench_tellers_pkey  |           253952
 2017-02-08 15:42:36.44641+01 | 1486564956.44641 | pgbench_accounts_pkey |        112336896

 2017-02-08 15:42:37.498288+01 | 1486564957.49829 | pgbench_branches_pkey |            57344
 2017-02-08 15:42:37.498288+01 | 1486564957.49829 | pgbench_tellers_pkey  |           253952
 2017-02-08 15:42:37.498288+01 | 1486564957.49829 | pgbench_accounts_pkey |        112336896

 2017-02-08 15:42:38.549328+01 | 1486564958.54933 | pgbench_branches_pkey |            57344
 2017-02-08 15:42:38.549328+01 | 1486564958.54933 | pgbench_tellers_pkey  |           253952
 2017-02-08 15:42:38.549328+01 | 1486564958.54933 | pgbench_accounts_pkey |        112336896

 2017-02-08 15:42:39.600443+01 | 1486564959.60044 | pgbench_branches_pkey |            57344
 2017-02-08 15:42:39.600443+01 | 1486564959.60044 | pgbench_tellers_pkey  |           253952
 2017-02-08 15:42:39.600443+01 | 1486564959.60044 | pgbench_accounts_pkey |        112336896

 2017-02-08 15:42:40.653946+01 | 1486564960.65395 | pgbench_branches_pkey |            57344
 2017-02-08 15:42:40.653946+01 | 1486564960.65395 | pgbench_tellers_pkey  |           253952
 2017-02-08 15:42:40.653946+01 | 1486564960.65395 | pgbench_accounts_pkey |        112336896

 2017-02-08 15:42:41.707781+01 | 1486564961.70778 | pgbench_branches_pkey |            57344
 2017-02-08 15:42:41.707781+01 | 1486564961.70778 | pgbench_tellers_pkey  |           253952
 2017-02-08 15:42:41.707781+01 | 1486564961.70778 | pgbench_accounts_pkey |        112336896

 2017-02-08 15:42:42.758111+01 | 1486564962.75811 | pgbench_branches_pkey |            57344
 2017-02-08 15:42:42.758111+01 | 1486564962.75811 | pgbench_tellers_pkey  |           253952
 2017-02-08 15:42:42.758111+01 | 1486564962.75811 | pgbench_accounts_pkey |        112336896

 2017-02-08 15:42:43.8066+01 | 1486564963.8066 | pgbench_branches_pkey |            57344
 2017-02-08 15:42:43.8066+01 | 1486564963.8066 | pgbench_tellers_pkey  |           253952
 2017-02-08 15:42:43.8066+01 | 1486564963.8066 | pgbench_accounts_pkey |        112336896

 2017-02-08 15:42:44.84897+01 | 1486564964.84897 | pgbench_branches_pkey |            57344
 2017-02-08 15:42:44.84897+01 | 1486564964.84897 | pgbench_tellers_pkey  |           253952
 2017-02-08 15:42:44.84897+01 | 1486564964.84897 | pgbench_accounts_pkey |        112336896

 2017-02-08 15:42:45.902429+01 | 1486564965.90243 | pgbench_branches_pkey |            57344
 2017-02-08 15:42:45.902429+01 | 1486564965.90243 | pgbench_tellers_pkey  |           253952
 2017-02-08 15:42:45.902429+01 | 1486564965.90243 | pgbench_accounts_pkey |        112336896

 2017-02-08 15:42:46.96003+01 | 1486564966.96003 | pgbench_branches_pkey |            57344
 2017-02-08 15:42:46.96003+01 | 1486564966.96003 | pgbench_tellers_pkey  |           253952
 2017-02-08 15:42:46.96003+01 | 1486564966.96003 | pgbench_accounts_pkey |        112336896

 2017-02-08 15:42:48.015397+01 | 1486564968.0154 | pgbench_branches_pkey |            57344
 2017-02-08 15:42:48.015397+01 | 1486564968.0154 | pgbench_tellers_pkey  |           253952
 2017-02-08 15:42:48.015397+01 | 1486564968.0154 | pgbench_accounts_pkey |        112336896

 2017-02-08 15:42:49.07021+01 | 1486564969.07021 | pgbench_branches_pkey |            57344
 2017-02-08 15:42:49.07021+01 | 1486564969.07021 | pgbench_tellers_pkey  |           253952
 2017-02-08 15:42:49.07021+01 | 1486564969.07021 | pgbench_accounts_pkey |        112336896

 2017-02-08 15:42:50.126227+01 | 1486564970.12623 | pgbench_branches_pkey |            57344
 2017-02-08 15:42:50.126227+01 | 1486564970.12623 | pgbench_tellers_pkey  |           253952
 2017-02-08 15:42:50.126227+01 | 1486564970.12623 | pgbench_accounts_pkey |        112336896

 2017-02-08 15:42:51.182012+01 | 1486564971.18201 | pgbench_branches_pkey |            57344
 2017-02-08 15:42:51.182012+01 | 1486564971.18201 | pgbench_tellers_pkey  |           253952
 2017-02-08 15:42:51.182012+01 | 1486564971.18201 | pgbench_accounts_pkey |        112336896

 2017-02-08 15:42:52.23566+01 | 1486564972.23566 | pgbench_branches_pkey |            57344
 2017-02-08 15:42:52.23566+01 | 1486564972.23566 | pgbench_tellers_pkey  |           253952
 2017-02-08 15:42:52.23566+01 | 1486564972.23566 | pgbench_accounts_pkey |        112336896

 2017-02-08 15:42:53.289619+01 | 1486564973.28962 | pgbench_branches_pkey |            57344
 2017-02-08 15:42:53.289619+01 | 1486564973.28962 | pgbench_tellers_pkey  |           253952
 2017-02-08 15:42:53.289619+01 | 1486564973.28962 | pgbench_accounts_pkey |        112336896

 2017-02-08 15:42:54.341872+01 | 1486564974.34187 | pgbench_branches_pkey |            57344
 2017-02-08 15:42:54.341872+01 | 1486564974.34187 | pgbench_tellers_pkey  |           253952
 2017-02-08 15:42:54.341872+01 | 1486564974.34187 | pgbench_accounts_pkey |        112336896

 2017-02-08 15:42:55.394792+01 | 1486564975.39479 | pgbench_branches_pkey |            57344
 2017-02-08 15:42:55.394792+01 | 1486564975.39479 | pgbench_tellers_pkey  |           253952
 2017-02-08 15:42:55.394792+01 | 1486564975.39479 | pgbench_accounts_pkey |        112336896

 2017-02-08 15:42:56.44978+01 | 1486564976.44978 | pgbench_branches_pkey |            57344
 2017-02-08 15:42:56.44978+01 | 1486564976.44978 | pgbench_tellers_pkey  |           253952
 2017-02-08 15:42:56.44978+01 | 1486564976.44978 | pgbench_accounts_pkey |        112336896

 2017-02-08 15:42:57.503894+01 | 1486564977.50389 | pgbench_branches_pkey |            57344
 2017-02-08 15:42:57.503894+01 | 1486564977.50389 | pgbench_tellers_pkey  |           253952
 2017-02-08 15:42:57.503894+01 | 1486564977.50389 | pgbench_accounts_pkey |        112336896

 2017-02-08 15:42:58.557724+01 | 1486564978.55772 | pgbench_branches_pkey |            57344
 2017-02-08 15:42:58.557724+01 | 1486564978.55772 | pgbench_tellers_pkey  |           253952
 2017-02-08 15:42:58.557724+01 | 1486564978.55772 | pgbench_accounts_pkey |        112336896

 2017-02-08 15:42:59.609749+01 | 1486564979.60975 | pgbench_branches_pkey |            57344
 2017-02-08 15:42:59.609749+01 | 1486564979.60975 | pgbench_tellers_pkey  |           253952
 2017-02-08 15:42:59.609749+01 | 1486564979.60975 | pgbench_accounts_pkey |        112336896

 2017-02-08 15:43:00.658784+01 | 1486564980.65878 | pgbench_branches_pkey |            57344
 2017-02-08 15:43:00.658784+01 | 1486564980.65878 | pgbench_tellers_pkey  |           253952
 2017-02-08 15:43:00.658784+01 | 1486564980.65878 | pgbench_accounts_pkey |        112336896

 2017-02-08 15:43:01.712296+01 | 1486564981.7123 | pgbench_branches_pkey |            57344
 2017-02-08 15:43:01.712296+01 | 1486564981.7123 | pgbench_tellers_pkey  |           253952
 2017-02-08 15:43:01.712296+01 | 1486564981.7123 | pgbench_accounts_pkey |        112336896

 2017-02-08 15:43:02.767882+01 | 1486564982.76788 | pgbench_branches_pkey |            57344
 2017-02-08 15:43:02.767882+01 | 1486564982.76788 | pgbench_tellers_pkey  |           253952
 2017-02-08 15:43:02.767882+01 | 1486564982.76788 | pgbench_accounts_pkey |        112336896

 2017-02-08 15:43:03.820325+01 | 1486564983.82032 | pgbench_branches_pkey |            57344
 2017-02-08 15:43:03.820325+01 | 1486564983.82032 | pgbench_tellers_pkey  |           253952
 2017-02-08 15:43:03.820325+01 | 1486564983.82032 | pgbench_accounts_pkey |        112336896

 2017-02-08 15:43:04.876804+01 | 1486564984.8768 | pgbench_branches_pkey |            57344
 2017-02-08 15:43:04.876804+01 | 1486564984.8768 | pgbench_tellers_pkey  |           253952
 2017-02-08 15:43:04.876804+01 | 1486564984.8768 | pgbench_accounts_pkey |        112336896

 2017-02-08 15:43:05.932723+01 | 1486564985.93272 | pgbench_branches_pkey |            57344
 2017-02-08 15:43:05.932723+01 | 1486564985.93272 | pgbench_tellers_pkey  |           253952
 2017-02-08 15:43:05.932723+01 | 1486564985.93272 | pgbench_accounts_pkey |        112336896

 2017-02-08 15:43:06.989867+01 | 1486564986.98987 | pgbench_branches_pkey |            57344
 2017-02-08 15:43:06.989867+01 | 1486564986.98987 | pgbench_tellers_pkey  |           253952
 2017-02-08 15:43:06.989867+01 | 1486564986.98987 | pgbench_accounts_pkey |        112336896

 2017-02-08 15:43:08.042421+01 | 1486564988.04242 | pgbench_branches_pkey |            57344
 2017-02-08 15:43:08.042421+01 | 1486564988.04242 | pgbench_tellers_pkey  |           253952
 2017-02-08 15:43:08.042421+01 | 1486564988.04242 | pgbench_accounts_pkey |        112336896

 2017-02-08 15:43:09.094895+01 | 1486564989.09489 | pgbench_branches_pkey |            57344
 2017-02-08 15:43:09.094895+01 | 1486564989.09489 | pgbench_tellers_pkey  |           253952
 2017-02-08 15:43:09.094895+01 | 1486564989.09489 | pgbench_accounts_pkey |        112336896

 2017-02-08 15:43:10.148849+01 | 1486564990.14885 | pgbench_branches_pkey |            57344
 2017-02-08 15:43:10.148849+01 | 1486564990.14885 | pgbench_tellers_pkey  |           253952
 2017-02-08 15:43:10.148849+01 | 1486564990.14885 | pgbench_accounts_pkey |        112336896

 2017-02-08 15:43:11.202111+01 | 1486564991.20211 | pgbench_branches_pkey |            57344
 2017-02-08 15:43:11.202111+01 | 1486564991.20211 | pgbench_tellers_pkey  |           253952
 2017-02-08 15:43:11.202111+01 | 1486564991.20211 | pgbench_accounts_pkey |        112336896

 2017-02-08 15:43:12.257144+01 | 1486564992.25714 | pgbench_branches_pkey |            57344
 2017-02-08 15:43:12.257144+01 | 1486564992.25714 | pgbench_tellers_pkey  |           253952
 2017-02-08 15:43:12.257144+01 | 1486564992.25714 | pgbench_accounts_pkey |        112336896

 2017-02-08 15:43:13.306601+01 | 1486564993.3066 | pgbench_branches_pkey |            57344
 2017-02-08 15:43:13.306601+01 | 1486564993.3066 | pgbench_tellers_pkey  |           253952
 2017-02-08 15:43:13.306601+01 | 1486564993.3066 | pgbench_accounts_pkey |        112336896

 2017-02-08 15:43:14.358132+01 | 1486564994.35813 | pgbench_branches_pkey |            57344
 2017-02-08 15:43:14.358132+01 | 1486564994.35813 | pgbench_tellers_pkey  |           253952
 2017-02-08 15:43:14.358132+01 | 1486564994.35813 | pgbench_accounts_pkey |        112336896

 2017-02-08 15:43:15.412533+01 | 1486564995.41253 | pgbench_branches_pkey |            57344
 2017-02-08 15:43:15.412533+01 | 1486564995.41253 | pgbench_tellers_pkey  |           253952
 2017-02-08 15:43:15.412533+01 | 1486564995.41253 | pgbench_accounts_pkey |        112336896

 2017-02-08 15:43:16.463076+01 | 1486564996.46308 | pgbench_branches_pkey |            57344
 2017-02-08 15:43:16.463076+01 | 1486564996.46308 | pgbench_tellers_pkey  |           253952
 2017-02-08 15:43:16.463076+01 | 1486564996.46308 | pgbench_accounts_pkey |        112336896

 2017-02-08 15:43:17.515198+01 | 1486564997.5152 | pgbench_branches_pkey |            57344
 2017-02-08 15:43:17.515198+01 | 1486564997.5152 | pgbench_tellers_pkey  |           253952
 2017-02-08 15:43:17.515198+01 | 1486564997.5152 | pgbench_accounts_pkey |        112336896

 2017-02-08 15:43:18.566155+01 | 1486564998.56615 | pgbench_branches_pkey |            57344
 2017-02-08 15:43:18.566155+01 | 1486564998.56615 | pgbench_tellers_pkey  |           253952
 2017-02-08 15:43:18.566155+01 | 1486564998.56615 | pgbench_accounts_pkey |        112336896

 2017-02-08 15:43:19.620415+01 | 1486564999.62041 | pgbench_branches_pkey |            57344
 2017-02-08 15:43:19.620415+01 | 1486564999.62041 | pgbench_tellers_pkey  |           253952
 2017-02-08 15:43:19.620415+01 | 1486564999.62041 | pgbench_accounts_pkey |        112336896

 2017-02-08 15:43:20.670344+01 | 1486565000.67034 | pgbench_branches_pkey |            57344
 2017-02-08 15:43:20.670344+01 | 1486565000.67034 | pgbench_tellers_pkey  |           253952
 2017-02-08 15:43:20.670344+01 | 1486565000.67034 | pgbench_accounts_pkey |        112336896

 2017-02-08 15:43:21.721574+01 | 1486565001.72157 | pgbench_branches_pkey |            57344
 2017-02-08 15:43:21.721574+01 | 1486565001.72157 | pgbench_tellers_pkey  |           253952
 2017-02-08 15:43:21.721574+01 | 1486565001.72157 | pgbench_accounts_pkey |        112336896

 2017-02-08 15:43:22.773523+01 | 1486565002.77352 | pgbench_branches_pkey |            57344
 2017-02-08 15:43:22.773523+01 | 1486565002.77352 | pgbench_tellers_pkey  |           253952
 2017-02-08 15:43:22.773523+01 | 1486565002.77352 | pgbench_accounts_pkey |        112336896

 2017-02-08 15:43:23.829393+01 | 1486565003.82939 | pgbench_branches_pkey |            57344
 2017-02-08 15:43:23.829393+01 | 1486565003.82939 | pgbench_tellers_pkey  |           253952
 2017-02-08 15:43:23.829393+01 | 1486565003.82939 | pgbench_accounts_pkey |        112336896

 2017-02-08 15:43:24.884766+01 | 1486565004.88477 | pgbench_branches_pkey |            57344
 2017-02-08 15:43:24.884766+01 | 1486565004.88477 | pgbench_tellers_pkey  |           253952
 2017-02-08 15:43:24.884766+01 | 1486565004.88477 | pgbench_accounts_pkey |        112336896

 2017-02-08 15:43:25.938991+01 | 1486565005.93899 | pgbench_branches_pkey |            57344
 2017-02-08 15:43:25.938991+01 | 1486565005.93899 | pgbench_tellers_pkey  |           253952
 2017-02-08 15:43:25.938991+01 | 1486565005.93899 | pgbench_accounts_pkey |        112336896

 2017-02-08 15:43:26.990283+01 | 1486565006.99028 | pgbench_branches_pkey |            57344
 2017-02-08 15:43:26.990283+01 | 1486565006.99028 | pgbench_tellers_pkey  |           253952
 2017-02-08 15:43:26.990283+01 | 1486565006.99028 | pgbench_accounts_pkey |        112336896

 2017-02-08 15:43:28.041909+01 | 1486565008.04191 | pgbench_branches_pkey |            57344
 2017-02-08 15:43:28.041909+01 | 1486565008.04191 | pgbench_tellers_pkey  |           253952
 2017-02-08 15:43:28.041909+01 | 1486565008.04191 | pgbench_accounts_pkey |        112336896

 2017-02-08 15:43:29.091272+01 | 1486565009.09127 | pgbench_branches_pkey |            57344
 2017-02-08 15:43:29.091272+01 | 1486565009.09127 | pgbench_tellers_pkey  |           253952
 2017-02-08 15:43:29.091272+01 | 1486565009.09127 | pgbench_accounts_pkey |        112336896

 2017-02-08 15:43:30.14353+01 | 1486565010.14353 | pgbench_branches_pkey |            57344
 2017-02-08 15:43:30.14353+01 | 1486565010.14353 | pgbench_tellers_pkey  |           253952
 2017-02-08 15:43:30.14353+01 | 1486565010.14353 | pgbench_accounts_pkey |        112336896

 2017-02-08 15:43:31.193295+01 | 1486565011.1933 | pgbench_branches_pkey |            57344
 2017-02-08 15:43:31.193295+01 | 1486565011.1933 | pgbench_tellers_pkey  |           253952
 2017-02-08 15:43:31.193295+01 | 1486565011.1933 | pgbench_accounts_pkey |        112336896

 2017-02-08 15:43:32.243495+01 | 1486565012.24349 | pgbench_branches_pkey |            57344
 2017-02-08 15:43:32.243495+01 | 1486565012.24349 | pgbench_tellers_pkey  |           253952
 2017-02-08 15:43:32.243495+01 | 1486565012.24349 | pgbench_accounts_pkey |        112336896

 2017-02-08 15:43:33.295028+01 | 1486565013.29503 | pgbench_branches_pkey |            57344
 2017-02-08 15:43:33.295028+01 | 1486565013.29503 | pgbench_tellers_pkey  |           253952
 2017-02-08 15:43:33.295028+01 | 1486565013.29503 | pgbench_accounts_pkey |        112336896

 2017-02-08 15:43:34.343861+01 | 1486565014.34386 | pgbench_branches_pkey |            57344
 2017-02-08 15:43:34.343861+01 | 1486565014.34386 | pgbench_tellers_pkey  |           253952
 2017-02-08 15:43:34.343861+01 | 1486565014.34386 | pgbench_accounts_pkey |        112336896

 2017-02-08 15:43:35.397458+01 | 1486565015.39746 | pgbench_branches_pkey |            57344
 2017-02-08 15:43:35.397458+01 | 1486565015.39746 | pgbench_tellers_pkey  |           253952
 2017-02-08 15:43:35.397458+01 | 1486565015.39746 | pgbench_accounts_pkey |        112336896

 2017-02-08 15:43:36.450625+01 | 1486565016.45062 | pgbench_branches_pkey |            57344
 2017-02-08 15:43:36.450625+01 | 1486565016.45062 | pgbench_tellers_pkey  |           253952
 2017-02-08 15:43:36.450625+01 | 1486565016.45062 | pgbench_accounts_pkey |        112336896

 2017-02-08 15:43:37.503848+01 | 1486565017.50385 | pgbench_branches_pkey |            57344
 2017-02-08 15:43:37.503848+01 | 1486565017.50385 | pgbench_tellers_pkey  |           253952
 2017-02-08 15:43:37.503848+01 | 1486565017.50385 | pgbench_accounts_pkey |        112336896

 2017-02-08 15:43:38.559485+01 | 1486565018.55948 | pgbench_branches_pkey |            57344
 2017-02-08 15:43:38.559485+01 | 1486565018.55948 | pgbench_tellers_pkey  |           253952
 2017-02-08 15:43:38.559485+01 | 1486565018.55948 | pgbench_accounts_pkey |        112336896

 2017-02-08 15:43:39.611152+01 | 1486565019.61115 | pgbench_branches_pkey |            57344
 2017-02-08 15:43:39.611152+01 | 1486565019.61115 | pgbench_tellers_pkey  |           253952
 2017-02-08 15:43:39.611152+01 | 1486565019.61115 | pgbench_accounts_pkey |        112336896

 2017-02-08 15:43:40.667149+01 | 1486565020.66715 | pgbench_branches_pkey |            57344
 2017-02-08 15:43:40.667149+01 | 1486565020.66715 | pgbench_tellers_pkey  |           253952
 2017-02-08 15:43:40.667149+01 | 1486565020.66715 | pgbench_accounts_pkey |        112336896

 2017-02-08 15:43:41.715111+01 | 1486565021.71511 | pgbench_branches_pkey |            57344
 2017-02-08 15:43:41.715111+01 | 1486565021.71511 | pgbench_tellers_pkey  |           253952
 2017-02-08 15:43:41.715111+01 | 1486565021.71511 | pgbench_accounts_pkey |        112336896

 2017-02-08 15:43:42.765608+01 | 1486565022.76561 | pgbench_branches_pkey |            57344
 2017-02-08 15:43:42.765608+01 | 1486565022.76561 | pgbench_tellers_pkey  |           253952
 2017-02-08 15:43:42.765608+01 | 1486565022.76561 | pgbench_accounts_pkey |        112336896

 2017-02-08 15:43:43.817194+01 | 1486565023.81719 | pgbench_branches_pkey |            57344
 2017-02-08 15:43:43.817194+01 | 1486565023.81719 | pgbench_tellers_pkey  |           253952
 2017-02-08 15:43:43.817194+01 | 1486565023.81719 | pgbench_accounts_pkey |        112336896

 2017-02-08 15:43:44.864504+01 | 1486565024.8645 | pgbench_branches_pkey |            57344
 2017-02-08 15:43:44.864504+01 | 1486565024.8645 | pgbench_tellers_pkey  |           253952
 2017-02-08 15:43:44.864504+01 | 1486565024.8645 | pgbench_accounts_pkey |        112336896

 2017-02-08 15:43:45.919787+01 | 1486565025.91979 | pgbench_branches_pkey |            57344
 2017-02-08 15:43:45.919787+01 | 1486565025.91979 | pgbench_tellers_pkey  |           253952
 2017-02-08 15:43:45.919787+01 | 1486565025.91979 | pgbench_accounts_pkey |        112336896

 2017-02-08 15:43:46.970103+01 | 1486565026.9701 | pgbench_branches_pkey |            57344
 2017-02-08 15:43:46.970103+01 | 1486565026.9701 | pgbench_tellers_pkey  |           253952
 2017-02-08 15:43:46.970103+01 | 1486565026.9701 | pgbench_accounts_pkey |        112336896

 2017-02-08 15:43:48.022766+01 | 1486565028.02277 | pgbench_branches_pkey |            57344
 2017-02-08 15:43:48.022766+01 | 1486565028.02277 | pgbench_tellers_pkey  |           253952
 2017-02-08 15:43:48.022766+01 | 1486565028.02277 | pgbench_accounts_pkey |        112336896

 2017-02-08 15:43:49.073057+01 | 1486565029.07306 | pgbench_branches_pkey |            57344
 2017-02-08 15:43:49.073057+01 | 1486565029.07306 | pgbench_tellers_pkey  |           253952
 2017-02-08 15:43:49.073057+01 | 1486565029.07306 | pgbench_accounts_pkey |        112336896

 2017-02-08 15:43:50.127106+01 | 1486565030.12711 | pgbench_branches_pkey |            57344
 2017-02-08 15:43:50.127106+01 | 1486565030.12711 | pgbench_tellers_pkey  |           253952
 2017-02-08 15:43:50.127106+01 | 1486565030.12711 | pgbench_accounts_pkey |        112336896

 2017-02-08 15:43:51.177891+01 | 1486565031.17789 | pgbench_branches_pkey |            57344
 2017-02-08 15:43:51.177891+01 | 1486565031.17789 | pgbench_tellers_pkey  |           253952
 2017-02-08 15:43:51.177891+01 | 1486565031.17789 | pgbench_accounts_pkey |        112336896

 2017-02-08 15:43:52.229276+01 | 1486565032.22928 | pgbench_branches_pkey |            57344
 2017-02-08 15:43:52.229276+01 | 1486565032.22928 | pgbench_tellers_pkey  |           253952
 2017-02-08 15:43:52.229276+01 | 1486565032.22928 | pgbench_accounts_pkey |        112336896

 2017-02-08 15:43:53.281535+01 | 1486565033.28153 | pgbench_branches_pkey |            57344
 2017-02-08 15:43:53.281535+01 | 1486565033.28153 | pgbench_tellers_pkey  |           253952
 2017-02-08 15:43:53.281535+01 | 1486565033.28153 | pgbench_accounts_pkey |        112336896

 2017-02-08 15:43:54.334309+01 | 1486565034.33431 | pgbench_branches_pkey |            57344
 2017-02-08 15:43:54.334309+01 | 1486565034.33431 | pgbench_tellers_pkey  |           253952
 2017-02-08 15:43:54.334309+01 | 1486565034.33431 | pgbench_accounts_pkey |        112336896

 2017-02-08 15:43:55.382134+01 | 1486565035.38213 | pgbench_branches_pkey |            57344
 2017-02-08 15:43:55.382134+01 | 1486565035.38213 | pgbench_tellers_pkey  |           253952
 2017-02-08 15:43:55.382134+01 | 1486565035.38213 | pgbench_accounts_pkey |        112336896

 2017-02-08 15:43:56.437327+01 | 1486565036.43733 | pgbench_branches_pkey |            57344
 2017-02-08 15:43:56.437327+01 | 1486565036.43733 | pgbench_tellers_pkey  |           253952
 2017-02-08 15:43:56.437327+01 | 1486565036.43733 | pgbench_accounts_pkey |        112336896

 2017-02-08 15:43:57.489758+01 | 1486565037.48976 | pgbench_branches_pkey |            57344
 2017-02-08 15:43:57.489758+01 | 1486565037.48976 | pgbench_tellers_pkey  |           253952
 2017-02-08 15:43:57.489758+01 | 1486565037.48976 | pgbench_accounts_pkey |        112336896

 2017-02-08 15:43:58.540409+01 | 1486565038.54041 | pgbench_branches_pkey |            57344
 2017-02-08 15:43:58.540409+01 | 1486565038.54041 | pgbench_tellers_pkey  |           253952
 2017-02-08 15:43:58.540409+01 | 1486565038.54041 | pgbench_accounts_pkey |        112336896

 2017-02-08 15:43:59.590814+01 | 1486565039.59081 | pgbench_branches_pkey |            57344
 2017-02-08 15:43:59.590814+01 | 1486565039.59081 | pgbench_tellers_pkey  |           253952
 2017-02-08 15:43:59.590814+01 | 1486565039.59081 | pgbench_accounts_pkey |        112336896

 2017-02-08 15:44:00.643595+01 | 1486565040.64359 | pgbench_branches_pkey |            57344
 2017-02-08 15:44:00.643595+01 | 1486565040.64359 | pgbench_tellers_pkey  |           253952
 2017-02-08 15:44:00.643595+01 | 1486565040.64359 | pgbench_accounts_pkey |        112336896

 2017-02-08 15:44:01.69672+01 | 1486565041.69672 | pgbench_branches_pkey |            57344
 2017-02-08 15:44:01.69672+01 | 1486565041.69672 | pgbench_tellers_pkey  |           253952
 2017-02-08 15:44:01.69672+01 | 1486565041.69672 | pgbench_accounts_pkey |        112336896

 2017-02-08 15:44:02.750891+01 | 1486565042.75089 | pgbench_branches_pkey |            57344
 2017-02-08 15:44:02.750891+01 | 1486565042.75089 | pgbench_tellers_pkey  |           253952
 2017-02-08 15:44:02.750891+01 | 1486565042.75089 | pgbench_accounts_pkey |        112336896

 2017-02-08 15:44:03.804346+01 | 1486565043.80435 | pgbench_branches_pkey |            57344
 2017-02-08 15:44:03.804346+01 | 1486565043.80435 | pgbench_tellers_pkey  |           253952
 2017-02-08 15:44:03.804346+01 | 1486565043.80435 | pgbench_accounts_pkey |        112336896

 2017-02-08 15:44:04.854164+01 | 1486565044.85416 | pgbench_branches_pkey |            57344
 2017-02-08 15:44:04.854164+01 | 1486565044.85416 | pgbench_tellers_pkey  |           253952
 2017-02-08 15:44:04.854164+01 | 1486565044.85416 | pgbench_accounts_pkey |        112336896

 2017-02-08 15:44:05.906698+01 | 1486565045.9067 | pgbench_branches_pkey |            57344
 2017-02-08 15:44:05.906698+01 | 1486565045.9067 | pgbench_tellers_pkey  |           253952
 2017-02-08 15:44:05.906698+01 | 1486565045.9067 | pgbench_accounts_pkey |        112336896

 2017-02-08 15:44:06.960549+01 | 1486565046.96055 | pgbench_branches_pkey |            57344
 2017-02-08 15:44:06.960549+01 | 1486565046.96055 | pgbench_tellers_pkey  |           253952
 2017-02-08 15:44:06.960549+01 | 1486565046.96055 | pgbench_accounts_pkey |        112336896

 2017-02-08 15:44:08.010012+01 | 1486565048.01001 | pgbench_branches_pkey |            57344
 2017-02-08 15:44:08.010012+01 | 1486565048.01001 | pgbench_tellers_pkey  |           253952
 2017-02-08 15:44:08.010012+01 | 1486565048.01001 | pgbench_accounts_pkey |        112336896

 2017-02-08 15:44:09.059778+01 | 1486565049.05978 | pgbench_branches_pkey |            57344
 2017-02-08 15:44:09.059778+01 | 1486565049.05978 | pgbench_tellers_pkey  |           253952
 2017-02-08 15:44:09.059778+01 | 1486565049.05978 | pgbench_accounts_pkey |        112336896

 2017-02-08 15:44:10.108117+01 | 1486565050.10812 | pgbench_branches_pkey |            57344
 2017-02-08 15:44:10.108117+01 | 1486565050.10812 | pgbench_tellers_pkey  |           253952
 2017-02-08 15:44:10.108117+01 | 1486565050.10812 | pgbench_accounts_pkey |        112336896

 2017-02-08 15:44:11.157902+01 | 1486565051.1579 | pgbench_branches_pkey |            57344
 2017-02-08 15:44:11.157902+01 | 1486565051.1579 | pgbench_tellers_pkey  |           253952
 2017-02-08 15:44:11.157902+01 | 1486565051.1579 | pgbench_accounts_pkey |        112336896

 2017-02-08 15:44:12.207656+01 | 1486565052.20766 | pgbench_branches_pkey |            57344
 2017-02-08 15:44:12.207656+01 | 1486565052.20766 | pgbench_tellers_pkey  |           253952
 2017-02-08 15:44:12.207656+01 | 1486565052.20766 | pgbench_accounts_pkey |        112336896

 2017-02-08 15:44:13.259107+01 | 1486565053.25911 | pgbench_branches_pkey |            57344
 2017-02-08 15:44:13.259107+01 | 1486565053.25911 | pgbench_tellers_pkey  |           253952
 2017-02-08 15:44:13.259107+01 | 1486565053.25911 | pgbench_accounts_pkey |        112336896

 2017-02-08 15:44:14.308561+01 | 1486565054.30856 | pgbench_branches_pkey |            57344
 2017-02-08 15:44:14.308561+01 | 1486565054.30856 | pgbench_tellers_pkey  |           253952
 2017-02-08 15:44:14.308561+01 | 1486565054.30856 | pgbench_accounts_pkey |        112336896

 2017-02-08 15:44:15.360453+01 | 1486565055.36045 | pgbench_branches_pkey |            57344
 2017-02-08 15:44:15.360453+01 | 1486565055.36045 | pgbench_tellers_pkey  |           253952
 2017-02-08 15:44:15.360453+01 | 1486565055.36045 | pgbench_accounts_pkey |        112336896

 2017-02-08 15:44:16.416097+01 | 1486565056.4161 | pgbench_branches_pkey |            57344
 2017-02-08 15:44:16.416097+01 | 1486565056.4161 | pgbench_tellers_pkey  |           253952
 2017-02-08 15:44:16.416097+01 | 1486565056.4161 | pgbench_accounts_pkey |        112336896

 2017-02-08 15:44:17.468258+01 | 1486565057.46826 | pgbench_branches_pkey |            57344
 2017-02-08 15:44:17.468258+01 | 1486565057.46826 | pgbench_tellers_pkey  |           253952
 2017-02-08 15:44:17.468258+01 | 1486565057.46826 | pgbench_accounts_pkey |        112336896

 2017-02-08 15:44:18.51951+01 | 1486565058.51951 | pgbench_branches_pkey |            57344
 2017-02-08 15:44:18.51951+01 | 1486565058.51951 | pgbench_tellers_pkey  |           253952
 2017-02-08 15:44:18.51951+01 | 1486565058.51951 | pgbench_accounts_pkey |        112336896

 2017-02-08 15:44:19.572519+01 | 1486565059.57252 | pgbench_branches_pkey |            57344
 2017-02-08 15:44:19.572519+01 | 1486565059.57252 | pgbench_tellers_pkey  |           253952
 2017-02-08 15:44:19.572519+01 | 1486565059.57252 | pgbench_accounts_pkey |        112336896

 2017-02-08 15:44:20.626827+01 | 1486565060.62683 | pgbench_branches_pkey |            57344
 2017-02-08 15:44:20.626827+01 | 1486565060.62683 | pgbench_tellers_pkey  |           253952
 2017-02-08 15:44:20.626827+01 | 1486565060.62683 | pgbench_accounts_pkey |        112336896

 2017-02-08 15:44:21.682056+01 | 1486565061.68206 | pgbench_branches_pkey |            57344
 2017-02-08 15:44:21.682056+01 | 1486565061.68206 | pgbench_tellers_pkey  |           253952
 2017-02-08 15:44:21.682056+01 | 1486565061.68206 | pgbench_accounts_pkey |        112336896

 2017-02-08 15:44:22.73687+01 | 1486565062.73687 | pgbench_branches_pkey |            57344
 2017-02-08 15:44:22.73687+01 | 1486565062.73687 | pgbench_tellers_pkey  |           253952
 2017-02-08 15:44:22.73687+01 | 1486565062.73687 | pgbench_accounts_pkey |        112336896

 2017-02-08 15:44:23.78895+01 | 1486565063.78895 | pgbench_branches_pkey |            57344
 2017-02-08 15:44:23.78895+01 | 1486565063.78895 | pgbench_tellers_pkey  |           253952
 2017-02-08 15:44:23.78895+01 | 1486565063.78895 | pgbench_accounts_pkey |        112336896

 2017-02-08 15:44:24.843767+01 | 1486565064.84377 | pgbench_branches_pkey |            57344
 2017-02-08 15:44:24.843767+01 | 1486565064.84377 | pgbench_tellers_pkey  |           253952
 2017-02-08 15:44:24.843767+01 | 1486565064.84377 | pgbench_accounts_pkey |        112336896

 2017-02-08 15:44:25.895618+01 | 1486565065.89562 | pgbench_branches_pkey |            57344
 2017-02-08 15:44:25.895618+01 | 1486565065.89562 | pgbench_tellers_pkey  |           253952
 2017-02-08 15:44:25.895618+01 | 1486565065.89562 | pgbench_accounts_pkey |        112336896

 2017-02-08 15:44:26.946116+01 | 1486565066.94612 | pgbench_branches_pkey |            57344
 2017-02-08 15:44:26.946116+01 | 1486565066.94612 | pgbench_tellers_pkey  |           253952
 2017-02-08 15:44:26.946116+01 | 1486565066.94612 | pgbench_accounts_pkey |        112336896

 2017-02-08 15:44:27.998723+01 | 1486565067.99872 | pgbench_branches_pkey |            57344
 2017-02-08 15:44:27.998723+01 | 1486565067.99872 | pgbench_tellers_pkey  |           253952
 2017-02-08 15:44:27.998723+01 | 1486565067.99872 | pgbench_accounts_pkey |        112336896

 2017-02-08 15:44:29.052625+01 | 1486565069.05262 | pgbench_branches_pkey |            57344
 2017-02-08 15:44:29.052625+01 | 1486565069.05262 | pgbench_tellers_pkey  |           253952
 2017-02-08 15:44:29.052625+01 | 1486565069.05262 | pgbench_accounts_pkey |        112336896

 2017-02-08 15:44:30.106365+01 | 1486565070.10636 | pgbench_branches_pkey |            57344
 2017-02-08 15:44:30.106365+01 | 1486565070.10636 | pgbench_tellers_pkey  |           253952
 2017-02-08 15:44:30.106365+01 | 1486565070.10636 | pgbench_accounts_pkey |        112336896

 2017-02-08 15:44:31.158338+01 | 1486565071.15834 | pgbench_branches_pkey |            57344
 2017-02-08 15:44:31.158338+01 | 1486565071.15834 | pgbench_tellers_pkey  |           253952
 2017-02-08 15:44:31.158338+01 | 1486565071.15834 | pgbench_accounts_pkey |        112336896

 2017-02-08 15:44:32.212991+01 | 1486565072.21299 | pgbench_branches_pkey |            57344
 2017-02-08 15:44:32.212991+01 | 1486565072.21299 | pgbench_tellers_pkey  |           253952
 2017-02-08 15:44:32.212991+01 | 1486565072.21299 | pgbench_accounts_pkey |        112336896

 2017-02-08 15:44:33.268867+01 | 1486565073.26887 | pgbench_branches_pkey |            57344
 2017-02-08 15:44:33.268867+01 | 1486565073.26887 | pgbench_tellers_pkey  |           253952
 2017-02-08 15:44:33.268867+01 | 1486565073.26887 | pgbench_accounts_pkey |        112336896

 2017-02-08 15:44:34.322215+01 | 1486565074.32222 | pgbench_branches_pkey |            57344
 2017-02-08 15:44:34.322215+01 | 1486565074.32222 | pgbench_tellers_pkey  |           253952
 2017-02-08 15:44:34.322215+01 | 1486565074.32222 | pgbench_accounts_pkey |        112336896

 2017-02-08 15:44:35.380219+01 | 1486565075.38022 | pgbench_branches_pkey |            57344
 2017-02-08 15:44:35.380219+01 | 1486565075.38022 | pgbench_tellers_pkey  |           253952
 2017-02-08 15:44:35.380219+01 | 1486565075.38022 | pgbench_accounts_pkey |        112336896

 2017-02-08 15:44:36.429444+01 | 1486565076.42944 | pgbench_branches_pkey |            57344
 2017-02-08 15:44:36.429444+01 | 1486565076.42944 | pgbench_tellers_pkey  |           253952
 2017-02-08 15:44:36.429444+01 | 1486565076.42944 | pgbench_accounts_pkey |        112336896

 2017-02-08 15:44:37.481264+01 | 1486565077.48126 | pgbench_branches_pkey |            57344
 2017-02-08 15:44:37.481264+01 | 1486565077.48126 | pgbench_tellers_pkey  |           253952
 2017-02-08 15:44:37.481264+01 | 1486565077.48126 | pgbench_accounts_pkey |        112336896

 2017-02-08 15:44:38.529165+01 | 1486565078.52917 | pgbench_branches_pkey |            57344
 2017-02-08 15:44:38.529165+01 | 1486565078.52917 | pgbench_tellers_pkey  |           253952
 2017-02-08 15:44:38.529165+01 | 1486565078.52917 | pgbench_accounts_pkey |        112336896

 2017-02-08 15:44:39.58274+01 | 1486565079.58274 | pgbench_branches_pkey |            57344
 2017-02-08 15:44:39.58274+01 | 1486565079.58274 | pgbench_tellers_pkey  |           253952
 2017-02-08 15:44:39.58274+01 | 1486565079.58274 | pgbench_accounts_pkey |        112336896

 2017-02-08 15:44:40.631701+01 | 1486565080.6317 | pgbench_branches_pkey |            57344
 2017-02-08 15:44:40.631701+01 | 1486565080.6317 | pgbench_tellers_pkey  |           253952
 2017-02-08 15:44:40.631701+01 | 1486565080.6317 | pgbench_accounts_pkey |        112336896

 2017-02-08 15:44:41.680559+01 | 1486565081.68056 | pgbench_branches_pkey |            57344
 2017-02-08 15:44:41.680559+01 | 1486565081.68056 | pgbench_tellers_pkey  |           253952
 2017-02-08 15:44:41.680559+01 | 1486565081.68056 | pgbench_accounts_pkey |        112336896

 2017-02-08 15:44:42.732469+01 | 1486565082.73247 | pgbench_branches_pkey |            57344
 2017-02-08 15:44:42.732469+01 | 1486565082.73247 | pgbench_tellers_pkey  |           253952
 2017-02-08 15:44:42.732469+01 | 1486565082.73247 | pgbench_accounts_pkey |        112336896

 2017-02-08 15:44:43.785928+01 | 1486565083.78593 | pgbench_branches_pkey |            57344
 2017-02-08 15:44:43.785928+01 | 1486565083.78593 | pgbench_tellers_pkey  |           253952
 2017-02-08 15:44:43.785928+01 | 1486565083.78593 | pgbench_accounts_pkey |        112336896

 2017-02-08 15:44:44.835372+01 | 1486565084.83537 | pgbench_branches_pkey |            57344
 2017-02-08 15:44:44.835372+01 | 1486565084.83537 | pgbench_tellers_pkey  |           253952
 2017-02-08 15:44:44.835372+01 | 1486565084.83537 | pgbench_accounts_pkey |        112336896

 2017-02-08 15:44:45.900406+01 | 1486565085.90041 | pgbench_branches_pkey |            57344
 2017-02-08 15:44:45.900406+01 | 1486565085.90041 | pgbench_tellers_pkey  |           253952
 2017-02-08 15:44:45.900406+01 | 1486565085.90041 | pgbench_accounts_pkey |        112336896

 2017-02-08 15:44:46.954541+01 | 1486565086.95454 | pgbench_branches_pkey |            57344
 2017-02-08 15:44:46.954541+01 | 1486565086.95454 | pgbench_tellers_pkey  |           253952
 2017-02-08 15:44:46.954541+01 | 1486565086.95454 | pgbench_accounts_pkey |        112336896

 2017-02-08 15:44:48.010607+01 | 1486565088.01061 | pgbench_branches_pkey |            57344
 2017-02-08 15:44:48.010607+01 | 1486565088.01061 | pgbench_tellers_pkey  |           253952
 2017-02-08 15:44:48.010607+01 | 1486565088.01061 | pgbench_accounts_pkey |        112336896

 2017-02-08 15:44:49.062631+01 | 1486565089.06263 | pgbench_branches_pkey |            57344
 2017-02-08 15:44:49.062631+01 | 1486565089.06263 | pgbench_tellers_pkey  |           253952
 2017-02-08 15:44:49.062631+01 | 1486565089.06263 | pgbench_accounts_pkey |        112336896

 2017-02-08 15:44:50.106959+01 | 1486565090.10696 | pgbench_branches_pkey |            57344
 2017-02-08 15:44:50.106959+01 | 1486565090.10696 | pgbench_tellers_pkey  |           253952
 2017-02-08 15:44:50.106959+01 | 1486565090.10696 | pgbench_accounts_pkey |        112336896

 2017-02-08 15:44:51.160954+01 | 1486565091.16095 | pgbench_branches_pkey |            57344
 2017-02-08 15:44:51.160954+01 | 1486565091.16095 | pgbench_tellers_pkey  |           253952
 2017-02-08 15:44:51.160954+01 | 1486565091.16095 | pgbench_accounts_pkey |        112336896

 2017-02-08 15:44:52.217777+01 | 1486565092.21778 | pgbench_branches_pkey |            57344
 2017-02-08 15:44:52.217777+01 | 1486565092.21778 | pgbench_tellers_pkey  |           253952
 2017-02-08 15:44:52.217777+01 | 1486565092.21778 | pgbench_accounts_pkey |        112336896

 2017-02-08 15:44:53.267822+01 | 1486565093.26782 | pgbench_branches_pkey |            57344
 2017-02-08 15:44:53.267822+01 | 1486565093.26782 | pgbench_tellers_pkey  |           253952
 2017-02-08 15:44:53.267822+01 | 1486565093.26782 | pgbench_accounts_pkey |        112336896

 2017-02-08 15:44:54.317444+01 | 1486565094.31744 | pgbench_branches_pkey |            57344
 2017-02-08 15:44:54.317444+01 | 1486565094.31744 | pgbench_tellers_pkey  |           253952
 2017-02-08 15:44:54.317444+01 | 1486565094.31744 | pgbench_accounts_pkey |        112336896

 2017-02-08 15:44:55.371152+01 | 1486565095.37115 | pgbench_branches_pkey |            57344
 2017-02-08 15:44:55.371152+01 | 1486565095.37115 | pgbench_tellers_pkey  |           253952
 2017-02-08 15:44:55.371152+01 | 1486565095.37115 | pgbench_accounts_pkey |        112336896

 2017-02-08 15:44:56.421821+01 | 1486565096.42182 | pgbench_branches_pkey |            57344
 2017-02-08 15:44:56.421821+01 | 1486565096.42182 | pgbench_tellers_pkey  |           253952
 2017-02-08 15:44:56.421821+01 | 1486565096.42182 | pgbench_accounts_pkey |        112336896

 2017-02-08 15:44:57.472926+01 | 1486565097.47293 | pgbench_branches_pkey |            57344
 2017-02-08 15:44:57.472926+01 | 1486565097.47293 | pgbench_tellers_pkey  |           253952
 2017-02-08 15:44:57.472926+01 | 1486565097.47293 | pgbench_accounts_pkey |        112336896

 2017-02-08 15:44:58.525264+01 | 1486565098.52526 | pgbench_branches_pkey |            57344
 2017-02-08 15:44:58.525264+01 | 1486565098.52526 | pgbench_tellers_pkey  |           253952
 2017-02-08 15:44:58.525264+01 | 1486565098.52526 | pgbench_accounts_pkey |        112336896

 2017-02-08 15:44:59.578018+01 | 1486565099.57802 | pgbench_branches_pkey |            57344
 2017-02-08 15:44:59.578018+01 | 1486565099.57802 | pgbench_tellers_pkey  |           253952
 2017-02-08 15:44:59.578018+01 | 1486565099.57802 | pgbench_accounts_pkey |        112336896

 2017-02-08 15:45:00.63306+01 | 1486565100.63306 | pgbench_branches_pkey |            57344
 2017-02-08 15:45:00.63306+01 | 1486565100.63306 | pgbench_tellers_pkey  |           253952
 2017-02-08 15:45:00.63306+01 | 1486565100.63306 | pgbench_accounts_pkey |        112336896

 2017-02-08 15:45:01.685901+01 | 1486565101.6859 | pgbench_branches_pkey |            57344
 2017-02-08 15:45:01.685901+01 | 1486565101.6859 | pgbench_tellers_pkey  |           253952
 2017-02-08 15:45:01.685901+01 | 1486565101.6859 | pgbench_accounts_pkey |        112336896

 2017-02-08 15:45:02.736775+01 | 1486565102.73677 | pgbench_branches_pkey |            57344
 2017-02-08 15:45:02.736775+01 | 1486565102.73677 | pgbench_tellers_pkey  |           253952
 2017-02-08 15:45:02.736775+01 | 1486565102.73677 | pgbench_accounts_pkey |        112336896

 2017-02-08 15:45:03.790061+01 | 1486565103.79006 | pgbench_branches_pkey |            57344
 2017-02-08 15:45:03.790061+01 | 1486565103.79006 | pgbench_tellers_pkey  |           253952
 2017-02-08 15:45:03.790061+01 | 1486565103.79006 | pgbench_accounts_pkey |        112336896

 2017-02-08 15:45:04.844463+01 | 1486565104.84446 | pgbench_branches_pkey |            57344
 2017-02-08 15:45:04.844463+01 | 1486565104.84446 | pgbench_tellers_pkey  |           253952
 2017-02-08 15:45:04.844463+01 | 1486565104.84446 | pgbench_accounts_pkey |        112336896

 2017-02-08 15:45:05.895273+01 | 1486565105.89527 | pgbench_branches_pkey |            57344
 2017-02-08 15:45:05.895273+01 | 1486565105.89527 | pgbench_tellers_pkey  |           253952
 2017-02-08 15:45:05.895273+01 | 1486565105.89527 | pgbench_accounts_pkey |        112336896

 2017-02-08 15:45:06.947852+01 | 1486565106.94785 | pgbench_branches_pkey |            57344
 2017-02-08 15:45:06.947852+01 | 1486565106.94785 | pgbench_tellers_pkey  |           253952
 2017-02-08 15:45:06.947852+01 | 1486565106.94785 | pgbench_accounts_pkey |        112336896

 2017-02-08 15:45:08.000151+01 | 1486565108.00015 | pgbench_branches_pkey |            57344
 2017-02-08 15:45:08.000151+01 | 1486565108.00015 | pgbench_tellers_pkey  |           253952
 2017-02-08 15:45:08.000151+01 | 1486565108.00015 | pgbench_accounts_pkey |        112336896

 2017-02-08 15:45:09.052097+01 | 1486565109.0521 | pgbench_branches_pkey |            57344
 2017-02-08 15:45:09.052097+01 | 1486565109.0521 | pgbench_tellers_pkey  |           253952
 2017-02-08 15:45:09.052097+01 | 1486565109.0521 | pgbench_accounts_pkey |        112336896

 2017-02-08 15:45:10.10675+01 | 1486565110.10675 | pgbench_branches_pkey |            57344
 2017-02-08 15:45:10.10675+01 | 1486565110.10675 | pgbench_tellers_pkey  |           253952
 2017-02-08 15:45:10.10675+01 | 1486565110.10675 | pgbench_accounts_pkey |        112336896

 2017-02-08 15:45:11.159017+01 | 1486565111.15902 | pgbench_branches_pkey |            57344
 2017-02-08 15:45:11.159017+01 | 1486565111.15902 | pgbench_tellers_pkey  |           253952
 2017-02-08 15:45:11.159017+01 | 1486565111.15902 | pgbench_accounts_pkey |        112336896

 2017-02-08 15:45:12.211054+01 | 1486565112.21105 | pgbench_branches_pkey |            57344
 2017-02-08 15:45:12.211054+01 | 1486565112.21105 | pgbench_tellers_pkey  |           253952
 2017-02-08 15:45:12.211054+01 | 1486565112.21105 | pgbench_accounts_pkey |        112336896

 2017-02-08 15:45:13.261642+01 | 1486565113.26164 | pgbench_branches_pkey |            57344
 2017-02-08 15:45:13.261642+01 | 1486565113.26164 | pgbench_tellers_pkey  |           253952
 2017-02-08 15:45:13.261642+01 | 1486565113.26164 | pgbench_accounts_pkey |        112336896

 2017-02-08 15:45:14.314014+01 | 1486565114.31401 | pgbench_branches_pkey |            57344
 2017-02-08 15:45:14.314014+01 | 1486565114.31401 | pgbench_tellers_pkey  |           253952
 2017-02-08 15:45:14.314014+01 | 1486565114.31401 | pgbench_accounts_pkey |        112336896

 2017-02-08 15:45:15.368758+01 | 1486565115.36876 | pgbench_branches_pkey |            57344
 2017-02-08 15:45:15.368758+01 | 1486565115.36876 | pgbench_tellers_pkey  |           253952
 2017-02-08 15:45:15.368758+01 | 1486565115.36876 | pgbench_accounts_pkey |        112336896

 2017-02-08 15:45:16.422277+01 | 1486565116.42228 | pgbench_branches_pkey |            57344
 2017-02-08 15:45:16.422277+01 | 1486565116.42228 | pgbench_tellers_pkey  |           253952
 2017-02-08 15:45:16.422277+01 | 1486565116.42228 | pgbench_accounts_pkey |        112336896

 2017-02-08 15:45:17.476198+01 | 1486565117.4762 | pgbench_branches_pkey |            57344
 2017-02-08 15:45:17.476198+01 | 1486565117.4762 | pgbench_tellers_pkey  |           253952
 2017-02-08 15:45:17.476198+01 | 1486565117.4762 | pgbench_accounts_pkey |        112336896

 2017-02-08 15:45:18.527827+01 | 1486565118.52783 | pgbench_branches_pkey |            57344
 2017-02-08 15:45:18.527827+01 | 1486565118.52783 | pgbench_tellers_pkey  |           253952
 2017-02-08 15:45:18.527827+01 | 1486565118.52783 | pgbench_accounts_pkey |        112336896

 2017-02-08 15:45:19.583513+01 | 1486565119.58351 | pgbench_branches_pkey |            57344
 2017-02-08 15:45:19.583513+01 | 1486565119.58351 | pgbench_tellers_pkey  |           253952
 2017-02-08 15:45:19.583513+01 | 1486565119.58351 | pgbench_accounts_pkey |        112336896

 2017-02-08 15:45:20.63883+01 | 1486565120.63883 | pgbench_branches_pkey |            57344
 2017-02-08 15:45:20.63883+01 | 1486565120.63883 | pgbench_tellers_pkey  |           253952
 2017-02-08 15:45:20.63883+01 | 1486565120.63883 | pgbench_accounts_pkey |        112336896

 2017-02-08 15:45:21.694098+01 | 1486565121.6941 | pgbench_branches_pkey |            57344
 2017-02-08 15:45:21.694098+01 | 1486565121.6941 | pgbench_tellers_pkey  |           253952
 2017-02-08 15:45:21.694098+01 | 1486565121.6941 | pgbench_accounts_pkey |        112336896

 2017-02-08 15:45:22.744161+01 | 1486565122.74416 | pgbench_branches_pkey |            57344
 2017-02-08 15:45:22.744161+01 | 1486565122.74416 | pgbench_tellers_pkey  |           253952
 2017-02-08 15:45:22.744161+01 | 1486565122.74416 | pgbench_accounts_pkey |        112336896

 2017-02-08 15:45:23.796918+01 | 1486565123.79692 | pgbench_branches_pkey |            57344
 2017-02-08 15:45:23.796918+01 | 1486565123.79692 | pgbench_tellers_pkey  |           253952
 2017-02-08 15:45:23.796918+01 | 1486565123.79692 | pgbench_accounts_pkey |        112336896

 2017-02-08 15:45:24.850189+01 | 1486565124.85019 | pgbench_branches_pkey |            57344
 2017-02-08 15:45:24.850189+01 | 1486565124.85019 | pgbench_tellers_pkey  |           253952
 2017-02-08 15:45:24.850189+01 | 1486565124.85019 | pgbench_accounts_pkey |        112336896

 2017-02-08 15:45:25.904796+01 | 1486565125.9048 | pgbench_branches_pkey |            57344
 2017-02-08 15:45:25.904796+01 | 1486565125.9048 | pgbench_tellers_pkey  |           253952
 2017-02-08 15:45:25.904796+01 | 1486565125.9048 | pgbench_accounts_pkey |        112336896

 2017-02-08 15:45:26.956055+01 | 1486565126.95605 | pgbench_branches_pkey |            57344
 2017-02-08 15:45:26.956055+01 | 1486565126.95605 | pgbench_tellers_pkey  |           253952
 2017-02-08 15:45:26.956055+01 | 1486565126.95605 | pgbench_accounts_pkey |        112336896

