starting vacuum...end.
transaction type: skewed.sql
scaling factor: 300
query mode: prepared
number of clients: 16
number of threads: 4
duration: 300 s
number of transactions actually processed: 3756477
latency average = 1.278 ms
tps = 12520.748792 (including connections establishing)
tps = 12520.821781 (excluding connections establishing)
