 2017-02-10 17:17:18.952613+01 | 1486743438.95261 |                 0 |              14 |                  7186 |                 1095 |            1155209 |         62786 |              490 |          614715 |                     0 |        464056 | 2017-02-10 16:11:58.713433+01

 2017-02-10 17:17:20.029983+01 | 1486743440.02998 |                 0 |              14 |                  7186 |                 1095 |            1155209 |         62786 |              490 |          614715 |                     0 |        464167 | 2017-02-10 16:11:58.713433+01

 2017-02-10 17:17:21.109466+01 | 1486743441.10947 |                 0 |              14 |                  7186 |                 1095 |            1155209 |         62786 |              490 |          614715 |                     0 |        464276 | 2017-02-10 16:11:58.713433+01

 2017-02-10 17:17:22.187971+01 | 1486743442.18797 |                 0 |              14 |                  7186 |                 1095 |            1155209 |         62786 |              490 |          614715 |                     0 |        464415 | 2017-02-10 16:11:58.713433+01

 2017-02-10 17:17:23.289732+01 | 1486743443.28973 |                 0 |              14 |                  7186 |                 1095 |            1155209 |         62786 |              490 |          614715 |                     0 |        464533 | 2017-02-10 16:11:58.713433+01

 2017-02-10 17:17:24.363546+01 | 1486743444.36355 |                 0 |              14 |                  7186 |                 1095 |            1155209 |         62786 |              490 |          614715 |                     0 |        464678 | 2017-02-10 16:11:58.713433+01

 2017-02-10 17:17:25.444338+01 | 1486743445.44434 |                 0 |              14 |                  7186 |                 1095 |            1155209 |         62786 |              490 |          614715 |                     0 |        464861 | 2017-02-10 16:11:58.713433+01

 2017-02-10 17:17:26.530111+01 | 1486743446.53011 |                 0 |              14 |                  7186 |                 1095 |            1155209 |         62786 |              490 |          614715 |                     0 |        464952 | 2017-02-10 16:11:58.713433+01

 2017-02-10 17:17:27.599268+01 | 1486743447.59927 |                 0 |              14 |                  7186 |                 1095 |            1155209 |         62786 |              490 |          614715 |                     0 |        465037 | 2017-02-10 16:11:58.713433+01

 2017-02-10 17:17:28.680685+01 | 1486743448.68069 |                 0 |              14 |                  7186 |                 1095 |            1155209 |         62786 |              490 |          614715 |                     0 |        465186 | 2017-02-10 16:11:58.713433+01

 2017-02-10 17:17:29.762238+01 | 1486743449.76224 |                 0 |              14 |                  7186 |                 1095 |            1155209 |         62786 |              490 |          614715 |                     0 |        465283 | 2017-02-10 16:11:58.713433+01

 2017-02-10 17:17:30.861768+01 | 1486743450.86177 |                 0 |              14 |                  7186 |                 1095 |            1155209 |         62786 |              490 |          614715 |                     0 |        465409 | 2017-02-10 16:11:58.713433+01

 2017-02-10 17:17:31.952756+01 | 1486743451.95276 |                 0 |              14 |                  7186 |                 1095 |            1155209 |         62786 |              490 |          614715 |                     0 |        465562 | 2017-02-10 16:11:58.713433+01

 2017-02-10 17:17:33.024955+01 | 1486743453.02496 |                 0 |              14 |                  7186 |                 1095 |            1155209 |         62786 |              490 |          614715 |                     0 |        465745 | 2017-02-10 16:11:58.713433+01

 2017-02-10 17:17:34.098507+01 | 1486743454.09851 |                 0 |              14 |                  7186 |                 1095 |            1155209 |         62786 |              490 |          614715 |                     0 |        465826 | 2017-02-10 16:11:58.713433+01

 2017-02-10 17:17:35.169443+01 | 1486743455.16944 |                 0 |              14 |                  7186 |                 1095 |            1155209 |         62786 |              490 |          614715 |                     0 |        466089 | 2017-02-10 16:11:58.713433+01

 2017-02-10 17:17:36.246268+01 | 1486743456.24627 |                 0 |              14 |                  7186 |                 1095 |            1155209 |         62786 |              490 |          614715 |                     0 |        466092 | 2017-02-10 16:11:58.713433+01

 2017-02-10 17:17:37.331806+01 | 1486743457.33181 |                 0 |              14 |                  7186 |                 1095 |            1155209 |         62786 |              490 |          614715 |                     0 |        466268 | 2017-02-10 16:11:58.713433+01

 2017-02-10 17:17:38.402197+01 | 1486743458.4022 |                 0 |              14 |                  7186 |                 1095 |            1155209 |         62786 |              490 |          614715 |                     0 |        466348 | 2017-02-10 16:11:58.713433+01

 2017-02-10 17:17:39.510847+01 | 1486743459.51085 |                 0 |              14 |                  7186 |                 1095 |            1155209 |         62786 |              490 |          614715 |                     0 |        466548 | 2017-02-10 16:11:58.713433+01

 2017-02-10 17:17:40.594102+01 | 1486743460.5941 |                 0 |              14 |                  7186 |                 1095 |            1155209 |         62786 |              490 |          614715 |                     0 |        466646 | 2017-02-10 16:11:58.713433+01

 2017-02-10 17:17:41.683055+01 | 1486743461.68305 |                 0 |              14 |                  7186 |                 1095 |            1155209 |         62786 |              490 |          614715 |                     0 |        466866 | 2017-02-10 16:11:58.713433+01

 2017-02-10 17:17:42.768683+01 | 1486743462.76868 |                 0 |              14 |                  7186 |                 1095 |            1155209 |         62786 |              490 |          614715 |                     0 |        466869 | 2017-02-10 16:11:58.713433+01

 2017-02-10 17:17:43.872741+01 | 1486743463.87274 |                 0 |              14 |                  7186 |                 1095 |            1155209 |         62786 |              490 |          614715 |                     0 |        467021 | 2017-02-10 16:11:58.713433+01

 2017-02-10 17:17:44.967188+01 | 1486743464.96719 |                 0 |              14 |                  7186 |                 1095 |            1155209 |         62786 |              490 |          614715 |                     0 |        467141 | 2017-02-10 16:11:58.713433+01

 2017-02-10 17:17:46.066925+01 | 1486743466.06693 |                 0 |              14 |                  7186 |                 1095 |            1155209 |         62786 |              490 |          614715 |                     0 |        467272 | 2017-02-10 16:11:58.713433+01

 2017-02-10 17:17:47.153168+01 | 1486743467.15317 |                 0 |              14 |                  7186 |                 1095 |            1155209 |         62786 |              490 |          614715 |                     0 |        467417 | 2017-02-10 16:11:58.713433+01

 2017-02-10 17:17:48.23565+01 | 1486743468.23565 |                 0 |              14 |                  7186 |                 1095 |            1155209 |         62786 |              490 |          614715 |                     0 |        467547 | 2017-02-10 16:11:58.713433+01

 2017-02-10 17:17:49.334443+01 | 1486743469.33444 |                 0 |              14 |                  7186 |                 1095 |            1155209 |         62786 |              490 |          614715 |                     0 |        467766 | 2017-02-10 16:11:58.713433+01

 2017-02-10 17:17:50.420104+01 | 1486743470.4201 |                 0 |              14 |                  7186 |                 1095 |            1155209 |         62786 |              490 |          614715 |                     0 |        467912 | 2017-02-10 16:11:58.713433+01

 2017-02-10 17:17:51.504164+01 | 1486743471.50416 |                 0 |              14 |                  7186 |                 1095 |            1155209 |         62786 |              490 |          614715 |                     0 |        467942 | 2017-02-10 16:11:58.713433+01

 2017-02-10 17:17:52.594214+01 | 1486743472.59421 |                 0 |              14 |                  7186 |                 1095 |            1155209 |         62786 |              490 |          614715 |                     0 |        468124 | 2017-02-10 16:11:58.713433+01

 2017-02-10 17:17:53.680186+01 | 1486743473.68019 |                 0 |              14 |                  7186 |                 1095 |            1155209 |         62786 |              490 |          614715 |                     0 |        468243 | 2017-02-10 16:11:58.713433+01

 2017-02-10 17:17:54.773901+01 | 1486743474.7739 |                 0 |              14 |                  7186 |                 1095 |            1155209 |         62786 |              490 |          614715 |                     0 |        468520 | 2017-02-10 16:11:58.713433+01

 2017-02-10 17:17:55.865957+01 | 1486743475.86596 |                 0 |              14 |                  7186 |                 1095 |            1155209 |         62786 |              490 |          614715 |                     0 |        468520 | 2017-02-10 16:11:58.713433+01

 2017-02-10 17:17:56.958892+01 | 1486743476.95889 |                 0 |              14 |                  7186 |                 1095 |            1155209 |         62786 |              490 |          614715 |                     0 |        468619 | 2017-02-10 16:11:58.713433+01

 2017-02-10 17:17:58.04745+01 | 1486743478.04745 |                 0 |              14 |                  7186 |                 1095 |            1155209 |         62786 |              490 |          614715 |                     0 |        468746 | 2017-02-10 16:11:58.713433+01

 2017-02-10 17:17:59.138948+01 | 1486743479.13895 |                 0 |              14 |                  7186 |                 1095 |            1155209 |         62786 |              490 |          614715 |                     0 |        468912 | 2017-02-10 16:11:58.713433+01

 2017-02-10 17:18:00.227101+01 | 1486743480.2271 |                 0 |              14 |                  7186 |                 1095 |            1155209 |         62786 |              490 |          614715 |                     0 |        469007 | 2017-02-10 16:11:58.713433+01

 2017-02-10 17:18:01.301002+01 | 1486743481.301 |                 0 |              14 |                  7186 |                 1095 |            1155209 |         62786 |              490 |          614715 |                     0 |        469198 | 2017-02-10 16:11:58.713433+01

 2017-02-10 17:18:02.388294+01 | 1486743482.38829 |                 0 |              14 |                  7186 |                 1095 |            1155209 |         62786 |              490 |          614715 |                     0 |        469295 | 2017-02-10 16:11:58.713433+01

 2017-02-10 17:18:03.476752+01 | 1486743483.47675 |                 0 |              14 |                  7186 |                 1095 |            1155209 |         62786 |              490 |          614715 |                     0 |        469402 | 2017-02-10 16:11:58.713433+01

 2017-02-10 17:18:04.559129+01 | 1486743484.55913 |                 0 |              14 |                  7186 |                 1095 |            1155209 |         62786 |              490 |          614715 |                     0 |        469534 | 2017-02-10 16:11:58.713433+01

 2017-02-10 17:18:05.647189+01 | 1486743485.64719 |                 0 |              14 |                  7186 |                 1095 |            1155209 |         62786 |              490 |          614715 |                     0 |        469683 | 2017-02-10 16:11:58.713433+01

 2017-02-10 17:18:06.730115+01 | 1486743486.73011 |                 0 |              14 |                  7186 |                 1095 |            1155209 |         62786 |              490 |          614715 |                     0 |        469892 | 2017-02-10 16:11:58.713433+01

 2017-02-10 17:18:07.823206+01 | 1486743487.82321 |                 0 |              14 |                  7186 |                 1095 |            1155209 |         62786 |              490 |          614715 |                     0 |        469979 | 2017-02-10 16:11:58.713433+01

 2017-02-10 17:18:08.90327+01 | 1486743488.90327 |                 0 |              14 |                  7186 |                 1095 |            1155209 |         62786 |              490 |          614715 |                     0 |        470126 | 2017-02-10 16:11:58.713433+01

 2017-02-10 17:18:09.986659+01 | 1486743489.98666 |                 0 |              14 |                  7186 |                 1095 |            1155209 |         62786 |              490 |          614715 |                     0 |        470345 | 2017-02-10 16:11:58.713433+01

 2017-02-10 17:18:11.090455+01 | 1486743491.09046 |                 0 |              14 |                  7186 |                 1095 |            1155209 |         62786 |              490 |          614715 |                     0 |        470345 | 2017-02-10 16:11:58.713433+01

 2017-02-10 17:18:12.174516+01 | 1486743492.17452 |                 0 |              14 |                  7186 |                 1095 |            1155209 |         62786 |              490 |          614715 |                     0 |        470506 | 2017-02-10 16:11:58.713433+01

 2017-02-10 17:18:13.252875+01 | 1486743493.25288 |                 0 |              14 |                  7186 |                 1095 |            1155209 |         62786 |              490 |          614715 |                     0 |        470635 | 2017-02-10 16:11:58.713433+01

 2017-02-10 17:18:14.331277+01 | 1486743494.33128 |                 0 |              14 |                  7186 |                 1095 |            1155209 |         62786 |              490 |          614715 |                     0 |        470756 | 2017-02-10 16:11:58.713433+01

 2017-02-10 17:18:15.408056+01 | 1486743495.40806 |                 0 |              14 |                  7186 |                 1095 |            1155209 |         62786 |              490 |          614715 |                     0 |        470888 | 2017-02-10 16:11:58.713433+01

 2017-02-10 17:18:16.486795+01 | 1486743496.48679 |                 0 |              14 |                  7186 |                 1095 |            1155209 |         62786 |              490 |          614715 |                     0 |        471006 | 2017-02-10 16:11:58.713433+01

 2017-02-10 17:18:17.553254+01 | 1486743497.55325 |                 0 |              14 |                  7186 |                 1095 |            1155209 |         62786 |              490 |          614715 |                     0 |        471170 | 2017-02-10 16:11:58.713433+01

 2017-02-10 17:18:18.637614+01 | 1486743498.63761 |                 0 |              14 |                  7186 |                 1095 |            1155209 |         62786 |              490 |          614715 |                     0 |        471280 | 2017-02-10 16:11:58.713433+01

 2017-02-10 17:18:19.711658+01 | 1486743499.71166 |                 0 |              14 |                  7186 |                 1095 |            1155209 |         62786 |              490 |          614715 |                     0 |        471390 | 2017-02-10 16:11:58.713433+01

 2017-02-10 17:18:20.796384+01 | 1486743500.79638 |                 0 |              14 |                  7186 |                 1095 |            1155209 |         62786 |              490 |          614715 |                     0 |        471521 | 2017-02-10 16:11:58.713433+01

 2017-02-10 17:18:21.877769+01 | 1486743501.87777 |                 0 |              14 |                  7186 |                 1095 |            1155209 |         62786 |              490 |          614715 |                     0 |        471640 | 2017-02-10 16:11:58.713433+01

 2017-02-10 17:18:22.969795+01 | 1486743502.96979 |                 0 |              14 |                  7186 |                 1095 |            1155209 |         62786 |              490 |          614715 |                     0 |        471788 | 2017-02-10 16:11:58.713433+01

 2017-02-10 17:18:24.041197+01 | 1486743504.0412 |                 0 |              14 |                  7186 |                 1095 |            1155209 |         62786 |              490 |          614715 |                     0 |        471908 | 2017-02-10 16:11:58.713433+01

 2017-02-10 17:18:25.137815+01 | 1486743505.13781 |                 0 |              14 |                  7186 |                 1095 |            1155209 |         62786 |              490 |          614715 |                     0 |        472052 | 2017-02-10 16:11:58.713433+01

 2017-02-10 17:18:26.196938+01 | 1486743506.19694 |                 0 |              14 |                  7186 |                 1095 |            1155209 |         62786 |              490 |          614715 |                     0 |        472182 | 2017-02-10 16:11:58.713433+01

 2017-02-10 17:18:27.303203+01 | 1486743507.3032 |                 0 |              14 |                  7186 |                 1095 |            1155209 |         62786 |              490 |          614715 |                     0 |        472299 | 2017-02-10 16:11:58.713433+01

 2017-02-10 17:18:28.384286+01 | 1486743508.38429 |                 0 |              14 |                  7186 |                 1095 |            1155209 |         62786 |              490 |          614715 |                     0 |        472451 | 2017-02-10 16:11:58.713433+01

 2017-02-10 17:18:29.473715+01 | 1486743509.47372 |                 0 |              14 |                  7186 |                 1095 |            1155209 |         62786 |              490 |          614715 |                     0 |        472573 | 2017-02-10 16:11:58.713433+01

 2017-02-10 17:18:30.561198+01 | 1486743510.5612 |                 0 |              14 |                  7186 |                 1095 |            1155209 |         62786 |              490 |          614715 |                     0 |        472721 | 2017-02-10 16:11:58.713433+01

 2017-02-10 17:18:31.66314+01 | 1486743511.66314 |                 0 |              14 |                  7186 |                 1095 |            1155209 |         62786 |              490 |          614715 |                     0 |        472835 | 2017-02-10 16:11:58.713433+01

 2017-02-10 17:18:32.736304+01 | 1486743512.7363 |                 0 |              14 |                  7186 |                 1095 |            1155209 |         62786 |              490 |          614715 |                     0 |        472976 | 2017-02-10 16:11:58.713433+01

 2017-02-10 17:18:33.817431+01 | 1486743513.81743 |                 0 |              14 |                  7186 |                 1095 |            1155209 |         62786 |              490 |          614715 |                     0 |        473141 | 2017-02-10 16:11:58.713433+01

 2017-02-10 17:18:34.909612+01 | 1486743514.90961 |                 0 |              14 |                  7186 |                 1095 |            1155209 |         62786 |              490 |          614715 |                     0 |        473271 | 2017-02-10 16:11:58.713433+01

 2017-02-10 17:18:35.996373+01 | 1486743515.99637 |                 0 |              14 |                  7186 |                 1095 |            1155209 |         62786 |              490 |          614715 |                     0 |        473375 | 2017-02-10 16:11:58.713433+01

 2017-02-10 17:18:37.101132+01 | 1486743517.10113 |                 0 |              14 |                  7186 |                 1095 |            1155209 |         62786 |              490 |          614715 |                     0 |        473519 | 2017-02-10 16:11:58.713433+01

 2017-02-10 17:18:38.202782+01 | 1486743518.20278 |                 0 |              14 |                  7186 |                 1095 |            1155209 |         62786 |              490 |          614715 |                     0 |        473668 | 2017-02-10 16:11:58.713433+01

 2017-02-10 17:18:39.265392+01 | 1486743519.26539 |                 0 |              14 |                  7186 |                 1095 |            1155209 |         62786 |              490 |          614715 |                     0 |        473808 | 2017-02-10 16:11:58.713433+01

 2017-02-10 17:18:40.354734+01 | 1486743520.35473 |                 0 |              14 |                  7186 |                 1095 |            1155209 |         62786 |              490 |          614715 |                     0 |        473976 | 2017-02-10 16:11:58.713433+01

 2017-02-10 17:18:41.422207+01 | 1486743521.42221 |                 0 |              14 |                  7186 |                 1095 |            1155209 |         62786 |              490 |          614715 |                     0 |        474045 | 2017-02-10 16:11:58.713433+01

 2017-02-10 17:18:42.506775+01 | 1486743522.50677 |                 0 |              14 |                  7186 |                 1095 |            1155209 |         62786 |              490 |          614715 |                     0 |        474161 | 2017-02-10 16:11:58.713433+01

 2017-02-10 17:18:43.5693+01 | 1486743523.5693 |                 0 |              14 |                  7186 |                 1095 |            1155209 |         62786 |              490 |          614715 |                     0 |        474451 | 2017-02-10 16:11:58.713433+01

 2017-02-10 17:18:44.657943+01 | 1486743524.65794 |                 0 |              14 |                  7186 |                 1095 |            1155209 |         62786 |              490 |          614715 |                     0 |        474453 | 2017-02-10 16:11:58.713433+01

 2017-02-10 17:18:45.737453+01 | 1486743525.73745 |                 0 |              14 |                  7186 |                 1095 |            1155209 |         62786 |              490 |          614715 |                     0 |        474537 | 2017-02-10 16:11:58.713433+01

 2017-02-10 17:18:46.826414+01 | 1486743526.82641 |                 0 |              14 |                  7186 |                 1095 |            1155209 |         62786 |              490 |          614715 |                     0 |        474671 | 2017-02-10 16:11:58.713433+01

 2017-02-10 17:18:47.915218+01 | 1486743527.91522 |                 0 |              14 |                  7186 |                 1095 |            1155209 |         62786 |              490 |          614715 |                     0 |        474825 | 2017-02-10 16:11:58.713433+01

 2017-02-10 17:18:48.996731+01 | 1486743528.99673 |                 0 |              14 |                  7186 |                 1095 |            1155209 |         62786 |              490 |          614715 |                     0 |        474958 | 2017-02-10 16:11:58.713433+01

 2017-02-10 17:18:50.071511+01 | 1486743530.07151 |                 0 |              14 |                  7186 |                 1095 |            1155209 |         62786 |              490 |          614715 |                     0 |        475101 | 2017-02-10 16:11:58.713433+01

 2017-02-10 17:18:51.180421+01 | 1486743531.18042 |                 0 |              14 |                  7186 |                 1095 |            1155209 |         62786 |              490 |          614715 |                     0 |        475199 | 2017-02-10 16:11:58.713433+01

 2017-02-10 17:18:52.292668+01 | 1486743532.29267 |                 0 |              14 |                  7186 |                 1095 |            1155209 |         62786 |              490 |          614715 |                     0 |        475446 | 2017-02-10 16:11:58.713433+01

 2017-02-10 17:18:53.374127+01 | 1486743533.37413 |                 0 |              14 |                  7186 |                 1095 |            1155209 |         62786 |              490 |          614715 |                     0 |        475591 | 2017-02-10 16:11:58.713433+01

 2017-02-10 17:18:54.448686+01 | 1486743534.44869 |                 0 |              14 |                  7186 |                 1095 |            1155209 |         62786 |              490 |          614715 |                     0 |        475634 | 2017-02-10 16:11:58.713433+01

 2017-02-10 17:18:55.536079+01 | 1486743535.53608 |                 0 |              14 |                  7186 |                 1095 |            1155209 |         62786 |              490 |          614715 |                     0 |        475793 | 2017-02-10 16:11:58.713433+01

 2017-02-10 17:18:56.642781+01 | 1486743536.64278 |                 0 |              14 |                  7186 |                 1095 |            1155209 |         62786 |              490 |          614715 |                     0 |        475918 | 2017-02-10 16:11:58.713433+01

 2017-02-10 17:18:57.729619+01 | 1486743537.72962 |                 0 |              14 |                  7186 |                 1095 |            1155209 |         62786 |              490 |          614715 |                     0 |        476035 | 2017-02-10 16:11:58.713433+01

 2017-02-10 17:18:58.809548+01 | 1486743538.80955 |                 0 |              14 |                  7186 |                 1095 |            1155209 |         62786 |              490 |          614715 |                     0 |        476175 | 2017-02-10 16:11:58.713433+01

 2017-02-10 17:18:59.897273+01 | 1486743539.89727 |                 0 |              14 |                  7186 |                 1095 |            1155209 |         62786 |              490 |          614715 |                     0 |        476333 | 2017-02-10 16:11:58.713433+01

 2017-02-10 17:19:00.977187+01 | 1486743540.97719 |                 0 |              14 |                  7186 |                 1095 |            1155209 |         62786 |              490 |          614715 |                     0 |        476423 | 2017-02-10 16:11:58.713433+01

 2017-02-10 17:19:02.083339+01 | 1486743542.08334 |                 0 |              14 |                  7186 |                 1095 |            1155209 |         62786 |              490 |          614715 |                     0 |        476527 | 2017-02-10 16:11:58.713433+01

 2017-02-10 17:19:03.164216+01 | 1486743543.16422 |                 0 |              14 |                  7186 |                 1095 |            1155209 |         62786 |              490 |          614715 |                     0 |        476693 | 2017-02-10 16:11:58.713433+01

 2017-02-10 17:19:04.240833+01 | 1486743544.24083 |                 0 |              14 |                  7186 |                 1095 |            1155209 |         62786 |              490 |          614715 |                     0 |        476825 | 2017-02-10 16:11:58.713433+01

 2017-02-10 17:19:05.327498+01 | 1486743545.3275 |                 0 |              14 |                  7186 |                 1095 |            1155209 |         62786 |              490 |          614715 |                     0 |        476985 | 2017-02-10 16:11:58.713433+01

 2017-02-10 17:19:06.401254+01 | 1486743546.40125 |                 0 |              14 |                  7186 |                 1095 |            1155209 |         62786 |              490 |          614715 |                     0 |        477085 | 2017-02-10 16:11:58.713433+01

 2017-02-10 17:19:07.489058+01 | 1486743547.48906 |                 0 |              14 |                  7186 |                 1095 |            1155209 |         62786 |              490 |          614715 |                     0 |        477226 | 2017-02-10 16:11:58.713433+01

 2017-02-10 17:19:08.580279+01 | 1486743548.58028 |                 0 |              14 |                  7186 |                 1095 |            1155209 |         62786 |              490 |          614715 |                     0 |        477353 | 2017-02-10 16:11:58.713433+01

 2017-02-10 17:19:09.654118+01 | 1486743549.65412 |                 0 |              14 |                  7186 |                 1095 |            1155209 |         62786 |              490 |          614715 |                     0 |        477497 | 2017-02-10 16:11:58.713433+01

 2017-02-10 17:19:10.725473+01 | 1486743550.72547 |                 0 |              14 |                  7186 |                 1095 |            1155209 |         62786 |              490 |          614715 |                     0 |        477622 | 2017-02-10 16:11:58.713433+01

 2017-02-10 17:19:11.800232+01 | 1486743551.80023 |                 0 |              14 |                  7186 |                 1095 |            1155209 |         62786 |              490 |          614715 |                     0 |        477779 | 2017-02-10 16:11:58.713433+01

 2017-02-10 17:19:12.887248+01 | 1486743552.88725 |                 0 |              14 |                  7186 |                 1095 |            1155209 |         62786 |              490 |          614715 |                     0 |        477917 | 2017-02-10 16:11:58.713433+01

 2017-02-10 17:19:13.977413+01 | 1486743553.97741 |                 0 |              14 |                  7186 |                 1095 |            1155209 |         62786 |              490 |          614715 |                     0 |        478011 | 2017-02-10 16:11:58.713433+01

 2017-02-10 17:19:15.062115+01 | 1486743555.06211 |                 0 |              14 |                  7186 |                 1095 |            1155209 |         62786 |              490 |          614715 |                     0 |        478154 | 2017-02-10 16:11:58.713433+01

 2017-02-10 17:19:16.146763+01 | 1486743556.14676 |                 0 |              14 |                  7186 |                 1095 |            1155209 |         62786 |              490 |          614715 |                     0 |        478331 | 2017-02-10 16:11:58.713433+01

 2017-02-10 17:19:17.230642+01 | 1486743557.23064 |                 0 |              14 |                  7186 |                 1095 |            1155209 |         62786 |              490 |          614715 |                     0 |        478420 | 2017-02-10 16:11:58.713433+01

 2017-02-10 17:19:18.324178+01 | 1486743558.32418 |                 0 |              14 |                  7186 |                 1095 |            1155209 |         62786 |              490 |          614715 |                     0 |        478695 | 2017-02-10 16:11:58.713433+01

 2017-02-10 17:19:19.401483+01 | 1486743559.40148 |                 0 |              14 |                  7186 |                 1095 |            1155209 |         62786 |              490 |          614715 |                     0 |        478695 | 2017-02-10 16:11:58.713433+01

 2017-02-10 17:19:20.484942+01 | 1486743560.48494 |                 0 |              14 |                  7186 |                 1095 |            1155209 |         62786 |              490 |          614715 |                     0 |        478849 | 2017-02-10 16:11:58.713433+01

 2017-02-10 17:19:21.573779+01 | 1486743561.57378 |                 0 |              14 |                  7186 |                 1095 |            1155209 |         62786 |              490 |          614715 |                     0 |        479015 | 2017-02-10 16:11:58.713433+01

 2017-02-10 17:19:22.671507+01 | 1486743562.67151 |                 0 |              14 |                  7186 |                 1095 |            1155209 |         62786 |              490 |          614715 |                     0 |        479062 | 2017-02-10 16:11:58.713433+01

 2017-02-10 17:19:23.753969+01 | 1486743563.75397 |                 0 |              14 |                  7186 |                 1095 |            1155209 |         62786 |              490 |          614715 |                     0 |        479222 | 2017-02-10 16:11:58.713433+01

 2017-02-10 17:19:24.830332+01 | 1486743564.83033 |                 0 |              14 |                  7186 |                 1095 |            1155209 |         62786 |              490 |          614715 |                     0 |        479352 | 2017-02-10 16:11:58.713433+01

 2017-02-10 17:19:25.910667+01 | 1486743565.91067 |                 0 |              14 |                  7186 |                 1095 |            1155209 |         62786 |              490 |          614715 |                     0 |        479489 | 2017-02-10 16:11:58.713433+01

 2017-02-10 17:19:26.999137+01 | 1486743566.99914 |                 0 |              14 |                  7186 |                 1095 |            1155209 |         62786 |              490 |          614715 |                     0 |        479593 | 2017-02-10 16:11:58.713433+01

 2017-02-10 17:19:28.079381+01 | 1486743568.07938 |                 0 |              14 |                  7186 |                 1095 |            1155209 |         62786 |              490 |          614715 |                     0 |        479764 | 2017-02-10 16:11:58.713433+01

 2017-02-10 17:19:29.158328+01 | 1486743569.15833 |                 0 |              14 |                  7186 |                 1095 |            1155209 |         62786 |              490 |          614715 |                     0 |        479928 | 2017-02-10 16:11:58.713433+01

 2017-02-10 17:19:30.235921+01 | 1486743570.23592 |                 0 |              14 |                  7186 |                 1095 |            1155209 |         62786 |              490 |          614715 |                     0 |        479976 | 2017-02-10 16:11:58.713433+01

 2017-02-10 17:19:31.310938+01 | 1486743571.31094 |                 0 |              14 |                  7186 |                 1095 |            1155209 |         62786 |              490 |          614715 |                     0 |        480123 | 2017-02-10 16:11:58.713433+01

 2017-02-10 17:19:32.404646+01 | 1486743572.40465 |                 0 |              14 |                  7186 |                 1095 |            1155209 |         62786 |              490 |          614715 |                     0 |        480239 | 2017-02-10 16:11:58.713433+01

 2017-02-10 17:19:33.503286+01 | 1486743573.50329 |                 0 |              14 |                  7186 |                 1095 |            1155209 |         62786 |              490 |          614715 |                     0 |        480377 | 2017-02-10 16:11:58.713433+01

 2017-02-10 17:19:34.675046+01 | 1486743574.67505 |                 0 |              14 |                  7186 |                 1095 |            1155209 |         62786 |              490 |          614715 |                     0 |        480540 | 2017-02-10 16:11:58.713433+01

 2017-02-10 17:19:35.770066+01 | 1486743575.77007 |                 0 |              14 |                  7186 |                 1095 |            1155209 |         62786 |              490 |          614715 |                     0 |        480669 | 2017-02-10 16:11:58.713433+01

 2017-02-10 17:19:36.8424+01 | 1486743576.8424 |                 0 |              14 |                  7186 |                 1095 |            1155209 |         62786 |              490 |          614715 |                     0 |        480809 | 2017-02-10 16:11:58.713433+01

 2017-02-10 17:19:37.942498+01 | 1486743577.9425 |                 0 |              14 |                  7186 |                 1095 |            1155209 |         62786 |              490 |          614715 |                     0 |        480925 | 2017-02-10 16:11:58.713433+01

 2017-02-10 17:19:39.011269+01 | 1486743579.01127 |                 0 |              14 |                  7186 |                 1095 |            1155209 |         62786 |              490 |          614715 |                     0 |        481080 | 2017-02-10 16:11:58.713433+01

 2017-02-10 17:19:40.083407+01 | 1486743580.08341 |                 0 |              14 |                  7186 |                 1095 |            1155209 |         62786 |              490 |          614715 |                     0 |        481178 | 2017-02-10 16:11:58.713433+01

 2017-02-10 17:19:41.16044+01 | 1486743581.16044 |                 0 |              14 |                  7186 |                 1095 |            1155209 |         62786 |              490 |          614715 |                     0 |        481301 | 2017-02-10 16:11:58.713433+01

 2017-02-10 17:19:42.247338+01 | 1486743582.24734 |                 0 |              14 |                  7186 |                 1095 |            1155209 |         62786 |              490 |          614715 |                     0 |        481453 | 2017-02-10 16:11:58.713433+01

 2017-02-10 17:19:43.333975+01 | 1486743583.33398 |                 0 |              14 |                  7186 |                 1095 |            1155209 |         62786 |              490 |          614715 |                     0 |        481602 | 2017-02-10 16:11:58.713433+01

 2017-02-10 17:19:44.400265+01 | 1486743584.40026 |                 0 |              14 |                  7186 |                 1095 |            1155209 |         62786 |              490 |          614715 |                     0 |        481708 | 2017-02-10 16:11:58.713433+01

 2017-02-10 17:19:45.478405+01 | 1486743585.4784 |                 0 |              14 |                  7186 |                 1095 |            1155209 |         62786 |              490 |          614715 |                     0 |        481845 | 2017-02-10 16:11:58.713433+01

 2017-02-10 17:19:46.577231+01 | 1486743586.57723 |                 0 |              14 |                  7186 |                 1095 |            1155209 |         62786 |              490 |          614715 |                     0 |        481968 | 2017-02-10 16:11:58.713433+01

 2017-02-10 17:19:47.657943+01 | 1486743587.65794 |                 0 |              14 |                  7186 |                 1095 |            1155209 |         62786 |              490 |          614715 |                     0 |        482135 | 2017-02-10 16:11:58.713433+01

 2017-02-10 17:19:48.759963+01 | 1486743588.75996 |                 0 |              14 |                  7186 |                 1095 |            1155209 |         62786 |              490 |          614715 |                     0 |        482249 | 2017-02-10 16:11:58.713433+01

 2017-02-10 17:19:49.838667+01 | 1486743589.83867 |                 0 |              14 |                  7186 |                 1095 |            1155209 |         62786 |              490 |          614715 |                     0 |        482411 | 2017-02-10 16:11:58.713433+01

 2017-02-10 17:19:50.918044+01 | 1486743590.91804 |                 0 |              14 |                  7186 |                 1095 |            1155209 |         62786 |              490 |          614715 |                     0 |        482607 | 2017-02-10 16:11:58.713433+01

 2017-02-10 17:19:52.010526+01 | 1486743592.01053 |                 0 |              14 |                  7186 |                 1095 |            1155209 |         62786 |              490 |          614715 |                     0 |        482694 | 2017-02-10 16:11:58.713433+01

 2017-02-10 17:19:53.102861+01 | 1486743593.10286 |                 0 |              14 |                  7186 |                 1095 |            1155209 |         62786 |              490 |          614715 |                     0 |        482789 | 2017-02-10 16:11:58.713433+01

 2017-02-10 17:19:54.171472+01 | 1486743594.17147 |                 0 |              14 |                  7186 |                 1095 |            1155209 |         62786 |              490 |          614715 |                     0 |        482908 | 2017-02-10 16:11:58.713433+01

 2017-02-10 17:19:55.254529+01 | 1486743595.25453 |                 0 |              14 |                  7186 |                 1095 |            1155209 |         62786 |              490 |          614715 |                     0 |        483055 | 2017-02-10 16:11:58.713433+01

 2017-02-10 17:19:56.351051+01 | 1486743596.35105 |                 0 |              14 |                  7186 |                 1095 |            1155209 |         62786 |              490 |          614715 |                     0 |        483176 | 2017-02-10 16:11:58.713433+01

 2017-02-10 17:19:57.423918+01 | 1486743597.42392 |                 0 |              14 |                  7186 |                 1095 |            1155209 |         62786 |              490 |          614715 |                     0 |        483289 | 2017-02-10 16:11:58.713433+01

 2017-02-10 17:19:58.489052+01 | 1486743598.48905 |                 0 |              14 |                  7186 |                 1095 |            1155209 |         62786 |              490 |          614715 |                     0 |        483447 | 2017-02-10 16:11:58.713433+01

 2017-02-10 17:19:59.562679+01 | 1486743599.56268 |                 0 |              14 |                  7186 |                 1095 |            1155209 |         62786 |              490 |          614715 |                     0 |        483631 | 2017-02-10 16:11:58.713433+01

 2017-02-10 17:20:00.643322+01 | 1486743600.64332 |                 0 |              14 |                  7186 |                 1095 |            1155209 |         62786 |              490 |          614715 |                     0 |        483685 | 2017-02-10 16:11:58.713433+01

 2017-02-10 17:20:01.738136+01 | 1486743601.73814 |                 0 |              14 |                  7186 |                 1095 |            1155209 |         62786 |              490 |          614715 |                     0 |        483836 | 2017-02-10 16:11:58.713433+01

 2017-02-10 17:20:02.814982+01 | 1486743602.81498 |                 0 |              14 |                  7186 |                 1095 |            1155209 |         62786 |              490 |          614715 |                     0 |        484002 | 2017-02-10 16:11:58.713433+01

 2017-02-10 17:20:03.894438+01 | 1486743603.89444 |                 0 |              14 |                  7186 |                 1095 |            1155209 |         62786 |              490 |          614715 |                     0 |        484109 | 2017-02-10 16:11:58.713433+01

 2017-02-10 17:20:04.961035+01 | 1486743604.96104 |                 0 |              14 |                  7186 |                 1095 |            1155209 |         62786 |              490 |          614715 |                     0 |        484239 | 2017-02-10 16:11:58.713433+01

 2017-02-10 17:20:06.046931+01 | 1486743606.04693 |                 0 |              14 |                  7186 |                 1095 |            1155209 |         62786 |              490 |          614715 |                     0 |        484373 | 2017-02-10 16:11:58.713433+01

 2017-02-10 17:20:07.119302+01 | 1486743607.1193 |                 0 |              14 |                  7186 |                 1095 |            1155209 |         62786 |              490 |          614715 |                     0 |        484590 | 2017-02-10 16:11:58.713433+01

 2017-02-10 17:20:08.198837+01 | 1486743608.19884 |                 0 |              14 |                  7186 |                 1095 |            1155209 |         62786 |              490 |          614715 |                     0 |        484616 | 2017-02-10 16:11:58.713433+01

 2017-02-10 17:20:09.287821+01 | 1486743609.28782 |                 0 |              14 |                  7186 |                 1095 |            1155209 |         62786 |              490 |          614715 |                     0 |        484781 | 2017-02-10 16:11:58.713433+01

 2017-02-10 17:20:10.371947+01 | 1486743610.37195 |                 0 |              14 |                  7186 |                 1095 |            1155209 |         62786 |              490 |          614715 |                     0 |        484897 | 2017-02-10 16:11:58.713433+01

 2017-02-10 17:20:11.465964+01 | 1486743611.46596 |                 0 |              14 |                  7186 |                 1095 |            1155209 |         62786 |              490 |          614715 |                     0 |        485043 | 2017-02-10 16:11:58.713433+01

 2017-02-10 17:20:12.542271+01 | 1486743612.54227 |                 0 |              14 |                  7186 |                 1095 |            1155209 |         62786 |              490 |          614715 |                     0 |        485148 | 2017-02-10 16:11:58.713433+01

 2017-02-10 17:20:13.623233+01 | 1486743613.62323 |                 0 |              14 |                  7186 |                 1095 |            1155209 |         62786 |              490 |          614715 |                     0 |        485303 | 2017-02-10 16:11:58.713433+01

 2017-02-10 17:20:14.703341+01 | 1486743614.70334 |                 0 |              14 |                  7186 |                 1095 |            1155209 |         62786 |              490 |          614715 |                     0 |        485457 | 2017-02-10 16:11:58.713433+01

 2017-02-10 17:20:15.781763+01 | 1486743615.78176 |                 0 |              14 |                  7186 |                 1095 |            1155209 |         62786 |              490 |          614715 |                     0 |        485560 | 2017-02-10 16:11:58.713433+01

 2017-02-10 17:20:16.85654+01 | 1486743616.85654 |                 0 |              14 |                  7186 |                 1095 |            1155209 |         62786 |              490 |          614715 |                     0 |        485742 | 2017-02-10 16:11:58.713433+01

 2017-02-10 17:20:17.945466+01 | 1486743617.94547 |                 0 |              14 |                  7186 |                 1095 |            1155209 |         62786 |              490 |          614715 |                     0 |        485823 | 2017-02-10 16:11:58.713433+01

 2017-02-10 17:20:19.046797+01 | 1486743619.0468 |                 0 |              14 |                  7186 |                 1095 |            1155209 |         62786 |              490 |          614715 |                     0 |        486026 | 2017-02-10 16:11:58.713433+01

 2017-02-10 17:20:20.14287+01 | 1486743620.14287 |                 0 |              14 |                  7186 |                 1095 |            1155209 |         62786 |              490 |          614715 |                     0 |        486077 | 2017-02-10 16:11:58.713433+01

 2017-02-10 17:20:21.234249+01 | 1486743621.23425 |                 0 |              14 |                  7186 |                 1095 |            1155209 |         62786 |              490 |          614715 |                     0 |        486236 | 2017-02-10 16:11:58.713433+01

 2017-02-10 17:20:22.320337+01 | 1486743622.32034 |                 0 |              14 |                  7186 |                 1095 |            1155209 |         62786 |              490 |          614715 |                     0 |        486374 | 2017-02-10 16:11:58.713433+01

 2017-02-10 17:20:23.40828+01 | 1486743623.40828 |                 0 |              14 |                  7186 |                 1095 |            1155209 |         62786 |              490 |          614715 |                     0 |        486465 | 2017-02-10 16:11:58.713433+01

 2017-02-10 17:20:24.485389+01 | 1486743624.48539 |                 0 |              14 |                  7186 |                 1095 |            1155209 |         62786 |              490 |          614715 |                     0 |        486616 | 2017-02-10 16:11:58.713433+01

 2017-02-10 17:20:25.554745+01 | 1486743625.55474 |                 0 |              14 |                  7186 |                 1095 |            1155209 |         62786 |              490 |          614715 |                     0 |        486770 | 2017-02-10 16:11:58.713433+01

 2017-02-10 17:20:26.656855+01 | 1486743626.65686 |                 0 |              14 |                  7186 |                 1095 |            1155209 |         62786 |              490 |          614715 |                     0 |        486864 | 2017-02-10 16:11:58.713433+01

 2017-02-10 17:20:27.742833+01 | 1486743627.74283 |                 0 |              14 |                  7186 |                 1095 |            1155209 |         62786 |              490 |          614715 |                     0 |        487013 | 2017-02-10 16:11:58.713433+01

 2017-02-10 17:20:28.8252+01 | 1486743628.8252 |                 0 |              14 |                  7186 |                 1095 |            1155209 |         62786 |              490 |          614715 |                     0 |        487148 | 2017-02-10 16:11:58.713433+01

 2017-02-10 17:20:29.90018+01 | 1486743629.90018 |                 0 |              14 |                  7186 |                 1095 |            1155209 |         62786 |              490 |          614715 |                     0 |        487264 | 2017-02-10 16:11:58.713433+01

 2017-02-10 17:20:30.999359+01 | 1486743630.99936 |                 0 |              14 |                  7186 |                 1095 |            1155209 |         62786 |              490 |          614715 |                     0 |        487376 | 2017-02-10 16:11:58.713433+01

 2017-02-10 17:20:32.079713+01 | 1486743632.07971 |                 0 |              14 |                  7186 |                 1095 |            1155209 |         62786 |              490 |          614715 |                     0 |        487512 | 2017-02-10 16:11:58.713433+01

 2017-02-10 17:20:33.162855+01 | 1486743633.16285 |                 0 |              14 |                  7186 |                 1095 |            1155209 |         62786 |              490 |          614715 |                     0 |        487659 | 2017-02-10 16:11:58.713433+01

 2017-02-10 17:20:34.24637+01 | 1486743634.24637 |                 0 |              14 |                  7186 |                 1095 |            1155209 |         62786 |              490 |          614715 |                     0 |        487861 | 2017-02-10 16:11:58.713433+01

 2017-02-10 17:20:35.32031+01 | 1486743635.32031 |                 0 |              14 |                  7186 |                 1095 |            1155209 |         62786 |              490 |          614715 |                     0 |        487973 | 2017-02-10 16:11:58.713433+01

 2017-02-10 17:20:36.395622+01 | 1486743636.39562 |                 0 |              14 |                  7186 |                 1095 |            1155209 |         62786 |              490 |          614715 |                     0 |        488044 | 2017-02-10 16:11:58.713433+01

 2017-02-10 17:20:37.470595+01 | 1486743637.47059 |                 0 |              14 |                  7186 |                 1095 |            1155209 |         62786 |              490 |          614715 |                     0 |        488217 | 2017-02-10 16:11:58.713433+01

 2017-02-10 17:20:38.55771+01 | 1486743638.55771 |                 0 |              14 |                  7186 |                 1095 |            1155209 |         62786 |              490 |          614715 |                     0 |        488331 | 2017-02-10 16:11:58.713433+01

 2017-02-10 17:20:39.650457+01 | 1486743639.65046 |                 0 |              14 |                  7186 |                 1095 |            1155209 |         62786 |              490 |          614715 |                     0 |        488444 | 2017-02-10 16:11:58.713433+01

 2017-02-10 17:20:40.746336+01 | 1486743640.74634 |                 0 |              14 |                  7186 |                 1095 |            1155209 |         62786 |              490 |          614715 |                     0 |        488568 | 2017-02-10 16:11:58.713433+01

 2017-02-10 17:20:41.842238+01 | 1486743641.84224 |                 0 |              14 |                  7186 |                 1095 |            1155209 |         62786 |              490 |          614715 |                     0 |        488703 | 2017-02-10 16:11:58.713433+01

 2017-02-10 17:20:42.907855+01 | 1486743642.90786 |                 0 |              14 |                  7186 |                 1095 |            1155209 |         62786 |              490 |          614715 |                     0 |        488852 | 2017-02-10 16:11:58.713433+01

 2017-02-10 17:20:43.990871+01 | 1486743643.99087 |                 0 |              14 |                  7186 |                 1095 |            1155209 |         62786 |              490 |          614715 |                     0 |        488980 | 2017-02-10 16:11:58.713433+01

 2017-02-10 17:20:45.076183+01 | 1486743645.07618 |                 0 |              14 |                  7186 |                 1095 |            1155209 |         62786 |              490 |          614715 |                     0 |        489129 | 2017-02-10 16:11:58.713433+01

 2017-02-10 17:20:46.145081+01 | 1486743646.14508 |                 0 |              14 |                  7186 |                 1095 |            1155209 |         62786 |              490 |          614715 |                     0 |        489335 | 2017-02-10 16:11:58.713433+01

 2017-02-10 17:20:47.228925+01 | 1486743647.22892 |                 0 |              14 |                  7186 |                 1095 |            1155209 |         62786 |              490 |          614715 |                     0 |        489411 | 2017-02-10 16:11:58.713433+01

 2017-02-10 17:20:48.326033+01 | 1486743648.32603 |                 0 |              14 |                  7186 |                 1095 |            1155209 |         62786 |              490 |          614715 |                     0 |        489505 | 2017-02-10 16:11:58.713433+01

 2017-02-10 17:20:49.416971+01 | 1486743649.41697 |                 0 |              14 |                  7186 |                 1095 |            1155209 |         62786 |              490 |          614715 |                     0 |        489658 | 2017-02-10 16:11:58.713433+01

 2017-02-10 17:20:50.507029+01 | 1486743650.50703 |                 0 |              14 |                  7186 |                 1095 |            1155209 |         62786 |              490 |          614715 |                     0 |        489761 | 2017-02-10 16:11:58.713433+01

 2017-02-10 17:20:51.607136+01 | 1486743651.60714 |                 0 |              14 |                  7186 |                 1095 |            1155209 |         62786 |              490 |          614715 |                     0 |        489915 | 2017-02-10 16:11:58.713433+01

 2017-02-10 17:20:52.703314+01 | 1486743652.70331 |                 0 |              14 |                  7186 |                 1095 |            1155209 |         62786 |              490 |          614715 |                     0 |        490037 | 2017-02-10 16:11:58.713433+01

 2017-02-10 17:20:53.78651+01 | 1486743653.78651 |                 0 |              14 |                  7186 |                 1095 |            1155209 |         62786 |              490 |          614715 |                     0 |        490184 | 2017-02-10 16:11:58.713433+01

 2017-02-10 17:20:54.856496+01 | 1486743654.8565 |                 0 |              14 |                  7186 |                 1095 |            1155209 |         62786 |              490 |          614715 |                     0 |        490307 | 2017-02-10 16:11:58.713433+01

 2017-02-10 17:20:55.937256+01 | 1486743655.93726 |                 0 |              14 |                  7186 |                 1095 |            1155209 |         62786 |              490 |          614715 |                     0 |        490445 | 2017-02-10 16:11:58.713433+01

 2017-02-10 17:20:57.010965+01 | 1486743657.01097 |                 0 |              14 |                  7186 |                 1095 |            1155209 |         62786 |              490 |          614715 |                     0 |        490615 | 2017-02-10 16:11:58.713433+01

 2017-02-10 17:20:58.100414+01 | 1486743658.10041 |                 0 |              14 |                  7186 |                 1095 |            1155209 |         62786 |              490 |          614715 |                     0 |        490733 | 2017-02-10 16:11:58.713433+01

 2017-02-10 17:20:59.173657+01 | 1486743659.17366 |                 0 |              14 |                  7186 |                 1095 |            1155209 |         62786 |              490 |          614715 |                     0 |        490869 | 2017-02-10 16:11:58.713433+01

 2017-02-10 17:21:00.261962+01 | 1486743660.26196 |                 0 |              14 |                  7186 |                 1095 |            1155209 |         62786 |              490 |          614715 |                     0 |        490968 | 2017-02-10 16:11:58.713433+01

 2017-02-10 17:21:01.344292+01 | 1486743661.34429 |                 0 |              14 |                  7186 |                 1095 |            1155209 |         62786 |              490 |          614715 |                     0 |        491104 | 2017-02-10 16:11:58.713433+01

 2017-02-10 17:21:02.429228+01 | 1486743662.42923 |                 0 |              14 |                  7186 |                 1095 |            1155209 |         62786 |              490 |          614715 |                     0 |        491392 | 2017-02-10 16:11:58.713433+01

 2017-02-10 17:21:03.516542+01 | 1486743663.51654 |                 0 |              14 |                  7186 |                 1095 |            1155209 |         62786 |              490 |          614715 |                     0 |        491393 | 2017-02-10 16:11:58.713433+01

 2017-02-10 17:21:04.594705+01 | 1486743664.59471 |                 0 |              14 |                  7186 |                 1095 |            1155209 |         62786 |              490 |          614715 |                     0 |        491664 | 2017-02-10 16:11:58.713433+01

 2017-02-10 17:21:05.685041+01 | 1486743665.68504 |                 0 |              14 |                  7186 |                 1095 |            1155209 |         62786 |              490 |          614715 |                     0 |        491664 | 2017-02-10 16:11:58.713433+01

 2017-02-10 17:21:06.766222+01 | 1486743666.76622 |                 0 |              14 |                  7186 |                 1095 |            1155209 |         62786 |              490 |          614715 |                     0 |        491748 | 2017-02-10 16:11:58.713433+01

 2017-02-10 17:21:07.84125+01 | 1486743667.84125 |                 0 |              14 |                  7186 |                 1095 |            1155209 |         62786 |              490 |          614715 |                     0 |        491995 | 2017-02-10 16:11:58.713433+01

 2017-02-10 17:21:08.938755+01 | 1486743668.93876 |                 0 |              14 |                  7186 |                 1095 |            1155209 |         62786 |              490 |          614715 |                     0 |        492022 | 2017-02-10 16:11:58.713433+01

 2017-02-10 17:21:10.022068+01 | 1486743670.02207 |                 0 |              14 |                  7186 |                 1095 |            1155209 |         62786 |              490 |          614715 |                     0 |        492151 | 2017-02-10 16:11:58.713433+01

 2017-02-10 17:21:11.114257+01 | 1486743671.11426 |                 0 |              14 |                  7186 |                 1095 |            1155209 |         62786 |              490 |          614715 |                     0 |        492271 | 2017-02-10 16:11:58.713433+01

 2017-02-10 17:21:12.195015+01 | 1486743672.19501 |                 0 |              14 |                  7186 |                 1095 |            1155209 |         62786 |              490 |          614715 |                     0 |        492430 | 2017-02-10 16:11:58.713433+01

 2017-02-10 17:21:13.284688+01 | 1486743673.28469 |                 0 |              14 |                  7186 |                 1095 |            1155209 |         62786 |              490 |          614715 |                     0 |        492565 | 2017-02-10 16:11:58.713433+01

 2017-02-10 17:21:14.383339+01 | 1486743674.38334 |                 0 |              14 |                  7186 |                 1095 |            1155209 |         62786 |              490 |          614715 |                     0 |        492698 | 2017-02-10 16:11:58.713433+01

 2017-02-10 17:21:15.477339+01 | 1486743675.47734 |                 0 |              14 |                  7186 |                 1095 |            1155209 |         62786 |              490 |          614715 |                     0 |        492807 | 2017-02-10 16:11:58.713433+01

 2017-02-10 17:21:16.565793+01 | 1486743676.56579 |                 0 |              14 |                  7186 |                 1095 |            1155209 |         62786 |              490 |          614715 |                     0 |        492945 | 2017-02-10 16:11:58.713433+01

 2017-02-10 17:21:17.65318+01 | 1486743677.65318 |                 0 |              14 |                  7186 |                 1095 |            1155209 |         62786 |              490 |          614715 |                     0 |        493061 | 2017-02-10 16:11:58.713433+01

 2017-02-10 17:21:18.730663+01 | 1486743678.73066 |                 0 |              14 |                  7186 |                 1095 |            1155209 |         62786 |              490 |          614715 |                     0 |        493210 | 2017-02-10 16:11:58.713433+01

 2017-02-10 17:21:19.822077+01 | 1486743679.82208 |                 0 |              14 |                  7186 |                 1095 |            1155209 |         62786 |              490 |          614715 |                     0 |        493335 | 2017-02-10 16:11:58.713433+01

 2017-02-10 17:21:20.904438+01 | 1486743680.90444 |                 0 |              14 |                  7186 |                 1095 |            1155209 |         62786 |              490 |          614715 |                     0 |        493477 | 2017-02-10 16:11:58.713433+01

 2017-02-10 17:21:21.964798+01 | 1486743681.9648 |                 0 |              14 |                  7186 |                 1095 |            1155209 |         62786 |              490 |          614715 |                     0 |        493612 | 2017-02-10 16:11:58.713433+01

 2017-02-10 17:21:23.041253+01 | 1486743683.04125 |                 0 |              14 |                  7186 |                 1095 |            1155209 |         62786 |              490 |          614715 |                     0 |        493751 | 2017-02-10 16:11:58.713433+01

 2017-02-10 17:21:24.141883+01 | 1486743684.14188 |                 0 |              14 |                  7186 |                 1095 |            1155209 |         62786 |              490 |          614715 |                     0 |        493836 | 2017-02-10 16:11:58.713433+01

 2017-02-10 17:21:25.218079+01 | 1486743685.21808 |                 0 |              14 |                  7186 |                 1095 |            1155209 |         62786 |              490 |          614715 |                     0 |        494000 | 2017-02-10 16:11:58.713433+01

 2017-02-10 17:21:26.306984+01 | 1486743686.30698 |                 0 |              14 |                  7186 |                 1095 |            1155209 |         62786 |              490 |          614715 |                     0 |        494138 | 2017-02-10 16:11:58.713433+01

 2017-02-10 17:21:27.378632+01 | 1486743687.37863 |                 0 |              14 |                  7186 |                 1095 |            1155209 |         62786 |              490 |          614715 |                     0 |        494278 | 2017-02-10 16:11:58.713433+01

 2017-02-10 17:21:28.483962+01 | 1486743688.48396 |                 0 |              14 |                  7186 |                 1095 |            1155209 |         62786 |              490 |          614715 |                     0 |        494368 | 2017-02-10 16:11:58.713433+01

 2017-02-10 17:21:29.590277+01 | 1486743689.59028 |                 0 |              14 |                  7186 |                 1095 |            1155209 |         62786 |              490 |          614715 |                     0 |        494524 | 2017-02-10 16:11:58.713433+01

 2017-02-10 17:21:30.665256+01 | 1486743690.66526 |                 0 |              14 |                  7186 |                 1095 |            1155209 |         62786 |              490 |          614715 |                     0 |        494686 | 2017-02-10 16:11:58.713433+01

 2017-02-10 17:21:31.761868+01 | 1486743691.76187 |                 0 |              14 |                  7186 |                 1095 |            1155209 |         62786 |              490 |          614715 |                     0 |        494777 | 2017-02-10 16:11:58.713433+01

 2017-02-10 17:21:32.846518+01 | 1486743692.84652 |                 0 |              14 |                  7186 |                 1095 |            1155209 |         62786 |              490 |          614715 |                     0 |        494924 | 2017-02-10 16:11:58.713433+01

 2017-02-10 17:21:33.928641+01 | 1486743693.92864 |                 0 |              14 |                  7186 |                 1095 |            1155209 |         62786 |              490 |          614715 |                     0 |        495062 | 2017-02-10 16:11:58.713433+01

 2017-02-10 17:21:34.994211+01 | 1486743694.99421 |                 0 |              14 |                  7186 |                 1095 |            1155209 |         62786 |              490 |          614715 |                     0 |        495179 | 2017-02-10 16:11:58.713433+01

 2017-02-10 17:21:36.075077+01 | 1486743696.07508 |                 0 |              14 |                  7186 |                 1095 |            1155209 |         62786 |              490 |          614715 |                     0 |        495303 | 2017-02-10 16:11:58.713433+01

 2017-02-10 17:21:37.162528+01 | 1486743697.16253 |                 0 |              14 |                  7186 |                 1095 |            1155209 |         62786 |              490 |          614715 |                     0 |        495371 | 2017-02-10 16:11:58.713433+01

 2017-02-10 17:21:38.225863+01 | 1486743698.22586 |                 0 |              14 |                  7186 |                 1095 |            1155209 |         62786 |              490 |          614715 |                     0 |        495632 | 2017-02-10 16:11:58.713433+01

 2017-02-10 17:21:39.327441+01 | 1486743699.32744 |                 0 |              14 |                  7186 |                 1095 |            1155209 |         62786 |              490 |          614715 |                     0 |        495716 | 2017-02-10 16:11:58.713433+01

 2017-02-10 17:21:40.400949+01 | 1486743700.40095 |                 0 |              14 |                  7186 |                 1095 |            1155209 |         62786 |              490 |          614715 |                     0 |        495853 | 2017-02-10 16:11:58.713433+01

 2017-02-10 17:21:41.484152+01 | 1486743701.48415 |                 0 |              14 |                  7186 |                 1095 |            1155209 |         62786 |              490 |          614715 |                     0 |        495933 | 2017-02-10 16:11:58.713433+01

 2017-02-10 17:21:42.561136+01 | 1486743702.56114 |                 0 |              14 |                  7186 |                 1095 |            1155209 |         62786 |              490 |          614715 |                     0 |        496187 | 2017-02-10 16:11:58.713433+01

 2017-02-10 17:21:43.636943+01 | 1486743703.63694 |                 0 |              14 |                  7186 |                 1095 |            1155209 |         62786 |              490 |          614715 |                     0 |        496231 | 2017-02-10 16:11:58.713433+01

 2017-02-10 17:21:44.715742+01 | 1486743704.71574 |                 0 |              14 |                  7186 |                 1095 |            1155209 |         62786 |              490 |          614715 |                     0 |        496326 | 2017-02-10 16:11:58.713433+01

 2017-02-10 17:21:45.797353+01 | 1486743705.79735 |                 0 |              14 |                  7186 |                 1095 |            1155209 |         62786 |              490 |          614715 |                     0 |        496450 | 2017-02-10 16:11:58.713433+01

 2017-02-10 17:21:46.893769+01 | 1486743706.89377 |                 0 |              14 |                  7186 |                 1095 |            1155209 |         62786 |              490 |          614715 |                     0 |        496606 | 2017-02-10 16:11:58.713433+01

 2017-02-10 17:21:47.985561+01 | 1486743707.98556 |                 0 |              14 |                  7186 |                 1095 |            1155209 |         62786 |              490 |          614715 |                     0 |        496719 | 2017-02-10 16:11:58.713433+01

 2017-02-10 17:21:49.066884+01 | 1486743709.06688 |                 0 |              14 |                  7186 |                 1095 |            1155209 |         62786 |              490 |          614715 |                     0 |        496871 | 2017-02-10 16:11:58.713433+01

 2017-02-10 17:21:50.16664+01 | 1486743710.16664 |                 0 |              14 |                  7186 |                 1095 |            1155209 |         62786 |              490 |          614715 |                     0 |        496986 | 2017-02-10 16:11:58.713433+01

 2017-02-10 17:21:51.260176+01 | 1486743711.26018 |                 0 |              14 |                  7186 |                 1095 |            1155209 |         62786 |              490 |          614715 |                     0 |        497144 | 2017-02-10 16:11:58.713433+01

 2017-02-10 17:21:52.323625+01 | 1486743712.32363 |                 0 |              14 |                  7186 |                 1095 |            1155209 |         62786 |              490 |          614715 |                     0 |        497254 | 2017-02-10 16:11:58.713433+01

 2017-02-10 17:21:53.386981+01 | 1486743713.38698 |                 0 |              14 |                  7186 |                 1095 |            1155209 |         62786 |              490 |          614715 |                     0 |        497510 | 2017-02-10 16:11:58.713433+01

 2017-02-10 17:21:54.460227+01 | 1486743714.46023 |                 0 |              14 |                  7186 |                 1095 |            1155209 |         62786 |              490 |          614715 |                     0 |        497512 | 2017-02-10 16:11:58.713433+01

 2017-02-10 17:21:55.547712+01 | 1486743715.54771 |                 0 |              14 |                  7186 |                 1095 |            1155209 |         62786 |              490 |          614715 |                     0 |        497647 | 2017-02-10 16:11:58.713433+01

 2017-02-10 17:21:56.62202+01 | 1486743716.62202 |                 0 |              14 |                  7186 |                 1095 |            1155209 |         62786 |              490 |          614715 |                     0 |        497778 | 2017-02-10 16:11:58.713433+01

 2017-02-10 17:21:57.727325+01 | 1486743717.72732 |                 0 |              14 |                  7186 |                 1095 |            1155209 |         62786 |              490 |          614715 |                     0 |        497971 | 2017-02-10 16:11:58.713433+01

 2017-02-10 17:21:58.81144+01 | 1486743718.81144 |                 0 |              14 |                  7186 |                 1095 |            1155209 |         62786 |              490 |          614715 |                     0 |        498099 | 2017-02-10 16:11:58.713433+01

 2017-02-10 17:21:59.900319+01 | 1486743719.90032 |                 0 |              14 |                  7186 |                 1095 |            1155209 |         62786 |              490 |          614715 |                     0 |        498172 | 2017-02-10 16:11:58.713433+01

 2017-02-10 17:22:00.985667+01 | 1486743720.98567 |                 0 |              14 |                  7186 |                 1095 |            1155209 |         62786 |              490 |          614715 |                     0 |        498327 | 2017-02-10 16:11:58.713433+01

 2017-02-10 17:22:02.057747+01 | 1486743722.05775 |                 0 |              14 |                  7186 |                 1095 |            1155209 |         62786 |              490 |          614715 |                     0 |        498467 | 2017-02-10 16:11:58.713433+01

 2017-02-10 17:22:03.145747+01 | 1486743723.14575 |                 0 |              14 |                  7186 |                 1095 |            1155209 |         62786 |              490 |          614715 |                     0 |        498611 | 2017-02-10 16:11:58.713433+01

 2017-02-10 17:22:04.228914+01 | 1486743724.22891 |                 0 |              14 |                  7186 |                 1095 |            1155209 |         62786 |              490 |          614715 |                     0 |        498707 | 2017-02-10 16:11:58.713433+01

 2017-02-10 17:22:05.305176+01 | 1486743725.30518 |                 0 |              14 |                  7186 |                 1095 |            1155209 |         62786 |              490 |          614715 |                     0 |        498846 | 2017-02-10 16:11:58.713433+01

 2017-02-10 17:22:06.3815+01 | 1486743726.3815 |                 0 |              14 |                  7186 |                 1095 |            1155209 |         62786 |              490 |          614715 |                     0 |        498988 | 2017-02-10 16:11:58.713433+01

 2017-02-10 17:22:07.471595+01 | 1486743727.4716 |                 0 |              14 |                  7186 |                 1095 |            1155209 |         62786 |              490 |          614715 |                     0 |        499098 | 2017-02-10 16:11:58.713433+01

 2017-02-10 17:22:08.561868+01 | 1486743728.56187 |                 0 |              14 |                  7186 |                 1095 |            1155209 |         62786 |              490 |          614715 |                     0 |        499240 | 2017-02-10 16:11:58.713433+01

 2017-02-10 17:22:09.641678+01 | 1486743729.64168 |                 0 |              14 |                  7186 |                 1095 |            1155209 |         62786 |              490 |          614715 |                     0 |        499381 | 2017-02-10 16:11:58.713433+01

 2017-02-10 17:22:10.734376+01 | 1486743730.73438 |                 0 |              14 |                  7186 |                 1095 |            1155209 |         62786 |              490 |          614715 |                     0 |        499478 | 2017-02-10 16:11:58.713433+01

 2017-02-10 17:22:11.834882+01 | 1486743731.83488 |                 0 |              14 |                  7186 |                 1095 |            1155209 |         62786 |              490 |          614715 |                     0 |        499653 | 2017-02-10 16:11:58.713433+01

 2017-02-10 17:22:12.917919+01 | 1486743732.91792 |                 0 |              14 |                  7186 |                 1095 |            1155209 |         62786 |              490 |          614715 |                     0 |        499804 | 2017-02-10 16:11:58.713433+01

 2017-02-10 17:22:13.998404+01 | 1486743733.9984 |                 0 |              14 |                  7186 |                 1095 |            1155209 |         62786 |              490 |          614715 |                     0 |        499925 | 2017-02-10 16:11:58.713433+01

 2017-02-10 17:22:15.082389+01 | 1486743735.08239 |                 0 |              14 |                  7186 |                 1095 |            1155209 |         62786 |              490 |          614715 |                     0 |        500061 | 2017-02-10 16:11:58.713433+01

 2017-02-10 17:22:16.164068+01 | 1486743736.16407 |                 0 |              14 |                  7186 |                 1095 |            1155209 |         62786 |              490 |          614715 |                     0 |        500124 | 2017-02-10 16:11:58.713433+01

 2017-02-10 17:22:17.251849+01 | 1486743737.25185 |                 0 |              14 |                  7186 |                 1095 |            1155209 |         62786 |              490 |          614715 |                     0 |        500294 | 2017-02-10 16:11:58.713433+01

 2017-02-10 17:22:18.335936+01 | 1486743738.33594 |                 0 |              14 |                  7186 |                 1095 |            1155209 |         62786 |              490 |          614715 |                     0 |        500429 | 2017-02-10 16:11:58.713433+01

