 2017-02-10 17:17:18.908975+01 | 1486743438.90897 | 5/120A5218               |           21777502744

 2017-02-10 17:17:19.968925+01 | 1486743439.96892 | 5/1826FCE0               |           21880044768

 2017-02-10 17:17:21.049845+01 | 1486743441.04984 | 5/1C088C88               |           21945158792

 2017-02-10 17:17:22.126188+01 | 1486743442.12619 | 5/1E821510               |           21986678032

 2017-02-10 17:17:23.1998+01 | 1486743443.1998 | 5/20657FA8               |           22018359208

 2017-02-10 17:17:24.311216+01 | 1486743444.31122 | 5/21ED17B0               |           22044022704

 2017-02-10 17:17:25.377105+01 | 1486743445.3771 | 5/232DE540               |           22065046848

 2017-02-10 17:17:26.467359+01 | 1486743446.46736 | 5/24479DC8               |           22083509704

 2017-02-10 17:17:27.550384+01 | 1486743447.55038 | 5/253F5A28               |           22099745320

 2017-02-10 17:17:28.611656+01 | 1486743448.61166 | 5/261EB2B0               |           22114382512

 2017-02-10 17:17:29.69687+01 | 1486743449.69687 | 5/26F1A708               |           22128207624

 2017-02-10 17:17:30.780638+01 | 1486743450.78064 | 5/27BDFED0               |           22141599440

 2017-02-10 17:17:31.881509+01 | 1486743451.88151 | 5/28E98A28               |           22161230376

 2017-02-10 17:17:32.96572+01 | 1486743452.96572 | 5/2A753B60               |           22187162464

 2017-02-10 17:17:34.038756+01 | 1486743454.03876 | 5/2BFCD218               |           22212825624

 2017-02-10 17:17:35.108917+01 | 1486743455.10892 | 5/2D7AB570               |           22237853040

 2017-02-10 17:17:36.181579+01 | 1486743456.18158 | 5/2EF0AF40               |           22262361920

 2017-02-10 17:17:37.263523+01 | 1486743457.26352 | 5/305274B0               |           22285546672

 2017-02-10 17:17:38.34305+01 | 1486743458.34305 | 5/319A62A8               |           22307037864

 2017-02-10 17:17:39.41782+01 | 1486743459.41782 | 5/329D7830               |           22324017200

 2017-02-10 17:17:40.520474+01 | 1486743460.52047 | 5/336BCA80               |           22337538688

 2017-02-10 17:17:41.604451+01 | 1486743461.60445 | 5/33D76720               |           22344591136

 2017-02-10 17:17:42.695556+01 | 1486743462.69556 | 5/343F3840               |           22351394880

 2017-02-10 17:17:43.789953+01 | 1486743463.78995 | 5/34A443C0               |           22358016960

 2017-02-10 17:17:44.89148+01 | 1486743464.89148 | 5/350831B0               |           22364565936

 2017-02-10 17:17:45.984557+01 | 1486743465.98456 | 5/356A1600               |           22370981376

 2017-02-10 17:17:47.079365+01 | 1486743467.07937 | 5/35CAD258               |           22377321048

 2017-02-10 17:17:48.164758+01 | 1486743468.16476 | 5/362CEA78               |           22383749752

 2017-02-10 17:17:49.25033+01 | 1486743469.25033 | 5/368AA480               |           22389892224

 2017-02-10 17:17:50.351955+01 | 1486743470.35195 | 5/36EB4200               |           22396224000

 2017-02-10 17:17:51.429125+01 | 1486743471.42913 | 5/374A2580               |           22402442624

 2017-02-10 17:17:52.519262+01 | 1486743472.51926 | 5/37AB2250               |           22408798800

 2017-02-10 17:17:53.604935+01 | 1486743473.60493 | 5/3809B998               |           22414997912

 2017-02-10 17:17:54.696882+01 | 1486743474.69688 | 5/386AEA28               |           22421367336

 2017-02-10 17:17:55.792221+01 | 1486743475.79222 | 5/38CBA5E8               |           22427706856

 2017-02-10 17:17:56.877285+01 | 1486743476.87729 | 5/39291FF8               |           22433832952

 2017-02-10 17:17:57.974287+01 | 1486743477.97429 | 5/398857E0               |           22440073184

 2017-02-10 17:17:59.062549+01 | 1486743479.06255 | 5/39E51EE8               |           22446153448

 2017-02-10 17:18:00.159459+01 | 1486743480.15946 | 5/3A454020               |           22452453408

 2017-02-10 17:18:01.24279+01 | 1486743481.24279 | 5/3AA1AB58               |           22458510168

 2017-02-10 17:18:02.315493+01 | 1486743482.31549 | 5/3AFBB470               |           22464410736

 2017-02-10 17:18:03.410565+01 | 1486743483.41056 | 5/3B5AB308               |           22470636296

 2017-02-10 17:18:04.486635+01 | 1486743484.48663 | 5/3BB87590               |           22476780944

 2017-02-10 17:18:05.574911+01 | 1486743485.57491 | 5/3C17A808               |           22483019784

 2017-02-10 17:18:06.665123+01 | 1486743486.66512 | 5/3C73C7B0               |           22489057200

 2017-02-10 17:18:07.74117+01 | 1486743487.74117 | 5/3CCDFFE8               |           22494969832

 2017-02-10 17:18:08.834303+01 | 1486743488.8343 | 5/3D2A6D60               |           22501027168

 2017-02-10 17:18:09.916399+01 | 1486743489.9164 | 5/3D8653E8               |           22507049960

 2017-02-10 17:18:11.001142+01 | 1486743491.00114 | 5/3DE0CB28               |           22512978728

 2017-02-10 17:18:12.110289+01 | 1486743492.11029 | 5/3E3ECBD0               |           22519139280

 2017-02-10 17:18:13.187993+01 | 1486743493.18799 | 5/3E9953D0               |           22525072336

 2017-02-10 17:18:14.262347+01 | 1486743494.26235 | 5/3EF43BA8               |           22531029928

 2017-02-10 17:18:15.350936+01 | 1486743495.35094 | 5/3F508E98               |           22537080472

 2017-02-10 17:18:16.417024+01 | 1486743496.41702 | 5/3FA7FEF0               |           22542810864

 2017-02-10 17:18:17.498794+01 | 1486743497.49879 | 5/4000FAA8               |           22548642472

 2017-02-10 17:18:18.572798+01 | 1486743498.5728 | 5/405D11B8               |           22554677688

 2017-02-10 17:18:19.652648+01 | 1486743499.65265 | 5/40B86F98               |           22560665496

 2017-02-10 17:18:20.733298+01 | 1486743500.7333 | 5/4113A130               |           22566641968

 2017-02-10 17:18:21.808199+01 | 1486743501.8082 | 5/416EDCA8               |           22572620968

 2017-02-10 17:18:22.892023+01 | 1486743502.89202 | 5/41CC4070               |           22578741360

 2017-02-10 17:18:23.988024+01 | 1486743503.98802 | 5/422970A0               |           22584848544

 2017-02-10 17:18:25.059813+01 | 1486743505.05981 | 5/42869378               |           22590952312

 2017-02-10 17:18:26.154253+01 | 1486743506.15425 | 5/42E6B218               |           22597251608

 2017-02-10 17:18:27.21122+01 | 1486743507.21122 | 5/4340D8E0               |           22603159776

 2017-02-10 17:18:28.318536+01 | 1486743508.31854 | 5/439F4678               |           22609348216

 2017-02-10 17:18:29.397233+01 | 1486743509.39723 | 5/43FBE5C0               |           22615418304

 2017-02-10 17:18:30.494829+01 | 1486743510.49483 | 5/445BB860               |           22621698144

 2017-02-10 17:18:31.57959+01 | 1486743511.57959 | 5/44C8DC88               |           22628850824

 2017-02-10 17:18:32.675729+01 | 1486743512.67573 | 5/45612FD8               |           22638833624

 2017-02-10 17:18:33.751976+01 | 1486743513.75198 | 5/46228B78               |           22651505528

 2017-02-10 17:18:34.83332+01 | 1486743514.83332 | 5/46C94BA0               |           22662433696

 2017-02-10 17:18:35.935249+01 | 1486743515.93525 | 5/47318830               |           22669264944

 2017-02-10 17:18:37.005875+01 | 1486743517.00588 | 5/478F3550               |           22675404112

 2017-02-10 17:18:38.12598+01 | 1486743518.12598 | 5/47E9F5D0               |           22681351632

 2017-02-10 17:18:39.215321+01 | 1486743519.21532 | 5/48427E68               |           22687153768

 2017-02-10 17:18:40.283738+01 | 1486743520.28374 | 5/489A8B60               |           22692924256

 2017-02-10 17:18:41.368367+01 | 1486743521.36837 | 5/48F46360               |           22698812256

 2017-02-10 17:18:42.440827+01 | 1486743522.44083 | 5/494BAD48               |           22704532808

 2017-02-10 17:18:43.52324+01 | 1486743523.52324 | 5/49A2BA00               |           22710237696

 2017-02-10 17:18:44.587132+01 | 1486743524.58713 | 5/49F8AB18               |           22715869976

 2017-02-10 17:18:45.667588+01 | 1486743525.66759 | 5/4A50E568               |           22721652072

 2017-02-10 17:18:46.754736+01 | 1486743526.75474 | 5/4AA8E2B8               |           22727418552

 2017-02-10 17:18:47.843117+01 | 1486743527.84312 | 5/4AFFAB60               |           22733106016

 2017-02-10 17:18:48.93393+01 | 1486743528.93393 | 5/4B576CE8               |           22738857192

 2017-02-10 17:18:50.011414+01 | 1486743530.01141 | 5/4BAE3590               |           22744544656

 2017-02-10 17:18:51.087179+01 | 1486743531.08718 | 5/4C047730               |           22750197552

 2017-02-10 17:18:52.199274+01 | 1486743532.19927 | 5/4C5FB510               |           22756177168

 2017-02-10 17:18:53.313887+01 | 1486743533.31389 | 5/4CBB1C68               |           22762167400

 2017-02-10 17:18:54.390797+01 | 1486743534.3908 | 5/4D10CCA0               |           22767783072

 2017-02-10 17:18:55.467332+01 | 1486743535.46733 | 5/4D67CA78               |           22773484152

 2017-02-10 17:18:56.557379+01 | 1486743536.55738 | 5/4DBF9298               |           22779237016

 2017-02-10 17:18:57.659785+01 | 1486743537.65979 | 5/4E1789F0               |           22785001968

 2017-02-10 17:18:58.74536+01 | 1486743538.74536 | 5/4E704DE8               |           22790819304

 2017-02-10 17:18:59.828883+01 | 1486743539.82888 | 5/4EC795B0               |           22796539312

 2017-02-10 17:19:00.91392+01 | 1486743540.91392 | 5/4F1D1818               |           22802143256

 2017-02-10 17:19:01.994788+01 | 1486743541.99479 | 5/4F72AC68               |           22807751784

 2017-02-10 17:19:03.098686+01 | 1486743543.09869 | 5/4FCCA338               |           22813647672

 2017-02-10 17:19:04.173678+01 | 1486743544.17368 | 5/502414B8               |           22819378360

 2017-02-10 17:19:05.25391+01 | 1486743545.25391 | 5/507B4E28               |           22825094696

 2017-02-10 17:19:06.345191+01 | 1486743546.34519 | 5/50D2B420               |           22830822432

 2017-02-10 17:19:07.423408+01 | 1486743547.42341 | 5/51297288               |           22836507272

 2017-02-10 17:19:08.505979+01 | 1486743548.50598 | 5/517ED970               |           22842104176

 2017-02-10 17:19:09.592142+01 | 1486743549.59214 | 5/51D5E810               |           22847809552

 2017-02-10 17:19:10.668114+01 | 1486743550.66811 | 5/522E4958               |           22853601624

 2017-02-10 17:19:11.74302+01 | 1486743551.74302 | 5/52848428               |           22859252776

 2017-02-10 17:19:12.814382+01 | 1486743552.81438 | 5/52DA6030               |           22864879664

 2017-02-10 17:19:13.904545+01 | 1486743553.90455 | 5/5330D3E8               |           22870545384

 2017-02-10 17:19:14.989224+01 | 1486743554.98922 | 5/5387BC50               |           22876240976

 2017-02-10 17:19:16.078757+01 | 1486743556.07876 | 5/53DF4470               |           22881977456

 2017-02-10 17:19:17.167618+01 | 1486743557.16762 | 5/54359D88               |           22887636360

 2017-02-10 17:19:18.257729+01 | 1486743558.25773 | 5/548C4A40               |           22893316672

 2017-02-10 17:19:19.337924+01 | 1486743559.33792 | 5/54E044E8               |           22898820328

 2017-02-10 17:19:20.411972+01 | 1486743560.41197 | 5/5534A078               |           22904348792

 2017-02-10 17:19:21.501439+01 | 1486743561.50144 | 5/55892FB8               |           22909890488

 2017-02-10 17:19:22.597155+01 | 1486743562.59716 | 5/55DEF818               |           22915512344

 2017-02-10 17:19:23.687354+01 | 1486743563.68735 | 5/563589D8               |           22921185752

 2017-02-10 17:19:24.763739+01 | 1486743564.76374 | 5/56898F30               |           22926692144

 2017-02-10 17:19:25.84447+01 | 1486743565.84447 | 5/56DD9380               |           22932198272

 2017-02-10 17:19:26.928283+01 | 1486743566.92828 | 5/5732FBD8               |           22937795544

 2017-02-10 17:19:28.01094+01 | 1486743568.01094 | 5/57855F78               |           22943195000

 2017-02-10 17:19:29.09234+01 | 1486743569.09234 | 5/57DA5BE8               |           22948764648

 2017-02-10 17:19:30.172412+01 | 1486743570.17241 | 5/582F10B8               |           22954315960

 2017-02-10 17:19:31.249867+01 | 1486743571.24987 | 5/588AD460               |           22960329824

 2017-02-10 17:19:32.33308+01 | 1486743572.33308 | 5/58FA4F20               |           22967635744

 2017-02-10 17:19:33.428732+01 | 1486743573.42873 | 5/5995B138               |           22977818936

 2017-02-10 17:19:34.517639+01 | 1486743574.51764 | 5/5A53BBC0               |           22990273472

 2017-02-10 17:19:35.691858+01 | 1486743575.69186 | 5/5AB3F5B8               |           22996579768

 2017-02-10 17:19:36.783953+01 | 1486743576.78395 | 5/5B0F7470               |           23002575984

 2017-02-10 17:19:37.855495+01 | 1486743577.85549 | 5/5B647E38               |           23008149048

 2017-02-10 17:19:38.958549+01 | 1486743578.95855 | 5/5BBC9498               |           23013921944

 2017-02-10 17:19:40.023569+01 | 1486743580.02357 | 5/5C11B3F0               |           23019500528

 2017-02-10 17:19:41.099247+01 | 1486743581.09925 | 5/5C6722F0               |           23025099504

 2017-02-10 17:19:42.178623+01 | 1486743582.17862 | 5/5CBD5F78               |           23030751096

 2017-02-10 17:19:43.259948+01 | 1486743583.25995 | 5/5D126B00               |           23036324608

 2017-02-10 17:19:44.347831+01 | 1486743584.34783 | 5/5D6741B8               |           23041884600

 2017-02-10 17:19:45.410214+01 | 1486743585.41021 | 5/5DB8D228               |           23047229992

 2017-02-10 17:19:46.500247+01 | 1486743586.50025 | 5/5E0EE838               |           23052871736

 2017-02-10 17:19:47.593631+01 | 1486743587.59363 | 5/5E670148               |           23058645320

 2017-02-10 17:19:48.673084+01 | 1486743588.67308 | 5/5EBBBCA8               |           23064198312

 2017-02-10 17:19:49.780651+01 | 1486743589.78065 | 5/5F10E680               |           23069779584

 2017-02-10 17:19:50.855657+01 | 1486743590.85566 | 5/5F64B238               |           23075271224

 2017-02-10 17:19:51.932964+01 | 1486743591.93296 | 5/5FB98DD0               |           23080832464

 2017-02-10 17:19:53.024554+01 | 1486743593.02455 | 5/600EDE70               |           23086423664

 2017-02-10 17:19:54.119959+01 | 1486743594.11996 | 5/606414E8               |           23092008168

 2017-02-10 17:19:55.186483+01 | 1486743595.18648 | 5/60B7D6D8               |           23097497304

 2017-02-10 17:19:56.268598+01 | 1486743596.2686 | 5/610EC908               |           23103195400

 2017-02-10 17:19:57.364019+01 | 1486743597.36402 | 5/61652C58               |           23108856920

 2017-02-10 17:19:58.435884+01 | 1486743598.43588 | 5/61B68688               |           23114188424

 2017-02-10 17:19:59.508722+01 | 1486743599.50872 | 5/6209FBF0               |           23119657968

 2017-02-10 17:20:00.577318+01 | 1486743600.57732 | 5/625F8D30               |           23125265712

 2017-02-10 17:20:01.66311+01 | 1486743601.66311 | 5/62B5D310               |           23130919696

 2017-02-10 17:20:02.753373+01 | 1486743602.75337 | 5/630BFA58               |           23136565848

 2017-02-10 17:20:03.825014+01 | 1486743603.82501 | 5/6360D4A8               |           23142126760

 2017-02-10 17:20:04.904297+01 | 1486743604.9043 | 5/63B542C0               |           23147659968

 2017-02-10 17:20:05.98021+01 | 1486743605.98021 | 5/64097A40               |           23153179200

 2017-02-10 17:20:07.060598+01 | 1486743607.0606 | 5/645E3640               |           23158732352

 2017-02-10 17:20:08.132532+01 | 1486743608.13253 | 5/64B282B0               |           23164256944

 2017-02-10 17:20:09.211599+01 | 1486743609.2116 | 5/65063DF0               |           23169744368

 2017-02-10 17:20:10.302803+01 | 1486743610.3028 | 5/655A7DC0               |           23175265728

 2017-02-10 17:20:11.388592+01 | 1486743611.38859 | 5/65AFC7D8               |           23180855256

 2017-02-10 17:20:12.479802+01 | 1486743612.4798 | 5/660573A0               |           23186469792

 2017-02-10 17:20:13.557333+01 | 1486743613.55733 | 5/66583A00               |           23191894528

 2017-02-10 17:20:14.643073+01 | 1486743614.64307 | 5/66AC1060               |           23197388896

 2017-02-10 17:20:15.714139+01 | 1486743615.71414 | 5/67002390               |           23202898832

 2017-02-10 17:20:16.795667+01 | 1486743616.79567 | 5/67525528               |           23208285480

 2017-02-10 17:20:17.869926+01 | 1486743617.86993 | 5/67A5B1F0               |           23213748720

 2017-02-10 17:20:18.963288+01 | 1486743618.96329 | 5/67F94540               |           23219225920

 2017-02-10 17:20:20.066823+01 | 1486743620.06682 | 5/684F3118               |           23224856856

 2017-02-10 17:20:21.161396+01 | 1486743621.1614 | 5/68A48740               |           23230449472

 2017-02-10 17:20:22.254275+01 | 1486743622.25428 | 5/68FB2910               |           23236126992

 2017-02-10 17:20:23.338022+01 | 1486743623.33802 | 5/694FDE48               |           23241678408

 2017-02-10 17:20:24.424022+01 | 1486743624.42402 | 5/69A484C8               |           23247226056

 2017-02-10 17:20:25.497632+01 | 1486743625.49763 | 5/69F986E0               |           23252797152

 2017-02-10 17:20:26.568429+01 | 1486743626.56843 | 5/6A4E8638               |           23258367544

 2017-02-10 17:20:27.672255+01 | 1486743627.67226 | 5/6AA72F50               |           23264178000

 2017-02-10 17:20:28.754925+01 | 1486743628.75493 | 5/6AFDEAA0               |           23269862048

 2017-02-10 17:20:29.83589+01 | 1486743629.83589 | 5/6B4FC048               |           23275225160

 2017-02-10 17:20:30.922245+01 | 1486743630.92225 | 5/6BAC7A38               |           23281302072

 2017-02-10 17:20:32.018589+01 | 1486743632.01859 | 5/6C185BC8               |           23288372168

 2017-02-10 17:20:33.100557+01 | 1486743633.10056 | 5/6C924F98               |           23296365360

 2017-02-10 17:20:34.176285+01 | 1486743634.17629 | 5/6D2D59E0               |           23306525152

 2017-02-10 17:20:35.257317+01 | 1486743635.25732 | 5/6D881D18               |           23312473368

 2017-02-10 17:20:36.331917+01 | 1486743636.33192 | 5/6DE24AE0               |           23318383328

 2017-02-10 17:20:37.40929+01 | 1486743637.40929 | 5/6E3AA448               |           23324173384

 2017-02-10 17:20:38.492218+01 | 1486743638.49222 | 5/6E8FC4C8               |           23329752264

 2017-02-10 17:20:39.569161+01 | 1486743639.56916 | 5/6EE53820               |           23335352352

 2017-02-10 17:20:40.671203+01 | 1486743640.6712 | 5/6F3CAB00               |           23341083392

 2017-02-10 17:20:41.766274+01 | 1486743641.76627 | 5/6F938C50               |           23346777168

 2017-02-10 17:20:42.858845+01 | 1486743642.85884 | 5/6FEA5640               |           23352464960

 2017-02-10 17:20:43.920916+01 | 1486743643.92092 | 5/703D1298               |           23357887128

 2017-02-10 17:20:45.00887+01 | 1486743645.00887 | 5/70937FA8               |           23363551144

 2017-02-10 17:20:46.086299+01 | 1486743646.0863 | 5/70E94250               |           23369171536

 2017-02-10 17:20:47.159061+01 | 1486743647.15906 | 5/713CB328               |           23374639912

 2017-02-10 17:20:48.247613+01 | 1486743648.24761 | 5/719226D8               |           23380240088

 2017-02-10 17:20:49.348068+01 | 1486743649.34807 | 5/71E792F0               |           23385838320

 2017-02-10 17:20:50.428044+01 | 1486743650.42804 | 5/723BEE38               |           23391366712

 2017-02-10 17:20:51.522514+01 | 1486743651.52251 | 5/7292AB00               |           23397051136

 2017-02-10 17:20:52.62501+01 | 1486743652.62501 | 5/72E94FC8               |           23402729416

 2017-02-10 17:20:53.719658+01 | 1486743653.71966 | 5/733E3FD8               |           23408295896

 2017-02-10 17:20:54.804309+01 | 1486743654.80431 | 5/73919C68               |           23413759080

 2017-02-10 17:20:55.874826+01 | 1486743655.87483 | 5/73E4AD08               |           23419202824

 2017-02-10 17:20:56.953996+01 | 1486743656.954 | 5/743B4298               |           23424877208

 2017-02-10 17:20:58.027875+01 | 1486743658.02787 | 5/748F3588               |           23430378888

 2017-02-10 17:20:59.110966+01 | 1486743659.11097 | 5/74E2DB60               |           23435860832

 2017-02-10 17:21:00.189705+01 | 1486743660.1897 | 5/75353AF0               |           23441259248

 2017-02-10 17:21:01.280816+01 | 1486743661.28082 | 5/758905C0               |           23446750656

 2017-02-10 17:21:02.356088+01 | 1486743662.35609 | 5/75DCCC90               |           23452241040

 2017-02-10 17:21:03.446106+01 | 1486743663.44611 | 5/76315408               |           23457780744

 2017-02-10 17:21:04.529652+01 | 1486743664.52965 | 5/76853328               |           23463277352

 2017-02-10 17:21:05.610751+01 | 1486743665.61075 | 5/76D73678               |           23468652152

 2017-02-10 17:21:06.696364+01 | 1486743666.69636 | 5/772A1860               |           23474083936

 2017-02-10 17:21:07.783424+01 | 1486743667.78342 | 5/777EDC88               |           23479639176

 2017-02-10 17:21:08.866976+01 | 1486743668.86698 | 5/77D37C60               |           23485185120

 2017-02-10 17:21:09.959022+01 | 1486743669.95902 | 5/7827DB38               |           23490714424

 2017-02-10 17:21:11.039991+01 | 1486743671.03999 | 5/787B1B70               |           23496170352

 2017-02-10 17:21:12.130989+01 | 1486743672.13099 | 5/78CE7BC0               |           23501634496

 2017-02-10 17:21:13.208146+01 | 1486743673.20815 | 5/7921A868               |           23507085416

 2017-02-10 17:21:14.297675+01 | 1486743674.29767 | 5/79753358               |           23512560472

 2017-02-10 17:21:15.400517+01 | 1486743675.40052 | 5/79CA4948               |           23518136648

 2017-02-10 17:21:16.496384+01 | 1486743676.49638 | 5/7A1EBA08               |           23523670536

 2017-02-10 17:21:17.583532+01 | 1486743677.58353 | 5/7A723928               |           23529142568

 2017-02-10 17:21:18.669685+01 | 1486743678.66968 | 5/7AC397F8               |           23534475256

 2017-02-10 17:21:19.749068+01 | 1486743679.74907 | 5/7B15D9F8               |           23539866104

 2017-02-10 17:21:20.837002+01 | 1486743680.837 | 5/7B695FE0               |           23545339872

 2017-02-10 17:21:21.917206+01 | 1486743681.91721 | 5/7BBD8EC8               |           23550856904

 2017-02-10 17:21:22.976451+01 | 1486743682.97645 | 5/7C10A310               |           23556301584

 2017-02-10 17:21:24.058276+01 | 1486743684.05828 | 5/7C608060               |           23561535584

 2017-02-10 17:21:25.15363+01 | 1486743685.15363 | 5/7CB53958               |           23567087960

 2017-02-10 17:21:26.237272+01 | 1486743686.23727 | 5/7D0A10D8               |           23572648152

 2017-02-10 17:21:27.315868+01 | 1486743687.31587 | 5/7D5B1980               |           23577958784

 2017-02-10 17:21:28.39352+01 | 1486743688.39352 | 5/7DAC9FF0               |           23583301616

 2017-02-10 17:21:29.51154+01 | 1486743689.51154 | 5/7E02EC88               |           23588957320

 2017-02-10 17:21:30.606574+01 | 1486743690.60657 | 5/7E551FC8               |           23594344392

 2017-02-10 17:21:31.676258+01 | 1486743691.67626 | 5/7EB88A28               |           23600859688

 2017-02-10 17:21:32.786403+01 | 1486743692.7864 | 5/7F2ACCE8               |           23608347880

 2017-02-10 17:21:33.867369+01 | 1486743693.86737 | 5/7FA22D98               |           23616171416

 2017-02-10 17:21:34.937188+01 | 1486743694.93719 | 5/80107BA0               |           23623400352

 2017-02-10 17:21:36.008477+01 | 1486743696.00848 | 5/806DEE40               |           23629524544

 2017-02-10 17:21:37.097839+01 | 1486743697.09784 | 5/80C41738               |           23635171128

 2017-02-10 17:21:38.175013+01 | 1486743698.17501 | 5/8110F888               |           23640209544

 2017-02-10 17:21:39.252512+01 | 1486743699.25251 | 5/816522F0               |           23645725424

 2017-02-10 17:21:40.341519+01 | 1486743700.34152 | 5/81B8D420               |           23651210272

 2017-02-10 17:21:41.412502+01 | 1486743701.4125 | 5/820C3030               |           23656673328

 2017-02-10 17:21:42.502712+01 | 1486743702.50271 | 5/8261CDB0               |           23662284208

 2017-02-10 17:21:43.582888+01 | 1486743703.58289 | 5/82B4B028               |           23667716136

 2017-02-10 17:21:44.650543+01 | 1486743704.65054 | 5/8306FA88               |           23673109128

 2017-02-10 17:21:45.729643+01 | 1486743705.72964 | 5/835A3240               |           23678562880

 2017-02-10 17:21:46.814101+01 | 1486743706.8141 | 5/83AC88D0               |           23683958992

 2017-02-10 17:21:47.917857+01 | 1486743707.91786 | 5/84029E48               |           23689600584

 2017-02-10 17:21:49.005904+01 | 1486743709.0059 | 5/84569768               |           23695103848

 2017-02-10 17:21:50.083191+01 | 1486743710.08319 | 5/84A8D308               |           23700493064

 2017-02-10 17:21:51.17971+01 | 1486743711.17971 | 5/84FC9C10               |           23705984016

 2017-02-10 17:21:52.270384+01 | 1486743712.27038 | 5/854F0DB0               |           23711387056

 2017-02-10 17:21:53.33474+01 | 1486743713.33474 | 5/85A07000               |           23716720640

 2017-02-10 17:21:54.398896+01 | 1486743714.3989 | 5/85F44B10               |           23722216208

 2017-02-10 17:21:55.487684+01 | 1486743715.48768 | 5/8648B120               |           23727747360

 2017-02-10 17:21:56.560075+01 | 1486743716.56008 | 5/86996C80               |           23733038208

 2017-02-10 17:21:57.635677+01 | 1486743717.63568 | 5/86EA8000               |           23738351616

 2017-02-10 17:21:58.744151+01 | 1486743718.74415 | 5/8740AA08               |           23743998472

 2017-02-10 17:21:59.825506+01 | 1486743719.82551 | 5/87942C00               |           23749471232

 2017-02-10 17:22:00.912552+01 | 1486743720.91255 | 5/87E7F4B0               |           23754962096

 2017-02-10 17:22:02.002668+01 | 1486743722.00267 | 5/883A73A8               |           23760368552

 2017-02-10 17:22:03.074717+01 | 1486743723.07472 | 5/888AB640               |           23765628480

 2017-02-10 17:22:04.162904+01 | 1486743724.1629 | 5/88DD6428               |           23771046952

 2017-02-10 17:22:05.243121+01 | 1486743725.24312 | 5/893100E0               |           23776526560

 2017-02-10 17:22:06.325194+01 | 1486743726.32519 | 5/89851100               |           23782035712

 2017-02-10 17:22:07.392033+01 | 1486743727.39203 | 5/89D765A8               |           23787431336

 2017-02-10 17:22:08.483879+01 | 1486743728.48388 | 5/8A2AC540               |           23792895296

 2017-02-10 17:22:09.58049+01 | 1486743729.58049 | 5/8A7C7AD0               |           23798250192

 2017-02-10 17:22:10.658518+01 | 1486743730.65852 | 5/8ACDF148               |           23803588936

 2017-02-10 17:22:11.752022+01 | 1486743731.75202 | 5/8B21E7E8               |           23809091560

 2017-02-10 17:22:12.846838+01 | 1486743732.84684 | 5/8B7625A8               |           23814612392

 2017-02-10 17:22:13.930426+01 | 1486743733.93043 | 5/8BC9B6C8               |           23820089032

 2017-02-10 17:22:15.013797+01 | 1486743735.0138 | 5/8C1BA4D0               |           23825458384

 2017-02-10 17:22:16.095635+01 | 1486743736.09563 | 5/8C6E6AA8               |           23830882984

 2017-02-10 17:22:17.180321+01 | 1486743737.18032 | 5/8CC2DFD8               |           23836418008

 2017-02-10 17:22:18.272015+01 | 1486743738.27202 | 5/8D16B760               |           23841912672

