 2017-02-10 18:43:52.540444+01 | 1486748632.54044 | pgbench_accounts |       4133101568
 2017-02-10 18:43:52.540444+01 | 1486748632.54044 | pgbench_tellers  |           139264
 2017-02-10 18:43:52.540444+01 | 1486748632.54044 | pgbench_history  |           196608
 2017-02-10 18:43:52.540444+01 | 1486748632.54044 | pgbench_branches |            16384

 2017-02-10 18:43:53.610014+01 | 1486748633.61001 | pgbench_accounts |       4133101568
 2017-02-10 18:43:53.610014+01 | 1486748633.61001 | pgbench_tellers  |           139264
 2017-02-10 18:43:53.610014+01 | 1486748633.61001 | pgbench_history  |           794624
 2017-02-10 18:43:53.610014+01 | 1486748633.61001 | pgbench_branches |            16384

 2017-02-10 18:43:54.675281+01 | 1486748634.67528 | pgbench_accounts |       4133101568
 2017-02-10 18:43:54.675281+01 | 1486748634.67528 | pgbench_tellers  |           139264
 2017-02-10 18:43:54.675281+01 | 1486748634.67528 | pgbench_history  |          1548288
 2017-02-10 18:43:54.675281+01 | 1486748634.67528 | pgbench_branches |            16384

 2017-02-10 18:43:55.749542+01 | 1486748635.74954 | pgbench_accounts |       4133101568
 2017-02-10 18:43:55.749542+01 | 1486748635.74954 | pgbench_tellers  |           139264
 2017-02-10 18:43:55.749542+01 | 1486748635.74954 | pgbench_history  |          2416640
 2017-02-10 18:43:55.749542+01 | 1486748635.74954 | pgbench_branches |            16384

 2017-02-10 18:43:56.815109+01 | 1486748636.81511 | pgbench_accounts |       4133101568
 2017-02-10 18:43:56.815109+01 | 1486748636.81511 | pgbench_tellers  |           139264
 2017-02-10 18:43:56.815109+01 | 1486748636.81511 | pgbench_history  |          3358720
 2017-02-10 18:43:56.815109+01 | 1486748636.81511 | pgbench_branches |            16384

 2017-02-10 18:43:57.888782+01 | 1486748637.88878 | pgbench_accounts |       4133101568
 2017-02-10 18:43:57.888782+01 | 1486748637.88878 | pgbench_tellers  |           139264
 2017-02-10 18:43:57.888782+01 | 1486748637.88878 | pgbench_history  |          4096000
 2017-02-10 18:43:57.888782+01 | 1486748637.88878 | pgbench_branches |            16384

 2017-02-10 18:43:58.967834+01 | 1486748638.96783 | pgbench_accounts |       4133101568
 2017-02-10 18:43:58.967834+01 | 1486748638.96783 | pgbench_tellers  |           139264
 2017-02-10 18:43:58.967834+01 | 1486748638.96783 | pgbench_history  |          4866048
 2017-02-10 18:43:58.967834+01 | 1486748638.96783 | pgbench_branches |            16384

 2017-02-10 18:44:00.05223+01 | 1486748640.05223 | pgbench_accounts |       4133101568
 2017-02-10 18:44:00.05223+01 | 1486748640.05223 | pgbench_tellers  |           139264
 2017-02-10 18:44:00.05223+01 | 1486748640.05223 | pgbench_history  |          5931008
 2017-02-10 18:44:00.05223+01 | 1486748640.05223 | pgbench_branches |            16384

 2017-02-10 18:44:01.130875+01 | 1486748641.13088 | pgbench_accounts |       4133101568
 2017-02-10 18:44:01.130875+01 | 1486748641.13088 | pgbench_tellers  |           139264
 2017-02-10 18:44:01.130875+01 | 1486748641.13088 | pgbench_history  |          6586368
 2017-02-10 18:44:01.130875+01 | 1486748641.13088 | pgbench_branches |            16384

 2017-02-10 18:44:02.206337+01 | 1486748642.20634 | pgbench_accounts |       4133101568
 2017-02-10 18:44:02.206337+01 | 1486748642.20634 | pgbench_tellers  |           139264
 2017-02-10 18:44:02.206337+01 | 1486748642.20634 | pgbench_history  |          7512064
 2017-02-10 18:44:02.206337+01 | 1486748642.20634 | pgbench_branches |            16384

 2017-02-10 18:44:03.289899+01 | 1486748643.2899 | pgbench_accounts |       4133101568
 2017-02-10 18:44:03.289899+01 | 1486748643.2899 | pgbench_tellers  |           139264
 2017-02-10 18:44:03.289899+01 | 1486748643.2899 | pgbench_history  |          8380416
 2017-02-10 18:44:03.289899+01 | 1486748643.2899 | pgbench_branches |            16384

 2017-02-10 18:44:04.366357+01 | 1486748644.36636 | pgbench_accounts |       4133101568
 2017-02-10 18:44:04.366357+01 | 1486748644.36636 | pgbench_tellers  |           139264
 2017-02-10 18:44:04.366357+01 | 1486748644.36636 | pgbench_history  |          9175040
 2017-02-10 18:44:04.366357+01 | 1486748644.36636 | pgbench_branches |            16384

 2017-02-10 18:44:05.43216+01 | 1486748645.43216 | pgbench_accounts |       4133101568
 2017-02-10 18:44:05.43216+01 | 1486748645.43216 | pgbench_tellers  |           139264
 2017-02-10 18:44:05.43216+01 | 1486748645.43216 | pgbench_history  |         10280960
 2017-02-10 18:44:05.43216+01 | 1486748645.43216 | pgbench_branches |            16384

 2017-02-10 18:44:06.496395+01 | 1486748646.4964 | pgbench_accounts |       4133101568
 2017-02-10 18:44:06.496395+01 | 1486748646.4964 | pgbench_tellers  |           139264
 2017-02-10 18:44:06.496395+01 | 1486748646.4964 | pgbench_history  |         11198464
 2017-02-10 18:44:06.496395+01 | 1486748646.4964 | pgbench_branches |            16384

 2017-02-10 18:44:07.565108+01 | 1486748647.56511 | pgbench_accounts |       4133101568
 2017-02-10 18:44:07.565108+01 | 1486748647.56511 | pgbench_tellers  |           139264
 2017-02-10 18:44:07.565108+01 | 1486748647.56511 | pgbench_history  |         11976704
 2017-02-10 18:44:07.565108+01 | 1486748647.56511 | pgbench_branches |            16384

 2017-02-10 18:44:08.634109+01 | 1486748648.63411 | pgbench_accounts |       4133101568
 2017-02-10 18:44:08.634109+01 | 1486748648.63411 | pgbench_tellers  |           139264
 2017-02-10 18:44:08.634109+01 | 1486748648.63411 | pgbench_history  |         13082624
 2017-02-10 18:44:08.634109+01 | 1486748648.63411 | pgbench_branches |            16384

 2017-02-10 18:44:09.704933+01 | 1486748649.70493 | pgbench_accounts |       4133101568
 2017-02-10 18:44:09.704933+01 | 1486748649.70493 | pgbench_tellers  |           139264
 2017-02-10 18:44:09.704933+01 | 1486748649.70493 | pgbench_history  |         13828096
 2017-02-10 18:44:09.704933+01 | 1486748649.70493 | pgbench_branches |            16384

 2017-02-10 18:44:10.789126+01 | 1486748650.78913 | pgbench_accounts |       4133101568
 2017-02-10 18:44:10.789126+01 | 1486748650.78913 | pgbench_tellers  |           139264
 2017-02-10 18:44:10.789126+01 | 1486748650.78913 | pgbench_history  |         14917632
 2017-02-10 18:44:10.789126+01 | 1486748650.78913 | pgbench_branches |            16384

 2017-02-10 18:44:11.86969+01 | 1486748651.86969 | pgbench_accounts |       4133101568
 2017-02-10 18:44:11.86969+01 | 1486748651.86969 | pgbench_tellers  |           139264
 2017-02-10 18:44:11.86969+01 | 1486748651.86969 | pgbench_history  |         15630336
 2017-02-10 18:44:11.86969+01 | 1486748651.86969 | pgbench_branches |            16384

 2017-02-10 18:44:12.943867+01 | 1486748652.94387 | pgbench_accounts |       4133101568
 2017-02-10 18:44:12.943867+01 | 1486748652.94387 | pgbench_tellers  |           139264
 2017-02-10 18:44:12.943867+01 | 1486748652.94387 | pgbench_history  |         16834560
 2017-02-10 18:44:12.943867+01 | 1486748652.94387 | pgbench_branches |            16384

 2017-02-10 18:44:14.015908+01 | 1486748654.01591 | pgbench_accounts |       4133101568
 2017-02-10 18:44:14.015908+01 | 1486748654.01591 | pgbench_tellers  |           139264
 2017-02-10 18:44:14.015908+01 | 1486748654.01591 | pgbench_history  |         17465344
 2017-02-10 18:44:14.015908+01 | 1486748654.01591 | pgbench_branches |            16384

 2017-02-10 18:44:15.09226+01 | 1486748655.09226 | pgbench_accounts |       4133101568
 2017-02-10 18:44:15.09226+01 | 1486748655.09226 | pgbench_tellers  |           139264
 2017-02-10 18:44:15.09226+01 | 1486748655.09226 | pgbench_history  |         18235392
 2017-02-10 18:44:15.09226+01 | 1486748655.09226 | pgbench_branches |            16384

 2017-02-10 18:44:16.181484+01 | 1486748656.18148 | pgbench_accounts |       4133101568
 2017-02-10 18:44:16.181484+01 | 1486748656.18148 | pgbench_tellers  |           139264
 2017-02-10 18:44:16.181484+01 | 1486748656.18148 | pgbench_history  |         19398656
 2017-02-10 18:44:16.181484+01 | 1486748656.18148 | pgbench_branches |            16384

 2017-02-10 18:44:17.264017+01 | 1486748657.26402 | pgbench_accounts |       4133101568
 2017-02-10 18:44:17.264017+01 | 1486748657.26402 | pgbench_tellers  |           139264
 2017-02-10 18:44:17.264017+01 | 1486748657.26402 | pgbench_history  |         20135936
 2017-02-10 18:44:17.264017+01 | 1486748657.26402 | pgbench_branches |            16384

 2017-02-10 18:44:18.350984+01 | 1486748658.35098 | pgbench_accounts |       4133101568
 2017-02-10 18:44:18.350984+01 | 1486748658.35098 | pgbench_tellers  |           139264
 2017-02-10 18:44:18.350984+01 | 1486748658.35098 | pgbench_history  |         21520384
 2017-02-10 18:44:18.350984+01 | 1486748658.35098 | pgbench_branches |            16384

 2017-02-10 18:44:19.414579+01 | 1486748659.41458 | pgbench_accounts |       4133101568
 2017-02-10 18:44:19.414579+01 | 1486748659.41458 | pgbench_tellers  |           139264
 2017-02-10 18:44:19.414579+01 | 1486748659.41458 | pgbench_history  |         22274048
 2017-02-10 18:44:19.414579+01 | 1486748659.41458 | pgbench_branches |            16384

 2017-02-10 18:44:20.487043+01 | 1486748660.48704 | pgbench_accounts |       4133101568
 2017-02-10 18:44:20.487043+01 | 1486748660.48704 | pgbench_tellers  |           139264
 2017-02-10 18:44:20.487043+01 | 1486748660.48704 | pgbench_history  |         22953984
 2017-02-10 18:44:20.487043+01 | 1486748660.48704 | pgbench_branches |            16384

 2017-02-10 18:44:21.563622+01 | 1486748661.56362 | pgbench_accounts |       4133101568
 2017-02-10 18:44:21.563622+01 | 1486748661.56362 | pgbench_tellers  |           139264
 2017-02-10 18:44:21.563622+01 | 1486748661.56362 | pgbench_history  |         24223744
 2017-02-10 18:44:21.563622+01 | 1486748661.56362 | pgbench_branches |            16384

 2017-02-10 18:44:22.639347+01 | 1486748662.63935 | pgbench_accounts |       4133101568
 2017-02-10 18:44:22.639347+01 | 1486748662.63935 | pgbench_tellers  |           139264
 2017-02-10 18:44:22.639347+01 | 1486748662.63935 | pgbench_history  |         24674304
 2017-02-10 18:44:22.639347+01 | 1486748662.63935 | pgbench_branches |            16384

 2017-02-10 18:44:23.712831+01 | 1486748663.71283 | pgbench_accounts |       4133101568
 2017-02-10 18:44:23.712831+01 | 1486748663.71283 | pgbench_tellers  |           139264
 2017-02-10 18:44:23.712831+01 | 1486748663.71283 | pgbench_history  |         25673728
 2017-02-10 18:44:23.712831+01 | 1486748663.71283 | pgbench_branches |            16384

 2017-02-10 18:44:24.789096+01 | 1486748664.7891 | pgbench_accounts |       4133101568
 2017-02-10 18:44:24.789096+01 | 1486748664.7891 | pgbench_tellers  |           139264
 2017-02-10 18:44:24.789096+01 | 1486748664.7891 | pgbench_history  |         26509312
 2017-02-10 18:44:24.789096+01 | 1486748664.7891 | pgbench_branches |            16384

 2017-02-10 18:44:25.873417+01 | 1486748665.87342 | pgbench_accounts |       4133101568
 2017-02-10 18:44:25.873417+01 | 1486748665.87342 | pgbench_tellers  |           139264
 2017-02-10 18:44:25.873417+01 | 1486748665.87342 | pgbench_history  |         27410432
 2017-02-10 18:44:25.873417+01 | 1486748665.87342 | pgbench_branches |            16384

 2017-02-10 18:44:26.95739+01 | 1486748666.95739 | pgbench_accounts |       4133101568
 2017-02-10 18:44:26.95739+01 | 1486748666.95739 | pgbench_tellers  |           139264
 2017-02-10 18:44:26.95739+01 | 1486748666.95739 | pgbench_history  |         28467200
 2017-02-10 18:44:26.95739+01 | 1486748666.95739 | pgbench_branches |            16384

 2017-02-10 18:44:28.046919+01 | 1486748668.04692 | pgbench_accounts |       4133101568
 2017-02-10 18:44:28.046919+01 | 1486748668.04692 | pgbench_tellers  |           139264
 2017-02-10 18:44:28.046919+01 | 1486748668.04692 | pgbench_history  |         29392896
 2017-02-10 18:44:28.046919+01 | 1486748668.04692 | pgbench_branches |            16384

 2017-02-10 18:44:29.116596+01 | 1486748669.1166 | pgbench_accounts |       4133101568
 2017-02-10 18:44:29.116596+01 | 1486748669.1166 | pgbench_tellers  |           139264
 2017-02-10 18:44:29.116596+01 | 1486748669.1166 | pgbench_history  |         30613504
 2017-02-10 18:44:29.116596+01 | 1486748669.1166 | pgbench_branches |            16384

 2017-02-10 18:44:30.190257+01 | 1486748670.19026 | pgbench_accounts |       4133101568
 2017-02-10 18:44:30.190257+01 | 1486748670.19026 | pgbench_tellers  |           139264
 2017-02-10 18:44:30.190257+01 | 1486748670.19026 | pgbench_history  |         31137792
 2017-02-10 18:44:30.190257+01 | 1486748670.19026 | pgbench_branches |            16384

 2017-02-10 18:44:31.265617+01 | 1486748671.26562 | pgbench_accounts |       4133101568
 2017-02-10 18:44:31.265617+01 | 1486748671.26562 | pgbench_tellers  |           139264
 2017-02-10 18:44:31.265617+01 | 1486748671.26562 | pgbench_history  |         32055296
 2017-02-10 18:44:31.265617+01 | 1486748671.26562 | pgbench_branches |            16384

 2017-02-10 18:44:32.331156+01 | 1486748672.33116 | pgbench_accounts |       4133101568
 2017-02-10 18:44:32.331156+01 | 1486748672.33116 | pgbench_tellers  |           139264
 2017-02-10 18:44:32.331156+01 | 1486748672.33116 | pgbench_history  |         33054720
 2017-02-10 18:44:32.331156+01 | 1486748672.33116 | pgbench_branches |            16384

 2017-02-10 18:44:33.411848+01 | 1486748673.41185 | pgbench_accounts |       4133101568
 2017-02-10 18:44:33.411848+01 | 1486748673.41185 | pgbench_tellers  |           139264
 2017-02-10 18:44:33.411848+01 | 1486748673.41185 | pgbench_history  |         34144256
 2017-02-10 18:44:33.411848+01 | 1486748673.41185 | pgbench_branches |            16384

 2017-02-10 18:44:34.504162+01 | 1486748674.50416 | pgbench_accounts |       4133101568
 2017-02-10 18:44:34.504162+01 | 1486748674.50416 | pgbench_tellers  |           139264
 2017-02-10 18:44:34.504162+01 | 1486748674.50416 | pgbench_history  |         34988032
 2017-02-10 18:44:34.504162+01 | 1486748674.50416 | pgbench_branches |            16384

 2017-02-10 18:44:35.573977+01 | 1486748675.57398 | pgbench_accounts |       4133101568
 2017-02-10 18:44:35.573977+01 | 1486748675.57398 | pgbench_tellers  |           139264
 2017-02-10 18:44:35.573977+01 | 1486748675.57398 | pgbench_history  |         36601856
 2017-02-10 18:44:35.573977+01 | 1486748675.57398 | pgbench_branches |            16384

 2017-02-10 18:44:36.647802+01 | 1486748676.6478 | pgbench_accounts |       4133101568
 2017-02-10 18:44:36.647802+01 | 1486748676.6478 | pgbench_tellers  |           139264
 2017-02-10 18:44:36.647802+01 | 1486748676.6478 | pgbench_history  |         37322752
 2017-02-10 18:44:36.647802+01 | 1486748676.6478 | pgbench_branches |            16384

 2017-02-10 18:44:37.730861+01 | 1486748677.73086 | pgbench_accounts |       4133101568
 2017-02-10 18:44:37.730861+01 | 1486748677.73086 | pgbench_tellers  |           139264
 2017-02-10 18:44:37.730861+01 | 1486748677.73086 | pgbench_history  |         38993920
 2017-02-10 18:44:37.730861+01 | 1486748677.73086 | pgbench_branches |            16384

 2017-02-10 18:44:38.80752+01 | 1486748678.80752 | pgbench_accounts |       4133101568
 2017-02-10 18:44:38.80752+01 | 1486748678.80752 | pgbench_tellers  |           139264
 2017-02-10 18:44:38.80752+01 | 1486748678.80752 | pgbench_history  |         38993920
 2017-02-10 18:44:38.80752+01 | 1486748678.80752 | pgbench_branches |            16384

 2017-02-10 18:44:39.878252+01 | 1486748679.87825 | pgbench_accounts |       4133101568
 2017-02-10 18:44:39.878252+01 | 1486748679.87825 | pgbench_tellers  |           139264
 2017-02-10 18:44:39.878252+01 | 1486748679.87825 | pgbench_history  |         40271872
 2017-02-10 18:44:39.878252+01 | 1486748679.87825 | pgbench_branches |            16384

 2017-02-10 18:44:40.970298+01 | 1486748680.9703 | pgbench_accounts |       4133101568
 2017-02-10 18:44:40.970298+01 | 1486748680.9703 | pgbench_tellers  |           139264
 2017-02-10 18:44:40.970298+01 | 1486748680.9703 | pgbench_history  |         40624128
 2017-02-10 18:44:40.970298+01 | 1486748680.9703 | pgbench_branches |            16384

 2017-02-10 18:44:42.055196+01 | 1486748682.0552 | pgbench_accounts |       4133101568
 2017-02-10 18:44:42.055196+01 | 1486748682.0552 | pgbench_tellers  |           139264
 2017-02-10 18:44:42.055196+01 | 1486748682.0552 | pgbench_history  |         41590784
 2017-02-10 18:44:42.055196+01 | 1486748682.0552 | pgbench_branches |            16384

 2017-02-10 18:44:43.149514+01 | 1486748683.14951 | pgbench_accounts |       4133101568
 2017-02-10 18:44:43.149514+01 | 1486748683.14951 | pgbench_tellers  |           139264
 2017-02-10 18:44:43.149514+01 | 1486748683.14951 | pgbench_history  |         42500096
 2017-02-10 18:44:43.149514+01 | 1486748683.14951 | pgbench_branches |            16384

 2017-02-10 18:44:44.243848+01 | 1486748684.24385 | pgbench_accounts |       4133101568
 2017-02-10 18:44:44.243848+01 | 1486748684.24385 | pgbench_tellers  |           139264
 2017-02-10 18:44:44.243848+01 | 1486748684.24385 | pgbench_history  |         43450368
 2017-02-10 18:44:44.243848+01 | 1486748684.24385 | pgbench_branches |            16384

 2017-02-10 18:44:45.333726+01 | 1486748685.33373 | pgbench_accounts |       4133101568
 2017-02-10 18:44:45.333726+01 | 1486748685.33373 | pgbench_tellers  |           139264
 2017-02-10 18:44:45.333726+01 | 1486748685.33373 | pgbench_history  |         44400640
 2017-02-10 18:44:45.333726+01 | 1486748685.33373 | pgbench_branches |            16384

 2017-02-10 18:44:46.423831+01 | 1486748686.42383 | pgbench_accounts |       4133101568
 2017-02-10 18:44:46.423831+01 | 1486748686.42383 | pgbench_tellers  |           139264
 2017-02-10 18:44:46.423831+01 | 1486748686.42383 | pgbench_history  |         45375488
 2017-02-10 18:44:46.423831+01 | 1486748686.42383 | pgbench_branches |            16384

 2017-02-10 18:44:47.487065+01 | 1486748687.48707 | pgbench_accounts |       4133101568
 2017-02-10 18:44:47.487065+01 | 1486748687.48707 | pgbench_tellers  |           139264
 2017-02-10 18:44:47.487065+01 | 1486748687.48707 | pgbench_history  |         46620672
 2017-02-10 18:44:47.487065+01 | 1486748687.48707 | pgbench_branches |            16384

 2017-02-10 18:44:48.575127+01 | 1486748688.57513 | pgbench_accounts |       4133101568
 2017-02-10 18:44:48.575127+01 | 1486748688.57513 | pgbench_tellers  |           139264
 2017-02-10 18:44:48.575127+01 | 1486748688.57513 | pgbench_history  |         47210496
 2017-02-10 18:44:48.575127+01 | 1486748688.57513 | pgbench_branches |            16384

 2017-02-10 18:44:49.658854+01 | 1486748689.65885 | pgbench_accounts |       4133101568
 2017-02-10 18:44:49.658854+01 | 1486748689.65885 | pgbench_tellers  |           139264
 2017-02-10 18:44:49.658854+01 | 1486748689.65885 | pgbench_history  |         48234496
 2017-02-10 18:44:49.658854+01 | 1486748689.65885 | pgbench_branches |            16384

 2017-02-10 18:44:50.742911+01 | 1486748690.74291 | pgbench_accounts |       4133101568
 2017-02-10 18:44:50.742911+01 | 1486748690.74291 | pgbench_tellers  |           139264
 2017-02-10 18:44:50.742911+01 | 1486748690.74291 | pgbench_history  |         49422336
 2017-02-10 18:44:50.742911+01 | 1486748690.74291 | pgbench_branches |            16384

 2017-02-10 18:44:51.825586+01 | 1486748691.82559 | pgbench_accounts |       4133101568
 2017-02-10 18:44:51.825586+01 | 1486748691.82559 | pgbench_tellers  |           139264
 2017-02-10 18:44:51.825586+01 | 1486748691.82559 | pgbench_history  |         50315264
 2017-02-10 18:44:51.825586+01 | 1486748691.82559 | pgbench_branches |            16384

 2017-02-10 18:44:52.882728+01 | 1486748692.88273 | pgbench_accounts |       4133101568
 2017-02-10 18:44:52.882728+01 | 1486748692.88273 | pgbench_tellers  |           139264
 2017-02-10 18:44:52.882728+01 | 1486748692.88273 | pgbench_history  |         51134464
 2017-02-10 18:44:52.882728+01 | 1486748692.88273 | pgbench_branches |            16384

 2017-02-10 18:44:53.974436+01 | 1486748693.97444 | pgbench_accounts |       4133101568
 2017-02-10 18:44:53.974436+01 | 1486748693.97444 | pgbench_tellers  |           139264
 2017-02-10 18:44:53.974436+01 | 1486748693.97444 | pgbench_history  |         52109312
 2017-02-10 18:44:53.974436+01 | 1486748693.97444 | pgbench_branches |            16384

 2017-02-10 18:44:55.061537+01 | 1486748695.06154 | pgbench_accounts |       4133101568
 2017-02-10 18:44:55.061537+01 | 1486748695.06154 | pgbench_tellers  |           139264
 2017-02-10 18:44:55.061537+01 | 1486748695.06154 | pgbench_history  |         52977664
 2017-02-10 18:44:55.061537+01 | 1486748695.06154 | pgbench_branches |            16384

 2017-02-10 18:44:56.153273+01 | 1486748696.15327 | pgbench_accounts |       4133101568
 2017-02-10 18:44:56.153273+01 | 1486748696.15327 | pgbench_tellers  |           139264
 2017-02-10 18:44:56.153273+01 | 1486748696.15327 | pgbench_history  |         53862400
 2017-02-10 18:44:56.153273+01 | 1486748696.15327 | pgbench_branches |            16384

 2017-02-10 18:44:57.229272+01 | 1486748697.22927 | pgbench_accounts |       4133101568
 2017-02-10 18:44:57.229272+01 | 1486748697.22927 | pgbench_tellers  |           139264
 2017-02-10 18:44:57.229272+01 | 1486748697.22927 | pgbench_history  |         54878208
 2017-02-10 18:44:57.229272+01 | 1486748697.22927 | pgbench_branches |            16384

 2017-02-10 18:44:58.302426+01 | 1486748698.30243 | pgbench_accounts |       4133101568
 2017-02-10 18:44:58.302426+01 | 1486748698.30243 | pgbench_tellers  |           139264
 2017-02-10 18:44:58.302426+01 | 1486748698.30243 | pgbench_history  |         55779328
 2017-02-10 18:44:58.302426+01 | 1486748698.30243 | pgbench_branches |            16384

 2017-02-10 18:44:59.391132+01 | 1486748699.39113 | pgbench_accounts |       4133101568
 2017-02-10 18:44:59.391132+01 | 1486748699.39113 | pgbench_tellers  |           139264
 2017-02-10 18:44:59.391132+01 | 1486748699.39113 | pgbench_history  |         56901632
 2017-02-10 18:44:59.391132+01 | 1486748699.39113 | pgbench_branches |            16384

 2017-02-10 18:45:00.460603+01 | 1486748700.4606 | pgbench_accounts |       4133101568
 2017-02-10 18:45:00.460603+01 | 1486748700.4606 | pgbench_tellers  |           139264
 2017-02-10 18:45:00.460603+01 | 1486748700.4606 | pgbench_history  |         57753600
 2017-02-10 18:45:00.460603+01 | 1486748700.4606 | pgbench_branches |            16384

 2017-02-10 18:45:01.530836+01 | 1486748701.53084 | pgbench_accounts |       4133101568
 2017-02-10 18:45:01.530836+01 | 1486748701.53084 | pgbench_tellers  |           139264
 2017-02-10 18:45:01.530836+01 | 1486748701.53084 | pgbench_history  |         58662912
 2017-02-10 18:45:01.530836+01 | 1486748701.53084 | pgbench_branches |            16384

 2017-02-10 18:45:02.598665+01 | 1486748702.59866 | pgbench_accounts |       4133101568
 2017-02-10 18:45:02.598665+01 | 1486748702.59866 | pgbench_tellers  |           139264
 2017-02-10 18:45:02.598665+01 | 1486748702.59866 | pgbench_history  |         59645952
 2017-02-10 18:45:02.598665+01 | 1486748702.59866 | pgbench_branches |            16384

 2017-02-10 18:45:03.661812+01 | 1486748703.66181 | pgbench_accounts |       4133101568
 2017-02-10 18:45:03.661812+01 | 1486748703.66181 | pgbench_tellers  |           139264
 2017-02-10 18:45:03.661812+01 | 1486748703.66181 | pgbench_history  |         60538880
 2017-02-10 18:45:03.661812+01 | 1486748703.66181 | pgbench_branches |            16384

 2017-02-10 18:45:04.74135+01 | 1486748704.74135 | pgbench_accounts |       4133101568
 2017-02-10 18:45:04.74135+01 | 1486748704.74135 | pgbench_tellers  |           139264
 2017-02-10 18:45:04.74135+01 | 1486748704.74135 | pgbench_history  |         62103552
 2017-02-10 18:45:04.74135+01 | 1486748704.74135 | pgbench_branches |            16384

 2017-02-10 18:45:05.821078+01 | 1486748705.82108 | pgbench_accounts |       4133101568
 2017-02-10 18:45:05.821078+01 | 1486748705.82108 | pgbench_tellers  |           139264
 2017-02-10 18:45:05.821078+01 | 1486748705.82108 | pgbench_history  |         62455808
 2017-02-10 18:45:05.821078+01 | 1486748705.82108 | pgbench_branches |            16384

 2017-02-10 18:45:06.898498+01 | 1486748706.8985 | pgbench_accounts |       4133101568
 2017-02-10 18:45:06.898498+01 | 1486748706.8985 | pgbench_tellers  |           139264
 2017-02-10 18:45:06.898498+01 | 1486748706.8985 | pgbench_history  |         63315968
 2017-02-10 18:45:06.898498+01 | 1486748706.8985 | pgbench_branches |            16384

 2017-02-10 18:45:07.993652+01 | 1486748707.99365 | pgbench_accounts |       4133101568
 2017-02-10 18:45:07.993652+01 | 1486748707.99365 | pgbench_tellers  |           139264
 2017-02-10 18:45:07.993652+01 | 1486748707.99365 | pgbench_history  |         64241664
 2017-02-10 18:45:07.993652+01 | 1486748707.99365 | pgbench_branches |            16384

 2017-02-10 18:45:09.071883+01 | 1486748709.07188 | pgbench_accounts |       4133101568
 2017-02-10 18:45:09.071883+01 | 1486748709.07188 | pgbench_tellers  |           139264
 2017-02-10 18:45:09.071883+01 | 1486748709.07188 | pgbench_history  |         65150976
 2017-02-10 18:45:09.071883+01 | 1486748709.07188 | pgbench_branches |            16384

 2017-02-10 18:45:10.164422+01 | 1486748710.16442 | pgbench_accounts |       4133101568
 2017-02-10 18:45:10.164422+01 | 1486748710.16442 | pgbench_tellers  |           139264
 2017-02-10 18:45:10.164422+01 | 1486748710.16442 | pgbench_history  |         66347008
 2017-02-10 18:45:10.164422+01 | 1486748710.16442 | pgbench_branches |            16384

 2017-02-10 18:45:11.249699+01 | 1486748711.2497 | pgbench_accounts |       4133101568
 2017-02-10 18:45:11.249699+01 | 1486748711.2497 | pgbench_tellers  |           139264
 2017-02-10 18:45:11.249699+01 | 1486748711.2497 | pgbench_history  |         67452928
 2017-02-10 18:45:11.249699+01 | 1486748711.2497 | pgbench_branches |            16384

 2017-02-10 18:45:12.329272+01 | 1486748712.32927 | pgbench_accounts |       4133101568
 2017-02-10 18:45:12.329272+01 | 1486748712.32927 | pgbench_tellers  |           139264
 2017-02-10 18:45:12.329272+01 | 1486748712.32927 | pgbench_history  |         68952064
 2017-02-10 18:45:12.329272+01 | 1486748712.32927 | pgbench_branches |            16384

 2017-02-10 18:45:13.414716+01 | 1486748713.41472 | pgbench_accounts |       4133101568
 2017-02-10 18:45:13.414716+01 | 1486748713.41472 | pgbench_tellers  |           139264
 2017-02-10 18:45:13.414716+01 | 1486748713.41472 | pgbench_history  |         68952064
 2017-02-10 18:45:13.414716+01 | 1486748713.41472 | pgbench_branches |            16384

 2017-02-10 18:45:14.495498+01 | 1486748714.4955 | pgbench_accounts |       4133101568
 2017-02-10 18:45:14.495498+01 | 1486748714.4955 | pgbench_tellers  |           139264
 2017-02-10 18:45:14.495498+01 | 1486748714.4955 | pgbench_history  |         70492160
 2017-02-10 18:45:14.495498+01 | 1486748714.4955 | pgbench_branches |            16384

 2017-02-10 18:45:15.579667+01 | 1486748715.57967 | pgbench_accounts |       4133101568
 2017-02-10 18:45:15.579667+01 | 1486748715.57967 | pgbench_tellers  |           139264
 2017-02-10 18:45:15.579667+01 | 1486748715.57967 | pgbench_history  |         70868992
 2017-02-10 18:45:15.579667+01 | 1486748715.57967 | pgbench_branches |            16384

 2017-02-10 18:45:16.639924+01 | 1486748716.63992 | pgbench_accounts |       4133101568
 2017-02-10 18:45:16.639924+01 | 1486748716.63992 | pgbench_tellers  |           139264
 2017-02-10 18:45:16.639924+01 | 1486748716.63992 | pgbench_history  |         72253440
 2017-02-10 18:45:16.639924+01 | 1486748716.63992 | pgbench_branches |            16384

 2017-02-10 18:45:17.712223+01 | 1486748717.71222 | pgbench_accounts |       4133101568
 2017-02-10 18:45:17.712223+01 | 1486748717.71222 | pgbench_tellers  |           139264
 2017-02-10 18:45:17.712223+01 | 1486748717.71222 | pgbench_history  |         72925184
 2017-02-10 18:45:17.712223+01 | 1486748717.71222 | pgbench_branches |            16384

 2017-02-10 18:45:18.788804+01 | 1486748718.7888 | pgbench_accounts |       4133101568
 2017-02-10 18:45:18.788804+01 | 1486748718.7888 | pgbench_tellers  |           139264
 2017-02-10 18:45:18.788804+01 | 1486748718.7888 | pgbench_history  |         74203136
 2017-02-10 18:45:18.788804+01 | 1486748718.7888 | pgbench_branches |            16384

 2017-02-10 18:45:19.878479+01 | 1486748719.87848 | pgbench_accounts |       4133101568
 2017-02-10 18:45:19.878479+01 | 1486748719.87848 | pgbench_tellers  |           139264
 2017-02-10 18:45:19.878479+01 | 1486748719.87848 | pgbench_history  |         74752000
 2017-02-10 18:45:19.878479+01 | 1486748719.87848 | pgbench_branches |            16384

 2017-02-10 18:45:20.975011+01 | 1486748720.97501 | pgbench_accounts |       4133101568
 2017-02-10 18:45:20.975011+01 | 1486748720.97501 | pgbench_tellers  |           139264
 2017-02-10 18:45:20.975011+01 | 1486748720.97501 | pgbench_history  |         75849728
 2017-02-10 18:45:20.975011+01 | 1486748720.97501 | pgbench_branches |            16384

 2017-02-10 18:45:22.06081+01 | 1486748722.06081 | pgbench_accounts |       4133101568
 2017-02-10 18:45:22.06081+01 | 1486748722.06081 | pgbench_tellers  |           139264
 2017-02-10 18:45:22.06081+01 | 1486748722.06081 | pgbench_history  |         77496320
 2017-02-10 18:45:22.06081+01 | 1486748722.06081 | pgbench_branches |            16384

 2017-02-10 18:45:23.143671+01 | 1486748723.14367 | pgbench_accounts |       4133101568
 2017-02-10 18:45:23.143671+01 | 1486748723.14367 | pgbench_tellers  |           139264
 2017-02-10 18:45:23.143671+01 | 1486748723.14367 | pgbench_history  |         77709312
 2017-02-10 18:45:23.143671+01 | 1486748723.14367 | pgbench_branches |            16384

 2017-02-10 18:45:24.235124+01 | 1486748724.23512 | pgbench_accounts |       4133101568
 2017-02-10 18:45:24.235124+01 | 1486748724.23512 | pgbench_tellers  |           139264
 2017-02-10 18:45:24.235124+01 | 1486748724.23512 | pgbench_history  |         79323136
 2017-02-10 18:45:24.235124+01 | 1486748724.23512 | pgbench_branches |            16384

 2017-02-10 18:45:25.324467+01 | 1486748725.32447 | pgbench_accounts |       4133101568
 2017-02-10 18:45:25.324467+01 | 1486748725.32447 | pgbench_tellers  |           139264
 2017-02-10 18:45:25.324467+01 | 1486748725.32447 | pgbench_history  |         79544320
 2017-02-10 18:45:25.324467+01 | 1486748725.32447 | pgbench_branches |            16384

 2017-02-10 18:45:26.406457+01 | 1486748726.40646 | pgbench_accounts |       4133101568
 2017-02-10 18:45:26.406457+01 | 1486748726.40646 | pgbench_tellers  |           139264
 2017-02-10 18:45:26.406457+01 | 1486748726.40646 | pgbench_history  |         80519168
 2017-02-10 18:45:26.406457+01 | 1486748726.40646 | pgbench_branches |            16384

 2017-02-10 18:45:27.490263+01 | 1486748727.49026 | pgbench_accounts |       4133101568
 2017-02-10 18:45:27.490263+01 | 1486748727.49026 | pgbench_tellers  |           139264
 2017-02-10 18:45:27.490263+01 | 1486748727.49026 | pgbench_history  |         82051072
 2017-02-10 18:45:27.490263+01 | 1486748727.49026 | pgbench_branches |            16384

 2017-02-10 18:45:28.560179+01 | 1486748728.56018 | pgbench_accounts |       4133101568
 2017-02-10 18:45:28.560179+01 | 1486748728.56018 | pgbench_tellers  |           139264
 2017-02-10 18:45:28.560179+01 | 1486748728.56018 | pgbench_history  |         84377600
 2017-02-10 18:45:28.560179+01 | 1486748728.56018 | pgbench_branches |            16384

 2017-02-10 18:45:29.640097+01 | 1486748729.6401 | pgbench_accounts |       4133101568
 2017-02-10 18:45:29.640097+01 | 1486748729.6401 | pgbench_tellers  |           139264
 2017-02-10 18:45:29.640097+01 | 1486748729.6401 | pgbench_history  |         84377600
 2017-02-10 18:45:29.640097+01 | 1486748729.6401 | pgbench_branches |            16384

 2017-02-10 18:45:30.715361+01 | 1486748730.71536 | pgbench_accounts |       4133101568
 2017-02-10 18:45:30.715361+01 | 1486748730.71536 | pgbench_tellers  |           139264
 2017-02-10 18:45:30.715361+01 | 1486748730.71536 | pgbench_history  |         84377600
 2017-02-10 18:45:30.715361+01 | 1486748730.71536 | pgbench_branches |            16384

 2017-02-10 18:45:31.810003+01 | 1486748731.81 | pgbench_accounts |       4133101568
 2017-02-10 18:45:31.810003+01 | 1486748731.81 | pgbench_tellers  |           139264
 2017-02-10 18:45:31.810003+01 | 1486748731.81 | pgbench_history  |         85295104
 2017-02-10 18:45:31.810003+01 | 1486748731.81 | pgbench_branches |            16384

 2017-02-10 18:45:32.890023+01 | 1486748732.89002 | pgbench_accounts |       4133101568
 2017-02-10 18:45:32.890023+01 | 1486748732.89002 | pgbench_tellers  |           139264
 2017-02-10 18:45:32.890023+01 | 1486748732.89002 | pgbench_history  |         86130688
 2017-02-10 18:45:32.890023+01 | 1486748732.89002 | pgbench_branches |            16384

 2017-02-10 18:45:33.979025+01 | 1486748733.97902 | pgbench_accounts |       4133101568
 2017-02-10 18:45:33.979025+01 | 1486748733.97902 | pgbench_tellers  |           139264
 2017-02-10 18:45:33.979025+01 | 1486748733.97902 | pgbench_history  |         87072768
 2017-02-10 18:45:33.979025+01 | 1486748733.97902 | pgbench_branches |            16384

 2017-02-10 18:45:35.077883+01 | 1486748735.07788 | pgbench_accounts |       4133101568
 2017-02-10 18:45:35.077883+01 | 1486748735.07788 | pgbench_tellers  |           139264
 2017-02-10 18:45:35.077883+01 | 1486748735.07788 | pgbench_history  |         88416256
 2017-02-10 18:45:35.077883+01 | 1486748735.07788 | pgbench_branches |            16384

 2017-02-10 18:45:36.151053+01 | 1486748736.15105 | pgbench_accounts |       4133101568
 2017-02-10 18:45:36.151053+01 | 1486748736.15105 | pgbench_tellers  |           139264
 2017-02-10 18:45:36.151053+01 | 1486748736.15105 | pgbench_history  |         89227264
 2017-02-10 18:45:36.151053+01 | 1486748736.15105 | pgbench_branches |            16384

 2017-02-10 18:45:37.215749+01 | 1486748737.21575 | pgbench_accounts |       4133101568
 2017-02-10 18:45:37.215749+01 | 1486748737.21575 | pgbench_tellers  |           139264
 2017-02-10 18:45:37.215749+01 | 1486748737.21575 | pgbench_history  |         90038272
 2017-02-10 18:45:37.215749+01 | 1486748737.21575 | pgbench_branches |            16384

 2017-02-10 18:45:38.2923+01 | 1486748738.2923 | pgbench_accounts |       4133101568
 2017-02-10 18:45:38.2923+01 | 1486748738.2923 | pgbench_tellers  |           139264
 2017-02-10 18:45:38.2923+01 | 1486748738.2923 | pgbench_history  |         91643904
 2017-02-10 18:45:38.2923+01 | 1486748738.2923 | pgbench_branches |            16384

 2017-02-10 18:45:39.377784+01 | 1486748739.37778 | pgbench_accounts |       4133101568
 2017-02-10 18:45:39.377784+01 | 1486748739.37778 | pgbench_tellers  |           139264
 2017-02-10 18:45:39.377784+01 | 1486748739.37778 | pgbench_history  |         91832320
 2017-02-10 18:45:39.377784+01 | 1486748739.37778 | pgbench_branches |            16384

 2017-02-10 18:45:40.470182+01 | 1486748740.47018 | pgbench_accounts |       4133101568
 2017-02-10 18:45:40.470182+01 | 1486748740.47018 | pgbench_tellers  |           139264
 2017-02-10 18:45:40.470182+01 | 1486748740.47018 | pgbench_history  |         92913664
 2017-02-10 18:45:40.470182+01 | 1486748740.47018 | pgbench_branches |            16384

 2017-02-10 18:45:41.537107+01 | 1486748741.53711 | pgbench_accounts |       4133101568
 2017-02-10 18:45:41.537107+01 | 1486748741.53711 | pgbench_tellers  |           139264
 2017-02-10 18:45:41.537107+01 | 1486748741.53711 | pgbench_history  |         94380032
 2017-02-10 18:45:41.537107+01 | 1486748741.53711 | pgbench_branches |            16384

 2017-02-10 18:45:42.596199+01 | 1486748742.5962 | pgbench_accounts |       4133101568
 2017-02-10 18:45:42.596199+01 | 1486748742.5962 | pgbench_tellers  |           139264
 2017-02-10 18:45:42.596199+01 | 1486748742.5962 | pgbench_history  |         95764480
 2017-02-10 18:45:42.596199+01 | 1486748742.5962 | pgbench_branches |            16384

 2017-02-10 18:45:43.672468+01 | 1486748743.67247 | pgbench_accounts |       4133101568
 2017-02-10 18:45:43.672468+01 | 1486748743.67247 | pgbench_tellers  |           139264
 2017-02-10 18:45:43.672468+01 | 1486748743.67247 | pgbench_history  |         95764480
 2017-02-10 18:45:43.672468+01 | 1486748743.67247 | pgbench_branches |            16384

 2017-02-10 18:45:44.741495+01 | 1486748744.74149 | pgbench_accounts |       4133101568
 2017-02-10 18:45:44.741495+01 | 1486748744.74149 | pgbench_tellers  |           139264
 2017-02-10 18:45:44.741495+01 | 1486748744.74149 | pgbench_history  |         96559104
 2017-02-10 18:45:44.741495+01 | 1486748744.74149 | pgbench_branches |            16384

 2017-02-10 18:45:45.830913+01 | 1486748745.83091 | pgbench_accounts |       4133101568
 2017-02-10 18:45:45.830913+01 | 1486748745.83091 | pgbench_tellers  |           139264
 2017-02-10 18:45:45.830913+01 | 1486748745.83091 | pgbench_history  |         97763328
 2017-02-10 18:45:45.830913+01 | 1486748745.83091 | pgbench_branches |            16384

 2017-02-10 18:45:46.923734+01 | 1486748746.92373 | pgbench_accounts |       4133101568
 2017-02-10 18:45:46.923734+01 | 1486748746.92373 | pgbench_tellers  |           139264
 2017-02-10 18:45:46.923734+01 | 1486748746.92373 | pgbench_history  |         98754560
 2017-02-10 18:45:46.923734+01 | 1486748746.92373 | pgbench_branches |            16384

 2017-02-10 18:45:47.983868+01 | 1486748747.98387 | pgbench_accounts |       4133101568
 2017-02-10 18:45:47.983868+01 | 1486748747.98387 | pgbench_tellers  |           139264
 2017-02-10 18:45:47.983868+01 | 1486748747.98387 | pgbench_history  |         99500032
 2017-02-10 18:45:47.983868+01 | 1486748747.98387 | pgbench_branches |            16384

 2017-02-10 18:45:49.054707+01 | 1486748749.05471 | pgbench_accounts |       4133101568
 2017-02-10 18:45:49.054707+01 | 1486748749.05471 | pgbench_tellers  |           139264
 2017-02-10 18:45:49.054707+01 | 1486748749.05471 | pgbench_history  |        100515840
 2017-02-10 18:45:49.054707+01 | 1486748749.05471 | pgbench_branches |            16384

 2017-02-10 18:45:50.128737+01 | 1486748750.12874 | pgbench_accounts |       4133101568
 2017-02-10 18:45:50.128737+01 | 1486748750.12874 | pgbench_tellers  |           139264
 2017-02-10 18:45:50.128737+01 | 1486748750.12874 | pgbench_history  |        101392384
 2017-02-10 18:45:50.128737+01 | 1486748750.12874 | pgbench_branches |            16384

 2017-02-10 18:45:51.212458+01 | 1486748751.21246 | pgbench_accounts |       4133101568
 2017-02-10 18:45:51.212458+01 | 1486748751.21246 | pgbench_tellers  |           139264
 2017-02-10 18:45:51.212458+01 | 1486748751.21246 | pgbench_history  |        103694336
 2017-02-10 18:45:51.212458+01 | 1486748751.21246 | pgbench_branches |            16384

 2017-02-10 18:45:52.302036+01 | 1486748752.30204 | pgbench_accounts |       4133101568
 2017-02-10 18:45:52.302036+01 | 1486748752.30204 | pgbench_tellers  |           139264
 2017-02-10 18:45:52.302036+01 | 1486748752.30204 | pgbench_history  |        103694336
 2017-02-10 18:45:52.302036+01 | 1486748752.30204 | pgbench_branches |            16384

 2017-02-10 18:45:53.389862+01 | 1486748753.38986 | pgbench_accounts |       4133101568
 2017-02-10 18:45:53.389862+01 | 1486748753.38986 | pgbench_tellers  |           139264
 2017-02-10 18:45:53.389862+01 | 1486748753.38986 | pgbench_history  |        105439232
 2017-02-10 18:45:53.389862+01 | 1486748753.38986 | pgbench_branches |            16384

 2017-02-10 18:45:54.470552+01 | 1486748754.47055 | pgbench_accounts |       4133101568
 2017-02-10 18:45:54.470552+01 | 1486748754.47055 | pgbench_tellers  |           139264
 2017-02-10 18:45:54.470552+01 | 1486748754.47055 | pgbench_history  |        105439232
 2017-02-10 18:45:54.470552+01 | 1486748754.47055 | pgbench_branches |            16384

 2017-02-10 18:45:55.549469+01 | 1486748755.54947 | pgbench_accounts |       4133101568
 2017-02-10 18:45:55.549469+01 | 1486748755.54947 | pgbench_tellers  |           139264
 2017-02-10 18:45:55.549469+01 | 1486748755.54947 | pgbench_history  |        106291200
 2017-02-10 18:45:55.549469+01 | 1486748755.54947 | pgbench_branches |            16384

 2017-02-10 18:45:56.617671+01 | 1486748756.61767 | pgbench_accounts |       4133101568
 2017-02-10 18:45:56.617671+01 | 1486748756.61767 | pgbench_tellers  |           139264
 2017-02-10 18:45:56.617671+01 | 1486748756.61767 | pgbench_history  |        107118592
 2017-02-10 18:45:56.617671+01 | 1486748756.61767 | pgbench_branches |            16384

 2017-02-10 18:45:57.695688+01 | 1486748757.69569 | pgbench_accounts |       4133101568
 2017-02-10 18:45:57.695688+01 | 1486748757.69569 | pgbench_tellers  |           139264
 2017-02-10 18:45:57.695688+01 | 1486748757.69569 | pgbench_history  |        108167168
 2017-02-10 18:45:57.695688+01 | 1486748757.69569 | pgbench_branches |            16384

 2017-02-10 18:45:58.784598+01 | 1486748758.7846 | pgbench_accounts |       4133101568
 2017-02-10 18:45:58.784598+01 | 1486748758.7846 | pgbench_tellers  |           139264
 2017-02-10 18:45:58.784598+01 | 1486748758.7846 | pgbench_history  |        109060096
 2017-02-10 18:45:58.784598+01 | 1486748758.7846 | pgbench_branches |            16384

 2017-02-10 18:45:59.877885+01 | 1486748759.87789 | pgbench_accounts |       4133101568
 2017-02-10 18:45:59.877885+01 | 1486748759.87789 | pgbench_tellers  |           139264
 2017-02-10 18:45:59.877885+01 | 1486748759.87789 | pgbench_history  |        110133248
 2017-02-10 18:45:59.877885+01 | 1486748759.87789 | pgbench_branches |            16384

 2017-02-10 18:46:00.950339+01 | 1486748760.95034 | pgbench_accounts |       4133101568
 2017-02-10 18:46:00.950339+01 | 1486748760.95034 | pgbench_tellers  |           139264
 2017-02-10 18:46:00.950339+01 | 1486748760.95034 | pgbench_history  |        110960640
 2017-02-10 18:46:00.950339+01 | 1486748760.95034 | pgbench_branches |            16384

 2017-02-10 18:46:02.045627+01 | 1486748762.04563 | pgbench_accounts |       4133101568
 2017-02-10 18:46:02.045627+01 | 1486748762.04563 | pgbench_tellers  |           139264
 2017-02-10 18:46:02.045627+01 | 1486748762.04563 | pgbench_history  |        111943680
 2017-02-10 18:46:02.045627+01 | 1486748762.04563 | pgbench_branches |            16384

 2017-02-10 18:46:03.138527+01 | 1486748763.13853 | pgbench_accounts |       4133101568
 2017-02-10 18:46:03.138527+01 | 1486748763.13853 | pgbench_tellers  |           139264
 2017-02-10 18:46:03.138527+01 | 1486748763.13853 | pgbench_history  |        113442816
 2017-02-10 18:46:03.138527+01 | 1486748763.13853 | pgbench_branches |            16384

 2017-02-10 18:46:04.231171+01 | 1486748764.23117 | pgbench_accounts |       4133101568
 2017-02-10 18:46:04.231171+01 | 1486748764.23117 | pgbench_tellers  |           139264
 2017-02-10 18:46:04.231171+01 | 1486748764.23117 | pgbench_history  |        113795072
 2017-02-10 18:46:04.231171+01 | 1486748764.23117 | pgbench_branches |            16384

 2017-02-10 18:46:05.316687+01 | 1486748765.31669 | pgbench_accounts |       4133101568
 2017-02-10 18:46:05.316687+01 | 1486748765.31669 | pgbench_tellers  |           139264
 2017-02-10 18:46:05.316687+01 | 1486748765.31669 | pgbench_history  |        116015104
 2017-02-10 18:46:05.316687+01 | 1486748765.31669 | pgbench_branches |            16384

 2017-02-10 18:46:06.410808+01 | 1486748766.41081 | pgbench_accounts |       4133101568
 2017-02-10 18:46:06.410808+01 | 1486748766.41081 | pgbench_tellers  |           139264
 2017-02-10 18:46:06.410808+01 | 1486748766.41081 | pgbench_history  |        116015104
 2017-02-10 18:46:06.410808+01 | 1486748766.41081 | pgbench_branches |            16384

 2017-02-10 18:46:07.487348+01 | 1486748767.48735 | pgbench_accounts |       4133101568
 2017-02-10 18:46:07.487348+01 | 1486748767.48735 | pgbench_tellers  |           139264
 2017-02-10 18:46:07.487348+01 | 1486748767.48735 | pgbench_history  |        116858880
 2017-02-10 18:46:07.487348+01 | 1486748767.48735 | pgbench_branches |            16384

 2017-02-10 18:46:08.569512+01 | 1486748768.56951 | pgbench_accounts |       4133101568
 2017-02-10 18:46:08.569512+01 | 1486748768.56951 | pgbench_tellers  |           139264
 2017-02-10 18:46:08.569512+01 | 1486748768.56951 | pgbench_history  |        117841920
 2017-02-10 18:46:08.569512+01 | 1486748768.56951 | pgbench_branches |            16384

 2017-02-10 18:46:09.643856+01 | 1486748769.64386 | pgbench_accounts |       4133101568
 2017-02-10 18:46:09.643856+01 | 1486748769.64386 | pgbench_tellers  |           139264
 2017-02-10 18:46:09.643856+01 | 1486748769.64386 | pgbench_history  |        118530048
 2017-02-10 18:46:09.643856+01 | 1486748769.64386 | pgbench_branches |            16384

 2017-02-10 18:46:10.71369+01 | 1486748770.71369 | pgbench_accounts |       4133101568
 2017-02-10 18:46:10.71369+01 | 1486748770.71369 | pgbench_tellers  |           139264
 2017-02-10 18:46:10.71369+01 | 1486748770.71369 | pgbench_history  |        119463936
 2017-02-10 18:46:10.71369+01 | 1486748770.71369 | pgbench_branches |            16384

 2017-02-10 18:46:11.792802+01 | 1486748771.7928 | pgbench_accounts |       4133101568
 2017-02-10 18:46:11.792802+01 | 1486748771.7928 | pgbench_tellers  |           139264
 2017-02-10 18:46:11.792802+01 | 1486748771.7928 | pgbench_history  |        120471552
 2017-02-10 18:46:11.792802+01 | 1486748771.7928 | pgbench_branches |            16384

 2017-02-10 18:46:12.865473+01 | 1486748772.86547 | pgbench_accounts |       4133101568
 2017-02-10 18:46:12.865473+01 | 1486748772.86547 | pgbench_tellers  |           139264
 2017-02-10 18:46:12.865473+01 | 1486748772.86547 | pgbench_history  |        121397248
 2017-02-10 18:46:12.865473+01 | 1486748772.86547 | pgbench_branches |            16384

 2017-02-10 18:46:13.940678+01 | 1486748773.94068 | pgbench_accounts |       4133101568
 2017-02-10 18:46:13.940678+01 | 1486748773.94068 | pgbench_tellers  |           139264
 2017-02-10 18:46:13.940678+01 | 1486748773.94068 | pgbench_history  |        122347520
 2017-02-10 18:46:13.940678+01 | 1486748773.94068 | pgbench_branches |            16384

 2017-02-10 18:46:15.02261+01 | 1486748775.02261 | pgbench_accounts |       4133101568
 2017-02-10 18:46:15.02261+01 | 1486748775.02261 | pgbench_tellers  |           139264
 2017-02-10 18:46:15.02261+01 | 1486748775.02261 | pgbench_history  |        123289600
 2017-02-10 18:46:15.02261+01 | 1486748775.02261 | pgbench_branches |            16384

 2017-02-10 18:46:16.114928+01 | 1486748776.11493 | pgbench_accounts |       4133101568
 2017-02-10 18:46:16.114928+01 | 1486748776.11493 | pgbench_tellers  |           139264
 2017-02-10 18:46:16.114928+01 | 1486748776.11493 | pgbench_history  |        124264448
 2017-02-10 18:46:16.114928+01 | 1486748776.11493 | pgbench_branches |            16384

 2017-02-10 18:46:17.193416+01 | 1486748777.19342 | pgbench_accounts |       4133101568
 2017-02-10 18:46:17.193416+01 | 1486748777.19342 | pgbench_tellers  |           139264
 2017-02-10 18:46:17.193416+01 | 1486748777.19342 | pgbench_history  |        125222912
 2017-02-10 18:46:17.193416+01 | 1486748777.19342 | pgbench_branches |            16384

 2017-02-10 18:46:18.29245+01 | 1486748778.29245 | pgbench_accounts |       4133101568
 2017-02-10 18:46:18.29245+01 | 1486748778.29245 | pgbench_tellers  |           139264
 2017-02-10 18:46:18.29245+01 | 1486748778.29245 | pgbench_history  |        126255104
 2017-02-10 18:46:18.29245+01 | 1486748778.29245 | pgbench_branches |            16384

 2017-02-10 18:46:19.361848+01 | 1486748779.36185 | pgbench_accounts |       4133101568
 2017-02-10 18:46:19.361848+01 | 1486748779.36185 | pgbench_tellers  |           139264
 2017-02-10 18:46:19.361848+01 | 1486748779.36185 | pgbench_history  |        127434752
 2017-02-10 18:46:19.361848+01 | 1486748779.36185 | pgbench_branches |            16384

 2017-02-10 18:46:20.44029+01 | 1486748780.44029 | pgbench_accounts |       4133101568
 2017-02-10 18:46:20.44029+01 | 1486748780.44029 | pgbench_tellers  |           139264
 2017-02-10 18:46:20.44029+01 | 1486748780.44029 | pgbench_history  |        128491520
 2017-02-10 18:46:20.44029+01 | 1486748780.44029 | pgbench_branches |            16384

 2017-02-10 18:46:21.514581+01 | 1486748781.51458 | pgbench_accounts |       4133101568
 2017-02-10 18:46:21.514581+01 | 1486748781.51458 | pgbench_tellers  |           139264
 2017-02-10 18:46:21.514581+01 | 1486748781.51458 | pgbench_history  |        129089536
 2017-02-10 18:46:21.514581+01 | 1486748781.51458 | pgbench_branches |            16384

 2017-02-10 18:46:22.584684+01 | 1486748782.58468 | pgbench_accounts |       4133101568
 2017-02-10 18:46:22.584684+01 | 1486748782.58468 | pgbench_tellers  |           139264
 2017-02-10 18:46:22.584684+01 | 1486748782.58468 | pgbench_history  |        130260992
 2017-02-10 18:46:22.584684+01 | 1486748782.58468 | pgbench_branches |            16384

 2017-02-10 18:46:23.666492+01 | 1486748783.66649 | pgbench_accounts |       4133101568
 2017-02-10 18:46:23.666492+01 | 1486748783.66649 | pgbench_tellers  |           139264
 2017-02-10 18:46:23.666492+01 | 1486748783.66649 | pgbench_history  |        132505600
 2017-02-10 18:46:23.666492+01 | 1486748783.66649 | pgbench_branches |            16384

 2017-02-10 18:46:24.742283+01 | 1486748784.74228 | pgbench_accounts |       4133101568
 2017-02-10 18:46:24.742283+01 | 1486748784.74228 | pgbench_tellers  |           139264
 2017-02-10 18:46:24.742283+01 | 1486748784.74228 | pgbench_history  |        132505600
 2017-02-10 18:46:24.742283+01 | 1486748784.74228 | pgbench_branches |            16384

 2017-02-10 18:46:25.82735+01 | 1486748785.82735 | pgbench_accounts |       4133101568
 2017-02-10 18:46:25.82735+01 | 1486748785.82735 | pgbench_tellers  |           139264
 2017-02-10 18:46:25.82735+01 | 1486748785.82735 | pgbench_history  |        133029888
 2017-02-10 18:46:25.82735+01 | 1486748785.82735 | pgbench_branches |            16384

 2017-02-10 18:46:26.921759+01 | 1486748786.92176 | pgbench_accounts |       4133101568
 2017-02-10 18:46:26.921759+01 | 1486748786.92176 | pgbench_tellers  |           139264
 2017-02-10 18:46:26.921759+01 | 1486748786.92176 | pgbench_history  |        134012928
 2017-02-10 18:46:26.921759+01 | 1486748786.92176 | pgbench_branches |            16384

 2017-02-10 18:46:28.016033+01 | 1486748788.01603 | pgbench_accounts |       4133101568
 2017-02-10 18:46:28.016033+01 | 1486748788.01603 | pgbench_tellers  |           139264
 2017-02-10 18:46:28.016033+01 | 1486748788.01603 | pgbench_history  |        135086080
 2017-02-10 18:46:28.016033+01 | 1486748788.01603 | pgbench_branches |            16384

 2017-02-10 18:46:29.089507+01 | 1486748789.08951 | pgbench_accounts |       4133101568
 2017-02-10 18:46:29.089507+01 | 1486748789.08951 | pgbench_tellers  |           139264
 2017-02-10 18:46:29.089507+01 | 1486748789.08951 | pgbench_history  |        136028160
 2017-02-10 18:46:29.089507+01 | 1486748789.08951 | pgbench_branches |            16384

 2017-02-10 18:46:30.198729+01 | 1486748790.19873 | pgbench_accounts |       4133101568
 2017-02-10 18:46:30.198729+01 | 1486748790.19873 | pgbench_tellers  |           139264
 2017-02-10 18:46:30.198729+01 | 1486748790.19873 | pgbench_history  |        137011200
 2017-02-10 18:46:30.198729+01 | 1486748790.19873 | pgbench_branches |            16384

 2017-02-10 18:46:31.286865+01 | 1486748791.28686 | pgbench_accounts |       4133101568
 2017-02-10 18:46:31.286865+01 | 1486748791.28686 | pgbench_tellers  |           139264
 2017-02-10 18:46:31.286865+01 | 1486748791.28686 | pgbench_history  |        138027008
 2017-02-10 18:46:31.286865+01 | 1486748791.28686 | pgbench_branches |            16384

 2017-02-10 18:46:32.362842+01 | 1486748792.36284 | pgbench_accounts |       4133101568
 2017-02-10 18:46:32.362842+01 | 1486748792.36284 | pgbench_tellers  |           139264
 2017-02-10 18:46:32.362842+01 | 1486748792.36284 | pgbench_history  |        139026432
 2017-02-10 18:46:32.362842+01 | 1486748792.36284 | pgbench_branches |            16384

 2017-02-10 18:46:33.436338+01 | 1486748793.43634 | pgbench_accounts |       4133101568
 2017-02-10 18:46:33.436338+01 | 1486748793.43634 | pgbench_tellers  |           139264
 2017-02-10 18:46:33.436338+01 | 1486748793.43634 | pgbench_history  |        139927552
 2017-02-10 18:46:33.436338+01 | 1486748793.43634 | pgbench_branches |            16384

 2017-02-10 18:46:34.52594+01 | 1486748794.52594 | pgbench_accounts |       4133101568
 2017-02-10 18:46:34.52594+01 | 1486748794.52594 | pgbench_tellers  |           139264
 2017-02-10 18:46:34.52594+01 | 1486748794.52594 | pgbench_history  |        140918784
 2017-02-10 18:46:34.52594+01 | 1486748794.52594 | pgbench_branches |            16384

 2017-02-10 18:46:35.59255+01 | 1486748795.59255 | pgbench_accounts |       4133101568
 2017-02-10 18:46:35.59255+01 | 1486748795.59255 | pgbench_tellers  |           139264
 2017-02-10 18:46:35.59255+01 | 1486748795.59255 | pgbench_history  |        141901824
 2017-02-10 18:46:35.59255+01 | 1486748795.59255 | pgbench_branches |            16384

 2017-02-10 18:46:36.676527+01 | 1486748796.67653 | pgbench_accounts |       4133101568
 2017-02-10 18:46:36.676527+01 | 1486748796.67653 | pgbench_tellers  |           139264
 2017-02-10 18:46:36.676527+01 | 1486748796.67653 | pgbench_history  |        142983168
 2017-02-10 18:46:36.676527+01 | 1486748796.67653 | pgbench_branches |            16384

 2017-02-10 18:46:37.74243+01 | 1486748797.74243 | pgbench_accounts |       4133101568
 2017-02-10 18:46:37.74243+01 | 1486748797.74243 | pgbench_tellers  |           139264
 2017-02-10 18:46:37.74243+01 | 1486748797.74243 | pgbench_history  |        144121856
 2017-02-10 18:46:37.74243+01 | 1486748797.74243 | pgbench_branches |            16384

 2017-02-10 18:46:38.8421+01 | 1486748798.8421 | pgbench_accounts |       4133101568
 2017-02-10 18:46:38.8421+01 | 1486748798.8421 | pgbench_tellers  |           139264
 2017-02-10 18:46:38.8421+01 | 1486748798.8421 | pgbench_history  |        144834560
 2017-02-10 18:46:38.8421+01 | 1486748798.8421 | pgbench_branches |            16384

 2017-02-10 18:46:39.922453+01 | 1486748799.92245 | pgbench_accounts |       4133101568
 2017-02-10 18:46:39.922453+01 | 1486748799.92245 | pgbench_tellers  |           139264
 2017-02-10 18:46:39.922453+01 | 1486748799.92245 | pgbench_history  |        145833984
 2017-02-10 18:46:39.922453+01 | 1486748799.92245 | pgbench_branches |            16384

 2017-02-10 18:46:41.011906+01 | 1486748801.01191 | pgbench_accounts |       4133101568
 2017-02-10 18:46:41.011906+01 | 1486748801.01191 | pgbench_tellers  |           139264
 2017-02-10 18:46:41.011906+01 | 1486748801.01191 | pgbench_history  |        146931712
 2017-02-10 18:46:41.011906+01 | 1486748801.01191 | pgbench_branches |            16384

 2017-02-10 18:46:42.097234+01 | 1486748802.09723 | pgbench_accounts |       4133101568
 2017-02-10 18:46:42.097234+01 | 1486748802.09723 | pgbench_tellers  |           139264
 2017-02-10 18:46:42.097234+01 | 1486748802.09723 | pgbench_history  |        147775488
 2017-02-10 18:46:42.097234+01 | 1486748802.09723 | pgbench_branches |            16384

 2017-02-10 18:46:43.200153+01 | 1486748803.20015 | pgbench_accounts |       4133101568
 2017-02-10 18:46:43.200153+01 | 1486748803.20015 | pgbench_tellers  |           139264
 2017-02-10 18:46:43.200153+01 | 1486748803.20015 | pgbench_history  |        149004288
 2017-02-10 18:46:43.200153+01 | 1486748803.20015 | pgbench_branches |            16384

 2017-02-10 18:46:44.269141+01 | 1486748804.26914 | pgbench_accounts |       4133101568
 2017-02-10 18:46:44.269141+01 | 1486748804.26914 | pgbench_tellers  |           139264
 2017-02-10 18:46:44.269141+01 | 1486748804.26914 | pgbench_history  |        149807104
 2017-02-10 18:46:44.269141+01 | 1486748804.26914 | pgbench_branches |            16384

 2017-02-10 18:46:45.352195+01 | 1486748805.3522 | pgbench_accounts |       4133101568
 2017-02-10 18:46:45.352195+01 | 1486748805.3522 | pgbench_tellers  |           139264
 2017-02-10 18:46:45.352195+01 | 1486748805.3522 | pgbench_history  |        151560192
 2017-02-10 18:46:45.352195+01 | 1486748805.3522 | pgbench_branches |            16384

 2017-02-10 18:46:46.443211+01 | 1486748806.44321 | pgbench_accounts |       4133101568
 2017-02-10 18:46:46.443211+01 | 1486748806.44321 | pgbench_tellers  |           139264
 2017-02-10 18:46:46.443211+01 | 1486748806.44321 | pgbench_history  |        151805952
 2017-02-10 18:46:46.443211+01 | 1486748806.44321 | pgbench_branches |            16384

 2017-02-10 18:46:47.536627+01 | 1486748807.53663 | pgbench_accounts |       4133101568
 2017-02-10 18:46:47.536627+01 | 1486748807.53663 | pgbench_tellers  |           139264
 2017-02-10 18:46:47.536627+01 | 1486748807.53663 | pgbench_history  |        152788992
 2017-02-10 18:46:47.536627+01 | 1486748807.53663 | pgbench_branches |            16384

 2017-02-10 18:46:48.63114+01 | 1486748808.63114 | pgbench_accounts |       4133101568
 2017-02-10 18:46:48.63114+01 | 1486748808.63114 | pgbench_tellers  |           139264
 2017-02-10 18:46:48.63114+01 | 1486748808.63114 | pgbench_history  |        153903104
 2017-02-10 18:46:48.63114+01 | 1486748808.63114 | pgbench_branches |            16384

 2017-02-10 18:46:49.70451+01 | 1486748809.70451 | pgbench_accounts |       4133101568
 2017-02-10 18:46:49.70451+01 | 1486748809.70451 | pgbench_tellers  |           139264
 2017-02-10 18:46:49.70451+01 | 1486748809.70451 | pgbench_history  |        155516928
 2017-02-10 18:46:49.70451+01 | 1486748809.70451 | pgbench_branches |            16384

 2017-02-10 18:46:50.799456+01 | 1486748810.79946 | pgbench_accounts |       4133101568
 2017-02-10 18:46:50.799456+01 | 1486748810.79946 | pgbench_tellers  |           139264
 2017-02-10 18:46:50.799456+01 | 1486748810.79946 | pgbench_history  |        155869184
 2017-02-10 18:46:50.799456+01 | 1486748810.79946 | pgbench_branches |            16384

 2017-02-10 18:46:51.882624+01 | 1486748811.88262 | pgbench_accounts |       4133101568
 2017-02-10 18:46:51.882624+01 | 1486748811.88262 | pgbench_tellers  |           139264
 2017-02-10 18:46:51.882624+01 | 1486748811.88262 | pgbench_history  |        156966912
 2017-02-10 18:46:51.882624+01 | 1486748811.88262 | pgbench_branches |            16384

 2017-02-10 18:46:52.962377+01 | 1486748812.96238 | pgbench_accounts |       4133101568
 2017-02-10 18:46:52.962377+01 | 1486748812.96238 | pgbench_tellers  |           139264
 2017-02-10 18:46:52.962377+01 | 1486748812.96238 | pgbench_history  |        157736960
 2017-02-10 18:46:52.962377+01 | 1486748812.96238 | pgbench_branches |            16384

 2017-02-10 18:46:54.039396+01 | 1486748814.0394 | pgbench_accounts |       4133101568
 2017-02-10 18:46:54.039396+01 | 1486748814.0394 | pgbench_tellers  |           139264
 2017-02-10 18:46:54.039396+01 | 1486748814.0394 | pgbench_history  |        158728192
 2017-02-10 18:46:54.039396+01 | 1486748814.0394 | pgbench_branches |            16384

 2017-02-10 18:46:55.108496+01 | 1486748815.1085 | pgbench_accounts |       4133101568
 2017-02-10 18:46:55.108496+01 | 1486748815.1085 | pgbench_tellers  |           139264
 2017-02-10 18:46:55.108496+01 | 1486748815.1085 | pgbench_history  |        159891456
 2017-02-10 18:46:55.108496+01 | 1486748815.1085 | pgbench_branches |            16384

 2017-02-10 18:46:56.176672+01 | 1486748816.17667 | pgbench_accounts |       4133101568
 2017-02-10 18:46:56.176672+01 | 1486748816.17667 | pgbench_tellers  |           139264
 2017-02-10 18:46:56.176672+01 | 1486748816.17667 | pgbench_history  |        160874496
 2017-02-10 18:46:56.176672+01 | 1486748816.17667 | pgbench_branches |            16384

 2017-02-10 18:46:57.266385+01 | 1486748817.26639 | pgbench_accounts |       4133101568
 2017-02-10 18:46:57.266385+01 | 1486748817.26639 | pgbench_tellers  |           139264
 2017-02-10 18:46:57.266385+01 | 1486748817.26639 | pgbench_history  |        161579008
 2017-02-10 18:46:57.266385+01 | 1486748817.26639 | pgbench_branches |            16384

 2017-02-10 18:46:58.36672+01 | 1486748818.36672 | pgbench_accounts |       4133101568
 2017-02-10 18:46:58.36672+01 | 1486748818.36672 | pgbench_tellers  |           139264
 2017-02-10 18:46:58.36672+01 | 1486748818.36672 | pgbench_history  |        163364864
 2017-02-10 18:46:58.36672+01 | 1486748818.36672 | pgbench_branches |            16384

 2017-02-10 18:46:59.463551+01 | 1486748819.46355 | pgbench_accounts |       4133101568
 2017-02-10 18:46:59.463551+01 | 1486748819.46355 | pgbench_tellers  |           139264
 2017-02-10 18:46:59.463551+01 | 1486748819.46355 | pgbench_history  |        163553280
 2017-02-10 18:46:59.463551+01 | 1486748819.46355 | pgbench_branches |            16384

 2017-02-10 18:47:00.56124+01 | 1486748820.56124 | pgbench_accounts |       4133101568
 2017-02-10 18:47:00.56124+01 | 1486748820.56124 | pgbench_tellers  |           139264
 2017-02-10 18:47:00.56124+01 | 1486748820.56124 | pgbench_history  |        164790272
 2017-02-10 18:47:00.56124+01 | 1486748820.56124 | pgbench_branches |            16384

 2017-02-10 18:47:01.645843+01 | 1486748821.64584 | pgbench_accounts |       4133101568
 2017-02-10 18:47:01.645843+01 | 1486748821.64584 | pgbench_tellers  |           139264
 2017-02-10 18:47:01.645843+01 | 1486748821.64584 | pgbench_history  |        165691392
 2017-02-10 18:47:01.645843+01 | 1486748821.64584 | pgbench_branches |            16384

 2017-02-10 18:47:02.7115+01 | 1486748822.7115 | pgbench_accounts |       4133101568
 2017-02-10 18:47:02.7115+01 | 1486748822.7115 | pgbench_tellers  |           139264
 2017-02-10 18:47:02.7115+01 | 1486748822.7115 | pgbench_history  |        166813696
 2017-02-10 18:47:02.7115+01 | 1486748822.7115 | pgbench_branches |            16384

 2017-02-10 18:47:03.789664+01 | 1486748823.78966 | pgbench_accounts |       4133101568
 2017-02-10 18:47:03.789664+01 | 1486748823.78966 | pgbench_tellers  |           139264
 2017-02-10 18:47:03.789664+01 | 1486748823.78966 | pgbench_history  |        167550976
 2017-02-10 18:47:03.789664+01 | 1486748823.78966 | pgbench_branches |            16384

 2017-02-10 18:47:04.856076+01 | 1486748824.85608 | pgbench_accounts |       4133101568
 2017-02-10 18:47:04.856076+01 | 1486748824.85608 | pgbench_tellers  |           139264
 2017-02-10 18:47:04.856076+01 | 1486748824.85608 | pgbench_history  |        168615936
 2017-02-10 18:47:04.856076+01 | 1486748824.85608 | pgbench_branches |            16384

 2017-02-10 18:47:05.949428+01 | 1486748825.94943 | pgbench_accounts |       4133101568
 2017-02-10 18:47:05.949428+01 | 1486748825.94943 | pgbench_tellers  |           139264
 2017-02-10 18:47:05.949428+01 | 1486748825.94943 | pgbench_history  |        169631744
 2017-02-10 18:47:05.949428+01 | 1486748825.94943 | pgbench_branches |            16384

 2017-02-10 18:47:07.030056+01 | 1486748827.03006 | pgbench_accounts |       4133101568
 2017-02-10 18:47:07.030056+01 | 1486748827.03006 | pgbench_tellers  |           139264
 2017-02-10 18:47:07.030056+01 | 1486748827.03006 | pgbench_history  |        170680320
 2017-02-10 18:47:07.030056+01 | 1486748827.03006 | pgbench_branches |            16384

 2017-02-10 18:47:08.119179+01 | 1486748828.11918 | pgbench_accounts |       4133101568
 2017-02-10 18:47:08.119179+01 | 1486748828.11918 | pgbench_tellers  |           139264
 2017-02-10 18:47:08.119179+01 | 1486748828.11918 | pgbench_history  |        171491328
 2017-02-10 18:47:08.119179+01 | 1486748828.11918 | pgbench_branches |            16384

 2017-02-10 18:47:09.195139+01 | 1486748829.19514 | pgbench_accounts |       4133101568
 2017-02-10 18:47:09.195139+01 | 1486748829.19514 | pgbench_tellers  |           139264
 2017-02-10 18:47:09.195139+01 | 1486748829.19514 | pgbench_history  |        172597248
 2017-02-10 18:47:09.195139+01 | 1486748829.19514 | pgbench_branches |            16384

 2017-02-10 18:47:10.276551+01 | 1486748830.27655 | pgbench_accounts |       4133101568
 2017-02-10 18:47:10.276551+01 | 1486748830.27655 | pgbench_tellers  |           139264
 2017-02-10 18:47:10.276551+01 | 1486748830.27655 | pgbench_history  |        173539328
 2017-02-10 18:47:10.276551+01 | 1486748830.27655 | pgbench_branches |            16384

 2017-02-10 18:47:11.375155+01 | 1486748831.37515 | pgbench_accounts |       4133101568
 2017-02-10 18:47:11.375155+01 | 1486748831.37515 | pgbench_tellers  |           139264
 2017-02-10 18:47:11.375155+01 | 1486748831.37515 | pgbench_history  |        174456832
 2017-02-10 18:47:11.375155+01 | 1486748831.37515 | pgbench_branches |            16384

 2017-02-10 18:47:12.465006+01 | 1486748832.46501 | pgbench_accounts |       4133101568
 2017-02-10 18:47:12.465006+01 | 1486748832.46501 | pgbench_tellers  |           139264
 2017-02-10 18:47:12.465006+01 | 1486748832.46501 | pgbench_history  |        176193536
 2017-02-10 18:47:12.465006+01 | 1486748832.46501 | pgbench_branches |            16384

 2017-02-10 18:47:13.547685+01 | 1486748833.54768 | pgbench_accounts |       4133101568
 2017-02-10 18:47:13.547685+01 | 1486748833.54768 | pgbench_tellers  |           139264
 2017-02-10 18:47:13.547685+01 | 1486748833.54768 | pgbench_history  |        176709632
 2017-02-10 18:47:13.547685+01 | 1486748833.54768 | pgbench_branches |            16384

 2017-02-10 18:47:14.638587+01 | 1486748834.63859 | pgbench_accounts |       4133101568
 2017-02-10 18:47:14.638587+01 | 1486748834.63859 | pgbench_tellers  |           139264
 2017-02-10 18:47:14.638587+01 | 1486748834.63859 | pgbench_history  |        178102272
 2017-02-10 18:47:14.638587+01 | 1486748834.63859 | pgbench_branches |            16384

 2017-02-10 18:47:15.699528+01 | 1486748835.69953 | pgbench_accounts |       4133101568
 2017-02-10 18:47:15.699528+01 | 1486748835.69953 | pgbench_tellers  |           139264
 2017-02-10 18:47:15.699528+01 | 1486748835.69953 | pgbench_history  |        178462720
 2017-02-10 18:47:15.699528+01 | 1486748835.69953 | pgbench_branches |            16384

 2017-02-10 18:47:16.776217+01 | 1486748836.77622 | pgbench_accounts |       4133101568
 2017-02-10 18:47:16.776217+01 | 1486748836.77622 | pgbench_tellers  |           139264
 2017-02-10 18:47:16.776217+01 | 1486748836.77622 | pgbench_history  |        179486720
 2017-02-10 18:47:16.776217+01 | 1486748836.77622 | pgbench_branches |            16384

 2017-02-10 18:47:17.874827+01 | 1486748837.87483 | pgbench_accounts |       4133101568
 2017-02-10 18:47:17.874827+01 | 1486748837.87483 | pgbench_tellers  |           139264
 2017-02-10 18:47:17.874827+01 | 1486748837.87483 | pgbench_history  |        180494336
 2017-02-10 18:47:17.874827+01 | 1486748837.87483 | pgbench_branches |            16384

 2017-02-10 18:47:18.95147+01 | 1486748838.95147 | pgbench_accounts |       4133101568
 2017-02-10 18:47:18.95147+01 | 1486748838.95147 | pgbench_tellers  |           139264
 2017-02-10 18:47:18.95147+01 | 1486748838.95147 | pgbench_history  |        181444608
 2017-02-10 18:47:18.95147+01 | 1486748838.95147 | pgbench_branches |            16384

 2017-02-10 18:47:20.042466+01 | 1486748840.04247 | pgbench_accounts |       4133101568
 2017-02-10 18:47:20.042466+01 | 1486748840.04247 | pgbench_tellers  |           139264
 2017-02-10 18:47:20.042466+01 | 1486748840.04247 | pgbench_history  |        182444032
 2017-02-10 18:47:20.042466+01 | 1486748840.04247 | pgbench_branches |            16384

 2017-02-10 18:47:21.129575+01 | 1486748841.12958 | pgbench_accounts |       4133101568
 2017-02-10 18:47:21.129575+01 | 1486748841.12958 | pgbench_tellers  |           139264
 2017-02-10 18:47:21.129575+01 | 1486748841.12958 | pgbench_history  |        183418880
 2017-02-10 18:47:21.129575+01 | 1486748841.12958 | pgbench_branches |            16384

 2017-02-10 18:47:22.227131+01 | 1486748842.22713 | pgbench_accounts |       4133101568
 2017-02-10 18:47:22.227131+01 | 1486748842.22713 | pgbench_tellers  |           139264
 2017-02-10 18:47:22.227131+01 | 1486748842.22713 | pgbench_history  |        184475648
 2017-02-10 18:47:22.227131+01 | 1486748842.22713 | pgbench_branches |            16384

 2017-02-10 18:47:23.339477+01 | 1486748843.33948 | pgbench_accounts |       4133101568
 2017-02-10 18:47:23.339477+01 | 1486748843.33948 | pgbench_tellers  |           139264
 2017-02-10 18:47:23.339477+01 | 1486748843.33948 | pgbench_history  |        185466880
 2017-02-10 18:47:23.339477+01 | 1486748843.33948 | pgbench_branches |            16384

 2017-02-10 18:47:24.435105+01 | 1486748844.43511 | pgbench_accounts |       4133101568
 2017-02-10 18:47:24.435105+01 | 1486748844.43511 | pgbench_tellers  |           139264
 2017-02-10 18:47:24.435105+01 | 1486748844.43511 | pgbench_history  |        186458112
 2017-02-10 18:47:24.435105+01 | 1486748844.43511 | pgbench_branches |            16384

 2017-02-10 18:47:25.524712+01 | 1486748845.52471 | pgbench_accounts |       4133101568
 2017-02-10 18:47:25.524712+01 | 1486748845.52471 | pgbench_tellers  |           139264
 2017-02-10 18:47:25.524712+01 | 1486748845.52471 | pgbench_history  |        187678720
 2017-02-10 18:47:25.524712+01 | 1486748845.52471 | pgbench_branches |            16384

 2017-02-10 18:47:26.614304+01 | 1486748846.6143 | pgbench_accounts |       4133101568
 2017-02-10 18:47:26.614304+01 | 1486748846.6143 | pgbench_tellers  |           139264
 2017-02-10 18:47:26.614304+01 | 1486748846.6143 | pgbench_history  |        188612608
 2017-02-10 18:47:26.614304+01 | 1486748846.6143 | pgbench_branches |            16384

 2017-02-10 18:47:27.679304+01 | 1486748847.6793 | pgbench_accounts |       4133101568
 2017-02-10 18:47:27.679304+01 | 1486748847.6793 | pgbench_tellers  |           139264
 2017-02-10 18:47:27.679304+01 | 1486748847.6793 | pgbench_history  |        189702144
 2017-02-10 18:47:27.679304+01 | 1486748847.6793 | pgbench_branches |            16384

 2017-02-10 18:47:28.749715+01 | 1486748848.74972 | pgbench_accounts |       4133101568
 2017-02-10 18:47:28.749715+01 | 1486748848.74972 | pgbench_tellers  |           139264
 2017-02-10 18:47:28.749715+01 | 1486748848.74972 | pgbench_history  |        190709760
 2017-02-10 18:47:28.749715+01 | 1486748848.74972 | pgbench_branches |            16384

 2017-02-10 18:47:29.849473+01 | 1486748849.84947 | pgbench_accounts |       4133101568
 2017-02-10 18:47:29.849473+01 | 1486748849.84947 | pgbench_tellers  |           139264
 2017-02-10 18:47:29.849473+01 | 1486748849.84947 | pgbench_history  |        191619072
 2017-02-10 18:47:29.849473+01 | 1486748849.84947 | pgbench_branches |            16384

 2017-02-10 18:47:30.929623+01 | 1486748850.92962 | pgbench_accounts |       4133101568
 2017-02-10 18:47:30.929623+01 | 1486748850.92962 | pgbench_tellers  |           139264
 2017-02-10 18:47:30.929623+01 | 1486748850.92962 | pgbench_history  |        193355776
 2017-02-10 18:47:30.929623+01 | 1486748850.92962 | pgbench_branches |            16384

 2017-02-10 18:47:32.035318+01 | 1486748852.03532 | pgbench_accounts |       4133101568
 2017-02-10 18:47:32.035318+01 | 1486748852.03532 | pgbench_tellers  |           139264
 2017-02-10 18:47:32.035318+01 | 1486748852.03532 | pgbench_history  |        193544192
 2017-02-10 18:47:32.035318+01 | 1486748852.03532 | pgbench_branches |            16384

 2017-02-10 18:47:33.131241+01 | 1486748853.13124 | pgbench_accounts |       4133101568
 2017-02-10 18:47:33.131241+01 | 1486748853.13124 | pgbench_tellers  |           139264
 2017-02-10 18:47:33.131241+01 | 1486748853.13124 | pgbench_history  |        194609152
 2017-02-10 18:47:33.131241+01 | 1486748853.13124 | pgbench_branches |            16384

 2017-02-10 18:47:34.224111+01 | 1486748854.22411 | pgbench_accounts |       4133101568
 2017-02-10 18:47:34.224111+01 | 1486748854.22411 | pgbench_tellers  |           139264
 2017-02-10 18:47:34.224111+01 | 1486748854.22411 | pgbench_history  |        196059136
 2017-02-10 18:47:34.224111+01 | 1486748854.22411 | pgbench_branches |            16384

 2017-02-10 18:47:35.313768+01 | 1486748855.31377 | pgbench_accounts |       4133101568
 2017-02-10 18:47:35.313768+01 | 1486748855.31377 | pgbench_tellers  |           139264
 2017-02-10 18:47:35.313768+01 | 1486748855.31377 | pgbench_history  |        196714496
 2017-02-10 18:47:35.313768+01 | 1486748855.31377 | pgbench_branches |            16384

 2017-02-10 18:47:36.401084+01 | 1486748856.40108 | pgbench_accounts |       4133101568
 2017-02-10 18:47:36.401084+01 | 1486748856.40108 | pgbench_tellers  |           139264
 2017-02-10 18:47:36.401084+01 | 1486748856.40108 | pgbench_history  |        197582848
 2017-02-10 18:47:36.401084+01 | 1486748856.40108 | pgbench_branches |            16384

 2017-02-10 18:47:37.476516+01 | 1486748857.47652 | pgbench_accounts |       4133101568
 2017-02-10 18:47:37.476516+01 | 1486748857.47652 | pgbench_tellers  |           139264
 2017-02-10 18:47:37.476516+01 | 1486748857.47652 | pgbench_history  |        199139328
 2017-02-10 18:47:37.476516+01 | 1486748857.47652 | pgbench_branches |            16384

 2017-02-10 18:47:38.573968+01 | 1486748858.57397 | pgbench_accounts |       4133101568
 2017-02-10 18:47:38.573968+01 | 1486748858.57397 | pgbench_tellers  |           139264
 2017-02-10 18:47:38.573968+01 | 1486748858.57397 | pgbench_history  |        199827456
 2017-02-10 18:47:38.573968+01 | 1486748858.57397 | pgbench_branches |            16384

 2017-02-10 18:47:39.655913+01 | 1486748859.65591 | pgbench_accounts |       4133101568
 2017-02-10 18:47:39.655913+01 | 1486748859.65591 | pgbench_tellers  |           139264
 2017-02-10 18:47:39.655913+01 | 1486748859.65591 | pgbench_history  |        201097216
 2017-02-10 18:47:39.655913+01 | 1486748859.65591 | pgbench_branches |            16384

 2017-02-10 18:47:40.727657+01 | 1486748860.72766 | pgbench_accounts |       4133101568
 2017-02-10 18:47:40.727657+01 | 1486748860.72766 | pgbench_tellers  |           139264
 2017-02-10 18:47:40.727657+01 | 1486748860.72766 | pgbench_history  |        202334208
 2017-02-10 18:47:40.727657+01 | 1486748860.72766 | pgbench_branches |            16384

 2017-02-10 18:47:41.783835+01 | 1486748861.78383 | pgbench_accounts |       4133101568
 2017-02-10 18:47:41.783835+01 | 1486748861.78383 | pgbench_tellers  |           139264
 2017-02-10 18:47:41.783835+01 | 1486748861.78383 | pgbench_history  |        202866688
 2017-02-10 18:47:41.783835+01 | 1486748861.78383 | pgbench_branches |            16384

 2017-02-10 18:47:42.867023+01 | 1486748862.86702 | pgbench_accounts |       4133101568
 2017-02-10 18:47:42.867023+01 | 1486748862.86702 | pgbench_tellers  |           139264
 2017-02-10 18:47:42.867023+01 | 1486748862.86702 | pgbench_history  |        203956224
 2017-02-10 18:47:42.867023+01 | 1486748862.86702 | pgbench_branches |            16384

 2017-02-10 18:47:43.97582+01 | 1486748863.97582 | pgbench_accounts |       4133101568
 2017-02-10 18:47:43.97582+01 | 1486748863.97582 | pgbench_tellers  |           139264
 2017-02-10 18:47:43.97582+01 | 1486748863.97582 | pgbench_history  |        204709888
 2017-02-10 18:47:43.97582+01 | 1486748863.97582 | pgbench_branches |            16384

 2017-02-10 18:47:45.061633+01 | 1486748865.06163 | pgbench_accounts |       4133101568
 2017-02-10 18:47:45.061633+01 | 1486748865.06163 | pgbench_tellers  |           139264
 2017-02-10 18:47:45.061633+01 | 1486748865.06163 | pgbench_history  |        206143488
 2017-02-10 18:47:45.061633+01 | 1486748865.06163 | pgbench_branches |            16384

 2017-02-10 18:47:46.172896+01 | 1486748866.1729 | pgbench_accounts |       4133101568
 2017-02-10 18:47:46.172896+01 | 1486748866.1729 | pgbench_tellers  |           139264
 2017-02-10 18:47:46.172896+01 | 1486748866.1729 | pgbench_history  |        206872576
 2017-02-10 18:47:46.172896+01 | 1486748866.1729 | pgbench_branches |            16384

 2017-02-10 18:47:47.275604+01 | 1486748867.2756 | pgbench_accounts |       4133101568
 2017-02-10 18:47:47.275604+01 | 1486748867.2756 | pgbench_tellers  |           139264
 2017-02-10 18:47:47.275604+01 | 1486748867.2756 | pgbench_history  |        207839232
 2017-02-10 18:47:47.275604+01 | 1486748867.2756 | pgbench_branches |            16384

 2017-02-10 18:47:48.361501+01 | 1486748868.3615 | pgbench_accounts |       4133101568
 2017-02-10 18:47:48.361501+01 | 1486748868.3615 | pgbench_tellers  |           139264
 2017-02-10 18:47:48.361501+01 | 1486748868.3615 | pgbench_history  |        208986112
 2017-02-10 18:47:48.361501+01 | 1486748868.3615 | pgbench_branches |            16384

 2017-02-10 18:47:49.43391+01 | 1486748869.43391 | pgbench_accounts |       4133101568
 2017-02-10 18:47:49.43391+01 | 1486748869.43391 | pgbench_tellers  |           139264
 2017-02-10 18:47:49.43391+01 | 1486748869.43391 | pgbench_history  |        209788928
 2017-02-10 18:47:49.43391+01 | 1486748869.43391 | pgbench_branches |            16384

 2017-02-10 18:47:50.516773+01 | 1486748870.51677 | pgbench_accounts |       4133101568
 2017-02-10 18:47:50.516773+01 | 1486748870.51677 | pgbench_tellers  |           139264
 2017-02-10 18:47:50.516773+01 | 1486748870.51677 | pgbench_history  |        211247104
 2017-02-10 18:47:50.516773+01 | 1486748870.51677 | pgbench_branches |            16384

 2017-02-10 18:47:51.603023+01 | 1486748871.60302 | pgbench_accounts |       4133101568
 2017-02-10 18:47:51.603023+01 | 1486748871.60302 | pgbench_tellers  |           139264
 2017-02-10 18:47:51.603023+01 | 1486748871.60302 | pgbench_history  |        211845120
 2017-02-10 18:47:51.603023+01 | 1486748871.60302 | pgbench_branches |            16384

 2017-02-10 18:47:52.677045+01 | 1486748872.67705 | pgbench_accounts |       4133101568
 2017-02-10 18:47:52.677045+01 | 1486748872.67705 | pgbench_tellers  |           139264
 2017-02-10 18:47:52.677045+01 | 1486748872.67705 | pgbench_history  |        212852736
 2017-02-10 18:47:52.677045+01 | 1486748872.67705 | pgbench_branches |            16384

 2017-02-10 18:47:53.738318+01 | 1486748873.73832 | pgbench_accounts |       4133101568
 2017-02-10 18:47:53.738318+01 | 1486748873.73832 | pgbench_tellers  |           139264
 2017-02-10 18:47:53.738318+01 | 1486748873.73832 | pgbench_history  |        213770240
 2017-02-10 18:47:53.738318+01 | 1486748873.73832 | pgbench_branches |            16384

 2017-02-10 18:47:54.793886+01 | 1486748874.79389 | pgbench_accounts |       4133101568
 2017-02-10 18:47:54.793886+01 | 1486748874.79389 | pgbench_tellers  |           139264
 2017-02-10 18:47:54.793886+01 | 1486748874.79389 | pgbench_history  |        214974464
 2017-02-10 18:47:54.793886+01 | 1486748874.79389 | pgbench_branches |            16384

 2017-02-10 18:47:55.868327+01 | 1486748875.86833 | pgbench_accounts |       4133101568
 2017-02-10 18:47:55.868327+01 | 1486748875.86833 | pgbench_tellers  |           139264
 2017-02-10 18:47:55.868327+01 | 1486748875.86833 | pgbench_history  |        216227840
 2017-02-10 18:47:55.868327+01 | 1486748875.86833 | pgbench_branches |            16384

 2017-02-10 18:47:56.943223+01 | 1486748876.94322 | pgbench_accounts |       4133101568
 2017-02-10 18:47:56.943223+01 | 1486748876.94322 | pgbench_tellers  |           139264
 2017-02-10 18:47:56.943223+01 | 1486748876.94322 | pgbench_history  |        216653824
 2017-02-10 18:47:56.943223+01 | 1486748876.94322 | pgbench_branches |            16384

 2017-02-10 18:47:58.046731+01 | 1486748878.04673 | pgbench_accounts |       4133101568
 2017-02-10 18:47:58.046731+01 | 1486748878.04673 | pgbench_tellers  |           139264
 2017-02-10 18:47:58.046731+01 | 1486748878.04673 | pgbench_history  |        217792512
 2017-02-10 18:47:58.046731+01 | 1486748878.04673 | pgbench_branches |            16384

 2017-02-10 18:47:59.124377+01 | 1486748879.12438 | pgbench_accounts |       4133101568
 2017-02-10 18:47:59.124377+01 | 1486748879.12438 | pgbench_tellers  |           139264
 2017-02-10 18:47:59.124377+01 | 1486748879.12438 | pgbench_history  |        219324416
 2017-02-10 18:47:59.124377+01 | 1486748879.12438 | pgbench_branches |            16384

 2017-02-10 18:48:00.19737+01 | 1486748880.19737 | pgbench_accounts |       4133101568
 2017-02-10 18:48:00.19737+01 | 1486748880.19737 | pgbench_tellers  |           139264
 2017-02-10 18:48:00.19737+01 | 1486748880.19737 | pgbench_history  |        219725824
 2017-02-10 18:48:00.19737+01 | 1486748880.19737 | pgbench_branches |            16384

 2017-02-10 18:48:01.273297+01 | 1486748881.2733 | pgbench_accounts |       4133101568
 2017-02-10 18:48:01.273297+01 | 1486748881.2733 | pgbench_tellers  |           139264
 2017-02-10 18:48:01.273297+01 | 1486748881.2733 | pgbench_history  |        220807168
 2017-02-10 18:48:01.273297+01 | 1486748881.2733 | pgbench_branches |            16384

 2017-02-10 18:48:02.383182+01 | 1486748882.38318 | pgbench_accounts |       4133101568
 2017-02-10 18:48:02.383182+01 | 1486748882.38318 | pgbench_tellers  |           139264
 2017-02-10 18:48:02.383182+01 | 1486748882.38318 | pgbench_history  |        221716480
 2017-02-10 18:48:02.383182+01 | 1486748882.38318 | pgbench_branches |            16384

 2017-02-10 18:48:03.457622+01 | 1486748883.45762 | pgbench_accounts |       4133101568
 2017-02-10 18:48:03.457622+01 | 1486748883.45762 | pgbench_tellers  |           139264
 2017-02-10 18:48:03.457622+01 | 1486748883.45762 | pgbench_history  |        222830592
 2017-02-10 18:48:03.457622+01 | 1486748883.45762 | pgbench_branches |            16384

 2017-02-10 18:48:04.564467+01 | 1486748884.56447 | pgbench_accounts |       4133101568
 2017-02-10 18:48:04.564467+01 | 1486748884.56447 | pgbench_tellers  |           139264
 2017-02-10 18:48:04.564467+01 | 1486748884.56447 | pgbench_history  |        223838208
 2017-02-10 18:48:04.564467+01 | 1486748884.56447 | pgbench_branches |            16384

 2017-02-10 18:48:05.656604+01 | 1486748885.6566 | pgbench_accounts |       4133101568
 2017-02-10 18:48:05.656604+01 | 1486748885.6566 | pgbench_tellers  |           139264
 2017-02-10 18:48:05.656604+01 | 1486748885.6566 | pgbench_history  |        225165312
 2017-02-10 18:48:05.656604+01 | 1486748885.6566 | pgbench_branches |            16384

 2017-02-10 18:48:06.731536+01 | 1486748886.73154 | pgbench_accounts |       4133101568
 2017-02-10 18:48:06.731536+01 | 1486748886.73154 | pgbench_tellers  |           139264
 2017-02-10 18:48:06.731536+01 | 1486748886.73154 | pgbench_history  |        225738752
 2017-02-10 18:48:06.731536+01 | 1486748886.73154 | pgbench_branches |            16384

 2017-02-10 18:48:07.792047+01 | 1486748887.79205 | pgbench_accounts |       4133101568
 2017-02-10 18:48:07.792047+01 | 1486748887.79205 | pgbench_tellers  |           139264
 2017-02-10 18:48:07.792047+01 | 1486748887.79205 | pgbench_history  |        226721792
 2017-02-10 18:48:07.792047+01 | 1486748887.79205 | pgbench_branches |            16384

 2017-02-10 18:48:08.870667+01 | 1486748888.87067 | pgbench_accounts |       4133101568
 2017-02-10 18:48:08.870667+01 | 1486748888.87067 | pgbench_tellers  |           139264
 2017-02-10 18:48:08.870667+01 | 1486748888.87067 | pgbench_history  |        227844096
 2017-02-10 18:48:08.870667+01 | 1486748888.87067 | pgbench_branches |            16384

 2017-02-10 18:48:09.966076+01 | 1486748889.96608 | pgbench_accounts |       4133101568
 2017-02-10 18:48:09.966076+01 | 1486748889.96608 | pgbench_tellers  |           139264
 2017-02-10 18:48:09.966076+01 | 1486748889.96608 | pgbench_history  |        228786176
 2017-02-10 18:48:09.966076+01 | 1486748889.96608 | pgbench_branches |            16384

 2017-02-10 18:48:11.040056+01 | 1486748891.04006 | pgbench_accounts |       4133101568
 2017-02-10 18:48:11.040056+01 | 1486748891.04006 | pgbench_tellers  |           139264
 2017-02-10 18:48:11.040056+01 | 1486748891.04006 | pgbench_history  |        229720064
 2017-02-10 18:48:11.040056+01 | 1486748891.04006 | pgbench_branches |            16384

 2017-02-10 18:48:12.11944+01 | 1486748892.11944 | pgbench_accounts |       4133101568
 2017-02-10 18:48:12.11944+01 | 1486748892.11944 | pgbench_tellers  |           139264
 2017-02-10 18:48:12.11944+01 | 1486748892.11944 | pgbench_history  |        230760448
 2017-02-10 18:48:12.11944+01 | 1486748892.11944 | pgbench_branches |            16384

 2017-02-10 18:48:13.193604+01 | 1486748893.1936 | pgbench_accounts |       4133101568
 2017-02-10 18:48:13.193604+01 | 1486748893.1936 | pgbench_tellers  |           139264
 2017-02-10 18:48:13.193604+01 | 1486748893.1936 | pgbench_history  |        231874560
 2017-02-10 18:48:13.193604+01 | 1486748893.1936 | pgbench_branches |            16384

 2017-02-10 18:48:14.279845+01 | 1486748894.27984 | pgbench_accounts |       4133101568
 2017-02-10 18:48:14.279845+01 | 1486748894.27984 | pgbench_tellers  |           139264
 2017-02-10 18:48:14.279845+01 | 1486748894.27984 | pgbench_history  |        232775680
 2017-02-10 18:48:14.279845+01 | 1486748894.27984 | pgbench_branches |            16384

 2017-02-10 18:48:15.348762+01 | 1486748895.34876 | pgbench_accounts |       4133101568
 2017-02-10 18:48:15.348762+01 | 1486748895.34876 | pgbench_tellers  |           139264
 2017-02-10 18:48:15.348762+01 | 1486748895.34876 | pgbench_history  |        233758720
 2017-02-10 18:48:15.348762+01 | 1486748895.34876 | pgbench_branches |            16384

 2017-02-10 18:48:16.444625+01 | 1486748896.44462 | pgbench_accounts |       4133101568
 2017-02-10 18:48:16.444625+01 | 1486748896.44462 | pgbench_tellers  |           139264
 2017-02-10 18:48:16.444625+01 | 1486748896.44462 | pgbench_history  |        234635264
 2017-02-10 18:48:16.444625+01 | 1486748896.44462 | pgbench_branches |            16384

 2017-02-10 18:48:17.515776+01 | 1486748897.51578 | pgbench_accounts |       4133101568
 2017-02-10 18:48:17.515776+01 | 1486748897.51578 | pgbench_tellers  |           139264
 2017-02-10 18:48:17.515776+01 | 1486748897.51578 | pgbench_history  |        235708416
 2017-02-10 18:48:17.515776+01 | 1486748897.51578 | pgbench_branches |            16384

 2017-02-10 18:48:18.601845+01 | 1486748898.60185 | pgbench_accounts |       4133101568
 2017-02-10 18:48:18.601845+01 | 1486748898.60185 | pgbench_tellers  |           139264
 2017-02-10 18:48:18.601845+01 | 1486748898.60185 | pgbench_history  |        236929024
 2017-02-10 18:48:18.601845+01 | 1486748898.60185 | pgbench_branches |            16384

 2017-02-10 18:48:19.679142+01 | 1486748899.67914 | pgbench_accounts |       4133101568
 2017-02-10 18:48:19.679142+01 | 1486748899.67914 | pgbench_tellers  |           139264
 2017-02-10 18:48:19.679142+01 | 1486748899.67914 | pgbench_history  |        237862912
 2017-02-10 18:48:19.679142+01 | 1486748899.67914 | pgbench_branches |            16384

 2017-02-10 18:48:20.771912+01 | 1486748900.77191 | pgbench_accounts |       4133101568
 2017-02-10 18:48:20.771912+01 | 1486748900.77191 | pgbench_tellers  |           139264
 2017-02-10 18:48:20.771912+01 | 1486748900.77191 | pgbench_history  |        238608384
 2017-02-10 18:48:20.771912+01 | 1486748900.77191 | pgbench_branches |            16384

 2017-02-10 18:48:21.844581+01 | 1486748901.84458 | pgbench_accounts |       4133101568
 2017-02-10 18:48:21.844581+01 | 1486748901.84458 | pgbench_tellers  |           139264
 2017-02-10 18:48:21.844581+01 | 1486748901.84458 | pgbench_history  |        239976448
 2017-02-10 18:48:21.844581+01 | 1486748901.84458 | pgbench_branches |            16384

 2017-02-10 18:48:22.930347+01 | 1486748902.93035 | pgbench_accounts |       4133101568
 2017-02-10 18:48:22.930347+01 | 1486748902.93035 | pgbench_tellers  |           139264
 2017-02-10 18:48:22.930347+01 | 1486748902.93035 | pgbench_history  |        240607232
 2017-02-10 18:48:22.930347+01 | 1486748902.93035 | pgbench_branches |            16384

 2017-02-10 18:48:24.004815+01 | 1486748904.00482 | pgbench_accounts |       4133101568
 2017-02-10 18:48:24.004815+01 | 1486748904.00482 | pgbench_tellers  |           139264
 2017-02-10 18:48:24.004815+01 | 1486748904.00482 | pgbench_history  |        241754112
 2017-02-10 18:48:24.004815+01 | 1486748904.00482 | pgbench_branches |            16384

 2017-02-10 18:48:25.084431+01 | 1486748905.08443 | pgbench_accounts |       4133101568
 2017-02-10 18:48:25.084431+01 | 1486748905.08443 | pgbench_tellers  |           139264
 2017-02-10 18:48:25.084431+01 | 1486748905.08443 | pgbench_history  |        242434048
 2017-02-10 18:48:25.084431+01 | 1486748905.08443 | pgbench_branches |            16384

 2017-02-10 18:48:26.171997+01 | 1486748906.172 | pgbench_accounts |       4133101568
 2017-02-10 18:48:26.171997+01 | 1486748906.172 | pgbench_tellers  |           139264
 2017-02-10 18:48:26.171997+01 | 1486748906.172 | pgbench_history  |        243458048
 2017-02-10 18:48:26.171997+01 | 1486748906.172 | pgbench_branches |            16384

 2017-02-10 18:48:27.243094+01 | 1486748907.24309 | pgbench_accounts |       4133101568
 2017-02-10 18:48:27.243094+01 | 1486748907.24309 | pgbench_tellers  |           139264
 2017-02-10 18:48:27.243094+01 | 1486748907.24309 | pgbench_history  |        244432896
 2017-02-10 18:48:27.243094+01 | 1486748907.24309 | pgbench_branches |            16384

 2017-02-10 18:48:28.312314+01 | 1486748908.31231 | pgbench_accounts |       4133101568
 2017-02-10 18:48:28.312314+01 | 1486748908.31231 | pgbench_tellers  |           139264
 2017-02-10 18:48:28.312314+01 | 1486748908.31231 | pgbench_history  |        246079488
 2017-02-10 18:48:28.312314+01 | 1486748908.31231 | pgbench_branches |            16384

 2017-02-10 18:48:29.393647+01 | 1486748909.39365 | pgbench_accounts |       4133101568
 2017-02-10 18:48:29.393647+01 | 1486748909.39365 | pgbench_tellers  |           139264
 2017-02-10 18:48:29.393647+01 | 1486748909.39365 | pgbench_history  |        246276096
 2017-02-10 18:48:29.393647+01 | 1486748909.39365 | pgbench_branches |            16384

 2017-02-10 18:48:30.475355+01 | 1486748910.47535 | pgbench_accounts |       4133101568
 2017-02-10 18:48:30.475355+01 | 1486748910.47535 | pgbench_tellers  |           139264
 2017-02-10 18:48:30.475355+01 | 1486748910.47535 | pgbench_history  |        247414784
 2017-02-10 18:48:30.475355+01 | 1486748910.47535 | pgbench_branches |            16384

 2017-02-10 18:48:31.544969+01 | 1486748911.54497 | pgbench_accounts |       4133101568
 2017-02-10 18:48:31.544969+01 | 1486748911.54497 | pgbench_tellers  |           139264
 2017-02-10 18:48:31.544969+01 | 1486748911.54497 | pgbench_history  |        249274368
 2017-02-10 18:48:31.544969+01 | 1486748911.54497 | pgbench_branches |            16384

 2017-02-10 18:48:32.626686+01 | 1486748912.62669 | pgbench_accounts |       4133101568
 2017-02-10 18:48:32.626686+01 | 1486748912.62669 | pgbench_tellers  |           139264
 2017-02-10 18:48:32.626686+01 | 1486748912.62669 | pgbench_history  |        249274368
 2017-02-10 18:48:32.626686+01 | 1486748912.62669 | pgbench_branches |            16384

 2017-02-10 18:48:33.704558+01 | 1486748913.70456 | pgbench_accounts |       4133101568
 2017-02-10 18:48:33.704558+01 | 1486748913.70456 | pgbench_tellers  |           139264
 2017-02-10 18:48:33.704558+01 | 1486748913.70456 | pgbench_history  |        251846656
 2017-02-10 18:48:33.704558+01 | 1486748913.70456 | pgbench_branches |            16384

 2017-02-10 18:48:34.80958+01 | 1486748914.80958 | pgbench_accounts |       4133101568
 2017-02-10 18:48:34.80958+01 | 1486748914.80958 | pgbench_tellers  |           139264
 2017-02-10 18:48:34.80958+01 | 1486748914.80958 | pgbench_history  |        251846656
 2017-02-10 18:48:34.80958+01 | 1486748914.80958 | pgbench_branches |            16384

 2017-02-10 18:48:35.886679+01 | 1486748915.88668 | pgbench_accounts |       4133101568
 2017-02-10 18:48:35.886679+01 | 1486748915.88668 | pgbench_tellers  |           139264
 2017-02-10 18:48:35.886679+01 | 1486748915.88668 | pgbench_history  |        252723200
 2017-02-10 18:48:35.886679+01 | 1486748915.88668 | pgbench_branches |            16384

 2017-02-10 18:48:36.955142+01 | 1486748916.95514 | pgbench_accounts |       4133101568
 2017-02-10 18:48:36.955142+01 | 1486748916.95514 | pgbench_tellers  |           139264
 2017-02-10 18:48:36.955142+01 | 1486748916.95514 | pgbench_history  |        253149184
 2017-02-10 18:48:36.955142+01 | 1486748916.95514 | pgbench_branches |            16384

 2017-02-10 18:48:38.045133+01 | 1486748918.04513 | pgbench_accounts |       4133101568
 2017-02-10 18:48:38.045133+01 | 1486748918.04513 | pgbench_tellers  |           139264
 2017-02-10 18:48:38.045133+01 | 1486748918.04513 | pgbench_history  |        254083072
 2017-02-10 18:48:38.045133+01 | 1486748918.04513 | pgbench_branches |            16384

 2017-02-10 18:48:39.116808+01 | 1486748919.11681 | pgbench_accounts |       4133101568
 2017-02-10 18:48:39.116808+01 | 1486748919.11681 | pgbench_tellers  |           139264
 2017-02-10 18:48:39.116808+01 | 1486748919.11681 | pgbench_history  |        255082496
 2017-02-10 18:48:39.116808+01 | 1486748919.11681 | pgbench_branches |            16384

 2017-02-10 18:48:40.20614+01 | 1486748920.20614 | pgbench_accounts |       4133101568
 2017-02-10 18:48:40.20614+01 | 1486748920.20614 | pgbench_tellers  |           139264
 2017-02-10 18:48:40.20614+01 | 1486748920.20614 | pgbench_history  |        256040960
 2017-02-10 18:48:40.20614+01 | 1486748920.20614 | pgbench_branches |            16384

 2017-02-10 18:48:41.300951+01 | 1486748921.30095 | pgbench_accounts |       4133101568
 2017-02-10 18:48:41.300951+01 | 1486748921.30095 | pgbench_tellers  |           139264
 2017-02-10 18:48:41.300951+01 | 1486748921.30095 | pgbench_history  |        257048576
 2017-02-10 18:48:41.300951+01 | 1486748921.30095 | pgbench_branches |            16384

 2017-02-10 18:48:42.372222+01 | 1486748922.37222 | pgbench_accounts |       4133101568
 2017-02-10 18:48:42.372222+01 | 1486748922.37222 | pgbench_tellers  |           139264
 2017-02-10 18:48:42.372222+01 | 1486748922.37222 | pgbench_history  |        257949696
 2017-02-10 18:48:42.372222+01 | 1486748922.37222 | pgbench_branches |            16384

 2017-02-10 18:48:43.456558+01 | 1486748923.45656 | pgbench_accounts |       4133101568
 2017-02-10 18:48:43.456558+01 | 1486748923.45656 | pgbench_tellers  |           139264
 2017-02-10 18:48:43.456558+01 | 1486748923.45656 | pgbench_history  |        258916352
 2017-02-10 18:48:43.456558+01 | 1486748923.45656 | pgbench_branches |            16384

 2017-02-10 18:48:44.535359+01 | 1486748924.53536 | pgbench_accounts |       4133101568
 2017-02-10 18:48:44.535359+01 | 1486748924.53536 | pgbench_tellers  |           139264
 2017-02-10 18:48:44.535359+01 | 1486748924.53536 | pgbench_history  |        259981312
 2017-02-10 18:48:44.535359+01 | 1486748924.53536 | pgbench_branches |            16384

 2017-02-10 18:48:45.615776+01 | 1486748925.61578 | pgbench_accounts |       4133101568
 2017-02-10 18:48:45.615776+01 | 1486748925.61578 | pgbench_tellers  |           139264
 2017-02-10 18:48:45.615776+01 | 1486748925.61578 | pgbench_history  |        260890624
 2017-02-10 18:48:45.615776+01 | 1486748925.61578 | pgbench_branches |            16384

 2017-02-10 18:48:46.705926+01 | 1486748926.70593 | pgbench_accounts |       4133101568
 2017-02-10 18:48:46.705926+01 | 1486748926.70593 | pgbench_tellers  |           139264
 2017-02-10 18:48:46.705926+01 | 1486748926.70593 | pgbench_history  |        262012928
 2017-02-10 18:48:46.705926+01 | 1486748926.70593 | pgbench_branches |            16384

 2017-02-10 18:48:47.791787+01 | 1486748927.79179 | pgbench_accounts |       4133101568
 2017-02-10 18:48:47.791787+01 | 1486748927.79179 | pgbench_tellers  |           139264
 2017-02-10 18:48:47.791787+01 | 1486748927.79179 | pgbench_history  |        262782976
 2017-02-10 18:48:47.791787+01 | 1486748927.79179 | pgbench_branches |            16384

 2017-02-10 18:48:48.857903+01 | 1486748928.8579 | pgbench_accounts |       4133101568
 2017-02-10 18:48:48.857903+01 | 1486748928.8579 | pgbench_tellers  |           139264
 2017-02-10 18:48:48.857903+01 | 1486748928.8579 | pgbench_history  |        263684096
 2017-02-10 18:48:48.857903+01 | 1486748928.8579 | pgbench_branches |            16384

 2017-02-10 18:48:49.919845+01 | 1486748929.91985 | pgbench_accounts |       4133101568
 2017-02-10 18:48:49.919845+01 | 1486748929.91985 | pgbench_tellers  |           139264
 2017-02-10 18:48:49.919845+01 | 1486748929.91985 | pgbench_history  |        264650752
 2017-02-10 18:48:49.919845+01 | 1486748929.91985 | pgbench_branches |            16384

 2017-02-10 18:48:51.016442+01 | 1486748931.01644 | pgbench_accounts |       4133101568
 2017-02-10 18:48:51.016442+01 | 1486748931.01644 | pgbench_tellers  |           139264
 2017-02-10 18:48:51.016442+01 | 1486748931.01644 | pgbench_history  |        265846784
 2017-02-10 18:48:51.016442+01 | 1486748931.01644 | pgbench_branches |            16384

 2017-02-10 18:48:52.104158+01 | 1486748932.10416 | pgbench_accounts |       4133101568
 2017-02-10 18:48:52.104158+01 | 1486748932.10416 | pgbench_tellers  |           139264
 2017-02-10 18:48:52.104158+01 | 1486748932.10416 | pgbench_history  |        266665984
 2017-02-10 18:48:52.104158+01 | 1486748932.10416 | pgbench_branches |            16384

