 2017-02-10 18:43:52.504701+01 | 1486748632.5047 | A/D22C7490               |           46475801744

 2017-02-10 18:43:53.56758+01 | 1486748633.56758 | A/D97E7530               |           46598616368

 2017-02-10 18:43:54.634736+01 | 1486748634.63474 | A/E064B370               |           46714368880

 2017-02-10 18:43:55.702043+01 | 1486748635.70204 | A/E6DAA9B8               |           46822762936

 2017-02-10 18:43:56.775043+01 | 1486748636.77504 | A/ED094F28               |           46926483240

 2017-02-10 18:43:57.842928+01 | 1486748637.84293 | A/F26BF6A0               |           47016834720

 2017-02-10 18:43:58.918232+01 | 1486748638.91823 | A/F7E88860               |           47108884576

 2017-02-10 18:43:59.999277+01 | 1486748639.99928 | A/FCE449D8               |           47192492504

 2017-02-10 18:44:01.083498+01 | 1486748641.0835 | B/1986BF8                |           47271406584

 2017-02-10 18:44:02.16431+01 | 1486748642.16431 | B/5BE1A70                |           47340984944

 2017-02-10 18:44:03.241889+01 | 1486748643.24189 | B/9D3DAB8                |           47409519288

 2017-02-10 18:44:04.317756+01 | 1486748644.31776 | B/D791C80                |           47470681216

 2017-02-10 18:44:05.394353+01 | 1486748645.39435 | B/111BAA08               |           47531665928

 2017-02-10 18:44:06.459824+01 | 1486748646.45982 | B/144FD8A0               |           47585417376

 2017-02-10 18:44:07.525259+01 | 1486748647.52526 | B/176798D0               |           47637305552

 2017-02-10 18:44:08.587449+01 | 1486748648.58745 | B/1A76BDA8               |           47688629672

 2017-02-10 18:44:09.652652+01 | 1486748649.65265 | B/1D431F88               |           47735578504

 2017-02-10 18:44:10.741285+01 | 1486748650.74129 | B/20158620               |           47782921760

 2017-02-10 18:44:11.815393+01 | 1486748651.81539 | B/22AC2E70               |           47826349680

 2017-02-10 18:44:12.901065+01 | 1486748652.90107 | B/253BCBB0               |           47869316016

 2017-02-10 18:44:13.974379+01 | 1486748653.97438 | B/27BB23D8               |           47911216088

 2017-02-10 18:44:15.035728+01 | 1486748655.03573 | B/2A1095A8               |           47950370216

 2017-02-10 18:44:16.132643+01 | 1486748656.13264 | B/2C6D6FB8               |           47990009784

 2017-02-10 18:44:17.214347+01 | 1486748657.21435 | B/2EB4BB90               |           48028236688

 2017-02-10 18:44:18.296912+01 | 1486748658.29691 | B/30E96A58               |           48065243736

 2017-02-10 18:44:19.377259+01 | 1486748659.37726 | B/32E5C4C0               |           48098559168

 2017-02-10 18:44:20.44399+01 | 1486748660.44399 | B/34C9C6D8               |           48130279128

 2017-02-10 18:44:21.511378+01 | 1486748661.51138 | B/36C82BB8               |           48163728312

 2017-02-10 18:44:22.59688+01 | 1486748662.59688 | B/38CAD608               |           48197457416

 2017-02-10 18:44:23.668084+01 | 1486748663.66808 | B/3ABC7758               |           48230070104

 2017-02-10 18:44:24.738445+01 | 1486748664.73845 | B/3CA532C0               |           48262099648

 2017-02-10 18:44:25.81845+01 | 1486748665.81845 | B/3E929810               |           48294434832

 2017-02-10 18:44:26.894179+01 | 1486748666.89418 | B/4071EE80               |           48325848704

 2017-02-10 18:44:27.992535+01 | 1486748667.99254 | B/42556850               |           48357533776

 2017-02-10 18:44:29.077121+01 | 1486748669.07712 | B/44262890               |           48387991696

 2017-02-10 18:44:30.141298+01 | 1486748670.1413 | B/45DA3390               |           48416568208

 2017-02-10 18:44:31.212738+01 | 1486748671.21274 | B/47982848               |           48445794376

 2017-02-10 18:44:32.292446+01 | 1486748672.29245 | B/495D4B10               |           48475491088

 2017-02-10 18:44:33.362258+01 | 1486748673.36226 | B/4B1AC2F8               |           48504685304

 2017-02-10 18:44:34.456842+01 | 1486748674.45684 | B/4CCF4D30               |           48533294384

 2017-02-10 18:44:35.528833+01 | 1486748675.52883 | B/4E7ACEA8               |           48561311400

 2017-02-10 18:44:36.600996+01 | 1486748676.601 | B/50220FD8               |           48589049816

 2017-02-10 18:44:37.681525+01 | 1486748677.68152 | B/51B74330               |           48615605040

 2017-02-10 18:44:38.76747+01 | 1486748678.76747 | B/535CF770               |           48643241840

 2017-02-10 18:44:39.835473+01 | 1486748679.83547 | B/54FC3068               |           48670453864

 2017-02-10 18:44:40.910856+01 | 1486748680.91086 | B/568E87B8               |           48696821688

 2017-02-10 18:44:41.997952+01 | 1486748681.99795 | B/5821BE80               |           48723246720

 2017-02-10 18:44:43.096488+01 | 1486748683.09649 | B/59B90850               |           48749938768

 2017-02-10 18:44:44.180762+01 | 1486748684.18076 | B/5B419B38               |           48775666488

 2017-02-10 18:44:45.276368+01 | 1486748685.27637 | B/5CCB4960               |           48801466720

 2017-02-10 18:44:46.370281+01 | 1486748686.37028 | B/5E5A6EC8               |           48827625160

 2017-02-10 18:44:47.448103+01 | 1486748687.4481 | B/5FCCB5A8               |           48851891624

 2017-02-10 18:44:48.529076+01 | 1486748688.52908 | B/61439D08               |           48876461320

 2017-02-10 18:44:49.606205+01 | 1486748689.6062 | B/62C756D8               |           48901871320

 2017-02-10 18:44:50.691852+01 | 1486748690.69185 | B/64438E30               |           48926789168

 2017-02-10 18:44:51.778952+01 | 1486748691.77895 | B/65B96728               |           48951289640

 2017-02-10 18:44:52.849627+01 | 1486748692.84963 | B/6730BD80               |           48975888736

 2017-02-10 18:44:53.910664+01 | 1486748693.91066 | B/68A25BC0               |           49000111040

 2017-02-10 18:44:55.004577+01 | 1486748695.00458 | B/6A13B630               |           49024316976

 2017-02-10 18:44:56.098898+01 | 1486748696.0989 | B/6B8843F0               |           49048732656

 2017-02-10 18:44:57.183492+01 | 1486748697.18349 | B/6CF11B30               |           49072380720

 2017-02-10 18:44:58.252152+01 | 1486748698.25215 | B/6E55E000               |           49095761920

 2017-02-10 18:44:59.347146+01 | 1486748699.34715 | B/6FC43B80               |           49119771520

 2017-02-10 18:45:00.412443+01 | 1486748700.41244 | B/712AFA40               |           49143282240

 2017-02-10 18:45:01.489013+01 | 1486748701.48901 | B/728F9390               |           49166652304

 2017-02-10 18:45:02.552001+01 | 1486748702.552 | B/73EFD020               |           49189736480

 2017-02-10 18:45:03.620702+01 | 1486748703.6207 | B/75519BF8               |           49212922872

 2017-02-10 18:45:04.687888+01 | 1486748704.68789 | B/76B26220               |           49236042272

 2017-02-10 18:45:05.772272+01 | 1486748705.77227 | B/78183D60               |           49259494752

 2017-02-10 18:45:06.850826+01 | 1486748706.85083 | B/798551B8               |           49283420600

 2017-02-10 18:45:07.940185+01 | 1486748707.94019 | B/7ADAD8A8               |           49305802920

 2017-02-10 18:45:09.030959+01 | 1486748709.03096 | B/7C3DEC20               |           49329073184

 2017-02-10 18:45:10.098795+01 | 1486748710.09879 | B/7D95D198               |           49351610776

 2017-02-10 18:45:11.204823+01 | 1486748711.20482 | B/7EF49570               |           49374598512

 2017-02-10 18:45:12.274939+01 | 1486748712.27494 | B/804A8888               |           49397008520

 2017-02-10 18:45:13.367712+01 | 1486748713.36771 | B/81B16E48               |           49420529224

 2017-02-10 18:45:14.450263+01 | 1486748714.45026 | B/830FAF00               |           49443483392

 2017-02-10 18:45:15.537142+01 | 1486748715.53714 | B/8469A2B8               |           49466155704

 2017-02-10 18:45:16.600274+01 | 1486748716.60027 | B/85B503E8               |           49487873000

 2017-02-10 18:45:17.669629+01 | 1486748717.66963 | B/87069170               |           49509994864

 2017-02-10 18:45:18.735542+01 | 1486748718.73554 | B/88554850               |           49531930704

 2017-02-10 18:45:19.828742+01 | 1486748719.82874 | B/896E3650               |           49550341712

 2017-02-10 18:45:20.905689+01 | 1486748720.90569 | B/8A80FBA8               |           49568349096

 2017-02-10 18:45:22.012563+01 | 1486748722.01256 | B/8BB97C88               |           49588829320

 2017-02-10 18:45:23.085465+01 | 1486748723.08546 | B/8D063E18               |           49610636824

 2017-02-10 18:45:24.17859+01 | 1486748724.17859 | B/8E6EE300               |           49634272000

 2017-02-10 18:45:25.264907+01 | 1486748725.26491 | B/8FE04368               |           49658479464

 2017-02-10 18:45:26.355943+01 | 1486748726.35594 | B/91560240               |           49682973248

 2017-02-10 18:45:27.441747+01 | 1486748727.44175 | B/92B3BCF0               |           49705893104

 2017-02-10 18:45:28.517482+01 | 1486748728.51748 | B/940BA448               |           49728431176

 2017-02-10 18:45:29.593917+01 | 1486748729.59392 | B/9559B6A8               |           49750324904

 2017-02-10 18:45:30.672275+01 | 1486748730.67228 | B/96A890E0               |           49772269792

 2017-02-10 18:45:31.750445+01 | 1486748731.75044 | B/97F3BE48               |           49793973832

 2017-02-10 18:45:32.844577+01 | 1486748732.84458 | B/99449F10               |           49816051472

 2017-02-10 18:45:33.923742+01 | 1486748733.92374 | B/9A900E08               |           49837772296

 2017-02-10 18:45:35.028847+01 | 1486748735.02885 | B/9BE36CF8               |           49860013304

 2017-02-10 18:45:36.098721+01 | 1486748736.09872 | B/9D294B50               |           49881369424

 2017-02-10 18:45:37.177573+01 | 1486748737.17757 | B/9E6A32D0               |           49902400208

 2017-02-10 18:45:38.240049+01 | 1486748738.24005 | B/9FAD9498               |           49923593368

 2017-02-10 18:45:39.329922+01 | 1486748739.32992 | B/A0F0A570               |           49944765808

 2017-02-10 18:45:40.412308+01 | 1486748740.41231 | B/A232F238               |           49965888056

 2017-02-10 18:45:41.498446+01 | 1486748741.49845 | B/A38408E0               |           49987979488

 2017-02-10 18:45:42.55648+01 | 1486748742.55648 | B/A4C37F10               |           50008915728

 2017-02-10 18:45:43.622936+01 | 1486748743.62294 | B/A601D840               |           50029779008

 2017-02-10 18:45:44.695673+01 | 1486748744.69567 | B/A743EB00               |           50050886400

 2017-02-10 18:45:45.785378+01 | 1486748745.78538 | B/A883C438               |           50071847992

 2017-02-10 18:45:46.860773+01 | 1486748746.86077 | B/A9BE8988               |           50092476808

 2017-02-10 18:45:47.946732+01 | 1486748747.94673 | B/AAFD9EE0               |           50113388256

 2017-02-10 18:45:49.008503+01 | 1486748749.0085 | B/AC37B758               |           50133972824

 2017-02-10 18:45:50.082826+01 | 1486748750.08283 | B/AD733010               |           50154647568

 2017-02-10 18:45:51.159798+01 | 1486748751.1598 | B/AEAF8088               |           50175377544

 2017-02-10 18:45:52.255763+01 | 1486748752.25576 | B/AFEFDB38               |           50196372280

 2017-02-10 18:45:53.329828+01 | 1486748753.32983 | B/B1285BD0               |           50216852432

 2017-02-10 18:45:54.421528+01 | 1486748754.42153 | B/B2684830               |           50237818928

 2017-02-10 18:45:55.496393+01 | 1486748755.49639 | B/B3A947C0               |           50258855872

 2017-02-10 18:45:56.569365+01 | 1486748756.56937 | B/B4E0F4C0               |           50279281856

 2017-02-10 18:45:57.639446+01 | 1486748757.63945 | B/B5E64D58               |           50296409432

 2017-02-10 18:45:58.732188+01 | 1486748758.73219 | B/B65FE748               |           50304378696

 2017-02-10 18:45:59.822748+01 | 1486748759.82275 | B/B6CEBC18               |           50311642136

 2017-02-10 18:46:00.902009+01 | 1486748760.90201 | B/B7C17C60               |           50327551952

 2017-02-10 18:46:01.984334+01 | 1486748761.98433 | B/B97DBB10               |           50356665104

 2017-02-10 18:46:03.085285+01 | 1486748763.08528 | B/BAC04AE0               |           50377804512

 2017-02-10 18:46:04.182985+01 | 1486748764.18299 | B/BBD9A8D8               |           50396244184

 2017-02-10 18:46:05.257569+01 | 1486748765.25757 | B/BCD48410               |           50412684304

 2017-02-10 18:46:06.352254+01 | 1486748766.35225 | B/BDE07158               |           50430243160

 2017-02-10 18:46:07.434514+01 | 1486748767.43451 | B/BEE9B010               |           50447626256

 2017-02-10 18:46:08.523125+01 | 1486748768.52312 | B/C0003340               |           50465878848

 2017-02-10 18:46:09.599917+01 | 1486748769.59992 | B/C10B0418               |           50483364888

 2017-02-10 18:46:10.673801+01 | 1486748770.6738 | B/C21555C0               |           50500818368

 2017-02-10 18:46:11.738354+01 | 1486748771.73835 | B/C3149010               |           50517544976

 2017-02-10 18:46:12.820621+01 | 1486748772.82062 | B/C40DAD48               |           50533870920

 2017-02-10 18:46:13.897481+01 | 1486748773.89748 | B/C4FF53C8               |           50549707720

 2017-02-10 18:46:14.965015+01 | 1486748774.96501 | B/C5E3D3A8               |           50564682664

 2017-02-10 18:46:16.055227+01 | 1486748776.05523 | B/C6A59C20               |           50577382432

 2017-02-10 18:46:17.1494+01 | 1486748777.1494 | B/C75CE3A8               |           50589393832

 2017-02-10 18:46:18.226811+01 | 1486748778.22681 | B/C80ED768               |           50601056104

 2017-02-10 18:46:19.324791+01 | 1486748779.32479 | B/C8B2F4D8               |           50611811544

 2017-02-10 18:46:20.385208+01 | 1486748780.38521 | B/C9354B90               |           50620353424

 2017-02-10 18:46:21.469049+01 | 1486748781.46905 | B/C9C255C0               |           50629596608

 2017-02-10 18:46:22.536199+01 | 1486748782.5362 | B/CA515ED0               |           50638970576

 2017-02-10 18:46:23.622744+01 | 1486748783.62274 | B/CAE33FE0               |           50648530912

 2017-02-10 18:46:24.692862+01 | 1486748784.69286 | B/CB703FF8               |           50657771512

 2017-02-10 18:46:25.775334+01 | 1486748785.77533 | B/CC0508D0               |           50667522256

 2017-02-10 18:46:26.859985+01 | 1486748786.85999 | B/CC9AA3D0               |           50677326800

 2017-02-10 18:46:27.966858+01 | 1486748787.96686 | B/CD3BC2F0               |           50687886064

 2017-02-10 18:46:29.047949+01 | 1486748789.04795 | B/CDE34E10               |           50698866192

 2017-02-10 18:46:30.129957+01 | 1486748790.12996 | B/CE7177E8               |           50708183016

 2017-02-10 18:46:31.236001+01 | 1486748791.236 | B/CEE3ECB0               |           50715684016

 2017-02-10 18:46:32.316915+01 | 1486748792.31692 | B/CF49B0E8               |           50722353384

 2017-02-10 18:46:33.396068+01 | 1486748793.39607 | B/CFB6A390               |           50729493392

 2017-02-10 18:46:34.467637+01 | 1486748794.46764 | B/D027A070               |           50736898160

 2017-02-10 18:46:35.550692+01 | 1486748795.55069 | B/D0A81620               |           50745316896

 2017-02-10 18:46:36.619484+01 | 1486748796.61948 | B/D13B9790               |           50754983824

 2017-02-10 18:46:37.700966+01 | 1486748797.70097 | B/D1D27F28               |           50764873512

 2017-02-10 18:46:38.777093+01 | 1486748798.77709 | B/D2830AC0               |           50776443584

 2017-02-10 18:46:39.8723+01 | 1486748799.8723 | B/D3203760               |           50786744160

 2017-02-10 18:46:40.947495+01 | 1486748800.94749 | B/D37F3A70               |           50792970864

 2017-02-10 18:46:42.042462+01 | 1486748802.04246 | B/D3DF5190               |           50799268240

 2017-02-10 18:46:43.138144+01 | 1486748803.13814 | B/D43EF6F8               |           50805536504

 2017-02-10 18:46:44.224234+01 | 1486748804.22423 | B/D4A2FDE0               |           50812091872

 2017-02-10 18:46:45.289761+01 | 1486748805.28976 | B/D5046E60               |           50818477664

 2017-02-10 18:46:46.381642+01 | 1486748806.38164 | B/D5648118               |           50824773912

 2017-02-10 18:46:47.47734+01 | 1486748807.47734 | B/D5C4ADD8               |           50831076824

 2017-02-10 18:46:48.569595+01 | 1486748808.5696 | B/D6243778               |           50837337976

 2017-02-10 18:46:49.662449+01 | 1486748809.66245 | B/D68309D8               |           50843552216

 2017-02-10 18:46:50.727733+01 | 1486748810.72773 | B/D6E01858               |           50849650776

 2017-02-10 18:46:51.82687+01 | 1486748811.82687 | B/D73D1950               |           50855745872

 2017-02-10 18:46:52.913819+01 | 1486748812.91382 | B/D79B4D80               |           50861919616

 2017-02-10 18:46:53.993686+01 | 1486748813.99369 | B/D7F6AC28               |           50867907624

 2017-02-10 18:46:55.074754+01 | 1486748815.07475 | B/D8591AD8               |           50874358488

 2017-02-10 18:46:56.132225+01 | 1486748816.13223 | B/D8B86048               |           50880602184

 2017-02-10 18:46:57.204926+01 | 1486748817.20493 | B/D915FD18               |           50886737176

 2017-02-10 18:46:58.305366+01 | 1486748818.30537 | B/D9735190               |           50892853648

 2017-02-10 18:46:59.409291+01 | 1486748819.40929 | B/D9D23FA8               |           50899074984

 2017-02-10 18:47:00.504443+01 | 1486748820.50444 | B/DA308168               |           50905252200

 2017-02-10 18:47:01.59273+01 | 1486748821.59273 | B/DA8CDBC0               |           50911304640

 2017-02-10 18:47:02.669619+01 | 1486748822.66962 | B/DAE8DF28               |           50917334824

 2017-02-10 18:47:03.740791+01 | 1486748823.74079 | B/DB4405B8               |           50923308472

 2017-02-10 18:47:04.817837+01 | 1486748824.81784 | B/DBA19FB8               |           50929442744

 2017-02-10 18:47:05.889349+01 | 1486748825.88935 | B/DBFAE2F0               |           50935292656

 2017-02-10 18:47:06.983289+01 | 1486748826.98329 | B/DC57FCC0               |           50941394112

 2017-02-10 18:47:08.068031+01 | 1486748828.06803 | B/DCB6DB88               |           50947611528

 2017-02-10 18:47:09.146127+01 | 1486748829.14613 | B/DD1C1950               |           50954246480

 2017-02-10 18:47:10.215479+01 | 1486748830.21548 | B/DD7EA058               |           50960703576

 2017-02-10 18:47:11.312461+01 | 1486748831.31246 | B/DDD99380               |           50966664064

 2017-02-10 18:47:12.404272+01 | 1486748832.40427 | B/DE32F2A0               |           50972521120

 2017-02-10 18:47:13.506851+01 | 1486748833.50685 | B/DE918360               |           50978718560

 2017-02-10 18:47:14.582047+01 | 1486748834.58205 | B/DEEA7FE8               |           50984550376

 2017-02-10 18:47:15.660525+01 | 1486748835.66053 | B/DF4460B8               |           50990440632

 2017-02-10 18:47:16.725776+01 | 1486748836.72578 | B/DFA19BF8               |           50996550648

 2017-02-10 18:47:17.812762+01 | 1486748837.81276 | B/DFF9BCA0               |           51002326176

 2017-02-10 18:47:18.905315+01 | 1486748838.90531 | B/E050C220               |           51008029216

 2017-02-10 18:47:19.989368+01 | 1486748839.98937 | B/E0A9B628               |           51013858856

 2017-02-10 18:47:21.090554+01 | 1486748841.09055 | B/E107F568               |           51020035432

 2017-02-10 18:47:22.171603+01 | 1486748842.1716 | B/E169D4F0               |           51026449648

 2017-02-10 18:47:23.267266+01 | 1486748843.26727 | B/E1CCB420               |           51032929312

 2017-02-10 18:47:24.374869+01 | 1486748844.37487 | B/E23175D8               |           51039532504

 2017-02-10 18:47:25.46725+01 | 1486748845.46725 | B/E29A4C50               |           51046403152

 2017-02-10 18:47:26.562179+01 | 1486748846.56218 | B/E306AC30               |           51053505584

 2017-02-10 18:47:27.638918+01 | 1486748847.63892 | B/E37AC108               |           51061113096

 2017-02-10 18:47:28.70628+01 | 1486748848.70628 | B/E3D7A508               |           51067200776

 2017-02-10 18:47:29.780659+01 | 1486748849.78066 | B/E4324CC8               |           51073141960

 2017-02-10 18:47:30.882307+01 | 1486748850.88231 | B/E48FF810               |           51079280656

 2017-02-10 18:47:31.966116+01 | 1486748851.96612 | B/E4E83160               |           51085062496

 2017-02-10 18:47:33.078452+01 | 1486748853.07845 | B/E541A708               |           51090925320

 2017-02-10 18:47:34.170298+01 | 1486748854.1703 | B/E59DA188               |           51096953224

 2017-02-10 18:47:35.25277+01 | 1486748855.25277 | B/E5F2E300               |           51102540544

 2017-02-10 18:47:36.352498+01 | 1486748856.3525 | B/E64B24D0               |           51108324560

 2017-02-10 18:47:37.434035+01 | 1486748857.43404 | B/E6A0BB38               |           51113933624

 2017-02-10 18:47:38.504741+01 | 1486748858.50474 | B/E6F9AAB8               |           51119762104

 2017-02-10 18:47:39.607963+01 | 1486748859.60796 | B/E751A3C8               |           51125527496

 2017-02-10 18:47:40.687541+01 | 1486748860.68754 | B/E7A8FE68               |           51131252328

 2017-02-10 18:47:41.747751+01 | 1486748861.74775 | B/E8029140               |           51137122624

 2017-02-10 18:47:42.817095+01 | 1486748862.8171 | B/E858F430               |           51142784048

 2017-02-10 18:47:43.912591+01 | 1486748863.91259 | B/E8AF34C8               |           51148436680

 2017-02-10 18:47:45.012989+01 | 1486748865.01299 | B/E90B1BD0               |           51154459600

 2017-02-10 18:47:46.119625+01 | 1486748866.11963 | B/E9637C60               |           51160251488

 2017-02-10 18:47:47.203359+01 | 1486748867.20336 | B/E9B7A410               |           51165766672

 2017-02-10 18:47:48.319265+01 | 1486748868.31926 | B/EA1340C8               |           51171770568

 2017-02-10 18:47:49.390796+01 | 1486748869.3908 | B/EA677070               |           51177287792

 2017-02-10 18:47:50.469786+01 | 1486748870.46979 | B/EABB73F8               |           51182793720

 2017-02-10 18:47:51.54859+01 | 1486748871.54859 | B/EB138E50               |           51188567632

 2017-02-10 18:47:52.628694+01 | 1486748872.62869 | B/EB6D54C8               |           51194451144

 2017-02-10 18:47:53.702515+01 | 1486748873.70251 | B/EBC2A7A0               |           51200042912

 2017-02-10 18:47:54.759109+01 | 1486748874.75911 | B/EC150D60               |           51205442912

 2017-02-10 18:47:55.817471+01 | 1486748875.81747 | B/EC6EB678               |           51211318904

 2017-02-10 18:47:56.904095+01 | 1486748876.90409 | B/ECC33EB8               |           51216858808

 2017-02-10 18:47:57.991434+01 | 1486748877.99143 | B/ED175EF8               |           51222372088

 2017-02-10 18:47:59.075591+01 | 1486748879.07559 | B/ED6EE698               |           51228108440

 2017-02-10 18:48:00.152778+01 | 1486748880.15278 | B/EDC2A158               |           51233595736

 2017-02-10 18:48:01.225376+01 | 1486748881.22538 | B/EE15B2F0               |           51239039728

 2017-02-10 18:48:02.314002+01 | 1486748882.314 | B/EE6F77A8               |           51244922792

 2017-02-10 18:48:03.408671+01 | 1486748883.40867 | B/EEC4E820               |           51250522144

 2017-02-10 18:48:04.509903+01 | 1486748884.5099 | B/EF1AD4F8               |           51256153336

 2017-02-10 18:48:05.596248+01 | 1486748885.59625 | B/EF742ED0               |           51262009040

 2017-02-10 18:48:06.687807+01 | 1486748886.68781 | B/EFC7CE80               |           51267489408

 2017-02-10 18:48:07.756344+01 | 1486748887.75634 | B/F01B8DC8               |           51272977864

 2017-02-10 18:48:08.81757+01 | 1486748888.81757 | B/F071CCF8               |           51278630136

 2017-02-10 18:48:09.910878+01 | 1486748889.91088 | B/F0C3FBD0               |           51284016080

 2017-02-10 18:48:10.99157+01 | 1486748890.99157 | B/F11517E0               |           51289331680

 2017-02-10 18:48:12.075793+01 | 1486748892.07579 | B/F16D1E20               |           51295100448

 2017-02-10 18:48:13.140981+01 | 1486748893.14098 | B/F1BC0418               |           51300271128

 2017-02-10 18:48:14.230541+01 | 1486748894.23054 | B/F20E68A8               |           51305670824

 2017-02-10 18:48:15.30859+01 | 1486748895.30859 | B/F2606438               |           51311043640

 2017-02-10 18:48:16.378882+01 | 1486748896.37888 | B/F2B3F770               |           51316520816

 2017-02-10 18:48:17.47378+01 | 1486748897.47378 | B/F307AA50               |           51322006096

 2017-02-10 18:48:18.547018+01 | 1486748898.54702 | B/F359FF18               |           51327401752

 2017-02-10 18:48:19.631951+01 | 1486748899.63195 | B/F3B4A5B8               |           51333342648

 2017-02-10 18:48:20.725634+01 | 1486748900.72563 | B/F40C7210               |           51339096592

 2017-02-10 18:48:21.803539+01 | 1486748901.80354 | B/F4600AD0               |           51344575184

 2017-02-10 18:48:22.87051+01 | 1486748902.87051 | B/F4B31048               |           51350016072

 2017-02-10 18:48:23.959526+01 | 1486748903.95953 | B/F5079F60               |           51355557728

 2017-02-10 18:48:25.036388+01 | 1486748905.03639 | B/F5583290               |           51360838288

 2017-02-10 18:48:26.118725+01 | 1486748906.11873 | B/F5AA3448               |           51366212680

 2017-02-10 18:48:27.197826+01 | 1486748907.19783 | B/F5F914E8               |           51371381992

 2017-02-10 18:48:28.26684+01 | 1486748908.26684 | B/F6467380               |           51376452480

 2017-02-10 18:48:29.337775+01 | 1486748909.33777 | B/F69D4ED8               |           51382144728

 2017-02-10 18:48:30.419533+01 | 1486748910.41953 | B/F6ECD498               |           51387356312

 2017-02-10 18:48:31.503878+01 | 1486748911.50388 | B/F73EFC18               |           51392740376

 2017-02-10 18:48:32.577135+01 | 1486748912.57714 | B/F7912118               |           51398123800

 2017-02-10 18:48:33.655245+01 | 1486748913.65525 | B/F7E3B9E8               |           51403536872

 2017-02-10 18:48:34.749329+01 | 1486748914.74933 | B/F83B8FF0               |           51409293296

 2017-02-10 18:48:35.846667+01 | 1486748915.84667 | B/F88EBD80               |           51414744448

 2017-02-10 18:48:36.910059+01 | 1486748916.91006 | B/F8E02740               |           51420079936

 2017-02-10 18:48:37.981185+01 | 1486748917.98118 | B/F9326048               |           51425468488

 2017-02-10 18:48:39.07234+01 | 1486748919.07234 | B/F9852888               |           51430893704

 2017-02-10 18:48:40.148834+01 | 1486748920.14883 | B/F9D79D48               |           51436297544

 2017-02-10 18:48:41.240671+01 | 1486748921.24067 | B/FA2EF5C8               |           51442021832

 2017-02-10 18:48:42.324321+01 | 1486748922.32432 | B/FA833E88               |           51447545480

 2017-02-10 18:48:43.398267+01 | 1486748923.39827 | B/FAD3D598               |           51452827032

 2017-02-10 18:48:44.485632+01 | 1486748924.48563 | B/FB258358               |           51458179928

 2017-02-10 18:48:45.571801+01 | 1486748925.5718 | B/FB7AB370               |           51463762800

 2017-02-10 18:48:46.658008+01 | 1486748926.65801 | B/FBCE69B8               |           51469248952

 2017-02-10 18:48:47.74925+01 | 1486748927.74925 | B/FC2205F8               |           51474728440

 2017-02-10 18:48:48.81347+01 | 1486748928.81347 | B/FC760F48               |           51480235848

 2017-02-10 18:48:49.877268+01 | 1486748929.87727 | B/FCC790D8               |           51485577432

 2017-02-10 18:48:50.958804+01 | 1486748930.9588 | B/FD1FDC98               |           51491363992

 2017-02-10 18:48:52.045025+01 | 1486748932.04503 | B/FD750078               |           51496943736

