 2017-02-08 07:33:07.084269+01 | 1486535587.08427 | pgbench_branches_pkey |            40960
 2017-02-08 07:33:07.084269+01 | 1486535587.08427 | pgbench_tellers_pkey  |           188416
 2017-02-08 07:33:07.084269+01 | 1486535587.08427 | pgbench_accounts_pkey |        112336896

 2017-02-08 07:33:08.137223+01 | 1486535588.13722 | pgbench_branches_pkey |            40960
 2017-02-08 07:33:08.137223+01 | 1486535588.13722 | pgbench_tellers_pkey  |           188416
 2017-02-08 07:33:08.137223+01 | 1486535588.13722 | pgbench_accounts_pkey |        112336896

 2017-02-08 07:33:09.186895+01 | 1486535589.18689 | pgbench_branches_pkey |            40960
 2017-02-08 07:33:09.186895+01 | 1486535589.18689 | pgbench_tellers_pkey  |           188416
 2017-02-08 07:33:09.186895+01 | 1486535589.18689 | pgbench_accounts_pkey |        112336896

 2017-02-08 07:33:10.235748+01 | 1486535590.23575 | pgbench_branches_pkey |            40960
 2017-02-08 07:33:10.235748+01 | 1486535590.23575 | pgbench_tellers_pkey  |           188416
 2017-02-08 07:33:10.235748+01 | 1486535590.23575 | pgbench_accounts_pkey |        112336896

 2017-02-08 07:33:11.285056+01 | 1486535591.28506 | pgbench_branches_pkey |            40960
 2017-02-08 07:33:11.285056+01 | 1486535591.28506 | pgbench_tellers_pkey  |           188416
 2017-02-08 07:33:11.285056+01 | 1486535591.28506 | pgbench_accounts_pkey |        112336896

 2017-02-08 07:33:12.338883+01 | 1486535592.33888 | pgbench_branches_pkey |            40960
 2017-02-08 07:33:12.338883+01 | 1486535592.33888 | pgbench_tellers_pkey  |           188416
 2017-02-08 07:33:12.338883+01 | 1486535592.33888 | pgbench_accounts_pkey |        112336896

 2017-02-08 07:33:13.391638+01 | 1486535593.39164 | pgbench_branches_pkey |            40960
 2017-02-08 07:33:13.391638+01 | 1486535593.39164 | pgbench_tellers_pkey  |           188416
 2017-02-08 07:33:13.391638+01 | 1486535593.39164 | pgbench_accounts_pkey |        112336896

 2017-02-08 07:33:14.443335+01 | 1486535594.44334 | pgbench_branches_pkey |            40960
 2017-02-08 07:33:14.443335+01 | 1486535594.44334 | pgbench_tellers_pkey  |           188416
 2017-02-08 07:33:14.443335+01 | 1486535594.44334 | pgbench_accounts_pkey |        112336896

 2017-02-08 07:33:15.49586+01 | 1486535595.49586 | pgbench_branches_pkey |            40960
 2017-02-08 07:33:15.49586+01 | 1486535595.49586 | pgbench_tellers_pkey  |           188416
 2017-02-08 07:33:15.49586+01 | 1486535595.49586 | pgbench_accounts_pkey |        112336896

 2017-02-08 07:33:16.549308+01 | 1486535596.54931 | pgbench_branches_pkey |            40960
 2017-02-08 07:33:16.549308+01 | 1486535596.54931 | pgbench_tellers_pkey  |           188416
 2017-02-08 07:33:16.549308+01 | 1486535596.54931 | pgbench_accounts_pkey |        112336896

 2017-02-08 07:33:17.604511+01 | 1486535597.60451 | pgbench_branches_pkey |            40960
 2017-02-08 07:33:17.604511+01 | 1486535597.60451 | pgbench_tellers_pkey  |           188416
 2017-02-08 07:33:17.604511+01 | 1486535597.60451 | pgbench_accounts_pkey |        112336896

 2017-02-08 07:33:18.654885+01 | 1486535598.65489 | pgbench_branches_pkey |            40960
 2017-02-08 07:33:18.654885+01 | 1486535598.65489 | pgbench_tellers_pkey  |           188416
 2017-02-08 07:33:18.654885+01 | 1486535598.65489 | pgbench_accounts_pkey |        112336896

 2017-02-08 07:33:19.707818+01 | 1486535599.70782 | pgbench_branches_pkey |            40960
 2017-02-08 07:33:19.707818+01 | 1486535599.70782 | pgbench_tellers_pkey  |           188416
 2017-02-08 07:33:19.707818+01 | 1486535599.70782 | pgbench_accounts_pkey |        112336896

 2017-02-08 07:33:20.761357+01 | 1486535600.76136 | pgbench_branches_pkey |            40960
 2017-02-08 07:33:20.761357+01 | 1486535600.76136 | pgbench_tellers_pkey  |           188416
 2017-02-08 07:33:20.761357+01 | 1486535600.76136 | pgbench_accounts_pkey |        112336896

 2017-02-08 07:33:21.815194+01 | 1486535601.81519 | pgbench_branches_pkey |            40960
 2017-02-08 07:33:21.815194+01 | 1486535601.81519 | pgbench_tellers_pkey  |           188416
 2017-02-08 07:33:21.815194+01 | 1486535601.81519 | pgbench_accounts_pkey |        112336896

 2017-02-08 07:33:22.873006+01 | 1486535602.87301 | pgbench_branches_pkey |            40960
 2017-02-08 07:33:22.873006+01 | 1486535602.87301 | pgbench_tellers_pkey  |           188416
 2017-02-08 07:33:22.873006+01 | 1486535602.87301 | pgbench_accounts_pkey |        112336896

 2017-02-08 07:33:23.925055+01 | 1486535603.92506 | pgbench_branches_pkey |            40960
 2017-02-08 07:33:23.925055+01 | 1486535603.92506 | pgbench_tellers_pkey  |           188416
 2017-02-08 07:33:23.925055+01 | 1486535603.92506 | pgbench_accounts_pkey |        112336896

 2017-02-08 07:33:24.978754+01 | 1486535604.97875 | pgbench_branches_pkey |            40960
 2017-02-08 07:33:24.978754+01 | 1486535604.97875 | pgbench_tellers_pkey  |           188416
 2017-02-08 07:33:24.978754+01 | 1486535604.97875 | pgbench_accounts_pkey |        112336896

 2017-02-08 07:33:26.031287+01 | 1486535606.03129 | pgbench_branches_pkey |            40960
 2017-02-08 07:33:26.031287+01 | 1486535606.03129 | pgbench_tellers_pkey  |           188416
 2017-02-08 07:33:26.031287+01 | 1486535606.03129 | pgbench_accounts_pkey |        112336896

 2017-02-08 07:33:27.084987+01 | 1486535607.08499 | pgbench_branches_pkey |            40960
 2017-02-08 07:33:27.084987+01 | 1486535607.08499 | pgbench_tellers_pkey  |           188416
 2017-02-08 07:33:27.084987+01 | 1486535607.08499 | pgbench_accounts_pkey |        112336896

 2017-02-08 07:33:28.137729+01 | 1486535608.13773 | pgbench_branches_pkey |            40960
 2017-02-08 07:33:28.137729+01 | 1486535608.13773 | pgbench_tellers_pkey  |           188416
 2017-02-08 07:33:28.137729+01 | 1486535608.13773 | pgbench_accounts_pkey |        112336896

 2017-02-08 07:33:29.1904+01 | 1486535609.1904 | pgbench_branches_pkey |            40960
 2017-02-08 07:33:29.1904+01 | 1486535609.1904 | pgbench_tellers_pkey  |           188416
 2017-02-08 07:33:29.1904+01 | 1486535609.1904 | pgbench_accounts_pkey |        112336896

 2017-02-08 07:33:30.241824+01 | 1486535610.24182 | pgbench_branches_pkey |            40960
 2017-02-08 07:33:30.241824+01 | 1486535610.24182 | pgbench_tellers_pkey  |           188416
 2017-02-08 07:33:30.241824+01 | 1486535610.24182 | pgbench_accounts_pkey |        112336896

 2017-02-08 07:33:31.291354+01 | 1486535611.29135 | pgbench_branches_pkey |            40960
 2017-02-08 07:33:31.291354+01 | 1486535611.29135 | pgbench_tellers_pkey  |           188416
 2017-02-08 07:33:31.291354+01 | 1486535611.29135 | pgbench_accounts_pkey |        112336896

 2017-02-08 07:33:32.343036+01 | 1486535612.34304 | pgbench_branches_pkey |            40960
 2017-02-08 07:33:32.343036+01 | 1486535612.34304 | pgbench_tellers_pkey  |           188416
 2017-02-08 07:33:32.343036+01 | 1486535612.34304 | pgbench_accounts_pkey |        112336896

 2017-02-08 07:33:33.392735+01 | 1486535613.39274 | pgbench_branches_pkey |            40960
 2017-02-08 07:33:33.392735+01 | 1486535613.39274 | pgbench_tellers_pkey  |           188416
 2017-02-08 07:33:33.392735+01 | 1486535613.39274 | pgbench_accounts_pkey |        112336896

 2017-02-08 07:33:34.445943+01 | 1486535614.44594 | pgbench_branches_pkey |            40960
 2017-02-08 07:33:34.445943+01 | 1486535614.44594 | pgbench_tellers_pkey  |           188416
 2017-02-08 07:33:34.445943+01 | 1486535614.44594 | pgbench_accounts_pkey |        112336896

 2017-02-08 07:33:35.499435+01 | 1486535615.49943 | pgbench_branches_pkey |            40960
 2017-02-08 07:33:35.499435+01 | 1486535615.49943 | pgbench_tellers_pkey  |           188416
 2017-02-08 07:33:35.499435+01 | 1486535615.49943 | pgbench_accounts_pkey |        112336896

 2017-02-08 07:33:36.554058+01 | 1486535616.55406 | pgbench_branches_pkey |            40960
 2017-02-08 07:33:36.554058+01 | 1486535616.55406 | pgbench_tellers_pkey  |           188416
 2017-02-08 07:33:36.554058+01 | 1486535616.55406 | pgbench_accounts_pkey |        112336896

 2017-02-08 07:33:37.604366+01 | 1486535617.60437 | pgbench_branches_pkey |            40960
 2017-02-08 07:33:37.604366+01 | 1486535617.60437 | pgbench_tellers_pkey  |           188416
 2017-02-08 07:33:37.604366+01 | 1486535617.60437 | pgbench_accounts_pkey |        112336896

 2017-02-08 07:33:38.655873+01 | 1486535618.65587 | pgbench_branches_pkey |            40960
 2017-02-08 07:33:38.655873+01 | 1486535618.65587 | pgbench_tellers_pkey  |           188416
 2017-02-08 07:33:38.655873+01 | 1486535618.65587 | pgbench_accounts_pkey |        112336896

 2017-02-08 07:33:39.710456+01 | 1486535619.71046 | pgbench_branches_pkey |            40960
 2017-02-08 07:33:39.710456+01 | 1486535619.71046 | pgbench_tellers_pkey  |           188416
 2017-02-08 07:33:39.710456+01 | 1486535619.71046 | pgbench_accounts_pkey |        112336896

 2017-02-08 07:33:40.760393+01 | 1486535620.76039 | pgbench_branches_pkey |            40960
 2017-02-08 07:33:40.760393+01 | 1486535620.76039 | pgbench_tellers_pkey  |           188416
 2017-02-08 07:33:40.760393+01 | 1486535620.76039 | pgbench_accounts_pkey |        112336896

 2017-02-08 07:33:41.813708+01 | 1486535621.81371 | pgbench_branches_pkey |            40960
 2017-02-08 07:33:41.813708+01 | 1486535621.81371 | pgbench_tellers_pkey  |           188416
 2017-02-08 07:33:41.813708+01 | 1486535621.81371 | pgbench_accounts_pkey |        112336896

 2017-02-08 07:33:42.868047+01 | 1486535622.86805 | pgbench_branches_pkey |            40960
 2017-02-08 07:33:42.868047+01 | 1486535622.86805 | pgbench_tellers_pkey  |           188416
 2017-02-08 07:33:42.868047+01 | 1486535622.86805 | pgbench_accounts_pkey |        112336896

 2017-02-08 07:33:43.919022+01 | 1486535623.91902 | pgbench_branches_pkey |            40960
 2017-02-08 07:33:43.919022+01 | 1486535623.91902 | pgbench_tellers_pkey  |           188416
 2017-02-08 07:33:43.919022+01 | 1486535623.91902 | pgbench_accounts_pkey |        112336896

 2017-02-08 07:33:44.969967+01 | 1486535624.96997 | pgbench_branches_pkey |            40960
 2017-02-08 07:33:44.969967+01 | 1486535624.96997 | pgbench_tellers_pkey  |           188416
 2017-02-08 07:33:44.969967+01 | 1486535624.96997 | pgbench_accounts_pkey |        112336896

 2017-02-08 07:33:46.022071+01 | 1486535626.02207 | pgbench_branches_pkey |            40960
 2017-02-08 07:33:46.022071+01 | 1486535626.02207 | pgbench_tellers_pkey  |           188416
 2017-02-08 07:33:46.022071+01 | 1486535626.02207 | pgbench_accounts_pkey |        112336896

 2017-02-08 07:33:47.075337+01 | 1486535627.07534 | pgbench_branches_pkey |            40960
 2017-02-08 07:33:47.075337+01 | 1486535627.07534 | pgbench_tellers_pkey  |           188416
 2017-02-08 07:33:47.075337+01 | 1486535627.07534 | pgbench_accounts_pkey |        112336896

 2017-02-08 07:33:48.128399+01 | 1486535628.1284 | pgbench_branches_pkey |            40960
 2017-02-08 07:33:48.128399+01 | 1486535628.1284 | pgbench_tellers_pkey  |           188416
 2017-02-08 07:33:48.128399+01 | 1486535628.1284 | pgbench_accounts_pkey |        112336896

 2017-02-08 07:33:49.18067+01 | 1486535629.18067 | pgbench_branches_pkey |            40960
 2017-02-08 07:33:49.18067+01 | 1486535629.18067 | pgbench_tellers_pkey  |           188416
 2017-02-08 07:33:49.18067+01 | 1486535629.18067 | pgbench_accounts_pkey |        112336896

 2017-02-08 07:33:50.231231+01 | 1486535630.23123 | pgbench_branches_pkey |            40960
 2017-02-08 07:33:50.231231+01 | 1486535630.23123 | pgbench_tellers_pkey  |           188416
 2017-02-08 07:33:50.231231+01 | 1486535630.23123 | pgbench_accounts_pkey |        112336896

 2017-02-08 07:33:51.282664+01 | 1486535631.28266 | pgbench_branches_pkey |            40960
 2017-02-08 07:33:51.282664+01 | 1486535631.28266 | pgbench_tellers_pkey  |           188416
 2017-02-08 07:33:51.282664+01 | 1486535631.28266 | pgbench_accounts_pkey |        112336896

 2017-02-08 07:33:52.334962+01 | 1486535632.33496 | pgbench_branches_pkey |            40960
 2017-02-08 07:33:52.334962+01 | 1486535632.33496 | pgbench_tellers_pkey  |           188416
 2017-02-08 07:33:52.334962+01 | 1486535632.33496 | pgbench_accounts_pkey |        112336896

 2017-02-08 07:33:53.386574+01 | 1486535633.38657 | pgbench_branches_pkey |            40960
 2017-02-08 07:33:53.386574+01 | 1486535633.38657 | pgbench_tellers_pkey  |           188416
 2017-02-08 07:33:53.386574+01 | 1486535633.38657 | pgbench_accounts_pkey |        112336896

 2017-02-08 07:33:54.437423+01 | 1486535634.43742 | pgbench_branches_pkey |            40960
 2017-02-08 07:33:54.437423+01 | 1486535634.43742 | pgbench_tellers_pkey  |           188416
 2017-02-08 07:33:54.437423+01 | 1486535634.43742 | pgbench_accounts_pkey |        112336896

 2017-02-08 07:33:55.493798+01 | 1486535635.4938 | pgbench_branches_pkey |            40960
 2017-02-08 07:33:55.493798+01 | 1486535635.4938 | pgbench_tellers_pkey  |           188416
 2017-02-08 07:33:55.493798+01 | 1486535635.4938 | pgbench_accounts_pkey |        112336896

 2017-02-08 07:33:56.545191+01 | 1486535636.54519 | pgbench_branches_pkey |            40960
 2017-02-08 07:33:56.545191+01 | 1486535636.54519 | pgbench_tellers_pkey  |           188416
 2017-02-08 07:33:56.545191+01 | 1486535636.54519 | pgbench_accounts_pkey |        112336896

 2017-02-08 07:33:57.596002+01 | 1486535637.596 | pgbench_branches_pkey |            40960
 2017-02-08 07:33:57.596002+01 | 1486535637.596 | pgbench_tellers_pkey  |           188416
 2017-02-08 07:33:57.596002+01 | 1486535637.596 | pgbench_accounts_pkey |        112336896

 2017-02-08 07:33:58.645348+01 | 1486535638.64535 | pgbench_branches_pkey |            40960
 2017-02-08 07:33:58.645348+01 | 1486535638.64535 | pgbench_tellers_pkey  |           188416
 2017-02-08 07:33:58.645348+01 | 1486535638.64535 | pgbench_accounts_pkey |        112336896

 2017-02-08 07:33:59.696519+01 | 1486535639.69652 | pgbench_branches_pkey |            40960
 2017-02-08 07:33:59.696519+01 | 1486535639.69652 | pgbench_tellers_pkey  |           188416
 2017-02-08 07:33:59.696519+01 | 1486535639.69652 | pgbench_accounts_pkey |        112336896

 2017-02-08 07:34:00.74622+01 | 1486535640.74622 | pgbench_branches_pkey |            40960
 2017-02-08 07:34:00.74622+01 | 1486535640.74622 | pgbench_tellers_pkey  |           188416
 2017-02-08 07:34:00.74622+01 | 1486535640.74622 | pgbench_accounts_pkey |        112336896

 2017-02-08 07:34:01.802829+01 | 1486535641.80283 | pgbench_branches_pkey |            40960
 2017-02-08 07:34:01.802829+01 | 1486535641.80283 | pgbench_tellers_pkey  |           188416
 2017-02-08 07:34:01.802829+01 | 1486535641.80283 | pgbench_accounts_pkey |        112336896

 2017-02-08 07:34:02.860482+01 | 1486535642.86048 | pgbench_branches_pkey |            40960
 2017-02-08 07:34:02.860482+01 | 1486535642.86048 | pgbench_tellers_pkey  |           188416
 2017-02-08 07:34:02.860482+01 | 1486535642.86048 | pgbench_accounts_pkey |        112336896

 2017-02-08 07:34:03.916851+01 | 1486535643.91685 | pgbench_branches_pkey |            40960
 2017-02-08 07:34:03.916851+01 | 1486535643.91685 | pgbench_tellers_pkey  |           188416
 2017-02-08 07:34:03.916851+01 | 1486535643.91685 | pgbench_accounts_pkey |        112336896

 2017-02-08 07:34:04.973216+01 | 1486535644.97322 | pgbench_branches_pkey |            40960
 2017-02-08 07:34:04.973216+01 | 1486535644.97322 | pgbench_tellers_pkey  |           188416
 2017-02-08 07:34:04.973216+01 | 1486535644.97322 | pgbench_accounts_pkey |        112336896

 2017-02-08 07:34:06.023109+01 | 1486535646.02311 | pgbench_branches_pkey |            40960
 2017-02-08 07:34:06.023109+01 | 1486535646.02311 | pgbench_tellers_pkey  |           188416
 2017-02-08 07:34:06.023109+01 | 1486535646.02311 | pgbench_accounts_pkey |        112336896

 2017-02-08 07:34:07.073601+01 | 1486535647.0736 | pgbench_branches_pkey |            40960
 2017-02-08 07:34:07.073601+01 | 1486535647.0736 | pgbench_tellers_pkey  |           188416
 2017-02-08 07:34:07.073601+01 | 1486535647.0736 | pgbench_accounts_pkey |        112336896

 2017-02-08 07:34:08.126882+01 | 1486535648.12688 | pgbench_branches_pkey |            40960
 2017-02-08 07:34:08.126882+01 | 1486535648.12688 | pgbench_tellers_pkey  |           188416
 2017-02-08 07:34:08.126882+01 | 1486535648.12688 | pgbench_accounts_pkey |        112336896

 2017-02-08 07:34:09.179581+01 | 1486535649.17958 | pgbench_branches_pkey |            40960
 2017-02-08 07:34:09.179581+01 | 1486535649.17958 | pgbench_tellers_pkey  |           188416
 2017-02-08 07:34:09.179581+01 | 1486535649.17958 | pgbench_accounts_pkey |        112336896

 2017-02-08 07:34:10.234027+01 | 1486535650.23403 | pgbench_branches_pkey |            40960
 2017-02-08 07:34:10.234027+01 | 1486535650.23403 | pgbench_tellers_pkey  |           188416
 2017-02-08 07:34:10.234027+01 | 1486535650.23403 | pgbench_accounts_pkey |        112336896

 2017-02-08 07:34:11.28541+01 | 1486535651.28541 | pgbench_branches_pkey |            40960
 2017-02-08 07:34:11.28541+01 | 1486535651.28541 | pgbench_tellers_pkey  |           188416
 2017-02-08 07:34:11.28541+01 | 1486535651.28541 | pgbench_accounts_pkey |        112336896

 2017-02-08 07:34:12.338028+01 | 1486535652.33803 | pgbench_branches_pkey |            40960
 2017-02-08 07:34:12.338028+01 | 1486535652.33803 | pgbench_tellers_pkey  |           188416
 2017-02-08 07:34:12.338028+01 | 1486535652.33803 | pgbench_accounts_pkey |        112336896

 2017-02-08 07:34:13.386957+01 | 1486535653.38696 | pgbench_branches_pkey |            40960
 2017-02-08 07:34:13.386957+01 | 1486535653.38696 | pgbench_tellers_pkey  |           188416
 2017-02-08 07:34:13.386957+01 | 1486535653.38696 | pgbench_accounts_pkey |        112336896

 2017-02-08 07:34:14.440017+01 | 1486535654.44002 | pgbench_branches_pkey |            40960
 2017-02-08 07:34:14.440017+01 | 1486535654.44002 | pgbench_tellers_pkey  |           188416
 2017-02-08 07:34:14.440017+01 | 1486535654.44002 | pgbench_accounts_pkey |        112336896

 2017-02-08 07:34:15.491793+01 | 1486535655.49179 | pgbench_branches_pkey |            40960
 2017-02-08 07:34:15.491793+01 | 1486535655.49179 | pgbench_tellers_pkey  |           188416
 2017-02-08 07:34:15.491793+01 | 1486535655.49179 | pgbench_accounts_pkey |        112336896

 2017-02-08 07:34:16.550176+01 | 1486535656.55018 | pgbench_branches_pkey |            40960
 2017-02-08 07:34:16.550176+01 | 1486535656.55018 | pgbench_tellers_pkey  |           188416
 2017-02-08 07:34:16.550176+01 | 1486535656.55018 | pgbench_accounts_pkey |        112336896

 2017-02-08 07:34:17.601382+01 | 1486535657.60138 | pgbench_branches_pkey |            40960
 2017-02-08 07:34:17.601382+01 | 1486535657.60138 | pgbench_tellers_pkey  |           188416
 2017-02-08 07:34:17.601382+01 | 1486535657.60138 | pgbench_accounts_pkey |        112336896

 2017-02-08 07:34:18.655327+01 | 1486535658.65533 | pgbench_branches_pkey |            40960
 2017-02-08 07:34:18.655327+01 | 1486535658.65533 | pgbench_tellers_pkey  |           188416
 2017-02-08 07:34:18.655327+01 | 1486535658.65533 | pgbench_accounts_pkey |        112336896

 2017-02-08 07:34:19.706688+01 | 1486535659.70669 | pgbench_branches_pkey |            40960
 2017-02-08 07:34:19.706688+01 | 1486535659.70669 | pgbench_tellers_pkey  |           188416
 2017-02-08 07:34:19.706688+01 | 1486535659.70669 | pgbench_accounts_pkey |        112336896

 2017-02-08 07:34:20.761235+01 | 1486535660.76123 | pgbench_branches_pkey |            40960
 2017-02-08 07:34:20.761235+01 | 1486535660.76123 | pgbench_tellers_pkey  |           188416
 2017-02-08 07:34:20.761235+01 | 1486535660.76123 | pgbench_accounts_pkey |        112336896

 2017-02-08 07:34:21.822088+01 | 1486535661.82209 | pgbench_branches_pkey |            40960
 2017-02-08 07:34:21.822088+01 | 1486535661.82209 | pgbench_tellers_pkey  |           188416
 2017-02-08 07:34:21.822088+01 | 1486535661.82209 | pgbench_accounts_pkey |        112336896

 2017-02-08 07:34:22.87957+01 | 1486535662.87957 | pgbench_branches_pkey |            40960
 2017-02-08 07:34:22.87957+01 | 1486535662.87957 | pgbench_tellers_pkey  |           188416
 2017-02-08 07:34:22.87957+01 | 1486535662.87957 | pgbench_accounts_pkey |        112336896

 2017-02-08 07:34:23.922501+01 | 1486535663.9225 | pgbench_branches_pkey |            40960
 2017-02-08 07:34:23.922501+01 | 1486535663.9225 | pgbench_tellers_pkey  |           188416
 2017-02-08 07:34:23.922501+01 | 1486535663.9225 | pgbench_accounts_pkey |        112336896

 2017-02-08 07:34:24.98272+01 | 1486535664.98272 | pgbench_branches_pkey |            40960
 2017-02-08 07:34:24.98272+01 | 1486535664.98272 | pgbench_tellers_pkey  |           188416
 2017-02-08 07:34:24.98272+01 | 1486535664.98272 | pgbench_accounts_pkey |        112336896

 2017-02-08 07:34:26.036437+01 | 1486535666.03644 | pgbench_branches_pkey |            40960
 2017-02-08 07:34:26.036437+01 | 1486535666.03644 | pgbench_tellers_pkey  |           188416
 2017-02-08 07:34:26.036437+01 | 1486535666.03644 | pgbench_accounts_pkey |        112336896

 2017-02-08 07:34:27.085613+01 | 1486535667.08561 | pgbench_branches_pkey |            40960
 2017-02-08 07:34:27.085613+01 | 1486535667.08561 | pgbench_tellers_pkey  |           188416
 2017-02-08 07:34:27.085613+01 | 1486535667.08561 | pgbench_accounts_pkey |        112336896

 2017-02-08 07:34:28.135672+01 | 1486535668.13567 | pgbench_branches_pkey |            40960
 2017-02-08 07:34:28.135672+01 | 1486535668.13567 | pgbench_tellers_pkey  |           188416
 2017-02-08 07:34:28.135672+01 | 1486535668.13567 | pgbench_accounts_pkey |        112336896

 2017-02-08 07:34:29.186743+01 | 1486535669.18674 | pgbench_branches_pkey |            40960
 2017-02-08 07:34:29.186743+01 | 1486535669.18674 | pgbench_tellers_pkey  |           188416
 2017-02-08 07:34:29.186743+01 | 1486535669.18674 | pgbench_accounts_pkey |        112336896

 2017-02-08 07:34:30.239934+01 | 1486535670.23993 | pgbench_branches_pkey |            40960
 2017-02-08 07:34:30.239934+01 | 1486535670.23993 | pgbench_tellers_pkey  |           188416
 2017-02-08 07:34:30.239934+01 | 1486535670.23993 | pgbench_accounts_pkey |        112336896

 2017-02-08 07:34:31.296619+01 | 1486535671.29662 | pgbench_branches_pkey |            40960
 2017-02-08 07:34:31.296619+01 | 1486535671.29662 | pgbench_tellers_pkey  |           188416
 2017-02-08 07:34:31.296619+01 | 1486535671.29662 | pgbench_accounts_pkey |        112336896

 2017-02-08 07:34:32.350375+01 | 1486535672.35037 | pgbench_branches_pkey |            40960
 2017-02-08 07:34:32.350375+01 | 1486535672.35037 | pgbench_tellers_pkey  |           188416
 2017-02-08 07:34:32.350375+01 | 1486535672.35037 | pgbench_accounts_pkey |        112336896

 2017-02-08 07:34:33.404678+01 | 1486535673.40468 | pgbench_branches_pkey |            40960
 2017-02-08 07:34:33.404678+01 | 1486535673.40468 | pgbench_tellers_pkey  |           188416
 2017-02-08 07:34:33.404678+01 | 1486535673.40468 | pgbench_accounts_pkey |        112336896

 2017-02-08 07:34:34.45877+01 | 1486535674.45877 | pgbench_branches_pkey |            40960
 2017-02-08 07:34:34.45877+01 | 1486535674.45877 | pgbench_tellers_pkey  |           188416
 2017-02-08 07:34:34.45877+01 | 1486535674.45877 | pgbench_accounts_pkey |        112336896

 2017-02-08 07:34:35.513418+01 | 1486535675.51342 | pgbench_branches_pkey |            40960
 2017-02-08 07:34:35.513418+01 | 1486535675.51342 | pgbench_tellers_pkey  |           188416
 2017-02-08 07:34:35.513418+01 | 1486535675.51342 | pgbench_accounts_pkey |        112336896

 2017-02-08 07:34:36.566369+01 | 1486535676.56637 | pgbench_branches_pkey |            40960
 2017-02-08 07:34:36.566369+01 | 1486535676.56637 | pgbench_tellers_pkey  |           188416
 2017-02-08 07:34:36.566369+01 | 1486535676.56637 | pgbench_accounts_pkey |        112336896

 2017-02-08 07:34:37.618032+01 | 1486535677.61803 | pgbench_branches_pkey |            40960
 2017-02-08 07:34:37.618032+01 | 1486535677.61803 | pgbench_tellers_pkey  |           188416
 2017-02-08 07:34:37.618032+01 | 1486535677.61803 | pgbench_accounts_pkey |        112336896

 2017-02-08 07:34:38.675487+01 | 1486535678.67549 | pgbench_branches_pkey |            40960
 2017-02-08 07:34:38.675487+01 | 1486535678.67549 | pgbench_tellers_pkey  |           188416
 2017-02-08 07:34:38.675487+01 | 1486535678.67549 | pgbench_accounts_pkey |        112336896

 2017-02-08 07:34:39.729631+01 | 1486535679.72963 | pgbench_branches_pkey |            40960
 2017-02-08 07:34:39.729631+01 | 1486535679.72963 | pgbench_tellers_pkey  |           188416
 2017-02-08 07:34:39.729631+01 | 1486535679.72963 | pgbench_accounts_pkey |        112336896

 2017-02-08 07:34:40.781147+01 | 1486535680.78115 | pgbench_branches_pkey |            40960
 2017-02-08 07:34:40.781147+01 | 1486535680.78115 | pgbench_tellers_pkey  |           188416
 2017-02-08 07:34:40.781147+01 | 1486535680.78115 | pgbench_accounts_pkey |        112336896

 2017-02-08 07:34:41.832177+01 | 1486535681.83218 | pgbench_branches_pkey |            40960
 2017-02-08 07:34:41.832177+01 | 1486535681.83218 | pgbench_tellers_pkey  |           188416
 2017-02-08 07:34:41.832177+01 | 1486535681.83218 | pgbench_accounts_pkey |        112336896

 2017-02-08 07:34:42.883627+01 | 1486535682.88363 | pgbench_branches_pkey |            40960
 2017-02-08 07:34:42.883627+01 | 1486535682.88363 | pgbench_tellers_pkey  |           188416
 2017-02-08 07:34:42.883627+01 | 1486535682.88363 | pgbench_accounts_pkey |        112336896

 2017-02-08 07:34:43.93395+01 | 1486535683.93395 | pgbench_branches_pkey |            40960
 2017-02-08 07:34:43.93395+01 | 1486535683.93395 | pgbench_tellers_pkey  |           188416
 2017-02-08 07:34:43.93395+01 | 1486535683.93395 | pgbench_accounts_pkey |        112336896

 2017-02-08 07:34:44.987813+01 | 1486535684.98781 | pgbench_branches_pkey |            40960
 2017-02-08 07:34:44.987813+01 | 1486535684.98781 | pgbench_tellers_pkey  |           188416
 2017-02-08 07:34:44.987813+01 | 1486535684.98781 | pgbench_accounts_pkey |        112336896

 2017-02-08 07:34:46.040571+01 | 1486535686.04057 | pgbench_branches_pkey |            40960
 2017-02-08 07:34:46.040571+01 | 1486535686.04057 | pgbench_tellers_pkey  |           188416
 2017-02-08 07:34:46.040571+01 | 1486535686.04057 | pgbench_accounts_pkey |        112336896

 2017-02-08 07:34:47.092799+01 | 1486535687.0928 | pgbench_branches_pkey |            40960
 2017-02-08 07:34:47.092799+01 | 1486535687.0928 | pgbench_tellers_pkey  |           188416
 2017-02-08 07:34:47.092799+01 | 1486535687.0928 | pgbench_accounts_pkey |        112336896

 2017-02-08 07:34:48.145646+01 | 1486535688.14565 | pgbench_branches_pkey |            40960
 2017-02-08 07:34:48.145646+01 | 1486535688.14565 | pgbench_tellers_pkey  |           188416
 2017-02-08 07:34:48.145646+01 | 1486535688.14565 | pgbench_accounts_pkey |        112336896

 2017-02-08 07:34:49.196525+01 | 1486535689.19653 | pgbench_branches_pkey |            40960
 2017-02-08 07:34:49.196525+01 | 1486535689.19653 | pgbench_tellers_pkey  |           188416
 2017-02-08 07:34:49.196525+01 | 1486535689.19653 | pgbench_accounts_pkey |        112336896

 2017-02-08 07:34:50.249395+01 | 1486535690.24939 | pgbench_branches_pkey |            40960
 2017-02-08 07:34:50.249395+01 | 1486535690.24939 | pgbench_tellers_pkey  |           188416
 2017-02-08 07:34:50.249395+01 | 1486535690.24939 | pgbench_accounts_pkey |        112336896

 2017-02-08 07:34:51.299111+01 | 1486535691.29911 | pgbench_branches_pkey |            40960
 2017-02-08 07:34:51.299111+01 | 1486535691.29911 | pgbench_tellers_pkey  |           188416
 2017-02-08 07:34:51.299111+01 | 1486535691.29911 | pgbench_accounts_pkey |        112336896

 2017-02-08 07:34:52.351256+01 | 1486535692.35126 | pgbench_branches_pkey |            40960
 2017-02-08 07:34:52.351256+01 | 1486535692.35126 | pgbench_tellers_pkey  |           188416
 2017-02-08 07:34:52.351256+01 | 1486535692.35126 | pgbench_accounts_pkey |        112336896

 2017-02-08 07:34:53.400089+01 | 1486535693.40009 | pgbench_branches_pkey |            40960
 2017-02-08 07:34:53.400089+01 | 1486535693.40009 | pgbench_tellers_pkey  |           188416
 2017-02-08 07:34:53.400089+01 | 1486535693.40009 | pgbench_accounts_pkey |        112336896

 2017-02-08 07:34:54.44975+01 | 1486535694.44975 | pgbench_branches_pkey |            40960
 2017-02-08 07:34:54.44975+01 | 1486535694.44975 | pgbench_tellers_pkey  |           188416
 2017-02-08 07:34:54.44975+01 | 1486535694.44975 | pgbench_accounts_pkey |        112336896

 2017-02-08 07:34:55.500327+01 | 1486535695.50033 | pgbench_branches_pkey |            40960
 2017-02-08 07:34:55.500327+01 | 1486535695.50033 | pgbench_tellers_pkey  |           188416
 2017-02-08 07:34:55.500327+01 | 1486535695.50033 | pgbench_accounts_pkey |        112336896

 2017-02-08 07:34:56.551837+01 | 1486535696.55184 | pgbench_branches_pkey |            40960
 2017-02-08 07:34:56.551837+01 | 1486535696.55184 | pgbench_tellers_pkey  |           188416
 2017-02-08 07:34:56.551837+01 | 1486535696.55184 | pgbench_accounts_pkey |        112336896

 2017-02-08 07:34:57.604453+01 | 1486535697.60445 | pgbench_branches_pkey |            40960
 2017-02-08 07:34:57.604453+01 | 1486535697.60445 | pgbench_tellers_pkey  |           188416
 2017-02-08 07:34:57.604453+01 | 1486535697.60445 | pgbench_accounts_pkey |        112336896

 2017-02-08 07:34:58.65655+01 | 1486535698.65655 | pgbench_branches_pkey |            40960
 2017-02-08 07:34:58.65655+01 | 1486535698.65655 | pgbench_tellers_pkey  |           188416
 2017-02-08 07:34:58.65655+01 | 1486535698.65655 | pgbench_accounts_pkey |        112336896

 2017-02-08 07:34:59.709594+01 | 1486535699.70959 | pgbench_branches_pkey |            40960
 2017-02-08 07:34:59.709594+01 | 1486535699.70959 | pgbench_tellers_pkey  |           188416
 2017-02-08 07:34:59.709594+01 | 1486535699.70959 | pgbench_accounts_pkey |        112336896

 2017-02-08 07:35:00.765885+01 | 1486535700.76589 | pgbench_branches_pkey |            40960
 2017-02-08 07:35:00.765885+01 | 1486535700.76589 | pgbench_tellers_pkey  |           188416
 2017-02-08 07:35:00.765885+01 | 1486535700.76589 | pgbench_accounts_pkey |        112336896

 2017-02-08 07:35:01.822103+01 | 1486535701.8221 | pgbench_branches_pkey |            40960
 2017-02-08 07:35:01.822103+01 | 1486535701.8221 | pgbench_tellers_pkey  |           188416
 2017-02-08 07:35:01.822103+01 | 1486535701.8221 | pgbench_accounts_pkey |        112336896

 2017-02-08 07:35:02.875859+01 | 1486535702.87586 | pgbench_branches_pkey |            40960
 2017-02-08 07:35:02.875859+01 | 1486535702.87586 | pgbench_tellers_pkey  |           188416
 2017-02-08 07:35:02.875859+01 | 1486535702.87586 | pgbench_accounts_pkey |        112336896

 2017-02-08 07:35:03.926799+01 | 1486535703.9268 | pgbench_branches_pkey |            40960
 2017-02-08 07:35:03.926799+01 | 1486535703.9268 | pgbench_tellers_pkey  |           188416
 2017-02-08 07:35:03.926799+01 | 1486535703.9268 | pgbench_accounts_pkey |        112336896

 2017-02-08 07:35:04.98597+01 | 1486535704.98597 | pgbench_branches_pkey |            40960
 2017-02-08 07:35:04.98597+01 | 1486535704.98597 | pgbench_tellers_pkey  |           188416
 2017-02-08 07:35:04.98597+01 | 1486535704.98597 | pgbench_accounts_pkey |        112336896

 2017-02-08 07:35:06.03962+01 | 1486535706.03962 | pgbench_branches_pkey |            40960
 2017-02-08 07:35:06.03962+01 | 1486535706.03962 | pgbench_tellers_pkey  |           188416
 2017-02-08 07:35:06.03962+01 | 1486535706.03962 | pgbench_accounts_pkey |        112336896

 2017-02-08 07:35:07.091985+01 | 1486535707.09198 | pgbench_branches_pkey |            40960
 2017-02-08 07:35:07.091985+01 | 1486535707.09198 | pgbench_tellers_pkey  |           188416
 2017-02-08 07:35:07.091985+01 | 1486535707.09198 | pgbench_accounts_pkey |        112336896

 2017-02-08 07:35:08.143826+01 | 1486535708.14383 | pgbench_branches_pkey |            40960
 2017-02-08 07:35:08.143826+01 | 1486535708.14383 | pgbench_tellers_pkey  |           188416
 2017-02-08 07:35:08.143826+01 | 1486535708.14383 | pgbench_accounts_pkey |        112336896

 2017-02-08 07:35:09.195627+01 | 1486535709.19563 | pgbench_branches_pkey |            40960
 2017-02-08 07:35:09.195627+01 | 1486535709.19563 | pgbench_tellers_pkey  |           188416
 2017-02-08 07:35:09.195627+01 | 1486535709.19563 | pgbench_accounts_pkey |        112336896

 2017-02-08 07:35:10.246165+01 | 1486535710.24617 | pgbench_branches_pkey |            40960
 2017-02-08 07:35:10.246165+01 | 1486535710.24617 | pgbench_tellers_pkey  |           188416
 2017-02-08 07:35:10.246165+01 | 1486535710.24617 | pgbench_accounts_pkey |        112336896

 2017-02-08 07:35:11.298794+01 | 1486535711.29879 | pgbench_branches_pkey |            40960
 2017-02-08 07:35:11.298794+01 | 1486535711.29879 | pgbench_tellers_pkey  |           188416
 2017-02-08 07:35:11.298794+01 | 1486535711.29879 | pgbench_accounts_pkey |        112336896

 2017-02-08 07:35:12.353501+01 | 1486535712.3535 | pgbench_branches_pkey |            40960
 2017-02-08 07:35:12.353501+01 | 1486535712.3535 | pgbench_tellers_pkey  |           188416
 2017-02-08 07:35:12.353501+01 | 1486535712.3535 | pgbench_accounts_pkey |        112336896

 2017-02-08 07:35:13.405194+01 | 1486535713.40519 | pgbench_branches_pkey |            40960
 2017-02-08 07:35:13.405194+01 | 1486535713.40519 | pgbench_tellers_pkey  |           188416
 2017-02-08 07:35:13.405194+01 | 1486535713.40519 | pgbench_accounts_pkey |        112336896

 2017-02-08 07:35:14.456871+01 | 1486535714.45687 | pgbench_branches_pkey |            40960
 2017-02-08 07:35:14.456871+01 | 1486535714.45687 | pgbench_tellers_pkey  |           188416
 2017-02-08 07:35:14.456871+01 | 1486535714.45687 | pgbench_accounts_pkey |        112336896

 2017-02-08 07:35:15.507706+01 | 1486535715.50771 | pgbench_branches_pkey |            40960
 2017-02-08 07:35:15.507706+01 | 1486535715.50771 | pgbench_tellers_pkey  |           188416
 2017-02-08 07:35:15.507706+01 | 1486535715.50771 | pgbench_accounts_pkey |        112336896

 2017-02-08 07:35:16.56023+01 | 1486535716.56023 | pgbench_branches_pkey |            40960
 2017-02-08 07:35:16.56023+01 | 1486535716.56023 | pgbench_tellers_pkey  |           188416
 2017-02-08 07:35:16.56023+01 | 1486535716.56023 | pgbench_accounts_pkey |        112336896

 2017-02-08 07:35:17.615829+01 | 1486535717.61583 | pgbench_branches_pkey |            40960
 2017-02-08 07:35:17.615829+01 | 1486535717.61583 | pgbench_tellers_pkey  |           188416
 2017-02-08 07:35:17.615829+01 | 1486535717.61583 | pgbench_accounts_pkey |        112336896

 2017-02-08 07:35:18.666106+01 | 1486535718.66611 | pgbench_branches_pkey |            40960
 2017-02-08 07:35:18.666106+01 | 1486535718.66611 | pgbench_tellers_pkey  |           188416
 2017-02-08 07:35:18.666106+01 | 1486535718.66611 | pgbench_accounts_pkey |        112336896

 2017-02-08 07:35:19.721343+01 | 1486535719.72134 | pgbench_branches_pkey |            40960
 2017-02-08 07:35:19.721343+01 | 1486535719.72134 | pgbench_tellers_pkey  |           188416
 2017-02-08 07:35:19.721343+01 | 1486535719.72134 | pgbench_accounts_pkey |        112336896

 2017-02-08 07:35:20.778114+01 | 1486535720.77811 | pgbench_branches_pkey |            40960
 2017-02-08 07:35:20.778114+01 | 1486535720.77811 | pgbench_tellers_pkey  |           188416
 2017-02-08 07:35:20.778114+01 | 1486535720.77811 | pgbench_accounts_pkey |        112336896

 2017-02-08 07:35:21.836063+01 | 1486535721.83606 | pgbench_branches_pkey |            40960
 2017-02-08 07:35:21.836063+01 | 1486535721.83606 | pgbench_tellers_pkey  |           188416
 2017-02-08 07:35:21.836063+01 | 1486535721.83606 | pgbench_accounts_pkey |        112336896

 2017-02-08 07:35:22.888335+01 | 1486535722.88833 | pgbench_branches_pkey |            40960
 2017-02-08 07:35:22.888335+01 | 1486535722.88833 | pgbench_tellers_pkey  |           188416
 2017-02-08 07:35:22.888335+01 | 1486535722.88833 | pgbench_accounts_pkey |        112336896

 2017-02-08 07:35:23.945264+01 | 1486535723.94526 | pgbench_branches_pkey |            40960
 2017-02-08 07:35:23.945264+01 | 1486535723.94526 | pgbench_tellers_pkey  |           188416
 2017-02-08 07:35:23.945264+01 | 1486535723.94526 | pgbench_accounts_pkey |        112336896

 2017-02-08 07:35:24.98612+01 | 1486535724.98612 | pgbench_branches_pkey |            40960
 2017-02-08 07:35:24.98612+01 | 1486535724.98612 | pgbench_tellers_pkey  |           188416
 2017-02-08 07:35:24.98612+01 | 1486535724.98612 | pgbench_accounts_pkey |        112336896

 2017-02-08 07:35:26.037764+01 | 1486535726.03776 | pgbench_branches_pkey |            40960
 2017-02-08 07:35:26.037764+01 | 1486535726.03776 | pgbench_tellers_pkey  |           188416
 2017-02-08 07:35:26.037764+01 | 1486535726.03776 | pgbench_accounts_pkey |        112336896

 2017-02-08 07:35:27.091402+01 | 1486535727.0914 | pgbench_branches_pkey |            40960
 2017-02-08 07:35:27.091402+01 | 1486535727.0914 | pgbench_tellers_pkey  |           188416
 2017-02-08 07:35:27.091402+01 | 1486535727.0914 | pgbench_accounts_pkey |        112336896

 2017-02-08 07:35:28.143673+01 | 1486535728.14367 | pgbench_branches_pkey |            40960
 2017-02-08 07:35:28.143673+01 | 1486535728.14367 | pgbench_tellers_pkey  |           188416
 2017-02-08 07:35:28.143673+01 | 1486535728.14367 | pgbench_accounts_pkey |        112336896

 2017-02-08 07:35:29.196626+01 | 1486535729.19663 | pgbench_branches_pkey |            40960
 2017-02-08 07:35:29.196626+01 | 1486535729.19663 | pgbench_tellers_pkey  |           188416
 2017-02-08 07:35:29.196626+01 | 1486535729.19663 | pgbench_accounts_pkey |        112336896

 2017-02-08 07:35:30.25048+01 | 1486535730.25048 | pgbench_branches_pkey |            40960
 2017-02-08 07:35:30.25048+01 | 1486535730.25048 | pgbench_tellers_pkey  |           188416
 2017-02-08 07:35:30.25048+01 | 1486535730.25048 | pgbench_accounts_pkey |        112336896

 2017-02-08 07:35:31.304379+01 | 1486535731.30438 | pgbench_branches_pkey |            40960
 2017-02-08 07:35:31.304379+01 | 1486535731.30438 | pgbench_tellers_pkey  |           188416
 2017-02-08 07:35:31.304379+01 | 1486535731.30438 | pgbench_accounts_pkey |        112336896

 2017-02-08 07:35:32.354673+01 | 1486535732.35467 | pgbench_branches_pkey |            40960
 2017-02-08 07:35:32.354673+01 | 1486535732.35467 | pgbench_tellers_pkey  |           188416
 2017-02-08 07:35:32.354673+01 | 1486535732.35467 | pgbench_accounts_pkey |        112336896

 2017-02-08 07:35:33.407325+01 | 1486535733.40733 | pgbench_branches_pkey |            40960
 2017-02-08 07:35:33.407325+01 | 1486535733.40733 | pgbench_tellers_pkey  |           188416
 2017-02-08 07:35:33.407325+01 | 1486535733.40733 | pgbench_accounts_pkey |        112336896

 2017-02-08 07:35:34.459856+01 | 1486535734.45986 | pgbench_branches_pkey |            40960
 2017-02-08 07:35:34.459856+01 | 1486535734.45986 | pgbench_tellers_pkey  |           188416
 2017-02-08 07:35:34.459856+01 | 1486535734.45986 | pgbench_accounts_pkey |        112336896

 2017-02-08 07:35:35.513555+01 | 1486535735.51356 | pgbench_branches_pkey |            40960
 2017-02-08 07:35:35.513555+01 | 1486535735.51356 | pgbench_tellers_pkey  |           188416
 2017-02-08 07:35:35.513555+01 | 1486535735.51356 | pgbench_accounts_pkey |        112336896

 2017-02-08 07:35:36.566418+01 | 1486535736.56642 | pgbench_branches_pkey |            40960
 2017-02-08 07:35:36.566418+01 | 1486535736.56642 | pgbench_tellers_pkey  |           188416
 2017-02-08 07:35:36.566418+01 | 1486535736.56642 | pgbench_accounts_pkey |        112336896

 2017-02-08 07:35:37.617632+01 | 1486535737.61763 | pgbench_branches_pkey |            40960
 2017-02-08 07:35:37.617632+01 | 1486535737.61763 | pgbench_tellers_pkey  |           188416
 2017-02-08 07:35:37.617632+01 | 1486535737.61763 | pgbench_accounts_pkey |        112336896

 2017-02-08 07:35:38.668267+01 | 1486535738.66827 | pgbench_branches_pkey |            40960
 2017-02-08 07:35:38.668267+01 | 1486535738.66827 | pgbench_tellers_pkey  |           188416
 2017-02-08 07:35:38.668267+01 | 1486535738.66827 | pgbench_accounts_pkey |        112336896

 2017-02-08 07:35:39.721069+01 | 1486535739.72107 | pgbench_branches_pkey |            40960
 2017-02-08 07:35:39.721069+01 | 1486535739.72107 | pgbench_tellers_pkey  |           188416
 2017-02-08 07:35:39.721069+01 | 1486535739.72107 | pgbench_accounts_pkey |        112336896

 2017-02-08 07:35:40.771826+01 | 1486535740.77183 | pgbench_branches_pkey |            40960
 2017-02-08 07:35:40.771826+01 | 1486535740.77183 | pgbench_tellers_pkey  |           188416
 2017-02-08 07:35:40.771826+01 | 1486535740.77183 | pgbench_accounts_pkey |        112336896

 2017-02-08 07:35:41.824075+01 | 1486535741.82407 | pgbench_branches_pkey |            40960
 2017-02-08 07:35:41.824075+01 | 1486535741.82407 | pgbench_tellers_pkey  |           188416
 2017-02-08 07:35:41.824075+01 | 1486535741.82407 | pgbench_accounts_pkey |        112336896

 2017-02-08 07:35:42.873718+01 | 1486535742.87372 | pgbench_branches_pkey |            40960
 2017-02-08 07:35:42.873718+01 | 1486535742.87372 | pgbench_tellers_pkey  |           188416
 2017-02-08 07:35:42.873718+01 | 1486535742.87372 | pgbench_accounts_pkey |        112336896

 2017-02-08 07:35:43.923105+01 | 1486535743.92311 | pgbench_branches_pkey |            40960
 2017-02-08 07:35:43.923105+01 | 1486535743.92311 | pgbench_tellers_pkey  |           188416
 2017-02-08 07:35:43.923105+01 | 1486535743.92311 | pgbench_accounts_pkey |        112336896

 2017-02-08 07:35:44.977056+01 | 1486535744.97706 | pgbench_branches_pkey |            40960
 2017-02-08 07:35:44.977056+01 | 1486535744.97706 | pgbench_tellers_pkey  |           188416
 2017-02-08 07:35:44.977056+01 | 1486535744.97706 | pgbench_accounts_pkey |        112336896

 2017-02-08 07:35:46.031285+01 | 1486535746.03129 | pgbench_branches_pkey |            40960
 2017-02-08 07:35:46.031285+01 | 1486535746.03129 | pgbench_tellers_pkey  |           188416
 2017-02-08 07:35:46.031285+01 | 1486535746.03129 | pgbench_accounts_pkey |        112336896

 2017-02-08 07:35:47.08199+01 | 1486535747.08199 | pgbench_branches_pkey |            40960
 2017-02-08 07:35:47.08199+01 | 1486535747.08199 | pgbench_tellers_pkey  |           188416
 2017-02-08 07:35:47.08199+01 | 1486535747.08199 | pgbench_accounts_pkey |        112336896

 2017-02-08 07:35:48.129775+01 | 1486535748.12978 | pgbench_branches_pkey |            40960
 2017-02-08 07:35:48.129775+01 | 1486535748.12978 | pgbench_tellers_pkey  |           188416
 2017-02-08 07:35:48.129775+01 | 1486535748.12978 | pgbench_accounts_pkey |        112336896

 2017-02-08 07:35:49.182876+01 | 1486535749.18288 | pgbench_branches_pkey |            40960
 2017-02-08 07:35:49.182876+01 | 1486535749.18288 | pgbench_tellers_pkey  |           188416
 2017-02-08 07:35:49.182876+01 | 1486535749.18288 | pgbench_accounts_pkey |        112336896

 2017-02-08 07:35:50.236274+01 | 1486535750.23627 | pgbench_branches_pkey |            40960
 2017-02-08 07:35:50.236274+01 | 1486535750.23627 | pgbench_tellers_pkey  |           188416
 2017-02-08 07:35:50.236274+01 | 1486535750.23627 | pgbench_accounts_pkey |        112336896

 2017-02-08 07:35:51.289893+01 | 1486535751.28989 | pgbench_branches_pkey |            40960
 2017-02-08 07:35:51.289893+01 | 1486535751.28989 | pgbench_tellers_pkey  |           188416
 2017-02-08 07:35:51.289893+01 | 1486535751.28989 | pgbench_accounts_pkey |        112336896

 2017-02-08 07:35:52.341027+01 | 1486535752.34103 | pgbench_branches_pkey |            40960
 2017-02-08 07:35:52.341027+01 | 1486535752.34103 | pgbench_tellers_pkey  |           188416
 2017-02-08 07:35:52.341027+01 | 1486535752.34103 | pgbench_accounts_pkey |        112336896

 2017-02-08 07:35:53.392206+01 | 1486535753.39221 | pgbench_branches_pkey |            40960
 2017-02-08 07:35:53.392206+01 | 1486535753.39221 | pgbench_tellers_pkey  |           188416
 2017-02-08 07:35:53.392206+01 | 1486535753.39221 | pgbench_accounts_pkey |        112336896

 2017-02-08 07:35:54.44329+01 | 1486535754.44329 | pgbench_branches_pkey |            40960
 2017-02-08 07:35:54.44329+01 | 1486535754.44329 | pgbench_tellers_pkey  |           188416
 2017-02-08 07:35:54.44329+01 | 1486535754.44329 | pgbench_accounts_pkey |        112336896

 2017-02-08 07:35:55.499374+01 | 1486535755.49937 | pgbench_branches_pkey |            40960
 2017-02-08 07:35:55.499374+01 | 1486535755.49937 | pgbench_tellers_pkey  |           188416
 2017-02-08 07:35:55.499374+01 | 1486535755.49937 | pgbench_accounts_pkey |        112336896

 2017-02-08 07:35:56.554221+01 | 1486535756.55422 | pgbench_branches_pkey |            40960
 2017-02-08 07:35:56.554221+01 | 1486535756.55422 | pgbench_tellers_pkey  |           188416
 2017-02-08 07:35:56.554221+01 | 1486535756.55422 | pgbench_accounts_pkey |        112336896

 2017-02-08 07:35:57.605357+01 | 1486535757.60536 | pgbench_branches_pkey |            40960
 2017-02-08 07:35:57.605357+01 | 1486535757.60536 | pgbench_tellers_pkey  |           188416
 2017-02-08 07:35:57.605357+01 | 1486535757.60536 | pgbench_accounts_pkey |        112336896

 2017-02-08 07:35:58.662663+01 | 1486535758.66266 | pgbench_branches_pkey |            40960
 2017-02-08 07:35:58.662663+01 | 1486535758.66266 | pgbench_tellers_pkey  |           188416
 2017-02-08 07:35:58.662663+01 | 1486535758.66266 | pgbench_accounts_pkey |        112336896

 2017-02-08 07:35:59.715193+01 | 1486535759.71519 | pgbench_branches_pkey |            40960
 2017-02-08 07:35:59.715193+01 | 1486535759.71519 | pgbench_tellers_pkey  |           188416
 2017-02-08 07:35:59.715193+01 | 1486535759.71519 | pgbench_accounts_pkey |        112336896

 2017-02-08 07:36:00.770009+01 | 1486535760.77001 | pgbench_branches_pkey |            40960
 2017-02-08 07:36:00.770009+01 | 1486535760.77001 | pgbench_tellers_pkey  |           188416
 2017-02-08 07:36:00.770009+01 | 1486535760.77001 | pgbench_accounts_pkey |        112336896

 2017-02-08 07:36:01.823932+01 | 1486535761.82393 | pgbench_branches_pkey |            40960
 2017-02-08 07:36:01.823932+01 | 1486535761.82393 | pgbench_tellers_pkey  |           188416
 2017-02-08 07:36:01.823932+01 | 1486535761.82393 | pgbench_accounts_pkey |        112336896

 2017-02-08 07:36:02.874783+01 | 1486535762.87478 | pgbench_branches_pkey |            40960
 2017-02-08 07:36:02.874783+01 | 1486535762.87478 | pgbench_tellers_pkey  |           188416
 2017-02-08 07:36:02.874783+01 | 1486535762.87478 | pgbench_accounts_pkey |        112336896

 2017-02-08 07:36:03.927181+01 | 1486535763.92718 | pgbench_branches_pkey |            40960
 2017-02-08 07:36:03.927181+01 | 1486535763.92718 | pgbench_tellers_pkey  |           188416
 2017-02-08 07:36:03.927181+01 | 1486535763.92718 | pgbench_accounts_pkey |        112336896

 2017-02-08 07:36:04.978491+01 | 1486535764.97849 | pgbench_branches_pkey |            40960
 2017-02-08 07:36:04.978491+01 | 1486535764.97849 | pgbench_tellers_pkey  |           188416
 2017-02-08 07:36:04.978491+01 | 1486535764.97849 | pgbench_accounts_pkey |        112336896

 2017-02-08 07:36:06.028658+01 | 1486535766.02866 | pgbench_branches_pkey |            40960
 2017-02-08 07:36:06.028658+01 | 1486535766.02866 | pgbench_tellers_pkey  |           188416
 2017-02-08 07:36:06.028658+01 | 1486535766.02866 | pgbench_accounts_pkey |        112336896

 2017-02-08 07:36:07.081853+01 | 1486535767.08185 | pgbench_branches_pkey |            40960
 2017-02-08 07:36:07.081853+01 | 1486535767.08185 | pgbench_tellers_pkey  |           188416
 2017-02-08 07:36:07.081853+01 | 1486535767.08185 | pgbench_accounts_pkey |        112336896

 2017-02-08 07:36:08.135007+01 | 1486535768.13501 | pgbench_branches_pkey |            40960
 2017-02-08 07:36:08.135007+01 | 1486535768.13501 | pgbench_tellers_pkey  |           188416
 2017-02-08 07:36:08.135007+01 | 1486535768.13501 | pgbench_accounts_pkey |        112336896

 2017-02-08 07:36:09.188741+01 | 1486535769.18874 | pgbench_branches_pkey |            40960
 2017-02-08 07:36:09.188741+01 | 1486535769.18874 | pgbench_tellers_pkey  |           188416
 2017-02-08 07:36:09.188741+01 | 1486535769.18874 | pgbench_accounts_pkey |        112336896

 2017-02-08 07:36:10.242451+01 | 1486535770.24245 | pgbench_branches_pkey |            40960
 2017-02-08 07:36:10.242451+01 | 1486535770.24245 | pgbench_tellers_pkey  |           188416
 2017-02-08 07:36:10.242451+01 | 1486535770.24245 | pgbench_accounts_pkey |        112336896

 2017-02-08 07:36:11.294454+01 | 1486535771.29445 | pgbench_branches_pkey |            40960
 2017-02-08 07:36:11.294454+01 | 1486535771.29445 | pgbench_tellers_pkey  |           188416
 2017-02-08 07:36:11.294454+01 | 1486535771.29445 | pgbench_accounts_pkey |        112336896

 2017-02-08 07:36:12.346586+01 | 1486535772.34659 | pgbench_branches_pkey |            40960
 2017-02-08 07:36:12.346586+01 | 1486535772.34659 | pgbench_tellers_pkey  |           188416
 2017-02-08 07:36:12.346586+01 | 1486535772.34659 | pgbench_accounts_pkey |        112336896

 2017-02-08 07:36:13.397145+01 | 1486535773.39715 | pgbench_branches_pkey |            40960
 2017-02-08 07:36:13.397145+01 | 1486535773.39715 | pgbench_tellers_pkey  |           188416
 2017-02-08 07:36:13.397145+01 | 1486535773.39715 | pgbench_accounts_pkey |        112336896

 2017-02-08 07:36:14.448469+01 | 1486535774.44847 | pgbench_branches_pkey |            40960
 2017-02-08 07:36:14.448469+01 | 1486535774.44847 | pgbench_tellers_pkey  |           188416
 2017-02-08 07:36:14.448469+01 | 1486535774.44847 | pgbench_accounts_pkey |        112336896

 2017-02-08 07:36:15.500575+01 | 1486535775.50058 | pgbench_branches_pkey |            40960
 2017-02-08 07:36:15.500575+01 | 1486535775.50058 | pgbench_tellers_pkey  |           188416
 2017-02-08 07:36:15.500575+01 | 1486535775.50058 | pgbench_accounts_pkey |        112336896

 2017-02-08 07:36:16.55577+01 | 1486535776.55577 | pgbench_branches_pkey |            40960
 2017-02-08 07:36:16.55577+01 | 1486535776.55577 | pgbench_tellers_pkey  |           188416
 2017-02-08 07:36:16.55577+01 | 1486535776.55577 | pgbench_accounts_pkey |        112336896

 2017-02-08 07:36:17.605423+01 | 1486535777.60542 | pgbench_branches_pkey |            40960
 2017-02-08 07:36:17.605423+01 | 1486535777.60542 | pgbench_tellers_pkey  |           188416
 2017-02-08 07:36:17.605423+01 | 1486535777.60542 | pgbench_accounts_pkey |        112336896

 2017-02-08 07:36:18.660958+01 | 1486535778.66096 | pgbench_branches_pkey |            40960
 2017-02-08 07:36:18.660958+01 | 1486535778.66096 | pgbench_tellers_pkey  |           188416
 2017-02-08 07:36:18.660958+01 | 1486535778.66096 | pgbench_accounts_pkey |        112336896

 2017-02-08 07:36:19.730559+01 | 1486535779.73056 | pgbench_branches_pkey |            40960
 2017-02-08 07:36:19.730559+01 | 1486535779.73056 | pgbench_tellers_pkey  |           188416
 2017-02-08 07:36:19.730559+01 | 1486535779.73056 | pgbench_accounts_pkey |        112336896

 2017-02-08 07:36:20.788296+01 | 1486535780.7883 | pgbench_branches_pkey |            40960
 2017-02-08 07:36:20.788296+01 | 1486535780.7883 | pgbench_tellers_pkey  |           188416
 2017-02-08 07:36:20.788296+01 | 1486535780.7883 | pgbench_accounts_pkey |        112336896

 2017-02-08 07:36:21.842559+01 | 1486535781.84256 | pgbench_branches_pkey |            40960
 2017-02-08 07:36:21.842559+01 | 1486535781.84256 | pgbench_tellers_pkey  |           188416
 2017-02-08 07:36:21.842559+01 | 1486535781.84256 | pgbench_accounts_pkey |        112336896

 2017-02-08 07:36:22.901556+01 | 1486535782.90156 | pgbench_branches_pkey |            40960
 2017-02-08 07:36:22.901556+01 | 1486535782.90156 | pgbench_tellers_pkey  |           188416
 2017-02-08 07:36:22.901556+01 | 1486535782.90156 | pgbench_accounts_pkey |        112336896

 2017-02-08 07:36:23.95428+01 | 1486535783.95428 | pgbench_branches_pkey |            40960
 2017-02-08 07:36:23.95428+01 | 1486535783.95428 | pgbench_tellers_pkey  |           188416
 2017-02-08 07:36:23.95428+01 | 1486535783.95428 | pgbench_accounts_pkey |        112336896

 2017-02-08 07:36:25.011476+01 | 1486535785.01148 | pgbench_branches_pkey |            40960
 2017-02-08 07:36:25.011476+01 | 1486535785.01148 | pgbench_tellers_pkey  |           188416
 2017-02-08 07:36:25.011476+01 | 1486535785.01148 | pgbench_accounts_pkey |        112336896

 2017-02-08 07:36:26.060168+01 | 1486535786.06017 | pgbench_branches_pkey |            40960
 2017-02-08 07:36:26.060168+01 | 1486535786.06017 | pgbench_tellers_pkey  |           188416
 2017-02-08 07:36:26.060168+01 | 1486535786.06017 | pgbench_accounts_pkey |        112336896

 2017-02-08 07:36:27.113974+01 | 1486535787.11397 | pgbench_branches_pkey |            40960
 2017-02-08 07:36:27.113974+01 | 1486535787.11397 | pgbench_tellers_pkey  |           188416
 2017-02-08 07:36:27.113974+01 | 1486535787.11397 | pgbench_accounts_pkey |        112336896

 2017-02-08 07:36:28.168357+01 | 1486535788.16836 | pgbench_branches_pkey |            40960
 2017-02-08 07:36:28.168357+01 | 1486535788.16836 | pgbench_tellers_pkey  |           188416
 2017-02-08 07:36:28.168357+01 | 1486535788.16836 | pgbench_accounts_pkey |        112336896

 2017-02-08 07:36:29.22141+01 | 1486535789.22141 | pgbench_branches_pkey |            40960
 2017-02-08 07:36:29.22141+01 | 1486535789.22141 | pgbench_tellers_pkey  |           188416
 2017-02-08 07:36:29.22141+01 | 1486535789.22141 | pgbench_accounts_pkey |        112336896

 2017-02-08 07:36:30.277122+01 | 1486535790.27712 | pgbench_branches_pkey |            40960
 2017-02-08 07:36:30.277122+01 | 1486535790.27712 | pgbench_tellers_pkey  |           188416
 2017-02-08 07:36:30.277122+01 | 1486535790.27712 | pgbench_accounts_pkey |        112336896

 2017-02-08 07:36:31.331458+01 | 1486535791.33146 | pgbench_branches_pkey |            40960
 2017-02-08 07:36:31.331458+01 | 1486535791.33146 | pgbench_tellers_pkey  |           188416
 2017-02-08 07:36:31.331458+01 | 1486535791.33146 | pgbench_accounts_pkey |        112336896

 2017-02-08 07:36:32.382878+01 | 1486535792.38288 | pgbench_branches_pkey |            40960
 2017-02-08 07:36:32.382878+01 | 1486535792.38288 | pgbench_tellers_pkey  |           188416
 2017-02-08 07:36:32.382878+01 | 1486535792.38288 | pgbench_accounts_pkey |        112336896

 2017-02-08 07:36:33.433742+01 | 1486535793.43374 | pgbench_branches_pkey |            40960
 2017-02-08 07:36:33.433742+01 | 1486535793.43374 | pgbench_tellers_pkey  |           188416
 2017-02-08 07:36:33.433742+01 | 1486535793.43374 | pgbench_accounts_pkey |        112336896

 2017-02-08 07:36:34.488096+01 | 1486535794.4881 | pgbench_branches_pkey |            40960
 2017-02-08 07:36:34.488096+01 | 1486535794.4881 | pgbench_tellers_pkey  |           188416
 2017-02-08 07:36:34.488096+01 | 1486535794.4881 | pgbench_accounts_pkey |        112336896

 2017-02-08 07:36:35.539685+01 | 1486535795.53969 | pgbench_branches_pkey |            40960
 2017-02-08 07:36:35.539685+01 | 1486535795.53969 | pgbench_tellers_pkey  |           188416
 2017-02-08 07:36:35.539685+01 | 1486535795.53969 | pgbench_accounts_pkey |        112336896

 2017-02-08 07:36:36.589434+01 | 1486535796.58943 | pgbench_branches_pkey |            40960
 2017-02-08 07:36:36.589434+01 | 1486535796.58943 | pgbench_tellers_pkey  |           188416
 2017-02-08 07:36:36.589434+01 | 1486535796.58943 | pgbench_accounts_pkey |        112336896

 2017-02-08 07:36:37.641015+01 | 1486535797.64102 | pgbench_branches_pkey |            40960
 2017-02-08 07:36:37.641015+01 | 1486535797.64102 | pgbench_tellers_pkey  |           188416
 2017-02-08 07:36:37.641015+01 | 1486535797.64102 | pgbench_accounts_pkey |        112336896

 2017-02-08 07:36:38.693684+01 | 1486535798.69368 | pgbench_branches_pkey |            40960
 2017-02-08 07:36:38.693684+01 | 1486535798.69368 | pgbench_tellers_pkey  |           188416
 2017-02-08 07:36:38.693684+01 | 1486535798.69368 | pgbench_accounts_pkey |        112336896

 2017-02-08 07:36:39.745024+01 | 1486535799.74502 | pgbench_branches_pkey |            40960
 2017-02-08 07:36:39.745024+01 | 1486535799.74502 | pgbench_tellers_pkey  |           188416
 2017-02-08 07:36:39.745024+01 | 1486535799.74502 | pgbench_accounts_pkey |        112336896

 2017-02-08 07:36:40.79674+01 | 1486535800.79674 | pgbench_branches_pkey |            40960
 2017-02-08 07:36:40.79674+01 | 1486535800.79674 | pgbench_tellers_pkey  |           188416
 2017-02-08 07:36:40.79674+01 | 1486535800.79674 | pgbench_accounts_pkey |        112336896

 2017-02-08 07:36:41.846335+01 | 1486535801.84633 | pgbench_branches_pkey |            40960
 2017-02-08 07:36:41.846335+01 | 1486535801.84633 | pgbench_tellers_pkey  |           188416
 2017-02-08 07:36:41.846335+01 | 1486535801.84633 | pgbench_accounts_pkey |        112336896

 2017-02-08 07:36:42.896545+01 | 1486535802.89654 | pgbench_branches_pkey |            40960
 2017-02-08 07:36:42.896545+01 | 1486535802.89654 | pgbench_tellers_pkey  |           188416
 2017-02-08 07:36:42.896545+01 | 1486535802.89654 | pgbench_accounts_pkey |        112336896

 2017-02-08 07:36:43.94564+01 | 1486535803.94564 | pgbench_branches_pkey |            40960
 2017-02-08 07:36:43.94564+01 | 1486535803.94564 | pgbench_tellers_pkey  |           188416
 2017-02-08 07:36:43.94564+01 | 1486535803.94564 | pgbench_accounts_pkey |        112336896

 2017-02-08 07:36:45.001498+01 | 1486535805.0015 | pgbench_branches_pkey |            40960
 2017-02-08 07:36:45.001498+01 | 1486535805.0015 | pgbench_tellers_pkey  |           188416
 2017-02-08 07:36:45.001498+01 | 1486535805.0015 | pgbench_accounts_pkey |        112336896

 2017-02-08 07:36:46.053964+01 | 1486535806.05396 | pgbench_branches_pkey |            40960
 2017-02-08 07:36:46.053964+01 | 1486535806.05396 | pgbench_tellers_pkey  |           188416
 2017-02-08 07:36:46.053964+01 | 1486535806.05396 | pgbench_accounts_pkey |        112336896

 2017-02-08 07:36:47.104659+01 | 1486535807.10466 | pgbench_branches_pkey |            40960
 2017-02-08 07:36:47.104659+01 | 1486535807.10466 | pgbench_tellers_pkey  |           188416
 2017-02-08 07:36:47.104659+01 | 1486535807.10466 | pgbench_accounts_pkey |        112336896

 2017-02-08 07:36:48.157097+01 | 1486535808.1571 | pgbench_branches_pkey |            40960
 2017-02-08 07:36:48.157097+01 | 1486535808.1571 | pgbench_tellers_pkey  |           188416
 2017-02-08 07:36:48.157097+01 | 1486535808.1571 | pgbench_accounts_pkey |        112336896

 2017-02-08 07:36:49.207348+01 | 1486535809.20735 | pgbench_branches_pkey |            40960
 2017-02-08 07:36:49.207348+01 | 1486535809.20735 | pgbench_tellers_pkey  |           188416
 2017-02-08 07:36:49.207348+01 | 1486535809.20735 | pgbench_accounts_pkey |        112336896

 2017-02-08 07:36:50.260442+01 | 1486535810.26044 | pgbench_branches_pkey |            40960
 2017-02-08 07:36:50.260442+01 | 1486535810.26044 | pgbench_tellers_pkey  |           188416
 2017-02-08 07:36:50.260442+01 | 1486535810.26044 | pgbench_accounts_pkey |        112336896

 2017-02-08 07:36:51.311229+01 | 1486535811.31123 | pgbench_branches_pkey |            40960
 2017-02-08 07:36:51.311229+01 | 1486535811.31123 | pgbench_tellers_pkey  |           188416
 2017-02-08 07:36:51.311229+01 | 1486535811.31123 | pgbench_accounts_pkey |        112336896

 2017-02-08 07:36:52.364116+01 | 1486535812.36412 | pgbench_branches_pkey |            40960
 2017-02-08 07:36:52.364116+01 | 1486535812.36412 | pgbench_tellers_pkey  |           188416
 2017-02-08 07:36:52.364116+01 | 1486535812.36412 | pgbench_accounts_pkey |        112336896

 2017-02-08 07:36:53.414566+01 | 1486535813.41457 | pgbench_branches_pkey |            40960
 2017-02-08 07:36:53.414566+01 | 1486535813.41457 | pgbench_tellers_pkey  |           188416
 2017-02-08 07:36:53.414566+01 | 1486535813.41457 | pgbench_accounts_pkey |        112336896

 2017-02-08 07:36:54.464571+01 | 1486535814.46457 | pgbench_branches_pkey |            40960
 2017-02-08 07:36:54.464571+01 | 1486535814.46457 | pgbench_tellers_pkey  |           188416
 2017-02-08 07:36:54.464571+01 | 1486535814.46457 | pgbench_accounts_pkey |        112336896

 2017-02-08 07:36:55.517152+01 | 1486535815.51715 | pgbench_branches_pkey |            40960
 2017-02-08 07:36:55.517152+01 | 1486535815.51715 | pgbench_tellers_pkey  |           188416
 2017-02-08 07:36:55.517152+01 | 1486535815.51715 | pgbench_accounts_pkey |        112336896

 2017-02-08 07:36:56.570401+01 | 1486535816.5704 | pgbench_branches_pkey |            40960
 2017-02-08 07:36:56.570401+01 | 1486535816.5704 | pgbench_tellers_pkey  |           188416
 2017-02-08 07:36:56.570401+01 | 1486535816.5704 | pgbench_accounts_pkey |        112336896

 2017-02-08 07:36:57.623153+01 | 1486535817.62315 | pgbench_branches_pkey |            40960
 2017-02-08 07:36:57.623153+01 | 1486535817.62315 | pgbench_tellers_pkey  |           188416
 2017-02-08 07:36:57.623153+01 | 1486535817.62315 | pgbench_accounts_pkey |        112336896

 2017-02-08 07:36:58.672566+01 | 1486535818.67257 | pgbench_branches_pkey |            40960
 2017-02-08 07:36:58.672566+01 | 1486535818.67257 | pgbench_tellers_pkey  |           188416
 2017-02-08 07:36:58.672566+01 | 1486535818.67257 | pgbench_accounts_pkey |        112336896

 2017-02-08 07:36:59.729307+01 | 1486535819.72931 | pgbench_branches_pkey |            40960
 2017-02-08 07:36:59.729307+01 | 1486535819.72931 | pgbench_tellers_pkey  |           188416
 2017-02-08 07:36:59.729307+01 | 1486535819.72931 | pgbench_accounts_pkey |        112336896

 2017-02-08 07:37:00.78235+01 | 1486535820.78235 | pgbench_branches_pkey |            40960
 2017-02-08 07:37:00.78235+01 | 1486535820.78235 | pgbench_tellers_pkey  |           188416
 2017-02-08 07:37:00.78235+01 | 1486535820.78235 | pgbench_accounts_pkey |        112336896

 2017-02-08 07:37:01.836666+01 | 1486535821.83667 | pgbench_branches_pkey |            40960
 2017-02-08 07:37:01.836666+01 | 1486535821.83667 | pgbench_tellers_pkey  |           188416
 2017-02-08 07:37:01.836666+01 | 1486535821.83667 | pgbench_accounts_pkey |        112336896

 2017-02-08 07:37:02.885975+01 | 1486535822.88597 | pgbench_branches_pkey |            40960
 2017-02-08 07:37:02.885975+01 | 1486535822.88597 | pgbench_tellers_pkey  |           188416
 2017-02-08 07:37:02.885975+01 | 1486535822.88597 | pgbench_accounts_pkey |        112336896

 2017-02-08 07:37:03.942241+01 | 1486535823.94224 | pgbench_branches_pkey |            40960
 2017-02-08 07:37:03.942241+01 | 1486535823.94224 | pgbench_tellers_pkey  |           188416
 2017-02-08 07:37:03.942241+01 | 1486535823.94224 | pgbench_accounts_pkey |        112336896

 2017-02-08 07:37:04.993282+01 | 1486535824.99328 | pgbench_branches_pkey |            40960
 2017-02-08 07:37:04.993282+01 | 1486535824.99328 | pgbench_tellers_pkey  |           188416
 2017-02-08 07:37:04.993282+01 | 1486535824.99328 | pgbench_accounts_pkey |        112336896

 2017-02-08 07:37:06.042505+01 | 1486535826.04251 | pgbench_branches_pkey |            40960
 2017-02-08 07:37:06.042505+01 | 1486535826.04251 | pgbench_tellers_pkey  |           188416
 2017-02-08 07:37:06.042505+01 | 1486535826.04251 | pgbench_accounts_pkey |        112336896

 2017-02-08 07:37:07.090929+01 | 1486535827.09093 | pgbench_branches_pkey |            40960
 2017-02-08 07:37:07.090929+01 | 1486535827.09093 | pgbench_tellers_pkey  |           188416
 2017-02-08 07:37:07.090929+01 | 1486535827.09093 | pgbench_accounts_pkey |        112336896

 2017-02-08 07:37:08.142752+01 | 1486535828.14275 | pgbench_branches_pkey |            40960
 2017-02-08 07:37:08.142752+01 | 1486535828.14275 | pgbench_tellers_pkey  |           188416
 2017-02-08 07:37:08.142752+01 | 1486535828.14275 | pgbench_accounts_pkey |        112336896

 2017-02-08 07:37:09.196953+01 | 1486535829.19695 | pgbench_branches_pkey |            40960
 2017-02-08 07:37:09.196953+01 | 1486535829.19695 | pgbench_tellers_pkey  |           188416
 2017-02-08 07:37:09.196953+01 | 1486535829.19695 | pgbench_accounts_pkey |        112336896

 2017-02-08 07:37:10.250485+01 | 1486535830.25048 | pgbench_branches_pkey |            40960
 2017-02-08 07:37:10.250485+01 | 1486535830.25048 | pgbench_tellers_pkey  |           188416
 2017-02-08 07:37:10.250485+01 | 1486535830.25048 | pgbench_accounts_pkey |        112336896

 2017-02-08 07:37:11.304615+01 | 1486535831.30462 | pgbench_branches_pkey |            40960
 2017-02-08 07:37:11.304615+01 | 1486535831.30462 | pgbench_tellers_pkey  |           188416
 2017-02-08 07:37:11.304615+01 | 1486535831.30462 | pgbench_accounts_pkey |        112336896

 2017-02-08 07:37:12.357749+01 | 1486535832.35775 | pgbench_branches_pkey |            40960
 2017-02-08 07:37:12.357749+01 | 1486535832.35775 | pgbench_tellers_pkey  |           188416
 2017-02-08 07:37:12.357749+01 | 1486535832.35775 | pgbench_accounts_pkey |        112336896

 2017-02-08 07:37:13.41648+01 | 1486535833.41648 | pgbench_branches_pkey |            40960
 2017-02-08 07:37:13.41648+01 | 1486535833.41648 | pgbench_tellers_pkey  |           188416
 2017-02-08 07:37:13.41648+01 | 1486535833.41648 | pgbench_accounts_pkey |        112336896

 2017-02-08 07:37:14.470401+01 | 1486535834.4704 | pgbench_branches_pkey |            40960
 2017-02-08 07:37:14.470401+01 | 1486535834.4704 | pgbench_tellers_pkey  |           188416
 2017-02-08 07:37:14.470401+01 | 1486535834.4704 | pgbench_accounts_pkey |        112336896

 2017-02-08 07:37:15.523459+01 | 1486535835.52346 | pgbench_branches_pkey |            40960
 2017-02-08 07:37:15.523459+01 | 1486535835.52346 | pgbench_tellers_pkey  |           188416
 2017-02-08 07:37:15.523459+01 | 1486535835.52346 | pgbench_accounts_pkey |        112336896

 2017-02-08 07:37:16.579671+01 | 1486535836.57967 | pgbench_branches_pkey |            40960
 2017-02-08 07:37:16.579671+01 | 1486535836.57967 | pgbench_tellers_pkey  |           188416
 2017-02-08 07:37:16.579671+01 | 1486535836.57967 | pgbench_accounts_pkey |        112336896

 2017-02-08 07:37:17.630439+01 | 1486535837.63044 | pgbench_branches_pkey |            40960
 2017-02-08 07:37:17.630439+01 | 1486535837.63044 | pgbench_tellers_pkey  |           188416
 2017-02-08 07:37:17.630439+01 | 1486535837.63044 | pgbench_accounts_pkey |        112336896

 2017-02-08 07:37:18.680448+01 | 1486535838.68045 | pgbench_branches_pkey |            40960
 2017-02-08 07:37:18.680448+01 | 1486535838.68045 | pgbench_tellers_pkey  |           188416
 2017-02-08 07:37:18.680448+01 | 1486535838.68045 | pgbench_accounts_pkey |        112336896

 2017-02-08 07:37:19.730205+01 | 1486535839.73021 | pgbench_branches_pkey |            40960
 2017-02-08 07:37:19.730205+01 | 1486535839.73021 | pgbench_tellers_pkey  |           188416
 2017-02-08 07:37:19.730205+01 | 1486535839.73021 | pgbench_accounts_pkey |        112336896

 2017-02-08 07:37:20.790637+01 | 1486535840.79064 | pgbench_branches_pkey |            40960
 2017-02-08 07:37:20.790637+01 | 1486535840.79064 | pgbench_tellers_pkey  |           188416
 2017-02-08 07:37:20.790637+01 | 1486535840.79064 | pgbench_accounts_pkey |        112336896

 2017-02-08 07:37:21.845902+01 | 1486535841.8459 | pgbench_branches_pkey |            40960
 2017-02-08 07:37:21.845902+01 | 1486535841.8459 | pgbench_tellers_pkey  |           188416
 2017-02-08 07:37:21.845902+01 | 1486535841.8459 | pgbench_accounts_pkey |        112336896

 2017-02-08 07:37:22.905258+01 | 1486535842.90526 | pgbench_branches_pkey |            40960
 2017-02-08 07:37:22.905258+01 | 1486535842.90526 | pgbench_tellers_pkey  |           188416
 2017-02-08 07:37:22.905258+01 | 1486535842.90526 | pgbench_accounts_pkey |        112336896

 2017-02-08 07:37:23.968556+01 | 1486535843.96856 | pgbench_branches_pkey |            40960
 2017-02-08 07:37:23.968556+01 | 1486535843.96856 | pgbench_tellers_pkey  |           188416
 2017-02-08 07:37:23.968556+01 | 1486535843.96856 | pgbench_accounts_pkey |        112336896

 2017-02-08 07:37:25.040778+01 | 1486535845.04078 | pgbench_branches_pkey |            40960
 2017-02-08 07:37:25.040778+01 | 1486535845.04078 | pgbench_tellers_pkey  |           188416
 2017-02-08 07:37:25.040778+01 | 1486535845.04078 | pgbench_accounts_pkey |        112336896

 2017-02-08 07:37:26.097011+01 | 1486535846.09701 | pgbench_branches_pkey |            40960
 2017-02-08 07:37:26.097011+01 | 1486535846.09701 | pgbench_tellers_pkey  |           188416
 2017-02-08 07:37:26.097011+01 | 1486535846.09701 | pgbench_accounts_pkey |        112336896

 2017-02-08 07:37:27.151338+01 | 1486535847.15134 | pgbench_branches_pkey |            40960
 2017-02-08 07:37:27.151338+01 | 1486535847.15134 | pgbench_tellers_pkey  |           188416
 2017-02-08 07:37:27.151338+01 | 1486535847.15134 | pgbench_accounts_pkey |        112336896

 2017-02-08 07:37:28.205597+01 | 1486535848.2056 | pgbench_branches_pkey |            40960
 2017-02-08 07:37:28.205597+01 | 1486535848.2056 | pgbench_tellers_pkey  |           188416
 2017-02-08 07:37:28.205597+01 | 1486535848.2056 | pgbench_accounts_pkey |        112336896

 2017-02-08 07:37:29.259371+01 | 1486535849.25937 | pgbench_branches_pkey |            40960
 2017-02-08 07:37:29.259371+01 | 1486535849.25937 | pgbench_tellers_pkey  |           188416
 2017-02-08 07:37:29.259371+01 | 1486535849.25937 | pgbench_accounts_pkey |        112336896

 2017-02-08 07:37:30.311048+01 | 1486535850.31105 | pgbench_branches_pkey |            40960
 2017-02-08 07:37:30.311048+01 | 1486535850.31105 | pgbench_tellers_pkey  |           188416
 2017-02-08 07:37:30.311048+01 | 1486535850.31105 | pgbench_accounts_pkey |        112336896

 2017-02-08 07:37:31.365597+01 | 1486535851.3656 | pgbench_branches_pkey |            40960
 2017-02-08 07:37:31.365597+01 | 1486535851.3656 | pgbench_tellers_pkey  |           188416
 2017-02-08 07:37:31.365597+01 | 1486535851.3656 | pgbench_accounts_pkey |        112336896

 2017-02-08 07:37:32.417323+01 | 1486535852.41732 | pgbench_branches_pkey |            40960
 2017-02-08 07:37:32.417323+01 | 1486535852.41732 | pgbench_tellers_pkey  |           188416
 2017-02-08 07:37:32.417323+01 | 1486535852.41732 | pgbench_accounts_pkey |        112336896

 2017-02-08 07:37:33.469863+01 | 1486535853.46986 | pgbench_branches_pkey |            40960
 2017-02-08 07:37:33.469863+01 | 1486535853.46986 | pgbench_tellers_pkey  |           188416
 2017-02-08 07:37:33.469863+01 | 1486535853.46986 | pgbench_accounts_pkey |        112336896

 2017-02-08 07:37:34.523351+01 | 1486535854.52335 | pgbench_branches_pkey |            40960
 2017-02-08 07:37:34.523351+01 | 1486535854.52335 | pgbench_tellers_pkey  |           188416
 2017-02-08 07:37:34.523351+01 | 1486535854.52335 | pgbench_accounts_pkey |        112336896

 2017-02-08 07:37:35.577608+01 | 1486535855.57761 | pgbench_branches_pkey |            40960
 2017-02-08 07:37:35.577608+01 | 1486535855.57761 | pgbench_tellers_pkey  |           188416
 2017-02-08 07:37:35.577608+01 | 1486535855.57761 | pgbench_accounts_pkey |        112336896

 2017-02-08 07:37:36.63073+01 | 1486535856.63073 | pgbench_branches_pkey |            40960
 2017-02-08 07:37:36.63073+01 | 1486535856.63073 | pgbench_tellers_pkey  |           188416
 2017-02-08 07:37:36.63073+01 | 1486535856.63073 | pgbench_accounts_pkey |        112336896

 2017-02-08 07:37:37.681808+01 | 1486535857.68181 | pgbench_branches_pkey |            40960
 2017-02-08 07:37:37.681808+01 | 1486535857.68181 | pgbench_tellers_pkey  |           188416
 2017-02-08 07:37:37.681808+01 | 1486535857.68181 | pgbench_accounts_pkey |        112336896

 2017-02-08 07:37:38.731176+01 | 1486535858.73118 | pgbench_branches_pkey |            40960
 2017-02-08 07:37:38.731176+01 | 1486535858.73118 | pgbench_tellers_pkey  |           188416
 2017-02-08 07:37:38.731176+01 | 1486535858.73118 | pgbench_accounts_pkey |        112336896

 2017-02-08 07:37:39.786156+01 | 1486535859.78616 | pgbench_branches_pkey |            40960
 2017-02-08 07:37:39.786156+01 | 1486535859.78616 | pgbench_tellers_pkey  |           188416
 2017-02-08 07:37:39.786156+01 | 1486535859.78616 | pgbench_accounts_pkey |        112336896

 2017-02-08 07:37:40.837831+01 | 1486535860.83783 | pgbench_branches_pkey |            40960
 2017-02-08 07:37:40.837831+01 | 1486535860.83783 | pgbench_tellers_pkey  |           188416
 2017-02-08 07:37:40.837831+01 | 1486535860.83783 | pgbench_accounts_pkey |        112336896

 2017-02-08 07:37:41.889899+01 | 1486535861.8899 | pgbench_branches_pkey |            40960
 2017-02-08 07:37:41.889899+01 | 1486535861.8899 | pgbench_tellers_pkey  |           188416
 2017-02-08 07:37:41.889899+01 | 1486535861.8899 | pgbench_accounts_pkey |        112336896

 2017-02-08 07:37:42.940524+01 | 1486535862.94052 | pgbench_branches_pkey |            40960
 2017-02-08 07:37:42.940524+01 | 1486535862.94052 | pgbench_tellers_pkey  |           188416
 2017-02-08 07:37:42.940524+01 | 1486535862.94052 | pgbench_accounts_pkey |        112336896

 2017-02-08 07:37:43.993817+01 | 1486535863.99382 | pgbench_branches_pkey |            40960
 2017-02-08 07:37:43.993817+01 | 1486535863.99382 | pgbench_tellers_pkey  |           188416
 2017-02-08 07:37:43.993817+01 | 1486535863.99382 | pgbench_accounts_pkey |        112336896

 2017-02-08 07:37:45.045316+01 | 1486535865.04532 | pgbench_branches_pkey |            40960
 2017-02-08 07:37:45.045316+01 | 1486535865.04532 | pgbench_tellers_pkey  |           188416
 2017-02-08 07:37:45.045316+01 | 1486535865.04532 | pgbench_accounts_pkey |        112336896

 2017-02-08 07:37:46.096144+01 | 1486535866.09614 | pgbench_branches_pkey |            40960
 2017-02-08 07:37:46.096144+01 | 1486535866.09614 | pgbench_tellers_pkey  |           188416
 2017-02-08 07:37:46.096144+01 | 1486535866.09614 | pgbench_accounts_pkey |        112336896

 2017-02-08 07:37:47.148662+01 | 1486535867.14866 | pgbench_branches_pkey |            40960
 2017-02-08 07:37:47.148662+01 | 1486535867.14866 | pgbench_tellers_pkey  |           188416
 2017-02-08 07:37:47.148662+01 | 1486535867.14866 | pgbench_accounts_pkey |        112336896

 2017-02-08 07:37:48.202045+01 | 1486535868.20204 | pgbench_branches_pkey |            40960
 2017-02-08 07:37:48.202045+01 | 1486535868.20204 | pgbench_tellers_pkey  |           188416
 2017-02-08 07:37:48.202045+01 | 1486535868.20204 | pgbench_accounts_pkey |        112336896

 2017-02-08 07:37:49.256008+01 | 1486535869.25601 | pgbench_branches_pkey |            40960
 2017-02-08 07:37:49.256008+01 | 1486535869.25601 | pgbench_tellers_pkey  |           188416
 2017-02-08 07:37:49.256008+01 | 1486535869.25601 | pgbench_accounts_pkey |        112336896

 2017-02-08 07:37:50.310197+01 | 1486535870.3102 | pgbench_branches_pkey |            40960
 2017-02-08 07:37:50.310197+01 | 1486535870.3102 | pgbench_tellers_pkey  |           188416
 2017-02-08 07:37:50.310197+01 | 1486535870.3102 | pgbench_accounts_pkey |        112336896

 2017-02-08 07:37:51.360017+01 | 1486535871.36002 | pgbench_branches_pkey |            40960
 2017-02-08 07:37:51.360017+01 | 1486535871.36002 | pgbench_tellers_pkey  |           188416
 2017-02-08 07:37:51.360017+01 | 1486535871.36002 | pgbench_accounts_pkey |        112336896

 2017-02-08 07:37:52.412057+01 | 1486535872.41206 | pgbench_branches_pkey |            40960
 2017-02-08 07:37:52.412057+01 | 1486535872.41206 | pgbench_tellers_pkey  |           188416
 2017-02-08 07:37:52.412057+01 | 1486535872.41206 | pgbench_accounts_pkey |        112336896

 2017-02-08 07:37:53.464896+01 | 1486535873.4649 | pgbench_branches_pkey |            40960
 2017-02-08 07:37:53.464896+01 | 1486535873.4649 | pgbench_tellers_pkey  |           188416
 2017-02-08 07:37:53.464896+01 | 1486535873.4649 | pgbench_accounts_pkey |        112336896

 2017-02-08 07:37:54.521102+01 | 1486535874.5211 | pgbench_branches_pkey |            40960
 2017-02-08 07:37:54.521102+01 | 1486535874.5211 | pgbench_tellers_pkey  |           188416
 2017-02-08 07:37:54.521102+01 | 1486535874.5211 | pgbench_accounts_pkey |        112336896

 2017-02-08 07:37:55.573236+01 | 1486535875.57324 | pgbench_branches_pkey |            40960
 2017-02-08 07:37:55.573236+01 | 1486535875.57324 | pgbench_tellers_pkey  |           188416
 2017-02-08 07:37:55.573236+01 | 1486535875.57324 | pgbench_accounts_pkey |        112336896

 2017-02-08 07:37:56.623434+01 | 1486535876.62343 | pgbench_branches_pkey |            40960
 2017-02-08 07:37:56.623434+01 | 1486535876.62343 | pgbench_tellers_pkey  |           188416
 2017-02-08 07:37:56.623434+01 | 1486535876.62343 | pgbench_accounts_pkey |        112336896

 2017-02-08 07:37:57.675804+01 | 1486535877.6758 | pgbench_branches_pkey |            40960
 2017-02-08 07:37:57.675804+01 | 1486535877.6758 | pgbench_tellers_pkey  |           188416
 2017-02-08 07:37:57.675804+01 | 1486535877.6758 | pgbench_accounts_pkey |        112336896

 2017-02-08 07:37:58.727162+01 | 1486535878.72716 | pgbench_branches_pkey |            40960
 2017-02-08 07:37:58.727162+01 | 1486535878.72716 | pgbench_tellers_pkey  |           188416
 2017-02-08 07:37:58.727162+01 | 1486535878.72716 | pgbench_accounts_pkey |        112336896

 2017-02-08 07:37:59.780413+01 | 1486535879.78041 | pgbench_branches_pkey |            40960
 2017-02-08 07:37:59.780413+01 | 1486535879.78041 | pgbench_tellers_pkey  |           188416
 2017-02-08 07:37:59.780413+01 | 1486535879.78041 | pgbench_accounts_pkey |        112336896

 2017-02-08 07:38:00.831233+01 | 1486535880.83123 | pgbench_branches_pkey |            40960
 2017-02-08 07:38:00.831233+01 | 1486535880.83123 | pgbench_tellers_pkey  |           188416
 2017-02-08 07:38:00.831233+01 | 1486535880.83123 | pgbench_accounts_pkey |        112336896

 2017-02-08 07:38:01.883398+01 | 1486535881.8834 | pgbench_branches_pkey |            40960
 2017-02-08 07:38:01.883398+01 | 1486535881.8834 | pgbench_tellers_pkey  |           188416
 2017-02-08 07:38:01.883398+01 | 1486535881.8834 | pgbench_accounts_pkey |        112336896

 2017-02-08 07:38:02.9325+01 | 1486535882.9325 | pgbench_branches_pkey |            40960
 2017-02-08 07:38:02.9325+01 | 1486535882.9325 | pgbench_tellers_pkey  |           188416
 2017-02-08 07:38:02.9325+01 | 1486535882.9325 | pgbench_accounts_pkey |        112336896

 2017-02-08 07:38:03.985462+01 | 1486535883.98546 | pgbench_branches_pkey |            40960
 2017-02-08 07:38:03.985462+01 | 1486535883.98546 | pgbench_tellers_pkey  |           188416
 2017-02-08 07:38:03.985462+01 | 1486535883.98546 | pgbench_accounts_pkey |        112336896

 2017-02-08 07:38:05.037622+01 | 1486535885.03762 | pgbench_branches_pkey |            40960
 2017-02-08 07:38:05.037622+01 | 1486535885.03762 | pgbench_tellers_pkey  |           188416
 2017-02-08 07:38:05.037622+01 | 1486535885.03762 | pgbench_accounts_pkey |        112336896

 2017-02-08 07:38:06.091094+01 | 1486535886.09109 | pgbench_branches_pkey |            40960
 2017-02-08 07:38:06.091094+01 | 1486535886.09109 | pgbench_tellers_pkey  |           188416
 2017-02-08 07:38:06.091094+01 | 1486535886.09109 | pgbench_accounts_pkey |        112336896

