 2017-02-08 02:55:31.663345+01 | 1486518931.66335 | 0/E7DACEC0               |            3889876672

 2017-02-08 02:55:33.076365+01 | 1486518933.07636 | 0/E7DACEC0               |            3889876672

 2017-02-08 02:55:34.422705+01 | 1486518934.4227 | 0/E7DACEC0               |            3889876672

 2017-02-08 02:55:35.751551+01 | 1486518935.75155 | 0/E7DACEC0               |            3889876672

 2017-02-08 02:55:37.143763+01 | 1486518937.14376 | 0/E7DACEC0               |            3889876672

 2017-02-08 02:55:38.520306+01 | 1486518938.52031 | 0/E7DACEC0               |            3889876672

 2017-02-08 02:55:39.829515+01 | 1486518939.82951 | 0/E7DACEC0               |            3889876672

 2017-02-08 02:55:41.159223+01 | 1486518941.15922 | 0/E7DACEC0               |            3889876672

 2017-02-08 02:55:42.531221+01 | 1486518942.53122 | 0/E7DACEC0               |            3889876672

 2017-02-08 02:55:43.93805+01 | 1486518943.93805 | 0/E7DACEC0               |            3889876672

 2017-02-08 02:55:45.332722+01 | 1486518945.33272 | 0/E7DACEC0               |            3889876672

 2017-02-08 02:55:46.716322+01 | 1486518946.71632 | 0/E7DACEF8               |            3889876728

 2017-02-08 02:55:48.025007+01 | 1486518948.02501 | 0/E7DACEF8               |            3889876728

 2017-02-08 02:55:49.403409+01 | 1486518949.40341 | 0/E7DACEF8               |            3889876728

 2017-02-08 02:55:50.783367+01 | 1486518950.78337 | 0/E7DACEF8               |            3889876728

 2017-02-08 02:55:52.175741+01 | 1486518952.17574 | 0/E7DACEF8               |            3889876728

 2017-02-08 02:55:53.591699+01 | 1486518953.5917 | 0/E7DACEF8               |            3889876728

 2017-02-08 02:55:54.963725+01 | 1486518954.96373 | 0/E7DACEF8               |            3889876728

 2017-02-08 02:55:56.327513+01 | 1486518956.32751 | 0/E7DACEF8               |            3889876728

 2017-02-08 02:55:57.663644+01 | 1486518957.66364 | 0/E7DACEF8               |            3889876728

 2017-02-08 02:55:59.009331+01 | 1486518959.00933 | 0/E7DACEF8               |            3889876728

 2017-02-08 02:56:00.37251+01 | 1486518960.37251 | 0/E7DACEF8               |            3889876728

 2017-02-08 02:56:01.691796+01 | 1486518961.6918 | 0/E7DACEF8               |            3889876728

 2017-02-08 02:56:02.99233+01 | 1486518962.99233 | 0/E7DACEF8               |            3889876728

 2017-02-08 02:56:04.380103+01 | 1486518964.3801 | 0/E7DACEF8               |            3889876728

 2017-02-08 02:56:05.762138+01 | 1486518965.76214 | 0/E7DACEF8               |            3889876728

 2017-02-08 02:56:07.136335+01 | 1486518967.13633 | 0/E7DACEF8               |            3889876728

 2017-02-08 02:56:08.506145+01 | 1486518968.50615 | 0/E7DACEF8               |            3889876728

 2017-02-08 02:56:09.87001+01 | 1486518969.87001 | 0/E7DACEF8               |            3889876728

 2017-02-08 02:56:11.24198+01 | 1486518971.24198 | 0/E7DACEF8               |            3889876728

 2017-02-08 02:56:12.536971+01 | 1486518972.53697 | 0/E7DACEF8               |            3889876728

 2017-02-08 02:56:13.892724+01 | 1486518973.89272 | 0/E7DACEF8               |            3889876728

 2017-02-08 02:56:15.186479+01 | 1486518975.18648 | 0/E7DACEF8               |            3889876728

 2017-02-08 02:56:16.434285+01 | 1486518976.43428 | 0/E7DACEF8               |            3889876728

 2017-02-08 02:56:17.83965+01 | 1486518977.83965 | 0/E7DACEF8               |            3889876728

 2017-02-08 02:56:19.208182+01 | 1486518979.20818 | 0/E7DACEF8               |            3889876728

 2017-02-08 02:56:20.517835+01 | 1486518980.51783 | 0/E7DACEF8               |            3889876728

 2017-02-08 02:56:21.816762+01 | 1486518981.81676 | 0/E7DACEF8               |            3889876728

 2017-02-08 02:56:23.194795+01 | 1486518983.19479 | 0/E7DACEF8               |            3889876728

 2017-02-08 02:56:24.579485+01 | 1486518984.57948 | 0/E7DACEF8               |            3889876728

 2017-02-08 02:56:25.924648+01 | 1486518985.92465 | 0/E7DACEF8               |            3889876728

 2017-02-08 02:56:27.293715+01 | 1486518987.29372 | 0/E7DACEF8               |            3889876728

 2017-02-08 02:56:28.620271+01 | 1486518988.62027 | 0/E7DACEF8               |            3889876728

 2017-02-08 02:56:29.954791+01 | 1486518989.95479 | 0/E7DACEF8               |            3889876728

 2017-02-08 02:56:31.289177+01 | 1486518991.28918 | 0/E7DACEF8               |            3889876728

 2017-02-08 02:56:32.626936+01 | 1486518992.62694 | 0/E7DACEF8               |            3889876728

 2017-02-08 02:56:34.00973+01 | 1486518994.00973 | 0/E7DACEF8               |            3889876728

 2017-02-08 02:56:35.394781+01 | 1486518995.39478 | 0/E7DACEF8               |            3889876728

 2017-02-08 02:56:36.713185+01 | 1486518996.71319 | 0/E7DACEF8               |            3889876728

 2017-02-08 02:56:38.137503+01 | 1486518998.1375 | 0/E7DACEF8               |            3889876728

 2017-02-08 02:56:39.50679+01 | 1486518999.50679 | 0/E7DACEF8               |            3889876728

 2017-02-08 02:56:40.806119+01 | 1486519000.80612 | 0/E7DACEF8               |            3889876728

 2017-02-08 02:56:42.140396+01 | 1486519002.1404 | 0/E7DACEF8               |            3889876728

 2017-02-08 02:56:43.491278+01 | 1486519003.49128 | 0/E7DACEF8               |            3889876728

 2017-02-08 02:56:44.844702+01 | 1486519004.8447 | 0/E7DACEF8               |            3889876728

 2017-02-08 02:56:46.238743+01 | 1486519006.23874 | 0/E7DACEF8               |            3889876728

 2017-02-08 02:56:47.598016+01 | 1486519007.59802 | 0/E7DACEF8               |            3889876728

 2017-02-08 02:56:48.969451+01 | 1486519008.96945 | 0/E7DACEF8               |            3889876728

 2017-02-08 02:56:50.375018+01 | 1486519010.37502 | 0/E7DACEF8               |            3889876728

 2017-02-08 02:56:51.711673+01 | 1486519011.71167 | 0/E7DACEF8               |            3889876728

 2017-02-08 02:56:53.100582+01 | 1486519013.10058 | 0/E7DACEF8               |            3889876728

 2017-02-08 02:56:54.450883+01 | 1486519014.45088 | 0/E7DACEF8               |            3889876728

 2017-02-08 02:56:55.768547+01 | 1486519015.76855 | 0/E7DACEF8               |            3889876728

 2017-02-08 02:56:57.149835+01 | 1486519017.14984 | 0/E7DACEF8               |            3889876728

 2017-02-08 02:56:58.543111+01 | 1486519018.54311 | 0/E7DACEF8               |            3889876728

 2017-02-08 02:56:59.903219+01 | 1486519019.90322 | 0/E7DACEF8               |            3889876728

 2017-02-08 02:57:01.303939+01 | 1486519021.30394 | 0/E7DACEF8               |            3889876728

 2017-02-08 02:57:02.673089+01 | 1486519022.67309 | 0/E7DACEF8               |            3889876728

 2017-02-08 02:57:04.01081+01 | 1486519024.01081 | 0/E7DACEF8               |            3889876728

 2017-02-08 02:57:05.382581+01 | 1486519025.38258 | 0/E7DACEF8               |            3889876728

 2017-02-08 02:57:06.767467+01 | 1486519026.76747 | 0/E7DACEF8               |            3889876728

 2017-02-08 02:57:08.129352+01 | 1486519028.12935 | 0/E7DACEF8               |            3889876728

 2017-02-08 02:57:09.507644+01 | 1486519029.50764 | 0/E7DACEF8               |            3889876728

 2017-02-08 02:57:10.868911+01 | 1486519030.86891 | 0/E7DACEF8               |            3889876728

 2017-02-08 02:57:12.240168+01 | 1486519032.24017 | 0/E7DACEF8               |            3889876728

 2017-02-08 02:57:13.546997+01 | 1486519033.547 | 0/E7DACEF8               |            3889876728

 2017-02-08 02:57:14.860494+01 | 1486519034.86049 | 0/E7DACEF8               |            3889876728

 2017-02-08 02:57:16.238582+01 | 1486519036.23858 | 0/E7DACEF8               |            3889876728

 2017-02-08 02:57:17.621888+01 | 1486519037.62189 | 0/E7DACEF8               |            3889876728

 2017-02-08 02:57:19.021295+01 | 1486519039.0213 | 0/E7DACEF8               |            3889876728

 2017-02-08 02:57:20.294568+01 | 1486519040.29457 | 0/E7DACEF8               |            3889876728

 2017-02-08 02:57:21.608355+01 | 1486519041.60836 | 0/E7DACEF8               |            3889876728

 2017-02-08 02:57:22.950236+01 | 1486519042.95024 | 0/E7DACEF8               |            3889876728

 2017-02-08 02:57:24.294575+01 | 1486519044.29457 | 0/E7DACEF8               |            3889876728

 2017-02-08 02:57:25.623932+01 | 1486519045.62393 | 0/E7DACEF8               |            3889876728

 2017-02-08 02:57:26.949031+01 | 1486519046.94903 | 0/E7DACEF8               |            3889876728

 2017-02-08 02:57:28.323137+01 | 1486519048.32314 | 0/E7DACEF8               |            3889876728

 2017-02-08 02:57:29.709448+01 | 1486519049.70945 | 0/E7DACEF8               |            3889876728

 2017-02-08 02:57:31.045333+01 | 1486519051.04533 | 0/E7DACEF8               |            3889876728

 2017-02-08 02:57:32.399892+01 | 1486519052.39989 | 0/E7DACEF8               |            3889876728

 2017-02-08 02:57:33.822023+01 | 1486519053.82202 | 0/E7DACEF8               |            3889876728

 2017-02-08 02:57:35.215436+01 | 1486519055.21544 | 0/E7DACEF8               |            3889876728

 2017-02-08 02:57:36.547391+01 | 1486519056.54739 | 0/E7DACEF8               |            3889876728

 2017-02-08 02:57:37.84677+01 | 1486519057.84677 | 0/E7DACEF8               |            3889876728

 2017-02-08 02:57:39.228743+01 | 1486519059.22874 | 0/E7DACEF8               |            3889876728

 2017-02-08 02:57:40.599789+01 | 1486519060.59979 | 0/E7DACEF8               |            3889876728

 2017-02-08 02:57:41.987814+01 | 1486519061.98781 | 0/E7DACEF8               |            3889876728

 2017-02-08 02:57:43.365588+01 | 1486519063.36559 | 0/E7DACEF8               |            3889876728

 2017-02-08 02:57:44.702278+01 | 1486519064.70228 | 0/E7DACEF8               |            3889876728

 2017-02-08 02:57:46.124115+01 | 1486519066.12411 | 0/E7DACEF8               |            3889876728

 2017-02-08 02:57:47.467301+01 | 1486519067.4673 | 0/E7DACEF8               |            3889876728

 2017-02-08 02:57:48.765634+01 | 1486519068.76563 | 0/E7DACEF8               |            3889876728

 2017-02-08 02:57:50.138145+01 | 1486519070.13814 | 0/E7DACEF8               |            3889876728

 2017-02-08 02:57:51.520291+01 | 1486519071.52029 | 0/E7DACEF8               |            3889876728

 2017-02-08 02:57:52.817478+01 | 1486519072.81748 | 0/E7DACEF8               |            3889876728

 2017-02-08 02:57:54.179345+01 | 1486519074.17934 | 0/E7DACEF8               |            3889876728

 2017-02-08 02:57:55.568287+01 | 1486519075.56829 | 0/E7DACEF8               |            3889876728

 2017-02-08 02:57:56.890859+01 | 1486519076.89086 | 0/E7DACEF8               |            3889876728

 2017-02-08 02:57:58.258168+01 | 1486519078.25817 | 0/E7DACEF8               |            3889876728

 2017-02-08 02:57:59.634664+01 | 1486519079.63466 | 0/E7DACEF8               |            3889876728

 2017-02-08 02:58:00.990554+01 | 1486519080.99055 | 0/E7DACEF8               |            3889876728

 2017-02-08 02:58:02.350616+01 | 1486519082.35062 | 0/E7DACEF8               |            3889876728

 2017-02-08 02:58:03.76385+01 | 1486519083.76385 | 0/E7DACEF8               |            3889876728

 2017-02-08 02:58:05.141292+01 | 1486519085.14129 | 0/E7DACEF8               |            3889876728

 2017-02-08 02:58:06.494602+01 | 1486519086.4946 | 0/E7DACEF8               |            3889876728

 2017-02-08 02:58:07.882742+01 | 1486519087.88274 | 0/E7DACEF8               |            3889876728

 2017-02-08 02:58:09.230474+01 | 1486519089.23047 | 0/E7DACEF8               |            3889876728

 2017-02-08 02:58:10.588683+01 | 1486519090.58868 | 0/E7DACEF8               |            3889876728

 2017-02-08 02:58:11.975706+01 | 1486519091.97571 | 0/E7DACEF8               |            3889876728

 2017-02-08 02:58:13.331505+01 | 1486519093.33151 | 0/E7DACEF8               |            3889876728

 2017-02-08 02:58:14.745703+01 | 1486519094.7457 | 0/E7DACEF8               |            3889876728

 2017-02-08 02:58:16.170305+01 | 1486519096.17031 | 0/E7DACEF8               |            3889876728

 2017-02-08 02:58:17.564563+01 | 1486519097.56456 | 0/E7DACEF8               |            3889876728

 2017-02-08 02:58:18.904341+01 | 1486519098.90434 | 0/E7DACEF8               |            3889876728

 2017-02-08 02:58:20.128105+01 | 1486519100.1281 | 0/E7DACEF8               |            3889876728

 2017-02-08 02:58:21.501491+01 | 1486519101.50149 | 0/E7DACEF8               |            3889876728

 2017-02-08 02:58:22.882195+01 | 1486519102.88219 | 0/E7DACEF8               |            3889876728

 2017-02-08 02:58:24.244566+01 | 1486519104.24457 | 0/E7DACEF8               |            3889876728

 2017-02-08 02:58:25.611094+01 | 1486519105.61109 | 0/E7DACEF8               |            3889876728

 2017-02-08 02:58:26.976802+01 | 1486519106.9768 | 0/E7DACEF8               |            3889876728

 2017-02-08 02:58:28.341776+01 | 1486519108.34178 | 0/E7DACEF8               |            3889876728

 2017-02-08 02:58:29.725296+01 | 1486519109.7253 | 0/E7DACEF8               |            3889876728

 2017-02-08 02:58:31.098423+01 | 1486519111.09842 | 0/E7DACEF8               |            3889876728

 2017-02-08 02:58:32.413582+01 | 1486519112.41358 | 0/E7DACEF8               |            3889876728

 2017-02-08 02:58:33.771431+01 | 1486519113.77143 | 0/E7DACEF8               |            3889876728

 2017-02-08 02:58:35.101115+01 | 1486519115.10111 | 0/E7DACEF8               |            3889876728

 2017-02-08 02:58:36.478327+01 | 1486519116.47833 | 0/E7DACEF8               |            3889876728

 2017-02-08 02:58:37.843477+01 | 1486519117.84348 | 0/E7DACEF8               |            3889876728

 2017-02-08 02:58:39.182228+01 | 1486519119.18223 | 0/E7DACEF8               |            3889876728

 2017-02-08 02:58:40.549436+01 | 1486519120.54944 | 0/E7DACEF8               |            3889876728

 2017-02-08 02:58:41.929182+01 | 1486519121.92918 | 0/E7DACEF8               |            3889876728

 2017-02-08 02:58:43.324088+01 | 1486519123.32409 | 0/E7DACEF8               |            3889876728

 2017-02-08 02:58:44.670423+01 | 1486519124.67042 | 0/E7DACEF8               |            3889876728

 2017-02-08 02:58:45.981278+01 | 1486519125.98128 | 0/E7DACEF8               |            3889876728

 2017-02-08 02:58:47.3734+01 | 1486519127.3734 | 0/E7DACEF8               |            3889876728

 2017-02-08 02:58:48.746775+01 | 1486519128.74677 | 0/E7DACEF8               |            3889876728

 2017-02-08 02:58:50.100326+01 | 1486519130.10033 | 0/E7DACEF8               |            3889876728

 2017-02-08 02:58:51.430269+01 | 1486519131.43027 | 0/E7DACEF8               |            3889876728

 2017-02-08 02:58:52.759293+01 | 1486519132.75929 | 0/E7DACEF8               |            3889876728

 2017-02-08 02:58:54.149129+01 | 1486519134.14913 | 0/E7DACEF8               |            3889876728

 2017-02-08 02:58:55.507069+01 | 1486519135.50707 | 0/E7DACEF8               |            3889876728

 2017-02-08 02:58:56.872495+01 | 1486519136.87249 | 0/E7DACEF8               |            3889876728

 2017-02-08 02:58:58.19184+01 | 1486519138.19184 | 0/E7DACEF8               |            3889876728

 2017-02-08 02:58:59.450319+01 | 1486519139.45032 | 0/E7DACEF8               |            3889876728

 2017-02-08 02:59:00.782778+01 | 1486519140.78278 | 0/E7DACEF8               |            3889876728

 2017-02-08 02:59:02.118006+01 | 1486519142.11801 | 0/E7DACEF8               |            3889876728

 2017-02-08 02:59:03.484003+01 | 1486519143.484 | 0/E7DACEF8               |            3889876728

 2017-02-08 02:59:04.829127+01 | 1486519144.82913 | 0/E7DACEF8               |            3889876728

 2017-02-08 02:59:06.165617+01 | 1486519146.16562 | 0/E7DACEF8               |            3889876728

 2017-02-08 02:59:07.536406+01 | 1486519147.53641 | 0/E7DACEF8               |            3889876728

 2017-02-08 02:59:08.89335+01 | 1486519148.89335 | 0/E7DACEF8               |            3889876728

 2017-02-08 02:59:10.175783+01 | 1486519150.17578 | 0/E7DACEF8               |            3889876728

 2017-02-08 02:59:11.52277+01 | 1486519151.52277 | 0/E7DACEF8               |            3889876728

 2017-02-08 02:59:12.866473+01 | 1486519152.86647 | 0/E7DACEF8               |            3889876728

 2017-02-08 02:59:14.195413+01 | 1486519154.19541 | 0/E7DACEF8               |            3889876728

 2017-02-08 02:59:15.500552+01 | 1486519155.50055 | 0/E7DACEF8               |            3889876728

 2017-02-08 02:59:16.890367+01 | 1486519156.89037 | 0/E7DACEF8               |            3889876728

 2017-02-08 02:59:18.182768+01 | 1486519158.18277 | 0/E7DACEF8               |            3889876728

 2017-02-08 02:59:19.549105+01 | 1486519159.5491 | 0/E7DACEF8               |            3889876728

 2017-02-08 02:59:20.93036+01 | 1486519160.93036 | 0/E7DACEF8               |            3889876728

 2017-02-08 02:59:22.237332+01 | 1486519162.23733 | 0/E7DACEF8               |            3889876728

 2017-02-08 02:59:23.602558+01 | 1486519163.60256 | 0/E7DACEF8               |            3889876728

 2017-02-08 02:59:24.873379+01 | 1486519164.87338 | 0/E7DACEF8               |            3889876728

 2017-02-08 02:59:26.235671+01 | 1486519166.23567 | 0/E7DACEF8               |            3889876728

 2017-02-08 02:59:27.588806+01 | 1486519167.58881 | 0/E7DACEF8               |            3889876728

 2017-02-08 02:59:28.964736+01 | 1486519168.96474 | 0/E7DACEF8               |            3889876728

 2017-02-08 02:59:30.295511+01 | 1486519170.29551 | 0/E7DACEF8               |            3889876728

 2017-02-08 02:59:31.628804+01 | 1486519171.6288 | 0/E7DACEF8               |            3889876728

 2017-02-08 02:59:33.014827+01 | 1486519173.01483 | 0/E7DACEF8               |            3889876728

 2017-02-08 02:59:34.328462+01 | 1486519174.32846 | 0/E7DACEF8               |            3889876728

 2017-02-08 02:59:35.683192+01 | 1486519175.68319 | 0/E7DACEF8               |            3889876728

 2017-02-08 02:59:37.02681+01 | 1486519177.02681 | 0/E7DACEF8               |            3889876728

 2017-02-08 02:59:38.384392+01 | 1486519178.38439 | 0/E7DACEF8               |            3889876728

 2017-02-08 02:59:39.740654+01 | 1486519179.74065 | 0/E7DACEF8               |            3889876728

 2017-02-08 02:59:41.0545+01 | 1486519181.0545 | 0/E7DACEF8               |            3889876728

 2017-02-08 02:59:42.421053+01 | 1486519182.42105 | 0/E7DACEF8               |            3889876728

 2017-02-08 02:59:43.80462+01 | 1486519183.80462 | 0/E7DACEF8               |            3889876728

 2017-02-08 02:59:45.222802+01 | 1486519185.2228 | 0/E7DACEF8               |            3889876728

 2017-02-08 02:59:46.63299+01 | 1486519186.63299 | 0/E7DACEF8               |            3889876728

 2017-02-08 02:59:47.969704+01 | 1486519187.9697 | 0/E7DACEF8               |            3889876728

 2017-02-08 02:59:49.317823+01 | 1486519189.31782 | 0/E7DACEF8               |            3889876728

 2017-02-08 02:59:50.699795+01 | 1486519190.6998 | 0/E7DACEF8               |            3889876728

 2017-02-08 02:59:52.048006+01 | 1486519192.04801 | 0/E7DACEF8               |            3889876728

 2017-02-08 02:59:53.411116+01 | 1486519193.41112 | 0/E7DACEF8               |            3889876728

 2017-02-08 02:59:54.820917+01 | 1486519194.82092 | 0/E7DACEF8               |            3889876728

 2017-02-08 02:59:56.204935+01 | 1486519196.20494 | 0/E7DACEF8               |            3889876728

 2017-02-08 02:59:57.61933+01 | 1486519197.61933 | 0/E7DACEF8               |            3889876728

 2017-02-08 02:59:58.985115+01 | 1486519198.98512 | 0/E7DACEF8               |            3889876728

 2017-02-08 03:00:00.401035+01 | 1486519200.40104 | 0/E7DACEF8               |            3889876728

 2017-02-08 03:00:01.748625+01 | 1486519201.74863 | 0/E7DACEF8               |            3889876728

 2017-02-08 03:00:03.133901+01 | 1486519203.1339 | 0/E7DACEF8               |            3889876728

 2017-02-08 03:00:04.414787+01 | 1486519204.41479 | 0/E7DACEF8               |            3889876728

 2017-02-08 03:00:05.745055+01 | 1486519205.74505 | 0/E7DACEF8               |            3889876728

 2017-02-08 03:00:07.102512+01 | 1486519207.10251 | 0/E7DACEF8               |            3889876728

 2017-02-08 03:00:08.472704+01 | 1486519208.4727 | 0/E7DACEF8               |            3889876728

 2017-02-08 03:00:09.87473+01 | 1486519209.87473 | 0/E7DACEF8               |            3889876728

 2017-02-08 03:00:11.267589+01 | 1486519211.26759 | 0/E7DACEF8               |            3889876728

 2017-02-08 03:00:12.541638+01 | 1486519212.54164 | 0/E7DACEF8               |            3889876728

 2017-02-08 03:00:13.868928+01 | 1486519213.86893 | 0/E7DACEF8               |            3889876728

 2017-02-08 03:00:15.202536+01 | 1486519215.20254 | 0/E7DACEF8               |            3889876728

 2017-02-08 03:00:16.501547+01 | 1486519216.50155 | 0/E7DACEF8               |            3889876728

 2017-02-08 03:00:17.820762+01 | 1486519217.82076 | 0/E7DACEF8               |            3889876728

 2017-02-08 03:00:19.187462+01 | 1486519219.18746 | 0/E7DACEF8               |            3889876728

 2017-02-08 03:00:20.57249+01 | 1486519220.57249 | 0/E7DACEF8               |            3889876728

 2017-02-08 03:00:21.963615+01 | 1486519221.96361 | 0/E7DACEF8               |            3889876728

 2017-02-08 03:00:23.259032+01 | 1486519223.25903 | 0/E7DACEF8               |            3889876728

 2017-02-08 03:00:24.663045+01 | 1486519224.66304 | 0/E7DACEF8               |            3889876728

 2017-02-08 03:00:26.03113+01 | 1486519226.03113 | 0/E7DACEF8               |            3889876728

 2017-02-08 03:00:27.412824+01 | 1486519227.41282 | 0/E7DACEF8               |            3889876728

 2017-02-08 03:00:28.773378+01 | 1486519228.77338 | 0/E7DACEF8               |            3889876728

 2017-02-08 03:00:30.159126+01 | 1486519230.15913 | 0/E7DACEF8               |            3889876728

 2017-02-08 03:00:31.556067+01 | 1486519231.55607 | 0/E7DACEF8               |            3889876728

