 2017-02-10 15:21:20.609866+01 | 1486736480.60987 | pgbench_accounts |       4133134336
 2017-02-10 15:21:20.609866+01 | 1486736480.60987 | pgbench_tellers  |           139264
 2017-02-10 15:21:20.609866+01 | 1486736480.60987 | pgbench_history  |           188416
 2017-02-10 15:21:20.609866+01 | 1486736480.60987 | pgbench_branches |            16384

 2017-02-10 15:21:21.678208+01 | 1486736481.67821 | pgbench_accounts |       4133134336
 2017-02-10 15:21:21.678208+01 | 1486736481.67821 | pgbench_tellers  |           139264
 2017-02-10 15:21:21.678208+01 | 1486736481.67821 | pgbench_history  |           917504
 2017-02-10 15:21:21.678208+01 | 1486736481.67821 | pgbench_branches |            16384

 2017-02-10 15:21:22.749666+01 | 1486736482.74967 | pgbench_accounts |       4133134336
 2017-02-10 15:21:22.749666+01 | 1486736482.74967 | pgbench_tellers  |           139264
 2017-02-10 15:21:22.749666+01 | 1486736482.74967 | pgbench_history  |          2449408
 2017-02-10 15:21:22.749666+01 | 1486736482.74967 | pgbench_branches |            16384

 2017-02-10 15:21:23.819529+01 | 1486736483.81953 | pgbench_accounts |       4133134336
 2017-02-10 15:21:23.819529+01 | 1486736483.81953 | pgbench_tellers  |           139264
 2017-02-10 15:21:23.819529+01 | 1486736483.81953 | pgbench_history  |          2449408
 2017-02-10 15:21:23.819529+01 | 1486736483.81953 | pgbench_branches |            16384

 2017-02-10 15:21:24.887299+01 | 1486736484.8873 | pgbench_accounts |       4133134336
 2017-02-10 15:21:24.887299+01 | 1486736484.8873 | pgbench_tellers  |           139264
 2017-02-10 15:21:24.887299+01 | 1486736484.8873 | pgbench_history  |          3645440
 2017-02-10 15:21:24.887299+01 | 1486736484.8873 | pgbench_branches |            16384

 2017-02-10 15:21:25.957476+01 | 1486736485.95748 | pgbench_accounts |       4133134336
 2017-02-10 15:21:25.957476+01 | 1486736485.95748 | pgbench_tellers  |           139264
 2017-02-10 15:21:25.957476+01 | 1486736485.95748 | pgbench_history  |          4243456
 2017-02-10 15:21:25.957476+01 | 1486736485.95748 | pgbench_branches |            16384

 2017-02-10 15:21:27.022996+01 | 1486736487.023 | pgbench_accounts |       4133134336
 2017-02-10 15:21:27.022996+01 | 1486736487.023 | pgbench_tellers  |           139264
 2017-02-10 15:21:27.022996+01 | 1486736487.023 | pgbench_history  |          5251072
 2017-02-10 15:21:27.022996+01 | 1486736487.023 | pgbench_branches |            16384

 2017-02-10 15:21:28.095982+01 | 1486736488.09598 | pgbench_accounts |       4133134336
 2017-02-10 15:21:28.095982+01 | 1486736488.09598 | pgbench_tellers  |           139264
 2017-02-10 15:21:28.095982+01 | 1486736488.09598 | pgbench_history  |          6086656
 2017-02-10 15:21:28.095982+01 | 1486736488.09598 | pgbench_branches |            16384

 2017-02-10 15:21:29.180179+01 | 1486736489.18018 | pgbench_accounts |       4133134336
 2017-02-10 15:21:29.180179+01 | 1486736489.18018 | pgbench_tellers  |           139264
 2017-02-10 15:21:29.180179+01 | 1486736489.18018 | pgbench_history  |          7069696
 2017-02-10 15:21:29.180179+01 | 1486736489.18018 | pgbench_branches |            16384

 2017-02-10 15:21:30.244477+01 | 1486736490.24448 | pgbench_accounts |       4133134336
 2017-02-10 15:21:30.244477+01 | 1486736490.24448 | pgbench_tellers  |           139264
 2017-02-10 15:21:30.244477+01 | 1486736490.24448 | pgbench_history  |          8028160
 2017-02-10 15:21:30.244477+01 | 1486736490.24448 | pgbench_branches |            16384

 2017-02-10 15:21:31.326615+01 | 1486736491.32662 | pgbench_accounts |       4133134336
 2017-02-10 15:21:31.326615+01 | 1486736491.32662 | pgbench_tellers  |           139264
 2017-02-10 15:21:31.326615+01 | 1486736491.32662 | pgbench_history  |          9125888
 2017-02-10 15:21:31.326615+01 | 1486736491.32662 | pgbench_branches |            16384

 2017-02-10 15:21:32.416112+01 | 1486736492.41611 | pgbench_accounts |       4133134336
 2017-02-10 15:21:32.416112+01 | 1486736492.41611 | pgbench_tellers  |           139264
 2017-02-10 15:21:32.416112+01 | 1486736492.41611 | pgbench_history  |          9887744
 2017-02-10 15:21:32.416112+01 | 1486736492.41611 | pgbench_branches |            16384

 2017-02-10 15:21:33.495429+01 | 1486736493.49543 | pgbench_accounts |       4133134336
 2017-02-10 15:21:33.495429+01 | 1486736493.49543 | pgbench_tellers  |           139264
 2017-02-10 15:21:33.495429+01 | 1486736493.49543 | pgbench_history  |         10829824
 2017-02-10 15:21:33.495429+01 | 1486736493.49543 | pgbench_branches |            16384

 2017-02-10 15:21:34.579928+01 | 1486736494.57993 | pgbench_accounts |       4133134336
 2017-02-10 15:21:34.579928+01 | 1486736494.57993 | pgbench_tellers  |           139264
 2017-02-10 15:21:34.579928+01 | 1486736494.57993 | pgbench_history  |         11796480
 2017-02-10 15:21:34.579928+01 | 1486736494.57993 | pgbench_branches |            16384

 2017-02-10 15:21:35.650977+01 | 1486736495.65098 | pgbench_accounts |       4133134336
 2017-02-10 15:21:35.650977+01 | 1486736495.65098 | pgbench_tellers  |           139264
 2017-02-10 15:21:35.650977+01 | 1486736495.65098 | pgbench_history  |         12754944
 2017-02-10 15:21:35.650977+01 | 1486736495.65098 | pgbench_branches |            16384

 2017-02-10 15:21:36.763874+01 | 1486736496.76387 | pgbench_accounts |       4133134336
 2017-02-10 15:21:36.763874+01 | 1486736496.76387 | pgbench_tellers  |           139264
 2017-02-10 15:21:36.763874+01 | 1486736496.76387 | pgbench_history  |         13721600
 2017-02-10 15:21:36.763874+01 | 1486736496.76387 | pgbench_branches |            16384

 2017-02-10 15:21:37.854223+01 | 1486736497.85422 | pgbench_accounts |       4133134336
 2017-02-10 15:21:37.854223+01 | 1486736497.85422 | pgbench_tellers  |           139264
 2017-02-10 15:21:37.854223+01 | 1486736497.85422 | pgbench_history  |         14614528
 2017-02-10 15:21:37.854223+01 | 1486736497.85422 | pgbench_branches |            16384

 2017-02-10 15:21:38.945353+01 | 1486736498.94535 | pgbench_accounts |       4133134336
 2017-02-10 15:21:38.945353+01 | 1486736498.94535 | pgbench_tellers  |           139264
 2017-02-10 15:21:38.945353+01 | 1486736498.94535 | pgbench_history  |         15589376
 2017-02-10 15:21:38.945353+01 | 1486736498.94535 | pgbench_branches |            16384

 2017-02-10 15:21:40.045538+01 | 1486736500.04554 | pgbench_accounts |       4133134336
 2017-02-10 15:21:40.045538+01 | 1486736500.04554 | pgbench_tellers  |           139264
 2017-02-10 15:21:40.045538+01 | 1486736500.04554 | pgbench_history  |         16580608
 2017-02-10 15:21:40.045538+01 | 1486736500.04554 | pgbench_branches |            16384

 2017-02-10 15:21:41.132034+01 | 1486736501.13203 | pgbench_accounts |       4133134336
 2017-02-10 15:21:41.132034+01 | 1486736501.13203 | pgbench_tellers  |           139264
 2017-02-10 15:21:41.132034+01 | 1486736501.13203 | pgbench_history  |         17530880
 2017-02-10 15:21:41.132034+01 | 1486736501.13203 | pgbench_branches |            16384

 2017-02-10 15:21:42.221762+01 | 1486736502.22176 | pgbench_accounts |       4133134336
 2017-02-10 15:21:42.221762+01 | 1486736502.22176 | pgbench_tellers  |           139264
 2017-02-10 15:21:42.221762+01 | 1486736502.22176 | pgbench_history  |         18653184
 2017-02-10 15:21:42.221762+01 | 1486736502.22176 | pgbench_branches |            16384

 2017-02-10 15:21:43.316471+01 | 1486736503.31647 | pgbench_accounts |       4133134336
 2017-02-10 15:21:43.316471+01 | 1486736503.31647 | pgbench_tellers  |           139264
 2017-02-10 15:21:43.316471+01 | 1486736503.31647 | pgbench_history  |         19709952
 2017-02-10 15:21:43.316471+01 | 1486736503.31647 | pgbench_branches |            16384

 2017-02-10 15:21:44.4141+01 | 1486736504.4141 | pgbench_accounts |       4133134336
 2017-02-10 15:21:44.4141+01 | 1486736504.4141 | pgbench_tellers  |           139264
 2017-02-10 15:21:44.4141+01 | 1486736504.4141 | pgbench_history  |         20709376
 2017-02-10 15:21:44.4141+01 | 1486736504.4141 | pgbench_branches |            16384

 2017-02-10 15:21:45.492499+01 | 1486736505.4925 | pgbench_accounts |       4133134336
 2017-02-10 15:21:45.492499+01 | 1486736505.4925 | pgbench_tellers  |           139264
 2017-02-10 15:21:45.492499+01 | 1486736505.4925 | pgbench_history  |         21815296
 2017-02-10 15:21:45.492499+01 | 1486736505.4925 | pgbench_branches |            16384

 2017-02-10 15:21:46.585571+01 | 1486736506.58557 | pgbench_accounts |       4133134336
 2017-02-10 15:21:46.585571+01 | 1486736506.58557 | pgbench_tellers  |           139264
 2017-02-10 15:21:46.585571+01 | 1486736506.58557 | pgbench_history  |         22503424
 2017-02-10 15:21:46.585571+01 | 1486736506.58557 | pgbench_branches |            16384

 2017-02-10 15:21:47.662638+01 | 1486736507.66264 | pgbench_accounts |       4133134336
 2017-02-10 15:21:47.662638+01 | 1486736507.66264 | pgbench_tellers  |           139264
 2017-02-10 15:21:47.662638+01 | 1486736507.66264 | pgbench_history  |         23928832
 2017-02-10 15:21:47.662638+01 | 1486736507.66264 | pgbench_branches |            16384

 2017-02-10 15:21:48.747728+01 | 1486736508.74773 | pgbench_accounts |       4133134336
 2017-02-10 15:21:48.747728+01 | 1486736508.74773 | pgbench_tellers  |           139264
 2017-02-10 15:21:48.747728+01 | 1486736508.74773 | pgbench_history  |         24526848
 2017-02-10 15:21:48.747728+01 | 1486736508.74773 | pgbench_branches |            16384

 2017-02-10 15:21:49.822439+01 | 1486736509.82244 | pgbench_accounts |       4133134336
 2017-02-10 15:21:49.822439+01 | 1486736509.82244 | pgbench_tellers  |           139264
 2017-02-10 15:21:49.822439+01 | 1486736509.82244 | pgbench_history  |         26279936
 2017-02-10 15:21:49.822439+01 | 1486736509.82244 | pgbench_branches |            16384

 2017-02-10 15:21:50.900919+01 | 1486736510.90092 | pgbench_accounts |       4133134336
 2017-02-10 15:21:50.900919+01 | 1486736510.90092 | pgbench_tellers  |           139264
 2017-02-10 15:21:50.900919+01 | 1486736510.90092 | pgbench_history  |         26836992
 2017-02-10 15:21:50.900919+01 | 1486736510.90092 | pgbench_branches |            16384

 2017-02-10 15:21:51.983563+01 | 1486736511.98356 | pgbench_accounts |       4133134336
 2017-02-10 15:21:51.983563+01 | 1486736511.98356 | pgbench_tellers  |           139264
 2017-02-10 15:21:51.983563+01 | 1486736511.98356 | pgbench_history  |         27426816
 2017-02-10 15:21:51.983563+01 | 1486736511.98356 | pgbench_branches |            16384

 2017-02-10 15:21:53.057662+01 | 1486736513.05766 | pgbench_accounts |       4133134336
 2017-02-10 15:21:53.057662+01 | 1486736513.05766 | pgbench_tellers  |           139264
 2017-02-10 15:21:53.057662+01 | 1486736513.05766 | pgbench_history  |         29057024
 2017-02-10 15:21:53.057662+01 | 1486736513.05766 | pgbench_branches |            16384

 2017-02-10 15:21:54.128714+01 | 1486736514.12871 | pgbench_accounts |       4133134336
 2017-02-10 15:21:54.128714+01 | 1486736514.12871 | pgbench_tellers  |           139264
 2017-02-10 15:21:54.128714+01 | 1486736514.12871 | pgbench_history  |         29425664
 2017-02-10 15:21:54.128714+01 | 1486736514.12871 | pgbench_branches |            16384

 2017-02-10 15:21:55.242674+01 | 1486736515.24267 | pgbench_accounts |       4133134336
 2017-02-10 15:21:55.242674+01 | 1486736515.24267 | pgbench_tellers  |           139264
 2017-02-10 15:21:55.242674+01 | 1486736515.24267 | pgbench_history  |         30900224
 2017-02-10 15:21:55.242674+01 | 1486736515.24267 | pgbench_branches |            16384

 2017-02-10 15:21:56.350137+01 | 1486736516.35014 | pgbench_accounts |       4133134336
 2017-02-10 15:21:56.350137+01 | 1486736516.35014 | pgbench_tellers  |           139264
 2017-02-10 15:21:56.350137+01 | 1486736516.35014 | pgbench_history  |         31301632
 2017-02-10 15:21:56.350137+01 | 1486736516.35014 | pgbench_branches |            16384

 2017-02-10 15:21:57.448295+01 | 1486736517.4483 | pgbench_accounts |       4133134336
 2017-02-10 15:21:57.448295+01 | 1486736517.4483 | pgbench_tellers  |           139264
 2017-02-10 15:21:57.448295+01 | 1486736517.4483 | pgbench_history  |         32661504
 2017-02-10 15:21:57.448295+01 | 1486736517.4483 | pgbench_branches |            16384

 2017-02-10 15:21:58.547774+01 | 1486736518.54777 | pgbench_accounts |       4133134336
 2017-02-10 15:21:58.547774+01 | 1486736518.54777 | pgbench_tellers  |           139264
 2017-02-10 15:21:58.547774+01 | 1486736518.54777 | pgbench_history  |         33333248
 2017-02-10 15:21:58.547774+01 | 1486736518.54777 | pgbench_branches |            16384

 2017-02-10 15:21:59.614547+01 | 1486736519.61455 | pgbench_accounts |       4133134336
 2017-02-10 15:21:59.614547+01 | 1486736519.61455 | pgbench_tellers  |           139264
 2017-02-10 15:21:59.614547+01 | 1486736519.61455 | pgbench_history  |         34299904
 2017-02-10 15:21:59.614547+01 | 1486736519.61455 | pgbench_branches |            16384

 2017-02-10 15:22:00.706687+01 | 1486736520.70669 | pgbench_accounts |       4133134336
 2017-02-10 15:22:00.706687+01 | 1486736520.70669 | pgbench_tellers  |           139264
 2017-02-10 15:22:00.706687+01 | 1486736520.70669 | pgbench_history  |         35422208
 2017-02-10 15:22:00.706687+01 | 1486736520.70669 | pgbench_branches |            16384

 2017-02-10 15:22:01.792475+01 | 1486736521.79247 | pgbench_accounts |       4133134336
 2017-02-10 15:22:01.792475+01 | 1486736521.79247 | pgbench_tellers  |           139264
 2017-02-10 15:22:01.792475+01 | 1486736521.79247 | pgbench_history  |         36364288
 2017-02-10 15:22:01.792475+01 | 1486736521.79247 | pgbench_branches |            16384

 2017-02-10 15:22:02.894386+01 | 1486736522.89439 | pgbench_accounts |       4133134336
 2017-02-10 15:22:02.894386+01 | 1486736522.89439 | pgbench_tellers  |           139264
 2017-02-10 15:22:02.894386+01 | 1486736522.89439 | pgbench_history  |         37249024
 2017-02-10 15:22:02.894386+01 | 1486736522.89439 | pgbench_branches |            16384

 2017-02-10 15:22:03.981803+01 | 1486736523.9818 | pgbench_accounts |       4133134336
 2017-02-10 15:22:03.981803+01 | 1486736523.9818 | pgbench_tellers  |           139264
 2017-02-10 15:22:03.981803+01 | 1486736523.9818 | pgbench_history  |         38264832
 2017-02-10 15:22:03.981803+01 | 1486736523.9818 | pgbench_branches |            16384

 2017-02-10 15:22:05.06321+01 | 1486736525.06321 | pgbench_accounts |       4133134336
 2017-02-10 15:22:05.06321+01 | 1486736525.06321 | pgbench_tellers  |           139264
 2017-02-10 15:22:05.06321+01 | 1486736525.06321 | pgbench_history  |         39403520
 2017-02-10 15:22:05.06321+01 | 1486736525.06321 | pgbench_branches |            16384

 2017-02-10 15:22:06.141432+01 | 1486736526.14143 | pgbench_accounts |       4133134336
 2017-02-10 15:22:06.141432+01 | 1486736526.14143 | pgbench_tellers  |           139264
 2017-02-10 15:22:06.141432+01 | 1486736526.14143 | pgbench_history  |         40558592
 2017-02-10 15:22:06.141432+01 | 1486736526.14143 | pgbench_branches |            16384

 2017-02-10 15:22:07.234587+01 | 1486736527.23459 | pgbench_accounts |       4133134336
 2017-02-10 15:22:07.234587+01 | 1486736527.23459 | pgbench_tellers  |           139264
 2017-02-10 15:22:07.234587+01 | 1486736527.23459 | pgbench_history  |         41369600
 2017-02-10 15:22:07.234587+01 | 1486736527.23459 | pgbench_branches |            16384

 2017-02-10 15:22:08.312853+01 | 1486736528.31285 | pgbench_accounts |       4133134336
 2017-02-10 15:22:08.312853+01 | 1486736528.31285 | pgbench_tellers  |           139264
 2017-02-10 15:22:08.312853+01 | 1486736528.31285 | pgbench_history  |         42483712
 2017-02-10 15:22:08.312853+01 | 1486736528.31285 | pgbench_branches |            16384

 2017-02-10 15:22:09.39674+01 | 1486736529.39674 | pgbench_accounts |       4133134336
 2017-02-10 15:22:09.39674+01 | 1486736529.39674 | pgbench_tellers  |           139264
 2017-02-10 15:22:09.39674+01 | 1486736529.39674 | pgbench_history  |         44728320
 2017-02-10 15:22:09.39674+01 | 1486736529.39674 | pgbench_branches |            16384

 2017-02-10 15:22:10.509599+01 | 1486736530.5096 | pgbench_accounts |       4133134336
 2017-02-10 15:22:10.509599+01 | 1486736530.5096 | pgbench_tellers  |           139264
 2017-02-10 15:22:10.509599+01 | 1486736530.5096 | pgbench_history  |         44728320
 2017-02-10 15:22:10.509599+01 | 1486736530.5096 | pgbench_branches |            16384

 2017-02-10 15:22:11.602526+01 | 1486736531.60253 | pgbench_accounts |       4133134336
 2017-02-10 15:22:11.602526+01 | 1486736531.60253 | pgbench_tellers  |           139264
 2017-02-10 15:22:11.602526+01 | 1486736531.60253 | pgbench_history  |         45465600
 2017-02-10 15:22:11.602526+01 | 1486736531.60253 | pgbench_branches |            16384

 2017-02-10 15:22:12.684611+01 | 1486736532.68461 | pgbench_accounts |       4133134336
 2017-02-10 15:22:12.684611+01 | 1486736532.68461 | pgbench_tellers  |           139264
 2017-02-10 15:22:12.684611+01 | 1486736532.68461 | pgbench_history  |         46284800
 2017-02-10 15:22:12.684611+01 | 1486736532.68461 | pgbench_branches |            16384

 2017-02-10 15:22:13.774557+01 | 1486736533.77456 | pgbench_accounts |       4133134336
 2017-02-10 15:22:13.774557+01 | 1486736533.77456 | pgbench_tellers  |           139264
 2017-02-10 15:22:13.774557+01 | 1486736533.77456 | pgbench_history  |         48717824
 2017-02-10 15:22:13.774557+01 | 1486736533.77456 | pgbench_branches |            16384

 2017-02-10 15:22:14.865304+01 | 1486736534.8653 | pgbench_accounts |       4133134336
 2017-02-10 15:22:14.865304+01 | 1486736534.8653 | pgbench_tellers  |           139264
 2017-02-10 15:22:14.865304+01 | 1486736534.8653 | pgbench_history  |         48717824
 2017-02-10 15:22:14.865304+01 | 1486736534.8653 | pgbench_branches |            16384

 2017-02-10 15:22:15.950955+01 | 1486736535.95095 | pgbench_accounts |       4133134336
 2017-02-10 15:22:15.950955+01 | 1486736535.95095 | pgbench_tellers  |           139264
 2017-02-10 15:22:15.950955+01 | 1486736535.95095 | pgbench_history  |         49340416
 2017-02-10 15:22:15.950955+01 | 1486736535.95095 | pgbench_branches |            16384

 2017-02-10 15:22:17.048507+01 | 1486736537.04851 | pgbench_accounts |       4133134336
 2017-02-10 15:22:17.048507+01 | 1486736537.04851 | pgbench_tellers  |           139264
 2017-02-10 15:22:17.048507+01 | 1486736537.04851 | pgbench_history  |         50274304
 2017-02-10 15:22:17.048507+01 | 1486736537.04851 | pgbench_branches |            16384

 2017-02-10 15:22:18.139309+01 | 1486736538.13931 | pgbench_accounts |       4133134336
 2017-02-10 15:22:18.139309+01 | 1486736538.13931 | pgbench_tellers  |           139264
 2017-02-10 15:22:18.139309+01 | 1486736538.13931 | pgbench_history  |         51306496
 2017-02-10 15:22:18.139309+01 | 1486736538.13931 | pgbench_branches |            16384

 2017-02-10 15:22:19.238311+01 | 1486736539.23831 | pgbench_accounts |       4133134336
 2017-02-10 15:22:19.238311+01 | 1486736539.23831 | pgbench_tellers  |           139264
 2017-02-10 15:22:19.238311+01 | 1486736539.23831 | pgbench_history  |         52551680
 2017-02-10 15:22:19.238311+01 | 1486736539.23831 | pgbench_branches |            16384

 2017-02-10 15:22:20.32699+01 | 1486736540.32699 | pgbench_accounts |       4133134336
 2017-02-10 15:22:20.32699+01 | 1486736540.32699 | pgbench_tellers  |           139264
 2017-02-10 15:22:20.32699+01 | 1486736540.32699 | pgbench_history  |         53297152
 2017-02-10 15:22:20.32699+01 | 1486736540.32699 | pgbench_branches |            16384

 2017-02-10 15:22:21.407957+01 | 1486736541.40796 | pgbench_accounts |       4133134336
 2017-02-10 15:22:21.407957+01 | 1486736541.40796 | pgbench_tellers  |           139264
 2017-02-10 15:22:21.407957+01 | 1486736541.40796 | pgbench_history  |         54288384
 2017-02-10 15:22:21.407957+01 | 1486736541.40796 | pgbench_branches |            16384

 2017-02-10 15:22:22.494863+01 | 1486736542.49486 | pgbench_accounts |       4133134336
 2017-02-10 15:22:22.494863+01 | 1486736542.49486 | pgbench_tellers  |           139264
 2017-02-10 15:22:22.494863+01 | 1486736542.49486 | pgbench_history  |         55238656
 2017-02-10 15:22:22.494863+01 | 1486736542.49486 | pgbench_branches |            16384

 2017-02-10 15:22:23.575407+01 | 1486736543.57541 | pgbench_accounts |       4133134336
 2017-02-10 15:22:23.575407+01 | 1486736543.57541 | pgbench_tellers  |           139264
 2017-02-10 15:22:23.575407+01 | 1486736543.57541 | pgbench_history  |         56311808
 2017-02-10 15:22:23.575407+01 | 1486736543.57541 | pgbench_branches |            16384

 2017-02-10 15:22:24.634278+01 | 1486736544.63428 | pgbench_accounts |       4133134336
 2017-02-10 15:22:24.634278+01 | 1486736544.63428 | pgbench_tellers  |           139264
 2017-02-10 15:22:24.634278+01 | 1486736544.63428 | pgbench_history  |         57212928
 2017-02-10 15:22:24.634278+01 | 1486736544.63428 | pgbench_branches |            16384

 2017-02-10 15:22:25.724827+01 | 1486736545.72483 | pgbench_accounts |       4133134336
 2017-02-10 15:22:25.724827+01 | 1486736545.72483 | pgbench_tellers  |           139264
 2017-02-10 15:22:25.724827+01 | 1486736545.72483 | pgbench_history  |         60055552
 2017-02-10 15:22:25.724827+01 | 1486736545.72483 | pgbench_branches |            16384

 2017-02-10 15:22:26.803163+01 | 1486736546.80316 | pgbench_accounts |       4133134336
 2017-02-10 15:22:26.803163+01 | 1486736546.80316 | pgbench_tellers  |           139264
 2017-02-10 15:22:26.803163+01 | 1486736546.80316 | pgbench_history  |         60055552
 2017-02-10 15:22:26.803163+01 | 1486736546.80316 | pgbench_branches |            16384

 2017-02-10 15:22:27.884833+01 | 1486736547.88483 | pgbench_accounts |       4133134336
 2017-02-10 15:22:27.884833+01 | 1486736547.88483 | pgbench_tellers  |           139264
 2017-02-10 15:22:27.884833+01 | 1486736547.88483 | pgbench_history  |         60432384
 2017-02-10 15:22:27.884833+01 | 1486736547.88483 | pgbench_branches |            16384

 2017-02-10 15:22:28.985872+01 | 1486736548.98587 | pgbench_accounts |       4133134336
 2017-02-10 15:22:28.985872+01 | 1486736548.98587 | pgbench_tellers  |           139264
 2017-02-10 15:22:28.985872+01 | 1486736548.98587 | pgbench_history  |         61415424
 2017-02-10 15:22:28.985872+01 | 1486736548.98587 | pgbench_branches |            16384

 2017-02-10 15:22:30.066961+01 | 1486736550.06696 | pgbench_accounts |       4133134336
 2017-02-10 15:22:30.066961+01 | 1486736550.06696 | pgbench_tellers  |           139264
 2017-02-10 15:22:30.066961+01 | 1486736550.06696 | pgbench_history  |         62136320
 2017-02-10 15:22:30.066961+01 | 1486736550.06696 | pgbench_branches |            16384

 2017-02-10 15:22:31.140118+01 | 1486736551.14012 | pgbench_accounts |       4133134336
 2017-02-10 15:22:31.140118+01 | 1486736551.14012 | pgbench_tellers  |           139264
 2017-02-10 15:22:31.140118+01 | 1486736551.14012 | pgbench_history  |         63709184
 2017-02-10 15:22:31.140118+01 | 1486736551.14012 | pgbench_branches |            16384

 2017-02-10 15:22:32.222155+01 | 1486736552.22216 | pgbench_accounts |       4133134336
 2017-02-10 15:22:32.222155+01 | 1486736552.22216 | pgbench_tellers  |           139264
 2017-02-10 15:22:32.222155+01 | 1486736552.22216 | pgbench_history  |         64118784
 2017-02-10 15:22:32.222155+01 | 1486736552.22216 | pgbench_branches |            16384

 2017-02-10 15:22:33.315277+01 | 1486736553.31528 | pgbench_accounts |       4133134336
 2017-02-10 15:22:33.315277+01 | 1486736553.31528 | pgbench_tellers  |           139264
 2017-02-10 15:22:33.315277+01 | 1486736553.31528 | pgbench_history  |         65282048
 2017-02-10 15:22:33.315277+01 | 1486736553.31528 | pgbench_branches |            16384

 2017-02-10 15:22:34.381709+01 | 1486736554.38171 | pgbench_accounts |       4133134336
 2017-02-10 15:22:34.381709+01 | 1486736554.38171 | pgbench_tellers  |           139264
 2017-02-10 15:22:34.381709+01 | 1486736554.38171 | pgbench_history  |         66158592
 2017-02-10 15:22:34.381709+01 | 1486736554.38171 | pgbench_branches |            16384

 2017-02-10 15:22:35.481278+01 | 1486736555.48128 | pgbench_accounts |       4133134336
 2017-02-10 15:22:35.481278+01 | 1486736555.48128 | pgbench_tellers  |           139264
 2017-02-10 15:22:35.481278+01 | 1486736555.48128 | pgbench_history  |         67387392
 2017-02-10 15:22:35.481278+01 | 1486736555.48128 | pgbench_branches |            16384

 2017-02-10 15:22:36.569458+01 | 1486736556.56946 | pgbench_accounts |       4133134336
 2017-02-10 15:22:36.569458+01 | 1486736556.56946 | pgbench_tellers  |           139264
 2017-02-10 15:22:36.569458+01 | 1486736556.56946 | pgbench_history  |         68132864
 2017-02-10 15:22:36.569458+01 | 1486736556.56946 | pgbench_branches |            16384

 2017-02-10 15:22:37.632525+01 | 1486736557.63252 | pgbench_accounts |       4133134336
 2017-02-10 15:22:37.632525+01 | 1486736557.63252 | pgbench_tellers  |           139264
 2017-02-10 15:22:37.632525+01 | 1486736557.63252 | pgbench_history  |         69230592
 2017-02-10 15:22:37.632525+01 | 1486736557.63252 | pgbench_branches |            16384

 2017-02-10 15:22:38.706084+01 | 1486736558.70608 | pgbench_accounts |       4133134336
 2017-02-10 15:22:38.706084+01 | 1486736558.70608 | pgbench_tellers  |           139264
 2017-02-10 15:22:38.706084+01 | 1486736558.70608 | pgbench_history  |         70213632
 2017-02-10 15:22:38.706084+01 | 1486736558.70608 | pgbench_branches |            16384

 2017-02-10 15:22:39.778092+01 | 1486736559.77809 | pgbench_accounts |       4133134336
 2017-02-10 15:22:39.778092+01 | 1486736559.77809 | pgbench_tellers  |           139264
 2017-02-10 15:22:39.778092+01 | 1486736559.77809 | pgbench_history  |         71294976
 2017-02-10 15:22:39.778092+01 | 1486736559.77809 | pgbench_branches |            16384

 2017-02-10 15:22:40.867327+01 | 1486736560.86733 | pgbench_accounts |       4133134336
 2017-02-10 15:22:40.867327+01 | 1486736560.86733 | pgbench_tellers  |           139264
 2017-02-10 15:22:40.867327+01 | 1486736560.86733 | pgbench_history  |         72089600
 2017-02-10 15:22:40.867327+01 | 1486736560.86733 | pgbench_branches |            16384

 2017-02-10 15:22:41.97279+01 | 1486736561.97279 | pgbench_accounts |       4133134336
 2017-02-10 15:22:41.97279+01 | 1486736561.97279 | pgbench_tellers  |           139264
 2017-02-10 15:22:41.97279+01 | 1486736561.97279 | pgbench_history  |         73211904
 2017-02-10 15:22:41.97279+01 | 1486736561.97279 | pgbench_branches |            16384

 2017-02-10 15:22:43.066518+01 | 1486736563.06652 | pgbench_accounts |       4133134336
 2017-02-10 15:22:43.066518+01 | 1486736563.06652 | pgbench_tellers  |           139264
 2017-02-10 15:22:43.066518+01 | 1486736563.06652 | pgbench_history  |         74014720
 2017-02-10 15:22:43.066518+01 | 1486736563.06652 | pgbench_branches |            16384

 2017-02-10 15:22:44.158386+01 | 1486736564.15839 | pgbench_accounts |       4133134336
 2017-02-10 15:22:44.158386+01 | 1486736564.15839 | pgbench_tellers  |           139264
 2017-02-10 15:22:44.158386+01 | 1486736564.15839 | pgbench_history  |         75038720
 2017-02-10 15:22:44.158386+01 | 1486736564.15839 | pgbench_branches |            16384

 2017-02-10 15:22:45.252605+01 | 1486736565.2526 | pgbench_accounts |       4133134336
 2017-02-10 15:22:45.252605+01 | 1486736565.2526 | pgbench_tellers  |           139264
 2017-02-10 15:22:45.252605+01 | 1486736565.2526 | pgbench_history  |         76161024
 2017-02-10 15:22:45.252605+01 | 1486736565.2526 | pgbench_branches |            16384

 2017-02-10 15:22:46.346836+01 | 1486736566.34684 | pgbench_accounts |       4133134336
 2017-02-10 15:22:46.346836+01 | 1486736566.34684 | pgbench_tellers  |           139264
 2017-02-10 15:22:46.346836+01 | 1486736566.34684 | pgbench_history  |         77619200
 2017-02-10 15:22:46.346836+01 | 1486736566.34684 | pgbench_branches |            16384

 2017-02-10 15:22:47.436308+01 | 1486736567.43631 | pgbench_accounts |       4133134336
 2017-02-10 15:22:47.436308+01 | 1486736567.43631 | pgbench_tellers  |           139264
 2017-02-10 15:22:47.436308+01 | 1486736567.43631 | pgbench_history  |         78168064
 2017-02-10 15:22:47.436308+01 | 1486736567.43631 | pgbench_branches |            16384

 2017-02-10 15:22:48.539473+01 | 1486736568.53947 | pgbench_accounts |       4133134336
 2017-02-10 15:22:48.539473+01 | 1486736568.53947 | pgbench_tellers  |           139264
 2017-02-10 15:22:48.539473+01 | 1486736568.53947 | pgbench_history  |         79101952
 2017-02-10 15:22:48.539473+01 | 1486736568.53947 | pgbench_branches |            16384

 2017-02-10 15:22:49.607027+01 | 1486736569.60703 | pgbench_accounts |       4133134336
 2017-02-10 15:22:49.607027+01 | 1486736569.60703 | pgbench_tellers  |           139264
 2017-02-10 15:22:49.607027+01 | 1486736569.60703 | pgbench_history  |         79962112
 2017-02-10 15:22:49.607027+01 | 1486736569.60703 | pgbench_branches |            16384

 2017-02-10 15:22:50.672411+01 | 1486736570.67241 | pgbench_accounts |       4133134336
 2017-02-10 15:22:50.672411+01 | 1486736570.67241 | pgbench_tellers  |           139264
 2017-02-10 15:22:50.672411+01 | 1486736570.67241 | pgbench_history  |         81100800
 2017-02-10 15:22:50.672411+01 | 1486736570.67241 | pgbench_branches |            16384

 2017-02-10 15:22:51.762891+01 | 1486736571.76289 | pgbench_accounts |       4133134336
 2017-02-10 15:22:51.762891+01 | 1486736571.76289 | pgbench_tellers  |           139264
 2017-02-10 15:22:51.762891+01 | 1486736571.76289 | pgbench_history  |         82362368
 2017-02-10 15:22:51.762891+01 | 1486736571.76289 | pgbench_branches |            16384

 2017-02-10 15:22:52.853416+01 | 1486736572.85342 | pgbench_accounts |       4133134336
 2017-02-10 15:22:52.853416+01 | 1486736572.85342 | pgbench_tellers  |           139264
 2017-02-10 15:22:52.853416+01 | 1486736572.85342 | pgbench_history  |         83697664
 2017-02-10 15:22:52.853416+01 | 1486736572.85342 | pgbench_branches |            16384

 2017-02-10 15:22:53.946167+01 | 1486736573.94617 | pgbench_accounts |       4133134336
 2017-02-10 15:22:53.946167+01 | 1486736573.94617 | pgbench_tellers  |           139264
 2017-02-10 15:22:53.946167+01 | 1486736573.94617 | pgbench_history  |         83918848
 2017-02-10 15:22:53.946167+01 | 1486736573.94617 | pgbench_branches |            16384

 2017-02-10 15:22:55.027399+01 | 1486736575.0274 | pgbench_accounts |       4133134336
 2017-02-10 15:22:55.027399+01 | 1486736575.0274 | pgbench_tellers  |           139264
 2017-02-10 15:22:55.027399+01 | 1486736575.0274 | pgbench_history  |         85213184
 2017-02-10 15:22:55.027399+01 | 1486736575.0274 | pgbench_branches |            16384

 2017-02-10 15:22:56.094727+01 | 1486736576.09473 | pgbench_accounts |       4133134336
 2017-02-10 15:22:56.094727+01 | 1486736576.09473 | pgbench_tellers  |           139264
 2017-02-10 15:22:56.094727+01 | 1486736576.09473 | pgbench_history  |         86360064
 2017-02-10 15:22:56.094727+01 | 1486736576.09473 | pgbench_branches |            16384

 2017-02-10 15:22:57.182768+01 | 1486736577.18277 | pgbench_accounts |       4133134336
 2017-02-10 15:22:57.182768+01 | 1486736577.18277 | pgbench_tellers  |           139264
 2017-02-10 15:22:57.182768+01 | 1486736577.18277 | pgbench_history  |         86786048
 2017-02-10 15:22:57.182768+01 | 1486736577.18277 | pgbench_branches |            16384

 2017-02-10 15:22:58.286483+01 | 1486736578.28648 | pgbench_accounts |       4133134336
 2017-02-10 15:22:58.286483+01 | 1486736578.28648 | pgbench_tellers  |           139264
 2017-02-10 15:22:58.286483+01 | 1486736578.28648 | pgbench_history  |         88006656
 2017-02-10 15:22:58.286483+01 | 1486736578.28648 | pgbench_branches |            16384

 2017-02-10 15:22:59.380868+01 | 1486736579.38087 | pgbench_accounts |       4133134336
 2017-02-10 15:22:59.380868+01 | 1486736579.38087 | pgbench_tellers  |           139264
 2017-02-10 15:22:59.380868+01 | 1486736579.38087 | pgbench_history  |         88924160
 2017-02-10 15:22:59.380868+01 | 1486736579.38087 | pgbench_branches |            16384

 2017-02-10 15:23:00.466269+01 | 1486736580.46627 | pgbench_accounts |       4133134336
 2017-02-10 15:23:00.466269+01 | 1486736580.46627 | pgbench_tellers  |           139264
 2017-02-10 15:23:00.466269+01 | 1486736580.46627 | pgbench_history  |         89997312
 2017-02-10 15:23:00.466269+01 | 1486736580.46627 | pgbench_branches |            16384

 2017-02-10 15:23:01.556723+01 | 1486736581.55672 | pgbench_accounts |       4133134336
 2017-02-10 15:23:01.556723+01 | 1486736581.55672 | pgbench_tellers  |           139264
 2017-02-10 15:23:01.556723+01 | 1486736581.55672 | pgbench_history  |         90726400
 2017-02-10 15:23:01.556723+01 | 1486736581.55672 | pgbench_branches |            16384

 2017-02-10 15:23:02.631317+01 | 1486736582.63132 | pgbench_accounts |       4133134336
 2017-02-10 15:23:02.631317+01 | 1486736582.63132 | pgbench_tellers  |           139264
 2017-02-10 15:23:02.631317+01 | 1486736582.63132 | pgbench_history  |         92037120
 2017-02-10 15:23:02.631317+01 | 1486736582.63132 | pgbench_branches |            16384

 2017-02-10 15:23:03.707992+01 | 1486736583.70799 | pgbench_accounts |       4133134336
 2017-02-10 15:23:03.707992+01 | 1486736583.70799 | pgbench_tellers  |           139264
 2017-02-10 15:23:03.707992+01 | 1486736583.70799 | pgbench_history  |         92807168
 2017-02-10 15:23:03.707992+01 | 1486736583.70799 | pgbench_branches |            16384

 2017-02-10 15:23:04.832053+01 | 1486736584.83205 | pgbench_accounts |       4133134336
 2017-02-10 15:23:04.832053+01 | 1486736584.83205 | pgbench_tellers  |           139264
 2017-02-10 15:23:04.832053+01 | 1486736584.83205 | pgbench_history  |         93831168
 2017-02-10 15:23:04.832053+01 | 1486736584.83205 | pgbench_branches |            16384

 2017-02-10 15:23:05.900085+01 | 1486736585.90008 | pgbench_accounts |       4133134336
 2017-02-10 15:23:05.900085+01 | 1486736585.90008 | pgbench_tellers  |           139264
 2017-02-10 15:23:05.900085+01 | 1486736585.90008 | pgbench_history  |         94953472
 2017-02-10 15:23:05.900085+01 | 1486736585.90008 | pgbench_branches |            16384

 2017-02-10 15:23:06.973187+01 | 1486736586.97319 | pgbench_accounts |       4133134336
 2017-02-10 15:23:06.973187+01 | 1486736586.97319 | pgbench_tellers  |           139264
 2017-02-10 15:23:06.973187+01 | 1486736586.97319 | pgbench_history  |         95903744
 2017-02-10 15:23:06.973187+01 | 1486736586.97319 | pgbench_branches |            16384

 2017-02-10 15:23:08.070091+01 | 1486736588.07009 | pgbench_accounts |       4133134336
 2017-02-10 15:23:08.070091+01 | 1486736588.07009 | pgbench_tellers  |           139264
 2017-02-10 15:23:08.070091+01 | 1486736588.07009 | pgbench_history  |         97140736
 2017-02-10 15:23:08.070091+01 | 1486736588.07009 | pgbench_branches |            16384

 2017-02-10 15:23:09.13666+01 | 1486736589.13666 | pgbench_accounts |       4133134336
 2017-02-10 15:23:09.13666+01 | 1486736589.13666 | pgbench_tellers  |           139264
 2017-02-10 15:23:09.13666+01 | 1486736589.13666 | pgbench_history  |         97763328
 2017-02-10 15:23:09.13666+01 | 1486736589.13666 | pgbench_branches |            16384

 2017-02-10 15:23:10.222695+01 | 1486736590.2227 | pgbench_accounts |       4133134336
 2017-02-10 15:23:10.222695+01 | 1486736590.2227 | pgbench_tellers  |           139264
 2017-02-10 15:23:10.222695+01 | 1486736590.2227 | pgbench_history  |         98656256
 2017-02-10 15:23:10.222695+01 | 1486736590.2227 | pgbench_branches |            16384

 2017-02-10 15:23:11.3124+01 | 1486736591.3124 | pgbench_accounts |       4133134336
 2017-02-10 15:23:11.3124+01 | 1486736591.3124 | pgbench_tellers  |           139264
 2017-02-10 15:23:11.3124+01 | 1486736591.3124 | pgbench_history  |         99860480
 2017-02-10 15:23:11.3124+01 | 1486736591.3124 | pgbench_branches |            16384

 2017-02-10 15:23:12.395739+01 | 1486736592.39574 | pgbench_accounts |       4133134336
 2017-02-10 15:23:12.395739+01 | 1486736592.39574 | pgbench_tellers  |           139264
 2017-02-10 15:23:12.395739+01 | 1486736592.39574 | pgbench_history  |        100712448
 2017-02-10 15:23:12.395739+01 | 1486736592.39574 | pgbench_branches |            16384

 2017-02-10 15:23:13.476034+01 | 1486736593.47603 | pgbench_accounts |       4133134336
 2017-02-10 15:23:13.476034+01 | 1486736593.47603 | pgbench_tellers  |           139264
 2017-02-10 15:23:13.476034+01 | 1486736593.47603 | pgbench_history  |        101597184
 2017-02-10 15:23:13.476034+01 | 1486736593.47603 | pgbench_branches |            16384

 2017-02-10 15:23:14.573219+01 | 1486736594.57322 | pgbench_accounts |       4133134336
 2017-02-10 15:23:14.573219+01 | 1486736594.57322 | pgbench_tellers  |           139264
 2017-02-10 15:23:14.573219+01 | 1486736594.57322 | pgbench_history  |        102629376
 2017-02-10 15:23:14.573219+01 | 1486736594.57322 | pgbench_branches |            16384

 2017-02-10 15:23:15.665514+01 | 1486736595.66551 | pgbench_accounts |       4133134336
 2017-02-10 15:23:15.665514+01 | 1486736595.66551 | pgbench_tellers  |           139264
 2017-02-10 15:23:15.665514+01 | 1486736595.66551 | pgbench_history  |        103563264
 2017-02-10 15:23:15.665514+01 | 1486736595.66551 | pgbench_branches |            16384

 2017-02-10 15:23:16.745623+01 | 1486736596.74562 | pgbench_accounts |       4133134336
 2017-02-10 15:23:16.745623+01 | 1486736596.74562 | pgbench_tellers  |           139264
 2017-02-10 15:23:16.745623+01 | 1486736596.74562 | pgbench_history  |        105144320
 2017-02-10 15:23:16.745623+01 | 1486736596.74562 | pgbench_branches |            16384

 2017-02-10 15:23:17.816048+01 | 1486736597.81605 | pgbench_accounts |       4133134336
 2017-02-10 15:23:17.816048+01 | 1486736597.81605 | pgbench_tellers  |           139264
 2017-02-10 15:23:17.816048+01 | 1486736597.81605 | pgbench_history  |        105734144
 2017-02-10 15:23:17.816048+01 | 1486736597.81605 | pgbench_branches |            16384

 2017-02-10 15:23:18.893908+01 | 1486736598.89391 | pgbench_accounts |       4133134336
 2017-02-10 15:23:18.893908+01 | 1486736598.89391 | pgbench_tellers  |           139264
 2017-02-10 15:23:18.893908+01 | 1486736598.89391 | pgbench_history  |        106528768
 2017-02-10 15:23:18.893908+01 | 1486736598.89391 | pgbench_branches |            16384

 2017-02-10 15:23:19.98742+01 | 1486736599.98742 | pgbench_accounts |       4133134336
 2017-02-10 15:23:19.98742+01 | 1486736599.98742 | pgbench_tellers  |           139264
 2017-02-10 15:23:19.98742+01 | 1486736599.98742 | pgbench_history  |        107823104
 2017-02-10 15:23:19.98742+01 | 1486736599.98742 | pgbench_branches |            16384

 2017-02-10 15:23:21.071377+01 | 1486736601.07138 | pgbench_accounts |       4133134336
 2017-02-10 15:23:21.071377+01 | 1486736601.07138 | pgbench_tellers  |           139264
 2017-02-10 15:23:21.071377+01 | 1486736601.07138 | pgbench_history  |        108535808
 2017-02-10 15:23:21.071377+01 | 1486736601.07138 | pgbench_branches |            16384

 2017-02-10 15:23:22.166331+01 | 1486736602.16633 | pgbench_accounts |       4133134336
 2017-02-10 15:23:22.166331+01 | 1486736602.16633 | pgbench_tellers  |           139264
 2017-02-10 15:23:22.166331+01 | 1486736602.16633 | pgbench_history  |        109535232
 2017-02-10 15:23:22.166331+01 | 1486736602.16633 | pgbench_branches |            16384

 2017-02-10 15:23:23.252728+01 | 1486736603.25273 | pgbench_accounts |       4133134336
 2017-02-10 15:23:23.252728+01 | 1486736603.25273 | pgbench_tellers  |           139264
 2017-02-10 15:23:23.252728+01 | 1486736603.25273 | pgbench_history  |        110526464
 2017-02-10 15:23:23.252728+01 | 1486736603.25273 | pgbench_branches |            16384

 2017-02-10 15:23:24.342988+01 | 1486736604.34299 | pgbench_accounts |       4133134336
 2017-02-10 15:23:24.342988+01 | 1486736604.34299 | pgbench_tellers  |           139264
 2017-02-10 15:23:24.342988+01 | 1486736604.34299 | pgbench_history  |        111517696
 2017-02-10 15:23:24.342988+01 | 1486736604.34299 | pgbench_branches |            16384

 2017-02-10 15:23:25.431644+01 | 1486736605.43164 | pgbench_accounts |       4133134336
 2017-02-10 15:23:25.431644+01 | 1486736605.43164 | pgbench_tellers  |           139264
 2017-02-10 15:23:25.431644+01 | 1486736605.43164 | pgbench_history  |        112541696
 2017-02-10 15:23:25.431644+01 | 1486736605.43164 | pgbench_branches |            16384

 2017-02-10 15:23:26.497871+01 | 1486736606.49787 | pgbench_accounts |       4133134336
 2017-02-10 15:23:26.497871+01 | 1486736606.49787 | pgbench_tellers  |           139264
 2017-02-10 15:23:26.497871+01 | 1486736606.49787 | pgbench_history  |        113483776
 2017-02-10 15:23:26.497871+01 | 1486736606.49787 | pgbench_branches |            16384

 2017-02-10 15:23:27.57153+01 | 1486736607.57153 | pgbench_accounts |       4133134336
 2017-02-10 15:23:27.57153+01 | 1486736607.57153 | pgbench_tellers  |           139264
 2017-02-10 15:23:27.57153+01 | 1486736607.57153 | pgbench_history  |        114524160
 2017-02-10 15:23:27.57153+01 | 1486736607.57153 | pgbench_branches |            16384

 2017-02-10 15:23:28.639086+01 | 1486736608.63909 | pgbench_accounts |       4133134336
 2017-02-10 15:23:28.639086+01 | 1486736608.63909 | pgbench_tellers  |           139264
 2017-02-10 15:23:28.639086+01 | 1486736608.63909 | pgbench_history  |        115507200
 2017-02-10 15:23:28.639086+01 | 1486736608.63909 | pgbench_branches |            16384

 2017-02-10 15:23:29.71169+01 | 1486736609.71169 | pgbench_accounts |       4133134336
 2017-02-10 15:23:29.71169+01 | 1486736609.71169 | pgbench_tellers  |           139264
 2017-02-10 15:23:29.71169+01 | 1486736609.71169 | pgbench_history  |        116482048
 2017-02-10 15:23:29.71169+01 | 1486736609.71169 | pgbench_branches |            16384

 2017-02-10 15:23:30.792048+01 | 1486736610.79205 | pgbench_accounts |       4133134336
 2017-02-10 15:23:30.792048+01 | 1486736610.79205 | pgbench_tellers  |           139264
 2017-02-10 15:23:30.792048+01 | 1486736610.79205 | pgbench_history  |        118177792
 2017-02-10 15:23:30.792048+01 | 1486736610.79205 | pgbench_branches |            16384

 2017-02-10 15:23:31.872859+01 | 1486736611.87286 | pgbench_accounts |       4133134336
 2017-02-10 15:23:31.872859+01 | 1486736611.87286 | pgbench_tellers  |           139264
 2017-02-10 15:23:31.872859+01 | 1486736611.87286 | pgbench_history  |        118366208
 2017-02-10 15:23:31.872859+01 | 1486736611.87286 | pgbench_branches |            16384

 2017-02-10 15:23:32.956305+01 | 1486736612.95631 | pgbench_accounts |       4133134336
 2017-02-10 15:23:32.956305+01 | 1486736612.95631 | pgbench_tellers  |           139264
 2017-02-10 15:23:32.956305+01 | 1486736612.95631 | pgbench_history  |        119562240
 2017-02-10 15:23:32.956305+01 | 1486736612.95631 | pgbench_branches |            16384

 2017-02-10 15:23:34.058953+01 | 1486736614.05895 | pgbench_accounts |       4133134336
 2017-02-10 15:23:34.058953+01 | 1486736614.05895 | pgbench_tellers  |           139264
 2017-02-10 15:23:34.058953+01 | 1486736614.05895 | pgbench_history  |        120496128
 2017-02-10 15:23:34.058953+01 | 1486736614.05895 | pgbench_branches |            16384

 2017-02-10 15:23:35.132217+01 | 1486736615.13222 | pgbench_accounts |       4133134336
 2017-02-10 15:23:35.132217+01 | 1486736615.13222 | pgbench_tellers  |           139264
 2017-02-10 15:23:35.132217+01 | 1486736615.13222 | pgbench_history  |        121315328
 2017-02-10 15:23:35.132217+01 | 1486736615.13222 | pgbench_branches |            16384

 2017-02-10 15:23:36.214644+01 | 1486736616.21464 | pgbench_accounts |       4133134336
 2017-02-10 15:23:36.214644+01 | 1486736616.21464 | pgbench_tellers  |           139264
 2017-02-10 15:23:36.214644+01 | 1486736616.21464 | pgbench_history  |        122232832
 2017-02-10 15:23:36.214644+01 | 1486736616.21464 | pgbench_branches |            16384

 2017-02-10 15:23:37.322275+01 | 1486736617.32227 | pgbench_accounts |       4133134336
 2017-02-10 15:23:37.322275+01 | 1486736617.32227 | pgbench_tellers  |           139264
 2017-02-10 15:23:37.322275+01 | 1486736617.32227 | pgbench_history  |        123584512
 2017-02-10 15:23:37.322275+01 | 1486736617.32227 | pgbench_branches |            16384

 2017-02-10 15:23:38.40087+01 | 1486736618.40087 | pgbench_accounts |       4133134336
 2017-02-10 15:23:38.40087+01 | 1486736618.40087 | pgbench_tellers  |           139264
 2017-02-10 15:23:38.40087+01 | 1486736618.40087 | pgbench_history  |        124362752
 2017-02-10 15:23:38.40087+01 | 1486736618.40087 | pgbench_branches |            16384

 2017-02-10 15:23:39.482812+01 | 1486736619.48281 | pgbench_accounts |       4133134336
 2017-02-10 15:23:39.482812+01 | 1486736619.48281 | pgbench_tellers  |           139264
 2017-02-10 15:23:39.482812+01 | 1486736619.48281 | pgbench_history  |        125468672
 2017-02-10 15:23:39.482812+01 | 1486736619.48281 | pgbench_branches |            16384

 2017-02-10 15:23:40.583644+01 | 1486736620.58364 | pgbench_accounts |       4133134336
 2017-02-10 15:23:40.583644+01 | 1486736620.58364 | pgbench_tellers  |           139264
 2017-02-10 15:23:40.583644+01 | 1486736620.58364 | pgbench_history  |        126386176
 2017-02-10 15:23:40.583644+01 | 1486736620.58364 | pgbench_branches |            16384

 2017-02-10 15:23:41.654359+01 | 1486736621.65436 | pgbench_accounts |       4133134336
 2017-02-10 15:23:41.654359+01 | 1486736621.65436 | pgbench_tellers  |           139264
 2017-02-10 15:23:41.654359+01 | 1486736621.65436 | pgbench_history  |        127262720
 2017-02-10 15:23:41.654359+01 | 1486736621.65436 | pgbench_branches |            16384

 2017-02-10 15:23:42.739186+01 | 1486736622.73919 | pgbench_accounts |       4133134336
 2017-02-10 15:23:42.739186+01 | 1486736622.73919 | pgbench_tellers  |           139264
 2017-02-10 15:23:42.739186+01 | 1486736622.73919 | pgbench_history  |        128376832
 2017-02-10 15:23:42.739186+01 | 1486736622.73919 | pgbench_branches |            16384

 2017-02-10 15:23:43.809534+01 | 1486736623.80953 | pgbench_accounts |       4133134336
 2017-02-10 15:23:43.809534+01 | 1486736623.80953 | pgbench_tellers  |           139264
 2017-02-10 15:23:43.809534+01 | 1486736623.80953 | pgbench_history  |        129302528
 2017-02-10 15:23:43.809534+01 | 1486736623.80953 | pgbench_branches |            16384

 2017-02-10 15:23:44.888764+01 | 1486736624.88876 | pgbench_accounts |       4133134336
 2017-02-10 15:23:44.888764+01 | 1486736624.88876 | pgbench_tellers  |           139264
 2017-02-10 15:23:44.888764+01 | 1486736624.88876 | pgbench_history  |        130531328
 2017-02-10 15:23:44.888764+01 | 1486736624.88876 | pgbench_branches |            16384

 2017-02-10 15:23:45.964608+01 | 1486736625.96461 | pgbench_accounts |       4133134336
 2017-02-10 15:23:45.964608+01 | 1486736625.96461 | pgbench_tellers  |           139264
 2017-02-10 15:23:45.964608+01 | 1486736625.96461 | pgbench_history  |        131334144
 2017-02-10 15:23:45.964608+01 | 1486736625.96461 | pgbench_branches |            16384

 2017-02-10 15:23:47.050091+01 | 1486736627.05009 | pgbench_accounts |       4133134336
 2017-02-10 15:23:47.050091+01 | 1486736627.05009 | pgbench_tellers  |           139264
 2017-02-10 15:23:47.050091+01 | 1486736627.05009 | pgbench_history  |        132308992
 2017-02-10 15:23:47.050091+01 | 1486736627.05009 | pgbench_branches |            16384

 2017-02-10 15:23:48.133142+01 | 1486736628.13314 | pgbench_accounts |       4133134336
 2017-02-10 15:23:48.133142+01 | 1486736628.13314 | pgbench_tellers  |           139264
 2017-02-10 15:23:48.133142+01 | 1486736628.13314 | pgbench_history  |        133234688
 2017-02-10 15:23:48.133142+01 | 1486736628.13314 | pgbench_branches |            16384

 2017-02-10 15:23:49.219145+01 | 1486736629.21915 | pgbench_accounts |       4133134336
 2017-02-10 15:23:49.219145+01 | 1486736629.21915 | pgbench_tellers  |           139264
 2017-02-10 15:23:49.219145+01 | 1486736629.21915 | pgbench_history  |        134201344
 2017-02-10 15:23:49.219145+01 | 1486736629.21915 | pgbench_branches |            16384

 2017-02-10 15:23:50.299472+01 | 1486736630.29947 | pgbench_accounts |       4133134336
 2017-02-10 15:23:50.299472+01 | 1486736630.29947 | pgbench_tellers  |           139264
 2017-02-10 15:23:50.299472+01 | 1486736630.29947 | pgbench_history  |        135872512
 2017-02-10 15:23:50.299472+01 | 1486736630.29947 | pgbench_branches |            16384

 2017-02-10 15:23:51.358739+01 | 1486736631.35874 | pgbench_accounts |       4133134336
 2017-02-10 15:23:51.358739+01 | 1486736631.35874 | pgbench_tellers  |           139264
 2017-02-10 15:23:51.358739+01 | 1486736631.35874 | pgbench_history  |        136224768
 2017-02-10 15:23:51.358739+01 | 1486736631.35874 | pgbench_branches |            16384

 2017-02-10 15:23:52.435031+01 | 1486736632.43503 | pgbench_accounts |       4133134336
 2017-02-10 15:23:52.435031+01 | 1486736632.43503 | pgbench_tellers  |           139264
 2017-02-10 15:23:52.435031+01 | 1486736632.43503 | pgbench_history  |        137289728
 2017-02-10 15:23:52.435031+01 | 1486736632.43503 | pgbench_branches |            16384

 2017-02-10 15:23:53.501554+01 | 1486736633.50155 | pgbench_accounts |       4133134336
 2017-02-10 15:23:53.501554+01 | 1486736633.50155 | pgbench_tellers  |           139264
 2017-02-10 15:23:53.501554+01 | 1486736633.50155 | pgbench_history  |        138051584
 2017-02-10 15:23:53.501554+01 | 1486736633.50155 | pgbench_branches |            16384

 2017-02-10 15:23:54.586927+01 | 1486736634.58693 | pgbench_accounts |       4133134336
 2017-02-10 15:23:54.586927+01 | 1486736634.58693 | pgbench_tellers  |           139264
 2017-02-10 15:23:54.586927+01 | 1486736634.58693 | pgbench_history  |        139173888
 2017-02-10 15:23:54.586927+01 | 1486736634.58693 | pgbench_branches |            16384

 2017-02-10 15:23:55.684852+01 | 1486736635.68485 | pgbench_accounts |       4133134336
 2017-02-10 15:23:55.684852+01 | 1486736635.68485 | pgbench_tellers  |           139264
 2017-02-10 15:23:55.684852+01 | 1486736635.68485 | pgbench_history  |        139960320
 2017-02-10 15:23:55.684852+01 | 1486736635.68485 | pgbench_branches |            16384

 2017-02-10 15:23:56.755995+01 | 1486736636.756 | pgbench_accounts |       4133134336
 2017-02-10 15:23:56.755995+01 | 1486736636.756 | pgbench_tellers  |           139264
 2017-02-10 15:23:56.755995+01 | 1486736636.756 | pgbench_history  |        140877824
 2017-02-10 15:23:56.755995+01 | 1486736636.756 | pgbench_branches |            16384

 2017-02-10 15:23:57.849988+01 | 1486736637.84999 | pgbench_accounts |       4133134336
 2017-02-10 15:23:57.849988+01 | 1486736637.84999 | pgbench_tellers  |           139264
 2017-02-10 15:23:57.849988+01 | 1486736637.84999 | pgbench_history  |        141950976
 2017-02-10 15:23:57.849988+01 | 1486736637.84999 | pgbench_branches |            16384

 2017-02-10 15:23:58.95572+01 | 1486736638.95572 | pgbench_accounts |       4133134336
 2017-02-10 15:23:58.95572+01 | 1486736638.95572 | pgbench_tellers  |           139264
 2017-02-10 15:23:58.95572+01 | 1486736638.95572 | pgbench_history  |        142917632
 2017-02-10 15:23:58.95572+01 | 1486736638.95572 | pgbench_branches |            16384

 2017-02-10 15:24:00.044317+01 | 1486736640.04432 | pgbench_accounts |       4133134336
 2017-02-10 15:24:00.044317+01 | 1486736640.04432 | pgbench_tellers  |           139264
 2017-02-10 15:24:00.044317+01 | 1486736640.04432 | pgbench_history  |        143925248
 2017-02-10 15:24:00.044317+01 | 1486736640.04432 | pgbench_branches |            16384

 2017-02-10 15:24:01.110201+01 | 1486736641.1102 | pgbench_accounts |       4133134336
 2017-02-10 15:24:01.110201+01 | 1486736641.1102 | pgbench_tellers  |           139264
 2017-02-10 15:24:01.110201+01 | 1486736641.1102 | pgbench_history  |        145088512
 2017-02-10 15:24:01.110201+01 | 1486736641.1102 | pgbench_branches |            16384

 2017-02-10 15:24:02.183992+01 | 1486736642.18399 | pgbench_accounts |       4133134336
 2017-02-10 15:24:02.183992+01 | 1486736642.18399 | pgbench_tellers  |           139264
 2017-02-10 15:24:02.183992+01 | 1486736642.18399 | pgbench_history  |        146014208
 2017-02-10 15:24:02.183992+01 | 1486736642.18399 | pgbench_branches |            16384

 2017-02-10 15:24:03.274676+01 | 1486736643.27468 | pgbench_accounts |       4133134336
 2017-02-10 15:24:03.274676+01 | 1486736643.27468 | pgbench_tellers  |           139264
 2017-02-10 15:24:03.274676+01 | 1486736643.27468 | pgbench_history  |        146808832
 2017-02-10 15:24:03.274676+01 | 1486736643.27468 | pgbench_branches |            16384

 2017-02-10 15:24:04.355577+01 | 1486736644.35558 | pgbench_accounts |       4133134336
 2017-02-10 15:24:04.355577+01 | 1486736644.35558 | pgbench_tellers  |           139264
 2017-02-10 15:24:04.355577+01 | 1486736644.35558 | pgbench_history  |        147718144
 2017-02-10 15:24:04.355577+01 | 1486736644.35558 | pgbench_branches |            16384

 2017-02-10 15:24:05.460169+01 | 1486736645.46017 | pgbench_accounts |       4133134336
 2017-02-10 15:24:05.460169+01 | 1486736645.46017 | pgbench_tellers  |           139264
 2017-02-10 15:24:05.460169+01 | 1486736645.46017 | pgbench_history  |        149028864
 2017-02-10 15:24:05.460169+01 | 1486736645.46017 | pgbench_branches |            16384

 2017-02-10 15:24:06.530917+01 | 1486736646.53092 | pgbench_accounts |       4133134336
 2017-02-10 15:24:06.530917+01 | 1486736646.53092 | pgbench_tellers  |           139264
 2017-02-10 15:24:06.530917+01 | 1486736646.53092 | pgbench_history  |        149938176
 2017-02-10 15:24:06.530917+01 | 1486736646.53092 | pgbench_branches |            16384

 2017-02-10 15:24:07.60354+01 | 1486736647.60354 | pgbench_accounts |       4133134336
 2017-02-10 15:24:07.60354+01 | 1486736647.60354 | pgbench_tellers  |           139264
 2017-02-10 15:24:07.60354+01 | 1486736647.60354 | pgbench_history  |        150945792
 2017-02-10 15:24:07.60354+01 | 1486736647.60354 | pgbench_branches |            16384

 2017-02-10 15:24:08.689884+01 | 1486736648.68988 | pgbench_accounts |       4133134336
 2017-02-10 15:24:08.689884+01 | 1486736648.68988 | pgbench_tellers  |           139264
 2017-02-10 15:24:08.689884+01 | 1486736648.68988 | pgbench_history  |        151748608
 2017-02-10 15:24:08.689884+01 | 1486736648.68988 | pgbench_branches |            16384

 2017-02-10 15:24:09.768031+01 | 1486736649.76803 | pgbench_accounts |       4133134336
 2017-02-10 15:24:09.768031+01 | 1486736649.76803 | pgbench_tellers  |           139264
 2017-02-10 15:24:09.768031+01 | 1486736649.76803 | pgbench_history  |        152707072
 2017-02-10 15:24:09.768031+01 | 1486736649.76803 | pgbench_branches |            16384

 2017-02-10 15:24:10.837395+01 | 1486736650.83739 | pgbench_accounts |       4133134336
 2017-02-10 15:24:10.837395+01 | 1486736650.83739 | pgbench_tellers  |           139264
 2017-02-10 15:24:10.837395+01 | 1486736650.83739 | pgbench_history  |        153575424
 2017-02-10 15:24:10.837395+01 | 1486736650.83739 | pgbench_branches |            16384

 2017-02-10 15:24:11.9322+01 | 1486736651.9322 | pgbench_accounts |       4133134336
 2017-02-10 15:24:11.9322+01 | 1486736651.9322 | pgbench_tellers  |           139264
 2017-02-10 15:24:11.9322+01 | 1486736651.9322 | pgbench_history  |        154533888
 2017-02-10 15:24:11.9322+01 | 1486736651.9322 | pgbench_branches |            16384

 2017-02-10 15:24:13.027346+01 | 1486736653.02735 | pgbench_accounts |       4133134336
 2017-02-10 15:24:13.027346+01 | 1486736653.02735 | pgbench_tellers  |           139264
 2017-02-10 15:24:13.027346+01 | 1486736653.02735 | pgbench_history  |        155500544
 2017-02-10 15:24:13.027346+01 | 1486736653.02735 | pgbench_branches |            16384

 2017-02-10 15:24:14.09834+01 | 1486736654.09834 | pgbench_accounts |       4133134336
 2017-02-10 15:24:14.09834+01 | 1486736654.09834 | pgbench_tellers  |           139264
 2017-02-10 15:24:14.09834+01 | 1486736654.09834 | pgbench_history  |        156508160
 2017-02-10 15:24:14.09834+01 | 1486736654.09834 | pgbench_branches |            16384

 2017-02-10 15:24:15.170367+01 | 1486736655.17037 | pgbench_accounts |       4133134336
 2017-02-10 15:24:15.170367+01 | 1486736655.17037 | pgbench_tellers  |           139264
 2017-02-10 15:24:15.170367+01 | 1486736655.17037 | pgbench_history  |        157564928
 2017-02-10 15:24:15.170367+01 | 1486736655.17037 | pgbench_branches |            16384

 2017-02-10 15:24:16.258713+01 | 1486736656.25871 | pgbench_accounts |       4133134336
 2017-02-10 15:24:16.258713+01 | 1486736656.25871 | pgbench_tellers  |           139264
 2017-02-10 15:24:16.258713+01 | 1486736656.25871 | pgbench_history  |        158351360
 2017-02-10 15:24:16.258713+01 | 1486736656.25871 | pgbench_branches |            16384

 2017-02-10 15:24:17.335768+01 | 1486736657.33577 | pgbench_accounts |       4133134336
 2017-02-10 15:24:17.335768+01 | 1486736657.33577 | pgbench_tellers  |           139264
 2017-02-10 15:24:17.335768+01 | 1486736657.33577 | pgbench_history  |        159367168
 2017-02-10 15:24:17.335768+01 | 1486736657.33577 | pgbench_branches |            16384

 2017-02-10 15:24:18.433834+01 | 1486736658.43383 | pgbench_accounts |       4133134336
 2017-02-10 15:24:18.433834+01 | 1486736658.43383 | pgbench_tellers  |           139264
 2017-02-10 15:24:18.433834+01 | 1486736658.43383 | pgbench_history  |        160612352
 2017-02-10 15:24:18.433834+01 | 1486736658.43383 | pgbench_branches |            16384

 2017-02-10 15:24:19.519599+01 | 1486736659.5196 | pgbench_accounts |       4133134336
 2017-02-10 15:24:19.519599+01 | 1486736659.5196 | pgbench_tellers  |           139264
 2017-02-10 15:24:19.519599+01 | 1486736659.5196 | pgbench_history  |        161988608
 2017-02-10 15:24:19.519599+01 | 1486736659.5196 | pgbench_branches |            16384

 2017-02-10 15:24:20.594145+01 | 1486736660.59415 | pgbench_accounts |       4133134336
 2017-02-10 15:24:20.594145+01 | 1486736660.59415 | pgbench_tellers  |           139264
 2017-02-10 15:24:20.594145+01 | 1486736660.59415 | pgbench_history  |        162185216
 2017-02-10 15:24:20.594145+01 | 1486736660.59415 | pgbench_branches |            16384

 2017-02-10 15:24:21.670224+01 | 1486736661.67022 | pgbench_accounts |       4133134336
 2017-02-10 15:24:21.670224+01 | 1486736661.67022 | pgbench_tellers  |           139264
 2017-02-10 15:24:21.670224+01 | 1486736661.67022 | pgbench_history  |        163135488
 2017-02-10 15:24:21.670224+01 | 1486736661.67022 | pgbench_branches |            16384

 2017-02-10 15:24:22.741325+01 | 1486736662.74132 | pgbench_accounts |       4133134336
 2017-02-10 15:24:22.741325+01 | 1486736662.74132 | pgbench_tellers  |           139264
 2017-02-10 15:24:22.741325+01 | 1486736662.74132 | pgbench_history  |        165036032
 2017-02-10 15:24:22.741325+01 | 1486736662.74132 | pgbench_branches |            16384

 2017-02-10 15:24:23.809111+01 | 1486736663.80911 | pgbench_accounts |       4133134336
 2017-02-10 15:24:23.809111+01 | 1486736663.80911 | pgbench_tellers  |           139264
 2017-02-10 15:24:23.809111+01 | 1486736663.80911 | pgbench_history  |        165036032
 2017-02-10 15:24:23.809111+01 | 1486736663.80911 | pgbench_branches |            16384

 2017-02-10 15:24:24.891355+01 | 1486736664.89136 | pgbench_accounts |       4133134336
 2017-02-10 15:24:24.891355+01 | 1486736664.89136 | pgbench_tellers  |           139264
 2017-02-10 15:24:24.891355+01 | 1486736664.89136 | pgbench_history  |        166273024
 2017-02-10 15:24:24.891355+01 | 1486736664.89136 | pgbench_branches |            16384

 2017-02-10 15:24:25.969761+01 | 1486736665.96976 | pgbench_accounts |       4133134336
 2017-02-10 15:24:25.969761+01 | 1486736665.96976 | pgbench_tellers  |           139264
 2017-02-10 15:24:25.969761+01 | 1486736665.96976 | pgbench_history  |        167165952
 2017-02-10 15:24:25.969761+01 | 1486736665.96976 | pgbench_branches |            16384

 2017-02-10 15:24:27.064577+01 | 1486736667.06458 | pgbench_accounts |       4133134336
 2017-02-10 15:24:27.064577+01 | 1486736667.06458 | pgbench_tellers  |           139264
 2017-02-10 15:24:27.064577+01 | 1486736667.06458 | pgbench_history  |        168116224
 2017-02-10 15:24:27.064577+01 | 1486736667.06458 | pgbench_branches |            16384

 2017-02-10 15:24:28.150339+01 | 1486736668.15034 | pgbench_accounts |       4133134336
 2017-02-10 15:24:28.150339+01 | 1486736668.15034 | pgbench_tellers  |           139264
 2017-02-10 15:24:28.150339+01 | 1486736668.15034 | pgbench_history  |        168976384
 2017-02-10 15:24:28.150339+01 | 1486736668.15034 | pgbench_branches |            16384

 2017-02-10 15:24:29.211194+01 | 1486736669.21119 | pgbench_accounts |       4133134336
 2017-02-10 15:24:29.211194+01 | 1486736669.21119 | pgbench_tellers  |           139264
 2017-02-10 15:24:29.211194+01 | 1486736669.21119 | pgbench_history  |        169836544
 2017-02-10 15:24:29.211194+01 | 1486736669.21119 | pgbench_branches |            16384

 2017-02-10 15:24:30.275063+01 | 1486736670.27506 | pgbench_accounts |       4133134336
 2017-02-10 15:24:30.275063+01 | 1486736670.27506 | pgbench_tellers  |           139264
 2017-02-10 15:24:30.275063+01 | 1486736670.27506 | pgbench_history  |        170950656
 2017-02-10 15:24:30.275063+01 | 1486736670.27506 | pgbench_branches |            16384

 2017-02-10 15:24:31.351636+01 | 1486736671.35164 | pgbench_accounts |       4133134336
 2017-02-10 15:24:31.351636+01 | 1486736671.35164 | pgbench_tellers  |           139264
 2017-02-10 15:24:31.351636+01 | 1486736671.35164 | pgbench_history  |        172056576
 2017-02-10 15:24:31.351636+01 | 1486736671.35164 | pgbench_branches |            16384

 2017-02-10 15:24:32.418823+01 | 1486736672.41882 | pgbench_accounts |       4133134336
 2017-02-10 15:24:32.418823+01 | 1486736672.41882 | pgbench_tellers  |           139264
 2017-02-10 15:24:32.418823+01 | 1486736672.41882 | pgbench_history  |        172793856
 2017-02-10 15:24:32.418823+01 | 1486736672.41882 | pgbench_branches |            16384

 2017-02-10 15:24:33.505611+01 | 1486736673.50561 | pgbench_accounts |       4133134336
 2017-02-10 15:24:33.505611+01 | 1486736673.50561 | pgbench_tellers  |           139264
 2017-02-10 15:24:33.505611+01 | 1486736673.50561 | pgbench_history  |        173727744
 2017-02-10 15:24:33.505611+01 | 1486736673.50561 | pgbench_branches |            16384

 2017-02-10 15:24:34.588217+01 | 1486736674.58822 | pgbench_accounts |       4133134336
 2017-02-10 15:24:34.588217+01 | 1486736674.58822 | pgbench_tellers  |           139264
 2017-02-10 15:24:34.588217+01 | 1486736674.58822 | pgbench_history  |        174792704
 2017-02-10 15:24:34.588217+01 | 1486736674.58822 | pgbench_branches |            16384

 2017-02-10 15:24:35.658192+01 | 1486736675.65819 | pgbench_accounts |       4133134336
 2017-02-10 15:24:35.658192+01 | 1486736675.65819 | pgbench_tellers  |           139264
 2017-02-10 15:24:35.658192+01 | 1486736675.65819 | pgbench_history  |        175759360
 2017-02-10 15:24:35.658192+01 | 1486736675.65819 | pgbench_branches |            16384

 2017-02-10 15:24:36.746832+01 | 1486736676.74683 | pgbench_accounts |       4133134336
 2017-02-10 15:24:36.746832+01 | 1486736676.74683 | pgbench_tellers  |           139264
 2017-02-10 15:24:36.746832+01 | 1486736676.74683 | pgbench_history  |        176693248
 2017-02-10 15:24:36.746832+01 | 1486736676.74683 | pgbench_branches |            16384

 2017-02-10 15:24:37.822393+01 | 1486736677.82239 | pgbench_accounts |       4133134336
 2017-02-10 15:24:37.822393+01 | 1486736677.82239 | pgbench_tellers  |           139264
 2017-02-10 15:24:37.822393+01 | 1486736677.82239 | pgbench_history  |        177668096
 2017-02-10 15:24:37.822393+01 | 1486736677.82239 | pgbench_branches |            16384

 2017-02-10 15:24:38.905438+01 | 1486736678.90544 | pgbench_accounts |       4133134336
 2017-02-10 15:24:38.905438+01 | 1486736678.90544 | pgbench_tellers  |           139264
 2017-02-10 15:24:38.905438+01 | 1486736678.90544 | pgbench_history  |        178659328
 2017-02-10 15:24:38.905438+01 | 1486736678.90544 | pgbench_branches |            16384

 2017-02-10 15:24:40.004655+01 | 1486736680.00465 | pgbench_accounts |       4133134336
 2017-02-10 15:24:40.004655+01 | 1486736680.00465 | pgbench_tellers  |           139264
 2017-02-10 15:24:40.004655+01 | 1486736680.00465 | pgbench_history  |        179527680
 2017-02-10 15:24:40.004655+01 | 1486736680.00465 | pgbench_branches |            16384

 2017-02-10 15:24:41.095235+01 | 1486736681.09524 | pgbench_accounts |       4133134336
 2017-02-10 15:24:41.095235+01 | 1486736681.09524 | pgbench_tellers  |           139264
 2017-02-10 15:24:41.095235+01 | 1486736681.09524 | pgbench_history  |        180535296
 2017-02-10 15:24:41.095235+01 | 1486736681.09524 | pgbench_branches |            16384

 2017-02-10 15:24:42.170518+01 | 1486736682.17052 | pgbench_accounts |       4133134336
 2017-02-10 15:24:42.170518+01 | 1486736682.17052 | pgbench_tellers  |           139264
 2017-02-10 15:24:42.170518+01 | 1486736682.17052 | pgbench_history  |        181542912
 2017-02-10 15:24:42.170518+01 | 1486736682.17052 | pgbench_branches |            16384

 2017-02-10 15:24:43.247733+01 | 1486736683.24773 | pgbench_accounts |       4133134336
 2017-02-10 15:24:43.247733+01 | 1486736683.24773 | pgbench_tellers  |           139264
 2017-02-10 15:24:43.247733+01 | 1486736683.24773 | pgbench_history  |        182493184
 2017-02-10 15:24:43.247733+01 | 1486736683.24773 | pgbench_branches |            16384

 2017-02-10 15:24:44.318619+01 | 1486736684.31862 | pgbench_accounts |       4133134336
 2017-02-10 15:24:44.318619+01 | 1486736684.31862 | pgbench_tellers  |           139264
 2017-02-10 15:24:44.318619+01 | 1486736684.31862 | pgbench_history  |        183492608
 2017-02-10 15:24:44.318619+01 | 1486736684.31862 | pgbench_branches |            16384

 2017-02-10 15:24:45.420471+01 | 1486736685.42047 | pgbench_accounts |       4133134336
 2017-02-10 15:24:45.420471+01 | 1486736685.42047 | pgbench_tellers  |           139264
 2017-02-10 15:24:45.420471+01 | 1486736685.42047 | pgbench_history  |        185597952
 2017-02-10 15:24:45.420471+01 | 1486736685.42047 | pgbench_branches |            16384

 2017-02-10 15:24:46.48321+01 | 1486736686.48321 | pgbench_accounts |       4133134336
 2017-02-10 15:24:46.48321+01 | 1486736686.48321 | pgbench_tellers  |           139264
 2017-02-10 15:24:46.48321+01 | 1486736686.48321 | pgbench_history  |        185597952
 2017-02-10 15:24:46.48321+01 | 1486736686.48321 | pgbench_branches |            16384

 2017-02-10 15:24:47.569567+01 | 1486736687.56957 | pgbench_accounts |       4133134336
 2017-02-10 15:24:47.569567+01 | 1486736687.56957 | pgbench_tellers  |           139264
 2017-02-10 15:24:47.569567+01 | 1486736687.56957 | pgbench_history  |        186515456
 2017-02-10 15:24:47.569567+01 | 1486736687.56957 | pgbench_branches |            16384

 2017-02-10 15:24:48.646386+01 | 1486736688.64639 | pgbench_accounts |       4133134336
 2017-02-10 15:24:48.646386+01 | 1486736688.64639 | pgbench_tellers  |           139264
 2017-02-10 15:24:48.646386+01 | 1486736688.64639 | pgbench_history  |        187613184
 2017-02-10 15:24:48.646386+01 | 1486736688.64639 | pgbench_branches |            16384

 2017-02-10 15:24:49.724101+01 | 1486736689.7241 | pgbench_accounts |       4133134336
 2017-02-10 15:24:49.724101+01 | 1486736689.7241 | pgbench_tellers  |           139264
 2017-02-10 15:24:49.724101+01 | 1486736689.7241 | pgbench_history  |        188334080
 2017-02-10 15:24:49.724101+01 | 1486736689.7241 | pgbench_branches |            16384

 2017-02-10 15:24:50.796822+01 | 1486736690.79682 | pgbench_accounts |       4133134336
 2017-02-10 15:24:50.796822+01 | 1486736690.79682 | pgbench_tellers  |           139264
 2017-02-10 15:24:50.796822+01 | 1486736690.79682 | pgbench_history  |        189374464
 2017-02-10 15:24:50.796822+01 | 1486736690.79682 | pgbench_branches |            16384

 2017-02-10 15:24:51.864805+01 | 1486736691.8648 | pgbench_accounts |       4133134336
 2017-02-10 15:24:51.864805+01 | 1486736691.8648 | pgbench_tellers  |           139264
 2017-02-10 15:24:51.864805+01 | 1486736691.8648 | pgbench_history  |        190242816
 2017-02-10 15:24:51.864805+01 | 1486736691.8648 | pgbench_branches |            16384

 2017-02-10 15:24:52.941142+01 | 1486736692.94114 | pgbench_accounts |       4133134336
 2017-02-10 15:24:52.941142+01 | 1486736692.94114 | pgbench_tellers  |           139264
 2017-02-10 15:24:52.941142+01 | 1486736692.94114 | pgbench_history  |        191438848
 2017-02-10 15:24:52.941142+01 | 1486736692.94114 | pgbench_branches |            16384

 2017-02-10 15:24:54.030722+01 | 1486736694.03072 | pgbench_accounts |       4133134336
 2017-02-10 15:24:54.030722+01 | 1486736694.03072 | pgbench_tellers  |           139264
 2017-02-10 15:24:54.030722+01 | 1486736694.03072 | pgbench_history  |        192536576
 2017-02-10 15:24:54.030722+01 | 1486736694.03072 | pgbench_branches |            16384

 2017-02-10 15:24:55.113339+01 | 1486736695.11334 | pgbench_accounts |       4133134336
 2017-02-10 15:24:55.113339+01 | 1486736695.11334 | pgbench_tellers  |           139264
 2017-02-10 15:24:55.113339+01 | 1486736695.11334 | pgbench_history  |        194060288
 2017-02-10 15:24:55.113339+01 | 1486736695.11334 | pgbench_branches |            16384

 2017-02-10 15:24:56.195136+01 | 1486736696.19514 | pgbench_accounts |       4133134336
 2017-02-10 15:24:56.195136+01 | 1486736696.19514 | pgbench_tellers  |           139264
 2017-02-10 15:24:56.195136+01 | 1486736696.19514 | pgbench_history  |        194060288
 2017-02-10 15:24:56.195136+01 | 1486736696.19514 | pgbench_branches |            16384

 2017-02-10 15:24:57.259306+01 | 1486736697.25931 | pgbench_accounts |       4133134336
 2017-02-10 15:24:57.259306+01 | 1486736697.25931 | pgbench_tellers  |           139264
 2017-02-10 15:24:57.259306+01 | 1486736697.25931 | pgbench_history  |        195067904
 2017-02-10 15:24:57.259306+01 | 1486736697.25931 | pgbench_branches |            16384

 2017-02-10 15:24:58.329002+01 | 1486736698.329 | pgbench_accounts |       4133134336
 2017-02-10 15:24:58.329002+01 | 1486736698.329 | pgbench_tellers  |           139264
 2017-02-10 15:24:58.329002+01 | 1486736698.329 | pgbench_history  |        195952640
 2017-02-10 15:24:58.329002+01 | 1486736698.329 | pgbench_branches |            16384

 2017-02-10 15:24:59.421547+01 | 1486736699.42155 | pgbench_accounts |       4133134336
 2017-02-10 15:24:59.421547+01 | 1486736699.42155 | pgbench_tellers  |           139264
 2017-02-10 15:24:59.421547+01 | 1486736699.42155 | pgbench_history  |        197091328
 2017-02-10 15:24:59.421547+01 | 1486736699.42155 | pgbench_branches |            16384

 2017-02-10 15:25:00.502752+01 | 1486736700.50275 | pgbench_accounts |       4133134336
 2017-02-10 15:25:00.502752+01 | 1486736700.50275 | pgbench_tellers  |           139264
 2017-02-10 15:25:00.502752+01 | 1486736700.50275 | pgbench_history  |        198090752
 2017-02-10 15:25:00.502752+01 | 1486736700.50275 | pgbench_branches |            16384

 2017-02-10 15:25:01.580681+01 | 1486736701.58068 | pgbench_accounts |       4133134336
 2017-02-10 15:25:01.580681+01 | 1486736701.58068 | pgbench_tellers  |           139264
 2017-02-10 15:25:01.580681+01 | 1486736701.58068 | pgbench_history  |        198893568
 2017-02-10 15:25:01.580681+01 | 1486736701.58068 | pgbench_branches |            16384

 2017-02-10 15:25:02.665372+01 | 1486736702.66537 | pgbench_accounts |       4133134336
 2017-02-10 15:25:02.665372+01 | 1486736702.66537 | pgbench_tellers  |           139264
 2017-02-10 15:25:02.665372+01 | 1486736702.66537 | pgbench_history  |        200556544
 2017-02-10 15:25:02.665372+01 | 1486736702.66537 | pgbench_branches |            16384

 2017-02-10 15:25:03.747267+01 | 1486736703.74727 | pgbench_accounts |       4133134336
 2017-02-10 15:25:03.747267+01 | 1486736703.74727 | pgbench_tellers  |           139264
 2017-02-10 15:25:03.747267+01 | 1486736703.74727 | pgbench_history  |        200966144
 2017-02-10 15:25:03.747267+01 | 1486736703.74727 | pgbench_branches |            16384

 2017-02-10 15:25:04.812857+01 | 1486736704.81286 | pgbench_accounts |       4133134336
 2017-02-10 15:25:04.812857+01 | 1486736704.81286 | pgbench_tellers  |           139264
 2017-02-10 15:25:04.812857+01 | 1486736704.81286 | pgbench_history  |        202465280
 2017-02-10 15:25:04.812857+01 | 1486736704.81286 | pgbench_branches |            16384

 2017-02-10 15:25:05.88328+01 | 1486736705.88328 | pgbench_accounts |       4133134336
 2017-02-10 15:25:05.88328+01 | 1486736705.88328 | pgbench_tellers  |           139264
 2017-02-10 15:25:05.88328+01 | 1486736705.88328 | pgbench_history  |        203481088
 2017-02-10 15:25:05.88328+01 | 1486736705.88328 | pgbench_branches |            16384

 2017-02-10 15:25:06.96944+01 | 1486736706.96944 | pgbench_accounts |       4133134336
 2017-02-10 15:25:06.96944+01 | 1486736706.96944 | pgbench_tellers  |           139264
 2017-02-10 15:25:06.96944+01 | 1486736706.96944 | pgbench_history  |        203874304
 2017-02-10 15:25:06.96944+01 | 1486736706.96944 | pgbench_branches |            16384

 2017-02-10 15:25:08.044069+01 | 1486736708.04407 | pgbench_accounts |       4133134336
 2017-02-10 15:25:08.044069+01 | 1486736708.04407 | pgbench_tellers  |           139264
 2017-02-10 15:25:08.044069+01 | 1486736708.04407 | pgbench_history  |        204718080
 2017-02-10 15:25:08.044069+01 | 1486736708.04407 | pgbench_branches |            16384

 2017-02-10 15:25:09.140191+01 | 1486736709.14019 | pgbench_accounts |       4133134336
 2017-02-10 15:25:09.140191+01 | 1486736709.14019 | pgbench_tellers  |           139264
 2017-02-10 15:25:09.140191+01 | 1486736709.14019 | pgbench_history  |        205611008
 2017-02-10 15:25:09.140191+01 | 1486736709.14019 | pgbench_branches |            16384

 2017-02-10 15:25:10.232303+01 | 1486736710.2323 | pgbench_accounts |       4133134336
 2017-02-10 15:25:10.232303+01 | 1486736710.2323 | pgbench_tellers  |           139264
 2017-02-10 15:25:10.232303+01 | 1486736710.2323 | pgbench_history  |        206594048
 2017-02-10 15:25:10.232303+01 | 1486736710.2323 | pgbench_branches |            16384

 2017-02-10 15:25:11.314803+01 | 1486736711.3148 | pgbench_accounts |       4133134336
 2017-02-10 15:25:11.314803+01 | 1486736711.3148 | pgbench_tellers  |           139264
 2017-02-10 15:25:11.314803+01 | 1486736711.3148 | pgbench_history  |        208003072
 2017-02-10 15:25:11.314803+01 | 1486736711.3148 | pgbench_branches |            16384

 2017-02-10 15:25:12.396331+01 | 1486736712.39633 | pgbench_accounts |       4133134336
 2017-02-10 15:25:12.396331+01 | 1486736712.39633 | pgbench_tellers  |           139264
 2017-02-10 15:25:12.396331+01 | 1486736712.39633 | pgbench_history  |        208576512
 2017-02-10 15:25:12.396331+01 | 1486736712.39633 | pgbench_branches |            16384

 2017-02-10 15:25:13.472695+01 | 1486736713.4727 | pgbench_accounts |       4133134336
 2017-02-10 15:25:13.472695+01 | 1486736713.4727 | pgbench_tellers  |           139264
 2017-02-10 15:25:13.472695+01 | 1486736713.4727 | pgbench_history  |        209969152
 2017-02-10 15:25:13.472695+01 | 1486736713.4727 | pgbench_branches |            16384

 2017-02-10 15:25:14.533776+01 | 1486736714.53378 | pgbench_accounts |       4133134336
 2017-02-10 15:25:14.533776+01 | 1486736714.53378 | pgbench_tellers  |           139264
 2017-02-10 15:25:14.533776+01 | 1486736714.53378 | pgbench_history  |        210853888
 2017-02-10 15:25:14.533776+01 | 1486736714.53378 | pgbench_branches |            16384

 2017-02-10 15:25:15.609306+01 | 1486736715.60931 | pgbench_accounts |       4133134336
 2017-02-10 15:25:15.609306+01 | 1486736715.60931 | pgbench_tellers  |           139264
 2017-02-10 15:25:15.609306+01 | 1486736715.60931 | pgbench_history  |        211623936
 2017-02-10 15:25:15.609306+01 | 1486736715.60931 | pgbench_branches |            16384

 2017-02-10 15:25:16.699464+01 | 1486736716.69946 | pgbench_accounts |       4133134336
 2017-02-10 15:25:16.699464+01 | 1486736716.69946 | pgbench_tellers  |           139264
 2017-02-10 15:25:16.699464+01 | 1486736716.69946 | pgbench_history  |        212656128
 2017-02-10 15:25:16.699464+01 | 1486736716.69946 | pgbench_branches |            16384

 2017-02-10 15:25:17.780649+01 | 1486736717.78065 | pgbench_accounts |       4133134336
 2017-02-10 15:25:17.780649+01 | 1486736717.78065 | pgbench_tellers  |           139264
 2017-02-10 15:25:17.780649+01 | 1486736717.78065 | pgbench_history  |        213270528
 2017-02-10 15:25:17.780649+01 | 1486736717.78065 | pgbench_branches |            16384

 2017-02-10 15:25:18.844861+01 | 1486736718.84486 | pgbench_accounts |       4133134336
 2017-02-10 15:25:18.844861+01 | 1486736718.84486 | pgbench_tellers  |           139264
 2017-02-10 15:25:18.844861+01 | 1486736718.84486 | pgbench_history  |        214499328
 2017-02-10 15:25:18.844861+01 | 1486736718.84486 | pgbench_branches |            16384

 2017-02-10 15:25:19.92677+01 | 1486736719.92677 | pgbench_accounts |       4133134336
 2017-02-10 15:25:19.92677+01 | 1486736719.92677 | pgbench_tellers  |           139264
 2017-02-10 15:25:19.92677+01 | 1486736719.92677 | pgbench_history  |        215539712
 2017-02-10 15:25:19.92677+01 | 1486736719.92677 | pgbench_branches |            16384

 2017-02-10 15:25:21.010638+01 | 1486736721.01064 | pgbench_accounts |       4133134336
 2017-02-10 15:25:21.010638+01 | 1486736721.01064 | pgbench_tellers  |           139264
 2017-02-10 15:25:21.010638+01 | 1486736721.01064 | pgbench_history  |        216293376
 2017-02-10 15:25:21.010638+01 | 1486736721.01064 | pgbench_branches |            16384

 2017-02-10 15:25:22.089051+01 | 1486736722.08905 | pgbench_accounts |       4133134336
 2017-02-10 15:25:22.089051+01 | 1486736722.08905 | pgbench_tellers  |           139264
 2017-02-10 15:25:22.089051+01 | 1486736722.08905 | pgbench_history  |        217800704
 2017-02-10 15:25:22.089051+01 | 1486736722.08905 | pgbench_branches |            16384

 2017-02-10 15:25:23.170928+01 | 1486736723.17093 | pgbench_accounts |       4133134336
 2017-02-10 15:25:23.170928+01 | 1486736723.17093 | pgbench_tellers  |           139264
 2017-02-10 15:25:23.170928+01 | 1486736723.17093 | pgbench_history  |        218251264
 2017-02-10 15:25:23.170928+01 | 1486736723.17093 | pgbench_branches |            16384

 2017-02-10 15:25:24.263685+01 | 1486736724.26368 | pgbench_accounts |       4133134336
 2017-02-10 15:25:24.263685+01 | 1486736724.26368 | pgbench_tellers  |           139264
 2017-02-10 15:25:24.263685+01 | 1486736724.26368 | pgbench_history  |        219324416
 2017-02-10 15:25:24.263685+01 | 1486736724.26368 | pgbench_branches |            16384

 2017-02-10 15:25:25.353401+01 | 1486736725.3534 | pgbench_accounts |       4133134336
 2017-02-10 15:25:25.353401+01 | 1486736725.3534 | pgbench_tellers  |           139264
 2017-02-10 15:25:25.353401+01 | 1486736725.3534 | pgbench_history  |        220069888
 2017-02-10 15:25:25.353401+01 | 1486736725.3534 | pgbench_branches |            16384

 2017-02-10 15:25:26.432234+01 | 1486736726.43223 | pgbench_accounts |       4133134336
 2017-02-10 15:25:26.432234+01 | 1486736726.43223 | pgbench_tellers  |           139264
 2017-02-10 15:25:26.432234+01 | 1486736726.43223 | pgbench_history  |        221020160
 2017-02-10 15:25:26.432234+01 | 1486736726.43223 | pgbench_branches |            16384

 2017-02-10 15:25:27.513178+01 | 1486736727.51318 | pgbench_accounts |       4133134336
 2017-02-10 15:25:27.513178+01 | 1486736727.51318 | pgbench_tellers  |           139264
 2017-02-10 15:25:27.513178+01 | 1486736727.51318 | pgbench_history  |        222953472
 2017-02-10 15:25:27.513178+01 | 1486736727.51318 | pgbench_branches |            16384

 2017-02-10 15:25:28.593107+01 | 1486736728.59311 | pgbench_accounts |       4133134336
 2017-02-10 15:25:28.593107+01 | 1486736728.59311 | pgbench_tellers  |           139264
 2017-02-10 15:25:28.593107+01 | 1486736728.59311 | pgbench_history  |        222953472
 2017-02-10 15:25:28.593107+01 | 1486736728.59311 | pgbench_branches |            16384

 2017-02-10 15:25:29.698224+01 | 1486736729.69822 | pgbench_accounts |       4133134336
 2017-02-10 15:25:29.698224+01 | 1486736729.69822 | pgbench_tellers  |           139264
 2017-02-10 15:25:29.698224+01 | 1486736729.69822 | pgbench_history  |        224083968
 2017-02-10 15:25:29.698224+01 | 1486736729.69822 | pgbench_branches |            16384

 2017-02-10 15:25:30.776839+01 | 1486736730.77684 | pgbench_accounts |       4133134336
 2017-02-10 15:25:30.776839+01 | 1486736730.77684 | pgbench_tellers  |           139264
 2017-02-10 15:25:30.776839+01 | 1486736730.77684 | pgbench_history  |        226041856
 2017-02-10 15:25:30.776839+01 | 1486736730.77684 | pgbench_branches |            16384

 2017-02-10 15:25:31.84553+01 | 1486736731.84553 | pgbench_accounts |       4133134336
 2017-02-10 15:25:31.84553+01 | 1486736731.84553 | pgbench_tellers  |           139264
 2017-02-10 15:25:31.84553+01 | 1486736731.84553 | pgbench_history  |        226041856
 2017-02-10 15:25:31.84553+01 | 1486736731.84553 | pgbench_branches |            16384

 2017-02-10 15:25:32.907383+01 | 1486736732.90738 | pgbench_accounts |       4133134336
 2017-02-10 15:25:32.907383+01 | 1486736732.90738 | pgbench_tellers  |           139264
 2017-02-10 15:25:32.907383+01 | 1486736732.90738 | pgbench_history  |        227418112
 2017-02-10 15:25:32.907383+01 | 1486736732.90738 | pgbench_branches |            16384

 2017-02-10 15:25:34.015198+01 | 1486736734.0152 | pgbench_accounts |       4133134336
 2017-02-10 15:25:34.015198+01 | 1486736734.0152 | pgbench_tellers  |           139264
 2017-02-10 15:25:34.015198+01 | 1486736734.0152 | pgbench_history  |        227966976
 2017-02-10 15:25:34.015198+01 | 1486736734.0152 | pgbench_branches |            16384

 2017-02-10 15:25:35.096202+01 | 1486736735.0962 | pgbench_accounts |       4133134336
 2017-02-10 15:25:35.096202+01 | 1486736735.0962 | pgbench_tellers  |           139264
 2017-02-10 15:25:35.096202+01 | 1486736735.0962 | pgbench_history  |        228728832
 2017-02-10 15:25:35.096202+01 | 1486736735.0962 | pgbench_branches |            16384

 2017-02-10 15:25:36.18345+01 | 1486736736.18345 | pgbench_accounts |       4133134336
 2017-02-10 15:25:36.18345+01 | 1486736736.18345 | pgbench_tellers  |           139264
 2017-02-10 15:25:36.18345+01 | 1486736736.18345 | pgbench_history  |        229974016
 2017-02-10 15:25:36.18345+01 | 1486736736.18345 | pgbench_branches |            16384

 2017-02-10 15:25:37.261619+01 | 1486736737.26162 | pgbench_accounts |       4133134336
 2017-02-10 15:25:37.261619+01 | 1486736737.26162 | pgbench_tellers  |           139264
 2017-02-10 15:25:37.261619+01 | 1486736737.26162 | pgbench_history  |        230825984
 2017-02-10 15:25:37.261619+01 | 1486736737.26162 | pgbench_branches |            16384

 2017-02-10 15:25:38.361545+01 | 1486736738.36155 | pgbench_accounts |       4133134336
 2017-02-10 15:25:38.361545+01 | 1486736738.36155 | pgbench_tellers  |           139264
 2017-02-10 15:25:38.361545+01 | 1486736738.36155 | pgbench_history  |        231833600
 2017-02-10 15:25:38.361545+01 | 1486736738.36155 | pgbench_branches |            16384

 2017-02-10 15:25:39.434177+01 | 1486736739.43418 | pgbench_accounts |       4133134336
 2017-02-10 15:25:39.434177+01 | 1486736739.43418 | pgbench_tellers  |           139264
 2017-02-10 15:25:39.434177+01 | 1486736739.43418 | pgbench_history  |        233177088
 2017-02-10 15:25:39.434177+01 | 1486736739.43418 | pgbench_branches |            16384

 2017-02-10 15:25:40.522161+01 | 1486736740.52216 | pgbench_accounts |       4133134336
 2017-02-10 15:25:40.522161+01 | 1486736740.52216 | pgbench_tellers  |           139264
 2017-02-10 15:25:40.522161+01 | 1486736740.52216 | pgbench_history  |        233529344
 2017-02-10 15:25:40.522161+01 | 1486736740.52216 | pgbench_branches |            16384

 2017-02-10 15:25:41.589206+01 | 1486736741.58921 | pgbench_accounts |       4133134336
 2017-02-10 15:25:41.589206+01 | 1486736741.58921 | pgbench_tellers  |           139264
 2017-02-10 15:25:41.589206+01 | 1486736741.58921 | pgbench_history  |        234520576
 2017-02-10 15:25:41.589206+01 | 1486736741.58921 | pgbench_branches |            16384

 2017-02-10 15:25:42.679723+01 | 1486736742.67972 | pgbench_accounts |       4133134336
 2017-02-10 15:25:42.679723+01 | 1486736742.67972 | pgbench_tellers  |           139264
 2017-02-10 15:25:42.679723+01 | 1486736742.67972 | pgbench_history  |        235528192
 2017-02-10 15:25:42.679723+01 | 1486736742.67972 | pgbench_branches |            16384

 2017-02-10 15:25:43.775113+01 | 1486736743.77511 | pgbench_accounts |       4133134336
 2017-02-10 15:25:43.775113+01 | 1486736743.77511 | pgbench_tellers  |           139264
 2017-02-10 15:25:43.775113+01 | 1486736743.77511 | pgbench_history  |        236462080
 2017-02-10 15:25:43.775113+01 | 1486736743.77511 | pgbench_branches |            16384

 2017-02-10 15:25:44.843325+01 | 1486736744.84332 | pgbench_accounts |       4133134336
 2017-02-10 15:25:44.843325+01 | 1486736744.84332 | pgbench_tellers  |           139264
 2017-02-10 15:25:44.843325+01 | 1486736744.84332 | pgbench_history  |        237395968
 2017-02-10 15:25:44.843325+01 | 1486736744.84332 | pgbench_branches |            16384

 2017-02-10 15:25:45.91608+01 | 1486736745.91608 | pgbench_accounts |       4133134336
 2017-02-10 15:25:45.91608+01 | 1486736745.91608 | pgbench_tellers  |           139264
 2017-02-10 15:25:45.91608+01 | 1486736745.91608 | pgbench_history  |        238354432
 2017-02-10 15:25:45.91608+01 | 1486736745.91608 | pgbench_branches |            16384

 2017-02-10 15:25:46.997561+01 | 1486736746.99756 | pgbench_accounts |       4133134336
 2017-02-10 15:25:46.997561+01 | 1486736746.99756 | pgbench_tellers  |           139264
 2017-02-10 15:25:46.997561+01 | 1486736746.99756 | pgbench_history  |        239370240
 2017-02-10 15:25:46.997561+01 | 1486736746.99756 | pgbench_branches |            16384

 2017-02-10 15:25:48.093745+01 | 1486736748.09374 | pgbench_accounts |       4133134336
 2017-02-10 15:25:48.093745+01 | 1486736748.09374 | pgbench_tellers  |           139264
 2017-02-10 15:25:48.093745+01 | 1486736748.09374 | pgbench_history  |        240361472
 2017-02-10 15:25:48.093745+01 | 1486736748.09374 | pgbench_branches |            16384

 2017-02-10 15:25:49.17562+01 | 1486736749.17562 | pgbench_accounts |       4133134336
 2017-02-10 15:25:49.17562+01 | 1486736749.17562 | pgbench_tellers  |           139264
 2017-02-10 15:25:49.17562+01 | 1486736749.17562 | pgbench_history  |        241532928
 2017-02-10 15:25:49.17562+01 | 1486736749.17562 | pgbench_branches |            16384

 2017-02-10 15:25:50.277914+01 | 1486736750.27791 | pgbench_accounts |       4133134336
 2017-02-10 15:25:50.277914+01 | 1486736750.27791 | pgbench_tellers  |           139264
 2017-02-10 15:25:50.277914+01 | 1486736750.27791 | pgbench_history  |        243687424
 2017-02-10 15:25:50.277914+01 | 1486736750.27791 | pgbench_branches |            16384

 2017-02-10 15:25:51.369771+01 | 1486736751.36977 | pgbench_accounts |       4133134336
 2017-02-10 15:25:51.369771+01 | 1486736751.36977 | pgbench_tellers  |           139264
 2017-02-10 15:25:51.369771+01 | 1486736751.36977 | pgbench_history  |        243687424
 2017-02-10 15:25:51.369771+01 | 1486736751.36977 | pgbench_branches |            16384

 2017-02-10 15:25:52.463376+01 | 1486736752.46338 | pgbench_accounts |       4133134336
 2017-02-10 15:25:52.463376+01 | 1486736752.46338 | pgbench_tellers  |           139264
 2017-02-10 15:25:52.463376+01 | 1486736752.46338 | pgbench_history  |        244252672
 2017-02-10 15:25:52.463376+01 | 1486736752.46338 | pgbench_branches |            16384

 2017-02-10 15:25:53.538575+01 | 1486736753.53857 | pgbench_accounts |       4133134336
 2017-02-10 15:25:53.538575+01 | 1486736753.53857 | pgbench_tellers  |           139264
 2017-02-10 15:25:53.538575+01 | 1486736753.53857 | pgbench_history  |        245440512
 2017-02-10 15:25:53.538575+01 | 1486736753.53857 | pgbench_branches |            16384

 2017-02-10 15:25:54.625156+01 | 1486736754.62516 | pgbench_accounts |       4133134336
 2017-02-10 15:25:54.625156+01 | 1486736754.62516 | pgbench_tellers  |           139264
 2017-02-10 15:25:54.625156+01 | 1486736754.62516 | pgbench_history  |        246374400
 2017-02-10 15:25:54.625156+01 | 1486736754.62516 | pgbench_branches |            16384

 2017-02-10 15:25:55.703945+01 | 1486736755.70394 | pgbench_accounts |       4133134336
 2017-02-10 15:25:55.703945+01 | 1486736755.70394 | pgbench_tellers  |           139264
 2017-02-10 15:25:55.703945+01 | 1486736755.70394 | pgbench_history  |        247209984
 2017-02-10 15:25:55.703945+01 | 1486736755.70394 | pgbench_branches |            16384

 2017-02-10 15:25:56.790783+01 | 1486736756.79078 | pgbench_accounts |       4133134336
 2017-02-10 15:25:56.790783+01 | 1486736756.79078 | pgbench_tellers  |           139264
 2017-02-10 15:25:56.790783+01 | 1486736756.79078 | pgbench_history  |        248201216
 2017-02-10 15:25:56.790783+01 | 1486736756.79078 | pgbench_branches |            16384

 2017-02-10 15:25:57.871534+01 | 1486736757.87153 | pgbench_accounts |       4133134336
 2017-02-10 15:25:57.871534+01 | 1486736757.87153 | pgbench_tellers  |           139264
 2017-02-10 15:25:57.871534+01 | 1486736757.87153 | pgbench_history  |        249192448
 2017-02-10 15:25:57.871534+01 | 1486736757.87153 | pgbench_branches |            16384

 2017-02-10 15:25:58.94974+01 | 1486736758.94974 | pgbench_accounts |       4133134336
 2017-02-10 15:25:58.94974+01 | 1486736758.94974 | pgbench_tellers  |           139264
 2017-02-10 15:25:58.94974+01 | 1486736758.94974 | pgbench_history  |        250159104
 2017-02-10 15:25:58.94974+01 | 1486736758.94974 | pgbench_branches |            16384

 2017-02-10 15:26:00.027871+01 | 1486736760.02787 | pgbench_accounts |       4133134336
 2017-02-10 15:26:00.027871+01 | 1486736760.02787 | pgbench_tellers  |           139264
 2017-02-10 15:26:00.027871+01 | 1486736760.02787 | pgbench_history  |        251117568
 2017-02-10 15:26:00.027871+01 | 1486736760.02787 | pgbench_branches |            16384

 2017-02-10 15:26:01.110917+01 | 1486736761.11092 | pgbench_accounts |       4133134336
 2017-02-10 15:26:01.110917+01 | 1486736761.11092 | pgbench_tellers  |           139264
 2017-02-10 15:26:01.110917+01 | 1486736761.11092 | pgbench_history  |        252076032
 2017-02-10 15:26:01.110917+01 | 1486736761.11092 | pgbench_branches |            16384

 2017-02-10 15:26:02.204517+01 | 1486736762.20452 | pgbench_accounts |       4133134336
 2017-02-10 15:26:02.204517+01 | 1486736762.20452 | pgbench_tellers  |           139264
 2017-02-10 15:26:02.204517+01 | 1486736762.20452 | pgbench_history  |        253329408
 2017-02-10 15:26:02.204517+01 | 1486736762.20452 | pgbench_branches |            16384

 2017-02-10 15:26:03.28408+01 | 1486736763.28408 | pgbench_accounts |       4133134336
 2017-02-10 15:26:03.28408+01 | 1486736763.28408 | pgbench_tellers  |           139264
 2017-02-10 15:26:03.28408+01 | 1486736763.28408 | pgbench_history  |        254550016
 2017-02-10 15:26:03.28408+01 | 1486736763.28408 | pgbench_branches |            16384

 2017-02-10 15:26:04.360773+01 | 1486736764.36077 | pgbench_accounts |       4133134336
 2017-02-10 15:26:04.360773+01 | 1486736764.36077 | pgbench_tellers  |           139264
 2017-02-10 15:26:04.360773+01 | 1486736764.36077 | pgbench_history  |        255123456
 2017-02-10 15:26:04.360773+01 | 1486736764.36077 | pgbench_branches |            16384

 2017-02-10 15:26:05.456705+01 | 1486736765.45671 | pgbench_accounts |       4133134336
 2017-02-10 15:26:05.456705+01 | 1486736765.45671 | pgbench_tellers  |           139264
 2017-02-10 15:26:05.456705+01 | 1486736765.45671 | pgbench_history  |        255991808
 2017-02-10 15:26:05.456705+01 | 1486736765.45671 | pgbench_branches |            16384

 2017-02-10 15:26:06.536424+01 | 1486736766.53642 | pgbench_accounts |       4133134336
 2017-02-10 15:26:06.536424+01 | 1486736766.53642 | pgbench_tellers  |           139264
 2017-02-10 15:26:06.536424+01 | 1486736766.53642 | pgbench_history  |        256745472
 2017-02-10 15:26:06.536424+01 | 1486736766.53642 | pgbench_branches |            16384

 2017-02-10 15:26:07.624815+01 | 1486736767.62481 | pgbench_accounts |       4133134336
 2017-02-10 15:26:07.624815+01 | 1486736767.62481 | pgbench_tellers  |           139264
 2017-02-10 15:26:07.624815+01 | 1486736767.62481 | pgbench_history  |        257548288
 2017-02-10 15:26:07.624815+01 | 1486736767.62481 | pgbench_branches |            16384

 2017-02-10 15:26:08.706147+01 | 1486736768.70615 | pgbench_accounts |       4133134336
 2017-02-10 15:26:08.706147+01 | 1486736768.70615 | pgbench_tellers  |           139264
 2017-02-10 15:26:08.706147+01 | 1486736768.70615 | pgbench_history  |        258506752
 2017-02-10 15:26:08.706147+01 | 1486736768.70615 | pgbench_branches |            16384

 2017-02-10 15:26:09.804509+01 | 1486736769.80451 | pgbench_accounts |       4133134336
 2017-02-10 15:26:09.804509+01 | 1486736769.80451 | pgbench_tellers  |           139264
 2017-02-10 15:26:09.804509+01 | 1486736769.80451 | pgbench_history  |        260284416
 2017-02-10 15:26:09.804509+01 | 1486736769.80451 | pgbench_branches |            16384

 2017-02-10 15:26:10.883346+01 | 1486736770.88335 | pgbench_accounts |       4133134336
 2017-02-10 15:26:10.883346+01 | 1486736770.88335 | pgbench_tellers  |           139264
 2017-02-10 15:26:10.883346+01 | 1486736770.88335 | pgbench_history  |        260472832
 2017-02-10 15:26:10.883346+01 | 1486736770.88335 | pgbench_branches |            16384

 2017-02-10 15:26:11.95738+01 | 1486736771.95738 | pgbench_accounts |       4133134336
 2017-02-10 15:26:11.95738+01 | 1486736771.95738 | pgbench_tellers  |           139264
 2017-02-10 15:26:11.95738+01 | 1486736771.95738 | pgbench_history  |        261357568
 2017-02-10 15:26:11.95738+01 | 1486736771.95738 | pgbench_branches |            16384

 2017-02-10 15:26:13.038645+01 | 1486736773.03865 | pgbench_accounts |       4133134336
 2017-02-10 15:26:13.038645+01 | 1486736773.03865 | pgbench_tellers  |           139264
 2017-02-10 15:26:13.038645+01 | 1486736773.03865 | pgbench_history  |        262307840
 2017-02-10 15:26:13.038645+01 | 1486736773.03865 | pgbench_branches |            16384

 2017-02-10 15:26:14.113426+01 | 1486736774.11343 | pgbench_accounts |       4133134336
 2017-02-10 15:26:14.113426+01 | 1486736774.11343 | pgbench_tellers  |           139264
 2017-02-10 15:26:14.113426+01 | 1486736774.11343 | pgbench_history  |        263159808
 2017-02-10 15:26:14.113426+01 | 1486736774.11343 | pgbench_branches |            16384

 2017-02-10 15:26:15.193009+01 | 1486736775.19301 | pgbench_accounts |       4133134336
 2017-02-10 15:26:15.193009+01 | 1486736775.19301 | pgbench_tellers  |           139264
 2017-02-10 15:26:15.193009+01 | 1486736775.19301 | pgbench_history  |        264101888
 2017-02-10 15:26:15.193009+01 | 1486736775.19301 | pgbench_branches |            16384

 2017-02-10 15:26:16.260158+01 | 1486736776.26016 | pgbench_accounts |       4133134336
 2017-02-10 15:26:16.260158+01 | 1486736776.26016 | pgbench_tellers  |           139264
 2017-02-10 15:26:16.260158+01 | 1486736776.26016 | pgbench_history  |        265142272
 2017-02-10 15:26:16.260158+01 | 1486736776.26016 | pgbench_branches |            16384

 2017-02-10 15:26:17.341695+01 | 1486736777.3417 | pgbench_accounts |       4133134336
 2017-02-10 15:26:17.341695+01 | 1486736777.3417 | pgbench_tellers  |           139264
 2017-02-10 15:26:17.341695+01 | 1486736777.3417 | pgbench_history  |        265928704
 2017-02-10 15:26:17.341695+01 | 1486736777.3417 | pgbench_branches |            16384

 2017-02-10 15:26:18.453458+01 | 1486736778.45346 | pgbench_accounts |       4133134336
 2017-02-10 15:26:18.453458+01 | 1486736778.45346 | pgbench_tellers  |           139264
 2017-02-10 15:26:18.453458+01 | 1486736778.45346 | pgbench_history  |        266993664
 2017-02-10 15:26:18.453458+01 | 1486736778.45346 | pgbench_branches |            16384

 2017-02-10 15:26:19.543168+01 | 1486736779.54317 | pgbench_accounts |       4133134336
 2017-02-10 15:26:19.543168+01 | 1486736779.54317 | pgbench_tellers  |           139264
 2017-02-10 15:26:19.543168+01 | 1486736779.54317 | pgbench_history  |        268197888
 2017-02-10 15:26:19.543168+01 | 1486736779.54317 | pgbench_branches |            16384

