 2017-02-08 17:17:01.386808+01 | 1486570621.38681 |                 0 |               8 |                  5615 |                  368 |             724742 |       1003867 |             9959 |         8385512 |                     0 |       7213555 | 2017-02-08 16:41:03.707092+01

 2017-02-08 17:17:02.473886+01 | 1486570622.47389 |                 0 |               8 |                  5615 |                  368 |             724742 |       1003867 |             9959 |         8385512 |                     0 |       7217846 | 2017-02-08 16:41:03.707092+01

 2017-02-08 17:17:03.557695+01 | 1486570623.55769 |                 0 |               8 |                  5615 |                  368 |             724742 |       1003867 |             9959 |         8385512 |                     0 |       7223539 | 2017-02-08 16:41:03.707092+01

 2017-02-08 17:17:04.652697+01 | 1486570624.6527 |                 0 |               8 |                  5615 |                  368 |             724742 |       1003867 |             9959 |         8385512 |                     0 |       7228379 | 2017-02-08 16:41:03.707092+01

 2017-02-08 17:17:05.734146+01 | 1486570625.73415 |                 0 |               8 |                  5615 |                  368 |             724742 |       1003868 |             9959 |         8385512 |                     0 |       7234089 | 2017-02-08 16:41:03.707092+01

 2017-02-08 17:17:06.842657+01 | 1486570626.84266 |                 0 |               8 |                  5615 |                  368 |             724742 |       1003869 |             9959 |         8385512 |                     0 |       7239017 | 2017-02-08 16:41:03.707092+01

 2017-02-08 17:17:07.947244+01 | 1486570627.94724 |                 0 |               8 |                  5615 |                  368 |             724742 |       1003876 |             9959 |         8385512 |                     0 |       7243679 | 2017-02-08 16:41:03.707092+01

 2017-02-08 17:17:09.052664+01 | 1486570629.05266 |                 0 |               8 |                  5615 |                  368 |             724742 |       1003881 |             9959 |         8385512 |                     0 |       7249453 | 2017-02-08 16:41:03.707092+01

 2017-02-08 17:17:10.146652+01 | 1486570630.14665 |                 0 |               8 |                  5615 |                  368 |             724742 |       1003897 |             9959 |         8385512 |                     0 |       7255179 | 2017-02-08 16:41:03.707092+01

 2017-02-08 17:17:11.258542+01 | 1486570631.25854 |                 0 |               8 |                  5615 |                  368 |             724742 |       1004292 |             9959 |         8385512 |                     0 |       7259815 | 2017-02-08 16:41:03.707092+01

 2017-02-08 17:17:12.347737+01 | 1486570632.34774 |                 0 |               8 |                  5615 |                  368 |             724742 |       1004792 |             9964 |         8385512 |                     0 |       7264543 | 2017-02-08 16:41:03.707092+01

 2017-02-08 17:17:13.450872+01 | 1486570633.45087 |                 0 |               8 |                  5615 |                  368 |             724742 |       1005392 |             9970 |         8385512 |                     0 |       7270317 | 2017-02-08 16:41:03.707092+01

 2017-02-08 17:17:14.538773+01 | 1486570634.53877 |                 0 |               8 |                  5615 |                  368 |             724742 |       1005892 |             9975 |         8385512 |                     0 |       7274820 | 2017-02-08 16:41:03.707092+01

 2017-02-08 17:17:15.629005+01 | 1486570635.629 |                 0 |               8 |                  5615 |                  368 |             724742 |       1006492 |             9981 |         8385512 |                     0 |       7280517 | 2017-02-08 16:41:03.707092+01

 2017-02-08 17:17:16.735286+01 | 1486570636.73529 |                 0 |               8 |                  5615 |                  368 |             724742 |       1006992 |             9986 |         8385512 |                     0 |       7285075 | 2017-02-08 16:41:03.707092+01

 2017-02-08 17:17:17.872385+01 | 1486570637.87239 |                 0 |               8 |                  5615 |                  368 |             724742 |       1007592 |             9992 |         8385512 |                     0 |       7290643 | 2017-02-08 16:41:03.707092+01

 2017-02-08 17:17:18.988312+01 | 1486570638.98831 |                 0 |               8 |                  5615 |                  368 |             724742 |       1008092 |             9997 |         8385512 |                     0 |       7294953 | 2017-02-08 16:41:03.707092+01

 2017-02-08 17:17:20.066877+01 | 1486570640.06688 |                 0 |               8 |                  5615 |                  368 |             724742 |       1008692 |            10003 |         8385512 |                     0 |       7300447 | 2017-02-08 16:41:03.707092+01

 2017-02-08 17:17:21.162684+01 | 1486570641.16268 |                 0 |               8 |                  5615 |                  368 |             724742 |       1009192 |            10008 |         8385512 |                     0 |       7304740 | 2017-02-08 16:41:03.707092+01

 2017-02-08 17:17:22.281711+01 | 1486570642.28171 |                 0 |               8 |                  5615 |                  368 |             724742 |       1009792 |            10014 |         8385512 |                     0 |       7309988 | 2017-02-08 16:41:03.707092+01

 2017-02-08 17:17:23.393104+01 | 1486570643.3931 |                 0 |               8 |                  5615 |                  368 |             724742 |       1010292 |            10019 |         8385512 |                     0 |       7314162 | 2017-02-08 16:41:03.707092+01

 2017-02-08 17:17:24.500558+01 | 1486570644.50056 |                 0 |               8 |                  5615 |                  368 |             724742 |       1010892 |            10025 |         8385512 |                     0 |       7319523 | 2017-02-08 16:41:03.707092+01

 2017-02-08 17:17:25.61344+01 | 1486570645.61344 |                 0 |               8 |                  5615 |                  368 |             724742 |       1011392 |            10030 |         8443924 |                     0 |       7323956 | 2017-02-08 16:41:03.707092+01

 2017-02-08 17:17:26.734271+01 | 1486570646.73427 |                 0 |               8 |                  5615 |                  368 |             724742 |       1011992 |            10036 |         8443924 |                     0 |       7329048 | 2017-02-08 16:41:03.707092+01

 2017-02-08 17:17:27.888803+01 | 1486570647.8888 |                 0 |               8 |                  5615 |                  368 |             724742 |       1012592 |            10042 |         8443924 |                     0 |       7334506 | 2017-02-08 16:41:03.707092+01

 2017-02-08 17:17:29.00288+01 | 1486570649.00288 |                 0 |               8 |                  5615 |                  368 |             724742 |       1013092 |            10047 |         8443924 |                     0 |       7338678 | 2017-02-08 16:41:03.707092+01

 2017-02-08 17:17:30.135218+01 | 1486570650.13522 |                 0 |               8 |                  5615 |                  368 |             724742 |       1013692 |            10053 |         8443924 |                     0 |       7344112 | 2017-02-08 16:41:03.707092+01

 2017-02-08 17:17:31.264907+01 | 1486570651.26491 |                 0 |               8 |                  5615 |                  368 |             724742 |       1014192 |            10058 |         8443924 |                     0 |       7348381 | 2017-02-08 16:41:03.707092+01

 2017-02-08 17:17:32.375492+01 | 1486570652.37549 |                 0 |               8 |                  5615 |                  368 |             724742 |       1014792 |            10064 |         8443924 |                     0 |       7353876 | 2017-02-08 16:41:03.707092+01

 2017-02-08 17:17:33.457324+01 | 1486570653.45732 |                 0 |               8 |                  5615 |                  368 |             724742 |       1015292 |            10069 |         8443924 |                     0 |       7357942 | 2017-02-08 16:41:03.707092+01

 2017-02-08 17:17:34.577898+01 | 1486570654.5779 |                 0 |               8 |                  5615 |                  368 |             724742 |       1015892 |            10075 |         8443924 |                     0 |       7363163 | 2017-02-08 16:41:03.707092+01

 2017-02-08 17:17:35.680021+01 | 1486570655.68002 |                 0 |               8 |                  5615 |                  368 |             724742 |       1016292 |            10079 |         8443924 |                     0 |       7366566 | 2017-02-08 16:41:03.707092+01

 2017-02-08 17:17:36.783285+01 | 1486570656.78328 |                 0 |               8 |                  5615 |                  368 |             724742 |       1016992 |            10086 |         8443924 |                     0 |       7372345 | 2017-02-08 16:41:03.707092+01

 2017-02-08 17:17:37.920168+01 | 1486570657.92017 |                 0 |               8 |                  5615 |                  368 |             724742 |       1017492 |            10091 |         8443924 |                     0 |       7376602 | 2017-02-08 16:41:03.707092+01

 2017-02-08 17:17:38.999307+01 | 1486570658.99931 |                 0 |               8 |                  5615 |                  368 |             724742 |       1018092 |            10097 |         8443924 |                     0 |       7381680 | 2017-02-08 16:41:03.707092+01

 2017-02-08 17:17:40.117525+01 | 1486570660.11753 |                 0 |               8 |                  5615 |                  368 |             724742 |       1018592 |            10102 |         8502260 |                     0 |       7386106 | 2017-02-08 16:41:03.707092+01

 2017-02-08 17:17:41.247843+01 | 1486570661.24784 |                 0 |               8 |                  5615 |                  368 |             724742 |       1019192 |            10108 |         8502260 |                     0 |       7391243 | 2017-02-08 16:41:03.707092+01

 2017-02-08 17:17:42.317391+01 | 1486570662.31739 |                 0 |               8 |                  5615 |                  368 |             724742 |       1019792 |            10114 |         8502260 |                     0 |       7396339 | 2017-02-08 16:41:03.707092+01

 2017-02-08 17:17:43.456972+01 | 1486570663.45697 |                 0 |               8 |                  5615 |                  368 |             724742 |       1020292 |            10119 |         8502260 |                     0 |       7400547 | 2017-02-08 16:41:03.707092+01

 2017-02-08 17:17:44.591507+01 | 1486570664.59151 |                 0 |               8 |                  5615 |                  368 |             724742 |       1020892 |            10125 |         8502260 |                     0 |       7405888 | 2017-02-08 16:41:03.707092+01

 2017-02-08 17:17:45.7334+01 | 1486570665.7334 |                 0 |               8 |                  5615 |                  368 |             724742 |       1021392 |            10130 |         8502260 |                     0 |       7410057 | 2017-02-08 16:41:03.707092+01

 2017-02-08 17:17:46.863738+01 | 1486570666.86374 |                 0 |               8 |                  5615 |                  368 |             724742 |       1021992 |            10136 |         8502260 |                     0 |       7415236 | 2017-02-08 16:41:03.707092+01

 2017-02-08 17:17:47.993076+01 | 1486570667.99308 |                 0 |               8 |                  5615 |                  368 |             724742 |       1022592 |            10142 |         8502260 |                     0 |       7420319 | 2017-02-08 16:41:03.707092+01

 2017-02-08 17:17:49.093891+01 | 1486570669.09389 |                 0 |               8 |                  5615 |                  368 |             724742 |       1023092 |            10147 |         8502260 |                     0 |       7424609 | 2017-02-08 16:41:03.707092+01

 2017-02-08 17:17:50.210178+01 | 1486570670.21018 |                 0 |               8 |                  5615 |                  368 |             724742 |       1023692 |            10153 |         8502260 |                     0 |       7429677 | 2017-02-08 16:41:03.707092+01

 2017-02-08 17:17:51.340246+01 | 1486570671.34025 |                 0 |               8 |                  5615 |                  368 |             724742 |       1024192 |            10158 |         8502260 |                     0 |       7433916 | 2017-02-08 16:41:03.707092+01

 2017-02-08 17:17:52.44772+01 | 1486570672.44772 |                 0 |               8 |                  5615 |                  368 |             724742 |       1024792 |            10164 |         8502260 |                     0 |       7438531 | 2017-02-08 16:41:03.707092+01

 2017-02-08 17:17:53.554446+01 | 1486570673.55445 |                 0 |               8 |                  5615 |                  368 |             724742 |       1025292 |            10169 |         8502260 |                     0 |       7442677 | 2017-02-08 16:41:03.707092+01

 2017-02-08 17:17:54.671301+01 | 1486570674.6713 |                 0 |               8 |                  5615 |                  368 |             724742 |       1025892 |            10175 |         8502260 |                     0 |       7447415 | 2017-02-08 16:41:03.707092+01

 2017-02-08 17:17:55.770851+01 | 1486570675.77085 |                 0 |               8 |                  5615 |                  368 |             724742 |       1026392 |            10180 |         8559998 |                     0 |       7451437 | 2017-02-08 16:41:03.707092+01

 2017-02-08 17:17:56.878809+01 | 1486570676.87881 |                 0 |               8 |                  5615 |                  368 |             724742 |       1026992 |            10186 |         8559998 |                     0 |       7456251 | 2017-02-08 16:41:03.707092+01

 2017-02-08 17:17:57.966048+01 | 1486570677.96605 |                 0 |               8 |                  5615 |                  368 |             724742 |       1027492 |            10191 |         8559998 |                     0 |       7460349 | 2017-02-08 16:41:03.707092+01

 2017-02-08 17:17:59.065259+01 | 1486570679.06526 |                 0 |               8 |                  5615 |                  368 |             724742 |       1028092 |            10197 |         8559998 |                     0 |       7465073 | 2017-02-08 16:41:03.707092+01

 2017-02-08 17:18:00.183032+01 | 1486570680.18303 |                 0 |               8 |                  5615 |                  368 |             724742 |       1028592 |            10202 |         8559998 |                     0 |       7469130 | 2017-02-08 16:41:03.707092+01

 2017-02-08 17:18:01.302134+01 | 1486570681.30213 |                 0 |               8 |                  5615 |                  368 |             724742 |       1029192 |            10208 |         8559998 |                     0 |       7473833 | 2017-02-08 16:41:03.707092+01

 2017-02-08 17:18:02.391777+01 | 1486570682.39178 |                 0 |               8 |                  5615 |                  368 |             724742 |       1029692 |            10213 |         8559998 |                     0 |       7477948 | 2017-02-08 16:41:03.707092+01

 2017-02-08 17:18:03.472676+01 | 1486570683.47268 |                 0 |               8 |                  5615 |                  368 |             724742 |       1030292 |            10219 |         8559998 |                     0 |       7482817 | 2017-02-08 16:41:03.707092+01

 2017-02-08 17:18:04.602044+01 | 1486570684.60204 |                 0 |               8 |                  5615 |                  368 |             724742 |       1030792 |            10224 |         8559998 |                     0 |       7486867 | 2017-02-08 16:41:03.707092+01

 2017-02-08 17:18:05.68188+01 | 1486570685.68188 |                 0 |               8 |                  5615 |                  368 |             724742 |       1031392 |            10230 |         8559998 |                     0 |       7491932 | 2017-02-08 16:41:03.707092+01

 2017-02-08 17:18:06.825897+01 | 1486570686.8259 |                 0 |               8 |                  5615 |                  368 |             724742 |       1031892 |            10235 |         8559998 |                     0 |       7495843 | 2017-02-08 16:41:03.707092+01

 2017-02-08 17:18:07.957849+01 | 1486570687.95785 |                 0 |               8 |                  5615 |                  368 |             724742 |       1032492 |            10241 |         8559998 |                     0 |       7500731 | 2017-02-08 16:41:03.707092+01

 2017-02-08 17:18:09.075406+01 | 1486570689.07541 |                 0 |               8 |                  5615 |                  368 |             724742 |       1032992 |            10246 |         8618834 |                     0 |       7504949 | 2017-02-08 16:41:03.707092+01

 2017-02-08 17:18:10.213462+01 | 1486570690.21346 |                 0 |               8 |                  5615 |                  368 |             724742 |       1033592 |            10252 |         8618834 |                     0 |       7509806 | 2017-02-08 16:41:03.707092+01

 2017-02-08 17:18:11.318301+01 | 1486570691.3183 |                 0 |               8 |                  5615 |                  368 |             724742 |       1034192 |            10258 |         8618834 |                     0 |       7514993 | 2017-02-08 16:41:03.707092+01

 2017-02-08 17:18:12.431942+01 | 1486570692.43194 |                 0 |               8 |                  5615 |                  368 |             724742 |       1034692 |            10263 |         8618834 |                     0 |       7519119 | 2017-02-08 16:41:03.707092+01

 2017-02-08 17:18:13.552767+01 | 1486570693.55277 |                 0 |               8 |                  5615 |                  368 |             724742 |       1035292 |            10269 |         8618834 |                     0 |       7524318 | 2017-02-08 16:41:03.707092+01

 2017-02-08 17:18:14.643545+01 | 1486570694.64354 |                 0 |               8 |                  5615 |                  368 |             724742 |       1035792 |            10274 |         8618834 |                     0 |       7528415 | 2017-02-08 16:41:03.707092+01

 2017-02-08 17:18:15.746452+01 | 1486570695.74645 |                 0 |               8 |                  5615 |                  368 |             724742 |       1036392 |            10280 |         8618834 |                     0 |       7533557 | 2017-02-08 16:41:03.707092+01

 2017-02-08 17:18:16.86727+01 | 1486570696.86727 |                 0 |               8 |                  5615 |                  368 |             724742 |       1036892 |            10285 |         8618834 |                     0 |       7537544 | 2017-02-08 16:41:03.707092+01

 2017-02-08 17:18:17.969746+01 | 1486570697.96975 |                 0 |               8 |                  5615 |                  368 |             724742 |       1037492 |            10291 |         8618834 |                     0 |       7542635 | 2017-02-08 16:41:03.707092+01

 2017-02-08 17:18:19.124159+01 | 1486570699.12416 |                 0 |               8 |                  5615 |                  368 |             724742 |       1037992 |            10296 |         8618834 |                     0 |       7546795 | 2017-02-08 16:41:03.707092+01

 2017-02-08 17:18:20.241711+01 | 1486570700.24171 |                 0 |               8 |                  5615 |                  368 |             724742 |       1038592 |            10302 |         8618834 |                     0 |       7551743 | 2017-02-08 16:41:03.707092+01

 2017-02-08 17:18:21.365645+01 | 1486570701.36564 |                 0 |               8 |                  5615 |                  368 |             724742 |       1039192 |            10308 |         8618834 |                     0 |       7556761 | 2017-02-08 16:41:03.707092+01

 2017-02-08 17:18:22.481263+01 | 1486570702.48126 |                 0 |               8 |                  5615 |                  368 |             724742 |       1039692 |            10313 |         8677388 |                     0 |       7560710 | 2017-02-08 16:41:03.707092+01

 2017-02-08 17:18:23.600391+01 | 1486570703.60039 |                 0 |               8 |                  5615 |                  368 |             724742 |       1040292 |            10319 |         8677388 |                     0 |       7565705 | 2017-02-08 16:41:03.707092+01

 2017-02-08 17:18:24.719345+01 | 1486570704.71935 |                 0 |               8 |                  5615 |                  368 |             724742 |       1040792 |            10324 |         8677388 |                     0 |       7569961 | 2017-02-08 16:41:03.707092+01

 2017-02-08 17:18:25.832617+01 | 1486570705.83262 |                 0 |               8 |                  5615 |                  368 |             724742 |       1041392 |            10330 |         8677388 |                     0 |       7574843 | 2017-02-08 16:41:03.707092+01

 2017-02-08 17:18:26.968495+01 | 1486570706.96849 |                 0 |               8 |                  5615 |                  368 |             724742 |       1041992 |            10336 |         8677388 |                     0 |       7579598 | 2017-02-08 16:41:03.707092+01

 2017-02-08 17:18:28.10607+01 | 1486570708.10607 |                 0 |               8 |                  5615 |                  368 |             724742 |       1042492 |            10341 |         8677388 |                     0 |       7583856 | 2017-02-08 16:41:03.707092+01

 2017-02-08 17:18:29.219091+01 | 1486570709.21909 |                 0 |               8 |                  5615 |                  368 |             724742 |       1043092 |            10347 |         8677388 |                     0 |       7588633 | 2017-02-08 16:41:03.707092+01

 2017-02-08 17:18:30.318704+01 | 1486570710.3187 |                 0 |               8 |                  5615 |                  368 |             724742 |       1043592 |            10352 |         8677388 |                     0 |       7592845 | 2017-02-08 16:41:03.707092+01

 2017-02-08 17:18:31.4249+01 | 1486570711.4249 |                 0 |               8 |                  5615 |                  368 |             724742 |       1044192 |            10358 |         8677388 |                     0 |       7597718 | 2017-02-08 16:41:03.707092+01

 2017-02-08 17:18:32.522078+01 | 1486570712.52208 |                 0 |               8 |                  5615 |                  368 |             724742 |       1044692 |            10363 |         8677388 |                     0 |       7601814 | 2017-02-08 16:41:03.707092+01

 2017-02-08 17:18:33.620215+01 | 1486570713.62021 |                 0 |               8 |                  5615 |                  368 |             724742 |       1045292 |            10369 |         8677388 |                     0 |       7606855 | 2017-02-08 16:41:03.707092+01

 2017-02-08 17:18:34.75386+01 | 1486570714.75386 |                 0 |               8 |                  5615 |                  368 |             724742 |       1045792 |            10374 |         8736911 |                     0 |       7610938 | 2017-02-08 16:41:03.707092+01

 2017-02-08 17:18:35.869382+01 | 1486570715.86938 |                 0 |               8 |                  5615 |                  368 |             724742 |       1046292 |            10379 |         8736911 |                     0 |       7615016 | 2017-02-08 16:41:03.707092+01

 2017-02-08 17:18:37.001721+01 | 1486570717.00172 |                 0 |               8 |                  5615 |                  368 |             724742 |       1046892 |            10385 |         8736911 |                     0 |       7620124 | 2017-02-08 16:41:03.707092+01

 2017-02-08 17:18:38.144293+01 | 1486570718.14429 |                 0 |               8 |                  5615 |                  368 |             724742 |       1047492 |            10391 |         8736911 |                     0 |       7624845 | 2017-02-08 16:41:03.707092+01

 2017-02-08 17:18:39.302176+01 | 1486570719.30218 |                 0 |               8 |                  5615 |                  368 |             724742 |       1048092 |            10397 |         8736911 |                     0 |       7629729 | 2017-02-08 16:41:03.707092+01

 2017-02-08 17:18:40.43488+01 | 1486570720.43488 |                 0 |               8 |                  5615 |                  368 |             724742 |       1048592 |            10402 |         8736911 |                     0 |       7633657 | 2017-02-08 16:41:03.707092+01

 2017-02-08 17:18:41.574923+01 | 1486570721.57492 |                 0 |               8 |                  5615 |                  368 |             724742 |       1049192 |            10408 |         8736911 |                     0 |       7638216 | 2017-02-08 16:41:03.707092+01

 2017-02-08 17:18:42.692331+01 | 1486570722.69233 |                 0 |               8 |                  5615 |                  368 |             724742 |       1049792 |            10414 |         8736911 |                     0 |       7643451 | 2017-02-08 16:41:03.707092+01

 2017-02-08 17:18:43.791144+01 | 1486570723.79114 |                 0 |               8 |                  5615 |                  368 |             724742 |       1050292 |            10419 |         8736911 |                     0 |       7647694 | 2017-02-08 16:41:03.707092+01

 2017-02-08 17:18:44.924234+01 | 1486570724.92423 |                 0 |               8 |                  5615 |                  368 |             724742 |       1050892 |            10425 |         8736911 |                     0 |       7652527 | 2017-02-08 16:41:03.707092+01

 2017-02-08 17:18:46.042545+01 | 1486570726.04255 |                 0 |               8 |                  5615 |                  368 |             724742 |       1051392 |            10430 |         8736911 |                     0 |       7656835 | 2017-02-08 16:41:03.707092+01

 2017-02-08 17:18:47.130273+01 | 1486570727.13027 |                 0 |               8 |                  5615 |                  368 |             724742 |       1051992 |            10436 |         8796247 |                     0 |       7661860 | 2017-02-08 16:41:03.707092+01

 2017-02-08 17:18:48.22751+01 | 1486570728.22751 |                 0 |               8 |                  5615 |                  368 |             724742 |       1052492 |            10441 |         8796247 |                     0 |       7666001 | 2017-02-08 16:41:03.707092+01

 2017-02-08 17:18:49.314245+01 | 1486570729.31424 |                 0 |               8 |                  5615 |                  368 |             724742 |       1053092 |            10447 |         8796247 |                     0 |       7671036 | 2017-02-08 16:41:03.707092+01

 2017-02-08 17:18:50.409087+01 | 1486570730.40909 |                 0 |               8 |                  5615 |                  368 |             724742 |       1053592 |            10452 |         8796247 |                     0 |       7675275 | 2017-02-08 16:41:03.707092+01

 2017-02-08 17:18:51.505948+01 | 1486570731.50595 |                 0 |               8 |                  5615 |                  368 |             724742 |       1054192 |            10458 |         8796247 |                     0 |       7680136 | 2017-02-08 16:41:03.707092+01

 2017-02-08 17:18:52.623494+01 | 1486570732.62349 |                 0 |               8 |                  5615 |                  368 |             724742 |       1054692 |            10463 |         8796247 |                     0 |       7684560 | 2017-02-08 16:41:03.707092+01

 2017-02-08 17:18:53.747922+01 | 1486570733.74792 |                 0 |               8 |                  5615 |                  368 |             724742 |       1055292 |            10469 |         8796247 |                     0 |       7689722 | 2017-02-08 16:41:03.707092+01

 2017-02-08 17:18:54.87928+01 | 1486570734.87928 |                 0 |               8 |                  5615 |                  368 |             724742 |       1055792 |            10474 |         8796247 |                     0 |       7694035 | 2017-02-08 16:41:03.707092+01

 2017-02-08 17:18:56.049943+01 | 1486570736.04994 |                 0 |               8 |                  5615 |                  368 |             724742 |       1056392 |            10480 |         8796247 |                     0 |       7699381 | 2017-02-08 16:41:03.707092+01

 2017-02-08 17:18:57.172635+01 | 1486570737.17264 |                 0 |               8 |                  5615 |                  368 |             724742 |       1056992 |            10486 |         8796247 |                     0 |       7704260 | 2017-02-08 16:41:03.707092+01

 2017-02-08 17:18:58.288462+01 | 1486570738.28846 |                 0 |               8 |                  5615 |                  368 |             724742 |       1057492 |            10491 |         8796247 |                     0 |       7708789 | 2017-02-08 16:41:03.707092+01

 2017-02-08 17:18:59.440107+01 | 1486570739.44011 |                 0 |               8 |                  5615 |                  368 |             724742 |       1058092 |            10497 |         8796247 |                     0 |       7713948 | 2017-02-08 16:41:03.707092+01

 2017-02-08 17:19:00.556928+01 | 1486570740.55693 |                 0 |               8 |                  5615 |                  368 |             724742 |       1058692 |            10503 |         8855083 |                     0 |       7719344 | 2017-02-08 16:41:03.707092+01

 2017-02-08 17:19:01.694989+01 | 1486570741.69499 |                 0 |               8 |                  5615 |                  368 |             724742 |       1059192 |            10508 |         8855083 |                     0 |       7723468 | 2017-02-08 16:41:03.707092+01

 2017-02-08 17:19:02.853224+01 | 1486570742.85322 |                 0 |               8 |                  5615 |                  368 |             724742 |       1059792 |            10514 |         8855083 |                     0 |       7728963 | 2017-02-08 16:41:03.707092+01

 2017-02-08 17:19:03.995157+01 | 1486570743.99516 |                 0 |               8 |                  5615 |                  368 |             724742 |       1060392 |            10520 |         8855083 |                     0 |       7734044 | 2017-02-08 16:41:03.707092+01

 2017-02-08 17:19:05.139651+01 | 1486570745.13965 |                 0 |               8 |                  5615 |                  368 |             724742 |       1060892 |            10525 |         8855083 |                     0 |       7738527 | 2017-02-08 16:41:03.707092+01

 2017-02-08 17:19:06.26297+01 | 1486570746.26297 |                 0 |               8 |                  5615 |                  368 |             724742 |       1061492 |            10531 |         8855083 |                     0 |       7743733 | 2017-02-08 16:41:03.707092+01

 2017-02-08 17:19:07.353081+01 | 1486570747.35308 |                 0 |               8 |                  5615 |                  368 |             724742 |       1062092 |            10537 |         8855083 |                     0 |       7749049 | 2017-02-08 16:41:03.707092+01

 2017-02-08 17:19:08.424455+01 | 1486570748.42445 |                 0 |               8 |                  5615 |                  368 |             724742 |       1062592 |            10542 |         8855083 |                     0 |       7753232 | 2017-02-08 16:41:03.707092+01

 2017-02-08 17:19:09.560008+01 | 1486570749.56001 |                 0 |               8 |                  5615 |                  368 |             724742 |       1063092 |            10547 |         8855083 |                     0 |       7757658 | 2017-02-08 16:41:03.707092+01

 2017-02-08 17:19:10.703332+01 | 1486570750.70333 |                 0 |               8 |                  5615 |                  368 |             724742 |       1063692 |            10553 |         8855083 |                     0 |       7762888 | 2017-02-08 16:41:03.707092+01

 2017-02-08 17:19:11.804655+01 | 1486570751.80466 |                 0 |               8 |                  5615 |                  368 |             724742 |       1064292 |            10559 |         8855083 |                     0 |       7768208 | 2017-02-08 16:41:03.707092+01

 2017-02-08 17:19:12.928997+01 | 1486570752.929 |                 0 |               8 |                  5615 |                  368 |             724742 |       1064792 |            10564 |         8855083 |                     0 |       7772405 | 2017-02-08 16:41:03.707092+01

 2017-02-08 17:19:14.085808+01 | 1486570754.08581 |                 0 |               8 |                  5615 |                  368 |             724742 |       1065392 |            10570 |         8855083 |                     0 |       7777741 | 2017-02-08 16:41:03.707092+01

 2017-02-08 17:19:15.244+01 | 1486570755.244 |                 0 |               8 |                  5615 |                  368 |             724742 |       1065992 |            10576 |         8855083 |                     0 |       7782743 | 2017-02-08 16:41:03.707092+01

 2017-02-08 17:19:16.347094+01 | 1486570756.34709 |                 0 |               8 |                  5615 |                  368 |             724742 |       1066492 |            10581 |         8855083 |                     0 |       7787283 | 2017-02-08 16:41:03.707092+01

 2017-02-08 17:19:17.448424+01 | 1486570757.44842 |                 0 |               8 |                  5615 |                  368 |             724742 |       1067092 |            10587 |         8912519 |                     0 |       7792326 | 2017-02-08 16:41:03.707092+01

 2017-02-08 17:19:18.561989+01 | 1486570758.56199 |                 0 |               8 |                  5615 |                  368 |             724742 |       1067592 |            10592 |         8912519 |                     0 |       7796796 | 2017-02-08 16:41:03.707092+01

 2017-02-08 17:19:19.673493+01 | 1486570759.67349 |                 0 |               8 |                  5615 |                  368 |             724742 |       1068192 |            10598 |         8912519 |                     0 |       7801860 | 2017-02-08 16:41:03.707092+01

 2017-02-08 17:19:20.809247+01 | 1486570760.80925 |                 0 |               8 |                  5615 |                  368 |             724742 |       1068692 |            10603 |         8912519 |                     0 |       7806177 | 2017-02-08 16:41:03.707092+01

 2017-02-08 17:19:21.929375+01 | 1486570761.92937 |                 0 |               8 |                  5615 |                  368 |             724742 |       1069292 |            10609 |         8912519 |                     0 |       7811463 | 2017-02-08 16:41:03.707092+01

 2017-02-08 17:19:23.055775+01 | 1486570763.05577 |                 0 |               8 |                  5615 |                  368 |             724742 |       1069792 |            10614 |         8912519 |                     0 |       7815608 | 2017-02-08 16:41:03.707092+01

 2017-02-08 17:19:24.168129+01 | 1486570764.16813 |                 0 |               8 |                  5615 |                  368 |             724742 |       1070392 |            10620 |         8912519 |                     0 |       7820903 | 2017-02-08 16:41:03.707092+01

 2017-02-08 17:19:25.299271+01 | 1486570765.29927 |                 0 |               8 |                  5615 |                  368 |             724742 |       1070992 |            10626 |         8912519 |                     0 |       7825962 | 2017-02-08 16:41:03.707092+01

 2017-02-08 17:19:26.414396+01 | 1486570766.4144 |                 0 |               8 |                  5615 |                  368 |             724742 |       1071492 |            10631 |         8912519 |                     0 |       7830470 | 2017-02-08 16:41:03.707092+01

 2017-02-08 17:19:27.528508+01 | 1486570767.52851 |                 0 |               8 |                  5615 |                  368 |             724742 |       1072092 |            10637 |         8912519 |                     0 |       7835433 | 2017-02-08 16:41:03.707092+01

 2017-02-08 17:19:28.618682+01 | 1486570768.61868 |                 0 |               8 |                  5615 |                  368 |             724742 |       1072592 |            10642 |         8912519 |                     0 |       7839582 | 2017-02-08 16:41:03.707092+01

 2017-02-08 17:19:29.725003+01 | 1486570769.725 |                 0 |               8 |                  5615 |                  368 |             724742 |       1073192 |            10648 |         8912519 |                     0 |       7844700 | 2017-02-08 16:41:03.707092+01

 2017-02-08 17:19:30.860399+01 | 1486570770.8604 |                 0 |               8 |                  5615 |                  368 |             724742 |       1073692 |            10653 |         8912519 |                     0 |       7849042 | 2017-02-08 16:41:03.707092+01

 2017-02-08 17:19:31.970005+01 | 1486570771.97001 |                 0 |               8 |                  5615 |                  368 |             724742 |       1074292 |            10659 |         8912519 |                     0 |       7854014 | 2017-02-08 16:41:03.707092+01

 2017-02-08 17:19:33.076509+01 | 1486570773.07651 |                 0 |               8 |                  5615 |                  368 |             724742 |       1074792 |            10664 |         8912519 |                     0 |       7858477 | 2017-02-08 16:41:03.707092+01

 2017-02-08 17:19:34.177286+01 | 1486570774.17729 |                 0 |               8 |                  5615 |                  368 |             724742 |       1075392 |            10670 |         8969755 |                     0 |       7863514 | 2017-02-08 16:41:03.707092+01

 2017-02-08 17:19:35.285997+01 | 1486570775.286 |                 0 |               8 |                  5615 |                  368 |             724742 |       1075892 |            10675 |         8969755 |                     0 |       7867844 | 2017-02-08 16:41:03.707092+01

 2017-02-08 17:19:36.394434+01 | 1486570776.39443 |                 0 |               8 |                  5615 |                  368 |             724742 |       1076492 |            10681 |         8969755 |                     0 |       7872814 | 2017-02-08 16:41:03.707092+01

 2017-02-08 17:19:37.49427+01 | 1486570777.49427 |                 0 |               8 |                  5615 |                  368 |             724742 |       1076992 |            10686 |         8969755 |                     0 |       7877233 | 2017-02-08 16:41:03.707092+01

 2017-02-08 17:19:38.613923+01 | 1486570778.61392 |                 0 |               8 |                  5615 |                  368 |             724742 |       1077592 |            10692 |         8969755 |                     0 |       7881979 | 2017-02-08 16:41:03.707092+01

 2017-02-08 17:19:39.759218+01 | 1486570779.75922 |                 0 |               8 |                  5615 |                  368 |             724742 |       1078092 |            10697 |         8969755 |                     0 |       7886058 | 2017-02-08 16:41:03.707092+01

 2017-02-08 17:19:40.896886+01 | 1486570780.89689 |                 0 |               8 |                  5615 |                  368 |             724742 |       1078692 |            10703 |         8969755 |                     0 |       7890450 | 2017-02-08 16:41:03.707092+01

 2017-02-08 17:19:42.032259+01 | 1486570782.03226 |                 0 |               8 |                  5615 |                  368 |             724742 |       1079292 |            10709 |         8969755 |                     0 |       7894747 | 2017-02-08 16:41:03.707092+01

 2017-02-08 17:19:43.16265+01 | 1486570783.16265 |                 0 |               8 |                  5615 |                  368 |             724742 |       1079792 |            10714 |         8969755 |                     0 |       7898536 | 2017-02-08 16:41:03.707092+01

 2017-02-08 17:19:44.348441+01 | 1486570784.34844 |                 0 |               8 |                  5615 |                  368 |             724742 |       1080492 |            10721 |         8969755 |                     0 |       7903708 | 2017-02-08 16:41:03.707092+01

 2017-02-08 17:19:45.460236+01 | 1486570785.46024 |                 0 |               8 |                  5615 |                  368 |             724742 |       1080992 |            10726 |         8969755 |                     0 |       7907714 | 2017-02-08 16:41:03.707092+01

 2017-02-08 17:19:46.57563+01 | 1486570786.57563 |                 0 |               8 |                  5615 |                  368 |             724742 |       1081492 |            10731 |         8969755 |                     0 |       7911975 | 2017-02-08 16:41:03.707092+01

 2017-02-08 17:19:47.746827+01 | 1486570787.74683 |                 0 |               8 |                  5615 |                  368 |             724742 |       1082092 |            10737 |         8969755 |                     0 |       7916748 | 2017-02-08 16:41:03.707092+01

 2017-02-08 17:19:48.827691+01 | 1486570788.82769 |                 0 |               8 |                  5615 |                  368 |             724742 |       1082692 |            10743 |         9027891 |                     0 |       7921790 | 2017-02-08 16:41:03.707092+01

 2017-02-08 17:19:49.943376+01 | 1486570789.94338 |                 0 |               8 |                  5615 |                  368 |             724742 |       1083192 |            10748 |         9027891 |                     0 |       7925938 | 2017-02-08 16:41:03.707092+01

 2017-02-08 17:19:51.085777+01 | 1486570791.08578 |                 0 |               8 |                  5615 |                  368 |             724742 |       1083792 |            10754 |         9027891 |                     0 |       7931138 | 2017-02-08 16:41:03.707092+01

 2017-02-08 17:19:52.18975+01 | 1486570792.18975 |                 0 |               8 |                  5615 |                  368 |             724742 |       1084292 |            10759 |         9027891 |                     0 |       7935276 | 2017-02-08 16:41:03.707092+01

 2017-02-08 17:19:53.288638+01 | 1486570793.28864 |                 0 |               8 |                  5615 |                  368 |             724742 |       1084892 |            10765 |         9027891 |                     0 |       7940410 | 2017-02-08 16:41:03.707092+01

 2017-02-08 17:19:54.399006+01 | 1486570794.39901 |                 0 |               8 |                  5615 |                  368 |             724742 |       1085392 |            10770 |         9027891 |                     0 |       7944510 | 2017-02-08 16:41:03.707092+01

 2017-02-08 17:19:55.485581+01 | 1486570795.48558 |                 0 |               8 |                  5615 |                  368 |             724742 |       1085992 |            10776 |         9027891 |                     0 |       7949739 | 2017-02-08 16:41:03.707092+01

 2017-02-08 17:19:56.595226+01 | 1486570796.59523 |                 0 |               8 |                  5615 |                  368 |             724742 |       1086492 |            10781 |         9027891 |                     0 |       7953736 | 2017-02-08 16:41:03.707092+01

 2017-02-08 17:19:57.754457+01 | 1486570797.75446 |                 0 |               8 |                  5615 |                  368 |             724742 |       1087092 |            10787 |         9027891 |                     0 |       7959012 | 2017-02-08 16:41:03.707092+01

 2017-02-08 17:19:58.890463+01 | 1486570798.89046 |                 0 |               8 |                  5615 |                  368 |             724742 |       1087692 |            10793 |         9027891 |                     0 |       7964118 | 2017-02-08 16:41:03.707092+01

 2017-02-08 17:20:00.014686+01 | 1486570800.01469 |                 0 |               8 |                  5615 |                  368 |             724742 |       1088192 |            10798 |         9027891 |                     0 |       7968427 | 2017-02-08 16:41:03.707092+01

 2017-02-08 17:20:01.088484+01 | 1486570801.08848 |                 0 |               8 |                  5615 |                  368 |             724742 |       1088792 |            10804 |         9027891 |                     0 |       7973643 | 2017-02-08 16:41:03.707092+01

 2017-02-08 17:20:02.197783+01 | 1486570802.19778 |                 0 |               8 |                  5615 |                  368 |             724742 |       1089292 |            10809 |         9027891 |                     0 |       7977815 | 2017-02-08 16:41:03.707092+01

 2017-02-08 17:20:03.283941+01 | 1486570803.28394 |                 0 |               8 |                  5615 |                  368 |             724742 |       1089892 |            10815 |         9027891 |                     0 |       7983124 | 2017-02-08 16:41:03.707092+01

 2017-02-08 17:20:04.417811+01 | 1486570804.41781 |                 0 |               8 |                  5615 |                  368 |             724742 |       1090392 |            10820 |         9027891 |                     0 |       7987347 | 2017-02-08 16:41:03.707092+01

 2017-02-08 17:20:05.545922+01 | 1486570805.54592 |                 0 |               8 |                  5615 |                  368 |             724742 |       1090992 |            10826 |         9085027 |                     0 |       7992714 | 2017-02-08 16:41:03.707092+01

 2017-02-08 17:20:06.676293+01 | 1486570806.67629 |                 0 |               8 |                  5615 |                  368 |             724742 |       1091492 |            10831 |         9085027 |                     0 |       7996953 | 2017-02-08 16:41:03.707092+01

 2017-02-08 17:20:07.808288+01 | 1486570807.80829 |                 0 |               8 |                  5615 |                  368 |             724742 |       1092092 |            10837 |         9085027 |                     0 |       8002090 | 2017-02-08 16:41:03.707092+01

 2017-02-08 17:20:08.970561+01 | 1486570808.97056 |                 0 |               8 |                  5615 |                  368 |             724742 |       1092692 |            10843 |         9085027 |                     0 |       8006960 | 2017-02-08 16:41:03.707092+01

 2017-02-08 17:20:10.104324+01 | 1486570810.10432 |                 0 |               8 |                  5615 |                  368 |             724742 |       1093192 |            10848 |         9085027 |                     0 |       8011273 | 2017-02-08 16:41:03.707092+01

 2017-02-08 17:20:11.220298+01 | 1486570811.2203 |                 0 |               8 |                  5615 |                  368 |             724742 |       1093792 |            10854 |         9085027 |                     0 |       8016306 | 2017-02-08 16:41:03.707092+01

 2017-02-08 17:20:12.30895+01 | 1486570812.30895 |                 0 |               8 |                  5615 |                  368 |             724742 |       1094392 |            10860 |         9085027 |                     0 |       8021530 | 2017-02-08 16:41:03.707092+01

 2017-02-08 17:20:13.442214+01 | 1486570813.44221 |                 0 |               8 |                  5615 |                  368 |             724742 |       1094892 |            10865 |         9085027 |                     0 |       8025625 | 2017-02-08 16:41:03.707092+01

 2017-02-08 17:20:14.537437+01 | 1486570814.53744 |                 0 |               8 |                  5615 |                  368 |             724742 |       1095492 |            10871 |         9085027 |                     0 |       8030930 | 2017-02-08 16:41:03.707092+01

 2017-02-08 17:20:15.666486+01 | 1486570815.66649 |                 0 |               8 |                  5615 |                  368 |             724742 |       1095992 |            10876 |         9085027 |                     0 |       8035258 | 2017-02-08 16:41:03.707092+01

 2017-02-08 17:20:16.813154+01 | 1486570816.81315 |                 0 |               8 |                  5615 |                  368 |             724742 |       1096592 |            10882 |         9085027 |                     0 |       8040534 | 2017-02-08 16:41:03.707092+01

 2017-02-08 17:20:17.907424+01 | 1486570817.90742 |                 0 |               8 |                  5615 |                  368 |             724742 |       1097092 |            10887 |         9085027 |                     0 |       8044902 | 2017-02-08 16:41:03.707092+01

 2017-02-08 17:20:19.030424+01 | 1486570819.03042 |                 0 |               8 |                  5615 |                  368 |             724742 |       1097692 |            10893 |         9085027 |                     0 |       8050147 | 2017-02-08 16:41:03.707092+01

 2017-02-08 17:20:20.156138+01 | 1486570820.15614 |                 0 |               8 |                  5615 |                  368 |             724742 |       1098192 |            10898 |         9085027 |                     0 |       8054573 | 2017-02-08 16:41:03.707092+01

 2017-02-08 17:20:21.254849+01 | 1486570821.25485 |                 0 |               8 |                  5615 |                  368 |             724742 |       1098792 |            10904 |         9085027 |                     0 |       8059536 | 2017-02-08 16:41:03.707092+01

 2017-02-08 17:20:22.357964+01 | 1486570822.35796 |                 0 |               8 |                  5615 |                  368 |             724742 |       1099292 |            10909 |         9142263 |                     0 |       8063497 | 2017-02-08 16:41:03.707092+01

 2017-02-08 17:20:23.454335+01 | 1486570823.45433 |                 0 |               8 |                  5615 |                  368 |             724742 |       1099892 |            10915 |         9142263 |                     0 |       8068647 | 2017-02-08 16:41:03.707092+01

 2017-02-08 17:20:24.558626+01 | 1486570824.55863 |                 0 |               8 |                  5615 |                  368 |             724742 |       1100392 |            10920 |         9142263 |                     0 |       8072818 | 2017-02-08 16:41:03.707092+01

 2017-02-08 17:20:25.682169+01 | 1486570825.68217 |                 0 |               8 |                  5615 |                  368 |             724742 |       1100992 |            10926 |         9142263 |                     0 |       8078133 | 2017-02-08 16:41:03.707092+01

 2017-02-08 17:20:26.768447+01 | 1486570826.76845 |                 0 |               8 |                  5615 |                  368 |             724742 |       1101592 |            10932 |         9142263 |                     0 |       8083104 | 2017-02-08 16:41:03.707092+01

 2017-02-08 17:20:27.889797+01 | 1486570827.8898 |                 0 |               8 |                  5615 |                  368 |             724742 |       1102092 |            10937 |         9142263 |                     0 |       8087123 | 2017-02-08 16:41:03.707092+01

 2017-02-08 17:20:28.994287+01 | 1486570828.99429 |                 0 |               8 |                  5615 |                  368 |             724742 |       1102692 |            10943 |         9142263 |                     0 |       8092377 | 2017-02-08 16:41:03.707092+01

 2017-02-08 17:20:30.130224+01 | 1486570830.13022 |                 0 |               8 |                  5615 |                  368 |             724742 |       1103192 |            10948 |         9142263 |                     0 |       8096442 | 2017-02-08 16:41:03.707092+01

 2017-02-08 17:20:31.238908+01 | 1486570831.23891 |                 0 |               8 |                  5615 |                  368 |             724742 |       1103792 |            10954 |         9142263 |                     0 |       8101743 | 2017-02-08 16:41:03.707092+01

 2017-02-08 17:20:32.336732+01 | 1486570832.33673 |                 0 |               8 |                  5615 |                  368 |             724742 |       1104292 |            10959 |         9142263 |                     0 |       8105804 | 2017-02-08 16:41:03.707092+01

 2017-02-08 17:20:33.444253+01 | 1486570833.44425 |                 0 |               8 |                  5615 |                  368 |             724742 |       1104892 |            10965 |         9142263 |                     0 |       8110957 | 2017-02-08 16:41:03.707092+01

 2017-02-08 17:20:34.557289+01 | 1486570834.55729 |                 0 |               8 |                  5615 |                  368 |             724742 |       1105392 |            10970 |         9142263 |                     0 |       8115164 | 2017-02-08 16:41:03.707092+01

 2017-02-08 17:20:35.652059+01 | 1486570835.65206 |                 0 |               8 |                  5615 |                  368 |             724742 |       1105992 |            10976 |         9142263 |                     0 |       8120373 | 2017-02-08 16:41:03.707092+01

 2017-02-08 17:20:36.762175+01 | 1486570836.76218 |                 0 |               8 |                  5615 |                  368 |             724742 |       1106592 |            10982 |         9142263 |                     0 |       8125276 | 2017-02-08 16:41:03.707092+01

 2017-02-08 17:20:37.88816+01 | 1486570837.88816 |                 0 |               8 |                  5615 |                  368 |             724742 |       1107092 |            10987 |         9142263 |                     0 |       8129333 | 2017-02-08 16:41:03.707092+01

 2017-02-08 17:20:39.026969+01 | 1486570839.02697 |                 0 |               8 |                  5615 |                  368 |             724742 |       1107592 |            10992 |         9199599 |                     0 |       8133310 | 2017-02-08 16:41:03.707092+01

 2017-02-08 17:20:40.171028+01 | 1486570840.17103 |                 0 |               8 |                  5615 |                  368 |             724742 |       1108192 |            10998 |         9199599 |                     0 |       8138442 | 2017-02-08 16:41:03.707092+01

 2017-02-08 17:20:41.275356+01 | 1486570841.27536 |                 0 |               8 |                  5615 |                  368 |             724742 |       1108792 |            11004 |         9199599 |                     0 |       8143352 | 2017-02-08 16:41:03.707092+01

 2017-02-08 17:20:42.369544+01 | 1486570842.36954 |                 0 |               8 |                  5615 |                  368 |             724742 |       1109292 |            11009 |         9199599 |                     0 |       8147274 | 2017-02-08 16:41:03.707092+01

 2017-02-08 17:20:43.46245+01 | 1486570843.46245 |                 0 |               8 |                  5615 |                  368 |             724742 |       1109892 |            11015 |         9199599 |                     0 |       8152126 | 2017-02-08 16:41:03.707092+01

 2017-02-08 17:20:44.544165+01 | 1486570844.54416 |                 0 |               8 |                  5615 |                  368 |             724742 |       1110392 |            11020 |         9199599 |                     0 |       8156086 | 2017-02-08 16:41:03.707092+01

 2017-02-08 17:20:45.69202+01 | 1486570845.69202 |                 0 |               8 |                  5615 |                  368 |             724742 |       1110892 |            11025 |         9199599 |                     0 |       8160247 | 2017-02-08 16:41:03.707092+01

 2017-02-08 17:20:46.802724+01 | 1486570846.80272 |                 0 |               8 |                  5615 |                  368 |             724742 |       1111492 |            11031 |         9199599 |                     0 |       8164957 | 2017-02-08 16:41:03.707092+01

 2017-02-08 17:20:47.921202+01 | 1486570847.9212 |                 0 |               8 |                  5615 |                  368 |             724742 |       1112092 |            11037 |         9199599 |                     0 |       8169719 | 2017-02-08 16:41:03.707092+01

 2017-02-08 17:20:49.043655+01 | 1486570849.04365 |                 0 |               8 |                  5615 |                  368 |             724742 |       1112592 |            11042 |         9199599 |                     0 |       8173913 | 2017-02-08 16:41:03.707092+01

 2017-02-08 17:20:50.178515+01 | 1486570850.17851 |                 0 |               8 |                  5615 |                  368 |             724742 |       1113192 |            11048 |         9199599 |                     0 |       8178703 | 2017-02-08 16:41:03.707092+01

 2017-02-08 17:20:51.284054+01 | 1486570851.28405 |                 0 |               8 |                  5615 |                  368 |             724742 |       1113692 |            11053 |         9199599 |                     0 |       8182768 | 2017-02-08 16:41:03.707092+01

 2017-02-08 17:20:52.426034+01 | 1486570852.42603 |                 0 |               8 |                  5615 |                  368 |             724742 |       1114292 |            11059 |         9258635 |                     0 |       8187483 | 2017-02-08 16:41:03.707092+01

 2017-02-08 17:20:53.525927+01 | 1486570853.52593 |                 0 |               8 |                  5615 |                  368 |             724742 |       1114892 |            11065 |         9258635 |                     0 |       8192132 | 2017-02-08 16:41:03.707092+01

 2017-02-08 17:20:54.623949+01 | 1486570854.62395 |                 0 |               8 |                  5615 |                  368 |             724742 |       1115392 |            11070 |         9258635 |                     0 |       8196227 | 2017-02-08 16:41:03.707092+01

 2017-02-08 17:20:55.771564+01 | 1486570855.77156 |                 0 |               8 |                  5615 |                  368 |             724742 |       1115992 |            11076 |         9258635 |                     0 |       8201047 | 2017-02-08 16:41:03.707092+01

 2017-02-08 17:20:56.841976+01 | 1486570856.84198 |                 0 |               8 |                  5615 |                  368 |             724742 |       1116492 |            11081 |         9258635 |                     0 |       8205200 | 2017-02-08 16:41:03.707092+01

 2017-02-08 17:20:57.928674+01 | 1486570857.92867 |                 0 |               8 |                  5615 |                  368 |             724742 |       1116992 |            11086 |         9258635 |                     0 |       8209297 | 2017-02-08 16:41:03.707092+01

 2017-02-08 17:20:59.039631+01 | 1486570859.03963 |                 0 |               8 |                  5615 |                  368 |             724742 |       1117592 |            11092 |         9258635 |                     0 |       8214239 | 2017-02-08 16:41:03.707092+01

 2017-02-08 17:21:00.154422+01 | 1486570860.15442 |                 0 |               8 |                  5615 |                  368 |             724742 |       1118092 |            11097 |         9258635 |                     0 |       8218632 | 2017-02-08 16:41:03.707092+01

 2017-02-08 17:21:01.241084+01 | 1486570861.24108 |                 0 |               8 |                  5615 |                  368 |             724742 |       1118692 |            11103 |         9258635 |                     0 |       8223732 | 2017-02-08 16:41:03.707092+01

 2017-02-08 17:21:02.365223+01 | 1486570862.36522 |                 0 |               8 |                  5615 |                  368 |             724742 |       1119192 |            11108 |         9258635 |                     0 |       8227729 | 2017-02-08 16:41:03.707092+01

 2017-02-08 17:21:03.471789+01 | 1486570863.47179 |                 0 |               8 |                  5615 |                  368 |             724742 |       1119792 |            11114 |         9258635 |                     0 |       8232752 | 2017-02-08 16:41:03.707092+01

 2017-02-08 17:21:04.567934+01 | 1486570864.56793 |                 0 |               8 |                  5615 |                  368 |             724742 |       1120392 |            11120 |         9317972 |                     0 |       8237752 | 2017-02-08 16:41:03.707092+01

 2017-02-08 17:21:05.684926+01 | 1486570865.68493 |                 0 |               8 |                  5615 |                  368 |             724742 |       1120892 |            11125 |         9317972 |                     0 |       8241893 | 2017-02-08 16:41:03.707092+01

 2017-02-08 17:21:06.810709+01 | 1486570866.81071 |                 0 |               8 |                  5615 |                  368 |             724742 |       1121492 |            11131 |         9317972 |                     0 |       8247123 | 2017-02-08 16:41:03.707092+01

 2017-02-08 17:21:07.952712+01 | 1486570867.95271 |                 0 |               8 |                  5615 |                  368 |             724742 |       1121992 |            11136 |         9317972 |                     0 |       8251201 | 2017-02-08 16:41:03.707092+01

 2017-02-08 17:21:09.048346+01 | 1486570869.04835 |                 0 |               8 |                  5615 |                  368 |             724742 |       1122592 |            11142 |         9317972 |                     0 |       8256362 | 2017-02-08 16:41:03.707092+01

 2017-02-08 17:21:10.177231+01 | 1486570870.17723 |                 0 |               8 |                  5615 |                  368 |             724742 |       1123092 |            11147 |         9317972 |                     0 |       8260678 | 2017-02-08 16:41:03.707092+01

 2017-02-08 17:21:11.302531+01 | 1486570871.30253 |                 0 |               8 |                  5615 |                  368 |             724742 |       1123692 |            11153 |         9317972 |                     0 |       8265751 | 2017-02-08 16:41:03.707092+01

 2017-02-08 17:21:12.423479+01 | 1486570872.42348 |                 0 |               8 |                  5615 |                  368 |             724742 |       1124192 |            11158 |         9317972 |                     0 |       8269956 | 2017-02-08 16:41:03.707092+01

 2017-02-08 17:21:13.541324+01 | 1486570873.54132 |                 0 |               8 |                  5615 |                  368 |             724742 |       1124792 |            11164 |         9317972 |                     0 |       8275057 | 2017-02-08 16:41:03.707092+01

 2017-02-08 17:21:14.615169+01 | 1486570874.61517 |                 0 |               8 |                  5615 |                  368 |             724742 |       1125392 |            11170 |         9317972 |                     0 |       8280392 | 2017-02-08 16:41:03.707092+01

 2017-02-08 17:21:15.73719+01 | 1486570875.73719 |                 0 |               8 |                  5615 |                  368 |             724742 |       1125892 |            11175 |         9317972 |                     0 |       8284563 | 2017-02-08 16:41:03.707092+01

 2017-02-08 17:21:16.845749+01 | 1486570876.84575 |                 0 |               8 |                  5615 |                  368 |             724742 |       1126392 |            11180 |         9377508 |                     0 |       8289040 | 2017-02-08 16:41:03.707092+01

 2017-02-08 17:21:17.927803+01 | 1486570877.9278 |                 0 |               8 |                  5615 |                  368 |             724742 |       1126992 |            11186 |         9377508 |                     0 |       8293965 | 2017-02-08 16:41:03.707092+01

 2017-02-08 17:21:19.049654+01 | 1486570879.04965 |                 0 |               8 |                  5615 |                  368 |             724742 |       1127492 |            11191 |         9377508 |                     0 |       8298198 | 2017-02-08 16:41:03.707092+01

 2017-02-08 17:21:20.174094+01 | 1486570880.17409 |                 0 |               8 |                  5615 |                  368 |             724742 |       1128092 |            11197 |         9377508 |                     0 |       8303458 | 2017-02-08 16:41:03.707092+01

 2017-02-08 17:21:21.301103+01 | 1486570881.3011 |                 0 |               8 |                  5615 |                  368 |             724742 |       1128692 |            11203 |         9377508 |                     0 |       8308837 | 2017-02-08 16:41:03.707092+01

 2017-02-08 17:21:22.409228+01 | 1486570882.40923 |                 0 |               8 |                  5615 |                  368 |             724742 |       1129192 |            11208 |         9377508 |                     0 |       8312927 | 2017-02-08 16:41:03.707092+01

 2017-02-08 17:21:23.531666+01 | 1486570883.53167 |                 0 |               8 |                  5615 |                  368 |             724742 |       1129792 |            11214 |         9377508 |                     0 |       8317835 | 2017-02-08 16:41:03.707092+01

 2017-02-08 17:21:24.682526+01 | 1486570884.68253 |                 0 |               8 |                  5615 |                  368 |             724742 |       1130292 |            11219 |         9377508 |                     0 |       8322135 | 2017-02-08 16:41:03.707092+01

 2017-02-08 17:21:25.808606+01 | 1486570885.80861 |                 0 |               8 |                  5615 |                  368 |             724742 |       1130892 |            11225 |         9377508 |                     0 |       8327108 | 2017-02-08 16:41:03.707092+01

 2017-02-08 17:21:26.901631+01 | 1486570886.90163 |                 0 |               8 |                  5615 |                  368 |             724742 |       1131492 |            11231 |         9377508 |                     0 |       8332234 | 2017-02-08 16:41:03.707092+01

 2017-02-08 17:21:28.015839+01 | 1486570888.01584 |                 0 |               8 |                  5615 |                  368 |             724742 |       1131992 |            11236 |         9377508 |                     0 |       8336570 | 2017-02-08 16:41:03.707092+01

 2017-02-08 17:21:29.108889+01 | 1486570889.10889 |                 0 |               8 |                  5615 |                  368 |             724742 |       1132592 |            11242 |         9437044 |                     0 |       8341535 | 2017-02-08 16:41:03.707092+01

 2017-02-08 17:21:30.181305+01 | 1486570890.1813 |                 0 |               8 |                  5615 |                  368 |             724742 |       1133092 |            11247 |         9437044 |                     0 |       8345846 | 2017-02-08 16:41:03.707092+01

 2017-02-08 17:21:31.295608+01 | 1486570891.29561 |                 0 |               8 |                  5615 |                  368 |             724742 |       1133592 |            11252 |         9437044 |                     0 |       8349970 | 2017-02-08 16:41:03.707092+01

 2017-02-08 17:21:32.410627+01 | 1486570892.41063 |                 0 |               8 |                  5615 |                  368 |             724742 |       1134192 |            11258 |         9437044 |                     0 |       8355081 | 2017-02-08 16:41:03.707092+01

 2017-02-08 17:21:33.516065+01 | 1486570893.51606 |                 0 |               8 |                  5615 |                  368 |             724742 |       1134692 |            11263 |         9437044 |                     0 |       8359429 | 2017-02-08 16:41:03.707092+01

 2017-02-08 17:21:34.681448+01 | 1486570894.68145 |                 0 |               8 |                  5615 |                  368 |             724742 |       1135292 |            11269 |         9437044 |                     0 |       8364427 | 2017-02-08 16:41:03.707092+01

 2017-02-08 17:21:35.788398+01 | 1486570895.7884 |                 0 |               8 |                  5615 |                  368 |             724742 |       1135792 |            11274 |         9437044 |                     0 |       8368284 | 2017-02-08 16:41:03.707092+01

 2017-02-08 17:21:36.879326+01 | 1486570896.87933 |                 0 |               8 |                  5615 |                  368 |             724742 |       1136392 |            11280 |         9437044 |                     0 |       8373458 | 2017-02-08 16:41:03.707092+01

 2017-02-08 17:21:38.015222+01 | 1486570898.01522 |                 0 |               8 |                  5615 |                  368 |             724742 |       1136992 |            11286 |         9437044 |                     0 |       8378785 | 2017-02-08 16:41:03.707092+01

 2017-02-08 17:21:39.163821+01 | 1486570899.16382 |                 0 |               8 |                  5615 |                  368 |             724742 |       1137492 |            11291 |         9437044 |                     0 |       8383312 | 2017-02-08 16:41:03.707092+01

 2017-02-08 17:21:40.279806+01 | 1486570900.27981 |                 0 |               8 |                  5615 |                  368 |             724742 |       1138092 |            11297 |         9437044 |                     0 |       8388912 | 2017-02-08 16:41:03.707092+01

 2017-02-08 17:21:41.418129+01 | 1486570901.41813 |                 0 |               8 |                  5615 |                  368 |             724742 |       1138692 |            11303 |         9496180 |                     0 |       8394862 | 2017-02-08 16:41:03.707092+01

 2017-02-08 17:21:42.56201+01 | 1486570902.56201 |                 0 |               8 |                  5615 |                  368 |             724742 |       1139192 |            11308 |         9496180 |                     0 |       8401041 | 2017-02-08 16:41:03.707092+01

 2017-02-08 17:21:43.695277+01 | 1486570903.69528 |                 0 |               8 |                  5615 |                  368 |             724742 |       1139792 |            11314 |         9496180 |                     0 |       8409502 | 2017-02-08 16:41:03.707092+01

 2017-02-08 17:21:44.839831+01 | 1486570904.83983 |                 0 |               8 |                  5615 |                  368 |             724742 |       1140392 |            11320 |         9496180 |                     0 |       8421965 | 2017-02-08 16:41:03.707092+01

 2017-02-08 17:21:46.003787+01 | 1486570906.00379 |                 0 |               8 |                  5615 |                  368 |             724742 |       1140892 |            11325 |         9496180 |                     0 |       8433053 | 2017-02-08 16:41:03.707092+01

 2017-02-08 17:21:47.07723+01 | 1486570907.07723 |                 0 |               8 |                  5615 |                  368 |             724742 |       1141492 |            11331 |         9496180 |                     0 |       8444853 | 2017-02-08 16:41:03.707092+01

 2017-02-08 17:21:48.195036+01 | 1486570908.19504 |                 0 |               8 |                  5615 |                  368 |             724742 |       1141992 |            11336 |         9496180 |                     0 |       8454379 | 2017-02-08 16:41:03.707092+01

 2017-02-08 17:21:49.310013+01 | 1486570909.31001 |                 0 |               8 |                  5615 |                  368 |             724742 |       1142592 |            11342 |         9557917 |                     0 |       8465850 | 2017-02-08 16:41:03.707092+01

 2017-02-08 17:21:50.379011+01 | 1486570910.37901 |                 0 |               8 |                  5615 |                  368 |             724742 |       1143092 |            11347 |         9557917 |                     0 |       8475308 | 2017-02-08 16:41:03.707092+01

 2017-02-08 17:21:51.482362+01 | 1486570911.48236 |                 0 |               8 |                  5615 |                  368 |             724742 |       1143692 |            11353 |         9557917 |                     0 |       8496160 | 2017-02-08 16:41:03.707092+01

 2017-02-08 17:21:52.586161+01 | 1486570912.58616 |                 0 |               8 |                  5615 |                  368 |             724742 |       1144192 |            11358 |         9557917 |                     0 |       8509411 | 2017-02-08 16:41:03.707092+01

 2017-02-08 17:21:53.688115+01 | 1486570913.68811 |                 0 |               8 |                  5615 |                  368 |             724742 |       1144792 |            11364 |         9557917 |                     0 |       8520165 | 2017-02-08 16:41:03.707092+01

 2017-02-08 17:21:54.818921+01 | 1486570914.81892 |                 0 |               8 |                  5615 |                  368 |             724742 |       1145292 |            11369 |         9557917 |                     0 |       8529138 | 2017-02-08 16:41:03.707092+01

 2017-02-08 17:21:55.930558+01 | 1486570915.93056 |                 0 |               8 |                  5615 |                  368 |             724742 |       1145892 |            11375 |         9620357 |                     0 |       8539811 | 2017-02-08 16:41:03.707092+01

 2017-02-08 17:21:57.030222+01 | 1486570917.03022 |                 0 |               8 |                  5615 |                  368 |             724742 |       1146392 |            11380 |         9620357 |                     0 |       8548027 | 2017-02-08 16:41:03.707092+01

 2017-02-08 17:21:58.130507+01 | 1486570918.13051 |                 0 |               8 |                  5615 |                  368 |             724742 |       1146992 |            11386 |         9620357 |                     0 |       8557688 | 2017-02-08 16:41:03.707092+01

 2017-02-08 17:21:59.226798+01 | 1486570919.2268 |                 0 |               8 |                  5615 |                  368 |             724742 |       1147492 |            11391 |         9620357 |                     0 |       8565054 | 2017-02-08 16:41:03.707092+01

 2017-02-08 17:22:00.3189+01 | 1486570920.3189 |                 0 |               8 |                  5615 |                  368 |             724742 |       1148092 |            11397 |         9620357 |                     0 |       8573390 | 2017-02-08 16:41:03.707092+01

