 2017-02-08 01:49:11.095643+01 | 1486514951.09564 | pgbench_branches_pkey |            16384
 2017-02-08 01:49:11.095643+01 | 1486514951.09564 | pgbench_tellers_pkey  |            32768
 2017-02-08 01:49:11.095643+01 | 1486514951.09564 | pgbench_accounts_pkey |        112336896

 2017-02-08 01:49:12.222415+01 | 1486514952.22241 | pgbench_branches_pkey |            16384
 2017-02-08 01:49:12.222415+01 | 1486514952.22241 | pgbench_tellers_pkey  |            32768
 2017-02-08 01:49:12.222415+01 | 1486514952.22241 | pgbench_accounts_pkey |        112336896

 2017-02-08 01:49:13.387373+01 | 1486514953.38737 | pgbench_branches_pkey |            16384
 2017-02-08 01:49:13.387373+01 | 1486514953.38737 | pgbench_tellers_pkey  |            32768
 2017-02-08 01:49:13.387373+01 | 1486514953.38737 | pgbench_accounts_pkey |        112336896

 2017-02-08 01:49:14.58609+01 | 1486514954.58609 | pgbench_branches_pkey |            16384
 2017-02-08 01:49:14.58609+01 | 1486514954.58609 | pgbench_tellers_pkey  |            32768
 2017-02-08 01:49:14.58609+01 | 1486514954.58609 | pgbench_accounts_pkey |        112336896

 2017-02-08 01:49:15.777657+01 | 1486514955.77766 | pgbench_branches_pkey |            16384
 2017-02-08 01:49:15.777657+01 | 1486514955.77766 | pgbench_tellers_pkey  |            32768
 2017-02-08 01:49:15.777657+01 | 1486514955.77766 | pgbench_accounts_pkey |        112336896

 2017-02-08 01:49:16.970698+01 | 1486514956.9707 | pgbench_branches_pkey |            16384
 2017-02-08 01:49:16.970698+01 | 1486514956.9707 | pgbench_tellers_pkey  |            32768
 2017-02-08 01:49:16.970698+01 | 1486514956.9707 | pgbench_accounts_pkey |        112336896

 2017-02-08 01:49:18.165623+01 | 1486514958.16562 | pgbench_branches_pkey |            16384
 2017-02-08 01:49:18.165623+01 | 1486514958.16562 | pgbench_tellers_pkey  |            32768
 2017-02-08 01:49:18.165623+01 | 1486514958.16562 | pgbench_accounts_pkey |        112336896

 2017-02-08 01:49:19.358928+01 | 1486514959.35893 | pgbench_branches_pkey |            16384
 2017-02-08 01:49:19.358928+01 | 1486514959.35893 | pgbench_tellers_pkey  |            32768
 2017-02-08 01:49:19.358928+01 | 1486514959.35893 | pgbench_accounts_pkey |        112336896

 2017-02-08 01:49:20.526269+01 | 1486514960.52627 | pgbench_branches_pkey |            16384
 2017-02-08 01:49:20.526269+01 | 1486514960.52627 | pgbench_tellers_pkey  |            32768
 2017-02-08 01:49:20.526269+01 | 1486514960.52627 | pgbench_accounts_pkey |        112336896

 2017-02-08 01:49:21.720513+01 | 1486514961.72051 | pgbench_branches_pkey |            16384
 2017-02-08 01:49:21.720513+01 | 1486514961.72051 | pgbench_tellers_pkey  |            32768
 2017-02-08 01:49:21.720513+01 | 1486514961.72051 | pgbench_accounts_pkey |        112336896

 2017-02-08 01:49:22.912926+01 | 1486514962.91293 | pgbench_branches_pkey |            16384
 2017-02-08 01:49:22.912926+01 | 1486514962.91293 | pgbench_tellers_pkey  |            32768
 2017-02-08 01:49:22.912926+01 | 1486514962.91293 | pgbench_accounts_pkey |        112336896

 2017-02-08 01:49:24.107411+01 | 1486514964.10741 | pgbench_branches_pkey |            16384
 2017-02-08 01:49:24.107411+01 | 1486514964.10741 | pgbench_tellers_pkey  |            32768
 2017-02-08 01:49:24.107411+01 | 1486514964.10741 | pgbench_accounts_pkey |        112336896

 2017-02-08 01:49:25.300205+01 | 1486514965.3002 | pgbench_branches_pkey |            16384
 2017-02-08 01:49:25.300205+01 | 1486514965.3002 | pgbench_tellers_pkey  |            32768
 2017-02-08 01:49:25.300205+01 | 1486514965.3002 | pgbench_accounts_pkey |        112336896

 2017-02-08 01:49:26.49323+01 | 1486514966.49323 | pgbench_branches_pkey |            16384
 2017-02-08 01:49:26.49323+01 | 1486514966.49323 | pgbench_tellers_pkey  |            32768
 2017-02-08 01:49:26.49323+01 | 1486514966.49323 | pgbench_accounts_pkey |        112336896

 2017-02-08 01:49:27.688391+01 | 1486514967.68839 | pgbench_branches_pkey |            16384
 2017-02-08 01:49:27.688391+01 | 1486514967.68839 | pgbench_tellers_pkey  |            32768
 2017-02-08 01:49:27.688391+01 | 1486514967.68839 | pgbench_accounts_pkey |        112336896

 2017-02-08 01:49:28.88722+01 | 1486514968.88722 | pgbench_branches_pkey |            16384
 2017-02-08 01:49:28.88722+01 | 1486514968.88722 | pgbench_tellers_pkey  |            32768
 2017-02-08 01:49:28.88722+01 | 1486514968.88722 | pgbench_accounts_pkey |        112336896

 2017-02-08 01:49:30.081945+01 | 1486514970.08194 | pgbench_branches_pkey |            16384
 2017-02-08 01:49:30.081945+01 | 1486514970.08194 | pgbench_tellers_pkey  |            32768
 2017-02-08 01:49:30.081945+01 | 1486514970.08194 | pgbench_accounts_pkey |        112336896

 2017-02-08 01:49:31.281264+01 | 1486514971.28126 | pgbench_branches_pkey |            16384
 2017-02-08 01:49:31.281264+01 | 1486514971.28126 | pgbench_tellers_pkey  |            32768
 2017-02-08 01:49:31.281264+01 | 1486514971.28126 | pgbench_accounts_pkey |        112336896

 2017-02-08 01:49:32.477693+01 | 1486514972.47769 | pgbench_branches_pkey |            16384
 2017-02-08 01:49:32.477693+01 | 1486514972.47769 | pgbench_tellers_pkey  |            32768
 2017-02-08 01:49:32.477693+01 | 1486514972.47769 | pgbench_accounts_pkey |        112336896

 2017-02-08 01:49:33.669006+01 | 1486514973.66901 | pgbench_branches_pkey |            16384
 2017-02-08 01:49:33.669006+01 | 1486514973.66901 | pgbench_tellers_pkey  |            32768
 2017-02-08 01:49:33.669006+01 | 1486514973.66901 | pgbench_accounts_pkey |        112336896

 2017-02-08 01:49:34.865858+01 | 1486514974.86586 | pgbench_branches_pkey |            16384
 2017-02-08 01:49:34.865858+01 | 1486514974.86586 | pgbench_tellers_pkey  |            32768
 2017-02-08 01:49:34.865858+01 | 1486514974.86586 | pgbench_accounts_pkey |        112336896

 2017-02-08 01:49:36.058784+01 | 1486514976.05878 | pgbench_branches_pkey |            16384
 2017-02-08 01:49:36.058784+01 | 1486514976.05878 | pgbench_tellers_pkey  |            32768
 2017-02-08 01:49:36.058784+01 | 1486514976.05878 | pgbench_accounts_pkey |        112336896

 2017-02-08 01:49:37.254581+01 | 1486514977.25458 | pgbench_branches_pkey |            16384
 2017-02-08 01:49:37.254581+01 | 1486514977.25458 | pgbench_tellers_pkey  |            32768
 2017-02-08 01:49:37.254581+01 | 1486514977.25458 | pgbench_accounts_pkey |        112336896

 2017-02-08 01:49:38.448347+01 | 1486514978.44835 | pgbench_branches_pkey |            16384
 2017-02-08 01:49:38.448347+01 | 1486514978.44835 | pgbench_tellers_pkey  |            32768
 2017-02-08 01:49:38.448347+01 | 1486514978.44835 | pgbench_accounts_pkey |        112336896

 2017-02-08 01:49:39.548242+01 | 1486514979.54824 | pgbench_branches_pkey |            16384
 2017-02-08 01:49:39.548242+01 | 1486514979.54824 | pgbench_tellers_pkey  |            32768
 2017-02-08 01:49:39.548242+01 | 1486514979.54824 | pgbench_accounts_pkey |        112336896

 2017-02-08 01:49:40.659589+01 | 1486514980.65959 | pgbench_branches_pkey |            16384
 2017-02-08 01:49:40.659589+01 | 1486514980.65959 | pgbench_tellers_pkey  |            32768
 2017-02-08 01:49:40.659589+01 | 1486514980.65959 | pgbench_accounts_pkey |        112336896

 2017-02-08 01:49:41.835209+01 | 1486514981.83521 | pgbench_branches_pkey |            16384
 2017-02-08 01:49:41.835209+01 | 1486514981.83521 | pgbench_tellers_pkey  |            32768
 2017-02-08 01:49:41.835209+01 | 1486514981.83521 | pgbench_accounts_pkey |        112336896

 2017-02-08 01:49:43.029429+01 | 1486514983.02943 | pgbench_branches_pkey |            16384
 2017-02-08 01:49:43.029429+01 | 1486514983.02943 | pgbench_tellers_pkey  |            32768
 2017-02-08 01:49:43.029429+01 | 1486514983.02943 | pgbench_accounts_pkey |        112336896

 2017-02-08 01:49:44.195091+01 | 1486514984.19509 | pgbench_branches_pkey |            16384
 2017-02-08 01:49:44.195091+01 | 1486514984.19509 | pgbench_tellers_pkey  |            32768
 2017-02-08 01:49:44.195091+01 | 1486514984.19509 | pgbench_accounts_pkey |        112336896

 2017-02-08 01:49:45.389126+01 | 1486514985.38913 | pgbench_branches_pkey |            16384
 2017-02-08 01:49:45.389126+01 | 1486514985.38913 | pgbench_tellers_pkey  |            32768
 2017-02-08 01:49:45.389126+01 | 1486514985.38913 | pgbench_accounts_pkey |        112336896

 2017-02-08 01:49:46.545229+01 | 1486514986.54523 | pgbench_branches_pkey |            16384
 2017-02-08 01:49:46.545229+01 | 1486514986.54523 | pgbench_tellers_pkey  |            32768
 2017-02-08 01:49:46.545229+01 | 1486514986.54523 | pgbench_accounts_pkey |        112336896

 2017-02-08 01:49:47.624848+01 | 1486514987.62485 | pgbench_branches_pkey |            16384
 2017-02-08 01:49:47.624848+01 | 1486514987.62485 | pgbench_tellers_pkey  |            32768
 2017-02-08 01:49:47.624848+01 | 1486514987.62485 | pgbench_accounts_pkey |        112336896

 2017-02-08 01:49:48.772103+01 | 1486514988.7721 | pgbench_branches_pkey |            16384
 2017-02-08 01:49:48.772103+01 | 1486514988.7721 | pgbench_tellers_pkey  |            32768
 2017-02-08 01:49:48.772103+01 | 1486514988.7721 | pgbench_accounts_pkey |        112336896

 2017-02-08 01:49:49.958857+01 | 1486514989.95886 | pgbench_branches_pkey |            16384
 2017-02-08 01:49:49.958857+01 | 1486514989.95886 | pgbench_tellers_pkey  |            32768
 2017-02-08 01:49:49.958857+01 | 1486514989.95886 | pgbench_accounts_pkey |        112336896

 2017-02-08 01:49:51.157205+01 | 1486514991.15721 | pgbench_branches_pkey |            16384
 2017-02-08 01:49:51.157205+01 | 1486514991.15721 | pgbench_tellers_pkey  |            32768
 2017-02-08 01:49:51.157205+01 | 1486514991.15721 | pgbench_accounts_pkey |        112336896

 2017-02-08 01:49:52.34671+01 | 1486514992.34671 | pgbench_branches_pkey |            16384
 2017-02-08 01:49:52.34671+01 | 1486514992.34671 | pgbench_tellers_pkey  |            32768
 2017-02-08 01:49:52.34671+01 | 1486514992.34671 | pgbench_accounts_pkey |        112336896

 2017-02-08 01:49:53.519918+01 | 1486514993.51992 | pgbench_branches_pkey |            16384
 2017-02-08 01:49:53.519918+01 | 1486514993.51992 | pgbench_tellers_pkey  |            32768
 2017-02-08 01:49:53.519918+01 | 1486514993.51992 | pgbench_accounts_pkey |        112336896

 2017-02-08 01:49:54.685189+01 | 1486514994.68519 | pgbench_branches_pkey |            16384
 2017-02-08 01:49:54.685189+01 | 1486514994.68519 | pgbench_tellers_pkey  |            32768
 2017-02-08 01:49:54.685189+01 | 1486514994.68519 | pgbench_accounts_pkey |        112336896

 2017-02-08 01:49:55.878011+01 | 1486514995.87801 | pgbench_branches_pkey |            16384
 2017-02-08 01:49:55.878011+01 | 1486514995.87801 | pgbench_tellers_pkey  |            32768
 2017-02-08 01:49:55.878011+01 | 1486514995.87801 | pgbench_accounts_pkey |        112336896

 2017-02-08 01:49:57.073075+01 | 1486514997.07308 | pgbench_branches_pkey |            16384
 2017-02-08 01:49:57.073075+01 | 1486514997.07308 | pgbench_tellers_pkey  |            32768
 2017-02-08 01:49:57.073075+01 | 1486514997.07308 | pgbench_accounts_pkey |        112336896

 2017-02-08 01:49:58.270819+01 | 1486514998.27082 | pgbench_branches_pkey |            16384
 2017-02-08 01:49:58.270819+01 | 1486514998.27082 | pgbench_tellers_pkey  |            32768
 2017-02-08 01:49:58.270819+01 | 1486514998.27082 | pgbench_accounts_pkey |        112336896

 2017-02-08 01:49:59.447196+01 | 1486514999.4472 | pgbench_branches_pkey |            16384
 2017-02-08 01:49:59.447196+01 | 1486514999.4472 | pgbench_tellers_pkey  |            32768
 2017-02-08 01:49:59.447196+01 | 1486514999.4472 | pgbench_accounts_pkey |        112336896

 2017-02-08 01:50:00.620539+01 | 1486515000.62054 | pgbench_branches_pkey |            16384
 2017-02-08 01:50:00.620539+01 | 1486515000.62054 | pgbench_tellers_pkey  |            32768
 2017-02-08 01:50:00.620539+01 | 1486515000.62054 | pgbench_accounts_pkey |        112336896

 2017-02-08 01:50:01.812157+01 | 1486515001.81216 | pgbench_branches_pkey |            16384
 2017-02-08 01:50:01.812157+01 | 1486515001.81216 | pgbench_tellers_pkey  |            32768
 2017-02-08 01:50:01.812157+01 | 1486515001.81216 | pgbench_accounts_pkey |        112336896

 2017-02-08 01:50:03.000824+01 | 1486515003.00082 | pgbench_branches_pkey |            16384
 2017-02-08 01:50:03.000824+01 | 1486515003.00082 | pgbench_tellers_pkey  |            32768
 2017-02-08 01:50:03.000824+01 | 1486515003.00082 | pgbench_accounts_pkey |        112336896

 2017-02-08 01:50:04.199735+01 | 1486515004.19973 | pgbench_branches_pkey |            16384
 2017-02-08 01:50:04.199735+01 | 1486515004.19973 | pgbench_tellers_pkey  |            32768
 2017-02-08 01:50:04.199735+01 | 1486515004.19973 | pgbench_accounts_pkey |        112336896

 2017-02-08 01:50:05.393062+01 | 1486515005.39306 | pgbench_branches_pkey |            16384
 2017-02-08 01:50:05.393062+01 | 1486515005.39306 | pgbench_tellers_pkey  |            32768
 2017-02-08 01:50:05.393062+01 | 1486515005.39306 | pgbench_accounts_pkey |        112336896

 2017-02-08 01:50:06.591696+01 | 1486515006.5917 | pgbench_branches_pkey |            16384
 2017-02-08 01:50:06.591696+01 | 1486515006.5917 | pgbench_tellers_pkey  |            32768
 2017-02-08 01:50:06.591696+01 | 1486515006.5917 | pgbench_accounts_pkey |        112336896

 2017-02-08 01:50:07.776833+01 | 1486515007.77683 | pgbench_branches_pkey |            16384
 2017-02-08 01:50:07.776833+01 | 1486515007.77683 | pgbench_tellers_pkey  |            32768
 2017-02-08 01:50:07.776833+01 | 1486515007.77683 | pgbench_accounts_pkey |        112336896

 2017-02-08 01:50:08.969347+01 | 1486515008.96935 | pgbench_branches_pkey |            16384
 2017-02-08 01:50:08.969347+01 | 1486515008.96935 | pgbench_tellers_pkey  |            32768
 2017-02-08 01:50:08.969347+01 | 1486515008.96935 | pgbench_accounts_pkey |        112336896

 2017-02-08 01:50:10.165262+01 | 1486515010.16526 | pgbench_branches_pkey |            16384
 2017-02-08 01:50:10.165262+01 | 1486515010.16526 | pgbench_tellers_pkey  |            32768
 2017-02-08 01:50:10.165262+01 | 1486515010.16526 | pgbench_accounts_pkey |        112336896

 2017-02-08 01:50:11.358965+01 | 1486515011.35896 | pgbench_branches_pkey |            16384
 2017-02-08 01:50:11.358965+01 | 1486515011.35896 | pgbench_tellers_pkey  |            32768
 2017-02-08 01:50:11.358965+01 | 1486515011.35896 | pgbench_accounts_pkey |        112336896

 2017-02-08 01:50:12.554667+01 | 1486515012.55467 | pgbench_branches_pkey |            16384
 2017-02-08 01:50:12.554667+01 | 1486515012.55467 | pgbench_tellers_pkey  |            32768
 2017-02-08 01:50:12.554667+01 | 1486515012.55467 | pgbench_accounts_pkey |        112336896

 2017-02-08 01:50:13.746208+01 | 1486515013.74621 | pgbench_branches_pkey |            16384
 2017-02-08 01:50:13.746208+01 | 1486515013.74621 | pgbench_tellers_pkey  |            32768
 2017-02-08 01:50:13.746208+01 | 1486515013.74621 | pgbench_accounts_pkey |        112336896

 2017-02-08 01:50:14.940981+01 | 1486515014.94098 | pgbench_branches_pkey |            16384
 2017-02-08 01:50:14.940981+01 | 1486515014.94098 | pgbench_tellers_pkey  |            32768
 2017-02-08 01:50:14.940981+01 | 1486515014.94098 | pgbench_accounts_pkey |        112336896

 2017-02-08 01:50:16.133485+01 | 1486515016.13349 | pgbench_branches_pkey |            16384
 2017-02-08 01:50:16.133485+01 | 1486515016.13349 | pgbench_tellers_pkey  |            32768
 2017-02-08 01:50:16.133485+01 | 1486515016.13349 | pgbench_accounts_pkey |        112336896

 2017-02-08 01:50:17.326668+01 | 1486515017.32667 | pgbench_branches_pkey |            16384
 2017-02-08 01:50:17.326668+01 | 1486515017.32667 | pgbench_tellers_pkey  |            32768
 2017-02-08 01:50:17.326668+01 | 1486515017.32667 | pgbench_accounts_pkey |        112336896

 2017-02-08 01:50:18.479214+01 | 1486515018.47921 | pgbench_branches_pkey |            16384
 2017-02-08 01:50:18.479214+01 | 1486515018.47921 | pgbench_tellers_pkey  |            32768
 2017-02-08 01:50:18.479214+01 | 1486515018.47921 | pgbench_accounts_pkey |        112336896

 2017-02-08 01:50:19.583119+01 | 1486515019.58312 | pgbench_branches_pkey |            16384
 2017-02-08 01:50:19.583119+01 | 1486515019.58312 | pgbench_tellers_pkey  |            32768
 2017-02-08 01:50:19.583119+01 | 1486515019.58312 | pgbench_accounts_pkey |        112336896

 2017-02-08 01:50:20.736853+01 | 1486515020.73685 | pgbench_branches_pkey |            16384
 2017-02-08 01:50:20.736853+01 | 1486515020.73685 | pgbench_tellers_pkey  |            32768
 2017-02-08 01:50:20.736853+01 | 1486515020.73685 | pgbench_accounts_pkey |        112336896

 2017-02-08 01:50:21.930497+01 | 1486515021.9305 | pgbench_branches_pkey |            16384
 2017-02-08 01:50:21.930497+01 | 1486515021.9305 | pgbench_tellers_pkey  |            32768
 2017-02-08 01:50:21.930497+01 | 1486515021.9305 | pgbench_accounts_pkey |        112336896

 2017-02-08 01:50:23.126306+01 | 1486515023.12631 | pgbench_branches_pkey |            16384
 2017-02-08 01:50:23.126306+01 | 1486515023.12631 | pgbench_tellers_pkey  |            32768
 2017-02-08 01:50:23.126306+01 | 1486515023.12631 | pgbench_accounts_pkey |        112336896

 2017-02-08 01:50:24.320361+01 | 1486515024.32036 | pgbench_branches_pkey |            16384
 2017-02-08 01:50:24.320361+01 | 1486515024.32036 | pgbench_tellers_pkey  |            32768
 2017-02-08 01:50:24.320361+01 | 1486515024.32036 | pgbench_accounts_pkey |        112336896

 2017-02-08 01:50:25.466821+01 | 1486515025.46682 | pgbench_branches_pkey |            16384
 2017-02-08 01:50:25.466821+01 | 1486515025.46682 | pgbench_tellers_pkey  |            32768
 2017-02-08 01:50:25.466821+01 | 1486515025.46682 | pgbench_accounts_pkey |        112336896

 2017-02-08 01:50:26.624938+01 | 1486515026.62494 | pgbench_branches_pkey |            16384
 2017-02-08 01:50:26.624938+01 | 1486515026.62494 | pgbench_tellers_pkey  |            32768
 2017-02-08 01:50:26.624938+01 | 1486515026.62494 | pgbench_accounts_pkey |        112336896

 2017-02-08 01:50:27.819715+01 | 1486515027.81972 | pgbench_branches_pkey |            16384
 2017-02-08 01:50:27.819715+01 | 1486515027.81972 | pgbench_tellers_pkey  |            32768
 2017-02-08 01:50:27.819715+01 | 1486515027.81972 | pgbench_accounts_pkey |        112336896

 2017-02-08 01:50:29.01187+01 | 1486515029.01187 | pgbench_branches_pkey |            16384
 2017-02-08 01:50:29.01187+01 | 1486515029.01187 | pgbench_tellers_pkey  |            32768
 2017-02-08 01:50:29.01187+01 | 1486515029.01187 | pgbench_accounts_pkey |        112336896

 2017-02-08 01:50:30.206269+01 | 1486515030.20627 | pgbench_branches_pkey |            16384
 2017-02-08 01:50:30.206269+01 | 1486515030.20627 | pgbench_tellers_pkey  |            32768
 2017-02-08 01:50:30.206269+01 | 1486515030.20627 | pgbench_accounts_pkey |        112336896

 2017-02-08 01:50:31.374047+01 | 1486515031.37405 | pgbench_branches_pkey |            16384
 2017-02-08 01:50:31.374047+01 | 1486515031.37405 | pgbench_tellers_pkey  |            32768
 2017-02-08 01:50:31.374047+01 | 1486515031.37405 | pgbench_accounts_pkey |        112336896

 2017-02-08 01:50:32.542501+01 | 1486515032.5425 | pgbench_branches_pkey |            16384
 2017-02-08 01:50:32.542501+01 | 1486515032.5425 | pgbench_tellers_pkey  |            32768
 2017-02-08 01:50:32.542501+01 | 1486515032.5425 | pgbench_accounts_pkey |        112336896

 2017-02-08 01:50:33.737249+01 | 1486515033.73725 | pgbench_branches_pkey |            16384
 2017-02-08 01:50:33.737249+01 | 1486515033.73725 | pgbench_tellers_pkey  |            32768
 2017-02-08 01:50:33.737249+01 | 1486515033.73725 | pgbench_accounts_pkey |        112336896

 2017-02-08 01:50:34.893118+01 | 1486515034.89312 | pgbench_branches_pkey |            16384
 2017-02-08 01:50:34.893118+01 | 1486515034.89312 | pgbench_tellers_pkey  |            32768
 2017-02-08 01:50:34.893118+01 | 1486515034.89312 | pgbench_accounts_pkey |        112336896

 2017-02-08 01:50:36.047164+01 | 1486515036.04716 | pgbench_branches_pkey |            16384
 2017-02-08 01:50:36.047164+01 | 1486515036.04716 | pgbench_tellers_pkey  |            32768
 2017-02-08 01:50:36.047164+01 | 1486515036.04716 | pgbench_accounts_pkey |        112336896

 2017-02-08 01:50:37.216784+01 | 1486515037.21678 | pgbench_branches_pkey |            16384
 2017-02-08 01:50:37.216784+01 | 1486515037.21678 | pgbench_tellers_pkey  |            32768
 2017-02-08 01:50:37.216784+01 | 1486515037.21678 | pgbench_accounts_pkey |        112336896

 2017-02-08 01:50:38.407936+01 | 1486515038.40794 | pgbench_branches_pkey |            16384
 2017-02-08 01:50:38.407936+01 | 1486515038.40794 | pgbench_tellers_pkey  |            32768
 2017-02-08 01:50:38.407936+01 | 1486515038.40794 | pgbench_accounts_pkey |        112336896

 2017-02-08 01:50:39.600523+01 | 1486515039.60052 | pgbench_branches_pkey |            16384
 2017-02-08 01:50:39.600523+01 | 1486515039.60052 | pgbench_tellers_pkey  |            32768
 2017-02-08 01:50:39.600523+01 | 1486515039.60052 | pgbench_accounts_pkey |        112336896

 2017-02-08 01:50:40.78017+01 | 1486515040.78017 | pgbench_branches_pkey |            16384
 2017-02-08 01:50:40.78017+01 | 1486515040.78017 | pgbench_tellers_pkey  |            32768
 2017-02-08 01:50:40.78017+01 | 1486515040.78017 | pgbench_accounts_pkey |        112336896

 2017-02-08 01:50:41.948318+01 | 1486515041.94832 | pgbench_branches_pkey |            16384
 2017-02-08 01:50:41.948318+01 | 1486515041.94832 | pgbench_tellers_pkey  |            32768
 2017-02-08 01:50:41.948318+01 | 1486515041.94832 | pgbench_accounts_pkey |        112336896

 2017-02-08 01:50:43.127976+01 | 1486515043.12798 | pgbench_branches_pkey |            16384
 2017-02-08 01:50:43.127976+01 | 1486515043.12798 | pgbench_tellers_pkey  |            32768
 2017-02-08 01:50:43.127976+01 | 1486515043.12798 | pgbench_accounts_pkey |        112336896

 2017-02-08 01:50:44.288201+01 | 1486515044.2882 | pgbench_branches_pkey |            16384
 2017-02-08 01:50:44.288201+01 | 1486515044.2882 | pgbench_tellers_pkey  |            32768
 2017-02-08 01:50:44.288201+01 | 1486515044.2882 | pgbench_accounts_pkey |        112336896

 2017-02-08 01:50:45.483113+01 | 1486515045.48311 | pgbench_branches_pkey |            16384
 2017-02-08 01:50:45.483113+01 | 1486515045.48311 | pgbench_tellers_pkey  |            32768
 2017-02-08 01:50:45.483113+01 | 1486515045.48311 | pgbench_accounts_pkey |        112336896

 2017-02-08 01:50:46.679996+01 | 1486515046.68 | pgbench_branches_pkey |            16384
 2017-02-08 01:50:46.679996+01 | 1486515046.68 | pgbench_tellers_pkey  |            32768
 2017-02-08 01:50:46.679996+01 | 1486515046.68 | pgbench_accounts_pkey |        112336896

 2017-02-08 01:50:47.874676+01 | 1486515047.87468 | pgbench_branches_pkey |            16384
 2017-02-08 01:50:47.874676+01 | 1486515047.87468 | pgbench_tellers_pkey  |            32768
 2017-02-08 01:50:47.874676+01 | 1486515047.87468 | pgbench_accounts_pkey |        112336896

 2017-02-08 01:50:49.056327+01 | 1486515049.05633 | pgbench_branches_pkey |            16384
 2017-02-08 01:50:49.056327+01 | 1486515049.05633 | pgbench_tellers_pkey  |            32768
 2017-02-08 01:50:49.056327+01 | 1486515049.05633 | pgbench_accounts_pkey |        112336896

 2017-02-08 01:50:50.240495+01 | 1486515050.24049 | pgbench_branches_pkey |            16384
 2017-02-08 01:50:50.240495+01 | 1486515050.24049 | pgbench_tellers_pkey  |            32768
 2017-02-08 01:50:50.240495+01 | 1486515050.24049 | pgbench_accounts_pkey |        112336896

 2017-02-08 01:50:51.406475+01 | 1486515051.40648 | pgbench_branches_pkey |            16384
 2017-02-08 01:50:51.406475+01 | 1486515051.40648 | pgbench_tellers_pkey  |            32768
 2017-02-08 01:50:51.406475+01 | 1486515051.40648 | pgbench_accounts_pkey |        112336896

 2017-02-08 01:50:52.601993+01 | 1486515052.60199 | pgbench_branches_pkey |            16384
 2017-02-08 01:50:52.601993+01 | 1486515052.60199 | pgbench_tellers_pkey  |            32768
 2017-02-08 01:50:52.601993+01 | 1486515052.60199 | pgbench_accounts_pkey |        112336896

 2017-02-08 01:50:53.795637+01 | 1486515053.79564 | pgbench_branches_pkey |            16384
 2017-02-08 01:50:53.795637+01 | 1486515053.79564 | pgbench_tellers_pkey  |            32768
 2017-02-08 01:50:53.795637+01 | 1486515053.79564 | pgbench_accounts_pkey |        112336896

 2017-02-08 01:50:54.98709+01 | 1486515054.98709 | pgbench_branches_pkey |            16384
 2017-02-08 01:50:54.98709+01 | 1486515054.98709 | pgbench_tellers_pkey  |            32768
 2017-02-08 01:50:54.98709+01 | 1486515054.98709 | pgbench_accounts_pkey |        112336896

 2017-02-08 01:50:56.180734+01 | 1486515056.18073 | pgbench_branches_pkey |            16384
 2017-02-08 01:50:56.180734+01 | 1486515056.18073 | pgbench_tellers_pkey  |            32768
 2017-02-08 01:50:56.180734+01 | 1486515056.18073 | pgbench_accounts_pkey |        112336896

 2017-02-08 01:50:57.342825+01 | 1486515057.34282 | pgbench_branches_pkey |            16384
 2017-02-08 01:50:57.342825+01 | 1486515057.34282 | pgbench_tellers_pkey  |            32768
 2017-02-08 01:50:57.342825+01 | 1486515057.34282 | pgbench_accounts_pkey |        112336896

 2017-02-08 01:50:58.466626+01 | 1486515058.46663 | pgbench_branches_pkey |            16384
 2017-02-08 01:50:58.466626+01 | 1486515058.46663 | pgbench_tellers_pkey  |            32768
 2017-02-08 01:50:58.466626+01 | 1486515058.46663 | pgbench_accounts_pkey |        112336896

 2017-02-08 01:50:59.646597+01 | 1486515059.6466 | pgbench_branches_pkey |            16384
 2017-02-08 01:50:59.646597+01 | 1486515059.6466 | pgbench_tellers_pkey  |            32768
 2017-02-08 01:50:59.646597+01 | 1486515059.6466 | pgbench_accounts_pkey |        112336896

 2017-02-08 01:51:00.841477+01 | 1486515060.84148 | pgbench_branches_pkey |            16384
 2017-02-08 01:51:00.841477+01 | 1486515060.84148 | pgbench_tellers_pkey  |            32768
 2017-02-08 01:51:00.841477+01 | 1486515060.84148 | pgbench_accounts_pkey |        112336896

 2017-02-08 01:51:02.034528+01 | 1486515062.03453 | pgbench_branches_pkey |            16384
 2017-02-08 01:51:02.034528+01 | 1486515062.03453 | pgbench_tellers_pkey  |            32768
 2017-02-08 01:51:02.034528+01 | 1486515062.03453 | pgbench_accounts_pkey |        112336896

 2017-02-08 01:51:03.227683+01 | 1486515063.22768 | pgbench_branches_pkey |            16384
 2017-02-08 01:51:03.227683+01 | 1486515063.22768 | pgbench_tellers_pkey  |            32768
 2017-02-08 01:51:03.227683+01 | 1486515063.22768 | pgbench_accounts_pkey |        112336896

 2017-02-08 01:51:04.418822+01 | 1486515064.41882 | pgbench_branches_pkey |            16384
 2017-02-08 01:51:04.418822+01 | 1486515064.41882 | pgbench_tellers_pkey  |            32768
 2017-02-08 01:51:04.418822+01 | 1486515064.41882 | pgbench_accounts_pkey |        112336896

 2017-02-08 01:51:05.601033+01 | 1486515065.60103 | pgbench_branches_pkey |            16384
 2017-02-08 01:51:05.601033+01 | 1486515065.60103 | pgbench_tellers_pkey  |            32768
 2017-02-08 01:51:05.601033+01 | 1486515065.60103 | pgbench_accounts_pkey |        112336896

 2017-02-08 01:51:06.80179+01 | 1486515066.80179 | pgbench_branches_pkey |            16384
 2017-02-08 01:51:06.80179+01 | 1486515066.80179 | pgbench_tellers_pkey  |            32768
 2017-02-08 01:51:06.80179+01 | 1486515066.80179 | pgbench_accounts_pkey |        112336896

 2017-02-08 01:51:07.994149+01 | 1486515067.99415 | pgbench_branches_pkey |            16384
 2017-02-08 01:51:07.994149+01 | 1486515067.99415 | pgbench_tellers_pkey  |            32768
 2017-02-08 01:51:07.994149+01 | 1486515067.99415 | pgbench_accounts_pkey |        112336896

 2017-02-08 01:51:09.187075+01 | 1486515069.18707 | pgbench_branches_pkey |            16384
 2017-02-08 01:51:09.187075+01 | 1486515069.18707 | pgbench_tellers_pkey  |            32768
 2017-02-08 01:51:09.187075+01 | 1486515069.18707 | pgbench_accounts_pkey |        112336896

 2017-02-08 01:51:10.381596+01 | 1486515070.3816 | pgbench_branches_pkey |            16384
 2017-02-08 01:51:10.381596+01 | 1486515070.3816 | pgbench_tellers_pkey  |            32768
 2017-02-08 01:51:10.381596+01 | 1486515070.3816 | pgbench_accounts_pkey |        112336896

 2017-02-08 01:51:11.558161+01 | 1486515071.55816 | pgbench_branches_pkey |            16384
 2017-02-08 01:51:11.558161+01 | 1486515071.55816 | pgbench_tellers_pkey  |            32768
 2017-02-08 01:51:11.558161+01 | 1486515071.55816 | pgbench_accounts_pkey |        112336896

 2017-02-08 01:51:12.726214+01 | 1486515072.72621 | pgbench_branches_pkey |            16384
 2017-02-08 01:51:12.726214+01 | 1486515072.72621 | pgbench_tellers_pkey  |            32768
 2017-02-08 01:51:12.726214+01 | 1486515072.72621 | pgbench_accounts_pkey |        112336896

 2017-02-08 01:51:13.913052+01 | 1486515073.91305 | pgbench_branches_pkey |            16384
 2017-02-08 01:51:13.913052+01 | 1486515073.91305 | pgbench_tellers_pkey  |            32768
 2017-02-08 01:51:13.913052+01 | 1486515073.91305 | pgbench_accounts_pkey |        112336896

 2017-02-08 01:51:15.109164+01 | 1486515075.10916 | pgbench_branches_pkey |            16384
 2017-02-08 01:51:15.109164+01 | 1486515075.10916 | pgbench_tellers_pkey  |            32768
 2017-02-08 01:51:15.109164+01 | 1486515075.10916 | pgbench_accounts_pkey |        112336896

 2017-02-08 01:51:16.303016+01 | 1486515076.30302 | pgbench_branches_pkey |            16384
 2017-02-08 01:51:16.303016+01 | 1486515076.30302 | pgbench_tellers_pkey  |            32768
 2017-02-08 01:51:16.303016+01 | 1486515076.30302 | pgbench_accounts_pkey |        112336896

 2017-02-08 01:51:17.498169+01 | 1486515077.49817 | pgbench_branches_pkey |            16384
 2017-02-08 01:51:17.498169+01 | 1486515077.49817 | pgbench_tellers_pkey  |            32768
 2017-02-08 01:51:17.498169+01 | 1486515077.49817 | pgbench_accounts_pkey |        112336896

 2017-02-08 01:51:18.692783+01 | 1486515078.69278 | pgbench_branches_pkey |            16384
 2017-02-08 01:51:18.692783+01 | 1486515078.69278 | pgbench_tellers_pkey  |            32768
 2017-02-08 01:51:18.692783+01 | 1486515078.69278 | pgbench_accounts_pkey |        112336896

 2017-02-08 01:51:19.891212+01 | 1486515079.89121 | pgbench_branches_pkey |            16384
 2017-02-08 01:51:19.891212+01 | 1486515079.89121 | pgbench_tellers_pkey  |            32768
 2017-02-08 01:51:19.891212+01 | 1486515079.89121 | pgbench_accounts_pkey |        112336896

 2017-02-08 01:51:21.081929+01 | 1486515081.08193 | pgbench_branches_pkey |            16384
 2017-02-08 01:51:21.081929+01 | 1486515081.08193 | pgbench_tellers_pkey  |            32768
 2017-02-08 01:51:21.081929+01 | 1486515081.08193 | pgbench_accounts_pkey |        112336896

 2017-02-08 01:51:22.277007+01 | 1486515082.27701 | pgbench_branches_pkey |            16384
 2017-02-08 01:51:22.277007+01 | 1486515082.27701 | pgbench_tellers_pkey  |            32768
 2017-02-08 01:51:22.277007+01 | 1486515082.27701 | pgbench_accounts_pkey |        112336896

 2017-02-08 01:51:23.420207+01 | 1486515083.42021 | pgbench_branches_pkey |            16384
 2017-02-08 01:51:23.420207+01 | 1486515083.42021 | pgbench_tellers_pkey  |            32768
 2017-02-08 01:51:23.420207+01 | 1486515083.42021 | pgbench_accounts_pkey |        112336896

 2017-02-08 01:51:24.551148+01 | 1486515084.55115 | pgbench_branches_pkey |            16384
 2017-02-08 01:51:24.551148+01 | 1486515084.55115 | pgbench_tellers_pkey  |            32768
 2017-02-08 01:51:24.551148+01 | 1486515084.55115 | pgbench_accounts_pkey |        112336896

 2017-02-08 01:51:25.722282+01 | 1486515085.72228 | pgbench_branches_pkey |            16384
 2017-02-08 01:51:25.722282+01 | 1486515085.72228 | pgbench_tellers_pkey  |            32768
 2017-02-08 01:51:25.722282+01 | 1486515085.72228 | pgbench_accounts_pkey |        112336896

 2017-02-08 01:51:26.919301+01 | 1486515086.9193 | pgbench_branches_pkey |            16384
 2017-02-08 01:51:26.919301+01 | 1486515086.9193 | pgbench_tellers_pkey  |            32768
 2017-02-08 01:51:26.919301+01 | 1486515086.9193 | pgbench_accounts_pkey |        112336896

 2017-02-08 01:51:28.110983+01 | 1486515088.11098 | pgbench_branches_pkey |            16384
 2017-02-08 01:51:28.110983+01 | 1486515088.11098 | pgbench_tellers_pkey  |            32768
 2017-02-08 01:51:28.110983+01 | 1486515088.11098 | pgbench_accounts_pkey |        112336896

 2017-02-08 01:51:29.305272+01 | 1486515089.30527 | pgbench_branches_pkey |            16384
 2017-02-08 01:51:29.305272+01 | 1486515089.30527 | pgbench_tellers_pkey  |            32768
 2017-02-08 01:51:29.305272+01 | 1486515089.30527 | pgbench_accounts_pkey |        112336896

 2017-02-08 01:51:30.498324+01 | 1486515090.49832 | pgbench_branches_pkey |            16384
 2017-02-08 01:51:30.498324+01 | 1486515090.49832 | pgbench_tellers_pkey  |            32768
 2017-02-08 01:51:30.498324+01 | 1486515090.49832 | pgbench_accounts_pkey |        112336896

 2017-02-08 01:51:31.670097+01 | 1486515091.6701 | pgbench_branches_pkey |            16384
 2017-02-08 01:51:31.670097+01 | 1486515091.6701 | pgbench_tellers_pkey  |            32768
 2017-02-08 01:51:31.670097+01 | 1486515091.6701 | pgbench_accounts_pkey |        112336896

 2017-02-08 01:51:32.821453+01 | 1486515092.82145 | pgbench_branches_pkey |            16384
 2017-02-08 01:51:32.821453+01 | 1486515092.82145 | pgbench_tellers_pkey  |            32768
 2017-02-08 01:51:32.821453+01 | 1486515092.82145 | pgbench_accounts_pkey |        112336896

 2017-02-08 01:51:33.98654+01 | 1486515093.98654 | pgbench_branches_pkey |            16384
 2017-02-08 01:51:33.98654+01 | 1486515093.98654 | pgbench_tellers_pkey  |            32768
 2017-02-08 01:51:33.98654+01 | 1486515093.98654 | pgbench_accounts_pkey |        112336896

 2017-02-08 01:51:35.151544+01 | 1486515095.15154 | pgbench_branches_pkey |            16384
 2017-02-08 01:51:35.151544+01 | 1486515095.15154 | pgbench_tellers_pkey  |            32768
 2017-02-08 01:51:35.151544+01 | 1486515095.15154 | pgbench_accounts_pkey |        112336896

 2017-02-08 01:51:36.348747+01 | 1486515096.34875 | pgbench_branches_pkey |            16384
 2017-02-08 01:51:36.348747+01 | 1486515096.34875 | pgbench_tellers_pkey  |            32768
 2017-02-08 01:51:36.348747+01 | 1486515096.34875 | pgbench_accounts_pkey |        112336896

 2017-02-08 01:51:37.535012+01 | 1486515097.53501 | pgbench_branches_pkey |            16384
 2017-02-08 01:51:37.535012+01 | 1486515097.53501 | pgbench_tellers_pkey  |            32768
 2017-02-08 01:51:37.535012+01 | 1486515097.53501 | pgbench_accounts_pkey |        112336896

 2017-02-08 01:51:38.730069+01 | 1486515098.73007 | pgbench_branches_pkey |            16384
 2017-02-08 01:51:38.730069+01 | 1486515098.73007 | pgbench_tellers_pkey  |            32768
 2017-02-08 01:51:38.730069+01 | 1486515098.73007 | pgbench_accounts_pkey |        112336896

 2017-02-08 01:51:39.862221+01 | 1486515099.86222 | pgbench_branches_pkey |            16384
 2017-02-08 01:51:39.862221+01 | 1486515099.86222 | pgbench_tellers_pkey  |            32768
 2017-02-08 01:51:39.862221+01 | 1486515099.86222 | pgbench_accounts_pkey |        112336896

 2017-02-08 01:51:41.016309+01 | 1486515101.01631 | pgbench_branches_pkey |            16384
 2017-02-08 01:51:41.016309+01 | 1486515101.01631 | pgbench_tellers_pkey  |            32768
 2017-02-08 01:51:41.016309+01 | 1486515101.01631 | pgbench_accounts_pkey |        112336896

 2017-02-08 01:51:42.210029+01 | 1486515102.21003 | pgbench_branches_pkey |            16384
 2017-02-08 01:51:42.210029+01 | 1486515102.21003 | pgbench_tellers_pkey  |            32768
 2017-02-08 01:51:42.210029+01 | 1486515102.21003 | pgbench_accounts_pkey |        112336896

 2017-02-08 01:51:43.401199+01 | 1486515103.4012 | pgbench_branches_pkey |            16384
 2017-02-08 01:51:43.401199+01 | 1486515103.4012 | pgbench_tellers_pkey  |            32768
 2017-02-08 01:51:43.401199+01 | 1486515103.4012 | pgbench_accounts_pkey |        112336896

 2017-02-08 01:51:44.523225+01 | 1486515104.52323 | pgbench_branches_pkey |            16384
 2017-02-08 01:51:44.523225+01 | 1486515104.52323 | pgbench_tellers_pkey  |            32768
 2017-02-08 01:51:44.523225+01 | 1486515104.52323 | pgbench_accounts_pkey |        112336896

 2017-02-08 01:51:45.690182+01 | 1486515105.69018 | pgbench_branches_pkey |            16384
 2017-02-08 01:51:45.690182+01 | 1486515105.69018 | pgbench_tellers_pkey  |            32768
 2017-02-08 01:51:45.690182+01 | 1486515105.69018 | pgbench_accounts_pkey |        112336896

 2017-02-08 01:51:46.884555+01 | 1486515106.88456 | pgbench_branches_pkey |            16384
 2017-02-08 01:51:46.884555+01 | 1486515106.88456 | pgbench_tellers_pkey  |            32768
 2017-02-08 01:51:46.884555+01 | 1486515106.88456 | pgbench_accounts_pkey |        112336896

 2017-02-08 01:51:48.082574+01 | 1486515108.08257 | pgbench_branches_pkey |            16384
 2017-02-08 01:51:48.082574+01 | 1486515108.08257 | pgbench_tellers_pkey  |            32768
 2017-02-08 01:51:48.082574+01 | 1486515108.08257 | pgbench_accounts_pkey |        112336896

 2017-02-08 01:51:49.277211+01 | 1486515109.27721 | pgbench_branches_pkey |            16384
 2017-02-08 01:51:49.277211+01 | 1486515109.27721 | pgbench_tellers_pkey  |            32768
 2017-02-08 01:51:49.277211+01 | 1486515109.27721 | pgbench_accounts_pkey |        112336896

 2017-02-08 01:51:50.469563+01 | 1486515110.46956 | pgbench_branches_pkey |            16384
 2017-02-08 01:51:50.469563+01 | 1486515110.46956 | pgbench_tellers_pkey  |            32768
 2017-02-08 01:51:50.469563+01 | 1486515110.46956 | pgbench_accounts_pkey |        112336896

 2017-02-08 01:51:51.657805+01 | 1486515111.6578 | pgbench_branches_pkey |            16384
 2017-02-08 01:51:51.657805+01 | 1486515111.6578 | pgbench_tellers_pkey  |            32768
 2017-02-08 01:51:51.657805+01 | 1486515111.6578 | pgbench_accounts_pkey |        112336896

 2017-02-08 01:51:52.825552+01 | 1486515112.82555 | pgbench_branches_pkey |            16384
 2017-02-08 01:51:52.825552+01 | 1486515112.82555 | pgbench_tellers_pkey  |            32768
 2017-02-08 01:51:52.825552+01 | 1486515112.82555 | pgbench_accounts_pkey |        112336896

 2017-02-08 01:51:54.025046+01 | 1486515114.02505 | pgbench_branches_pkey |            16384
 2017-02-08 01:51:54.025046+01 | 1486515114.02505 | pgbench_tellers_pkey  |            32768
 2017-02-08 01:51:54.025046+01 | 1486515114.02505 | pgbench_accounts_pkey |        112336896

 2017-02-08 01:51:55.218492+01 | 1486515115.21849 | pgbench_branches_pkey |            16384
 2017-02-08 01:51:55.218492+01 | 1486515115.21849 | pgbench_tellers_pkey  |            32768
 2017-02-08 01:51:55.218492+01 | 1486515115.21849 | pgbench_accounts_pkey |        112336896

 2017-02-08 01:51:56.401716+01 | 1486515116.40172 | pgbench_branches_pkey |            16384
 2017-02-08 01:51:56.401716+01 | 1486515116.40172 | pgbench_tellers_pkey  |            32768
 2017-02-08 01:51:56.401716+01 | 1486515116.40172 | pgbench_accounts_pkey |        112336896

 2017-02-08 01:51:57.593534+01 | 1486515117.59353 | pgbench_branches_pkey |            16384
 2017-02-08 01:51:57.593534+01 | 1486515117.59353 | pgbench_tellers_pkey  |            32768
 2017-02-08 01:51:57.593534+01 | 1486515117.59353 | pgbench_accounts_pkey |        112336896

 2017-02-08 01:51:58.788208+01 | 1486515118.78821 | pgbench_branches_pkey |            16384
 2017-02-08 01:51:58.788208+01 | 1486515118.78821 | pgbench_tellers_pkey  |            32768
 2017-02-08 01:51:58.788208+01 | 1486515118.78821 | pgbench_accounts_pkey |        112336896

 2017-02-08 01:51:59.987024+01 | 1486515119.98702 | pgbench_branches_pkey |            16384
 2017-02-08 01:51:59.987024+01 | 1486515119.98702 | pgbench_tellers_pkey  |            32768
 2017-02-08 01:51:59.987024+01 | 1486515119.98702 | pgbench_accounts_pkey |        112336896

 2017-02-08 01:52:01.184921+01 | 1486515121.18492 | pgbench_branches_pkey |            16384
 2017-02-08 01:52:01.184921+01 | 1486515121.18492 | pgbench_tellers_pkey  |            32768
 2017-02-08 01:52:01.184921+01 | 1486515121.18492 | pgbench_accounts_pkey |        112336896

 2017-02-08 01:52:02.377212+01 | 1486515122.37721 | pgbench_branches_pkey |            16384
 2017-02-08 01:52:02.377212+01 | 1486515122.37721 | pgbench_tellers_pkey  |            32768
 2017-02-08 01:52:02.377212+01 | 1486515122.37721 | pgbench_accounts_pkey |        112336896

 2017-02-08 01:52:03.569428+01 | 1486515123.56943 | pgbench_branches_pkey |            16384
 2017-02-08 01:52:03.569428+01 | 1486515123.56943 | pgbench_tellers_pkey  |            32768
 2017-02-08 01:52:03.569428+01 | 1486515123.56943 | pgbench_accounts_pkey |        112336896

 2017-02-08 01:52:04.761716+01 | 1486515124.76172 | pgbench_branches_pkey |            16384
 2017-02-08 01:52:04.761716+01 | 1486515124.76172 | pgbench_tellers_pkey  |            32768
 2017-02-08 01:52:04.761716+01 | 1486515124.76172 | pgbench_accounts_pkey |        112336896

 2017-02-08 01:52:05.95279+01 | 1486515125.95279 | pgbench_branches_pkey |            16384
 2017-02-08 01:52:05.95279+01 | 1486515125.95279 | pgbench_tellers_pkey  |            32768
 2017-02-08 01:52:05.95279+01 | 1486515125.95279 | pgbench_accounts_pkey |        112336896

 2017-02-08 01:52:07.147711+01 | 1486515127.14771 | pgbench_branches_pkey |            16384
 2017-02-08 01:52:07.147711+01 | 1486515127.14771 | pgbench_tellers_pkey  |            32768
 2017-02-08 01:52:07.147711+01 | 1486515127.14771 | pgbench_accounts_pkey |        112336896

 2017-02-08 01:52:08.345394+01 | 1486515128.34539 | pgbench_branches_pkey |            16384
 2017-02-08 01:52:08.345394+01 | 1486515128.34539 | pgbench_tellers_pkey  |            32768
 2017-02-08 01:52:08.345394+01 | 1486515128.34539 | pgbench_accounts_pkey |        112336896

 2017-02-08 01:52:09.502789+01 | 1486515129.50279 | pgbench_branches_pkey |            16384
 2017-02-08 01:52:09.502789+01 | 1486515129.50279 | pgbench_tellers_pkey  |            32768
 2017-02-08 01:52:09.502789+01 | 1486515129.50279 | pgbench_accounts_pkey |        112336896

 2017-02-08 01:52:10.667243+01 | 1486515130.66724 | pgbench_branches_pkey |            16384
 2017-02-08 01:52:10.667243+01 | 1486515130.66724 | pgbench_tellers_pkey  |            32768
 2017-02-08 01:52:10.667243+01 | 1486515130.66724 | pgbench_accounts_pkey |        112336896

 2017-02-08 01:52:11.851406+01 | 1486515131.85141 | pgbench_branches_pkey |            16384
 2017-02-08 01:52:11.851406+01 | 1486515131.85141 | pgbench_tellers_pkey  |            32768
 2017-02-08 01:52:11.851406+01 | 1486515131.85141 | pgbench_accounts_pkey |        112336896

 2017-02-08 01:52:13.025817+01 | 1486515133.02582 | pgbench_branches_pkey |            16384
 2017-02-08 01:52:13.025817+01 | 1486515133.02582 | pgbench_tellers_pkey  |            32768
 2017-02-08 01:52:13.025817+01 | 1486515133.02582 | pgbench_accounts_pkey |        112336896

 2017-02-08 01:52:14.198394+01 | 1486515134.19839 | pgbench_branches_pkey |            16384
 2017-02-08 01:52:14.198394+01 | 1486515134.19839 | pgbench_tellers_pkey  |            32768
 2017-02-08 01:52:14.198394+01 | 1486515134.19839 | pgbench_accounts_pkey |        112336896

 2017-02-08 01:52:15.376758+01 | 1486515135.37676 | pgbench_branches_pkey |            16384
 2017-02-08 01:52:15.376758+01 | 1486515135.37676 | pgbench_tellers_pkey  |            32768
 2017-02-08 01:52:15.376758+01 | 1486515135.37676 | pgbench_accounts_pkey |        112336896

 2017-02-08 01:52:16.560408+01 | 1486515136.56041 | pgbench_branches_pkey |            16384
 2017-02-08 01:52:16.560408+01 | 1486515136.56041 | pgbench_tellers_pkey  |            32768
 2017-02-08 01:52:16.560408+01 | 1486515136.56041 | pgbench_accounts_pkey |        112336896

 2017-02-08 01:52:17.755735+01 | 1486515137.75573 | pgbench_branches_pkey |            16384
 2017-02-08 01:52:17.755735+01 | 1486515137.75573 | pgbench_tellers_pkey  |            32768
 2017-02-08 01:52:17.755735+01 | 1486515137.75573 | pgbench_accounts_pkey |        112336896

 2017-02-08 01:52:18.914078+01 | 1486515138.91408 | pgbench_branches_pkey |            16384
 2017-02-08 01:52:18.914078+01 | 1486515138.91408 | pgbench_tellers_pkey  |            32768
 2017-02-08 01:52:18.914078+01 | 1486515138.91408 | pgbench_accounts_pkey |        112336896

 2017-02-08 01:52:20.059105+01 | 1486515140.0591 | pgbench_branches_pkey |            16384
 2017-02-08 01:52:20.059105+01 | 1486515140.0591 | pgbench_tellers_pkey  |            32768
 2017-02-08 01:52:20.059105+01 | 1486515140.0591 | pgbench_accounts_pkey |        112336896

 2017-02-08 01:52:21.229994+01 | 1486515141.22999 | pgbench_branches_pkey |            16384
 2017-02-08 01:52:21.229994+01 | 1486515141.22999 | pgbench_tellers_pkey  |            32768
 2017-02-08 01:52:21.229994+01 | 1486515141.22999 | pgbench_accounts_pkey |        112336896

 2017-02-08 01:52:22.424324+01 | 1486515142.42432 | pgbench_branches_pkey |            16384
 2017-02-08 01:52:22.424324+01 | 1486515142.42432 | pgbench_tellers_pkey  |            32768
 2017-02-08 01:52:22.424324+01 | 1486515142.42432 | pgbench_accounts_pkey |        112336896

 2017-02-08 01:52:23.617056+01 | 1486515143.61706 | pgbench_branches_pkey |            16384
 2017-02-08 01:52:23.617056+01 | 1486515143.61706 | pgbench_tellers_pkey  |            32768
 2017-02-08 01:52:23.617056+01 | 1486515143.61706 | pgbench_accounts_pkey |        112336896

 2017-02-08 01:52:24.808737+01 | 1486515144.80874 | pgbench_branches_pkey |            16384
 2017-02-08 01:52:24.808737+01 | 1486515144.80874 | pgbench_tellers_pkey  |            32768
 2017-02-08 01:52:24.808737+01 | 1486515144.80874 | pgbench_accounts_pkey |        112336896

 2017-02-08 01:52:26.002891+01 | 1486515146.00289 | pgbench_branches_pkey |            16384
 2017-02-08 01:52:26.002891+01 | 1486515146.00289 | pgbench_tellers_pkey  |            32768
 2017-02-08 01:52:26.002891+01 | 1486515146.00289 | pgbench_accounts_pkey |        112336896

 2017-02-08 01:52:27.197814+01 | 1486515147.19781 | pgbench_branches_pkey |            16384
 2017-02-08 01:52:27.197814+01 | 1486515147.19781 | pgbench_tellers_pkey  |            32768
 2017-02-08 01:52:27.197814+01 | 1486515147.19781 | pgbench_accounts_pkey |        112336896

 2017-02-08 01:52:28.392371+01 | 1486515148.39237 | pgbench_branches_pkey |            16384
 2017-02-08 01:52:28.392371+01 | 1486515148.39237 | pgbench_tellers_pkey  |            32768
 2017-02-08 01:52:28.392371+01 | 1486515148.39237 | pgbench_accounts_pkey |        112336896

 2017-02-08 01:52:29.588251+01 | 1486515149.58825 | pgbench_branches_pkey |            16384
 2017-02-08 01:52:29.588251+01 | 1486515149.58825 | pgbench_tellers_pkey  |            32768
 2017-02-08 01:52:29.588251+01 | 1486515149.58825 | pgbench_accounts_pkey |        112336896

 2017-02-08 01:52:30.779537+01 | 1486515150.77954 | pgbench_branches_pkey |            16384
 2017-02-08 01:52:30.779537+01 | 1486515150.77954 | pgbench_tellers_pkey  |            32768
 2017-02-08 01:52:30.779537+01 | 1486515150.77954 | pgbench_accounts_pkey |        112336896

 2017-02-08 01:52:31.975207+01 | 1486515151.97521 | pgbench_branches_pkey |            16384
 2017-02-08 01:52:31.975207+01 | 1486515151.97521 | pgbench_tellers_pkey  |            32768
 2017-02-08 01:52:31.975207+01 | 1486515151.97521 | pgbench_accounts_pkey |        112336896

 2017-02-08 01:52:33.168088+01 | 1486515153.16809 | pgbench_branches_pkey |            16384
 2017-02-08 01:52:33.168088+01 | 1486515153.16809 | pgbench_tellers_pkey  |            32768
 2017-02-08 01:52:33.168088+01 | 1486515153.16809 | pgbench_accounts_pkey |        112336896

 2017-02-08 01:52:34.34996+01 | 1486515154.34996 | pgbench_branches_pkey |            16384
 2017-02-08 01:52:34.34996+01 | 1486515154.34996 | pgbench_tellers_pkey  |            32768
 2017-02-08 01:52:34.34996+01 | 1486515154.34996 | pgbench_accounts_pkey |        112336896

 2017-02-08 01:52:35.52073+01 | 1486515155.52073 | pgbench_branches_pkey |            16384
 2017-02-08 01:52:35.52073+01 | 1486515155.52073 | pgbench_tellers_pkey  |            32768
 2017-02-08 01:52:35.52073+01 | 1486515155.52073 | pgbench_accounts_pkey |        112336896

 2017-02-08 01:52:36.715961+01 | 1486515156.71596 | pgbench_branches_pkey |            16384
 2017-02-08 01:52:36.715961+01 | 1486515156.71596 | pgbench_tellers_pkey  |            32768
 2017-02-08 01:52:36.715961+01 | 1486515156.71596 | pgbench_accounts_pkey |        112336896

 2017-02-08 01:52:37.910439+01 | 1486515157.91044 | pgbench_branches_pkey |            16384
 2017-02-08 01:52:37.910439+01 | 1486515157.91044 | pgbench_tellers_pkey  |            32768
 2017-02-08 01:52:37.910439+01 | 1486515157.91044 | pgbench_accounts_pkey |        112336896

 2017-02-08 01:52:39.082175+01 | 1486515159.08218 | pgbench_branches_pkey |            16384
 2017-02-08 01:52:39.082175+01 | 1486515159.08218 | pgbench_tellers_pkey  |            32768
 2017-02-08 01:52:39.082175+01 | 1486515159.08218 | pgbench_accounts_pkey |        112336896

 2017-02-08 01:52:40.255063+01 | 1486515160.25506 | pgbench_branches_pkey |            16384
 2017-02-08 01:52:40.255063+01 | 1486515160.25506 | pgbench_tellers_pkey  |            32768
 2017-02-08 01:52:40.255063+01 | 1486515160.25506 | pgbench_accounts_pkey |        112336896

 2017-02-08 01:52:41.449653+01 | 1486515161.44965 | pgbench_branches_pkey |            16384
 2017-02-08 01:52:41.449653+01 | 1486515161.44965 | pgbench_tellers_pkey  |            32768
 2017-02-08 01:52:41.449653+01 | 1486515161.44965 | pgbench_accounts_pkey |        112336896

 2017-02-08 01:52:42.646934+01 | 1486515162.64693 | pgbench_branches_pkey |            16384
 2017-02-08 01:52:42.646934+01 | 1486515162.64693 | pgbench_tellers_pkey  |            32768
 2017-02-08 01:52:42.646934+01 | 1486515162.64693 | pgbench_accounts_pkey |        112336896

 2017-02-08 01:52:43.815234+01 | 1486515163.81523 | pgbench_branches_pkey |            16384
 2017-02-08 01:52:43.815234+01 | 1486515163.81523 | pgbench_tellers_pkey  |            32768
 2017-02-08 01:52:43.815234+01 | 1486515163.81523 | pgbench_accounts_pkey |        112336896

 2017-02-08 01:52:45.012177+01 | 1486515165.01218 | pgbench_branches_pkey |            16384
 2017-02-08 01:52:45.012177+01 | 1486515165.01218 | pgbench_tellers_pkey  |            32768
 2017-02-08 01:52:45.012177+01 | 1486515165.01218 | pgbench_accounts_pkey |        112336896

 2017-02-08 01:52:46.207721+01 | 1486515166.20772 | pgbench_branches_pkey |            16384
 2017-02-08 01:52:46.207721+01 | 1486515166.20772 | pgbench_tellers_pkey  |            32768
 2017-02-08 01:52:46.207721+01 | 1486515166.20772 | pgbench_accounts_pkey |        112336896

 2017-02-08 01:52:47.404398+01 | 1486515167.4044 | pgbench_branches_pkey |            16384
 2017-02-08 01:52:47.404398+01 | 1486515167.4044 | pgbench_tellers_pkey  |            32768
 2017-02-08 01:52:47.404398+01 | 1486515167.4044 | pgbench_accounts_pkey |        112336896

 2017-02-08 01:52:48.60305+01 | 1486515168.60305 | pgbench_branches_pkey |            16384
 2017-02-08 01:52:48.60305+01 | 1486515168.60305 | pgbench_tellers_pkey  |            32768
 2017-02-08 01:52:48.60305+01 | 1486515168.60305 | pgbench_accounts_pkey |        112336896

 2017-02-08 01:52:49.798313+01 | 1486515169.79831 | pgbench_branches_pkey |            16384
 2017-02-08 01:52:49.798313+01 | 1486515169.79831 | pgbench_tellers_pkey  |            32768
 2017-02-08 01:52:49.798313+01 | 1486515169.79831 | pgbench_accounts_pkey |        112336896

 2017-02-08 01:52:50.988699+01 | 1486515170.9887 | pgbench_branches_pkey |            16384
 2017-02-08 01:52:50.988699+01 | 1486515170.9887 | pgbench_tellers_pkey  |            32768
 2017-02-08 01:52:50.988699+01 | 1486515170.9887 | pgbench_accounts_pkey |        112336896

 2017-02-08 01:52:52.185999+01 | 1486515172.186 | pgbench_branches_pkey |            16384
 2017-02-08 01:52:52.185999+01 | 1486515172.186 | pgbench_tellers_pkey  |            32768
 2017-02-08 01:52:52.185999+01 | 1486515172.186 | pgbench_accounts_pkey |        112336896

 2017-02-08 01:52:53.343232+01 | 1486515173.34323 | pgbench_branches_pkey |            16384
 2017-02-08 01:52:53.343232+01 | 1486515173.34323 | pgbench_tellers_pkey  |            32768
 2017-02-08 01:52:53.343232+01 | 1486515173.34323 | pgbench_accounts_pkey |        112336896

 2017-02-08 01:52:54.538622+01 | 1486515174.53862 | pgbench_branches_pkey |            16384
 2017-02-08 01:52:54.538622+01 | 1486515174.53862 | pgbench_tellers_pkey  |            32768
 2017-02-08 01:52:54.538622+01 | 1486515174.53862 | pgbench_accounts_pkey |        112336896

 2017-02-08 01:52:55.732549+01 | 1486515175.73255 | pgbench_branches_pkey |            16384
 2017-02-08 01:52:55.732549+01 | 1486515175.73255 | pgbench_tellers_pkey  |            32768
 2017-02-08 01:52:55.732549+01 | 1486515175.73255 | pgbench_accounts_pkey |        112336896

 2017-02-08 01:52:56.927831+01 | 1486515176.92783 | pgbench_branches_pkey |            16384
 2017-02-08 01:52:56.927831+01 | 1486515176.92783 | pgbench_tellers_pkey  |            32768
 2017-02-08 01:52:56.927831+01 | 1486515176.92783 | pgbench_accounts_pkey |        112336896

 2017-02-08 01:52:58.125458+01 | 1486515178.12546 | pgbench_branches_pkey |            16384
 2017-02-08 01:52:58.125458+01 | 1486515178.12546 | pgbench_tellers_pkey  |            32768
 2017-02-08 01:52:58.125458+01 | 1486515178.12546 | pgbench_accounts_pkey |        112336896

 2017-02-08 01:52:59.321556+01 | 1486515179.32156 | pgbench_branches_pkey |            16384
 2017-02-08 01:52:59.321556+01 | 1486515179.32156 | pgbench_tellers_pkey  |            32768
 2017-02-08 01:52:59.321556+01 | 1486515179.32156 | pgbench_accounts_pkey |        112336896

 2017-02-08 01:53:00.514443+01 | 1486515180.51444 | pgbench_branches_pkey |            16384
 2017-02-08 01:53:00.514443+01 | 1486515180.51444 | pgbench_tellers_pkey  |            32768
 2017-02-08 01:53:00.514443+01 | 1486515180.51444 | pgbench_accounts_pkey |        112336896

 2017-02-08 01:53:01.709791+01 | 1486515181.70979 | pgbench_branches_pkey |            16384
 2017-02-08 01:53:01.709791+01 | 1486515181.70979 | pgbench_tellers_pkey  |            32768
 2017-02-08 01:53:01.709791+01 | 1486515181.70979 | pgbench_accounts_pkey |        112336896

 2017-02-08 01:53:02.906782+01 | 1486515182.90678 | pgbench_branches_pkey |            16384
 2017-02-08 01:53:02.906782+01 | 1486515182.90678 | pgbench_tellers_pkey  |            32768
 2017-02-08 01:53:02.906782+01 | 1486515182.90678 | pgbench_accounts_pkey |        112336896

 2017-02-08 01:53:04.074185+01 | 1486515184.07418 | pgbench_branches_pkey |            16384
 2017-02-08 01:53:04.074185+01 | 1486515184.07418 | pgbench_tellers_pkey  |            32768
 2017-02-08 01:53:04.074185+01 | 1486515184.07418 | pgbench_accounts_pkey |        112336896

 2017-02-08 01:53:05.273263+01 | 1486515185.27326 | pgbench_branches_pkey |            16384
 2017-02-08 01:53:05.273263+01 | 1486515185.27326 | pgbench_tellers_pkey  |            32768
 2017-02-08 01:53:05.273263+01 | 1486515185.27326 | pgbench_accounts_pkey |        112336896

 2017-02-08 01:53:06.46937+01 | 1486515186.46937 | pgbench_branches_pkey |            16384
 2017-02-08 01:53:06.46937+01 | 1486515186.46937 | pgbench_tellers_pkey  |            32768
 2017-02-08 01:53:06.46937+01 | 1486515186.46937 | pgbench_accounts_pkey |        112336896

 2017-02-08 01:53:07.665939+01 | 1486515187.66594 | pgbench_branches_pkey |            16384
 2017-02-08 01:53:07.665939+01 | 1486515187.66594 | pgbench_tellers_pkey  |            32768
 2017-02-08 01:53:07.665939+01 | 1486515187.66594 | pgbench_accounts_pkey |        112336896

 2017-02-08 01:53:08.861706+01 | 1486515188.86171 | pgbench_branches_pkey |            16384
 2017-02-08 01:53:08.861706+01 | 1486515188.86171 | pgbench_tellers_pkey  |            32768
 2017-02-08 01:53:08.861706+01 | 1486515188.86171 | pgbench_accounts_pkey |        112336896

 2017-02-08 01:53:10.054238+01 | 1486515190.05424 | pgbench_branches_pkey |            16384
 2017-02-08 01:53:10.054238+01 | 1486515190.05424 | pgbench_tellers_pkey  |            32768
 2017-02-08 01:53:10.054238+01 | 1486515190.05424 | pgbench_accounts_pkey |        112336896

 2017-02-08 01:53:11.24351+01 | 1486515191.24351 | pgbench_branches_pkey |            16384
 2017-02-08 01:53:11.24351+01 | 1486515191.24351 | pgbench_tellers_pkey  |            32768
 2017-02-08 01:53:11.24351+01 | 1486515191.24351 | pgbench_accounts_pkey |        112336896

 2017-02-08 01:53:12.437703+01 | 1486515192.4377 | pgbench_branches_pkey |            16384
 2017-02-08 01:53:12.437703+01 | 1486515192.4377 | pgbench_tellers_pkey  |            32768
 2017-02-08 01:53:12.437703+01 | 1486515192.4377 | pgbench_accounts_pkey |        112336896

 2017-02-08 01:53:13.630324+01 | 1486515193.63032 | pgbench_branches_pkey |            16384
 2017-02-08 01:53:13.630324+01 | 1486515193.63032 | pgbench_tellers_pkey  |            32768
 2017-02-08 01:53:13.630324+01 | 1486515193.63032 | pgbench_accounts_pkey |        112336896

 2017-02-08 01:53:14.82272+01 | 1486515194.82272 | pgbench_branches_pkey |            16384
 2017-02-08 01:53:14.82272+01 | 1486515194.82272 | pgbench_tellers_pkey  |            32768
 2017-02-08 01:53:14.82272+01 | 1486515194.82272 | pgbench_accounts_pkey |        112336896

 2017-02-08 01:53:16.02105+01 | 1486515196.02105 | pgbench_branches_pkey |            16384
 2017-02-08 01:53:16.02105+01 | 1486515196.02105 | pgbench_tellers_pkey  |            32768
 2017-02-08 01:53:16.02105+01 | 1486515196.02105 | pgbench_accounts_pkey |        112336896

 2017-02-08 01:53:17.216279+01 | 1486515197.21628 | pgbench_branches_pkey |            16384
 2017-02-08 01:53:17.216279+01 | 1486515197.21628 | pgbench_tellers_pkey  |            32768
 2017-02-08 01:53:17.216279+01 | 1486515197.21628 | pgbench_accounts_pkey |        112336896

 2017-02-08 01:53:18.373077+01 | 1486515198.37308 | pgbench_branches_pkey |            16384
 2017-02-08 01:53:18.373077+01 | 1486515198.37308 | pgbench_tellers_pkey  |            32768
 2017-02-08 01:53:18.373077+01 | 1486515198.37308 | pgbench_accounts_pkey |        112336896

 2017-02-08 01:53:19.553165+01 | 1486515199.55316 | pgbench_branches_pkey |            16384
 2017-02-08 01:53:19.553165+01 | 1486515199.55316 | pgbench_tellers_pkey  |            32768
 2017-02-08 01:53:19.553165+01 | 1486515199.55316 | pgbench_accounts_pkey |        112336896

 2017-02-08 01:53:20.718325+01 | 1486515200.71832 | pgbench_branches_pkey |            16384
 2017-02-08 01:53:20.718325+01 | 1486515200.71832 | pgbench_tellers_pkey  |            32768
 2017-02-08 01:53:20.718325+01 | 1486515200.71832 | pgbench_accounts_pkey |        112336896

 2017-02-08 01:53:21.909804+01 | 1486515201.9098 | pgbench_branches_pkey |            16384
 2017-02-08 01:53:21.909804+01 | 1486515201.9098 | pgbench_tellers_pkey  |            32768
 2017-02-08 01:53:21.909804+01 | 1486515201.9098 | pgbench_accounts_pkey |        112336896

 2017-02-08 01:53:23.060085+01 | 1486515203.06009 | pgbench_branches_pkey |            16384
 2017-02-08 01:53:23.060085+01 | 1486515203.06009 | pgbench_tellers_pkey  |            32768
 2017-02-08 01:53:23.060085+01 | 1486515203.06009 | pgbench_accounts_pkey |        112336896

 2017-02-08 01:53:24.222451+01 | 1486515204.22245 | pgbench_branches_pkey |            16384
 2017-02-08 01:53:24.222451+01 | 1486515204.22245 | pgbench_tellers_pkey  |            32768
 2017-02-08 01:53:24.222451+01 | 1486515204.22245 | pgbench_accounts_pkey |        112336896

 2017-02-08 01:53:25.415339+01 | 1486515205.41534 | pgbench_branches_pkey |            16384
 2017-02-08 01:53:25.415339+01 | 1486515205.41534 | pgbench_tellers_pkey  |            32768
 2017-02-08 01:53:25.415339+01 | 1486515205.41534 | pgbench_accounts_pkey |        112336896

 2017-02-08 01:53:26.575867+01 | 1486515206.57587 | pgbench_branches_pkey |            16384
 2017-02-08 01:53:26.575867+01 | 1486515206.57587 | pgbench_tellers_pkey  |            32768
 2017-02-08 01:53:26.575867+01 | 1486515206.57587 | pgbench_accounts_pkey |        112336896

 2017-02-08 01:53:27.766031+01 | 1486515207.76603 | pgbench_branches_pkey |            16384
 2017-02-08 01:53:27.766031+01 | 1486515207.76603 | pgbench_tellers_pkey  |            32768
 2017-02-08 01:53:27.766031+01 | 1486515207.76603 | pgbench_accounts_pkey |        112336896

 2017-02-08 01:53:28.963752+01 | 1486515208.96375 | pgbench_branches_pkey |            16384
 2017-02-08 01:53:28.963752+01 | 1486515208.96375 | pgbench_tellers_pkey  |            32768
 2017-02-08 01:53:28.963752+01 | 1486515208.96375 | pgbench_accounts_pkey |        112336896

 2017-02-08 01:53:30.158975+01 | 1486515210.15897 | pgbench_branches_pkey |            16384
 2017-02-08 01:53:30.158975+01 | 1486515210.15897 | pgbench_tellers_pkey  |            32768
 2017-02-08 01:53:30.158975+01 | 1486515210.15897 | pgbench_accounts_pkey |        112336896

 2017-02-08 01:53:31.354449+01 | 1486515211.35445 | pgbench_branches_pkey |            16384
 2017-02-08 01:53:31.354449+01 | 1486515211.35445 | pgbench_tellers_pkey  |            32768
 2017-02-08 01:53:31.354449+01 | 1486515211.35445 | pgbench_accounts_pkey |        112336896

 2017-02-08 01:53:32.549503+01 | 1486515212.5495 | pgbench_branches_pkey |            16384
 2017-02-08 01:53:32.549503+01 | 1486515212.5495 | pgbench_tellers_pkey  |            32768
 2017-02-08 01:53:32.549503+01 | 1486515212.5495 | pgbench_accounts_pkey |        112336896

 2017-02-08 01:53:33.745325+01 | 1486515213.74533 | pgbench_branches_pkey |            16384
 2017-02-08 01:53:33.745325+01 | 1486515213.74533 | pgbench_tellers_pkey  |            32768
 2017-02-08 01:53:33.745325+01 | 1486515213.74533 | pgbench_accounts_pkey |        112336896

 2017-02-08 01:53:34.938952+01 | 1486515214.93895 | pgbench_branches_pkey |            16384
 2017-02-08 01:53:34.938952+01 | 1486515214.93895 | pgbench_tellers_pkey  |            32768
 2017-02-08 01:53:34.938952+01 | 1486515214.93895 | pgbench_accounts_pkey |        112336896

 2017-02-08 01:53:36.132996+01 | 1486515216.133 | pgbench_branches_pkey |            16384
 2017-02-08 01:53:36.132996+01 | 1486515216.133 | pgbench_tellers_pkey  |            32768
 2017-02-08 01:53:36.132996+01 | 1486515216.133 | pgbench_accounts_pkey |        112336896

 2017-02-08 01:53:37.324203+01 | 1486515217.3242 | pgbench_branches_pkey |            16384
 2017-02-08 01:53:37.324203+01 | 1486515217.3242 | pgbench_tellers_pkey  |            32768
 2017-02-08 01:53:37.324203+01 | 1486515217.3242 | pgbench_accounts_pkey |        112336896

 2017-02-08 01:53:38.518781+01 | 1486515218.51878 | pgbench_branches_pkey |            16384
 2017-02-08 01:53:38.518781+01 | 1486515218.51878 | pgbench_tellers_pkey  |            32768
 2017-02-08 01:53:38.518781+01 | 1486515218.51878 | pgbench_accounts_pkey |        112336896

 2017-02-08 01:53:39.714492+01 | 1486515219.71449 | pgbench_branches_pkey |            16384
 2017-02-08 01:53:39.714492+01 | 1486515219.71449 | pgbench_tellers_pkey  |            32768
 2017-02-08 01:53:39.714492+01 | 1486515219.71449 | pgbench_accounts_pkey |        112336896

 2017-02-08 01:53:40.908893+01 | 1486515220.90889 | pgbench_branches_pkey |            16384
 2017-02-08 01:53:40.908893+01 | 1486515220.90889 | pgbench_tellers_pkey  |            32768
 2017-02-08 01:53:40.908893+01 | 1486515220.90889 | pgbench_accounts_pkey |        112336896

 2017-02-08 01:53:42.101335+01 | 1486515222.10134 | pgbench_branches_pkey |            16384
 2017-02-08 01:53:42.101335+01 | 1486515222.10134 | pgbench_tellers_pkey  |            32768
 2017-02-08 01:53:42.101335+01 | 1486515222.10134 | pgbench_accounts_pkey |        112336896

 2017-02-08 01:53:43.299162+01 | 1486515223.29916 | pgbench_branches_pkey |            16384
 2017-02-08 01:53:43.299162+01 | 1486515223.29916 | pgbench_tellers_pkey  |            32768
 2017-02-08 01:53:43.299162+01 | 1486515223.29916 | pgbench_accounts_pkey |        112336896

 2017-02-08 01:53:44.493365+01 | 1486515224.49337 | pgbench_branches_pkey |            16384
 2017-02-08 01:53:44.493365+01 | 1486515224.49337 | pgbench_tellers_pkey  |            32768
 2017-02-08 01:53:44.493365+01 | 1486515224.49337 | pgbench_accounts_pkey |        112336896

 2017-02-08 01:53:45.686197+01 | 1486515225.6862 | pgbench_branches_pkey |            16384
 2017-02-08 01:53:45.686197+01 | 1486515225.6862 | pgbench_tellers_pkey  |            32768
 2017-02-08 01:53:45.686197+01 | 1486515225.6862 | pgbench_accounts_pkey |        112336896

 2017-02-08 01:53:46.88568+01 | 1486515226.88568 | pgbench_branches_pkey |            16384
 2017-02-08 01:53:46.88568+01 | 1486515226.88568 | pgbench_tellers_pkey  |            32768
 2017-02-08 01:53:46.88568+01 | 1486515226.88568 | pgbench_accounts_pkey |        112336896

 2017-02-08 01:53:48.079149+01 | 1486515228.07915 | pgbench_branches_pkey |            16384
 2017-02-08 01:53:48.079149+01 | 1486515228.07915 | pgbench_tellers_pkey  |            32768
 2017-02-08 01:53:48.079149+01 | 1486515228.07915 | pgbench_accounts_pkey |        112336896

 2017-02-08 01:53:49.273389+01 | 1486515229.27339 | pgbench_branches_pkey |            16384
 2017-02-08 01:53:49.273389+01 | 1486515229.27339 | pgbench_tellers_pkey  |            32768
 2017-02-08 01:53:49.273389+01 | 1486515229.27339 | pgbench_accounts_pkey |        112336896

 2017-02-08 01:53:50.467662+01 | 1486515230.46766 | pgbench_branches_pkey |            16384
 2017-02-08 01:53:50.467662+01 | 1486515230.46766 | pgbench_tellers_pkey  |            32768
 2017-02-08 01:53:50.467662+01 | 1486515230.46766 | pgbench_accounts_pkey |        112336896

 2017-02-08 01:53:51.646161+01 | 1486515231.64616 | pgbench_branches_pkey |            16384
 2017-02-08 01:53:51.646161+01 | 1486515231.64616 | pgbench_tellers_pkey  |            32768
 2017-02-08 01:53:51.646161+01 | 1486515231.64616 | pgbench_accounts_pkey |        112336896

 2017-02-08 01:53:52.828259+01 | 1486515232.82826 | pgbench_branches_pkey |            16384
 2017-02-08 01:53:52.828259+01 | 1486515232.82826 | pgbench_tellers_pkey  |            32768
 2017-02-08 01:53:52.828259+01 | 1486515232.82826 | pgbench_accounts_pkey |        112336896

 2017-02-08 01:53:54.02158+01 | 1486515234.02158 | pgbench_branches_pkey |            16384
 2017-02-08 01:53:54.02158+01 | 1486515234.02158 | pgbench_tellers_pkey  |            32768
 2017-02-08 01:53:54.02158+01 | 1486515234.02158 | pgbench_accounts_pkey |        112336896

 2017-02-08 01:53:55.218597+01 | 1486515235.2186 | pgbench_branches_pkey |            16384
 2017-02-08 01:53:55.218597+01 | 1486515235.2186 | pgbench_tellers_pkey  |            32768
 2017-02-08 01:53:55.218597+01 | 1486515235.2186 | pgbench_accounts_pkey |        112336896

 2017-02-08 01:53:56.413306+01 | 1486515236.41331 | pgbench_branches_pkey |            16384
 2017-02-08 01:53:56.413306+01 | 1486515236.41331 | pgbench_tellers_pkey  |            32768
 2017-02-08 01:53:56.413306+01 | 1486515236.41331 | pgbench_accounts_pkey |        112336896

 2017-02-08 01:53:57.60894+01 | 1486515237.60894 | pgbench_branches_pkey |            16384
 2017-02-08 01:53:57.60894+01 | 1486515237.60894 | pgbench_tellers_pkey  |            32768
 2017-02-08 01:53:57.60894+01 | 1486515237.60894 | pgbench_accounts_pkey |        112336896

 2017-02-08 01:53:58.801653+01 | 1486515238.80165 | pgbench_branches_pkey |            16384
 2017-02-08 01:53:58.801653+01 | 1486515238.80165 | pgbench_tellers_pkey  |            32768
 2017-02-08 01:53:58.801653+01 | 1486515238.80165 | pgbench_accounts_pkey |        112336896

 2017-02-08 01:53:59.994827+01 | 1486515239.99483 | pgbench_branches_pkey |            16384
 2017-02-08 01:53:59.994827+01 | 1486515239.99483 | pgbench_tellers_pkey  |            32768
 2017-02-08 01:53:59.994827+01 | 1486515239.99483 | pgbench_accounts_pkey |        112336896

 2017-02-08 01:54:01.187641+01 | 1486515241.18764 | pgbench_branches_pkey |            16384
 2017-02-08 01:54:01.187641+01 | 1486515241.18764 | pgbench_tellers_pkey  |            32768
 2017-02-08 01:54:01.187641+01 | 1486515241.18764 | pgbench_accounts_pkey |        112336896

 2017-02-08 01:54:02.33414+01 | 1486515242.33414 | pgbench_branches_pkey |            16384
 2017-02-08 01:54:02.33414+01 | 1486515242.33414 | pgbench_tellers_pkey  |            32768
 2017-02-08 01:54:02.33414+01 | 1486515242.33414 | pgbench_accounts_pkey |        112336896

 2017-02-08 01:54:03.506088+01 | 1486515243.50609 | pgbench_branches_pkey |            16384
 2017-02-08 01:54:03.506088+01 | 1486515243.50609 | pgbench_tellers_pkey  |            32768
 2017-02-08 01:54:03.506088+01 | 1486515243.50609 | pgbench_accounts_pkey |        112336896

 2017-02-08 01:54:04.700715+01 | 1486515244.70072 | pgbench_branches_pkey |            16384
 2017-02-08 01:54:04.700715+01 | 1486515244.70072 | pgbench_tellers_pkey  |            32768
 2017-02-08 01:54:04.700715+01 | 1486515244.70072 | pgbench_accounts_pkey |        112336896

 2017-02-08 01:54:05.893429+01 | 1486515245.89343 | pgbench_branches_pkey |            16384
 2017-02-08 01:54:05.893429+01 | 1486515245.89343 | pgbench_tellers_pkey  |            32768
 2017-02-08 01:54:05.893429+01 | 1486515245.89343 | pgbench_accounts_pkey |        112336896

 2017-02-08 01:54:07.088109+01 | 1486515247.08811 | pgbench_branches_pkey |            16384
 2017-02-08 01:54:07.088109+01 | 1486515247.08811 | pgbench_tellers_pkey  |            32768
 2017-02-08 01:54:07.088109+01 | 1486515247.08811 | pgbench_accounts_pkey |        112336896

 2017-02-08 01:54:08.285345+01 | 1486515248.28535 | pgbench_branches_pkey |            16384
 2017-02-08 01:54:08.285345+01 | 1486515248.28535 | pgbench_tellers_pkey  |            32768
 2017-02-08 01:54:08.285345+01 | 1486515248.28535 | pgbench_accounts_pkey |        112336896

 2017-02-08 01:54:09.479499+01 | 1486515249.4795 | pgbench_branches_pkey |            16384
 2017-02-08 01:54:09.479499+01 | 1486515249.4795 | pgbench_tellers_pkey  |            32768
 2017-02-08 01:54:09.479499+01 | 1486515249.4795 | pgbench_accounts_pkey |        112336896

 2017-02-08 01:54:10.673894+01 | 1486515250.67389 | pgbench_branches_pkey |            16384
 2017-02-08 01:54:10.673894+01 | 1486515250.67389 | pgbench_tellers_pkey  |            32768
 2017-02-08 01:54:10.673894+01 | 1486515250.67389 | pgbench_accounts_pkey |        112336896

