 2017-02-08 12:37:53.325884+01 | 1486553873.32588 |                 0 |               4 |                  1297 |                  278 |             210347 |             0 |                0 |          307573 |                     0 |        143726 | 2017-02-08 12:22:41.823759+01

 2017-02-08 12:37:54.378553+01 | 1486553874.37855 |                 0 |               4 |                  1297 |                  278 |             210347 |             0 |                0 |          307573 |                     0 |        143827 | 2017-02-08 12:22:41.823759+01

 2017-02-08 12:37:55.43622+01 | 1486553875.43622 |                 0 |               4 |                  1297 |                  278 |             210347 |             0 |                0 |          307573 |                     0 |        143878 | 2017-02-08 12:22:41.823759+01

 2017-02-08 12:37:56.489323+01 | 1486553876.48932 |                 0 |               4 |                  1297 |                  278 |             210347 |             0 |                0 |          307573 |                     0 |        143945 | 2017-02-08 12:22:41.823759+01

 2017-02-08 12:37:57.544556+01 | 1486553877.54456 |                 0 |               4 |                  1297 |                  278 |             210347 |             0 |                0 |          307573 |                     0 |        144016 | 2017-02-08 12:22:41.823759+01

 2017-02-08 12:37:58.600217+01 | 1486553878.60022 |                 0 |               4 |                  1297 |                  278 |             210347 |             0 |                0 |          307573 |                     0 |        144110 | 2017-02-08 12:22:41.823759+01

 2017-02-08 12:37:59.6531+01 | 1486553879.6531 |                 0 |               4 |                  1297 |                  278 |             210347 |             0 |                0 |          307573 |                     0 |        144183 | 2017-02-08 12:22:41.823759+01

 2017-02-08 12:38:00.70548+01 | 1486553880.70548 |                 0 |               4 |                  1297 |                  278 |             210347 |             0 |                0 |          307573 |                     0 |        144263 | 2017-02-08 12:22:41.823759+01

 2017-02-08 12:38:01.767059+01 | 1486553881.76706 |                 0 |               4 |                  1297 |                  278 |             210347 |             0 |                0 |          307573 |                     0 |        144341 | 2017-02-08 12:22:41.823759+01

 2017-02-08 12:38:02.824812+01 | 1486553882.82481 |                 0 |               4 |                  1297 |                  278 |             210347 |             0 |                0 |          307573 |                     0 |        144433 | 2017-02-08 12:22:41.823759+01

 2017-02-08 12:38:03.883032+01 | 1486553883.88303 |                 0 |               4 |                  1297 |                  278 |             210347 |             0 |                0 |          307573 |                     0 |        144508 | 2017-02-08 12:22:41.823759+01

 2017-02-08 12:38:04.93413+01 | 1486553884.93413 |                 0 |               4 |                  1297 |                  278 |             210347 |             0 |                0 |          307573 |                     0 |        144584 | 2017-02-08 12:22:41.823759+01

 2017-02-08 12:38:05.988132+01 | 1486553885.98813 |                 0 |               4 |                  1297 |                  278 |             210347 |             0 |                0 |          307573 |                     0 |        144676 | 2017-02-08 12:22:41.823759+01

 2017-02-08 12:38:07.043588+01 | 1486553887.04359 |                 0 |               4 |                  1297 |                  278 |             210347 |             0 |                0 |          307573 |                     0 |        144753 | 2017-02-08 12:22:41.823759+01

 2017-02-08 12:38:08.098114+01 | 1486553888.09811 |                 0 |               4 |                  1297 |                  278 |             210347 |             0 |                0 |          307573 |                     0 |        144828 | 2017-02-08 12:22:41.823759+01

 2017-02-08 12:38:09.15091+01 | 1486553889.15091 |                 0 |               4 |                  1297 |                  278 |             210347 |             0 |                0 |          307573 |                     0 |        144914 | 2017-02-08 12:22:41.823759+01

 2017-02-08 12:38:10.207315+01 | 1486553890.20731 |                 0 |               4 |                  1297 |                  278 |             210347 |             0 |                0 |          307573 |                     0 |        145006 | 2017-02-08 12:22:41.823759+01

 2017-02-08 12:38:11.266123+01 | 1486553891.26612 |                 0 |               4 |                  1297 |                  278 |             210347 |             0 |                0 |          307573 |                     0 |        145085 | 2017-02-08 12:22:41.823759+01

 2017-02-08 12:38:12.317615+01 | 1486553892.31762 |                 0 |               4 |                  1297 |                  278 |             210347 |             0 |                0 |          307573 |                     0 |        145162 | 2017-02-08 12:22:41.823759+01

 2017-02-08 12:38:13.373312+01 | 1486553893.37331 |                 0 |               4 |                  1297 |                  278 |             210347 |             0 |                0 |          307573 |                     0 |        145239 | 2017-02-08 12:22:41.823759+01

 2017-02-08 12:38:14.430234+01 | 1486553894.43023 |                 0 |               4 |                  1297 |                  278 |             210347 |             0 |                0 |          307573 |                     0 |        145397 | 2017-02-08 12:22:41.823759+01

 2017-02-08 12:38:15.478339+01 | 1486553895.47834 |                 0 |               4 |                  1297 |                  278 |             210347 |             0 |                0 |          307573 |                     0 |        145518 | 2017-02-08 12:22:41.823759+01

 2017-02-08 12:38:16.536479+01 | 1486553896.53648 |                 0 |               4 |                  1297 |                  278 |             210347 |             0 |                0 |          307573 |                     0 |        145608 | 2017-02-08 12:22:41.823759+01

 2017-02-08 12:38:17.592681+01 | 1486553897.59268 |                 0 |               4 |                  1297 |                  278 |             210347 |             0 |                0 |          307573 |                     0 |        145704 | 2017-02-08 12:22:41.823759+01

 2017-02-08 12:38:18.645876+01 | 1486553898.64588 |                 0 |               4 |                  1297 |                  278 |             210347 |             0 |                0 |          307573 |                     0 |        145784 | 2017-02-08 12:22:41.823759+01

 2017-02-08 12:38:19.702686+01 | 1486553899.70269 |                 0 |               4 |                  1297 |                  278 |             210347 |             0 |                0 |          307573 |                     0 |        145868 | 2017-02-08 12:22:41.823759+01

 2017-02-08 12:38:20.757119+01 | 1486553900.75712 |                 0 |               4 |                  1297 |                  278 |             210347 |             0 |                0 |          307573 |                     0 |        145952 | 2017-02-08 12:22:41.823759+01

 2017-02-08 12:38:21.808802+01 | 1486553901.8088 |                 0 |               4 |                  1297 |                  278 |             210347 |             0 |                0 |          307573 |                     0 |        146044 | 2017-02-08 12:22:41.823759+01

 2017-02-08 12:38:22.861815+01 | 1486553902.86181 |                 0 |               4 |                  1297 |                  278 |             210347 |             0 |                0 |          307573 |                     0 |        146127 | 2017-02-08 12:22:41.823759+01

 2017-02-08 12:38:23.916306+01 | 1486553903.91631 |                 0 |               4 |                  1297 |                  278 |             210347 |             0 |                0 |          307573 |                     0 |        146205 | 2017-02-08 12:22:41.823759+01

 2017-02-08 12:38:24.97165+01 | 1486553904.97165 |                 0 |               4 |                  1297 |                  278 |             210347 |             0 |                0 |          307573 |                     0 |        146281 | 2017-02-08 12:22:41.823759+01

 2017-02-08 12:38:26.027155+01 | 1486553906.02715 |                 0 |               4 |                  1297 |                  278 |             210347 |             0 |                0 |          307573 |                     0 |        146379 | 2017-02-08 12:22:41.823759+01

 2017-02-08 12:38:27.078715+01 | 1486553907.07872 |                 0 |               4 |                  1297 |                  278 |             210347 |             0 |                0 |          307573 |                     0 |        146452 | 2017-02-08 12:22:41.823759+01

 2017-02-08 12:38:28.13112+01 | 1486553908.13112 |                 0 |               4 |                  1297 |                  278 |             210347 |             0 |                0 |          307573 |                     0 |        146533 | 2017-02-08 12:22:41.823759+01

 2017-02-08 12:38:29.188242+01 | 1486553909.18824 |                 0 |               4 |                  1297 |                  278 |             210347 |             0 |                0 |          307573 |                     0 |        146615 | 2017-02-08 12:22:41.823759+01

 2017-02-08 12:38:30.245275+01 | 1486553910.24528 |                 0 |               4 |                  1297 |                  278 |             210347 |             0 |                0 |          307573 |                     0 |        146716 | 2017-02-08 12:22:41.823759+01

 2017-02-08 12:38:31.302065+01 | 1486553911.30206 |                 0 |               4 |                  1297 |                  278 |             210347 |             0 |                0 |          307573 |                     0 |        146791 | 2017-02-08 12:22:41.823759+01

 2017-02-08 12:38:32.354495+01 | 1486553912.3545 |                 0 |               4 |                  1297 |                  278 |             210347 |             0 |                0 |          307573 |                     0 |        146867 | 2017-02-08 12:22:41.823759+01

 2017-02-08 12:38:33.408973+01 | 1486553913.40897 |                 0 |               4 |                  1297 |                  278 |             210347 |             0 |                0 |          307573 |                     0 |        146961 | 2017-02-08 12:22:41.823759+01

 2017-02-08 12:38:34.462606+01 | 1486553914.46261 |                 0 |               4 |                  1297 |                  278 |             210347 |             0 |                0 |          307573 |                     0 |        147039 | 2017-02-08 12:22:41.823759+01

 2017-02-08 12:38:35.512456+01 | 1486553915.51246 |                 0 |               4 |                  1297 |                  278 |             210347 |             0 |                0 |          307573 |                     0 |        147112 | 2017-02-08 12:22:41.823759+01

 2017-02-08 12:38:36.569913+01 | 1486553916.56991 |                 0 |               4 |                  1297 |                  278 |             210347 |             0 |                0 |          307573 |                     0 |        147193 | 2017-02-08 12:22:41.823759+01

 2017-02-08 12:38:37.625976+01 | 1486553917.62598 |                 0 |               4 |                  1297 |                  278 |             210347 |             0 |                0 |          307573 |                     0 |        147288 | 2017-02-08 12:22:41.823759+01

 2017-02-08 12:38:38.68293+01 | 1486553918.68293 |                 0 |               4 |                  1297 |                  278 |             210347 |             0 |                0 |          307573 |                     0 |        147366 | 2017-02-08 12:22:41.823759+01

 2017-02-08 12:38:39.738404+01 | 1486553919.7384 |                 0 |               4 |                  1297 |                  278 |             210347 |             0 |                0 |          307573 |                     0 |        147455 | 2017-02-08 12:22:41.823759+01

 2017-02-08 12:38:40.792631+01 | 1486553920.79263 |                 0 |               4 |                  1297 |                  278 |             210347 |             0 |                0 |          307573 |                     0 |        147568 | 2017-02-08 12:22:41.823759+01

 2017-02-08 12:38:41.842767+01 | 1486553921.84277 |                 0 |               4 |                  1297 |                  278 |             210347 |             0 |                0 |          307573 |                     0 |        147631 | 2017-02-08 12:22:41.823759+01

 2017-02-08 12:38:42.897171+01 | 1486553922.89717 |                 0 |               4 |                  1297 |                  278 |             210347 |             0 |                0 |          307573 |                     0 |        147712 | 2017-02-08 12:22:41.823759+01

 2017-02-08 12:38:43.950967+01 | 1486553923.95097 |                 0 |               4 |                  1297 |                  278 |             210347 |             0 |                0 |          307573 |                     0 |        147789 | 2017-02-08 12:22:41.823759+01

 2017-02-08 12:38:45.003119+01 | 1486553925.00312 |                 0 |               4 |                  1297 |                  278 |             210347 |             0 |                0 |          307573 |                     0 |        147873 | 2017-02-08 12:22:41.823759+01

 2017-02-08 12:38:46.056559+01 | 1486553926.05656 |                 0 |               4 |                  1297 |                  278 |             210347 |             0 |                0 |          307573 |                     0 |        147971 | 2017-02-08 12:22:41.823759+01

 2017-02-08 12:38:47.113543+01 | 1486553927.11354 |                 0 |               4 |                  1297 |                  278 |             210347 |             0 |                0 |          307573 |                     0 |        148055 | 2017-02-08 12:22:41.823759+01

 2017-02-08 12:38:48.171904+01 | 1486553928.1719 |                 0 |               4 |                  1297 |                  278 |             210347 |             0 |                0 |          307573 |                     0 |        148139 | 2017-02-08 12:22:41.823759+01

 2017-02-08 12:38:49.222414+01 | 1486553929.22241 |                 0 |               4 |                  1297 |                  278 |             210347 |             0 |                0 |          307573 |                     0 |        148239 | 2017-02-08 12:22:41.823759+01

 2017-02-08 12:38:50.277701+01 | 1486553930.2777 |                 0 |               4 |                  1297 |                  278 |             210347 |             0 |                0 |          307573 |                     0 |        148321 | 2017-02-08 12:22:41.823759+01

 2017-02-08 12:38:51.340564+01 | 1486553931.34056 |                 0 |               4 |                  1297 |                  278 |             210347 |             0 |                0 |          307573 |                     0 |        148400 | 2017-02-08 12:22:41.823759+01

 2017-02-08 12:38:52.391339+01 | 1486553932.39134 |                 0 |               4 |                  1297 |                  278 |             210347 |             0 |                0 |          307573 |                     0 |        148479 | 2017-02-08 12:22:41.823759+01

 2017-02-08 12:38:53.441619+01 | 1486553933.44162 |                 0 |               4 |                  1297 |                  278 |             210347 |             0 |                0 |          307573 |                     0 |        148578 | 2017-02-08 12:22:41.823759+01

 2017-02-08 12:38:54.497064+01 | 1486553934.49706 |                 0 |               4 |                  1297 |                  278 |             210347 |             0 |                0 |          307573 |                     0 |        148661 | 2017-02-08 12:22:41.823759+01

 2017-02-08 12:38:55.552914+01 | 1486553935.55291 |                 0 |               4 |                  1297 |                  278 |             210347 |             0 |                0 |          307573 |                     0 |        148743 | 2017-02-08 12:22:41.823759+01

 2017-02-08 12:38:56.609132+01 | 1486553936.60913 |                 0 |               4 |                  1297 |                  278 |             210347 |             0 |                0 |          307573 |                     0 |        148824 | 2017-02-08 12:22:41.823759+01

 2017-02-08 12:38:57.66113+01 | 1486553937.66113 |                 0 |               4 |                  1297 |                  278 |             210347 |             0 |                0 |          307573 |                     0 |        148917 | 2017-02-08 12:22:41.823759+01

 2017-02-08 12:38:58.712637+01 | 1486553938.71264 |                 0 |               4 |                  1297 |                  278 |             210347 |             0 |                0 |          307573 |                     0 |        149006 | 2017-02-08 12:22:41.823759+01

 2017-02-08 12:38:59.768168+01 | 1486553939.76817 |                 0 |               4 |                  1297 |                  278 |             210347 |             0 |                0 |          307573 |                     0 |        149090 | 2017-02-08 12:22:41.823759+01

 2017-02-08 12:39:00.822508+01 | 1486553940.82251 |                 0 |               4 |                  1297 |                  278 |             210347 |             0 |                0 |          307573 |                     0 |        149171 | 2017-02-08 12:22:41.823759+01

 2017-02-08 12:39:01.87988+01 | 1486553941.87988 |                 0 |               4 |                  1297 |                  278 |             210347 |             0 |                0 |          307573 |                     0 |        149269 | 2017-02-08 12:22:41.823759+01

 2017-02-08 12:39:02.93478+01 | 1486553942.93478 |                 0 |               4 |                  1297 |                  278 |             210347 |             0 |                0 |          307573 |                     0 |        149387 | 2017-02-08 12:22:41.823759+01

 2017-02-08 12:39:03.992332+01 | 1486553943.99233 |                 0 |               4 |                  1297 |                  278 |             210347 |             0 |                0 |          307573 |                     0 |        149448 | 2017-02-08 12:22:41.823759+01

 2017-02-08 12:39:05.045594+01 | 1486553945.04559 |                 0 |               4 |                  1297 |                  278 |             210347 |             0 |                0 |          307573 |                     0 |        149529 | 2017-02-08 12:22:41.823759+01

 2017-02-08 12:39:06.100483+01 | 1486553946.10048 |                 0 |               4 |                  1297 |                  278 |             210347 |             0 |                0 |          307573 |                     0 |        149637 | 2017-02-08 12:22:41.823759+01

 2017-02-08 12:39:07.153632+01 | 1486553947.15363 |                 0 |               4 |                  1297 |                  278 |             210347 |             0 |                0 |          307573 |                     0 |        149710 | 2017-02-08 12:22:41.823759+01

 2017-02-08 12:39:08.21189+01 | 1486553948.21189 |                 0 |               4 |                  1297 |                  278 |             210347 |             0 |                0 |          307573 |                     0 |        149789 | 2017-02-08 12:22:41.823759+01

 2017-02-08 12:39:09.268325+01 | 1486553949.26833 |                 0 |               4 |                  1297 |                  278 |             210347 |             0 |                0 |          307573 |                     0 |        149880 | 2017-02-08 12:22:41.823759+01

 2017-02-08 12:39:10.322919+01 | 1486553950.32292 |                 0 |               4 |                  1297 |                  278 |             210347 |             0 |                0 |          307573 |                     0 |        149958 | 2017-02-08 12:22:41.823759+01

 2017-02-08 12:39:11.377582+01 | 1486553951.37758 |                 0 |               4 |                  1297 |                  278 |             210347 |             0 |                0 |          307573 |                     0 |        150037 | 2017-02-08 12:22:41.823759+01

 2017-02-08 12:39:12.42337+01 | 1486553952.42337 |                 0 |               4 |                  1297 |                  278 |             210347 |             0 |                0 |          307573 |                     0 |        150164 | 2017-02-08 12:22:41.823759+01

 2017-02-08 12:39:13.479728+01 | 1486553953.47973 |                 0 |               4 |                  1297 |                  278 |             210347 |             0 |                0 |          307573 |                     0 |        150219 | 2017-02-08 12:22:41.823759+01

 2017-02-08 12:39:14.536956+01 | 1486553954.53696 |                 0 |               4 |                  1297 |                  278 |             210347 |             0 |                0 |          307573 |                     0 |        150303 | 2017-02-08 12:22:41.823759+01

 2017-02-08 12:39:15.590777+01 | 1486553955.59078 |                 0 |               4 |                  1297 |                  278 |             210347 |             0 |                0 |          307573 |                     0 |        150383 | 2017-02-08 12:22:41.823759+01

 2017-02-08 12:39:16.647243+01 | 1486553956.64724 |                 0 |               4 |                  1297 |                  278 |             210347 |             0 |                0 |          307573 |                     0 |        150478 | 2017-02-08 12:22:41.823759+01

 2017-02-08 12:39:17.690049+01 | 1486553957.69005 |                 0 |               4 |                  1297 |                  278 |             210347 |             0 |                0 |          307573 |                     0 |        150544 | 2017-02-08 12:22:41.823759+01

 2017-02-08 12:39:18.744571+01 | 1486553958.74457 |                 0 |               4 |                  1297 |                  278 |             210347 |             0 |                0 |          307573 |                     0 |        150646 | 2017-02-08 12:22:41.823759+01

 2017-02-08 12:39:19.805189+01 | 1486553959.80519 |                 0 |               4 |                  1297 |                  278 |             210347 |             0 |                0 |          307573 |                     0 |        150740 | 2017-02-08 12:22:41.823759+01

 2017-02-08 12:39:20.857163+01 | 1486553960.85716 |                 0 |               4 |                  1297 |                  278 |             210347 |             0 |                0 |          307573 |                     0 |        150853 | 2017-02-08 12:22:41.823759+01

 2017-02-08 12:39:21.913788+01 | 1486553961.91379 |                 0 |               4 |                  1297 |                  278 |             210347 |             0 |                0 |          307573 |                     0 |        150934 | 2017-02-08 12:22:41.823759+01

 2017-02-08 12:39:22.971628+01 | 1486553962.97163 |                 0 |               4 |                  1297 |                  278 |             210347 |             0 |                0 |          307573 |                     0 |        151015 | 2017-02-08 12:22:41.823759+01

 2017-02-08 12:39:24.028404+01 | 1486553964.0284 |                 0 |               4 |                  1297 |                  278 |             210347 |             0 |                0 |          307573 |                     0 |        151094 | 2017-02-08 12:22:41.823759+01

 2017-02-08 12:39:25.084808+01 | 1486553965.08481 |                 0 |               4 |                  1297 |                  278 |             210347 |             0 |                0 |          307573 |                     0 |        151185 | 2017-02-08 12:22:41.823759+01

 2017-02-08 12:39:26.142573+01 | 1486553966.14257 |                 0 |               4 |                  1297 |                  278 |             210347 |             0 |                0 |          307573 |                     0 |        151264 | 2017-02-08 12:22:41.823759+01

 2017-02-08 12:39:27.201259+01 | 1486553967.20126 |                 0 |               4 |                  1297 |                  278 |             210347 |             0 |                0 |          307573 |                     0 |        151362 | 2017-02-08 12:22:41.823759+01

 2017-02-08 12:39:28.273513+01 | 1486553968.27351 |                 0 |               4 |                  1297 |                  278 |             210347 |             0 |                0 |          307573 |                     0 |        151417 | 2017-02-08 12:22:41.823759+01

 2017-02-08 12:39:29.331339+01 | 1486553969.33134 |                 0 |               4 |                  1297 |                  278 |             210347 |             0 |                0 |          307573 |                     0 |        151505 | 2017-02-08 12:22:41.823759+01

 2017-02-08 12:39:30.386664+01 | 1486553970.38666 |                 0 |               4 |                  1297 |                  278 |             210347 |             0 |                0 |          307573 |                     0 |        151577 | 2017-02-08 12:22:41.823759+01

 2017-02-08 12:39:31.444195+01 | 1486553971.4442 |                 0 |               4 |                  1297 |                  278 |             210347 |             0 |                0 |          307573 |                     0 |        151662 | 2017-02-08 12:22:41.823759+01

 2017-02-08 12:39:32.500768+01 | 1486553972.50077 |                 0 |               4 |                  1297 |                  278 |             210347 |             0 |                0 |          307573 |                     0 |        151759 | 2017-02-08 12:22:41.823759+01

 2017-02-08 12:39:33.555665+01 | 1486553973.55567 |                 0 |               4 |                  1297 |                  278 |             210347 |             0 |                0 |          307573 |                     0 |        151820 | 2017-02-08 12:22:41.823759+01

 2017-02-08 12:39:34.608495+01 | 1486553974.60849 |                 0 |               4 |                  1297 |                  278 |             210347 |             0 |                0 |          307573 |                     0 |        151908 | 2017-02-08 12:22:41.823759+01

 2017-02-08 12:39:35.664247+01 | 1486553975.66425 |                 0 |               4 |                  1297 |                  278 |             210347 |             0 |                0 |          307573 |                     0 |        151983 | 2017-02-08 12:22:41.823759+01

 2017-02-08 12:39:36.716959+01 | 1486553976.71696 |                 0 |               4 |                  1297 |                  278 |             210347 |             0 |                0 |          307573 |                     0 |        152059 | 2017-02-08 12:22:41.823759+01

 2017-02-08 12:39:37.773681+01 | 1486553977.77368 |                 0 |               4 |                  1297 |                  278 |             210347 |             0 |                0 |          307573 |                     0 |        152136 | 2017-02-08 12:22:41.823759+01

 2017-02-08 12:39:38.840048+01 | 1486553978.84005 |                 0 |               4 |                  1297 |                  278 |             210347 |             0 |                0 |          307573 |                     0 |        152233 | 2017-02-08 12:22:41.823759+01

 2017-02-08 12:39:39.894772+01 | 1486553979.89477 |                 0 |               4 |                  1297 |                  278 |             210347 |             0 |                0 |          307573 |                     0 |        152307 | 2017-02-08 12:22:41.823759+01

 2017-02-08 12:39:40.951331+01 | 1486553980.95133 |                 0 |               4 |                  1297 |                  278 |             210347 |             0 |                0 |          307573 |                     0 |        152385 | 2017-02-08 12:22:41.823759+01

 2017-02-08 12:39:42.001971+01 | 1486553982.00197 |                 0 |               4 |                  1297 |                  278 |             210347 |             0 |                0 |          307573 |                     0 |        152482 | 2017-02-08 12:22:41.823759+01

 2017-02-08 12:39:43.058463+01 | 1486553983.05846 |                 0 |               4 |                  1297 |                  278 |             210347 |             0 |                0 |          307573 |                     0 |        152555 | 2017-02-08 12:22:41.823759+01

 2017-02-08 12:39:44.110851+01 | 1486553984.11085 |                 0 |               4 |                  1297 |                  278 |             210347 |             0 |                0 |          307573 |                     0 |        152635 | 2017-02-08 12:22:41.823759+01

 2017-02-08 12:39:45.16966+01 | 1486553985.16966 |                 0 |               4 |                  1297 |                  278 |             210347 |             0 |                0 |          307573 |                     0 |        152714 | 2017-02-08 12:22:41.823759+01

 2017-02-08 12:39:46.223417+01 | 1486553986.22342 |                 0 |               4 |                  1297 |                  278 |             210347 |             0 |                0 |          307573 |                     0 |        152808 | 2017-02-08 12:22:41.823759+01

 2017-02-08 12:39:47.281662+01 | 1486553987.28166 |                 0 |               4 |                  1297 |                  278 |             210347 |             0 |                0 |          307573 |                     0 |        152884 | 2017-02-08 12:22:41.823759+01

 2017-02-08 12:39:48.336096+01 | 1486553988.3361 |                 0 |               4 |                  1297 |                  278 |             210347 |             0 |                0 |          307573 |                     0 |        152959 | 2017-02-08 12:22:41.823759+01

 2017-02-08 12:39:49.387188+01 | 1486553989.38719 |                 0 |               4 |                  1297 |                  278 |             210347 |             0 |                0 |          307573 |                     0 |        153037 | 2017-02-08 12:22:41.823759+01

 2017-02-08 12:39:50.440477+01 | 1486553990.44048 |                 0 |               4 |                  1297 |                  278 |             210347 |             0 |                0 |          307573 |                     0 |        153129 | 2017-02-08 12:22:41.823759+01

 2017-02-08 12:39:51.494798+01 | 1486553991.4948 |                 0 |               4 |                  1297 |                  278 |             210347 |             0 |                0 |          307573 |                     0 |        153210 | 2017-02-08 12:22:41.823759+01

 2017-02-08 12:39:52.552491+01 | 1486553992.55249 |                 0 |               4 |                  1297 |                  278 |             210347 |             0 |                0 |          307573 |                     0 |        153285 | 2017-02-08 12:22:41.823759+01

 2017-02-08 12:39:53.609901+01 | 1486553993.6099 |                 0 |               4 |                  1297 |                  278 |             210347 |             0 |                0 |          307573 |                     0 |        153374 | 2017-02-08 12:22:41.823759+01

 2017-02-08 12:39:54.665844+01 | 1486553994.66584 |                 0 |               4 |                  1297 |                  278 |             210347 |             0 |                0 |          307573 |                     0 |        153451 | 2017-02-08 12:22:41.823759+01

 2017-02-08 12:39:55.726605+01 | 1486553995.7266 |                 0 |               4 |                  1297 |                  278 |             210347 |             0 |                0 |          307573 |                     0 |        153530 | 2017-02-08 12:22:41.823759+01

 2017-02-08 12:39:56.782728+01 | 1486553996.78273 |                 0 |               4 |                  1297 |                  278 |             210347 |             0 |                0 |          307573 |                     0 |        153609 | 2017-02-08 12:22:41.823759+01

 2017-02-08 12:39:57.839583+01 | 1486553997.83958 |                 0 |               4 |                  1297 |                  278 |             210347 |             0 |                0 |          307573 |                     0 |        153694 | 2017-02-08 12:22:41.823759+01

 2017-02-08 12:39:58.892126+01 | 1486553998.89213 |                 0 |               4 |                  1297 |                  278 |             210347 |             0 |                0 |          307573 |                     0 |        153769 | 2017-02-08 12:22:41.823759+01

 2017-02-08 12:39:59.945618+01 | 1486553999.94562 |                 0 |               4 |                  1297 |                  278 |             210347 |             0 |                0 |          307573 |                     0 |        153848 | 2017-02-08 12:22:41.823759+01

 2017-02-08 12:40:01.007617+01 | 1486554001.00762 |                 0 |               4 |                  1297 |                  278 |             210347 |             0 |                0 |          307573 |                     0 |        153920 | 2017-02-08 12:22:41.823759+01

 2017-02-08 12:40:02.065422+01 | 1486554002.06542 |                 0 |               4 |                  1297 |                  278 |             210347 |             0 |                0 |          307573 |                     0 |        154016 | 2017-02-08 12:22:41.823759+01

 2017-02-08 12:40:03.119044+01 | 1486554003.11904 |                 0 |               4 |                  1297 |                  278 |             210347 |             0 |                0 |          307573 |                     0 |        154093 | 2017-02-08 12:22:41.823759+01

 2017-02-08 12:40:04.176285+01 | 1486554004.17629 |                 0 |               4 |                  1297 |                  278 |             210347 |             0 |                0 |          307573 |                     0 |        154170 | 2017-02-08 12:22:41.823759+01

 2017-02-08 12:40:05.232259+01 | 1486554005.23226 |                 0 |               4 |                  1297 |                  278 |             210347 |             0 |                0 |          307573 |                     0 |        154264 | 2017-02-08 12:22:41.823759+01

 2017-02-08 12:40:06.28594+01 | 1486554006.28594 |                 0 |               4 |                  1297 |                  278 |             210347 |             0 |                0 |          307573 |                     0 |        154343 | 2017-02-08 12:22:41.823759+01

 2017-02-08 12:40:07.341971+01 | 1486554007.34197 |                 0 |               4 |                  1297 |                  278 |             210347 |             0 |                0 |          307573 |                     0 |        154422 | 2017-02-08 12:22:41.823759+01

 2017-02-08 12:40:08.403434+01 | 1486554008.40343 |                 0 |               4 |                  1297 |                  278 |             210347 |             0 |                0 |          307573 |                     0 |        154497 | 2017-02-08 12:22:41.823759+01

 2017-02-08 12:40:09.463106+01 | 1486554009.46311 |                 0 |               4 |                  1297 |                  278 |             210347 |             0 |                0 |          307573 |                     0 |        154588 | 2017-02-08 12:22:41.823759+01

 2017-02-08 12:40:10.515663+01 | 1486554010.51566 |                 0 |               4 |                  1297 |                  278 |             210347 |             0 |                0 |          307573 |                     0 |        154663 | 2017-02-08 12:22:41.823759+01

 2017-02-08 12:40:11.573999+01 | 1486554011.574 |                 0 |               4 |                  1297 |                  278 |             210347 |             0 |                0 |          307573 |                     0 |        154742 | 2017-02-08 12:22:41.823759+01

 2017-02-08 12:40:12.620017+01 | 1486554012.62002 |                 0 |               4 |                  1297 |                  278 |             210347 |             0 |                0 |          307573 |                     0 |        154820 | 2017-02-08 12:22:41.823759+01

 2017-02-08 12:40:13.674921+01 | 1486554013.67492 |                 0 |               4 |                  1297 |                  278 |             210347 |             0 |                0 |          307573 |                     0 |        154915 | 2017-02-08 12:22:41.823759+01

 2017-02-08 12:40:14.74185+01 | 1486554014.74185 |                 0 |               4 |                  1297 |                  278 |             210347 |             0 |                0 |          307573 |                     0 |        154987 | 2017-02-08 12:22:41.823759+01

 2017-02-08 12:40:15.798866+01 | 1486554015.79887 |                 0 |               4 |                  1297 |                  278 |             210347 |             0 |                0 |          307573 |                     0 |        155064 | 2017-02-08 12:22:41.823759+01

 2017-02-08 12:40:16.855374+01 | 1486554016.85537 |                 0 |               4 |                  1297 |                  278 |             210347 |             0 |                0 |          307573 |                     0 |        155163 | 2017-02-08 12:22:41.823759+01

 2017-02-08 12:40:17.900447+01 | 1486554017.90045 |                 0 |               4 |                  1297 |                  278 |             210347 |             0 |                0 |          307573 |                     0 |        155209 | 2017-02-08 12:22:41.823759+01

 2017-02-08 12:40:18.957609+01 | 1486554018.95761 |                 0 |               4 |                  1297 |                  278 |             210347 |             0 |                0 |          307573 |                     0 |        155316 | 2017-02-08 12:22:41.823759+01

 2017-02-08 12:40:20.012576+01 | 1486554020.01258 |                 0 |               4 |                  1297 |                  278 |             210347 |             0 |                0 |          307573 |                     0 |        155425 | 2017-02-08 12:22:41.823759+01

 2017-02-08 12:40:21.078463+01 | 1486554021.07846 |                 0 |               4 |                  1297 |                  278 |             210347 |             0 |                0 |          307573 |                     0 |        155520 | 2017-02-08 12:22:41.823759+01

 2017-02-08 12:40:22.146582+01 | 1486554022.14658 |                 0 |               4 |                  1297 |                  278 |             210347 |             0 |                0 |          307573 |                     0 |        155594 | 2017-02-08 12:22:41.823759+01

 2017-02-08 12:40:23.224709+01 | 1486554023.22471 |                 0 |               4 |                  1297 |                  278 |             210347 |             0 |                0 |          307573 |                     0 |        155674 | 2017-02-08 12:22:41.823759+01

 2017-02-08 12:40:24.28565+01 | 1486554024.28565 |                 0 |               4 |                  1297 |                  278 |             210347 |             0 |                0 |          307573 |                     0 |        155764 | 2017-02-08 12:22:41.823759+01

 2017-02-08 12:40:25.364459+01 | 1486554025.36446 |                 0 |               4 |                  1297 |                  278 |             210347 |             0 |                0 |          307573 |                     0 |        155809 | 2017-02-08 12:22:41.823759+01

 2017-02-08 12:40:26.419525+01 | 1486554026.41952 |                 0 |               4 |                  1297 |                  278 |             210347 |             0 |                0 |          307573 |                     0 |        155920 | 2017-02-08 12:22:41.823759+01

 2017-02-08 12:40:27.474244+01 | 1486554027.47424 |                 0 |               4 |                  1297 |                  278 |             210347 |             0 |                0 |          307573 |                     0 |        156015 | 2017-02-08 12:22:41.823759+01

 2017-02-08 12:40:28.530464+01 | 1486554028.53046 |                 0 |               4 |                  1297 |                  278 |             210347 |             0 |                0 |          307573 |                     0 |        156094 | 2017-02-08 12:22:41.823759+01

 2017-02-08 12:40:29.580945+01 | 1486554029.58095 |                 0 |               4 |                  1297 |                  278 |             210347 |             0 |                0 |          307573 |                     0 |        156171 | 2017-02-08 12:22:41.823759+01

 2017-02-08 12:40:30.636598+01 | 1486554030.6366 |                 0 |               4 |                  1297 |                  278 |             210347 |             0 |                0 |          307573 |                     0 |        156249 | 2017-02-08 12:22:41.823759+01

 2017-02-08 12:40:31.697828+01 | 1486554031.69783 |                 0 |               4 |                  1297 |                  278 |             210347 |             0 |                0 |          307573 |                     0 |        156343 | 2017-02-08 12:22:41.823759+01

 2017-02-08 12:40:32.754855+01 | 1486554032.75485 |                 0 |               4 |                  1297 |                  278 |             210347 |             0 |                0 |          307573 |                     0 |        156420 | 2017-02-08 12:22:41.823759+01

 2017-02-08 12:40:33.81091+01 | 1486554033.81091 |                 0 |               4 |                  1297 |                  278 |             210347 |             0 |                0 |          307573 |                     0 |        156499 | 2017-02-08 12:22:41.823759+01

 2017-02-08 12:40:34.864161+01 | 1486554034.86416 |                 0 |               4 |                  1297 |                  278 |             210347 |             0 |                0 |          307573 |                     0 |        156590 | 2017-02-08 12:22:41.823759+01

 2017-02-08 12:40:35.914378+01 | 1486554035.91438 |                 0 |               4 |                  1297 |                  278 |             210347 |             0 |                0 |          307573 |                     0 |        156666 | 2017-02-08 12:22:41.823759+01

 2017-02-08 12:40:36.966624+01 | 1486554036.96662 |                 0 |               4 |                  1297 |                  278 |             210347 |             0 |                0 |          307573 |                     0 |        156745 | 2017-02-08 12:22:41.823759+01

 2017-02-08 12:40:38.017949+01 | 1486554038.01795 |                 0 |               4 |                  1297 |                  278 |             210347 |             0 |                0 |          307573 |                     0 |        156822 | 2017-02-08 12:22:41.823759+01

 2017-02-08 12:40:39.072917+01 | 1486554039.07292 |                 0 |               4 |                  1297 |                  278 |             210347 |             0 |                0 |          307573 |                     0 |        156914 | 2017-02-08 12:22:41.823759+01

 2017-02-08 12:40:40.128766+01 | 1486554040.12877 |                 0 |               4 |                  1297 |                  278 |             210347 |             0 |                0 |          307573 |                     0 |        156994 | 2017-02-08 12:22:41.823759+01

 2017-02-08 12:40:41.181267+01 | 1486554041.18127 |                 0 |               4 |                  1297 |                  278 |             210347 |             0 |                0 |          307573 |                     0 |        157074 | 2017-02-08 12:22:41.823759+01

 2017-02-08 12:40:42.238797+01 | 1486554042.2388 |                 0 |               4 |                  1297 |                  278 |             210347 |             0 |                0 |          307573 |                     0 |        157152 | 2017-02-08 12:22:41.823759+01

 2017-02-08 12:40:43.290855+01 | 1486554043.29085 |                 0 |               4 |                  1297 |                  278 |             210347 |             0 |                0 |          307573 |                     0 |        157247 | 2017-02-08 12:22:41.823759+01

 2017-02-08 12:40:44.348775+01 | 1486554044.34877 |                 0 |               4 |                  1297 |                  278 |             210347 |             0 |                0 |          307573 |                     0 |        157343 | 2017-02-08 12:22:41.823759+01

 2017-02-08 12:40:45.400612+01 | 1486554045.40061 |                 0 |               4 |                  1297 |                  278 |             210347 |             0 |                0 |          307573 |                     0 |        157398 | 2017-02-08 12:22:41.823759+01

 2017-02-08 12:40:46.455905+01 | 1486554046.4559 |                 0 |               4 |                  1297 |                  278 |             210347 |             0 |                0 |          307573 |                     0 |        157486 | 2017-02-08 12:22:41.823759+01

 2017-02-08 12:40:47.515967+01 | 1486554047.51597 |                 0 |               4 |                  1297 |                  278 |             210347 |             0 |                0 |          307573 |                     0 |        157566 | 2017-02-08 12:22:41.823759+01

 2017-02-08 12:40:48.573992+01 | 1486554048.57399 |                 0 |               4 |                  1297 |                  278 |             210347 |             0 |                0 |          307573 |                     0 |        157643 | 2017-02-08 12:22:41.823759+01

 2017-02-08 12:40:49.627292+01 | 1486554049.62729 |                 0 |               4 |                  1297 |                  278 |             210347 |             0 |                0 |          307573 |                     0 |        157716 | 2017-02-08 12:22:41.823759+01

 2017-02-08 12:40:50.682933+01 | 1486554050.68293 |                 0 |               4 |                  1297 |                  278 |             210347 |             0 |                0 |          307573 |                     0 |        157808 | 2017-02-08 12:22:41.823759+01

 2017-02-08 12:40:51.735655+01 | 1486554051.73566 |                 0 |               4 |                  1297 |                  278 |             210347 |             0 |                0 |          307573 |                     0 |        157891 | 2017-02-08 12:22:41.823759+01

 2017-02-08 12:40:52.79066+01 | 1486554052.79066 |                 0 |               4 |                  1297 |                  278 |             210347 |             0 |                0 |          307573 |                     0 |        157967 | 2017-02-08 12:22:41.823759+01

 2017-02-08 12:40:53.847128+01 | 1486554053.84713 |                 0 |               4 |                  1297 |                  278 |             210347 |             0 |                0 |          307573 |                     0 |        158041 | 2017-02-08 12:22:41.823759+01

 2017-02-08 12:40:54.903365+01 | 1486554054.90336 |                 0 |               4 |                  1297 |                  278 |             210347 |             0 |                0 |          307573 |                     0 |        158142 | 2017-02-08 12:22:41.823759+01

 2017-02-08 12:40:55.960582+01 | 1486554055.96058 |                 0 |               4 |                  1297 |                  278 |             210347 |             0 |                0 |          307573 |                     0 |        158227 | 2017-02-08 12:22:41.823759+01

 2017-02-08 12:40:57.011451+01 | 1486554057.01145 |                 0 |               4 |                  1297 |                  278 |             210347 |             0 |                0 |          307573 |                     0 |        158301 | 2017-02-08 12:22:41.823759+01

 2017-02-08 12:40:58.062304+01 | 1486554058.0623 |                 0 |               4 |                  1297 |                  278 |             210347 |             0 |                0 |          307573 |                     0 |        158379 | 2017-02-08 12:22:41.823759+01

 2017-02-08 12:40:59.116199+01 | 1486554059.1162 |                 0 |               4 |                  1297 |                  278 |             210347 |             0 |                0 |          307573 |                     0 |        158474 | 2017-02-08 12:22:41.823759+01

 2017-02-08 12:41:00.167296+01 | 1486554060.1673 |                 0 |               4 |                  1297 |                  278 |             210347 |             0 |                0 |          307573 |                     0 |        158562 | 2017-02-08 12:22:41.823759+01

 2017-02-08 12:41:01.22812+01 | 1486554061.22812 |                 0 |               4 |                  1297 |                  278 |             210347 |             0 |                0 |          307573 |                     0 |        158645 | 2017-02-08 12:22:41.823759+01

 2017-02-08 12:41:02.28217+01 | 1486554062.28217 |                 0 |               4 |                  1297 |                  278 |             210347 |             0 |                0 |          307573 |                     0 |        158714 | 2017-02-08 12:22:41.823759+01

 2017-02-08 12:41:03.34029+01 | 1486554063.34029 |                 0 |               4 |                  1297 |                  278 |             210347 |             0 |                0 |          307573 |                     0 |        158785 | 2017-02-08 12:22:41.823759+01

 2017-02-08 12:41:04.391767+01 | 1486554064.39177 |                 0 |               4 |                  1297 |                  278 |             210347 |             0 |                0 |          307573 |                     0 |        158882 | 2017-02-08 12:22:41.823759+01

 2017-02-08 12:41:05.452135+01 | 1486554065.45214 |                 0 |               4 |                  1297 |                  278 |             210347 |             0 |                0 |          307573 |                     0 |        158984 | 2017-02-08 12:22:41.823759+01

 2017-02-08 12:41:06.510856+01 | 1486554066.51086 |                 0 |               4 |                  1297 |                  278 |             210347 |             0 |                0 |          307573 |                     0 |        159040 | 2017-02-08 12:22:41.823759+01

 2017-02-08 12:41:07.56836+01 | 1486554067.56836 |                 0 |               4 |                  1297 |                  278 |             210347 |             0 |                0 |          307573 |                     0 |        159110 | 2017-02-08 12:22:41.823759+01

 2017-02-08 12:41:08.623447+01 | 1486554068.62345 |                 0 |               4 |                  1297 |                  278 |             210347 |             0 |                0 |          307573 |                     0 |        159207 | 2017-02-08 12:22:41.823759+01

 2017-02-08 12:41:09.678023+01 | 1486554069.67802 |                 0 |               4 |                  1297 |                  278 |             210347 |             0 |                0 |          307573 |                     0 |        159278 | 2017-02-08 12:22:41.823759+01

 2017-02-08 12:41:10.732629+01 | 1486554070.73263 |                 0 |               4 |                  1297 |                  278 |             210347 |             0 |                0 |          307573 |                     0 |        159356 | 2017-02-08 12:22:41.823759+01

 2017-02-08 12:41:11.790679+01 | 1486554071.79068 |                 0 |               4 |                  1297 |                  278 |             210347 |             0 |                0 |          307573 |                     0 |        159432 | 2017-02-08 12:22:41.823759+01

 2017-02-08 12:41:12.834368+01 | 1486554072.83437 |                 0 |               4 |                  1297 |                  278 |             210347 |             0 |                0 |          307573 |                     0 |        159492 | 2017-02-08 12:22:41.823759+01

 2017-02-08 12:41:13.890026+01 | 1486554073.89003 |                 0 |               4 |                  1297 |                  278 |             210347 |             0 |                0 |          307573 |                     0 |        159598 | 2017-02-08 12:22:41.823759+01

 2017-02-08 12:41:14.947409+01 | 1486554074.94741 |                 0 |               4 |                  1297 |                  278 |             210347 |             0 |                0 |          307573 |                     0 |        159679 | 2017-02-08 12:22:41.823759+01

 2017-02-08 12:41:15.997413+01 | 1486554075.99741 |                 0 |               4 |                  1297 |                  278 |             210347 |             0 |                0 |          307573 |                     0 |        159755 | 2017-02-08 12:22:41.823759+01

 2017-02-08 12:41:17.054152+01 | 1486554077.05415 |                 0 |               4 |                  1297 |                  278 |             210347 |             0 |                0 |          307573 |                     0 |        159849 | 2017-02-08 12:22:41.823759+01

 2017-02-08 12:41:18.109019+01 | 1486554078.10902 |                 0 |               4 |                  1297 |                  278 |             210347 |             0 |                0 |          307573 |                     0 |        159919 | 2017-02-08 12:22:41.823759+01

 2017-02-08 12:41:19.167122+01 | 1486554079.16712 |                 0 |               4 |                  1297 |                  278 |             210347 |             0 |                0 |          307573 |                     0 |        159990 | 2017-02-08 12:22:41.823759+01

 2017-02-08 12:41:20.22028+01 | 1486554080.22028 |                 0 |               4 |                  1297 |                  278 |             210347 |             0 |                0 |          307573 |                     0 |        160110 | 2017-02-08 12:22:41.823759+01

 2017-02-08 12:41:21.270805+01 | 1486554081.2708 |                 0 |               4 |                  1297 |                  278 |             210347 |             0 |                0 |          307573 |                     0 |        160249 | 2017-02-08 12:22:41.823759+01

 2017-02-08 12:41:22.324671+01 | 1486554082.32467 |                 0 |               4 |                  1297 |                  278 |             210347 |             0 |                0 |          307573 |                     0 |        160256 | 2017-02-08 12:22:41.823759+01

 2017-02-08 12:41:23.381596+01 | 1486554083.3816 |                 0 |               4 |                  1297 |                  278 |             210347 |             0 |                0 |          307573 |                     0 |        160332 | 2017-02-08 12:22:41.823759+01

 2017-02-08 12:41:24.44048+01 | 1486554084.44048 |                 0 |               4 |                  1297 |                  278 |             210347 |             0 |                0 |          307573 |                     0 |        160437 | 2017-02-08 12:22:41.823759+01

 2017-02-08 12:41:25.493356+01 | 1486554085.49336 |                 0 |               4 |                  1297 |                  278 |             210347 |             0 |                0 |          307573 |                     0 |        160491 | 2017-02-08 12:22:41.823759+01

 2017-02-08 12:41:26.548265+01 | 1486554086.54826 |                 0 |               4 |                  1297 |                  278 |             210347 |             0 |                0 |          307573 |                     0 |        160567 | 2017-02-08 12:22:41.823759+01

 2017-02-08 12:41:27.599872+01 | 1486554087.59987 |                 0 |               4 |                  1297 |                  278 |             210347 |             0 |                0 |          307573 |                     0 |        160638 | 2017-02-08 12:22:41.823759+01

 2017-02-08 12:41:28.653884+01 | 1486554088.65388 |                 0 |               4 |                  1297 |                  278 |             210347 |             0 |                0 |          307573 |                     0 |        160739 | 2017-02-08 12:22:41.823759+01

 2017-02-08 12:41:29.703804+01 | 1486554089.7038 |                 0 |               4 |                  1297 |                  278 |             210347 |             0 |                0 |          307573 |                     0 |        160812 | 2017-02-08 12:22:41.823759+01

 2017-02-08 12:41:30.762151+01 | 1486554090.76215 |                 0 |               4 |                  1297 |                  278 |             210347 |             0 |                0 |          307573 |                     0 |        160885 | 2017-02-08 12:22:41.823759+01

 2017-02-08 12:41:31.819654+01 | 1486554091.81965 |                 0 |               4 |                  1297 |                  278 |             210347 |             0 |                0 |          307573 |                     0 |        160967 | 2017-02-08 12:22:41.823759+01

 2017-02-08 12:41:32.874679+01 | 1486554092.87468 |                 0 |               4 |                  1297 |                  278 |             210347 |             0 |                0 |          307573 |                     0 |        161058 | 2017-02-08 12:22:41.823759+01

 2017-02-08 12:41:33.940255+01 | 1486554093.94025 |                 0 |               4 |                  1297 |                  278 |             210347 |             0 |                0 |          307573 |                     0 |        161131 | 2017-02-08 12:22:41.823759+01

 2017-02-08 12:41:35.010108+01 | 1486554095.01011 |                 0 |               4 |                  1297 |                  278 |             210347 |             0 |                0 |          307573 |                     0 |        161206 | 2017-02-08 12:22:41.823759+01

 2017-02-08 12:41:36.063829+01 | 1486554096.06383 |                 0 |               4 |                  1297 |                  278 |             210347 |             0 |                0 |          307573 |                     0 |        161292 | 2017-02-08 12:22:41.823759+01

 2017-02-08 12:41:37.118121+01 | 1486554097.11812 |                 0 |               4 |                  1297 |                  278 |             210347 |             0 |                0 |          307573 |                     0 |        161366 | 2017-02-08 12:22:41.823759+01

 2017-02-08 12:41:38.178321+01 | 1486554098.17832 |                 0 |               4 |                  1297 |                  278 |             210347 |             0 |                0 |          307573 |                     0 |        161442 | 2017-02-08 12:22:41.823759+01

 2017-02-08 12:41:39.230293+01 | 1486554099.23029 |                 0 |               4 |                  1297 |                  278 |             210347 |             0 |                0 |          307573 |                     0 |        161517 | 2017-02-08 12:22:41.823759+01

 2017-02-08 12:41:40.28674+01 | 1486554100.28674 |                 0 |               4 |                  1297 |                  278 |             210347 |             0 |                0 |          307573 |                     0 |        161606 | 2017-02-08 12:22:41.823759+01

 2017-02-08 12:41:41.34604+01 | 1486554101.34604 |                 0 |               4 |                  1297 |                  278 |             210347 |             0 |                0 |          307573 |                     0 |        161684 | 2017-02-08 12:22:41.823759+01

 2017-02-08 12:41:42.400033+01 | 1486554102.40003 |                 0 |               4 |                  1297 |                  278 |             210347 |             0 |                0 |          307573 |                     0 |        161760 | 2017-02-08 12:22:41.823759+01

 2017-02-08 12:41:43.453421+01 | 1486554103.45342 |                 0 |               4 |                  1297 |                  278 |             210347 |             0 |                0 |          307573 |                     0 |        161854 | 2017-02-08 12:22:41.823759+01

 2017-02-08 12:41:44.508508+01 | 1486554104.50851 |                 0 |               4 |                  1297 |                  278 |             210347 |             0 |                0 |          307573 |                     0 |        161933 | 2017-02-08 12:22:41.823759+01

 2017-02-08 12:41:45.563614+01 | 1486554105.56361 |                 0 |               4 |                  1297 |                  278 |             210347 |             0 |                0 |          307573 |                     0 |        162011 | 2017-02-08 12:22:41.823759+01

 2017-02-08 12:41:46.616383+01 | 1486554106.61638 |                 0 |               4 |                  1297 |                  278 |             210347 |             0 |                0 |          307573 |                     0 |        162087 | 2017-02-08 12:22:41.823759+01

 2017-02-08 12:41:47.669541+01 | 1486554107.66954 |                 0 |               4 |                  1297 |                  278 |             210347 |             0 |                0 |          307573 |                     0 |        162184 | 2017-02-08 12:22:41.823759+01

 2017-02-08 12:41:48.724956+01 | 1486554108.72496 |                 0 |               4 |                  1297 |                  278 |             210347 |             0 |                0 |          307573 |                     0 |        162265 | 2017-02-08 12:22:41.823759+01

 2017-02-08 12:41:49.776472+01 | 1486554109.77647 |                 0 |               4 |                  1297 |                  278 |             210347 |             0 |                0 |          307573 |                     0 |        162341 | 2017-02-08 12:22:41.823759+01

 2017-02-08 12:41:50.827469+01 | 1486554110.82747 |                 0 |               4 |                  1297 |                  278 |             210347 |             0 |                0 |          307573 |                     0 |        162418 | 2017-02-08 12:22:41.823759+01

 2017-02-08 12:41:51.881901+01 | 1486554111.8819 |                 0 |               4 |                  1297 |                  278 |             210347 |             0 |                0 |          307573 |                     0 |        162508 | 2017-02-08 12:22:41.823759+01

 2017-02-08 12:41:52.939452+01 | 1486554112.93945 |                 0 |               4 |                  1297 |                  278 |             210347 |             0 |                0 |          307573 |                     0 |        162582 | 2017-02-08 12:22:41.823759+01

 2017-02-08 12:41:53.998666+01 | 1486554113.99867 |                 0 |               4 |                  1297 |                  278 |             210347 |             0 |                0 |          307573 |                     0 |        162654 | 2017-02-08 12:22:41.823759+01

 2017-02-08 12:41:55.053931+01 | 1486554115.05393 |                 0 |               4 |                  1297 |                  278 |             210347 |             0 |                0 |          307573 |                     0 |        162746 | 2017-02-08 12:22:41.823759+01

 2017-02-08 12:41:56.115982+01 | 1486554116.11598 |                 0 |               4 |                  1297 |                  278 |             210347 |             0 |                0 |          307573 |                     0 |        162819 | 2017-02-08 12:22:41.823759+01

 2017-02-08 12:41:57.174611+01 | 1486554117.17461 |                 0 |               4 |                  1297 |                  278 |             210347 |             0 |                0 |          307573 |                     0 |        162894 | 2017-02-08 12:22:41.823759+01

 2017-02-08 12:41:58.23726+01 | 1486554118.23726 |                 0 |               4 |                  1297 |                  278 |             210347 |             0 |                0 |          307573 |                     0 |        162968 | 2017-02-08 12:22:41.823759+01

 2017-02-08 12:41:59.291883+01 | 1486554119.29188 |                 0 |               4 |                  1297 |                  278 |             210347 |             0 |                0 |          307573 |                     0 |        163062 | 2017-02-08 12:22:41.823759+01

 2017-02-08 12:42:00.344857+01 | 1486554120.34486 |                 0 |               4 |                  1297 |                  278 |             210347 |             0 |                0 |          307573 |                     0 |        163132 | 2017-02-08 12:22:41.823759+01

 2017-02-08 12:42:01.400303+01 | 1486554121.4003 |                 0 |               4 |                  1297 |                  278 |             210347 |             0 |                0 |          307573 |                     0 |        163214 | 2017-02-08 12:22:41.823759+01

 2017-02-08 12:42:02.45857+01 | 1486554122.45857 |                 0 |               4 |                  1297 |                  278 |             210347 |             0 |                0 |          307573 |                     0 |        163294 | 2017-02-08 12:22:41.823759+01

 2017-02-08 12:42:03.517797+01 | 1486554123.5178 |                 0 |               4 |                  1297 |                  278 |             210347 |             0 |                0 |          307573 |                     0 |        163397 | 2017-02-08 12:22:41.823759+01

 2017-02-08 12:42:04.578457+01 | 1486554124.57846 |                 0 |               4 |                  1297 |                  278 |             210347 |             0 |                0 |          307573 |                     0 |        163469 | 2017-02-08 12:22:41.823759+01

 2017-02-08 12:42:05.630492+01 | 1486554125.63049 |                 0 |               4 |                  1297 |                  278 |             210347 |             0 |                0 |          307573 |                     0 |        163541 | 2017-02-08 12:22:41.823759+01

 2017-02-08 12:42:06.686952+01 | 1486554126.68695 |                 0 |               4 |                  1297 |                  278 |             210347 |             0 |                0 |          307573 |                     0 |        163618 | 2017-02-08 12:22:41.823759+01

 2017-02-08 12:42:07.744185+01 | 1486554127.74418 |                 0 |               4 |                  1297 |                  278 |             210347 |             0 |                0 |          307573 |                     0 |        163711 | 2017-02-08 12:22:41.823759+01

 2017-02-08 12:42:08.797204+01 | 1486554128.7972 |                 0 |               4 |                  1297 |                  278 |             210347 |             0 |                0 |          307573 |                     0 |        163783 | 2017-02-08 12:22:41.823759+01

 2017-02-08 12:42:09.852576+01 | 1486554129.85258 |                 0 |               4 |                  1297 |                  278 |             210347 |             0 |                0 |          307573 |                     0 |        163861 | 2017-02-08 12:22:41.823759+01

 2017-02-08 12:42:10.910254+01 | 1486554130.91025 |                 0 |               4 |                  1297 |                  278 |             210347 |             0 |                0 |          307573 |                     0 |        163949 | 2017-02-08 12:22:41.823759+01

 2017-02-08 12:42:11.964853+01 | 1486554131.96485 |                 0 |               4 |                  1297 |                  278 |             210347 |             0 |                0 |          307573 |                     0 |        164054 | 2017-02-08 12:22:41.823759+01

 2017-02-08 12:42:13.006915+01 | 1486554133.00692 |                 0 |               4 |                  1297 |                  278 |             210347 |             0 |                0 |          307573 |                     0 |        164084 | 2017-02-08 12:22:41.823759+01

 2017-02-08 12:42:14.064356+01 | 1486554134.06436 |                 0 |               4 |                  1297 |                  278 |             210347 |             0 |                0 |          307573 |                     0 |        164215 | 2017-02-08 12:22:41.823759+01

 2017-02-08 12:42:15.128631+01 | 1486554135.12863 |                 0 |               4 |                  1297 |                  278 |             210347 |             0 |                0 |          307573 |                     0 |        164278 | 2017-02-08 12:22:41.823759+01

 2017-02-08 12:42:16.185529+01 | 1486554136.18553 |                 0 |               4 |                  1297 |                  278 |             210347 |             0 |                0 |          307573 |                     0 |        164361 | 2017-02-08 12:22:41.823759+01

 2017-02-08 12:42:17.24346+01 | 1486554137.24346 |                 0 |               4 |                  1297 |                  278 |             210347 |             0 |                0 |          307573 |                     0 |        164435 | 2017-02-08 12:22:41.823759+01

 2017-02-08 12:42:18.295724+01 | 1486554138.29572 |                 0 |               4 |                  1297 |                  278 |             210347 |             0 |                0 |          307573 |                     0 |        164534 | 2017-02-08 12:22:41.823759+01

 2017-02-08 12:42:19.354631+01 | 1486554139.35463 |                 0 |               4 |                  1297 |                  278 |             210347 |             0 |                0 |          307573 |                     0 |        164599 | 2017-02-08 12:22:41.823759+01

 2017-02-08 12:42:20.407876+01 | 1486554140.40788 |                 0 |               4 |                  1297 |                  278 |             210347 |             0 |                0 |          307573 |                     0 |        164706 | 2017-02-08 12:22:41.823759+01

 2017-02-08 12:42:21.493916+01 | 1486554141.49392 |                 0 |               4 |                  1297 |                  278 |             210347 |             0 |                0 |          307573 |                     0 |        164784 | 2017-02-08 12:22:41.823759+01

 2017-02-08 12:42:22.551307+01 | 1486554142.55131 |                 0 |               4 |                  1297 |                  278 |             210347 |             0 |                0 |          307573 |                     0 |        164865 | 2017-02-08 12:22:41.823759+01

 2017-02-08 12:42:23.610576+01 | 1486554143.61058 |                 0 |               4 |                  1297 |                  278 |             210347 |             0 |                0 |          307573 |                     0 |        164941 | 2017-02-08 12:22:41.823759+01

 2017-02-08 12:42:24.651623+01 | 1486554144.65162 |                 0 |               4 |                  1297 |                  278 |             210347 |             0 |                0 |          307573 |                     0 |        164996 | 2017-02-08 12:22:41.823759+01

 2017-02-08 12:42:25.718958+01 | 1486554145.71896 |                 0 |               4 |                  1297 |                  278 |             210347 |             0 |                0 |          307573 |                     0 |        165088 | 2017-02-08 12:22:41.823759+01

 2017-02-08 12:42:26.773136+01 | 1486554146.77314 |                 0 |               4 |                  1297 |                  278 |             210347 |             0 |                0 |          307573 |                     0 |        165181 | 2017-02-08 12:22:41.823759+01

 2017-02-08 12:42:27.830657+01 | 1486554147.83066 |                 0 |               4 |                  1297 |                  278 |             210347 |             0 |                0 |          307573 |                     0 |        165256 | 2017-02-08 12:22:41.823759+01

 2017-02-08 12:42:28.883967+01 | 1486554148.88397 |                 0 |               4 |                  1297 |                  278 |             210347 |             0 |                0 |          307573 |                     0 |        165327 | 2017-02-08 12:22:41.823759+01

 2017-02-08 12:42:29.941505+01 | 1486554149.9415 |                 0 |               4 |                  1297 |                  278 |             210347 |             0 |                0 |          307573 |                     0 |        165402 | 2017-02-08 12:22:41.823759+01

 2017-02-08 12:42:30.995517+01 | 1486554150.99552 |                 0 |               4 |                  1297 |                  278 |             210347 |             0 |                0 |          307573 |                     0 |        165499 | 2017-02-08 12:22:41.823759+01

 2017-02-08 12:42:32.049636+01 | 1486554152.04964 |                 0 |               4 |                  1297 |                  278 |             210347 |             0 |                0 |          307573 |                     0 |        165575 | 2017-02-08 12:22:41.823759+01

 2017-02-08 12:42:33.109379+01 | 1486554153.10938 |                 0 |               4 |                  1297 |                  278 |             210347 |             0 |                0 |          307573 |                     0 |        165658 | 2017-02-08 12:22:41.823759+01

 2017-02-08 12:42:34.165348+01 | 1486554154.16535 |                 0 |               4 |                  1297 |                  278 |             210347 |             0 |                0 |          307573 |                     0 |        165754 | 2017-02-08 12:22:41.823759+01

 2017-02-08 12:42:35.223763+01 | 1486554155.22376 |                 0 |               4 |                  1297 |                  278 |             210347 |             0 |                0 |          307573 |                     0 |        165829 | 2017-02-08 12:22:41.823759+01

 2017-02-08 12:42:36.278762+01 | 1486554156.27876 |                 0 |               4 |                  1297 |                  278 |             210347 |             0 |                0 |          307573 |                     0 |        165900 | 2017-02-08 12:22:41.823759+01

 2017-02-08 12:42:37.342112+01 | 1486554157.34211 |                 0 |               4 |                  1297 |                  278 |             210347 |             0 |                0 |          307573 |                     0 |        165977 | 2017-02-08 12:22:41.823759+01

 2017-02-08 12:42:38.40085+01 | 1486554158.40085 |                 0 |               4 |                  1297 |                  278 |             210347 |             0 |                0 |          307573 |                     0 |        166070 | 2017-02-08 12:22:41.823759+01

 2017-02-08 12:42:39.458999+01 | 1486554159.459 |                 0 |               4 |                  1297 |                  278 |             210347 |             0 |                0 |          307573 |                     0 |        166148 | 2017-02-08 12:22:41.823759+01

 2017-02-08 12:42:40.514783+01 | 1486554160.51478 |                 0 |               4 |                  1297 |                  278 |             210347 |             0 |                0 |          307573 |                     0 |        166222 | 2017-02-08 12:22:41.823759+01

 2017-02-08 12:42:41.57277+01 | 1486554161.57277 |                 0 |               4 |                  1297 |                  278 |             210347 |             0 |                0 |          307573 |                     0 |        166308 | 2017-02-08 12:22:41.823759+01

 2017-02-08 12:42:42.633748+01 | 1486554162.63375 |                 0 |               4 |                  1297 |                  278 |             210347 |             0 |                0 |          307573 |                     0 |        166391 | 2017-02-08 12:22:41.823759+01

 2017-02-08 12:42:43.694197+01 | 1486554163.6942 |                 0 |               4 |                  1297 |                  278 |             210347 |             0 |                0 |          307573 |                     0 |        166471 | 2017-02-08 12:22:41.823759+01

 2017-02-08 12:42:44.74898+01 | 1486554164.74898 |                 0 |               4 |                  1297 |                  278 |             210347 |             0 |                0 |          307573 |                     0 |        166545 | 2017-02-08 12:22:41.823759+01

 2017-02-08 12:42:45.808661+01 | 1486554165.80866 |                 0 |               4 |                  1297 |                  278 |             210347 |             0 |                0 |          307573 |                     0 |        166629 | 2017-02-08 12:22:41.823759+01

 2017-02-08 12:42:46.866677+01 | 1486554166.86668 |                 0 |               4 |                  1297 |                  278 |             210347 |             0 |                0 |          307573 |                     0 |        166704 | 2017-02-08 12:22:41.823759+01

 2017-02-08 12:42:47.918768+01 | 1486554167.91877 |                 0 |               4 |                  1297 |                  278 |             210347 |             0 |                0 |          307573 |                     0 |        166774 | 2017-02-08 12:22:41.823759+01

 2017-02-08 12:42:48.975954+01 | 1486554168.97595 |                 0 |               4 |                  1297 |                  278 |             210347 |             0 |                0 |          307573 |                     0 |        166866 | 2017-02-08 12:22:41.823759+01

 2017-02-08 12:42:50.029913+01 | 1486554170.02991 |                 0 |               4 |                  1297 |                  278 |             210347 |             0 |                0 |          307573 |                     0 |        166939 | 2017-02-08 12:22:41.823759+01

 2017-02-08 12:42:51.085176+01 | 1486554171.08518 |                 0 |               4 |                  1297 |                  278 |             210347 |             0 |                0 |          307573 |                     0 |        167011 | 2017-02-08 12:22:41.823759+01

 2017-02-08 12:42:52.144105+01 | 1486554172.1441 |                 0 |               4 |                  1297 |                  278 |             210347 |             0 |                0 |          307573 |                     0 |        167085 | 2017-02-08 12:22:41.823759+01

 2017-02-08 12:42:53.197225+01 | 1486554173.19723 |                 0 |               4 |                  1297 |                  278 |             210347 |             0 |                0 |          307573 |                     0 |        167171 | 2017-02-08 12:22:41.823759+01

