 2017-02-08 21:25:05.885681+01 | 1486585505.88568 | pgbench_branches_pkey |            16384
 2017-02-08 21:25:05.885681+01 | 1486585505.88568 | pgbench_tellers_pkey  |            32768
 2017-02-08 21:25:05.885681+01 | 1486585505.88568 | pgbench_accounts_pkey |        112336896

 2017-02-08 21:25:06.94007+01 | 1486585506.94007 | pgbench_branches_pkey |            16384
 2017-02-08 21:25:06.94007+01 | 1486585506.94007 | pgbench_tellers_pkey  |            32768
 2017-02-08 21:25:06.94007+01 | 1486585506.94007 | pgbench_accounts_pkey |        112336896

 2017-02-08 21:25:08.001774+01 | 1486585508.00177 | pgbench_branches_pkey |            16384
 2017-02-08 21:25:08.001774+01 | 1486585508.00177 | pgbench_tellers_pkey  |            32768
 2017-02-08 21:25:08.001774+01 | 1486585508.00177 | pgbench_accounts_pkey |        112336896

 2017-02-08 21:25:09.056862+01 | 1486585509.05686 | pgbench_branches_pkey |            16384
 2017-02-08 21:25:09.056862+01 | 1486585509.05686 | pgbench_tellers_pkey  |            32768
 2017-02-08 21:25:09.056862+01 | 1486585509.05686 | pgbench_accounts_pkey |        112336896

 2017-02-08 21:25:10.114578+01 | 1486585510.11458 | pgbench_branches_pkey |            16384
 2017-02-08 21:25:10.114578+01 | 1486585510.11458 | pgbench_tellers_pkey  |            32768
 2017-02-08 21:25:10.114578+01 | 1486585510.11458 | pgbench_accounts_pkey |        112336896

 2017-02-08 21:25:11.177875+01 | 1486585511.17788 | pgbench_branches_pkey |            16384
 2017-02-08 21:25:11.177875+01 | 1486585511.17788 | pgbench_tellers_pkey  |            32768
 2017-02-08 21:25:11.177875+01 | 1486585511.17788 | pgbench_accounts_pkey |        112336896

 2017-02-08 21:25:12.246687+01 | 1486585512.24669 | pgbench_branches_pkey |            16384
 2017-02-08 21:25:12.246687+01 | 1486585512.24669 | pgbench_tellers_pkey  |            32768
 2017-02-08 21:25:12.246687+01 | 1486585512.24669 | pgbench_accounts_pkey |        112336896

 2017-02-08 21:25:13.310186+01 | 1486585513.31019 | pgbench_branches_pkey |            16384
 2017-02-08 21:25:13.310186+01 | 1486585513.31019 | pgbench_tellers_pkey  |            32768
 2017-02-08 21:25:13.310186+01 | 1486585513.31019 | pgbench_accounts_pkey |        112336896

 2017-02-08 21:25:14.370729+01 | 1486585514.37073 | pgbench_branches_pkey |            16384
 2017-02-08 21:25:14.370729+01 | 1486585514.37073 | pgbench_tellers_pkey  |            32768
 2017-02-08 21:25:14.370729+01 | 1486585514.37073 | pgbench_accounts_pkey |        112336896

 2017-02-08 21:25:15.436238+01 | 1486585515.43624 | pgbench_branches_pkey |            16384
 2017-02-08 21:25:15.436238+01 | 1486585515.43624 | pgbench_tellers_pkey  |            32768
 2017-02-08 21:25:15.436238+01 | 1486585515.43624 | pgbench_accounts_pkey |        112336896

 2017-02-08 21:25:16.497265+01 | 1486585516.49727 | pgbench_branches_pkey |            16384
 2017-02-08 21:25:16.497265+01 | 1486585516.49727 | pgbench_tellers_pkey  |            32768
 2017-02-08 21:25:16.497265+01 | 1486585516.49727 | pgbench_accounts_pkey |        112336896

 2017-02-08 21:25:17.561216+01 | 1486585517.56122 | pgbench_branches_pkey |            16384
 2017-02-08 21:25:17.561216+01 | 1486585517.56122 | pgbench_tellers_pkey  |            32768
 2017-02-08 21:25:17.561216+01 | 1486585517.56122 | pgbench_accounts_pkey |        112336896

 2017-02-08 21:25:18.619176+01 | 1486585518.61918 | pgbench_branches_pkey |            16384
 2017-02-08 21:25:18.619176+01 | 1486585518.61918 | pgbench_tellers_pkey  |            32768
 2017-02-08 21:25:18.619176+01 | 1486585518.61918 | pgbench_accounts_pkey |        112336896

 2017-02-08 21:25:19.674968+01 | 1486585519.67497 | pgbench_branches_pkey |            16384
 2017-02-08 21:25:19.674968+01 | 1486585519.67497 | pgbench_tellers_pkey  |            32768
 2017-02-08 21:25:19.674968+01 | 1486585519.67497 | pgbench_accounts_pkey |        112336896

 2017-02-08 21:25:20.733719+01 | 1486585520.73372 | pgbench_branches_pkey |            16384
 2017-02-08 21:25:20.733719+01 | 1486585520.73372 | pgbench_tellers_pkey  |            32768
 2017-02-08 21:25:20.733719+01 | 1486585520.73372 | pgbench_accounts_pkey |        112336896

 2017-02-08 21:25:21.791542+01 | 1486585521.79154 | pgbench_branches_pkey |            16384
 2017-02-08 21:25:21.791542+01 | 1486585521.79154 | pgbench_tellers_pkey  |            32768
 2017-02-08 21:25:21.791542+01 | 1486585521.79154 | pgbench_accounts_pkey |        112336896

 2017-02-08 21:25:22.845504+01 | 1486585522.8455 | pgbench_branches_pkey |            16384
 2017-02-08 21:25:22.845504+01 | 1486585522.8455 | pgbench_tellers_pkey  |            32768
 2017-02-08 21:25:22.845504+01 | 1486585522.8455 | pgbench_accounts_pkey |        112336896

 2017-02-08 21:25:23.891607+01 | 1486585523.89161 | pgbench_branches_pkey |            16384
 2017-02-08 21:25:23.891607+01 | 1486585523.89161 | pgbench_tellers_pkey  |            32768
 2017-02-08 21:25:23.891607+01 | 1486585523.89161 | pgbench_accounts_pkey |        112336896

 2017-02-08 21:25:24.950792+01 | 1486585524.95079 | pgbench_branches_pkey |            16384
 2017-02-08 21:25:24.950792+01 | 1486585524.95079 | pgbench_tellers_pkey  |            32768
 2017-02-08 21:25:24.950792+01 | 1486585524.95079 | pgbench_accounts_pkey |        112336896

 2017-02-08 21:25:26.005976+01 | 1486585526.00598 | pgbench_branches_pkey |            16384
 2017-02-08 21:25:26.005976+01 | 1486585526.00598 | pgbench_tellers_pkey  |            32768
 2017-02-08 21:25:26.005976+01 | 1486585526.00598 | pgbench_accounts_pkey |        112336896

 2017-02-08 21:25:27.068201+01 | 1486585527.0682 | pgbench_branches_pkey |            16384
 2017-02-08 21:25:27.068201+01 | 1486585527.0682 | pgbench_tellers_pkey  |            32768
 2017-02-08 21:25:27.068201+01 | 1486585527.0682 | pgbench_accounts_pkey |        112336896

 2017-02-08 21:25:28.135853+01 | 1486585528.13585 | pgbench_branches_pkey |            16384
 2017-02-08 21:25:28.135853+01 | 1486585528.13585 | pgbench_tellers_pkey  |            32768
 2017-02-08 21:25:28.135853+01 | 1486585528.13585 | pgbench_accounts_pkey |        112336896

 2017-02-08 21:25:29.198374+01 | 1486585529.19837 | pgbench_branches_pkey |            16384
 2017-02-08 21:25:29.198374+01 | 1486585529.19837 | pgbench_tellers_pkey  |            32768
 2017-02-08 21:25:29.198374+01 | 1486585529.19837 | pgbench_accounts_pkey |        112336896

 2017-02-08 21:25:30.254529+01 | 1486585530.25453 | pgbench_branches_pkey |            16384
 2017-02-08 21:25:30.254529+01 | 1486585530.25453 | pgbench_tellers_pkey  |            32768
 2017-02-08 21:25:30.254529+01 | 1486585530.25453 | pgbench_accounts_pkey |        112336896

 2017-02-08 21:25:31.316014+01 | 1486585531.31601 | pgbench_branches_pkey |            16384
 2017-02-08 21:25:31.316014+01 | 1486585531.31601 | pgbench_tellers_pkey  |            32768
 2017-02-08 21:25:31.316014+01 | 1486585531.31601 | pgbench_accounts_pkey |        112336896

 2017-02-08 21:25:32.383617+01 | 1486585532.38362 | pgbench_branches_pkey |            16384
 2017-02-08 21:25:32.383617+01 | 1486585532.38362 | pgbench_tellers_pkey  |            32768
 2017-02-08 21:25:32.383617+01 | 1486585532.38362 | pgbench_accounts_pkey |        112336896

 2017-02-08 21:25:33.440144+01 | 1486585533.44014 | pgbench_branches_pkey |            16384
 2017-02-08 21:25:33.440144+01 | 1486585533.44014 | pgbench_tellers_pkey  |            32768
 2017-02-08 21:25:33.440144+01 | 1486585533.44014 | pgbench_accounts_pkey |        112336896

 2017-02-08 21:25:34.498103+01 | 1486585534.4981 | pgbench_branches_pkey |            16384
 2017-02-08 21:25:34.498103+01 | 1486585534.4981 | pgbench_tellers_pkey  |            32768
 2017-02-08 21:25:34.498103+01 | 1486585534.4981 | pgbench_accounts_pkey |        112336896

 2017-02-08 21:25:35.553781+01 | 1486585535.55378 | pgbench_branches_pkey |            16384
 2017-02-08 21:25:35.553781+01 | 1486585535.55378 | pgbench_tellers_pkey  |            32768
 2017-02-08 21:25:35.553781+01 | 1486585535.55378 | pgbench_accounts_pkey |        112336896

 2017-02-08 21:25:36.615554+01 | 1486585536.61555 | pgbench_branches_pkey |            16384
 2017-02-08 21:25:36.615554+01 | 1486585536.61555 | pgbench_tellers_pkey  |            32768
 2017-02-08 21:25:36.615554+01 | 1486585536.61555 | pgbench_accounts_pkey |        112336896

 2017-02-08 21:25:37.675161+01 | 1486585537.67516 | pgbench_branches_pkey |            16384
 2017-02-08 21:25:37.675161+01 | 1486585537.67516 | pgbench_tellers_pkey  |            32768
 2017-02-08 21:25:37.675161+01 | 1486585537.67516 | pgbench_accounts_pkey |        112336896

 2017-02-08 21:25:38.732636+01 | 1486585538.73264 | pgbench_branches_pkey |            16384
 2017-02-08 21:25:38.732636+01 | 1486585538.73264 | pgbench_tellers_pkey  |            32768
 2017-02-08 21:25:38.732636+01 | 1486585538.73264 | pgbench_accounts_pkey |        112336896

 2017-02-08 21:25:39.793751+01 | 1486585539.79375 | pgbench_branches_pkey |            16384
 2017-02-08 21:25:39.793751+01 | 1486585539.79375 | pgbench_tellers_pkey  |            32768
 2017-02-08 21:25:39.793751+01 | 1486585539.79375 | pgbench_accounts_pkey |        112336896

 2017-02-08 21:25:40.850731+01 | 1486585540.85073 | pgbench_branches_pkey |            16384
 2017-02-08 21:25:40.850731+01 | 1486585540.85073 | pgbench_tellers_pkey  |            32768
 2017-02-08 21:25:40.850731+01 | 1486585540.85073 | pgbench_accounts_pkey |        112336896

 2017-02-08 21:25:41.907126+01 | 1486585541.90713 | pgbench_branches_pkey |            16384
 2017-02-08 21:25:41.907126+01 | 1486585541.90713 | pgbench_tellers_pkey  |            32768
 2017-02-08 21:25:41.907126+01 | 1486585541.90713 | pgbench_accounts_pkey |        112336896

 2017-02-08 21:25:42.967784+01 | 1486585542.96778 | pgbench_branches_pkey |            16384
 2017-02-08 21:25:42.967784+01 | 1486585542.96778 | pgbench_tellers_pkey  |            32768
 2017-02-08 21:25:42.967784+01 | 1486585542.96778 | pgbench_accounts_pkey |        112336896

 2017-02-08 21:25:44.023911+01 | 1486585544.02391 | pgbench_branches_pkey |            16384
 2017-02-08 21:25:44.023911+01 | 1486585544.02391 | pgbench_tellers_pkey  |            32768
 2017-02-08 21:25:44.023911+01 | 1486585544.02391 | pgbench_accounts_pkey |        112336896

 2017-02-08 21:25:45.076232+01 | 1486585545.07623 | pgbench_branches_pkey |            16384
 2017-02-08 21:25:45.076232+01 | 1486585545.07623 | pgbench_tellers_pkey  |            32768
 2017-02-08 21:25:45.076232+01 | 1486585545.07623 | pgbench_accounts_pkey |        112336896

 2017-02-08 21:25:46.140203+01 | 1486585546.1402 | pgbench_branches_pkey |            16384
 2017-02-08 21:25:46.140203+01 | 1486585546.1402 | pgbench_tellers_pkey  |            32768
 2017-02-08 21:25:46.140203+01 | 1486585546.1402 | pgbench_accounts_pkey |        112336896

 2017-02-08 21:25:47.206662+01 | 1486585547.20666 | pgbench_branches_pkey |            16384
 2017-02-08 21:25:47.206662+01 | 1486585547.20666 | pgbench_tellers_pkey  |            32768
 2017-02-08 21:25:47.206662+01 | 1486585547.20666 | pgbench_accounts_pkey |        112336896

 2017-02-08 21:25:48.272472+01 | 1486585548.27247 | pgbench_branches_pkey |            16384
 2017-02-08 21:25:48.272472+01 | 1486585548.27247 | pgbench_tellers_pkey  |            32768
 2017-02-08 21:25:48.272472+01 | 1486585548.27247 | pgbench_accounts_pkey |        112336896

 2017-02-08 21:25:49.328079+01 | 1486585549.32808 | pgbench_branches_pkey |            16384
 2017-02-08 21:25:49.328079+01 | 1486585549.32808 | pgbench_tellers_pkey  |            32768
 2017-02-08 21:25:49.328079+01 | 1486585549.32808 | pgbench_accounts_pkey |        112336896

 2017-02-08 21:25:50.38464+01 | 1486585550.38464 | pgbench_branches_pkey |            16384
 2017-02-08 21:25:50.38464+01 | 1486585550.38464 | pgbench_tellers_pkey  |            32768
 2017-02-08 21:25:50.38464+01 | 1486585550.38464 | pgbench_accounts_pkey |        112336896

 2017-02-08 21:25:51.442546+01 | 1486585551.44255 | pgbench_branches_pkey |            16384
 2017-02-08 21:25:51.442546+01 | 1486585551.44255 | pgbench_tellers_pkey  |            32768
 2017-02-08 21:25:51.442546+01 | 1486585551.44255 | pgbench_accounts_pkey |        112336896

 2017-02-08 21:25:52.50335+01 | 1486585552.50335 | pgbench_branches_pkey |            16384
 2017-02-08 21:25:52.50335+01 | 1486585552.50335 | pgbench_tellers_pkey  |            32768
 2017-02-08 21:25:52.50335+01 | 1486585552.50335 | pgbench_accounts_pkey |        112336896

 2017-02-08 21:25:53.564583+01 | 1486585553.56458 | pgbench_branches_pkey |            16384
 2017-02-08 21:25:53.564583+01 | 1486585553.56458 | pgbench_tellers_pkey  |            32768
 2017-02-08 21:25:53.564583+01 | 1486585553.56458 | pgbench_accounts_pkey |        112336896

 2017-02-08 21:25:54.625609+01 | 1486585554.62561 | pgbench_branches_pkey |            16384
 2017-02-08 21:25:54.625609+01 | 1486585554.62561 | pgbench_tellers_pkey  |            32768
 2017-02-08 21:25:54.625609+01 | 1486585554.62561 | pgbench_accounts_pkey |        112336896

 2017-02-08 21:25:55.689392+01 | 1486585555.68939 | pgbench_branches_pkey |            16384
 2017-02-08 21:25:55.689392+01 | 1486585555.68939 | pgbench_tellers_pkey  |            32768
 2017-02-08 21:25:55.689392+01 | 1486585555.68939 | pgbench_accounts_pkey |        112336896

 2017-02-08 21:25:56.745027+01 | 1486585556.74503 | pgbench_branches_pkey |            16384
 2017-02-08 21:25:56.745027+01 | 1486585556.74503 | pgbench_tellers_pkey  |            32768
 2017-02-08 21:25:56.745027+01 | 1486585556.74503 | pgbench_accounts_pkey |        112336896

 2017-02-08 21:25:57.808642+01 | 1486585557.80864 | pgbench_branches_pkey |            16384
 2017-02-08 21:25:57.808642+01 | 1486585557.80864 | pgbench_tellers_pkey  |            32768
 2017-02-08 21:25:57.808642+01 | 1486585557.80864 | pgbench_accounts_pkey |        112336896

 2017-02-08 21:25:58.875101+01 | 1486585558.8751 | pgbench_branches_pkey |            16384
 2017-02-08 21:25:58.875101+01 | 1486585558.8751 | pgbench_tellers_pkey  |            32768
 2017-02-08 21:25:58.875101+01 | 1486585558.8751 | pgbench_accounts_pkey |        112336896

 2017-02-08 21:25:59.94614+01 | 1486585559.94614 | pgbench_branches_pkey |            16384
 2017-02-08 21:25:59.94614+01 | 1486585559.94614 | pgbench_tellers_pkey  |            32768
 2017-02-08 21:25:59.94614+01 | 1486585559.94614 | pgbench_accounts_pkey |        112336896

 2017-02-08 21:26:01.007679+01 | 1486585561.00768 | pgbench_branches_pkey |            16384
 2017-02-08 21:26:01.007679+01 | 1486585561.00768 | pgbench_tellers_pkey  |            32768
 2017-02-08 21:26:01.007679+01 | 1486585561.00768 | pgbench_accounts_pkey |        112336896

 2017-02-08 21:26:02.07056+01 | 1486585562.07056 | pgbench_branches_pkey |            16384
 2017-02-08 21:26:02.07056+01 | 1486585562.07056 | pgbench_tellers_pkey  |            32768
 2017-02-08 21:26:02.07056+01 | 1486585562.07056 | pgbench_accounts_pkey |        112336896

 2017-02-08 21:26:03.130768+01 | 1486585563.13077 | pgbench_branches_pkey |            16384
 2017-02-08 21:26:03.130768+01 | 1486585563.13077 | pgbench_tellers_pkey  |            32768
 2017-02-08 21:26:03.130768+01 | 1486585563.13077 | pgbench_accounts_pkey |        112336896

 2017-02-08 21:26:04.19553+01 | 1486585564.19553 | pgbench_branches_pkey |            16384
 2017-02-08 21:26:04.19553+01 | 1486585564.19553 | pgbench_tellers_pkey  |            32768
 2017-02-08 21:26:04.19553+01 | 1486585564.19553 | pgbench_accounts_pkey |        112336896

 2017-02-08 21:26:05.25592+01 | 1486585565.25592 | pgbench_branches_pkey |            16384
 2017-02-08 21:26:05.25592+01 | 1486585565.25592 | pgbench_tellers_pkey  |            32768
 2017-02-08 21:26:05.25592+01 | 1486585565.25592 | pgbench_accounts_pkey |        112336896

 2017-02-08 21:26:06.322524+01 | 1486585566.32252 | pgbench_branches_pkey |            16384
 2017-02-08 21:26:06.322524+01 | 1486585566.32252 | pgbench_tellers_pkey  |            32768
 2017-02-08 21:26:06.322524+01 | 1486585566.32252 | pgbench_accounts_pkey |        112336896

 2017-02-08 21:26:07.380534+01 | 1486585567.38053 | pgbench_branches_pkey |            16384
 2017-02-08 21:26:07.380534+01 | 1486585567.38053 | pgbench_tellers_pkey  |            32768
 2017-02-08 21:26:07.380534+01 | 1486585567.38053 | pgbench_accounts_pkey |        112336896

 2017-02-08 21:26:08.447145+01 | 1486585568.44714 | pgbench_branches_pkey |            16384
 2017-02-08 21:26:08.447145+01 | 1486585568.44714 | pgbench_tellers_pkey  |            32768
 2017-02-08 21:26:08.447145+01 | 1486585568.44714 | pgbench_accounts_pkey |        112336896

 2017-02-08 21:26:09.517559+01 | 1486585569.51756 | pgbench_branches_pkey |            16384
 2017-02-08 21:26:09.517559+01 | 1486585569.51756 | pgbench_tellers_pkey  |            32768
 2017-02-08 21:26:09.517559+01 | 1486585569.51756 | pgbench_accounts_pkey |        112336896

 2017-02-08 21:26:10.579445+01 | 1486585570.57944 | pgbench_branches_pkey |            16384
 2017-02-08 21:26:10.579445+01 | 1486585570.57944 | pgbench_tellers_pkey  |            32768
 2017-02-08 21:26:10.579445+01 | 1486585570.57944 | pgbench_accounts_pkey |        112336896

 2017-02-08 21:26:11.649764+01 | 1486585571.64976 | pgbench_branches_pkey |            16384
 2017-02-08 21:26:11.649764+01 | 1486585571.64976 | pgbench_tellers_pkey  |            32768
 2017-02-08 21:26:11.649764+01 | 1486585571.64976 | pgbench_accounts_pkey |        112336896

 2017-02-08 21:26:12.712482+01 | 1486585572.71248 | pgbench_branches_pkey |            16384
 2017-02-08 21:26:12.712482+01 | 1486585572.71248 | pgbench_tellers_pkey  |            32768
 2017-02-08 21:26:12.712482+01 | 1486585572.71248 | pgbench_accounts_pkey |        112336896

 2017-02-08 21:26:13.78841+01 | 1486585573.78841 | pgbench_branches_pkey |            16384
 2017-02-08 21:26:13.78841+01 | 1486585573.78841 | pgbench_tellers_pkey  |            32768
 2017-02-08 21:26:13.78841+01 | 1486585573.78841 | pgbench_accounts_pkey |        112336896

 2017-02-08 21:26:14.851841+01 | 1486585574.85184 | pgbench_branches_pkey |            16384
 2017-02-08 21:26:14.851841+01 | 1486585574.85184 | pgbench_tellers_pkey  |            32768
 2017-02-08 21:26:14.851841+01 | 1486585574.85184 | pgbench_accounts_pkey |        112336896

 2017-02-08 21:26:15.911279+01 | 1486585575.91128 | pgbench_branches_pkey |            16384
 2017-02-08 21:26:15.911279+01 | 1486585575.91128 | pgbench_tellers_pkey  |            32768
 2017-02-08 21:26:15.911279+01 | 1486585575.91128 | pgbench_accounts_pkey |        112336896

 2017-02-08 21:26:16.974527+01 | 1486585576.97453 | pgbench_branches_pkey |            16384
 2017-02-08 21:26:16.974527+01 | 1486585576.97453 | pgbench_tellers_pkey  |            32768
 2017-02-08 21:26:16.974527+01 | 1486585576.97453 | pgbench_accounts_pkey |        112336896

 2017-02-08 21:26:18.037316+01 | 1486585578.03732 | pgbench_branches_pkey |            16384
 2017-02-08 21:26:18.037316+01 | 1486585578.03732 | pgbench_tellers_pkey  |            32768
 2017-02-08 21:26:18.037316+01 | 1486585578.03732 | pgbench_accounts_pkey |        112336896

 2017-02-08 21:26:19.096152+01 | 1486585579.09615 | pgbench_branches_pkey |            16384
 2017-02-08 21:26:19.096152+01 | 1486585579.09615 | pgbench_tellers_pkey  |            32768
 2017-02-08 21:26:19.096152+01 | 1486585579.09615 | pgbench_accounts_pkey |        112336896

 2017-02-08 21:26:20.157071+01 | 1486585580.15707 | pgbench_branches_pkey |            16384
 2017-02-08 21:26:20.157071+01 | 1486585580.15707 | pgbench_tellers_pkey  |            32768
 2017-02-08 21:26:20.157071+01 | 1486585580.15707 | pgbench_accounts_pkey |        112336896

 2017-02-08 21:26:21.224685+01 | 1486585581.22468 | pgbench_branches_pkey |            16384
 2017-02-08 21:26:21.224685+01 | 1486585581.22468 | pgbench_tellers_pkey  |            32768
 2017-02-08 21:26:21.224685+01 | 1486585581.22468 | pgbench_accounts_pkey |        112336896

 2017-02-08 21:26:22.275909+01 | 1486585582.27591 | pgbench_branches_pkey |            16384
 2017-02-08 21:26:22.275909+01 | 1486585582.27591 | pgbench_tellers_pkey  |            32768
 2017-02-08 21:26:22.275909+01 | 1486585582.27591 | pgbench_accounts_pkey |        112336896

 2017-02-08 21:26:23.335424+01 | 1486585583.33542 | pgbench_branches_pkey |            16384
 2017-02-08 21:26:23.335424+01 | 1486585583.33542 | pgbench_tellers_pkey  |            32768
 2017-02-08 21:26:23.335424+01 | 1486585583.33542 | pgbench_accounts_pkey |        112336896

 2017-02-08 21:26:24.389519+01 | 1486585584.38952 | pgbench_branches_pkey |            16384
 2017-02-08 21:26:24.389519+01 | 1486585584.38952 | pgbench_tellers_pkey  |            32768
 2017-02-08 21:26:24.389519+01 | 1486585584.38952 | pgbench_accounts_pkey |        112336896

 2017-02-08 21:26:25.443287+01 | 1486585585.44329 | pgbench_branches_pkey |            16384
 2017-02-08 21:26:25.443287+01 | 1486585585.44329 | pgbench_tellers_pkey  |            32768
 2017-02-08 21:26:25.443287+01 | 1486585585.44329 | pgbench_accounts_pkey |        112336896

 2017-02-08 21:26:26.50241+01 | 1486585586.50241 | pgbench_branches_pkey |            16384
 2017-02-08 21:26:26.50241+01 | 1486585586.50241 | pgbench_tellers_pkey  |            32768
 2017-02-08 21:26:26.50241+01 | 1486585586.50241 | pgbench_accounts_pkey |        112336896

 2017-02-08 21:26:27.568644+01 | 1486585587.56864 | pgbench_branches_pkey |            16384
 2017-02-08 21:26:27.568644+01 | 1486585587.56864 | pgbench_tellers_pkey  |            32768
 2017-02-08 21:26:27.568644+01 | 1486585587.56864 | pgbench_accounts_pkey |        112336896

 2017-02-08 21:26:28.625183+01 | 1486585588.62518 | pgbench_branches_pkey |            16384
 2017-02-08 21:26:28.625183+01 | 1486585588.62518 | pgbench_tellers_pkey  |            32768
 2017-02-08 21:26:28.625183+01 | 1486585588.62518 | pgbench_accounts_pkey |        112336896

 2017-02-08 21:26:29.681937+01 | 1486585589.68194 | pgbench_branches_pkey |            16384
 2017-02-08 21:26:29.681937+01 | 1486585589.68194 | pgbench_tellers_pkey  |            32768
 2017-02-08 21:26:29.681937+01 | 1486585589.68194 | pgbench_accounts_pkey |        112336896

 2017-02-08 21:26:30.752778+01 | 1486585590.75278 | pgbench_branches_pkey |            16384
 2017-02-08 21:26:30.752778+01 | 1486585590.75278 | pgbench_tellers_pkey  |            32768
 2017-02-08 21:26:30.752778+01 | 1486585590.75278 | pgbench_accounts_pkey |        112336896

 2017-02-08 21:26:31.810392+01 | 1486585591.81039 | pgbench_branches_pkey |            16384
 2017-02-08 21:26:31.810392+01 | 1486585591.81039 | pgbench_tellers_pkey  |            32768
 2017-02-08 21:26:31.810392+01 | 1486585591.81039 | pgbench_accounts_pkey |        112336896

 2017-02-08 21:26:32.870958+01 | 1486585592.87096 | pgbench_branches_pkey |            16384
 2017-02-08 21:26:32.870958+01 | 1486585592.87096 | pgbench_tellers_pkey  |            32768
 2017-02-08 21:26:32.870958+01 | 1486585592.87096 | pgbench_accounts_pkey |        112336896

 2017-02-08 21:26:33.931589+01 | 1486585593.93159 | pgbench_branches_pkey |            16384
 2017-02-08 21:26:33.931589+01 | 1486585593.93159 | pgbench_tellers_pkey  |            32768
 2017-02-08 21:26:33.931589+01 | 1486585593.93159 | pgbench_accounts_pkey |        112336896

 2017-02-08 21:26:34.99188+01 | 1486585594.99188 | pgbench_branches_pkey |            16384
 2017-02-08 21:26:34.99188+01 | 1486585594.99188 | pgbench_tellers_pkey  |            32768
 2017-02-08 21:26:34.99188+01 | 1486585594.99188 | pgbench_accounts_pkey |        112336896

 2017-02-08 21:26:36.051892+01 | 1486585596.05189 | pgbench_branches_pkey |            16384
 2017-02-08 21:26:36.051892+01 | 1486585596.05189 | pgbench_tellers_pkey  |            32768
 2017-02-08 21:26:36.051892+01 | 1486585596.05189 | pgbench_accounts_pkey |        112336896

 2017-02-08 21:26:37.108765+01 | 1486585597.10876 | pgbench_branches_pkey |            16384
 2017-02-08 21:26:37.108765+01 | 1486585597.10876 | pgbench_tellers_pkey  |            32768
 2017-02-08 21:26:37.108765+01 | 1486585597.10876 | pgbench_accounts_pkey |        112336896

 2017-02-08 21:26:38.167139+01 | 1486585598.16714 | pgbench_branches_pkey |            16384
 2017-02-08 21:26:38.167139+01 | 1486585598.16714 | pgbench_tellers_pkey  |            32768
 2017-02-08 21:26:38.167139+01 | 1486585598.16714 | pgbench_accounts_pkey |        112336896

 2017-02-08 21:26:39.230976+01 | 1486585599.23098 | pgbench_branches_pkey |            16384
 2017-02-08 21:26:39.230976+01 | 1486585599.23098 | pgbench_tellers_pkey  |            32768
 2017-02-08 21:26:39.230976+01 | 1486585599.23098 | pgbench_accounts_pkey |        112336896

 2017-02-08 21:26:40.285244+01 | 1486585600.28524 | pgbench_branches_pkey |            16384
 2017-02-08 21:26:40.285244+01 | 1486585600.28524 | pgbench_tellers_pkey  |            32768
 2017-02-08 21:26:40.285244+01 | 1486585600.28524 | pgbench_accounts_pkey |        112336896

 2017-02-08 21:26:41.341914+01 | 1486585601.34191 | pgbench_branches_pkey |            16384
 2017-02-08 21:26:41.341914+01 | 1486585601.34191 | pgbench_tellers_pkey  |            32768
 2017-02-08 21:26:41.341914+01 | 1486585601.34191 | pgbench_accounts_pkey |        112336896

 2017-02-08 21:26:42.404975+01 | 1486585602.40497 | pgbench_branches_pkey |            16384
 2017-02-08 21:26:42.404975+01 | 1486585602.40497 | pgbench_tellers_pkey  |            32768
 2017-02-08 21:26:42.404975+01 | 1486585602.40497 | pgbench_accounts_pkey |        112336896

 2017-02-08 21:26:43.462492+01 | 1486585603.46249 | pgbench_branches_pkey |            16384
 2017-02-08 21:26:43.462492+01 | 1486585603.46249 | pgbench_tellers_pkey  |            32768
 2017-02-08 21:26:43.462492+01 | 1486585603.46249 | pgbench_accounts_pkey |        112336896

 2017-02-08 21:26:44.52659+01 | 1486585604.52659 | pgbench_branches_pkey |            16384
 2017-02-08 21:26:44.52659+01 | 1486585604.52659 | pgbench_tellers_pkey  |            32768
 2017-02-08 21:26:44.52659+01 | 1486585604.52659 | pgbench_accounts_pkey |        112336896

 2017-02-08 21:26:45.583877+01 | 1486585605.58388 | pgbench_branches_pkey |            16384
 2017-02-08 21:26:45.583877+01 | 1486585605.58388 | pgbench_tellers_pkey  |            32768
 2017-02-08 21:26:45.583877+01 | 1486585605.58388 | pgbench_accounts_pkey |        112336896

 2017-02-08 21:26:46.648085+01 | 1486585606.64809 | pgbench_branches_pkey |            16384
 2017-02-08 21:26:46.648085+01 | 1486585606.64809 | pgbench_tellers_pkey  |            32768
 2017-02-08 21:26:46.648085+01 | 1486585606.64809 | pgbench_accounts_pkey |        112336896

 2017-02-08 21:26:47.710099+01 | 1486585607.7101 | pgbench_branches_pkey |            16384
 2017-02-08 21:26:47.710099+01 | 1486585607.7101 | pgbench_tellers_pkey  |            32768
 2017-02-08 21:26:47.710099+01 | 1486585607.7101 | pgbench_accounts_pkey |        112336896

 2017-02-08 21:26:48.778333+01 | 1486585608.77833 | pgbench_branches_pkey |            16384
 2017-02-08 21:26:48.778333+01 | 1486585608.77833 | pgbench_tellers_pkey  |            32768
 2017-02-08 21:26:48.778333+01 | 1486585608.77833 | pgbench_accounts_pkey |        112336896

 2017-02-08 21:26:49.848326+01 | 1486585609.84833 | pgbench_branches_pkey |            16384
 2017-02-08 21:26:49.848326+01 | 1486585609.84833 | pgbench_tellers_pkey  |            32768
 2017-02-08 21:26:49.848326+01 | 1486585609.84833 | pgbench_accounts_pkey |        112336896

 2017-02-08 21:26:50.901984+01 | 1486585610.90198 | pgbench_branches_pkey |            16384
 2017-02-08 21:26:50.901984+01 | 1486585610.90198 | pgbench_tellers_pkey  |            32768
 2017-02-08 21:26:50.901984+01 | 1486585610.90198 | pgbench_accounts_pkey |        112336896

 2017-02-08 21:26:51.964876+01 | 1486585611.96488 | pgbench_branches_pkey |            16384
 2017-02-08 21:26:51.964876+01 | 1486585611.96488 | pgbench_tellers_pkey  |            32768
 2017-02-08 21:26:51.964876+01 | 1486585611.96488 | pgbench_accounts_pkey |        112336896

 2017-02-08 21:26:53.021199+01 | 1486585613.0212 | pgbench_branches_pkey |            16384
 2017-02-08 21:26:53.021199+01 | 1486585613.0212 | pgbench_tellers_pkey  |            32768
 2017-02-08 21:26:53.021199+01 | 1486585613.0212 | pgbench_accounts_pkey |        112336896

 2017-02-08 21:26:54.080029+01 | 1486585614.08003 | pgbench_branches_pkey |            16384
 2017-02-08 21:26:54.080029+01 | 1486585614.08003 | pgbench_tellers_pkey  |            32768
 2017-02-08 21:26:54.080029+01 | 1486585614.08003 | pgbench_accounts_pkey |        112336896

 2017-02-08 21:26:55.134493+01 | 1486585615.13449 | pgbench_branches_pkey |            16384
 2017-02-08 21:26:55.134493+01 | 1486585615.13449 | pgbench_tellers_pkey  |            32768
 2017-02-08 21:26:55.134493+01 | 1486585615.13449 | pgbench_accounts_pkey |        112336896

 2017-02-08 21:26:56.192821+01 | 1486585616.19282 | pgbench_branches_pkey |            16384
 2017-02-08 21:26:56.192821+01 | 1486585616.19282 | pgbench_tellers_pkey  |            32768
 2017-02-08 21:26:56.192821+01 | 1486585616.19282 | pgbench_accounts_pkey |        112336896

 2017-02-08 21:26:57.259701+01 | 1486585617.2597 | pgbench_branches_pkey |            16384
 2017-02-08 21:26:57.259701+01 | 1486585617.2597 | pgbench_tellers_pkey  |            32768
 2017-02-08 21:26:57.259701+01 | 1486585617.2597 | pgbench_accounts_pkey |        112336896

 2017-02-08 21:26:58.318053+01 | 1486585618.31805 | pgbench_branches_pkey |            16384
 2017-02-08 21:26:58.318053+01 | 1486585618.31805 | pgbench_tellers_pkey  |            32768
 2017-02-08 21:26:58.318053+01 | 1486585618.31805 | pgbench_accounts_pkey |        112336896

 2017-02-08 21:26:59.37791+01 | 1486585619.37791 | pgbench_branches_pkey |            16384
 2017-02-08 21:26:59.37791+01 | 1486585619.37791 | pgbench_tellers_pkey  |            32768
 2017-02-08 21:26:59.37791+01 | 1486585619.37791 | pgbench_accounts_pkey |        112336896

 2017-02-08 21:27:00.449517+01 | 1486585620.44952 | pgbench_branches_pkey |            16384
 2017-02-08 21:27:00.449517+01 | 1486585620.44952 | pgbench_tellers_pkey  |            32768
 2017-02-08 21:27:00.449517+01 | 1486585620.44952 | pgbench_accounts_pkey |        112336896

 2017-02-08 21:27:01.50348+01 | 1486585621.50348 | pgbench_branches_pkey |            16384
 2017-02-08 21:27:01.50348+01 | 1486585621.50348 | pgbench_tellers_pkey  |            32768
 2017-02-08 21:27:01.50348+01 | 1486585621.50348 | pgbench_accounts_pkey |        112336896

 2017-02-08 21:27:02.577685+01 | 1486585622.57769 | pgbench_branches_pkey |            16384
 2017-02-08 21:27:02.577685+01 | 1486585622.57769 | pgbench_tellers_pkey  |            32768
 2017-02-08 21:27:02.577685+01 | 1486585622.57769 | pgbench_accounts_pkey |        112336896

 2017-02-08 21:27:03.637877+01 | 1486585623.63788 | pgbench_branches_pkey |            16384
 2017-02-08 21:27:03.637877+01 | 1486585623.63788 | pgbench_tellers_pkey  |            32768
 2017-02-08 21:27:03.637877+01 | 1486585623.63788 | pgbench_accounts_pkey |        112336896

 2017-02-08 21:27:04.700676+01 | 1486585624.70068 | pgbench_branches_pkey |            16384
 2017-02-08 21:27:04.700676+01 | 1486585624.70068 | pgbench_tellers_pkey  |            32768
 2017-02-08 21:27:04.700676+01 | 1486585624.70068 | pgbench_accounts_pkey |        112336896

 2017-02-08 21:27:05.767586+01 | 1486585625.76759 | pgbench_branches_pkey |            16384
 2017-02-08 21:27:05.767586+01 | 1486585625.76759 | pgbench_tellers_pkey  |            32768
 2017-02-08 21:27:05.767586+01 | 1486585625.76759 | pgbench_accounts_pkey |        112336896

 2017-02-08 21:27:06.839411+01 | 1486585626.83941 | pgbench_branches_pkey |            16384
 2017-02-08 21:27:06.839411+01 | 1486585626.83941 | pgbench_tellers_pkey  |            32768
 2017-02-08 21:27:06.839411+01 | 1486585626.83941 | pgbench_accounts_pkey |        112336896

 2017-02-08 21:27:07.894755+01 | 1486585627.89475 | pgbench_branches_pkey |            16384
 2017-02-08 21:27:07.894755+01 | 1486585627.89475 | pgbench_tellers_pkey  |            32768
 2017-02-08 21:27:07.894755+01 | 1486585627.89475 | pgbench_accounts_pkey |        112336896

 2017-02-08 21:27:08.957904+01 | 1486585628.9579 | pgbench_branches_pkey |            16384
 2017-02-08 21:27:08.957904+01 | 1486585628.9579 | pgbench_tellers_pkey  |            32768
 2017-02-08 21:27:08.957904+01 | 1486585628.9579 | pgbench_accounts_pkey |        112336896

 2017-02-08 21:27:10.013549+01 | 1486585630.01355 | pgbench_branches_pkey |            16384
 2017-02-08 21:27:10.013549+01 | 1486585630.01355 | pgbench_tellers_pkey  |            32768
 2017-02-08 21:27:10.013549+01 | 1486585630.01355 | pgbench_accounts_pkey |        112336896

 2017-02-08 21:27:11.070892+01 | 1486585631.07089 | pgbench_branches_pkey |            16384
 2017-02-08 21:27:11.070892+01 | 1486585631.07089 | pgbench_tellers_pkey  |            32768
 2017-02-08 21:27:11.070892+01 | 1486585631.07089 | pgbench_accounts_pkey |        112336896

 2017-02-08 21:27:12.127843+01 | 1486585632.12784 | pgbench_branches_pkey |            16384
 2017-02-08 21:27:12.127843+01 | 1486585632.12784 | pgbench_tellers_pkey  |            32768
 2017-02-08 21:27:12.127843+01 | 1486585632.12784 | pgbench_accounts_pkey |        112336896

 2017-02-08 21:27:13.186967+01 | 1486585633.18697 | pgbench_branches_pkey |            16384
 2017-02-08 21:27:13.186967+01 | 1486585633.18697 | pgbench_tellers_pkey  |            32768
 2017-02-08 21:27:13.186967+01 | 1486585633.18697 | pgbench_accounts_pkey |        112336896

 2017-02-08 21:27:14.249155+01 | 1486585634.24916 | pgbench_branches_pkey |            16384
 2017-02-08 21:27:14.249155+01 | 1486585634.24916 | pgbench_tellers_pkey  |            32768
 2017-02-08 21:27:14.249155+01 | 1486585634.24916 | pgbench_accounts_pkey |        112336896

 2017-02-08 21:27:15.315269+01 | 1486585635.31527 | pgbench_branches_pkey |            16384
 2017-02-08 21:27:15.315269+01 | 1486585635.31527 | pgbench_tellers_pkey  |            32768
 2017-02-08 21:27:15.315269+01 | 1486585635.31527 | pgbench_accounts_pkey |        112336896

 2017-02-08 21:27:16.373473+01 | 1486585636.37347 | pgbench_branches_pkey |            16384
 2017-02-08 21:27:16.373473+01 | 1486585636.37347 | pgbench_tellers_pkey  |            32768
 2017-02-08 21:27:16.373473+01 | 1486585636.37347 | pgbench_accounts_pkey |        112336896

 2017-02-08 21:27:17.42649+01 | 1486585637.42649 | pgbench_branches_pkey |            16384
 2017-02-08 21:27:17.42649+01 | 1486585637.42649 | pgbench_tellers_pkey  |            32768
 2017-02-08 21:27:17.42649+01 | 1486585637.42649 | pgbench_accounts_pkey |        112336896

 2017-02-08 21:27:18.496939+01 | 1486585638.49694 | pgbench_branches_pkey |            16384
 2017-02-08 21:27:18.496939+01 | 1486585638.49694 | pgbench_tellers_pkey  |            32768
 2017-02-08 21:27:18.496939+01 | 1486585638.49694 | pgbench_accounts_pkey |        112336896

 2017-02-08 21:27:19.565544+01 | 1486585639.56554 | pgbench_branches_pkey |            16384
 2017-02-08 21:27:19.565544+01 | 1486585639.56554 | pgbench_tellers_pkey  |            32768
 2017-02-08 21:27:19.565544+01 | 1486585639.56554 | pgbench_accounts_pkey |        112336896

 2017-02-08 21:27:20.625198+01 | 1486585640.6252 | pgbench_branches_pkey |            16384
 2017-02-08 21:27:20.625198+01 | 1486585640.6252 | pgbench_tellers_pkey  |            32768
 2017-02-08 21:27:20.625198+01 | 1486585640.6252 | pgbench_accounts_pkey |        112336896

 2017-02-08 21:27:21.685447+01 | 1486585641.68545 | pgbench_branches_pkey |            16384
 2017-02-08 21:27:21.685447+01 | 1486585641.68545 | pgbench_tellers_pkey  |            32768
 2017-02-08 21:27:21.685447+01 | 1486585641.68545 | pgbench_accounts_pkey |        112336896

 2017-02-08 21:27:22.736949+01 | 1486585642.73695 | pgbench_branches_pkey |            16384
 2017-02-08 21:27:22.736949+01 | 1486585642.73695 | pgbench_tellers_pkey  |            32768
 2017-02-08 21:27:22.736949+01 | 1486585642.73695 | pgbench_accounts_pkey |        112336896

 2017-02-08 21:27:23.804495+01 | 1486585643.8045 | pgbench_branches_pkey |            16384
 2017-02-08 21:27:23.804495+01 | 1486585643.8045 | pgbench_tellers_pkey  |            32768
 2017-02-08 21:27:23.804495+01 | 1486585643.8045 | pgbench_accounts_pkey |        112336896

 2017-02-08 21:27:24.874533+01 | 1486585644.87453 | pgbench_branches_pkey |            16384
 2017-02-08 21:27:24.874533+01 | 1486585644.87453 | pgbench_tellers_pkey  |            32768
 2017-02-08 21:27:24.874533+01 | 1486585644.87453 | pgbench_accounts_pkey |        112336896

 2017-02-08 21:27:25.931537+01 | 1486585645.93154 | pgbench_branches_pkey |            16384
 2017-02-08 21:27:25.931537+01 | 1486585645.93154 | pgbench_tellers_pkey  |            32768
 2017-02-08 21:27:25.931537+01 | 1486585645.93154 | pgbench_accounts_pkey |        112336896

 2017-02-08 21:27:26.986376+01 | 1486585646.98638 | pgbench_branches_pkey |            16384
 2017-02-08 21:27:26.986376+01 | 1486585646.98638 | pgbench_tellers_pkey  |            32768
 2017-02-08 21:27:26.986376+01 | 1486585646.98638 | pgbench_accounts_pkey |        112336896

 2017-02-08 21:27:28.044462+01 | 1486585648.04446 | pgbench_branches_pkey |            16384
 2017-02-08 21:27:28.044462+01 | 1486585648.04446 | pgbench_tellers_pkey  |            32768
 2017-02-08 21:27:28.044462+01 | 1486585648.04446 | pgbench_accounts_pkey |        112336896

 2017-02-08 21:27:29.10997+01 | 1486585649.10997 | pgbench_branches_pkey |            16384
 2017-02-08 21:27:29.10997+01 | 1486585649.10997 | pgbench_tellers_pkey  |            32768
 2017-02-08 21:27:29.10997+01 | 1486585649.10997 | pgbench_accounts_pkey |        112336896

 2017-02-08 21:27:30.171411+01 | 1486585650.17141 | pgbench_branches_pkey |            16384
 2017-02-08 21:27:30.171411+01 | 1486585650.17141 | pgbench_tellers_pkey  |            32768
 2017-02-08 21:27:30.171411+01 | 1486585650.17141 | pgbench_accounts_pkey |        112336896

 2017-02-08 21:27:31.242816+01 | 1486585651.24282 | pgbench_branches_pkey |            16384
 2017-02-08 21:27:31.242816+01 | 1486585651.24282 | pgbench_tellers_pkey  |            32768
 2017-02-08 21:27:31.242816+01 | 1486585651.24282 | pgbench_accounts_pkey |        112336896

 2017-02-08 21:27:32.307822+01 | 1486585652.30782 | pgbench_branches_pkey |            16384
 2017-02-08 21:27:32.307822+01 | 1486585652.30782 | pgbench_tellers_pkey  |            32768
 2017-02-08 21:27:32.307822+01 | 1486585652.30782 | pgbench_accounts_pkey |        112336896

 2017-02-08 21:27:33.364125+01 | 1486585653.36413 | pgbench_branches_pkey |            16384
 2017-02-08 21:27:33.364125+01 | 1486585653.36413 | pgbench_tellers_pkey  |            32768
 2017-02-08 21:27:33.364125+01 | 1486585653.36413 | pgbench_accounts_pkey |        112336896

 2017-02-08 21:27:34.423867+01 | 1486585654.42387 | pgbench_branches_pkey |            16384
 2017-02-08 21:27:34.423867+01 | 1486585654.42387 | pgbench_tellers_pkey  |            32768
 2017-02-08 21:27:34.423867+01 | 1486585654.42387 | pgbench_accounts_pkey |        112336896

 2017-02-08 21:27:35.483464+01 | 1486585655.48346 | pgbench_branches_pkey |            16384
 2017-02-08 21:27:35.483464+01 | 1486585655.48346 | pgbench_tellers_pkey  |            32768
 2017-02-08 21:27:35.483464+01 | 1486585655.48346 | pgbench_accounts_pkey |        112336896

 2017-02-08 21:27:36.540663+01 | 1486585656.54066 | pgbench_branches_pkey |            16384
 2017-02-08 21:27:36.540663+01 | 1486585656.54066 | pgbench_tellers_pkey  |            32768
 2017-02-08 21:27:36.540663+01 | 1486585656.54066 | pgbench_accounts_pkey |        112336896

 2017-02-08 21:27:37.599118+01 | 1486585657.59912 | pgbench_branches_pkey |            16384
 2017-02-08 21:27:37.599118+01 | 1486585657.59912 | pgbench_tellers_pkey  |            32768
 2017-02-08 21:27:37.599118+01 | 1486585657.59912 | pgbench_accounts_pkey |        112336896

 2017-02-08 21:27:38.658258+01 | 1486585658.65826 | pgbench_branches_pkey |            16384
 2017-02-08 21:27:38.658258+01 | 1486585658.65826 | pgbench_tellers_pkey  |            32768
 2017-02-08 21:27:38.658258+01 | 1486585658.65826 | pgbench_accounts_pkey |        112336896

 2017-02-08 21:27:39.715202+01 | 1486585659.7152 | pgbench_branches_pkey |            16384
 2017-02-08 21:27:39.715202+01 | 1486585659.7152 | pgbench_tellers_pkey  |            32768
 2017-02-08 21:27:39.715202+01 | 1486585659.7152 | pgbench_accounts_pkey |        112336896

 2017-02-08 21:27:40.779098+01 | 1486585660.7791 | pgbench_branches_pkey |            16384
 2017-02-08 21:27:40.779098+01 | 1486585660.7791 | pgbench_tellers_pkey  |            32768
 2017-02-08 21:27:40.779098+01 | 1486585660.7791 | pgbench_accounts_pkey |        112336896

 2017-02-08 21:27:41.847334+01 | 1486585661.84733 | pgbench_branches_pkey |            16384
 2017-02-08 21:27:41.847334+01 | 1486585661.84733 | pgbench_tellers_pkey  |            32768
 2017-02-08 21:27:41.847334+01 | 1486585661.84733 | pgbench_accounts_pkey |        112336896

 2017-02-08 21:27:42.914689+01 | 1486585662.91469 | pgbench_branches_pkey |            16384
 2017-02-08 21:27:42.914689+01 | 1486585662.91469 | pgbench_tellers_pkey  |            32768
 2017-02-08 21:27:42.914689+01 | 1486585662.91469 | pgbench_accounts_pkey |        112336896

 2017-02-08 21:27:43.97639+01 | 1486585663.97639 | pgbench_branches_pkey |            16384
 2017-02-08 21:27:43.97639+01 | 1486585663.97639 | pgbench_tellers_pkey  |            32768
 2017-02-08 21:27:43.97639+01 | 1486585663.97639 | pgbench_accounts_pkey |        112336896

 2017-02-08 21:27:45.037369+01 | 1486585665.03737 | pgbench_branches_pkey |            16384
 2017-02-08 21:27:45.037369+01 | 1486585665.03737 | pgbench_tellers_pkey  |            32768
 2017-02-08 21:27:45.037369+01 | 1486585665.03737 | pgbench_accounts_pkey |        112336896

 2017-02-08 21:27:46.092579+01 | 1486585666.09258 | pgbench_branches_pkey |            16384
 2017-02-08 21:27:46.092579+01 | 1486585666.09258 | pgbench_tellers_pkey  |            32768
 2017-02-08 21:27:46.092579+01 | 1486585666.09258 | pgbench_accounts_pkey |        112336896

 2017-02-08 21:27:47.152007+01 | 1486585667.15201 | pgbench_branches_pkey |            16384
 2017-02-08 21:27:47.152007+01 | 1486585667.15201 | pgbench_tellers_pkey  |            32768
 2017-02-08 21:27:47.152007+01 | 1486585667.15201 | pgbench_accounts_pkey |        112336896

 2017-02-08 21:27:48.211469+01 | 1486585668.21147 | pgbench_branches_pkey |            16384
 2017-02-08 21:27:48.211469+01 | 1486585668.21147 | pgbench_tellers_pkey  |            32768
 2017-02-08 21:27:48.211469+01 | 1486585668.21147 | pgbench_accounts_pkey |        112336896

 2017-02-08 21:27:49.268029+01 | 1486585669.26803 | pgbench_branches_pkey |            16384
 2017-02-08 21:27:49.268029+01 | 1486585669.26803 | pgbench_tellers_pkey  |            32768
 2017-02-08 21:27:49.268029+01 | 1486585669.26803 | pgbench_accounts_pkey |        112336896

 2017-02-08 21:27:50.324409+01 | 1486585670.32441 | pgbench_branches_pkey |            16384
 2017-02-08 21:27:50.324409+01 | 1486585670.32441 | pgbench_tellers_pkey  |            32768
 2017-02-08 21:27:50.324409+01 | 1486585670.32441 | pgbench_accounts_pkey |        112336896

 2017-02-08 21:27:51.384625+01 | 1486585671.38462 | pgbench_branches_pkey |            16384
 2017-02-08 21:27:51.384625+01 | 1486585671.38462 | pgbench_tellers_pkey  |            32768
 2017-02-08 21:27:51.384625+01 | 1486585671.38462 | pgbench_accounts_pkey |        112336896

 2017-02-08 21:27:52.44382+01 | 1486585672.44382 | pgbench_branches_pkey |            16384
 2017-02-08 21:27:52.44382+01 | 1486585672.44382 | pgbench_tellers_pkey  |            32768
 2017-02-08 21:27:52.44382+01 | 1486585672.44382 | pgbench_accounts_pkey |        112336896

 2017-02-08 21:27:53.503939+01 | 1486585673.50394 | pgbench_branches_pkey |            16384
 2017-02-08 21:27:53.503939+01 | 1486585673.50394 | pgbench_tellers_pkey  |            32768
 2017-02-08 21:27:53.503939+01 | 1486585673.50394 | pgbench_accounts_pkey |        112336896

 2017-02-08 21:27:54.564815+01 | 1486585674.56482 | pgbench_branches_pkey |            16384
 2017-02-08 21:27:54.564815+01 | 1486585674.56482 | pgbench_tellers_pkey  |            32768
 2017-02-08 21:27:54.564815+01 | 1486585674.56482 | pgbench_accounts_pkey |        112336896

 2017-02-08 21:27:55.621153+01 | 1486585675.62115 | pgbench_branches_pkey |            16384
 2017-02-08 21:27:55.621153+01 | 1486585675.62115 | pgbench_tellers_pkey  |            32768
 2017-02-08 21:27:55.621153+01 | 1486585675.62115 | pgbench_accounts_pkey |        112336896

 2017-02-08 21:27:56.675754+01 | 1486585676.67575 | pgbench_branches_pkey |            16384
 2017-02-08 21:27:56.675754+01 | 1486585676.67575 | pgbench_tellers_pkey  |            32768
 2017-02-08 21:27:56.675754+01 | 1486585676.67575 | pgbench_accounts_pkey |        112336896

 2017-02-08 21:27:57.742616+01 | 1486585677.74262 | pgbench_branches_pkey |            16384
 2017-02-08 21:27:57.742616+01 | 1486585677.74262 | pgbench_tellers_pkey  |            32768
 2017-02-08 21:27:57.742616+01 | 1486585677.74262 | pgbench_accounts_pkey |        112336896

 2017-02-08 21:27:58.803018+01 | 1486585678.80302 | pgbench_branches_pkey |            16384
 2017-02-08 21:27:58.803018+01 | 1486585678.80302 | pgbench_tellers_pkey  |            32768
 2017-02-08 21:27:58.803018+01 | 1486585678.80302 | pgbench_accounts_pkey |        112336896

 2017-02-08 21:27:59.866683+01 | 1486585679.86668 | pgbench_branches_pkey |            16384
 2017-02-08 21:27:59.866683+01 | 1486585679.86668 | pgbench_tellers_pkey  |            32768
 2017-02-08 21:27:59.866683+01 | 1486585679.86668 | pgbench_accounts_pkey |        112336896

 2017-02-08 21:28:00.92239+01 | 1486585680.92239 | pgbench_branches_pkey |            16384
 2017-02-08 21:28:00.92239+01 | 1486585680.92239 | pgbench_tellers_pkey  |            32768
 2017-02-08 21:28:00.92239+01 | 1486585680.92239 | pgbench_accounts_pkey |        112336896

 2017-02-08 21:28:01.9778+01 | 1486585681.9778 | pgbench_branches_pkey |            16384
 2017-02-08 21:28:01.9778+01 | 1486585681.9778 | pgbench_tellers_pkey  |            32768
 2017-02-08 21:28:01.9778+01 | 1486585681.9778 | pgbench_accounts_pkey |        112336896

 2017-02-08 21:28:03.047218+01 | 1486585683.04722 | pgbench_branches_pkey |            16384
 2017-02-08 21:28:03.047218+01 | 1486585683.04722 | pgbench_tellers_pkey  |            32768
 2017-02-08 21:28:03.047218+01 | 1486585683.04722 | pgbench_accounts_pkey |        112336896

 2017-02-08 21:28:04.104357+01 | 1486585684.10436 | pgbench_branches_pkey |            16384
 2017-02-08 21:28:04.104357+01 | 1486585684.10436 | pgbench_tellers_pkey  |            32768
 2017-02-08 21:28:04.104357+01 | 1486585684.10436 | pgbench_accounts_pkey |        112336896

 2017-02-08 21:28:05.170185+01 | 1486585685.17019 | pgbench_branches_pkey |            16384
 2017-02-08 21:28:05.170185+01 | 1486585685.17019 | pgbench_tellers_pkey  |            32768
 2017-02-08 21:28:05.170185+01 | 1486585685.17019 | pgbench_accounts_pkey |        112336896

 2017-02-08 21:28:06.227687+01 | 1486585686.22769 | pgbench_branches_pkey |            16384
 2017-02-08 21:28:06.227687+01 | 1486585686.22769 | pgbench_tellers_pkey  |            32768
 2017-02-08 21:28:06.227687+01 | 1486585686.22769 | pgbench_accounts_pkey |        112336896

 2017-02-08 21:28:07.282722+01 | 1486585687.28272 | pgbench_branches_pkey |            16384
 2017-02-08 21:28:07.282722+01 | 1486585687.28272 | pgbench_tellers_pkey  |            32768
 2017-02-08 21:28:07.282722+01 | 1486585687.28272 | pgbench_accounts_pkey |        112336896

 2017-02-08 21:28:08.349472+01 | 1486585688.34947 | pgbench_branches_pkey |            16384
 2017-02-08 21:28:08.349472+01 | 1486585688.34947 | pgbench_tellers_pkey  |            32768
 2017-02-08 21:28:08.349472+01 | 1486585688.34947 | pgbench_accounts_pkey |        112336896

 2017-02-08 21:28:09.408564+01 | 1486585689.40856 | pgbench_branches_pkey |            16384
 2017-02-08 21:28:09.408564+01 | 1486585689.40856 | pgbench_tellers_pkey  |            32768
 2017-02-08 21:28:09.408564+01 | 1486585689.40856 | pgbench_accounts_pkey |        112336896

 2017-02-08 21:28:10.465315+01 | 1486585690.46532 | pgbench_branches_pkey |            16384
 2017-02-08 21:28:10.465315+01 | 1486585690.46532 | pgbench_tellers_pkey  |            32768
 2017-02-08 21:28:10.465315+01 | 1486585690.46532 | pgbench_accounts_pkey |        112336896

 2017-02-08 21:28:11.531292+01 | 1486585691.53129 | pgbench_branches_pkey |            16384
 2017-02-08 21:28:11.531292+01 | 1486585691.53129 | pgbench_tellers_pkey  |            32768
 2017-02-08 21:28:11.531292+01 | 1486585691.53129 | pgbench_accounts_pkey |        112336896

 2017-02-08 21:28:12.585567+01 | 1486585692.58557 | pgbench_branches_pkey |            16384
 2017-02-08 21:28:12.585567+01 | 1486585692.58557 | pgbench_tellers_pkey  |            32768
 2017-02-08 21:28:12.585567+01 | 1486585692.58557 | pgbench_accounts_pkey |        112336896

 2017-02-08 21:28:13.644643+01 | 1486585693.64464 | pgbench_branches_pkey |            16384
 2017-02-08 21:28:13.644643+01 | 1486585693.64464 | pgbench_tellers_pkey  |            32768
 2017-02-08 21:28:13.644643+01 | 1486585693.64464 | pgbench_accounts_pkey |        112336896

 2017-02-08 21:28:14.70395+01 | 1486585694.70395 | pgbench_branches_pkey |            16384
 2017-02-08 21:28:14.70395+01 | 1486585694.70395 | pgbench_tellers_pkey  |            32768
 2017-02-08 21:28:14.70395+01 | 1486585694.70395 | pgbench_accounts_pkey |        112336896

 2017-02-08 21:28:15.761099+01 | 1486585695.7611 | pgbench_branches_pkey |            16384
 2017-02-08 21:28:15.761099+01 | 1486585695.7611 | pgbench_tellers_pkey  |            32768
 2017-02-08 21:28:15.761099+01 | 1486585695.7611 | pgbench_accounts_pkey |        112336896

 2017-02-08 21:28:16.819051+01 | 1486585696.81905 | pgbench_branches_pkey |            16384
 2017-02-08 21:28:16.819051+01 | 1486585696.81905 | pgbench_tellers_pkey  |            32768
 2017-02-08 21:28:16.819051+01 | 1486585696.81905 | pgbench_accounts_pkey |        112336896

 2017-02-08 21:28:17.885721+01 | 1486585697.88572 | pgbench_branches_pkey |            16384
 2017-02-08 21:28:17.885721+01 | 1486585697.88572 | pgbench_tellers_pkey  |            32768
 2017-02-08 21:28:17.885721+01 | 1486585697.88572 | pgbench_accounts_pkey |        112336896

 2017-02-08 21:28:18.95722+01 | 1486585698.95722 | pgbench_branches_pkey |            16384
 2017-02-08 21:28:18.95722+01 | 1486585698.95722 | pgbench_tellers_pkey  |            32768
 2017-02-08 21:28:18.95722+01 | 1486585698.95722 | pgbench_accounts_pkey |        112336896

 2017-02-08 21:28:20.016659+01 | 1486585700.01666 | pgbench_branches_pkey |            16384
 2017-02-08 21:28:20.016659+01 | 1486585700.01666 | pgbench_tellers_pkey  |            32768
 2017-02-08 21:28:20.016659+01 | 1486585700.01666 | pgbench_accounts_pkey |        112336896

 2017-02-08 21:28:21.076727+01 | 1486585701.07673 | pgbench_branches_pkey |            16384
 2017-02-08 21:28:21.076727+01 | 1486585701.07673 | pgbench_tellers_pkey  |            32768
 2017-02-08 21:28:21.076727+01 | 1486585701.07673 | pgbench_accounts_pkey |        112336896

 2017-02-08 21:28:22.133327+01 | 1486585702.13333 | pgbench_branches_pkey |            16384
 2017-02-08 21:28:22.133327+01 | 1486585702.13333 | pgbench_tellers_pkey  |            32768
 2017-02-08 21:28:22.133327+01 | 1486585702.13333 | pgbench_accounts_pkey |        112336896

 2017-02-08 21:28:23.190642+01 | 1486585703.19064 | pgbench_branches_pkey |            16384
 2017-02-08 21:28:23.190642+01 | 1486585703.19064 | pgbench_tellers_pkey  |            32768
 2017-02-08 21:28:23.190642+01 | 1486585703.19064 | pgbench_accounts_pkey |        112336896

 2017-02-08 21:28:24.236251+01 | 1486585704.23625 | pgbench_branches_pkey |            16384
 2017-02-08 21:28:24.236251+01 | 1486585704.23625 | pgbench_tellers_pkey  |            32768
 2017-02-08 21:28:24.236251+01 | 1486585704.23625 | pgbench_accounts_pkey |        112336896

 2017-02-08 21:28:25.297353+01 | 1486585705.29735 | pgbench_branches_pkey |            16384
 2017-02-08 21:28:25.297353+01 | 1486585705.29735 | pgbench_tellers_pkey  |            32768
 2017-02-08 21:28:25.297353+01 | 1486585705.29735 | pgbench_accounts_pkey |        112336896

 2017-02-08 21:28:26.358678+01 | 1486585706.35868 | pgbench_branches_pkey |            16384
 2017-02-08 21:28:26.358678+01 | 1486585706.35868 | pgbench_tellers_pkey  |            32768
 2017-02-08 21:28:26.358678+01 | 1486585706.35868 | pgbench_accounts_pkey |        112336896

 2017-02-08 21:28:27.414767+01 | 1486585707.41477 | pgbench_branches_pkey |            16384
 2017-02-08 21:28:27.414767+01 | 1486585707.41477 | pgbench_tellers_pkey  |            32768
 2017-02-08 21:28:27.414767+01 | 1486585707.41477 | pgbench_accounts_pkey |        112336896

 2017-02-08 21:28:28.470025+01 | 1486585708.47003 | pgbench_branches_pkey |            16384
 2017-02-08 21:28:28.470025+01 | 1486585708.47003 | pgbench_tellers_pkey  |            32768
 2017-02-08 21:28:28.470025+01 | 1486585708.47003 | pgbench_accounts_pkey |        112336896

 2017-02-08 21:28:29.52424+01 | 1486585709.52424 | pgbench_branches_pkey |            16384
 2017-02-08 21:28:29.52424+01 | 1486585709.52424 | pgbench_tellers_pkey  |            32768
 2017-02-08 21:28:29.52424+01 | 1486585709.52424 | pgbench_accounts_pkey |        112336896

 2017-02-08 21:28:30.586926+01 | 1486585710.58693 | pgbench_branches_pkey |            16384
 2017-02-08 21:28:30.586926+01 | 1486585710.58693 | pgbench_tellers_pkey  |            32768
 2017-02-08 21:28:30.586926+01 | 1486585710.58693 | pgbench_accounts_pkey |        112336896

 2017-02-08 21:28:31.65484+01 | 1486585711.65484 | pgbench_branches_pkey |            16384
 2017-02-08 21:28:31.65484+01 | 1486585711.65484 | pgbench_tellers_pkey  |            32768
 2017-02-08 21:28:31.65484+01 | 1486585711.65484 | pgbench_accounts_pkey |        112336896

 2017-02-08 21:28:32.711389+01 | 1486585712.71139 | pgbench_branches_pkey |            16384
 2017-02-08 21:28:32.711389+01 | 1486585712.71139 | pgbench_tellers_pkey  |            32768
 2017-02-08 21:28:32.711389+01 | 1486585712.71139 | pgbench_accounts_pkey |        112336896

 2017-02-08 21:28:33.766672+01 | 1486585713.76667 | pgbench_branches_pkey |            16384
 2017-02-08 21:28:33.766672+01 | 1486585713.76667 | pgbench_tellers_pkey  |            32768
 2017-02-08 21:28:33.766672+01 | 1486585713.76667 | pgbench_accounts_pkey |        112336896

 2017-02-08 21:28:34.8368+01 | 1486585714.8368 | pgbench_branches_pkey |            16384
 2017-02-08 21:28:34.8368+01 | 1486585714.8368 | pgbench_tellers_pkey  |            32768
 2017-02-08 21:28:34.8368+01 | 1486585714.8368 | pgbench_accounts_pkey |        112336896

 2017-02-08 21:28:35.898619+01 | 1486585715.89862 | pgbench_branches_pkey |            16384
 2017-02-08 21:28:35.898619+01 | 1486585715.89862 | pgbench_tellers_pkey  |            32768
 2017-02-08 21:28:35.898619+01 | 1486585715.89862 | pgbench_accounts_pkey |        112336896

 2017-02-08 21:28:36.956239+01 | 1486585716.95624 | pgbench_branches_pkey |            16384
 2017-02-08 21:28:36.956239+01 | 1486585716.95624 | pgbench_tellers_pkey  |            32768
 2017-02-08 21:28:36.956239+01 | 1486585716.95624 | pgbench_accounts_pkey |        112336896

 2017-02-08 21:28:38.017213+01 | 1486585718.01721 | pgbench_branches_pkey |            16384
 2017-02-08 21:28:38.017213+01 | 1486585718.01721 | pgbench_tellers_pkey  |            32768
 2017-02-08 21:28:38.017213+01 | 1486585718.01721 | pgbench_accounts_pkey |        112336896

 2017-02-08 21:28:39.071828+01 | 1486585719.07183 | pgbench_branches_pkey |            16384
 2017-02-08 21:28:39.071828+01 | 1486585719.07183 | pgbench_tellers_pkey  |            32768
 2017-02-08 21:28:39.071828+01 | 1486585719.07183 | pgbench_accounts_pkey |        112336896

 2017-02-08 21:28:40.131557+01 | 1486585720.13156 | pgbench_branches_pkey |            16384
 2017-02-08 21:28:40.131557+01 | 1486585720.13156 | pgbench_tellers_pkey  |            32768
 2017-02-08 21:28:40.131557+01 | 1486585720.13156 | pgbench_accounts_pkey |        112336896

 2017-02-08 21:28:41.192635+01 | 1486585721.19264 | pgbench_branches_pkey |            16384
 2017-02-08 21:28:41.192635+01 | 1486585721.19264 | pgbench_tellers_pkey  |            32768
 2017-02-08 21:28:41.192635+01 | 1486585721.19264 | pgbench_accounts_pkey |        112336896

 2017-02-08 21:28:42.255174+01 | 1486585722.25517 | pgbench_branches_pkey |            16384
 2017-02-08 21:28:42.255174+01 | 1486585722.25517 | pgbench_tellers_pkey  |            32768
 2017-02-08 21:28:42.255174+01 | 1486585722.25517 | pgbench_accounts_pkey |        112336896

 2017-02-08 21:28:43.317929+01 | 1486585723.31793 | pgbench_branches_pkey |            16384
 2017-02-08 21:28:43.317929+01 | 1486585723.31793 | pgbench_tellers_pkey  |            32768
 2017-02-08 21:28:43.317929+01 | 1486585723.31793 | pgbench_accounts_pkey |        112336896

 2017-02-08 21:28:44.375011+01 | 1486585724.37501 | pgbench_branches_pkey |            16384
 2017-02-08 21:28:44.375011+01 | 1486585724.37501 | pgbench_tellers_pkey  |            32768
 2017-02-08 21:28:44.375011+01 | 1486585724.37501 | pgbench_accounts_pkey |        112336896

 2017-02-08 21:28:45.443839+01 | 1486585725.44384 | pgbench_branches_pkey |            16384
 2017-02-08 21:28:45.443839+01 | 1486585725.44384 | pgbench_tellers_pkey  |            32768
 2017-02-08 21:28:45.443839+01 | 1486585725.44384 | pgbench_accounts_pkey |        112336896

 2017-02-08 21:28:46.50345+01 | 1486585726.50345 | pgbench_branches_pkey |            16384
 2017-02-08 21:28:46.50345+01 | 1486585726.50345 | pgbench_tellers_pkey  |            32768
 2017-02-08 21:28:46.50345+01 | 1486585726.50345 | pgbench_accounts_pkey |        112336896

 2017-02-08 21:28:47.572332+01 | 1486585727.57233 | pgbench_branches_pkey |            16384
 2017-02-08 21:28:47.572332+01 | 1486585727.57233 | pgbench_tellers_pkey  |            32768
 2017-02-08 21:28:47.572332+01 | 1486585727.57233 | pgbench_accounts_pkey |        112336896

 2017-02-08 21:28:48.638566+01 | 1486585728.63857 | pgbench_branches_pkey |            16384
 2017-02-08 21:28:48.638566+01 | 1486585728.63857 | pgbench_tellers_pkey  |            32768
 2017-02-08 21:28:48.638566+01 | 1486585728.63857 | pgbench_accounts_pkey |        112336896

 2017-02-08 21:28:49.703231+01 | 1486585729.70323 | pgbench_branches_pkey |            16384
 2017-02-08 21:28:49.703231+01 | 1486585729.70323 | pgbench_tellers_pkey  |            32768
 2017-02-08 21:28:49.703231+01 | 1486585729.70323 | pgbench_accounts_pkey |        112336896

 2017-02-08 21:28:50.75721+01 | 1486585730.75721 | pgbench_branches_pkey |            16384
 2017-02-08 21:28:50.75721+01 | 1486585730.75721 | pgbench_tellers_pkey  |            32768
 2017-02-08 21:28:50.75721+01 | 1486585730.75721 | pgbench_accounts_pkey |        112336896

 2017-02-08 21:28:51.815751+01 | 1486585731.81575 | pgbench_branches_pkey |            16384
 2017-02-08 21:28:51.815751+01 | 1486585731.81575 | pgbench_tellers_pkey  |            32768
 2017-02-08 21:28:51.815751+01 | 1486585731.81575 | pgbench_accounts_pkey |        112336896

 2017-02-08 21:28:52.876773+01 | 1486585732.87677 | pgbench_branches_pkey |            16384
 2017-02-08 21:28:52.876773+01 | 1486585732.87677 | pgbench_tellers_pkey  |            32768
 2017-02-08 21:28:52.876773+01 | 1486585732.87677 | pgbench_accounts_pkey |        112336896

 2017-02-08 21:28:53.927386+01 | 1486585733.92739 | pgbench_branches_pkey |            16384
 2017-02-08 21:28:53.927386+01 | 1486585733.92739 | pgbench_tellers_pkey  |            32768
 2017-02-08 21:28:53.927386+01 | 1486585733.92739 | pgbench_accounts_pkey |        112336896

 2017-02-08 21:28:54.987131+01 | 1486585734.98713 | pgbench_branches_pkey |            16384
 2017-02-08 21:28:54.987131+01 | 1486585734.98713 | pgbench_tellers_pkey  |            32768
 2017-02-08 21:28:54.987131+01 | 1486585734.98713 | pgbench_accounts_pkey |        112336896

 2017-02-08 21:28:56.046097+01 | 1486585736.0461 | pgbench_branches_pkey |            16384
 2017-02-08 21:28:56.046097+01 | 1486585736.0461 | pgbench_tellers_pkey  |            32768
 2017-02-08 21:28:56.046097+01 | 1486585736.0461 | pgbench_accounts_pkey |        112336896

 2017-02-08 21:28:57.099356+01 | 1486585737.09936 | pgbench_branches_pkey |            16384
 2017-02-08 21:28:57.099356+01 | 1486585737.09936 | pgbench_tellers_pkey  |            32768
 2017-02-08 21:28:57.099356+01 | 1486585737.09936 | pgbench_accounts_pkey |        112336896

 2017-02-08 21:28:58.162171+01 | 1486585738.16217 | pgbench_branches_pkey |            16384
 2017-02-08 21:28:58.162171+01 | 1486585738.16217 | pgbench_tellers_pkey  |            32768
 2017-02-08 21:28:58.162171+01 | 1486585738.16217 | pgbench_accounts_pkey |        112336896

 2017-02-08 21:28:59.224074+01 | 1486585739.22407 | pgbench_branches_pkey |            16384
 2017-02-08 21:28:59.224074+01 | 1486585739.22407 | pgbench_tellers_pkey  |            32768
 2017-02-08 21:28:59.224074+01 | 1486585739.22407 | pgbench_accounts_pkey |        112336896

 2017-02-08 21:29:00.294675+01 | 1486585740.29468 | pgbench_branches_pkey |            16384
 2017-02-08 21:29:00.294675+01 | 1486585740.29468 | pgbench_tellers_pkey  |            32768
 2017-02-08 21:29:00.294675+01 | 1486585740.29468 | pgbench_accounts_pkey |        112336896

 2017-02-08 21:29:01.363414+01 | 1486585741.36341 | pgbench_branches_pkey |            16384
 2017-02-08 21:29:01.363414+01 | 1486585741.36341 | pgbench_tellers_pkey  |            32768
 2017-02-08 21:29:01.363414+01 | 1486585741.36341 | pgbench_accounts_pkey |        112336896

 2017-02-08 21:29:02.421673+01 | 1486585742.42167 | pgbench_branches_pkey |            16384
 2017-02-08 21:29:02.421673+01 | 1486585742.42167 | pgbench_tellers_pkey  |            32768
 2017-02-08 21:29:02.421673+01 | 1486585742.42167 | pgbench_accounts_pkey |        112336896

 2017-02-08 21:29:03.479925+01 | 1486585743.47992 | pgbench_branches_pkey |            16384
 2017-02-08 21:29:03.479925+01 | 1486585743.47992 | pgbench_tellers_pkey  |            32768
 2017-02-08 21:29:03.479925+01 | 1486585743.47992 | pgbench_accounts_pkey |        112336896

 2017-02-08 21:29:04.539024+01 | 1486585744.53902 | pgbench_branches_pkey |            16384
 2017-02-08 21:29:04.539024+01 | 1486585744.53902 | pgbench_tellers_pkey  |            32768
 2017-02-08 21:29:04.539024+01 | 1486585744.53902 | pgbench_accounts_pkey |        112336896

 2017-02-08 21:29:05.603687+01 | 1486585745.60369 | pgbench_branches_pkey |            16384
 2017-02-08 21:29:05.603687+01 | 1486585745.60369 | pgbench_tellers_pkey  |            32768
 2017-02-08 21:29:05.603687+01 | 1486585745.60369 | pgbench_accounts_pkey |        112336896

 2017-02-08 21:29:06.660151+01 | 1486585746.66015 | pgbench_branches_pkey |            16384
 2017-02-08 21:29:06.660151+01 | 1486585746.66015 | pgbench_tellers_pkey  |            32768
 2017-02-08 21:29:06.660151+01 | 1486585746.66015 | pgbench_accounts_pkey |        112336896

 2017-02-08 21:29:07.719806+01 | 1486585747.71981 | pgbench_branches_pkey |            16384
 2017-02-08 21:29:07.719806+01 | 1486585747.71981 | pgbench_tellers_pkey  |            32768
 2017-02-08 21:29:07.719806+01 | 1486585747.71981 | pgbench_accounts_pkey |        112336896

 2017-02-08 21:29:08.779075+01 | 1486585748.77907 | pgbench_branches_pkey |            16384
 2017-02-08 21:29:08.779075+01 | 1486585748.77907 | pgbench_tellers_pkey  |            32768
 2017-02-08 21:29:08.779075+01 | 1486585748.77907 | pgbench_accounts_pkey |        112336896

 2017-02-08 21:29:09.84054+01 | 1486585749.84054 | pgbench_branches_pkey |            16384
 2017-02-08 21:29:09.84054+01 | 1486585749.84054 | pgbench_tellers_pkey  |            32768
 2017-02-08 21:29:09.84054+01 | 1486585749.84054 | pgbench_accounts_pkey |        112336896

 2017-02-08 21:29:10.90332+01 | 1486585750.90332 | pgbench_branches_pkey |            16384
 2017-02-08 21:29:10.90332+01 | 1486585750.90332 | pgbench_tellers_pkey  |            32768
 2017-02-08 21:29:10.90332+01 | 1486585750.90332 | pgbench_accounts_pkey |        112336896

 2017-02-08 21:29:11.970699+01 | 1486585751.9707 | pgbench_branches_pkey |            16384
 2017-02-08 21:29:11.970699+01 | 1486585751.9707 | pgbench_tellers_pkey  |            32768
 2017-02-08 21:29:11.970699+01 | 1486585751.9707 | pgbench_accounts_pkey |        112336896

 2017-02-08 21:29:13.030212+01 | 1486585753.03021 | pgbench_branches_pkey |            16384
 2017-02-08 21:29:13.030212+01 | 1486585753.03021 | pgbench_tellers_pkey  |            32768
 2017-02-08 21:29:13.030212+01 | 1486585753.03021 | pgbench_accounts_pkey |        112336896

 2017-02-08 21:29:14.089887+01 | 1486585754.08989 | pgbench_branches_pkey |            16384
 2017-02-08 21:29:14.089887+01 | 1486585754.08989 | pgbench_tellers_pkey  |            32768
 2017-02-08 21:29:14.089887+01 | 1486585754.08989 | pgbench_accounts_pkey |        112336896

 2017-02-08 21:29:15.14193+01 | 1486585755.14193 | pgbench_branches_pkey |            16384
 2017-02-08 21:29:15.14193+01 | 1486585755.14193 | pgbench_tellers_pkey  |            32768
 2017-02-08 21:29:15.14193+01 | 1486585755.14193 | pgbench_accounts_pkey |        112336896

 2017-02-08 21:29:16.19554+01 | 1486585756.19554 | pgbench_branches_pkey |            16384
 2017-02-08 21:29:16.19554+01 | 1486585756.19554 | pgbench_tellers_pkey  |            32768
 2017-02-08 21:29:16.19554+01 | 1486585756.19554 | pgbench_accounts_pkey |        112336896

 2017-02-08 21:29:17.258656+01 | 1486585757.25866 | pgbench_branches_pkey |            16384
 2017-02-08 21:29:17.258656+01 | 1486585757.25866 | pgbench_tellers_pkey  |            32768
 2017-02-08 21:29:17.258656+01 | 1486585757.25866 | pgbench_accounts_pkey |        112336896

 2017-02-08 21:29:18.329633+01 | 1486585758.32963 | pgbench_branches_pkey |            16384
 2017-02-08 21:29:18.329633+01 | 1486585758.32963 | pgbench_tellers_pkey  |            32768
 2017-02-08 21:29:18.329633+01 | 1486585758.32963 | pgbench_accounts_pkey |        112336896

 2017-02-08 21:29:19.393254+01 | 1486585759.39325 | pgbench_branches_pkey |            16384
 2017-02-08 21:29:19.393254+01 | 1486585759.39325 | pgbench_tellers_pkey  |            32768
 2017-02-08 21:29:19.393254+01 | 1486585759.39325 | pgbench_accounts_pkey |        112336896

 2017-02-08 21:29:20.459163+01 | 1486585760.45916 | pgbench_branches_pkey |            16384
 2017-02-08 21:29:20.459163+01 | 1486585760.45916 | pgbench_tellers_pkey  |            32768
 2017-02-08 21:29:20.459163+01 | 1486585760.45916 | pgbench_accounts_pkey |        112336896

 2017-02-08 21:29:21.520989+01 | 1486585761.52099 | pgbench_branches_pkey |            16384
 2017-02-08 21:29:21.520989+01 | 1486585761.52099 | pgbench_tellers_pkey  |            32768
 2017-02-08 21:29:21.520989+01 | 1486585761.52099 | pgbench_accounts_pkey |        112336896

 2017-02-08 21:29:22.5819+01 | 1486585762.5819 | pgbench_branches_pkey |            16384
 2017-02-08 21:29:22.5819+01 | 1486585762.5819 | pgbench_tellers_pkey  |            32768
 2017-02-08 21:29:22.5819+01 | 1486585762.5819 | pgbench_accounts_pkey |        112336896

 2017-02-08 21:29:23.635827+01 | 1486585763.63583 | pgbench_branches_pkey |            16384
 2017-02-08 21:29:23.635827+01 | 1486585763.63583 | pgbench_tellers_pkey  |            32768
 2017-02-08 21:29:23.635827+01 | 1486585763.63583 | pgbench_accounts_pkey |        112336896

 2017-02-08 21:29:24.695516+01 | 1486585764.69552 | pgbench_branches_pkey |            16384
 2017-02-08 21:29:24.695516+01 | 1486585764.69552 | pgbench_tellers_pkey  |            32768
 2017-02-08 21:29:24.695516+01 | 1486585764.69552 | pgbench_accounts_pkey |        112336896

 2017-02-08 21:29:25.760063+01 | 1486585765.76006 | pgbench_branches_pkey |            16384
 2017-02-08 21:29:25.760063+01 | 1486585765.76006 | pgbench_tellers_pkey  |            32768
 2017-02-08 21:29:25.760063+01 | 1486585765.76006 | pgbench_accounts_pkey |        112336896

 2017-02-08 21:29:26.876835+01 | 1486585766.87684 | pgbench_branches_pkey |            16384
 2017-02-08 21:29:26.876835+01 | 1486585766.87684 | pgbench_tellers_pkey  |            32768
 2017-02-08 21:29:26.876835+01 | 1486585766.87684 | pgbench_accounts_pkey |        112336896

 2017-02-08 21:29:27.944304+01 | 1486585767.9443 | pgbench_branches_pkey |            16384
 2017-02-08 21:29:27.944304+01 | 1486585767.9443 | pgbench_tellers_pkey  |            32768
 2017-02-08 21:29:27.944304+01 | 1486585767.9443 | pgbench_accounts_pkey |        112336896

 2017-02-08 21:29:29.011982+01 | 1486585769.01198 | pgbench_branches_pkey |            16384
 2017-02-08 21:29:29.011982+01 | 1486585769.01198 | pgbench_tellers_pkey  |            32768
 2017-02-08 21:29:29.011982+01 | 1486585769.01198 | pgbench_accounts_pkey |        112336896

 2017-02-08 21:29:30.071054+01 | 1486585770.07105 | pgbench_branches_pkey |            16384
 2017-02-08 21:29:30.071054+01 | 1486585770.07105 | pgbench_tellers_pkey  |            32768
 2017-02-08 21:29:30.071054+01 | 1486585770.07105 | pgbench_accounts_pkey |        112336896

 2017-02-08 21:29:31.132468+01 | 1486585771.13247 | pgbench_branches_pkey |            16384
 2017-02-08 21:29:31.132468+01 | 1486585771.13247 | pgbench_tellers_pkey  |            32768
 2017-02-08 21:29:31.132468+01 | 1486585771.13247 | pgbench_accounts_pkey |        112336896

 2017-02-08 21:29:32.195998+01 | 1486585772.196 | pgbench_branches_pkey |            16384
 2017-02-08 21:29:32.195998+01 | 1486585772.196 | pgbench_tellers_pkey  |            32768
 2017-02-08 21:29:32.195998+01 | 1486585772.196 | pgbench_accounts_pkey |        112336896

 2017-02-08 21:29:33.251855+01 | 1486585773.25185 | pgbench_branches_pkey |            16384
 2017-02-08 21:29:33.251855+01 | 1486585773.25185 | pgbench_tellers_pkey  |            32768
 2017-02-08 21:29:33.251855+01 | 1486585773.25185 | pgbench_accounts_pkey |        112336896

 2017-02-08 21:29:34.31856+01 | 1486585774.31856 | pgbench_branches_pkey |            16384
 2017-02-08 21:29:34.31856+01 | 1486585774.31856 | pgbench_tellers_pkey  |            32768
 2017-02-08 21:29:34.31856+01 | 1486585774.31856 | pgbench_accounts_pkey |        112336896

 2017-02-08 21:29:35.383511+01 | 1486585775.38351 | pgbench_branches_pkey |            16384
 2017-02-08 21:29:35.383511+01 | 1486585775.38351 | pgbench_tellers_pkey  |            32768
 2017-02-08 21:29:35.383511+01 | 1486585775.38351 | pgbench_accounts_pkey |        112336896

 2017-02-08 21:29:36.442114+01 | 1486585776.44211 | pgbench_branches_pkey |            16384
 2017-02-08 21:29:36.442114+01 | 1486585776.44211 | pgbench_tellers_pkey  |            32768
 2017-02-08 21:29:36.442114+01 | 1486585776.44211 | pgbench_accounts_pkey |        112336896

 2017-02-08 21:29:37.504974+01 | 1486585777.50497 | pgbench_branches_pkey |            16384
 2017-02-08 21:29:37.504974+01 | 1486585777.50497 | pgbench_tellers_pkey  |            32768
 2017-02-08 21:29:37.504974+01 | 1486585777.50497 | pgbench_accounts_pkey |        112336896

 2017-02-08 21:29:38.57641+01 | 1486585778.57641 | pgbench_branches_pkey |            16384
 2017-02-08 21:29:38.57641+01 | 1486585778.57641 | pgbench_tellers_pkey  |            32768
 2017-02-08 21:29:38.57641+01 | 1486585778.57641 | pgbench_accounts_pkey |        112336896

 2017-02-08 21:29:39.635044+01 | 1486585779.63504 | pgbench_branches_pkey |            16384
 2017-02-08 21:29:39.635044+01 | 1486585779.63504 | pgbench_tellers_pkey  |            32768
 2017-02-08 21:29:39.635044+01 | 1486585779.63504 | pgbench_accounts_pkey |        112336896

 2017-02-08 21:29:40.689196+01 | 1486585780.6892 | pgbench_branches_pkey |            16384
 2017-02-08 21:29:40.689196+01 | 1486585780.6892 | pgbench_tellers_pkey  |            32768
 2017-02-08 21:29:40.689196+01 | 1486585780.6892 | pgbench_accounts_pkey |        112336896

 2017-02-08 21:29:41.746206+01 | 1486585781.74621 | pgbench_branches_pkey |            16384
 2017-02-08 21:29:41.746206+01 | 1486585781.74621 | pgbench_tellers_pkey  |            32768
 2017-02-08 21:29:41.746206+01 | 1486585781.74621 | pgbench_accounts_pkey |        112336896

 2017-02-08 21:29:42.810792+01 | 1486585782.81079 | pgbench_branches_pkey |            16384
 2017-02-08 21:29:42.810792+01 | 1486585782.81079 | pgbench_tellers_pkey  |            32768
 2017-02-08 21:29:42.810792+01 | 1486585782.81079 | pgbench_accounts_pkey |        112336896

 2017-02-08 21:29:43.869621+01 | 1486585783.86962 | pgbench_branches_pkey |            16384
 2017-02-08 21:29:43.869621+01 | 1486585783.86962 | pgbench_tellers_pkey  |            32768
 2017-02-08 21:29:43.869621+01 | 1486585783.86962 | pgbench_accounts_pkey |        112336896

 2017-02-08 21:29:44.921128+01 | 1486585784.92113 | pgbench_branches_pkey |            16384
 2017-02-08 21:29:44.921128+01 | 1486585784.92113 | pgbench_tellers_pkey  |            32768
 2017-02-08 21:29:44.921128+01 | 1486585784.92113 | pgbench_accounts_pkey |        112336896

 2017-02-08 21:29:45.977318+01 | 1486585785.97732 | pgbench_branches_pkey |            16384
 2017-02-08 21:29:45.977318+01 | 1486585785.97732 | pgbench_tellers_pkey  |            32768
 2017-02-08 21:29:45.977318+01 | 1486585785.97732 | pgbench_accounts_pkey |        112336896

 2017-02-08 21:29:47.036052+01 | 1486585787.03605 | pgbench_branches_pkey |            16384
 2017-02-08 21:29:47.036052+01 | 1486585787.03605 | pgbench_tellers_pkey  |            32768
 2017-02-08 21:29:47.036052+01 | 1486585787.03605 | pgbench_accounts_pkey |        112336896

 2017-02-08 21:29:48.089125+01 | 1486585788.08912 | pgbench_branches_pkey |            16384
 2017-02-08 21:29:48.089125+01 | 1486585788.08912 | pgbench_tellers_pkey  |            32768
 2017-02-08 21:29:48.089125+01 | 1486585788.08912 | pgbench_accounts_pkey |        112336896

 2017-02-08 21:29:49.148409+01 | 1486585789.14841 | pgbench_branches_pkey |            16384
 2017-02-08 21:29:49.148409+01 | 1486585789.14841 | pgbench_tellers_pkey  |            32768
 2017-02-08 21:29:49.148409+01 | 1486585789.14841 | pgbench_accounts_pkey |        112336896

 2017-02-08 21:29:50.206421+01 | 1486585790.20642 | pgbench_branches_pkey |            16384
 2017-02-08 21:29:50.206421+01 | 1486585790.20642 | pgbench_tellers_pkey  |            32768
 2017-02-08 21:29:50.206421+01 | 1486585790.20642 | pgbench_accounts_pkey |        112336896

 2017-02-08 21:29:51.26735+01 | 1486585791.26735 | pgbench_branches_pkey |            16384
 2017-02-08 21:29:51.26735+01 | 1486585791.26735 | pgbench_tellers_pkey  |            32768
 2017-02-08 21:29:51.26735+01 | 1486585791.26735 | pgbench_accounts_pkey |        112336896

 2017-02-08 21:29:52.324387+01 | 1486585792.32439 | pgbench_branches_pkey |            16384
 2017-02-08 21:29:52.324387+01 | 1486585792.32439 | pgbench_tellers_pkey  |            32768
 2017-02-08 21:29:52.324387+01 | 1486585792.32439 | pgbench_accounts_pkey |        112336896

 2017-02-08 21:29:53.386597+01 | 1486585793.3866 | pgbench_branches_pkey |            16384
 2017-02-08 21:29:53.386597+01 | 1486585793.3866 | pgbench_tellers_pkey  |            32768
 2017-02-08 21:29:53.386597+01 | 1486585793.3866 | pgbench_accounts_pkey |        112336896

 2017-02-08 21:29:54.443438+01 | 1486585794.44344 | pgbench_branches_pkey |            16384
 2017-02-08 21:29:54.443438+01 | 1486585794.44344 | pgbench_tellers_pkey  |            32768
 2017-02-08 21:29:54.443438+01 | 1486585794.44344 | pgbench_accounts_pkey |        112336896

 2017-02-08 21:29:55.502515+01 | 1486585795.50252 | pgbench_branches_pkey |            16384
 2017-02-08 21:29:55.502515+01 | 1486585795.50252 | pgbench_tellers_pkey  |            32768
 2017-02-08 21:29:55.502515+01 | 1486585795.50252 | pgbench_accounts_pkey |        112336896

 2017-02-08 21:29:56.561296+01 | 1486585796.5613 | pgbench_branches_pkey |            16384
 2017-02-08 21:29:56.561296+01 | 1486585796.5613 | pgbench_tellers_pkey  |            32768
 2017-02-08 21:29:56.561296+01 | 1486585796.5613 | pgbench_accounts_pkey |        112336896

 2017-02-08 21:29:57.633399+01 | 1486585797.6334 | pgbench_branches_pkey |            16384
 2017-02-08 21:29:57.633399+01 | 1486585797.6334 | pgbench_tellers_pkey  |            32768
 2017-02-08 21:29:57.633399+01 | 1486585797.6334 | pgbench_accounts_pkey |        112336896

 2017-02-08 21:29:58.693853+01 | 1486585798.69385 | pgbench_branches_pkey |            16384
 2017-02-08 21:29:58.693853+01 | 1486585798.69385 | pgbench_tellers_pkey  |            32768
 2017-02-08 21:29:58.693853+01 | 1486585798.69385 | pgbench_accounts_pkey |        112336896

 2017-02-08 21:29:59.748472+01 | 1486585799.74847 | pgbench_branches_pkey |            16384
 2017-02-08 21:29:59.748472+01 | 1486585799.74847 | pgbench_tellers_pkey  |            32768
 2017-02-08 21:29:59.748472+01 | 1486585799.74847 | pgbench_accounts_pkey |        112336896

 2017-02-08 21:30:00.8028+01 | 1486585800.8028 | pgbench_branches_pkey |            16384
 2017-02-08 21:30:00.8028+01 | 1486585800.8028 | pgbench_tellers_pkey  |            32768
 2017-02-08 21:30:00.8028+01 | 1486585800.8028 | pgbench_accounts_pkey |        112336896

 2017-02-08 21:30:01.855988+01 | 1486585801.85599 | pgbench_branches_pkey |            16384
 2017-02-08 21:30:01.855988+01 | 1486585801.85599 | pgbench_tellers_pkey  |            32768
 2017-02-08 21:30:01.855988+01 | 1486585801.85599 | pgbench_accounts_pkey |        112336896

 2017-02-08 21:30:02.923111+01 | 1486585802.92311 | pgbench_branches_pkey |            16384
 2017-02-08 21:30:02.923111+01 | 1486585802.92311 | pgbench_tellers_pkey  |            32768
 2017-02-08 21:30:02.923111+01 | 1486585802.92311 | pgbench_accounts_pkey |        112336896

 2017-02-08 21:30:03.974748+01 | 1486585803.97475 | pgbench_branches_pkey |            16384
 2017-02-08 21:30:03.974748+01 | 1486585803.97475 | pgbench_tellers_pkey  |            32768
 2017-02-08 21:30:03.974748+01 | 1486585803.97475 | pgbench_accounts_pkey |        112336896

 2017-02-08 21:30:05.032633+01 | 1486585805.03263 | pgbench_branches_pkey |            16384
 2017-02-08 21:30:05.032633+01 | 1486585805.03263 | pgbench_tellers_pkey  |            32768
 2017-02-08 21:30:05.032633+01 | 1486585805.03263 | pgbench_accounts_pkey |        112336896

