 2017-02-08 21:25:05.857676+01 | 1486585505.85768 | 1/4B968000               |            5563121664

 2017-02-08 21:25:06.902247+01 | 1486585506.90225 | 1/4F689EE0               |            5627223776

 2017-02-08 21:25:07.958661+01 | 1486585507.95866 | 1/528F8A88               |            5680106120

 2017-02-08 21:25:09.01578+01 | 1486585509.01578 | 1/5533C000               |            5724422144

 2017-02-08 21:25:10.070736+01 | 1486585510.07074 | 1/5788A9F0               |            5763541488

 2017-02-08 21:25:11.134684+01 | 1486585511.13468 | 1/59A35990               |            5798844816

 2017-02-08 21:25:12.19323+01 | 1486585512.19323 | 1/5B89A000               |            5830717336

 2017-02-08 21:25:13.266034+01 | 1486585513.26603 | 1/5D512000               |            5860564992

 2017-02-08 21:25:14.324986+01 | 1486585514.32499 | 1/5EFBF968               |            5888538984

 2017-02-08 21:25:15.387583+01 | 1486585515.38758 | 1/607D9FB0               |            5913812912

 2017-02-08 21:25:16.453794+01 | 1486585516.45379 | 1/61F1F2F0               |            5938213616

 2017-02-08 21:25:17.51367+01 | 1486585517.51367 | 1/63569B88               |            5961587592

 2017-02-08 21:25:18.579075+01 | 1486585518.57908 | 1/6499F888               |            5982779528

 2017-02-08 21:25:19.633117+01 | 1486585519.63312 | 1/65C20F00               |            6002183936

 2017-02-08 21:25:20.690496+01 | 1486585520.6905 | 1/66DC9850               |            6020700240

 2017-02-08 21:25:21.748846+01 | 1486585521.74885 | 1/67E38838               |            6037932088

 2017-02-08 21:25:22.805182+01 | 1486585522.80518 | 1/68E426F8               |            6054749944

 2017-02-08 21:25:23.860983+01 | 1486585523.86098 | 1/69D6D990               |            6070655376

 2017-02-08 21:25:24.908105+01 | 1486585524.9081 | 1/6AB99878               |            6085515384

 2017-02-08 21:25:25.963809+01 | 1486585525.96381 | 1/6B8D50D8               |            6099390680

 2017-02-08 21:25:27.019171+01 | 1486585527.01917 | 1/6C569C60               |            6112582752

 2017-02-08 21:25:28.084438+01 | 1486585528.08444 | 1/6D1976F8               |            6125352696

 2017-02-08 21:25:29.155554+01 | 1486585529.15555 | 1/6DCEC460               |            6137234528

 2017-02-08 21:25:30.2138+01 | 1486585530.2138 | 1/6E8ACFB8               |            6149558200

 2017-02-08 21:25:31.270622+01 | 1486585531.27062 | 1/7065BDC8               |            6180683208

 2017-02-08 21:25:32.33595+01 | 1486585532.33595 | 1/729332B8               |            6217216696

 2017-02-08 21:25:33.397567+01 | 1486585533.39757 | 1/741EA370               |            6243132272

 2017-02-08 21:25:34.454537+01 | 1486585534.45454 | 1/75707578               |            6265271672

 2017-02-08 21:25:35.511076+01 | 1486585535.51108 | 1/76ACE988               |            6286010760

 2017-02-08 21:25:36.573642+01 | 1486585536.57364 | 1/77D32000               |            6305292288

 2017-02-08 21:25:37.63319+01 | 1486585537.63319 | 1/78E16200               |            6323003904

 2017-02-08 21:25:38.691823+01 | 1486585538.69182 | 1/79AE2888               |            6336424072

 2017-02-08 21:25:39.749684+01 | 1486585539.74968 | 1/79E3F440               |            6339949632

 2017-02-08 21:25:40.810368+01 | 1486585540.81037 | 1/7A1C2108               |            6343631112

 2017-02-08 21:25:41.865025+01 | 1486585541.86503 | 1/7A491368               |            6346576744

 2017-02-08 21:25:42.924127+01 | 1486585542.92413 | 1/7A7CC430               |            6349964336

 2017-02-08 21:25:43.981125+01 | 1486585543.98113 | 1/7AA8DE80               |            6352854656

 2017-02-08 21:25:45.038442+01 | 1486585545.03844 | 1/7AD257D8               |            6355572696

 2017-02-08 21:25:46.090614+01 | 1486585546.09061 | 1/7AFE1DA0               |            6358441376

 2017-02-08 21:25:47.161376+01 | 1486585547.16138 | 1/7B26A780               |            6361098112

 2017-02-08 21:25:48.224254+01 | 1486585548.22425 | 1/7B4DC560               |            6363661664

 2017-02-08 21:25:49.28639+01 | 1486585549.28639 | 1/7B722608               |            6366045704

 2017-02-08 21:25:50.345785+01 | 1486585550.34578 | 1/7B9683D0               |            6368429008

 2017-02-08 21:25:51.400762+01 | 1486585551.40076 | 1/7BB638A0               |            6370506912

 2017-02-08 21:25:52.461668+01 | 1486585552.46167 | 1/7BD70660               |            6372656736

 2017-02-08 21:25:53.518482+01 | 1486585553.51848 | 1/7BF702A8               |            6374752936

 2017-02-08 21:25:54.578668+01 | 1486585554.57867 | 1/7C1885A8               |            6376949160

 2017-02-08 21:25:55.640046+01 | 1486585555.64005 | 1/7C38BCA0               |            6379060384

 2017-02-08 21:25:56.707162+01 | 1486585556.70716 | 1/7C572880               |            6381054080

 2017-02-08 21:25:57.762862+01 | 1486585557.76286 | 1/7C72C320               |            6382863136

 2017-02-08 21:25:58.828127+01 | 1486585558.82813 | 1/7C8D6648               |            6384608840

 2017-02-08 21:25:59.88788+01 | 1486585559.88788 | 1/7CA71938               |            6386293048

 2017-02-08 21:26:00.966545+01 | 1486585560.96655 | 1/7CC21C80               |            6388063360

 2017-02-08 21:26:02.022774+01 | 1486585562.02277 | 1/7CDBA260               |            6389736032

 2017-02-08 21:26:03.086481+01 | 1486585563.08648 | 1/7CF39438               |            6391305272

 2017-02-08 21:26:04.14471+01 | 1486585564.14471 | 1/7D0E5B70               |            6393060208

 2017-02-08 21:26:05.213114+01 | 1486585565.21311 | 1/7D2711F8               |            6394679800

 2017-02-08 21:26:06.270456+01 | 1486585566.27046 | 1/7D3D4AD8               |            6396136152

 2017-02-08 21:26:07.337808+01 | 1486585567.33781 | 1/7D5431F0               |            6397637104

 2017-02-08 21:26:08.396377+01 | 1486585568.39638 | 1/7D68E230               |            6398992944

 2017-02-08 21:26:09.466584+01 | 1486585569.46658 | 1/7D7F3998               |            6400457112

 2017-02-08 21:26:10.532404+01 | 1486585570.5324 | 1/7D9471C8               |            6401847752

 2017-02-08 21:26:11.5957+01 | 1486585571.5957 | 1/7DAA45F8               |            6403278328

 2017-02-08 21:26:12.663562+01 | 1486585572.66356 | 1/7DBF3DD8               |            6404652504

 2017-02-08 21:26:13.732672+01 | 1486585573.73267 | 1/7DD40870               |            6406015088

 2017-02-08 21:26:14.807187+01 | 1486585574.80719 | 1/7DE899A8               |            6407362984

 2017-02-08 21:26:15.868474+01 | 1486585575.86847 | 1/7DFDD688               |            6408754824

 2017-02-08 21:26:16.928601+01 | 1486585576.9286 | 1/7E112520               |            6410020128

 2017-02-08 21:26:17.990012+01 | 1486585577.99001 | 1/7E254548               |            6411339080

 2017-02-08 21:26:19.050357+01 | 1486585579.05036 | 1/7E37F670               |            6412564080

 2017-02-08 21:26:20.109373+01 | 1486585580.10937 | 1/7E4A8F68               |            6413782888

 2017-02-08 21:26:21.174389+01 | 1486585581.17439 | 1/7E5C3038               |            6414938168

 2017-02-08 21:26:22.237947+01 | 1486585582.23795 | 1/7E6ED2E8               |            6416159464

 2017-02-08 21:26:23.295598+01 | 1486585583.2956 | 1/7E8079A8               |            6417316264

 2017-02-08 21:26:24.350711+01 | 1486585584.35071 | 1/7E9292A0               |            6418502304

 2017-02-08 21:26:25.404211+01 | 1486585585.40421 | 1/7EA42750               |            6419654480

 2017-02-08 21:26:26.457972+01 | 1486585586.45797 | 1/7EB67FD8               |            6420856792

 2017-02-08 21:26:27.516753+01 | 1486585587.51675 | 1/7EC80A98               |            6422006424

 2017-02-08 21:26:28.584644+01 | 1486585588.58464 | 1/7EDA94C8               |            6423221448

 2017-02-08 21:26:29.642301+01 | 1486585589.6423 | 1/7EECAB48               |            6424406856

 2017-02-08 21:26:30.699311+01 | 1486585590.69931 | 1/7EFDA6C8               |            6425519816

 2017-02-08 21:26:31.770159+01 | 1486585591.77016 | 1/7F0FC1C0               |            6426706368

 2017-02-08 21:26:32.822975+01 | 1486585592.82297 | 1/7F213618               |            6427850264

 2017-02-08 21:26:33.891804+01 | 1486585593.8918 | 1/7F328BD0               |            6428986320

 2017-02-08 21:26:34.947886+01 | 1486585594.94789 | 1/7F438600               |            6430098944

 2017-02-08 21:26:36.006865+01 | 1486585596.00687 | 1/7F542688               |            6431188616

 2017-02-08 21:26:37.066846+01 | 1486585597.06685 | 1/7F649820               |            6432266272

 2017-02-08 21:26:38.123725+01 | 1486585598.12372 | 1/7F758CD8               |            6433377496

 2017-02-08 21:26:39.183521+01 | 1486585599.18352 | 1/7F8636F0               |            6434469616

 2017-02-08 21:26:40.248135+01 | 1486585600.24814 | 1/7F968D88               |            6435540360

 2017-02-08 21:26:41.298243+01 | 1486585601.29824 | 1/7FA76ED8               |            6436646616

 2017-02-08 21:26:42.363478+01 | 1486585602.36348 | 1/7FB72598               |            6437676440

 2017-02-08 21:26:43.420076+01 | 1486585603.42008 | 1/7FC71058               |            6438719576

 2017-02-08 21:26:44.482572+01 | 1486585604.48257 | 1/7FD7FE20               |            6439829024

 2017-02-08 21:26:45.540882+01 | 1486585605.54088 | 1/7FE7C000               |            6440861696

 2017-02-08 21:26:46.600189+01 | 1486585606.60019 | 1/7FF7EC20               |            6441921568

 2017-02-08 21:26:47.665612+01 | 1486585607.66561 | 1/80081038               |            6442979384

 2017-02-08 21:26:48.729774+01 | 1486585608.72977 | 1/80188638               |            6444058464

 2017-02-08 21:26:49.794566+01 | 1486585609.79457 | 1/8028C668               |            6445123176

 2017-02-08 21:26:50.864446+01 | 1486585610.86445 | 1/80399528               |            6446224680

 2017-02-08 21:26:51.921311+01 | 1486585611.92131 | 1/8049B560               |            6447281504

 2017-02-08 21:26:52.981276+01 | 1486585612.98128 | 1/80597020               |            6448312352

 2017-02-08 21:26:54.040605+01 | 1486585614.04061 | 1/806946B0               |            6449350320

 2017-02-08 21:26:55.09314+01 | 1486585615.09314 | 1/807936A0               |            6450394784

 2017-02-08 21:26:56.148852+01 | 1486585616.14885 | 1/8089B1A8               |            6451474856

 2017-02-08 21:26:57.215709+01 | 1486585617.21571 | 1/80999460               |            6452515936

 2017-02-08 21:26:58.274278+01 | 1486585618.27428 | 1/80AA2178               |            6453600632

 2017-02-08 21:26:59.331434+01 | 1486585619.33143 | 1/80BA3160               |            6454653280

 2017-02-08 21:27:00.396738+01 | 1486585620.39674 | 1/80CA4F68               |            6455709544

 2017-02-08 21:27:01.463926+01 | 1486585621.46393 | 1/80DA3348               |            6456750920

 2017-02-08 21:27:02.523896+01 | 1486585622.5239 | 1/80EAA208               |            6457827848

 2017-02-08 21:27:03.596926+01 | 1486585623.59693 | 1/80FA9398               |            6458872728

 2017-02-08 21:27:04.658555+01 | 1486585624.65856 | 1/810A5FD0               |            6459908048

 2017-02-08 21:27:05.716755+01 | 1486585625.71675 | 1/8119E900               |            6460926208

 2017-02-08 21:27:06.789618+01 | 1486585626.78962 | 1/812A0238               |            6461981240

 2017-02-08 21:27:07.853908+01 | 1486585627.85391 | 1/813A6EC0               |            6463057600

 2017-02-08 21:27:08.911775+01 | 1486585628.91178 | 1/814A58C0               |            6464100544

 2017-02-08 21:27:09.974394+01 | 1486585629.97439 | 1/815A42E0               |            6465143520

 2017-02-08 21:27:11.029315+01 | 1486585631.02931 | 1/816A6100               |            6466199808

 2017-02-08 21:27:12.084102+01 | 1486585632.0841 | 1/817A21C0               |            6467232192

 2017-02-08 21:27:13.144353+01 | 1486585633.14435 | 1/8189DD48               |            6468263240

 2017-02-08 21:27:14.202738+01 | 1486585634.20274 | 1/8199B418               |            6469301272

 2017-02-08 21:27:15.265117+01 | 1486585635.26512 | 1/81A94E28               |            6470323752

 2017-02-08 21:27:16.330369+01 | 1486585636.33037 | 1/81B933F8               |            6471365624

 2017-02-08 21:27:17.387293+01 | 1486585637.38729 | 1/81C92C38               |            6472412216

 2017-02-08 21:27:18.445373+01 | 1486585638.44537 | 1/81D8FA70               |            6473448048

 2017-02-08 21:27:19.519111+01 | 1486585639.51911 | 1/81E913F8               |            6474503160

 2017-02-08 21:27:20.580008+01 | 1486585640.58001 | 1/81F89C10               |            6475521040

 2017-02-08 21:27:21.640237+01 | 1486585641.64024 | 1/82081D28               |            6476537128

 2017-02-08 21:27:22.69923+01 | 1486585642.69923 | 1/8217C8B8               |            6477564088

 2017-02-08 21:27:23.754991+01 | 1486585643.75499 | 1/82277498               |            6478591128

 2017-02-08 21:27:24.823019+01 | 1486585644.82302 | 1/82373068               |            6479622248

 2017-02-08 21:27:25.889471+01 | 1486585645.88947 | 1/8247BC38               |            6480706616

 2017-02-08 21:27:26.946361+01 | 1486585646.94636 | 1/82577330               |            6481736496

 2017-02-08 21:27:27.99959+01 | 1486585647.99959 | 1/8266CBE0               |            6482742240

 2017-02-08 21:27:29.059721+01 | 1486585649.05972 | 1/827721D0               |            6483812816

 2017-02-08 21:27:30.128952+01 | 1486585650.12895 | 1/8286EA90               |            6484847248

 2017-02-08 21:27:31.189591+01 | 1486585651.18959 | 1/8295FE58               |            6485835352

 2017-02-08 21:27:32.260577+01 | 1486585652.26058 | 1/82A6A098               |            6486925464

 2017-02-08 21:27:33.321229+01 | 1486585653.32123 | 1/82B6ADB8               |            6487977400

 2017-02-08 21:27:34.382077+01 | 1486585654.38208 | 1/82C68AC0               |            6489017024

 2017-02-08 21:27:35.444278+01 | 1486585655.44428 | 1/82D62048               |            6490038344

 2017-02-08 21:27:36.498273+01 | 1486585656.49827 | 1/82E5FA28               |            6491077160

 2017-02-08 21:27:37.56+01 | 1486585657.56 | 1/82F60610               |            6492128784

 2017-02-08 21:27:38.613081+01 | 1486585658.61308 | 1/83063478               |            6493189240

 2017-02-08 21:27:39.674049+01 | 1486585659.67405 | 1/8315AA90               |            6494202512

 2017-02-08 21:27:40.732072+01 | 1486585660.73207 | 1/83256398               |            6495232920

 2017-02-08 21:27:41.802452+01 | 1486585661.80245 | 1/83353338               |            6496269112

 2017-02-08 21:27:42.870016+01 | 1486585662.87002 | 1/8344D390               |            6497293200

 2017-02-08 21:27:43.930618+01 | 1486585663.93062 | 1/83546168               |            6498312552

 2017-02-08 21:27:44.99056+01 | 1486585664.99056 | 1/836425E8               |            6499345896

 2017-02-08 21:27:46.05271+01 | 1486585666.05271 | 1/8373D990               |            6500374928

 2017-02-08 21:27:47.108285+01 | 1486585667.10828 | 1/83834160               |            6501384544

 2017-02-08 21:27:48.170697+01 | 1486585668.1707 | 1/8392F638               |            6502413880

 2017-02-08 21:27:49.228351+01 | 1486585669.22835 | 1/83A207C0               |            6503401408

 2017-02-08 21:27:50.283737+01 | 1486585670.28374 | 1/83B1C358               |            6504432472

 2017-02-08 21:27:51.342346+01 | 1486585671.34235 | 1/83C20BF0               |            6505499632

 2017-02-08 21:27:52.400497+01 | 1486585672.4005 | 1/83D23B90               |            6506560400

 2017-02-08 21:27:53.458584+01 | 1486585673.45858 | 1/83E1D250               |            6507582032

 2017-02-08 21:27:54.524067+01 | 1486585674.52407 | 1/83F1EF18               |            6508637976

 2017-02-08 21:27:55.580574+01 | 1486585675.58057 | 1/840146E0               |            6509643488

 2017-02-08 21:27:56.635608+01 | 1486585676.63561 | 1/841144E0               |            6510691552

 2017-02-08 21:27:57.69301+01 | 1486585677.69301 | 1/84217B90               |            6511754128

 2017-02-08 21:27:58.758425+01 | 1486585678.75842 | 1/843146A0               |            6512789152

 2017-02-08 21:27:59.816452+01 | 1486585679.81645 | 1/844136F8               |            6513833720

 2017-02-08 21:28:00.881185+01 | 1486585680.88119 | 1/84515CD0               |            6514891984

 2017-02-08 21:28:01.938081+01 | 1486585681.93808 | 1/846170E8               |            6515945704

 2017-02-08 21:28:02.991093+01 | 1486585682.99109 | 1/84717450               |            6516995152

 2017-02-08 21:28:04.06348+01 | 1486585684.06348 | 1/84818C68               |            6518049896

 2017-02-08 21:28:05.12457+01 | 1486585685.12457 | 1/84914D90               |            6519082384

 2017-02-08 21:28:06.186931+01 | 1486585686.18693 | 1/84A15900               |            6520133888

 2017-02-08 21:28:07.243045+01 | 1486585687.24305 | 1/84B150F8               |            6521180408

 2017-02-08 21:28:08.305287+01 | 1486585688.30529 | 1/84C0D5E8               |            6522197480

 2017-02-08 21:28:09.368515+01 | 1486585689.36852 | 1/84D0AA00               |            6523234816

 2017-02-08 21:28:10.423511+01 | 1486585690.42351 | 1/84E0B350               |            6524285776

 2017-02-08 21:28:11.480429+01 | 1486585691.48043 | 1/84F025E0               |            6525298144

 2017-02-08 21:28:12.547298+01 | 1486585692.5473 | 1/84FFF228               |            6526333480

 2017-02-08 21:28:13.601004+01 | 1486585693.601 | 1/850F2F70               |            6527332208

 2017-02-08 21:28:14.658397+01 | 1486585694.6584 | 1/851E9C78               |            6528343160

 2017-02-08 21:28:15.717784+01 | 1486585695.71778 | 1/852EE740               |            6529410880

 2017-02-08 21:28:16.777748+01 | 1486585696.77775 | 1/853EB9F0               |            6530447856

 2017-02-08 21:28:17.840369+01 | 1486585697.84037 | 1/854E3A50               |            6531463760

 2017-02-08 21:28:18.905959+01 | 1486585698.90596 | 1/855E1778               |            6532503416

 2017-02-08 21:28:19.972926+01 | 1486585699.97293 | 1/856DA430               |            6533522480

 2017-02-08 21:28:21.033291+01 | 1486585701.03329 | 1/857D49A8               |            6534547880

 2017-02-08 21:28:22.090117+01 | 1486585702.09012 | 1/858CDA08               |            6535567880

 2017-02-08 21:28:23.149774+01 | 1486585703.14977 | 1/859D3CD0               |            6536641744

 2017-02-08 21:28:24.208904+01 | 1486585704.2089 | 1/85AD34D8               |            6537688280

 2017-02-08 21:28:25.250166+01 | 1486585705.25017 | 1/85BCC618               |            6538708504

 2017-02-08 21:28:26.318513+01 | 1486585706.31851 | 1/85CC7130               |            6539735344

 2017-02-08 21:28:27.37341+01 | 1486585707.37341 | 1/85DC10B8               |            6540759224

 2017-02-08 21:28:28.428555+01 | 1486585708.42856 | 1/85EB6E08               |            6541766152

 2017-02-08 21:28:29.482857+01 | 1486585709.48286 | 1/85FB3290               |            6542799504

 2017-02-08 21:28:30.544009+01 | 1486585710.54401 | 1/860B8130               |            6543868208

 2017-02-08 21:28:31.600979+01 | 1486585711.60098 | 1/861B65F8               |            6544909816

 2017-02-08 21:28:32.669277+01 | 1486585712.66928 | 1/862B3FA8               |            6545948584

 2017-02-08 21:28:33.723855+01 | 1486585713.72386 | 1/863AD640               |            6546970176

 2017-02-08 21:28:34.782986+01 | 1486585714.78299 | 1/864A3888               |            6547978376

 2017-02-08 21:28:35.851783+01 | 1486585715.85178 | 1/865A58A0               |            6549035168

 2017-02-08 21:28:36.914966+01 | 1486585716.91497 | 1/866A8C38               |            6550096952

 2017-02-08 21:28:37.971655+01 | 1486585717.97165 | 1/8679FCB0               |            6551108784

 2017-02-08 21:28:39.032837+01 | 1486585719.03284 | 1/868A2498               |            6552167576

 2017-02-08 21:28:40.089442+01 | 1486585720.08944 | 1/86999968               |            6553180520

 2017-02-08 21:28:41.147773+01 | 1486585721.14777 | 1/86A8C400               |            6554174464

 2017-02-08 21:28:42.210975+01 | 1486585722.21097 | 1/86B91AF0               |            6555245296

 2017-02-08 21:28:43.275072+01 | 1486585723.27507 | 1/86C933D0               |            6556300240

 2017-02-08 21:28:44.333136+01 | 1486585724.33314 | 1/86D8DFD8               |            6557327320

 2017-02-08 21:28:45.390979+01 | 1486585725.39098 | 1/86E89F78               |            6558359416

 2017-02-08 21:28:46.4596+01 | 1486585726.4596 | 1/86F85D10               |            6559390992

 2017-02-08 21:28:47.521612+01 | 1486585727.52161 | 1/8707C148               |            6560399688

 2017-02-08 21:28:48.588188+01 | 1486585728.58819 | 1/8717BFE8               |            6561447912

 2017-02-08 21:28:49.66105+01 | 1486585729.66105 | 1/8727F0E0               |            6562509024

 2017-02-08 21:28:50.71779+01 | 1486585730.71779 | 1/87379950               |            6563535184

 2017-02-08 21:28:51.772196+01 | 1486585731.7722 | 1/87476AF0               |            6564571888

 2017-02-08 21:28:52.831374+01 | 1486585732.83137 | 1/87572370               |            6565602160

 2017-02-08 21:28:53.889896+01 | 1486585733.8899 | 1/87668470               |            6566610032

 2017-02-08 21:28:54.94623+01 | 1486585734.94623 | 1/877610B8               |            6567628984

 2017-02-08 21:28:56.003382+01 | 1486585736.00338 | 1/87858FE8               |            6568644584

 2017-02-08 21:28:57.058898+01 | 1486585737.0589 | 1/87957C30               |            6569688112

 2017-02-08 21:28:58.112857+01 | 1486585738.11286 | 1/87A4DD38               |            6570695992

 2017-02-08 21:28:59.176198+01 | 1486585739.1762 | 1/87B4BDD0               |            6571736528

 2017-02-08 21:29:00.244128+01 | 1486585740.24413 | 1/87C460B0               |            6572761264

 2017-02-08 21:29:01.317794+01 | 1486585741.31779 | 1/87D3CB38               |            6573771576

 2017-02-08 21:29:02.380528+01 | 1486585742.38053 | 1/87E39408               |            6574806024

 2017-02-08 21:29:03.436468+01 | 1486585743.43647 | 1/87F39A70               |            6575856240

 2017-02-08 21:29:04.495534+01 | 1486585744.49553 | 1/88035B68               |            6576888680

 2017-02-08 21:29:05.555443+01 | 1486585745.55544 | 1/881344F0               |            6577931504

 2017-02-08 21:29:06.616678+01 | 1486585746.61668 | 1/8822B320               |            6578942752

 2017-02-08 21:29:07.675313+01 | 1486585747.67531 | 1/88320D40               |            6579948864

 2017-02-08 21:29:08.735044+01 | 1486585748.73504 | 1/88417C60               |            6580960352

 2017-02-08 21:29:09.792436+01 | 1486585749.79244 | 1/88514670               |            6581995120

 2017-02-08 21:29:10.85471+01 | 1486585750.85471 | 1/8860EFD8               |            6583021528

 2017-02-08 21:29:11.916589+01 | 1486585751.91659 | 1/88707BB0               |            6584040368

 2017-02-08 21:29:12.987503+01 | 1486585752.9875 | 1/88805468               |            6585078888

 2017-02-08 21:29:14.047489+01 | 1486585754.04749 | 1/888F8DF8               |            6586076664

 2017-02-08 21:29:15.104433+01 | 1486585755.10443 | 1/889F8480               |            6587122816

 2017-02-08 21:29:16.156476+01 | 1486585756.15648 | 1/88AEDF80               |            6588129152

 2017-02-08 21:29:17.214782+01 | 1486585757.21478 | 1/88BF0480               |            6589187200

 2017-02-08 21:29:18.273361+01 | 1486585758.27336 | 1/88CEE158               |            6590226776

 2017-02-08 21:29:19.346164+01 | 1486585759.34616 | 1/88DF5518               |            6591304984

 2017-02-08 21:29:20.409176+01 | 1486585760.40918 | 1/88EFD988               |            6592387464

 2017-02-08 21:29:21.475159+01 | 1486585761.47516 | 1/89018D78               |            6593547640

 2017-02-08 21:29:22.536682+01 | 1486585762.53668 | 1/89128A18               |            6594660888

 2017-02-08 21:29:23.598511+01 | 1486585763.59851 | 1/89230318               |            6595740440

 2017-02-08 21:29:24.650121+01 | 1486585764.65012 | 1/8939C210               |            6597231120

 2017-02-08 21:29:25.714671+01 | 1486585765.71467 | 1/8950FF70               |            6598754160

 2017-02-08 21:29:26.787446+01 | 1486585766.78745 | 1/89727E20               |            6600949280

 2017-02-08 21:29:27.895409+01 | 1486585767.89541 | 1/899B9A78               |            6603643512

 2017-02-08 21:29:28.967081+01 | 1486585768.96708 | 1/89D051C0               |            6607098304

 2017-02-08 21:29:30.026481+01 | 1486585770.02648 | 1/8A023F60               |            6610370400

 2017-02-08 21:29:31.085733+01 | 1486585771.08573 | 1/8A1297C8               |            6611441608

 2017-02-08 21:29:32.15507+01 | 1486585772.15507 | 1/8A23FD30               |            6612581680

 2017-02-08 21:29:33.212025+01 | 1486585773.21202 | 1/8A344120               |            6613647648

 2017-02-08 21:29:34.266499+01 | 1486585774.2665 | 1/8A443050               |            6614691920

 2017-02-08 21:29:35.333837+01 | 1486585775.33384 | 1/8A547078               |            6615756920

 2017-02-08 21:29:36.404082+01 | 1486585776.40408 | 1/8A6468D0               |            6616803536

 2017-02-08 21:29:37.457515+01 | 1486585777.45752 | 1/8A749090               |            6617862288

 2017-02-08 21:29:38.524032+01 | 1486585778.52403 | 1/8A849EF0               |            6618914544

 2017-02-08 21:29:39.590877+01 | 1486585779.59088 | 1/8A943700               |            6619936512

 2017-02-08 21:29:40.649916+01 | 1486585780.64992 | 1/8AA40398               |            6620971928

 2017-02-08 21:29:41.702943+01 | 1486585781.70294 | 1/8AB34B90               |            6621973392

 2017-02-08 21:29:42.762308+01 | 1486585782.76231 | 1/8AC2B5A8               |            6622983592

 2017-02-08 21:29:43.82694+01 | 1486585783.82694 | 1/8AD2D300               |            6624039680

 2017-02-08 21:29:44.882881+01 | 1486585784.88288 | 1/8AE2F7D8               |            6625097688

 2017-02-08 21:29:45.938017+01 | 1486585785.93802 | 1/8AF24E90               |            6626102928

 2017-02-08 21:29:46.99109+01 | 1486585786.99109 | 1/8B023D60               |            6627147104

 2017-02-08 21:29:48.050517+01 | 1486585788.05052 | 1/8B120270               |            6628180592

 2017-02-08 21:29:49.104578+01 | 1486585789.10458 | 1/8B228110               |            6629261584

 2017-02-08 21:29:50.16437+01 | 1486585790.16437 | 1/8B329A30               |            6630316592

 2017-02-08 21:29:51.225712+01 | 1486585791.22571 | 1/8B4298C0               |            6631364800

 2017-02-08 21:29:52.280605+01 | 1486585792.28061 | 1/8B521F80               |            6632382336

 2017-02-08 21:29:53.344993+01 | 1486585793.34499 | 1/8B61C380               |            6633407360

 2017-02-08 21:29:54.401174+01 | 1486585794.40117 | 1/8B71EF60               |            6634467168

 2017-02-08 21:29:55.456268+01 | 1486585795.45627 | 1/8B80E180               |            6635446656

 2017-02-08 21:29:56.516785+01 | 1486585796.51678 | 1/8B9058F0               |            6636460272

 2017-02-08 21:29:57.583914+01 | 1486585797.58391 | 1/8BA075C8               |            6637516232

 2017-02-08 21:29:58.648716+01 | 1486585798.64872 | 1/8BB03E90               |            6638550672

 2017-02-08 21:29:59.70964+01 | 1486585799.70964 | 1/8BBFE9B8               |            6639577528

 2017-02-08 21:30:00.761097+01 | 1486585800.7611 | 1/8BCF50F8               |            6640587000

 2017-02-08 21:30:01.815293+01 | 1486585801.81529 | 1/8BDF1D58               |            6641622360

 2017-02-08 21:30:02.883813+01 | 1486585802.88381 | 1/8BEF6888               |            6642690184

 2017-02-08 21:30:03.938687+01 | 1486585803.93869 | 1/8BFF8158               |            6643745112

 2017-02-08 21:30:04.991917+01 | 1486585804.99192 | 1/8C0F31D0               |            6644773328

