 2017-02-08 05:57:23.491788+01 | 1486529843.49179 | pgbench_branches_pkey |            16384
 2017-02-08 05:57:23.491788+01 | 1486529843.49179 | pgbench_tellers_pkey  |            90112
 2017-02-08 05:57:23.491788+01 | 1486529843.49179 | pgbench_accounts_pkey |        673882112

 2017-02-08 05:57:24.691667+01 | 1486529844.69167 | pgbench_branches_pkey |            16384
 2017-02-08 05:57:24.691667+01 | 1486529844.69167 | pgbench_tellers_pkey  |            90112
 2017-02-08 05:57:24.691667+01 | 1486529844.69167 | pgbench_accounts_pkey |        673882112

 2017-02-08 05:57:25.900352+01 | 1486529845.90035 | pgbench_branches_pkey |            16384
 2017-02-08 05:57:25.900352+01 | 1486529845.90035 | pgbench_tellers_pkey  |            90112
 2017-02-08 05:57:25.900352+01 | 1486529845.90035 | pgbench_accounts_pkey |        673882112

 2017-02-08 05:57:27.087647+01 | 1486529847.08765 | pgbench_branches_pkey |            16384
 2017-02-08 05:57:27.087647+01 | 1486529847.08765 | pgbench_tellers_pkey  |            90112
 2017-02-08 05:57:27.087647+01 | 1486529847.08765 | pgbench_accounts_pkey |        673882112

 2017-02-08 05:57:28.359027+01 | 1486529848.35903 | pgbench_branches_pkey |            16384
 2017-02-08 05:57:28.359027+01 | 1486529848.35903 | pgbench_tellers_pkey  |            90112
 2017-02-08 05:57:28.359027+01 | 1486529848.35903 | pgbench_accounts_pkey |        673882112

 2017-02-08 05:57:29.588668+01 | 1486529849.58867 | pgbench_branches_pkey |            16384
 2017-02-08 05:57:29.588668+01 | 1486529849.58867 | pgbench_tellers_pkey  |            90112
 2017-02-08 05:57:29.588668+01 | 1486529849.58867 | pgbench_accounts_pkey |        673882112

 2017-02-08 05:57:30.763836+01 | 1486529850.76384 | pgbench_branches_pkey |            16384
 2017-02-08 05:57:30.763836+01 | 1486529850.76384 | pgbench_tellers_pkey  |            90112
 2017-02-08 05:57:30.763836+01 | 1486529850.76384 | pgbench_accounts_pkey |        673882112

 2017-02-08 05:57:31.929916+01 | 1486529851.92992 | pgbench_branches_pkey |            16384
 2017-02-08 05:57:31.929916+01 | 1486529851.92992 | pgbench_tellers_pkey  |            90112
 2017-02-08 05:57:31.929916+01 | 1486529851.92992 | pgbench_accounts_pkey |        673882112

 2017-02-08 05:57:33.156698+01 | 1486529853.1567 | pgbench_branches_pkey |            16384
 2017-02-08 05:57:33.156698+01 | 1486529853.1567 | pgbench_tellers_pkey  |            90112
 2017-02-08 05:57:33.156698+01 | 1486529853.1567 | pgbench_accounts_pkey |        673882112

 2017-02-08 05:57:34.37885+01 | 1486529854.37885 | pgbench_branches_pkey |            16384
 2017-02-08 05:57:34.37885+01 | 1486529854.37885 | pgbench_tellers_pkey  |            90112
 2017-02-08 05:57:34.37885+01 | 1486529854.37885 | pgbench_accounts_pkey |        673882112

 2017-02-08 05:57:35.621246+01 | 1486529855.62125 | pgbench_branches_pkey |            16384
 2017-02-08 05:57:35.621246+01 | 1486529855.62125 | pgbench_tellers_pkey  |            90112
 2017-02-08 05:57:35.621246+01 | 1486529855.62125 | pgbench_accounts_pkey |        673882112

 2017-02-08 05:57:36.860694+01 | 1486529856.86069 | pgbench_branches_pkey |            16384
 2017-02-08 05:57:36.860694+01 | 1486529856.86069 | pgbench_tellers_pkey  |            90112
 2017-02-08 05:57:36.860694+01 | 1486529856.86069 | pgbench_accounts_pkey |        673882112

 2017-02-08 05:57:38.112775+01 | 1486529858.11278 | pgbench_branches_pkey |            16384
 2017-02-08 05:57:38.112775+01 | 1486529858.11278 | pgbench_tellers_pkey  |            90112
 2017-02-08 05:57:38.112775+01 | 1486529858.11278 | pgbench_accounts_pkey |        673882112

 2017-02-08 05:57:39.340983+01 | 1486529859.34098 | pgbench_branches_pkey |            16384
 2017-02-08 05:57:39.340983+01 | 1486529859.34098 | pgbench_tellers_pkey  |            90112
 2017-02-08 05:57:39.340983+01 | 1486529859.34098 | pgbench_accounts_pkey |        673882112

 2017-02-08 05:57:40.548381+01 | 1486529860.54838 | pgbench_branches_pkey |            16384
 2017-02-08 05:57:40.548381+01 | 1486529860.54838 | pgbench_tellers_pkey  |            90112
 2017-02-08 05:57:40.548381+01 | 1486529860.54838 | pgbench_accounts_pkey |        673882112

 2017-02-08 05:57:41.754039+01 | 1486529861.75404 | pgbench_branches_pkey |            16384
 2017-02-08 05:57:41.754039+01 | 1486529861.75404 | pgbench_tellers_pkey  |            90112
 2017-02-08 05:57:41.754039+01 | 1486529861.75404 | pgbench_accounts_pkey |        673882112

 2017-02-08 05:57:42.965789+01 | 1486529862.96579 | pgbench_branches_pkey |            16384
 2017-02-08 05:57:42.965789+01 | 1486529862.96579 | pgbench_tellers_pkey  |            90112
 2017-02-08 05:57:42.965789+01 | 1486529862.96579 | pgbench_accounts_pkey |        673882112

 2017-02-08 05:57:44.190697+01 | 1486529864.1907 | pgbench_branches_pkey |            16384
 2017-02-08 05:57:44.190697+01 | 1486529864.1907 | pgbench_tellers_pkey  |            90112
 2017-02-08 05:57:44.190697+01 | 1486529864.1907 | pgbench_accounts_pkey |        673882112

 2017-02-08 05:57:45.451944+01 | 1486529865.45194 | pgbench_branches_pkey |            16384
 2017-02-08 05:57:45.451944+01 | 1486529865.45194 | pgbench_tellers_pkey  |            90112
 2017-02-08 05:57:45.451944+01 | 1486529865.45194 | pgbench_accounts_pkey |        673882112

 2017-02-08 05:57:46.649109+01 | 1486529866.64911 | pgbench_branches_pkey |            16384
 2017-02-08 05:57:46.649109+01 | 1486529866.64911 | pgbench_tellers_pkey  |            90112
 2017-02-08 05:57:46.649109+01 | 1486529866.64911 | pgbench_accounts_pkey |        673882112

 2017-02-08 05:57:47.879667+01 | 1486529867.87967 | pgbench_branches_pkey |            16384
 2017-02-08 05:57:47.879667+01 | 1486529867.87967 | pgbench_tellers_pkey  |            90112
 2017-02-08 05:57:47.879667+01 | 1486529867.87967 | pgbench_accounts_pkey |        673882112

 2017-02-08 05:57:49.12595+01 | 1486529869.12595 | pgbench_branches_pkey |            16384
 2017-02-08 05:57:49.12595+01 | 1486529869.12595 | pgbench_tellers_pkey  |            90112
 2017-02-08 05:57:49.12595+01 | 1486529869.12595 | pgbench_accounts_pkey |        673882112

 2017-02-08 05:57:50.417629+01 | 1486529870.41763 | pgbench_branches_pkey |            16384
 2017-02-08 05:57:50.417629+01 | 1486529870.41763 | pgbench_tellers_pkey  |            90112
 2017-02-08 05:57:50.417629+01 | 1486529870.41763 | pgbench_accounts_pkey |        673882112

 2017-02-08 05:57:51.614052+01 | 1486529871.61405 | pgbench_branches_pkey |            16384
 2017-02-08 05:57:51.614052+01 | 1486529871.61405 | pgbench_tellers_pkey  |            90112
 2017-02-08 05:57:51.614052+01 | 1486529871.61405 | pgbench_accounts_pkey |        673882112

 2017-02-08 05:57:52.846254+01 | 1486529872.84625 | pgbench_branches_pkey |            16384
 2017-02-08 05:57:52.846254+01 | 1486529872.84625 | pgbench_tellers_pkey  |            90112
 2017-02-08 05:57:52.846254+01 | 1486529872.84625 | pgbench_accounts_pkey |        673882112

 2017-02-08 05:57:54.0526+01 | 1486529874.0526 | pgbench_branches_pkey |            16384
 2017-02-08 05:57:54.0526+01 | 1486529874.0526 | pgbench_tellers_pkey  |            90112
 2017-02-08 05:57:54.0526+01 | 1486529874.0526 | pgbench_accounts_pkey |        673882112

 2017-02-08 05:57:55.269091+01 | 1486529875.26909 | pgbench_branches_pkey |            16384
 2017-02-08 05:57:55.269091+01 | 1486529875.26909 | pgbench_tellers_pkey  |            90112
 2017-02-08 05:57:55.269091+01 | 1486529875.26909 | pgbench_accounts_pkey |        673882112

 2017-02-08 05:57:56.505735+01 | 1486529876.50573 | pgbench_branches_pkey |            16384
 2017-02-08 05:57:56.505735+01 | 1486529876.50573 | pgbench_tellers_pkey  |            90112
 2017-02-08 05:57:56.505735+01 | 1486529876.50573 | pgbench_accounts_pkey |        673882112

 2017-02-08 05:57:57.79548+01 | 1486529877.79548 | pgbench_branches_pkey |            16384
 2017-02-08 05:57:57.79548+01 | 1486529877.79548 | pgbench_tellers_pkey  |            90112
 2017-02-08 05:57:57.79548+01 | 1486529877.79548 | pgbench_accounts_pkey |        673882112

 2017-02-08 05:57:59.066392+01 | 1486529879.06639 | pgbench_branches_pkey |            16384
 2017-02-08 05:57:59.066392+01 | 1486529879.06639 | pgbench_tellers_pkey  |            90112
 2017-02-08 05:57:59.066392+01 | 1486529879.06639 | pgbench_accounts_pkey |        673882112

 2017-02-08 05:58:00.245824+01 | 1486529880.24582 | pgbench_branches_pkey |            16384
 2017-02-08 05:58:00.245824+01 | 1486529880.24582 | pgbench_tellers_pkey  |            90112
 2017-02-08 05:58:00.245824+01 | 1486529880.24582 | pgbench_accounts_pkey |        673882112

 2017-02-08 05:58:01.475454+01 | 1486529881.47545 | pgbench_branches_pkey |            16384
 2017-02-08 05:58:01.475454+01 | 1486529881.47545 | pgbench_tellers_pkey  |            90112
 2017-02-08 05:58:01.475454+01 | 1486529881.47545 | pgbench_accounts_pkey |        673882112

 2017-02-08 05:58:02.728443+01 | 1486529882.72844 | pgbench_branches_pkey |            16384
 2017-02-08 05:58:02.728443+01 | 1486529882.72844 | pgbench_tellers_pkey  |            90112
 2017-02-08 05:58:02.728443+01 | 1486529882.72844 | pgbench_accounts_pkey |        673882112

 2017-02-08 05:58:04.031585+01 | 1486529884.03158 | pgbench_branches_pkey |            16384
 2017-02-08 05:58:04.031585+01 | 1486529884.03158 | pgbench_tellers_pkey  |            90112
 2017-02-08 05:58:04.031585+01 | 1486529884.03158 | pgbench_accounts_pkey |        673882112

 2017-02-08 05:58:05.260349+01 | 1486529885.26035 | pgbench_branches_pkey |            16384
 2017-02-08 05:58:05.260349+01 | 1486529885.26035 | pgbench_tellers_pkey  |            90112
 2017-02-08 05:58:05.260349+01 | 1486529885.26035 | pgbench_accounts_pkey |        673882112

 2017-02-08 05:58:06.469359+01 | 1486529886.46936 | pgbench_branches_pkey |            16384
 2017-02-08 05:58:06.469359+01 | 1486529886.46936 | pgbench_tellers_pkey  |            90112
 2017-02-08 05:58:06.469359+01 | 1486529886.46936 | pgbench_accounts_pkey |        673882112

 2017-02-08 05:58:07.712548+01 | 1486529887.71255 | pgbench_branches_pkey |            16384
 2017-02-08 05:58:07.712548+01 | 1486529887.71255 | pgbench_tellers_pkey  |            90112
 2017-02-08 05:58:07.712548+01 | 1486529887.71255 | pgbench_accounts_pkey |        673882112

 2017-02-08 05:58:08.94677+01 | 1486529888.94677 | pgbench_branches_pkey |            16384
 2017-02-08 05:58:08.94677+01 | 1486529888.94677 | pgbench_tellers_pkey  |            90112
 2017-02-08 05:58:08.94677+01 | 1486529888.94677 | pgbench_accounts_pkey |        673882112

 2017-02-08 05:58:10.163079+01 | 1486529890.16308 | pgbench_branches_pkey |            16384
 2017-02-08 05:58:10.163079+01 | 1486529890.16308 | pgbench_tellers_pkey  |            90112
 2017-02-08 05:58:10.163079+01 | 1486529890.16308 | pgbench_accounts_pkey |        673882112

 2017-02-08 05:58:11.393348+01 | 1486529891.39335 | pgbench_branches_pkey |            16384
 2017-02-08 05:58:11.393348+01 | 1486529891.39335 | pgbench_tellers_pkey  |            90112
 2017-02-08 05:58:11.393348+01 | 1486529891.39335 | pgbench_accounts_pkey |        673882112

 2017-02-08 05:58:12.516377+01 | 1486529892.51638 | pgbench_branches_pkey |            16384
 2017-02-08 05:58:12.516377+01 | 1486529892.51638 | pgbench_tellers_pkey  |            90112
 2017-02-08 05:58:12.516377+01 | 1486529892.51638 | pgbench_accounts_pkey |        673882112

 2017-02-08 05:58:13.734716+01 | 1486529893.73472 | pgbench_branches_pkey |            16384
 2017-02-08 05:58:13.734716+01 | 1486529893.73472 | pgbench_tellers_pkey  |            90112
 2017-02-08 05:58:13.734716+01 | 1486529893.73472 | pgbench_accounts_pkey |        673882112

 2017-02-08 05:58:14.951883+01 | 1486529894.95188 | pgbench_branches_pkey |            16384
 2017-02-08 05:58:14.951883+01 | 1486529894.95188 | pgbench_tellers_pkey  |            90112
 2017-02-08 05:58:14.951883+01 | 1486529894.95188 | pgbench_accounts_pkey |        673882112

 2017-02-08 05:58:16.201164+01 | 1486529896.20116 | pgbench_branches_pkey |            16384
 2017-02-08 05:58:16.201164+01 | 1486529896.20116 | pgbench_tellers_pkey  |            90112
 2017-02-08 05:58:16.201164+01 | 1486529896.20116 | pgbench_accounts_pkey |        673882112

 2017-02-08 05:58:17.380958+01 | 1486529897.38096 | pgbench_branches_pkey |            16384
 2017-02-08 05:58:17.380958+01 | 1486529897.38096 | pgbench_tellers_pkey  |            90112
 2017-02-08 05:58:17.380958+01 | 1486529897.38096 | pgbench_accounts_pkey |        673882112

 2017-02-08 05:58:18.655132+01 | 1486529898.65513 | pgbench_branches_pkey |            16384
 2017-02-08 05:58:18.655132+01 | 1486529898.65513 | pgbench_tellers_pkey  |            90112
 2017-02-08 05:58:18.655132+01 | 1486529898.65513 | pgbench_accounts_pkey |        673882112

 2017-02-08 05:58:19.886341+01 | 1486529899.88634 | pgbench_branches_pkey |            16384
 2017-02-08 05:58:19.886341+01 | 1486529899.88634 | pgbench_tellers_pkey  |            90112
 2017-02-08 05:58:19.886341+01 | 1486529899.88634 | pgbench_accounts_pkey |        673882112

 2017-02-08 05:58:21.08456+01 | 1486529901.08456 | pgbench_branches_pkey |            16384
 2017-02-08 05:58:21.08456+01 | 1486529901.08456 | pgbench_tellers_pkey  |            90112
 2017-02-08 05:58:21.08456+01 | 1486529901.08456 | pgbench_accounts_pkey |        673882112

 2017-02-08 05:58:22.337917+01 | 1486529902.33792 | pgbench_branches_pkey |            16384
 2017-02-08 05:58:22.337917+01 | 1486529902.33792 | pgbench_tellers_pkey  |            90112
 2017-02-08 05:58:22.337917+01 | 1486529902.33792 | pgbench_accounts_pkey |        673882112

 2017-02-08 05:58:23.54566+01 | 1486529903.54566 | pgbench_branches_pkey |            16384
 2017-02-08 05:58:23.54566+01 | 1486529903.54566 | pgbench_tellers_pkey  |            90112
 2017-02-08 05:58:23.54566+01 | 1486529903.54566 | pgbench_accounts_pkey |        673882112

 2017-02-08 05:58:24.790342+01 | 1486529904.79034 | pgbench_branches_pkey |            16384
 2017-02-08 05:58:24.790342+01 | 1486529904.79034 | pgbench_tellers_pkey  |            90112
 2017-02-08 05:58:24.790342+01 | 1486529904.79034 | pgbench_accounts_pkey |        673882112

 2017-02-08 05:58:26.005048+01 | 1486529906.00505 | pgbench_branches_pkey |            16384
 2017-02-08 05:58:26.005048+01 | 1486529906.00505 | pgbench_tellers_pkey  |            90112
 2017-02-08 05:58:26.005048+01 | 1486529906.00505 | pgbench_accounts_pkey |        673882112

 2017-02-08 05:58:27.216917+01 | 1486529907.21692 | pgbench_branches_pkey |            16384
 2017-02-08 05:58:27.216917+01 | 1486529907.21692 | pgbench_tellers_pkey  |            90112
 2017-02-08 05:58:27.216917+01 | 1486529907.21692 | pgbench_accounts_pkey |        673882112

 2017-02-08 05:58:28.449715+01 | 1486529908.44971 | pgbench_branches_pkey |            16384
 2017-02-08 05:58:28.449715+01 | 1486529908.44971 | pgbench_tellers_pkey  |            90112
 2017-02-08 05:58:28.449715+01 | 1486529908.44971 | pgbench_accounts_pkey |        673882112

 2017-02-08 05:58:29.711444+01 | 1486529909.71144 | pgbench_branches_pkey |            16384
 2017-02-08 05:58:29.711444+01 | 1486529909.71144 | pgbench_tellers_pkey  |            90112
 2017-02-08 05:58:29.711444+01 | 1486529909.71144 | pgbench_accounts_pkey |        673882112

 2017-02-08 05:58:30.952866+01 | 1486529910.95287 | pgbench_branches_pkey |            16384
 2017-02-08 05:58:30.952866+01 | 1486529910.95287 | pgbench_tellers_pkey  |            90112
 2017-02-08 05:58:30.952866+01 | 1486529910.95287 | pgbench_accounts_pkey |        673882112

 2017-02-08 05:58:32.201981+01 | 1486529912.20198 | pgbench_branches_pkey |            16384
 2017-02-08 05:58:32.201981+01 | 1486529912.20198 | pgbench_tellers_pkey  |            90112
 2017-02-08 05:58:32.201981+01 | 1486529912.20198 | pgbench_accounts_pkey |        673882112

 2017-02-08 05:58:33.476161+01 | 1486529913.47616 | pgbench_branches_pkey |            16384
 2017-02-08 05:58:33.476161+01 | 1486529913.47616 | pgbench_tellers_pkey  |            90112
 2017-02-08 05:58:33.476161+01 | 1486529913.47616 | pgbench_accounts_pkey |        673882112

 2017-02-08 05:58:34.65869+01 | 1486529914.65869 | pgbench_branches_pkey |            16384
 2017-02-08 05:58:34.65869+01 | 1486529914.65869 | pgbench_tellers_pkey  |            90112
 2017-02-08 05:58:34.65869+01 | 1486529914.65869 | pgbench_accounts_pkey |        673882112

 2017-02-08 05:58:35.865499+01 | 1486529915.8655 | pgbench_branches_pkey |            16384
 2017-02-08 05:58:35.865499+01 | 1486529915.8655 | pgbench_tellers_pkey  |            90112
 2017-02-08 05:58:35.865499+01 | 1486529915.8655 | pgbench_accounts_pkey |        673882112

 2017-02-08 05:58:37.110643+01 | 1486529917.11064 | pgbench_branches_pkey |            16384
 2017-02-08 05:58:37.110643+01 | 1486529917.11064 | pgbench_tellers_pkey  |            90112
 2017-02-08 05:58:37.110643+01 | 1486529917.11064 | pgbench_accounts_pkey |        673882112

 2017-02-08 05:58:38.378243+01 | 1486529918.37824 | pgbench_branches_pkey |            16384
 2017-02-08 05:58:38.378243+01 | 1486529918.37824 | pgbench_tellers_pkey  |            90112
 2017-02-08 05:58:38.378243+01 | 1486529918.37824 | pgbench_accounts_pkey |        673882112

 2017-02-08 05:58:39.541311+01 | 1486529919.54131 | pgbench_branches_pkey |            16384
 2017-02-08 05:58:39.541311+01 | 1486529919.54131 | pgbench_tellers_pkey  |            90112
 2017-02-08 05:58:39.541311+01 | 1486529919.54131 | pgbench_accounts_pkey |        673882112

 2017-02-08 05:58:40.748547+01 | 1486529920.74855 | pgbench_branches_pkey |            16384
 2017-02-08 05:58:40.748547+01 | 1486529920.74855 | pgbench_tellers_pkey  |            90112
 2017-02-08 05:58:40.748547+01 | 1486529920.74855 | pgbench_accounts_pkey |        673882112

 2017-02-08 05:58:42.005943+01 | 1486529922.00594 | pgbench_branches_pkey |            16384
 2017-02-08 05:58:42.005943+01 | 1486529922.00594 | pgbench_tellers_pkey  |            90112
 2017-02-08 05:58:42.005943+01 | 1486529922.00594 | pgbench_accounts_pkey |        673882112

 2017-02-08 05:58:43.2255+01 | 1486529923.2255 | pgbench_branches_pkey |            16384
 2017-02-08 05:58:43.2255+01 | 1486529923.2255 | pgbench_tellers_pkey  |            90112
 2017-02-08 05:58:43.2255+01 | 1486529923.2255 | pgbench_accounts_pkey |        673882112

 2017-02-08 05:58:44.455669+01 | 1486529924.45567 | pgbench_branches_pkey |            16384
 2017-02-08 05:58:44.455669+01 | 1486529924.45567 | pgbench_tellers_pkey  |            90112
 2017-02-08 05:58:44.455669+01 | 1486529924.45567 | pgbench_accounts_pkey |        673882112

 2017-02-08 05:58:45.686691+01 | 1486529925.68669 | pgbench_branches_pkey |            16384
 2017-02-08 05:58:45.686691+01 | 1486529925.68669 | pgbench_tellers_pkey  |            90112
 2017-02-08 05:58:45.686691+01 | 1486529925.68669 | pgbench_accounts_pkey |        673882112

 2017-02-08 05:58:46.937238+01 | 1486529926.93724 | pgbench_branches_pkey |            16384
 2017-02-08 05:58:46.937238+01 | 1486529926.93724 | pgbench_tellers_pkey  |            90112
 2017-02-08 05:58:46.937238+01 | 1486529926.93724 | pgbench_accounts_pkey |        673882112

 2017-02-08 05:58:48.159766+01 | 1486529928.15977 | pgbench_branches_pkey |            16384
 2017-02-08 05:58:48.159766+01 | 1486529928.15977 | pgbench_tellers_pkey  |            90112
 2017-02-08 05:58:48.159766+01 | 1486529928.15977 | pgbench_accounts_pkey |        673882112

 2017-02-08 05:58:49.366569+01 | 1486529929.36657 | pgbench_branches_pkey |            16384
 2017-02-08 05:58:49.366569+01 | 1486529929.36657 | pgbench_tellers_pkey  |            90112
 2017-02-08 05:58:49.366569+01 | 1486529929.36657 | pgbench_accounts_pkey |        673882112

 2017-02-08 05:58:50.549509+01 | 1486529930.54951 | pgbench_branches_pkey |            16384
 2017-02-08 05:58:50.549509+01 | 1486529930.54951 | pgbench_tellers_pkey  |            90112
 2017-02-08 05:58:50.549509+01 | 1486529930.54951 | pgbench_accounts_pkey |        673882112

 2017-02-08 05:58:51.804157+01 | 1486529931.80416 | pgbench_branches_pkey |            16384
 2017-02-08 05:58:51.804157+01 | 1486529931.80416 | pgbench_tellers_pkey  |            90112
 2017-02-08 05:58:51.804157+01 | 1486529931.80416 | pgbench_accounts_pkey |        673882112

 2017-02-08 05:58:53.033838+01 | 1486529933.03384 | pgbench_branches_pkey |            16384
 2017-02-08 05:58:53.033838+01 | 1486529933.03384 | pgbench_tellers_pkey  |            90112
 2017-02-08 05:58:53.033838+01 | 1486529933.03384 | pgbench_accounts_pkey |        673882112

 2017-02-08 05:58:54.293169+01 | 1486529934.29317 | pgbench_branches_pkey |            16384
 2017-02-08 05:58:54.293169+01 | 1486529934.29317 | pgbench_tellers_pkey  |            90112
 2017-02-08 05:58:54.293169+01 | 1486529934.29317 | pgbench_accounts_pkey |        673882112

 2017-02-08 05:58:55.556784+01 | 1486529935.55678 | pgbench_branches_pkey |            16384
 2017-02-08 05:58:55.556784+01 | 1486529935.55678 | pgbench_tellers_pkey  |            90112
 2017-02-08 05:58:55.556784+01 | 1486529935.55678 | pgbench_accounts_pkey |        673882112

 2017-02-08 05:58:56.799148+01 | 1486529936.79915 | pgbench_branches_pkey |            16384
 2017-02-08 05:58:56.799148+01 | 1486529936.79915 | pgbench_tellers_pkey  |            90112
 2017-02-08 05:58:56.799148+01 | 1486529936.79915 | pgbench_accounts_pkey |        673882112

 2017-02-08 05:58:58.064105+01 | 1486529938.06411 | pgbench_branches_pkey |            16384
 2017-02-08 05:58:58.064105+01 | 1486529938.06411 | pgbench_tellers_pkey  |            90112
 2017-02-08 05:58:58.064105+01 | 1486529938.06411 | pgbench_accounts_pkey |        673882112

 2017-02-08 05:58:59.280789+01 | 1486529939.28079 | pgbench_branches_pkey |            16384
 2017-02-08 05:58:59.280789+01 | 1486529939.28079 | pgbench_tellers_pkey  |            90112
 2017-02-08 05:58:59.280789+01 | 1486529939.28079 | pgbench_accounts_pkey |        673882112

 2017-02-08 05:59:00.473619+01 | 1486529940.47362 | pgbench_branches_pkey |            16384
 2017-02-08 05:59:00.473619+01 | 1486529940.47362 | pgbench_tellers_pkey  |            90112
 2017-02-08 05:59:00.473619+01 | 1486529940.47362 | pgbench_accounts_pkey |        673882112

 2017-02-08 05:59:01.685775+01 | 1486529941.68578 | pgbench_branches_pkey |            16384
 2017-02-08 05:59:01.685775+01 | 1486529941.68578 | pgbench_tellers_pkey  |            90112
 2017-02-08 05:59:01.685775+01 | 1486529941.68578 | pgbench_accounts_pkey |        673882112

 2017-02-08 05:59:02.928102+01 | 1486529942.9281 | pgbench_branches_pkey |            16384
 2017-02-08 05:59:02.928102+01 | 1486529942.9281 | pgbench_tellers_pkey  |            90112
 2017-02-08 05:59:02.928102+01 | 1486529942.9281 | pgbench_accounts_pkey |        673882112

 2017-02-08 05:59:04.207935+01 | 1486529944.20794 | pgbench_branches_pkey |            16384
 2017-02-08 05:59:04.207935+01 | 1486529944.20794 | pgbench_tellers_pkey  |            90112
 2017-02-08 05:59:04.207935+01 | 1486529944.20794 | pgbench_accounts_pkey |        673882112

 2017-02-08 05:59:05.482123+01 | 1486529945.48212 | pgbench_branches_pkey |            16384
 2017-02-08 05:59:05.482123+01 | 1486529945.48212 | pgbench_tellers_pkey  |            90112
 2017-02-08 05:59:05.482123+01 | 1486529945.48212 | pgbench_accounts_pkey |        673882112

 2017-02-08 05:59:06.754022+01 | 1486529946.75402 | pgbench_branches_pkey |            16384
 2017-02-08 05:59:06.754022+01 | 1486529946.75402 | pgbench_tellers_pkey  |            90112
 2017-02-08 05:59:06.754022+01 | 1486529946.75402 | pgbench_accounts_pkey |        673882112

 2017-02-08 05:59:07.974128+01 | 1486529947.97413 | pgbench_branches_pkey |            16384
 2017-02-08 05:59:07.974128+01 | 1486529947.97413 | pgbench_tellers_pkey  |            90112
 2017-02-08 05:59:07.974128+01 | 1486529947.97413 | pgbench_accounts_pkey |        673882112

 2017-02-08 05:59:09.216151+01 | 1486529949.21615 | pgbench_branches_pkey |            16384
 2017-02-08 05:59:09.216151+01 | 1486529949.21615 | pgbench_tellers_pkey  |            90112
 2017-02-08 05:59:09.216151+01 | 1486529949.21615 | pgbench_accounts_pkey |        673882112

 2017-02-08 05:59:10.466932+01 | 1486529950.46693 | pgbench_branches_pkey |            16384
 2017-02-08 05:59:10.466932+01 | 1486529950.46693 | pgbench_tellers_pkey  |            90112
 2017-02-08 05:59:10.466932+01 | 1486529950.46693 | pgbench_accounts_pkey |        673882112

 2017-02-08 05:59:11.720127+01 | 1486529951.72013 | pgbench_branches_pkey |            16384
 2017-02-08 05:59:11.720127+01 | 1486529951.72013 | pgbench_tellers_pkey  |            90112
 2017-02-08 05:59:11.720127+01 | 1486529951.72013 | pgbench_accounts_pkey |        673882112

 2017-02-08 05:59:12.949552+01 | 1486529952.94955 | pgbench_branches_pkey |            16384
 2017-02-08 05:59:12.949552+01 | 1486529952.94955 | pgbench_tellers_pkey  |            90112
 2017-02-08 05:59:12.949552+01 | 1486529952.94955 | pgbench_accounts_pkey |        673882112

 2017-02-08 05:59:14.164384+01 | 1486529954.16438 | pgbench_branches_pkey |            16384
 2017-02-08 05:59:14.164384+01 | 1486529954.16438 | pgbench_tellers_pkey  |            90112
 2017-02-08 05:59:14.164384+01 | 1486529954.16438 | pgbench_accounts_pkey |        673882112

 2017-02-08 05:59:15.419175+01 | 1486529955.41917 | pgbench_branches_pkey |            16384
 2017-02-08 05:59:15.419175+01 | 1486529955.41917 | pgbench_tellers_pkey  |            90112
 2017-02-08 05:59:15.419175+01 | 1486529955.41917 | pgbench_accounts_pkey |        673882112

 2017-02-08 05:59:16.655535+01 | 1486529956.65553 | pgbench_branches_pkey |            16384
 2017-02-08 05:59:16.655535+01 | 1486529956.65553 | pgbench_tellers_pkey  |            90112
 2017-02-08 05:59:16.655535+01 | 1486529956.65553 | pgbench_accounts_pkey |        673882112

 2017-02-08 05:59:17.900692+01 | 1486529957.90069 | pgbench_branches_pkey |            16384
 2017-02-08 05:59:17.900692+01 | 1486529957.90069 | pgbench_tellers_pkey  |            90112
 2017-02-08 05:59:17.900692+01 | 1486529957.90069 | pgbench_accounts_pkey |        673882112

 2017-02-08 05:59:19.152138+01 | 1486529959.15214 | pgbench_branches_pkey |            16384
 2017-02-08 05:59:19.152138+01 | 1486529959.15214 | pgbench_tellers_pkey  |            90112
 2017-02-08 05:59:19.152138+01 | 1486529959.15214 | pgbench_accounts_pkey |        673882112

 2017-02-08 05:59:20.41672+01 | 1486529960.41672 | pgbench_branches_pkey |            16384
 2017-02-08 05:59:20.41672+01 | 1486529960.41672 | pgbench_tellers_pkey  |            90112
 2017-02-08 05:59:20.41672+01 | 1486529960.41672 | pgbench_accounts_pkey |        673882112

 2017-02-08 05:59:21.677671+01 | 1486529961.67767 | pgbench_branches_pkey |            16384
 2017-02-08 05:59:21.677671+01 | 1486529961.67767 | pgbench_tellers_pkey  |            90112
 2017-02-08 05:59:21.677671+01 | 1486529961.67767 | pgbench_accounts_pkey |        673882112

 2017-02-08 05:59:22.91529+01 | 1486529962.91529 | pgbench_branches_pkey |            16384
 2017-02-08 05:59:22.91529+01 | 1486529962.91529 | pgbench_tellers_pkey  |            90112
 2017-02-08 05:59:22.91529+01 | 1486529962.91529 | pgbench_accounts_pkey |        673882112

 2017-02-08 05:59:24.134464+01 | 1486529964.13446 | pgbench_branches_pkey |            16384
 2017-02-08 05:59:24.134464+01 | 1486529964.13446 | pgbench_tellers_pkey  |            90112
 2017-02-08 05:59:24.134464+01 | 1486529964.13446 | pgbench_accounts_pkey |        673882112

 2017-02-08 05:59:25.339093+01 | 1486529965.33909 | pgbench_branches_pkey |            16384
 2017-02-08 05:59:25.339093+01 | 1486529965.33909 | pgbench_tellers_pkey  |            90112
 2017-02-08 05:59:25.339093+01 | 1486529965.33909 | pgbench_accounts_pkey |        673882112

 2017-02-08 05:59:26.515561+01 | 1486529966.51556 | pgbench_branches_pkey |            16384
 2017-02-08 05:59:26.515561+01 | 1486529966.51556 | pgbench_tellers_pkey  |            90112
 2017-02-08 05:59:26.515561+01 | 1486529966.51556 | pgbench_accounts_pkey |        673882112

 2017-02-08 05:59:27.756276+01 | 1486529967.75628 | pgbench_branches_pkey |            16384
 2017-02-08 05:59:27.756276+01 | 1486529967.75628 | pgbench_tellers_pkey  |            90112
 2017-02-08 05:59:27.756276+01 | 1486529967.75628 | pgbench_accounts_pkey |        673882112

 2017-02-08 05:59:29.002753+01 | 1486529969.00275 | pgbench_branches_pkey |            16384
 2017-02-08 05:59:29.002753+01 | 1486529969.00275 | pgbench_tellers_pkey  |            90112
 2017-02-08 05:59:29.002753+01 | 1486529969.00275 | pgbench_accounts_pkey |        673882112

 2017-02-08 05:59:30.211029+01 | 1486529970.21103 | pgbench_branches_pkey |            16384
 2017-02-08 05:59:30.211029+01 | 1486529970.21103 | pgbench_tellers_pkey  |            90112
 2017-02-08 05:59:30.211029+01 | 1486529970.21103 | pgbench_accounts_pkey |        673882112

 2017-02-08 05:59:31.406251+01 | 1486529971.40625 | pgbench_branches_pkey |            16384
 2017-02-08 05:59:31.406251+01 | 1486529971.40625 | pgbench_tellers_pkey  |            90112
 2017-02-08 05:59:31.406251+01 | 1486529971.40625 | pgbench_accounts_pkey |        673882112

 2017-02-08 05:59:32.627921+01 | 1486529972.62792 | pgbench_branches_pkey |            16384
 2017-02-08 05:59:32.627921+01 | 1486529972.62792 | pgbench_tellers_pkey  |            90112
 2017-02-08 05:59:32.627921+01 | 1486529972.62792 | pgbench_accounts_pkey |        673882112

 2017-02-08 05:59:33.896741+01 | 1486529973.89674 | pgbench_branches_pkey |            16384
 2017-02-08 05:59:33.896741+01 | 1486529973.89674 | pgbench_tellers_pkey  |            90112
 2017-02-08 05:59:33.896741+01 | 1486529973.89674 | pgbench_accounts_pkey |        673882112

 2017-02-08 05:59:35.112598+01 | 1486529975.1126 | pgbench_branches_pkey |            16384
 2017-02-08 05:59:35.112598+01 | 1486529975.1126 | pgbench_tellers_pkey  |            90112
 2017-02-08 05:59:35.112598+01 | 1486529975.1126 | pgbench_accounts_pkey |        673882112

 2017-02-08 05:59:36.31314+01 | 1486529976.31314 | pgbench_branches_pkey |            16384
 2017-02-08 05:59:36.31314+01 | 1486529976.31314 | pgbench_tellers_pkey  |            90112
 2017-02-08 05:59:36.31314+01 | 1486529976.31314 | pgbench_accounts_pkey |        673882112

 2017-02-08 05:59:37.484053+01 | 1486529977.48405 | pgbench_branches_pkey |            16384
 2017-02-08 05:59:37.484053+01 | 1486529977.48405 | pgbench_tellers_pkey  |            90112
 2017-02-08 05:59:37.484053+01 | 1486529977.48405 | pgbench_accounts_pkey |        673882112

 2017-02-08 05:59:38.701266+01 | 1486529978.70127 | pgbench_branches_pkey |            16384
 2017-02-08 05:59:38.701266+01 | 1486529978.70127 | pgbench_tellers_pkey  |            90112
 2017-02-08 05:59:38.701266+01 | 1486529978.70127 | pgbench_accounts_pkey |        673882112

 2017-02-08 05:59:39.963195+01 | 1486529979.9632 | pgbench_branches_pkey |            16384
 2017-02-08 05:59:39.963195+01 | 1486529979.9632 | pgbench_tellers_pkey  |            90112
 2017-02-08 05:59:39.963195+01 | 1486529979.9632 | pgbench_accounts_pkey |        673882112

 2017-02-08 05:59:41.172379+01 | 1486529981.17238 | pgbench_branches_pkey |            16384
 2017-02-08 05:59:41.172379+01 | 1486529981.17238 | pgbench_tellers_pkey  |            90112
 2017-02-08 05:59:41.172379+01 | 1486529981.17238 | pgbench_accounts_pkey |        673882112

 2017-02-08 05:59:42.471459+01 | 1486529982.47146 | pgbench_branches_pkey |            16384
 2017-02-08 05:59:42.471459+01 | 1486529982.47146 | pgbench_tellers_pkey  |            90112
 2017-02-08 05:59:42.471459+01 | 1486529982.47146 | pgbench_accounts_pkey |        673882112

 2017-02-08 05:59:43.633119+01 | 1486529983.63312 | pgbench_branches_pkey |            16384
 2017-02-08 05:59:43.633119+01 | 1486529983.63312 | pgbench_tellers_pkey  |            90112
 2017-02-08 05:59:43.633119+01 | 1486529983.63312 | pgbench_accounts_pkey |        673882112

 2017-02-08 05:59:44.892738+01 | 1486529984.89274 | pgbench_branches_pkey |            16384
 2017-02-08 05:59:44.892738+01 | 1486529984.89274 | pgbench_tellers_pkey  |            90112
 2017-02-08 05:59:44.892738+01 | 1486529984.89274 | pgbench_accounts_pkey |        673882112

 2017-02-08 05:59:46.113707+01 | 1486529986.11371 | pgbench_branches_pkey |            16384
 2017-02-08 05:59:46.113707+01 | 1486529986.11371 | pgbench_tellers_pkey  |            90112
 2017-02-08 05:59:46.113707+01 | 1486529986.11371 | pgbench_accounts_pkey |        673882112

 2017-02-08 05:59:47.361137+01 | 1486529987.36114 | pgbench_branches_pkey |            16384
 2017-02-08 05:59:47.361137+01 | 1486529987.36114 | pgbench_tellers_pkey  |            90112
 2017-02-08 05:59:47.361137+01 | 1486529987.36114 | pgbench_accounts_pkey |        673882112

 2017-02-08 05:59:48.608363+01 | 1486529988.60836 | pgbench_branches_pkey |            16384
 2017-02-08 05:59:48.608363+01 | 1486529988.60836 | pgbench_tellers_pkey  |            90112
 2017-02-08 05:59:48.608363+01 | 1486529988.60836 | pgbench_accounts_pkey |        673882112

 2017-02-08 05:59:49.851464+01 | 1486529989.85146 | pgbench_branches_pkey |            16384
 2017-02-08 05:59:49.851464+01 | 1486529989.85146 | pgbench_tellers_pkey  |            90112
 2017-02-08 05:59:49.851464+01 | 1486529989.85146 | pgbench_accounts_pkey |        673882112

 2017-02-08 05:59:51.064031+01 | 1486529991.06403 | pgbench_branches_pkey |            16384
 2017-02-08 05:59:51.064031+01 | 1486529991.06403 | pgbench_tellers_pkey  |            90112
 2017-02-08 05:59:51.064031+01 | 1486529991.06403 | pgbench_accounts_pkey |        673882112

 2017-02-08 05:59:52.286191+01 | 1486529992.28619 | pgbench_branches_pkey |            16384
 2017-02-08 05:59:52.286191+01 | 1486529992.28619 | pgbench_tellers_pkey  |            90112
 2017-02-08 05:59:52.286191+01 | 1486529992.28619 | pgbench_accounts_pkey |        673882112

 2017-02-08 05:59:53.539154+01 | 1486529993.53915 | pgbench_branches_pkey |            16384
 2017-02-08 05:59:53.539154+01 | 1486529993.53915 | pgbench_tellers_pkey  |            90112
 2017-02-08 05:59:53.539154+01 | 1486529993.53915 | pgbench_accounts_pkey |        673882112

 2017-02-08 05:59:54.718664+01 | 1486529994.71866 | pgbench_branches_pkey |            16384
 2017-02-08 05:59:54.718664+01 | 1486529994.71866 | pgbench_tellers_pkey  |            90112
 2017-02-08 05:59:54.718664+01 | 1486529994.71866 | pgbench_accounts_pkey |        673882112

 2017-02-08 05:59:55.961855+01 | 1486529995.96185 | pgbench_branches_pkey |            16384
 2017-02-08 05:59:55.961855+01 | 1486529995.96185 | pgbench_tellers_pkey  |            90112
 2017-02-08 05:59:55.961855+01 | 1486529995.96185 | pgbench_accounts_pkey |        673882112

 2017-02-08 05:59:57.187506+01 | 1486529997.18751 | pgbench_branches_pkey |            16384
 2017-02-08 05:59:57.187506+01 | 1486529997.18751 | pgbench_tellers_pkey  |            90112
 2017-02-08 05:59:57.187506+01 | 1486529997.18751 | pgbench_accounts_pkey |        673882112

 2017-02-08 05:59:58.376009+01 | 1486529998.37601 | pgbench_branches_pkey |            16384
 2017-02-08 05:59:58.376009+01 | 1486529998.37601 | pgbench_tellers_pkey  |            90112
 2017-02-08 05:59:58.376009+01 | 1486529998.37601 | pgbench_accounts_pkey |        673882112

 2017-02-08 05:59:59.636919+01 | 1486529999.63692 | pgbench_branches_pkey |            16384
 2017-02-08 05:59:59.636919+01 | 1486529999.63692 | pgbench_tellers_pkey  |            90112
 2017-02-08 05:59:59.636919+01 | 1486529999.63692 | pgbench_accounts_pkey |        673882112

 2017-02-08 06:00:00.861013+01 | 1486530000.86101 | pgbench_branches_pkey |            16384
 2017-02-08 06:00:00.861013+01 | 1486530000.86101 | pgbench_tellers_pkey  |            90112
 2017-02-08 06:00:00.861013+01 | 1486530000.86101 | pgbench_accounts_pkey |        673882112

 2017-02-08 06:00:02.09551+01 | 1486530002.09551 | pgbench_branches_pkey |            16384
 2017-02-08 06:00:02.09551+01 | 1486530002.09551 | pgbench_tellers_pkey  |            90112
 2017-02-08 06:00:02.09551+01 | 1486530002.09551 | pgbench_accounts_pkey |        673882112

 2017-02-08 06:00:03.336728+01 | 1486530003.33673 | pgbench_branches_pkey |            16384
 2017-02-08 06:00:03.336728+01 | 1486530003.33673 | pgbench_tellers_pkey  |            90112
 2017-02-08 06:00:03.336728+01 | 1486530003.33673 | pgbench_accounts_pkey |        673882112

 2017-02-08 06:00:04.571279+01 | 1486530004.57128 | pgbench_branches_pkey |            16384
 2017-02-08 06:00:04.571279+01 | 1486530004.57128 | pgbench_tellers_pkey  |            90112
 2017-02-08 06:00:04.571279+01 | 1486530004.57128 | pgbench_accounts_pkey |        673882112

 2017-02-08 06:00:05.770607+01 | 1486530005.77061 | pgbench_branches_pkey |            16384
 2017-02-08 06:00:05.770607+01 | 1486530005.77061 | pgbench_tellers_pkey  |            90112
 2017-02-08 06:00:05.770607+01 | 1486530005.77061 | pgbench_accounts_pkey |        673882112

 2017-02-08 06:00:06.983792+01 | 1486530006.98379 | pgbench_branches_pkey |            16384
 2017-02-08 06:00:06.983792+01 | 1486530006.98379 | pgbench_tellers_pkey  |            90112
 2017-02-08 06:00:06.983792+01 | 1486530006.98379 | pgbench_accounts_pkey |        673882112

 2017-02-08 06:00:08.212708+01 | 1486530008.21271 | pgbench_branches_pkey |            16384
 2017-02-08 06:00:08.212708+01 | 1486530008.21271 | pgbench_tellers_pkey  |            90112
 2017-02-08 06:00:08.212708+01 | 1486530008.21271 | pgbench_accounts_pkey |        673882112

 2017-02-08 06:00:09.475648+01 | 1486530009.47565 | pgbench_branches_pkey |            16384
 2017-02-08 06:00:09.475648+01 | 1486530009.47565 | pgbench_tellers_pkey  |            90112
 2017-02-08 06:00:09.475648+01 | 1486530009.47565 | pgbench_accounts_pkey |        673882112

 2017-02-08 06:00:10.750889+01 | 1486530010.75089 | pgbench_branches_pkey |            16384
 2017-02-08 06:00:10.750889+01 | 1486530010.75089 | pgbench_tellers_pkey  |            90112
 2017-02-08 06:00:10.750889+01 | 1486530010.75089 | pgbench_accounts_pkey |        673882112

 2017-02-08 06:00:11.989397+01 | 1486530011.9894 | pgbench_branches_pkey |            16384
 2017-02-08 06:00:11.989397+01 | 1486530011.9894 | pgbench_tellers_pkey  |            90112
 2017-02-08 06:00:11.989397+01 | 1486530011.9894 | pgbench_accounts_pkey |        673882112

 2017-02-08 06:00:13.208823+01 | 1486530013.20882 | pgbench_branches_pkey |            16384
 2017-02-08 06:00:13.208823+01 | 1486530013.20882 | pgbench_tellers_pkey  |            90112
 2017-02-08 06:00:13.208823+01 | 1486530013.20882 | pgbench_accounts_pkey |        673882112

 2017-02-08 06:00:14.460401+01 | 1486530014.4604 | pgbench_branches_pkey |            16384
 2017-02-08 06:00:14.460401+01 | 1486530014.4604 | pgbench_tellers_pkey  |            90112
 2017-02-08 06:00:14.460401+01 | 1486530014.4604 | pgbench_accounts_pkey |        673882112

 2017-02-08 06:00:15.624245+01 | 1486530015.62424 | pgbench_branches_pkey |            16384
 2017-02-08 06:00:15.624245+01 | 1486530015.62424 | pgbench_tellers_pkey  |            90112
 2017-02-08 06:00:15.624245+01 | 1486530015.62424 | pgbench_accounts_pkey |        673882112

 2017-02-08 06:00:16.864211+01 | 1486530016.86421 | pgbench_branches_pkey |            16384
 2017-02-08 06:00:16.864211+01 | 1486530016.86421 | pgbench_tellers_pkey  |            90112
 2017-02-08 06:00:16.864211+01 | 1486530016.86421 | pgbench_accounts_pkey |        673882112

 2017-02-08 06:00:18.100044+01 | 1486530018.10004 | pgbench_branches_pkey |            16384
 2017-02-08 06:00:18.100044+01 | 1486530018.10004 | pgbench_tellers_pkey  |            90112
 2017-02-08 06:00:18.100044+01 | 1486530018.10004 | pgbench_accounts_pkey |        673882112

 2017-02-08 06:00:19.384466+01 | 1486530019.38447 | pgbench_branches_pkey |            16384
 2017-02-08 06:00:19.384466+01 | 1486530019.38447 | pgbench_tellers_pkey  |            90112
 2017-02-08 06:00:19.384466+01 | 1486530019.38447 | pgbench_accounts_pkey |        673882112

 2017-02-08 06:00:20.564375+01 | 1486530020.56437 | pgbench_branches_pkey |            16384
 2017-02-08 06:00:20.564375+01 | 1486530020.56437 | pgbench_tellers_pkey  |            90112
 2017-02-08 06:00:20.564375+01 | 1486530020.56437 | pgbench_accounts_pkey |        673882112

 2017-02-08 06:00:21.743737+01 | 1486530021.74374 | pgbench_branches_pkey |            16384
 2017-02-08 06:00:21.743737+01 | 1486530021.74374 | pgbench_tellers_pkey  |            90112
 2017-02-08 06:00:21.743737+01 | 1486530021.74374 | pgbench_accounts_pkey |        673882112

 2017-02-08 06:00:22.911824+01 | 1486530022.91182 | pgbench_branches_pkey |            16384
 2017-02-08 06:00:22.911824+01 | 1486530022.91182 | pgbench_tellers_pkey  |            90112
 2017-02-08 06:00:22.911824+01 | 1486530022.91182 | pgbench_accounts_pkey |        673882112

 2017-02-08 06:00:24.155215+01 | 1486530024.15522 | pgbench_branches_pkey |            16384
 2017-02-08 06:00:24.155215+01 | 1486530024.15522 | pgbench_tellers_pkey  |            90112
 2017-02-08 06:00:24.155215+01 | 1486530024.15522 | pgbench_accounts_pkey |        673882112

 2017-02-08 06:00:25.38272+01 | 1486530025.38272 | pgbench_branches_pkey |            16384
 2017-02-08 06:00:25.38272+01 | 1486530025.38272 | pgbench_tellers_pkey  |            90112
 2017-02-08 06:00:25.38272+01 | 1486530025.38272 | pgbench_accounts_pkey |        673882112

 2017-02-08 06:00:26.610387+01 | 1486530026.61039 | pgbench_branches_pkey |            16384
 2017-02-08 06:00:26.610387+01 | 1486530026.61039 | pgbench_tellers_pkey  |            90112
 2017-02-08 06:00:26.610387+01 | 1486530026.61039 | pgbench_accounts_pkey |        673882112

 2017-02-08 06:00:27.84063+01 | 1486530027.84063 | pgbench_branches_pkey |            16384
 2017-02-08 06:00:27.84063+01 | 1486530027.84063 | pgbench_tellers_pkey  |            90112
 2017-02-08 06:00:27.84063+01 | 1486530027.84063 | pgbench_accounts_pkey |        673882112

 2017-02-08 06:00:29.036861+01 | 1486530029.03686 | pgbench_branches_pkey |            16384
 2017-02-08 06:00:29.036861+01 | 1486530029.03686 | pgbench_tellers_pkey  |            90112
 2017-02-08 06:00:29.036861+01 | 1486530029.03686 | pgbench_accounts_pkey |        673882112

 2017-02-08 06:00:30.255692+01 | 1486530030.25569 | pgbench_branches_pkey |            16384
 2017-02-08 06:00:30.255692+01 | 1486530030.25569 | pgbench_tellers_pkey  |            90112
 2017-02-08 06:00:30.255692+01 | 1486530030.25569 | pgbench_accounts_pkey |        673882112

 2017-02-08 06:00:31.479622+01 | 1486530031.47962 | pgbench_branches_pkey |            16384
 2017-02-08 06:00:31.479622+01 | 1486530031.47962 | pgbench_tellers_pkey  |            90112
 2017-02-08 06:00:31.479622+01 | 1486530031.47962 | pgbench_accounts_pkey |        673882112

 2017-02-08 06:00:32.679079+01 | 1486530032.67908 | pgbench_branches_pkey |            16384
 2017-02-08 06:00:32.679079+01 | 1486530032.67908 | pgbench_tellers_pkey  |            90112
 2017-02-08 06:00:32.679079+01 | 1486530032.67908 | pgbench_accounts_pkey |        673882112

 2017-02-08 06:00:33.917271+01 | 1486530033.91727 | pgbench_branches_pkey |            16384
 2017-02-08 06:00:33.917271+01 | 1486530033.91727 | pgbench_tellers_pkey  |            90112
 2017-02-08 06:00:33.917271+01 | 1486530033.91727 | pgbench_accounts_pkey |        673882112

 2017-02-08 06:00:35.1068+01 | 1486530035.1068 | pgbench_branches_pkey |            16384
 2017-02-08 06:00:35.1068+01 | 1486530035.1068 | pgbench_tellers_pkey  |            90112
 2017-02-08 06:00:35.1068+01 | 1486530035.1068 | pgbench_accounts_pkey |        673882112

 2017-02-08 06:00:36.379549+01 | 1486530036.37955 | pgbench_branches_pkey |            16384
 2017-02-08 06:00:36.379549+01 | 1486530036.37955 | pgbench_tellers_pkey  |            90112
 2017-02-08 06:00:36.379549+01 | 1486530036.37955 | pgbench_accounts_pkey |        673882112

 2017-02-08 06:00:37.66581+01 | 1486530037.66581 | pgbench_branches_pkey |            16384
 2017-02-08 06:00:37.66581+01 | 1486530037.66581 | pgbench_tellers_pkey  |            90112
 2017-02-08 06:00:37.66581+01 | 1486530037.66581 | pgbench_accounts_pkey |        673882112

 2017-02-08 06:00:38.956239+01 | 1486530038.95624 | pgbench_branches_pkey |            16384
 2017-02-08 06:00:38.956239+01 | 1486530038.95624 | pgbench_tellers_pkey  |            90112
 2017-02-08 06:00:38.956239+01 | 1486530038.95624 | pgbench_accounts_pkey |        673882112

 2017-02-08 06:00:40.169123+01 | 1486530040.16912 | pgbench_branches_pkey |            16384
 2017-02-08 06:00:40.169123+01 | 1486530040.16912 | pgbench_tellers_pkey  |            90112
 2017-02-08 06:00:40.169123+01 | 1486530040.16912 | pgbench_accounts_pkey |        673882112

 2017-02-08 06:00:41.43852+01 | 1486530041.43852 | pgbench_branches_pkey |            16384
 2017-02-08 06:00:41.43852+01 | 1486530041.43852 | pgbench_tellers_pkey  |            90112
 2017-02-08 06:00:41.43852+01 | 1486530041.43852 | pgbench_accounts_pkey |        673882112

 2017-02-08 06:00:42.669067+01 | 1486530042.66907 | pgbench_branches_pkey |            16384
 2017-02-08 06:00:42.669067+01 | 1486530042.66907 | pgbench_tellers_pkey  |            90112
 2017-02-08 06:00:42.669067+01 | 1486530042.66907 | pgbench_accounts_pkey |        673882112

 2017-02-08 06:00:43.875718+01 | 1486530043.87572 | pgbench_branches_pkey |            16384
 2017-02-08 06:00:43.875718+01 | 1486530043.87572 | pgbench_tellers_pkey  |            90112
 2017-02-08 06:00:43.875718+01 | 1486530043.87572 | pgbench_accounts_pkey |        673882112

 2017-02-08 06:00:45.141734+01 | 1486530045.14173 | pgbench_branches_pkey |            16384
 2017-02-08 06:00:45.141734+01 | 1486530045.14173 | pgbench_tellers_pkey  |            90112
 2017-02-08 06:00:45.141734+01 | 1486530045.14173 | pgbench_accounts_pkey |        673882112

 2017-02-08 06:00:46.314906+01 | 1486530046.31491 | pgbench_branches_pkey |            16384
 2017-02-08 06:00:46.314906+01 | 1486530046.31491 | pgbench_tellers_pkey  |            90112
 2017-02-08 06:00:46.314906+01 | 1486530046.31491 | pgbench_accounts_pkey |        673882112

 2017-02-08 06:00:47.554529+01 | 1486530047.55453 | pgbench_branches_pkey |            16384
 2017-02-08 06:00:47.554529+01 | 1486530047.55453 | pgbench_tellers_pkey  |            90112
 2017-02-08 06:00:47.554529+01 | 1486530047.55453 | pgbench_accounts_pkey |        673882112

 2017-02-08 06:00:48.700234+01 | 1486530048.70023 | pgbench_branches_pkey |            16384
 2017-02-08 06:00:48.700234+01 | 1486530048.70023 | pgbench_tellers_pkey  |            90112
 2017-02-08 06:00:48.700234+01 | 1486530048.70023 | pgbench_accounts_pkey |        673882112

 2017-02-08 06:00:49.911123+01 | 1486530049.91112 | pgbench_branches_pkey |            16384
 2017-02-08 06:00:49.911123+01 | 1486530049.91112 | pgbench_tellers_pkey  |            90112
 2017-02-08 06:00:49.911123+01 | 1486530049.91112 | pgbench_accounts_pkey |        673882112

 2017-02-08 06:00:51.15455+01 | 1486530051.15455 | pgbench_branches_pkey |            16384
 2017-02-08 06:00:51.15455+01 | 1486530051.15455 | pgbench_tellers_pkey  |            90112
 2017-02-08 06:00:51.15455+01 | 1486530051.15455 | pgbench_accounts_pkey |        673882112

 2017-02-08 06:00:52.411662+01 | 1486530052.41166 | pgbench_branches_pkey |            16384
 2017-02-08 06:00:52.411662+01 | 1486530052.41166 | pgbench_tellers_pkey  |            90112
 2017-02-08 06:00:52.411662+01 | 1486530052.41166 | pgbench_accounts_pkey |        673882112

 2017-02-08 06:00:53.63555+01 | 1486530053.63555 | pgbench_branches_pkey |            16384
 2017-02-08 06:00:53.63555+01 | 1486530053.63555 | pgbench_tellers_pkey  |            90112
 2017-02-08 06:00:53.63555+01 | 1486530053.63555 | pgbench_accounts_pkey |        673882112

 2017-02-08 06:00:54.901937+01 | 1486530054.90194 | pgbench_branches_pkey |            16384
 2017-02-08 06:00:54.901937+01 | 1486530054.90194 | pgbench_tellers_pkey  |            90112
 2017-02-08 06:00:54.901937+01 | 1486530054.90194 | pgbench_accounts_pkey |        673882112

 2017-02-08 06:00:56.098167+01 | 1486530056.09817 | pgbench_branches_pkey |            16384
 2017-02-08 06:00:56.098167+01 | 1486530056.09817 | pgbench_tellers_pkey  |            90112
 2017-02-08 06:00:56.098167+01 | 1486530056.09817 | pgbench_accounts_pkey |        673882112

 2017-02-08 06:00:57.34326+01 | 1486530057.34326 | pgbench_branches_pkey |            16384
 2017-02-08 06:00:57.34326+01 | 1486530057.34326 | pgbench_tellers_pkey  |            90112
 2017-02-08 06:00:57.34326+01 | 1486530057.34326 | pgbench_accounts_pkey |        673882112

 2017-02-08 06:00:58.561335+01 | 1486530058.56134 | pgbench_branches_pkey |            16384
 2017-02-08 06:00:58.561335+01 | 1486530058.56134 | pgbench_tellers_pkey  |            90112
 2017-02-08 06:00:58.561335+01 | 1486530058.56134 | pgbench_accounts_pkey |        673882112

 2017-02-08 06:00:59.788982+01 | 1486530059.78898 | pgbench_branches_pkey |            16384
 2017-02-08 06:00:59.788982+01 | 1486530059.78898 | pgbench_tellers_pkey  |            90112
 2017-02-08 06:00:59.788982+01 | 1486530059.78898 | pgbench_accounts_pkey |        673882112

 2017-02-08 06:01:00.982749+01 | 1486530060.98275 | pgbench_branches_pkey |            16384
 2017-02-08 06:01:00.982749+01 | 1486530060.98275 | pgbench_tellers_pkey  |            90112
 2017-02-08 06:01:00.982749+01 | 1486530060.98275 | pgbench_accounts_pkey |        673882112

 2017-02-08 06:01:02.18294+01 | 1486530062.18294 | pgbench_branches_pkey |            16384
 2017-02-08 06:01:02.18294+01 | 1486530062.18294 | pgbench_tellers_pkey  |            90112
 2017-02-08 06:01:02.18294+01 | 1486530062.18294 | pgbench_accounts_pkey |        673882112

 2017-02-08 06:01:03.420281+01 | 1486530063.42028 | pgbench_branches_pkey |            16384
 2017-02-08 06:01:03.420281+01 | 1486530063.42028 | pgbench_tellers_pkey  |            90112
 2017-02-08 06:01:03.420281+01 | 1486530063.42028 | pgbench_accounts_pkey |        673882112

 2017-02-08 06:01:04.632807+01 | 1486530064.63281 | pgbench_branches_pkey |            16384
 2017-02-08 06:01:04.632807+01 | 1486530064.63281 | pgbench_tellers_pkey  |            90112
 2017-02-08 06:01:04.632807+01 | 1486530064.63281 | pgbench_accounts_pkey |        673882112

 2017-02-08 06:01:05.859627+01 | 1486530065.85963 | pgbench_branches_pkey |            16384
 2017-02-08 06:01:05.859627+01 | 1486530065.85963 | pgbench_tellers_pkey  |            90112
 2017-02-08 06:01:05.859627+01 | 1486530065.85963 | pgbench_accounts_pkey |        673882112

 2017-02-08 06:01:07.107013+01 | 1486530067.10701 | pgbench_branches_pkey |            16384
 2017-02-08 06:01:07.107013+01 | 1486530067.10701 | pgbench_tellers_pkey  |            90112
 2017-02-08 06:01:07.107013+01 | 1486530067.10701 | pgbench_accounts_pkey |        673882112

 2017-02-08 06:01:08.33782+01 | 1486530068.33782 | pgbench_branches_pkey |            16384
 2017-02-08 06:01:08.33782+01 | 1486530068.33782 | pgbench_tellers_pkey  |            90112
 2017-02-08 06:01:08.33782+01 | 1486530068.33782 | pgbench_accounts_pkey |        673882112

 2017-02-08 06:01:09.564921+01 | 1486530069.56492 | pgbench_branches_pkey |            16384
 2017-02-08 06:01:09.564921+01 | 1486530069.56492 | pgbench_tellers_pkey  |            90112
 2017-02-08 06:01:09.564921+01 | 1486530069.56492 | pgbench_accounts_pkey |        673882112

 2017-02-08 06:01:10.78132+01 | 1486530070.78132 | pgbench_branches_pkey |            16384
 2017-02-08 06:01:10.78132+01 | 1486530070.78132 | pgbench_tellers_pkey  |            90112
 2017-02-08 06:01:10.78132+01 | 1486530070.78132 | pgbench_accounts_pkey |        673882112

 2017-02-08 06:01:12.04922+01 | 1486530072.04922 | pgbench_branches_pkey |            16384
 2017-02-08 06:01:12.04922+01 | 1486530072.04922 | pgbench_tellers_pkey  |            90112
 2017-02-08 06:01:12.04922+01 | 1486530072.04922 | pgbench_accounts_pkey |        673882112

 2017-02-08 06:01:13.287363+01 | 1486530073.28736 | pgbench_branches_pkey |            16384
 2017-02-08 06:01:13.287363+01 | 1486530073.28736 | pgbench_tellers_pkey  |            90112
 2017-02-08 06:01:13.287363+01 | 1486530073.28736 | pgbench_accounts_pkey |        673882112

 2017-02-08 06:01:14.49033+01 | 1486530074.49033 | pgbench_branches_pkey |            16384
 2017-02-08 06:01:14.49033+01 | 1486530074.49033 | pgbench_tellers_pkey  |            90112
 2017-02-08 06:01:14.49033+01 | 1486530074.49033 | pgbench_accounts_pkey |        673882112

 2017-02-08 06:01:15.730021+01 | 1486530075.73002 | pgbench_branches_pkey |            16384
 2017-02-08 06:01:15.730021+01 | 1486530075.73002 | pgbench_tellers_pkey  |            90112
 2017-02-08 06:01:15.730021+01 | 1486530075.73002 | pgbench_accounts_pkey |        673882112

 2017-02-08 06:01:16.984297+01 | 1486530076.9843 | pgbench_branches_pkey |            16384
 2017-02-08 06:01:16.984297+01 | 1486530076.9843 | pgbench_tellers_pkey  |            90112
 2017-02-08 06:01:16.984297+01 | 1486530076.9843 | pgbench_accounts_pkey |        673882112

 2017-02-08 06:01:18.284307+01 | 1486530078.28431 | pgbench_branches_pkey |            16384
 2017-02-08 06:01:18.284307+01 | 1486530078.28431 | pgbench_tellers_pkey  |            90112
 2017-02-08 06:01:18.284307+01 | 1486530078.28431 | pgbench_accounts_pkey |        673882112

 2017-02-08 06:01:19.502695+01 | 1486530079.5027 | pgbench_branches_pkey |            16384
 2017-02-08 06:01:19.502695+01 | 1486530079.5027 | pgbench_tellers_pkey  |            90112
 2017-02-08 06:01:19.502695+01 | 1486530079.5027 | pgbench_accounts_pkey |        673882112

 2017-02-08 06:01:20.73922+01 | 1486530080.73922 | pgbench_branches_pkey |            16384
 2017-02-08 06:01:20.73922+01 | 1486530080.73922 | pgbench_tellers_pkey  |            90112
 2017-02-08 06:01:20.73922+01 | 1486530080.73922 | pgbench_accounts_pkey |        673882112

 2017-02-08 06:01:21.948424+01 | 1486530081.94842 | pgbench_branches_pkey |            16384
 2017-02-08 06:01:21.948424+01 | 1486530081.94842 | pgbench_tellers_pkey  |            90112
 2017-02-08 06:01:21.948424+01 | 1486530081.94842 | pgbench_accounts_pkey |        673882112

 2017-02-08 06:01:23.146423+01 | 1486530083.14642 | pgbench_branches_pkey |            16384
 2017-02-08 06:01:23.146423+01 | 1486530083.14642 | pgbench_tellers_pkey  |            90112
 2017-02-08 06:01:23.146423+01 | 1486530083.14642 | pgbench_accounts_pkey |        673882112

 2017-02-08 06:01:24.348632+01 | 1486530084.34863 | pgbench_branches_pkey |            16384
 2017-02-08 06:01:24.348632+01 | 1486530084.34863 | pgbench_tellers_pkey  |            90112
 2017-02-08 06:01:24.348632+01 | 1486530084.34863 | pgbench_accounts_pkey |        673882112

 2017-02-08 06:01:25.616473+01 | 1486530085.61647 | pgbench_branches_pkey |            16384
 2017-02-08 06:01:25.616473+01 | 1486530085.61647 | pgbench_tellers_pkey  |            90112
 2017-02-08 06:01:25.616473+01 | 1486530085.61647 | pgbench_accounts_pkey |        673882112

 2017-02-08 06:01:26.828093+01 | 1486530086.82809 | pgbench_branches_pkey |            16384
 2017-02-08 06:01:26.828093+01 | 1486530086.82809 | pgbench_tellers_pkey  |            90112
 2017-02-08 06:01:26.828093+01 | 1486530086.82809 | pgbench_accounts_pkey |        673882112

 2017-02-08 06:01:28.044784+01 | 1486530088.04478 | pgbench_branches_pkey |            16384
 2017-02-08 06:01:28.044784+01 | 1486530088.04478 | pgbench_tellers_pkey  |            90112
 2017-02-08 06:01:28.044784+01 | 1486530088.04478 | pgbench_accounts_pkey |        673882112

 2017-02-08 06:01:29.285241+01 | 1486530089.28524 | pgbench_branches_pkey |            16384
 2017-02-08 06:01:29.285241+01 | 1486530089.28524 | pgbench_tellers_pkey  |            90112
 2017-02-08 06:01:29.285241+01 | 1486530089.28524 | pgbench_accounts_pkey |        673882112

 2017-02-08 06:01:30.480718+01 | 1486530090.48072 | pgbench_branches_pkey |            16384
 2017-02-08 06:01:30.480718+01 | 1486530090.48072 | pgbench_tellers_pkey  |            90112
 2017-02-08 06:01:30.480718+01 | 1486530090.48072 | pgbench_accounts_pkey |        673882112

 2017-02-08 06:01:31.680711+01 | 1486530091.68071 | pgbench_branches_pkey |            16384
 2017-02-08 06:01:31.680711+01 | 1486530091.68071 | pgbench_tellers_pkey  |            90112
 2017-02-08 06:01:31.680711+01 | 1486530091.68071 | pgbench_accounts_pkey |        673882112

 2017-02-08 06:01:32.919973+01 | 1486530092.91997 | pgbench_branches_pkey |            16384
 2017-02-08 06:01:32.919973+01 | 1486530092.91997 | pgbench_tellers_pkey  |            90112
 2017-02-08 06:01:32.919973+01 | 1486530092.91997 | pgbench_accounts_pkey |        673882112

 2017-02-08 06:01:34.119401+01 | 1486530094.1194 | pgbench_branches_pkey |            16384
 2017-02-08 06:01:34.119401+01 | 1486530094.1194 | pgbench_tellers_pkey  |            90112
 2017-02-08 06:01:34.119401+01 | 1486530094.1194 | pgbench_accounts_pkey |        673882112

 2017-02-08 06:01:35.342274+01 | 1486530095.34227 | pgbench_branches_pkey |            16384
 2017-02-08 06:01:35.342274+01 | 1486530095.34227 | pgbench_tellers_pkey  |            90112
 2017-02-08 06:01:35.342274+01 | 1486530095.34227 | pgbench_accounts_pkey |        673882112

 2017-02-08 06:01:36.546308+01 | 1486530096.54631 | pgbench_branches_pkey |            16384
 2017-02-08 06:01:36.546308+01 | 1486530096.54631 | pgbench_tellers_pkey  |            90112
 2017-02-08 06:01:36.546308+01 | 1486530096.54631 | pgbench_accounts_pkey |        673882112

 2017-02-08 06:01:37.792732+01 | 1486530097.79273 | pgbench_branches_pkey |            16384
 2017-02-08 06:01:37.792732+01 | 1486530097.79273 | pgbench_tellers_pkey  |            90112
 2017-02-08 06:01:37.792732+01 | 1486530097.79273 | pgbench_accounts_pkey |        673882112

 2017-02-08 06:01:38.960589+01 | 1486530098.96059 | pgbench_branches_pkey |            16384
 2017-02-08 06:01:38.960589+01 | 1486530098.96059 | pgbench_tellers_pkey  |            90112
 2017-02-08 06:01:38.960589+01 | 1486530098.96059 | pgbench_accounts_pkey |        673882112

 2017-02-08 06:01:40.188949+01 | 1486530100.18895 | pgbench_branches_pkey |            16384
 2017-02-08 06:01:40.188949+01 | 1486530100.18895 | pgbench_tellers_pkey  |            90112
 2017-02-08 06:01:40.188949+01 | 1486530100.18895 | pgbench_accounts_pkey |        673882112

 2017-02-08 06:01:41.384425+01 | 1486530101.38442 | pgbench_branches_pkey |            16384
 2017-02-08 06:01:41.384425+01 | 1486530101.38442 | pgbench_tellers_pkey  |            90112
 2017-02-08 06:01:41.384425+01 | 1486530101.38442 | pgbench_accounts_pkey |        673882112

 2017-02-08 06:01:42.626917+01 | 1486530102.62692 | pgbench_branches_pkey |            16384
 2017-02-08 06:01:42.626917+01 | 1486530102.62692 | pgbench_tellers_pkey  |            90112
 2017-02-08 06:01:42.626917+01 | 1486530102.62692 | pgbench_accounts_pkey |        673882112

 2017-02-08 06:01:43.914791+01 | 1486530103.91479 | pgbench_branches_pkey |            16384
 2017-02-08 06:01:43.914791+01 | 1486530103.91479 | pgbench_tellers_pkey  |            90112
 2017-02-08 06:01:43.914791+01 | 1486530103.91479 | pgbench_accounts_pkey |        673882112

 2017-02-08 06:01:45.190374+01 | 1486530105.19037 | pgbench_branches_pkey |            16384
 2017-02-08 06:01:45.190374+01 | 1486530105.19037 | pgbench_tellers_pkey  |            90112
 2017-02-08 06:01:45.190374+01 | 1486530105.19037 | pgbench_accounts_pkey |        673882112

 2017-02-08 06:01:46.463461+01 | 1486530106.46346 | pgbench_branches_pkey |            16384
 2017-02-08 06:01:46.463461+01 | 1486530106.46346 | pgbench_tellers_pkey  |            90112
 2017-02-08 06:01:46.463461+01 | 1486530106.46346 | pgbench_accounts_pkey |        673882112

 2017-02-08 06:01:47.69829+01 | 1486530107.69829 | pgbench_branches_pkey |            16384
 2017-02-08 06:01:47.69829+01 | 1486530107.69829 | pgbench_tellers_pkey  |            90112
 2017-02-08 06:01:47.69829+01 | 1486530107.69829 | pgbench_accounts_pkey |        673882112

 2017-02-08 06:01:48.828609+01 | 1486530108.82861 | pgbench_branches_pkey |            16384
 2017-02-08 06:01:48.828609+01 | 1486530108.82861 | pgbench_tellers_pkey  |            90112
 2017-02-08 06:01:48.828609+01 | 1486530108.82861 | pgbench_accounts_pkey |        673882112

 2017-02-08 06:01:50.077456+01 | 1486530110.07746 | pgbench_branches_pkey |            16384
 2017-02-08 06:01:50.077456+01 | 1486530110.07746 | pgbench_tellers_pkey  |            90112
 2017-02-08 06:01:50.077456+01 | 1486530110.07746 | pgbench_accounts_pkey |        673882112

 2017-02-08 06:01:51.329155+01 | 1486530111.32915 | pgbench_branches_pkey |            16384
 2017-02-08 06:01:51.329155+01 | 1486530111.32915 | pgbench_tellers_pkey  |            90112
 2017-02-08 06:01:51.329155+01 | 1486530111.32915 | pgbench_accounts_pkey |        673882112

 2017-02-08 06:01:52.625638+01 | 1486530112.62564 | pgbench_branches_pkey |            16384
 2017-02-08 06:01:52.625638+01 | 1486530112.62564 | pgbench_tellers_pkey  |            90112
 2017-02-08 06:01:52.625638+01 | 1486530112.62564 | pgbench_accounts_pkey |        673882112

 2017-02-08 06:01:53.905121+01 | 1486530113.90512 | pgbench_branches_pkey |            16384
 2017-02-08 06:01:53.905121+01 | 1486530113.90512 | pgbench_tellers_pkey  |            90112
 2017-02-08 06:01:53.905121+01 | 1486530113.90512 | pgbench_accounts_pkey |        673882112

 2017-02-08 06:01:55.162736+01 | 1486530115.16274 | pgbench_branches_pkey |            16384
 2017-02-08 06:01:55.162736+01 | 1486530115.16274 | pgbench_tellers_pkey  |            90112
 2017-02-08 06:01:55.162736+01 | 1486530115.16274 | pgbench_accounts_pkey |        673882112

 2017-02-08 06:01:56.376312+01 | 1486530116.37631 | pgbench_branches_pkey |            16384
 2017-02-08 06:01:56.376312+01 | 1486530116.37631 | pgbench_tellers_pkey  |            90112
 2017-02-08 06:01:56.376312+01 | 1486530116.37631 | pgbench_accounts_pkey |        673882112

 2017-02-08 06:01:57.555795+01 | 1486530117.55579 | pgbench_branches_pkey |            16384
 2017-02-08 06:01:57.555795+01 | 1486530117.55579 | pgbench_tellers_pkey  |            90112
 2017-02-08 06:01:57.555795+01 | 1486530117.55579 | pgbench_accounts_pkey |        673882112

 2017-02-08 06:01:58.745082+01 | 1486530118.74508 | pgbench_branches_pkey |            16384
 2017-02-08 06:01:58.745082+01 | 1486530118.74508 | pgbench_tellers_pkey  |            90112
 2017-02-08 06:01:58.745082+01 | 1486530118.74508 | pgbench_accounts_pkey |        673882112

 2017-02-08 06:01:59.984859+01 | 1486530119.98486 | pgbench_branches_pkey |            16384
 2017-02-08 06:01:59.984859+01 | 1486530119.98486 | pgbench_tellers_pkey  |            90112
 2017-02-08 06:01:59.984859+01 | 1486530119.98486 | pgbench_accounts_pkey |        673882112

 2017-02-08 06:02:01.224026+01 | 1486530121.22403 | pgbench_branches_pkey |            16384
 2017-02-08 06:02:01.224026+01 | 1486530121.22403 | pgbench_tellers_pkey  |            90112
 2017-02-08 06:02:01.224026+01 | 1486530121.22403 | pgbench_accounts_pkey |        673882112

 2017-02-08 06:02:02.468363+01 | 1486530122.46836 | pgbench_branches_pkey |            16384
 2017-02-08 06:02:02.468363+01 | 1486530122.46836 | pgbench_tellers_pkey  |            90112
 2017-02-08 06:02:02.468363+01 | 1486530122.46836 | pgbench_accounts_pkey |        673882112

 2017-02-08 06:02:03.69073+01 | 1486530123.69073 | pgbench_branches_pkey |            16384
 2017-02-08 06:02:03.69073+01 | 1486530123.69073 | pgbench_tellers_pkey  |            90112
 2017-02-08 06:02:03.69073+01 | 1486530123.69073 | pgbench_accounts_pkey |        673882112

 2017-02-08 06:02:04.923229+01 | 1486530124.92323 | pgbench_branches_pkey |            16384
 2017-02-08 06:02:04.923229+01 | 1486530124.92323 | pgbench_tellers_pkey  |            90112
 2017-02-08 06:02:04.923229+01 | 1486530124.92323 | pgbench_accounts_pkey |        673882112

 2017-02-08 06:02:06.106601+01 | 1486530126.1066 | pgbench_branches_pkey |            16384
 2017-02-08 06:02:06.106601+01 | 1486530126.1066 | pgbench_tellers_pkey  |            90112
 2017-02-08 06:02:06.106601+01 | 1486530126.1066 | pgbench_accounts_pkey |        673882112

 2017-02-08 06:02:07.282757+01 | 1486530127.28276 | pgbench_branches_pkey |            16384
 2017-02-08 06:02:07.282757+01 | 1486530127.28276 | pgbench_tellers_pkey  |            90112
 2017-02-08 06:02:07.282757+01 | 1486530127.28276 | pgbench_accounts_pkey |        673882112

 2017-02-08 06:02:08.479191+01 | 1486530128.47919 | pgbench_branches_pkey |            16384
 2017-02-08 06:02:08.479191+01 | 1486530128.47919 | pgbench_tellers_pkey  |            90112
 2017-02-08 06:02:08.479191+01 | 1486530128.47919 | pgbench_accounts_pkey |        673882112

 2017-02-08 06:02:09.721546+01 | 1486530129.72155 | pgbench_branches_pkey |            16384
 2017-02-08 06:02:09.721546+01 | 1486530129.72155 | pgbench_tellers_pkey  |            90112
 2017-02-08 06:02:09.721546+01 | 1486530129.72155 | pgbench_accounts_pkey |        673882112

 2017-02-08 06:02:11.017968+01 | 1486530131.01797 | pgbench_branches_pkey |            16384
 2017-02-08 06:02:11.017968+01 | 1486530131.01797 | pgbench_tellers_pkey  |            90112
 2017-02-08 06:02:11.017968+01 | 1486530131.01797 | pgbench_accounts_pkey |        673882112

 2017-02-08 06:02:12.248702+01 | 1486530132.2487 | pgbench_branches_pkey |            16384
 2017-02-08 06:02:12.248702+01 | 1486530132.2487 | pgbench_tellers_pkey  |            90112
 2017-02-08 06:02:12.248702+01 | 1486530132.2487 | pgbench_accounts_pkey |        673882112

 2017-02-08 06:02:13.486831+01 | 1486530133.48683 | pgbench_branches_pkey |            16384
 2017-02-08 06:02:13.486831+01 | 1486530133.48683 | pgbench_tellers_pkey  |            90112
 2017-02-08 06:02:13.486831+01 | 1486530133.48683 | pgbench_accounts_pkey |        673882112

 2017-02-08 06:02:14.686246+01 | 1486530134.68625 | pgbench_branches_pkey |            16384
 2017-02-08 06:02:14.686246+01 | 1486530134.68625 | pgbench_tellers_pkey  |            90112
 2017-02-08 06:02:14.686246+01 | 1486530134.68625 | pgbench_accounts_pkey |        673882112

 2017-02-08 06:02:15.918604+01 | 1486530135.9186 | pgbench_branches_pkey |            16384
 2017-02-08 06:02:15.918604+01 | 1486530135.9186 | pgbench_tellers_pkey  |            90112
 2017-02-08 06:02:15.918604+01 | 1486530135.9186 | pgbench_accounts_pkey |        673882112

 2017-02-08 06:02:17.164989+01 | 1486530137.16499 | pgbench_branches_pkey |            16384
 2017-02-08 06:02:17.164989+01 | 1486530137.16499 | pgbench_tellers_pkey  |            90112
 2017-02-08 06:02:17.164989+01 | 1486530137.16499 | pgbench_accounts_pkey |        673882112

 2017-02-08 06:02:18.412403+01 | 1486530138.4124 | pgbench_branches_pkey |            16384
 2017-02-08 06:02:18.412403+01 | 1486530138.4124 | pgbench_tellers_pkey  |            90112
 2017-02-08 06:02:18.412403+01 | 1486530138.4124 | pgbench_accounts_pkey |        673882112

 2017-02-08 06:02:19.648881+01 | 1486530139.64888 | pgbench_branches_pkey |            16384
 2017-02-08 06:02:19.648881+01 | 1486530139.64888 | pgbench_tellers_pkey  |            90112
 2017-02-08 06:02:19.648881+01 | 1486530139.64888 | pgbench_accounts_pkey |        673882112

 2017-02-08 06:02:20.866405+01 | 1486530140.86641 | pgbench_branches_pkey |            16384
 2017-02-08 06:02:20.866405+01 | 1486530140.86641 | pgbench_tellers_pkey  |            90112
 2017-02-08 06:02:20.866405+01 | 1486530140.86641 | pgbench_accounts_pkey |        673882112

 2017-02-08 06:02:22.068795+01 | 1486530142.06879 | pgbench_branches_pkey |            16384
 2017-02-08 06:02:22.068795+01 | 1486530142.06879 | pgbench_tellers_pkey  |            90112
 2017-02-08 06:02:22.068795+01 | 1486530142.06879 | pgbench_accounts_pkey |        673882112

