 2017-02-08 05:57:23.464686+01 | 1486529843.46469 | pgbench_accounts |       4028858368
 2017-02-08 05:57:23.464686+01 | 1486529843.46469 | pgbench_tellers  |           139264
 2017-02-08 05:57:23.464686+01 | 1486529843.46469 | pgbench_history  |                0
 2017-02-08 05:57:23.464686+01 | 1486529843.46469 | pgbench_branches |            16384

 2017-02-08 05:57:24.678459+01 | 1486529844.67846 | pgbench_accounts |       4028858368
 2017-02-08 05:57:24.678459+01 | 1486529844.67846 | pgbench_tellers  |           139264
 2017-02-08 05:57:24.678459+01 | 1486529844.67846 | pgbench_history  |                0
 2017-02-08 05:57:24.678459+01 | 1486529844.67846 | pgbench_branches |            16384

 2017-02-08 05:57:25.884308+01 | 1486529845.88431 | pgbench_accounts |       4028858368
 2017-02-08 05:57:25.884308+01 | 1486529845.88431 | pgbench_tellers  |           139264
 2017-02-08 05:57:25.884308+01 | 1486529845.88431 | pgbench_history  |                0
 2017-02-08 05:57:25.884308+01 | 1486529845.88431 | pgbench_branches |            16384

 2017-02-08 05:57:27.061141+01 | 1486529847.06114 | pgbench_accounts |       4028858368
 2017-02-08 05:57:27.061141+01 | 1486529847.06114 | pgbench_tellers  |           139264
 2017-02-08 05:57:27.061141+01 | 1486529847.06114 | pgbench_history  |                0
 2017-02-08 05:57:27.061141+01 | 1486529847.06114 | pgbench_branches |            16384

 2017-02-08 05:57:28.325935+01 | 1486529848.32593 | pgbench_accounts |       4028858368
 2017-02-08 05:57:28.325935+01 | 1486529848.32593 | pgbench_tellers  |           139264
 2017-02-08 05:57:28.325935+01 | 1486529848.32593 | pgbench_history  |                0
 2017-02-08 05:57:28.325935+01 | 1486529848.32593 | pgbench_branches |            16384

 2017-02-08 05:57:29.56217+01 | 1486529849.56217 | pgbench_accounts |       4028858368
 2017-02-08 05:57:29.56217+01 | 1486529849.56217 | pgbench_tellers  |           139264
 2017-02-08 05:57:29.56217+01 | 1486529849.56217 | pgbench_history  |                0
 2017-02-08 05:57:29.56217+01 | 1486529849.56217 | pgbench_branches |            16384

 2017-02-08 05:57:30.734957+01 | 1486529850.73496 | pgbench_accounts |       4028858368
 2017-02-08 05:57:30.734957+01 | 1486529850.73496 | pgbench_tellers  |           139264
 2017-02-08 05:57:30.734957+01 | 1486529850.73496 | pgbench_history  |                0
 2017-02-08 05:57:30.734957+01 | 1486529850.73496 | pgbench_branches |            16384

 2017-02-08 05:57:31.908401+01 | 1486529851.9084 | pgbench_accounts |       4028858368
 2017-02-08 05:57:31.908401+01 | 1486529851.9084 | pgbench_tellers  |           139264
 2017-02-08 05:57:31.908401+01 | 1486529851.9084 | pgbench_history  |                0
 2017-02-08 05:57:31.908401+01 | 1486529851.9084 | pgbench_branches |            16384

 2017-02-08 05:57:33.139641+01 | 1486529853.13964 | pgbench_accounts |       4028858368
 2017-02-08 05:57:33.139641+01 | 1486529853.13964 | pgbench_tellers  |           139264
 2017-02-08 05:57:33.139641+01 | 1486529853.13964 | pgbench_history  |                0
 2017-02-08 05:57:33.139641+01 | 1486529853.13964 | pgbench_branches |            16384

 2017-02-08 05:57:34.359085+01 | 1486529854.35909 | pgbench_accounts |       4028858368
 2017-02-08 05:57:34.359085+01 | 1486529854.35909 | pgbench_tellers  |           139264
 2017-02-08 05:57:34.359085+01 | 1486529854.35909 | pgbench_history  |                0
 2017-02-08 05:57:34.359085+01 | 1486529854.35909 | pgbench_branches |            16384

 2017-02-08 05:57:35.601749+01 | 1486529855.60175 | pgbench_accounts |       4028858368
 2017-02-08 05:57:35.601749+01 | 1486529855.60175 | pgbench_tellers  |           139264
 2017-02-08 05:57:35.601749+01 | 1486529855.60175 | pgbench_history  |                0
 2017-02-08 05:57:35.601749+01 | 1486529855.60175 | pgbench_branches |            16384

 2017-02-08 05:57:36.845773+01 | 1486529856.84577 | pgbench_accounts |       4028858368
 2017-02-08 05:57:36.845773+01 | 1486529856.84577 | pgbench_tellers  |           139264
 2017-02-08 05:57:36.845773+01 | 1486529856.84577 | pgbench_history  |                0
 2017-02-08 05:57:36.845773+01 | 1486529856.84577 | pgbench_branches |            16384

 2017-02-08 05:57:38.085967+01 | 1486529858.08597 | pgbench_accounts |       4028858368
 2017-02-08 05:57:38.085967+01 | 1486529858.08597 | pgbench_tellers  |           139264
 2017-02-08 05:57:38.085967+01 | 1486529858.08597 | pgbench_history  |                0
 2017-02-08 05:57:38.085967+01 | 1486529858.08597 | pgbench_branches |            16384

 2017-02-08 05:57:39.307832+01 | 1486529859.30783 | pgbench_accounts |       4028858368
 2017-02-08 05:57:39.307832+01 | 1486529859.30783 | pgbench_tellers  |           139264
 2017-02-08 05:57:39.307832+01 | 1486529859.30783 | pgbench_history  |                0
 2017-02-08 05:57:39.307832+01 | 1486529859.30783 | pgbench_branches |            16384

 2017-02-08 05:57:40.537985+01 | 1486529860.53799 | pgbench_accounts |       4028858368
 2017-02-08 05:57:40.537985+01 | 1486529860.53799 | pgbench_tellers  |           139264
 2017-02-08 05:57:40.537985+01 | 1486529860.53799 | pgbench_history  |                0
 2017-02-08 05:57:40.537985+01 | 1486529860.53799 | pgbench_branches |            16384

 2017-02-08 05:57:41.724021+01 | 1486529861.72402 | pgbench_accounts |       4028858368
 2017-02-08 05:57:41.724021+01 | 1486529861.72402 | pgbench_tellers  |           139264
 2017-02-08 05:57:41.724021+01 | 1486529861.72402 | pgbench_history  |                0
 2017-02-08 05:57:41.724021+01 | 1486529861.72402 | pgbench_branches |            16384

 2017-02-08 05:57:42.940746+01 | 1486529862.94075 | pgbench_accounts |       4028858368
 2017-02-08 05:57:42.940746+01 | 1486529862.94075 | pgbench_tellers  |           139264
 2017-02-08 05:57:42.940746+01 | 1486529862.94075 | pgbench_history  |                0
 2017-02-08 05:57:42.940746+01 | 1486529862.94075 | pgbench_branches |            16384

 2017-02-08 05:57:44.18357+01 | 1486529864.18357 | pgbench_accounts |       4028858368
 2017-02-08 05:57:44.18357+01 | 1486529864.18357 | pgbench_tellers  |           139264
 2017-02-08 05:57:44.18357+01 | 1486529864.18357 | pgbench_history  |                0
 2017-02-08 05:57:44.18357+01 | 1486529864.18357 | pgbench_branches |            16384

 2017-02-08 05:57:45.417237+01 | 1486529865.41724 | pgbench_accounts |       4028858368
 2017-02-08 05:57:45.417237+01 | 1486529865.41724 | pgbench_tellers  |           139264
 2017-02-08 05:57:45.417237+01 | 1486529865.41724 | pgbench_history  |                0
 2017-02-08 05:57:45.417237+01 | 1486529865.41724 | pgbench_branches |            16384

 2017-02-08 05:57:46.63231+01 | 1486529866.63231 | pgbench_accounts |       4028858368
 2017-02-08 05:57:46.63231+01 | 1486529866.63231 | pgbench_tellers  |           139264
 2017-02-08 05:57:46.63231+01 | 1486529866.63231 | pgbench_history  |                0
 2017-02-08 05:57:46.63231+01 | 1486529866.63231 | pgbench_branches |            16384

 2017-02-08 05:57:47.86455+01 | 1486529867.86455 | pgbench_accounts |       4028858368
 2017-02-08 05:57:47.86455+01 | 1486529867.86455 | pgbench_tellers  |           139264
 2017-02-08 05:57:47.86455+01 | 1486529867.86455 | pgbench_history  |                0
 2017-02-08 05:57:47.86455+01 | 1486529867.86455 | pgbench_branches |            16384

 2017-02-08 05:57:49.103015+01 | 1486529869.10301 | pgbench_accounts |       4028858368
 2017-02-08 05:57:49.103015+01 | 1486529869.10301 | pgbench_tellers  |           139264
 2017-02-08 05:57:49.103015+01 | 1486529869.10301 | pgbench_history  |                0
 2017-02-08 05:57:49.103015+01 | 1486529869.10301 | pgbench_branches |            16384

 2017-02-08 05:57:50.388761+01 | 1486529870.38876 | pgbench_accounts |       4028858368
 2017-02-08 05:57:50.388761+01 | 1486529870.38876 | pgbench_tellers  |           139264
 2017-02-08 05:57:50.388761+01 | 1486529870.38876 | pgbench_history  |                0
 2017-02-08 05:57:50.388761+01 | 1486529870.38876 | pgbench_branches |            16384

 2017-02-08 05:57:51.580216+01 | 1486529871.58022 | pgbench_accounts |       4028858368
 2017-02-08 05:57:51.580216+01 | 1486529871.58022 | pgbench_tellers  |           139264
 2017-02-08 05:57:51.580216+01 | 1486529871.58022 | pgbench_history  |                0
 2017-02-08 05:57:51.580216+01 | 1486529871.58022 | pgbench_branches |            16384

 2017-02-08 05:57:52.818388+01 | 1486529872.81839 | pgbench_accounts |       4028858368
 2017-02-08 05:57:52.818388+01 | 1486529872.81839 | pgbench_tellers  |           139264
 2017-02-08 05:57:52.818388+01 | 1486529872.81839 | pgbench_history  |                0
 2017-02-08 05:57:52.818388+01 | 1486529872.81839 | pgbench_branches |            16384

 2017-02-08 05:57:54.024726+01 | 1486529874.02473 | pgbench_accounts |       4028858368
 2017-02-08 05:57:54.024726+01 | 1486529874.02473 | pgbench_tellers  |           139264
 2017-02-08 05:57:54.024726+01 | 1486529874.02473 | pgbench_history  |                0
 2017-02-08 05:57:54.024726+01 | 1486529874.02473 | pgbench_branches |            16384

 2017-02-08 05:57:55.239845+01 | 1486529875.23985 | pgbench_accounts |       4028858368
 2017-02-08 05:57:55.239845+01 | 1486529875.23985 | pgbench_tellers  |           139264
 2017-02-08 05:57:55.239845+01 | 1486529875.23985 | pgbench_history  |                0
 2017-02-08 05:57:55.239845+01 | 1486529875.23985 | pgbench_branches |            16384

 2017-02-08 05:57:56.481322+01 | 1486529876.48132 | pgbench_accounts |       4028858368
 2017-02-08 05:57:56.481322+01 | 1486529876.48132 | pgbench_tellers  |           139264
 2017-02-08 05:57:56.481322+01 | 1486529876.48132 | pgbench_history  |                0
 2017-02-08 05:57:56.481322+01 | 1486529876.48132 | pgbench_branches |            16384

 2017-02-08 05:57:57.769552+01 | 1486529877.76955 | pgbench_accounts |       4028858368
 2017-02-08 05:57:57.769552+01 | 1486529877.76955 | pgbench_tellers  |           139264
 2017-02-08 05:57:57.769552+01 | 1486529877.76955 | pgbench_history  |                0
 2017-02-08 05:57:57.769552+01 | 1486529877.76955 | pgbench_branches |            16384

 2017-02-08 05:57:59.034372+01 | 1486529879.03437 | pgbench_accounts |       4028858368
 2017-02-08 05:57:59.034372+01 | 1486529879.03437 | pgbench_tellers  |           139264
 2017-02-08 05:57:59.034372+01 | 1486529879.03437 | pgbench_history  |                0
 2017-02-08 05:57:59.034372+01 | 1486529879.03437 | pgbench_branches |            16384

 2017-02-08 05:58:00.233177+01 | 1486529880.23318 | pgbench_accounts |       4028858368
 2017-02-08 05:58:00.233177+01 | 1486529880.23318 | pgbench_tellers  |           139264
 2017-02-08 05:58:00.233177+01 | 1486529880.23318 | pgbench_history  |                0
 2017-02-08 05:58:00.233177+01 | 1486529880.23318 | pgbench_branches |            16384

 2017-02-08 05:58:01.447985+01 | 1486529881.44798 | pgbench_accounts |       4028858368
 2017-02-08 05:58:01.447985+01 | 1486529881.44798 | pgbench_tellers  |           139264
 2017-02-08 05:58:01.447985+01 | 1486529881.44798 | pgbench_history  |                0
 2017-02-08 05:58:01.447985+01 | 1486529881.44798 | pgbench_branches |            16384

 2017-02-08 05:58:02.706311+01 | 1486529882.70631 | pgbench_accounts |       4028858368
 2017-02-08 05:58:02.706311+01 | 1486529882.70631 | pgbench_tellers  |           139264
 2017-02-08 05:58:02.706311+01 | 1486529882.70631 | pgbench_history  |                0
 2017-02-08 05:58:02.706311+01 | 1486529882.70631 | pgbench_branches |            16384

 2017-02-08 05:58:03.99598+01 | 1486529883.99598 | pgbench_accounts |       4028858368
 2017-02-08 05:58:03.99598+01 | 1486529883.99598 | pgbench_tellers  |           139264
 2017-02-08 05:58:03.99598+01 | 1486529883.99598 | pgbench_history  |                0
 2017-02-08 05:58:03.99598+01 | 1486529883.99598 | pgbench_branches |            16384

 2017-02-08 05:58:05.229556+01 | 1486529885.22956 | pgbench_accounts |       4028858368
 2017-02-08 05:58:05.229556+01 | 1486529885.22956 | pgbench_tellers  |           139264
 2017-02-08 05:58:05.229556+01 | 1486529885.22956 | pgbench_history  |                0
 2017-02-08 05:58:05.229556+01 | 1486529885.22956 | pgbench_branches |            16384

 2017-02-08 05:58:06.439348+01 | 1486529886.43935 | pgbench_accounts |       4028858368
 2017-02-08 05:58:06.439348+01 | 1486529886.43935 | pgbench_tellers  |           139264
 2017-02-08 05:58:06.439348+01 | 1486529886.43935 | pgbench_history  |                0
 2017-02-08 05:58:06.439348+01 | 1486529886.43935 | pgbench_branches |            16384

 2017-02-08 05:58:07.678564+01 | 1486529887.67856 | pgbench_accounts |       4028858368
 2017-02-08 05:58:07.678564+01 | 1486529887.67856 | pgbench_tellers  |           139264
 2017-02-08 05:58:07.678564+01 | 1486529887.67856 | pgbench_history  |                0
 2017-02-08 05:58:07.678564+01 | 1486529887.67856 | pgbench_branches |            16384

 2017-02-08 05:58:08.914771+01 | 1486529888.91477 | pgbench_accounts |       4028858368
 2017-02-08 05:58:08.914771+01 | 1486529888.91477 | pgbench_tellers  |           139264
 2017-02-08 05:58:08.914771+01 | 1486529888.91477 | pgbench_history  |                0
 2017-02-08 05:58:08.914771+01 | 1486529888.91477 | pgbench_branches |            16384

 2017-02-08 05:58:10.135803+01 | 1486529890.1358 | pgbench_accounts |       4028858368
 2017-02-08 05:58:10.135803+01 | 1486529890.1358 | pgbench_tellers  |           139264
 2017-02-08 05:58:10.135803+01 | 1486529890.1358 | pgbench_history  |                0
 2017-02-08 05:58:10.135803+01 | 1486529890.1358 | pgbench_branches |            16384

 2017-02-08 05:58:11.37059+01 | 1486529891.37059 | pgbench_accounts |       4028858368
 2017-02-08 05:58:11.37059+01 | 1486529891.37059 | pgbench_tellers  |           139264
 2017-02-08 05:58:11.37059+01 | 1486529891.37059 | pgbench_history  |                0
 2017-02-08 05:58:11.37059+01 | 1486529891.37059 | pgbench_branches |            16384

 2017-02-08 05:58:12.510888+01 | 1486529892.51089 | pgbench_accounts |       4028858368
 2017-02-08 05:58:12.510888+01 | 1486529892.51089 | pgbench_tellers  |           139264
 2017-02-08 05:58:12.510888+01 | 1486529892.51089 | pgbench_history  |                0
 2017-02-08 05:58:12.510888+01 | 1486529892.51089 | pgbench_branches |            16384

 2017-02-08 05:58:13.729219+01 | 1486529893.72922 | pgbench_accounts |       4028858368
 2017-02-08 05:58:13.729219+01 | 1486529893.72922 | pgbench_tellers  |           139264
 2017-02-08 05:58:13.729219+01 | 1486529893.72922 | pgbench_history  |                0
 2017-02-08 05:58:13.729219+01 | 1486529893.72922 | pgbench_branches |            16384

 2017-02-08 05:58:14.926476+01 | 1486529894.92648 | pgbench_accounts |       4028858368
 2017-02-08 05:58:14.926476+01 | 1486529894.92648 | pgbench_tellers  |           139264
 2017-02-08 05:58:14.926476+01 | 1486529894.92648 | pgbench_history  |                0
 2017-02-08 05:58:14.926476+01 | 1486529894.92648 | pgbench_branches |            16384

 2017-02-08 05:58:16.171178+01 | 1486529896.17118 | pgbench_accounts |       4028858368
 2017-02-08 05:58:16.171178+01 | 1486529896.17118 | pgbench_tellers  |           139264
 2017-02-08 05:58:16.171178+01 | 1486529896.17118 | pgbench_history  |                0
 2017-02-08 05:58:16.171178+01 | 1486529896.17118 | pgbench_branches |            16384

 2017-02-08 05:58:17.368132+01 | 1486529897.36813 | pgbench_accounts |       4028858368
 2017-02-08 05:58:17.368132+01 | 1486529897.36813 | pgbench_tellers  |           139264
 2017-02-08 05:58:17.368132+01 | 1486529897.36813 | pgbench_history  |                0
 2017-02-08 05:58:17.368132+01 | 1486529897.36813 | pgbench_branches |            16384

 2017-02-08 05:58:18.613565+01 | 1486529898.61356 | pgbench_accounts |       4028858368
 2017-02-08 05:58:18.613565+01 | 1486529898.61356 | pgbench_tellers  |           139264
 2017-02-08 05:58:18.613565+01 | 1486529898.61356 | pgbench_history  |                0
 2017-02-08 05:58:18.613565+01 | 1486529898.61356 | pgbench_branches |            16384

 2017-02-08 05:58:19.86565+01 | 1486529899.86565 | pgbench_accounts |       4028858368
 2017-02-08 05:58:19.86565+01 | 1486529899.86565 | pgbench_tellers  |           139264
 2017-02-08 05:58:19.86565+01 | 1486529899.86565 | pgbench_history  |                0
 2017-02-08 05:58:19.86565+01 | 1486529899.86565 | pgbench_branches |            16384

 2017-02-08 05:58:21.048121+01 | 1486529901.04812 | pgbench_accounts |       4028858368
 2017-02-08 05:58:21.048121+01 | 1486529901.04812 | pgbench_tellers  |           139264
 2017-02-08 05:58:21.048121+01 | 1486529901.04812 | pgbench_history  |                0
 2017-02-08 05:58:21.048121+01 | 1486529901.04812 | pgbench_branches |            16384

 2017-02-08 05:58:22.314423+01 | 1486529902.31442 | pgbench_accounts |       4028858368
 2017-02-08 05:58:22.314423+01 | 1486529902.31442 | pgbench_tellers  |           139264
 2017-02-08 05:58:22.314423+01 | 1486529902.31442 | pgbench_history  |                0
 2017-02-08 05:58:22.314423+01 | 1486529902.31442 | pgbench_branches |            16384

 2017-02-08 05:58:23.515183+01 | 1486529903.51518 | pgbench_accounts |       4028858368
 2017-02-08 05:58:23.515183+01 | 1486529903.51518 | pgbench_tellers  |           139264
 2017-02-08 05:58:23.515183+01 | 1486529903.51518 | pgbench_history  |                0
 2017-02-08 05:58:23.515183+01 | 1486529903.51518 | pgbench_branches |            16384

 2017-02-08 05:58:24.762911+01 | 1486529904.76291 | pgbench_accounts |       4028858368
 2017-02-08 05:58:24.762911+01 | 1486529904.76291 | pgbench_tellers  |           139264
 2017-02-08 05:58:24.762911+01 | 1486529904.76291 | pgbench_history  |                0
 2017-02-08 05:58:24.762911+01 | 1486529904.76291 | pgbench_branches |            16384

 2017-02-08 05:58:25.976377+01 | 1486529905.97638 | pgbench_accounts |       4028858368
 2017-02-08 05:58:25.976377+01 | 1486529905.97638 | pgbench_tellers  |           139264
 2017-02-08 05:58:25.976377+01 | 1486529905.97638 | pgbench_history  |                0
 2017-02-08 05:58:25.976377+01 | 1486529905.97638 | pgbench_branches |            16384

 2017-02-08 05:58:27.190093+01 | 1486529907.19009 | pgbench_accounts |       4028858368
 2017-02-08 05:58:27.190093+01 | 1486529907.19009 | pgbench_tellers  |           139264
 2017-02-08 05:58:27.190093+01 | 1486529907.19009 | pgbench_history  |                0
 2017-02-08 05:58:27.190093+01 | 1486529907.19009 | pgbench_branches |            16384

 2017-02-08 05:58:28.436666+01 | 1486529908.43667 | pgbench_accounts |       4028858368
 2017-02-08 05:58:28.436666+01 | 1486529908.43667 | pgbench_tellers  |           139264
 2017-02-08 05:58:28.436666+01 | 1486529908.43667 | pgbench_history  |                0
 2017-02-08 05:58:28.436666+01 | 1486529908.43667 | pgbench_branches |            16384

 2017-02-08 05:58:29.68542+01 | 1486529909.68542 | pgbench_accounts |       4028858368
 2017-02-08 05:58:29.68542+01 | 1486529909.68542 | pgbench_tellers  |           139264
 2017-02-08 05:58:29.68542+01 | 1486529909.68542 | pgbench_history  |                0
 2017-02-08 05:58:29.68542+01 | 1486529909.68542 | pgbench_branches |            16384

 2017-02-08 05:58:30.928375+01 | 1486529910.92838 | pgbench_accounts |       4028858368
 2017-02-08 05:58:30.928375+01 | 1486529910.92838 | pgbench_tellers  |           139264
 2017-02-08 05:58:30.928375+01 | 1486529910.92838 | pgbench_history  |                0
 2017-02-08 05:58:30.928375+01 | 1486529910.92838 | pgbench_branches |            16384

 2017-02-08 05:58:32.179594+01 | 1486529912.17959 | pgbench_accounts |       4028858368
 2017-02-08 05:58:32.179594+01 | 1486529912.17959 | pgbench_tellers  |           139264
 2017-02-08 05:58:32.179594+01 | 1486529912.17959 | pgbench_history  |                0
 2017-02-08 05:58:32.179594+01 | 1486529912.17959 | pgbench_branches |            16384

 2017-02-08 05:58:33.457154+01 | 1486529913.45715 | pgbench_accounts |       4028858368
 2017-02-08 05:58:33.457154+01 | 1486529913.45715 | pgbench_tellers  |           139264
 2017-02-08 05:58:33.457154+01 | 1486529913.45715 | pgbench_history  |                0
 2017-02-08 05:58:33.457154+01 | 1486529913.45715 | pgbench_branches |            16384

 2017-02-08 05:58:34.632062+01 | 1486529914.63206 | pgbench_accounts |       4028858368
 2017-02-08 05:58:34.632062+01 | 1486529914.63206 | pgbench_tellers  |           139264
 2017-02-08 05:58:34.632062+01 | 1486529914.63206 | pgbench_history  |                0
 2017-02-08 05:58:34.632062+01 | 1486529914.63206 | pgbench_branches |            16384

 2017-02-08 05:58:35.837719+01 | 1486529915.83772 | pgbench_accounts |       4028858368
 2017-02-08 05:58:35.837719+01 | 1486529915.83772 | pgbench_tellers  |           139264
 2017-02-08 05:58:35.837719+01 | 1486529915.83772 | pgbench_history  |                0
 2017-02-08 05:58:35.837719+01 | 1486529915.83772 | pgbench_branches |            16384

 2017-02-08 05:58:37.096614+01 | 1486529917.09661 | pgbench_accounts |       4028858368
 2017-02-08 05:58:37.096614+01 | 1486529917.09661 | pgbench_tellers  |           139264
 2017-02-08 05:58:37.096614+01 | 1486529917.09661 | pgbench_history  |                0
 2017-02-08 05:58:37.096614+01 | 1486529917.09661 | pgbench_branches |            16384

 2017-02-08 05:58:38.342975+01 | 1486529918.34297 | pgbench_accounts |       4028858368
 2017-02-08 05:58:38.342975+01 | 1486529918.34297 | pgbench_tellers  |           139264
 2017-02-08 05:58:38.342975+01 | 1486529918.34297 | pgbench_history  |                0
 2017-02-08 05:58:38.342975+01 | 1486529918.34297 | pgbench_branches |            16384

 2017-02-08 05:58:39.525094+01 | 1486529919.52509 | pgbench_accounts |       4028858368
 2017-02-08 05:58:39.525094+01 | 1486529919.52509 | pgbench_tellers  |           139264
 2017-02-08 05:58:39.525094+01 | 1486529919.52509 | pgbench_history  |                0
 2017-02-08 05:58:39.525094+01 | 1486529919.52509 | pgbench_branches |            16384

 2017-02-08 05:58:40.731538+01 | 1486529920.73154 | pgbench_accounts |       4028858368
 2017-02-08 05:58:40.731538+01 | 1486529920.73154 | pgbench_tellers  |           139264
 2017-02-08 05:58:40.731538+01 | 1486529920.73154 | pgbench_history  |                0
 2017-02-08 05:58:40.731538+01 | 1486529920.73154 | pgbench_branches |            16384

 2017-02-08 05:58:41.978987+01 | 1486529921.97899 | pgbench_accounts |       4028858368
 2017-02-08 05:58:41.978987+01 | 1486529921.97899 | pgbench_tellers  |           139264
 2017-02-08 05:58:41.978987+01 | 1486529921.97899 | pgbench_history  |                0
 2017-02-08 05:58:41.978987+01 | 1486529921.97899 | pgbench_branches |            16384

 2017-02-08 05:58:43.204062+01 | 1486529923.20406 | pgbench_accounts |       4028858368
 2017-02-08 05:58:43.204062+01 | 1486529923.20406 | pgbench_tellers  |           139264
 2017-02-08 05:58:43.204062+01 | 1486529923.20406 | pgbench_history  |                0
 2017-02-08 05:58:43.204062+01 | 1486529923.20406 | pgbench_branches |            16384

 2017-02-08 05:58:44.420582+01 | 1486529924.42058 | pgbench_accounts |       4028858368
 2017-02-08 05:58:44.420582+01 | 1486529924.42058 | pgbench_tellers  |           139264
 2017-02-08 05:58:44.420582+01 | 1486529924.42058 | pgbench_history  |                0
 2017-02-08 05:58:44.420582+01 | 1486529924.42058 | pgbench_branches |            16384

 2017-02-08 05:58:45.681191+01 | 1486529925.68119 | pgbench_accounts |       4028858368
 2017-02-08 05:58:45.681191+01 | 1486529925.68119 | pgbench_tellers  |           139264
 2017-02-08 05:58:45.681191+01 | 1486529925.68119 | pgbench_history  |                0
 2017-02-08 05:58:45.681191+01 | 1486529925.68119 | pgbench_branches |            16384

 2017-02-08 05:58:46.909133+01 | 1486529926.90913 | pgbench_accounts |       4028858368
 2017-02-08 05:58:46.909133+01 | 1486529926.90913 | pgbench_tellers  |           139264
 2017-02-08 05:58:46.909133+01 | 1486529926.90913 | pgbench_history  |                0
 2017-02-08 05:58:46.909133+01 | 1486529926.90913 | pgbench_branches |            16384

 2017-02-08 05:58:48.125604+01 | 1486529928.1256 | pgbench_accounts |       4028858368
 2017-02-08 05:58:48.125604+01 | 1486529928.1256 | pgbench_tellers  |           139264
 2017-02-08 05:58:48.125604+01 | 1486529928.1256 | pgbench_history  |                0
 2017-02-08 05:58:48.125604+01 | 1486529928.1256 | pgbench_branches |            16384

 2017-02-08 05:58:49.343916+01 | 1486529929.34392 | pgbench_accounts |       4028858368
 2017-02-08 05:58:49.343916+01 | 1486529929.34392 | pgbench_tellers  |           139264
 2017-02-08 05:58:49.343916+01 | 1486529929.34392 | pgbench_history  |                0
 2017-02-08 05:58:49.343916+01 | 1486529929.34392 | pgbench_branches |            16384

 2017-02-08 05:58:50.526416+01 | 1486529930.52642 | pgbench_accounts |       4028858368
 2017-02-08 05:58:50.526416+01 | 1486529930.52642 | pgbench_tellers  |           139264
 2017-02-08 05:58:50.526416+01 | 1486529930.52642 | pgbench_history  |                0
 2017-02-08 05:58:50.526416+01 | 1486529930.52642 | pgbench_branches |            16384

 2017-02-08 05:58:51.759266+01 | 1486529931.75927 | pgbench_accounts |       4028858368
 2017-02-08 05:58:51.759266+01 | 1486529931.75927 | pgbench_tellers  |           139264
 2017-02-08 05:58:51.759266+01 | 1486529931.75927 | pgbench_history  |                0
 2017-02-08 05:58:51.759266+01 | 1486529931.75927 | pgbench_branches |            16384

 2017-02-08 05:58:53.018612+01 | 1486529933.01861 | pgbench_accounts |       4028858368
 2017-02-08 05:58:53.018612+01 | 1486529933.01861 | pgbench_tellers  |           139264
 2017-02-08 05:58:53.018612+01 | 1486529933.01861 | pgbench_history  |                0
 2017-02-08 05:58:53.018612+01 | 1486529933.01861 | pgbench_branches |            16384

 2017-02-08 05:58:54.262743+01 | 1486529934.26274 | pgbench_accounts |       4028858368
 2017-02-08 05:58:54.262743+01 | 1486529934.26274 | pgbench_tellers  |           139264
 2017-02-08 05:58:54.262743+01 | 1486529934.26274 | pgbench_history  |                0
 2017-02-08 05:58:54.262743+01 | 1486529934.26274 | pgbench_branches |            16384

 2017-02-08 05:58:55.534565+01 | 1486529935.53456 | pgbench_accounts |       4028858368
 2017-02-08 05:58:55.534565+01 | 1486529935.53456 | pgbench_tellers  |           139264
 2017-02-08 05:58:55.534565+01 | 1486529935.53456 | pgbench_history  |                0
 2017-02-08 05:58:55.534565+01 | 1486529935.53456 | pgbench_branches |            16384

 2017-02-08 05:58:56.778283+01 | 1486529936.77828 | pgbench_accounts |       4028858368
 2017-02-08 05:58:56.778283+01 | 1486529936.77828 | pgbench_tellers  |           139264
 2017-02-08 05:58:56.778283+01 | 1486529936.77828 | pgbench_history  |                0
 2017-02-08 05:58:56.778283+01 | 1486529936.77828 | pgbench_branches |            16384

 2017-02-08 05:58:58.041537+01 | 1486529938.04154 | pgbench_accounts |       4028858368
 2017-02-08 05:58:58.041537+01 | 1486529938.04154 | pgbench_tellers  |           139264
 2017-02-08 05:58:58.041537+01 | 1486529938.04154 | pgbench_history  |                0
 2017-02-08 05:58:58.041537+01 | 1486529938.04154 | pgbench_branches |            16384

 2017-02-08 05:58:59.260443+01 | 1486529939.26044 | pgbench_accounts |       4028858368
 2017-02-08 05:58:59.260443+01 | 1486529939.26044 | pgbench_tellers  |           139264
 2017-02-08 05:58:59.260443+01 | 1486529939.26044 | pgbench_history  |                0
 2017-02-08 05:58:59.260443+01 | 1486529939.26044 | pgbench_branches |            16384

 2017-02-08 05:59:00.452803+01 | 1486529940.4528 | pgbench_accounts |       4028858368
 2017-02-08 05:59:00.452803+01 | 1486529940.4528 | pgbench_tellers  |           139264
 2017-02-08 05:59:00.452803+01 | 1486529940.4528 | pgbench_history  |                0
 2017-02-08 05:59:00.452803+01 | 1486529940.4528 | pgbench_branches |            16384

 2017-02-08 05:59:01.658333+01 | 1486529941.65833 | pgbench_accounts |       4028858368
 2017-02-08 05:59:01.658333+01 | 1486529941.65833 | pgbench_tellers  |           139264
 2017-02-08 05:59:01.658333+01 | 1486529941.65833 | pgbench_history  |                0
 2017-02-08 05:59:01.658333+01 | 1486529941.65833 | pgbench_branches |            16384

 2017-02-08 05:59:02.89737+01 | 1486529942.89737 | pgbench_accounts |       4028858368
 2017-02-08 05:59:02.89737+01 | 1486529942.89737 | pgbench_tellers  |           139264
 2017-02-08 05:59:02.89737+01 | 1486529942.89737 | pgbench_history  |                0
 2017-02-08 05:59:02.89737+01 | 1486529942.89737 | pgbench_branches |            16384

 2017-02-08 05:59:04.169911+01 | 1486529944.16991 | pgbench_accounts |       4028858368
 2017-02-08 05:59:04.169911+01 | 1486529944.16991 | pgbench_tellers  |           139264
 2017-02-08 05:59:04.169911+01 | 1486529944.16991 | pgbench_history  |                0
 2017-02-08 05:59:04.169911+01 | 1486529944.16991 | pgbench_branches |            16384

 2017-02-08 05:59:05.450992+01 | 1486529945.45099 | pgbench_accounts |       4028858368
 2017-02-08 05:59:05.450992+01 | 1486529945.45099 | pgbench_tellers  |           139264
 2017-02-08 05:59:05.450992+01 | 1486529945.45099 | pgbench_history  |                0
 2017-02-08 05:59:05.450992+01 | 1486529945.45099 | pgbench_branches |            16384

 2017-02-08 05:59:06.726937+01 | 1486529946.72694 | pgbench_accounts |       4028858368
 2017-02-08 05:59:06.726937+01 | 1486529946.72694 | pgbench_tellers  |           139264
 2017-02-08 05:59:06.726937+01 | 1486529946.72694 | pgbench_history  |                0
 2017-02-08 05:59:06.726937+01 | 1486529946.72694 | pgbench_branches |            16384

 2017-02-08 05:59:07.941896+01 | 1486529947.9419 | pgbench_accounts |       4028858368
 2017-02-08 05:59:07.941896+01 | 1486529947.9419 | pgbench_tellers  |           139264
 2017-02-08 05:59:07.941896+01 | 1486529947.9419 | pgbench_history  |                0
 2017-02-08 05:59:07.941896+01 | 1486529947.9419 | pgbench_branches |            16384

 2017-02-08 05:59:09.200113+01 | 1486529949.20011 | pgbench_accounts |       4028858368
 2017-02-08 05:59:09.200113+01 | 1486529949.20011 | pgbench_tellers  |           139264
 2017-02-08 05:59:09.200113+01 | 1486529949.20011 | pgbench_history  |                0
 2017-02-08 05:59:09.200113+01 | 1486529949.20011 | pgbench_branches |            16384

 2017-02-08 05:59:10.435958+01 | 1486529950.43596 | pgbench_accounts |       4028858368
 2017-02-08 05:59:10.435958+01 | 1486529950.43596 | pgbench_tellers  |           139264
 2017-02-08 05:59:10.435958+01 | 1486529950.43596 | pgbench_history  |                0
 2017-02-08 05:59:10.435958+01 | 1486529950.43596 | pgbench_branches |            16384

 2017-02-08 05:59:11.695536+01 | 1486529951.69554 | pgbench_accounts |       4028858368
 2017-02-08 05:59:11.695536+01 | 1486529951.69554 | pgbench_tellers  |           139264
 2017-02-08 05:59:11.695536+01 | 1486529951.69554 | pgbench_history  |                0
 2017-02-08 05:59:11.695536+01 | 1486529951.69554 | pgbench_branches |            16384

 2017-02-08 05:59:12.930668+01 | 1486529952.93067 | pgbench_accounts |       4028858368
 2017-02-08 05:59:12.930668+01 | 1486529952.93067 | pgbench_tellers  |           139264
 2017-02-08 05:59:12.930668+01 | 1486529952.93067 | pgbench_history  |                0
 2017-02-08 05:59:12.930668+01 | 1486529952.93067 | pgbench_branches |            16384

 2017-02-08 05:59:14.130116+01 | 1486529954.13012 | pgbench_accounts |       4028858368
 2017-02-08 05:59:14.130116+01 | 1486529954.13012 | pgbench_tellers  |           139264
 2017-02-08 05:59:14.130116+01 | 1486529954.13012 | pgbench_history  |                0
 2017-02-08 05:59:14.130116+01 | 1486529954.13012 | pgbench_branches |            16384

 2017-02-08 05:59:15.394707+01 | 1486529955.39471 | pgbench_accounts |       4028858368
 2017-02-08 05:59:15.394707+01 | 1486529955.39471 | pgbench_tellers  |           139264
 2017-02-08 05:59:15.394707+01 | 1486529955.39471 | pgbench_history  |                0
 2017-02-08 05:59:15.394707+01 | 1486529955.39471 | pgbench_branches |            16384

 2017-02-08 05:59:16.636319+01 | 1486529956.63632 | pgbench_accounts |       4028858368
 2017-02-08 05:59:16.636319+01 | 1486529956.63632 | pgbench_tellers  |           139264
 2017-02-08 05:59:16.636319+01 | 1486529956.63632 | pgbench_history  |                0
 2017-02-08 05:59:16.636319+01 | 1486529956.63632 | pgbench_branches |            16384

 2017-02-08 05:59:17.875028+01 | 1486529957.87503 | pgbench_accounts |       4028858368
 2017-02-08 05:59:17.875028+01 | 1486529957.87503 | pgbench_tellers  |           139264
 2017-02-08 05:59:17.875028+01 | 1486529957.87503 | pgbench_history  |                0
 2017-02-08 05:59:17.875028+01 | 1486529957.87503 | pgbench_branches |            16384

 2017-02-08 05:59:19.138034+01 | 1486529959.13803 | pgbench_accounts |       4028858368
 2017-02-08 05:59:19.138034+01 | 1486529959.13803 | pgbench_tellers  |           139264
 2017-02-08 05:59:19.138034+01 | 1486529959.13803 | pgbench_history  |                0
 2017-02-08 05:59:19.138034+01 | 1486529959.13803 | pgbench_branches |            16384

 2017-02-08 05:59:20.395384+01 | 1486529960.39538 | pgbench_accounts |       4028858368
 2017-02-08 05:59:20.395384+01 | 1486529960.39538 | pgbench_tellers  |           139264
 2017-02-08 05:59:20.395384+01 | 1486529960.39538 | pgbench_history  |                0
 2017-02-08 05:59:20.395384+01 | 1486529960.39538 | pgbench_branches |            16384

 2017-02-08 05:59:21.646422+01 | 1486529961.64642 | pgbench_accounts |       4028858368
 2017-02-08 05:59:21.646422+01 | 1486529961.64642 | pgbench_tellers  |           139264
 2017-02-08 05:59:21.646422+01 | 1486529961.64642 | pgbench_history  |                0
 2017-02-08 05:59:21.646422+01 | 1486529961.64642 | pgbench_branches |            16384

 2017-02-08 05:59:22.88919+01 | 1486529962.88919 | pgbench_accounts |       4028858368
 2017-02-08 05:59:22.88919+01 | 1486529962.88919 | pgbench_tellers  |           139264
 2017-02-08 05:59:22.88919+01 | 1486529962.88919 | pgbench_history  |                0
 2017-02-08 05:59:22.88919+01 | 1486529962.88919 | pgbench_branches |            16384

 2017-02-08 05:59:24.106313+01 | 1486529964.10631 | pgbench_accounts |       4028858368
 2017-02-08 05:59:24.106313+01 | 1486529964.10631 | pgbench_tellers  |           139264
 2017-02-08 05:59:24.106313+01 | 1486529964.10631 | pgbench_history  |                0
 2017-02-08 05:59:24.106313+01 | 1486529964.10631 | pgbench_branches |            16384

 2017-02-08 05:59:25.331597+01 | 1486529965.3316 | pgbench_accounts |       4028858368
 2017-02-08 05:59:25.331597+01 | 1486529965.3316 | pgbench_tellers  |           139264
 2017-02-08 05:59:25.331597+01 | 1486529965.3316 | pgbench_history  |                0
 2017-02-08 05:59:25.331597+01 | 1486529965.3316 | pgbench_branches |            16384

 2017-02-08 05:59:26.509903+01 | 1486529966.5099 | pgbench_accounts |       4028858368
 2017-02-08 05:59:26.509903+01 | 1486529966.5099 | pgbench_tellers  |           139264
 2017-02-08 05:59:26.509903+01 | 1486529966.5099 | pgbench_history  |                0
 2017-02-08 05:59:26.509903+01 | 1486529966.5099 | pgbench_branches |            16384

 2017-02-08 05:59:27.732274+01 | 1486529967.73227 | pgbench_accounts |       4028858368
 2017-02-08 05:59:27.732274+01 | 1486529967.73227 | pgbench_tellers  |           139264
 2017-02-08 05:59:27.732274+01 | 1486529967.73227 | pgbench_history  |                0
 2017-02-08 05:59:27.732274+01 | 1486529967.73227 | pgbench_branches |            16384

 2017-02-08 05:59:28.972935+01 | 1486529968.97293 | pgbench_accounts |       4028858368
 2017-02-08 05:59:28.972935+01 | 1486529968.97293 | pgbench_tellers  |           139264
 2017-02-08 05:59:28.972935+01 | 1486529968.97293 | pgbench_history  |                0
 2017-02-08 05:59:28.972935+01 | 1486529968.97293 | pgbench_branches |            16384

 2017-02-08 05:59:30.189475+01 | 1486529970.18948 | pgbench_accounts |       4028858368
 2017-02-08 05:59:30.189475+01 | 1486529970.18948 | pgbench_tellers  |           139264
 2017-02-08 05:59:30.189475+01 | 1486529970.18948 | pgbench_history  |                0
 2017-02-08 05:59:30.189475+01 | 1486529970.18948 | pgbench_branches |            16384

 2017-02-08 05:59:31.394622+01 | 1486529971.39462 | pgbench_accounts |       4028858368
 2017-02-08 05:59:31.394622+01 | 1486529971.39462 | pgbench_tellers  |           139264
 2017-02-08 05:59:31.394622+01 | 1486529971.39462 | pgbench_history  |                0
 2017-02-08 05:59:31.394622+01 | 1486529971.39462 | pgbench_branches |            16384

 2017-02-08 05:59:32.597647+01 | 1486529972.59765 | pgbench_accounts |       4028858368
 2017-02-08 05:59:32.597647+01 | 1486529972.59765 | pgbench_tellers  |           139264
 2017-02-08 05:59:32.597647+01 | 1486529972.59765 | pgbench_history  |                0
 2017-02-08 05:59:32.597647+01 | 1486529972.59765 | pgbench_branches |            16384

 2017-02-08 05:59:33.880993+01 | 1486529973.88099 | pgbench_accounts |       4028858368
 2017-02-08 05:59:33.880993+01 | 1486529973.88099 | pgbench_tellers  |           139264
 2017-02-08 05:59:33.880993+01 | 1486529973.88099 | pgbench_history  |                0
 2017-02-08 05:59:33.880993+01 | 1486529973.88099 | pgbench_branches |            16384

 2017-02-08 05:59:35.089067+01 | 1486529975.08907 | pgbench_accounts |       4028858368
 2017-02-08 05:59:35.089067+01 | 1486529975.08907 | pgbench_tellers  |           139264
 2017-02-08 05:59:35.089067+01 | 1486529975.08907 | pgbench_history  |                0
 2017-02-08 05:59:35.089067+01 | 1486529975.08907 | pgbench_branches |            16384

 2017-02-08 05:59:36.297463+01 | 1486529976.29746 | pgbench_accounts |       4028858368
 2017-02-08 05:59:36.297463+01 | 1486529976.29746 | pgbench_tellers  |           139264
 2017-02-08 05:59:36.297463+01 | 1486529976.29746 | pgbench_history  |                0
 2017-02-08 05:59:36.297463+01 | 1486529976.29746 | pgbench_branches |            16384

 2017-02-08 05:59:37.465325+01 | 1486529977.46533 | pgbench_accounts |       4028858368
 2017-02-08 05:59:37.465325+01 | 1486529977.46533 | pgbench_tellers  |           139264
 2017-02-08 05:59:37.465325+01 | 1486529977.46533 | pgbench_history  |                0
 2017-02-08 05:59:37.465325+01 | 1486529977.46533 | pgbench_branches |            16384

 2017-02-08 05:59:38.66804+01 | 1486529978.66804 | pgbench_accounts |       4028858368
 2017-02-08 05:59:38.66804+01 | 1486529978.66804 | pgbench_tellers  |           139264
 2017-02-08 05:59:38.66804+01 | 1486529978.66804 | pgbench_history  |                0
 2017-02-08 05:59:38.66804+01 | 1486529978.66804 | pgbench_branches |            16384

 2017-02-08 05:59:39.928325+01 | 1486529979.92832 | pgbench_accounts |       4028858368
 2017-02-08 05:59:39.928325+01 | 1486529979.92832 | pgbench_tellers  |           139264
 2017-02-08 05:59:39.928325+01 | 1486529979.92832 | pgbench_history  |                0
 2017-02-08 05:59:39.928325+01 | 1486529979.92832 | pgbench_branches |            16384

 2017-02-08 05:59:41.144822+01 | 1486529981.14482 | pgbench_accounts |       4028858368
 2017-02-08 05:59:41.144822+01 | 1486529981.14482 | pgbench_tellers  |           139264
 2017-02-08 05:59:41.144822+01 | 1486529981.14482 | pgbench_history  |                0
 2017-02-08 05:59:41.144822+01 | 1486529981.14482 | pgbench_branches |            16384

 2017-02-08 05:59:42.436463+01 | 1486529982.43646 | pgbench_accounts |       4028858368
 2017-02-08 05:59:42.436463+01 | 1486529982.43646 | pgbench_tellers  |           139264
 2017-02-08 05:59:42.436463+01 | 1486529982.43646 | pgbench_history  |                0
 2017-02-08 05:59:42.436463+01 | 1486529982.43646 | pgbench_branches |            16384

 2017-02-08 05:59:43.627434+01 | 1486529983.62743 | pgbench_accounts |       4028858368
 2017-02-08 05:59:43.627434+01 | 1486529983.62743 | pgbench_tellers  |           139264
 2017-02-08 05:59:43.627434+01 | 1486529983.62743 | pgbench_history  |                0
 2017-02-08 05:59:43.627434+01 | 1486529983.62743 | pgbench_branches |            16384

 2017-02-08 05:59:44.859067+01 | 1486529984.85907 | pgbench_accounts |       4028858368
 2017-02-08 05:59:44.859067+01 | 1486529984.85907 | pgbench_tellers  |           139264
 2017-02-08 05:59:44.859067+01 | 1486529984.85907 | pgbench_history  |                0
 2017-02-08 05:59:44.859067+01 | 1486529984.85907 | pgbench_branches |            16384

 2017-02-08 05:59:46.090926+01 | 1486529986.09093 | pgbench_accounts |       4028858368
 2017-02-08 05:59:46.090926+01 | 1486529986.09093 | pgbench_tellers  |           139264
 2017-02-08 05:59:46.090926+01 | 1486529986.09093 | pgbench_history  |                0
 2017-02-08 05:59:46.090926+01 | 1486529986.09093 | pgbench_branches |            16384

 2017-02-08 05:59:47.326526+01 | 1486529987.32653 | pgbench_accounts |       4028858368
 2017-02-08 05:59:47.326526+01 | 1486529987.32653 | pgbench_tellers  |           139264
 2017-02-08 05:59:47.326526+01 | 1486529987.32653 | pgbench_history  |                0
 2017-02-08 05:59:47.326526+01 | 1486529987.32653 | pgbench_branches |            16384

 2017-02-08 05:59:48.579569+01 | 1486529988.57957 | pgbench_accounts |       4028858368
 2017-02-08 05:59:48.579569+01 | 1486529988.57957 | pgbench_tellers  |           139264
 2017-02-08 05:59:48.579569+01 | 1486529988.57957 | pgbench_history  |                0
 2017-02-08 05:59:48.579569+01 | 1486529988.57957 | pgbench_branches |            16384

 2017-02-08 05:59:49.829286+01 | 1486529989.82929 | pgbench_accounts |       4028858368
 2017-02-08 05:59:49.829286+01 | 1486529989.82929 | pgbench_tellers  |           139264
 2017-02-08 05:59:49.829286+01 | 1486529989.82929 | pgbench_history  |                0
 2017-02-08 05:59:49.829286+01 | 1486529989.82929 | pgbench_branches |            16384

 2017-02-08 05:59:51.04821+01 | 1486529991.04821 | pgbench_accounts |       4028858368
 2017-02-08 05:59:51.04821+01 | 1486529991.04821 | pgbench_tellers  |           139264
 2017-02-08 05:59:51.04821+01 | 1486529991.04821 | pgbench_history  |                0
 2017-02-08 05:59:51.04821+01 | 1486529991.04821 | pgbench_branches |            16384

 2017-02-08 05:59:52.262446+01 | 1486529992.26245 | pgbench_accounts |       4028858368
 2017-02-08 05:59:52.262446+01 | 1486529992.26245 | pgbench_tellers  |           139264
 2017-02-08 05:59:52.262446+01 | 1486529992.26245 | pgbench_history  |                0
 2017-02-08 05:59:52.262446+01 | 1486529992.26245 | pgbench_branches |            16384

 2017-02-08 05:59:53.508851+01 | 1486529993.50885 | pgbench_accounts |       4028858368
 2017-02-08 05:59:53.508851+01 | 1486529993.50885 | pgbench_tellers  |           139264
 2017-02-08 05:59:53.508851+01 | 1486529993.50885 | pgbench_history  |                0
 2017-02-08 05:59:53.508851+01 | 1486529993.50885 | pgbench_branches |            16384

 2017-02-08 05:59:54.711958+01 | 1486529994.71196 | pgbench_accounts |       4028858368
 2017-02-08 05:59:54.711958+01 | 1486529994.71196 | pgbench_tellers  |           139264
 2017-02-08 05:59:54.711958+01 | 1486529994.71196 | pgbench_history  |                0
 2017-02-08 05:59:54.711958+01 | 1486529994.71196 | pgbench_branches |            16384

 2017-02-08 05:59:55.938576+01 | 1486529995.93858 | pgbench_accounts |       4028858368
 2017-02-08 05:59:55.938576+01 | 1486529995.93858 | pgbench_tellers  |           139264
 2017-02-08 05:59:55.938576+01 | 1486529995.93858 | pgbench_history  |                0
 2017-02-08 05:59:55.938576+01 | 1486529995.93858 | pgbench_branches |            16384

 2017-02-08 05:59:57.170833+01 | 1486529997.17083 | pgbench_accounts |       4028858368
 2017-02-08 05:59:57.170833+01 | 1486529997.17083 | pgbench_tellers  |           139264
 2017-02-08 05:59:57.170833+01 | 1486529997.17083 | pgbench_history  |                0
 2017-02-08 05:59:57.170833+01 | 1486529997.17083 | pgbench_branches |            16384

 2017-02-08 05:59:58.36022+01 | 1486529998.36022 | pgbench_accounts |       4028858368
 2017-02-08 05:59:58.36022+01 | 1486529998.36022 | pgbench_tellers  |           139264
 2017-02-08 05:59:58.36022+01 | 1486529998.36022 | pgbench_history  |                0
 2017-02-08 05:59:58.36022+01 | 1486529998.36022 | pgbench_branches |            16384

 2017-02-08 05:59:59.612122+01 | 1486529999.61212 | pgbench_accounts |       4028858368
 2017-02-08 05:59:59.612122+01 | 1486529999.61212 | pgbench_tellers  |           139264
 2017-02-08 05:59:59.612122+01 | 1486529999.61212 | pgbench_history  |                0
 2017-02-08 05:59:59.612122+01 | 1486529999.61212 | pgbench_branches |            16384

 2017-02-08 06:00:00.840987+01 | 1486530000.84099 | pgbench_accounts |       4028858368
 2017-02-08 06:00:00.840987+01 | 1486530000.84099 | pgbench_tellers  |           139264
 2017-02-08 06:00:00.840987+01 | 1486530000.84099 | pgbench_history  |                0
 2017-02-08 06:00:00.840987+01 | 1486530000.84099 | pgbench_branches |            16384

 2017-02-08 06:00:02.070575+01 | 1486530002.07057 | pgbench_accounts |       4028858368
 2017-02-08 06:00:02.070575+01 | 1486530002.07057 | pgbench_tellers  |           139264
 2017-02-08 06:00:02.070575+01 | 1486530002.07057 | pgbench_history  |                0
 2017-02-08 06:00:02.070575+01 | 1486530002.07057 | pgbench_branches |            16384

 2017-02-08 06:00:03.309238+01 | 1486530003.30924 | pgbench_accounts |       4028858368
 2017-02-08 06:00:03.309238+01 | 1486530003.30924 | pgbench_tellers  |           139264
 2017-02-08 06:00:03.309238+01 | 1486530003.30924 | pgbench_history  |                0
 2017-02-08 06:00:03.309238+01 | 1486530003.30924 | pgbench_branches |            16384

 2017-02-08 06:00:04.550423+01 | 1486530004.55042 | pgbench_accounts |       4028858368
 2017-02-08 06:00:04.550423+01 | 1486530004.55042 | pgbench_tellers  |           139264
 2017-02-08 06:00:04.550423+01 | 1486530004.55042 | pgbench_history  |                0
 2017-02-08 06:00:04.550423+01 | 1486530004.55042 | pgbench_branches |            16384

 2017-02-08 06:00:05.750917+01 | 1486530005.75092 | pgbench_accounts |       4028858368
 2017-02-08 06:00:05.750917+01 | 1486530005.75092 | pgbench_tellers  |           139264
 2017-02-08 06:00:05.750917+01 | 1486530005.75092 | pgbench_history  |                0
 2017-02-08 06:00:05.750917+01 | 1486530005.75092 | pgbench_branches |            16384

 2017-02-08 06:00:06.958611+01 | 1486530006.95861 | pgbench_accounts |       4028858368
 2017-02-08 06:00:06.958611+01 | 1486530006.95861 | pgbench_tellers  |           139264
 2017-02-08 06:00:06.958611+01 | 1486530006.95861 | pgbench_history  |                0
 2017-02-08 06:00:06.958611+01 | 1486530006.95861 | pgbench_branches |            16384

 2017-02-08 06:00:08.185833+01 | 1486530008.18583 | pgbench_accounts |       4028858368
 2017-02-08 06:00:08.185833+01 | 1486530008.18583 | pgbench_tellers  |           139264
 2017-02-08 06:00:08.185833+01 | 1486530008.18583 | pgbench_history  |                0
 2017-02-08 06:00:08.185833+01 | 1486530008.18583 | pgbench_branches |            16384

 2017-02-08 06:00:09.451466+01 | 1486530009.45147 | pgbench_accounts |       4028858368
 2017-02-08 06:00:09.451466+01 | 1486530009.45147 | pgbench_tellers  |           139264
 2017-02-08 06:00:09.451466+01 | 1486530009.45147 | pgbench_history  |                0
 2017-02-08 06:00:09.451466+01 | 1486530009.45147 | pgbench_branches |            16384

 2017-02-08 06:00:10.718609+01 | 1486530010.71861 | pgbench_accounts |       4028858368
 2017-02-08 06:00:10.718609+01 | 1486530010.71861 | pgbench_tellers  |           139264
 2017-02-08 06:00:10.718609+01 | 1486530010.71861 | pgbench_history  |                0
 2017-02-08 06:00:10.718609+01 | 1486530010.71861 | pgbench_branches |            16384

 2017-02-08 06:00:11.956974+01 | 1486530011.95697 | pgbench_accounts |       4028858368
 2017-02-08 06:00:11.956974+01 | 1486530011.95697 | pgbench_tellers  |           139264
 2017-02-08 06:00:11.956974+01 | 1486530011.95697 | pgbench_history  |                0
 2017-02-08 06:00:11.956974+01 | 1486530011.95697 | pgbench_branches |            16384

 2017-02-08 06:00:13.195314+01 | 1486530013.19531 | pgbench_accounts |       4028858368
 2017-02-08 06:00:13.195314+01 | 1486530013.19531 | pgbench_tellers  |           139264
 2017-02-08 06:00:13.195314+01 | 1486530013.19531 | pgbench_history  |                0
 2017-02-08 06:00:13.195314+01 | 1486530013.19531 | pgbench_branches |            16384

 2017-02-08 06:00:14.431229+01 | 1486530014.43123 | pgbench_accounts |       4028858368
 2017-02-08 06:00:14.431229+01 | 1486530014.43123 | pgbench_tellers  |           139264
 2017-02-08 06:00:14.431229+01 | 1486530014.43123 | pgbench_history  |                0
 2017-02-08 06:00:14.431229+01 | 1486530014.43123 | pgbench_branches |            16384

 2017-02-08 06:00:15.602605+01 | 1486530015.60261 | pgbench_accounts |       4028858368
 2017-02-08 06:00:15.602605+01 | 1486530015.60261 | pgbench_tellers  |           139264
 2017-02-08 06:00:15.602605+01 | 1486530015.60261 | pgbench_history  |                0
 2017-02-08 06:00:15.602605+01 | 1486530015.60261 | pgbench_branches |            16384

 2017-02-08 06:00:16.838735+01 | 1486530016.83874 | pgbench_accounts |       4028858368
 2017-02-08 06:00:16.838735+01 | 1486530016.83874 | pgbench_tellers  |           139264
 2017-02-08 06:00:16.838735+01 | 1486530016.83874 | pgbench_history  |                0
 2017-02-08 06:00:16.838735+01 | 1486530016.83874 | pgbench_branches |            16384

 2017-02-08 06:00:18.078151+01 | 1486530018.07815 | pgbench_accounts |       4028858368
 2017-02-08 06:00:18.078151+01 | 1486530018.07815 | pgbench_tellers  |           139264
 2017-02-08 06:00:18.078151+01 | 1486530018.07815 | pgbench_history  |                0
 2017-02-08 06:00:18.078151+01 | 1486530018.07815 | pgbench_branches |            16384

 2017-02-08 06:00:19.356136+01 | 1486530019.35614 | pgbench_accounts |       4028858368
 2017-02-08 06:00:19.356136+01 | 1486530019.35614 | pgbench_tellers  |           139264
 2017-02-08 06:00:19.356136+01 | 1486530019.35614 | pgbench_history  |                0
 2017-02-08 06:00:19.356136+01 | 1486530019.35614 | pgbench_branches |            16384

 2017-02-08 06:00:20.553978+01 | 1486530020.55398 | pgbench_accounts |       4028858368
 2017-02-08 06:00:20.553978+01 | 1486530020.55398 | pgbench_tellers  |           139264
 2017-02-08 06:00:20.553978+01 | 1486530020.55398 | pgbench_history  |                0
 2017-02-08 06:00:20.553978+01 | 1486530020.55398 | pgbench_branches |            16384

 2017-02-08 06:00:21.7091+01 | 1486530021.7091 | pgbench_accounts |       4028858368
 2017-02-08 06:00:21.7091+01 | 1486530021.7091 | pgbench_tellers  |           139264
 2017-02-08 06:00:21.7091+01 | 1486530021.7091 | pgbench_history  |                0
 2017-02-08 06:00:21.7091+01 | 1486530021.7091 | pgbench_branches |            16384

 2017-02-08 06:00:22.886423+01 | 1486530022.88642 | pgbench_accounts |       4028858368
 2017-02-08 06:00:22.886423+01 | 1486530022.88642 | pgbench_tellers  |           139264
 2017-02-08 06:00:22.886423+01 | 1486530022.88642 | pgbench_history  |                0
 2017-02-08 06:00:22.886423+01 | 1486530022.88642 | pgbench_branches |            16384

 2017-02-08 06:00:24.129705+01 | 1486530024.1297 | pgbench_accounts |       4028858368
 2017-02-08 06:00:24.129705+01 | 1486530024.1297 | pgbench_tellers  |           139264
 2017-02-08 06:00:24.129705+01 | 1486530024.1297 | pgbench_history  |                0
 2017-02-08 06:00:24.129705+01 | 1486530024.1297 | pgbench_branches |            16384

 2017-02-08 06:00:25.368008+01 | 1486530025.36801 | pgbench_accounts |       4028858368
 2017-02-08 06:00:25.368008+01 | 1486530025.36801 | pgbench_tellers  |           139264
 2017-02-08 06:00:25.368008+01 | 1486530025.36801 | pgbench_history  |                0
 2017-02-08 06:00:25.368008+01 | 1486530025.36801 | pgbench_branches |            16384

 2017-02-08 06:00:26.594302+01 | 1486530026.5943 | pgbench_accounts |       4028858368
 2017-02-08 06:00:26.594302+01 | 1486530026.5943 | pgbench_tellers  |           139264
 2017-02-08 06:00:26.594302+01 | 1486530026.5943 | pgbench_history  |                0
 2017-02-08 06:00:26.594302+01 | 1486530026.5943 | pgbench_branches |            16384

 2017-02-08 06:00:27.822383+01 | 1486530027.82238 | pgbench_accounts |       4028858368
 2017-02-08 06:00:27.822383+01 | 1486530027.82238 | pgbench_tellers  |           139264
 2017-02-08 06:00:27.822383+01 | 1486530027.82238 | pgbench_history  |                0
 2017-02-08 06:00:27.822383+01 | 1486530027.82238 | pgbench_branches |            16384

 2017-02-08 06:00:29.007627+01 | 1486530029.00763 | pgbench_accounts |       4028858368
 2017-02-08 06:00:29.007627+01 | 1486530029.00763 | pgbench_tellers  |           139264
 2017-02-08 06:00:29.007627+01 | 1486530029.00763 | pgbench_history  |                0
 2017-02-08 06:00:29.007627+01 | 1486530029.00763 | pgbench_branches |            16384

 2017-02-08 06:00:30.240234+01 | 1486530030.24023 | pgbench_accounts |       4028858368
 2017-02-08 06:00:30.240234+01 | 1486530030.24023 | pgbench_tellers  |           139264
 2017-02-08 06:00:30.240234+01 | 1486530030.24023 | pgbench_history  |                0
 2017-02-08 06:00:30.240234+01 | 1486530030.24023 | pgbench_branches |            16384

 2017-02-08 06:00:31.463309+01 | 1486530031.46331 | pgbench_accounts |       4028858368
 2017-02-08 06:00:31.463309+01 | 1486530031.46331 | pgbench_tellers  |           139264
 2017-02-08 06:00:31.463309+01 | 1486530031.46331 | pgbench_history  |                0
 2017-02-08 06:00:31.463309+01 | 1486530031.46331 | pgbench_branches |            16384

 2017-02-08 06:00:32.662811+01 | 1486530032.66281 | pgbench_accounts |       4028858368
 2017-02-08 06:00:32.662811+01 | 1486530032.66281 | pgbench_tellers  |           139264
 2017-02-08 06:00:32.662811+01 | 1486530032.66281 | pgbench_history  |                0
 2017-02-08 06:00:32.662811+01 | 1486530032.66281 | pgbench_branches |            16384

 2017-02-08 06:00:33.876872+01 | 1486530033.87687 | pgbench_accounts |       4028858368
 2017-02-08 06:00:33.876872+01 | 1486530033.87687 | pgbench_tellers  |           139264
 2017-02-08 06:00:33.876872+01 | 1486530033.87687 | pgbench_history  |                0
 2017-02-08 06:00:33.876872+01 | 1486530033.87687 | pgbench_branches |            16384

 2017-02-08 06:00:35.086849+01 | 1486530035.08685 | pgbench_accounts |       4028858368
 2017-02-08 06:00:35.086849+01 | 1486530035.08685 | pgbench_tellers  |           139264
 2017-02-08 06:00:35.086849+01 | 1486530035.08685 | pgbench_history  |                0
 2017-02-08 06:00:35.086849+01 | 1486530035.08685 | pgbench_branches |            16384

 2017-02-08 06:00:36.344097+01 | 1486530036.3441 | pgbench_accounts |       4028858368
 2017-02-08 06:00:36.344097+01 | 1486530036.3441 | pgbench_tellers  |           139264
 2017-02-08 06:00:36.344097+01 | 1486530036.3441 | pgbench_history  |                0
 2017-02-08 06:00:36.344097+01 | 1486530036.3441 | pgbench_branches |            16384

 2017-02-08 06:00:37.626396+01 | 1486530037.6264 | pgbench_accounts |       4028858368
 2017-02-08 06:00:37.626396+01 | 1486530037.6264 | pgbench_tellers  |           139264
 2017-02-08 06:00:37.626396+01 | 1486530037.6264 | pgbench_history  |                0
 2017-02-08 06:00:37.626396+01 | 1486530037.6264 | pgbench_branches |            16384

 2017-02-08 06:00:38.928072+01 | 1486530038.92807 | pgbench_accounts |       4028858368
 2017-02-08 06:00:38.928072+01 | 1486530038.92807 | pgbench_tellers  |           139264
 2017-02-08 06:00:38.928072+01 | 1486530038.92807 | pgbench_history  |                0
 2017-02-08 06:00:38.928072+01 | 1486530038.92807 | pgbench_branches |            16384

 2017-02-08 06:00:40.137151+01 | 1486530040.13715 | pgbench_accounts |       4028858368
 2017-02-08 06:00:40.137151+01 | 1486530040.13715 | pgbench_tellers  |           139264
 2017-02-08 06:00:40.137151+01 | 1486530040.13715 | pgbench_history  |                0
 2017-02-08 06:00:40.137151+01 | 1486530040.13715 | pgbench_branches |            16384

 2017-02-08 06:00:41.409824+01 | 1486530041.40982 | pgbench_accounts |       4028858368
 2017-02-08 06:00:41.409824+01 | 1486530041.40982 | pgbench_tellers  |           139264
 2017-02-08 06:00:41.409824+01 | 1486530041.40982 | pgbench_history  |                0
 2017-02-08 06:00:41.409824+01 | 1486530041.40982 | pgbench_branches |            16384

 2017-02-08 06:00:42.647884+01 | 1486530042.64788 | pgbench_accounts |       4028858368
 2017-02-08 06:00:42.647884+01 | 1486530042.64788 | pgbench_tellers  |           139264
 2017-02-08 06:00:42.647884+01 | 1486530042.64788 | pgbench_history  |                0
 2017-02-08 06:00:42.647884+01 | 1486530042.64788 | pgbench_branches |            16384

 2017-02-08 06:00:43.857664+01 | 1486530043.85766 | pgbench_accounts |       4028858368
 2017-02-08 06:00:43.857664+01 | 1486530043.85766 | pgbench_tellers  |           139264
 2017-02-08 06:00:43.857664+01 | 1486530043.85766 | pgbench_history  |                0
 2017-02-08 06:00:43.857664+01 | 1486530043.85766 | pgbench_branches |            16384

 2017-02-08 06:00:45.10499+01 | 1486530045.10499 | pgbench_accounts |       4028858368
 2017-02-08 06:00:45.10499+01 | 1486530045.10499 | pgbench_tellers  |           139264
 2017-02-08 06:00:45.10499+01 | 1486530045.10499 | pgbench_history  |                0
 2017-02-08 06:00:45.10499+01 | 1486530045.10499 | pgbench_branches |            16384

 2017-02-08 06:00:46.293345+01 | 1486530046.29334 | pgbench_accounts |       4028858368
 2017-02-08 06:00:46.293345+01 | 1486530046.29334 | pgbench_tellers  |           139264
 2017-02-08 06:00:46.293345+01 | 1486530046.29334 | pgbench_history  |                0
 2017-02-08 06:00:46.293345+01 | 1486530046.29334 | pgbench_branches |            16384

 2017-02-08 06:00:47.534408+01 | 1486530047.53441 | pgbench_accounts |       4028858368
 2017-02-08 06:00:47.534408+01 | 1486530047.53441 | pgbench_tellers  |           139264
 2017-02-08 06:00:47.534408+01 | 1486530047.53441 | pgbench_history  |                0
 2017-02-08 06:00:47.534408+01 | 1486530047.53441 | pgbench_branches |            16384

 2017-02-08 06:00:48.688707+01 | 1486530048.68871 | pgbench_accounts |       4028858368
 2017-02-08 06:00:48.688707+01 | 1486530048.68871 | pgbench_tellers  |           139264
 2017-02-08 06:00:48.688707+01 | 1486530048.68871 | pgbench_history  |                0
 2017-02-08 06:00:48.688707+01 | 1486530048.68871 | pgbench_branches |            16384

 2017-02-08 06:00:49.88673+01 | 1486530049.88673 | pgbench_accounts |       4028858368
 2017-02-08 06:00:49.88673+01 | 1486530049.88673 | pgbench_tellers  |           139264
 2017-02-08 06:00:49.88673+01 | 1486530049.88673 | pgbench_history  |                0
 2017-02-08 06:00:49.88673+01 | 1486530049.88673 | pgbench_branches |            16384

 2017-02-08 06:00:51.123975+01 | 1486530051.12398 | pgbench_accounts |       4028858368
 2017-02-08 06:00:51.123975+01 | 1486530051.12398 | pgbench_tellers  |           139264
 2017-02-08 06:00:51.123975+01 | 1486530051.12398 | pgbench_history  |                0
 2017-02-08 06:00:51.123975+01 | 1486530051.12398 | pgbench_branches |            16384

 2017-02-08 06:00:52.384586+01 | 1486530052.38459 | pgbench_accounts |       4028858368
 2017-02-08 06:00:52.384586+01 | 1486530052.38459 | pgbench_tellers  |           139264
 2017-02-08 06:00:52.384586+01 | 1486530052.38459 | pgbench_history  |                0
 2017-02-08 06:00:52.384586+01 | 1486530052.38459 | pgbench_branches |            16384

 2017-02-08 06:00:53.61187+01 | 1486530053.61187 | pgbench_accounts |       4028858368
 2017-02-08 06:00:53.61187+01 | 1486530053.61187 | pgbench_tellers  |           139264
 2017-02-08 06:00:53.61187+01 | 1486530053.61187 | pgbench_history  |                0
 2017-02-08 06:00:53.61187+01 | 1486530053.61187 | pgbench_branches |            16384

 2017-02-08 06:00:54.877092+01 | 1486530054.87709 | pgbench_accounts |       4028858368
 2017-02-08 06:00:54.877092+01 | 1486530054.87709 | pgbench_tellers  |           139264
 2017-02-08 06:00:54.877092+01 | 1486530054.87709 | pgbench_history  |                0
 2017-02-08 06:00:54.877092+01 | 1486530054.87709 | pgbench_branches |            16384

 2017-02-08 06:00:56.069704+01 | 1486530056.0697 | pgbench_accounts |       4028858368
 2017-02-08 06:00:56.069704+01 | 1486530056.0697 | pgbench_tellers  |           139264
 2017-02-08 06:00:56.069704+01 | 1486530056.0697 | pgbench_history  |                0
 2017-02-08 06:00:56.069704+01 | 1486530056.0697 | pgbench_branches |            16384

 2017-02-08 06:00:57.322136+01 | 1486530057.32214 | pgbench_accounts |       4028858368
 2017-02-08 06:00:57.322136+01 | 1486530057.32214 | pgbench_tellers  |           139264
 2017-02-08 06:00:57.322136+01 | 1486530057.32214 | pgbench_history  |                0
 2017-02-08 06:00:57.322136+01 | 1486530057.32214 | pgbench_branches |            16384

 2017-02-08 06:00:58.537687+01 | 1486530058.53769 | pgbench_accounts |       4028858368
 2017-02-08 06:00:58.537687+01 | 1486530058.53769 | pgbench_tellers  |           139264
 2017-02-08 06:00:58.537687+01 | 1486530058.53769 | pgbench_history  |                0
 2017-02-08 06:00:58.537687+01 | 1486530058.53769 | pgbench_branches |            16384

 2017-02-08 06:00:59.752884+01 | 1486530059.75288 | pgbench_accounts |       4028858368
 2017-02-08 06:00:59.752884+01 | 1486530059.75288 | pgbench_tellers  |           139264
 2017-02-08 06:00:59.752884+01 | 1486530059.75288 | pgbench_history  |                0
 2017-02-08 06:00:59.752884+01 | 1486530059.75288 | pgbench_branches |            16384

 2017-02-08 06:01:00.953673+01 | 1486530060.95367 | pgbench_accounts |       4028858368
 2017-02-08 06:01:00.953673+01 | 1486530060.95367 | pgbench_tellers  |           139264
 2017-02-08 06:01:00.953673+01 | 1486530060.95367 | pgbench_history  |                0
 2017-02-08 06:01:00.953673+01 | 1486530060.95367 | pgbench_branches |            16384

 2017-02-08 06:01:02.154246+01 | 1486530062.15425 | pgbench_accounts |       4028858368
 2017-02-08 06:01:02.154246+01 | 1486530062.15425 | pgbench_tellers  |           139264
 2017-02-08 06:01:02.154246+01 | 1486530062.15425 | pgbench_history  |                0
 2017-02-08 06:01:02.154246+01 | 1486530062.15425 | pgbench_branches |            16384

 2017-02-08 06:01:03.38809+01 | 1486530063.38809 | pgbench_accounts |       4028858368
 2017-02-08 06:01:03.38809+01 | 1486530063.38809 | pgbench_tellers  |           139264
 2017-02-08 06:01:03.38809+01 | 1486530063.38809 | pgbench_history  |                0
 2017-02-08 06:01:03.38809+01 | 1486530063.38809 | pgbench_branches |            16384

 2017-02-08 06:01:04.618862+01 | 1486530064.61886 | pgbench_accounts |       4028858368
 2017-02-08 06:01:04.618862+01 | 1486530064.61886 | pgbench_tellers  |           139264
 2017-02-08 06:01:04.618862+01 | 1486530064.61886 | pgbench_history  |                0
 2017-02-08 06:01:04.618862+01 | 1486530064.61886 | pgbench_branches |            16384

 2017-02-08 06:01:05.839619+01 | 1486530065.83962 | pgbench_accounts |       4028858368
 2017-02-08 06:01:05.839619+01 | 1486530065.83962 | pgbench_tellers  |           139264
 2017-02-08 06:01:05.839619+01 | 1486530065.83962 | pgbench_history  |                0
 2017-02-08 06:01:05.839619+01 | 1486530065.83962 | pgbench_branches |            16384

 2017-02-08 06:01:07.074574+01 | 1486530067.07457 | pgbench_accounts |       4028858368
 2017-02-08 06:01:07.074574+01 | 1486530067.07457 | pgbench_tellers  |           139264
 2017-02-08 06:01:07.074574+01 | 1486530067.07457 | pgbench_history  |                0
 2017-02-08 06:01:07.074574+01 | 1486530067.07457 | pgbench_branches |            16384

 2017-02-08 06:01:08.316464+01 | 1486530068.31646 | pgbench_accounts |       4028858368
 2017-02-08 06:01:08.316464+01 | 1486530068.31646 | pgbench_tellers  |           139264
 2017-02-08 06:01:08.316464+01 | 1486530068.31646 | pgbench_history  |                0
 2017-02-08 06:01:08.316464+01 | 1486530068.31646 | pgbench_branches |            16384

 2017-02-08 06:01:09.540928+01 | 1486530069.54093 | pgbench_accounts |       4028858368
 2017-02-08 06:01:09.540928+01 | 1486530069.54093 | pgbench_tellers  |           139264
 2017-02-08 06:01:09.540928+01 | 1486530069.54093 | pgbench_history  |                0
 2017-02-08 06:01:09.540928+01 | 1486530069.54093 | pgbench_branches |            16384

 2017-02-08 06:01:10.768039+01 | 1486530070.76804 | pgbench_accounts |       4028858368
 2017-02-08 06:01:10.768039+01 | 1486530070.76804 | pgbench_tellers  |           139264
 2017-02-08 06:01:10.768039+01 | 1486530070.76804 | pgbench_history  |                0
 2017-02-08 06:01:10.768039+01 | 1486530070.76804 | pgbench_branches |            16384

 2017-02-08 06:01:12.034319+01 | 1486530072.03432 | pgbench_accounts |       4028858368
 2017-02-08 06:01:12.034319+01 | 1486530072.03432 | pgbench_tellers  |           139264
 2017-02-08 06:01:12.034319+01 | 1486530072.03432 | pgbench_history  |                0
 2017-02-08 06:01:12.034319+01 | 1486530072.03432 | pgbench_branches |            16384

 2017-02-08 06:01:13.265615+01 | 1486530073.26561 | pgbench_accounts |       4028858368
 2017-02-08 06:01:13.265615+01 | 1486530073.26561 | pgbench_tellers  |           139264
 2017-02-08 06:01:13.265615+01 | 1486530073.26561 | pgbench_history  |                0
 2017-02-08 06:01:13.265615+01 | 1486530073.26561 | pgbench_branches |            16384

 2017-02-08 06:01:14.468004+01 | 1486530074.468 | pgbench_accounts |       4028858368
 2017-02-08 06:01:14.468004+01 | 1486530074.468 | pgbench_tellers  |           139264
 2017-02-08 06:01:14.468004+01 | 1486530074.468 | pgbench_history  |                0
 2017-02-08 06:01:14.468004+01 | 1486530074.468 | pgbench_branches |            16384

 2017-02-08 06:01:15.710675+01 | 1486530075.71068 | pgbench_accounts |       4028858368
 2017-02-08 06:01:15.710675+01 | 1486530075.71068 | pgbench_tellers  |           139264
 2017-02-08 06:01:15.710675+01 | 1486530075.71068 | pgbench_history  |                0
 2017-02-08 06:01:15.710675+01 | 1486530075.71068 | pgbench_branches |            16384

 2017-02-08 06:01:16.960941+01 | 1486530076.96094 | pgbench_accounts |       4028858368
 2017-02-08 06:01:16.960941+01 | 1486530076.96094 | pgbench_tellers  |           139264
 2017-02-08 06:01:16.960941+01 | 1486530076.96094 | pgbench_history  |                0
 2017-02-08 06:01:16.960941+01 | 1486530076.96094 | pgbench_branches |            16384

 2017-02-08 06:01:18.247137+01 | 1486530078.24714 | pgbench_accounts |       4028858368
 2017-02-08 06:01:18.247137+01 | 1486530078.24714 | pgbench_tellers  |           139264
 2017-02-08 06:01:18.247137+01 | 1486530078.24714 | pgbench_history  |                0
 2017-02-08 06:01:18.247137+01 | 1486530078.24714 | pgbench_branches |            16384

 2017-02-08 06:01:19.482819+01 | 1486530079.48282 | pgbench_accounts |       4028858368
 2017-02-08 06:01:19.482819+01 | 1486530079.48282 | pgbench_tellers  |           139264
 2017-02-08 06:01:19.482819+01 | 1486530079.48282 | pgbench_history  |                0
 2017-02-08 06:01:19.482819+01 | 1486530079.48282 | pgbench_branches |            16384

 2017-02-08 06:01:20.716326+01 | 1486530080.71633 | pgbench_accounts |       4028858368
 2017-02-08 06:01:20.716326+01 | 1486530080.71633 | pgbench_tellers  |           139264
 2017-02-08 06:01:20.716326+01 | 1486530080.71633 | pgbench_history  |                0
 2017-02-08 06:01:20.716326+01 | 1486530080.71633 | pgbench_branches |            16384

 2017-02-08 06:01:21.926845+01 | 1486530081.92685 | pgbench_accounts |       4028858368
 2017-02-08 06:01:21.926845+01 | 1486530081.92685 | pgbench_tellers  |           139264
 2017-02-08 06:01:21.926845+01 | 1486530081.92685 | pgbench_history  |                0
 2017-02-08 06:01:21.926845+01 | 1486530081.92685 | pgbench_branches |            16384

 2017-02-08 06:01:23.127123+01 | 1486530083.12712 | pgbench_accounts |       4028858368
 2017-02-08 06:01:23.127123+01 | 1486530083.12712 | pgbench_tellers  |           139264
 2017-02-08 06:01:23.127123+01 | 1486530083.12712 | pgbench_history  |                0
 2017-02-08 06:01:23.127123+01 | 1486530083.12712 | pgbench_branches |            16384

 2017-02-08 06:01:24.333483+01 | 1486530084.33348 | pgbench_accounts |       4028858368
 2017-02-08 06:01:24.333483+01 | 1486530084.33348 | pgbench_tellers  |           139264
 2017-02-08 06:01:24.333483+01 | 1486530084.33348 | pgbench_history  |                0
 2017-02-08 06:01:24.333483+01 | 1486530084.33348 | pgbench_branches |            16384

 2017-02-08 06:01:25.580896+01 | 1486530085.5809 | pgbench_accounts |       4028858368
 2017-02-08 06:01:25.580896+01 | 1486530085.5809 | pgbench_tellers  |           139264
 2017-02-08 06:01:25.580896+01 | 1486530085.5809 | pgbench_history  |                0
 2017-02-08 06:01:25.580896+01 | 1486530085.5809 | pgbench_branches |            16384

 2017-02-08 06:01:26.800443+01 | 1486530086.80044 | pgbench_accounts |       4028858368
 2017-02-08 06:01:26.800443+01 | 1486530086.80044 | pgbench_tellers  |           139264
 2017-02-08 06:01:26.800443+01 | 1486530086.80044 | pgbench_history  |                0
 2017-02-08 06:01:26.800443+01 | 1486530086.80044 | pgbench_branches |            16384

 2017-02-08 06:01:28.029133+01 | 1486530088.02913 | pgbench_accounts |       4028858368
 2017-02-08 06:01:28.029133+01 | 1486530088.02913 | pgbench_tellers  |           139264
 2017-02-08 06:01:28.029133+01 | 1486530088.02913 | pgbench_history  |                0
 2017-02-08 06:01:28.029133+01 | 1486530088.02913 | pgbench_branches |            16384

 2017-02-08 06:01:29.25501+01 | 1486530089.25501 | pgbench_accounts |       4028858368
 2017-02-08 06:01:29.25501+01 | 1486530089.25501 | pgbench_tellers  |           139264
 2017-02-08 06:01:29.25501+01 | 1486530089.25501 | pgbench_history  |                0
 2017-02-08 06:01:29.25501+01 | 1486530089.25501 | pgbench_branches |            16384

 2017-02-08 06:01:30.463862+01 | 1486530090.46386 | pgbench_accounts |       4028858368
 2017-02-08 06:01:30.463862+01 | 1486530090.46386 | pgbench_tellers  |           139264
 2017-02-08 06:01:30.463862+01 | 1486530090.46386 | pgbench_history  |                0
 2017-02-08 06:01:30.463862+01 | 1486530090.46386 | pgbench_branches |            16384

 2017-02-08 06:01:31.659715+01 | 1486530091.65971 | pgbench_accounts |       4028858368
 2017-02-08 06:01:31.659715+01 | 1486530091.65971 | pgbench_tellers  |           139264
 2017-02-08 06:01:31.659715+01 | 1486530091.65971 | pgbench_history  |                0
 2017-02-08 06:01:31.659715+01 | 1486530091.65971 | pgbench_branches |            16384

 2017-02-08 06:01:32.892954+01 | 1486530092.89295 | pgbench_accounts |       4028858368
 2017-02-08 06:01:32.892954+01 | 1486530092.89295 | pgbench_tellers  |           139264
 2017-02-08 06:01:32.892954+01 | 1486530092.89295 | pgbench_history  |                0
 2017-02-08 06:01:32.892954+01 | 1486530092.89295 | pgbench_branches |            16384

 2017-02-08 06:01:34.105527+01 | 1486530094.10553 | pgbench_accounts |       4028858368
 2017-02-08 06:01:34.105527+01 | 1486530094.10553 | pgbench_tellers  |           139264
 2017-02-08 06:01:34.105527+01 | 1486530094.10553 | pgbench_history  |                0
 2017-02-08 06:01:34.105527+01 | 1486530094.10553 | pgbench_branches |            16384

 2017-02-08 06:01:35.310153+01 | 1486530095.31015 | pgbench_accounts |       4028858368
 2017-02-08 06:01:35.310153+01 | 1486530095.31015 | pgbench_tellers  |           139264
 2017-02-08 06:01:35.310153+01 | 1486530095.31015 | pgbench_history  |                0
 2017-02-08 06:01:35.310153+01 | 1486530095.31015 | pgbench_branches |            16384

 2017-02-08 06:01:36.529327+01 | 1486530096.52933 | pgbench_accounts |       4028858368
 2017-02-08 06:01:36.529327+01 | 1486530096.52933 | pgbench_tellers  |           139264
 2017-02-08 06:01:36.529327+01 | 1486530096.52933 | pgbench_history  |                0
 2017-02-08 06:01:36.529327+01 | 1486530096.52933 | pgbench_branches |            16384

 2017-02-08 06:01:37.761698+01 | 1486530097.7617 | pgbench_accounts |       4028858368
 2017-02-08 06:01:37.761698+01 | 1486530097.7617 | pgbench_tellers  |           139264
 2017-02-08 06:01:37.761698+01 | 1486530097.7617 | pgbench_history  |                0
 2017-02-08 06:01:37.761698+01 | 1486530097.7617 | pgbench_branches |            16384

 2017-02-08 06:01:38.928098+01 | 1486530098.9281 | pgbench_accounts |       4028858368
 2017-02-08 06:01:38.928098+01 | 1486530098.9281 | pgbench_tellers  |           139264
 2017-02-08 06:01:38.928098+01 | 1486530098.9281 | pgbench_history  |                0
 2017-02-08 06:01:38.928098+01 | 1486530098.9281 | pgbench_branches |            16384

 2017-02-08 06:01:40.162643+01 | 1486530100.16264 | pgbench_accounts |       4028858368
 2017-02-08 06:01:40.162643+01 | 1486530100.16264 | pgbench_tellers  |           139264
 2017-02-08 06:01:40.162643+01 | 1486530100.16264 | pgbench_history  |                0
 2017-02-08 06:01:40.162643+01 | 1486530100.16264 | pgbench_branches |            16384

 2017-02-08 06:01:41.36788+01 | 1486530101.36788 | pgbench_accounts |       4028858368
 2017-02-08 06:01:41.36788+01 | 1486530101.36788 | pgbench_tellers  |           139264
 2017-02-08 06:01:41.36788+01 | 1486530101.36788 | pgbench_history  |                0
 2017-02-08 06:01:41.36788+01 | 1486530101.36788 | pgbench_branches |            16384

 2017-02-08 06:01:42.596171+01 | 1486530102.59617 | pgbench_accounts |       4028858368
 2017-02-08 06:01:42.596171+01 | 1486530102.59617 | pgbench_tellers  |           139264
 2017-02-08 06:01:42.596171+01 | 1486530102.59617 | pgbench_history  |                0
 2017-02-08 06:01:42.596171+01 | 1486530102.59617 | pgbench_branches |            16384

 2017-02-08 06:01:43.873478+01 | 1486530103.87348 | pgbench_accounts |       4028858368
 2017-02-08 06:01:43.873478+01 | 1486530103.87348 | pgbench_tellers  |           139264
 2017-02-08 06:01:43.873478+01 | 1486530103.87348 | pgbench_history  |                0
 2017-02-08 06:01:43.873478+01 | 1486530103.87348 | pgbench_branches |            16384

 2017-02-08 06:01:45.159918+01 | 1486530105.15992 | pgbench_accounts |       4028858368
 2017-02-08 06:01:45.159918+01 | 1486530105.15992 | pgbench_tellers  |           139264
 2017-02-08 06:01:45.159918+01 | 1486530105.15992 | pgbench_history  |                0
 2017-02-08 06:01:45.159918+01 | 1486530105.15992 | pgbench_branches |            16384

 2017-02-08 06:01:46.425803+01 | 1486530106.4258 | pgbench_accounts |       4028858368
 2017-02-08 06:01:46.425803+01 | 1486530106.4258 | pgbench_tellers  |           139264
 2017-02-08 06:01:46.425803+01 | 1486530106.4258 | pgbench_history  |                0
 2017-02-08 06:01:46.425803+01 | 1486530106.4258 | pgbench_branches |            16384

 2017-02-08 06:01:47.670007+01 | 1486530107.67001 | pgbench_accounts |       4028858368
 2017-02-08 06:01:47.670007+01 | 1486530107.67001 | pgbench_tellers  |           139264
 2017-02-08 06:01:47.670007+01 | 1486530107.67001 | pgbench_history  |                0
 2017-02-08 06:01:47.670007+01 | 1486530107.67001 | pgbench_branches |            16384

 2017-02-08 06:01:48.823063+01 | 1486530108.82306 | pgbench_accounts |       4028858368
 2017-02-08 06:01:48.823063+01 | 1486530108.82306 | pgbench_tellers  |           139264
 2017-02-08 06:01:48.823063+01 | 1486530108.82306 | pgbench_history  |                0
 2017-02-08 06:01:48.823063+01 | 1486530108.82306 | pgbench_branches |            16384

 2017-02-08 06:01:50.052069+01 | 1486530110.05207 | pgbench_accounts |       4028858368
 2017-02-08 06:01:50.052069+01 | 1486530110.05207 | pgbench_tellers  |           139264
 2017-02-08 06:01:50.052069+01 | 1486530110.05207 | pgbench_history  |                0
 2017-02-08 06:01:50.052069+01 | 1486530110.05207 | pgbench_branches |            16384

 2017-02-08 06:01:51.293173+01 | 1486530111.29317 | pgbench_accounts |       4028858368
 2017-02-08 06:01:51.293173+01 | 1486530111.29317 | pgbench_tellers  |           139264
 2017-02-08 06:01:51.293173+01 | 1486530111.29317 | pgbench_history  |                0
 2017-02-08 06:01:51.293173+01 | 1486530111.29317 | pgbench_branches |            16384

 2017-02-08 06:01:52.60219+01 | 1486530112.60219 | pgbench_accounts |       4028858368
 2017-02-08 06:01:52.60219+01 | 1486530112.60219 | pgbench_tellers  |           139264
 2017-02-08 06:01:52.60219+01 | 1486530112.60219 | pgbench_history  |                0
 2017-02-08 06:01:52.60219+01 | 1486530112.60219 | pgbench_branches |            16384

 2017-02-08 06:01:53.860719+01 | 1486530113.86072 | pgbench_accounts |       4028858368
 2017-02-08 06:01:53.860719+01 | 1486530113.86072 | pgbench_tellers  |           139264
 2017-02-08 06:01:53.860719+01 | 1486530113.86072 | pgbench_history  |                0
 2017-02-08 06:01:53.860719+01 | 1486530113.86072 | pgbench_branches |            16384

 2017-02-08 06:01:55.138567+01 | 1486530115.13857 | pgbench_accounts |       4028858368
 2017-02-08 06:01:55.138567+01 | 1486530115.13857 | pgbench_tellers  |           139264
 2017-02-08 06:01:55.138567+01 | 1486530115.13857 | pgbench_history  |                0
 2017-02-08 06:01:55.138567+01 | 1486530115.13857 | pgbench_branches |            16384

 2017-02-08 06:01:56.347423+01 | 1486530116.34742 | pgbench_accounts |       4028858368
 2017-02-08 06:01:56.347423+01 | 1486530116.34742 | pgbench_tellers  |           139264
 2017-02-08 06:01:56.347423+01 | 1486530116.34742 | pgbench_history  |                0
 2017-02-08 06:01:56.347423+01 | 1486530116.34742 | pgbench_branches |            16384

 2017-02-08 06:01:57.541402+01 | 1486530117.5414 | pgbench_accounts |       4028858368
 2017-02-08 06:01:57.541402+01 | 1486530117.5414 | pgbench_tellers  |           139264
 2017-02-08 06:01:57.541402+01 | 1486530117.5414 | pgbench_history  |                0
 2017-02-08 06:01:57.541402+01 | 1486530117.5414 | pgbench_branches |            16384

 2017-02-08 06:01:58.719981+01 | 1486530118.71998 | pgbench_accounts |       4028858368
 2017-02-08 06:01:58.719981+01 | 1486530118.71998 | pgbench_tellers  |           139264
 2017-02-08 06:01:58.719981+01 | 1486530118.71998 | pgbench_history  |                0
 2017-02-08 06:01:58.719981+01 | 1486530118.71998 | pgbench_branches |            16384

 2017-02-08 06:01:59.96+01 | 1486530119.96 | pgbench_accounts |       4028858368
 2017-02-08 06:01:59.96+01 | 1486530119.96 | pgbench_tellers  |           139264
 2017-02-08 06:01:59.96+01 | 1486530119.96 | pgbench_history  |                0
 2017-02-08 06:01:59.96+01 | 1486530119.96 | pgbench_branches |            16384

 2017-02-08 06:02:01.197717+01 | 1486530121.19772 | pgbench_accounts |       4028858368
 2017-02-08 06:02:01.197717+01 | 1486530121.19772 | pgbench_tellers  |           139264
 2017-02-08 06:02:01.197717+01 | 1486530121.19772 | pgbench_history  |                0
 2017-02-08 06:02:01.197717+01 | 1486530121.19772 | pgbench_branches |            16384

 2017-02-08 06:02:02.445246+01 | 1486530122.44525 | pgbench_accounts |       4028858368
 2017-02-08 06:02:02.445246+01 | 1486530122.44525 | pgbench_tellers  |           139264
 2017-02-08 06:02:02.445246+01 | 1486530122.44525 | pgbench_history  |                0
 2017-02-08 06:02:02.445246+01 | 1486530122.44525 | pgbench_branches |            16384

 2017-02-08 06:02:03.658987+01 | 1486530123.65899 | pgbench_accounts |       4028858368
 2017-02-08 06:02:03.658987+01 | 1486530123.65899 | pgbench_tellers  |           139264
 2017-02-08 06:02:03.658987+01 | 1486530123.65899 | pgbench_history  |                0
 2017-02-08 06:02:03.658987+01 | 1486530123.65899 | pgbench_branches |            16384

 2017-02-08 06:02:04.906052+01 | 1486530124.90605 | pgbench_accounts |       4028858368
 2017-02-08 06:02:04.906052+01 | 1486530124.90605 | pgbench_tellers  |           139264
 2017-02-08 06:02:04.906052+01 | 1486530124.90605 | pgbench_history  |                0
 2017-02-08 06:02:04.906052+01 | 1486530124.90605 | pgbench_branches |            16384

 2017-02-08 06:02:06.079609+01 | 1486530126.07961 | pgbench_accounts |       4028858368
 2017-02-08 06:02:06.079609+01 | 1486530126.07961 | pgbench_tellers  |           139264
 2017-02-08 06:02:06.079609+01 | 1486530126.07961 | pgbench_history  |                0
 2017-02-08 06:02:06.079609+01 | 1486530126.07961 | pgbench_branches |            16384

 2017-02-08 06:02:07.275919+01 | 1486530127.27592 | pgbench_accounts |       4028858368
 2017-02-08 06:02:07.275919+01 | 1486530127.27592 | pgbench_tellers  |           139264
 2017-02-08 06:02:07.275919+01 | 1486530127.27592 | pgbench_history  |                0
 2017-02-08 06:02:07.275919+01 | 1486530127.27592 | pgbench_branches |            16384

 2017-02-08 06:02:08.457661+01 | 1486530128.45766 | pgbench_accounts |       4028858368
 2017-02-08 06:02:08.457661+01 | 1486530128.45766 | pgbench_tellers  |           139264
 2017-02-08 06:02:08.457661+01 | 1486530128.45766 | pgbench_history  |                0
 2017-02-08 06:02:08.457661+01 | 1486530128.45766 | pgbench_branches |            16384

 2017-02-08 06:02:09.687674+01 | 1486530129.68767 | pgbench_accounts |       4028858368
 2017-02-08 06:02:09.687674+01 | 1486530129.68767 | pgbench_tellers  |           139264
 2017-02-08 06:02:09.687674+01 | 1486530129.68767 | pgbench_history  |                0
 2017-02-08 06:02:09.687674+01 | 1486530129.68767 | pgbench_branches |            16384

 2017-02-08 06:02:10.990158+01 | 1486530130.99016 | pgbench_accounts |       4028858368
 2017-02-08 06:02:10.990158+01 | 1486530130.99016 | pgbench_tellers  |           139264
 2017-02-08 06:02:10.990158+01 | 1486530130.99016 | pgbench_history  |                0
 2017-02-08 06:02:10.990158+01 | 1486530130.99016 | pgbench_branches |            16384

 2017-02-08 06:02:12.226568+01 | 1486530132.22657 | pgbench_accounts |       4028858368
 2017-02-08 06:02:12.226568+01 | 1486530132.22657 | pgbench_tellers  |           139264
 2017-02-08 06:02:12.226568+01 | 1486530132.22657 | pgbench_history  |                0
 2017-02-08 06:02:12.226568+01 | 1486530132.22657 | pgbench_branches |            16384

 2017-02-08 06:02:13.471152+01 | 1486530133.47115 | pgbench_accounts |       4028858368
 2017-02-08 06:02:13.471152+01 | 1486530133.47115 | pgbench_tellers  |           139264
 2017-02-08 06:02:13.471152+01 | 1486530133.47115 | pgbench_history  |                0
 2017-02-08 06:02:13.471152+01 | 1486530133.47115 | pgbench_branches |            16384

 2017-02-08 06:02:14.663588+01 | 1486530134.66359 | pgbench_accounts |       4028858368
 2017-02-08 06:02:14.663588+01 | 1486530134.66359 | pgbench_tellers  |           139264
 2017-02-08 06:02:14.663588+01 | 1486530134.66359 | pgbench_history  |                0
 2017-02-08 06:02:14.663588+01 | 1486530134.66359 | pgbench_branches |            16384

 2017-02-08 06:02:15.885095+01 | 1486530135.88509 | pgbench_accounts |       4028858368
 2017-02-08 06:02:15.885095+01 | 1486530135.88509 | pgbench_tellers  |           139264
 2017-02-08 06:02:15.885095+01 | 1486530135.88509 | pgbench_history  |                0
 2017-02-08 06:02:15.885095+01 | 1486530135.88509 | pgbench_branches |            16384

 2017-02-08 06:02:17.138599+01 | 1486530137.1386 | pgbench_accounts |       4028858368
 2017-02-08 06:02:17.138599+01 | 1486530137.1386 | pgbench_tellers  |           139264
 2017-02-08 06:02:17.138599+01 | 1486530137.1386 | pgbench_history  |                0
 2017-02-08 06:02:17.138599+01 | 1486530137.1386 | pgbench_branches |            16384

 2017-02-08 06:02:18.389002+01 | 1486530138.389 | pgbench_accounts |       4028858368
 2017-02-08 06:02:18.389002+01 | 1486530138.389 | pgbench_tellers  |           139264
 2017-02-08 06:02:18.389002+01 | 1486530138.389 | pgbench_history  |                0
 2017-02-08 06:02:18.389002+01 | 1486530138.389 | pgbench_branches |            16384

 2017-02-08 06:02:19.630622+01 | 1486530139.63062 | pgbench_accounts |       4028858368
 2017-02-08 06:02:19.630622+01 | 1486530139.63062 | pgbench_tellers  |           139264
 2017-02-08 06:02:19.630622+01 | 1486530139.63062 | pgbench_history  |                0
 2017-02-08 06:02:19.630622+01 | 1486530139.63062 | pgbench_branches |            16384

 2017-02-08 06:02:20.848621+01 | 1486530140.84862 | pgbench_accounts |       4028858368
 2017-02-08 06:02:20.848621+01 | 1486530140.84862 | pgbench_tellers  |           139264
 2017-02-08 06:02:20.848621+01 | 1486530140.84862 | pgbench_history  |                0
 2017-02-08 06:02:20.848621+01 | 1486530140.84862 | pgbench_branches |            16384

 2017-02-08 06:02:22.063508+01 | 1486530142.06351 | pgbench_accounts |       4028858368
 2017-02-08 06:02:22.063508+01 | 1486530142.06351 | pgbench_tellers  |           139264
 2017-02-08 06:02:22.063508+01 | 1486530142.06351 | pgbench_history  |                0
 2017-02-08 06:02:22.063508+01 | 1486530142.06351 | pgbench_branches |            16384

