 2017-02-09 05:10:30.60163+01 | 1486613430.60163 | pgbench_accounts |       4028858368
 2017-02-09 05:10:30.60163+01 | 1486613430.60163 | pgbench_tellers  |           139264
 2017-02-09 05:10:30.60163+01 | 1486613430.60163 | pgbench_history  |                0
 2017-02-09 05:10:30.60163+01 | 1486613430.60163 | pgbench_branches |            16384

 2017-02-09 05:10:31.837294+01 | 1486613431.83729 | pgbench_accounts |       4028858368
 2017-02-09 05:10:31.837294+01 | 1486613431.83729 | pgbench_tellers  |           139264
 2017-02-09 05:10:31.837294+01 | 1486613431.83729 | pgbench_history  |                0
 2017-02-09 05:10:31.837294+01 | 1486613431.83729 | pgbench_branches |            16384

 2017-02-09 05:10:33.072008+01 | 1486613433.07201 | pgbench_accounts |       4028858368
 2017-02-09 05:10:33.072008+01 | 1486613433.07201 | pgbench_tellers  |           139264
 2017-02-09 05:10:33.072008+01 | 1486613433.07201 | pgbench_history  |                0
 2017-02-09 05:10:33.072008+01 | 1486613433.07201 | pgbench_branches |            16384

 2017-02-09 05:10:34.328609+01 | 1486613434.32861 | pgbench_accounts |       4028858368
 2017-02-09 05:10:34.328609+01 | 1486613434.32861 | pgbench_tellers  |           139264
 2017-02-09 05:10:34.328609+01 | 1486613434.32861 | pgbench_history  |                0
 2017-02-09 05:10:34.328609+01 | 1486613434.32861 | pgbench_branches |            16384

 2017-02-09 05:10:35.582556+01 | 1486613435.58256 | pgbench_accounts |       4028858368
 2017-02-09 05:10:35.582556+01 | 1486613435.58256 | pgbench_tellers  |           139264
 2017-02-09 05:10:35.582556+01 | 1486613435.58256 | pgbench_history  |                0
 2017-02-09 05:10:35.582556+01 | 1486613435.58256 | pgbench_branches |            16384

 2017-02-09 05:10:36.846089+01 | 1486613436.84609 | pgbench_accounts |       4028858368
 2017-02-09 05:10:36.846089+01 | 1486613436.84609 | pgbench_tellers  |           139264
 2017-02-09 05:10:36.846089+01 | 1486613436.84609 | pgbench_history  |                0
 2017-02-09 05:10:36.846089+01 | 1486613436.84609 | pgbench_branches |            16384

 2017-02-09 05:10:38.097619+01 | 1486613438.09762 | pgbench_accounts |       4028858368
 2017-02-09 05:10:38.097619+01 | 1486613438.09762 | pgbench_tellers  |           139264
 2017-02-09 05:10:38.097619+01 | 1486613438.09762 | pgbench_history  |                0
 2017-02-09 05:10:38.097619+01 | 1486613438.09762 | pgbench_branches |            16384

 2017-02-09 05:10:39.344898+01 | 1486613439.3449 | pgbench_accounts |       4028858368
 2017-02-09 05:10:39.344898+01 | 1486613439.3449 | pgbench_tellers  |           139264
 2017-02-09 05:10:39.344898+01 | 1486613439.3449 | pgbench_history  |                0
 2017-02-09 05:10:39.344898+01 | 1486613439.3449 | pgbench_branches |            16384

 2017-02-09 05:10:40.618227+01 | 1486613440.61823 | pgbench_accounts |       4028858368
 2017-02-09 05:10:40.618227+01 | 1486613440.61823 | pgbench_tellers  |           139264
 2017-02-09 05:10:40.618227+01 | 1486613440.61823 | pgbench_history  |                0
 2017-02-09 05:10:40.618227+01 | 1486613440.61823 | pgbench_branches |            16384

 2017-02-09 05:10:41.876112+01 | 1486613441.87611 | pgbench_accounts |       4028858368
 2017-02-09 05:10:41.876112+01 | 1486613441.87611 | pgbench_tellers  |           139264
 2017-02-09 05:10:41.876112+01 | 1486613441.87611 | pgbench_history  |                0
 2017-02-09 05:10:41.876112+01 | 1486613441.87611 | pgbench_branches |            16384

 2017-02-09 05:10:43.124327+01 | 1486613443.12433 | pgbench_accounts |       4028858368
 2017-02-09 05:10:43.124327+01 | 1486613443.12433 | pgbench_tellers  |           139264
 2017-02-09 05:10:43.124327+01 | 1486613443.12433 | pgbench_history  |                0
 2017-02-09 05:10:43.124327+01 | 1486613443.12433 | pgbench_branches |            16384

 2017-02-09 05:10:44.387484+01 | 1486613444.38748 | pgbench_accounts |       4028858368
 2017-02-09 05:10:44.387484+01 | 1486613444.38748 | pgbench_tellers  |           139264
 2017-02-09 05:10:44.387484+01 | 1486613444.38748 | pgbench_history  |                0
 2017-02-09 05:10:44.387484+01 | 1486613444.38748 | pgbench_branches |            16384

 2017-02-09 05:10:45.644816+01 | 1486613445.64482 | pgbench_accounts |       4028858368
 2017-02-09 05:10:45.644816+01 | 1486613445.64482 | pgbench_tellers  |           139264
 2017-02-09 05:10:45.644816+01 | 1486613445.64482 | pgbench_history  |                0
 2017-02-09 05:10:45.644816+01 | 1486613445.64482 | pgbench_branches |            16384

 2017-02-09 05:10:46.891115+01 | 1486613446.89111 | pgbench_accounts |       4028858368
 2017-02-09 05:10:46.891115+01 | 1486613446.89111 | pgbench_tellers  |           139264
 2017-02-09 05:10:46.891115+01 | 1486613446.89111 | pgbench_history  |                0
 2017-02-09 05:10:46.891115+01 | 1486613446.89111 | pgbench_branches |            16384

 2017-02-09 05:10:48.154315+01 | 1486613448.15431 | pgbench_accounts |       4028858368
 2017-02-09 05:10:48.154315+01 | 1486613448.15431 | pgbench_tellers  |           139264
 2017-02-09 05:10:48.154315+01 | 1486613448.15431 | pgbench_history  |                0
 2017-02-09 05:10:48.154315+01 | 1486613448.15431 | pgbench_branches |            16384

 2017-02-09 05:10:49.400465+01 | 1486613449.40047 | pgbench_accounts |       4028858368
 2017-02-09 05:10:49.400465+01 | 1486613449.40047 | pgbench_tellers  |           139264
 2017-02-09 05:10:49.400465+01 | 1486613449.40047 | pgbench_history  |                0
 2017-02-09 05:10:49.400465+01 | 1486613449.40047 | pgbench_branches |            16384

 2017-02-09 05:10:50.666101+01 | 1486613450.6661 | pgbench_accounts |       4028858368
 2017-02-09 05:10:50.666101+01 | 1486613450.6661 | pgbench_tellers  |           139264
 2017-02-09 05:10:50.666101+01 | 1486613450.6661 | pgbench_history  |                0
 2017-02-09 05:10:50.666101+01 | 1486613450.6661 | pgbench_branches |            16384

 2017-02-09 05:10:51.934168+01 | 1486613451.93417 | pgbench_accounts |       4028858368
 2017-02-09 05:10:51.934168+01 | 1486613451.93417 | pgbench_tellers  |           139264
 2017-02-09 05:10:51.934168+01 | 1486613451.93417 | pgbench_history  |                0
 2017-02-09 05:10:51.934168+01 | 1486613451.93417 | pgbench_branches |            16384

 2017-02-09 05:10:53.18289+01 | 1486613453.18289 | pgbench_accounts |       4028858368
 2017-02-09 05:10:53.18289+01 | 1486613453.18289 | pgbench_tellers  |           139264
 2017-02-09 05:10:53.18289+01 | 1486613453.18289 | pgbench_history  |                0
 2017-02-09 05:10:53.18289+01 | 1486613453.18289 | pgbench_branches |            16384

 2017-02-09 05:10:54.439831+01 | 1486613454.43983 | pgbench_accounts |       4028858368
 2017-02-09 05:10:54.439831+01 | 1486613454.43983 | pgbench_tellers  |           139264
 2017-02-09 05:10:54.439831+01 | 1486613454.43983 | pgbench_history  |                0
 2017-02-09 05:10:54.439831+01 | 1486613454.43983 | pgbench_branches |            16384

 2017-02-09 05:10:55.707583+01 | 1486613455.70758 | pgbench_accounts |       4028858368
 2017-02-09 05:10:55.707583+01 | 1486613455.70758 | pgbench_tellers  |           139264
 2017-02-09 05:10:55.707583+01 | 1486613455.70758 | pgbench_history  |                0
 2017-02-09 05:10:55.707583+01 | 1486613455.70758 | pgbench_branches |            16384

 2017-02-09 05:10:56.96823+01 | 1486613456.96823 | pgbench_accounts |       4028858368
 2017-02-09 05:10:56.96823+01 | 1486613456.96823 | pgbench_tellers  |           139264
 2017-02-09 05:10:56.96823+01 | 1486613456.96823 | pgbench_history  |                0
 2017-02-09 05:10:56.96823+01 | 1486613456.96823 | pgbench_branches |            16384

 2017-02-09 05:10:58.232149+01 | 1486613458.23215 | pgbench_accounts |       4028858368
 2017-02-09 05:10:58.232149+01 | 1486613458.23215 | pgbench_tellers  |           139264
 2017-02-09 05:10:58.232149+01 | 1486613458.23215 | pgbench_history  |                0
 2017-02-09 05:10:58.232149+01 | 1486613458.23215 | pgbench_branches |            16384

 2017-02-09 05:10:59.498073+01 | 1486613459.49807 | pgbench_accounts |       4028858368
 2017-02-09 05:10:59.498073+01 | 1486613459.49807 | pgbench_tellers  |           139264
 2017-02-09 05:10:59.498073+01 | 1486613459.49807 | pgbench_history  |                0
 2017-02-09 05:10:59.498073+01 | 1486613459.49807 | pgbench_branches |            16384

 2017-02-09 05:11:00.755063+01 | 1486613460.75506 | pgbench_accounts |       4028858368
 2017-02-09 05:11:00.755063+01 | 1486613460.75506 | pgbench_tellers  |           139264
 2017-02-09 05:11:00.755063+01 | 1486613460.75506 | pgbench_history  |                0
 2017-02-09 05:11:00.755063+01 | 1486613460.75506 | pgbench_branches |            16384

 2017-02-09 05:11:02.021147+01 | 1486613462.02115 | pgbench_accounts |       4028858368
 2017-02-09 05:11:02.021147+01 | 1486613462.02115 | pgbench_tellers  |           139264
 2017-02-09 05:11:02.021147+01 | 1486613462.02115 | pgbench_history  |                0
 2017-02-09 05:11:02.021147+01 | 1486613462.02115 | pgbench_branches |            16384

 2017-02-09 05:11:03.28829+01 | 1486613463.28829 | pgbench_accounts |       4028858368
 2017-02-09 05:11:03.28829+01 | 1486613463.28829 | pgbench_tellers  |           139264
 2017-02-09 05:11:03.28829+01 | 1486613463.28829 | pgbench_history  |                0
 2017-02-09 05:11:03.28829+01 | 1486613463.28829 | pgbench_branches |            16384

 2017-02-09 05:11:04.533497+01 | 1486613464.5335 | pgbench_accounts |       4028858368
 2017-02-09 05:11:04.533497+01 | 1486613464.5335 | pgbench_tellers  |           139264
 2017-02-09 05:11:04.533497+01 | 1486613464.5335 | pgbench_history  |                0
 2017-02-09 05:11:04.533497+01 | 1486613464.5335 | pgbench_branches |            16384

 2017-02-09 05:11:05.798962+01 | 1486613465.79896 | pgbench_accounts |       4028858368
 2017-02-09 05:11:05.798962+01 | 1486613465.79896 | pgbench_tellers  |           139264
 2017-02-09 05:11:05.798962+01 | 1486613465.79896 | pgbench_history  |                0
 2017-02-09 05:11:05.798962+01 | 1486613465.79896 | pgbench_branches |            16384

 2017-02-09 05:11:07.062095+01 | 1486613467.06209 | pgbench_accounts |       4028858368
 2017-02-09 05:11:07.062095+01 | 1486613467.06209 | pgbench_tellers  |           139264
 2017-02-09 05:11:07.062095+01 | 1486613467.06209 | pgbench_history  |                0
 2017-02-09 05:11:07.062095+01 | 1486613467.06209 | pgbench_branches |            16384

 2017-02-09 05:11:08.321007+01 | 1486613468.32101 | pgbench_accounts |       4028858368
 2017-02-09 05:11:08.321007+01 | 1486613468.32101 | pgbench_tellers  |           139264
 2017-02-09 05:11:08.321007+01 | 1486613468.32101 | pgbench_history  |                0
 2017-02-09 05:11:08.321007+01 | 1486613468.32101 | pgbench_branches |            16384

 2017-02-09 05:11:09.585699+01 | 1486613469.5857 | pgbench_accounts |       4028858368
 2017-02-09 05:11:09.585699+01 | 1486613469.5857 | pgbench_tellers  |           139264
 2017-02-09 05:11:09.585699+01 | 1486613469.5857 | pgbench_history  |                0
 2017-02-09 05:11:09.585699+01 | 1486613469.5857 | pgbench_branches |            16384

 2017-02-09 05:11:10.820215+01 | 1486613470.82021 | pgbench_accounts |       4028858368
 2017-02-09 05:11:10.820215+01 | 1486613470.82021 | pgbench_tellers  |           139264
 2017-02-09 05:11:10.820215+01 | 1486613470.82021 | pgbench_history  |                0
 2017-02-09 05:11:10.820215+01 | 1486613470.82021 | pgbench_branches |            16384

 2017-02-09 05:11:12.071115+01 | 1486613472.07112 | pgbench_accounts |       4028858368
 2017-02-09 05:11:12.071115+01 | 1486613472.07112 | pgbench_tellers  |           139264
 2017-02-09 05:11:12.071115+01 | 1486613472.07112 | pgbench_history  |                0
 2017-02-09 05:11:12.071115+01 | 1486613472.07112 | pgbench_branches |            16384

 2017-02-09 05:11:13.321363+01 | 1486613473.32136 | pgbench_accounts |       4028858368
 2017-02-09 05:11:13.321363+01 | 1486613473.32136 | pgbench_tellers  |           139264
 2017-02-09 05:11:13.321363+01 | 1486613473.32136 | pgbench_history  |                0
 2017-02-09 05:11:13.321363+01 | 1486613473.32136 | pgbench_branches |            16384

 2017-02-09 05:11:14.586097+01 | 1486613474.5861 | pgbench_accounts |       4028858368
 2017-02-09 05:11:14.586097+01 | 1486613474.5861 | pgbench_tellers  |           139264
 2017-02-09 05:11:14.586097+01 | 1486613474.5861 | pgbench_history  |                0
 2017-02-09 05:11:14.586097+01 | 1486613474.5861 | pgbench_branches |            16384

 2017-02-09 05:11:15.835802+01 | 1486613475.8358 | pgbench_accounts |       4028858368
 2017-02-09 05:11:15.835802+01 | 1486613475.8358 | pgbench_tellers  |           139264
 2017-02-09 05:11:15.835802+01 | 1486613475.8358 | pgbench_history  |                0
 2017-02-09 05:11:15.835802+01 | 1486613475.8358 | pgbench_branches |            16384

 2017-02-09 05:11:17.0903+01 | 1486613477.0903 | pgbench_accounts |       4028858368
 2017-02-09 05:11:17.0903+01 | 1486613477.0903 | pgbench_tellers  |           139264
 2017-02-09 05:11:17.0903+01 | 1486613477.0903 | pgbench_history  |                0
 2017-02-09 05:11:17.0903+01 | 1486613477.0903 | pgbench_branches |            16384

 2017-02-09 05:11:18.34647+01 | 1486613478.34647 | pgbench_accounts |       4028858368
 2017-02-09 05:11:18.34647+01 | 1486613478.34647 | pgbench_tellers  |           139264
 2017-02-09 05:11:18.34647+01 | 1486613478.34647 | pgbench_history  |                0
 2017-02-09 05:11:18.34647+01 | 1486613478.34647 | pgbench_branches |            16384

 2017-02-09 05:11:19.606355+01 | 1486613479.60635 | pgbench_accounts |       4028858368
 2017-02-09 05:11:19.606355+01 | 1486613479.60635 | pgbench_tellers  |           139264
 2017-02-09 05:11:19.606355+01 | 1486613479.60635 | pgbench_history  |                0
 2017-02-09 05:11:19.606355+01 | 1486613479.60635 | pgbench_branches |            16384

 2017-02-09 05:11:20.862739+01 | 1486613480.86274 | pgbench_accounts |       4028858368
 2017-02-09 05:11:20.862739+01 | 1486613480.86274 | pgbench_tellers  |           139264
 2017-02-09 05:11:20.862739+01 | 1486613480.86274 | pgbench_history  |                0
 2017-02-09 05:11:20.862739+01 | 1486613480.86274 | pgbench_branches |            16384

 2017-02-09 05:11:22.124954+01 | 1486613482.12495 | pgbench_accounts |       4028858368
 2017-02-09 05:11:22.124954+01 | 1486613482.12495 | pgbench_tellers  |           139264
 2017-02-09 05:11:22.124954+01 | 1486613482.12495 | pgbench_history  |                0
 2017-02-09 05:11:22.124954+01 | 1486613482.12495 | pgbench_branches |            16384

 2017-02-09 05:11:23.386487+01 | 1486613483.38649 | pgbench_accounts |       4028858368
 2017-02-09 05:11:23.386487+01 | 1486613483.38649 | pgbench_tellers  |           139264
 2017-02-09 05:11:23.386487+01 | 1486613483.38649 | pgbench_history  |                0
 2017-02-09 05:11:23.386487+01 | 1486613483.38649 | pgbench_branches |            16384

 2017-02-09 05:11:24.629852+01 | 1486613484.62985 | pgbench_accounts |       4028858368
 2017-02-09 05:11:24.629852+01 | 1486613484.62985 | pgbench_tellers  |           139264
 2017-02-09 05:11:24.629852+01 | 1486613484.62985 | pgbench_history  |                0
 2017-02-09 05:11:24.629852+01 | 1486613484.62985 | pgbench_branches |            16384

 2017-02-09 05:11:25.876329+01 | 1486613485.87633 | pgbench_accounts |       4028858368
 2017-02-09 05:11:25.876329+01 | 1486613485.87633 | pgbench_tellers  |           139264
 2017-02-09 05:11:25.876329+01 | 1486613485.87633 | pgbench_history  |                0
 2017-02-09 05:11:25.876329+01 | 1486613485.87633 | pgbench_branches |            16384

 2017-02-09 05:11:27.133189+01 | 1486613487.13319 | pgbench_accounts |       4028858368
 2017-02-09 05:11:27.133189+01 | 1486613487.13319 | pgbench_tellers  |           139264
 2017-02-09 05:11:27.133189+01 | 1486613487.13319 | pgbench_history  |                0
 2017-02-09 05:11:27.133189+01 | 1486613487.13319 | pgbench_branches |            16384

 2017-02-09 05:11:28.381315+01 | 1486613488.38131 | pgbench_accounts |       4028858368
 2017-02-09 05:11:28.381315+01 | 1486613488.38131 | pgbench_tellers  |           139264
 2017-02-09 05:11:28.381315+01 | 1486613488.38131 | pgbench_history  |                0
 2017-02-09 05:11:28.381315+01 | 1486613488.38131 | pgbench_branches |            16384

 2017-02-09 05:11:29.638207+01 | 1486613489.63821 | pgbench_accounts |       4028858368
 2017-02-09 05:11:29.638207+01 | 1486613489.63821 | pgbench_tellers  |           139264
 2017-02-09 05:11:29.638207+01 | 1486613489.63821 | pgbench_history  |                0
 2017-02-09 05:11:29.638207+01 | 1486613489.63821 | pgbench_branches |            16384

 2017-02-09 05:11:30.887836+01 | 1486613490.88784 | pgbench_accounts |       4028858368
 2017-02-09 05:11:30.887836+01 | 1486613490.88784 | pgbench_tellers  |           139264
 2017-02-09 05:11:30.887836+01 | 1486613490.88784 | pgbench_history  |                0
 2017-02-09 05:11:30.887836+01 | 1486613490.88784 | pgbench_branches |            16384

 2017-02-09 05:11:32.141701+01 | 1486613492.1417 | pgbench_accounts |       4028858368
 2017-02-09 05:11:32.141701+01 | 1486613492.1417 | pgbench_tellers  |           139264
 2017-02-09 05:11:32.141701+01 | 1486613492.1417 | pgbench_history  |                0
 2017-02-09 05:11:32.141701+01 | 1486613492.1417 | pgbench_branches |            16384

 2017-02-09 05:11:33.382926+01 | 1486613493.38293 | pgbench_accounts |       4028858368
 2017-02-09 05:11:33.382926+01 | 1486613493.38293 | pgbench_tellers  |           139264
 2017-02-09 05:11:33.382926+01 | 1486613493.38293 | pgbench_history  |                0
 2017-02-09 05:11:33.382926+01 | 1486613493.38293 | pgbench_branches |            16384

 2017-02-09 05:11:34.639624+01 | 1486613494.63962 | pgbench_accounts |       4028858368
 2017-02-09 05:11:34.639624+01 | 1486613494.63962 | pgbench_tellers  |           139264
 2017-02-09 05:11:34.639624+01 | 1486613494.63962 | pgbench_history  |                0
 2017-02-09 05:11:34.639624+01 | 1486613494.63962 | pgbench_branches |            16384

 2017-02-09 05:11:35.903359+01 | 1486613495.90336 | pgbench_accounts |       4028858368
 2017-02-09 05:11:35.903359+01 | 1486613495.90336 | pgbench_tellers  |           139264
 2017-02-09 05:11:35.903359+01 | 1486613495.90336 | pgbench_history  |                0
 2017-02-09 05:11:35.903359+01 | 1486613495.90336 | pgbench_branches |            16384

 2017-02-09 05:11:37.160989+01 | 1486613497.16099 | pgbench_accounts |       4028858368
 2017-02-09 05:11:37.160989+01 | 1486613497.16099 | pgbench_tellers  |           139264
 2017-02-09 05:11:37.160989+01 | 1486613497.16099 | pgbench_history  |                0
 2017-02-09 05:11:37.160989+01 | 1486613497.16099 | pgbench_branches |            16384

 2017-02-09 05:11:38.418811+01 | 1486613498.41881 | pgbench_accounts |       4028858368
 2017-02-09 05:11:38.418811+01 | 1486613498.41881 | pgbench_tellers  |           139264
 2017-02-09 05:11:38.418811+01 | 1486613498.41881 | pgbench_history  |                0
 2017-02-09 05:11:38.418811+01 | 1486613498.41881 | pgbench_branches |            16384

 2017-02-09 05:11:39.648958+01 | 1486613499.64896 | pgbench_accounts |       4028858368
 2017-02-09 05:11:39.648958+01 | 1486613499.64896 | pgbench_tellers  |           139264
 2017-02-09 05:11:39.648958+01 | 1486613499.64896 | pgbench_history  |                0
 2017-02-09 05:11:39.648958+01 | 1486613499.64896 | pgbench_branches |            16384

 2017-02-09 05:11:40.898062+01 | 1486613500.89806 | pgbench_accounts |       4028858368
 2017-02-09 05:11:40.898062+01 | 1486613500.89806 | pgbench_tellers  |           139264
 2017-02-09 05:11:40.898062+01 | 1486613500.89806 | pgbench_history  |                0
 2017-02-09 05:11:40.898062+01 | 1486613500.89806 | pgbench_branches |            16384

 2017-02-09 05:11:42.143259+01 | 1486613502.14326 | pgbench_accounts |       4028858368
 2017-02-09 05:11:42.143259+01 | 1486613502.14326 | pgbench_tellers  |           139264
 2017-02-09 05:11:42.143259+01 | 1486613502.14326 | pgbench_history  |                0
 2017-02-09 05:11:42.143259+01 | 1486613502.14326 | pgbench_branches |            16384

 2017-02-09 05:11:43.400798+01 | 1486613503.4008 | pgbench_accounts |       4028858368
 2017-02-09 05:11:43.400798+01 | 1486613503.4008 | pgbench_tellers  |           139264
 2017-02-09 05:11:43.400798+01 | 1486613503.4008 | pgbench_history  |                0
 2017-02-09 05:11:43.400798+01 | 1486613503.4008 | pgbench_branches |            16384

 2017-02-09 05:11:44.669484+01 | 1486613504.66948 | pgbench_accounts |       4028858368
 2017-02-09 05:11:44.669484+01 | 1486613504.66948 | pgbench_tellers  |           139264
 2017-02-09 05:11:44.669484+01 | 1486613504.66948 | pgbench_history  |                0
 2017-02-09 05:11:44.669484+01 | 1486613504.66948 | pgbench_branches |            16384

 2017-02-09 05:11:45.936744+01 | 1486613505.93674 | pgbench_accounts |       4028858368
 2017-02-09 05:11:45.936744+01 | 1486613505.93674 | pgbench_tellers  |           139264
 2017-02-09 05:11:45.936744+01 | 1486613505.93674 | pgbench_history  |                0
 2017-02-09 05:11:45.936744+01 | 1486613505.93674 | pgbench_branches |            16384

 2017-02-09 05:11:47.201671+01 | 1486613507.20167 | pgbench_accounts |       4028858368
 2017-02-09 05:11:47.201671+01 | 1486613507.20167 | pgbench_tellers  |           139264
 2017-02-09 05:11:47.201671+01 | 1486613507.20167 | pgbench_history  |                0
 2017-02-09 05:11:47.201671+01 | 1486613507.20167 | pgbench_branches |            16384

 2017-02-09 05:11:48.463575+01 | 1486613508.46357 | pgbench_accounts |       4028858368
 2017-02-09 05:11:48.463575+01 | 1486613508.46357 | pgbench_tellers  |           139264
 2017-02-09 05:11:48.463575+01 | 1486613508.46357 | pgbench_history  |                0
 2017-02-09 05:11:48.463575+01 | 1486613508.46357 | pgbench_branches |            16384

 2017-02-09 05:11:49.723158+01 | 1486613509.72316 | pgbench_accounts |       4028858368
 2017-02-09 05:11:49.723158+01 | 1486613509.72316 | pgbench_tellers  |           139264
 2017-02-09 05:11:49.723158+01 | 1486613509.72316 | pgbench_history  |                0
 2017-02-09 05:11:49.723158+01 | 1486613509.72316 | pgbench_branches |            16384

 2017-02-09 05:11:50.973075+01 | 1486613510.97307 | pgbench_accounts |       4028858368
 2017-02-09 05:11:50.973075+01 | 1486613510.97307 | pgbench_tellers  |           139264
 2017-02-09 05:11:50.973075+01 | 1486613510.97307 | pgbench_history  |                0
 2017-02-09 05:11:50.973075+01 | 1486613510.97307 | pgbench_branches |            16384

 2017-02-09 05:11:52.238111+01 | 1486613512.23811 | pgbench_accounts |       4028858368
 2017-02-09 05:11:52.238111+01 | 1486613512.23811 | pgbench_tellers  |           139264
 2017-02-09 05:11:52.238111+01 | 1486613512.23811 | pgbench_history  |                0
 2017-02-09 05:11:52.238111+01 | 1486613512.23811 | pgbench_branches |            16384

 2017-02-09 05:11:53.482917+01 | 1486613513.48292 | pgbench_accounts |       4028858368
 2017-02-09 05:11:53.482917+01 | 1486613513.48292 | pgbench_tellers  |           139264
 2017-02-09 05:11:53.482917+01 | 1486613513.48292 | pgbench_history  |                0
 2017-02-09 05:11:53.482917+01 | 1486613513.48292 | pgbench_branches |            16384

 2017-02-09 05:11:54.751168+01 | 1486613514.75117 | pgbench_accounts |       4028858368
 2017-02-09 05:11:54.751168+01 | 1486613514.75117 | pgbench_tellers  |           139264
 2017-02-09 05:11:54.751168+01 | 1486613514.75117 | pgbench_history  |                0
 2017-02-09 05:11:54.751168+01 | 1486613514.75117 | pgbench_branches |            16384

 2017-02-09 05:11:56.008853+01 | 1486613516.00885 | pgbench_accounts |       4028858368
 2017-02-09 05:11:56.008853+01 | 1486613516.00885 | pgbench_tellers  |           139264
 2017-02-09 05:11:56.008853+01 | 1486613516.00885 | pgbench_history  |                0
 2017-02-09 05:11:56.008853+01 | 1486613516.00885 | pgbench_branches |            16384

 2017-02-09 05:11:57.260321+01 | 1486613517.26032 | pgbench_accounts |       4028858368
 2017-02-09 05:11:57.260321+01 | 1486613517.26032 | pgbench_tellers  |           139264
 2017-02-09 05:11:57.260321+01 | 1486613517.26032 | pgbench_history  |                0
 2017-02-09 05:11:57.260321+01 | 1486613517.26032 | pgbench_branches |            16384

 2017-02-09 05:11:58.49963+01 | 1486613518.49963 | pgbench_accounts |       4028858368
 2017-02-09 05:11:58.49963+01 | 1486613518.49963 | pgbench_tellers  |           139264
 2017-02-09 05:11:58.49963+01 | 1486613518.49963 | pgbench_history  |                0
 2017-02-09 05:11:58.49963+01 | 1486613518.49963 | pgbench_branches |            16384

 2017-02-09 05:11:59.762205+01 | 1486613519.7622 | pgbench_accounts |       4028858368
 2017-02-09 05:11:59.762205+01 | 1486613519.7622 | pgbench_tellers  |           139264
 2017-02-09 05:11:59.762205+01 | 1486613519.7622 | pgbench_history  |                0
 2017-02-09 05:11:59.762205+01 | 1486613519.7622 | pgbench_branches |            16384

 2017-02-09 05:12:00.997399+01 | 1486613520.9974 | pgbench_accounts |       4028858368
 2017-02-09 05:12:00.997399+01 | 1486613520.9974 | pgbench_tellers  |           139264
 2017-02-09 05:12:00.997399+01 | 1486613520.9974 | pgbench_history  |                0
 2017-02-09 05:12:00.997399+01 | 1486613520.9974 | pgbench_branches |            16384

 2017-02-09 05:12:02.260991+01 | 1486613522.26099 | pgbench_accounts |       4028858368
 2017-02-09 05:12:02.260991+01 | 1486613522.26099 | pgbench_tellers  |           139264
 2017-02-09 05:12:02.260991+01 | 1486613522.26099 | pgbench_history  |                0
 2017-02-09 05:12:02.260991+01 | 1486613522.26099 | pgbench_branches |            16384

 2017-02-09 05:12:03.503783+01 | 1486613523.50378 | pgbench_accounts |       4028858368
 2017-02-09 05:12:03.503783+01 | 1486613523.50378 | pgbench_tellers  |           139264
 2017-02-09 05:12:03.503783+01 | 1486613523.50378 | pgbench_history  |                0
 2017-02-09 05:12:03.503783+01 | 1486613523.50378 | pgbench_branches |            16384

 2017-02-09 05:12:04.747043+01 | 1486613524.74704 | pgbench_accounts |       4028858368
 2017-02-09 05:12:04.747043+01 | 1486613524.74704 | pgbench_tellers  |           139264
 2017-02-09 05:12:04.747043+01 | 1486613524.74704 | pgbench_history  |                0
 2017-02-09 05:12:04.747043+01 | 1486613524.74704 | pgbench_branches |            16384

 2017-02-09 05:12:05.999258+01 | 1486613525.99926 | pgbench_accounts |       4028858368
 2017-02-09 05:12:05.999258+01 | 1486613525.99926 | pgbench_tellers  |           139264
 2017-02-09 05:12:05.999258+01 | 1486613525.99926 | pgbench_history  |                0
 2017-02-09 05:12:05.999258+01 | 1486613525.99926 | pgbench_branches |            16384

 2017-02-09 05:12:07.254909+01 | 1486613527.25491 | pgbench_accounts |       4028858368
 2017-02-09 05:12:07.254909+01 | 1486613527.25491 | pgbench_tellers  |           139264
 2017-02-09 05:12:07.254909+01 | 1486613527.25491 | pgbench_history  |                0
 2017-02-09 05:12:07.254909+01 | 1486613527.25491 | pgbench_branches |            16384

 2017-02-09 05:12:08.516276+01 | 1486613528.51628 | pgbench_accounts |       4028858368
 2017-02-09 05:12:08.516276+01 | 1486613528.51628 | pgbench_tellers  |           139264
 2017-02-09 05:12:08.516276+01 | 1486613528.51628 | pgbench_history  |                0
 2017-02-09 05:12:08.516276+01 | 1486613528.51628 | pgbench_branches |            16384

 2017-02-09 05:12:09.775736+01 | 1486613529.77574 | pgbench_accounts |       4028858368
 2017-02-09 05:12:09.775736+01 | 1486613529.77574 | pgbench_tellers  |           139264
 2017-02-09 05:12:09.775736+01 | 1486613529.77574 | pgbench_history  |                0
 2017-02-09 05:12:09.775736+01 | 1486613529.77574 | pgbench_branches |            16384

 2017-02-09 05:12:11.025099+01 | 1486613531.0251 | pgbench_accounts |       4028858368
 2017-02-09 05:12:11.025099+01 | 1486613531.0251 | pgbench_tellers  |           139264
 2017-02-09 05:12:11.025099+01 | 1486613531.0251 | pgbench_history  |                0
 2017-02-09 05:12:11.025099+01 | 1486613531.0251 | pgbench_branches |            16384

 2017-02-09 05:12:12.288385+01 | 1486613532.28838 | pgbench_accounts |       4028858368
 2017-02-09 05:12:12.288385+01 | 1486613532.28838 | pgbench_tellers  |           139264
 2017-02-09 05:12:12.288385+01 | 1486613532.28838 | pgbench_history  |                0
 2017-02-09 05:12:12.288385+01 | 1486613532.28838 | pgbench_branches |            16384

 2017-02-09 05:12:13.545303+01 | 1486613533.5453 | pgbench_accounts |       4028858368
 2017-02-09 05:12:13.545303+01 | 1486613533.5453 | pgbench_tellers  |           139264
 2017-02-09 05:12:13.545303+01 | 1486613533.5453 | pgbench_history  |                0
 2017-02-09 05:12:13.545303+01 | 1486613533.5453 | pgbench_branches |            16384

 2017-02-09 05:12:14.804606+01 | 1486613534.80461 | pgbench_accounts |       4028858368
 2017-02-09 05:12:14.804606+01 | 1486613534.80461 | pgbench_tellers  |           139264
 2017-02-09 05:12:14.804606+01 | 1486613534.80461 | pgbench_history  |                0
 2017-02-09 05:12:14.804606+01 | 1486613534.80461 | pgbench_branches |            16384

 2017-02-09 05:12:16.06178+01 | 1486613536.06178 | pgbench_accounts |       4028858368
 2017-02-09 05:12:16.06178+01 | 1486613536.06178 | pgbench_tellers  |           139264
 2017-02-09 05:12:16.06178+01 | 1486613536.06178 | pgbench_history  |                0
 2017-02-09 05:12:16.06178+01 | 1486613536.06178 | pgbench_branches |            16384

 2017-02-09 05:12:17.322882+01 | 1486613537.32288 | pgbench_accounts |       4028858368
 2017-02-09 05:12:17.322882+01 | 1486613537.32288 | pgbench_tellers  |           139264
 2017-02-09 05:12:17.322882+01 | 1486613537.32288 | pgbench_history  |                0
 2017-02-09 05:12:17.322882+01 | 1486613537.32288 | pgbench_branches |            16384

 2017-02-09 05:12:18.565562+01 | 1486613538.56556 | pgbench_accounts |       4028858368
 2017-02-09 05:12:18.565562+01 | 1486613538.56556 | pgbench_tellers  |           139264
 2017-02-09 05:12:18.565562+01 | 1486613538.56556 | pgbench_history  |                0
 2017-02-09 05:12:18.565562+01 | 1486613538.56556 | pgbench_branches |            16384

 2017-02-09 05:12:19.821232+01 | 1486613539.82123 | pgbench_accounts |       4028858368
 2017-02-09 05:12:19.821232+01 | 1486613539.82123 | pgbench_tellers  |           139264
 2017-02-09 05:12:19.821232+01 | 1486613539.82123 | pgbench_history  |                0
 2017-02-09 05:12:19.821232+01 | 1486613539.82123 | pgbench_branches |            16384

 2017-02-09 05:12:21.078221+01 | 1486613541.07822 | pgbench_accounts |       4028858368
 2017-02-09 05:12:21.078221+01 | 1486613541.07822 | pgbench_tellers  |           139264
 2017-02-09 05:12:21.078221+01 | 1486613541.07822 | pgbench_history  |                0
 2017-02-09 05:12:21.078221+01 | 1486613541.07822 | pgbench_branches |            16384

 2017-02-09 05:12:22.346915+01 | 1486613542.34692 | pgbench_accounts |       4028858368
 2017-02-09 05:12:22.346915+01 | 1486613542.34692 | pgbench_tellers  |           139264
 2017-02-09 05:12:22.346915+01 | 1486613542.34692 | pgbench_history  |                0
 2017-02-09 05:12:22.346915+01 | 1486613542.34692 | pgbench_branches |            16384

 2017-02-09 05:12:23.605227+01 | 1486613543.60523 | pgbench_accounts |       4028858368
 2017-02-09 05:12:23.605227+01 | 1486613543.60523 | pgbench_tellers  |           139264
 2017-02-09 05:12:23.605227+01 | 1486613543.60523 | pgbench_history  |                0
 2017-02-09 05:12:23.605227+01 | 1486613543.60523 | pgbench_branches |            16384

 2017-02-09 05:12:24.852342+01 | 1486613544.85234 | pgbench_accounts |       4028858368
 2017-02-09 05:12:24.852342+01 | 1486613544.85234 | pgbench_tellers  |           139264
 2017-02-09 05:12:24.852342+01 | 1486613544.85234 | pgbench_history  |                0
 2017-02-09 05:12:24.852342+01 | 1486613544.85234 | pgbench_branches |            16384

 2017-02-09 05:12:26.112493+01 | 1486613546.11249 | pgbench_accounts |       4028858368
 2017-02-09 05:12:26.112493+01 | 1486613546.11249 | pgbench_tellers  |           139264
 2017-02-09 05:12:26.112493+01 | 1486613546.11249 | pgbench_history  |                0
 2017-02-09 05:12:26.112493+01 | 1486613546.11249 | pgbench_branches |            16384

 2017-02-09 05:12:27.371621+01 | 1486613547.37162 | pgbench_accounts |       4028858368
 2017-02-09 05:12:27.371621+01 | 1486613547.37162 | pgbench_tellers  |           139264
 2017-02-09 05:12:27.371621+01 | 1486613547.37162 | pgbench_history  |                0
 2017-02-09 05:12:27.371621+01 | 1486613547.37162 | pgbench_branches |            16384

 2017-02-09 05:12:28.622471+01 | 1486613548.62247 | pgbench_accounts |       4028858368
 2017-02-09 05:12:28.622471+01 | 1486613548.62247 | pgbench_tellers  |           139264
 2017-02-09 05:12:28.622471+01 | 1486613548.62247 | pgbench_history  |                0
 2017-02-09 05:12:28.622471+01 | 1486613548.62247 | pgbench_branches |            16384

 2017-02-09 05:12:29.878611+01 | 1486613549.87861 | pgbench_accounts |       4028858368
 2017-02-09 05:12:29.878611+01 | 1486613549.87861 | pgbench_tellers  |           139264
 2017-02-09 05:12:29.878611+01 | 1486613549.87861 | pgbench_history  |                0
 2017-02-09 05:12:29.878611+01 | 1486613549.87861 | pgbench_branches |            16384

 2017-02-09 05:12:31.144158+01 | 1486613551.14416 | pgbench_accounts |       4028858368
 2017-02-09 05:12:31.144158+01 | 1486613551.14416 | pgbench_tellers  |           139264
 2017-02-09 05:12:31.144158+01 | 1486613551.14416 | pgbench_history  |                0
 2017-02-09 05:12:31.144158+01 | 1486613551.14416 | pgbench_branches |            16384

 2017-02-09 05:12:32.400856+01 | 1486613552.40086 | pgbench_accounts |       4028858368
 2017-02-09 05:12:32.400856+01 | 1486613552.40086 | pgbench_tellers  |           139264
 2017-02-09 05:12:32.400856+01 | 1486613552.40086 | pgbench_history  |                0
 2017-02-09 05:12:32.400856+01 | 1486613552.40086 | pgbench_branches |            16384

 2017-02-09 05:12:33.64685+01 | 1486613553.64685 | pgbench_accounts |       4028858368
 2017-02-09 05:12:33.64685+01 | 1486613553.64685 | pgbench_tellers  |           139264
 2017-02-09 05:12:33.64685+01 | 1486613553.64685 | pgbench_history  |                0
 2017-02-09 05:12:33.64685+01 | 1486613553.64685 | pgbench_branches |            16384

 2017-02-09 05:12:34.908521+01 | 1486613554.90852 | pgbench_accounts |       4028858368
 2017-02-09 05:12:34.908521+01 | 1486613554.90852 | pgbench_tellers  |           139264
 2017-02-09 05:12:34.908521+01 | 1486613554.90852 | pgbench_history  |                0
 2017-02-09 05:12:34.908521+01 | 1486613554.90852 | pgbench_branches |            16384

 2017-02-09 05:12:36.12741+01 | 1486613556.12741 | pgbench_accounts |       4028858368
 2017-02-09 05:12:36.12741+01 | 1486613556.12741 | pgbench_tellers  |           139264
 2017-02-09 05:12:36.12741+01 | 1486613556.12741 | pgbench_history  |                0
 2017-02-09 05:12:36.12741+01 | 1486613556.12741 | pgbench_branches |            16384

 2017-02-09 05:12:37.357969+01 | 1486613557.35797 | pgbench_accounts |       4028858368
 2017-02-09 05:12:37.357969+01 | 1486613557.35797 | pgbench_tellers  |           139264
 2017-02-09 05:12:37.357969+01 | 1486613557.35797 | pgbench_history  |                0
 2017-02-09 05:12:37.357969+01 | 1486613557.35797 | pgbench_branches |            16384

 2017-02-09 05:12:38.590026+01 | 1486613558.59003 | pgbench_accounts |       4028858368
 2017-02-09 05:12:38.590026+01 | 1486613558.59003 | pgbench_tellers  |           139264
 2017-02-09 05:12:38.590026+01 | 1486613558.59003 | pgbench_history  |                0
 2017-02-09 05:12:38.590026+01 | 1486613558.59003 | pgbench_branches |            16384

 2017-02-09 05:12:39.823847+01 | 1486613559.82385 | pgbench_accounts |       4028858368
 2017-02-09 05:12:39.823847+01 | 1486613559.82385 | pgbench_tellers  |           139264
 2017-02-09 05:12:39.823847+01 | 1486613559.82385 | pgbench_history  |                0
 2017-02-09 05:12:39.823847+01 | 1486613559.82385 | pgbench_branches |            16384

 2017-02-09 05:12:41.053126+01 | 1486613561.05313 | pgbench_accounts |       4028858368
 2017-02-09 05:12:41.053126+01 | 1486613561.05313 | pgbench_tellers  |           139264
 2017-02-09 05:12:41.053126+01 | 1486613561.05313 | pgbench_history  |                0
 2017-02-09 05:12:41.053126+01 | 1486613561.05313 | pgbench_branches |            16384

 2017-02-09 05:12:42.289899+01 | 1486613562.2899 | pgbench_accounts |       4028858368
 2017-02-09 05:12:42.289899+01 | 1486613562.2899 | pgbench_tellers  |           139264
 2017-02-09 05:12:42.289899+01 | 1486613562.2899 | pgbench_history  |                0
 2017-02-09 05:12:42.289899+01 | 1486613562.2899 | pgbench_branches |            16384

 2017-02-09 05:12:43.560428+01 | 1486613563.56043 | pgbench_accounts |       4028858368
 2017-02-09 05:12:43.560428+01 | 1486613563.56043 | pgbench_tellers  |           139264
 2017-02-09 05:12:43.560428+01 | 1486613563.56043 | pgbench_history  |                0
 2017-02-09 05:12:43.560428+01 | 1486613563.56043 | pgbench_branches |            16384

 2017-02-09 05:12:44.832317+01 | 1486613564.83232 | pgbench_accounts |       4028858368
 2017-02-09 05:12:44.832317+01 | 1486613564.83232 | pgbench_tellers  |           139264
 2017-02-09 05:12:44.832317+01 | 1486613564.83232 | pgbench_history  |                0
 2017-02-09 05:12:44.832317+01 | 1486613564.83232 | pgbench_branches |            16384

 2017-02-09 05:12:46.103548+01 | 1486613566.10355 | pgbench_accounts |       4028858368
 2017-02-09 05:12:46.103548+01 | 1486613566.10355 | pgbench_tellers  |           139264
 2017-02-09 05:12:46.103548+01 | 1486613566.10355 | pgbench_history  |                0
 2017-02-09 05:12:46.103548+01 | 1486613566.10355 | pgbench_branches |            16384

 2017-02-09 05:12:47.352396+01 | 1486613567.3524 | pgbench_accounts |       4028858368
 2017-02-09 05:12:47.352396+01 | 1486613567.3524 | pgbench_tellers  |           139264
 2017-02-09 05:12:47.352396+01 | 1486613567.3524 | pgbench_history  |                0
 2017-02-09 05:12:47.352396+01 | 1486613567.3524 | pgbench_branches |            16384

 2017-02-09 05:12:48.620869+01 | 1486613568.62087 | pgbench_accounts |       4028858368
 2017-02-09 05:12:48.620869+01 | 1486613568.62087 | pgbench_tellers  |           139264
 2017-02-09 05:12:48.620869+01 | 1486613568.62087 | pgbench_history  |                0
 2017-02-09 05:12:48.620869+01 | 1486613568.62087 | pgbench_branches |            16384

 2017-02-09 05:12:49.862522+01 | 1486613569.86252 | pgbench_accounts |       4028858368
 2017-02-09 05:12:49.862522+01 | 1486613569.86252 | pgbench_tellers  |           139264
 2017-02-09 05:12:49.862522+01 | 1486613569.86252 | pgbench_history  |                0
 2017-02-09 05:12:49.862522+01 | 1486613569.86252 | pgbench_branches |            16384

 2017-02-09 05:12:51.141024+01 | 1486613571.14102 | pgbench_accounts |       4028858368
 2017-02-09 05:12:51.141024+01 | 1486613571.14102 | pgbench_tellers  |           139264
 2017-02-09 05:12:51.141024+01 | 1486613571.14102 | pgbench_history  |                0
 2017-02-09 05:12:51.141024+01 | 1486613571.14102 | pgbench_branches |            16384

 2017-02-09 05:12:52.389868+01 | 1486613572.38987 | pgbench_accounts |       4028858368
 2017-02-09 05:12:52.389868+01 | 1486613572.38987 | pgbench_tellers  |           139264
 2017-02-09 05:12:52.389868+01 | 1486613572.38987 | pgbench_history  |                0
 2017-02-09 05:12:52.389868+01 | 1486613572.38987 | pgbench_branches |            16384

 2017-02-09 05:12:53.632148+01 | 1486613573.63215 | pgbench_accounts |       4028858368
 2017-02-09 05:12:53.632148+01 | 1486613573.63215 | pgbench_tellers  |           139264
 2017-02-09 05:12:53.632148+01 | 1486613573.63215 | pgbench_history  |                0
 2017-02-09 05:12:53.632148+01 | 1486613573.63215 | pgbench_branches |            16384

 2017-02-09 05:12:54.886266+01 | 1486613574.88627 | pgbench_accounts |       4028858368
 2017-02-09 05:12:54.886266+01 | 1486613574.88627 | pgbench_tellers  |           139264
 2017-02-09 05:12:54.886266+01 | 1486613574.88627 | pgbench_history  |                0
 2017-02-09 05:12:54.886266+01 | 1486613574.88627 | pgbench_branches |            16384

 2017-02-09 05:12:56.083615+01 | 1486613576.08362 | pgbench_accounts |       4028858368
 2017-02-09 05:12:56.083615+01 | 1486613576.08362 | pgbench_tellers  |           139264
 2017-02-09 05:12:56.083615+01 | 1486613576.08362 | pgbench_history  |                0
 2017-02-09 05:12:56.083615+01 | 1486613576.08362 | pgbench_branches |            16384

 2017-02-09 05:12:57.3221+01 | 1486613577.3221 | pgbench_accounts |       4028858368
 2017-02-09 05:12:57.3221+01 | 1486613577.3221 | pgbench_tellers  |           139264
 2017-02-09 05:12:57.3221+01 | 1486613577.3221 | pgbench_history  |                0
 2017-02-09 05:12:57.3221+01 | 1486613577.3221 | pgbench_branches |            16384

 2017-02-09 05:12:58.57303+01 | 1486613578.57303 | pgbench_accounts |       4028858368
 2017-02-09 05:12:58.57303+01 | 1486613578.57303 | pgbench_tellers  |           139264
 2017-02-09 05:12:58.57303+01 | 1486613578.57303 | pgbench_history  |                0
 2017-02-09 05:12:58.57303+01 | 1486613578.57303 | pgbench_branches |            16384

 2017-02-09 05:12:59.818423+01 | 1486613579.81842 | pgbench_accounts |       4028858368
 2017-02-09 05:12:59.818423+01 | 1486613579.81842 | pgbench_tellers  |           139264
 2017-02-09 05:12:59.818423+01 | 1486613579.81842 | pgbench_history  |                0
 2017-02-09 05:12:59.818423+01 | 1486613579.81842 | pgbench_branches |            16384

 2017-02-09 05:13:01.074523+01 | 1486613581.07452 | pgbench_accounts |       4028858368
 2017-02-09 05:13:01.074523+01 | 1486613581.07452 | pgbench_tellers  |           139264
 2017-02-09 05:13:01.074523+01 | 1486613581.07452 | pgbench_history  |                0
 2017-02-09 05:13:01.074523+01 | 1486613581.07452 | pgbench_branches |            16384

 2017-02-09 05:13:02.319672+01 | 1486613582.31967 | pgbench_accounts |       4028858368
 2017-02-09 05:13:02.319672+01 | 1486613582.31967 | pgbench_tellers  |           139264
 2017-02-09 05:13:02.319672+01 | 1486613582.31967 | pgbench_history  |                0
 2017-02-09 05:13:02.319672+01 | 1486613582.31967 | pgbench_branches |            16384

 2017-02-09 05:13:03.558452+01 | 1486613583.55845 | pgbench_accounts |       4028858368
 2017-02-09 05:13:03.558452+01 | 1486613583.55845 | pgbench_tellers  |           139264
 2017-02-09 05:13:03.558452+01 | 1486613583.55845 | pgbench_history  |                0
 2017-02-09 05:13:03.558452+01 | 1486613583.55845 | pgbench_branches |            16384

 2017-02-09 05:13:04.792514+01 | 1486613584.79251 | pgbench_accounts |       4028858368
 2017-02-09 05:13:04.792514+01 | 1486613584.79251 | pgbench_tellers  |           139264
 2017-02-09 05:13:04.792514+01 | 1486613584.79251 | pgbench_history  |                0
 2017-02-09 05:13:04.792514+01 | 1486613584.79251 | pgbench_branches |            16384

 2017-02-09 05:13:06.030304+01 | 1486613586.0303 | pgbench_accounts |       4028858368
 2017-02-09 05:13:06.030304+01 | 1486613586.0303 | pgbench_tellers  |           139264
 2017-02-09 05:13:06.030304+01 | 1486613586.0303 | pgbench_history  |                0
 2017-02-09 05:13:06.030304+01 | 1486613586.0303 | pgbench_branches |            16384

 2017-02-09 05:13:07.269422+01 | 1486613587.26942 | pgbench_accounts |       4028858368
 2017-02-09 05:13:07.269422+01 | 1486613587.26942 | pgbench_tellers  |           139264
 2017-02-09 05:13:07.269422+01 | 1486613587.26942 | pgbench_history  |                0
 2017-02-09 05:13:07.269422+01 | 1486613587.26942 | pgbench_branches |            16384

 2017-02-09 05:13:08.498837+01 | 1486613588.49884 | pgbench_accounts |       4028858368
 2017-02-09 05:13:08.498837+01 | 1486613588.49884 | pgbench_tellers  |           139264
 2017-02-09 05:13:08.498837+01 | 1486613588.49884 | pgbench_history  |                0
 2017-02-09 05:13:08.498837+01 | 1486613588.49884 | pgbench_branches |            16384

 2017-02-09 05:13:09.732666+01 | 1486613589.73267 | pgbench_accounts |       4028858368
 2017-02-09 05:13:09.732666+01 | 1486613589.73267 | pgbench_tellers  |           139264
 2017-02-09 05:13:09.732666+01 | 1486613589.73267 | pgbench_history  |                0
 2017-02-09 05:13:09.732666+01 | 1486613589.73267 | pgbench_branches |            16384

 2017-02-09 05:13:10.964051+01 | 1486613590.96405 | pgbench_accounts |       4028858368
 2017-02-09 05:13:10.964051+01 | 1486613590.96405 | pgbench_tellers  |           139264
 2017-02-09 05:13:10.964051+01 | 1486613590.96405 | pgbench_history  |                0
 2017-02-09 05:13:10.964051+01 | 1486613590.96405 | pgbench_branches |            16384

 2017-02-09 05:13:12.239078+01 | 1486613592.23908 | pgbench_accounts |       4028858368
 2017-02-09 05:13:12.239078+01 | 1486613592.23908 | pgbench_tellers  |           139264
 2017-02-09 05:13:12.239078+01 | 1486613592.23908 | pgbench_history  |                0
 2017-02-09 05:13:12.239078+01 | 1486613592.23908 | pgbench_branches |            16384

 2017-02-09 05:13:13.505776+01 | 1486613593.50578 | pgbench_accounts |       4028858368
 2017-02-09 05:13:13.505776+01 | 1486613593.50578 | pgbench_tellers  |           139264
 2017-02-09 05:13:13.505776+01 | 1486613593.50578 | pgbench_history  |                0
 2017-02-09 05:13:13.505776+01 | 1486613593.50578 | pgbench_branches |            16384

 2017-02-09 05:13:14.759573+01 | 1486613594.75957 | pgbench_accounts |       4028858368
 2017-02-09 05:13:14.759573+01 | 1486613594.75957 | pgbench_tellers  |           139264
 2017-02-09 05:13:14.759573+01 | 1486613594.75957 | pgbench_history  |                0
 2017-02-09 05:13:14.759573+01 | 1486613594.75957 | pgbench_branches |            16384

 2017-02-09 05:13:15.957525+01 | 1486613595.95753 | pgbench_accounts |       4028858368
 2017-02-09 05:13:15.957525+01 | 1486613595.95753 | pgbench_tellers  |           139264
 2017-02-09 05:13:15.957525+01 | 1486613595.95753 | pgbench_history  |                0
 2017-02-09 05:13:15.957525+01 | 1486613595.95753 | pgbench_branches |            16384

 2017-02-09 05:13:17.189676+01 | 1486613597.18968 | pgbench_accounts |       4028858368
 2017-02-09 05:13:17.189676+01 | 1486613597.18968 | pgbench_tellers  |           139264
 2017-02-09 05:13:17.189676+01 | 1486613597.18968 | pgbench_history  |                0
 2017-02-09 05:13:17.189676+01 | 1486613597.18968 | pgbench_branches |            16384

 2017-02-09 05:13:18.441638+01 | 1486613598.44164 | pgbench_accounts |       4028858368
 2017-02-09 05:13:18.441638+01 | 1486613598.44164 | pgbench_tellers  |           139264
 2017-02-09 05:13:18.441638+01 | 1486613598.44164 | pgbench_history  |                0
 2017-02-09 05:13:18.441638+01 | 1486613598.44164 | pgbench_branches |            16384

 2017-02-09 05:13:19.698494+01 | 1486613599.69849 | pgbench_accounts |       4028858368
 2017-02-09 05:13:19.698494+01 | 1486613599.69849 | pgbench_tellers  |           139264
 2017-02-09 05:13:19.698494+01 | 1486613599.69849 | pgbench_history  |                0
 2017-02-09 05:13:19.698494+01 | 1486613599.69849 | pgbench_branches |            16384

 2017-02-09 05:13:20.92823+01 | 1486613600.92823 | pgbench_accounts |       4028858368
 2017-02-09 05:13:20.92823+01 | 1486613600.92823 | pgbench_tellers  |           139264
 2017-02-09 05:13:20.92823+01 | 1486613600.92823 | pgbench_history  |                0
 2017-02-09 05:13:20.92823+01 | 1486613600.92823 | pgbench_branches |            16384

 2017-02-09 05:13:22.208215+01 | 1486613602.20821 | pgbench_accounts |       4028858368
 2017-02-09 05:13:22.208215+01 | 1486613602.20821 | pgbench_tellers  |           139264
 2017-02-09 05:13:22.208215+01 | 1486613602.20821 | pgbench_history  |                0
 2017-02-09 05:13:22.208215+01 | 1486613602.20821 | pgbench_branches |            16384

 2017-02-09 05:13:23.471248+01 | 1486613603.47125 | pgbench_accounts |       4028858368
 2017-02-09 05:13:23.471248+01 | 1486613603.47125 | pgbench_tellers  |           139264
 2017-02-09 05:13:23.471248+01 | 1486613603.47125 | pgbench_history  |                0
 2017-02-09 05:13:23.471248+01 | 1486613603.47125 | pgbench_branches |            16384

 2017-02-09 05:13:24.654385+01 | 1486613604.65439 | pgbench_accounts |       4028858368
 2017-02-09 05:13:24.654385+01 | 1486613604.65439 | pgbench_tellers  |           139264
 2017-02-09 05:13:24.654385+01 | 1486613604.65439 | pgbench_history  |                0
 2017-02-09 05:13:24.654385+01 | 1486613604.65439 | pgbench_branches |            16384

 2017-02-09 05:13:25.906829+01 | 1486613605.90683 | pgbench_accounts |       4028858368
 2017-02-09 05:13:25.906829+01 | 1486613605.90683 | pgbench_tellers  |           139264
 2017-02-09 05:13:25.906829+01 | 1486613605.90683 | pgbench_history  |                0
 2017-02-09 05:13:25.906829+01 | 1486613605.90683 | pgbench_branches |            16384

 2017-02-09 05:13:27.139963+01 | 1486613607.13996 | pgbench_accounts |       4028858368
 2017-02-09 05:13:27.139963+01 | 1486613607.13996 | pgbench_tellers  |           139264
 2017-02-09 05:13:27.139963+01 | 1486613607.13996 | pgbench_history  |                0
 2017-02-09 05:13:27.139963+01 | 1486613607.13996 | pgbench_branches |            16384

 2017-02-09 05:13:28.444097+01 | 1486613608.4441 | pgbench_accounts |       4028858368
 2017-02-09 05:13:28.444097+01 | 1486613608.4441 | pgbench_tellers  |           139264
 2017-02-09 05:13:28.444097+01 | 1486613608.4441 | pgbench_history  |                0
 2017-02-09 05:13:28.444097+01 | 1486613608.4441 | pgbench_branches |            16384

 2017-02-09 05:13:29.684276+01 | 1486613609.68428 | pgbench_accounts |       4028858368
 2017-02-09 05:13:29.684276+01 | 1486613609.68428 | pgbench_tellers  |           139264
 2017-02-09 05:13:29.684276+01 | 1486613609.68428 | pgbench_history  |                0
 2017-02-09 05:13:29.684276+01 | 1486613609.68428 | pgbench_branches |            16384

 2017-02-09 05:13:30.939228+01 | 1486613610.93923 | pgbench_accounts |       4028858368
 2017-02-09 05:13:30.939228+01 | 1486613610.93923 | pgbench_tellers  |           139264
 2017-02-09 05:13:30.939228+01 | 1486613610.93923 | pgbench_history  |                0
 2017-02-09 05:13:30.939228+01 | 1486613610.93923 | pgbench_branches |            16384

 2017-02-09 05:13:32.194269+01 | 1486613612.19427 | pgbench_accounts |       4028858368
 2017-02-09 05:13:32.194269+01 | 1486613612.19427 | pgbench_tellers  |           139264
 2017-02-09 05:13:32.194269+01 | 1486613612.19427 | pgbench_history  |                0
 2017-02-09 05:13:32.194269+01 | 1486613612.19427 | pgbench_branches |            16384

 2017-02-09 05:13:33.447416+01 | 1486613613.44742 | pgbench_accounts |       4028858368
 2017-02-09 05:13:33.447416+01 | 1486613613.44742 | pgbench_tellers  |           139264
 2017-02-09 05:13:33.447416+01 | 1486613613.44742 | pgbench_history  |                0
 2017-02-09 05:13:33.447416+01 | 1486613613.44742 | pgbench_branches |            16384

 2017-02-09 05:13:34.73079+01 | 1486613614.73079 | pgbench_accounts |       4028858368
 2017-02-09 05:13:34.73079+01 | 1486613614.73079 | pgbench_tellers  |           139264
 2017-02-09 05:13:34.73079+01 | 1486613614.73079 | pgbench_history  |                0
 2017-02-09 05:13:34.73079+01 | 1486613614.73079 | pgbench_branches |            16384

 2017-02-09 05:13:36.031828+01 | 1486613616.03183 | pgbench_accounts |       4028858368
 2017-02-09 05:13:36.031828+01 | 1486613616.03183 | pgbench_tellers  |           139264
 2017-02-09 05:13:36.031828+01 | 1486613616.03183 | pgbench_history  |                0
 2017-02-09 05:13:36.031828+01 | 1486613616.03183 | pgbench_branches |            16384

 2017-02-09 05:13:37.254882+01 | 1486613617.25488 | pgbench_accounts |       4028858368
 2017-02-09 05:13:37.254882+01 | 1486613617.25488 | pgbench_tellers  |           139264
 2017-02-09 05:13:37.254882+01 | 1486613617.25488 | pgbench_history  |                0
 2017-02-09 05:13:37.254882+01 | 1486613617.25488 | pgbench_branches |            16384

 2017-02-09 05:13:38.52353+01 | 1486613618.52353 | pgbench_accounts |       4028858368
 2017-02-09 05:13:38.52353+01 | 1486613618.52353 | pgbench_tellers  |           139264
 2017-02-09 05:13:38.52353+01 | 1486613618.52353 | pgbench_history  |                0
 2017-02-09 05:13:38.52353+01 | 1486613618.52353 | pgbench_branches |            16384

 2017-02-09 05:13:39.763931+01 | 1486613619.76393 | pgbench_accounts |       4028858368
 2017-02-09 05:13:39.763931+01 | 1486613619.76393 | pgbench_tellers  |           139264
 2017-02-09 05:13:39.763931+01 | 1486613619.76393 | pgbench_history  |                0
 2017-02-09 05:13:39.763931+01 | 1486613619.76393 | pgbench_branches |            16384

 2017-02-09 05:13:40.99657+01 | 1486613620.99657 | pgbench_accounts |       4028858368
 2017-02-09 05:13:40.99657+01 | 1486613620.99657 | pgbench_tellers  |           139264
 2017-02-09 05:13:40.99657+01 | 1486613620.99657 | pgbench_history  |                0
 2017-02-09 05:13:40.99657+01 | 1486613620.99657 | pgbench_branches |            16384

 2017-02-09 05:13:42.230638+01 | 1486613622.23064 | pgbench_accounts |       4028858368
 2017-02-09 05:13:42.230638+01 | 1486613622.23064 | pgbench_tellers  |           139264
 2017-02-09 05:13:42.230638+01 | 1486613622.23064 | pgbench_history  |                0
 2017-02-09 05:13:42.230638+01 | 1486613622.23064 | pgbench_branches |            16384

 2017-02-09 05:13:43.480475+01 | 1486613623.48047 | pgbench_accounts |       4028858368
 2017-02-09 05:13:43.480475+01 | 1486613623.48047 | pgbench_tellers  |           139264
 2017-02-09 05:13:43.480475+01 | 1486613623.48047 | pgbench_history  |                0
 2017-02-09 05:13:43.480475+01 | 1486613623.48047 | pgbench_branches |            16384

 2017-02-09 05:13:44.762821+01 | 1486613624.76282 | pgbench_accounts |       4028858368
 2017-02-09 05:13:44.762821+01 | 1486613624.76282 | pgbench_tellers  |           139264
 2017-02-09 05:13:44.762821+01 | 1486613624.76282 | pgbench_history  |                0
 2017-02-09 05:13:44.762821+01 | 1486613624.76282 | pgbench_branches |            16384

 2017-02-09 05:13:45.997012+01 | 1486613625.99701 | pgbench_accounts |       4028858368
 2017-02-09 05:13:45.997012+01 | 1486613625.99701 | pgbench_tellers  |           139264
 2017-02-09 05:13:45.997012+01 | 1486613625.99701 | pgbench_history  |                0
 2017-02-09 05:13:45.997012+01 | 1486613625.99701 | pgbench_branches |            16384

 2017-02-09 05:13:47.227788+01 | 1486613627.22779 | pgbench_accounts |       4028858368
 2017-02-09 05:13:47.227788+01 | 1486613627.22779 | pgbench_tellers  |           139264
 2017-02-09 05:13:47.227788+01 | 1486613627.22779 | pgbench_history  |                0
 2017-02-09 05:13:47.227788+01 | 1486613627.22779 | pgbench_branches |            16384

 2017-02-09 05:13:48.455845+01 | 1486613628.45585 | pgbench_accounts |       4028858368
 2017-02-09 05:13:48.455845+01 | 1486613628.45585 | pgbench_tellers  |           139264
 2017-02-09 05:13:48.455845+01 | 1486613628.45585 | pgbench_history  |                0
 2017-02-09 05:13:48.455845+01 | 1486613628.45585 | pgbench_branches |            16384

 2017-02-09 05:13:49.705325+01 | 1486613629.70532 | pgbench_accounts |       4028858368
 2017-02-09 05:13:49.705325+01 | 1486613629.70532 | pgbench_tellers  |           139264
 2017-02-09 05:13:49.705325+01 | 1486613629.70532 | pgbench_history  |                0
 2017-02-09 05:13:49.705325+01 | 1486613629.70532 | pgbench_branches |            16384

 2017-02-09 05:13:50.951313+01 | 1486613630.95131 | pgbench_accounts |       4028858368
 2017-02-09 05:13:50.951313+01 | 1486613630.95131 | pgbench_tellers  |           139264
 2017-02-09 05:13:50.951313+01 | 1486613630.95131 | pgbench_history  |                0
 2017-02-09 05:13:50.951313+01 | 1486613630.95131 | pgbench_branches |            16384

 2017-02-09 05:13:52.192263+01 | 1486613632.19226 | pgbench_accounts |       4028858368
 2017-02-09 05:13:52.192263+01 | 1486613632.19226 | pgbench_tellers  |           139264
 2017-02-09 05:13:52.192263+01 | 1486613632.19226 | pgbench_history  |                0
 2017-02-09 05:13:52.192263+01 | 1486613632.19226 | pgbench_branches |            16384

 2017-02-09 05:13:53.437605+01 | 1486613633.4376 | pgbench_accounts |       4028858368
 2017-02-09 05:13:53.437605+01 | 1486613633.4376 | pgbench_tellers  |           139264
 2017-02-09 05:13:53.437605+01 | 1486613633.4376 | pgbench_history  |                0
 2017-02-09 05:13:53.437605+01 | 1486613633.4376 | pgbench_branches |            16384

 2017-02-09 05:13:54.676592+01 | 1486613634.67659 | pgbench_accounts |       4028858368
 2017-02-09 05:13:54.676592+01 | 1486613634.67659 | pgbench_tellers  |           139264
 2017-02-09 05:13:54.676592+01 | 1486613634.67659 | pgbench_history  |                0
 2017-02-09 05:13:54.676592+01 | 1486613634.67659 | pgbench_branches |            16384

 2017-02-09 05:13:55.925654+01 | 1486613635.92565 | pgbench_accounts |       4028858368
 2017-02-09 05:13:55.925654+01 | 1486613635.92565 | pgbench_tellers  |           139264
 2017-02-09 05:13:55.925654+01 | 1486613635.92565 | pgbench_history  |                0
 2017-02-09 05:13:55.925654+01 | 1486613635.92565 | pgbench_branches |            16384

 2017-02-09 05:13:57.123548+01 | 1486613637.12355 | pgbench_accounts |       4028858368
 2017-02-09 05:13:57.123548+01 | 1486613637.12355 | pgbench_tellers  |           139264
 2017-02-09 05:13:57.123548+01 | 1486613637.12355 | pgbench_history  |                0
 2017-02-09 05:13:57.123548+01 | 1486613637.12355 | pgbench_branches |            16384

 2017-02-09 05:13:58.353822+01 | 1486613638.35382 | pgbench_accounts |       4028858368
 2017-02-09 05:13:58.353822+01 | 1486613638.35382 | pgbench_tellers  |           139264
 2017-02-09 05:13:58.353822+01 | 1486613638.35382 | pgbench_history  |                0
 2017-02-09 05:13:58.353822+01 | 1486613638.35382 | pgbench_branches |            16384

 2017-02-09 05:13:59.566105+01 | 1486613639.5661 | pgbench_accounts |       4028858368
 2017-02-09 05:13:59.566105+01 | 1486613639.5661 | pgbench_tellers  |           139264
 2017-02-09 05:13:59.566105+01 | 1486613639.5661 | pgbench_history  |                0
 2017-02-09 05:13:59.566105+01 | 1486613639.5661 | pgbench_branches |            16384

 2017-02-09 05:14:00.829369+01 | 1486613640.82937 | pgbench_accounts |       4028858368
 2017-02-09 05:14:00.829369+01 | 1486613640.82937 | pgbench_tellers  |           139264
 2017-02-09 05:14:00.829369+01 | 1486613640.82937 | pgbench_history  |                0
 2017-02-09 05:14:00.829369+01 | 1486613640.82937 | pgbench_branches |            16384

 2017-02-09 05:14:02.100154+01 | 1486613642.10015 | pgbench_accounts |       4028858368
 2017-02-09 05:14:02.100154+01 | 1486613642.10015 | pgbench_tellers  |           139264
 2017-02-09 05:14:02.100154+01 | 1486613642.10015 | pgbench_history  |                0
 2017-02-09 05:14:02.100154+01 | 1486613642.10015 | pgbench_branches |            16384

 2017-02-09 05:14:03.359992+01 | 1486613643.35999 | pgbench_accounts |       4028858368
 2017-02-09 05:14:03.359992+01 | 1486613643.35999 | pgbench_tellers  |           139264
 2017-02-09 05:14:03.359992+01 | 1486613643.35999 | pgbench_history  |                0
 2017-02-09 05:14:03.359992+01 | 1486613643.35999 | pgbench_branches |            16384

 2017-02-09 05:14:04.606566+01 | 1486613644.60657 | pgbench_accounts |       4028858368
 2017-02-09 05:14:04.606566+01 | 1486613644.60657 | pgbench_tellers  |           139264
 2017-02-09 05:14:04.606566+01 | 1486613644.60657 | pgbench_history  |                0
 2017-02-09 05:14:04.606566+01 | 1486613644.60657 | pgbench_branches |            16384

 2017-02-09 05:14:05.817187+01 | 1486613645.81719 | pgbench_accounts |       4028858368
 2017-02-09 05:14:05.817187+01 | 1486613645.81719 | pgbench_tellers  |           139264
 2017-02-09 05:14:05.817187+01 | 1486613645.81719 | pgbench_history  |                0
 2017-02-09 05:14:05.817187+01 | 1486613645.81719 | pgbench_branches |            16384

 2017-02-09 05:14:07.069931+01 | 1486613647.06993 | pgbench_accounts |       4028858368
 2017-02-09 05:14:07.069931+01 | 1486613647.06993 | pgbench_tellers  |           139264
 2017-02-09 05:14:07.069931+01 | 1486613647.06993 | pgbench_history  |                0
 2017-02-09 05:14:07.069931+01 | 1486613647.06993 | pgbench_branches |            16384

 2017-02-09 05:14:08.319112+01 | 1486613648.31911 | pgbench_accounts |       4028858368
 2017-02-09 05:14:08.319112+01 | 1486613648.31911 | pgbench_tellers  |           139264
 2017-02-09 05:14:08.319112+01 | 1486613648.31911 | pgbench_history  |                0
 2017-02-09 05:14:08.319112+01 | 1486613648.31911 | pgbench_branches |            16384

 2017-02-09 05:14:09.58509+01 | 1486613649.58509 | pgbench_accounts |       4028858368
 2017-02-09 05:14:09.58509+01 | 1486613649.58509 | pgbench_tellers  |           139264
 2017-02-09 05:14:09.58509+01 | 1486613649.58509 | pgbench_history  |                0
 2017-02-09 05:14:09.58509+01 | 1486613649.58509 | pgbench_branches |            16384

 2017-02-09 05:14:10.829959+01 | 1486613650.82996 | pgbench_accounts |       4028858368
 2017-02-09 05:14:10.829959+01 | 1486613650.82996 | pgbench_tellers  |           139264
 2017-02-09 05:14:10.829959+01 | 1486613650.82996 | pgbench_history  |                0
 2017-02-09 05:14:10.829959+01 | 1486613650.82996 | pgbench_branches |            16384

 2017-02-09 05:14:12.075163+01 | 1486613652.07516 | pgbench_accounts |       4028858368
 2017-02-09 05:14:12.075163+01 | 1486613652.07516 | pgbench_tellers  |           139264
 2017-02-09 05:14:12.075163+01 | 1486613652.07516 | pgbench_history  |                0
 2017-02-09 05:14:12.075163+01 | 1486613652.07516 | pgbench_branches |            16384

 2017-02-09 05:14:13.286441+01 | 1486613653.28644 | pgbench_accounts |       4028858368
 2017-02-09 05:14:13.286441+01 | 1486613653.28644 | pgbench_tellers  |           139264
 2017-02-09 05:14:13.286441+01 | 1486613653.28644 | pgbench_history  |                0
 2017-02-09 05:14:13.286441+01 | 1486613653.28644 | pgbench_branches |            16384

 2017-02-09 05:14:14.492584+01 | 1486613654.49258 | pgbench_accounts |       4028858368
 2017-02-09 05:14:14.492584+01 | 1486613654.49258 | pgbench_tellers  |           139264
 2017-02-09 05:14:14.492584+01 | 1486613654.49258 | pgbench_history  |                0
 2017-02-09 05:14:14.492584+01 | 1486613654.49258 | pgbench_branches |            16384

 2017-02-09 05:14:15.753096+01 | 1486613655.7531 | pgbench_accounts |       4028858368
 2017-02-09 05:14:15.753096+01 | 1486613655.7531 | pgbench_tellers  |           139264
 2017-02-09 05:14:15.753096+01 | 1486613655.7531 | pgbench_history  |                0
 2017-02-09 05:14:15.753096+01 | 1486613655.7531 | pgbench_branches |            16384

 2017-02-09 05:14:17.037362+01 | 1486613657.03736 | pgbench_accounts |       4028858368
 2017-02-09 05:14:17.037362+01 | 1486613657.03736 | pgbench_tellers  |           139264
 2017-02-09 05:14:17.037362+01 | 1486613657.03736 | pgbench_history  |                0
 2017-02-09 05:14:17.037362+01 | 1486613657.03736 | pgbench_branches |            16384

 2017-02-09 05:14:18.247805+01 | 1486613658.24781 | pgbench_accounts |       4028858368
 2017-02-09 05:14:18.247805+01 | 1486613658.24781 | pgbench_tellers  |           139264
 2017-02-09 05:14:18.247805+01 | 1486613658.24781 | pgbench_history  |                0
 2017-02-09 05:14:18.247805+01 | 1486613658.24781 | pgbench_branches |            16384

 2017-02-09 05:14:19.463224+01 | 1486613659.46322 | pgbench_accounts |       4028858368
 2017-02-09 05:14:19.463224+01 | 1486613659.46322 | pgbench_tellers  |           139264
 2017-02-09 05:14:19.463224+01 | 1486613659.46322 | pgbench_history  |                0
 2017-02-09 05:14:19.463224+01 | 1486613659.46322 | pgbench_branches |            16384

 2017-02-09 05:14:20.733164+01 | 1486613660.73316 | pgbench_accounts |       4028858368
 2017-02-09 05:14:20.733164+01 | 1486613660.73316 | pgbench_tellers  |           139264
 2017-02-09 05:14:20.733164+01 | 1486613660.73316 | pgbench_history  |                0
 2017-02-09 05:14:20.733164+01 | 1486613660.73316 | pgbench_branches |            16384

 2017-02-09 05:14:21.960776+01 | 1486613661.96078 | pgbench_accounts |       4028858368
 2017-02-09 05:14:21.960776+01 | 1486613661.96078 | pgbench_tellers  |           139264
 2017-02-09 05:14:21.960776+01 | 1486613661.96078 | pgbench_history  |                0
 2017-02-09 05:14:21.960776+01 | 1486613661.96078 | pgbench_branches |            16384

 2017-02-09 05:14:23.215485+01 | 1486613663.21549 | pgbench_accounts |       4028858368
 2017-02-09 05:14:23.215485+01 | 1486613663.21549 | pgbench_tellers  |           139264
 2017-02-09 05:14:23.215485+01 | 1486613663.21549 | pgbench_history  |                0
 2017-02-09 05:14:23.215485+01 | 1486613663.21549 | pgbench_branches |            16384

 2017-02-09 05:14:24.465644+01 | 1486613664.46564 | pgbench_accounts |       4028858368
 2017-02-09 05:14:24.465644+01 | 1486613664.46564 | pgbench_tellers  |           139264
 2017-02-09 05:14:24.465644+01 | 1486613664.46564 | pgbench_history  |                0
 2017-02-09 05:14:24.465644+01 | 1486613664.46564 | pgbench_branches |            16384

 2017-02-09 05:14:25.625543+01 | 1486613665.62554 | pgbench_accounts |       4028858368
 2017-02-09 05:14:25.625543+01 | 1486613665.62554 | pgbench_tellers  |           139264
 2017-02-09 05:14:25.625543+01 | 1486613665.62554 | pgbench_history  |                0
 2017-02-09 05:14:25.625543+01 | 1486613665.62554 | pgbench_branches |            16384

 2017-02-09 05:14:26.777375+01 | 1486613666.77737 | pgbench_accounts |       4028858368
 2017-02-09 05:14:26.777375+01 | 1486613666.77737 | pgbench_tellers  |           139264
 2017-02-09 05:14:26.777375+01 | 1486613666.77737 | pgbench_history  |                0
 2017-02-09 05:14:26.777375+01 | 1486613666.77737 | pgbench_branches |            16384

 2017-02-09 05:14:28.023741+01 | 1486613668.02374 | pgbench_accounts |       4028858368
 2017-02-09 05:14:28.023741+01 | 1486613668.02374 | pgbench_tellers  |           139264
 2017-02-09 05:14:28.023741+01 | 1486613668.02374 | pgbench_history  |                0
 2017-02-09 05:14:28.023741+01 | 1486613668.02374 | pgbench_branches |            16384

 2017-02-09 05:14:29.293638+01 | 1486613669.29364 | pgbench_accounts |       4028858368
 2017-02-09 05:14:29.293638+01 | 1486613669.29364 | pgbench_tellers  |           139264
 2017-02-09 05:14:29.293638+01 | 1486613669.29364 | pgbench_history  |                0
 2017-02-09 05:14:29.293638+01 | 1486613669.29364 | pgbench_branches |            16384

 2017-02-09 05:14:30.484295+01 | 1486613670.48429 | pgbench_accounts |       4028858368
 2017-02-09 05:14:30.484295+01 | 1486613670.48429 | pgbench_tellers  |           139264
 2017-02-09 05:14:30.484295+01 | 1486613670.48429 | pgbench_history  |                0
 2017-02-09 05:14:30.484295+01 | 1486613670.48429 | pgbench_branches |            16384

 2017-02-09 05:14:31.624321+01 | 1486613671.62432 | pgbench_accounts |       4028858368
 2017-02-09 05:14:31.624321+01 | 1486613671.62432 | pgbench_tellers  |           139264
 2017-02-09 05:14:31.624321+01 | 1486613671.62432 | pgbench_history  |                0
 2017-02-09 05:14:31.624321+01 | 1486613671.62432 | pgbench_branches |            16384

 2017-02-09 05:14:32.817565+01 | 1486613672.81756 | pgbench_accounts |       4028858368
 2017-02-09 05:14:32.817565+01 | 1486613672.81756 | pgbench_tellers  |           139264
 2017-02-09 05:14:32.817565+01 | 1486613672.81756 | pgbench_history  |                0
 2017-02-09 05:14:32.817565+01 | 1486613672.81756 | pgbench_branches |            16384

 2017-02-09 05:14:34.040846+01 | 1486613674.04085 | pgbench_accounts |       4028858368
 2017-02-09 05:14:34.040846+01 | 1486613674.04085 | pgbench_tellers  |           139264
 2017-02-09 05:14:34.040846+01 | 1486613674.04085 | pgbench_history  |                0
 2017-02-09 05:14:34.040846+01 | 1486613674.04085 | pgbench_branches |            16384

 2017-02-09 05:14:35.294283+01 | 1486613675.29428 | pgbench_accounts |       4028858368
 2017-02-09 05:14:35.294283+01 | 1486613675.29428 | pgbench_tellers  |           139264
 2017-02-09 05:14:35.294283+01 | 1486613675.29428 | pgbench_history  |                0
 2017-02-09 05:14:35.294283+01 | 1486613675.29428 | pgbench_branches |            16384

 2017-02-09 05:14:36.530813+01 | 1486613676.53081 | pgbench_accounts |       4028858368
 2017-02-09 05:14:36.530813+01 | 1486613676.53081 | pgbench_tellers  |           139264
 2017-02-09 05:14:36.530813+01 | 1486613676.53081 | pgbench_history  |                0
 2017-02-09 05:14:36.530813+01 | 1486613676.53081 | pgbench_branches |            16384

 2017-02-09 05:14:37.767272+01 | 1486613677.76727 | pgbench_accounts |       4028858368
 2017-02-09 05:14:37.767272+01 | 1486613677.76727 | pgbench_tellers  |           139264
 2017-02-09 05:14:37.767272+01 | 1486613677.76727 | pgbench_history  |                0
 2017-02-09 05:14:37.767272+01 | 1486613677.76727 | pgbench_branches |            16384

 2017-02-09 05:14:39.006739+01 | 1486613679.00674 | pgbench_accounts |       4028858368
 2017-02-09 05:14:39.006739+01 | 1486613679.00674 | pgbench_tellers  |           139264
 2017-02-09 05:14:39.006739+01 | 1486613679.00674 | pgbench_history  |                0
 2017-02-09 05:14:39.006739+01 | 1486613679.00674 | pgbench_branches |            16384

 2017-02-09 05:14:40.224633+01 | 1486613680.22463 | pgbench_accounts |       4028858368
 2017-02-09 05:14:40.224633+01 | 1486613680.22463 | pgbench_tellers  |           139264
 2017-02-09 05:14:40.224633+01 | 1486613680.22463 | pgbench_history  |                0
 2017-02-09 05:14:40.224633+01 | 1486613680.22463 | pgbench_branches |            16384

 2017-02-09 05:14:41.466087+01 | 1486613681.46609 | pgbench_accounts |       4028858368
 2017-02-09 05:14:41.466087+01 | 1486613681.46609 | pgbench_tellers  |           139264
 2017-02-09 05:14:41.466087+01 | 1486613681.46609 | pgbench_history  |                0
 2017-02-09 05:14:41.466087+01 | 1486613681.46609 | pgbench_branches |            16384

 2017-02-09 05:14:42.710583+01 | 1486613682.71058 | pgbench_accounts |       4028858368
 2017-02-09 05:14:42.710583+01 | 1486613682.71058 | pgbench_tellers  |           139264
 2017-02-09 05:14:42.710583+01 | 1486613682.71058 | pgbench_history  |                0
 2017-02-09 05:14:42.710583+01 | 1486613682.71058 | pgbench_branches |            16384

 2017-02-09 05:14:43.997143+01 | 1486613683.99714 | pgbench_accounts |       4028858368
 2017-02-09 05:14:43.997143+01 | 1486613683.99714 | pgbench_tellers  |           139264
 2017-02-09 05:14:43.997143+01 | 1486613683.99714 | pgbench_history  |                0
 2017-02-09 05:14:43.997143+01 | 1486613683.99714 | pgbench_branches |            16384

 2017-02-09 05:14:45.16404+01 | 1486613685.16404 | pgbench_accounts |       4028858368
 2017-02-09 05:14:45.16404+01 | 1486613685.16404 | pgbench_tellers  |           139264
 2017-02-09 05:14:45.16404+01 | 1486613685.16404 | pgbench_history  |                0
 2017-02-09 05:14:45.16404+01 | 1486613685.16404 | pgbench_branches |            16384

 2017-02-09 05:14:46.369632+01 | 1486613686.36963 | pgbench_accounts |       4028858368
 2017-02-09 05:14:46.369632+01 | 1486613686.36963 | pgbench_tellers  |           139264
 2017-02-09 05:14:46.369632+01 | 1486613686.36963 | pgbench_history  |                0
 2017-02-09 05:14:46.369632+01 | 1486613686.36963 | pgbench_branches |            16384

 2017-02-09 05:14:47.618168+01 | 1486613687.61817 | pgbench_accounts |       4028858368
 2017-02-09 05:14:47.618168+01 | 1486613687.61817 | pgbench_tellers  |           139264
 2017-02-09 05:14:47.618168+01 | 1486613687.61817 | pgbench_history  |                0
 2017-02-09 05:14:47.618168+01 | 1486613687.61817 | pgbench_branches |            16384

 2017-02-09 05:14:48.833308+01 | 1486613688.83331 | pgbench_accounts |       4028858368
 2017-02-09 05:14:48.833308+01 | 1486613688.83331 | pgbench_tellers  |           139264
 2017-02-09 05:14:48.833308+01 | 1486613688.83331 | pgbench_history  |                0
 2017-02-09 05:14:48.833308+01 | 1486613688.83331 | pgbench_branches |            16384

 2017-02-09 05:14:50.066954+01 | 1486613690.06695 | pgbench_accounts |       4028858368
 2017-02-09 05:14:50.066954+01 | 1486613690.06695 | pgbench_tellers  |           139264
 2017-02-09 05:14:50.066954+01 | 1486613690.06695 | pgbench_history  |                0
 2017-02-09 05:14:50.066954+01 | 1486613690.06695 | pgbench_branches |            16384

 2017-02-09 05:14:51.35095+01 | 1486613691.35095 | pgbench_accounts |       4028858368
 2017-02-09 05:14:51.35095+01 | 1486613691.35095 | pgbench_tellers  |           139264
 2017-02-09 05:14:51.35095+01 | 1486613691.35095 | pgbench_history  |                0
 2017-02-09 05:14:51.35095+01 | 1486613691.35095 | pgbench_branches |            16384

 2017-02-09 05:14:52.602505+01 | 1486613692.6025 | pgbench_accounts |       4028858368
 2017-02-09 05:14:52.602505+01 | 1486613692.6025 | pgbench_tellers  |           139264
 2017-02-09 05:14:52.602505+01 | 1486613692.6025 | pgbench_history  |                0
 2017-02-09 05:14:52.602505+01 | 1486613692.6025 | pgbench_branches |            16384

 2017-02-09 05:14:53.813711+01 | 1486613693.81371 | pgbench_accounts |       4028858368
 2017-02-09 05:14:53.813711+01 | 1486613693.81371 | pgbench_tellers  |           139264
 2017-02-09 05:14:53.813711+01 | 1486613693.81371 | pgbench_history  |                0
 2017-02-09 05:14:53.813711+01 | 1486613693.81371 | pgbench_branches |            16384

 2017-02-09 05:14:55.033845+01 | 1486613695.03384 | pgbench_accounts |       4028858368
 2017-02-09 05:14:55.033845+01 | 1486613695.03384 | pgbench_tellers  |           139264
 2017-02-09 05:14:55.033845+01 | 1486613695.03384 | pgbench_history  |                0
 2017-02-09 05:14:55.033845+01 | 1486613695.03384 | pgbench_branches |            16384

 2017-02-09 05:14:56.231495+01 | 1486613696.23149 | pgbench_accounts |       4028858368
 2017-02-09 05:14:56.231495+01 | 1486613696.23149 | pgbench_tellers  |           139264
 2017-02-09 05:14:56.231495+01 | 1486613696.23149 | pgbench_history  |                0
 2017-02-09 05:14:56.231495+01 | 1486613696.23149 | pgbench_branches |            16384

 2017-02-09 05:14:57.488408+01 | 1486613697.48841 | pgbench_accounts |       4028858368
 2017-02-09 05:14:57.488408+01 | 1486613697.48841 | pgbench_tellers  |           139264
 2017-02-09 05:14:57.488408+01 | 1486613697.48841 | pgbench_history  |                0
 2017-02-09 05:14:57.488408+01 | 1486613697.48841 | pgbench_branches |            16384

 2017-02-09 05:14:58.700451+01 | 1486613698.70045 | pgbench_accounts |       4028858368
 2017-02-09 05:14:58.700451+01 | 1486613698.70045 | pgbench_tellers  |           139264
 2017-02-09 05:14:58.700451+01 | 1486613698.70045 | pgbench_history  |                0
 2017-02-09 05:14:58.700451+01 | 1486613698.70045 | pgbench_branches |            16384

 2017-02-09 05:14:59.954941+01 | 1486613699.95494 | pgbench_accounts |       4028858368
 2017-02-09 05:14:59.954941+01 | 1486613699.95494 | pgbench_tellers  |           139264
 2017-02-09 05:14:59.954941+01 | 1486613699.95494 | pgbench_history  |                0
 2017-02-09 05:14:59.954941+01 | 1486613699.95494 | pgbench_branches |            16384

 2017-02-09 05:15:01.197136+01 | 1486613701.19714 | pgbench_accounts |       4028858368
 2017-02-09 05:15:01.197136+01 | 1486613701.19714 | pgbench_tellers  |           139264
 2017-02-09 05:15:01.197136+01 | 1486613701.19714 | pgbench_history  |                0
 2017-02-09 05:15:01.197136+01 | 1486613701.19714 | pgbench_branches |            16384

 2017-02-09 05:15:02.409955+01 | 1486613702.40996 | pgbench_accounts |       4028858368
 2017-02-09 05:15:02.409955+01 | 1486613702.40996 | pgbench_tellers  |           139264
 2017-02-09 05:15:02.409955+01 | 1486613702.40996 | pgbench_history  |                0
 2017-02-09 05:15:02.409955+01 | 1486613702.40996 | pgbench_branches |            16384

 2017-02-09 05:15:03.637939+01 | 1486613703.63794 | pgbench_accounts |       4028858368
 2017-02-09 05:15:03.637939+01 | 1486613703.63794 | pgbench_tellers  |           139264
 2017-02-09 05:15:03.637939+01 | 1486613703.63794 | pgbench_history  |                0
 2017-02-09 05:15:03.637939+01 | 1486613703.63794 | pgbench_branches |            16384

 2017-02-09 05:15:04.890975+01 | 1486613704.89097 | pgbench_accounts |       4028858368
 2017-02-09 05:15:04.890975+01 | 1486613704.89097 | pgbench_tellers  |           139264
 2017-02-09 05:15:04.890975+01 | 1486613704.89097 | pgbench_history  |                0
 2017-02-09 05:15:04.890975+01 | 1486613704.89097 | pgbench_branches |            16384

 2017-02-09 05:15:06.132834+01 | 1486613706.13283 | pgbench_accounts |       4028858368
 2017-02-09 05:15:06.132834+01 | 1486613706.13283 | pgbench_tellers  |           139264
 2017-02-09 05:15:06.132834+01 | 1486613706.13283 | pgbench_history  |                0
 2017-02-09 05:15:06.132834+01 | 1486613706.13283 | pgbench_branches |            16384

 2017-02-09 05:15:07.419016+01 | 1486613707.41902 | pgbench_accounts |       4028858368
 2017-02-09 05:15:07.419016+01 | 1486613707.41902 | pgbench_tellers  |           139264
 2017-02-09 05:15:07.419016+01 | 1486613707.41902 | pgbench_history  |                0
 2017-02-09 05:15:07.419016+01 | 1486613707.41902 | pgbench_branches |            16384

 2017-02-09 05:15:08.633128+01 | 1486613708.63313 | pgbench_accounts |       4028858368
 2017-02-09 05:15:08.633128+01 | 1486613708.63313 | pgbench_tellers  |           139264
 2017-02-09 05:15:08.633128+01 | 1486613708.63313 | pgbench_history  |                0
 2017-02-09 05:15:08.633128+01 | 1486613708.63313 | pgbench_branches |            16384

 2017-02-09 05:15:09.877959+01 | 1486613709.87796 | pgbench_accounts |       4028858368
 2017-02-09 05:15:09.877959+01 | 1486613709.87796 | pgbench_tellers  |           139264
 2017-02-09 05:15:09.877959+01 | 1486613709.87796 | pgbench_history  |                0
 2017-02-09 05:15:09.877959+01 | 1486613709.87796 | pgbench_branches |            16384

 2017-02-09 05:15:11.128323+01 | 1486613711.12832 | pgbench_accounts |       4028858368
 2017-02-09 05:15:11.128323+01 | 1486613711.12832 | pgbench_tellers  |           139264
 2017-02-09 05:15:11.128323+01 | 1486613711.12832 | pgbench_history  |                0
 2017-02-09 05:15:11.128323+01 | 1486613711.12832 | pgbench_branches |            16384

 2017-02-09 05:15:12.384191+01 | 1486613712.38419 | pgbench_accounts |       4028858368
 2017-02-09 05:15:12.384191+01 | 1486613712.38419 | pgbench_tellers  |           139264
 2017-02-09 05:15:12.384191+01 | 1486613712.38419 | pgbench_history  |                0
 2017-02-09 05:15:12.384191+01 | 1486613712.38419 | pgbench_branches |            16384

 2017-02-09 05:15:13.640291+01 | 1486613713.64029 | pgbench_accounts |       4028858368
 2017-02-09 05:15:13.640291+01 | 1486613713.64029 | pgbench_tellers  |           139264
 2017-02-09 05:15:13.640291+01 | 1486613713.64029 | pgbench_history  |                0
 2017-02-09 05:15:13.640291+01 | 1486613713.64029 | pgbench_branches |            16384

 2017-02-09 05:15:14.86727+01 | 1486613714.86727 | pgbench_accounts |       4028858368
 2017-02-09 05:15:14.86727+01 | 1486613714.86727 | pgbench_tellers  |           139264
 2017-02-09 05:15:14.86727+01 | 1486613714.86727 | pgbench_history  |                0
 2017-02-09 05:15:14.86727+01 | 1486613714.86727 | pgbench_branches |            16384

 2017-02-09 05:15:16.145382+01 | 1486613716.14538 | pgbench_accounts |       4028858368
 2017-02-09 05:15:16.145382+01 | 1486613716.14538 | pgbench_tellers  |           139264
 2017-02-09 05:15:16.145382+01 | 1486613716.14538 | pgbench_history  |                0
 2017-02-09 05:15:16.145382+01 | 1486613716.14538 | pgbench_branches |            16384

 2017-02-09 05:15:17.41831+01 | 1486613717.41831 | pgbench_accounts |       4028858368
 2017-02-09 05:15:17.41831+01 | 1486613717.41831 | pgbench_tellers  |           139264
 2017-02-09 05:15:17.41831+01 | 1486613717.41831 | pgbench_history  |                0
 2017-02-09 05:15:17.41831+01 | 1486613717.41831 | pgbench_branches |            16384

 2017-02-09 05:15:18.662453+01 | 1486613718.66245 | pgbench_accounts |       4028858368
 2017-02-09 05:15:18.662453+01 | 1486613718.66245 | pgbench_tellers  |           139264
 2017-02-09 05:15:18.662453+01 | 1486613718.66245 | pgbench_history  |                0
 2017-02-09 05:15:18.662453+01 | 1486613718.66245 | pgbench_branches |            16384

 2017-02-09 05:15:19.914682+01 | 1486613719.91468 | pgbench_accounts |       4028858368
 2017-02-09 05:15:19.914682+01 | 1486613719.91468 | pgbench_tellers  |           139264
 2017-02-09 05:15:19.914682+01 | 1486613719.91468 | pgbench_history  |                0
 2017-02-09 05:15:19.914682+01 | 1486613719.91468 | pgbench_branches |            16384

 2017-02-09 05:15:21.17708+01 | 1486613721.17708 | pgbench_accounts |       4028858368
 2017-02-09 05:15:21.17708+01 | 1486613721.17708 | pgbench_tellers  |           139264
 2017-02-09 05:15:21.17708+01 | 1486613721.17708 | pgbench_history  |                0
 2017-02-09 05:15:21.17708+01 | 1486613721.17708 | pgbench_branches |            16384

 2017-02-09 05:15:22.433991+01 | 1486613722.43399 | pgbench_accounts |       4028858368
 2017-02-09 05:15:22.433991+01 | 1486613722.43399 | pgbench_tellers  |           139264
 2017-02-09 05:15:22.433991+01 | 1486613722.43399 | pgbench_history  |                0
 2017-02-09 05:15:22.433991+01 | 1486613722.43399 | pgbench_branches |            16384

 2017-02-09 05:15:23.694332+01 | 1486613723.69433 | pgbench_accounts |       4028858368
 2017-02-09 05:15:23.694332+01 | 1486613723.69433 | pgbench_tellers  |           139264
 2017-02-09 05:15:23.694332+01 | 1486613723.69433 | pgbench_history  |                0
 2017-02-09 05:15:23.694332+01 | 1486613723.69433 | pgbench_branches |            16384

 2017-02-09 05:15:24.8657+01 | 1486613724.8657 | pgbench_accounts |       4028858368
 2017-02-09 05:15:24.8657+01 | 1486613724.8657 | pgbench_tellers  |           139264
 2017-02-09 05:15:24.8657+01 | 1486613724.8657 | pgbench_history  |                0
 2017-02-09 05:15:24.8657+01 | 1486613724.8657 | pgbench_branches |            16384

 2017-02-09 05:15:26.09856+01 | 1486613726.09856 | pgbench_accounts |       4028858368
 2017-02-09 05:15:26.09856+01 | 1486613726.09856 | pgbench_tellers  |           139264
 2017-02-09 05:15:26.09856+01 | 1486613726.09856 | pgbench_history  |                0
 2017-02-09 05:15:26.09856+01 | 1486613726.09856 | pgbench_branches |            16384

 2017-02-09 05:15:27.33856+01 | 1486613727.33856 | pgbench_accounts |       4028858368
 2017-02-09 05:15:27.33856+01 | 1486613727.33856 | pgbench_tellers  |           139264
 2017-02-09 05:15:27.33856+01 | 1486613727.33856 | pgbench_history  |                0
 2017-02-09 05:15:27.33856+01 | 1486613727.33856 | pgbench_branches |            16384

 2017-02-09 05:15:28.614233+01 | 1486613728.61423 | pgbench_accounts |       4028858368
 2017-02-09 05:15:28.614233+01 | 1486613728.61423 | pgbench_tellers  |           139264
 2017-02-09 05:15:28.614233+01 | 1486613728.61423 | pgbench_history  |                0
 2017-02-09 05:15:28.614233+01 | 1486613728.61423 | pgbench_branches |            16384

 2017-02-09 05:15:29.808889+01 | 1486613729.80889 | pgbench_accounts |       4028858368
 2017-02-09 05:15:29.808889+01 | 1486613729.80889 | pgbench_tellers  |           139264
 2017-02-09 05:15:29.808889+01 | 1486613729.80889 | pgbench_history  |                0
 2017-02-09 05:15:29.808889+01 | 1486613729.80889 | pgbench_branches |            16384

