 2017-02-08 19:49:22.651379+01 | 1486579762.65138 |                 0 |               4 |                   295 |                   96 |              31991 |        442783 |             4426 |        11562339 |                     0 |      63847605 | 2017-02-08 19:33:31.339908+01

 2017-02-08 19:49:23.732421+01 | 1486579763.73242 |                 0 |               4 |                   295 |                   96 |              31991 |        442970 |             4427 |        11562339 |                     0 |      63911339 | 2017-02-08 19:33:31.339908+01

 2017-02-08 19:49:24.797454+01 | 1486579764.79745 |                 0 |               4 |                   295 |                   96 |              31991 |        443570 |             4433 |        11562339 |                     0 |      63993103 | 2017-02-08 19:33:31.339908+01

 2017-02-08 19:49:25.874667+01 | 1486579765.87467 |                 0 |               4 |                   295 |                   96 |              31991 |        444070 |             4438 |        11562339 |                     0 |      64058529 | 2017-02-08 19:33:31.339908+01

 2017-02-08 19:49:26.945065+01 | 1486579766.94507 |                 0 |               4 |                   295 |                   96 |              31991 |        444570 |             4443 |        11562339 |                     0 |      64124552 | 2017-02-08 19:33:31.339908+01

 2017-02-08 19:49:28.015905+01 | 1486579768.0159 |                 0 |               4 |                   295 |                   96 |              31991 |        445170 |             4449 |        11562339 |                     0 |      64202778 | 2017-02-08 19:33:31.339908+01

 2017-02-08 19:49:29.084571+01 | 1486579769.08457 |                 0 |               4 |                   295 |                   96 |              31991 |        445670 |             4454 |        11562339 |                     0 |      64270138 | 2017-02-08 19:33:31.339908+01

 2017-02-08 19:49:30.148029+01 | 1486579770.14803 |                 0 |               4 |                   295 |                   96 |              31991 |        446170 |             4459 |        11562339 |                     0 |      64339682 | 2017-02-08 19:33:31.339908+01

 2017-02-08 19:49:31.21147+01 | 1486579771.21147 |                 0 |               4 |                   295 |                   96 |              31991 |        446770 |             4465 |        11624188 |                     0 |      64423357 | 2017-02-08 19:33:31.339908+01

 2017-02-08 19:49:32.281641+01 | 1486579772.28164 |                 0 |               4 |                   295 |                   96 |              31991 |        447270 |             4470 |        11624188 |                     0 |      64491143 | 2017-02-08 19:33:31.339908+01

 2017-02-08 19:49:33.354925+01 | 1486579773.35492 |                 0 |               4 |                   295 |                   96 |              31991 |        447770 |             4475 |        11624188 |                     0 |      64560649 | 2017-02-08 19:33:31.339908+01

 2017-02-08 19:49:34.444718+01 | 1486579774.44472 |                 0 |               4 |                   295 |                   96 |              31991 |        448370 |             4481 |        11624188 |                     0 |      64646573 | 2017-02-08 19:33:31.339908+01

 2017-02-08 19:49:35.511482+01 | 1486579775.51148 |                 0 |               4 |                   295 |                   96 |              31991 |        448870 |             4486 |        11624188 |                     0 |      64716386 | 2017-02-08 19:33:31.339908+01

 2017-02-08 19:49:36.589801+01 | 1486579776.5898 |                 0 |               4 |                   295 |                   96 |              31991 |        449370 |             4491 |        11624188 |                     0 |      64784417 | 2017-02-08 19:33:31.339908+01

 2017-02-08 19:49:37.660142+01 | 1486579777.66014 |                 0 |               4 |                   295 |                   96 |              31991 |        449970 |             4497 |        11686524 |                     0 |      64871690 | 2017-02-08 19:33:31.339908+01

 2017-02-08 19:49:38.729946+01 | 1486579778.72995 |                 0 |               4 |                   295 |                   96 |              31991 |        450470 |             4502 |        11686524 |                     0 |      64943229 | 2017-02-08 19:33:31.339908+01

 2017-02-08 19:49:39.814336+01 | 1486579779.81434 |                 0 |               4 |                   295 |                   96 |              31991 |        450970 |             4507 |        11686524 |                     0 |      65013752 | 2017-02-08 19:33:31.339908+01

 2017-02-08 19:49:40.893012+01 | 1486579780.89301 |                 0 |               4 |                   295 |                   96 |              31991 |        451570 |             4513 |        11686524 |                     0 |      65100590 | 2017-02-08 19:33:31.339908+01

 2017-02-08 19:49:41.953824+01 | 1486579781.95382 |                 0 |               4 |                   295 |                   96 |              31991 |        452070 |             4518 |        11686524 |                     0 |      65173674 | 2017-02-08 19:33:31.339908+01

 2017-02-08 19:49:43.018863+01 | 1486579783.01886 |                 0 |               4 |                   295 |                   96 |              31991 |        452570 |             4523 |        11686524 |                     0 |      65244775 | 2017-02-08 19:33:31.339908+01

 2017-02-08 19:49:44.084674+01 | 1486579784.08467 |                 0 |               4 |                   295 |                   96 |              31991 |        453170 |             4529 |        11748960 |                     0 |      65329496 | 2017-02-08 19:33:31.339908+01

 2017-02-08 19:49:45.173034+01 | 1486579785.17303 |                 0 |               4 |                   295 |                   96 |              31991 |        453670 |             4534 |        11748960 |                     0 |      65401492 | 2017-02-08 19:33:31.339908+01

 2017-02-08 19:49:46.241338+01 | 1486579786.24134 |                 0 |               4 |                   295 |                   96 |              31991 |        454170 |             4539 |        11748960 |                     0 |      65474844 | 2017-02-08 19:33:31.339908+01

 2017-02-08 19:49:47.30657+01 | 1486579787.30657 |                 0 |               4 |                   295 |                   96 |              31991 |        454770 |             4545 |        11748960 |                     0 |      65559892 | 2017-02-08 19:33:31.339908+01

 2017-02-08 19:49:48.391483+01 | 1486579788.39148 |                 0 |               4 |                   295 |                   96 |              31991 |        455270 |             4550 |        11748960 |                     0 |      65633414 | 2017-02-08 19:33:31.339908+01

 2017-02-08 19:49:49.467576+01 | 1486579789.46758 |                 0 |               4 |                   295 |                   96 |              31991 |        455770 |             4555 |        11748960 |                     0 |      65706219 | 2017-02-08 19:33:31.339908+01

 2017-02-08 19:49:50.548029+01 | 1486579790.54803 |                 0 |               4 |                   295 |                   96 |              31991 |        456370 |             4561 |        11811496 |                     0 |      65792228 | 2017-02-08 19:33:31.339908+01

 2017-02-08 19:49:51.623387+01 | 1486579791.62339 |                 0 |               4 |                   295 |                   96 |              31991 |        456870 |             4566 |        11811496 |                     0 |      65865369 | 2017-02-08 19:33:31.339908+01

 2017-02-08 19:49:52.681063+01 | 1486579792.68106 |                 0 |               4 |                   295 |                   96 |              31991 |        457370 |             4571 |        11811496 |                     0 |      65939491 | 2017-02-08 19:33:31.339908+01

 2017-02-08 19:49:53.746825+01 | 1486579793.74682 |                 0 |               4 |                   295 |                   96 |              31991 |        457970 |             4577 |        11811496 |                     0 |      66025416 | 2017-02-08 19:33:31.339908+01

 2017-02-08 19:49:54.828249+01 | 1486579794.82825 |                 0 |               4 |                   295 |                   96 |              31991 |        458470 |             4582 |        11811496 |                     0 |      66099066 | 2017-02-08 19:33:31.339908+01

 2017-02-08 19:49:55.899563+01 | 1486579795.89956 |                 0 |               4 |                   295 |                   96 |              31991 |        458970 |             4587 |        11873932 |                     0 |      66171376 | 2017-02-08 19:33:31.339908+01

 2017-02-08 19:49:56.967189+01 | 1486579796.96719 |                 0 |               4 |                   295 |                   96 |              31991 |        459570 |             4593 |        11873932 |                     0 |      66257051 | 2017-02-08 19:33:31.339908+01

 2017-02-08 19:49:58.042216+01 | 1486579798.04222 |                 0 |               4 |                   295 |                   96 |              31991 |        460070 |             4598 |        11873932 |                     0 |      66329847 | 2017-02-08 19:33:31.339908+01

 2017-02-08 19:49:59.112798+01 | 1486579799.1128 |                 0 |               4 |                   295 |                   96 |              31991 |        460570 |             4603 |        11873932 |                     0 |      66403109 | 2017-02-08 19:33:31.339908+01

 2017-02-08 19:50:00.202139+01 | 1486579800.20214 |                 0 |               4 |                   295 |                   96 |              31991 |        461170 |             4609 |        11873932 |                     0 |      66488021 | 2017-02-08 19:33:31.339908+01

 2017-02-08 19:50:01.292293+01 | 1486579801.29229 |                 0 |               4 |                   295 |                   96 |              31991 |        461670 |             4614 |        11873932 |                     0 |      66561471 | 2017-02-08 19:33:31.339908+01

 2017-02-08 19:50:02.346529+01 | 1486579802.34653 |                 0 |               4 |                   295 |                   96 |              31991 |        462070 |             4618 |        11936468 |                     0 |      66620160 | 2017-02-08 19:33:31.339908+01

 2017-02-08 19:50:03.419192+01 | 1486579803.41919 |                 0 |               4 |                   295 |                   96 |              31991 |        462770 |             4625 |        11936468 |                     0 |      66722521 | 2017-02-08 19:33:31.339908+01

 2017-02-08 19:50:04.513612+01 | 1486579804.51361 |                 0 |               4 |                   295 |                   96 |              31991 |        463270 |             4630 |        11936468 |                     0 |      66795686 | 2017-02-08 19:33:31.339908+01

 2017-02-08 19:50:05.59531+01 | 1486579805.59531 |                 0 |               4 |                   295 |                   96 |              31991 |        463870 |             4636 |        11936468 |                     0 |      66882921 | 2017-02-08 19:33:31.339908+01

 2017-02-08 19:50:06.665651+01 | 1486579806.66565 |                 0 |               4 |                   295 |                   96 |              31991 |        464370 |             4641 |        11936468 |                     0 |      66955182 | 2017-02-08 19:33:31.339908+01

 2017-02-08 19:50:07.742105+01 | 1486579807.74211 |                 0 |               4 |                   295 |                   96 |              31991 |        464870 |             4646 |        11999005 |                     0 |      67030067 | 2017-02-08 19:33:31.339908+01

 2017-02-08 19:50:08.807746+01 | 1486579808.80775 |                 0 |               4 |                   295 |                   96 |              31991 |        465470 |             4652 |        11999005 |                     0 |      67117791 | 2017-02-08 19:33:31.339908+01

 2017-02-08 19:50:09.876963+01 | 1486579809.87696 |                 0 |               4 |                   295 |                   96 |              31991 |        465970 |             4657 |        11999005 |                     0 |      67190194 | 2017-02-08 19:33:31.339908+01

 2017-02-08 19:50:10.94687+01 | 1486579810.94687 |                 0 |               4 |                   295 |                   96 |              31991 |        466470 |             4662 |        11999005 |                     0 |      67263698 | 2017-02-08 19:33:31.339908+01

 2017-02-08 19:50:12.0008+01 | 1486579812.0008 |                 0 |               4 |                   295 |                   96 |              31991 |        466970 |             4667 |        11999005 |                     0 |      67338074 | 2017-02-08 19:33:31.339908+01

 2017-02-08 19:50:13.073299+01 | 1486579813.0733 |                 0 |               4 |                   295 |                   96 |              31991 |        467570 |             4673 |        11999005 |                     0 |      67421787 | 2017-02-08 19:33:31.339908+01

 2017-02-08 19:50:14.1489+01 | 1486579814.1489 |                 0 |               4 |                   295 |                   96 |              31991 |        468070 |             4678 |        12061542 |                     0 |      67496119 | 2017-02-08 19:33:31.339908+01

 2017-02-08 19:50:15.220674+01 | 1486579815.22067 |                 0 |               4 |                   295 |                   96 |              31991 |        468570 |             4683 |        12061542 |                     0 |      67570124 | 2017-02-08 19:33:31.339908+01

 2017-02-08 19:50:16.29012+01 | 1486579816.29012 |                 0 |               4 |                   295 |                   96 |              31991 |        469170 |             4689 |        12061542 |                     0 |      67657415 | 2017-02-08 19:33:31.339908+01

 2017-02-08 19:50:17.353433+01 | 1486579817.35343 |                 0 |               4 |                   295 |                   96 |              31991 |        469670 |             4694 |        12061542 |                     0 |      67731165 | 2017-02-08 19:33:31.339908+01

 2017-02-08 19:50:18.420792+01 | 1486579818.42079 |                 0 |               4 |                   295 |                   96 |              31991 |        470170 |             4699 |        12061542 |                     0 |      67804587 | 2017-02-08 19:33:31.339908+01

 2017-02-08 19:50:19.496732+01 | 1486579819.49673 |                 0 |               4 |                   295 |                   96 |              31991 |        470770 |             4705 |        12061542 |                     0 |      67892434 | 2017-02-08 19:33:31.339908+01

 2017-02-08 19:50:20.583319+01 | 1486579820.58332 |                 0 |               4 |                   295 |                   96 |              31991 |        471270 |             4710 |        12124078 |                     0 |      67966490 | 2017-02-08 19:33:31.339908+01

 2017-02-08 19:50:21.645376+01 | 1486579821.64538 |                 0 |               4 |                   295 |                   96 |              31991 |        471770 |             4715 |        12124078 |                     0 |      68040773 | 2017-02-08 19:33:31.339908+01

 2017-02-08 19:50:22.717755+01 | 1486579822.71776 |                 0 |               4 |                   295 |                   96 |              31991 |        472370 |             4721 |        12124078 |                     0 |      68126417 | 2017-02-08 19:33:31.339908+01

 2017-02-08 19:50:23.785483+01 | 1486579823.78548 |                 0 |               4 |                   295 |                   96 |              31991 |        472870 |             4726 |        12124078 |                     0 |      68199877 | 2017-02-08 19:33:31.339908+01

 2017-02-08 19:50:24.85802+01 | 1486579824.85802 |                 0 |               4 |                   295 |                   96 |              31991 |        473370 |             4731 |        12124078 |                     0 |      68275926 | 2017-02-08 19:33:31.339908+01

 2017-02-08 19:50:25.938447+01 | 1486579825.93845 |                 0 |               4 |                   295 |                   96 |              31991 |        473970 |             4737 |        12186614 |                     0 |      68361255 | 2017-02-08 19:33:31.339908+01

 2017-02-08 19:50:27.008152+01 | 1486579827.00815 |                 0 |               4 |                   295 |                   96 |              31991 |        474470 |             4742 |        12186614 |                     0 |      68435426 | 2017-02-08 19:33:31.339908+01

 2017-02-08 19:50:28.092285+01 | 1486579828.09228 |                 0 |               4 |                   295 |                   96 |              31991 |        474970 |             4747 |        12186614 |                     0 |      68509064 | 2017-02-08 19:33:31.339908+01

 2017-02-08 19:50:29.169098+01 | 1486579829.1691 |                 0 |               4 |                   295 |                   96 |              31991 |        475570 |             4753 |        12186614 |                     0 |      68596579 | 2017-02-08 19:33:31.339908+01

 2017-02-08 19:50:30.253883+01 | 1486579830.25388 |                 0 |               4 |                   295 |                   96 |              31991 |        476070 |             4758 |        12186614 |                     0 |      68670323 | 2017-02-08 19:33:31.339908+01

 2017-02-08 19:50:31.324082+01 | 1486579831.32408 |                 0 |               4 |                   295 |                   96 |              31991 |        476570 |             4763 |        12186614 |                     0 |      68743542 | 2017-02-08 19:33:31.339908+01

 2017-02-08 19:50:32.399463+01 | 1486579832.39946 |                 0 |               4 |                   295 |                   96 |              31991 |        477170 |             4769 |        12249150 |                     0 |      68831560 | 2017-02-08 19:33:31.339908+01

 2017-02-08 19:50:33.485644+01 | 1486579833.48564 |                 0 |               4 |                   295 |                   96 |              31991 |        477670 |             4774 |        12249150 |                     0 |      68905261 | 2017-02-08 19:33:31.339908+01

 2017-02-08 19:50:34.562205+01 | 1486579834.56221 |                 0 |               4 |                   295 |                   96 |              31991 |        478170 |             4779 |        12249150 |                     0 |      68980012 | 2017-02-08 19:33:31.339908+01

 2017-02-08 19:50:35.627702+01 | 1486579835.6277 |                 0 |               4 |                   295 |                   96 |              31991 |        478770 |             4785 |        12249150 |                     0 |      69067291 | 2017-02-08 19:33:31.339908+01

 2017-02-08 19:50:36.696587+01 | 1486579836.69659 |                 0 |               4 |                   295 |                   96 |              31991 |        479270 |             4790 |        12249150 |                     0 |      69140631 | 2017-02-08 19:33:31.339908+01

 2017-02-08 19:50:37.76631+01 | 1486579837.76631 |                 0 |               4 |                   295 |                   96 |              31991 |        479770 |             4795 |        12249150 |                     0 |      69215272 | 2017-02-08 19:33:31.339908+01

 2017-02-08 19:50:38.849296+01 | 1486579838.8493 |                 0 |               4 |                   295 |                   96 |              31991 |        480370 |             4801 |        12311686 |                     0 |      69302290 | 2017-02-08 19:33:31.339908+01

 2017-02-08 19:50:39.925801+01 | 1486579839.9258 |                 0 |               4 |                   295 |                   96 |              31991 |        480870 |             4806 |        12311686 |                     0 |      69376923 | 2017-02-08 19:33:31.339908+01

 2017-02-08 19:50:40.991317+01 | 1486579840.99132 |                 0 |               4 |                   295 |                   96 |              31991 |        481370 |             4811 |        12311686 |                     0 |      69452240 | 2017-02-08 19:33:31.339908+01

 2017-02-08 19:50:42.071501+01 | 1486579842.0715 |                 0 |               4 |                   295 |                   96 |              31991 |        481970 |             4817 |        12311686 |                     0 |      69537526 | 2017-02-08 19:33:31.339908+01

 2017-02-08 19:50:43.14016+01 | 1486579843.14016 |                 0 |               4 |                   295 |                   96 |              31991 |        482470 |             4822 |        12311686 |                     0 |      69611482 | 2017-02-08 19:33:31.339908+01

 2017-02-08 19:50:44.211942+01 | 1486579844.21194 |                 0 |               4 |                   295 |                   96 |              31991 |        482970 |             4827 |        12374222 |                     0 |      69686355 | 2017-02-08 19:33:31.339908+01

 2017-02-08 19:50:45.283981+01 | 1486579845.28398 |                 0 |               4 |                   295 |                   96 |              31991 |        483570 |             4833 |        12374222 |                     0 |      69774589 | 2017-02-08 19:33:31.339908+01

 2017-02-08 19:50:46.372436+01 | 1486579846.37244 |                 0 |               4 |                   295 |                   96 |              31991 |        484070 |             4838 |        12374222 |                     0 |      69848999 | 2017-02-08 19:33:31.339908+01

 2017-02-08 19:50:47.440291+01 | 1486579847.44029 |                 0 |               4 |                   295 |                   96 |              31991 |        484670 |             4844 |        12374222 |                     0 |      69937372 | 2017-02-08 19:33:31.339908+01

 2017-02-08 19:50:48.508374+01 | 1486579848.50837 |                 0 |               4 |                   295 |                   96 |              31991 |        485170 |             4849 |        12374222 |                     0 |      70011565 | 2017-02-08 19:33:31.339908+01

 2017-02-08 19:50:49.635127+01 | 1486579849.63513 |                 0 |               4 |                   295 |                   96 |              31991 |        485670 |             4854 |        12374222 |                     0 |      70085737 | 2017-02-08 19:33:31.339908+01

 2017-02-08 19:50:50.709242+01 | 1486579850.70924 |                 0 |               4 |                   295 |                   96 |              31991 |        486270 |             4860 |        12436758 |                     0 |      70172959 | 2017-02-08 19:33:31.339908+01

 2017-02-08 19:50:51.788863+01 | 1486579851.78886 |                 0 |               4 |                   295 |                   96 |              31991 |        486770 |             4865 |        12436758 |                     0 |      70248488 | 2017-02-08 19:33:31.339908+01

 2017-02-08 19:50:52.859184+01 | 1486579852.85918 |                 0 |               4 |                   295 |                   96 |              31991 |        487270 |             4870 |        12436758 |                     0 |      70324856 | 2017-02-08 19:33:31.339908+01

 2017-02-08 19:50:53.929859+01 | 1486579853.92986 |                 0 |               4 |                   295 |                   96 |              31991 |        487870 |             4876 |        12436758 |                     0 |      70413168 | 2017-02-08 19:33:31.339908+01

 2017-02-08 19:50:55.001049+01 | 1486579855.00105 |                 0 |               4 |                   295 |                   96 |              31991 |        488370 |             4881 |        12436758 |                     0 |      70488773 | 2017-02-08 19:33:31.339908+01

 2017-02-08 19:50:56.076755+01 | 1486579856.07676 |                 0 |               4 |                   295 |                   96 |              31991 |        488870 |             4886 |        12499394 |                     0 |      70564001 | 2017-02-08 19:33:31.339908+01

 2017-02-08 19:50:57.150187+01 | 1486579857.15019 |                 0 |               4 |                   295 |                   96 |              31991 |        489470 |             4892 |        12499394 |                     0 |      70652452 | 2017-02-08 19:33:31.339908+01

 2017-02-08 19:50:58.226127+01 | 1486579858.22613 |                 0 |               4 |                   295 |                   96 |              31991 |        489970 |             4897 |        12499394 |                     0 |      70726988 | 2017-02-08 19:33:31.339908+01

 2017-02-08 19:50:59.303901+01 | 1486579859.3039 |                 0 |               4 |                   295 |                   96 |              31991 |        490470 |             4902 |        12499394 |                     0 |      70802165 | 2017-02-08 19:33:31.339908+01

 2017-02-08 19:51:00.396248+01 | 1486579860.39625 |                 0 |               4 |                   295 |                   96 |              31991 |        491070 |             4908 |        12499394 |                     0 |      70891324 | 2017-02-08 19:33:31.339908+01

 2017-02-08 19:51:01.505911+01 | 1486579861.50591 |                 0 |               4 |                   295 |                   96 |              31991 |        491570 |             4913 |        12499394 |                     0 |      70966482 | 2017-02-08 19:33:31.339908+01

 2017-02-08 19:51:02.593932+01 | 1486579862.59393 |                 0 |               4 |                   295 |                   96 |              31991 |        492170 |             4919 |        12561930 |                     0 |      71053822 | 2017-02-08 19:33:31.339908+01

 2017-02-08 19:51:03.687298+01 | 1486579863.6873 |                 0 |               4 |                   295 |                   96 |              31991 |        492670 |             4924 |        12561930 |                     0 |      71129307 | 2017-02-08 19:33:31.339908+01

 2017-02-08 19:51:04.75277+01 | 1486579864.75277 |                 0 |               4 |                   295 |                   96 |              31991 |        493270 |             4930 |        12561930 |                     0 |      71216801 | 2017-02-08 19:33:31.339908+01

 2017-02-08 19:51:05.830943+01 | 1486579865.83094 |                 0 |               4 |                   295 |                   96 |              31991 |        493770 |             4935 |        12561930 |                     0 |      71292762 | 2017-02-08 19:33:31.339908+01

 2017-02-08 19:51:06.897399+01 | 1486579866.8974 |                 0 |               4 |                   295 |                   96 |              31991 |        494270 |             4940 |        12561930 |                     0 |      71367371 | 2017-02-08 19:33:31.339908+01

 2017-02-08 19:51:07.965211+01 | 1486579867.96521 |                 0 |               4 |                   295 |                   96 |              31991 |        494870 |             4946 |        12624566 |                     0 |      71455036 | 2017-02-08 19:33:31.339908+01

 2017-02-08 19:51:09.035307+01 | 1486579869.03531 |                 0 |               4 |                   295 |                   96 |              31991 |        495370 |             4951 |        12624566 |                     0 |      71529357 | 2017-02-08 19:33:31.339908+01

 2017-02-08 19:51:10.11445+01 | 1486579870.11445 |                 0 |               4 |                   295 |                   96 |              31991 |        495870 |             4956 |        12624566 |                     0 |      71604271 | 2017-02-08 19:33:31.339908+01

 2017-02-08 19:51:11.17328+01 | 1486579871.17328 |                 0 |               4 |                   295 |                   96 |              31991 |        496370 |             4961 |        12624566 |                     0 |      71679499 | 2017-02-08 19:33:31.339908+01

 2017-02-08 19:51:12.245217+01 | 1486579872.24522 |                 0 |               4 |                   295 |                   96 |              31991 |        496970 |             4967 |        12624566 |                     0 |      71767991 | 2017-02-08 19:33:31.339908+01

 2017-02-08 19:51:13.328469+01 | 1486579873.32847 |                 0 |               4 |                   295 |                   96 |              31991 |        497470 |             4972 |        12624566 |                     0 |      71843558 | 2017-02-08 19:33:31.339908+01

 2017-02-08 19:51:14.410967+01 | 1486579874.41097 |                 0 |               4 |                   295 |                   96 |              31991 |        498070 |             4978 |        12687103 |                     0 |      71930772 | 2017-02-08 19:33:31.339908+01

 2017-02-08 19:51:15.486045+01 | 1486579875.48604 |                 0 |               4 |                   295 |                   96 |              31991 |        498570 |             4983 |        12687103 |                     0 |      72006204 | 2017-02-08 19:33:31.339908+01

 2017-02-08 19:51:16.574775+01 | 1486579876.57477 |                 0 |               4 |                   295 |                   96 |              31991 |        499070 |             4988 |        12687103 |                     0 |      72080600 | 2017-02-08 19:33:31.339908+01

 2017-02-08 19:51:17.647132+01 | 1486579877.64713 |                 0 |               4 |                   295 |                   96 |              31991 |        499670 |             4994 |        12687103 |                     0 |      72169028 | 2017-02-08 19:33:31.339908+01

 2017-02-08 19:51:18.722239+01 | 1486579878.72224 |                 0 |               4 |                   295 |                   96 |              31991 |        500170 |             4999 |        12687103 |                     0 |      72242735 | 2017-02-08 19:33:31.339908+01

 2017-02-08 19:51:19.787094+01 | 1486579879.78709 |                 0 |               4 |                   295 |                   96 |              31991 |        500670 |             5004 |        12749639 |                     0 |      72317755 | 2017-02-08 19:33:31.339908+01

 2017-02-08 19:51:20.855048+01 | 1486579880.85505 |                 0 |               4 |                   295 |                   96 |              31991 |        501270 |             5010 |        12749639 |                     0 |      72404748 | 2017-02-08 19:33:31.339908+01

 2017-02-08 19:51:21.938011+01 | 1486579881.93801 |                 0 |               4 |                   295 |                   96 |              31991 |        501770 |             5015 |        12749639 |                     0 |      72479479 | 2017-02-08 19:33:31.339908+01

 2017-02-08 19:51:22.993539+01 | 1486579882.99354 |                 0 |               4 |                   295 |                   96 |              31991 |        502270 |             5020 |        12749639 |                     0 |      72554689 | 2017-02-08 19:33:31.339908+01

 2017-02-08 19:51:24.064546+01 | 1486579884.06455 |                 0 |               4 |                   295 |                   96 |              31991 |        502770 |             5025 |        12749639 |                     0 |      72625343 | 2017-02-08 19:33:31.339908+01

 2017-02-08 19:51:25.137116+01 | 1486579885.13712 |                 0 |               4 |                   295 |                   96 |              31991 |        503370 |             5031 |        12749639 |                     0 |      72717719 | 2017-02-08 19:33:31.339908+01

 2017-02-08 19:51:26.220954+01 | 1486579886.22095 |                 0 |               4 |                   295 |                   96 |              31991 |        503870 |             5036 |        12812239 |                     0 |      72792927 | 2017-02-08 19:33:31.339908+01

 2017-02-08 19:51:27.280142+01 | 1486579887.28014 |                 0 |               4 |                   295 |                   96 |              31991 |        504470 |             5042 |        12812239 |                     0 |      72881745 | 2017-02-08 19:33:31.339908+01

 2017-02-08 19:51:28.363984+01 | 1486579888.36398 |                 0 |               4 |                   295 |                   96 |              31991 |        504970 |             5047 |        12812239 |                     0 |      72955962 | 2017-02-08 19:33:31.339908+01

 2017-02-08 19:51:29.444435+01 | 1486579889.44443 |                 0 |               4 |                   295 |                   96 |              31991 |        505470 |             5052 |        12812239 |                     0 |      73032058 | 2017-02-08 19:33:31.339908+01

 2017-02-08 19:51:30.50899+01 | 1486579890.50899 |                 0 |               4 |                   295 |                   96 |              31991 |        506070 |             5058 |        12812239 |                     0 |      73119194 | 2017-02-08 19:33:31.339908+01

 2017-02-08 19:51:31.606561+01 | 1486579891.60656 |                 0 |               4 |                   295 |                   96 |              31991 |        506570 |             5063 |        12874814 |                     0 |      73196249 | 2017-02-08 19:33:31.339908+01

 2017-02-08 19:51:32.67752+01 | 1486579892.67752 |                 0 |               4 |                   295 |                   96 |              31991 |        507070 |             5068 |        12874814 |                     0 |      73272333 | 2017-02-08 19:33:31.339908+01

 2017-02-08 19:51:33.74955+01 | 1486579893.74955 |                 0 |               4 |                   295 |                   96 |              31991 |        507670 |             5074 |        12874814 |                     0 |      73361645 | 2017-02-08 19:33:31.339908+01

 2017-02-08 19:51:34.818568+01 | 1486579894.81857 |                 0 |               4 |                   295 |                   96 |              31991 |        508170 |             5079 |        12874814 |                     0 |      73435472 | 2017-02-08 19:33:31.339908+01

 2017-02-08 19:51:35.917631+01 | 1486579895.91763 |                 0 |               4 |                   295 |                   96 |              31991 |        508670 |             5084 |        12874814 |                     0 |      73504293 | 2017-02-08 19:33:31.339908+01

 2017-02-08 19:51:36.990881+01 | 1486579896.99088 |                 0 |               4 |                   295 |                   96 |              31991 |        509270 |             5090 |        12874814 |                     0 |      73592550 | 2017-02-08 19:33:31.339908+01

 2017-02-08 19:51:38.059539+01 | 1486579898.05954 |                 0 |               4 |                   295 |                   96 |              31991 |        509770 |             5095 |        12937350 |                     0 |      73668137 | 2017-02-08 19:33:31.339908+01

 2017-02-08 19:51:39.124414+01 | 1486579899.12441 |                 0 |               4 |                   295 |                   96 |              31991 |        510270 |             5100 |        12937350 |                     0 |      73744098 | 2017-02-08 19:33:31.339908+01

 2017-02-08 19:51:40.208758+01 | 1486579900.20876 |                 0 |               4 |                   295 |                   96 |              31991 |        510870 |             5106 |        12937350 |                     0 |      73832093 | 2017-02-08 19:33:31.339908+01

 2017-02-08 19:51:41.300065+01 | 1486579901.30007 |                 0 |               4 |                   295 |                   96 |              31991 |        511370 |             5111 |        12937350 |                     0 |      73907718 | 2017-02-08 19:33:31.339908+01

 2017-02-08 19:51:42.392007+01 | 1486579902.39201 |                 0 |               4 |                   295 |                   96 |              31991 |        511970 |             5117 |        12937350 |                     0 |      73996004 | 2017-02-08 19:33:31.339908+01

 2017-02-08 19:51:43.458051+01 | 1486579903.45805 |                 0 |               4 |                   295 |                   96 |              31991 |        512470 |             5122 |        12937350 |                     0 |      74071133 | 2017-02-08 19:33:31.339908+01

 2017-02-08 19:51:44.550287+01 | 1486579904.55029 |                 0 |               4 |                   295 |                   96 |              31991 |        512970 |             5127 |        12999986 |                     0 |      74146182 | 2017-02-08 19:33:31.339908+01

 2017-02-08 19:51:45.643716+01 | 1486579905.64372 |                 0 |               4 |                   295 |                   96 |              31991 |        513570 |             5133 |        12999986 |                     0 |      74232436 | 2017-02-08 19:33:31.339908+01

 2017-02-08 19:51:46.712407+01 | 1486579906.71241 |                 0 |               4 |                   295 |                   96 |              31991 |        514070 |             5138 |        12999986 |                     0 |      74309019 | 2017-02-08 19:33:31.339908+01

 2017-02-08 19:51:47.778594+01 | 1486579907.77859 |                 0 |               4 |                   295 |                   96 |              31991 |        514570 |             5143 |        12999986 |                     0 |      74384340 | 2017-02-08 19:33:31.339908+01

 2017-02-08 19:51:48.853867+01 | 1486579908.85387 |                 0 |               4 |                   295 |                   96 |              31991 |        515170 |             5149 |        12999986 |                     0 |      74471998 | 2017-02-08 19:33:31.339908+01

 2017-02-08 19:51:49.919341+01 | 1486579909.91934 |                 0 |               4 |                   295 |                   96 |              31991 |        515670 |             5154 |        13062622 |                     0 |      74549118 | 2017-02-08 19:33:31.339908+01

 2017-02-08 19:51:50.99667+01 | 1486579910.99667 |                 0 |               4 |                   295 |                   96 |              31991 |        516170 |             5159 |        13062622 |                     0 |      74625715 | 2017-02-08 19:33:31.339908+01

 2017-02-08 19:51:52.063139+01 | 1486579912.06314 |                 0 |               4 |                   295 |                   96 |              31991 |        516770 |             5165 |        13062622 |                     0 |      74713818 | 2017-02-08 19:33:31.339908+01

 2017-02-08 19:51:53.137554+01 | 1486579913.13755 |                 0 |               4 |                   295 |                   96 |              31991 |        517270 |             5170 |        13062622 |                     0 |      74790591 | 2017-02-08 19:33:31.339908+01

 2017-02-08 19:51:54.211642+01 | 1486579914.21164 |                 0 |               4 |                   295 |                   96 |              31991 |        517770 |             5175 |        13062622 |                     0 |      74866283 | 2017-02-08 19:33:31.339908+01

 2017-02-08 19:51:55.292065+01 | 1486579915.29206 |                 0 |               4 |                   295 |                   96 |              31991 |        518370 |             5181 |        13125197 |                     0 |      74954840 | 2017-02-08 19:33:31.339908+01

 2017-02-08 19:51:56.370688+01 | 1486579916.37069 |                 0 |               4 |                   295 |                   96 |              31991 |        518870 |             5186 |        13125197 |                     0 |      75031481 | 2017-02-08 19:33:31.339908+01

 2017-02-08 19:51:57.462125+01 | 1486579917.46213 |                 0 |               4 |                   295 |                   96 |              31991 |        519370 |             5191 |        13125197 |                     0 |      75105251 | 2017-02-08 19:33:31.339908+01

 2017-02-08 19:51:58.558203+01 | 1486579918.5582 |                 0 |               4 |                   295 |                   96 |              31991 |        519970 |             5197 |        13125197 |                     0 |      75197739 | 2017-02-08 19:33:31.339908+01

 2017-02-08 19:51:59.630266+01 | 1486579919.63027 |                 0 |               4 |                   295 |                   96 |              31991 |        520470 |             5202 |        13125197 |                     0 |      75275288 | 2017-02-08 19:33:31.339908+01

 2017-02-08 19:52:00.716104+01 | 1486579920.7161 |                 0 |               4 |                   295 |                   96 |              31991 |        521070 |             5208 |        13125197 |                     0 |      75362817 | 2017-02-08 19:33:31.339908+01

 2017-02-08 19:52:01.794134+01 | 1486579921.79413 |                 0 |               4 |                   295 |                   96 |              31991 |        521570 |             5213 |        13187809 |                     0 |      75439710 | 2017-02-08 19:33:31.339908+01

 2017-02-08 19:52:02.86221+01 | 1486579922.86221 |                 0 |               4 |                   295 |                   96 |              31991 |        522070 |             5218 |        13187809 |                     0 |      75514435 | 2017-02-08 19:33:31.339908+01

 2017-02-08 19:52:03.934772+01 | 1486579923.93477 |                 0 |               4 |                   295 |                   96 |              31991 |        522670 |             5224 |        13187809 |                     0 |      75604996 | 2017-02-08 19:33:31.339908+01

 2017-02-08 19:52:05.017617+01 | 1486579925.01762 |                 0 |               4 |                   295 |                   96 |              31991 |        523170 |             5229 |        13187809 |                     0 |      75681891 | 2017-02-08 19:33:31.339908+01

 2017-02-08 19:52:06.081417+01 | 1486579926.08142 |                 0 |               4 |                   295 |                   96 |              31991 |        523670 |             5234 |        13187809 |                     0 |      75755664 | 2017-02-08 19:33:31.339908+01

 2017-02-08 19:52:07.164247+01 | 1486579927.16425 |                 0 |               4 |                   295 |                   96 |              31991 |        524270 |             5240 |        13250445 |                     0 |      75847985 | 2017-02-08 19:33:31.339908+01

 2017-02-08 19:52:08.23906+01 | 1486579928.23906 |                 0 |               4 |                   295 |                   96 |              31991 |        524770 |             5245 |        13250445 |                     0 |      75925292 | 2017-02-08 19:33:31.339908+01

 2017-02-08 19:52:09.313602+01 | 1486579929.3136 |                 0 |               4 |                   295 |                   96 |              31991 |        525270 |             5250 |        13250445 |                     0 |      75997106 | 2017-02-08 19:33:31.339908+01

 2017-02-08 19:52:10.378584+01 | 1486579930.37858 |                 0 |               4 |                   295 |                   96 |              31991 |        525870 |             5256 |        13250445 |                     0 |      76090799 | 2017-02-08 19:33:31.339908+01

 2017-02-08 19:52:11.451238+01 | 1486579931.45124 |                 0 |               4 |                   295 |                   96 |              31991 |        526370 |             5261 |        13250445 |                     0 |      76162476 | 2017-02-08 19:33:31.339908+01

 2017-02-08 19:52:12.532474+01 | 1486579932.53247 |                 0 |               4 |                   295 |                   96 |              31991 |        526870 |             5266 |        13250445 |                     0 |      76239829 | 2017-02-08 19:33:31.339908+01

 2017-02-08 19:52:13.611918+01 | 1486579933.61192 |                 0 |               4 |                   295 |                   96 |              31991 |        527470 |             5272 |        13313081 |                     0 |      76333451 | 2017-02-08 19:33:31.339908+01

 2017-02-08 19:52:14.694605+01 | 1486579934.69461 |                 0 |               4 |                   295 |                   96 |              31991 |        527970 |             5277 |        13313081 |                     0 |      76405819 | 2017-02-08 19:33:31.339908+01

 2017-02-08 19:52:15.776938+01 | 1486579935.77694 |                 0 |               4 |                   295 |                   96 |              31991 |        528570 |             5283 |        13313081 |                     0 |      76498532 | 2017-02-08 19:33:31.339908+01

 2017-02-08 19:52:16.841018+01 | 1486579936.84102 |                 0 |               4 |                   295 |                   96 |              31991 |        529070 |             5288 |        13313081 |                     0 |      76571776 | 2017-02-08 19:33:31.339908+01

 2017-02-08 19:52:17.91061+01 | 1486579937.91061 |                 0 |               4 |                   295 |                   96 |              31991 |        529570 |             5293 |        13313081 |                     0 |      76648500 | 2017-02-08 19:33:31.339908+01

 2017-02-08 19:52:18.983254+01 | 1486579938.98325 |                 0 |               4 |                   295 |                   96 |              31991 |        530170 |             5299 |        13375717 |                     0 |      76742306 | 2017-02-08 19:33:31.339908+01

 2017-02-08 19:52:20.068687+01 | 1486579940.06869 |                 0 |               4 |                   295 |                   96 |              31991 |        530670 |             5304 |        13375717 |                     0 |      76815002 | 2017-02-08 19:33:31.339908+01

 2017-02-08 19:52:21.149554+01 | 1486579941.14955 |                 0 |               4 |                   295 |                   96 |              31991 |        531170 |             5309 |        13375717 |                     0 |      76892539 | 2017-02-08 19:33:31.339908+01

 2017-02-08 19:52:22.20965+01 | 1486579942.20965 |                 0 |               4 |                   295 |                   96 |              31991 |        531770 |             5315 |        13375717 |                     0 |      76982726 | 2017-02-08 19:33:31.339908+01

 2017-02-08 19:52:23.284795+01 | 1486579943.2848 |                 0 |               4 |                   295 |                   96 |              31991 |        532270 |             5320 |        13375717 |                     0 |      77057388 | 2017-02-08 19:33:31.339908+01

 2017-02-08 19:52:24.365442+01 | 1486579944.36544 |                 0 |               4 |                   295 |                   96 |              31991 |        532770 |             5325 |        13375717 |                     0 |      77134152 | 2017-02-08 19:33:31.339908+01

 2017-02-08 19:52:25.458106+01 | 1486579945.45811 |                 0 |               4 |                   295 |                   96 |              31991 |        533370 |             5331 |        13438355 |                     0 |      77222819 | 2017-02-08 19:33:31.339908+01

 2017-02-08 19:52:26.538606+01 | 1486579946.53861 |                 0 |               4 |                   295 |                   96 |              31991 |        533870 |             5336 |        13438355 |                     0 |      77299667 | 2017-02-08 19:33:31.339908+01

 2017-02-08 19:52:27.616603+01 | 1486579947.6166 |                 0 |               4 |                   295 |                   96 |              31991 |        534370 |             5341 |        13438355 |                     0 |      77375696 | 2017-02-08 19:33:31.339908+01

 2017-02-08 19:52:28.701168+01 | 1486579948.70117 |                 0 |               4 |                   295 |                   96 |              31991 |        534970 |             5347 |        13438355 |                     0 |      77466120 | 2017-02-08 19:33:31.339908+01

 2017-02-08 19:52:29.780926+01 | 1486579949.78093 |                 0 |               4 |                   295 |                   96 |              31991 |        535470 |             5352 |        13438355 |                     0 |      77542129 | 2017-02-08 19:33:31.339908+01

 2017-02-08 19:52:30.84143+01 | 1486579950.84143 |                 0 |               4 |                   295 |                   96 |              31991 |        535970 |             5357 |        13500991 |                     0 |      77618339 | 2017-02-08 19:33:31.339908+01

 2017-02-08 19:52:31.914653+01 | 1486579951.91465 |                 0 |               4 |                   295 |                   96 |              31991 |        536570 |             5363 |        13500991 |                     0 |      77709208 | 2017-02-08 19:33:31.339908+01

 2017-02-08 19:52:32.981884+01 | 1486579952.98188 |                 0 |               4 |                   295 |                   96 |              31991 |        537070 |             5368 |        13500991 |                     0 |      77786550 | 2017-02-08 19:33:31.339908+01

 2017-02-08 19:52:34.047137+01 | 1486579954.04714 |                 0 |               4 |                   295 |                   96 |              31991 |        537570 |             5373 |        13500991 |                     0 |      77863824 | 2017-02-08 19:33:31.339908+01

 2017-02-08 19:52:35.113673+01 | 1486579955.11367 |                 0 |               4 |                   295 |                   96 |              31991 |        538170 |             5379 |        13500991 |                     0 |      77952279 | 2017-02-08 19:33:31.339908+01

 2017-02-08 19:52:36.195009+01 | 1486579956.19501 |                 0 |               4 |                   295 |                   96 |              31991 |        538670 |             5384 |        13563627 |                     0 |      78030100 | 2017-02-08 19:33:31.339908+01

 2017-02-08 19:52:37.259986+01 | 1486579957.25999 |                 0 |               4 |                   295 |                   96 |              31991 |        539170 |             5389 |        13563627 |                     0 |      78103189 | 2017-02-08 19:33:31.339908+01

 2017-02-08 19:52:38.347553+01 | 1486579958.34755 |                 0 |               4 |                   295 |                   96 |              31991 |        539770 |             5395 |        13563627 |                     0 |      78196052 | 2017-02-08 19:33:31.339908+01

 2017-02-08 19:52:39.417673+01 | 1486579959.41767 |                 0 |               4 |                   295 |                   96 |              31991 |        540270 |             5400 |        13563627 |                     0 |      78272511 | 2017-02-08 19:33:31.339908+01

 2017-02-08 19:52:40.502826+01 | 1486579960.50283 |                 0 |               4 |                   295 |                   96 |              31991 |        540770 |             5405 |        13563627 |                     0 |      78345416 | 2017-02-08 19:33:31.339908+01

 2017-02-08 19:52:41.582713+01 | 1486579961.58271 |                 0 |               4 |                   295 |                   96 |              31991 |        541370 |             5411 |        13563627 |                     0 |      78438874 | 2017-02-08 19:33:31.339908+01

 2017-02-08 19:52:42.658934+01 | 1486579962.65893 |                 0 |               4 |                   295 |                   96 |              31991 |        541870 |             5416 |        13626263 |                     0 |      78512058 | 2017-02-08 19:33:31.339908+01

 2017-02-08 19:52:43.776713+01 | 1486579963.77671 |                 0 |               4 |                   295 |                   96 |              31991 |        542470 |             5422 |        13626263 |                     0 |      78605736 | 2017-02-08 19:33:31.339908+01

 2017-02-08 19:52:44.844081+01 | 1486579964.84408 |                 0 |               4 |                   295 |                   96 |              31991 |        542970 |             5427 |        13626263 |                     0 |      78683481 | 2017-02-08 19:33:31.339908+01

 2017-02-08 19:52:45.92482+01 | 1486579965.92482 |                 0 |               4 |                   295 |                   96 |              31991 |        543470 |             5432 |        13626263 |                     0 |      78757271 | 2017-02-08 19:33:31.339908+01

 2017-02-08 19:52:46.997857+01 | 1486579966.99786 |                 0 |               4 |                   295 |                   96 |              31991 |        544070 |             5438 |        13626263 |                     0 |      78848380 | 2017-02-08 19:33:31.339908+01

 2017-02-08 19:52:48.067411+01 | 1486579968.06741 |                 0 |               4 |                   295 |                   96 |              31991 |        544570 |             5443 |        13688900 |                     0 |      78925983 | 2017-02-08 19:33:31.339908+01

 2017-02-08 19:52:49.145989+01 | 1486579969.14599 |                 0 |               4 |                   295 |                   96 |              31991 |        545070 |             5448 |        13688900 |                     0 |      78997755 | 2017-02-08 19:33:31.339908+01

 2017-02-08 19:52:50.219537+01 | 1486579970.21954 |                 0 |               4 |                   295 |                   96 |              31991 |        545670 |             5454 |        13688900 |                     0 |      79092979 | 2017-02-08 19:33:31.339908+01

 2017-02-08 19:52:51.300483+01 | 1486579971.30048 |                 0 |               4 |                   295 |                   96 |              31991 |        546170 |             5459 |        13688900 |                     0 |      79166705 | 2017-02-08 19:33:31.339908+01

 2017-02-08 19:52:52.368936+01 | 1486579972.36894 |                 0 |               4 |                   295 |                   96 |              31991 |        546770 |             5465 |        13688900 |                     0 |      79256813 | 2017-02-08 19:33:31.339908+01

 2017-02-08 19:52:53.437884+01 | 1486579973.43788 |                 0 |               4 |                   295 |                   96 |              31991 |        547270 |             5470 |        13688900 |                     0 |      79334321 | 2017-02-08 19:33:31.339908+01

 2017-02-08 19:52:54.522824+01 | 1486579974.52282 |                 0 |               4 |                   295 |                   96 |              31991 |        547770 |             5475 |        13751536 |                     0 |      79406695 | 2017-02-08 19:33:31.339908+01

 2017-02-08 19:52:55.615632+01 | 1486579975.61563 |                 0 |               4 |                   295 |                   96 |              31991 |        548370 |             5481 |        13751536 |                     0 |      79501615 | 2017-02-08 19:33:31.339908+01

 2017-02-08 19:52:56.682426+01 | 1486579976.68243 |                 0 |               4 |                   295 |                   96 |              31991 |        548870 |             5486 |        13751536 |                     0 |      79578721 | 2017-02-08 19:33:31.339908+01

 2017-02-08 19:52:57.752116+01 | 1486579977.75212 |                 0 |               4 |                   295 |                   96 |              31991 |        549370 |             5491 |        13751536 |                     0 |      79651944 | 2017-02-08 19:33:31.339908+01

 2017-02-08 19:52:58.82621+01 | 1486579978.82621 |                 0 |               4 |                   295 |                   96 |              31991 |        549970 |             5497 |        13751536 |                     0 |      79745431 | 2017-02-08 19:33:31.339908+01

 2017-02-08 19:52:59.898671+01 | 1486579979.89867 |                 0 |               4 |                   295 |                   96 |              31991 |        550470 |             5502 |        13814172 |                     0 |      79818478 | 2017-02-08 19:33:31.339908+01

 2017-02-08 19:53:00.967164+01 | 1486579980.96716 |                 0 |               4 |                   295 |                   96 |              31991 |        550970 |             5507 |        13814172 |                     0 |      79896633 | 2017-02-08 19:33:31.339908+01

 2017-02-08 19:53:02.030252+01 | 1486579982.03025 |                 0 |               4 |                   295 |                   96 |              31991 |        551570 |             5513 |        13814172 |                     0 |      79986953 | 2017-02-08 19:33:31.339908+01

 2017-02-08 19:53:03.099914+01 | 1486579983.09991 |                 0 |               4 |                   295 |                   96 |              31991 |        552070 |             5518 |        13814172 |                     0 |      80063256 | 2017-02-08 19:33:31.339908+01

 2017-02-08 19:53:04.173341+01 | 1486579984.17334 |                 0 |               4 |                   295 |                   96 |              31991 |        552570 |             5523 |        13814172 |                     0 |      80140143 | 2017-02-08 19:33:31.339908+01

 2017-02-08 19:53:05.240644+01 | 1486579985.24064 |                 0 |               4 |                   295 |                   96 |              31991 |        553070 |             5528 |        13814172 |                     0 |      80214188 | 2017-02-08 19:33:31.339908+01

 2017-02-08 19:53:06.313833+01 | 1486579986.31383 |                 0 |               4 |                   295 |                   96 |              31991 |        553670 |             5534 |        13876808 |                     0 |      80304359 | 2017-02-08 19:33:31.339908+01

 2017-02-08 19:53:07.375563+01 | 1486579987.37556 |                 0 |               4 |                   295 |                   96 |              31991 |        554170 |             5539 |        13876808 |                     0 |      80381426 | 2017-02-08 19:33:31.339908+01

 2017-02-08 19:53:08.437759+01 | 1486579988.43776 |                 0 |               4 |                   295 |                   96 |              31991 |        554670 |             5544 |        13876808 |                     0 |      80455400 | 2017-02-08 19:33:31.339908+01

 2017-02-08 19:53:09.517622+01 | 1486579989.51762 |                 0 |               4 |                   295 |                   96 |              31991 |        555270 |             5550 |        13876808 |                     0 |      80548949 | 2017-02-08 19:33:31.339908+01

 2017-02-08 19:53:10.586595+01 | 1486579990.5866 |                 0 |               4 |                   295 |                   96 |              31991 |        555770 |             5555 |        13876808 |                     0 |      80626169 | 2017-02-08 19:33:31.339908+01

 2017-02-08 19:53:11.678127+01 | 1486579991.67813 |                 0 |               4 |                   295 |                   96 |              31991 |        556270 |             5560 |        13939444 |                     0 |      80699997 | 2017-02-08 19:33:31.339908+01

 2017-02-08 19:53:12.767922+01 | 1486579992.76792 |                 0 |               4 |                   295 |                   96 |              31991 |        556870 |             5566 |        13939444 |                     0 |      80791943 | 2017-02-08 19:33:31.339908+01

 2017-02-08 19:53:13.844612+01 | 1486579993.84461 |                 0 |               4 |                   295 |                   96 |              31991 |        557370 |             5571 |        13939444 |                     0 |      80865693 | 2017-02-08 19:33:31.339908+01

 2017-02-08 19:53:14.91807+01 | 1486579994.91807 |                 0 |               4 |                   295 |                   96 |              31991 |        557970 |             5577 |        13939444 |                     0 |      80958692 | 2017-02-08 19:33:31.339908+01

 2017-02-08 19:53:15.990983+01 | 1486579995.99098 |                 0 |               4 |                   295 |                   96 |              31991 |        558470 |             5582 |        13939444 |                     0 |      81032779 | 2017-02-08 19:33:31.339908+01

 2017-02-08 19:53:17.061319+01 | 1486579997.06132 |                 0 |               4 |                   295 |                   96 |              31991 |        558970 |             5587 |        14002280 |                     0 |      81109053 | 2017-02-08 19:33:31.339908+01

 2017-02-08 19:53:18.15087+01 | 1486579998.15087 |                 0 |               4 |                   295 |                   96 |              31991 |        559570 |             5593 |        14002280 |                     0 |      81199671 | 2017-02-08 19:33:31.339908+01

 2017-02-08 19:53:19.225297+01 | 1486579999.2253 |                 0 |               4 |                   295 |                   96 |              31991 |        560070 |             5598 |        14002280 |                     0 |      81276372 | 2017-02-08 19:33:31.339908+01

 2017-02-08 19:53:20.291435+01 | 1486580000.29144 |                 0 |               4 |                   295 |                   96 |              31991 |        560570 |             5603 |        14002280 |                     0 |      81353955 | 2017-02-08 19:33:31.339908+01

 2017-02-08 19:53:21.365081+01 | 1486580001.36508 |                 0 |               4 |                   295 |                   96 |              31991 |        561170 |             5609 |        14002280 |                     0 |      81444414 | 2017-02-08 19:33:31.339908+01

 2017-02-08 19:53:22.444966+01 | 1486580002.44497 |                 0 |               4 |                   295 |                   96 |              31991 |        561670 |             5614 |        14065016 |                     0 |      81521791 | 2017-02-08 19:33:31.339908+01

 2017-02-08 19:53:23.516426+01 | 1486580003.51643 |                 0 |               4 |                   295 |                   96 |              31991 |        562170 |             5619 |        14065016 |                     0 |      81593536 | 2017-02-08 19:33:31.339908+01

 2017-02-08 19:53:24.585227+01 | 1486580004.58523 |                 0 |               4 |                   295 |                   96 |              31991 |        562770 |             5625 |        14065016 |                     0 |      81684987 | 2017-02-08 19:33:31.339908+01

 2017-02-08 19:53:25.664259+01 | 1486580005.66426 |                 0 |               4 |                   295 |                   96 |              31991 |        563270 |             5630 |        14065016 |                     0 |      81762334 | 2017-02-08 19:33:31.339908+01

 2017-02-08 19:53:26.751879+01 | 1486580006.75188 |                 0 |               4 |                   295 |                   96 |              31991 |        563770 |             5635 |        14065016 |                     0 |      81836668 | 2017-02-08 19:33:31.339908+01

 2017-02-08 19:53:27.859998+01 | 1486580007.86 |                 0 |               4 |                   295 |                   96 |              31991 |        564370 |             5641 |        14065016 |                     0 |      81929181 | 2017-02-08 19:33:31.339908+01

 2017-02-08 19:53:28.937581+01 | 1486580008.93758 |                 0 |               4 |                   295 |                   96 |              31991 |        564870 |             5646 |        14127678 |                     0 |      82004111 | 2017-02-08 19:33:31.339908+01

 2017-02-08 19:53:30.008592+01 | 1486580010.00859 |                 0 |               4 |                   295 |                   96 |              31991 |        565470 |             5652 |        14127678 |                     0 |      82097556 | 2017-02-08 19:33:31.339908+01

 2017-02-08 19:53:31.068842+01 | 1486580011.06884 |                 0 |               4 |                   295 |                   96 |              31991 |        565970 |             5657 |        14127678 |                     0 |      82172139 | 2017-02-08 19:33:31.339908+01

 2017-02-08 19:53:32.134279+01 | 1486580012.13428 |                 0 |               4 |                   295 |                   96 |              31991 |        566470 |             5662 |        14127678 |                     0 |      82249458 | 2017-02-08 19:33:31.339908+01

 2017-02-08 19:53:33.194524+01 | 1486580013.19452 |                 0 |               4 |                   295 |                   96 |              31991 |        567070 |             5668 |        14127678 |                     0 |      82338868 | 2017-02-08 19:33:31.339908+01

 2017-02-08 19:53:34.274507+01 | 1486580014.27451 |                 0 |               4 |                   295 |                   96 |              31991 |        567570 |             5673 |        14190412 |                     0 |      82414458 | 2017-02-08 19:33:31.339908+01

 2017-02-08 19:53:35.352209+01 | 1486580015.35221 |                 0 |               4 |                   295 |                   96 |              31991 |        568070 |             5678 |        14190412 |                     0 |      82491993 | 2017-02-08 19:33:31.339908+01

 2017-02-08 19:53:36.421343+01 | 1486580016.42134 |                 0 |               4 |                   295 |                   96 |              31991 |        568670 |             5684 |        14190412 |                     0 |      82582081 | 2017-02-08 19:33:31.339908+01

 2017-02-08 19:53:37.487793+01 | 1486580017.48779 |                 0 |               4 |                   295 |                   96 |              31991 |        569170 |             5689 |        14190412 |                     0 |      82658691 | 2017-02-08 19:33:31.339908+01

 2017-02-08 19:53:38.552765+01 | 1486580018.55276 |                 0 |               4 |                   295 |                   96 |              31991 |        569670 |             5694 |        14190412 |                     0 |      82735321 | 2017-02-08 19:33:31.339908+01

 2017-02-08 19:53:39.654852+01 | 1486580019.65485 |                 0 |               4 |                   295 |                   96 |              31991 |        570270 |             5700 |        14253048 |                     0 |      82825466 | 2017-02-08 19:33:31.339908+01

 2017-02-08 19:53:40.719928+01 | 1486580020.71993 |                 0 |               4 |                   295 |                   96 |              31991 |        570770 |             5705 |        14253048 |                     0 |      82901570 | 2017-02-08 19:33:31.339908+01

 2017-02-08 19:53:41.782561+01 | 1486580021.78256 |                 0 |               4 |                   295 |                   96 |              31991 |        571270 |             5710 |        14253048 |                     0 |      82976563 | 2017-02-08 19:33:31.339908+01

 2017-02-08 19:53:42.857428+01 | 1486580022.85743 |                 0 |               4 |                   295 |                   96 |              31991 |        571870 |             5716 |        14253048 |                     0 |      83065976 | 2017-02-08 19:33:31.339908+01

 2017-02-08 19:53:43.933937+01 | 1486580023.93394 |                 0 |               4 |                   295 |                   96 |              31991 |        572370 |             5721 |        14253048 |                     0 |      83142576 | 2017-02-08 19:33:31.339908+01

 2017-02-08 19:53:45.008505+01 | 1486580025.00851 |                 0 |               4 |                   295 |                   96 |              31991 |        572870 |             5726 |        14253048 |                     0 |      83217653 | 2017-02-08 19:33:31.339908+01

 2017-02-08 19:53:46.083818+01 | 1486580026.08382 |                 0 |               4 |                   295 |                   96 |              31991 |        573470 |             5732 |        14315685 |                     0 |      83309104 | 2017-02-08 19:33:31.339908+01

 2017-02-08 19:53:47.161563+01 | 1486580027.16156 |                 0 |               4 |                   295 |                   96 |              31991 |        573970 |             5737 |        14315685 |                     0 |      83385992 | 2017-02-08 19:33:31.339908+01

 2017-02-08 19:53:48.232748+01 | 1486580028.23275 |                 0 |               4 |                   295 |                   96 |              31991 |        574470 |             5742 |        14315685 |                     0 |      83460084 | 2017-02-08 19:33:31.339908+01

 2017-02-08 19:53:49.296849+01 | 1486580029.29685 |                 0 |               4 |                   295 |                   96 |              31991 |        575070 |             5748 |        14315685 |                     0 |      83554995 | 2017-02-08 19:33:31.339908+01

 2017-02-08 19:53:50.359178+01 | 1486580030.35918 |                 0 |               4 |                   295 |                   96 |              31991 |        575570 |             5753 |        14315685 |                     0 |      83627370 | 2017-02-08 19:33:31.339908+01

 2017-02-08 19:53:51.439022+01 | 1486580031.43902 |                 0 |               4 |                   295 |                   96 |              31991 |        576070 |             5758 |        14378421 |                     0 |      83704491 | 2017-02-08 19:33:31.339908+01

 2017-02-08 19:53:52.493815+01 | 1486580032.49381 |                 0 |               4 |                   295 |                   96 |              31991 |        576670 |             5764 |        14378421 |                     0 |      83796346 | 2017-02-08 19:33:31.339908+01

 2017-02-08 19:53:53.574526+01 | 1486580033.57453 |                 0 |               4 |                   295 |                   96 |              31991 |        577170 |             5769 |        14378421 |                     0 |      83872880 | 2017-02-08 19:33:31.339908+01

 2017-02-08 19:53:54.650322+01 | 1486580034.65032 |                 0 |               4 |                   295 |                   96 |              31991 |        577670 |             5774 |        14378421 |                     0 |      83949838 | 2017-02-08 19:33:31.339908+01

 2017-02-08 19:53:55.723243+01 | 1486580035.72324 |                 0 |               4 |                   295 |                   96 |              31991 |        578270 |             5780 |        14378421 |                     0 |      84040859 | 2017-02-08 19:33:31.339908+01

 2017-02-08 19:53:56.816995+01 | 1486580036.81699 |                 0 |               4 |                   295 |                   96 |              31991 |        578770 |             5785 |        14378421 |                     0 |      84114446 | 2017-02-08 19:33:31.339908+01

 2017-02-08 19:53:57.883021+01 | 1486580037.88302 |                 0 |               4 |                   295 |                   96 |              31991 |        579270 |             5790 |        14441057 |                     0 |      84191871 | 2017-02-08 19:33:31.339908+01

 2017-02-08 19:53:58.954073+01 | 1486580038.95407 |                 0 |               4 |                   295 |                   96 |              31991 |        579870 |             5796 |        14441057 |                     0 |      84281140 | 2017-02-08 19:33:31.339908+01

 2017-02-08 19:54:00.022421+01 | 1486580040.02242 |                 0 |               4 |                   295 |                   96 |              31991 |        580370 |             5801 |        14441057 |                     0 |      84357797 | 2017-02-08 19:33:31.339908+01

 2017-02-08 19:54:01.090245+01 | 1486580041.09025 |                 0 |               4 |                   295 |                   96 |              31991 |        580870 |             5806 |        14441057 |                     0 |      84435763 | 2017-02-08 19:33:31.339908+01

 2017-02-08 19:54:02.162404+01 | 1486580042.1624 |                 0 |               4 |                   295 |                   96 |              31991 |        581370 |             5811 |        14441057 |                     0 |      84509985 | 2017-02-08 19:33:31.339908+01

 2017-02-08 19:54:03.236834+01 | 1486580043.23683 |                 0 |               4 |                   295 |                   96 |              31991 |        581970 |             5817 |        14503693 |                     0 |      84601391 | 2017-02-08 19:33:31.339908+01

 2017-02-08 19:54:04.303616+01 | 1486580044.30362 |                 0 |               4 |                   295 |                   96 |              31991 |        582470 |             5822 |        14503693 |                     0 |      84677894 | 2017-02-08 19:33:31.339908+01

 2017-02-08 19:54:05.367644+01 | 1486580045.36764 |                 0 |               4 |                   295 |                   96 |              31991 |        583070 |             5828 |        14503693 |                     0 |      84767299 | 2017-02-08 19:33:31.339908+01

 2017-02-08 19:54:06.438011+01 | 1486580046.43801 |                 0 |               4 |                   295 |                   96 |              31991 |        583570 |             5833 |        14503693 |                     0 |      84843788 | 2017-02-08 19:33:31.339908+01

 2017-02-08 19:54:07.507515+01 | 1486580047.50751 |                 0 |               4 |                   295 |                   96 |              31991 |        584070 |             5838 |        14503693 |                     0 |      84918052 | 2017-02-08 19:33:31.339908+01

 2017-02-08 19:54:08.598043+01 | 1486580048.59804 |                 0 |               4 |                   295 |                   96 |              31991 |        584570 |             5843 |        14566329 |                     0 |      84993266 | 2017-02-08 19:33:31.339908+01

 2017-02-08 19:54:09.681757+01 | 1486580049.68176 |                 0 |               4 |                   295 |                   96 |              31991 |        585170 |             5849 |        14566329 |                     0 |      85088011 | 2017-02-08 19:33:31.339908+01

 2017-02-08 19:54:10.761965+01 | 1486580050.76197 |                 0 |               4 |                   295 |                   96 |              31991 |        585670 |             5854 |        14566329 |                     0 |      85161347 | 2017-02-08 19:33:31.339908+01

 2017-02-08 19:54:11.828886+01 | 1486580051.82889 |                 0 |               4 |                   295 |                   96 |              31991 |        586270 |             5860 |        14566329 |                     0 |      85253479 | 2017-02-08 19:33:31.339908+01

 2017-02-08 19:54:12.914381+01 | 1486580052.91438 |                 0 |               4 |                   295 |                   96 |              31991 |        586770 |             5865 |        14566329 |                     0 |      85330995 | 2017-02-08 19:33:31.339908+01

 2017-02-08 19:54:13.998764+01 | 1486580053.99876 |                 0 |               4 |                   295 |                   96 |              31991 |        587270 |             5870 |        14566329 |                     0 |      85402302 | 2017-02-08 19:33:31.339908+01

 2017-02-08 19:54:15.075107+01 | 1486580055.07511 |                 0 |               4 |                   295 |                   96 |              31991 |        587870 |             5876 |        14628966 |                     0 |      85495378 | 2017-02-08 19:33:31.339908+01

 2017-02-08 19:54:16.151909+01 | 1486580056.15191 |                 0 |               4 |                   295 |                   96 |              31991 |        588370 |             5881 |        14628966 |                     0 |      85571583 | 2017-02-08 19:33:31.339908+01

 2017-02-08 19:54:17.22181+01 | 1486580057.22181 |                 0 |               4 |                   295 |                   96 |              31991 |        588870 |             5886 |        14628966 |                     0 |      85646345 | 2017-02-08 19:33:31.339908+01

 2017-02-08 19:54:18.28806+01 | 1486580058.28806 |                 0 |               4 |                   295 |                   96 |              31991 |        589470 |             5892 |        14628966 |                     0 |      85740009 | 2017-02-08 19:33:31.339908+01

 2017-02-08 19:54:19.372543+01 | 1486580059.37254 |                 0 |               4 |                   295 |                   96 |              31991 |        589970 |             5897 |        14628966 |                     0 |      85812734 | 2017-02-08 19:33:31.339908+01

 2017-02-08 19:54:20.440004+01 | 1486580060.44 |                 0 |               4 |                   295 |                   96 |              31991 |        590470 |             5902 |        14691602 |                     0 |      85890099 | 2017-02-08 19:33:31.339908+01

 2017-02-08 19:54:21.509931+01 | 1486580061.50993 |                 0 |               4 |                   295 |                   96 |              31991 |        591070 |             5908 |        14691602 |                     0 |      85984093 | 2017-02-08 19:33:31.339908+01

