 2017-02-08 16:00:30.622506+01 | 1486566030.62251 |                 0 |              10 |                  4869 |                  743 |             772118 |             0 |                0 |          424011 |                     0 |        269300 | 2017-02-08 15:15:13.6735+01

 2017-02-08 16:00:31.675312+01 | 1486566031.67531 |                 0 |              10 |                  4869 |                  743 |             772118 |             0 |                0 |          424011 |                     0 |        269370 | 2017-02-08 15:15:13.6735+01

 2017-02-08 16:00:32.7283+01 | 1486566032.7283 |                 0 |              10 |                  4869 |                  743 |             772118 |             0 |                0 |          424011 |                     0 |        269432 | 2017-02-08 15:15:13.6735+01

 2017-02-08 16:00:33.781796+01 | 1486566033.7818 |                 0 |              10 |                  4869 |                  743 |             772118 |             0 |                0 |          424011 |                     0 |        269503 | 2017-02-08 15:15:13.6735+01

 2017-02-08 16:00:34.837931+01 | 1486566034.83793 |                 0 |              10 |                  4869 |                  743 |             772118 |             0 |                0 |          424011 |                     0 |        269580 | 2017-02-08 15:15:13.6735+01

 2017-02-08 16:00:35.892182+01 | 1486566035.89218 |                 0 |              10 |                  4869 |                  743 |             772118 |             0 |                0 |          424011 |                     0 |        269652 | 2017-02-08 15:15:13.6735+01

 2017-02-08 16:00:36.94941+01 | 1486566036.94941 |                 0 |              10 |                  4869 |                  743 |             772118 |             0 |                0 |          424011 |                     0 |        269718 | 2017-02-08 15:15:13.6735+01

 2017-02-08 16:00:38.00416+01 | 1486566038.00416 |                 0 |              10 |                  4869 |                  743 |             772118 |             0 |                0 |          424011 |                     0 |        269785 | 2017-02-08 15:15:13.6735+01

 2017-02-08 16:00:39.062146+01 | 1486566039.06215 |                 0 |              10 |                  4869 |                  743 |             772118 |             0 |                0 |          424011 |                     0 |        269866 | 2017-02-08 15:15:13.6735+01

 2017-02-08 16:00:40.121265+01 | 1486566040.12126 |                 0 |              10 |                  4869 |                  743 |             772118 |             0 |                0 |          424011 |                     0 |        269940 | 2017-02-08 15:15:13.6735+01

 2017-02-08 16:00:41.176534+01 | 1486566041.17653 |                 0 |              10 |                  4869 |                  743 |             772118 |             0 |                0 |          424011 |                     0 |        270006 | 2017-02-08 15:15:13.6735+01

 2017-02-08 16:00:42.236746+01 | 1486566042.23675 |                 0 |              10 |                  4869 |                  743 |             772118 |             0 |                0 |          424011 |                     0 |        270087 | 2017-02-08 15:15:13.6735+01

 2017-02-08 16:00:43.29237+01 | 1486566043.29237 |                 0 |              10 |                  4869 |                  743 |             772118 |             0 |                0 |          424011 |                     0 |        270157 | 2017-02-08 15:15:13.6735+01

 2017-02-08 16:00:44.358396+01 | 1486566044.3584 |                 0 |              10 |                  4869 |                  743 |             772118 |             0 |                0 |          424011 |                     0 |        270228 | 2017-02-08 15:15:13.6735+01

 2017-02-08 16:00:45.404832+01 | 1486566045.40483 |                 0 |              10 |                  4869 |                  743 |             772118 |             0 |                0 |          424011 |                     0 |        270283 | 2017-02-08 15:15:13.6735+01

 2017-02-08 16:00:46.461434+01 | 1486566046.46143 |                 0 |              10 |                  4869 |                  743 |             772118 |             0 |                0 |          424011 |                     0 |        270374 | 2017-02-08 15:15:13.6735+01

 2017-02-08 16:00:47.515334+01 | 1486566047.51533 |                 0 |              10 |                  4869 |                  743 |             772118 |             0 |                0 |          424011 |                     0 |        270446 | 2017-02-08 15:15:13.6735+01

 2017-02-08 16:00:48.567511+01 | 1486566048.56751 |                 0 |              10 |                  4869 |                  743 |             772118 |             0 |                0 |          424011 |                     0 |        270512 | 2017-02-08 15:15:13.6735+01

 2017-02-08 16:00:49.620373+01 | 1486566049.62037 |                 0 |              10 |                  4869 |                  743 |             772118 |             0 |                0 |          424011 |                     0 |        270595 | 2017-02-08 15:15:13.6735+01

 2017-02-08 16:00:50.67392+01 | 1486566050.67392 |                 0 |              10 |                  4869 |                  743 |             772118 |             0 |                0 |          424011 |                     0 |        270657 | 2017-02-08 15:15:13.6735+01

 2017-02-08 16:00:51.72888+01 | 1486566051.72888 |                 0 |              10 |                  4869 |                  743 |             772118 |             0 |                0 |          424011 |                     0 |        270723 | 2017-02-08 15:15:13.6735+01

 2017-02-08 16:00:52.785982+01 | 1486566052.78598 |                 0 |              10 |                  4869 |                  743 |             772118 |             0 |                0 |          424011 |                     0 |        270817 | 2017-02-08 15:15:13.6735+01

 2017-02-08 16:00:53.840901+01 | 1486566053.8409 |                 0 |              10 |                  4869 |                  743 |             772118 |             0 |                0 |          424011 |                     0 |        270909 | 2017-02-08 15:15:13.6735+01

 2017-02-08 16:00:54.894583+01 | 1486566054.89458 |                 0 |              10 |                  4869 |                  743 |             772118 |             0 |                0 |          424011 |                     0 |        270983 | 2017-02-08 15:15:13.6735+01

 2017-02-08 16:00:55.953215+01 | 1486566055.95321 |                 0 |              10 |                  4869 |                  743 |             772118 |             0 |                0 |          424011 |                     0 |        271049 | 2017-02-08 15:15:13.6735+01

 2017-02-08 16:00:57.014486+01 | 1486566057.01449 |                 0 |              10 |                  4869 |                  743 |             772118 |             0 |                0 |          424011 |                     0 |        271116 | 2017-02-08 15:15:13.6735+01

 2017-02-08 16:00:58.0612+01 | 1486566058.0612 |                 0 |              10 |                  4869 |                  743 |             772118 |             0 |                0 |          424011 |                     0 |        271172 | 2017-02-08 15:15:13.6735+01

 2017-02-08 16:00:59.125551+01 | 1486566059.12555 |                 0 |              10 |                  4869 |                  743 |             772118 |             0 |                0 |          424011 |                     0 |        271274 | 2017-02-08 15:15:13.6735+01

 2017-02-08 16:01:00.179135+01 | 1486566060.17914 |                 0 |              10 |                  4869 |                  743 |             772118 |             0 |                0 |          424011 |                     0 |        271344 | 2017-02-08 15:15:13.6735+01

 2017-02-08 16:01:01.229853+01 | 1486566061.22985 |                 0 |              10 |                  4869 |                  743 |             772118 |             0 |                0 |          424011 |                     0 |        271437 | 2017-02-08 15:15:13.6735+01

 2017-02-08 16:01:02.287744+01 | 1486566062.28774 |                 0 |              10 |                  4869 |                  743 |             772118 |             0 |                0 |          424011 |                     0 |        271495 | 2017-02-08 15:15:13.6735+01

 2017-02-08 16:01:03.355829+01 | 1486566063.35583 |                 0 |              10 |                  4869 |                  743 |             772118 |             0 |                0 |          424011 |                     0 |        271574 | 2017-02-08 15:15:13.6735+01

 2017-02-08 16:01:04.411836+01 | 1486566064.41184 |                 0 |              10 |                  4869 |                  743 |             772118 |             0 |                0 |          424011 |                     0 |        271657 | 2017-02-08 15:15:13.6735+01

 2017-02-08 16:01:05.470088+01 | 1486566065.47009 |                 0 |              10 |                  4869 |                  743 |             772118 |             0 |                0 |          424011 |                     0 |        271731 | 2017-02-08 15:15:13.6735+01

 2017-02-08 16:01:06.526252+01 | 1486566066.52625 |                 0 |              10 |                  4869 |                  743 |             772118 |             0 |                0 |          424011 |                     0 |        271804 | 2017-02-08 15:15:13.6735+01

 2017-02-08 16:01:07.584036+01 | 1486566067.58404 |                 0 |              10 |                  4869 |                  743 |             772118 |             0 |                0 |          424011 |                     0 |        271887 | 2017-02-08 15:15:13.6735+01

 2017-02-08 16:01:08.638904+01 | 1486566068.6389 |                 0 |              10 |                  4869 |                  743 |             772118 |             0 |                0 |          424011 |                     0 |        271958 | 2017-02-08 15:15:13.6735+01

 2017-02-08 16:01:09.689459+01 | 1486566069.68946 |                 0 |              10 |                  4869 |                  743 |             772118 |             0 |                0 |          424011 |                     0 |        272035 | 2017-02-08 15:15:13.6735+01

 2017-02-08 16:01:10.747142+01 | 1486566070.74714 |                 0 |              10 |                  4869 |                  743 |             772118 |             0 |                0 |          424011 |                     0 |        272105 | 2017-02-08 15:15:13.6735+01

 2017-02-08 16:01:11.800471+01 | 1486566071.80047 |                 0 |              10 |                  4869 |                  743 |             772118 |             0 |                0 |          424011 |                     0 |        272195 | 2017-02-08 15:15:13.6735+01

 2017-02-08 16:01:12.856462+01 | 1486566072.85646 |                 0 |              10 |                  4869 |                  743 |             772118 |             0 |                0 |          424011 |                     0 |        272267 | 2017-02-08 15:15:13.6735+01

 2017-02-08 16:01:13.915221+01 | 1486566073.91522 |                 0 |              10 |                  4869 |                  743 |             772118 |             0 |                0 |          424011 |                     0 |        272340 | 2017-02-08 15:15:13.6735+01

 2017-02-08 16:01:14.975405+01 | 1486566074.9754 |                 0 |              10 |                  4869 |                  743 |             772118 |             0 |                0 |          424011 |                     0 |        272441 | 2017-02-08 15:15:13.6735+01

 2017-02-08 16:01:16.028517+01 | 1486566076.02852 |                 0 |              10 |                  4869 |                  743 |             772118 |             0 |                0 |          424011 |                     0 |        272490 | 2017-02-08 15:15:13.6735+01

 2017-02-08 16:01:17.086144+01 | 1486566077.08614 |                 0 |              10 |                  4869 |                  743 |             772118 |             0 |                0 |          424011 |                     0 |        272565 | 2017-02-08 15:15:13.6735+01

 2017-02-08 16:01:18.143025+01 | 1486566078.14302 |                 0 |              10 |                  4869 |                  743 |             772118 |             0 |                0 |          424011 |                     0 |        272651 | 2017-02-08 15:15:13.6735+01

 2017-02-08 16:01:19.203197+01 | 1486566079.2032 |                 0 |              10 |                  4869 |                  743 |             772118 |             0 |                0 |          424011 |                     0 |        272720 | 2017-02-08 15:15:13.6735+01

 2017-02-08 16:01:20.255668+01 | 1486566080.25567 |                 0 |              10 |                  4869 |                  743 |             772118 |             0 |                0 |          424011 |                     0 |        272790 | 2017-02-08 15:15:13.6735+01

 2017-02-08 16:01:21.309278+01 | 1486566081.30928 |                 0 |              10 |                  4869 |                  743 |             772118 |             0 |                0 |          424011 |                     0 |        272878 | 2017-02-08 15:15:13.6735+01

 2017-02-08 16:01:22.362519+01 | 1486566082.36252 |                 0 |              10 |                  4869 |                  743 |             772118 |             0 |                0 |          424011 |                     0 |        272951 | 2017-02-08 15:15:13.6735+01

 2017-02-08 16:01:23.427334+01 | 1486566083.42733 |                 0 |              10 |                  4869 |                  743 |             772118 |             0 |                0 |          424011 |                     0 |        273024 | 2017-02-08 15:15:13.6735+01

 2017-02-08 16:01:24.488312+01 | 1486566084.48831 |                 0 |              10 |                  4869 |                  743 |             772118 |             0 |                0 |          424011 |                     0 |        273092 | 2017-02-08 15:15:13.6735+01

 2017-02-08 16:01:25.543793+01 | 1486566085.54379 |                 0 |              10 |                  4869 |                  743 |             772118 |             0 |                0 |          424011 |                     0 |        273180 | 2017-02-08 15:15:13.6735+01

 2017-02-08 16:01:26.597731+01 | 1486566086.59773 |                 0 |              10 |                  4869 |                  743 |             772118 |             0 |                0 |          424011 |                     0 |        273248 | 2017-02-08 15:15:13.6735+01

 2017-02-08 16:01:27.662813+01 | 1486566087.66281 |                 0 |              10 |                  4869 |                  743 |             772118 |             0 |                0 |          424011 |                     0 |        273323 | 2017-02-08 15:15:13.6735+01

 2017-02-08 16:01:28.721885+01 | 1486566088.72188 |                 0 |              10 |                  4869 |                  743 |             772118 |             0 |                0 |          424011 |                     0 |        273406 | 2017-02-08 15:15:13.6735+01

 2017-02-08 16:01:29.779136+01 | 1486566089.77914 |                 0 |              10 |                  4869 |                  743 |             772118 |             0 |                0 |          424011 |                     0 |        273479 | 2017-02-08 15:15:13.6735+01

 2017-02-08 16:01:30.839896+01 | 1486566090.8399 |                 0 |              10 |                  4869 |                  743 |             772118 |             0 |                0 |          424011 |                     0 |        273551 | 2017-02-08 15:15:13.6735+01

 2017-02-08 16:01:31.895991+01 | 1486566091.89599 |                 0 |              10 |                  4869 |                  743 |             772118 |             0 |                0 |          424011 |                     0 |        273623 | 2017-02-08 15:15:13.6735+01

 2017-02-08 16:01:32.955466+01 | 1486566092.95547 |                 0 |              10 |                  4869 |                  743 |             772118 |             0 |                0 |          424011 |                     0 |        273711 | 2017-02-08 15:15:13.6735+01

 2017-02-08 16:01:34.015505+01 | 1486566094.01551 |                 0 |              10 |                  4869 |                  743 |             772118 |             0 |                0 |          424011 |                     0 |        273782 | 2017-02-08 15:15:13.6735+01

 2017-02-08 16:01:35.096965+01 | 1486566095.09697 |                 0 |              10 |                  4869 |                  743 |             772118 |             0 |                0 |          424011 |                     0 |        273852 | 2017-02-08 15:15:13.6735+01

 2017-02-08 16:01:36.158753+01 | 1486566096.15875 |                 0 |              10 |                  4869 |                  743 |             772118 |             0 |                0 |          424011 |                     0 |        273934 | 2017-02-08 15:15:13.6735+01

 2017-02-08 16:01:37.218473+01 | 1486566097.21847 |                 0 |              10 |                  4869 |                  743 |             772118 |             0 |                0 |          424011 |                     0 |        274009 | 2017-02-08 15:15:13.6735+01

 2017-02-08 16:01:38.277583+01 | 1486566098.27758 |                 0 |              10 |                  4869 |                  743 |             772118 |             0 |                0 |          424011 |                     0 |        274081 | 2017-02-08 15:15:13.6735+01

 2017-02-08 16:01:39.335494+01 | 1486566099.33549 |                 0 |              10 |                  4869 |                  743 |             772118 |             0 |                0 |          424011 |                     0 |        274166 | 2017-02-08 15:15:13.6735+01

 2017-02-08 16:01:40.394229+01 | 1486566100.39423 |                 0 |              10 |                  4869 |                  743 |             772118 |             0 |                0 |          424011 |                     0 |        274242 | 2017-02-08 15:15:13.6735+01

 2017-02-08 16:01:41.446634+01 | 1486566101.44663 |                 0 |              10 |                  4869 |                  743 |             772118 |             0 |                0 |          424011 |                     0 |        274338 | 2017-02-08 15:15:13.6735+01

 2017-02-08 16:01:42.507631+01 | 1486566102.50763 |                 0 |              10 |                  4869 |                  743 |             772118 |             0 |                0 |          424011 |                     0 |        274389 | 2017-02-08 15:15:13.6735+01

 2017-02-08 16:01:43.563966+01 | 1486566103.56397 |                 0 |              10 |                  4869 |                  743 |             772118 |             0 |                0 |          424011 |                     0 |        274473 | 2017-02-08 15:15:13.6735+01

 2017-02-08 16:01:44.620834+01 | 1486566104.62083 |                 0 |              10 |                  4869 |                  743 |             772118 |             0 |                0 |          424011 |                     0 |        274549 | 2017-02-08 15:15:13.6735+01

 2017-02-08 16:01:45.679176+01 | 1486566105.67918 |                 0 |              10 |                  4869 |                  743 |             772118 |             0 |                0 |          424011 |                     0 |        274620 | 2017-02-08 15:15:13.6735+01

 2017-02-08 16:01:46.735355+01 | 1486566106.73535 |                 0 |              10 |                  4869 |                  743 |             772118 |             0 |                0 |          424011 |                     0 |        274706 | 2017-02-08 15:15:13.6735+01

 2017-02-08 16:01:47.794109+01 | 1486566107.79411 |                 0 |              10 |                  4869 |                  743 |             772118 |             0 |                0 |          424011 |                     0 |        274806 | 2017-02-08 15:15:13.6735+01

 2017-02-08 16:01:48.854006+01 | 1486566108.85401 |                 0 |              10 |                  4869 |                  743 |             772118 |             0 |                0 |          424011 |                     0 |        274874 | 2017-02-08 15:15:13.6735+01

 2017-02-08 16:01:49.909941+01 | 1486566109.90994 |                 0 |              10 |                  4869 |                  743 |             772118 |             0 |                0 |          424011 |                     0 |        274948 | 2017-02-08 15:15:13.6735+01

 2017-02-08 16:01:50.967413+01 | 1486566110.96741 |                 0 |              10 |                  4869 |                  743 |             772118 |             0 |                0 |          424011 |                     0 |        275031 | 2017-02-08 15:15:13.6735+01

 2017-02-08 16:01:52.02095+01 | 1486566112.02095 |                 0 |              10 |                  4869 |                  743 |             772118 |             0 |                0 |          424011 |                     0 |        275103 | 2017-02-08 15:15:13.6735+01

 2017-02-08 16:01:53.074665+01 | 1486566113.07467 |                 0 |              10 |                  4869 |                  743 |             772118 |             0 |                0 |          424011 |                     0 |        275172 | 2017-02-08 15:15:13.6735+01

 2017-02-08 16:01:54.138773+01 | 1486566114.13877 |                 0 |              10 |                  4869 |                  743 |             772118 |             0 |                0 |          424011 |                     0 |        275244 | 2017-02-08 15:15:13.6735+01

 2017-02-08 16:01:55.193235+01 | 1486566115.19323 |                 0 |              10 |                  4869 |                  743 |             772118 |             0 |                0 |          424011 |                     0 |        275327 | 2017-02-08 15:15:13.6735+01

 2017-02-08 16:01:56.248772+01 | 1486566116.24877 |                 0 |              10 |                  4869 |                  743 |             772118 |             0 |                0 |          424011 |                     0 |        275399 | 2017-02-08 15:15:13.6735+01

 2017-02-08 16:01:57.307938+01 | 1486566117.30794 |                 0 |              10 |                  4869 |                  743 |             772118 |             0 |                0 |          424011 |                     0 |        275470 | 2017-02-08 15:15:13.6735+01

 2017-02-08 16:01:58.370336+01 | 1486566118.37034 |                 0 |              10 |                  4869 |                  743 |             772118 |             0 |                0 |          424011 |                     0 |        275556 | 2017-02-08 15:15:13.6735+01

 2017-02-08 16:01:59.426764+01 | 1486566119.42676 |                 0 |              10 |                  4869 |                  743 |             772118 |             0 |                0 |          424011 |                     0 |        275629 | 2017-02-08 15:15:13.6735+01

 2017-02-08 16:02:00.484951+01 | 1486566120.48495 |                 0 |              10 |                  4869 |                  743 |             772118 |             0 |                0 |          424011 |                     0 |        275700 | 2017-02-08 15:15:13.6735+01

 2017-02-08 16:02:01.542535+01 | 1486566121.54254 |                 0 |              10 |                  4869 |                  743 |             772118 |             0 |                0 |          424011 |                     0 |        275771 | 2017-02-08 15:15:13.6735+01

 2017-02-08 16:02:02.598335+01 | 1486566122.59834 |                 0 |              10 |                  4869 |                  743 |             772118 |             0 |                0 |          424011 |                     0 |        275855 | 2017-02-08 15:15:13.6735+01

 2017-02-08 16:02:03.654242+01 | 1486566123.65424 |                 0 |              10 |                  4869 |                  743 |             772118 |             0 |                0 |          424011 |                     0 |        275925 | 2017-02-08 15:15:13.6735+01

 2017-02-08 16:02:04.711343+01 | 1486566124.71134 |                 0 |              10 |                  4869 |                  743 |             772118 |             0 |                0 |          424011 |                     0 |        275996 | 2017-02-08 15:15:13.6735+01

 2017-02-08 16:02:05.768667+01 | 1486566125.76867 |                 0 |              10 |                  4869 |                  743 |             772118 |             0 |                0 |          424011 |                     0 |        276080 | 2017-02-08 15:15:13.6735+01

 2017-02-08 16:02:06.826151+01 | 1486566126.82615 |                 0 |              10 |                  4869 |                  743 |             772118 |             0 |                0 |          424011 |                     0 |        276149 | 2017-02-08 15:15:13.6735+01

 2017-02-08 16:02:07.88189+01 | 1486566127.88189 |                 0 |              10 |                  4869 |                  743 |             772118 |             0 |                0 |          424011 |                     0 |        276219 | 2017-02-08 15:15:13.6735+01

 2017-02-08 16:02:08.938764+01 | 1486566128.93876 |                 0 |              10 |                  4869 |                  743 |             772118 |             0 |                0 |          424011 |                     0 |        276289 | 2017-02-08 15:15:13.6735+01

 2017-02-08 16:02:09.994829+01 | 1486566129.99483 |                 0 |              10 |                  4869 |                  743 |             772118 |             0 |                0 |          424011 |                     0 |        276374 | 2017-02-08 15:15:13.6735+01

 2017-02-08 16:02:11.052133+01 | 1486566131.05213 |                 0 |              10 |                  4869 |                  743 |             772118 |             0 |                0 |          424011 |                     0 |        276446 | 2017-02-08 15:15:13.6735+01

 2017-02-08 16:02:12.107374+01 | 1486566132.10737 |                 0 |              10 |                  4869 |                  743 |             772118 |             0 |                0 |          424011 |                     0 |        276517 | 2017-02-08 15:15:13.6735+01

 2017-02-08 16:02:13.165973+01 | 1486566133.16597 |                 0 |              10 |                  4869 |                  743 |             772118 |             0 |                0 |          424011 |                     0 |        276590 | 2017-02-08 15:15:13.6735+01

 2017-02-08 16:02:14.223461+01 | 1486566134.22346 |                 0 |              10 |                  4869 |                  743 |             772118 |             0 |                0 |          424011 |                     0 |        276676 | 2017-02-08 15:15:13.6735+01

 2017-02-08 16:02:15.276571+01 | 1486566135.27657 |                 0 |              10 |                  4869 |                  743 |             772118 |             0 |                0 |          424011 |                     0 |        276744 | 2017-02-08 15:15:13.6735+01

 2017-02-08 16:02:16.33525+01 | 1486566136.33525 |                 0 |              10 |                  4869 |                  743 |             772118 |             0 |                0 |          424011 |                     0 |        276818 | 2017-02-08 15:15:13.6735+01

 2017-02-08 16:02:17.392078+01 | 1486566137.39208 |                 0 |              10 |                  4869 |                  743 |             772118 |             0 |                0 |          424011 |                     0 |        276901 | 2017-02-08 15:15:13.6735+01

 2017-02-08 16:02:18.450942+01 | 1486566138.45094 |                 0 |              10 |                  4869 |                  743 |             772118 |             0 |                0 |          424011 |                     0 |        276972 | 2017-02-08 15:15:13.6735+01

 2017-02-08 16:02:19.504957+01 | 1486566139.50496 |                 0 |              10 |                  4869 |                  743 |             772118 |             0 |                0 |          424011 |                     0 |        277044 | 2017-02-08 15:15:13.6735+01

 2017-02-08 16:02:20.561535+01 | 1486566140.56153 |                 0 |              10 |                  4869 |                  743 |             772118 |             0 |                0 |          424011 |                     0 |        277117 | 2017-02-08 15:15:13.6735+01

 2017-02-08 16:02:21.618515+01 | 1486566141.61852 |                 0 |              10 |                  4869 |                  743 |             772118 |             0 |                0 |          424011 |                     0 |        277206 | 2017-02-08 15:15:13.6735+01

 2017-02-08 16:02:22.673992+01 | 1486566142.67399 |                 0 |              10 |                  4869 |                  743 |             772118 |             0 |                0 |          424011 |                     0 |        277277 | 2017-02-08 15:15:13.6735+01

 2017-02-08 16:02:23.731342+01 | 1486566143.73134 |                 0 |              10 |                  4869 |                  743 |             772118 |             0 |                0 |          424011 |                     0 |        277362 | 2017-02-08 15:15:13.6735+01

 2017-02-08 16:02:24.790092+01 | 1486566144.79009 |                 0 |              10 |                  4869 |                  743 |             772118 |             0 |                0 |          424011 |                     0 |        277435 | 2017-02-08 15:15:13.6735+01

 2017-02-08 16:02:25.850972+01 | 1486566145.85097 |                 0 |              10 |                  4869 |                  743 |             772118 |             0 |                0 |          424011 |                     0 |        277508 | 2017-02-08 15:15:13.6735+01

 2017-02-08 16:02:26.905401+01 | 1486566146.9054 |                 0 |              10 |                  4869 |                  743 |             772118 |             0 |                0 |          424011 |                     0 |        277576 | 2017-02-08 15:15:13.6735+01

 2017-02-08 16:02:27.964409+01 | 1486566147.96441 |                 0 |              10 |                  4869 |                  743 |             772118 |             0 |                0 |          424011 |                     0 |        277647 | 2017-02-08 15:15:13.6735+01

 2017-02-08 16:02:29.02281+01 | 1486566149.02281 |                 0 |              10 |                  4869 |                  743 |             772118 |             0 |                0 |          424011 |                     0 |        277730 | 2017-02-08 15:15:13.6735+01

 2017-02-08 16:02:30.076867+01 | 1486566150.07687 |                 0 |              10 |                  4869 |                  743 |             772118 |             0 |                0 |          424011 |                     0 |        277805 | 2017-02-08 15:15:13.6735+01

 2017-02-08 16:02:31.137695+01 | 1486566151.1377 |                 0 |              10 |                  4869 |                  743 |             772118 |             0 |                0 |          424011 |                     0 |        277877 | 2017-02-08 15:15:13.6735+01

 2017-02-08 16:02:32.191363+01 | 1486566152.19136 |                 0 |              10 |                  4869 |                  743 |             772118 |             0 |                0 |          424011 |                     0 |        277963 | 2017-02-08 15:15:13.6735+01

 2017-02-08 16:02:33.251021+01 | 1486566153.25102 |                 0 |              10 |                  4869 |                  743 |             772118 |             0 |                0 |          424011 |                     0 |        278036 | 2017-02-08 15:15:13.6735+01

 2017-02-08 16:02:34.311687+01 | 1486566154.31169 |                 0 |              10 |                  4869 |                  743 |             772118 |             0 |                0 |          424011 |                     0 |        278104 | 2017-02-08 15:15:13.6735+01

 2017-02-08 16:02:35.370506+01 | 1486566155.37051 |                 0 |              10 |                  4869 |                  743 |             772118 |             0 |                0 |          424011 |                     0 |        278176 | 2017-02-08 15:15:13.6735+01

 2017-02-08 16:02:36.425299+01 | 1486566156.4253 |                 0 |              10 |                  4869 |                  743 |             772118 |             0 |                0 |          424011 |                     0 |        278258 | 2017-02-08 15:15:13.6735+01

 2017-02-08 16:02:37.486544+01 | 1486566157.48654 |                 0 |              10 |                  4869 |                  743 |             772118 |             0 |                0 |          424011 |                     0 |        278328 | 2017-02-08 15:15:13.6735+01

 2017-02-08 16:02:38.54158+01 | 1486566158.54158 |                 0 |              10 |                  4869 |                  743 |             772118 |             0 |                0 |          424011 |                     0 |        278408 | 2017-02-08 15:15:13.6735+01

 2017-02-08 16:02:39.599361+01 | 1486566159.59936 |                 0 |              10 |                  4869 |                  743 |             772118 |             0 |                0 |          424011 |                     0 |        278496 | 2017-02-08 15:15:13.6735+01

 2017-02-08 16:02:40.654282+01 | 1486566160.65428 |                 0 |              10 |                  4869 |                  743 |             772118 |             0 |                0 |          424011 |                     0 |        278575 | 2017-02-08 15:15:13.6735+01

 2017-02-08 16:02:41.711794+01 | 1486566161.71179 |                 0 |              10 |                  4869 |                  743 |             772118 |             0 |                0 |          424011 |                     0 |        278652 | 2017-02-08 15:15:13.6735+01

 2017-02-08 16:02:42.766968+01 | 1486566162.76697 |                 0 |              10 |                  4869 |                  743 |             772118 |             0 |                0 |          424011 |                     0 |        278726 | 2017-02-08 15:15:13.6735+01

 2017-02-08 16:02:43.823699+01 | 1486566163.8237 |                 0 |              10 |                  4869 |                  743 |             772118 |             0 |                0 |          424011 |                     0 |        278816 | 2017-02-08 15:15:13.6735+01

 2017-02-08 16:02:44.880255+01 | 1486566164.88025 |                 0 |              10 |                  4869 |                  743 |             772118 |             0 |                0 |          424011 |                     0 |        278893 | 2017-02-08 15:15:13.6735+01

 2017-02-08 16:02:45.932135+01 | 1486566165.93214 |                 0 |              10 |                  4869 |                  743 |             772118 |             0 |                0 |          424011 |                     0 |        278967 | 2017-02-08 15:15:13.6735+01

 2017-02-08 16:02:46.985564+01 | 1486566166.98556 |                 0 |              10 |                  4869 |                  743 |             772118 |             0 |                0 |          424011 |                     0 |        279039 | 2017-02-08 15:15:13.6735+01

 2017-02-08 16:02:48.037524+01 | 1486566168.03752 |                 0 |              10 |                  4869 |                  743 |             772118 |             0 |                0 |          424011 |                     0 |        279128 | 2017-02-08 15:15:13.6735+01

 2017-02-08 16:02:49.095075+01 | 1486566169.09507 |                 0 |              10 |                  4869 |                  743 |             772118 |             0 |                0 |          424011 |                     0 |        279204 | 2017-02-08 15:15:13.6735+01

 2017-02-08 16:02:50.143383+01 | 1486566170.14338 |                 0 |              10 |                  4869 |                  743 |             772118 |             0 |                0 |          424011 |                     0 |        279276 | 2017-02-08 15:15:13.6735+01

 2017-02-08 16:02:51.206261+01 | 1486566171.20626 |                 0 |              10 |                  4869 |                  743 |             772118 |             0 |                0 |          424011 |                     0 |        279347 | 2017-02-08 15:15:13.6735+01

 2017-02-08 16:02:52.278029+01 | 1486566172.27803 |                 0 |              10 |                  4869 |                  743 |             772118 |             0 |                0 |          424011 |                     0 |        279434 | 2017-02-08 15:15:13.6735+01

 2017-02-08 16:02:53.336672+01 | 1486566173.33667 |                 0 |              10 |                  4869 |                  743 |             772118 |             0 |                0 |          424011 |                     0 |        279540 | 2017-02-08 15:15:13.6735+01

 2017-02-08 16:02:54.392275+01 | 1486566174.39228 |                 0 |              10 |                  4869 |                  743 |             772118 |             0 |                0 |          424011 |                     0 |        279613 | 2017-02-08 15:15:13.6735+01

 2017-02-08 16:02:55.448553+01 | 1486566175.44855 |                 0 |              10 |                  4869 |                  743 |             772118 |             0 |                0 |          424011 |                     0 |        279698 | 2017-02-08 15:15:13.6735+01

 2017-02-08 16:02:56.518531+01 | 1486566176.51853 |                 0 |              10 |                  4869 |                  743 |             772118 |             0 |                0 |          424011 |                     0 |        279766 | 2017-02-08 15:15:13.6735+01

 2017-02-08 16:02:57.583934+01 | 1486566177.58393 |                 0 |              10 |                  4869 |                  743 |             772118 |             0 |                0 |          424011 |                     0 |        279835 | 2017-02-08 15:15:13.6735+01

 2017-02-08 16:02:58.632805+01 | 1486566178.63281 |                 0 |              10 |                  4869 |                  743 |             772118 |             0 |                0 |          424011 |                     0 |        279901 | 2017-02-08 15:15:13.6735+01

 2017-02-08 16:02:59.693976+01 | 1486566179.69398 |                 0 |              10 |                  4869 |                  743 |             772118 |             0 |                0 |          424011 |                     0 |        280002 | 2017-02-08 15:15:13.6735+01

 2017-02-08 16:03:00.751776+01 | 1486566180.75178 |                 0 |              10 |                  4869 |                  743 |             772118 |             0 |                0 |          424011 |                     0 |        280054 | 2017-02-08 15:15:13.6735+01

 2017-02-08 16:03:01.805894+01 | 1486566181.80589 |                 0 |              10 |                  4869 |                  743 |             772118 |             0 |                0 |          424011 |                     0 |        280125 | 2017-02-08 15:15:13.6735+01

 2017-02-08 16:03:02.861005+01 | 1486566182.86101 |                 0 |              10 |                  4869 |                  743 |             772118 |             0 |                0 |          424011 |                     0 |        280208 | 2017-02-08 15:15:13.6735+01

 2017-02-08 16:03:03.92274+01 | 1486566183.92274 |                 0 |              10 |                  4869 |                  743 |             772118 |             0 |                0 |          424011 |                     0 |        280284 | 2017-02-08 15:15:13.6735+01

 2017-02-08 16:03:04.979624+01 | 1486566184.97962 |                 0 |              10 |                  4869 |                  743 |             772118 |             0 |                0 |          424011 |                     0 |        280349 | 2017-02-08 15:15:13.6735+01

 2017-02-08 16:03:06.0358+01 | 1486566186.0358 |                 0 |              10 |                  4869 |                  743 |             772118 |             0 |                0 |          424011 |                     0 |        280433 | 2017-02-08 15:15:13.6735+01

 2017-02-08 16:03:07.094267+01 | 1486566187.09427 |                 0 |              10 |                  4869 |                  743 |             772118 |             0 |                0 |          424011 |                     0 |        280503 | 2017-02-08 15:15:13.6735+01

 2017-02-08 16:03:08.151694+01 | 1486566188.15169 |                 0 |              10 |                  4869 |                  743 |             772118 |             0 |                0 |          424011 |                     0 |        280576 | 2017-02-08 15:15:13.6735+01

 2017-02-08 16:03:09.207348+01 | 1486566189.20735 |                 0 |              10 |                  4869 |                  743 |             772118 |             0 |                0 |          424011 |                     0 |        280646 | 2017-02-08 15:15:13.6735+01

 2017-02-08 16:03:10.266721+01 | 1486566190.26672 |                 0 |              10 |                  4869 |                  743 |             772118 |             0 |                0 |          424011 |                     0 |        280735 | 2017-02-08 15:15:13.6735+01

 2017-02-08 16:03:11.323372+01 | 1486566191.32337 |                 0 |              10 |                  4869 |                  743 |             772118 |             0 |                0 |          424011 |                     0 |        280805 | 2017-02-08 15:15:13.6735+01

 2017-02-08 16:03:12.384659+01 | 1486566192.38466 |                 0 |              10 |                  4869 |                  743 |             772118 |             0 |                0 |          424011 |                     0 |        280875 | 2017-02-08 15:15:13.6735+01

 2017-02-08 16:03:13.439241+01 | 1486566193.43924 |                 0 |              10 |                  4869 |                  743 |             772118 |             0 |                0 |          424011 |                     0 |        280960 | 2017-02-08 15:15:13.6735+01

 2017-02-08 16:03:14.491496+01 | 1486566194.4915 |                 0 |              10 |                  4869 |                  743 |             772118 |             0 |                0 |          424011 |                     0 |        281032 | 2017-02-08 15:15:13.6735+01

 2017-02-08 16:03:15.547006+01 | 1486566195.54701 |                 0 |              10 |                  4869 |                  743 |             772118 |             0 |                0 |          424011 |                     0 |        281100 | 2017-02-08 15:15:13.6735+01

 2017-02-08 16:03:16.600933+01 | 1486566196.60093 |                 0 |              10 |                  4869 |                  743 |             772118 |             0 |                0 |          424011 |                     0 |        281170 | 2017-02-08 15:15:13.6735+01

 2017-02-08 16:03:17.659768+01 | 1486566197.65977 |                 0 |              10 |                  4869 |                  743 |             772118 |             0 |                0 |          424011 |                     0 |        281253 | 2017-02-08 15:15:13.6735+01

 2017-02-08 16:03:18.716488+01 | 1486566198.71649 |                 0 |              10 |                  4869 |                  743 |             772118 |             0 |                0 |          424011 |                     0 |        281324 | 2017-02-08 15:15:13.6735+01

 2017-02-08 16:03:19.777575+01 | 1486566199.77758 |                 0 |              10 |                  4869 |                  743 |             772118 |             0 |                0 |          424011 |                     0 |        281395 | 2017-02-08 15:15:13.6735+01

 2017-02-08 16:03:20.828672+01 | 1486566200.82867 |                 0 |              10 |                  4869 |                  743 |             772118 |             0 |                0 |          424011 |                     0 |        281465 | 2017-02-08 15:15:13.6735+01

 2017-02-08 16:03:21.883289+01 | 1486566201.88329 |                 0 |              10 |                  4869 |                  743 |             772118 |             0 |                0 |          424011 |                     0 |        281553 | 2017-02-08 15:15:13.6735+01

 2017-02-08 16:03:22.940213+01 | 1486566202.94021 |                 0 |              10 |                  4869 |                  743 |             772118 |             0 |                0 |          424011 |                     0 |        281620 | 2017-02-08 15:15:13.6735+01

 2017-02-08 16:03:24.004091+01 | 1486566204.00409 |                 0 |              10 |                  4869 |                  743 |             772118 |             0 |                0 |          424011 |                     0 |        281688 | 2017-02-08 15:15:13.6735+01

 2017-02-08 16:03:25.059416+01 | 1486566205.05942 |                 0 |              10 |                  4869 |                  743 |             772118 |             0 |                0 |          424011 |                     0 |        281772 | 2017-02-08 15:15:13.6735+01

 2017-02-08 16:03:26.115418+01 | 1486566206.11542 |                 0 |              10 |                  4869 |                  743 |             772118 |             0 |                0 |          424011 |                     0 |        281844 | 2017-02-08 15:15:13.6735+01

 2017-02-08 16:03:27.174915+01 | 1486566207.17492 |                 0 |              10 |                  4869 |                  743 |             772118 |             0 |                0 |          424011 |                     0 |        281912 | 2017-02-08 15:15:13.6735+01

 2017-02-08 16:03:28.235196+01 | 1486566208.2352 |                 0 |              10 |                  4869 |                  743 |             772118 |             0 |                0 |          424011 |                     0 |        281985 | 2017-02-08 15:15:13.6735+01

 2017-02-08 16:03:29.286768+01 | 1486566209.28677 |                 0 |              10 |                  4869 |                  743 |             772118 |             0 |                0 |          424011 |                     0 |        282087 | 2017-02-08 15:15:13.6735+01

 2017-02-08 16:03:30.342417+01 | 1486566210.34242 |                 0 |              10 |                  4869 |                  743 |             772118 |             0 |                0 |          424011 |                     0 |        282145 | 2017-02-08 15:15:13.6735+01

 2017-02-08 16:03:31.398438+01 | 1486566211.39844 |                 0 |              10 |                  4869 |                  743 |             772118 |             0 |                0 |          424011 |                     0 |        282219 | 2017-02-08 15:15:13.6735+01

 2017-02-08 16:03:32.461527+01 | 1486566212.46153 |                 0 |              10 |                  4869 |                  743 |             772118 |             0 |                0 |          424011 |                     0 |        282302 | 2017-02-08 15:15:13.6735+01

 2017-02-08 16:03:33.513714+01 | 1486566213.51371 |                 0 |              10 |                  4869 |                  743 |             772118 |             0 |                0 |          424011 |                     0 |        282370 | 2017-02-08 15:15:13.6735+01

 2017-02-08 16:03:34.575391+01 | 1486566214.57539 |                 0 |              10 |                  4869 |                  743 |             772118 |             0 |                0 |          424011 |                     0 |        282440 | 2017-02-08 15:15:13.6735+01

 2017-02-08 16:03:35.635325+01 | 1486566215.63532 |                 0 |              10 |                  4869 |                  743 |             772118 |             0 |                0 |          424011 |                     0 |        282508 | 2017-02-08 15:15:13.6735+01

 2017-02-08 16:03:36.68756+01 | 1486566216.68756 |                 0 |              10 |                  4869 |                  743 |             772118 |             0 |                0 |          424011 |                     0 |        282597 | 2017-02-08 15:15:13.6735+01

 2017-02-08 16:03:37.744243+01 | 1486566217.74424 |                 0 |              10 |                  4869 |                  743 |             772118 |             0 |                0 |          424011 |                     0 |        282665 | 2017-02-08 15:15:13.6735+01

 2017-02-08 16:03:38.807352+01 | 1486566218.80735 |                 0 |              10 |                  4869 |                  743 |             772118 |             0 |                0 |          424011 |                     0 |        282737 | 2017-02-08 15:15:13.6735+01

 2017-02-08 16:03:39.867028+01 | 1486566219.86703 |                 0 |              10 |                  4869 |                  743 |             772118 |             0 |                0 |          424011 |                     0 |        282820 | 2017-02-08 15:15:13.6735+01

 2017-02-08 16:03:40.924964+01 | 1486566220.92496 |                 0 |              10 |                  4869 |                  743 |             772118 |             0 |                0 |          424011 |                     0 |        282892 | 2017-02-08 15:15:13.6735+01

 2017-02-08 16:03:41.982282+01 | 1486566221.98228 |                 0 |              10 |                  4869 |                  743 |             772118 |             0 |                0 |          424011 |                     0 |        282960 | 2017-02-08 15:15:13.6735+01

 2017-02-08 16:03:43.03783+01 | 1486566223.03783 |                 0 |              10 |                  4869 |                  743 |             772118 |             0 |                0 |          424011 |                     0 |        283030 | 2017-02-08 15:15:13.6735+01

 2017-02-08 16:03:44.098558+01 | 1486566224.09856 |                 0 |              10 |                  4869 |                  743 |             772118 |             0 |                0 |          424011 |                     0 |        283114 | 2017-02-08 15:15:13.6735+01

 2017-02-08 16:03:45.147858+01 | 1486566225.14786 |                 0 |              10 |                  4869 |                  743 |             772118 |             0 |                0 |          424011 |                     0 |        283189 | 2017-02-08 15:15:13.6735+01

 2017-02-08 16:03:46.203884+01 | 1486566226.20388 |                 0 |              10 |                  4869 |                  743 |             772118 |             0 |                0 |          424011 |                     0 |        283257 | 2017-02-08 15:15:13.6735+01

 2017-02-08 16:03:47.260272+01 | 1486566227.26027 |                 0 |              10 |                  4869 |                  743 |             772118 |             0 |                0 |          424011 |                     0 |        283342 | 2017-02-08 15:15:13.6735+01

 2017-02-08 16:03:48.317246+01 | 1486566228.31725 |                 0 |              10 |                  4869 |                  743 |             772118 |             0 |                0 |          424011 |                     0 |        283414 | 2017-02-08 15:15:13.6735+01

 2017-02-08 16:03:49.376386+01 | 1486566229.37639 |                 0 |              10 |                  4869 |                  743 |             772118 |             0 |                0 |          424011 |                     0 |        283483 | 2017-02-08 15:15:13.6735+01

 2017-02-08 16:03:50.43577+01 | 1486566230.43577 |                 0 |              10 |                  4869 |                  743 |             772118 |             0 |                0 |          424011 |                     0 |        283540 | 2017-02-08 15:15:13.6735+01

 2017-02-08 16:03:51.488903+01 | 1486566231.4889 |                 0 |              10 |                  4869 |                  743 |             772118 |             0 |                0 |          424011 |                     0 |        283633 | 2017-02-08 15:15:13.6735+01

 2017-02-08 16:03:52.542236+01 | 1486566232.54224 |                 0 |              10 |                  4869 |                  743 |             772118 |             0 |                0 |          424011 |                     0 |        283701 | 2017-02-08 15:15:13.6735+01

 2017-02-08 16:03:53.60223+01 | 1486566233.60223 |                 0 |              10 |                  4869 |                  743 |             772118 |             0 |                0 |          424011 |                     0 |        283807 | 2017-02-08 15:15:13.6735+01

 2017-02-08 16:03:54.658002+01 | 1486566234.658 |                 0 |              10 |                  4869 |                  743 |             772118 |             0 |                0 |          424011 |                     0 |        283873 | 2017-02-08 15:15:13.6735+01

 2017-02-08 16:03:55.721611+01 | 1486566235.72161 |                 0 |              10 |                  4869 |                  743 |             772118 |             0 |                0 |          424011 |                     0 |        283956 | 2017-02-08 15:15:13.6735+01

 2017-02-08 16:03:56.778736+01 | 1486566236.77874 |                 0 |              10 |                  4869 |                  743 |             772118 |             0 |                0 |          424011 |                     0 |        284025 | 2017-02-08 15:15:13.6735+01

 2017-02-08 16:03:57.839442+01 | 1486566237.83944 |                 0 |              10 |                  4869 |                  743 |             772118 |             0 |                0 |          424011 |                     0 |        284066 | 2017-02-08 15:15:13.6735+01

 2017-02-08 16:03:58.921507+01 | 1486566238.92151 |                 0 |              10 |                  4869 |                  743 |             772118 |             0 |                0 |          424011 |                     0 |        284183 | 2017-02-08 15:15:13.6735+01

 2017-02-08 16:03:59.981963+01 | 1486566239.98196 |                 0 |              10 |                  4869 |                  743 |             772118 |             0 |                0 |          424011 |                     0 |        284256 | 2017-02-08 15:15:13.6735+01

 2017-02-08 16:04:01.039991+01 | 1486566241.03999 |                 0 |              10 |                  4869 |                  743 |             772118 |             0 |                0 |          424011 |                     0 |        284326 | 2017-02-08 15:15:13.6735+01

 2017-02-08 16:04:02.094866+01 | 1486566242.09487 |                 0 |              10 |                  4869 |                  743 |             772118 |             0 |                0 |          424011 |                     0 |        284413 | 2017-02-08 15:15:13.6735+01

 2017-02-08 16:04:03.156757+01 | 1486566243.15676 |                 0 |              10 |                  4869 |                  743 |             772118 |             0 |                0 |          424011 |                     0 |        284492 | 2017-02-08 15:15:13.6735+01

 2017-02-08 16:04:04.213811+01 | 1486566244.21381 |                 0 |              10 |                  4869 |                  743 |             772118 |             0 |                0 |          424011 |                     0 |        284565 | 2017-02-08 15:15:13.6735+01

 2017-02-08 16:04:05.26844+01 | 1486566245.26844 |                 0 |              10 |                  4869 |                  743 |             772118 |             0 |                0 |          424011 |                     0 |        284635 | 2017-02-08 15:15:13.6735+01

 2017-02-08 16:04:06.323489+01 | 1486566246.32349 |                 0 |              10 |                  4869 |                  743 |             772118 |             0 |                0 |          424011 |                     0 |        284720 | 2017-02-08 15:15:13.6735+01

 2017-02-08 16:04:07.375364+01 | 1486566247.37536 |                 0 |              10 |                  4869 |                  743 |             772118 |             0 |                0 |          424011 |                     0 |        284792 | 2017-02-08 15:15:13.6735+01

 2017-02-08 16:04:08.434563+01 | 1486566248.43456 |                 0 |              10 |                  4869 |                  743 |             772118 |             0 |                0 |          424011 |                     0 |        284863 | 2017-02-08 15:15:13.6735+01

 2017-02-08 16:04:09.489607+01 | 1486566249.48961 |                 0 |              10 |                  4869 |                  743 |             772118 |             0 |                0 |          424011 |                     0 |        284948 | 2017-02-08 15:15:13.6735+01

 2017-02-08 16:04:10.552808+01 | 1486566250.55281 |                 0 |              10 |                  4869 |                  743 |             772118 |             0 |                0 |          424011 |                     0 |        285022 | 2017-02-08 15:15:13.6735+01

 2017-02-08 16:04:11.604285+01 | 1486566251.60429 |                 0 |              10 |                  4869 |                  743 |             772118 |             0 |                0 |          424011 |                     0 |        285090 | 2017-02-08 15:15:13.6735+01

 2017-02-08 16:04:12.66145+01 | 1486566252.66145 |                 0 |              10 |                  4869 |                  743 |             772118 |             0 |                0 |          424011 |                     0 |        285163 | 2017-02-08 15:15:13.6735+01

 2017-02-08 16:04:13.71847+01 | 1486566253.71847 |                 0 |              10 |                  4869 |                  743 |             772118 |             0 |                0 |          424011 |                     0 |        285253 | 2017-02-08 15:15:13.6735+01

 2017-02-08 16:04:14.777234+01 | 1486566254.77723 |                 0 |              10 |                  4869 |                  743 |             772118 |             0 |                0 |          424011 |                     0 |        285325 | 2017-02-08 15:15:13.6735+01

 2017-02-08 16:04:15.828212+01 | 1486566255.82821 |                 0 |              10 |                  4869 |                  743 |             772118 |             0 |                0 |          424011 |                     0 |        285396 | 2017-02-08 15:15:13.6735+01

 2017-02-08 16:04:16.882208+01 | 1486566256.88221 |                 0 |              10 |                  4869 |                  743 |             772118 |             0 |                0 |          424011 |                     0 |        285466 | 2017-02-08 15:15:13.6735+01

 2017-02-08 16:04:17.937338+01 | 1486566257.93734 |                 0 |              10 |                  4869 |                  743 |             772118 |             0 |                0 |          424011 |                     0 |        285549 | 2017-02-08 15:15:13.6735+01

 2017-02-08 16:04:18.996613+01 | 1486566258.99661 |                 0 |              10 |                  4869 |                  743 |             772118 |             0 |                0 |          424011 |                     0 |        285623 | 2017-02-08 15:15:13.6735+01

 2017-02-08 16:04:20.055183+01 | 1486566260.05518 |                 0 |              10 |                  4869 |                  743 |             772118 |             0 |                0 |          424011 |                     0 |        285696 | 2017-02-08 15:15:13.6735+01

 2017-02-08 16:04:21.112676+01 | 1486566261.11268 |                 0 |              10 |                  4869 |                  743 |             772118 |             0 |                0 |          424011 |                     0 |        285786 | 2017-02-08 15:15:13.6735+01

 2017-02-08 16:04:22.170766+01 | 1486566262.17077 |                 0 |              10 |                  4869 |                  743 |             772118 |             0 |                0 |          424011 |                     0 |        285866 | 2017-02-08 15:15:13.6735+01

 2017-02-08 16:04:23.23089+01 | 1486566263.23089 |                 0 |              10 |                  4869 |                  743 |             772118 |             0 |                0 |          424011 |                     0 |        285932 | 2017-02-08 15:15:13.6735+01

 2017-02-08 16:04:24.2836+01 | 1486566264.2836 |                 0 |              10 |                  4869 |                  743 |             772118 |             0 |                0 |          424011 |                     0 |        286005 | 2017-02-08 15:15:13.6735+01

 2017-02-08 16:04:25.349779+01 | 1486566265.34978 |                 0 |              10 |                  4869 |                  743 |             772118 |             0 |                0 |          424011 |                     0 |        286092 | 2017-02-08 15:15:13.6735+01

 2017-02-08 16:04:26.406095+01 | 1486566266.4061 |                 0 |              10 |                  4869 |                  743 |             772118 |             0 |                0 |          424011 |                     0 |        286163 | 2017-02-08 15:15:13.6735+01

 2017-02-08 16:04:27.467746+01 | 1486566267.46775 |                 0 |              10 |                  4869 |                  743 |             772118 |             0 |                0 |          424011 |                     0 |        286234 | 2017-02-08 15:15:13.6735+01

 2017-02-08 16:04:28.525016+01 | 1486566268.52502 |                 0 |              10 |                  4869 |                  743 |             772118 |             0 |                0 |          424011 |                     0 |        286320 | 2017-02-08 15:15:13.6735+01

 2017-02-08 16:04:29.580845+01 | 1486566269.58085 |                 0 |              10 |                  4869 |                  743 |             772118 |             0 |                0 |          424011 |                     0 |        286394 | 2017-02-08 15:15:13.6735+01

 2017-02-08 16:04:30.631948+01 | 1486566270.63195 |                 0 |              10 |                  4869 |                  743 |             772118 |             0 |                0 |          424011 |                     0 |        286462 | 2017-02-08 15:15:13.6735+01

 2017-02-08 16:04:31.681938+01 | 1486566271.68194 |                 0 |              10 |                  4869 |                  743 |             772118 |             0 |                0 |          424011 |                     0 |        286531 | 2017-02-08 15:15:13.6735+01

 2017-02-08 16:04:32.740488+01 | 1486566272.74049 |                 0 |              10 |                  4869 |                  743 |             772118 |             0 |                0 |          424011 |                     0 |        286619 | 2017-02-08 15:15:13.6735+01

 2017-02-08 16:04:33.797451+01 | 1486566273.79745 |                 0 |              10 |                  4869 |                  743 |             772118 |             0 |                0 |          424011 |                     0 |        286691 | 2017-02-08 15:15:13.6735+01

 2017-02-08 16:04:34.849925+01 | 1486566274.84993 |                 0 |              10 |                  4869 |                  743 |             772118 |             0 |                0 |          424011 |                     0 |        286760 | 2017-02-08 15:15:13.6735+01

 2017-02-08 16:04:35.912078+01 | 1486566275.91208 |                 0 |              10 |                  4869 |                  743 |             772118 |             0 |                0 |          424011 |                     0 |        286829 | 2017-02-08 15:15:13.6735+01

 2017-02-08 16:04:36.965682+01 | 1486566276.96568 |                 0 |              10 |                  4869 |                  743 |             772118 |             0 |                0 |          424011 |                     0 |        286913 | 2017-02-08 15:15:13.6735+01

 2017-02-08 16:04:38.017619+01 | 1486566278.01762 |                 0 |              10 |                  4869 |                  743 |             772118 |             0 |                0 |          424011 |                     0 |        286983 | 2017-02-08 15:15:13.6735+01

 2017-02-08 16:04:39.077881+01 | 1486566279.07788 |                 0 |              10 |                  4869 |                  743 |             772118 |             0 |                0 |          424011 |                     0 |        287051 | 2017-02-08 15:15:13.6735+01

 2017-02-08 16:04:40.13415+01 | 1486566280.13415 |                 0 |              10 |                  4869 |                  743 |             772118 |             0 |                0 |          424011 |                     0 |        287143 | 2017-02-08 15:15:13.6735+01

 2017-02-08 16:04:41.191884+01 | 1486566281.19188 |                 0 |              10 |                  4869 |                  743 |             772118 |             0 |                0 |          424011 |                     0 |        287210 | 2017-02-08 15:15:13.6735+01

 2017-02-08 16:04:42.255655+01 | 1486566282.25566 |                 0 |              10 |                  4869 |                  743 |             772118 |             0 |                0 |          424011 |                     0 |        287281 | 2017-02-08 15:15:13.6735+01

 2017-02-08 16:04:43.307405+01 | 1486566283.3074 |                 0 |              10 |                  4869 |                  743 |             772118 |             0 |                0 |          424011 |                     0 |        287351 | 2017-02-08 15:15:13.6735+01

 2017-02-08 16:04:44.363382+01 | 1486566284.36338 |                 0 |              10 |                  4869 |                  743 |             772118 |             0 |                0 |          424011 |                     0 |        287437 | 2017-02-08 15:15:13.6735+01

 2017-02-08 16:04:45.409893+01 | 1486566285.40989 |                 0 |              10 |                  4869 |                  743 |             772118 |             0 |                0 |          424011 |                     0 |        287492 | 2017-02-08 15:15:13.6735+01

 2017-02-08 16:04:46.465441+01 | 1486566286.46544 |                 0 |              10 |                  4869 |                  743 |             772118 |             0 |                0 |          424011 |                     0 |        287579 | 2017-02-08 15:15:13.6735+01

 2017-02-08 16:04:47.518685+01 | 1486566287.51869 |                 0 |              10 |                  4869 |                  743 |             772118 |             0 |                0 |          424011 |                     0 |        287664 | 2017-02-08 15:15:13.6735+01

 2017-02-08 16:04:48.575124+01 | 1486566288.57512 |                 0 |              10 |                  4869 |                  743 |             772118 |             0 |                0 |          424011 |                     0 |        287738 | 2017-02-08 15:15:13.6735+01

 2017-02-08 16:04:49.635568+01 | 1486566289.63557 |                 0 |              10 |                  4869 |                  743 |             772118 |             0 |                0 |          424011 |                     0 |        287809 | 2017-02-08 15:15:13.6735+01

 2017-02-08 16:04:50.696163+01 | 1486566290.69616 |                 0 |              10 |                  4869 |                  743 |             772118 |             0 |                0 |          424011 |                     0 |        287897 | 2017-02-08 15:15:13.6735+01

 2017-02-08 16:04:51.763973+01 | 1486566291.76397 |                 0 |              10 |                  4869 |                  743 |             772118 |             0 |                0 |          424011 |                     0 |        287956 | 2017-02-08 15:15:13.6735+01

 2017-02-08 16:04:52.819177+01 | 1486566292.81918 |                 0 |              10 |                  4869 |                  743 |             772118 |             0 |                0 |          424011 |                     0 |        288041 | 2017-02-08 15:15:13.6735+01

 2017-02-08 16:04:53.872874+01 | 1486566293.87287 |                 0 |              10 |                  4869 |                  743 |             772118 |             0 |                0 |          424011 |                     0 |        288126 | 2017-02-08 15:15:13.6735+01

 2017-02-08 16:04:54.941145+01 | 1486566294.94114 |                 0 |              10 |                  4869 |                  743 |             772118 |             0 |                0 |          424011 |                     0 |        288210 | 2017-02-08 15:15:13.6735+01

 2017-02-08 16:04:56.003144+01 | 1486566296.00314 |                 0 |              10 |                  4869 |                  743 |             772118 |             0 |                0 |          424011 |                     0 |        288281 | 2017-02-08 15:15:13.6735+01

 2017-02-08 16:04:57.060215+01 | 1486566297.06021 |                 0 |              10 |                  4869 |                  743 |             772118 |             0 |                0 |          424011 |                     0 |        288348 | 2017-02-08 15:15:13.6735+01

 2017-02-08 16:04:58.122446+01 | 1486566298.12245 |                 0 |              10 |                  4869 |                  743 |             772118 |             0 |                0 |          424011 |                     0 |        288418 | 2017-02-08 15:15:13.6735+01

 2017-02-08 16:04:59.182289+01 | 1486566299.18229 |                 0 |              10 |                  4869 |                  743 |             772118 |             0 |                0 |          424011 |                     0 |        288501 | 2017-02-08 15:15:13.6735+01

 2017-02-08 16:05:00.237364+01 | 1486566300.23736 |                 0 |              10 |                  4869 |                  743 |             772118 |             0 |                0 |          424011 |                     0 |        288575 | 2017-02-08 15:15:13.6735+01

 2017-02-08 16:05:01.29505+01 | 1486566301.29505 |                 0 |              10 |                  4869 |                  743 |             772118 |             0 |                0 |          424011 |                     0 |        288647 | 2017-02-08 15:15:13.6735+01

 2017-02-08 16:05:02.353546+01 | 1486566302.35355 |                 0 |              10 |                  4869 |                  743 |             772118 |             0 |                0 |          424011 |                     0 |        288733 | 2017-02-08 15:15:13.6735+01

 2017-02-08 16:05:03.407988+01 | 1486566303.40799 |                 0 |              10 |                  4869 |                  743 |             772118 |             0 |                0 |          424011 |                     0 |        288802 | 2017-02-08 15:15:13.6735+01

 2017-02-08 16:05:04.461621+01 | 1486566304.46162 |                 0 |              10 |                  4869 |                  743 |             772118 |             0 |                0 |          424011 |                     0 |        288874 | 2017-02-08 15:15:13.6735+01

 2017-02-08 16:05:05.521563+01 | 1486566305.52156 |                 0 |              10 |                  4869 |                  743 |             772118 |             0 |                0 |          424011 |                     0 |        288944 | 2017-02-08 15:15:13.6735+01

 2017-02-08 16:05:06.572343+01 | 1486566306.57234 |                 0 |              10 |                  4869 |                  743 |             772118 |             0 |                0 |          424011 |                     0 |        289028 | 2017-02-08 15:15:13.6735+01

 2017-02-08 16:05:07.623594+01 | 1486566307.62359 |                 0 |              10 |                  4869 |                  743 |             772118 |             0 |                0 |          424011 |                     0 |        289100 | 2017-02-08 15:15:13.6735+01

 2017-02-08 16:05:08.679915+01 | 1486566308.67991 |                 0 |              10 |                  4869 |                  743 |             772118 |             0 |                0 |          424011 |                     0 |        289170 | 2017-02-08 15:15:13.6735+01

 2017-02-08 16:05:09.730383+01 | 1486566309.73038 |                 0 |              10 |                  4869 |                  743 |             772118 |             0 |                0 |          424011 |                     0 |        289242 | 2017-02-08 15:15:13.6735+01

 2017-02-08 16:05:10.791142+01 | 1486566310.79114 |                 0 |              10 |                  4869 |                  743 |             772118 |             0 |                0 |          424011 |                     0 |        289329 | 2017-02-08 15:15:13.6735+01

 2017-02-08 16:05:11.844857+01 | 1486566311.84486 |                 0 |              10 |                  4869 |                  743 |             772118 |             0 |                0 |          424011 |                     0 |        289400 | 2017-02-08 15:15:13.6735+01

 2017-02-08 16:05:12.904769+01 | 1486566312.90477 |                 0 |              10 |                  4869 |                  743 |             772118 |             0 |                0 |          424011 |                     0 |        289471 | 2017-02-08 15:15:13.6735+01

 2017-02-08 16:05:13.97126+01 | 1486566313.97126 |                 0 |              10 |                  4869 |                  743 |             772118 |             0 |                0 |          424011 |                     0 |        289559 | 2017-02-08 15:15:13.6735+01

 2017-02-08 16:05:15.031538+01 | 1486566315.03154 |                 0 |              10 |                  4869 |                  743 |             772118 |             0 |                0 |          424011 |                     0 |        289657 | 2017-02-08 15:15:13.6735+01

 2017-02-08 16:05:16.088649+01 | 1486566316.08865 |                 0 |              10 |                  4869 |                  743 |             772118 |             0 |                0 |          424011 |                     0 |        289707 | 2017-02-08 15:15:13.6735+01

 2017-02-08 16:05:17.145525+01 | 1486566317.14552 |                 0 |              10 |                  4869 |                  743 |             772118 |             0 |                0 |          424011 |                     0 |        289808 | 2017-02-08 15:15:13.6735+01

 2017-02-08 16:05:18.199574+01 | 1486566318.19957 |                 0 |              10 |                  4869 |                  743 |             772118 |             0 |                0 |          424011 |                     0 |        289860 | 2017-02-08 15:15:13.6735+01

 2017-02-08 16:05:19.255787+01 | 1486566319.25579 |                 0 |              10 |                  4869 |                  743 |             772118 |             0 |                0 |          424011 |                     0 |        289935 | 2017-02-08 15:15:13.6735+01

 2017-02-08 16:05:20.310144+01 | 1486566320.31014 |                 0 |              10 |                  4869 |                  743 |             772118 |             0 |                0 |          424011 |                     0 |        290004 | 2017-02-08 15:15:13.6735+01

 2017-02-08 16:05:21.369102+01 | 1486566321.3691 |                 0 |              10 |                  4869 |                  743 |             772118 |             0 |                0 |          424011 |                     0 |        290092 | 2017-02-08 15:15:13.6735+01

 2017-02-08 16:05:22.42395+01 | 1486566322.42395 |                 0 |              10 |                  4869 |                  743 |             772118 |             0 |                0 |          424011 |                     0 |        290165 | 2017-02-08 15:15:13.6735+01

 2017-02-08 16:05:23.481007+01 | 1486566323.48101 |                 0 |              10 |                  4869 |                  743 |             772118 |             0 |                0 |          424011 |                     0 |        290237 | 2017-02-08 15:15:13.6735+01

 2017-02-08 16:05:24.539139+01 | 1486566324.53914 |                 0 |              10 |                  4869 |                  743 |             772118 |             0 |                0 |          424011 |                     0 |        290308 | 2017-02-08 15:15:13.6735+01

 2017-02-08 16:05:25.596996+01 | 1486566325.597 |                 0 |              10 |                  4869 |                  743 |             772118 |             0 |                0 |          424011 |                     0 |        290395 | 2017-02-08 15:15:13.6735+01

 2017-02-08 16:05:26.652147+01 | 1486566326.65215 |                 0 |              10 |                  4869 |                  743 |             772118 |             0 |                0 |          424011 |                     0 |        290466 | 2017-02-08 15:15:13.6735+01

 2017-02-08 16:05:27.706968+01 | 1486566327.70697 |                 0 |              10 |                  4869 |                  743 |             772118 |             0 |                0 |          424011 |                     0 |        290537 | 2017-02-08 15:15:13.6735+01

 2017-02-08 16:05:28.762549+01 | 1486566328.76255 |                 0 |              10 |                  4869 |                  743 |             772118 |             0 |                0 |          424011 |                     0 |        290627 | 2017-02-08 15:15:13.6735+01

 2017-02-08 16:05:29.815238+01 | 1486566329.81524 |                 0 |              10 |                  4869 |                  743 |             772118 |             0 |                0 |          424011 |                     0 |        290699 | 2017-02-08 15:15:13.6735+01

