 2017-02-08 16:25:35.213806+01 | 1486567535.21381 | pgbench_branches_pkey |            57344
 2017-02-08 16:25:35.213806+01 | 1486567535.21381 | pgbench_tellers_pkey  |           253952
 2017-02-08 16:25:35.213806+01 | 1486567535.21381 | pgbench_accounts_pkey |        112336896

 2017-02-08 16:25:36.263498+01 | 1486567536.2635 | pgbench_branches_pkey |            57344
 2017-02-08 16:25:36.263498+01 | 1486567536.2635 | pgbench_tellers_pkey  |           253952
 2017-02-08 16:25:36.263498+01 | 1486567536.2635 | pgbench_accounts_pkey |        112336896

 2017-02-08 16:25:37.317799+01 | 1486567537.3178 | pgbench_branches_pkey |            57344
 2017-02-08 16:25:37.317799+01 | 1486567537.3178 | pgbench_tellers_pkey  |           253952
 2017-02-08 16:25:37.317799+01 | 1486567537.3178 | pgbench_accounts_pkey |        112336896

 2017-02-08 16:25:38.370899+01 | 1486567538.3709 | pgbench_branches_pkey |            57344
 2017-02-08 16:25:38.370899+01 | 1486567538.3709 | pgbench_tellers_pkey  |           253952
 2017-02-08 16:25:38.370899+01 | 1486567538.3709 | pgbench_accounts_pkey |        112336896

 2017-02-08 16:25:39.422477+01 | 1486567539.42248 | pgbench_branches_pkey |            57344
 2017-02-08 16:25:39.422477+01 | 1486567539.42248 | pgbench_tellers_pkey  |           253952
 2017-02-08 16:25:39.422477+01 | 1486567539.42248 | pgbench_accounts_pkey |        112336896

 2017-02-08 16:25:40.476259+01 | 1486567540.47626 | pgbench_branches_pkey |            57344
 2017-02-08 16:25:40.476259+01 | 1486567540.47626 | pgbench_tellers_pkey  |           253952
 2017-02-08 16:25:40.476259+01 | 1486567540.47626 | pgbench_accounts_pkey |        112336896

 2017-02-08 16:25:41.526691+01 | 1486567541.52669 | pgbench_branches_pkey |            57344
 2017-02-08 16:25:41.526691+01 | 1486567541.52669 | pgbench_tellers_pkey  |           253952
 2017-02-08 16:25:41.526691+01 | 1486567541.52669 | pgbench_accounts_pkey |        112336896

 2017-02-08 16:25:42.57875+01 | 1486567542.57875 | pgbench_branches_pkey |            57344
 2017-02-08 16:25:42.57875+01 | 1486567542.57875 | pgbench_tellers_pkey  |           253952
 2017-02-08 16:25:42.57875+01 | 1486567542.57875 | pgbench_accounts_pkey |        112336896

 2017-02-08 16:25:43.629623+01 | 1486567543.62962 | pgbench_branches_pkey |            57344
 2017-02-08 16:25:43.629623+01 | 1486567543.62962 | pgbench_tellers_pkey  |           253952
 2017-02-08 16:25:43.629623+01 | 1486567543.62962 | pgbench_accounts_pkey |        112336896

 2017-02-08 16:25:44.684722+01 | 1486567544.68472 | pgbench_branches_pkey |            57344
 2017-02-08 16:25:44.684722+01 | 1486567544.68472 | pgbench_tellers_pkey  |           253952
 2017-02-08 16:25:44.684722+01 | 1486567544.68472 | pgbench_accounts_pkey |        112336896

 2017-02-08 16:25:45.737158+01 | 1486567545.73716 | pgbench_branches_pkey |            57344
 2017-02-08 16:25:45.737158+01 | 1486567545.73716 | pgbench_tellers_pkey  |           253952
 2017-02-08 16:25:45.737158+01 | 1486567545.73716 | pgbench_accounts_pkey |        112336896

 2017-02-08 16:25:46.790691+01 | 1486567546.79069 | pgbench_branches_pkey |            57344
 2017-02-08 16:25:46.790691+01 | 1486567546.79069 | pgbench_tellers_pkey  |           253952
 2017-02-08 16:25:46.790691+01 | 1486567546.79069 | pgbench_accounts_pkey |        112336896

 2017-02-08 16:25:47.8425+01 | 1486567547.8425 | pgbench_branches_pkey |            57344
 2017-02-08 16:25:47.8425+01 | 1486567547.8425 | pgbench_tellers_pkey  |           253952
 2017-02-08 16:25:47.8425+01 | 1486567547.8425 | pgbench_accounts_pkey |        112336896

 2017-02-08 16:25:48.896138+01 | 1486567548.89614 | pgbench_branches_pkey |            57344
 2017-02-08 16:25:48.896138+01 | 1486567548.89614 | pgbench_tellers_pkey  |           253952
 2017-02-08 16:25:48.896138+01 | 1486567548.89614 | pgbench_accounts_pkey |        112336896

 2017-02-08 16:25:49.948104+01 | 1486567549.9481 | pgbench_branches_pkey |            57344
 2017-02-08 16:25:49.948104+01 | 1486567549.9481 | pgbench_tellers_pkey  |           253952
 2017-02-08 16:25:49.948104+01 | 1486567549.9481 | pgbench_accounts_pkey |        112336896

 2017-02-08 16:25:51.001482+01 | 1486567551.00148 | pgbench_branches_pkey |            57344
 2017-02-08 16:25:51.001482+01 | 1486567551.00148 | pgbench_tellers_pkey  |           253952
 2017-02-08 16:25:51.001482+01 | 1486567551.00148 | pgbench_accounts_pkey |        112336896

 2017-02-08 16:25:52.053826+01 | 1486567552.05383 | pgbench_branches_pkey |            57344
 2017-02-08 16:25:52.053826+01 | 1486567552.05383 | pgbench_tellers_pkey  |           253952
 2017-02-08 16:25:52.053826+01 | 1486567552.05383 | pgbench_accounts_pkey |        112336896

 2017-02-08 16:25:53.105181+01 | 1486567553.10518 | pgbench_branches_pkey |            57344
 2017-02-08 16:25:53.105181+01 | 1486567553.10518 | pgbench_tellers_pkey  |           253952
 2017-02-08 16:25:53.105181+01 | 1486567553.10518 | pgbench_accounts_pkey |        112336896

 2017-02-08 16:25:54.158503+01 | 1486567554.1585 | pgbench_branches_pkey |            57344
 2017-02-08 16:25:54.158503+01 | 1486567554.1585 | pgbench_tellers_pkey  |           253952
 2017-02-08 16:25:54.158503+01 | 1486567554.1585 | pgbench_accounts_pkey |        112336896

 2017-02-08 16:25:55.214238+01 | 1486567555.21424 | pgbench_branches_pkey |            57344
 2017-02-08 16:25:55.214238+01 | 1486567555.21424 | pgbench_tellers_pkey  |           253952
 2017-02-08 16:25:55.214238+01 | 1486567555.21424 | pgbench_accounts_pkey |        112336896

 2017-02-08 16:25:56.265156+01 | 1486567556.26516 | pgbench_branches_pkey |            57344
 2017-02-08 16:25:56.265156+01 | 1486567556.26516 | pgbench_tellers_pkey  |           253952
 2017-02-08 16:25:56.265156+01 | 1486567556.26516 | pgbench_accounts_pkey |        112336896

 2017-02-08 16:25:57.315937+01 | 1486567557.31594 | pgbench_branches_pkey |            57344
 2017-02-08 16:25:57.315937+01 | 1486567557.31594 | pgbench_tellers_pkey  |           253952
 2017-02-08 16:25:57.315937+01 | 1486567557.31594 | pgbench_accounts_pkey |        112336896

 2017-02-08 16:25:58.368734+01 | 1486567558.36873 | pgbench_branches_pkey |            57344
 2017-02-08 16:25:58.368734+01 | 1486567558.36873 | pgbench_tellers_pkey  |           253952
 2017-02-08 16:25:58.368734+01 | 1486567558.36873 | pgbench_accounts_pkey |        112336896

 2017-02-08 16:25:59.428939+01 | 1486567559.42894 | pgbench_branches_pkey |            57344
 2017-02-08 16:25:59.428939+01 | 1486567559.42894 | pgbench_tellers_pkey  |           253952
 2017-02-08 16:25:59.428939+01 | 1486567559.42894 | pgbench_accounts_pkey |        112336896

 2017-02-08 16:26:00.482021+01 | 1486567560.48202 | pgbench_branches_pkey |            57344
 2017-02-08 16:26:00.482021+01 | 1486567560.48202 | pgbench_tellers_pkey  |           253952
 2017-02-08 16:26:00.482021+01 | 1486567560.48202 | pgbench_accounts_pkey |        112336896

 2017-02-08 16:26:01.532279+01 | 1486567561.53228 | pgbench_branches_pkey |            57344
 2017-02-08 16:26:01.532279+01 | 1486567561.53228 | pgbench_tellers_pkey  |           253952
 2017-02-08 16:26:01.532279+01 | 1486567561.53228 | pgbench_accounts_pkey |        112336896

 2017-02-08 16:26:02.583656+01 | 1486567562.58366 | pgbench_branches_pkey |            57344
 2017-02-08 16:26:02.583656+01 | 1486567562.58366 | pgbench_tellers_pkey  |           253952
 2017-02-08 16:26:02.583656+01 | 1486567562.58366 | pgbench_accounts_pkey |        112336896

 2017-02-08 16:26:03.635688+01 | 1486567563.63569 | pgbench_branches_pkey |            57344
 2017-02-08 16:26:03.635688+01 | 1486567563.63569 | pgbench_tellers_pkey  |           253952
 2017-02-08 16:26:03.635688+01 | 1486567563.63569 | pgbench_accounts_pkey |        112336896

 2017-02-08 16:26:04.689859+01 | 1486567564.68986 | pgbench_branches_pkey |            57344
 2017-02-08 16:26:04.689859+01 | 1486567564.68986 | pgbench_tellers_pkey  |           253952
 2017-02-08 16:26:04.689859+01 | 1486567564.68986 | pgbench_accounts_pkey |        112336896

 2017-02-08 16:26:05.73822+01 | 1486567565.73822 | pgbench_branches_pkey |            57344
 2017-02-08 16:26:05.73822+01 | 1486567565.73822 | pgbench_tellers_pkey  |           253952
 2017-02-08 16:26:05.73822+01 | 1486567565.73822 | pgbench_accounts_pkey |        112336896

 2017-02-08 16:26:06.787131+01 | 1486567566.78713 | pgbench_branches_pkey |            57344
 2017-02-08 16:26:06.787131+01 | 1486567566.78713 | pgbench_tellers_pkey  |           253952
 2017-02-08 16:26:06.787131+01 | 1486567566.78713 | pgbench_accounts_pkey |        112336896

 2017-02-08 16:26:07.843207+01 | 1486567567.84321 | pgbench_branches_pkey |            57344
 2017-02-08 16:26:07.843207+01 | 1486567567.84321 | pgbench_tellers_pkey  |           253952
 2017-02-08 16:26:07.843207+01 | 1486567567.84321 | pgbench_accounts_pkey |        112336896

 2017-02-08 16:26:08.896974+01 | 1486567568.89697 | pgbench_branches_pkey |            57344
 2017-02-08 16:26:08.896974+01 | 1486567568.89697 | pgbench_tellers_pkey  |           253952
 2017-02-08 16:26:08.896974+01 | 1486567568.89697 | pgbench_accounts_pkey |        112336896

 2017-02-08 16:26:09.953698+01 | 1486567569.9537 | pgbench_branches_pkey |            57344
 2017-02-08 16:26:09.953698+01 | 1486567569.9537 | pgbench_tellers_pkey  |           253952
 2017-02-08 16:26:09.953698+01 | 1486567569.9537 | pgbench_accounts_pkey |        112336896

 2017-02-08 16:26:11.008354+01 | 1486567571.00835 | pgbench_branches_pkey |            57344
 2017-02-08 16:26:11.008354+01 | 1486567571.00835 | pgbench_tellers_pkey  |           253952
 2017-02-08 16:26:11.008354+01 | 1486567571.00835 | pgbench_accounts_pkey |        112336896

 2017-02-08 16:26:12.061689+01 | 1486567572.06169 | pgbench_branches_pkey |            57344
 2017-02-08 16:26:12.061689+01 | 1486567572.06169 | pgbench_tellers_pkey  |           253952
 2017-02-08 16:26:12.061689+01 | 1486567572.06169 | pgbench_accounts_pkey |        112336896

 2017-02-08 16:26:13.112623+01 | 1486567573.11262 | pgbench_branches_pkey |            57344
 2017-02-08 16:26:13.112623+01 | 1486567573.11262 | pgbench_tellers_pkey  |           253952
 2017-02-08 16:26:13.112623+01 | 1486567573.11262 | pgbench_accounts_pkey |        112336896

 2017-02-08 16:26:14.166463+01 | 1486567574.16646 | pgbench_branches_pkey |            57344
 2017-02-08 16:26:14.166463+01 | 1486567574.16646 | pgbench_tellers_pkey  |           253952
 2017-02-08 16:26:14.166463+01 | 1486567574.16646 | pgbench_accounts_pkey |        112336896

 2017-02-08 16:26:15.219994+01 | 1486567575.21999 | pgbench_branches_pkey |            57344
 2017-02-08 16:26:15.219994+01 | 1486567575.21999 | pgbench_tellers_pkey  |           253952
 2017-02-08 16:26:15.219994+01 | 1486567575.21999 | pgbench_accounts_pkey |        112336896

 2017-02-08 16:26:16.272483+01 | 1486567576.27248 | pgbench_branches_pkey |            57344
 2017-02-08 16:26:16.272483+01 | 1486567576.27248 | pgbench_tellers_pkey  |           253952
 2017-02-08 16:26:16.272483+01 | 1486567576.27248 | pgbench_accounts_pkey |        112336896

 2017-02-08 16:26:17.325098+01 | 1486567577.3251 | pgbench_branches_pkey |            57344
 2017-02-08 16:26:17.325098+01 | 1486567577.3251 | pgbench_tellers_pkey  |           253952
 2017-02-08 16:26:17.325098+01 | 1486567577.3251 | pgbench_accounts_pkey |        112336896

 2017-02-08 16:26:18.376498+01 | 1486567578.3765 | pgbench_branches_pkey |            57344
 2017-02-08 16:26:18.376498+01 | 1486567578.3765 | pgbench_tellers_pkey  |           253952
 2017-02-08 16:26:18.376498+01 | 1486567578.3765 | pgbench_accounts_pkey |        112336896

 2017-02-08 16:26:19.426287+01 | 1486567579.42629 | pgbench_branches_pkey |            57344
 2017-02-08 16:26:19.426287+01 | 1486567579.42629 | pgbench_tellers_pkey  |           253952
 2017-02-08 16:26:19.426287+01 | 1486567579.42629 | pgbench_accounts_pkey |        112336896

 2017-02-08 16:26:20.477636+01 | 1486567580.47764 | pgbench_branches_pkey |            57344
 2017-02-08 16:26:20.477636+01 | 1486567580.47764 | pgbench_tellers_pkey  |           253952
 2017-02-08 16:26:20.477636+01 | 1486567580.47764 | pgbench_accounts_pkey |        112336896

 2017-02-08 16:26:21.531149+01 | 1486567581.53115 | pgbench_branches_pkey |            57344
 2017-02-08 16:26:21.531149+01 | 1486567581.53115 | pgbench_tellers_pkey  |           253952
 2017-02-08 16:26:21.531149+01 | 1486567581.53115 | pgbench_accounts_pkey |        112336896

 2017-02-08 16:26:22.582595+01 | 1486567582.5826 | pgbench_branches_pkey |            57344
 2017-02-08 16:26:22.582595+01 | 1486567582.5826 | pgbench_tellers_pkey  |           253952
 2017-02-08 16:26:22.582595+01 | 1486567582.5826 | pgbench_accounts_pkey |        112336896

 2017-02-08 16:26:23.631486+01 | 1486567583.63149 | pgbench_branches_pkey |            57344
 2017-02-08 16:26:23.631486+01 | 1486567583.63149 | pgbench_tellers_pkey  |           253952
 2017-02-08 16:26:23.631486+01 | 1486567583.63149 | pgbench_accounts_pkey |        112336896

 2017-02-08 16:26:24.681925+01 | 1486567584.68193 | pgbench_branches_pkey |            57344
 2017-02-08 16:26:24.681925+01 | 1486567584.68193 | pgbench_tellers_pkey  |           253952
 2017-02-08 16:26:24.681925+01 | 1486567584.68193 | pgbench_accounts_pkey |        112336896

 2017-02-08 16:26:25.73386+01 | 1486567585.73386 | pgbench_branches_pkey |            57344
 2017-02-08 16:26:25.73386+01 | 1486567585.73386 | pgbench_tellers_pkey  |           253952
 2017-02-08 16:26:25.73386+01 | 1486567585.73386 | pgbench_accounts_pkey |        112336896

 2017-02-08 16:26:26.787488+01 | 1486567586.78749 | pgbench_branches_pkey |            57344
 2017-02-08 16:26:26.787488+01 | 1486567586.78749 | pgbench_tellers_pkey  |           253952
 2017-02-08 16:26:26.787488+01 | 1486567586.78749 | pgbench_accounts_pkey |        112336896

 2017-02-08 16:26:27.838719+01 | 1486567587.83872 | pgbench_branches_pkey |            57344
 2017-02-08 16:26:27.838719+01 | 1486567587.83872 | pgbench_tellers_pkey  |           253952
 2017-02-08 16:26:27.838719+01 | 1486567587.83872 | pgbench_accounts_pkey |        112336896

 2017-02-08 16:26:28.891583+01 | 1486567588.89158 | pgbench_branches_pkey |            57344
 2017-02-08 16:26:28.891583+01 | 1486567588.89158 | pgbench_tellers_pkey  |           253952
 2017-02-08 16:26:28.891583+01 | 1486567588.89158 | pgbench_accounts_pkey |        112336896

 2017-02-08 16:26:29.943329+01 | 1486567589.94333 | pgbench_branches_pkey |            57344
 2017-02-08 16:26:29.943329+01 | 1486567589.94333 | pgbench_tellers_pkey  |           253952
 2017-02-08 16:26:29.943329+01 | 1486567589.94333 | pgbench_accounts_pkey |        112336896

 2017-02-08 16:26:30.995014+01 | 1486567590.99501 | pgbench_branches_pkey |            57344
 2017-02-08 16:26:30.995014+01 | 1486567590.99501 | pgbench_tellers_pkey  |           253952
 2017-02-08 16:26:30.995014+01 | 1486567590.99501 | pgbench_accounts_pkey |        112336896

 2017-02-08 16:26:32.045639+01 | 1486567592.04564 | pgbench_branches_pkey |            57344
 2017-02-08 16:26:32.045639+01 | 1486567592.04564 | pgbench_tellers_pkey  |           253952
 2017-02-08 16:26:32.045639+01 | 1486567592.04564 | pgbench_accounts_pkey |        112336896

 2017-02-08 16:26:33.095835+01 | 1486567593.09583 | pgbench_branches_pkey |            57344
 2017-02-08 16:26:33.095835+01 | 1486567593.09583 | pgbench_tellers_pkey  |           253952
 2017-02-08 16:26:33.095835+01 | 1486567593.09583 | pgbench_accounts_pkey |        112336896

 2017-02-08 16:26:34.155498+01 | 1486567594.1555 | pgbench_branches_pkey |            57344
 2017-02-08 16:26:34.155498+01 | 1486567594.1555 | pgbench_tellers_pkey  |           253952
 2017-02-08 16:26:34.155498+01 | 1486567594.1555 | pgbench_accounts_pkey |        112336896

 2017-02-08 16:26:35.208575+01 | 1486567595.20858 | pgbench_branches_pkey |            57344
 2017-02-08 16:26:35.208575+01 | 1486567595.20858 | pgbench_tellers_pkey  |           253952
 2017-02-08 16:26:35.208575+01 | 1486567595.20858 | pgbench_accounts_pkey |        112336896

 2017-02-08 16:26:36.25875+01 | 1486567596.25875 | pgbench_branches_pkey |            57344
 2017-02-08 16:26:36.25875+01 | 1486567596.25875 | pgbench_tellers_pkey  |           253952
 2017-02-08 16:26:36.25875+01 | 1486567596.25875 | pgbench_accounts_pkey |        112336896

 2017-02-08 16:26:37.308921+01 | 1486567597.30892 | pgbench_branches_pkey |            57344
 2017-02-08 16:26:37.308921+01 | 1486567597.30892 | pgbench_tellers_pkey  |           253952
 2017-02-08 16:26:37.308921+01 | 1486567597.30892 | pgbench_accounts_pkey |        112336896

 2017-02-08 16:26:38.359022+01 | 1486567598.35902 | pgbench_branches_pkey |            57344
 2017-02-08 16:26:38.359022+01 | 1486567598.35902 | pgbench_tellers_pkey  |           253952
 2017-02-08 16:26:38.359022+01 | 1486567598.35902 | pgbench_accounts_pkey |        112336896

 2017-02-08 16:26:39.409296+01 | 1486567599.4093 | pgbench_branches_pkey |            57344
 2017-02-08 16:26:39.409296+01 | 1486567599.4093 | pgbench_tellers_pkey  |           253952
 2017-02-08 16:26:39.409296+01 | 1486567599.4093 | pgbench_accounts_pkey |        112336896

 2017-02-08 16:26:40.460598+01 | 1486567600.4606 | pgbench_branches_pkey |            57344
 2017-02-08 16:26:40.460598+01 | 1486567600.4606 | pgbench_tellers_pkey  |           253952
 2017-02-08 16:26:40.460598+01 | 1486567600.4606 | pgbench_accounts_pkey |        112336896

 2017-02-08 16:26:41.511188+01 | 1486567601.51119 | pgbench_branches_pkey |            57344
 2017-02-08 16:26:41.511188+01 | 1486567601.51119 | pgbench_tellers_pkey  |           253952
 2017-02-08 16:26:41.511188+01 | 1486567601.51119 | pgbench_accounts_pkey |        112336896

 2017-02-08 16:26:42.563198+01 | 1486567602.5632 | pgbench_branches_pkey |            57344
 2017-02-08 16:26:42.563198+01 | 1486567602.5632 | pgbench_tellers_pkey  |           253952
 2017-02-08 16:26:42.563198+01 | 1486567602.5632 | pgbench_accounts_pkey |        112336896

 2017-02-08 16:26:43.617264+01 | 1486567603.61726 | pgbench_branches_pkey |            57344
 2017-02-08 16:26:43.617264+01 | 1486567603.61726 | pgbench_tellers_pkey  |           253952
 2017-02-08 16:26:43.617264+01 | 1486567603.61726 | pgbench_accounts_pkey |        112336896

 2017-02-08 16:26:44.66933+01 | 1486567604.66933 | pgbench_branches_pkey |            57344
 2017-02-08 16:26:44.66933+01 | 1486567604.66933 | pgbench_tellers_pkey  |           253952
 2017-02-08 16:26:44.66933+01 | 1486567604.66933 | pgbench_accounts_pkey |        112336896

 2017-02-08 16:26:45.723911+01 | 1486567605.72391 | pgbench_branches_pkey |            57344
 2017-02-08 16:26:45.723911+01 | 1486567605.72391 | pgbench_tellers_pkey  |           253952
 2017-02-08 16:26:45.723911+01 | 1486567605.72391 | pgbench_accounts_pkey |        112336896

 2017-02-08 16:26:46.777741+01 | 1486567606.77774 | pgbench_branches_pkey |            57344
 2017-02-08 16:26:46.777741+01 | 1486567606.77774 | pgbench_tellers_pkey  |           253952
 2017-02-08 16:26:46.777741+01 | 1486567606.77774 | pgbench_accounts_pkey |        112336896

 2017-02-08 16:26:47.828209+01 | 1486567607.82821 | pgbench_branches_pkey |            57344
 2017-02-08 16:26:47.828209+01 | 1486567607.82821 | pgbench_tellers_pkey  |           253952
 2017-02-08 16:26:47.828209+01 | 1486567607.82821 | pgbench_accounts_pkey |        112336896

 2017-02-08 16:26:48.881861+01 | 1486567608.88186 | pgbench_branches_pkey |            57344
 2017-02-08 16:26:48.881861+01 | 1486567608.88186 | pgbench_tellers_pkey  |           253952
 2017-02-08 16:26:48.881861+01 | 1486567608.88186 | pgbench_accounts_pkey |        112336896

 2017-02-08 16:26:49.938399+01 | 1486567609.9384 | pgbench_branches_pkey |            57344
 2017-02-08 16:26:49.938399+01 | 1486567609.9384 | pgbench_tellers_pkey  |           253952
 2017-02-08 16:26:49.938399+01 | 1486567609.9384 | pgbench_accounts_pkey |        112336896

 2017-02-08 16:26:50.989054+01 | 1486567610.98905 | pgbench_branches_pkey |            57344
 2017-02-08 16:26:50.989054+01 | 1486567610.98905 | pgbench_tellers_pkey  |           253952
 2017-02-08 16:26:50.989054+01 | 1486567610.98905 | pgbench_accounts_pkey |        112336896

 2017-02-08 16:26:52.038196+01 | 1486567612.0382 | pgbench_branches_pkey |            57344
 2017-02-08 16:26:52.038196+01 | 1486567612.0382 | pgbench_tellers_pkey  |           253952
 2017-02-08 16:26:52.038196+01 | 1486567612.0382 | pgbench_accounts_pkey |        112336896

 2017-02-08 16:26:53.087459+01 | 1486567613.08746 | pgbench_branches_pkey |            57344
 2017-02-08 16:26:53.087459+01 | 1486567613.08746 | pgbench_tellers_pkey  |           253952
 2017-02-08 16:26:53.087459+01 | 1486567613.08746 | pgbench_accounts_pkey |        112336896

 2017-02-08 16:26:54.138982+01 | 1486567614.13898 | pgbench_branches_pkey |            57344
 2017-02-08 16:26:54.138982+01 | 1486567614.13898 | pgbench_tellers_pkey  |           253952
 2017-02-08 16:26:54.138982+01 | 1486567614.13898 | pgbench_accounts_pkey |        112336896

 2017-02-08 16:26:55.189542+01 | 1486567615.18954 | pgbench_branches_pkey |            57344
 2017-02-08 16:26:55.189542+01 | 1486567615.18954 | pgbench_tellers_pkey  |           253952
 2017-02-08 16:26:55.189542+01 | 1486567615.18954 | pgbench_accounts_pkey |        112336896

 2017-02-08 16:26:56.241806+01 | 1486567616.24181 | pgbench_branches_pkey |            57344
 2017-02-08 16:26:56.241806+01 | 1486567616.24181 | pgbench_tellers_pkey  |           253952
 2017-02-08 16:26:56.241806+01 | 1486567616.24181 | pgbench_accounts_pkey |        112336896

 2017-02-08 16:26:57.296059+01 | 1486567617.29606 | pgbench_branches_pkey |            57344
 2017-02-08 16:26:57.296059+01 | 1486567617.29606 | pgbench_tellers_pkey  |           253952
 2017-02-08 16:26:57.296059+01 | 1486567617.29606 | pgbench_accounts_pkey |        112336896

 2017-02-08 16:26:58.346968+01 | 1486567618.34697 | pgbench_branches_pkey |            57344
 2017-02-08 16:26:58.346968+01 | 1486567618.34697 | pgbench_tellers_pkey  |           253952
 2017-02-08 16:26:58.346968+01 | 1486567618.34697 | pgbench_accounts_pkey |        112336896

 2017-02-08 16:26:59.400866+01 | 1486567619.40087 | pgbench_branches_pkey |            57344
 2017-02-08 16:26:59.400866+01 | 1486567619.40087 | pgbench_tellers_pkey  |           253952
 2017-02-08 16:26:59.400866+01 | 1486567619.40087 | pgbench_accounts_pkey |        112336896

 2017-02-08 16:27:00.453701+01 | 1486567620.4537 | pgbench_branches_pkey |            57344
 2017-02-08 16:27:00.453701+01 | 1486567620.4537 | pgbench_tellers_pkey  |           253952
 2017-02-08 16:27:00.453701+01 | 1486567620.4537 | pgbench_accounts_pkey |        112336896

 2017-02-08 16:27:01.504147+01 | 1486567621.50415 | pgbench_branches_pkey |            57344
 2017-02-08 16:27:01.504147+01 | 1486567621.50415 | pgbench_tellers_pkey  |           253952
 2017-02-08 16:27:01.504147+01 | 1486567621.50415 | pgbench_accounts_pkey |        112336896

 2017-02-08 16:27:02.558901+01 | 1486567622.5589 | pgbench_branches_pkey |            57344
 2017-02-08 16:27:02.558901+01 | 1486567622.5589 | pgbench_tellers_pkey  |           253952
 2017-02-08 16:27:02.558901+01 | 1486567622.5589 | pgbench_accounts_pkey |        112336896

 2017-02-08 16:27:03.611276+01 | 1486567623.61128 | pgbench_branches_pkey |            57344
 2017-02-08 16:27:03.611276+01 | 1486567623.61128 | pgbench_tellers_pkey  |           253952
 2017-02-08 16:27:03.611276+01 | 1486567623.61128 | pgbench_accounts_pkey |        112336896

 2017-02-08 16:27:04.663119+01 | 1486567624.66312 | pgbench_branches_pkey |            57344
 2017-02-08 16:27:04.663119+01 | 1486567624.66312 | pgbench_tellers_pkey  |           253952
 2017-02-08 16:27:04.663119+01 | 1486567624.66312 | pgbench_accounts_pkey |        112336896

 2017-02-08 16:27:05.719529+01 | 1486567625.71953 | pgbench_branches_pkey |            57344
 2017-02-08 16:27:05.719529+01 | 1486567625.71953 | pgbench_tellers_pkey  |           253952
 2017-02-08 16:27:05.719529+01 | 1486567625.71953 | pgbench_accounts_pkey |        112336896

 2017-02-08 16:27:06.771603+01 | 1486567626.7716 | pgbench_branches_pkey |            57344
 2017-02-08 16:27:06.771603+01 | 1486567626.7716 | pgbench_tellers_pkey  |           253952
 2017-02-08 16:27:06.771603+01 | 1486567626.7716 | pgbench_accounts_pkey |        112336896

 2017-02-08 16:27:07.823905+01 | 1486567627.8239 | pgbench_branches_pkey |            57344
 2017-02-08 16:27:07.823905+01 | 1486567627.8239 | pgbench_tellers_pkey  |           253952
 2017-02-08 16:27:07.823905+01 | 1486567627.8239 | pgbench_accounts_pkey |        112336896

 2017-02-08 16:27:08.878968+01 | 1486567628.87897 | pgbench_branches_pkey |            57344
 2017-02-08 16:27:08.878968+01 | 1486567628.87897 | pgbench_tellers_pkey  |           253952
 2017-02-08 16:27:08.878968+01 | 1486567628.87897 | pgbench_accounts_pkey |        112336896

 2017-02-08 16:27:09.931748+01 | 1486567629.93175 | pgbench_branches_pkey |            57344
 2017-02-08 16:27:09.931748+01 | 1486567629.93175 | pgbench_tellers_pkey  |           253952
 2017-02-08 16:27:09.931748+01 | 1486567629.93175 | pgbench_accounts_pkey |        112336896

 2017-02-08 16:27:10.985754+01 | 1486567630.98575 | pgbench_branches_pkey |            57344
 2017-02-08 16:27:10.985754+01 | 1486567630.98575 | pgbench_tellers_pkey  |           253952
 2017-02-08 16:27:10.985754+01 | 1486567630.98575 | pgbench_accounts_pkey |        112336896

 2017-02-08 16:27:12.03496+01 | 1486567632.03496 | pgbench_branches_pkey |            57344
 2017-02-08 16:27:12.03496+01 | 1486567632.03496 | pgbench_tellers_pkey  |           253952
 2017-02-08 16:27:12.03496+01 | 1486567632.03496 | pgbench_accounts_pkey |        112336896

 2017-02-08 16:27:13.088469+01 | 1486567633.08847 | pgbench_branches_pkey |            57344
 2017-02-08 16:27:13.088469+01 | 1486567633.08847 | pgbench_tellers_pkey  |           253952
 2017-02-08 16:27:13.088469+01 | 1486567633.08847 | pgbench_accounts_pkey |        112336896

 2017-02-08 16:27:14.14071+01 | 1486567634.14071 | pgbench_branches_pkey |            57344
 2017-02-08 16:27:14.14071+01 | 1486567634.14071 | pgbench_tellers_pkey  |           253952
 2017-02-08 16:27:14.14071+01 | 1486567634.14071 | pgbench_accounts_pkey |        112336896

 2017-02-08 16:27:15.194334+01 | 1486567635.19433 | pgbench_branches_pkey |            57344
 2017-02-08 16:27:15.194334+01 | 1486567635.19433 | pgbench_tellers_pkey  |           253952
 2017-02-08 16:27:15.194334+01 | 1486567635.19433 | pgbench_accounts_pkey |        112336896

 2017-02-08 16:27:16.250791+01 | 1486567636.25079 | pgbench_branches_pkey |            57344
 2017-02-08 16:27:16.250791+01 | 1486567636.25079 | pgbench_tellers_pkey  |           253952
 2017-02-08 16:27:16.250791+01 | 1486567636.25079 | pgbench_accounts_pkey |        112336896

 2017-02-08 16:27:17.30153+01 | 1486567637.30153 | pgbench_branches_pkey |            57344
 2017-02-08 16:27:17.30153+01 | 1486567637.30153 | pgbench_tellers_pkey  |           253952
 2017-02-08 16:27:17.30153+01 | 1486567637.30153 | pgbench_accounts_pkey |        112336896

 2017-02-08 16:27:18.35184+01 | 1486567638.35184 | pgbench_branches_pkey |            57344
 2017-02-08 16:27:18.35184+01 | 1486567638.35184 | pgbench_tellers_pkey  |           253952
 2017-02-08 16:27:18.35184+01 | 1486567638.35184 | pgbench_accounts_pkey |        112336896

 2017-02-08 16:27:19.403816+01 | 1486567639.40382 | pgbench_branches_pkey |            57344
 2017-02-08 16:27:19.403816+01 | 1486567639.40382 | pgbench_tellers_pkey  |           253952
 2017-02-08 16:27:19.403816+01 | 1486567639.40382 | pgbench_accounts_pkey |        112336896

 2017-02-08 16:27:20.455865+01 | 1486567640.45586 | pgbench_branches_pkey |            57344
 2017-02-08 16:27:20.455865+01 | 1486567640.45586 | pgbench_tellers_pkey  |           253952
 2017-02-08 16:27:20.455865+01 | 1486567640.45586 | pgbench_accounts_pkey |        112336896

 2017-02-08 16:27:21.508367+01 | 1486567641.50837 | pgbench_branches_pkey |            57344
 2017-02-08 16:27:21.508367+01 | 1486567641.50837 | pgbench_tellers_pkey  |           253952
 2017-02-08 16:27:21.508367+01 | 1486567641.50837 | pgbench_accounts_pkey |        112336896

 2017-02-08 16:27:22.559423+01 | 1486567642.55942 | pgbench_branches_pkey |            57344
 2017-02-08 16:27:22.559423+01 | 1486567642.55942 | pgbench_tellers_pkey  |           253952
 2017-02-08 16:27:22.559423+01 | 1486567642.55942 | pgbench_accounts_pkey |        112336896

 2017-02-08 16:27:23.613891+01 | 1486567643.61389 | pgbench_branches_pkey |            57344
 2017-02-08 16:27:23.613891+01 | 1486567643.61389 | pgbench_tellers_pkey  |           253952
 2017-02-08 16:27:23.613891+01 | 1486567643.61389 | pgbench_accounts_pkey |        112336896

 2017-02-08 16:27:24.664448+01 | 1486567644.66445 | pgbench_branches_pkey |            57344
 2017-02-08 16:27:24.664448+01 | 1486567644.66445 | pgbench_tellers_pkey  |           253952
 2017-02-08 16:27:24.664448+01 | 1486567644.66445 | pgbench_accounts_pkey |        112336896

 2017-02-08 16:27:25.715697+01 | 1486567645.7157 | pgbench_branches_pkey |            57344
 2017-02-08 16:27:25.715697+01 | 1486567645.7157 | pgbench_tellers_pkey  |           253952
 2017-02-08 16:27:25.715697+01 | 1486567645.7157 | pgbench_accounts_pkey |        112336896

 2017-02-08 16:27:26.767789+01 | 1486567646.76779 | pgbench_branches_pkey |            57344
 2017-02-08 16:27:26.767789+01 | 1486567646.76779 | pgbench_tellers_pkey  |           253952
 2017-02-08 16:27:26.767789+01 | 1486567646.76779 | pgbench_accounts_pkey |        112336896

 2017-02-08 16:27:27.82623+01 | 1486567647.82623 | pgbench_branches_pkey |            57344
 2017-02-08 16:27:27.82623+01 | 1486567647.82623 | pgbench_tellers_pkey  |           253952
 2017-02-08 16:27:27.82623+01 | 1486567647.82623 | pgbench_accounts_pkey |        112336896

 2017-02-08 16:27:28.877597+01 | 1486567648.8776 | pgbench_branches_pkey |            57344
 2017-02-08 16:27:28.877597+01 | 1486567648.8776 | pgbench_tellers_pkey  |           253952
 2017-02-08 16:27:28.877597+01 | 1486567648.8776 | pgbench_accounts_pkey |        112336896

 2017-02-08 16:27:29.931268+01 | 1486567649.93127 | pgbench_branches_pkey |            57344
 2017-02-08 16:27:29.931268+01 | 1486567649.93127 | pgbench_tellers_pkey  |           253952
 2017-02-08 16:27:29.931268+01 | 1486567649.93127 | pgbench_accounts_pkey |        112336896

 2017-02-08 16:27:30.98237+01 | 1486567650.98237 | pgbench_branches_pkey |            57344
 2017-02-08 16:27:30.98237+01 | 1486567650.98237 | pgbench_tellers_pkey  |           253952
 2017-02-08 16:27:30.98237+01 | 1486567650.98237 | pgbench_accounts_pkey |        112336896

 2017-02-08 16:27:32.03278+01 | 1486567652.03278 | pgbench_branches_pkey |            57344
 2017-02-08 16:27:32.03278+01 | 1486567652.03278 | pgbench_tellers_pkey  |           253952
 2017-02-08 16:27:32.03278+01 | 1486567652.03278 | pgbench_accounts_pkey |        112336896

 2017-02-08 16:27:33.085694+01 | 1486567653.08569 | pgbench_branches_pkey |            57344
 2017-02-08 16:27:33.085694+01 | 1486567653.08569 | pgbench_tellers_pkey  |           253952
 2017-02-08 16:27:33.085694+01 | 1486567653.08569 | pgbench_accounts_pkey |        112336896

 2017-02-08 16:27:34.139351+01 | 1486567654.13935 | pgbench_branches_pkey |            57344
 2017-02-08 16:27:34.139351+01 | 1486567654.13935 | pgbench_tellers_pkey  |           253952
 2017-02-08 16:27:34.139351+01 | 1486567654.13935 | pgbench_accounts_pkey |        112336896

 2017-02-08 16:27:35.193741+01 | 1486567655.19374 | pgbench_branches_pkey |            57344
 2017-02-08 16:27:35.193741+01 | 1486567655.19374 | pgbench_tellers_pkey  |           253952
 2017-02-08 16:27:35.193741+01 | 1486567655.19374 | pgbench_accounts_pkey |        112336896

 2017-02-08 16:27:36.245582+01 | 1486567656.24558 | pgbench_branches_pkey |            57344
 2017-02-08 16:27:36.245582+01 | 1486567656.24558 | pgbench_tellers_pkey  |           253952
 2017-02-08 16:27:36.245582+01 | 1486567656.24558 | pgbench_accounts_pkey |        112336896

 2017-02-08 16:27:37.29339+01 | 1486567657.29339 | pgbench_branches_pkey |            57344
 2017-02-08 16:27:37.29339+01 | 1486567657.29339 | pgbench_tellers_pkey  |           253952
 2017-02-08 16:27:37.29339+01 | 1486567657.29339 | pgbench_accounts_pkey |        112336896

 2017-02-08 16:27:38.343135+01 | 1486567658.34314 | pgbench_branches_pkey |            57344
 2017-02-08 16:27:38.343135+01 | 1486567658.34314 | pgbench_tellers_pkey  |           253952
 2017-02-08 16:27:38.343135+01 | 1486567658.34314 | pgbench_accounts_pkey |        112336896

 2017-02-08 16:27:39.39337+01 | 1486567659.39337 | pgbench_branches_pkey |            57344
 2017-02-08 16:27:39.39337+01 | 1486567659.39337 | pgbench_tellers_pkey  |           253952
 2017-02-08 16:27:39.39337+01 | 1486567659.39337 | pgbench_accounts_pkey |        112336896

 2017-02-08 16:27:40.445694+01 | 1486567660.44569 | pgbench_branches_pkey |            57344
 2017-02-08 16:27:40.445694+01 | 1486567660.44569 | pgbench_tellers_pkey  |           253952
 2017-02-08 16:27:40.445694+01 | 1486567660.44569 | pgbench_accounts_pkey |        112336896

 2017-02-08 16:27:41.494179+01 | 1486567661.49418 | pgbench_branches_pkey |            57344
 2017-02-08 16:27:41.494179+01 | 1486567661.49418 | pgbench_tellers_pkey  |           253952
 2017-02-08 16:27:41.494179+01 | 1486567661.49418 | pgbench_accounts_pkey |        112336896

 2017-02-08 16:27:42.543943+01 | 1486567662.54394 | pgbench_branches_pkey |            57344
 2017-02-08 16:27:42.543943+01 | 1486567662.54394 | pgbench_tellers_pkey  |           253952
 2017-02-08 16:27:42.543943+01 | 1486567662.54394 | pgbench_accounts_pkey |        112336896

 2017-02-08 16:27:43.596174+01 | 1486567663.59617 | pgbench_branches_pkey |            57344
 2017-02-08 16:27:43.596174+01 | 1486567663.59617 | pgbench_tellers_pkey  |           253952
 2017-02-08 16:27:43.596174+01 | 1486567663.59617 | pgbench_accounts_pkey |        112336896

 2017-02-08 16:27:44.646138+01 | 1486567664.64614 | pgbench_branches_pkey |            57344
 2017-02-08 16:27:44.646138+01 | 1486567664.64614 | pgbench_tellers_pkey  |           253952
 2017-02-08 16:27:44.646138+01 | 1486567664.64614 | pgbench_accounts_pkey |        112336896

 2017-02-08 16:27:45.698965+01 | 1486567665.69897 | pgbench_branches_pkey |            57344
 2017-02-08 16:27:45.698965+01 | 1486567665.69897 | pgbench_tellers_pkey  |           253952
 2017-02-08 16:27:45.698965+01 | 1486567665.69897 | pgbench_accounts_pkey |        112336896

 2017-02-08 16:27:46.750558+01 | 1486567666.75056 | pgbench_branches_pkey |            57344
 2017-02-08 16:27:46.750558+01 | 1486567666.75056 | pgbench_tellers_pkey  |           253952
 2017-02-08 16:27:46.750558+01 | 1486567666.75056 | pgbench_accounts_pkey |        112336896

 2017-02-08 16:27:47.800118+01 | 1486567667.80012 | pgbench_branches_pkey |            57344
 2017-02-08 16:27:47.800118+01 | 1486567667.80012 | pgbench_tellers_pkey  |           253952
 2017-02-08 16:27:47.800118+01 | 1486567667.80012 | pgbench_accounts_pkey |        112336896

 2017-02-08 16:27:48.849238+01 | 1486567668.84924 | pgbench_branches_pkey |            57344
 2017-02-08 16:27:48.849238+01 | 1486567668.84924 | pgbench_tellers_pkey  |           253952
 2017-02-08 16:27:48.849238+01 | 1486567668.84924 | pgbench_accounts_pkey |        112336896

 2017-02-08 16:27:49.901985+01 | 1486567669.90198 | pgbench_branches_pkey |            57344
 2017-02-08 16:27:49.901985+01 | 1486567669.90198 | pgbench_tellers_pkey  |           253952
 2017-02-08 16:27:49.901985+01 | 1486567669.90198 | pgbench_accounts_pkey |        112336896

 2017-02-08 16:27:50.952581+01 | 1486567670.95258 | pgbench_branches_pkey |            57344
 2017-02-08 16:27:50.952581+01 | 1486567670.95258 | pgbench_tellers_pkey  |           253952
 2017-02-08 16:27:50.952581+01 | 1486567670.95258 | pgbench_accounts_pkey |        112336896

 2017-02-08 16:27:52.007083+01 | 1486567672.00708 | pgbench_branches_pkey |            57344
 2017-02-08 16:27:52.007083+01 | 1486567672.00708 | pgbench_tellers_pkey  |           253952
 2017-02-08 16:27:52.007083+01 | 1486567672.00708 | pgbench_accounts_pkey |        112336896

 2017-02-08 16:27:53.058195+01 | 1486567673.0582 | pgbench_branches_pkey |            57344
 2017-02-08 16:27:53.058195+01 | 1486567673.0582 | pgbench_tellers_pkey  |           253952
 2017-02-08 16:27:53.058195+01 | 1486567673.0582 | pgbench_accounts_pkey |        112336896

 2017-02-08 16:27:54.111737+01 | 1486567674.11174 | pgbench_branches_pkey |            57344
 2017-02-08 16:27:54.111737+01 | 1486567674.11174 | pgbench_tellers_pkey  |           253952
 2017-02-08 16:27:54.111737+01 | 1486567674.11174 | pgbench_accounts_pkey |        112336896

 2017-02-08 16:27:55.162495+01 | 1486567675.16249 | pgbench_branches_pkey |            57344
 2017-02-08 16:27:55.162495+01 | 1486567675.16249 | pgbench_tellers_pkey  |           253952
 2017-02-08 16:27:55.162495+01 | 1486567675.16249 | pgbench_accounts_pkey |        112336896

 2017-02-08 16:27:56.214851+01 | 1486567676.21485 | pgbench_branches_pkey |            57344
 2017-02-08 16:27:56.214851+01 | 1486567676.21485 | pgbench_tellers_pkey  |           253952
 2017-02-08 16:27:56.214851+01 | 1486567676.21485 | pgbench_accounts_pkey |        112336896

 2017-02-08 16:27:57.267466+01 | 1486567677.26747 | pgbench_branches_pkey |            57344
 2017-02-08 16:27:57.267466+01 | 1486567677.26747 | pgbench_tellers_pkey  |           253952
 2017-02-08 16:27:57.267466+01 | 1486567677.26747 | pgbench_accounts_pkey |        112336896

 2017-02-08 16:27:58.318785+01 | 1486567678.31878 | pgbench_branches_pkey |            57344
 2017-02-08 16:27:58.318785+01 | 1486567678.31878 | pgbench_tellers_pkey  |           253952
 2017-02-08 16:27:58.318785+01 | 1486567678.31878 | pgbench_accounts_pkey |        112336896

 2017-02-08 16:27:59.372455+01 | 1486567679.37245 | pgbench_branches_pkey |            57344
 2017-02-08 16:27:59.372455+01 | 1486567679.37245 | pgbench_tellers_pkey  |           253952
 2017-02-08 16:27:59.372455+01 | 1486567679.37245 | pgbench_accounts_pkey |        112336896

 2017-02-08 16:28:00.421721+01 | 1486567680.42172 | pgbench_branches_pkey |            57344
 2017-02-08 16:28:00.421721+01 | 1486567680.42172 | pgbench_tellers_pkey  |           253952
 2017-02-08 16:28:00.421721+01 | 1486567680.42172 | pgbench_accounts_pkey |        112336896

 2017-02-08 16:28:01.474428+01 | 1486567681.47443 | pgbench_branches_pkey |            57344
 2017-02-08 16:28:01.474428+01 | 1486567681.47443 | pgbench_tellers_pkey  |           253952
 2017-02-08 16:28:01.474428+01 | 1486567681.47443 | pgbench_accounts_pkey |        112336896

 2017-02-08 16:28:02.527988+01 | 1486567682.52799 | pgbench_branches_pkey |            57344
 2017-02-08 16:28:02.527988+01 | 1486567682.52799 | pgbench_tellers_pkey  |           253952
 2017-02-08 16:28:02.527988+01 | 1486567682.52799 | pgbench_accounts_pkey |        112336896

 2017-02-08 16:28:03.578976+01 | 1486567683.57898 | pgbench_branches_pkey |            57344
 2017-02-08 16:28:03.578976+01 | 1486567683.57898 | pgbench_tellers_pkey  |           253952
 2017-02-08 16:28:03.578976+01 | 1486567683.57898 | pgbench_accounts_pkey |        112336896

 2017-02-08 16:28:04.634845+01 | 1486567684.63485 | pgbench_branches_pkey |            57344
 2017-02-08 16:28:04.634845+01 | 1486567684.63485 | pgbench_tellers_pkey  |           253952
 2017-02-08 16:28:04.634845+01 | 1486567684.63485 | pgbench_accounts_pkey |        112336896

 2017-02-08 16:28:05.692348+01 | 1486567685.69235 | pgbench_branches_pkey |            57344
 2017-02-08 16:28:05.692348+01 | 1486567685.69235 | pgbench_tellers_pkey  |           253952
 2017-02-08 16:28:05.692348+01 | 1486567685.69235 | pgbench_accounts_pkey |        112336896

 2017-02-08 16:28:06.749703+01 | 1486567686.7497 | pgbench_branches_pkey |            57344
 2017-02-08 16:28:06.749703+01 | 1486567686.7497 | pgbench_tellers_pkey  |           253952
 2017-02-08 16:28:06.749703+01 | 1486567686.7497 | pgbench_accounts_pkey |        112336896

 2017-02-08 16:28:07.804428+01 | 1486567687.80443 | pgbench_branches_pkey |            57344
 2017-02-08 16:28:07.804428+01 | 1486567687.80443 | pgbench_tellers_pkey  |           253952
 2017-02-08 16:28:07.804428+01 | 1486567687.80443 | pgbench_accounts_pkey |        112336896

 2017-02-08 16:28:08.857992+01 | 1486567688.85799 | pgbench_branches_pkey |            57344
 2017-02-08 16:28:08.857992+01 | 1486567688.85799 | pgbench_tellers_pkey  |           253952
 2017-02-08 16:28:08.857992+01 | 1486567688.85799 | pgbench_accounts_pkey |        112336896

 2017-02-08 16:28:09.912905+01 | 1486567689.9129 | pgbench_branches_pkey |            57344
 2017-02-08 16:28:09.912905+01 | 1486567689.9129 | pgbench_tellers_pkey  |           253952
 2017-02-08 16:28:09.912905+01 | 1486567689.9129 | pgbench_accounts_pkey |        112336896

 2017-02-08 16:28:10.966933+01 | 1486567690.96693 | pgbench_branches_pkey |            57344
 2017-02-08 16:28:10.966933+01 | 1486567690.96693 | pgbench_tellers_pkey  |           253952
 2017-02-08 16:28:10.966933+01 | 1486567690.96693 | pgbench_accounts_pkey |        112336896

 2017-02-08 16:28:12.021893+01 | 1486567692.02189 | pgbench_branches_pkey |            57344
 2017-02-08 16:28:12.021893+01 | 1486567692.02189 | pgbench_tellers_pkey  |           253952
 2017-02-08 16:28:12.021893+01 | 1486567692.02189 | pgbench_accounts_pkey |        112336896

 2017-02-08 16:28:13.072693+01 | 1486567693.07269 | pgbench_branches_pkey |            57344
 2017-02-08 16:28:13.072693+01 | 1486567693.07269 | pgbench_tellers_pkey  |           253952
 2017-02-08 16:28:13.072693+01 | 1486567693.07269 | pgbench_accounts_pkey |        112336896

 2017-02-08 16:28:14.12276+01 | 1486567694.12276 | pgbench_branches_pkey |            57344
 2017-02-08 16:28:14.12276+01 | 1486567694.12276 | pgbench_tellers_pkey  |           253952
 2017-02-08 16:28:14.12276+01 | 1486567694.12276 | pgbench_accounts_pkey |        112336896

 2017-02-08 16:28:15.176789+01 | 1486567695.17679 | pgbench_branches_pkey |            57344
 2017-02-08 16:28:15.176789+01 | 1486567695.17679 | pgbench_tellers_pkey  |           253952
 2017-02-08 16:28:15.176789+01 | 1486567695.17679 | pgbench_accounts_pkey |        112336896

 2017-02-08 16:28:16.231694+01 | 1486567696.23169 | pgbench_branches_pkey |            57344
 2017-02-08 16:28:16.231694+01 | 1486567696.23169 | pgbench_tellers_pkey  |           253952
 2017-02-08 16:28:16.231694+01 | 1486567696.23169 | pgbench_accounts_pkey |        112336896

 2017-02-08 16:28:17.281469+01 | 1486567697.28147 | pgbench_branches_pkey |            57344
 2017-02-08 16:28:17.281469+01 | 1486567697.28147 | pgbench_tellers_pkey  |           253952
 2017-02-08 16:28:17.281469+01 | 1486567697.28147 | pgbench_accounts_pkey |        112336896

 2017-02-08 16:28:18.333413+01 | 1486567698.33341 | pgbench_branches_pkey |            57344
 2017-02-08 16:28:18.333413+01 | 1486567698.33341 | pgbench_tellers_pkey  |           253952
 2017-02-08 16:28:18.333413+01 | 1486567698.33341 | pgbench_accounts_pkey |        112336896

 2017-02-08 16:28:19.388385+01 | 1486567699.38839 | pgbench_branches_pkey |            57344
 2017-02-08 16:28:19.388385+01 | 1486567699.38839 | pgbench_tellers_pkey  |           253952
 2017-02-08 16:28:19.388385+01 | 1486567699.38839 | pgbench_accounts_pkey |        112336896

 2017-02-08 16:28:20.442572+01 | 1486567700.44257 | pgbench_branches_pkey |            57344
 2017-02-08 16:28:20.442572+01 | 1486567700.44257 | pgbench_tellers_pkey  |           253952
 2017-02-08 16:28:20.442572+01 | 1486567700.44257 | pgbench_accounts_pkey |        112336896

 2017-02-08 16:28:21.495199+01 | 1486567701.4952 | pgbench_branches_pkey |            57344
 2017-02-08 16:28:21.495199+01 | 1486567701.4952 | pgbench_tellers_pkey  |           253952
 2017-02-08 16:28:21.495199+01 | 1486567701.4952 | pgbench_accounts_pkey |        112336896

 2017-02-08 16:28:22.544848+01 | 1486567702.54485 | pgbench_branches_pkey |            57344
 2017-02-08 16:28:22.544848+01 | 1486567702.54485 | pgbench_tellers_pkey  |           253952
 2017-02-08 16:28:22.544848+01 | 1486567702.54485 | pgbench_accounts_pkey |        112336896

 2017-02-08 16:28:23.597565+01 | 1486567703.59756 | pgbench_branches_pkey |            57344
 2017-02-08 16:28:23.597565+01 | 1486567703.59756 | pgbench_tellers_pkey  |           253952
 2017-02-08 16:28:23.597565+01 | 1486567703.59756 | pgbench_accounts_pkey |        112336896

 2017-02-08 16:28:24.650226+01 | 1486567704.65023 | pgbench_branches_pkey |            57344
 2017-02-08 16:28:24.650226+01 | 1486567704.65023 | pgbench_tellers_pkey  |           253952
 2017-02-08 16:28:24.650226+01 | 1486567704.65023 | pgbench_accounts_pkey |        112336896

 2017-02-08 16:28:25.702959+01 | 1486567705.70296 | pgbench_branches_pkey |            57344
 2017-02-08 16:28:25.702959+01 | 1486567705.70296 | pgbench_tellers_pkey  |           253952
 2017-02-08 16:28:25.702959+01 | 1486567705.70296 | pgbench_accounts_pkey |        112336896

 2017-02-08 16:28:26.753042+01 | 1486567706.75304 | pgbench_branches_pkey |            57344
 2017-02-08 16:28:26.753042+01 | 1486567706.75304 | pgbench_tellers_pkey  |           253952
 2017-02-08 16:28:26.753042+01 | 1486567706.75304 | pgbench_accounts_pkey |        112336896

 2017-02-08 16:28:27.806467+01 | 1486567707.80647 | pgbench_branches_pkey |            57344
 2017-02-08 16:28:27.806467+01 | 1486567707.80647 | pgbench_tellers_pkey  |           253952
 2017-02-08 16:28:27.806467+01 | 1486567707.80647 | pgbench_accounts_pkey |        112336896

 2017-02-08 16:28:28.860317+01 | 1486567708.86032 | pgbench_branches_pkey |            57344
 2017-02-08 16:28:28.860317+01 | 1486567708.86032 | pgbench_tellers_pkey  |           253952
 2017-02-08 16:28:28.860317+01 | 1486567708.86032 | pgbench_accounts_pkey |        112336896

 2017-02-08 16:28:29.912739+01 | 1486567709.91274 | pgbench_branches_pkey |            57344
 2017-02-08 16:28:29.912739+01 | 1486567709.91274 | pgbench_tellers_pkey  |           253952
 2017-02-08 16:28:29.912739+01 | 1486567709.91274 | pgbench_accounts_pkey |        112336896

 2017-02-08 16:28:30.965845+01 | 1486567710.96585 | pgbench_branches_pkey |            57344
 2017-02-08 16:28:30.965845+01 | 1486567710.96585 | pgbench_tellers_pkey  |           253952
 2017-02-08 16:28:30.965845+01 | 1486567710.96585 | pgbench_accounts_pkey |        112336896

 2017-02-08 16:28:32.01896+01 | 1486567712.01896 | pgbench_branches_pkey |            57344
 2017-02-08 16:28:32.01896+01 | 1486567712.01896 | pgbench_tellers_pkey  |           253952
 2017-02-08 16:28:32.01896+01 | 1486567712.01896 | pgbench_accounts_pkey |        112336896

 2017-02-08 16:28:33.071357+01 | 1486567713.07136 | pgbench_branches_pkey |            57344
 2017-02-08 16:28:33.071357+01 | 1486567713.07136 | pgbench_tellers_pkey  |           253952
 2017-02-08 16:28:33.071357+01 | 1486567713.07136 | pgbench_accounts_pkey |        112336896

 2017-02-08 16:28:34.119305+01 | 1486567714.1193 | pgbench_branches_pkey |            57344
 2017-02-08 16:28:34.119305+01 | 1486567714.1193 | pgbench_tellers_pkey  |           253952
 2017-02-08 16:28:34.119305+01 | 1486567714.1193 | pgbench_accounts_pkey |        112336896

 2017-02-08 16:28:35.170896+01 | 1486567715.1709 | pgbench_branches_pkey |            57344
 2017-02-08 16:28:35.170896+01 | 1486567715.1709 | pgbench_tellers_pkey  |           253952
 2017-02-08 16:28:35.170896+01 | 1486567715.1709 | pgbench_accounts_pkey |        112336896

 2017-02-08 16:28:36.222501+01 | 1486567716.2225 | pgbench_branches_pkey |            57344
 2017-02-08 16:28:36.222501+01 | 1486567716.2225 | pgbench_tellers_pkey  |           253952
 2017-02-08 16:28:36.222501+01 | 1486567716.2225 | pgbench_accounts_pkey |        112336896

 2017-02-08 16:28:37.277145+01 | 1486567717.27714 | pgbench_branches_pkey |            57344
 2017-02-08 16:28:37.277145+01 | 1486567717.27714 | pgbench_tellers_pkey  |           253952
 2017-02-08 16:28:37.277145+01 | 1486567717.27714 | pgbench_accounts_pkey |        112336896

 2017-02-08 16:28:38.328728+01 | 1486567718.32873 | pgbench_branches_pkey |            57344
 2017-02-08 16:28:38.328728+01 | 1486567718.32873 | pgbench_tellers_pkey  |           253952
 2017-02-08 16:28:38.328728+01 | 1486567718.32873 | pgbench_accounts_pkey |        112336896

 2017-02-08 16:28:39.382137+01 | 1486567719.38214 | pgbench_branches_pkey |            57344
 2017-02-08 16:28:39.382137+01 | 1486567719.38214 | pgbench_tellers_pkey  |           253952
 2017-02-08 16:28:39.382137+01 | 1486567719.38214 | pgbench_accounts_pkey |        112336896

 2017-02-08 16:28:40.433453+01 | 1486567720.43345 | pgbench_branches_pkey |            57344
 2017-02-08 16:28:40.433453+01 | 1486567720.43345 | pgbench_tellers_pkey  |           253952
 2017-02-08 16:28:40.433453+01 | 1486567720.43345 | pgbench_accounts_pkey |        112336896

 2017-02-08 16:28:41.484292+01 | 1486567721.48429 | pgbench_branches_pkey |            57344
 2017-02-08 16:28:41.484292+01 | 1486567721.48429 | pgbench_tellers_pkey  |           253952
 2017-02-08 16:28:41.484292+01 | 1486567721.48429 | pgbench_accounts_pkey |        112336896

 2017-02-08 16:28:42.537409+01 | 1486567722.53741 | pgbench_branches_pkey |            57344
 2017-02-08 16:28:42.537409+01 | 1486567722.53741 | pgbench_tellers_pkey  |           253952
 2017-02-08 16:28:42.537409+01 | 1486567722.53741 | pgbench_accounts_pkey |        112336896

 2017-02-08 16:28:43.587834+01 | 1486567723.58783 | pgbench_branches_pkey |            57344
 2017-02-08 16:28:43.587834+01 | 1486567723.58783 | pgbench_tellers_pkey  |           253952
 2017-02-08 16:28:43.587834+01 | 1486567723.58783 | pgbench_accounts_pkey |        112336896

 2017-02-08 16:28:44.641563+01 | 1486567724.64156 | pgbench_branches_pkey |            57344
 2017-02-08 16:28:44.641563+01 | 1486567724.64156 | pgbench_tellers_pkey  |           253952
 2017-02-08 16:28:44.641563+01 | 1486567724.64156 | pgbench_accounts_pkey |        112336896

 2017-02-08 16:28:45.697342+01 | 1486567725.69734 | pgbench_branches_pkey |            57344
 2017-02-08 16:28:45.697342+01 | 1486567725.69734 | pgbench_tellers_pkey  |           253952
 2017-02-08 16:28:45.697342+01 | 1486567725.69734 | pgbench_accounts_pkey |        112336896

 2017-02-08 16:28:46.745364+01 | 1486567726.74536 | pgbench_branches_pkey |            57344
 2017-02-08 16:28:46.745364+01 | 1486567726.74536 | pgbench_tellers_pkey  |           253952
 2017-02-08 16:28:46.745364+01 | 1486567726.74536 | pgbench_accounts_pkey |        112336896

 2017-02-08 16:28:47.798613+01 | 1486567727.79861 | pgbench_branches_pkey |            57344
 2017-02-08 16:28:47.798613+01 | 1486567727.79861 | pgbench_tellers_pkey  |           253952
 2017-02-08 16:28:47.798613+01 | 1486567727.79861 | pgbench_accounts_pkey |        112336896

 2017-02-08 16:28:48.851014+01 | 1486567728.85101 | pgbench_branches_pkey |            57344
 2017-02-08 16:28:48.851014+01 | 1486567728.85101 | pgbench_tellers_pkey  |           253952
 2017-02-08 16:28:48.851014+01 | 1486567728.85101 | pgbench_accounts_pkey |        112336896

 2017-02-08 16:28:49.907822+01 | 1486567729.90782 | pgbench_branches_pkey |            57344
 2017-02-08 16:28:49.907822+01 | 1486567729.90782 | pgbench_tellers_pkey  |           253952
 2017-02-08 16:28:49.907822+01 | 1486567729.90782 | pgbench_accounts_pkey |        112336896

 2017-02-08 16:28:50.954364+01 | 1486567730.95436 | pgbench_branches_pkey |            57344
 2017-02-08 16:28:50.954364+01 | 1486567730.95436 | pgbench_tellers_pkey  |           253952
 2017-02-08 16:28:50.954364+01 | 1486567730.95436 | pgbench_accounts_pkey |        112336896

 2017-02-08 16:28:52.005676+01 | 1486567732.00568 | pgbench_branches_pkey |            57344
 2017-02-08 16:28:52.005676+01 | 1486567732.00568 | pgbench_tellers_pkey  |           253952
 2017-02-08 16:28:52.005676+01 | 1486567732.00568 | pgbench_accounts_pkey |        112336896

 2017-02-08 16:28:53.057563+01 | 1486567733.05756 | pgbench_branches_pkey |            57344
 2017-02-08 16:28:53.057563+01 | 1486567733.05756 | pgbench_tellers_pkey  |           253952
 2017-02-08 16:28:53.057563+01 | 1486567733.05756 | pgbench_accounts_pkey |        112336896

 2017-02-08 16:28:54.112395+01 | 1486567734.1124 | pgbench_branches_pkey |            57344
 2017-02-08 16:28:54.112395+01 | 1486567734.1124 | pgbench_tellers_pkey  |           253952
 2017-02-08 16:28:54.112395+01 | 1486567734.1124 | pgbench_accounts_pkey |        112336896

 2017-02-08 16:28:55.16691+01 | 1486567735.16691 | pgbench_branches_pkey |            57344
 2017-02-08 16:28:55.16691+01 | 1486567735.16691 | pgbench_tellers_pkey  |           253952
 2017-02-08 16:28:55.16691+01 | 1486567735.16691 | pgbench_accounts_pkey |        112336896

 2017-02-08 16:28:56.221484+01 | 1486567736.22148 | pgbench_branches_pkey |            57344
 2017-02-08 16:28:56.221484+01 | 1486567736.22148 | pgbench_tellers_pkey  |           253952
 2017-02-08 16:28:56.221484+01 | 1486567736.22148 | pgbench_accounts_pkey |        112336896

 2017-02-08 16:28:57.274617+01 | 1486567737.27462 | pgbench_branches_pkey |            57344
 2017-02-08 16:28:57.274617+01 | 1486567737.27462 | pgbench_tellers_pkey  |           253952
 2017-02-08 16:28:57.274617+01 | 1486567737.27462 | pgbench_accounts_pkey |        112336896

 2017-02-08 16:28:58.331975+01 | 1486567738.33197 | pgbench_branches_pkey |            57344
 2017-02-08 16:28:58.331975+01 | 1486567738.33197 | pgbench_tellers_pkey  |           253952
 2017-02-08 16:28:58.331975+01 | 1486567738.33197 | pgbench_accounts_pkey |        112336896

 2017-02-08 16:28:59.384693+01 | 1486567739.38469 | pgbench_branches_pkey |            57344
 2017-02-08 16:28:59.384693+01 | 1486567739.38469 | pgbench_tellers_pkey  |           253952
 2017-02-08 16:28:59.384693+01 | 1486567739.38469 | pgbench_accounts_pkey |        112336896

 2017-02-08 16:29:00.439834+01 | 1486567740.43983 | pgbench_branches_pkey |            57344
 2017-02-08 16:29:00.439834+01 | 1486567740.43983 | pgbench_tellers_pkey  |           253952
 2017-02-08 16:29:00.439834+01 | 1486567740.43983 | pgbench_accounts_pkey |        112336896

 2017-02-08 16:29:01.490132+01 | 1486567741.49013 | pgbench_branches_pkey |            57344
 2017-02-08 16:29:01.490132+01 | 1486567741.49013 | pgbench_tellers_pkey  |           253952
 2017-02-08 16:29:01.490132+01 | 1486567741.49013 | pgbench_accounts_pkey |        112336896

 2017-02-08 16:29:02.543214+01 | 1486567742.54321 | pgbench_branches_pkey |            57344
 2017-02-08 16:29:02.543214+01 | 1486567742.54321 | pgbench_tellers_pkey  |           253952
 2017-02-08 16:29:02.543214+01 | 1486567742.54321 | pgbench_accounts_pkey |        112336896

 2017-02-08 16:29:03.596354+01 | 1486567743.59635 | pgbench_branches_pkey |            57344
 2017-02-08 16:29:03.596354+01 | 1486567743.59635 | pgbench_tellers_pkey  |           253952
 2017-02-08 16:29:03.596354+01 | 1486567743.59635 | pgbench_accounts_pkey |        112336896

 2017-02-08 16:29:04.648796+01 | 1486567744.6488 | pgbench_branches_pkey |            57344
 2017-02-08 16:29:04.648796+01 | 1486567744.6488 | pgbench_tellers_pkey  |           253952
 2017-02-08 16:29:04.648796+01 | 1486567744.6488 | pgbench_accounts_pkey |        112336896

 2017-02-08 16:29:05.699733+01 | 1486567745.69973 | pgbench_branches_pkey |            57344
 2017-02-08 16:29:05.699733+01 | 1486567745.69973 | pgbench_tellers_pkey  |           253952
 2017-02-08 16:29:05.699733+01 | 1486567745.69973 | pgbench_accounts_pkey |        112336896

 2017-02-08 16:29:06.752907+01 | 1486567746.75291 | pgbench_branches_pkey |            57344
 2017-02-08 16:29:06.752907+01 | 1486567746.75291 | pgbench_tellers_pkey  |           253952
 2017-02-08 16:29:06.752907+01 | 1486567746.75291 | pgbench_accounts_pkey |        112336896

 2017-02-08 16:29:07.803967+01 | 1486567747.80397 | pgbench_branches_pkey |            57344
 2017-02-08 16:29:07.803967+01 | 1486567747.80397 | pgbench_tellers_pkey  |           253952
 2017-02-08 16:29:07.803967+01 | 1486567747.80397 | pgbench_accounts_pkey |        112336896

 2017-02-08 16:29:08.856857+01 | 1486567748.85686 | pgbench_branches_pkey |            57344
 2017-02-08 16:29:08.856857+01 | 1486567748.85686 | pgbench_tellers_pkey  |           253952
 2017-02-08 16:29:08.856857+01 | 1486567748.85686 | pgbench_accounts_pkey |        112336896

 2017-02-08 16:29:09.909147+01 | 1486567749.90915 | pgbench_branches_pkey |            57344
 2017-02-08 16:29:09.909147+01 | 1486567749.90915 | pgbench_tellers_pkey  |           253952
 2017-02-08 16:29:09.909147+01 | 1486567749.90915 | pgbench_accounts_pkey |        112336896

 2017-02-08 16:29:10.963246+01 | 1486567750.96325 | pgbench_branches_pkey |            57344
 2017-02-08 16:29:10.963246+01 | 1486567750.96325 | pgbench_tellers_pkey  |           253952
 2017-02-08 16:29:10.963246+01 | 1486567750.96325 | pgbench_accounts_pkey |        112336896

 2017-02-08 16:29:12.021606+01 | 1486567752.02161 | pgbench_branches_pkey |            57344
 2017-02-08 16:29:12.021606+01 | 1486567752.02161 | pgbench_tellers_pkey  |           253952
 2017-02-08 16:29:12.021606+01 | 1486567752.02161 | pgbench_accounts_pkey |        112336896

 2017-02-08 16:29:13.078343+01 | 1486567753.07834 | pgbench_branches_pkey |            57344
 2017-02-08 16:29:13.078343+01 | 1486567753.07834 | pgbench_tellers_pkey  |           253952
 2017-02-08 16:29:13.078343+01 | 1486567753.07834 | pgbench_accounts_pkey |        112336896

 2017-02-08 16:29:14.131254+01 | 1486567754.13125 | pgbench_branches_pkey |            57344
 2017-02-08 16:29:14.131254+01 | 1486567754.13125 | pgbench_tellers_pkey  |           253952
 2017-02-08 16:29:14.131254+01 | 1486567754.13125 | pgbench_accounts_pkey |        112336896

 2017-02-08 16:29:15.181776+01 | 1486567755.18178 | pgbench_branches_pkey |            57344
 2017-02-08 16:29:15.181776+01 | 1486567755.18178 | pgbench_tellers_pkey  |           253952
 2017-02-08 16:29:15.181776+01 | 1486567755.18178 | pgbench_accounts_pkey |        112336896

 2017-02-08 16:29:16.23278+01 | 1486567756.23278 | pgbench_branches_pkey |            57344
 2017-02-08 16:29:16.23278+01 | 1486567756.23278 | pgbench_tellers_pkey  |           253952
 2017-02-08 16:29:16.23278+01 | 1486567756.23278 | pgbench_accounts_pkey |        112336896

 2017-02-08 16:29:17.287862+01 | 1486567757.28786 | pgbench_branches_pkey |            57344
 2017-02-08 16:29:17.287862+01 | 1486567757.28786 | pgbench_tellers_pkey  |           253952
 2017-02-08 16:29:17.287862+01 | 1486567757.28786 | pgbench_accounts_pkey |        112336896

 2017-02-08 16:29:18.340926+01 | 1486567758.34093 | pgbench_branches_pkey |            57344
 2017-02-08 16:29:18.340926+01 | 1486567758.34093 | pgbench_tellers_pkey  |           253952
 2017-02-08 16:29:18.340926+01 | 1486567758.34093 | pgbench_accounts_pkey |        112336896

 2017-02-08 16:29:19.398756+01 | 1486567759.39876 | pgbench_branches_pkey |            57344
 2017-02-08 16:29:19.398756+01 | 1486567759.39876 | pgbench_tellers_pkey  |           253952
 2017-02-08 16:29:19.398756+01 | 1486567759.39876 | pgbench_accounts_pkey |        112336896

 2017-02-08 16:29:20.448914+01 | 1486567760.44891 | pgbench_branches_pkey |            57344
 2017-02-08 16:29:20.448914+01 | 1486567760.44891 | pgbench_tellers_pkey  |           253952
 2017-02-08 16:29:20.448914+01 | 1486567760.44891 | pgbench_accounts_pkey |        112336896

 2017-02-08 16:29:21.499444+01 | 1486567761.49944 | pgbench_branches_pkey |            57344
 2017-02-08 16:29:21.499444+01 | 1486567761.49944 | pgbench_tellers_pkey  |           253952
 2017-02-08 16:29:21.499444+01 | 1486567761.49944 | pgbench_accounts_pkey |        112336896

 2017-02-08 16:29:22.548805+01 | 1486567762.5488 | pgbench_branches_pkey |            57344
 2017-02-08 16:29:22.548805+01 | 1486567762.5488 | pgbench_tellers_pkey  |           253952
 2017-02-08 16:29:22.548805+01 | 1486567762.5488 | pgbench_accounts_pkey |        112336896

 2017-02-08 16:29:23.599706+01 | 1486567763.59971 | pgbench_branches_pkey |            57344
 2017-02-08 16:29:23.599706+01 | 1486567763.59971 | pgbench_tellers_pkey  |           253952
 2017-02-08 16:29:23.599706+01 | 1486567763.59971 | pgbench_accounts_pkey |        112336896

 2017-02-08 16:29:24.650239+01 | 1486567764.65024 | pgbench_branches_pkey |            57344
 2017-02-08 16:29:24.650239+01 | 1486567764.65024 | pgbench_tellers_pkey  |           253952
 2017-02-08 16:29:24.650239+01 | 1486567764.65024 | pgbench_accounts_pkey |        112336896

 2017-02-08 16:29:25.706288+01 | 1486567765.70629 | pgbench_branches_pkey |            57344
 2017-02-08 16:29:25.706288+01 | 1486567765.70629 | pgbench_tellers_pkey  |           253952
 2017-02-08 16:29:25.706288+01 | 1486567765.70629 | pgbench_accounts_pkey |        112336896

 2017-02-08 16:29:26.759517+01 | 1486567766.75952 | pgbench_branches_pkey |            57344
 2017-02-08 16:29:26.759517+01 | 1486567766.75952 | pgbench_tellers_pkey  |           253952
 2017-02-08 16:29:26.759517+01 | 1486567766.75952 | pgbench_accounts_pkey |        112336896

 2017-02-08 16:29:27.809384+01 | 1486567767.80938 | pgbench_branches_pkey |            57344
 2017-02-08 16:29:27.809384+01 | 1486567767.80938 | pgbench_tellers_pkey  |           253952
 2017-02-08 16:29:27.809384+01 | 1486567767.80938 | pgbench_accounts_pkey |        112336896

 2017-02-08 16:29:28.862231+01 | 1486567768.86223 | pgbench_branches_pkey |            57344
 2017-02-08 16:29:28.862231+01 | 1486567768.86223 | pgbench_tellers_pkey  |           253952
 2017-02-08 16:29:28.862231+01 | 1486567768.86223 | pgbench_accounts_pkey |        112336896

 2017-02-08 16:29:29.913813+01 | 1486567769.91381 | pgbench_branches_pkey |            57344
 2017-02-08 16:29:29.913813+01 | 1486567769.91381 | pgbench_tellers_pkey  |           253952
 2017-02-08 16:29:29.913813+01 | 1486567769.91381 | pgbench_accounts_pkey |        112336896

 2017-02-08 16:29:30.964588+01 | 1486567770.96459 | pgbench_branches_pkey |            57344
 2017-02-08 16:29:30.964588+01 | 1486567770.96459 | pgbench_tellers_pkey  |           253952
 2017-02-08 16:29:30.964588+01 | 1486567770.96459 | pgbench_accounts_pkey |        112336896

 2017-02-08 16:29:32.017261+01 | 1486567772.01726 | pgbench_branches_pkey |            57344
 2017-02-08 16:29:32.017261+01 | 1486567772.01726 | pgbench_tellers_pkey  |           253952
 2017-02-08 16:29:32.017261+01 | 1486567772.01726 | pgbench_accounts_pkey |        112336896

 2017-02-08 16:29:33.070684+01 | 1486567773.07068 | pgbench_branches_pkey |            57344
 2017-02-08 16:29:33.070684+01 | 1486567773.07068 | pgbench_tellers_pkey  |           253952
 2017-02-08 16:29:33.070684+01 | 1486567773.07068 | pgbench_accounts_pkey |        112336896

 2017-02-08 16:29:34.126226+01 | 1486567774.12623 | pgbench_branches_pkey |            57344
 2017-02-08 16:29:34.126226+01 | 1486567774.12623 | pgbench_tellers_pkey  |           253952
 2017-02-08 16:29:34.126226+01 | 1486567774.12623 | pgbench_accounts_pkey |        112336896

 2017-02-08 16:29:35.178113+01 | 1486567775.17811 | pgbench_branches_pkey |            57344
 2017-02-08 16:29:35.178113+01 | 1486567775.17811 | pgbench_tellers_pkey  |           253952
 2017-02-08 16:29:35.178113+01 | 1486567775.17811 | pgbench_accounts_pkey |        112336896

 2017-02-08 16:29:36.227533+01 | 1486567776.22753 | pgbench_branches_pkey |            57344
 2017-02-08 16:29:36.227533+01 | 1486567776.22753 | pgbench_tellers_pkey  |           253952
 2017-02-08 16:29:36.227533+01 | 1486567776.22753 | pgbench_accounts_pkey |        112336896

 2017-02-08 16:29:37.281537+01 | 1486567777.28154 | pgbench_branches_pkey |            57344
 2017-02-08 16:29:37.281537+01 | 1486567777.28154 | pgbench_tellers_pkey  |           253952
 2017-02-08 16:29:37.281537+01 | 1486567777.28154 | pgbench_accounts_pkey |        112336896

 2017-02-08 16:29:38.332783+01 | 1486567778.33278 | pgbench_branches_pkey |            57344
 2017-02-08 16:29:38.332783+01 | 1486567778.33278 | pgbench_tellers_pkey  |           253952
 2017-02-08 16:29:38.332783+01 | 1486567778.33278 | pgbench_accounts_pkey |        112336896

 2017-02-08 16:29:39.388057+01 | 1486567779.38806 | pgbench_branches_pkey |            57344
 2017-02-08 16:29:39.388057+01 | 1486567779.38806 | pgbench_tellers_pkey  |           253952
 2017-02-08 16:29:39.388057+01 | 1486567779.38806 | pgbench_accounts_pkey |        112336896

 2017-02-08 16:29:40.442135+01 | 1486567780.44214 | pgbench_branches_pkey |            57344
 2017-02-08 16:29:40.442135+01 | 1486567780.44214 | pgbench_tellers_pkey  |           253952
 2017-02-08 16:29:40.442135+01 | 1486567780.44214 | pgbench_accounts_pkey |        112336896

 2017-02-08 16:29:41.490834+01 | 1486567781.49083 | pgbench_branches_pkey |            57344
 2017-02-08 16:29:41.490834+01 | 1486567781.49083 | pgbench_tellers_pkey  |           253952
 2017-02-08 16:29:41.490834+01 | 1486567781.49083 | pgbench_accounts_pkey |        112336896

 2017-02-08 16:29:42.542006+01 | 1486567782.54201 | pgbench_branches_pkey |            57344
 2017-02-08 16:29:42.542006+01 | 1486567782.54201 | pgbench_tellers_pkey  |           253952
 2017-02-08 16:29:42.542006+01 | 1486567782.54201 | pgbench_accounts_pkey |        112336896

 2017-02-08 16:29:43.596706+01 | 1486567783.59671 | pgbench_branches_pkey |            57344
 2017-02-08 16:29:43.596706+01 | 1486567783.59671 | pgbench_tellers_pkey  |           253952
 2017-02-08 16:29:43.596706+01 | 1486567783.59671 | pgbench_accounts_pkey |        112336896

 2017-02-08 16:29:44.646904+01 | 1486567784.6469 | pgbench_branches_pkey |            57344
 2017-02-08 16:29:44.646904+01 | 1486567784.6469 | pgbench_tellers_pkey  |           253952
 2017-02-08 16:29:44.646904+01 | 1486567784.6469 | pgbench_accounts_pkey |        112336896

 2017-02-08 16:29:45.69823+01 | 1486567785.69823 | pgbench_branches_pkey |            57344
 2017-02-08 16:29:45.69823+01 | 1486567785.69823 | pgbench_tellers_pkey  |           253952
 2017-02-08 16:29:45.69823+01 | 1486567785.69823 | pgbench_accounts_pkey |        112336896

 2017-02-08 16:29:46.751728+01 | 1486567786.75173 | pgbench_branches_pkey |            57344
 2017-02-08 16:29:46.751728+01 | 1486567786.75173 | pgbench_tellers_pkey  |           253952
 2017-02-08 16:29:46.751728+01 | 1486567786.75173 | pgbench_accounts_pkey |        112336896

 2017-02-08 16:29:47.803538+01 | 1486567787.80354 | pgbench_branches_pkey |            57344
 2017-02-08 16:29:47.803538+01 | 1486567787.80354 | pgbench_tellers_pkey  |           253952
 2017-02-08 16:29:47.803538+01 | 1486567787.80354 | pgbench_accounts_pkey |        112336896

 2017-02-08 16:29:48.8558+01 | 1486567788.8558 | pgbench_branches_pkey |            57344
 2017-02-08 16:29:48.8558+01 | 1486567788.8558 | pgbench_tellers_pkey  |           253952
 2017-02-08 16:29:48.8558+01 | 1486567788.8558 | pgbench_accounts_pkey |        112336896

 2017-02-08 16:29:49.905275+01 | 1486567789.90528 | pgbench_branches_pkey |            57344
 2017-02-08 16:29:49.905275+01 | 1486567789.90528 | pgbench_tellers_pkey  |           253952
 2017-02-08 16:29:49.905275+01 | 1486567789.90528 | pgbench_accounts_pkey |        112336896

 2017-02-08 16:29:50.959782+01 | 1486567790.95978 | pgbench_branches_pkey |            57344
 2017-02-08 16:29:50.959782+01 | 1486567790.95978 | pgbench_tellers_pkey  |           253952
 2017-02-08 16:29:50.959782+01 | 1486567790.95978 | pgbench_accounts_pkey |        112336896

 2017-02-08 16:29:52.014353+01 | 1486567792.01435 | pgbench_branches_pkey |            57344
 2017-02-08 16:29:52.014353+01 | 1486567792.01435 | pgbench_tellers_pkey  |           253952
 2017-02-08 16:29:52.014353+01 | 1486567792.01435 | pgbench_accounts_pkey |        112336896

 2017-02-08 16:29:53.066718+01 | 1486567793.06672 | pgbench_branches_pkey |            57344
 2017-02-08 16:29:53.066718+01 | 1486567793.06672 | pgbench_tellers_pkey  |           253952
 2017-02-08 16:29:53.066718+01 | 1486567793.06672 | pgbench_accounts_pkey |        112336896

 2017-02-08 16:29:54.122781+01 | 1486567794.12278 | pgbench_branches_pkey |            57344
 2017-02-08 16:29:54.122781+01 | 1486567794.12278 | pgbench_tellers_pkey  |           253952
 2017-02-08 16:29:54.122781+01 | 1486567794.12278 | pgbench_accounts_pkey |        112336896

 2017-02-08 16:29:55.175615+01 | 1486567795.17562 | pgbench_branches_pkey |            57344
 2017-02-08 16:29:55.175615+01 | 1486567795.17562 | pgbench_tellers_pkey  |           253952
 2017-02-08 16:29:55.175615+01 | 1486567795.17562 | pgbench_accounts_pkey |        112336896

 2017-02-08 16:29:56.230327+01 | 1486567796.23033 | pgbench_branches_pkey |            57344
 2017-02-08 16:29:56.230327+01 | 1486567796.23033 | pgbench_tellers_pkey  |           253952
 2017-02-08 16:29:56.230327+01 | 1486567796.23033 | pgbench_accounts_pkey |        112336896

 2017-02-08 16:29:57.285849+01 | 1486567797.28585 | pgbench_branches_pkey |            57344
 2017-02-08 16:29:57.285849+01 | 1486567797.28585 | pgbench_tellers_pkey  |           253952
 2017-02-08 16:29:57.285849+01 | 1486567797.28585 | pgbench_accounts_pkey |        112336896

 2017-02-08 16:29:58.339853+01 | 1486567798.33985 | pgbench_branches_pkey |            57344
 2017-02-08 16:29:58.339853+01 | 1486567798.33985 | pgbench_tellers_pkey  |           253952
 2017-02-08 16:29:58.339853+01 | 1486567798.33985 | pgbench_accounts_pkey |        112336896

 2017-02-08 16:29:59.394316+01 | 1486567799.39432 | pgbench_branches_pkey |            57344
 2017-02-08 16:29:59.394316+01 | 1486567799.39432 | pgbench_tellers_pkey  |           253952
 2017-02-08 16:29:59.394316+01 | 1486567799.39432 | pgbench_accounts_pkey |        112336896

 2017-02-08 16:30:00.44552+01 | 1486567800.44552 | pgbench_branches_pkey |            57344
 2017-02-08 16:30:00.44552+01 | 1486567800.44552 | pgbench_tellers_pkey  |           253952
 2017-02-08 16:30:00.44552+01 | 1486567800.44552 | pgbench_accounts_pkey |        112336896

 2017-02-08 16:30:01.498834+01 | 1486567801.49883 | pgbench_branches_pkey |            57344
 2017-02-08 16:30:01.498834+01 | 1486567801.49883 | pgbench_tellers_pkey  |           253952
 2017-02-08 16:30:01.498834+01 | 1486567801.49883 | pgbench_accounts_pkey |        112336896

 2017-02-08 16:30:02.549781+01 | 1486567802.54978 | pgbench_branches_pkey |            57344
 2017-02-08 16:30:02.549781+01 | 1486567802.54978 | pgbench_tellers_pkey  |           253952
 2017-02-08 16:30:02.549781+01 | 1486567802.54978 | pgbench_accounts_pkey |        112336896

 2017-02-08 16:30:03.601746+01 | 1486567803.60175 | pgbench_branches_pkey |            57344
 2017-02-08 16:30:03.601746+01 | 1486567803.60175 | pgbench_tellers_pkey  |           253952
 2017-02-08 16:30:03.601746+01 | 1486567803.60175 | pgbench_accounts_pkey |        112336896

 2017-02-08 16:30:04.651887+01 | 1486567804.65189 | pgbench_branches_pkey |            57344
 2017-02-08 16:30:04.651887+01 | 1486567804.65189 | pgbench_tellers_pkey  |           253952
 2017-02-08 16:30:04.651887+01 | 1486567804.65189 | pgbench_accounts_pkey |        112336896

 2017-02-08 16:30:05.705579+01 | 1486567805.70558 | pgbench_branches_pkey |            57344
 2017-02-08 16:30:05.705579+01 | 1486567805.70558 | pgbench_tellers_pkey  |           253952
 2017-02-08 16:30:05.705579+01 | 1486567805.70558 | pgbench_accounts_pkey |        112336896

 2017-02-08 16:30:06.759687+01 | 1486567806.75969 | pgbench_branches_pkey |            57344
 2017-02-08 16:30:06.759687+01 | 1486567806.75969 | pgbench_tellers_pkey  |           253952
 2017-02-08 16:30:06.759687+01 | 1486567806.75969 | pgbench_accounts_pkey |        112336896

 2017-02-08 16:30:07.81362+01 | 1486567807.81362 | pgbench_branches_pkey |            57344
 2017-02-08 16:30:07.81362+01 | 1486567807.81362 | pgbench_tellers_pkey  |           253952
 2017-02-08 16:30:07.81362+01 | 1486567807.81362 | pgbench_accounts_pkey |        112336896

 2017-02-08 16:30:08.86612+01 | 1486567808.86612 | pgbench_branches_pkey |            57344
 2017-02-08 16:30:08.86612+01 | 1486567808.86612 | pgbench_tellers_pkey  |           253952
 2017-02-08 16:30:08.86612+01 | 1486567808.86612 | pgbench_accounts_pkey |        112336896

 2017-02-08 16:30:09.9193+01 | 1486567809.9193 | pgbench_branches_pkey |            57344
 2017-02-08 16:30:09.9193+01 | 1486567809.9193 | pgbench_tellers_pkey  |           253952
 2017-02-08 16:30:09.9193+01 | 1486567809.9193 | pgbench_accounts_pkey |        112336896

 2017-02-08 16:30:10.972402+01 | 1486567810.9724 | pgbench_branches_pkey |            57344
 2017-02-08 16:30:10.972402+01 | 1486567810.9724 | pgbench_tellers_pkey  |           253952
 2017-02-08 16:30:10.972402+01 | 1486567810.9724 | pgbench_accounts_pkey |        112336896

 2017-02-08 16:30:12.027525+01 | 1486567812.02752 | pgbench_branches_pkey |            57344
 2017-02-08 16:30:12.027525+01 | 1486567812.02752 | pgbench_tellers_pkey  |           253952
 2017-02-08 16:30:12.027525+01 | 1486567812.02752 | pgbench_accounts_pkey |        112336896

 2017-02-08 16:30:13.082798+01 | 1486567813.0828 | pgbench_branches_pkey |            57344
 2017-02-08 16:30:13.082798+01 | 1486567813.0828 | pgbench_tellers_pkey  |           253952
 2017-02-08 16:30:13.082798+01 | 1486567813.0828 | pgbench_accounts_pkey |        112336896

 2017-02-08 16:30:14.135416+01 | 1486567814.13542 | pgbench_branches_pkey |            57344
 2017-02-08 16:30:14.135416+01 | 1486567814.13542 | pgbench_tellers_pkey  |           253952
 2017-02-08 16:30:14.135416+01 | 1486567814.13542 | pgbench_accounts_pkey |        112336896

 2017-02-08 16:30:15.189599+01 | 1486567815.1896 | pgbench_branches_pkey |            57344
 2017-02-08 16:30:15.189599+01 | 1486567815.1896 | pgbench_tellers_pkey  |           253952
 2017-02-08 16:30:15.189599+01 | 1486567815.1896 | pgbench_accounts_pkey |        112336896

 2017-02-08 16:30:16.245974+01 | 1486567816.24597 | pgbench_branches_pkey |            57344
 2017-02-08 16:30:16.245974+01 | 1486567816.24597 | pgbench_tellers_pkey  |           253952
 2017-02-08 16:30:16.245974+01 | 1486567816.24597 | pgbench_accounts_pkey |        112336896

 2017-02-08 16:30:17.298955+01 | 1486567817.29895 | pgbench_branches_pkey |            57344
 2017-02-08 16:30:17.298955+01 | 1486567817.29895 | pgbench_tellers_pkey  |           253952
 2017-02-08 16:30:17.298955+01 | 1486567817.29895 | pgbench_accounts_pkey |        112336896

 2017-02-08 16:30:18.350937+01 | 1486567818.35094 | pgbench_branches_pkey |            57344
 2017-02-08 16:30:18.350937+01 | 1486567818.35094 | pgbench_tellers_pkey  |           253952
 2017-02-08 16:30:18.350937+01 | 1486567818.35094 | pgbench_accounts_pkey |        112336896

 2017-02-08 16:30:19.40058+01 | 1486567819.40058 | pgbench_branches_pkey |            57344
 2017-02-08 16:30:19.40058+01 | 1486567819.40058 | pgbench_tellers_pkey  |           253952
 2017-02-08 16:30:19.40058+01 | 1486567819.40058 | pgbench_accounts_pkey |        112336896

 2017-02-08 16:30:20.454149+01 | 1486567820.45415 | pgbench_branches_pkey |            57344
 2017-02-08 16:30:20.454149+01 | 1486567820.45415 | pgbench_tellers_pkey  |           253952
 2017-02-08 16:30:20.454149+01 | 1486567820.45415 | pgbench_accounts_pkey |        112336896

 2017-02-08 16:30:21.507753+01 | 1486567821.50775 | pgbench_branches_pkey |            57344
 2017-02-08 16:30:21.507753+01 | 1486567821.50775 | pgbench_tellers_pkey  |           253952
 2017-02-08 16:30:21.507753+01 | 1486567821.50775 | pgbench_accounts_pkey |        112336896

 2017-02-08 16:30:22.560509+01 | 1486567822.56051 | pgbench_branches_pkey |            57344
 2017-02-08 16:30:22.560509+01 | 1486567822.56051 | pgbench_tellers_pkey  |           253952
 2017-02-08 16:30:22.560509+01 | 1486567822.56051 | pgbench_accounts_pkey |        112336896

 2017-02-08 16:30:23.613755+01 | 1486567823.61375 | pgbench_branches_pkey |            57344
 2017-02-08 16:30:23.613755+01 | 1486567823.61375 | pgbench_tellers_pkey  |           253952
 2017-02-08 16:30:23.613755+01 | 1486567823.61375 | pgbench_accounts_pkey |        112336896

 2017-02-08 16:30:24.669691+01 | 1486567824.66969 | pgbench_branches_pkey |            57344
 2017-02-08 16:30:24.669691+01 | 1486567824.66969 | pgbench_tellers_pkey  |           253952
 2017-02-08 16:30:24.669691+01 | 1486567824.66969 | pgbench_accounts_pkey |        112336896

 2017-02-08 16:30:25.720933+01 | 1486567825.72093 | pgbench_branches_pkey |            57344
 2017-02-08 16:30:25.720933+01 | 1486567825.72093 | pgbench_tellers_pkey  |           253952
 2017-02-08 16:30:25.720933+01 | 1486567825.72093 | pgbench_accounts_pkey |        112336896

 2017-02-08 16:30:26.774034+01 | 1486567826.77403 | pgbench_branches_pkey |            57344
 2017-02-08 16:30:26.774034+01 | 1486567826.77403 | pgbench_tellers_pkey  |           253952
 2017-02-08 16:30:26.774034+01 | 1486567826.77403 | pgbench_accounts_pkey |        112336896

 2017-02-08 16:30:27.826578+01 | 1486567827.82658 | pgbench_branches_pkey |            57344
 2017-02-08 16:30:27.826578+01 | 1486567827.82658 | pgbench_tellers_pkey  |           253952
 2017-02-08 16:30:27.826578+01 | 1486567827.82658 | pgbench_accounts_pkey |        112336896

 2017-02-08 16:30:28.87766+01 | 1486567828.87766 | pgbench_branches_pkey |            57344
 2017-02-08 16:30:28.87766+01 | 1486567828.87766 | pgbench_tellers_pkey  |           253952
 2017-02-08 16:30:28.87766+01 | 1486567828.87766 | pgbench_accounts_pkey |        112336896

 2017-02-08 16:30:29.931488+01 | 1486567829.93149 | pgbench_branches_pkey |            57344
 2017-02-08 16:30:29.931488+01 | 1486567829.93149 | pgbench_tellers_pkey  |           253952
 2017-02-08 16:30:29.931488+01 | 1486567829.93149 | pgbench_accounts_pkey |        112336896

 2017-02-08 16:30:30.981689+01 | 1486567830.98169 | pgbench_branches_pkey |            57344
 2017-02-08 16:30:30.981689+01 | 1486567830.98169 | pgbench_tellers_pkey  |           253952
 2017-02-08 16:30:30.981689+01 | 1486567830.98169 | pgbench_accounts_pkey |        112336896

 2017-02-08 16:30:32.035239+01 | 1486567832.03524 | pgbench_branches_pkey |            57344
 2017-02-08 16:30:32.035239+01 | 1486567832.03524 | pgbench_tellers_pkey  |           253952
 2017-02-08 16:30:32.035239+01 | 1486567832.03524 | pgbench_accounts_pkey |        112336896

 2017-02-08 16:30:33.087405+01 | 1486567833.0874 | pgbench_branches_pkey |            57344
 2017-02-08 16:30:33.087405+01 | 1486567833.0874 | pgbench_tellers_pkey  |           253952
 2017-02-08 16:30:33.087405+01 | 1486567833.0874 | pgbench_accounts_pkey |        112336896

 2017-02-08 16:30:34.138504+01 | 1486567834.1385 | pgbench_branches_pkey |            57344
 2017-02-08 16:30:34.138504+01 | 1486567834.1385 | pgbench_tellers_pkey  |           253952
 2017-02-08 16:30:34.138504+01 | 1486567834.1385 | pgbench_accounts_pkey |        112336896

