 2017-02-08 23:16:32.858672+01 | 1486592192.85867 | pgbench_accounts |       4096360448
 2017-02-08 23:16:32.858672+01 | 1486592192.85867 | pgbench_tellers  |           139264
 2017-02-08 23:16:32.858672+01 | 1486592192.85867 | pgbench_history  |                0
 2017-02-08 23:16:32.858672+01 | 1486592192.85867 | pgbench_branches |            16384

 2017-02-08 23:16:34.004945+01 | 1486592194.00495 | pgbench_accounts |       4096360448
 2017-02-08 23:16:34.004945+01 | 1486592194.00495 | pgbench_tellers  |           139264
 2017-02-08 23:16:34.004945+01 | 1486592194.00495 | pgbench_history  |                0
 2017-02-08 23:16:34.004945+01 | 1486592194.00495 | pgbench_branches |            16384

 2017-02-08 23:16:35.105857+01 | 1486592195.10586 | pgbench_accounts |       4096360448
 2017-02-08 23:16:35.105857+01 | 1486592195.10586 | pgbench_tellers  |           139264
 2017-02-08 23:16:35.105857+01 | 1486592195.10586 | pgbench_history  |                0
 2017-02-08 23:16:35.105857+01 | 1486592195.10586 | pgbench_branches |            16384

 2017-02-08 23:16:36.183297+01 | 1486592196.1833 | pgbench_accounts |       4096360448
 2017-02-08 23:16:36.183297+01 | 1486592196.1833 | pgbench_tellers  |           139264
 2017-02-08 23:16:36.183297+01 | 1486592196.1833 | pgbench_history  |                0
 2017-02-08 23:16:36.183297+01 | 1486592196.1833 | pgbench_branches |            16384

 2017-02-08 23:16:37.304374+01 | 1486592197.30437 | pgbench_accounts |       4096360448
 2017-02-08 23:16:37.304374+01 | 1486592197.30437 | pgbench_tellers  |           139264
 2017-02-08 23:16:37.304374+01 | 1486592197.30437 | pgbench_history  |                0
 2017-02-08 23:16:37.304374+01 | 1486592197.30437 | pgbench_branches |            16384

 2017-02-08 23:16:38.458955+01 | 1486592198.45896 | pgbench_accounts |       4096360448
 2017-02-08 23:16:38.458955+01 | 1486592198.45896 | pgbench_tellers  |           139264
 2017-02-08 23:16:38.458955+01 | 1486592198.45896 | pgbench_history  |                0
 2017-02-08 23:16:38.458955+01 | 1486592198.45896 | pgbench_branches |            16384

 2017-02-08 23:16:39.613138+01 | 1486592199.61314 | pgbench_accounts |       4096360448
 2017-02-08 23:16:39.613138+01 | 1486592199.61314 | pgbench_tellers  |           139264
 2017-02-08 23:16:39.613138+01 | 1486592199.61314 | pgbench_history  |                0
 2017-02-08 23:16:39.613138+01 | 1486592199.61314 | pgbench_branches |            16384

 2017-02-08 23:16:40.774777+01 | 1486592200.77478 | pgbench_accounts |       4096360448
 2017-02-08 23:16:40.774777+01 | 1486592200.77478 | pgbench_tellers  |           139264
 2017-02-08 23:16:40.774777+01 | 1486592200.77478 | pgbench_history  |                0
 2017-02-08 23:16:40.774777+01 | 1486592200.77478 | pgbench_branches |            16384

 2017-02-08 23:16:41.949188+01 | 1486592201.94919 | pgbench_accounts |       4096360448
 2017-02-08 23:16:41.949188+01 | 1486592201.94919 | pgbench_tellers  |           139264
 2017-02-08 23:16:41.949188+01 | 1486592201.94919 | pgbench_history  |                0
 2017-02-08 23:16:41.949188+01 | 1486592201.94919 | pgbench_branches |            16384

 2017-02-08 23:16:43.063619+01 | 1486592203.06362 | pgbench_accounts |       4096360448
 2017-02-08 23:16:43.063619+01 | 1486592203.06362 | pgbench_tellers  |           139264
 2017-02-08 23:16:43.063619+01 | 1486592203.06362 | pgbench_history  |                0
 2017-02-08 23:16:43.063619+01 | 1486592203.06362 | pgbench_branches |            16384

 2017-02-08 23:16:44.191978+01 | 1486592204.19198 | pgbench_accounts |       4096360448
 2017-02-08 23:16:44.191978+01 | 1486592204.19198 | pgbench_tellers  |           139264
 2017-02-08 23:16:44.191978+01 | 1486592204.19198 | pgbench_history  |                0
 2017-02-08 23:16:44.191978+01 | 1486592204.19198 | pgbench_branches |            16384

 2017-02-08 23:16:45.344825+01 | 1486592205.34483 | pgbench_accounts |       4096622592
 2017-02-08 23:16:45.344825+01 | 1486592205.34483 | pgbench_tellers  |           139264
 2017-02-08 23:16:45.344825+01 | 1486592205.34483 | pgbench_history  |                0
 2017-02-08 23:16:45.344825+01 | 1486592205.34483 | pgbench_branches |            16384

 2017-02-08 23:16:46.483743+01 | 1486592206.48374 | pgbench_accounts |       4096827392
 2017-02-08 23:16:46.483743+01 | 1486592206.48374 | pgbench_tellers  |           139264
 2017-02-08 23:16:46.483743+01 | 1486592206.48374 | pgbench_history  |                0
 2017-02-08 23:16:46.483743+01 | 1486592206.48374 | pgbench_branches |            16384

 2017-02-08 23:16:47.671238+01 | 1486592207.67124 | pgbench_accounts |       4097032192
 2017-02-08 23:16:47.671238+01 | 1486592207.67124 | pgbench_tellers  |           139264
 2017-02-08 23:16:47.671238+01 | 1486592207.67124 | pgbench_history  |                0
 2017-02-08 23:16:47.671238+01 | 1486592207.67124 | pgbench_branches |            16384

 2017-02-08 23:16:48.776265+01 | 1486592208.77626 | pgbench_accounts |       4097236992
 2017-02-08 23:16:48.776265+01 | 1486592208.77626 | pgbench_tellers  |           139264
 2017-02-08 23:16:48.776265+01 | 1486592208.77626 | pgbench_history  |                0
 2017-02-08 23:16:48.776265+01 | 1486592208.77626 | pgbench_branches |            16384

 2017-02-08 23:16:49.94233+01 | 1486592209.94233 | pgbench_accounts |       4097433600
 2017-02-08 23:16:49.94233+01 | 1486592209.94233 | pgbench_tellers  |           139264
 2017-02-08 23:16:49.94233+01 | 1486592209.94233 | pgbench_history  |                0
 2017-02-08 23:16:49.94233+01 | 1486592209.94233 | pgbench_branches |            16384

 2017-02-08 23:16:51.129507+01 | 1486592211.12951 | pgbench_accounts |       4097630208
 2017-02-08 23:16:51.129507+01 | 1486592211.12951 | pgbench_tellers  |           139264
 2017-02-08 23:16:51.129507+01 | 1486592211.12951 | pgbench_history  |                0
 2017-02-08 23:16:51.129507+01 | 1486592211.12951 | pgbench_branches |            16384

 2017-02-08 23:16:52.294077+01 | 1486592212.29408 | pgbench_accounts |       4097859584
 2017-02-08 23:16:52.294077+01 | 1486592212.29408 | pgbench_tellers  |           139264
 2017-02-08 23:16:52.294077+01 | 1486592212.29408 | pgbench_history  |                0
 2017-02-08 23:16:52.294077+01 | 1486592212.29408 | pgbench_branches |            16384

 2017-02-08 23:16:53.471303+01 | 1486592213.4713 | pgbench_accounts |       4098048000
 2017-02-08 23:16:53.471303+01 | 1486592213.4713 | pgbench_tellers  |           139264
 2017-02-08 23:16:53.471303+01 | 1486592213.4713 | pgbench_history  |                0
 2017-02-08 23:16:53.471303+01 | 1486592213.4713 | pgbench_branches |            16384

 2017-02-08 23:16:54.601618+01 | 1486592214.60162 | pgbench_accounts |       4098244608
 2017-02-08 23:16:54.601618+01 | 1486592214.60162 | pgbench_tellers  |           139264
 2017-02-08 23:16:54.601618+01 | 1486592214.60162 | pgbench_history  |                0
 2017-02-08 23:16:54.601618+01 | 1486592214.60162 | pgbench_branches |            16384

 2017-02-08 23:16:55.813951+01 | 1486592215.81395 | pgbench_accounts |       4098441216
 2017-02-08 23:16:55.813951+01 | 1486592215.81395 | pgbench_tellers  |           139264
 2017-02-08 23:16:55.813951+01 | 1486592215.81395 | pgbench_history  |                0
 2017-02-08 23:16:55.813951+01 | 1486592215.81395 | pgbench_branches |            16384

 2017-02-08 23:16:56.988685+01 | 1486592216.98868 | pgbench_accounts |       4098654208
 2017-02-08 23:16:56.988685+01 | 1486592216.98868 | pgbench_tellers  |           139264
 2017-02-08 23:16:56.988685+01 | 1486592216.98868 | pgbench_history  |                0
 2017-02-08 23:16:56.988685+01 | 1486592216.98868 | pgbench_branches |            16384

 2017-02-08 23:16:58.13252+01 | 1486592218.13252 | pgbench_accounts |       4098826240
 2017-02-08 23:16:58.13252+01 | 1486592218.13252 | pgbench_tellers  |           139264
 2017-02-08 23:16:58.13252+01 | 1486592218.13252 | pgbench_history  |                0
 2017-02-08 23:16:58.13252+01 | 1486592218.13252 | pgbench_branches |            16384

 2017-02-08 23:16:59.275266+01 | 1486592219.27527 | pgbench_accounts |       4099039232
 2017-02-08 23:16:59.275266+01 | 1486592219.27527 | pgbench_tellers  |           139264
 2017-02-08 23:16:59.275266+01 | 1486592219.27527 | pgbench_history  |                0
 2017-02-08 23:16:59.275266+01 | 1486592219.27527 | pgbench_branches |            16384

 2017-02-08 23:17:00.42693+01 | 1486592220.42693 | pgbench_accounts |       4099227648
 2017-02-08 23:17:00.42693+01 | 1486592220.42693 | pgbench_tellers  |           139264
 2017-02-08 23:17:00.42693+01 | 1486592220.42693 | pgbench_history  |                0
 2017-02-08 23:17:00.42693+01 | 1486592220.42693 | pgbench_branches |            16384

 2017-02-08 23:17:01.56268+01 | 1486592221.56268 | pgbench_accounts |       4099416064
 2017-02-08 23:17:01.56268+01 | 1486592221.56268 | pgbench_tellers  |           139264
 2017-02-08 23:17:01.56268+01 | 1486592221.56268 | pgbench_history  |                0
 2017-02-08 23:17:01.56268+01 | 1486592221.56268 | pgbench_branches |            16384

 2017-02-08 23:17:02.785974+01 | 1486592222.78597 | pgbench_accounts |       4099588096
 2017-02-08 23:17:02.785974+01 | 1486592222.78597 | pgbench_tellers  |           139264
 2017-02-08 23:17:02.785974+01 | 1486592222.78597 | pgbench_history  |                0
 2017-02-08 23:17:02.785974+01 | 1486592222.78597 | pgbench_branches |            16384

 2017-02-08 23:17:03.977822+01 | 1486592223.97782 | pgbench_accounts |       4099784704
 2017-02-08 23:17:03.977822+01 | 1486592223.97782 | pgbench_tellers  |           139264
 2017-02-08 23:17:03.977822+01 | 1486592223.97782 | pgbench_history  |                0
 2017-02-08 23:17:03.977822+01 | 1486592223.97782 | pgbench_branches |            16384

 2017-02-08 23:17:05.138233+01 | 1486592225.13823 | pgbench_accounts |       4099989504
 2017-02-08 23:17:05.138233+01 | 1486592225.13823 | pgbench_tellers  |           139264
 2017-02-08 23:17:05.138233+01 | 1486592225.13823 | pgbench_history  |                0
 2017-02-08 23:17:05.138233+01 | 1486592225.13823 | pgbench_branches |            16384

 2017-02-08 23:17:06.30498+01 | 1486592226.30498 | pgbench_accounts |       4100153344
 2017-02-08 23:17:06.30498+01 | 1486592226.30498 | pgbench_tellers  |           139264
 2017-02-08 23:17:06.30498+01 | 1486592226.30498 | pgbench_history  |                0
 2017-02-08 23:17:06.30498+01 | 1486592226.30498 | pgbench_branches |            16384

 2017-02-08 23:17:07.447778+01 | 1486592227.44778 | pgbench_accounts |       4100325376
 2017-02-08 23:17:07.447778+01 | 1486592227.44778 | pgbench_tellers  |           139264
 2017-02-08 23:17:07.447778+01 | 1486592227.44778 | pgbench_history  |                0
 2017-02-08 23:17:07.447778+01 | 1486592227.44778 | pgbench_branches |            16384

 2017-02-08 23:17:08.607169+01 | 1486592228.60717 | pgbench_accounts |       4100513792
 2017-02-08 23:17:08.607169+01 | 1486592228.60717 | pgbench_tellers  |           139264
 2017-02-08 23:17:08.607169+01 | 1486592228.60717 | pgbench_history  |                0
 2017-02-08 23:17:08.607169+01 | 1486592228.60717 | pgbench_branches |            16384

 2017-02-08 23:17:09.790289+01 | 1486592229.79029 | pgbench_accounts |       4100685824
 2017-02-08 23:17:09.790289+01 | 1486592229.79029 | pgbench_tellers  |           139264
 2017-02-08 23:17:09.790289+01 | 1486592229.79029 | pgbench_history  |                0
 2017-02-08 23:17:09.790289+01 | 1486592229.79029 | pgbench_branches |            16384

 2017-02-08 23:17:10.972283+01 | 1486592230.97228 | pgbench_accounts |       4100849664
 2017-02-08 23:17:10.972283+01 | 1486592230.97228 | pgbench_tellers  |           139264
 2017-02-08 23:17:10.972283+01 | 1486592230.97228 | pgbench_history  |                0
 2017-02-08 23:17:10.972283+01 | 1486592230.97228 | pgbench_branches |            16384

 2017-02-08 23:17:12.160988+01 | 1486592232.16099 | pgbench_accounts |       4101021696
 2017-02-08 23:17:12.160988+01 | 1486592232.16099 | pgbench_tellers  |           139264
 2017-02-08 23:17:12.160988+01 | 1486592232.16099 | pgbench_history  |                0
 2017-02-08 23:17:12.160988+01 | 1486592232.16099 | pgbench_branches |            16384

 2017-02-08 23:17:13.345207+01 | 1486592233.34521 | pgbench_accounts |       4101185536
 2017-02-08 23:17:13.345207+01 | 1486592233.34521 | pgbench_tellers  |           139264
 2017-02-08 23:17:13.345207+01 | 1486592233.34521 | pgbench_history  |                0
 2017-02-08 23:17:13.345207+01 | 1486592233.34521 | pgbench_branches |            16384

 2017-02-08 23:17:14.520822+01 | 1486592234.52082 | pgbench_accounts |       4101357568
 2017-02-08 23:17:14.520822+01 | 1486592234.52082 | pgbench_tellers  |           139264
 2017-02-08 23:17:14.520822+01 | 1486592234.52082 | pgbench_history  |                0
 2017-02-08 23:17:14.520822+01 | 1486592234.52082 | pgbench_branches |            16384

 2017-02-08 23:17:15.674106+01 | 1486592235.67411 | pgbench_accounts |       4101521408
 2017-02-08 23:17:15.674106+01 | 1486592235.67411 | pgbench_tellers  |           139264
 2017-02-08 23:17:15.674106+01 | 1486592235.67411 | pgbench_history  |                0
 2017-02-08 23:17:15.674106+01 | 1486592235.67411 | pgbench_branches |            16384

 2017-02-08 23:17:16.879194+01 | 1486592236.87919 | pgbench_accounts |       4101709824
 2017-02-08 23:17:16.879194+01 | 1486592236.87919 | pgbench_tellers  |           139264
 2017-02-08 23:17:16.879194+01 | 1486592236.87919 | pgbench_history  |                0
 2017-02-08 23:17:16.879194+01 | 1486592236.87919 | pgbench_branches |            16384

 2017-02-08 23:17:18.077165+01 | 1486592238.07716 | pgbench_accounts |       4101865472
 2017-02-08 23:17:18.077165+01 | 1486592238.07716 | pgbench_tellers  |           139264
 2017-02-08 23:17:18.077165+01 | 1486592238.07716 | pgbench_history  |                0
 2017-02-08 23:17:18.077165+01 | 1486592238.07716 | pgbench_branches |            16384

 2017-02-08 23:17:19.230607+01 | 1486592239.23061 | pgbench_accounts |       4102037504
 2017-02-08 23:17:19.230607+01 | 1486592239.23061 | pgbench_tellers  |           139264
 2017-02-08 23:17:19.230607+01 | 1486592239.23061 | pgbench_history  |                0
 2017-02-08 23:17:19.230607+01 | 1486592239.23061 | pgbench_branches |            16384

 2017-02-08 23:17:20.363183+01 | 1486592240.36318 | pgbench_accounts |       4102184960
 2017-02-08 23:17:20.363183+01 | 1486592240.36318 | pgbench_tellers  |           139264
 2017-02-08 23:17:20.363183+01 | 1486592240.36318 | pgbench_history  |                0
 2017-02-08 23:17:20.363183+01 | 1486592240.36318 | pgbench_branches |            16384

 2017-02-08 23:17:21.580433+01 | 1486592241.58043 | pgbench_accounts |       4102340608
 2017-02-08 23:17:21.580433+01 | 1486592241.58043 | pgbench_tellers  |           139264
 2017-02-08 23:17:21.580433+01 | 1486592241.58043 | pgbench_history  |                0
 2017-02-08 23:17:21.580433+01 | 1486592241.58043 | pgbench_branches |            16384

 2017-02-08 23:17:22.791018+01 | 1486592242.79102 | pgbench_accounts |       4102512640
 2017-02-08 23:17:22.791018+01 | 1486592242.79102 | pgbench_tellers  |           139264
 2017-02-08 23:17:22.791018+01 | 1486592242.79102 | pgbench_history  |                0
 2017-02-08 23:17:22.791018+01 | 1486592242.79102 | pgbench_branches |            16384

 2017-02-08 23:17:24.046643+01 | 1486592244.04664 | pgbench_accounts |       4102668288
 2017-02-08 23:17:24.046643+01 | 1486592244.04664 | pgbench_tellers  |           139264
 2017-02-08 23:17:24.046643+01 | 1486592244.04664 | pgbench_history  |                0
 2017-02-08 23:17:24.046643+01 | 1486592244.04664 | pgbench_branches |            16384

 2017-02-08 23:17:25.331474+01 | 1486592245.33147 | pgbench_accounts |       4102823936
 2017-02-08 23:17:25.331474+01 | 1486592245.33147 | pgbench_tellers  |           139264
 2017-02-08 23:17:25.331474+01 | 1486592245.33147 | pgbench_history  |                0
 2017-02-08 23:17:25.331474+01 | 1486592245.33147 | pgbench_branches |            16384

 2017-02-08 23:17:26.544616+01 | 1486592246.54462 | pgbench_accounts |       4102979584
 2017-02-08 23:17:26.544616+01 | 1486592246.54462 | pgbench_tellers  |           139264
 2017-02-08 23:17:26.544616+01 | 1486592246.54462 | pgbench_history  |                0
 2017-02-08 23:17:26.544616+01 | 1486592246.54462 | pgbench_branches |            16384

 2017-02-08 23:17:27.734976+01 | 1486592247.73498 | pgbench_accounts |       4103135232
 2017-02-08 23:17:27.734976+01 | 1486592247.73498 | pgbench_tellers  |           139264
 2017-02-08 23:17:27.734976+01 | 1486592247.73498 | pgbench_history  |                0
 2017-02-08 23:17:27.734976+01 | 1486592247.73498 | pgbench_branches |            16384

 2017-02-08 23:17:28.918112+01 | 1486592248.91811 | pgbench_accounts |       4103290880
 2017-02-08 23:17:28.918112+01 | 1486592248.91811 | pgbench_tellers  |           139264
 2017-02-08 23:17:28.918112+01 | 1486592248.91811 | pgbench_history  |                0
 2017-02-08 23:17:28.918112+01 | 1486592248.91811 | pgbench_branches |            16384

 2017-02-08 23:17:30.0787+01 | 1486592250.0787 | pgbench_accounts |       4103438336
 2017-02-08 23:17:30.0787+01 | 1486592250.0787 | pgbench_tellers  |           139264
 2017-02-08 23:17:30.0787+01 | 1486592250.0787 | pgbench_history  |                0
 2017-02-08 23:17:30.0787+01 | 1486592250.0787 | pgbench_branches |            16384

 2017-02-08 23:17:31.260577+01 | 1486592251.26058 | pgbench_accounts |       4103569408
 2017-02-08 23:17:31.260577+01 | 1486592251.26058 | pgbench_tellers  |           139264
 2017-02-08 23:17:31.260577+01 | 1486592251.26058 | pgbench_history  |                0
 2017-02-08 23:17:31.260577+01 | 1486592251.26058 | pgbench_branches |            16384

 2017-02-08 23:17:32.444443+01 | 1486592252.44444 | pgbench_accounts |       4103725056
 2017-02-08 23:17:32.444443+01 | 1486592252.44444 | pgbench_tellers  |           139264
 2017-02-08 23:17:32.444443+01 | 1486592252.44444 | pgbench_history  |                0
 2017-02-08 23:17:32.444443+01 | 1486592252.44444 | pgbench_branches |            16384

 2017-02-08 23:17:33.604588+01 | 1486592253.60459 | pgbench_accounts |       4103872512
 2017-02-08 23:17:33.604588+01 | 1486592253.60459 | pgbench_tellers  |           139264
 2017-02-08 23:17:33.604588+01 | 1486592253.60459 | pgbench_history  |                0
 2017-02-08 23:17:33.604588+01 | 1486592253.60459 | pgbench_branches |            16384

 2017-02-08 23:17:34.742333+01 | 1486592254.74233 | pgbench_accounts |       4104003584
 2017-02-08 23:17:34.742333+01 | 1486592254.74233 | pgbench_tellers  |           139264
 2017-02-08 23:17:34.742333+01 | 1486592254.74233 | pgbench_history  |                0
 2017-02-08 23:17:34.742333+01 | 1486592254.74233 | pgbench_branches |            16384

 2017-02-08 23:17:35.984213+01 | 1486592255.98421 | pgbench_accounts |       4104142848
 2017-02-08 23:17:35.984213+01 | 1486592255.98421 | pgbench_tellers  |           139264
 2017-02-08 23:17:35.984213+01 | 1486592255.98421 | pgbench_history  |                0
 2017-02-08 23:17:35.984213+01 | 1486592255.98421 | pgbench_branches |            16384

 2017-02-08 23:17:37.181136+01 | 1486592257.18114 | pgbench_accounts |       4104273920
 2017-02-08 23:17:37.181136+01 | 1486592257.18114 | pgbench_tellers  |           139264
 2017-02-08 23:17:37.181136+01 | 1486592257.18114 | pgbench_history  |                0
 2017-02-08 23:17:37.181136+01 | 1486592257.18114 | pgbench_branches |            16384

 2017-02-08 23:17:38.438527+01 | 1486592258.43853 | pgbench_accounts |       4104445952
 2017-02-08 23:17:38.438527+01 | 1486592258.43853 | pgbench_tellers  |           139264
 2017-02-08 23:17:38.438527+01 | 1486592258.43853 | pgbench_history  |                0
 2017-02-08 23:17:38.438527+01 | 1486592258.43853 | pgbench_branches |            16384

 2017-02-08 23:17:39.584021+01 | 1486592259.58402 | pgbench_accounts |       4104577024
 2017-02-08 23:17:39.584021+01 | 1486592259.58402 | pgbench_tellers  |           139264
 2017-02-08 23:17:39.584021+01 | 1486592259.58402 | pgbench_history  |                0
 2017-02-08 23:17:39.584021+01 | 1486592259.58402 | pgbench_branches |            16384

 2017-02-08 23:17:40.767895+01 | 1486592260.76789 | pgbench_accounts |       4104708096
 2017-02-08 23:17:40.767895+01 | 1486592260.76789 | pgbench_tellers  |           139264
 2017-02-08 23:17:40.767895+01 | 1486592260.76789 | pgbench_history  |                0
 2017-02-08 23:17:40.767895+01 | 1486592260.76789 | pgbench_branches |            16384

 2017-02-08 23:17:41.970771+01 | 1486592261.97077 | pgbench_accounts |       4104855552
 2017-02-08 23:17:41.970771+01 | 1486592261.97077 | pgbench_tellers  |           139264
 2017-02-08 23:17:41.970771+01 | 1486592261.97077 | pgbench_history  |                0
 2017-02-08 23:17:41.970771+01 | 1486592261.97077 | pgbench_branches |            16384

 2017-02-08 23:17:43.169131+01 | 1486592263.16913 | pgbench_accounts |       4104970240
 2017-02-08 23:17:43.169131+01 | 1486592263.16913 | pgbench_tellers  |           139264
 2017-02-08 23:17:43.169131+01 | 1486592263.16913 | pgbench_history  |                0
 2017-02-08 23:17:43.169131+01 | 1486592263.16913 | pgbench_branches |            16384

 2017-02-08 23:17:44.355432+01 | 1486592264.35543 | pgbench_accounts |       4105093120
 2017-02-08 23:17:44.355432+01 | 1486592264.35543 | pgbench_tellers  |           139264
 2017-02-08 23:17:44.355432+01 | 1486592264.35543 | pgbench_history  |                0
 2017-02-08 23:17:44.355432+01 | 1486592264.35543 | pgbench_branches |            16384

 2017-02-08 23:17:45.563345+01 | 1486592265.56334 | pgbench_accounts |       4105224192
 2017-02-08 23:17:45.563345+01 | 1486592265.56334 | pgbench_tellers  |           139264
 2017-02-08 23:17:45.563345+01 | 1486592265.56334 | pgbench_history  |                0
 2017-02-08 23:17:45.563345+01 | 1486592265.56334 | pgbench_branches |            16384

 2017-02-08 23:17:46.760361+01 | 1486592266.76036 | pgbench_accounts |       4105338880
 2017-02-08 23:17:46.760361+01 | 1486592266.76036 | pgbench_tellers  |           139264
 2017-02-08 23:17:46.760361+01 | 1486592266.76036 | pgbench_history  |                0
 2017-02-08 23:17:46.760361+01 | 1486592266.76036 | pgbench_branches |            16384

 2017-02-08 23:17:47.930556+01 | 1486592267.93056 | pgbench_accounts |       4105469952
 2017-02-08 23:17:47.930556+01 | 1486592267.93056 | pgbench_tellers  |           139264
 2017-02-08 23:17:47.930556+01 | 1486592267.93056 | pgbench_history  |                0
 2017-02-08 23:17:47.930556+01 | 1486592267.93056 | pgbench_branches |            16384

 2017-02-08 23:17:49.153235+01 | 1486592269.15323 | pgbench_accounts |       4105592832
 2017-02-08 23:17:49.153235+01 | 1486592269.15323 | pgbench_tellers  |           139264
 2017-02-08 23:17:49.153235+01 | 1486592269.15323 | pgbench_history  |                0
 2017-02-08 23:17:49.153235+01 | 1486592269.15323 | pgbench_branches |            16384

 2017-02-08 23:17:50.360881+01 | 1486592270.36088 | pgbench_accounts |       4105732096
 2017-02-08 23:17:50.360881+01 | 1486592270.36088 | pgbench_tellers  |           139264
 2017-02-08 23:17:50.360881+01 | 1486592270.36088 | pgbench_history  |                0
 2017-02-08 23:17:50.360881+01 | 1486592270.36088 | pgbench_branches |            16384

 2017-02-08 23:17:51.567505+01 | 1486592271.5675 | pgbench_accounts |       4105854976
 2017-02-08 23:17:51.567505+01 | 1486592271.5675 | pgbench_tellers  |           139264
 2017-02-08 23:17:51.567505+01 | 1486592271.5675 | pgbench_history  |                0
 2017-02-08 23:17:51.567505+01 | 1486592271.5675 | pgbench_branches |            16384

 2017-02-08 23:17:52.733713+01 | 1486592272.73371 | pgbench_accounts |       4105953280
 2017-02-08 23:17:52.733713+01 | 1486592272.73371 | pgbench_tellers  |           139264
 2017-02-08 23:17:52.733713+01 | 1486592272.73371 | pgbench_history  |                0
 2017-02-08 23:17:52.733713+01 | 1486592272.73371 | pgbench_branches |            16384

 2017-02-08 23:17:53.888242+01 | 1486592273.88824 | pgbench_accounts |       4106043392
 2017-02-08 23:17:53.888242+01 | 1486592273.88824 | pgbench_tellers  |           139264
 2017-02-08 23:17:53.888242+01 | 1486592273.88824 | pgbench_history  |                0
 2017-02-08 23:17:53.888242+01 | 1486592273.88824 | pgbench_branches |            16384

 2017-02-08 23:17:55.127576+01 | 1486592275.12758 | pgbench_accounts |       4106166272
 2017-02-08 23:17:55.127576+01 | 1486592275.12758 | pgbench_tellers  |           139264
 2017-02-08 23:17:55.127576+01 | 1486592275.12758 | pgbench_history  |                0
 2017-02-08 23:17:55.127576+01 | 1486592275.12758 | pgbench_branches |            16384

 2017-02-08 23:17:56.338364+01 | 1486592276.33836 | pgbench_accounts |       4106305536
 2017-02-08 23:17:56.338364+01 | 1486592276.33836 | pgbench_tellers  |           139264
 2017-02-08 23:17:56.338364+01 | 1486592276.33836 | pgbench_history  |                0
 2017-02-08 23:17:56.338364+01 | 1486592276.33836 | pgbench_branches |            16384

 2017-02-08 23:17:57.595427+01 | 1486592277.59543 | pgbench_accounts |       4106412032
 2017-02-08 23:17:57.595427+01 | 1486592277.59543 | pgbench_tellers  |           139264
 2017-02-08 23:17:57.595427+01 | 1486592277.59543 | pgbench_history  |                0
 2017-02-08 23:17:57.595427+01 | 1486592277.59543 | pgbench_branches |            16384

 2017-02-08 23:17:58.768012+01 | 1486592278.76801 | pgbench_accounts |       4106526720
 2017-02-08 23:17:58.768012+01 | 1486592278.76801 | pgbench_tellers  |           139264
 2017-02-08 23:17:58.768012+01 | 1486592278.76801 | pgbench_history  |                0
 2017-02-08 23:17:58.768012+01 | 1486592278.76801 | pgbench_branches |            16384

 2017-02-08 23:17:59.94779+01 | 1486592279.94779 | pgbench_accounts |       4106649600
 2017-02-08 23:17:59.94779+01 | 1486592279.94779 | pgbench_tellers  |           139264
 2017-02-08 23:17:59.94779+01 | 1486592279.94779 | pgbench_history  |                0
 2017-02-08 23:17:59.94779+01 | 1486592279.94779 | pgbench_branches |            16384

 2017-02-08 23:18:01.191358+01 | 1486592281.19136 | pgbench_accounts |       4106756096
 2017-02-08 23:18:01.191358+01 | 1486592281.19136 | pgbench_tellers  |           139264
 2017-02-08 23:18:01.191358+01 | 1486592281.19136 | pgbench_history  |                0
 2017-02-08 23:18:01.191358+01 | 1486592281.19136 | pgbench_branches |            16384

 2017-02-08 23:18:02.450867+01 | 1486592282.45087 | pgbench_accounts |       4106878976
 2017-02-08 23:18:02.450867+01 | 1486592282.45087 | pgbench_tellers  |           139264
 2017-02-08 23:18:02.450867+01 | 1486592282.45087 | pgbench_history  |                0
 2017-02-08 23:18:02.450867+01 | 1486592282.45087 | pgbench_branches |            16384

 2017-02-08 23:18:03.644929+01 | 1486592283.64493 | pgbench_accounts |       4106993664
 2017-02-08 23:18:03.644929+01 | 1486592283.64493 | pgbench_tellers  |           139264
 2017-02-08 23:18:03.644929+01 | 1486592283.64493 | pgbench_history  |                0
 2017-02-08 23:18:03.644929+01 | 1486592283.64493 | pgbench_branches |            16384

 2017-02-08 23:18:04.890263+01 | 1486592284.89026 | pgbench_accounts |       4107116544
 2017-02-08 23:18:04.890263+01 | 1486592284.89026 | pgbench_tellers  |           139264
 2017-02-08 23:18:04.890263+01 | 1486592284.89026 | pgbench_history  |                0
 2017-02-08 23:18:04.890263+01 | 1486592284.89026 | pgbench_branches |            16384

 2017-02-08 23:18:06.061248+01 | 1486592286.06125 | pgbench_accounts |       4107239424
 2017-02-08 23:18:06.061248+01 | 1486592286.06125 | pgbench_tellers  |           139264
 2017-02-08 23:18:06.061248+01 | 1486592286.06125 | pgbench_history  |                0
 2017-02-08 23:18:06.061248+01 | 1486592286.06125 | pgbench_branches |            16384

 2017-02-08 23:18:07.25189+01 | 1486592287.25189 | pgbench_accounts |       4107321344
 2017-02-08 23:18:07.25189+01 | 1486592287.25189 | pgbench_tellers  |           139264
 2017-02-08 23:18:07.25189+01 | 1486592287.25189 | pgbench_history  |                0
 2017-02-08 23:18:07.25189+01 | 1486592287.25189 | pgbench_branches |            16384

 2017-02-08 23:18:08.420592+01 | 1486592288.42059 | pgbench_accounts |       4107427840
 2017-02-08 23:18:08.420592+01 | 1486592288.42059 | pgbench_tellers  |           139264
 2017-02-08 23:18:08.420592+01 | 1486592288.42059 | pgbench_history  |                0
 2017-02-08 23:18:08.420592+01 | 1486592288.42059 | pgbench_branches |            16384

 2017-02-08 23:18:09.617788+01 | 1486592289.61779 | pgbench_accounts |       4107534336
 2017-02-08 23:18:09.617788+01 | 1486592289.61779 | pgbench_tellers  |           139264
 2017-02-08 23:18:09.617788+01 | 1486592289.61779 | pgbench_history  |                0
 2017-02-08 23:18:09.617788+01 | 1486592289.61779 | pgbench_branches |            16384

 2017-02-08 23:18:10.808366+01 | 1486592290.80837 | pgbench_accounts |       4107665408
 2017-02-08 23:18:10.808366+01 | 1486592290.80837 | pgbench_tellers  |           139264
 2017-02-08 23:18:10.808366+01 | 1486592290.80837 | pgbench_history  |                0
 2017-02-08 23:18:10.808366+01 | 1486592290.80837 | pgbench_branches |            16384

 2017-02-08 23:18:12.032701+01 | 1486592292.0327 | pgbench_accounts |       4107771904
 2017-02-08 23:18:12.032701+01 | 1486592292.0327 | pgbench_tellers  |           139264
 2017-02-08 23:18:12.032701+01 | 1486592292.0327 | pgbench_history  |                0
 2017-02-08 23:18:12.032701+01 | 1486592292.0327 | pgbench_branches |            16384

 2017-02-08 23:18:13.191861+01 | 1486592293.19186 | pgbench_accounts |       4107845632
 2017-02-08 23:18:13.191861+01 | 1486592293.19186 | pgbench_tellers  |           139264
 2017-02-08 23:18:13.191861+01 | 1486592293.19186 | pgbench_history  |                0
 2017-02-08 23:18:13.191861+01 | 1486592293.19186 | pgbench_branches |            16384

 2017-02-08 23:18:14.309597+01 | 1486592294.3096 | pgbench_accounts |       4107952128
 2017-02-08 23:18:14.309597+01 | 1486592294.3096 | pgbench_tellers  |           139264
 2017-02-08 23:18:14.309597+01 | 1486592294.3096 | pgbench_history  |                0
 2017-02-08 23:18:14.309597+01 | 1486592294.3096 | pgbench_branches |            16384

 2017-02-08 23:18:15.449342+01 | 1486592295.44934 | pgbench_accounts |       4108058624
 2017-02-08 23:18:15.449342+01 | 1486592295.44934 | pgbench_tellers  |           139264
 2017-02-08 23:18:15.449342+01 | 1486592295.44934 | pgbench_history  |                0
 2017-02-08 23:18:15.449342+01 | 1486592295.44934 | pgbench_branches |            16384

 2017-02-08 23:18:16.564103+01 | 1486592296.5641 | pgbench_accounts |       4108148736
 2017-02-08 23:18:16.564103+01 | 1486592296.5641 | pgbench_tellers  |           139264
 2017-02-08 23:18:16.564103+01 | 1486592296.5641 | pgbench_history  |                0
 2017-02-08 23:18:16.564103+01 | 1486592296.5641 | pgbench_branches |            16384

 2017-02-08 23:18:17.716589+01 | 1486592297.71659 | pgbench_accounts |       4108238848
 2017-02-08 23:18:17.716589+01 | 1486592297.71659 | pgbench_tellers  |           139264
 2017-02-08 23:18:17.716589+01 | 1486592297.71659 | pgbench_history  |                0
 2017-02-08 23:18:17.716589+01 | 1486592297.71659 | pgbench_branches |            16384

 2017-02-08 23:18:18.881355+01 | 1486592298.88136 | pgbench_accounts |       4108353536
 2017-02-08 23:18:18.881355+01 | 1486592298.88136 | pgbench_tellers  |           139264
 2017-02-08 23:18:18.881355+01 | 1486592298.88136 | pgbench_history  |                0
 2017-02-08 23:18:18.881355+01 | 1486592298.88136 | pgbench_branches |            16384

 2017-02-08 23:18:20.019015+01 | 1486592300.01902 | pgbench_accounts |       4108443648
 2017-02-08 23:18:20.019015+01 | 1486592300.01902 | pgbench_tellers  |           139264
 2017-02-08 23:18:20.019015+01 | 1486592300.01902 | pgbench_history  |                0
 2017-02-08 23:18:20.019015+01 | 1486592300.01902 | pgbench_branches |            16384

 2017-02-08 23:18:21.155259+01 | 1486592301.15526 | pgbench_accounts |       4108533760
 2017-02-08 23:18:21.155259+01 | 1486592301.15526 | pgbench_tellers  |           139264
 2017-02-08 23:18:21.155259+01 | 1486592301.15526 | pgbench_history  |                0
 2017-02-08 23:18:21.155259+01 | 1486592301.15526 | pgbench_branches |            16384

 2017-02-08 23:18:22.355825+01 | 1486592302.35582 | pgbench_accounts |       4108632064
 2017-02-08 23:18:22.355825+01 | 1486592302.35582 | pgbench_tellers  |           139264
 2017-02-08 23:18:22.355825+01 | 1486592302.35582 | pgbench_history  |                0
 2017-02-08 23:18:22.355825+01 | 1486592302.35582 | pgbench_branches |            16384

 2017-02-08 23:18:23.549862+01 | 1486592303.54986 | pgbench_accounts |       4108730368
 2017-02-08 23:18:23.549862+01 | 1486592303.54986 | pgbench_tellers  |           139264
 2017-02-08 23:18:23.549862+01 | 1486592303.54986 | pgbench_history  |                0
 2017-02-08 23:18:23.549862+01 | 1486592303.54986 | pgbench_branches |            16384

 2017-02-08 23:18:24.745353+01 | 1486592304.74535 | pgbench_accounts |       4108845056
 2017-02-08 23:18:24.745353+01 | 1486592304.74535 | pgbench_tellers  |           139264
 2017-02-08 23:18:24.745353+01 | 1486592304.74535 | pgbench_history  |                0
 2017-02-08 23:18:24.745353+01 | 1486592304.74535 | pgbench_branches |            16384

 2017-02-08 23:18:25.873385+01 | 1486592305.87338 | pgbench_accounts |       4108910592
 2017-02-08 23:18:25.873385+01 | 1486592305.87338 | pgbench_tellers  |           139264
 2017-02-08 23:18:25.873385+01 | 1486592305.87338 | pgbench_history  |                0
 2017-02-08 23:18:25.873385+01 | 1486592305.87338 | pgbench_branches |            16384

 2017-02-08 23:18:27.046792+01 | 1486592307.04679 | pgbench_accounts |       4109008896
 2017-02-08 23:18:27.046792+01 | 1486592307.04679 | pgbench_tellers  |           139264
 2017-02-08 23:18:27.046792+01 | 1486592307.04679 | pgbench_history  |                0
 2017-02-08 23:18:27.046792+01 | 1486592307.04679 | pgbench_branches |            16384

 2017-02-08 23:18:28.19422+01 | 1486592308.19422 | pgbench_accounts |       4109107200
 2017-02-08 23:18:28.19422+01 | 1486592308.19422 | pgbench_tellers  |           139264
 2017-02-08 23:18:28.19422+01 | 1486592308.19422 | pgbench_history  |                0
 2017-02-08 23:18:28.19422+01 | 1486592308.19422 | pgbench_branches |            16384

 2017-02-08 23:18:29.397289+01 | 1486592309.39729 | pgbench_accounts |       4109221888
 2017-02-08 23:18:29.397289+01 | 1486592309.39729 | pgbench_tellers  |           139264
 2017-02-08 23:18:29.397289+01 | 1486592309.39729 | pgbench_history  |                0
 2017-02-08 23:18:29.397289+01 | 1486592309.39729 | pgbench_branches |            16384

 2017-02-08 23:18:30.606275+01 | 1486592310.60628 | pgbench_accounts |       4109328384
 2017-02-08 23:18:30.606275+01 | 1486592310.60628 | pgbench_tellers  |           139264
 2017-02-08 23:18:30.606275+01 | 1486592310.60628 | pgbench_history  |                0
 2017-02-08 23:18:30.606275+01 | 1486592310.60628 | pgbench_branches |            16384

 2017-02-08 23:18:31.782376+01 | 1486592311.78238 | pgbench_accounts |       4109418496
 2017-02-08 23:18:31.782376+01 | 1486592311.78238 | pgbench_tellers  |           139264
 2017-02-08 23:18:31.782376+01 | 1486592311.78238 | pgbench_history  |                0
 2017-02-08 23:18:31.782376+01 | 1486592311.78238 | pgbench_branches |            16384

 2017-02-08 23:18:32.988088+01 | 1486592312.98809 | pgbench_accounts |       4109516800
 2017-02-08 23:18:32.988088+01 | 1486592312.98809 | pgbench_tellers  |           139264
 2017-02-08 23:18:32.988088+01 | 1486592312.98809 | pgbench_history  |                0
 2017-02-08 23:18:32.988088+01 | 1486592312.98809 | pgbench_branches |            16384

 2017-02-08 23:18:34.203192+01 | 1486592314.20319 | pgbench_accounts |       4109598720
 2017-02-08 23:18:34.203192+01 | 1486592314.20319 | pgbench_tellers  |           139264
 2017-02-08 23:18:34.203192+01 | 1486592314.20319 | pgbench_history  |                0
 2017-02-08 23:18:34.203192+01 | 1486592314.20319 | pgbench_branches |            16384

 2017-02-08 23:18:35.381885+01 | 1486592315.38189 | pgbench_accounts |       4109721600
 2017-02-08 23:18:35.381885+01 | 1486592315.38189 | pgbench_tellers  |           139264
 2017-02-08 23:18:35.381885+01 | 1486592315.38189 | pgbench_history  |                0
 2017-02-08 23:18:35.381885+01 | 1486592315.38189 | pgbench_branches |            16384

 2017-02-08 23:18:36.522375+01 | 1486592316.52238 | pgbench_accounts |       4109795328
 2017-02-08 23:18:36.522375+01 | 1486592316.52238 | pgbench_tellers  |           139264
 2017-02-08 23:18:36.522375+01 | 1486592316.52238 | pgbench_history  |                0
 2017-02-08 23:18:36.522375+01 | 1486592316.52238 | pgbench_branches |            16384

 2017-02-08 23:18:37.780942+01 | 1486592317.78094 | pgbench_accounts |       4109893632
 2017-02-08 23:18:37.780942+01 | 1486592317.78094 | pgbench_tellers  |           139264
 2017-02-08 23:18:37.780942+01 | 1486592317.78094 | pgbench_history  |                0
 2017-02-08 23:18:37.780942+01 | 1486592317.78094 | pgbench_branches |            16384

 2017-02-08 23:18:38.922984+01 | 1486592318.92298 | pgbench_accounts |       4109967360
 2017-02-08 23:18:38.922984+01 | 1486592318.92298 | pgbench_tellers  |           139264
 2017-02-08 23:18:38.922984+01 | 1486592318.92298 | pgbench_history  |                0
 2017-02-08 23:18:38.922984+01 | 1486592318.92298 | pgbench_branches |            16384

 2017-02-08 23:18:40.14401+01 | 1486592320.14401 | pgbench_accounts |       4110073856
 2017-02-08 23:18:40.14401+01 | 1486592320.14401 | pgbench_tellers  |           139264
 2017-02-08 23:18:40.14401+01 | 1486592320.14401 | pgbench_history  |                0
 2017-02-08 23:18:40.14401+01 | 1486592320.14401 | pgbench_branches |            16384

 2017-02-08 23:18:41.374916+01 | 1486592321.37492 | pgbench_accounts |       4110163968
 2017-02-08 23:18:41.374916+01 | 1486592321.37492 | pgbench_tellers  |           139264
 2017-02-08 23:18:41.374916+01 | 1486592321.37492 | pgbench_history  |                0
 2017-02-08 23:18:41.374916+01 | 1486592321.37492 | pgbench_branches |            16384

 2017-02-08 23:18:42.588458+01 | 1486592322.58846 | pgbench_accounts |       4110254080
 2017-02-08 23:18:42.588458+01 | 1486592322.58846 | pgbench_tellers  |           139264
 2017-02-08 23:18:42.588458+01 | 1486592322.58846 | pgbench_history  |                0
 2017-02-08 23:18:42.588458+01 | 1486592322.58846 | pgbench_branches |            16384

 2017-02-08 23:18:43.852529+01 | 1486592323.85253 | pgbench_accounts |       4110336000
 2017-02-08 23:18:43.852529+01 | 1486592323.85253 | pgbench_tellers  |           139264
 2017-02-08 23:18:43.852529+01 | 1486592323.85253 | pgbench_history  |                0
 2017-02-08 23:18:43.852529+01 | 1486592323.85253 | pgbench_branches |            16384

 2017-02-08 23:18:45.029573+01 | 1486592325.02957 | pgbench_accounts |       4110442496
 2017-02-08 23:18:45.029573+01 | 1486592325.02957 | pgbench_tellers  |           139264
 2017-02-08 23:18:45.029573+01 | 1486592325.02957 | pgbench_history  |                0
 2017-02-08 23:18:45.029573+01 | 1486592325.02957 | pgbench_branches |            16384

 2017-02-08 23:18:46.245704+01 | 1486592326.2457 | pgbench_accounts |       4110524416
 2017-02-08 23:18:46.245704+01 | 1486592326.2457 | pgbench_tellers  |           139264
 2017-02-08 23:18:46.245704+01 | 1486592326.2457 | pgbench_history  |                0
 2017-02-08 23:18:46.245704+01 | 1486592326.2457 | pgbench_branches |            16384

 2017-02-08 23:18:47.491845+01 | 1486592327.49184 | pgbench_accounts |       4110606336
 2017-02-08 23:18:47.491845+01 | 1486592327.49184 | pgbench_tellers  |           139264
 2017-02-08 23:18:47.491845+01 | 1486592327.49184 | pgbench_history  |                0
 2017-02-08 23:18:47.491845+01 | 1486592327.49184 | pgbench_branches |            16384

 2017-02-08 23:18:48.707609+01 | 1486592328.70761 | pgbench_accounts |       4110712832
 2017-02-08 23:18:48.707609+01 | 1486592328.70761 | pgbench_tellers  |           139264
 2017-02-08 23:18:48.707609+01 | 1486592328.70761 | pgbench_history  |                0
 2017-02-08 23:18:48.707609+01 | 1486592328.70761 | pgbench_branches |            16384

 2017-02-08 23:18:49.925939+01 | 1486592329.92594 | pgbench_accounts |       4110819328
 2017-02-08 23:18:49.925939+01 | 1486592329.92594 | pgbench_tellers  |           139264
 2017-02-08 23:18:49.925939+01 | 1486592329.92594 | pgbench_history  |                0
 2017-02-08 23:18:49.925939+01 | 1486592329.92594 | pgbench_branches |            16384

 2017-02-08 23:18:51.148525+01 | 1486592331.14852 | pgbench_accounts |       4110868480
 2017-02-08 23:18:51.148525+01 | 1486592331.14852 | pgbench_tellers  |           139264
 2017-02-08 23:18:51.148525+01 | 1486592331.14852 | pgbench_history  |                0
 2017-02-08 23:18:51.148525+01 | 1486592331.14852 | pgbench_branches |            16384

 2017-02-08 23:18:52.276448+01 | 1486592332.27645 | pgbench_accounts |       4110974976
 2017-02-08 23:18:52.276448+01 | 1486592332.27645 | pgbench_tellers  |           139264
 2017-02-08 23:18:52.276448+01 | 1486592332.27645 | pgbench_history  |                0
 2017-02-08 23:18:52.276448+01 | 1486592332.27645 | pgbench_branches |            16384

 2017-02-08 23:18:53.447685+01 | 1486592333.44769 | pgbench_accounts |       4111056896
 2017-02-08 23:18:53.447685+01 | 1486592333.44769 | pgbench_tellers  |           139264
 2017-02-08 23:18:53.447685+01 | 1486592333.44769 | pgbench_history  |                0
 2017-02-08 23:18:53.447685+01 | 1486592333.44769 | pgbench_branches |            16384

 2017-02-08 23:18:54.626011+01 | 1486592334.62601 | pgbench_accounts |       4111130624
 2017-02-08 23:18:54.626011+01 | 1486592334.62601 | pgbench_tellers  |           139264
 2017-02-08 23:18:54.626011+01 | 1486592334.62601 | pgbench_history  |                0
 2017-02-08 23:18:54.626011+01 | 1486592334.62601 | pgbench_branches |            16384

 2017-02-08 23:18:55.796025+01 | 1486592335.79603 | pgbench_accounts |       4111237120
 2017-02-08 23:18:55.796025+01 | 1486592335.79603 | pgbench_tellers  |           139264
 2017-02-08 23:18:55.796025+01 | 1486592335.79603 | pgbench_history  |                0
 2017-02-08 23:18:55.796025+01 | 1486592335.79603 | pgbench_branches |            16384

 2017-02-08 23:18:57.023284+01 | 1486592337.02328 | pgbench_accounts |       4111310848
 2017-02-08 23:18:57.023284+01 | 1486592337.02328 | pgbench_tellers  |           139264
 2017-02-08 23:18:57.023284+01 | 1486592337.02328 | pgbench_history  |                0
 2017-02-08 23:18:57.023284+01 | 1486592337.02328 | pgbench_branches |            16384

 2017-02-08 23:18:58.260995+01 | 1486592338.26099 | pgbench_accounts |       4111392768
 2017-02-08 23:18:58.260995+01 | 1486592338.26099 | pgbench_tellers  |           139264
 2017-02-08 23:18:58.260995+01 | 1486592338.26099 | pgbench_history  |                0
 2017-02-08 23:18:58.260995+01 | 1486592338.26099 | pgbench_branches |            16384

 2017-02-08 23:18:59.495103+01 | 1486592339.4951 | pgbench_accounts |       4111491072
 2017-02-08 23:18:59.495103+01 | 1486592339.4951 | pgbench_tellers  |           139264
 2017-02-08 23:18:59.495103+01 | 1486592339.4951 | pgbench_history  |                0
 2017-02-08 23:18:59.495103+01 | 1486592339.4951 | pgbench_branches |            16384

 2017-02-08 23:19:00.718307+01 | 1486592340.71831 | pgbench_accounts |       4111572992
 2017-02-08 23:19:00.718307+01 | 1486592340.71831 | pgbench_tellers  |           139264
 2017-02-08 23:19:00.718307+01 | 1486592340.71831 | pgbench_history  |                0
 2017-02-08 23:19:00.718307+01 | 1486592340.71831 | pgbench_branches |            16384

 2017-02-08 23:19:01.928852+01 | 1486592341.92885 | pgbench_accounts |       4111646720
 2017-02-08 23:19:01.928852+01 | 1486592341.92885 | pgbench_tellers  |           139264
 2017-02-08 23:19:01.928852+01 | 1486592341.92885 | pgbench_history  |                0
 2017-02-08 23:19:01.928852+01 | 1486592341.92885 | pgbench_branches |            16384

 2017-02-08 23:19:03.186165+01 | 1486592343.18617 | pgbench_accounts |       4111736832
 2017-02-08 23:19:03.186165+01 | 1486592343.18617 | pgbench_tellers  |           139264
 2017-02-08 23:19:03.186165+01 | 1486592343.18617 | pgbench_history  |                0
 2017-02-08 23:19:03.186165+01 | 1486592343.18617 | pgbench_branches |            16384

 2017-02-08 23:19:04.366054+01 | 1486592344.36605 | pgbench_accounts |       4111810560
 2017-02-08 23:19:04.366054+01 | 1486592344.36605 | pgbench_tellers  |           139264
 2017-02-08 23:19:04.366054+01 | 1486592344.36605 | pgbench_history  |                0
 2017-02-08 23:19:04.366054+01 | 1486592344.36605 | pgbench_branches |            16384

 2017-02-08 23:19:05.604518+01 | 1486592345.60452 | pgbench_accounts |       4111900672
 2017-02-08 23:19:05.604518+01 | 1486592345.60452 | pgbench_tellers  |           139264
 2017-02-08 23:19:05.604518+01 | 1486592345.60452 | pgbench_history  |                0
 2017-02-08 23:19:05.604518+01 | 1486592345.60452 | pgbench_branches |            16384

 2017-02-08 23:19:06.857311+01 | 1486592346.85731 | pgbench_accounts |       4111974400
 2017-02-08 23:19:06.857311+01 | 1486592346.85731 | pgbench_tellers  |           139264
 2017-02-08 23:19:06.857311+01 | 1486592346.85731 | pgbench_history  |                0
 2017-02-08 23:19:06.857311+01 | 1486592346.85731 | pgbench_branches |            16384

 2017-02-08 23:19:08.031124+01 | 1486592348.03112 | pgbench_accounts |       4112048128
 2017-02-08 23:19:08.031124+01 | 1486592348.03112 | pgbench_tellers  |           139264
 2017-02-08 23:19:08.031124+01 | 1486592348.03112 | pgbench_history  |                0
 2017-02-08 23:19:08.031124+01 | 1486592348.03112 | pgbench_branches |            16384

 2017-02-08 23:19:09.277675+01 | 1486592349.27767 | pgbench_accounts |       4112121856
 2017-02-08 23:19:09.277675+01 | 1486592349.27767 | pgbench_tellers  |           139264
 2017-02-08 23:19:09.277675+01 | 1486592349.27767 | pgbench_history  |                0
 2017-02-08 23:19:09.277675+01 | 1486592349.27767 | pgbench_branches |            16384

 2017-02-08 23:19:10.480061+01 | 1486592350.48006 | pgbench_accounts |       4112220160
 2017-02-08 23:19:10.480061+01 | 1486592350.48006 | pgbench_tellers  |           139264
 2017-02-08 23:19:10.480061+01 | 1486592350.48006 | pgbench_history  |                0
 2017-02-08 23:19:10.480061+01 | 1486592350.48006 | pgbench_branches |            16384

 2017-02-08 23:19:11.661981+01 | 1486592351.66198 | pgbench_accounts |       4112293888
 2017-02-08 23:19:11.661981+01 | 1486592351.66198 | pgbench_tellers  |           139264
 2017-02-08 23:19:11.661981+01 | 1486592351.66198 | pgbench_history  |                0
 2017-02-08 23:19:11.661981+01 | 1486592351.66198 | pgbench_branches |            16384

 2017-02-08 23:19:12.864691+01 | 1486592352.86469 | pgbench_accounts |       4112351232
 2017-02-08 23:19:12.864691+01 | 1486592352.86469 | pgbench_tellers  |           139264
 2017-02-08 23:19:12.864691+01 | 1486592352.86469 | pgbench_history  |                0
 2017-02-08 23:19:12.864691+01 | 1486592352.86469 | pgbench_branches |            16384

 2017-02-08 23:19:14.040454+01 | 1486592354.04045 | pgbench_accounts |       4112433152
 2017-02-08 23:19:14.040454+01 | 1486592354.04045 | pgbench_tellers  |           139264
 2017-02-08 23:19:14.040454+01 | 1486592354.04045 | pgbench_history  |                0
 2017-02-08 23:19:14.040454+01 | 1486592354.04045 | pgbench_branches |            16384

 2017-02-08 23:19:15.18382+01 | 1486592355.18382 | pgbench_accounts |       4112515072
 2017-02-08 23:19:15.18382+01 | 1486592355.18382 | pgbench_tellers  |           139264
 2017-02-08 23:19:15.18382+01 | 1486592355.18382 | pgbench_history  |                0
 2017-02-08 23:19:15.18382+01 | 1486592355.18382 | pgbench_branches |            16384

 2017-02-08 23:19:16.366143+01 | 1486592356.36614 | pgbench_accounts |       4112588800
 2017-02-08 23:19:16.366143+01 | 1486592356.36614 | pgbench_tellers  |           139264
 2017-02-08 23:19:16.366143+01 | 1486592356.36614 | pgbench_history  |                0
 2017-02-08 23:19:16.366143+01 | 1486592356.36614 | pgbench_branches |            16384

 2017-02-08 23:19:17.58744+01 | 1486592357.58744 | pgbench_accounts |       4112654336
 2017-02-08 23:19:17.58744+01 | 1486592357.58744 | pgbench_tellers  |           139264
 2017-02-08 23:19:17.58744+01 | 1486592357.58744 | pgbench_history  |                0
 2017-02-08 23:19:17.58744+01 | 1486592357.58744 | pgbench_branches |            16384

 2017-02-08 23:19:18.784226+01 | 1486592358.78423 | pgbench_accounts |       4112744448
 2017-02-08 23:19:18.784226+01 | 1486592358.78423 | pgbench_tellers  |           139264
 2017-02-08 23:19:18.784226+01 | 1486592358.78423 | pgbench_history  |                0
 2017-02-08 23:19:18.784226+01 | 1486592358.78423 | pgbench_branches |            16384

 2017-02-08 23:19:19.959652+01 | 1486592359.95965 | pgbench_accounts |       4112826368
 2017-02-08 23:19:19.959652+01 | 1486592359.95965 | pgbench_tellers  |           139264
 2017-02-08 23:19:19.959652+01 | 1486592359.95965 | pgbench_history  |                0
 2017-02-08 23:19:19.959652+01 | 1486592359.95965 | pgbench_branches |            16384

 2017-02-08 23:19:21.196349+01 | 1486592361.19635 | pgbench_accounts |       4112883712
 2017-02-08 23:19:21.196349+01 | 1486592361.19635 | pgbench_tellers  |           139264
 2017-02-08 23:19:21.196349+01 | 1486592361.19635 | pgbench_history  |                0
 2017-02-08 23:19:21.196349+01 | 1486592361.19635 | pgbench_branches |            16384

 2017-02-08 23:19:22.337366+01 | 1486592362.33737 | pgbench_accounts |       4112973824
 2017-02-08 23:19:22.337366+01 | 1486592362.33737 | pgbench_tellers  |           139264
 2017-02-08 23:19:22.337366+01 | 1486592362.33737 | pgbench_history  |                0
 2017-02-08 23:19:22.337366+01 | 1486592362.33737 | pgbench_branches |            16384

 2017-02-08 23:19:23.503242+01 | 1486592363.50324 | pgbench_accounts |       4113031168
 2017-02-08 23:19:23.503242+01 | 1486592363.50324 | pgbench_tellers  |           139264
 2017-02-08 23:19:23.503242+01 | 1486592363.50324 | pgbench_history  |                0
 2017-02-08 23:19:23.503242+01 | 1486592363.50324 | pgbench_branches |            16384

 2017-02-08 23:19:24.682124+01 | 1486592364.68212 | pgbench_accounts |       4113137664
 2017-02-08 23:19:24.682124+01 | 1486592364.68212 | pgbench_tellers  |           139264
 2017-02-08 23:19:24.682124+01 | 1486592364.68212 | pgbench_history  |                0
 2017-02-08 23:19:24.682124+01 | 1486592364.68212 | pgbench_branches |            16384

 2017-02-08 23:19:25.944374+01 | 1486592365.94437 | pgbench_accounts |       4113203200
 2017-02-08 23:19:25.944374+01 | 1486592365.94437 | pgbench_tellers  |           139264
 2017-02-08 23:19:25.944374+01 | 1486592365.94437 | pgbench_history  |                0
 2017-02-08 23:19:25.944374+01 | 1486592365.94437 | pgbench_branches |            16384

 2017-02-08 23:19:27.175425+01 | 1486592367.17543 | pgbench_accounts |       4113268736
 2017-02-08 23:19:27.175425+01 | 1486592367.17543 | pgbench_tellers  |           139264
 2017-02-08 23:19:27.175425+01 | 1486592367.17543 | pgbench_history  |                0
 2017-02-08 23:19:27.175425+01 | 1486592367.17543 | pgbench_branches |            16384

 2017-02-08 23:19:28.3458+01 | 1486592368.3458 | pgbench_accounts |       4113342464
 2017-02-08 23:19:28.3458+01 | 1486592368.3458 | pgbench_tellers  |           139264
 2017-02-08 23:19:28.3458+01 | 1486592368.3458 | pgbench_history  |                0
 2017-02-08 23:19:28.3458+01 | 1486592368.3458 | pgbench_branches |            16384

 2017-02-08 23:19:29.533111+01 | 1486592369.53311 | pgbench_accounts |       4113408000
 2017-02-08 23:19:29.533111+01 | 1486592369.53311 | pgbench_tellers  |           139264
 2017-02-08 23:19:29.533111+01 | 1486592369.53311 | pgbench_history  |                0
 2017-02-08 23:19:29.533111+01 | 1486592369.53311 | pgbench_branches |            16384

 2017-02-08 23:19:30.802897+01 | 1486592370.8029 | pgbench_accounts |       4113514496
 2017-02-08 23:19:30.802897+01 | 1486592370.8029 | pgbench_tellers  |           139264
 2017-02-08 23:19:30.802897+01 | 1486592370.8029 | pgbench_history  |                0
 2017-02-08 23:19:30.802897+01 | 1486592370.8029 | pgbench_branches |            16384

 2017-02-08 23:19:31.992893+01 | 1486592371.99289 | pgbench_accounts |       4113539072
 2017-02-08 23:19:31.992893+01 | 1486592371.99289 | pgbench_tellers  |           139264
 2017-02-08 23:19:31.992893+01 | 1486592371.99289 | pgbench_history  |                0
 2017-02-08 23:19:31.992893+01 | 1486592371.99289 | pgbench_branches |            16384

 2017-02-08 23:19:33.259684+01 | 1486592373.25968 | pgbench_accounts |       4113629184
 2017-02-08 23:19:33.259684+01 | 1486592373.25968 | pgbench_tellers  |           139264
 2017-02-08 23:19:33.259684+01 | 1486592373.25968 | pgbench_history  |                0
 2017-02-08 23:19:33.259684+01 | 1486592373.25968 | pgbench_branches |            16384

 2017-02-08 23:19:34.50021+01 | 1486592374.50021 | pgbench_accounts |       4113702912
 2017-02-08 23:19:34.50021+01 | 1486592374.50021 | pgbench_tellers  |           139264
 2017-02-08 23:19:34.50021+01 | 1486592374.50021 | pgbench_history  |                0
 2017-02-08 23:19:34.50021+01 | 1486592374.50021 | pgbench_branches |            16384

 2017-02-08 23:19:35.658514+01 | 1486592375.65851 | pgbench_accounts |       4113784832
 2017-02-08 23:19:35.658514+01 | 1486592375.65851 | pgbench_tellers  |           139264
 2017-02-08 23:19:35.658514+01 | 1486592375.65851 | pgbench_history  |                0
 2017-02-08 23:19:35.658514+01 | 1486592375.65851 | pgbench_branches |            16384

 2017-02-08 23:19:36.770451+01 | 1486592376.77045 | pgbench_accounts |       4113833984
 2017-02-08 23:19:36.770451+01 | 1486592376.77045 | pgbench_tellers  |           139264
 2017-02-08 23:19:36.770451+01 | 1486592376.77045 | pgbench_history  |                0
 2017-02-08 23:19:36.770451+01 | 1486592376.77045 | pgbench_branches |            16384

 2017-02-08 23:19:37.933279+01 | 1486592377.93328 | pgbench_accounts |       4113915904
 2017-02-08 23:19:37.933279+01 | 1486592377.93328 | pgbench_tellers  |           139264
 2017-02-08 23:19:37.933279+01 | 1486592377.93328 | pgbench_history  |                0
 2017-02-08 23:19:37.933279+01 | 1486592377.93328 | pgbench_branches |            16384

 2017-02-08 23:19:39.161137+01 | 1486592379.16114 | pgbench_accounts |       4113965056
 2017-02-08 23:19:39.161137+01 | 1486592379.16114 | pgbench_tellers  |           139264
 2017-02-08 23:19:39.161137+01 | 1486592379.16114 | pgbench_history  |                0
 2017-02-08 23:19:39.161137+01 | 1486592379.16114 | pgbench_branches |            16384

 2017-02-08 23:19:40.3198+01 | 1486592380.3198 | pgbench_accounts |       4114071552
 2017-02-08 23:19:40.3198+01 | 1486592380.3198 | pgbench_tellers  |           139264
 2017-02-08 23:19:40.3198+01 | 1486592380.3198 | pgbench_history  |                0
 2017-02-08 23:19:40.3198+01 | 1486592380.3198 | pgbench_branches |            16384

 2017-02-08 23:19:41.471059+01 | 1486592381.47106 | pgbench_accounts |       4114096128
 2017-02-08 23:19:41.471059+01 | 1486592381.47106 | pgbench_tellers  |           139264
 2017-02-08 23:19:41.471059+01 | 1486592381.47106 | pgbench_history  |                0
 2017-02-08 23:19:41.471059+01 | 1486592381.47106 | pgbench_branches |            16384

 2017-02-08 23:19:42.652513+01 | 1486592382.65251 | pgbench_accounts |       4114186240
 2017-02-08 23:19:42.652513+01 | 1486592382.65251 | pgbench_tellers  |           139264
 2017-02-08 23:19:42.652513+01 | 1486592382.65251 | pgbench_history  |                0
 2017-02-08 23:19:42.652513+01 | 1486592382.65251 | pgbench_branches |            16384

 2017-02-08 23:19:43.841745+01 | 1486592383.84174 | pgbench_accounts |       4114235392
 2017-02-08 23:19:43.841745+01 | 1486592383.84174 | pgbench_tellers  |           139264
 2017-02-08 23:19:43.841745+01 | 1486592383.84174 | pgbench_history  |                0
 2017-02-08 23:19:43.841745+01 | 1486592383.84174 | pgbench_branches |            16384

 2017-02-08 23:19:45.104776+01 | 1486592385.10478 | pgbench_accounts |       4114325504
 2017-02-08 23:19:45.104776+01 | 1486592385.10478 | pgbench_tellers  |           139264
 2017-02-08 23:19:45.104776+01 | 1486592385.10478 | pgbench_history  |                0
 2017-02-08 23:19:45.104776+01 | 1486592385.10478 | pgbench_branches |            16384

 2017-02-08 23:19:46.371212+01 | 1486592386.37121 | pgbench_accounts |       4114382848
 2017-02-08 23:19:46.371212+01 | 1486592386.37121 | pgbench_tellers  |           139264
 2017-02-08 23:19:46.371212+01 | 1486592386.37121 | pgbench_history  |                0
 2017-02-08 23:19:46.371212+01 | 1486592386.37121 | pgbench_branches |            16384

 2017-02-08 23:19:47.645289+01 | 1486592387.64529 | pgbench_accounts |       4114472960
 2017-02-08 23:19:47.645289+01 | 1486592387.64529 | pgbench_tellers  |           139264
 2017-02-08 23:19:47.645289+01 | 1486592387.64529 | pgbench_history  |                0
 2017-02-08 23:19:47.645289+01 | 1486592387.64529 | pgbench_branches |            16384

 2017-02-08 23:19:48.825533+01 | 1486592388.82553 | pgbench_accounts |       4114522112
 2017-02-08 23:19:48.825533+01 | 1486592388.82553 | pgbench_tellers  |           139264
 2017-02-08 23:19:48.825533+01 | 1486592388.82553 | pgbench_history  |                0
 2017-02-08 23:19:48.825533+01 | 1486592388.82553 | pgbench_branches |            16384

 2017-02-08 23:19:50.062173+01 | 1486592390.06217 | pgbench_accounts |       4114587648
 2017-02-08 23:19:50.062173+01 | 1486592390.06217 | pgbench_tellers  |           139264
 2017-02-08 23:19:50.062173+01 | 1486592390.06217 | pgbench_history  |                0
 2017-02-08 23:19:50.062173+01 | 1486592390.06217 | pgbench_branches |            16384

 2017-02-08 23:19:51.211106+01 | 1486592391.21111 | pgbench_accounts |       4114669568
 2017-02-08 23:19:51.211106+01 | 1486592391.21111 | pgbench_tellers  |           139264
 2017-02-08 23:19:51.211106+01 | 1486592391.21111 | pgbench_history  |                0
 2017-02-08 23:19:51.211106+01 | 1486592391.21111 | pgbench_branches |            16384

 2017-02-08 23:19:52.391182+01 | 1486592392.39118 | pgbench_accounts |       4114718720
 2017-02-08 23:19:52.391182+01 | 1486592392.39118 | pgbench_tellers  |           139264
 2017-02-08 23:19:52.391182+01 | 1486592392.39118 | pgbench_history  |                0
 2017-02-08 23:19:52.391182+01 | 1486592392.39118 | pgbench_branches |            16384

 2017-02-08 23:19:53.596973+01 | 1486592393.59697 | pgbench_accounts |       4114800640
 2017-02-08 23:19:53.596973+01 | 1486592393.59697 | pgbench_tellers  |           139264
 2017-02-08 23:19:53.596973+01 | 1486592393.59697 | pgbench_history  |                0
 2017-02-08 23:19:53.596973+01 | 1486592393.59697 | pgbench_branches |            16384

 2017-02-08 23:19:54.843925+01 | 1486592394.84392 | pgbench_accounts |       4114849792
 2017-02-08 23:19:54.843925+01 | 1486592394.84392 | pgbench_tellers  |           139264
 2017-02-08 23:19:54.843925+01 | 1486592394.84392 | pgbench_history  |                0
 2017-02-08 23:19:54.843925+01 | 1486592394.84392 | pgbench_branches |            16384

 2017-02-08 23:19:56.065681+01 | 1486592396.06568 | pgbench_accounts |       4114923520
 2017-02-08 23:19:56.065681+01 | 1486592396.06568 | pgbench_tellers  |           139264
 2017-02-08 23:19:56.065681+01 | 1486592396.06568 | pgbench_history  |                0
 2017-02-08 23:19:56.065681+01 | 1486592396.06568 | pgbench_branches |            16384

 2017-02-08 23:19:57.275652+01 | 1486592397.27565 | pgbench_accounts |       4114980864
 2017-02-08 23:19:57.275652+01 | 1486592397.27565 | pgbench_tellers  |           139264
 2017-02-08 23:19:57.275652+01 | 1486592397.27565 | pgbench_history  |                0
 2017-02-08 23:19:57.275652+01 | 1486592397.27565 | pgbench_branches |            16384

 2017-02-08 23:19:58.48149+01 | 1486592398.48149 | pgbench_accounts |       4115062784
 2017-02-08 23:19:58.48149+01 | 1486592398.48149 | pgbench_tellers  |           139264
 2017-02-08 23:19:58.48149+01 | 1486592398.48149 | pgbench_history  |                0
 2017-02-08 23:19:58.48149+01 | 1486592398.48149 | pgbench_branches |            16384

 2017-02-08 23:19:59.725824+01 | 1486592399.72582 | pgbench_accounts |       4115111936
 2017-02-08 23:19:59.725824+01 | 1486592399.72582 | pgbench_tellers  |           139264
 2017-02-08 23:19:59.725824+01 | 1486592399.72582 | pgbench_history  |                0
 2017-02-08 23:19:59.725824+01 | 1486592399.72582 | pgbench_branches |            16384

 2017-02-08 23:20:00.912403+01 | 1486592400.9124 | pgbench_accounts |       4115193856
 2017-02-08 23:20:00.912403+01 | 1486592400.9124 | pgbench_tellers  |           139264
 2017-02-08 23:20:00.912403+01 | 1486592400.9124 | pgbench_history  |                0
 2017-02-08 23:20:00.912403+01 | 1486592400.9124 | pgbench_branches |            16384

 2017-02-08 23:20:02.142735+01 | 1486592402.14274 | pgbench_accounts |       4115234816
 2017-02-08 23:20:02.142735+01 | 1486592402.14274 | pgbench_tellers  |           139264
 2017-02-08 23:20:02.142735+01 | 1486592402.14274 | pgbench_history  |                0
 2017-02-08 23:20:02.142735+01 | 1486592402.14274 | pgbench_branches |            16384

 2017-02-08 23:20:03.316891+01 | 1486592403.31689 | pgbench_accounts |       4115308544
 2017-02-08 23:20:03.316891+01 | 1486592403.31689 | pgbench_tellers  |           139264
 2017-02-08 23:20:03.316891+01 | 1486592403.31689 | pgbench_history  |                0
 2017-02-08 23:20:03.316891+01 | 1486592403.31689 | pgbench_branches |            16384

 2017-02-08 23:20:04.513235+01 | 1486592404.51324 | pgbench_accounts |       4115365888
 2017-02-08 23:20:04.513235+01 | 1486592404.51324 | pgbench_tellers  |           139264
 2017-02-08 23:20:04.513235+01 | 1486592404.51324 | pgbench_history  |                0
 2017-02-08 23:20:04.513235+01 | 1486592404.51324 | pgbench_branches |            16384

 2017-02-08 23:20:05.707358+01 | 1486592405.70736 | pgbench_accounts |       4115431424
 2017-02-08 23:20:05.707358+01 | 1486592405.70736 | pgbench_tellers  |           139264
 2017-02-08 23:20:05.707358+01 | 1486592405.70736 | pgbench_history  |                0
 2017-02-08 23:20:05.707358+01 | 1486592405.70736 | pgbench_branches |            16384

 2017-02-08 23:20:06.870135+01 | 1486592406.87014 | pgbench_accounts |       4115505152
 2017-02-08 23:20:06.870135+01 | 1486592406.87014 | pgbench_tellers  |           139264
 2017-02-08 23:20:06.870135+01 | 1486592406.87014 | pgbench_history  |                0
 2017-02-08 23:20:06.870135+01 | 1486592406.87014 | pgbench_branches |            16384

 2017-02-08 23:20:08.092108+01 | 1486592408.09211 | pgbench_accounts |       4115546112
 2017-02-08 23:20:08.092108+01 | 1486592408.09211 | pgbench_tellers  |           139264
 2017-02-08 23:20:08.092108+01 | 1486592408.09211 | pgbench_history  |                0
 2017-02-08 23:20:08.092108+01 | 1486592408.09211 | pgbench_branches |            16384

 2017-02-08 23:20:09.272755+01 | 1486592409.27275 | pgbench_accounts |       4115611648
 2017-02-08 23:20:09.272755+01 | 1486592409.27275 | pgbench_tellers  |           139264
 2017-02-08 23:20:09.272755+01 | 1486592409.27275 | pgbench_history  |                0
 2017-02-08 23:20:09.272755+01 | 1486592409.27275 | pgbench_branches |            16384

 2017-02-08 23:20:10.426859+01 | 1486592410.42686 | pgbench_accounts |       4115668992
 2017-02-08 23:20:10.426859+01 | 1486592410.42686 | pgbench_tellers  |           139264
 2017-02-08 23:20:10.426859+01 | 1486592410.42686 | pgbench_history  |                0
 2017-02-08 23:20:10.426859+01 | 1486592410.42686 | pgbench_branches |            16384

 2017-02-08 23:20:11.675916+01 | 1486592411.67592 | pgbench_accounts |       4115742720
 2017-02-08 23:20:11.675916+01 | 1486592411.67592 | pgbench_tellers  |           139264
 2017-02-08 23:20:11.675916+01 | 1486592411.67592 | pgbench_history  |                0
 2017-02-08 23:20:11.675916+01 | 1486592411.67592 | pgbench_branches |            16384

 2017-02-08 23:20:12.917906+01 | 1486592412.91791 | pgbench_accounts |       4115800064
 2017-02-08 23:20:12.917906+01 | 1486592412.91791 | pgbench_tellers  |           139264
 2017-02-08 23:20:12.917906+01 | 1486592412.91791 | pgbench_history  |                0
 2017-02-08 23:20:12.917906+01 | 1486592412.91791 | pgbench_branches |            16384

 2017-02-08 23:20:14.109155+01 | 1486592414.10915 | pgbench_accounts |       4115873792
 2017-02-08 23:20:14.109155+01 | 1486592414.10915 | pgbench_tellers  |           139264
 2017-02-08 23:20:14.109155+01 | 1486592414.10915 | pgbench_history  |                0
 2017-02-08 23:20:14.109155+01 | 1486592414.10915 | pgbench_branches |            16384

 2017-02-08 23:20:15.289906+01 | 1486592415.28991 | pgbench_accounts |       4115914752
 2017-02-08 23:20:15.289906+01 | 1486592415.28991 | pgbench_tellers  |           139264
 2017-02-08 23:20:15.289906+01 | 1486592415.28991 | pgbench_history  |                0
 2017-02-08 23:20:15.289906+01 | 1486592415.28991 | pgbench_branches |            16384

 2017-02-08 23:20:16.516649+01 | 1486592416.51665 | pgbench_accounts |       4115988480
 2017-02-08 23:20:16.516649+01 | 1486592416.51665 | pgbench_tellers  |           139264
 2017-02-08 23:20:16.516649+01 | 1486592416.51665 | pgbench_history  |                0
 2017-02-08 23:20:16.516649+01 | 1486592416.51665 | pgbench_branches |            16384

 2017-02-08 23:20:17.725742+01 | 1486592417.72574 | pgbench_accounts |       4116029440
 2017-02-08 23:20:17.725742+01 | 1486592417.72574 | pgbench_tellers  |           139264
 2017-02-08 23:20:17.725742+01 | 1486592417.72574 | pgbench_history  |                0
 2017-02-08 23:20:17.725742+01 | 1486592417.72574 | pgbench_branches |            16384

 2017-02-08 23:20:18.929428+01 | 1486592418.92943 | pgbench_accounts |       4116119552
 2017-02-08 23:20:18.929428+01 | 1486592418.92943 | pgbench_tellers  |           139264
 2017-02-08 23:20:18.929428+01 | 1486592418.92943 | pgbench_history  |                0
 2017-02-08 23:20:18.929428+01 | 1486592418.92943 | pgbench_branches |            16384

 2017-02-08 23:20:20.12483+01 | 1486592420.12483 | pgbench_accounts |       4116160512
 2017-02-08 23:20:20.12483+01 | 1486592420.12483 | pgbench_tellers  |           139264
 2017-02-08 23:20:20.12483+01 | 1486592420.12483 | pgbench_history  |                0
 2017-02-08 23:20:20.12483+01 | 1486592420.12483 | pgbench_branches |            16384

 2017-02-08 23:20:21.274746+01 | 1486592421.27475 | pgbench_accounts |       4116209664
 2017-02-08 23:20:21.274746+01 | 1486592421.27475 | pgbench_tellers  |           139264
 2017-02-08 23:20:21.274746+01 | 1486592421.27475 | pgbench_history  |                0
 2017-02-08 23:20:21.274746+01 | 1486592421.27475 | pgbench_branches |            16384

 2017-02-08 23:20:22.519752+01 | 1486592422.51975 | pgbench_accounts |       4116283392
 2017-02-08 23:20:22.519752+01 | 1486592422.51975 | pgbench_tellers  |           139264
 2017-02-08 23:20:22.519752+01 | 1486592422.51975 | pgbench_history  |                0
 2017-02-08 23:20:22.519752+01 | 1486592422.51975 | pgbench_branches |            16384

 2017-02-08 23:20:23.756804+01 | 1486592423.7568 | pgbench_accounts |       4116324352
 2017-02-08 23:20:23.756804+01 | 1486592423.7568 | pgbench_tellers  |           139264
 2017-02-08 23:20:23.756804+01 | 1486592423.7568 | pgbench_history  |                0
 2017-02-08 23:20:23.756804+01 | 1486592423.7568 | pgbench_branches |            16384

 2017-02-08 23:20:25.019716+01 | 1486592425.01972 | pgbench_accounts |       4116398080
 2017-02-08 23:20:25.019716+01 | 1486592425.01972 | pgbench_tellers  |           139264
 2017-02-08 23:20:25.019716+01 | 1486592425.01972 | pgbench_history  |                0
 2017-02-08 23:20:25.019716+01 | 1486592425.01972 | pgbench_branches |            16384

 2017-02-08 23:20:26.234752+01 | 1486592426.23475 | pgbench_accounts |       4116439040
 2017-02-08 23:20:26.234752+01 | 1486592426.23475 | pgbench_tellers  |           139264
 2017-02-08 23:20:26.234752+01 | 1486592426.23475 | pgbench_history  |                0
 2017-02-08 23:20:26.234752+01 | 1486592426.23475 | pgbench_branches |            16384

 2017-02-08 23:20:27.432487+01 | 1486592427.43249 | pgbench_accounts |       4116504576
 2017-02-08 23:20:27.432487+01 | 1486592427.43249 | pgbench_tellers  |           139264
 2017-02-08 23:20:27.432487+01 | 1486592427.43249 | pgbench_history  |                0
 2017-02-08 23:20:27.432487+01 | 1486592427.43249 | pgbench_branches |            16384

 2017-02-08 23:20:28.683867+01 | 1486592428.68387 | pgbench_accounts |       4116692992
 2017-02-08 23:20:28.683867+01 | 1486592428.68387 | pgbench_tellers  |           139264
 2017-02-08 23:20:28.683867+01 | 1486592428.68387 | pgbench_history  |                0
 2017-02-08 23:20:28.683867+01 | 1486592428.68387 | pgbench_branches |            16384

 2017-02-08 23:20:29.884749+01 | 1486592429.88475 | pgbench_accounts |       4116692992
 2017-02-08 23:20:29.884749+01 | 1486592429.88475 | pgbench_tellers  |           139264
 2017-02-08 23:20:29.884749+01 | 1486592429.88475 | pgbench_history  |                0
 2017-02-08 23:20:29.884749+01 | 1486592429.88475 | pgbench_branches |            16384

 2017-02-08 23:20:31.090392+01 | 1486592431.09039 | pgbench_accounts |       4116692992
 2017-02-08 23:20:31.090392+01 | 1486592431.09039 | pgbench_tellers  |           139264
 2017-02-08 23:20:31.090392+01 | 1486592431.09039 | pgbench_history  |                0
 2017-02-08 23:20:31.090392+01 | 1486592431.09039 | pgbench_branches |            16384

 2017-02-08 23:20:32.340305+01 | 1486592432.34031 | pgbench_accounts |       4116692992
 2017-02-08 23:20:32.340305+01 | 1486592432.34031 | pgbench_tellers  |           139264
 2017-02-08 23:20:32.340305+01 | 1486592432.34031 | pgbench_history  |                0
 2017-02-08 23:20:32.340305+01 | 1486592432.34031 | pgbench_branches |            16384

 2017-02-08 23:20:33.566587+01 | 1486592433.56659 | pgbench_accounts |       4116824064
 2017-02-08 23:20:33.566587+01 | 1486592433.56659 | pgbench_tellers  |           139264
 2017-02-08 23:20:33.566587+01 | 1486592433.56659 | pgbench_history  |                0
 2017-02-08 23:20:33.566587+01 | 1486592433.56659 | pgbench_branches |            16384

 2017-02-08 23:20:34.70947+01 | 1486592434.70947 | pgbench_accounts |       4116824064
 2017-02-08 23:20:34.70947+01 | 1486592434.70947 | pgbench_tellers  |           139264
 2017-02-08 23:20:34.70947+01 | 1486592434.70947 | pgbench_history  |                0
 2017-02-08 23:20:34.70947+01 | 1486592434.70947 | pgbench_branches |            16384

 2017-02-08 23:20:35.964531+01 | 1486592435.96453 | pgbench_accounts |       4116914176
 2017-02-08 23:20:35.964531+01 | 1486592435.96453 | pgbench_tellers  |           139264
 2017-02-08 23:20:35.964531+01 | 1486592435.96453 | pgbench_history  |                0
 2017-02-08 23:20:35.964531+01 | 1486592435.96453 | pgbench_branches |            16384

 2017-02-08 23:20:37.18546+01 | 1486592437.18546 | pgbench_accounts |       4116955136
 2017-02-08 23:20:37.18546+01 | 1486592437.18546 | pgbench_tellers  |           139264
 2017-02-08 23:20:37.18546+01 | 1486592437.18546 | pgbench_history  |                0
 2017-02-08 23:20:37.18546+01 | 1486592437.18546 | pgbench_branches |            16384

 2017-02-08 23:20:38.428045+01 | 1486592438.42805 | pgbench_accounts |       4116996096
 2017-02-08 23:20:38.428045+01 | 1486592438.42805 | pgbench_tellers  |           139264
 2017-02-08 23:20:38.428045+01 | 1486592438.42805 | pgbench_history  |                0
 2017-02-08 23:20:38.428045+01 | 1486592438.42805 | pgbench_branches |            16384

 2017-02-08 23:20:39.716353+01 | 1486592439.71635 | pgbench_accounts |       4117086208
 2017-02-08 23:20:39.716353+01 | 1486592439.71635 | pgbench_tellers  |           139264
 2017-02-08 23:20:39.716353+01 | 1486592439.71635 | pgbench_history  |                0
 2017-02-08 23:20:39.716353+01 | 1486592439.71635 | pgbench_branches |            16384

 2017-02-08 23:20:40.896077+01 | 1486592440.89608 | pgbench_accounts |       4117110784
 2017-02-08 23:20:40.896077+01 | 1486592440.89608 | pgbench_tellers  |           139264
 2017-02-08 23:20:40.896077+01 | 1486592440.89608 | pgbench_history  |                0
 2017-02-08 23:20:40.896077+01 | 1486592440.89608 | pgbench_branches |            16384

 2017-02-08 23:20:42.059184+01 | 1486592442.05918 | pgbench_accounts |       4117184512
 2017-02-08 23:20:42.059184+01 | 1486592442.05918 | pgbench_tellers  |           139264
 2017-02-08 23:20:42.059184+01 | 1486592442.05918 | pgbench_history  |                0
 2017-02-08 23:20:42.059184+01 | 1486592442.05918 | pgbench_branches |            16384

 2017-02-08 23:20:43.285296+01 | 1486592443.2853 | pgbench_accounts |       4117233664
 2017-02-08 23:20:43.285296+01 | 1486592443.2853 | pgbench_tellers  |           139264
 2017-02-08 23:20:43.285296+01 | 1486592443.2853 | pgbench_history  |                0
 2017-02-08 23:20:43.285296+01 | 1486592443.2853 | pgbench_branches |            16384

 2017-02-08 23:20:44.528709+01 | 1486592444.52871 | pgbench_accounts |       4117274624
 2017-02-08 23:20:44.528709+01 | 1486592444.52871 | pgbench_tellers  |           139264
 2017-02-08 23:20:44.528709+01 | 1486592444.52871 | pgbench_history  |                0
 2017-02-08 23:20:44.528709+01 | 1486592444.52871 | pgbench_branches |            16384

 2017-02-08 23:20:45.778275+01 | 1486592445.77828 | pgbench_accounts |       4117356544
 2017-02-08 23:20:45.778275+01 | 1486592445.77828 | pgbench_tellers  |           139264
 2017-02-08 23:20:45.778275+01 | 1486592445.77828 | pgbench_history  |                0
 2017-02-08 23:20:45.778275+01 | 1486592445.77828 | pgbench_branches |            16384

 2017-02-08 23:20:46.978049+01 | 1486592446.97805 | pgbench_accounts |       4117397504
 2017-02-08 23:20:46.978049+01 | 1486592446.97805 | pgbench_tellers  |           139264
 2017-02-08 23:20:46.978049+01 | 1486592446.97805 | pgbench_history  |                0
 2017-02-08 23:20:46.978049+01 | 1486592446.97805 | pgbench_branches |            16384

 2017-02-08 23:20:48.096516+01 | 1486592448.09652 | pgbench_accounts |       4117463040
 2017-02-08 23:20:48.096516+01 | 1486592448.09652 | pgbench_tellers  |           139264
 2017-02-08 23:20:48.096516+01 | 1486592448.09652 | pgbench_history  |                0
 2017-02-08 23:20:48.096516+01 | 1486592448.09652 | pgbench_branches |            16384

 2017-02-08 23:20:49.280097+01 | 1486592449.2801 | pgbench_accounts |       4117504000
 2017-02-08 23:20:49.280097+01 | 1486592449.2801 | pgbench_tellers  |           139264
 2017-02-08 23:20:49.280097+01 | 1486592449.2801 | pgbench_history  |                0
 2017-02-08 23:20:49.280097+01 | 1486592449.2801 | pgbench_branches |            16384

 2017-02-08 23:20:50.440588+01 | 1486592450.44059 | pgbench_accounts |       4117544960
 2017-02-08 23:20:50.440588+01 | 1486592450.44059 | pgbench_tellers  |           139264
 2017-02-08 23:20:50.440588+01 | 1486592450.44059 | pgbench_history  |                0
 2017-02-08 23:20:50.440588+01 | 1486592450.44059 | pgbench_branches |            16384

 2017-02-08 23:20:51.608595+01 | 1486592451.60859 | pgbench_accounts |       4117594112
 2017-02-08 23:20:51.608595+01 | 1486592451.60859 | pgbench_tellers  |           139264
 2017-02-08 23:20:51.608595+01 | 1486592451.60859 | pgbench_history  |                0
 2017-02-08 23:20:51.608595+01 | 1486592451.60859 | pgbench_branches |            16384

 2017-02-08 23:20:52.774722+01 | 1486592452.77472 | pgbench_accounts |       4117659648
 2017-02-08 23:20:52.774722+01 | 1486592452.77472 | pgbench_tellers  |           139264
 2017-02-08 23:20:52.774722+01 | 1486592452.77472 | pgbench_history  |                0
 2017-02-08 23:20:52.774722+01 | 1486592452.77472 | pgbench_branches |            16384

 2017-02-08 23:20:54.039762+01 | 1486592454.03976 | pgbench_accounts |       4117716992
 2017-02-08 23:20:54.039762+01 | 1486592454.03976 | pgbench_tellers  |           139264
 2017-02-08 23:20:54.039762+01 | 1486592454.03976 | pgbench_history  |                0
 2017-02-08 23:20:54.039762+01 | 1486592454.03976 | pgbench_branches |            16384

 2017-02-08 23:20:55.267286+01 | 1486592455.26729 | pgbench_accounts |       4117774336
 2017-02-08 23:20:55.267286+01 | 1486592455.26729 | pgbench_tellers  |           139264
 2017-02-08 23:20:55.267286+01 | 1486592455.26729 | pgbench_history  |                0
 2017-02-08 23:20:55.267286+01 | 1486592455.26729 | pgbench_branches |            16384

 2017-02-08 23:20:56.438089+01 | 1486592456.43809 | pgbench_accounts |       4117815296
 2017-02-08 23:20:56.438089+01 | 1486592456.43809 | pgbench_tellers  |           139264
 2017-02-08 23:20:56.438089+01 | 1486592456.43809 | pgbench_history  |                0
 2017-02-08 23:20:56.438089+01 | 1486592456.43809 | pgbench_branches |            16384

 2017-02-08 23:20:57.579712+01 | 1486592457.57971 | pgbench_accounts |       4117880832
 2017-02-08 23:20:57.579712+01 | 1486592457.57971 | pgbench_tellers  |           139264
 2017-02-08 23:20:57.579712+01 | 1486592457.57971 | pgbench_history  |                0
 2017-02-08 23:20:57.579712+01 | 1486592457.57971 | pgbench_branches |            16384

 2017-02-08 23:20:58.792239+01 | 1486592458.79224 | pgbench_accounts |       4117921792
 2017-02-08 23:20:58.792239+01 | 1486592458.79224 | pgbench_tellers  |           139264
 2017-02-08 23:20:58.792239+01 | 1486592458.79224 | pgbench_history  |                0
 2017-02-08 23:20:58.792239+01 | 1486592458.79224 | pgbench_branches |            16384

 2017-02-08 23:21:00.030318+01 | 1486592460.03032 | pgbench_accounts |       4117995520
 2017-02-08 23:21:00.030318+01 | 1486592460.03032 | pgbench_tellers  |           139264
 2017-02-08 23:21:00.030318+01 | 1486592460.03032 | pgbench_history  |                0
 2017-02-08 23:21:00.030318+01 | 1486592460.03032 | pgbench_branches |            16384

 2017-02-08 23:21:01.173569+01 | 1486592461.17357 | pgbench_accounts |       4118028288
 2017-02-08 23:21:01.173569+01 | 1486592461.17357 | pgbench_tellers  |           139264
 2017-02-08 23:21:01.173569+01 | 1486592461.17357 | pgbench_history  |                0
 2017-02-08 23:21:01.173569+01 | 1486592461.17357 | pgbench_branches |            16384

 2017-02-08 23:21:02.338305+01 | 1486592462.3383 | pgbench_accounts |       4118077440
 2017-02-08 23:21:02.338305+01 | 1486592462.3383 | pgbench_tellers  |           139264
 2017-02-08 23:21:02.338305+01 | 1486592462.3383 | pgbench_history  |                0
 2017-02-08 23:21:02.338305+01 | 1486592462.3383 | pgbench_branches |            16384

 2017-02-08 23:21:03.516898+01 | 1486592463.5169 | pgbench_accounts |       4118142976
 2017-02-08 23:21:03.516898+01 | 1486592463.5169 | pgbench_tellers  |           139264
 2017-02-08 23:21:03.516898+01 | 1486592463.5169 | pgbench_history  |                0
 2017-02-08 23:21:03.516898+01 | 1486592463.5169 | pgbench_branches |            16384

 2017-02-08 23:21:04.664351+01 | 1486592464.66435 | pgbench_accounts |       4118175744
 2017-02-08 23:21:04.664351+01 | 1486592464.66435 | pgbench_tellers  |           139264
 2017-02-08 23:21:04.664351+01 | 1486592464.66435 | pgbench_history  |                0
 2017-02-08 23:21:04.664351+01 | 1486592464.66435 | pgbench_branches |            16384

 2017-02-08 23:21:05.776189+01 | 1486592465.77619 | pgbench_accounts |       4118241280
 2017-02-08 23:21:05.776189+01 | 1486592465.77619 | pgbench_tellers  |           139264
 2017-02-08 23:21:05.776189+01 | 1486592465.77619 | pgbench_history  |                0
 2017-02-08 23:21:05.776189+01 | 1486592465.77619 | pgbench_branches |            16384

 2017-02-08 23:21:06.961639+01 | 1486592466.96164 | pgbench_accounts |       4118290432
 2017-02-08 23:21:06.961639+01 | 1486592466.96164 | pgbench_tellers  |           139264
 2017-02-08 23:21:06.961639+01 | 1486592466.96164 | pgbench_history  |                0
 2017-02-08 23:21:06.961639+01 | 1486592466.96164 | pgbench_branches |            16384

 2017-02-08 23:21:08.167641+01 | 1486592468.16764 | pgbench_accounts |       4118339584
 2017-02-08 23:21:08.167641+01 | 1486592468.16764 | pgbench_tellers  |           139264
 2017-02-08 23:21:08.167641+01 | 1486592468.16764 | pgbench_history  |                0
 2017-02-08 23:21:08.167641+01 | 1486592468.16764 | pgbench_branches |            16384

 2017-02-08 23:21:09.411391+01 | 1486592469.41139 | pgbench_accounts |       4118388736
 2017-02-08 23:21:09.411391+01 | 1486592469.41139 | pgbench_tellers  |           139264
 2017-02-08 23:21:09.411391+01 | 1486592469.41139 | pgbench_history  |                0
 2017-02-08 23:21:09.411391+01 | 1486592469.41139 | pgbench_branches |            16384

 2017-02-08 23:21:10.585409+01 | 1486592470.58541 | pgbench_accounts |       4118437888
 2017-02-08 23:21:10.585409+01 | 1486592470.58541 | pgbench_tellers  |           139264
 2017-02-08 23:21:10.585409+01 | 1486592470.58541 | pgbench_history  |                0
 2017-02-08 23:21:10.585409+01 | 1486592470.58541 | pgbench_branches |            16384

 2017-02-08 23:21:11.828366+01 | 1486592471.82837 | pgbench_accounts |       4118495232
 2017-02-08 23:21:11.828366+01 | 1486592471.82837 | pgbench_tellers  |           139264
 2017-02-08 23:21:11.828366+01 | 1486592471.82837 | pgbench_history  |                0
 2017-02-08 23:21:11.828366+01 | 1486592471.82837 | pgbench_branches |            16384

 2017-02-08 23:21:13.03755+01 | 1486592473.03755 | pgbench_accounts |       4118528000
 2017-02-08 23:21:13.03755+01 | 1486592473.03755 | pgbench_tellers  |           139264
 2017-02-08 23:21:13.03755+01 | 1486592473.03755 | pgbench_history  |                0
 2017-02-08 23:21:13.03755+01 | 1486592473.03755 | pgbench_branches |            16384

 2017-02-08 23:21:14.243739+01 | 1486592474.24374 | pgbench_accounts |       4118593536
 2017-02-08 23:21:14.243739+01 | 1486592474.24374 | pgbench_tellers  |           139264
 2017-02-08 23:21:14.243739+01 | 1486592474.24374 | pgbench_history  |                0
 2017-02-08 23:21:14.243739+01 | 1486592474.24374 | pgbench_branches |            16384

 2017-02-08 23:21:15.455046+01 | 1486592475.45505 | pgbench_accounts |       4118650880
 2017-02-08 23:21:15.455046+01 | 1486592475.45505 | pgbench_tellers  |           139264
 2017-02-08 23:21:15.455046+01 | 1486592475.45505 | pgbench_history  |                0
 2017-02-08 23:21:15.455046+01 | 1486592475.45505 | pgbench_branches |            16384

 2017-02-08 23:21:16.69535+01 | 1486592476.69535 | pgbench_accounts |       4118675456
 2017-02-08 23:21:16.69535+01 | 1486592476.69535 | pgbench_tellers  |           139264
 2017-02-08 23:21:16.69535+01 | 1486592476.69535 | pgbench_history  |                0
 2017-02-08 23:21:16.69535+01 | 1486592476.69535 | pgbench_branches |            16384

 2017-02-08 23:21:17.921446+01 | 1486592477.92145 | pgbench_accounts |       4118765568
 2017-02-08 23:21:17.921446+01 | 1486592477.92145 | pgbench_tellers  |           139264
 2017-02-08 23:21:17.921446+01 | 1486592477.92145 | pgbench_history  |                0
 2017-02-08 23:21:17.921446+01 | 1486592477.92145 | pgbench_branches |            16384

 2017-02-08 23:21:19.163487+01 | 1486592479.16349 | pgbench_accounts |       4118798336
 2017-02-08 23:21:19.163487+01 | 1486592479.16349 | pgbench_tellers  |           139264
 2017-02-08 23:21:19.163487+01 | 1486592479.16349 | pgbench_history  |                0
 2017-02-08 23:21:19.163487+01 | 1486592479.16349 | pgbench_branches |            16384

 2017-02-08 23:21:20.350772+01 | 1486592480.35077 | pgbench_accounts |       4118847488
 2017-02-08 23:21:20.350772+01 | 1486592480.35077 | pgbench_tellers  |           139264
 2017-02-08 23:21:20.350772+01 | 1486592480.35077 | pgbench_history  |                0
 2017-02-08 23:21:20.350772+01 | 1486592480.35077 | pgbench_branches |            16384

 2017-02-08 23:21:21.559062+01 | 1486592481.55906 | pgbench_accounts |       4118896640
 2017-02-08 23:21:21.559062+01 | 1486592481.55906 | pgbench_tellers  |           139264
 2017-02-08 23:21:21.559062+01 | 1486592481.55906 | pgbench_history  |                0
 2017-02-08 23:21:21.559062+01 | 1486592481.55906 | pgbench_branches |            16384

 2017-02-08 23:21:22.801016+01 | 1486592482.80102 | pgbench_accounts |       4118953984
 2017-02-08 23:21:22.801016+01 | 1486592482.80102 | pgbench_tellers  |           139264
 2017-02-08 23:21:22.801016+01 | 1486592482.80102 | pgbench_history  |                0
 2017-02-08 23:21:22.801016+01 | 1486592482.80102 | pgbench_branches |            16384

 2017-02-08 23:21:23.942894+01 | 1486592483.94289 | pgbench_accounts |       4118994944
 2017-02-08 23:21:23.942894+01 | 1486592483.94289 | pgbench_tellers  |           139264
 2017-02-08 23:21:23.942894+01 | 1486592483.94289 | pgbench_history  |                0
 2017-02-08 23:21:23.942894+01 | 1486592483.94289 | pgbench_branches |            16384

 2017-02-08 23:21:25.134413+01 | 1486592485.13441 | pgbench_accounts |       4119052288
 2017-02-08 23:21:25.134413+01 | 1486592485.13441 | pgbench_tellers  |           139264
 2017-02-08 23:21:25.134413+01 | 1486592485.13441 | pgbench_history  |                0
 2017-02-08 23:21:25.134413+01 | 1486592485.13441 | pgbench_branches |            16384

 2017-02-08 23:21:26.290074+01 | 1486592486.29007 | pgbench_accounts |       4119085056
 2017-02-08 23:21:26.290074+01 | 1486592486.29007 | pgbench_tellers  |           139264
 2017-02-08 23:21:26.290074+01 | 1486592486.29007 | pgbench_history  |                0
 2017-02-08 23:21:26.290074+01 | 1486592486.29007 | pgbench_branches |            16384

 2017-02-08 23:21:27.461452+01 | 1486592487.46145 | pgbench_accounts |       4119142400
 2017-02-08 23:21:27.461452+01 | 1486592487.46145 | pgbench_tellers  |           139264
 2017-02-08 23:21:27.461452+01 | 1486592487.46145 | pgbench_history  |                0
 2017-02-08 23:21:27.461452+01 | 1486592487.46145 | pgbench_branches |            16384

 2017-02-08 23:21:28.642399+01 | 1486592488.6424 | pgbench_accounts |       4119183360
 2017-02-08 23:21:28.642399+01 | 1486592488.6424 | pgbench_tellers  |           139264
 2017-02-08 23:21:28.642399+01 | 1486592488.6424 | pgbench_history  |                0
 2017-02-08 23:21:28.642399+01 | 1486592488.6424 | pgbench_branches |            16384

 2017-02-08 23:21:29.86322+01 | 1486592489.86322 | pgbench_accounts |       4119240704
 2017-02-08 23:21:29.86322+01 | 1486592489.86322 | pgbench_tellers  |           139264
 2017-02-08 23:21:29.86322+01 | 1486592489.86322 | pgbench_history  |                0
 2017-02-08 23:21:29.86322+01 | 1486592489.86322 | pgbench_branches |            16384

 2017-02-08 23:21:31.039452+01 | 1486592491.03945 | pgbench_accounts |       4119281664
 2017-02-08 23:21:31.039452+01 | 1486592491.03945 | pgbench_tellers  |           139264
 2017-02-08 23:21:31.039452+01 | 1486592491.03945 | pgbench_history  |                0
 2017-02-08 23:21:31.039452+01 | 1486592491.03945 | pgbench_branches |            16384

 2017-02-08 23:21:32.229961+01 | 1486592492.22996 | pgbench_accounts |       4119322624
 2017-02-08 23:21:32.229961+01 | 1486592492.22996 | pgbench_tellers  |           139264
 2017-02-08 23:21:32.229961+01 | 1486592492.22996 | pgbench_history  |                0
 2017-02-08 23:21:32.229961+01 | 1486592492.22996 | pgbench_branches |            16384

