 2017-02-09 10:45:04.699696+01 | 1486633504.6997 | pgbench_branches_pkey |           737280
 2017-02-09 10:45:04.699696+01 | 1486633504.6997 | pgbench_tellers_pkey  |          2170880
 2017-02-09 10:45:04.699696+01 | 1486633504.6997 | pgbench_accounts_pkey |        673882112

 2017-02-09 10:45:05.776179+01 | 1486633505.77618 | pgbench_branches_pkey |           737280
 2017-02-09 10:45:05.776179+01 | 1486633505.77618 | pgbench_tellers_pkey  |          2170880
 2017-02-09 10:45:05.776179+01 | 1486633505.77618 | pgbench_accounts_pkey |        673882112

 2017-02-09 10:45:06.935761+01 | 1486633506.93576 | pgbench_branches_pkey |           737280
 2017-02-09 10:45:06.935761+01 | 1486633506.93576 | pgbench_tellers_pkey  |          2170880
 2017-02-09 10:45:06.935761+01 | 1486633506.93576 | pgbench_accounts_pkey |        673882112

 2017-02-09 10:45:08.047425+01 | 1486633508.04743 | pgbench_branches_pkey |           737280
 2017-02-09 10:45:08.047425+01 | 1486633508.04743 | pgbench_tellers_pkey  |          2170880
 2017-02-09 10:45:08.047425+01 | 1486633508.04743 | pgbench_accounts_pkey |        673882112

 2017-02-09 10:45:09.215261+01 | 1486633509.21526 | pgbench_branches_pkey |           737280
 2017-02-09 10:45:09.215261+01 | 1486633509.21526 | pgbench_tellers_pkey  |          2170880
 2017-02-09 10:45:09.215261+01 | 1486633509.21526 | pgbench_accounts_pkey |        673882112

 2017-02-09 10:45:10.344157+01 | 1486633510.34416 | pgbench_branches_pkey |           737280
 2017-02-09 10:45:10.344157+01 | 1486633510.34416 | pgbench_tellers_pkey  |          2170880
 2017-02-09 10:45:10.344157+01 | 1486633510.34416 | pgbench_accounts_pkey |        673882112

 2017-02-09 10:45:11.491275+01 | 1486633511.49128 | pgbench_branches_pkey |           737280
 2017-02-09 10:45:11.491275+01 | 1486633511.49128 | pgbench_tellers_pkey  |          2170880
 2017-02-09 10:45:11.491275+01 | 1486633511.49128 | pgbench_accounts_pkey |        673882112

 2017-02-09 10:45:12.644859+01 | 1486633512.64486 | pgbench_branches_pkey |           737280
 2017-02-09 10:45:12.644859+01 | 1486633512.64486 | pgbench_tellers_pkey  |          2170880
 2017-02-09 10:45:12.644859+01 | 1486633512.64486 | pgbench_accounts_pkey |        673882112

 2017-02-09 10:45:13.732205+01 | 1486633513.7322 | pgbench_branches_pkey |           737280
 2017-02-09 10:45:13.732205+01 | 1486633513.7322 | pgbench_tellers_pkey  |          2170880
 2017-02-09 10:45:13.732205+01 | 1486633513.7322 | pgbench_accounts_pkey |        673882112

 2017-02-09 10:45:14.864464+01 | 1486633514.86446 | pgbench_branches_pkey |           737280
 2017-02-09 10:45:14.864464+01 | 1486633514.86446 | pgbench_tellers_pkey  |          2170880
 2017-02-09 10:45:14.864464+01 | 1486633514.86446 | pgbench_accounts_pkey |        673882112

 2017-02-09 10:45:16.037841+01 | 1486633516.03784 | pgbench_branches_pkey |           737280
 2017-02-09 10:45:16.037841+01 | 1486633516.03784 | pgbench_tellers_pkey  |          2170880
 2017-02-09 10:45:16.037841+01 | 1486633516.03784 | pgbench_accounts_pkey |        673882112

 2017-02-09 10:45:17.12291+01 | 1486633517.12291 | pgbench_branches_pkey |           737280
 2017-02-09 10:45:17.12291+01 | 1486633517.12291 | pgbench_tellers_pkey  |          2170880
 2017-02-09 10:45:17.12291+01 | 1486633517.12291 | pgbench_accounts_pkey |        673882112

 2017-02-09 10:45:18.285002+01 | 1486633518.285 | pgbench_branches_pkey |           737280
 2017-02-09 10:45:18.285002+01 | 1486633518.285 | pgbench_tellers_pkey  |          2170880
 2017-02-09 10:45:18.285002+01 | 1486633518.285 | pgbench_accounts_pkey |        673882112

 2017-02-09 10:45:19.425381+01 | 1486633519.42538 | pgbench_branches_pkey |           737280
 2017-02-09 10:45:19.425381+01 | 1486633519.42538 | pgbench_tellers_pkey  |          2170880
 2017-02-09 10:45:19.425381+01 | 1486633519.42538 | pgbench_accounts_pkey |        673882112

 2017-02-09 10:45:20.609565+01 | 1486633520.60957 | pgbench_branches_pkey |           737280
 2017-02-09 10:45:20.609565+01 | 1486633520.60957 | pgbench_tellers_pkey  |          2170880
 2017-02-09 10:45:20.609565+01 | 1486633520.60957 | pgbench_accounts_pkey |        673882112

 2017-02-09 10:45:21.745747+01 | 1486633521.74575 | pgbench_branches_pkey |           737280
 2017-02-09 10:45:21.745747+01 | 1486633521.74575 | pgbench_tellers_pkey  |          2170880
 2017-02-09 10:45:21.745747+01 | 1486633521.74575 | pgbench_accounts_pkey |        673882112

 2017-02-09 10:45:22.927778+01 | 1486633522.92778 | pgbench_branches_pkey |           737280
 2017-02-09 10:45:22.927778+01 | 1486633522.92778 | pgbench_tellers_pkey  |          2170880
 2017-02-09 10:45:22.927778+01 | 1486633522.92778 | pgbench_accounts_pkey |        673882112

 2017-02-09 10:45:24.056531+01 | 1486633524.05653 | pgbench_branches_pkey |           737280
 2017-02-09 10:45:24.056531+01 | 1486633524.05653 | pgbench_tellers_pkey  |          2170880
 2017-02-09 10:45:24.056531+01 | 1486633524.05653 | pgbench_accounts_pkey |        673882112

 2017-02-09 10:45:25.215392+01 | 1486633525.21539 | pgbench_branches_pkey |           737280
 2017-02-09 10:45:25.215392+01 | 1486633525.21539 | pgbench_tellers_pkey  |          2170880
 2017-02-09 10:45:25.215392+01 | 1486633525.21539 | pgbench_accounts_pkey |        673882112

 2017-02-09 10:45:26.405284+01 | 1486633526.40528 | pgbench_branches_pkey |           737280
 2017-02-09 10:45:26.405284+01 | 1486633526.40528 | pgbench_tellers_pkey  |          2170880
 2017-02-09 10:45:26.405284+01 | 1486633526.40528 | pgbench_accounts_pkey |        673882112

 2017-02-09 10:45:27.484166+01 | 1486633527.48417 | pgbench_branches_pkey |           737280
 2017-02-09 10:45:27.484166+01 | 1486633527.48417 | pgbench_tellers_pkey  |          2170880
 2017-02-09 10:45:27.484166+01 | 1486633527.48417 | pgbench_accounts_pkey |        673882112

 2017-02-09 10:45:28.572533+01 | 1486633528.57253 | pgbench_branches_pkey |           737280
 2017-02-09 10:45:28.572533+01 | 1486633528.57253 | pgbench_tellers_pkey  |          2170880
 2017-02-09 10:45:28.572533+01 | 1486633528.57253 | pgbench_accounts_pkey |        673882112

 2017-02-09 10:45:29.689307+01 | 1486633529.68931 | pgbench_branches_pkey |           737280
 2017-02-09 10:45:29.689307+01 | 1486633529.68931 | pgbench_tellers_pkey  |          2170880
 2017-02-09 10:45:29.689307+01 | 1486633529.68931 | pgbench_accounts_pkey |        673882112

 2017-02-09 10:45:30.853755+01 | 1486633530.85375 | pgbench_branches_pkey |           737280
 2017-02-09 10:45:30.853755+01 | 1486633530.85375 | pgbench_tellers_pkey  |          2170880
 2017-02-09 10:45:30.853755+01 | 1486633530.85375 | pgbench_accounts_pkey |        673882112

 2017-02-09 10:45:32.041034+01 | 1486633532.04103 | pgbench_branches_pkey |           737280
 2017-02-09 10:45:32.041034+01 | 1486633532.04103 | pgbench_tellers_pkey  |          2170880
 2017-02-09 10:45:32.041034+01 | 1486633532.04103 | pgbench_accounts_pkey |        673882112

 2017-02-09 10:45:33.196936+01 | 1486633533.19694 | pgbench_branches_pkey |           737280
 2017-02-09 10:45:33.196936+01 | 1486633533.19694 | pgbench_tellers_pkey  |          2170880
 2017-02-09 10:45:33.196936+01 | 1486633533.19694 | pgbench_accounts_pkey |        673882112

 2017-02-09 10:45:34.337663+01 | 1486633534.33766 | pgbench_branches_pkey |           737280
 2017-02-09 10:45:34.337663+01 | 1486633534.33766 | pgbench_tellers_pkey  |          2170880
 2017-02-09 10:45:34.337663+01 | 1486633534.33766 | pgbench_accounts_pkey |        673882112

 2017-02-09 10:45:35.466003+01 | 1486633535.466 | pgbench_branches_pkey |           737280
 2017-02-09 10:45:35.466003+01 | 1486633535.466 | pgbench_tellers_pkey  |          2170880
 2017-02-09 10:45:35.466003+01 | 1486633535.466 | pgbench_accounts_pkey |        673882112

 2017-02-09 10:45:36.614782+01 | 1486633536.61478 | pgbench_branches_pkey |           737280
 2017-02-09 10:45:36.614782+01 | 1486633536.61478 | pgbench_tellers_pkey  |          2170880
 2017-02-09 10:45:36.614782+01 | 1486633536.61478 | pgbench_accounts_pkey |        673882112

 2017-02-09 10:45:37.706633+01 | 1486633537.70663 | pgbench_branches_pkey |           737280
 2017-02-09 10:45:37.706633+01 | 1486633537.70663 | pgbench_tellers_pkey  |          2170880
 2017-02-09 10:45:37.706633+01 | 1486633537.70663 | pgbench_accounts_pkey |        673882112

 2017-02-09 10:45:38.824823+01 | 1486633538.82482 | pgbench_branches_pkey |           737280
 2017-02-09 10:45:38.824823+01 | 1486633538.82482 | pgbench_tellers_pkey  |          2170880
 2017-02-09 10:45:38.824823+01 | 1486633538.82482 | pgbench_accounts_pkey |        673882112

 2017-02-09 10:45:39.939392+01 | 1486633539.93939 | pgbench_branches_pkey |           737280
 2017-02-09 10:45:39.939392+01 | 1486633539.93939 | pgbench_tellers_pkey  |          2170880
 2017-02-09 10:45:39.939392+01 | 1486633539.93939 | pgbench_accounts_pkey |        673882112

 2017-02-09 10:45:41.123423+01 | 1486633541.12342 | pgbench_branches_pkey |           737280
 2017-02-09 10:45:41.123423+01 | 1486633541.12342 | pgbench_tellers_pkey  |          2170880
 2017-02-09 10:45:41.123423+01 | 1486633541.12342 | pgbench_accounts_pkey |        673882112

 2017-02-09 10:45:42.270327+01 | 1486633542.27033 | pgbench_branches_pkey |           737280
 2017-02-09 10:45:42.270327+01 | 1486633542.27033 | pgbench_tellers_pkey  |          2170880
 2017-02-09 10:45:42.270327+01 | 1486633542.27033 | pgbench_accounts_pkey |        673882112

 2017-02-09 10:45:43.422456+01 | 1486633543.42246 | pgbench_branches_pkey |           737280
 2017-02-09 10:45:43.422456+01 | 1486633543.42246 | pgbench_tellers_pkey  |          2170880
 2017-02-09 10:45:43.422456+01 | 1486633543.42246 | pgbench_accounts_pkey |        673882112

 2017-02-09 10:45:44.59737+01 | 1486633544.59737 | pgbench_branches_pkey |           737280
 2017-02-09 10:45:44.59737+01 | 1486633544.59737 | pgbench_tellers_pkey  |          2170880
 2017-02-09 10:45:44.59737+01 | 1486633544.59737 | pgbench_accounts_pkey |        673882112

 2017-02-09 10:45:45.766893+01 | 1486633545.76689 | pgbench_branches_pkey |           737280
 2017-02-09 10:45:45.766893+01 | 1486633545.76689 | pgbench_tellers_pkey  |          2170880
 2017-02-09 10:45:45.766893+01 | 1486633545.76689 | pgbench_accounts_pkey |        673882112

 2017-02-09 10:45:46.925049+01 | 1486633546.92505 | pgbench_branches_pkey |           737280
 2017-02-09 10:45:46.925049+01 | 1486633546.92505 | pgbench_tellers_pkey  |          2170880
 2017-02-09 10:45:46.925049+01 | 1486633546.92505 | pgbench_accounts_pkey |        673882112

 2017-02-09 10:45:48.063483+01 | 1486633548.06348 | pgbench_branches_pkey |           737280
 2017-02-09 10:45:48.063483+01 | 1486633548.06348 | pgbench_tellers_pkey  |          2170880
 2017-02-09 10:45:48.063483+01 | 1486633548.06348 | pgbench_accounts_pkey |        673882112

 2017-02-09 10:45:49.217259+01 | 1486633549.21726 | pgbench_branches_pkey |           737280
 2017-02-09 10:45:49.217259+01 | 1486633549.21726 | pgbench_tellers_pkey  |          2170880
 2017-02-09 10:45:49.217259+01 | 1486633549.21726 | pgbench_accounts_pkey |        673882112

 2017-02-09 10:45:50.41585+01 | 1486633550.41585 | pgbench_branches_pkey |           737280
 2017-02-09 10:45:50.41585+01 | 1486633550.41585 | pgbench_tellers_pkey  |          2170880
 2017-02-09 10:45:50.41585+01 | 1486633550.41585 | pgbench_accounts_pkey |        673882112

 2017-02-09 10:45:51.620865+01 | 1486633551.62087 | pgbench_branches_pkey |           737280
 2017-02-09 10:45:51.620865+01 | 1486633551.62087 | pgbench_tellers_pkey  |          2170880
 2017-02-09 10:45:51.620865+01 | 1486633551.62087 | pgbench_accounts_pkey |        673882112

 2017-02-09 10:45:52.816248+01 | 1486633552.81625 | pgbench_branches_pkey |           737280
 2017-02-09 10:45:52.816248+01 | 1486633552.81625 | pgbench_tellers_pkey  |          2170880
 2017-02-09 10:45:52.816248+01 | 1486633552.81625 | pgbench_accounts_pkey |        673882112

 2017-02-09 10:45:53.956799+01 | 1486633553.9568 | pgbench_branches_pkey |           737280
 2017-02-09 10:45:53.956799+01 | 1486633553.9568 | pgbench_tellers_pkey  |          2170880
 2017-02-09 10:45:53.956799+01 | 1486633553.9568 | pgbench_accounts_pkey |        673882112

 2017-02-09 10:45:55.11211+01 | 1486633555.11211 | pgbench_branches_pkey |           737280
 2017-02-09 10:45:55.11211+01 | 1486633555.11211 | pgbench_tellers_pkey  |          2170880
 2017-02-09 10:45:55.11211+01 | 1486633555.11211 | pgbench_accounts_pkey |        673882112

 2017-02-09 10:45:56.259041+01 | 1486633556.25904 | pgbench_branches_pkey |           737280
 2017-02-09 10:45:56.259041+01 | 1486633556.25904 | pgbench_tellers_pkey  |          2170880
 2017-02-09 10:45:56.259041+01 | 1486633556.25904 | pgbench_accounts_pkey |        673882112

 2017-02-09 10:45:57.367601+01 | 1486633557.3676 | pgbench_branches_pkey |           737280
 2017-02-09 10:45:57.367601+01 | 1486633557.3676 | pgbench_tellers_pkey  |          2170880
 2017-02-09 10:45:57.367601+01 | 1486633557.3676 | pgbench_accounts_pkey |        673882112

 2017-02-09 10:45:58.474971+01 | 1486633558.47497 | pgbench_branches_pkey |           737280
 2017-02-09 10:45:58.474971+01 | 1486633558.47497 | pgbench_tellers_pkey  |          2170880
 2017-02-09 10:45:58.474971+01 | 1486633558.47497 | pgbench_accounts_pkey |        673882112

 2017-02-09 10:45:59.626583+01 | 1486633559.62658 | pgbench_branches_pkey |           737280
 2017-02-09 10:45:59.626583+01 | 1486633559.62658 | pgbench_tellers_pkey  |          2170880
 2017-02-09 10:45:59.626583+01 | 1486633559.62658 | pgbench_accounts_pkey |        673882112

 2017-02-09 10:46:00.781602+01 | 1486633560.7816 | pgbench_branches_pkey |           737280
 2017-02-09 10:46:00.781602+01 | 1486633560.7816 | pgbench_tellers_pkey  |          2170880
 2017-02-09 10:46:00.781602+01 | 1486633560.7816 | pgbench_accounts_pkey |        673882112

 2017-02-09 10:46:01.912032+01 | 1486633561.91203 | pgbench_branches_pkey |           737280
 2017-02-09 10:46:01.912032+01 | 1486633561.91203 | pgbench_tellers_pkey  |          2170880
 2017-02-09 10:46:01.912032+01 | 1486633561.91203 | pgbench_accounts_pkey |        673882112

 2017-02-09 10:46:03.106913+01 | 1486633563.10691 | pgbench_branches_pkey |           737280
 2017-02-09 10:46:03.106913+01 | 1486633563.10691 | pgbench_tellers_pkey  |          2170880
 2017-02-09 10:46:03.106913+01 | 1486633563.10691 | pgbench_accounts_pkey |        673882112

 2017-02-09 10:46:04.289534+01 | 1486633564.28953 | pgbench_branches_pkey |           737280
 2017-02-09 10:46:04.289534+01 | 1486633564.28953 | pgbench_tellers_pkey  |          2170880
 2017-02-09 10:46:04.289534+01 | 1486633564.28953 | pgbench_accounts_pkey |        673882112

 2017-02-09 10:46:05.427414+01 | 1486633565.42741 | pgbench_branches_pkey |           737280
 2017-02-09 10:46:05.427414+01 | 1486633565.42741 | pgbench_tellers_pkey  |          2170880
 2017-02-09 10:46:05.427414+01 | 1486633565.42741 | pgbench_accounts_pkey |        673882112

 2017-02-09 10:46:06.630698+01 | 1486633566.6307 | pgbench_branches_pkey |           737280
 2017-02-09 10:46:06.630698+01 | 1486633566.6307 | pgbench_tellers_pkey  |          2170880
 2017-02-09 10:46:06.630698+01 | 1486633566.6307 | pgbench_accounts_pkey |        673882112

 2017-02-09 10:46:07.807136+01 | 1486633567.80714 | pgbench_branches_pkey |           737280
 2017-02-09 10:46:07.807136+01 | 1486633567.80714 | pgbench_tellers_pkey  |          2170880
 2017-02-09 10:46:07.807136+01 | 1486633567.80714 | pgbench_accounts_pkey |        673882112

 2017-02-09 10:46:08.948878+01 | 1486633568.94888 | pgbench_branches_pkey |           737280
 2017-02-09 10:46:08.948878+01 | 1486633568.94888 | pgbench_tellers_pkey  |          2170880
 2017-02-09 10:46:08.948878+01 | 1486633568.94888 | pgbench_accounts_pkey |        673882112

 2017-02-09 10:46:10.16527+01 | 1486633570.16527 | pgbench_branches_pkey |           737280
 2017-02-09 10:46:10.16527+01 | 1486633570.16527 | pgbench_tellers_pkey  |          2170880
 2017-02-09 10:46:10.16527+01 | 1486633570.16527 | pgbench_accounts_pkey |        673882112

 2017-02-09 10:46:11.344754+01 | 1486633571.34475 | pgbench_branches_pkey |           737280
 2017-02-09 10:46:11.344754+01 | 1486633571.34475 | pgbench_tellers_pkey  |          2170880
 2017-02-09 10:46:11.344754+01 | 1486633571.34475 | pgbench_accounts_pkey |        673882112

 2017-02-09 10:46:12.501458+01 | 1486633572.50146 | pgbench_branches_pkey |           737280
 2017-02-09 10:46:12.501458+01 | 1486633572.50146 | pgbench_tellers_pkey  |          2170880
 2017-02-09 10:46:12.501458+01 | 1486633572.50146 | pgbench_accounts_pkey |        673882112

 2017-02-09 10:46:13.659086+01 | 1486633573.65909 | pgbench_branches_pkey |           737280
 2017-02-09 10:46:13.659086+01 | 1486633573.65909 | pgbench_tellers_pkey  |          2170880
 2017-02-09 10:46:13.659086+01 | 1486633573.65909 | pgbench_accounts_pkey |        673882112

 2017-02-09 10:46:14.740894+01 | 1486633574.74089 | pgbench_branches_pkey |           737280
 2017-02-09 10:46:14.740894+01 | 1486633574.74089 | pgbench_tellers_pkey  |          2170880
 2017-02-09 10:46:14.740894+01 | 1486633574.74089 | pgbench_accounts_pkey |        673882112

 2017-02-09 10:46:15.858777+01 | 1486633575.85878 | pgbench_branches_pkey |           737280
 2017-02-09 10:46:15.858777+01 | 1486633575.85878 | pgbench_tellers_pkey  |          2170880
 2017-02-09 10:46:15.858777+01 | 1486633575.85878 | pgbench_accounts_pkey |        673882112

 2017-02-09 10:46:17.041068+01 | 1486633577.04107 | pgbench_branches_pkey |           737280
 2017-02-09 10:46:17.041068+01 | 1486633577.04107 | pgbench_tellers_pkey  |          2170880
 2017-02-09 10:46:17.041068+01 | 1486633577.04107 | pgbench_accounts_pkey |        673882112

 2017-02-09 10:46:18.219515+01 | 1486633578.21952 | pgbench_branches_pkey |           737280
 2017-02-09 10:46:18.219515+01 | 1486633578.21952 | pgbench_tellers_pkey  |          2170880
 2017-02-09 10:46:18.219515+01 | 1486633578.21952 | pgbench_accounts_pkey |        673882112

 2017-02-09 10:46:19.440886+01 | 1486633579.44089 | pgbench_branches_pkey |           737280
 2017-02-09 10:46:19.440886+01 | 1486633579.44089 | pgbench_tellers_pkey  |          2170880
 2017-02-09 10:46:19.440886+01 | 1486633579.44089 | pgbench_accounts_pkey |        673882112

 2017-02-09 10:46:20.608812+01 | 1486633580.60881 | pgbench_branches_pkey |           737280
 2017-02-09 10:46:20.608812+01 | 1486633580.60881 | pgbench_tellers_pkey  |          2170880
 2017-02-09 10:46:20.608812+01 | 1486633580.60881 | pgbench_accounts_pkey |        673882112

 2017-02-09 10:46:21.726672+01 | 1486633581.72667 | pgbench_branches_pkey |           737280
 2017-02-09 10:46:21.726672+01 | 1486633581.72667 | pgbench_tellers_pkey  |          2170880
 2017-02-09 10:46:21.726672+01 | 1486633581.72667 | pgbench_accounts_pkey |        673882112

 2017-02-09 10:46:22.936592+01 | 1486633582.93659 | pgbench_branches_pkey |           737280
 2017-02-09 10:46:22.936592+01 | 1486633582.93659 | pgbench_tellers_pkey  |          2170880
 2017-02-09 10:46:22.936592+01 | 1486633582.93659 | pgbench_accounts_pkey |        673882112

 2017-02-09 10:46:24.127546+01 | 1486633584.12755 | pgbench_branches_pkey |           737280
 2017-02-09 10:46:24.127546+01 | 1486633584.12755 | pgbench_tellers_pkey  |          2170880
 2017-02-09 10:46:24.127546+01 | 1486633584.12755 | pgbench_accounts_pkey |        673882112

 2017-02-09 10:46:25.311877+01 | 1486633585.31188 | pgbench_branches_pkey |           737280
 2017-02-09 10:46:25.311877+01 | 1486633585.31188 | pgbench_tellers_pkey  |          2170880
 2017-02-09 10:46:25.311877+01 | 1486633585.31188 | pgbench_accounts_pkey |        673882112

 2017-02-09 10:46:26.423139+01 | 1486633586.42314 | pgbench_branches_pkey |           737280
 2017-02-09 10:46:26.423139+01 | 1486633586.42314 | pgbench_tellers_pkey  |          2170880
 2017-02-09 10:46:26.423139+01 | 1486633586.42314 | pgbench_accounts_pkey |        673882112

 2017-02-09 10:46:27.566725+01 | 1486633587.56673 | pgbench_branches_pkey |           737280
 2017-02-09 10:46:27.566725+01 | 1486633587.56673 | pgbench_tellers_pkey  |          2170880
 2017-02-09 10:46:27.566725+01 | 1486633587.56673 | pgbench_accounts_pkey |        673882112

 2017-02-09 10:46:28.738637+01 | 1486633588.73864 | pgbench_branches_pkey |           737280
 2017-02-09 10:46:28.738637+01 | 1486633588.73864 | pgbench_tellers_pkey  |          2170880
 2017-02-09 10:46:28.738637+01 | 1486633588.73864 | pgbench_accounts_pkey |        673882112

 2017-02-09 10:46:29.901008+01 | 1486633589.90101 | pgbench_branches_pkey |           737280
 2017-02-09 10:46:29.901008+01 | 1486633589.90101 | pgbench_tellers_pkey  |          2170880
 2017-02-09 10:46:29.901008+01 | 1486633589.90101 | pgbench_accounts_pkey |        673882112

 2017-02-09 10:46:31.091797+01 | 1486633591.0918 | pgbench_branches_pkey |           737280
 2017-02-09 10:46:31.091797+01 | 1486633591.0918 | pgbench_tellers_pkey  |          2170880
 2017-02-09 10:46:31.091797+01 | 1486633591.0918 | pgbench_accounts_pkey |        673882112

 2017-02-09 10:46:32.275212+01 | 1486633592.27521 | pgbench_branches_pkey |           737280
 2017-02-09 10:46:32.275212+01 | 1486633592.27521 | pgbench_tellers_pkey  |          2170880
 2017-02-09 10:46:32.275212+01 | 1486633592.27521 | pgbench_accounts_pkey |        673882112

 2017-02-09 10:46:33.416316+01 | 1486633593.41632 | pgbench_branches_pkey |           737280
 2017-02-09 10:46:33.416316+01 | 1486633593.41632 | pgbench_tellers_pkey  |          2170880
 2017-02-09 10:46:33.416316+01 | 1486633593.41632 | pgbench_accounts_pkey |        673882112

 2017-02-09 10:46:34.555954+01 | 1486633594.55595 | pgbench_branches_pkey |           737280
 2017-02-09 10:46:34.555954+01 | 1486633594.55595 | pgbench_tellers_pkey  |          2170880
 2017-02-09 10:46:34.555954+01 | 1486633594.55595 | pgbench_accounts_pkey |        673882112

 2017-02-09 10:46:35.755198+01 | 1486633595.7552 | pgbench_branches_pkey |           737280
 2017-02-09 10:46:35.755198+01 | 1486633595.7552 | pgbench_tellers_pkey  |          2170880
 2017-02-09 10:46:35.755198+01 | 1486633595.7552 | pgbench_accounts_pkey |        673882112

 2017-02-09 10:46:36.890221+01 | 1486633596.89022 | pgbench_branches_pkey |           737280
 2017-02-09 10:46:36.890221+01 | 1486633596.89022 | pgbench_tellers_pkey  |          2170880
 2017-02-09 10:46:36.890221+01 | 1486633596.89022 | pgbench_accounts_pkey |        673882112

 2017-02-09 10:46:38.042424+01 | 1486633598.04242 | pgbench_branches_pkey |           737280
 2017-02-09 10:46:38.042424+01 | 1486633598.04242 | pgbench_tellers_pkey  |          2170880
 2017-02-09 10:46:38.042424+01 | 1486633598.04242 | pgbench_accounts_pkey |        673882112

 2017-02-09 10:46:39.181827+01 | 1486633599.18183 | pgbench_branches_pkey |           737280
 2017-02-09 10:46:39.181827+01 | 1486633599.18183 | pgbench_tellers_pkey  |          2170880
 2017-02-09 10:46:39.181827+01 | 1486633599.18183 | pgbench_accounts_pkey |        673882112

 2017-02-09 10:46:40.354561+01 | 1486633600.35456 | pgbench_branches_pkey |           737280
 2017-02-09 10:46:40.354561+01 | 1486633600.35456 | pgbench_tellers_pkey  |          2170880
 2017-02-09 10:46:40.354561+01 | 1486633600.35456 | pgbench_accounts_pkey |        673882112

 2017-02-09 10:46:41.507172+01 | 1486633601.50717 | pgbench_branches_pkey |           737280
 2017-02-09 10:46:41.507172+01 | 1486633601.50717 | pgbench_tellers_pkey  |          2170880
 2017-02-09 10:46:41.507172+01 | 1486633601.50717 | pgbench_accounts_pkey |        673882112

 2017-02-09 10:46:42.709587+01 | 1486633602.70959 | pgbench_branches_pkey |           737280
 2017-02-09 10:46:42.709587+01 | 1486633602.70959 | pgbench_tellers_pkey  |          2170880
 2017-02-09 10:46:42.709587+01 | 1486633602.70959 | pgbench_accounts_pkey |        673882112

 2017-02-09 10:46:43.874017+01 | 1486633603.87402 | pgbench_branches_pkey |           737280
 2017-02-09 10:46:43.874017+01 | 1486633603.87402 | pgbench_tellers_pkey  |          2170880
 2017-02-09 10:46:43.874017+01 | 1486633603.87402 | pgbench_accounts_pkey |        673882112

 2017-02-09 10:46:45.063368+01 | 1486633605.06337 | pgbench_branches_pkey |           737280
 2017-02-09 10:46:45.063368+01 | 1486633605.06337 | pgbench_tellers_pkey  |          2170880
 2017-02-09 10:46:45.063368+01 | 1486633605.06337 | pgbench_accounts_pkey |        673882112

 2017-02-09 10:46:46.23587+01 | 1486633606.23587 | pgbench_branches_pkey |           737280
 2017-02-09 10:46:46.23587+01 | 1486633606.23587 | pgbench_tellers_pkey  |          2170880
 2017-02-09 10:46:46.23587+01 | 1486633606.23587 | pgbench_accounts_pkey |        673882112

 2017-02-09 10:46:47.376626+01 | 1486633607.37663 | pgbench_branches_pkey |           737280
 2017-02-09 10:46:47.376626+01 | 1486633607.37663 | pgbench_tellers_pkey  |          2170880
 2017-02-09 10:46:47.376626+01 | 1486633607.37663 | pgbench_accounts_pkey |        673882112

 2017-02-09 10:46:48.556635+01 | 1486633608.55663 | pgbench_branches_pkey |           737280
 2017-02-09 10:46:48.556635+01 | 1486633608.55663 | pgbench_tellers_pkey  |          2170880
 2017-02-09 10:46:48.556635+01 | 1486633608.55663 | pgbench_accounts_pkey |        673882112

 2017-02-09 10:46:49.706565+01 | 1486633609.70656 | pgbench_branches_pkey |           737280
 2017-02-09 10:46:49.706565+01 | 1486633609.70656 | pgbench_tellers_pkey  |          2170880
 2017-02-09 10:46:49.706565+01 | 1486633609.70656 | pgbench_accounts_pkey |        673882112

 2017-02-09 10:46:50.904566+01 | 1486633610.90457 | pgbench_branches_pkey |           737280
 2017-02-09 10:46:50.904566+01 | 1486633610.90457 | pgbench_tellers_pkey  |          2170880
 2017-02-09 10:46:50.904566+01 | 1486633610.90457 | pgbench_accounts_pkey |        673882112

 2017-02-09 10:46:52.065843+01 | 1486633612.06584 | pgbench_branches_pkey |           737280
 2017-02-09 10:46:52.065843+01 | 1486633612.06584 | pgbench_tellers_pkey  |          2170880
 2017-02-09 10:46:52.065843+01 | 1486633612.06584 | pgbench_accounts_pkey |        673882112

 2017-02-09 10:46:53.153443+01 | 1486633613.15344 | pgbench_branches_pkey |           737280
 2017-02-09 10:46:53.153443+01 | 1486633613.15344 | pgbench_tellers_pkey  |          2170880
 2017-02-09 10:46:53.153443+01 | 1486633613.15344 | pgbench_accounts_pkey |        673882112

 2017-02-09 10:46:54.308253+01 | 1486633614.30825 | pgbench_branches_pkey |           737280
 2017-02-09 10:46:54.308253+01 | 1486633614.30825 | pgbench_tellers_pkey  |          2170880
 2017-02-09 10:46:54.308253+01 | 1486633614.30825 | pgbench_accounts_pkey |        673882112

 2017-02-09 10:46:55.521007+01 | 1486633615.52101 | pgbench_branches_pkey |           737280
 2017-02-09 10:46:55.521007+01 | 1486633615.52101 | pgbench_tellers_pkey  |          2170880
 2017-02-09 10:46:55.521007+01 | 1486633615.52101 | pgbench_accounts_pkey |        673882112

 2017-02-09 10:46:56.72955+01 | 1486633616.72955 | pgbench_branches_pkey |           737280
 2017-02-09 10:46:56.72955+01 | 1486633616.72955 | pgbench_tellers_pkey  |          2170880
 2017-02-09 10:46:56.72955+01 | 1486633616.72955 | pgbench_accounts_pkey |        673882112

 2017-02-09 10:46:57.850654+01 | 1486633617.85065 | pgbench_branches_pkey |           737280
 2017-02-09 10:46:57.850654+01 | 1486633617.85065 | pgbench_tellers_pkey  |          2170880
 2017-02-09 10:46:57.850654+01 | 1486633617.85065 | pgbench_accounts_pkey |        673882112

 2017-02-09 10:46:58.945205+01 | 1486633618.9452 | pgbench_branches_pkey |           737280
 2017-02-09 10:46:58.945205+01 | 1486633618.9452 | pgbench_tellers_pkey  |          2170880
 2017-02-09 10:46:58.945205+01 | 1486633618.9452 | pgbench_accounts_pkey |        673882112

 2017-02-09 10:47:00.129752+01 | 1486633620.12975 | pgbench_branches_pkey |           737280
 2017-02-09 10:47:00.129752+01 | 1486633620.12975 | pgbench_tellers_pkey  |          2170880
 2017-02-09 10:47:00.129752+01 | 1486633620.12975 | pgbench_accounts_pkey |        673882112

 2017-02-09 10:47:01.305686+01 | 1486633621.30569 | pgbench_branches_pkey |           737280
 2017-02-09 10:47:01.305686+01 | 1486633621.30569 | pgbench_tellers_pkey  |          2170880
 2017-02-09 10:47:01.305686+01 | 1486633621.30569 | pgbench_accounts_pkey |        673882112

 2017-02-09 10:47:02.458412+01 | 1486633622.45841 | pgbench_branches_pkey |           737280
 2017-02-09 10:47:02.458412+01 | 1486633622.45841 | pgbench_tellers_pkey  |          2170880
 2017-02-09 10:47:02.458412+01 | 1486633622.45841 | pgbench_accounts_pkey |        673882112

 2017-02-09 10:47:03.650498+01 | 1486633623.6505 | pgbench_branches_pkey |           737280
 2017-02-09 10:47:03.650498+01 | 1486633623.6505 | pgbench_tellers_pkey  |          2170880
 2017-02-09 10:47:03.650498+01 | 1486633623.6505 | pgbench_accounts_pkey |        673882112

 2017-02-09 10:47:04.738502+01 | 1486633624.7385 | pgbench_branches_pkey |           737280
 2017-02-09 10:47:04.738502+01 | 1486633624.7385 | pgbench_tellers_pkey  |          2170880
 2017-02-09 10:47:04.738502+01 | 1486633624.7385 | pgbench_accounts_pkey |        673882112

 2017-02-09 10:47:05.870394+01 | 1486633625.87039 | pgbench_branches_pkey |           737280
 2017-02-09 10:47:05.870394+01 | 1486633625.87039 | pgbench_tellers_pkey  |          2170880
 2017-02-09 10:47:05.870394+01 | 1486633625.87039 | pgbench_accounts_pkey |        673882112

 2017-02-09 10:47:07.067204+01 | 1486633627.0672 | pgbench_branches_pkey |           737280
 2017-02-09 10:47:07.067204+01 | 1486633627.0672 | pgbench_tellers_pkey  |          2170880
 2017-02-09 10:47:07.067204+01 | 1486633627.0672 | pgbench_accounts_pkey |        673882112

 2017-02-09 10:47:08.23789+01 | 1486633628.23789 | pgbench_branches_pkey |           737280
 2017-02-09 10:47:08.23789+01 | 1486633628.23789 | pgbench_tellers_pkey  |          2170880
 2017-02-09 10:47:08.23789+01 | 1486633628.23789 | pgbench_accounts_pkey |        673882112

 2017-02-09 10:47:09.391148+01 | 1486633629.39115 | pgbench_branches_pkey |           737280
 2017-02-09 10:47:09.391148+01 | 1486633629.39115 | pgbench_tellers_pkey  |          2170880
 2017-02-09 10:47:09.391148+01 | 1486633629.39115 | pgbench_accounts_pkey |        673882112

 2017-02-09 10:47:10.49921+01 | 1486633630.49921 | pgbench_branches_pkey |           737280
 2017-02-09 10:47:10.49921+01 | 1486633630.49921 | pgbench_tellers_pkey  |          2170880
 2017-02-09 10:47:10.49921+01 | 1486633630.49921 | pgbench_accounts_pkey |        673882112

 2017-02-09 10:47:11.690774+01 | 1486633631.69077 | pgbench_branches_pkey |           737280
 2017-02-09 10:47:11.690774+01 | 1486633631.69077 | pgbench_tellers_pkey  |          2170880
 2017-02-09 10:47:11.690774+01 | 1486633631.69077 | pgbench_accounts_pkey |        673882112

 2017-02-09 10:47:12.904687+01 | 1486633632.90469 | pgbench_branches_pkey |           737280
 2017-02-09 10:47:12.904687+01 | 1486633632.90469 | pgbench_tellers_pkey  |          2170880
 2017-02-09 10:47:12.904687+01 | 1486633632.90469 | pgbench_accounts_pkey |        673882112

 2017-02-09 10:47:14.095655+01 | 1486633634.09565 | pgbench_branches_pkey |           737280
 2017-02-09 10:47:14.095655+01 | 1486633634.09565 | pgbench_tellers_pkey  |          2170880
 2017-02-09 10:47:14.095655+01 | 1486633634.09565 | pgbench_accounts_pkey |        673882112

 2017-02-09 10:47:15.247748+01 | 1486633635.24775 | pgbench_branches_pkey |           737280
 2017-02-09 10:47:15.247748+01 | 1486633635.24775 | pgbench_tellers_pkey  |          2170880
 2017-02-09 10:47:15.247748+01 | 1486633635.24775 | pgbench_accounts_pkey |        673882112

 2017-02-09 10:47:16.44866+01 | 1486633636.44866 | pgbench_branches_pkey |           737280
 2017-02-09 10:47:16.44866+01 | 1486633636.44866 | pgbench_tellers_pkey  |          2170880
 2017-02-09 10:47:16.44866+01 | 1486633636.44866 | pgbench_accounts_pkey |        673882112

 2017-02-09 10:47:17.587652+01 | 1486633637.58765 | pgbench_branches_pkey |           737280
 2017-02-09 10:47:17.587652+01 | 1486633637.58765 | pgbench_tellers_pkey  |          2170880
 2017-02-09 10:47:17.587652+01 | 1486633637.58765 | pgbench_accounts_pkey |        673882112

 2017-02-09 10:47:18.765793+01 | 1486633638.76579 | pgbench_branches_pkey |           737280
 2017-02-09 10:47:18.765793+01 | 1486633638.76579 | pgbench_tellers_pkey  |          2170880
 2017-02-09 10:47:18.765793+01 | 1486633638.76579 | pgbench_accounts_pkey |        673882112

 2017-02-09 10:47:19.969264+01 | 1486633639.96926 | pgbench_branches_pkey |           737280
 2017-02-09 10:47:19.969264+01 | 1486633639.96926 | pgbench_tellers_pkey  |          2170880
 2017-02-09 10:47:19.969264+01 | 1486633639.96926 | pgbench_accounts_pkey |        673882112

 2017-02-09 10:47:21.086637+01 | 1486633641.08664 | pgbench_branches_pkey |           737280
 2017-02-09 10:47:21.086637+01 | 1486633641.08664 | pgbench_tellers_pkey  |          2170880
 2017-02-09 10:47:21.086637+01 | 1486633641.08664 | pgbench_accounts_pkey |        673882112

 2017-02-09 10:47:22.263316+01 | 1486633642.26332 | pgbench_branches_pkey |           737280
 2017-02-09 10:47:22.263316+01 | 1486633642.26332 | pgbench_tellers_pkey  |          2170880
 2017-02-09 10:47:22.263316+01 | 1486633642.26332 | pgbench_accounts_pkey |        673882112

 2017-02-09 10:47:23.491002+01 | 1486633643.491 | pgbench_branches_pkey |           737280
 2017-02-09 10:47:23.491002+01 | 1486633643.491 | pgbench_tellers_pkey  |          2170880
 2017-02-09 10:47:23.491002+01 | 1486633643.491 | pgbench_accounts_pkey |        673882112

 2017-02-09 10:47:24.657136+01 | 1486633644.65714 | pgbench_branches_pkey |           737280
 2017-02-09 10:47:24.657136+01 | 1486633644.65714 | pgbench_tellers_pkey  |          2170880
 2017-02-09 10:47:24.657136+01 | 1486633644.65714 | pgbench_accounts_pkey |        673882112

 2017-02-09 10:47:25.830661+01 | 1486633645.83066 | pgbench_branches_pkey |           737280
 2017-02-09 10:47:25.830661+01 | 1486633645.83066 | pgbench_tellers_pkey  |          2170880
 2017-02-09 10:47:25.830661+01 | 1486633645.83066 | pgbench_accounts_pkey |        673882112

 2017-02-09 10:47:26.989099+01 | 1486633646.9891 | pgbench_branches_pkey |           737280
 2017-02-09 10:47:26.989099+01 | 1486633646.9891 | pgbench_tellers_pkey  |          2170880
 2017-02-09 10:47:26.989099+01 | 1486633646.9891 | pgbench_accounts_pkey |        673882112

 2017-02-09 10:47:28.184976+01 | 1486633648.18498 | pgbench_branches_pkey |           737280
 2017-02-09 10:47:28.184976+01 | 1486633648.18498 | pgbench_tellers_pkey  |          2170880
 2017-02-09 10:47:28.184976+01 | 1486633648.18498 | pgbench_accounts_pkey |        673882112

 2017-02-09 10:47:29.377695+01 | 1486633649.3777 | pgbench_branches_pkey |           737280
 2017-02-09 10:47:29.377695+01 | 1486633649.3777 | pgbench_tellers_pkey  |          2170880
 2017-02-09 10:47:29.377695+01 | 1486633649.3777 | pgbench_accounts_pkey |        673882112

 2017-02-09 10:47:30.539833+01 | 1486633650.53983 | pgbench_branches_pkey |           737280
 2017-02-09 10:47:30.539833+01 | 1486633650.53983 | pgbench_tellers_pkey  |          2170880
 2017-02-09 10:47:30.539833+01 | 1486633650.53983 | pgbench_accounts_pkey |        673882112

 2017-02-09 10:47:31.65571+01 | 1486633651.65571 | pgbench_branches_pkey |           737280
 2017-02-09 10:47:31.65571+01 | 1486633651.65571 | pgbench_tellers_pkey  |          2170880
 2017-02-09 10:47:31.65571+01 | 1486633651.65571 | pgbench_accounts_pkey |        673882112

 2017-02-09 10:47:32.762654+01 | 1486633652.76265 | pgbench_branches_pkey |           737280
 2017-02-09 10:47:32.762654+01 | 1486633652.76265 | pgbench_tellers_pkey  |          2170880
 2017-02-09 10:47:32.762654+01 | 1486633652.76265 | pgbench_accounts_pkey |        673882112

 2017-02-09 10:47:33.876929+01 | 1486633653.87693 | pgbench_branches_pkey |           737280
 2017-02-09 10:47:33.876929+01 | 1486633653.87693 | pgbench_tellers_pkey  |          2170880
 2017-02-09 10:47:33.876929+01 | 1486633653.87693 | pgbench_accounts_pkey |        673882112

 2017-02-09 10:47:34.9929+01 | 1486633654.9929 | pgbench_branches_pkey |           737280
 2017-02-09 10:47:34.9929+01 | 1486633654.9929 | pgbench_tellers_pkey  |          2170880
 2017-02-09 10:47:34.9929+01 | 1486633654.9929 | pgbench_accounts_pkey |        673882112

 2017-02-09 10:47:36.16195+01 | 1486633656.16195 | pgbench_branches_pkey |           737280
 2017-02-09 10:47:36.16195+01 | 1486633656.16195 | pgbench_tellers_pkey  |          2170880
 2017-02-09 10:47:36.16195+01 | 1486633656.16195 | pgbench_accounts_pkey |        673882112

 2017-02-09 10:47:37.313362+01 | 1486633657.31336 | pgbench_branches_pkey |           737280
 2017-02-09 10:47:37.313362+01 | 1486633657.31336 | pgbench_tellers_pkey  |          2170880
 2017-02-09 10:47:37.313362+01 | 1486633657.31336 | pgbench_accounts_pkey |        673882112

 2017-02-09 10:47:38.517352+01 | 1486633658.51735 | pgbench_branches_pkey |           737280
 2017-02-09 10:47:38.517352+01 | 1486633658.51735 | pgbench_tellers_pkey  |          2170880
 2017-02-09 10:47:38.517352+01 | 1486633658.51735 | pgbench_accounts_pkey |        673882112

 2017-02-09 10:47:39.642133+01 | 1486633659.64213 | pgbench_branches_pkey |           737280
 2017-02-09 10:47:39.642133+01 | 1486633659.64213 | pgbench_tellers_pkey  |          2170880
 2017-02-09 10:47:39.642133+01 | 1486633659.64213 | pgbench_accounts_pkey |        673882112

 2017-02-09 10:47:40.800362+01 | 1486633660.80036 | pgbench_branches_pkey |           737280
 2017-02-09 10:47:40.800362+01 | 1486633660.80036 | pgbench_tellers_pkey  |          2170880
 2017-02-09 10:47:40.800362+01 | 1486633660.80036 | pgbench_accounts_pkey |        673882112

 2017-02-09 10:47:41.953447+01 | 1486633661.95345 | pgbench_branches_pkey |           737280
 2017-02-09 10:47:41.953447+01 | 1486633661.95345 | pgbench_tellers_pkey  |          2170880
 2017-02-09 10:47:41.953447+01 | 1486633661.95345 | pgbench_accounts_pkey |        673882112

 2017-02-09 10:47:43.102483+01 | 1486633663.10248 | pgbench_branches_pkey |           737280
 2017-02-09 10:47:43.102483+01 | 1486633663.10248 | pgbench_tellers_pkey  |          2170880
 2017-02-09 10:47:43.102483+01 | 1486633663.10248 | pgbench_accounts_pkey |        673882112

 2017-02-09 10:47:44.308465+01 | 1486633664.30847 | pgbench_branches_pkey |           737280
 2017-02-09 10:47:44.308465+01 | 1486633664.30847 | pgbench_tellers_pkey  |          2170880
 2017-02-09 10:47:44.308465+01 | 1486633664.30847 | pgbench_accounts_pkey |        673882112

 2017-02-09 10:47:45.457207+01 | 1486633665.45721 | pgbench_branches_pkey |           737280
 2017-02-09 10:47:45.457207+01 | 1486633665.45721 | pgbench_tellers_pkey  |          2170880
 2017-02-09 10:47:45.457207+01 | 1486633665.45721 | pgbench_accounts_pkey |        673882112

 2017-02-09 10:47:46.64492+01 | 1486633666.64492 | pgbench_branches_pkey |           737280
 2017-02-09 10:47:46.64492+01 | 1486633666.64492 | pgbench_tellers_pkey  |          2170880
 2017-02-09 10:47:46.64492+01 | 1486633666.64492 | pgbench_accounts_pkey |        673882112

 2017-02-09 10:47:47.790276+01 | 1486633667.79028 | pgbench_branches_pkey |           737280
 2017-02-09 10:47:47.790276+01 | 1486633667.79028 | pgbench_tellers_pkey  |          2170880
 2017-02-09 10:47:47.790276+01 | 1486633667.79028 | pgbench_accounts_pkey |        673882112

 2017-02-09 10:47:48.964582+01 | 1486633668.96458 | pgbench_branches_pkey |           737280
 2017-02-09 10:47:48.964582+01 | 1486633668.96458 | pgbench_tellers_pkey  |          2170880
 2017-02-09 10:47:48.964582+01 | 1486633668.96458 | pgbench_accounts_pkey |        673882112

 2017-02-09 10:47:50.14234+01 | 1486633670.14234 | pgbench_branches_pkey |           737280
 2017-02-09 10:47:50.14234+01 | 1486633670.14234 | pgbench_tellers_pkey  |          2170880
 2017-02-09 10:47:50.14234+01 | 1486633670.14234 | pgbench_accounts_pkey |        673882112

 2017-02-09 10:47:51.285381+01 | 1486633671.28538 | pgbench_branches_pkey |           737280
 2017-02-09 10:47:51.285381+01 | 1486633671.28538 | pgbench_tellers_pkey  |          2170880
 2017-02-09 10:47:51.285381+01 | 1486633671.28538 | pgbench_accounts_pkey |        673882112

 2017-02-09 10:47:52.435883+01 | 1486633672.43588 | pgbench_branches_pkey |           737280
 2017-02-09 10:47:52.435883+01 | 1486633672.43588 | pgbench_tellers_pkey  |          2170880
 2017-02-09 10:47:52.435883+01 | 1486633672.43588 | pgbench_accounts_pkey |        673882112

 2017-02-09 10:47:53.611159+01 | 1486633673.61116 | pgbench_branches_pkey |           737280
 2017-02-09 10:47:53.611159+01 | 1486633673.61116 | pgbench_tellers_pkey  |          2170880
 2017-02-09 10:47:53.611159+01 | 1486633673.61116 | pgbench_accounts_pkey |        673882112

 2017-02-09 10:47:54.724953+01 | 1486633674.72495 | pgbench_branches_pkey |           737280
 2017-02-09 10:47:54.724953+01 | 1486633674.72495 | pgbench_tellers_pkey  |          2170880
 2017-02-09 10:47:54.724953+01 | 1486633674.72495 | pgbench_accounts_pkey |        673882112

 2017-02-09 10:47:55.864574+01 | 1486633675.86457 | pgbench_branches_pkey |           737280
 2017-02-09 10:47:55.864574+01 | 1486633675.86457 | pgbench_tellers_pkey  |          2170880
 2017-02-09 10:47:55.864574+01 | 1486633675.86457 | pgbench_accounts_pkey |        673882112

 2017-02-09 10:47:56.996939+01 | 1486633676.99694 | pgbench_branches_pkey |           737280
 2017-02-09 10:47:56.996939+01 | 1486633676.99694 | pgbench_tellers_pkey  |          2170880
 2017-02-09 10:47:56.996939+01 | 1486633676.99694 | pgbench_accounts_pkey |        673882112

 2017-02-09 10:47:58.145958+01 | 1486633678.14596 | pgbench_branches_pkey |           737280
 2017-02-09 10:47:58.145958+01 | 1486633678.14596 | pgbench_tellers_pkey  |          2170880
 2017-02-09 10:47:58.145958+01 | 1486633678.14596 | pgbench_accounts_pkey |        673882112

 2017-02-09 10:47:59.238933+01 | 1486633679.23893 | pgbench_branches_pkey |           737280
 2017-02-09 10:47:59.238933+01 | 1486633679.23893 | pgbench_tellers_pkey  |          2170880
 2017-02-09 10:47:59.238933+01 | 1486633679.23893 | pgbench_accounts_pkey |        673882112

 2017-02-09 10:48:00.395069+01 | 1486633680.39507 | pgbench_branches_pkey |           737280
 2017-02-09 10:48:00.395069+01 | 1486633680.39507 | pgbench_tellers_pkey  |          2170880
 2017-02-09 10:48:00.395069+01 | 1486633680.39507 | pgbench_accounts_pkey |        673882112

 2017-02-09 10:48:01.601883+01 | 1486633681.60188 | pgbench_branches_pkey |           737280
 2017-02-09 10:48:01.601883+01 | 1486633681.60188 | pgbench_tellers_pkey  |          2170880
 2017-02-09 10:48:01.601883+01 | 1486633681.60188 | pgbench_accounts_pkey |        673882112

 2017-02-09 10:48:02.786345+01 | 1486633682.78635 | pgbench_branches_pkey |           737280
 2017-02-09 10:48:02.786345+01 | 1486633682.78635 | pgbench_tellers_pkey  |          2170880
 2017-02-09 10:48:02.786345+01 | 1486633682.78635 | pgbench_accounts_pkey |        673882112

 2017-02-09 10:48:03.964862+01 | 1486633683.96486 | pgbench_branches_pkey |           737280
 2017-02-09 10:48:03.964862+01 | 1486633683.96486 | pgbench_tellers_pkey  |          2170880
 2017-02-09 10:48:03.964862+01 | 1486633683.96486 | pgbench_accounts_pkey |        673882112

 2017-02-09 10:48:05.093557+01 | 1486633685.09356 | pgbench_branches_pkey |           737280
 2017-02-09 10:48:05.093557+01 | 1486633685.09356 | pgbench_tellers_pkey  |          2170880
 2017-02-09 10:48:05.093557+01 | 1486633685.09356 | pgbench_accounts_pkey |        673882112

 2017-02-09 10:48:06.233617+01 | 1486633686.23362 | pgbench_branches_pkey |           737280
 2017-02-09 10:48:06.233617+01 | 1486633686.23362 | pgbench_tellers_pkey  |          2170880
 2017-02-09 10:48:06.233617+01 | 1486633686.23362 | pgbench_accounts_pkey |        673882112

 2017-02-09 10:48:07.457944+01 | 1486633687.45794 | pgbench_branches_pkey |           737280
 2017-02-09 10:48:07.457944+01 | 1486633687.45794 | pgbench_tellers_pkey  |          2170880
 2017-02-09 10:48:07.457944+01 | 1486633687.45794 | pgbench_accounts_pkey |        673882112

 2017-02-09 10:48:08.626083+01 | 1486633688.62608 | pgbench_branches_pkey |           737280
 2017-02-09 10:48:08.626083+01 | 1486633688.62608 | pgbench_tellers_pkey  |          2170880
 2017-02-09 10:48:08.626083+01 | 1486633688.62608 | pgbench_accounts_pkey |        673882112

 2017-02-09 10:48:09.786843+01 | 1486633689.78684 | pgbench_branches_pkey |           737280
 2017-02-09 10:48:09.786843+01 | 1486633689.78684 | pgbench_tellers_pkey  |          2170880
 2017-02-09 10:48:09.786843+01 | 1486633689.78684 | pgbench_accounts_pkey |        673882112

 2017-02-09 10:48:10.913465+01 | 1486633690.91347 | pgbench_branches_pkey |           737280
 2017-02-09 10:48:10.913465+01 | 1486633690.91347 | pgbench_tellers_pkey  |          2170880
 2017-02-09 10:48:10.913465+01 | 1486633690.91347 | pgbench_accounts_pkey |        673882112

 2017-02-09 10:48:12.084955+01 | 1486633692.08495 | pgbench_branches_pkey |           737280
 2017-02-09 10:48:12.084955+01 | 1486633692.08495 | pgbench_tellers_pkey  |          2170880
 2017-02-09 10:48:12.084955+01 | 1486633692.08495 | pgbench_accounts_pkey |        673882112

 2017-02-09 10:48:13.249805+01 | 1486633693.2498 | pgbench_branches_pkey |           737280
 2017-02-09 10:48:13.249805+01 | 1486633693.2498 | pgbench_tellers_pkey  |          2170880
 2017-02-09 10:48:13.249805+01 | 1486633693.2498 | pgbench_accounts_pkey |        673882112

 2017-02-09 10:48:14.430375+01 | 1486633694.43038 | pgbench_branches_pkey |           737280
 2017-02-09 10:48:14.430375+01 | 1486633694.43038 | pgbench_tellers_pkey  |          2170880
 2017-02-09 10:48:14.430375+01 | 1486633694.43038 | pgbench_accounts_pkey |        673882112

 2017-02-09 10:48:15.579732+01 | 1486633695.57973 | pgbench_branches_pkey |           737280
 2017-02-09 10:48:15.579732+01 | 1486633695.57973 | pgbench_tellers_pkey  |          2170880
 2017-02-09 10:48:15.579732+01 | 1486633695.57973 | pgbench_accounts_pkey |        673882112

 2017-02-09 10:48:16.683944+01 | 1486633696.68394 | pgbench_branches_pkey |           737280
 2017-02-09 10:48:16.683944+01 | 1486633696.68394 | pgbench_tellers_pkey  |          2170880
 2017-02-09 10:48:16.683944+01 | 1486633696.68394 | pgbench_accounts_pkey |        673882112

 2017-02-09 10:48:17.855801+01 | 1486633697.8558 | pgbench_branches_pkey |           737280
 2017-02-09 10:48:17.855801+01 | 1486633697.8558 | pgbench_tellers_pkey  |          2170880
 2017-02-09 10:48:17.855801+01 | 1486633697.8558 | pgbench_accounts_pkey |        673882112

 2017-02-09 10:48:19.071366+01 | 1486633699.07137 | pgbench_branches_pkey |           737280
 2017-02-09 10:48:19.071366+01 | 1486633699.07137 | pgbench_tellers_pkey  |          2170880
 2017-02-09 10:48:19.071366+01 | 1486633699.07137 | pgbench_accounts_pkey |        673882112

 2017-02-09 10:48:20.171657+01 | 1486633700.17166 | pgbench_branches_pkey |           737280
 2017-02-09 10:48:20.171657+01 | 1486633700.17166 | pgbench_tellers_pkey  |          2170880
 2017-02-09 10:48:20.171657+01 | 1486633700.17166 | pgbench_accounts_pkey |        673882112

 2017-02-09 10:48:21.279356+01 | 1486633701.27936 | pgbench_branches_pkey |           737280
 2017-02-09 10:48:21.279356+01 | 1486633701.27936 | pgbench_tellers_pkey  |          2170880
 2017-02-09 10:48:21.279356+01 | 1486633701.27936 | pgbench_accounts_pkey |        673882112

 2017-02-09 10:48:22.393785+01 | 1486633702.39378 | pgbench_branches_pkey |           737280
 2017-02-09 10:48:22.393785+01 | 1486633702.39378 | pgbench_tellers_pkey  |          2170880
 2017-02-09 10:48:22.393785+01 | 1486633702.39378 | pgbench_accounts_pkey |        673882112

 2017-02-09 10:48:23.57113+01 | 1486633703.57113 | pgbench_branches_pkey |           737280
 2017-02-09 10:48:23.57113+01 | 1486633703.57113 | pgbench_tellers_pkey  |          2170880
 2017-02-09 10:48:23.57113+01 | 1486633703.57113 | pgbench_accounts_pkey |        673882112

 2017-02-09 10:48:24.714204+01 | 1486633704.7142 | pgbench_branches_pkey |           737280
 2017-02-09 10:48:24.714204+01 | 1486633704.7142 | pgbench_tellers_pkey  |          2170880
 2017-02-09 10:48:24.714204+01 | 1486633704.7142 | pgbench_accounts_pkey |        673882112

 2017-02-09 10:48:25.869783+01 | 1486633705.86978 | pgbench_branches_pkey |           737280
 2017-02-09 10:48:25.869783+01 | 1486633705.86978 | pgbench_tellers_pkey  |          2170880
 2017-02-09 10:48:25.869783+01 | 1486633705.86978 | pgbench_accounts_pkey |        673882112

 2017-02-09 10:48:27.044989+01 | 1486633707.04499 | pgbench_branches_pkey |           737280
 2017-02-09 10:48:27.044989+01 | 1486633707.04499 | pgbench_tellers_pkey  |          2170880
 2017-02-09 10:48:27.044989+01 | 1486633707.04499 | pgbench_accounts_pkey |        673882112

 2017-02-09 10:48:28.217149+01 | 1486633708.21715 | pgbench_branches_pkey |           737280
 2017-02-09 10:48:28.217149+01 | 1486633708.21715 | pgbench_tellers_pkey  |          2170880
 2017-02-09 10:48:28.217149+01 | 1486633708.21715 | pgbench_accounts_pkey |        673882112

 2017-02-09 10:48:29.308909+01 | 1486633709.30891 | pgbench_branches_pkey |           737280
 2017-02-09 10:48:29.308909+01 | 1486633709.30891 | pgbench_tellers_pkey  |          2170880
 2017-02-09 10:48:29.308909+01 | 1486633709.30891 | pgbench_accounts_pkey |        673882112

 2017-02-09 10:48:30.470154+01 | 1486633710.47015 | pgbench_branches_pkey |           737280
 2017-02-09 10:48:30.470154+01 | 1486633710.47015 | pgbench_tellers_pkey  |          2170880
 2017-02-09 10:48:30.470154+01 | 1486633710.47015 | pgbench_accounts_pkey |        673882112

 2017-02-09 10:48:31.692159+01 | 1486633711.69216 | pgbench_branches_pkey |           737280
 2017-02-09 10:48:31.692159+01 | 1486633711.69216 | pgbench_tellers_pkey  |          2170880
 2017-02-09 10:48:31.692159+01 | 1486633711.69216 | pgbench_accounts_pkey |        673882112

 2017-02-09 10:48:32.861272+01 | 1486633712.86127 | pgbench_branches_pkey |           737280
 2017-02-09 10:48:32.861272+01 | 1486633712.86127 | pgbench_tellers_pkey  |          2170880
 2017-02-09 10:48:32.861272+01 | 1486633712.86127 | pgbench_accounts_pkey |        673882112

 2017-02-09 10:48:34.040543+01 | 1486633714.04054 | pgbench_branches_pkey |           737280
 2017-02-09 10:48:34.040543+01 | 1486633714.04054 | pgbench_tellers_pkey  |          2170880
 2017-02-09 10:48:34.040543+01 | 1486633714.04054 | pgbench_accounts_pkey |        673882112

 2017-02-09 10:48:35.250602+01 | 1486633715.2506 | pgbench_branches_pkey |           737280
 2017-02-09 10:48:35.250602+01 | 1486633715.2506 | pgbench_tellers_pkey  |          2170880
 2017-02-09 10:48:35.250602+01 | 1486633715.2506 | pgbench_accounts_pkey |        673882112

 2017-02-09 10:48:36.449126+01 | 1486633716.44913 | pgbench_branches_pkey |           737280
 2017-02-09 10:48:36.449126+01 | 1486633716.44913 | pgbench_tellers_pkey  |          2170880
 2017-02-09 10:48:36.449126+01 | 1486633716.44913 | pgbench_accounts_pkey |        673882112

 2017-02-09 10:48:37.556884+01 | 1486633717.55688 | pgbench_branches_pkey |           737280
 2017-02-09 10:48:37.556884+01 | 1486633717.55688 | pgbench_tellers_pkey  |          2170880
 2017-02-09 10:48:37.556884+01 | 1486633717.55688 | pgbench_accounts_pkey |        673882112

 2017-02-09 10:48:38.68868+01 | 1486633718.68868 | pgbench_branches_pkey |           737280
 2017-02-09 10:48:38.68868+01 | 1486633718.68868 | pgbench_tellers_pkey  |          2170880
 2017-02-09 10:48:38.68868+01 | 1486633718.68868 | pgbench_accounts_pkey |        673882112

 2017-02-09 10:48:39.876217+01 | 1486633719.87622 | pgbench_branches_pkey |           737280
 2017-02-09 10:48:39.876217+01 | 1486633719.87622 | pgbench_tellers_pkey  |          2170880
 2017-02-09 10:48:39.876217+01 | 1486633719.87622 | pgbench_accounts_pkey |        673882112

 2017-02-09 10:48:41.043578+01 | 1486633721.04358 | pgbench_branches_pkey |           737280
 2017-02-09 10:48:41.043578+01 | 1486633721.04358 | pgbench_tellers_pkey  |          2170880
 2017-02-09 10:48:41.043578+01 | 1486633721.04358 | pgbench_accounts_pkey |        673882112

 2017-02-09 10:48:42.212171+01 | 1486633722.21217 | pgbench_branches_pkey |           737280
 2017-02-09 10:48:42.212171+01 | 1486633722.21217 | pgbench_tellers_pkey  |          2170880
 2017-02-09 10:48:42.212171+01 | 1486633722.21217 | pgbench_accounts_pkey |        673882112

 2017-02-09 10:48:43.360711+01 | 1486633723.36071 | pgbench_branches_pkey |           737280
 2017-02-09 10:48:43.360711+01 | 1486633723.36071 | pgbench_tellers_pkey  |          2170880
 2017-02-09 10:48:43.360711+01 | 1486633723.36071 | pgbench_accounts_pkey |        673882112

 2017-02-09 10:48:44.582106+01 | 1486633724.58211 | pgbench_branches_pkey |           737280
 2017-02-09 10:48:44.582106+01 | 1486633724.58211 | pgbench_tellers_pkey  |          2170880
 2017-02-09 10:48:44.582106+01 | 1486633724.58211 | pgbench_accounts_pkey |        673882112

 2017-02-09 10:48:45.680222+01 | 1486633725.68022 | pgbench_branches_pkey |           737280
 2017-02-09 10:48:45.680222+01 | 1486633725.68022 | pgbench_tellers_pkey  |          2170880
 2017-02-09 10:48:45.680222+01 | 1486633725.68022 | pgbench_accounts_pkey |        673882112

 2017-02-09 10:48:46.80851+01 | 1486633726.80851 | pgbench_branches_pkey |           737280
 2017-02-09 10:48:46.80851+01 | 1486633726.80851 | pgbench_tellers_pkey  |          2170880
 2017-02-09 10:48:46.80851+01 | 1486633726.80851 | pgbench_accounts_pkey |        673882112

 2017-02-09 10:48:47.88541+01 | 1486633727.88541 | pgbench_branches_pkey |           737280
 2017-02-09 10:48:47.88541+01 | 1486633727.88541 | pgbench_tellers_pkey  |          2170880
 2017-02-09 10:48:47.88541+01 | 1486633727.88541 | pgbench_accounts_pkey |        673882112

 2017-02-09 10:48:48.969474+01 | 1486633728.96947 | pgbench_branches_pkey |           737280
 2017-02-09 10:48:48.969474+01 | 1486633728.96947 | pgbench_tellers_pkey  |          2170880
 2017-02-09 10:48:48.969474+01 | 1486633728.96947 | pgbench_accounts_pkey |        673882112

 2017-02-09 10:48:50.166967+01 | 1486633730.16697 | pgbench_branches_pkey |           737280
 2017-02-09 10:48:50.166967+01 | 1486633730.16697 | pgbench_tellers_pkey  |          2170880
 2017-02-09 10:48:50.166967+01 | 1486633730.16697 | pgbench_accounts_pkey |        673882112

 2017-02-09 10:48:51.382869+01 | 1486633731.38287 | pgbench_branches_pkey |           737280
 2017-02-09 10:48:51.382869+01 | 1486633731.38287 | pgbench_tellers_pkey  |          2170880
 2017-02-09 10:48:51.382869+01 | 1486633731.38287 | pgbench_accounts_pkey |        673882112

 2017-02-09 10:48:52.552638+01 | 1486633732.55264 | pgbench_branches_pkey |           737280
 2017-02-09 10:48:52.552638+01 | 1486633732.55264 | pgbench_tellers_pkey  |          2170880
 2017-02-09 10:48:52.552638+01 | 1486633732.55264 | pgbench_accounts_pkey |        673882112

 2017-02-09 10:48:53.744404+01 | 1486633733.7444 | pgbench_branches_pkey |           737280
 2017-02-09 10:48:53.744404+01 | 1486633733.7444 | pgbench_tellers_pkey  |          2170880
 2017-02-09 10:48:53.744404+01 | 1486633733.7444 | pgbench_accounts_pkey |        673882112

 2017-02-09 10:48:54.891966+01 | 1486633734.89197 | pgbench_branches_pkey |           737280
 2017-02-09 10:48:54.891966+01 | 1486633734.89197 | pgbench_tellers_pkey  |          2170880
 2017-02-09 10:48:54.891966+01 | 1486633734.89197 | pgbench_accounts_pkey |        673882112

 2017-02-09 10:48:56.074228+01 | 1486633736.07423 | pgbench_branches_pkey |           737280
 2017-02-09 10:48:56.074228+01 | 1486633736.07423 | pgbench_tellers_pkey  |          2170880
 2017-02-09 10:48:56.074228+01 | 1486633736.07423 | pgbench_accounts_pkey |        673882112

 2017-02-09 10:48:57.287452+01 | 1486633737.28745 | pgbench_branches_pkey |           737280
 2017-02-09 10:48:57.287452+01 | 1486633737.28745 | pgbench_tellers_pkey  |          2170880
 2017-02-09 10:48:57.287452+01 | 1486633737.28745 | pgbench_accounts_pkey |        673882112

 2017-02-09 10:48:58.427085+01 | 1486633738.42708 | pgbench_branches_pkey |           737280
 2017-02-09 10:48:58.427085+01 | 1486633738.42708 | pgbench_tellers_pkey  |          2170880
 2017-02-09 10:48:58.427085+01 | 1486633738.42708 | pgbench_accounts_pkey |        673882112

 2017-02-09 10:48:59.563281+01 | 1486633739.56328 | pgbench_branches_pkey |           737280
 2017-02-09 10:48:59.563281+01 | 1486633739.56328 | pgbench_tellers_pkey  |          2170880
 2017-02-09 10:48:59.563281+01 | 1486633739.56328 | pgbench_accounts_pkey |        673882112

 2017-02-09 10:49:00.720516+01 | 1486633740.72052 | pgbench_branches_pkey |           737280
 2017-02-09 10:49:00.720516+01 | 1486633740.72052 | pgbench_tellers_pkey  |          2170880
 2017-02-09 10:49:00.720516+01 | 1486633740.72052 | pgbench_accounts_pkey |        673882112

 2017-02-09 10:49:01.88058+01 | 1486633741.88058 | pgbench_branches_pkey |           737280
 2017-02-09 10:49:01.88058+01 | 1486633741.88058 | pgbench_tellers_pkey  |          2170880
 2017-02-09 10:49:01.88058+01 | 1486633741.88058 | pgbench_accounts_pkey |        673882112

 2017-02-09 10:49:02.987277+01 | 1486633742.98728 | pgbench_branches_pkey |           737280
 2017-02-09 10:49:02.987277+01 | 1486633742.98728 | pgbench_tellers_pkey  |          2170880
 2017-02-09 10:49:02.987277+01 | 1486633742.98728 | pgbench_accounts_pkey |        673882112

 2017-02-09 10:49:04.118543+01 | 1486633744.11854 | pgbench_branches_pkey |           737280
 2017-02-09 10:49:04.118543+01 | 1486633744.11854 | pgbench_tellers_pkey  |          2170880
 2017-02-09 10:49:04.118543+01 | 1486633744.11854 | pgbench_accounts_pkey |        673882112

 2017-02-09 10:49:05.271107+01 | 1486633745.27111 | pgbench_branches_pkey |           737280
 2017-02-09 10:49:05.271107+01 | 1486633745.27111 | pgbench_tellers_pkey  |          2170880
 2017-02-09 10:49:05.271107+01 | 1486633745.27111 | pgbench_accounts_pkey |        673882112

 2017-02-09 10:49:06.461498+01 | 1486633746.4615 | pgbench_branches_pkey |           737280
 2017-02-09 10:49:06.461498+01 | 1486633746.4615 | pgbench_tellers_pkey  |          2170880
 2017-02-09 10:49:06.461498+01 | 1486633746.4615 | pgbench_accounts_pkey |        673882112

 2017-02-09 10:49:07.560776+01 | 1486633747.56078 | pgbench_branches_pkey |           737280
 2017-02-09 10:49:07.560776+01 | 1486633747.56078 | pgbench_tellers_pkey  |          2170880
 2017-02-09 10:49:07.560776+01 | 1486633747.56078 | pgbench_accounts_pkey |        673882112

 2017-02-09 10:49:08.674689+01 | 1486633748.67469 | pgbench_branches_pkey |           737280
 2017-02-09 10:49:08.674689+01 | 1486633748.67469 | pgbench_tellers_pkey  |          2170880
 2017-02-09 10:49:08.674689+01 | 1486633748.67469 | pgbench_accounts_pkey |        673882112

 2017-02-09 10:49:09.826535+01 | 1486633749.82653 | pgbench_branches_pkey |           737280
 2017-02-09 10:49:09.826535+01 | 1486633749.82653 | pgbench_tellers_pkey  |          2170880
 2017-02-09 10:49:09.826535+01 | 1486633749.82653 | pgbench_accounts_pkey |        673882112

 2017-02-09 10:49:10.985525+01 | 1486633750.98552 | pgbench_branches_pkey |           737280
 2017-02-09 10:49:10.985525+01 | 1486633750.98552 | pgbench_tellers_pkey  |          2170880
 2017-02-09 10:49:10.985525+01 | 1486633750.98552 | pgbench_accounts_pkey |        673882112

 2017-02-09 10:49:12.120189+01 | 1486633752.12019 | pgbench_branches_pkey |           737280
 2017-02-09 10:49:12.120189+01 | 1486633752.12019 | pgbench_tellers_pkey  |          2170880
 2017-02-09 10:49:12.120189+01 | 1486633752.12019 | pgbench_accounts_pkey |        673882112

 2017-02-09 10:49:13.290602+01 | 1486633753.2906 | pgbench_branches_pkey |           737280
 2017-02-09 10:49:13.290602+01 | 1486633753.2906 | pgbench_tellers_pkey  |          2170880
 2017-02-09 10:49:13.290602+01 | 1486633753.2906 | pgbench_accounts_pkey |        673882112

 2017-02-09 10:49:14.463011+01 | 1486633754.46301 | pgbench_branches_pkey |           737280
 2017-02-09 10:49:14.463011+01 | 1486633754.46301 | pgbench_tellers_pkey  |          2170880
 2017-02-09 10:49:14.463011+01 | 1486633754.46301 | pgbench_accounts_pkey |        673882112

 2017-02-09 10:49:15.610018+01 | 1486633755.61002 | pgbench_branches_pkey |           737280
 2017-02-09 10:49:15.610018+01 | 1486633755.61002 | pgbench_tellers_pkey  |          2170880
 2017-02-09 10:49:15.610018+01 | 1486633755.61002 | pgbench_accounts_pkey |        673882112

 2017-02-09 10:49:16.785827+01 | 1486633756.78583 | pgbench_branches_pkey |           737280
 2017-02-09 10:49:16.785827+01 | 1486633756.78583 | pgbench_tellers_pkey  |          2170880
 2017-02-09 10:49:16.785827+01 | 1486633756.78583 | pgbench_accounts_pkey |        673882112

 2017-02-09 10:49:17.924192+01 | 1486633757.92419 | pgbench_branches_pkey |           737280
 2017-02-09 10:49:17.924192+01 | 1486633757.92419 | pgbench_tellers_pkey  |          2170880
 2017-02-09 10:49:17.924192+01 | 1486633757.92419 | pgbench_accounts_pkey |        673882112

 2017-02-09 10:49:19.070161+01 | 1486633759.07016 | pgbench_branches_pkey |           737280
 2017-02-09 10:49:19.070161+01 | 1486633759.07016 | pgbench_tellers_pkey  |          2170880
 2017-02-09 10:49:19.070161+01 | 1486633759.07016 | pgbench_accounts_pkey |        673882112

 2017-02-09 10:49:20.314277+01 | 1486633760.31428 | pgbench_branches_pkey |           737280
 2017-02-09 10:49:20.314277+01 | 1486633760.31428 | pgbench_tellers_pkey  |          2170880
 2017-02-09 10:49:20.314277+01 | 1486633760.31428 | pgbench_accounts_pkey |        673882112

 2017-02-09 10:49:21.512191+01 | 1486633761.51219 | pgbench_branches_pkey |           737280
 2017-02-09 10:49:21.512191+01 | 1486633761.51219 | pgbench_tellers_pkey  |          2170880
 2017-02-09 10:49:21.512191+01 | 1486633761.51219 | pgbench_accounts_pkey |        673882112

 2017-02-09 10:49:22.685617+01 | 1486633762.68562 | pgbench_branches_pkey |           737280
 2017-02-09 10:49:22.685617+01 | 1486633762.68562 | pgbench_tellers_pkey  |          2170880
 2017-02-09 10:49:22.685617+01 | 1486633762.68562 | pgbench_accounts_pkey |        673882112

 2017-02-09 10:49:23.852735+01 | 1486633763.85274 | pgbench_branches_pkey |           737280
 2017-02-09 10:49:23.852735+01 | 1486633763.85274 | pgbench_tellers_pkey  |          2170880
 2017-02-09 10:49:23.852735+01 | 1486633763.85274 | pgbench_accounts_pkey |        673882112

 2017-02-09 10:49:25.029683+01 | 1486633765.02968 | pgbench_branches_pkey |           737280
 2017-02-09 10:49:25.029683+01 | 1486633765.02968 | pgbench_tellers_pkey  |          2170880
 2017-02-09 10:49:25.029683+01 | 1486633765.02968 | pgbench_accounts_pkey |        673882112

 2017-02-09 10:49:26.262923+01 | 1486633766.26292 | pgbench_branches_pkey |           737280
 2017-02-09 10:49:26.262923+01 | 1486633766.26292 | pgbench_tellers_pkey  |          2170880
 2017-02-09 10:49:26.262923+01 | 1486633766.26292 | pgbench_accounts_pkey |        673882112

 2017-02-09 10:49:27.42827+01 | 1486633767.42827 | pgbench_branches_pkey |           737280
 2017-02-09 10:49:27.42827+01 | 1486633767.42827 | pgbench_tellers_pkey  |          2170880
 2017-02-09 10:49:27.42827+01 | 1486633767.42827 | pgbench_accounts_pkey |        673882112

 2017-02-09 10:49:28.570493+01 | 1486633768.57049 | pgbench_branches_pkey |           737280
 2017-02-09 10:49:28.570493+01 | 1486633768.57049 | pgbench_tellers_pkey  |          2170880
 2017-02-09 10:49:28.570493+01 | 1486633768.57049 | pgbench_accounts_pkey |        673882112

 2017-02-09 10:49:29.746074+01 | 1486633769.74607 | pgbench_branches_pkey |           737280
 2017-02-09 10:49:29.746074+01 | 1486633769.74607 | pgbench_tellers_pkey  |          2170880
 2017-02-09 10:49:29.746074+01 | 1486633769.74607 | pgbench_accounts_pkey |        673882112

 2017-02-09 10:49:30.936225+01 | 1486633770.93622 | pgbench_branches_pkey |           737280
 2017-02-09 10:49:30.936225+01 | 1486633770.93622 | pgbench_tellers_pkey  |          2170880
 2017-02-09 10:49:30.936225+01 | 1486633770.93622 | pgbench_accounts_pkey |        673882112

 2017-02-09 10:49:32.117384+01 | 1486633772.11738 | pgbench_branches_pkey |           737280
 2017-02-09 10:49:32.117384+01 | 1486633772.11738 | pgbench_tellers_pkey  |          2170880
 2017-02-09 10:49:32.117384+01 | 1486633772.11738 | pgbench_accounts_pkey |        673882112

 2017-02-09 10:49:33.253748+01 | 1486633773.25375 | pgbench_branches_pkey |           737280
 2017-02-09 10:49:33.253748+01 | 1486633773.25375 | pgbench_tellers_pkey  |          2170880
 2017-02-09 10:49:33.253748+01 | 1486633773.25375 | pgbench_accounts_pkey |        673882112

 2017-02-09 10:49:34.455629+01 | 1486633774.45563 | pgbench_branches_pkey |           737280
 2017-02-09 10:49:34.455629+01 | 1486633774.45563 | pgbench_tellers_pkey  |          2170880
 2017-02-09 10:49:34.455629+01 | 1486633774.45563 | pgbench_accounts_pkey |        673882112

 2017-02-09 10:49:35.648257+01 | 1486633775.64826 | pgbench_branches_pkey |           737280
 2017-02-09 10:49:35.648257+01 | 1486633775.64826 | pgbench_tellers_pkey  |          2170880
 2017-02-09 10:49:35.648257+01 | 1486633775.64826 | pgbench_accounts_pkey |        673882112

 2017-02-09 10:49:36.848708+01 | 1486633776.84871 | pgbench_branches_pkey |           737280
 2017-02-09 10:49:36.848708+01 | 1486633776.84871 | pgbench_tellers_pkey  |          2170880
 2017-02-09 10:49:36.848708+01 | 1486633776.84871 | pgbench_accounts_pkey |        673882112

 2017-02-09 10:49:38.03021+01 | 1486633778.03021 | pgbench_branches_pkey |           737280
 2017-02-09 10:49:38.03021+01 | 1486633778.03021 | pgbench_tellers_pkey  |          2170880
 2017-02-09 10:49:38.03021+01 | 1486633778.03021 | pgbench_accounts_pkey |        673882112

 2017-02-09 10:49:39.151698+01 | 1486633779.1517 | pgbench_branches_pkey |           737280
 2017-02-09 10:49:39.151698+01 | 1486633779.1517 | pgbench_tellers_pkey  |          2170880
 2017-02-09 10:49:39.151698+01 | 1486633779.1517 | pgbench_accounts_pkey |        673882112

 2017-02-09 10:49:40.301346+01 | 1486633780.30135 | pgbench_branches_pkey |           737280
 2017-02-09 10:49:40.301346+01 | 1486633780.30135 | pgbench_tellers_pkey  |          2170880
 2017-02-09 10:49:40.301346+01 | 1486633780.30135 | pgbench_accounts_pkey |        673882112

 2017-02-09 10:49:41.428432+01 | 1486633781.42843 | pgbench_branches_pkey |           737280
 2017-02-09 10:49:41.428432+01 | 1486633781.42843 | pgbench_tellers_pkey  |          2170880
 2017-02-09 10:49:41.428432+01 | 1486633781.42843 | pgbench_accounts_pkey |        673882112

 2017-02-09 10:49:42.555392+01 | 1486633782.55539 | pgbench_branches_pkey |           737280
 2017-02-09 10:49:42.555392+01 | 1486633782.55539 | pgbench_tellers_pkey  |          2170880
 2017-02-09 10:49:42.555392+01 | 1486633782.55539 | pgbench_accounts_pkey |        673882112

 2017-02-09 10:49:43.793214+01 | 1486633783.79321 | pgbench_branches_pkey |           737280
 2017-02-09 10:49:43.793214+01 | 1486633783.79321 | pgbench_tellers_pkey  |          2170880
 2017-02-09 10:49:43.793214+01 | 1486633783.79321 | pgbench_accounts_pkey |        673882112

 2017-02-09 10:49:44.973055+01 | 1486633784.97305 | pgbench_branches_pkey |           737280
 2017-02-09 10:49:44.973055+01 | 1486633784.97305 | pgbench_tellers_pkey  |          2170880
 2017-02-09 10:49:44.973055+01 | 1486633784.97305 | pgbench_accounts_pkey |        673882112

 2017-02-09 10:49:46.180577+01 | 1486633786.18058 | pgbench_branches_pkey |           737280
 2017-02-09 10:49:46.180577+01 | 1486633786.18058 | pgbench_tellers_pkey  |          2170880
 2017-02-09 10:49:46.180577+01 | 1486633786.18058 | pgbench_accounts_pkey |        673882112

 2017-02-09 10:49:47.339748+01 | 1486633787.33975 | pgbench_branches_pkey |           737280
 2017-02-09 10:49:47.339748+01 | 1486633787.33975 | pgbench_tellers_pkey  |          2170880
 2017-02-09 10:49:47.339748+01 | 1486633787.33975 | pgbench_accounts_pkey |        673882112

 2017-02-09 10:49:48.490751+01 | 1486633788.49075 | pgbench_branches_pkey |           737280
 2017-02-09 10:49:48.490751+01 | 1486633788.49075 | pgbench_tellers_pkey  |          2170880
 2017-02-09 10:49:48.490751+01 | 1486633788.49075 | pgbench_accounts_pkey |        673882112

 2017-02-09 10:49:49.616944+01 | 1486633789.61694 | pgbench_branches_pkey |           737280
 2017-02-09 10:49:49.616944+01 | 1486633789.61694 | pgbench_tellers_pkey  |          2170880
 2017-02-09 10:49:49.616944+01 | 1486633789.61694 | pgbench_accounts_pkey |        673882112

 2017-02-09 10:49:50.783289+01 | 1486633790.78329 | pgbench_branches_pkey |           737280
 2017-02-09 10:49:50.783289+01 | 1486633790.78329 | pgbench_tellers_pkey  |          2170880
 2017-02-09 10:49:50.783289+01 | 1486633790.78329 | pgbench_accounts_pkey |        673882112

 2017-02-09 10:49:51.957997+01 | 1486633791.958 | pgbench_branches_pkey |           737280
 2017-02-09 10:49:51.957997+01 | 1486633791.958 | pgbench_tellers_pkey  |          2170880
 2017-02-09 10:49:51.957997+01 | 1486633791.958 | pgbench_accounts_pkey |        673882112

 2017-02-09 10:49:53.09317+01 | 1486633793.09317 | pgbench_branches_pkey |           737280
 2017-02-09 10:49:53.09317+01 | 1486633793.09317 | pgbench_tellers_pkey  |          2170880
 2017-02-09 10:49:53.09317+01 | 1486633793.09317 | pgbench_accounts_pkey |        673882112

 2017-02-09 10:49:54.291357+01 | 1486633794.29136 | pgbench_branches_pkey |           737280
 2017-02-09 10:49:54.291357+01 | 1486633794.29136 | pgbench_tellers_pkey  |          2170880
 2017-02-09 10:49:54.291357+01 | 1486633794.29136 | pgbench_accounts_pkey |        673882112

 2017-02-09 10:49:55.477835+01 | 1486633795.47783 | pgbench_branches_pkey |           737280
 2017-02-09 10:49:55.477835+01 | 1486633795.47783 | pgbench_tellers_pkey  |          2170880
 2017-02-09 10:49:55.477835+01 | 1486633795.47783 | pgbench_accounts_pkey |        673882112

 2017-02-09 10:49:56.63532+01 | 1486633796.63532 | pgbench_branches_pkey |           737280
 2017-02-09 10:49:56.63532+01 | 1486633796.63532 | pgbench_tellers_pkey  |          2170880
 2017-02-09 10:49:56.63532+01 | 1486633796.63532 | pgbench_accounts_pkey |        673882112

 2017-02-09 10:49:57.837665+01 | 1486633797.83767 | pgbench_branches_pkey |           737280
 2017-02-09 10:49:57.837665+01 | 1486633797.83767 | pgbench_tellers_pkey  |          2170880
 2017-02-09 10:49:57.837665+01 | 1486633797.83767 | pgbench_accounts_pkey |        673882112

 2017-02-09 10:49:59.029318+01 | 1486633799.02932 | pgbench_branches_pkey |           737280
 2017-02-09 10:49:59.029318+01 | 1486633799.02932 | pgbench_tellers_pkey  |          2170880
 2017-02-09 10:49:59.029318+01 | 1486633799.02932 | pgbench_accounts_pkey |        673882112

 2017-02-09 10:50:00.233459+01 | 1486633800.23346 | pgbench_branches_pkey |           737280
 2017-02-09 10:50:00.233459+01 | 1486633800.23346 | pgbench_tellers_pkey  |          2170880
 2017-02-09 10:50:00.233459+01 | 1486633800.23346 | pgbench_accounts_pkey |        673882112

 2017-02-09 10:50:01.439573+01 | 1486633801.43957 | pgbench_branches_pkey |           737280
 2017-02-09 10:50:01.439573+01 | 1486633801.43957 | pgbench_tellers_pkey  |          2170880
 2017-02-09 10:50:01.439573+01 | 1486633801.43957 | pgbench_accounts_pkey |        673882112

 2017-02-09 10:50:02.57888+01 | 1486633802.57888 | pgbench_branches_pkey |           737280
 2017-02-09 10:50:02.57888+01 | 1486633802.57888 | pgbench_tellers_pkey  |          2170880
 2017-02-09 10:50:02.57888+01 | 1486633802.57888 | pgbench_accounts_pkey |        673882112

 2017-02-09 10:50:03.71619+01 | 1486633803.71619 | pgbench_branches_pkey |           737280
 2017-02-09 10:50:03.71619+01 | 1486633803.71619 | pgbench_tellers_pkey  |          2170880
 2017-02-09 10:50:03.71619+01 | 1486633803.71619 | pgbench_accounts_pkey |        673882112

