 2017-02-08 17:27:03.974503+01 | 1486571223.9745 | pgbench_accounts |       4098015232
 2017-02-08 17:27:03.974503+01 | 1486571223.9745 | pgbench_tellers  |          8462336
 2017-02-08 17:27:03.974503+01 | 1486571223.9745 | pgbench_history  |           188416
 2017-02-08 17:27:03.974503+01 | 1486571223.9745 | pgbench_branches |          6234112

 2017-02-08 17:27:05.029491+01 | 1486571225.02949 | pgbench_accounts |       4098015232
 2017-02-08 17:27:05.029491+01 | 1486571225.02949 | pgbench_tellers  |          8462336
 2017-02-08 17:27:05.029491+01 | 1486571225.02949 | pgbench_history  |           565248
 2017-02-08 17:27:05.029491+01 | 1486571225.02949 | pgbench_branches |          6234112

 2017-02-08 17:27:06.084759+01 | 1486571226.08476 | pgbench_accounts |       4098015232
 2017-02-08 17:27:06.084759+01 | 1486571226.08476 | pgbench_tellers  |          8462336
 2017-02-08 17:27:06.084759+01 | 1486571226.08476 | pgbench_history  |          1089536
 2017-02-08 17:27:06.084759+01 | 1486571226.08476 | pgbench_branches |          6234112

 2017-02-08 17:27:07.138216+01 | 1486571227.13822 | pgbench_accounts |       4098015232
 2017-02-08 17:27:07.138216+01 | 1486571227.13822 | pgbench_tellers  |          8462336
 2017-02-08 17:27:07.138216+01 | 1486571227.13822 | pgbench_history  |          1630208
 2017-02-08 17:27:07.138216+01 | 1486571227.13822 | pgbench_branches |          6234112

 2017-02-08 17:27:08.193635+01 | 1486571228.19363 | pgbench_accounts |       4098015232
 2017-02-08 17:27:08.193635+01 | 1486571228.19363 | pgbench_tellers  |          8462336
 2017-02-08 17:27:08.193635+01 | 1486571228.19363 | pgbench_history  |          2375680
 2017-02-08 17:27:08.193635+01 | 1486571228.19363 | pgbench_branches |          6234112

 2017-02-08 17:27:09.247158+01 | 1486571229.24716 | pgbench_accounts |       4098015232
 2017-02-08 17:27:09.247158+01 | 1486571229.24716 | pgbench_tellers  |          8462336
 2017-02-08 17:27:09.247158+01 | 1486571229.24716 | pgbench_history  |          2736128
 2017-02-08 17:27:09.247158+01 | 1486571229.24716 | pgbench_branches |          6234112

 2017-02-08 17:27:10.298789+01 | 1486571230.29879 | pgbench_accounts |       4098015232
 2017-02-08 17:27:10.298789+01 | 1486571230.29879 | pgbench_tellers  |          8462336
 2017-02-08 17:27:10.298789+01 | 1486571230.29879 | pgbench_history  |          3137536
 2017-02-08 17:27:10.298789+01 | 1486571230.29879 | pgbench_branches |          6234112

 2017-02-08 17:27:11.351448+01 | 1486571231.35145 | pgbench_accounts |       4098015232
 2017-02-08 17:27:11.351448+01 | 1486571231.35145 | pgbench_tellers  |          8462336
 2017-02-08 17:27:11.351448+01 | 1486571231.35145 | pgbench_history  |          4038656
 2017-02-08 17:27:11.351448+01 | 1486571231.35145 | pgbench_branches |          6234112

 2017-02-08 17:27:12.411785+01 | 1486571232.41178 | pgbench_accounts |       4098015232
 2017-02-08 17:27:12.411785+01 | 1486571232.41178 | pgbench_tellers  |          8462336
 2017-02-08 17:27:12.411785+01 | 1486571232.41178 | pgbench_history  |          4218880
 2017-02-08 17:27:12.411785+01 | 1486571232.41178 | pgbench_branches |          6234112

 2017-02-08 17:27:13.468436+01 | 1486571233.46844 | pgbench_accounts |       4098015232
 2017-02-08 17:27:13.468436+01 | 1486571233.46844 | pgbench_tellers  |          8462336
 2017-02-08 17:27:13.468436+01 | 1486571233.46844 | pgbench_history  |          4759552
 2017-02-08 17:27:13.468436+01 | 1486571233.46844 | pgbench_branches |          6234112

 2017-02-08 17:27:14.528109+01 | 1486571234.52811 | pgbench_accounts |       4098015232
 2017-02-08 17:27:14.528109+01 | 1486571234.52811 | pgbench_tellers  |          8462336
 2017-02-08 17:27:14.528109+01 | 1486571234.52811 | pgbench_history  |          5292032
 2017-02-08 17:27:14.528109+01 | 1486571234.52811 | pgbench_branches |          6234112

 2017-02-08 17:27:15.584955+01 | 1486571235.58495 | pgbench_accounts |       4098015232
 2017-02-08 17:27:15.584955+01 | 1486571235.58495 | pgbench_tellers  |          8462336
 2017-02-08 17:27:15.584955+01 | 1486571235.58495 | pgbench_history  |          5840896
 2017-02-08 17:27:15.584955+01 | 1486571235.58495 | pgbench_branches |          6234112

 2017-02-08 17:27:16.638638+01 | 1486571236.63864 | pgbench_accounts |       4098015232
 2017-02-08 17:27:16.638638+01 | 1486571236.63864 | pgbench_tellers  |          8462336
 2017-02-08 17:27:16.638638+01 | 1486571236.63864 | pgbench_history  |          6520832
 2017-02-08 17:27:16.638638+01 | 1486571236.63864 | pgbench_branches |          6234112

 2017-02-08 17:27:17.697957+01 | 1486571237.69796 | pgbench_accounts |       4098015232
 2017-02-08 17:27:17.697957+01 | 1486571237.69796 | pgbench_tellers  |          8462336
 2017-02-08 17:27:17.697957+01 | 1486571237.69796 | pgbench_history  |          6971392
 2017-02-08 17:27:17.697957+01 | 1486571237.69796 | pgbench_branches |          6234112

 2017-02-08 17:27:18.754845+01 | 1486571238.75484 | pgbench_accounts |       4098015232
 2017-02-08 17:27:18.754845+01 | 1486571238.75484 | pgbench_tellers  |          8462336
 2017-02-08 17:27:18.754845+01 | 1486571238.75484 | pgbench_history  |          7520256
 2017-02-08 17:27:18.754845+01 | 1486571238.75484 | pgbench_branches |          6234112

 2017-02-08 17:27:19.810101+01 | 1486571239.8101 | pgbench_accounts |       4098015232
 2017-02-08 17:27:19.810101+01 | 1486571239.8101 | pgbench_tellers  |          8462336
 2017-02-08 17:27:19.810101+01 | 1486571239.8101 | pgbench_history  |          8060928
 2017-02-08 17:27:19.810101+01 | 1486571239.8101 | pgbench_branches |          6234112

 2017-02-08 17:27:20.866135+01 | 1486571240.86613 | pgbench_accounts |       4098015232
 2017-02-08 17:27:20.866135+01 | 1486571240.86613 | pgbench_tellers  |          8462336
 2017-02-08 17:27:20.866135+01 | 1486571240.86613 | pgbench_history  |          8626176
 2017-02-08 17:27:20.866135+01 | 1486571240.86613 | pgbench_branches |          6234112

 2017-02-08 17:27:21.923356+01 | 1486571241.92336 | pgbench_accounts |       4098015232
 2017-02-08 17:27:21.923356+01 | 1486571241.92336 | pgbench_tellers  |          8462336
 2017-02-08 17:27:21.923356+01 | 1486571241.92336 | pgbench_history  |          9240576
 2017-02-08 17:27:21.923356+01 | 1486571241.92336 | pgbench_branches |          6234112

 2017-02-08 17:27:22.979399+01 | 1486571242.9794 | pgbench_accounts |       4098015232
 2017-02-08 17:27:22.979399+01 | 1486571242.9794 | pgbench_tellers  |          8462336
 2017-02-08 17:27:22.979399+01 | 1486571242.9794 | pgbench_history  |          9920512
 2017-02-08 17:27:22.979399+01 | 1486571242.9794 | pgbench_branches |          6234112

 2017-02-08 17:27:24.03723+01 | 1486571244.03723 | pgbench_accounts |       4098015232
 2017-02-08 17:27:24.03723+01 | 1486571244.03723 | pgbench_tellers  |          8462336
 2017-02-08 17:27:24.03723+01 | 1486571244.03723 | pgbench_history  |         10313728
 2017-02-08 17:27:24.03723+01 | 1486571244.03723 | pgbench_branches |          6234112

 2017-02-08 17:27:25.092437+01 | 1486571245.09244 | pgbench_accounts |       4098015232
 2017-02-08 17:27:25.092437+01 | 1486571245.09244 | pgbench_tellers  |          8462336
 2017-02-08 17:27:25.092437+01 | 1486571245.09244 | pgbench_history  |         10838016
 2017-02-08 17:27:25.092437+01 | 1486571245.09244 | pgbench_branches |          6234112

 2017-02-08 17:27:26.14644+01 | 1486571246.14644 | pgbench_accounts |       4098015232
 2017-02-08 17:27:26.14644+01 | 1486571246.14644 | pgbench_tellers  |          8462336
 2017-02-08 17:27:26.14644+01 | 1486571246.14644 | pgbench_history  |         11411456
 2017-02-08 17:27:26.14644+01 | 1486571246.14644 | pgbench_branches |          6234112

 2017-02-08 17:27:27.210282+01 | 1486571247.21028 | pgbench_accounts |       4098015232
 2017-02-08 17:27:27.210282+01 | 1486571247.21028 | pgbench_tellers  |          8462336
 2017-02-08 17:27:27.210282+01 | 1486571247.21028 | pgbench_history  |         11943936
 2017-02-08 17:27:27.210282+01 | 1486571247.21028 | pgbench_branches |          6234112

 2017-02-08 17:27:28.262173+01 | 1486571248.26217 | pgbench_accounts |       4098015232
 2017-02-08 17:27:28.262173+01 | 1486571248.26217 | pgbench_tellers  |          8462336
 2017-02-08 17:27:28.262173+01 | 1486571248.26217 | pgbench_history  |         12533760
 2017-02-08 17:27:28.262173+01 | 1486571248.26217 | pgbench_branches |          6234112

 2017-02-08 17:27:29.322356+01 | 1486571249.32236 | pgbench_accounts |       4098015232
 2017-02-08 17:27:29.322356+01 | 1486571249.32236 | pgbench_tellers  |          8462336
 2017-02-08 17:27:29.322356+01 | 1486571249.32236 | pgbench_history  |         13074432
 2017-02-08 17:27:29.322356+01 | 1486571249.32236 | pgbench_branches |          6234112

 2017-02-08 17:27:30.380737+01 | 1486571250.38074 | pgbench_accounts |       4098015232
 2017-02-08 17:27:30.380737+01 | 1486571250.38074 | pgbench_tellers  |          8462336
 2017-02-08 17:27:30.380737+01 | 1486571250.38074 | pgbench_history  |         13656064
 2017-02-08 17:27:30.380737+01 | 1486571250.38074 | pgbench_branches |          6234112

 2017-02-08 17:27:31.43471+01 | 1486571251.43471 | pgbench_accounts |       4098015232
 2017-02-08 17:27:31.43471+01 | 1486571251.43471 | pgbench_tellers  |          8462336
 2017-02-08 17:27:31.43471+01 | 1486571251.43471 | pgbench_history  |         14196736
 2017-02-08 17:27:31.43471+01 | 1486571251.43471 | pgbench_branches |          6234112

 2017-02-08 17:27:32.492419+01 | 1486571252.49242 | pgbench_accounts |       4098015232
 2017-02-08 17:27:32.492419+01 | 1486571252.49242 | pgbench_tellers  |          8462336
 2017-02-08 17:27:32.492419+01 | 1486571252.49242 | pgbench_history  |         14786560
 2017-02-08 17:27:32.492419+01 | 1486571252.49242 | pgbench_branches |          6234112

 2017-02-08 17:27:33.556708+01 | 1486571253.55671 | pgbench_accounts |       4098015232
 2017-02-08 17:27:33.556708+01 | 1486571253.55671 | pgbench_tellers  |          8462336
 2017-02-08 17:27:33.556708+01 | 1486571253.55671 | pgbench_history  |         15327232
 2017-02-08 17:27:33.556708+01 | 1486571253.55671 | pgbench_branches |          6234112

 2017-02-08 17:27:34.615012+01 | 1486571254.61501 | pgbench_accounts |       4098015232
 2017-02-08 17:27:34.615012+01 | 1486571254.61501 | pgbench_tellers  |          8462336
 2017-02-08 17:27:34.615012+01 | 1486571254.61501 | pgbench_history  |         15933440
 2017-02-08 17:27:34.615012+01 | 1486571254.61501 | pgbench_branches |          6234112

 2017-02-08 17:27:35.664217+01 | 1486571255.66422 | pgbench_accounts |       4098015232
 2017-02-08 17:27:35.664217+01 | 1486571255.66422 | pgbench_tellers  |          8462336
 2017-02-08 17:27:35.664217+01 | 1486571255.66422 | pgbench_history  |         16465920
 2017-02-08 17:27:35.664217+01 | 1486571255.66422 | pgbench_branches |          6234112

 2017-02-08 17:27:36.722547+01 | 1486571256.72255 | pgbench_accounts |       4098015232
 2017-02-08 17:27:36.722547+01 | 1486571256.72255 | pgbench_tellers  |          8462336
 2017-02-08 17:27:36.722547+01 | 1486571256.72255 | pgbench_history  |         17129472
 2017-02-08 17:27:36.722547+01 | 1486571256.72255 | pgbench_branches |          6234112

 2017-02-08 17:27:37.778188+01 | 1486571257.77819 | pgbench_accounts |       4098015232
 2017-02-08 17:27:37.778188+01 | 1486571257.77819 | pgbench_tellers  |          8462336
 2017-02-08 17:27:37.778188+01 | 1486571257.77819 | pgbench_history  |         17768448
 2017-02-08 17:27:37.778188+01 | 1486571257.77819 | pgbench_branches |          6234112

 2017-02-08 17:27:38.83554+01 | 1486571258.83554 | pgbench_accounts |       4098015232
 2017-02-08 17:27:38.83554+01 | 1486571258.83554 | pgbench_tellers  |          8462336
 2017-02-08 17:27:38.83554+01 | 1486571258.83554 | pgbench_history  |         18202624
 2017-02-08 17:27:38.83554+01 | 1486571258.83554 | pgbench_branches |          6234112

 2017-02-08 17:27:39.8906+01 | 1486571259.8906 | pgbench_accounts |       4098015232
 2017-02-08 17:27:39.8906+01 | 1486571259.8906 | pgbench_tellers  |          8462336
 2017-02-08 17:27:39.8906+01 | 1486571259.8906 | pgbench_history  |         19054592
 2017-02-08 17:27:39.8906+01 | 1486571259.8906 | pgbench_branches |          6234112

 2017-02-08 17:27:40.950148+01 | 1486571260.95015 | pgbench_accounts |       4098015232
 2017-02-08 17:27:40.950148+01 | 1486571260.95015 | pgbench_tellers  |          8462336
 2017-02-08 17:27:40.950148+01 | 1486571260.95015 | pgbench_history  |         19652608
 2017-02-08 17:27:40.950148+01 | 1486571260.95015 | pgbench_branches |          6234112

 2017-02-08 17:27:42.013978+01 | 1486571262.01398 | pgbench_accounts |       4098015232
 2017-02-08 17:27:42.013978+01 | 1486571262.01398 | pgbench_tellers  |          8462336
 2017-02-08 17:27:42.013978+01 | 1486571262.01398 | pgbench_history  |         19881984
 2017-02-08 17:27:42.013978+01 | 1486571262.01398 | pgbench_branches |          6234112

 2017-02-08 17:27:43.073036+01 | 1486571263.07304 | pgbench_accounts |       4098015232
 2017-02-08 17:27:43.073036+01 | 1486571263.07304 | pgbench_tellers  |          8462336
 2017-02-08 17:27:43.073036+01 | 1486571263.07304 | pgbench_history  |         20488192
 2017-02-08 17:27:43.073036+01 | 1486571263.07304 | pgbench_branches |          6234112

 2017-02-08 17:27:44.127797+01 | 1486571264.1278 | pgbench_accounts |       4098015232
 2017-02-08 17:27:44.127797+01 | 1486571264.1278 | pgbench_tellers  |          8462336
 2017-02-08 17:27:44.127797+01 | 1486571264.1278 | pgbench_history  |         21250048
 2017-02-08 17:27:44.127797+01 | 1486571264.1278 | pgbench_branches |          6234112

 2017-02-08 17:27:45.185352+01 | 1486571265.18535 | pgbench_accounts |       4098015232
 2017-02-08 17:27:45.185352+01 | 1486571265.18535 | pgbench_tellers  |          8462336
 2017-02-08 17:27:45.185352+01 | 1486571265.18535 | pgbench_history  |         21610496
 2017-02-08 17:27:45.185352+01 | 1486571265.18535 | pgbench_branches |          6234112

 2017-02-08 17:27:46.243599+01 | 1486571266.2436 | pgbench_accounts |       4098015232
 2017-02-08 17:27:46.243599+01 | 1486571266.2436 | pgbench_tellers  |          8462336
 2017-02-08 17:27:46.243599+01 | 1486571266.2436 | pgbench_history  |         22175744
 2017-02-08 17:27:46.243599+01 | 1486571266.2436 | pgbench_branches |          6234112

 2017-02-08 17:27:47.311122+01 | 1486571267.31112 | pgbench_accounts |       4098015232
 2017-02-08 17:27:47.311122+01 | 1486571267.31112 | pgbench_tellers  |          8462336
 2017-02-08 17:27:47.311122+01 | 1486571267.31112 | pgbench_history  |         22724608
 2017-02-08 17:27:47.311122+01 | 1486571267.31112 | pgbench_branches |          6234112

 2017-02-08 17:27:48.370582+01 | 1486571268.37058 | pgbench_accounts |       4098015232
 2017-02-08 17:27:48.370582+01 | 1486571268.37058 | pgbench_tellers  |          8462336
 2017-02-08 17:27:48.370582+01 | 1486571268.37058 | pgbench_history  |         23322624
 2017-02-08 17:27:48.370582+01 | 1486571268.37058 | pgbench_branches |          6234112

 2017-02-08 17:27:49.427981+01 | 1486571269.42798 | pgbench_accounts |       4098015232
 2017-02-08 17:27:49.427981+01 | 1486571269.42798 | pgbench_tellers  |          8462336
 2017-02-08 17:27:49.427981+01 | 1486571269.42798 | pgbench_history  |         23879680
 2017-02-08 17:27:49.427981+01 | 1486571269.42798 | pgbench_branches |          6234112

 2017-02-08 17:27:50.494255+01 | 1486571270.49426 | pgbench_accounts |       4098015232
 2017-02-08 17:27:50.494255+01 | 1486571270.49426 | pgbench_tellers  |          8462336
 2017-02-08 17:27:50.494255+01 | 1486571270.49426 | pgbench_history  |         24461312
 2017-02-08 17:27:50.494255+01 | 1486571270.49426 | pgbench_branches |          6234112

 2017-02-08 17:27:51.556634+01 | 1486571271.55663 | pgbench_accounts |       4098015232
 2017-02-08 17:27:51.556634+01 | 1486571271.55663 | pgbench_tellers  |          8462336
 2017-02-08 17:27:51.556634+01 | 1486571271.55663 | pgbench_history  |         25010176
 2017-02-08 17:27:51.556634+01 | 1486571271.55663 | pgbench_branches |          6234112

 2017-02-08 17:27:52.613582+01 | 1486571272.61358 | pgbench_accounts |       4098015232
 2017-02-08 17:27:52.613582+01 | 1486571272.61358 | pgbench_tellers  |          8462336
 2017-02-08 17:27:52.613582+01 | 1486571272.61358 | pgbench_history  |         25608192
 2017-02-08 17:27:52.613582+01 | 1486571272.61358 | pgbench_branches |          6234112

 2017-02-08 17:27:53.667173+01 | 1486571273.66717 | pgbench_accounts |       4098015232
 2017-02-08 17:27:53.667173+01 | 1486571273.66717 | pgbench_tellers  |          8462336
 2017-02-08 17:27:53.667173+01 | 1486571273.66717 | pgbench_history  |         26427392
 2017-02-08 17:27:53.667173+01 | 1486571273.66717 | pgbench_branches |          6234112

 2017-02-08 17:27:54.729807+01 | 1486571274.72981 | pgbench_accounts |       4098015232
 2017-02-08 17:27:54.729807+01 | 1486571274.72981 | pgbench_tellers  |          8462336
 2017-02-08 17:27:54.729807+01 | 1486571274.72981 | pgbench_history  |         26755072
 2017-02-08 17:27:54.729807+01 | 1486571274.72981 | pgbench_branches |          6234112

 2017-02-08 17:27:55.787238+01 | 1486571275.78724 | pgbench_accounts |       4098015232
 2017-02-08 17:27:55.787238+01 | 1486571275.78724 | pgbench_tellers  |          8462336
 2017-02-08 17:27:55.787238+01 | 1486571275.78724 | pgbench_history  |         27328512
 2017-02-08 17:27:55.787238+01 | 1486571275.78724 | pgbench_branches |          6234112

 2017-02-08 17:27:56.842775+01 | 1486571276.84278 | pgbench_accounts |       4098015232
 2017-02-08 17:27:56.842775+01 | 1486571276.84278 | pgbench_tellers  |          8462336
 2017-02-08 17:27:56.842775+01 | 1486571276.84278 | pgbench_history  |         27901952
 2017-02-08 17:27:56.842775+01 | 1486571276.84278 | pgbench_branches |          6234112

 2017-02-08 17:27:57.901754+01 | 1486571277.90175 | pgbench_accounts |       4098015232
 2017-02-08 17:27:57.901754+01 | 1486571277.90175 | pgbench_tellers  |          8462336
 2017-02-08 17:27:57.901754+01 | 1486571277.90175 | pgbench_history  |         28467200
 2017-02-08 17:27:57.901754+01 | 1486571277.90175 | pgbench_branches |          6234112

 2017-02-08 17:27:58.963187+01 | 1486571278.96319 | pgbench_accounts |       4098015232
 2017-02-08 17:27:58.963187+01 | 1486571278.96319 | pgbench_tellers  |          8462336
 2017-02-08 17:27:58.963187+01 | 1486571278.96319 | pgbench_history  |         29065216
 2017-02-08 17:27:58.963187+01 | 1486571278.96319 | pgbench_branches |          6234112

 2017-02-08 17:28:00.02264+01 | 1486571280.02264 | pgbench_accounts |       4098015232
 2017-02-08 17:28:00.02264+01 | 1486571280.02264 | pgbench_tellers  |          8462336
 2017-02-08 17:28:00.02264+01 | 1486571280.02264 | pgbench_history  |         29622272
 2017-02-08 17:28:00.02264+01 | 1486571280.02264 | pgbench_branches |          6234112

 2017-02-08 17:28:01.084801+01 | 1486571281.0848 | pgbench_accounts |       4098015232
 2017-02-08 17:28:01.084801+01 | 1486571281.0848 | pgbench_tellers  |          8462336
 2017-02-08 17:28:01.084801+01 | 1486571281.0848 | pgbench_history  |         30203904
 2017-02-08 17:28:01.084801+01 | 1486571281.0848 | pgbench_branches |          6234112

 2017-02-08 17:28:02.143104+01 | 1486571282.1431 | pgbench_accounts |       4098015232
 2017-02-08 17:28:02.143104+01 | 1486571282.1431 | pgbench_tellers  |          8462336
 2017-02-08 17:28:02.143104+01 | 1486571282.1431 | pgbench_history  |         30760960
 2017-02-08 17:28:02.143104+01 | 1486571282.1431 | pgbench_branches |          6234112

 2017-02-08 17:28:03.198352+01 | 1486571283.19835 | pgbench_accounts |       4098015232
 2017-02-08 17:28:03.198352+01 | 1486571283.19835 | pgbench_tellers  |          8462336
 2017-02-08 17:28:03.198352+01 | 1486571283.19835 | pgbench_history  |         31342592
 2017-02-08 17:28:03.198352+01 | 1486571283.19835 | pgbench_branches |          6234112

 2017-02-08 17:28:04.25321+01 | 1486571284.25321 | pgbench_accounts |       4098015232
 2017-02-08 17:28:04.25321+01 | 1486571284.25321 | pgbench_tellers  |          8462336
 2017-02-08 17:28:04.25321+01 | 1486571284.25321 | pgbench_history  |         31907840
 2017-02-08 17:28:04.25321+01 | 1486571284.25321 | pgbench_branches |          6234112

 2017-02-08 17:28:05.308311+01 | 1486571285.30831 | pgbench_accounts |       4098015232
 2017-02-08 17:28:05.308311+01 | 1486571285.30831 | pgbench_tellers  |          8462336
 2017-02-08 17:28:05.308311+01 | 1486571285.30831 | pgbench_history  |         32505856
 2017-02-08 17:28:05.308311+01 | 1486571285.30831 | pgbench_branches |          6234112

 2017-02-08 17:28:06.3725+01 | 1486571286.3725 | pgbench_accounts |       4098015232
 2017-02-08 17:28:06.3725+01 | 1486571286.3725 | pgbench_tellers  |          8462336
 2017-02-08 17:28:06.3725+01 | 1486571286.3725 | pgbench_history  |         33079296
 2017-02-08 17:28:06.3725+01 | 1486571286.3725 | pgbench_branches |          6234112

 2017-02-08 17:28:07.429494+01 | 1486571287.42949 | pgbench_accounts |       4098015232
 2017-02-08 17:28:07.429494+01 | 1486571287.42949 | pgbench_tellers  |          8462336
 2017-02-08 17:28:07.429494+01 | 1486571287.42949 | pgbench_history  |         33660928
 2017-02-08 17:28:07.429494+01 | 1486571287.42949 | pgbench_branches |          6234112

 2017-02-08 17:28:08.487417+01 | 1486571288.48742 | pgbench_accounts |       4098015232
 2017-02-08 17:28:08.487417+01 | 1486571288.48742 | pgbench_tellers  |          8462336
 2017-02-08 17:28:08.487417+01 | 1486571288.48742 | pgbench_history  |         34242560
 2017-02-08 17:28:08.487417+01 | 1486571288.48742 | pgbench_branches |          6234112

 2017-02-08 17:28:09.54675+01 | 1486571289.54675 | pgbench_accounts |       4098015232
 2017-02-08 17:28:09.54675+01 | 1486571289.54675 | pgbench_tellers  |          8462336
 2017-02-08 17:28:09.54675+01 | 1486571289.54675 | pgbench_history  |         34816000
 2017-02-08 17:28:09.54675+01 | 1486571289.54675 | pgbench_branches |          6234112

 2017-02-08 17:28:10.603375+01 | 1486571290.60337 | pgbench_accounts |       4098015232
 2017-02-08 17:28:10.603375+01 | 1486571290.60337 | pgbench_tellers  |          8462336
 2017-02-08 17:28:10.603375+01 | 1486571290.60337 | pgbench_history  |         35389440
 2017-02-08 17:28:10.603375+01 | 1486571290.60337 | pgbench_branches |          6234112

 2017-02-08 17:28:11.663647+01 | 1486571291.66365 | pgbench_accounts |       4098015232
 2017-02-08 17:28:11.663647+01 | 1486571291.66365 | pgbench_tellers  |          8462336
 2017-02-08 17:28:11.663647+01 | 1486571291.66365 | pgbench_history  |         35971072
 2017-02-08 17:28:11.663647+01 | 1486571291.66365 | pgbench_branches |          6234112

 2017-02-08 17:28:12.723124+01 | 1486571292.72312 | pgbench_accounts |       4098015232
 2017-02-08 17:28:12.723124+01 | 1486571292.72312 | pgbench_tellers  |          8462336
 2017-02-08 17:28:12.723124+01 | 1486571292.72312 | pgbench_history  |         36626432
 2017-02-08 17:28:12.723124+01 | 1486571292.72312 | pgbench_branches |          6234112

 2017-02-08 17:28:13.779834+01 | 1486571293.77983 | pgbench_accounts |       4098015232
 2017-02-08 17:28:13.779834+01 | 1486571293.77983 | pgbench_tellers  |          8462336
 2017-02-08 17:28:13.779834+01 | 1486571293.77983 | pgbench_history  |         37134336
 2017-02-08 17:28:13.779834+01 | 1486571293.77983 | pgbench_branches |          6234112

 2017-02-08 17:28:14.840024+01 | 1486571294.84002 | pgbench_accounts |       4098015232
 2017-02-08 17:28:14.840024+01 | 1486571294.84002 | pgbench_tellers  |          8462336
 2017-02-08 17:28:14.840024+01 | 1486571294.84002 | pgbench_history  |         37756928
 2017-02-08 17:28:14.840024+01 | 1486571294.84002 | pgbench_branches |          6234112

 2017-02-08 17:28:15.895709+01 | 1486571295.89571 | pgbench_accounts |       4098015232
 2017-02-08 17:28:15.895709+01 | 1486571295.89571 | pgbench_tellers  |          8462336
 2017-02-08 17:28:15.895709+01 | 1486571295.89571 | pgbench_history  |         38305792
 2017-02-08 17:28:15.895709+01 | 1486571295.89571 | pgbench_branches |          6234112

 2017-02-08 17:28:16.955987+01 | 1486571296.95599 | pgbench_accounts |       4098015232
 2017-02-08 17:28:16.955987+01 | 1486571296.95599 | pgbench_tellers  |          8462336
 2017-02-08 17:28:16.955987+01 | 1486571296.95599 | pgbench_history  |         38895616
 2017-02-08 17:28:16.955987+01 | 1486571296.95599 | pgbench_branches |          6234112

 2017-02-08 17:28:18.019054+01 | 1486571298.01905 | pgbench_accounts |       4098015232
 2017-02-08 17:28:18.019054+01 | 1486571298.01905 | pgbench_tellers  |          8462336
 2017-02-08 17:28:18.019054+01 | 1486571298.01905 | pgbench_history  |         39444480
 2017-02-08 17:28:18.019054+01 | 1486571298.01905 | pgbench_branches |          6234112

 2017-02-08 17:28:19.075592+01 | 1486571299.07559 | pgbench_accounts |       4098015232
 2017-02-08 17:28:19.075592+01 | 1486571299.07559 | pgbench_tellers  |          8462336
 2017-02-08 17:28:19.075592+01 | 1486571299.07559 | pgbench_history  |         40042496
 2017-02-08 17:28:19.075592+01 | 1486571299.07559 | pgbench_branches |          6234112

 2017-02-08 17:28:20.132762+01 | 1486571300.13276 | pgbench_accounts |       4098015232
 2017-02-08 17:28:20.132762+01 | 1486571300.13276 | pgbench_tellers  |          8462336
 2017-02-08 17:28:20.132762+01 | 1486571300.13276 | pgbench_history  |         40640512
 2017-02-08 17:28:20.132762+01 | 1486571300.13276 | pgbench_branches |          6234112

 2017-02-08 17:28:21.189307+01 | 1486571301.18931 | pgbench_accounts |       4098015232
 2017-02-08 17:28:21.189307+01 | 1486571301.18931 | pgbench_tellers  |          8462336
 2017-02-08 17:28:21.189307+01 | 1486571301.18931 | pgbench_history  |         41197568
 2017-02-08 17:28:21.189307+01 | 1486571301.18931 | pgbench_branches |          6234112

 2017-02-08 17:28:22.241136+01 | 1486571302.24114 | pgbench_accounts |       4098015232
 2017-02-08 17:28:22.241136+01 | 1486571302.24114 | pgbench_tellers  |          8462336
 2017-02-08 17:28:22.241136+01 | 1486571302.24114 | pgbench_history  |         41795584
 2017-02-08 17:28:22.241136+01 | 1486571302.24114 | pgbench_branches |          6234112

 2017-02-08 17:28:23.300657+01 | 1486571303.30066 | pgbench_accounts |       4098015232
 2017-02-08 17:28:23.300657+01 | 1486571303.30066 | pgbench_tellers  |          8462336
 2017-02-08 17:28:23.300657+01 | 1486571303.30066 | pgbench_history  |         42360832
 2017-02-08 17:28:23.300657+01 | 1486571303.30066 | pgbench_branches |          6234112

 2017-02-08 17:28:24.358792+01 | 1486571304.35879 | pgbench_accounts |       4098015232
 2017-02-08 17:28:24.358792+01 | 1486571304.35879 | pgbench_tellers  |          8462336
 2017-02-08 17:28:24.358792+01 | 1486571304.35879 | pgbench_history  |         42950656
 2017-02-08 17:28:24.358792+01 | 1486571304.35879 | pgbench_branches |          6234112

 2017-02-08 17:28:25.418969+01 | 1486571305.41897 | pgbench_accounts |       4098015232
 2017-02-08 17:28:25.418969+01 | 1486571305.41897 | pgbench_tellers  |          8462336
 2017-02-08 17:28:25.418969+01 | 1486571305.41897 | pgbench_history  |         43524096
 2017-02-08 17:28:25.418969+01 | 1486571305.41897 | pgbench_branches |          6234112

 2017-02-08 17:28:26.480592+01 | 1486571306.48059 | pgbench_accounts |       4098015232
 2017-02-08 17:28:26.480592+01 | 1486571306.48059 | pgbench_tellers  |          8462336
 2017-02-08 17:28:26.480592+01 | 1486571306.48059 | pgbench_history  |         44130304
 2017-02-08 17:28:26.480592+01 | 1486571306.48059 | pgbench_branches |          6234112

 2017-02-08 17:28:27.539483+01 | 1486571307.53948 | pgbench_accounts |       4098015232
 2017-02-08 17:28:27.539483+01 | 1486571307.53948 | pgbench_tellers  |          8462336
 2017-02-08 17:28:27.539483+01 | 1486571307.53948 | pgbench_history  |         44687360
 2017-02-08 17:28:27.539483+01 | 1486571307.53948 | pgbench_branches |          6234112

 2017-02-08 17:28:28.596497+01 | 1486571308.5965 | pgbench_accounts |       4098015232
 2017-02-08 17:28:28.596497+01 | 1486571308.5965 | pgbench_tellers  |          8462336
 2017-02-08 17:28:28.596497+01 | 1486571308.5965 | pgbench_history  |         45309952
 2017-02-08 17:28:28.596497+01 | 1486571308.5965 | pgbench_branches |          6234112

 2017-02-08 17:28:29.649192+01 | 1486571309.64919 | pgbench_accounts |       4098015232
 2017-02-08 17:28:29.649192+01 | 1486571309.64919 | pgbench_tellers  |          8462336
 2017-02-08 17:28:29.649192+01 | 1486571309.64919 | pgbench_history  |         45850624
 2017-02-08 17:28:29.649192+01 | 1486571309.64919 | pgbench_branches |          6234112

 2017-02-08 17:28:30.714262+01 | 1486571310.71426 | pgbench_accounts |       4098015232
 2017-02-08 17:28:30.714262+01 | 1486571310.71426 | pgbench_tellers  |          8462336
 2017-02-08 17:28:30.714262+01 | 1486571310.71426 | pgbench_history  |         46473216
 2017-02-08 17:28:30.714262+01 | 1486571310.71426 | pgbench_branches |          6234112

 2017-02-08 17:28:31.77663+01 | 1486571311.77663 | pgbench_accounts |       4098015232
 2017-02-08 17:28:31.77663+01 | 1486571311.77663 | pgbench_tellers  |          8462336
 2017-02-08 17:28:31.77663+01 | 1486571311.77663 | pgbench_history  |         47054848
 2017-02-08 17:28:31.77663+01 | 1486571311.77663 | pgbench_branches |          6234112

 2017-02-08 17:28:32.832746+01 | 1486571312.83275 | pgbench_accounts |       4098015232
 2017-02-08 17:28:32.832746+01 | 1486571312.83275 | pgbench_tellers  |          8462336
 2017-02-08 17:28:32.832746+01 | 1486571312.83275 | pgbench_history  |         48160768
 2017-02-08 17:28:32.832746+01 | 1486571312.83275 | pgbench_branches |          6234112

 2017-02-08 17:28:33.895176+01 | 1486571313.89518 | pgbench_accounts |       4098015232
 2017-02-08 17:28:33.895176+01 | 1486571313.89518 | pgbench_tellers  |          8462336
 2017-02-08 17:28:33.895176+01 | 1486571313.89518 | pgbench_history  |         48226304
 2017-02-08 17:28:33.895176+01 | 1486571313.89518 | pgbench_branches |          6234112

 2017-02-08 17:28:34.954123+01 | 1486571314.95412 | pgbench_accounts |       4098015232
 2017-02-08 17:28:34.954123+01 | 1486571314.95412 | pgbench_tellers  |          8462336
 2017-02-08 17:28:34.954123+01 | 1486571314.95412 | pgbench_history  |         48816128
 2017-02-08 17:28:34.954123+01 | 1486571314.95412 | pgbench_branches |          6234112

 2017-02-08 17:28:35.998966+01 | 1486571315.99897 | pgbench_accounts |       4098015232
 2017-02-08 17:28:35.998966+01 | 1486571315.99897 | pgbench_tellers  |          8462336
 2017-02-08 17:28:35.998966+01 | 1486571315.99897 | pgbench_history  |         49397760
 2017-02-08 17:28:35.998966+01 | 1486571315.99897 | pgbench_branches |          6234112

 2017-02-08 17:28:37.06083+01 | 1486571317.06083 | pgbench_accounts |       4098015232
 2017-02-08 17:28:37.06083+01 | 1486571317.06083 | pgbench_tellers  |          8462336
 2017-02-08 17:28:37.06083+01 | 1486571317.06083 | pgbench_history  |         49954816
 2017-02-08 17:28:37.06083+01 | 1486571317.06083 | pgbench_branches |          6234112

 2017-02-08 17:28:38.117869+01 | 1486571318.11787 | pgbench_accounts |       4098015232
 2017-02-08 17:28:38.117869+01 | 1486571318.11787 | pgbench_tellers  |          8462336
 2017-02-08 17:28:38.117869+01 | 1486571318.11787 | pgbench_history  |         50601984
 2017-02-08 17:28:38.117869+01 | 1486571318.11787 | pgbench_branches |          6234112

 2017-02-08 17:28:39.175349+01 | 1486571319.17535 | pgbench_accounts |       4098015232
 2017-02-08 17:28:39.175349+01 | 1486571319.17535 | pgbench_tellers  |          8462336
 2017-02-08 17:28:39.175349+01 | 1486571319.17535 | pgbench_history  |         51150848
 2017-02-08 17:28:39.175349+01 | 1486571319.17535 | pgbench_branches |          6234112

 2017-02-08 17:28:40.240605+01 | 1486571320.24061 | pgbench_accounts |       4098015232
 2017-02-08 17:28:40.240605+01 | 1486571320.24061 | pgbench_tellers  |          8462336
 2017-02-08 17:28:40.240605+01 | 1486571320.24061 | pgbench_history  |         51732480
 2017-02-08 17:28:40.240605+01 | 1486571320.24061 | pgbench_branches |          6234112

 2017-02-08 17:28:41.296624+01 | 1486571321.29662 | pgbench_accounts |       4098015232
 2017-02-08 17:28:41.296624+01 | 1486571321.29662 | pgbench_tellers  |          8462336
 2017-02-08 17:28:41.296624+01 | 1486571321.29662 | pgbench_history  |         52281344
 2017-02-08 17:28:41.296624+01 | 1486571321.29662 | pgbench_branches |          6234112

 2017-02-08 17:28:42.354438+01 | 1486571322.35444 | pgbench_accounts |       4098015232
 2017-02-08 17:28:42.354438+01 | 1486571322.35444 | pgbench_tellers  |          8462336
 2017-02-08 17:28:42.354438+01 | 1486571322.35444 | pgbench_history  |         52871168
 2017-02-08 17:28:42.354438+01 | 1486571322.35444 | pgbench_branches |          6234112

 2017-02-08 17:28:43.412598+01 | 1486571323.4126 | pgbench_accounts |       4098015232
 2017-02-08 17:28:43.412598+01 | 1486571323.4126 | pgbench_tellers  |          8462336
 2017-02-08 17:28:43.412598+01 | 1486571323.4126 | pgbench_history  |         53387264
 2017-02-08 17:28:43.412598+01 | 1486571323.4126 | pgbench_branches |          6234112

 2017-02-08 17:28:44.466823+01 | 1486571324.46682 | pgbench_accounts |       4098015232
 2017-02-08 17:28:44.466823+01 | 1486571324.46682 | pgbench_tellers  |          8462336
 2017-02-08 17:28:44.466823+01 | 1486571324.46682 | pgbench_history  |         53985280
 2017-02-08 17:28:44.466823+01 | 1486571324.46682 | pgbench_branches |          6234112

 2017-02-08 17:28:45.528246+01 | 1486571325.52825 | pgbench_accounts |       4098015232
 2017-02-08 17:28:45.528246+01 | 1486571325.52825 | pgbench_tellers  |          8462336
 2017-02-08 17:28:45.528246+01 | 1486571325.52825 | pgbench_history  |         54583296
 2017-02-08 17:28:45.528246+01 | 1486571325.52825 | pgbench_branches |          6234112

 2017-02-08 17:28:46.585003+01 | 1486571326.585 | pgbench_accounts |       4098015232
 2017-02-08 17:28:46.585003+01 | 1486571326.585 | pgbench_tellers  |          8462336
 2017-02-08 17:28:46.585003+01 | 1486571326.585 | pgbench_history  |         55156736
 2017-02-08 17:28:46.585003+01 | 1486571326.585 | pgbench_branches |          6234112

 2017-02-08 17:28:47.642499+01 | 1486571327.6425 | pgbench_accounts |       4098015232
 2017-02-08 17:28:47.642499+01 | 1486571327.6425 | pgbench_tellers  |          8462336
 2017-02-08 17:28:47.642499+01 | 1486571327.6425 | pgbench_history  |         55746560
 2017-02-08 17:28:47.642499+01 | 1486571327.6425 | pgbench_branches |          6234112

 2017-02-08 17:28:48.700432+01 | 1486571328.70043 | pgbench_accounts |       4098015232
 2017-02-08 17:28:48.700432+01 | 1486571328.70043 | pgbench_tellers  |          8462336
 2017-02-08 17:28:48.700432+01 | 1486571328.70043 | pgbench_history  |         56320000
 2017-02-08 17:28:48.700432+01 | 1486571328.70043 | pgbench_branches |          6234112

 2017-02-08 17:28:49.758024+01 | 1486571329.75802 | pgbench_accounts |       4098015232
 2017-02-08 17:28:49.758024+01 | 1486571329.75802 | pgbench_tellers  |          8462336
 2017-02-08 17:28:49.758024+01 | 1486571329.75802 | pgbench_history  |         56918016
 2017-02-08 17:28:49.758024+01 | 1486571329.75802 | pgbench_branches |          6234112

 2017-02-08 17:28:50.819344+01 | 1486571330.81934 | pgbench_accounts |       4098015232
 2017-02-08 17:28:50.819344+01 | 1486571330.81934 | pgbench_tellers  |          8462336
 2017-02-08 17:28:50.819344+01 | 1486571330.81934 | pgbench_history  |         57491456
 2017-02-08 17:28:50.819344+01 | 1486571330.81934 | pgbench_branches |          6234112

 2017-02-08 17:28:51.880846+01 | 1486571331.88085 | pgbench_accounts |       4098015232
 2017-02-08 17:28:51.880846+01 | 1486571331.88085 | pgbench_tellers  |          8462336
 2017-02-08 17:28:51.880846+01 | 1486571331.88085 | pgbench_history  |         58097664
 2017-02-08 17:28:51.880846+01 | 1486571331.88085 | pgbench_branches |          6234112

 2017-02-08 17:28:52.9374+01 | 1486571332.9374 | pgbench_accounts |       4098015232
 2017-02-08 17:28:52.9374+01 | 1486571332.9374 | pgbench_tellers  |          8462336
 2017-02-08 17:28:52.9374+01 | 1486571332.9374 | pgbench_history  |         58712064
 2017-02-08 17:28:52.9374+01 | 1486571332.9374 | pgbench_branches |          6234112

 2017-02-08 17:28:53.994878+01 | 1486571333.99488 | pgbench_accounts |       4098015232
 2017-02-08 17:28:53.994878+01 | 1486571333.99488 | pgbench_tellers  |          8462336
 2017-02-08 17:28:53.994878+01 | 1486571333.99488 | pgbench_history  |         59269120
 2017-02-08 17:28:53.994878+01 | 1486571333.99488 | pgbench_branches |          6234112

 2017-02-08 17:28:55.051385+01 | 1486571335.05138 | pgbench_accounts |       4098015232
 2017-02-08 17:28:55.051385+01 | 1486571335.05138 | pgbench_tellers  |          8462336
 2017-02-08 17:28:55.051385+01 | 1486571335.05138 | pgbench_history  |         59875328
 2017-02-08 17:28:55.051385+01 | 1486571335.05138 | pgbench_branches |          6234112

 2017-02-08 17:28:56.107641+01 | 1486571336.10764 | pgbench_accounts |       4098015232
 2017-02-08 17:28:56.107641+01 | 1486571336.10764 | pgbench_tellers  |          8462336
 2017-02-08 17:28:56.107641+01 | 1486571336.10764 | pgbench_history  |         60440576
 2017-02-08 17:28:56.107641+01 | 1486571336.10764 | pgbench_branches |          6234112

 2017-02-08 17:28:57.167298+01 | 1486571337.1673 | pgbench_accounts |       4098015232
 2017-02-08 17:28:57.167298+01 | 1486571337.1673 | pgbench_tellers  |          8462336
 2017-02-08 17:28:57.167298+01 | 1486571337.1673 | pgbench_history  |         61366272
 2017-02-08 17:28:57.167298+01 | 1486571337.1673 | pgbench_branches |          6234112

 2017-02-08 17:28:58.224397+01 | 1486571338.2244 | pgbench_accounts |       4098015232
 2017-02-08 17:28:58.224397+01 | 1486571338.2244 | pgbench_tellers  |          8462336
 2017-02-08 17:28:58.224397+01 | 1486571338.2244 | pgbench_history  |         61882368
 2017-02-08 17:28:58.224397+01 | 1486571338.2244 | pgbench_branches |          6234112

 2017-02-08 17:28:59.290175+01 | 1486571339.29017 | pgbench_accounts |       4098015232
 2017-02-08 17:28:59.290175+01 | 1486571339.29017 | pgbench_tellers  |          8462336
 2017-02-08 17:28:59.290175+01 | 1486571339.29017 | pgbench_history  |         62259200
 2017-02-08 17:28:59.290175+01 | 1486571339.29017 | pgbench_branches |          6234112

 2017-02-08 17:29:00.349911+01 | 1486571340.34991 | pgbench_accounts |       4098015232
 2017-02-08 17:29:00.349911+01 | 1486571340.34991 | pgbench_tellers  |          8462336
 2017-02-08 17:29:00.349911+01 | 1486571340.34991 | pgbench_history  |         62980096
 2017-02-08 17:29:00.349911+01 | 1486571340.34991 | pgbench_branches |          6234112

 2017-02-08 17:29:01.408003+01 | 1486571341.408 | pgbench_accounts |       4098015232
 2017-02-08 17:29:01.408003+01 | 1486571341.408 | pgbench_tellers  |          8462336
 2017-02-08 17:29:01.408003+01 | 1486571341.408 | pgbench_history  |         63406080
 2017-02-08 17:29:01.408003+01 | 1486571341.408 | pgbench_branches |          6234112

 2017-02-08 17:29:02.469412+01 | 1486571342.46941 | pgbench_accounts |       4098015232
 2017-02-08 17:29:02.469412+01 | 1486571342.46941 | pgbench_tellers  |          8462336
 2017-02-08 17:29:02.469412+01 | 1486571342.46941 | pgbench_history  |         64028672
 2017-02-08 17:29:02.469412+01 | 1486571342.46941 | pgbench_branches |          6234112

 2017-02-08 17:29:03.537665+01 | 1486571343.53766 | pgbench_accounts |       4098015232
 2017-02-08 17:29:03.537665+01 | 1486571343.53766 | pgbench_tellers  |          8462336
 2017-02-08 17:29:03.537665+01 | 1486571343.53766 | pgbench_history  |         64618496
 2017-02-08 17:29:03.537665+01 | 1486571343.53766 | pgbench_branches |          6234112

 2017-02-08 17:29:04.59191+01 | 1486571344.59191 | pgbench_accounts |       4098015232
 2017-02-08 17:29:04.59191+01 | 1486571344.59191 | pgbench_tellers  |          8462336
 2017-02-08 17:29:04.59191+01 | 1486571344.59191 | pgbench_history  |         65208320
 2017-02-08 17:29:04.59191+01 | 1486571344.59191 | pgbench_branches |          6234112

 2017-02-08 17:29:05.651529+01 | 1486571345.65153 | pgbench_accounts |       4098015232
 2017-02-08 17:29:05.651529+01 | 1486571345.65153 | pgbench_tellers  |          8462336
 2017-02-08 17:29:05.651529+01 | 1486571345.65153 | pgbench_history  |         65806336
 2017-02-08 17:29:05.651529+01 | 1486571345.65153 | pgbench_branches |          6234112

 2017-02-08 17:29:06.709888+01 | 1486571346.70989 | pgbench_accounts |       4098015232
 2017-02-08 17:29:06.709888+01 | 1486571346.70989 | pgbench_tellers  |          8462336
 2017-02-08 17:29:06.709888+01 | 1486571346.70989 | pgbench_history  |         66363392
 2017-02-08 17:29:06.709888+01 | 1486571346.70989 | pgbench_branches |          6234112

 2017-02-08 17:29:07.767959+01 | 1486571347.76796 | pgbench_accounts |       4098015232
 2017-02-08 17:29:07.767959+01 | 1486571347.76796 | pgbench_tellers  |          8462336
 2017-02-08 17:29:07.767959+01 | 1486571347.76796 | pgbench_history  |         66994176
 2017-02-08 17:29:07.767959+01 | 1486571347.76796 | pgbench_branches |          6234112

 2017-02-08 17:29:08.825242+01 | 1486571348.82524 | pgbench_accounts |       4098015232
 2017-02-08 17:29:08.825242+01 | 1486571348.82524 | pgbench_tellers  |          8462336
 2017-02-08 17:29:08.825242+01 | 1486571348.82524 | pgbench_history  |         67551232
 2017-02-08 17:29:08.825242+01 | 1486571348.82524 | pgbench_branches |          6234112

 2017-02-08 17:29:09.882071+01 | 1486571349.88207 | pgbench_accounts |       4098015232
 2017-02-08 17:29:09.882071+01 | 1486571349.88207 | pgbench_tellers  |          8462336
 2017-02-08 17:29:09.882071+01 | 1486571349.88207 | pgbench_history  |         68149248
 2017-02-08 17:29:09.882071+01 | 1486571349.88207 | pgbench_branches |          6234112

 2017-02-08 17:29:10.948862+01 | 1486571350.94886 | pgbench_accounts |       4098015232
 2017-02-08 17:29:10.948862+01 | 1486571350.94886 | pgbench_tellers  |          8462336
 2017-02-08 17:29:10.948862+01 | 1486571350.94886 | pgbench_history  |         68739072
 2017-02-08 17:29:10.948862+01 | 1486571350.94886 | pgbench_branches |          6234112

 2017-02-08 17:29:12.005177+01 | 1486571352.00518 | pgbench_accounts |       4098015232
 2017-02-08 17:29:12.005177+01 | 1486571352.00518 | pgbench_tellers  |          8462336
 2017-02-08 17:29:12.005177+01 | 1486571352.00518 | pgbench_history  |         69328896
 2017-02-08 17:29:12.005177+01 | 1486571352.00518 | pgbench_branches |          6234112

 2017-02-08 17:29:13.075519+01 | 1486571353.07552 | pgbench_accounts |       4098015232
 2017-02-08 17:29:13.075519+01 | 1486571353.07552 | pgbench_tellers  |          8462336
 2017-02-08 17:29:13.075519+01 | 1486571353.07552 | pgbench_history  |         69894144
 2017-02-08 17:29:13.075519+01 | 1486571353.07552 | pgbench_branches |          6234112

 2017-02-08 17:29:14.137063+01 | 1486571354.13706 | pgbench_accounts |       4098015232
 2017-02-08 17:29:14.137063+01 | 1486571354.13706 | pgbench_tellers  |          8462336
 2017-02-08 17:29:14.137063+01 | 1486571354.13706 | pgbench_history  |         70418432
 2017-02-08 17:29:14.137063+01 | 1486571354.13706 | pgbench_branches |          6234112

 2017-02-08 17:29:15.195519+01 | 1486571355.19552 | pgbench_accounts |       4098015232
 2017-02-08 17:29:15.195519+01 | 1486571355.19552 | pgbench_tellers  |          8462336
 2017-02-08 17:29:15.195519+01 | 1486571355.19552 | pgbench_history  |         70975488
 2017-02-08 17:29:15.195519+01 | 1486571355.19552 | pgbench_branches |          6234112

 2017-02-08 17:29:16.252705+01 | 1486571356.25271 | pgbench_accounts |       4098015232
 2017-02-08 17:29:16.252705+01 | 1486571356.25271 | pgbench_tellers  |          8462336
 2017-02-08 17:29:16.252705+01 | 1486571356.25271 | pgbench_history  |         71557120
 2017-02-08 17:29:16.252705+01 | 1486571356.25271 | pgbench_branches |          6234112

 2017-02-08 17:29:17.312579+01 | 1486571357.31258 | pgbench_accounts |       4098015232
 2017-02-08 17:29:17.312579+01 | 1486571357.31258 | pgbench_tellers  |          8462336
 2017-02-08 17:29:17.312579+01 | 1486571357.31258 | pgbench_history  |         72089600
 2017-02-08 17:29:17.312579+01 | 1486571357.31258 | pgbench_branches |          6234112

 2017-02-08 17:29:18.368989+01 | 1486571358.36899 | pgbench_accounts |       4098015232
 2017-02-08 17:29:18.368989+01 | 1486571358.36899 | pgbench_tellers  |          8462336
 2017-02-08 17:29:18.368989+01 | 1486571358.36899 | pgbench_history  |         72671232
 2017-02-08 17:29:18.368989+01 | 1486571358.36899 | pgbench_branches |          6234112

 2017-02-08 17:29:19.425565+01 | 1486571359.42557 | pgbench_accounts |       4098015232
 2017-02-08 17:29:19.425565+01 | 1486571359.42557 | pgbench_tellers  |          8462336
 2017-02-08 17:29:19.425565+01 | 1486571359.42557 | pgbench_history  |         73220096
 2017-02-08 17:29:19.425565+01 | 1486571359.42557 | pgbench_branches |          6234112

 2017-02-08 17:29:20.482163+01 | 1486571360.48216 | pgbench_accounts |       4098015232
 2017-02-08 17:29:20.482163+01 | 1486571360.48216 | pgbench_tellers  |          8462336
 2017-02-08 17:29:20.482163+01 | 1486571360.48216 | pgbench_history  |         73801728
 2017-02-08 17:29:20.482163+01 | 1486571360.48216 | pgbench_branches |          6234112

 2017-02-08 17:29:21.546507+01 | 1486571361.54651 | pgbench_accounts |       4098015232
 2017-02-08 17:29:21.546507+01 | 1486571361.54651 | pgbench_tellers  |          8462336
 2017-02-08 17:29:21.546507+01 | 1486571361.54651 | pgbench_history  |         74375168
 2017-02-08 17:29:21.546507+01 | 1486571361.54651 | pgbench_branches |          6234112

 2017-02-08 17:29:22.603625+01 | 1486571362.60363 | pgbench_accounts |       4098015232
 2017-02-08 17:29:22.603625+01 | 1486571362.60363 | pgbench_tellers  |          8462336
 2017-02-08 17:29:22.603625+01 | 1486571362.60363 | pgbench_history  |         74964992
 2017-02-08 17:29:22.603625+01 | 1486571362.60363 | pgbench_branches |          6234112

 2017-02-08 17:29:23.664536+01 | 1486571363.66454 | pgbench_accounts |       4098015232
 2017-02-08 17:29:23.664536+01 | 1486571363.66454 | pgbench_tellers  |          8462336
 2017-02-08 17:29:23.664536+01 | 1486571363.66454 | pgbench_history  |         75538432
 2017-02-08 17:29:23.664536+01 | 1486571363.66454 | pgbench_branches |          6234112

 2017-02-08 17:29:24.726295+01 | 1486571364.72629 | pgbench_accounts |       4098015232
 2017-02-08 17:29:24.726295+01 | 1486571364.72629 | pgbench_tellers  |          8462336
 2017-02-08 17:29:24.726295+01 | 1486571364.72629 | pgbench_history  |         76087296
 2017-02-08 17:29:24.726295+01 | 1486571364.72629 | pgbench_branches |          6234112

 2017-02-08 17:29:25.784714+01 | 1486571365.78471 | pgbench_accounts |       4098015232
 2017-02-08 17:29:25.784714+01 | 1486571365.78471 | pgbench_tellers  |          8462336
 2017-02-08 17:29:25.784714+01 | 1486571365.78471 | pgbench_history  |         76685312
 2017-02-08 17:29:25.784714+01 | 1486571365.78471 | pgbench_branches |          6234112

 2017-02-08 17:29:26.848006+01 | 1486571366.84801 | pgbench_accounts |       4098015232
 2017-02-08 17:29:26.848006+01 | 1486571366.84801 | pgbench_tellers  |          8462336
 2017-02-08 17:29:26.848006+01 | 1486571366.84801 | pgbench_history  |         77242368
 2017-02-08 17:29:26.848006+01 | 1486571366.84801 | pgbench_branches |          6234112

 2017-02-08 17:29:27.900804+01 | 1486571367.9008 | pgbench_accounts |       4098015232
 2017-02-08 17:29:27.900804+01 | 1486571367.9008 | pgbench_tellers  |          8462336
 2017-02-08 17:29:27.900804+01 | 1486571367.9008 | pgbench_history  |         77832192
 2017-02-08 17:29:27.900804+01 | 1486571367.9008 | pgbench_branches |          6234112

 2017-02-08 17:29:28.957777+01 | 1486571368.95778 | pgbench_accounts |       4098015232
 2017-02-08 17:29:28.957777+01 | 1486571368.95778 | pgbench_tellers  |          8462336
 2017-02-08 17:29:28.957777+01 | 1486571368.95778 | pgbench_history  |         78413824
 2017-02-08 17:29:28.957777+01 | 1486571368.95778 | pgbench_branches |          6234112

 2017-02-08 17:29:30.017783+01 | 1486571370.01778 | pgbench_accounts |       4098015232
 2017-02-08 17:29:30.017783+01 | 1486571370.01778 | pgbench_tellers  |          8462336
 2017-02-08 17:29:30.017783+01 | 1486571370.01778 | pgbench_history  |         79011840
 2017-02-08 17:29:30.017783+01 | 1486571370.01778 | pgbench_branches |          6234112

 2017-02-08 17:29:31.079856+01 | 1486571371.07986 | pgbench_accounts |       4098015232
 2017-02-08 17:29:31.079856+01 | 1486571371.07986 | pgbench_tellers  |          8462336
 2017-02-08 17:29:31.079856+01 | 1486571371.07986 | pgbench_history  |         79585280
 2017-02-08 17:29:31.079856+01 | 1486571371.07986 | pgbench_branches |          6234112

 2017-02-08 17:29:32.140161+01 | 1486571372.14016 | pgbench_accounts |       4098015232
 2017-02-08 17:29:32.140161+01 | 1486571372.14016 | pgbench_tellers  |          8462336
 2017-02-08 17:29:32.140161+01 | 1486571372.14016 | pgbench_history  |         80166912
 2017-02-08 17:29:32.140161+01 | 1486571372.14016 | pgbench_branches |          6234112

 2017-02-08 17:29:33.201715+01 | 1486571373.20171 | pgbench_accounts |       4098015232
 2017-02-08 17:29:33.201715+01 | 1486571373.20171 | pgbench_tellers  |          8462336
 2017-02-08 17:29:33.201715+01 | 1486571373.20171 | pgbench_history  |         80732160
 2017-02-08 17:29:33.201715+01 | 1486571373.20171 | pgbench_branches |          6234112

 2017-02-08 17:29:34.26209+01 | 1486571374.26209 | pgbench_accounts |       4098015232
 2017-02-08 17:29:34.26209+01 | 1486571374.26209 | pgbench_tellers  |          8462336
 2017-02-08 17:29:34.26209+01 | 1486571374.26209 | pgbench_history  |         81821696
 2017-02-08 17:29:34.26209+01 | 1486571374.26209 | pgbench_branches |          6234112

 2017-02-08 17:29:35.313559+01 | 1486571375.31356 | pgbench_accounts |       4098015232
 2017-02-08 17:29:35.313559+01 | 1486571375.31356 | pgbench_tellers  |          8462336
 2017-02-08 17:29:35.313559+01 | 1486571375.31356 | pgbench_history  |         82026496
 2017-02-08 17:29:35.313559+01 | 1486571375.31356 | pgbench_branches |          6234112

 2017-02-08 17:29:36.359167+01 | 1486571376.35917 | pgbench_accounts |       4098015232
 2017-02-08 17:29:36.359167+01 | 1486571376.35917 | pgbench_tellers  |          8462336
 2017-02-08 17:29:36.359167+01 | 1486571376.35917 | pgbench_history  |         82477056
 2017-02-08 17:29:36.359167+01 | 1486571376.35917 | pgbench_branches |          6234112

 2017-02-08 17:29:37.418536+01 | 1486571377.41854 | pgbench_accounts |       4098015232
 2017-02-08 17:29:37.418536+01 | 1486571377.41854 | pgbench_tellers  |          8462336
 2017-02-08 17:29:37.418536+01 | 1486571377.41854 | pgbench_history  |         83075072
 2017-02-08 17:29:37.418536+01 | 1486571377.41854 | pgbench_branches |          6234112

 2017-02-08 17:29:38.476892+01 | 1486571378.47689 | pgbench_accounts |       4098015232
 2017-02-08 17:29:38.476892+01 | 1486571378.47689 | pgbench_tellers  |          8462336
 2017-02-08 17:29:38.476892+01 | 1486571378.47689 | pgbench_history  |         83623936
 2017-02-08 17:29:38.476892+01 | 1486571378.47689 | pgbench_branches |          6234112

 2017-02-08 17:29:39.536186+01 | 1486571379.53619 | pgbench_accounts |       4098015232
 2017-02-08 17:29:39.536186+01 | 1486571379.53619 | pgbench_tellers  |          8462336
 2017-02-08 17:29:39.536186+01 | 1486571379.53619 | pgbench_history  |         84180992
 2017-02-08 17:29:39.536186+01 | 1486571379.53619 | pgbench_branches |          6234112

 2017-02-08 17:29:40.605752+01 | 1486571380.60575 | pgbench_accounts |       4098015232
 2017-02-08 17:29:40.605752+01 | 1486571380.60575 | pgbench_tellers  |          8462336
 2017-02-08 17:29:40.605752+01 | 1486571380.60575 | pgbench_history  |         84705280
 2017-02-08 17:29:40.605752+01 | 1486571380.60575 | pgbench_branches |          6234112

 2017-02-08 17:29:41.669119+01 | 1486571381.66912 | pgbench_accounts |       4098015232
 2017-02-08 17:29:41.669119+01 | 1486571381.66912 | pgbench_tellers  |          8462336
 2017-02-08 17:29:41.669119+01 | 1486571381.66912 | pgbench_history  |         85229568
 2017-02-08 17:29:41.669119+01 | 1486571381.66912 | pgbench_branches |          6234112

 2017-02-08 17:29:42.727868+01 | 1486571382.72787 | pgbench_accounts |       4098015232
 2017-02-08 17:29:42.727868+01 | 1486571382.72787 | pgbench_tellers  |          8462336
 2017-02-08 17:29:42.727868+01 | 1486571382.72787 | pgbench_history  |         85819392
 2017-02-08 17:29:42.727868+01 | 1486571382.72787 | pgbench_branches |          6234112

 2017-02-08 17:29:43.787076+01 | 1486571383.78708 | pgbench_accounts |       4098015232
 2017-02-08 17:29:43.787076+01 | 1486571383.78708 | pgbench_tellers  |          8462336
 2017-02-08 17:29:43.787076+01 | 1486571383.78708 | pgbench_history  |         86425600
 2017-02-08 17:29:43.787076+01 | 1486571383.78708 | pgbench_branches |          6234112

 2017-02-08 17:29:44.841778+01 | 1486571384.84178 | pgbench_accounts |       4098015232
 2017-02-08 17:29:44.841778+01 | 1486571384.84178 | pgbench_tellers  |          8462336
 2017-02-08 17:29:44.841778+01 | 1486571384.84178 | pgbench_history  |         86999040
 2017-02-08 17:29:44.841778+01 | 1486571384.84178 | pgbench_branches |          6234112

 2017-02-08 17:29:45.907863+01 | 1486571385.90786 | pgbench_accounts |       4098015232
 2017-02-08 17:29:45.907863+01 | 1486571385.90786 | pgbench_tellers  |          8462336
 2017-02-08 17:29:45.907863+01 | 1486571385.90786 | pgbench_history  |         87588864
 2017-02-08 17:29:45.907863+01 | 1486571385.90786 | pgbench_branches |          6234112

 2017-02-08 17:29:46.968187+01 | 1486571386.96819 | pgbench_accounts |       4098015232
 2017-02-08 17:29:46.968187+01 | 1486571386.96819 | pgbench_tellers  |          8462336
 2017-02-08 17:29:46.968187+01 | 1486571386.96819 | pgbench_history  |         88186880
 2017-02-08 17:29:46.968187+01 | 1486571386.96819 | pgbench_branches |          6234112

 2017-02-08 17:29:48.020968+01 | 1486571388.02097 | pgbench_accounts |       4098015232
 2017-02-08 17:29:48.020968+01 | 1486571388.02097 | pgbench_tellers  |          8462336
 2017-02-08 17:29:48.020968+01 | 1486571388.02097 | pgbench_history  |         88752128
 2017-02-08 17:29:48.020968+01 | 1486571388.02097 | pgbench_branches |          6234112

 2017-02-08 17:29:49.073589+01 | 1486571389.07359 | pgbench_accounts |       4098015232
 2017-02-08 17:29:49.073589+01 | 1486571389.07359 | pgbench_tellers  |          8462336
 2017-02-08 17:29:49.073589+01 | 1486571389.07359 | pgbench_history  |         89358336
 2017-02-08 17:29:49.073589+01 | 1486571389.07359 | pgbench_branches |          6234112

 2017-02-08 17:29:50.133318+01 | 1486571390.13332 | pgbench_accounts |       4098015232
 2017-02-08 17:29:50.133318+01 | 1486571390.13332 | pgbench_tellers  |          8462336
 2017-02-08 17:29:50.133318+01 | 1486571390.13332 | pgbench_history  |         89923584
 2017-02-08 17:29:50.133318+01 | 1486571390.13332 | pgbench_branches |          6234112

 2017-02-08 17:29:51.194158+01 | 1486571391.19416 | pgbench_accounts |       4098015232
 2017-02-08 17:29:51.194158+01 | 1486571391.19416 | pgbench_tellers  |          8462336
 2017-02-08 17:29:51.194158+01 | 1486571391.19416 | pgbench_history  |         90537984
 2017-02-08 17:29:51.194158+01 | 1486571391.19416 | pgbench_branches |          6234112

 2017-02-08 17:29:52.250732+01 | 1486571392.25073 | pgbench_accounts |       4098015232
 2017-02-08 17:29:52.250732+01 | 1486571392.25073 | pgbench_tellers  |          8462336
 2017-02-08 17:29:52.250732+01 | 1486571392.25073 | pgbench_history  |         91095040
 2017-02-08 17:29:52.250732+01 | 1486571392.25073 | pgbench_branches |          6234112

 2017-02-08 17:29:53.312294+01 | 1486571393.31229 | pgbench_accounts |       4098015232
 2017-02-08 17:29:53.312294+01 | 1486571393.31229 | pgbench_tellers  |          8462336
 2017-02-08 17:29:53.312294+01 | 1486571393.31229 | pgbench_history  |         91734016
 2017-02-08 17:29:53.312294+01 | 1486571393.31229 | pgbench_branches |          6234112

 2017-02-08 17:29:54.376504+01 | 1486571394.3765 | pgbench_accounts |       4098015232
 2017-02-08 17:29:54.376504+01 | 1486571394.3765 | pgbench_tellers  |          8462336
 2017-02-08 17:29:54.376504+01 | 1486571394.3765 | pgbench_history  |         92291072
 2017-02-08 17:29:54.376504+01 | 1486571394.3765 | pgbench_branches |          6234112

 2017-02-08 17:29:55.436087+01 | 1486571395.43609 | pgbench_accounts |       4098015232
 2017-02-08 17:29:55.436087+01 | 1486571395.43609 | pgbench_tellers  |          8462336
 2017-02-08 17:29:55.436087+01 | 1486571395.43609 | pgbench_history  |         92889088
 2017-02-08 17:29:55.436087+01 | 1486571395.43609 | pgbench_branches |          6234112

 2017-02-08 17:29:56.494532+01 | 1486571396.49453 | pgbench_accounts |       4098015232
 2017-02-08 17:29:56.494532+01 | 1486571396.49453 | pgbench_tellers  |          8462336
 2017-02-08 17:29:56.494532+01 | 1486571396.49453 | pgbench_history  |         93503488
 2017-02-08 17:29:56.494532+01 | 1486571396.49453 | pgbench_branches |          6234112

 2017-02-08 17:29:57.551999+01 | 1486571397.552 | pgbench_accounts |       4098015232
 2017-02-08 17:29:57.551999+01 | 1486571397.552 | pgbench_tellers  |          8462336
 2017-02-08 17:29:57.551999+01 | 1486571397.552 | pgbench_history  |         94076928
 2017-02-08 17:29:57.551999+01 | 1486571397.552 | pgbench_branches |          6234112

 2017-02-08 17:29:58.61298+01 | 1486571398.61298 | pgbench_accounts |       4098015232
 2017-02-08 17:29:58.61298+01 | 1486571398.61298 | pgbench_tellers  |          8462336
 2017-02-08 17:29:58.61298+01 | 1486571398.61298 | pgbench_history  |         94642176
 2017-02-08 17:29:58.61298+01 | 1486571398.61298 | pgbench_branches |          6234112

 2017-02-08 17:29:59.68452+01 | 1486571399.68452 | pgbench_accounts |       4098015232
 2017-02-08 17:29:59.68452+01 | 1486571399.68452 | pgbench_tellers  |          8462336
 2017-02-08 17:29:59.68452+01 | 1486571399.68452 | pgbench_history  |         95232000
 2017-02-08 17:29:59.68452+01 | 1486571399.68452 | pgbench_branches |          6234112

 2017-02-08 17:30:00.741929+01 | 1486571400.74193 | pgbench_accounts |       4098015232
 2017-02-08 17:30:00.741929+01 | 1486571400.74193 | pgbench_tellers  |          8462336
 2017-02-08 17:30:00.741929+01 | 1486571400.74193 | pgbench_history  |         95821824
 2017-02-08 17:30:00.741929+01 | 1486571400.74193 | pgbench_branches |          6234112

 2017-02-08 17:30:01.796014+01 | 1486571401.79601 | pgbench_accounts |       4098015232
 2017-02-08 17:30:01.796014+01 | 1486571401.79601 | pgbench_tellers  |          8462336
 2017-02-08 17:30:01.796014+01 | 1486571401.79601 | pgbench_history  |         96378880
 2017-02-08 17:30:01.796014+01 | 1486571401.79601 | pgbench_branches |          6234112

 2017-02-08 17:30:02.855293+01 | 1486571402.85529 | pgbench_accounts |       4098015232
 2017-02-08 17:30:02.855293+01 | 1486571402.85529 | pgbench_tellers  |          8462336
 2017-02-08 17:30:02.855293+01 | 1486571402.85529 | pgbench_history  |         97001472
 2017-02-08 17:30:02.855293+01 | 1486571402.85529 | pgbench_branches |          6234112

 2017-02-08 17:30:03.914119+01 | 1486571403.91412 | pgbench_accounts |       4098015232
 2017-02-08 17:30:03.914119+01 | 1486571403.91412 | pgbench_tellers  |          8462336
 2017-02-08 17:30:03.914119+01 | 1486571403.91412 | pgbench_history  |         97574912
 2017-02-08 17:30:03.914119+01 | 1486571403.91412 | pgbench_branches |          6234112

 2017-02-08 17:30:04.976629+01 | 1486571404.97663 | pgbench_accounts |       4098015232
 2017-02-08 17:30:04.976629+01 | 1486571404.97663 | pgbench_tellers  |          8462336
 2017-02-08 17:30:04.976629+01 | 1486571404.97663 | pgbench_history  |         98181120
 2017-02-08 17:30:04.976629+01 | 1486571404.97663 | pgbench_branches |          6234112

 2017-02-08 17:30:06.034857+01 | 1486571406.03486 | pgbench_accounts |       4098015232
 2017-02-08 17:30:06.034857+01 | 1486571406.03486 | pgbench_tellers  |          8462336
 2017-02-08 17:30:06.034857+01 | 1486571406.03486 | pgbench_history  |         98746368
 2017-02-08 17:30:06.034857+01 | 1486571406.03486 | pgbench_branches |          6234112

 2017-02-08 17:30:07.091512+01 | 1486571407.09151 | pgbench_accounts |       4098015232
 2017-02-08 17:30:07.091512+01 | 1486571407.09151 | pgbench_tellers  |          8462336
 2017-02-08 17:30:07.091512+01 | 1486571407.09151 | pgbench_history  |         99344384
 2017-02-08 17:30:07.091512+01 | 1486571407.09151 | pgbench_branches |          6234112

 2017-02-08 17:30:08.147325+01 | 1486571408.14733 | pgbench_accounts |       4098015232
 2017-02-08 17:30:08.147325+01 | 1486571408.14733 | pgbench_tellers  |          8462336
 2017-02-08 17:30:08.147325+01 | 1486571408.14733 | pgbench_history  |         99917824
 2017-02-08 17:30:08.147325+01 | 1486571408.14733 | pgbench_branches |          6234112

 2017-02-08 17:30:09.202084+01 | 1486571409.20208 | pgbench_accounts |       4098015232
 2017-02-08 17:30:09.202084+01 | 1486571409.20208 | pgbench_tellers  |          8462336
 2017-02-08 17:30:09.202084+01 | 1486571409.20208 | pgbench_history  |        100532224
 2017-02-08 17:30:09.202084+01 | 1486571409.20208 | pgbench_branches |          6234112

 2017-02-08 17:30:10.258704+01 | 1486571410.2587 | pgbench_accounts |       4098015232
 2017-02-08 17:30:10.258704+01 | 1486571410.2587 | pgbench_tellers  |          8462336
 2017-02-08 17:30:10.258704+01 | 1486571410.2587 | pgbench_history  |        101097472
 2017-02-08 17:30:10.258704+01 | 1486571410.2587 | pgbench_branches |          6234112

 2017-02-08 17:30:11.321134+01 | 1486571411.32113 | pgbench_accounts |       4098015232
 2017-02-08 17:30:11.321134+01 | 1486571411.32113 | pgbench_tellers  |          8462336
 2017-02-08 17:30:11.321134+01 | 1486571411.32113 | pgbench_history  |        101662720
 2017-02-08 17:30:11.321134+01 | 1486571411.32113 | pgbench_branches |          6234112

 2017-02-08 17:30:12.377654+01 | 1486571412.37765 | pgbench_accounts |       4098015232
 2017-02-08 17:30:12.377654+01 | 1486571412.37765 | pgbench_tellers  |          8462336
 2017-02-08 17:30:12.377654+01 | 1486571412.37765 | pgbench_history  |        102252544
 2017-02-08 17:30:12.377654+01 | 1486571412.37765 | pgbench_branches |          6234112

 2017-02-08 17:30:13.434704+01 | 1486571413.4347 | pgbench_accounts |       4098015232
 2017-02-08 17:30:13.434704+01 | 1486571413.4347 | pgbench_tellers  |          8462336
 2017-02-08 17:30:13.434704+01 | 1486571413.4347 | pgbench_history  |        102825984
 2017-02-08 17:30:13.434704+01 | 1486571413.4347 | pgbench_branches |          6234112

 2017-02-08 17:30:14.494414+01 | 1486571414.49441 | pgbench_accounts |       4098015232
 2017-02-08 17:30:14.494414+01 | 1486571414.49441 | pgbench_tellers  |          8462336
 2017-02-08 17:30:14.494414+01 | 1486571414.49441 | pgbench_history  |        103432192
 2017-02-08 17:30:14.494414+01 | 1486571414.49441 | pgbench_branches |          6234112

 2017-02-08 17:30:15.560732+01 | 1486571415.56073 | pgbench_accounts |       4098015232
 2017-02-08 17:30:15.560732+01 | 1486571415.56073 | pgbench_tellers  |          8462336
 2017-02-08 17:30:15.560732+01 | 1486571415.56073 | pgbench_history  |        104013824
 2017-02-08 17:30:15.560732+01 | 1486571415.56073 | pgbench_branches |          6234112

 2017-02-08 17:30:16.63612+01 | 1486571416.63612 | pgbench_accounts |       4098015232
 2017-02-08 17:30:16.63612+01 | 1486571416.63612 | pgbench_tellers  |          8462336
 2017-02-08 17:30:16.63612+01 | 1486571416.63612 | pgbench_history  |        104636416
 2017-02-08 17:30:16.63612+01 | 1486571416.63612 | pgbench_branches |          6234112

 2017-02-08 17:30:17.69232+01 | 1486571417.69232 | pgbench_accounts |       4098015232
 2017-02-08 17:30:17.69232+01 | 1486571417.69232 | pgbench_tellers  |          8462336
 2017-02-08 17:30:17.69232+01 | 1486571417.69232 | pgbench_history  |        105160704
 2017-02-08 17:30:17.69232+01 | 1486571417.69232 | pgbench_branches |          6234112

 2017-02-08 17:30:18.750813+01 | 1486571418.75081 | pgbench_accounts |       4098015232
 2017-02-08 17:30:18.750813+01 | 1486571418.75081 | pgbench_tellers  |          8462336
 2017-02-08 17:30:18.750813+01 | 1486571418.75081 | pgbench_history  |        105783296
 2017-02-08 17:30:18.750813+01 | 1486571418.75081 | pgbench_branches |          6234112

 2017-02-08 17:30:19.812241+01 | 1486571419.81224 | pgbench_accounts |       4098015232
 2017-02-08 17:30:19.812241+01 | 1486571419.81224 | pgbench_tellers  |          8462336
 2017-02-08 17:30:19.812241+01 | 1486571419.81224 | pgbench_history  |        106340352
 2017-02-08 17:30:19.812241+01 | 1486571419.81224 | pgbench_branches |          6234112

 2017-02-08 17:30:20.868377+01 | 1486571420.86838 | pgbench_accounts |       4098015232
 2017-02-08 17:30:20.868377+01 | 1486571420.86838 | pgbench_tellers  |          8462336
 2017-02-08 17:30:20.868377+01 | 1486571420.86838 | pgbench_history  |        106913792
 2017-02-08 17:30:20.868377+01 | 1486571420.86838 | pgbench_branches |          6234112

 2017-02-08 17:30:21.918333+01 | 1486571421.91833 | pgbench_accounts |       4098015232
 2017-02-08 17:30:21.918333+01 | 1486571421.91833 | pgbench_tellers  |          8462336
 2017-02-08 17:30:21.918333+01 | 1486571421.91833 | pgbench_history  |        107511808
 2017-02-08 17:30:21.918333+01 | 1486571421.91833 | pgbench_branches |          6234112

 2017-02-08 17:30:22.979656+01 | 1486571422.97966 | pgbench_accounts |       4098015232
 2017-02-08 17:30:22.979656+01 | 1486571422.97966 | pgbench_tellers  |          8462336
 2017-02-08 17:30:22.979656+01 | 1486571422.97966 | pgbench_history  |        108109824
 2017-02-08 17:30:22.979656+01 | 1486571422.97966 | pgbench_branches |          6234112

 2017-02-08 17:30:24.039469+01 | 1486571424.03947 | pgbench_accounts |       4098015232
 2017-02-08 17:30:24.039469+01 | 1486571424.03947 | pgbench_tellers  |          8462336
 2017-02-08 17:30:24.039469+01 | 1486571424.03947 | pgbench_history  |        108650496
 2017-02-08 17:30:24.039469+01 | 1486571424.03947 | pgbench_branches |          6234112

 2017-02-08 17:30:25.085365+01 | 1486571425.08537 | pgbench_accounts |       4098015232
 2017-02-08 17:30:25.085365+01 | 1486571425.08537 | pgbench_tellers  |          8462336
 2017-02-08 17:30:25.085365+01 | 1486571425.08537 | pgbench_history  |        109240320
 2017-02-08 17:30:25.085365+01 | 1486571425.08537 | pgbench_branches |          6234112

 2017-02-08 17:30:26.140019+01 | 1486571426.14002 | pgbench_accounts |       4098015232
 2017-02-08 17:30:26.140019+01 | 1486571426.14002 | pgbench_tellers  |          8462336
 2017-02-08 17:30:26.140019+01 | 1486571426.14002 | pgbench_history  |        109813760
 2017-02-08 17:30:26.140019+01 | 1486571426.14002 | pgbench_branches |          6234112

 2017-02-08 17:30:27.194138+01 | 1486571427.19414 | pgbench_accounts |       4098015232
 2017-02-08 17:30:27.194138+01 | 1486571427.19414 | pgbench_tellers  |          8462336
 2017-02-08 17:30:27.194138+01 | 1486571427.19414 | pgbench_history  |        110411776
 2017-02-08 17:30:27.194138+01 | 1486571427.19414 | pgbench_branches |          6234112

 2017-02-08 17:30:28.256004+01 | 1486571428.256 | pgbench_accounts |       4098015232
 2017-02-08 17:30:28.256004+01 | 1486571428.256 | pgbench_tellers  |          8462336
 2017-02-08 17:30:28.256004+01 | 1486571428.256 | pgbench_history  |        111001600
 2017-02-08 17:30:28.256004+01 | 1486571428.256 | pgbench_branches |          6234112

 2017-02-08 17:30:29.307247+01 | 1486571429.30725 | pgbench_accounts |       4098015232
 2017-02-08 17:30:29.307247+01 | 1486571429.30725 | pgbench_tellers  |          8462336
 2017-02-08 17:30:29.307247+01 | 1486571429.30725 | pgbench_history  |        111591424
 2017-02-08 17:30:29.307247+01 | 1486571429.30725 | pgbench_branches |          6234112

 2017-02-08 17:30:30.361283+01 | 1486571430.36128 | pgbench_accounts |       4098015232
 2017-02-08 17:30:30.361283+01 | 1486571430.36128 | pgbench_tellers  |          8462336
 2017-02-08 17:30:30.361283+01 | 1486571430.36128 | pgbench_history  |        112189440
 2017-02-08 17:30:30.361283+01 | 1486571430.36128 | pgbench_branches |          6234112

 2017-02-08 17:30:31.42294+01 | 1486571431.42294 | pgbench_accounts |       4098015232
 2017-02-08 17:30:31.42294+01 | 1486571431.42294 | pgbench_tellers  |          8462336
 2017-02-08 17:30:31.42294+01 | 1486571431.42294 | pgbench_history  |        112803840
 2017-02-08 17:30:31.42294+01 | 1486571431.42294 | pgbench_branches |          6234112

 2017-02-08 17:30:32.482547+01 | 1486571432.48255 | pgbench_accounts |       4098015232
 2017-02-08 17:30:32.482547+01 | 1486571432.48255 | pgbench_tellers  |          8462336
 2017-02-08 17:30:32.482547+01 | 1486571432.48255 | pgbench_history  |        113360896
 2017-02-08 17:30:32.482547+01 | 1486571432.48255 | pgbench_branches |          6234112

 2017-02-08 17:30:33.538027+01 | 1486571433.53803 | pgbench_accounts |       4098015232
 2017-02-08 17:30:33.538027+01 | 1486571433.53803 | pgbench_tellers  |          8462336
 2017-02-08 17:30:33.538027+01 | 1486571433.53803 | pgbench_history  |        113967104
 2017-02-08 17:30:33.538027+01 | 1486571433.53803 | pgbench_branches |          6234112

 2017-02-08 17:30:34.601834+01 | 1486571434.60183 | pgbench_accounts |       4098015232
 2017-02-08 17:30:34.601834+01 | 1486571434.60183 | pgbench_tellers  |          8462336
 2017-02-08 17:30:34.601834+01 | 1486571434.60183 | pgbench_history  |        114581504
 2017-02-08 17:30:34.601834+01 | 1486571434.60183 | pgbench_branches |          6234112

 2017-02-08 17:30:35.65753+01 | 1486571435.65753 | pgbench_accounts |       4098015232
 2017-02-08 17:30:35.65753+01 | 1486571435.65753 | pgbench_tellers  |          8462336
 2017-02-08 17:30:35.65753+01 | 1486571435.65753 | pgbench_history  |        115130368
 2017-02-08 17:30:35.65753+01 | 1486571435.65753 | pgbench_branches |          6234112

 2017-02-08 17:30:36.716684+01 | 1486571436.71668 | pgbench_accounts |       4098015232
 2017-02-08 17:30:36.716684+01 | 1486571436.71668 | pgbench_tellers  |          8462336
 2017-02-08 17:30:36.716684+01 | 1486571436.71668 | pgbench_history  |        115736576
 2017-02-08 17:30:36.716684+01 | 1486571436.71668 | pgbench_branches |          6234112

 2017-02-08 17:30:37.776192+01 | 1486571437.77619 | pgbench_accounts |       4098015232
 2017-02-08 17:30:37.776192+01 | 1486571437.77619 | pgbench_tellers  |          8462336
 2017-02-08 17:30:37.776192+01 | 1486571437.77619 | pgbench_history  |        116326400
 2017-02-08 17:30:37.776192+01 | 1486571437.77619 | pgbench_branches |          6234112

 2017-02-08 17:30:38.837415+01 | 1486571438.83741 | pgbench_accounts |       4098015232
 2017-02-08 17:30:38.837415+01 | 1486571438.83741 | pgbench_tellers  |          8462336
 2017-02-08 17:30:38.837415+01 | 1486571438.83741 | pgbench_history  |        116883456
 2017-02-08 17:30:38.837415+01 | 1486571438.83741 | pgbench_branches |          6234112

 2017-02-08 17:30:39.8947+01 | 1486571439.8947 | pgbench_accounts |       4098015232
 2017-02-08 17:30:39.8947+01 | 1486571439.8947 | pgbench_tellers  |          8462336
 2017-02-08 17:30:39.8947+01 | 1486571439.8947 | pgbench_history  |        117481472
 2017-02-08 17:30:39.8947+01 | 1486571439.8947 | pgbench_branches |          6234112

 2017-02-08 17:30:40.951883+01 | 1486571440.95188 | pgbench_accounts |       4098015232
 2017-02-08 17:30:40.951883+01 | 1486571440.95188 | pgbench_tellers  |          8462336
 2017-02-08 17:30:40.951883+01 | 1486571440.95188 | pgbench_history  |        118095872
 2017-02-08 17:30:40.951883+01 | 1486571440.95188 | pgbench_branches |          6234112

 2017-02-08 17:30:42.007807+01 | 1486571442.00781 | pgbench_accounts |       4098015232
 2017-02-08 17:30:42.007807+01 | 1486571442.00781 | pgbench_tellers  |          8462336
 2017-02-08 17:30:42.007807+01 | 1486571442.00781 | pgbench_history  |        118636544
 2017-02-08 17:30:42.007807+01 | 1486571442.00781 | pgbench_branches |          6234112

 2017-02-08 17:30:43.067876+01 | 1486571443.06788 | pgbench_accounts |       4098015232
 2017-02-08 17:30:43.067876+01 | 1486571443.06788 | pgbench_tellers  |          8462336
 2017-02-08 17:30:43.067876+01 | 1486571443.06788 | pgbench_history  |        119242752
 2017-02-08 17:30:43.067876+01 | 1486571443.06788 | pgbench_branches |          6234112

 2017-02-08 17:30:44.123067+01 | 1486571444.12307 | pgbench_accounts |       4098015232
 2017-02-08 17:30:44.123067+01 | 1486571444.12307 | pgbench_tellers  |          8462336
 2017-02-08 17:30:44.123067+01 | 1486571444.12307 | pgbench_history  |        119808000
 2017-02-08 17:30:44.123067+01 | 1486571444.12307 | pgbench_branches |          6234112

 2017-02-08 17:30:45.188594+01 | 1486571445.18859 | pgbench_accounts |       4098015232
 2017-02-08 17:30:45.188594+01 | 1486571445.18859 | pgbench_tellers  |          8462336
 2017-02-08 17:30:45.188594+01 | 1486571445.18859 | pgbench_history  |        120414208
 2017-02-08 17:30:45.188594+01 | 1486571445.18859 | pgbench_branches |          6234112

 2017-02-08 17:30:46.244552+01 | 1486571446.24455 | pgbench_accounts |       4098015232
 2017-02-08 17:30:46.244552+01 | 1486571446.24455 | pgbench_tellers  |          8462336
 2017-02-08 17:30:46.244552+01 | 1486571446.24455 | pgbench_history  |        121012224
 2017-02-08 17:30:46.244552+01 | 1486571446.24455 | pgbench_branches |          6234112

 2017-02-08 17:30:47.30302+01 | 1486571447.30302 | pgbench_accounts |       4098015232
 2017-02-08 17:30:47.30302+01 | 1486571447.30302 | pgbench_tellers  |          8462336
 2017-02-08 17:30:47.30302+01 | 1486571447.30302 | pgbench_history  |        121585664
 2017-02-08 17:30:47.30302+01 | 1486571447.30302 | pgbench_branches |          6234112

 2017-02-08 17:30:48.364435+01 | 1486571448.36443 | pgbench_accounts |       4098015232
 2017-02-08 17:30:48.364435+01 | 1486571448.36443 | pgbench_tellers  |          8462336
 2017-02-08 17:30:48.364435+01 | 1486571448.36443 | pgbench_history  |        122191872
 2017-02-08 17:30:48.364435+01 | 1486571448.36443 | pgbench_branches |          6234112

 2017-02-08 17:30:49.42979+01 | 1486571449.42979 | pgbench_accounts |       4098015232
 2017-02-08 17:30:49.42979+01 | 1486571449.42979 | pgbench_tellers  |          8462336
 2017-02-08 17:30:49.42979+01 | 1486571449.42979 | pgbench_history  |        122806272
 2017-02-08 17:30:49.42979+01 | 1486571449.42979 | pgbench_branches |          6234112

 2017-02-08 17:30:50.488416+01 | 1486571450.48842 | pgbench_accounts |       4098015232
 2017-02-08 17:30:50.488416+01 | 1486571450.48842 | pgbench_tellers  |          8462336
 2017-02-08 17:30:50.488416+01 | 1486571450.48842 | pgbench_history  |        123355136
 2017-02-08 17:30:50.488416+01 | 1486571450.48842 | pgbench_branches |          6234112

 2017-02-08 17:30:51.543961+01 | 1486571451.54396 | pgbench_accounts |       4098015232
 2017-02-08 17:30:51.543961+01 | 1486571451.54396 | pgbench_tellers  |          8462336
 2017-02-08 17:30:51.543961+01 | 1486571451.54396 | pgbench_history  |        124026880
 2017-02-08 17:30:51.543961+01 | 1486571451.54396 | pgbench_branches |          6234112

 2017-02-08 17:30:52.599056+01 | 1486571452.59906 | pgbench_accounts |       4098015232
 2017-02-08 17:30:52.599056+01 | 1486571452.59906 | pgbench_tellers  |          8462336
 2017-02-08 17:30:52.599056+01 | 1486571452.59906 | pgbench_history  |        124674048
 2017-02-08 17:30:52.599056+01 | 1486571452.59906 | pgbench_branches |          6234112

 2017-02-08 17:30:53.664922+01 | 1486571453.66492 | pgbench_accounts |       4098015232
 2017-02-08 17:30:53.664922+01 | 1486571453.66492 | pgbench_tellers  |          8462336
 2017-02-08 17:30:53.664922+01 | 1486571453.66492 | pgbench_history  |        125157376
 2017-02-08 17:30:53.664922+01 | 1486571453.66492 | pgbench_branches |          6234112

 2017-02-08 17:30:54.724198+01 | 1486571454.7242 | pgbench_accounts |       4098015232
 2017-02-08 17:30:54.724198+01 | 1486571454.7242 | pgbench_tellers  |          8462336
 2017-02-08 17:30:54.724198+01 | 1486571454.7242 | pgbench_history  |        125714432
 2017-02-08 17:30:54.724198+01 | 1486571454.7242 | pgbench_branches |          6234112

 2017-02-08 17:30:55.77926+01 | 1486571455.77926 | pgbench_accounts |       4098015232
 2017-02-08 17:30:55.77926+01 | 1486571455.77926 | pgbench_tellers  |          8462336
 2017-02-08 17:30:55.77926+01 | 1486571455.77926 | pgbench_history  |        126492672
 2017-02-08 17:30:55.77926+01 | 1486571455.77926 | pgbench_branches |          6234112

 2017-02-08 17:30:56.840907+01 | 1486571456.84091 | pgbench_accounts |       4098015232
 2017-02-08 17:30:56.840907+01 | 1486571456.84091 | pgbench_tellers  |          8462336
 2017-02-08 17:30:56.840907+01 | 1486571456.84091 | pgbench_history  |        127049728
 2017-02-08 17:30:56.840907+01 | 1486571456.84091 | pgbench_branches |          6234112

 2017-02-08 17:30:57.897078+01 | 1486571457.89708 | pgbench_accounts |       4098015232
 2017-02-08 17:30:57.897078+01 | 1486571457.89708 | pgbench_tellers  |          8462336
 2017-02-08 17:30:57.897078+01 | 1486571457.89708 | pgbench_history  |        127516672
 2017-02-08 17:30:57.897078+01 | 1486571457.89708 | pgbench_branches |          6234112

 2017-02-08 17:30:58.96346+01 | 1486571458.96346 | pgbench_accounts |       4098015232
 2017-02-08 17:30:58.96346+01 | 1486571458.96346 | pgbench_tellers  |          8462336
 2017-02-08 17:30:58.96346+01 | 1486571458.96346 | pgbench_history  |        128081920
 2017-02-08 17:30:58.96346+01 | 1486571458.96346 | pgbench_branches |          6234112

 2017-02-08 17:31:00.018984+01 | 1486571460.01898 | pgbench_accounts |       4098015232
 2017-02-08 17:31:00.018984+01 | 1486571460.01898 | pgbench_tellers  |          8462336
 2017-02-08 17:31:00.018984+01 | 1486571460.01898 | pgbench_history  |        128688128
 2017-02-08 17:31:00.018984+01 | 1486571460.01898 | pgbench_branches |          6234112

 2017-02-08 17:31:01.078348+01 | 1486571461.07835 | pgbench_accounts |       4098015232
 2017-02-08 17:31:01.078348+01 | 1486571461.07835 | pgbench_tellers  |          8462336
 2017-02-08 17:31:01.078348+01 | 1486571461.07835 | pgbench_history  |        129286144
 2017-02-08 17:31:01.078348+01 | 1486571461.07835 | pgbench_branches |          6234112

 2017-02-08 17:31:02.135465+01 | 1486571462.13546 | pgbench_accounts |       4098015232
 2017-02-08 17:31:02.135465+01 | 1486571462.13546 | pgbench_tellers  |          8462336
 2017-02-08 17:31:02.135465+01 | 1486571462.13546 | pgbench_history  |        129843200
 2017-02-08 17:31:02.135465+01 | 1486571462.13546 | pgbench_branches |          6234112

 2017-02-08 17:31:03.189764+01 | 1486571463.18976 | pgbench_accounts |       4098015232
 2017-02-08 17:31:03.189764+01 | 1486571463.18976 | pgbench_tellers  |          8462336
 2017-02-08 17:31:03.189764+01 | 1486571463.18976 | pgbench_history  |        130449408
 2017-02-08 17:31:03.189764+01 | 1486571463.18976 | pgbench_branches |          6234112

 2017-02-08 17:31:04.257304+01 | 1486571464.2573 | pgbench_accounts |       4098015232
 2017-02-08 17:31:04.257304+01 | 1486571464.2573 | pgbench_tellers  |          8462336
 2017-02-08 17:31:04.257304+01 | 1486571464.2573 | pgbench_history  |        131047424
 2017-02-08 17:31:04.257304+01 | 1486571464.2573 | pgbench_branches |          6234112

 2017-02-08 17:31:05.3185+01 | 1486571465.3185 | pgbench_accounts |       4098015232
 2017-02-08 17:31:05.3185+01 | 1486571465.3185 | pgbench_tellers  |          8462336
 2017-02-08 17:31:05.3185+01 | 1486571465.3185 | pgbench_history  |        131645440
 2017-02-08 17:31:05.3185+01 | 1486571465.3185 | pgbench_branches |          6234112

 2017-02-08 17:31:06.378961+01 | 1486571466.37896 | pgbench_accounts |       4098015232
 2017-02-08 17:31:06.378961+01 | 1486571466.37896 | pgbench_tellers  |          8462336
 2017-02-08 17:31:06.378961+01 | 1486571466.37896 | pgbench_history  |        132276224
 2017-02-08 17:31:06.378961+01 | 1486571466.37896 | pgbench_branches |          6234112

 2017-02-08 17:31:07.43617+01 | 1486571467.43617 | pgbench_accounts |       4098015232
 2017-02-08 17:31:07.43617+01 | 1486571467.43617 | pgbench_tellers  |          8462336
 2017-02-08 17:31:07.43617+01 | 1486571467.43617 | pgbench_history  |        132825088
 2017-02-08 17:31:07.43617+01 | 1486571467.43617 | pgbench_branches |          6234112

 2017-02-08 17:31:08.498189+01 | 1486571468.49819 | pgbench_accounts |       4098015232
 2017-02-08 17:31:08.498189+01 | 1486571468.49819 | pgbench_tellers  |          8462336
 2017-02-08 17:31:08.498189+01 | 1486571468.49819 | pgbench_history  |        133447680
 2017-02-08 17:31:08.498189+01 | 1486571468.49819 | pgbench_branches |          6234112

 2017-02-08 17:31:09.562082+01 | 1486571469.56208 | pgbench_accounts |       4098015232
 2017-02-08 17:31:09.562082+01 | 1486571469.56208 | pgbench_tellers  |          8462336
 2017-02-08 17:31:09.562082+01 | 1486571469.56208 | pgbench_history  |        134037504
 2017-02-08 17:31:09.562082+01 | 1486571469.56208 | pgbench_branches |          6234112

 2017-02-08 17:31:10.624694+01 | 1486571470.62469 | pgbench_accounts |       4098015232
 2017-02-08 17:31:10.624694+01 | 1486571470.62469 | pgbench_tellers  |          8462336
 2017-02-08 17:31:10.624694+01 | 1486571470.62469 | pgbench_history  |        134643712
 2017-02-08 17:31:10.624694+01 | 1486571470.62469 | pgbench_branches |          6234112

 2017-02-08 17:31:11.689236+01 | 1486571471.68924 | pgbench_accounts |       4098015232
 2017-02-08 17:31:11.689236+01 | 1486571471.68924 | pgbench_tellers  |          8462336
 2017-02-08 17:31:11.689236+01 | 1486571471.68924 | pgbench_history  |        135241728
 2017-02-08 17:31:11.689236+01 | 1486571471.68924 | pgbench_branches |          6234112

 2017-02-08 17:31:12.743169+01 | 1486571472.74317 | pgbench_accounts |       4098015232
 2017-02-08 17:31:12.743169+01 | 1486571472.74317 | pgbench_tellers  |          8462336
 2017-02-08 17:31:12.743169+01 | 1486571472.74317 | pgbench_history  |        135831552
 2017-02-08 17:31:12.743169+01 | 1486571472.74317 | pgbench_branches |          6234112

 2017-02-08 17:31:13.809585+01 | 1486571473.80959 | pgbench_accounts |       4098015232
 2017-02-08 17:31:13.809585+01 | 1486571473.80959 | pgbench_tellers  |          8462336
 2017-02-08 17:31:13.809585+01 | 1486571473.80959 | pgbench_history  |        136413184
 2017-02-08 17:31:13.809585+01 | 1486571473.80959 | pgbench_branches |          6234112

 2017-02-08 17:31:14.869126+01 | 1486571474.86913 | pgbench_accounts |       4098015232
 2017-02-08 17:31:14.869126+01 | 1486571474.86913 | pgbench_tellers  |          8462336
 2017-02-08 17:31:14.869126+01 | 1486571474.86913 | pgbench_history  |        137027584
 2017-02-08 17:31:14.869126+01 | 1486571474.86913 | pgbench_branches |          6234112

 2017-02-08 17:31:15.9291+01 | 1486571475.9291 | pgbench_accounts |       4098015232
 2017-02-08 17:31:15.9291+01 | 1486571475.9291 | pgbench_tellers  |          8462336
 2017-02-08 17:31:15.9291+01 | 1486571475.9291 | pgbench_history  |        137625600
 2017-02-08 17:31:15.9291+01 | 1486571475.9291 | pgbench_branches |          6234112

 2017-02-08 17:31:16.985236+01 | 1486571476.98524 | pgbench_accounts |       4098015232
 2017-02-08 17:31:16.985236+01 | 1486571476.98524 | pgbench_tellers  |          8462336
 2017-02-08 17:31:16.985236+01 | 1486571476.98524 | pgbench_history  |        138215424
 2017-02-08 17:31:16.985236+01 | 1486571476.98524 | pgbench_branches |          6234112

 2017-02-08 17:31:18.045576+01 | 1486571478.04558 | pgbench_accounts |       4098015232
 2017-02-08 17:31:18.045576+01 | 1486571478.04558 | pgbench_tellers  |          8462336
 2017-02-08 17:31:18.045576+01 | 1486571478.04558 | pgbench_history  |        138821632
 2017-02-08 17:31:18.045576+01 | 1486571478.04558 | pgbench_branches |          6234112

 2017-02-08 17:31:19.102358+01 | 1486571479.10236 | pgbench_accounts |       4098015232
 2017-02-08 17:31:19.102358+01 | 1486571479.10236 | pgbench_tellers  |          8462336
 2017-02-08 17:31:19.102358+01 | 1486571479.10236 | pgbench_history  |        139427840
 2017-02-08 17:31:19.102358+01 | 1486571479.10236 | pgbench_branches |          6234112

 2017-02-08 17:31:20.15793+01 | 1486571480.15793 | pgbench_accounts |       4098015232
 2017-02-08 17:31:20.15793+01 | 1486571480.15793 | pgbench_tellers  |          8462336
 2017-02-08 17:31:20.15793+01 | 1486571480.15793 | pgbench_history  |        140017664
 2017-02-08 17:31:20.15793+01 | 1486571480.15793 | pgbench_branches |          6234112

 2017-02-08 17:31:21.217963+01 | 1486571481.21796 | pgbench_accounts |       4098015232
 2017-02-08 17:31:21.217963+01 | 1486571481.21796 | pgbench_tellers  |          8462336
 2017-02-08 17:31:21.217963+01 | 1486571481.21796 | pgbench_history  |        140607488
 2017-02-08 17:31:21.217963+01 | 1486571481.21796 | pgbench_branches |          6234112

 2017-02-08 17:31:22.274906+01 | 1486571482.27491 | pgbench_accounts |       4098015232
 2017-02-08 17:31:22.274906+01 | 1486571482.27491 | pgbench_tellers  |          8462336
 2017-02-08 17:31:22.274906+01 | 1486571482.27491 | pgbench_history  |        141246464
 2017-02-08 17:31:22.274906+01 | 1486571482.27491 | pgbench_branches |          6234112

 2017-02-08 17:31:23.334614+01 | 1486571483.33461 | pgbench_accounts |       4098015232
 2017-02-08 17:31:23.334614+01 | 1486571483.33461 | pgbench_tellers  |          8462336
 2017-02-08 17:31:23.334614+01 | 1486571483.33461 | pgbench_history  |        141918208
 2017-02-08 17:31:23.334614+01 | 1486571483.33461 | pgbench_branches |          6234112

 2017-02-08 17:31:24.39882+01 | 1486571484.39882 | pgbench_accounts |       4098015232
 2017-02-08 17:31:24.39882+01 | 1486571484.39882 | pgbench_tellers  |          8462336
 2017-02-08 17:31:24.39882+01 | 1486571484.39882 | pgbench_history  |        142475264
 2017-02-08 17:31:24.39882+01 | 1486571484.39882 | pgbench_branches |          6234112

 2017-02-08 17:31:25.457097+01 | 1486571485.4571 | pgbench_accounts |       4098015232
 2017-02-08 17:31:25.457097+01 | 1486571485.4571 | pgbench_tellers  |          8462336
 2017-02-08 17:31:25.457097+01 | 1486571485.4571 | pgbench_history  |        143163392
 2017-02-08 17:31:25.457097+01 | 1486571485.4571 | pgbench_branches |          6234112

 2017-02-08 17:31:26.515285+01 | 1486571486.51529 | pgbench_accounts |       4098015232
 2017-02-08 17:31:26.515285+01 | 1486571486.51529 | pgbench_tellers  |          8462336
 2017-02-08 17:31:26.515285+01 | 1486571486.51529 | pgbench_history  |        143622144
 2017-02-08 17:31:26.515285+01 | 1486571486.51529 | pgbench_branches |          6234112

 2017-02-08 17:31:27.574941+01 | 1486571487.57494 | pgbench_accounts |       4098015232
 2017-02-08 17:31:27.574941+01 | 1486571487.57494 | pgbench_tellers  |          8462336
 2017-02-08 17:31:27.574941+01 | 1486571487.57494 | pgbench_history  |        144244736
 2017-02-08 17:31:27.574941+01 | 1486571487.57494 | pgbench_branches |          6234112

 2017-02-08 17:31:28.633909+01 | 1486571488.63391 | pgbench_accounts |       4098015232
 2017-02-08 17:31:28.633909+01 | 1486571488.63391 | pgbench_tellers  |          8462336
 2017-02-08 17:31:28.633909+01 | 1486571488.63391 | pgbench_history  |        144818176
 2017-02-08 17:31:28.633909+01 | 1486571488.63391 | pgbench_branches |          6234112

 2017-02-08 17:31:29.68901+01 | 1486571489.68901 | pgbench_accounts |       4098015232
 2017-02-08 17:31:29.68901+01 | 1486571489.68901 | pgbench_tellers  |          8462336
 2017-02-08 17:31:29.68901+01 | 1486571489.68901 | pgbench_history  |        145424384
 2017-02-08 17:31:29.68901+01 | 1486571489.68901 | pgbench_branches |          6234112

 2017-02-08 17:31:30.743962+01 | 1486571490.74396 | pgbench_accounts |       4098015232
 2017-02-08 17:31:30.743962+01 | 1486571490.74396 | pgbench_tellers  |          8462336
 2017-02-08 17:31:30.743962+01 | 1486571490.74396 | pgbench_history  |        146030592
 2017-02-08 17:31:30.743962+01 | 1486571490.74396 | pgbench_branches |          6234112

 2017-02-08 17:31:31.808365+01 | 1486571491.80837 | pgbench_accounts |       4098015232
 2017-02-08 17:31:31.808365+01 | 1486571491.80837 | pgbench_tellers  |          8462336
 2017-02-08 17:31:31.808365+01 | 1486571491.80837 | pgbench_history  |        146612224
 2017-02-08 17:31:31.808365+01 | 1486571491.80837 | pgbench_branches |          6234112

 2017-02-08 17:31:32.865409+01 | 1486571492.86541 | pgbench_accounts |       4098015232
 2017-02-08 17:31:32.865409+01 | 1486571492.86541 | pgbench_tellers  |          8462336
 2017-02-08 17:31:32.865409+01 | 1486571492.86541 | pgbench_history  |        147177472
 2017-02-08 17:31:32.865409+01 | 1486571492.86541 | pgbench_branches |          6234112

 2017-02-08 17:31:33.925236+01 | 1486571493.92524 | pgbench_accounts |       4098015232
 2017-02-08 17:31:33.925236+01 | 1486571493.92524 | pgbench_tellers  |          8462336
 2017-02-08 17:31:33.925236+01 | 1486571493.92524 | pgbench_history  |        147955712
 2017-02-08 17:31:33.925236+01 | 1486571493.92524 | pgbench_branches |          6234112

 2017-02-08 17:31:34.983051+01 | 1486571494.98305 | pgbench_accounts |       4098015232
 2017-02-08 17:31:34.983051+01 | 1486571494.98305 | pgbench_tellers  |          8462336
 2017-02-08 17:31:34.983051+01 | 1486571494.98305 | pgbench_history  |        148373504
 2017-02-08 17:31:34.983051+01 | 1486571494.98305 | pgbench_branches |          6234112

 2017-02-08 17:31:36.049124+01 | 1486571496.04912 | pgbench_accounts |       4098015232
 2017-02-08 17:31:36.049124+01 | 1486571496.04912 | pgbench_tellers  |          8462336
 2017-02-08 17:31:36.049124+01 | 1486571496.04912 | pgbench_history  |        149053440
 2017-02-08 17:31:36.049124+01 | 1486571496.04912 | pgbench_branches |          6234112

 2017-02-08 17:31:37.104065+01 | 1486571497.10406 | pgbench_accounts |       4098015232
 2017-02-08 17:31:37.104065+01 | 1486571497.10406 | pgbench_tellers  |          8462336
 2017-02-08 17:31:37.104065+01 | 1486571497.10406 | pgbench_history  |        149479424
 2017-02-08 17:31:37.104065+01 | 1486571497.10406 | pgbench_branches |          6234112

 2017-02-08 17:31:38.163805+01 | 1486571498.16381 | pgbench_accounts |       4098015232
 2017-02-08 17:31:38.163805+01 | 1486571498.16381 | pgbench_tellers  |          8462336
 2017-02-08 17:31:38.163805+01 | 1486571498.16381 | pgbench_history  |        150036480
 2017-02-08 17:31:38.163805+01 | 1486571498.16381 | pgbench_branches |          6234112

 2017-02-08 17:31:39.222445+01 | 1486571499.22245 | pgbench_accounts |       4098015232
 2017-02-08 17:31:39.222445+01 | 1486571499.22245 | pgbench_tellers  |          8462336
 2017-02-08 17:31:39.222445+01 | 1486571499.22245 | pgbench_history  |        150642688
 2017-02-08 17:31:39.222445+01 | 1486571499.22245 | pgbench_branches |          6234112

 2017-02-08 17:31:40.283446+01 | 1486571500.28345 | pgbench_accounts |       4098015232
 2017-02-08 17:31:40.283446+01 | 1486571500.28345 | pgbench_tellers  |          8462336
 2017-02-08 17:31:40.283446+01 | 1486571500.28345 | pgbench_history  |        151076864
 2017-02-08 17:31:40.283446+01 | 1486571500.28345 | pgbench_branches |          6234112

 2017-02-08 17:31:41.347302+01 | 1486571501.3473 | pgbench_accounts |       4098015232
 2017-02-08 17:31:41.347302+01 | 1486571501.3473 | pgbench_tellers  |          8462336
 2017-02-08 17:31:41.347302+01 | 1486571501.3473 | pgbench_history  |        151601152
 2017-02-08 17:31:41.347302+01 | 1486571501.3473 | pgbench_branches |          6234112

 2017-02-08 17:31:42.414048+01 | 1486571502.41405 | pgbench_accounts |       4098015232
 2017-02-08 17:31:42.414048+01 | 1486571502.41405 | pgbench_tellers  |          8462336
 2017-02-08 17:31:42.414048+01 | 1486571502.41405 | pgbench_history  |        152092672
 2017-02-08 17:31:42.414048+01 | 1486571502.41405 | pgbench_branches |          6234112

 2017-02-08 17:31:43.474985+01 | 1486571503.47498 | pgbench_accounts |       4098015232
 2017-02-08 17:31:43.474985+01 | 1486571503.47498 | pgbench_tellers  |          8462336
 2017-02-08 17:31:43.474985+01 | 1486571503.47498 | pgbench_history  |        152584192
 2017-02-08 17:31:43.474985+01 | 1486571503.47498 | pgbench_branches |          6234112

 2017-02-08 17:31:44.539669+01 | 1486571504.53967 | pgbench_accounts |       4098015232
 2017-02-08 17:31:44.539669+01 | 1486571504.53967 | pgbench_tellers  |          8462336
 2017-02-08 17:31:44.539669+01 | 1486571504.53967 | pgbench_history  |        153067520
 2017-02-08 17:31:44.539669+01 | 1486571504.53967 | pgbench_branches |          6234112

 2017-02-08 17:31:45.603715+01 | 1486571505.60371 | pgbench_accounts |       4098015232
 2017-02-08 17:31:45.603715+01 | 1486571505.60371 | pgbench_tellers  |          8462336
 2017-02-08 17:31:45.603715+01 | 1486571505.60371 | pgbench_history  |        153624576
 2017-02-08 17:31:45.603715+01 | 1486571505.60371 | pgbench_branches |          6234112

 2017-02-08 17:31:46.660256+01 | 1486571506.66026 | pgbench_accounts |       4098015232
 2017-02-08 17:31:46.660256+01 | 1486571506.66026 | pgbench_tellers  |          8462336
 2017-02-08 17:31:46.660256+01 | 1486571506.66026 | pgbench_history  |        154206208
 2017-02-08 17:31:46.660256+01 | 1486571506.66026 | pgbench_branches |          6234112

 2017-02-08 17:31:47.720884+01 | 1486571507.72088 | pgbench_accounts |       4098015232
 2017-02-08 17:31:47.720884+01 | 1486571507.72088 | pgbench_tellers  |          8462336
 2017-02-08 17:31:47.720884+01 | 1486571507.72088 | pgbench_history  |        154689536
 2017-02-08 17:31:47.720884+01 | 1486571507.72088 | pgbench_branches |          6234112

 2017-02-08 17:31:48.782445+01 | 1486571508.78244 | pgbench_accounts |       4098015232
 2017-02-08 17:31:48.782445+01 | 1486571508.78244 | pgbench_tellers  |          8462336
 2017-02-08 17:31:48.782445+01 | 1486571508.78244 | pgbench_history  |        155222016
 2017-02-08 17:31:48.782445+01 | 1486571508.78244 | pgbench_branches |          6234112

 2017-02-08 17:31:49.840305+01 | 1486571509.84031 | pgbench_accounts |       4098015232
 2017-02-08 17:31:49.840305+01 | 1486571509.84031 | pgbench_tellers  |          8462336
 2017-02-08 17:31:49.840305+01 | 1486571509.84031 | pgbench_history  |        155820032
 2017-02-08 17:31:49.840305+01 | 1486571509.84031 | pgbench_branches |          6234112

 2017-02-08 17:31:50.894724+01 | 1486571510.89472 | pgbench_accounts |       4098015232
 2017-02-08 17:31:50.894724+01 | 1486571510.89472 | pgbench_tellers  |          8462336
 2017-02-08 17:31:50.894724+01 | 1486571510.89472 | pgbench_history  |        156368896
 2017-02-08 17:31:50.894724+01 | 1486571510.89472 | pgbench_branches |          6234112

 2017-02-08 17:31:51.95661+01 | 1486571511.95661 | pgbench_accounts |       4098015232
 2017-02-08 17:31:51.95661+01 | 1486571511.95661 | pgbench_tellers  |          8462336
 2017-02-08 17:31:51.95661+01 | 1486571511.95661 | pgbench_history  |        156827648
 2017-02-08 17:31:51.95661+01 | 1486571511.95661 | pgbench_branches |          6234112

 2017-02-08 17:31:53.017098+01 | 1486571513.0171 | pgbench_accounts |       4098015232
 2017-02-08 17:31:53.017098+01 | 1486571513.0171 | pgbench_tellers  |          8462336
 2017-02-08 17:31:53.017098+01 | 1486571513.0171 | pgbench_history  |        157360128
 2017-02-08 17:31:53.017098+01 | 1486571513.0171 | pgbench_branches |          6234112

 2017-02-08 17:31:54.076751+01 | 1486571514.07675 | pgbench_accounts |       4098015232
 2017-02-08 17:31:54.076751+01 | 1486571514.07675 | pgbench_tellers  |          8462336
 2017-02-08 17:31:54.076751+01 | 1486571514.07675 | pgbench_history  |        157925376
 2017-02-08 17:31:54.076751+01 | 1486571514.07675 | pgbench_branches |          6234112

 2017-02-08 17:31:55.134412+01 | 1486571515.13441 | pgbench_accounts |       4098015232
 2017-02-08 17:31:55.134412+01 | 1486571515.13441 | pgbench_tellers  |          8462336
 2017-02-08 17:31:55.134412+01 | 1486571515.13441 | pgbench_history  |        158474240
 2017-02-08 17:31:55.134412+01 | 1486571515.13441 | pgbench_branches |          6234112

 2017-02-08 17:31:56.191007+01 | 1486571516.19101 | pgbench_accounts |       4098015232
 2017-02-08 17:31:56.191007+01 | 1486571516.19101 | pgbench_tellers  |          8462336
 2017-02-08 17:31:56.191007+01 | 1486571516.19101 | pgbench_history  |        159006720
 2017-02-08 17:31:56.191007+01 | 1486571516.19101 | pgbench_branches |          6234112

 2017-02-08 17:31:57.254891+01 | 1486571517.25489 | pgbench_accounts |       4098015232
 2017-02-08 17:31:57.254891+01 | 1486571517.25489 | pgbench_tellers  |          8462336
 2017-02-08 17:31:57.254891+01 | 1486571517.25489 | pgbench_history  |        159571968
 2017-02-08 17:31:57.254891+01 | 1486571517.25489 | pgbench_branches |          6234112

 2017-02-08 17:31:58.322372+01 | 1486571518.32237 | pgbench_accounts |       4098015232
 2017-02-08 17:31:58.322372+01 | 1486571518.32237 | pgbench_tellers  |          8462336
 2017-02-08 17:31:58.322372+01 | 1486571518.32237 | pgbench_history  |        160137216
 2017-02-08 17:31:58.322372+01 | 1486571518.32237 | pgbench_branches |          6234112

 2017-02-08 17:31:59.377944+01 | 1486571519.37794 | pgbench_accounts |       4098015232
 2017-02-08 17:31:59.377944+01 | 1486571519.37794 | pgbench_tellers  |          8462336
 2017-02-08 17:31:59.377944+01 | 1486571519.37794 | pgbench_history  |        160653312
 2017-02-08 17:31:59.377944+01 | 1486571519.37794 | pgbench_branches |          6234112

 2017-02-08 17:32:00.440403+01 | 1486571520.4404 | pgbench_accounts |       4098015232
 2017-02-08 17:32:00.440403+01 | 1486571520.4404 | pgbench_tellers  |          8462336
 2017-02-08 17:32:00.440403+01 | 1486571520.4404 | pgbench_history  |        161226752
 2017-02-08 17:32:00.440403+01 | 1486571520.4404 | pgbench_branches |          6234112

 2017-02-08 17:32:01.494779+01 | 1486571521.49478 | pgbench_accounts |       4098015232
 2017-02-08 17:32:01.494779+01 | 1486571521.49478 | pgbench_tellers  |          8462336
 2017-02-08 17:32:01.494779+01 | 1486571521.49478 | pgbench_history  |        161783808
 2017-02-08 17:32:01.494779+01 | 1486571521.49478 | pgbench_branches |          6234112

 2017-02-08 17:32:02.546607+01 | 1486571522.54661 | pgbench_accounts |       4098015232
 2017-02-08 17:32:02.546607+01 | 1486571522.54661 | pgbench_tellers  |          8462336
 2017-02-08 17:32:02.546607+01 | 1486571522.54661 | pgbench_history  |        162308096
 2017-02-08 17:32:02.546607+01 | 1486571522.54661 | pgbench_branches |          6234112

 2017-02-08 17:32:03.608896+01 | 1486571523.6089 | pgbench_accounts |       4098015232
 2017-02-08 17:32:03.608896+01 | 1486571523.6089 | pgbench_tellers  |          8462336
 2017-02-08 17:32:03.608896+01 | 1486571523.6089 | pgbench_history  |        162881536
 2017-02-08 17:32:03.608896+01 | 1486571523.6089 | pgbench_branches |          6234112

