 2017-02-09 10:50:05.75832+01 | 1486633805.75832 | pgbench_branches_pkey |           737280
 2017-02-09 10:50:05.75832+01 | 1486633805.75832 | pgbench_tellers_pkey  |          2170880
 2017-02-09 10:50:05.75832+01 | 1486633805.75832 | pgbench_accounts_pkey |        673882112

 2017-02-09 10:50:06.818478+01 | 1486633806.81848 | pgbench_branches_pkey |           737280
 2017-02-09 10:50:06.818478+01 | 1486633806.81848 | pgbench_tellers_pkey  |          2170880
 2017-02-09 10:50:06.818478+01 | 1486633806.81848 | pgbench_accounts_pkey |        673882112

 2017-02-09 10:50:07.873799+01 | 1486633807.8738 | pgbench_branches_pkey |           737280
 2017-02-09 10:50:07.873799+01 | 1486633807.8738 | pgbench_tellers_pkey  |          2170880
 2017-02-09 10:50:07.873799+01 | 1486633807.8738 | pgbench_accounts_pkey |        673882112

 2017-02-09 10:50:08.928602+01 | 1486633808.9286 | pgbench_branches_pkey |           737280
 2017-02-09 10:50:08.928602+01 | 1486633808.9286 | pgbench_tellers_pkey  |          2170880
 2017-02-09 10:50:08.928602+01 | 1486633808.9286 | pgbench_accounts_pkey |        673882112

 2017-02-09 10:50:09.981846+01 | 1486633809.98185 | pgbench_branches_pkey |           737280
 2017-02-09 10:50:09.981846+01 | 1486633809.98185 | pgbench_tellers_pkey  |          2170880
 2017-02-09 10:50:09.981846+01 | 1486633809.98185 | pgbench_accounts_pkey |        673882112

 2017-02-09 10:50:11.035542+01 | 1486633811.03554 | pgbench_branches_pkey |           737280
 2017-02-09 10:50:11.035542+01 | 1486633811.03554 | pgbench_tellers_pkey  |          2170880
 2017-02-09 10:50:11.035542+01 | 1486633811.03554 | pgbench_accounts_pkey |        673882112

 2017-02-09 10:50:12.091962+01 | 1486633812.09196 | pgbench_branches_pkey |           737280
 2017-02-09 10:50:12.091962+01 | 1486633812.09196 | pgbench_tellers_pkey  |          2170880
 2017-02-09 10:50:12.091962+01 | 1486633812.09196 | pgbench_accounts_pkey |        673882112

 2017-02-09 10:50:13.157667+01 | 1486633813.15767 | pgbench_branches_pkey |           737280
 2017-02-09 10:50:13.157667+01 | 1486633813.15767 | pgbench_tellers_pkey  |          2170880
 2017-02-09 10:50:13.157667+01 | 1486633813.15767 | pgbench_accounts_pkey |        673882112

 2017-02-09 10:50:14.213514+01 | 1486633814.21351 | pgbench_branches_pkey |           737280
 2017-02-09 10:50:14.213514+01 | 1486633814.21351 | pgbench_tellers_pkey  |          2170880
 2017-02-09 10:50:14.213514+01 | 1486633814.21351 | pgbench_accounts_pkey |        673882112

 2017-02-09 10:50:15.270595+01 | 1486633815.2706 | pgbench_branches_pkey |           737280
 2017-02-09 10:50:15.270595+01 | 1486633815.2706 | pgbench_tellers_pkey  |          2170880
 2017-02-09 10:50:15.270595+01 | 1486633815.2706 | pgbench_accounts_pkey |        673882112

 2017-02-09 10:50:16.328638+01 | 1486633816.32864 | pgbench_branches_pkey |           737280
 2017-02-09 10:50:16.328638+01 | 1486633816.32864 | pgbench_tellers_pkey  |          2170880
 2017-02-09 10:50:16.328638+01 | 1486633816.32864 | pgbench_accounts_pkey |        673882112

 2017-02-09 10:50:17.384227+01 | 1486633817.38423 | pgbench_branches_pkey |           737280
 2017-02-09 10:50:17.384227+01 | 1486633817.38423 | pgbench_tellers_pkey  |          2170880
 2017-02-09 10:50:17.384227+01 | 1486633817.38423 | pgbench_accounts_pkey |        673882112

 2017-02-09 10:50:18.439273+01 | 1486633818.43927 | pgbench_branches_pkey |           737280
 2017-02-09 10:50:18.439273+01 | 1486633818.43927 | pgbench_tellers_pkey  |          2170880
 2017-02-09 10:50:18.439273+01 | 1486633818.43927 | pgbench_accounts_pkey |        673882112

 2017-02-09 10:50:19.497333+01 | 1486633819.49733 | pgbench_branches_pkey |           737280
 2017-02-09 10:50:19.497333+01 | 1486633819.49733 | pgbench_tellers_pkey  |          2170880
 2017-02-09 10:50:19.497333+01 | 1486633819.49733 | pgbench_accounts_pkey |        673882112

 2017-02-09 10:50:20.554984+01 | 1486633820.55498 | pgbench_branches_pkey |           737280
 2017-02-09 10:50:20.554984+01 | 1486633820.55498 | pgbench_tellers_pkey  |          2170880
 2017-02-09 10:50:20.554984+01 | 1486633820.55498 | pgbench_accounts_pkey |        673882112

 2017-02-09 10:50:21.610215+01 | 1486633821.61021 | pgbench_branches_pkey |           737280
 2017-02-09 10:50:21.610215+01 | 1486633821.61021 | pgbench_tellers_pkey  |          2170880
 2017-02-09 10:50:21.610215+01 | 1486633821.61021 | pgbench_accounts_pkey |        673882112

 2017-02-09 10:50:22.670919+01 | 1486633822.67092 | pgbench_branches_pkey |           737280
 2017-02-09 10:50:22.670919+01 | 1486633822.67092 | pgbench_tellers_pkey  |          2170880
 2017-02-09 10:50:22.670919+01 | 1486633822.67092 | pgbench_accounts_pkey |        673882112

 2017-02-09 10:50:23.726964+01 | 1486633823.72696 | pgbench_branches_pkey |           737280
 2017-02-09 10:50:23.726964+01 | 1486633823.72696 | pgbench_tellers_pkey  |          2170880
 2017-02-09 10:50:23.726964+01 | 1486633823.72696 | pgbench_accounts_pkey |        673882112

 2017-02-09 10:50:24.788117+01 | 1486633824.78812 | pgbench_branches_pkey |           737280
 2017-02-09 10:50:24.788117+01 | 1486633824.78812 | pgbench_tellers_pkey  |          2170880
 2017-02-09 10:50:24.788117+01 | 1486633824.78812 | pgbench_accounts_pkey |        673882112

 2017-02-09 10:50:25.856896+01 | 1486633825.8569 | pgbench_branches_pkey |           737280
 2017-02-09 10:50:25.856896+01 | 1486633825.8569 | pgbench_tellers_pkey  |          2170880
 2017-02-09 10:50:25.856896+01 | 1486633825.8569 | pgbench_accounts_pkey |        673882112

 2017-02-09 10:50:26.912359+01 | 1486633826.91236 | pgbench_branches_pkey |           737280
 2017-02-09 10:50:26.912359+01 | 1486633826.91236 | pgbench_tellers_pkey  |          2170880
 2017-02-09 10:50:26.912359+01 | 1486633826.91236 | pgbench_accounts_pkey |        673882112

 2017-02-09 10:50:27.974293+01 | 1486633827.97429 | pgbench_branches_pkey |           737280
 2017-02-09 10:50:27.974293+01 | 1486633827.97429 | pgbench_tellers_pkey  |          2170880
 2017-02-09 10:50:27.974293+01 | 1486633827.97429 | pgbench_accounts_pkey |        673882112

 2017-02-09 10:50:29.036241+01 | 1486633829.03624 | pgbench_branches_pkey |           737280
 2017-02-09 10:50:29.036241+01 | 1486633829.03624 | pgbench_tellers_pkey  |          2170880
 2017-02-09 10:50:29.036241+01 | 1486633829.03624 | pgbench_accounts_pkey |        673882112

 2017-02-09 10:50:30.096685+01 | 1486633830.09668 | pgbench_branches_pkey |           737280
 2017-02-09 10:50:30.096685+01 | 1486633830.09668 | pgbench_tellers_pkey  |          2170880
 2017-02-09 10:50:30.096685+01 | 1486633830.09668 | pgbench_accounts_pkey |        673882112

 2017-02-09 10:50:31.152468+01 | 1486633831.15247 | pgbench_branches_pkey |           737280
 2017-02-09 10:50:31.152468+01 | 1486633831.15247 | pgbench_tellers_pkey  |          2170880
 2017-02-09 10:50:31.152468+01 | 1486633831.15247 | pgbench_accounts_pkey |        673882112

 2017-02-09 10:50:32.210446+01 | 1486633832.21045 | pgbench_branches_pkey |           737280
 2017-02-09 10:50:32.210446+01 | 1486633832.21045 | pgbench_tellers_pkey  |          2170880
 2017-02-09 10:50:32.210446+01 | 1486633832.21045 | pgbench_accounts_pkey |        673882112

 2017-02-09 10:50:33.268114+01 | 1486633833.26811 | pgbench_branches_pkey |           737280
 2017-02-09 10:50:33.268114+01 | 1486633833.26811 | pgbench_tellers_pkey  |          2170880
 2017-02-09 10:50:33.268114+01 | 1486633833.26811 | pgbench_accounts_pkey |        673882112

 2017-02-09 10:50:34.336136+01 | 1486633834.33614 | pgbench_branches_pkey |           737280
 2017-02-09 10:50:34.336136+01 | 1486633834.33614 | pgbench_tellers_pkey  |          2170880
 2017-02-09 10:50:34.336136+01 | 1486633834.33614 | pgbench_accounts_pkey |        673882112

 2017-02-09 10:50:35.400272+01 | 1486633835.40027 | pgbench_branches_pkey |           737280
 2017-02-09 10:50:35.400272+01 | 1486633835.40027 | pgbench_tellers_pkey  |          2170880
 2017-02-09 10:50:35.400272+01 | 1486633835.40027 | pgbench_accounts_pkey |        673882112

 2017-02-09 10:50:36.460652+01 | 1486633836.46065 | pgbench_branches_pkey |           737280
 2017-02-09 10:50:36.460652+01 | 1486633836.46065 | pgbench_tellers_pkey  |          2170880
 2017-02-09 10:50:36.460652+01 | 1486633836.46065 | pgbench_accounts_pkey |        673882112

 2017-02-09 10:50:37.524599+01 | 1486633837.5246 | pgbench_branches_pkey |           737280
 2017-02-09 10:50:37.524599+01 | 1486633837.5246 | pgbench_tellers_pkey  |          2170880
 2017-02-09 10:50:37.524599+01 | 1486633837.5246 | pgbench_accounts_pkey |        673882112

 2017-02-09 10:50:38.580379+01 | 1486633838.58038 | pgbench_branches_pkey |           737280
 2017-02-09 10:50:38.580379+01 | 1486633838.58038 | pgbench_tellers_pkey  |          2170880
 2017-02-09 10:50:38.580379+01 | 1486633838.58038 | pgbench_accounts_pkey |        673882112

 2017-02-09 10:50:39.644189+01 | 1486633839.64419 | pgbench_branches_pkey |           737280
 2017-02-09 10:50:39.644189+01 | 1486633839.64419 | pgbench_tellers_pkey  |          2170880
 2017-02-09 10:50:39.644189+01 | 1486633839.64419 | pgbench_accounts_pkey |        673882112

 2017-02-09 10:50:40.704329+01 | 1486633840.70433 | pgbench_branches_pkey |           737280
 2017-02-09 10:50:40.704329+01 | 1486633840.70433 | pgbench_tellers_pkey  |          2170880
 2017-02-09 10:50:40.704329+01 | 1486633840.70433 | pgbench_accounts_pkey |        673882112

 2017-02-09 10:50:41.767117+01 | 1486633841.76712 | pgbench_branches_pkey |           737280
 2017-02-09 10:50:41.767117+01 | 1486633841.76712 | pgbench_tellers_pkey  |          2170880
 2017-02-09 10:50:41.767117+01 | 1486633841.76712 | pgbench_accounts_pkey |        673882112

 2017-02-09 10:50:42.828462+01 | 1486633842.82846 | pgbench_branches_pkey |           737280
 2017-02-09 10:50:42.828462+01 | 1486633842.82846 | pgbench_tellers_pkey  |          2170880
 2017-02-09 10:50:42.828462+01 | 1486633842.82846 | pgbench_accounts_pkey |        673882112

 2017-02-09 10:50:43.884031+01 | 1486633843.88403 | pgbench_branches_pkey |           737280
 2017-02-09 10:50:43.884031+01 | 1486633843.88403 | pgbench_tellers_pkey  |          2170880
 2017-02-09 10:50:43.884031+01 | 1486633843.88403 | pgbench_accounts_pkey |        673882112

 2017-02-09 10:50:44.946201+01 | 1486633844.9462 | pgbench_branches_pkey |           737280
 2017-02-09 10:50:44.946201+01 | 1486633844.9462 | pgbench_tellers_pkey  |          2170880
 2017-02-09 10:50:44.946201+01 | 1486633844.9462 | pgbench_accounts_pkey |        673882112

 2017-02-09 10:50:46.002098+01 | 1486633846.0021 | pgbench_branches_pkey |           737280
 2017-02-09 10:50:46.002098+01 | 1486633846.0021 | pgbench_tellers_pkey  |          2170880
 2017-02-09 10:50:46.002098+01 | 1486633846.0021 | pgbench_accounts_pkey |        673882112

 2017-02-09 10:50:47.060525+01 | 1486633847.06052 | pgbench_branches_pkey |           737280
 2017-02-09 10:50:47.060525+01 | 1486633847.06052 | pgbench_tellers_pkey  |          2170880
 2017-02-09 10:50:47.060525+01 | 1486633847.06052 | pgbench_accounts_pkey |        673882112

 2017-02-09 10:50:48.116698+01 | 1486633848.1167 | pgbench_branches_pkey |           737280
 2017-02-09 10:50:48.116698+01 | 1486633848.1167 | pgbench_tellers_pkey  |          2170880
 2017-02-09 10:50:48.116698+01 | 1486633848.1167 | pgbench_accounts_pkey |        673882112

 2017-02-09 10:50:49.175334+01 | 1486633849.17533 | pgbench_branches_pkey |           737280
 2017-02-09 10:50:49.175334+01 | 1486633849.17533 | pgbench_tellers_pkey  |          2170880
 2017-02-09 10:50:49.175334+01 | 1486633849.17533 | pgbench_accounts_pkey |        673882112

 2017-02-09 10:50:50.239058+01 | 1486633850.23906 | pgbench_branches_pkey |           737280
 2017-02-09 10:50:50.239058+01 | 1486633850.23906 | pgbench_tellers_pkey  |          2170880
 2017-02-09 10:50:50.239058+01 | 1486633850.23906 | pgbench_accounts_pkey |        673882112

 2017-02-09 10:50:51.302297+01 | 1486633851.3023 | pgbench_branches_pkey |           737280
 2017-02-09 10:50:51.302297+01 | 1486633851.3023 | pgbench_tellers_pkey  |          2170880
 2017-02-09 10:50:51.302297+01 | 1486633851.3023 | pgbench_accounts_pkey |        673882112

 2017-02-09 10:50:52.357272+01 | 1486633852.35727 | pgbench_branches_pkey |           737280
 2017-02-09 10:50:52.357272+01 | 1486633852.35727 | pgbench_tellers_pkey  |          2170880
 2017-02-09 10:50:52.357272+01 | 1486633852.35727 | pgbench_accounts_pkey |        673882112

 2017-02-09 10:50:53.413481+01 | 1486633853.41348 | pgbench_branches_pkey |           737280
 2017-02-09 10:50:53.413481+01 | 1486633853.41348 | pgbench_tellers_pkey  |          2170880
 2017-02-09 10:50:53.413481+01 | 1486633853.41348 | pgbench_accounts_pkey |        673882112

 2017-02-09 10:50:54.474836+01 | 1486633854.47484 | pgbench_branches_pkey |           737280
 2017-02-09 10:50:54.474836+01 | 1486633854.47484 | pgbench_tellers_pkey  |          2170880
 2017-02-09 10:50:54.474836+01 | 1486633854.47484 | pgbench_accounts_pkey |        673882112

 2017-02-09 10:50:55.530054+01 | 1486633855.53005 | pgbench_branches_pkey |           737280
 2017-02-09 10:50:55.530054+01 | 1486633855.53005 | pgbench_tellers_pkey  |          2170880
 2017-02-09 10:50:55.530054+01 | 1486633855.53005 | pgbench_accounts_pkey |        673882112

 2017-02-09 10:50:56.589662+01 | 1486633856.58966 | pgbench_branches_pkey |           737280
 2017-02-09 10:50:56.589662+01 | 1486633856.58966 | pgbench_tellers_pkey  |          2170880
 2017-02-09 10:50:56.589662+01 | 1486633856.58966 | pgbench_accounts_pkey |        673882112

 2017-02-09 10:50:57.646005+01 | 1486633857.646 | pgbench_branches_pkey |           737280
 2017-02-09 10:50:57.646005+01 | 1486633857.646 | pgbench_tellers_pkey  |          2170880
 2017-02-09 10:50:57.646005+01 | 1486633857.646 | pgbench_accounts_pkey |        673882112

 2017-02-09 10:50:58.700842+01 | 1486633858.70084 | pgbench_branches_pkey |           737280
 2017-02-09 10:50:58.700842+01 | 1486633858.70084 | pgbench_tellers_pkey  |          2170880
 2017-02-09 10:50:58.700842+01 | 1486633858.70084 | pgbench_accounts_pkey |        673882112

 2017-02-09 10:50:59.769687+01 | 1486633859.76969 | pgbench_branches_pkey |           737280
 2017-02-09 10:50:59.769687+01 | 1486633859.76969 | pgbench_tellers_pkey  |          2170880
 2017-02-09 10:50:59.769687+01 | 1486633859.76969 | pgbench_accounts_pkey |        673882112

 2017-02-09 10:51:00.825578+01 | 1486633860.82558 | pgbench_branches_pkey |           737280
 2017-02-09 10:51:00.825578+01 | 1486633860.82558 | pgbench_tellers_pkey  |          2170880
 2017-02-09 10:51:00.825578+01 | 1486633860.82558 | pgbench_accounts_pkey |        673882112

 2017-02-09 10:51:01.884635+01 | 1486633861.88463 | pgbench_branches_pkey |           737280
 2017-02-09 10:51:01.884635+01 | 1486633861.88463 | pgbench_tellers_pkey  |          2170880
 2017-02-09 10:51:01.884635+01 | 1486633861.88463 | pgbench_accounts_pkey |        673882112

 2017-02-09 10:51:02.947964+01 | 1486633862.94796 | pgbench_branches_pkey |           737280
 2017-02-09 10:51:02.947964+01 | 1486633862.94796 | pgbench_tellers_pkey  |          2170880
 2017-02-09 10:51:02.947964+01 | 1486633862.94796 | pgbench_accounts_pkey |        673882112

 2017-02-09 10:51:04.00383+01 | 1486633864.00383 | pgbench_branches_pkey |           737280
 2017-02-09 10:51:04.00383+01 | 1486633864.00383 | pgbench_tellers_pkey  |          2170880
 2017-02-09 10:51:04.00383+01 | 1486633864.00383 | pgbench_accounts_pkey |        673882112

 2017-02-09 10:51:05.065862+01 | 1486633865.06586 | pgbench_branches_pkey |           737280
 2017-02-09 10:51:05.065862+01 | 1486633865.06586 | pgbench_tellers_pkey  |          2170880
 2017-02-09 10:51:05.065862+01 | 1486633865.06586 | pgbench_accounts_pkey |        673882112

 2017-02-09 10:51:06.122535+01 | 1486633866.12253 | pgbench_branches_pkey |           737280
 2017-02-09 10:51:06.122535+01 | 1486633866.12253 | pgbench_tellers_pkey  |          2170880
 2017-02-09 10:51:06.122535+01 | 1486633866.12253 | pgbench_accounts_pkey |        673882112

 2017-02-09 10:51:07.178373+01 | 1486633867.17837 | pgbench_branches_pkey |           737280
 2017-02-09 10:51:07.178373+01 | 1486633867.17837 | pgbench_tellers_pkey  |          2170880
 2017-02-09 10:51:07.178373+01 | 1486633867.17837 | pgbench_accounts_pkey |        673882112

 2017-02-09 10:51:08.23616+01 | 1486633868.23616 | pgbench_branches_pkey |           737280
 2017-02-09 10:51:08.23616+01 | 1486633868.23616 | pgbench_tellers_pkey  |          2170880
 2017-02-09 10:51:08.23616+01 | 1486633868.23616 | pgbench_accounts_pkey |        673882112

 2017-02-09 10:51:09.291068+01 | 1486633869.29107 | pgbench_branches_pkey |           737280
 2017-02-09 10:51:09.291068+01 | 1486633869.29107 | pgbench_tellers_pkey  |          2170880
 2017-02-09 10:51:09.291068+01 | 1486633869.29107 | pgbench_accounts_pkey |        673882112

 2017-02-09 10:51:10.355379+01 | 1486633870.35538 | pgbench_branches_pkey |           737280
 2017-02-09 10:51:10.355379+01 | 1486633870.35538 | pgbench_tellers_pkey  |          2170880
 2017-02-09 10:51:10.355379+01 | 1486633870.35538 | pgbench_accounts_pkey |        673882112

 2017-02-09 10:51:11.411447+01 | 1486633871.41145 | pgbench_branches_pkey |           737280
 2017-02-09 10:51:11.411447+01 | 1486633871.41145 | pgbench_tellers_pkey  |          2170880
 2017-02-09 10:51:11.411447+01 | 1486633871.41145 | pgbench_accounts_pkey |        673882112

 2017-02-09 10:51:12.474054+01 | 1486633872.47405 | pgbench_branches_pkey |           737280
 2017-02-09 10:51:12.474054+01 | 1486633872.47405 | pgbench_tellers_pkey  |          2170880
 2017-02-09 10:51:12.474054+01 | 1486633872.47405 | pgbench_accounts_pkey |        673882112

 2017-02-09 10:51:13.52782+01 | 1486633873.52782 | pgbench_branches_pkey |           737280
 2017-02-09 10:51:13.52782+01 | 1486633873.52782 | pgbench_tellers_pkey  |          2170880
 2017-02-09 10:51:13.52782+01 | 1486633873.52782 | pgbench_accounts_pkey |        673882112

 2017-02-09 10:51:14.592311+01 | 1486633874.59231 | pgbench_branches_pkey |           737280
 2017-02-09 10:51:14.592311+01 | 1486633874.59231 | pgbench_tellers_pkey  |          2170880
 2017-02-09 10:51:14.592311+01 | 1486633874.59231 | pgbench_accounts_pkey |        673882112

 2017-02-09 10:51:15.648778+01 | 1486633875.64878 | pgbench_branches_pkey |           737280
 2017-02-09 10:51:15.648778+01 | 1486633875.64878 | pgbench_tellers_pkey  |          2170880
 2017-02-09 10:51:15.648778+01 | 1486633875.64878 | pgbench_accounts_pkey |        673882112

 2017-02-09 10:51:16.703044+01 | 1486633876.70304 | pgbench_branches_pkey |           737280
 2017-02-09 10:51:16.703044+01 | 1486633876.70304 | pgbench_tellers_pkey  |          2170880
 2017-02-09 10:51:16.703044+01 | 1486633876.70304 | pgbench_accounts_pkey |        673882112

 2017-02-09 10:51:17.766636+01 | 1486633877.76664 | pgbench_branches_pkey |           737280
 2017-02-09 10:51:17.766636+01 | 1486633877.76664 | pgbench_tellers_pkey  |          2170880
 2017-02-09 10:51:17.766636+01 | 1486633877.76664 | pgbench_accounts_pkey |        673882112

 2017-02-09 10:51:18.826216+01 | 1486633878.82622 | pgbench_branches_pkey |           737280
 2017-02-09 10:51:18.826216+01 | 1486633878.82622 | pgbench_tellers_pkey  |          2170880
 2017-02-09 10:51:18.826216+01 | 1486633878.82622 | pgbench_accounts_pkey |        673882112

 2017-02-09 10:51:19.885857+01 | 1486633879.88586 | pgbench_branches_pkey |           737280
 2017-02-09 10:51:19.885857+01 | 1486633879.88586 | pgbench_tellers_pkey  |          2170880
 2017-02-09 10:51:19.885857+01 | 1486633879.88586 | pgbench_accounts_pkey |        673882112

 2017-02-09 10:51:20.945133+01 | 1486633880.94513 | pgbench_branches_pkey |           737280
 2017-02-09 10:51:20.945133+01 | 1486633880.94513 | pgbench_tellers_pkey  |          2170880
 2017-02-09 10:51:20.945133+01 | 1486633880.94513 | pgbench_accounts_pkey |        673882112

 2017-02-09 10:51:22.007202+01 | 1486633882.0072 | pgbench_branches_pkey |           737280
 2017-02-09 10:51:22.007202+01 | 1486633882.0072 | pgbench_tellers_pkey  |          2170880
 2017-02-09 10:51:22.007202+01 | 1486633882.0072 | pgbench_accounts_pkey |        673882112

 2017-02-09 10:51:23.068581+01 | 1486633883.06858 | pgbench_branches_pkey |           737280
 2017-02-09 10:51:23.068581+01 | 1486633883.06858 | pgbench_tellers_pkey  |          2170880
 2017-02-09 10:51:23.068581+01 | 1486633883.06858 | pgbench_accounts_pkey |        673882112

 2017-02-09 10:51:24.132763+01 | 1486633884.13276 | pgbench_branches_pkey |           737280
 2017-02-09 10:51:24.132763+01 | 1486633884.13276 | pgbench_tellers_pkey  |          2170880
 2017-02-09 10:51:24.132763+01 | 1486633884.13276 | pgbench_accounts_pkey |        673882112

 2017-02-09 10:51:25.191029+01 | 1486633885.19103 | pgbench_branches_pkey |           737280
 2017-02-09 10:51:25.191029+01 | 1486633885.19103 | pgbench_tellers_pkey  |          2170880
 2017-02-09 10:51:25.191029+01 | 1486633885.19103 | pgbench_accounts_pkey |        673882112

 2017-02-09 10:51:26.248829+01 | 1486633886.24883 | pgbench_branches_pkey |           737280
 2017-02-09 10:51:26.248829+01 | 1486633886.24883 | pgbench_tellers_pkey  |          2170880
 2017-02-09 10:51:26.248829+01 | 1486633886.24883 | pgbench_accounts_pkey |        673882112

 2017-02-09 10:51:27.306191+01 | 1486633887.30619 | pgbench_branches_pkey |           737280
 2017-02-09 10:51:27.306191+01 | 1486633887.30619 | pgbench_tellers_pkey  |          2170880
 2017-02-09 10:51:27.306191+01 | 1486633887.30619 | pgbench_accounts_pkey |        673882112

 2017-02-09 10:51:28.358975+01 | 1486633888.35897 | pgbench_branches_pkey |           737280
 2017-02-09 10:51:28.358975+01 | 1486633888.35897 | pgbench_tellers_pkey  |          2170880
 2017-02-09 10:51:28.358975+01 | 1486633888.35897 | pgbench_accounts_pkey |        673882112

 2017-02-09 10:51:29.41312+01 | 1486633889.41312 | pgbench_branches_pkey |           737280
 2017-02-09 10:51:29.41312+01 | 1486633889.41312 | pgbench_tellers_pkey  |          2170880
 2017-02-09 10:51:29.41312+01 | 1486633889.41312 | pgbench_accounts_pkey |        673882112

 2017-02-09 10:51:30.480306+01 | 1486633890.48031 | pgbench_branches_pkey |           737280
 2017-02-09 10:51:30.480306+01 | 1486633890.48031 | pgbench_tellers_pkey  |          2170880
 2017-02-09 10:51:30.480306+01 | 1486633890.48031 | pgbench_accounts_pkey |        673882112

 2017-02-09 10:51:31.535574+01 | 1486633891.53557 | pgbench_branches_pkey |           737280
 2017-02-09 10:51:31.535574+01 | 1486633891.53557 | pgbench_tellers_pkey  |          2170880
 2017-02-09 10:51:31.535574+01 | 1486633891.53557 | pgbench_accounts_pkey |        673882112

 2017-02-09 10:51:32.589277+01 | 1486633892.58928 | pgbench_branches_pkey |           737280
 2017-02-09 10:51:32.589277+01 | 1486633892.58928 | pgbench_tellers_pkey  |          2170880
 2017-02-09 10:51:32.589277+01 | 1486633892.58928 | pgbench_accounts_pkey |        673882112

 2017-02-09 10:51:33.65073+01 | 1486633893.65073 | pgbench_branches_pkey |           737280
 2017-02-09 10:51:33.65073+01 | 1486633893.65073 | pgbench_tellers_pkey  |          2170880
 2017-02-09 10:51:33.65073+01 | 1486633893.65073 | pgbench_accounts_pkey |        673882112

 2017-02-09 10:51:34.711181+01 | 1486633894.71118 | pgbench_branches_pkey |           737280
 2017-02-09 10:51:34.711181+01 | 1486633894.71118 | pgbench_tellers_pkey  |          2170880
 2017-02-09 10:51:34.711181+01 | 1486633894.71118 | pgbench_accounts_pkey |        673882112

 2017-02-09 10:51:35.773845+01 | 1486633895.77384 | pgbench_branches_pkey |           737280
 2017-02-09 10:51:35.773845+01 | 1486633895.77384 | pgbench_tellers_pkey  |          2170880
 2017-02-09 10:51:35.773845+01 | 1486633895.77384 | pgbench_accounts_pkey |        673882112

 2017-02-09 10:51:36.82672+01 | 1486633896.82672 | pgbench_branches_pkey |           737280
 2017-02-09 10:51:36.82672+01 | 1486633896.82672 | pgbench_tellers_pkey  |          2170880
 2017-02-09 10:51:36.82672+01 | 1486633896.82672 | pgbench_accounts_pkey |        673882112

 2017-02-09 10:51:37.875374+01 | 1486633897.87537 | pgbench_branches_pkey |           737280
 2017-02-09 10:51:37.875374+01 | 1486633897.87537 | pgbench_tellers_pkey  |          2170880
 2017-02-09 10:51:37.875374+01 | 1486633897.87537 | pgbench_accounts_pkey |        673882112

 2017-02-09 10:51:38.946058+01 | 1486633898.94606 | pgbench_branches_pkey |           737280
 2017-02-09 10:51:38.946058+01 | 1486633898.94606 | pgbench_tellers_pkey  |          2170880
 2017-02-09 10:51:38.946058+01 | 1486633898.94606 | pgbench_accounts_pkey |        673882112

 2017-02-09 10:51:39.995086+01 | 1486633899.99509 | pgbench_branches_pkey |           737280
 2017-02-09 10:51:39.995086+01 | 1486633899.99509 | pgbench_tellers_pkey  |          2170880
 2017-02-09 10:51:39.995086+01 | 1486633899.99509 | pgbench_accounts_pkey |        673882112

 2017-02-09 10:51:41.065203+01 | 1486633901.0652 | pgbench_branches_pkey |           737280
 2017-02-09 10:51:41.065203+01 | 1486633901.0652 | pgbench_tellers_pkey  |          2170880
 2017-02-09 10:51:41.065203+01 | 1486633901.0652 | pgbench_accounts_pkey |        673882112

 2017-02-09 10:51:42.124352+01 | 1486633902.12435 | pgbench_branches_pkey |           737280
 2017-02-09 10:51:42.124352+01 | 1486633902.12435 | pgbench_tellers_pkey  |          2170880
 2017-02-09 10:51:42.124352+01 | 1486633902.12435 | pgbench_accounts_pkey |        673882112

 2017-02-09 10:51:43.181704+01 | 1486633903.1817 | pgbench_branches_pkey |           737280
 2017-02-09 10:51:43.181704+01 | 1486633903.1817 | pgbench_tellers_pkey  |          2170880
 2017-02-09 10:51:43.181704+01 | 1486633903.1817 | pgbench_accounts_pkey |        673882112

 2017-02-09 10:51:44.250944+01 | 1486633904.25094 | pgbench_branches_pkey |           737280
 2017-02-09 10:51:44.250944+01 | 1486633904.25094 | pgbench_tellers_pkey  |          2170880
 2017-02-09 10:51:44.250944+01 | 1486633904.25094 | pgbench_accounts_pkey |        673882112

 2017-02-09 10:51:45.310617+01 | 1486633905.31062 | pgbench_branches_pkey |           737280
 2017-02-09 10:51:45.310617+01 | 1486633905.31062 | pgbench_tellers_pkey  |          2170880
 2017-02-09 10:51:45.310617+01 | 1486633905.31062 | pgbench_accounts_pkey |        673882112

 2017-02-09 10:51:46.369203+01 | 1486633906.3692 | pgbench_branches_pkey |           737280
 2017-02-09 10:51:46.369203+01 | 1486633906.3692 | pgbench_tellers_pkey  |          2170880
 2017-02-09 10:51:46.369203+01 | 1486633906.3692 | pgbench_accounts_pkey |        673882112

 2017-02-09 10:51:47.434976+01 | 1486633907.43498 | pgbench_branches_pkey |           737280
 2017-02-09 10:51:47.434976+01 | 1486633907.43498 | pgbench_tellers_pkey  |          2170880
 2017-02-09 10:51:47.434976+01 | 1486633907.43498 | pgbench_accounts_pkey |        673882112

 2017-02-09 10:51:48.489005+01 | 1486633908.48901 | pgbench_branches_pkey |           737280
 2017-02-09 10:51:48.489005+01 | 1486633908.48901 | pgbench_tellers_pkey  |          2170880
 2017-02-09 10:51:48.489005+01 | 1486633908.48901 | pgbench_accounts_pkey |        673882112

 2017-02-09 10:51:49.548646+01 | 1486633909.54865 | pgbench_branches_pkey |           737280
 2017-02-09 10:51:49.548646+01 | 1486633909.54865 | pgbench_tellers_pkey  |          2170880
 2017-02-09 10:51:49.548646+01 | 1486633909.54865 | pgbench_accounts_pkey |        673882112

 2017-02-09 10:51:50.615755+01 | 1486633910.61576 | pgbench_branches_pkey |           737280
 2017-02-09 10:51:50.615755+01 | 1486633910.61576 | pgbench_tellers_pkey  |          2170880
 2017-02-09 10:51:50.615755+01 | 1486633910.61576 | pgbench_accounts_pkey |        673882112

 2017-02-09 10:51:51.676233+01 | 1486633911.67623 | pgbench_branches_pkey |           737280
 2017-02-09 10:51:51.676233+01 | 1486633911.67623 | pgbench_tellers_pkey  |          2170880
 2017-02-09 10:51:51.676233+01 | 1486633911.67623 | pgbench_accounts_pkey |        673882112

 2017-02-09 10:51:52.733505+01 | 1486633912.73351 | pgbench_branches_pkey |           737280
 2017-02-09 10:51:52.733505+01 | 1486633912.73351 | pgbench_tellers_pkey  |          2170880
 2017-02-09 10:51:52.733505+01 | 1486633912.73351 | pgbench_accounts_pkey |        673882112

 2017-02-09 10:51:53.795756+01 | 1486633913.79576 | pgbench_branches_pkey |           737280
 2017-02-09 10:51:53.795756+01 | 1486633913.79576 | pgbench_tellers_pkey  |          2170880
 2017-02-09 10:51:53.795756+01 | 1486633913.79576 | pgbench_accounts_pkey |        673882112

 2017-02-09 10:51:54.854422+01 | 1486633914.85442 | pgbench_branches_pkey |           737280
 2017-02-09 10:51:54.854422+01 | 1486633914.85442 | pgbench_tellers_pkey  |          2170880
 2017-02-09 10:51:54.854422+01 | 1486633914.85442 | pgbench_accounts_pkey |        673882112

 2017-02-09 10:51:55.916482+01 | 1486633915.91648 | pgbench_branches_pkey |           737280
 2017-02-09 10:51:55.916482+01 | 1486633915.91648 | pgbench_tellers_pkey  |          2170880
 2017-02-09 10:51:55.916482+01 | 1486633915.91648 | pgbench_accounts_pkey |        673882112

 2017-02-09 10:51:56.975415+01 | 1486633916.97541 | pgbench_branches_pkey |           737280
 2017-02-09 10:51:56.975415+01 | 1486633916.97541 | pgbench_tellers_pkey  |          2170880
 2017-02-09 10:51:56.975415+01 | 1486633916.97541 | pgbench_accounts_pkey |        673882112

 2017-02-09 10:51:58.030338+01 | 1486633918.03034 | pgbench_branches_pkey |           737280
 2017-02-09 10:51:58.030338+01 | 1486633918.03034 | pgbench_tellers_pkey  |          2170880
 2017-02-09 10:51:58.030338+01 | 1486633918.03034 | pgbench_accounts_pkey |        673882112

 2017-02-09 10:51:59.088702+01 | 1486633919.0887 | pgbench_branches_pkey |           737280
 2017-02-09 10:51:59.088702+01 | 1486633919.0887 | pgbench_tellers_pkey  |          2170880
 2017-02-09 10:51:59.088702+01 | 1486633919.0887 | pgbench_accounts_pkey |        673882112

 2017-02-09 10:52:00.14762+01 | 1486633920.14762 | pgbench_branches_pkey |           737280
 2017-02-09 10:52:00.14762+01 | 1486633920.14762 | pgbench_tellers_pkey  |          2170880
 2017-02-09 10:52:00.14762+01 | 1486633920.14762 | pgbench_accounts_pkey |        673882112

 2017-02-09 10:52:01.205413+01 | 1486633921.20541 | pgbench_branches_pkey |           737280
 2017-02-09 10:52:01.205413+01 | 1486633921.20541 | pgbench_tellers_pkey  |          2170880
 2017-02-09 10:52:01.205413+01 | 1486633921.20541 | pgbench_accounts_pkey |        673882112

 2017-02-09 10:52:02.264309+01 | 1486633922.26431 | pgbench_branches_pkey |           737280
 2017-02-09 10:52:02.264309+01 | 1486633922.26431 | pgbench_tellers_pkey  |          2170880
 2017-02-09 10:52:02.264309+01 | 1486633922.26431 | pgbench_accounts_pkey |        673882112

 2017-02-09 10:52:03.32469+01 | 1486633923.32469 | pgbench_branches_pkey |           737280
 2017-02-09 10:52:03.32469+01 | 1486633923.32469 | pgbench_tellers_pkey  |          2170880
 2017-02-09 10:52:03.32469+01 | 1486633923.32469 | pgbench_accounts_pkey |        673882112

 2017-02-09 10:52:04.387767+01 | 1486633924.38777 | pgbench_branches_pkey |           737280
 2017-02-09 10:52:04.387767+01 | 1486633924.38777 | pgbench_tellers_pkey  |          2170880
 2017-02-09 10:52:04.387767+01 | 1486633924.38777 | pgbench_accounts_pkey |        673882112

 2017-02-09 10:52:05.445228+01 | 1486633925.44523 | pgbench_branches_pkey |           737280
 2017-02-09 10:52:05.445228+01 | 1486633925.44523 | pgbench_tellers_pkey  |          2170880
 2017-02-09 10:52:05.445228+01 | 1486633925.44523 | pgbench_accounts_pkey |        673882112

 2017-02-09 10:52:06.497403+01 | 1486633926.4974 | pgbench_branches_pkey |           737280
 2017-02-09 10:52:06.497403+01 | 1486633926.4974 | pgbench_tellers_pkey  |          2170880
 2017-02-09 10:52:06.497403+01 | 1486633926.4974 | pgbench_accounts_pkey |        673882112

 2017-02-09 10:52:07.557628+01 | 1486633927.55763 | pgbench_branches_pkey |           737280
 2017-02-09 10:52:07.557628+01 | 1486633927.55763 | pgbench_tellers_pkey  |          2170880
 2017-02-09 10:52:07.557628+01 | 1486633927.55763 | pgbench_accounts_pkey |        673882112

 2017-02-09 10:52:08.616116+01 | 1486633928.61612 | pgbench_branches_pkey |           737280
 2017-02-09 10:52:08.616116+01 | 1486633928.61612 | pgbench_tellers_pkey  |          2170880
 2017-02-09 10:52:08.616116+01 | 1486633928.61612 | pgbench_accounts_pkey |        673882112

 2017-02-09 10:52:09.679152+01 | 1486633929.67915 | pgbench_branches_pkey |           737280
 2017-02-09 10:52:09.679152+01 | 1486633929.67915 | pgbench_tellers_pkey  |          2170880
 2017-02-09 10:52:09.679152+01 | 1486633929.67915 | pgbench_accounts_pkey |        673882112

 2017-02-09 10:52:10.75089+01 | 1486633930.75089 | pgbench_branches_pkey |           737280
 2017-02-09 10:52:10.75089+01 | 1486633930.75089 | pgbench_tellers_pkey  |          2170880
 2017-02-09 10:52:10.75089+01 | 1486633930.75089 | pgbench_accounts_pkey |        673882112

 2017-02-09 10:52:11.812926+01 | 1486633931.81293 | pgbench_branches_pkey |           737280
 2017-02-09 10:52:11.812926+01 | 1486633931.81293 | pgbench_tellers_pkey  |          2170880
 2017-02-09 10:52:11.812926+01 | 1486633931.81293 | pgbench_accounts_pkey |        673882112

 2017-02-09 10:52:12.869841+01 | 1486633932.86984 | pgbench_branches_pkey |           737280
 2017-02-09 10:52:12.869841+01 | 1486633932.86984 | pgbench_tellers_pkey  |          2170880
 2017-02-09 10:52:12.869841+01 | 1486633932.86984 | pgbench_accounts_pkey |        673882112

 2017-02-09 10:52:13.939388+01 | 1486633933.93939 | pgbench_branches_pkey |           737280
 2017-02-09 10:52:13.939388+01 | 1486633933.93939 | pgbench_tellers_pkey  |          2170880
 2017-02-09 10:52:13.939388+01 | 1486633933.93939 | pgbench_accounts_pkey |        673882112

 2017-02-09 10:52:14.995032+01 | 1486633934.99503 | pgbench_branches_pkey |           737280
 2017-02-09 10:52:14.995032+01 | 1486633934.99503 | pgbench_tellers_pkey  |          2170880
 2017-02-09 10:52:14.995032+01 | 1486633934.99503 | pgbench_accounts_pkey |        673882112

 2017-02-09 10:52:16.060877+01 | 1486633936.06088 | pgbench_branches_pkey |           737280
 2017-02-09 10:52:16.060877+01 | 1486633936.06088 | pgbench_tellers_pkey  |          2170880
 2017-02-09 10:52:16.060877+01 | 1486633936.06088 | pgbench_accounts_pkey |        673882112

 2017-02-09 10:52:17.116957+01 | 1486633937.11696 | pgbench_branches_pkey |           737280
 2017-02-09 10:52:17.116957+01 | 1486633937.11696 | pgbench_tellers_pkey  |          2170880
 2017-02-09 10:52:17.116957+01 | 1486633937.11696 | pgbench_accounts_pkey |        673882112

 2017-02-09 10:52:18.178044+01 | 1486633938.17804 | pgbench_branches_pkey |           737280
 2017-02-09 10:52:18.178044+01 | 1486633938.17804 | pgbench_tellers_pkey  |          2170880
 2017-02-09 10:52:18.178044+01 | 1486633938.17804 | pgbench_accounts_pkey |        673882112

 2017-02-09 10:52:19.243908+01 | 1486633939.24391 | pgbench_branches_pkey |           737280
 2017-02-09 10:52:19.243908+01 | 1486633939.24391 | pgbench_tellers_pkey  |          2170880
 2017-02-09 10:52:19.243908+01 | 1486633939.24391 | pgbench_accounts_pkey |        673882112

 2017-02-09 10:52:20.322205+01 | 1486633940.32221 | pgbench_branches_pkey |           737280
 2017-02-09 10:52:20.322205+01 | 1486633940.32221 | pgbench_tellers_pkey  |          2170880
 2017-02-09 10:52:20.322205+01 | 1486633940.32221 | pgbench_accounts_pkey |        673882112

 2017-02-09 10:52:21.392165+01 | 1486633941.39216 | pgbench_branches_pkey |           737280
 2017-02-09 10:52:21.392165+01 | 1486633941.39216 | pgbench_tellers_pkey  |          2170880
 2017-02-09 10:52:21.392165+01 | 1486633941.39216 | pgbench_accounts_pkey |        673882112

 2017-02-09 10:52:22.45769+01 | 1486633942.45769 | pgbench_branches_pkey |           737280
 2017-02-09 10:52:22.45769+01 | 1486633942.45769 | pgbench_tellers_pkey  |          2170880
 2017-02-09 10:52:22.45769+01 | 1486633942.45769 | pgbench_accounts_pkey |        673882112

 2017-02-09 10:52:23.520262+01 | 1486633943.52026 | pgbench_branches_pkey |           737280
 2017-02-09 10:52:23.520262+01 | 1486633943.52026 | pgbench_tellers_pkey  |          2170880
 2017-02-09 10:52:23.520262+01 | 1486633943.52026 | pgbench_accounts_pkey |        673882112

 2017-02-09 10:52:24.592253+01 | 1486633944.59225 | pgbench_branches_pkey |           737280
 2017-02-09 10:52:24.592253+01 | 1486633944.59225 | pgbench_tellers_pkey  |          2170880
 2017-02-09 10:52:24.592253+01 | 1486633944.59225 | pgbench_accounts_pkey |        673882112

 2017-02-09 10:52:25.658588+01 | 1486633945.65859 | pgbench_branches_pkey |           737280
 2017-02-09 10:52:25.658588+01 | 1486633945.65859 | pgbench_tellers_pkey  |          2170880
 2017-02-09 10:52:25.658588+01 | 1486633945.65859 | pgbench_accounts_pkey |        673882112

 2017-02-09 10:52:26.729926+01 | 1486633946.72993 | pgbench_branches_pkey |           737280
 2017-02-09 10:52:26.729926+01 | 1486633946.72993 | pgbench_tellers_pkey  |          2170880
 2017-02-09 10:52:26.729926+01 | 1486633946.72993 | pgbench_accounts_pkey |        673882112

 2017-02-09 10:52:27.795872+01 | 1486633947.79587 | pgbench_branches_pkey |           737280
 2017-02-09 10:52:27.795872+01 | 1486633947.79587 | pgbench_tellers_pkey  |          2170880
 2017-02-09 10:52:27.795872+01 | 1486633947.79587 | pgbench_accounts_pkey |        673882112

 2017-02-09 10:52:28.854112+01 | 1486633948.85411 | pgbench_branches_pkey |           737280
 2017-02-09 10:52:28.854112+01 | 1486633948.85411 | pgbench_tellers_pkey  |          2170880
 2017-02-09 10:52:28.854112+01 | 1486633948.85411 | pgbench_accounts_pkey |        673882112

 2017-02-09 10:52:29.908578+01 | 1486633949.90858 | pgbench_branches_pkey |           737280
 2017-02-09 10:52:29.908578+01 | 1486633949.90858 | pgbench_tellers_pkey  |          2170880
 2017-02-09 10:52:29.908578+01 | 1486633949.90858 | pgbench_accounts_pkey |        673882112

 2017-02-09 10:52:30.973425+01 | 1486633950.97342 | pgbench_branches_pkey |           737280
 2017-02-09 10:52:30.973425+01 | 1486633950.97342 | pgbench_tellers_pkey  |          2170880
 2017-02-09 10:52:30.973425+01 | 1486633950.97342 | pgbench_accounts_pkey |        673882112

 2017-02-09 10:52:32.052609+01 | 1486633952.05261 | pgbench_branches_pkey |           737280
 2017-02-09 10:52:32.052609+01 | 1486633952.05261 | pgbench_tellers_pkey  |          2170880
 2017-02-09 10:52:32.052609+01 | 1486633952.05261 | pgbench_accounts_pkey |        673882112

 2017-02-09 10:52:33.116552+01 | 1486633953.11655 | pgbench_branches_pkey |           737280
 2017-02-09 10:52:33.116552+01 | 1486633953.11655 | pgbench_tellers_pkey  |          2170880
 2017-02-09 10:52:33.116552+01 | 1486633953.11655 | pgbench_accounts_pkey |        673882112

 2017-02-09 10:52:34.174868+01 | 1486633954.17487 | pgbench_branches_pkey |           737280
 2017-02-09 10:52:34.174868+01 | 1486633954.17487 | pgbench_tellers_pkey  |          2170880
 2017-02-09 10:52:34.174868+01 | 1486633954.17487 | pgbench_accounts_pkey |        673882112

 2017-02-09 10:52:35.235365+01 | 1486633955.23536 | pgbench_branches_pkey |           737280
 2017-02-09 10:52:35.235365+01 | 1486633955.23536 | pgbench_tellers_pkey  |          2170880
 2017-02-09 10:52:35.235365+01 | 1486633955.23536 | pgbench_accounts_pkey |        673882112

 2017-02-09 10:52:36.291453+01 | 1486633956.29145 | pgbench_branches_pkey |           737280
 2017-02-09 10:52:36.291453+01 | 1486633956.29145 | pgbench_tellers_pkey  |          2170880
 2017-02-09 10:52:36.291453+01 | 1486633956.29145 | pgbench_accounts_pkey |        673882112

 2017-02-09 10:52:37.356632+01 | 1486633957.35663 | pgbench_branches_pkey |           737280
 2017-02-09 10:52:37.356632+01 | 1486633957.35663 | pgbench_tellers_pkey  |          2170880
 2017-02-09 10:52:37.356632+01 | 1486633957.35663 | pgbench_accounts_pkey |        673882112

 2017-02-09 10:52:38.418773+01 | 1486633958.41877 | pgbench_branches_pkey |           737280
 2017-02-09 10:52:38.418773+01 | 1486633958.41877 | pgbench_tellers_pkey  |          2170880
 2017-02-09 10:52:38.418773+01 | 1486633958.41877 | pgbench_accounts_pkey |        673882112

 2017-02-09 10:52:39.473768+01 | 1486633959.47377 | pgbench_branches_pkey |           737280
 2017-02-09 10:52:39.473768+01 | 1486633959.47377 | pgbench_tellers_pkey  |          2170880
 2017-02-09 10:52:39.473768+01 | 1486633959.47377 | pgbench_accounts_pkey |        673882112

 2017-02-09 10:52:40.544311+01 | 1486633960.54431 | pgbench_branches_pkey |           737280
 2017-02-09 10:52:40.544311+01 | 1486633960.54431 | pgbench_tellers_pkey  |          2170880
 2017-02-09 10:52:40.544311+01 | 1486633960.54431 | pgbench_accounts_pkey |        673882112

 2017-02-09 10:52:41.602329+01 | 1486633961.60233 | pgbench_branches_pkey |           737280
 2017-02-09 10:52:41.602329+01 | 1486633961.60233 | pgbench_tellers_pkey  |          2170880
 2017-02-09 10:52:41.602329+01 | 1486633961.60233 | pgbench_accounts_pkey |        673882112

 2017-02-09 10:52:42.657657+01 | 1486633962.65766 | pgbench_branches_pkey |           737280
 2017-02-09 10:52:42.657657+01 | 1486633962.65766 | pgbench_tellers_pkey  |          2170880
 2017-02-09 10:52:42.657657+01 | 1486633962.65766 | pgbench_accounts_pkey |        673882112

 2017-02-09 10:52:43.712667+01 | 1486633963.71267 | pgbench_branches_pkey |           737280
 2017-02-09 10:52:43.712667+01 | 1486633963.71267 | pgbench_tellers_pkey  |          2170880
 2017-02-09 10:52:43.712667+01 | 1486633963.71267 | pgbench_accounts_pkey |        673882112

 2017-02-09 10:52:44.78235+01 | 1486633964.78235 | pgbench_branches_pkey |           737280
 2017-02-09 10:52:44.78235+01 | 1486633964.78235 | pgbench_tellers_pkey  |          2170880
 2017-02-09 10:52:44.78235+01 | 1486633964.78235 | pgbench_accounts_pkey |        673882112

 2017-02-09 10:52:45.848759+01 | 1486633965.84876 | pgbench_branches_pkey |           737280
 2017-02-09 10:52:45.848759+01 | 1486633965.84876 | pgbench_tellers_pkey  |          2170880
 2017-02-09 10:52:45.848759+01 | 1486633965.84876 | pgbench_accounts_pkey |        673882112

 2017-02-09 10:52:46.906402+01 | 1486633966.9064 | pgbench_branches_pkey |           737280
 2017-02-09 10:52:46.906402+01 | 1486633966.9064 | pgbench_tellers_pkey  |          2170880
 2017-02-09 10:52:46.906402+01 | 1486633966.9064 | pgbench_accounts_pkey |        673882112

 2017-02-09 10:52:47.970654+01 | 1486633967.97065 | pgbench_branches_pkey |           737280
 2017-02-09 10:52:47.970654+01 | 1486633967.97065 | pgbench_tellers_pkey  |          2170880
 2017-02-09 10:52:47.970654+01 | 1486633967.97065 | pgbench_accounts_pkey |        673882112

 2017-02-09 10:52:49.038024+01 | 1486633969.03802 | pgbench_branches_pkey |           737280
 2017-02-09 10:52:49.038024+01 | 1486633969.03802 | pgbench_tellers_pkey  |          2170880
 2017-02-09 10:52:49.038024+01 | 1486633969.03802 | pgbench_accounts_pkey |        673882112

 2017-02-09 10:52:50.098281+01 | 1486633970.09828 | pgbench_branches_pkey |           737280
 2017-02-09 10:52:50.098281+01 | 1486633970.09828 | pgbench_tellers_pkey  |          2170880
 2017-02-09 10:52:50.098281+01 | 1486633970.09828 | pgbench_accounts_pkey |        673882112

 2017-02-09 10:52:51.156942+01 | 1486633971.15694 | pgbench_branches_pkey |           737280
 2017-02-09 10:52:51.156942+01 | 1486633971.15694 | pgbench_tellers_pkey  |          2170880
 2017-02-09 10:52:51.156942+01 | 1486633971.15694 | pgbench_accounts_pkey |        673882112

 2017-02-09 10:52:52.218851+01 | 1486633972.21885 | pgbench_branches_pkey |           737280
 2017-02-09 10:52:52.218851+01 | 1486633972.21885 | pgbench_tellers_pkey  |          2170880
 2017-02-09 10:52:52.218851+01 | 1486633972.21885 | pgbench_accounts_pkey |        673882112

 2017-02-09 10:52:53.280627+01 | 1486633973.28063 | pgbench_branches_pkey |           737280
 2017-02-09 10:52:53.280627+01 | 1486633973.28063 | pgbench_tellers_pkey  |          2170880
 2017-02-09 10:52:53.280627+01 | 1486633973.28063 | pgbench_accounts_pkey |        673882112

 2017-02-09 10:52:54.33948+01 | 1486633974.33948 | pgbench_branches_pkey |           737280
 2017-02-09 10:52:54.33948+01 | 1486633974.33948 | pgbench_tellers_pkey  |          2170880
 2017-02-09 10:52:54.33948+01 | 1486633974.33948 | pgbench_accounts_pkey |        673882112

 2017-02-09 10:52:55.401468+01 | 1486633975.40147 | pgbench_branches_pkey |           737280
 2017-02-09 10:52:55.401468+01 | 1486633975.40147 | pgbench_tellers_pkey  |          2170880
 2017-02-09 10:52:55.401468+01 | 1486633975.40147 | pgbench_accounts_pkey |        673882112

 2017-02-09 10:52:56.471982+01 | 1486633976.47198 | pgbench_branches_pkey |           737280
 2017-02-09 10:52:56.471982+01 | 1486633976.47198 | pgbench_tellers_pkey  |          2170880
 2017-02-09 10:52:56.471982+01 | 1486633976.47198 | pgbench_accounts_pkey |        673882112

 2017-02-09 10:52:57.533503+01 | 1486633977.5335 | pgbench_branches_pkey |           737280
 2017-02-09 10:52:57.533503+01 | 1486633977.5335 | pgbench_tellers_pkey  |          2170880
 2017-02-09 10:52:57.533503+01 | 1486633977.5335 | pgbench_accounts_pkey |        673882112

 2017-02-09 10:52:58.59965+01 | 1486633978.59965 | pgbench_branches_pkey |           737280
 2017-02-09 10:52:58.59965+01 | 1486633978.59965 | pgbench_tellers_pkey  |          2170880
 2017-02-09 10:52:58.59965+01 | 1486633978.59965 | pgbench_accounts_pkey |        673882112

 2017-02-09 10:52:59.664929+01 | 1486633979.66493 | pgbench_branches_pkey |           737280
 2017-02-09 10:52:59.664929+01 | 1486633979.66493 | pgbench_tellers_pkey  |          2170880
 2017-02-09 10:52:59.664929+01 | 1486633979.66493 | pgbench_accounts_pkey |        673882112

 2017-02-09 10:53:00.735483+01 | 1486633980.73548 | pgbench_branches_pkey |           737280
 2017-02-09 10:53:00.735483+01 | 1486633980.73548 | pgbench_tellers_pkey  |          2170880
 2017-02-09 10:53:00.735483+01 | 1486633980.73548 | pgbench_accounts_pkey |        673882112

 2017-02-09 10:53:01.798889+01 | 1486633981.79889 | pgbench_branches_pkey |           737280
 2017-02-09 10:53:01.798889+01 | 1486633981.79889 | pgbench_tellers_pkey  |          2170880
 2017-02-09 10:53:01.798889+01 | 1486633981.79889 | pgbench_accounts_pkey |        673882112

 2017-02-09 10:53:02.870526+01 | 1486633982.87053 | pgbench_branches_pkey |           737280
 2017-02-09 10:53:02.870526+01 | 1486633982.87053 | pgbench_tellers_pkey  |          2170880
 2017-02-09 10:53:02.870526+01 | 1486633982.87053 | pgbench_accounts_pkey |        673882112

 2017-02-09 10:53:03.927497+01 | 1486633983.9275 | pgbench_branches_pkey |           737280
 2017-02-09 10:53:03.927497+01 | 1486633983.9275 | pgbench_tellers_pkey  |          2170880
 2017-02-09 10:53:03.927497+01 | 1486633983.9275 | pgbench_accounts_pkey |        673882112

 2017-02-09 10:53:04.985524+01 | 1486633984.98552 | pgbench_branches_pkey |           737280
 2017-02-09 10:53:04.985524+01 | 1486633984.98552 | pgbench_tellers_pkey  |          2170880
 2017-02-09 10:53:04.985524+01 | 1486633984.98552 | pgbench_accounts_pkey |        673882112

 2017-02-09 10:53:06.054014+01 | 1486633986.05401 | pgbench_branches_pkey |           737280
 2017-02-09 10:53:06.054014+01 | 1486633986.05401 | pgbench_tellers_pkey  |          2170880
 2017-02-09 10:53:06.054014+01 | 1486633986.05401 | pgbench_accounts_pkey |        673882112

 2017-02-09 10:53:07.117421+01 | 1486633987.11742 | pgbench_branches_pkey |           737280
 2017-02-09 10:53:07.117421+01 | 1486633987.11742 | pgbench_tellers_pkey  |          2170880
 2017-02-09 10:53:07.117421+01 | 1486633987.11742 | pgbench_accounts_pkey |        673882112

 2017-02-09 10:53:08.184171+01 | 1486633988.18417 | pgbench_branches_pkey |           737280
 2017-02-09 10:53:08.184171+01 | 1486633988.18417 | pgbench_tellers_pkey  |          2170880
 2017-02-09 10:53:08.184171+01 | 1486633988.18417 | pgbench_accounts_pkey |        673882112

 2017-02-09 10:53:09.241477+01 | 1486633989.24148 | pgbench_branches_pkey |           737280
 2017-02-09 10:53:09.241477+01 | 1486633989.24148 | pgbench_tellers_pkey  |          2170880
 2017-02-09 10:53:09.241477+01 | 1486633989.24148 | pgbench_accounts_pkey |        673882112

 2017-02-09 10:53:10.294228+01 | 1486633990.29423 | pgbench_branches_pkey |           737280
 2017-02-09 10:53:10.294228+01 | 1486633990.29423 | pgbench_tellers_pkey  |          2170880
 2017-02-09 10:53:10.294228+01 | 1486633990.29423 | pgbench_accounts_pkey |        673882112

 2017-02-09 10:53:11.364001+01 | 1486633991.364 | pgbench_branches_pkey |           737280
 2017-02-09 10:53:11.364001+01 | 1486633991.364 | pgbench_tellers_pkey  |          2170880
 2017-02-09 10:53:11.364001+01 | 1486633991.364 | pgbench_accounts_pkey |        673882112

 2017-02-09 10:53:12.435366+01 | 1486633992.43537 | pgbench_branches_pkey |           737280
 2017-02-09 10:53:12.435366+01 | 1486633992.43537 | pgbench_tellers_pkey  |          2170880
 2017-02-09 10:53:12.435366+01 | 1486633992.43537 | pgbench_accounts_pkey |        673882112

 2017-02-09 10:53:13.504198+01 | 1486633993.5042 | pgbench_branches_pkey |           737280
 2017-02-09 10:53:13.504198+01 | 1486633993.5042 | pgbench_tellers_pkey  |          2170880
 2017-02-09 10:53:13.504198+01 | 1486633993.5042 | pgbench_accounts_pkey |        673882112

 2017-02-09 10:53:14.563887+01 | 1486633994.56389 | pgbench_branches_pkey |           737280
 2017-02-09 10:53:14.563887+01 | 1486633994.56389 | pgbench_tellers_pkey  |          2170880
 2017-02-09 10:53:14.563887+01 | 1486633994.56389 | pgbench_accounts_pkey |        673882112

 2017-02-09 10:53:15.623423+01 | 1486633995.62342 | pgbench_branches_pkey |           737280
 2017-02-09 10:53:15.623423+01 | 1486633995.62342 | pgbench_tellers_pkey  |          2170880
 2017-02-09 10:53:15.623423+01 | 1486633995.62342 | pgbench_accounts_pkey |        673882112

 2017-02-09 10:53:16.679787+01 | 1486633996.67979 | pgbench_branches_pkey |           737280
 2017-02-09 10:53:16.679787+01 | 1486633996.67979 | pgbench_tellers_pkey  |          2170880
 2017-02-09 10:53:16.679787+01 | 1486633996.67979 | pgbench_accounts_pkey |        673882112

 2017-02-09 10:53:17.743739+01 | 1486633997.74374 | pgbench_branches_pkey |           737280
 2017-02-09 10:53:17.743739+01 | 1486633997.74374 | pgbench_tellers_pkey  |          2170880
 2017-02-09 10:53:17.743739+01 | 1486633997.74374 | pgbench_accounts_pkey |        673882112

 2017-02-09 10:53:18.809442+01 | 1486633998.80944 | pgbench_branches_pkey |           737280
 2017-02-09 10:53:18.809442+01 | 1486633998.80944 | pgbench_tellers_pkey  |          2170880
 2017-02-09 10:53:18.809442+01 | 1486633998.80944 | pgbench_accounts_pkey |        673882112

 2017-02-09 10:53:19.885614+01 | 1486633999.88561 | pgbench_branches_pkey |           737280
 2017-02-09 10:53:19.885614+01 | 1486633999.88561 | pgbench_tellers_pkey  |          2170880
 2017-02-09 10:53:19.885614+01 | 1486633999.88561 | pgbench_accounts_pkey |        673882112

 2017-02-09 10:53:20.946984+01 | 1486634000.94698 | pgbench_branches_pkey |           737280
 2017-02-09 10:53:20.946984+01 | 1486634000.94698 | pgbench_tellers_pkey  |          2170880
 2017-02-09 10:53:20.946984+01 | 1486634000.94698 | pgbench_accounts_pkey |        673882112

 2017-02-09 10:53:22.007356+01 | 1486634002.00736 | pgbench_branches_pkey |           737280
 2017-02-09 10:53:22.007356+01 | 1486634002.00736 | pgbench_tellers_pkey  |          2170880
 2017-02-09 10:53:22.007356+01 | 1486634002.00736 | pgbench_accounts_pkey |        673882112

 2017-02-09 10:53:23.07179+01 | 1486634003.07179 | pgbench_branches_pkey |           737280
 2017-02-09 10:53:23.07179+01 | 1486634003.07179 | pgbench_tellers_pkey  |          2170880
 2017-02-09 10:53:23.07179+01 | 1486634003.07179 | pgbench_accounts_pkey |        673882112

 2017-02-09 10:53:24.125463+01 | 1486634004.12546 | pgbench_branches_pkey |           737280
 2017-02-09 10:53:24.125463+01 | 1486634004.12546 | pgbench_tellers_pkey  |          2170880
 2017-02-09 10:53:24.125463+01 | 1486634004.12546 | pgbench_accounts_pkey |        673882112

 2017-02-09 10:53:25.18532+01 | 1486634005.18532 | pgbench_branches_pkey |           737280
 2017-02-09 10:53:25.18532+01 | 1486634005.18532 | pgbench_tellers_pkey  |          2170880
 2017-02-09 10:53:25.18532+01 | 1486634005.18532 | pgbench_accounts_pkey |        673882112

 2017-02-09 10:53:26.239372+01 | 1486634006.23937 | pgbench_branches_pkey |           737280
 2017-02-09 10:53:26.239372+01 | 1486634006.23937 | pgbench_tellers_pkey  |          2170880
 2017-02-09 10:53:26.239372+01 | 1486634006.23937 | pgbench_accounts_pkey |        673882112

 2017-02-09 10:53:27.299322+01 | 1486634007.29932 | pgbench_branches_pkey |           737280
 2017-02-09 10:53:27.299322+01 | 1486634007.29932 | pgbench_tellers_pkey  |          2170880
 2017-02-09 10:53:27.299322+01 | 1486634007.29932 | pgbench_accounts_pkey |        673882112

 2017-02-09 10:53:28.364949+01 | 1486634008.36495 | pgbench_branches_pkey |           737280
 2017-02-09 10:53:28.364949+01 | 1486634008.36495 | pgbench_tellers_pkey  |          2170880
 2017-02-09 10:53:28.364949+01 | 1486634008.36495 | pgbench_accounts_pkey |        673882112

 2017-02-09 10:53:29.437029+01 | 1486634009.43703 | pgbench_branches_pkey |           737280
 2017-02-09 10:53:29.437029+01 | 1486634009.43703 | pgbench_tellers_pkey  |          2170880
 2017-02-09 10:53:29.437029+01 | 1486634009.43703 | pgbench_accounts_pkey |        673882112

 2017-02-09 10:53:30.494733+01 | 1486634010.49473 | pgbench_branches_pkey |           737280
 2017-02-09 10:53:30.494733+01 | 1486634010.49473 | pgbench_tellers_pkey  |          2170880
 2017-02-09 10:53:30.494733+01 | 1486634010.49473 | pgbench_accounts_pkey |        673882112

 2017-02-09 10:53:31.558987+01 | 1486634011.55899 | pgbench_branches_pkey |           737280
 2017-02-09 10:53:31.558987+01 | 1486634011.55899 | pgbench_tellers_pkey  |          2170880
 2017-02-09 10:53:31.558987+01 | 1486634011.55899 | pgbench_accounts_pkey |        673882112

 2017-02-09 10:53:32.617553+01 | 1486634012.61755 | pgbench_branches_pkey |           737280
 2017-02-09 10:53:32.617553+01 | 1486634012.61755 | pgbench_tellers_pkey  |          2170880
 2017-02-09 10:53:32.617553+01 | 1486634012.61755 | pgbench_accounts_pkey |        673882112

 2017-02-09 10:53:33.683024+01 | 1486634013.68302 | pgbench_branches_pkey |           737280
 2017-02-09 10:53:33.683024+01 | 1486634013.68302 | pgbench_tellers_pkey  |          2170880
 2017-02-09 10:53:33.683024+01 | 1486634013.68302 | pgbench_accounts_pkey |        673882112

 2017-02-09 10:53:34.744991+01 | 1486634014.74499 | pgbench_branches_pkey |           737280
 2017-02-09 10:53:34.744991+01 | 1486634014.74499 | pgbench_tellers_pkey  |          2170880
 2017-02-09 10:53:34.744991+01 | 1486634014.74499 | pgbench_accounts_pkey |        673882112

 2017-02-09 10:53:35.805533+01 | 1486634015.80553 | pgbench_branches_pkey |           737280
 2017-02-09 10:53:35.805533+01 | 1486634015.80553 | pgbench_tellers_pkey  |          2170880
 2017-02-09 10:53:35.805533+01 | 1486634015.80553 | pgbench_accounts_pkey |        673882112

 2017-02-09 10:53:36.864481+01 | 1486634016.86448 | pgbench_branches_pkey |           737280
 2017-02-09 10:53:36.864481+01 | 1486634016.86448 | pgbench_tellers_pkey  |          2170880
 2017-02-09 10:53:36.864481+01 | 1486634016.86448 | pgbench_accounts_pkey |        673882112

 2017-02-09 10:53:37.922731+01 | 1486634017.92273 | pgbench_branches_pkey |           737280
 2017-02-09 10:53:37.922731+01 | 1486634017.92273 | pgbench_tellers_pkey  |          2170880
 2017-02-09 10:53:37.922731+01 | 1486634017.92273 | pgbench_accounts_pkey |        673882112

 2017-02-09 10:53:38.977509+01 | 1486634018.97751 | pgbench_branches_pkey |           737280
 2017-02-09 10:53:38.977509+01 | 1486634018.97751 | pgbench_tellers_pkey  |          2170880
 2017-02-09 10:53:38.977509+01 | 1486634018.97751 | pgbench_accounts_pkey |        673882112

 2017-02-09 10:53:40.060717+01 | 1486634020.06072 | pgbench_branches_pkey |           737280
 2017-02-09 10:53:40.060717+01 | 1486634020.06072 | pgbench_tellers_pkey  |          2170880
 2017-02-09 10:53:40.060717+01 | 1486634020.06072 | pgbench_accounts_pkey |        673882112

 2017-02-09 10:53:41.116516+01 | 1486634021.11652 | pgbench_branches_pkey |           737280
 2017-02-09 10:53:41.116516+01 | 1486634021.11652 | pgbench_tellers_pkey  |          2170880
 2017-02-09 10:53:41.116516+01 | 1486634021.11652 | pgbench_accounts_pkey |        673882112

 2017-02-09 10:53:42.174638+01 | 1486634022.17464 | pgbench_branches_pkey |           737280
 2017-02-09 10:53:42.174638+01 | 1486634022.17464 | pgbench_tellers_pkey  |          2170880
 2017-02-09 10:53:42.174638+01 | 1486634022.17464 | pgbench_accounts_pkey |        673882112

 2017-02-09 10:53:43.249383+01 | 1486634023.24938 | pgbench_branches_pkey |           737280
 2017-02-09 10:53:43.249383+01 | 1486634023.24938 | pgbench_tellers_pkey  |          2170880
 2017-02-09 10:53:43.249383+01 | 1486634023.24938 | pgbench_accounts_pkey |        673882112

 2017-02-09 10:53:44.317222+01 | 1486634024.31722 | pgbench_branches_pkey |           737280
 2017-02-09 10:53:44.317222+01 | 1486634024.31722 | pgbench_tellers_pkey  |          2170880
 2017-02-09 10:53:44.317222+01 | 1486634024.31722 | pgbench_accounts_pkey |        673882112

 2017-02-09 10:53:45.382992+01 | 1486634025.38299 | pgbench_branches_pkey |           737280
 2017-02-09 10:53:45.382992+01 | 1486634025.38299 | pgbench_tellers_pkey  |          2170880
 2017-02-09 10:53:45.382992+01 | 1486634025.38299 | pgbench_accounts_pkey |        673882112

 2017-02-09 10:53:46.445515+01 | 1486634026.44551 | pgbench_branches_pkey |           737280
 2017-02-09 10:53:46.445515+01 | 1486634026.44551 | pgbench_tellers_pkey  |          2170880
 2017-02-09 10:53:46.445515+01 | 1486634026.44551 | pgbench_accounts_pkey |        673882112

 2017-02-09 10:53:47.510141+01 | 1486634027.51014 | pgbench_branches_pkey |           737280
 2017-02-09 10:53:47.510141+01 | 1486634027.51014 | pgbench_tellers_pkey  |          2170880
 2017-02-09 10:53:47.510141+01 | 1486634027.51014 | pgbench_accounts_pkey |        673882112

 2017-02-09 10:53:48.576857+01 | 1486634028.57686 | pgbench_branches_pkey |           737280
 2017-02-09 10:53:48.576857+01 | 1486634028.57686 | pgbench_tellers_pkey  |          2170880
 2017-02-09 10:53:48.576857+01 | 1486634028.57686 | pgbench_accounts_pkey |        673882112

 2017-02-09 10:53:49.632353+01 | 1486634029.63235 | pgbench_branches_pkey |           737280
 2017-02-09 10:53:49.632353+01 | 1486634029.63235 | pgbench_tellers_pkey  |          2170880
 2017-02-09 10:53:49.632353+01 | 1486634029.63235 | pgbench_accounts_pkey |        673882112

 2017-02-09 10:53:50.696073+01 | 1486634030.69607 | pgbench_branches_pkey |           737280
 2017-02-09 10:53:50.696073+01 | 1486634030.69607 | pgbench_tellers_pkey  |          2170880
 2017-02-09 10:53:50.696073+01 | 1486634030.69607 | pgbench_accounts_pkey |        673882112

 2017-02-09 10:53:51.759955+01 | 1486634031.75995 | pgbench_branches_pkey |           737280
 2017-02-09 10:53:51.759955+01 | 1486634031.75995 | pgbench_tellers_pkey  |          2170880
 2017-02-09 10:53:51.759955+01 | 1486634031.75995 | pgbench_accounts_pkey |        673882112

 2017-02-09 10:53:52.829577+01 | 1486634032.82958 | pgbench_branches_pkey |           737280
 2017-02-09 10:53:52.829577+01 | 1486634032.82958 | pgbench_tellers_pkey  |          2170880
 2017-02-09 10:53:52.829577+01 | 1486634032.82958 | pgbench_accounts_pkey |        673882112

 2017-02-09 10:53:53.904308+01 | 1486634033.90431 | pgbench_branches_pkey |           737280
 2017-02-09 10:53:53.904308+01 | 1486634033.90431 | pgbench_tellers_pkey  |          2170880
 2017-02-09 10:53:53.904308+01 | 1486634033.90431 | pgbench_accounts_pkey |        673882112

 2017-02-09 10:53:54.960183+01 | 1486634034.96018 | pgbench_branches_pkey |           737280
 2017-02-09 10:53:54.960183+01 | 1486634034.96018 | pgbench_tellers_pkey  |          2170880
 2017-02-09 10:53:54.960183+01 | 1486634034.96018 | pgbench_accounts_pkey |        673882112

 2017-02-09 10:53:56.021113+01 | 1486634036.02111 | pgbench_branches_pkey |           737280
 2017-02-09 10:53:56.021113+01 | 1486634036.02111 | pgbench_tellers_pkey  |          2170880
 2017-02-09 10:53:56.021113+01 | 1486634036.02111 | pgbench_accounts_pkey |        673882112

 2017-02-09 10:53:57.082451+01 | 1486634037.08245 | pgbench_branches_pkey |           737280
 2017-02-09 10:53:57.082451+01 | 1486634037.08245 | pgbench_tellers_pkey  |          2170880
 2017-02-09 10:53:57.082451+01 | 1486634037.08245 | pgbench_accounts_pkey |        673882112

 2017-02-09 10:53:58.142821+01 | 1486634038.14282 | pgbench_branches_pkey |           737280
 2017-02-09 10:53:58.142821+01 | 1486634038.14282 | pgbench_tellers_pkey  |          2170880
 2017-02-09 10:53:58.142821+01 | 1486634038.14282 | pgbench_accounts_pkey |        673882112

 2017-02-09 10:53:59.207484+01 | 1486634039.20748 | pgbench_branches_pkey |           737280
 2017-02-09 10:53:59.207484+01 | 1486634039.20748 | pgbench_tellers_pkey  |          2170880
 2017-02-09 10:53:59.207484+01 | 1486634039.20748 | pgbench_accounts_pkey |        673882112

 2017-02-09 10:54:00.273387+01 | 1486634040.27339 | pgbench_branches_pkey |           737280
 2017-02-09 10:54:00.273387+01 | 1486634040.27339 | pgbench_tellers_pkey  |          2170880
 2017-02-09 10:54:00.273387+01 | 1486634040.27339 | pgbench_accounts_pkey |        673882112

 2017-02-09 10:54:01.330425+01 | 1486634041.33043 | pgbench_branches_pkey |           737280
 2017-02-09 10:54:01.330425+01 | 1486634041.33043 | pgbench_tellers_pkey  |          2170880
 2017-02-09 10:54:01.330425+01 | 1486634041.33043 | pgbench_accounts_pkey |        673882112

 2017-02-09 10:54:02.391103+01 | 1486634042.3911 | pgbench_branches_pkey |           737280
 2017-02-09 10:54:02.391103+01 | 1486634042.3911 | pgbench_tellers_pkey  |          2170880
 2017-02-09 10:54:02.391103+01 | 1486634042.3911 | pgbench_accounts_pkey |        673882112

 2017-02-09 10:54:03.449308+01 | 1486634043.44931 | pgbench_branches_pkey |           737280
 2017-02-09 10:54:03.449308+01 | 1486634043.44931 | pgbench_tellers_pkey  |          2170880
 2017-02-09 10:54:03.449308+01 | 1486634043.44931 | pgbench_accounts_pkey |        673882112

 2017-02-09 10:54:04.508944+01 | 1486634044.50894 | pgbench_branches_pkey |           737280
 2017-02-09 10:54:04.508944+01 | 1486634044.50894 | pgbench_tellers_pkey  |          2170880
 2017-02-09 10:54:04.508944+01 | 1486634044.50894 | pgbench_accounts_pkey |        673882112

 2017-02-09 10:54:05.57289+01 | 1486634045.57289 | pgbench_branches_pkey |           737280
 2017-02-09 10:54:05.57289+01 | 1486634045.57289 | pgbench_tellers_pkey  |          2170880
 2017-02-09 10:54:05.57289+01 | 1486634045.57289 | pgbench_accounts_pkey |        673882112

 2017-02-09 10:54:06.634765+01 | 1486634046.63476 | pgbench_branches_pkey |           737280
 2017-02-09 10:54:06.634765+01 | 1486634046.63476 | pgbench_tellers_pkey  |          2170880
 2017-02-09 10:54:06.634765+01 | 1486634046.63476 | pgbench_accounts_pkey |        673882112

 2017-02-09 10:54:07.692489+01 | 1486634047.69249 | pgbench_branches_pkey |           737280
 2017-02-09 10:54:07.692489+01 | 1486634047.69249 | pgbench_tellers_pkey  |          2170880
 2017-02-09 10:54:07.692489+01 | 1486634047.69249 | pgbench_accounts_pkey |        673882112

 2017-02-09 10:54:08.758128+01 | 1486634048.75813 | pgbench_branches_pkey |           737280
 2017-02-09 10:54:08.758128+01 | 1486634048.75813 | pgbench_tellers_pkey  |          2170880
 2017-02-09 10:54:08.758128+01 | 1486634048.75813 | pgbench_accounts_pkey |        673882112

 2017-02-09 10:54:09.840113+01 | 1486634049.84011 | pgbench_branches_pkey |           737280
 2017-02-09 10:54:09.840113+01 | 1486634049.84011 | pgbench_tellers_pkey  |          2170880
 2017-02-09 10:54:09.840113+01 | 1486634049.84011 | pgbench_accounts_pkey |        673882112

 2017-02-09 10:54:10.911042+01 | 1486634050.91104 | pgbench_branches_pkey |           737280
 2017-02-09 10:54:10.911042+01 | 1486634050.91104 | pgbench_tellers_pkey  |          2170880
 2017-02-09 10:54:10.911042+01 | 1486634050.91104 | pgbench_accounts_pkey |        673882112

 2017-02-09 10:54:11.98767+01 | 1486634051.98767 | pgbench_branches_pkey |           737280
 2017-02-09 10:54:11.98767+01 | 1486634051.98767 | pgbench_tellers_pkey  |          2170880
 2017-02-09 10:54:11.98767+01 | 1486634051.98767 | pgbench_accounts_pkey |        673882112

 2017-02-09 10:54:13.046242+01 | 1486634053.04624 | pgbench_branches_pkey |           737280
 2017-02-09 10:54:13.046242+01 | 1486634053.04624 | pgbench_tellers_pkey  |          2170880
 2017-02-09 10:54:13.046242+01 | 1486634053.04624 | pgbench_accounts_pkey |        673882112

 2017-02-09 10:54:14.10266+01 | 1486634054.10266 | pgbench_branches_pkey |           737280
 2017-02-09 10:54:14.10266+01 | 1486634054.10266 | pgbench_tellers_pkey  |          2170880
 2017-02-09 10:54:14.10266+01 | 1486634054.10266 | pgbench_accounts_pkey |        673882112

 2017-02-09 10:54:15.16302+01 | 1486634055.16302 | pgbench_branches_pkey |           737280
 2017-02-09 10:54:15.16302+01 | 1486634055.16302 | pgbench_tellers_pkey  |          2170880
 2017-02-09 10:54:15.16302+01 | 1486634055.16302 | pgbench_accounts_pkey |        673882112

 2017-02-09 10:54:16.218299+01 | 1486634056.2183 | pgbench_branches_pkey |           737280
 2017-02-09 10:54:16.218299+01 | 1486634056.2183 | pgbench_tellers_pkey  |          2170880
 2017-02-09 10:54:16.218299+01 | 1486634056.2183 | pgbench_accounts_pkey |        673882112

 2017-02-09 10:54:17.295275+01 | 1486634057.29527 | pgbench_branches_pkey |           737280
 2017-02-09 10:54:17.295275+01 | 1486634057.29527 | pgbench_tellers_pkey  |          2170880
 2017-02-09 10:54:17.295275+01 | 1486634057.29527 | pgbench_accounts_pkey |        673882112

 2017-02-09 10:54:18.377058+01 | 1486634058.37706 | pgbench_branches_pkey |           737280
 2017-02-09 10:54:18.377058+01 | 1486634058.37706 | pgbench_tellers_pkey  |          2170880
 2017-02-09 10:54:18.377058+01 | 1486634058.37706 | pgbench_accounts_pkey |        673882112

 2017-02-09 10:54:19.43467+01 | 1486634059.43467 | pgbench_branches_pkey |           737280
 2017-02-09 10:54:19.43467+01 | 1486634059.43467 | pgbench_tellers_pkey  |          2170880
 2017-02-09 10:54:19.43467+01 | 1486634059.43467 | pgbench_accounts_pkey |        673882112

 2017-02-09 10:54:20.505425+01 | 1486634060.50542 | pgbench_branches_pkey |           737280
 2017-02-09 10:54:20.505425+01 | 1486634060.50542 | pgbench_tellers_pkey  |          2170880
 2017-02-09 10:54:20.505425+01 | 1486634060.50542 | pgbench_accounts_pkey |        673882112

 2017-02-09 10:54:21.568393+01 | 1486634061.56839 | pgbench_branches_pkey |           737280
 2017-02-09 10:54:21.568393+01 | 1486634061.56839 | pgbench_tellers_pkey  |          2170880
 2017-02-09 10:54:21.568393+01 | 1486634061.56839 | pgbench_accounts_pkey |        673882112

 2017-02-09 10:54:22.632145+01 | 1486634062.63214 | pgbench_branches_pkey |           737280
 2017-02-09 10:54:22.632145+01 | 1486634062.63214 | pgbench_tellers_pkey  |          2170880
 2017-02-09 10:54:22.632145+01 | 1486634062.63214 | pgbench_accounts_pkey |        673882112

 2017-02-09 10:54:23.699627+01 | 1486634063.69963 | pgbench_branches_pkey |           737280
 2017-02-09 10:54:23.699627+01 | 1486634063.69963 | pgbench_tellers_pkey  |          2170880
 2017-02-09 10:54:23.699627+01 | 1486634063.69963 | pgbench_accounts_pkey |        673882112

 2017-02-09 10:54:24.763917+01 | 1486634064.76392 | pgbench_branches_pkey |           737280
 2017-02-09 10:54:24.763917+01 | 1486634064.76392 | pgbench_tellers_pkey  |          2170880
 2017-02-09 10:54:24.763917+01 | 1486634064.76392 | pgbench_accounts_pkey |        673882112

 2017-02-09 10:54:25.820704+01 | 1486634065.8207 | pgbench_branches_pkey |           737280
 2017-02-09 10:54:25.820704+01 | 1486634065.8207 | pgbench_tellers_pkey  |          2170880
 2017-02-09 10:54:25.820704+01 | 1486634065.8207 | pgbench_accounts_pkey |        673882112

 2017-02-09 10:54:26.888417+01 | 1486634066.88842 | pgbench_branches_pkey |           737280
 2017-02-09 10:54:26.888417+01 | 1486634066.88842 | pgbench_tellers_pkey  |          2170880
 2017-02-09 10:54:26.888417+01 | 1486634066.88842 | pgbench_accounts_pkey |        673882112

 2017-02-09 10:54:27.943131+01 | 1486634067.94313 | pgbench_branches_pkey |           737280
 2017-02-09 10:54:27.943131+01 | 1486634067.94313 | pgbench_tellers_pkey  |          2170880
 2017-02-09 10:54:27.943131+01 | 1486634067.94313 | pgbench_accounts_pkey |        673882112

 2017-02-09 10:54:29.005286+01 | 1486634069.00529 | pgbench_branches_pkey |           737280
 2017-02-09 10:54:29.005286+01 | 1486634069.00529 | pgbench_tellers_pkey  |          2170880
 2017-02-09 10:54:29.005286+01 | 1486634069.00529 | pgbench_accounts_pkey |        673882112

 2017-02-09 10:54:30.067671+01 | 1486634070.06767 | pgbench_branches_pkey |           737280
 2017-02-09 10:54:30.067671+01 | 1486634070.06767 | pgbench_tellers_pkey  |          2170880
 2017-02-09 10:54:30.067671+01 | 1486634070.06767 | pgbench_accounts_pkey |        673882112

 2017-02-09 10:54:31.122453+01 | 1486634071.12245 | pgbench_branches_pkey |           737280
 2017-02-09 10:54:31.122453+01 | 1486634071.12245 | pgbench_tellers_pkey  |          2170880
 2017-02-09 10:54:31.122453+01 | 1486634071.12245 | pgbench_accounts_pkey |        673882112

 2017-02-09 10:54:32.182919+01 | 1486634072.18292 | pgbench_branches_pkey |           737280
 2017-02-09 10:54:32.182919+01 | 1486634072.18292 | pgbench_tellers_pkey  |          2170880
 2017-02-09 10:54:32.182919+01 | 1486634072.18292 | pgbench_accounts_pkey |        673882112

 2017-02-09 10:54:33.235582+01 | 1486634073.23558 | pgbench_branches_pkey |           737280
 2017-02-09 10:54:33.235582+01 | 1486634073.23558 | pgbench_tellers_pkey  |          2170880
 2017-02-09 10:54:33.235582+01 | 1486634073.23558 | pgbench_accounts_pkey |        673882112

 2017-02-09 10:54:34.300398+01 | 1486634074.3004 | pgbench_branches_pkey |           737280
 2017-02-09 10:54:34.300398+01 | 1486634074.3004 | pgbench_tellers_pkey  |          2170880
 2017-02-09 10:54:34.300398+01 | 1486634074.3004 | pgbench_accounts_pkey |        673882112

 2017-02-09 10:54:35.371722+01 | 1486634075.37172 | pgbench_branches_pkey |           737280
 2017-02-09 10:54:35.371722+01 | 1486634075.37172 | pgbench_tellers_pkey  |          2170880
 2017-02-09 10:54:35.371722+01 | 1486634075.37172 | pgbench_accounts_pkey |        673882112

 2017-02-09 10:54:36.432888+01 | 1486634076.43289 | pgbench_branches_pkey |           737280
 2017-02-09 10:54:36.432888+01 | 1486634076.43289 | pgbench_tellers_pkey  |          2170880
 2017-02-09 10:54:36.432888+01 | 1486634076.43289 | pgbench_accounts_pkey |        673882112

 2017-02-09 10:54:37.490414+01 | 1486634077.49041 | pgbench_branches_pkey |           737280
 2017-02-09 10:54:37.490414+01 | 1486634077.49041 | pgbench_tellers_pkey  |          2170880
 2017-02-09 10:54:37.490414+01 | 1486634077.49041 | pgbench_accounts_pkey |        673882112

 2017-02-09 10:54:38.542081+01 | 1486634078.54208 | pgbench_branches_pkey |           737280
 2017-02-09 10:54:38.542081+01 | 1486634078.54208 | pgbench_tellers_pkey  |          2170880
 2017-02-09 10:54:38.542081+01 | 1486634078.54208 | pgbench_accounts_pkey |        673882112

 2017-02-09 10:54:39.601157+01 | 1486634079.60116 | pgbench_branches_pkey |           737280
 2017-02-09 10:54:39.601157+01 | 1486634079.60116 | pgbench_tellers_pkey  |          2170880
 2017-02-09 10:54:39.601157+01 | 1486634079.60116 | pgbench_accounts_pkey |        673882112

 2017-02-09 10:54:40.656096+01 | 1486634080.6561 | pgbench_branches_pkey |           737280
 2017-02-09 10:54:40.656096+01 | 1486634080.6561 | pgbench_tellers_pkey  |          2170880
 2017-02-09 10:54:40.656096+01 | 1486634080.6561 | pgbench_accounts_pkey |        673882112

 2017-02-09 10:54:41.723839+01 | 1486634081.72384 | pgbench_branches_pkey |           737280
 2017-02-09 10:54:41.723839+01 | 1486634081.72384 | pgbench_tellers_pkey  |          2170880
 2017-02-09 10:54:41.723839+01 | 1486634081.72384 | pgbench_accounts_pkey |        673882112

 2017-02-09 10:54:42.7905+01 | 1486634082.7905 | pgbench_branches_pkey |           737280
 2017-02-09 10:54:42.7905+01 | 1486634082.7905 | pgbench_tellers_pkey  |          2170880
 2017-02-09 10:54:42.7905+01 | 1486634082.7905 | pgbench_accounts_pkey |        673882112

 2017-02-09 10:54:43.853062+01 | 1486634083.85306 | pgbench_branches_pkey |           737280
 2017-02-09 10:54:43.853062+01 | 1486634083.85306 | pgbench_tellers_pkey  |          2170880
 2017-02-09 10:54:43.853062+01 | 1486634083.85306 | pgbench_accounts_pkey |        673882112

 2017-02-09 10:54:44.915655+01 | 1486634084.91565 | pgbench_branches_pkey |           737280
 2017-02-09 10:54:44.915655+01 | 1486634084.91565 | pgbench_tellers_pkey  |          2170880
 2017-02-09 10:54:44.915655+01 | 1486634084.91565 | pgbench_accounts_pkey |        673882112

 2017-02-09 10:54:45.979154+01 | 1486634085.97915 | pgbench_branches_pkey |           737280
 2017-02-09 10:54:45.979154+01 | 1486634085.97915 | pgbench_tellers_pkey  |          2170880
 2017-02-09 10:54:45.979154+01 | 1486634085.97915 | pgbench_accounts_pkey |        673882112

 2017-02-09 10:54:47.042584+01 | 1486634087.04258 | pgbench_branches_pkey |           737280
 2017-02-09 10:54:47.042584+01 | 1486634087.04258 | pgbench_tellers_pkey  |          2170880
 2017-02-09 10:54:47.042584+01 | 1486634087.04258 | pgbench_accounts_pkey |        673882112

 2017-02-09 10:54:48.108088+01 | 1486634088.10809 | pgbench_branches_pkey |           737280
 2017-02-09 10:54:48.108088+01 | 1486634088.10809 | pgbench_tellers_pkey  |          2170880
 2017-02-09 10:54:48.108088+01 | 1486634088.10809 | pgbench_accounts_pkey |        673882112

 2017-02-09 10:54:49.169801+01 | 1486634089.1698 | pgbench_branches_pkey |           737280
 2017-02-09 10:54:49.169801+01 | 1486634089.1698 | pgbench_tellers_pkey  |          2170880
 2017-02-09 10:54:49.169801+01 | 1486634089.1698 | pgbench_accounts_pkey |        673882112

 2017-02-09 10:54:50.248153+01 | 1486634090.24815 | pgbench_branches_pkey |           737280
 2017-02-09 10:54:50.248153+01 | 1486634090.24815 | pgbench_tellers_pkey  |          2170880
 2017-02-09 10:54:50.248153+01 | 1486634090.24815 | pgbench_accounts_pkey |        673882112

 2017-02-09 10:54:51.316498+01 | 1486634091.3165 | pgbench_branches_pkey |           737280
 2017-02-09 10:54:51.316498+01 | 1486634091.3165 | pgbench_tellers_pkey  |          2170880
 2017-02-09 10:54:51.316498+01 | 1486634091.3165 | pgbench_accounts_pkey |        673882112

 2017-02-09 10:54:52.38502+01 | 1486634092.38502 | pgbench_branches_pkey |           737280
 2017-02-09 10:54:52.38502+01 | 1486634092.38502 | pgbench_tellers_pkey  |          2170880
 2017-02-09 10:54:52.38502+01 | 1486634092.38502 | pgbench_accounts_pkey |        673882112

 2017-02-09 10:54:53.447258+01 | 1486634093.44726 | pgbench_branches_pkey |           737280
 2017-02-09 10:54:53.447258+01 | 1486634093.44726 | pgbench_tellers_pkey  |          2170880
 2017-02-09 10:54:53.447258+01 | 1486634093.44726 | pgbench_accounts_pkey |        673882112

 2017-02-09 10:54:54.515268+01 | 1486634094.51527 | pgbench_branches_pkey |           737280
 2017-02-09 10:54:54.515268+01 | 1486634094.51527 | pgbench_tellers_pkey  |          2170880
 2017-02-09 10:54:54.515268+01 | 1486634094.51527 | pgbench_accounts_pkey |        673882112

 2017-02-09 10:54:55.574093+01 | 1486634095.57409 | pgbench_branches_pkey |           737280
 2017-02-09 10:54:55.574093+01 | 1486634095.57409 | pgbench_tellers_pkey  |          2170880
 2017-02-09 10:54:55.574093+01 | 1486634095.57409 | pgbench_accounts_pkey |        673882112

 2017-02-09 10:54:56.633692+01 | 1486634096.63369 | pgbench_branches_pkey |           737280
 2017-02-09 10:54:56.633692+01 | 1486634096.63369 | pgbench_tellers_pkey  |          2170880
 2017-02-09 10:54:56.633692+01 | 1486634096.63369 | pgbench_accounts_pkey |        673882112

 2017-02-09 10:54:57.691555+01 | 1486634097.69156 | pgbench_branches_pkey |           737280
 2017-02-09 10:54:57.691555+01 | 1486634097.69156 | pgbench_tellers_pkey  |          2170880
 2017-02-09 10:54:57.691555+01 | 1486634097.69156 | pgbench_accounts_pkey |        673882112

 2017-02-09 10:54:58.75821+01 | 1486634098.75821 | pgbench_branches_pkey |           737280
 2017-02-09 10:54:58.75821+01 | 1486634098.75821 | pgbench_tellers_pkey  |          2170880
 2017-02-09 10:54:58.75821+01 | 1486634098.75821 | pgbench_accounts_pkey |        673882112

 2017-02-09 10:54:59.822914+01 | 1486634099.82291 | pgbench_branches_pkey |           737280
 2017-02-09 10:54:59.822914+01 | 1486634099.82291 | pgbench_tellers_pkey  |          2170880
 2017-02-09 10:54:59.822914+01 | 1486634099.82291 | pgbench_accounts_pkey |        673882112

 2017-02-09 10:55:00.894025+01 | 1486634100.89403 | pgbench_branches_pkey |           737280
 2017-02-09 10:55:00.894025+01 | 1486634100.89403 | pgbench_tellers_pkey  |          2170880
 2017-02-09 10:55:00.894025+01 | 1486634100.89403 | pgbench_accounts_pkey |        673882112

 2017-02-09 10:55:01.966393+01 | 1486634101.96639 | pgbench_branches_pkey |           737280
 2017-02-09 10:55:01.966393+01 | 1486634101.96639 | pgbench_tellers_pkey  |          2170880
 2017-02-09 10:55:01.966393+01 | 1486634101.96639 | pgbench_accounts_pkey |        673882112

 2017-02-09 10:55:03.041021+01 | 1486634103.04102 | pgbench_branches_pkey |           737280
 2017-02-09 10:55:03.041021+01 | 1486634103.04102 | pgbench_tellers_pkey  |          2170880
 2017-02-09 10:55:03.041021+01 | 1486634103.04102 | pgbench_accounts_pkey |        673882112

 2017-02-09 10:55:04.106126+01 | 1486634104.10613 | pgbench_branches_pkey |           737280
 2017-02-09 10:55:04.106126+01 | 1486634104.10613 | pgbench_tellers_pkey  |          2170880
 2017-02-09 10:55:04.106126+01 | 1486634104.10613 | pgbench_accounts_pkey |        673882112

 2017-02-09 10:55:05.162016+01 | 1486634105.16202 | pgbench_branches_pkey |           737280
 2017-02-09 10:55:05.162016+01 | 1486634105.16202 | pgbench_tellers_pkey  |          2170880
 2017-02-09 10:55:05.162016+01 | 1486634105.16202 | pgbench_accounts_pkey |        673882112

