 2017-02-08 16:35:36.952975+01 | 1486568136.95298 |                 0 |              17 |                  9340 |                 1272 |            1454027 |             0 |                0 |          561384 |                     0 |        411153 | 2017-02-08 15:15:13.6735+01

 2017-02-08 16:35:38.044986+01 | 1486568138.04499 |                 0 |              17 |                  9340 |                 1272 |            1454027 |             0 |                0 |          561384 |                     0 |        411253 | 2017-02-08 15:15:13.6735+01

 2017-02-08 16:35:39.119807+01 | 1486568139.11981 |                 0 |              17 |                  9340 |                 1272 |            1454027 |             0 |                0 |          561384 |                     0 |        411339 | 2017-02-08 15:15:13.6735+01

 2017-02-08 16:35:40.234593+01 | 1486568140.23459 |                 0 |              17 |                  9340 |                 1272 |            1454027 |             0 |                0 |          561384 |                     0 |        411413 | 2017-02-08 15:15:13.6735+01

 2017-02-08 16:35:41.334591+01 | 1486568141.33459 |                 0 |              17 |                  9340 |                 1272 |            1454027 |             0 |                0 |          561384 |                     0 |        411498 | 2017-02-08 15:15:13.6735+01

 2017-02-08 16:35:42.432129+01 | 1486568142.43213 |                 0 |              17 |                  9340 |                 1272 |            1454027 |             0 |                0 |          561384 |                     0 |        411639 | 2017-02-08 15:15:13.6735+01

 2017-02-08 16:35:43.555014+01 | 1486568143.55501 |                 0 |              17 |                  9340 |                 1272 |            1454027 |             0 |                0 |          561384 |                     0 |        411689 | 2017-02-08 15:15:13.6735+01

 2017-02-08 16:35:44.653815+01 | 1486568144.65382 |                 0 |              17 |                  9340 |                 1272 |            1454027 |             0 |                0 |          561384 |                     0 |        411782 | 2017-02-08 15:15:13.6735+01

 2017-02-08 16:35:45.752412+01 | 1486568145.75241 |                 0 |              17 |                  9340 |                 1272 |            1454027 |             0 |                0 |          561384 |                     0 |        411889 | 2017-02-08 15:15:13.6735+01

 2017-02-08 16:35:46.847873+01 | 1486568146.84787 |                 0 |              17 |                  9340 |                 1272 |            1454027 |             0 |                0 |          561384 |                     0 |        411982 | 2017-02-08 15:15:13.6735+01

 2017-02-08 16:35:47.965232+01 | 1486568147.96523 |                 0 |              17 |                  9340 |                 1272 |            1454027 |             0 |                0 |          561384 |                     0 |        412089 | 2017-02-08 15:15:13.6735+01

 2017-02-08 16:35:49.049322+01 | 1486568149.04932 |                 0 |              17 |                  9340 |                 1272 |            1454027 |             0 |                0 |          561384 |                     0 |        412139 | 2017-02-08 15:15:13.6735+01

 2017-02-08 16:35:50.127798+01 | 1486568150.1278 |                 0 |              17 |                  9340 |                 1272 |            1454027 |             0 |                0 |          561384 |                     0 |        412235 | 2017-02-08 15:15:13.6735+01

 2017-02-08 16:35:51.218342+01 | 1486568151.21834 |                 0 |              17 |                  9340 |                 1272 |            1454027 |             0 |                0 |          561384 |                     0 |        412318 | 2017-02-08 15:15:13.6735+01

 2017-02-08 16:35:52.315572+01 | 1486568152.31557 |                 0 |              17 |                  9340 |                 1272 |            1454027 |             0 |                0 |          561384 |                     0 |        412423 | 2017-02-08 15:15:13.6735+01

 2017-02-08 16:35:53.405832+01 | 1486568153.40583 |                 0 |              17 |                  9340 |                 1272 |            1454027 |             0 |                0 |          561384 |                     0 |        412508 | 2017-02-08 15:15:13.6735+01

 2017-02-08 16:35:54.517965+01 | 1486568154.51797 |                 0 |              17 |                  9340 |                 1272 |            1454027 |             0 |                0 |          561384 |                     0 |        412577 | 2017-02-08 15:15:13.6735+01

 2017-02-08 16:35:55.598633+01 | 1486568155.59863 |                 0 |              17 |                  9340 |                 1272 |            1454027 |             0 |                0 |          561384 |                     0 |        412794 | 2017-02-08 15:15:13.6735+01

 2017-02-08 16:35:56.712565+01 | 1486568156.71256 |                 0 |              17 |                  9340 |                 1272 |            1454027 |             0 |                0 |          561384 |                     0 |        412794 | 2017-02-08 15:15:13.6735+01

 2017-02-08 16:35:57.815104+01 | 1486568157.8151 |                 0 |              17 |                  9340 |                 1272 |            1454027 |             0 |                0 |          561384 |                     0 |        412979 | 2017-02-08 15:15:13.6735+01

 2017-02-08 16:35:58.924472+01 | 1486568158.92447 |                 0 |              17 |                  9340 |                 1272 |            1454027 |             0 |                0 |          561384 |                     0 |        412983 | 2017-02-08 15:15:13.6735+01

 2017-02-08 16:36:00.028679+01 | 1486568160.02868 |                 0 |              17 |                  9340 |                 1272 |            1454027 |             0 |                0 |          561384 |                     0 |        413109 | 2017-02-08 15:15:13.6735+01

 2017-02-08 16:36:01.134247+01 | 1486568161.13425 |                 0 |              17 |                  9340 |                 1272 |            1454027 |             0 |                0 |          561384 |                     0 |        413165 | 2017-02-08 15:15:13.6735+01

 2017-02-08 16:36:02.236704+01 | 1486568162.2367 |                 0 |              17 |                  9340 |                 1272 |            1454027 |             0 |                0 |          561384 |                     0 |        413261 | 2017-02-08 15:15:13.6735+01

 2017-02-08 16:36:03.339815+01 | 1486568163.33981 |                 0 |              17 |                  9340 |                 1272 |            1454027 |             0 |                0 |          561384 |                     0 |        413335 | 2017-02-08 15:15:13.6735+01

 2017-02-08 16:36:04.493991+01 | 1486568164.49399 |                 0 |              17 |                  9340 |                 1272 |            1454027 |             0 |                0 |          561384 |                     0 |        413433 | 2017-02-08 15:15:13.6735+01

 2017-02-08 16:36:05.619846+01 | 1486568165.61985 |                 0 |              17 |                  9340 |                 1272 |            1454027 |             0 |                0 |          561384 |                     0 |        413536 | 2017-02-08 15:15:13.6735+01

 2017-02-08 16:36:06.721018+01 | 1486568166.72102 |                 0 |              17 |                  9340 |                 1272 |            1454027 |             0 |                0 |          561384 |                     0 |        413620 | 2017-02-08 15:15:13.6735+01

 2017-02-08 16:36:07.804299+01 | 1486568167.8043 |                 0 |              17 |                  9340 |                 1272 |            1454027 |             0 |                0 |          561384 |                     0 |        413725 | 2017-02-08 15:15:13.6735+01

 2017-02-08 16:36:08.917936+01 | 1486568168.91794 |                 0 |              17 |                  9340 |                 1272 |            1454027 |             0 |                0 |          561384 |                     0 |        413811 | 2017-02-08 15:15:13.6735+01

 2017-02-08 16:36:10.019609+01 | 1486568170.01961 |                 0 |              17 |                  9340 |                 1272 |            1454027 |             0 |                0 |          561384 |                     0 |        413912 | 2017-02-08 15:15:13.6735+01

 2017-02-08 16:36:11.1119+01 | 1486568171.1119 |                 0 |              17 |                  9340 |                 1272 |            1454027 |             0 |                0 |          561384 |                     0 |        413997 | 2017-02-08 15:15:13.6735+01

 2017-02-08 16:36:12.229874+01 | 1486568172.22987 |                 0 |              17 |                  9340 |                 1272 |            1454027 |             0 |                0 |          561384 |                     0 |        414224 | 2017-02-08 15:15:13.6735+01

 2017-02-08 16:36:13.345873+01 | 1486568173.34587 |                 0 |              17 |                  9340 |                 1272 |            1454027 |             0 |                0 |          561384 |                     0 |        414224 | 2017-02-08 15:15:13.6735+01

 2017-02-08 16:36:14.440522+01 | 1486568174.44052 |                 0 |              17 |                  9340 |                 1272 |            1454027 |             0 |                0 |          561384 |                     0 |        414305 | 2017-02-08 15:15:13.6735+01

 2017-02-08 16:36:15.54323+01 | 1486568175.54323 |                 0 |              17 |                  9340 |                 1272 |            1454027 |             0 |                0 |          561384 |                     0 |        414440 | 2017-02-08 15:15:13.6735+01

 2017-02-08 16:36:16.614106+01 | 1486568176.61411 |                 0 |              17 |                  9340 |                 1272 |            1454027 |             0 |                0 |          561384 |                     0 |        414440 | 2017-02-08 15:15:13.6735+01

 2017-02-08 16:36:17.734167+01 | 1486568177.73417 |                 0 |              17 |                  9340 |                 1272 |            1454027 |             0 |                0 |          561384 |                     0 |        414546 | 2017-02-08 15:15:13.6735+01

 2017-02-08 16:36:18.846636+01 | 1486568178.84664 |                 0 |              17 |                  9340 |                 1272 |            1454027 |             0 |                0 |          561384 |                     0 |        414721 | 2017-02-08 15:15:13.6735+01

 2017-02-08 16:36:19.958072+01 | 1486568179.95807 |                 0 |              17 |                  9340 |                 1272 |            1454027 |             0 |                0 |          561384 |                     0 |        414773 | 2017-02-08 15:15:13.6735+01

 2017-02-08 16:36:21.047384+01 | 1486568181.04738 |                 0 |              17 |                  9340 |                 1272 |            1454027 |             0 |                0 |          561384 |                     0 |        414837 | 2017-02-08 15:15:13.6735+01

 2017-02-08 16:36:22.152547+01 | 1486568182.15255 |                 0 |              17 |                  9340 |                 1272 |            1454027 |             0 |                0 |          561384 |                     0 |        414945 | 2017-02-08 15:15:13.6735+01

 2017-02-08 16:36:23.250944+01 | 1486568183.25094 |                 0 |              17 |                  9340 |                 1272 |            1454027 |             0 |                0 |          561384 |                     0 |        415043 | 2017-02-08 15:15:13.6735+01

 2017-02-08 16:36:24.323847+01 | 1486568184.32385 |                 0 |              17 |                  9340 |                 1272 |            1454027 |             0 |                0 |          561384 |                     0 |        415310 | 2017-02-08 15:15:13.6735+01

 2017-02-08 16:36:25.446993+01 | 1486568185.44699 |                 0 |              17 |                  9340 |                 1272 |            1454027 |             0 |                0 |          561384 |                     0 |        415313 | 2017-02-08 15:15:13.6735+01

 2017-02-08 16:36:26.516218+01 | 1486568186.51622 |                 0 |              17 |                  9340 |                 1272 |            1454027 |             0 |                0 |          561384 |                     0 |        415360 | 2017-02-08 15:15:13.6735+01

 2017-02-08 16:36:27.628368+01 | 1486568187.62837 |                 0 |              17 |                  9340 |                 1272 |            1454027 |             0 |                0 |          561384 |                     0 |        415474 | 2017-02-08 15:15:13.6735+01

 2017-02-08 16:36:28.714645+01 | 1486568188.71464 |                 0 |              17 |                  9340 |                 1272 |            1454027 |             0 |                0 |          561384 |                     0 |        415525 | 2017-02-08 15:15:13.6735+01

 2017-02-08 16:36:29.838547+01 | 1486568189.83855 |                 0 |              17 |                  9340 |                 1272 |            1454027 |             0 |                0 |          561384 |                     0 |        415642 | 2017-02-08 15:15:13.6735+01

 2017-02-08 16:36:30.928684+01 | 1486568190.92868 |                 0 |              17 |                  9340 |                 1272 |            1454027 |             0 |                0 |          561384 |                     0 |        415732 | 2017-02-08 15:15:13.6735+01

 2017-02-08 16:36:32.034764+01 | 1486568192.03476 |                 0 |              17 |                  9340 |                 1272 |            1454027 |             0 |                0 |          561384 |                     0 |        415861 | 2017-02-08 15:15:13.6735+01

 2017-02-08 16:36:33.151054+01 | 1486568193.15105 |                 0 |              17 |                  9340 |                 1272 |            1454027 |             0 |                0 |          561384 |                     0 |        415904 | 2017-02-08 15:15:13.6735+01

 2017-02-08 16:36:34.253523+01 | 1486568194.25352 |                 0 |              17 |                  9340 |                 1272 |            1454027 |             0 |                0 |          561384 |                     0 |        415980 | 2017-02-08 15:15:13.6735+01

 2017-02-08 16:36:35.41676+01 | 1486568195.41676 |                 0 |              17 |                  9340 |                 1272 |            1454027 |             0 |                0 |          561384 |                     0 |        416091 | 2017-02-08 15:15:13.6735+01

 2017-02-08 16:36:36.515706+01 | 1486568196.51571 |                 0 |              17 |                  9340 |                 1272 |            1454027 |             0 |                0 |          561384 |                     0 |        416161 | 2017-02-08 15:15:13.6735+01

 2017-02-08 16:36:37.62789+01 | 1486568197.62789 |                 0 |              17 |                  9340 |                 1272 |            1454027 |             0 |                0 |          561384 |                     0 |        416272 | 2017-02-08 15:15:13.6735+01

 2017-02-08 16:36:38.736223+01 | 1486568198.73622 |                 0 |              17 |                  9340 |                 1272 |            1454027 |             0 |                0 |          561384 |                     0 |        416358 | 2017-02-08 15:15:13.6735+01

 2017-02-08 16:36:39.849395+01 | 1486568199.8494 |                 0 |              17 |                  9340 |                 1272 |            1454027 |             0 |                0 |          561384 |                     0 |        416459 | 2017-02-08 15:15:13.6735+01

 2017-02-08 16:36:40.941418+01 | 1486568200.94142 |                 0 |              17 |                  9340 |                 1272 |            1454027 |             0 |                0 |          561384 |                     0 |        416544 | 2017-02-08 15:15:13.6735+01

 2017-02-08 16:36:42.042455+01 | 1486568202.04245 |                 0 |              17 |                  9340 |                 1272 |            1454027 |             0 |                0 |          561384 |                     0 |        416646 | 2017-02-08 15:15:13.6735+01

 2017-02-08 16:36:43.124974+01 | 1486568203.12497 |                 0 |              17 |                  9340 |                 1272 |            1454027 |             0 |                0 |          561384 |                     0 |        416734 | 2017-02-08 15:15:13.6735+01

 2017-02-08 16:36:44.244839+01 | 1486568204.24484 |                 0 |              17 |                  9340 |                 1272 |            1454027 |             0 |                0 |          561384 |                     0 |        416840 | 2017-02-08 15:15:13.6735+01

 2017-02-08 16:36:45.366491+01 | 1486568205.36649 |                 0 |              17 |                  9340 |                 1272 |            1454027 |             0 |                0 |          561384 |                     0 |        416927 | 2017-02-08 15:15:13.6735+01

 2017-02-08 16:36:46.454954+01 | 1486568206.45495 |                 0 |              17 |                  9340 |                 1272 |            1454027 |             0 |                0 |          561384 |                     0 |        416995 | 2017-02-08 15:15:13.6735+01

 2017-02-08 16:36:47.57618+01 | 1486568207.57618 |                 0 |              17 |                  9340 |                 1272 |            1454027 |             0 |                0 |          561384 |                     0 |        417116 | 2017-02-08 15:15:13.6735+01

 2017-02-08 16:36:48.657939+01 | 1486568208.65794 |                 0 |              17 |                  9340 |                 1272 |            1454027 |             0 |                0 |          561384 |                     0 |        417216 | 2017-02-08 15:15:13.6735+01

 2017-02-08 16:36:49.779815+01 | 1486568209.77981 |                 0 |              17 |                  9340 |                 1272 |            1454027 |             0 |                0 |          561384 |                     0 |        417304 | 2017-02-08 15:15:13.6735+01

 2017-02-08 16:36:50.882996+01 | 1486568210.883 |                 0 |              17 |                  9340 |                 1272 |            1454027 |             0 |                0 |          561384 |                     0 |        417409 | 2017-02-08 15:15:13.6735+01

 2017-02-08 16:36:52.000791+01 | 1486568212.00079 |                 0 |              17 |                  9340 |                 1272 |            1454027 |             0 |                0 |          561384 |                     0 |        417493 | 2017-02-08 15:15:13.6735+01

 2017-02-08 16:36:53.11484+01 | 1486568213.11484 |                 0 |              17 |                  9340 |                 1272 |            1454027 |             0 |                0 |          561384 |                     0 |        417587 | 2017-02-08 15:15:13.6735+01

 2017-02-08 16:36:54.192449+01 | 1486568214.19245 |                 0 |              17 |                  9340 |                 1272 |            1454027 |             0 |                0 |          561384 |                     0 |        417687 | 2017-02-08 15:15:13.6735+01

 2017-02-08 16:36:55.310663+01 | 1486568215.31066 |                 0 |              17 |                  9340 |                 1272 |            1454027 |             0 |                0 |          561384 |                     0 |        417799 | 2017-02-08 15:15:13.6735+01

 2017-02-08 16:36:56.403563+01 | 1486568216.40356 |                 0 |              17 |                  9340 |                 1272 |            1454027 |             0 |                0 |          561384 |                     0 |        417895 | 2017-02-08 15:15:13.6735+01

 2017-02-08 16:36:57.513314+01 | 1486568217.51331 |                 0 |              17 |                  9340 |                 1272 |            1454027 |             0 |                0 |          561384 |                     0 |        417971 | 2017-02-08 15:15:13.6735+01

 2017-02-08 16:36:58.618425+01 | 1486568218.61842 |                 0 |              17 |                  9340 |                 1272 |            1454027 |             0 |                0 |          561384 |                     0 |        418132 | 2017-02-08 15:15:13.6735+01

 2017-02-08 16:36:59.712679+01 | 1486568219.71268 |                 0 |              17 |                  9340 |                 1272 |            1454027 |             0 |                0 |          561384 |                     0 |        418160 | 2017-02-08 15:15:13.6735+01

 2017-02-08 16:37:00.817367+01 | 1486568220.81737 |                 0 |              17 |                  9340 |                 1272 |            1454027 |             0 |                0 |          561384 |                     0 |        418240 | 2017-02-08 15:15:13.6735+01

 2017-02-08 16:37:01.979327+01 | 1486568221.97933 |                 0 |              17 |                  9340 |                 1272 |            1454027 |             0 |                0 |          561384 |                     0 |        418337 | 2017-02-08 15:15:13.6735+01

 2017-02-08 16:37:03.091097+01 | 1486568223.0911 |                 0 |              17 |                  9340 |                 1272 |            1454027 |             0 |                0 |          561384 |                     0 |        418543 | 2017-02-08 15:15:13.6735+01

 2017-02-08 16:37:04.192753+01 | 1486568224.19275 |                 0 |              17 |                  9340 |                 1272 |            1454027 |             0 |                0 |          561384 |                     0 |        418543 | 2017-02-08 15:15:13.6735+01

 2017-02-08 16:37:05.323619+01 | 1486568225.32362 |                 0 |              17 |                  9340 |                 1272 |            1454027 |             0 |                0 |          561384 |                     0 |        418637 | 2017-02-08 15:15:13.6735+01

 2017-02-08 16:37:06.416494+01 | 1486568226.41649 |                 0 |              17 |                  9340 |                 1272 |            1454027 |             0 |                0 |          561384 |                     0 |        418722 | 2017-02-08 15:15:13.6735+01

 2017-02-08 16:37:07.55264+01 | 1486568227.55264 |                 0 |              17 |                  9340 |                 1272 |            1454027 |             0 |                0 |          561384 |                     0 |        418826 | 2017-02-08 15:15:13.6735+01

 2017-02-08 16:37:08.638332+01 | 1486568228.63833 |                 0 |              17 |                  9340 |                 1272 |            1454027 |             0 |                0 |          561384 |                     0 |        418917 | 2017-02-08 15:15:13.6735+01

 2017-02-08 16:37:09.719143+01 | 1486568229.71914 |                 0 |              17 |                  9340 |                 1272 |            1454027 |             0 |                0 |          561384 |                     0 |        419055 | 2017-02-08 15:15:13.6735+01

 2017-02-08 16:37:10.831056+01 | 1486568230.83106 |                 0 |              17 |                  9340 |                 1272 |            1454027 |             0 |                0 |          561384 |                     0 |        419055 | 2017-02-08 15:15:13.6735+01

 2017-02-08 16:37:11.968762+01 | 1486568231.96876 |                 0 |              17 |                  9340 |                 1272 |            1454027 |             0 |                0 |          561384 |                     0 |        419055 | 2017-02-08 15:15:13.6735+01

 2017-02-08 16:37:13.085978+01 | 1486568233.08598 |                 0 |              17 |                  9340 |                 1272 |            1454027 |             0 |                0 |          561384 |                     0 |        419266 | 2017-02-08 15:15:13.6735+01

 2017-02-08 16:37:14.18245+01 | 1486568234.18245 |                 0 |              17 |                  9340 |                 1272 |            1454027 |             0 |                0 |          561384 |                     0 |        419381 | 2017-02-08 15:15:13.6735+01

 2017-02-08 16:37:15.289931+01 | 1486568235.28993 |                 0 |              17 |                  9340 |                 1272 |            1454027 |             0 |                0 |          561384 |                     0 |        419447 | 2017-02-08 15:15:13.6735+01

 2017-02-08 16:37:16.415383+01 | 1486568236.41538 |                 0 |              17 |                  9340 |                 1272 |            1454027 |             0 |                0 |          561384 |                     0 |        419594 | 2017-02-08 15:15:13.6735+01

 2017-02-08 16:37:17.540327+01 | 1486568237.54033 |                 0 |              17 |                  9340 |                 1272 |            1454027 |             0 |                0 |          561384 |                     0 |        419778 | 2017-02-08 15:15:13.6735+01

 2017-02-08 16:37:18.666002+01 | 1486568238.666 |                 0 |              17 |                  9340 |                 1272 |            1454027 |             0 |                0 |          561384 |                     0 |        419778 | 2017-02-08 15:15:13.6735+01

 2017-02-08 16:37:19.789844+01 | 1486568239.78984 |                 0 |              17 |                  9340 |                 1272 |            1454027 |             0 |                0 |          561384 |                     0 |        419822 | 2017-02-08 15:15:13.6735+01

 2017-02-08 16:37:20.915695+01 | 1486568240.91569 |                 0 |              17 |                  9340 |                 1272 |            1454027 |             0 |                0 |          561384 |                     0 |        419929 | 2017-02-08 15:15:13.6735+01

 2017-02-08 16:37:22.066528+01 | 1486568242.06653 |                 0 |              17 |                  9340 |                 1272 |            1454027 |             0 |                0 |          561384 |                     0 |        420008 | 2017-02-08 15:15:13.6735+01

 2017-02-08 16:37:23.196745+01 | 1486568243.19674 |                 0 |              17 |                  9340 |                 1272 |            1454027 |             0 |                0 |          561384 |                     0 |        420072 | 2017-02-08 15:15:13.6735+01

 2017-02-08 16:37:24.300756+01 | 1486568244.30076 |                 0 |              17 |                  9340 |                 1272 |            1454027 |             0 |                0 |          561384 |                     0 |        420211 | 2017-02-08 15:15:13.6735+01

 2017-02-08 16:37:25.400482+01 | 1486568245.40048 |                 0 |              17 |                  9340 |                 1272 |            1454027 |             0 |                0 |          561384 |                     0 |        420307 | 2017-02-08 15:15:13.6735+01

 2017-02-08 16:37:26.501803+01 | 1486568246.5018 |                 0 |              17 |                  9340 |                 1272 |            1454027 |             0 |                0 |          561384 |                     0 |        420399 | 2017-02-08 15:15:13.6735+01

 2017-02-08 16:37:27.627559+01 | 1486568247.62756 |                 0 |              17 |                  9340 |                 1272 |            1454027 |             0 |                0 |          561384 |                     0 |        420542 | 2017-02-08 15:15:13.6735+01

 2017-02-08 16:37:28.750397+01 | 1486568248.7504 |                 0 |              17 |                  9340 |                 1272 |            1454027 |             0 |                0 |          561384 |                     0 |        420565 | 2017-02-08 15:15:13.6735+01

 2017-02-08 16:37:29.835869+01 | 1486568249.83587 |                 0 |              17 |                  9340 |                 1272 |            1454027 |             0 |                0 |          561384 |                     0 |        420673 | 2017-02-08 15:15:13.6735+01

 2017-02-08 16:37:30.96585+01 | 1486568250.96585 |                 0 |              17 |                  9340 |                 1272 |            1454027 |             0 |                0 |          561384 |                     0 |        420754 | 2017-02-08 15:15:13.6735+01

 2017-02-08 16:37:32.074444+01 | 1486568252.07444 |                 0 |              17 |                  9340 |                 1272 |            1454027 |             0 |                0 |          561384 |                     0 |        420857 | 2017-02-08 15:15:13.6735+01

 2017-02-08 16:37:33.196895+01 | 1486568253.19689 |                 0 |              17 |                  9340 |                 1272 |            1454027 |             0 |                0 |          561384 |                     0 |        420957 | 2017-02-08 15:15:13.6735+01

 2017-02-08 16:37:34.309995+01 | 1486568254.30999 |                 0 |              17 |                  9340 |                 1272 |            1454027 |             0 |                0 |          561384 |                     0 |        421041 | 2017-02-08 15:15:13.6735+01

 2017-02-08 16:37:35.393949+01 | 1486568255.39395 |                 0 |              17 |                  9340 |                 1272 |            1454027 |             0 |                0 |          561384 |                     0 |        421142 | 2017-02-08 15:15:13.6735+01

 2017-02-08 16:37:36.523789+01 | 1486568256.52379 |                 0 |              17 |                  9340 |                 1272 |            1454027 |             0 |                0 |          561384 |                     0 |        421227 | 2017-02-08 15:15:13.6735+01

 2017-02-08 16:37:37.605114+01 | 1486568257.60511 |                 0 |              17 |                  9340 |                 1272 |            1454027 |             0 |                0 |          561384 |                     0 |        421324 | 2017-02-08 15:15:13.6735+01

 2017-02-08 16:37:38.702158+01 | 1486568258.70216 |                 0 |              17 |                  9340 |                 1272 |            1454027 |             0 |                0 |          561384 |                     0 |        421407 | 2017-02-08 15:15:13.6735+01

 2017-02-08 16:37:39.809456+01 | 1486568259.80946 |                 0 |              17 |                  9340 |                 1272 |            1454027 |             0 |                0 |          561384 |                     0 |        421507 | 2017-02-08 15:15:13.6735+01

 2017-02-08 16:37:40.927628+01 | 1486568260.92763 |                 0 |              17 |                  9340 |                 1272 |            1454027 |             0 |                0 |          561384 |                     0 |        421587 | 2017-02-08 15:15:13.6735+01

 2017-02-08 16:37:42.062092+01 | 1486568262.06209 |                 0 |              17 |                  9340 |                 1272 |            1454027 |             0 |                0 |          561384 |                     0 |        421690 | 2017-02-08 15:15:13.6735+01

 2017-02-08 16:37:43.160244+01 | 1486568263.16024 |                 0 |              17 |                  9340 |                 1272 |            1454027 |             0 |                0 |          561384 |                     0 |        421778 | 2017-02-08 15:15:13.6735+01

 2017-02-08 16:37:44.302992+01 | 1486568264.30299 |                 0 |              17 |                  9340 |                 1272 |            1454027 |             0 |                0 |          561384 |                     0 |        421879 | 2017-02-08 15:15:13.6735+01

 2017-02-08 16:37:45.409225+01 | 1486568265.40922 |                 0 |              17 |                  9340 |                 1272 |            1454027 |             0 |                0 |          561384 |                     0 |        421978 | 2017-02-08 15:15:13.6735+01

 2017-02-08 16:37:46.49282+01 | 1486568266.49282 |                 0 |              17 |                  9340 |                 1272 |            1454027 |             0 |                0 |          561384 |                     0 |        422028 | 2017-02-08 15:15:13.6735+01

 2017-02-08 16:37:47.583403+01 | 1486568267.5834 |                 0 |              17 |                  9340 |                 1272 |            1454027 |             0 |                0 |          561384 |                     0 |        422146 | 2017-02-08 15:15:13.6735+01

 2017-02-08 16:37:48.713947+01 | 1486568268.71395 |                 0 |              17 |                  9340 |                 1272 |            1454027 |             0 |                0 |          561384 |                     0 |        422249 | 2017-02-08 15:15:13.6735+01

 2017-02-08 16:37:49.82387+01 | 1486568269.82387 |                 0 |              17 |                  9340 |                 1272 |            1454027 |             0 |                0 |          561384 |                     0 |        422349 | 2017-02-08 15:15:13.6735+01

 2017-02-08 16:37:50.928922+01 | 1486568270.92892 |                 0 |              17 |                  9340 |                 1272 |            1454027 |             0 |                0 |          561384 |                     0 |        422446 | 2017-02-08 15:15:13.6735+01

 2017-02-08 16:37:52.021218+01 | 1486568272.02122 |                 0 |              17 |                  9340 |                 1272 |            1454027 |             0 |                0 |          561384 |                     0 |        422543 | 2017-02-08 15:15:13.6735+01

 2017-02-08 16:37:53.13223+01 | 1486568273.13223 |                 0 |              17 |                  9340 |                 1272 |            1454027 |             0 |                0 |          561384 |                     0 |        422612 | 2017-02-08 15:15:13.6735+01

 2017-02-08 16:37:54.195362+01 | 1486568274.19536 |                 0 |              17 |                  9340 |                 1272 |            1454027 |             0 |                0 |          561384 |                     0 |        422743 | 2017-02-08 15:15:13.6735+01

 2017-02-08 16:37:55.258944+01 | 1486568275.25894 |                 0 |              17 |                  9340 |                 1272 |            1454027 |             0 |                0 |          561384 |                     0 |        422827 | 2017-02-08 15:15:13.6735+01

 2017-02-08 16:37:56.368464+01 | 1486568276.36846 |                 0 |              17 |                  9340 |                 1272 |            1454027 |             0 |                0 |          561384 |                     0 |        422903 | 2017-02-08 15:15:13.6735+01

 2017-02-08 16:37:57.503704+01 | 1486568277.5037 |                 0 |              17 |                  9340 |                 1272 |            1454027 |             0 |                0 |          561384 |                     0 |        423000 | 2017-02-08 15:15:13.6735+01

 2017-02-08 16:37:58.616074+01 | 1486568278.61607 |                 0 |              17 |                  9340 |                 1272 |            1454027 |             0 |                0 |          561384 |                     0 |        423117 | 2017-02-08 15:15:13.6735+01

 2017-02-08 16:37:59.726311+01 | 1486568279.72631 |                 0 |              17 |                  9340 |                 1272 |            1454027 |             0 |                0 |          561384 |                     0 |        423192 | 2017-02-08 15:15:13.6735+01

 2017-02-08 16:38:00.82308+01 | 1486568280.82308 |                 0 |              17 |                  9340 |                 1272 |            1454027 |             0 |                0 |          561384 |                     0 |        423247 | 2017-02-08 15:15:13.6735+01

 2017-02-08 16:38:01.940322+01 | 1486568281.94032 |                 0 |              17 |                  9340 |                 1272 |            1454027 |             0 |                0 |          561384 |                     0 |        423390 | 2017-02-08 15:15:13.6735+01

 2017-02-08 16:38:03.060701+01 | 1486568283.0607 |                 0 |              17 |                  9340 |                 1272 |            1454027 |             0 |                0 |          561384 |                     0 |        423466 | 2017-02-08 15:15:13.6735+01

 2017-02-08 16:38:04.182124+01 | 1486568284.18212 |                 0 |              17 |                  9340 |                 1272 |            1454027 |             0 |                0 |          561384 |                     0 |        423571 | 2017-02-08 15:15:13.6735+01

 2017-02-08 16:38:05.30479+01 | 1486568285.30479 |                 0 |              17 |                  9340 |                 1272 |            1454027 |             0 |                0 |          561384 |                     0 |        423658 | 2017-02-08 15:15:13.6735+01

 2017-02-08 16:38:06.428331+01 | 1486568286.42833 |                 0 |              17 |                  9340 |                 1272 |            1454027 |             0 |                0 |          561384 |                     0 |        423762 | 2017-02-08 15:15:13.6735+01

 2017-02-08 16:38:07.554868+01 | 1486568287.55487 |                 0 |              17 |                  9340 |                 1272 |            1454027 |             0 |                0 |          561384 |                     0 |        423868 | 2017-02-08 15:15:13.6735+01

 2017-02-08 16:38:08.685202+01 | 1486568288.6852 |                 0 |              17 |                  9340 |                 1272 |            1454027 |             0 |                0 |          561384 |                     0 |        423951 | 2017-02-08 15:15:13.6735+01

 2017-02-08 16:38:09.799742+01 | 1486568289.79974 |                 0 |              17 |                  9340 |                 1272 |            1454027 |             0 |                0 |          561384 |                     0 |        424055 | 2017-02-08 15:15:13.6735+01

 2017-02-08 16:38:10.896247+01 | 1486568290.89625 |                 0 |              17 |                  9340 |                 1272 |            1454027 |             0 |                0 |          561384 |                     0 |        424142 | 2017-02-08 15:15:13.6735+01

 2017-02-08 16:38:12.018644+01 | 1486568292.01864 |                 0 |              17 |                  9340 |                 1272 |            1454027 |             0 |                0 |          561384 |                     0 |        424243 | 2017-02-08 15:15:13.6735+01

 2017-02-08 16:38:13.104588+01 | 1486568293.10459 |                 0 |              17 |                  9340 |                 1272 |            1454027 |             0 |                0 |          561384 |                     0 |        424332 | 2017-02-08 15:15:13.6735+01

 2017-02-08 16:38:14.208937+01 | 1486568294.20894 |                 0 |              17 |                  9340 |                 1272 |            1454027 |             0 |                0 |          561384 |                     0 |        424432 | 2017-02-08 15:15:13.6735+01

 2017-02-08 16:38:15.348066+01 | 1486568295.34807 |                 0 |              17 |                  9340 |                 1272 |            1454027 |             0 |                0 |          561384 |                     0 |        424537 | 2017-02-08 15:15:13.6735+01

 2017-02-08 16:38:16.431821+01 | 1486568296.43182 |                 0 |              17 |                  9340 |                 1272 |            1454027 |             0 |                0 |          561384 |                     0 |        424622 | 2017-02-08 15:15:13.6735+01

 2017-02-08 16:38:17.521985+01 | 1486568297.52199 |                 0 |              17 |                  9340 |                 1272 |            1454027 |             0 |                0 |          561384 |                     0 |        424727 | 2017-02-08 15:15:13.6735+01

 2017-02-08 16:38:18.63182+01 | 1486568298.63182 |                 0 |              17 |                  9340 |                 1272 |            1454027 |             0 |                0 |          561384 |                     0 |        424817 | 2017-02-08 15:15:13.6735+01

 2017-02-08 16:38:19.721031+01 | 1486568299.72103 |                 0 |              17 |                  9340 |                 1272 |            1454027 |             0 |                0 |          561384 |                     0 |        424917 | 2017-02-08 15:15:13.6735+01

 2017-02-08 16:38:20.811811+01 | 1486568300.81181 |                 0 |              17 |                  9340 |                 1272 |            1454027 |             0 |                0 |          561384 |                     0 |        424999 | 2017-02-08 15:15:13.6735+01

 2017-02-08 16:38:21.914093+01 | 1486568301.91409 |                 0 |              17 |                  9340 |                 1272 |            1454027 |             0 |                0 |          561384 |                     0 |        425088 | 2017-02-08 15:15:13.6735+01

 2017-02-08 16:38:22.994236+01 | 1486568302.99424 |                 0 |              17 |                  9340 |                 1272 |            1454027 |             0 |                0 |          561384 |                     0 |        425189 | 2017-02-08 15:15:13.6735+01

 2017-02-08 16:38:24.080005+01 | 1486568304.08 |                 0 |              17 |                  9340 |                 1272 |            1454027 |             0 |                0 |          561384 |                     0 |        425273 | 2017-02-08 15:15:13.6735+01

 2017-02-08 16:38:25.21148+01 | 1486568305.21148 |                 0 |              17 |                  9340 |                 1272 |            1454027 |             0 |                0 |          561384 |                     0 |        425376 | 2017-02-08 15:15:13.6735+01

 2017-02-08 16:38:26.316862+01 | 1486568306.31686 |                 0 |              17 |                  9340 |                 1272 |            1454027 |             0 |                0 |          561384 |                     0 |        425461 | 2017-02-08 15:15:13.6735+01

 2017-02-08 16:38:27.394463+01 | 1486568307.39446 |                 0 |              17 |                  9340 |                 1272 |            1454027 |             0 |                0 |          561384 |                     0 |        425566 | 2017-02-08 15:15:13.6735+01

 2017-02-08 16:38:28.479648+01 | 1486568308.47965 |                 0 |              17 |                  9340 |                 1272 |            1454027 |             0 |                0 |          561384 |                     0 |        425655 | 2017-02-08 15:15:13.6735+01

 2017-02-08 16:38:29.568301+01 | 1486568309.5683 |                 0 |              17 |                  9340 |                 1272 |            1454027 |             0 |                0 |          561384 |                     0 |        425756 | 2017-02-08 15:15:13.6735+01

 2017-02-08 16:38:30.667706+01 | 1486568310.66771 |                 0 |              17 |                  9340 |                 1272 |            1454027 |             0 |                0 |          561384 |                     0 |        425840 | 2017-02-08 15:15:13.6735+01

 2017-02-08 16:38:31.789583+01 | 1486568311.78958 |                 0 |              17 |                  9340 |                 1272 |            1454027 |             0 |                0 |          561384 |                     0 |        425942 | 2017-02-08 15:15:13.6735+01

 2017-02-08 16:38:32.927468+01 | 1486568312.92747 |                 0 |              17 |                  9340 |                 1272 |            1454027 |             0 |                0 |          561384 |                     0 |        426029 | 2017-02-08 15:15:13.6735+01

 2017-02-08 16:38:34.029415+01 | 1486568314.02941 |                 0 |              17 |                  9340 |                 1272 |            1454027 |             0 |                0 |          561384 |                     0 |        426131 | 2017-02-08 15:15:13.6735+01

 2017-02-08 16:38:35.140873+01 | 1486568315.14087 |                 0 |              17 |                  9340 |                 1272 |            1454027 |             0 |                0 |          561384 |                     0 |        426216 | 2017-02-08 15:15:13.6735+01

 2017-02-08 16:38:36.266661+01 | 1486568316.26666 |                 0 |              17 |                  9340 |                 1272 |            1454027 |             0 |                0 |          561384 |                     0 |        426321 | 2017-02-08 15:15:13.6735+01

 2017-02-08 16:38:37.390308+01 | 1486568317.39031 |                 0 |              17 |                  9340 |                 1272 |            1454027 |             0 |                0 |          561384 |                     0 |        426456 | 2017-02-08 15:15:13.6735+01

 2017-02-08 16:38:38.519317+01 | 1486568318.51932 |                 0 |              17 |                  9340 |                 1272 |            1454027 |             0 |                0 |          561384 |                     0 |        426518 | 2017-02-08 15:15:13.6735+01

 2017-02-08 16:38:39.597882+01 | 1486568319.59788 |                 0 |              17 |                  9340 |                 1272 |            1454027 |             0 |                0 |          561384 |                     0 |        426659 | 2017-02-08 15:15:13.6735+01

 2017-02-08 16:38:40.733333+01 | 1486568320.73333 |                 0 |              17 |                  9340 |                 1272 |            1454027 |             0 |                0 |          561384 |                     0 |        426744 | 2017-02-08 15:15:13.6735+01

 2017-02-08 16:38:41.840211+01 | 1486568321.84021 |                 0 |              17 |                  9340 |                 1272 |            1454027 |             0 |                0 |          561384 |                     0 |        426816 | 2017-02-08 15:15:13.6735+01

 2017-02-08 16:38:42.942007+01 | 1486568322.94201 |                 0 |              17 |                  9340 |                 1272 |            1454027 |             0 |                0 |          561384 |                     0 |        426903 | 2017-02-08 15:15:13.6735+01

 2017-02-08 16:38:44.050273+01 | 1486568324.05027 |                 0 |              17 |                  9340 |                 1272 |            1454027 |             0 |                0 |          561384 |                     0 |        426977 | 2017-02-08 15:15:13.6735+01

 2017-02-08 16:38:45.152127+01 | 1486568325.15213 |                 0 |              17 |                  9340 |                 1272 |            1454027 |             0 |                0 |          561384 |                     0 |        427097 | 2017-02-08 15:15:13.6735+01

 2017-02-08 16:38:46.293164+01 | 1486568326.29316 |                 0 |              17 |                  9340 |                 1272 |            1454027 |             0 |                0 |          561384 |                     0 |        427245 | 2017-02-08 15:15:13.6735+01

 2017-02-08 16:38:47.36781+01 | 1486568327.36781 |                 0 |              17 |                  9340 |                 1272 |            1454027 |             0 |                0 |          561384 |                     0 |        427296 | 2017-02-08 15:15:13.6735+01

 2017-02-08 16:38:48.469918+01 | 1486568328.46992 |                 0 |              17 |                  9340 |                 1272 |            1454027 |             0 |                0 |          561384 |                     0 |        427367 | 2017-02-08 15:15:13.6735+01

 2017-02-08 16:38:49.561654+01 | 1486568329.56165 |                 0 |              17 |                  9340 |                 1272 |            1454027 |             0 |                0 |          561384 |                     0 |        427477 | 2017-02-08 15:15:13.6735+01

 2017-02-08 16:38:50.681288+01 | 1486568330.68129 |                 0 |              17 |                  9340 |                 1272 |            1454027 |             0 |                0 |          561384 |                     0 |        427569 | 2017-02-08 15:15:13.6735+01

 2017-02-08 16:38:51.771003+01 | 1486568331.771 |                 0 |              17 |                  9340 |                 1272 |            1454027 |             0 |                0 |          561384 |                     0 |        427695 | 2017-02-08 15:15:13.6735+01

 2017-02-08 16:38:52.879137+01 | 1486568332.87914 |                 0 |              17 |                  9340 |                 1272 |            1454027 |             0 |                0 |          561384 |                     0 |        427842 | 2017-02-08 15:15:13.6735+01

 2017-02-08 16:38:53.970923+01 | 1486568333.97092 |                 0 |              17 |                  9340 |                 1272 |            1454027 |             0 |                0 |          561384 |                     0 |        427845 | 2017-02-08 15:15:13.6735+01

 2017-02-08 16:38:55.063544+01 | 1486568335.06354 |                 0 |              17 |                  9340 |                 1272 |            1454027 |             0 |                0 |          561384 |                     0 |        427930 | 2017-02-08 15:15:13.6735+01

 2017-02-08 16:38:56.175359+01 | 1486568336.17536 |                 0 |              17 |                  9340 |                 1272 |            1454027 |             0 |                0 |          561384 |                     0 |        428074 | 2017-02-08 15:15:13.6735+01

 2017-02-08 16:38:57.289275+01 | 1486568337.28927 |                 0 |              17 |                  9340 |                 1272 |            1454027 |             0 |                0 |          561384 |                     0 |        428127 | 2017-02-08 15:15:13.6735+01

 2017-02-08 16:38:58.428917+01 | 1486568338.42892 |                 0 |              17 |                  9340 |                 1272 |            1454027 |             0 |                0 |          561384 |                     0 |        428198 | 2017-02-08 15:15:13.6735+01

 2017-02-08 16:38:59.54981+01 | 1486568339.54981 |                 0 |              17 |                  9340 |                 1272 |            1454027 |             0 |                0 |          561384 |                     0 |        428284 | 2017-02-08 15:15:13.6735+01

 2017-02-08 16:39:00.686677+01 | 1486568340.68668 |                 0 |              17 |                  9340 |                 1272 |            1454027 |             0 |                0 |          561384 |                     0 |        428420 | 2017-02-08 15:15:13.6735+01

 2017-02-08 16:39:01.797284+01 | 1486568341.79728 |                 0 |              17 |                  9340 |                 1272 |            1454027 |             0 |                0 |          561384 |                     0 |        428502 | 2017-02-08 15:15:13.6735+01

 2017-02-08 16:39:02.900333+01 | 1486568342.90033 |                 0 |              17 |                  9340 |                 1272 |            1454027 |             0 |                0 |          561384 |                     0 |        428594 | 2017-02-08 15:15:13.6735+01

 2017-02-08 16:39:04.051148+01 | 1486568344.05115 |                 0 |              17 |                  9340 |                 1272 |            1454027 |             0 |                0 |          561384 |                     0 |        428697 | 2017-02-08 15:15:13.6735+01

 2017-02-08 16:39:05.1672+01 | 1486568345.1672 |                 0 |              17 |                  9340 |                 1272 |            1454027 |             0 |                0 |          561384 |                     0 |        428771 | 2017-02-08 15:15:13.6735+01

 2017-02-08 16:39:06.274051+01 | 1486568346.27405 |                 0 |              17 |                  9340 |                 1272 |            1454027 |             0 |                0 |          561384 |                     0 |        428879 | 2017-02-08 15:15:13.6735+01

 2017-02-08 16:39:07.367867+01 | 1486568347.36787 |                 0 |              17 |                  9340 |                 1272 |            1454027 |             0 |                0 |          561384 |                     0 |        428969 | 2017-02-08 15:15:13.6735+01

 2017-02-08 16:39:08.483166+01 | 1486568348.48317 |                 0 |              17 |                  9340 |                 1272 |            1454027 |             0 |                0 |          561384 |                     0 |        429064 | 2017-02-08 15:15:13.6735+01

 2017-02-08 16:39:09.643323+01 | 1486568349.64332 |                 0 |              17 |                  9340 |                 1272 |            1454027 |             0 |                0 |          561384 |                     0 |        429147 | 2017-02-08 15:15:13.6735+01

 2017-02-08 16:39:10.735229+01 | 1486568350.73523 |                 0 |              17 |                  9340 |                 1272 |            1454027 |             0 |                0 |          561384 |                     0 |        429244 | 2017-02-08 15:15:13.6735+01

 2017-02-08 16:39:11.842015+01 | 1486568351.84202 |                 0 |              17 |                  9340 |                 1272 |            1454027 |             0 |                0 |          561384 |                     0 |        429344 | 2017-02-08 15:15:13.6735+01

 2017-02-08 16:39:12.942388+01 | 1486568352.94239 |                 0 |              17 |                  9340 |                 1272 |            1454027 |             0 |                0 |          561384 |                     0 |        429428 | 2017-02-08 15:15:13.6735+01

 2017-02-08 16:39:14.05913+01 | 1486568354.05913 |                 0 |              17 |                  9340 |                 1272 |            1454027 |             0 |                0 |          561384 |                     0 |        429528 | 2017-02-08 15:15:13.6735+01

 2017-02-08 16:39:15.148397+01 | 1486568355.1484 |                 0 |              17 |                  9340 |                 1272 |            1454027 |             0 |                0 |          561384 |                     0 |        429620 | 2017-02-08 15:15:13.6735+01

 2017-02-08 16:39:16.24352+01 | 1486568356.24352 |                 0 |              17 |                  9340 |                 1272 |            1454027 |             0 |                0 |          561384 |                     0 |        429718 | 2017-02-08 15:15:13.6735+01

 2017-02-08 16:39:17.353171+01 | 1486568357.35317 |                 0 |              17 |                  9340 |                 1272 |            1454027 |             0 |                0 |          561384 |                     0 |        429797 | 2017-02-08 15:15:13.6735+01

 2017-02-08 16:39:18.466883+01 | 1486568358.46688 |                 0 |              17 |                  9340 |                 1272 |            1454027 |             0 |                0 |          561384 |                     0 |        429892 | 2017-02-08 15:15:13.6735+01

 2017-02-08 16:39:19.626258+01 | 1486568359.62626 |                 0 |              17 |                  9340 |                 1272 |            1454027 |             0 |                0 |          561384 |                     0 |        429975 | 2017-02-08 15:15:13.6735+01

 2017-02-08 16:39:20.754665+01 | 1486568360.75466 |                 0 |              17 |                  9340 |                 1272 |            1454027 |             0 |                0 |          561384 |                     0 |        430076 | 2017-02-08 15:15:13.6735+01

 2017-02-08 16:39:21.881359+01 | 1486568361.88136 |                 0 |              17 |                  9340 |                 1272 |            1454027 |             0 |                0 |          561384 |                     0 |        430175 | 2017-02-08 15:15:13.6735+01

 2017-02-08 16:39:22.986703+01 | 1486568362.9867 |                 0 |              17 |                  9340 |                 1272 |            1454027 |             0 |                0 |          561384 |                     0 |        430262 | 2017-02-08 15:15:13.6735+01

 2017-02-08 16:39:24.100716+01 | 1486568364.10072 |                 0 |              17 |                  9340 |                 1272 |            1454027 |             0 |                0 |          561384 |                     0 |        430364 | 2017-02-08 15:15:13.6735+01

 2017-02-08 16:39:25.235835+01 | 1486568365.23584 |                 0 |              17 |                  9340 |                 1272 |            1454027 |             0 |                0 |          561384 |                     0 |        430443 | 2017-02-08 15:15:13.6735+01

 2017-02-08 16:39:26.332654+01 | 1486568366.33265 |                 0 |              17 |                  9340 |                 1272 |            1454027 |             0 |                0 |          561384 |                     0 |        430544 | 2017-02-08 15:15:13.6735+01

 2017-02-08 16:39:27.416626+01 | 1486568367.41663 |                 0 |              17 |                  9340 |                 1272 |            1454027 |             0 |                0 |          561384 |                     0 |        430626 | 2017-02-08 15:15:13.6735+01

 2017-02-08 16:39:28.520486+01 | 1486568368.52049 |                 0 |              17 |                  9340 |                 1272 |            1454027 |             0 |                0 |          561384 |                     0 |        430727 | 2017-02-08 15:15:13.6735+01

 2017-02-08 16:39:29.670621+01 | 1486568369.67062 |                 0 |              17 |                  9340 |                 1272 |            1454027 |             0 |                0 |          561384 |                     0 |        430828 | 2017-02-08 15:15:13.6735+01

 2017-02-08 16:39:30.8096+01 | 1486568370.8096 |                 0 |              17 |                  9340 |                 1272 |            1454027 |             0 |                0 |          561384 |                     0 |        430915 | 2017-02-08 15:15:13.6735+01

 2017-02-08 16:39:31.930054+01 | 1486568371.93005 |                 0 |              17 |                  9340 |                 1272 |            1454027 |             0 |                0 |          561384 |                     0 |        431016 | 2017-02-08 15:15:13.6735+01

 2017-02-08 16:39:33.023206+01 | 1486568373.02321 |                 0 |              17 |                  9340 |                 1272 |            1454027 |             0 |                0 |          561384 |                     0 |        431096 | 2017-02-08 15:15:13.6735+01

 2017-02-08 16:39:34.134429+01 | 1486568374.13443 |                 0 |              17 |                  9340 |                 1272 |            1454027 |             0 |                0 |          561384 |                     0 |        431200 | 2017-02-08 15:15:13.6735+01

 2017-02-08 16:39:35.227322+01 | 1486568375.22732 |                 0 |              17 |                  9340 |                 1272 |            1454027 |             0 |                0 |          561384 |                     0 |        431285 | 2017-02-08 15:15:13.6735+01

 2017-02-08 16:39:36.314746+01 | 1486568376.31475 |                 0 |              17 |                  9340 |                 1272 |            1454027 |             0 |                0 |          561384 |                     0 |        431410 | 2017-02-08 15:15:13.6735+01

 2017-02-08 16:39:37.404829+01 | 1486568377.40483 |                 0 |              17 |                  9340 |                 1272 |            1454027 |             0 |                0 |          561384 |                     0 |        431479 | 2017-02-08 15:15:13.6735+01

 2017-02-08 16:39:38.474635+01 | 1486568378.47463 |                 0 |              17 |                  9340 |                 1272 |            1454027 |             0 |                0 |          561384 |                     0 |        431557 | 2017-02-08 15:15:13.6735+01

 2017-02-08 16:39:39.57894+01 | 1486568379.57894 |                 0 |              17 |                  9340 |                 1272 |            1454027 |             0 |                0 |          561384 |                     0 |        431730 | 2017-02-08 15:15:13.6735+01

 2017-02-08 16:39:40.714486+01 | 1486568380.71449 |                 0 |              17 |                  9340 |                 1272 |            1454027 |             0 |                0 |          561384 |                     0 |        431758 | 2017-02-08 15:15:13.6735+01

 2017-02-08 16:39:41.842233+01 | 1486568381.84223 |                 0 |              17 |                  9340 |                 1272 |            1454027 |             0 |                0 |          561384 |                     0 |        431839 | 2017-02-08 15:15:13.6735+01

 2017-02-08 16:39:42.961215+01 | 1486568382.96122 |                 0 |              17 |                  9340 |                 1272 |            1454027 |             0 |                0 |          561384 |                     0 |        431934 | 2017-02-08 15:15:13.6735+01

 2017-02-08 16:39:44.076877+01 | 1486568384.07688 |                 0 |              17 |                  9340 |                 1272 |            1454027 |             0 |                0 |          561384 |                     0 |        432032 | 2017-02-08 15:15:13.6735+01

 2017-02-08 16:39:45.180896+01 | 1486568385.1809 |                 0 |              17 |                  9340 |                 1272 |            1454027 |             0 |                0 |          561384 |                     0 |        432116 | 2017-02-08 15:15:13.6735+01

 2017-02-08 16:39:46.283717+01 | 1486568386.28372 |                 0 |              17 |                  9340 |                 1272 |            1454027 |             0 |                0 |          561384 |                     0 |        432287 | 2017-02-08 15:15:13.6735+01

 2017-02-08 16:39:47.385558+01 | 1486568387.38556 |                 0 |              17 |                  9340 |                 1272 |            1454027 |             0 |                0 |          561384 |                     0 |        432289 | 2017-02-08 15:15:13.6735+01

 2017-02-08 16:39:48.484585+01 | 1486568388.48459 |                 0 |              17 |                  9340 |                 1272 |            1454027 |             0 |                0 |          561384 |                     0 |        432411 | 2017-02-08 15:15:13.6735+01

 2017-02-08 16:39:49.613632+01 | 1486568389.61363 |                 0 |              17 |                  9340 |                 1272 |            1454027 |             0 |                0 |          561384 |                     0 |        432499 | 2017-02-08 15:15:13.6735+01

 2017-02-08 16:39:50.710259+01 | 1486568390.71026 |                 0 |              17 |                  9340 |                 1272 |            1454027 |             0 |                0 |          561384 |                     0 |        432600 | 2017-02-08 15:15:13.6735+01

 2017-02-08 16:39:51.851023+01 | 1486568391.85102 |                 0 |              17 |                  9340 |                 1272 |            1454027 |             0 |                0 |          561384 |                     0 |        432676 | 2017-02-08 15:15:13.6735+01

 2017-02-08 16:39:52.985095+01 | 1486568392.9851 |                 0 |              17 |                  9340 |                 1272 |            1454027 |             0 |                0 |          561384 |                     0 |        432923 | 2017-02-08 15:15:13.6735+01

 2017-02-08 16:39:54.061337+01 | 1486568394.06134 |                 0 |              17 |                  9340 |                 1272 |            1454027 |             0 |                0 |          561384 |                     0 |        432935 | 2017-02-08 15:15:13.6735+01

 2017-02-08 16:39:55.203822+01 | 1486568395.20382 |                 0 |              17 |                  9340 |                 1272 |            1454027 |             0 |                0 |          561384 |                     0 |        433005 | 2017-02-08 15:15:13.6735+01

 2017-02-08 16:39:56.327663+01 | 1486568396.32766 |                 0 |              17 |                  9340 |                 1272 |            1454027 |             0 |                0 |          561384 |                     0 |        433059 | 2017-02-08 15:15:13.6735+01

 2017-02-08 16:39:57.409154+01 | 1486568397.40915 |                 0 |              17 |                  9340 |                 1272 |            1454027 |             0 |                0 |          561384 |                     0 |        433158 | 2017-02-08 15:15:13.6735+01

 2017-02-08 16:39:58.490505+01 | 1486568398.4905 |                 0 |              17 |                  9340 |                 1272 |            1454027 |             0 |                0 |          561384 |                     0 |        433237 | 2017-02-08 15:15:13.6735+01

 2017-02-08 16:39:59.569321+01 | 1486568399.56932 |                 0 |              17 |                  9340 |                 1272 |            1454027 |             0 |                0 |          561384 |                     0 |        433334 | 2017-02-08 15:15:13.6735+01

 2017-02-08 16:40:00.678808+01 | 1486568400.67881 |                 0 |              17 |                  9340 |                 1272 |            1454027 |             0 |                0 |          561384 |                     0 |        433413 | 2017-02-08 15:15:13.6735+01

 2017-02-08 16:40:01.801693+01 | 1486568401.80169 |                 0 |              17 |                  9340 |                 1272 |            1454027 |             0 |                0 |          561384 |                     0 |        433524 | 2017-02-08 15:15:13.6735+01

 2017-02-08 16:40:02.908705+01 | 1486568402.9087 |                 0 |              17 |                  9340 |                 1272 |            1454027 |             0 |                0 |          561384 |                     0 |        433611 | 2017-02-08 15:15:13.6735+01

 2017-02-08 16:40:03.9898+01 | 1486568403.9898 |                 0 |              17 |                  9340 |                 1272 |            1454027 |             0 |                0 |          561384 |                     0 |        433711 | 2017-02-08 15:15:13.6735+01

 2017-02-08 16:40:05.068649+01 | 1486568405.06865 |                 0 |              17 |                  9340 |                 1272 |            1454027 |             0 |                0 |          561384 |                     0 |        433797 | 2017-02-08 15:15:13.6735+01

 2017-02-08 16:40:06.165159+01 | 1486568406.16516 |                 0 |              17 |                  9340 |                 1272 |            1454027 |             0 |                0 |          561384 |                     0 |        433885 | 2017-02-08 15:15:13.6735+01

 2017-02-08 16:40:07.278321+01 | 1486568407.27832 |                 0 |              17 |                  9340 |                 1272 |            1454027 |             0 |                0 |          561384 |                     0 |        433990 | 2017-02-08 15:15:13.6735+01

 2017-02-08 16:40:08.361511+01 | 1486568408.36151 |                 0 |              17 |                  9340 |                 1272 |            1454027 |             0 |                0 |          561384 |                     0 |        434074 | 2017-02-08 15:15:13.6735+01

 2017-02-08 16:40:09.441686+01 | 1486568409.44169 |                 0 |              17 |                  9340 |                 1272 |            1454027 |             0 |                0 |          561384 |                     0 |        434177 | 2017-02-08 15:15:13.6735+01

 2017-02-08 16:40:10.559251+01 | 1486568410.55925 |                 0 |              17 |                  9340 |                 1272 |            1454027 |             0 |                0 |          561384 |                     0 |        434267 | 2017-02-08 15:15:13.6735+01

 2017-02-08 16:40:11.663146+01 | 1486568411.66315 |                 0 |              17 |                  9340 |                 1272 |            1454027 |             0 |                0 |          561384 |                     0 |        434365 | 2017-02-08 15:15:13.6735+01

 2017-02-08 16:40:12.754175+01 | 1486568412.75417 |                 0 |              17 |                  9340 |                 1272 |            1454027 |             0 |                0 |          561384 |                     0 |        434456 | 2017-02-08 15:15:13.6735+01

 2017-02-08 16:40:13.847224+01 | 1486568413.84722 |                 0 |              17 |                  9340 |                 1272 |            1454027 |             0 |                0 |          561384 |                     0 |        434560 | 2017-02-08 15:15:13.6735+01

 2017-02-08 16:40:14.946445+01 | 1486568414.94644 |                 0 |              17 |                  9340 |                 1272 |            1454027 |             0 |                0 |          561384 |                     0 |        434669 | 2017-02-08 15:15:13.6735+01

 2017-02-08 16:40:16.035689+01 | 1486568416.03569 |                 0 |              17 |                  9340 |                 1272 |            1454027 |             0 |                0 |          561384 |                     0 |        434727 | 2017-02-08 15:15:13.6735+01

 2017-02-08 16:40:17.170368+01 | 1486568417.17037 |                 0 |              17 |                  9340 |                 1272 |            1454027 |             0 |                0 |          561384 |                     0 |        434842 | 2017-02-08 15:15:13.6735+01

 2017-02-08 16:40:18.272519+01 | 1486568418.27252 |                 0 |              17 |                  9340 |                 1272 |            1454027 |             0 |                0 |          561384 |                     0 |        434936 | 2017-02-08 15:15:13.6735+01

 2017-02-08 16:40:19.379417+01 | 1486568419.37942 |                 0 |              17 |                  9340 |                 1272 |            1454027 |             0 |                0 |          561384 |                     0 |        435020 | 2017-02-08 15:15:13.6735+01

 2017-02-08 16:40:20.471497+01 | 1486568420.4715 |                 0 |              17 |                  9340 |                 1272 |            1454027 |             0 |                0 |          561384 |                     0 |        435121 | 2017-02-08 15:15:13.6735+01

 2017-02-08 16:40:21.56586+01 | 1486568421.56586 |                 0 |              17 |                  9340 |                 1272 |            1454027 |             0 |                0 |          561384 |                     0 |        435208 | 2017-02-08 15:15:13.6735+01

 2017-02-08 16:40:22.687008+01 | 1486568422.68701 |                 0 |              17 |                  9340 |                 1272 |            1454027 |             0 |                0 |          561384 |                     0 |        435309 | 2017-02-08 15:15:13.6735+01

 2017-02-08 16:40:23.775014+01 | 1486568423.77501 |                 0 |              17 |                  9340 |                 1272 |            1454027 |             0 |                0 |          561384 |                     0 |        435399 | 2017-02-08 15:15:13.6735+01

 2017-02-08 16:40:24.878577+01 | 1486568424.87858 |                 0 |              17 |                  9340 |                 1272 |            1454027 |             0 |                0 |          561384 |                     0 |        435502 | 2017-02-08 15:15:13.6735+01

 2017-02-08 16:40:26.004984+01 | 1486568426.00498 |                 0 |              17 |                  9340 |                 1272 |            1454027 |             0 |                0 |          561384 |                     0 |        435586 | 2017-02-08 15:15:13.6735+01

 2017-02-08 16:40:27.08841+01 | 1486568427.08841 |                 0 |              17 |                  9340 |                 1272 |            1454027 |             0 |                0 |          561384 |                     0 |        435690 | 2017-02-08 15:15:13.6735+01

 2017-02-08 16:40:28.161586+01 | 1486568428.16159 |                 0 |              17 |                  9340 |                 1272 |            1454027 |             0 |                0 |          561384 |                     0 |        435772 | 2017-02-08 15:15:13.6735+01

 2017-02-08 16:40:29.247836+01 | 1486568429.24784 |                 0 |              17 |                  9340 |                 1272 |            1454027 |             0 |                0 |          561384 |                     0 |        435857 | 2017-02-08 15:15:13.6735+01

 2017-02-08 16:40:30.341471+01 | 1486568430.34147 |                 0 |              17 |                  9340 |                 1272 |            1454027 |             0 |                0 |          561384 |                     0 |        435970 | 2017-02-08 15:15:13.6735+01

 2017-02-08 16:40:31.430924+01 | 1486568431.43092 |                 0 |              17 |                  9340 |                 1272 |            1454027 |             0 |                0 |          561384 |                     0 |        436037 | 2017-02-08 15:15:13.6735+01

 2017-02-08 16:40:32.545669+01 | 1486568432.54567 |                 0 |              17 |                  9340 |                 1272 |            1454027 |             0 |                0 |          561384 |                     0 |        436142 | 2017-02-08 15:15:13.6735+01

 2017-02-08 16:40:33.657821+01 | 1486568433.65782 |                 0 |              17 |                  9340 |                 1272 |            1454027 |             0 |                0 |          561384 |                     0 |        436230 | 2017-02-08 15:15:13.6735+01

 2017-02-08 16:40:34.770806+01 | 1486568434.77081 |                 0 |              17 |                  9340 |                 1272 |            1454027 |             0 |                0 |          561384 |                     0 |        436360 | 2017-02-08 15:15:13.6735+01

 2017-02-08 16:40:35.867525+01 | 1486568435.86753 |                 0 |              17 |                  9340 |                 1272 |            1454027 |             0 |                0 |          561384 |                     0 |        436466 | 2017-02-08 15:15:13.6735+01

