 2017-02-08 07:23:05.029181+01 | 1486534985.02918 | pgbench_branches_pkey |            40960
 2017-02-08 07:23:05.029181+01 | 1486534985.02918 | pgbench_tellers_pkey  |           188416
 2017-02-08 07:23:05.029181+01 | 1486534985.02918 | pgbench_accounts_pkey |        112336896

 2017-02-08 07:23:06.08372+01 | 1486534986.08372 | pgbench_branches_pkey |            40960
 2017-02-08 07:23:06.08372+01 | 1486534986.08372 | pgbench_tellers_pkey  |           188416
 2017-02-08 07:23:06.08372+01 | 1486534986.08372 | pgbench_accounts_pkey |        112336896

 2017-02-08 07:23:07.136539+01 | 1486534987.13654 | pgbench_branches_pkey |            40960
 2017-02-08 07:23:07.136539+01 | 1486534987.13654 | pgbench_tellers_pkey  |           188416
 2017-02-08 07:23:07.136539+01 | 1486534987.13654 | pgbench_accounts_pkey |        112336896

 2017-02-08 07:23:08.193813+01 | 1486534988.19381 | pgbench_branches_pkey |            40960
 2017-02-08 07:23:08.193813+01 | 1486534988.19381 | pgbench_tellers_pkey  |           188416
 2017-02-08 07:23:08.193813+01 | 1486534988.19381 | pgbench_accounts_pkey |        112336896

 2017-02-08 07:23:09.250496+01 | 1486534989.2505 | pgbench_branches_pkey |            40960
 2017-02-08 07:23:09.250496+01 | 1486534989.2505 | pgbench_tellers_pkey  |           188416
 2017-02-08 07:23:09.250496+01 | 1486534989.2505 | pgbench_accounts_pkey |        112336896

 2017-02-08 07:23:10.305078+01 | 1486534990.30508 | pgbench_branches_pkey |            40960
 2017-02-08 07:23:10.305078+01 | 1486534990.30508 | pgbench_tellers_pkey  |           188416
 2017-02-08 07:23:10.305078+01 | 1486534990.30508 | pgbench_accounts_pkey |        112336896

 2017-02-08 07:23:11.357789+01 | 1486534991.35779 | pgbench_branches_pkey |            40960
 2017-02-08 07:23:11.357789+01 | 1486534991.35779 | pgbench_tellers_pkey  |           188416
 2017-02-08 07:23:11.357789+01 | 1486534991.35779 | pgbench_accounts_pkey |        112336896

 2017-02-08 07:23:12.411721+01 | 1486534992.41172 | pgbench_branches_pkey |            40960
 2017-02-08 07:23:12.411721+01 | 1486534992.41172 | pgbench_tellers_pkey  |           188416
 2017-02-08 07:23:12.411721+01 | 1486534992.41172 | pgbench_accounts_pkey |        112336896

 2017-02-08 07:23:13.471599+01 | 1486534993.4716 | pgbench_branches_pkey |            40960
 2017-02-08 07:23:13.471599+01 | 1486534993.4716 | pgbench_tellers_pkey  |           188416
 2017-02-08 07:23:13.471599+01 | 1486534993.4716 | pgbench_accounts_pkey |        112336896

 2017-02-08 07:23:14.522975+01 | 1486534994.52297 | pgbench_branches_pkey |            40960
 2017-02-08 07:23:14.522975+01 | 1486534994.52297 | pgbench_tellers_pkey  |           188416
 2017-02-08 07:23:14.522975+01 | 1486534994.52297 | pgbench_accounts_pkey |        112336896

 2017-02-08 07:23:15.575723+01 | 1486534995.57572 | pgbench_branches_pkey |            40960
 2017-02-08 07:23:15.575723+01 | 1486534995.57572 | pgbench_tellers_pkey  |           188416
 2017-02-08 07:23:15.575723+01 | 1486534995.57572 | pgbench_accounts_pkey |        112336896

 2017-02-08 07:23:16.64078+01 | 1486534996.64078 | pgbench_branches_pkey |            40960
 2017-02-08 07:23:16.64078+01 | 1486534996.64078 | pgbench_tellers_pkey  |           188416
 2017-02-08 07:23:16.64078+01 | 1486534996.64078 | pgbench_accounts_pkey |        112336896

 2017-02-08 07:23:17.693335+01 | 1486534997.69334 | pgbench_branches_pkey |            40960
 2017-02-08 07:23:17.693335+01 | 1486534997.69334 | pgbench_tellers_pkey  |           188416
 2017-02-08 07:23:17.693335+01 | 1486534997.69334 | pgbench_accounts_pkey |        112336896

 2017-02-08 07:23:18.738872+01 | 1486534998.73887 | pgbench_branches_pkey |            40960
 2017-02-08 07:23:18.738872+01 | 1486534998.73887 | pgbench_tellers_pkey  |           188416
 2017-02-08 07:23:18.738872+01 | 1486534998.73887 | pgbench_accounts_pkey |        112336896

 2017-02-08 07:23:19.793255+01 | 1486534999.79326 | pgbench_branches_pkey |            40960
 2017-02-08 07:23:19.793255+01 | 1486534999.79326 | pgbench_tellers_pkey  |           188416
 2017-02-08 07:23:19.793255+01 | 1486534999.79326 | pgbench_accounts_pkey |        112336896

 2017-02-08 07:23:20.853358+01 | 1486535000.85336 | pgbench_branches_pkey |            40960
 2017-02-08 07:23:20.853358+01 | 1486535000.85336 | pgbench_tellers_pkey  |           188416
 2017-02-08 07:23:20.853358+01 | 1486535000.85336 | pgbench_accounts_pkey |        112336896

 2017-02-08 07:23:21.912693+01 | 1486535001.91269 | pgbench_branches_pkey |            40960
 2017-02-08 07:23:21.912693+01 | 1486535001.91269 | pgbench_tellers_pkey  |           188416
 2017-02-08 07:23:21.912693+01 | 1486535001.91269 | pgbench_accounts_pkey |        112336896

 2017-02-08 07:23:22.970981+01 | 1486535002.97098 | pgbench_branches_pkey |            40960
 2017-02-08 07:23:22.970981+01 | 1486535002.97098 | pgbench_tellers_pkey  |           188416
 2017-02-08 07:23:22.970981+01 | 1486535002.97098 | pgbench_accounts_pkey |        112336896

 2017-02-08 07:23:24.035843+01 | 1486535004.03584 | pgbench_branches_pkey |            40960
 2017-02-08 07:23:24.035843+01 | 1486535004.03584 | pgbench_tellers_pkey  |           188416
 2017-02-08 07:23:24.035843+01 | 1486535004.03584 | pgbench_accounts_pkey |        112336896

 2017-02-08 07:23:25.089341+01 | 1486535005.08934 | pgbench_branches_pkey |            40960
 2017-02-08 07:23:25.089341+01 | 1486535005.08934 | pgbench_tellers_pkey  |           188416
 2017-02-08 07:23:25.089341+01 | 1486535005.08934 | pgbench_accounts_pkey |        112336896

 2017-02-08 07:23:26.148162+01 | 1486535006.14816 | pgbench_branches_pkey |            40960
 2017-02-08 07:23:26.148162+01 | 1486535006.14816 | pgbench_tellers_pkey  |           188416
 2017-02-08 07:23:26.148162+01 | 1486535006.14816 | pgbench_accounts_pkey |        112336896

 2017-02-08 07:23:27.206219+01 | 1486535007.20622 | pgbench_branches_pkey |            40960
 2017-02-08 07:23:27.206219+01 | 1486535007.20622 | pgbench_tellers_pkey  |           188416
 2017-02-08 07:23:27.206219+01 | 1486535007.20622 | pgbench_accounts_pkey |        112336896

 2017-02-08 07:23:28.266882+01 | 1486535008.26688 | pgbench_branches_pkey |            40960
 2017-02-08 07:23:28.266882+01 | 1486535008.26688 | pgbench_tellers_pkey  |           188416
 2017-02-08 07:23:28.266882+01 | 1486535008.26688 | pgbench_accounts_pkey |        112336896

 2017-02-08 07:23:29.324173+01 | 1486535009.32417 | pgbench_branches_pkey |            40960
 2017-02-08 07:23:29.324173+01 | 1486535009.32417 | pgbench_tellers_pkey  |           188416
 2017-02-08 07:23:29.324173+01 | 1486535009.32417 | pgbench_accounts_pkey |        112336896

 2017-02-08 07:23:30.381698+01 | 1486535010.3817 | pgbench_branches_pkey |            40960
 2017-02-08 07:23:30.381698+01 | 1486535010.3817 | pgbench_tellers_pkey  |           188416
 2017-02-08 07:23:30.381698+01 | 1486535010.3817 | pgbench_accounts_pkey |        112336896

 2017-02-08 07:23:31.441873+01 | 1486535011.44187 | pgbench_branches_pkey |            40960
 2017-02-08 07:23:31.441873+01 | 1486535011.44187 | pgbench_tellers_pkey  |           188416
 2017-02-08 07:23:31.441873+01 | 1486535011.44187 | pgbench_accounts_pkey |        112336896

 2017-02-08 07:23:32.506986+01 | 1486535012.50699 | pgbench_branches_pkey |            40960
 2017-02-08 07:23:32.506986+01 | 1486535012.50699 | pgbench_tellers_pkey  |           188416
 2017-02-08 07:23:32.506986+01 | 1486535012.50699 | pgbench_accounts_pkey |        112336896

 2017-02-08 07:23:33.565595+01 | 1486535013.56559 | pgbench_branches_pkey |            40960
 2017-02-08 07:23:33.565595+01 | 1486535013.56559 | pgbench_tellers_pkey  |           188416
 2017-02-08 07:23:33.565595+01 | 1486535013.56559 | pgbench_accounts_pkey |        112336896

 2017-02-08 07:23:34.618822+01 | 1486535014.61882 | pgbench_branches_pkey |            40960
 2017-02-08 07:23:34.618822+01 | 1486535014.61882 | pgbench_tellers_pkey  |           188416
 2017-02-08 07:23:34.618822+01 | 1486535014.61882 | pgbench_accounts_pkey |        112336896

 2017-02-08 07:23:35.67549+01 | 1486535015.67549 | pgbench_branches_pkey |            40960
 2017-02-08 07:23:35.67549+01 | 1486535015.67549 | pgbench_tellers_pkey  |           188416
 2017-02-08 07:23:35.67549+01 | 1486535015.67549 | pgbench_accounts_pkey |        112336896

 2017-02-08 07:23:36.728792+01 | 1486535016.72879 | pgbench_branches_pkey |            40960
 2017-02-08 07:23:36.728792+01 | 1486535016.72879 | pgbench_tellers_pkey  |           188416
 2017-02-08 07:23:36.728792+01 | 1486535016.72879 | pgbench_accounts_pkey |        112336896

 2017-02-08 07:23:37.784399+01 | 1486535017.7844 | pgbench_branches_pkey |            40960
 2017-02-08 07:23:37.784399+01 | 1486535017.7844 | pgbench_tellers_pkey  |           188416
 2017-02-08 07:23:37.784399+01 | 1486535017.7844 | pgbench_accounts_pkey |        112336896

 2017-02-08 07:23:38.83721+01 | 1486535018.83721 | pgbench_branches_pkey |            40960
 2017-02-08 07:23:38.83721+01 | 1486535018.83721 | pgbench_tellers_pkey  |           188416
 2017-02-08 07:23:38.83721+01 | 1486535018.83721 | pgbench_accounts_pkey |        112336896

 2017-02-08 07:23:39.895397+01 | 1486535019.8954 | pgbench_branches_pkey |            40960
 2017-02-08 07:23:39.895397+01 | 1486535019.8954 | pgbench_tellers_pkey  |           188416
 2017-02-08 07:23:39.895397+01 | 1486535019.8954 | pgbench_accounts_pkey |        112336896

 2017-02-08 07:23:40.957684+01 | 1486535020.95768 | pgbench_branches_pkey |            40960
 2017-02-08 07:23:40.957684+01 | 1486535020.95768 | pgbench_tellers_pkey  |           188416
 2017-02-08 07:23:40.957684+01 | 1486535020.95768 | pgbench_accounts_pkey |        112336896

 2017-02-08 07:23:42.014413+01 | 1486535022.01441 | pgbench_branches_pkey |            40960
 2017-02-08 07:23:42.014413+01 | 1486535022.01441 | pgbench_tellers_pkey  |           188416
 2017-02-08 07:23:42.014413+01 | 1486535022.01441 | pgbench_accounts_pkey |        112336896

 2017-02-08 07:23:43.068335+01 | 1486535023.06834 | pgbench_branches_pkey |            40960
 2017-02-08 07:23:43.068335+01 | 1486535023.06834 | pgbench_tellers_pkey  |           188416
 2017-02-08 07:23:43.068335+01 | 1486535023.06834 | pgbench_accounts_pkey |        112336896

 2017-02-08 07:23:44.130621+01 | 1486535024.13062 | pgbench_branches_pkey |            40960
 2017-02-08 07:23:44.130621+01 | 1486535024.13062 | pgbench_tellers_pkey  |           188416
 2017-02-08 07:23:44.130621+01 | 1486535024.13062 | pgbench_accounts_pkey |        112336896

 2017-02-08 07:23:45.191767+01 | 1486535025.19177 | pgbench_branches_pkey |            40960
 2017-02-08 07:23:45.191767+01 | 1486535025.19177 | pgbench_tellers_pkey  |           188416
 2017-02-08 07:23:45.191767+01 | 1486535025.19177 | pgbench_accounts_pkey |        112336896

 2017-02-08 07:23:46.244125+01 | 1486535026.24412 | pgbench_branches_pkey |            40960
 2017-02-08 07:23:46.244125+01 | 1486535026.24412 | pgbench_tellers_pkey  |           188416
 2017-02-08 07:23:46.244125+01 | 1486535026.24412 | pgbench_accounts_pkey |        112336896

 2017-02-08 07:23:47.301992+01 | 1486535027.30199 | pgbench_branches_pkey |            40960
 2017-02-08 07:23:47.301992+01 | 1486535027.30199 | pgbench_tellers_pkey  |           188416
 2017-02-08 07:23:47.301992+01 | 1486535027.30199 | pgbench_accounts_pkey |        112336896

 2017-02-08 07:23:48.358731+01 | 1486535028.35873 | pgbench_branches_pkey |            40960
 2017-02-08 07:23:48.358731+01 | 1486535028.35873 | pgbench_tellers_pkey  |           188416
 2017-02-08 07:23:48.358731+01 | 1486535028.35873 | pgbench_accounts_pkey |        112336896

 2017-02-08 07:23:49.416597+01 | 1486535029.4166 | pgbench_branches_pkey |            40960
 2017-02-08 07:23:49.416597+01 | 1486535029.4166 | pgbench_tellers_pkey  |           188416
 2017-02-08 07:23:49.416597+01 | 1486535029.4166 | pgbench_accounts_pkey |        112336896

 2017-02-08 07:23:50.468449+01 | 1486535030.46845 | pgbench_branches_pkey |            40960
 2017-02-08 07:23:50.468449+01 | 1486535030.46845 | pgbench_tellers_pkey  |           188416
 2017-02-08 07:23:50.468449+01 | 1486535030.46845 | pgbench_accounts_pkey |        112336896

 2017-02-08 07:23:51.522949+01 | 1486535031.52295 | pgbench_branches_pkey |            40960
 2017-02-08 07:23:51.522949+01 | 1486535031.52295 | pgbench_tellers_pkey  |           188416
 2017-02-08 07:23:51.522949+01 | 1486535031.52295 | pgbench_accounts_pkey |        112336896

 2017-02-08 07:23:52.580907+01 | 1486535032.58091 | pgbench_branches_pkey |            40960
 2017-02-08 07:23:52.580907+01 | 1486535032.58091 | pgbench_tellers_pkey  |           188416
 2017-02-08 07:23:52.580907+01 | 1486535032.58091 | pgbench_accounts_pkey |        112336896

 2017-02-08 07:23:53.640236+01 | 1486535033.64024 | pgbench_branches_pkey |            40960
 2017-02-08 07:23:53.640236+01 | 1486535033.64024 | pgbench_tellers_pkey  |           188416
 2017-02-08 07:23:53.640236+01 | 1486535033.64024 | pgbench_accounts_pkey |        112336896

 2017-02-08 07:23:54.697695+01 | 1486535034.6977 | pgbench_branches_pkey |            40960
 2017-02-08 07:23:54.697695+01 | 1486535034.6977 | pgbench_tellers_pkey  |           188416
 2017-02-08 07:23:54.697695+01 | 1486535034.6977 | pgbench_accounts_pkey |        112336896

 2017-02-08 07:23:55.754099+01 | 1486535035.7541 | pgbench_branches_pkey |            40960
 2017-02-08 07:23:55.754099+01 | 1486535035.7541 | pgbench_tellers_pkey  |           188416
 2017-02-08 07:23:55.754099+01 | 1486535035.7541 | pgbench_accounts_pkey |        112336896

 2017-02-08 07:23:56.811565+01 | 1486535036.81156 | pgbench_branches_pkey |            40960
 2017-02-08 07:23:56.811565+01 | 1486535036.81156 | pgbench_tellers_pkey  |           188416
 2017-02-08 07:23:56.811565+01 | 1486535036.81156 | pgbench_accounts_pkey |        112336896

 2017-02-08 07:23:57.865364+01 | 1486535037.86536 | pgbench_branches_pkey |            40960
 2017-02-08 07:23:57.865364+01 | 1486535037.86536 | pgbench_tellers_pkey  |           188416
 2017-02-08 07:23:57.865364+01 | 1486535037.86536 | pgbench_accounts_pkey |        112336896

 2017-02-08 07:23:58.923388+01 | 1486535038.92339 | pgbench_branches_pkey |            40960
 2017-02-08 07:23:58.923388+01 | 1486535038.92339 | pgbench_tellers_pkey  |           188416
 2017-02-08 07:23:58.923388+01 | 1486535038.92339 | pgbench_accounts_pkey |        112336896

 2017-02-08 07:23:59.976061+01 | 1486535039.97606 | pgbench_branches_pkey |            40960
 2017-02-08 07:23:59.976061+01 | 1486535039.97606 | pgbench_tellers_pkey  |           188416
 2017-02-08 07:23:59.976061+01 | 1486535039.97606 | pgbench_accounts_pkey |        112336896

 2017-02-08 07:24:01.037291+01 | 1486535041.03729 | pgbench_branches_pkey |            40960
 2017-02-08 07:24:01.037291+01 | 1486535041.03729 | pgbench_tellers_pkey  |           188416
 2017-02-08 07:24:01.037291+01 | 1486535041.03729 | pgbench_accounts_pkey |        112336896

 2017-02-08 07:24:02.099291+01 | 1486535042.09929 | pgbench_branches_pkey |            40960
 2017-02-08 07:24:02.099291+01 | 1486535042.09929 | pgbench_tellers_pkey  |           188416
 2017-02-08 07:24:02.099291+01 | 1486535042.09929 | pgbench_accounts_pkey |        112336896

 2017-02-08 07:24:03.159945+01 | 1486535043.15995 | pgbench_branches_pkey |            40960
 2017-02-08 07:24:03.159945+01 | 1486535043.15995 | pgbench_tellers_pkey  |           188416
 2017-02-08 07:24:03.159945+01 | 1486535043.15995 | pgbench_accounts_pkey |        112336896

 2017-02-08 07:24:04.215219+01 | 1486535044.21522 | pgbench_branches_pkey |            40960
 2017-02-08 07:24:04.215219+01 | 1486535044.21522 | pgbench_tellers_pkey  |           188416
 2017-02-08 07:24:04.215219+01 | 1486535044.21522 | pgbench_accounts_pkey |        112336896

 2017-02-08 07:24:05.275742+01 | 1486535045.27574 | pgbench_branches_pkey |            40960
 2017-02-08 07:24:05.275742+01 | 1486535045.27574 | pgbench_tellers_pkey  |           188416
 2017-02-08 07:24:05.275742+01 | 1486535045.27574 | pgbench_accounts_pkey |        112336896

 2017-02-08 07:24:06.335705+01 | 1486535046.33571 | pgbench_branches_pkey |            40960
 2017-02-08 07:24:06.335705+01 | 1486535046.33571 | pgbench_tellers_pkey  |           188416
 2017-02-08 07:24:06.335705+01 | 1486535046.33571 | pgbench_accounts_pkey |        112336896

 2017-02-08 07:24:07.393698+01 | 1486535047.3937 | pgbench_branches_pkey |            40960
 2017-02-08 07:24:07.393698+01 | 1486535047.3937 | pgbench_tellers_pkey  |           188416
 2017-02-08 07:24:07.393698+01 | 1486535047.3937 | pgbench_accounts_pkey |        112336896

 2017-02-08 07:24:08.451077+01 | 1486535048.45108 | pgbench_branches_pkey |            40960
 2017-02-08 07:24:08.451077+01 | 1486535048.45108 | pgbench_tellers_pkey  |           188416
 2017-02-08 07:24:08.451077+01 | 1486535048.45108 | pgbench_accounts_pkey |        112336896

 2017-02-08 07:24:09.513718+01 | 1486535049.51372 | pgbench_branches_pkey |            40960
 2017-02-08 07:24:09.513718+01 | 1486535049.51372 | pgbench_tellers_pkey  |           188416
 2017-02-08 07:24:09.513718+01 | 1486535049.51372 | pgbench_accounts_pkey |        112336896

 2017-02-08 07:24:10.571773+01 | 1486535050.57177 | pgbench_branches_pkey |            40960
 2017-02-08 07:24:10.571773+01 | 1486535050.57177 | pgbench_tellers_pkey  |           188416
 2017-02-08 07:24:10.571773+01 | 1486535050.57177 | pgbench_accounts_pkey |        112336896

 2017-02-08 07:24:11.625623+01 | 1486535051.62562 | pgbench_branches_pkey |            40960
 2017-02-08 07:24:11.625623+01 | 1486535051.62562 | pgbench_tellers_pkey  |           188416
 2017-02-08 07:24:11.625623+01 | 1486535051.62562 | pgbench_accounts_pkey |        112336896

 2017-02-08 07:24:12.680079+01 | 1486535052.68008 | pgbench_branches_pkey |            40960
 2017-02-08 07:24:12.680079+01 | 1486535052.68008 | pgbench_tellers_pkey  |           188416
 2017-02-08 07:24:12.680079+01 | 1486535052.68008 | pgbench_accounts_pkey |        112336896

 2017-02-08 07:24:13.740749+01 | 1486535053.74075 | pgbench_branches_pkey |            40960
 2017-02-08 07:24:13.740749+01 | 1486535053.74075 | pgbench_tellers_pkey  |           188416
 2017-02-08 07:24:13.740749+01 | 1486535053.74075 | pgbench_accounts_pkey |        112336896

 2017-02-08 07:24:14.793979+01 | 1486535054.79398 | pgbench_branches_pkey |            40960
 2017-02-08 07:24:14.793979+01 | 1486535054.79398 | pgbench_tellers_pkey  |           188416
 2017-02-08 07:24:14.793979+01 | 1486535054.79398 | pgbench_accounts_pkey |        112336896

 2017-02-08 07:24:15.847757+01 | 1486535055.84776 | pgbench_branches_pkey |            40960
 2017-02-08 07:24:15.847757+01 | 1486535055.84776 | pgbench_tellers_pkey  |           188416
 2017-02-08 07:24:15.847757+01 | 1486535055.84776 | pgbench_accounts_pkey |        112336896

 2017-02-08 07:24:16.911988+01 | 1486535056.91199 | pgbench_branches_pkey |            40960
 2017-02-08 07:24:16.911988+01 | 1486535056.91199 | pgbench_tellers_pkey  |           188416
 2017-02-08 07:24:16.911988+01 | 1486535056.91199 | pgbench_accounts_pkey |        112336896

 2017-02-08 07:24:17.970673+01 | 1486535057.97067 | pgbench_branches_pkey |            40960
 2017-02-08 07:24:17.970673+01 | 1486535057.97067 | pgbench_tellers_pkey  |           188416
 2017-02-08 07:24:17.970673+01 | 1486535057.97067 | pgbench_accounts_pkey |        112336896

 2017-02-08 07:24:19.01507+01 | 1486535059.01507 | pgbench_branches_pkey |            40960
 2017-02-08 07:24:19.01507+01 | 1486535059.01507 | pgbench_tellers_pkey  |           188416
 2017-02-08 07:24:19.01507+01 | 1486535059.01507 | pgbench_accounts_pkey |        112336896

 2017-02-08 07:24:20.074897+01 | 1486535060.0749 | pgbench_branches_pkey |            40960
 2017-02-08 07:24:20.074897+01 | 1486535060.0749 | pgbench_tellers_pkey  |           188416
 2017-02-08 07:24:20.074897+01 | 1486535060.0749 | pgbench_accounts_pkey |        112336896

 2017-02-08 07:24:21.131319+01 | 1486535061.13132 | pgbench_branches_pkey |            40960
 2017-02-08 07:24:21.131319+01 | 1486535061.13132 | pgbench_tellers_pkey  |           188416
 2017-02-08 07:24:21.131319+01 | 1486535061.13132 | pgbench_accounts_pkey |        112336896

 2017-02-08 07:24:22.189439+01 | 1486535062.18944 | pgbench_branches_pkey |            40960
 2017-02-08 07:24:22.189439+01 | 1486535062.18944 | pgbench_tellers_pkey  |           188416
 2017-02-08 07:24:22.189439+01 | 1486535062.18944 | pgbench_accounts_pkey |        112336896

 2017-02-08 07:24:23.247367+01 | 1486535063.24737 | pgbench_branches_pkey |            40960
 2017-02-08 07:24:23.247367+01 | 1486535063.24737 | pgbench_tellers_pkey  |           188416
 2017-02-08 07:24:23.247367+01 | 1486535063.24737 | pgbench_accounts_pkey |        112336896

 2017-02-08 07:24:24.30142+01 | 1486535064.30142 | pgbench_branches_pkey |            40960
 2017-02-08 07:24:24.30142+01 | 1486535064.30142 | pgbench_tellers_pkey  |           188416
 2017-02-08 07:24:24.30142+01 | 1486535064.30142 | pgbench_accounts_pkey |        112336896

 2017-02-08 07:24:25.366816+01 | 1486535065.36682 | pgbench_branches_pkey |            40960
 2017-02-08 07:24:25.366816+01 | 1486535065.36682 | pgbench_tellers_pkey  |           188416
 2017-02-08 07:24:25.366816+01 | 1486535065.36682 | pgbench_accounts_pkey |        112336896

 2017-02-08 07:24:26.421427+01 | 1486535066.42143 | pgbench_branches_pkey |            40960
 2017-02-08 07:24:26.421427+01 | 1486535066.42143 | pgbench_tellers_pkey  |           188416
 2017-02-08 07:24:26.421427+01 | 1486535066.42143 | pgbench_accounts_pkey |        112336896

 2017-02-08 07:24:27.475674+01 | 1486535067.47567 | pgbench_branches_pkey |            40960
 2017-02-08 07:24:27.475674+01 | 1486535067.47567 | pgbench_tellers_pkey  |           188416
 2017-02-08 07:24:27.475674+01 | 1486535067.47567 | pgbench_accounts_pkey |        112336896

 2017-02-08 07:24:28.532573+01 | 1486535068.53257 | pgbench_branches_pkey |            40960
 2017-02-08 07:24:28.532573+01 | 1486535068.53257 | pgbench_tellers_pkey  |           188416
 2017-02-08 07:24:28.532573+01 | 1486535068.53257 | pgbench_accounts_pkey |        112336896

 2017-02-08 07:24:29.589107+01 | 1486535069.58911 | pgbench_branches_pkey |            40960
 2017-02-08 07:24:29.589107+01 | 1486535069.58911 | pgbench_tellers_pkey  |           188416
 2017-02-08 07:24:29.589107+01 | 1486535069.58911 | pgbench_accounts_pkey |        112336896

 2017-02-08 07:24:30.64589+01 | 1486535070.64589 | pgbench_branches_pkey |            40960
 2017-02-08 07:24:30.64589+01 | 1486535070.64589 | pgbench_tellers_pkey  |           188416
 2017-02-08 07:24:30.64589+01 | 1486535070.64589 | pgbench_accounts_pkey |        112336896

 2017-02-08 07:24:31.701941+01 | 1486535071.70194 | pgbench_branches_pkey |            40960
 2017-02-08 07:24:31.701941+01 | 1486535071.70194 | pgbench_tellers_pkey  |           188416
 2017-02-08 07:24:31.701941+01 | 1486535071.70194 | pgbench_accounts_pkey |        112336896

 2017-02-08 07:24:32.758573+01 | 1486535072.75857 | pgbench_branches_pkey |            40960
 2017-02-08 07:24:32.758573+01 | 1486535072.75857 | pgbench_tellers_pkey  |           188416
 2017-02-08 07:24:32.758573+01 | 1486535072.75857 | pgbench_accounts_pkey |        112336896

 2017-02-08 07:24:33.812645+01 | 1486535073.81264 | pgbench_branches_pkey |            40960
 2017-02-08 07:24:33.812645+01 | 1486535073.81264 | pgbench_tellers_pkey  |           188416
 2017-02-08 07:24:33.812645+01 | 1486535073.81264 | pgbench_accounts_pkey |        112336896

 2017-02-08 07:24:34.86945+01 | 1486535074.86945 | pgbench_branches_pkey |            40960
 2017-02-08 07:24:34.86945+01 | 1486535074.86945 | pgbench_tellers_pkey  |           188416
 2017-02-08 07:24:34.86945+01 | 1486535074.86945 | pgbench_accounts_pkey |        112336896

 2017-02-08 07:24:35.919498+01 | 1486535075.9195 | pgbench_branches_pkey |            40960
 2017-02-08 07:24:35.919498+01 | 1486535075.9195 | pgbench_tellers_pkey  |           188416
 2017-02-08 07:24:35.919498+01 | 1486535075.9195 | pgbench_accounts_pkey |        112336896

 2017-02-08 07:24:36.974222+01 | 1486535076.97422 | pgbench_branches_pkey |            40960
 2017-02-08 07:24:36.974222+01 | 1486535076.97422 | pgbench_tellers_pkey  |           188416
 2017-02-08 07:24:36.974222+01 | 1486535076.97422 | pgbench_accounts_pkey |        112336896

 2017-02-08 07:24:38.033659+01 | 1486535078.03366 | pgbench_branches_pkey |            40960
 2017-02-08 07:24:38.033659+01 | 1486535078.03366 | pgbench_tellers_pkey  |           188416
 2017-02-08 07:24:38.033659+01 | 1486535078.03366 | pgbench_accounts_pkey |        112336896

 2017-02-08 07:24:39.091284+01 | 1486535079.09128 | pgbench_branches_pkey |            40960
 2017-02-08 07:24:39.091284+01 | 1486535079.09128 | pgbench_tellers_pkey  |           188416
 2017-02-08 07:24:39.091284+01 | 1486535079.09128 | pgbench_accounts_pkey |        112336896

 2017-02-08 07:24:40.150514+01 | 1486535080.15051 | pgbench_branches_pkey |            40960
 2017-02-08 07:24:40.150514+01 | 1486535080.15051 | pgbench_tellers_pkey  |           188416
 2017-02-08 07:24:40.150514+01 | 1486535080.15051 | pgbench_accounts_pkey |        112336896

 2017-02-08 07:24:41.207743+01 | 1486535081.20774 | pgbench_branches_pkey |            40960
 2017-02-08 07:24:41.207743+01 | 1486535081.20774 | pgbench_tellers_pkey  |           188416
 2017-02-08 07:24:41.207743+01 | 1486535081.20774 | pgbench_accounts_pkey |        112336896

 2017-02-08 07:24:42.262589+01 | 1486535082.26259 | pgbench_branches_pkey |            40960
 2017-02-08 07:24:42.262589+01 | 1486535082.26259 | pgbench_tellers_pkey  |           188416
 2017-02-08 07:24:42.262589+01 | 1486535082.26259 | pgbench_accounts_pkey |        112336896

 2017-02-08 07:24:43.319848+01 | 1486535083.31985 | pgbench_branches_pkey |            40960
 2017-02-08 07:24:43.319848+01 | 1486535083.31985 | pgbench_tellers_pkey  |           188416
 2017-02-08 07:24:43.319848+01 | 1486535083.31985 | pgbench_accounts_pkey |        112336896

 2017-02-08 07:24:44.376568+01 | 1486535084.37657 | pgbench_branches_pkey |            40960
 2017-02-08 07:24:44.376568+01 | 1486535084.37657 | pgbench_tellers_pkey  |           188416
 2017-02-08 07:24:44.376568+01 | 1486535084.37657 | pgbench_accounts_pkey |        112336896

 2017-02-08 07:24:45.441306+01 | 1486535085.44131 | pgbench_branches_pkey |            40960
 2017-02-08 07:24:45.441306+01 | 1486535085.44131 | pgbench_tellers_pkey  |           188416
 2017-02-08 07:24:45.441306+01 | 1486535085.44131 | pgbench_accounts_pkey |        112336896

 2017-02-08 07:24:46.497426+01 | 1486535086.49743 | pgbench_branches_pkey |            40960
 2017-02-08 07:24:46.497426+01 | 1486535086.49743 | pgbench_tellers_pkey  |           188416
 2017-02-08 07:24:46.497426+01 | 1486535086.49743 | pgbench_accounts_pkey |        112336896

 2017-02-08 07:24:47.561263+01 | 1486535087.56126 | pgbench_branches_pkey |            40960
 2017-02-08 07:24:47.561263+01 | 1486535087.56126 | pgbench_tellers_pkey  |           188416
 2017-02-08 07:24:47.561263+01 | 1486535087.56126 | pgbench_accounts_pkey |        112336896

 2017-02-08 07:24:48.617215+01 | 1486535088.61721 | pgbench_branches_pkey |            40960
 2017-02-08 07:24:48.617215+01 | 1486535088.61721 | pgbench_tellers_pkey  |           188416
 2017-02-08 07:24:48.617215+01 | 1486535088.61721 | pgbench_accounts_pkey |        112336896

 2017-02-08 07:24:49.672135+01 | 1486535089.67214 | pgbench_branches_pkey |            40960
 2017-02-08 07:24:49.672135+01 | 1486535089.67214 | pgbench_tellers_pkey  |           188416
 2017-02-08 07:24:49.672135+01 | 1486535089.67214 | pgbench_accounts_pkey |        112336896

 2017-02-08 07:24:50.724385+01 | 1486535090.72439 | pgbench_branches_pkey |            40960
 2017-02-08 07:24:50.724385+01 | 1486535090.72439 | pgbench_tellers_pkey  |           188416
 2017-02-08 07:24:50.724385+01 | 1486535090.72439 | pgbench_accounts_pkey |        112336896

 2017-02-08 07:24:51.784549+01 | 1486535091.78455 | pgbench_branches_pkey |            40960
 2017-02-08 07:24:51.784549+01 | 1486535091.78455 | pgbench_tellers_pkey  |           188416
 2017-02-08 07:24:51.784549+01 | 1486535091.78455 | pgbench_accounts_pkey |        112336896

 2017-02-08 07:24:52.838355+01 | 1486535092.83836 | pgbench_branches_pkey |            40960
 2017-02-08 07:24:52.838355+01 | 1486535092.83836 | pgbench_tellers_pkey  |           188416
 2017-02-08 07:24:52.838355+01 | 1486535092.83836 | pgbench_accounts_pkey |        112336896

 2017-02-08 07:24:53.892203+01 | 1486535093.8922 | pgbench_branches_pkey |            40960
 2017-02-08 07:24:53.892203+01 | 1486535093.8922 | pgbench_tellers_pkey  |           188416
 2017-02-08 07:24:53.892203+01 | 1486535093.8922 | pgbench_accounts_pkey |        112336896

 2017-02-08 07:24:54.948144+01 | 1486535094.94814 | pgbench_branches_pkey |            40960
 2017-02-08 07:24:54.948144+01 | 1486535094.94814 | pgbench_tellers_pkey  |           188416
 2017-02-08 07:24:54.948144+01 | 1486535094.94814 | pgbench_accounts_pkey |        112336896

 2017-02-08 07:24:56.01068+01 | 1486535096.01068 | pgbench_branches_pkey |            40960
 2017-02-08 07:24:56.01068+01 | 1486535096.01068 | pgbench_tellers_pkey  |           188416
 2017-02-08 07:24:56.01068+01 | 1486535096.01068 | pgbench_accounts_pkey |        112336896

 2017-02-08 07:24:57.064967+01 | 1486535097.06497 | pgbench_branches_pkey |            40960
 2017-02-08 07:24:57.064967+01 | 1486535097.06497 | pgbench_tellers_pkey  |           188416
 2017-02-08 07:24:57.064967+01 | 1486535097.06497 | pgbench_accounts_pkey |        112336896

 2017-02-08 07:24:58.123823+01 | 1486535098.12382 | pgbench_branches_pkey |            40960
 2017-02-08 07:24:58.123823+01 | 1486535098.12382 | pgbench_tellers_pkey  |           188416
 2017-02-08 07:24:58.123823+01 | 1486535098.12382 | pgbench_accounts_pkey |        112336896

 2017-02-08 07:24:59.179225+01 | 1486535099.17922 | pgbench_branches_pkey |            40960
 2017-02-08 07:24:59.179225+01 | 1486535099.17922 | pgbench_tellers_pkey  |           188416
 2017-02-08 07:24:59.179225+01 | 1486535099.17922 | pgbench_accounts_pkey |        112336896

 2017-02-08 07:25:00.236261+01 | 1486535100.23626 | pgbench_branches_pkey |            40960
 2017-02-08 07:25:00.236261+01 | 1486535100.23626 | pgbench_tellers_pkey  |           188416
 2017-02-08 07:25:00.236261+01 | 1486535100.23626 | pgbench_accounts_pkey |        112336896

 2017-02-08 07:25:01.298917+01 | 1486535101.29892 | pgbench_branches_pkey |            40960
 2017-02-08 07:25:01.298917+01 | 1486535101.29892 | pgbench_tellers_pkey  |           188416
 2017-02-08 07:25:01.298917+01 | 1486535101.29892 | pgbench_accounts_pkey |        112336896

 2017-02-08 07:25:02.354399+01 | 1486535102.3544 | pgbench_branches_pkey |            40960
 2017-02-08 07:25:02.354399+01 | 1486535102.3544 | pgbench_tellers_pkey  |           188416
 2017-02-08 07:25:02.354399+01 | 1486535102.3544 | pgbench_accounts_pkey |        112336896

 2017-02-08 07:25:03.414503+01 | 1486535103.4145 | pgbench_branches_pkey |            40960
 2017-02-08 07:25:03.414503+01 | 1486535103.4145 | pgbench_tellers_pkey  |           188416
 2017-02-08 07:25:03.414503+01 | 1486535103.4145 | pgbench_accounts_pkey |        112336896

 2017-02-08 07:25:04.476318+01 | 1486535104.47632 | pgbench_branches_pkey |            40960
 2017-02-08 07:25:04.476318+01 | 1486535104.47632 | pgbench_tellers_pkey  |           188416
 2017-02-08 07:25:04.476318+01 | 1486535104.47632 | pgbench_accounts_pkey |        112336896

 2017-02-08 07:25:05.534451+01 | 1486535105.53445 | pgbench_branches_pkey |            40960
 2017-02-08 07:25:05.534451+01 | 1486535105.53445 | pgbench_tellers_pkey  |           188416
 2017-02-08 07:25:05.534451+01 | 1486535105.53445 | pgbench_accounts_pkey |        112336896

 2017-02-08 07:25:06.591866+01 | 1486535106.59187 | pgbench_branches_pkey |            40960
 2017-02-08 07:25:06.591866+01 | 1486535106.59187 | pgbench_tellers_pkey  |           188416
 2017-02-08 07:25:06.591866+01 | 1486535106.59187 | pgbench_accounts_pkey |        112336896

 2017-02-08 07:25:07.647867+01 | 1486535107.64787 | pgbench_branches_pkey |            40960
 2017-02-08 07:25:07.647867+01 | 1486535107.64787 | pgbench_tellers_pkey  |           188416
 2017-02-08 07:25:07.647867+01 | 1486535107.64787 | pgbench_accounts_pkey |        112336896

 2017-02-08 07:25:08.699944+01 | 1486535108.69994 | pgbench_branches_pkey |            40960
 2017-02-08 07:25:08.699944+01 | 1486535108.69994 | pgbench_tellers_pkey  |           188416
 2017-02-08 07:25:08.699944+01 | 1486535108.69994 | pgbench_accounts_pkey |        112336896

 2017-02-08 07:25:09.758486+01 | 1486535109.75849 | pgbench_branches_pkey |            40960
 2017-02-08 07:25:09.758486+01 | 1486535109.75849 | pgbench_tellers_pkey  |           188416
 2017-02-08 07:25:09.758486+01 | 1486535109.75849 | pgbench_accounts_pkey |        112336896

 2017-02-08 07:25:10.813441+01 | 1486535110.81344 | pgbench_branches_pkey |            40960
 2017-02-08 07:25:10.813441+01 | 1486535110.81344 | pgbench_tellers_pkey  |           188416
 2017-02-08 07:25:10.813441+01 | 1486535110.81344 | pgbench_accounts_pkey |        112336896

 2017-02-08 07:25:11.871606+01 | 1486535111.87161 | pgbench_branches_pkey |            40960
 2017-02-08 07:25:11.871606+01 | 1486535111.87161 | pgbench_tellers_pkey  |           188416
 2017-02-08 07:25:11.871606+01 | 1486535111.87161 | pgbench_accounts_pkey |        112336896

 2017-02-08 07:25:12.931713+01 | 1486535112.93171 | pgbench_branches_pkey |            40960
 2017-02-08 07:25:12.931713+01 | 1486535112.93171 | pgbench_tellers_pkey  |           188416
 2017-02-08 07:25:12.931713+01 | 1486535112.93171 | pgbench_accounts_pkey |        112336896

 2017-02-08 07:25:13.987816+01 | 1486535113.98782 | pgbench_branches_pkey |            40960
 2017-02-08 07:25:13.987816+01 | 1486535113.98782 | pgbench_tellers_pkey  |           188416
 2017-02-08 07:25:13.987816+01 | 1486535113.98782 | pgbench_accounts_pkey |        112336896

 2017-02-08 07:25:15.047985+01 | 1486535115.04799 | pgbench_branches_pkey |            40960
 2017-02-08 07:25:15.047985+01 | 1486535115.04799 | pgbench_tellers_pkey  |           188416
 2017-02-08 07:25:15.047985+01 | 1486535115.04799 | pgbench_accounts_pkey |        112336896

 2017-02-08 07:25:16.105912+01 | 1486535116.10591 | pgbench_branches_pkey |            40960
 2017-02-08 07:25:16.105912+01 | 1486535116.10591 | pgbench_tellers_pkey  |           188416
 2017-02-08 07:25:16.105912+01 | 1486535116.10591 | pgbench_accounts_pkey |        112336896

 2017-02-08 07:25:17.166172+01 | 1486535117.16617 | pgbench_branches_pkey |            40960
 2017-02-08 07:25:17.166172+01 | 1486535117.16617 | pgbench_tellers_pkey  |           188416
 2017-02-08 07:25:17.166172+01 | 1486535117.16617 | pgbench_accounts_pkey |        112336896

 2017-02-08 07:25:18.228459+01 | 1486535118.22846 | pgbench_branches_pkey |            40960
 2017-02-08 07:25:18.228459+01 | 1486535118.22846 | pgbench_tellers_pkey  |           188416
 2017-02-08 07:25:18.228459+01 | 1486535118.22846 | pgbench_accounts_pkey |        112336896

 2017-02-08 07:25:19.288577+01 | 1486535119.28858 | pgbench_branches_pkey |            40960
 2017-02-08 07:25:19.288577+01 | 1486535119.28858 | pgbench_tellers_pkey  |           188416
 2017-02-08 07:25:19.288577+01 | 1486535119.28858 | pgbench_accounts_pkey |        112336896

 2017-02-08 07:25:20.34452+01 | 1486535120.34452 | pgbench_branches_pkey |            40960
 2017-02-08 07:25:20.34452+01 | 1486535120.34452 | pgbench_tellers_pkey  |           188416
 2017-02-08 07:25:20.34452+01 | 1486535120.34452 | pgbench_accounts_pkey |        112336896

 2017-02-08 07:25:21.41043+01 | 1486535121.41043 | pgbench_branches_pkey |            40960
 2017-02-08 07:25:21.41043+01 | 1486535121.41043 | pgbench_tellers_pkey  |           188416
 2017-02-08 07:25:21.41043+01 | 1486535121.41043 | pgbench_accounts_pkey |        112336896

 2017-02-08 07:25:22.463855+01 | 1486535122.46386 | pgbench_branches_pkey |            40960
 2017-02-08 07:25:22.463855+01 | 1486535122.46386 | pgbench_tellers_pkey  |           188416
 2017-02-08 07:25:22.463855+01 | 1486535122.46386 | pgbench_accounts_pkey |        112336896

 2017-02-08 07:25:23.520993+01 | 1486535123.52099 | pgbench_branches_pkey |            40960
 2017-02-08 07:25:23.520993+01 | 1486535123.52099 | pgbench_tellers_pkey  |           188416
 2017-02-08 07:25:23.520993+01 | 1486535123.52099 | pgbench_accounts_pkey |        112336896

 2017-02-08 07:25:24.569251+01 | 1486535124.56925 | pgbench_branches_pkey |            40960
 2017-02-08 07:25:24.569251+01 | 1486535124.56925 | pgbench_tellers_pkey  |           188416
 2017-02-08 07:25:24.569251+01 | 1486535124.56925 | pgbench_accounts_pkey |        112336896

 2017-02-08 07:25:25.627493+01 | 1486535125.62749 | pgbench_branches_pkey |            40960
 2017-02-08 07:25:25.627493+01 | 1486535125.62749 | pgbench_tellers_pkey  |           188416
 2017-02-08 07:25:25.627493+01 | 1486535125.62749 | pgbench_accounts_pkey |        112336896

 2017-02-08 07:25:26.682023+01 | 1486535126.68202 | pgbench_branches_pkey |            40960
 2017-02-08 07:25:26.682023+01 | 1486535126.68202 | pgbench_tellers_pkey  |           188416
 2017-02-08 07:25:26.682023+01 | 1486535126.68202 | pgbench_accounts_pkey |        112336896

 2017-02-08 07:25:27.736143+01 | 1486535127.73614 | pgbench_branches_pkey |            40960
 2017-02-08 07:25:27.736143+01 | 1486535127.73614 | pgbench_tellers_pkey  |           188416
 2017-02-08 07:25:27.736143+01 | 1486535127.73614 | pgbench_accounts_pkey |        112336896

 2017-02-08 07:25:28.794579+01 | 1486535128.79458 | pgbench_branches_pkey |            40960
 2017-02-08 07:25:28.794579+01 | 1486535128.79458 | pgbench_tellers_pkey  |           188416
 2017-02-08 07:25:28.794579+01 | 1486535128.79458 | pgbench_accounts_pkey |        112336896

 2017-02-08 07:25:29.861419+01 | 1486535129.86142 | pgbench_branches_pkey |            40960
 2017-02-08 07:25:29.861419+01 | 1486535129.86142 | pgbench_tellers_pkey  |           188416
 2017-02-08 07:25:29.861419+01 | 1486535129.86142 | pgbench_accounts_pkey |        112336896

 2017-02-08 07:25:30.918251+01 | 1486535130.91825 | pgbench_branches_pkey |            40960
 2017-02-08 07:25:30.918251+01 | 1486535130.91825 | pgbench_tellers_pkey  |           188416
 2017-02-08 07:25:30.918251+01 | 1486535130.91825 | pgbench_accounts_pkey |        112336896

 2017-02-08 07:25:31.974435+01 | 1486535131.97444 | pgbench_branches_pkey |            40960
 2017-02-08 07:25:31.974435+01 | 1486535131.97444 | pgbench_tellers_pkey  |           188416
 2017-02-08 07:25:31.974435+01 | 1486535131.97444 | pgbench_accounts_pkey |        112336896

 2017-02-08 07:25:33.030645+01 | 1486535133.03064 | pgbench_branches_pkey |            40960
 2017-02-08 07:25:33.030645+01 | 1486535133.03064 | pgbench_tellers_pkey  |           188416
 2017-02-08 07:25:33.030645+01 | 1486535133.03064 | pgbench_accounts_pkey |        112336896

 2017-02-08 07:25:34.088008+01 | 1486535134.08801 | pgbench_branches_pkey |            40960
 2017-02-08 07:25:34.088008+01 | 1486535134.08801 | pgbench_tellers_pkey  |           188416
 2017-02-08 07:25:34.088008+01 | 1486535134.08801 | pgbench_accounts_pkey |        112336896

 2017-02-08 07:25:35.141527+01 | 1486535135.14153 | pgbench_branches_pkey |            40960
 2017-02-08 07:25:35.141527+01 | 1486535135.14153 | pgbench_tellers_pkey  |           188416
 2017-02-08 07:25:35.141527+01 | 1486535135.14153 | pgbench_accounts_pkey |        112336896

 2017-02-08 07:25:36.196928+01 | 1486535136.19693 | pgbench_branches_pkey |            40960
 2017-02-08 07:25:36.196928+01 | 1486535136.19693 | pgbench_tellers_pkey  |           188416
 2017-02-08 07:25:36.196928+01 | 1486535136.19693 | pgbench_accounts_pkey |        112336896

 2017-02-08 07:25:37.25374+01 | 1486535137.25374 | pgbench_branches_pkey |            40960
 2017-02-08 07:25:37.25374+01 | 1486535137.25374 | pgbench_tellers_pkey  |           188416
 2017-02-08 07:25:37.25374+01 | 1486535137.25374 | pgbench_accounts_pkey |        112336896

 2017-02-08 07:25:38.309874+01 | 1486535138.30987 | pgbench_branches_pkey |            40960
 2017-02-08 07:25:38.309874+01 | 1486535138.30987 | pgbench_tellers_pkey  |           188416
 2017-02-08 07:25:38.309874+01 | 1486535138.30987 | pgbench_accounts_pkey |        112336896

 2017-02-08 07:25:39.36877+01 | 1486535139.36877 | pgbench_branches_pkey |            40960
 2017-02-08 07:25:39.36877+01 | 1486535139.36877 | pgbench_tellers_pkey  |           188416
 2017-02-08 07:25:39.36877+01 | 1486535139.36877 | pgbench_accounts_pkey |        112336896

 2017-02-08 07:25:40.423029+01 | 1486535140.42303 | pgbench_branches_pkey |            40960
 2017-02-08 07:25:40.423029+01 | 1486535140.42303 | pgbench_tellers_pkey  |           188416
 2017-02-08 07:25:40.423029+01 | 1486535140.42303 | pgbench_accounts_pkey |        112336896

 2017-02-08 07:25:41.481551+01 | 1486535141.48155 | pgbench_branches_pkey |            40960
 2017-02-08 07:25:41.481551+01 | 1486535141.48155 | pgbench_tellers_pkey  |           188416
 2017-02-08 07:25:41.481551+01 | 1486535141.48155 | pgbench_accounts_pkey |        112336896

 2017-02-08 07:25:42.546076+01 | 1486535142.54608 | pgbench_branches_pkey |            40960
 2017-02-08 07:25:42.546076+01 | 1486535142.54608 | pgbench_tellers_pkey  |           188416
 2017-02-08 07:25:42.546076+01 | 1486535142.54608 | pgbench_accounts_pkey |        112336896

 2017-02-08 07:25:43.601833+01 | 1486535143.60183 | pgbench_branches_pkey |            40960
 2017-02-08 07:25:43.601833+01 | 1486535143.60183 | pgbench_tellers_pkey  |           188416
 2017-02-08 07:25:43.601833+01 | 1486535143.60183 | pgbench_accounts_pkey |        112336896

 2017-02-08 07:25:44.666821+01 | 1486535144.66682 | pgbench_branches_pkey |            40960
 2017-02-08 07:25:44.666821+01 | 1486535144.66682 | pgbench_tellers_pkey  |           188416
 2017-02-08 07:25:44.666821+01 | 1486535144.66682 | pgbench_accounts_pkey |        112336896

 2017-02-08 07:25:45.723504+01 | 1486535145.7235 | pgbench_branches_pkey |            40960
 2017-02-08 07:25:45.723504+01 | 1486535145.7235 | pgbench_tellers_pkey  |           188416
 2017-02-08 07:25:45.723504+01 | 1486535145.7235 | pgbench_accounts_pkey |        112336896

 2017-02-08 07:25:46.775972+01 | 1486535146.77597 | pgbench_branches_pkey |            40960
 2017-02-08 07:25:46.775972+01 | 1486535146.77597 | pgbench_tellers_pkey  |           188416
 2017-02-08 07:25:46.775972+01 | 1486535146.77597 | pgbench_accounts_pkey |        112336896

 2017-02-08 07:25:47.836453+01 | 1486535147.83645 | pgbench_branches_pkey |            40960
 2017-02-08 07:25:47.836453+01 | 1486535147.83645 | pgbench_tellers_pkey  |           188416
 2017-02-08 07:25:47.836453+01 | 1486535147.83645 | pgbench_accounts_pkey |        112336896

 2017-02-08 07:25:48.895214+01 | 1486535148.89521 | pgbench_branches_pkey |            40960
 2017-02-08 07:25:48.895214+01 | 1486535148.89521 | pgbench_tellers_pkey  |           188416
 2017-02-08 07:25:48.895214+01 | 1486535148.89521 | pgbench_accounts_pkey |        112336896

 2017-02-08 07:25:49.9497+01 | 1486535149.9497 | pgbench_branches_pkey |            40960
 2017-02-08 07:25:49.9497+01 | 1486535149.9497 | pgbench_tellers_pkey  |           188416
 2017-02-08 07:25:49.9497+01 | 1486535149.9497 | pgbench_accounts_pkey |        112336896

 2017-02-08 07:25:51.003363+01 | 1486535151.00336 | pgbench_branches_pkey |            40960
 2017-02-08 07:25:51.003363+01 | 1486535151.00336 | pgbench_tellers_pkey  |           188416
 2017-02-08 07:25:51.003363+01 | 1486535151.00336 | pgbench_accounts_pkey |        112336896

 2017-02-08 07:25:52.062111+01 | 1486535152.06211 | pgbench_branches_pkey |            40960
 2017-02-08 07:25:52.062111+01 | 1486535152.06211 | pgbench_tellers_pkey  |           188416
 2017-02-08 07:25:52.062111+01 | 1486535152.06211 | pgbench_accounts_pkey |        112336896

 2017-02-08 07:25:53.115715+01 | 1486535153.11572 | pgbench_branches_pkey |            40960
 2017-02-08 07:25:53.115715+01 | 1486535153.11572 | pgbench_tellers_pkey  |           188416
 2017-02-08 07:25:53.115715+01 | 1486535153.11572 | pgbench_accounts_pkey |        112336896

 2017-02-08 07:25:54.173977+01 | 1486535154.17398 | pgbench_branches_pkey |            40960
 2017-02-08 07:25:54.173977+01 | 1486535154.17398 | pgbench_tellers_pkey  |           188416
 2017-02-08 07:25:54.173977+01 | 1486535154.17398 | pgbench_accounts_pkey |        112336896

 2017-02-08 07:25:55.227641+01 | 1486535155.22764 | pgbench_branches_pkey |            40960
 2017-02-08 07:25:55.227641+01 | 1486535155.22764 | pgbench_tellers_pkey  |           188416
 2017-02-08 07:25:55.227641+01 | 1486535155.22764 | pgbench_accounts_pkey |        112336896

 2017-02-08 07:25:56.285652+01 | 1486535156.28565 | pgbench_branches_pkey |            40960
 2017-02-08 07:25:56.285652+01 | 1486535156.28565 | pgbench_tellers_pkey  |           188416
 2017-02-08 07:25:56.285652+01 | 1486535156.28565 | pgbench_accounts_pkey |        112336896

 2017-02-08 07:25:57.34186+01 | 1486535157.34186 | pgbench_branches_pkey |            40960
 2017-02-08 07:25:57.34186+01 | 1486535157.34186 | pgbench_tellers_pkey  |           188416
 2017-02-08 07:25:57.34186+01 | 1486535157.34186 | pgbench_accounts_pkey |        112336896

 2017-02-08 07:25:58.396586+01 | 1486535158.39659 | pgbench_branches_pkey |            40960
 2017-02-08 07:25:58.396586+01 | 1486535158.39659 | pgbench_tellers_pkey  |           188416
 2017-02-08 07:25:58.396586+01 | 1486535158.39659 | pgbench_accounts_pkey |        112336896

 2017-02-08 07:25:59.451233+01 | 1486535159.45123 | pgbench_branches_pkey |            40960
 2017-02-08 07:25:59.451233+01 | 1486535159.45123 | pgbench_tellers_pkey  |           188416
 2017-02-08 07:25:59.451233+01 | 1486535159.45123 | pgbench_accounts_pkey |        112336896

 2017-02-08 07:26:00.507126+01 | 1486535160.50713 | pgbench_branches_pkey |            40960
 2017-02-08 07:26:00.507126+01 | 1486535160.50713 | pgbench_tellers_pkey  |           188416
 2017-02-08 07:26:00.507126+01 | 1486535160.50713 | pgbench_accounts_pkey |        112336896

 2017-02-08 07:26:01.564873+01 | 1486535161.56487 | pgbench_branches_pkey |            40960
 2017-02-08 07:26:01.564873+01 | 1486535161.56487 | pgbench_tellers_pkey  |           188416
 2017-02-08 07:26:01.564873+01 | 1486535161.56487 | pgbench_accounts_pkey |        112336896

 2017-02-08 07:26:02.634649+01 | 1486535162.63465 | pgbench_branches_pkey |            40960
 2017-02-08 07:26:02.634649+01 | 1486535162.63465 | pgbench_tellers_pkey  |           188416
 2017-02-08 07:26:02.634649+01 | 1486535162.63465 | pgbench_accounts_pkey |        112336896

 2017-02-08 07:26:03.6881+01 | 1486535163.6881 | pgbench_branches_pkey |            40960
 2017-02-08 07:26:03.6881+01 | 1486535163.6881 | pgbench_tellers_pkey  |           188416
 2017-02-08 07:26:03.6881+01 | 1486535163.6881 | pgbench_accounts_pkey |        112336896

 2017-02-08 07:26:04.745997+01 | 1486535164.746 | pgbench_branches_pkey |            40960
 2017-02-08 07:26:04.745997+01 | 1486535164.746 | pgbench_tellers_pkey  |           188416
 2017-02-08 07:26:04.745997+01 | 1486535164.746 | pgbench_accounts_pkey |        112336896

 2017-02-08 07:26:05.803758+01 | 1486535165.80376 | pgbench_branches_pkey |            40960
 2017-02-08 07:26:05.803758+01 | 1486535165.80376 | pgbench_tellers_pkey  |           188416
 2017-02-08 07:26:05.803758+01 | 1486535165.80376 | pgbench_accounts_pkey |        112336896

 2017-02-08 07:26:06.864034+01 | 1486535166.86403 | pgbench_branches_pkey |            40960
 2017-02-08 07:26:06.864034+01 | 1486535166.86403 | pgbench_tellers_pkey  |           188416
 2017-02-08 07:26:06.864034+01 | 1486535166.86403 | pgbench_accounts_pkey |        112336896

 2017-02-08 07:26:07.918025+01 | 1486535167.91803 | pgbench_branches_pkey |            40960
 2017-02-08 07:26:07.918025+01 | 1486535167.91803 | pgbench_tellers_pkey  |           188416
 2017-02-08 07:26:07.918025+01 | 1486535167.91803 | pgbench_accounts_pkey |        112336896

 2017-02-08 07:26:08.973559+01 | 1486535168.97356 | pgbench_branches_pkey |            40960
 2017-02-08 07:26:08.973559+01 | 1486535168.97356 | pgbench_tellers_pkey  |           188416
 2017-02-08 07:26:08.973559+01 | 1486535168.97356 | pgbench_accounts_pkey |        112336896

 2017-02-08 07:26:10.028797+01 | 1486535170.0288 | pgbench_branches_pkey |            40960
 2017-02-08 07:26:10.028797+01 | 1486535170.0288 | pgbench_tellers_pkey  |           188416
 2017-02-08 07:26:10.028797+01 | 1486535170.0288 | pgbench_accounts_pkey |        112336896

 2017-02-08 07:26:11.09079+01 | 1486535171.09079 | pgbench_branches_pkey |            40960
 2017-02-08 07:26:11.09079+01 | 1486535171.09079 | pgbench_tellers_pkey  |           188416
 2017-02-08 07:26:11.09079+01 | 1486535171.09079 | pgbench_accounts_pkey |        112336896

 2017-02-08 07:26:12.146695+01 | 1486535172.14669 | pgbench_branches_pkey |            40960
 2017-02-08 07:26:12.146695+01 | 1486535172.14669 | pgbench_tellers_pkey  |           188416
 2017-02-08 07:26:12.146695+01 | 1486535172.14669 | pgbench_accounts_pkey |        112336896

 2017-02-08 07:26:13.201956+01 | 1486535173.20196 | pgbench_branches_pkey |            40960
 2017-02-08 07:26:13.201956+01 | 1486535173.20196 | pgbench_tellers_pkey  |           188416
 2017-02-08 07:26:13.201956+01 | 1486535173.20196 | pgbench_accounts_pkey |        112336896

 2017-02-08 07:26:14.260621+01 | 1486535174.26062 | pgbench_branches_pkey |            40960
 2017-02-08 07:26:14.260621+01 | 1486535174.26062 | pgbench_tellers_pkey  |           188416
 2017-02-08 07:26:14.260621+01 | 1486535174.26062 | pgbench_accounts_pkey |        112336896

 2017-02-08 07:26:15.32738+01 | 1486535175.32738 | pgbench_branches_pkey |            40960
 2017-02-08 07:26:15.32738+01 | 1486535175.32738 | pgbench_tellers_pkey  |           188416
 2017-02-08 07:26:15.32738+01 | 1486535175.32738 | pgbench_accounts_pkey |        112336896

 2017-02-08 07:26:16.384979+01 | 1486535176.38498 | pgbench_branches_pkey |            40960
 2017-02-08 07:26:16.384979+01 | 1486535176.38498 | pgbench_tellers_pkey  |           188416
 2017-02-08 07:26:16.384979+01 | 1486535176.38498 | pgbench_accounts_pkey |        112336896

 2017-02-08 07:26:17.445277+01 | 1486535177.44528 | pgbench_branches_pkey |            40960
 2017-02-08 07:26:17.445277+01 | 1486535177.44528 | pgbench_tellers_pkey  |           188416
 2017-02-08 07:26:17.445277+01 | 1486535177.44528 | pgbench_accounts_pkey |        112336896

 2017-02-08 07:26:18.501291+01 | 1486535178.50129 | pgbench_branches_pkey |            40960
 2017-02-08 07:26:18.501291+01 | 1486535178.50129 | pgbench_tellers_pkey  |           188416
 2017-02-08 07:26:18.501291+01 | 1486535178.50129 | pgbench_accounts_pkey |        112336896

 2017-02-08 07:26:19.561061+01 | 1486535179.56106 | pgbench_branches_pkey |            40960
 2017-02-08 07:26:19.561061+01 | 1486535179.56106 | pgbench_tellers_pkey  |           188416
 2017-02-08 07:26:19.561061+01 | 1486535179.56106 | pgbench_accounts_pkey |        112336896

 2017-02-08 07:26:20.621633+01 | 1486535180.62163 | pgbench_branches_pkey |            40960
 2017-02-08 07:26:20.621633+01 | 1486535180.62163 | pgbench_tellers_pkey  |           188416
 2017-02-08 07:26:20.621633+01 | 1486535180.62163 | pgbench_accounts_pkey |        112336896

 2017-02-08 07:26:21.693922+01 | 1486535181.69392 | pgbench_branches_pkey |            40960
 2017-02-08 07:26:21.693922+01 | 1486535181.69392 | pgbench_tellers_pkey  |           188416
 2017-02-08 07:26:21.693922+01 | 1486535181.69392 | pgbench_accounts_pkey |        112336896

 2017-02-08 07:26:22.751653+01 | 1486535182.75165 | pgbench_branches_pkey |            40960
 2017-02-08 07:26:22.751653+01 | 1486535182.75165 | pgbench_tellers_pkey  |           188416
 2017-02-08 07:26:22.751653+01 | 1486535182.75165 | pgbench_accounts_pkey |        112336896

 2017-02-08 07:26:23.811328+01 | 1486535183.81133 | pgbench_branches_pkey |            40960
 2017-02-08 07:26:23.811328+01 | 1486535183.81133 | pgbench_tellers_pkey  |           188416
 2017-02-08 07:26:23.811328+01 | 1486535183.81133 | pgbench_accounts_pkey |        112336896

 2017-02-08 07:26:24.870021+01 | 1486535184.87002 | pgbench_branches_pkey |            40960
 2017-02-08 07:26:24.870021+01 | 1486535184.87002 | pgbench_tellers_pkey  |           188416
 2017-02-08 07:26:24.870021+01 | 1486535184.87002 | pgbench_accounts_pkey |        112336896

 2017-02-08 07:26:25.927979+01 | 1486535185.92798 | pgbench_branches_pkey |            40960
 2017-02-08 07:26:25.927979+01 | 1486535185.92798 | pgbench_tellers_pkey  |           188416
 2017-02-08 07:26:25.927979+01 | 1486535185.92798 | pgbench_accounts_pkey |        112336896

 2017-02-08 07:26:26.982534+01 | 1486535186.98253 | pgbench_branches_pkey |            40960
 2017-02-08 07:26:26.982534+01 | 1486535186.98253 | pgbench_tellers_pkey  |           188416
 2017-02-08 07:26:26.982534+01 | 1486535186.98253 | pgbench_accounts_pkey |        112336896

 2017-02-08 07:26:28.035577+01 | 1486535188.03558 | pgbench_branches_pkey |            40960
 2017-02-08 07:26:28.035577+01 | 1486535188.03558 | pgbench_tellers_pkey  |           188416
 2017-02-08 07:26:28.035577+01 | 1486535188.03558 | pgbench_accounts_pkey |        112336896

 2017-02-08 07:26:29.098021+01 | 1486535189.09802 | pgbench_branches_pkey |            40960
 2017-02-08 07:26:29.098021+01 | 1486535189.09802 | pgbench_tellers_pkey  |           188416
 2017-02-08 07:26:29.098021+01 | 1486535189.09802 | pgbench_accounts_pkey |        112336896

 2017-02-08 07:26:30.151069+01 | 1486535190.15107 | pgbench_branches_pkey |            40960
 2017-02-08 07:26:30.151069+01 | 1486535190.15107 | pgbench_tellers_pkey  |           188416
 2017-02-08 07:26:30.151069+01 | 1486535190.15107 | pgbench_accounts_pkey |        112336896

 2017-02-08 07:26:31.208259+01 | 1486535191.20826 | pgbench_branches_pkey |            40960
 2017-02-08 07:26:31.208259+01 | 1486535191.20826 | pgbench_tellers_pkey  |           188416
 2017-02-08 07:26:31.208259+01 | 1486535191.20826 | pgbench_accounts_pkey |        112336896

 2017-02-08 07:26:32.27014+01 | 1486535192.27014 | pgbench_branches_pkey |            40960
 2017-02-08 07:26:32.27014+01 | 1486535192.27014 | pgbench_tellers_pkey  |           188416
 2017-02-08 07:26:32.27014+01 | 1486535192.27014 | pgbench_accounts_pkey |        112336896

 2017-02-08 07:26:33.325962+01 | 1486535193.32596 | pgbench_branches_pkey |            40960
 2017-02-08 07:26:33.325962+01 | 1486535193.32596 | pgbench_tellers_pkey  |           188416
 2017-02-08 07:26:33.325962+01 | 1486535193.32596 | pgbench_accounts_pkey |        112336896

 2017-02-08 07:26:34.40476+01 | 1486535194.40476 | pgbench_branches_pkey |            40960
 2017-02-08 07:26:34.40476+01 | 1486535194.40476 | pgbench_tellers_pkey  |           188416
 2017-02-08 07:26:34.40476+01 | 1486535194.40476 | pgbench_accounts_pkey |        112336896

 2017-02-08 07:26:35.466717+01 | 1486535195.46672 | pgbench_branches_pkey |            40960
 2017-02-08 07:26:35.466717+01 | 1486535195.46672 | pgbench_tellers_pkey  |           188416
 2017-02-08 07:26:35.466717+01 | 1486535195.46672 | pgbench_accounts_pkey |        112336896

 2017-02-08 07:26:36.525108+01 | 1486535196.52511 | pgbench_branches_pkey |            40960
 2017-02-08 07:26:36.525108+01 | 1486535196.52511 | pgbench_tellers_pkey  |           188416
 2017-02-08 07:26:36.525108+01 | 1486535196.52511 | pgbench_accounts_pkey |        112336896

 2017-02-08 07:26:37.587233+01 | 1486535197.58723 | pgbench_branches_pkey |            40960
 2017-02-08 07:26:37.587233+01 | 1486535197.58723 | pgbench_tellers_pkey  |           188416
 2017-02-08 07:26:37.587233+01 | 1486535197.58723 | pgbench_accounts_pkey |        112336896

 2017-02-08 07:26:38.641618+01 | 1486535198.64162 | pgbench_branches_pkey |            40960
 2017-02-08 07:26:38.641618+01 | 1486535198.64162 | pgbench_tellers_pkey  |           188416
 2017-02-08 07:26:38.641618+01 | 1486535198.64162 | pgbench_accounts_pkey |        112336896

 2017-02-08 07:26:39.697871+01 | 1486535199.69787 | pgbench_branches_pkey |            40960
 2017-02-08 07:26:39.697871+01 | 1486535199.69787 | pgbench_tellers_pkey  |           188416
 2017-02-08 07:26:39.697871+01 | 1486535199.69787 | pgbench_accounts_pkey |        112336896

 2017-02-08 07:26:40.75487+01 | 1486535200.75487 | pgbench_branches_pkey |            40960
 2017-02-08 07:26:40.75487+01 | 1486535200.75487 | pgbench_tellers_pkey  |           188416
 2017-02-08 07:26:40.75487+01 | 1486535200.75487 | pgbench_accounts_pkey |        112336896

 2017-02-08 07:26:41.813393+01 | 1486535201.81339 | pgbench_branches_pkey |            40960
 2017-02-08 07:26:41.813393+01 | 1486535201.81339 | pgbench_tellers_pkey  |           188416
 2017-02-08 07:26:41.813393+01 | 1486535201.81339 | pgbench_accounts_pkey |        112336896

 2017-02-08 07:26:42.871246+01 | 1486535202.87125 | pgbench_branches_pkey |            40960
 2017-02-08 07:26:42.871246+01 | 1486535202.87125 | pgbench_tellers_pkey  |           188416
 2017-02-08 07:26:42.871246+01 | 1486535202.87125 | pgbench_accounts_pkey |        112336896

 2017-02-08 07:26:43.929744+01 | 1486535203.92974 | pgbench_branches_pkey |            40960
 2017-02-08 07:26:43.929744+01 | 1486535203.92974 | pgbench_tellers_pkey  |           188416
 2017-02-08 07:26:43.929744+01 | 1486535203.92974 | pgbench_accounts_pkey |        112336896

 2017-02-08 07:26:44.987548+01 | 1486535204.98755 | pgbench_branches_pkey |            40960
 2017-02-08 07:26:44.987548+01 | 1486535204.98755 | pgbench_tellers_pkey  |           188416
 2017-02-08 07:26:44.987548+01 | 1486535204.98755 | pgbench_accounts_pkey |        112336896

 2017-02-08 07:26:46.042859+01 | 1486535206.04286 | pgbench_branches_pkey |            40960
 2017-02-08 07:26:46.042859+01 | 1486535206.04286 | pgbench_tellers_pkey  |           188416
 2017-02-08 07:26:46.042859+01 | 1486535206.04286 | pgbench_accounts_pkey |        112336896

 2017-02-08 07:26:47.09551+01 | 1486535207.09551 | pgbench_branches_pkey |            40960
 2017-02-08 07:26:47.09551+01 | 1486535207.09551 | pgbench_tellers_pkey  |           188416
 2017-02-08 07:26:47.09551+01 | 1486535207.09551 | pgbench_accounts_pkey |        112336896

 2017-02-08 07:26:48.146782+01 | 1486535208.14678 | pgbench_branches_pkey |            40960
 2017-02-08 07:26:48.146782+01 | 1486535208.14678 | pgbench_tellers_pkey  |           188416
 2017-02-08 07:26:48.146782+01 | 1486535208.14678 | pgbench_accounts_pkey |        112336896

 2017-02-08 07:26:49.209497+01 | 1486535209.2095 | pgbench_branches_pkey |            40960
 2017-02-08 07:26:49.209497+01 | 1486535209.2095 | pgbench_tellers_pkey  |           188416
 2017-02-08 07:26:49.209497+01 | 1486535209.2095 | pgbench_accounts_pkey |        112336896

 2017-02-08 07:26:50.265187+01 | 1486535210.26519 | pgbench_branches_pkey |            40960
 2017-02-08 07:26:50.265187+01 | 1486535210.26519 | pgbench_tellers_pkey  |           188416
 2017-02-08 07:26:50.265187+01 | 1486535210.26519 | pgbench_accounts_pkey |        112336896

 2017-02-08 07:26:51.324733+01 | 1486535211.32473 | pgbench_branches_pkey |            40960
 2017-02-08 07:26:51.324733+01 | 1486535211.32473 | pgbench_tellers_pkey  |           188416
 2017-02-08 07:26:51.324733+01 | 1486535211.32473 | pgbench_accounts_pkey |        112336896

 2017-02-08 07:26:52.378698+01 | 1486535212.3787 | pgbench_branches_pkey |            40960
 2017-02-08 07:26:52.378698+01 | 1486535212.3787 | pgbench_tellers_pkey  |           188416
 2017-02-08 07:26:52.378698+01 | 1486535212.3787 | pgbench_accounts_pkey |        112336896

 2017-02-08 07:26:53.436495+01 | 1486535213.4365 | pgbench_branches_pkey |            40960
 2017-02-08 07:26:53.436495+01 | 1486535213.4365 | pgbench_tellers_pkey  |           188416
 2017-02-08 07:26:53.436495+01 | 1486535213.4365 | pgbench_accounts_pkey |        112336896

 2017-02-08 07:26:54.497641+01 | 1486535214.49764 | pgbench_branches_pkey |            40960
 2017-02-08 07:26:54.497641+01 | 1486535214.49764 | pgbench_tellers_pkey  |           188416
 2017-02-08 07:26:54.497641+01 | 1486535214.49764 | pgbench_accounts_pkey |        112336896

 2017-02-08 07:26:55.551931+01 | 1486535215.55193 | pgbench_branches_pkey |            40960
 2017-02-08 07:26:55.551931+01 | 1486535215.55193 | pgbench_tellers_pkey  |           188416
 2017-02-08 07:26:55.551931+01 | 1486535215.55193 | pgbench_accounts_pkey |        112336896

 2017-02-08 07:26:56.611083+01 | 1486535216.61108 | pgbench_branches_pkey |            40960
 2017-02-08 07:26:56.611083+01 | 1486535216.61108 | pgbench_tellers_pkey  |           188416
 2017-02-08 07:26:56.611083+01 | 1486535216.61108 | pgbench_accounts_pkey |        112336896

 2017-02-08 07:26:57.670211+01 | 1486535217.67021 | pgbench_branches_pkey |            40960
 2017-02-08 07:26:57.670211+01 | 1486535217.67021 | pgbench_tellers_pkey  |           188416
 2017-02-08 07:26:57.670211+01 | 1486535217.67021 | pgbench_accounts_pkey |        112336896

 2017-02-08 07:26:58.727515+01 | 1486535218.72751 | pgbench_branches_pkey |            40960
 2017-02-08 07:26:58.727515+01 | 1486535218.72751 | pgbench_tellers_pkey  |           188416
 2017-02-08 07:26:58.727515+01 | 1486535218.72751 | pgbench_accounts_pkey |        112336896

 2017-02-08 07:26:59.782811+01 | 1486535219.78281 | pgbench_branches_pkey |            40960
 2017-02-08 07:26:59.782811+01 | 1486535219.78281 | pgbench_tellers_pkey  |           188416
 2017-02-08 07:26:59.782811+01 | 1486535219.78281 | pgbench_accounts_pkey |        112336896

 2017-02-08 07:27:00.841294+01 | 1486535220.84129 | pgbench_branches_pkey |            40960
 2017-02-08 07:27:00.841294+01 | 1486535220.84129 | pgbench_tellers_pkey  |           188416
 2017-02-08 07:27:00.841294+01 | 1486535220.84129 | pgbench_accounts_pkey |        112336896

 2017-02-08 07:27:01.89877+01 | 1486535221.89877 | pgbench_branches_pkey |            40960
 2017-02-08 07:27:01.89877+01 | 1486535221.89877 | pgbench_tellers_pkey  |           188416
 2017-02-08 07:27:01.89877+01 | 1486535221.89877 | pgbench_accounts_pkey |        112336896

 2017-02-08 07:27:02.963049+01 | 1486535222.96305 | pgbench_branches_pkey |            40960
 2017-02-08 07:27:02.963049+01 | 1486535222.96305 | pgbench_tellers_pkey  |           188416
 2017-02-08 07:27:02.963049+01 | 1486535222.96305 | pgbench_accounts_pkey |        112336896

 2017-02-08 07:27:04.019646+01 | 1486535224.01965 | pgbench_branches_pkey |            40960
 2017-02-08 07:27:04.019646+01 | 1486535224.01965 | pgbench_tellers_pkey  |           188416
 2017-02-08 07:27:04.019646+01 | 1486535224.01965 | pgbench_accounts_pkey |        112336896

 2017-02-08 07:27:05.081892+01 | 1486535225.08189 | pgbench_branches_pkey |            40960
 2017-02-08 07:27:05.081892+01 | 1486535225.08189 | pgbench_tellers_pkey  |           188416
 2017-02-08 07:27:05.081892+01 | 1486535225.08189 | pgbench_accounts_pkey |        112336896

 2017-02-08 07:27:06.136485+01 | 1486535226.13649 | pgbench_branches_pkey |            40960
 2017-02-08 07:27:06.136485+01 | 1486535226.13649 | pgbench_tellers_pkey  |           188416
 2017-02-08 07:27:06.136485+01 | 1486535226.13649 | pgbench_accounts_pkey |        112336896

 2017-02-08 07:27:07.202396+01 | 1486535227.2024 | pgbench_branches_pkey |            40960
 2017-02-08 07:27:07.202396+01 | 1486535227.2024 | pgbench_tellers_pkey  |           188416
 2017-02-08 07:27:07.202396+01 | 1486535227.2024 | pgbench_accounts_pkey |        112336896

 2017-02-08 07:27:08.261691+01 | 1486535228.26169 | pgbench_branches_pkey |            40960
 2017-02-08 07:27:08.261691+01 | 1486535228.26169 | pgbench_tellers_pkey  |           188416
 2017-02-08 07:27:08.261691+01 | 1486535228.26169 | pgbench_accounts_pkey |        112336896

 2017-02-08 07:27:09.316347+01 | 1486535229.31635 | pgbench_branches_pkey |            40960
 2017-02-08 07:27:09.316347+01 | 1486535229.31635 | pgbench_tellers_pkey  |           188416
 2017-02-08 07:27:09.316347+01 | 1486535229.31635 | pgbench_accounts_pkey |        112336896

 2017-02-08 07:27:10.371721+01 | 1486535230.37172 | pgbench_branches_pkey |            40960
 2017-02-08 07:27:10.371721+01 | 1486535230.37172 | pgbench_tellers_pkey  |           188416
 2017-02-08 07:27:10.371721+01 | 1486535230.37172 | pgbench_accounts_pkey |        112336896

 2017-02-08 07:27:11.425962+01 | 1486535231.42596 | pgbench_branches_pkey |            40960
 2017-02-08 07:27:11.425962+01 | 1486535231.42596 | pgbench_tellers_pkey  |           188416
 2017-02-08 07:27:11.425962+01 | 1486535231.42596 | pgbench_accounts_pkey |        112336896

 2017-02-08 07:27:12.485708+01 | 1486535232.48571 | pgbench_branches_pkey |            40960
 2017-02-08 07:27:12.485708+01 | 1486535232.48571 | pgbench_tellers_pkey  |           188416
 2017-02-08 07:27:12.485708+01 | 1486535232.48571 | pgbench_accounts_pkey |        112336896

 2017-02-08 07:27:13.548397+01 | 1486535233.5484 | pgbench_branches_pkey |            40960
 2017-02-08 07:27:13.548397+01 | 1486535233.5484 | pgbench_tellers_pkey  |           188416
 2017-02-08 07:27:13.548397+01 | 1486535233.5484 | pgbench_accounts_pkey |        112336896

 2017-02-08 07:27:14.609124+01 | 1486535234.60912 | pgbench_branches_pkey |            40960
 2017-02-08 07:27:14.609124+01 | 1486535234.60912 | pgbench_tellers_pkey  |           188416
 2017-02-08 07:27:14.609124+01 | 1486535234.60912 | pgbench_accounts_pkey |        112336896

 2017-02-08 07:27:15.66753+01 | 1486535235.66753 | pgbench_branches_pkey |            40960
 2017-02-08 07:27:15.66753+01 | 1486535235.66753 | pgbench_tellers_pkey  |           188416
 2017-02-08 07:27:15.66753+01 | 1486535235.66753 | pgbench_accounts_pkey |        112336896

 2017-02-08 07:27:16.725719+01 | 1486535236.72572 | pgbench_branches_pkey |            40960
 2017-02-08 07:27:16.725719+01 | 1486535236.72572 | pgbench_tellers_pkey  |           188416
 2017-02-08 07:27:16.725719+01 | 1486535236.72572 | pgbench_accounts_pkey |        112336896

 2017-02-08 07:27:17.787378+01 | 1486535237.78738 | pgbench_branches_pkey |            40960
 2017-02-08 07:27:17.787378+01 | 1486535237.78738 | pgbench_tellers_pkey  |           188416
 2017-02-08 07:27:17.787378+01 | 1486535237.78738 | pgbench_accounts_pkey |        112336896

 2017-02-08 07:27:18.840555+01 | 1486535238.84055 | pgbench_branches_pkey |            40960
 2017-02-08 07:27:18.840555+01 | 1486535238.84055 | pgbench_tellers_pkey  |           188416
 2017-02-08 07:27:18.840555+01 | 1486535238.84055 | pgbench_accounts_pkey |        112336896

 2017-02-08 07:27:19.89959+01 | 1486535239.89959 | pgbench_branches_pkey |            40960
 2017-02-08 07:27:19.89959+01 | 1486535239.89959 | pgbench_tellers_pkey  |           188416
 2017-02-08 07:27:19.89959+01 | 1486535239.89959 | pgbench_accounts_pkey |        112336896

 2017-02-08 07:27:20.955962+01 | 1486535240.95596 | pgbench_branches_pkey |            40960
 2017-02-08 07:27:20.955962+01 | 1486535240.95596 | pgbench_tellers_pkey  |           188416
 2017-02-08 07:27:20.955962+01 | 1486535240.95596 | pgbench_accounts_pkey |        112336896

 2017-02-08 07:27:22.016336+01 | 1486535242.01634 | pgbench_branches_pkey |            40960
 2017-02-08 07:27:22.016336+01 | 1486535242.01634 | pgbench_tellers_pkey  |           188416
 2017-02-08 07:27:22.016336+01 | 1486535242.01634 | pgbench_accounts_pkey |        112336896

 2017-02-08 07:27:23.077861+01 | 1486535243.07786 | pgbench_branches_pkey |            40960
 2017-02-08 07:27:23.077861+01 | 1486535243.07786 | pgbench_tellers_pkey  |           188416
 2017-02-08 07:27:23.077861+01 | 1486535243.07786 | pgbench_accounts_pkey |        112336896

 2017-02-08 07:27:24.144112+01 | 1486535244.14411 | pgbench_branches_pkey |            40960
 2017-02-08 07:27:24.144112+01 | 1486535244.14411 | pgbench_tellers_pkey  |           188416
 2017-02-08 07:27:24.144112+01 | 1486535244.14411 | pgbench_accounts_pkey |        112336896

 2017-02-08 07:27:25.194938+01 | 1486535245.19494 | pgbench_branches_pkey |            40960
 2017-02-08 07:27:25.194938+01 | 1486535245.19494 | pgbench_tellers_pkey  |           188416
 2017-02-08 07:27:25.194938+01 | 1486535245.19494 | pgbench_accounts_pkey |        112336896

 2017-02-08 07:27:26.248913+01 | 1486535246.24891 | pgbench_branches_pkey |            40960
 2017-02-08 07:27:26.248913+01 | 1486535246.24891 | pgbench_tellers_pkey  |           188416
 2017-02-08 07:27:26.248913+01 | 1486535246.24891 | pgbench_accounts_pkey |        112336896

 2017-02-08 07:27:27.304165+01 | 1486535247.30416 | pgbench_branches_pkey |            40960
 2017-02-08 07:27:27.304165+01 | 1486535247.30416 | pgbench_tellers_pkey  |           188416
 2017-02-08 07:27:27.304165+01 | 1486535247.30416 | pgbench_accounts_pkey |        112336896

 2017-02-08 07:27:28.358882+01 | 1486535248.35888 | pgbench_branches_pkey |            40960
 2017-02-08 07:27:28.358882+01 | 1486535248.35888 | pgbench_tellers_pkey  |           188416
 2017-02-08 07:27:28.358882+01 | 1486535248.35888 | pgbench_accounts_pkey |        112336896

 2017-02-08 07:27:29.417265+01 | 1486535249.41726 | pgbench_branches_pkey |            40960
 2017-02-08 07:27:29.417265+01 | 1486535249.41726 | pgbench_tellers_pkey  |           188416
 2017-02-08 07:27:29.417265+01 | 1486535249.41726 | pgbench_accounts_pkey |        112336896

 2017-02-08 07:27:30.475238+01 | 1486535250.47524 | pgbench_branches_pkey |            40960
 2017-02-08 07:27:30.475238+01 | 1486535250.47524 | pgbench_tellers_pkey  |           188416
 2017-02-08 07:27:30.475238+01 | 1486535250.47524 | pgbench_accounts_pkey |        112336896

 2017-02-08 07:27:31.532306+01 | 1486535251.53231 | pgbench_branches_pkey |            40960
 2017-02-08 07:27:31.532306+01 | 1486535251.53231 | pgbench_tellers_pkey  |           188416
 2017-02-08 07:27:31.532306+01 | 1486535251.53231 | pgbench_accounts_pkey |        112336896

 2017-02-08 07:27:32.584727+01 | 1486535252.58473 | pgbench_branches_pkey |            40960
 2017-02-08 07:27:32.584727+01 | 1486535252.58473 | pgbench_tellers_pkey  |           188416
 2017-02-08 07:27:32.584727+01 | 1486535252.58473 | pgbench_accounts_pkey |        112336896

 2017-02-08 07:27:33.639694+01 | 1486535253.63969 | pgbench_branches_pkey |            40960
 2017-02-08 07:27:33.639694+01 | 1486535253.63969 | pgbench_tellers_pkey  |           188416
 2017-02-08 07:27:33.639694+01 | 1486535253.63969 | pgbench_accounts_pkey |        112336896

 2017-02-08 07:27:34.693722+01 | 1486535254.69372 | pgbench_branches_pkey |            40960
 2017-02-08 07:27:34.693722+01 | 1486535254.69372 | pgbench_tellers_pkey  |           188416
 2017-02-08 07:27:34.693722+01 | 1486535254.69372 | pgbench_accounts_pkey |        112336896

 2017-02-08 07:27:35.74984+01 | 1486535255.74984 | pgbench_branches_pkey |            40960
 2017-02-08 07:27:35.74984+01 | 1486535255.74984 | pgbench_tellers_pkey  |           188416
 2017-02-08 07:27:35.74984+01 | 1486535255.74984 | pgbench_accounts_pkey |        112336896

 2017-02-08 07:27:36.805235+01 | 1486535256.80523 | pgbench_branches_pkey |            40960
 2017-02-08 07:27:36.805235+01 | 1486535256.80523 | pgbench_tellers_pkey  |           188416
 2017-02-08 07:27:36.805235+01 | 1486535256.80523 | pgbench_accounts_pkey |        112336896

 2017-02-08 07:27:37.859721+01 | 1486535257.85972 | pgbench_branches_pkey |            40960
 2017-02-08 07:27:37.859721+01 | 1486535257.85972 | pgbench_tellers_pkey  |           188416
 2017-02-08 07:27:37.859721+01 | 1486535257.85972 | pgbench_accounts_pkey |        112336896

 2017-02-08 07:27:38.921906+01 | 1486535258.92191 | pgbench_branches_pkey |            40960
 2017-02-08 07:27:38.921906+01 | 1486535258.92191 | pgbench_tellers_pkey  |           188416
 2017-02-08 07:27:38.921906+01 | 1486535258.92191 | pgbench_accounts_pkey |        112336896

 2017-02-08 07:27:39.97726+01 | 1486535259.97726 | pgbench_branches_pkey |            40960
 2017-02-08 07:27:39.97726+01 | 1486535259.97726 | pgbench_tellers_pkey  |           188416
 2017-02-08 07:27:39.97726+01 | 1486535259.97726 | pgbench_accounts_pkey |        112336896

 2017-02-08 07:27:41.028717+01 | 1486535261.02872 | pgbench_branches_pkey |            40960
 2017-02-08 07:27:41.028717+01 | 1486535261.02872 | pgbench_tellers_pkey  |           188416
 2017-02-08 07:27:41.028717+01 | 1486535261.02872 | pgbench_accounts_pkey |        112336896

 2017-02-08 07:27:42.086844+01 | 1486535262.08684 | pgbench_branches_pkey |            40960
 2017-02-08 07:27:42.086844+01 | 1486535262.08684 | pgbench_tellers_pkey  |           188416
 2017-02-08 07:27:42.086844+01 | 1486535262.08684 | pgbench_accounts_pkey |        112336896

 2017-02-08 07:27:43.145931+01 | 1486535263.14593 | pgbench_branches_pkey |            40960
 2017-02-08 07:27:43.145931+01 | 1486535263.14593 | pgbench_tellers_pkey  |           188416
 2017-02-08 07:27:43.145931+01 | 1486535263.14593 | pgbench_accounts_pkey |        112336896

 2017-02-08 07:27:44.203277+01 | 1486535264.20328 | pgbench_branches_pkey |            40960
 2017-02-08 07:27:44.203277+01 | 1486535264.20328 | pgbench_tellers_pkey  |           188416
 2017-02-08 07:27:44.203277+01 | 1486535264.20328 | pgbench_accounts_pkey |        112336896

 2017-02-08 07:27:45.255784+01 | 1486535265.25578 | pgbench_branches_pkey |            40960
 2017-02-08 07:27:45.255784+01 | 1486535265.25578 | pgbench_tellers_pkey  |           188416
 2017-02-08 07:27:45.255784+01 | 1486535265.25578 | pgbench_accounts_pkey |        112336896

 2017-02-08 07:27:46.30918+01 | 1486535266.30918 | pgbench_branches_pkey |            40960
 2017-02-08 07:27:46.30918+01 | 1486535266.30918 | pgbench_tellers_pkey  |           188416
 2017-02-08 07:27:46.30918+01 | 1486535266.30918 | pgbench_accounts_pkey |        112336896

 2017-02-08 07:27:47.369406+01 | 1486535267.36941 | pgbench_branches_pkey |            40960
 2017-02-08 07:27:47.369406+01 | 1486535267.36941 | pgbench_tellers_pkey  |           188416
 2017-02-08 07:27:47.369406+01 | 1486535267.36941 | pgbench_accounts_pkey |        112336896

 2017-02-08 07:27:48.42202+01 | 1486535268.42202 | pgbench_branches_pkey |            40960
 2017-02-08 07:27:48.42202+01 | 1486535268.42202 | pgbench_tellers_pkey  |           188416
 2017-02-08 07:27:48.42202+01 | 1486535268.42202 | pgbench_accounts_pkey |        112336896

 2017-02-08 07:27:49.475165+01 | 1486535269.47516 | pgbench_branches_pkey |            40960
 2017-02-08 07:27:49.475165+01 | 1486535269.47516 | pgbench_tellers_pkey  |           188416
 2017-02-08 07:27:49.475165+01 | 1486535269.47516 | pgbench_accounts_pkey |        112336896

 2017-02-08 07:27:50.533834+01 | 1486535270.53383 | pgbench_branches_pkey |            40960
 2017-02-08 07:27:50.533834+01 | 1486535270.53383 | pgbench_tellers_pkey  |           188416
 2017-02-08 07:27:50.533834+01 | 1486535270.53383 | pgbench_accounts_pkey |        112336896

 2017-02-08 07:27:51.5854+01 | 1486535271.5854 | pgbench_branches_pkey |            40960
 2017-02-08 07:27:51.5854+01 | 1486535271.5854 | pgbench_tellers_pkey  |           188416
 2017-02-08 07:27:51.5854+01 | 1486535271.5854 | pgbench_accounts_pkey |        112336896

 2017-02-08 07:27:52.636315+01 | 1486535272.63632 | pgbench_branches_pkey |            40960
 2017-02-08 07:27:52.636315+01 | 1486535272.63632 | pgbench_tellers_pkey  |           188416
 2017-02-08 07:27:52.636315+01 | 1486535272.63632 | pgbench_accounts_pkey |        112336896

 2017-02-08 07:27:53.690438+01 | 1486535273.69044 | pgbench_branches_pkey |            40960
 2017-02-08 07:27:53.690438+01 | 1486535273.69044 | pgbench_tellers_pkey  |           188416
 2017-02-08 07:27:53.690438+01 | 1486535273.69044 | pgbench_accounts_pkey |        112336896

 2017-02-08 07:27:54.744909+01 | 1486535274.74491 | pgbench_branches_pkey |            40960
 2017-02-08 07:27:54.744909+01 | 1486535274.74491 | pgbench_tellers_pkey  |           188416
 2017-02-08 07:27:54.744909+01 | 1486535274.74491 | pgbench_accounts_pkey |        112336896

 2017-02-08 07:27:55.798638+01 | 1486535275.79864 | pgbench_branches_pkey |            40960
 2017-02-08 07:27:55.798638+01 | 1486535275.79864 | pgbench_tellers_pkey  |           188416
 2017-02-08 07:27:55.798638+01 | 1486535275.79864 | pgbench_accounts_pkey |        112336896

 2017-02-08 07:27:56.851366+01 | 1486535276.85137 | pgbench_branches_pkey |            40960
 2017-02-08 07:27:56.851366+01 | 1486535276.85137 | pgbench_tellers_pkey  |           188416
 2017-02-08 07:27:56.851366+01 | 1486535276.85137 | pgbench_accounts_pkey |        112336896

 2017-02-08 07:27:57.909591+01 | 1486535277.90959 | pgbench_branches_pkey |            40960
 2017-02-08 07:27:57.909591+01 | 1486535277.90959 | pgbench_tellers_pkey  |           188416
 2017-02-08 07:27:57.909591+01 | 1486535277.90959 | pgbench_accounts_pkey |        112336896

 2017-02-08 07:27:58.96428+01 | 1486535278.96428 | pgbench_branches_pkey |            40960
 2017-02-08 07:27:58.96428+01 | 1486535278.96428 | pgbench_tellers_pkey  |           188416
 2017-02-08 07:27:58.96428+01 | 1486535278.96428 | pgbench_accounts_pkey |        112336896

 2017-02-08 07:28:00.017273+01 | 1486535280.01727 | pgbench_branches_pkey |            40960
 2017-02-08 07:28:00.017273+01 | 1486535280.01727 | pgbench_tellers_pkey  |           188416
 2017-02-08 07:28:00.017273+01 | 1486535280.01727 | pgbench_accounts_pkey |        112336896

 2017-02-08 07:28:01.078268+01 | 1486535281.07827 | pgbench_branches_pkey |            40960
 2017-02-08 07:28:01.078268+01 | 1486535281.07827 | pgbench_tellers_pkey  |           188416
 2017-02-08 07:28:01.078268+01 | 1486535281.07827 | pgbench_accounts_pkey |        112336896

 2017-02-08 07:28:02.131337+01 | 1486535282.13134 | pgbench_branches_pkey |            40960
 2017-02-08 07:28:02.131337+01 | 1486535282.13134 | pgbench_tellers_pkey  |           188416
 2017-02-08 07:28:02.131337+01 | 1486535282.13134 | pgbench_accounts_pkey |        112336896

 2017-02-08 07:28:03.186768+01 | 1486535283.18677 | pgbench_branches_pkey |            40960
 2017-02-08 07:28:03.186768+01 | 1486535283.18677 | pgbench_tellers_pkey  |           188416
 2017-02-08 07:28:03.186768+01 | 1486535283.18677 | pgbench_accounts_pkey |        112336896

 2017-02-08 07:28:04.240548+01 | 1486535284.24055 | pgbench_branches_pkey |            40960
 2017-02-08 07:28:04.240548+01 | 1486535284.24055 | pgbench_tellers_pkey  |           188416
 2017-02-08 07:28:04.240548+01 | 1486535284.24055 | pgbench_accounts_pkey |        112336896

