 2017-02-09 05:30:31.37991+01 | 1486614631.37991 | pgbench_accounts |       4028858368
 2017-02-09 05:30:31.37991+01 | 1486614631.37991 | pgbench_tellers  |           139264
 2017-02-09 05:30:31.37991+01 | 1486614631.37991 | pgbench_history  |                0
 2017-02-09 05:30:31.37991+01 | 1486614631.37991 | pgbench_branches |            16384

 2017-02-09 05:30:32.714158+01 | 1486614632.71416 | pgbench_accounts |       4028858368
 2017-02-09 05:30:32.714158+01 | 1486614632.71416 | pgbench_tellers  |           139264
 2017-02-09 05:30:32.714158+01 | 1486614632.71416 | pgbench_history  |                0
 2017-02-09 05:30:32.714158+01 | 1486614632.71416 | pgbench_branches |            16384

 2017-02-09 05:30:34.074888+01 | 1486614634.07489 | pgbench_accounts |       4028858368
 2017-02-09 05:30:34.074888+01 | 1486614634.07489 | pgbench_tellers  |           139264
 2017-02-09 05:30:34.074888+01 | 1486614634.07489 | pgbench_history  |                0
 2017-02-09 05:30:34.074888+01 | 1486614634.07489 | pgbench_branches |            16384

 2017-02-09 05:30:35.398505+01 | 1486614635.3985 | pgbench_accounts |       4028858368
 2017-02-09 05:30:35.398505+01 | 1486614635.3985 | pgbench_tellers  |           139264
 2017-02-09 05:30:35.398505+01 | 1486614635.3985 | pgbench_history  |                0
 2017-02-09 05:30:35.398505+01 | 1486614635.3985 | pgbench_branches |            16384

 2017-02-09 05:30:36.702408+01 | 1486614636.70241 | pgbench_accounts |       4028858368
 2017-02-09 05:30:36.702408+01 | 1486614636.70241 | pgbench_tellers  |           139264
 2017-02-09 05:30:36.702408+01 | 1486614636.70241 | pgbench_history  |                0
 2017-02-09 05:30:36.702408+01 | 1486614636.70241 | pgbench_branches |            16384

 2017-02-09 05:30:38.04005+01 | 1486614638.04005 | pgbench_accounts |       4028858368
 2017-02-09 05:30:38.04005+01 | 1486614638.04005 | pgbench_tellers  |           139264
 2017-02-09 05:30:38.04005+01 | 1486614638.04005 | pgbench_history  |                0
 2017-02-09 05:30:38.04005+01 | 1486614638.04005 | pgbench_branches |            16384

 2017-02-09 05:30:39.362935+01 | 1486614639.36294 | pgbench_accounts |       4028858368
 2017-02-09 05:30:39.362935+01 | 1486614639.36294 | pgbench_tellers  |           139264
 2017-02-09 05:30:39.362935+01 | 1486614639.36294 | pgbench_history  |                0
 2017-02-09 05:30:39.362935+01 | 1486614639.36294 | pgbench_branches |            16384

 2017-02-09 05:30:40.794208+01 | 1486614640.79421 | pgbench_accounts |       4028858368
 2017-02-09 05:30:40.794208+01 | 1486614640.79421 | pgbench_tellers  |           139264
 2017-02-09 05:30:40.794208+01 | 1486614640.79421 | pgbench_history  |                0
 2017-02-09 05:30:40.794208+01 | 1486614640.79421 | pgbench_branches |            16384

 2017-02-09 05:30:42.192883+01 | 1486614642.19288 | pgbench_accounts |       4028858368
 2017-02-09 05:30:42.192883+01 | 1486614642.19288 | pgbench_tellers  |           139264
 2017-02-09 05:30:42.192883+01 | 1486614642.19288 | pgbench_history  |                0
 2017-02-09 05:30:42.192883+01 | 1486614642.19288 | pgbench_branches |            16384

 2017-02-09 05:30:43.583705+01 | 1486614643.5837 | pgbench_accounts |       4028858368
 2017-02-09 05:30:43.583705+01 | 1486614643.5837 | pgbench_tellers  |           139264
 2017-02-09 05:30:43.583705+01 | 1486614643.5837 | pgbench_history  |                0
 2017-02-09 05:30:43.583705+01 | 1486614643.5837 | pgbench_branches |            16384

 2017-02-09 05:30:44.945766+01 | 1486614644.94577 | pgbench_accounts |       4028858368
 2017-02-09 05:30:44.945766+01 | 1486614644.94577 | pgbench_tellers  |           139264
 2017-02-09 05:30:44.945766+01 | 1486614644.94577 | pgbench_history  |                0
 2017-02-09 05:30:44.945766+01 | 1486614644.94577 | pgbench_branches |            16384

 2017-02-09 05:30:46.299209+01 | 1486614646.29921 | pgbench_accounts |       4028858368
 2017-02-09 05:30:46.299209+01 | 1486614646.29921 | pgbench_tellers  |           139264
 2017-02-09 05:30:46.299209+01 | 1486614646.29921 | pgbench_history  |                0
 2017-02-09 05:30:46.299209+01 | 1486614646.29921 | pgbench_branches |            16384

 2017-02-09 05:30:47.687522+01 | 1486614647.68752 | pgbench_accounts |       4028858368
 2017-02-09 05:30:47.687522+01 | 1486614647.68752 | pgbench_tellers  |           139264
 2017-02-09 05:30:47.687522+01 | 1486614647.68752 | pgbench_history  |                0
 2017-02-09 05:30:47.687522+01 | 1486614647.68752 | pgbench_branches |            16384

 2017-02-09 05:30:49.077013+01 | 1486614649.07701 | pgbench_accounts |       4028858368
 2017-02-09 05:30:49.077013+01 | 1486614649.07701 | pgbench_tellers  |           139264
 2017-02-09 05:30:49.077013+01 | 1486614649.07701 | pgbench_history  |                0
 2017-02-09 05:30:49.077013+01 | 1486614649.07701 | pgbench_branches |            16384

 2017-02-09 05:30:50.465109+01 | 1486614650.46511 | pgbench_accounts |       4028858368
 2017-02-09 05:30:50.465109+01 | 1486614650.46511 | pgbench_tellers  |           139264
 2017-02-09 05:30:50.465109+01 | 1486614650.46511 | pgbench_history  |                0
 2017-02-09 05:30:50.465109+01 | 1486614650.46511 | pgbench_branches |            16384

 2017-02-09 05:30:51.821864+01 | 1486614651.82186 | pgbench_accounts |       4028858368
 2017-02-09 05:30:51.821864+01 | 1486614651.82186 | pgbench_tellers  |           139264
 2017-02-09 05:30:51.821864+01 | 1486614651.82186 | pgbench_history  |                0
 2017-02-09 05:30:51.821864+01 | 1486614651.82186 | pgbench_branches |            16384

 2017-02-09 05:30:53.170553+01 | 1486614653.17055 | pgbench_accounts |       4028858368
 2017-02-09 05:30:53.170553+01 | 1486614653.17055 | pgbench_tellers  |           139264
 2017-02-09 05:30:53.170553+01 | 1486614653.17055 | pgbench_history  |                0
 2017-02-09 05:30:53.170553+01 | 1486614653.17055 | pgbench_branches |            16384

 2017-02-09 05:30:54.519723+01 | 1486614654.51972 | pgbench_accounts |       4028858368
 2017-02-09 05:30:54.519723+01 | 1486614654.51972 | pgbench_tellers  |           139264
 2017-02-09 05:30:54.519723+01 | 1486614654.51972 | pgbench_history  |                0
 2017-02-09 05:30:54.519723+01 | 1486614654.51972 | pgbench_branches |            16384

 2017-02-09 05:30:55.856481+01 | 1486614655.85648 | pgbench_accounts |       4028858368
 2017-02-09 05:30:55.856481+01 | 1486614655.85648 | pgbench_tellers  |           139264
 2017-02-09 05:30:55.856481+01 | 1486614655.85648 | pgbench_history  |                0
 2017-02-09 05:30:55.856481+01 | 1486614655.85648 | pgbench_branches |            16384

 2017-02-09 05:30:57.261553+01 | 1486614657.26155 | pgbench_accounts |       4028858368
 2017-02-09 05:30:57.261553+01 | 1486614657.26155 | pgbench_tellers  |           139264
 2017-02-09 05:30:57.261553+01 | 1486614657.26155 | pgbench_history  |                0
 2017-02-09 05:30:57.261553+01 | 1486614657.26155 | pgbench_branches |            16384

 2017-02-09 05:30:58.682821+01 | 1486614658.68282 | pgbench_accounts |       4028858368
 2017-02-09 05:30:58.682821+01 | 1486614658.68282 | pgbench_tellers  |           139264
 2017-02-09 05:30:58.682821+01 | 1486614658.68282 | pgbench_history  |                0
 2017-02-09 05:30:58.682821+01 | 1486614658.68282 | pgbench_branches |            16384

 2017-02-09 05:31:00.103532+01 | 1486614660.10353 | pgbench_accounts |       4028858368
 2017-02-09 05:31:00.103532+01 | 1486614660.10353 | pgbench_tellers  |           139264
 2017-02-09 05:31:00.103532+01 | 1486614660.10353 | pgbench_history  |                0
 2017-02-09 05:31:00.103532+01 | 1486614660.10353 | pgbench_branches |            16384

 2017-02-09 05:31:01.444626+01 | 1486614661.44463 | pgbench_accounts |       4028858368
 2017-02-09 05:31:01.444626+01 | 1486614661.44463 | pgbench_tellers  |           139264
 2017-02-09 05:31:01.444626+01 | 1486614661.44463 | pgbench_history  |                0
 2017-02-09 05:31:01.444626+01 | 1486614661.44463 | pgbench_branches |            16384

 2017-02-09 05:31:02.869376+01 | 1486614662.86938 | pgbench_accounts |       4028858368
 2017-02-09 05:31:02.869376+01 | 1486614662.86938 | pgbench_tellers  |           139264
 2017-02-09 05:31:02.869376+01 | 1486614662.86938 | pgbench_history  |                0
 2017-02-09 05:31:02.869376+01 | 1486614662.86938 | pgbench_branches |            16384

 2017-02-09 05:31:04.299592+01 | 1486614664.29959 | pgbench_accounts |       4028858368
 2017-02-09 05:31:04.299592+01 | 1486614664.29959 | pgbench_tellers  |           139264
 2017-02-09 05:31:04.299592+01 | 1486614664.29959 | pgbench_history  |                0
 2017-02-09 05:31:04.299592+01 | 1486614664.29959 | pgbench_branches |            16384

 2017-02-09 05:31:05.685761+01 | 1486614665.68576 | pgbench_accounts |       4028858368
 2017-02-09 05:31:05.685761+01 | 1486614665.68576 | pgbench_tellers  |           139264
 2017-02-09 05:31:05.685761+01 | 1486614665.68576 | pgbench_history  |                0
 2017-02-09 05:31:05.685761+01 | 1486614665.68576 | pgbench_branches |            16384

 2017-02-09 05:31:07.001849+01 | 1486614667.00185 | pgbench_accounts |       4028858368
 2017-02-09 05:31:07.001849+01 | 1486614667.00185 | pgbench_tellers  |           139264
 2017-02-09 05:31:07.001849+01 | 1486614667.00185 | pgbench_history  |                0
 2017-02-09 05:31:07.001849+01 | 1486614667.00185 | pgbench_branches |            16384

 2017-02-09 05:31:08.376929+01 | 1486614668.37693 | pgbench_accounts |       4028858368
 2017-02-09 05:31:08.376929+01 | 1486614668.37693 | pgbench_tellers  |           139264
 2017-02-09 05:31:08.376929+01 | 1486614668.37693 | pgbench_history  |                0
 2017-02-09 05:31:08.376929+01 | 1486614668.37693 | pgbench_branches |            16384

 2017-02-09 05:31:09.762144+01 | 1486614669.76214 | pgbench_accounts |       4028858368
 2017-02-09 05:31:09.762144+01 | 1486614669.76214 | pgbench_tellers  |           139264
 2017-02-09 05:31:09.762144+01 | 1486614669.76214 | pgbench_history  |                0
 2017-02-09 05:31:09.762144+01 | 1486614669.76214 | pgbench_branches |            16384

 2017-02-09 05:31:11.118322+01 | 1486614671.11832 | pgbench_accounts |       4028858368
 2017-02-09 05:31:11.118322+01 | 1486614671.11832 | pgbench_tellers  |           139264
 2017-02-09 05:31:11.118322+01 | 1486614671.11832 | pgbench_history  |                0
 2017-02-09 05:31:11.118322+01 | 1486614671.11832 | pgbench_branches |            16384

 2017-02-09 05:31:12.442844+01 | 1486614672.44284 | pgbench_accounts |       4028858368
 2017-02-09 05:31:12.442844+01 | 1486614672.44284 | pgbench_tellers  |           139264
 2017-02-09 05:31:12.442844+01 | 1486614672.44284 | pgbench_history  |                0
 2017-02-09 05:31:12.442844+01 | 1486614672.44284 | pgbench_branches |            16384

 2017-02-09 05:31:13.796544+01 | 1486614673.79654 | pgbench_accounts |       4028858368
 2017-02-09 05:31:13.796544+01 | 1486614673.79654 | pgbench_tellers  |           139264
 2017-02-09 05:31:13.796544+01 | 1486614673.79654 | pgbench_history  |                0
 2017-02-09 05:31:13.796544+01 | 1486614673.79654 | pgbench_branches |            16384

 2017-02-09 05:31:15.114305+01 | 1486614675.11431 | pgbench_accounts |       4028858368
 2017-02-09 05:31:15.114305+01 | 1486614675.11431 | pgbench_tellers  |           139264
 2017-02-09 05:31:15.114305+01 | 1486614675.11431 | pgbench_history  |                0
 2017-02-09 05:31:15.114305+01 | 1486614675.11431 | pgbench_branches |            16384

 2017-02-09 05:31:16.389625+01 | 1486614676.38963 | pgbench_accounts |       4028858368
 2017-02-09 05:31:16.389625+01 | 1486614676.38963 | pgbench_tellers  |           139264
 2017-02-09 05:31:16.389625+01 | 1486614676.38963 | pgbench_history  |                0
 2017-02-09 05:31:16.389625+01 | 1486614676.38963 | pgbench_branches |            16384

 2017-02-09 05:31:17.731544+01 | 1486614677.73154 | pgbench_accounts |       4028858368
 2017-02-09 05:31:17.731544+01 | 1486614677.73154 | pgbench_tellers  |           139264
 2017-02-09 05:31:17.731544+01 | 1486614677.73154 | pgbench_history  |                0
 2017-02-09 05:31:17.731544+01 | 1486614677.73154 | pgbench_branches |            16384

 2017-02-09 05:31:19.109838+01 | 1486614679.10984 | pgbench_accounts |       4028858368
 2017-02-09 05:31:19.109838+01 | 1486614679.10984 | pgbench_tellers  |           139264
 2017-02-09 05:31:19.109838+01 | 1486614679.10984 | pgbench_history  |                0
 2017-02-09 05:31:19.109838+01 | 1486614679.10984 | pgbench_branches |            16384

 2017-02-09 05:31:20.4565+01 | 1486614680.4565 | pgbench_accounts |       4028858368
 2017-02-09 05:31:20.4565+01 | 1486614680.4565 | pgbench_tellers  |           139264
 2017-02-09 05:31:20.4565+01 | 1486614680.4565 | pgbench_history  |                0
 2017-02-09 05:31:20.4565+01 | 1486614680.4565 | pgbench_branches |            16384

 2017-02-09 05:31:21.860714+01 | 1486614681.86071 | pgbench_accounts |       4028858368
 2017-02-09 05:31:21.860714+01 | 1486614681.86071 | pgbench_tellers  |           139264
 2017-02-09 05:31:21.860714+01 | 1486614681.86071 | pgbench_history  |                0
 2017-02-09 05:31:21.860714+01 | 1486614681.86071 | pgbench_branches |            16384

 2017-02-09 05:31:23.284881+01 | 1486614683.28488 | pgbench_accounts |       4028858368
 2017-02-09 05:31:23.284881+01 | 1486614683.28488 | pgbench_tellers  |           139264
 2017-02-09 05:31:23.284881+01 | 1486614683.28488 | pgbench_history  |                0
 2017-02-09 05:31:23.284881+01 | 1486614683.28488 | pgbench_branches |            16384

 2017-02-09 05:31:24.610973+01 | 1486614684.61097 | pgbench_accounts |       4028858368
 2017-02-09 05:31:24.610973+01 | 1486614684.61097 | pgbench_tellers  |           139264
 2017-02-09 05:31:24.610973+01 | 1486614684.61097 | pgbench_history  |                0
 2017-02-09 05:31:24.610973+01 | 1486614684.61097 | pgbench_branches |            16384

 2017-02-09 05:31:25.996532+01 | 1486614685.99653 | pgbench_accounts |       4028858368
 2017-02-09 05:31:25.996532+01 | 1486614685.99653 | pgbench_tellers  |           139264
 2017-02-09 05:31:25.996532+01 | 1486614685.99653 | pgbench_history  |                0
 2017-02-09 05:31:25.996532+01 | 1486614685.99653 | pgbench_branches |            16384

 2017-02-09 05:31:27.364313+01 | 1486614687.36431 | pgbench_accounts |       4028858368
 2017-02-09 05:31:27.364313+01 | 1486614687.36431 | pgbench_tellers  |           139264
 2017-02-09 05:31:27.364313+01 | 1486614687.36431 | pgbench_history  |                0
 2017-02-09 05:31:27.364313+01 | 1486614687.36431 | pgbench_branches |            16384

 2017-02-09 05:31:28.724499+01 | 1486614688.7245 | pgbench_accounts |       4028858368
 2017-02-09 05:31:28.724499+01 | 1486614688.7245 | pgbench_tellers  |           139264
 2017-02-09 05:31:28.724499+01 | 1486614688.7245 | pgbench_history  |                0
 2017-02-09 05:31:28.724499+01 | 1486614688.7245 | pgbench_branches |            16384

 2017-02-09 05:31:30.119891+01 | 1486614690.11989 | pgbench_accounts |       4028858368
 2017-02-09 05:31:30.119891+01 | 1486614690.11989 | pgbench_tellers  |           139264
 2017-02-09 05:31:30.119891+01 | 1486614690.11989 | pgbench_history  |                0
 2017-02-09 05:31:30.119891+01 | 1486614690.11989 | pgbench_branches |            16384

 2017-02-09 05:31:31.445123+01 | 1486614691.44512 | pgbench_accounts |       4028858368
 2017-02-09 05:31:31.445123+01 | 1486614691.44512 | pgbench_tellers  |           139264
 2017-02-09 05:31:31.445123+01 | 1486614691.44512 | pgbench_history  |                0
 2017-02-09 05:31:31.445123+01 | 1486614691.44512 | pgbench_branches |            16384

 2017-02-09 05:31:32.790769+01 | 1486614692.79077 | pgbench_accounts |       4028858368
 2017-02-09 05:31:32.790769+01 | 1486614692.79077 | pgbench_tellers  |           139264
 2017-02-09 05:31:32.790769+01 | 1486614692.79077 | pgbench_history  |                0
 2017-02-09 05:31:32.790769+01 | 1486614692.79077 | pgbench_branches |            16384

 2017-02-09 05:31:34.185375+01 | 1486614694.18537 | pgbench_accounts |       4028858368
 2017-02-09 05:31:34.185375+01 | 1486614694.18537 | pgbench_tellers  |           139264
 2017-02-09 05:31:34.185375+01 | 1486614694.18537 | pgbench_history  |                0
 2017-02-09 05:31:34.185375+01 | 1486614694.18537 | pgbench_branches |            16384

 2017-02-09 05:31:35.556818+01 | 1486614695.55682 | pgbench_accounts |       4028858368
 2017-02-09 05:31:35.556818+01 | 1486614695.55682 | pgbench_tellers  |           139264
 2017-02-09 05:31:35.556818+01 | 1486614695.55682 | pgbench_history  |                0
 2017-02-09 05:31:35.556818+01 | 1486614695.55682 | pgbench_branches |            16384

 2017-02-09 05:31:36.924789+01 | 1486614696.92479 | pgbench_accounts |       4028858368
 2017-02-09 05:31:36.924789+01 | 1486614696.92479 | pgbench_tellers  |           139264
 2017-02-09 05:31:36.924789+01 | 1486614696.92479 | pgbench_history  |                0
 2017-02-09 05:31:36.924789+01 | 1486614696.92479 | pgbench_branches |            16384

 2017-02-09 05:31:38.258492+01 | 1486614698.25849 | pgbench_accounts |       4028858368
 2017-02-09 05:31:38.258492+01 | 1486614698.25849 | pgbench_tellers  |           139264
 2017-02-09 05:31:38.258492+01 | 1486614698.25849 | pgbench_history  |                0
 2017-02-09 05:31:38.258492+01 | 1486614698.25849 | pgbench_branches |            16384

 2017-02-09 05:31:39.685129+01 | 1486614699.68513 | pgbench_accounts |       4028858368
 2017-02-09 05:31:39.685129+01 | 1486614699.68513 | pgbench_tellers  |           139264
 2017-02-09 05:31:39.685129+01 | 1486614699.68513 | pgbench_history  |                0
 2017-02-09 05:31:39.685129+01 | 1486614699.68513 | pgbench_branches |            16384

 2017-02-09 05:31:41.005335+01 | 1486614701.00534 | pgbench_accounts |       4028858368
 2017-02-09 05:31:41.005335+01 | 1486614701.00534 | pgbench_tellers  |           139264
 2017-02-09 05:31:41.005335+01 | 1486614701.00534 | pgbench_history  |                0
 2017-02-09 05:31:41.005335+01 | 1486614701.00534 | pgbench_branches |            16384

 2017-02-09 05:31:42.374433+01 | 1486614702.37443 | pgbench_accounts |       4028858368
 2017-02-09 05:31:42.374433+01 | 1486614702.37443 | pgbench_tellers  |           139264
 2017-02-09 05:31:42.374433+01 | 1486614702.37443 | pgbench_history  |                0
 2017-02-09 05:31:42.374433+01 | 1486614702.37443 | pgbench_branches |            16384

 2017-02-09 05:31:43.712013+01 | 1486614703.71201 | pgbench_accounts |       4028858368
 2017-02-09 05:31:43.712013+01 | 1486614703.71201 | pgbench_tellers  |           139264
 2017-02-09 05:31:43.712013+01 | 1486614703.71201 | pgbench_history  |                0
 2017-02-09 05:31:43.712013+01 | 1486614703.71201 | pgbench_branches |            16384

 2017-02-09 05:31:44.990368+01 | 1486614704.99037 | pgbench_accounts |       4028858368
 2017-02-09 05:31:44.990368+01 | 1486614704.99037 | pgbench_tellers  |           139264
 2017-02-09 05:31:44.990368+01 | 1486614704.99037 | pgbench_history  |                0
 2017-02-09 05:31:44.990368+01 | 1486614704.99037 | pgbench_branches |            16384

 2017-02-09 05:31:46.382649+01 | 1486614706.38265 | pgbench_accounts |       4028858368
 2017-02-09 05:31:46.382649+01 | 1486614706.38265 | pgbench_tellers  |           139264
 2017-02-09 05:31:46.382649+01 | 1486614706.38265 | pgbench_history  |                0
 2017-02-09 05:31:46.382649+01 | 1486614706.38265 | pgbench_branches |            16384

 2017-02-09 05:31:47.736025+01 | 1486614707.73603 | pgbench_accounts |       4028858368
 2017-02-09 05:31:47.736025+01 | 1486614707.73603 | pgbench_tellers  |           139264
 2017-02-09 05:31:47.736025+01 | 1486614707.73603 | pgbench_history  |                0
 2017-02-09 05:31:47.736025+01 | 1486614707.73603 | pgbench_branches |            16384

 2017-02-09 05:31:49.126018+01 | 1486614709.12602 | pgbench_accounts |       4028858368
 2017-02-09 05:31:49.126018+01 | 1486614709.12602 | pgbench_tellers  |           139264
 2017-02-09 05:31:49.126018+01 | 1486614709.12602 | pgbench_history  |                0
 2017-02-09 05:31:49.126018+01 | 1486614709.12602 | pgbench_branches |            16384

 2017-02-09 05:31:50.467749+01 | 1486614710.46775 | pgbench_accounts |       4028858368
 2017-02-09 05:31:50.467749+01 | 1486614710.46775 | pgbench_tellers  |           139264
 2017-02-09 05:31:50.467749+01 | 1486614710.46775 | pgbench_history  |                0
 2017-02-09 05:31:50.467749+01 | 1486614710.46775 | pgbench_branches |            16384

 2017-02-09 05:31:51.809781+01 | 1486614711.80978 | pgbench_accounts |       4028858368
 2017-02-09 05:31:51.809781+01 | 1486614711.80978 | pgbench_tellers  |           139264
 2017-02-09 05:31:51.809781+01 | 1486614711.80978 | pgbench_history  |                0
 2017-02-09 05:31:51.809781+01 | 1486614711.80978 | pgbench_branches |            16384

 2017-02-09 05:31:53.13303+01 | 1486614713.13303 | pgbench_accounts |       4028858368
 2017-02-09 05:31:53.13303+01 | 1486614713.13303 | pgbench_tellers  |           139264
 2017-02-09 05:31:53.13303+01 | 1486614713.13303 | pgbench_history  |                0
 2017-02-09 05:31:53.13303+01 | 1486614713.13303 | pgbench_branches |            16384

 2017-02-09 05:31:54.493281+01 | 1486614714.49328 | pgbench_accounts |       4028858368
 2017-02-09 05:31:54.493281+01 | 1486614714.49328 | pgbench_tellers  |           139264
 2017-02-09 05:31:54.493281+01 | 1486614714.49328 | pgbench_history  |                0
 2017-02-09 05:31:54.493281+01 | 1486614714.49328 | pgbench_branches |            16384

 2017-02-09 05:31:55.892371+01 | 1486614715.89237 | pgbench_accounts |       4028858368
 2017-02-09 05:31:55.892371+01 | 1486614715.89237 | pgbench_tellers  |           139264
 2017-02-09 05:31:55.892371+01 | 1486614715.89237 | pgbench_history  |                0
 2017-02-09 05:31:55.892371+01 | 1486614715.89237 | pgbench_branches |            16384

 2017-02-09 05:31:57.317439+01 | 1486614717.31744 | pgbench_accounts |       4028858368
 2017-02-09 05:31:57.317439+01 | 1486614717.31744 | pgbench_tellers  |           139264
 2017-02-09 05:31:57.317439+01 | 1486614717.31744 | pgbench_history  |                0
 2017-02-09 05:31:57.317439+01 | 1486614717.31744 | pgbench_branches |            16384

 2017-02-09 05:31:58.785511+01 | 1486614718.78551 | pgbench_accounts |       4028858368
 2017-02-09 05:31:58.785511+01 | 1486614718.78551 | pgbench_tellers  |           139264
 2017-02-09 05:31:58.785511+01 | 1486614718.78551 | pgbench_history  |                0
 2017-02-09 05:31:58.785511+01 | 1486614718.78551 | pgbench_branches |            16384

 2017-02-09 05:32:00.163186+01 | 1486614720.16319 | pgbench_accounts |       4028858368
 2017-02-09 05:32:00.163186+01 | 1486614720.16319 | pgbench_tellers  |           139264
 2017-02-09 05:32:00.163186+01 | 1486614720.16319 | pgbench_history  |                0
 2017-02-09 05:32:00.163186+01 | 1486614720.16319 | pgbench_branches |            16384

 2017-02-09 05:32:01.477988+01 | 1486614721.47799 | pgbench_accounts |       4028858368
 2017-02-09 05:32:01.477988+01 | 1486614721.47799 | pgbench_tellers  |           139264
 2017-02-09 05:32:01.477988+01 | 1486614721.47799 | pgbench_history  |                0
 2017-02-09 05:32:01.477988+01 | 1486614721.47799 | pgbench_branches |            16384

 2017-02-09 05:32:02.852345+01 | 1486614722.85234 | pgbench_accounts |       4028858368
 2017-02-09 05:32:02.852345+01 | 1486614722.85234 | pgbench_tellers  |           139264
 2017-02-09 05:32:02.852345+01 | 1486614722.85234 | pgbench_history  |                0
 2017-02-09 05:32:02.852345+01 | 1486614722.85234 | pgbench_branches |            16384

 2017-02-09 05:32:04.21343+01 | 1486614724.21343 | pgbench_accounts |       4028858368
 2017-02-09 05:32:04.21343+01 | 1486614724.21343 | pgbench_tellers  |           139264
 2017-02-09 05:32:04.21343+01 | 1486614724.21343 | pgbench_history  |                0
 2017-02-09 05:32:04.21343+01 | 1486614724.21343 | pgbench_branches |            16384

 2017-02-09 05:32:05.615066+01 | 1486614725.61507 | pgbench_accounts |       4028858368
 2017-02-09 05:32:05.615066+01 | 1486614725.61507 | pgbench_tellers  |           139264
 2017-02-09 05:32:05.615066+01 | 1486614725.61507 | pgbench_history  |                0
 2017-02-09 05:32:05.615066+01 | 1486614725.61507 | pgbench_branches |            16384

 2017-02-09 05:32:07.00811+01 | 1486614727.00811 | pgbench_accounts |       4028858368
 2017-02-09 05:32:07.00811+01 | 1486614727.00811 | pgbench_tellers  |           139264
 2017-02-09 05:32:07.00811+01 | 1486614727.00811 | pgbench_history  |                0
 2017-02-09 05:32:07.00811+01 | 1486614727.00811 | pgbench_branches |            16384

 2017-02-09 05:32:08.385026+01 | 1486614728.38503 | pgbench_accounts |       4028858368
 2017-02-09 05:32:08.385026+01 | 1486614728.38503 | pgbench_tellers  |           139264
 2017-02-09 05:32:08.385026+01 | 1486614728.38503 | pgbench_history  |                0
 2017-02-09 05:32:08.385026+01 | 1486614728.38503 | pgbench_branches |            16384

 2017-02-09 05:32:09.710545+01 | 1486614729.71055 | pgbench_accounts |       4028858368
 2017-02-09 05:32:09.710545+01 | 1486614729.71055 | pgbench_tellers  |           139264
 2017-02-09 05:32:09.710545+01 | 1486614729.71055 | pgbench_history  |                0
 2017-02-09 05:32:09.710545+01 | 1486614729.71055 | pgbench_branches |            16384

 2017-02-09 05:32:11.126475+01 | 1486614731.12648 | pgbench_accounts |       4028858368
 2017-02-09 05:32:11.126475+01 | 1486614731.12648 | pgbench_tellers  |           139264
 2017-02-09 05:32:11.126475+01 | 1486614731.12648 | pgbench_history  |                0
 2017-02-09 05:32:11.126475+01 | 1486614731.12648 | pgbench_branches |            16384

 2017-02-09 05:32:12.537652+01 | 1486614732.53765 | pgbench_accounts |       4028858368
 2017-02-09 05:32:12.537652+01 | 1486614732.53765 | pgbench_tellers  |           139264
 2017-02-09 05:32:12.537652+01 | 1486614732.53765 | pgbench_history  |                0
 2017-02-09 05:32:12.537652+01 | 1486614732.53765 | pgbench_branches |            16384

 2017-02-09 05:32:13.85727+01 | 1486614733.85727 | pgbench_accounts |       4028858368
 2017-02-09 05:32:13.85727+01 | 1486614733.85727 | pgbench_tellers  |           139264
 2017-02-09 05:32:13.85727+01 | 1486614733.85727 | pgbench_history  |                0
 2017-02-09 05:32:13.85727+01 | 1486614733.85727 | pgbench_branches |            16384

 2017-02-09 05:32:15.264913+01 | 1486614735.26491 | pgbench_accounts |       4028858368
 2017-02-09 05:32:15.264913+01 | 1486614735.26491 | pgbench_tellers  |           139264
 2017-02-09 05:32:15.264913+01 | 1486614735.26491 | pgbench_history  |                0
 2017-02-09 05:32:15.264913+01 | 1486614735.26491 | pgbench_branches |            16384

 2017-02-09 05:32:16.614474+01 | 1486614736.61447 | pgbench_accounts |       4028858368
 2017-02-09 05:32:16.614474+01 | 1486614736.61447 | pgbench_tellers  |           139264
 2017-02-09 05:32:16.614474+01 | 1486614736.61447 | pgbench_history  |                0
 2017-02-09 05:32:16.614474+01 | 1486614736.61447 | pgbench_branches |            16384

 2017-02-09 05:32:17.996591+01 | 1486614737.99659 | pgbench_accounts |       4028858368
 2017-02-09 05:32:17.996591+01 | 1486614737.99659 | pgbench_tellers  |           139264
 2017-02-09 05:32:17.996591+01 | 1486614737.99659 | pgbench_history  |                0
 2017-02-09 05:32:17.996591+01 | 1486614737.99659 | pgbench_branches |            16384

 2017-02-09 05:32:19.399531+01 | 1486614739.39953 | pgbench_accounts |       4028858368
 2017-02-09 05:32:19.399531+01 | 1486614739.39953 | pgbench_tellers  |           139264
 2017-02-09 05:32:19.399531+01 | 1486614739.39953 | pgbench_history  |                0
 2017-02-09 05:32:19.399531+01 | 1486614739.39953 | pgbench_branches |            16384

 2017-02-09 05:32:20.785869+01 | 1486614740.78587 | pgbench_accounts |       4028858368
 2017-02-09 05:32:20.785869+01 | 1486614740.78587 | pgbench_tellers  |           139264
 2017-02-09 05:32:20.785869+01 | 1486614740.78587 | pgbench_history  |                0
 2017-02-09 05:32:20.785869+01 | 1486614740.78587 | pgbench_branches |            16384

 2017-02-09 05:32:22.120922+01 | 1486614742.12092 | pgbench_accounts |       4028858368
 2017-02-09 05:32:22.120922+01 | 1486614742.12092 | pgbench_tellers  |           139264
 2017-02-09 05:32:22.120922+01 | 1486614742.12092 | pgbench_history  |                0
 2017-02-09 05:32:22.120922+01 | 1486614742.12092 | pgbench_branches |            16384

 2017-02-09 05:32:23.46037+01 | 1486614743.46037 | pgbench_accounts |       4028858368
 2017-02-09 05:32:23.46037+01 | 1486614743.46037 | pgbench_tellers  |           139264
 2017-02-09 05:32:23.46037+01 | 1486614743.46037 | pgbench_history  |                0
 2017-02-09 05:32:23.46037+01 | 1486614743.46037 | pgbench_branches |            16384

 2017-02-09 05:32:24.884498+01 | 1486614744.8845 | pgbench_accounts |       4028858368
 2017-02-09 05:32:24.884498+01 | 1486614744.8845 | pgbench_tellers  |           139264
 2017-02-09 05:32:24.884498+01 | 1486614744.8845 | pgbench_history  |                0
 2017-02-09 05:32:24.884498+01 | 1486614744.8845 | pgbench_branches |            16384

 2017-02-09 05:32:26.287737+01 | 1486614746.28774 | pgbench_accounts |       4028858368
 2017-02-09 05:32:26.287737+01 | 1486614746.28774 | pgbench_tellers  |           139264
 2017-02-09 05:32:26.287737+01 | 1486614746.28774 | pgbench_history  |                0
 2017-02-09 05:32:26.287737+01 | 1486614746.28774 | pgbench_branches |            16384

 2017-02-09 05:32:27.621732+01 | 1486614747.62173 | pgbench_accounts |       4028858368
 2017-02-09 05:32:27.621732+01 | 1486614747.62173 | pgbench_tellers  |           139264
 2017-02-09 05:32:27.621732+01 | 1486614747.62173 | pgbench_history  |                0
 2017-02-09 05:32:27.621732+01 | 1486614747.62173 | pgbench_branches |            16384

 2017-02-09 05:32:28.889286+01 | 1486614748.88929 | pgbench_accounts |       4028858368
 2017-02-09 05:32:28.889286+01 | 1486614748.88929 | pgbench_tellers  |           139264
 2017-02-09 05:32:28.889286+01 | 1486614748.88929 | pgbench_history  |                0
 2017-02-09 05:32:28.889286+01 | 1486614748.88929 | pgbench_branches |            16384

 2017-02-09 05:32:30.214733+01 | 1486614750.21473 | pgbench_accounts |       4028858368
 2017-02-09 05:32:30.214733+01 | 1486614750.21473 | pgbench_tellers  |           139264
 2017-02-09 05:32:30.214733+01 | 1486614750.21473 | pgbench_history  |                0
 2017-02-09 05:32:30.214733+01 | 1486614750.21473 | pgbench_branches |            16384

 2017-02-09 05:32:31.580959+01 | 1486614751.58096 | pgbench_accounts |       4028858368
 2017-02-09 05:32:31.580959+01 | 1486614751.58096 | pgbench_tellers  |           139264
 2017-02-09 05:32:31.580959+01 | 1486614751.58096 | pgbench_history  |                0
 2017-02-09 05:32:31.580959+01 | 1486614751.58096 | pgbench_branches |            16384

 2017-02-09 05:32:32.964956+01 | 1486614752.96496 | pgbench_accounts |       4028858368
 2017-02-09 05:32:32.964956+01 | 1486614752.96496 | pgbench_tellers  |           139264
 2017-02-09 05:32:32.964956+01 | 1486614752.96496 | pgbench_history  |                0
 2017-02-09 05:32:32.964956+01 | 1486614752.96496 | pgbench_branches |            16384

 2017-02-09 05:32:34.324592+01 | 1486614754.32459 | pgbench_accounts |       4028858368
 2017-02-09 05:32:34.324592+01 | 1486614754.32459 | pgbench_tellers  |           139264
 2017-02-09 05:32:34.324592+01 | 1486614754.32459 | pgbench_history  |                0
 2017-02-09 05:32:34.324592+01 | 1486614754.32459 | pgbench_branches |            16384

 2017-02-09 05:32:35.715533+01 | 1486614755.71553 | pgbench_accounts |       4028858368
 2017-02-09 05:32:35.715533+01 | 1486614755.71553 | pgbench_tellers  |           139264
 2017-02-09 05:32:35.715533+01 | 1486614755.71553 | pgbench_history  |                0
 2017-02-09 05:32:35.715533+01 | 1486614755.71553 | pgbench_branches |            16384

 2017-02-09 05:32:37.08491+01 | 1486614757.08491 | pgbench_accounts |       4028858368
 2017-02-09 05:32:37.08491+01 | 1486614757.08491 | pgbench_tellers  |           139264
 2017-02-09 05:32:37.08491+01 | 1486614757.08491 | pgbench_history  |                0
 2017-02-09 05:32:37.08491+01 | 1486614757.08491 | pgbench_branches |            16384

 2017-02-09 05:32:38.411477+01 | 1486614758.41148 | pgbench_accounts |       4028858368
 2017-02-09 05:32:38.411477+01 | 1486614758.41148 | pgbench_tellers  |           139264
 2017-02-09 05:32:38.411477+01 | 1486614758.41148 | pgbench_history  |                0
 2017-02-09 05:32:38.411477+01 | 1486614758.41148 | pgbench_branches |            16384

 2017-02-09 05:32:39.715625+01 | 1486614759.71563 | pgbench_accounts |       4028858368
 2017-02-09 05:32:39.715625+01 | 1486614759.71563 | pgbench_tellers  |           139264
 2017-02-09 05:32:39.715625+01 | 1486614759.71563 | pgbench_history  |                0
 2017-02-09 05:32:39.715625+01 | 1486614759.71563 | pgbench_branches |            16384

 2017-02-09 05:32:41.072795+01 | 1486614761.07279 | pgbench_accounts |       4028858368
 2017-02-09 05:32:41.072795+01 | 1486614761.07279 | pgbench_tellers  |           139264
 2017-02-09 05:32:41.072795+01 | 1486614761.07279 | pgbench_history  |                0
 2017-02-09 05:32:41.072795+01 | 1486614761.07279 | pgbench_branches |            16384

 2017-02-09 05:32:42.37083+01 | 1486614762.37083 | pgbench_accounts |       4028858368
 2017-02-09 05:32:42.37083+01 | 1486614762.37083 | pgbench_tellers  |           139264
 2017-02-09 05:32:42.37083+01 | 1486614762.37083 | pgbench_history  |                0
 2017-02-09 05:32:42.37083+01 | 1486614762.37083 | pgbench_branches |            16384

 2017-02-09 05:32:43.695897+01 | 1486614763.6959 | pgbench_accounts |       4028858368
 2017-02-09 05:32:43.695897+01 | 1486614763.6959 | pgbench_tellers  |           139264
 2017-02-09 05:32:43.695897+01 | 1486614763.6959 | pgbench_history  |                0
 2017-02-09 05:32:43.695897+01 | 1486614763.6959 | pgbench_branches |            16384

 2017-02-09 05:32:45.142833+01 | 1486614765.14283 | pgbench_accounts |       4028858368
 2017-02-09 05:32:45.142833+01 | 1486614765.14283 | pgbench_tellers  |           139264
 2017-02-09 05:32:45.142833+01 | 1486614765.14283 | pgbench_history  |                0
 2017-02-09 05:32:45.142833+01 | 1486614765.14283 | pgbench_branches |            16384

 2017-02-09 05:32:46.519217+01 | 1486614766.51922 | pgbench_accounts |       4028858368
 2017-02-09 05:32:46.519217+01 | 1486614766.51922 | pgbench_tellers  |           139264
 2017-02-09 05:32:46.519217+01 | 1486614766.51922 | pgbench_history  |                0
 2017-02-09 05:32:46.519217+01 | 1486614766.51922 | pgbench_branches |            16384

 2017-02-09 05:32:47.864367+01 | 1486614767.86437 | pgbench_accounts |       4028858368
 2017-02-09 05:32:47.864367+01 | 1486614767.86437 | pgbench_tellers  |           139264
 2017-02-09 05:32:47.864367+01 | 1486614767.86437 | pgbench_history  |                0
 2017-02-09 05:32:47.864367+01 | 1486614767.86437 | pgbench_branches |            16384

 2017-02-09 05:32:49.205292+01 | 1486614769.20529 | pgbench_accounts |       4028858368
 2017-02-09 05:32:49.205292+01 | 1486614769.20529 | pgbench_tellers  |           139264
 2017-02-09 05:32:49.205292+01 | 1486614769.20529 | pgbench_history  |                0
 2017-02-09 05:32:49.205292+01 | 1486614769.20529 | pgbench_branches |            16384

 2017-02-09 05:32:50.56961+01 | 1486614770.56961 | pgbench_accounts |       4028858368
 2017-02-09 05:32:50.56961+01 | 1486614770.56961 | pgbench_tellers  |           139264
 2017-02-09 05:32:50.56961+01 | 1486614770.56961 | pgbench_history  |                0
 2017-02-09 05:32:50.56961+01 | 1486614770.56961 | pgbench_branches |            16384

 2017-02-09 05:32:51.908551+01 | 1486614771.90855 | pgbench_accounts |       4028858368
 2017-02-09 05:32:51.908551+01 | 1486614771.90855 | pgbench_tellers  |           139264
 2017-02-09 05:32:51.908551+01 | 1486614771.90855 | pgbench_history  |                0
 2017-02-09 05:32:51.908551+01 | 1486614771.90855 | pgbench_branches |            16384

 2017-02-09 05:32:53.232833+01 | 1486614773.23283 | pgbench_accounts |       4028858368
 2017-02-09 05:32:53.232833+01 | 1486614773.23283 | pgbench_tellers  |           139264
 2017-02-09 05:32:53.232833+01 | 1486614773.23283 | pgbench_history  |                0
 2017-02-09 05:32:53.232833+01 | 1486614773.23283 | pgbench_branches |            16384

 2017-02-09 05:32:54.542737+01 | 1486614774.54274 | pgbench_accounts |       4028858368
 2017-02-09 05:32:54.542737+01 | 1486614774.54274 | pgbench_tellers  |           139264
 2017-02-09 05:32:54.542737+01 | 1486614774.54274 | pgbench_history  |                0
 2017-02-09 05:32:54.542737+01 | 1486614774.54274 | pgbench_branches |            16384

 2017-02-09 05:32:55.951254+01 | 1486614775.95125 | pgbench_accounts |       4028858368
 2017-02-09 05:32:55.951254+01 | 1486614775.95125 | pgbench_tellers  |           139264
 2017-02-09 05:32:55.951254+01 | 1486614775.95125 | pgbench_history  |                0
 2017-02-09 05:32:55.951254+01 | 1486614775.95125 | pgbench_branches |            16384

 2017-02-09 05:32:57.329101+01 | 1486614777.3291 | pgbench_accounts |       4028858368
 2017-02-09 05:32:57.329101+01 | 1486614777.3291 | pgbench_tellers  |           139264
 2017-02-09 05:32:57.329101+01 | 1486614777.3291 | pgbench_history  |                0
 2017-02-09 05:32:57.329101+01 | 1486614777.3291 | pgbench_branches |            16384

 2017-02-09 05:32:58.702487+01 | 1486614778.70249 | pgbench_accounts |       4028858368
 2017-02-09 05:32:58.702487+01 | 1486614778.70249 | pgbench_tellers  |           139264
 2017-02-09 05:32:58.702487+01 | 1486614778.70249 | pgbench_history  |                0
 2017-02-09 05:32:58.702487+01 | 1486614778.70249 | pgbench_branches |            16384

 2017-02-09 05:33:00.11583+01 | 1486614780.11583 | pgbench_accounts |       4028858368
 2017-02-09 05:33:00.11583+01 | 1486614780.11583 | pgbench_tellers  |           139264
 2017-02-09 05:33:00.11583+01 | 1486614780.11583 | pgbench_history  |                0
 2017-02-09 05:33:00.11583+01 | 1486614780.11583 | pgbench_branches |            16384

 2017-02-09 05:33:01.426985+01 | 1486614781.42699 | pgbench_accounts |       4028858368
 2017-02-09 05:33:01.426985+01 | 1486614781.42699 | pgbench_tellers  |           139264
 2017-02-09 05:33:01.426985+01 | 1486614781.42699 | pgbench_history  |                0
 2017-02-09 05:33:01.426985+01 | 1486614781.42699 | pgbench_branches |            16384

 2017-02-09 05:33:02.770977+01 | 1486614782.77098 | pgbench_accounts |       4028858368
 2017-02-09 05:33:02.770977+01 | 1486614782.77098 | pgbench_tellers  |           139264
 2017-02-09 05:33:02.770977+01 | 1486614782.77098 | pgbench_history  |                0
 2017-02-09 05:33:02.770977+01 | 1486614782.77098 | pgbench_branches |            16384

 2017-02-09 05:33:04.214592+01 | 1486614784.21459 | pgbench_accounts |       4028858368
 2017-02-09 05:33:04.214592+01 | 1486614784.21459 | pgbench_tellers  |           139264
 2017-02-09 05:33:04.214592+01 | 1486614784.21459 | pgbench_history  |                0
 2017-02-09 05:33:04.214592+01 | 1486614784.21459 | pgbench_branches |            16384

 2017-02-09 05:33:05.590479+01 | 1486614785.59048 | pgbench_accounts |       4028858368
 2017-02-09 05:33:05.590479+01 | 1486614785.59048 | pgbench_tellers  |           139264
 2017-02-09 05:33:05.590479+01 | 1486614785.59048 | pgbench_history  |                0
 2017-02-09 05:33:05.590479+01 | 1486614785.59048 | pgbench_branches |            16384

 2017-02-09 05:33:06.963818+01 | 1486614786.96382 | pgbench_accounts |       4028858368
 2017-02-09 05:33:06.963818+01 | 1486614786.96382 | pgbench_tellers  |           139264
 2017-02-09 05:33:06.963818+01 | 1486614786.96382 | pgbench_history  |                0
 2017-02-09 05:33:06.963818+01 | 1486614786.96382 | pgbench_branches |            16384

 2017-02-09 05:33:08.33518+01 | 1486614788.33518 | pgbench_accounts |       4028858368
 2017-02-09 05:33:08.33518+01 | 1486614788.33518 | pgbench_tellers  |           139264
 2017-02-09 05:33:08.33518+01 | 1486614788.33518 | pgbench_history  |                0
 2017-02-09 05:33:08.33518+01 | 1486614788.33518 | pgbench_branches |            16384

 2017-02-09 05:33:09.73448+01 | 1486614789.73448 | pgbench_accounts |       4028858368
 2017-02-09 05:33:09.73448+01 | 1486614789.73448 | pgbench_tellers  |           139264
 2017-02-09 05:33:09.73448+01 | 1486614789.73448 | pgbench_history  |                0
 2017-02-09 05:33:09.73448+01 | 1486614789.73448 | pgbench_branches |            16384

 2017-02-09 05:33:11.108638+01 | 1486614791.10864 | pgbench_accounts |       4028858368
 2017-02-09 05:33:11.108638+01 | 1486614791.10864 | pgbench_tellers  |           139264
 2017-02-09 05:33:11.108638+01 | 1486614791.10864 | pgbench_history  |                0
 2017-02-09 05:33:11.108638+01 | 1486614791.10864 | pgbench_branches |            16384

 2017-02-09 05:33:12.42318+01 | 1486614792.42318 | pgbench_accounts |       4028858368
 2017-02-09 05:33:12.42318+01 | 1486614792.42318 | pgbench_tellers  |           139264
 2017-02-09 05:33:12.42318+01 | 1486614792.42318 | pgbench_history  |                0
 2017-02-09 05:33:12.42318+01 | 1486614792.42318 | pgbench_branches |            16384

 2017-02-09 05:33:13.822417+01 | 1486614793.82242 | pgbench_accounts |       4028858368
 2017-02-09 05:33:13.822417+01 | 1486614793.82242 | pgbench_tellers  |           139264
 2017-02-09 05:33:13.822417+01 | 1486614793.82242 | pgbench_history  |                0
 2017-02-09 05:33:13.822417+01 | 1486614793.82242 | pgbench_branches |            16384

 2017-02-09 05:33:15.236971+01 | 1486614795.23697 | pgbench_accounts |       4028858368
 2017-02-09 05:33:15.236971+01 | 1486614795.23697 | pgbench_tellers  |           139264
 2017-02-09 05:33:15.236971+01 | 1486614795.23697 | pgbench_history  |                0
 2017-02-09 05:33:15.236971+01 | 1486614795.23697 | pgbench_branches |            16384

 2017-02-09 05:33:16.701691+01 | 1486614796.70169 | pgbench_accounts |       4028858368
 2017-02-09 05:33:16.701691+01 | 1486614796.70169 | pgbench_tellers  |           139264
 2017-02-09 05:33:16.701691+01 | 1486614796.70169 | pgbench_history  |                0
 2017-02-09 05:33:16.701691+01 | 1486614796.70169 | pgbench_branches |            16384

 2017-02-09 05:33:18.089653+01 | 1486614798.08965 | pgbench_accounts |       4028858368
 2017-02-09 05:33:18.089653+01 | 1486614798.08965 | pgbench_tellers  |           139264
 2017-02-09 05:33:18.089653+01 | 1486614798.08965 | pgbench_history  |                0
 2017-02-09 05:33:18.089653+01 | 1486614798.08965 | pgbench_branches |            16384

 2017-02-09 05:33:19.453943+01 | 1486614799.45394 | pgbench_accounts |       4028858368
 2017-02-09 05:33:19.453943+01 | 1486614799.45394 | pgbench_tellers  |           139264
 2017-02-09 05:33:19.453943+01 | 1486614799.45394 | pgbench_history  |                0
 2017-02-09 05:33:19.453943+01 | 1486614799.45394 | pgbench_branches |            16384

 2017-02-09 05:33:20.815704+01 | 1486614800.8157 | pgbench_accounts |       4028858368
 2017-02-09 05:33:20.815704+01 | 1486614800.8157 | pgbench_tellers  |           139264
 2017-02-09 05:33:20.815704+01 | 1486614800.8157 | pgbench_history  |                0
 2017-02-09 05:33:20.815704+01 | 1486614800.8157 | pgbench_branches |            16384

 2017-02-09 05:33:22.185565+01 | 1486614802.18556 | pgbench_accounts |       4028858368
 2017-02-09 05:33:22.185565+01 | 1486614802.18556 | pgbench_tellers  |           139264
 2017-02-09 05:33:22.185565+01 | 1486614802.18556 | pgbench_history  |                0
 2017-02-09 05:33:22.185565+01 | 1486614802.18556 | pgbench_branches |            16384

 2017-02-09 05:33:23.509481+01 | 1486614803.50948 | pgbench_accounts |       4028858368
 2017-02-09 05:33:23.509481+01 | 1486614803.50948 | pgbench_tellers  |           139264
 2017-02-09 05:33:23.509481+01 | 1486614803.50948 | pgbench_history  |                0
 2017-02-09 05:33:23.509481+01 | 1486614803.50948 | pgbench_branches |            16384

 2017-02-09 05:33:24.826919+01 | 1486614804.82692 | pgbench_accounts |       4028858368
 2017-02-09 05:33:24.826919+01 | 1486614804.82692 | pgbench_tellers  |           139264
 2017-02-09 05:33:24.826919+01 | 1486614804.82692 | pgbench_history  |                0
 2017-02-09 05:33:24.826919+01 | 1486614804.82692 | pgbench_branches |            16384

 2017-02-09 05:33:26.223235+01 | 1486614806.22323 | pgbench_accounts |       4028858368
 2017-02-09 05:33:26.223235+01 | 1486614806.22323 | pgbench_tellers  |           139264
 2017-02-09 05:33:26.223235+01 | 1486614806.22323 | pgbench_history  |                0
 2017-02-09 05:33:26.223235+01 | 1486614806.22323 | pgbench_branches |            16384

 2017-02-09 05:33:27.586591+01 | 1486614807.58659 | pgbench_accounts |       4028858368
 2017-02-09 05:33:27.586591+01 | 1486614807.58659 | pgbench_tellers  |           139264
 2017-02-09 05:33:27.586591+01 | 1486614807.58659 | pgbench_history  |                0
 2017-02-09 05:33:27.586591+01 | 1486614807.58659 | pgbench_branches |            16384

 2017-02-09 05:33:28.923924+01 | 1486614808.92392 | pgbench_accounts |       4028858368
 2017-02-09 05:33:28.923924+01 | 1486614808.92392 | pgbench_tellers  |           139264
 2017-02-09 05:33:28.923924+01 | 1486614808.92392 | pgbench_history  |                0
 2017-02-09 05:33:28.923924+01 | 1486614808.92392 | pgbench_branches |            16384

 2017-02-09 05:33:30.319745+01 | 1486614810.31975 | pgbench_accounts |       4028858368
 2017-02-09 05:33:30.319745+01 | 1486614810.31975 | pgbench_tellers  |           139264
 2017-02-09 05:33:30.319745+01 | 1486614810.31975 | pgbench_history  |                0
 2017-02-09 05:33:30.319745+01 | 1486614810.31975 | pgbench_branches |            16384

 2017-02-09 05:33:31.677906+01 | 1486614811.67791 | pgbench_accounts |       4028858368
 2017-02-09 05:33:31.677906+01 | 1486614811.67791 | pgbench_tellers  |           139264
 2017-02-09 05:33:31.677906+01 | 1486614811.67791 | pgbench_history  |                0
 2017-02-09 05:33:31.677906+01 | 1486614811.67791 | pgbench_branches |            16384

 2017-02-09 05:33:33.019835+01 | 1486614813.01983 | pgbench_accounts |       4028858368
 2017-02-09 05:33:33.019835+01 | 1486614813.01983 | pgbench_tellers  |           139264
 2017-02-09 05:33:33.019835+01 | 1486614813.01983 | pgbench_history  |                0
 2017-02-09 05:33:33.019835+01 | 1486614813.01983 | pgbench_branches |            16384

 2017-02-09 05:33:34.32951+01 | 1486614814.32951 | pgbench_accounts |       4028858368
 2017-02-09 05:33:34.32951+01 | 1486614814.32951 | pgbench_tellers  |           139264
 2017-02-09 05:33:34.32951+01 | 1486614814.32951 | pgbench_history  |                0
 2017-02-09 05:33:34.32951+01 | 1486614814.32951 | pgbench_branches |            16384

 2017-02-09 05:33:35.675393+01 | 1486614815.67539 | pgbench_accounts |       4028858368
 2017-02-09 05:33:35.675393+01 | 1486614815.67539 | pgbench_tellers  |           139264
 2017-02-09 05:33:35.675393+01 | 1486614815.67539 | pgbench_history  |                0
 2017-02-09 05:33:35.675393+01 | 1486614815.67539 | pgbench_branches |            16384

 2017-02-09 05:33:37.01339+01 | 1486614817.01339 | pgbench_accounts |       4028858368
 2017-02-09 05:33:37.01339+01 | 1486614817.01339 | pgbench_tellers  |           139264
 2017-02-09 05:33:37.01339+01 | 1486614817.01339 | pgbench_history  |                0
 2017-02-09 05:33:37.01339+01 | 1486614817.01339 | pgbench_branches |            16384

 2017-02-09 05:33:38.339164+01 | 1486614818.33916 | pgbench_accounts |       4028858368
 2017-02-09 05:33:38.339164+01 | 1486614818.33916 | pgbench_tellers  |           139264
 2017-02-09 05:33:38.339164+01 | 1486614818.33916 | pgbench_history  |                0
 2017-02-09 05:33:38.339164+01 | 1486614818.33916 | pgbench_branches |            16384

 2017-02-09 05:33:39.722759+01 | 1486614819.72276 | pgbench_accounts |       4028858368
 2017-02-09 05:33:39.722759+01 | 1486614819.72276 | pgbench_tellers  |           139264
 2017-02-09 05:33:39.722759+01 | 1486614819.72276 | pgbench_history  |                0
 2017-02-09 05:33:39.722759+01 | 1486614819.72276 | pgbench_branches |            16384

 2017-02-09 05:33:41.080011+01 | 1486614821.08001 | pgbench_accounts |       4028858368
 2017-02-09 05:33:41.080011+01 | 1486614821.08001 | pgbench_tellers  |           139264
 2017-02-09 05:33:41.080011+01 | 1486614821.08001 | pgbench_history  |                0
 2017-02-09 05:33:41.080011+01 | 1486614821.08001 | pgbench_branches |            16384

 2017-02-09 05:33:42.469638+01 | 1486614822.46964 | pgbench_accounts |       4028858368
 2017-02-09 05:33:42.469638+01 | 1486614822.46964 | pgbench_tellers  |           139264
 2017-02-09 05:33:42.469638+01 | 1486614822.46964 | pgbench_history  |                0
 2017-02-09 05:33:42.469638+01 | 1486614822.46964 | pgbench_branches |            16384

 2017-02-09 05:33:43.857797+01 | 1486614823.8578 | pgbench_accounts |       4028858368
 2017-02-09 05:33:43.857797+01 | 1486614823.8578 | pgbench_tellers  |           139264
 2017-02-09 05:33:43.857797+01 | 1486614823.8578 | pgbench_history  |                0
 2017-02-09 05:33:43.857797+01 | 1486614823.8578 | pgbench_branches |            16384

 2017-02-09 05:33:45.273403+01 | 1486614825.2734 | pgbench_accounts |       4028858368
 2017-02-09 05:33:45.273403+01 | 1486614825.2734 | pgbench_tellers  |           139264
 2017-02-09 05:33:45.273403+01 | 1486614825.2734 | pgbench_history  |                0
 2017-02-09 05:33:45.273403+01 | 1486614825.2734 | pgbench_branches |            16384

 2017-02-09 05:33:46.561489+01 | 1486614826.56149 | pgbench_accounts |       4028858368
 2017-02-09 05:33:46.561489+01 | 1486614826.56149 | pgbench_tellers  |           139264
 2017-02-09 05:33:46.561489+01 | 1486614826.56149 | pgbench_history  |                0
 2017-02-09 05:33:46.561489+01 | 1486614826.56149 | pgbench_branches |            16384

 2017-02-09 05:33:47.86285+01 | 1486614827.86285 | pgbench_accounts |       4028858368
 2017-02-09 05:33:47.86285+01 | 1486614827.86285 | pgbench_tellers  |           139264
 2017-02-09 05:33:47.86285+01 | 1486614827.86285 | pgbench_history  |                0
 2017-02-09 05:33:47.86285+01 | 1486614827.86285 | pgbench_branches |            16384

 2017-02-09 05:33:49.155727+01 | 1486614829.15573 | pgbench_accounts |       4028858368
 2017-02-09 05:33:49.155727+01 | 1486614829.15573 | pgbench_tellers  |           139264
 2017-02-09 05:33:49.155727+01 | 1486614829.15573 | pgbench_history  |                0
 2017-02-09 05:33:49.155727+01 | 1486614829.15573 | pgbench_branches |            16384

 2017-02-09 05:33:50.502944+01 | 1486614830.50294 | pgbench_accounts |       4028858368
 2017-02-09 05:33:50.502944+01 | 1486614830.50294 | pgbench_tellers  |           139264
 2017-02-09 05:33:50.502944+01 | 1486614830.50294 | pgbench_history  |                0
 2017-02-09 05:33:50.502944+01 | 1486614830.50294 | pgbench_branches |            16384

 2017-02-09 05:33:51.83728+01 | 1486614831.83728 | pgbench_accounts |       4028858368
 2017-02-09 05:33:51.83728+01 | 1486614831.83728 | pgbench_tellers  |           139264
 2017-02-09 05:33:51.83728+01 | 1486614831.83728 | pgbench_history  |                0
 2017-02-09 05:33:51.83728+01 | 1486614831.83728 | pgbench_branches |            16384

 2017-02-09 05:33:53.174702+01 | 1486614833.1747 | pgbench_accounts |       4028858368
 2017-02-09 05:33:53.174702+01 | 1486614833.1747 | pgbench_tellers  |           139264
 2017-02-09 05:33:53.174702+01 | 1486614833.1747 | pgbench_history  |                0
 2017-02-09 05:33:53.174702+01 | 1486614833.1747 | pgbench_branches |            16384

 2017-02-09 05:33:54.576765+01 | 1486614834.57677 | pgbench_accounts |       4028858368
 2017-02-09 05:33:54.576765+01 | 1486614834.57677 | pgbench_tellers  |           139264
 2017-02-09 05:33:54.576765+01 | 1486614834.57677 | pgbench_history  |                0
 2017-02-09 05:33:54.576765+01 | 1486614834.57677 | pgbench_branches |            16384

 2017-02-09 05:33:55.897265+01 | 1486614835.89726 | pgbench_accounts |       4028858368
 2017-02-09 05:33:55.897265+01 | 1486614835.89726 | pgbench_tellers  |           139264
 2017-02-09 05:33:55.897265+01 | 1486614835.89726 | pgbench_history  |                0
 2017-02-09 05:33:55.897265+01 | 1486614835.89726 | pgbench_branches |            16384

 2017-02-09 05:33:57.202889+01 | 1486614837.20289 | pgbench_accounts |       4028858368
 2017-02-09 05:33:57.202889+01 | 1486614837.20289 | pgbench_tellers  |           139264
 2017-02-09 05:33:57.202889+01 | 1486614837.20289 | pgbench_history  |                0
 2017-02-09 05:33:57.202889+01 | 1486614837.20289 | pgbench_branches |            16384

 2017-02-09 05:33:58.529321+01 | 1486614838.52932 | pgbench_accounts |       4028858368
 2017-02-09 05:33:58.529321+01 | 1486614838.52932 | pgbench_tellers  |           139264
 2017-02-09 05:33:58.529321+01 | 1486614838.52932 | pgbench_history  |                0
 2017-02-09 05:33:58.529321+01 | 1486614838.52932 | pgbench_branches |            16384

 2017-02-09 05:33:59.904186+01 | 1486614839.90419 | pgbench_accounts |       4028858368
 2017-02-09 05:33:59.904186+01 | 1486614839.90419 | pgbench_tellers  |           139264
 2017-02-09 05:33:59.904186+01 | 1486614839.90419 | pgbench_history  |                0
 2017-02-09 05:33:59.904186+01 | 1486614839.90419 | pgbench_branches |            16384

 2017-02-09 05:34:01.294842+01 | 1486614841.29484 | pgbench_accounts |       4028858368
 2017-02-09 05:34:01.294842+01 | 1486614841.29484 | pgbench_tellers  |           139264
 2017-02-09 05:34:01.294842+01 | 1486614841.29484 | pgbench_history  |                0
 2017-02-09 05:34:01.294842+01 | 1486614841.29484 | pgbench_branches |            16384

 2017-02-09 05:34:02.676096+01 | 1486614842.6761 | pgbench_accounts |       4028858368
 2017-02-09 05:34:02.676096+01 | 1486614842.6761 | pgbench_tellers  |           139264
 2017-02-09 05:34:02.676096+01 | 1486614842.6761 | pgbench_history  |                0
 2017-02-09 05:34:02.676096+01 | 1486614842.6761 | pgbench_branches |            16384

 2017-02-09 05:34:04.013121+01 | 1486614844.01312 | pgbench_accounts |       4028858368
 2017-02-09 05:34:04.013121+01 | 1486614844.01312 | pgbench_tellers  |           139264
 2017-02-09 05:34:04.013121+01 | 1486614844.01312 | pgbench_history  |                0
 2017-02-09 05:34:04.013121+01 | 1486614844.01312 | pgbench_branches |            16384

 2017-02-09 05:34:05.417001+01 | 1486614845.417 | pgbench_accounts |       4028858368
 2017-02-09 05:34:05.417001+01 | 1486614845.417 | pgbench_tellers  |           139264
 2017-02-09 05:34:05.417001+01 | 1486614845.417 | pgbench_history  |                0
 2017-02-09 05:34:05.417001+01 | 1486614845.417 | pgbench_branches |            16384

 2017-02-09 05:34:06.812438+01 | 1486614846.81244 | pgbench_accounts |       4028858368
 2017-02-09 05:34:06.812438+01 | 1486614846.81244 | pgbench_tellers  |           139264
 2017-02-09 05:34:06.812438+01 | 1486614846.81244 | pgbench_history  |                0
 2017-02-09 05:34:06.812438+01 | 1486614846.81244 | pgbench_branches |            16384

 2017-02-09 05:34:08.216456+01 | 1486614848.21646 | pgbench_accounts |       4028858368
 2017-02-09 05:34:08.216456+01 | 1486614848.21646 | pgbench_tellers  |           139264
 2017-02-09 05:34:08.216456+01 | 1486614848.21646 | pgbench_history  |                0
 2017-02-09 05:34:08.216456+01 | 1486614848.21646 | pgbench_branches |            16384

 2017-02-09 05:34:09.552408+01 | 1486614849.55241 | pgbench_accounts |       4028858368
 2017-02-09 05:34:09.552408+01 | 1486614849.55241 | pgbench_tellers  |           139264
 2017-02-09 05:34:09.552408+01 | 1486614849.55241 | pgbench_history  |                0
 2017-02-09 05:34:09.552408+01 | 1486614849.55241 | pgbench_branches |            16384

 2017-02-09 05:34:10.932526+01 | 1486614850.93253 | pgbench_accounts |       4028858368
 2017-02-09 05:34:10.932526+01 | 1486614850.93253 | pgbench_tellers  |           139264
 2017-02-09 05:34:10.932526+01 | 1486614850.93253 | pgbench_history  |                0
 2017-02-09 05:34:10.932526+01 | 1486614850.93253 | pgbench_branches |            16384

 2017-02-09 05:34:12.27238+01 | 1486614852.27238 | pgbench_accounts |       4028858368
 2017-02-09 05:34:12.27238+01 | 1486614852.27238 | pgbench_tellers  |           139264
 2017-02-09 05:34:12.27238+01 | 1486614852.27238 | pgbench_history  |                0
 2017-02-09 05:34:12.27238+01 | 1486614852.27238 | pgbench_branches |            16384

 2017-02-09 05:34:13.562861+01 | 1486614853.56286 | pgbench_accounts |       4028858368
 2017-02-09 05:34:13.562861+01 | 1486614853.56286 | pgbench_tellers  |           139264
 2017-02-09 05:34:13.562861+01 | 1486614853.56286 | pgbench_history  |                0
 2017-02-09 05:34:13.562861+01 | 1486614853.56286 | pgbench_branches |            16384

 2017-02-09 05:34:14.902103+01 | 1486614854.9021 | pgbench_accounts |       4028858368
 2017-02-09 05:34:14.902103+01 | 1486614854.9021 | pgbench_tellers  |           139264
 2017-02-09 05:34:14.902103+01 | 1486614854.9021 | pgbench_history  |                0
 2017-02-09 05:34:14.902103+01 | 1486614854.9021 | pgbench_branches |            16384

 2017-02-09 05:34:16.237789+01 | 1486614856.23779 | pgbench_accounts |       4028858368
 2017-02-09 05:34:16.237789+01 | 1486614856.23779 | pgbench_tellers  |           139264
 2017-02-09 05:34:16.237789+01 | 1486614856.23779 | pgbench_history  |                0
 2017-02-09 05:34:16.237789+01 | 1486614856.23779 | pgbench_branches |            16384

 2017-02-09 05:34:17.640109+01 | 1486614857.64011 | pgbench_accounts |       4028858368
 2017-02-09 05:34:17.640109+01 | 1486614857.64011 | pgbench_tellers  |           139264
 2017-02-09 05:34:17.640109+01 | 1486614857.64011 | pgbench_history  |                0
 2017-02-09 05:34:17.640109+01 | 1486614857.64011 | pgbench_branches |            16384

 2017-02-09 05:34:18.972751+01 | 1486614858.97275 | pgbench_accounts |       4028858368
 2017-02-09 05:34:18.972751+01 | 1486614858.97275 | pgbench_tellers  |           139264
 2017-02-09 05:34:18.972751+01 | 1486614858.97275 | pgbench_history  |                0
 2017-02-09 05:34:18.972751+01 | 1486614858.97275 | pgbench_branches |            16384

 2017-02-09 05:34:20.3931+01 | 1486614860.3931 | pgbench_accounts |       4028858368
 2017-02-09 05:34:20.3931+01 | 1486614860.3931 | pgbench_tellers  |           139264
 2017-02-09 05:34:20.3931+01 | 1486614860.3931 | pgbench_history  |                0
 2017-02-09 05:34:20.3931+01 | 1486614860.3931 | pgbench_branches |            16384

 2017-02-09 05:34:21.775251+01 | 1486614861.77525 | pgbench_accounts |       4028858368
 2017-02-09 05:34:21.775251+01 | 1486614861.77525 | pgbench_tellers  |           139264
 2017-02-09 05:34:21.775251+01 | 1486614861.77525 | pgbench_history  |                0
 2017-02-09 05:34:21.775251+01 | 1486614861.77525 | pgbench_branches |            16384

 2017-02-09 05:34:23.108384+01 | 1486614863.10838 | pgbench_accounts |       4028858368
 2017-02-09 05:34:23.108384+01 | 1486614863.10838 | pgbench_tellers  |           139264
 2017-02-09 05:34:23.108384+01 | 1486614863.10838 | pgbench_history  |                0
 2017-02-09 05:34:23.108384+01 | 1486614863.10838 | pgbench_branches |            16384

 2017-02-09 05:34:24.4694+01 | 1486614864.4694 | pgbench_accounts |       4028858368
 2017-02-09 05:34:24.4694+01 | 1486614864.4694 | pgbench_tellers  |           139264
 2017-02-09 05:34:24.4694+01 | 1486614864.4694 | pgbench_history  |                0
 2017-02-09 05:34:24.4694+01 | 1486614864.4694 | pgbench_branches |            16384

 2017-02-09 05:34:25.880701+01 | 1486614865.8807 | pgbench_accounts |       4028858368
 2017-02-09 05:34:25.880701+01 | 1486614865.8807 | pgbench_tellers  |           139264
 2017-02-09 05:34:25.880701+01 | 1486614865.8807 | pgbench_history  |                0
 2017-02-09 05:34:25.880701+01 | 1486614865.8807 | pgbench_branches |            16384

 2017-02-09 05:34:27.239946+01 | 1486614867.23995 | pgbench_accounts |       4028858368
 2017-02-09 05:34:27.239946+01 | 1486614867.23995 | pgbench_tellers  |           139264
 2017-02-09 05:34:27.239946+01 | 1486614867.23995 | pgbench_history  |                0
 2017-02-09 05:34:27.239946+01 | 1486614867.23995 | pgbench_branches |            16384

 2017-02-09 05:34:28.670959+01 | 1486614868.67096 | pgbench_accounts |       4028858368
 2017-02-09 05:34:28.670959+01 | 1486614868.67096 | pgbench_tellers  |           139264
 2017-02-09 05:34:28.670959+01 | 1486614868.67096 | pgbench_history  |                0
 2017-02-09 05:34:28.670959+01 | 1486614868.67096 | pgbench_branches |            16384

 2017-02-09 05:34:30.02979+01 | 1486614870.02979 | pgbench_accounts |       4028858368
 2017-02-09 05:34:30.02979+01 | 1486614870.02979 | pgbench_tellers  |           139264
 2017-02-09 05:34:30.02979+01 | 1486614870.02979 | pgbench_history  |                0
 2017-02-09 05:34:30.02979+01 | 1486614870.02979 | pgbench_branches |            16384

 2017-02-09 05:34:31.388224+01 | 1486614871.38822 | pgbench_accounts |       4028858368
 2017-02-09 05:34:31.388224+01 | 1486614871.38822 | pgbench_tellers  |           139264
 2017-02-09 05:34:31.388224+01 | 1486614871.38822 | pgbench_history  |                0
 2017-02-09 05:34:31.388224+01 | 1486614871.38822 | pgbench_branches |            16384

 2017-02-09 05:34:32.745934+01 | 1486614872.74593 | pgbench_accounts |       4028858368
 2017-02-09 05:34:32.745934+01 | 1486614872.74593 | pgbench_tellers  |           139264
 2017-02-09 05:34:32.745934+01 | 1486614872.74593 | pgbench_history  |                0
 2017-02-09 05:34:32.745934+01 | 1486614872.74593 | pgbench_branches |            16384

 2017-02-09 05:34:34.110087+01 | 1486614874.11009 | pgbench_accounts |       4028858368
 2017-02-09 05:34:34.110087+01 | 1486614874.11009 | pgbench_tellers  |           139264
 2017-02-09 05:34:34.110087+01 | 1486614874.11009 | pgbench_history  |                0
 2017-02-09 05:34:34.110087+01 | 1486614874.11009 | pgbench_branches |            16384

 2017-02-09 05:34:35.486718+01 | 1486614875.48672 | pgbench_accounts |       4028858368
 2017-02-09 05:34:35.486718+01 | 1486614875.48672 | pgbench_tellers  |           139264
 2017-02-09 05:34:35.486718+01 | 1486614875.48672 | pgbench_history  |                0
 2017-02-09 05:34:35.486718+01 | 1486614875.48672 | pgbench_branches |            16384

 2017-02-09 05:34:36.818043+01 | 1486614876.81804 | pgbench_accounts |       4028858368
 2017-02-09 05:34:36.818043+01 | 1486614876.81804 | pgbench_tellers  |           139264
 2017-02-09 05:34:36.818043+01 | 1486614876.81804 | pgbench_history  |                0
 2017-02-09 05:34:36.818043+01 | 1486614876.81804 | pgbench_branches |            16384

 2017-02-09 05:34:38.183599+01 | 1486614878.1836 | pgbench_accounts |       4028858368
 2017-02-09 05:34:38.183599+01 | 1486614878.1836 | pgbench_tellers  |           139264
 2017-02-09 05:34:38.183599+01 | 1486614878.1836 | pgbench_history  |                0
 2017-02-09 05:34:38.183599+01 | 1486614878.1836 | pgbench_branches |            16384

 2017-02-09 05:34:39.583352+01 | 1486614879.58335 | pgbench_accounts |       4028858368
 2017-02-09 05:34:39.583352+01 | 1486614879.58335 | pgbench_tellers  |           139264
 2017-02-09 05:34:39.583352+01 | 1486614879.58335 | pgbench_history  |                0
 2017-02-09 05:34:39.583352+01 | 1486614879.58335 | pgbench_branches |            16384

 2017-02-09 05:34:40.938947+01 | 1486614880.93895 | pgbench_accounts |       4028858368
 2017-02-09 05:34:40.938947+01 | 1486614880.93895 | pgbench_tellers  |           139264
 2017-02-09 05:34:40.938947+01 | 1486614880.93895 | pgbench_history  |                0
 2017-02-09 05:34:40.938947+01 | 1486614880.93895 | pgbench_branches |            16384

 2017-02-09 05:34:42.306264+01 | 1486614882.30626 | pgbench_accounts |       4028858368
 2017-02-09 05:34:42.306264+01 | 1486614882.30626 | pgbench_tellers  |           139264
 2017-02-09 05:34:42.306264+01 | 1486614882.30626 | pgbench_history  |                0
 2017-02-09 05:34:42.306264+01 | 1486614882.30626 | pgbench_branches |            16384

 2017-02-09 05:34:43.673001+01 | 1486614883.673 | pgbench_accounts |       4028858368
 2017-02-09 05:34:43.673001+01 | 1486614883.673 | pgbench_tellers  |           139264
 2017-02-09 05:34:43.673001+01 | 1486614883.673 | pgbench_history  |                0
 2017-02-09 05:34:43.673001+01 | 1486614883.673 | pgbench_branches |            16384

 2017-02-09 05:34:45.045686+01 | 1486614885.04569 | pgbench_accounts |       4028858368
 2017-02-09 05:34:45.045686+01 | 1486614885.04569 | pgbench_tellers  |           139264
 2017-02-09 05:34:45.045686+01 | 1486614885.04569 | pgbench_history  |                0
 2017-02-09 05:34:45.045686+01 | 1486614885.04569 | pgbench_branches |            16384

 2017-02-09 05:34:46.325907+01 | 1486614886.32591 | pgbench_accounts |       4028858368
 2017-02-09 05:34:46.325907+01 | 1486614886.32591 | pgbench_tellers  |           139264
 2017-02-09 05:34:46.325907+01 | 1486614886.32591 | pgbench_history  |                0
 2017-02-09 05:34:46.325907+01 | 1486614886.32591 | pgbench_branches |            16384

 2017-02-09 05:34:47.716107+01 | 1486614887.71611 | pgbench_accounts |       4028858368
 2017-02-09 05:34:47.716107+01 | 1486614887.71611 | pgbench_tellers  |           139264
 2017-02-09 05:34:47.716107+01 | 1486614887.71611 | pgbench_history  |                0
 2017-02-09 05:34:47.716107+01 | 1486614887.71611 | pgbench_branches |            16384

 2017-02-09 05:34:49.054958+01 | 1486614889.05496 | pgbench_accounts |       4028858368
 2017-02-09 05:34:49.054958+01 | 1486614889.05496 | pgbench_tellers  |           139264
 2017-02-09 05:34:49.054958+01 | 1486614889.05496 | pgbench_history  |                0
 2017-02-09 05:34:49.054958+01 | 1486614889.05496 | pgbench_branches |            16384

 2017-02-09 05:34:50.412583+01 | 1486614890.41258 | pgbench_accounts |       4028858368
 2017-02-09 05:34:50.412583+01 | 1486614890.41258 | pgbench_tellers  |           139264
 2017-02-09 05:34:50.412583+01 | 1486614890.41258 | pgbench_history  |                0
 2017-02-09 05:34:50.412583+01 | 1486614890.41258 | pgbench_branches |            16384

 2017-02-09 05:34:51.756483+01 | 1486614891.75648 | pgbench_accounts |       4028858368
 2017-02-09 05:34:51.756483+01 | 1486614891.75648 | pgbench_tellers  |           139264
 2017-02-09 05:34:51.756483+01 | 1486614891.75648 | pgbench_history  |                0
 2017-02-09 05:34:51.756483+01 | 1486614891.75648 | pgbench_branches |            16384

 2017-02-09 05:34:53.144827+01 | 1486614893.14483 | pgbench_accounts |       4028858368
 2017-02-09 05:34:53.144827+01 | 1486614893.14483 | pgbench_tellers  |           139264
 2017-02-09 05:34:53.144827+01 | 1486614893.14483 | pgbench_history  |                0
 2017-02-09 05:34:53.144827+01 | 1486614893.14483 | pgbench_branches |            16384

 2017-02-09 05:34:54.514766+01 | 1486614894.51477 | pgbench_accounts |       4028858368
 2017-02-09 05:34:54.514766+01 | 1486614894.51477 | pgbench_tellers  |           139264
 2017-02-09 05:34:54.514766+01 | 1486614894.51477 | pgbench_history  |                0
 2017-02-09 05:34:54.514766+01 | 1486614894.51477 | pgbench_branches |            16384

 2017-02-09 05:34:55.900433+01 | 1486614895.90043 | pgbench_accounts |       4028858368
 2017-02-09 05:34:55.900433+01 | 1486614895.90043 | pgbench_tellers  |           139264
 2017-02-09 05:34:55.900433+01 | 1486614895.90043 | pgbench_history  |                0
 2017-02-09 05:34:55.900433+01 | 1486614895.90043 | pgbench_branches |            16384

 2017-02-09 05:34:57.316887+01 | 1486614897.31689 | pgbench_accounts |       4028858368
 2017-02-09 05:34:57.316887+01 | 1486614897.31689 | pgbench_tellers  |           139264
 2017-02-09 05:34:57.316887+01 | 1486614897.31689 | pgbench_history  |                0
 2017-02-09 05:34:57.316887+01 | 1486614897.31689 | pgbench_branches |            16384

 2017-02-09 05:34:58.639763+01 | 1486614898.63976 | pgbench_accounts |       4028858368
 2017-02-09 05:34:58.639763+01 | 1486614898.63976 | pgbench_tellers  |           139264
 2017-02-09 05:34:58.639763+01 | 1486614898.63976 | pgbench_history  |                0
 2017-02-09 05:34:58.639763+01 | 1486614898.63976 | pgbench_branches |            16384

 2017-02-09 05:34:59.994894+01 | 1486614899.99489 | pgbench_accounts |       4028858368
 2017-02-09 05:34:59.994894+01 | 1486614899.99489 | pgbench_tellers  |           139264
 2017-02-09 05:34:59.994894+01 | 1486614899.99489 | pgbench_history  |                0
 2017-02-09 05:34:59.994894+01 | 1486614899.99489 | pgbench_branches |            16384

 2017-02-09 05:35:01.318072+01 | 1486614901.31807 | pgbench_accounts |       4028858368
 2017-02-09 05:35:01.318072+01 | 1486614901.31807 | pgbench_tellers  |           139264
 2017-02-09 05:35:01.318072+01 | 1486614901.31807 | pgbench_history  |                0
 2017-02-09 05:35:01.318072+01 | 1486614901.31807 | pgbench_branches |            16384

 2017-02-09 05:35:02.726443+01 | 1486614902.72644 | pgbench_accounts |       4028858368
 2017-02-09 05:35:02.726443+01 | 1486614902.72644 | pgbench_tellers  |           139264
 2017-02-09 05:35:02.726443+01 | 1486614902.72644 | pgbench_history  |                0
 2017-02-09 05:35:02.726443+01 | 1486614902.72644 | pgbench_branches |            16384

 2017-02-09 05:35:04.113702+01 | 1486614904.1137 | pgbench_accounts |       4028858368
 2017-02-09 05:35:04.113702+01 | 1486614904.1137 | pgbench_tellers  |           139264
 2017-02-09 05:35:04.113702+01 | 1486614904.1137 | pgbench_history  |                0
 2017-02-09 05:35:04.113702+01 | 1486614904.1137 | pgbench_branches |            16384

 2017-02-09 05:35:05.506225+01 | 1486614905.50623 | pgbench_accounts |       4028858368
 2017-02-09 05:35:05.506225+01 | 1486614905.50623 | pgbench_tellers  |           139264
 2017-02-09 05:35:05.506225+01 | 1486614905.50623 | pgbench_history  |                0
 2017-02-09 05:35:05.506225+01 | 1486614905.50623 | pgbench_branches |            16384

 2017-02-09 05:35:06.804907+01 | 1486614906.80491 | pgbench_accounts |       4028858368
 2017-02-09 05:35:06.804907+01 | 1486614906.80491 | pgbench_tellers  |           139264
 2017-02-09 05:35:06.804907+01 | 1486614906.80491 | pgbench_history  |                0
 2017-02-09 05:35:06.804907+01 | 1486614906.80491 | pgbench_branches |            16384

 2017-02-09 05:35:08.123093+01 | 1486614908.12309 | pgbench_accounts |       4028858368
 2017-02-09 05:35:08.123093+01 | 1486614908.12309 | pgbench_tellers  |           139264
 2017-02-09 05:35:08.123093+01 | 1486614908.12309 | pgbench_history  |                0
 2017-02-09 05:35:08.123093+01 | 1486614908.12309 | pgbench_branches |            16384

 2017-02-09 05:35:09.43587+01 | 1486614909.43587 | pgbench_accounts |       4028858368
 2017-02-09 05:35:09.43587+01 | 1486614909.43587 | pgbench_tellers  |           139264
 2017-02-09 05:35:09.43587+01 | 1486614909.43587 | pgbench_history  |                0
 2017-02-09 05:35:09.43587+01 | 1486614909.43587 | pgbench_branches |            16384

 2017-02-09 05:35:10.772527+01 | 1486614910.77253 | pgbench_accounts |       4028858368
 2017-02-09 05:35:10.772527+01 | 1486614910.77253 | pgbench_tellers  |           139264
 2017-02-09 05:35:10.772527+01 | 1486614910.77253 | pgbench_history  |                0
 2017-02-09 05:35:10.772527+01 | 1486614910.77253 | pgbench_branches |            16384

 2017-02-09 05:35:12.184186+01 | 1486614912.18419 | pgbench_accounts |       4028858368
 2017-02-09 05:35:12.184186+01 | 1486614912.18419 | pgbench_tellers  |           139264
 2017-02-09 05:35:12.184186+01 | 1486614912.18419 | pgbench_history  |                0
 2017-02-09 05:35:12.184186+01 | 1486614912.18419 | pgbench_branches |            16384

 2017-02-09 05:35:13.587276+01 | 1486614913.58728 | pgbench_accounts |       4028858368
 2017-02-09 05:35:13.587276+01 | 1486614913.58728 | pgbench_tellers  |           139264
 2017-02-09 05:35:13.587276+01 | 1486614913.58728 | pgbench_history  |                0
 2017-02-09 05:35:13.587276+01 | 1486614913.58728 | pgbench_branches |            16384

 2017-02-09 05:35:14.945614+01 | 1486614914.94561 | pgbench_accounts |       4028858368
 2017-02-09 05:35:14.945614+01 | 1486614914.94561 | pgbench_tellers  |           139264
 2017-02-09 05:35:14.945614+01 | 1486614914.94561 | pgbench_history  |                0
 2017-02-09 05:35:14.945614+01 | 1486614914.94561 | pgbench_branches |            16384

 2017-02-09 05:35:16.274373+01 | 1486614916.27437 | pgbench_accounts |       4028858368
 2017-02-09 05:35:16.274373+01 | 1486614916.27437 | pgbench_tellers  |           139264
 2017-02-09 05:35:16.274373+01 | 1486614916.27437 | pgbench_history  |                0
 2017-02-09 05:35:16.274373+01 | 1486614916.27437 | pgbench_branches |            16384

 2017-02-09 05:35:17.670462+01 | 1486614917.67046 | pgbench_accounts |       4028858368
 2017-02-09 05:35:17.670462+01 | 1486614917.67046 | pgbench_tellers  |           139264
 2017-02-09 05:35:17.670462+01 | 1486614917.67046 | pgbench_history  |                0
 2017-02-09 05:35:17.670462+01 | 1486614917.67046 | pgbench_branches |            16384

 2017-02-09 05:35:19.1206+01 | 1486614919.1206 | pgbench_accounts |       4028858368
 2017-02-09 05:35:19.1206+01 | 1486614919.1206 | pgbench_tellers  |           139264
 2017-02-09 05:35:19.1206+01 | 1486614919.1206 | pgbench_history  |                0
 2017-02-09 05:35:19.1206+01 | 1486614919.1206 | pgbench_branches |            16384

 2017-02-09 05:35:20.531581+01 | 1486614920.53158 | pgbench_accounts |       4028858368
 2017-02-09 05:35:20.531581+01 | 1486614920.53158 | pgbench_tellers  |           139264
 2017-02-09 05:35:20.531581+01 | 1486614920.53158 | pgbench_history  |                0
 2017-02-09 05:35:20.531581+01 | 1486614920.53158 | pgbench_branches |            16384

 2017-02-09 05:35:21.833312+01 | 1486614921.83331 | pgbench_accounts |       4028858368
 2017-02-09 05:35:21.833312+01 | 1486614921.83331 | pgbench_tellers  |           139264
 2017-02-09 05:35:21.833312+01 | 1486614921.83331 | pgbench_history  |                0
 2017-02-09 05:35:21.833312+01 | 1486614921.83331 | pgbench_branches |            16384

 2017-02-09 05:35:23.160359+01 | 1486614923.16036 | pgbench_accounts |       4028858368
 2017-02-09 05:35:23.160359+01 | 1486614923.16036 | pgbench_tellers  |           139264
 2017-02-09 05:35:23.160359+01 | 1486614923.16036 | pgbench_history  |                0
 2017-02-09 05:35:23.160359+01 | 1486614923.16036 | pgbench_branches |            16384

 2017-02-09 05:35:24.529505+01 | 1486614924.52951 | pgbench_accounts |       4028858368
 2017-02-09 05:35:24.529505+01 | 1486614924.52951 | pgbench_tellers  |           139264
 2017-02-09 05:35:24.529505+01 | 1486614924.52951 | pgbench_history  |                0
 2017-02-09 05:35:24.529505+01 | 1486614924.52951 | pgbench_branches |            16384

 2017-02-09 05:35:25.86236+01 | 1486614925.86236 | pgbench_accounts |       4028858368
 2017-02-09 05:35:25.86236+01 | 1486614925.86236 | pgbench_tellers  |           139264
 2017-02-09 05:35:25.86236+01 | 1486614925.86236 | pgbench_history  |                0
 2017-02-09 05:35:25.86236+01 | 1486614925.86236 | pgbench_branches |            16384

 2017-02-09 05:35:27.242168+01 | 1486614927.24217 | pgbench_accounts |       4028858368
 2017-02-09 05:35:27.242168+01 | 1486614927.24217 | pgbench_tellers  |           139264
 2017-02-09 05:35:27.242168+01 | 1486614927.24217 | pgbench_history  |                0
 2017-02-09 05:35:27.242168+01 | 1486614927.24217 | pgbench_branches |            16384

 2017-02-09 05:35:28.636451+01 | 1486614928.63645 | pgbench_accounts |       4028858368
 2017-02-09 05:35:28.636451+01 | 1486614928.63645 | pgbench_tellers  |           139264
 2017-02-09 05:35:28.636451+01 | 1486614928.63645 | pgbench_history  |                0
 2017-02-09 05:35:28.636451+01 | 1486614928.63645 | pgbench_branches |            16384

 2017-02-09 05:35:30.061391+01 | 1486614930.06139 | pgbench_accounts |       4028858368
 2017-02-09 05:35:30.061391+01 | 1486614930.06139 | pgbench_tellers  |           139264
 2017-02-09 05:35:30.061391+01 | 1486614930.06139 | pgbench_history  |                0
 2017-02-09 05:35:30.061391+01 | 1486614930.06139 | pgbench_branches |            16384

