 2017-02-08 19:13:01.083056+01 | 1486577581.08306 | pgbench_branches_pkey |            16384
 2017-02-08 19:13:01.083056+01 | 1486577581.08306 | pgbench_tellers_pkey  |            32768
 2017-02-08 19:13:01.083056+01 | 1486577581.08306 | pgbench_accounts_pkey |        112336896

 2017-02-08 19:13:02.272784+01 | 1486577582.27278 | pgbench_branches_pkey |            16384
 2017-02-08 19:13:02.272784+01 | 1486577582.27278 | pgbench_tellers_pkey  |            32768
 2017-02-08 19:13:02.272784+01 | 1486577582.27278 | pgbench_accounts_pkey |        112336896

 2017-02-08 19:13:03.470095+01 | 1486577583.47009 | pgbench_branches_pkey |            16384
 2017-02-08 19:13:03.470095+01 | 1486577583.47009 | pgbench_tellers_pkey  |            32768
 2017-02-08 19:13:03.470095+01 | 1486577583.47009 | pgbench_accounts_pkey |        112336896

 2017-02-08 19:13:04.62625+01 | 1486577584.62625 | pgbench_branches_pkey |            16384
 2017-02-08 19:13:04.62625+01 | 1486577584.62625 | pgbench_tellers_pkey  |            32768
 2017-02-08 19:13:04.62625+01 | 1486577584.62625 | pgbench_accounts_pkey |        112336896

 2017-02-08 19:13:05.814557+01 | 1486577585.81456 | pgbench_branches_pkey |            16384
 2017-02-08 19:13:05.814557+01 | 1486577585.81456 | pgbench_tellers_pkey  |            32768
 2017-02-08 19:13:05.814557+01 | 1486577585.81456 | pgbench_accounts_pkey |        112336896

 2017-02-08 19:13:07.05724+01 | 1486577587.05724 | pgbench_branches_pkey |            16384
 2017-02-08 19:13:07.05724+01 | 1486577587.05724 | pgbench_tellers_pkey  |            32768
 2017-02-08 19:13:07.05724+01 | 1486577587.05724 | pgbench_accounts_pkey |        112336896

 2017-02-08 19:13:08.229504+01 | 1486577588.2295 | pgbench_branches_pkey |            16384
 2017-02-08 19:13:08.229504+01 | 1486577588.2295 | pgbench_tellers_pkey  |            32768
 2017-02-08 19:13:08.229504+01 | 1486577588.2295 | pgbench_accounts_pkey |        112336896

 2017-02-08 19:13:09.372824+01 | 1486577589.37282 | pgbench_branches_pkey |            16384
 2017-02-08 19:13:09.372824+01 | 1486577589.37282 | pgbench_tellers_pkey  |            32768
 2017-02-08 19:13:09.372824+01 | 1486577589.37282 | pgbench_accounts_pkey |        112336896

 2017-02-08 19:13:10.579241+01 | 1486577590.57924 | pgbench_branches_pkey |            16384
 2017-02-08 19:13:10.579241+01 | 1486577590.57924 | pgbench_tellers_pkey  |            32768
 2017-02-08 19:13:10.579241+01 | 1486577590.57924 | pgbench_accounts_pkey |        112336896

 2017-02-08 19:13:11.71789+01 | 1486577591.71789 | pgbench_branches_pkey |            16384
 2017-02-08 19:13:11.71789+01 | 1486577591.71789 | pgbench_tellers_pkey  |            32768
 2017-02-08 19:13:11.71789+01 | 1486577591.71789 | pgbench_accounts_pkey |        112336896

 2017-02-08 19:13:12.983991+01 | 1486577592.98399 | pgbench_branches_pkey |            16384
 2017-02-08 19:13:12.983991+01 | 1486577592.98399 | pgbench_tellers_pkey  |            32768
 2017-02-08 19:13:12.983991+01 | 1486577592.98399 | pgbench_accounts_pkey |        112336896

 2017-02-08 19:13:14.137764+01 | 1486577594.13776 | pgbench_branches_pkey |            16384
 2017-02-08 19:13:14.137764+01 | 1486577594.13776 | pgbench_tellers_pkey  |            32768
 2017-02-08 19:13:14.137764+01 | 1486577594.13776 | pgbench_accounts_pkey |        112336896

 2017-02-08 19:13:15.328577+01 | 1486577595.32858 | pgbench_branches_pkey |            16384
 2017-02-08 19:13:15.328577+01 | 1486577595.32858 | pgbench_tellers_pkey  |            32768
 2017-02-08 19:13:15.328577+01 | 1486577595.32858 | pgbench_accounts_pkey |        112336896

 2017-02-08 19:13:16.471149+01 | 1486577596.47115 | pgbench_branches_pkey |            16384
 2017-02-08 19:13:16.471149+01 | 1486577596.47115 | pgbench_tellers_pkey  |            32768
 2017-02-08 19:13:16.471149+01 | 1486577596.47115 | pgbench_accounts_pkey |        112336896

 2017-02-08 19:13:17.590624+01 | 1486577597.59062 | pgbench_branches_pkey |            16384
 2017-02-08 19:13:17.590624+01 | 1486577597.59062 | pgbench_tellers_pkey  |            32768
 2017-02-08 19:13:17.590624+01 | 1486577597.59062 | pgbench_accounts_pkey |        112336896

 2017-02-08 19:13:18.78433+01 | 1486577598.78433 | pgbench_branches_pkey |            16384
 2017-02-08 19:13:18.78433+01 | 1486577598.78433 | pgbench_tellers_pkey  |            32768
 2017-02-08 19:13:18.78433+01 | 1486577598.78433 | pgbench_accounts_pkey |        112336896

 2017-02-08 19:13:20.016104+01 | 1486577600.0161 | pgbench_branches_pkey |            16384
 2017-02-08 19:13:20.016104+01 | 1486577600.0161 | pgbench_tellers_pkey  |            32768
 2017-02-08 19:13:20.016104+01 | 1486577600.0161 | pgbench_accounts_pkey |        112336896

 2017-02-08 19:13:21.209157+01 | 1486577601.20916 | pgbench_branches_pkey |            16384
 2017-02-08 19:13:21.209157+01 | 1486577601.20916 | pgbench_tellers_pkey  |            32768
 2017-02-08 19:13:21.209157+01 | 1486577601.20916 | pgbench_accounts_pkey |        112336896

 2017-02-08 19:13:22.408103+01 | 1486577602.4081 | pgbench_branches_pkey |            16384
 2017-02-08 19:13:22.408103+01 | 1486577602.4081 | pgbench_tellers_pkey  |            32768
 2017-02-08 19:13:22.408103+01 | 1486577602.4081 | pgbench_accounts_pkey |        112336896

 2017-02-08 19:13:23.60441+01 | 1486577603.60441 | pgbench_branches_pkey |            16384
 2017-02-08 19:13:23.60441+01 | 1486577603.60441 | pgbench_tellers_pkey  |            32768
 2017-02-08 19:13:23.60441+01 | 1486577603.60441 | pgbench_accounts_pkey |        112336896

 2017-02-08 19:13:24.789257+01 | 1486577604.78926 | pgbench_branches_pkey |            16384
 2017-02-08 19:13:24.789257+01 | 1486577604.78926 | pgbench_tellers_pkey  |            32768
 2017-02-08 19:13:24.789257+01 | 1486577604.78926 | pgbench_accounts_pkey |        112336896

 2017-02-08 19:13:25.892716+01 | 1486577605.89272 | pgbench_branches_pkey |            16384
 2017-02-08 19:13:25.892716+01 | 1486577605.89272 | pgbench_tellers_pkey  |            32768
 2017-02-08 19:13:25.892716+01 | 1486577605.89272 | pgbench_accounts_pkey |        112336896

 2017-02-08 19:13:27.085404+01 | 1486577607.0854 | pgbench_branches_pkey |            16384
 2017-02-08 19:13:27.085404+01 | 1486577607.0854 | pgbench_tellers_pkey  |            32768
 2017-02-08 19:13:27.085404+01 | 1486577607.0854 | pgbench_accounts_pkey |        112336896

 2017-02-08 19:13:28.380526+01 | 1486577608.38053 | pgbench_branches_pkey |            16384
 2017-02-08 19:13:28.380526+01 | 1486577608.38053 | pgbench_tellers_pkey  |            32768
 2017-02-08 19:13:28.380526+01 | 1486577608.38053 | pgbench_accounts_pkey |        112336896

 2017-02-08 19:13:29.574583+01 | 1486577609.57458 | pgbench_branches_pkey |            16384
 2017-02-08 19:13:29.574583+01 | 1486577609.57458 | pgbench_tellers_pkey  |            32768
 2017-02-08 19:13:29.574583+01 | 1486577609.57458 | pgbench_accounts_pkey |        112336896

 2017-02-08 19:13:30.736665+01 | 1486577610.73667 | pgbench_branches_pkey |            16384
 2017-02-08 19:13:30.736665+01 | 1486577610.73667 | pgbench_tellers_pkey  |            32768
 2017-02-08 19:13:30.736665+01 | 1486577610.73667 | pgbench_accounts_pkey |        112336896

 2017-02-08 19:13:31.983644+01 | 1486577611.98364 | pgbench_branches_pkey |            16384
 2017-02-08 19:13:31.983644+01 | 1486577611.98364 | pgbench_tellers_pkey  |            32768
 2017-02-08 19:13:31.983644+01 | 1486577611.98364 | pgbench_accounts_pkey |        112336896

 2017-02-08 19:13:33.201658+01 | 1486577613.20166 | pgbench_branches_pkey |            16384
 2017-02-08 19:13:33.201658+01 | 1486577613.20166 | pgbench_tellers_pkey  |            32768
 2017-02-08 19:13:33.201658+01 | 1486577613.20166 | pgbench_accounts_pkey |        112336896

 2017-02-08 19:13:34.441237+01 | 1486577614.44124 | pgbench_branches_pkey |            16384
 2017-02-08 19:13:34.441237+01 | 1486577614.44124 | pgbench_tellers_pkey  |            32768
 2017-02-08 19:13:34.441237+01 | 1486577614.44124 | pgbench_accounts_pkey |        112336896

 2017-02-08 19:13:35.627109+01 | 1486577615.62711 | pgbench_branches_pkey |            16384
 2017-02-08 19:13:35.627109+01 | 1486577615.62711 | pgbench_tellers_pkey  |            32768
 2017-02-08 19:13:35.627109+01 | 1486577615.62711 | pgbench_accounts_pkey |        112336896

 2017-02-08 19:13:36.850749+01 | 1486577616.85075 | pgbench_branches_pkey |            16384
 2017-02-08 19:13:36.850749+01 | 1486577616.85075 | pgbench_tellers_pkey  |            32768
 2017-02-08 19:13:36.850749+01 | 1486577616.85075 | pgbench_accounts_pkey |        112336896

 2017-02-08 19:13:38.114457+01 | 1486577618.11446 | pgbench_branches_pkey |            16384
 2017-02-08 19:13:38.114457+01 | 1486577618.11446 | pgbench_tellers_pkey  |            32768
 2017-02-08 19:13:38.114457+01 | 1486577618.11446 | pgbench_accounts_pkey |        112336896

 2017-02-08 19:13:39.339582+01 | 1486577619.33958 | pgbench_branches_pkey |            16384
 2017-02-08 19:13:39.339582+01 | 1486577619.33958 | pgbench_tellers_pkey  |            32768
 2017-02-08 19:13:39.339582+01 | 1486577619.33958 | pgbench_accounts_pkey |        112336896

 2017-02-08 19:13:40.583215+01 | 1486577620.58321 | pgbench_branches_pkey |            16384
 2017-02-08 19:13:40.583215+01 | 1486577620.58321 | pgbench_tellers_pkey  |            32768
 2017-02-08 19:13:40.583215+01 | 1486577620.58321 | pgbench_accounts_pkey |        112336896

 2017-02-08 19:13:41.754012+01 | 1486577621.75401 | pgbench_branches_pkey |            16384
 2017-02-08 19:13:41.754012+01 | 1486577621.75401 | pgbench_tellers_pkey  |            32768
 2017-02-08 19:13:41.754012+01 | 1486577621.75401 | pgbench_accounts_pkey |        112336896

 2017-02-08 19:13:42.947504+01 | 1486577622.9475 | pgbench_branches_pkey |            16384
 2017-02-08 19:13:42.947504+01 | 1486577622.9475 | pgbench_tellers_pkey  |            32768
 2017-02-08 19:13:42.947504+01 | 1486577622.9475 | pgbench_accounts_pkey |        112336896

 2017-02-08 19:13:44.074856+01 | 1486577624.07486 | pgbench_branches_pkey |            16384
 2017-02-08 19:13:44.074856+01 | 1486577624.07486 | pgbench_tellers_pkey  |            32768
 2017-02-08 19:13:44.074856+01 | 1486577624.07486 | pgbench_accounts_pkey |        112336896

 2017-02-08 19:13:45.155164+01 | 1486577625.15516 | pgbench_branches_pkey |            16384
 2017-02-08 19:13:45.155164+01 | 1486577625.15516 | pgbench_tellers_pkey  |            32768
 2017-02-08 19:13:45.155164+01 | 1486577625.15516 | pgbench_accounts_pkey |        112336896

 2017-02-08 19:13:46.351469+01 | 1486577626.35147 | pgbench_branches_pkey |            16384
 2017-02-08 19:13:46.351469+01 | 1486577626.35147 | pgbench_tellers_pkey  |            32768
 2017-02-08 19:13:46.351469+01 | 1486577626.35147 | pgbench_accounts_pkey |        112336896

 2017-02-08 19:13:47.575224+01 | 1486577627.57522 | pgbench_branches_pkey |            16384
 2017-02-08 19:13:47.575224+01 | 1486577627.57522 | pgbench_tellers_pkey  |            32768
 2017-02-08 19:13:47.575224+01 | 1486577627.57522 | pgbench_accounts_pkey |        112336896

 2017-02-08 19:13:48.72426+01 | 1486577628.72426 | pgbench_branches_pkey |            16384
 2017-02-08 19:13:48.72426+01 | 1486577628.72426 | pgbench_tellers_pkey  |            32768
 2017-02-08 19:13:48.72426+01 | 1486577628.72426 | pgbench_accounts_pkey |        112336896

 2017-02-08 19:13:49.953018+01 | 1486577629.95302 | pgbench_branches_pkey |            16384
 2017-02-08 19:13:49.953018+01 | 1486577629.95302 | pgbench_tellers_pkey  |            32768
 2017-02-08 19:13:49.953018+01 | 1486577629.95302 | pgbench_accounts_pkey |        112336896

 2017-02-08 19:13:51.228461+01 | 1486577631.22846 | pgbench_branches_pkey |            16384
 2017-02-08 19:13:51.228461+01 | 1486577631.22846 | pgbench_tellers_pkey  |            32768
 2017-02-08 19:13:51.228461+01 | 1486577631.22846 | pgbench_accounts_pkey |        112336896

 2017-02-08 19:13:52.513384+01 | 1486577632.51338 | pgbench_branches_pkey |            16384
 2017-02-08 19:13:52.513384+01 | 1486577632.51338 | pgbench_tellers_pkey  |            32768
 2017-02-08 19:13:52.513384+01 | 1486577632.51338 | pgbench_accounts_pkey |        112336896

 2017-02-08 19:13:53.786072+01 | 1486577633.78607 | pgbench_branches_pkey |            16384
 2017-02-08 19:13:53.786072+01 | 1486577633.78607 | pgbench_tellers_pkey  |            32768
 2017-02-08 19:13:53.786072+01 | 1486577633.78607 | pgbench_accounts_pkey |        112336896

 2017-02-08 19:13:54.941085+01 | 1486577634.94109 | pgbench_branches_pkey |            16384
 2017-02-08 19:13:54.941085+01 | 1486577634.94109 | pgbench_tellers_pkey  |            32768
 2017-02-08 19:13:54.941085+01 | 1486577634.94109 | pgbench_accounts_pkey |        112336896

 2017-02-08 19:13:56.179933+01 | 1486577636.17993 | pgbench_branches_pkey |            16384
 2017-02-08 19:13:56.179933+01 | 1486577636.17993 | pgbench_tellers_pkey  |            32768
 2017-02-08 19:13:56.179933+01 | 1486577636.17993 | pgbench_accounts_pkey |        112336896

 2017-02-08 19:13:57.402052+01 | 1486577637.40205 | pgbench_branches_pkey |            16384
 2017-02-08 19:13:57.402052+01 | 1486577637.40205 | pgbench_tellers_pkey  |            32768
 2017-02-08 19:13:57.402052+01 | 1486577637.40205 | pgbench_accounts_pkey |        112336896

 2017-02-08 19:13:58.676162+01 | 1486577638.67616 | pgbench_branches_pkey |            16384
 2017-02-08 19:13:58.676162+01 | 1486577638.67616 | pgbench_tellers_pkey  |            32768
 2017-02-08 19:13:58.676162+01 | 1486577638.67616 | pgbench_accounts_pkey |        112336896

 2017-02-08 19:13:59.861599+01 | 1486577639.8616 | pgbench_branches_pkey |            16384
 2017-02-08 19:13:59.861599+01 | 1486577639.8616 | pgbench_tellers_pkey  |            32768
 2017-02-08 19:13:59.861599+01 | 1486577639.8616 | pgbench_accounts_pkey |        112336896

 2017-02-08 19:14:01.073703+01 | 1486577641.0737 | pgbench_branches_pkey |            16384
 2017-02-08 19:14:01.073703+01 | 1486577641.0737 | pgbench_tellers_pkey  |            32768
 2017-02-08 19:14:01.073703+01 | 1486577641.0737 | pgbench_accounts_pkey |        112336896

 2017-02-08 19:14:02.280008+01 | 1486577642.28001 | pgbench_branches_pkey |            16384
 2017-02-08 19:14:02.280008+01 | 1486577642.28001 | pgbench_tellers_pkey  |            32768
 2017-02-08 19:14:02.280008+01 | 1486577642.28001 | pgbench_accounts_pkey |        112336896

 2017-02-08 19:14:03.431597+01 | 1486577643.4316 | pgbench_branches_pkey |            16384
 2017-02-08 19:14:03.431597+01 | 1486577643.4316 | pgbench_tellers_pkey  |            32768
 2017-02-08 19:14:03.431597+01 | 1486577643.4316 | pgbench_accounts_pkey |        112336896

 2017-02-08 19:14:04.623985+01 | 1486577644.62399 | pgbench_branches_pkey |            16384
 2017-02-08 19:14:04.623985+01 | 1486577644.62399 | pgbench_tellers_pkey  |            32768
 2017-02-08 19:14:04.623985+01 | 1486577644.62399 | pgbench_accounts_pkey |        112336896

 2017-02-08 19:14:05.8571+01 | 1486577645.8571 | pgbench_branches_pkey |            16384
 2017-02-08 19:14:05.8571+01 | 1486577645.8571 | pgbench_tellers_pkey  |            32768
 2017-02-08 19:14:05.8571+01 | 1486577645.8571 | pgbench_accounts_pkey |        112336896

 2017-02-08 19:14:07.107406+01 | 1486577647.10741 | pgbench_branches_pkey |            16384
 2017-02-08 19:14:07.107406+01 | 1486577647.10741 | pgbench_tellers_pkey  |            32768
 2017-02-08 19:14:07.107406+01 | 1486577647.10741 | pgbench_accounts_pkey |        112336896

 2017-02-08 19:14:08.240271+01 | 1486577648.24027 | pgbench_branches_pkey |            16384
 2017-02-08 19:14:08.240271+01 | 1486577648.24027 | pgbench_tellers_pkey  |            32768
 2017-02-08 19:14:08.240271+01 | 1486577648.24027 | pgbench_accounts_pkey |        112336896

 2017-02-08 19:14:09.381524+01 | 1486577649.38152 | pgbench_branches_pkey |            16384
 2017-02-08 19:14:09.381524+01 | 1486577649.38152 | pgbench_tellers_pkey  |            32768
 2017-02-08 19:14:09.381524+01 | 1486577649.38152 | pgbench_accounts_pkey |        112336896

 2017-02-08 19:14:10.590207+01 | 1486577650.59021 | pgbench_branches_pkey |            16384
 2017-02-08 19:14:10.590207+01 | 1486577650.59021 | pgbench_tellers_pkey  |            32768
 2017-02-08 19:14:10.590207+01 | 1486577650.59021 | pgbench_accounts_pkey |        112336896

 2017-02-08 19:14:11.788972+01 | 1486577651.78897 | pgbench_branches_pkey |            16384
 2017-02-08 19:14:11.788972+01 | 1486577651.78897 | pgbench_tellers_pkey  |            32768
 2017-02-08 19:14:11.788972+01 | 1486577651.78897 | pgbench_accounts_pkey |        112336896

 2017-02-08 19:14:13.007482+01 | 1486577653.00748 | pgbench_branches_pkey |            16384
 2017-02-08 19:14:13.007482+01 | 1486577653.00748 | pgbench_tellers_pkey  |            32768
 2017-02-08 19:14:13.007482+01 | 1486577653.00748 | pgbench_accounts_pkey |        112336896

 2017-02-08 19:14:14.184725+01 | 1486577654.18473 | pgbench_branches_pkey |            16384
 2017-02-08 19:14:14.184725+01 | 1486577654.18473 | pgbench_tellers_pkey  |            32768
 2017-02-08 19:14:14.184725+01 | 1486577654.18473 | pgbench_accounts_pkey |        112336896

 2017-02-08 19:14:15.424369+01 | 1486577655.42437 | pgbench_branches_pkey |            16384
 2017-02-08 19:14:15.424369+01 | 1486577655.42437 | pgbench_tellers_pkey  |            32768
 2017-02-08 19:14:15.424369+01 | 1486577655.42437 | pgbench_accounts_pkey |        112336896

 2017-02-08 19:14:16.611945+01 | 1486577656.61194 | pgbench_branches_pkey |            16384
 2017-02-08 19:14:16.611945+01 | 1486577656.61194 | pgbench_tellers_pkey  |            32768
 2017-02-08 19:14:16.611945+01 | 1486577656.61194 | pgbench_accounts_pkey |        112336896

 2017-02-08 19:14:17.845825+01 | 1486577657.84582 | pgbench_branches_pkey |            16384
 2017-02-08 19:14:17.845825+01 | 1486577657.84582 | pgbench_tellers_pkey  |            32768
 2017-02-08 19:14:17.845825+01 | 1486577657.84582 | pgbench_accounts_pkey |        112336896

 2017-02-08 19:14:19.035182+01 | 1486577659.03518 | pgbench_branches_pkey |            16384
 2017-02-08 19:14:19.035182+01 | 1486577659.03518 | pgbench_tellers_pkey  |            32768
 2017-02-08 19:14:19.035182+01 | 1486577659.03518 | pgbench_accounts_pkey |        112336896

 2017-02-08 19:14:20.276828+01 | 1486577660.27683 | pgbench_branches_pkey |            16384
 2017-02-08 19:14:20.276828+01 | 1486577660.27683 | pgbench_tellers_pkey  |            32768
 2017-02-08 19:14:20.276828+01 | 1486577660.27683 | pgbench_accounts_pkey |        112336896

 2017-02-08 19:14:21.472+01 | 1486577661.472 | pgbench_branches_pkey |            16384
 2017-02-08 19:14:21.472+01 | 1486577661.472 | pgbench_tellers_pkey  |            32768
 2017-02-08 19:14:21.472+01 | 1486577661.472 | pgbench_accounts_pkey |        112336896

 2017-02-08 19:14:22.589277+01 | 1486577662.58928 | pgbench_branches_pkey |            16384
 2017-02-08 19:14:22.589277+01 | 1486577662.58928 | pgbench_tellers_pkey  |            32768
 2017-02-08 19:14:22.589277+01 | 1486577662.58928 | pgbench_accounts_pkey |        112336896

 2017-02-08 19:14:23.78236+01 | 1486577663.78236 | pgbench_branches_pkey |            16384
 2017-02-08 19:14:23.78236+01 | 1486577663.78236 | pgbench_tellers_pkey  |            32768
 2017-02-08 19:14:23.78236+01 | 1486577663.78236 | pgbench_accounts_pkey |        112336896

 2017-02-08 19:14:25.009401+01 | 1486577665.0094 | pgbench_branches_pkey |            16384
 2017-02-08 19:14:25.009401+01 | 1486577665.0094 | pgbench_tellers_pkey  |            32768
 2017-02-08 19:14:25.009401+01 | 1486577665.0094 | pgbench_accounts_pkey |        112336896

 2017-02-08 19:14:26.257126+01 | 1486577666.25713 | pgbench_branches_pkey |            16384
 2017-02-08 19:14:26.257126+01 | 1486577666.25713 | pgbench_tellers_pkey  |            32768
 2017-02-08 19:14:26.257126+01 | 1486577666.25713 | pgbench_accounts_pkey |        112336896

 2017-02-08 19:14:27.465305+01 | 1486577667.46531 | pgbench_branches_pkey |            16384
 2017-02-08 19:14:27.465305+01 | 1486577667.46531 | pgbench_tellers_pkey  |            32768
 2017-02-08 19:14:27.465305+01 | 1486577667.46531 | pgbench_accounts_pkey |        112336896

 2017-02-08 19:14:28.675087+01 | 1486577668.67509 | pgbench_branches_pkey |            16384
 2017-02-08 19:14:28.675087+01 | 1486577668.67509 | pgbench_tellers_pkey  |            32768
 2017-02-08 19:14:28.675087+01 | 1486577668.67509 | pgbench_accounts_pkey |        112336896

 2017-02-08 19:14:29.881568+01 | 1486577669.88157 | pgbench_branches_pkey |            16384
 2017-02-08 19:14:29.881568+01 | 1486577669.88157 | pgbench_tellers_pkey  |            32768
 2017-02-08 19:14:29.881568+01 | 1486577669.88157 | pgbench_accounts_pkey |        112336896

 2017-02-08 19:14:31.074068+01 | 1486577671.07407 | pgbench_branches_pkey |            16384
 2017-02-08 19:14:31.074068+01 | 1486577671.07407 | pgbench_tellers_pkey  |            32768
 2017-02-08 19:14:31.074068+01 | 1486577671.07407 | pgbench_accounts_pkey |        112336896

 2017-02-08 19:14:32.184812+01 | 1486577672.18481 | pgbench_branches_pkey |            16384
 2017-02-08 19:14:32.184812+01 | 1486577672.18481 | pgbench_tellers_pkey  |            32768
 2017-02-08 19:14:32.184812+01 | 1486577672.18481 | pgbench_accounts_pkey |        112336896

 2017-02-08 19:14:33.39818+01 | 1486577673.39818 | pgbench_branches_pkey |            16384
 2017-02-08 19:14:33.39818+01 | 1486577673.39818 | pgbench_tellers_pkey  |            32768
 2017-02-08 19:14:33.39818+01 | 1486577673.39818 | pgbench_accounts_pkey |        112336896

 2017-02-08 19:14:34.623997+01 | 1486577674.624 | pgbench_branches_pkey |            16384
 2017-02-08 19:14:34.623997+01 | 1486577674.624 | pgbench_tellers_pkey  |            32768
 2017-02-08 19:14:34.623997+01 | 1486577674.624 | pgbench_accounts_pkey |        112336896

 2017-02-08 19:14:35.829215+01 | 1486577675.82922 | pgbench_branches_pkey |            16384
 2017-02-08 19:14:35.829215+01 | 1486577675.82922 | pgbench_tellers_pkey  |            32768
 2017-02-08 19:14:35.829215+01 | 1486577675.82922 | pgbench_accounts_pkey |        112336896

 2017-02-08 19:14:37.067135+01 | 1486577677.06714 | pgbench_branches_pkey |            16384
 2017-02-08 19:14:37.067135+01 | 1486577677.06714 | pgbench_tellers_pkey  |            32768
 2017-02-08 19:14:37.067135+01 | 1486577677.06714 | pgbench_accounts_pkey |        112336896

 2017-02-08 19:14:38.262507+01 | 1486577678.26251 | pgbench_branches_pkey |            16384
 2017-02-08 19:14:38.262507+01 | 1486577678.26251 | pgbench_tellers_pkey  |            32768
 2017-02-08 19:14:38.262507+01 | 1486577678.26251 | pgbench_accounts_pkey |        112336896

 2017-02-08 19:14:39.473302+01 | 1486577679.4733 | pgbench_branches_pkey |            16384
 2017-02-08 19:14:39.473302+01 | 1486577679.4733 | pgbench_tellers_pkey  |            32768
 2017-02-08 19:14:39.473302+01 | 1486577679.4733 | pgbench_accounts_pkey |        112336896

 2017-02-08 19:14:40.727804+01 | 1486577680.7278 | pgbench_branches_pkey |            16384
 2017-02-08 19:14:40.727804+01 | 1486577680.7278 | pgbench_tellers_pkey  |            32768
 2017-02-08 19:14:40.727804+01 | 1486577680.7278 | pgbench_accounts_pkey |        112336896

 2017-02-08 19:14:41.963194+01 | 1486577681.96319 | pgbench_branches_pkey |            16384
 2017-02-08 19:14:41.963194+01 | 1486577681.96319 | pgbench_tellers_pkey  |            32768
 2017-02-08 19:14:41.963194+01 | 1486577681.96319 | pgbench_accounts_pkey |        112336896

 2017-02-08 19:14:43.157508+01 | 1486577683.15751 | pgbench_branches_pkey |            16384
 2017-02-08 19:14:43.157508+01 | 1486577683.15751 | pgbench_tellers_pkey  |            32768
 2017-02-08 19:14:43.157508+01 | 1486577683.15751 | pgbench_accounts_pkey |        112336896

 2017-02-08 19:14:44.399469+01 | 1486577684.39947 | pgbench_branches_pkey |            16384
 2017-02-08 19:14:44.399469+01 | 1486577684.39947 | pgbench_tellers_pkey  |            32768
 2017-02-08 19:14:44.399469+01 | 1486577684.39947 | pgbench_accounts_pkey |        112336896

 2017-02-08 19:14:45.626765+01 | 1486577685.62677 | pgbench_branches_pkey |            16384
 2017-02-08 19:14:45.626765+01 | 1486577685.62677 | pgbench_tellers_pkey  |            32768
 2017-02-08 19:14:45.626765+01 | 1486577685.62677 | pgbench_accounts_pkey |        112336896

 2017-02-08 19:14:46.928654+01 | 1486577686.92865 | pgbench_branches_pkey |            16384
 2017-02-08 19:14:46.928654+01 | 1486577686.92865 | pgbench_tellers_pkey  |            32768
 2017-02-08 19:14:46.928654+01 | 1486577686.92865 | pgbench_accounts_pkey |        112336896

 2017-02-08 19:14:48.18422+01 | 1486577688.18422 | pgbench_branches_pkey |            16384
 2017-02-08 19:14:48.18422+01 | 1486577688.18422 | pgbench_tellers_pkey  |            32768
 2017-02-08 19:14:48.18422+01 | 1486577688.18422 | pgbench_accounts_pkey |        112336896

 2017-02-08 19:14:49.410897+01 | 1486577689.4109 | pgbench_branches_pkey |            16384
 2017-02-08 19:14:49.410897+01 | 1486577689.4109 | pgbench_tellers_pkey  |            32768
 2017-02-08 19:14:49.410897+01 | 1486577689.4109 | pgbench_accounts_pkey |        112336896

 2017-02-08 19:14:50.639645+01 | 1486577690.63965 | pgbench_branches_pkey |            16384
 2017-02-08 19:14:50.639645+01 | 1486577690.63965 | pgbench_tellers_pkey  |            32768
 2017-02-08 19:14:50.639645+01 | 1486577690.63965 | pgbench_accounts_pkey |        112336896

 2017-02-08 19:14:51.849408+01 | 1486577691.84941 | pgbench_branches_pkey |            16384
 2017-02-08 19:14:51.849408+01 | 1486577691.84941 | pgbench_tellers_pkey  |            32768
 2017-02-08 19:14:51.849408+01 | 1486577691.84941 | pgbench_accounts_pkey |        112336896

 2017-02-08 19:14:53.020424+01 | 1486577693.02042 | pgbench_branches_pkey |            16384
 2017-02-08 19:14:53.020424+01 | 1486577693.02042 | pgbench_tellers_pkey  |            32768
 2017-02-08 19:14:53.020424+01 | 1486577693.02042 | pgbench_accounts_pkey |        112336896

 2017-02-08 19:14:54.279779+01 | 1486577694.27978 | pgbench_branches_pkey |            16384
 2017-02-08 19:14:54.279779+01 | 1486577694.27978 | pgbench_tellers_pkey  |            32768
 2017-02-08 19:14:54.279779+01 | 1486577694.27978 | pgbench_accounts_pkey |        112336896

 2017-02-08 19:14:55.480636+01 | 1486577695.48064 | pgbench_branches_pkey |            16384
 2017-02-08 19:14:55.480636+01 | 1486577695.48064 | pgbench_tellers_pkey  |            32768
 2017-02-08 19:14:55.480636+01 | 1486577695.48064 | pgbench_accounts_pkey |        112336896

 2017-02-08 19:14:56.679593+01 | 1486577696.67959 | pgbench_branches_pkey |            16384
 2017-02-08 19:14:56.679593+01 | 1486577696.67959 | pgbench_tellers_pkey  |            32768
 2017-02-08 19:14:56.679593+01 | 1486577696.67959 | pgbench_accounts_pkey |        112336896

 2017-02-08 19:14:57.924091+01 | 1486577697.92409 | pgbench_branches_pkey |            16384
 2017-02-08 19:14:57.924091+01 | 1486577697.92409 | pgbench_tellers_pkey  |            32768
 2017-02-08 19:14:57.924091+01 | 1486577697.92409 | pgbench_accounts_pkey |        112336896

 2017-02-08 19:14:59.178489+01 | 1486577699.17849 | pgbench_branches_pkey |            16384
 2017-02-08 19:14:59.178489+01 | 1486577699.17849 | pgbench_tellers_pkey  |            32768
 2017-02-08 19:14:59.178489+01 | 1486577699.17849 | pgbench_accounts_pkey |        112336896

 2017-02-08 19:15:00.33247+01 | 1486577700.33247 | pgbench_branches_pkey |            16384
 2017-02-08 19:15:00.33247+01 | 1486577700.33247 | pgbench_tellers_pkey  |            32768
 2017-02-08 19:15:00.33247+01 | 1486577700.33247 | pgbench_accounts_pkey |        112336896

 2017-02-08 19:15:01.525566+01 | 1486577701.52557 | pgbench_branches_pkey |            16384
 2017-02-08 19:15:01.525566+01 | 1486577701.52557 | pgbench_tellers_pkey  |            32768
 2017-02-08 19:15:01.525566+01 | 1486577701.52557 | pgbench_accounts_pkey |        112336896

 2017-02-08 19:15:02.762572+01 | 1486577702.76257 | pgbench_branches_pkey |            16384
 2017-02-08 19:15:02.762572+01 | 1486577702.76257 | pgbench_tellers_pkey  |            32768
 2017-02-08 19:15:02.762572+01 | 1486577702.76257 | pgbench_accounts_pkey |        112336896

 2017-02-08 19:15:03.983256+01 | 1486577703.98326 | pgbench_branches_pkey |            16384
 2017-02-08 19:15:03.983256+01 | 1486577703.98326 | pgbench_tellers_pkey  |            32768
 2017-02-08 19:15:03.983256+01 | 1486577703.98326 | pgbench_accounts_pkey |        112336896

 2017-02-08 19:15:05.203888+01 | 1486577705.20389 | pgbench_branches_pkey |            16384
 2017-02-08 19:15:05.203888+01 | 1486577705.20389 | pgbench_tellers_pkey  |            32768
 2017-02-08 19:15:05.203888+01 | 1486577705.20389 | pgbench_accounts_pkey |        112336896

 2017-02-08 19:15:06.340685+01 | 1486577706.34068 | pgbench_branches_pkey |            16384
 2017-02-08 19:15:06.340685+01 | 1486577706.34068 | pgbench_tellers_pkey  |            32768
 2017-02-08 19:15:06.340685+01 | 1486577706.34068 | pgbench_accounts_pkey |        112336896

 2017-02-08 19:15:07.537815+01 | 1486577707.53782 | pgbench_branches_pkey |            16384
 2017-02-08 19:15:07.537815+01 | 1486577707.53782 | pgbench_tellers_pkey  |            32768
 2017-02-08 19:15:07.537815+01 | 1486577707.53782 | pgbench_accounts_pkey |        112336896

 2017-02-08 19:15:08.717404+01 | 1486577708.7174 | pgbench_branches_pkey |            16384
 2017-02-08 19:15:08.717404+01 | 1486577708.7174 | pgbench_tellers_pkey  |            32768
 2017-02-08 19:15:08.717404+01 | 1486577708.7174 | pgbench_accounts_pkey |        112336896

 2017-02-08 19:15:09.868397+01 | 1486577709.8684 | pgbench_branches_pkey |            16384
 2017-02-08 19:15:09.868397+01 | 1486577709.8684 | pgbench_tellers_pkey  |            32768
 2017-02-08 19:15:09.868397+01 | 1486577709.8684 | pgbench_accounts_pkey |        112336896

 2017-02-08 19:15:11.079928+01 | 1486577711.07993 | pgbench_branches_pkey |            16384
 2017-02-08 19:15:11.079928+01 | 1486577711.07993 | pgbench_tellers_pkey  |            32768
 2017-02-08 19:15:11.079928+01 | 1486577711.07993 | pgbench_accounts_pkey |        112336896

 2017-02-08 19:15:12.341132+01 | 1486577712.34113 | pgbench_branches_pkey |            16384
 2017-02-08 19:15:12.341132+01 | 1486577712.34113 | pgbench_tellers_pkey  |            32768
 2017-02-08 19:15:12.341132+01 | 1486577712.34113 | pgbench_accounts_pkey |        112336896

 2017-02-08 19:15:13.54284+01 | 1486577713.54284 | pgbench_branches_pkey |            16384
 2017-02-08 19:15:13.54284+01 | 1486577713.54284 | pgbench_tellers_pkey  |            32768
 2017-02-08 19:15:13.54284+01 | 1486577713.54284 | pgbench_accounts_pkey |        112336896

 2017-02-08 19:15:14.740221+01 | 1486577714.74022 | pgbench_branches_pkey |            16384
 2017-02-08 19:15:14.740221+01 | 1486577714.74022 | pgbench_tellers_pkey  |            32768
 2017-02-08 19:15:14.740221+01 | 1486577714.74022 | pgbench_accounts_pkey |        112336896

 2017-02-08 19:15:15.965239+01 | 1486577715.96524 | pgbench_branches_pkey |            16384
 2017-02-08 19:15:15.965239+01 | 1486577715.96524 | pgbench_tellers_pkey  |            32768
 2017-02-08 19:15:15.965239+01 | 1486577715.96524 | pgbench_accounts_pkey |        112336896

 2017-02-08 19:15:17.209073+01 | 1486577717.20907 | pgbench_branches_pkey |            16384
 2017-02-08 19:15:17.209073+01 | 1486577717.20907 | pgbench_tellers_pkey  |            32768
 2017-02-08 19:15:17.209073+01 | 1486577717.20907 | pgbench_accounts_pkey |        112336896

 2017-02-08 19:15:18.378442+01 | 1486577718.37844 | pgbench_branches_pkey |            16384
 2017-02-08 19:15:18.378442+01 | 1486577718.37844 | pgbench_tellers_pkey  |            32768
 2017-02-08 19:15:18.378442+01 | 1486577718.37844 | pgbench_accounts_pkey |        112336896

 2017-02-08 19:15:19.61683+01 | 1486577719.61683 | pgbench_branches_pkey |            16384
 2017-02-08 19:15:19.61683+01 | 1486577719.61683 | pgbench_tellers_pkey  |            32768
 2017-02-08 19:15:19.61683+01 | 1486577719.61683 | pgbench_accounts_pkey |        112336896

 2017-02-08 19:15:20.802058+01 | 1486577720.80206 | pgbench_branches_pkey |            16384
 2017-02-08 19:15:20.802058+01 | 1486577720.80206 | pgbench_tellers_pkey  |            32768
 2017-02-08 19:15:20.802058+01 | 1486577720.80206 | pgbench_accounts_pkey |        112336896

 2017-02-08 19:15:22.034016+01 | 1486577722.03402 | pgbench_branches_pkey |            16384
 2017-02-08 19:15:22.034016+01 | 1486577722.03402 | pgbench_tellers_pkey  |            32768
 2017-02-08 19:15:22.034016+01 | 1486577722.03402 | pgbench_accounts_pkey |        112336896

 2017-02-08 19:15:23.201706+01 | 1486577723.20171 | pgbench_branches_pkey |            16384
 2017-02-08 19:15:23.201706+01 | 1486577723.20171 | pgbench_tellers_pkey  |            32768
 2017-02-08 19:15:23.201706+01 | 1486577723.20171 | pgbench_accounts_pkey |        112336896

 2017-02-08 19:15:24.358325+01 | 1486577724.35833 | pgbench_branches_pkey |            16384
 2017-02-08 19:15:24.358325+01 | 1486577724.35833 | pgbench_tellers_pkey  |            32768
 2017-02-08 19:15:24.358325+01 | 1486577724.35833 | pgbench_accounts_pkey |        112336896

 2017-02-08 19:15:25.531399+01 | 1486577725.5314 | pgbench_branches_pkey |            16384
 2017-02-08 19:15:25.531399+01 | 1486577725.5314 | pgbench_tellers_pkey  |            32768
 2017-02-08 19:15:25.531399+01 | 1486577725.5314 | pgbench_accounts_pkey |        112336896

 2017-02-08 19:15:26.773014+01 | 1486577726.77301 | pgbench_branches_pkey |            16384
 2017-02-08 19:15:26.773014+01 | 1486577726.77301 | pgbench_tellers_pkey  |            32768
 2017-02-08 19:15:26.773014+01 | 1486577726.77301 | pgbench_accounts_pkey |        112336896

 2017-02-08 19:15:27.89623+01 | 1486577727.89623 | pgbench_branches_pkey |            16384
 2017-02-08 19:15:27.89623+01 | 1486577727.89623 | pgbench_tellers_pkey  |            32768
 2017-02-08 19:15:27.89623+01 | 1486577727.89623 | pgbench_accounts_pkey |        112336896

 2017-02-08 19:15:29.082799+01 | 1486577729.0828 | pgbench_branches_pkey |            16384
 2017-02-08 19:15:29.082799+01 | 1486577729.0828 | pgbench_tellers_pkey  |            32768
 2017-02-08 19:15:29.082799+01 | 1486577729.0828 | pgbench_accounts_pkey |        112336896

 2017-02-08 19:15:30.236909+01 | 1486577730.23691 | pgbench_branches_pkey |            16384
 2017-02-08 19:15:30.236909+01 | 1486577730.23691 | pgbench_tellers_pkey  |            32768
 2017-02-08 19:15:30.236909+01 | 1486577730.23691 | pgbench_accounts_pkey |        112336896

 2017-02-08 19:15:31.400805+01 | 1486577731.4008 | pgbench_branches_pkey |            16384
 2017-02-08 19:15:31.400805+01 | 1486577731.4008 | pgbench_tellers_pkey  |            32768
 2017-02-08 19:15:31.400805+01 | 1486577731.4008 | pgbench_accounts_pkey |        112336896

 2017-02-08 19:15:32.559745+01 | 1486577732.55975 | pgbench_branches_pkey |            16384
 2017-02-08 19:15:32.559745+01 | 1486577732.55975 | pgbench_tellers_pkey  |            32768
 2017-02-08 19:15:32.559745+01 | 1486577732.55975 | pgbench_accounts_pkey |        112336896

 2017-02-08 19:15:33.772765+01 | 1486577733.77276 | pgbench_branches_pkey |            16384
 2017-02-08 19:15:33.772765+01 | 1486577733.77276 | pgbench_tellers_pkey  |            32768
 2017-02-08 19:15:33.772765+01 | 1486577733.77276 | pgbench_accounts_pkey |        112336896

 2017-02-08 19:15:35.018189+01 | 1486577735.01819 | pgbench_branches_pkey |            16384
 2017-02-08 19:15:35.018189+01 | 1486577735.01819 | pgbench_tellers_pkey  |            32768
 2017-02-08 19:15:35.018189+01 | 1486577735.01819 | pgbench_accounts_pkey |        112336896

 2017-02-08 19:15:36.190648+01 | 1486577736.19065 | pgbench_branches_pkey |            16384
 2017-02-08 19:15:36.190648+01 | 1486577736.19065 | pgbench_tellers_pkey  |            32768
 2017-02-08 19:15:36.190648+01 | 1486577736.19065 | pgbench_accounts_pkey |        112336896

 2017-02-08 19:15:37.432335+01 | 1486577737.43233 | pgbench_branches_pkey |            16384
 2017-02-08 19:15:37.432335+01 | 1486577737.43233 | pgbench_tellers_pkey  |            32768
 2017-02-08 19:15:37.432335+01 | 1486577737.43233 | pgbench_accounts_pkey |        112336896

 2017-02-08 19:15:38.646892+01 | 1486577738.64689 | pgbench_branches_pkey |            16384
 2017-02-08 19:15:38.646892+01 | 1486577738.64689 | pgbench_tellers_pkey  |            32768
 2017-02-08 19:15:38.646892+01 | 1486577738.64689 | pgbench_accounts_pkey |        112336896

 2017-02-08 19:15:39.815809+01 | 1486577739.81581 | pgbench_branches_pkey |            16384
 2017-02-08 19:15:39.815809+01 | 1486577739.81581 | pgbench_tellers_pkey  |            32768
 2017-02-08 19:15:39.815809+01 | 1486577739.81581 | pgbench_accounts_pkey |        112336896

 2017-02-08 19:15:41.016984+01 | 1486577741.01698 | pgbench_branches_pkey |            16384
 2017-02-08 19:15:41.016984+01 | 1486577741.01698 | pgbench_tellers_pkey  |            32768
 2017-02-08 19:15:41.016984+01 | 1486577741.01698 | pgbench_accounts_pkey |        112336896

 2017-02-08 19:15:42.204969+01 | 1486577742.20497 | pgbench_branches_pkey |            16384
 2017-02-08 19:15:42.204969+01 | 1486577742.20497 | pgbench_tellers_pkey  |            32768
 2017-02-08 19:15:42.204969+01 | 1486577742.20497 | pgbench_accounts_pkey |        112336896

 2017-02-08 19:15:43.408964+01 | 1486577743.40896 | pgbench_branches_pkey |            16384
 2017-02-08 19:15:43.408964+01 | 1486577743.40896 | pgbench_tellers_pkey  |            32768
 2017-02-08 19:15:43.408964+01 | 1486577743.40896 | pgbench_accounts_pkey |        112336896

 2017-02-08 19:15:44.568928+01 | 1486577744.56893 | pgbench_branches_pkey |            16384
 2017-02-08 19:15:44.568928+01 | 1486577744.56893 | pgbench_tellers_pkey  |            32768
 2017-02-08 19:15:44.568928+01 | 1486577744.56893 | pgbench_accounts_pkey |        112336896

 2017-02-08 19:15:45.838812+01 | 1486577745.83881 | pgbench_branches_pkey |            16384
 2017-02-08 19:15:45.838812+01 | 1486577745.83881 | pgbench_tellers_pkey  |            32768
 2017-02-08 19:15:45.838812+01 | 1486577745.83881 | pgbench_accounts_pkey |        112336896

 2017-02-08 19:15:47.085211+01 | 1486577747.08521 | pgbench_branches_pkey |            16384
 2017-02-08 19:15:47.085211+01 | 1486577747.08521 | pgbench_tellers_pkey  |            32768
 2017-02-08 19:15:47.085211+01 | 1486577747.08521 | pgbench_accounts_pkey |        112336896

 2017-02-08 19:15:48.347466+01 | 1486577748.34747 | pgbench_branches_pkey |            16384
 2017-02-08 19:15:48.347466+01 | 1486577748.34747 | pgbench_tellers_pkey  |            32768
 2017-02-08 19:15:48.347466+01 | 1486577748.34747 | pgbench_accounts_pkey |        112336896

 2017-02-08 19:15:49.626787+01 | 1486577749.62679 | pgbench_branches_pkey |            16384
 2017-02-08 19:15:49.626787+01 | 1486577749.62679 | pgbench_tellers_pkey  |            32768
 2017-02-08 19:15:49.626787+01 | 1486577749.62679 | pgbench_accounts_pkey |        112336896

 2017-02-08 19:15:50.880851+01 | 1486577750.88085 | pgbench_branches_pkey |            16384
 2017-02-08 19:15:50.880851+01 | 1486577750.88085 | pgbench_tellers_pkey  |            32768
 2017-02-08 19:15:50.880851+01 | 1486577750.88085 | pgbench_accounts_pkey |        112336896

 2017-02-08 19:15:52.107153+01 | 1486577752.10715 | pgbench_branches_pkey |            16384
 2017-02-08 19:15:52.107153+01 | 1486577752.10715 | pgbench_tellers_pkey  |            32768
 2017-02-08 19:15:52.107153+01 | 1486577752.10715 | pgbench_accounts_pkey |        112336896

 2017-02-08 19:15:53.346839+01 | 1486577753.34684 | pgbench_branches_pkey |            16384
 2017-02-08 19:15:53.346839+01 | 1486577753.34684 | pgbench_tellers_pkey  |            32768
 2017-02-08 19:15:53.346839+01 | 1486577753.34684 | pgbench_accounts_pkey |        112336896

 2017-02-08 19:15:54.493378+01 | 1486577754.49338 | pgbench_branches_pkey |            16384
 2017-02-08 19:15:54.493378+01 | 1486577754.49338 | pgbench_tellers_pkey  |            32768
 2017-02-08 19:15:54.493378+01 | 1486577754.49338 | pgbench_accounts_pkey |        112336896

 2017-02-08 19:15:55.731239+01 | 1486577755.73124 | pgbench_branches_pkey |            16384
 2017-02-08 19:15:55.731239+01 | 1486577755.73124 | pgbench_tellers_pkey  |            32768
 2017-02-08 19:15:55.731239+01 | 1486577755.73124 | pgbench_accounts_pkey |        112336896

 2017-02-08 19:15:56.904556+01 | 1486577756.90456 | pgbench_branches_pkey |            16384
 2017-02-08 19:15:56.904556+01 | 1486577756.90456 | pgbench_tellers_pkey  |            32768
 2017-02-08 19:15:56.904556+01 | 1486577756.90456 | pgbench_accounts_pkey |        112336896

 2017-02-08 19:15:58.05696+01 | 1486577758.05696 | pgbench_branches_pkey |            16384
 2017-02-08 19:15:58.05696+01 | 1486577758.05696 | pgbench_tellers_pkey  |            32768
 2017-02-08 19:15:58.05696+01 | 1486577758.05696 | pgbench_accounts_pkey |        112336896

 2017-02-08 19:15:59.283194+01 | 1486577759.28319 | pgbench_branches_pkey |            16384
 2017-02-08 19:15:59.283194+01 | 1486577759.28319 | pgbench_tellers_pkey  |            32768
 2017-02-08 19:15:59.283194+01 | 1486577759.28319 | pgbench_accounts_pkey |        112336896

 2017-02-08 19:16:00.419176+01 | 1486577760.41918 | pgbench_branches_pkey |            16384
 2017-02-08 19:16:00.419176+01 | 1486577760.41918 | pgbench_tellers_pkey  |            32768
 2017-02-08 19:16:00.419176+01 | 1486577760.41918 | pgbench_accounts_pkey |        112336896

 2017-02-08 19:16:01.543418+01 | 1486577761.54342 | pgbench_branches_pkey |            16384
 2017-02-08 19:16:01.543418+01 | 1486577761.54342 | pgbench_tellers_pkey  |            32768
 2017-02-08 19:16:01.543418+01 | 1486577761.54342 | pgbench_accounts_pkey |        112336896

 2017-02-08 19:16:02.785585+01 | 1486577762.78558 | pgbench_branches_pkey |            16384
 2017-02-08 19:16:02.785585+01 | 1486577762.78558 | pgbench_tellers_pkey  |            32768
 2017-02-08 19:16:02.785585+01 | 1486577762.78558 | pgbench_accounts_pkey |        112336896

 2017-02-08 19:16:04.014552+01 | 1486577764.01455 | pgbench_branches_pkey |            16384
 2017-02-08 19:16:04.014552+01 | 1486577764.01455 | pgbench_tellers_pkey  |            32768
 2017-02-08 19:16:04.014552+01 | 1486577764.01455 | pgbench_accounts_pkey |        112336896

 2017-02-08 19:16:05.267475+01 | 1486577765.26747 | pgbench_branches_pkey |            16384
 2017-02-08 19:16:05.267475+01 | 1486577765.26747 | pgbench_tellers_pkey  |            32768
 2017-02-08 19:16:05.267475+01 | 1486577765.26747 | pgbench_accounts_pkey |        112336896

 2017-02-08 19:16:06.474922+01 | 1486577766.47492 | pgbench_branches_pkey |            16384
 2017-02-08 19:16:06.474922+01 | 1486577766.47492 | pgbench_tellers_pkey  |            32768
 2017-02-08 19:16:06.474922+01 | 1486577766.47492 | pgbench_accounts_pkey |        112336896

 2017-02-08 19:16:07.700165+01 | 1486577767.70017 | pgbench_branches_pkey |            16384
 2017-02-08 19:16:07.700165+01 | 1486577767.70017 | pgbench_tellers_pkey  |            32768
 2017-02-08 19:16:07.700165+01 | 1486577767.70017 | pgbench_accounts_pkey |        112336896

 2017-02-08 19:16:08.948169+01 | 1486577768.94817 | pgbench_branches_pkey |            16384
 2017-02-08 19:16:08.948169+01 | 1486577768.94817 | pgbench_tellers_pkey  |            32768
 2017-02-08 19:16:08.948169+01 | 1486577768.94817 | pgbench_accounts_pkey |        112336896

 2017-02-08 19:16:10.20458+01 | 1486577770.20458 | pgbench_branches_pkey |            16384
 2017-02-08 19:16:10.20458+01 | 1486577770.20458 | pgbench_tellers_pkey  |            32768
 2017-02-08 19:16:10.20458+01 | 1486577770.20458 | pgbench_accounts_pkey |        112336896

 2017-02-08 19:16:11.412905+01 | 1486577771.4129 | pgbench_branches_pkey |            16384
 2017-02-08 19:16:11.412905+01 | 1486577771.4129 | pgbench_tellers_pkey  |            32768
 2017-02-08 19:16:11.412905+01 | 1486577771.4129 | pgbench_accounts_pkey |        112336896

 2017-02-08 19:16:12.666773+01 | 1486577772.66677 | pgbench_branches_pkey |            16384
 2017-02-08 19:16:12.666773+01 | 1486577772.66677 | pgbench_tellers_pkey  |            32768
 2017-02-08 19:16:12.666773+01 | 1486577772.66677 | pgbench_accounts_pkey |        112336896

 2017-02-08 19:16:13.887999+01 | 1486577773.888 | pgbench_branches_pkey |            16384
 2017-02-08 19:16:13.887999+01 | 1486577773.888 | pgbench_tellers_pkey  |            32768
 2017-02-08 19:16:13.887999+01 | 1486577773.888 | pgbench_accounts_pkey |        112336896

 2017-02-08 19:16:15.16957+01 | 1486577775.16957 | pgbench_branches_pkey |            16384
 2017-02-08 19:16:15.16957+01 | 1486577775.16957 | pgbench_tellers_pkey  |            32768
 2017-02-08 19:16:15.16957+01 | 1486577775.16957 | pgbench_accounts_pkey |        112336896

 2017-02-08 19:16:16.358689+01 | 1486577776.35869 | pgbench_branches_pkey |            16384
 2017-02-08 19:16:16.358689+01 | 1486577776.35869 | pgbench_tellers_pkey  |            32768
 2017-02-08 19:16:16.358689+01 | 1486577776.35869 | pgbench_accounts_pkey |        112336896

 2017-02-08 19:16:17.592384+01 | 1486577777.59238 | pgbench_branches_pkey |            16384
 2017-02-08 19:16:17.592384+01 | 1486577777.59238 | pgbench_tellers_pkey  |            32768
 2017-02-08 19:16:17.592384+01 | 1486577777.59238 | pgbench_accounts_pkey |        112336896

 2017-02-08 19:16:18.78403+01 | 1486577778.78403 | pgbench_branches_pkey |            16384
 2017-02-08 19:16:18.78403+01 | 1486577778.78403 | pgbench_tellers_pkey  |            32768
 2017-02-08 19:16:18.78403+01 | 1486577778.78403 | pgbench_accounts_pkey |        112336896

 2017-02-08 19:16:20.053633+01 | 1486577780.05363 | pgbench_branches_pkey |            16384
 2017-02-08 19:16:20.053633+01 | 1486577780.05363 | pgbench_tellers_pkey  |            32768
 2017-02-08 19:16:20.053633+01 | 1486577780.05363 | pgbench_accounts_pkey |        112336896

 2017-02-08 19:16:21.271486+01 | 1486577781.27149 | pgbench_branches_pkey |            16384
 2017-02-08 19:16:21.271486+01 | 1486577781.27149 | pgbench_tellers_pkey  |            32768
 2017-02-08 19:16:21.271486+01 | 1486577781.27149 | pgbench_accounts_pkey |        112336896

 2017-02-08 19:16:22.488357+01 | 1486577782.48836 | pgbench_branches_pkey |            16384
 2017-02-08 19:16:22.488357+01 | 1486577782.48836 | pgbench_tellers_pkey  |            32768
 2017-02-08 19:16:22.488357+01 | 1486577782.48836 | pgbench_accounts_pkey |        112336896

 2017-02-08 19:16:23.691347+01 | 1486577783.69135 | pgbench_branches_pkey |            16384
 2017-02-08 19:16:23.691347+01 | 1486577783.69135 | pgbench_tellers_pkey  |            32768
 2017-02-08 19:16:23.691347+01 | 1486577783.69135 | pgbench_accounts_pkey |        112336896

 2017-02-08 19:16:24.913487+01 | 1486577784.91349 | pgbench_branches_pkey |            16384
 2017-02-08 19:16:24.913487+01 | 1486577784.91349 | pgbench_tellers_pkey  |            32768
 2017-02-08 19:16:24.913487+01 | 1486577784.91349 | pgbench_accounts_pkey |        112336896

 2017-02-08 19:16:26.120243+01 | 1486577786.12024 | pgbench_branches_pkey |            16384
 2017-02-08 19:16:26.120243+01 | 1486577786.12024 | pgbench_tellers_pkey  |            32768
 2017-02-08 19:16:26.120243+01 | 1486577786.12024 | pgbench_accounts_pkey |        112336896

 2017-02-08 19:16:27.396385+01 | 1486577787.39638 | pgbench_branches_pkey |            16384
 2017-02-08 19:16:27.396385+01 | 1486577787.39638 | pgbench_tellers_pkey  |            32768
 2017-02-08 19:16:27.396385+01 | 1486577787.39638 | pgbench_accounts_pkey |        112336896

 2017-02-08 19:16:28.622653+01 | 1486577788.62265 | pgbench_branches_pkey |            16384
 2017-02-08 19:16:28.622653+01 | 1486577788.62265 | pgbench_tellers_pkey  |            32768
 2017-02-08 19:16:28.622653+01 | 1486577788.62265 | pgbench_accounts_pkey |        112336896

 2017-02-08 19:16:29.838244+01 | 1486577789.83824 | pgbench_branches_pkey |            16384
 2017-02-08 19:16:29.838244+01 | 1486577789.83824 | pgbench_tellers_pkey  |            32768
 2017-02-08 19:16:29.838244+01 | 1486577789.83824 | pgbench_accounts_pkey |        112336896

 2017-02-08 19:16:31.070664+01 | 1486577791.07066 | pgbench_branches_pkey |            16384
 2017-02-08 19:16:31.070664+01 | 1486577791.07066 | pgbench_tellers_pkey  |            32768
 2017-02-08 19:16:31.070664+01 | 1486577791.07066 | pgbench_accounts_pkey |        112336896

 2017-02-08 19:16:32.337661+01 | 1486577792.33766 | pgbench_branches_pkey |            16384
 2017-02-08 19:16:32.337661+01 | 1486577792.33766 | pgbench_tellers_pkey  |            32768
 2017-02-08 19:16:32.337661+01 | 1486577792.33766 | pgbench_accounts_pkey |        112336896

 2017-02-08 19:16:33.580699+01 | 1486577793.5807 | pgbench_branches_pkey |            16384
 2017-02-08 19:16:33.580699+01 | 1486577793.5807 | pgbench_tellers_pkey  |            32768
 2017-02-08 19:16:33.580699+01 | 1486577793.5807 | pgbench_accounts_pkey |        112336896

 2017-02-08 19:16:34.776113+01 | 1486577794.77611 | pgbench_branches_pkey |            16384
 2017-02-08 19:16:34.776113+01 | 1486577794.77611 | pgbench_tellers_pkey  |            32768
 2017-02-08 19:16:34.776113+01 | 1486577794.77611 | pgbench_accounts_pkey |        112336896

 2017-02-08 19:16:36.03366+01 | 1486577796.03366 | pgbench_branches_pkey |            16384
 2017-02-08 19:16:36.03366+01 | 1486577796.03366 | pgbench_tellers_pkey  |            32768
 2017-02-08 19:16:36.03366+01 | 1486577796.03366 | pgbench_accounts_pkey |        112336896

 2017-02-08 19:16:37.335499+01 | 1486577797.3355 | pgbench_branches_pkey |            16384
 2017-02-08 19:16:37.335499+01 | 1486577797.3355 | pgbench_tellers_pkey  |            32768
 2017-02-08 19:16:37.335499+01 | 1486577797.3355 | pgbench_accounts_pkey |        112336896

 2017-02-08 19:16:38.571722+01 | 1486577798.57172 | pgbench_branches_pkey |            16384
 2017-02-08 19:16:38.571722+01 | 1486577798.57172 | pgbench_tellers_pkey  |            32768
 2017-02-08 19:16:38.571722+01 | 1486577798.57172 | pgbench_accounts_pkey |        112336896

 2017-02-08 19:16:39.727308+01 | 1486577799.72731 | pgbench_branches_pkey |            16384
 2017-02-08 19:16:39.727308+01 | 1486577799.72731 | pgbench_tellers_pkey  |            32768
 2017-02-08 19:16:39.727308+01 | 1486577799.72731 | pgbench_accounts_pkey |        112336896

 2017-02-08 19:16:40.952388+01 | 1486577800.95239 | pgbench_branches_pkey |            16384
 2017-02-08 19:16:40.952388+01 | 1486577800.95239 | pgbench_tellers_pkey  |            32768
 2017-02-08 19:16:40.952388+01 | 1486577800.95239 | pgbench_accounts_pkey |        112336896

 2017-02-08 19:16:42.176201+01 | 1486577802.1762 | pgbench_branches_pkey |            16384
 2017-02-08 19:16:42.176201+01 | 1486577802.1762 | pgbench_tellers_pkey  |            32768
 2017-02-08 19:16:42.176201+01 | 1486577802.1762 | pgbench_accounts_pkey |        112336896

 2017-02-08 19:16:43.397912+01 | 1486577803.39791 | pgbench_branches_pkey |            16384
 2017-02-08 19:16:43.397912+01 | 1486577803.39791 | pgbench_tellers_pkey  |            32768
 2017-02-08 19:16:43.397912+01 | 1486577803.39791 | pgbench_accounts_pkey |        112336896

 2017-02-08 19:16:44.564456+01 | 1486577804.56446 | pgbench_branches_pkey |            16384
 2017-02-08 19:16:44.564456+01 | 1486577804.56446 | pgbench_tellers_pkey  |            32768
 2017-02-08 19:16:44.564456+01 | 1486577804.56446 | pgbench_accounts_pkey |        112336896

 2017-02-08 19:16:45.790015+01 | 1486577805.79001 | pgbench_branches_pkey |            16384
 2017-02-08 19:16:45.790015+01 | 1486577805.79001 | pgbench_tellers_pkey  |            32768
 2017-02-08 19:16:45.790015+01 | 1486577805.79001 | pgbench_accounts_pkey |        112336896

 2017-02-08 19:16:46.988289+01 | 1486577806.98829 | pgbench_branches_pkey |            16384
 2017-02-08 19:16:46.988289+01 | 1486577806.98829 | pgbench_tellers_pkey  |            32768
 2017-02-08 19:16:46.988289+01 | 1486577806.98829 | pgbench_accounts_pkey |        112336896

 2017-02-08 19:16:48.234604+01 | 1486577808.2346 | pgbench_branches_pkey |            16384
 2017-02-08 19:16:48.234604+01 | 1486577808.2346 | pgbench_tellers_pkey  |            32768
 2017-02-08 19:16:48.234604+01 | 1486577808.2346 | pgbench_accounts_pkey |        112336896

 2017-02-08 19:16:49.493641+01 | 1486577809.49364 | pgbench_branches_pkey |            16384
 2017-02-08 19:16:49.493641+01 | 1486577809.49364 | pgbench_tellers_pkey  |            32768
 2017-02-08 19:16:49.493641+01 | 1486577809.49364 | pgbench_accounts_pkey |        112336896

 2017-02-08 19:16:50.781765+01 | 1486577810.78176 | pgbench_branches_pkey |            16384
 2017-02-08 19:16:50.781765+01 | 1486577810.78176 | pgbench_tellers_pkey  |            32768
 2017-02-08 19:16:50.781765+01 | 1486577810.78176 | pgbench_accounts_pkey |        112336896

 2017-02-08 19:16:51.979786+01 | 1486577811.97979 | pgbench_branches_pkey |            16384
 2017-02-08 19:16:51.979786+01 | 1486577811.97979 | pgbench_tellers_pkey  |            32768
 2017-02-08 19:16:51.979786+01 | 1486577811.97979 | pgbench_accounts_pkey |        112336896

 2017-02-08 19:16:53.190785+01 | 1486577813.19078 | pgbench_branches_pkey |            16384
 2017-02-08 19:16:53.190785+01 | 1486577813.19078 | pgbench_tellers_pkey  |            32768
 2017-02-08 19:16:53.190785+01 | 1486577813.19078 | pgbench_accounts_pkey |        112336896

 2017-02-08 19:16:54.427406+01 | 1486577814.42741 | pgbench_branches_pkey |            16384
 2017-02-08 19:16:54.427406+01 | 1486577814.42741 | pgbench_tellers_pkey  |            32768
 2017-02-08 19:16:54.427406+01 | 1486577814.42741 | pgbench_accounts_pkey |        112336896

 2017-02-08 19:16:55.650802+01 | 1486577815.6508 | pgbench_branches_pkey |            16384
 2017-02-08 19:16:55.650802+01 | 1486577815.6508 | pgbench_tellers_pkey  |            32768
 2017-02-08 19:16:55.650802+01 | 1486577815.6508 | pgbench_accounts_pkey |        112336896

 2017-02-08 19:16:56.938444+01 | 1486577816.93844 | pgbench_branches_pkey |            16384
 2017-02-08 19:16:56.938444+01 | 1486577816.93844 | pgbench_tellers_pkey  |            32768
 2017-02-08 19:16:56.938444+01 | 1486577816.93844 | pgbench_accounts_pkey |        112336896

 2017-02-08 19:16:58.140124+01 | 1486577818.14012 | pgbench_branches_pkey |            16384
 2017-02-08 19:16:58.140124+01 | 1486577818.14012 | pgbench_tellers_pkey  |            32768
 2017-02-08 19:16:58.140124+01 | 1486577818.14012 | pgbench_accounts_pkey |        112336896

 2017-02-08 19:16:59.308112+01 | 1486577819.30811 | pgbench_branches_pkey |            16384
 2017-02-08 19:16:59.308112+01 | 1486577819.30811 | pgbench_tellers_pkey  |            32768
 2017-02-08 19:16:59.308112+01 | 1486577819.30811 | pgbench_accounts_pkey |        112336896

 2017-02-08 19:17:00.452074+01 | 1486577820.45207 | pgbench_branches_pkey |            16384
 2017-02-08 19:17:00.452074+01 | 1486577820.45207 | pgbench_tellers_pkey  |            32768
 2017-02-08 19:17:00.452074+01 | 1486577820.45207 | pgbench_accounts_pkey |        112336896

 2017-02-08 19:17:01.682317+01 | 1486577821.68232 | pgbench_branches_pkey |            16384
 2017-02-08 19:17:01.682317+01 | 1486577821.68232 | pgbench_tellers_pkey  |            32768
 2017-02-08 19:17:01.682317+01 | 1486577821.68232 | pgbench_accounts_pkey |        112336896

 2017-02-08 19:17:02.866697+01 | 1486577822.8667 | pgbench_branches_pkey |            16384
 2017-02-08 19:17:02.866697+01 | 1486577822.8667 | pgbench_tellers_pkey  |            32768
 2017-02-08 19:17:02.866697+01 | 1486577822.8667 | pgbench_accounts_pkey |        112336896

 2017-02-08 19:17:04.091527+01 | 1486577824.09153 | pgbench_branches_pkey |            16384
 2017-02-08 19:17:04.091527+01 | 1486577824.09153 | pgbench_tellers_pkey  |            32768
 2017-02-08 19:17:04.091527+01 | 1486577824.09153 | pgbench_accounts_pkey |        112336896

 2017-02-08 19:17:05.334643+01 | 1486577825.33464 | pgbench_branches_pkey |            16384
 2017-02-08 19:17:05.334643+01 | 1486577825.33464 | pgbench_tellers_pkey  |            32768
 2017-02-08 19:17:05.334643+01 | 1486577825.33464 | pgbench_accounts_pkey |        112336896

 2017-02-08 19:17:06.543973+01 | 1486577826.54397 | pgbench_branches_pkey |            16384
 2017-02-08 19:17:06.543973+01 | 1486577826.54397 | pgbench_tellers_pkey  |            32768
 2017-02-08 19:17:06.543973+01 | 1486577826.54397 | pgbench_accounts_pkey |        112336896

 2017-02-08 19:17:07.78142+01 | 1486577827.78142 | pgbench_branches_pkey |            16384
 2017-02-08 19:17:07.78142+01 | 1486577827.78142 | pgbench_tellers_pkey  |            32768
 2017-02-08 19:17:07.78142+01 | 1486577827.78142 | pgbench_accounts_pkey |        112336896

 2017-02-08 19:17:08.874562+01 | 1486577828.87456 | pgbench_branches_pkey |            16384
 2017-02-08 19:17:08.874562+01 | 1486577828.87456 | pgbench_tellers_pkey  |            32768
 2017-02-08 19:17:08.874562+01 | 1486577828.87456 | pgbench_accounts_pkey |        112336896

 2017-02-08 19:17:10.000831+01 | 1486577830.00083 | pgbench_branches_pkey |            16384
 2017-02-08 19:17:10.000831+01 | 1486577830.00083 | pgbench_tellers_pkey  |            32768
 2017-02-08 19:17:10.000831+01 | 1486577830.00083 | pgbench_accounts_pkey |        112336896

 2017-02-08 19:17:11.228155+01 | 1486577831.22815 | pgbench_branches_pkey |            16384
 2017-02-08 19:17:11.228155+01 | 1486577831.22815 | pgbench_tellers_pkey  |            32768
 2017-02-08 19:17:11.228155+01 | 1486577831.22815 | pgbench_accounts_pkey |        112336896

 2017-02-08 19:17:12.401703+01 | 1486577832.4017 | pgbench_branches_pkey |            16384
 2017-02-08 19:17:12.401703+01 | 1486577832.4017 | pgbench_tellers_pkey  |            32768
 2017-02-08 19:17:12.401703+01 | 1486577832.4017 | pgbench_accounts_pkey |        112336896

 2017-02-08 19:17:13.471618+01 | 1486577833.47162 | pgbench_branches_pkey |            16384
 2017-02-08 19:17:13.471618+01 | 1486577833.47162 | pgbench_tellers_pkey  |            32768
 2017-02-08 19:17:13.471618+01 | 1486577833.47162 | pgbench_accounts_pkey |        112336896

 2017-02-08 19:17:14.570284+01 | 1486577834.57028 | pgbench_branches_pkey |            16384
 2017-02-08 19:17:14.570284+01 | 1486577834.57028 | pgbench_tellers_pkey  |            32768
 2017-02-08 19:17:14.570284+01 | 1486577834.57028 | pgbench_accounts_pkey |        112336896

 2017-02-08 19:17:15.735668+01 | 1486577835.73567 | pgbench_branches_pkey |            16384
 2017-02-08 19:17:15.735668+01 | 1486577835.73567 | pgbench_tellers_pkey  |            32768
 2017-02-08 19:17:15.735668+01 | 1486577835.73567 | pgbench_accounts_pkey |        112336896

 2017-02-08 19:17:16.930313+01 | 1486577836.93031 | pgbench_branches_pkey |            16384
 2017-02-08 19:17:16.930313+01 | 1486577836.93031 | pgbench_tellers_pkey  |            32768
 2017-02-08 19:17:16.930313+01 | 1486577836.93031 | pgbench_accounts_pkey |        112336896

 2017-02-08 19:17:18.137097+01 | 1486577838.1371 | pgbench_branches_pkey |            16384
 2017-02-08 19:17:18.137097+01 | 1486577838.1371 | pgbench_tellers_pkey  |            32768
 2017-02-08 19:17:18.137097+01 | 1486577838.1371 | pgbench_accounts_pkey |        112336896

 2017-02-08 19:17:19.34804+01 | 1486577839.34804 | pgbench_branches_pkey |            16384
 2017-02-08 19:17:19.34804+01 | 1486577839.34804 | pgbench_tellers_pkey  |            32768
 2017-02-08 19:17:19.34804+01 | 1486577839.34804 | pgbench_accounts_pkey |        112336896

 2017-02-08 19:17:20.521025+01 | 1486577840.52102 | pgbench_branches_pkey |            16384
 2017-02-08 19:17:20.521025+01 | 1486577840.52102 | pgbench_tellers_pkey  |            32768
 2017-02-08 19:17:20.521025+01 | 1486577840.52102 | pgbench_accounts_pkey |        112336896

 2017-02-08 19:17:21.746162+01 | 1486577841.74616 | pgbench_branches_pkey |            16384
 2017-02-08 19:17:21.746162+01 | 1486577841.74616 | pgbench_tellers_pkey  |            32768
 2017-02-08 19:17:21.746162+01 | 1486577841.74616 | pgbench_accounts_pkey |        112336896

 2017-02-08 19:17:22.958101+01 | 1486577842.9581 | pgbench_branches_pkey |            16384
 2017-02-08 19:17:22.958101+01 | 1486577842.9581 | pgbench_tellers_pkey  |            32768
 2017-02-08 19:17:22.958101+01 | 1486577842.9581 | pgbench_accounts_pkey |        112336896

 2017-02-08 19:17:24.243162+01 | 1486577844.24316 | pgbench_branches_pkey |            16384
 2017-02-08 19:17:24.243162+01 | 1486577844.24316 | pgbench_tellers_pkey  |            32768
 2017-02-08 19:17:24.243162+01 | 1486577844.24316 | pgbench_accounts_pkey |        112336896

 2017-02-08 19:17:25.481104+01 | 1486577845.4811 | pgbench_branches_pkey |            16384
 2017-02-08 19:17:25.481104+01 | 1486577845.4811 | pgbench_tellers_pkey  |            32768
 2017-02-08 19:17:25.481104+01 | 1486577845.4811 | pgbench_accounts_pkey |        112336896

 2017-02-08 19:17:26.728885+01 | 1486577846.72888 | pgbench_branches_pkey |            16384
 2017-02-08 19:17:26.728885+01 | 1486577846.72888 | pgbench_tellers_pkey  |            32768
 2017-02-08 19:17:26.728885+01 | 1486577846.72888 | pgbench_accounts_pkey |        112336896

 2017-02-08 19:17:27.979683+01 | 1486577847.97968 | pgbench_branches_pkey |            16384
 2017-02-08 19:17:27.979683+01 | 1486577847.97968 | pgbench_tellers_pkey  |            32768
 2017-02-08 19:17:27.979683+01 | 1486577847.97968 | pgbench_accounts_pkey |        112336896

 2017-02-08 19:17:29.221745+01 | 1486577849.22175 | pgbench_branches_pkey |            16384
 2017-02-08 19:17:29.221745+01 | 1486577849.22175 | pgbench_tellers_pkey  |            32768
 2017-02-08 19:17:29.221745+01 | 1486577849.22175 | pgbench_accounts_pkey |        112336896

 2017-02-08 19:17:30.431225+01 | 1486577850.43123 | pgbench_branches_pkey |            16384
 2017-02-08 19:17:30.431225+01 | 1486577850.43123 | pgbench_tellers_pkey  |            32768
 2017-02-08 19:17:30.431225+01 | 1486577850.43123 | pgbench_accounts_pkey |        112336896

 2017-02-08 19:17:31.595825+01 | 1486577851.59582 | pgbench_branches_pkey |            16384
 2017-02-08 19:17:31.595825+01 | 1486577851.59582 | pgbench_tellers_pkey  |            32768
 2017-02-08 19:17:31.595825+01 | 1486577851.59582 | pgbench_accounts_pkey |        112336896

 2017-02-08 19:17:32.828223+01 | 1486577852.82822 | pgbench_branches_pkey |            16384
 2017-02-08 19:17:32.828223+01 | 1486577852.82822 | pgbench_tellers_pkey  |            32768
 2017-02-08 19:17:32.828223+01 | 1486577852.82822 | pgbench_accounts_pkey |        112336896

 2017-02-08 19:17:34.024347+01 | 1486577854.02435 | pgbench_branches_pkey |            16384
 2017-02-08 19:17:34.024347+01 | 1486577854.02435 | pgbench_tellers_pkey  |            32768
 2017-02-08 19:17:34.024347+01 | 1486577854.02435 | pgbench_accounts_pkey |        112336896

 2017-02-08 19:17:35.253339+01 | 1486577855.25334 | pgbench_branches_pkey |            16384
 2017-02-08 19:17:35.253339+01 | 1486577855.25334 | pgbench_tellers_pkey  |            32768
 2017-02-08 19:17:35.253339+01 | 1486577855.25334 | pgbench_accounts_pkey |        112336896

 2017-02-08 19:17:36.389228+01 | 1486577856.38923 | pgbench_branches_pkey |            16384
 2017-02-08 19:17:36.389228+01 | 1486577856.38923 | pgbench_tellers_pkey  |            32768
 2017-02-08 19:17:36.389228+01 | 1486577856.38923 | pgbench_accounts_pkey |        112336896

 2017-02-08 19:17:37.564778+01 | 1486577857.56478 | pgbench_branches_pkey |            16384
 2017-02-08 19:17:37.564778+01 | 1486577857.56478 | pgbench_tellers_pkey  |            32768
 2017-02-08 19:17:37.564778+01 | 1486577857.56478 | pgbench_accounts_pkey |        112336896

 2017-02-08 19:17:38.758483+01 | 1486577858.75848 | pgbench_branches_pkey |            16384
 2017-02-08 19:17:38.758483+01 | 1486577858.75848 | pgbench_tellers_pkey  |            32768
 2017-02-08 19:17:38.758483+01 | 1486577858.75848 | pgbench_accounts_pkey |        112336896

 2017-02-08 19:17:40.036261+01 | 1486577860.03626 | pgbench_branches_pkey |            16384
 2017-02-08 19:17:40.036261+01 | 1486577860.03626 | pgbench_tellers_pkey  |            32768
 2017-02-08 19:17:40.036261+01 | 1486577860.03626 | pgbench_accounts_pkey |        112336896

 2017-02-08 19:17:41.254451+01 | 1486577861.25445 | pgbench_branches_pkey |            16384
 2017-02-08 19:17:41.254451+01 | 1486577861.25445 | pgbench_tellers_pkey  |            32768
 2017-02-08 19:17:41.254451+01 | 1486577861.25445 | pgbench_accounts_pkey |        112336896

 2017-02-08 19:17:42.474744+01 | 1486577862.47474 | pgbench_branches_pkey |            16384
 2017-02-08 19:17:42.474744+01 | 1486577862.47474 | pgbench_tellers_pkey  |            32768
 2017-02-08 19:17:42.474744+01 | 1486577862.47474 | pgbench_accounts_pkey |        112336896

 2017-02-08 19:17:43.703472+01 | 1486577863.70347 | pgbench_branches_pkey |            16384
 2017-02-08 19:17:43.703472+01 | 1486577863.70347 | pgbench_tellers_pkey  |            32768
 2017-02-08 19:17:43.703472+01 | 1486577863.70347 | pgbench_accounts_pkey |        112336896

 2017-02-08 19:17:44.896311+01 | 1486577864.89631 | pgbench_branches_pkey |            16384
 2017-02-08 19:17:44.896311+01 | 1486577864.89631 | pgbench_tellers_pkey  |            32768
 2017-02-08 19:17:44.896311+01 | 1486577864.89631 | pgbench_accounts_pkey |        112336896

 2017-02-08 19:17:46.138988+01 | 1486577866.13899 | pgbench_branches_pkey |            16384
 2017-02-08 19:17:46.138988+01 | 1486577866.13899 | pgbench_tellers_pkey  |            32768
 2017-02-08 19:17:46.138988+01 | 1486577866.13899 | pgbench_accounts_pkey |        112336896

 2017-02-08 19:17:47.374196+01 | 1486577867.3742 | pgbench_branches_pkey |            16384
 2017-02-08 19:17:47.374196+01 | 1486577867.3742 | pgbench_tellers_pkey  |            32768
 2017-02-08 19:17:47.374196+01 | 1486577867.3742 | pgbench_accounts_pkey |        112336896

 2017-02-08 19:17:48.660963+01 | 1486577868.66096 | pgbench_branches_pkey |            16384
 2017-02-08 19:17:48.660963+01 | 1486577868.66096 | pgbench_tellers_pkey  |            32768
 2017-02-08 19:17:48.660963+01 | 1486577868.66096 | pgbench_accounts_pkey |        112336896

 2017-02-08 19:17:49.940975+01 | 1486577869.94097 | pgbench_branches_pkey |            16384
 2017-02-08 19:17:49.940975+01 | 1486577869.94097 | pgbench_tellers_pkey  |            32768
 2017-02-08 19:17:49.940975+01 | 1486577869.94097 | pgbench_accounts_pkey |        112336896

 2017-02-08 19:17:51.179066+01 | 1486577871.17907 | pgbench_branches_pkey |            16384
 2017-02-08 19:17:51.179066+01 | 1486577871.17907 | pgbench_tellers_pkey  |            32768
 2017-02-08 19:17:51.179066+01 | 1486577871.17907 | pgbench_accounts_pkey |        112336896

 2017-02-08 19:17:52.419567+01 | 1486577872.41957 | pgbench_branches_pkey |            16384
 2017-02-08 19:17:52.419567+01 | 1486577872.41957 | pgbench_tellers_pkey  |            32768
 2017-02-08 19:17:52.419567+01 | 1486577872.41957 | pgbench_accounts_pkey |        112336896

 2017-02-08 19:17:53.605542+01 | 1486577873.60554 | pgbench_branches_pkey |            16384
 2017-02-08 19:17:53.605542+01 | 1486577873.60554 | pgbench_tellers_pkey  |            32768
 2017-02-08 19:17:53.605542+01 | 1486577873.60554 | pgbench_accounts_pkey |        112336896

 2017-02-08 19:17:54.816299+01 | 1486577874.8163 | pgbench_branches_pkey |            16384
 2017-02-08 19:17:54.816299+01 | 1486577874.8163 | pgbench_tellers_pkey  |            32768
 2017-02-08 19:17:54.816299+01 | 1486577874.8163 | pgbench_accounts_pkey |        112336896

 2017-02-08 19:17:56.015059+01 | 1486577876.01506 | pgbench_branches_pkey |            16384
 2017-02-08 19:17:56.015059+01 | 1486577876.01506 | pgbench_tellers_pkey  |            32768
 2017-02-08 19:17:56.015059+01 | 1486577876.01506 | pgbench_accounts_pkey |        112336896

 2017-02-08 19:17:57.220197+01 | 1486577877.2202 | pgbench_branches_pkey |            16384
 2017-02-08 19:17:57.220197+01 | 1486577877.2202 | pgbench_tellers_pkey  |            32768
 2017-02-08 19:17:57.220197+01 | 1486577877.2202 | pgbench_accounts_pkey |        112336896

 2017-02-08 19:17:58.397724+01 | 1486577878.39772 | pgbench_branches_pkey |            16384
 2017-02-08 19:17:58.397724+01 | 1486577878.39772 | pgbench_tellers_pkey  |            32768
 2017-02-08 19:17:58.397724+01 | 1486577878.39772 | pgbench_accounts_pkey |        112336896

 2017-02-08 19:17:59.623653+01 | 1486577879.62365 | pgbench_branches_pkey |            16384
 2017-02-08 19:17:59.623653+01 | 1486577879.62365 | pgbench_tellers_pkey  |            32768
 2017-02-08 19:17:59.623653+01 | 1486577879.62365 | pgbench_accounts_pkey |        112336896

 2017-02-08 19:18:00.919583+01 | 1486577880.91958 | pgbench_branches_pkey |            16384
 2017-02-08 19:18:00.919583+01 | 1486577880.91958 | pgbench_tellers_pkey  |            32768
 2017-02-08 19:18:00.919583+01 | 1486577880.91958 | pgbench_accounts_pkey |        112336896

