 2017-02-09 10:30:01.493809+01 | 1486632601.49381 | pgbench_accounts |       4101922816
 2017-02-09 10:30:01.493809+01 | 1486632601.49381 | pgbench_tellers  |          4268032
 2017-02-09 10:30:01.493809+01 | 1486632601.49381 | pgbench_history  |           237568
 2017-02-09 10:30:01.493809+01 | 1486632601.49381 | pgbench_branches |          2990080

 2017-02-09 10:30:02.617554+01 | 1486632602.61755 | pgbench_accounts |       4101922816
 2017-02-09 10:30:02.617554+01 | 1486632602.61755 | pgbench_tellers  |          4268032
 2017-02-09 10:30:02.617554+01 | 1486632602.61755 | pgbench_history  |           589824
 2017-02-09 10:30:02.617554+01 | 1486632602.61755 | pgbench_branches |          2990080

 2017-02-09 10:30:03.736607+01 | 1486632603.73661 | pgbench_accounts |       4101922816
 2017-02-09 10:30:03.736607+01 | 1486632603.73661 | pgbench_tellers  |          4268032
 2017-02-09 10:30:03.736607+01 | 1486632603.73661 | pgbench_history  |          1064960
 2017-02-09 10:30:03.736607+01 | 1486632603.73661 | pgbench_branches |          2990080

 2017-02-09 10:30:04.862148+01 | 1486632604.86215 | pgbench_accounts |       4101922816
 2017-02-09 10:30:04.862148+01 | 1486632604.86215 | pgbench_tellers  |          4268032
 2017-02-09 10:30:04.862148+01 | 1486632604.86215 | pgbench_history  |          1540096
 2017-02-09 10:30:04.862148+01 | 1486632604.86215 | pgbench_branches |          2990080

 2017-02-09 10:30:05.974813+01 | 1486632605.97481 | pgbench_accounts |       4101922816
 2017-02-09 10:30:05.974813+01 | 1486632605.97481 | pgbench_tellers  |          4268032
 2017-02-09 10:30:05.974813+01 | 1486632605.97481 | pgbench_history  |          2039808
 2017-02-09 10:30:05.974813+01 | 1486632605.97481 | pgbench_branches |          2990080

 2017-02-09 10:30:07.143282+01 | 1486632607.14328 | pgbench_accounts |       4101922816
 2017-02-09 10:30:07.143282+01 | 1486632607.14328 | pgbench_tellers  |          4268032
 2017-02-09 10:30:07.143282+01 | 1486632607.14328 | pgbench_history  |          2564096
 2017-02-09 10:30:07.143282+01 | 1486632607.14328 | pgbench_branches |          2990080

 2017-02-09 10:30:08.24712+01 | 1486632608.24712 | pgbench_accounts |       4101922816
 2017-02-09 10:30:08.24712+01 | 1486632608.24712 | pgbench_tellers  |          4268032
 2017-02-09 10:30:08.24712+01 | 1486632608.24712 | pgbench_history  |          3055616
 2017-02-09 10:30:08.24712+01 | 1486632608.24712 | pgbench_branches |          2990080

 2017-02-09 10:30:09.376767+01 | 1486632609.37677 | pgbench_accounts |       4101922816
 2017-02-09 10:30:09.376767+01 | 1486632609.37677 | pgbench_tellers  |          4268032
 2017-02-09 10:30:09.376767+01 | 1486632609.37677 | pgbench_history  |          3907584
 2017-02-09 10:30:09.376767+01 | 1486632609.37677 | pgbench_branches |          2990080

 2017-02-09 10:30:10.562903+01 | 1486632610.5629 | pgbench_accounts |       4101922816
 2017-02-09 10:30:10.562903+01 | 1486632610.5629 | pgbench_tellers  |          4268032
 2017-02-09 10:30:10.562903+01 | 1486632610.5629 | pgbench_history  |          4112384
 2017-02-09 10:30:10.562903+01 | 1486632610.5629 | pgbench_branches |          2990080

 2017-02-09 10:30:11.676551+01 | 1486632611.67655 | pgbench_accounts |       4101922816
 2017-02-09 10:30:11.676551+01 | 1486632611.67655 | pgbench_tellers  |          4268032
 2017-02-09 10:30:11.676551+01 | 1486632611.67655 | pgbench_history  |          4546560
 2017-02-09 10:30:11.676551+01 | 1486632611.67655 | pgbench_branches |          2990080

 2017-02-09 10:30:12.770397+01 | 1486632612.7704 | pgbench_accounts |       4101922816
 2017-02-09 10:30:12.770397+01 | 1486632612.7704 | pgbench_tellers  |          4268032
 2017-02-09 10:30:12.770397+01 | 1486632612.7704 | pgbench_history  |          5283840
 2017-02-09 10:30:12.770397+01 | 1486632612.7704 | pgbench_branches |          2990080

 2017-02-09 10:30:13.880687+01 | 1486632613.88069 | pgbench_accounts |       4101922816
 2017-02-09 10:30:13.880687+01 | 1486632613.88069 | pgbench_tellers  |          4268032
 2017-02-09 10:30:13.880687+01 | 1486632613.88069 | pgbench_history  |          5496832
 2017-02-09 10:30:13.880687+01 | 1486632613.88069 | pgbench_branches |          2990080

 2017-02-09 10:30:15.002337+01 | 1486632615.00234 | pgbench_accounts |       4101922816
 2017-02-09 10:30:15.002337+01 | 1486632615.00234 | pgbench_tellers  |          4268032
 2017-02-09 10:30:15.002337+01 | 1486632615.00234 | pgbench_history  |          6021120
 2017-02-09 10:30:15.002337+01 | 1486632615.00234 | pgbench_branches |          2990080

 2017-02-09 10:30:16.134669+01 | 1486632616.13467 | pgbench_accounts |       4101922816
 2017-02-09 10:30:16.134669+01 | 1486632616.13467 | pgbench_tellers  |          4268032
 2017-02-09 10:30:16.134669+01 | 1486632616.13467 | pgbench_history  |          6438912
 2017-02-09 10:30:16.134669+01 | 1486632616.13467 | pgbench_branches |          2990080

 2017-02-09 10:30:17.305378+01 | 1486632617.30538 | pgbench_accounts |       4101922816
 2017-02-09 10:30:17.305378+01 | 1486632617.30538 | pgbench_tellers  |          4268032
 2017-02-09 10:30:17.305378+01 | 1486632617.30538 | pgbench_history  |          6955008
 2017-02-09 10:30:17.305378+01 | 1486632617.30538 | pgbench_branches |          2990080

 2017-02-09 10:30:18.439593+01 | 1486632618.43959 | pgbench_accounts |       4101922816
 2017-02-09 10:30:18.439593+01 | 1486632618.43959 | pgbench_tellers  |          4268032
 2017-02-09 10:30:18.439593+01 | 1486632618.43959 | pgbench_history  |          7462912
 2017-02-09 10:30:18.439593+01 | 1486632618.43959 | pgbench_branches |          2990080

 2017-02-09 10:30:19.610651+01 | 1486632619.61065 | pgbench_accounts |       4101922816
 2017-02-09 10:30:19.610651+01 | 1486632619.61065 | pgbench_tellers  |          4268032
 2017-02-09 10:30:19.610651+01 | 1486632619.61065 | pgbench_history  |          7954432
 2017-02-09 10:30:19.610651+01 | 1486632619.61065 | pgbench_branches |          2990080

 2017-02-09 10:30:20.791741+01 | 1486632620.79174 | pgbench_accounts |       4101922816
 2017-02-09 10:30:20.791741+01 | 1486632620.79174 | pgbench_tellers  |          4268032
 2017-02-09 10:30:20.791741+01 | 1486632620.79174 | pgbench_history  |          8454144
 2017-02-09 10:30:20.791741+01 | 1486632620.79174 | pgbench_branches |          2990080

 2017-02-09 10:30:21.94915+01 | 1486632621.94915 | pgbench_accounts |       4101922816
 2017-02-09 10:30:21.94915+01 | 1486632621.94915 | pgbench_tellers  |          4268032
 2017-02-09 10:30:21.94915+01 | 1486632621.94915 | pgbench_history  |          8953856
 2017-02-09 10:30:21.94915+01 | 1486632621.94915 | pgbench_branches |          2990080

 2017-02-09 10:30:23.090793+01 | 1486632623.09079 | pgbench_accounts |       4101922816
 2017-02-09 10:30:23.090793+01 | 1486632623.09079 | pgbench_tellers  |          4268032
 2017-02-09 10:30:23.090793+01 | 1486632623.09079 | pgbench_history  |          9420800
 2017-02-09 10:30:23.090793+01 | 1486632623.09079 | pgbench_branches |          2990080

 2017-02-09 10:30:24.217802+01 | 1486632624.2178 | pgbench_accounts |       4101922816
 2017-02-09 10:30:24.217802+01 | 1486632624.2178 | pgbench_tellers  |          4268032
 2017-02-09 10:30:24.217802+01 | 1486632624.2178 | pgbench_history  |          9912320
 2017-02-09 10:30:24.217802+01 | 1486632624.2178 | pgbench_branches |          2990080

 2017-02-09 10:30:25.331753+01 | 1486632625.33175 | pgbench_accounts |       4101922816
 2017-02-09 10:30:25.331753+01 | 1486632625.33175 | pgbench_tellers  |          4268032
 2017-02-09 10:30:25.331753+01 | 1486632625.33175 | pgbench_history  |         10412032
 2017-02-09 10:30:25.331753+01 | 1486632625.33175 | pgbench_branches |          2990080

 2017-02-09 10:30:26.483461+01 | 1486632626.48346 | pgbench_accounts |       4101922816
 2017-02-09 10:30:26.483461+01 | 1486632626.48346 | pgbench_tellers  |          4268032
 2017-02-09 10:30:26.483461+01 | 1486632626.48346 | pgbench_history  |         10887168
 2017-02-09 10:30:26.483461+01 | 1486632626.48346 | pgbench_branches |          2990080

 2017-02-09 10:30:27.62477+01 | 1486632627.62477 | pgbench_accounts |       4101922816
 2017-02-09 10:30:27.62477+01 | 1486632627.62477 | pgbench_tellers  |          4268032
 2017-02-09 10:30:27.62477+01 | 1486632627.62477 | pgbench_history  |         11362304
 2017-02-09 10:30:27.62477+01 | 1486632627.62477 | pgbench_branches |          2990080

 2017-02-09 10:30:28.799469+01 | 1486632628.79947 | pgbench_accounts |       4101922816
 2017-02-09 10:30:28.799469+01 | 1486632628.79947 | pgbench_tellers  |          4268032
 2017-02-09 10:30:28.799469+01 | 1486632628.79947 | pgbench_history  |         11870208
 2017-02-09 10:30:28.799469+01 | 1486632628.79947 | pgbench_branches |          2990080

 2017-02-09 10:30:29.927918+01 | 1486632629.92792 | pgbench_accounts |       4101922816
 2017-02-09 10:30:29.927918+01 | 1486632629.92792 | pgbench_tellers  |          4268032
 2017-02-09 10:30:29.927918+01 | 1486632629.92792 | pgbench_history  |         12378112
 2017-02-09 10:30:29.927918+01 | 1486632629.92792 | pgbench_branches |          2990080

 2017-02-09 10:30:31.043621+01 | 1486632631.04362 | pgbench_accounts |       4101922816
 2017-02-09 10:30:31.043621+01 | 1486632631.04362 | pgbench_tellers  |          4268032
 2017-02-09 10:30:31.043621+01 | 1486632631.04362 | pgbench_history  |         12836864
 2017-02-09 10:30:31.043621+01 | 1486632631.04362 | pgbench_branches |          2990080

 2017-02-09 10:30:32.162818+01 | 1486632632.16282 | pgbench_accounts |       4101922816
 2017-02-09 10:30:32.162818+01 | 1486632632.16282 | pgbench_tellers  |          4268032
 2017-02-09 10:30:32.162818+01 | 1486632632.16282 | pgbench_history  |         13344768
 2017-02-09 10:30:32.162818+01 | 1486632632.16282 | pgbench_branches |          2990080

 2017-02-09 10:30:33.313301+01 | 1486632633.3133 | pgbench_accounts |       4101922816
 2017-02-09 10:30:33.313301+01 | 1486632633.3133 | pgbench_tellers  |          4268032
 2017-02-09 10:30:33.313301+01 | 1486632633.3133 | pgbench_history  |         13836288
 2017-02-09 10:30:33.313301+01 | 1486632633.3133 | pgbench_branches |          2990080

 2017-02-09 10:30:34.437556+01 | 1486632634.43756 | pgbench_accounts |       4101922816
 2017-02-09 10:30:34.437556+01 | 1486632634.43756 | pgbench_tellers  |          4268032
 2017-02-09 10:30:34.437556+01 | 1486632634.43756 | pgbench_history  |         14336000
 2017-02-09 10:30:34.437556+01 | 1486632634.43756 | pgbench_branches |          2990080

 2017-02-09 10:30:35.536418+01 | 1486632635.53642 | pgbench_accounts |       4101922816
 2017-02-09 10:30:35.536418+01 | 1486632635.53642 | pgbench_tellers  |          4268032
 2017-02-09 10:30:35.536418+01 | 1486632635.53642 | pgbench_history  |         15466496
 2017-02-09 10:30:35.536418+01 | 1486632635.53642 | pgbench_branches |          2990080

 2017-02-09 10:30:36.637135+01 | 1486632636.63714 | pgbench_accounts |       4101922816
 2017-02-09 10:30:36.637135+01 | 1486632636.63714 | pgbench_tellers  |          4268032
 2017-02-09 10:30:36.637135+01 | 1486632636.63714 | pgbench_history  |         15466496
 2017-02-09 10:30:36.637135+01 | 1486632636.63714 | pgbench_branches |          2990080

 2017-02-09 10:30:37.780653+01 | 1486632637.78065 | pgbench_accounts |       4101922816
 2017-02-09 10:30:37.780653+01 | 1486632637.78065 | pgbench_tellers  |          4268032
 2017-02-09 10:30:37.780653+01 | 1486632637.78065 | pgbench_history  |         15851520
 2017-02-09 10:30:37.780653+01 | 1486632637.78065 | pgbench_branches |          2990080

 2017-02-09 10:30:38.903409+01 | 1486632638.90341 | pgbench_accounts |       4101922816
 2017-02-09 10:30:38.903409+01 | 1486632638.90341 | pgbench_tellers  |          4268032
 2017-02-09 10:30:38.903409+01 | 1486632638.90341 | pgbench_history  |         16392192
 2017-02-09 10:30:38.903409+01 | 1486632638.90341 | pgbench_branches |          2990080

 2017-02-09 10:30:40.083461+01 | 1486632640.08346 | pgbench_accounts |       4101922816
 2017-02-09 10:30:40.083461+01 | 1486632640.08346 | pgbench_tellers  |          4268032
 2017-02-09 10:30:40.083461+01 | 1486632640.08346 | pgbench_history  |         16965632
 2017-02-09 10:30:40.083461+01 | 1486632640.08346 | pgbench_branches |          2990080

 2017-02-09 10:30:41.248301+01 | 1486632641.2483 | pgbench_accounts |       4101922816
 2017-02-09 10:30:41.248301+01 | 1486632641.2483 | pgbench_tellers  |          4268032
 2017-02-09 10:30:41.248301+01 | 1486632641.2483 | pgbench_history  |         17342464
 2017-02-09 10:30:41.248301+01 | 1486632641.2483 | pgbench_branches |          2990080

 2017-02-09 10:30:42.363353+01 | 1486632642.36335 | pgbench_accounts |       4101922816
 2017-02-09 10:30:42.363353+01 | 1486632642.36335 | pgbench_tellers  |          4268032
 2017-02-09 10:30:42.363353+01 | 1486632642.36335 | pgbench_history  |         18046976
 2017-02-09 10:30:42.363353+01 | 1486632642.36335 | pgbench_branches |          2990080

 2017-02-09 10:30:43.518588+01 | 1486632643.51859 | pgbench_accounts |       4101922816
 2017-02-09 10:30:43.518588+01 | 1486632643.51859 | pgbench_tellers  |          4268032
 2017-02-09 10:30:43.518588+01 | 1486632643.51859 | pgbench_history  |         18268160
 2017-02-09 10:30:43.518588+01 | 1486632643.51859 | pgbench_branches |          2990080

 2017-02-09 10:30:44.667288+01 | 1486632644.66729 | pgbench_accounts |       4101922816
 2017-02-09 10:30:44.667288+01 | 1486632644.66729 | pgbench_tellers  |          4268032
 2017-02-09 10:30:44.667288+01 | 1486632644.66729 | pgbench_history  |         18743296
 2017-02-09 10:30:44.667288+01 | 1486632644.66729 | pgbench_branches |          2990080

 2017-02-09 10:30:45.792251+01 | 1486632645.79225 | pgbench_accounts |       4101922816
 2017-02-09 10:30:45.792251+01 | 1486632645.79225 | pgbench_tellers  |          4268032
 2017-02-09 10:30:45.792251+01 | 1486632645.79225 | pgbench_history  |         19283968
 2017-02-09 10:30:45.792251+01 | 1486632645.79225 | pgbench_branches |          2990080

 2017-02-09 10:30:46.933705+01 | 1486632646.93371 | pgbench_accounts |       4101922816
 2017-02-09 10:30:46.933705+01 | 1486632646.93371 | pgbench_tellers  |          4268032
 2017-02-09 10:30:46.933705+01 | 1486632646.93371 | pgbench_history  |         19849216
 2017-02-09 10:30:46.933705+01 | 1486632646.93371 | pgbench_branches |          2990080

 2017-02-09 10:30:48.026389+01 | 1486632648.02639 | pgbench_accounts |       4101922816
 2017-02-09 10:30:48.026389+01 | 1486632648.02639 | pgbench_tellers  |          4268032
 2017-02-09 10:30:48.026389+01 | 1486632648.02639 | pgbench_history  |         20070400
 2017-02-09 10:30:48.026389+01 | 1486632648.02639 | pgbench_branches |          2990080

 2017-02-09 10:30:49.11806+01 | 1486632649.11806 | pgbench_accounts |       4101922816
 2017-02-09 10:30:49.11806+01 | 1486632649.11806 | pgbench_tellers  |          4268032
 2017-02-09 10:30:49.11806+01 | 1486632649.11806 | pgbench_history  |         20709376
 2017-02-09 10:30:49.11806+01 | 1486632649.11806 | pgbench_branches |          2990080

 2017-02-09 10:30:50.25631+01 | 1486632650.25631 | pgbench_accounts |       4101922816
 2017-02-09 10:30:50.25631+01 | 1486632650.25631 | pgbench_tellers  |          4268032
 2017-02-09 10:30:50.25631+01 | 1486632650.25631 | pgbench_history  |         21004288
 2017-02-09 10:30:50.25631+01 | 1486632650.25631 | pgbench_branches |          2990080

 2017-02-09 10:30:51.395761+01 | 1486632651.39576 | pgbench_accounts |       4101922816
 2017-02-09 10:30:51.395761+01 | 1486632651.39576 | pgbench_tellers  |          4268032
 2017-02-09 10:30:51.395761+01 | 1486632651.39576 | pgbench_history  |         21897216
 2017-02-09 10:30:51.395761+01 | 1486632651.39576 | pgbench_branches |          2990080

 2017-02-09 10:30:52.568857+01 | 1486632652.56886 | pgbench_accounts |       4101922816
 2017-02-09 10:30:52.568857+01 | 1486632652.56886 | pgbench_tellers  |          4268032
 2017-02-09 10:30:52.568857+01 | 1486632652.56886 | pgbench_history  |         22175744
 2017-02-09 10:30:52.568857+01 | 1486632652.56886 | pgbench_branches |          2990080

 2017-02-09 10:30:53.737869+01 | 1486632653.73787 | pgbench_accounts |       4101922816
 2017-02-09 10:30:53.737869+01 | 1486632653.73787 | pgbench_tellers  |          4268032
 2017-02-09 10:30:53.737869+01 | 1486632653.73787 | pgbench_history  |         22568960
 2017-02-09 10:30:53.737869+01 | 1486632653.73787 | pgbench_branches |          2990080

 2017-02-09 10:30:54.821658+01 | 1486632654.82166 | pgbench_accounts |       4101922816
 2017-02-09 10:30:54.821658+01 | 1486632654.82166 | pgbench_tellers  |          4268032
 2017-02-09 10:30:54.821658+01 | 1486632654.82166 | pgbench_history  |         23060480
 2017-02-09 10:30:54.821658+01 | 1486632654.82166 | pgbench_branches |          2990080

 2017-02-09 10:30:55.938176+01 | 1486632655.93818 | pgbench_accounts |       4101922816
 2017-02-09 10:30:55.938176+01 | 1486632655.93818 | pgbench_tellers  |          4268032
 2017-02-09 10:30:55.938176+01 | 1486632655.93818 | pgbench_history  |         23461888
 2017-02-09 10:30:55.938176+01 | 1486632655.93818 | pgbench_branches |          2990080

 2017-02-09 10:30:57.054825+01 | 1486632657.05483 | pgbench_accounts |       4101922816
 2017-02-09 10:30:57.054825+01 | 1486632657.05483 | pgbench_tellers  |          4268032
 2017-02-09 10:30:57.054825+01 | 1486632657.05483 | pgbench_history  |         23977984
 2017-02-09 10:30:57.054825+01 | 1486632657.05483 | pgbench_branches |          2990080

 2017-02-09 10:30:58.185955+01 | 1486632658.18596 | pgbench_accounts |       4101922816
 2017-02-09 10:30:58.185955+01 | 1486632658.18596 | pgbench_tellers  |          4268032
 2017-02-09 10:30:58.185955+01 | 1486632658.18596 | pgbench_history  |         24444928
 2017-02-09 10:30:58.185955+01 | 1486632658.18596 | pgbench_branches |          2990080

 2017-02-09 10:30:59.316473+01 | 1486632659.31647 | pgbench_accounts |       4101922816
 2017-02-09 10:30:59.316473+01 | 1486632659.31647 | pgbench_tellers  |          4268032
 2017-02-09 10:30:59.316473+01 | 1486632659.31647 | pgbench_history  |         24936448
 2017-02-09 10:30:59.316473+01 | 1486632659.31647 | pgbench_branches |          2990080

 2017-02-09 10:31:00.510018+01 | 1486632660.51002 | pgbench_accounts |       4101922816
 2017-02-09 10:31:00.510018+01 | 1486632660.51002 | pgbench_tellers  |          4268032
 2017-02-09 10:31:00.510018+01 | 1486632660.51002 | pgbench_history  |         25468928
 2017-02-09 10:31:00.510018+01 | 1486632660.51002 | pgbench_branches |          2990080

 2017-02-09 10:31:01.659213+01 | 1486632661.65921 | pgbench_accounts |       4101922816
 2017-02-09 10:31:01.659213+01 | 1486632661.65921 | pgbench_tellers  |          4268032
 2017-02-09 10:31:01.659213+01 | 1486632661.65921 | pgbench_history  |         25952256
 2017-02-09 10:31:01.659213+01 | 1486632661.65921 | pgbench_branches |          2990080

 2017-02-09 10:31:02.804075+01 | 1486632662.80408 | pgbench_accounts |       4101922816
 2017-02-09 10:31:02.804075+01 | 1486632662.80408 | pgbench_tellers  |          4268032
 2017-02-09 10:31:02.804075+01 | 1486632662.80408 | pgbench_history  |         26451968
 2017-02-09 10:31:02.804075+01 | 1486632662.80408 | pgbench_branches |          2990080

 2017-02-09 10:31:03.978357+01 | 1486632663.97836 | pgbench_accounts |       4101922816
 2017-02-09 10:31:03.978357+01 | 1486632663.97836 | pgbench_tellers  |          4268032
 2017-02-09 10:31:03.978357+01 | 1486632663.97836 | pgbench_history  |         26959872
 2017-02-09 10:31:03.978357+01 | 1486632663.97836 | pgbench_branches |          2990080

 2017-02-09 10:31:05.090377+01 | 1486632665.09038 | pgbench_accounts |       4101922816
 2017-02-09 10:31:05.090377+01 | 1486632665.09038 | pgbench_tellers  |          4268032
 2017-02-09 10:31:05.090377+01 | 1486632665.09038 | pgbench_history  |         27443200
 2017-02-09 10:31:05.090377+01 | 1486632665.09038 | pgbench_branches |          2990080

 2017-02-09 10:31:06.226589+01 | 1486632666.22659 | pgbench_accounts |       4101922816
 2017-02-09 10:31:06.226589+01 | 1486632666.22659 | pgbench_tellers  |          4268032
 2017-02-09 10:31:06.226589+01 | 1486632666.22659 | pgbench_history  |         27918336
 2017-02-09 10:31:06.226589+01 | 1486632666.22659 | pgbench_branches |          2990080

 2017-02-09 10:31:07.41036+01 | 1486632667.41036 | pgbench_accounts |       4101922816
 2017-02-09 10:31:07.41036+01 | 1486632667.41036 | pgbench_tellers  |          4268032
 2017-02-09 10:31:07.41036+01 | 1486632667.41036 | pgbench_history  |         28442624
 2017-02-09 10:31:07.41036+01 | 1486632667.41036 | pgbench_branches |          2990080

 2017-02-09 10:31:08.565681+01 | 1486632668.56568 | pgbench_accounts |       4101922816
 2017-02-09 10:31:08.565681+01 | 1486632668.56568 | pgbench_tellers  |          4268032
 2017-02-09 10:31:08.565681+01 | 1486632668.56568 | pgbench_history  |         28934144
 2017-02-09 10:31:08.565681+01 | 1486632668.56568 | pgbench_branches |          2990080

 2017-02-09 10:31:09.687205+01 | 1486632669.68721 | pgbench_accounts |       4101922816
 2017-02-09 10:31:09.687205+01 | 1486632669.68721 | pgbench_tellers  |          4268032
 2017-02-09 10:31:09.687205+01 | 1486632669.68721 | pgbench_history  |         29433856
 2017-02-09 10:31:09.687205+01 | 1486632669.68721 | pgbench_branches |          2990080

 2017-02-09 10:31:10.777517+01 | 1486632670.77752 | pgbench_accounts |       4101922816
 2017-02-09 10:31:10.777517+01 | 1486632670.77752 | pgbench_tellers  |          4268032
 2017-02-09 10:31:10.777517+01 | 1486632670.77752 | pgbench_history  |         29908992
 2017-02-09 10:31:10.777517+01 | 1486632670.77752 | pgbench_branches |          2990080

 2017-02-09 10:31:11.870297+01 | 1486632671.8703 | pgbench_accounts |       4101922816
 2017-02-09 10:31:11.870297+01 | 1486632671.8703 | pgbench_tellers  |          4268032
 2017-02-09 10:31:11.870297+01 | 1486632671.8703 | pgbench_history  |         30384128
 2017-02-09 10:31:11.870297+01 | 1486632671.8703 | pgbench_branches |          2990080

 2017-02-09 10:31:12.974628+01 | 1486632672.97463 | pgbench_accounts |       4101922816
 2017-02-09 10:31:12.974628+01 | 1486632672.97463 | pgbench_tellers  |          4268032
 2017-02-09 10:31:12.974628+01 | 1486632672.97463 | pgbench_history  |         30842880
 2017-02-09 10:31:12.974628+01 | 1486632672.97463 | pgbench_branches |          2990080

 2017-02-09 10:31:14.140474+01 | 1486632674.14047 | pgbench_accounts |       4101922816
 2017-02-09 10:31:14.140474+01 | 1486632674.14047 | pgbench_tellers  |          4268032
 2017-02-09 10:31:14.140474+01 | 1486632674.14047 | pgbench_history  |         31358976
 2017-02-09 10:31:14.140474+01 | 1486632674.14047 | pgbench_branches |          2990080

 2017-02-09 10:31:15.278595+01 | 1486632675.27859 | pgbench_accounts |       4101922816
 2017-02-09 10:31:15.278595+01 | 1486632675.27859 | pgbench_tellers  |          4268032
 2017-02-09 10:31:15.278595+01 | 1486632675.27859 | pgbench_history  |         31858688
 2017-02-09 10:31:15.278595+01 | 1486632675.27859 | pgbench_branches |          2990080

 2017-02-09 10:31:16.452268+01 | 1486632676.45227 | pgbench_accounts |       4101922816
 2017-02-09 10:31:16.452268+01 | 1486632676.45227 | pgbench_tellers  |          4268032
 2017-02-09 10:31:16.452268+01 | 1486632676.45227 | pgbench_history  |         32374784
 2017-02-09 10:31:16.452268+01 | 1486632676.45227 | pgbench_branches |          2990080

 2017-02-09 10:31:17.628584+01 | 1486632677.62858 | pgbench_accounts |       4101922816
 2017-02-09 10:31:17.628584+01 | 1486632677.62858 | pgbench_tellers  |          4268032
 2017-02-09 10:31:17.628584+01 | 1486632677.62858 | pgbench_history  |         32899072
 2017-02-09 10:31:17.628584+01 | 1486632677.62858 | pgbench_branches |          2990080

 2017-02-09 10:31:18.737305+01 | 1486632678.7373 | pgbench_accounts |       4101922816
 2017-02-09 10:31:18.737305+01 | 1486632678.7373 | pgbench_tellers  |          4268032
 2017-02-09 10:31:18.737305+01 | 1486632678.7373 | pgbench_history  |         33341440
 2017-02-09 10:31:18.737305+01 | 1486632678.7373 | pgbench_branches |          2990080

 2017-02-09 10:31:19.887607+01 | 1486632679.88761 | pgbench_accounts |       4101922816
 2017-02-09 10:31:19.887607+01 | 1486632679.88761 | pgbench_tellers  |          4268032
 2017-02-09 10:31:19.887607+01 | 1486632679.88761 | pgbench_history  |         33865728
 2017-02-09 10:31:19.887607+01 | 1486632679.88761 | pgbench_branches |          2990080

 2017-02-09 10:31:21.088281+01 | 1486632681.08828 | pgbench_accounts |       4101922816
 2017-02-09 10:31:21.088281+01 | 1486632681.08828 | pgbench_tellers  |          4268032
 2017-02-09 10:31:21.088281+01 | 1486632681.08828 | pgbench_history  |         34398208
 2017-02-09 10:31:21.088281+01 | 1486632681.08828 | pgbench_branches |          2990080

 2017-02-09 10:31:22.232457+01 | 1486632682.23246 | pgbench_accounts |       4101922816
 2017-02-09 10:31:22.232457+01 | 1486632682.23246 | pgbench_tellers  |          4268032
 2017-02-09 10:31:22.232457+01 | 1486632682.23246 | pgbench_history  |         34906112
 2017-02-09 10:31:22.232457+01 | 1486632682.23246 | pgbench_branches |          2990080

 2017-02-09 10:31:23.438157+01 | 1486632683.43816 | pgbench_accounts |       4101922816
 2017-02-09 10:31:23.438157+01 | 1486632683.43816 | pgbench_tellers  |          4268032
 2017-02-09 10:31:23.438157+01 | 1486632683.43816 | pgbench_history  |         35422208
 2017-02-09 10:31:23.438157+01 | 1486632683.43816 | pgbench_branches |          2990080

 2017-02-09 10:31:24.549689+01 | 1486632684.54969 | pgbench_accounts |       4101922816
 2017-02-09 10:31:24.549689+01 | 1486632684.54969 | pgbench_tellers  |          4268032
 2017-02-09 10:31:24.549689+01 | 1486632684.54969 | pgbench_history  |         35872768
 2017-02-09 10:31:24.549689+01 | 1486632684.54969 | pgbench_branches |          2990080

 2017-02-09 10:31:25.712799+01 | 1486632685.7128 | pgbench_accounts |       4101922816
 2017-02-09 10:31:25.712799+01 | 1486632685.7128 | pgbench_tellers  |          4268032
 2017-02-09 10:31:25.712799+01 | 1486632685.7128 | pgbench_history  |         36380672
 2017-02-09 10:31:25.712799+01 | 1486632685.7128 | pgbench_branches |          2990080

 2017-02-09 10:31:26.848+01 | 1486632686.848 | pgbench_accounts |       4101922816
 2017-02-09 10:31:26.848+01 | 1486632686.848 | pgbench_tellers  |          4268032
 2017-02-09 10:31:26.848+01 | 1486632686.848 | pgbench_history  |         36839424
 2017-02-09 10:31:26.848+01 | 1486632686.848 | pgbench_branches |          2990080

 2017-02-09 10:31:27.991663+01 | 1486632687.99166 | pgbench_accounts |       4101922816
 2017-02-09 10:31:27.991663+01 | 1486632687.99166 | pgbench_tellers  |          4268032
 2017-02-09 10:31:27.991663+01 | 1486632687.99166 | pgbench_history  |         38780928
 2017-02-09 10:31:27.991663+01 | 1486632687.99166 | pgbench_branches |          2990080

 2017-02-09 10:31:29.080895+01 | 1486632689.08089 | pgbench_accounts |       4101922816
 2017-02-09 10:31:29.080895+01 | 1486632689.08089 | pgbench_tellers  |          4268032
 2017-02-09 10:31:29.080895+01 | 1486632689.08089 | pgbench_history  |         38780928
 2017-02-09 10:31:29.080895+01 | 1486632689.08089 | pgbench_branches |          2990080

 2017-02-09 10:31:30.202655+01 | 1486632690.20266 | pgbench_accounts |       4101922816
 2017-02-09 10:31:30.202655+01 | 1486632690.20266 | pgbench_tellers  |          4268032
 2017-02-09 10:31:30.202655+01 | 1486632690.20266 | pgbench_history  |         38780928
 2017-02-09 10:31:30.202655+01 | 1486632690.20266 | pgbench_branches |          2990080

 2017-02-09 10:31:31.312497+01 | 1486632691.3125 | pgbench_accounts |       4101922816
 2017-02-09 10:31:31.312497+01 | 1486632691.3125 | pgbench_tellers  |          4268032
 2017-02-09 10:31:31.312497+01 | 1486632691.3125 | pgbench_history  |         38780928
 2017-02-09 10:31:31.312497+01 | 1486632691.3125 | pgbench_branches |          2990080

 2017-02-09 10:31:32.474286+01 | 1486632692.47429 | pgbench_accounts |       4101922816
 2017-02-09 10:31:32.474286+01 | 1486632692.47429 | pgbench_tellers  |          4268032
 2017-02-09 10:31:32.474286+01 | 1486632692.47429 | pgbench_history  |         39305216
 2017-02-09 10:31:32.474286+01 | 1486632692.47429 | pgbench_branches |          2990080

 2017-02-09 10:31:33.636076+01 | 1486632693.63608 | pgbench_accounts |       4101922816
 2017-02-09 10:31:33.636076+01 | 1486632693.63608 | pgbench_tellers  |          4268032
 2017-02-09 10:31:33.636076+01 | 1486632693.63608 | pgbench_history  |         39813120
 2017-02-09 10:31:33.636076+01 | 1486632693.63608 | pgbench_branches |          2990080

 2017-02-09 10:31:34.760121+01 | 1486632694.76012 | pgbench_accounts |       4101922816
 2017-02-09 10:31:34.760121+01 | 1486632694.76012 | pgbench_tellers  |          4268032
 2017-02-09 10:31:34.760121+01 | 1486632694.76012 | pgbench_history  |         40329216
 2017-02-09 10:31:34.760121+01 | 1486632694.76012 | pgbench_branches |          2990080

 2017-02-09 10:31:35.904349+01 | 1486632695.90435 | pgbench_accounts |       4101922816
 2017-02-09 10:31:35.904349+01 | 1486632695.90435 | pgbench_tellers  |          4268032
 2017-02-09 10:31:35.904349+01 | 1486632695.90435 | pgbench_history  |         40820736
 2017-02-09 10:31:35.904349+01 | 1486632695.90435 | pgbench_branches |          2990080

 2017-02-09 10:31:37.028682+01 | 1486632697.02868 | pgbench_accounts |       4101922816
 2017-02-09 10:31:37.028682+01 | 1486632697.02868 | pgbench_tellers  |          4268032
 2017-02-09 10:31:37.028682+01 | 1486632697.02868 | pgbench_history  |         41263104
 2017-02-09 10:31:37.028682+01 | 1486632697.02868 | pgbench_branches |          2990080

 2017-02-09 10:31:38.107819+01 | 1486632698.10782 | pgbench_accounts |       4101922816
 2017-02-09 10:31:38.107819+01 | 1486632698.10782 | pgbench_tellers  |          4268032
 2017-02-09 10:31:38.107819+01 | 1486632698.10782 | pgbench_history  |         41746432
 2017-02-09 10:31:38.107819+01 | 1486632698.10782 | pgbench_branches |          2990080

 2017-02-09 10:31:39.24024+01 | 1486632699.24024 | pgbench_accounts |       4101922816
 2017-02-09 10:31:39.24024+01 | 1486632699.24024 | pgbench_tellers  |          4268032
 2017-02-09 10:31:39.24024+01 | 1486632699.24024 | pgbench_history  |         42532864
 2017-02-09 10:31:39.24024+01 | 1486632699.24024 | pgbench_branches |          2990080

 2017-02-09 10:31:40.414223+01 | 1486632700.41422 | pgbench_accounts |       4101922816
 2017-02-09 10:31:40.414223+01 | 1486632700.41422 | pgbench_tellers  |          4268032
 2017-02-09 10:31:40.414223+01 | 1486632700.41422 | pgbench_history  |         43122688
 2017-02-09 10:31:40.414223+01 | 1486632700.41422 | pgbench_branches |          2990080

 2017-02-09 10:31:41.518588+01 | 1486632701.51859 | pgbench_accounts |       4101922816
 2017-02-09 10:31:41.518588+01 | 1486632701.51859 | pgbench_tellers  |          4268032
 2017-02-09 10:31:41.518588+01 | 1486632701.51859 | pgbench_history  |         43122688
 2017-02-09 10:31:41.518588+01 | 1486632701.51859 | pgbench_branches |          2990080

 2017-02-09 10:31:42.681698+01 | 1486632702.6817 | pgbench_accounts |       4101922816
 2017-02-09 10:31:42.681698+01 | 1486632702.6817 | pgbench_tellers  |          4268032
 2017-02-09 10:31:42.681698+01 | 1486632702.6817 | pgbench_history  |         43646976
 2017-02-09 10:31:42.681698+01 | 1486632702.6817 | pgbench_branches |          2990080

 2017-02-09 10:31:43.80434+01 | 1486632703.80434 | pgbench_accounts |       4101922816
 2017-02-09 10:31:43.80434+01 | 1486632703.80434 | pgbench_tellers  |          4268032
 2017-02-09 10:31:43.80434+01 | 1486632703.80434 | pgbench_history  |         44957696
 2017-02-09 10:31:43.80434+01 | 1486632703.80434 | pgbench_branches |          2990080

 2017-02-09 10:31:44.913908+01 | 1486632704.91391 | pgbench_accounts |       4101922816
 2017-02-09 10:31:44.913908+01 | 1486632704.91391 | pgbench_tellers  |          4268032
 2017-02-09 10:31:44.913908+01 | 1486632704.91391 | pgbench_history  |         44957696
 2017-02-09 10:31:44.913908+01 | 1486632704.91391 | pgbench_branches |          2990080

 2017-02-09 10:31:46.051058+01 | 1486632706.05106 | pgbench_accounts |       4101922816
 2017-02-09 10:31:46.051058+01 | 1486632706.05106 | pgbench_tellers  |          4268032
 2017-02-09 10:31:46.051058+01 | 1486632706.05106 | pgbench_history  |         45367296
 2017-02-09 10:31:46.051058+01 | 1486632706.05106 | pgbench_branches |          2990080

 2017-02-09 10:31:47.205863+01 | 1486632707.20586 | pgbench_accounts |       4101922816
 2017-02-09 10:31:47.205863+01 | 1486632707.20586 | pgbench_tellers  |          4268032
 2017-02-09 10:31:47.205863+01 | 1486632707.20586 | pgbench_history  |         45801472
 2017-02-09 10:31:47.205863+01 | 1486632707.20586 | pgbench_branches |          2990080

 2017-02-09 10:31:48.321189+01 | 1486632708.32119 | pgbench_accounts |       4101922816
 2017-02-09 10:31:48.321189+01 | 1486632708.32119 | pgbench_tellers  |          4268032
 2017-02-09 10:31:48.321189+01 | 1486632708.32119 | pgbench_history  |         46276608
 2017-02-09 10:31:48.321189+01 | 1486632708.32119 | pgbench_branches |          2990080

 2017-02-09 10:31:49.5208+01 | 1486632709.5208 | pgbench_accounts |       4101922816
 2017-02-09 10:31:49.5208+01 | 1486632709.5208 | pgbench_tellers  |          4268032
 2017-02-09 10:31:49.5208+01 | 1486632709.5208 | pgbench_history  |         47030272
 2017-02-09 10:31:49.5208+01 | 1486632709.5208 | pgbench_branches |          2990080

 2017-02-09 10:31:50.663335+01 | 1486632710.66334 | pgbench_accounts |       4101922816
 2017-02-09 10:31:50.663335+01 | 1486632710.66334 | pgbench_tellers  |          4268032
 2017-02-09 10:31:50.663335+01 | 1486632710.66334 | pgbench_history  |         47169536
 2017-02-09 10:31:50.663335+01 | 1486632710.66334 | pgbench_branches |          2990080

 2017-02-09 10:31:51.768032+01 | 1486632711.76803 | pgbench_accounts |       4101922816
 2017-02-09 10:31:51.768032+01 | 1486632711.76803 | pgbench_tellers  |          4268032
 2017-02-09 10:31:51.768032+01 | 1486632711.76803 | pgbench_history  |         47685632
 2017-02-09 10:31:51.768032+01 | 1486632711.76803 | pgbench_branches |          2990080

 2017-02-09 10:31:52.937369+01 | 1486632712.93737 | pgbench_accounts |       4101922816
 2017-02-09 10:31:52.937369+01 | 1486632712.93737 | pgbench_tellers  |          4268032
 2017-02-09 10:31:52.937369+01 | 1486632712.93737 | pgbench_history  |         48201728
 2017-02-09 10:31:52.937369+01 | 1486632712.93737 | pgbench_branches |          2990080

 2017-02-09 10:31:54.094761+01 | 1486632714.09476 | pgbench_accounts |       4101922816
 2017-02-09 10:31:54.094761+01 | 1486632714.09476 | pgbench_tellers  |          4268032
 2017-02-09 10:31:54.094761+01 | 1486632714.09476 | pgbench_history  |         48709632
 2017-02-09 10:31:54.094761+01 | 1486632714.09476 | pgbench_branches |          2990080

 2017-02-09 10:31:55.233758+01 | 1486632715.23376 | pgbench_accounts |       4101922816
 2017-02-09 10:31:55.233758+01 | 1486632715.23376 | pgbench_tellers  |          4268032
 2017-02-09 10:31:55.233758+01 | 1486632715.23376 | pgbench_history  |         49225728
 2017-02-09 10:31:55.233758+01 | 1486632715.23376 | pgbench_branches |          2990080

 2017-02-09 10:31:56.364647+01 | 1486632716.36465 | pgbench_accounts |       4101922816
 2017-02-09 10:31:56.364647+01 | 1486632716.36465 | pgbench_tellers  |          4268032
 2017-02-09 10:31:56.364647+01 | 1486632716.36465 | pgbench_history  |         49725440
 2017-02-09 10:31:56.364647+01 | 1486632716.36465 | pgbench_branches |          2990080

 2017-02-09 10:31:57.49677+01 | 1486632717.49677 | pgbench_accounts |       4101922816
 2017-02-09 10:31:57.49677+01 | 1486632717.49677 | pgbench_tellers  |          4268032
 2017-02-09 10:31:57.49677+01 | 1486632717.49677 | pgbench_history  |         50159616
 2017-02-09 10:31:57.49677+01 | 1486632717.49677 | pgbench_branches |          2990080

 2017-02-09 10:31:58.599018+01 | 1486632718.59902 | pgbench_accounts |       4101922816
 2017-02-09 10:31:58.599018+01 | 1486632718.59902 | pgbench_tellers  |          4268032
 2017-02-09 10:31:58.599018+01 | 1486632718.59902 | pgbench_history  |         50667520
 2017-02-09 10:31:58.599018+01 | 1486632718.59902 | pgbench_branches |          2990080

 2017-02-09 10:31:59.747756+01 | 1486632719.74776 | pgbench_accounts |       4101922816
 2017-02-09 10:31:59.747756+01 | 1486632719.74776 | pgbench_tellers  |          4268032
 2017-02-09 10:31:59.747756+01 | 1486632719.74776 | pgbench_history  |         51175424
 2017-02-09 10:31:59.747756+01 | 1486632719.74776 | pgbench_branches |          2990080

 2017-02-09 10:32:00.878476+01 | 1486632720.87848 | pgbench_accounts |       4101922816
 2017-02-09 10:32:00.878476+01 | 1486632720.87848 | pgbench_tellers  |          4268032
 2017-02-09 10:32:00.878476+01 | 1486632720.87848 | pgbench_history  |         51666944
 2017-02-09 10:32:00.878476+01 | 1486632720.87848 | pgbench_branches |          2990080

 2017-02-09 10:32:02.048691+01 | 1486632722.04869 | pgbench_accounts |       4101922816
 2017-02-09 10:32:02.048691+01 | 1486632722.04869 | pgbench_tellers  |          4268032
 2017-02-09 10:32:02.048691+01 | 1486632722.04869 | pgbench_history  |         52191232
 2017-02-09 10:32:02.048691+01 | 1486632722.04869 | pgbench_branches |          2990080

 2017-02-09 10:32:03.163625+01 | 1486632723.16363 | pgbench_accounts |       4101922816
 2017-02-09 10:32:03.163625+01 | 1486632723.16363 | pgbench_tellers  |          4268032
 2017-02-09 10:32:03.163625+01 | 1486632723.16363 | pgbench_history  |         52658176
 2017-02-09 10:32:03.163625+01 | 1486632723.16363 | pgbench_branches |          2990080

 2017-02-09 10:32:04.285639+01 | 1486632724.28564 | pgbench_accounts |       4101922816
 2017-02-09 10:32:04.285639+01 | 1486632724.28564 | pgbench_tellers  |          4268032
 2017-02-09 10:32:04.285639+01 | 1486632724.28564 | pgbench_history  |         53166080
 2017-02-09 10:32:04.285639+01 | 1486632724.28564 | pgbench_branches |          2990080

 2017-02-09 10:32:05.431667+01 | 1486632725.43167 | pgbench_accounts |       4101922816
 2017-02-09 10:32:05.431667+01 | 1486632725.43167 | pgbench_tellers  |          4268032
 2017-02-09 10:32:05.431667+01 | 1486632725.43167 | pgbench_history  |         53665792
 2017-02-09 10:32:05.431667+01 | 1486632725.43167 | pgbench_branches |          2990080

 2017-02-09 10:32:06.600269+01 | 1486632726.60027 | pgbench_accounts |       4101922816
 2017-02-09 10:32:06.600269+01 | 1486632726.60027 | pgbench_tellers  |          4268032
 2017-02-09 10:32:06.600269+01 | 1486632726.60027 | pgbench_history  |         54190080
 2017-02-09 10:32:06.600269+01 | 1486632726.60027 | pgbench_branches |          2990080

 2017-02-09 10:32:07.716409+01 | 1486632727.71641 | pgbench_accounts |       4101922816
 2017-02-09 10:32:07.716409+01 | 1486632727.71641 | pgbench_tellers  |          4268032
 2017-02-09 10:32:07.716409+01 | 1486632727.71641 | pgbench_history  |         54689792
 2017-02-09 10:32:07.716409+01 | 1486632727.71641 | pgbench_branches |          2990080

 2017-02-09 10:32:08.881699+01 | 1486632728.8817 | pgbench_accounts |       4101922816
 2017-02-09 10:32:08.881699+01 | 1486632728.8817 | pgbench_tellers  |          4268032
 2017-02-09 10:32:08.881699+01 | 1486632728.8817 | pgbench_history  |         55181312
 2017-02-09 10:32:08.881699+01 | 1486632728.8817 | pgbench_branches |          2990080

 2017-02-09 10:32:10.022648+01 | 1486632730.02265 | pgbench_accounts |       4101922816
 2017-02-09 10:32:10.022648+01 | 1486632730.02265 | pgbench_tellers  |          4268032
 2017-02-09 10:32:10.022648+01 | 1486632730.02265 | pgbench_history  |         55681024
 2017-02-09 10:32:10.022648+01 | 1486632730.02265 | pgbench_branches |          2990080

 2017-02-09 10:32:11.15033+01 | 1486632731.15033 | pgbench_accounts |       4101922816
 2017-02-09 10:32:11.15033+01 | 1486632731.15033 | pgbench_tellers  |          4268032
 2017-02-09 10:32:11.15033+01 | 1486632731.15033 | pgbench_history  |         56180736
 2017-02-09 10:32:11.15033+01 | 1486632731.15033 | pgbench_branches |          2990080

 2017-02-09 10:32:12.273552+01 | 1486632732.27355 | pgbench_accounts |       4101922816
 2017-02-09 10:32:12.273552+01 | 1486632732.27355 | pgbench_tellers  |          4268032
 2017-02-09 10:32:12.273552+01 | 1486632732.27355 | pgbench_history  |         56680448
 2017-02-09 10:32:12.273552+01 | 1486632732.27355 | pgbench_branches |          2990080

 2017-02-09 10:32:13.37578+01 | 1486632733.37578 | pgbench_accounts |       4101922816
 2017-02-09 10:32:13.37578+01 | 1486632733.37578 | pgbench_tellers  |          4268032
 2017-02-09 10:32:13.37578+01 | 1486632733.37578 | pgbench_history  |         57171968
 2017-02-09 10:32:13.37578+01 | 1486632733.37578 | pgbench_branches |          2990080

 2017-02-09 10:32:14.447793+01 | 1486632734.44779 | pgbench_accounts |       4101922816
 2017-02-09 10:32:14.447793+01 | 1486632734.44779 | pgbench_tellers  |          4268032
 2017-02-09 10:32:14.447793+01 | 1486632734.44779 | pgbench_history  |         57655296
 2017-02-09 10:32:14.447793+01 | 1486632734.44779 | pgbench_branches |          2990080

 2017-02-09 10:32:15.569938+01 | 1486632735.56994 | pgbench_accounts |       4101922816
 2017-02-09 10:32:15.569938+01 | 1486632735.56994 | pgbench_tellers  |          4268032
 2017-02-09 10:32:15.569938+01 | 1486632735.56994 | pgbench_history  |         58114048
 2017-02-09 10:32:15.569938+01 | 1486632735.56994 | pgbench_branches |          2990080

 2017-02-09 10:32:16.681765+01 | 1486632736.68177 | pgbench_accounts |       4101922816
 2017-02-09 10:32:16.681765+01 | 1486632736.68177 | pgbench_tellers  |          4268032
 2017-02-09 10:32:16.681765+01 | 1486632736.68177 | pgbench_history  |         58638336
 2017-02-09 10:32:16.681765+01 | 1486632736.68177 | pgbench_branches |          2990080

 2017-02-09 10:32:17.822709+01 | 1486632737.82271 | pgbench_accounts |       4101922816
 2017-02-09 10:32:17.822709+01 | 1486632737.82271 | pgbench_tellers  |          4268032
 2017-02-09 10:32:17.822709+01 | 1486632737.82271 | pgbench_history  |         59129856
 2017-02-09 10:32:17.822709+01 | 1486632737.82271 | pgbench_branches |          2990080

 2017-02-09 10:32:18.98421+01 | 1486632738.98421 | pgbench_accounts |       4101922816
 2017-02-09 10:32:18.98421+01 | 1486632738.98421 | pgbench_tellers  |          4268032
 2017-02-09 10:32:18.98421+01 | 1486632738.98421 | pgbench_history  |         59629568
 2017-02-09 10:32:18.98421+01 | 1486632738.98421 | pgbench_branches |          2990080

 2017-02-09 10:32:20.093133+01 | 1486632740.09313 | pgbench_accounts |       4101922816
 2017-02-09 10:32:20.093133+01 | 1486632740.09313 | pgbench_tellers  |          4268032
 2017-02-09 10:32:20.093133+01 | 1486632740.09313 | pgbench_history  |         60096512
 2017-02-09 10:32:20.093133+01 | 1486632740.09313 | pgbench_branches |          2990080

 2017-02-09 10:32:21.188159+01 | 1486632741.18816 | pgbench_accounts |       4101922816
 2017-02-09 10:32:21.188159+01 | 1486632741.18816 | pgbench_tellers  |          4268032
 2017-02-09 10:32:21.188159+01 | 1486632741.18816 | pgbench_history  |         60588032
 2017-02-09 10:32:21.188159+01 | 1486632741.18816 | pgbench_branches |          2990080

 2017-02-09 10:32:22.382168+01 | 1486632742.38217 | pgbench_accounts |       4101922816
 2017-02-09 10:32:22.382168+01 | 1486632742.38217 | pgbench_tellers  |          4268032
 2017-02-09 10:32:22.382168+01 | 1486632742.38217 | pgbench_history  |         61104128
 2017-02-09 10:32:22.382168+01 | 1486632742.38217 | pgbench_branches |          2990080

 2017-02-09 10:32:23.573168+01 | 1486632743.57317 | pgbench_accounts |       4101922816
 2017-02-09 10:32:23.573168+01 | 1486632743.57317 | pgbench_tellers  |          4268032
 2017-02-09 10:32:23.573168+01 | 1486632743.57317 | pgbench_history  |         61652992
 2017-02-09 10:32:23.573168+01 | 1486632743.57317 | pgbench_branches |          2990080

 2017-02-09 10:32:24.765629+01 | 1486632744.76563 | pgbench_accounts |       4101922816
 2017-02-09 10:32:24.765629+01 | 1486632744.76563 | pgbench_tellers  |          4268032
 2017-02-09 10:32:24.765629+01 | 1486632744.76563 | pgbench_history  |         62185472
 2017-02-09 10:32:24.765629+01 | 1486632744.76563 | pgbench_branches |          2990080

 2017-02-09 10:32:25.92951+01 | 1486632745.92951 | pgbench_accounts |       4101922816
 2017-02-09 10:32:25.92951+01 | 1486632745.92951 | pgbench_tellers  |          4268032
 2017-02-09 10:32:25.92951+01 | 1486632745.92951 | pgbench_history  |         62676992
 2017-02-09 10:32:25.92951+01 | 1486632745.92951 | pgbench_branches |          2990080

 2017-02-09 10:32:27.080061+01 | 1486632747.08006 | pgbench_accounts |       4101922816
 2017-02-09 10:32:27.080061+01 | 1486632747.08006 | pgbench_tellers  |          4268032
 2017-02-09 10:32:27.080061+01 | 1486632747.08006 | pgbench_history  |         63201280
 2017-02-09 10:32:27.080061+01 | 1486632747.08006 | pgbench_branches |          2990080

 2017-02-09 10:32:28.183754+01 | 1486632748.18375 | pgbench_accounts |       4101922816
 2017-02-09 10:32:28.183754+01 | 1486632748.18375 | pgbench_tellers  |          4268032
 2017-02-09 10:32:28.183754+01 | 1486632748.18375 | pgbench_history  |         63692800
 2017-02-09 10:32:28.183754+01 | 1486632748.18375 | pgbench_branches |          2990080

 2017-02-09 10:32:29.354684+01 | 1486632749.35468 | pgbench_accounts |       4101922816
 2017-02-09 10:32:29.354684+01 | 1486632749.35468 | pgbench_tellers  |          4268032
 2017-02-09 10:32:29.354684+01 | 1486632749.35468 | pgbench_history  |         64208896
 2017-02-09 10:32:29.354684+01 | 1486632749.35468 | pgbench_branches |          2990080

 2017-02-09 10:32:30.513642+01 | 1486632750.51364 | pgbench_accounts |       4101922816
 2017-02-09 10:32:30.513642+01 | 1486632750.51364 | pgbench_tellers  |          4268032
 2017-02-09 10:32:30.513642+01 | 1486632750.51364 | pgbench_history  |         64675840
 2017-02-09 10:32:30.513642+01 | 1486632750.51364 | pgbench_branches |          2990080

 2017-02-09 10:32:31.636078+01 | 1486632751.63608 | pgbench_accounts |       4101922816
 2017-02-09 10:32:31.636078+01 | 1486632751.63608 | pgbench_tellers  |          4268032
 2017-02-09 10:32:31.636078+01 | 1486632751.63608 | pgbench_history  |         65183744
 2017-02-09 10:32:31.636078+01 | 1486632751.63608 | pgbench_branches |          2990080

 2017-02-09 10:32:32.739603+01 | 1486632752.7396 | pgbench_accounts |       4101922816
 2017-02-09 10:32:32.739603+01 | 1486632752.7396 | pgbench_tellers  |          4268032
 2017-02-09 10:32:32.739603+01 | 1486632752.7396 | pgbench_history  |         65683456
 2017-02-09 10:32:32.739603+01 | 1486632752.7396 | pgbench_branches |          2990080

 2017-02-09 10:32:33.884456+01 | 1486632753.88446 | pgbench_accounts |       4101922816
 2017-02-09 10:32:33.884456+01 | 1486632753.88446 | pgbench_tellers  |          4268032
 2017-02-09 10:32:33.884456+01 | 1486632753.88446 | pgbench_history  |         66199552
 2017-02-09 10:32:33.884456+01 | 1486632753.88446 | pgbench_branches |          2990080

 2017-02-09 10:32:35.046808+01 | 1486632755.04681 | pgbench_accounts |       4101922816
 2017-02-09 10:32:35.046808+01 | 1486632755.04681 | pgbench_tellers  |          4268032
 2017-02-09 10:32:35.046808+01 | 1486632755.04681 | pgbench_history  |         66707456
 2017-02-09 10:32:35.046808+01 | 1486632755.04681 | pgbench_branches |          2990080

 2017-02-09 10:32:36.184955+01 | 1486632756.18495 | pgbench_accounts |       4101922816
 2017-02-09 10:32:36.184955+01 | 1486632756.18495 | pgbench_tellers  |          4268032
 2017-02-09 10:32:36.184955+01 | 1486632756.18495 | pgbench_history  |         67198976
 2017-02-09 10:32:36.184955+01 | 1486632756.18495 | pgbench_branches |          2990080

 2017-02-09 10:32:37.314219+01 | 1486632757.31422 | pgbench_accounts |       4101922816
 2017-02-09 10:32:37.314219+01 | 1486632757.31422 | pgbench_tellers  |          4268032
 2017-02-09 10:32:37.314219+01 | 1486632757.31422 | pgbench_history  |         67706880
 2017-02-09 10:32:37.314219+01 | 1486632757.31422 | pgbench_branches |          2990080

 2017-02-09 10:32:38.417898+01 | 1486632758.4179 | pgbench_accounts |       4101922816
 2017-02-09 10:32:38.417898+01 | 1486632758.4179 | pgbench_tellers  |          4268032
 2017-02-09 10:32:38.417898+01 | 1486632758.4179 | pgbench_history  |         68190208
 2017-02-09 10:32:38.417898+01 | 1486632758.4179 | pgbench_branches |          2990080

 2017-02-09 10:32:39.557169+01 | 1486632759.55717 | pgbench_accounts |       4101922816
 2017-02-09 10:32:39.557169+01 | 1486632759.55717 | pgbench_tellers  |          4268032
 2017-02-09 10:32:39.557169+01 | 1486632759.55717 | pgbench_history  |         68657152
 2017-02-09 10:32:39.557169+01 | 1486632759.55717 | pgbench_branches |          2990080

 2017-02-09 10:32:40.674247+01 | 1486632760.67425 | pgbench_accounts |       4101922816
 2017-02-09 10:32:40.674247+01 | 1486632760.67425 | pgbench_tellers  |          4268032
 2017-02-09 10:32:40.674247+01 | 1486632760.67425 | pgbench_history  |         69165056
 2017-02-09 10:32:40.674247+01 | 1486632760.67425 | pgbench_branches |          2990080

 2017-02-09 10:32:41.831444+01 | 1486632761.83144 | pgbench_accounts |       4101922816
 2017-02-09 10:32:41.831444+01 | 1486632761.83144 | pgbench_tellers  |          4268032
 2017-02-09 10:32:41.831444+01 | 1486632761.83144 | pgbench_history  |         69648384
 2017-02-09 10:32:41.831444+01 | 1486632761.83144 | pgbench_branches |          2990080

 2017-02-09 10:32:43.008033+01 | 1486632763.00803 | pgbench_accounts |       4101922816
 2017-02-09 10:32:43.008033+01 | 1486632763.00803 | pgbench_tellers  |          4268032
 2017-02-09 10:32:43.008033+01 | 1486632763.00803 | pgbench_history  |         70123520
 2017-02-09 10:32:43.008033+01 | 1486632763.00803 | pgbench_branches |          2990080

 2017-02-09 10:32:44.165836+01 | 1486632764.16584 | pgbench_accounts |       4101922816
 2017-02-09 10:32:44.165836+01 | 1486632764.16584 | pgbench_tellers  |          4268032
 2017-02-09 10:32:44.165836+01 | 1486632764.16584 | pgbench_history  |         70746112
 2017-02-09 10:32:44.165836+01 | 1486632764.16584 | pgbench_branches |          2990080

 2017-02-09 10:32:45.323268+01 | 1486632765.32327 | pgbench_accounts |       4101922816
 2017-02-09 10:32:45.323268+01 | 1486632765.32327 | pgbench_tellers  |          4268032
 2017-02-09 10:32:45.323268+01 | 1486632765.32327 | pgbench_history  |         71204864
 2017-02-09 10:32:45.323268+01 | 1486632765.32327 | pgbench_branches |          2990080

 2017-02-09 10:32:46.520007+01 | 1486632766.52001 | pgbench_accounts |       4101922816
 2017-02-09 10:32:46.520007+01 | 1486632766.52001 | pgbench_tellers  |          4268032
 2017-02-09 10:32:46.520007+01 | 1486632766.52001 | pgbench_history  |         71753728
 2017-02-09 10:32:46.520007+01 | 1486632766.52001 | pgbench_branches |          2990080

 2017-02-09 10:32:47.698856+01 | 1486632767.69886 | pgbench_accounts |       4101922816
 2017-02-09 10:32:47.698856+01 | 1486632767.69886 | pgbench_tellers  |          4268032
 2017-02-09 10:32:47.698856+01 | 1486632767.69886 | pgbench_history  |         72302592
 2017-02-09 10:32:47.698856+01 | 1486632767.69886 | pgbench_branches |          2990080

 2017-02-09 10:32:48.816108+01 | 1486632768.81611 | pgbench_accounts |       4101922816
 2017-02-09 10:32:48.816108+01 | 1486632768.81611 | pgbench_tellers  |          4268032
 2017-02-09 10:32:48.816108+01 | 1486632768.81611 | pgbench_history  |         72695808
 2017-02-09 10:32:48.816108+01 | 1486632768.81611 | pgbench_branches |          2990080

 2017-02-09 10:32:49.960645+01 | 1486632769.96064 | pgbench_accounts |       4101922816
 2017-02-09 10:32:49.960645+01 | 1486632769.96064 | pgbench_tellers  |          4268032
 2017-02-09 10:32:49.960645+01 | 1486632769.96064 | pgbench_history  |         73203712
 2017-02-09 10:32:49.960645+01 | 1486632769.96064 | pgbench_branches |          2990080

 2017-02-09 10:32:51.121659+01 | 1486632771.12166 | pgbench_accounts |       4101922816
 2017-02-09 10:32:51.121659+01 | 1486632771.12166 | pgbench_tellers  |          4268032
 2017-02-09 10:32:51.121659+01 | 1486632771.12166 | pgbench_history  |         73736192
 2017-02-09 10:32:51.121659+01 | 1486632771.12166 | pgbench_branches |          2990080

 2017-02-09 10:32:52.298443+01 | 1486632772.29844 | pgbench_accounts |       4101922816
 2017-02-09 10:32:52.298443+01 | 1486632772.29844 | pgbench_tellers  |          4268032
 2017-02-09 10:32:52.298443+01 | 1486632772.29844 | pgbench_history  |         74268672
 2017-02-09 10:32:52.298443+01 | 1486632772.29844 | pgbench_branches |          2990080

 2017-02-09 10:32:53.425623+01 | 1486632773.42562 | pgbench_accounts |       4101922816
 2017-02-09 10:32:53.425623+01 | 1486632773.42562 | pgbench_tellers  |          4268032
 2017-02-09 10:32:53.425623+01 | 1486632773.42562 | pgbench_history  |         74768384
 2017-02-09 10:32:53.425623+01 | 1486632773.42562 | pgbench_branches |          2990080

 2017-02-09 10:32:54.632923+01 | 1486632774.63292 | pgbench_accounts |       4101922816
 2017-02-09 10:32:54.632923+01 | 1486632774.63292 | pgbench_tellers  |          4268032
 2017-02-09 10:32:54.632923+01 | 1486632774.63292 | pgbench_history  |         75284480
 2017-02-09 10:32:54.632923+01 | 1486632774.63292 | pgbench_branches |          2990080

 2017-02-09 10:32:55.81421+01 | 1486632775.81421 | pgbench_accounts |       4101922816
 2017-02-09 10:32:55.81421+01 | 1486632775.81421 | pgbench_tellers  |          4268032
 2017-02-09 10:32:55.81421+01 | 1486632775.81421 | pgbench_history  |         75808768
 2017-02-09 10:32:55.81421+01 | 1486632775.81421 | pgbench_branches |          2990080

 2017-02-09 10:32:56.998298+01 | 1486632776.9983 | pgbench_accounts |       4101922816
 2017-02-09 10:32:56.998298+01 | 1486632776.9983 | pgbench_tellers  |          4268032
 2017-02-09 10:32:56.998298+01 | 1486632776.9983 | pgbench_history  |         76333056
 2017-02-09 10:32:56.998298+01 | 1486632776.9983 | pgbench_branches |          2990080

 2017-02-09 10:32:58.172065+01 | 1486632778.17207 | pgbench_accounts |       4101922816
 2017-02-09 10:32:58.172065+01 | 1486632778.17207 | pgbench_tellers  |          4268032
 2017-02-09 10:32:58.172065+01 | 1486632778.17207 | pgbench_history  |         76840960
 2017-02-09 10:32:58.172065+01 | 1486632778.17207 | pgbench_branches |          2990080

 2017-02-09 10:32:59.334526+01 | 1486632779.33453 | pgbench_accounts |       4101922816
 2017-02-09 10:32:59.334526+01 | 1486632779.33453 | pgbench_tellers  |          4268032
 2017-02-09 10:32:59.334526+01 | 1486632779.33453 | pgbench_history  |         77357056
 2017-02-09 10:32:59.334526+01 | 1486632779.33453 | pgbench_branches |          2990080

 2017-02-09 10:33:00.429693+01 | 1486632780.42969 | pgbench_accounts |       4101922816
 2017-02-09 10:33:00.429693+01 | 1486632780.42969 | pgbench_tellers  |          4268032
 2017-02-09 10:33:00.429693+01 | 1486632780.42969 | pgbench_history  |         77824000
 2017-02-09 10:33:00.429693+01 | 1486632780.42969 | pgbench_branches |          2990080

 2017-02-09 10:33:01.588231+01 | 1486632781.58823 | pgbench_accounts |       4101922816
 2017-02-09 10:33:01.588231+01 | 1486632781.58823 | pgbench_tellers  |          4268032
 2017-02-09 10:33:01.588231+01 | 1486632781.58823 | pgbench_history  |         78340096
 2017-02-09 10:33:01.588231+01 | 1486632781.58823 | pgbench_branches |          2990080

 2017-02-09 10:33:02.773633+01 | 1486632782.77363 | pgbench_accounts |       4101922816
 2017-02-09 10:33:02.773633+01 | 1486632782.77363 | pgbench_tellers  |          4268032
 2017-02-09 10:33:02.773633+01 | 1486632782.77363 | pgbench_history  |         78864384
 2017-02-09 10:33:02.773633+01 | 1486632782.77363 | pgbench_branches |          2990080

 2017-02-09 10:33:03.934761+01 | 1486632783.93476 | pgbench_accounts |       4101922816
 2017-02-09 10:33:03.934761+01 | 1486632783.93476 | pgbench_tellers  |          4268032
 2017-02-09 10:33:03.934761+01 | 1486632783.93476 | pgbench_history  |         79347712
 2017-02-09 10:33:03.934761+01 | 1486632783.93476 | pgbench_branches |          2990080

 2017-02-09 10:33:05.099226+01 | 1486632785.09923 | pgbench_accounts |       4101922816
 2017-02-09 10:33:05.099226+01 | 1486632785.09923 | pgbench_tellers  |          4268032
 2017-02-09 10:33:05.099226+01 | 1486632785.09923 | pgbench_history  |         79872000
 2017-02-09 10:33:05.099226+01 | 1486632785.09923 | pgbench_branches |          2990080

 2017-02-09 10:33:06.328244+01 | 1486632786.32824 | pgbench_accounts |       4101922816
 2017-02-09 10:33:06.328244+01 | 1486632786.32824 | pgbench_tellers  |          4268032
 2017-02-09 10:33:06.328244+01 | 1486632786.32824 | pgbench_history  |         80412672
 2017-02-09 10:33:06.328244+01 | 1486632786.32824 | pgbench_branches |          2990080

 2017-02-09 10:33:07.493074+01 | 1486632787.49307 | pgbench_accounts |       4101922816
 2017-02-09 10:33:07.493074+01 | 1486632787.49307 | pgbench_tellers  |          4268032
 2017-02-09 10:33:07.493074+01 | 1486632787.49307 | pgbench_history  |         80920576
 2017-02-09 10:33:07.493074+01 | 1486632787.49307 | pgbench_branches |          2990080

 2017-02-09 10:33:08.601673+01 | 1486632788.60167 | pgbench_accounts |       4101922816
 2017-02-09 10:33:08.601673+01 | 1486632788.60167 | pgbench_tellers  |          4268032
 2017-02-09 10:33:08.601673+01 | 1486632788.60167 | pgbench_history  |         81403904
 2017-02-09 10:33:08.601673+01 | 1486632788.60167 | pgbench_branches |          2990080

 2017-02-09 10:33:09.755179+01 | 1486632789.75518 | pgbench_accounts |       4101922816
 2017-02-09 10:33:09.755179+01 | 1486632789.75518 | pgbench_tellers  |          4268032
 2017-02-09 10:33:09.755179+01 | 1486632789.75518 | pgbench_history  |         81928192
 2017-02-09 10:33:09.755179+01 | 1486632789.75518 | pgbench_branches |          2990080

 2017-02-09 10:33:10.928524+01 | 1486632790.92852 | pgbench_accounts |       4101922816
 2017-02-09 10:33:10.928524+01 | 1486632790.92852 | pgbench_tellers  |          4268032
 2017-02-09 10:33:10.928524+01 | 1486632790.92852 | pgbench_history  |         82436096
 2017-02-09 10:33:10.928524+01 | 1486632790.92852 | pgbench_branches |          2990080

 2017-02-09 10:33:12.08012+01 | 1486632792.08012 | pgbench_accounts |       4101922816
 2017-02-09 10:33:12.08012+01 | 1486632792.08012 | pgbench_tellers  |          4268032
 2017-02-09 10:33:12.08012+01 | 1486632792.08012 | pgbench_history  |         82952192
 2017-02-09 10:33:12.08012+01 | 1486632792.08012 | pgbench_branches |          2990080

 2017-02-09 10:33:13.225111+01 | 1486632793.22511 | pgbench_accounts |       4101922816
 2017-02-09 10:33:13.225111+01 | 1486632793.22511 | pgbench_tellers  |          4268032
 2017-02-09 10:33:13.225111+01 | 1486632793.22511 | pgbench_history  |         83476480
 2017-02-09 10:33:13.225111+01 | 1486632793.22511 | pgbench_branches |          2990080

 2017-02-09 10:33:14.386347+01 | 1486632794.38635 | pgbench_accounts |       4101922816
 2017-02-09 10:33:14.386347+01 | 1486632794.38635 | pgbench_tellers  |          4268032
 2017-02-09 10:33:14.386347+01 | 1486632794.38635 | pgbench_history  |         83968000
 2017-02-09 10:33:14.386347+01 | 1486632794.38635 | pgbench_branches |          2990080

 2017-02-09 10:33:15.574486+01 | 1486632795.57449 | pgbench_accounts |       4101922816
 2017-02-09 10:33:15.574486+01 | 1486632795.57449 | pgbench_tellers  |          4268032
 2017-02-09 10:33:15.574486+01 | 1486632795.57449 | pgbench_history  |         84492288
 2017-02-09 10:33:15.574486+01 | 1486632795.57449 | pgbench_branches |          2990080

 2017-02-09 10:33:16.715169+01 | 1486632796.71517 | pgbench_accounts |       4101922816
 2017-02-09 10:33:16.715169+01 | 1486632796.71517 | pgbench_tellers  |          4268032
 2017-02-09 10:33:16.715169+01 | 1486632796.71517 | pgbench_history  |         85000192
 2017-02-09 10:33:16.715169+01 | 1486632796.71517 | pgbench_branches |          2990080

 2017-02-09 10:33:17.905314+01 | 1486632797.90531 | pgbench_accounts |       4101922816
 2017-02-09 10:33:17.905314+01 | 1486632797.90531 | pgbench_tellers  |          4268032
 2017-02-09 10:33:17.905314+01 | 1486632797.90531 | pgbench_history  |         85614592
 2017-02-09 10:33:17.905314+01 | 1486632797.90531 | pgbench_branches |          2990080

 2017-02-09 10:33:19.021831+01 | 1486632799.02183 | pgbench_accounts |       4101922816
 2017-02-09 10:33:19.021831+01 | 1486632799.02183 | pgbench_tellers  |          4268032
 2017-02-09 10:33:19.021831+01 | 1486632799.02183 | pgbench_history  |         86024192
 2017-02-09 10:33:19.021831+01 | 1486632799.02183 | pgbench_branches |          2990080

 2017-02-09 10:33:20.181384+01 | 1486632800.18138 | pgbench_accounts |       4101922816
 2017-02-09 10:33:20.181384+01 | 1486632800.18138 | pgbench_tellers  |          4268032
 2017-02-09 10:33:20.181384+01 | 1486632800.18138 | pgbench_history  |         86671360
 2017-02-09 10:33:20.181384+01 | 1486632800.18138 | pgbench_branches |          2990080

 2017-02-09 10:33:21.383459+01 | 1486632801.38346 | pgbench_accounts |       4101922816
 2017-02-09 10:33:21.383459+01 | 1486632801.38346 | pgbench_tellers  |          4268032
 2017-02-09 10:33:21.383459+01 | 1486632801.38346 | pgbench_history  |         87154688
 2017-02-09 10:33:21.383459+01 | 1486632801.38346 | pgbench_branches |          2990080

 2017-02-09 10:33:22.552395+01 | 1486632802.5524 | pgbench_accounts |       4101922816
 2017-02-09 10:33:22.552395+01 | 1486632802.5524 | pgbench_tellers  |          4268032
 2017-02-09 10:33:22.552395+01 | 1486632802.5524 | pgbench_history  |         87597056
 2017-02-09 10:33:22.552395+01 | 1486632802.5524 | pgbench_branches |          2990080

 2017-02-09 10:33:23.7035+01 | 1486632803.7035 | pgbench_accounts |       4101922816
 2017-02-09 10:33:23.7035+01 | 1486632803.7035 | pgbench_tellers  |          4268032
 2017-02-09 10:33:23.7035+01 | 1486632803.7035 | pgbench_history  |         88064000
 2017-02-09 10:33:23.7035+01 | 1486632803.7035 | pgbench_branches |          2990080

 2017-02-09 10:33:24.799302+01 | 1486632804.7993 | pgbench_accounts |       4101922816
 2017-02-09 10:33:24.799302+01 | 1486632804.7993 | pgbench_tellers  |          4268032
 2017-02-09 10:33:24.799302+01 | 1486632804.7993 | pgbench_history  |         88539136
 2017-02-09 10:33:24.799302+01 | 1486632804.7993 | pgbench_branches |          2990080

 2017-02-09 10:33:25.927548+01 | 1486632805.92755 | pgbench_accounts |       4101922816
 2017-02-09 10:33:25.927548+01 | 1486632805.92755 | pgbench_tellers  |          4268032
 2017-02-09 10:33:25.927548+01 | 1486632805.92755 | pgbench_history  |         89022464
 2017-02-09 10:33:25.927548+01 | 1486632805.92755 | pgbench_branches |          2990080

 2017-02-09 10:33:27.091228+01 | 1486632807.09123 | pgbench_accounts |       4101922816
 2017-02-09 10:33:27.091228+01 | 1486632807.09123 | pgbench_tellers  |          4268032
 2017-02-09 10:33:27.091228+01 | 1486632807.09123 | pgbench_history  |         89522176
 2017-02-09 10:33:27.091228+01 | 1486632807.09123 | pgbench_branches |          2990080

 2017-02-09 10:33:28.244411+01 | 1486632808.24441 | pgbench_accounts |       4101922816
 2017-02-09 10:33:28.244411+01 | 1486632808.24441 | pgbench_tellers  |          4268032
 2017-02-09 10:33:28.244411+01 | 1486632808.24441 | pgbench_history  |         90046464
 2017-02-09 10:33:28.244411+01 | 1486632808.24441 | pgbench_branches |          2990080

 2017-02-09 10:33:29.346684+01 | 1486632809.34668 | pgbench_accounts |       4101922816
 2017-02-09 10:33:29.346684+01 | 1486632809.34668 | pgbench_tellers  |          4268032
 2017-02-09 10:33:29.346684+01 | 1486632809.34668 | pgbench_history  |         90513408
 2017-02-09 10:33:29.346684+01 | 1486632809.34668 | pgbench_branches |          2990080

 2017-02-09 10:33:30.428222+01 | 1486632810.42822 | pgbench_accounts |       4101922816
 2017-02-09 10:33:30.428222+01 | 1486632810.42822 | pgbench_tellers  |          4268032
 2017-02-09 10:33:30.428222+01 | 1486632810.42822 | pgbench_history  |         90988544
 2017-02-09 10:33:30.428222+01 | 1486632810.42822 | pgbench_branches |          2990080

 2017-02-09 10:33:31.535955+01 | 1486632811.53595 | pgbench_accounts |       4101922816
 2017-02-09 10:33:31.535955+01 | 1486632811.53595 | pgbench_tellers  |          4268032
 2017-02-09 10:33:31.535955+01 | 1486632811.53595 | pgbench_history  |         91488256
 2017-02-09 10:33:31.535955+01 | 1486632811.53595 | pgbench_branches |          2990080

 2017-02-09 10:33:32.69973+01 | 1486632812.69973 | pgbench_accounts |       4101922816
 2017-02-09 10:33:32.69973+01 | 1486632812.69973 | pgbench_tellers  |          4268032
 2017-02-09 10:33:32.69973+01 | 1486632812.69973 | pgbench_history  |         91963392
 2017-02-09 10:33:32.69973+01 | 1486632812.69973 | pgbench_branches |          2990080

 2017-02-09 10:33:33.897688+01 | 1486632813.89769 | pgbench_accounts |       4101922816
 2017-02-09 10:33:33.897688+01 | 1486632813.89769 | pgbench_tellers  |          4268032
 2017-02-09 10:33:33.897688+01 | 1486632813.89769 | pgbench_history  |         92733440
 2017-02-09 10:33:33.897688+01 | 1486632813.89769 | pgbench_branches |          2990080

 2017-02-09 10:33:34.961459+01 | 1486632814.96146 | pgbench_accounts |       4101922816
 2017-02-09 10:33:34.961459+01 | 1486632814.96146 | pgbench_tellers  |          4268032
 2017-02-09 10:33:34.961459+01 | 1486632814.96146 | pgbench_history  |         93093888
 2017-02-09 10:33:34.961459+01 | 1486632814.96146 | pgbench_branches |          2990080

 2017-02-09 10:33:36.082784+01 | 1486632816.08278 | pgbench_accounts |       4101922816
 2017-02-09 10:33:36.082784+01 | 1486632816.08278 | pgbench_tellers  |          4268032
 2017-02-09 10:33:36.082784+01 | 1486632816.08278 | pgbench_history  |         93642752
 2017-02-09 10:33:36.082784+01 | 1486632816.08278 | pgbench_branches |          2990080

 2017-02-09 10:33:37.228255+01 | 1486632817.22826 | pgbench_accounts |       4101922816
 2017-02-09 10:33:37.228255+01 | 1486632817.22826 | pgbench_tellers  |          4268032
 2017-02-09 10:33:37.228255+01 | 1486632817.22826 | pgbench_history  |         94355456
 2017-02-09 10:33:37.228255+01 | 1486632817.22826 | pgbench_branches |          2990080

 2017-02-09 10:33:38.404394+01 | 1486632818.40439 | pgbench_accounts |       4101922816
 2017-02-09 10:33:38.404394+01 | 1486632818.40439 | pgbench_tellers  |          4268032
 2017-02-09 10:33:38.404394+01 | 1486632818.40439 | pgbench_history  |         94552064
 2017-02-09 10:33:38.404394+01 | 1486632818.40439 | pgbench_branches |          2990080

 2017-02-09 10:33:39.566003+01 | 1486632819.566 | pgbench_accounts |       4101922816
 2017-02-09 10:33:39.566003+01 | 1486632819.566 | pgbench_tellers  |          4268032
 2017-02-09 10:33:39.566003+01 | 1486632819.566 | pgbench_history  |         95010816
 2017-02-09 10:33:39.566003+01 | 1486632819.566 | pgbench_branches |          2990080

 2017-02-09 10:33:40.672538+01 | 1486632820.67254 | pgbench_accounts |       4101922816
 2017-02-09 10:33:40.672538+01 | 1486632820.67254 | pgbench_tellers  |          4268032
 2017-02-09 10:33:40.672538+01 | 1486632820.67254 | pgbench_history  |         96542720
 2017-02-09 10:33:40.672538+01 | 1486632820.67254 | pgbench_branches |          2990080

 2017-02-09 10:33:41.80731+01 | 1486632821.80731 | pgbench_accounts |       4101922816
 2017-02-09 10:33:41.80731+01 | 1486632821.80731 | pgbench_tellers  |          4268032
 2017-02-09 10:33:41.80731+01 | 1486632821.80731 | pgbench_history  |         96542720
 2017-02-09 10:33:41.80731+01 | 1486632821.80731 | pgbench_branches |          2990080

 2017-02-09 10:33:42.942716+01 | 1486632822.94272 | pgbench_accounts |       4101922816
 2017-02-09 10:33:42.942716+01 | 1486632822.94272 | pgbench_tellers  |          4268032
 2017-02-09 10:33:42.942716+01 | 1486632822.94272 | pgbench_history  |         96542720
 2017-02-09 10:33:42.942716+01 | 1486632822.94272 | pgbench_branches |          2990080

 2017-02-09 10:33:44.074704+01 | 1486632824.0747 | pgbench_accounts |       4101922816
 2017-02-09 10:33:44.074704+01 | 1486632824.0747 | pgbench_tellers  |          4268032
 2017-02-09 10:33:44.074704+01 | 1486632824.0747 | pgbench_history  |         97394688
 2017-02-09 10:33:44.074704+01 | 1486632824.0747 | pgbench_branches |          2990080

 2017-02-09 10:33:45.224329+01 | 1486632825.22433 | pgbench_accounts |       4102053888
 2017-02-09 10:33:45.224329+01 | 1486632825.22433 | pgbench_tellers  |          4268032
 2017-02-09 10:33:45.224329+01 | 1486632825.22433 | pgbench_history  |         97394688
 2017-02-09 10:33:45.224329+01 | 1486632825.22433 | pgbench_branches |          2990080

 2017-02-09 10:33:46.320849+01 | 1486632826.32085 | pgbench_accounts |       4102053888
 2017-02-09 10:33:46.320849+01 | 1486632826.32085 | pgbench_tellers  |          4268032
 2017-02-09 10:33:46.320849+01 | 1486632826.32085 | pgbench_history  |         97746944
 2017-02-09 10:33:46.320849+01 | 1486632826.32085 | pgbench_branches |          2990080

 2017-02-09 10:33:47.502455+01 | 1486632827.50245 | pgbench_accounts |       4102160384
 2017-02-09 10:33:47.502455+01 | 1486632827.50245 | pgbench_tellers  |          4268032
 2017-02-09 10:33:47.502455+01 | 1486632827.50245 | pgbench_history  |         98295808
 2017-02-09 10:33:47.502455+01 | 1486632827.50245 | pgbench_branches |          2990080

 2017-02-09 10:33:48.669888+01 | 1486632828.66989 | pgbench_accounts |       4102184960
 2017-02-09 10:33:48.669888+01 | 1486632828.66989 | pgbench_tellers  |          4268032
 2017-02-09 10:33:48.669888+01 | 1486632828.66989 | pgbench_history  |         98893824
 2017-02-09 10:33:48.669888+01 | 1486632828.66989 | pgbench_branches |          2990080

 2017-02-09 10:33:49.870571+01 | 1486632829.87057 | pgbench_accounts |       4102266880
 2017-02-09 10:33:49.870571+01 | 1486632829.87057 | pgbench_tellers  |          4268032
 2017-02-09 10:33:49.870571+01 | 1486632829.87057 | pgbench_history  |         99401728
 2017-02-09 10:33:49.870571+01 | 1486632829.87057 | pgbench_branches |          2990080

 2017-02-09 10:33:51.025018+01 | 1486632831.02502 | pgbench_accounts |       4102307840
 2017-02-09 10:33:51.025018+01 | 1486632831.02502 | pgbench_tellers  |          4268032
 2017-02-09 10:33:51.025018+01 | 1486632831.02502 | pgbench_history  |         99909632
 2017-02-09 10:33:51.025018+01 | 1486632831.02502 | pgbench_branches |          2990080

 2017-02-09 10:33:52.251397+01 | 1486632832.2514 | pgbench_accounts |       4102365184
 2017-02-09 10:33:52.251397+01 | 1486632832.2514 | pgbench_tellers  |          4268032
 2017-02-09 10:33:52.251397+01 | 1486632832.2514 | pgbench_history  |        100581376
 2017-02-09 10:33:52.251397+01 | 1486632832.2514 | pgbench_branches |          2990080

 2017-02-09 10:33:53.400852+01 | 1486632833.40085 | pgbench_accounts |       4102438912
 2017-02-09 10:33:53.400852+01 | 1486632833.40085 | pgbench_tellers  |          4268032
 2017-02-09 10:33:53.400852+01 | 1486632833.40085 | pgbench_history  |        100974592
 2017-02-09 10:33:53.400852+01 | 1486632833.40085 | pgbench_branches |          2990080

 2017-02-09 10:33:54.541238+01 | 1486632834.54124 | pgbench_accounts |       4102471680
 2017-02-09 10:33:54.541238+01 | 1486632834.54124 | pgbench_tellers  |          4268032
 2017-02-09 10:33:54.541238+01 | 1486632834.54124 | pgbench_history  |        101490688
 2017-02-09 10:33:54.541238+01 | 1486632834.54124 | pgbench_branches |          2990080

 2017-02-09 10:33:55.664027+01 | 1486632835.66403 | pgbench_accounts |       4102520832
 2017-02-09 10:33:55.664027+01 | 1486632835.66403 | pgbench_tellers  |          4268032
 2017-02-09 10:33:55.664027+01 | 1486632835.66403 | pgbench_history  |        102023168
 2017-02-09 10:33:55.664027+01 | 1486632835.66403 | pgbench_branches |          2990080

 2017-02-09 10:33:56.803792+01 | 1486632836.80379 | pgbench_accounts |       4102594560
 2017-02-09 10:33:56.803792+01 | 1486632836.80379 | pgbench_tellers  |          4268032
 2017-02-09 10:33:56.803792+01 | 1486632836.80379 | pgbench_history  |        102703104
 2017-02-09 10:33:56.803792+01 | 1486632836.80379 | pgbench_branches |          2990080

 2017-02-09 10:33:57.956268+01 | 1486632837.95627 | pgbench_accounts |       4102643712
 2017-02-09 10:33:57.956268+01 | 1486632837.95627 | pgbench_tellers  |          4268032
 2017-02-09 10:33:57.956268+01 | 1486632837.95627 | pgbench_history  |        103079936
 2017-02-09 10:33:57.956268+01 | 1486632837.95627 | pgbench_branches |          2990080

 2017-02-09 10:33:59.110456+01 | 1486632839.11046 | pgbench_accounts |       4102692864
 2017-02-09 10:33:59.110456+01 | 1486632839.11046 | pgbench_tellers  |          4268032
 2017-02-09 10:33:59.110456+01 | 1486632839.11046 | pgbench_history  |        103505920
 2017-02-09 10:33:59.110456+01 | 1486632839.11046 | pgbench_branches |          2990080

 2017-02-09 10:34:00.286898+01 | 1486632840.2869 | pgbench_accounts |       4102750208
 2017-02-09 10:34:00.286898+01 | 1486632840.2869 | pgbench_tellers  |          4268032
 2017-02-09 10:34:00.286898+01 | 1486632840.2869 | pgbench_history  |        104194048
 2017-02-09 10:34:00.286898+01 | 1486632840.2869 | pgbench_branches |          2990080

 2017-02-09 10:34:01.373905+01 | 1486632841.3739 | pgbench_accounts |       4102823936
 2017-02-09 10:34:01.373905+01 | 1486632841.3739 | pgbench_tellers  |          4268032
 2017-02-09 10:34:01.373905+01 | 1486632841.3739 | pgbench_history  |        104415232
 2017-02-09 10:34:01.373905+01 | 1486632841.3739 | pgbench_branches |          2990080

 2017-02-09 10:34:02.499501+01 | 1486632842.4995 | pgbench_accounts |       4102873088
 2017-02-09 10:34:02.499501+01 | 1486632842.4995 | pgbench_tellers  |          4268032
 2017-02-09 10:34:02.499501+01 | 1486632842.4995 | pgbench_history  |        104939520
 2017-02-09 10:34:02.499501+01 | 1486632842.4995 | pgbench_branches |          2990080

 2017-02-09 10:34:03.584799+01 | 1486632843.5848 | pgbench_accounts |       4102914048
 2017-02-09 10:34:03.584799+01 | 1486632843.5848 | pgbench_tellers  |          4268032
 2017-02-09 10:34:03.584799+01 | 1486632843.5848 | pgbench_history  |        105463808
 2017-02-09 10:34:03.584799+01 | 1486632843.5848 | pgbench_branches |          2990080

 2017-02-09 10:34:04.797857+01 | 1486632844.79786 | pgbench_accounts |       4102971392
 2017-02-09 10:34:04.797857+01 | 1486632844.79786 | pgbench_tellers  |          4268032
 2017-02-09 10:34:04.797857+01 | 1486632844.79786 | pgbench_history  |        105988096
 2017-02-09 10:34:04.797857+01 | 1486632844.79786 | pgbench_branches |          2990080

 2017-02-09 10:34:05.947863+01 | 1486632845.94786 | pgbench_accounts |       4103028736
 2017-02-09 10:34:05.947863+01 | 1486632845.94786 | pgbench_tellers  |          4268032
 2017-02-09 10:34:05.947863+01 | 1486632845.94786 | pgbench_history  |        106504192
 2017-02-09 10:34:05.947863+01 | 1486632845.94786 | pgbench_branches |          2990080

 2017-02-09 10:34:07.078894+01 | 1486632847.07889 | pgbench_accounts |       4103061504
 2017-02-09 10:34:07.078894+01 | 1486632847.07889 | pgbench_tellers  |          4268032
 2017-02-09 10:34:07.078894+01 | 1486632847.07889 | pgbench_history  |        106962944
 2017-02-09 10:34:07.078894+01 | 1486632847.07889 | pgbench_branches |          2990080

 2017-02-09 10:34:08.245827+01 | 1486632848.24583 | pgbench_accounts |       4103135232
 2017-02-09 10:34:08.245827+01 | 1486632848.24583 | pgbench_tellers  |          4268032
 2017-02-09 10:34:08.245827+01 | 1486632848.24583 | pgbench_history  |        107495424
 2017-02-09 10:34:08.245827+01 | 1486632848.24583 | pgbench_branches |          2990080

 2017-02-09 10:34:09.426072+01 | 1486632849.42607 | pgbench_accounts |       4103184384
 2017-02-09 10:34:09.426072+01 | 1486632849.42607 | pgbench_tellers  |          4268032
 2017-02-09 10:34:09.426072+01 | 1486632849.42607 | pgbench_history  |        108003328
 2017-02-09 10:34:09.426072+01 | 1486632849.42607 | pgbench_branches |          2990080

 2017-02-09 10:34:10.618679+01 | 1486632850.61868 | pgbench_accounts |       4103233536
 2017-02-09 10:34:10.618679+01 | 1486632850.61868 | pgbench_tellers  |          4268032
 2017-02-09 10:34:10.618679+01 | 1486632850.61868 | pgbench_history  |        108544000
 2017-02-09 10:34:10.618679+01 | 1486632850.61868 | pgbench_branches |          2990080

 2017-02-09 10:34:11.765079+01 | 1486632851.76508 | pgbench_accounts |       4103299072
 2017-02-09 10:34:11.765079+01 | 1486632851.76508 | pgbench_tellers  |          4268032
 2017-02-09 10:34:11.765079+01 | 1486632851.76508 | pgbench_history  |        109191168
 2017-02-09 10:34:11.765079+01 | 1486632851.76508 | pgbench_branches |          2990080

 2017-02-09 10:34:12.900964+01 | 1486632852.90096 | pgbench_accounts |       4103331840
 2017-02-09 10:34:12.900964+01 | 1486632852.90096 | pgbench_tellers  |          4268032
 2017-02-09 10:34:12.900964+01 | 1486632852.90096 | pgbench_history  |        109748224
 2017-02-09 10:34:12.900964+01 | 1486632852.90096 | pgbench_branches |          2990080

 2017-02-09 10:34:14.082793+01 | 1486632854.08279 | pgbench_accounts |       4103397376
 2017-02-09 10:34:14.082793+01 | 1486632854.08279 | pgbench_tellers  |          4268032
 2017-02-09 10:34:14.082793+01 | 1486632854.08279 | pgbench_history  |        110313472
 2017-02-09 10:34:14.082793+01 | 1486632854.08279 | pgbench_branches |          2990080

 2017-02-09 10:34:15.264337+01 | 1486632855.26434 | pgbench_accounts |       4103446528
 2017-02-09 10:34:15.264337+01 | 1486632855.26434 | pgbench_tellers  |          4268032
 2017-02-09 10:34:15.264337+01 | 1486632855.26434 | pgbench_history  |        110575616
 2017-02-09 10:34:15.264337+01 | 1486632855.26434 | pgbench_branches |          2990080

 2017-02-09 10:34:16.420908+01 | 1486632856.42091 | pgbench_accounts |       4103503872
 2017-02-09 10:34:16.420908+01 | 1486632856.42091 | pgbench_tellers  |          4268032
 2017-02-09 10:34:16.420908+01 | 1486632856.42091 | pgbench_history  |        111099904
 2017-02-09 10:34:16.420908+01 | 1486632856.42091 | pgbench_branches |          2990080

 2017-02-09 10:34:17.5565+01 | 1486632857.5565 | pgbench_accounts |       4103561216
 2017-02-09 10:34:17.5565+01 | 1486632857.5565 | pgbench_tellers  |          4268032
 2017-02-09 10:34:17.5565+01 | 1486632857.5565 | pgbench_history  |        111591424
 2017-02-09 10:34:17.5565+01 | 1486632857.5565 | pgbench_branches |          2990080

 2017-02-09 10:34:18.707803+01 | 1486632858.7078 | pgbench_accounts |       4103610368
 2017-02-09 10:34:18.707803+01 | 1486632858.7078 | pgbench_tellers  |          4268032
 2017-02-09 10:34:18.707803+01 | 1486632858.7078 | pgbench_history  |        112107520
 2017-02-09 10:34:18.707803+01 | 1486632858.7078 | pgbench_branches |          2990080

 2017-02-09 10:34:19.885262+01 | 1486632859.88526 | pgbench_accounts |       4103659520
 2017-02-09 10:34:19.885262+01 | 1486632859.88526 | pgbench_tellers  |          4268032
 2017-02-09 10:34:19.885262+01 | 1486632859.88526 | pgbench_history  |        112623616
 2017-02-09 10:34:19.885262+01 | 1486632859.88526 | pgbench_branches |          2990080

 2017-02-09 10:34:21.03837+01 | 1486632861.03837 | pgbench_accounts |       4103716864
 2017-02-09 10:34:21.03837+01 | 1486632861.03837 | pgbench_tellers  |          4268032
 2017-02-09 10:34:21.03837+01 | 1486632861.03837 | pgbench_history  |        113147904
 2017-02-09 10:34:21.03837+01 | 1486632861.03837 | pgbench_branches |          2990080

 2017-02-09 10:34:22.174017+01 | 1486632862.17402 | pgbench_accounts |       4103757824
 2017-02-09 10:34:22.174017+01 | 1486632862.17402 | pgbench_tellers  |          4268032
 2017-02-09 10:34:22.174017+01 | 1486632862.17402 | pgbench_history  |        113614848
 2017-02-09 10:34:22.174017+01 | 1486632862.17402 | pgbench_branches |          2990080

 2017-02-09 10:34:23.339557+01 | 1486632863.33956 | pgbench_accounts |       4103831552
 2017-02-09 10:34:23.339557+01 | 1486632863.33956 | pgbench_tellers  |          4268032
 2017-02-09 10:34:23.339557+01 | 1486632863.33956 | pgbench_history  |        114147328
 2017-02-09 10:34:23.339557+01 | 1486632863.33956 | pgbench_branches |          2990080

 2017-02-09 10:34:24.457526+01 | 1486632864.45753 | pgbench_accounts |       4103839744
 2017-02-09 10:34:24.457526+01 | 1486632864.45753 | pgbench_tellers  |          4268032
 2017-02-09 10:34:24.457526+01 | 1486632864.45753 | pgbench_history  |        114630656
 2017-02-09 10:34:24.457526+01 | 1486632864.45753 | pgbench_branches |          2990080

 2017-02-09 10:34:25.597025+01 | 1486632865.59702 | pgbench_accounts |       4103905280
 2017-02-09 10:34:25.597025+01 | 1486632865.59702 | pgbench_tellers  |          4268032
 2017-02-09 10:34:25.597025+01 | 1486632865.59702 | pgbench_history  |        115146752
 2017-02-09 10:34:25.597025+01 | 1486632865.59702 | pgbench_branches |          2990080

 2017-02-09 10:34:26.729618+01 | 1486632866.72962 | pgbench_accounts |       4103962624
 2017-02-09 10:34:26.729618+01 | 1486632866.72962 | pgbench_tellers  |          4268032
 2017-02-09 10:34:26.729618+01 | 1486632866.72962 | pgbench_history  |        115638272
 2017-02-09 10:34:26.729618+01 | 1486632866.72962 | pgbench_branches |          2990080

 2017-02-09 10:34:27.839741+01 | 1486632867.83974 | pgbench_accounts |       4103987200
 2017-02-09 10:34:27.839741+01 | 1486632867.83974 | pgbench_tellers  |          4268032
 2017-02-09 10:34:27.839741+01 | 1486632867.83974 | pgbench_history  |        116113408
 2017-02-09 10:34:27.839741+01 | 1486632867.83974 | pgbench_branches |          2990080

 2017-02-09 10:34:28.990616+01 | 1486632868.99062 | pgbench_accounts |       4104060928
 2017-02-09 10:34:28.990616+01 | 1486632868.99062 | pgbench_tellers  |          4268032
 2017-02-09 10:34:28.990616+01 | 1486632868.99062 | pgbench_history  |        116637696
 2017-02-09 10:34:28.990616+01 | 1486632868.99062 | pgbench_branches |          2990080

 2017-02-09 10:34:30.136846+01 | 1486632870.13685 | pgbench_accounts |       4104085504
 2017-02-09 10:34:30.136846+01 | 1486632870.13685 | pgbench_tellers  |          4268032
 2017-02-09 10:34:30.136846+01 | 1486632870.13685 | pgbench_history  |        117112832
 2017-02-09 10:34:30.136846+01 | 1486632870.13685 | pgbench_branches |          2990080

 2017-02-09 10:34:31.335063+01 | 1486632871.33506 | pgbench_accounts |       4104175616
 2017-02-09 10:34:31.335063+01 | 1486632871.33506 | pgbench_tellers  |          4268032
 2017-02-09 10:34:31.335063+01 | 1486632871.33506 | pgbench_history  |        117768192
 2017-02-09 10:34:31.335063+01 | 1486632871.33506 | pgbench_branches |          2990080

 2017-02-09 10:34:32.495525+01 | 1486632872.49552 | pgbench_accounts |       4104216576
 2017-02-09 10:34:32.495525+01 | 1486632872.49552 | pgbench_tellers  |          4268032
 2017-02-09 10:34:32.495525+01 | 1486632872.49552 | pgbench_history  |        119480320
 2017-02-09 10:34:32.495525+01 | 1486632872.49552 | pgbench_branches |          2990080

 2017-02-09 10:34:33.602112+01 | 1486632873.60211 | pgbench_accounts |       4104241152
 2017-02-09 10:34:33.602112+01 | 1486632873.60211 | pgbench_tellers  |          4268032
 2017-02-09 10:34:33.602112+01 | 1486632873.60211 | pgbench_history  |        119480320
 2017-02-09 10:34:33.602112+01 | 1486632873.60211 | pgbench_branches |          2990080

 2017-02-09 10:34:34.740803+01 | 1486632874.7408 | pgbench_accounts |       4104323072
 2017-02-09 10:34:34.740803+01 | 1486632874.7408 | pgbench_tellers  |          4268032
 2017-02-09 10:34:34.740803+01 | 1486632874.7408 | pgbench_history  |        119480320
 2017-02-09 10:34:34.740803+01 | 1486632874.7408 | pgbench_branches |          2990080

 2017-02-09 10:34:35.929703+01 | 1486632875.9297 | pgbench_accounts |       4104355840
 2017-02-09 10:34:35.929703+01 | 1486632875.9297 | pgbench_tellers  |          4268032
 2017-02-09 10:34:35.929703+01 | 1486632875.9297 | pgbench_history  |        120373248
 2017-02-09 10:34:35.929703+01 | 1486632875.9297 | pgbench_branches |          2990080

 2017-02-09 10:34:37.072146+01 | 1486632877.07215 | pgbench_accounts |       4104413184
 2017-02-09 10:34:37.072146+01 | 1486632877.07215 | pgbench_tellers  |          4268032
 2017-02-09 10:34:37.072146+01 | 1486632877.07215 | pgbench_history  |        120373248
 2017-02-09 10:34:37.072146+01 | 1486632877.07215 | pgbench_branches |          2990080

 2017-02-09 10:34:38.256596+01 | 1486632878.2566 | pgbench_accounts |       4104470528
 2017-02-09 10:34:38.256596+01 | 1486632878.2566 | pgbench_tellers  |          4268032
 2017-02-09 10:34:38.256596+01 | 1486632878.2566 | pgbench_history  |        120758272
 2017-02-09 10:34:38.256596+01 | 1486632878.2566 | pgbench_branches |          2990080

 2017-02-09 10:34:39.393615+01 | 1486632879.39362 | pgbench_accounts |       4104527872
 2017-02-09 10:34:39.393615+01 | 1486632879.39362 | pgbench_tellers  |          4268032
 2017-02-09 10:34:39.393615+01 | 1486632879.39362 | pgbench_history  |        121364480
 2017-02-09 10:34:39.393615+01 | 1486632879.39362 | pgbench_branches |          2990080

 2017-02-09 10:34:40.514917+01 | 1486632880.51492 | pgbench_accounts |       4104601600
 2017-02-09 10:34:40.514917+01 | 1486632880.51492 | pgbench_tellers  |          4268032
 2017-02-09 10:34:40.514917+01 | 1486632880.51492 | pgbench_history  |        121634816
 2017-02-09 10:34:40.514917+01 | 1486632880.51492 | pgbench_branches |          2990080

 2017-02-09 10:34:41.666714+01 | 1486632881.66671 | pgbench_accounts |       4104708096
 2017-02-09 10:34:41.666714+01 | 1486632881.66671 | pgbench_tellers  |          4268032
 2017-02-09 10:34:41.666714+01 | 1486632881.66671 | pgbench_history  |        122150912
 2017-02-09 10:34:41.666714+01 | 1486632881.66671 | pgbench_branches |          2990080

 2017-02-09 10:34:42.815763+01 | 1486632882.81576 | pgbench_accounts |       4104822784
 2017-02-09 10:34:42.815763+01 | 1486632882.81576 | pgbench_tellers  |          4268032
 2017-02-09 10:34:42.815763+01 | 1486632882.81576 | pgbench_history  |        122642432
 2017-02-09 10:34:42.815763+01 | 1486632882.81576 | pgbench_branches |          2990080

 2017-02-09 10:34:43.959226+01 | 1486632883.95923 | pgbench_accounts |       4104937472
 2017-02-09 10:34:43.959226+01 | 1486632883.95923 | pgbench_tellers  |          4268032
 2017-02-09 10:34:43.959226+01 | 1486632883.95923 | pgbench_history  |        123101184
 2017-02-09 10:34:43.959226+01 | 1486632883.95923 | pgbench_branches |          2990080

 2017-02-09 10:34:45.159967+01 | 1486632885.15997 | pgbench_accounts |       4105109504
 2017-02-09 10:34:45.159967+01 | 1486632885.15997 | pgbench_tellers  |          4268032
 2017-02-09 10:34:45.159967+01 | 1486632885.15997 | pgbench_history  |        123584512
 2017-02-09 10:34:45.159967+01 | 1486632885.15997 | pgbench_branches |          2990080

 2017-02-09 10:34:46.360008+01 | 1486632886.36001 | pgbench_accounts |       4105248768
 2017-02-09 10:34:46.360008+01 | 1486632886.36001 | pgbench_tellers  |          4268032
 2017-02-09 10:34:46.360008+01 | 1486632886.36001 | pgbench_history  |        124379136
 2017-02-09 10:34:46.360008+01 | 1486632886.36001 | pgbench_branches |          2990080

 2017-02-09 10:34:47.530535+01 | 1486632887.53053 | pgbench_accounts |       4105289728
 2017-02-09 10:34:47.530535+01 | 1486632887.53053 | pgbench_tellers  |          4268032
 2017-02-09 10:34:47.530535+01 | 1486632887.53053 | pgbench_history  |        124682240
 2017-02-09 10:34:47.530535+01 | 1486632887.53053 | pgbench_branches |          2990080

 2017-02-09 10:34:48.668029+01 | 1486632888.66803 | pgbench_accounts |       4105338880
 2017-02-09 10:34:48.668029+01 | 1486632888.66803 | pgbench_tellers  |          4268032
 2017-02-09 10:34:48.668029+01 | 1486632888.66803 | pgbench_history  |        125370368
 2017-02-09 10:34:48.668029+01 | 1486632888.66803 | pgbench_branches |          2990080

 2017-02-09 10:34:49.79233+01 | 1486632889.79233 | pgbench_accounts |       4105396224
 2017-02-09 10:34:49.79233+01 | 1486632889.79233 | pgbench_tellers  |          4268032
 2017-02-09 10:34:49.79233+01 | 1486632889.79233 | pgbench_history  |        125747200
 2017-02-09 10:34:49.79233+01 | 1486632889.79233 | pgbench_branches |          2990080

 2017-02-09 10:34:50.889023+01 | 1486632890.88902 | pgbench_accounts |       4105420800
 2017-02-09 10:34:50.889023+01 | 1486632890.88902 | pgbench_tellers  |          4268032
 2017-02-09 10:34:50.889023+01 | 1486632890.88902 | pgbench_history  |        126386176
 2017-02-09 10:34:50.889023+01 | 1486632890.88902 | pgbench_branches |          2990080

 2017-02-09 10:34:52.029504+01 | 1486632892.0295 | pgbench_accounts |       4105494528
 2017-02-09 10:34:52.029504+01 | 1486632892.0295 | pgbench_tellers  |          4268032
 2017-02-09 10:34:52.029504+01 | 1486632892.0295 | pgbench_history  |        126648320
 2017-02-09 10:34:52.029504+01 | 1486632892.0295 | pgbench_branches |          2990080

 2017-02-09 10:34:53.218954+01 | 1486632893.21895 | pgbench_accounts |       4105535488
 2017-02-09 10:34:53.218954+01 | 1486632893.21895 | pgbench_tellers  |          4268032
 2017-02-09 10:34:53.218954+01 | 1486632893.21895 | pgbench_history  |        127156224
 2017-02-09 10:34:53.218954+01 | 1486632893.21895 | pgbench_branches |          2990080

 2017-02-09 10:34:54.364176+01 | 1486632894.36418 | pgbench_accounts |       4105576448
 2017-02-09 10:34:54.364176+01 | 1486632894.36418 | pgbench_tellers  |          4268032
 2017-02-09 10:34:54.364176+01 | 1486632894.36418 | pgbench_history  |        127631360
 2017-02-09 10:34:54.364176+01 | 1486632894.36418 | pgbench_branches |          2990080

 2017-02-09 10:34:55.53561+01 | 1486632895.53561 | pgbench_accounts |       4105641984
 2017-02-09 10:34:55.53561+01 | 1486632895.53561 | pgbench_tellers  |          4268032
 2017-02-09 10:34:55.53561+01 | 1486632895.53561 | pgbench_history  |        128180224
 2017-02-09 10:34:55.53561+01 | 1486632895.53561 | pgbench_branches |          2990080

 2017-02-09 10:34:56.637184+01 | 1486632896.63718 | pgbench_accounts |       4105666560
 2017-02-09 10:34:56.637184+01 | 1486632896.63718 | pgbench_tellers  |          4268032
 2017-02-09 10:34:56.637184+01 | 1486632896.63718 | pgbench_history  |        128638976
 2017-02-09 10:34:56.637184+01 | 1486632896.63718 | pgbench_branches |          2990080

 2017-02-09 10:34:57.743834+01 | 1486632897.74383 | pgbench_accounts |       4105699328
 2017-02-09 10:34:57.743834+01 | 1486632897.74383 | pgbench_tellers  |          4268032
 2017-02-09 10:34:57.743834+01 | 1486632897.74383 | pgbench_history  |        129105920
 2017-02-09 10:34:57.743834+01 | 1486632897.74383 | pgbench_branches |          2990080

 2017-02-09 10:34:58.900563+01 | 1486632898.90056 | pgbench_accounts |       4105764864
 2017-02-09 10:34:58.900563+01 | 1486632898.90056 | pgbench_tellers  |          4268032
 2017-02-09 10:34:58.900563+01 | 1486632898.90056 | pgbench_history  |        129638400
 2017-02-09 10:34:58.900563+01 | 1486632898.90056 | pgbench_branches |          2990080

 2017-02-09 10:35:00.009847+01 | 1486632900.00985 | pgbench_accounts |       4105805824
 2017-02-09 10:35:00.009847+01 | 1486632900.00985 | pgbench_tellers  |          4268032
 2017-02-09 10:35:00.009847+01 | 1486632900.00985 | pgbench_history  |        130138112
 2017-02-09 10:35:00.009847+01 | 1486632900.00985 | pgbench_branches |          2990080

 2017-02-09 10:35:01.155873+01 | 1486632901.15587 | pgbench_accounts |       4105846784
 2017-02-09 10:35:01.155873+01 | 1486632901.15587 | pgbench_tellers  |          4268032
 2017-02-09 10:35:01.155873+01 | 1486632901.15587 | pgbench_history  |        130637824
 2017-02-09 10:35:01.155873+01 | 1486632901.15587 | pgbench_branches |          2990080

