 2017-02-10 16:42:12.879802+01 | 1486741332.8798 | 2/5F799BD0               |           10191739856

 2017-02-10 16:42:13.922902+01 | 1486741333.9229 | 2/641DE578               |           10269615480

 2017-02-10 16:42:14.973073+01 | 1486741334.97307 | 2/674FFE68               |           10323230312

 2017-02-10 16:42:16.024265+01 | 1486741336.02427 | 2/69A36788               |           10362251144

 2017-02-10 16:42:17.074089+01 | 1486741337.07409 | 2/6B56A9C0               |           10390776256

 2017-02-10 16:42:18.126349+01 | 1486741338.12635 | 2/6CB8F810               |           10413996048

 2017-02-10 16:42:19.174927+01 | 1486741339.17493 | 2/6DE07798               |           10433361816

 2017-02-10 16:42:20.227617+01 | 1486741340.22762 | 2/6EE4FA50               |           10450434640

 2017-02-10 16:42:21.278776+01 | 1486741341.27878 | 2/6FCD6A98               |           10465667736

 2017-02-10 16:42:22.333162+01 | 1486741342.33316 | 2/7099B520               |           10479056160

 2017-02-10 16:42:23.384884+01 | 1486741343.38488 | 2/715F7DE0               |           10492018144

 2017-02-10 16:42:24.436115+01 | 1486741344.43612 | 2/72150000               |           10503913472

 2017-02-10 16:42:25.48553+01 | 1486741345.48553 | 2/72BE20A0               |           10514997408

 2017-02-10 16:42:26.538778+01 | 1486741346.53878 | 2/7366B3D8               |           10526045144

 2017-02-10 16:42:27.590924+01 | 1486741347.59092 | 2/7408B330               |           10536661808

 2017-02-10 16:42:28.642421+01 | 1486741348.64242 | 2/74A5CF88               |           10546958216

 2017-02-10 16:42:29.699556+01 | 1486741349.69956 | 2/75328048               |           10556178504

 2017-02-10 16:42:30.741263+01 | 1486741350.74126 | 2/75F3A860               |           10568837216

 2017-02-10 16:42:31.7927+01 | 1486741351.7927 | 2/7731CD38               |           10589687096

 2017-02-10 16:42:32.843224+01 | 1486741352.84322 | 2/787A2C58               |           10611207256

 2017-02-10 16:42:33.893717+01 | 1486741353.89372 | 2/79B670A8               |           10631934120

 2017-02-10 16:42:34.947444+01 | 1486741354.94744 | 2/7ACF4A10               |           10650339856

 2017-02-10 16:42:35.998893+01 | 1486741355.99889 | 2/7B7F9C38               |           10661895224

 2017-02-10 16:42:37.051425+01 | 1486741357.05142 | 2/7C1D58D0               |           10672232656

 2017-02-10 16:42:38.103292+01 | 1486741358.10329 | 2/7C7F4AC0               |           10678651584

 2017-02-10 16:42:39.157171+01 | 1486741359.15717 | 2/7CECC000               |           10685825024

 2017-02-10 16:42:40.207382+01 | 1486741360.20738 | 2/7D478758               |           10691774296

 2017-02-10 16:42:41.258294+01 | 1486741361.25829 | 2/7D9CF858               |           10697373784

 2017-02-10 16:42:42.311259+01 | 1486741362.31126 | 2/7DF1CF28               |           10702933800

 2017-02-10 16:42:43.365905+01 | 1486741363.36591 | 2/7E45A828               |           10708428840

 2017-02-10 16:42:44.415955+01 | 1486741364.41596 | 2/7E99DA48               |           10713946696

 2017-02-10 16:42:45.466732+01 | 1486741365.46673 | 2/7EE84BE8               |           10719087592

 2017-02-10 16:42:46.520561+01 | 1486741366.52056 | 2/7F3AB280               |           10724487808

 2017-02-10 16:42:47.572745+01 | 1486741367.57275 | 2/7F8E61F8               |           10729972216

 2017-02-10 16:42:48.625103+01 | 1486741368.6251 | 2/7FDBC270               |           10735043184

 2017-02-10 16:42:49.675917+01 | 1486741369.67592 | 2/802D4050               |           10740383824

 2017-02-10 16:42:50.729888+01 | 1486741370.72989 | 2/807E57E0               |           10745698272

 2017-02-10 16:42:51.779949+01 | 1486741371.77995 | 2/80CEC840               |           10750969920

 2017-02-10 16:42:52.830823+01 | 1486741372.83082 | 2/811E9928               |           10756200744

 2017-02-10 16:42:53.882608+01 | 1486741373.88261 | 2/816B6F68               |           10761236328

 2017-02-10 16:42:54.933747+01 | 1486741374.93375 | 2/81B8F090               |           10766315664

 2017-02-10 16:42:55.983277+01 | 1486741375.98328 | 2/82097018               |           10771591192

 2017-02-10 16:42:57.033206+01 | 1486741377.03321 | 2/82572AE8               |           10776685288

 2017-02-10 16:42:58.08908+01 | 1486741378.08908 | 2/82A4C9F8               |           10781772280

 2017-02-10 16:42:59.143602+01 | 1486741379.1436 | 2/82F4A190               |           10787004816

 2017-02-10 16:43:00.193355+01 | 1486741380.19336 | 2/8340FB38               |           10792008504

 2017-02-10 16:43:01.244455+01 | 1486741381.24446 | 2/8390CCF8               |           10797239544

 2017-02-10 16:43:02.297401+01 | 1486741382.2974 | 2/83DDD288               |           10802287240

 2017-02-10 16:43:03.347766+01 | 1486741383.34777 | 2/84288A70               |           10807183984

 2017-02-10 16:43:04.403493+01 | 1486741384.40349 | 2/8474D820               |           10812184608

 2017-02-10 16:43:05.454699+01 | 1486741385.4547 | 2/84C050C8               |           10817130696

 2017-02-10 16:43:06.50647+01 | 1486741386.50647 | 2/85102810               |           10822363152

 2017-02-10 16:43:07.55533+01 | 1486741387.55533 | 2/855C9798               |           10827372440

 2017-02-10 16:43:08.608254+01 | 1486741388.60825 | 2/85AA4700               |           10832463616

 2017-02-10 16:43:09.660121+01 | 1486741389.66012 | 2/85F70BB0               |           10837494704

 2017-02-10 16:43:10.712195+01 | 1486741390.71219 | 2/86431C80               |           10842479744

 2017-02-10 16:43:11.766303+01 | 1486741391.7663 | 2/868CC870               |           10847307888

 2017-02-10 16:43:12.817627+01 | 1486741392.81763 | 2/86DBF268               |           10852495976

 2017-02-10 16:43:13.868424+01 | 1486741393.86842 | 2/8727A3A8               |           10857456552

 2017-02-10 16:43:14.920121+01 | 1486741394.92012 | 2/876EB9E8               |           10862115304

 2017-02-10 16:43:15.971573+01 | 1486741395.97157 | 2/87B92DA8               |           10866994600

 2017-02-10 16:43:17.021355+01 | 1486741397.02135 | 2/880119A8               |           10871708072

 2017-02-10 16:43:18.072523+01 | 1486741398.07252 | 2/8848F918               |           10876418328

 2017-02-10 16:43:19.125692+01 | 1486741399.12569 | 2/88925380               |           10881225600

 2017-02-10 16:43:20.176193+01 | 1486741400.17619 | 2/88DBC1B8               |           10886037944

 2017-02-10 16:43:21.23012+01 | 1486741401.23012 | 2/89281A40               |           10891041344

 2017-02-10 16:43:22.280193+01 | 1486741402.28019 | 2/89711430               |           10895823920

 2017-02-10 16:43:23.329754+01 | 1486741403.32975 | 2/89BD2DC8               |           10900811208

 2017-02-10 16:43:24.38176+01 | 1486741404.38176 | 2/8A05FBF8               |           10905582584

 2017-02-10 16:43:25.436815+01 | 1486741405.43682 | 2/8A50F8A0               |           10910496928

 2017-02-10 16:43:26.48688+01 | 1486741406.48688 | 2/8A963C98               |           10915036312

 2017-02-10 16:43:27.537136+01 | 1486741407.53714 | 2/8ADDA108               |           10919715080

 2017-02-10 16:43:28.590006+01 | 1486741408.59001 | 2/8B25FF78               |           10924457848

 2017-02-10 16:43:29.642594+01 | 1486741409.64259 | 2/8B6CC8E8               |           10929096936

 2017-02-10 16:43:30.685748+01 | 1486741410.68575 | 2/8BCCCF88               |           10935390088

 2017-02-10 16:43:31.740631+01 | 1486741411.74063 | 2/8C29B978               |           10941479288

 2017-02-10 16:43:32.790713+01 | 1486741412.79071 | 2/8C6FAFB8               |           10946064312

 2017-02-10 16:43:33.841597+01 | 1486741413.8416 | 2/8CB687C0               |           10950707136

 2017-02-10 16:43:34.897503+01 | 1486741414.8975 | 2/8D0277F0               |           10955683824

 2017-02-10 16:43:35.949375+01 | 1486741415.94937 | 2/8D547318               |           10961056536

 2017-02-10 16:43:37.0033+01 | 1486741417.0033 | 2/8D9BE4A0               |           10965738656

 2017-02-10 16:43:38.061835+01 | 1486741418.06184 | 2/8DE422A8               |           10970473128

 2017-02-10 16:43:39.111871+01 | 1486741419.11187 | 2/8E2A5FC8               |           10975076296

 2017-02-10 16:43:40.164099+01 | 1486741420.1641 | 2/8E6EABC8               |           10979552200

 2017-02-10 16:43:41.215025+01 | 1486741421.21502 | 2/8EB423F0               |           10984104944

 2017-02-10 16:43:42.267844+01 | 1486741422.26784 | 2/8EFBD5F0               |           10988803568

 2017-02-10 16:43:43.31973+01 | 1486741423.31973 | 2/8F42F1B0               |           10993463728

 2017-02-10 16:43:44.371588+01 | 1486741424.37159 | 2/8F885E40               |           10998013504

 2017-02-10 16:43:45.423737+01 | 1486741425.42374 | 2/8FCD8B38               |           11002547000

 2017-02-10 16:43:46.476018+01 | 1486741426.47602 | 2/90148EA8               |           11007200936

 2017-02-10 16:43:47.525541+01 | 1486741427.52554 | 2/905A5470               |           11011773552

 2017-02-10 16:43:48.577117+01 | 1486741428.57712 | 2/90A189E8               |           11016440296

 2017-02-10 16:43:49.628149+01 | 1486741429.62815 | 2/90E5E7C8               |           11020920776

 2017-02-10 16:43:50.679744+01 | 1486741430.67974 | 2/912AE708               |           11025442568

 2017-02-10 16:43:51.731458+01 | 1486741431.73146 | 2/916F9E20               |           11029945888

 2017-02-10 16:43:52.781+01 | 1486741432.781 | 2/91B67AD0               |           11034589904

 2017-02-10 16:43:53.831671+01 | 1486741433.83167 | 2/91FCB9F0               |           11039193584

 2017-02-10 16:43:54.882329+01 | 1486741434.88233 | 2/92429350               |           11043771216

 2017-02-10 16:43:55.936953+01 | 1486741435.93695 | 2/9286E630               |           11048248880

 2017-02-10 16:43:56.987166+01 | 1486741436.98717 | 2/92CC9708               |           11052816136

 2017-02-10 16:43:58.037544+01 | 1486741438.03754 | 2/9311B348               |           11057345352

 2017-02-10 16:43:59.088795+01 | 1486741439.08879 | 2/9356AF40               |           11061866304

 2017-02-10 16:44:00.139544+01 | 1486741440.13954 | 2/939E5BA8               |           11066563496

 2017-02-10 16:44:01.191833+01 | 1486741441.19183 | 2/93E2F7A0               |           11071059872

 2017-02-10 16:44:02.246298+01 | 1486741442.2463 | 2/942855F0               |           11075606000

 2017-02-10 16:44:03.297737+01 | 1486741443.29774 | 2/946D4C18               |           11080125464

 2017-02-10 16:44:04.352743+01 | 1486741444.35274 | 2/94B408A0               |           11084761248

 2017-02-10 16:44:05.405346+01 | 1486741445.40535 | 2/94F8F608               |           11089278472

 2017-02-10 16:44:06.457747+01 | 1486741446.45775 | 2/953DD0B8               |           11093790904

 2017-02-10 16:44:07.508137+01 | 1486741447.50814 | 2/9582B458               |           11098305624

 2017-02-10 16:44:08.560519+01 | 1486741448.56052 | 2/95C79FE8               |           11102822376

 2017-02-10 16:44:09.613466+01 | 1486741449.61347 | 2/960C8E18               |           11107339800

 2017-02-10 16:44:10.665421+01 | 1486741450.66542 | 2/965311C0               |           11111961024

 2017-02-10 16:44:11.717143+01 | 1486741451.71714 | 2/96972410               |           11116422160

 2017-02-10 16:44:12.769729+01 | 1486741452.76973 | 2/96DB9F28               |           11120910120

 2017-02-10 16:44:13.823339+01 | 1486741453.82334 | 2/97231098               |           11125592216

 2017-02-10 16:44:14.880142+01 | 1486741454.88014 | 2/976942E0               |           11130192608

 2017-02-10 16:44:15.931888+01 | 1486741455.93189 | 2/97AE1818               |           11134703640

 2017-02-10 16:44:16.982244+01 | 1486741456.98224 | 2/97F3FCA8               |           11139284136

 2017-02-10 16:44:18.033795+01 | 1486741458.0338 | 2/9837E110               |           11143733520

 2017-02-10 16:44:19.08703+01 | 1486741459.08703 | 2/987BFA58               |           11148196440

 2017-02-10 16:44:20.138615+01 | 1486741460.13861 | 2/98BDE820               |           11152517152

 2017-02-10 16:44:21.18908+01 | 1486741461.18908 | 2/99013248               |           11156927048

 2017-02-10 16:44:22.241644+01 | 1486741462.24164 | 2/994660D8               |           11161460952

 2017-02-10 16:44:23.294194+01 | 1486741463.29419 | 2/998A6AC0               |           11165919936

 2017-02-10 16:44:24.349359+01 | 1486741464.34936 | 2/99CE2E40               |           11170360896

 2017-02-10 16:44:25.39934+01 | 1486741465.39934 | 2/9A128218               |           11174838808

 2017-02-10 16:44:26.449644+01 | 1486741466.44964 | 2/9A559608               |           11179234824

 2017-02-10 16:44:27.500129+01 | 1486741467.50013 | 2/9A9A5338               |           11183739704

 2017-02-10 16:44:28.554652+01 | 1486741468.55465 | 2/9ADE4D60               |           11188194656

 2017-02-10 16:44:29.60622+01 | 1486741469.60622 | 2/9B224B50               |           11192650576

 2017-02-10 16:44:30.664794+01 | 1486741470.66479 | 2/9B7F8A68               |           11198761576

 2017-02-10 16:44:31.716151+01 | 1486741471.71615 | 2/9BD6A320               |           11204469536

 2017-02-10 16:44:32.771309+01 | 1486741472.77131 | 2/9C1EC0F0               |           11209195760

 2017-02-10 16:44:33.825996+01 | 1486741473.826 | 2/9C6290C0               |           11213639872

 2017-02-10 16:44:34.87774+01 | 1486741474.87774 | 2/9CAAFCC0               |           11218386112

 2017-02-10 16:44:35.928671+01 | 1486741475.92867 | 2/9CF7E6F0               |           11223426800

 2017-02-10 16:44:36.980601+01 | 1486741476.9806 | 2/9D393D30               |           11227708720

 2017-02-10 16:44:38.030937+01 | 1486741478.03094 | 2/9D7C3EB8               |           11232100024

 2017-02-10 16:44:39.082136+01 | 1486741479.08214 | 2/9DC0E1C0               |           11236598208

 2017-02-10 16:44:40.136114+01 | 1486741480.13611 | 2/9E0585D0               |           11241096656

 2017-02-10 16:44:41.189853+01 | 1486741481.18985 | 2/9E4736D0               |           11245401808

 2017-02-10 16:44:42.245651+01 | 1486741482.24565 | 2/9E8800F8               |           11249647864

 2017-02-10 16:44:43.29664+01 | 1486741483.29664 | 2/9ECC22F0               |           11254113008

 2017-02-10 16:44:44.34872+01 | 1486741484.34872 | 2/9F0FFEF0               |           11258560240

 2017-02-10 16:44:45.398743+01 | 1486741485.39874 | 2/9F53D620               |           11263006240

 2017-02-10 16:44:46.452624+01 | 1486741486.45262 | 2/9F965278               |           11267363448

 2017-02-10 16:44:47.501508+01 | 1486741487.50151 | 2/9FD9DE28               |           11271790120

 2017-02-10 16:44:48.555378+01 | 1486741488.55538 | 2/A01B5558               |           11276080472

 2017-02-10 16:44:49.609198+01 | 1486741489.6092 | 2/A05CA2B8               |           11280360120

 2017-02-10 16:44:50.664622+01 | 1486741490.66462 | 2/A09F1EE0               |           11284717280

 2017-02-10 16:44:51.717713+01 | 1486741491.71771 | 2/A0E196D0               |           11289073360

 2017-02-10 16:44:52.7693+01 | 1486741492.7693 | 2/A1245C00               |           11293449216

 2017-02-10 16:44:53.81951+01 | 1486741493.81951 | 2/A165FB38               |           11297749816

 2017-02-10 16:44:54.870585+01 | 1486741494.87058 | 2/A1A864C0               |           11302102208

 2017-02-10 16:44:55.921876+01 | 1486741495.92188 | 2/A1EAA5A0               |           11306444192

 2017-02-10 16:44:56.974143+01 | 1486741496.97414 | 2/A22F3510               |           11310937360

 2017-02-10 16:44:58.025603+01 | 1486741498.0256 | 2/A2704548               |           11315201352

 2017-02-10 16:44:59.079646+01 | 1486741499.07965 | 2/A2B3F7B8               |           11319637944

 2017-02-10 16:45:00.133013+01 | 1486741500.13301 | 2/A2F60C78               |           11323968632

 2017-02-10 16:45:01.185615+01 | 1486741501.18562 | 2/A3391F78               |           11328364408

 2017-02-10 16:45:02.233956+01 | 1486741502.23396 | 2/A37C49D0               |           11332766160

 2017-02-10 16:45:03.284792+01 | 1486741503.28479 | 2/A3BE4FB0               |           11337093040

 2017-02-10 16:45:04.335862+01 | 1486741504.33586 | 2/A40093F0               |           11341435888

 2017-02-10 16:45:05.38775+01 | 1486741505.38775 | 2/A441A440               |           11345699904

 2017-02-10 16:45:06.440641+01 | 1486741506.44064 | 2/A4809340               |           11349824320

 2017-02-10 16:45:07.491751+01 | 1486741507.49175 | 2/A4C490D8               |           11354280152

 2017-02-10 16:45:08.540922+01 | 1486741508.54092 | 2/A5082FD8               |           11358711768

 2017-02-10 16:45:09.591923+01 | 1486741509.59192 | 2/A54A54B0               |           11363046576

 2017-02-10 16:45:10.643086+01 | 1486741510.64309 | 2/A58C8F10               |           11367386896

 2017-02-10 16:45:11.6978+01 | 1486741511.6978 | 2/A5CF2248               |           11371749960

 2017-02-10 16:45:12.748317+01 | 1486741512.74832 | 2/A6113CE8               |           11376082152

 2017-02-10 16:45:13.797992+01 | 1486741513.79799 | 2/A6539EE0               |           11380432608

 2017-02-10 16:45:14.849479+01 | 1486741514.84948 | 2/A6949488               |           11384689800

 2017-02-10 16:45:15.90276+01 | 1486741515.90276 | 2/A6D62430               |           11388986416

 2017-02-10 16:45:16.951784+01 | 1486741516.95178 | 2/A7188A50               |           11393337936

 2017-02-10 16:45:18.003021+01 | 1486741518.00302 | 2/A7590A88               |           11397565064

 2017-02-10 16:45:19.052774+01 | 1486741519.05277 | 2/A79CAE50               |           11401997904

 2017-02-10 16:45:20.10492+01 | 1486741520.10492 | 2/A7DF1880               |           11406350464

 2017-02-10 16:45:21.154163+01 | 1486741521.15416 | 2/A8205F70               |           11410628464

 2017-02-10 16:45:22.205095+01 | 1486741522.2051 | 2/A8613958               |           11414878552

 2017-02-10 16:45:23.257186+01 | 1486741523.25719 | 2/A8A157C8               |           11419080648

 2017-02-10 16:45:24.308301+01 | 1486741524.3083 | 2/A8E26EA0               |           11423346336

 2017-02-10 16:45:25.358728+01 | 1486741525.35873 | 2/A9243FA8               |           11427659688

 2017-02-10 16:45:26.411781+01 | 1486741526.41178 | 2/A96648A0               |           11431987360

 2017-02-10 16:45:27.462959+01 | 1486741527.46296 | 2/A9A78AC8               |           11436264136

 2017-02-10 16:45:28.511884+01 | 1486741528.51188 | 2/A9E6EC08               |           11440417800

 2017-02-10 16:45:29.565369+01 | 1486741529.56537 | 2/AA2A2640               |           11444823616

 2017-02-10 16:45:30.619687+01 | 1486741530.61969 | 2/AA814950               |           11450534224

 2017-02-10 16:45:31.671646+01 | 1486741531.67165 | 2/AADA8C10               |           11456384016

 2017-02-10 16:45:32.721233+01 | 1486741532.72123 | 2/AB1D4BA0               |           11460758432

 2017-02-10 16:45:33.77022+01 | 1486741533.77022 | 2/AB5FE748               |           11465123656

 2017-02-10 16:45:34.823156+01 | 1486741534.82316 | 2/ABA6E4B8               |           11469776056

 2017-02-10 16:45:35.872928+01 | 1486741535.87293 | 2/ABEF4B08               |           11474520840

 2017-02-10 16:45:36.917972+01 | 1486741536.91797 | 2/AC2E64B8               |           11478656184

 2017-02-10 16:45:37.969582+01 | 1486741537.96958 | 2/AC6DB708               |           11482806024

 2017-02-10 16:45:39.021365+01 | 1486741539.02136 | 2/ACAD65B0               |           11486979504

 2017-02-10 16:45:40.073109+01 | 1486741540.07311 | 2/ACEB0F70               |           11491020656

 2017-02-10 16:45:41.125138+01 | 1486741541.12514 | 2/AD2CE7C0               |           11495335872

 2017-02-10 16:45:42.178666+01 | 1486741542.17867 | 2/AD6DD7F8               |           11499591672

 2017-02-10 16:45:43.231756+01 | 1486741543.23176 | 2/ADAD4B98               |           11503750040

 2017-02-10 16:45:44.283643+01 | 1486741544.28364 | 2/ADEC40A8               |           11507876008

 2017-02-10 16:45:45.333905+01 | 1486741545.3339 | 2/AE2DE810               |           11512178704

 2017-02-10 16:45:46.388684+01 | 1486741546.38868 | 2/AE6D9D98               |           11516353944

 2017-02-10 16:45:47.440085+01 | 1486741547.44008 | 2/AEAE6688               |           11520599688

 2017-02-10 16:45:48.492829+01 | 1486741548.49283 | 2/AEEFC4B8               |           11524883640

 2017-02-10 16:45:49.541598+01 | 1486741549.5416 | 2/AF2E9F10               |           11529002768

 2017-02-10 16:45:50.591348+01 | 1486741550.59135 | 2/AF6DD0A8               |           11533144232

 2017-02-10 16:45:51.642978+01 | 1486741551.64298 | 2/AFB01E40               |           11537489472

 2017-02-10 16:45:52.693259+01 | 1486741552.69326 | 2/AFF16198               |           11541766552

 2017-02-10 16:45:53.744895+01 | 1486741553.74489 | 2/B0312FF8               |           11545948152

 2017-02-10 16:45:54.797662+01 | 1486741554.79766 | 2/B0705968               |           11550087528

 2017-02-10 16:45:55.847665+01 | 1486741555.84767 | 2/B0B26C20               |           11554417696

 2017-02-10 16:45:56.898186+01 | 1486741556.89819 | 2/B0F23750               |           11558598480

 2017-02-10 16:45:57.950362+01 | 1486741557.95036 | 2/B133B6F8               |           11562891000

 2017-02-10 16:45:59.004068+01 | 1486741559.00407 | 2/B174C318               |           11567153944

 2017-02-10 16:46:00.056272+01 | 1486741560.05627 | 2/B1B74518               |           11571512600

 2017-02-10 16:46:01.107139+01 | 1486741561.10714 | 2/B1F7ED78               |           11575750008

 2017-02-10 16:46:02.158632+01 | 1486741562.15863 | 2/B23649D0               |           11579836880

 2017-02-10 16:46:03.211244+01 | 1486741563.21124 | 2/B276C900               |           11584063744

 2017-02-10 16:46:04.26338+01 | 1486741564.26338 | 2/B2B89C50               |           11588377680

 2017-02-10 16:46:05.313288+01 | 1486741565.31329 | 2/B2FA2838               |           11592673336

 2017-02-10 16:46:06.363881+01 | 1486741566.36388 | 2/B33B2718               |           11596932888

 2017-02-10 16:46:07.415964+01 | 1486741567.41596 | 2/B37B0AE0               |           11601119968

 2017-02-10 16:46:08.46885+01 | 1486741568.46885 | 2/B3BAEFD0               |           11605307344

 2017-02-10 16:46:09.520171+01 | 1486741569.52017 | 2/B3FCB1C8               |           11609616840

 2017-02-10 16:46:10.569564+01 | 1486741570.56956 | 2/B43CB1B0               |           11613811120

 2017-02-10 16:46:11.620937+01 | 1486741571.62094 | 2/B47C1ED0               |           11617967824

 2017-02-10 16:46:12.67514+01 | 1486741572.67514 | 2/B4BDDFC8               |           11622277064

 2017-02-10 16:46:13.726148+01 | 1486741573.72615 | 2/B4FC6168               |           11626373480

 2017-02-10 16:46:14.776756+01 | 1486741574.77676 | 2/B53C98E8               |           11630581992

 2017-02-10 16:46:15.826446+01 | 1486741575.82645 | 2/B57CF290               |           11634799248

 2017-02-10 16:46:16.878187+01 | 1486741576.87819 | 2/B5BE39D0               |           11639077328

 2017-02-10 16:46:17.929669+01 | 1486741577.92967 | 2/B5FE5230               |           11643277872

 2017-02-10 16:46:18.979339+01 | 1486741578.97934 | 2/B63FFFD8               |           11647582168

 2017-02-10 16:46:20.029679+01 | 1486741580.02968 | 2/B6800778               |           11651778424

 2017-02-10 16:46:21.079456+01 | 1486741581.07946 | 2/B6C00190               |           11655971216

 2017-02-10 16:46:22.13017+01 | 1486741582.13017 | 2/B6FE9F20               |           11660074784

 2017-02-10 16:46:23.179625+01 | 1486741583.17963 | 2/B73FC5A0               |           11664344480

 2017-02-10 16:46:24.231826+01 | 1486741584.23183 | 2/B77E6B60               |           11668450144

 2017-02-10 16:46:25.282498+01 | 1486741585.2825 | 2/B7C1F0D0               |           11672875216

 2017-02-10 16:46:26.332642+01 | 1486741586.33264 | 2/B802C6E0               |           11677124320

 2017-02-10 16:46:27.384464+01 | 1486741587.38446 | 2/B843E360               |           11681391456

 2017-02-10 16:46:28.434218+01 | 1486741588.43422 | 2/B8851200               |           11685663232

 2017-02-10 16:46:29.488676+01 | 1486741589.48868 | 2/B8C63128               |           11689931048

 2017-02-10 16:46:30.542406+01 | 1486741590.54241 | 2/B91B2F58               |           11695501144

 2017-02-10 16:46:31.592617+01 | 1486741591.59262 | 2/B9743460               |           11701335136

 2017-02-10 16:46:32.645079+01 | 1486741592.64508 | 2/B9BAA3B0               |           11705951152

 2017-02-10 16:46:33.697242+01 | 1486741593.69724 | 2/B9FBE7F0               |           11710228464

 2017-02-10 16:46:34.748983+01 | 1486741594.74898 | 2/BA45E428               |           11715077160

 2017-02-10 16:46:35.803506+01 | 1486741595.80351 | 2/BA8E8F00               |           11719839488

 2017-02-10 16:46:36.845334+01 | 1486741596.84533 | 2/BACC9200               |           11723903488

 2017-02-10 16:46:37.908097+01 | 1486741597.9081 | 2/BB0D5708               |           11728148232

 2017-02-10 16:46:38.959712+01 | 1486741598.95971 | 2/BB4DBBD8               |           11732368344

 2017-02-10 16:46:40.010403+01 | 1486741600.0104 | 2/BB8F1A08               |           11736652296

 2017-02-10 16:46:41.061962+01 | 1486741601.06196 | 2/BBD0ADB0               |           11740949936

 2017-02-10 16:46:42.115257+01 | 1486741602.11526 | 2/BC11F818               |           11745228824

 2017-02-10 16:46:43.165969+01 | 1486741603.16597 | 2/BC52DDE0               |           11749481952

 2017-02-10 16:46:44.216827+01 | 1486741604.21683 | 2/BC933928               |           11753699624

 2017-02-10 16:46:45.271952+01 | 1486741605.27195 | 2/BCD4D298               |           11757998744

 2017-02-10 16:46:46.321566+01 | 1486741606.32157 | 2/BD16B378               |           11762316152

 2017-02-10 16:46:47.372731+01 | 1486741607.37273 | 2/BD576BA0               |           11766557600

 2017-02-10 16:46:48.424673+01 | 1486741608.42467 | 2/BD9904F8               |           11770856696

 2017-02-10 16:46:49.476094+01 | 1486741609.47609 | 2/BDDAB818               |           11775162392

 2017-02-10 16:46:50.525499+01 | 1486741610.5255 | 2/BE18F308               |           11779240712

 2017-02-10 16:46:51.576228+01 | 1486741611.57623 | 2/BE5A2AE0               |           11783514848

 2017-02-10 16:46:52.627277+01 | 1486741612.62728 | 2/BE99DD40               |           11787689280

 2017-02-10 16:46:53.677337+01 | 1486741613.67734 | 2/BED96038               |           11791851576

 2017-02-10 16:46:54.72744+01 | 1486741614.72744 | 2/BF1AEF20               |           11796148000

 2017-02-10 16:46:55.778813+01 | 1486741615.77881 | 2/BF5BCDE0               |           11800399328

 2017-02-10 16:46:56.829878+01 | 1486741616.82988 | 2/BF9B46D8               |           11804559064

 2017-02-10 16:46:57.88102+01 | 1486741617.88102 | 2/BFDC1E18               |           11808808472

 2017-02-10 16:46:58.93212+01 | 1486741618.93212 | 2/C01C0610               |           11812996624

 2017-02-10 16:46:59.980999+01 | 1486741619.981 | 2/C05CBC90               |           11817237648

 2017-02-10 16:47:01.032241+01 | 1486741621.03224 | 2/C09E15B0               |           11821520304

 2017-02-10 16:47:02.084571+01 | 1486741622.08457 | 2/C0DDCE28               |           11825696296

 2017-02-10 16:47:03.135008+01 | 1486741623.13501 | 2/C11FB4B8               |           11830015160

 2017-02-10 16:47:04.186508+01 | 1486741624.18651 | 2/C1610FA0               |           11834298272

 2017-02-10 16:47:05.238673+01 | 1486741625.23867 | 2/C1A1D460               |           11838542944

 2017-02-10 16:47:06.287873+01 | 1486741626.28787 | 2/C1E2B5E0               |           11842794976

 2017-02-10 16:47:07.341699+01 | 1486741627.3417 | 2/C2249A20               |           11847113248

 2017-02-10 16:47:08.392145+01 | 1486741628.39214 | 2/C265AFE8               |           11851378664

 2017-02-10 16:47:09.445046+01 | 1486741629.44505 | 2/C2A55000               |           11855548416

 2017-02-10 16:47:10.496336+01 | 1486741630.49634 | 2/C2E6FF58               |           11859853144

 2017-02-10 16:47:11.548023+01 | 1486741631.54802 | 2/C32813E8               |           11864118248

 2017-02-10 16:47:12.602742+01 | 1486741632.60274 | 2/C367EF68               |           11868303208

