NOTICE:  table "pgbench_history" does not exist, skipping
NOTICE:  table "pgbench_tellers" does not exist, skipping
NOTICE:  table "pgbench_accounts" does not exist, skipping
NOTICE:  table "pgbench_branches" does not exist, skipping
creating tables...
100000 of 5000000 tuples (2%) done (elapsed 0.06 s, remaining 2.78 s)
200000 of 5000000 tuples (4%) done (elapsed 0.17 s, remaining 4.06 s)
300000 of 5000000 tuples (6%) done (elapsed 0.25 s, remaining 3.94 s)
400000 of 5000000 tuples (8%) done (elapsed 0.40 s, remaining 4.61 s)
500000 of 5000000 tuples (10%) done (elapsed 0.47 s, remaining 4.21 s)
600000 of 5000000 tuples (12%) done (elapsed 0.57 s, remaining 4.15 s)
700000 of 5000000 tuples (14%) done (elapsed 0.71 s, remaining 4.36 s)
800000 of 5000000 tuples (16%) done (elapsed 0.82 s, remaining 4.28 s)
900000 of 5000000 tuples (18%) done (elapsed 0.90 s, remaining 4.10 s)
1000000 of 5000000 tuples (20%) done (elapsed 0.96 s, remaining 3.86 s)
1100000 of 5000000 tuples (22%) done (elapsed 1.12 s, remaining 3.98 s)
1200000 of 5000000 tuples (24%) done (elapsed 1.23 s, remaining 3.91 s)
1300000 of 5000000 tuples (26%) done (elapsed 1.30 s, remaining 3.71 s)
1400000 of 5000000 tuples (28%) done (elapsed 1.46 s, remaining 3.74 s)
1500000 of 5000000 tuples (30%) done (elapsed 1.56 s, remaining 3.63 s)
1600000 of 5000000 tuples (32%) done (elapsed 1.71 s, remaining 3.64 s)
1700000 of 5000000 tuples (34%) done (elapsed 1.78 s, remaining 3.46 s)
1800000 of 5000000 tuples (36%) done (elapsed 1.89 s, remaining 3.36 s)
1900000 of 5000000 tuples (38%) done (elapsed 2.04 s, remaining 3.33 s)
2000000 of 5000000 tuples (40%) done (elapsed 2.16 s, remaining 3.23 s)
2100000 of 5000000 tuples (42%) done (elapsed 2.22 s, remaining 3.07 s)
2200000 of 5000000 tuples (44%) done (elapsed 2.29 s, remaining 2.92 s)
2300000 of 5000000 tuples (46%) done (elapsed 2.45 s, remaining 2.87 s)
2400000 of 5000000 tuples (48%) done (elapsed 2.52 s, remaining 2.73 s)
2500000 of 5000000 tuples (50%) done (elapsed 2.63 s, remaining 2.63 s)
2600000 of 5000000 tuples (52%) done (elapsed 2.79 s, remaining 2.57 s)
2700000 of 5000000 tuples (54%) done (elapsed 2.86 s, remaining 2.43 s)
2800000 of 5000000 tuples (56%) done (elapsed 2.97 s, remaining 2.33 s)
2900000 of 5000000 tuples (58%) done (elapsed 3.13 s, remaining 2.27 s)
3000000 of 5000000 tuples (60%) done (elapsed 3.24 s, remaining 2.16 s)
3100000 of 5000000 tuples (62%) done (elapsed 3.31 s, remaining 2.03 s)
3200000 of 5000000 tuples (64%) done (elapsed 3.38 s, remaining 1.90 s)
3300000 of 5000000 tuples (66%) done (elapsed 3.53 s, remaining 1.82 s)
3400000 of 5000000 tuples (68%) done (elapsed 3.64 s, remaining 1.71 s)
3500000 of 5000000 tuples (70%) done (elapsed 3.78 s, remaining 1.62 s)
3600000 of 5000000 tuples (72%) done (elapsed 3.85 s, remaining 1.50 s)
3700000 of 5000000 tuples (74%) done (elapsed 3.96 s, remaining 1.39 s)
3800000 of 5000000 tuples (76%) done (elapsed 4.03 s, remaining 1.27 s)
3900000 of 5000000 tuples (78%) done (elapsed 4.18 s, remaining 1.18 s)
4000000 of 5000000 tuples (80%) done (elapsed 4.29 s, remaining 1.07 s)
4100000 of 5000000 tuples (82%) done (elapsed 4.36 s, remaining 0.96 s)
4200000 of 5000000 tuples (84%) done (elapsed 4.51 s, remaining 0.86 s)
4300000 of 5000000 tuples (86%) done (elapsed 4.63 s, remaining 0.75 s)
4400000 of 5000000 tuples (88%) done (elapsed 4.70 s, remaining 0.64 s)
4500000 of 5000000 tuples (90%) done (elapsed 4.86 s, remaining 0.54 s)
4600000 of 5000000 tuples (92%) done (elapsed 4.93 s, remaining 0.43 s)
4700000 of 5000000 tuples (94%) done (elapsed 5.03 s, remaining 0.32 s)
4800000 of 5000000 tuples (96%) done (elapsed 5.20 s, remaining 0.22 s)
4900000 of 5000000 tuples (98%) done (elapsed 5.31 s, remaining 0.11 s)
5000000 of 5000000 tuples (100%) done (elapsed 5.38 s, remaining 0.00 s)
vacuum...
set primary keys...
done.
