 2017-02-08 11:17:00.42602+01 | 1486549020.42602 |                 0 |               5 |                  1980 |                  141 |             247209 |        587215 |             5861 |        13292248 |                     0 |      14313599 | 2017-02-08 10:56:06.890034+01

 2017-02-08 11:17:01.499995+01 | 1486549021.49999 |                 0 |               5 |                  1980 |                  141 |             247209 |        587215 |             5861 |        13292248 |                     0 |      14325390 | 2017-02-08 10:56:06.890034+01

 2017-02-08 11:17:02.582554+01 | 1486549022.58255 |                 0 |               5 |                  1980 |                  141 |             247209 |        587218 |             5861 |        13292248 |                     0 |      14340890 | 2017-02-08 10:56:06.890034+01

 2017-02-08 11:17:03.665443+01 | 1486549023.66544 |                 0 |               5 |                  1980 |                  141 |             247209 |        587259 |             5861 |        13292248 |                     0 |      14353689 | 2017-02-08 10:56:06.890034+01

 2017-02-08 11:17:04.738604+01 | 1486549024.7386 |                 0 |               5 |                  1980 |                  141 |             247209 |        587370 |             5861 |        13292248 |                     0 |      14369179 | 2017-02-08 10:56:06.890034+01

 2017-02-08 11:17:05.816912+01 | 1486549025.81691 |                 0 |               5 |                  1980 |                  141 |             247209 |        587789 |             5862 |        13292248 |                     0 |      14381587 | 2017-02-08 10:56:06.890034+01

 2017-02-08 11:17:06.891327+01 | 1486549026.89133 |                 0 |               5 |                  1980 |                  141 |             247209 |        588289 |             5867 |        13292248 |                     0 |      14394702 | 2017-02-08 10:56:06.890034+01

 2017-02-08 11:17:07.993587+01 | 1486549027.99359 |                 0 |               5 |                  1980 |                  141 |             247209 |        588889 |             5873 |        13292248 |                     0 |      14409690 | 2017-02-08 10:56:06.890034+01

 2017-02-08 11:17:09.076162+01 | 1486549029.07616 |                 0 |               5 |                  1980 |                  141 |             247209 |        589389 |             5878 |        13292248 |                     0 |      14422116 | 2017-02-08 10:56:06.890034+01

 2017-02-08 11:17:10.167984+01 | 1486549030.16798 |                 0 |               5 |                  1980 |                  141 |             247209 |        589889 |             5883 |        13292248 |                     0 |      14434571 | 2017-02-08 10:56:06.890034+01

 2017-02-08 11:17:11.274222+01 | 1486549031.27422 |                 0 |               5 |                  1980 |                  141 |             247209 |        590489 |             5889 |        13292248 |                     0 |      14449768 | 2017-02-08 10:56:06.890034+01

 2017-02-08 11:17:12.354089+01 | 1486549032.35409 |                 0 |               5 |                  1980 |                  141 |             247209 |        590989 |             5894 |        13292248 |                     0 |      14461989 | 2017-02-08 10:56:06.890034+01

 2017-02-08 11:17:13.430919+01 | 1486549033.43092 |                 0 |               5 |                  1980 |                  141 |             247209 |        591589 |             5900 |        13353810 |                     0 |      14476900 | 2017-02-08 10:56:06.890034+01

 2017-02-08 11:17:14.529632+01 | 1486549034.52963 |                 0 |               5 |                  1980 |                  141 |             247209 |        592089 |             5905 |        13353810 |                     0 |      14489570 | 2017-02-08 10:56:06.890034+01

 2017-02-08 11:17:15.616774+01 | 1486549035.61677 |                 0 |               5 |                  1980 |                  141 |             247209 |        592689 |             5911 |        13353810 |                     0 |      14504364 | 2017-02-08 10:56:06.890034+01

 2017-02-08 11:17:16.710493+01 | 1486549036.71049 |                 0 |               5 |                  1980 |                  141 |             247209 |        593189 |             5916 |        13353810 |                     0 |      14517341 | 2017-02-08 10:56:06.890034+01

 2017-02-08 11:17:17.793626+01 | 1486549037.79363 |                 0 |               5 |                  1980 |                  141 |             247209 |        593689 |             5921 |        13353810 |                     0 |      14530613 | 2017-02-08 10:56:06.890034+01

 2017-02-08 11:17:18.885261+01 | 1486549038.88526 |                 0 |               5 |                  1980 |                  141 |             247209 |        594289 |             5927 |        13416346 |                     0 |      14545404 | 2017-02-08 10:56:06.890034+01

 2017-02-08 11:17:19.970505+01 | 1486549039.9705 |                 0 |               5 |                  1980 |                  141 |             247209 |        594789 |             5932 |        13416346 |                     0 |      14558571 | 2017-02-08 10:56:06.890034+01

 2017-02-08 11:17:21.067659+01 | 1486549041.06766 |                 0 |               5 |                  1980 |                  141 |             247209 |        595389 |             5938 |        13416346 |                     0 |      14574171 | 2017-02-08 10:56:06.890034+01

 2017-02-08 11:17:22.157552+01 | 1486549042.15755 |                 0 |               5 |                  1980 |                  141 |             247209 |        595889 |             5943 |        13416346 |                     0 |      14586763 | 2017-02-08 10:56:06.890034+01

 2017-02-08 11:17:23.252781+01 | 1486549043.25278 |                 0 |               5 |                  1980 |                  141 |             247209 |        596389 |             5948 |        13416346 |                     0 |      14599728 | 2017-02-08 10:56:06.890034+01

 2017-02-08 11:17:24.355866+01 | 1486549044.35587 |                 0 |               5 |                  1980 |                  141 |             247209 |        596989 |             5954 |        13416346 |                     0 |      14615822 | 2017-02-08 10:56:06.890034+01

 2017-02-08 11:17:25.431494+01 | 1486549045.43149 |                 0 |               5 |                  1980 |                  141 |             247209 |        597489 |             5959 |        13478882 |                     0 |      14628566 | 2017-02-08 10:56:06.890034+01

 2017-02-08 11:17:26.52915+01 | 1486549046.52915 |                 0 |               5 |                  1980 |                  141 |             247209 |        598089 |             5965 |        13478882 |                     0 |      14644712 | 2017-02-08 10:56:06.890034+01

 2017-02-08 11:17:27.628737+01 | 1486549047.62874 |                 0 |               5 |                  1980 |                  141 |             247209 |        598589 |             5970 |        13478882 |                     0 |      14658315 | 2017-02-08 10:56:06.890034+01

 2017-02-08 11:17:28.737088+01 | 1486549048.73709 |                 0 |               5 |                  1980 |                  141 |             247209 |        599189 |             5976 |        13478882 |                     0 |      14673917 | 2017-02-08 10:56:06.890034+01

 2017-02-08 11:17:29.841746+01 | 1486549049.84175 |                 0 |               5 |                  1980 |                  141 |             247209 |        599689 |             5981 |        13478882 |                     0 |      14687516 | 2017-02-08 10:56:06.890034+01

 2017-02-08 11:17:30.954355+01 | 1486549050.95436 |                 0 |               5 |                  1980 |                  141 |             247209 |        600289 |             5987 |        13541604 |                     0 |      14703263 | 2017-02-08 10:56:06.890034+01

 2017-02-08 11:17:32.053757+01 | 1486549052.05376 |                 0 |               5 |                  1980 |                  141 |             247209 |        600789 |             5992 |        13541604 |                     0 |      14716971 | 2017-02-08 10:56:06.890034+01

 2017-02-08 11:17:33.139319+01 | 1486549053.13932 |                 0 |               5 |                  1980 |                  141 |             247209 |        601289 |             5997 |        13541604 |                     0 |      14729968 | 2017-02-08 10:56:06.890034+01

 2017-02-08 11:17:34.271832+01 | 1486549054.27183 |                 0 |               5 |                  1980 |                  141 |             247209 |        601889 |             6003 |        13541604 |                     0 |      14746496 | 2017-02-08 10:56:06.890034+01

 2017-02-08 11:17:35.346892+01 | 1486549055.34689 |                 0 |               5 |                  1980 |                  141 |             247209 |        602489 |             6009 |        13541604 |                     0 |      14762509 | 2017-02-08 10:56:06.890034+01

 2017-02-08 11:17:36.443482+01 | 1486549056.44348 |                 0 |               5 |                  1980 |                  141 |             247209 |        602989 |             6014 |        13604255 |                     0 |      14776137 | 2017-02-08 10:56:06.890034+01

 2017-02-08 11:17:37.525359+01 | 1486549057.52536 |                 0 |               5 |                  1980 |                  141 |             247209 |        603489 |             6019 |        13604255 |                     0 |      14789823 | 2017-02-08 10:56:06.890034+01

 2017-02-08 11:17:38.6074+01 | 1486549058.6074 |                 0 |               5 |                  1980 |                  141 |             247209 |        603989 |             6024 |        13604255 |                     0 |      14802774 | 2017-02-08 10:56:06.890034+01

 2017-02-08 11:17:39.720114+01 | 1486549059.72011 |                 0 |               5 |                  1980 |                  141 |             247209 |        604589 |             6030 |        13604255 |                     0 |      14818718 | 2017-02-08 10:56:06.890034+01

 2017-02-08 11:17:40.827098+01 | 1486549060.8271 |                 0 |               5 |                  1980 |                  141 |             247209 |        605189 |             6036 |        13604255 |                     0 |      14834103 | 2017-02-08 10:56:06.890034+01

 2017-02-08 11:17:41.943443+01 | 1486549061.94344 |                 0 |               5 |                  1980 |                  141 |             247209 |        605689 |             6041 |        13604255 |                     0 |      14847838 | 2017-02-08 10:56:06.890034+01

 2017-02-08 11:17:43.051755+01 | 1486549063.05175 |                 0 |               5 |                  1980 |                  141 |             247209 |        606289 |             6047 |        13666891 |                     0 |      14863724 | 2017-02-08 10:56:06.890034+01

 2017-02-08 11:17:44.152972+01 | 1486549064.15297 |                 0 |               5 |                  1980 |                  141 |             247209 |        606789 |             6052 |        13666891 |                     0 |      14877565 | 2017-02-08 10:56:06.890034+01

 2017-02-08 11:17:45.253234+01 | 1486549065.25323 |                 0 |               5 |                  1980 |                  141 |             247209 |        607389 |             6058 |        13666891 |                     0 |      14893825 | 2017-02-08 10:56:06.890034+01

 2017-02-08 11:17:46.363982+01 | 1486549066.36398 |                 0 |               5 |                  1980 |                  141 |             247209 |        607889 |             6063 |        13666891 |                     0 |      14907578 | 2017-02-08 10:56:06.890034+01

 2017-02-08 11:17:47.446298+01 | 1486549067.4463 |                 0 |               5 |                  1980 |                  141 |             247209 |        608489 |             6069 |        13666891 |                     0 |      14924169 | 2017-02-08 10:56:06.890034+01

 2017-02-08 11:17:48.535084+01 | 1486549068.53508 |                 0 |               5 |                  1980 |                  141 |             247209 |        608989 |             6074 |        13729630 |                     0 |      14937673 | 2017-02-08 10:56:06.890034+01

 2017-02-08 11:17:49.643855+01 | 1486549069.64386 |                 0 |               5 |                  1980 |                  141 |             247209 |        609489 |             6079 |        13729630 |                     0 |      14951778 | 2017-02-08 10:56:06.890034+01

 2017-02-08 11:17:50.721809+01 | 1486549070.72181 |                 0 |               5 |                  1980 |                  141 |             247209 |        610089 |             6085 |        13729630 |                     0 |      14968008 | 2017-02-08 10:56:06.890034+01

 2017-02-08 11:17:51.820796+01 | 1486549071.8208 |                 0 |               5 |                  1980 |                  141 |             247209 |        610589 |             6090 |        13729630 |                     0 |      14982317 | 2017-02-08 10:56:06.890034+01

 2017-02-08 11:17:52.916044+01 | 1486549072.91604 |                 0 |               5 |                  1980 |                  141 |             247209 |        611189 |             6096 |        13729630 |                     0 |      14998699 | 2017-02-08 10:56:06.890034+01

 2017-02-08 11:17:54.026305+01 | 1486549074.0263 |                 0 |               5 |                  1980 |                  141 |             247209 |        611689 |             6101 |        13792367 |                     0 |      15012509 | 2017-02-08 10:56:06.890034+01

 2017-02-08 11:17:55.118167+01 | 1486549075.11817 |                 0 |               5 |                  1980 |                  141 |             247209 |        612289 |             6107 |        13792367 |                     0 |      15028939 | 2017-02-08 10:56:06.890034+01

 2017-02-08 11:17:56.226366+01 | 1486549076.22637 |                 0 |               5 |                  1980 |                  141 |             247209 |        612789 |             6112 |        13792367 |                     0 |      15043088 | 2017-02-08 10:56:06.890034+01

 2017-02-08 11:17:57.336317+01 | 1486549077.33632 |                 0 |               5 |                  1980 |                  141 |             247209 |        613389 |             6118 |        13792367 |                     0 |      15059738 | 2017-02-08 10:56:06.890034+01

 2017-02-08 11:17:58.450512+01 | 1486549078.45051 |                 0 |               5 |                  1980 |                  141 |             247209 |        613889 |             6123 |        13792367 |                     0 |      15073913 | 2017-02-08 10:56:06.890034+01

 2017-02-08 11:17:59.545322+01 | 1486549079.54532 |                 0 |               5 |                  1980 |                  141 |             247209 |        614489 |             6129 |        13855203 |                     0 |      15090616 | 2017-02-08 10:56:06.890034+01

 2017-02-08 11:18:00.626033+01 | 1486549080.62603 |                 0 |               5 |                  1980 |                  141 |             247209 |        614989 |             6134 |        13855203 |                     0 |      15104866 | 2017-02-08 10:56:06.890034+01

 2017-02-08 11:18:01.730584+01 | 1486549081.73058 |                 0 |               5 |                  1980 |                  141 |             247209 |        615489 |             6139 |        13855203 |                     0 |      15118265 | 2017-02-08 10:56:06.890034+01

 2017-02-08 11:18:02.82436+01 | 1486549082.82436 |                 0 |               5 |                  1980 |                  141 |             247209 |        616089 |             6145 |        13855203 |                     0 |      15135556 | 2017-02-08 10:56:06.890034+01

 2017-02-08 11:18:03.963705+01 | 1486549083.96371 |                 0 |               5 |                  1980 |                  141 |             247209 |        616589 |             6150 |        13855203 |                     0 |      15149093 | 2017-02-08 10:56:06.890034+01

 2017-02-08 11:18:05.092558+01 | 1486549085.09256 |                 0 |               5 |                  1980 |                  141 |             247209 |        617189 |             6156 |        13917939 |                     0 |      15166506 | 2017-02-08 10:56:06.890034+01

 2017-02-08 11:18:06.205748+01 | 1486549086.20575 |                 0 |               5 |                  1980 |                  141 |             247209 |        617789 |             6162 |        13917939 |                     0 |      15183148 | 2017-02-08 10:56:06.890034+01

 2017-02-08 11:18:07.282599+01 | 1486549087.2826 |                 0 |               5 |                  1980 |                  141 |             247209 |        618289 |             6167 |        13917939 |                     0 |      15197238 | 2017-02-08 10:56:06.890034+01

 2017-02-08 11:18:08.390731+01 | 1486549088.39073 |                 0 |               5 |                  1980 |                  141 |             247209 |        618889 |             6173 |        13917939 |                     0 |      15214075 | 2017-02-08 10:56:06.890034+01

 2017-02-08 11:18:09.486531+01 | 1486549089.48653 |                 0 |               5 |                  1980 |                  141 |             247209 |        619389 |             6178 |        13917939 |                     0 |      15228544 | 2017-02-08 10:56:06.890034+01

 2017-02-08 11:18:10.654158+01 | 1486549090.65416 |                 0 |               5 |                  1980 |                  141 |             247209 |        619989 |             6184 |        13980775 |                     0 |      15244919 | 2017-02-08 10:56:06.890034+01

 2017-02-08 11:18:11.771099+01 | 1486549091.7711 |                 0 |               5 |                  1980 |                  141 |             247209 |        620489 |             6189 |        13980775 |                     0 |      15259404 | 2017-02-08 10:56:06.890034+01

 2017-02-08 11:18:12.901407+01 | 1486549092.90141 |                 0 |               5 |                  1980 |                  141 |             247209 |        621089 |             6195 |        13980775 |                     0 |      15275815 | 2017-02-08 10:56:06.890034+01

 2017-02-08 11:18:13.994069+01 | 1486549093.99407 |                 0 |               5 |                  1980 |                  141 |             247209 |        621689 |             6201 |        13980775 |                     0 |      15292237 | 2017-02-08 10:56:06.890034+01

 2017-02-08 11:18:15.121187+01 | 1486549095.12119 |                 0 |               5 |                  1980 |                  141 |             247209 |        622189 |             6206 |        13980775 |                     0 |      15306306 | 2017-02-08 10:56:06.890034+01

 2017-02-08 11:18:16.22791+01 | 1486549096.22791 |                 0 |               5 |                  1980 |                  141 |             247209 |        622789 |             6212 |        14043512 |                     0 |      15322489 | 2017-02-08 10:56:06.890034+01

 2017-02-08 11:18:17.369692+01 | 1486549097.36969 |                 0 |               5 |                  1980 |                  141 |             247209 |        623289 |             6217 |        14043512 |                     0 |      15336460 | 2017-02-08 10:56:06.890034+01

 2017-02-08 11:18:18.504642+01 | 1486549098.50464 |                 0 |               5 |                  1980 |                  141 |             247209 |        623889 |             6223 |        14043512 |                     0 |      15352844 | 2017-02-08 10:56:06.890034+01

 2017-02-08 11:18:19.604674+01 | 1486549099.60467 |                 0 |               5 |                  1980 |                  141 |             247209 |        624389 |             6228 |        14043512 |                     0 |      15366906 | 2017-02-08 10:56:06.890034+01

 2017-02-08 11:18:20.722599+01 | 1486549100.7226 |                 0 |               5 |                  1980 |                  141 |             247209 |        624989 |             6234 |        14043512 |                     0 |      15383495 | 2017-02-08 10:56:06.890034+01

 2017-02-08 11:18:21.814134+01 | 1486549101.81413 |                 0 |               5 |                  1980 |                  141 |             247209 |        625489 |             6239 |        14106348 |                     0 |      15397927 | 2017-02-08 10:56:06.890034+01

 2017-02-08 11:18:22.916691+01 | 1486549102.91669 |                 0 |               5 |                  1980 |                  141 |             247209 |        626089 |             6245 |        14106348 |                     0 |      15414448 | 2017-02-08 10:56:06.890034+01

 2017-02-08 11:18:23.992995+01 | 1486549103.993 |                 0 |               5 |                  1980 |                  141 |             247209 |        626589 |             6250 |        14106348 |                     0 |      15428856 | 2017-02-08 10:56:06.890034+01

 2017-02-08 11:18:25.10969+01 | 1486549105.10969 |                 0 |               5 |                  1980 |                  141 |             247209 |        627189 |             6256 |        14106348 |                     0 |      15445694 | 2017-02-08 10:56:06.890034+01

 2017-02-08 11:18:26.202372+01 | 1486549106.20237 |                 0 |               5 |                  1980 |                  141 |             247209 |        627689 |             6261 |        14106348 |                     0 |      15460175 | 2017-02-08 10:56:06.890034+01

 2017-02-08 11:18:27.320101+01 | 1486549107.3201 |                 0 |               5 |                  1980 |                  141 |             247209 |        628289 |             6267 |        14169184 |                     0 |      15476641 | 2017-02-08 10:56:06.890034+01

 2017-02-08 11:18:28.407865+01 | 1486549108.40787 |                 0 |               5 |                  1980 |                  141 |             247209 |        628789 |             6272 |        14169184 |                     0 |      15490664 | 2017-02-08 10:56:06.890034+01

 2017-02-08 11:18:29.539884+01 | 1486549109.53988 |                 0 |               5 |                  1980 |                  141 |             247209 |        629389 |             6278 |        14169184 |                     0 |      15507216 | 2017-02-08 10:56:06.890034+01

 2017-02-08 11:18:30.620511+01 | 1486549110.62051 |                 0 |               5 |                  1980 |                  141 |             247209 |        629889 |             6283 |        14169184 |                     0 |      15521556 | 2017-02-08 10:56:06.890034+01

 2017-02-08 11:18:31.761279+01 | 1486549111.76128 |                 0 |               5 |                  1980 |                  141 |             247209 |        630489 |             6289 |        14169184 |                     0 |      15538330 | 2017-02-08 10:56:06.890034+01

 2017-02-08 11:18:32.905589+01 | 1486549112.90559 |                 0 |               5 |                  1980 |                  141 |             247209 |        630989 |             6294 |        14231920 |                     0 |      15552661 | 2017-02-08 10:56:06.890034+01

 2017-02-08 11:18:34.031631+01 | 1486549114.03163 |                 0 |               5 |                  1980 |                  141 |             247209 |        631589 |             6300 |        14231920 |                     0 |      15569565 | 2017-02-08 10:56:06.890034+01

 2017-02-08 11:18:35.166354+01 | 1486549115.16635 |                 0 |               5 |                  1980 |                  141 |             247209 |        632189 |             6306 |        14231920 |                     0 |      15586198 | 2017-02-08 10:56:06.890034+01

 2017-02-08 11:18:36.282427+01 | 1486549116.28243 |                 0 |               5 |                  1980 |                  141 |             247209 |        632689 |             6311 |        14231920 |                     0 |      15600664 | 2017-02-08 10:56:06.890034+01

 2017-02-08 11:18:37.400875+01 | 1486549117.40088 |                 0 |               5 |                  1980 |                  141 |             247209 |        633289 |             6317 |        14231920 |                     0 |      15617363 | 2017-02-08 10:56:06.890034+01

 2017-02-08 11:18:38.49977+01 | 1486549118.49977 |                 0 |               5 |                  1980 |                  141 |             247209 |        633689 |             6321 |        14294756 |                     0 |      15628757 | 2017-02-08 10:56:06.890034+01

 2017-02-08 11:18:39.616604+01 | 1486549119.6166 |                 0 |               5 |                  1980 |                  141 |             247209 |        634389 |             6328 |        14294756 |                     0 |      15648403 | 2017-02-08 10:56:06.890034+01

 2017-02-08 11:18:40.740773+01 | 1486549120.74077 |                 0 |               5 |                  1980 |                  141 |             247209 |        634889 |             6333 |        14294756 |                     0 |      15662485 | 2017-02-08 10:56:06.890034+01

 2017-02-08 11:18:41.868685+01 | 1486549121.86869 |                 0 |               5 |                  1980 |                  141 |             247209 |        635489 |             6339 |        14294756 |                     0 |      15678386 | 2017-02-08 10:56:06.890034+01

 2017-02-08 11:18:43.0348+01 | 1486549123.0348 |                 0 |               5 |                  1980 |                  141 |             247209 |        636089 |             6345 |        14294756 |                     0 |      15694704 | 2017-02-08 10:56:06.890034+01

 2017-02-08 11:18:44.172532+01 | 1486549124.17253 |                 0 |               5 |                  1980 |                  141 |             247209 |        636589 |             6350 |        14357492 |                     0 |      15707938 | 2017-02-08 10:56:06.890034+01

 2017-02-08 11:18:45.307564+01 | 1486549125.30756 |                 0 |               5 |                  1980 |                  141 |             247209 |        637189 |             6356 |        14357492 |                     0 |      15723650 | 2017-02-08 10:56:06.890034+01

 2017-02-08 11:18:46.416981+01 | 1486549126.41698 |                 0 |               5 |                  1980 |                  141 |             247209 |        637789 |             6362 |        14357492 |                     0 |      15740598 | 2017-02-08 10:56:06.890034+01

 2017-02-08 11:18:47.545129+01 | 1486549127.54513 |                 0 |               5 |                  1980 |                  141 |             247209 |        638289 |             6367 |        14357492 |                     0 |      15754907 | 2017-02-08 10:56:06.890034+01

 2017-02-08 11:18:48.67259+01 | 1486549128.67259 |                 0 |               5 |                  1980 |                  141 |             247209 |        638889 |             6373 |        14357492 |                     0 |      15771626 | 2017-02-08 10:56:06.890034+01

 2017-02-08 11:18:49.797185+01 | 1486549129.79718 |                 0 |               5 |                  1980 |                  141 |             247209 |        639389 |             6378 |        14420128 |                     0 |      15786310 | 2017-02-08 10:56:06.890034+01

 2017-02-08 11:18:50.939396+01 | 1486549130.9394 |                 0 |               5 |                  1980 |                  141 |             247209 |        639989 |             6384 |        14420128 |                     0 |      15803097 | 2017-02-08 10:56:06.890034+01

 2017-02-08 11:18:52.046387+01 | 1486549132.04639 |                 0 |               5 |                  1980 |                  141 |             247209 |        640589 |             6390 |        14420128 |                     0 |      15820897 | 2017-02-08 10:56:06.890034+01

 2017-02-08 11:18:53.155332+01 | 1486549133.15533 |                 0 |               5 |                  1980 |                  141 |             247209 |        641089 |             6395 |        14420128 |                     0 |      15834535 | 2017-02-08 10:56:06.890034+01

 2017-02-08 11:18:54.234515+01 | 1486549134.23451 |                 0 |               5 |                  1980 |                  141 |             247209 |        641689 |             6401 |        14482964 |                     0 |      15851488 | 2017-02-08 10:56:06.890034+01

 2017-02-08 11:18:55.354194+01 | 1486549135.35419 |                 0 |               5 |                  1980 |                  141 |             247209 |        642189 |             6406 |        14482964 |                     0 |      15866351 | 2017-02-08 10:56:06.890034+01

 2017-02-08 11:18:56.481194+01 | 1486549136.48119 |                 0 |               5 |                  1980 |                  141 |             247209 |        642789 |             6412 |        14482964 |                     0 |      15882965 | 2017-02-08 10:56:06.890034+01

 2017-02-08 11:18:57.603431+01 | 1486549137.60343 |                 0 |               5 |                  1980 |                  141 |             247209 |        643289 |             6417 |        14482964 |                     0 |      15897617 | 2017-02-08 10:56:06.890034+01

 2017-02-08 11:18:58.733912+01 | 1486549138.73391 |                 0 |               5 |                  1980 |                  141 |             247209 |        643889 |             6423 |        14482964 |                     0 |      15914469 | 2017-02-08 10:56:06.890034+01

 2017-02-08 11:18:59.815619+01 | 1486549139.81562 |                 0 |               5 |                  1980 |                  141 |             247209 |        644389 |             6428 |        14545901 |                     0 |      15929322 | 2017-02-08 10:56:06.890034+01

 2017-02-08 11:19:00.941528+01 | 1486549140.94153 |                 0 |               5 |                  1980 |                  141 |             247209 |        644989 |             6434 |        14545901 |                     0 |      15946449 | 2017-02-08 10:56:06.890034+01

 2017-02-08 11:19:02.066883+01 | 1486549142.06688 |                 0 |               5 |                  1980 |                  141 |             247209 |        645489 |             6439 |        14545901 |                     0 |      15960875 | 2017-02-08 10:56:06.890034+01

 2017-02-08 11:19:03.190327+01 | 1486549143.19033 |                 0 |               5 |                  1980 |                  141 |             247209 |        646089 |             6445 |        14545901 |                     0 |      15977693 | 2017-02-08 10:56:06.890034+01

 2017-02-08 11:19:04.316381+01 | 1486549144.31638 |                 0 |               5 |                  1980 |                  141 |             247209 |        646689 |             6451 |        14545901 |                     0 |      15994058 | 2017-02-08 10:56:06.890034+01

 2017-02-08 11:19:05.475983+01 | 1486549145.47598 |                 0 |               5 |                  1980 |                  141 |             247209 |        647189 |             6456 |        14608738 |                     0 |      16008724 | 2017-02-08 10:56:06.890034+01

 2017-02-08 11:19:06.616136+01 | 1486549146.61614 |                 0 |               5 |                  1980 |                  141 |             247209 |        647789 |             6462 |        14608738 |                     0 |      16025820 | 2017-02-08 10:56:06.890034+01

 2017-02-08 11:19:07.735688+01 | 1486549147.73569 |                 0 |               5 |                  1980 |                  141 |             247209 |        648389 |             6468 |        14608738 |                     0 |      16042945 | 2017-02-08 10:56:06.890034+01

 2017-02-08 11:19:08.86862+01 | 1486549148.86862 |                 0 |               5 |                  1980 |                  141 |             247209 |        648889 |             6473 |        14608738 |                     0 |      16057105 | 2017-02-08 10:56:06.890034+01

 2017-02-08 11:19:09.986244+01 | 1486549149.98624 |                 0 |               5 |                  1980 |                  141 |             247209 |        649489 |             6479 |        14608738 |                     0 |      16073752 | 2017-02-08 10:56:06.890034+01

 2017-02-08 11:19:11.112162+01 | 1486549151.11216 |                 0 |               5 |                  1980 |                  141 |             247209 |        649989 |             6484 |        14671575 |                     0 |      16088299 | 2017-02-08 10:56:06.890034+01

 2017-02-08 11:19:12.230166+01 | 1486549152.23017 |                 0 |               5 |                  1980 |                  141 |             247209 |        650589 |             6490 |        14671575 |                     0 |      16105051 | 2017-02-08 10:56:06.890034+01

 2017-02-08 11:19:13.323388+01 | 1486549153.32339 |                 0 |               5 |                  1980 |                  141 |             247209 |        651189 |             6496 |        14671575 |                     0 |      16122654 | 2017-02-08 10:56:06.890034+01

 2017-02-08 11:19:14.435945+01 | 1486549154.43595 |                 0 |               5 |                  1980 |                  141 |             247209 |        651689 |             6501 |        14671575 |                     0 |      16136226 | 2017-02-08 10:56:06.890034+01

 2017-02-08 11:19:15.520437+01 | 1486549155.52044 |                 0 |               5 |                  1980 |                  141 |             247209 |        652289 |             6507 |        14671575 |                     0 |      16153835 | 2017-02-08 10:56:06.890034+01

 2017-02-08 11:19:16.629352+01 | 1486549156.62935 |                 0 |               5 |                  1980 |                  141 |             247209 |        652789 |             6512 |        14734412 |                     0 |      16167774 | 2017-02-08 10:56:06.890034+01

 2017-02-08 11:19:17.711766+01 | 1486549157.71177 |                 0 |               5 |                  1980 |                  141 |             247209 |        653289 |             6517 |        14734412 |                     0 |      16182294 | 2017-02-08 10:56:06.890034+01

 2017-02-08 11:19:18.834604+01 | 1486549158.8346 |                 0 |               5 |                  1980 |                  141 |             247209 |        653889 |             6523 |        14734412 |                     0 |      16198843 | 2017-02-08 10:56:06.890034+01

 2017-02-08 11:19:19.921753+01 | 1486549159.92175 |                 0 |               5 |                  1980 |                  141 |             247209 |        654389 |             6528 |        14734412 |                     0 |      16213475 | 2017-02-08 10:56:06.890034+01

 2017-02-08 11:19:21.035128+01 | 1486549161.03513 |                 0 |               5 |                  1980 |                  141 |             247209 |        654989 |             6534 |        14734412 |                     0 |      16230296 | 2017-02-08 10:56:06.890034+01

 2017-02-08 11:19:22.145231+01 | 1486549162.14523 |                 0 |               5 |                  1980 |                  141 |             247209 |        655489 |             6539 |        14797248 |                     0 |      16244672 | 2017-02-08 10:56:06.890034+01

 2017-02-08 11:19:23.26006+01 | 1486549163.26006 |                 0 |               5 |                  1980 |                  141 |             247209 |        656089 |             6545 |        14797248 |                     0 |      16261602 | 2017-02-08 10:56:06.890034+01

 2017-02-08 11:19:24.379982+01 | 1486549164.37998 |                 0 |               5 |                  1980 |                  141 |             247209 |        656689 |             6551 |        14797248 |                     0 |      16278339 | 2017-02-08 10:56:06.890034+01

 2017-02-08 11:19:25.491165+01 | 1486549165.49116 |                 0 |               5 |                  1980 |                  141 |             247209 |        657189 |             6556 |        14797248 |                     0 |      16293058 | 2017-02-08 10:56:06.890034+01

 2017-02-08 11:19:26.602898+01 | 1486549166.6029 |                 0 |               5 |                  1980 |                  141 |             247209 |        657789 |             6562 |        14797248 |                     0 |      16310297 | 2017-02-08 10:56:06.890034+01

 2017-02-08 11:19:27.688416+01 | 1486549167.68842 |                 0 |               5 |                  1980 |                  141 |             247209 |        658289 |             6567 |        14860085 |                     0 |      16324997 | 2017-02-08 10:56:06.890034+01

 2017-02-08 11:19:28.790207+01 | 1486549168.79021 |                 0 |               5 |                  1980 |                  141 |             247209 |        658789 |             6572 |        14860085 |                     0 |      16338868 | 2017-02-08 10:56:06.890034+01

 2017-02-08 11:19:29.857444+01 | 1486549169.85744 |                 0 |               5 |                  1980 |                  141 |             247209 |        659389 |             6578 |        14860085 |                     0 |      16356849 | 2017-02-08 10:56:06.890034+01

 2017-02-08 11:19:30.984299+01 | 1486549170.9843 |                 0 |               5 |                  1980 |                  141 |             247209 |        659889 |             6583 |        14860085 |                     0 |      16370649 | 2017-02-08 10:56:06.890034+01

 2017-02-08 11:19:32.150615+01 | 1486549172.15061 |                 0 |               5 |                  1980 |                  141 |             247209 |        660489 |             6589 |        14923022 |                     0 |      16387909 | 2017-02-08 10:56:06.890034+01

 2017-02-08 11:19:33.277248+01 | 1486549173.27725 |                 0 |               5 |                  1980 |                  141 |             247209 |        661089 |             6595 |        14923022 |                     0 |      16405491 | 2017-02-08 10:56:06.890034+01

 2017-02-08 11:19:34.361828+01 | 1486549174.36183 |                 0 |               5 |                  1980 |                  141 |             247209 |        661589 |             6600 |        14923022 |                     0 |      16419515 | 2017-02-08 10:56:06.890034+01

 2017-02-08 11:19:35.472509+01 | 1486549175.47251 |                 0 |               5 |                  1980 |                  141 |             247209 |        662189 |             6606 |        14923022 |                     0 |      16437240 | 2017-02-08 10:56:06.890034+01

 2017-02-08 11:19:36.564243+01 | 1486549176.56424 |                 0 |               5 |                  1980 |                  141 |             247209 |        662689 |             6611 |        14923022 |                     0 |      16450705 | 2017-02-08 10:56:06.890034+01

 2017-02-08 11:19:37.638637+01 | 1486549177.63864 |                 0 |               5 |                  1980 |                  141 |             247209 |        663289 |             6617 |        14985859 |                     0 |      16468393 | 2017-02-08 10:56:06.890034+01

 2017-02-08 11:19:38.726802+01 | 1486549178.7268 |                 0 |               5 |                  1980 |                  141 |             247209 |        663689 |             6621 |        14985859 |                     0 |      16479632 | 2017-02-08 10:56:06.890034+01

 2017-02-08 11:19:39.873478+01 | 1486549179.87348 |                 0 |               5 |                  1980 |                  141 |             247209 |        664289 |             6627 |        14985859 |                     0 |      16496543 | 2017-02-08 10:56:06.890034+01

 2017-02-08 11:19:40.990267+01 | 1486549180.99027 |                 0 |               5 |                  1980 |                  141 |             247209 |        664889 |             6633 |        14985859 |                     0 |      16513030 | 2017-02-08 10:56:06.890034+01

 2017-02-08 11:19:42.13317+01 | 1486549182.13317 |                 0 |               5 |                  1980 |                  141 |             247209 |        665489 |             6639 |        14985859 |                     0 |      16529919 | 2017-02-08 10:56:06.890034+01

 2017-02-08 11:19:43.283184+01 | 1486549183.28318 |                 0 |               5 |                  1980 |                  141 |             247209 |        665989 |             6644 |        15048495 |                     0 |      16543738 | 2017-02-08 10:56:06.890034+01

 2017-02-08 11:19:44.458232+01 | 1486549184.45823 |                 0 |               5 |                  1980 |                  141 |             247209 |        666589 |             6650 |        15048495 |                     0 |      16559649 | 2017-02-08 10:56:06.890034+01

 2017-02-08 11:19:45.590659+01 | 1486549185.59066 |                 0 |               5 |                  1980 |                  141 |             247209 |        667189 |             6656 |        15048495 |                     0 |      16575205 | 2017-02-08 10:56:06.890034+01

 2017-02-08 11:19:46.780398+01 | 1486549186.7804 |                 0 |               5 |                  1980 |                  141 |             247209 |        667789 |             6662 |        15048495 |                     0 |      16590581 | 2017-02-08 10:56:06.890034+01

 2017-02-08 11:19:47.909893+01 | 1486549187.90989 |                 0 |               5 |                  1980 |                  141 |             247209 |        668289 |             6667 |        15048495 |                     0 |      16603853 | 2017-02-08 10:56:06.890034+01

 2017-02-08 11:19:49.011384+01 | 1486549189.01138 |                 0 |               5 |                  1980 |                  141 |             247209 |        668889 |             6673 |        15111131 |                     0 |      16620990 | 2017-02-08 10:56:06.890034+01

 2017-02-08 11:19:50.151801+01 | 1486549190.1518 |                 0 |               5 |                  1980 |                  141 |             247209 |        669389 |             6678 |        15111131 |                     0 |      16635437 | 2017-02-08 10:56:06.890034+01

 2017-02-08 11:19:51.265088+01 | 1486549191.26509 |                 0 |               5 |                  1980 |                  141 |             247209 |        669989 |             6684 |        15111131 |                     0 |      16652779 | 2017-02-08 10:56:06.890034+01

 2017-02-08 11:19:52.377321+01 | 1486549192.37732 |                 0 |               5 |                  1980 |                  141 |             247209 |        670589 |             6690 |        15111131 |                     0 |      16669930 | 2017-02-08 10:56:06.890034+01

 2017-02-08 11:19:53.480537+01 | 1486549193.48054 |                 0 |               5 |                  1980 |                  141 |             247209 |        671089 |             6695 |        15111131 |                     0 |      16684665 | 2017-02-08 10:56:06.890034+01

 2017-02-08 11:19:54.580744+01 | 1486549194.58074 |                 0 |               5 |                  1980 |                  141 |             247209 |        671689 |             6701 |        15173967 |                     0 |      16701757 | 2017-02-08 10:56:06.890034+01

 2017-02-08 11:19:55.677799+01 | 1486549195.6778 |                 0 |               5 |                  1980 |                  141 |             247209 |        672189 |             6706 |        15173967 |                     0 |      16716338 | 2017-02-08 10:56:06.890034+01

 2017-02-08 11:19:56.76737+01 | 1486549196.76737 |                 0 |               5 |                  1980 |                  141 |             247209 |        672789 |             6712 |        15173967 |                     0 |      16733539 | 2017-02-08 10:56:06.890034+01

 2017-02-08 11:19:57.869214+01 | 1486549197.86921 |                 0 |               5 |                  1980 |                  141 |             247209 |        673289 |             6717 |        15173967 |                     0 |      16747309 | 2017-02-08 10:56:06.890034+01

 2017-02-08 11:19:58.984378+01 | 1486549198.98438 |                 0 |               5 |                  1980 |                  141 |             247209 |        673789 |             6722 |        15173967 |                     0 |      16761776 | 2017-02-08 10:56:06.890034+01

 2017-02-08 11:20:00.108994+01 | 1486549200.10899 |                 0 |               5 |                  1980 |                  141 |             247209 |        674389 |             6728 |        15236904 |                     0 |      16778689 | 2017-02-08 10:56:06.890034+01

 2017-02-08 11:20:01.237281+01 | 1486549201.23728 |                 0 |               5 |                  1980 |                  141 |             247209 |        674989 |             6734 |        15236904 |                     0 |      16796643 | 2017-02-08 10:56:06.890034+01

 2017-02-08 11:20:02.361604+01 | 1486549202.3616 |                 0 |               5 |                  1980 |                  141 |             247209 |        675489 |             6739 |        15236904 |                     0 |      16810528 | 2017-02-08 10:56:06.890034+01

 2017-02-08 11:20:03.462537+01 | 1486549203.46254 |                 0 |               5 |                  1980 |                  141 |             247209 |        676089 |             6745 |        15236904 |                     0 |      16827684 | 2017-02-08 10:56:06.890034+01

 2017-02-08 11:20:04.574582+01 | 1486549204.57458 |                 0 |               5 |                  1980 |                  141 |             247209 |        676589 |             6750 |        15236904 |                     0 |      16842345 | 2017-02-08 10:56:06.890034+01

 2017-02-08 11:20:05.692841+01 | 1486549205.69284 |                 0 |               5 |                  1980 |                  141 |             247209 |        677189 |             6756 |        15299841 |                     0 |      16859203 | 2017-02-08 10:56:06.890034+01

 2017-02-08 11:20:06.822463+01 | 1486549206.82246 |                 0 |               5 |                  1980 |                  141 |             247209 |        677689 |             6761 |        15299841 |                     0 |      16873893 | 2017-02-08 10:56:06.890034+01

 2017-02-08 11:20:07.940433+01 | 1486549207.94043 |                 0 |               5 |                  1980 |                  141 |             247209 |        678289 |             6767 |        15299841 |                     0 |      16891035 | 2017-02-08 10:56:06.890034+01

 2017-02-08 11:20:09.078388+01 | 1486549209.07839 |                 0 |               5 |                  1980 |                  141 |             247209 |        678889 |             6773 |        15299841 |                     0 |      16908489 | 2017-02-08 10:56:06.890034+01

 2017-02-08 11:20:10.162893+01 | 1486549210.16289 |                 0 |               5 |                  1980 |                  141 |             247209 |        679389 |             6778 |        15299841 |                     0 |      16922728 | 2017-02-08 10:56:06.890034+01

 2017-02-08 11:20:11.255614+01 | 1486549211.25561 |                 0 |               5 |                  1980 |                  141 |             247209 |        679989 |             6784 |        15362677 |                     0 |      16939605 | 2017-02-08 10:56:06.890034+01

 2017-02-08 11:20:12.350905+01 | 1486549212.3509 |                 0 |               5 |                  1980 |                  141 |             247209 |        680489 |             6789 |        15362677 |                     0 |      16954104 | 2017-02-08 10:56:06.890034+01

 2017-02-08 11:20:13.457829+01 | 1486549213.45783 |                 0 |               5 |                  1980 |                  141 |             247209 |        681089 |             6795 |        15362677 |                     0 |      16970964 | 2017-02-08 10:56:06.890034+01

 2017-02-08 11:20:14.565059+01 | 1486549214.56506 |                 0 |               5 |                  1980 |                  141 |             247209 |        681589 |             6800 |        15362677 |                     0 |      16985732 | 2017-02-08 10:56:06.890034+01

 2017-02-08 11:20:15.707788+01 | 1486549215.70779 |                 0 |               5 |                  1980 |                  141 |             247209 |        682089 |             6805 |        15362677 |                     0 |      16999182 | 2017-02-08 10:56:06.890034+01

 2017-02-08 11:20:16.805659+01 | 1486549216.80566 |                 0 |               5 |                  1980 |                  141 |             247209 |        682689 |             6811 |        15425548 |                     0 |      17016927 | 2017-02-08 10:56:06.890034+01

 2017-02-08 11:20:17.922977+01 | 1486549217.92298 |                 0 |               5 |                  1980 |                  141 |             247209 |        683289 |             6817 |        15425548 |                     0 |      17033908 | 2017-02-08 10:56:06.890034+01

 2017-02-08 11:20:19.016027+01 | 1486549219.01603 |                 0 |               5 |                  1980 |                  141 |             247209 |        683789 |             6822 |        15425548 |                     0 |      17048457 | 2017-02-08 10:56:06.890034+01

 2017-02-08 11:20:20.127266+01 | 1486549220.12727 |                 0 |               5 |                  1980 |                  141 |             247209 |        684389 |             6828 |        15425548 |                     0 |      17065284 | 2017-02-08 10:56:06.890034+01

 2017-02-08 11:20:21.252359+01 | 1486549221.25236 |                 0 |               5 |                  1980 |                  141 |             247209 |        684889 |             6833 |        15488484 |                     0 |      17079497 | 2017-02-08 10:56:06.890034+01

 2017-02-08 11:20:22.373157+01 | 1486549222.37316 |                 0 |               5 |                  1980 |                  141 |             247209 |        685489 |             6839 |        15488484 |                     0 |      17096929 | 2017-02-08 10:56:06.890034+01

 2017-02-08 11:20:23.510862+01 | 1486549223.51086 |                 0 |               5 |                  1980 |                  141 |             247209 |        685989 |             6844 |        15488484 |                     0 |      17110241 | 2017-02-08 10:56:06.890034+01

 2017-02-08 11:20:24.601629+01 | 1486549224.60163 |                 0 |               5 |                  1980 |                  141 |             247209 |        686589 |             6850 |        15488484 |                     0 |      17128175 | 2017-02-08 10:56:06.890034+01

 2017-02-08 11:20:25.728695+01 | 1486549225.72869 |                 0 |               5 |                  1980 |                  141 |             247209 |        687089 |             6855 |        15488484 |                     0 |      17141966 | 2017-02-08 10:56:06.890034+01

 2017-02-08 11:20:26.789963+01 | 1486549226.78996 |                 0 |               5 |                  1980 |                  141 |             247209 |        687689 |             6861 |        15551322 |                     0 |      17159360 | 2017-02-08 10:56:06.890034+01

 2017-02-08 11:20:27.908587+01 | 1486549227.90859 |                 0 |               5 |                  1980 |                  141 |             247209 |        688189 |             6866 |        15551322 |                     0 |      17173157 | 2017-02-08 10:56:06.890034+01

 2017-02-08 11:20:28.984235+01 | 1486549228.98424 |                 0 |               5 |                  1980 |                  141 |             247209 |        688789 |             6872 |        15551322 |                     0 |      17190761 | 2017-02-08 10:56:06.890034+01

 2017-02-08 11:20:30.090695+01 | 1486549230.09069 |                 0 |               5 |                  1980 |                  141 |             247209 |        689289 |             6877 |        15551322 |                     0 |      17204694 | 2017-02-08 10:56:06.890034+01

 2017-02-08 11:20:31.207056+01 | 1486549231.20706 |                 0 |               5 |                  1980 |                  141 |             247209 |        689889 |             6883 |        15551322 |                     0 |      17222116 | 2017-02-08 10:56:06.890034+01

 2017-02-08 11:20:32.328149+01 | 1486549232.32815 |                 0 |               5 |                  1980 |                  141 |             247209 |        690389 |             6888 |        15614158 |                     0 |      17235672 | 2017-02-08 10:56:06.890034+01

 2017-02-08 11:20:33.422227+01 | 1486549233.42223 |                 0 |               5 |                  1980 |                  141 |             247209 |        690989 |             6894 |        15614158 |                     0 |      17253567 | 2017-02-08 10:56:06.890034+01

 2017-02-08 11:20:34.505583+01 | 1486549234.50558 |                 0 |               5 |                  1980 |                  141 |             247209 |        691489 |             6899 |        15614158 |                     0 |      17267136 | 2017-02-08 10:56:06.890034+01

 2017-02-08 11:20:35.579906+01 | 1486549235.57991 |                 0 |               5 |                  1980 |                  141 |             247209 |        692089 |             6905 |        15614158 |                     0 |      17284675 | 2017-02-08 10:56:06.890034+01

 2017-02-08 11:20:36.662067+01 | 1486549236.66207 |                 0 |               5 |                  1980 |                  141 |             247209 |        692589 |             6910 |        15614158 |                     0 |      17298486 | 2017-02-08 10:56:06.890034+01

 2017-02-08 11:20:37.716354+01 | 1486549237.71635 |                 0 |               5 |                  1980 |                  141 |             247209 |        693089 |             6915 |        15676995 |                     0 |      17312922 | 2017-02-08 10:56:06.890034+01

 2017-02-08 11:20:38.836142+01 | 1486549238.83614 |                 0 |               5 |                  1980 |                  141 |             247209 |        693689 |             6921 |        15676995 |                     0 |      17329919 | 2017-02-08 10:56:06.890034+01

 2017-02-08 11:20:39.924018+01 | 1486549239.92402 |                 0 |               5 |                  1980 |                  141 |             247209 |        694189 |             6926 |        15676995 |                     0 |      17344747 | 2017-02-08 10:56:06.890034+01

 2017-02-08 11:20:41.064648+01 | 1486549241.06465 |                 0 |               5 |                  1980 |                  141 |             247209 |        694789 |             6932 |        15676995 |                     0 |      17361888 | 2017-02-08 10:56:06.890034+01

 2017-02-08 11:20:42.176308+01 | 1486549242.17631 |                 0 |               5 |                  1980 |                  141 |             247209 |        695289 |             6937 |        15676995 |                     0 |      17376855 | 2017-02-08 10:56:06.890034+01

 2017-02-08 11:20:43.314481+01 | 1486549243.31448 |                 0 |               5 |                  1980 |                  141 |             247209 |        695889 |             6943 |        15739731 |                     0 |      17393774 | 2017-02-08 10:56:06.890034+01

 2017-02-08 11:20:44.450184+01 | 1486549244.45018 |                 0 |               5 |                  1980 |                  141 |             247209 |        696489 |             6949 |        15739731 |                     0 |      17411800 | 2017-02-08 10:56:06.890034+01

 2017-02-08 11:20:45.528913+01 | 1486549245.52891 |                 0 |               5 |                  1980 |                  141 |             247209 |        696989 |             6954 |        15739731 |                     0 |      17426061 | 2017-02-08 10:56:06.890034+01

 2017-02-08 11:20:46.635226+01 | 1486549246.63523 |                 0 |               5 |                  1980 |                  141 |             247209 |        697589 |             6960 |        15739731 |                     0 |      17443399 | 2017-02-08 10:56:06.890034+01

 2017-02-08 11:20:47.752636+01 | 1486549247.75264 |                 0 |               5 |                  1980 |                  141 |             247209 |        698089 |             6965 |        15739731 |                     0 |      17456515 | 2017-02-08 10:56:06.890034+01

 2017-02-08 11:20:48.878253+01 | 1486549248.87825 |                 0 |               5 |                  1980 |                  141 |             247209 |        698689 |             6971 |        15802367 |                     0 |      17473065 | 2017-02-08 10:56:06.890034+01

 2017-02-08 11:20:50.017615+01 | 1486549250.01762 |                 0 |               5 |                  1980 |                  141 |             247209 |        699189 |             6976 |        15802367 |                     0 |      17486549 | 2017-02-08 10:56:06.890034+01

 2017-02-08 11:20:51.138871+01 | 1486549251.13887 |                 0 |               5 |                  1980 |                  141 |             247209 |        699789 |             6982 |        15802367 |                     0 |      17501765 | 2017-02-08 10:56:06.890034+01

 2017-02-08 11:20:52.272381+01 | 1486549252.27238 |                 0 |               5 |                  1980 |                  141 |             247209 |        700389 |             6988 |        15802367 |                     0 |      17517309 | 2017-02-08 10:56:06.890034+01

 2017-02-08 11:20:53.408609+01 | 1486549253.40861 |                 0 |               5 |                  1980 |                  141 |             247209 |        700889 |             6993 |        15802367 |                     0 |      17529473 | 2017-02-08 10:56:06.890034+01

 2017-02-08 11:20:54.526289+01 | 1486549254.52629 |                 0 |               5 |                  1980 |                  141 |             247209 |        701489 |             6999 |        15802367 |                     0 |      17544480 | 2017-02-08 10:56:06.890034+01

 2017-02-08 11:20:55.610957+01 | 1486549255.61096 |                 0 |               5 |                  1980 |                  141 |             247209 |        701989 |             7004 |        15864905 |                     0 |      17556962 | 2017-02-08 10:56:06.890034+01

 2017-02-08 11:20:56.734676+01 | 1486549256.73468 |                 0 |               5 |                  1980 |                  141 |             247209 |        702589 |             7010 |        15864905 |                     0 |      17574157 | 2017-02-08 10:56:06.890034+01

 2017-02-08 11:20:57.826129+01 | 1486549257.82613 |                 0 |               5 |                  1980 |                  141 |             247209 |        703089 |             7015 |        15864905 |                     0 |      17588973 | 2017-02-08 10:56:06.890034+01

 2017-02-08 11:20:58.943807+01 | 1486549258.94381 |                 0 |               5 |                  1980 |                  141 |             247209 |        703689 |             7021 |        15864905 |                     0 |      17606241 | 2017-02-08 10:56:06.890034+01

 2017-02-08 11:21:00.099558+01 | 1486549260.09956 |                 0 |               5 |                  1980 |                  141 |             247209 |        704189 |             7026 |        15864905 |                     0 |      17620984 | 2017-02-08 10:56:06.890034+01

 2017-02-08 11:21:01.211343+01 | 1486549261.21134 |                 0 |               5 |                  1980 |                  141 |             247209 |        704789 |             7032 |        15927742 |                     0 |      17638455 | 2017-02-08 10:56:06.890034+01

 2017-02-08 11:21:02.317311+01 | 1486549262.31731 |                 0 |               5 |                  1980 |                  141 |             247209 |        705389 |             7038 |        15927742 |                     0 |      17655431 | 2017-02-08 10:56:06.890034+01

 2017-02-08 11:21:03.398389+01 | 1486549263.39839 |                 0 |               5 |                  1980 |                  141 |             247209 |        705889 |             7043 |        15927742 |                     0 |      17670299 | 2017-02-08 10:56:06.890034+01

 2017-02-08 11:21:04.496628+01 | 1486549264.49663 |                 0 |               5 |                  1980 |                  141 |             247209 |        706389 |             7048 |        15927742 |                     0 |      17684239 | 2017-02-08 10:56:06.890034+01

 2017-02-08 11:21:05.627213+01 | 1486549265.62721 |                 0 |               5 |                  1980 |                  141 |             247209 |        706989 |             7054 |        15990678 |                     0 |      17701557 | 2017-02-08 10:56:06.890034+01

 2017-02-08 11:21:06.71806+01 | 1486549266.71806 |                 0 |               5 |                  1980 |                  141 |             247209 |        707489 |             7059 |        15990678 |                     0 |      17716546 | 2017-02-08 10:56:06.890034+01

 2017-02-08 11:21:07.866315+01 | 1486549267.86631 |                 0 |               5 |                  1980 |                  141 |             247209 |        708089 |             7065 |        15990678 |                     0 |      17733522 | 2017-02-08 10:56:06.890034+01

 2017-02-08 11:21:09.015534+01 | 1486549269.01553 |                 0 |               5 |                  1980 |                  141 |             247209 |        708689 |             7071 |        15990678 |                     0 |      17750630 | 2017-02-08 10:56:06.890034+01

 2017-02-08 11:21:10.136251+01 | 1486549270.13625 |                 0 |               5 |                  1980 |                  141 |             247209 |        709189 |             7076 |        15990678 |                     0 |      17765329 | 2017-02-08 10:56:06.890034+01

 2017-02-08 11:21:11.243133+01 | 1486549271.24313 |                 0 |               5 |                  1980 |                  141 |             247209 |        709789 |             7082 |        16053614 |                     0 |      17782453 | 2017-02-08 10:56:06.890034+01

 2017-02-08 11:21:12.332706+01 | 1486549272.33271 |                 0 |               5 |                  1980 |                  141 |             247209 |        710289 |             7087 |        16053614 |                     0 |      17797025 | 2017-02-08 10:56:06.890034+01

 2017-02-08 11:21:13.467887+01 | 1486549273.46789 |                 0 |               5 |                  1980 |                  141 |             247209 |        710889 |             7093 |        16053614 |                     0 |      17813794 | 2017-02-08 10:56:06.890034+01

 2017-02-08 11:21:14.586953+01 | 1486549274.58695 |                 0 |               5 |                  1980 |                  141 |             247209 |        711389 |             7098 |        16053614 |                     0 |      17828278 | 2017-02-08 10:56:06.890034+01

 2017-02-08 11:21:15.685369+01 | 1486549275.68537 |                 0 |               5 |                  1980 |                  141 |             247209 |        711989 |             7104 |        16053614 |                     0 |      17845319 | 2017-02-08 10:56:06.890034+01

 2017-02-08 11:21:16.806978+01 | 1486549276.80698 |                 0 |               5 |                  1980 |                  141 |             247209 |        712589 |             7110 |        16116550 |                     0 |      17862246 | 2017-02-08 10:56:06.890034+01

 2017-02-08 11:21:17.930097+01 | 1486549277.9301 |                 0 |               5 |                  1980 |                  141 |             247209 |        713089 |             7115 |        16116550 |                     0 |      17877242 | 2017-02-08 10:56:06.890034+01

 2017-02-08 11:21:19.033415+01 | 1486549279.03342 |                 0 |               5 |                  1980 |                  141 |             247209 |        713689 |             7121 |        16116550 |                     0 |      17894497 | 2017-02-08 10:56:06.890034+01

 2017-02-08 11:21:20.156665+01 | 1486549280.15667 |                 0 |               5 |                  1980 |                  141 |             247209 |        714189 |             7126 |        16116550 |                     0 |      17908918 | 2017-02-08 10:56:06.890034+01

 2017-02-08 11:21:21.236911+01 | 1486549281.23691 |                 0 |               5 |                  1980 |                  141 |             247209 |        714789 |             7132 |        16179487 |                     0 |      17925795 | 2017-02-08 10:56:06.890034+01

 2017-02-08 11:21:22.382817+01 | 1486549282.38282 |                 0 |               5 |                  1980 |                  141 |             247209 |        715289 |             7137 |        16179487 |                     0 |      17939542 | 2017-02-08 10:56:06.890034+01

 2017-02-08 11:21:23.487828+01 | 1486549283.48783 |                 0 |               5 |                  1980 |                  141 |             247209 |        715889 |             7143 |        16179487 |                     0 |      17957354 | 2017-02-08 10:56:06.890034+01

 2017-02-08 11:21:24.605045+01 | 1486549284.60505 |                 0 |               5 |                  1980 |                  141 |             247209 |        716389 |             7148 |        16179487 |                     0 |      17971105 | 2017-02-08 10:56:06.890034+01

 2017-02-08 11:21:25.702375+01 | 1486549285.70237 |                 0 |               5 |                  1980 |                  141 |             247209 |        716989 |             7154 |        16179487 |                     0 |      17989044 | 2017-02-08 10:56:06.890034+01

 2017-02-08 11:21:26.82848+01 | 1486549286.82848 |                 0 |               5 |                  1980 |                  141 |             247209 |        717489 |             7159 |        16242323 |                     0 |      18002717 | 2017-02-08 10:56:06.890034+01

 2017-02-08 11:21:27.966179+01 | 1486549287.96618 |                 0 |               5 |                  1980 |                  141 |             247209 |        718089 |             7165 |        16242323 |                     0 |      18019971 | 2017-02-08 10:56:06.890034+01

 2017-02-08 11:21:29.080591+01 | 1486549289.08059 |                 0 |               5 |                  1980 |                  141 |             247209 |        718689 |             7171 |        16242323 |                     0 |      18037491 | 2017-02-08 10:56:06.890034+01

 2017-02-08 11:21:30.183865+01 | 1486549290.18387 |                 0 |               5 |                  1980 |                  141 |             247209 |        719189 |             7176 |        16242323 |                     0 |      18051233 | 2017-02-08 10:56:06.890034+01

 2017-02-08 11:21:31.257254+01 | 1486549291.25725 |                 0 |               5 |                  1980 |                  141 |             247209 |        719789 |             7182 |        16242323 |                     0 |      18068828 | 2017-02-08 10:56:06.890034+01

 2017-02-08 11:21:32.367212+01 | 1486549292.36721 |                 0 |               5 |                  1980 |                  141 |             247209 |        720289 |             7187 |        16305259 |                     0 |      18082895 | 2017-02-08 10:56:06.890034+01

 2017-02-08 11:21:33.462421+01 | 1486549293.46242 |                 0 |               5 |                  1980 |                  141 |             247209 |        720789 |             7192 |        16305259 |                     0 |      18097101 | 2017-02-08 10:56:06.890034+01

 2017-02-08 11:21:34.548625+01 | 1486549294.54862 |                 0 |               5 |                  1980 |                  141 |             247209 |        721389 |             7198 |        16305259 |                     0 |      18112936 | 2017-02-08 10:56:06.890034+01

 2017-02-08 11:21:35.634364+01 | 1486549295.63436 |                 0 |               5 |                  1980 |                  141 |             247209 |        721889 |             7203 |        16305259 |                     0 |      18126287 | 2017-02-08 10:56:06.890034+01

 2017-02-08 11:21:36.727166+01 | 1486549296.72717 |                 0 |               5 |                  1980 |                  141 |             247209 |        722489 |             7209 |        16305259 |                     0 |      18143083 | 2017-02-08 10:56:06.890034+01

 2017-02-08 11:21:37.828317+01 | 1486549297.82832 |                 0 |               5 |                  1980 |                  141 |             247209 |        722989 |             7214 |        16367895 |                     0 |      18156847 | 2017-02-08 10:56:06.890034+01

 2017-02-08 11:21:38.939654+01 | 1486549298.93965 |                 0 |               5 |                  1980 |                  141 |             247209 |        723589 |             7220 |        16367895 |                     0 |      18173966 | 2017-02-08 10:56:06.890034+01

 2017-02-08 11:21:40.009791+01 | 1486549300.00979 |                 0 |               5 |                  1980 |                  141 |             247209 |        724089 |             7225 |        16367895 |                     0 |      18187647 | 2017-02-08 10:56:06.890034+01

 2017-02-08 11:21:41.12101+01 | 1486549301.12101 |                 0 |               5 |                  1980 |                  141 |             247209 |        724589 |             7230 |        16367895 |                     0 |      18201951 | 2017-02-08 10:56:06.890034+01

 2017-02-08 11:21:42.217339+01 | 1486549302.21734 |                 0 |               5 |                  1980 |                  141 |             247209 |        725189 |             7236 |        16367895 |                     0 |      18218358 | 2017-02-08 10:56:06.890034+01

 2017-02-08 11:21:43.350105+01 | 1486549303.35011 |                 0 |               5 |                  1980 |                  141 |             247209 |        725689 |             7241 |        16367895 |                     0 |      18232853 | 2017-02-08 10:56:06.890034+01

 2017-02-08 11:21:44.450094+01 | 1486549304.45009 |                 0 |               5 |                  1980 |                  141 |             247209 |        726289 |             7247 |        16430593 |                     0 |      18249571 | 2017-02-08 10:56:06.890034+01

 2017-02-08 11:21:45.542215+01 | 1486549305.54222 |                 0 |               5 |                  1980 |                  141 |             247209 |        726689 |             7251 |        16430593 |                     0 |      18260825 | 2017-02-08 10:56:06.890034+01

 2017-02-08 11:21:46.662632+01 | 1486549306.66263 |                 0 |               5 |                  1980 |                  141 |             247209 |        727389 |             7258 |        16430593 |                     0 |      18280331 | 2017-02-08 10:56:06.890034+01

 2017-02-08 11:21:47.751466+01 | 1486549307.75147 |                 0 |               5 |                  1980 |                  141 |             247209 |        727889 |             7263 |        16430593 |                     0 |      18293323 | 2017-02-08 10:56:06.890034+01

 2017-02-08 11:21:48.880078+01 | 1486549308.88008 |                 0 |               5 |                  1980 |                  141 |             247209 |        728489 |             7269 |        16430593 |                     0 |      18309509 | 2017-02-08 10:56:06.890034+01

 2017-02-08 11:21:50.000801+01 | 1486549310.0008 |                 0 |               5 |                  1980 |                  141 |             247209 |        729089 |             7275 |        16493179 |                     0 |      18325383 | 2017-02-08 10:56:06.890034+01

 2017-02-08 11:21:51.160785+01 | 1486549311.16078 |                 0 |               5 |                  1980 |                  141 |             247209 |        729589 |             7280 |        16493179 |                     0 |      18337929 | 2017-02-08 10:56:06.890034+01

 2017-02-08 11:21:52.308796+01 | 1486549312.3088 |                 0 |               5 |                  1980 |                  141 |             247209 |        730189 |             7286 |        16493179 |                     0 |      18353099 | 2017-02-08 10:56:06.890034+01

 2017-02-08 11:21:53.384882+01 | 1486549313.38488 |                 0 |               5 |                  1980 |                  141 |             247209 |        730789 |             7292 |        16493179 |                     0 |      18367744 | 2017-02-08 10:56:06.890034+01

 2017-02-08 11:21:54.51943+01 | 1486549314.51943 |                 0 |               5 |                  1980 |                  141 |             247209 |        731289 |             7297 |        16493179 |                     0 |      18379744 | 2017-02-08 10:56:06.890034+01

 2017-02-08 11:21:55.700906+01 | 1486549315.70091 |                 0 |               5 |                  1980 |                  141 |             247209 |        731889 |             7303 |        16555615 |                     0 |      18394330 | 2017-02-08 10:56:06.890034+01

 2017-02-08 11:21:56.837114+01 | 1486549316.83711 |                 0 |               5 |                  1980 |                  141 |             247209 |        732389 |             7308 |        16555615 |                     0 |      18406142 | 2017-02-08 10:56:06.890034+01

 2017-02-08 11:21:57.967121+01 | 1486549317.96712 |                 0 |               5 |                  1980 |                  141 |             247209 |        732989 |             7314 |        16555615 |                     0 |      18420935 | 2017-02-08 10:56:06.890034+01

 2017-02-08 11:21:59.057192+01 | 1486549319.05719 |                 0 |               5 |                  1980 |                  141 |             247209 |        733589 |             7320 |        16555615 |                     0 |      18438635 | 2017-02-08 10:56:06.890034+01

 2017-02-08 11:22:00.147652+01 | 1486549320.14765 |                 0 |               5 |                  1980 |                  141 |             247209 |        734089 |             7325 |        16555615 |                     0 |      18452331 | 2017-02-08 10:56:06.890034+01

