 2017-02-08 07:08:02.008618+01 | 1486534082.00862 |                 0 |               7 |                  3377 |                  923 |             579082 |         40713 |              405 |          368980 |                     0 |        225086 | 2017-02-08 06:37:47.244902+01

 2017-02-08 07:08:03.060767+01 | 1486534083.06077 |                 0 |               7 |                  3377 |                  923 |             579082 |         40713 |              405 |          368980 |                     0 |        225145 | 2017-02-08 06:37:47.244902+01

 2017-02-08 07:08:04.117728+01 | 1486534084.11773 |                 0 |               7 |                  3377 |                  923 |             579082 |         40713 |              405 |          368980 |                     0 |        225216 | 2017-02-08 06:37:47.244902+01

 2017-02-08 07:08:05.170707+01 | 1486534085.17071 |                 0 |               7 |                  3377 |                  923 |             579082 |         40713 |              405 |          368980 |                     0 |        225282 | 2017-02-08 06:37:47.244902+01

 2017-02-08 07:08:06.225251+01 | 1486534086.22525 |                 0 |               7 |                  3377 |                  923 |             579082 |         40713 |              405 |          368980 |                     0 |        225354 | 2017-02-08 06:37:47.244902+01

 2017-02-08 07:08:07.278587+01 | 1486534087.27859 |                 0 |               7 |                  3377 |                  923 |             579082 |         40713 |              405 |          368980 |                     0 |        225402 | 2017-02-08 06:37:47.244902+01

 2017-02-08 07:08:08.331451+01 | 1486534088.33145 |                 0 |               7 |                  3377 |                  923 |             579082 |         40713 |              405 |          368980 |                     0 |        225476 | 2017-02-08 06:37:47.244902+01

 2017-02-08 07:08:09.387666+01 | 1486534089.38767 |                 0 |               7 |                  3377 |                  923 |             579082 |         40713 |              405 |          368980 |                     0 |        225539 | 2017-02-08 06:37:47.244902+01

 2017-02-08 07:08:10.440557+01 | 1486534090.44056 |                 0 |               7 |                  3377 |                  923 |             579082 |         40713 |              405 |          368980 |                     0 |        225604 | 2017-02-08 06:37:47.244902+01

 2017-02-08 07:08:11.498504+01 | 1486534091.4985 |                 0 |               7 |                  3377 |                  923 |             579082 |         40713 |              405 |          368980 |                     0 |        225682 | 2017-02-08 06:37:47.244902+01

 2017-02-08 07:08:12.555903+01 | 1486534092.5559 |                 0 |               7 |                  3377 |                  923 |             579082 |         40713 |              405 |          368980 |                     0 |        225750 | 2017-02-08 06:37:47.244902+01

 2017-02-08 07:08:13.61399+01 | 1486534093.61399 |                 0 |               7 |                  3377 |                  923 |             579082 |         40713 |              405 |          368980 |                     0 |        225816 | 2017-02-08 06:37:47.244902+01

 2017-02-08 07:08:14.67067+01 | 1486534094.67067 |                 0 |               7 |                  3377 |                  923 |             579082 |         40713 |              405 |          368980 |                     0 |        225883 | 2017-02-08 06:37:47.244902+01

 2017-02-08 07:08:15.722084+01 | 1486534095.72208 |                 0 |               7 |                  3377 |                  923 |             579082 |         40713 |              405 |          368980 |                     0 |        225964 | 2017-02-08 06:37:47.244902+01

 2017-02-08 07:08:16.773856+01 | 1486534096.77386 |                 0 |               7 |                  3377 |                  923 |             579082 |         40713 |              405 |          368980 |                     0 |        226031 | 2017-02-08 06:37:47.244902+01

 2017-02-08 07:08:17.830288+01 | 1486534097.83029 |                 0 |               7 |                  3377 |                  923 |             579082 |         40713 |              405 |          368980 |                     0 |        226099 | 2017-02-08 06:37:47.244902+01

 2017-02-08 07:08:18.885537+01 | 1486534098.88554 |                 0 |               7 |                  3377 |                  923 |             579082 |         40713 |              405 |          368980 |                     0 |        226164 | 2017-02-08 06:37:47.244902+01

 2017-02-08 07:08:19.941414+01 | 1486534099.94141 |                 0 |               7 |                  3377 |                  923 |             579082 |         40713 |              405 |          368980 |                     0 |        226241 | 2017-02-08 06:37:47.244902+01

 2017-02-08 07:08:20.99903+01 | 1486534100.99903 |                 0 |               7 |                  3377 |                  923 |             579082 |         40713 |              405 |          368980 |                     0 |        226307 | 2017-02-08 06:37:47.244902+01

 2017-02-08 07:08:22.055824+01 | 1486534102.05582 |                 0 |               7 |                  3377 |                  923 |             579082 |         40713 |              405 |          368980 |                     0 |        226371 | 2017-02-08 06:37:47.244902+01

 2017-02-08 07:08:23.110518+01 | 1486534103.11052 |                 0 |               7 |                  3377 |                  923 |             579082 |         40713 |              405 |          368980 |                     0 |        226450 | 2017-02-08 06:37:47.244902+01

 2017-02-08 07:08:24.17227+01 | 1486534104.17227 |                 0 |               7 |                  3377 |                  923 |             579082 |         40713 |              405 |          368980 |                     0 |        226522 | 2017-02-08 06:37:47.244902+01

 2017-02-08 07:08:25.234337+01 | 1486534105.23434 |                 0 |               7 |                  3377 |                  923 |             579082 |         40713 |              405 |          368980 |                     0 |        226581 | 2017-02-08 06:37:47.244902+01

 2017-02-08 07:08:26.297785+01 | 1486534106.29779 |                 0 |               7 |                  3377 |                  923 |             579082 |         40713 |              405 |          368980 |                     0 |        226646 | 2017-02-08 06:37:47.244902+01

 2017-02-08 07:08:27.345975+01 | 1486534107.34597 |                 0 |               7 |                  3377 |                  923 |             579082 |         40713 |              405 |          368980 |                     0 |        226716 | 2017-02-08 06:37:47.244902+01

 2017-02-08 07:08:28.403304+01 | 1486534108.4033 |                 0 |               7 |                  3377 |                  923 |             579082 |         40713 |              405 |          368980 |                     0 |        226783 | 2017-02-08 06:37:47.244902+01

 2017-02-08 07:08:29.46334+01 | 1486534109.46334 |                 0 |               7 |                  3377 |                  923 |             579082 |         40713 |              405 |          368980 |                     0 |        226866 | 2017-02-08 06:37:47.244902+01

 2017-02-08 07:08:30.521076+01 | 1486534110.52108 |                 0 |               7 |                  3377 |                  923 |             579082 |         40713 |              405 |          368980 |                     0 |        226938 | 2017-02-08 06:37:47.244902+01

 2017-02-08 07:08:31.573852+01 | 1486534111.57385 |                 0 |               7 |                  3377 |                  923 |             579082 |         40713 |              405 |          368980 |                     0 |        227007 | 2017-02-08 06:37:47.244902+01

 2017-02-08 07:08:32.628493+01 | 1486534112.62849 |                 0 |               7 |                  3377 |                  923 |             579082 |         40713 |              405 |          368980 |                     0 |        227090 | 2017-02-08 06:37:47.244902+01

 2017-02-08 07:08:33.682907+01 | 1486534113.68291 |                 0 |               7 |                  3377 |                  923 |             579082 |         40713 |              405 |          368980 |                     0 |        227156 | 2017-02-08 06:37:47.244902+01

 2017-02-08 07:08:34.739762+01 | 1486534114.73976 |                 0 |               7 |                  3377 |                  923 |             579082 |         40713 |              405 |          368980 |                     0 |        227223 | 2017-02-08 06:37:47.244902+01

 2017-02-08 07:08:35.795521+01 | 1486534115.79552 |                 0 |               7 |                  3377 |                  923 |             579082 |         40713 |              405 |          368980 |                     0 |        227292 | 2017-02-08 06:37:47.244902+01

 2017-02-08 07:08:36.856525+01 | 1486534116.85652 |                 0 |               7 |                  3377 |                  923 |             579082 |         40713 |              405 |          368980 |                     0 |        227374 | 2017-02-08 06:37:47.244902+01

 2017-02-08 07:08:37.913381+01 | 1486534117.91338 |                 0 |               7 |                  3377 |                  923 |             579082 |         40713 |              405 |          368980 |                     0 |        227444 | 2017-02-08 06:37:47.244902+01

 2017-02-08 07:08:38.966676+01 | 1486534118.96668 |                 0 |               7 |                  3377 |                  923 |             579082 |         40713 |              405 |          368980 |                     0 |        227511 | 2017-02-08 06:37:47.244902+01

 2017-02-08 07:08:40.022061+01 | 1486534120.02206 |                 0 |               7 |                  3377 |                  923 |             579082 |         40713 |              405 |          368980 |                     0 |        227595 | 2017-02-08 06:37:47.244902+01

 2017-02-08 07:08:41.082322+01 | 1486534121.08232 |                 0 |               7 |                  3377 |                  923 |             579082 |         40713 |              405 |          368980 |                     0 |        227661 | 2017-02-08 06:37:47.244902+01

 2017-02-08 07:08:42.139932+01 | 1486534122.13993 |                 0 |               7 |                  3377 |                  923 |             579082 |         40713 |              405 |          368980 |                     0 |        227731 | 2017-02-08 06:37:47.244902+01

 2017-02-08 07:08:43.196418+01 | 1486534123.19642 |                 0 |               7 |                  3377 |                  923 |             579082 |         40713 |              405 |          368980 |                     0 |        227799 | 2017-02-08 06:37:47.244902+01

 2017-02-08 07:08:44.258436+01 | 1486534124.25844 |                 0 |               7 |                  3377 |                  923 |             579082 |         40713 |              405 |          368980 |                     0 |        227882 | 2017-02-08 06:37:47.244902+01

 2017-02-08 07:08:45.315434+01 | 1486534125.31543 |                 0 |               7 |                  3377 |                  923 |             579082 |         40713 |              405 |          368980 |                     0 |        227948 | 2017-02-08 06:37:47.244902+01

 2017-02-08 07:08:46.371572+01 | 1486534126.37157 |                 0 |               7 |                  3377 |                  923 |             579082 |         40713 |              405 |          368980 |                     0 |        228016 | 2017-02-08 06:37:47.244902+01

 2017-02-08 07:08:47.430924+01 | 1486534127.43092 |                 0 |               7 |                  3377 |                  923 |             579082 |         40713 |              405 |          368980 |                     0 |        228085 | 2017-02-08 06:37:47.244902+01

 2017-02-08 07:08:48.482913+01 | 1486534128.48291 |                 0 |               7 |                  3377 |                  923 |             579082 |         40713 |              405 |          368980 |                     0 |        228167 | 2017-02-08 06:37:47.244902+01

 2017-02-08 07:08:49.54034+01 | 1486534129.54034 |                 0 |               7 |                  3377 |                  923 |             579082 |         40713 |              405 |          368980 |                     0 |        228235 | 2017-02-08 06:37:47.244902+01

 2017-02-08 07:08:50.60318+01 | 1486534130.60318 |                 0 |               7 |                  3377 |                  923 |             579082 |         40713 |              405 |          368980 |                     0 |        228304 | 2017-02-08 06:37:47.244902+01

 2017-02-08 07:08:51.660501+01 | 1486534131.6605 |                 0 |               7 |                  3377 |                  923 |             579082 |         40713 |              405 |          368980 |                     0 |        228385 | 2017-02-08 06:37:47.244902+01

 2017-02-08 07:08:52.718544+01 | 1486534132.71854 |                 0 |               7 |                  3377 |                  923 |             579082 |         40713 |              405 |          368980 |                     0 |        228453 | 2017-02-08 06:37:47.244902+01

 2017-02-08 07:08:53.773749+01 | 1486534133.77375 |                 0 |               7 |                  3377 |                  923 |             579082 |         40713 |              405 |          368980 |                     0 |        228521 | 2017-02-08 06:37:47.244902+01

 2017-02-08 07:08:54.831881+01 | 1486534134.83188 |                 0 |               7 |                  3377 |                  923 |             579082 |         40713 |              405 |          368980 |                     0 |        228589 | 2017-02-08 06:37:47.244902+01

 2017-02-08 07:08:55.884916+01 | 1486534135.88492 |                 0 |               7 |                  3377 |                  923 |             579082 |         40713 |              405 |          368980 |                     0 |        228671 | 2017-02-08 06:37:47.244902+01

 2017-02-08 07:08:56.944941+01 | 1486534136.94494 |                 0 |               7 |                  3377 |                  923 |             579082 |         40713 |              405 |          368980 |                     0 |        228739 | 2017-02-08 06:37:47.244902+01

 2017-02-08 07:08:58.000704+01 | 1486534138.0007 |                 0 |               7 |                  3377 |                  923 |             579082 |         40713 |              405 |          368980 |                     0 |        228809 | 2017-02-08 06:37:47.244902+01

 2017-02-08 07:08:59.053492+01 | 1486534139.05349 |                 0 |               7 |                  3377 |                  923 |             579082 |         40713 |              405 |          368980 |                     0 |        228891 | 2017-02-08 06:37:47.244902+01

 2017-02-08 07:09:00.105954+01 | 1486534140.10595 |                 0 |               7 |                  3377 |                  923 |             579082 |         40713 |              405 |          368980 |                     0 |        228960 | 2017-02-08 06:37:47.244902+01

 2017-02-08 07:09:01.163951+01 | 1486534141.16395 |                 0 |               7 |                  3377 |                  923 |             579082 |         40713 |              405 |          368980 |                     0 |        229030 | 2017-02-08 06:37:47.244902+01

 2017-02-08 07:09:02.225642+01 | 1486534142.22564 |                 0 |               7 |                  3377 |                  923 |             579082 |         40713 |              405 |          368980 |                     0 |        229096 | 2017-02-08 06:37:47.244902+01

 2017-02-08 07:09:03.280523+01 | 1486534143.28052 |                 0 |               7 |                  3377 |                  923 |             579082 |         40713 |              405 |          368980 |                     0 |        229183 | 2017-02-08 06:37:47.244902+01

 2017-02-08 07:09:04.337108+01 | 1486534144.33711 |                 0 |               7 |                  3377 |                  923 |             579082 |         40713 |              405 |          368980 |                     0 |        229251 | 2017-02-08 06:37:47.244902+01

 2017-02-08 07:09:05.390014+01 | 1486534145.39001 |                 0 |               7 |                  3377 |                  923 |             579082 |         40713 |              405 |          368980 |                     0 |        229321 | 2017-02-08 06:37:47.244902+01

 2017-02-08 07:09:06.44822+01 | 1486534146.44822 |                 0 |               7 |                  3377 |                  923 |             579082 |         40713 |              405 |          368980 |                     0 |        229415 | 2017-02-08 06:37:47.244902+01

 2017-02-08 07:09:07.502862+01 | 1486534147.50286 |                 0 |               7 |                  3377 |                  923 |             579082 |         40713 |              405 |          368980 |                     0 |        229472 | 2017-02-08 06:37:47.244902+01

 2017-02-08 07:09:08.561102+01 | 1486534148.5611 |                 0 |               7 |                  3377 |                  923 |             579082 |         40713 |              405 |          368980 |                     0 |        229539 | 2017-02-08 06:37:47.244902+01

 2017-02-08 07:09:09.616552+01 | 1486534149.61655 |                 0 |               7 |                  3377 |                  923 |             579082 |         40713 |              405 |          368980 |                     0 |        229608 | 2017-02-08 06:37:47.244902+01

 2017-02-08 07:09:10.674706+01 | 1486534150.67471 |                 0 |               7 |                  3377 |                  923 |             579082 |         40713 |              405 |          368980 |                     0 |        229691 | 2017-02-08 06:37:47.244902+01

 2017-02-08 07:09:11.726413+01 | 1486534151.72641 |                 0 |               7 |                  3377 |                  923 |             579082 |         40713 |              405 |          368980 |                     0 |        229759 | 2017-02-08 06:37:47.244902+01

 2017-02-08 07:09:12.785985+01 | 1486534152.78598 |                 0 |               7 |                  3377 |                  923 |             579082 |         40713 |              405 |          368980 |                     0 |        229826 | 2017-02-08 06:37:47.244902+01

 2017-02-08 07:09:13.844733+01 | 1486534153.84473 |                 0 |               7 |                  3377 |                  923 |             579082 |         40713 |              405 |          368980 |                     0 |        229907 | 2017-02-08 06:37:47.244902+01

 2017-02-08 07:09:14.90045+01 | 1486534154.90045 |                 0 |               7 |                  3377 |                  923 |             579082 |         40713 |              405 |          368980 |                     0 |        229979 | 2017-02-08 06:37:47.244902+01

 2017-02-08 07:09:15.959588+01 | 1486534155.95959 |                 0 |               7 |                  3377 |                  923 |             579082 |         40713 |              405 |          368980 |                     0 |        230046 | 2017-02-08 06:37:47.244902+01

 2017-02-08 07:09:17.015294+01 | 1486534157.01529 |                 0 |               7 |                  3377 |                  923 |             579082 |         40713 |              405 |          368980 |                     0 |        230114 | 2017-02-08 06:37:47.244902+01

 2017-02-08 07:09:18.077979+01 | 1486534158.07798 |                 0 |               7 |                  3377 |                  923 |             579082 |         40713 |              405 |          368980 |                     0 |        230197 | 2017-02-08 06:37:47.244902+01

 2017-02-08 07:09:19.140294+01 | 1486534159.14029 |                 0 |               7 |                  3377 |                  923 |             579082 |         40713 |              405 |          368980 |                     0 |        230263 | 2017-02-08 06:37:47.244902+01

 2017-02-08 07:09:20.20819+01 | 1486534160.20819 |                 0 |               7 |                  3377 |                  923 |             579082 |         40713 |              405 |          368980 |                     0 |        230330 | 2017-02-08 06:37:47.244902+01

 2017-02-08 07:09:21.275551+01 | 1486534161.27555 |                 0 |               7 |                  3377 |                  923 |             579082 |         40713 |              405 |          368980 |                     0 |        230373 | 2017-02-08 06:37:47.244902+01

 2017-02-08 07:09:22.339469+01 | 1486534162.33947 |                 0 |               7 |                  3377 |                  923 |             579082 |         40713 |              405 |          368980 |                     0 |        230471 | 2017-02-08 06:37:47.244902+01

 2017-02-08 07:09:23.400666+01 | 1486534163.40067 |                 0 |               7 |                  3377 |                  923 |             579082 |         40713 |              405 |          368980 |                     0 |        230538 | 2017-02-08 06:37:47.244902+01

 2017-02-08 07:09:24.448864+01 | 1486534164.44886 |                 0 |               7 |                  3377 |                  923 |             579082 |         40713 |              405 |          368980 |                     0 |        230576 | 2017-02-08 06:37:47.244902+01

 2017-02-08 07:09:25.505171+01 | 1486534165.50517 |                 0 |               7 |                  3377 |                  923 |             579082 |         40713 |              405 |          368980 |                     0 |        230690 | 2017-02-08 06:37:47.244902+01

 2017-02-08 07:09:26.568571+01 | 1486534166.56857 |                 0 |               7 |                  3377 |                  923 |             579082 |         40713 |              405 |          368980 |                     0 |        230766 | 2017-02-08 06:37:47.244902+01

 2017-02-08 07:09:27.628139+01 | 1486534167.62814 |                 0 |               7 |                  3377 |                  923 |             579082 |         40713 |              405 |          368980 |                     0 |        230822 | 2017-02-08 06:37:47.244902+01

 2017-02-08 07:09:28.689993+01 | 1486534168.68999 |                 0 |               7 |                  3377 |                  923 |             579082 |         40713 |              405 |          368980 |                     0 |        230893 | 2017-02-08 06:37:47.244902+01

 2017-02-08 07:09:29.747714+01 | 1486534169.74771 |                 0 |               7 |                  3377 |                  923 |             579082 |         40713 |              405 |          368980 |                     0 |        230973 | 2017-02-08 06:37:47.244902+01

 2017-02-08 07:09:30.807449+01 | 1486534170.80745 |                 0 |               7 |                  3377 |                  923 |             579082 |         40713 |              405 |          368980 |                     0 |        231043 | 2017-02-08 06:37:47.244902+01

 2017-02-08 07:09:31.860221+01 | 1486534171.86022 |                 0 |               7 |                  3377 |                  923 |             579082 |         40713 |              405 |          368980 |                     0 |        231108 | 2017-02-08 06:37:47.244902+01

 2017-02-08 07:09:32.920548+01 | 1486534172.92055 |                 0 |               7 |                  3377 |                  923 |             579082 |         40713 |              405 |          368980 |                     0 |        231177 | 2017-02-08 06:37:47.244902+01

 2017-02-08 07:09:33.98754+01 | 1486534173.98754 |                 0 |               7 |                  3377 |                  923 |             579082 |         40713 |              405 |          368980 |                     0 |        231259 | 2017-02-08 06:37:47.244902+01

 2017-02-08 07:09:35.04249+01 | 1486534175.04249 |                 0 |               7 |                  3377 |                  923 |             579082 |         40713 |              405 |          368980 |                     0 |        231327 | 2017-02-08 06:37:47.244902+01

 2017-02-08 07:09:36.099991+01 | 1486534176.09999 |                 0 |               7 |                  3377 |                  923 |             579082 |         40713 |              405 |          368980 |                     0 |        231395 | 2017-02-08 06:37:47.244902+01

 2017-02-08 07:09:37.15717+01 | 1486534177.15717 |                 0 |               7 |                  3377 |                  923 |             579082 |         40713 |              405 |          368980 |                     0 |        231475 | 2017-02-08 06:37:47.244902+01

 2017-02-08 07:09:38.218024+01 | 1486534178.21802 |                 0 |               7 |                  3377 |                  923 |             579082 |         40713 |              405 |          368980 |                     0 |        231543 | 2017-02-08 06:37:47.244902+01

 2017-02-08 07:09:39.276231+01 | 1486534179.27623 |                 0 |               7 |                  3377 |                  923 |             579082 |         40713 |              405 |          368980 |                     0 |        231611 | 2017-02-08 06:37:47.244902+01

 2017-02-08 07:09:40.333895+01 | 1486534180.33389 |                 0 |               7 |                  3377 |                  923 |             579082 |         40713 |              405 |          368980 |                     0 |        231682 | 2017-02-08 06:37:47.244902+01

 2017-02-08 07:09:41.397548+01 | 1486534181.39755 |                 0 |               7 |                  3377 |                  923 |             579082 |         40713 |              405 |          368980 |                     0 |        231763 | 2017-02-08 06:37:47.244902+01

 2017-02-08 07:09:42.451832+01 | 1486534182.45183 |                 0 |               7 |                  3377 |                  923 |             579082 |         40713 |              405 |          368980 |                     0 |        231832 | 2017-02-08 06:37:47.244902+01

 2017-02-08 07:09:43.506293+01 | 1486534183.50629 |                 0 |               7 |                  3377 |                  923 |             579082 |         40713 |              405 |          368980 |                     0 |        231899 | 2017-02-08 06:37:47.244902+01

 2017-02-08 07:09:44.564245+01 | 1486534184.56424 |                 0 |               7 |                  3377 |                  923 |             579082 |         40713 |              405 |          368980 |                     0 |        231983 | 2017-02-08 06:37:47.244902+01

 2017-02-08 07:09:45.619811+01 | 1486534185.61981 |                 0 |               7 |                  3377 |                  923 |             579082 |         40713 |              405 |          368980 |                     0 |        232049 | 2017-02-08 06:37:47.244902+01

 2017-02-08 07:09:46.671759+01 | 1486534186.67176 |                 0 |               7 |                  3377 |                  923 |             579082 |         40713 |              405 |          368980 |                     0 |        232119 | 2017-02-08 06:37:47.244902+01

 2017-02-08 07:09:47.728665+01 | 1486534187.72867 |                 0 |               7 |                  3377 |                  923 |             579082 |         40713 |              405 |          368980 |                     0 |        232187 | 2017-02-08 06:37:47.244902+01

 2017-02-08 07:09:48.783319+01 | 1486534188.78332 |                 0 |               7 |                  3377 |                  923 |             579082 |         40713 |              405 |          368980 |                     0 |        232268 | 2017-02-08 06:37:47.244902+01

 2017-02-08 07:09:49.842704+01 | 1486534189.8427 |                 0 |               7 |                  3377 |                  923 |             579082 |         40713 |              405 |          368980 |                     0 |        232338 | 2017-02-08 06:37:47.244902+01

 2017-02-08 07:09:50.899196+01 | 1486534190.8992 |                 0 |               7 |                  3377 |                  923 |             579082 |         40713 |              405 |          368980 |                     0 |        232404 | 2017-02-08 06:37:47.244902+01

 2017-02-08 07:09:51.952341+01 | 1486534191.95234 |                 0 |               7 |                  3377 |                  923 |             579082 |         40713 |              405 |          368980 |                     0 |        232487 | 2017-02-08 06:37:47.244902+01

 2017-02-08 07:09:53.011588+01 | 1486534193.01159 |                 0 |               7 |                  3377 |                  923 |             579082 |         40713 |              405 |          368980 |                     0 |        232557 | 2017-02-08 06:37:47.244902+01

 2017-02-08 07:09:54.065665+01 | 1486534194.06567 |                 0 |               7 |                  3377 |                  923 |             579082 |         40713 |              405 |          368980 |                     0 |        232623 | 2017-02-08 06:37:47.244902+01

 2017-02-08 07:09:55.123248+01 | 1486534195.12325 |                 0 |               7 |                  3377 |                  923 |             579082 |         40713 |              405 |          368980 |                     0 |        232692 | 2017-02-08 06:37:47.244902+01

 2017-02-08 07:09:56.177603+01 | 1486534196.1776 |                 0 |               7 |                  3377 |                  923 |             579082 |         40713 |              405 |          368980 |                     0 |        232775 | 2017-02-08 06:37:47.244902+01

 2017-02-08 07:09:57.239416+01 | 1486534197.23942 |                 0 |               7 |                  3377 |                  923 |             579082 |         40713 |              405 |          368980 |                     0 |        232843 | 2017-02-08 06:37:47.244902+01

 2017-02-08 07:09:58.297912+01 | 1486534198.29791 |                 0 |               7 |                  3377 |                  923 |             579082 |         40713 |              405 |          368980 |                     0 |        232912 | 2017-02-08 06:37:47.244902+01

 2017-02-08 07:09:59.352731+01 | 1486534199.35273 |                 0 |               7 |                  3377 |                  923 |             579082 |         40713 |              405 |          368980 |                     0 |        232995 | 2017-02-08 06:37:47.244902+01

 2017-02-08 07:10:00.410644+01 | 1486534200.41064 |                 0 |               7 |                  3377 |                  923 |             579082 |         40713 |              405 |          368980 |                     0 |        233062 | 2017-02-08 06:37:47.244902+01

 2017-02-08 07:10:01.468515+01 | 1486534201.46851 |                 0 |               7 |                  3377 |                  923 |             579082 |         40713 |              405 |          368980 |                     0 |        233133 | 2017-02-08 06:37:47.244902+01

 2017-02-08 07:10:02.529145+01 | 1486534202.52915 |                 0 |               7 |                  3377 |                  923 |             579082 |         40713 |              405 |          368980 |                     0 |        233199 | 2017-02-08 06:37:47.244902+01

 2017-02-08 07:10:03.582394+01 | 1486534203.58239 |                 0 |               7 |                  3377 |                  923 |             579082 |         40713 |              405 |          368980 |                     0 |        233285 | 2017-02-08 06:37:47.244902+01

 2017-02-08 07:10:04.635718+01 | 1486534204.63572 |                 0 |               7 |                  3377 |                  923 |             579082 |         40713 |              405 |          368980 |                     0 |        233351 | 2017-02-08 06:37:47.244902+01

 2017-02-08 07:10:05.694059+01 | 1486534205.69406 |                 0 |               7 |                  3377 |                  923 |             579082 |         40713 |              405 |          368980 |                     0 |        233421 | 2017-02-08 06:37:47.244902+01

 2017-02-08 07:10:06.74626+01 | 1486534206.74626 |                 0 |               7 |                  3377 |                  923 |             579082 |         40713 |              405 |          368980 |                     0 |        233488 | 2017-02-08 06:37:47.244902+01

 2017-02-08 07:10:07.800947+01 | 1486534207.80095 |                 0 |               7 |                  3377 |                  923 |             579082 |         40713 |              405 |          368980 |                     0 |        233569 | 2017-02-08 06:37:47.244902+01

 2017-02-08 07:10:08.854901+01 | 1486534208.8549 |                 0 |               7 |                  3377 |                  923 |             579082 |         40713 |              405 |          368980 |                     0 |        233640 | 2017-02-08 06:37:47.244902+01

 2017-02-08 07:10:09.908211+01 | 1486534209.90821 |                 0 |               7 |                  3377 |                  923 |             579082 |         40713 |              405 |          368980 |                     0 |        233738 | 2017-02-08 06:37:47.244902+01

 2017-02-08 07:10:10.968719+01 | 1486534210.96872 |                 0 |               7 |                  3377 |                  923 |             579082 |         40713 |              405 |          368980 |                     0 |        233778 | 2017-02-08 06:37:47.244902+01

 2017-02-08 07:10:12.026491+01 | 1486534212.02649 |                 0 |               7 |                  3377 |                  923 |             579082 |         40713 |              405 |          368980 |                     0 |        233858 | 2017-02-08 06:37:47.244902+01

 2017-02-08 07:10:13.086169+01 | 1486534213.08617 |                 0 |               7 |                  3377 |                  923 |             579082 |         40713 |              405 |          368980 |                     0 |        233925 | 2017-02-08 06:37:47.244902+01

 2017-02-08 07:10:14.139127+01 | 1486534214.13913 |                 0 |               7 |                  3377 |                  923 |             579082 |         40713 |              405 |          368980 |                     0 |        233996 | 2017-02-08 06:37:47.244902+01

 2017-02-08 07:10:15.193956+01 | 1486534215.19396 |                 0 |               7 |                  3377 |                  923 |             579082 |         40713 |              405 |          368980 |                     0 |        234064 | 2017-02-08 06:37:47.244902+01

 2017-02-08 07:10:16.256429+01 | 1486534216.25643 |                 0 |               7 |                  3377 |                  923 |             579082 |         40713 |              405 |          368980 |                     0 |        234145 | 2017-02-08 06:37:47.244902+01

 2017-02-08 07:10:17.317365+01 | 1486534217.31736 |                 0 |               7 |                  3377 |                  923 |             579082 |         40713 |              405 |          368980 |                     0 |        234212 | 2017-02-08 06:37:47.244902+01

 2017-02-08 07:10:18.374072+01 | 1486534218.37407 |                 0 |               7 |                  3377 |                  923 |             579082 |         40713 |              405 |          368980 |                     0 |        234282 | 2017-02-08 06:37:47.244902+01

 2017-02-08 07:10:19.440234+01 | 1486534219.44023 |                 0 |               7 |                  3377 |                  923 |             579082 |         40713 |              405 |          368980 |                     0 |        234360 | 2017-02-08 06:37:47.244902+01

 2017-02-08 07:10:20.512036+01 | 1486534220.51204 |                 0 |               7 |                  3377 |                  923 |             579082 |         40713 |              405 |          368980 |                     0 |        234424 | 2017-02-08 06:37:47.244902+01

 2017-02-08 07:10:21.568642+01 | 1486534221.56864 |                 0 |               7 |                  3377 |                  923 |             579082 |         40713 |              405 |          368980 |                     0 |        234490 | 2017-02-08 06:37:47.244902+01

 2017-02-08 07:10:22.642487+01 | 1486534222.64249 |                 0 |               7 |                  3377 |                  923 |             579082 |         40713 |              405 |          368980 |                     0 |        234568 | 2017-02-08 06:37:47.244902+01

 2017-02-08 07:10:23.702009+01 | 1486534223.70201 |                 0 |               7 |                  3377 |                  923 |             579082 |         40713 |              405 |          368980 |                     0 |        234632 | 2017-02-08 06:37:47.244902+01

 2017-02-08 07:10:24.755981+01 | 1486534224.75598 |                 0 |               7 |                  3377 |                  923 |             579082 |         40713 |              405 |          368980 |                     0 |        234714 | 2017-02-08 06:37:47.244902+01

 2017-02-08 07:10:25.815616+01 | 1486534225.81562 |                 0 |               7 |                  3377 |                  923 |             579082 |         40713 |              405 |          368980 |                     0 |        234770 | 2017-02-08 06:37:47.244902+01

 2017-02-08 07:10:26.875344+01 | 1486534226.87534 |                 0 |               7 |                  3377 |                  923 |             579082 |         40713 |              405 |          368980 |                     0 |        234853 | 2017-02-08 06:37:47.244902+01

 2017-02-08 07:10:27.933505+01 | 1486534227.93351 |                 0 |               7 |                  3377 |                  923 |             579082 |         40713 |              405 |          368980 |                     0 |        234923 | 2017-02-08 06:37:47.244902+01

 2017-02-08 07:10:28.986173+01 | 1486534228.98617 |                 0 |               7 |                  3377 |                  923 |             579082 |         40713 |              405 |          368980 |                     0 |        234989 | 2017-02-08 06:37:47.244902+01

 2017-02-08 07:10:30.046463+01 | 1486534230.04646 |                 0 |               7 |                  3377 |                  923 |             579082 |         40713 |              405 |          368980 |                     0 |        235074 | 2017-02-08 06:37:47.244902+01

 2017-02-08 07:10:31.099883+01 | 1486534231.09988 |                 0 |               7 |                  3377 |                  923 |             579082 |         40713 |              405 |          368980 |                     0 |        235140 | 2017-02-08 06:37:47.244902+01

 2017-02-08 07:10:32.156916+01 | 1486534232.15692 |                 0 |               7 |                  3377 |                  923 |             579082 |         40713 |              405 |          368980 |                     0 |        235210 | 2017-02-08 06:37:47.244902+01

 2017-02-08 07:10:33.210471+01 | 1486534233.21047 |                 0 |               7 |                  3377 |                  923 |             579082 |         40713 |              405 |          368980 |                     0 |        235277 | 2017-02-08 06:37:47.244902+01

 2017-02-08 07:10:34.268283+01 | 1486534234.26828 |                 0 |               7 |                  3377 |                  923 |             579082 |         40713 |              405 |          368980 |                     0 |        235361 | 2017-02-08 06:37:47.244902+01

 2017-02-08 07:10:35.324953+01 | 1486534235.32495 |                 0 |               7 |                  3377 |                  923 |             579082 |         40713 |              405 |          368980 |                     0 |        235446 | 2017-02-08 06:37:47.244902+01

 2017-02-08 07:10:36.380236+01 | 1486534236.38024 |                 0 |               7 |                  3377 |                  923 |             579082 |         40713 |              405 |          368980 |                     0 |        235498 | 2017-02-08 06:37:47.244902+01

 2017-02-08 07:10:37.43452+01 | 1486534237.43452 |                 0 |               7 |                  3377 |                  923 |             579082 |         40713 |              405 |          368980 |                     0 |        235564 | 2017-02-08 06:37:47.244902+01

 2017-02-08 07:10:38.487533+01 | 1486534238.48753 |                 0 |               7 |                  3377 |                  923 |             579082 |         40713 |              405 |          368980 |                     0 |        235659 | 2017-02-08 06:37:47.244902+01

 2017-02-08 07:10:39.54353+01 | 1486534239.54353 |                 0 |               7 |                  3377 |                  923 |             579082 |         40713 |              405 |          368980 |                     0 |        235708 | 2017-02-08 06:37:47.244902+01

 2017-02-08 07:10:40.599586+01 | 1486534240.59959 |                 0 |               7 |                  3377 |                  923 |             579082 |         40713 |              405 |          368980 |                     0 |        235803 | 2017-02-08 06:37:47.244902+01

 2017-02-08 07:10:41.658323+01 | 1486534241.65832 |                 0 |               7 |                  3377 |                  923 |             579082 |         40713 |              405 |          368980 |                     0 |        235860 | 2017-02-08 06:37:47.244902+01

 2017-02-08 07:10:42.717512+01 | 1486534242.71751 |                 0 |               7 |                  3377 |                  923 |             579082 |         40713 |              405 |          368980 |                     0 |        235928 | 2017-02-08 06:37:47.244902+01

 2017-02-08 07:10:43.775895+01 | 1486534243.7759 |                 0 |               7 |                  3377 |                  923 |             579082 |         40713 |              405 |          368980 |                     0 |        236003 | 2017-02-08 06:37:47.244902+01

 2017-02-08 07:10:44.829276+01 | 1486534244.82928 |                 0 |               7 |                  3377 |                  923 |             579082 |         40713 |              405 |          368980 |                     0 |        236077 | 2017-02-08 06:37:47.244902+01

 2017-02-08 07:10:45.881849+01 | 1486534245.88185 |                 0 |               7 |                  3377 |                  923 |             579082 |         40713 |              405 |          368980 |                     0 |        236155 | 2017-02-08 06:37:47.244902+01

 2017-02-08 07:10:46.938646+01 | 1486534246.93865 |                 0 |               7 |                  3377 |                  923 |             579082 |         40713 |              405 |          368980 |                     0 |        236211 | 2017-02-08 06:37:47.244902+01

 2017-02-08 07:10:47.998023+01 | 1486534247.99802 |                 0 |               7 |                  3377 |                  923 |             579082 |         40713 |              405 |          368980 |                     0 |        236298 | 2017-02-08 06:37:47.244902+01

 2017-02-08 07:10:49.05627+01 | 1486534249.05627 |                 0 |               7 |                  3377 |                  923 |             579082 |         40713 |              405 |          368980 |                     0 |        236362 | 2017-02-08 06:37:47.244902+01

 2017-02-08 07:10:50.112219+01 | 1486534250.11222 |                 0 |               7 |                  3377 |                  923 |             579082 |         40713 |              405 |          368980 |                     0 |        236432 | 2017-02-08 06:37:47.244902+01

 2017-02-08 07:10:51.173373+01 | 1486534251.17337 |                 0 |               7 |                  3377 |                  923 |             579082 |         40713 |              405 |          368980 |                     0 |        236499 | 2017-02-08 06:37:47.244902+01

 2017-02-08 07:10:52.233009+01 | 1486534252.23301 |                 0 |               7 |                  3377 |                  923 |             579082 |         40713 |              405 |          368980 |                     0 |        236582 | 2017-02-08 06:37:47.244902+01

 2017-02-08 07:10:53.291195+01 | 1486534253.29119 |                 0 |               7 |                  3377 |                  923 |             579082 |         40713 |              405 |          368980 |                     0 |        236649 | 2017-02-08 06:37:47.244902+01

 2017-02-08 07:10:54.353386+01 | 1486534254.35339 |                 0 |               7 |                  3377 |                  923 |             579082 |         40713 |              405 |          368980 |                     0 |        236719 | 2017-02-08 06:37:47.244902+01

 2017-02-08 07:10:55.411145+01 | 1486534255.41114 |                 0 |               7 |                  3377 |                  923 |             579082 |         40713 |              405 |          368980 |                     0 |        236800 | 2017-02-08 06:37:47.244902+01

 2017-02-08 07:10:56.472339+01 | 1486534256.47234 |                 0 |               7 |                  3377 |                  923 |             579082 |         40713 |              405 |          368980 |                     0 |        236868 | 2017-02-08 06:37:47.244902+01

 2017-02-08 07:10:57.526578+01 | 1486534257.52658 |                 0 |               7 |                  3377 |                  923 |             579082 |         40713 |              405 |          368980 |                     0 |        236935 | 2017-02-08 06:37:47.244902+01

 2017-02-08 07:10:58.586533+01 | 1486534258.58653 |                 0 |               7 |                  3377 |                  923 |             579082 |         40713 |              405 |          368980 |                     0 |        237004 | 2017-02-08 06:37:47.244902+01

 2017-02-08 07:10:59.646095+01 | 1486534259.6461 |                 0 |               7 |                  3377 |                  923 |             579082 |         40713 |              405 |          368980 |                     0 |        237087 | 2017-02-08 06:37:47.244902+01

 2017-02-08 07:11:00.700512+01 | 1486534260.70051 |                 0 |               7 |                  3377 |                  923 |             579082 |         40713 |              405 |          368980 |                     0 |        237153 | 2017-02-08 06:37:47.244902+01

 2017-02-08 07:11:01.752575+01 | 1486534261.75257 |                 0 |               7 |                  3377 |                  923 |             579082 |         40713 |              405 |          368980 |                     0 |        237221 | 2017-02-08 06:37:47.244902+01

 2017-02-08 07:11:02.81223+01 | 1486534262.81223 |                 0 |               7 |                  3377 |                  923 |             579082 |         40713 |              405 |          368980 |                     0 |        237302 | 2017-02-08 06:37:47.244902+01

 2017-02-08 07:11:03.86567+01 | 1486534263.86567 |                 0 |               7 |                  3377 |                  923 |             579082 |         40713 |              405 |          368980 |                     0 |        237372 | 2017-02-08 06:37:47.244902+01

 2017-02-08 07:11:04.931944+01 | 1486534264.93194 |                 0 |               7 |                  3377 |                  923 |             579082 |         40713 |              405 |          368980 |                     0 |        237440 | 2017-02-08 06:37:47.244902+01

 2017-02-08 07:11:05.989328+01 | 1486534265.98933 |                 0 |               7 |                  3377 |                  923 |             579082 |         40713 |              405 |          368980 |                     0 |        237509 | 2017-02-08 06:37:47.244902+01

 2017-02-08 07:11:07.048002+01 | 1486534267.048 |                 0 |               7 |                  3377 |                  923 |             579082 |         40713 |              405 |          368980 |                     0 |        237591 | 2017-02-08 06:37:47.244902+01

 2017-02-08 07:11:08.111489+01 | 1486534268.11149 |                 0 |               7 |                  3377 |                  923 |             579082 |         40713 |              405 |          368980 |                     0 |        237658 | 2017-02-08 06:37:47.244902+01

 2017-02-08 07:11:09.168322+01 | 1486534269.16832 |                 0 |               7 |                  3377 |                  923 |             579082 |         40713 |              405 |          368980 |                     0 |        237725 | 2017-02-08 06:37:47.244902+01

 2017-02-08 07:11:10.227172+01 | 1486534270.22717 |                 0 |               7 |                  3377 |                  923 |             579082 |         40713 |              405 |          368980 |                     0 |        237807 | 2017-02-08 06:37:47.244902+01

 2017-02-08 07:11:11.280257+01 | 1486534271.28026 |                 0 |               7 |                  3377 |                  923 |             579082 |         40713 |              405 |          368980 |                     0 |        237876 | 2017-02-08 06:37:47.244902+01

 2017-02-08 07:11:12.333861+01 | 1486534272.33386 |                 0 |               7 |                  3377 |                  923 |             579082 |         40713 |              405 |          368980 |                     0 |        237943 | 2017-02-08 06:37:47.244902+01

 2017-02-08 07:11:13.391717+01 | 1486534273.39172 |                 0 |               7 |                  3377 |                  923 |             579082 |         40713 |              405 |          368980 |                     0 |        238011 | 2017-02-08 06:37:47.244902+01

 2017-02-08 07:11:14.45079+01 | 1486534274.45079 |                 0 |               7 |                  3377 |                  923 |             579082 |         40713 |              405 |          368980 |                     0 |        238091 | 2017-02-08 06:37:47.244902+01

 2017-02-08 07:11:15.510031+01 | 1486534275.51003 |                 0 |               7 |                  3377 |                  923 |             579082 |         40713 |              405 |          368980 |                     0 |        238160 | 2017-02-08 06:37:47.244902+01

 2017-02-08 07:11:16.565822+01 | 1486534276.56582 |                 0 |               7 |                  3377 |                  923 |             579082 |         40713 |              405 |          368980 |                     0 |        238230 | 2017-02-08 06:37:47.244902+01

 2017-02-08 07:11:17.621721+01 | 1486534277.62172 |                 0 |               7 |                  3377 |                  923 |             579082 |         40713 |              405 |          368980 |                     0 |        238312 | 2017-02-08 06:37:47.244902+01

 2017-02-08 07:11:18.670672+01 | 1486534278.67067 |                 0 |               7 |                  3377 |                  923 |             579082 |         40713 |              405 |          368980 |                     0 |        238352 | 2017-02-08 06:37:47.244902+01

 2017-02-08 07:11:19.734833+01 | 1486534279.73483 |                 0 |               7 |                  3377 |                  923 |             579082 |         40713 |              405 |          368980 |                     0 |        238442 | 2017-02-08 06:37:47.244902+01

 2017-02-08 07:11:20.795942+01 | 1486534280.79594 |                 0 |               7 |                  3377 |                  923 |             579082 |         40713 |              405 |          368980 |                     0 |        238507 | 2017-02-08 06:37:47.244902+01

 2017-02-08 07:11:21.855362+01 | 1486534281.85536 |                 0 |               7 |                  3377 |                  923 |             579082 |         40713 |              405 |          368980 |                     0 |        238586 | 2017-02-08 06:37:47.244902+01

 2017-02-08 07:11:22.920491+01 | 1486534282.92049 |                 0 |               7 |                  3377 |                  923 |             579082 |         40713 |              405 |          368980 |                     0 |        238652 | 2017-02-08 06:37:47.244902+01

 2017-02-08 07:11:23.977412+01 | 1486534283.97741 |                 0 |               7 |                  3377 |                  923 |             579082 |         40713 |              405 |          368980 |                     0 |        238718 | 2017-02-08 06:37:47.244902+01

 2017-02-08 07:11:25.034517+01 | 1486534285.03452 |                 0 |               7 |                  3377 |                  923 |             579082 |         40713 |              405 |          368980 |                     0 |        238800 | 2017-02-08 06:37:47.244902+01

 2017-02-08 07:11:26.094772+01 | 1486534286.09477 |                 0 |               7 |                  3377 |                  923 |             579082 |         40713 |              405 |          368980 |                     0 |        238868 | 2017-02-08 06:37:47.244902+01

 2017-02-08 07:11:27.157833+01 | 1486534287.15783 |                 0 |               7 |                  3377 |                  923 |             579082 |         40713 |              405 |          368980 |                     0 |        238938 | 2017-02-08 06:37:47.244902+01

 2017-02-08 07:11:28.21161+01 | 1486534288.21161 |                 0 |               7 |                  3377 |                  923 |             579082 |         40713 |              405 |          368980 |                     0 |        239007 | 2017-02-08 06:37:47.244902+01

 2017-02-08 07:11:29.274569+01 | 1486534289.27457 |                 0 |               7 |                  3377 |                  923 |             579082 |         40713 |              405 |          368980 |                     0 |        239089 | 2017-02-08 06:37:47.244902+01

 2017-02-08 07:11:30.327829+01 | 1486534290.32783 |                 0 |               7 |                  3377 |                  923 |             579082 |         40713 |              405 |          368980 |                     0 |        239158 | 2017-02-08 06:37:47.244902+01

 2017-02-08 07:11:31.380032+01 | 1486534291.38003 |                 0 |               7 |                  3377 |                  923 |             579082 |         40713 |              405 |          368980 |                     0 |        239225 | 2017-02-08 06:37:47.244902+01

 2017-02-08 07:11:32.434609+01 | 1486534292.43461 |                 0 |               7 |                  3377 |                  923 |             579082 |         40713 |              405 |          368980 |                     0 |        239299 | 2017-02-08 06:37:47.244902+01

 2017-02-08 07:11:33.492222+01 | 1486534293.49222 |                 0 |               7 |                  3377 |                  923 |             579082 |         40713 |              405 |          368980 |                     0 |        239379 | 2017-02-08 06:37:47.244902+01

 2017-02-08 07:11:34.566717+01 | 1486534294.56672 |                 0 |               7 |                  3377 |                  923 |             579082 |         40713 |              405 |          368980 |                     0 |        239439 | 2017-02-08 06:37:47.244902+01

 2017-02-08 07:11:35.627213+01 | 1486534295.62721 |                 0 |               7 |                  3377 |                  923 |             579082 |         40713 |              405 |          368980 |                     0 |        239513 | 2017-02-08 06:37:47.244902+01

 2017-02-08 07:11:36.682525+01 | 1486534296.68252 |                 0 |               7 |                  3377 |                  923 |             579082 |         40713 |              405 |          368980 |                     0 |        239591 | 2017-02-08 06:37:47.244902+01

 2017-02-08 07:11:37.73825+01 | 1486534297.73825 |                 0 |               7 |                  3377 |                  923 |             579082 |         40713 |              405 |          368980 |                     0 |        239655 | 2017-02-08 06:37:47.244902+01

 2017-02-08 07:11:38.795481+01 | 1486534298.79548 |                 0 |               7 |                  3377 |                  923 |             579082 |         40713 |              405 |          368980 |                     0 |        239725 | 2017-02-08 06:37:47.244902+01

 2017-02-08 07:11:39.853214+01 | 1486534299.85321 |                 0 |               7 |                  3377 |                  923 |             579082 |         40713 |              405 |          368980 |                     0 |        239806 | 2017-02-08 06:37:47.244902+01

 2017-02-08 07:11:40.918459+01 | 1486534300.91846 |                 0 |               7 |                  3377 |                  923 |             579082 |         40713 |              405 |          368980 |                     0 |        239873 | 2017-02-08 06:37:47.244902+01

 2017-02-08 07:11:41.975706+01 | 1486534301.97571 |                 0 |               7 |                  3377 |                  923 |             579082 |         40713 |              405 |          368980 |                     0 |        239942 | 2017-02-08 06:37:47.244902+01

 2017-02-08 07:11:43.030743+01 | 1486534303.03074 |                 0 |               7 |                  3377 |                  923 |             579082 |         40713 |              405 |          368980 |                     0 |        240011 | 2017-02-08 06:37:47.244902+01

 2017-02-08 07:11:44.085977+01 | 1486534304.08598 |                 0 |               7 |                  3377 |                  923 |             579082 |         40713 |              405 |          368980 |                     0 |        240094 | 2017-02-08 06:37:47.244902+01

 2017-02-08 07:11:45.139881+01 | 1486534305.13988 |                 0 |               7 |                  3377 |                  923 |             579082 |         40713 |              405 |          368980 |                     0 |        240161 | 2017-02-08 06:37:47.244902+01

 2017-02-08 07:11:46.197237+01 | 1486534306.19724 |                 0 |               7 |                  3377 |                  923 |             579082 |         40713 |              405 |          368980 |                     0 |        240228 | 2017-02-08 06:37:47.244902+01

 2017-02-08 07:11:47.255976+01 | 1486534307.25598 |                 0 |               7 |                  3377 |                  923 |             579082 |         40713 |              405 |          368980 |                     0 |        240311 | 2017-02-08 06:37:47.244902+01

 2017-02-08 07:11:48.316122+01 | 1486534308.31612 |                 0 |               7 |                  3377 |                  923 |             579082 |         40713 |              405 |          368980 |                     0 |        240379 | 2017-02-08 06:37:47.244902+01

 2017-02-08 07:11:49.372968+01 | 1486534309.37297 |                 0 |               7 |                  3377 |                  923 |             579082 |         40713 |              405 |          368980 |                     0 |        240465 | 2017-02-08 06:37:47.244902+01

 2017-02-08 07:11:50.42716+01 | 1486534310.42716 |                 0 |               7 |                  3377 |                  923 |             579082 |         40713 |              405 |          368980 |                     0 |        240531 | 2017-02-08 06:37:47.244902+01

 2017-02-08 07:11:51.486369+01 | 1486534311.48637 |                 0 |               7 |                  3377 |                  923 |             579082 |         40713 |              405 |          368980 |                     0 |        240593 | 2017-02-08 06:37:47.244902+01

 2017-02-08 07:11:52.545864+01 | 1486534312.54586 |                 0 |               7 |                  3377 |                  923 |             579082 |         40713 |              405 |          368980 |                     0 |        240670 | 2017-02-08 06:37:47.244902+01

 2017-02-08 07:11:53.605002+01 | 1486534313.605 |                 0 |               7 |                  3377 |                  923 |             579082 |         40713 |              405 |          368980 |                     0 |        240736 | 2017-02-08 06:37:47.244902+01

 2017-02-08 07:11:54.664559+01 | 1486534314.66456 |                 0 |               7 |                  3377 |                  923 |             579082 |         40713 |              405 |          368980 |                     0 |        240800 | 2017-02-08 06:37:47.244902+01

 2017-02-08 07:11:55.718356+01 | 1486534315.71836 |                 0 |               7 |                  3377 |                  923 |             579082 |         40713 |              405 |          368980 |                     0 |        240884 | 2017-02-08 06:37:47.244902+01

 2017-02-08 07:11:56.780736+01 | 1486534316.78074 |                 0 |               7 |                  3377 |                  923 |             579082 |         40713 |              405 |          368980 |                     0 |        240952 | 2017-02-08 06:37:47.244902+01

 2017-02-08 07:11:57.846705+01 | 1486534317.8467 |                 0 |               7 |                  3377 |                  923 |             579082 |         40713 |              405 |          368980 |                     0 |        241020 | 2017-02-08 06:37:47.244902+01

 2017-02-08 07:11:58.90908+01 | 1486534318.90908 |                 0 |               7 |                  3377 |                  923 |             579082 |         40713 |              405 |          368980 |                     0 |        241102 | 2017-02-08 06:37:47.244902+01

 2017-02-08 07:11:59.963135+01 | 1486534319.96314 |                 0 |               7 |                  3377 |                  923 |             579082 |         40713 |              405 |          368980 |                     0 |        241168 | 2017-02-08 06:37:47.244902+01

 2017-02-08 07:12:01.018764+01 | 1486534321.01876 |                 0 |               7 |                  3377 |                  923 |             579082 |         40713 |              405 |          368980 |                     0 |        241240 | 2017-02-08 06:37:47.244902+01

 2017-02-08 07:12:02.0759+01 | 1486534322.0759 |                 0 |               7 |                  3377 |                  923 |             579082 |         40713 |              405 |          368980 |                     0 |        241307 | 2017-02-08 06:37:47.244902+01

 2017-02-08 07:12:03.133341+01 | 1486534323.13334 |                 0 |               7 |                  3377 |                  923 |             579082 |         40713 |              405 |          368980 |                     0 |        241390 | 2017-02-08 06:37:47.244902+01

 2017-02-08 07:12:04.187463+01 | 1486534324.18746 |                 0 |               7 |                  3377 |                  923 |             579082 |         40713 |              405 |          368980 |                     0 |        241457 | 2017-02-08 06:37:47.244902+01

 2017-02-08 07:12:05.246584+01 | 1486534325.24658 |                 0 |               7 |                  3377 |                  923 |             579082 |         40713 |              405 |          368980 |                     0 |        241526 | 2017-02-08 06:37:47.244902+01

 2017-02-08 07:12:06.300003+01 | 1486534326.3 |                 0 |               7 |                  3377 |                  923 |             579082 |         40713 |              405 |          368980 |                     0 |        241593 | 2017-02-08 06:37:47.244902+01

 2017-02-08 07:12:07.355917+01 | 1486534327.35592 |                 0 |               7 |                  3377 |                  923 |             579082 |         40713 |              405 |          368980 |                     0 |        241676 | 2017-02-08 06:37:47.244902+01

 2017-02-08 07:12:08.414957+01 | 1486534328.41496 |                 0 |               7 |                  3377 |                  923 |             579082 |         40713 |              405 |          368980 |                     0 |        241743 | 2017-02-08 06:37:47.244902+01

 2017-02-08 07:12:09.473963+01 | 1486534329.47396 |                 0 |               7 |                  3377 |                  923 |             579082 |         40713 |              405 |          368980 |                     0 |        241810 | 2017-02-08 06:37:47.244902+01

 2017-02-08 07:12:10.529144+01 | 1486534330.52914 |                 0 |               7 |                  3377 |                  923 |             579082 |         40713 |              405 |          368980 |                     0 |        241891 | 2017-02-08 06:37:47.244902+01

 2017-02-08 07:12:11.589811+01 | 1486534331.58981 |                 0 |               7 |                  3377 |                  923 |             579082 |         40713 |              405 |          368980 |                     0 |        241959 | 2017-02-08 06:37:47.244902+01

 2017-02-08 07:12:12.645701+01 | 1486534332.6457 |                 0 |               7 |                  3377 |                  923 |             579082 |         40713 |              405 |          368980 |                     0 |        242028 | 2017-02-08 06:37:47.244902+01

 2017-02-08 07:12:13.701598+01 | 1486534333.7016 |                 0 |               7 |                  3377 |                  923 |             579082 |         40713 |              405 |          368980 |                     0 |        242097 | 2017-02-08 06:37:47.244902+01

 2017-02-08 07:12:14.766518+01 | 1486534334.76652 |                 0 |               7 |                  3377 |                  923 |             579082 |         40713 |              405 |          368980 |                     0 |        242178 | 2017-02-08 06:37:47.244902+01

 2017-02-08 07:12:15.823952+01 | 1486534335.82395 |                 0 |               7 |                  3377 |                  923 |             579082 |         40713 |              405 |          368980 |                     0 |        242248 | 2017-02-08 06:37:47.244902+01

 2017-02-08 07:12:16.884053+01 | 1486534336.88405 |                 0 |               7 |                  3377 |                  923 |             579082 |         40713 |              405 |          368980 |                     0 |        242314 | 2017-02-08 06:37:47.244902+01

 2017-02-08 07:12:17.94133+01 | 1486534337.94133 |                 0 |               7 |                  3377 |                  923 |             579082 |         40713 |              405 |          368980 |                     0 |        242397 | 2017-02-08 06:37:47.244902+01

 2017-02-08 07:12:18.99723+01 | 1486534338.99723 |                 0 |               7 |                  3377 |                  923 |             579082 |         40713 |              405 |          368980 |                     0 |        242463 | 2017-02-08 06:37:47.244902+01

 2017-02-08 07:12:20.061581+01 | 1486534340.06158 |                 0 |               7 |                  3377 |                  923 |             579082 |         40713 |              405 |          368980 |                     0 |        242527 | 2017-02-08 06:37:47.244902+01

 2017-02-08 07:12:21.120857+01 | 1486534341.12086 |                 0 |               7 |                  3377 |                  923 |             579082 |         40713 |              405 |          368980 |                     0 |        242593 | 2017-02-08 06:37:47.244902+01

 2017-02-08 07:12:22.175965+01 | 1486534342.17597 |                 0 |               7 |                  3377 |                  923 |             579082 |         40713 |              405 |          368980 |                     0 |        242671 | 2017-02-08 06:37:47.244902+01

 2017-02-08 07:12:23.234686+01 | 1486534343.23469 |                 0 |               7 |                  3377 |                  923 |             579082 |         40713 |              405 |          368980 |                     0 |        242735 | 2017-02-08 06:37:47.244902+01

 2017-02-08 07:12:24.290773+01 | 1486534344.29077 |                 0 |               7 |                  3377 |                  923 |             579082 |         40713 |              405 |          368980 |                     0 |        242799 | 2017-02-08 06:37:47.244902+01

 2017-02-08 07:12:25.352129+01 | 1486534345.35213 |                 0 |               7 |                  3377 |                  923 |             579082 |         40713 |              405 |          368980 |                     0 |        242901 | 2017-02-08 06:37:47.244902+01

 2017-02-08 07:12:26.413696+01 | 1486534346.4137 |                 0 |               7 |                  3377 |                  923 |             579082 |         40713 |              405 |          368980 |                     0 |        242949 | 2017-02-08 06:37:47.244902+01

 2017-02-08 07:12:27.469358+01 | 1486534347.46936 |                 0 |               7 |                  3377 |                  923 |             579082 |         40713 |              405 |          368980 |                     0 |        243021 | 2017-02-08 06:37:47.244902+01

 2017-02-08 07:12:28.524807+01 | 1486534348.52481 |                 0 |               7 |                  3377 |                  923 |             579082 |         40713 |              405 |          368980 |                     0 |        243089 | 2017-02-08 06:37:47.244902+01

 2017-02-08 07:12:29.582689+01 | 1486534349.58269 |                 0 |               7 |                  3377 |                  923 |             579082 |         40713 |              405 |          368980 |                     0 |        243169 | 2017-02-08 06:37:47.244902+01

 2017-02-08 07:12:30.643909+01 | 1486534350.64391 |                 0 |               7 |                  3377 |                  923 |             579082 |         40713 |              405 |          368980 |                     0 |        243239 | 2017-02-08 06:37:47.244902+01

 2017-02-08 07:12:31.701721+01 | 1486534351.70172 |                 0 |               7 |                  3377 |                  923 |             579082 |         40713 |              405 |          368980 |                     0 |        243307 | 2017-02-08 06:37:47.244902+01

 2017-02-08 07:12:32.761429+01 | 1486534352.76143 |                 0 |               7 |                  3377 |                  923 |             579082 |         40713 |              405 |          368980 |                     0 |        243388 | 2017-02-08 06:37:47.244902+01

 2017-02-08 07:12:33.815963+01 | 1486534353.81596 |                 0 |               7 |                  3377 |                  923 |             579082 |         40713 |              405 |          368980 |                     0 |        243458 | 2017-02-08 06:37:47.244902+01

 2017-02-08 07:12:34.871057+01 | 1486534354.87106 |                 0 |               7 |                  3377 |                  923 |             579082 |         40713 |              405 |          368980 |                     0 |        243525 | 2017-02-08 06:37:47.244902+01

 2017-02-08 07:12:35.929273+01 | 1486534355.92927 |                 0 |               7 |                  3377 |                  923 |             579082 |         40713 |              405 |          368980 |                     0 |        243595 | 2017-02-08 06:37:47.244902+01

 2017-02-08 07:12:36.992485+01 | 1486534356.99249 |                 0 |               7 |                  3377 |                  923 |             579082 |         40713 |              405 |          368980 |                     0 |        243694 | 2017-02-08 06:37:47.244902+01

 2017-02-08 07:12:38.05288+01 | 1486534358.05288 |                 0 |               7 |                  3377 |                  923 |             579082 |         40713 |              405 |          368980 |                     0 |        243749 | 2017-02-08 06:37:47.244902+01

 2017-02-08 07:12:39.110217+01 | 1486534359.11022 |                 0 |               7 |                  3377 |                  923 |             579082 |         40713 |              405 |          368980 |                     0 |        243811 | 2017-02-08 06:37:47.244902+01

 2017-02-08 07:12:40.168514+01 | 1486534360.16851 |                 0 |               7 |                  3377 |                  923 |             579082 |         40713 |              405 |          368980 |                     0 |        243896 | 2017-02-08 06:37:47.244902+01

 2017-02-08 07:12:41.230519+01 | 1486534361.23052 |                 0 |               7 |                  3377 |                  923 |             579082 |         40713 |              405 |          368980 |                     0 |        243979 | 2017-02-08 06:37:47.244902+01

 2017-02-08 07:12:42.287366+01 | 1486534362.28737 |                 0 |               7 |                  3377 |                  923 |             579082 |         40713 |              405 |          368980 |                     0 |        244028 | 2017-02-08 06:37:47.244902+01

 2017-02-08 07:12:43.343076+01 | 1486534363.34308 |                 0 |               7 |                  3377 |                  923 |             579082 |         40713 |              405 |          368980 |                     0 |        244097 | 2017-02-08 06:37:47.244902+01

 2017-02-08 07:12:44.401594+01 | 1486534364.40159 |                 0 |               7 |                  3377 |                  923 |             579082 |         40713 |              405 |          368980 |                     0 |        244180 | 2017-02-08 06:37:47.244902+01

 2017-02-08 07:12:45.459935+01 | 1486534365.45993 |                 0 |               7 |                  3377 |                  923 |             579082 |         40713 |              405 |          368980 |                     0 |        244246 | 2017-02-08 06:37:47.244902+01

 2017-02-08 07:12:46.520263+01 | 1486534366.52026 |                 0 |               7 |                  3377 |                  923 |             579082 |         40713 |              405 |          368980 |                     0 |        244315 | 2017-02-08 06:37:47.244902+01

 2017-02-08 07:12:47.580789+01 | 1486534367.58079 |                 0 |               7 |                  3377 |                  923 |             579082 |         40713 |              405 |          368980 |                     0 |        244395 | 2017-02-08 06:37:47.244902+01

 2017-02-08 07:12:48.640349+01 | 1486534368.64035 |                 0 |               7 |                  3377 |                  923 |             579082 |         40713 |              405 |          368980 |                     0 |        244464 | 2017-02-08 06:37:47.244902+01

 2017-02-08 07:12:49.70246+01 | 1486534369.70246 |                 0 |               7 |                  3377 |                  923 |             579082 |         40713 |              405 |          368980 |                     0 |        244532 | 2017-02-08 06:37:47.244902+01

 2017-02-08 07:12:50.759562+01 | 1486534370.75956 |                 0 |               7 |                  3377 |                  923 |             579082 |         40713 |              405 |          368980 |                     0 |        244614 | 2017-02-08 06:37:47.244902+01

 2017-02-08 07:12:51.816135+01 | 1486534371.81613 |                 0 |               7 |                  3377 |                  923 |             579082 |         40713 |              405 |          368980 |                     0 |        244683 | 2017-02-08 06:37:47.244902+01

 2017-02-08 07:12:52.870259+01 | 1486534372.87026 |                 0 |               7 |                  3377 |                  923 |             579082 |         40713 |              405 |          368980 |                     0 |        244751 | 2017-02-08 06:37:47.244902+01

 2017-02-08 07:12:53.930814+01 | 1486534373.93081 |                 0 |               7 |                  3377 |                  923 |             579082 |         40713 |              405 |          368980 |                     0 |        244818 | 2017-02-08 06:37:47.244902+01

 2017-02-08 07:12:54.99172+01 | 1486534374.99172 |                 0 |               7 |                  3377 |                  923 |             579082 |         40713 |              405 |          368980 |                     0 |        244901 | 2017-02-08 06:37:47.244902+01

 2017-02-08 07:12:56.048793+01 | 1486534376.04879 |                 0 |               7 |                  3377 |                  923 |             579082 |         40713 |              405 |          368980 |                     0 |        244967 | 2017-02-08 06:37:47.244902+01

 2017-02-08 07:12:57.105764+01 | 1486534377.10576 |                 0 |               7 |                  3377 |                  923 |             579082 |         40713 |              405 |          368980 |                     0 |        245037 | 2017-02-08 06:37:47.244902+01

 2017-02-08 07:12:58.167023+01 | 1486534378.16702 |                 0 |               7 |                  3377 |                  923 |             579082 |         40713 |              405 |          368980 |                     0 |        245118 | 2017-02-08 06:37:47.244902+01

 2017-02-08 07:12:59.22754+01 | 1486534379.22754 |                 0 |               7 |                  3377 |                  923 |             579082 |         40713 |              405 |          368980 |                     0 |        245184 | 2017-02-08 06:37:47.244902+01

 2017-02-08 07:13:00.284971+01 | 1486534380.28497 |                 0 |               7 |                  3377 |                  923 |             579082 |         40713 |              405 |          368980 |                     0 |        245251 | 2017-02-08 06:37:47.244902+01

 2017-02-08 07:13:01.343511+01 | 1486534381.34351 |                 0 |               7 |                  3377 |                  923 |             579082 |         40713 |              405 |          368980 |                     0 |        245321 | 2017-02-08 06:37:47.244902+01

