 2017-02-08 20:14:24.596681+01 | 1486581264.59668 | pgbench_branches_pkey |            16384
 2017-02-08 20:14:24.596681+01 | 1486581264.59668 | pgbench_tellers_pkey  |            90112
 2017-02-08 20:14:24.596681+01 | 1486581264.59668 | pgbench_accounts_pkey |        673882112

 2017-02-08 20:14:25.657617+01 | 1486581265.65762 | pgbench_branches_pkey |            16384
 2017-02-08 20:14:25.657617+01 | 1486581265.65762 | pgbench_tellers_pkey  |            90112
 2017-02-08 20:14:25.657617+01 | 1486581265.65762 | pgbench_accounts_pkey |        673882112

 2017-02-08 20:14:26.729616+01 | 1486581266.72962 | pgbench_branches_pkey |            16384
 2017-02-08 20:14:26.729616+01 | 1486581266.72962 | pgbench_tellers_pkey  |            90112
 2017-02-08 20:14:26.729616+01 | 1486581266.72962 | pgbench_accounts_pkey |        673882112

 2017-02-08 20:14:27.796584+01 | 1486581267.79658 | pgbench_branches_pkey |            16384
 2017-02-08 20:14:27.796584+01 | 1486581267.79658 | pgbench_tellers_pkey  |            90112
 2017-02-08 20:14:27.796584+01 | 1486581267.79658 | pgbench_accounts_pkey |        673882112

 2017-02-08 20:14:28.863708+01 | 1486581268.86371 | pgbench_branches_pkey |            16384
 2017-02-08 20:14:28.863708+01 | 1486581268.86371 | pgbench_tellers_pkey  |            90112
 2017-02-08 20:14:28.863708+01 | 1486581268.86371 | pgbench_accounts_pkey |        673882112

 2017-02-08 20:14:29.922045+01 | 1486581269.92204 | pgbench_branches_pkey |            16384
 2017-02-08 20:14:29.922045+01 | 1486581269.92204 | pgbench_tellers_pkey  |            90112
 2017-02-08 20:14:29.922045+01 | 1486581269.92204 | pgbench_accounts_pkey |        673882112

 2017-02-08 20:14:30.984989+01 | 1486581270.98499 | pgbench_branches_pkey |            16384
 2017-02-08 20:14:30.984989+01 | 1486581270.98499 | pgbench_tellers_pkey  |            90112
 2017-02-08 20:14:30.984989+01 | 1486581270.98499 | pgbench_accounts_pkey |        673882112

 2017-02-08 20:14:32.053827+01 | 1486581272.05383 | pgbench_branches_pkey |            16384
 2017-02-08 20:14:32.053827+01 | 1486581272.05383 | pgbench_tellers_pkey  |            90112
 2017-02-08 20:14:32.053827+01 | 1486581272.05383 | pgbench_accounts_pkey |        673882112

 2017-02-08 20:14:33.119078+01 | 1486581273.11908 | pgbench_branches_pkey |            16384
 2017-02-08 20:14:33.119078+01 | 1486581273.11908 | pgbench_tellers_pkey  |            90112
 2017-02-08 20:14:33.119078+01 | 1486581273.11908 | pgbench_accounts_pkey |        673882112

 2017-02-08 20:14:34.184909+01 | 1486581274.18491 | pgbench_branches_pkey |            16384
 2017-02-08 20:14:34.184909+01 | 1486581274.18491 | pgbench_tellers_pkey  |            90112
 2017-02-08 20:14:34.184909+01 | 1486581274.18491 | pgbench_accounts_pkey |        673882112

 2017-02-08 20:14:35.249035+01 | 1486581275.24903 | pgbench_branches_pkey |            16384
 2017-02-08 20:14:35.249035+01 | 1486581275.24903 | pgbench_tellers_pkey  |            90112
 2017-02-08 20:14:35.249035+01 | 1486581275.24903 | pgbench_accounts_pkey |        673882112

 2017-02-08 20:14:36.304533+01 | 1486581276.30453 | pgbench_branches_pkey |            16384
 2017-02-08 20:14:36.304533+01 | 1486581276.30453 | pgbench_tellers_pkey  |            90112
 2017-02-08 20:14:36.304533+01 | 1486581276.30453 | pgbench_accounts_pkey |        673882112

 2017-02-08 20:14:37.360892+01 | 1486581277.36089 | pgbench_branches_pkey |            16384
 2017-02-08 20:14:37.360892+01 | 1486581277.36089 | pgbench_tellers_pkey  |            90112
 2017-02-08 20:14:37.360892+01 | 1486581277.36089 | pgbench_accounts_pkey |        673882112

 2017-02-08 20:14:38.430805+01 | 1486581278.4308 | pgbench_branches_pkey |            16384
 2017-02-08 20:14:38.430805+01 | 1486581278.4308 | pgbench_tellers_pkey  |            90112
 2017-02-08 20:14:38.430805+01 | 1486581278.4308 | pgbench_accounts_pkey |        673882112

 2017-02-08 20:14:39.511786+01 | 1486581279.51179 | pgbench_branches_pkey |            16384
 2017-02-08 20:14:39.511786+01 | 1486581279.51179 | pgbench_tellers_pkey  |            90112
 2017-02-08 20:14:39.511786+01 | 1486581279.51179 | pgbench_accounts_pkey |        673882112

 2017-02-08 20:14:40.570767+01 | 1486581280.57077 | pgbench_branches_pkey |            16384
 2017-02-08 20:14:40.570767+01 | 1486581280.57077 | pgbench_tellers_pkey  |            90112
 2017-02-08 20:14:40.570767+01 | 1486581280.57077 | pgbench_accounts_pkey |        673882112

 2017-02-08 20:14:41.63055+01 | 1486581281.63055 | pgbench_branches_pkey |            16384
 2017-02-08 20:14:41.63055+01 | 1486581281.63055 | pgbench_tellers_pkey  |            90112
 2017-02-08 20:14:41.63055+01 | 1486581281.63055 | pgbench_accounts_pkey |        673882112

 2017-02-08 20:14:42.691433+01 | 1486581282.69143 | pgbench_branches_pkey |            16384
 2017-02-08 20:14:42.691433+01 | 1486581282.69143 | pgbench_tellers_pkey  |            90112
 2017-02-08 20:14:42.691433+01 | 1486581282.69143 | pgbench_accounts_pkey |        673882112

 2017-02-08 20:14:43.759063+01 | 1486581283.75906 | pgbench_branches_pkey |            16384
 2017-02-08 20:14:43.759063+01 | 1486581283.75906 | pgbench_tellers_pkey  |            90112
 2017-02-08 20:14:43.759063+01 | 1486581283.75906 | pgbench_accounts_pkey |        673882112

 2017-02-08 20:14:44.823699+01 | 1486581284.8237 | pgbench_branches_pkey |            16384
 2017-02-08 20:14:44.823699+01 | 1486581284.8237 | pgbench_tellers_pkey  |            90112
 2017-02-08 20:14:44.823699+01 | 1486581284.8237 | pgbench_accounts_pkey |        673882112

 2017-02-08 20:14:45.886798+01 | 1486581285.8868 | pgbench_branches_pkey |            16384
 2017-02-08 20:14:45.886798+01 | 1486581285.8868 | pgbench_tellers_pkey  |            90112
 2017-02-08 20:14:45.886798+01 | 1486581285.8868 | pgbench_accounts_pkey |        673882112

 2017-02-08 20:14:46.952661+01 | 1486581286.95266 | pgbench_branches_pkey |            16384
 2017-02-08 20:14:46.952661+01 | 1486581286.95266 | pgbench_tellers_pkey  |            90112
 2017-02-08 20:14:46.952661+01 | 1486581286.95266 | pgbench_accounts_pkey |        673882112

 2017-02-08 20:14:48.012631+01 | 1486581288.01263 | pgbench_branches_pkey |            16384
 2017-02-08 20:14:48.012631+01 | 1486581288.01263 | pgbench_tellers_pkey  |            90112
 2017-02-08 20:14:48.012631+01 | 1486581288.01263 | pgbench_accounts_pkey |        673882112

 2017-02-08 20:14:49.078877+01 | 1486581289.07888 | pgbench_branches_pkey |            16384
 2017-02-08 20:14:49.078877+01 | 1486581289.07888 | pgbench_tellers_pkey  |            90112
 2017-02-08 20:14:49.078877+01 | 1486581289.07888 | pgbench_accounts_pkey |        673882112

 2017-02-08 20:14:50.144865+01 | 1486581290.14487 | pgbench_branches_pkey |            16384
 2017-02-08 20:14:50.144865+01 | 1486581290.14487 | pgbench_tellers_pkey  |            90112
 2017-02-08 20:14:50.144865+01 | 1486581290.14487 | pgbench_accounts_pkey |        673882112

 2017-02-08 20:14:51.217699+01 | 1486581291.2177 | pgbench_branches_pkey |            16384
 2017-02-08 20:14:51.217699+01 | 1486581291.2177 | pgbench_tellers_pkey  |            90112
 2017-02-08 20:14:51.217699+01 | 1486581291.2177 | pgbench_accounts_pkey |        673882112

 2017-02-08 20:14:52.287313+01 | 1486581292.28731 | pgbench_branches_pkey |            16384
 2017-02-08 20:14:52.287313+01 | 1486581292.28731 | pgbench_tellers_pkey  |            90112
 2017-02-08 20:14:52.287313+01 | 1486581292.28731 | pgbench_accounts_pkey |        673882112

 2017-02-08 20:14:53.351735+01 | 1486581293.35174 | pgbench_branches_pkey |            16384
 2017-02-08 20:14:53.351735+01 | 1486581293.35174 | pgbench_tellers_pkey  |            90112
 2017-02-08 20:14:53.351735+01 | 1486581293.35174 | pgbench_accounts_pkey |        673882112

 2017-02-08 20:14:54.418451+01 | 1486581294.41845 | pgbench_branches_pkey |            16384
 2017-02-08 20:14:54.418451+01 | 1486581294.41845 | pgbench_tellers_pkey  |            90112
 2017-02-08 20:14:54.418451+01 | 1486581294.41845 | pgbench_accounts_pkey |        673882112

 2017-02-08 20:14:55.48497+01 | 1486581295.48497 | pgbench_branches_pkey |            16384
 2017-02-08 20:14:55.48497+01 | 1486581295.48497 | pgbench_tellers_pkey  |            90112
 2017-02-08 20:14:55.48497+01 | 1486581295.48497 | pgbench_accounts_pkey |        673882112

 2017-02-08 20:14:56.569243+01 | 1486581296.56924 | pgbench_branches_pkey |            16384
 2017-02-08 20:14:56.569243+01 | 1486581296.56924 | pgbench_tellers_pkey  |            90112
 2017-02-08 20:14:56.569243+01 | 1486581296.56924 | pgbench_accounts_pkey |        673882112

 2017-02-08 20:14:57.649948+01 | 1486581297.64995 | pgbench_branches_pkey |            16384
 2017-02-08 20:14:57.649948+01 | 1486581297.64995 | pgbench_tellers_pkey  |            90112
 2017-02-08 20:14:57.649948+01 | 1486581297.64995 | pgbench_accounts_pkey |        673882112

 2017-02-08 20:14:58.715955+01 | 1486581298.71596 | pgbench_branches_pkey |            16384
 2017-02-08 20:14:58.715955+01 | 1486581298.71596 | pgbench_tellers_pkey  |            90112
 2017-02-08 20:14:58.715955+01 | 1486581298.71596 | pgbench_accounts_pkey |        673882112

 2017-02-08 20:14:59.774592+01 | 1486581299.77459 | pgbench_branches_pkey |            16384
 2017-02-08 20:14:59.774592+01 | 1486581299.77459 | pgbench_tellers_pkey  |            90112
 2017-02-08 20:14:59.774592+01 | 1486581299.77459 | pgbench_accounts_pkey |        673882112

 2017-02-08 20:15:00.842652+01 | 1486581300.84265 | pgbench_branches_pkey |            16384
 2017-02-08 20:15:00.842652+01 | 1486581300.84265 | pgbench_tellers_pkey  |            90112
 2017-02-08 20:15:00.842652+01 | 1486581300.84265 | pgbench_accounts_pkey |        673882112

 2017-02-08 20:15:01.916079+01 | 1486581301.91608 | pgbench_branches_pkey |            16384
 2017-02-08 20:15:01.916079+01 | 1486581301.91608 | pgbench_tellers_pkey  |            90112
 2017-02-08 20:15:01.916079+01 | 1486581301.91608 | pgbench_accounts_pkey |        673882112

 2017-02-08 20:15:02.965324+01 | 1486581302.96532 | pgbench_branches_pkey |            16384
 2017-02-08 20:15:02.965324+01 | 1486581302.96532 | pgbench_tellers_pkey  |            90112
 2017-02-08 20:15:02.965324+01 | 1486581302.96532 | pgbench_accounts_pkey |        673882112

 2017-02-08 20:15:04.026646+01 | 1486581304.02665 | pgbench_branches_pkey |            16384
 2017-02-08 20:15:04.026646+01 | 1486581304.02665 | pgbench_tellers_pkey  |            90112
 2017-02-08 20:15:04.026646+01 | 1486581304.02665 | pgbench_accounts_pkey |        673882112

 2017-02-08 20:15:05.094933+01 | 1486581305.09493 | pgbench_branches_pkey |            16384
 2017-02-08 20:15:05.094933+01 | 1486581305.09493 | pgbench_tellers_pkey  |            90112
 2017-02-08 20:15:05.094933+01 | 1486581305.09493 | pgbench_accounts_pkey |        673882112

 2017-02-08 20:15:06.16359+01 | 1486581306.16359 | pgbench_branches_pkey |            16384
 2017-02-08 20:15:06.16359+01 | 1486581306.16359 | pgbench_tellers_pkey  |            90112
 2017-02-08 20:15:06.16359+01 | 1486581306.16359 | pgbench_accounts_pkey |        673882112

 2017-02-08 20:15:07.241338+01 | 1486581307.24134 | pgbench_branches_pkey |            16384
 2017-02-08 20:15:07.241338+01 | 1486581307.24134 | pgbench_tellers_pkey  |            90112
 2017-02-08 20:15:07.241338+01 | 1486581307.24134 | pgbench_accounts_pkey |        673882112

 2017-02-08 20:15:08.324812+01 | 1486581308.32481 | pgbench_branches_pkey |            16384
 2017-02-08 20:15:08.324812+01 | 1486581308.32481 | pgbench_tellers_pkey  |            90112
 2017-02-08 20:15:08.324812+01 | 1486581308.32481 | pgbench_accounts_pkey |        673882112

 2017-02-08 20:15:09.385429+01 | 1486581309.38543 | pgbench_branches_pkey |            16384
 2017-02-08 20:15:09.385429+01 | 1486581309.38543 | pgbench_tellers_pkey  |            90112
 2017-02-08 20:15:09.385429+01 | 1486581309.38543 | pgbench_accounts_pkey |        673882112

 2017-02-08 20:15:10.442061+01 | 1486581310.44206 | pgbench_branches_pkey |            16384
 2017-02-08 20:15:10.442061+01 | 1486581310.44206 | pgbench_tellers_pkey  |            90112
 2017-02-08 20:15:10.442061+01 | 1486581310.44206 | pgbench_accounts_pkey |        673882112

 2017-02-08 20:15:11.511367+01 | 1486581311.51137 | pgbench_branches_pkey |            16384
 2017-02-08 20:15:11.511367+01 | 1486581311.51137 | pgbench_tellers_pkey  |            90112
 2017-02-08 20:15:11.511367+01 | 1486581311.51137 | pgbench_accounts_pkey |        673882112

 2017-02-08 20:15:12.574472+01 | 1486581312.57447 | pgbench_branches_pkey |            16384
 2017-02-08 20:15:12.574472+01 | 1486581312.57447 | pgbench_tellers_pkey  |            90112
 2017-02-08 20:15:12.574472+01 | 1486581312.57447 | pgbench_accounts_pkey |        673882112

 2017-02-08 20:15:13.634457+01 | 1486581313.63446 | pgbench_branches_pkey |            16384
 2017-02-08 20:15:13.634457+01 | 1486581313.63446 | pgbench_tellers_pkey  |            90112
 2017-02-08 20:15:13.634457+01 | 1486581313.63446 | pgbench_accounts_pkey |        673882112

 2017-02-08 20:15:14.696856+01 | 1486581314.69686 | pgbench_branches_pkey |            16384
 2017-02-08 20:15:14.696856+01 | 1486581314.69686 | pgbench_tellers_pkey  |            90112
 2017-02-08 20:15:14.696856+01 | 1486581314.69686 | pgbench_accounts_pkey |        673882112

 2017-02-08 20:15:15.762327+01 | 1486581315.76233 | pgbench_branches_pkey |            16384
 2017-02-08 20:15:15.762327+01 | 1486581315.76233 | pgbench_tellers_pkey  |            90112
 2017-02-08 20:15:15.762327+01 | 1486581315.76233 | pgbench_accounts_pkey |        673882112

 2017-02-08 20:15:16.822461+01 | 1486581316.82246 | pgbench_branches_pkey |            16384
 2017-02-08 20:15:16.822461+01 | 1486581316.82246 | pgbench_tellers_pkey  |            90112
 2017-02-08 20:15:16.822461+01 | 1486581316.82246 | pgbench_accounts_pkey |        673882112

 2017-02-08 20:15:17.892621+01 | 1486581317.89262 | pgbench_branches_pkey |            16384
 2017-02-08 20:15:17.892621+01 | 1486581317.89262 | pgbench_tellers_pkey  |            90112
 2017-02-08 20:15:17.892621+01 | 1486581317.89262 | pgbench_accounts_pkey |        673882112

 2017-02-08 20:15:18.962658+01 | 1486581318.96266 | pgbench_branches_pkey |            16384
 2017-02-08 20:15:18.962658+01 | 1486581318.96266 | pgbench_tellers_pkey  |            90112
 2017-02-08 20:15:18.962658+01 | 1486581318.96266 | pgbench_accounts_pkey |        673882112

 2017-02-08 20:15:20.025337+01 | 1486581320.02534 | pgbench_branches_pkey |            16384
 2017-02-08 20:15:20.025337+01 | 1486581320.02534 | pgbench_tellers_pkey  |            90112
 2017-02-08 20:15:20.025337+01 | 1486581320.02534 | pgbench_accounts_pkey |        673882112

 2017-02-08 20:15:21.088123+01 | 1486581321.08812 | pgbench_branches_pkey |            16384
 2017-02-08 20:15:21.088123+01 | 1486581321.08812 | pgbench_tellers_pkey  |            90112
 2017-02-08 20:15:21.088123+01 | 1486581321.08812 | pgbench_accounts_pkey |        673882112

 2017-02-08 20:15:22.156749+01 | 1486581322.15675 | pgbench_branches_pkey |            16384
 2017-02-08 20:15:22.156749+01 | 1486581322.15675 | pgbench_tellers_pkey  |            90112
 2017-02-08 20:15:22.156749+01 | 1486581322.15675 | pgbench_accounts_pkey |        673882112

 2017-02-08 20:15:23.225878+01 | 1486581323.22588 | pgbench_branches_pkey |            16384
 2017-02-08 20:15:23.225878+01 | 1486581323.22588 | pgbench_tellers_pkey  |            90112
 2017-02-08 20:15:23.225878+01 | 1486581323.22588 | pgbench_accounts_pkey |        673882112

 2017-02-08 20:15:24.311544+01 | 1486581324.31154 | pgbench_branches_pkey |            16384
 2017-02-08 20:15:24.311544+01 | 1486581324.31154 | pgbench_tellers_pkey  |            90112
 2017-02-08 20:15:24.311544+01 | 1486581324.31154 | pgbench_accounts_pkey |        673882112

 2017-02-08 20:15:25.372273+01 | 1486581325.37227 | pgbench_branches_pkey |            16384
 2017-02-08 20:15:25.372273+01 | 1486581325.37227 | pgbench_tellers_pkey  |            90112
 2017-02-08 20:15:25.372273+01 | 1486581325.37227 | pgbench_accounts_pkey |        673882112

 2017-02-08 20:15:26.436114+01 | 1486581326.43611 | pgbench_branches_pkey |            16384
 2017-02-08 20:15:26.436114+01 | 1486581326.43611 | pgbench_tellers_pkey  |            90112
 2017-02-08 20:15:26.436114+01 | 1486581326.43611 | pgbench_accounts_pkey |        673882112

 2017-02-08 20:15:27.510672+01 | 1486581327.51067 | pgbench_branches_pkey |            16384
 2017-02-08 20:15:27.510672+01 | 1486581327.51067 | pgbench_tellers_pkey  |            90112
 2017-02-08 20:15:27.510672+01 | 1486581327.51067 | pgbench_accounts_pkey |        673882112

 2017-02-08 20:15:28.579792+01 | 1486581328.57979 | pgbench_branches_pkey |            16384
 2017-02-08 20:15:28.579792+01 | 1486581328.57979 | pgbench_tellers_pkey  |            90112
 2017-02-08 20:15:28.579792+01 | 1486581328.57979 | pgbench_accounts_pkey |        673882112

 2017-02-08 20:15:29.64755+01 | 1486581329.64755 | pgbench_branches_pkey |            16384
 2017-02-08 20:15:29.64755+01 | 1486581329.64755 | pgbench_tellers_pkey  |            90112
 2017-02-08 20:15:29.64755+01 | 1486581329.64755 | pgbench_accounts_pkey |        673882112

 2017-02-08 20:15:30.711478+01 | 1486581330.71148 | pgbench_branches_pkey |            16384
 2017-02-08 20:15:30.711478+01 | 1486581330.71148 | pgbench_tellers_pkey  |            90112
 2017-02-08 20:15:30.711478+01 | 1486581330.71148 | pgbench_accounts_pkey |        673882112

 2017-02-08 20:15:31.781343+01 | 1486581331.78134 | pgbench_branches_pkey |            16384
 2017-02-08 20:15:31.781343+01 | 1486581331.78134 | pgbench_tellers_pkey  |            90112
 2017-02-08 20:15:31.781343+01 | 1486581331.78134 | pgbench_accounts_pkey |        673882112

 2017-02-08 20:15:32.846839+01 | 1486581332.84684 | pgbench_branches_pkey |            16384
 2017-02-08 20:15:32.846839+01 | 1486581332.84684 | pgbench_tellers_pkey  |            90112
 2017-02-08 20:15:32.846839+01 | 1486581332.84684 | pgbench_accounts_pkey |        673882112

 2017-02-08 20:15:33.909002+01 | 1486581333.909 | pgbench_branches_pkey |            16384
 2017-02-08 20:15:33.909002+01 | 1486581333.909 | pgbench_tellers_pkey  |            90112
 2017-02-08 20:15:33.909002+01 | 1486581333.909 | pgbench_accounts_pkey |        673882112

 2017-02-08 20:15:34.973472+01 | 1486581334.97347 | pgbench_branches_pkey |            16384
 2017-02-08 20:15:34.973472+01 | 1486581334.97347 | pgbench_tellers_pkey  |            90112
 2017-02-08 20:15:34.973472+01 | 1486581334.97347 | pgbench_accounts_pkey |        673882112

 2017-02-08 20:15:36.047102+01 | 1486581336.0471 | pgbench_branches_pkey |            16384
 2017-02-08 20:15:36.047102+01 | 1486581336.0471 | pgbench_tellers_pkey  |            90112
 2017-02-08 20:15:36.047102+01 | 1486581336.0471 | pgbench_accounts_pkey |        673882112

 2017-02-08 20:15:37.120284+01 | 1486581337.12028 | pgbench_branches_pkey |            16384
 2017-02-08 20:15:37.120284+01 | 1486581337.12028 | pgbench_tellers_pkey  |            90112
 2017-02-08 20:15:37.120284+01 | 1486581337.12028 | pgbench_accounts_pkey |        673882112

 2017-02-08 20:15:38.18903+01 | 1486581338.18903 | pgbench_branches_pkey |            16384
 2017-02-08 20:15:38.18903+01 | 1486581338.18903 | pgbench_tellers_pkey  |            90112
 2017-02-08 20:15:38.18903+01 | 1486581338.18903 | pgbench_accounts_pkey |        673882112

 2017-02-08 20:15:39.248715+01 | 1486581339.24871 | pgbench_branches_pkey |            16384
 2017-02-08 20:15:39.248715+01 | 1486581339.24871 | pgbench_tellers_pkey  |            90112
 2017-02-08 20:15:39.248715+01 | 1486581339.24871 | pgbench_accounts_pkey |        673882112

 2017-02-08 20:15:40.309756+01 | 1486581340.30976 | pgbench_branches_pkey |            16384
 2017-02-08 20:15:40.309756+01 | 1486581340.30976 | pgbench_tellers_pkey  |            90112
 2017-02-08 20:15:40.309756+01 | 1486581340.30976 | pgbench_accounts_pkey |        673882112

 2017-02-08 20:15:41.376376+01 | 1486581341.37638 | pgbench_branches_pkey |            16384
 2017-02-08 20:15:41.376376+01 | 1486581341.37638 | pgbench_tellers_pkey  |            90112
 2017-02-08 20:15:41.376376+01 | 1486581341.37638 | pgbench_accounts_pkey |        673882112

 2017-02-08 20:15:42.437171+01 | 1486581342.43717 | pgbench_branches_pkey |            16384
 2017-02-08 20:15:42.437171+01 | 1486581342.43717 | pgbench_tellers_pkey  |            90112
 2017-02-08 20:15:42.437171+01 | 1486581342.43717 | pgbench_accounts_pkey |        673882112

 2017-02-08 20:15:43.494608+01 | 1486581343.49461 | pgbench_branches_pkey |            16384
 2017-02-08 20:15:43.494608+01 | 1486581343.49461 | pgbench_tellers_pkey  |            90112
 2017-02-08 20:15:43.494608+01 | 1486581343.49461 | pgbench_accounts_pkey |        673882112

 2017-02-08 20:15:44.553731+01 | 1486581344.55373 | pgbench_branches_pkey |            16384
 2017-02-08 20:15:44.553731+01 | 1486581344.55373 | pgbench_tellers_pkey  |            90112
 2017-02-08 20:15:44.553731+01 | 1486581344.55373 | pgbench_accounts_pkey |        673882112

 2017-02-08 20:15:45.620256+01 | 1486581345.62026 | pgbench_branches_pkey |            16384
 2017-02-08 20:15:45.620256+01 | 1486581345.62026 | pgbench_tellers_pkey  |            90112
 2017-02-08 20:15:45.620256+01 | 1486581345.62026 | pgbench_accounts_pkey |        673882112

 2017-02-08 20:15:46.688118+01 | 1486581346.68812 | pgbench_branches_pkey |            16384
 2017-02-08 20:15:46.688118+01 | 1486581346.68812 | pgbench_tellers_pkey  |            90112
 2017-02-08 20:15:46.688118+01 | 1486581346.68812 | pgbench_accounts_pkey |        673882112

 2017-02-08 20:15:47.745689+01 | 1486581347.74569 | pgbench_branches_pkey |            16384
 2017-02-08 20:15:47.745689+01 | 1486581347.74569 | pgbench_tellers_pkey  |            90112
 2017-02-08 20:15:47.745689+01 | 1486581347.74569 | pgbench_accounts_pkey |        673882112

 2017-02-08 20:15:48.804541+01 | 1486581348.80454 | pgbench_branches_pkey |            16384
 2017-02-08 20:15:48.804541+01 | 1486581348.80454 | pgbench_tellers_pkey  |            90112
 2017-02-08 20:15:48.804541+01 | 1486581348.80454 | pgbench_accounts_pkey |        673882112

 2017-02-08 20:15:49.87247+01 | 1486581349.87247 | pgbench_branches_pkey |            16384
 2017-02-08 20:15:49.87247+01 | 1486581349.87247 | pgbench_tellers_pkey  |            90112
 2017-02-08 20:15:49.87247+01 | 1486581349.87247 | pgbench_accounts_pkey |        673882112

 2017-02-08 20:15:50.943054+01 | 1486581350.94305 | pgbench_branches_pkey |            16384
 2017-02-08 20:15:50.943054+01 | 1486581350.94305 | pgbench_tellers_pkey  |            90112
 2017-02-08 20:15:50.943054+01 | 1486581350.94305 | pgbench_accounts_pkey |        673882112

 2017-02-08 20:15:52.018101+01 | 1486581352.0181 | pgbench_branches_pkey |            16384
 2017-02-08 20:15:52.018101+01 | 1486581352.0181 | pgbench_tellers_pkey  |            90112
 2017-02-08 20:15:52.018101+01 | 1486581352.0181 | pgbench_accounts_pkey |        673882112

 2017-02-08 20:15:53.079388+01 | 1486581353.07939 | pgbench_branches_pkey |            16384
 2017-02-08 20:15:53.079388+01 | 1486581353.07939 | pgbench_tellers_pkey  |            90112
 2017-02-08 20:15:53.079388+01 | 1486581353.07939 | pgbench_accounts_pkey |        673882112

 2017-02-08 20:15:54.140173+01 | 1486581354.14017 | pgbench_branches_pkey |            16384
 2017-02-08 20:15:54.140173+01 | 1486581354.14017 | pgbench_tellers_pkey  |            90112
 2017-02-08 20:15:54.140173+01 | 1486581354.14017 | pgbench_accounts_pkey |        673882112

 2017-02-08 20:15:55.20137+01 | 1486581355.20137 | pgbench_branches_pkey |            16384
 2017-02-08 20:15:55.20137+01 | 1486581355.20137 | pgbench_tellers_pkey  |            90112
 2017-02-08 20:15:55.20137+01 | 1486581355.20137 | pgbench_accounts_pkey |        673882112

 2017-02-08 20:15:56.274739+01 | 1486581356.27474 | pgbench_branches_pkey |            16384
 2017-02-08 20:15:56.274739+01 | 1486581356.27474 | pgbench_tellers_pkey  |            90112
 2017-02-08 20:15:56.274739+01 | 1486581356.27474 | pgbench_accounts_pkey |        673882112

 2017-02-08 20:15:57.343072+01 | 1486581357.34307 | pgbench_branches_pkey |            16384
 2017-02-08 20:15:57.343072+01 | 1486581357.34307 | pgbench_tellers_pkey  |            90112
 2017-02-08 20:15:57.343072+01 | 1486581357.34307 | pgbench_accounts_pkey |        673882112

 2017-02-08 20:15:58.404283+01 | 1486581358.40428 | pgbench_branches_pkey |            16384
 2017-02-08 20:15:58.404283+01 | 1486581358.40428 | pgbench_tellers_pkey  |            90112
 2017-02-08 20:15:58.404283+01 | 1486581358.40428 | pgbench_accounts_pkey |        673882112

 2017-02-08 20:15:59.465418+01 | 1486581359.46542 | pgbench_branches_pkey |            16384
 2017-02-08 20:15:59.465418+01 | 1486581359.46542 | pgbench_tellers_pkey  |            90112
 2017-02-08 20:15:59.465418+01 | 1486581359.46542 | pgbench_accounts_pkey |        673882112

 2017-02-08 20:16:00.538017+01 | 1486581360.53802 | pgbench_branches_pkey |            16384
 2017-02-08 20:16:00.538017+01 | 1486581360.53802 | pgbench_tellers_pkey  |            90112
 2017-02-08 20:16:00.538017+01 | 1486581360.53802 | pgbench_accounts_pkey |        673882112

 2017-02-08 20:16:01.617185+01 | 1486581361.61719 | pgbench_branches_pkey |            16384
 2017-02-08 20:16:01.617185+01 | 1486581361.61719 | pgbench_tellers_pkey  |            90112
 2017-02-08 20:16:01.617185+01 | 1486581361.61719 | pgbench_accounts_pkey |        673882112

 2017-02-08 20:16:02.682749+01 | 1486581362.68275 | pgbench_branches_pkey |            16384
 2017-02-08 20:16:02.682749+01 | 1486581362.68275 | pgbench_tellers_pkey  |            90112
 2017-02-08 20:16:02.682749+01 | 1486581362.68275 | pgbench_accounts_pkey |        673882112

 2017-02-08 20:16:03.749191+01 | 1486581363.74919 | pgbench_branches_pkey |            16384
 2017-02-08 20:16:03.749191+01 | 1486581363.74919 | pgbench_tellers_pkey  |            90112
 2017-02-08 20:16:03.749191+01 | 1486581363.74919 | pgbench_accounts_pkey |        673882112

 2017-02-08 20:16:04.806703+01 | 1486581364.8067 | pgbench_branches_pkey |            16384
 2017-02-08 20:16:04.806703+01 | 1486581364.8067 | pgbench_tellers_pkey  |            90112
 2017-02-08 20:16:04.806703+01 | 1486581364.8067 | pgbench_accounts_pkey |        673882112

 2017-02-08 20:16:05.882823+01 | 1486581365.88282 | pgbench_branches_pkey |            16384
 2017-02-08 20:16:05.882823+01 | 1486581365.88282 | pgbench_tellers_pkey  |            90112
 2017-02-08 20:16:05.882823+01 | 1486581365.88282 | pgbench_accounts_pkey |        673882112

 2017-02-08 20:16:06.959915+01 | 1486581366.95991 | pgbench_branches_pkey |            16384
 2017-02-08 20:16:06.959915+01 | 1486581366.95991 | pgbench_tellers_pkey  |            90112
 2017-02-08 20:16:06.959915+01 | 1486581366.95991 | pgbench_accounts_pkey |        673882112

 2017-02-08 20:16:08.021747+01 | 1486581368.02175 | pgbench_branches_pkey |            16384
 2017-02-08 20:16:08.021747+01 | 1486581368.02175 | pgbench_tellers_pkey  |            90112
 2017-02-08 20:16:08.021747+01 | 1486581368.02175 | pgbench_accounts_pkey |        673882112

 2017-02-08 20:16:09.079081+01 | 1486581369.07908 | pgbench_branches_pkey |            16384
 2017-02-08 20:16:09.079081+01 | 1486581369.07908 | pgbench_tellers_pkey  |            90112
 2017-02-08 20:16:09.079081+01 | 1486581369.07908 | pgbench_accounts_pkey |        673882112

 2017-02-08 20:16:10.148981+01 | 1486581370.14898 | pgbench_branches_pkey |            16384
 2017-02-08 20:16:10.148981+01 | 1486581370.14898 | pgbench_tellers_pkey  |            90112
 2017-02-08 20:16:10.148981+01 | 1486581370.14898 | pgbench_accounts_pkey |        673882112

 2017-02-08 20:16:11.211744+01 | 1486581371.21174 | pgbench_branches_pkey |            16384
 2017-02-08 20:16:11.211744+01 | 1486581371.21174 | pgbench_tellers_pkey  |            90112
 2017-02-08 20:16:11.211744+01 | 1486581371.21174 | pgbench_accounts_pkey |        673882112

 2017-02-08 20:16:12.279621+01 | 1486581372.27962 | pgbench_branches_pkey |            16384
 2017-02-08 20:16:12.279621+01 | 1486581372.27962 | pgbench_tellers_pkey  |            90112
 2017-02-08 20:16:12.279621+01 | 1486581372.27962 | pgbench_accounts_pkey |        673882112

 2017-02-08 20:16:13.355986+01 | 1486581373.35599 | pgbench_branches_pkey |            16384
 2017-02-08 20:16:13.355986+01 | 1486581373.35599 | pgbench_tellers_pkey  |            90112
 2017-02-08 20:16:13.355986+01 | 1486581373.35599 | pgbench_accounts_pkey |        673882112

 2017-02-08 20:16:14.428237+01 | 1486581374.42824 | pgbench_branches_pkey |            16384
 2017-02-08 20:16:14.428237+01 | 1486581374.42824 | pgbench_tellers_pkey  |            90112
 2017-02-08 20:16:14.428237+01 | 1486581374.42824 | pgbench_accounts_pkey |        673882112

 2017-02-08 20:16:15.499642+01 | 1486581375.49964 | pgbench_branches_pkey |            16384
 2017-02-08 20:16:15.499642+01 | 1486581375.49964 | pgbench_tellers_pkey  |            90112
 2017-02-08 20:16:15.499642+01 | 1486581375.49964 | pgbench_accounts_pkey |        673882112

 2017-02-08 20:16:16.568928+01 | 1486581376.56893 | pgbench_branches_pkey |            16384
 2017-02-08 20:16:16.568928+01 | 1486581376.56893 | pgbench_tellers_pkey  |            90112
 2017-02-08 20:16:16.568928+01 | 1486581376.56893 | pgbench_accounts_pkey |        673882112

 2017-02-08 20:16:17.642176+01 | 1486581377.64218 | pgbench_branches_pkey |            16384
 2017-02-08 20:16:17.642176+01 | 1486581377.64218 | pgbench_tellers_pkey  |            90112
 2017-02-08 20:16:17.642176+01 | 1486581377.64218 | pgbench_accounts_pkey |        673882112

 2017-02-08 20:16:18.698082+01 | 1486581378.69808 | pgbench_branches_pkey |            16384
 2017-02-08 20:16:18.698082+01 | 1486581378.69808 | pgbench_tellers_pkey  |            90112
 2017-02-08 20:16:18.698082+01 | 1486581378.69808 | pgbench_accounts_pkey |        673882112

 2017-02-08 20:16:19.762912+01 | 1486581379.76291 | pgbench_branches_pkey |            16384
 2017-02-08 20:16:19.762912+01 | 1486581379.76291 | pgbench_tellers_pkey  |            90112
 2017-02-08 20:16:19.762912+01 | 1486581379.76291 | pgbench_accounts_pkey |        673882112

 2017-02-08 20:16:20.829516+01 | 1486581380.82952 | pgbench_branches_pkey |            16384
 2017-02-08 20:16:20.829516+01 | 1486581380.82952 | pgbench_tellers_pkey  |            90112
 2017-02-08 20:16:20.829516+01 | 1486581380.82952 | pgbench_accounts_pkey |        673882112

 2017-02-08 20:16:21.897341+01 | 1486581381.89734 | pgbench_branches_pkey |            16384
 2017-02-08 20:16:21.897341+01 | 1486581381.89734 | pgbench_tellers_pkey  |            90112
 2017-02-08 20:16:21.897341+01 | 1486581381.89734 | pgbench_accounts_pkey |        673882112

 2017-02-08 20:16:22.968559+01 | 1486581382.96856 | pgbench_branches_pkey |            16384
 2017-02-08 20:16:22.968559+01 | 1486581382.96856 | pgbench_tellers_pkey  |            90112
 2017-02-08 20:16:22.968559+01 | 1486581382.96856 | pgbench_accounts_pkey |        673882112

 2017-02-08 20:16:24.046297+01 | 1486581384.0463 | pgbench_branches_pkey |            16384
 2017-02-08 20:16:24.046297+01 | 1486581384.0463 | pgbench_tellers_pkey  |            90112
 2017-02-08 20:16:24.046297+01 | 1486581384.0463 | pgbench_accounts_pkey |        673882112

 2017-02-08 20:16:25.12016+01 | 1486581385.12016 | pgbench_branches_pkey |            16384
 2017-02-08 20:16:25.12016+01 | 1486581385.12016 | pgbench_tellers_pkey  |            90112
 2017-02-08 20:16:25.12016+01 | 1486581385.12016 | pgbench_accounts_pkey |        673882112

 2017-02-08 20:16:26.189747+01 | 1486581386.18975 | pgbench_branches_pkey |            16384
 2017-02-08 20:16:26.189747+01 | 1486581386.18975 | pgbench_tellers_pkey  |            90112
 2017-02-08 20:16:26.189747+01 | 1486581386.18975 | pgbench_accounts_pkey |        673882112

 2017-02-08 20:16:27.257947+01 | 1486581387.25795 | pgbench_branches_pkey |            16384
 2017-02-08 20:16:27.257947+01 | 1486581387.25795 | pgbench_tellers_pkey  |            90112
 2017-02-08 20:16:27.257947+01 | 1486581387.25795 | pgbench_accounts_pkey |        673882112

 2017-02-08 20:16:28.329176+01 | 1486581388.32918 | pgbench_branches_pkey |            16384
 2017-02-08 20:16:28.329176+01 | 1486581388.32918 | pgbench_tellers_pkey  |            90112
 2017-02-08 20:16:28.329176+01 | 1486581388.32918 | pgbench_accounts_pkey |        673882112

 2017-02-08 20:16:29.389258+01 | 1486581389.38926 | pgbench_branches_pkey |            16384
 2017-02-08 20:16:29.389258+01 | 1486581389.38926 | pgbench_tellers_pkey  |            90112
 2017-02-08 20:16:29.389258+01 | 1486581389.38926 | pgbench_accounts_pkey |        673882112

 2017-02-08 20:16:30.445825+01 | 1486581390.44583 | pgbench_branches_pkey |            16384
 2017-02-08 20:16:30.445825+01 | 1486581390.44583 | pgbench_tellers_pkey  |            90112
 2017-02-08 20:16:30.445825+01 | 1486581390.44583 | pgbench_accounts_pkey |        673882112

 2017-02-08 20:16:31.511468+01 | 1486581391.51147 | pgbench_branches_pkey |            16384
 2017-02-08 20:16:31.511468+01 | 1486581391.51147 | pgbench_tellers_pkey  |            90112
 2017-02-08 20:16:31.511468+01 | 1486581391.51147 | pgbench_accounts_pkey |        673882112

 2017-02-08 20:16:32.585374+01 | 1486581392.58537 | pgbench_branches_pkey |            16384
 2017-02-08 20:16:32.585374+01 | 1486581392.58537 | pgbench_tellers_pkey  |            90112
 2017-02-08 20:16:32.585374+01 | 1486581392.58537 | pgbench_accounts_pkey |        673882112

 2017-02-08 20:16:33.650559+01 | 1486581393.65056 | pgbench_branches_pkey |            16384
 2017-02-08 20:16:33.650559+01 | 1486581393.65056 | pgbench_tellers_pkey  |            90112
 2017-02-08 20:16:33.650559+01 | 1486581393.65056 | pgbench_accounts_pkey |        673882112

 2017-02-08 20:16:34.717176+01 | 1486581394.71718 | pgbench_branches_pkey |            16384
 2017-02-08 20:16:34.717176+01 | 1486581394.71718 | pgbench_tellers_pkey  |            90112
 2017-02-08 20:16:34.717176+01 | 1486581394.71718 | pgbench_accounts_pkey |        673882112

 2017-02-08 20:16:35.77847+01 | 1486581395.77847 | pgbench_branches_pkey |            16384
 2017-02-08 20:16:35.77847+01 | 1486581395.77847 | pgbench_tellers_pkey  |            90112
 2017-02-08 20:16:35.77847+01 | 1486581395.77847 | pgbench_accounts_pkey |        673882112

 2017-02-08 20:16:36.844504+01 | 1486581396.8445 | pgbench_branches_pkey |            16384
 2017-02-08 20:16:36.844504+01 | 1486581396.8445 | pgbench_tellers_pkey  |            90112
 2017-02-08 20:16:36.844504+01 | 1486581396.8445 | pgbench_accounts_pkey |        673882112

 2017-02-08 20:16:37.906641+01 | 1486581397.90664 | pgbench_branches_pkey |            16384
 2017-02-08 20:16:37.906641+01 | 1486581397.90664 | pgbench_tellers_pkey  |            90112
 2017-02-08 20:16:37.906641+01 | 1486581397.90664 | pgbench_accounts_pkey |        673882112

 2017-02-08 20:16:38.967887+01 | 1486581398.96789 | pgbench_branches_pkey |            16384
 2017-02-08 20:16:38.967887+01 | 1486581398.96789 | pgbench_tellers_pkey  |            90112
 2017-02-08 20:16:38.967887+01 | 1486581398.96789 | pgbench_accounts_pkey |        673882112

 2017-02-08 20:16:40.026619+01 | 1486581400.02662 | pgbench_branches_pkey |            16384
 2017-02-08 20:16:40.026619+01 | 1486581400.02662 | pgbench_tellers_pkey  |            90112
 2017-02-08 20:16:40.026619+01 | 1486581400.02662 | pgbench_accounts_pkey |        673882112

 2017-02-08 20:16:41.088646+01 | 1486581401.08865 | pgbench_branches_pkey |            16384
 2017-02-08 20:16:41.088646+01 | 1486581401.08865 | pgbench_tellers_pkey  |            90112
 2017-02-08 20:16:41.088646+01 | 1486581401.08865 | pgbench_accounts_pkey |        673882112

 2017-02-08 20:16:42.15102+01 | 1486581402.15102 | pgbench_branches_pkey |            16384
 2017-02-08 20:16:42.15102+01 | 1486581402.15102 | pgbench_tellers_pkey  |            90112
 2017-02-08 20:16:42.15102+01 | 1486581402.15102 | pgbench_accounts_pkey |        673882112

 2017-02-08 20:16:43.225936+01 | 1486581403.22594 | pgbench_branches_pkey |            16384
 2017-02-08 20:16:43.225936+01 | 1486581403.22594 | pgbench_tellers_pkey  |            90112
 2017-02-08 20:16:43.225936+01 | 1486581403.22594 | pgbench_accounts_pkey |        673882112

 2017-02-08 20:16:44.284784+01 | 1486581404.28478 | pgbench_branches_pkey |            16384
 2017-02-08 20:16:44.284784+01 | 1486581404.28478 | pgbench_tellers_pkey  |            90112
 2017-02-08 20:16:44.284784+01 | 1486581404.28478 | pgbench_accounts_pkey |        673882112

 2017-02-08 20:16:45.364777+01 | 1486581405.36478 | pgbench_branches_pkey |            16384
 2017-02-08 20:16:45.364777+01 | 1486581405.36478 | pgbench_tellers_pkey  |            90112
 2017-02-08 20:16:45.364777+01 | 1486581405.36478 | pgbench_accounts_pkey |        673882112

 2017-02-08 20:16:46.429103+01 | 1486581406.4291 | pgbench_branches_pkey |            16384
 2017-02-08 20:16:46.429103+01 | 1486581406.4291 | pgbench_tellers_pkey  |            90112
 2017-02-08 20:16:46.429103+01 | 1486581406.4291 | pgbench_accounts_pkey |        673882112

 2017-02-08 20:16:47.495541+01 | 1486581407.49554 | pgbench_branches_pkey |            16384
 2017-02-08 20:16:47.495541+01 | 1486581407.49554 | pgbench_tellers_pkey  |            90112
 2017-02-08 20:16:47.495541+01 | 1486581407.49554 | pgbench_accounts_pkey |        673882112

 2017-02-08 20:16:48.554136+01 | 1486581408.55414 | pgbench_branches_pkey |            16384
 2017-02-08 20:16:48.554136+01 | 1486581408.55414 | pgbench_tellers_pkey  |            90112
 2017-02-08 20:16:48.554136+01 | 1486581408.55414 | pgbench_accounts_pkey |        673882112

 2017-02-08 20:16:49.621749+01 | 1486581409.62175 | pgbench_branches_pkey |            16384
 2017-02-08 20:16:49.621749+01 | 1486581409.62175 | pgbench_tellers_pkey  |            90112
 2017-02-08 20:16:49.621749+01 | 1486581409.62175 | pgbench_accounts_pkey |        673882112

 2017-02-08 20:16:50.686215+01 | 1486581410.68621 | pgbench_branches_pkey |            16384
 2017-02-08 20:16:50.686215+01 | 1486581410.68621 | pgbench_tellers_pkey  |            90112
 2017-02-08 20:16:50.686215+01 | 1486581410.68621 | pgbench_accounts_pkey |        673882112

 2017-02-08 20:16:51.747673+01 | 1486581411.74767 | pgbench_branches_pkey |            16384
 2017-02-08 20:16:51.747673+01 | 1486581411.74767 | pgbench_tellers_pkey  |            90112
 2017-02-08 20:16:51.747673+01 | 1486581411.74767 | pgbench_accounts_pkey |        673882112

 2017-02-08 20:16:52.807457+01 | 1486581412.80746 | pgbench_branches_pkey |            16384
 2017-02-08 20:16:52.807457+01 | 1486581412.80746 | pgbench_tellers_pkey  |            90112
 2017-02-08 20:16:52.807457+01 | 1486581412.80746 | pgbench_accounts_pkey |        673882112

 2017-02-08 20:16:53.875578+01 | 1486581413.87558 | pgbench_branches_pkey |            16384
 2017-02-08 20:16:53.875578+01 | 1486581413.87558 | pgbench_tellers_pkey  |            90112
 2017-02-08 20:16:53.875578+01 | 1486581413.87558 | pgbench_accounts_pkey |        673882112

 2017-02-08 20:16:54.953087+01 | 1486581414.95309 | pgbench_branches_pkey |            16384
 2017-02-08 20:16:54.953087+01 | 1486581414.95309 | pgbench_tellers_pkey  |            90112
 2017-02-08 20:16:54.953087+01 | 1486581414.95309 | pgbench_accounts_pkey |        673882112

 2017-02-08 20:16:56.021705+01 | 1486581416.0217 | pgbench_branches_pkey |            16384
 2017-02-08 20:16:56.021705+01 | 1486581416.0217 | pgbench_tellers_pkey  |            90112
 2017-02-08 20:16:56.021705+01 | 1486581416.0217 | pgbench_accounts_pkey |        673882112

 2017-02-08 20:16:57.085905+01 | 1486581417.08591 | pgbench_branches_pkey |            16384
 2017-02-08 20:16:57.085905+01 | 1486581417.08591 | pgbench_tellers_pkey  |            90112
 2017-02-08 20:16:57.085905+01 | 1486581417.08591 | pgbench_accounts_pkey |        673882112

 2017-02-08 20:16:58.140884+01 | 1486581418.14088 | pgbench_branches_pkey |            16384
 2017-02-08 20:16:58.140884+01 | 1486581418.14088 | pgbench_tellers_pkey  |            90112
 2017-02-08 20:16:58.140884+01 | 1486581418.14088 | pgbench_accounts_pkey |        673882112

 2017-02-08 20:16:59.204503+01 | 1486581419.2045 | pgbench_branches_pkey |            16384
 2017-02-08 20:16:59.204503+01 | 1486581419.2045 | pgbench_tellers_pkey  |            90112
 2017-02-08 20:16:59.204503+01 | 1486581419.2045 | pgbench_accounts_pkey |        673882112

 2017-02-08 20:17:00.269347+01 | 1486581420.26935 | pgbench_branches_pkey |            16384
 2017-02-08 20:17:00.269347+01 | 1486581420.26935 | pgbench_tellers_pkey  |            90112
 2017-02-08 20:17:00.269347+01 | 1486581420.26935 | pgbench_accounts_pkey |        673882112

 2017-02-08 20:17:01.340834+01 | 1486581421.34083 | pgbench_branches_pkey |            16384
 2017-02-08 20:17:01.340834+01 | 1486581421.34083 | pgbench_tellers_pkey  |            90112
 2017-02-08 20:17:01.340834+01 | 1486581421.34083 | pgbench_accounts_pkey |        673882112

 2017-02-08 20:17:02.420142+01 | 1486581422.42014 | pgbench_branches_pkey |            16384
 2017-02-08 20:17:02.420142+01 | 1486581422.42014 | pgbench_tellers_pkey  |            90112
 2017-02-08 20:17:02.420142+01 | 1486581422.42014 | pgbench_accounts_pkey |        673882112

 2017-02-08 20:17:03.478485+01 | 1486581423.47849 | pgbench_branches_pkey |            16384
 2017-02-08 20:17:03.478485+01 | 1486581423.47849 | pgbench_tellers_pkey  |            90112
 2017-02-08 20:17:03.478485+01 | 1486581423.47849 | pgbench_accounts_pkey |        673882112

 2017-02-08 20:17:04.545657+01 | 1486581424.54566 | pgbench_branches_pkey |            16384
 2017-02-08 20:17:04.545657+01 | 1486581424.54566 | pgbench_tellers_pkey  |            90112
 2017-02-08 20:17:04.545657+01 | 1486581424.54566 | pgbench_accounts_pkey |        673882112

 2017-02-08 20:17:05.615749+01 | 1486581425.61575 | pgbench_branches_pkey |            16384
 2017-02-08 20:17:05.615749+01 | 1486581425.61575 | pgbench_tellers_pkey  |            90112
 2017-02-08 20:17:05.615749+01 | 1486581425.61575 | pgbench_accounts_pkey |        673882112

 2017-02-08 20:17:06.675287+01 | 1486581426.67529 | pgbench_branches_pkey |            16384
 2017-02-08 20:17:06.675287+01 | 1486581426.67529 | pgbench_tellers_pkey  |            90112
 2017-02-08 20:17:06.675287+01 | 1486581426.67529 | pgbench_accounts_pkey |        673882112

 2017-02-08 20:17:07.743666+01 | 1486581427.74367 | pgbench_branches_pkey |            16384
 2017-02-08 20:17:07.743666+01 | 1486581427.74367 | pgbench_tellers_pkey  |            90112
 2017-02-08 20:17:07.743666+01 | 1486581427.74367 | pgbench_accounts_pkey |        673882112

 2017-02-08 20:17:08.829549+01 | 1486581428.82955 | pgbench_branches_pkey |            16384
 2017-02-08 20:17:08.829549+01 | 1486581428.82955 | pgbench_tellers_pkey  |            90112
 2017-02-08 20:17:08.829549+01 | 1486581428.82955 | pgbench_accounts_pkey |        673882112

 2017-02-08 20:17:09.889295+01 | 1486581429.8893 | pgbench_branches_pkey |            16384
 2017-02-08 20:17:09.889295+01 | 1486581429.8893 | pgbench_tellers_pkey  |            90112
 2017-02-08 20:17:09.889295+01 | 1486581429.8893 | pgbench_accounts_pkey |        673882112

 2017-02-08 20:17:10.953499+01 | 1486581430.9535 | pgbench_branches_pkey |            16384
 2017-02-08 20:17:10.953499+01 | 1486581430.9535 | pgbench_tellers_pkey  |            90112
 2017-02-08 20:17:10.953499+01 | 1486581430.9535 | pgbench_accounts_pkey |        673882112

 2017-02-08 20:17:12.020999+01 | 1486581432.021 | pgbench_branches_pkey |            16384
 2017-02-08 20:17:12.020999+01 | 1486581432.021 | pgbench_tellers_pkey  |            90112
 2017-02-08 20:17:12.020999+01 | 1486581432.021 | pgbench_accounts_pkey |        673882112

 2017-02-08 20:17:13.090806+01 | 1486581433.09081 | pgbench_branches_pkey |            16384
 2017-02-08 20:17:13.090806+01 | 1486581433.09081 | pgbench_tellers_pkey  |            90112
 2017-02-08 20:17:13.090806+01 | 1486581433.09081 | pgbench_accounts_pkey |        673882112

 2017-02-08 20:17:14.169993+01 | 1486581434.16999 | pgbench_branches_pkey |            16384
 2017-02-08 20:17:14.169993+01 | 1486581434.16999 | pgbench_tellers_pkey  |            90112
 2017-02-08 20:17:14.169993+01 | 1486581434.16999 | pgbench_accounts_pkey |        673882112

 2017-02-08 20:17:15.243874+01 | 1486581435.24387 | pgbench_branches_pkey |            16384
 2017-02-08 20:17:15.243874+01 | 1486581435.24387 | pgbench_tellers_pkey  |            90112
 2017-02-08 20:17:15.243874+01 | 1486581435.24387 | pgbench_accounts_pkey |        673882112

 2017-02-08 20:17:16.307476+01 | 1486581436.30748 | pgbench_branches_pkey |            16384
 2017-02-08 20:17:16.307476+01 | 1486581436.30748 | pgbench_tellers_pkey  |            90112
 2017-02-08 20:17:16.307476+01 | 1486581436.30748 | pgbench_accounts_pkey |        673882112

 2017-02-08 20:17:17.379802+01 | 1486581437.3798 | pgbench_branches_pkey |            16384
 2017-02-08 20:17:17.379802+01 | 1486581437.3798 | pgbench_tellers_pkey  |            90112
 2017-02-08 20:17:17.379802+01 | 1486581437.3798 | pgbench_accounts_pkey |        673882112

 2017-02-08 20:17:18.44641+01 | 1486581438.44641 | pgbench_branches_pkey |            16384
 2017-02-08 20:17:18.44641+01 | 1486581438.44641 | pgbench_tellers_pkey  |            90112
 2017-02-08 20:17:18.44641+01 | 1486581438.44641 | pgbench_accounts_pkey |        673882112

 2017-02-08 20:17:19.514335+01 | 1486581439.51433 | pgbench_branches_pkey |            16384
 2017-02-08 20:17:19.514335+01 | 1486581439.51433 | pgbench_tellers_pkey  |            90112
 2017-02-08 20:17:19.514335+01 | 1486581439.51433 | pgbench_accounts_pkey |        673882112

 2017-02-08 20:17:20.58101+01 | 1486581440.58101 | pgbench_branches_pkey |            16384
 2017-02-08 20:17:20.58101+01 | 1486581440.58101 | pgbench_tellers_pkey  |            90112
 2017-02-08 20:17:20.58101+01 | 1486581440.58101 | pgbench_accounts_pkey |        673882112

 2017-02-08 20:17:21.661012+01 | 1486581441.66101 | pgbench_branches_pkey |            16384
 2017-02-08 20:17:21.661012+01 | 1486581441.66101 | pgbench_tellers_pkey  |            90112
 2017-02-08 20:17:21.661012+01 | 1486581441.66101 | pgbench_accounts_pkey |        673882112

 2017-02-08 20:17:22.735604+01 | 1486581442.7356 | pgbench_branches_pkey |            16384
 2017-02-08 20:17:22.735604+01 | 1486581442.7356 | pgbench_tellers_pkey  |            90112
 2017-02-08 20:17:22.735604+01 | 1486581442.7356 | pgbench_accounts_pkey |        673882112

 2017-02-08 20:17:23.794981+01 | 1486581443.79498 | pgbench_branches_pkey |            16384
 2017-02-08 20:17:23.794981+01 | 1486581443.79498 | pgbench_tellers_pkey  |            90112
 2017-02-08 20:17:23.794981+01 | 1486581443.79498 | pgbench_accounts_pkey |        673882112

 2017-02-08 20:17:24.861858+01 | 1486581444.86186 | pgbench_branches_pkey |            16384
 2017-02-08 20:17:24.861858+01 | 1486581444.86186 | pgbench_tellers_pkey  |            90112
 2017-02-08 20:17:24.861858+01 | 1486581444.86186 | pgbench_accounts_pkey |        673882112

 2017-02-08 20:17:25.9256+01 | 1486581445.9256 | pgbench_branches_pkey |            16384
 2017-02-08 20:17:25.9256+01 | 1486581445.9256 | pgbench_tellers_pkey  |            90112
 2017-02-08 20:17:25.9256+01 | 1486581445.9256 | pgbench_accounts_pkey |        673882112

 2017-02-08 20:17:26.993423+01 | 1486581446.99342 | pgbench_branches_pkey |            16384
 2017-02-08 20:17:26.993423+01 | 1486581446.99342 | pgbench_tellers_pkey  |            90112
 2017-02-08 20:17:26.993423+01 | 1486581446.99342 | pgbench_accounts_pkey |        673882112

 2017-02-08 20:17:28.0626+01 | 1486581448.0626 | pgbench_branches_pkey |            16384
 2017-02-08 20:17:28.0626+01 | 1486581448.0626 | pgbench_tellers_pkey  |            90112
 2017-02-08 20:17:28.0626+01 | 1486581448.0626 | pgbench_accounts_pkey |        673882112

 2017-02-08 20:17:29.128826+01 | 1486581449.12883 | pgbench_branches_pkey |            16384
 2017-02-08 20:17:29.128826+01 | 1486581449.12883 | pgbench_tellers_pkey  |            90112
 2017-02-08 20:17:29.128826+01 | 1486581449.12883 | pgbench_accounts_pkey |        673882112

 2017-02-08 20:17:30.191989+01 | 1486581450.19199 | pgbench_branches_pkey |            16384
 2017-02-08 20:17:30.191989+01 | 1486581450.19199 | pgbench_tellers_pkey  |            90112
 2017-02-08 20:17:30.191989+01 | 1486581450.19199 | pgbench_accounts_pkey |        673882112

 2017-02-08 20:17:31.256091+01 | 1486581451.25609 | pgbench_branches_pkey |            16384
 2017-02-08 20:17:31.256091+01 | 1486581451.25609 | pgbench_tellers_pkey  |            90112
 2017-02-08 20:17:31.256091+01 | 1486581451.25609 | pgbench_accounts_pkey |        673882112

 2017-02-08 20:17:32.335397+01 | 1486581452.3354 | pgbench_branches_pkey |            16384
 2017-02-08 20:17:32.335397+01 | 1486581452.3354 | pgbench_tellers_pkey  |            90112
 2017-02-08 20:17:32.335397+01 | 1486581452.3354 | pgbench_accounts_pkey |        673882112

 2017-02-08 20:17:33.402664+01 | 1486581453.40266 | pgbench_branches_pkey |            16384
 2017-02-08 20:17:33.402664+01 | 1486581453.40266 | pgbench_tellers_pkey  |            90112
 2017-02-08 20:17:33.402664+01 | 1486581453.40266 | pgbench_accounts_pkey |        673882112

 2017-02-08 20:17:34.477708+01 | 1486581454.47771 | pgbench_branches_pkey |            16384
 2017-02-08 20:17:34.477708+01 | 1486581454.47771 | pgbench_tellers_pkey  |            90112
 2017-02-08 20:17:34.477708+01 | 1486581454.47771 | pgbench_accounts_pkey |        673882112

 2017-02-08 20:17:35.542274+01 | 1486581455.54227 | pgbench_branches_pkey |            16384
 2017-02-08 20:17:35.542274+01 | 1486581455.54227 | pgbench_tellers_pkey  |            90112
 2017-02-08 20:17:35.542274+01 | 1486581455.54227 | pgbench_accounts_pkey |        673882112

 2017-02-08 20:17:36.610242+01 | 1486581456.61024 | pgbench_branches_pkey |            16384
 2017-02-08 20:17:36.610242+01 | 1486581456.61024 | pgbench_tellers_pkey  |            90112
 2017-02-08 20:17:36.610242+01 | 1486581456.61024 | pgbench_accounts_pkey |        673882112

 2017-02-08 20:17:37.672402+01 | 1486581457.6724 | pgbench_branches_pkey |            16384
 2017-02-08 20:17:37.672402+01 | 1486581457.6724 | pgbench_tellers_pkey  |            90112
 2017-02-08 20:17:37.672402+01 | 1486581457.6724 | pgbench_accounts_pkey |        673882112

 2017-02-08 20:17:38.735868+01 | 1486581458.73587 | pgbench_branches_pkey |            16384
 2017-02-08 20:17:38.735868+01 | 1486581458.73587 | pgbench_tellers_pkey  |            90112
 2017-02-08 20:17:38.735868+01 | 1486581458.73587 | pgbench_accounts_pkey |        673882112

 2017-02-08 20:17:39.802797+01 | 1486581459.8028 | pgbench_branches_pkey |            16384
 2017-02-08 20:17:39.802797+01 | 1486581459.8028 | pgbench_tellers_pkey  |            90112
 2017-02-08 20:17:39.802797+01 | 1486581459.8028 | pgbench_accounts_pkey |        673882112

 2017-02-08 20:17:40.865533+01 | 1486581460.86553 | pgbench_branches_pkey |            16384
 2017-02-08 20:17:40.865533+01 | 1486581460.86553 | pgbench_tellers_pkey  |            90112
 2017-02-08 20:17:40.865533+01 | 1486581460.86553 | pgbench_accounts_pkey |        673882112

 2017-02-08 20:17:41.928777+01 | 1486581461.92878 | pgbench_branches_pkey |            16384
 2017-02-08 20:17:41.928777+01 | 1486581461.92878 | pgbench_tellers_pkey  |            90112
 2017-02-08 20:17:41.928777+01 | 1486581461.92878 | pgbench_accounts_pkey |        673882112

 2017-02-08 20:17:42.992633+01 | 1486581462.99263 | pgbench_branches_pkey |            16384
 2017-02-08 20:17:42.992633+01 | 1486581462.99263 | pgbench_tellers_pkey  |            90112
 2017-02-08 20:17:42.992633+01 | 1486581462.99263 | pgbench_accounts_pkey |        673882112

 2017-02-08 20:17:44.069778+01 | 1486581464.06978 | pgbench_branches_pkey |            16384
 2017-02-08 20:17:44.069778+01 | 1486581464.06978 | pgbench_tellers_pkey  |            90112
 2017-02-08 20:17:44.069778+01 | 1486581464.06978 | pgbench_accounts_pkey |        673882112

 2017-02-08 20:17:45.135582+01 | 1486581465.13558 | pgbench_branches_pkey |            16384
 2017-02-08 20:17:45.135582+01 | 1486581465.13558 | pgbench_tellers_pkey  |            90112
 2017-02-08 20:17:45.135582+01 | 1486581465.13558 | pgbench_accounts_pkey |        673882112

 2017-02-08 20:17:46.213569+01 | 1486581466.21357 | pgbench_branches_pkey |            16384
 2017-02-08 20:17:46.213569+01 | 1486581466.21357 | pgbench_tellers_pkey  |            90112
 2017-02-08 20:17:46.213569+01 | 1486581466.21357 | pgbench_accounts_pkey |        673882112

 2017-02-08 20:17:47.288234+01 | 1486581467.28823 | pgbench_branches_pkey |            16384
 2017-02-08 20:17:47.288234+01 | 1486581467.28823 | pgbench_tellers_pkey  |            90112
 2017-02-08 20:17:47.288234+01 | 1486581467.28823 | pgbench_accounts_pkey |        673882112

 2017-02-08 20:17:48.355486+01 | 1486581468.35549 | pgbench_branches_pkey |            16384
 2017-02-08 20:17:48.355486+01 | 1486581468.35549 | pgbench_tellers_pkey  |            90112
 2017-02-08 20:17:48.355486+01 | 1486581468.35549 | pgbench_accounts_pkey |        673882112

 2017-02-08 20:17:49.426957+01 | 1486581469.42696 | pgbench_branches_pkey |            16384
 2017-02-08 20:17:49.426957+01 | 1486581469.42696 | pgbench_tellers_pkey  |            90112
 2017-02-08 20:17:49.426957+01 | 1486581469.42696 | pgbench_accounts_pkey |        673882112

 2017-02-08 20:17:50.486031+01 | 1486581470.48603 | pgbench_branches_pkey |            16384
 2017-02-08 20:17:50.486031+01 | 1486581470.48603 | pgbench_tellers_pkey  |            90112
 2017-02-08 20:17:50.486031+01 | 1486581470.48603 | pgbench_accounts_pkey |        673882112

 2017-02-08 20:17:51.564604+01 | 1486581471.5646 | pgbench_branches_pkey |            16384
 2017-02-08 20:17:51.564604+01 | 1486581471.5646 | pgbench_tellers_pkey  |            90112
 2017-02-08 20:17:51.564604+01 | 1486581471.5646 | pgbench_accounts_pkey |        673882112

 2017-02-08 20:17:52.64207+01 | 1486581472.64207 | pgbench_branches_pkey |            16384
 2017-02-08 20:17:52.64207+01 | 1486581472.64207 | pgbench_tellers_pkey  |            90112
 2017-02-08 20:17:52.64207+01 | 1486581472.64207 | pgbench_accounts_pkey |        673882112

 2017-02-08 20:17:53.716551+01 | 1486581473.71655 | pgbench_branches_pkey |            16384
 2017-02-08 20:17:53.716551+01 | 1486581473.71655 | pgbench_tellers_pkey  |            90112
 2017-02-08 20:17:53.716551+01 | 1486581473.71655 | pgbench_accounts_pkey |        673882112

 2017-02-08 20:17:54.802804+01 | 1486581474.8028 | pgbench_branches_pkey |            16384
 2017-02-08 20:17:54.802804+01 | 1486581474.8028 | pgbench_tellers_pkey  |            90112
 2017-02-08 20:17:54.802804+01 | 1486581474.8028 | pgbench_accounts_pkey |        673882112

 2017-02-08 20:17:55.864919+01 | 1486581475.86492 | pgbench_branches_pkey |            16384
 2017-02-08 20:17:55.864919+01 | 1486581475.86492 | pgbench_tellers_pkey  |            90112
 2017-02-08 20:17:55.864919+01 | 1486581475.86492 | pgbench_accounts_pkey |        673882112

 2017-02-08 20:17:56.92773+01 | 1486581476.92773 | pgbench_branches_pkey |            16384
 2017-02-08 20:17:56.92773+01 | 1486581476.92773 | pgbench_tellers_pkey  |            90112
 2017-02-08 20:17:56.92773+01 | 1486581476.92773 | pgbench_accounts_pkey |        673882112

 2017-02-08 20:17:57.993547+01 | 1486581477.99355 | pgbench_branches_pkey |            16384
 2017-02-08 20:17:57.993547+01 | 1486581477.99355 | pgbench_tellers_pkey  |            90112
 2017-02-08 20:17:57.993547+01 | 1486581477.99355 | pgbench_accounts_pkey |        673882112

 2017-02-08 20:17:59.058404+01 | 1486581479.0584 | pgbench_branches_pkey |            16384
 2017-02-08 20:17:59.058404+01 | 1486581479.0584 | pgbench_tellers_pkey  |            90112
 2017-02-08 20:17:59.058404+01 | 1486581479.0584 | pgbench_accounts_pkey |        673882112

 2017-02-08 20:18:00.117691+01 | 1486581480.11769 | pgbench_branches_pkey |            16384
 2017-02-08 20:18:00.117691+01 | 1486581480.11769 | pgbench_tellers_pkey  |            90112
 2017-02-08 20:18:00.117691+01 | 1486581480.11769 | pgbench_accounts_pkey |        673882112

 2017-02-08 20:18:01.184906+01 | 1486581481.18491 | pgbench_branches_pkey |            16384
 2017-02-08 20:18:01.184906+01 | 1486581481.18491 | pgbench_tellers_pkey  |            90112
 2017-02-08 20:18:01.184906+01 | 1486581481.18491 | pgbench_accounts_pkey |        673882112

 2017-02-08 20:18:02.248344+01 | 1486581482.24834 | pgbench_branches_pkey |            16384
 2017-02-08 20:18:02.248344+01 | 1486581482.24834 | pgbench_tellers_pkey  |            90112
 2017-02-08 20:18:02.248344+01 | 1486581482.24834 | pgbench_accounts_pkey |        673882112

 2017-02-08 20:18:03.322309+01 | 1486581483.32231 | pgbench_branches_pkey |            16384
 2017-02-08 20:18:03.322309+01 | 1486581483.32231 | pgbench_tellers_pkey  |            90112
 2017-02-08 20:18:03.322309+01 | 1486581483.32231 | pgbench_accounts_pkey |        673882112

 2017-02-08 20:18:04.381408+01 | 1486581484.38141 | pgbench_branches_pkey |            16384
 2017-02-08 20:18:04.381408+01 | 1486581484.38141 | pgbench_tellers_pkey  |            90112
 2017-02-08 20:18:04.381408+01 | 1486581484.38141 | pgbench_accounts_pkey |        673882112

 2017-02-08 20:18:05.451545+01 | 1486581485.45155 | pgbench_branches_pkey |            16384
 2017-02-08 20:18:05.451545+01 | 1486581485.45155 | pgbench_tellers_pkey  |            90112
 2017-02-08 20:18:05.451545+01 | 1486581485.45155 | pgbench_accounts_pkey |        673882112

 2017-02-08 20:18:06.511742+01 | 1486581486.51174 | pgbench_branches_pkey |            16384
 2017-02-08 20:18:06.511742+01 | 1486581486.51174 | pgbench_tellers_pkey  |            90112
 2017-02-08 20:18:06.511742+01 | 1486581486.51174 | pgbench_accounts_pkey |        673882112

 2017-02-08 20:18:07.579245+01 | 1486581487.57925 | pgbench_branches_pkey |            16384
 2017-02-08 20:18:07.579245+01 | 1486581487.57925 | pgbench_tellers_pkey  |            90112
 2017-02-08 20:18:07.579245+01 | 1486581487.57925 | pgbench_accounts_pkey |        673882112

 2017-02-08 20:18:08.636191+01 | 1486581488.63619 | pgbench_branches_pkey |            16384
 2017-02-08 20:18:08.636191+01 | 1486581488.63619 | pgbench_tellers_pkey  |            90112
 2017-02-08 20:18:08.636191+01 | 1486581488.63619 | pgbench_accounts_pkey |        673882112

 2017-02-08 20:18:09.712005+01 | 1486581489.712 | pgbench_branches_pkey |            16384
 2017-02-08 20:18:09.712005+01 | 1486581489.712 | pgbench_tellers_pkey  |            90112
 2017-02-08 20:18:09.712005+01 | 1486581489.712 | pgbench_accounts_pkey |        673882112

 2017-02-08 20:18:10.774253+01 | 1486581490.77425 | pgbench_branches_pkey |            16384
 2017-02-08 20:18:10.774253+01 | 1486581490.77425 | pgbench_tellers_pkey  |            90112
 2017-02-08 20:18:10.774253+01 | 1486581490.77425 | pgbench_accounts_pkey |        673882112

 2017-02-08 20:18:11.845581+01 | 1486581491.84558 | pgbench_branches_pkey |            16384
 2017-02-08 20:18:11.845581+01 | 1486581491.84558 | pgbench_tellers_pkey  |            90112
 2017-02-08 20:18:11.845581+01 | 1486581491.84558 | pgbench_accounts_pkey |        673882112

 2017-02-08 20:18:12.903027+01 | 1486581492.90303 | pgbench_branches_pkey |            16384
 2017-02-08 20:18:12.903027+01 | 1486581492.90303 | pgbench_tellers_pkey  |            90112
 2017-02-08 20:18:12.903027+01 | 1486581492.90303 | pgbench_accounts_pkey |        673882112

 2017-02-08 20:18:13.973206+01 | 1486581493.97321 | pgbench_branches_pkey |            16384
 2017-02-08 20:18:13.973206+01 | 1486581493.97321 | pgbench_tellers_pkey  |            90112
 2017-02-08 20:18:13.973206+01 | 1486581493.97321 | pgbench_accounts_pkey |        673882112

 2017-02-08 20:18:15.034971+01 | 1486581495.03497 | pgbench_branches_pkey |            16384
 2017-02-08 20:18:15.034971+01 | 1486581495.03497 | pgbench_tellers_pkey  |            90112
 2017-02-08 20:18:15.034971+01 | 1486581495.03497 | pgbench_accounts_pkey |        673882112

 2017-02-08 20:18:16.105946+01 | 1486581496.10595 | pgbench_branches_pkey |            16384
 2017-02-08 20:18:16.105946+01 | 1486581496.10595 | pgbench_tellers_pkey  |            90112
 2017-02-08 20:18:16.105946+01 | 1486581496.10595 | pgbench_accounts_pkey |        673882112

 2017-02-08 20:18:17.185711+01 | 1486581497.18571 | pgbench_branches_pkey |            16384
 2017-02-08 20:18:17.185711+01 | 1486581497.18571 | pgbench_tellers_pkey  |            90112
 2017-02-08 20:18:17.185711+01 | 1486581497.18571 | pgbench_accounts_pkey |        673882112

 2017-02-08 20:18:18.2551+01 | 1486581498.2551 | pgbench_branches_pkey |            16384
 2017-02-08 20:18:18.2551+01 | 1486581498.2551 | pgbench_tellers_pkey  |            90112
 2017-02-08 20:18:18.2551+01 | 1486581498.2551 | pgbench_accounts_pkey |        673882112

 2017-02-08 20:18:19.318667+01 | 1486581499.31867 | pgbench_branches_pkey |            16384
 2017-02-08 20:18:19.318667+01 | 1486581499.31867 | pgbench_tellers_pkey  |            90112
 2017-02-08 20:18:19.318667+01 | 1486581499.31867 | pgbench_accounts_pkey |        673882112

 2017-02-08 20:18:20.392146+01 | 1486581500.39215 | pgbench_branches_pkey |            16384
 2017-02-08 20:18:20.392146+01 | 1486581500.39215 | pgbench_tellers_pkey  |            90112
 2017-02-08 20:18:20.392146+01 | 1486581500.39215 | pgbench_accounts_pkey |        673882112

 2017-02-08 20:18:21.451878+01 | 1486581501.45188 | pgbench_branches_pkey |            16384
 2017-02-08 20:18:21.451878+01 | 1486581501.45188 | pgbench_tellers_pkey  |            90112
 2017-02-08 20:18:21.451878+01 | 1486581501.45188 | pgbench_accounts_pkey |        673882112

 2017-02-08 20:18:22.513517+01 | 1486581502.51352 | pgbench_branches_pkey |            16384
 2017-02-08 20:18:22.513517+01 | 1486581502.51352 | pgbench_tellers_pkey  |            90112
 2017-02-08 20:18:22.513517+01 | 1486581502.51352 | pgbench_accounts_pkey |        673882112

 2017-02-08 20:18:23.58277+01 | 1486581503.58277 | pgbench_branches_pkey |            16384
 2017-02-08 20:18:23.58277+01 | 1486581503.58277 | pgbench_tellers_pkey  |            90112
 2017-02-08 20:18:23.58277+01 | 1486581503.58277 | pgbench_accounts_pkey |        673882112

 2017-02-08 20:18:24.649063+01 | 1486581504.64906 | pgbench_branches_pkey |            16384
 2017-02-08 20:18:24.649063+01 | 1486581504.64906 | pgbench_tellers_pkey  |            90112
 2017-02-08 20:18:24.649063+01 | 1486581504.64906 | pgbench_accounts_pkey |        673882112

 2017-02-08 20:18:25.718945+01 | 1486581505.71895 | pgbench_branches_pkey |            16384
 2017-02-08 20:18:25.718945+01 | 1486581505.71895 | pgbench_tellers_pkey  |            90112
 2017-02-08 20:18:25.718945+01 | 1486581505.71895 | pgbench_accounts_pkey |        673882112

 2017-02-08 20:18:26.772346+01 | 1486581506.77235 | pgbench_branches_pkey |            16384
 2017-02-08 20:18:26.772346+01 | 1486581506.77235 | pgbench_tellers_pkey  |            90112
 2017-02-08 20:18:26.772346+01 | 1486581506.77235 | pgbench_accounts_pkey |        673882112

 2017-02-08 20:18:27.834139+01 | 1486581507.83414 | pgbench_branches_pkey |            16384
 2017-02-08 20:18:27.834139+01 | 1486581507.83414 | pgbench_tellers_pkey  |            90112
 2017-02-08 20:18:27.834139+01 | 1486581507.83414 | pgbench_accounts_pkey |        673882112

 2017-02-08 20:18:28.900695+01 | 1486581508.9007 | pgbench_branches_pkey |            16384
 2017-02-08 20:18:28.900695+01 | 1486581508.9007 | pgbench_tellers_pkey  |            90112
 2017-02-08 20:18:28.900695+01 | 1486581508.9007 | pgbench_accounts_pkey |        673882112

 2017-02-08 20:18:29.962611+01 | 1486581509.96261 | pgbench_branches_pkey |            16384
 2017-02-08 20:18:29.962611+01 | 1486581509.96261 | pgbench_tellers_pkey  |            90112
 2017-02-08 20:18:29.962611+01 | 1486581509.96261 | pgbench_accounts_pkey |        673882112

 2017-02-08 20:18:31.025625+01 | 1486581511.02562 | pgbench_branches_pkey |            16384
 2017-02-08 20:18:31.025625+01 | 1486581511.02562 | pgbench_tellers_pkey  |            90112
 2017-02-08 20:18:31.025625+01 | 1486581511.02562 | pgbench_accounts_pkey |        673882112

 2017-02-08 20:18:32.090773+01 | 1486581512.09077 | pgbench_branches_pkey |            16384
 2017-02-08 20:18:32.090773+01 | 1486581512.09077 | pgbench_tellers_pkey  |            90112
 2017-02-08 20:18:32.090773+01 | 1486581512.09077 | pgbench_accounts_pkey |        673882112

 2017-02-08 20:18:33.151854+01 | 1486581513.15185 | pgbench_branches_pkey |            16384
 2017-02-08 20:18:33.151854+01 | 1486581513.15185 | pgbench_tellers_pkey  |            90112
 2017-02-08 20:18:33.151854+01 | 1486581513.15185 | pgbench_accounts_pkey |        673882112

 2017-02-08 20:18:34.212898+01 | 1486581514.2129 | pgbench_branches_pkey |            16384
 2017-02-08 20:18:34.212898+01 | 1486581514.2129 | pgbench_tellers_pkey  |            90112
 2017-02-08 20:18:34.212898+01 | 1486581514.2129 | pgbench_accounts_pkey |        673882112

 2017-02-08 20:18:35.276171+01 | 1486581515.27617 | pgbench_branches_pkey |            16384
 2017-02-08 20:18:35.276171+01 | 1486581515.27617 | pgbench_tellers_pkey  |            90112
 2017-02-08 20:18:35.276171+01 | 1486581515.27617 | pgbench_accounts_pkey |        673882112

 2017-02-08 20:18:36.335005+01 | 1486581516.33501 | pgbench_branches_pkey |            16384
 2017-02-08 20:18:36.335005+01 | 1486581516.33501 | pgbench_tellers_pkey  |            90112
 2017-02-08 20:18:36.335005+01 | 1486581516.33501 | pgbench_accounts_pkey |        673882112

 2017-02-08 20:18:37.406819+01 | 1486581517.40682 | pgbench_branches_pkey |            16384
 2017-02-08 20:18:37.406819+01 | 1486581517.40682 | pgbench_tellers_pkey  |            90112
 2017-02-08 20:18:37.406819+01 | 1486581517.40682 | pgbench_accounts_pkey |        673882112

 2017-02-08 20:18:38.472455+01 | 1486581518.47246 | pgbench_branches_pkey |            16384
 2017-02-08 20:18:38.472455+01 | 1486581518.47246 | pgbench_tellers_pkey  |            90112
 2017-02-08 20:18:38.472455+01 | 1486581518.47246 | pgbench_accounts_pkey |        673882112

 2017-02-08 20:18:39.537588+01 | 1486581519.53759 | pgbench_branches_pkey |            16384
 2017-02-08 20:18:39.537588+01 | 1486581519.53759 | pgbench_tellers_pkey  |            90112
 2017-02-08 20:18:39.537588+01 | 1486581519.53759 | pgbench_accounts_pkey |        673882112

 2017-02-08 20:18:40.598511+01 | 1486581520.59851 | pgbench_branches_pkey |            16384
 2017-02-08 20:18:40.598511+01 | 1486581520.59851 | pgbench_tellers_pkey  |            90112
 2017-02-08 20:18:40.598511+01 | 1486581520.59851 | pgbench_accounts_pkey |        673882112

 2017-02-08 20:18:41.670028+01 | 1486581521.67003 | pgbench_branches_pkey |            16384
 2017-02-08 20:18:41.670028+01 | 1486581521.67003 | pgbench_tellers_pkey  |            90112
 2017-02-08 20:18:41.670028+01 | 1486581521.67003 | pgbench_accounts_pkey |        673882112

 2017-02-08 20:18:42.740491+01 | 1486581522.74049 | pgbench_branches_pkey |            16384
 2017-02-08 20:18:42.740491+01 | 1486581522.74049 | pgbench_tellers_pkey  |            90112
 2017-02-08 20:18:42.740491+01 | 1486581522.74049 | pgbench_accounts_pkey |        673882112

 2017-02-08 20:18:43.805984+01 | 1486581523.80598 | pgbench_branches_pkey |            16384
 2017-02-08 20:18:43.805984+01 | 1486581523.80598 | pgbench_tellers_pkey  |            90112
 2017-02-08 20:18:43.805984+01 | 1486581523.80598 | pgbench_accounts_pkey |        673882112

 2017-02-08 20:18:44.862925+01 | 1486581524.86293 | pgbench_branches_pkey |            16384
 2017-02-08 20:18:44.862925+01 | 1486581524.86293 | pgbench_tellers_pkey  |            90112
 2017-02-08 20:18:44.862925+01 | 1486581524.86293 | pgbench_accounts_pkey |        673882112

 2017-02-08 20:18:45.930586+01 | 1486581525.93059 | pgbench_branches_pkey |            16384
 2017-02-08 20:18:45.930586+01 | 1486581525.93059 | pgbench_tellers_pkey  |            90112
 2017-02-08 20:18:45.930586+01 | 1486581525.93059 | pgbench_accounts_pkey |        673882112

 2017-02-08 20:18:46.998424+01 | 1486581526.99842 | pgbench_branches_pkey |            16384
 2017-02-08 20:18:46.998424+01 | 1486581526.99842 | pgbench_tellers_pkey  |            90112
 2017-02-08 20:18:46.998424+01 | 1486581526.99842 | pgbench_accounts_pkey |        673882112

 2017-02-08 20:18:48.068239+01 | 1486581528.06824 | pgbench_branches_pkey |            16384
 2017-02-08 20:18:48.068239+01 | 1486581528.06824 | pgbench_tellers_pkey  |            90112
 2017-02-08 20:18:48.068239+01 | 1486581528.06824 | pgbench_accounts_pkey |        673882112

 2017-02-08 20:18:49.131676+01 | 1486581529.13168 | pgbench_branches_pkey |            16384
 2017-02-08 20:18:49.131676+01 | 1486581529.13168 | pgbench_tellers_pkey  |            90112
 2017-02-08 20:18:49.131676+01 | 1486581529.13168 | pgbench_accounts_pkey |        673882112

 2017-02-08 20:18:50.195173+01 | 1486581530.19517 | pgbench_branches_pkey |            16384
 2017-02-08 20:18:50.195173+01 | 1486581530.19517 | pgbench_tellers_pkey  |            90112
 2017-02-08 20:18:50.195173+01 | 1486581530.19517 | pgbench_accounts_pkey |        673882112

 2017-02-08 20:18:51.262607+01 | 1486581531.26261 | pgbench_branches_pkey |            16384
 2017-02-08 20:18:51.262607+01 | 1486581531.26261 | pgbench_tellers_pkey  |            90112
 2017-02-08 20:18:51.262607+01 | 1486581531.26261 | pgbench_accounts_pkey |        673882112

 2017-02-08 20:18:52.329764+01 | 1486581532.32976 | pgbench_branches_pkey |            16384
 2017-02-08 20:18:52.329764+01 | 1486581532.32976 | pgbench_tellers_pkey  |            90112
 2017-02-08 20:18:52.329764+01 | 1486581532.32976 | pgbench_accounts_pkey |        673882112

 2017-02-08 20:18:53.396821+01 | 1486581533.39682 | pgbench_branches_pkey |            16384
 2017-02-08 20:18:53.396821+01 | 1486581533.39682 | pgbench_tellers_pkey  |            90112
 2017-02-08 20:18:53.396821+01 | 1486581533.39682 | pgbench_accounts_pkey |        673882112

 2017-02-08 20:18:54.464984+01 | 1486581534.46498 | pgbench_branches_pkey |            16384
 2017-02-08 20:18:54.464984+01 | 1486581534.46498 | pgbench_tellers_pkey  |            90112
 2017-02-08 20:18:54.464984+01 | 1486581534.46498 | pgbench_accounts_pkey |        673882112

 2017-02-08 20:18:55.536869+01 | 1486581535.53687 | pgbench_branches_pkey |            16384
 2017-02-08 20:18:55.536869+01 | 1486581535.53687 | pgbench_tellers_pkey  |            90112
 2017-02-08 20:18:55.536869+01 | 1486581535.53687 | pgbench_accounts_pkey |        673882112

 2017-02-08 20:18:56.603579+01 | 1486581536.60358 | pgbench_branches_pkey |            16384
 2017-02-08 20:18:56.603579+01 | 1486581536.60358 | pgbench_tellers_pkey  |            90112
 2017-02-08 20:18:56.603579+01 | 1486581536.60358 | pgbench_accounts_pkey |        673882112

 2017-02-08 20:18:57.678048+01 | 1486581537.67805 | pgbench_branches_pkey |            16384
 2017-02-08 20:18:57.678048+01 | 1486581537.67805 | pgbench_tellers_pkey  |            90112
 2017-02-08 20:18:57.678048+01 | 1486581537.67805 | pgbench_accounts_pkey |        673882112

 2017-02-08 20:18:58.741797+01 | 1486581538.7418 | pgbench_branches_pkey |            16384
 2017-02-08 20:18:58.741797+01 | 1486581538.7418 | pgbench_tellers_pkey  |            90112
 2017-02-08 20:18:58.741797+01 | 1486581538.7418 | pgbench_accounts_pkey |        673882112

 2017-02-08 20:18:59.80069+01 | 1486581539.80069 | pgbench_branches_pkey |            16384
 2017-02-08 20:18:59.80069+01 | 1486581539.80069 | pgbench_tellers_pkey  |            90112
 2017-02-08 20:18:59.80069+01 | 1486581539.80069 | pgbench_accounts_pkey |        673882112

 2017-02-08 20:19:00.871466+01 | 1486581540.87147 | pgbench_branches_pkey |            16384
 2017-02-08 20:19:00.871466+01 | 1486581540.87147 | pgbench_tellers_pkey  |            90112
 2017-02-08 20:19:00.871466+01 | 1486581540.87147 | pgbench_accounts_pkey |        673882112

 2017-02-08 20:19:01.935915+01 | 1486581541.93591 | pgbench_branches_pkey |            16384
 2017-02-08 20:19:01.935915+01 | 1486581541.93591 | pgbench_tellers_pkey  |            90112
 2017-02-08 20:19:01.935915+01 | 1486581541.93591 | pgbench_accounts_pkey |        673882112

 2017-02-08 20:19:02.989209+01 | 1486581542.98921 | pgbench_branches_pkey |            16384
 2017-02-08 20:19:02.989209+01 | 1486581542.98921 | pgbench_tellers_pkey  |            90112
 2017-02-08 20:19:02.989209+01 | 1486581542.98921 | pgbench_accounts_pkey |        673882112

 2017-02-08 20:19:04.05663+01 | 1486581544.05663 | pgbench_branches_pkey |            16384
 2017-02-08 20:19:04.05663+01 | 1486581544.05663 | pgbench_tellers_pkey  |            90112
 2017-02-08 20:19:04.05663+01 | 1486581544.05663 | pgbench_accounts_pkey |        673882112

 2017-02-08 20:19:05.123291+01 | 1486581545.12329 | pgbench_branches_pkey |            16384
 2017-02-08 20:19:05.123291+01 | 1486581545.12329 | pgbench_tellers_pkey  |            90112
 2017-02-08 20:19:05.123291+01 | 1486581545.12329 | pgbench_accounts_pkey |        673882112

 2017-02-08 20:19:06.185266+01 | 1486581546.18527 | pgbench_branches_pkey |            16384
 2017-02-08 20:19:06.185266+01 | 1486581546.18527 | pgbench_tellers_pkey  |            90112
 2017-02-08 20:19:06.185266+01 | 1486581546.18527 | pgbench_accounts_pkey |        673882112

 2017-02-08 20:19:07.251839+01 | 1486581547.25184 | pgbench_branches_pkey |            16384
 2017-02-08 20:19:07.251839+01 | 1486581547.25184 | pgbench_tellers_pkey  |            90112
 2017-02-08 20:19:07.251839+01 | 1486581547.25184 | pgbench_accounts_pkey |        673882112

 2017-02-08 20:19:08.316637+01 | 1486581548.31664 | pgbench_branches_pkey |            16384
 2017-02-08 20:19:08.316637+01 | 1486581548.31664 | pgbench_tellers_pkey  |            90112
 2017-02-08 20:19:08.316637+01 | 1486581548.31664 | pgbench_accounts_pkey |        673882112

 2017-02-08 20:19:09.388169+01 | 1486581549.38817 | pgbench_branches_pkey |            16384
 2017-02-08 20:19:09.388169+01 | 1486581549.38817 | pgbench_tellers_pkey  |            90112
 2017-02-08 20:19:09.388169+01 | 1486581549.38817 | pgbench_accounts_pkey |        673882112

 2017-02-08 20:19:10.451285+01 | 1486581550.45128 | pgbench_branches_pkey |            16384
 2017-02-08 20:19:10.451285+01 | 1486581550.45128 | pgbench_tellers_pkey  |            90112
 2017-02-08 20:19:10.451285+01 | 1486581550.45128 | pgbench_accounts_pkey |        673882112

 2017-02-08 20:19:11.518101+01 | 1486581551.5181 | pgbench_branches_pkey |            16384
 2017-02-08 20:19:11.518101+01 | 1486581551.5181 | pgbench_tellers_pkey  |            90112
 2017-02-08 20:19:11.518101+01 | 1486581551.5181 | pgbench_accounts_pkey |        673882112

 2017-02-08 20:19:12.592564+01 | 1486581552.59256 | pgbench_branches_pkey |            16384
 2017-02-08 20:19:12.592564+01 | 1486581552.59256 | pgbench_tellers_pkey  |            90112
 2017-02-08 20:19:12.592564+01 | 1486581552.59256 | pgbench_accounts_pkey |        673882112

 2017-02-08 20:19:13.663725+01 | 1486581553.66372 | pgbench_branches_pkey |            16384
 2017-02-08 20:19:13.663725+01 | 1486581553.66372 | pgbench_tellers_pkey  |            90112
 2017-02-08 20:19:13.663725+01 | 1486581553.66372 | pgbench_accounts_pkey |        673882112

 2017-02-08 20:19:14.729826+01 | 1486581554.72983 | pgbench_branches_pkey |            16384
 2017-02-08 20:19:14.729826+01 | 1486581554.72983 | pgbench_tellers_pkey  |            90112
 2017-02-08 20:19:14.729826+01 | 1486581554.72983 | pgbench_accounts_pkey |        673882112

 2017-02-08 20:19:15.806679+01 | 1486581555.80668 | pgbench_branches_pkey |            16384
 2017-02-08 20:19:15.806679+01 | 1486581555.80668 | pgbench_tellers_pkey  |            90112
 2017-02-08 20:19:15.806679+01 | 1486581555.80668 | pgbench_accounts_pkey |        673882112

 2017-02-08 20:19:16.871884+01 | 1486581556.87188 | pgbench_branches_pkey |            16384
 2017-02-08 20:19:16.871884+01 | 1486581556.87188 | pgbench_tellers_pkey  |            90112
 2017-02-08 20:19:16.871884+01 | 1486581556.87188 | pgbench_accounts_pkey |        673882112

 2017-02-08 20:19:17.937259+01 | 1486581557.93726 | pgbench_branches_pkey |            16384
 2017-02-08 20:19:17.937259+01 | 1486581557.93726 | pgbench_tellers_pkey  |            90112
 2017-02-08 20:19:17.937259+01 | 1486581557.93726 | pgbench_accounts_pkey |        673882112

 2017-02-08 20:19:19.002585+01 | 1486581559.00258 | pgbench_branches_pkey |            16384
 2017-02-08 20:19:19.002585+01 | 1486581559.00258 | pgbench_tellers_pkey  |            90112
 2017-02-08 20:19:19.002585+01 | 1486581559.00258 | pgbench_accounts_pkey |        673882112

 2017-02-08 20:19:20.065054+01 | 1486581560.06505 | pgbench_branches_pkey |            16384
 2017-02-08 20:19:20.065054+01 | 1486581560.06505 | pgbench_tellers_pkey  |            90112
 2017-02-08 20:19:20.065054+01 | 1486581560.06505 | pgbench_accounts_pkey |        673882112

 2017-02-08 20:19:21.140801+01 | 1486581561.1408 | pgbench_branches_pkey |            16384
 2017-02-08 20:19:21.140801+01 | 1486581561.1408 | pgbench_tellers_pkey  |            90112
 2017-02-08 20:19:21.140801+01 | 1486581561.1408 | pgbench_accounts_pkey |        673882112

 2017-02-08 20:19:22.20847+01 | 1486581562.20847 | pgbench_branches_pkey |            16384
 2017-02-08 20:19:22.20847+01 | 1486581562.20847 | pgbench_tellers_pkey  |            90112
 2017-02-08 20:19:22.20847+01 | 1486581562.20847 | pgbench_accounts_pkey |        673882112

 2017-02-08 20:19:23.284618+01 | 1486581563.28462 | pgbench_branches_pkey |            16384
 2017-02-08 20:19:23.284618+01 | 1486581563.28462 | pgbench_tellers_pkey  |            90112
 2017-02-08 20:19:23.284618+01 | 1486581563.28462 | pgbench_accounts_pkey |        673882112

 2017-02-08 20:19:24.345965+01 | 1486581564.34596 | pgbench_branches_pkey |            16384
 2017-02-08 20:19:24.345965+01 | 1486581564.34596 | pgbench_tellers_pkey  |            90112
 2017-02-08 20:19:24.345965+01 | 1486581564.34596 | pgbench_accounts_pkey |        673882112

