 2017-02-10 15:06:16.987644+01 | 1486735576.98764 | pgbench_branches_pkey |            16384
 2017-02-10 15:06:16.987644+01 | 1486735576.98764 | pgbench_tellers_pkey  |            90112
 2017-02-10 15:06:16.987644+01 | 1486735576.98764 | pgbench_accounts_pkey |        690102272

 2017-02-10 15:06:18.056229+01 | 1486735578.05623 | pgbench_branches_pkey |            16384
 2017-02-10 15:06:18.056229+01 | 1486735578.05623 | pgbench_tellers_pkey  |            90112
 2017-02-10 15:06:18.056229+01 | 1486735578.05623 | pgbench_accounts_pkey |        690102272

 2017-02-10 15:06:19.128767+01 | 1486735579.12877 | pgbench_branches_pkey |            16384
 2017-02-10 15:06:19.128767+01 | 1486735579.12877 | pgbench_tellers_pkey  |            90112
 2017-02-10 15:06:19.128767+01 | 1486735579.12877 | pgbench_accounts_pkey |        690102272

 2017-02-10 15:06:20.201745+01 | 1486735580.20175 | pgbench_branches_pkey |            16384
 2017-02-10 15:06:20.201745+01 | 1486735580.20175 | pgbench_tellers_pkey  |            90112
 2017-02-10 15:06:20.201745+01 | 1486735580.20175 | pgbench_accounts_pkey |        690102272

 2017-02-10 15:06:21.274498+01 | 1486735581.2745 | pgbench_branches_pkey |            16384
 2017-02-10 15:06:21.274498+01 | 1486735581.2745 | pgbench_tellers_pkey  |            90112
 2017-02-10 15:06:21.274498+01 | 1486735581.2745 | pgbench_accounts_pkey |        690102272

 2017-02-10 15:06:22.353532+01 | 1486735582.35353 | pgbench_branches_pkey |            16384
 2017-02-10 15:06:22.353532+01 | 1486735582.35353 | pgbench_tellers_pkey  |            90112
 2017-02-10 15:06:22.353532+01 | 1486735582.35353 | pgbench_accounts_pkey |        690102272

 2017-02-10 15:06:23.436811+01 | 1486735583.43681 | pgbench_branches_pkey |            16384
 2017-02-10 15:06:23.436811+01 | 1486735583.43681 | pgbench_tellers_pkey  |            90112
 2017-02-10 15:06:23.436811+01 | 1486735583.43681 | pgbench_accounts_pkey |        690102272

 2017-02-10 15:06:24.519795+01 | 1486735584.51979 | pgbench_branches_pkey |            16384
 2017-02-10 15:06:24.519795+01 | 1486735584.51979 | pgbench_tellers_pkey  |            90112
 2017-02-10 15:06:24.519795+01 | 1486735584.51979 | pgbench_accounts_pkey |        690102272

 2017-02-10 15:06:25.592375+01 | 1486735585.59238 | pgbench_branches_pkey |            16384
 2017-02-10 15:06:25.592375+01 | 1486735585.59238 | pgbench_tellers_pkey  |            90112
 2017-02-10 15:06:25.592375+01 | 1486735585.59238 | pgbench_accounts_pkey |        690102272

 2017-02-10 15:06:26.676765+01 | 1486735586.67676 | pgbench_branches_pkey |            16384
 2017-02-10 15:06:26.676765+01 | 1486735586.67676 | pgbench_tellers_pkey  |            90112
 2017-02-10 15:06:26.676765+01 | 1486735586.67676 | pgbench_accounts_pkey |        690102272

 2017-02-10 15:06:27.765419+01 | 1486735587.76542 | pgbench_branches_pkey |            16384
 2017-02-10 15:06:27.765419+01 | 1486735587.76542 | pgbench_tellers_pkey  |            90112
 2017-02-10 15:06:27.765419+01 | 1486735587.76542 | pgbench_accounts_pkey |        690102272

 2017-02-10 15:06:28.848558+01 | 1486735588.84856 | pgbench_branches_pkey |            16384
 2017-02-10 15:06:28.848558+01 | 1486735588.84856 | pgbench_tellers_pkey  |            90112
 2017-02-10 15:06:28.848558+01 | 1486735588.84856 | pgbench_accounts_pkey |        690102272

 2017-02-10 15:06:29.923772+01 | 1486735589.92377 | pgbench_branches_pkey |            16384
 2017-02-10 15:06:29.923772+01 | 1486735589.92377 | pgbench_tellers_pkey  |            90112
 2017-02-10 15:06:29.923772+01 | 1486735589.92377 | pgbench_accounts_pkey |        690102272

 2017-02-10 15:06:30.999121+01 | 1486735590.99912 | pgbench_branches_pkey |            16384
 2017-02-10 15:06:30.999121+01 | 1486735590.99912 | pgbench_tellers_pkey  |            90112
 2017-02-10 15:06:30.999121+01 | 1486735590.99912 | pgbench_accounts_pkey |        690102272

 2017-02-10 15:06:32.068826+01 | 1486735592.06883 | pgbench_branches_pkey |            16384
 2017-02-10 15:06:32.068826+01 | 1486735592.06883 | pgbench_tellers_pkey  |            90112
 2017-02-10 15:06:32.068826+01 | 1486735592.06883 | pgbench_accounts_pkey |        690102272

 2017-02-10 15:06:33.146555+01 | 1486735593.14655 | pgbench_branches_pkey |            16384
 2017-02-10 15:06:33.146555+01 | 1486735593.14655 | pgbench_tellers_pkey  |            90112
 2017-02-10 15:06:33.146555+01 | 1486735593.14655 | pgbench_accounts_pkey |        690102272

 2017-02-10 15:06:34.223243+01 | 1486735594.22324 | pgbench_branches_pkey |            16384
 2017-02-10 15:06:34.223243+01 | 1486735594.22324 | pgbench_tellers_pkey  |            90112
 2017-02-10 15:06:34.223243+01 | 1486735594.22324 | pgbench_accounts_pkey |        690102272

 2017-02-10 15:06:35.317019+01 | 1486735595.31702 | pgbench_branches_pkey |            16384
 2017-02-10 15:06:35.317019+01 | 1486735595.31702 | pgbench_tellers_pkey  |            90112
 2017-02-10 15:06:35.317019+01 | 1486735595.31702 | pgbench_accounts_pkey |        690102272

 2017-02-10 15:06:36.418367+01 | 1486735596.41837 | pgbench_branches_pkey |            16384
 2017-02-10 15:06:36.418367+01 | 1486735596.41837 | pgbench_tellers_pkey  |            90112
 2017-02-10 15:06:36.418367+01 | 1486735596.41837 | pgbench_accounts_pkey |        690102272

 2017-02-10 15:06:37.500864+01 | 1486735597.50086 | pgbench_branches_pkey |            16384
 2017-02-10 15:06:37.500864+01 | 1486735597.50086 | pgbench_tellers_pkey  |            90112
 2017-02-10 15:06:37.500864+01 | 1486735597.50086 | pgbench_accounts_pkey |        690102272

 2017-02-10 15:06:38.568468+01 | 1486735598.56847 | pgbench_branches_pkey |            16384
 2017-02-10 15:06:38.568468+01 | 1486735598.56847 | pgbench_tellers_pkey  |            90112
 2017-02-10 15:06:38.568468+01 | 1486735598.56847 | pgbench_accounts_pkey |        690102272

 2017-02-10 15:06:39.649539+01 | 1486735599.64954 | pgbench_branches_pkey |            16384
 2017-02-10 15:06:39.649539+01 | 1486735599.64954 | pgbench_tellers_pkey  |            90112
 2017-02-10 15:06:39.649539+01 | 1486735599.64954 | pgbench_accounts_pkey |        690102272

 2017-02-10 15:06:40.737365+01 | 1486735600.73737 | pgbench_branches_pkey |            16384
 2017-02-10 15:06:40.737365+01 | 1486735600.73737 | pgbench_tellers_pkey  |            90112
 2017-02-10 15:06:40.737365+01 | 1486735600.73737 | pgbench_accounts_pkey |        690102272

 2017-02-10 15:06:41.824102+01 | 1486735601.8241 | pgbench_branches_pkey |            16384
 2017-02-10 15:06:41.824102+01 | 1486735601.8241 | pgbench_tellers_pkey  |            90112
 2017-02-10 15:06:41.824102+01 | 1486735601.8241 | pgbench_accounts_pkey |        690102272

 2017-02-10 15:06:42.895113+01 | 1486735602.89511 | pgbench_branches_pkey |            16384
 2017-02-10 15:06:42.895113+01 | 1486735602.89511 | pgbench_tellers_pkey  |            90112
 2017-02-10 15:06:42.895113+01 | 1486735602.89511 | pgbench_accounts_pkey |        690102272

 2017-02-10 15:06:43.967434+01 | 1486735603.96743 | pgbench_branches_pkey |            16384
 2017-02-10 15:06:43.967434+01 | 1486735603.96743 | pgbench_tellers_pkey  |            90112
 2017-02-10 15:06:43.967434+01 | 1486735603.96743 | pgbench_accounts_pkey |        690102272

 2017-02-10 15:06:45.056083+01 | 1486735605.05608 | pgbench_branches_pkey |            16384
 2017-02-10 15:06:45.056083+01 | 1486735605.05608 | pgbench_tellers_pkey  |            90112
 2017-02-10 15:06:45.056083+01 | 1486735605.05608 | pgbench_accounts_pkey |        690102272

 2017-02-10 15:06:46.127103+01 | 1486735606.1271 | pgbench_branches_pkey |            16384
 2017-02-10 15:06:46.127103+01 | 1486735606.1271 | pgbench_tellers_pkey  |            90112
 2017-02-10 15:06:46.127103+01 | 1486735606.1271 | pgbench_accounts_pkey |        690102272

 2017-02-10 15:06:47.217012+01 | 1486735607.21701 | pgbench_branches_pkey |            16384
 2017-02-10 15:06:47.217012+01 | 1486735607.21701 | pgbench_tellers_pkey  |            90112
 2017-02-10 15:06:47.217012+01 | 1486735607.21701 | pgbench_accounts_pkey |        690102272

 2017-02-10 15:06:48.310598+01 | 1486735608.3106 | pgbench_branches_pkey |            16384
 2017-02-10 15:06:48.310598+01 | 1486735608.3106 | pgbench_tellers_pkey  |            90112
 2017-02-10 15:06:48.310598+01 | 1486735608.3106 | pgbench_accounts_pkey |        690102272

 2017-02-10 15:06:49.382238+01 | 1486735609.38224 | pgbench_branches_pkey |            16384
 2017-02-10 15:06:49.382238+01 | 1486735609.38224 | pgbench_tellers_pkey  |            90112
 2017-02-10 15:06:49.382238+01 | 1486735609.38224 | pgbench_accounts_pkey |        690102272

 2017-02-10 15:06:50.482034+01 | 1486735610.48203 | pgbench_branches_pkey |            16384
 2017-02-10 15:06:50.482034+01 | 1486735610.48203 | pgbench_tellers_pkey  |            90112
 2017-02-10 15:06:50.482034+01 | 1486735610.48203 | pgbench_accounts_pkey |        690102272

 2017-02-10 15:06:51.578532+01 | 1486735611.57853 | pgbench_branches_pkey |            16384
 2017-02-10 15:06:51.578532+01 | 1486735611.57853 | pgbench_tellers_pkey  |            90112
 2017-02-10 15:06:51.578532+01 | 1486735611.57853 | pgbench_accounts_pkey |        690102272

 2017-02-10 15:06:52.65885+01 | 1486735612.65885 | pgbench_branches_pkey |            16384
 2017-02-10 15:06:52.65885+01 | 1486735612.65885 | pgbench_tellers_pkey  |            90112
 2017-02-10 15:06:52.65885+01 | 1486735612.65885 | pgbench_accounts_pkey |        690102272

 2017-02-10 15:06:53.757285+01 | 1486735613.75729 | pgbench_branches_pkey |            16384
 2017-02-10 15:06:53.757285+01 | 1486735613.75729 | pgbench_tellers_pkey  |            90112
 2017-02-10 15:06:53.757285+01 | 1486735613.75729 | pgbench_accounts_pkey |        690102272

 2017-02-10 15:06:54.846784+01 | 1486735614.84678 | pgbench_branches_pkey |            16384
 2017-02-10 15:06:54.846784+01 | 1486735614.84678 | pgbench_tellers_pkey  |            90112
 2017-02-10 15:06:54.846784+01 | 1486735614.84678 | pgbench_accounts_pkey |        690102272

 2017-02-10 15:06:55.930029+01 | 1486735615.93003 | pgbench_branches_pkey |            16384
 2017-02-10 15:06:55.930029+01 | 1486735615.93003 | pgbench_tellers_pkey  |            90112
 2017-02-10 15:06:55.930029+01 | 1486735615.93003 | pgbench_accounts_pkey |        690102272

 2017-02-10 15:06:57.009299+01 | 1486735617.0093 | pgbench_branches_pkey |            16384
 2017-02-10 15:06:57.009299+01 | 1486735617.0093 | pgbench_tellers_pkey  |            90112
 2017-02-10 15:06:57.009299+01 | 1486735617.0093 | pgbench_accounts_pkey |        690102272

 2017-02-10 15:06:58.090435+01 | 1486735618.09044 | pgbench_branches_pkey |            16384
 2017-02-10 15:06:58.090435+01 | 1486735618.09044 | pgbench_tellers_pkey  |            90112
 2017-02-10 15:06:58.090435+01 | 1486735618.09044 | pgbench_accounts_pkey |        690102272

 2017-02-10 15:06:59.166652+01 | 1486735619.16665 | pgbench_branches_pkey |            16384
 2017-02-10 15:06:59.166652+01 | 1486735619.16665 | pgbench_tellers_pkey  |            90112
 2017-02-10 15:06:59.166652+01 | 1486735619.16665 | pgbench_accounts_pkey |        690102272

 2017-02-10 15:07:00.246871+01 | 1486735620.24687 | pgbench_branches_pkey |            16384
 2017-02-10 15:07:00.246871+01 | 1486735620.24687 | pgbench_tellers_pkey  |            90112
 2017-02-10 15:07:00.246871+01 | 1486735620.24687 | pgbench_accounts_pkey |        690102272

 2017-02-10 15:07:01.33892+01 | 1486735621.33892 | pgbench_branches_pkey |            16384
 2017-02-10 15:07:01.33892+01 | 1486735621.33892 | pgbench_tellers_pkey  |            90112
 2017-02-10 15:07:01.33892+01 | 1486735621.33892 | pgbench_accounts_pkey |        690102272

 2017-02-10 15:07:02.447486+01 | 1486735622.44749 | pgbench_branches_pkey |            16384
 2017-02-10 15:07:02.447486+01 | 1486735622.44749 | pgbench_tellers_pkey  |            90112
 2017-02-10 15:07:02.447486+01 | 1486735622.44749 | pgbench_accounts_pkey |        690102272

 2017-02-10 15:07:03.522836+01 | 1486735623.52284 | pgbench_branches_pkey |            16384
 2017-02-10 15:07:03.522836+01 | 1486735623.52284 | pgbench_tellers_pkey  |            90112
 2017-02-10 15:07:03.522836+01 | 1486735623.52284 | pgbench_accounts_pkey |        690102272

 2017-02-10 15:07:04.611356+01 | 1486735624.61136 | pgbench_branches_pkey |            16384
 2017-02-10 15:07:04.611356+01 | 1486735624.61136 | pgbench_tellers_pkey  |            90112
 2017-02-10 15:07:04.611356+01 | 1486735624.61136 | pgbench_accounts_pkey |        690102272

 2017-02-10 15:07:05.688163+01 | 1486735625.68816 | pgbench_branches_pkey |            16384
 2017-02-10 15:07:05.688163+01 | 1486735625.68816 | pgbench_tellers_pkey  |            90112
 2017-02-10 15:07:05.688163+01 | 1486735625.68816 | pgbench_accounts_pkey |        690102272

 2017-02-10 15:07:06.775199+01 | 1486735626.7752 | pgbench_branches_pkey |            16384
 2017-02-10 15:07:06.775199+01 | 1486735626.7752 | pgbench_tellers_pkey  |            90112
 2017-02-10 15:07:06.775199+01 | 1486735626.7752 | pgbench_accounts_pkey |        690102272

 2017-02-10 15:07:07.846109+01 | 1486735627.84611 | pgbench_branches_pkey |            16384
 2017-02-10 15:07:07.846109+01 | 1486735627.84611 | pgbench_tellers_pkey  |            90112
 2017-02-10 15:07:07.846109+01 | 1486735627.84611 | pgbench_accounts_pkey |        690102272

 2017-02-10 15:07:08.934906+01 | 1486735628.93491 | pgbench_branches_pkey |            16384
 2017-02-10 15:07:08.934906+01 | 1486735628.93491 | pgbench_tellers_pkey  |            90112
 2017-02-10 15:07:08.934906+01 | 1486735628.93491 | pgbench_accounts_pkey |        690102272

 2017-02-10 15:07:09.996365+01 | 1486735629.99637 | pgbench_branches_pkey |            16384
 2017-02-10 15:07:09.996365+01 | 1486735629.99637 | pgbench_tellers_pkey  |            90112
 2017-02-10 15:07:09.996365+01 | 1486735629.99637 | pgbench_accounts_pkey |        690102272

 2017-02-10 15:07:11.073189+01 | 1486735631.07319 | pgbench_branches_pkey |            16384
 2017-02-10 15:07:11.073189+01 | 1486735631.07319 | pgbench_tellers_pkey  |            90112
 2017-02-10 15:07:11.073189+01 | 1486735631.07319 | pgbench_accounts_pkey |        690102272

 2017-02-10 15:07:12.160563+01 | 1486735632.16056 | pgbench_branches_pkey |            16384
 2017-02-10 15:07:12.160563+01 | 1486735632.16056 | pgbench_tellers_pkey  |            90112
 2017-02-10 15:07:12.160563+01 | 1486735632.16056 | pgbench_accounts_pkey |        690102272

 2017-02-10 15:07:13.228625+01 | 1486735633.22863 | pgbench_branches_pkey |            16384
 2017-02-10 15:07:13.228625+01 | 1486735633.22863 | pgbench_tellers_pkey  |            90112
 2017-02-10 15:07:13.228625+01 | 1486735633.22863 | pgbench_accounts_pkey |        690102272

 2017-02-10 15:07:14.30306+01 | 1486735634.30306 | pgbench_branches_pkey |            16384
 2017-02-10 15:07:14.30306+01 | 1486735634.30306 | pgbench_tellers_pkey  |            90112
 2017-02-10 15:07:14.30306+01 | 1486735634.30306 | pgbench_accounts_pkey |        690102272

 2017-02-10 15:07:15.384603+01 | 1486735635.3846 | pgbench_branches_pkey |            16384
 2017-02-10 15:07:15.384603+01 | 1486735635.3846 | pgbench_tellers_pkey  |            90112
 2017-02-10 15:07:15.384603+01 | 1486735635.3846 | pgbench_accounts_pkey |        690102272

 2017-02-10 15:07:16.454287+01 | 1486735636.45429 | pgbench_branches_pkey |            16384
 2017-02-10 15:07:16.454287+01 | 1486735636.45429 | pgbench_tellers_pkey  |            90112
 2017-02-10 15:07:16.454287+01 | 1486735636.45429 | pgbench_accounts_pkey |        690102272

 2017-02-10 15:07:17.528069+01 | 1486735637.52807 | pgbench_branches_pkey |            16384
 2017-02-10 15:07:17.528069+01 | 1486735637.52807 | pgbench_tellers_pkey  |            90112
 2017-02-10 15:07:17.528069+01 | 1486735637.52807 | pgbench_accounts_pkey |        690102272

 2017-02-10 15:07:18.610503+01 | 1486735638.6105 | pgbench_branches_pkey |            16384
 2017-02-10 15:07:18.610503+01 | 1486735638.6105 | pgbench_tellers_pkey  |            90112
 2017-02-10 15:07:18.610503+01 | 1486735638.6105 | pgbench_accounts_pkey |        690102272

 2017-02-10 15:07:19.698537+01 | 1486735639.69854 | pgbench_branches_pkey |            16384
 2017-02-10 15:07:19.698537+01 | 1486735639.69854 | pgbench_tellers_pkey  |            90112
 2017-02-10 15:07:19.698537+01 | 1486735639.69854 | pgbench_accounts_pkey |        690102272

 2017-02-10 15:07:20.773602+01 | 1486735640.7736 | pgbench_branches_pkey |            16384
 2017-02-10 15:07:20.773602+01 | 1486735640.7736 | pgbench_tellers_pkey  |            90112
 2017-02-10 15:07:20.773602+01 | 1486735640.7736 | pgbench_accounts_pkey |        690102272

 2017-02-10 15:07:21.859841+01 | 1486735641.85984 | pgbench_branches_pkey |            16384
 2017-02-10 15:07:21.859841+01 | 1486735641.85984 | pgbench_tellers_pkey  |            90112
 2017-02-10 15:07:21.859841+01 | 1486735641.85984 | pgbench_accounts_pkey |        690102272

 2017-02-10 15:07:22.942536+01 | 1486735642.94254 | pgbench_branches_pkey |            16384
 2017-02-10 15:07:22.942536+01 | 1486735642.94254 | pgbench_tellers_pkey  |            90112
 2017-02-10 15:07:22.942536+01 | 1486735642.94254 | pgbench_accounts_pkey |        690102272

 2017-02-10 15:07:24.02297+01 | 1486735644.02297 | pgbench_branches_pkey |            16384
 2017-02-10 15:07:24.02297+01 | 1486735644.02297 | pgbench_tellers_pkey  |            90112
 2017-02-10 15:07:24.02297+01 | 1486735644.02297 | pgbench_accounts_pkey |        690102272

 2017-02-10 15:07:25.117212+01 | 1486735645.11721 | pgbench_branches_pkey |            16384
 2017-02-10 15:07:25.117212+01 | 1486735645.11721 | pgbench_tellers_pkey  |            90112
 2017-02-10 15:07:25.117212+01 | 1486735645.11721 | pgbench_accounts_pkey |        690102272

 2017-02-10 15:07:26.21301+01 | 1486735646.21301 | pgbench_branches_pkey |            16384
 2017-02-10 15:07:26.21301+01 | 1486735646.21301 | pgbench_tellers_pkey  |            90112
 2017-02-10 15:07:26.21301+01 | 1486735646.21301 | pgbench_accounts_pkey |        690102272

 2017-02-10 15:07:27.286077+01 | 1486735647.28608 | pgbench_branches_pkey |            16384
 2017-02-10 15:07:27.286077+01 | 1486735647.28608 | pgbench_tellers_pkey  |            90112
 2017-02-10 15:07:27.286077+01 | 1486735647.28608 | pgbench_accounts_pkey |        690102272

 2017-02-10 15:07:28.350614+01 | 1486735648.35061 | pgbench_branches_pkey |            16384
 2017-02-10 15:07:28.350614+01 | 1486735648.35061 | pgbench_tellers_pkey  |            90112
 2017-02-10 15:07:28.350614+01 | 1486735648.35061 | pgbench_accounts_pkey |        690102272

 2017-02-10 15:07:29.432375+01 | 1486735649.43237 | pgbench_branches_pkey |            16384
 2017-02-10 15:07:29.432375+01 | 1486735649.43237 | pgbench_tellers_pkey  |            90112
 2017-02-10 15:07:29.432375+01 | 1486735649.43237 | pgbench_accounts_pkey |        690102272

 2017-02-10 15:07:30.518374+01 | 1486735650.51837 | pgbench_branches_pkey |            16384
 2017-02-10 15:07:30.518374+01 | 1486735650.51837 | pgbench_tellers_pkey  |            90112
 2017-02-10 15:07:30.518374+01 | 1486735650.51837 | pgbench_accounts_pkey |        690102272

 2017-02-10 15:07:31.605589+01 | 1486735651.60559 | pgbench_branches_pkey |            16384
 2017-02-10 15:07:31.605589+01 | 1486735651.60559 | pgbench_tellers_pkey  |            90112
 2017-02-10 15:07:31.605589+01 | 1486735651.60559 | pgbench_accounts_pkey |        690102272

 2017-02-10 15:07:32.68051+01 | 1486735652.68051 | pgbench_branches_pkey |            16384
 2017-02-10 15:07:32.68051+01 | 1486735652.68051 | pgbench_tellers_pkey  |            90112
 2017-02-10 15:07:32.68051+01 | 1486735652.68051 | pgbench_accounts_pkey |        690102272

 2017-02-10 15:07:33.773604+01 | 1486735653.7736 | pgbench_branches_pkey |            16384
 2017-02-10 15:07:33.773604+01 | 1486735653.7736 | pgbench_tellers_pkey  |            90112
 2017-02-10 15:07:33.773604+01 | 1486735653.7736 | pgbench_accounts_pkey |        690102272

 2017-02-10 15:07:34.842488+01 | 1486735654.84249 | pgbench_branches_pkey |            16384
 2017-02-10 15:07:34.842488+01 | 1486735654.84249 | pgbench_tellers_pkey  |            90112
 2017-02-10 15:07:34.842488+01 | 1486735654.84249 | pgbench_accounts_pkey |        690102272

 2017-02-10 15:07:35.928176+01 | 1486735655.92818 | pgbench_branches_pkey |            16384
 2017-02-10 15:07:35.928176+01 | 1486735655.92818 | pgbench_tellers_pkey  |            90112
 2017-02-10 15:07:35.928176+01 | 1486735655.92818 | pgbench_accounts_pkey |        690102272

 2017-02-10 15:07:37.008993+01 | 1486735657.00899 | pgbench_branches_pkey |            16384
 2017-02-10 15:07:37.008993+01 | 1486735657.00899 | pgbench_tellers_pkey  |            90112
 2017-02-10 15:07:37.008993+01 | 1486735657.00899 | pgbench_accounts_pkey |        690102272

 2017-02-10 15:07:38.073119+01 | 1486735658.07312 | pgbench_branches_pkey |            16384
 2017-02-10 15:07:38.073119+01 | 1486735658.07312 | pgbench_tellers_pkey  |            90112
 2017-02-10 15:07:38.073119+01 | 1486735658.07312 | pgbench_accounts_pkey |        690102272

 2017-02-10 15:07:39.163548+01 | 1486735659.16355 | pgbench_branches_pkey |            16384
 2017-02-10 15:07:39.163548+01 | 1486735659.16355 | pgbench_tellers_pkey  |            90112
 2017-02-10 15:07:39.163548+01 | 1486735659.16355 | pgbench_accounts_pkey |        690102272

 2017-02-10 15:07:40.234977+01 | 1486735660.23498 | pgbench_branches_pkey |            16384
 2017-02-10 15:07:40.234977+01 | 1486735660.23498 | pgbench_tellers_pkey  |            90112
 2017-02-10 15:07:40.234977+01 | 1486735660.23498 | pgbench_accounts_pkey |        690102272

 2017-02-10 15:07:41.318634+01 | 1486735661.31863 | pgbench_branches_pkey |            16384
 2017-02-10 15:07:41.318634+01 | 1486735661.31863 | pgbench_tellers_pkey  |            90112
 2017-02-10 15:07:41.318634+01 | 1486735661.31863 | pgbench_accounts_pkey |        690102272

 2017-02-10 15:07:42.404499+01 | 1486735662.4045 | pgbench_branches_pkey |            16384
 2017-02-10 15:07:42.404499+01 | 1486735662.4045 | pgbench_tellers_pkey  |            90112
 2017-02-10 15:07:42.404499+01 | 1486735662.4045 | pgbench_accounts_pkey |        690102272

 2017-02-10 15:07:43.484712+01 | 1486735663.48471 | pgbench_branches_pkey |            16384
 2017-02-10 15:07:43.484712+01 | 1486735663.48471 | pgbench_tellers_pkey  |            90112
 2017-02-10 15:07:43.484712+01 | 1486735663.48471 | pgbench_accounts_pkey |        690102272

 2017-02-10 15:07:44.56878+01 | 1486735664.56878 | pgbench_branches_pkey |            16384
 2017-02-10 15:07:44.56878+01 | 1486735664.56878 | pgbench_tellers_pkey  |            90112
 2017-02-10 15:07:44.56878+01 | 1486735664.56878 | pgbench_accounts_pkey |        690102272

 2017-02-10 15:07:45.650652+01 | 1486735665.65065 | pgbench_branches_pkey |            16384
 2017-02-10 15:07:45.650652+01 | 1486735665.65065 | pgbench_tellers_pkey  |            90112
 2017-02-10 15:07:45.650652+01 | 1486735665.65065 | pgbench_accounts_pkey |        690102272

 2017-02-10 15:07:46.745647+01 | 1486735666.74565 | pgbench_branches_pkey |            16384
 2017-02-10 15:07:46.745647+01 | 1486735666.74565 | pgbench_tellers_pkey  |            90112
 2017-02-10 15:07:46.745647+01 | 1486735666.74565 | pgbench_accounts_pkey |        690102272

 2017-02-10 15:07:47.856869+01 | 1486735667.85687 | pgbench_branches_pkey |            16384
 2017-02-10 15:07:47.856869+01 | 1486735667.85687 | pgbench_tellers_pkey  |            90112
 2017-02-10 15:07:47.856869+01 | 1486735667.85687 | pgbench_accounts_pkey |        690102272

 2017-02-10 15:07:48.935187+01 | 1486735668.93519 | pgbench_branches_pkey |            16384
 2017-02-10 15:07:48.935187+01 | 1486735668.93519 | pgbench_tellers_pkey  |            90112
 2017-02-10 15:07:48.935187+01 | 1486735668.93519 | pgbench_accounts_pkey |        690102272

 2017-02-10 15:07:50.004185+01 | 1486735670.00418 | pgbench_branches_pkey |            16384
 2017-02-10 15:07:50.004185+01 | 1486735670.00418 | pgbench_tellers_pkey  |            90112
 2017-02-10 15:07:50.004185+01 | 1486735670.00418 | pgbench_accounts_pkey |        690102272

 2017-02-10 15:07:51.05525+01 | 1486735671.05525 | pgbench_branches_pkey |            16384
 2017-02-10 15:07:51.05525+01 | 1486735671.05525 | pgbench_tellers_pkey  |            90112
 2017-02-10 15:07:51.05525+01 | 1486735671.05525 | pgbench_accounts_pkey |        690102272

 2017-02-10 15:07:52.136355+01 | 1486735672.13635 | pgbench_branches_pkey |            16384
 2017-02-10 15:07:52.136355+01 | 1486735672.13635 | pgbench_tellers_pkey  |            90112
 2017-02-10 15:07:52.136355+01 | 1486735672.13635 | pgbench_accounts_pkey |        690102272

 2017-02-10 15:07:53.246861+01 | 1486735673.24686 | pgbench_branches_pkey |            16384
 2017-02-10 15:07:53.246861+01 | 1486735673.24686 | pgbench_tellers_pkey  |            90112
 2017-02-10 15:07:53.246861+01 | 1486735673.24686 | pgbench_accounts_pkey |        690102272

 2017-02-10 15:07:54.334865+01 | 1486735674.33487 | pgbench_branches_pkey |            16384
 2017-02-10 15:07:54.334865+01 | 1486735674.33487 | pgbench_tellers_pkey  |            90112
 2017-02-10 15:07:54.334865+01 | 1486735674.33487 | pgbench_accounts_pkey |        690102272

 2017-02-10 15:07:55.421795+01 | 1486735675.42179 | pgbench_branches_pkey |            16384
 2017-02-10 15:07:55.421795+01 | 1486735675.42179 | pgbench_tellers_pkey  |            90112
 2017-02-10 15:07:55.421795+01 | 1486735675.42179 | pgbench_accounts_pkey |        690102272

 2017-02-10 15:07:56.494509+01 | 1486735676.49451 | pgbench_branches_pkey |            16384
 2017-02-10 15:07:56.494509+01 | 1486735676.49451 | pgbench_tellers_pkey  |            90112
 2017-02-10 15:07:56.494509+01 | 1486735676.49451 | pgbench_accounts_pkey |        690102272

 2017-02-10 15:07:57.582353+01 | 1486735677.58235 | pgbench_branches_pkey |            16384
 2017-02-10 15:07:57.582353+01 | 1486735677.58235 | pgbench_tellers_pkey  |            90112
 2017-02-10 15:07:57.582353+01 | 1486735677.58235 | pgbench_accounts_pkey |        690102272

 2017-02-10 15:07:58.656726+01 | 1486735678.65673 | pgbench_branches_pkey |            16384
 2017-02-10 15:07:58.656726+01 | 1486735678.65673 | pgbench_tellers_pkey  |            90112
 2017-02-10 15:07:58.656726+01 | 1486735678.65673 | pgbench_accounts_pkey |        690102272

 2017-02-10 15:07:59.729387+01 | 1486735679.72939 | pgbench_branches_pkey |            16384
 2017-02-10 15:07:59.729387+01 | 1486735679.72939 | pgbench_tellers_pkey  |            90112
 2017-02-10 15:07:59.729387+01 | 1486735679.72939 | pgbench_accounts_pkey |        690102272

 2017-02-10 15:08:00.803593+01 | 1486735680.80359 | pgbench_branches_pkey |            16384
 2017-02-10 15:08:00.803593+01 | 1486735680.80359 | pgbench_tellers_pkey  |            90112
 2017-02-10 15:08:00.803593+01 | 1486735680.80359 | pgbench_accounts_pkey |        690102272

 2017-02-10 15:08:01.89416+01 | 1486735681.89416 | pgbench_branches_pkey |            16384
 2017-02-10 15:08:01.89416+01 | 1486735681.89416 | pgbench_tellers_pkey  |            90112
 2017-02-10 15:08:01.89416+01 | 1486735681.89416 | pgbench_accounts_pkey |        690102272

 2017-02-10 15:08:02.973201+01 | 1486735682.9732 | pgbench_branches_pkey |            16384
 2017-02-10 15:08:02.973201+01 | 1486735682.9732 | pgbench_tellers_pkey  |            90112
 2017-02-10 15:08:02.973201+01 | 1486735682.9732 | pgbench_accounts_pkey |        690102272

 2017-02-10 15:08:04.054098+01 | 1486735684.0541 | pgbench_branches_pkey |            16384
 2017-02-10 15:08:04.054098+01 | 1486735684.0541 | pgbench_tellers_pkey  |            90112
 2017-02-10 15:08:04.054098+01 | 1486735684.0541 | pgbench_accounts_pkey |        690102272

 2017-02-10 15:08:05.135765+01 | 1486735685.13577 | pgbench_branches_pkey |            16384
 2017-02-10 15:08:05.135765+01 | 1486735685.13577 | pgbench_tellers_pkey  |            90112
 2017-02-10 15:08:05.135765+01 | 1486735685.13577 | pgbench_accounts_pkey |        690102272

 2017-02-10 15:08:06.213412+01 | 1486735686.21341 | pgbench_branches_pkey |            16384
 2017-02-10 15:08:06.213412+01 | 1486735686.21341 | pgbench_tellers_pkey  |            90112
 2017-02-10 15:08:06.213412+01 | 1486735686.21341 | pgbench_accounts_pkey |        690102272

 2017-02-10 15:08:07.297888+01 | 1486735687.29789 | pgbench_branches_pkey |            16384
 2017-02-10 15:08:07.297888+01 | 1486735687.29789 | pgbench_tellers_pkey  |            90112
 2017-02-10 15:08:07.297888+01 | 1486735687.29789 | pgbench_accounts_pkey |        690102272

 2017-02-10 15:08:08.379945+01 | 1486735688.37995 | pgbench_branches_pkey |            16384
 2017-02-10 15:08:08.379945+01 | 1486735688.37995 | pgbench_tellers_pkey  |            90112
 2017-02-10 15:08:08.379945+01 | 1486735688.37995 | pgbench_accounts_pkey |        690102272

 2017-02-10 15:08:09.453043+01 | 1486735689.45304 | pgbench_branches_pkey |            16384
 2017-02-10 15:08:09.453043+01 | 1486735689.45304 | pgbench_tellers_pkey  |            90112
 2017-02-10 15:08:09.453043+01 | 1486735689.45304 | pgbench_accounts_pkey |        690102272

 2017-02-10 15:08:10.526701+01 | 1486735690.5267 | pgbench_branches_pkey |            16384
 2017-02-10 15:08:10.526701+01 | 1486735690.5267 | pgbench_tellers_pkey  |            90112
 2017-02-10 15:08:10.526701+01 | 1486735690.5267 | pgbench_accounts_pkey |        690102272

 2017-02-10 15:08:11.597567+01 | 1486735691.59757 | pgbench_branches_pkey |            16384
 2017-02-10 15:08:11.597567+01 | 1486735691.59757 | pgbench_tellers_pkey  |            90112
 2017-02-10 15:08:11.597567+01 | 1486735691.59757 | pgbench_accounts_pkey |        690102272

 2017-02-10 15:08:12.690109+01 | 1486735692.69011 | pgbench_branches_pkey |            16384
 2017-02-10 15:08:12.690109+01 | 1486735692.69011 | pgbench_tellers_pkey  |            90112
 2017-02-10 15:08:12.690109+01 | 1486735692.69011 | pgbench_accounts_pkey |        690102272

 2017-02-10 15:08:13.774996+01 | 1486735693.775 | pgbench_branches_pkey |            16384
 2017-02-10 15:08:13.774996+01 | 1486735693.775 | pgbench_tellers_pkey  |            90112
 2017-02-10 15:08:13.774996+01 | 1486735693.775 | pgbench_accounts_pkey |        690102272

 2017-02-10 15:08:14.843858+01 | 1486735694.84386 | pgbench_branches_pkey |            16384
 2017-02-10 15:08:14.843858+01 | 1486735694.84386 | pgbench_tellers_pkey  |            90112
 2017-02-10 15:08:14.843858+01 | 1486735694.84386 | pgbench_accounts_pkey |        690102272

 2017-02-10 15:08:15.927432+01 | 1486735695.92743 | pgbench_branches_pkey |            16384
 2017-02-10 15:08:15.927432+01 | 1486735695.92743 | pgbench_tellers_pkey  |            90112
 2017-02-10 15:08:15.927432+01 | 1486735695.92743 | pgbench_accounts_pkey |        690102272

 2017-02-10 15:08:17.008264+01 | 1486735697.00826 | pgbench_branches_pkey |            16384
 2017-02-10 15:08:17.008264+01 | 1486735697.00826 | pgbench_tellers_pkey  |            90112
 2017-02-10 15:08:17.008264+01 | 1486735697.00826 | pgbench_accounts_pkey |        690102272

 2017-02-10 15:08:18.08101+01 | 1486735698.08101 | pgbench_branches_pkey |            16384
 2017-02-10 15:08:18.08101+01 | 1486735698.08101 | pgbench_tellers_pkey  |            90112
 2017-02-10 15:08:18.08101+01 | 1486735698.08101 | pgbench_accounts_pkey |        690102272

 2017-02-10 15:08:19.170273+01 | 1486735699.17027 | pgbench_branches_pkey |            16384
 2017-02-10 15:08:19.170273+01 | 1486735699.17027 | pgbench_tellers_pkey  |            90112
 2017-02-10 15:08:19.170273+01 | 1486735699.17027 | pgbench_accounts_pkey |        690102272

 2017-02-10 15:08:20.24325+01 | 1486735700.24325 | pgbench_branches_pkey |            16384
 2017-02-10 15:08:20.24325+01 | 1486735700.24325 | pgbench_tellers_pkey  |            90112
 2017-02-10 15:08:20.24325+01 | 1486735700.24325 | pgbench_accounts_pkey |        690102272

 2017-02-10 15:08:21.315679+01 | 1486735701.31568 | pgbench_branches_pkey |            16384
 2017-02-10 15:08:21.315679+01 | 1486735701.31568 | pgbench_tellers_pkey  |            90112
 2017-02-10 15:08:21.315679+01 | 1486735701.31568 | pgbench_accounts_pkey |        690102272

 2017-02-10 15:08:22.395216+01 | 1486735702.39522 | pgbench_branches_pkey |            16384
 2017-02-10 15:08:22.395216+01 | 1486735702.39522 | pgbench_tellers_pkey  |            90112
 2017-02-10 15:08:22.395216+01 | 1486735702.39522 | pgbench_accounts_pkey |        690102272

 2017-02-10 15:08:23.472741+01 | 1486735703.47274 | pgbench_branches_pkey |            16384
 2017-02-10 15:08:23.472741+01 | 1486735703.47274 | pgbench_tellers_pkey  |            90112
 2017-02-10 15:08:23.472741+01 | 1486735703.47274 | pgbench_accounts_pkey |        690102272

 2017-02-10 15:08:24.56084+01 | 1486735704.56084 | pgbench_branches_pkey |            16384
 2017-02-10 15:08:24.56084+01 | 1486735704.56084 | pgbench_tellers_pkey  |            90112
 2017-02-10 15:08:24.56084+01 | 1486735704.56084 | pgbench_accounts_pkey |        690102272

 2017-02-10 15:08:25.649214+01 | 1486735705.64921 | pgbench_branches_pkey |            16384
 2017-02-10 15:08:25.649214+01 | 1486735705.64921 | pgbench_tellers_pkey  |            90112
 2017-02-10 15:08:25.649214+01 | 1486735705.64921 | pgbench_accounts_pkey |        690102272

 2017-02-10 15:08:26.740064+01 | 1486735706.74006 | pgbench_branches_pkey |            16384
 2017-02-10 15:08:26.740064+01 | 1486735706.74006 | pgbench_tellers_pkey  |            90112
 2017-02-10 15:08:26.740064+01 | 1486735706.74006 | pgbench_accounts_pkey |        690102272

 2017-02-10 15:08:27.835671+01 | 1486735707.83567 | pgbench_branches_pkey |            16384
 2017-02-10 15:08:27.835671+01 | 1486735707.83567 | pgbench_tellers_pkey  |            90112
 2017-02-10 15:08:27.835671+01 | 1486735707.83567 | pgbench_accounts_pkey |        690102272

 2017-02-10 15:08:28.928397+01 | 1486735708.9284 | pgbench_branches_pkey |            16384
 2017-02-10 15:08:28.928397+01 | 1486735708.9284 | pgbench_tellers_pkey  |            90112
 2017-02-10 15:08:28.928397+01 | 1486735708.9284 | pgbench_accounts_pkey |        690102272

 2017-02-10 15:08:30.005503+01 | 1486735710.0055 | pgbench_branches_pkey |            16384
 2017-02-10 15:08:30.005503+01 | 1486735710.0055 | pgbench_tellers_pkey  |            90112
 2017-02-10 15:08:30.005503+01 | 1486735710.0055 | pgbench_accounts_pkey |        690102272

 2017-02-10 15:08:31.082836+01 | 1486735711.08284 | pgbench_branches_pkey |            16384
 2017-02-10 15:08:31.082836+01 | 1486735711.08284 | pgbench_tellers_pkey  |            90112
 2017-02-10 15:08:31.082836+01 | 1486735711.08284 | pgbench_accounts_pkey |        690102272

 2017-02-10 15:08:32.159708+01 | 1486735712.15971 | pgbench_branches_pkey |            16384
 2017-02-10 15:08:32.159708+01 | 1486735712.15971 | pgbench_tellers_pkey  |            90112
 2017-02-10 15:08:32.159708+01 | 1486735712.15971 | pgbench_accounts_pkey |        690102272

 2017-02-10 15:08:33.233553+01 | 1486735713.23355 | pgbench_branches_pkey |            16384
 2017-02-10 15:08:33.233553+01 | 1486735713.23355 | pgbench_tellers_pkey  |            90112
 2017-02-10 15:08:33.233553+01 | 1486735713.23355 | pgbench_accounts_pkey |        690102272

 2017-02-10 15:08:34.320671+01 | 1486735714.32067 | pgbench_branches_pkey |            16384
 2017-02-10 15:08:34.320671+01 | 1486735714.32067 | pgbench_tellers_pkey  |            90112
 2017-02-10 15:08:34.320671+01 | 1486735714.32067 | pgbench_accounts_pkey |        690102272

 2017-02-10 15:08:35.396342+01 | 1486735715.39634 | pgbench_branches_pkey |            16384
 2017-02-10 15:08:35.396342+01 | 1486735715.39634 | pgbench_tellers_pkey  |            90112
 2017-02-10 15:08:35.396342+01 | 1486735715.39634 | pgbench_accounts_pkey |        690102272

 2017-02-10 15:08:36.467955+01 | 1486735716.46796 | pgbench_branches_pkey |            16384
 2017-02-10 15:08:36.467955+01 | 1486735716.46796 | pgbench_tellers_pkey  |            90112
 2017-02-10 15:08:36.467955+01 | 1486735716.46796 | pgbench_accounts_pkey |        690102272

 2017-02-10 15:08:37.547746+01 | 1486735717.54775 | pgbench_branches_pkey |            16384
 2017-02-10 15:08:37.547746+01 | 1486735717.54775 | pgbench_tellers_pkey  |            90112
 2017-02-10 15:08:37.547746+01 | 1486735717.54775 | pgbench_accounts_pkey |        690102272

 2017-02-10 15:08:38.625937+01 | 1486735718.62594 | pgbench_branches_pkey |            16384
 2017-02-10 15:08:38.625937+01 | 1486735718.62594 | pgbench_tellers_pkey  |            90112
 2017-02-10 15:08:38.625937+01 | 1486735718.62594 | pgbench_accounts_pkey |        690102272

 2017-02-10 15:08:39.699829+01 | 1486735719.69983 | pgbench_branches_pkey |            16384
 2017-02-10 15:08:39.699829+01 | 1486735719.69983 | pgbench_tellers_pkey  |            90112
 2017-02-10 15:08:39.699829+01 | 1486735719.69983 | pgbench_accounts_pkey |        690102272

 2017-02-10 15:08:40.780325+01 | 1486735720.78032 | pgbench_branches_pkey |            16384
 2017-02-10 15:08:40.780325+01 | 1486735720.78032 | pgbench_tellers_pkey  |            90112
 2017-02-10 15:08:40.780325+01 | 1486735720.78032 | pgbench_accounts_pkey |        690102272

 2017-02-10 15:08:41.880297+01 | 1486735721.8803 | pgbench_branches_pkey |            16384
 2017-02-10 15:08:41.880297+01 | 1486735721.8803 | pgbench_tellers_pkey  |            90112
 2017-02-10 15:08:41.880297+01 | 1486735721.8803 | pgbench_accounts_pkey |        690102272

 2017-02-10 15:08:42.980921+01 | 1486735722.98092 | pgbench_branches_pkey |            16384
 2017-02-10 15:08:42.980921+01 | 1486735722.98092 | pgbench_tellers_pkey  |            90112
 2017-02-10 15:08:42.980921+01 | 1486735722.98092 | pgbench_accounts_pkey |        690102272

 2017-02-10 15:08:44.065977+01 | 1486735724.06598 | pgbench_branches_pkey |            16384
 2017-02-10 15:08:44.065977+01 | 1486735724.06598 | pgbench_tellers_pkey  |            90112
 2017-02-10 15:08:44.065977+01 | 1486735724.06598 | pgbench_accounts_pkey |        690102272

 2017-02-10 15:08:45.135409+01 | 1486735725.13541 | pgbench_branches_pkey |            16384
 2017-02-10 15:08:45.135409+01 | 1486735725.13541 | pgbench_tellers_pkey  |            90112
 2017-02-10 15:08:45.135409+01 | 1486735725.13541 | pgbench_accounts_pkey |        690102272

 2017-02-10 15:08:46.21732+01 | 1486735726.21732 | pgbench_branches_pkey |            16384
 2017-02-10 15:08:46.21732+01 | 1486735726.21732 | pgbench_tellers_pkey  |            90112
 2017-02-10 15:08:46.21732+01 | 1486735726.21732 | pgbench_accounts_pkey |        690102272

 2017-02-10 15:08:47.297797+01 | 1486735727.2978 | pgbench_branches_pkey |            16384
 2017-02-10 15:08:47.297797+01 | 1486735727.2978 | pgbench_tellers_pkey  |            90112
 2017-02-10 15:08:47.297797+01 | 1486735727.2978 | pgbench_accounts_pkey |        690102272

 2017-02-10 15:08:48.366282+01 | 1486735728.36628 | pgbench_branches_pkey |            16384
 2017-02-10 15:08:48.366282+01 | 1486735728.36628 | pgbench_tellers_pkey  |            90112
 2017-02-10 15:08:48.366282+01 | 1486735728.36628 | pgbench_accounts_pkey |        690102272

 2017-02-10 15:08:49.456694+01 | 1486735729.45669 | pgbench_branches_pkey |            16384
 2017-02-10 15:08:49.456694+01 | 1486735729.45669 | pgbench_tellers_pkey  |            90112
 2017-02-10 15:08:49.456694+01 | 1486735729.45669 | pgbench_accounts_pkey |        690102272

 2017-02-10 15:08:50.542283+01 | 1486735730.54228 | pgbench_branches_pkey |            16384
 2017-02-10 15:08:50.542283+01 | 1486735730.54228 | pgbench_tellers_pkey  |            90112
 2017-02-10 15:08:50.542283+01 | 1486735730.54228 | pgbench_accounts_pkey |        690102272

 2017-02-10 15:08:51.625112+01 | 1486735731.62511 | pgbench_branches_pkey |            16384
 2017-02-10 15:08:51.625112+01 | 1486735731.62511 | pgbench_tellers_pkey  |            90112
 2017-02-10 15:08:51.625112+01 | 1486735731.62511 | pgbench_accounts_pkey |        690102272

 2017-02-10 15:08:52.709611+01 | 1486735732.70961 | pgbench_branches_pkey |            16384
 2017-02-10 15:08:52.709611+01 | 1486735732.70961 | pgbench_tellers_pkey  |            90112
 2017-02-10 15:08:52.709611+01 | 1486735732.70961 | pgbench_accounts_pkey |        690102272

 2017-02-10 15:08:53.789723+01 | 1486735733.78972 | pgbench_branches_pkey |            16384
 2017-02-10 15:08:53.789723+01 | 1486735733.78972 | pgbench_tellers_pkey  |            90112
 2017-02-10 15:08:53.789723+01 | 1486735733.78972 | pgbench_accounts_pkey |        690102272

 2017-02-10 15:08:54.859405+01 | 1486735734.85941 | pgbench_branches_pkey |            16384
 2017-02-10 15:08:54.859405+01 | 1486735734.85941 | pgbench_tellers_pkey  |            90112
 2017-02-10 15:08:54.859405+01 | 1486735734.85941 | pgbench_accounts_pkey |        690102272

 2017-02-10 15:08:55.990862+01 | 1486735735.99086 | pgbench_branches_pkey |            16384
 2017-02-10 15:08:55.990862+01 | 1486735735.99086 | pgbench_tellers_pkey  |            90112
 2017-02-10 15:08:55.990862+01 | 1486735735.99086 | pgbench_accounts_pkey |        690102272

 2017-02-10 15:08:57.067134+01 | 1486735737.06713 | pgbench_branches_pkey |            16384
 2017-02-10 15:08:57.067134+01 | 1486735737.06713 | pgbench_tellers_pkey  |            90112
 2017-02-10 15:08:57.067134+01 | 1486735737.06713 | pgbench_accounts_pkey |        690102272

 2017-02-10 15:08:58.13965+01 | 1486735738.13965 | pgbench_branches_pkey |            16384
 2017-02-10 15:08:58.13965+01 | 1486735738.13965 | pgbench_tellers_pkey  |            90112
 2017-02-10 15:08:58.13965+01 | 1486735738.13965 | pgbench_accounts_pkey |        690102272

 2017-02-10 15:08:59.227994+01 | 1486735739.22799 | pgbench_branches_pkey |            16384
 2017-02-10 15:08:59.227994+01 | 1486735739.22799 | pgbench_tellers_pkey  |            90112
 2017-02-10 15:08:59.227994+01 | 1486735739.22799 | pgbench_accounts_pkey |        690102272

 2017-02-10 15:09:00.305893+01 | 1486735740.30589 | pgbench_branches_pkey |            16384
 2017-02-10 15:09:00.305893+01 | 1486735740.30589 | pgbench_tellers_pkey  |            90112
 2017-02-10 15:09:00.305893+01 | 1486735740.30589 | pgbench_accounts_pkey |        690102272

 2017-02-10 15:09:01.404806+01 | 1486735741.40481 | pgbench_branches_pkey |            16384
 2017-02-10 15:09:01.404806+01 | 1486735741.40481 | pgbench_tellers_pkey  |            90112
 2017-02-10 15:09:01.404806+01 | 1486735741.40481 | pgbench_accounts_pkey |        690102272

 2017-02-10 15:09:02.504513+01 | 1486735742.50451 | pgbench_branches_pkey |            16384
 2017-02-10 15:09:02.504513+01 | 1486735742.50451 | pgbench_tellers_pkey  |            90112
 2017-02-10 15:09:02.504513+01 | 1486735742.50451 | pgbench_accounts_pkey |        690102272

 2017-02-10 15:09:03.591903+01 | 1486735743.5919 | pgbench_branches_pkey |            16384
 2017-02-10 15:09:03.591903+01 | 1486735743.5919 | pgbench_tellers_pkey  |            90112
 2017-02-10 15:09:03.591903+01 | 1486735743.5919 | pgbench_accounts_pkey |        690102272

 2017-02-10 15:09:04.680812+01 | 1486735744.68081 | pgbench_branches_pkey |            16384
 2017-02-10 15:09:04.680812+01 | 1486735744.68081 | pgbench_tellers_pkey  |            90112
 2017-02-10 15:09:04.680812+01 | 1486735744.68081 | pgbench_accounts_pkey |        690102272

 2017-02-10 15:09:05.757503+01 | 1486735745.7575 | pgbench_branches_pkey |            16384
 2017-02-10 15:09:05.757503+01 | 1486735745.7575 | pgbench_tellers_pkey  |            90112
 2017-02-10 15:09:05.757503+01 | 1486735745.7575 | pgbench_accounts_pkey |        690102272

 2017-02-10 15:09:06.845302+01 | 1486735746.8453 | pgbench_branches_pkey |            16384
 2017-02-10 15:09:06.845302+01 | 1486735746.8453 | pgbench_tellers_pkey  |            90112
 2017-02-10 15:09:06.845302+01 | 1486735746.8453 | pgbench_accounts_pkey |        690102272

 2017-02-10 15:09:07.925464+01 | 1486735747.92546 | pgbench_branches_pkey |            16384
 2017-02-10 15:09:07.925464+01 | 1486735747.92546 | pgbench_tellers_pkey  |            90112
 2017-02-10 15:09:07.925464+01 | 1486735747.92546 | pgbench_accounts_pkey |        690102272

 2017-02-10 15:09:08.991313+01 | 1486735748.99131 | pgbench_branches_pkey |            16384
 2017-02-10 15:09:08.991313+01 | 1486735748.99131 | pgbench_tellers_pkey  |            90112
 2017-02-10 15:09:08.991313+01 | 1486735748.99131 | pgbench_accounts_pkey |        690102272

 2017-02-10 15:09:10.081772+01 | 1486735750.08177 | pgbench_branches_pkey |            16384
 2017-02-10 15:09:10.081772+01 | 1486735750.08177 | pgbench_tellers_pkey  |            90112
 2017-02-10 15:09:10.081772+01 | 1486735750.08177 | pgbench_accounts_pkey |        690102272

 2017-02-10 15:09:11.152928+01 | 1486735751.15293 | pgbench_branches_pkey |            16384
 2017-02-10 15:09:11.152928+01 | 1486735751.15293 | pgbench_tellers_pkey  |            90112
 2017-02-10 15:09:11.152928+01 | 1486735751.15293 | pgbench_accounts_pkey |        690102272

 2017-02-10 15:09:12.232464+01 | 1486735752.23246 | pgbench_branches_pkey |            16384
 2017-02-10 15:09:12.232464+01 | 1486735752.23246 | pgbench_tellers_pkey  |            90112
 2017-02-10 15:09:12.232464+01 | 1486735752.23246 | pgbench_accounts_pkey |        690102272

 2017-02-10 15:09:13.323692+01 | 1486735753.32369 | pgbench_branches_pkey |            16384
 2017-02-10 15:09:13.323692+01 | 1486735753.32369 | pgbench_tellers_pkey  |            90112
 2017-02-10 15:09:13.323692+01 | 1486735753.32369 | pgbench_accounts_pkey |        690102272

 2017-02-10 15:09:14.410855+01 | 1486735754.41086 | pgbench_branches_pkey |            16384
 2017-02-10 15:09:14.410855+01 | 1486735754.41086 | pgbench_tellers_pkey  |            90112
 2017-02-10 15:09:14.410855+01 | 1486735754.41086 | pgbench_accounts_pkey |        690102272

 2017-02-10 15:09:15.498637+01 | 1486735755.49864 | pgbench_branches_pkey |            16384
 2017-02-10 15:09:15.498637+01 | 1486735755.49864 | pgbench_tellers_pkey  |            90112
 2017-02-10 15:09:15.498637+01 | 1486735755.49864 | pgbench_accounts_pkey |        690102272

 2017-02-10 15:09:16.57739+01 | 1486735756.57739 | pgbench_branches_pkey |            16384
 2017-02-10 15:09:16.57739+01 | 1486735756.57739 | pgbench_tellers_pkey  |            90112
 2017-02-10 15:09:16.57739+01 | 1486735756.57739 | pgbench_accounts_pkey |        690102272

 2017-02-10 15:09:17.641479+01 | 1486735757.64148 | pgbench_branches_pkey |            16384
 2017-02-10 15:09:17.641479+01 | 1486735757.64148 | pgbench_tellers_pkey  |            90112
 2017-02-10 15:09:17.641479+01 | 1486735757.64148 | pgbench_accounts_pkey |        690102272

 2017-02-10 15:09:18.72256+01 | 1486735758.72256 | pgbench_branches_pkey |            16384
 2017-02-10 15:09:18.72256+01 | 1486735758.72256 | pgbench_tellers_pkey  |            90112
 2017-02-10 15:09:18.72256+01 | 1486735758.72256 | pgbench_accounts_pkey |        690102272

 2017-02-10 15:09:19.811458+01 | 1486735759.81146 | pgbench_branches_pkey |            16384
 2017-02-10 15:09:19.811458+01 | 1486735759.81146 | pgbench_tellers_pkey  |            90112
 2017-02-10 15:09:19.811458+01 | 1486735759.81146 | pgbench_accounts_pkey |        690102272

 2017-02-10 15:09:20.898461+01 | 1486735760.89846 | pgbench_branches_pkey |            16384
 2017-02-10 15:09:20.898461+01 | 1486735760.89846 | pgbench_tellers_pkey  |            90112
 2017-02-10 15:09:20.898461+01 | 1486735760.89846 | pgbench_accounts_pkey |        690102272

 2017-02-10 15:09:21.97587+01 | 1486735761.97587 | pgbench_branches_pkey |            16384
 2017-02-10 15:09:21.97587+01 | 1486735761.97587 | pgbench_tellers_pkey  |            90112
 2017-02-10 15:09:21.97587+01 | 1486735761.97587 | pgbench_accounts_pkey |        690102272

 2017-02-10 15:09:23.044503+01 | 1486735763.0445 | pgbench_branches_pkey |            16384
 2017-02-10 15:09:23.044503+01 | 1486735763.0445 | pgbench_tellers_pkey  |            90112
 2017-02-10 15:09:23.044503+01 | 1486735763.0445 | pgbench_accounts_pkey |        690102272

 2017-02-10 15:09:24.124103+01 | 1486735764.1241 | pgbench_branches_pkey |            16384
 2017-02-10 15:09:24.124103+01 | 1486735764.1241 | pgbench_tellers_pkey  |            90112
 2017-02-10 15:09:24.124103+01 | 1486735764.1241 | pgbench_accounts_pkey |        690102272

 2017-02-10 15:09:25.18777+01 | 1486735765.18777 | pgbench_branches_pkey |            16384
 2017-02-10 15:09:25.18777+01 | 1486735765.18777 | pgbench_tellers_pkey  |            90112
 2017-02-10 15:09:25.18777+01 | 1486735765.18777 | pgbench_accounts_pkey |        690102272

 2017-02-10 15:09:26.261195+01 | 1486735766.26119 | pgbench_branches_pkey |            16384
 2017-02-10 15:09:26.261195+01 | 1486735766.26119 | pgbench_tellers_pkey  |            90112
 2017-02-10 15:09:26.261195+01 | 1486735766.26119 | pgbench_accounts_pkey |        690102272

 2017-02-10 15:09:27.338996+01 | 1486735767.339 | pgbench_branches_pkey |            16384
 2017-02-10 15:09:27.338996+01 | 1486735767.339 | pgbench_tellers_pkey  |            90112
 2017-02-10 15:09:27.338996+01 | 1486735767.339 | pgbench_accounts_pkey |        690102272

 2017-02-10 15:09:28.428469+01 | 1486735768.42847 | pgbench_branches_pkey |            16384
 2017-02-10 15:09:28.428469+01 | 1486735768.42847 | pgbench_tellers_pkey  |            90112
 2017-02-10 15:09:28.428469+01 | 1486735768.42847 | pgbench_accounts_pkey |        690102272

 2017-02-10 15:09:29.508384+01 | 1486735769.50838 | pgbench_branches_pkey |            16384
 2017-02-10 15:09:29.508384+01 | 1486735769.50838 | pgbench_tellers_pkey  |            90112
 2017-02-10 15:09:29.508384+01 | 1486735769.50838 | pgbench_accounts_pkey |        690102272

 2017-02-10 15:09:30.585873+01 | 1486735770.58587 | pgbench_branches_pkey |            16384
 2017-02-10 15:09:30.585873+01 | 1486735770.58587 | pgbench_tellers_pkey  |            90112
 2017-02-10 15:09:30.585873+01 | 1486735770.58587 | pgbench_accounts_pkey |        690102272

 2017-02-10 15:09:31.649577+01 | 1486735771.64958 | pgbench_branches_pkey |            16384
 2017-02-10 15:09:31.649577+01 | 1486735771.64958 | pgbench_tellers_pkey  |            90112
 2017-02-10 15:09:31.649577+01 | 1486735771.64958 | pgbench_accounts_pkey |        690102272

 2017-02-10 15:09:32.744474+01 | 1486735772.74447 | pgbench_branches_pkey |            16384
 2017-02-10 15:09:32.744474+01 | 1486735772.74447 | pgbench_tellers_pkey  |            90112
 2017-02-10 15:09:32.744474+01 | 1486735772.74447 | pgbench_accounts_pkey |        690102272

 2017-02-10 15:09:33.804674+01 | 1486735773.80467 | pgbench_branches_pkey |            16384
 2017-02-10 15:09:33.804674+01 | 1486735773.80467 | pgbench_tellers_pkey  |            90112
 2017-02-10 15:09:33.804674+01 | 1486735773.80467 | pgbench_accounts_pkey |        690102272

 2017-02-10 15:09:34.878315+01 | 1486735774.87831 | pgbench_branches_pkey |            16384
 2017-02-10 15:09:34.878315+01 | 1486735774.87831 | pgbench_tellers_pkey  |            90112
 2017-02-10 15:09:34.878315+01 | 1486735774.87831 | pgbench_accounts_pkey |        690102272

 2017-02-10 15:09:35.954843+01 | 1486735775.95484 | pgbench_branches_pkey |            16384
 2017-02-10 15:09:35.954843+01 | 1486735775.95484 | pgbench_tellers_pkey  |            90112
 2017-02-10 15:09:35.954843+01 | 1486735775.95484 | pgbench_accounts_pkey |        690102272

 2017-02-10 15:09:37.023927+01 | 1486735777.02393 | pgbench_branches_pkey |            16384
 2017-02-10 15:09:37.023927+01 | 1486735777.02393 | pgbench_tellers_pkey  |            90112
 2017-02-10 15:09:37.023927+01 | 1486735777.02393 | pgbench_accounts_pkey |        690102272

 2017-02-10 15:09:38.108342+01 | 1486735778.10834 | pgbench_branches_pkey |            16384
 2017-02-10 15:09:38.108342+01 | 1486735778.10834 | pgbench_tellers_pkey  |            90112
 2017-02-10 15:09:38.108342+01 | 1486735778.10834 | pgbench_accounts_pkey |        690102272

 2017-02-10 15:09:39.178579+01 | 1486735779.17858 | pgbench_branches_pkey |            16384
 2017-02-10 15:09:39.178579+01 | 1486735779.17858 | pgbench_tellers_pkey  |            90112
 2017-02-10 15:09:39.178579+01 | 1486735779.17858 | pgbench_accounts_pkey |        690102272

 2017-02-10 15:09:40.261664+01 | 1486735780.26166 | pgbench_branches_pkey |            16384
 2017-02-10 15:09:40.261664+01 | 1486735780.26166 | pgbench_tellers_pkey  |            90112
 2017-02-10 15:09:40.261664+01 | 1486735780.26166 | pgbench_accounts_pkey |        690102272

 2017-02-10 15:09:41.342067+01 | 1486735781.34207 | pgbench_branches_pkey |            16384
 2017-02-10 15:09:41.342067+01 | 1486735781.34207 | pgbench_tellers_pkey  |            90112
 2017-02-10 15:09:41.342067+01 | 1486735781.34207 | pgbench_accounts_pkey |        690102272

 2017-02-10 15:09:42.423538+01 | 1486735782.42354 | pgbench_branches_pkey |            16384
 2017-02-10 15:09:42.423538+01 | 1486735782.42354 | pgbench_tellers_pkey  |            90112
 2017-02-10 15:09:42.423538+01 | 1486735782.42354 | pgbench_accounts_pkey |        690102272

 2017-02-10 15:09:43.50764+01 | 1486735783.50764 | pgbench_branches_pkey |            16384
 2017-02-10 15:09:43.50764+01 | 1486735783.50764 | pgbench_tellers_pkey  |            90112
 2017-02-10 15:09:43.50764+01 | 1486735783.50764 | pgbench_accounts_pkey |        690102272

 2017-02-10 15:09:44.58375+01 | 1486735784.58375 | pgbench_branches_pkey |            16384
 2017-02-10 15:09:44.58375+01 | 1486735784.58375 | pgbench_tellers_pkey  |            90112
 2017-02-10 15:09:44.58375+01 | 1486735784.58375 | pgbench_accounts_pkey |        690102272

 2017-02-10 15:09:45.675875+01 | 1486735785.67587 | pgbench_branches_pkey |            16384
 2017-02-10 15:09:45.675875+01 | 1486735785.67587 | pgbench_tellers_pkey  |            90112
 2017-02-10 15:09:45.675875+01 | 1486735785.67587 | pgbench_accounts_pkey |        690102272

 2017-02-10 15:09:46.767093+01 | 1486735786.76709 | pgbench_branches_pkey |            16384
 2017-02-10 15:09:46.767093+01 | 1486735786.76709 | pgbench_tellers_pkey  |            90112
 2017-02-10 15:09:46.767093+01 | 1486735786.76709 | pgbench_accounts_pkey |        690102272

 2017-02-10 15:09:47.861114+01 | 1486735787.86111 | pgbench_branches_pkey |            16384
 2017-02-10 15:09:47.861114+01 | 1486735787.86111 | pgbench_tellers_pkey  |            90112
 2017-02-10 15:09:47.861114+01 | 1486735787.86111 | pgbench_accounts_pkey |        690102272

 2017-02-10 15:09:48.942513+01 | 1486735788.94251 | pgbench_branches_pkey |            16384
 2017-02-10 15:09:48.942513+01 | 1486735788.94251 | pgbench_tellers_pkey  |            90112
 2017-02-10 15:09:48.942513+01 | 1486735788.94251 | pgbench_accounts_pkey |        690102272

 2017-02-10 15:09:50.023946+01 | 1486735790.02395 | pgbench_branches_pkey |            16384
 2017-02-10 15:09:50.023946+01 | 1486735790.02395 | pgbench_tellers_pkey  |            90112
 2017-02-10 15:09:50.023946+01 | 1486735790.02395 | pgbench_accounts_pkey |        690102272

 2017-02-10 15:09:51.090855+01 | 1486735791.09085 | pgbench_branches_pkey |            16384
 2017-02-10 15:09:51.090855+01 | 1486735791.09085 | pgbench_tellers_pkey  |            90112
 2017-02-10 15:09:51.090855+01 | 1486735791.09085 | pgbench_accounts_pkey |        690102272

 2017-02-10 15:09:52.188942+01 | 1486735792.18894 | pgbench_branches_pkey |            16384
 2017-02-10 15:09:52.188942+01 | 1486735792.18894 | pgbench_tellers_pkey  |            90112
 2017-02-10 15:09:52.188942+01 | 1486735792.18894 | pgbench_accounts_pkey |        690102272

 2017-02-10 15:09:53.265811+01 | 1486735793.26581 | pgbench_branches_pkey |            16384
 2017-02-10 15:09:53.265811+01 | 1486735793.26581 | pgbench_tellers_pkey  |            90112
 2017-02-10 15:09:53.265811+01 | 1486735793.26581 | pgbench_accounts_pkey |        690102272

 2017-02-10 15:09:54.343136+01 | 1486735794.34314 | pgbench_branches_pkey |            16384
 2017-02-10 15:09:54.343136+01 | 1486735794.34314 | pgbench_tellers_pkey  |            90112
 2017-02-10 15:09:54.343136+01 | 1486735794.34314 | pgbench_accounts_pkey |        690102272

 2017-02-10 15:09:55.430584+01 | 1486735795.43058 | pgbench_branches_pkey |            16384
 2017-02-10 15:09:55.430584+01 | 1486735795.43058 | pgbench_tellers_pkey  |            90112
 2017-02-10 15:09:55.430584+01 | 1486735795.43058 | pgbench_accounts_pkey |        690102272

 2017-02-10 15:09:56.513048+01 | 1486735796.51305 | pgbench_branches_pkey |            16384
 2017-02-10 15:09:56.513048+01 | 1486735796.51305 | pgbench_tellers_pkey  |            90112
 2017-02-10 15:09:56.513048+01 | 1486735796.51305 | pgbench_accounts_pkey |        690102272

 2017-02-10 15:09:57.592164+01 | 1486735797.59216 | pgbench_branches_pkey |            16384
 2017-02-10 15:09:57.592164+01 | 1486735797.59216 | pgbench_tellers_pkey  |            90112
 2017-02-10 15:09:57.592164+01 | 1486735797.59216 | pgbench_accounts_pkey |        690102272

 2017-02-10 15:09:58.677905+01 | 1486735798.67791 | pgbench_branches_pkey |            16384
 2017-02-10 15:09:58.677905+01 | 1486735798.67791 | pgbench_tellers_pkey  |            90112
 2017-02-10 15:09:58.677905+01 | 1486735798.67791 | pgbench_accounts_pkey |        690102272

 2017-02-10 15:09:59.76773+01 | 1486735799.76773 | pgbench_branches_pkey |            16384
 2017-02-10 15:09:59.76773+01 | 1486735799.76773 | pgbench_tellers_pkey  |            90112
 2017-02-10 15:09:59.76773+01 | 1486735799.76773 | pgbench_accounts_pkey |        690102272

 2017-02-10 15:10:00.844243+01 | 1486735800.84424 | pgbench_branches_pkey |            16384
 2017-02-10 15:10:00.844243+01 | 1486735800.84424 | pgbench_tellers_pkey  |            90112
 2017-02-10 15:10:00.844243+01 | 1486735800.84424 | pgbench_accounts_pkey |        690102272

 2017-02-10 15:10:01.932529+01 | 1486735801.93253 | pgbench_branches_pkey |            16384
 2017-02-10 15:10:01.932529+01 | 1486735801.93253 | pgbench_tellers_pkey  |            90112
 2017-02-10 15:10:01.932529+01 | 1486735801.93253 | pgbench_accounts_pkey |        690102272

 2017-02-10 15:10:03.014032+01 | 1486735803.01403 | pgbench_branches_pkey |            16384
 2017-02-10 15:10:03.014032+01 | 1486735803.01403 | pgbench_tellers_pkey  |            90112
 2017-02-10 15:10:03.014032+01 | 1486735803.01403 | pgbench_accounts_pkey |        690102272

 2017-02-10 15:10:04.08629+01 | 1486735804.08629 | pgbench_branches_pkey |            16384
 2017-02-10 15:10:04.08629+01 | 1486735804.08629 | pgbench_tellers_pkey  |            90112
 2017-02-10 15:10:04.08629+01 | 1486735804.08629 | pgbench_accounts_pkey |        690102272

 2017-02-10 15:10:05.160465+01 | 1486735805.16047 | pgbench_branches_pkey |            16384
 2017-02-10 15:10:05.160465+01 | 1486735805.16047 | pgbench_tellers_pkey  |            90112
 2017-02-10 15:10:05.160465+01 | 1486735805.16047 | pgbench_accounts_pkey |        690102272

 2017-02-10 15:10:06.227879+01 | 1486735806.22788 | pgbench_branches_pkey |            16384
 2017-02-10 15:10:06.227879+01 | 1486735806.22788 | pgbench_tellers_pkey  |            90112
 2017-02-10 15:10:06.227879+01 | 1486735806.22788 | pgbench_accounts_pkey |        690102272

 2017-02-10 15:10:07.305459+01 | 1486735807.30546 | pgbench_branches_pkey |            16384
 2017-02-10 15:10:07.305459+01 | 1486735807.30546 | pgbench_tellers_pkey  |            90112
 2017-02-10 15:10:07.305459+01 | 1486735807.30546 | pgbench_accounts_pkey |        690102272

 2017-02-10 15:10:08.384497+01 | 1486735808.3845 | pgbench_branches_pkey |            16384
 2017-02-10 15:10:08.384497+01 | 1486735808.3845 | pgbench_tellers_pkey  |            90112
 2017-02-10 15:10:08.384497+01 | 1486735808.3845 | pgbench_accounts_pkey |        690102272

 2017-02-10 15:10:09.467645+01 | 1486735809.46764 | pgbench_branches_pkey |            16384
 2017-02-10 15:10:09.467645+01 | 1486735809.46764 | pgbench_tellers_pkey  |            90112
 2017-02-10 15:10:09.467645+01 | 1486735809.46764 | pgbench_accounts_pkey |        690102272

 2017-02-10 15:10:10.576179+01 | 1486735810.57618 | pgbench_branches_pkey |            16384
 2017-02-10 15:10:10.576179+01 | 1486735810.57618 | pgbench_tellers_pkey  |            90112
 2017-02-10 15:10:10.576179+01 | 1486735810.57618 | pgbench_accounts_pkey |        690102272

 2017-02-10 15:10:11.665103+01 | 1486735811.6651 | pgbench_branches_pkey |            16384
 2017-02-10 15:10:11.665103+01 | 1486735811.6651 | pgbench_tellers_pkey  |            90112
 2017-02-10 15:10:11.665103+01 | 1486735811.6651 | pgbench_accounts_pkey |        690102272

 2017-02-10 15:10:12.757472+01 | 1486735812.75747 | pgbench_branches_pkey |            16384
 2017-02-10 15:10:12.757472+01 | 1486735812.75747 | pgbench_tellers_pkey  |            90112
 2017-02-10 15:10:12.757472+01 | 1486735812.75747 | pgbench_accounts_pkey |        690102272

 2017-02-10 15:10:13.833981+01 | 1486735813.83398 | pgbench_branches_pkey |            16384
 2017-02-10 15:10:13.833981+01 | 1486735813.83398 | pgbench_tellers_pkey  |            90112
 2017-02-10 15:10:13.833981+01 | 1486735813.83398 | pgbench_accounts_pkey |        690102272

 2017-02-10 15:10:14.911647+01 | 1486735814.91165 | pgbench_branches_pkey |            16384
 2017-02-10 15:10:14.911647+01 | 1486735814.91165 | pgbench_tellers_pkey  |            90112
 2017-02-10 15:10:14.911647+01 | 1486735814.91165 | pgbench_accounts_pkey |        690102272

 2017-02-10 15:10:15.982789+01 | 1486735815.98279 | pgbench_branches_pkey |            16384
 2017-02-10 15:10:15.982789+01 | 1486735815.98279 | pgbench_tellers_pkey  |            90112
 2017-02-10 15:10:15.982789+01 | 1486735815.98279 | pgbench_accounts_pkey |        690102272

 2017-02-10 15:10:17.067361+01 | 1486735817.06736 | pgbench_branches_pkey |            16384
 2017-02-10 15:10:17.067361+01 | 1486735817.06736 | pgbench_tellers_pkey  |            90112
 2017-02-10 15:10:17.067361+01 | 1486735817.06736 | pgbench_accounts_pkey |        690102272

 2017-02-10 15:10:18.1546+01 | 1486735818.1546 | pgbench_branches_pkey |            16384
 2017-02-10 15:10:18.1546+01 | 1486735818.1546 | pgbench_tellers_pkey  |            90112
 2017-02-10 15:10:18.1546+01 | 1486735818.1546 | pgbench_accounts_pkey |        690102272

 2017-02-10 15:10:19.219852+01 | 1486735819.21985 | pgbench_branches_pkey |            16384
 2017-02-10 15:10:19.219852+01 | 1486735819.21985 | pgbench_tellers_pkey  |            90112
 2017-02-10 15:10:19.219852+01 | 1486735819.21985 | pgbench_accounts_pkey |        690102272

 2017-02-10 15:10:20.313945+01 | 1486735820.31395 | pgbench_branches_pkey |            16384
 2017-02-10 15:10:20.313945+01 | 1486735820.31395 | pgbench_tellers_pkey  |            90112
 2017-02-10 15:10:20.313945+01 | 1486735820.31395 | pgbench_accounts_pkey |        690102272

 2017-02-10 15:10:21.396523+01 | 1486735821.39652 | pgbench_branches_pkey |            16384
 2017-02-10 15:10:21.396523+01 | 1486735821.39652 | pgbench_tellers_pkey  |            90112
 2017-02-10 15:10:21.396523+01 | 1486735821.39652 | pgbench_accounts_pkey |        690102272

 2017-02-10 15:10:22.468636+01 | 1486735822.46864 | pgbench_branches_pkey |            16384
 2017-02-10 15:10:22.468636+01 | 1486735822.46864 | pgbench_tellers_pkey  |            90112
 2017-02-10 15:10:22.468636+01 | 1486735822.46864 | pgbench_accounts_pkey |        690102272

 2017-02-10 15:10:23.544397+01 | 1486735823.5444 | pgbench_branches_pkey |            16384
 2017-02-10 15:10:23.544397+01 | 1486735823.5444 | pgbench_tellers_pkey  |            90112
 2017-02-10 15:10:23.544397+01 | 1486735823.5444 | pgbench_accounts_pkey |        690102272

 2017-02-10 15:10:24.644364+01 | 1486735824.64436 | pgbench_branches_pkey |            16384
 2017-02-10 15:10:24.644364+01 | 1486735824.64436 | pgbench_tellers_pkey  |            90112
 2017-02-10 15:10:24.644364+01 | 1486735824.64436 | pgbench_accounts_pkey |        690102272

 2017-02-10 15:10:25.730522+01 | 1486735825.73052 | pgbench_branches_pkey |            16384
 2017-02-10 15:10:25.730522+01 | 1486735825.73052 | pgbench_tellers_pkey  |            90112
 2017-02-10 15:10:25.730522+01 | 1486735825.73052 | pgbench_accounts_pkey |        690102272

 2017-02-10 15:10:26.816177+01 | 1486735826.81618 | pgbench_branches_pkey |            16384
 2017-02-10 15:10:26.816177+01 | 1486735826.81618 | pgbench_tellers_pkey  |            90112
 2017-02-10 15:10:26.816177+01 | 1486735826.81618 | pgbench_accounts_pkey |        690102272

 2017-02-10 15:10:27.899043+01 | 1486735827.89904 | pgbench_branches_pkey |            16384
 2017-02-10 15:10:27.899043+01 | 1486735827.89904 | pgbench_tellers_pkey  |            90112
 2017-02-10 15:10:27.899043+01 | 1486735827.89904 | pgbench_accounts_pkey |        690102272

 2017-02-10 15:10:28.985031+01 | 1486735828.98503 | pgbench_branches_pkey |            16384
 2017-02-10 15:10:28.985031+01 | 1486735828.98503 | pgbench_tellers_pkey  |            90112
 2017-02-10 15:10:28.985031+01 | 1486735828.98503 | pgbench_accounts_pkey |        690102272

 2017-02-10 15:10:30.053537+01 | 1486735830.05354 | pgbench_branches_pkey |            16384
 2017-02-10 15:10:30.053537+01 | 1486735830.05354 | pgbench_tellers_pkey  |            90112
 2017-02-10 15:10:30.053537+01 | 1486735830.05354 | pgbench_accounts_pkey |        690102272

 2017-02-10 15:10:31.14119+01 | 1486735831.14119 | pgbench_branches_pkey |            16384
 2017-02-10 15:10:31.14119+01 | 1486735831.14119 | pgbench_tellers_pkey  |            90112
 2017-02-10 15:10:31.14119+01 | 1486735831.14119 | pgbench_accounts_pkey |        690102272

 2017-02-10 15:10:32.2124+01 | 1486735832.2124 | pgbench_branches_pkey |            16384
 2017-02-10 15:10:32.2124+01 | 1486735832.2124 | pgbench_tellers_pkey  |            90112
 2017-02-10 15:10:32.2124+01 | 1486735832.2124 | pgbench_accounts_pkey |        690102272

 2017-02-10 15:10:33.301834+01 | 1486735833.30183 | pgbench_branches_pkey |            16384
 2017-02-10 15:10:33.301834+01 | 1486735833.30183 | pgbench_tellers_pkey  |            90112
 2017-02-10 15:10:33.301834+01 | 1486735833.30183 | pgbench_accounts_pkey |        690102272

 2017-02-10 15:10:34.378398+01 | 1486735834.3784 | pgbench_branches_pkey |            16384
 2017-02-10 15:10:34.378398+01 | 1486735834.3784 | pgbench_tellers_pkey  |            90112
 2017-02-10 15:10:34.378398+01 | 1486735834.3784 | pgbench_accounts_pkey |        690102272

 2017-02-10 15:10:35.456853+01 | 1486735835.45685 | pgbench_branches_pkey |            16384
 2017-02-10 15:10:35.456853+01 | 1486735835.45685 | pgbench_tellers_pkey  |            90112
 2017-02-10 15:10:35.456853+01 | 1486735835.45685 | pgbench_accounts_pkey |        690102272

 2017-02-10 15:10:36.519863+01 | 1486735836.51986 | pgbench_branches_pkey |            16384
 2017-02-10 15:10:36.519863+01 | 1486735836.51986 | pgbench_tellers_pkey  |            90112
 2017-02-10 15:10:36.519863+01 | 1486735836.51986 | pgbench_accounts_pkey |        690102272

 2017-02-10 15:10:37.586435+01 | 1486735837.58644 | pgbench_branches_pkey |            16384
 2017-02-10 15:10:37.586435+01 | 1486735837.58644 | pgbench_tellers_pkey  |            90112
 2017-02-10 15:10:37.586435+01 | 1486735837.58644 | pgbench_accounts_pkey |        690102272

 2017-02-10 15:10:38.664649+01 | 1486735838.66465 | pgbench_branches_pkey |            16384
 2017-02-10 15:10:38.664649+01 | 1486735838.66465 | pgbench_tellers_pkey  |            90112
 2017-02-10 15:10:38.664649+01 | 1486735838.66465 | pgbench_accounts_pkey |        690102272

 2017-02-10 15:10:39.762349+01 | 1486735839.76235 | pgbench_branches_pkey |            16384
 2017-02-10 15:10:39.762349+01 | 1486735839.76235 | pgbench_tellers_pkey  |            90112
 2017-02-10 15:10:39.762349+01 | 1486735839.76235 | pgbench_accounts_pkey |        690102272

 2017-02-10 15:10:40.832313+01 | 1486735840.83231 | pgbench_branches_pkey |            16384
 2017-02-10 15:10:40.832313+01 | 1486735840.83231 | pgbench_tellers_pkey  |            90112
 2017-02-10 15:10:40.832313+01 | 1486735840.83231 | pgbench_accounts_pkey |        690102272

 2017-02-10 15:10:41.906128+01 | 1486735841.90613 | pgbench_branches_pkey |            16384
 2017-02-10 15:10:41.906128+01 | 1486735841.90613 | pgbench_tellers_pkey  |            90112
 2017-02-10 15:10:41.906128+01 | 1486735841.90613 | pgbench_accounts_pkey |        690102272

 2017-02-10 15:10:42.985766+01 | 1486735842.98577 | pgbench_branches_pkey |            16384
 2017-02-10 15:10:42.985766+01 | 1486735842.98577 | pgbench_tellers_pkey  |            90112
 2017-02-10 15:10:42.985766+01 | 1486735842.98577 | pgbench_accounts_pkey |        690102272

 2017-02-10 15:10:44.076878+01 | 1486735844.07688 | pgbench_branches_pkey |            16384
 2017-02-10 15:10:44.076878+01 | 1486735844.07688 | pgbench_tellers_pkey  |            90112
 2017-02-10 15:10:44.076878+01 | 1486735844.07688 | pgbench_accounts_pkey |        690102272

 2017-02-10 15:10:45.178722+01 | 1486735845.17872 | pgbench_branches_pkey |            16384
 2017-02-10 15:10:45.178722+01 | 1486735845.17872 | pgbench_tellers_pkey  |            90112
 2017-02-10 15:10:45.178722+01 | 1486735845.17872 | pgbench_accounts_pkey |        690102272

 2017-02-10 15:10:46.244889+01 | 1486735846.24489 | pgbench_branches_pkey |            16384
 2017-02-10 15:10:46.244889+01 | 1486735846.24489 | pgbench_tellers_pkey  |            90112
 2017-02-10 15:10:46.244889+01 | 1486735846.24489 | pgbench_accounts_pkey |        690102272

 2017-02-10 15:10:47.319512+01 | 1486735847.31951 | pgbench_branches_pkey |            16384
 2017-02-10 15:10:47.319512+01 | 1486735847.31951 | pgbench_tellers_pkey  |            90112
 2017-02-10 15:10:47.319512+01 | 1486735847.31951 | pgbench_accounts_pkey |        690102272

 2017-02-10 15:10:48.397679+01 | 1486735848.39768 | pgbench_branches_pkey |            16384
 2017-02-10 15:10:48.397679+01 | 1486735848.39768 | pgbench_tellers_pkey  |            90112
 2017-02-10 15:10:48.397679+01 | 1486735848.39768 | pgbench_accounts_pkey |        690102272

 2017-02-10 15:10:49.480088+01 | 1486735849.48009 | pgbench_branches_pkey |            16384
 2017-02-10 15:10:49.480088+01 | 1486735849.48009 | pgbench_tellers_pkey  |            90112
 2017-02-10 15:10:49.480088+01 | 1486735849.48009 | pgbench_accounts_pkey |        690102272

 2017-02-10 15:10:50.569328+01 | 1486735850.56933 | pgbench_branches_pkey |            16384
 2017-02-10 15:10:50.569328+01 | 1486735850.56933 | pgbench_tellers_pkey  |            90112
 2017-02-10 15:10:50.569328+01 | 1486735850.56933 | pgbench_accounts_pkey |        690102272

 2017-02-10 15:10:51.647904+01 | 1486735851.6479 | pgbench_branches_pkey |            16384
 2017-02-10 15:10:51.647904+01 | 1486735851.6479 | pgbench_tellers_pkey  |            90112
 2017-02-10 15:10:51.647904+01 | 1486735851.6479 | pgbench_accounts_pkey |        690102272

 2017-02-10 15:10:52.742743+01 | 1486735852.74274 | pgbench_branches_pkey |            16384
 2017-02-10 15:10:52.742743+01 | 1486735852.74274 | pgbench_tellers_pkey  |            90112
 2017-02-10 15:10:52.742743+01 | 1486735852.74274 | pgbench_accounts_pkey |        690102272

 2017-02-10 15:10:53.835022+01 | 1486735853.83502 | pgbench_branches_pkey |            16384
 2017-02-10 15:10:53.835022+01 | 1486735853.83502 | pgbench_tellers_pkey  |            90112
 2017-02-10 15:10:53.835022+01 | 1486735853.83502 | pgbench_accounts_pkey |        690102272

 2017-02-10 15:10:54.897148+01 | 1486735854.89715 | pgbench_branches_pkey |            16384
 2017-02-10 15:10:54.897148+01 | 1486735854.89715 | pgbench_tellers_pkey  |            90112
 2017-02-10 15:10:54.897148+01 | 1486735854.89715 | pgbench_accounts_pkey |        690102272

 2017-02-10 15:10:55.963958+01 | 1486735855.96396 | pgbench_branches_pkey |            16384
 2017-02-10 15:10:55.963958+01 | 1486735855.96396 | pgbench_tellers_pkey  |            90112
 2017-02-10 15:10:55.963958+01 | 1486735855.96396 | pgbench_accounts_pkey |        690102272

 2017-02-10 15:10:57.039813+01 | 1486735857.03981 | pgbench_branches_pkey |            16384
 2017-02-10 15:10:57.039813+01 | 1486735857.03981 | pgbench_tellers_pkey  |            90112
 2017-02-10 15:10:57.039813+01 | 1486735857.03981 | pgbench_accounts_pkey |        690102272

 2017-02-10 15:10:58.117725+01 | 1486735858.11772 | pgbench_branches_pkey |            16384
 2017-02-10 15:10:58.117725+01 | 1486735858.11772 | pgbench_tellers_pkey  |            90112
 2017-02-10 15:10:58.117725+01 | 1486735858.11772 | pgbench_accounts_pkey |        690102272

 2017-02-10 15:10:59.199345+01 | 1486735859.19935 | pgbench_branches_pkey |            16384
 2017-02-10 15:10:59.199345+01 | 1486735859.19935 | pgbench_tellers_pkey  |            90112
 2017-02-10 15:10:59.199345+01 | 1486735859.19935 | pgbench_accounts_pkey |        690102272

 2017-02-10 15:11:00.27136+01 | 1486735860.27136 | pgbench_branches_pkey |            16384
 2017-02-10 15:11:00.27136+01 | 1486735860.27136 | pgbench_tellers_pkey  |            90112
 2017-02-10 15:11:00.27136+01 | 1486735860.27136 | pgbench_accounts_pkey |        690102272

 2017-02-10 15:11:01.340097+01 | 1486735861.3401 | pgbench_branches_pkey |            16384
 2017-02-10 15:11:01.340097+01 | 1486735861.3401 | pgbench_tellers_pkey  |            90112
 2017-02-10 15:11:01.340097+01 | 1486735861.3401 | pgbench_accounts_pkey |        690102272

 2017-02-10 15:11:02.412467+01 | 1486735862.41247 | pgbench_branches_pkey |            16384
 2017-02-10 15:11:02.412467+01 | 1486735862.41247 | pgbench_tellers_pkey  |            90112
 2017-02-10 15:11:02.412467+01 | 1486735862.41247 | pgbench_accounts_pkey |        690102272

 2017-02-10 15:11:03.489528+01 | 1486735863.48953 | pgbench_branches_pkey |            16384
 2017-02-10 15:11:03.489528+01 | 1486735863.48953 | pgbench_tellers_pkey  |            90112
 2017-02-10 15:11:03.489528+01 | 1486735863.48953 | pgbench_accounts_pkey |        690102272

 2017-02-10 15:11:04.563833+01 | 1486735864.56383 | pgbench_branches_pkey |            16384
 2017-02-10 15:11:04.563833+01 | 1486735864.56383 | pgbench_tellers_pkey  |            90112
 2017-02-10 15:11:04.563833+01 | 1486735864.56383 | pgbench_accounts_pkey |        690102272

 2017-02-10 15:11:05.643016+01 | 1486735865.64302 | pgbench_branches_pkey |            16384
 2017-02-10 15:11:05.643016+01 | 1486735865.64302 | pgbench_tellers_pkey  |            90112
 2017-02-10 15:11:05.643016+01 | 1486735865.64302 | pgbench_accounts_pkey |        690102272

 2017-02-10 15:11:06.740865+01 | 1486735866.74086 | pgbench_branches_pkey |            16384
 2017-02-10 15:11:06.740865+01 | 1486735866.74086 | pgbench_tellers_pkey  |            90112
 2017-02-10 15:11:06.740865+01 | 1486735866.74086 | pgbench_accounts_pkey |        690102272

 2017-02-10 15:11:07.840218+01 | 1486735867.84022 | pgbench_branches_pkey |            16384
 2017-02-10 15:11:07.840218+01 | 1486735867.84022 | pgbench_tellers_pkey  |            90112
 2017-02-10 15:11:07.840218+01 | 1486735867.84022 | pgbench_accounts_pkey |        690102272

 2017-02-10 15:11:08.918613+01 | 1486735868.91861 | pgbench_branches_pkey |            16384
 2017-02-10 15:11:08.918613+01 | 1486735868.91861 | pgbench_tellers_pkey  |            90112
 2017-02-10 15:11:08.918613+01 | 1486735868.91861 | pgbench_accounts_pkey |        690102272

 2017-02-10 15:11:10.010443+01 | 1486735870.01044 | pgbench_branches_pkey |            16384
 2017-02-10 15:11:10.010443+01 | 1486735870.01044 | pgbench_tellers_pkey  |            90112
 2017-02-10 15:11:10.010443+01 | 1486735870.01044 | pgbench_accounts_pkey |        690102272

 2017-02-10 15:11:11.10461+01 | 1486735871.10461 | pgbench_branches_pkey |            16384
 2017-02-10 15:11:11.10461+01 | 1486735871.10461 | pgbench_tellers_pkey  |            90112
 2017-02-10 15:11:11.10461+01 | 1486735871.10461 | pgbench_accounts_pkey |        690102272

 2017-02-10 15:11:12.192816+01 | 1486735872.19282 | pgbench_branches_pkey |            16384
 2017-02-10 15:11:12.192816+01 | 1486735872.19282 | pgbench_tellers_pkey  |            90112
 2017-02-10 15:11:12.192816+01 | 1486735872.19282 | pgbench_accounts_pkey |        690118656

 2017-02-10 15:11:13.269523+01 | 1486735873.26952 | pgbench_branches_pkey |            16384
 2017-02-10 15:11:13.269523+01 | 1486735873.26952 | pgbench_tellers_pkey  |            90112
 2017-02-10 15:11:13.269523+01 | 1486735873.26952 | pgbench_accounts_pkey |        690151424

 2017-02-10 15:11:14.340274+01 | 1486735874.34027 | pgbench_branches_pkey |            16384
 2017-02-10 15:11:14.340274+01 | 1486735874.34027 | pgbench_tellers_pkey  |            90112
 2017-02-10 15:11:14.340274+01 | 1486735874.34027 | pgbench_accounts_pkey |        690159616

 2017-02-10 15:11:15.442881+01 | 1486735875.44288 | pgbench_branches_pkey |            16384
 2017-02-10 15:11:15.442881+01 | 1486735875.44288 | pgbench_tellers_pkey  |            90112
 2017-02-10 15:11:15.442881+01 | 1486735875.44288 | pgbench_accounts_pkey |        690159616

 2017-02-10 15:11:16.527513+01 | 1486735876.52751 | pgbench_branches_pkey |            16384
 2017-02-10 15:11:16.527513+01 | 1486735876.52751 | pgbench_tellers_pkey  |            90112
 2017-02-10 15:11:16.527513+01 | 1486735876.52751 | pgbench_accounts_pkey |        690159616

