 2017-02-08 17:32:05.162148+01 | 1486571525.16215 |                 0 |              11 |                  8349 |                  534 |            1085138 |       1435320 |            14244 |        11341236 |                     0 |      10289336 | 2017-02-08 16:41:03.707092+01

 2017-02-08 17:32:06.256523+01 | 1486571526.25652 |                 0 |              11 |                  8349 |                  534 |            1085138 |       1435320 |            14244 |        11341236 |                     0 |      10292733 | 2017-02-08 16:41:03.707092+01

 2017-02-08 17:32:07.350347+01 | 1486571527.35035 |                 0 |              11 |                  8349 |                  534 |            1085138 |       1435320 |            14244 |        11341236 |                     0 |      10297258 | 2017-02-08 16:41:03.707092+01

 2017-02-08 17:32:08.462587+01 | 1486571528.46259 |                 0 |              11 |                  8349 |                  534 |            1085138 |       1435320 |            14244 |        11341236 |                     0 |      10301059 | 2017-02-08 16:41:03.707092+01

 2017-02-08 17:32:09.554353+01 | 1486571529.55435 |                 0 |              11 |                  8349 |                  534 |            1085138 |       1435321 |            14244 |        11341236 |                     0 |      10305763 | 2017-02-08 16:41:03.707092+01

 2017-02-08 17:32:10.65328+01 | 1486571530.65328 |                 0 |              11 |                  8349 |                  534 |            1085138 |       1435322 |            14244 |        11341236 |                     0 |      10309662 | 2017-02-08 16:41:03.707092+01

 2017-02-08 17:32:11.738258+01 | 1486571531.73826 |                 0 |              11 |                  8349 |                  534 |            1085138 |       1435326 |            14244 |        11341236 |                     0 |      10314512 | 2017-02-08 16:41:03.707092+01

 2017-02-08 17:32:12.832283+01 | 1486571532.83228 |                 0 |              11 |                  8349 |                  534 |            1085138 |       1435334 |            14244 |        11341236 |                     0 |      10318632 | 2017-02-08 16:41:03.707092+01

 2017-02-08 17:32:13.948554+01 | 1486571533.94855 |                 0 |              11 |                  8349 |                  534 |            1085138 |       1435675 |            14244 |        11341236 |                     0 |      10323584 | 2017-02-08 16:41:03.707092+01

 2017-02-08 17:32:15.059581+01 | 1486571535.05958 |                 0 |              11 |                  8349 |                  534 |            1085138 |       1436047 |            14244 |        11341236 |                     0 |      10327717 | 2017-02-08 16:41:03.707092+01

 2017-02-08 17:32:16.149365+01 | 1486571536.14936 |                 0 |              11 |                  8349 |                  534 |            1085138 |       1436647 |            14250 |        11341236 |                     0 |      10332910 | 2017-02-08 16:41:03.707092+01

 2017-02-08 17:32:17.260475+01 | 1486571537.26047 |                 0 |              11 |                  8349 |                  534 |            1085138 |       1437147 |            14255 |        11341236 |                     0 |      10337181 | 2017-02-08 16:41:03.707092+01

 2017-02-08 17:32:18.367194+01 | 1486571538.36719 |                 0 |              11 |                  8349 |                  534 |            1085138 |       1437747 |            14261 |        11341236 |                     0 |      10342352 | 2017-02-08 16:41:03.707092+01

 2017-02-08 17:32:19.488512+01 | 1486571539.48851 |                 0 |              11 |                  8349 |                  534 |            1085138 |       1438247 |            14266 |        11341236 |                     0 |      10346666 | 2017-02-08 16:41:03.707092+01

 2017-02-08 17:32:20.55958+01 | 1486571540.55958 |                 0 |              11 |                  8349 |                  534 |            1085138 |       1438847 |            14272 |        11341236 |                     0 |      10351602 | 2017-02-08 16:41:03.707092+01

 2017-02-08 17:32:21.657225+01 | 1486571541.65722 |                 0 |              11 |                  8349 |                  534 |            1085138 |       1439347 |            14277 |        11341236 |                     0 |      10355793 | 2017-02-08 16:41:03.707092+01

 2017-02-08 17:32:22.741947+01 | 1486571542.74195 |                 0 |              11 |                  8349 |                  534 |            1085138 |       1439847 |            14282 |        11341236 |                     0 |      10360178 | 2017-02-08 16:41:03.707092+01

 2017-02-08 17:32:23.83697+01 | 1486571543.83697 |                 0 |              11 |                  8349 |                  534 |            1085138 |       1440447 |            14288 |        11341236 |                     0 |      10365379 | 2017-02-08 16:41:03.707092+01

 2017-02-08 17:32:24.930024+01 | 1486571544.93002 |                 0 |              11 |                  8349 |                  534 |            1085138 |       1440947 |            14293 |        11341236 |                     0 |      10369799 | 2017-02-08 16:41:03.707092+01

 2017-02-08 17:32:26.010203+01 | 1486571546.0102 |                 0 |              11 |                  8349 |                  534 |            1085138 |       1441547 |            14299 |        11341236 |                     0 |      10374846 | 2017-02-08 16:41:03.707092+01

 2017-02-08 17:32:27.111221+01 | 1486571547.11122 |                 0 |              11 |                  8349 |                  534 |            1085138 |       1442047 |            14304 |        11341236 |                     0 |      10379198 | 2017-02-08 16:41:03.707092+01

 2017-02-08 17:32:28.228986+01 | 1486571548.22899 |                 0 |              11 |                  8349 |                  534 |            1085138 |       1442647 |            14310 |        11341236 |                     0 |      10384070 | 2017-02-08 16:41:03.707092+01

 2017-02-08 17:32:29.336098+01 | 1486571549.3361 |                 0 |              11 |                  8349 |                  534 |            1085138 |       1443147 |            14315 |        11341236 |                     0 |      10388478 | 2017-02-08 16:41:03.707092+01

 2017-02-08 17:32:30.443919+01 | 1486571550.44392 |                 0 |              11 |                  8349 |                  534 |            1085138 |       1443747 |            14321 |        11341236 |                     0 |      10393865 | 2017-02-08 16:41:03.707092+01

 2017-02-08 17:32:31.546419+01 | 1486571551.54642 |                 0 |              11 |                  8349 |                  534 |            1085138 |       1444247 |            14326 |        11341236 |                     0 |      10398003 | 2017-02-08 16:41:03.707092+01

 2017-02-08 17:32:32.656592+01 | 1486571552.65659 |                 0 |              11 |                  8349 |                  534 |            1085138 |       1444847 |            14332 |        11341236 |                     0 |      10403410 | 2017-02-08 16:41:03.707092+01

 2017-02-08 17:32:33.774195+01 | 1486571553.77419 |                 0 |              11 |                  8349 |                  534 |            1085138 |       1445347 |            14337 |        11341236 |                     0 |      10407914 | 2017-02-08 16:41:03.707092+01

 2017-02-08 17:32:34.906214+01 | 1486571554.90621 |                 0 |              11 |                  8349 |                  534 |            1085138 |       1445947 |            14343 |        11341236 |                     0 |      10413105 | 2017-02-08 16:41:03.707092+01

 2017-02-08 17:32:36.008836+01 | 1486571556.00884 |                 0 |              11 |                  8349 |                  534 |            1085138 |       1446547 |            14349 |        11395845 |                     0 |      10417922 | 2017-02-08 16:41:03.707092+01

 2017-02-08 17:32:37.123923+01 | 1486571557.12392 |                 0 |              11 |                  8349 |                  534 |            1085138 |       1447047 |            14354 |        11395845 |                     0 |      10422078 | 2017-02-08 16:41:03.707092+01

 2017-02-08 17:32:38.250521+01 | 1486571558.25052 |                 0 |              11 |                  8349 |                  534 |            1085138 |       1447547 |            14359 |        11395845 |                     0 |      10426202 | 2017-02-08 16:41:03.707092+01

 2017-02-08 17:32:39.353057+01 | 1486571559.35306 |                 0 |              11 |                  8349 |                  534 |            1085138 |       1448147 |            14365 |        11395845 |                     0 |      10431564 | 2017-02-08 16:41:03.707092+01

 2017-02-08 17:32:40.470834+01 | 1486571560.47083 |                 0 |              11 |                  8349 |                  534 |            1085138 |       1448747 |            14371 |        11395845 |                     0 |      10436449 | 2017-02-08 16:41:03.707092+01

 2017-02-08 17:32:41.593475+01 | 1486571561.59348 |                 0 |              11 |                  8349 |                  534 |            1085138 |       1449247 |            14376 |        11395845 |                     0 |      10440633 | 2017-02-08 16:41:03.707092+01

 2017-02-08 17:32:42.691553+01 | 1486571562.69155 |                 0 |              11 |                  8349 |                  534 |            1085138 |       1449847 |            14382 |        11395845 |                     0 |      10445631 | 2017-02-08 16:41:03.707092+01

 2017-02-08 17:32:43.790982+01 | 1486571563.79098 |                 0 |              11 |                  8349 |                  534 |            1085138 |       1450347 |            14387 |        11395845 |                     0 |      10449516 | 2017-02-08 16:41:03.707092+01

 2017-02-08 17:32:44.916917+01 | 1486571564.91692 |                 0 |              11 |                  8349 |                  534 |            1085138 |       1450947 |            14393 |        11395845 |                     0 |      10454647 | 2017-02-08 16:41:03.707092+01

 2017-02-08 17:32:46.018749+01 | 1486571566.01875 |                 0 |              11 |                  8349 |                  534 |            1085138 |       1451447 |            14398 |        11395845 |                     0 |      10458516 | 2017-02-08 16:41:03.707092+01

 2017-02-08 17:32:47.15051+01 | 1486571567.15051 |                 0 |              11 |                  8349 |                  534 |            1085138 |       1452047 |            14404 |        11395845 |                     0 |      10463413 | 2017-02-08 16:41:03.707092+01

 2017-02-08 17:32:48.262462+01 | 1486571568.26246 |                 0 |              11 |                  8349 |                  534 |            1085138 |       1452547 |            14409 |        11395845 |                     0 |      10467729 | 2017-02-08 16:41:03.707092+01

 2017-02-08 17:32:49.390538+01 | 1486571569.39054 |                 0 |              11 |                  8349 |                  534 |            1085138 |       1453147 |            14415 |        11454771 |                     0 |      10472523 | 2017-02-08 16:41:03.707092+01

 2017-02-08 17:32:50.509028+01 | 1486571570.50903 |                 0 |              11 |                  8349 |                  534 |            1085138 |       1453647 |            14420 |        11454771 |                     0 |      10476787 | 2017-02-08 16:41:03.707092+01

 2017-02-08 17:32:51.625021+01 | 1486571571.62502 |                 0 |              11 |                  8349 |                  534 |            1085138 |       1454247 |            14426 |        11454771 |                     0 |      10481727 | 2017-02-08 16:41:03.707092+01

 2017-02-08 17:32:52.738847+01 | 1486571572.73885 |                 0 |              11 |                  8349 |                  534 |            1085138 |       1454747 |            14431 |        11454771 |                     0 |      10485748 | 2017-02-08 16:41:03.707092+01

 2017-02-08 17:32:53.863456+01 | 1486571573.86346 |                 0 |              11 |                  8349 |                  534 |            1085138 |       1455347 |            14437 |        11454771 |                     0 |      10490903 | 2017-02-08 16:41:03.707092+01

 2017-02-08 17:32:54.983834+01 | 1486571574.98383 |                 0 |              11 |                  8349 |                  534 |            1085138 |       1455947 |            14443 |        11454771 |                     0 |      10496018 | 2017-02-08 16:41:03.707092+01

 2017-02-08 17:32:56.098654+01 | 1486571576.09865 |                 0 |              11 |                  8349 |                  534 |            1085138 |       1456447 |            14448 |        11454771 |                     0 |      10500141 | 2017-02-08 16:41:03.707092+01

 2017-02-08 17:32:57.239325+01 | 1486571577.23933 |                 0 |              11 |                  8349 |                  534 |            1085138 |       1457047 |            14454 |        11454771 |                     0 |      10505394 | 2017-02-08 16:41:03.707092+01

 2017-02-08 17:32:58.380513+01 | 1486571578.38051 |                 0 |              11 |                  8349 |                  534 |            1085138 |       1457547 |            14459 |        11454771 |                     0 |      10509587 | 2017-02-08 16:41:03.707092+01

 2017-02-08 17:32:59.500483+01 | 1486571579.50048 |                 0 |              11 |                  8349 |                  534 |            1085138 |       1458147 |            14465 |        11454771 |                     0 |      10514674 | 2017-02-08 16:41:03.707092+01

 2017-02-08 17:33:00.629466+01 | 1486571580.62947 |                 0 |              11 |                  8349 |                  534 |            1085138 |       1458747 |            14471 |        11454771 |                     0 |      10519970 | 2017-02-08 16:41:03.707092+01

 2017-02-08 17:33:01.758191+01 | 1486571581.75819 |                 0 |              11 |                  8349 |                  534 |            1085138 |       1459247 |            14476 |        11514121 |                     0 |      10524137 | 2017-02-08 16:41:03.707092+01

 2017-02-08 17:33:02.846967+01 | 1486571582.84697 |                 0 |              11 |                  8349 |                  534 |            1085138 |       1459847 |            14482 |        11514121 |                     0 |      10529296 | 2017-02-08 16:41:03.707092+01

 2017-02-08 17:33:03.93876+01 | 1486571583.93876 |                 0 |              11 |                  8349 |                  534 |            1085138 |       1460347 |            14487 |        11514121 |                     0 |      10533840 | 2017-02-08 16:41:03.707092+01

 2017-02-08 17:33:05.059688+01 | 1486571585.05969 |                 0 |              11 |                  8349 |                  534 |            1085138 |       1460947 |            14493 |        11514121 |                     0 |      10538950 | 2017-02-08 16:41:03.707092+01

 2017-02-08 17:33:06.170702+01 | 1486571586.1707 |                 0 |              11 |                  8349 |                  534 |            1085138 |       1461447 |            14498 |        11514121 |                     0 |      10543326 | 2017-02-08 16:41:03.707092+01

 2017-02-08 17:33:07.283096+01 | 1486571587.2831 |                 0 |              11 |                  8349 |                  534 |            1085138 |       1462047 |            14504 |        11514121 |                     0 |      10548728 | 2017-02-08 16:41:03.707092+01

 2017-02-08 17:33:08.369662+01 | 1486571588.36966 |                 0 |              11 |                  8349 |                  534 |            1085138 |       1462547 |            14509 |        11514121 |                     0 |      10552973 | 2017-02-08 16:41:03.707092+01

 2017-02-08 17:33:09.494845+01 | 1486571589.49484 |                 0 |              11 |                  8349 |                  534 |            1085138 |       1463147 |            14515 |        11514121 |                     0 |      10558250 | 2017-02-08 16:41:03.707092+01

 2017-02-08 17:33:10.60568+01 | 1486571590.60568 |                 0 |              11 |                  8349 |                  534 |            1085138 |       1463647 |            14520 |        11514121 |                     0 |      10562850 | 2017-02-08 16:41:03.707092+01

 2017-02-08 17:33:11.71463+01 | 1486571591.71463 |                 0 |              11 |                  8349 |                  534 |            1085138 |       1464247 |            14526 |        11514121 |                     0 |      10568142 | 2017-02-08 16:41:03.707092+01

 2017-02-08 17:33:12.791999+01 | 1486571592.792 |                 0 |              11 |                  8349 |                  534 |            1085138 |       1464747 |            14531 |        11514121 |                     0 |      10572502 | 2017-02-08 16:41:03.707092+01

 2017-02-08 17:33:13.907942+01 | 1486571593.90794 |                 0 |              11 |                  8349 |                  534 |            1085138 |       1465347 |            14537 |        11573663 |                     0 |      10577879 | 2017-02-08 16:41:03.707092+01

 2017-02-08 17:33:15.040233+01 | 1486571595.04023 |                 0 |              11 |                  8349 |                  534 |            1085138 |       1465847 |            14542 |        11573663 |                     0 |      10582204 | 2017-02-08 16:41:03.707092+01

 2017-02-08 17:33:16.141736+01 | 1486571596.14174 |                 0 |              11 |                  8349 |                  534 |            1085138 |       1466447 |            14548 |        11573663 |                     0 |      10587362 | 2017-02-08 16:41:03.707092+01

 2017-02-08 17:33:17.261673+01 | 1486571597.26167 |                 0 |              11 |                  8349 |                  534 |            1085138 |       1466947 |            14553 |        11573663 |                     0 |      10591843 | 2017-02-08 16:41:03.707092+01

 2017-02-08 17:33:18.43411+01 | 1486571598.43411 |                 0 |              11 |                  8349 |                  534 |            1085138 |       1467547 |            14559 |        11573663 |                     0 |      10597068 | 2017-02-08 16:41:03.707092+01

 2017-02-08 17:33:19.541709+01 | 1486571599.54171 |                 0 |              11 |                  8349 |                  534 |            1085138 |       1468147 |            14565 |        11573663 |                     0 |      10602459 | 2017-02-08 16:41:03.707092+01

 2017-02-08 17:33:20.668409+01 | 1486571600.66841 |                 0 |              11 |                  8349 |                  534 |            1085138 |       1468647 |            14570 |        11573663 |                     0 |      10607132 | 2017-02-08 16:41:03.707092+01

 2017-02-08 17:33:21.819077+01 | 1486571601.81908 |                 0 |              11 |                  8349 |                  534 |            1085138 |       1469247 |            14576 |        11573663 |                     0 |      10612318 | 2017-02-08 16:41:03.707092+01

 2017-02-08 17:33:22.927701+01 | 1486571602.9277 |                 0 |              11 |                  8349 |                  534 |            1085138 |       1469847 |            14582 |        11573663 |                     0 |      10617539 | 2017-02-08 16:41:03.707092+01

 2017-02-08 17:33:24.049879+01 | 1486571604.04988 |                 0 |              11 |                  8349 |                  534 |            1085138 |       1470347 |            14587 |        11573663 |                     0 |      10622227 | 2017-02-08 16:41:03.707092+01

 2017-02-08 17:33:25.173502+01 | 1486571605.1735 |                 0 |              11 |                  8349 |                  534 |            1085138 |       1470947 |            14593 |        11633398 |                     0 |      10627562 | 2017-02-08 16:41:03.707092+01

 2017-02-08 17:33:26.2982+01 | 1486571606.2982 |                 0 |              11 |                  8349 |                  534 |            1085138 |       1471447 |            14598 |        11633398 |                     0 |      10631824 | 2017-02-08 16:41:03.707092+01

 2017-02-08 17:33:27.402522+01 | 1486571607.40252 |                 0 |              11 |                  8349 |                  534 |            1085138 |       1472047 |            14604 |        11633398 |                     0 |      10637426 | 2017-02-08 16:41:03.707092+01

 2017-02-08 17:33:28.48605+01 | 1486571608.48605 |                 0 |              11 |                  8349 |                  534 |            1085138 |       1472547 |            14609 |        11633398 |                     0 |      10641800 | 2017-02-08 16:41:03.707092+01

 2017-02-08 17:33:29.578841+01 | 1486571609.57884 |                 0 |              11 |                  8349 |                  534 |            1085138 |       1473147 |            14615 |        11633398 |                     0 |      10647189 | 2017-02-08 16:41:03.707092+01

 2017-02-08 17:33:30.687065+01 | 1486571610.68706 |                 0 |              11 |                  8349 |                  534 |            1085138 |       1473647 |            14620 |        11633398 |                     0 |      10651751 | 2017-02-08 16:41:03.707092+01

 2017-02-08 17:33:31.797483+01 | 1486571611.79748 |                 0 |              11 |                  8349 |                  534 |            1085138 |       1474247 |            14626 |        11633398 |                     0 |      10657137 | 2017-02-08 16:41:03.707092+01

 2017-02-08 17:33:32.922468+01 | 1486571612.92247 |                 0 |              11 |                  8349 |                  534 |            1085138 |       1474747 |            14631 |        11633398 |                     0 |      10661634 | 2017-02-08 16:41:03.707092+01

 2017-02-08 17:33:33.998398+01 | 1486571613.9984 |                 0 |              11 |                  8349 |                  534 |            1085138 |       1475347 |            14637 |        11633398 |                     0 |      10667152 | 2017-02-08 16:41:03.707092+01

 2017-02-08 17:33:35.124049+01 | 1486571615.12405 |                 0 |              11 |                  8349 |                  534 |            1085138 |       1475847 |            14642 |        11633398 |                     0 |      10671606 | 2017-02-08 16:41:03.707092+01

 2017-02-08 17:33:36.206783+01 | 1486571616.20678 |                 0 |              11 |                  8349 |                  534 |            1085138 |       1476247 |            14646 |        11633398 |                     0 |      10675163 | 2017-02-08 16:41:03.707092+01

 2017-02-08 17:33:37.294085+01 | 1486571617.29409 |                 0 |              11 |                  8349 |                  534 |            1085138 |       1476947 |            14653 |        11693034 |                     0 |      10682185 | 2017-02-08 16:41:03.707092+01

 2017-02-08 17:33:38.408694+01 | 1486571618.40869 |                 0 |              11 |                  8349 |                  534 |            1085138 |       1477447 |            14658 |        11693034 |                     0 |      10687635 | 2017-02-08 16:41:03.707092+01

 2017-02-08 17:33:39.541258+01 | 1486571619.54126 |                 0 |              11 |                  8349 |                  534 |            1085138 |       1478047 |            14664 |        11693034 |                     0 |      10694818 | 2017-02-08 16:41:03.707092+01

 2017-02-08 17:33:40.657007+01 | 1486571620.65701 |                 0 |              11 |                  8349 |                  534 |            1085138 |       1478647 |            14670 |        11693034 |                     0 |      10703082 | 2017-02-08 16:41:03.707092+01

 2017-02-08 17:33:41.834511+01 | 1486571621.83451 |                 0 |              11 |                  8349 |                  534 |            1085138 |       1479147 |            14675 |        11693034 |                     0 |      10710923 | 2017-02-08 16:41:03.707092+01

 2017-02-08 17:33:42.965512+01 | 1486571622.96551 |                 0 |              11 |                  8349 |                  534 |            1085138 |       1479747 |            14681 |        11693034 |                     0 |      10720761 | 2017-02-08 16:41:03.707092+01

 2017-02-08 17:33:44.070105+01 | 1486571624.07011 |                 0 |              11 |                  8349 |                  534 |            1085138 |       1480347 |            14687 |        11693034 |                     0 |      10729836 | 2017-02-08 16:41:03.707092+01

 2017-02-08 17:33:45.198515+01 | 1486571625.19851 |                 0 |              11 |                  8349 |                  534 |            1085138 |       1480847 |            14692 |        11693034 |                     0 |      10735253 | 2017-02-08 16:41:03.707092+01

 2017-02-08 17:33:46.317969+01 | 1486571626.31797 |                 0 |              11 |                  8349 |                  534 |            1085138 |       1481447 |            14698 |        11753970 |                     0 |      10741866 | 2017-02-08 16:41:03.707092+01

 2017-02-08 17:33:47.411816+01 | 1486571627.41182 |                 0 |              11 |                  8349 |                  534 |            1085138 |       1481947 |            14703 |        11753970 |                     0 |      10747700 | 2017-02-08 16:41:03.707092+01

 2017-02-08 17:33:48.52008+01 | 1486571628.52008 |                 0 |              11 |                  8349 |                  534 |            1085138 |       1482547 |            14709 |        11753970 |                     0 |      10754337 | 2017-02-08 16:41:03.707092+01

 2017-02-08 17:33:49.610219+01 | 1486571629.61022 |                 0 |              11 |                  8349 |                  534 |            1085138 |       1483047 |            14714 |        11753970 |                     0 |      10759682 | 2017-02-08 16:41:03.707092+01

 2017-02-08 17:33:50.715565+01 | 1486571630.71556 |                 0 |              11 |                  8349 |                  534 |            1085138 |       1483647 |            14720 |        11753970 |                     0 |      10766235 | 2017-02-08 16:41:03.707092+01

 2017-02-08 17:33:51.834476+01 | 1486571631.83448 |                 0 |              11 |                  8349 |                  534 |            1085138 |       1484147 |            14725 |        11753970 |                     0 |      10771999 | 2017-02-08 16:41:03.707092+01

 2017-02-08 17:33:52.951577+01 | 1486571632.95158 |                 0 |              11 |                  8349 |                  534 |            1085138 |       1484747 |            14731 |        11753970 |                     0 |      10778601 | 2017-02-08 16:41:03.707092+01

 2017-02-08 17:33:54.088544+01 | 1486571634.08854 |                 0 |              11 |                  8349 |                  534 |            1085138 |       1485247 |            14736 |        11753970 |                     0 |      10784091 | 2017-02-08 16:41:03.707092+01

 2017-02-08 17:33:55.197256+01 | 1486571635.19726 |                 0 |              11 |                  8349 |                  534 |            1085138 |       1485847 |            14742 |        11753970 |                     0 |      10790569 | 2017-02-08 16:41:03.707092+01

 2017-02-08 17:33:56.299941+01 | 1486571636.29994 |                 0 |              11 |                  8349 |                  534 |            1085138 |       1486447 |            14748 |        11753970 |                     0 |      10796971 | 2017-02-08 16:41:03.707092+01

 2017-02-08 17:33:57.427073+01 | 1486571637.42707 |                 0 |              11 |                  8349 |                  534 |            1085138 |       1486947 |            14753 |        11814206 |                     0 |      10802565 | 2017-02-08 16:41:03.707092+01

 2017-02-08 17:33:58.504355+01 | 1486571638.50435 |                 0 |              11 |                  8349 |                  534 |            1085138 |       1487547 |            14759 |        11814206 |                     0 |      10808870 | 2017-02-08 16:41:03.707092+01

 2017-02-08 17:33:59.616195+01 | 1486571639.61619 |                 0 |              11 |                  8349 |                  534 |            1085138 |       1488047 |            14764 |        11814206 |                     0 |      10814061 | 2017-02-08 16:41:03.707092+01

 2017-02-08 17:34:00.735865+01 | 1486571640.73587 |                 0 |              11 |                  8349 |                  534 |            1085138 |       1488647 |            14770 |        11814206 |                     0 |      10820274 | 2017-02-08 16:41:03.707092+01

 2017-02-08 17:34:01.836783+01 | 1486571641.83678 |                 0 |              11 |                  8349 |                  534 |            1085138 |       1489147 |            14775 |        11814206 |                     0 |      10825830 | 2017-02-08 16:41:03.707092+01

 2017-02-08 17:34:02.933264+01 | 1486571642.93326 |                 0 |              11 |                  8349 |                  534 |            1085138 |       1489747 |            14781 |        11814206 |                     0 |      10832112 | 2017-02-08 16:41:03.707092+01

 2017-02-08 17:34:04.05622+01 | 1486571644.05622 |                 0 |              11 |                  8349 |                  534 |            1085138 |       1490247 |            14786 |        11814206 |                     0 |      10837251 | 2017-02-08 16:41:03.707092+01

 2017-02-08 17:34:05.166207+01 | 1486571645.16621 |                 0 |              11 |                  8349 |                  534 |            1085138 |       1490847 |            14792 |        11814206 |                     0 |      10843404 | 2017-02-08 16:41:03.707092+01

 2017-02-08 17:34:06.261214+01 | 1486571646.26121 |                 0 |              11 |                  8349 |                  534 |            1085138 |       1491347 |            14797 |        11814206 |                     0 |      10848807 | 2017-02-08 16:41:03.707092+01

 2017-02-08 17:34:07.372558+01 | 1486571647.37256 |                 0 |              11 |                  8349 |                  534 |            1085138 |       1491947 |            14803 |        11814206 |                     0 |      10854926 | 2017-02-08 16:41:03.707092+01

 2017-02-08 17:34:08.473117+01 | 1486571648.47312 |                 0 |              11 |                  8349 |                  534 |            1085138 |       1492447 |            14808 |        11874442 |                     0 |      10860030 | 2017-02-08 16:41:03.707092+01

 2017-02-08 17:34:09.567808+01 | 1486571649.56781 |                 0 |              11 |                  8349 |                  534 |            1085138 |       1493047 |            14814 |        11874442 |                     0 |      10865969 | 2017-02-08 16:41:03.707092+01

 2017-02-08 17:34:10.645075+01 | 1486571650.64508 |                 0 |              11 |                  8349 |                  534 |            1085138 |       1493547 |            14819 |        11874442 |                     0 |      10871157 | 2017-02-08 16:41:03.707092+01

 2017-02-08 17:34:11.758214+01 | 1486571651.75821 |                 0 |              11 |                  8349 |                  534 |            1085138 |       1494047 |            14824 |        11874442 |                     0 |      10876193 | 2017-02-08 16:41:03.707092+01

 2017-02-08 17:34:12.880982+01 | 1486571652.88098 |                 0 |              11 |                  8349 |                  534 |            1085138 |       1494647 |            14830 |        11874442 |                     0 |      10882299 | 2017-02-08 16:41:03.707092+01

 2017-02-08 17:34:13.993012+01 | 1486571653.99301 |                 0 |              11 |                  8349 |                  534 |            1085138 |       1495147 |            14835 |        11874442 |                     0 |      10887621 | 2017-02-08 16:41:03.707092+01

 2017-02-08 17:34:15.07537+01 | 1486571655.07537 |                 0 |              11 |                  8349 |                  534 |            1085138 |       1495747 |            14841 |        11874442 |                     0 |      10893647 | 2017-02-08 16:41:03.707092+01

 2017-02-08 17:34:16.174512+01 | 1486571656.17451 |                 0 |              11 |                  8349 |                  534 |            1085138 |       1496247 |            14846 |        11874442 |                     0 |      10898551 | 2017-02-08 16:41:03.707092+01

 2017-02-08 17:34:17.248078+01 | 1486571657.24808 |                 0 |              11 |                  8349 |                  534 |            1085138 |       1496847 |            14852 |        11874442 |                     0 |      10904336 | 2017-02-08 16:41:03.707092+01

 2017-02-08 17:34:18.349212+01 | 1486571658.34921 |                 0 |              11 |                  8349 |                  534 |            1085138 |       1497347 |            14857 |        11874442 |                     0 |      10909531 | 2017-02-08 16:41:03.707092+01

 2017-02-08 17:34:19.483859+01 | 1486571659.48386 |                 0 |              11 |                  8349 |                  534 |            1085138 |       1497947 |            14863 |        11934479 |                     0 |      10915598 | 2017-02-08 16:41:03.707092+01

 2017-02-08 17:34:20.602293+01 | 1486571660.60229 |                 0 |              11 |                  8349 |                  534 |            1085138 |       1498447 |            14868 |        11934479 |                     0 |      10920411 | 2017-02-08 16:41:03.707092+01

 2017-02-08 17:34:21.695463+01 | 1486571661.69546 |                 0 |              11 |                  8349 |                  534 |            1085138 |       1499047 |            14874 |        11934479 |                     0 |      10926654 | 2017-02-08 16:41:03.707092+01

 2017-02-08 17:34:22.806205+01 | 1486571662.80621 |                 0 |              11 |                  8349 |                  534 |            1085138 |       1499547 |            14879 |        11934479 |                     0 |      10931752 | 2017-02-08 16:41:03.707092+01

 2017-02-08 17:34:23.942674+01 | 1486571663.94267 |                 0 |              11 |                  8349 |                  534 |            1085138 |       1500147 |            14885 |        11934479 |                     0 |      10937590 | 2017-02-08 16:41:03.707092+01

 2017-02-08 17:34:25.078753+01 | 1486571665.07875 |                 0 |              11 |                  8349 |                  534 |            1085138 |       1500647 |            14890 |        11934479 |                     0 |      10942396 | 2017-02-08 16:41:03.707092+01

 2017-02-08 17:34:26.183362+01 | 1486571666.18336 |                 0 |              11 |                  8349 |                  534 |            1085138 |       1501247 |            14896 |        11934479 |                     0 |      10948427 | 2017-02-08 16:41:03.707092+01

 2017-02-08 17:34:27.31257+01 | 1486571667.31257 |                 0 |              11 |                  8349 |                  534 |            1085138 |       1501847 |            14902 |        11934479 |                     0 |      10954476 | 2017-02-08 16:41:03.707092+01

 2017-02-08 17:34:28.439284+01 | 1486571668.43928 |                 0 |              11 |                  8349 |                  534 |            1085138 |       1502347 |            14907 |        11934479 |                     0 |      10959404 | 2017-02-08 16:41:03.707092+01

 2017-02-08 17:34:29.552856+01 | 1486571669.55286 |                 0 |              11 |                  8349 |                  534 |            1085138 |       1502947 |            14913 |        11934479 |                     0 |      10965685 | 2017-02-08 16:41:03.707092+01

 2017-02-08 17:34:30.670493+01 | 1486571670.67049 |                 0 |              11 |                  8349 |                  534 |            1085138 |       1503447 |            14918 |        11994316 |                     0 |      10970641 | 2017-02-08 16:41:03.707092+01

 2017-02-08 17:34:31.771256+01 | 1486571671.77126 |                 0 |              11 |                  8349 |                  534 |            1085138 |       1504047 |            14924 |        11994316 |                     0 |      10976607 | 2017-02-08 16:41:03.707092+01

 2017-02-08 17:34:32.872421+01 | 1486571672.87242 |                 0 |              11 |                  8349 |                  534 |            1085138 |       1504547 |            14929 |        11994316 |                     0 |      10981741 | 2017-02-08 16:41:03.707092+01

 2017-02-08 17:34:33.97902+01 | 1486571673.97902 |                 0 |              11 |                  8349 |                  534 |            1085138 |       1505147 |            14935 |        11994316 |                     0 |      10987653 | 2017-02-08 16:41:03.707092+01

 2017-02-08 17:34:35.108552+01 | 1486571675.10855 |                 0 |              11 |                  8349 |                  534 |            1085138 |       1505647 |            14940 |        11994316 |                     0 |      10992498 | 2017-02-08 16:41:03.707092+01

 2017-02-08 17:34:36.209865+01 | 1486571676.20987 |                 0 |              11 |                  8349 |                  534 |            1085138 |       1506247 |            14946 |        11994316 |                     0 |      10998699 | 2017-02-08 16:41:03.707092+01

 2017-02-08 17:34:37.311879+01 | 1486571677.31188 |                 0 |              11 |                  8349 |                  534 |            1085138 |       1506847 |            14952 |        11994316 |                     0 |      11004712 | 2017-02-08 16:41:03.707092+01

 2017-02-08 17:34:38.435728+01 | 1486571678.43573 |                 0 |              11 |                  8349 |                  534 |            1085138 |       1507347 |            14957 |        11994316 |                     0 |      11009518 | 2017-02-08 16:41:03.707092+01

 2017-02-08 17:34:39.579489+01 | 1486571679.57949 |                 0 |              11 |                  8349 |                  534 |            1085138 |       1507947 |            14963 |        11994316 |                     0 |      11015740 | 2017-02-08 16:41:03.707092+01

 2017-02-08 17:34:40.69642+01 | 1486571680.69642 |                 0 |              11 |                  8349 |                  534 |            1085138 |       1508447 |            14968 |        11994316 |                     0 |      11020579 | 2017-02-08 16:41:03.707092+01

 2017-02-08 17:34:41.807395+01 | 1486571681.80739 |                 0 |              11 |                  8349 |                  534 |            1085138 |       1509047 |            14974 |        11994316 |                     0 |      11026585 | 2017-02-08 16:41:03.707092+01

 2017-02-08 17:34:42.933867+01 | 1486571682.93387 |                 0 |              11 |                  8349 |                  534 |            1085138 |       1509547 |            14979 |        12053652 |                     0 |      11031709 | 2017-02-08 16:41:03.707092+01

 2017-02-08 17:34:44.076957+01 | 1486571684.07696 |                 0 |              11 |                  8349 |                  534 |            1085138 |       1510147 |            14985 |        12053652 |                     0 |      11038276 | 2017-02-08 16:41:03.707092+01

 2017-02-08 17:34:45.221969+01 | 1486571685.22197 |                 0 |              11 |                  8349 |                  534 |            1085138 |       1510747 |            14991 |        12053652 |                     0 |      11045630 | 2017-02-08 16:41:03.707092+01

 2017-02-08 17:34:46.377807+01 | 1486571686.37781 |                 0 |              11 |                  8349 |                  534 |            1085138 |       1511247 |            14996 |        12053652 |                     0 |      11052308 | 2017-02-08 16:41:03.707092+01

 2017-02-08 17:34:47.480962+01 | 1486571687.48096 |                 0 |              11 |                  8349 |                  534 |            1085138 |       1511847 |            15002 |        12053652 |                     0 |      11060714 | 2017-02-08 16:41:03.707092+01

 2017-02-08 17:34:48.597917+01 | 1486571688.59792 |                 0 |              11 |                  8349 |                  534 |            1085138 |       1512447 |            15008 |        12053652 |                     0 |      11069149 | 2017-02-08 16:41:03.707092+01

 2017-02-08 17:34:49.727199+01 | 1486571689.7272 |                 0 |              11 |                  8349 |                  534 |            1085138 |       1512947 |            15013 |        12053652 |                     0 |      11077042 | 2017-02-08 16:41:03.707092+01

 2017-02-08 17:34:50.814945+01 | 1486571690.81494 |                 0 |              11 |                  8349 |                  534 |            1085138 |       1513547 |            15019 |        12053652 |                     0 |      11085611 | 2017-02-08 16:41:03.707092+01

 2017-02-08 17:34:51.943098+01 | 1486571691.9431 |                 0 |              11 |                  8349 |                  534 |            1085138 |       1514047 |            15024 |        12114488 |                     0 |      11091701 | 2017-02-08 16:41:03.707092+01

 2017-02-08 17:34:53.095879+01 | 1486571693.09588 |                 0 |              11 |                  8349 |                  534 |            1085138 |       1514647 |            15030 |        12114488 |                     0 |      11098709 | 2017-02-08 16:41:03.707092+01

 2017-02-08 17:34:54.199731+01 | 1486571694.19973 |                 0 |              11 |                  8349 |                  534 |            1085138 |       1515247 |            15036 |        12114488 |                     0 |      11105657 | 2017-02-08 16:41:03.707092+01

 2017-02-08 17:34:55.285814+01 | 1486571695.28581 |                 0 |              11 |                  8349 |                  534 |            1085138 |       1515747 |            15041 |        12114488 |                     0 |      11111852 | 2017-02-08 16:41:03.707092+01

 2017-02-08 17:34:56.377916+01 | 1486571696.37792 |                 0 |              11 |                  8349 |                  534 |            1085138 |       1516247 |            15046 |        12114488 |                     0 |      11117720 | 2017-02-08 16:41:03.707092+01

 2017-02-08 17:34:57.501114+01 | 1486571697.50111 |                 0 |              11 |                  8349 |                  534 |            1085138 |       1516847 |            15052 |        12114488 |                     0 |      11124579 | 2017-02-08 16:41:03.707092+01

 2017-02-08 17:34:58.625793+01 | 1486571698.62579 |                 0 |              11 |                  8349 |                  534 |            1085138 |       1517347 |            15057 |        12114488 |                     0 |      11130280 | 2017-02-08 16:41:03.707092+01

 2017-02-08 17:34:59.759358+01 | 1486571699.75936 |                 0 |              11 |                  8349 |                  534 |            1085138 |       1517947 |            15063 |        12114488 |                     0 |      11137224 | 2017-02-08 16:41:03.707092+01

 2017-02-08 17:35:00.894186+01 | 1486571700.89419 |                 0 |              11 |                  8349 |                  534 |            1085138 |       1518547 |            15069 |        12114488 |                     0 |      11143816 | 2017-02-08 16:41:03.707092+01

 2017-02-08 17:35:02.015322+01 | 1486571702.01532 |                 0 |              11 |                  8349 |                  534 |            1085138 |       1519047 |            15074 |        12114488 |                     0 |      11149342 | 2017-02-08 16:41:03.707092+01

 2017-02-08 17:35:03.08869+01 | 1486571703.08869 |                 0 |              11 |                  8349 |                  534 |            1085138 |       1519647 |            15080 |        12114488 |                     0 |      11156169 | 2017-02-08 16:41:03.707092+01

 2017-02-08 17:35:04.220154+01 | 1486571704.22015 |                 0 |              11 |                  8349 |                  534 |            1085138 |       1520147 |            15085 |        12174424 |                     0 |      11161415 | 2017-02-08 16:41:03.707092+01

 2017-02-08 17:35:05.306805+01 | 1486571705.3068 |                 0 |              11 |                  8349 |                  534 |            1085138 |       1520747 |            15091 |        12174424 |                     0 |      11167854 | 2017-02-08 16:41:03.707092+01

 2017-02-08 17:35:06.385519+01 | 1486571706.38552 |                 0 |              11 |                  8349 |                  534 |            1085138 |       1521247 |            15096 |        12174424 |                     0 |      11173226 | 2017-02-08 16:41:03.707092+01

 2017-02-08 17:35:07.522903+01 | 1486571707.5229 |                 0 |              11 |                  8349 |                  534 |            1085138 |       1521847 |            15102 |        12174424 |                     0 |      11179604 | 2017-02-08 16:41:03.707092+01

 2017-02-08 17:35:08.630054+01 | 1486571708.63005 |                 0 |              11 |                  8349 |                  534 |            1085138 |       1522347 |            15107 |        12174424 |                     0 |      11184953 | 2017-02-08 16:41:03.707092+01

 2017-02-08 17:35:09.783114+01 | 1486571709.78311 |                 0 |              11 |                  8349 |                  534 |            1085138 |       1522947 |            15113 |        12174424 |                     0 |      11191524 | 2017-02-08 16:41:03.707092+01

 2017-02-08 17:35:10.912891+01 | 1486571710.91289 |                 0 |              11 |                  8349 |                  534 |            1085138 |       1523547 |            15119 |        12174424 |                     0 |      11197643 | 2017-02-08 16:41:03.707092+01

 2017-02-08 17:35:12.016325+01 | 1486571712.01632 |                 0 |              11 |                  8349 |                  534 |            1085138 |       1524047 |            15124 |        12174424 |                     0 |      11202632 | 2017-02-08 16:41:03.707092+01

 2017-02-08 17:35:13.134165+01 | 1486571713.13417 |                 0 |              11 |                  8349 |                  534 |            1085138 |       1524647 |            15130 |        12174424 |                     0 |      11209062 | 2017-02-08 16:41:03.707092+01

 2017-02-08 17:35:14.23124+01 | 1486571714.23124 |                 0 |              11 |                  8349 |                  534 |            1085138 |       1525147 |            15135 |        12174424 |                     0 |      11214098 | 2017-02-08 16:41:03.707092+01

 2017-02-08 17:35:15.337074+01 | 1486571715.33707 |                 0 |              11 |                  8349 |                  534 |            1085138 |       1525747 |            15141 |        12174424 |                     0 |      11220062 | 2017-02-08 16:41:03.707092+01

 2017-02-08 17:35:16.450861+01 | 1486571716.45086 |                 0 |              11 |                  8349 |                  534 |            1085138 |       1526247 |            15146 |        12233860 |                     0 |      11225182 | 2017-02-08 16:41:03.707092+01

 2017-02-08 17:35:17.565844+01 | 1486571717.56584 |                 0 |              11 |                  8349 |                  534 |            1085138 |       1526847 |            15152 |        12233860 |                     0 |      11230845 | 2017-02-08 16:41:03.707092+01

 2017-02-08 17:35:18.649348+01 | 1486571718.64935 |                 0 |              11 |                  8349 |                  534 |            1085138 |       1527347 |            15157 |        12233860 |                     0 |      11235732 | 2017-02-08 16:41:03.707092+01

 2017-02-08 17:35:19.765942+01 | 1486571719.76594 |                 0 |              11 |                  8349 |                  534 |            1085138 |       1527947 |            15163 |        12233860 |                     0 |      11241556 | 2017-02-08 16:41:03.707092+01

 2017-02-08 17:35:20.9036+01 | 1486571720.9036 |                 0 |              11 |                  8349 |                  534 |            1085138 |       1528447 |            15168 |        12233860 |                     0 |      11246341 | 2017-02-08 16:41:03.707092+01

 2017-02-08 17:35:21.998542+01 | 1486571721.99854 |                 0 |              11 |                  8349 |                  534 |            1085138 |       1529047 |            15174 |        12233860 |                     0 |      11252293 | 2017-02-08 16:41:03.707092+01

 2017-02-08 17:35:23.104683+01 | 1486571723.10468 |                 0 |              11 |                  8349 |                  534 |            1085138 |       1529547 |            15179 |        12233860 |                     0 |      11257160 | 2017-02-08 16:41:03.707092+01

 2017-02-08 17:35:24.232837+01 | 1486571724.23284 |                 0 |              11 |                  8349 |                  534 |            1085138 |       1530147 |            15185 |        12233860 |                     0 |      11262927 | 2017-02-08 16:41:03.707092+01

 2017-02-08 17:35:25.32636+01 | 1486571725.32636 |                 0 |              11 |                  8349 |                  534 |            1085138 |       1530647 |            15190 |        12233860 |                     0 |      11267963 | 2017-02-08 16:41:03.707092+01

 2017-02-08 17:35:26.417146+01 | 1486571726.41715 |                 0 |              11 |                  8349 |                  534 |            1085138 |       1531247 |            15196 |        12233860 |                     0 |      11273846 | 2017-02-08 16:41:03.707092+01

 2017-02-08 17:35:27.554057+01 | 1486571727.55406 |                 0 |              11 |                  8349 |                  534 |            1085138 |       1531747 |            15201 |        12293396 |                     0 |      11278640 | 2017-02-08 16:41:03.707092+01

 2017-02-08 17:35:28.65191+01 | 1486571728.65191 |                 0 |              11 |                  8349 |                  534 |            1085138 |       1532347 |            15207 |        12293396 |                     0 |      11284358 | 2017-02-08 16:41:03.707092+01

 2017-02-08 17:35:29.734003+01 | 1486571729.734 |                 0 |              11 |                  8349 |                  534 |            1085138 |       1532847 |            15212 |        12293396 |                     0 |      11289378 | 2017-02-08 16:41:03.707092+01

 2017-02-08 17:35:30.85019+01 | 1486571730.85019 |                 0 |              11 |                  8349 |                  534 |            1085138 |       1533447 |            15218 |        12293396 |                     0 |      11295146 | 2017-02-08 16:41:03.707092+01

 2017-02-08 17:35:31.935737+01 | 1486571731.93574 |                 0 |              11 |                  8349 |                  534 |            1085138 |       1533947 |            15223 |        12293396 |                     0 |      11300015 | 2017-02-08 16:41:03.707092+01

 2017-02-08 17:35:33.033946+01 | 1486571733.03395 |                 0 |              11 |                  8349 |                  534 |            1085138 |       1534547 |            15229 |        12293396 |                     0 |      11306134 | 2017-02-08 16:41:03.707092+01

 2017-02-08 17:35:34.125042+01 | 1486571734.12504 |                 0 |              11 |                  8349 |                  534 |            1085138 |       1535047 |            15234 |        12293396 |                     0 |      11310824 | 2017-02-08 16:41:03.707092+01

 2017-02-08 17:35:35.21114+01 | 1486571735.21114 |                 0 |              11 |                  8349 |                  534 |            1085138 |       1535647 |            15240 |        12293396 |                     0 |      11316859 | 2017-02-08 16:41:03.707092+01

 2017-02-08 17:35:36.339479+01 | 1486571736.33948 |                 0 |              11 |                  8349 |                  534 |            1085138 |       1536147 |            15245 |        12293396 |                     0 |      11321909 | 2017-02-08 16:41:03.707092+01

 2017-02-08 17:35:37.45355+01 | 1486571737.45355 |                 0 |              11 |                  8349 |                  534 |            1085138 |       1536747 |            15251 |        12293396 |                     0 |      11327897 | 2017-02-08 16:41:03.707092+01

 2017-02-08 17:35:38.557285+01 | 1486571738.55729 |                 0 |              11 |                  8349 |                  534 |            1085138 |       1537247 |            15256 |        12293396 |                     0 |      11333061 | 2017-02-08 16:41:03.707092+01

 2017-02-08 17:35:39.699626+01 | 1486571739.69963 |                 0 |              11 |                  8349 |                  534 |            1085138 |       1537847 |            15262 |        12293396 |                     0 |      11338922 | 2017-02-08 16:41:03.707092+01

 2017-02-08 17:35:40.836855+01 | 1486571740.83685 |                 0 |              11 |                  8349 |                  534 |            1085138 |       1538347 |            15267 |        12352732 |                     0 |      11344034 | 2017-02-08 16:41:03.707092+01

 2017-02-08 17:35:41.945988+01 | 1486571741.94599 |                 0 |              11 |                  8349 |                  534 |            1085138 |       1538947 |            15273 |        12352732 |                     0 |      11350281 | 2017-02-08 16:41:03.707092+01

 2017-02-08 17:35:43.096588+01 | 1486571743.09659 |                 0 |              11 |                  8349 |                  534 |            1085138 |       1539547 |            15279 |        12352732 |                     0 |      11356083 | 2017-02-08 16:41:03.707092+01

 2017-02-08 17:35:44.226325+01 | 1486571744.22633 |                 0 |              11 |                  8349 |                  534 |            1085138 |       1540047 |            15284 |        12352732 |                     0 |      11361316 | 2017-02-08 16:41:03.707092+01

 2017-02-08 17:35:45.339621+01 | 1486571745.33962 |                 0 |              11 |                  8349 |                  534 |            1085138 |       1540647 |            15290 |        12352732 |                     0 |      11368117 | 2017-02-08 16:41:03.707092+01

 2017-02-08 17:35:46.422975+01 | 1486571746.42298 |                 0 |              11 |                  8349 |                  534 |            1085138 |       1541147 |            15295 |        12352732 |                     0 |      11374066 | 2017-02-08 16:41:03.707092+01

 2017-02-08 17:35:47.576957+01 | 1486571747.57696 |                 0 |              11 |                  8349 |                  534 |            1085138 |       1541747 |            15301 |        12352732 |                     0 |      11381447 | 2017-02-08 16:41:03.707092+01

 2017-02-08 17:35:48.744429+01 | 1486571748.74443 |                 0 |              11 |                  8349 |                  534 |            1085138 |       1542347 |            15307 |        12352732 |                     0 |      11389374 | 2017-02-08 16:41:03.707092+01

 2017-02-08 17:35:49.89605+01 | 1486571749.89605 |                 0 |              11 |                  8349 |                  534 |            1085138 |       1542847 |            15312 |        12352732 |                     0 |      11396086 | 2017-02-08 16:41:03.707092+01

 2017-02-08 17:35:51.004281+01 | 1486571751.00428 |                 0 |              11 |                  8349 |                  534 |            1085138 |       1543447 |            15318 |        12413069 |                     0 |      11404545 | 2017-02-08 16:41:03.707092+01

 2017-02-08 17:35:52.20108+01 | 1486571752.20108 |                 0 |              11 |                  8349 |                  534 |            1085138 |       1544047 |            15324 |        12413069 |                     0 |      11413173 | 2017-02-08 16:41:03.707092+01

 2017-02-08 17:35:53.311805+01 | 1486571753.31181 |                 0 |              11 |                  8349 |                  534 |            1085138 |       1544647 |            15330 |        12413069 |                     0 |      11420629 | 2017-02-08 16:41:03.707092+01

 2017-02-08 17:35:54.395597+01 | 1486571754.3956 |                 0 |              11 |                  8349 |                  534 |            1085138 |       1545147 |            15335 |        12413069 |                     0 |      11426508 | 2017-02-08 16:41:03.707092+01

 2017-02-08 17:35:55.489859+01 | 1486571755.48986 |                 0 |              11 |                  8349 |                  534 |            1085138 |       1545647 |            15340 |        12413069 |                     0 |      11432876 | 2017-02-08 16:41:03.707092+01

 2017-02-08 17:35:56.617121+01 | 1486571756.61712 |                 0 |              11 |                  8349 |                  534 |            1085138 |       1546247 |            15346 |        12413069 |                     0 |      11439682 | 2017-02-08 16:41:03.707092+01

 2017-02-08 17:35:57.711548+01 | 1486571757.71155 |                 0 |              11 |                  8349 |                  534 |            1085138 |       1546747 |            15351 |        12413069 |                     0 |      11445518 | 2017-02-08 16:41:03.707092+01

 2017-02-08 17:35:58.831983+01 | 1486571758.83198 |                 0 |              11 |                  8349 |                  534 |            1085138 |       1547347 |            15357 |        12413069 |                     0 |      11452480 | 2017-02-08 16:41:03.707092+01

 2017-02-08 17:35:59.969362+01 | 1486571759.96936 |                 0 |              11 |                  8349 |                  534 |            1085138 |       1547847 |            15362 |        12474105 |                     0 |      11458209 | 2017-02-08 16:41:03.707092+01

 2017-02-08 17:36:01.100991+01 | 1486571761.10099 |                 0 |              11 |                  8349 |                  534 |            1085138 |       1548447 |            15368 |        12474105 |                     0 |      11464846 | 2017-02-08 16:41:03.707092+01

 2017-02-08 17:36:02.209876+01 | 1486571762.20988 |                 0 |              11 |                  8349 |                  534 |            1085138 |       1549047 |            15374 |        12474105 |                     0 |      11471529 | 2017-02-08 16:41:03.707092+01

 2017-02-08 17:36:03.320539+01 | 1486571763.32054 |                 0 |              11 |                  8349 |                  534 |            1085138 |       1549547 |            15379 |        12474105 |                     0 |      11477018 | 2017-02-08 16:41:03.707092+01

 2017-02-08 17:36:04.410272+01 | 1486571764.41027 |                 0 |              11 |                  8349 |                  534 |            1085138 |       1550147 |            15385 |        12474105 |                     0 |      11483807 | 2017-02-08 16:41:03.707092+01

 2017-02-08 17:36:05.537733+01 | 1486571765.53773 |                 0 |              11 |                  8349 |                  534 |            1085138 |       1550647 |            15390 |        12474105 |                     0 |      11489258 | 2017-02-08 16:41:03.707092+01

 2017-02-08 17:36:06.680306+01 | 1486571766.68031 |                 0 |              11 |                  8349 |                  534 |            1085138 |       1551247 |            15396 |        12474105 |                     0 |      11495676 | 2017-02-08 16:41:03.707092+01

 2017-02-08 17:36:07.793453+01 | 1486571767.79345 |                 0 |              11 |                  8349 |                  534 |            1085138 |       1551747 |            15401 |        12474105 |                     0 |      11500651 | 2017-02-08 16:41:03.707092+01

 2017-02-08 17:36:08.895029+01 | 1486571768.89503 |                 0 |              11 |                  8349 |                  534 |            1085138 |       1552347 |            15407 |        12474105 |                     0 |      11507009 | 2017-02-08 16:41:03.707092+01

 2017-02-08 17:36:09.989592+01 | 1486571769.98959 |                 0 |              11 |                  8349 |                  534 |            1085138 |       1552947 |            15413 |        12534841 |                     0 |      11513259 | 2017-02-08 16:41:03.707092+01

 2017-02-08 17:36:11.092121+01 | 1486571771.09212 |                 0 |              11 |                  8349 |                  534 |            1085138 |       1553447 |            15418 |        12534841 |                     0 |      11518639 | 2017-02-08 16:41:03.707092+01

 2017-02-08 17:36:12.195377+01 | 1486571772.19538 |                 0 |              11 |                  8349 |                  534 |            1085138 |       1553947 |            15423 |        12534841 |                     0 |      11523760 | 2017-02-08 16:41:03.707092+01

 2017-02-08 17:36:13.294467+01 | 1486571773.29447 |                 0 |              11 |                  8349 |                  534 |            1085138 |       1554547 |            15429 |        12534841 |                     0 |      11529917 | 2017-02-08 16:41:03.707092+01

 2017-02-08 17:36:14.38475+01 | 1486571774.38475 |                 0 |              11 |                  8349 |                  534 |            1085138 |       1554947 |            15433 |        12534841 |                     0 |      11534248 | 2017-02-08 16:41:03.707092+01

 2017-02-08 17:36:15.551032+01 | 1486571775.55103 |                 0 |              11 |                  8349 |                  534 |            1085138 |       1555647 |            15440 |        12534841 |                     0 |      11540944 | 2017-02-08 16:41:03.707092+01

 2017-02-08 17:36:16.683346+01 | 1486571776.68335 |                 0 |              11 |                  8349 |                  534 |            1085138 |       1556247 |            15446 |        12534841 |                     0 |      11546753 | 2017-02-08 16:41:03.707092+01

 2017-02-08 17:36:17.840178+01 | 1486571777.84018 |                 0 |              11 |                  8349 |                  534 |            1085138 |       1556747 |            15451 |        12534841 |                     0 |      11551628 | 2017-02-08 16:41:03.707092+01

 2017-02-08 17:36:18.954543+01 | 1486571778.95454 |                 0 |              11 |                  8349 |                  534 |            1085138 |       1557347 |            15457 |        12534841 |                     0 |      11557285 | 2017-02-08 16:41:03.707092+01

 2017-02-08 17:36:20.043862+01 | 1486571780.04386 |                 0 |              11 |                  8349 |                  534 |            1085138 |       1557947 |            15463 |        12534841 |                     0 |      11563158 | 2017-02-08 16:41:03.707092+01

 2017-02-08 17:36:21.200064+01 | 1486571781.20006 |                 0 |              11 |                  8349 |                  534 |            1085138 |       1558447 |            15468 |        12534841 |                     0 |      11567818 | 2017-02-08 16:41:03.707092+01

 2017-02-08 17:36:22.322972+01 | 1486571782.32297 |                 0 |              11 |                  8349 |                  534 |            1085138 |       1559047 |            15474 |        12594277 |                     0 |      11573491 | 2017-02-08 16:41:03.707092+01

 2017-02-08 17:36:23.429402+01 | 1486571783.4294 |                 0 |              11 |                  8349 |                  534 |            1085138 |       1559547 |            15479 |        12594277 |                     0 |      11578031 | 2017-02-08 16:41:03.707092+01

 2017-02-08 17:36:24.507866+01 | 1486571784.50787 |                 0 |              11 |                  8349 |                  534 |            1085138 |       1560147 |            15485 |        12594277 |                     0 |      11583734 | 2017-02-08 16:41:03.707092+01

 2017-02-08 17:36:25.623348+01 | 1486571785.62335 |                 0 |              11 |                  8349 |                  534 |            1085138 |       1560647 |            15490 |        12594277 |                     0 |      11588327 | 2017-02-08 16:41:03.707092+01

 2017-02-08 17:36:26.753746+01 | 1486571786.75375 |                 0 |              11 |                  8349 |                  534 |            1085138 |       1561247 |            15496 |        12594277 |                     0 |      11593592 | 2017-02-08 16:41:03.707092+01

 2017-02-08 17:36:27.84678+01 | 1486571787.84678 |                 0 |              11 |                  8349 |                  534 |            1085138 |       1561747 |            15501 |        12594277 |                     0 |      11598241 | 2017-02-08 16:41:03.707092+01

 2017-02-08 17:36:28.919214+01 | 1486571788.91921 |                 0 |              11 |                  8349 |                  534 |            1085138 |       1562347 |            15507 |        12594277 |                     0 |      11603601 | 2017-02-08 16:41:03.707092+01

 2017-02-08 17:36:29.996698+01 | 1486571789.9967 |                 0 |              11 |                  8349 |                  534 |            1085138 |       1562847 |            15512 |        12594277 |                     0 |      11608338 | 2017-02-08 16:41:03.707092+01

 2017-02-08 17:36:31.095349+01 | 1486571791.09535 |                 0 |              11 |                  8349 |                  534 |            1085138 |       1563347 |            15517 |        12594277 |                     0 |      11612895 | 2017-02-08 16:41:03.707092+01

 2017-02-08 17:36:32.235255+01 | 1486571792.23526 |                 0 |              11 |                  8349 |                  534 |            1085138 |       1563947 |            15523 |        12594277 |                     0 |      11618222 | 2017-02-08 16:41:03.707092+01

 2017-02-08 17:36:33.37155+01 | 1486571793.37155 |                 0 |              11 |                  8349 |                  534 |            1085138 |       1564547 |            15529 |        12594277 |                     0 |      11623435 | 2017-02-08 16:41:03.707092+01

 2017-02-08 17:36:34.488164+01 | 1486571794.48816 |                 0 |              11 |                  8349 |                  534 |            1085138 |       1565047 |            15534 |        12594277 |                     0 |      11628106 | 2017-02-08 16:41:03.707092+01

 2017-02-08 17:36:35.639806+01 | 1486571795.63981 |                 0 |              11 |                  8349 |                  534 |            1085138 |       1565447 |            15538 |        12594277 |                     0 |      11631522 | 2017-02-08 16:41:03.707092+01

 2017-02-08 17:36:36.757291+01 | 1486571796.75729 |                 0 |              11 |                  8349 |                  534 |            1085138 |       1566247 |            15546 |        12652213 |                     0 |      11638414 | 2017-02-08 16:41:03.707092+01

 2017-02-08 17:36:37.853842+01 | 1486571797.85384 |                 0 |              11 |                  8349 |                  534 |            1085138 |       1566747 |            15551 |        12652213 |                     0 |      11643134 | 2017-02-08 16:41:03.707092+01

 2017-02-08 17:36:39.010507+01 | 1486571799.01051 |                 0 |              11 |                  8349 |                  534 |            1085138 |       1567347 |            15557 |        12652213 |                     0 |      11648374 | 2017-02-08 16:41:03.707092+01

 2017-02-08 17:36:40.117827+01 | 1486571800.11783 |                 0 |              11 |                  8349 |                  534 |            1085138 |       1567847 |            15562 |        12652213 |                     0 |      11653039 | 2017-02-08 16:41:03.707092+01

 2017-02-08 17:36:41.197903+01 | 1486571801.1979 |                 0 |              11 |                  8349 |                  534 |            1085138 |       1568447 |            15568 |        12652213 |                     0 |      11658346 | 2017-02-08 16:41:03.707092+01

 2017-02-08 17:36:42.326761+01 | 1486571802.32676 |                 0 |              11 |                  8349 |                  534 |            1085138 |       1568947 |            15573 |        12652213 |                     0 |      11662855 | 2017-02-08 16:41:03.707092+01

 2017-02-08 17:36:43.427321+01 | 1486571803.42732 |                 0 |              11 |                  8349 |                  534 |            1085138 |       1569547 |            15579 |        12652213 |                     0 |      11668186 | 2017-02-08 16:41:03.707092+01

 2017-02-08 17:36:44.549735+01 | 1486571804.54974 |                 0 |              11 |                  8349 |                  534 |            1085138 |       1570047 |            15584 |        12652213 |                     0 |      11672600 | 2017-02-08 16:41:03.707092+01

 2017-02-08 17:36:45.693506+01 | 1486571805.69351 |                 0 |              11 |                  8349 |                  534 |            1085138 |       1570647 |            15590 |        12652213 |                     0 |      11677381 | 2017-02-08 16:41:03.707092+01

 2017-02-08 17:36:46.847114+01 | 1486571806.84711 |                 0 |              11 |                  8349 |                  534 |            1085138 |       1571247 |            15596 |        12652213 |                     0 |      11682208 | 2017-02-08 16:41:03.707092+01

 2017-02-08 17:36:47.970279+01 | 1486571807.97028 |                 0 |              11 |                  8349 |                  534 |            1085138 |       1571747 |            15601 |        12652213 |                     0 |      11686250 | 2017-02-08 16:41:03.707092+01

 2017-02-08 17:36:49.141539+01 | 1486571809.14154 |                 0 |              11 |                  8349 |                  534 |            1085138 |       1572347 |            15607 |        12652213 |                     0 |      11690901 | 2017-02-08 16:41:03.707092+01

 2017-02-08 17:36:50.28598+01 | 1486571810.28598 |                 0 |              11 |                  8349 |                  534 |            1085138 |       1572947 |            15613 |        12652213 |                     0 |      11695222 | 2017-02-08 16:41:03.707092+01

 2017-02-08 17:36:51.388315+01 | 1486571811.38831 |                 0 |              11 |                  8349 |                  534 |            1085138 |       1573347 |            15617 |        12710949 |                     0 |      11698305 | 2017-02-08 16:41:03.707092+01

 2017-02-08 17:36:52.479158+01 | 1486571812.47916 |                 0 |              11 |                  8349 |                  534 |            1085138 |       1574047 |            15624 |        12710949 |                     0 |      11704320 | 2017-02-08 16:41:03.707092+01

 2017-02-08 17:36:53.611964+01 | 1486571813.61196 |                 0 |              11 |                  8349 |                  534 |            1085138 |       1574547 |            15629 |        12710949 |                     0 |      11708471 | 2017-02-08 16:41:03.707092+01

 2017-02-08 17:36:54.751952+01 | 1486571814.75195 |                 0 |              11 |                  8349 |                  534 |            1085138 |       1575147 |            15635 |        12710949 |                     0 |      11713641 | 2017-02-08 16:41:03.707092+01

 2017-02-08 17:36:55.858406+01 | 1486571815.85841 |                 0 |              11 |                  8349 |                  534 |            1085138 |       1575747 |            15641 |        12710949 |                     0 |      11718556 | 2017-02-08 16:41:03.707092+01

 2017-02-08 17:36:56.983293+01 | 1486571816.98329 |                 0 |              11 |                  8349 |                  534 |            1085138 |       1576247 |            15646 |        12710949 |                     0 |      11722459 | 2017-02-08 16:41:03.707092+01

 2017-02-08 17:36:58.148151+01 | 1486571818.14815 |                 0 |              11 |                  8349 |                  534 |            1085138 |       1576847 |            15652 |        12710949 |                     0 |      11727581 | 2017-02-08 16:41:03.707092+01

 2017-02-08 17:36:59.259916+01 | 1486571819.25992 |                 0 |              11 |                  8349 |                  534 |            1085138 |       1577347 |            15657 |        12710949 |                     0 |      11731986 | 2017-02-08 16:41:03.707092+01

 2017-02-08 17:37:00.38876+01 | 1486571820.38876 |                 0 |              11 |                  8349 |                  534 |            1085138 |       1577947 |            15663 |        12710949 |                     0 |      11737560 | 2017-02-08 16:41:03.707092+01

 2017-02-08 17:37:01.511389+01 | 1486571821.51139 |                 0 |              11 |                  8349 |                  534 |            1085138 |       1578547 |            15669 |        12710949 |                     0 |      11742805 | 2017-02-08 16:41:03.707092+01

 2017-02-08 17:37:02.637417+01 | 1486571822.63742 |                 0 |              11 |                  8349 |                  534 |            1085138 |       1579047 |            15674 |        12710949 |                     0 |      11747318 | 2017-02-08 16:41:03.707092+01

 2017-02-08 17:37:03.769628+01 | 1486571823.76963 |                 0 |              11 |                  8349 |                  534 |            1085138 |       1579647 |            15680 |        12710949 |                     0 |      11752519 | 2017-02-08 16:41:03.707092+01

 2017-02-08 17:37:04.900573+01 | 1486571824.90057 |                 0 |              11 |                  8349 |                  534 |            1085138 |       1580247 |            15686 |        12710949 |                     0 |      11758000 | 2017-02-08 16:41:03.707092+01

