 2017-02-08 17:32:05.104894+01 | 1486571525.10489 | 9/471B930                |           38729267504

 2017-02-08 17:32:06.172538+01 | 1486571526.17254 | 9/A59B078                |           38828355704

 2017-02-08 17:32:07.273104+01 | 1486571527.2731 | 9/10273E08               |           38925712904

 2017-02-08 17:32:08.372421+01 | 1486571528.37242 | 9/15817CB0               |           39015513264

 2017-02-08 17:32:09.477576+01 | 1486571529.47758 | 9/1A72D8F0               |           39098439920

 2017-02-08 17:32:10.567802+01 | 1486571530.5678 | 9/1EFB6290               |           39174496912

 2017-02-08 17:32:11.676076+01 | 1486571531.67608 | 9/23438F30               |           39246335792

 2017-02-08 17:32:12.761608+01 | 1486571532.76161 | 9/271D7D38               |           39310949688

 2017-02-08 17:32:13.852461+01 | 1486571533.85246 | 9/2AAD4260               |           39370703456

 2017-02-08 17:32:14.969049+01 | 1486571534.96905 | 9/2E1239F8               |           39427652088

 2017-02-08 17:32:16.08397+01 | 1486571536.08397 | 9/31484AC8               |           39481526984

 2017-02-08 17:32:17.164677+01 | 1486571537.16468 | 9/34385260               |           39530812000

 2017-02-08 17:32:18.274409+01 | 1486571538.27441 | 9/36F980D8               |           39577026776

 2017-02-08 17:32:19.393421+01 | 1486571539.39342 | 9/399B8EC0               |           39621201600

 2017-02-08 17:32:20.506987+01 | 1486571540.50699 | 9/3BEDE4B8               |           39660151992

 2017-02-08 17:32:21.57982+01 | 1486571541.57982 | 9/3E299A20               |           39697619488

 2017-02-08 17:32:22.682792+01 | 1486571542.68279 | 9/40633F88               |           39734951816

 2017-02-08 17:32:23.757647+01 | 1486571543.75765 | 9/425FE820               |           39768287264

 2017-02-08 17:32:24.860274+01 | 1486571544.86027 | 9/4468E4E8               |           39802430696

 2017-02-08 17:32:25.949636+01 | 1486571545.94964 | 9/46383058               |           39832793176

 2017-02-08 17:32:27.04183+01 | 1486571547.04183 | 9/48041360               |           39862932320

 2017-02-08 17:32:28.129468+01 | 1486571548.12947 | 9/49A93B70               |           39890533232

 2017-02-08 17:32:29.257638+01 | 1486571549.25764 | 9/4B755628               |           39920686632

 2017-02-08 17:32:30.349972+01 | 1486571550.34997 | 9/4D1AB950               |           39948302672

 2017-02-08 17:32:31.459413+01 | 1486571551.45941 | 9/4EA01F80               |           39973822336

 2017-02-08 17:32:32.565023+01 | 1486571552.56502 | 9/50397738               |           40000649016

 2017-02-08 17:32:33.680264+01 | 1486571553.68026 | 9/51B10400               |           40025261056

 2017-02-08 17:32:34.807711+01 | 1486571554.80771 | 9/53294BC0               |           40049920960

 2017-02-08 17:32:35.926996+01 | 1486571555.927 | 9/54885918               |           40072927512

 2017-02-08 17:32:37.026162+01 | 1486571557.02616 | 9/55EC3430               |           40096248880

 2017-02-08 17:32:38.152715+01 | 1486571558.15271 | 9/57552B08               |           40119905032

 2017-02-08 17:32:39.273345+01 | 1486571559.27334 | 9/58BDFFB0               |           40143552432

 2017-02-08 17:32:40.375065+01 | 1486571560.37507 | 9/5A0EC620               |           40165623328

 2017-02-08 17:32:41.491799+01 | 1486571561.4918 | 9/5B625D60               |           40187878752

 2017-02-08 17:32:42.616299+01 | 1486571562.6163 | 9/5CABEA98               |           40209476248

 2017-02-08 17:32:43.715115+01 | 1486571563.71512 | 9/5DD7FB78               |           40229141368

 2017-02-08 17:32:44.811151+01 | 1486571564.81115 | 9/5F13E670               |           40249845360

 2017-02-08 17:32:45.935074+01 | 1486571565.93507 | 9/60387820               |           40269019168

 2017-02-08 17:32:47.038747+01 | 1486571567.03875 | 9/615C6968               |           40288151912

 2017-02-08 17:32:48.172187+01 | 1486571568.17219 | 9/629CC9F0               |           40309148144

 2017-02-08 17:32:49.290214+01 | 1486571569.29021 | 9/63CE8BF8               |           40329186296

 2017-02-08 17:32:50.425381+01 | 1486571570.42538 | 9/6516C278               |           40350696056

 2017-02-08 17:32:51.537748+01 | 1486571571.53775 | 9/6637F998               |           40369650072

 2017-02-08 17:32:52.646575+01 | 1486571572.64657 | 9/675CDB08               |           40388844296

 2017-02-08 17:32:53.760066+01 | 1486571573.76007 | 9/688852C8               |           40408470216

 2017-02-08 17:32:54.886935+01 | 1486571574.88693 | 9/69AA2870               |           40427464816

 2017-02-08 17:32:56.005559+01 | 1486571576.00556 | 9/6AD381F8               |           40446951928

 2017-02-08 17:32:57.12695+01 | 1486571577.12695 | 9/6C002030               |           40466653232

 2017-02-08 17:32:58.268399+01 | 1486571578.2684 | 9/6D2727B0               |           40485988272

 2017-02-08 17:32:59.40286+01 | 1486571579.40286 | 9/6E41F858               |           40504522840

 2017-02-08 17:33:00.517747+01 | 1486571580.51775 | 9/6F605928               |           40523290920

 2017-02-08 17:33:01.644071+01 | 1486571581.64407 | 9/707D9A18               |           40541985304

 2017-02-08 17:33:02.774243+01 | 1486571582.77424 | 9/7196D8D0               |           40560416976

 2017-02-08 17:33:03.861602+01 | 1486571583.8616 | 9/72A834A8               |           40578331816

 2017-02-08 17:33:04.960407+01 | 1486571584.96041 | 9/73B09E48               |           40595660360

 2017-02-08 17:33:06.092331+01 | 1486571586.09233 | 9/74BC0AD0               |           40613186256

 2017-02-08 17:33:07.184564+01 | 1486571587.18456 | 9/75C51EE0               |           40630558432

 2017-02-08 17:33:08.299966+01 | 1486571588.29997 | 9/76CBD6B8               |           40647775928

 2017-02-08 17:33:09.397271+01 | 1486571589.39727 | 9/77D87BB0               |           40665381808

 2017-02-08 17:33:10.519015+01 | 1486571590.51902 | 9/78F43B68               |           40683977576

 2017-02-08 17:33:11.62904+01 | 1486571591.62904 | 9/7A005C18               |           40701549592

 2017-02-08 17:33:12.731425+01 | 1486571592.73143 | 9/7B0767A8               |           40718788520

 2017-02-08 17:33:13.818149+01 | 1486571593.81815 | 9/7C0C1EE0               |           40735874784

 2017-02-08 17:33:14.924821+01 | 1486571594.92482 | 9/7D110230               |           40752972336

 2017-02-08 17:33:16.062357+01 | 1486571596.06236 | 9/7E131D80               |           40769887616

 2017-02-08 17:33:17.163273+01 | 1486571597.16327 | 9/7F182B08               |           40786995976

 2017-02-08 17:33:18.285972+01 | 1486571598.28597 | 9/80210740               |           40804353856

 2017-02-08 17:33:19.453568+01 | 1486571599.45357 | 9/812AAC70               |           40821763184

 2017-02-08 17:33:20.561964+01 | 1486571600.56196 | 9/823933A8               |           40839492520

 2017-02-08 17:33:21.692419+01 | 1486571601.69242 | 9/83399488               |           40856294536

 2017-02-08 17:33:22.841085+01 | 1486571602.84108 | 9/843B54A0               |           40873186464

 2017-02-08 17:33:23.949833+01 | 1486571603.94983 | 9/85425E38               |           40890424888

 2017-02-08 17:33:25.072003+01 | 1486571605.072 | 9/8646CFA0               |           40907493280

 2017-02-08 17:33:26.185344+01 | 1486571606.18534 | 9/87451908               |           40924158216

 2017-02-08 17:33:27.315461+01 | 1486571607.31546 | 9/8851AEA8               |           40941760168

 2017-02-08 17:33:28.413335+01 | 1486571608.41334 | 9/894F3720               |           40958375712

 2017-02-08 17:33:29.500873+01 | 1486571609.50087 | 9/8A475668               |           40974636648

 2017-02-08 17:33:30.598501+01 | 1486571610.5985 | 9/8B464A38               |           40991345208

 2017-02-08 17:33:31.695763+01 | 1486571611.69576 | 9/8C3D4450               |           41007531088

 2017-02-08 17:33:32.821418+01 | 1486571612.82142 | 9/8D38CB48               |           41024015176

 2017-02-08 17:33:33.946941+01 | 1486571613.94694 | 9/8E37C9C8               |           41040726472

 2017-02-08 17:33:35.01279+01 | 1486571615.01279 | 9/8F283CC8               |           41056484552

 2017-02-08 17:33:36.138913+01 | 1486571616.13891 | 9/8FF770F8               |           41070063864

 2017-02-08 17:33:37.215798+01 | 1486571617.2158 | 9/90E33D60               |           41085517152

 2017-02-08 17:33:38.31252+01 | 1486571618.31252 | 9/91FD22A0               |           41103991456

 2017-02-08 17:33:39.434188+01 | 1486571619.43419 | 9/931CA878               |           41122834552

 2017-02-08 17:33:40.55672+01 | 1486571620.55672 | 9/94433980               |           41142139264

 2017-02-08 17:33:41.687769+01 | 1486571621.68777 | 9/9563A610               |           41161041424

 2017-02-08 17:33:42.850911+01 | 1486571622.85091 | 9/96880818               |           41180203032

 2017-02-08 17:33:43.974651+01 | 1486571623.97465 | 9/97A10568               |           41198617960

 2017-02-08 17:33:45.095873+01 | 1486571625.09587 | 9/989F5DD0               |           41215286736

 2017-02-08 17:33:46.212745+01 | 1486571626.21274 | 9/999F2E38               |           41232051768

 2017-02-08 17:33:47.333219+01 | 1486571627.33322 | 9/9AAD6610               |           41249760784

 2017-02-08 17:33:48.427901+01 | 1486571628.4279 | 9/9BB28520               |           41266873632

 2017-02-08 17:33:49.544051+01 | 1486571629.54405 | 9/9CB9EDE8               |           41284136424

 2017-02-08 17:33:50.626788+01 | 1486571630.62679 | 9/9DB1DBF0               |           41300384752

 2017-02-08 17:33:51.736686+01 | 1486571631.73669 | 9/9EC64960               |           41318500704

 2017-02-08 17:33:52.856807+01 | 1486571632.85681 | 9/9FC286F8               |           41335031544

 2017-02-08 17:33:53.980557+01 | 1486571633.98056 | 9/A0C747E0               |           41352120288

 2017-02-08 17:33:55.11925+01 | 1486571635.11925 | 9/A1CCE060               |           41369264224

 2017-02-08 17:33:56.208776+01 | 1486571636.20878 | 9/A2C64838               |           41385609272

 2017-02-08 17:33:57.323375+01 | 1486571637.32337 | 9/A3D09B40               |           41403063104

 2017-02-08 17:33:58.442474+01 | 1486571638.44247 | 9/A4CA6AF8               |           41419434744

 2017-02-08 17:33:59.517796+01 | 1486571639.5178 | 9/A5BEB0F0               |           41435443440

 2017-02-08 17:34:00.640353+01 | 1486571640.64035 | 9/A6B56230               |           41451610672

 2017-02-08 17:34:01.75432+01 | 1486571641.75432 | 9/A7B59748               |           41468401480

 2017-02-08 17:34:02.848148+01 | 1486571642.84815 | 9/A8AF3A40               |           41484761664

 2017-02-08 17:34:03.958874+01 | 1486571643.95887 | 9/A9A45FE8               |           41500827624

 2017-02-08 17:34:05.069152+01 | 1486571645.06915 | 9/AA98F3E0               |           41516856288

 2017-02-08 17:34:06.181505+01 | 1486571646.1815 | 9/AB969368               |           41533477736

 2017-02-08 17:34:07.284796+01 | 1486571647.2848 | 9/AC847A50               |           41549068880

 2017-02-08 17:34:08.393201+01 | 1486571648.3932 | 9/AD7274C8               |           41564665032

 2017-02-08 17:34:09.493594+01 | 1486571649.49359 | 9/AE5E0EC0               |           41580105408

 2017-02-08 17:34:10.588656+01 | 1486571650.58866 | 9/AF47F650               |           41595434576

 2017-02-08 17:34:11.659322+01 | 1486571651.65932 | 9/B0290498               |           41610183832

 2017-02-08 17:34:12.775562+01 | 1486571652.77556 | 9/B1145190               |           41625604496

 2017-02-08 17:34:13.899045+01 | 1486571653.89904 | 9/B1FFEE60               |           41641045600

 2017-02-08 17:34:15.008792+01 | 1486571655.00879 | 9/B2F35BD8               |           41656998872

 2017-02-08 17:34:16.101645+01 | 1486571656.10164 | 9/B3D396C0               |           41671694016

 2017-02-08 17:34:17.190327+01 | 1486571657.19033 | 9/B4ACC8F8               |           41685928184

 2017-02-08 17:34:18.259985+01 | 1486571658.25998 | 9/B5913C78               |           41700899960

 2017-02-08 17:34:19.367589+01 | 1486571659.36759 | 9/B678CEB0               |           41716076208

 2017-02-08 17:34:20.500078+01 | 1486571660.50008 | 9/B75CF9E0               |           41731029472

 2017-02-08 17:34:21.615627+01 | 1486571661.61563 | 9/B8424578               |           41746056568

 2017-02-08 17:34:22.710897+01 | 1486571662.7109 | 9/B9285678               |           41761134200

 2017-02-08 17:34:23.837388+01 | 1486571663.83739 | 9/BA0CA660               |           41776096864

 2017-02-08 17:34:24.954402+01 | 1486571664.9544 | 9/BAE6A038               |           41790382136

 2017-02-08 17:34:26.105349+01 | 1486571666.10535 | 9/BBC549D0               |           41804974544

 2017-02-08 17:34:27.202207+01 | 1486571667.20221 | 9/BCA0D840               |           41819363392

 2017-02-08 17:34:28.35061+01 | 1486571668.35061 | 9/BD7F9370               |           41833960304

 2017-02-08 17:34:29.464809+01 | 1486571669.46481 | 9/BE599888               |           41848248456

 2017-02-08 17:34:30.564582+01 | 1486571670.56458 | 9/BF2715B0               |           41861715376

 2017-02-08 17:34:31.685125+01 | 1486571671.68513 | 9/BFFB1EE8               |           41875611368

 2017-02-08 17:34:32.791258+01 | 1486571672.79126 | 9/C0D1EC50               |           41889688656

 2017-02-08 17:34:33.895801+01 | 1486571673.8958 | 9/C19633B0               |           41902551984

 2017-02-08 17:34:34.999909+01 | 1486571674.99991 | 9/C259CFB0               |           41915371440

 2017-02-08 17:34:36.131917+01 | 1486571676.13192 | 9/C3173D60               |           41927785824

 2017-02-08 17:34:37.227584+01 | 1486571677.22758 | 9/C3C08B68               |           41938881384

 2017-02-08 17:34:38.346716+01 | 1486571678.34672 | 9/C4622E78               |           41949474424

 2017-02-08 17:34:39.448623+01 | 1486571679.44862 | 9/C50C8388               |           41960637320

 2017-02-08 17:34:40.598602+01 | 1486571680.5986 | 9/C5B18250               |           41971450448

 2017-02-08 17:34:41.726485+01 | 1486571681.72649 | 9/C65AEE50               |           41982553680

 2017-02-08 17:34:42.832241+01 | 1486571682.83224 | 9/C703F610               |           41993631248

 2017-02-08 17:34:43.960996+01 | 1486571683.961 | 9/C7D084D0               |           42007037136

 2017-02-08 17:34:45.095959+01 | 1486571685.09596 | 9/C8B91170               |           42022277488

 2017-02-08 17:34:46.245444+01 | 1486571686.24544 | 9/C9BB0508               |           42039182600

 2017-02-08 17:34:47.403991+01 | 1486571687.40399 | 9/CADEEDF0               |           42058313200

 2017-02-08 17:34:48.515739+01 | 1486571688.51574 | 9/CC05BBB8               |           42077633464

 2017-02-08 17:34:49.616475+01 | 1486571689.61648 | 9/CD4A9B88               |           42098924424

 2017-02-08 17:34:50.742988+01 | 1486571690.74299 | 9/CE8F49A8               |           42120202664

 2017-02-08 17:34:51.842022+01 | 1486571691.84202 | 9/CF523148               |           42132975944

 2017-02-08 17:34:52.96808+01 | 1486571692.96808 | 9/D016CDD8               |           42145861080

 2017-02-08 17:34:54.120278+01 | 1486571694.12028 | 9/D0D74D70               |           42158476656

 2017-02-08 17:34:55.214239+01 | 1486571695.21424 | 9/D1904028               |           42170597416

 2017-02-08 17:34:56.299134+01 | 1486571696.29913 | 9/D2438B00               |           42182347520

 2017-02-08 17:34:57.392928+01 | 1486571697.39293 | 9/D2F77DD0               |           42194140624

 2017-02-08 17:34:58.529345+01 | 1486571698.52935 | 9/D3AC68E8               |           42205998472

 2017-02-08 17:34:59.646107+01 | 1486571699.64611 | 9/D4693548               |           42218370376

 2017-02-08 17:35:00.784877+01 | 1486571700.78488 | 9/D51E0048               |           42230218824

 2017-02-08 17:35:01.910589+01 | 1486571701.91059 | 9/D5CE22E0               |           42241762016

 2017-02-08 17:35:03.032478+01 | 1486571703.03248 | 9/D67F7C80               |           42253384832

 2017-02-08 17:35:04.107865+01 | 1486571704.10787 | 9/D7226468               |           42264061032

 2017-02-08 17:35:05.236259+01 | 1486571705.23626 | 9/D7CF9540               |           42275411264

 2017-02-08 17:35:06.318422+01 | 1486571706.31842 | 9/D8785260               |           42286469728

 2017-02-08 17:35:07.408877+01 | 1486571707.40888 | 9/D91FDEA8               |           42297450152

 2017-02-08 17:35:08.552044+01 | 1486571708.55204 | 9/D9CDA390               |           42308838288

 2017-02-08 17:35:09.657994+01 | 1486571709.65799 | 9/DA777858               |           42319968344

 2017-02-08 17:35:10.801356+01 | 1486571710.80136 | 9/DB20E090               |           42331070608

 2017-02-08 17:35:11.932268+01 | 1486571711.93227 | 9/DBC990E8               |           42342125800

 2017-02-08 17:35:13.032811+01 | 1486571713.03281 | 9/DC7969B0               |           42353650096

 2017-02-08 17:35:14.153954+01 | 1486571714.15395 | 9/DD2526C0               |           42364905152

 2017-02-08 17:35:15.248653+01 | 1486571715.24865 | 9/DDB5EC48               |           42374392904

 2017-02-08 17:35:16.357581+01 | 1486571716.35758 | 9/DE4417F8               |           42383710200

 2017-02-08 17:35:17.468482+01 | 1486571717.46848 | 9/DF02F280               |           42396217984

 2017-02-08 17:35:18.590752+01 | 1486571718.59075 | 9/DFB6B2D0               |           42407998160

 2017-02-08 17:35:19.669018+01 | 1486571719.66902 | 9/E0656058               |           42419445848

 2017-02-08 17:35:20.802795+01 | 1486571720.80279 | 9/E1152CA0               |           42430966944

 2017-02-08 17:35:21.919798+01 | 1486571721.9198 | 9/E1E73318               |           42444731160

 2017-02-08 17:35:23.009984+01 | 1486571723.00998 | 9/E2B441D0               |           42458169808

 2017-02-08 17:35:24.125811+01 | 1486571724.12581 | 9/E392E3C0               |           42472760256

 2017-02-08 17:35:25.256652+01 | 1486571725.25665 | 9/E48656B0               |           42488714928

 2017-02-08 17:35:26.348138+01 | 1486571726.34814 | 9/E56FDD48               |           42504019272

 2017-02-08 17:35:27.445097+01 | 1486571727.4451 | 9/E65406F0               |           42518972144

 2017-02-08 17:35:28.568542+01 | 1486571728.56854 | 9/E7357518               |           42533745944

 2017-02-08 17:35:29.670271+01 | 1486571729.67027 | 9/E80CAC70               |           42547850352

 2017-02-08 17:35:30.753932+01 | 1486571730.75393 | 9/E8D8F838               |           42561239096

 2017-02-08 17:35:31.859641+01 | 1486571731.85964 | 9/E99AF940               |           42573953344

 2017-02-08 17:35:32.955924+01 | 1486571732.95592 | 9/EA547E98               |           42586111640

 2017-02-08 17:35:34.05192+01 | 1486571734.05192 | 9/EAF96610               |           42596918800

 2017-02-08 17:35:35.148945+01 | 1486571735.14895 | 9/EB91E108               |           42606911752

 2017-02-08 17:35:36.223416+01 | 1486571736.22342 | 9/EC2300E8               |           42616422632

 2017-02-08 17:35:37.363972+01 | 1486571737.36397 | 9/ECB64E18               |           42626076184

 2017-02-08 17:35:38.464576+01 | 1486571738.46458 | 9/ED43DD58               |           42635353432

 2017-02-08 17:35:39.58141+01 | 1486571739.58141 | 9/EDCE05D0               |           42644407760

 2017-02-08 17:35:40.725025+01 | 1486571740.72502 | 9/EE5DC5A0               |           42653828512

 2017-02-08 17:35:41.852317+01 | 1486571741.85232 | 9/EEEDDBD0               |           42663271376

 2017-02-08 17:35:42.971023+01 | 1486571742.97102 | 9/EF785CE0               |           42672348384

 2017-02-08 17:35:44.12167+01 | 1486571744.12167 | 9/F03B1118               |           42685108504

 2017-02-08 17:35:45.242422+01 | 1486571745.24242 | 9/F1247DE0               |           42700406240

 2017-02-08 17:35:46.360803+01 | 1486571746.3608 | 9/F22DA7C8               |           42717784008

 2017-02-08 17:35:47.449242+01 | 1486571747.44924 | 9/F349E700               |           42736412416

 2017-02-08 17:35:48.605876+01 | 1486571748.60588 | 9/F4A3D300               |           42759082752

 2017-02-08 17:35:49.767351+01 | 1486571749.76735 | 9/F62C26A8               |           42784794280

 2017-02-08 17:35:50.909853+01 | 1486571750.90985 | 9/F7DAF7B0               |           42813028272

 2017-02-08 17:35:52.03572+01 | 1486571752.03572 | 9/F99BCCD8               |           42842442968

 2017-02-08 17:35:53.232418+01 | 1486571753.23242 | 9/FAADF370               |           42860409712

 2017-02-08 17:35:54.333519+01 | 1486571754.33352 | 9/FB3FA760               |           42869958496

 2017-02-08 17:35:55.413049+01 | 1486571755.41305 | 9/FBCDC488               |           42879272072

 2017-02-08 17:35:56.511286+01 | 1486571756.51129 | 9/FC5FD650               |           42888844880

 2017-02-08 17:35:57.628705+01 | 1486571757.62871 | 9/FCF35818               |           42898511896

 2017-02-08 17:35:58.729178+01 | 1486571758.72918 | 9/FD843DE8               |           42908007912

 2017-02-08 17:35:59.846065+01 | 1486571759.84607 | 9/FE147D68               |           42917461352

 2017-02-08 17:36:00.984947+01 | 1486571760.98495 | 9/FEAAE628               |           42927318568

 2017-02-08 17:36:02.118353+01 | 1486571762.11835 | 9/FF4294B8               |           42937259192

 2017-02-08 17:36:03.226445+01 | 1486571763.22644 | 9/FFDEC150               |           42947494224

 2017-02-08 17:36:04.342195+01 | 1486571764.3422 | A/833390                 |           42958271376

 2017-02-08 17:36:05.424327+01 | 1486571765.42433 | A/11B6DA8                |           42968247720

 2017-02-08 17:36:06.567002+01 | 1486571766.567 | A/1B9DE40                |           42978631232

 2017-02-08 17:36:07.699441+01 | 1486571767.69944 | A/2544CE0                |           42988752096

 2017-02-08 17:36:08.822175+01 | 1486571768.82218 | A/2F8CDF8                |           42999533048

 2017-02-08 17:36:09.919532+01 | 1486571769.91953 | A/396C9F8                |           43009886712

 2017-02-08 17:36:11.016154+01 | 1486571771.01615 | A/42B13D0                |           43019604944

 2017-02-08 17:36:12.111581+01 | 1486571772.11158 | A/4AFFE68                |           43028315752

 2017-02-08 17:36:13.211702+01 | 1486571773.2117 | A/540CA40                |           43037805120

 2017-02-08 17:36:14.326321+01 | 1486571774.32632 | A/5C558D8                |           43046492376

 2017-02-08 17:36:15.409248+01 | 1486571775.40925 | A/62FC960                |           43053468000

 2017-02-08 17:36:16.581956+01 | 1486571776.58196 | A/69F3710                |           43060770576

 2017-02-08 17:36:17.71638+01 | 1486571777.71638 | A/70F28B8                |           43068106936

 2017-02-08 17:36:18.863912+01 | 1486571778.86391 | A/77C4E30                |           43075259952

 2017-02-08 17:36:19.976913+01 | 1486571779.97691 | A/7E80A40                |           43082320448

 2017-02-08 17:36:21.069681+01 | 1486571781.06968 | A/84E2808                |           43089012744

 2017-02-08 17:36:22.226838+01 | 1486571782.22684 | A/8BE1B90                |           43096349584

 2017-02-08 17:36:23.338731+01 | 1486571783.33873 | A/9261DC0                |           43103165888

 2017-02-08 17:36:24.443775+01 | 1486571784.44377 | A/98D64E8                |           43109934312

 2017-02-08 17:36:25.52046+01 | 1486571785.52046 | A/9F59308                |           43116761864

 2017-02-08 17:36:26.64292+01 | 1486571786.64292 | A/A59A1A0                |           43123319200

 2017-02-08 17:36:27.774123+01 | 1486571787.77412 | A/AC78E80                |           43130523264

 2017-02-08 17:36:28.858539+01 | 1486571788.85854 | A/B2C7FE0                |           43137138656

 2017-02-08 17:36:29.933294+01 | 1486571789.93329 | A/B94BC40                |           43143969856

 2017-02-08 17:36:31.013593+01 | 1486571791.01359 | A/BFA6FA0                |           43150634912

 2017-02-08 17:36:32.121192+01 | 1486571792.12119 | A/C64C7C8                |           43157604296

 2017-02-08 17:36:33.254008+01 | 1486571793.25401 | A/CCC6E00                |           43164397056

 2017-02-08 17:36:34.387268+01 | 1486571794.38727 | A/D3D7D38                |           43171806520

 2017-02-08 17:36:35.519535+01 | 1486571795.51954 | A/DA09E88                |           43178303112

 2017-02-08 17:36:36.667811+01 | 1486571796.66781 | A/E0E49F8                |           43185490424

 2017-02-08 17:36:37.78496+01 | 1486571797.78496 | A/E77D378                |           43192406904

 2017-02-08 17:36:38.878271+01 | 1486571798.87827 | A/EDD3270                |           43199050352

 2017-02-08 17:36:40.038744+01 | 1486571800.03874 | A/F4B6820                |           43206273056

 2017-02-08 17:36:41.134745+01 | 1486571801.13474 | A/FADD2F8                |           43212722936

 2017-02-08 17:36:42.219553+01 | 1486571802.21955 | A/1016E560               |           43219608928

 2017-02-08 17:36:43.34299+01 | 1486571803.34299 | A/1087E840               |           43227015232

 2017-02-08 17:36:44.45209+01 | 1486571804.45209 | A/10FA3740               |           43234506560

 2017-02-08 17:36:45.571198+01 | 1486571805.5712 | A/116D8D40               |           43242065216

 2017-02-08 17:36:46.72262+01 | 1486571806.72262 | A/11E1E4A8               |           43249689768

 2017-02-08 17:36:47.871713+01 | 1486571807.87171 | A/1255B640               |           43257280064

 2017-02-08 17:36:49.003266+01 | 1486571809.00327 | A/12C70FC0               |           43264708544

 2017-02-08 17:36:50.157839+01 | 1486571810.15784 | A/1334E6E0               |           43271907040

 2017-02-08 17:36:51.299035+01 | 1486571811.29904 | A/13A86C50               |           43279477840

 2017-02-08 17:36:52.398823+01 | 1486571812.39882 | A/141B0768               |           43286988648

 2017-02-08 17:36:53.49948+01 | 1486571813.49948 | A/148F1B30               |           43294595888

 2017-02-08 17:36:54.639878+01 | 1486571814.63988 | A/150C8988               |           43302816136

 2017-02-08 17:36:55.779245+01 | 1486571815.77924 | A/157FB1C0               |           43310363072

 2017-02-08 17:36:56.871534+01 | 1486571816.87153 | A/15EC7A88               |           43317492360

 2017-02-08 17:36:58.020396+01 | 1486571818.0204 | A/16620D98               |           43325197720

 2017-02-08 17:36:59.160266+01 | 1486571819.16027 | A/16C98780               |           43331979136

 2017-02-08 17:37:00.279002+01 | 1486571820.279 | A/17370088               |           43339153544

 2017-02-08 17:37:01.408104+01 | 1486571821.4081 | A/179F7A08               |           43346000392

 2017-02-08 17:37:02.537828+01 | 1486571822.53783 | A/180C9630               |           43353151024

 2017-02-08 17:37:03.660974+01 | 1486571823.66097 | A/18735D38               |           43359886648

 2017-02-08 17:37:04.799983+01 | 1486571824.79998 | A/18E05610               |           43367028240

