 2017-02-09 10:19:59.634433+01 | 1486631999.63443 |                 0 |               6 |                  2734 |                  157 |             338781 |        728939 |             7256 |        12405237 |                     0 |      13023455 | 2017-02-09 09:54:05.959359+01

 2017-02-09 10:20:00.68978+01 | 1486632000.68978 |                 0 |               6 |                  2734 |                  157 |             338781 |        728939 |             7256 |        12405237 |                     0 |      13029029 | 2017-02-09 09:54:05.959359+01

 2017-02-09 10:20:01.742228+01 | 1486632001.74223 |                 0 |               6 |                  2734 |                  157 |             338781 |        728939 |             7256 |        12405237 |                     0 |      13034899 | 2017-02-09 09:54:05.959359+01

 2017-02-09 10:20:02.800387+01 | 1486632002.80039 |                 0 |               6 |                  2734 |                  157 |             338781 |        728939 |             7256 |        12405237 |                     0 |      13040706 | 2017-02-09 09:54:05.959359+01

 2017-02-09 10:20:03.863269+01 | 1486632003.86327 |                 0 |               6 |                  2734 |                  157 |             338781 |        728939 |             7256 |        12405237 |                     0 |      13047571 | 2017-02-09 09:54:05.959359+01

 2017-02-09 10:20:04.913748+01 | 1486632004.91375 |                 0 |               6 |                  2734 |                  157 |             338781 |        728941 |             7256 |        12405237 |                     0 |      13053271 | 2017-02-09 09:54:05.959359+01

 2017-02-09 10:20:05.975776+01 | 1486632005.97578 |                 0 |               6 |                  2734 |                  157 |             338781 |        728963 |             7256 |        12405237 |                     0 |      13058882 | 2017-02-09 09:54:05.959359+01

 2017-02-09 10:20:07.037674+01 | 1486632007.03767 |                 0 |               6 |                  2734 |                  157 |             338781 |        729010 |             7256 |        12405237 |                     0 |      13064616 | 2017-02-09 09:54:05.959359+01

 2017-02-09 10:20:08.091669+01 | 1486632008.09167 |                 0 |               6 |                  2734 |                  157 |             338781 |        729078 |             7256 |        12405237 |                     0 |      13071344 | 2017-02-09 09:54:05.959359+01

 2017-02-09 10:20:09.155107+01 | 1486632009.15511 |                 0 |               6 |                  2734 |                  157 |             338781 |        729144 |             7256 |        12405237 |                     0 |      13076950 | 2017-02-09 09:54:05.959359+01

 2017-02-09 10:20:10.214714+01 | 1486632010.21471 |                 0 |               6 |                  2734 |                  157 |             338781 |        729245 |             7256 |        12405237 |                     0 |      13082806 | 2017-02-09 09:54:05.959359+01

 2017-02-09 10:20:11.278404+01 | 1486632011.2784 |                 0 |               6 |                  2734 |                  157 |             338781 |        729483 |             7256 |        12405237 |                     0 |      13089605 | 2017-02-09 09:54:05.959359+01

 2017-02-09 10:20:12.344433+01 | 1486632012.34443 |                 0 |               6 |                  2734 |                  157 |             338781 |        729826 |             7256 |        12405237 |                     0 |      13095344 | 2017-02-09 09:54:05.959359+01

 2017-02-09 10:20:13.406036+01 | 1486632013.40604 |                 0 |               6 |                  2734 |                  157 |             338781 |        730189 |             7258 |        12405237 |                     0 |      13101072 | 2017-02-09 09:54:05.959359+01

 2017-02-09 10:20:14.458975+01 | 1486632014.45898 |                 0 |               6 |                  2734 |                  157 |             338781 |        730551 |             7258 |        12405237 |                     0 |      13106818 | 2017-02-09 09:54:05.959359+01

 2017-02-09 10:20:15.516309+01 | 1486632015.51631 |                 0 |               6 |                  2734 |                  157 |             338781 |        731005 |             7260 |        12405237 |                     0 |      13113880 | 2017-02-09 09:54:05.959359+01

 2017-02-09 10:20:16.575603+01 | 1486632016.5756 |                 0 |               6 |                  2734 |                  157 |             338781 |        731505 |             7265 |        12405237 |                     0 |      13119540 | 2017-02-09 09:54:05.959359+01

 2017-02-09 10:20:17.636171+01 | 1486632017.63617 |                 0 |               6 |                  2734 |                  157 |             338781 |        732005 |             7270 |        12405237 |                     0 |      13124989 | 2017-02-09 09:54:05.959359+01

 2017-02-09 10:20:18.68989+01 | 1486632018.68989 |                 0 |               6 |                  2734 |                  157 |             338781 |        732505 |             7275 |        12405237 |                     0 |      13130526 | 2017-02-09 09:54:05.959359+01

 2017-02-09 10:20:19.752008+01 | 1486632019.75201 |                 0 |               6 |                  2734 |                  157 |             338781 |        733105 |             7281 |        12405237 |                     0 |      13137359 | 2017-02-09 09:54:05.959359+01

 2017-02-09 10:20:20.809844+01 | 1486632020.80984 |                 0 |               6 |                  2734 |                  157 |             338781 |        733605 |             7286 |        12405237 |                     0 |      13142849 | 2017-02-09 09:54:05.959359+01

 2017-02-09 10:20:21.871589+01 | 1486632021.87159 |                 0 |               6 |                  2734 |                  157 |             338781 |        734105 |             7291 |        12405237 |                     0 |      13148340 | 2017-02-09 09:54:05.959359+01

 2017-02-09 10:20:22.936986+01 | 1486632022.93699 |                 0 |               6 |                  2734 |                  157 |             338781 |        734705 |             7297 |        12465128 |                     0 |      13155453 | 2017-02-09 09:54:05.959359+01

 2017-02-09 10:20:23.998333+01 | 1486632023.99833 |                 0 |               6 |                  2734 |                  157 |             338781 |        735205 |             7302 |        12465128 |                     0 |      13160934 | 2017-02-09 09:54:05.959359+01

 2017-02-09 10:20:25.053072+01 | 1486632025.05307 |                 0 |               6 |                  2734 |                  157 |             338781 |        735705 |             7307 |        12465128 |                     0 |      13166578 | 2017-02-09 09:54:05.959359+01

 2017-02-09 10:20:26.114302+01 | 1486632026.1143 |                 0 |               6 |                  2734 |                  157 |             338781 |        736205 |             7312 |        12465128 |                     0 |      13172585 | 2017-02-09 09:54:05.959359+01

 2017-02-09 10:20:27.177907+01 | 1486632027.17791 |                 0 |               6 |                  2734 |                  157 |             338781 |        736805 |             7318 |        12465128 |                     0 |      13179201 | 2017-02-09 09:54:05.959359+01

 2017-02-09 10:20:28.233139+01 | 1486632028.23314 |                 0 |               6 |                  2734 |                  157 |             338781 |        737305 |             7323 |        12465128 |                     0 |      13184608 | 2017-02-09 09:54:05.959359+01

 2017-02-09 10:20:29.292878+01 | 1486632029.29288 |                 0 |               6 |                  2734 |                  157 |             338781 |        737805 |             7328 |        12465128 |                     0 |      13190622 | 2017-02-09 09:54:05.959359+01

 2017-02-09 10:20:30.353494+01 | 1486632030.35349 |                 0 |               6 |                  2734 |                  157 |             338781 |        738305 |             7333 |        12465128 |                     0 |      13196106 | 2017-02-09 09:54:05.959359+01

 2017-02-09 10:20:31.416626+01 | 1486632031.41663 |                 0 |               6 |                  2734 |                  157 |             338781 |        738905 |             7339 |        12465128 |                     0 |      13202793 | 2017-02-09 09:54:05.959359+01

 2017-02-09 10:20:32.472807+01 | 1486632032.47281 |                 0 |               6 |                  2734 |                  157 |             338781 |        739405 |             7344 |        12465128 |                     0 |      13208546 | 2017-02-09 09:54:05.959359+01

 2017-02-09 10:20:33.540752+01 | 1486632033.54075 |                 0 |               6 |                  2734 |                  157 |             338781 |        739905 |             7349 |        12465128 |                     0 |      13214195 | 2017-02-09 09:54:05.959359+01

 2017-02-09 10:20:34.606073+01 | 1486632034.60607 |                 0 |               6 |                  2734 |                  157 |             338781 |        740505 |             7355 |        12524864 |                     0 |      13221015 | 2017-02-09 09:54:05.959359+01

 2017-02-09 10:20:35.660143+01 | 1486632035.66014 |                 0 |               6 |                  2734 |                  157 |             338781 |        741005 |             7360 |        12524864 |                     0 |      13227018 | 2017-02-09 09:54:05.959359+01

 2017-02-09 10:20:36.718782+01 | 1486632036.71878 |                 0 |               6 |                  2734 |                  157 |             338781 |        741505 |             7365 |        12524864 |                     0 |      13232595 | 2017-02-09 09:54:05.959359+01

 2017-02-09 10:20:37.783205+01 | 1486632037.78321 |                 0 |               6 |                  2734 |                  157 |             338781 |        742005 |             7370 |        12524864 |                     0 |      13238180 | 2017-02-09 09:54:05.959359+01

 2017-02-09 10:20:38.84265+01 | 1486632038.84265 |                 0 |               6 |                  2734 |                  157 |             338781 |        742605 |             7376 |        12524864 |                     0 |      13245174 | 2017-02-09 09:54:05.959359+01

 2017-02-09 10:20:39.904058+01 | 1486632039.90406 |                 0 |               6 |                  2734 |                  157 |             338781 |        743105 |             7381 |        12524864 |                     0 |      13250849 | 2017-02-09 09:54:05.959359+01

 2017-02-09 10:20:40.958934+01 | 1486632040.95893 |                 0 |               6 |                  2734 |                  157 |             338781 |        743605 |             7386 |        12524864 |                     0 |      13256340 | 2017-02-09 09:54:05.959359+01

 2017-02-09 10:20:42.020922+01 | 1486632042.02092 |                 0 |               6 |                  2734 |                  157 |             338781 |        744105 |             7391 |        12524864 |                     0 |      13262099 | 2017-02-09 09:54:05.959359+01

 2017-02-09 10:20:43.076013+01 | 1486632043.07601 |                 0 |               6 |                  2734 |                  157 |             338781 |        744705 |             7397 |        12524864 |                     0 |      13268880 | 2017-02-09 09:54:05.959359+01

 2017-02-09 10:20:44.135854+01 | 1486632044.13585 |                 0 |               6 |                  2734 |                  157 |             338781 |        745205 |             7402 |        12524864 |                     0 |      13274504 | 2017-02-09 09:54:05.959359+01

 2017-02-09 10:20:45.197745+01 | 1486632045.19775 |                 0 |               6 |                  2734 |                  157 |             338781 |        745705 |             7407 |        12524864 |                     0 |      13280402 | 2017-02-09 09:54:05.959359+01

 2017-02-09 10:20:46.257822+01 | 1486632046.25782 |                 0 |               6 |                  2734 |                  157 |             338781 |        746305 |             7413 |        12584700 |                     0 |      13287292 | 2017-02-09 09:54:05.959359+01

 2017-02-09 10:20:47.327616+01 | 1486632047.32762 |                 0 |               6 |                  2734 |                  157 |             338781 |        746805 |             7418 |        12584700 |                     0 |      13293043 | 2017-02-09 09:54:05.959359+01

 2017-02-09 10:20:48.399555+01 | 1486632048.39955 |                 0 |               6 |                  2734 |                  157 |             338781 |        747305 |             7423 |        12584700 |                     0 |      13298938 | 2017-02-09 09:54:05.959359+01

 2017-02-09 10:20:49.462644+01 | 1486632049.46264 |                 0 |               6 |                  2734 |                  157 |             338781 |        747805 |             7428 |        12584700 |                     0 |      13304479 | 2017-02-09 09:54:05.959359+01

 2017-02-09 10:20:50.518031+01 | 1486632050.51803 |                 0 |               6 |                  2734 |                  157 |             338781 |        748405 |             7434 |        12584700 |                     0 |      13311359 | 2017-02-09 09:54:05.959359+01

 2017-02-09 10:20:51.586427+01 | 1486632051.58643 |                 0 |               6 |                  2734 |                  157 |             338781 |        748905 |             7439 |        12584700 |                     0 |      13317242 | 2017-02-09 09:54:05.959359+01

 2017-02-09 10:20:52.644473+01 | 1486632052.64447 |                 0 |               6 |                  2734 |                  157 |             338781 |        749405 |             7444 |        12584700 |                     0 |      13323112 | 2017-02-09 09:54:05.959359+01

 2017-02-09 10:20:53.702793+01 | 1486632053.70279 |                 0 |               6 |                  2734 |                  157 |             338781 |        750005 |             7450 |        12584700 |                     0 |      13329893 | 2017-02-09 09:54:05.959359+01

 2017-02-09 10:20:54.767899+01 | 1486632054.7679 |                 0 |               6 |                  2734 |                  157 |             338781 |        750505 |             7455 |        12584700 |                     0 |      13335960 | 2017-02-09 09:54:05.959359+01

 2017-02-09 10:20:55.824251+01 | 1486632055.82425 |                 0 |               6 |                  2734 |                  157 |             338781 |        751005 |             7460 |        12584700 |                     0 |      13341572 | 2017-02-09 09:54:05.959359+01

 2017-02-09 10:20:56.887789+01 | 1486632056.88779 |                 0 |               6 |                  2734 |                  157 |             338781 |        751505 |             7465 |        12584700 |                     0 |      13347328 | 2017-02-09 09:54:05.959359+01

 2017-02-09 10:20:57.946151+01 | 1486632057.94615 |                 0 |               6 |                  2734 |                  157 |             338781 |        752105 |             7471 |        12644536 |                     0 |      13354482 | 2017-02-09 09:54:05.959359+01

 2017-02-09 10:20:59.008229+01 | 1486632059.00823 |                 0 |               6 |                  2734 |                  157 |             338781 |        752605 |             7476 |        12644536 |                     0 |      13359990 | 2017-02-09 09:54:05.959359+01

 2017-02-09 10:21:00.06549+01 | 1486632060.06549 |                 0 |               6 |                  2734 |                  157 |             338781 |        753105 |             7481 |        12644536 |                     0 |      13365805 | 2017-02-09 09:54:05.959359+01

 2017-02-09 10:21:01.136333+01 | 1486632061.13633 |                 0 |               6 |                  2734 |                  157 |             338781 |        753605 |             7486 |        12644536 |                     0 |      13371803 | 2017-02-09 09:54:05.959359+01

 2017-02-09 10:21:02.191181+01 | 1486632062.19118 |                 0 |               6 |                  2734 |                  157 |             338781 |        754205 |             7492 |        12644536 |                     0 |      13378768 | 2017-02-09 09:54:05.959359+01

 2017-02-09 10:21:03.246749+01 | 1486632063.24675 |                 0 |               6 |                  2734 |                  157 |             338781 |        754705 |             7497 |        12644536 |                     0 |      13384539 | 2017-02-09 09:54:05.959359+01

 2017-02-09 10:21:04.307874+01 | 1486632064.30787 |                 0 |               6 |                  2734 |                  157 |             338781 |        755205 |             7502 |        12644536 |                     0 |      13390609 | 2017-02-09 09:54:05.959359+01

 2017-02-09 10:21:05.372169+01 | 1486632065.37217 |                 0 |               6 |                  2734 |                  157 |             338781 |        755805 |             7508 |        12644536 |                     0 |      13397203 | 2017-02-09 09:54:05.959359+01

 2017-02-09 10:21:06.433317+01 | 1486632066.43332 |                 0 |               6 |                  2734 |                  157 |             338781 |        756305 |             7513 |        12644536 |                     0 |      13403005 | 2017-02-09 09:54:05.959359+01

 2017-02-09 10:21:07.48773+01 | 1486632067.48773 |                 0 |               6 |                  2734 |                  157 |             338781 |        756805 |             7518 |        12644536 |                     0 |      13408992 | 2017-02-09 09:54:05.959359+01

 2017-02-09 10:21:08.544626+01 | 1486632068.54463 |                 0 |               6 |                  2734 |                  157 |             338781 |        757305 |             7523 |        12644536 |                     0 |      13414716 | 2017-02-09 09:54:05.959359+01

 2017-02-09 10:21:09.62301+01 | 1486632069.62301 |                 0 |               6 |                  2734 |                  157 |             338781 |        757905 |             7529 |        12704472 |                     0 |      13421531 | 2017-02-09 09:54:05.959359+01

 2017-02-09 10:21:10.676565+01 | 1486632070.67656 |                 0 |               6 |                  2734 |                  157 |             338781 |        758405 |             7534 |        12704472 |                     0 |      13427330 | 2017-02-09 09:54:05.959359+01

 2017-02-09 10:21:11.741348+01 | 1486632071.74135 |                 0 |               6 |                  2734 |                  157 |             338781 |        758905 |             7539 |        12704472 |                     0 |      13433376 | 2017-02-09 09:54:05.959359+01

 2017-02-09 10:21:12.799982+01 | 1486632072.79998 |                 0 |               6 |                  2734 |                  157 |             338781 |        759405 |             7544 |        12704472 |                     0 |      13439145 | 2017-02-09 09:54:05.959359+01

 2017-02-09 10:21:13.854694+01 | 1486632073.85469 |                 0 |               6 |                  2734 |                  157 |             338781 |        760005 |             7550 |        12704472 |                     0 |      13446121 | 2017-02-09 09:54:05.959359+01

 2017-02-09 10:21:14.921114+01 | 1486632074.92111 |                 0 |               6 |                  2734 |                  157 |             338781 |        760505 |             7555 |        12704472 |                     0 |      13452178 | 2017-02-09 09:54:05.959359+01

 2017-02-09 10:21:15.977112+01 | 1486632075.97711 |                 0 |               6 |                  2734 |                  157 |             338781 |        761005 |             7560 |        12704472 |                     0 |      13457863 | 2017-02-09 09:54:05.959359+01

 2017-02-09 10:21:17.035858+01 | 1486632077.03586 |                 0 |               6 |                  2734 |                  157 |             338781 |        761505 |             7565 |        12704472 |                     0 |      13463576 | 2017-02-09 09:54:05.959359+01

 2017-02-09 10:21:18.092489+01 | 1486632078.09249 |                 0 |               6 |                  2734 |                  157 |             338781 |        762105 |             7571 |        12704472 |                     0 |      13470786 | 2017-02-09 09:54:05.959359+01

 2017-02-09 10:21:19.150914+01 | 1486632079.15091 |                 0 |               6 |                  2734 |                  157 |             338781 |        762605 |             7576 |        12704472 |                     0 |      13476221 | 2017-02-09 09:54:05.959359+01

 2017-02-09 10:21:20.204888+01 | 1486632080.20489 |                 0 |               6 |                  2734 |                  157 |             338781 |        763105 |             7581 |        12764309 |                     0 |      13481916 | 2017-02-09 09:54:05.959359+01

 2017-02-09 10:21:21.258575+01 | 1486632081.25857 |                 0 |               6 |                  2734 |                  157 |             338781 |        763705 |             7587 |        12764309 |                     0 |      13489158 | 2017-02-09 09:54:05.959359+01

 2017-02-09 10:21:22.323501+01 | 1486632082.3235 |                 0 |               6 |                  2734 |                  157 |             338781 |        764205 |             7592 |        12764309 |                     0 |      13494736 | 2017-02-09 09:54:05.959359+01

 2017-02-09 10:21:23.385283+01 | 1486632083.38528 |                 0 |               6 |                  2734 |                  157 |             338781 |        764705 |             7597 |        12764309 |                     0 |      13500376 | 2017-02-09 09:54:05.959359+01

 2017-02-09 10:21:24.44472+01 | 1486632084.44472 |                 0 |               6 |                  2734 |                  157 |             338781 |        765205 |             7602 |        12764309 |                     0 |      13506476 | 2017-02-09 09:54:05.959359+01

 2017-02-09 10:21:25.503871+01 | 1486632085.50387 |                 0 |               6 |                  2734 |                  157 |             338781 |        765805 |             7608 |        12764309 |                     0 |      13513226 | 2017-02-09 09:54:05.959359+01

 2017-02-09 10:21:26.561875+01 | 1486632086.56188 |                 0 |               6 |                  2734 |                  157 |             338781 |        766305 |             7613 |        12764309 |                     0 |      13518952 | 2017-02-09 09:54:05.959359+01

 2017-02-09 10:21:27.617804+01 | 1486632087.6178 |                 0 |               6 |                  2734 |                  157 |             338781 |        766805 |             7618 |        12764309 |                     0 |      13525069 | 2017-02-09 09:54:05.959359+01

 2017-02-09 10:21:28.677854+01 | 1486632088.67785 |                 0 |               6 |                  2734 |                  157 |             338781 |        767305 |             7623 |        12764309 |                     0 |      13530773 | 2017-02-09 09:54:05.959359+01

 2017-02-09 10:21:29.735741+01 | 1486632089.73574 |                 0 |               6 |                  2734 |                  157 |             338781 |        767905 |             7629 |        12764309 |                     0 |      13537687 | 2017-02-09 09:54:05.959359+01

 2017-02-09 10:21:30.786811+01 | 1486632090.78681 |                 0 |               6 |                  2734 |                  157 |             338781 |        768405 |             7634 |        12764309 |                     0 |      13543926 | 2017-02-09 09:54:05.959359+01

 2017-02-09 10:21:31.848171+01 | 1486632091.84817 |                 0 |               6 |                  2734 |                  157 |             338781 |        768905 |             7639 |        12824246 |                     0 |      13549739 | 2017-02-09 09:54:05.959359+01

 2017-02-09 10:21:32.9047+01 | 1486632092.9047 |                 0 |               6 |                  2734 |                  157 |             338781 |        769405 |             7644 |        12824246 |                     0 |      13555467 | 2017-02-09 09:54:05.959359+01

 2017-02-09 10:21:33.975055+01 | 1486632093.97505 |                 0 |               6 |                  2734 |                  157 |             338781 |        770005 |             7650 |        12824246 |                     0 |      13562573 | 2017-02-09 09:54:05.959359+01

 2017-02-09 10:21:35.030891+01 | 1486632095.03089 |                 0 |               6 |                  2734 |                  157 |             338781 |        770505 |             7655 |        12824246 |                     0 |      13568685 | 2017-02-09 09:54:05.959359+01

 2017-02-09 10:21:36.092607+01 | 1486632096.09261 |                 0 |               6 |                  2734 |                  157 |             338781 |        771005 |             7660 |        12824246 |                     0 |      13574003 | 2017-02-09 09:54:05.959359+01

 2017-02-09 10:21:37.140565+01 | 1486632097.14056 |                 0 |               6 |                  2734 |                  157 |             338781 |        771605 |             7666 |        12824246 |                     0 |      13580617 | 2017-02-09 09:54:05.959359+01

 2017-02-09 10:21:38.194166+01 | 1486632098.19417 |                 0 |               6 |                  2734 |                  157 |             338781 |        772105 |             7671 |        12824246 |                     0 |      13586622 | 2017-02-09 09:54:05.959359+01

 2017-02-09 10:21:39.249987+01 | 1486632099.24999 |                 0 |               6 |                  2734 |                  157 |             338781 |        772405 |             7674 |        12824246 |                     0 |      13589953 | 2017-02-09 09:54:05.959359+01

 2017-02-09 10:21:40.306635+01 | 1486632100.30663 |                 0 |               6 |                  2734 |                  157 |             338781 |        773105 |             7681 |        12824246 |                     0 |      13598384 | 2017-02-09 09:54:05.959359+01

 2017-02-09 10:21:41.376848+01 | 1486632101.37685 |                 0 |               6 |                  2734 |                  157 |             338781 |        773705 |             7687 |        12824246 |                     0 |      13605437 | 2017-02-09 09:54:05.959359+01

 2017-02-09 10:21:42.436917+01 | 1486632102.43692 |                 0 |               6 |                  2734 |                  157 |             338781 |        774205 |             7692 |        12824246 |                     0 |      13611169 | 2017-02-09 09:54:05.959359+01

 2017-02-09 10:21:43.49142+01 | 1486632103.49142 |                 0 |               6 |                  2734 |                  157 |             338781 |        774705 |             7697 |        12884113 |                     0 |      13617078 | 2017-02-09 09:54:05.959359+01

 2017-02-09 10:21:44.547214+01 | 1486632104.54721 |                 0 |               6 |                  2734 |                  157 |             338781 |        775205 |             7702 |        12884113 |                     0 |      13623065 | 2017-02-09 09:54:05.959359+01

 2017-02-09 10:21:45.610501+01 | 1486632105.6105 |                 0 |               6 |                  2734 |                  157 |             338781 |        775805 |             7708 |        12884113 |                     0 |      13630109 | 2017-02-09 09:54:05.959359+01

 2017-02-09 10:21:46.667306+01 | 1486632106.66731 |                 0 |               6 |                  2734 |                  157 |             338781 |        776305 |             7713 |        12884113 |                     0 |      13635849 | 2017-02-09 09:54:05.959359+01

 2017-02-09 10:21:47.73199+01 | 1486632107.73199 |                 0 |               6 |                  2734 |                  157 |             338781 |        776805 |             7718 |        12884113 |                     0 |      13641962 | 2017-02-09 09:54:05.959359+01

 2017-02-09 10:21:48.796633+01 | 1486632108.79663 |                 0 |               6 |                  2734 |                  157 |             338781 |        777305 |             7723 |        12884113 |                     0 |      13647939 | 2017-02-09 09:54:05.959359+01

 2017-02-09 10:21:49.858769+01 | 1486632109.85877 |                 0 |               6 |                  2734 |                  157 |             338781 |        777905 |             7729 |        12884113 |                     0 |      13655046 | 2017-02-09 09:54:05.959359+01

 2017-02-09 10:21:50.917734+01 | 1486632110.91773 |                 0 |               6 |                  2734 |                  157 |             338781 |        778405 |             7734 |        12884113 |                     0 |      13661158 | 2017-02-09 09:54:05.959359+01

 2017-02-09 10:21:51.979466+01 | 1486632111.97947 |                 0 |               6 |                  2734 |                  157 |             338781 |        778905 |             7739 |        12884113 |                     0 |      13667092 | 2017-02-09 09:54:05.959359+01

 2017-02-09 10:21:53.037584+01 | 1486632113.03758 |                 0 |               6 |                  2734 |                  157 |             338781 |        779505 |             7745 |        12884113 |                     0 |      13674165 | 2017-02-09 09:54:05.959359+01

 2017-02-09 10:21:54.095743+01 | 1486632114.09574 |                 0 |               6 |                  2734 |                  157 |             338781 |        780005 |             7750 |        12944066 |                     0 |      13680301 | 2017-02-09 09:54:05.959359+01

 2017-02-09 10:21:55.156243+01 | 1486632115.15624 |                 0 |               6 |                  2734 |                  157 |             338781 |        780505 |             7755 |        12944066 |                     0 |      13686196 | 2017-02-09 09:54:05.959359+01

 2017-02-09 10:21:56.21879+01 | 1486632116.21879 |                 0 |               6 |                  2734 |                  157 |             338781 |        781005 |             7760 |        12944066 |                     0 |      13692065 | 2017-02-09 09:54:05.959359+01

 2017-02-09 10:21:57.27545+01 | 1486632117.27545 |                 0 |               6 |                  2734 |                  157 |             338781 |        781605 |             7766 |        12944066 |                     0 |      13699052 | 2017-02-09 09:54:05.959359+01

 2017-02-09 10:21:58.3425+01 | 1486632118.3425 |                 0 |               6 |                  2734 |                  157 |             338781 |        782105 |             7771 |        12944066 |                     0 |      13705285 | 2017-02-09 09:54:05.959359+01

 2017-02-09 10:21:59.402805+01 | 1486632119.40281 |                 0 |               6 |                  2734 |                  157 |             338781 |        782605 |             7776 |        12944066 |                     0 |      13711309 | 2017-02-09 09:54:05.959359+01

 2017-02-09 10:22:00.46474+01 | 1486632120.46474 |                 0 |               6 |                  2734 |                  157 |             338781 |        783105 |             7781 |        12944066 |                     0 |      13717138 | 2017-02-09 09:54:05.959359+01

 2017-02-09 10:22:01.531166+01 | 1486632121.53117 |                 0 |               6 |                  2734 |                  157 |             338781 |        783705 |             7787 |        12944066 |                     0 |      13724511 | 2017-02-09 09:54:05.959359+01

 2017-02-09 10:22:02.583613+01 | 1486632122.58361 |                 0 |               6 |                  2734 |                  157 |             338781 |        784205 |             7792 |        12944066 |                     0 |      13730315 | 2017-02-09 09:54:05.959359+01

 2017-02-09 10:22:03.639446+01 | 1486632123.63945 |                 0 |               6 |                  2734 |                  157 |             338781 |        784705 |             7797 |        12944066 |                     0 |      13736240 | 2017-02-09 09:54:05.959359+01

 2017-02-09 10:22:04.706393+01 | 1486632124.70639 |                 0 |               6 |                  2734 |                  157 |             338781 |        785205 |             7802 |        12944066 |                     0 |      13742318 | 2017-02-09 09:54:05.959359+01

 2017-02-09 10:22:05.766085+01 | 1486632125.76608 |                 0 |               6 |                  2734 |                  157 |             338781 |        785805 |             7808 |        13004089 |                     0 |      13749544 | 2017-02-09 09:54:05.959359+01

 2017-02-09 10:22:06.819569+01 | 1486632126.81957 |                 0 |               6 |                  2734 |                  157 |             338781 |        786305 |             7813 |        13004089 |                     0 |      13755437 | 2017-02-09 09:54:05.959359+01

 2017-02-09 10:22:07.871296+01 | 1486632127.8713 |                 0 |               6 |                  2734 |                  157 |             338781 |        786805 |             7818 |        13004089 |                     0 |      13761578 | 2017-02-09 09:54:05.959359+01

 2017-02-09 10:22:08.939682+01 | 1486632128.93968 |                 0 |               6 |                  2734 |                  157 |             338781 |        787405 |             7824 |        13004089 |                     0 |      13768747 | 2017-02-09 09:54:05.959359+01

 2017-02-09 10:22:10.001233+01 | 1486632130.00123 |                 0 |               6 |                  2734 |                  157 |             338781 |        787905 |             7829 |        13004089 |                     0 |      13774672 | 2017-02-09 09:54:05.959359+01

 2017-02-09 10:22:11.060343+01 | 1486632131.06034 |                 0 |               6 |                  2734 |                  157 |             338781 |        788405 |             7834 |        13004089 |                     0 |      13780563 | 2017-02-09 09:54:05.959359+01

 2017-02-09 10:22:12.115269+01 | 1486632132.11527 |                 0 |               6 |                  2734 |                  157 |             338781 |        788905 |             7839 |        13004089 |                     0 |      13786631 | 2017-02-09 09:54:05.959359+01

 2017-02-09 10:22:13.179098+01 | 1486632133.1791 |                 0 |               6 |                  2734 |                  157 |             338781 |        789505 |             7845 |        13004089 |                     0 |      13793991 | 2017-02-09 09:54:05.959359+01

 2017-02-09 10:22:14.240445+01 | 1486632134.24044 |                 0 |               6 |                  2734 |                  157 |             338781 |        790005 |             7850 |        13004089 |                     0 |      13799803 | 2017-02-09 09:54:05.959359+01

 2017-02-09 10:22:15.299385+01 | 1486632135.29939 |                 0 |               6 |                  2734 |                  157 |             338781 |        790505 |             7855 |        13004089 |                     0 |      13806132 | 2017-02-09 09:54:05.959359+01

 2017-02-09 10:22:16.359968+01 | 1486632136.35997 |                 0 |               6 |                  2734 |                  157 |             338781 |        791005 |             7860 |        13064126 |                     0 |      13811936 | 2017-02-09 09:54:05.959359+01

 2017-02-09 10:22:17.420026+01 | 1486632137.42003 |                 0 |               6 |                  2734 |                  157 |             338781 |        791605 |             7866 |        13064126 |                     0 |      13819123 | 2017-02-09 09:54:05.959359+01

 2017-02-09 10:22:18.486028+01 | 1486632138.48603 |                 0 |               6 |                  2734 |                  157 |             338781 |        792105 |             7871 |        13064126 |                     0 |      13825381 | 2017-02-09 09:54:05.959359+01

 2017-02-09 10:22:19.547753+01 | 1486632139.54775 |                 0 |               6 |                  2734 |                  157 |             338781 |        792605 |             7876 |        13064126 |                     0 |      13831333 | 2017-02-09 09:54:05.959359+01

 2017-02-09 10:22:20.608673+01 | 1486632140.60867 |                 0 |               6 |                  2734 |                  157 |             338781 |        793205 |             7882 |        13064126 |                     0 |      13838595 | 2017-02-09 09:54:05.959359+01

 2017-02-09 10:22:21.669992+01 | 1486632141.66999 |                 0 |               6 |                  2734 |                  157 |             338781 |        793705 |             7887 |        13064126 |                     0 |      13844312 | 2017-02-09 09:54:05.959359+01

 2017-02-09 10:22:22.730946+01 | 1486632142.73095 |                 0 |               6 |                  2734 |                  157 |             338781 |        794205 |             7892 |        13064126 |                     0 |      13850452 | 2017-02-09 09:54:05.959359+01

 2017-02-09 10:22:23.793325+01 | 1486632143.79332 |                 0 |               6 |                  2734 |                  157 |             338781 |        794705 |             7897 |        13064126 |                     0 |      13856449 | 2017-02-09 09:54:05.959359+01

 2017-02-09 10:22:24.854873+01 | 1486632144.85487 |                 0 |               6 |                  2734 |                  157 |             338781 |        795305 |             7903 |        13064126 |                     0 |      13863591 | 2017-02-09 09:54:05.959359+01

 2017-02-09 10:22:25.913845+01 | 1486632145.91385 |                 0 |               6 |                  2734 |                  157 |             338781 |        795805 |             7908 |        13064126 |                     0 |      13869790 | 2017-02-09 09:54:05.959359+01

 2017-02-09 10:22:26.977191+01 | 1486632146.97719 |                 0 |               6 |                  2734 |                  157 |             338781 |        796305 |             7913 |        13064126 |                     0 |      13875724 | 2017-02-09 09:54:05.959359+01

 2017-02-09 10:22:28.048132+01 | 1486632148.04813 |                 0 |               6 |                  2734 |                  157 |             338781 |        796905 |             7919 |        13124163 |                     0 |      13882903 | 2017-02-09 09:54:05.959359+01

 2017-02-09 10:22:29.110365+01 | 1486632149.11036 |                 0 |               6 |                  2734 |                  157 |             338781 |        797405 |             7924 |        13124163 |                     0 |      13889113 | 2017-02-09 09:54:05.959359+01

 2017-02-09 10:22:30.175095+01 | 1486632150.1751 |                 0 |               6 |                  2734 |                  157 |             338781 |        797905 |             7929 |        13124163 |                     0 |      13895233 | 2017-02-09 09:54:05.959359+01

 2017-02-09 10:22:31.231665+01 | 1486632151.23166 |                 0 |               6 |                  2734 |                  157 |             338781 |        798405 |             7934 |        13124163 |                     0 |      13901215 | 2017-02-09 09:54:05.959359+01

 2017-02-09 10:22:32.284862+01 | 1486632152.28486 |                 0 |               6 |                  2734 |                  157 |             338781 |        799005 |             7940 |        13124163 |                     0 |      13908139 | 2017-02-09 09:54:05.959359+01

 2017-02-09 10:22:33.350503+01 | 1486632153.3505 |                 0 |               6 |                  2734 |                  157 |             338781 |        799505 |             7945 |        13124163 |                     0 |      13914338 | 2017-02-09 09:54:05.959359+01

 2017-02-09 10:22:34.402781+01 | 1486632154.40278 |                 0 |               6 |                  2734 |                  157 |             338781 |        800005 |             7950 |        13124163 |                     0 |      13920260 | 2017-02-09 09:54:05.959359+01

 2017-02-09 10:22:35.464443+01 | 1486632155.46444 |                 0 |               6 |                  2734 |                  157 |             338781 |        800505 |             7955 |        13124163 |                     0 |      13926150 | 2017-02-09 09:54:05.959359+01

 2017-02-09 10:22:36.524042+01 | 1486632156.52404 |                 0 |               6 |                  2734 |                  157 |             338781 |        801105 |             7961 |        13124163 |                     0 |      13933329 | 2017-02-09 09:54:05.959359+01

 2017-02-09 10:22:37.576624+01 | 1486632157.57662 |                 0 |               6 |                  2734 |                  157 |             338781 |        801405 |             7964 |        13124163 |                     0 |      13936716 | 2017-02-09 09:54:05.959359+01

 2017-02-09 10:22:38.631253+01 | 1486632158.63125 |                 0 |               6 |                  2734 |                  157 |             338781 |        802105 |             7971 |        13124163 |                     0 |      13945518 | 2017-02-09 09:54:05.959359+01

 2017-02-09 10:22:39.722097+01 | 1486632159.7221 |                 0 |               6 |                  2734 |                  157 |             338781 |        802705 |             7977 |        13184083 |                     0 |      13952641 | 2017-02-09 09:54:05.959359+01

 2017-02-09 10:22:40.779238+01 | 1486632160.77924 |                 0 |               6 |                  2734 |                  157 |             338781 |        803205 |             7982 |        13184083 |                     0 |      13958537 | 2017-02-09 09:54:05.959359+01

 2017-02-09 10:22:41.833088+01 | 1486632161.83309 |                 0 |               6 |                  2734 |                  157 |             338781 |        803705 |             7987 |        13184083 |                     0 |      13964246 | 2017-02-09 09:54:05.959359+01

 2017-02-09 10:22:42.894175+01 | 1486632162.89418 |                 0 |               6 |                  2734 |                  157 |             338781 |        804205 |             7992 |        13184083 |                     0 |      13970322 | 2017-02-09 09:54:05.959359+01

 2017-02-09 10:22:43.954369+01 | 1486632163.95437 |                 0 |               6 |                  2734 |                  157 |             338781 |        804805 |             7998 |        13184083 |                     0 |      13977266 | 2017-02-09 09:54:05.959359+01

 2017-02-09 10:22:45.011251+01 | 1486632165.01125 |                 0 |               6 |                  2734 |                  157 |             338781 |        805305 |             8003 |        13184083 |                     0 |      13983080 | 2017-02-09 09:54:05.959359+01

 2017-02-09 10:22:46.063393+01 | 1486632166.06339 |                 0 |               6 |                  2734 |                  157 |             338781 |        805805 |             8008 |        13184083 |                     0 |      13989404 | 2017-02-09 09:54:05.959359+01

 2017-02-09 10:22:47.122813+01 | 1486632167.12281 |                 0 |               6 |                  2734 |                  157 |             338781 |        806305 |             8013 |        13184083 |                     0 |      13995070 | 2017-02-09 09:54:05.959359+01

 2017-02-09 10:22:48.191226+01 | 1486632168.19123 |                 0 |               6 |                  2734 |                  157 |             338781 |        806905 |             8019 |        13184083 |                     0 |      14002195 | 2017-02-09 09:54:05.959359+01

 2017-02-09 10:22:49.25402+01 | 1486632169.25402 |                 0 |               6 |                  2734 |                  157 |             338781 |        807405 |             8024 |        13184083 |                     0 |      14008412 | 2017-02-09 09:54:05.959359+01

 2017-02-09 10:22:50.334075+01 | 1486632170.33407 |                 0 |               6 |                  2734 |                  157 |             338781 |        807905 |             8029 |        13244119 |                     0 |      14014260 | 2017-02-09 09:54:05.959359+01

 2017-02-09 10:22:51.398279+01 | 1486632171.39828 |                 0 |               6 |                  2734 |                  157 |             338781 |        808505 |             8035 |        13244119 |                     0 |      14021496 | 2017-02-09 09:54:05.959359+01

 2017-02-09 10:22:52.456442+01 | 1486632172.45644 |                 0 |               6 |                  2734 |                  157 |             338781 |        809005 |             8040 |        13244119 |                     0 |      14027658 | 2017-02-09 09:54:05.959359+01

 2017-02-09 10:22:53.531129+01 | 1486632173.53113 |                 0 |               6 |                  2734 |                  157 |             338781 |        809505 |             8045 |        13244119 |                     0 |      14033675 | 2017-02-09 09:54:05.959359+01

 2017-02-09 10:22:54.592851+01 | 1486632174.59285 |                 0 |               6 |                  2734 |                  157 |             338781 |        810105 |             8051 |        13244119 |                     0 |      14040729 | 2017-02-09 09:54:05.959359+01

 2017-02-09 10:22:55.653111+01 | 1486632175.65311 |                 0 |               6 |                  2734 |                  157 |             338781 |        810605 |             8056 |        13244119 |                     0 |      14046606 | 2017-02-09 09:54:05.959359+01

 2017-02-09 10:22:56.719377+01 | 1486632176.71938 |                 0 |               6 |                  2734 |                  157 |             338781 |        811105 |             8061 |        13244119 |                     0 |      14052757 | 2017-02-09 09:54:05.959359+01

 2017-02-09 10:22:57.776601+01 | 1486632177.7766 |                 0 |               6 |                  2734 |                  157 |             338781 |        811605 |             8066 |        13244119 |                     0 |      14058600 | 2017-02-09 09:54:05.959359+01

 2017-02-09 10:22:58.838376+01 | 1486632178.83838 |                 0 |               6 |                  2734 |                  157 |             338781 |        812205 |             8072 |        13244119 |                     0 |      14065672 | 2017-02-09 09:54:05.959359+01

 2017-02-09 10:22:59.899659+01 | 1486632179.89966 |                 0 |               6 |                  2734 |                  157 |             338781 |        812705 |             8077 |        13244119 |                     0 |      14071837 | 2017-02-09 09:54:05.959359+01

 2017-02-09 10:23:00.959893+01 | 1486632180.95989 |                 0 |               6 |                  2734 |                  157 |             338781 |        813205 |             8082 |        13244119 |                     0 |      14077778 | 2017-02-09 09:54:05.959359+01

 2017-02-09 10:23:02.028063+01 | 1486632182.02806 |                 0 |               6 |                  2734 |                  157 |             338781 |        813805 |             8088 |        13304071 |                     0 |      14084859 | 2017-02-09 09:54:05.959359+01

 2017-02-09 10:23:03.085909+01 | 1486632183.08591 |                 0 |               6 |                  2734 |                  157 |             338781 |        814305 |             8093 |        13304071 |                     0 |      14091095 | 2017-02-09 09:54:05.959359+01

 2017-02-09 10:23:04.145485+01 | 1486632184.14548 |                 0 |               6 |                  2734 |                  157 |             338781 |        814805 |             8098 |        13304071 |                     0 |      14097012 | 2017-02-09 09:54:05.959359+01

 2017-02-09 10:23:05.202887+01 | 1486632185.20289 |                 0 |               6 |                  2734 |                  157 |             338781 |        815305 |             8103 |        13304071 |                     0 |      14102941 | 2017-02-09 09:54:05.959359+01

 2017-02-09 10:23:06.267584+01 | 1486632186.26758 |                 0 |               6 |                  2734 |                  157 |             338781 |        815905 |             8109 |        13304071 |                     0 |      14110038 | 2017-02-09 09:54:05.959359+01

 2017-02-09 10:23:07.326514+01 | 1486632187.32651 |                 0 |               6 |                  2734 |                  157 |             338781 |        816405 |             8114 |        13304071 |                     0 |      14116356 | 2017-02-09 09:54:05.959359+01

 2017-02-09 10:23:08.383301+01 | 1486632188.3833 |                 0 |               6 |                  2734 |                  157 |             338781 |        816905 |             8119 |        13304071 |                     0 |      14122326 | 2017-02-09 09:54:05.959359+01

 2017-02-09 10:23:09.451405+01 | 1486632189.45141 |                 0 |               6 |                  2734 |                  157 |             338781 |        817405 |             8124 |        13304071 |                     0 |      14128109 | 2017-02-09 09:54:05.959359+01

 2017-02-09 10:23:10.508955+01 | 1486632190.50896 |                 0 |               6 |                  2734 |                  157 |             338781 |        818005 |             8130 |        13304071 |                     0 |      14135671 | 2017-02-09 09:54:05.959359+01

 2017-02-09 10:23:11.571283+01 | 1486632191.57128 |                 0 |               6 |                  2734 |                  157 |             338781 |        818505 |             8135 |        13304071 |                     0 |      14141419 | 2017-02-09 09:54:05.959359+01

 2017-02-09 10:23:12.626919+01 | 1486632192.62692 |                 0 |               6 |                  2734 |                  157 |             338781 |        819005 |             8140 |        13364174 |                     0 |      14147361 | 2017-02-09 09:54:05.959359+01

 2017-02-09 10:23:13.681029+01 | 1486632193.68103 |                 0 |               6 |                  2734 |                  157 |             338781 |        819505 |             8145 |        13364174 |                     0 |      14153517 | 2017-02-09 09:54:05.959359+01

 2017-02-09 10:23:14.749052+01 | 1486632194.74905 |                 0 |               6 |                  2734 |                  157 |             338781 |        820105 |             8151 |        13364174 |                     0 |      14160615 | 2017-02-09 09:54:05.959359+01

 2017-02-09 10:23:15.802324+01 | 1486632195.80232 |                 0 |               6 |                  2734 |                  157 |             338781 |        820605 |             8156 |        13364174 |                     0 |      14166362 | 2017-02-09 09:54:05.959359+01

 2017-02-09 10:23:16.860637+01 | 1486632196.86064 |                 0 |               6 |                  2734 |                  157 |             338781 |        821105 |             8161 |        13364174 |                     0 |      14172443 | 2017-02-09 09:54:05.959359+01

 2017-02-09 10:23:17.923129+01 | 1486632197.92313 |                 0 |               6 |                  2734 |                  157 |             338781 |        821705 |             8167 |        13364174 |                     0 |      14179501 | 2017-02-09 09:54:05.959359+01

 2017-02-09 10:23:18.985951+01 | 1486632198.98595 |                 0 |               6 |                  2734 |                  157 |             338781 |        822205 |             8172 |        13364174 |                     0 |      14185338 | 2017-02-09 09:54:05.959359+01

 2017-02-09 10:23:20.044997+01 | 1486632200.045 |                 0 |               6 |                  2734 |                  157 |             338781 |        822705 |             8177 |        13364174 |                     0 |      14191449 | 2017-02-09 09:54:05.959359+01

 2017-02-09 10:23:21.103731+01 | 1486632201.10373 |                 0 |               6 |                  2734 |                  157 |             338781 |        823205 |             8182 |        13364174 |                     0 |      14197100 | 2017-02-09 09:54:05.959359+01

 2017-02-09 10:23:22.163393+01 | 1486632202.16339 |                 0 |               6 |                  2734 |                  157 |             338781 |        823805 |             8188 |        13364174 |                     0 |      14204084 | 2017-02-09 09:54:05.959359+01

 2017-02-09 10:23:23.219932+01 | 1486632203.21993 |                 0 |               6 |                  2734 |                  157 |             338781 |        824305 |             8193 |        13364174 |                     0 |      14209586 | 2017-02-09 09:54:05.959359+01

 2017-02-09 10:23:24.28426+01 | 1486632204.28426 |                 0 |               6 |                  2734 |                  157 |             338781 |        824805 |             8198 |        13364174 |                     0 |      14215074 | 2017-02-09 09:54:05.959359+01

 2017-02-09 10:23:25.358495+01 | 1486632205.35849 |                 0 |               6 |                  2734 |                  157 |             338781 |        825305 |             8203 |        13423671 |                     0 |      14220987 | 2017-02-09 09:54:05.959359+01

 2017-02-09 10:23:26.421715+01 | 1486632206.42172 |                 0 |               6 |                  2734 |                  157 |             338781 |        825905 |             8209 |        13423671 |                     0 |      14227798 | 2017-02-09 09:54:05.959359+01

 2017-02-09 10:23:27.476866+01 | 1486632207.47687 |                 0 |               6 |                  2734 |                  157 |             338781 |        826405 |             8214 |        13423671 |                     0 |      14233677 | 2017-02-09 09:54:05.959359+01

 2017-02-09 10:23:28.54348+01 | 1486632208.54348 |                 0 |               6 |                  2734 |                  157 |             338781 |        826905 |             8219 |        13423671 |                     0 |      14239086 | 2017-02-09 09:54:05.959359+01

 2017-02-09 10:23:29.599452+01 | 1486632209.59945 |                 0 |               6 |                  2734 |                  157 |             338781 |        827505 |             8225 |        13423671 |                     0 |      14246081 | 2017-02-09 09:54:05.959359+01

 2017-02-09 10:23:30.65918+01 | 1486632210.65918 |                 0 |               6 |                  2734 |                  157 |             338781 |        828005 |             8230 |        13423671 |                     0 |      14251623 | 2017-02-09 09:54:05.959359+01

 2017-02-09 10:23:31.725489+01 | 1486632211.72549 |                 0 |               6 |                  2734 |                  157 |             338781 |        828505 |             8235 |        13423671 |                     0 |      14257088 | 2017-02-09 09:54:05.959359+01

 2017-02-09 10:23:32.790308+01 | 1486632212.79031 |                 0 |               6 |                  2734 |                  157 |             338781 |        829005 |             8240 |        13423671 |                     0 |      14263007 | 2017-02-09 09:54:05.959359+01

 2017-02-09 10:23:33.848088+01 | 1486632213.84809 |                 0 |               6 |                  2734 |                  157 |             338781 |        829605 |             8246 |        13423671 |                     0 |      14269849 | 2017-02-09 09:54:05.959359+01

 2017-02-09 10:23:34.905981+01 | 1486632214.90598 |                 0 |               6 |                  2734 |                  157 |             338781 |        830105 |             8251 |        13423671 |                     0 |      14275470 | 2017-02-09 09:54:05.959359+01

 2017-02-09 10:23:35.964763+01 | 1486632215.96476 |                 0 |               6 |                  2734 |                  157 |             338781 |        830605 |             8256 |        13423671 |                     0 |      14281547 | 2017-02-09 09:54:05.959359+01

 2017-02-09 10:23:37.017451+01 | 1486632217.01745 |                 0 |               6 |                  2734 |                  157 |             338781 |        831205 |             8262 |        13483208 |                     0 |      14288305 | 2017-02-09 09:54:05.959359+01

 2017-02-09 10:23:38.077075+01 | 1486632218.07708 |                 0 |               6 |                  2734 |                  157 |             338781 |        831705 |             8267 |        13483208 |                     0 |      14293969 | 2017-02-09 09:54:05.959359+01

 2017-02-09 10:23:39.130572+01 | 1486632219.13057 |                 0 |               6 |                  2734 |                  157 |             338781 |        832205 |             8272 |        13483208 |                     0 |      14299983 | 2017-02-09 09:54:05.959359+01

 2017-02-09 10:23:40.188948+01 | 1486632220.18895 |                 0 |               6 |                  2734 |                  157 |             338781 |        832705 |             8277 |        13483208 |                     0 |      14305931 | 2017-02-09 09:54:05.959359+01

 2017-02-09 10:23:41.245254+01 | 1486632221.24525 |                 0 |               6 |                  2734 |                  157 |             338781 |        833305 |             8283 |        13483208 |                     0 |      14312894 | 2017-02-09 09:54:05.959359+01

 2017-02-09 10:23:42.311532+01 | 1486632222.31153 |                 0 |               6 |                  2734 |                  157 |             338781 |        833805 |             8288 |        13483208 |                     0 |      14318638 | 2017-02-09 09:54:05.959359+01

 2017-02-09 10:23:43.372581+01 | 1486632223.37258 |                 0 |               6 |                  2734 |                  157 |             338781 |        834305 |             8293 |        13483208 |                     0 |      14324644 | 2017-02-09 09:54:05.959359+01

 2017-02-09 10:23:44.433527+01 | 1486632224.43353 |                 0 |               6 |                  2734 |                  157 |             338781 |        834805 |             8298 |        13483208 |                     0 |      14330400 | 2017-02-09 09:54:05.959359+01

 2017-02-09 10:23:45.491722+01 | 1486632225.49172 |                 0 |               6 |                  2734 |                  157 |             338781 |        835405 |             8304 |        13483208 |                     0 |      14337352 | 2017-02-09 09:54:05.959359+01

 2017-02-09 10:23:46.565018+01 | 1486632226.56502 |                 0 |               6 |                  2734 |                  157 |             338781 |        835905 |             8309 |        13483208 |                     0 |      14343404 | 2017-02-09 09:54:05.959359+01

 2017-02-09 10:23:47.621503+01 | 1486632227.6215 |                 0 |               6 |                  2734 |                  157 |             338781 |        836405 |             8314 |        13543244 |                     0 |      14349017 | 2017-02-09 09:54:05.959359+01

 2017-02-09 10:23:48.687178+01 | 1486632228.68718 |                 0 |               6 |                  2734 |                  157 |             338781 |        837005 |             8320 |        13543244 |                     0 |      14355926 | 2017-02-09 09:54:05.959359+01

 2017-02-09 10:23:49.765226+01 | 1486632229.76523 |                 0 |               6 |                  2734 |                  157 |             338781 |        837505 |             8325 |        13543244 |                     0 |      14361923 | 2017-02-09 09:54:05.959359+01

 2017-02-09 10:23:50.844653+01 | 1486632230.84465 |                 0 |               6 |                  2734 |                  157 |             338781 |        838005 |             8330 |        13543244 |                     0 |      14367716 | 2017-02-09 09:54:05.959359+01

 2017-02-09 10:23:51.911602+01 | 1486632231.9116 |                 0 |               6 |                  2734 |                  157 |             338781 |        838605 |             8336 |        13543244 |                     0 |      14375893 | 2017-02-09 09:54:05.959359+01

 2017-02-09 10:23:52.976406+01 | 1486632232.97641 |                 0 |               6 |                  2734 |                  157 |             338781 |        839105 |             8341 |        13543244 |                     0 |      14382927 | 2017-02-09 09:54:05.959359+01

 2017-02-09 10:23:54.037157+01 | 1486632234.03716 |                 0 |               6 |                  2734 |                  157 |             338781 |        839605 |             8346 |        13543244 |                     0 |      14390396 | 2017-02-09 09:54:05.959359+01

 2017-02-09 10:23:55.092855+01 | 1486632235.09285 |                 0 |               6 |                  2734 |                  157 |             338781 |        840105 |             8351 |        13543244 |                     0 |      14399125 | 2017-02-09 09:54:05.959359+01

 2017-02-09 10:23:56.150238+01 | 1486632236.15024 |                 0 |               6 |                  2734 |                  157 |             338781 |        840705 |             8357 |        13543244 |                     0 |      14409424 | 2017-02-09 09:54:05.959359+01

 2017-02-09 10:23:57.202671+01 | 1486632237.20267 |                 0 |               6 |                  2734 |                  157 |             338781 |        841205 |             8362 |        13604081 |                     0 |      14418854 | 2017-02-09 09:54:05.959359+01

 2017-02-09 10:23:58.253823+01 | 1486632238.25382 |                 0 |               6 |                  2734 |                  157 |             338781 |        841705 |             8367 |        13604081 |                     0 |      14428299 | 2017-02-09 09:54:05.959359+01

 2017-02-09 10:23:59.310914+01 | 1486632239.31091 |                 0 |               6 |                  2734 |                  157 |             338781 |        842205 |             8372 |        13604081 |                     0 |      14436207 | 2017-02-09 09:54:05.959359+01

 2017-02-09 10:24:00.382003+01 | 1486632240.382 |                 0 |               6 |                  2734 |                  157 |             338781 |        842805 |             8378 |        13604081 |                     0 |      14443243 | 2017-02-09 09:54:05.959359+01

 2017-02-09 10:24:01.458074+01 | 1486632241.45807 |                 0 |               6 |                  2734 |                  157 |             338781 |        843305 |             8383 |        13604081 |                     0 |      14449457 | 2017-02-09 09:54:05.959359+01

 2017-02-09 10:24:02.527963+01 | 1486632242.52796 |                 0 |               6 |                  2734 |                  157 |             338781 |        843805 |             8388 |        13604081 |                     0 |      14455357 | 2017-02-09 09:54:05.959359+01

 2017-02-09 10:24:03.591528+01 | 1486632243.59153 |                 0 |               6 |                  2734 |                  157 |             338781 |        844405 |             8394 |        13604081 |                     0 |      14462489 | 2017-02-09 09:54:05.959359+01

 2017-02-09 10:24:04.654889+01 | 1486632244.65489 |                 0 |               6 |                  2734 |                  157 |             338781 |        844905 |             8399 |        13604081 |                     0 |      14468453 | 2017-02-09 09:54:05.959359+01

 2017-02-09 10:24:05.709296+01 | 1486632245.7093 |                 0 |               6 |                  2734 |                  157 |             338781 |        845305 |             8403 |        13604081 |                     0 |      14473354 | 2017-02-09 09:54:05.959359+01

 2017-02-09 10:24:06.788626+01 | 1486632246.78863 |                 0 |               6 |                  2734 |                  157 |             338781 |        846005 |             8410 |        13604081 |                     0 |      14482066 | 2017-02-09 09:54:05.959359+01

 2017-02-09 10:24:07.855435+01 | 1486632247.85543 |                 0 |               6 |                  2734 |                  157 |             338781 |        846505 |             8415 |        13604081 |                     0 |      14488301 | 2017-02-09 09:54:05.959359+01

 2017-02-09 10:24:08.919362+01 | 1486632248.91936 |                 0 |               6 |                  2734 |                  157 |             338781 |        847005 |             8420 |        13604081 |                     0 |      14494611 | 2017-02-09 09:54:05.959359+01

 2017-02-09 10:24:09.977735+01 | 1486632249.97774 |                 0 |               6 |                  2734 |                  157 |             338781 |        847605 |             8426 |        13604081 |                     0 |      14502088 | 2017-02-09 09:54:05.959359+01

 2017-02-09 10:24:11.039088+01 | 1486632251.03909 |                 0 |               6 |                  2734 |                  157 |             338781 |        848105 |             8431 |        13604081 |                     0 |      14508360 | 2017-02-09 09:54:05.959359+01

 2017-02-09 10:24:12.105166+01 | 1486632252.10517 |                 0 |               6 |                  2734 |                  157 |             338781 |        848605 |             8436 |        13662318 |                     0 |      14514152 | 2017-02-09 09:54:05.959359+01

 2017-02-09 10:24:13.159775+01 | 1486632253.15978 |                 0 |               6 |                  2734 |                  157 |             338781 |        849105 |             8441 |        13662318 |                     0 |      14520392 | 2017-02-09 09:54:05.959359+01

 2017-02-09 10:24:14.219613+01 | 1486632254.21961 |                 0 |               6 |                  2734 |                  157 |             338781 |        849705 |             8447 |        13662318 |                     0 |      14527683 | 2017-02-09 09:54:05.959359+01

 2017-02-09 10:24:15.278923+01 | 1486632255.27892 |                 0 |               6 |                  2734 |                  157 |             338781 |        850205 |             8452 |        13662318 |                     0 |      14533972 | 2017-02-09 09:54:05.959359+01

 2017-02-09 10:24:16.334395+01 | 1486632256.33439 |                 0 |               6 |                  2734 |                  157 |             338781 |        850705 |             8457 |        13662318 |                     0 |      14540005 | 2017-02-09 09:54:05.959359+01

 2017-02-09 10:24:17.398874+01 | 1486632257.39887 |                 0 |               6 |                  2734 |                  157 |             338781 |        851205 |             8462 |        13662318 |                     0 |      14546341 | 2017-02-09 09:54:05.959359+01

 2017-02-09 10:24:18.456532+01 | 1486632258.45653 |                 0 |               6 |                  2734 |                  157 |             338781 |        851805 |             8468 |        13662318 |                     0 |      14553579 | 2017-02-09 09:54:05.959359+01

 2017-02-09 10:24:19.527973+01 | 1486632259.52797 |                 0 |               6 |                  2734 |                  157 |             338781 |        852305 |             8473 |        13662318 |                     0 |      14559846 | 2017-02-09 09:54:05.959359+01

 2017-02-09 10:24:20.590368+01 | 1486632260.59037 |                 0 |               6 |                  2734 |                  157 |             338781 |        852805 |             8478 |        13662318 |                     0 |      14565732 | 2017-02-09 09:54:05.959359+01

 2017-02-09 10:24:21.647551+01 | 1486632261.64755 |                 0 |               6 |                  2734 |                  157 |             338781 |        853305 |             8483 |        13662318 |                     0 |      14571913 | 2017-02-09 09:54:05.959359+01

 2017-02-09 10:24:22.709576+01 | 1486632262.70958 |                 0 |               6 |                  2734 |                  157 |             338781 |        853905 |             8489 |        13662318 |                     0 |      14579181 | 2017-02-09 09:54:05.959359+01

 2017-02-09 10:24:23.7663+01 | 1486632263.7663 |                 0 |               6 |                  2734 |                  157 |             338781 |        854405 |             8494 |        13662318 |                     0 |      14585253 | 2017-02-09 09:54:05.959359+01

 2017-02-09 10:24:24.827412+01 | 1486632264.82741 |                 0 |               6 |                  2734 |                  157 |             338781 |        854905 |             8499 |        13662318 |                     0 |      14590920 | 2017-02-09 09:54:05.959359+01

 2017-02-09 10:24:25.89471+01 | 1486632265.89471 |                 0 |               6 |                  2734 |                  157 |             338781 |        855505 |             8505 |        13662318 |                     0 |      14597963 | 2017-02-09 09:54:05.959359+01

 2017-02-09 10:24:26.957547+01 | 1486632266.95755 |                 0 |               6 |                  2734 |                  157 |             338781 |        856005 |             8510 |        13720754 |                     0 |      14604179 | 2017-02-09 09:54:05.959359+01

 2017-02-09 10:24:28.016083+01 | 1486632268.01608 |                 0 |               6 |                  2734 |                  157 |             338781 |        856505 |             8515 |        13720754 |                     0 |      14609967 | 2017-02-09 09:54:05.959359+01

 2017-02-09 10:24:29.085269+01 | 1486632269.08527 |                 0 |               6 |                  2734 |                  157 |             338781 |        857005 |             8520 |        13720754 |                     0 |      14616164 | 2017-02-09 09:54:05.959359+01

 2017-02-09 10:24:30.142063+01 | 1486632270.14206 |                 0 |               6 |                  2734 |                  157 |             338781 |        857605 |             8526 |        13720754 |                     0 |      14623427 | 2017-02-09 09:54:05.959359+01

 2017-02-09 10:24:31.198786+01 | 1486632271.19879 |                 0 |               6 |                  2734 |                  157 |             338781 |        858105 |             8531 |        13720754 |                     0 |      14629833 | 2017-02-09 09:54:05.959359+01

 2017-02-09 10:24:32.261986+01 | 1486632272.26199 |                 0 |               6 |                  2734 |                  157 |             338781 |        858605 |             8536 |        13720754 |                     0 |      14635763 | 2017-02-09 09:54:05.959359+01

 2017-02-09 10:24:33.327838+01 | 1486632273.32784 |                 0 |               6 |                  2734 |                  157 |             338781 |        859205 |             8542 |        13720754 |                     0 |      14643160 | 2017-02-09 09:54:05.959359+01

 2017-02-09 10:24:34.383754+01 | 1486632274.38375 |                 0 |               6 |                  2734 |                  157 |             338781 |        859705 |             8547 |        13720754 |                     0 |      14649120 | 2017-02-09 09:54:05.959359+01

 2017-02-09 10:24:35.4444+01 | 1486632275.4444 |                 0 |               6 |                  2734 |                  157 |             338781 |        860205 |             8552 |        13720754 |                     0 |      14655295 | 2017-02-09 09:54:05.959359+01

 2017-02-09 10:24:36.5074+01 | 1486632276.5074 |                 0 |               6 |                  2734 |                  157 |             338781 |        860705 |             8557 |        13720754 |                     0 |      14661278 | 2017-02-09 09:54:05.959359+01

 2017-02-09 10:24:37.553112+01 | 1486632277.55311 |                 0 |               6 |                  2734 |                  157 |             338781 |        861205 |             8562 |        13720754 |                     0 |      14667321 | 2017-02-09 09:54:05.959359+01

 2017-02-09 10:24:38.609513+01 | 1486632278.60951 |                 0 |               6 |                  2734 |                  157 |             338781 |        861805 |             8568 |        13720754 |                     0 |      14674582 | 2017-02-09 09:54:05.959359+01

 2017-02-09 10:24:39.666146+01 | 1486632279.66615 |                 0 |               6 |                  2734 |                  157 |             338781 |        862305 |             8573 |        13779591 |                     0 |      14680287 | 2017-02-09 09:54:05.959359+01

 2017-02-09 10:24:40.735401+01 | 1486632280.7354 |                 0 |               6 |                  2734 |                  157 |             338781 |        862805 |             8578 |        13779591 |                     0 |      14686294 | 2017-02-09 09:54:05.959359+01

 2017-02-09 10:24:41.809271+01 | 1486632281.80927 |                 0 |               6 |                  2734 |                  157 |             338781 |        863405 |             8584 |        13779591 |                     0 |      14693487 | 2017-02-09 09:54:05.959359+01

 2017-02-09 10:24:42.871226+01 | 1486632282.87123 |                 0 |               6 |                  2734 |                  157 |             338781 |        863905 |             8589 |        13779591 |                     0 |      14699032 | 2017-02-09 09:54:05.959359+01

 2017-02-09 10:24:43.93235+01 | 1486632283.93235 |                 0 |               6 |                  2734 |                  157 |             338781 |        864405 |             8594 |        13779591 |                     0 |      14704812 | 2017-02-09 09:54:05.959359+01

 2017-02-09 10:24:45.000268+01 | 1486632285.00027 |                 0 |               6 |                  2734 |                  157 |             338781 |        865005 |             8600 |        13779591 |                     0 |      14711925 | 2017-02-09 09:54:05.959359+01

 2017-02-09 10:24:46.060088+01 | 1486632286.06009 |                 0 |               6 |                  2734 |                  157 |             338781 |        865505 |             8605 |        13779591 |                     0 |      14717565 | 2017-02-09 09:54:05.959359+01

 2017-02-09 10:24:47.127372+01 | 1486632287.12737 |                 0 |               6 |                  2734 |                  157 |             338781 |        866005 |             8610 |        13779591 |                     0 |      14723404 | 2017-02-09 09:54:05.959359+01

 2017-02-09 10:24:48.190534+01 | 1486632288.19053 |                 0 |               6 |                  2734 |                  157 |             338781 |        866505 |             8615 |        13779591 |                     0 |      14729492 | 2017-02-09 09:54:05.959359+01

 2017-02-09 10:24:49.255963+01 | 1486632289.25596 |                 0 |               6 |                  2734 |                  157 |             338781 |        867105 |             8621 |        13779591 |                     0 |      14736511 | 2017-02-09 09:54:05.959359+01

 2017-02-09 10:24:50.313159+01 | 1486632290.31316 |                 0 |               6 |                  2734 |                  157 |             338781 |        867605 |             8626 |        13779591 |                     0 |      14742484 | 2017-02-09 09:54:05.959359+01

 2017-02-09 10:24:51.372911+01 | 1486632291.37291 |                 0 |               6 |                  2734 |                  157 |             338781 |        868105 |             8631 |        13839528 |                     0 |      14748628 | 2017-02-09 09:54:05.959359+01

 2017-02-09 10:24:52.432962+01 | 1486632292.43296 |                 0 |               6 |                  2734 |                  157 |             338781 |        868705 |             8637 |        13839528 |                     0 |      14755582 | 2017-02-09 09:54:05.959359+01

 2017-02-09 10:24:53.499899+01 | 1486632293.4999 |                 0 |               6 |                  2734 |                  157 |             338781 |        869205 |             8642 |        13839528 |                     0 |      14761360 | 2017-02-09 09:54:05.959359+01

 2017-02-09 10:24:54.557818+01 | 1486632294.55782 |                 0 |               6 |                  2734 |                  157 |             338781 |        869705 |             8647 |        13839528 |                     0 |      14767213 | 2017-02-09 09:54:05.959359+01

 2017-02-09 10:24:55.624205+01 | 1486632295.62421 |                 0 |               6 |                  2734 |                  157 |             338781 |        870205 |             8652 |        13839528 |                     0 |      14773334 | 2017-02-09 09:54:05.959359+01

 2017-02-09 10:24:56.687668+01 | 1486632296.68767 |                 0 |               6 |                  2734 |                  157 |             338781 |        870805 |             8658 |        13839528 |                     0 |      14780415 | 2017-02-09 09:54:05.959359+01

 2017-02-09 10:24:57.753062+01 | 1486632297.75306 |                 0 |               6 |                  2734 |                  157 |             338781 |        871305 |             8663 |        13839528 |                     0 |      14786084 | 2017-02-09 09:54:05.959359+01

 2017-02-09 10:24:58.820507+01 | 1486632298.82051 |                 0 |               6 |                  2734 |                  157 |             338781 |        871805 |             8668 |        13839528 |                     0 |      14792087 | 2017-02-09 09:54:05.959359+01

