 2017-02-09 01:48:34.345648+01 | 1486601314.34565 | 0/E7DA7770               |            3889854320

 2017-02-09 01:48:35.588246+01 | 1486601315.58825 | 0/E7DA7770               |            3889854320

 2017-02-09 01:48:36.846982+01 | 1486601316.84698 | 0/E7DA7770               |            3889854320

 2017-02-09 01:48:38.10518+01 | 1486601318.10518 | 0/E7DA7770               |            3889854320

 2017-02-09 01:48:39.364854+01 | 1486601319.36485 | 0/E7DA7770               |            3889854320

 2017-02-09 01:48:40.624536+01 | 1486601320.62454 | 0/E7DA7770               |            3889854320

 2017-02-09 01:48:41.880934+01 | 1486601321.88093 | 0/E7DA7770               |            3889854320

 2017-02-09 01:48:43.124306+01 | 1486601323.12431 | 0/E7DA7770               |            3889854320

 2017-02-09 01:48:44.385445+01 | 1486601324.38545 | 0/E7DA7770               |            3889854320

 2017-02-09 01:48:45.641913+01 | 1486601325.64191 | 0/E7DA7770               |            3889854320

 2017-02-09 01:48:46.90292+01 | 1486601326.90292 | 0/E7DA7770               |            3889854320

 2017-02-09 01:48:48.14071+01 | 1486601328.14071 | 0/E7DA7770               |            3889854320

 2017-02-09 01:48:49.400218+01 | 1486601329.40022 | 0/E7DA77A8               |            3889854376

 2017-02-09 01:48:50.658259+01 | 1486601330.65826 | 0/E7DA77A8               |            3889854376

 2017-02-09 01:48:51.917915+01 | 1486601331.91792 | 0/E7DA77A8               |            3889854376

 2017-02-09 01:48:53.175187+01 | 1486601333.17519 | 0/E7DA77A8               |            3889854376

 2017-02-09 01:48:54.439445+01 | 1486601334.43945 | 0/E7DA77A8               |            3889854376

 2017-02-09 01:48:55.696365+01 | 1486601335.69637 | 0/E7DA77A8               |            3889854376

 2017-02-09 01:48:56.942734+01 | 1486601336.94273 | 0/E7DA77A8               |            3889854376

 2017-02-09 01:48:58.208257+01 | 1486601338.20826 | 0/E7DA77A8               |            3889854376

 2017-02-09 01:48:59.461102+01 | 1486601339.4611 | 0/E7DA77A8               |            3889854376

 2017-02-09 01:49:00.690781+01 | 1486601340.69078 | 0/E7DA77A8               |            3889854376

 2017-02-09 01:49:01.949722+01 | 1486601341.94972 | 0/E7DA77A8               |            3889854376

 2017-02-09 01:49:03.208308+01 | 1486601343.20831 | 0/E7DA77A8               |            3889854376

 2017-02-09 01:49:04.461588+01 | 1486601344.46159 | 0/E7DA77A8               |            3889854376

 2017-02-09 01:49:05.720452+01 | 1486601345.72045 | 0/E7DA77A8               |            3889854376

 2017-02-09 01:49:06.982869+01 | 1486601346.98287 | 0/E7DA77A8               |            3889854376

 2017-02-09 01:49:08.239086+01 | 1486601348.23909 | 0/E7DA77A8               |            3889854376

 2017-02-09 01:49:09.496672+01 | 1486601349.49667 | 0/E7DA77A8               |            3889854376

 2017-02-09 01:49:10.745121+01 | 1486601350.74512 | 0/E7DA77A8               |            3889854376

 2017-02-09 01:49:12.004751+01 | 1486601352.00475 | 0/E7DA77A8               |            3889854376

 2017-02-09 01:49:13.25978+01 | 1486601353.25978 | 0/E7DA77A8               |            3889854376

 2017-02-09 01:49:14.527448+01 | 1486601354.52745 | 0/E7DA77A8               |            3889854376

 2017-02-09 01:49:15.776523+01 | 1486601355.77652 | 0/E7DA77A8               |            3889854376

 2017-02-09 01:49:17.042001+01 | 1486601357.042 | 0/E7DA77A8               |            3889854376

 2017-02-09 01:49:18.300615+01 | 1486601358.30062 | 0/E7DA77A8               |            3889854376

 2017-02-09 01:49:19.51609+01 | 1486601359.51609 | 0/E7DA77A8               |            3889854376

 2017-02-09 01:49:20.776438+01 | 1486601360.77644 | 0/E7DA77A8               |            3889854376

 2017-02-09 01:49:22.034893+01 | 1486601362.03489 | 0/E7DA77A8               |            3889854376

 2017-02-09 01:49:23.294127+01 | 1486601363.29413 | 0/E7DA77A8               |            3889854376

 2017-02-09 01:49:24.550194+01 | 1486601364.55019 | 0/E7DA77A8               |            3889854376

 2017-02-09 01:49:25.794428+01 | 1486601365.79443 | 0/E7DA77A8               |            3889854376

 2017-02-09 01:49:27.057811+01 | 1486601367.05781 | 0/E7DA77A8               |            3889854376

 2017-02-09 01:49:28.319901+01 | 1486601368.3199 | 0/E7DA77A8               |            3889854376

 2017-02-09 01:49:29.578135+01 | 1486601369.57814 | 0/E7DA77A8               |            3889854376

 2017-02-09 01:49:30.822198+01 | 1486601370.8222 | 0/E7DA77A8               |            3889854376

 2017-02-09 01:49:32.027978+01 | 1486601372.02798 | 0/E7DA77A8               |            3889854376

 2017-02-09 01:49:33.269281+01 | 1486601373.26928 | 0/E7DA77A8               |            3889854376

 2017-02-09 01:49:34.484693+01 | 1486601374.48469 | 0/E7DA77A8               |            3889854376

 2017-02-09 01:49:35.748598+01 | 1486601375.7486 | 0/E7DA77A8               |            3889854376

 2017-02-09 01:49:36.990925+01 | 1486601376.99093 | 0/E7DA77A8               |            3889854376

 2017-02-09 01:49:38.25296+01 | 1486601378.25296 | 0/E7DA77A8               |            3889854376

 2017-02-09 01:49:39.513875+01 | 1486601379.51388 | 0/E7DA77A8               |            3889854376

 2017-02-09 01:49:40.717481+01 | 1486601380.71748 | 0/E7DA77A8               |            3889854376

 2017-02-09 01:49:41.901046+01 | 1486601381.90105 | 0/E7DA77A8               |            3889854376

 2017-02-09 01:49:43.158609+01 | 1486601383.15861 | 0/E7DA77A8               |            3889854376

 2017-02-09 01:49:44.437336+01 | 1486601384.43734 | 0/E7DA77A8               |            3889854376

 2017-02-09 01:49:45.685191+01 | 1486601385.68519 | 0/E7DA77A8               |            3889854376

 2017-02-09 01:49:46.949782+01 | 1486601386.94978 | 0/E7DA77A8               |            3889854376

 2017-02-09 01:49:48.220754+01 | 1486601388.22075 | 0/E7DA77A8               |            3889854376

 2017-02-09 01:49:49.43944+01 | 1486601389.43944 | 0/E7DA77A8               |            3889854376

 2017-02-09 01:49:50.68873+01 | 1486601390.68873 | 0/E7DA77A8               |            3889854376

 2017-02-09 01:49:51.943381+01 | 1486601391.94338 | 0/E7DA77A8               |            3889854376

 2017-02-09 01:49:53.175736+01 | 1486601393.17574 | 0/E7DA77A8               |            3889854376

 2017-02-09 01:49:54.427093+01 | 1486601394.42709 | 0/E7DA77A8               |            3889854376

 2017-02-09 01:49:55.651078+01 | 1486601395.65108 | 0/E7DA77A8               |            3889854376

 2017-02-09 01:49:56.890963+01 | 1486601396.89096 | 0/E7DA77A8               |            3889854376

 2017-02-09 01:49:58.138717+01 | 1486601398.13872 | 0/E7DA77A8               |            3889854376

 2017-02-09 01:49:59.417765+01 | 1486601399.41776 | 0/E7DA77A8               |            3889854376

 2017-02-09 01:50:00.653249+01 | 1486601400.65325 | 0/E7DA77A8               |            3889854376

 2017-02-09 01:50:01.899894+01 | 1486601401.89989 | 0/E7DA77A8               |            3889854376

 2017-02-09 01:50:03.159723+01 | 1486601403.15972 | 0/E7DA77A8               |            3889854376

 2017-02-09 01:50:04.413867+01 | 1486601404.41387 | 0/E7DA77A8               |            3889854376

 2017-02-09 01:50:05.640866+01 | 1486601405.64087 | 0/E7DA77A8               |            3889854376

 2017-02-09 01:50:06.91135+01 | 1486601406.91135 | 0/E7DA77A8               |            3889854376

 2017-02-09 01:50:08.186642+01 | 1486601408.18664 | 0/E7DA77A8               |            3889854376

 2017-02-09 01:50:09.433874+01 | 1486601409.43387 | 0/E7DA77A8               |            3889854376

 2017-02-09 01:50:10.666027+01 | 1486601410.66603 | 0/E7DA77A8               |            3889854376

 2017-02-09 01:50:11.875262+01 | 1486601411.87526 | 0/E7DA77A8               |            3889854376

 2017-02-09 01:50:13.128941+01 | 1486601413.12894 | 0/E7DA77A8               |            3889854376

 2017-02-09 01:50:14.404088+01 | 1486601414.40409 | 0/E7DA77A8               |            3889854376

 2017-02-09 01:50:15.643262+01 | 1486601415.64326 | 0/E7DA77A8               |            3889854376

 2017-02-09 01:50:16.890731+01 | 1486601416.89073 | 0/E7DA77A8               |            3889854376

 2017-02-09 01:50:18.195633+01 | 1486601418.19563 | 0/E7DA77A8               |            3889854376

 2017-02-09 01:50:19.449656+01 | 1486601419.44966 | 0/E7DA77A8               |            3889854376

 2017-02-09 01:50:20.704704+01 | 1486601420.7047 | 0/E7DA77A8               |            3889854376

 2017-02-09 01:50:21.933867+01 | 1486601421.93387 | 0/E7DA77A8               |            3889854376

 2017-02-09 01:50:23.249701+01 | 1486601423.2497 | 0/E7DA77A8               |            3889854376

 2017-02-09 01:50:24.511022+01 | 1486601424.51102 | 0/E7DA77A8               |            3889854376

 2017-02-09 01:50:25.742939+01 | 1486601425.74294 | 0/E7DA77A8               |            3889854376

 2017-02-09 01:50:27.013585+01 | 1486601427.01359 | 0/E7DA77A8               |            3889854376

 2017-02-09 01:50:28.27056+01 | 1486601428.27056 | 0/E7DA77A8               |            3889854376

 2017-02-09 01:50:29.463241+01 | 1486601429.46324 | 0/E7DA77A8               |            3889854376

 2017-02-09 01:50:30.708286+01 | 1486601430.70829 | 0/E7DA77A8               |            3889854376

 2017-02-09 01:50:31.931804+01 | 1486601431.9318 | 0/E7DA77A8               |            3889854376

 2017-02-09 01:50:33.166667+01 | 1486601433.16667 | 0/E7DA77A8               |            3889854376

 2017-02-09 01:50:34.351635+01 | 1486601434.35163 | 0/E7DA77A8               |            3889854376

 2017-02-09 01:50:35.590463+01 | 1486601435.59046 | 0/E7DA77A8               |            3889854376

 2017-02-09 01:50:36.740997+01 | 1486601436.741 | 0/E7DA77A8               |            3889854376

 2017-02-09 01:50:38.006153+01 | 1486601438.00615 | 0/E7DA77A8               |            3889854376

 2017-02-09 01:50:39.239876+01 | 1486601439.23988 | 0/E7DA77A8               |            3889854376

 2017-02-09 01:50:40.459217+01 | 1486601440.45922 | 0/E7DA77A8               |            3889854376

 2017-02-09 01:50:41.706997+01 | 1486601441.707 | 0/E7DA77A8               |            3889854376

 2017-02-09 01:50:42.957836+01 | 1486601442.95784 | 0/E7DA77A8               |            3889854376

 2017-02-09 01:50:44.208639+01 | 1486601444.20864 | 0/E7DA77A8               |            3889854376

 2017-02-09 01:50:45.453893+01 | 1486601445.45389 | 0/E7DA77A8               |            3889854376

 2017-02-09 01:50:46.689031+01 | 1486601446.68903 | 0/E7DA77A8               |            3889854376

 2017-02-09 01:50:47.918093+01 | 1486601447.91809 | 0/E7DA77A8               |            3889854376

 2017-02-09 01:50:49.16019+01 | 1486601449.16019 | 0/E7DA77A8               |            3889854376

 2017-02-09 01:50:50.391997+01 | 1486601450.392 | 0/E7DA77A8               |            3889854376

 2017-02-09 01:50:51.570247+01 | 1486601451.57025 | 0/E7DA77A8               |            3889854376

 2017-02-09 01:50:52.767158+01 | 1486601452.76716 | 0/E7DA77A8               |            3889854376

 2017-02-09 01:50:54.059852+01 | 1486601454.05985 | 0/E7DA77A8               |            3889854376

 2017-02-09 01:50:55.311448+01 | 1486601455.31145 | 0/E7DA77A8               |            3889854376

 2017-02-09 01:50:56.55326+01 | 1486601456.55326 | 0/E7DA77A8               |            3889854376

 2017-02-09 01:50:57.851178+01 | 1486601457.85118 | 0/E7DA77A8               |            3889854376

 2017-02-09 01:50:59.079531+01 | 1486601459.07953 | 0/E7DA77A8               |            3889854376

 2017-02-09 01:51:00.300685+01 | 1486601460.30068 | 0/E7DA77A8               |            3889854376

 2017-02-09 01:51:01.548601+01 | 1486601461.5486 | 0/E7DA77A8               |            3889854376

 2017-02-09 01:51:02.837197+01 | 1486601462.8372 | 0/E7DA77A8               |            3889854376

 2017-02-09 01:51:04.117434+01 | 1486601464.11743 | 0/E7DA77A8               |            3889854376

 2017-02-09 01:51:05.367002+01 | 1486601465.367 | 0/E7DA77A8               |            3889854376

 2017-02-09 01:51:06.648397+01 | 1486601466.6484 | 0/E7DA77A8               |            3889854376

 2017-02-09 01:51:07.888472+01 | 1486601467.88847 | 0/E7DA77A8               |            3889854376

 2017-02-09 01:51:09.129952+01 | 1486601469.12995 | 0/E7DA77A8               |            3889854376

 2017-02-09 01:51:10.342025+01 | 1486601470.34203 | 0/E7DA77A8               |            3889854376

 2017-02-09 01:51:11.577145+01 | 1486601471.57715 | 0/E7DA77A8               |            3889854376

 2017-02-09 01:51:12.822312+01 | 1486601472.82231 | 0/E7DA77A8               |            3889854376

 2017-02-09 01:51:14.007152+01 | 1486601474.00715 | 0/E7DA77A8               |            3889854376

 2017-02-09 01:51:15.22572+01 | 1486601475.22572 | 0/E7DA77A8               |            3889854376

 2017-02-09 01:51:16.41109+01 | 1486601476.41109 | 0/E7DA77A8               |            3889854376

 2017-02-09 01:51:17.621846+01 | 1486601477.62185 | 0/E7DA77A8               |            3889854376

 2017-02-09 01:51:18.887674+01 | 1486601478.88767 | 0/E7DA77A8               |            3889854376

 2017-02-09 01:51:20.078497+01 | 1486601480.0785 | 0/E7DA77A8               |            3889854376

 2017-02-09 01:51:21.360295+01 | 1486601481.3603 | 0/E7DA77A8               |            3889854376

 2017-02-09 01:51:22.626046+01 | 1486601482.62605 | 0/E7DA77A8               |            3889854376

 2017-02-09 01:51:23.878179+01 | 1486601483.87818 | 0/E7DA77A8               |            3889854376

 2017-02-09 01:51:25.148018+01 | 1486601485.14802 | 0/E7DA77A8               |            3889854376

 2017-02-09 01:51:26.42588+01 | 1486601486.42588 | 0/E7DA77A8               |            3889854376

 2017-02-09 01:51:27.556838+01 | 1486601487.55684 | 0/E7DA77A8               |            3889854376

 2017-02-09 01:51:28.839769+01 | 1486601488.83977 | 0/E7DA77A8               |            3889854376

 2017-02-09 01:51:30.081413+01 | 1486601490.08141 | 0/E7DA77A8               |            3889854376

 2017-02-09 01:51:31.377211+01 | 1486601491.37721 | 0/E7DA77A8               |            3889854376

 2017-02-09 01:51:32.671393+01 | 1486601492.67139 | 0/E7DA77A8               |            3889854376

 2017-02-09 01:51:33.962451+01 | 1486601493.96245 | 0/E7DA77A8               |            3889854376

 2017-02-09 01:51:35.213989+01 | 1486601495.21399 | 0/E7DA77A8               |            3889854376

 2017-02-09 01:51:36.430288+01 | 1486601496.43029 | 0/E7DA77A8               |            3889854376

 2017-02-09 01:51:37.653736+01 | 1486601497.65374 | 0/E7DA77A8               |            3889854376

 2017-02-09 01:51:38.924852+01 | 1486601498.92485 | 0/E7DA77A8               |            3889854376

 2017-02-09 01:51:40.164949+01 | 1486601500.16495 | 0/E7DA77A8               |            3889854376

 2017-02-09 01:51:41.411993+01 | 1486601501.41199 | 0/E7DA77A8               |            3889854376

 2017-02-09 01:51:42.587581+01 | 1486601502.58758 | 0/E7DA77A8               |            3889854376

 2017-02-09 01:51:43.832598+01 | 1486601503.8326 | 0/E7DA77A8               |            3889854376

 2017-02-09 01:51:45.083534+01 | 1486601505.08353 | 0/E7DA77A8               |            3889854376

 2017-02-09 01:51:46.340733+01 | 1486601506.34073 | 0/E7DA77A8               |            3889854376

 2017-02-09 01:51:47.553264+01 | 1486601507.55326 | 0/E7DA77A8               |            3889854376

 2017-02-09 01:51:48.814637+01 | 1486601508.81464 | 0/E7DA77A8               |            3889854376

 2017-02-09 01:51:50.036227+01 | 1486601510.03623 | 0/E7DA77A8               |            3889854376

 2017-02-09 01:51:51.306391+01 | 1486601511.30639 | 0/E7DA77A8               |            3889854376

 2017-02-09 01:51:52.456963+01 | 1486601512.45696 | 0/E7DA77A8               |            3889854376

 2017-02-09 01:51:53.660944+01 | 1486601513.66094 | 0/E7DA77A8               |            3889854376

 2017-02-09 01:51:54.887269+01 | 1486601514.88727 | 0/E7DA77A8               |            3889854376

 2017-02-09 01:51:56.058398+01 | 1486601516.0584 | 0/E7DA77A8               |            3889854376

 2017-02-09 01:51:57.292288+01 | 1486601517.29229 | 0/E7DA77A8               |            3889854376

 2017-02-09 01:51:58.532817+01 | 1486601518.53282 | 0/E7DA77A8               |            3889854376

 2017-02-09 01:51:59.778812+01 | 1486601519.77881 | 0/E7DA77A8               |            3889854376

 2017-02-09 01:52:00.95663+01 | 1486601520.95663 | 0/E7DA77A8               |            3889854376

 2017-02-09 01:52:02.202332+01 | 1486601522.20233 | 0/E7DA77A8               |            3889854376

 2017-02-09 01:52:03.450595+01 | 1486601523.45059 | 0/E7DA77A8               |            3889854376

 2017-02-09 01:52:04.745748+01 | 1486601524.74575 | 0/E7DA77A8               |            3889854376

 2017-02-09 01:52:05.997557+01 | 1486601525.99756 | 0/E7DA77A8               |            3889854376

 2017-02-09 01:52:07.237086+01 | 1486601527.23709 | 0/E7DA77A8               |            3889854376

 2017-02-09 01:52:08.477636+01 | 1486601528.47764 | 0/E7DA77A8               |            3889854376

 2017-02-09 01:52:09.69188+01 | 1486601529.69188 | 0/E7DA77A8               |            3889854376

 2017-02-09 01:52:10.93953+01 | 1486601530.93953 | 0/E7DA77A8               |            3889854376

 2017-02-09 01:52:12.197128+01 | 1486601532.19713 | 0/E7DA77A8               |            3889854376

 2017-02-09 01:52:13.39763+01 | 1486601533.39763 | 0/E7DA77A8               |            3889854376

 2017-02-09 01:52:14.582709+01 | 1486601534.58271 | 0/E7DA77A8               |            3889854376

 2017-02-09 01:52:15.819307+01 | 1486601535.81931 | 0/E7DA77A8               |            3889854376

 2017-02-09 01:52:17.051523+01 | 1486601537.05152 | 0/E7DA77A8               |            3889854376

 2017-02-09 01:52:18.293751+01 | 1486601538.29375 | 0/E7DA77A8               |            3889854376

 2017-02-09 01:52:19.503692+01 | 1486601539.50369 | 0/E7DA77A8               |            3889854376

 2017-02-09 01:52:20.729859+01 | 1486601540.72986 | 0/E7DA77A8               |            3889854376

 2017-02-09 01:52:21.978981+01 | 1486601541.97898 | 0/E7DA77A8               |            3889854376

 2017-02-09 01:52:23.174102+01 | 1486601543.1741 | 0/E7DA77A8               |            3889854376

 2017-02-09 01:52:24.415068+01 | 1486601544.41507 | 0/E7DA77A8               |            3889854376

 2017-02-09 01:52:25.703729+01 | 1486601545.70373 | 0/E7DA77A8               |            3889854376

 2017-02-09 01:52:26.984058+01 | 1486601546.98406 | 0/E7DA77A8               |            3889854376

 2017-02-09 01:52:28.245666+01 | 1486601548.24567 | 0/E7DA77A8               |            3889854376

 2017-02-09 01:52:29.481205+01 | 1486601549.4812 | 0/E7DA77A8               |            3889854376

 2017-02-09 01:52:30.664923+01 | 1486601550.66492 | 0/E7DA77A8               |            3889854376

 2017-02-09 01:52:31.881362+01 | 1486601551.88136 | 0/E7DA77A8               |            3889854376

 2017-02-09 01:52:33.054811+01 | 1486601553.05481 | 0/E7DA77A8               |            3889854376

 2017-02-09 01:52:34.323519+01 | 1486601554.32352 | 0/E7DA77A8               |            3889854376

 2017-02-09 01:52:35.587032+01 | 1486601555.58703 | 0/E7DA77A8               |            3889854376

 2017-02-09 01:52:36.850922+01 | 1486601556.85092 | 0/E7DA77A8               |            3889854376

 2017-02-09 01:52:38.116752+01 | 1486601558.11675 | 0/E7DA77A8               |            3889854376

 2017-02-09 01:52:39.410537+01 | 1486601559.41054 | 0/E7DA77A8               |            3889854376

 2017-02-09 01:52:40.629947+01 | 1486601560.62995 | 0/E7DA77A8               |            3889854376

 2017-02-09 01:52:41.869313+01 | 1486601561.86931 | 0/E7DA77A8               |            3889854376

 2017-02-09 01:52:43.124699+01 | 1486601563.1247 | 0/E7DA77A8               |            3889854376

 2017-02-09 01:52:44.339469+01 | 1486601564.33947 | 0/E7DA77A8               |            3889854376

 2017-02-09 01:52:45.600551+01 | 1486601565.60055 | 0/E7DA77A8               |            3889854376

 2017-02-09 01:52:46.833408+01 | 1486601566.83341 | 0/E7DA77A8               |            3889854376

 2017-02-09 01:52:48.051781+01 | 1486601568.05178 | 0/E7DA77A8               |            3889854376

 2017-02-09 01:52:49.299521+01 | 1486601569.29952 | 0/E7DA77A8               |            3889854376

 2017-02-09 01:52:50.495715+01 | 1486601570.49571 | 0/E7DA77A8               |            3889854376

 2017-02-09 01:52:51.725013+01 | 1486601571.72501 | 0/E7DA77A8               |            3889854376

 2017-02-09 01:52:53.002784+01 | 1486601573.00278 | 0/E7DA77A8               |            3889854376

 2017-02-09 01:52:54.292853+01 | 1486601574.29285 | 0/E7DA77A8               |            3889854376

 2017-02-09 01:52:55.54879+01 | 1486601575.54879 | 0/E7DA77A8               |            3889854376

 2017-02-09 01:52:56.744233+01 | 1486601576.74423 | 0/E7DA77A8               |            3889854376

 2017-02-09 01:52:57.969065+01 | 1486601577.96906 | 0/E7DA77A8               |            3889854376

 2017-02-09 01:52:59.221356+01 | 1486601579.22136 | 0/E7DA77A8               |            3889854376

 2017-02-09 01:53:00.480311+01 | 1486601580.48031 | 0/E7DA77A8               |            3889854376

 2017-02-09 01:53:01.707712+01 | 1486601581.70771 | 0/E7DA77A8               |            3889854376

 2017-02-09 01:53:03.01697+01 | 1486601583.01697 | 0/E7DA77A8               |            3889854376

 2017-02-09 01:53:04.232339+01 | 1486601584.23234 | 0/E7DA77A8               |            3889854376

 2017-02-09 01:53:05.486617+01 | 1486601585.48662 | 0/E7DA77A8               |            3889854376

 2017-02-09 01:53:06.69937+01 | 1486601586.69937 | 0/E7DA77A8               |            3889854376

 2017-02-09 01:53:07.940787+01 | 1486601587.94079 | 0/E7DA77A8               |            3889854376

 2017-02-09 01:53:09.164722+01 | 1486601589.16472 | 0/E7DA77A8               |            3889854376

 2017-02-09 01:53:10.415564+01 | 1486601590.41556 | 0/E7DA77A8               |            3889854376

 2017-02-09 01:53:11.656996+01 | 1486601591.657 | 0/E7DA77A8               |            3889854376

 2017-02-09 01:53:12.871133+01 | 1486601592.87113 | 0/E7DA77A8               |            3889854376

 2017-02-09 01:53:14.11799+01 | 1486601594.11799 | 0/E7DA77A8               |            3889854376

 2017-02-09 01:53:15.34982+01 | 1486601595.34982 | 0/E7DA77A8               |            3889854376

 2017-02-09 01:53:16.643157+01 | 1486601596.64316 | 0/E7DA77A8               |            3889854376

 2017-02-09 01:53:17.894724+01 | 1486601597.89472 | 0/E7DA77A8               |            3889854376

 2017-02-09 01:53:19.145441+01 | 1486601599.14544 | 0/E7DA77A8               |            3889854376

 2017-02-09 01:53:20.358457+01 | 1486601600.35846 | 0/E7DA77A8               |            3889854376

 2017-02-09 01:53:21.618556+01 | 1486601601.61856 | 0/E7DA77A8               |            3889854376

 2017-02-09 01:53:22.861447+01 | 1486601602.86145 | 0/E7DA77A8               |            3889854376

 2017-02-09 01:53:24.12338+01 | 1486601604.12338 | 0/E7DA77A8               |            3889854376

 2017-02-09 01:53:25.358611+01 | 1486601605.35861 | 0/E7DA77A8               |            3889854376

 2017-02-09 01:53:26.560031+01 | 1486601606.56003 | 0/E7DA77A8               |            3889854376

 2017-02-09 01:53:27.766285+01 | 1486601607.76628 | 0/E7DA77A8               |            3889854376

 2017-02-09 01:53:29.019722+01 | 1486601609.01972 | 0/E7DA77A8               |            3889854376

 2017-02-09 01:53:30.259692+01 | 1486601610.25969 | 0/E7DA77A8               |            3889854376

 2017-02-09 01:53:31.507749+01 | 1486601611.50775 | 0/E7DA77A8               |            3889854376

 2017-02-09 01:53:32.786173+01 | 1486601612.78617 | 0/E7DA77A8               |            3889854376

 2017-02-09 01:53:33.980868+01 | 1486601613.98087 | 0/E7DA77A8               |            3889854376

