1486512249.67609|||2
1486512249.80626|||6
1486512249.94354|||5
1486512250.07881|||5
1486512250.2165|||5
1486512250.35415|||5
1486512250.4917|||5
1486512250.6271|||5
1486512250.76476|||5
1486512250.90231|||5
1486512251.03773|||6
1486512251.1751|||5
1486512251.31265|||5
1486512251.44804|||5
1486512251.58563|||5
1486512251.72233|||5
1486512251.85982|||5
1486512251.99738|||5
1486512252.13493|||6
1486512252.27081|||5
1486512252.40538|||5
1486512252.542|||5
1486512252.67972|||5
1486512252.81732|||5
1486512252.95495|||5
1486512253.09149|||5
1486512253.22911|||5
1486512253.36435|Client|ClientRead|1
1486512253.36435|||5
1486512253.49985|||5
1486512253.63748|||5
1486512253.77514|||5
1486512253.91283|||5
1486512254.05046|||5
1486512254.188|||5
1486512254.32562|||5
1486512254.46329|||5
1486512254.60077|||5
1486512254.72315|||4
1486512254.72315|Client|ClientRead|1
1486512254.84913|||5
1486512254.9868|||5
1486512255.12465|||5
1486512255.26215|||5
1486512255.39973|||5
1486512255.53736|||5
1486512255.67507|||6
1486512255.79507|||5
1486512255.91894|||5
1486512256.05673|||5
1486512256.19216|||5
1486512256.32965|||5
1486512256.46308|||5
1486512256.6006|||5
1486512256.73749|||5
1486512256.87311|||5
1486512257.00145|||5
1486512257.11815|Client|ClientRead|1
1486512257.11815|||4
1486512257.2345|Client|ClientRead|1
1486512257.2345|||4
1486512257.34995|Client|ClientRead|2
1486512257.34995|||3
1486512257.46115|||4
1486512257.46115|Client|ClientRead|1
1486512257.58166|||5
1486512257.70292|Client|ClientRead|1
1486512257.70292|||4
1486512257.82605|||4
1486512257.82605|Client|ClientRead|1
1486512257.95916|Client|ClientRead|1
1486512257.95916|||4
1486512258.08343|Client|ClientRead|1
1486512258.08343|||4
1486512258.20785|Client|ClientRead|1
1486512258.20785|||4
1486512258.33642|Client|ClientRead|1
1486512258.33642|||4
1486512258.46453|||5
1486512258.59907|||5
1486512258.73677|||5
1486512258.87221|||5
1486512258.99907|||5
1486512259.13342|||6
1486512259.27186|||5
1486512259.40943|||5
1486512259.54702|||5
1486512259.68462|||5
1486512259.82236|||5
1486512259.95992|||5
1486512260.09549|||5
1486512260.23321|||6
1486512260.35693|||5
1486512260.46621|||5
1486512260.58466|Client|ClientRead|1
1486512260.58466|||4
1486512260.71111|||5
1486512260.84657|||5
1486512260.98088|||5
1486512261.11855|||5
1486512261.25214|||5
1486512261.3895|||6
1486512261.52459|||5
1486512261.65887|||5
1486512261.79659|||5
1486512261.93216|||5
1486512262.06977|||5
1486512262.20756|||5
1486512262.34551|||5
1486512262.48319|||5
1486512262.62079|||5
1486512262.75584|||5
1486512262.89371|||5
1486512263.0293|||5
1486512263.16582|||5
1486512263.30351|||5
1486512263.43417|||5
1486512263.56862|||5
1486512263.7063|||5
1486512263.84306|||6
1486512263.98073|||5
1486512264.11616|||5
1486512264.25373|||5
1486512264.38945|||5
1486512264.52705|||5
1486512264.6646|||5
1486512264.8013|||5
1486512264.93806|||5
1486512265.0631|Client|ClientRead|1
1486512265.0631|||5
1486512265.19183|||5
1486512265.32968|||5
1486512265.46734|||5
1486512265.60408|||5
1486512265.74147|||5
1486512265.87919|||5
1486512266.01673|||5
1486512266.15216|||5
1486512266.28738|||5
1486512266.42506|||5
1486512266.56273|||5
1486512266.70032|||5
1486512266.83596|||5
1486512266.97355|||5
1486512267.11119|||5
1486512267.24876|||5
1486512267.3844|||5
1486512267.5199|||5
1486512267.65766|||5
1486512267.7951|||5
1486512267.93254|||5
1486512268.06832|||5
1486512268.20595|||5
1486512268.34406|||5
1486512268.4806|||5
1486512268.61276|||5
1486512268.74757|||5
1486512268.88527|||5
1486512269.01979|||5
1486512269.15738|||5
1486512269.29496|||5
1486512269.43257|||5
1486512269.56822|||5
1486512269.70599|||5
1486512269.84351|||5
1486512269.98021|||5
1486512270.1177|||5
1486512270.25137|||5
1486512270.38882|||5
1486512270.52626|||5
1486512270.66389|||5
1486512270.80132|||5
1486512270.93572|||6
1486512271.07339|||5
1486512271.21094|||5
1486512271.34856|||5
1486512271.48637|||5
1486512271.62193|||5
1486512271.75946|||5
1486512271.89708|||5
1486512272.03481|||5
1486512272.16756|||6
1486512272.30541|||5
1486512272.44297|||5
1486512272.57964|||5
1486512272.71727|||5
1486512272.85513|||5
1486512272.99289|||5
1486512273.13043|||5
1486512273.26795|||5
1486512273.40513|Client|ClientRead|1
1486512273.40513|||5
1486512273.54267|||5
1486512273.67829|||5
1486512273.81585|||5
1486512273.95352|||5
1486512274.08914|||5
1486512274.22675|||5
1486512274.36446|||5
1486512274.50177|||6
1486512274.63729|||5
1486512274.77473|||5
1486512274.91222|||5
1486512275.04909|||5
1486512275.18661|||5
1486512275.32134|||5
1486512275.45903|||5
1486512275.59647|||5
1486512275.73222|||6
1486512275.86964|||5
1486512276.00724|||5
1486512276.14495|||5
1486512276.28254|||5
1486512276.42008|||5
1486512276.55789|||5
1486512276.6945|||5
1486512276.8319|||5
1486512276.96723|||5
1486512277.10345|||5
1486512277.24116|||5
1486512277.37886|||5
1486512277.51217|||5
1486512277.64975|||5
1486512277.77916|||4
1486512277.77916|Client|ClientRead|1
1486512277.89709|Client|ClientRead|1
1486512277.89709|||4
1486512278.01976|Client|ClientRead|1
1486512278.01976|||4
1486512278.14791|Client|ClientRead|1
1486512278.14791|||4
1486512278.27498|Client|ClientRead|1
1486512278.27498|||4
1486512278.39708|||4
1486512278.39708|Client|ClientRead|1
1486512278.53049|||4
1486512278.53049|Client|ClientRead|1
1486512278.65612|||5
1486512278.79416|||4
1486512278.79416|Client|ClientRead|1
1486512278.91164|||4
1486512278.91164|Client|ClientRead|1
1486512279.03239|||5
1486512279.15874|||4
1486512279.15874|Client|ClientRead|1
1486512279.29275|||5
1486512279.41421|||5
1486512279.52717|Client|ClientRead|1
1486512279.52717|||4
1486512279.64315|Client|ClientRead|1
1486512279.64315|||4
1486512279.77523|||5
1486512279.9131|||5
1486512280.05102|||5
1486512280.1866|||5
1486512280.32416|||5
1486512280.46171|||5
1486512280.59956|||5
1486512280.73725|||5
1486512280.87383|||5
1486512281.01029|||5
1486512281.148|||5
1486512281.28357|||5
1486512281.42017|||5
1486512281.5566|||5
1486512281.69176|||5
1486512281.82922|||5
1486512281.96682|||5
1486512282.10029|||5
1486512282.23784|||5
1486512282.37344|||5
1486512282.50894|||5
1486512282.64652|Client|ClientRead|1
1486512282.64652|||4
1486512282.77416|Client|ClientRead|1
1486512282.77416|||4
1486512282.89908|||5
1486512283.03686|||5
1486512283.17443|||5
1486512283.31209|||5
1486512283.44962|||5
1486512283.58705|||5
1486512283.72459|||5
1486512283.85888|||5
1486512283.98417|||5
1486512284.10816|||5
1486512284.24597|||5
1486512284.3837|||5
1486512284.5213|||5
1486512284.65898|||5
1486512284.79669|||5
1486512284.9342|||5
1486512285.07169|||5
1486512285.20936|||5
1486512285.34699|||5
1486512285.48395|||5
1486512285.62162|||5
1486512285.75923|||5
1486512285.89705|||5
1486512286.03473|||5
1486512286.16932|||5
1486512286.30648|||5
1486512286.44407|||5
1486512286.58159|||5
1486512286.71713|||5
1486512286.85495|||5
1486512286.9927|||5
1486512287.1304|||5
1486512287.26786|||5
1486512287.40528|||6
1486512287.53995|||6
1486512287.67747|||5
1486512287.815|||5
1486512287.95256|||5
1486512288.09054|||5
1486512288.22826|||5
1486512288.3659|||5
1486512288.50357|||5
1486512288.63723|Client|ClientRead|1
1486512288.63723|||5
1486512288.77463|||5
1486512288.91242|||5
1486512289.04912|||5
1486512289.18455|||5
1486512289.32047|||5
1486512289.45821|||5
1486512289.59594|||5
1486512289.73115|||5
1486512289.86857|||5
1486512290.00215|||5
1486512290.1399|||5
1486512290.27801|||5
1486512290.41559|||5
1486512290.55339|||4
1486512290.55339|Client|ClientRead|1
1486512290.68008|||5
1486512290.81684|||5
1486512290.95415|||5
1486512291.09139|||5
1486512291.22913|||5
1486512291.36766|||5
1486512291.50415|||5
1486512291.64174|||5
1486512291.77732|||5
1486512291.91493|||5
1486512292.05254|||5
1486512292.19032|Client|ClientRead|1
1486512292.19032|||5
1486512292.30753|||4
1486512292.30753|Client|ClientRead|1
1486512292.43606|||4
1486512292.43606|Client|ClientRead|1
1486512292.55694|||4
1486512292.55694|Client|ClientRead|1
1486512292.67449|||5
1486512292.79703|||5
1486512292.93463|||5
1486512293.07218|||5
1486512293.20973|||5
1486512293.3471|||5
1486512293.3471|Client|ClientRead|1
1486512293.48261|||5
1486512293.62093|||5
1486512293.758|||5
1486512293.89566|||5
1486512294.03339|||5
1486512294.17102|||5
1486512294.30859|||5
1486512294.43645|||5
1486512294.57392|||5
1486512294.70852|||5
1486512294.84627|||5
1486512294.98394|||5
1486512295.12069|||5
1486512295.2582|||5
1486512295.3938|||5
1486512295.53162|||5
1486512295.6692|||5
1486512295.80663|||5
1486512295.94213|||5
1486512296.07891|||5
1486512296.21646|||5
1486512296.35405|||5
1486512296.4918|||5
1486512296.62736|||5
1486512296.76487|||5
1486512296.90238|||5
1486512297.04006|||5
1486512297.17771|||5
1486512297.31316|||5
1486512297.45084|||5
1486512297.58854|||5
1486512297.72624|||5
1486512297.86185|||5
1486512297.99952|||5
1486512298.13694|||5
1486512298.27248|||5
1486512298.40812|||5
1486512298.54366|||5
1486512298.67607|||5
1486512298.81362|||5
1486512298.95127|||5
1486512299.08997|||5
1486512299.22711|||6
1486512299.36467|||5
1486512299.50038|||5
1486512299.63716|||5
1486512299.7747|||5
1486512299.91224|||5
1486512300.04993|||5
1486512300.18804|||5
1486512300.32551|||5
1486512300.46312|||5
1486512300.59678|||5
1486512300.73434|||5
1486512300.87199|||5
1486512301.00956|||5
1486512301.1452|||5
1486512301.28486|||5
1486512301.42247|||5
1486512301.5601|||5
1486512301.6988|||6
1486512301.83646|||5
1486512301.97419|||5
1486512302.11206|||5
1486512302.24957|||5
1486512302.3863|||5
1486512302.52299|||5
1486512302.65968|||5
1486512302.78114|||5
1486512302.90588|||5
1486512303.04141|||5
1486512303.17901|||5
1486512303.31763|||5
1486512303.45329|||5
1486512303.58775|||5
1486512303.72454|||5
1486512303.86127|||5
1486512303.99666|||5
1486512304.1342|||5
1486512304.27188|||5
1486512304.40956|||5
1486512304.54634|||5
1486512304.68312|Client|ClientRead|1
1486512304.68312|||4
1486512304.81208|||5
1486512304.94963|||5
1486512305.08728|||5
1486512305.20813|||5
1486512305.33585|||4
1486512305.33585|Client|ClientRead|1
1486512305.45996|||5
1486512305.58905|||5
1486512305.72665|||5
1486512305.86328|||5
1486512306.0009|||5
1486512306.13874|||5
1486512306.27635|||5
1486512306.41292|||5
1486512306.55053|||5
1486512306.68818|||5
1486512306.826|||5
1486512306.96376|||5
1486512307.09926|||5
1486512307.23694|||5
1486512307.37465|||5
1486512307.51296|||5
1486512307.65045|||5
1486512307.78796|||5
1486512307.92541|||5
1486512308.06306|||5
1486512308.20059|||5
1486512308.33825|||5
1486512308.47485|||5
1486512308.61254|||5
1486512308.74793|||6
1486512308.88208|Client|ClientRead|1
1486512308.88208|||4
1486512309.00946|Client|ClientRead|1
1486512309.00946|||4
1486512309.13784|||5
1486512309.27552|||5
1486512309.41313|||5
1486512309.55063|||5
1486512309.68635|||5
1486512309.82395|||5
1486512309.95896|||5
1486512310.09613|||5
1486512310.23155|||5
1486512310.3692|||5
1486512310.50828|||5
1486512310.64596|||5
1486512310.78367|||5
1486512310.92128|||5
1486512311.05659|Client|ClientRead|1
1486512311.05659|||5
1486512311.19125|||5
1486512311.3259|||5
1486512311.46358|||5
1486512311.5991|||5
1486512311.73674|||5
1486512311.87225|||5
1486512312.00977|||5
1486512312.14522|||5
1486512312.2825|||5
1486512312.2825|Client|ClientRead|1
1486512312.4194|||5
1486512312.55499|||5
1486512312.69056|||5
1486512312.8262|||5
1486512312.96373|||5
1486512313.09916|||5
1486512313.23359|||5
1486512313.36922|||5
1486512313.50327|||5
1486512313.64047|||5
1486512313.77617|||5
1486512313.91282|||5
1486512314.04636|||5
1486512314.18382|||5
1486512314.32159|||5
1486512314.45915|||5
1486512314.59473|||5
1486512314.73108|||6
1486512314.86871|||5
1486512315.00638|||5
1486512315.14401|||5
1486512315.28171|||5
1486512315.41929|||5
1486512315.55677|||5
1486512315.68162|||5
1486512315.81921|||5
1486512315.95356|Client|ClientRead|1
1486512315.95356|||4
1486512316.073|Client|ClientRead|1
1486512316.073|||4
1486512316.20561|||5
1486512316.33648|||5
1486512316.47197|||5
1486512316.60655|||5
1486512316.73895|||5
1486512316.87477|||5
1486512317.01028|||5
1486512317.1447|||5
1486512317.27931|||5
1486512317.41692|||5
1486512317.55458|||5
1486512317.69197|||5
1486512317.82975|||5
1486512317.96753|||5
1486512318.10518|||5
1486512318.24294|||5
1486512318.37881|||5
1486512318.51768|||5
1486512318.65421|||5
1486512318.79169|||5
1486512318.92949|||5
1486512319.06719|||5
1486512319.20285|||5
1486512319.34061|||5
1486512319.47118|Client|ClientRead|1
1486512319.47118|||4
1486512319.60581|||5
1486512319.74341|||5
1486512319.87897|||5
1486512320.01654|||5
1486512320.15132|Client|ClientRead|1
1486512320.15132|||4
1486512320.27501|||5
1486512320.41258|||5
1486512320.54999|||5
1486512320.68378|||6
1486512320.82028|||5
1486512320.95782|||5
1486512321.09541|||5
1486512321.23287|||5
1486512321.37104|||5
1486512321.5088|||5
1486512321.64659|||5
1486512321.78479|||5
1486512321.92222|||5
1486512322.05775|||5
1486512322.19436|||5
1486512322.33088|||5
1486512322.46863|||5
1486512322.60629|||5
1486512322.74282|||5
1486512322.88044|||5
1486512323.01881|||5
1486512323.15423|||5
1486512323.29196|||5
1486512323.42852|||5
1486512323.56619|||5
1486512323.70292|||5
1486512323.84066|||5
1486512323.97833|||5
1486512324.11554|||6
1486512324.25303|||5
1486512324.39189|||5
1486512324.52973|||5
1486512324.66532|||5
1486512324.80293|||5
1486512324.94081|||5
1486512325.07645|||5
1486512325.21402|||5
1486512325.35347|Client|ClientRead|1
1486512325.35347|||5
1486512325.489|||5
1486512325.62642|||5
1486512325.76212|||5
1486512325.89958|||5
1486512326.03512|||5
1486512326.17263|||5
1486512326.31021|||5
1486512326.44794|||5
1486512326.58339|||5
1486512326.72117|||5
1486512326.85874|||5
1486512326.99213|||5
1486512327.12974|||5
1486512327.26534|||5
1486512327.40298|||5
1486512327.53957|||5
1486512327.67367|||5
1486512327.81084|||5
1486512327.9454|||5
1486512328.08312|||5
1486512328.22182|||5
1486512328.35936|||5
1486512328.49601|||5
1486512328.63387|||5
1486512328.77147|||5
1486512328.9065|||6
1486512329.04367|||5
1486512329.1813|||5
1486512329.31688|||5
1486512329.45256|||5
1486512329.59029|||5
1486512329.72802|||5
1486512329.86456|||5
1486512330.00239|||5
1486512330.14091|||5
1486512330.14091|Client|ClientRead|1
1486512330.27859|||5
1486512330.41613|||5
1486512330.55164|||5
1486512330.68818|||5
1486512330.8271|||5
1486512330.9649|||5
1486512331.10268|||5
1486512331.24042|||5
1486512331.3759|Client|ClientRead|1
1486512331.3759|||5
1486512331.51311|||5
1486512331.65064|||5
1486512331.78848|||5
1486512331.92412|||5
1486512332.05992|||5
1486512332.19742|||5
1486512332.33514|||5
1486512332.47259|||5
1486512332.60242|||5
1486512332.739|||5
1486512332.87678|||5
1486512333.01225|||5
1486512333.14693|||5
1486512333.28258|||5
1486512333.41821|||4
1486512333.41821|Client|ClientRead|1
1486512333.54886|||5
1486512333.68664|||5
1486512333.82413|||5
1486512333.96169|||5
1486512334.09826|||5
1486512334.23381|||5
1486512334.37054|||5
1486512334.5063|||5
1486512334.64384|||5
1486512334.78163|||5
1486512334.91716|||5
1486512335.05449|||5
1486512335.19193|||5
1486512335.32956|||5
1486512335.46719|||5
1486512335.60493|||5
1486512335.74068|||5
1486512335.87827|||5
1486512336.01561|||5
1486512336.1509|||5
1486512336.28862|||5
1486512336.42651|||5
1486512336.56437|||5
1486512336.70193|||5
1486512336.83866|||5
1486512336.97631|||5
1486512337.11403|||5
1486512337.25127|||5
1486512337.25127|Client|ClientRead|1
1486512337.38823|||5
1486512337.52686|||5
1486512337.66462|||5
1486512337.80117|||5
1486512337.93879|||5
1486512338.0754|||5
1486512338.21296|||5
1486512338.35054|||5
1486512338.4857|||5
1486512338.62102|||5
1486512338.75863|||5
1486512338.89538|||5
1486512339.03305|||5
1486512339.17064|||5
1486512339.30818|||5
1486512339.44371|||5
1486512339.58135|||6
1486512339.71964|||5
1486512339.85666|||5
1486512339.99438|||5
1486512340.131|||5
1486512340.26867|||5
1486512340.40626|||5
1486512340.54409|||5
1486512340.68164|||5
1486512340.81912|||5
1486512340.95189|||6
1486512341.08928|||5
1486512341.22686|||5
1486512341.36371|||5
1486512341.50261|||5
1486512341.64014|||5
1486512341.77771|||5
1486512341.91337|||5
1486512342.05072|||5
1486512342.18582|||5
1486512342.32348|||5
1486512342.46103|||5
1486512342.59852|||5
1486512342.73517|||5
1486512342.87291|||5
1486512343.01064|||5
1486512343.14831|||5
1486512343.28284|Client|ClientRead|1
1486512343.28284|||5
1486512343.41989|||5
1486512343.55734|||5
1486512343.69491|||5
1486512343.83256|||5
1486512343.96738|||5
1486512344.10502|||5
1486512344.24273|||5
1486512344.38025|||5
1486512344.51537|||5
1486512344.65269|||5
1486512344.79039|||5
1486512344.92802|||5
1486512345.0659|||5
1486512345.2035|||5
1486512345.34095|||5
1486512345.47866|||5
1486512345.61402|||5
1486512345.74917|||5
1486512345.88679|||5
1486512346.02442|||5
1486512346.16111|||5
1486512346.29657|||5
1486512346.43428|||5
1486512346.57088|||5
1486512346.7075|||5
1486512346.84275|Client|ClientRead|1
1486512346.84275|||5
1486512346.97816|||5
1486512347.11577|||5
1486512347.25151|||5
1486512347.38804|||5
1486512347.52549|||5
1486512347.66102|||5
1486512347.79861|||5
1486512347.93645|||5
1486512348.07263|||6
1486512348.2073|||5
1486512348.34492|||5
1486512348.48058|||5
1486512348.61845|||5
1486512348.75509|||5
1486512348.89276|||5
1486512349.03036|||5
1486512349.16771|||5
1486512349.30229|Client|ClientRead|1
1486512349.30229|||5
1486512349.44006|||5
1486512349.57562|||5
1486512349.71322|||5
1486512349.85081|||5
1486512349.98902|||5
1486512350.12672|||5
1486512350.26231|||5
1486512350.39819|||6
1486512350.53473|||5
1486512350.67231|||5
1486512350.80999|||5
1486512350.94778|||5
1486512351.08428|||5
1486512351.21561|||5
1486512351.35213|||5
1486512351.48745|||5
1486512351.61115|||4
1486512351.61115|Client|ClientRead|1
1486512351.73504|||5
1486512351.87262|||5
1486512352.00737|||5
1486512352.14401|||5
1486512352.28161|||5
1486512352.41914|||5
1486512352.55684|||5
1486512352.69443|||5
1486512352.83071|||5
1486512352.96748|||5
1486512353.10508|||5
1486512353.24276|||5
1486512353.38039|||5
1486512353.51754|||5
1486512353.65328|||5
1486512353.791|||5
1486512353.92517|||5
1486512354.06201|||5
1486512354.19957|||5
1486512354.33738|||5
1486512354.47506|||5
1486512354.61263|||5
1486512354.74628|||5
1486512354.88299|||5
1486512355.02033|||6
1486512355.15805|||5
1486512355.29544|||5
1486512355.43005|||5
1486512355.5656|||5
1486512355.70321|||5
1486512355.84097|||5
1486512355.97778|||5
1486512356.11343|||5
1486512356.24967|||5
1486512356.38716|||5
1486512356.52472|||5
1486512356.66011|||5
1486512356.79771|||5
1486512356.93513|||5
1486512357.07273|||5
1486512357.21052|||5
1486512357.34821|||5
1486512357.48381|||5
1486512357.62265|||5
1486512357.7586|||5
1486512357.89628|||5
1486512358.03383|||5
1486512358.17161|||5
1486512358.30627|||5
1486512358.44291|||5
1486512358.57893|||5
1486512358.71616|||5
1486512358.84748|||5
1486512358.98508|||5
1486512359.12169|||5
1486512359.25748|||5
1486512359.39304|||5
1486512359.53072|||5
1486512359.66829|||5
1486512359.80574|||5
1486512359.94278|||5
1486512360.08049|||5
1486512360.21825|||5
1486512360.35606|||5
1486512360.49366|||5
1486512360.63121|||5
1486512360.76888|||5
1486512360.90651|||5
1486512361.04184|||5
1486512361.17925|||5
1486512361.31695|||5
1486512361.45452|||5
1486512361.59218|||5
1486512361.73002|||5
1486512361.86771|||5
1486512362.00531|||5
1486512362.14308|||5
1486512362.28313|||6
1486512362.42118|||5
1486512362.55895|||5
1486512362.69665|||5
1486512362.83315|||5
1486512362.97092|||5
1486512363.11049|||5
1486512363.24803|||5
1486512363.38349|||5
1486512363.52074|||5
1486512363.65815|||5
1486512363.79386|||5
1486512363.93143|||5
1486512364.06815|||5
1486512364.20482|||5
1486512364.34235|||5
1486512364.47993|||5
1486512364.61726|Client|ClientRead|1
1486512364.61726|||4
1486512364.7473|||5
1486512364.88373|||5
1486512365.02119|||5
1486512365.15909|||5
1486512365.29666|||5
1486512365.4312|||5
1486512365.56859|||5
1486512365.70175|||6
1486512365.83568|||5
1486512365.97211|||5
1486512366.10964|||5
1486512366.24735|||5
1486512366.38284|||5
1486512366.51847|||5
1486512366.6563|||5
1486512366.79106|||5
1486512366.92737|Client|ClientRead|2
1486512366.92737|||4
1486512367.05982|||5
1486512367.19755|||5
1486512367.3351|||5
1486512367.47268|||5
1486512367.60834|||5
1486512367.74607|||5
1486512367.88377|||5
1486512368.02149|||5
1486512368.15697|||5
1486512368.2925|||5
1486512368.43005|||5
1486512368.56664|||5
1486512368.70415|||5
1486512368.84196|||5
1486512368.97218|||5
1486512369.09998|||4
1486512369.09998|Client|ClientRead|1
1486512369.22142|Client|ClientRead|1
1486512369.22142|||4
1486512369.35408|||5
1486512369.35408|Client|ClientRead|1
1486512369.48952|||5
1486512369.60883|||5
1486512369.74451|||5
1486512369.87815|||5
1486512370.01485|||5
1486512370.15231|||5
1486512370.29009|||5
1486512370.42557|||6
1486512370.55516|||4
1486512370.55516|Client|ClientRead|1
1486512370.69247|Client|ClientRead|1
1486512370.69247|||4
1486512370.82678|||4
1486512370.82678|Client|ClientRead|1
1486512370.9674|||5
1486512371.10509|||5
1486512371.24076|||5
1486512371.37634|||5
1486512371.51405|||5
1486512371.64856|||5
1486512371.78181|||5
1486512371.91947|||5
1486512372.05708|||5
1486512372.19375|||5
1486512372.33137|||5
1486512372.46903|||5
1486512372.6068|||5
1486512372.74382|||5
1486512372.87909|||5
1486512373.01659|||5
1486512373.15322|||5
1486512373.29082|||5
1486512373.42857|||5
1486512373.56638|||5
1486512373.70198|||5
1486512373.83974|||5
1486512373.97714|||6
1486512374.11458|Client|ClientRead|1
1486512374.11458|||5
1486512374.25219|||5
1486512374.38897|||5
1486512374.52798|||5
1486512374.66357|||5
1486512374.80126|||5
1486512374.93891|||5
1486512375.07674|||5
1486512375.21236|||6
1486512375.349|||5
1486512375.48453|||5
1486512375.62227|||5
1486512375.75796|||5
1486512375.89572|||5
1486512376.03135|||5
1486512376.16893|||5
1486512376.30555|||5
1486512376.44088|||5
1486512376.57856|||5
1486512376.71415|||5
1486512376.85166|||5
1486512376.98906|||5
1486512377.12694|||5
1486512377.26233|||5
1486512377.39991|||5
1486512377.53673|||6
1486512377.67339|||5
1486512377.81109|||5
1486512377.94676|||5
1486512378.08421|||5
1486512378.22175|||5
1486512378.35937|||5
1486512378.49487|||5
1486512378.63251|||5
1486512378.7703|||5
1486512378.9055|||5
1486512379.0431|||5
1486512379.1797|||5
1486512379.31729|||5
1486512379.45398|||5
1486512379.5917|||5
1486512379.72732|||5
1486512379.86491|||5
1486512380.0024|||5
1486512380.13565|||5
1486512380.27112|||5
1486512380.40887|||5
1486512380.54672|||5
1486512380.68424|||5
1486512380.82207|||5
1486512380.95869|||5
1486512381.0949|||5
1486512381.22844|||5
1486512381.36522|||5
1486512381.50299|||5
1486512381.64063|||5
1486512381.77631|||5
1486512381.91395|||5
1486512382.05161|||5
1486512382.189|||5
1486512382.32662|||5
1486512382.46488|||5
1486512382.59952|||5
1486512382.73784|||5
1486512382.87345|||5
1486512383.01091|||5
1486512383.14854|||5
1486512383.2843|||5
1486512383.42047|||6
1486512383.55804|||5
1486512383.69706|||5
1486512383.83157|||5
1486512383.96833|||5
1486512384.10607|||5
1486512384.24364|||5
1486512384.38116|||5
1486512384.51915|||5
1486512384.65682|||6
1486512384.79455|||5
1486512384.92932|||5
1486512385.0676|||5
1486512385.2054|||5
1486512385.34082|||5
1486512385.47734|||5
1486512385.61497|||5
1486512385.75069|||5
1486512385.88671|||5
1486512386.02269|||5
1486512386.1602|||5
1486512386.29777|||5
1486512386.43525|||5
1486512386.57282|||5
1486512386.71047|||5
1486512386.84824|Client|ClientRead|1
1486512386.84824|||4
1486512386.98564|||4
1486512386.98564|Client|ClientRead|1
1486512387.12522|||5
1486512387.26275|||5
1486512387.40046|||5
1486512387.539|||5
1486512387.67662|||5
1486512387.8143|||5
1486512387.95199|||5
1486512388.08963|||5
1486512388.22522|||5
1486512388.36266|||5
1486512388.49861|||5
1486512388.63629|||5
1486512388.77383|||5
1486512388.90954|||5
1486512389.03379|Client|ClientRead|1
1486512389.03379|||4
1486512389.1522|Client|ClientRead|1
1486512389.1522|||4
1486512389.27275|Client|ClientRead|1
1486512389.27275|||4
1486512389.3981|||5
1486512389.5346|||5
1486512389.66998|||5
1486512389.80776|||5
1486512389.94461|||5
1486512390.08131|||5
1486512390.21888|||5
1486512390.35647|||5
1486512390.49317|||5
1486512390.6305|||5
1486512390.76507|||5
1486512390.90265|||5
1486512391.03921|||5
1486512391.17698|||5
1486512391.31363|||5
1486512391.44831|||5
1486512391.58593|Client|ClientRead|1
1486512391.58593|||4
1486512391.7012|||4
1486512391.7012|Client|ClientRead|1
1486512391.8227|||5
1486512391.8227|Client|ClientRead|1
1486512391.94318|Client|ClientRead|1
1486512391.94318|||4
1486512392.05612|||4
1486512392.05612|Client|ClientRead|1
1486512392.18683|||5
1486512392.32451|||5
1486512392.4621|||5
1486512392.59887|||5
1486512392.73693|||5
1486512392.87436|||5
1486512393.00377|||5
1486512393.12514|||5
1486512393.26098|||5
1486512393.3986|||5
1486512393.53611|||5
1486512393.67361|||5
1486512393.81133|||5
1486512393.94898|||5
1486512394.08473|||6
1486512394.22347|||5
1486512394.35904|||5
1486512394.49027|||5
1486512394.62472|||5
1486512394.76803|||5
1486512394.90604|||5
1486512395.04523|||5
1486512395.18087|||5
1486512395.31009|||5
1486512395.44752|||5
1486512395.58517|||5
1486512395.72262|||5
1486512395.85811|||5
1486512395.99469|||5
1486512396.12825|||5
1486512396.26381|||5
1486512396.40138|||5
1486512396.40138|Client|ClientRead|1
1486512396.53648|||5
1486512396.67276|||5
1486512396.81042|||5
1486512396.94705|||5
1486512397.08261|||5
1486512397.21936|||5
1486512397.3561|||5
1486512397.49264|||5
1486512397.62802|||6
1486512397.76561|||5
1486512397.90119|||5
1486512398.0308|||5
1486512398.1684|||5
1486512398.30394|||5
1486512398.44152|||5
1486512398.57943|||5
1486512398.71695|||5
1486512398.85418|||5
1486512398.98964|||5
1486512399.12615|||5
1486512399.26387|||5
1486512399.40166|||5
1486512399.54019|||5
1486512399.67784|||5
1486512399.81557|||5
1486512399.95339|||5
1486512400.09079|||5
1486512400.22521|||5
1486512400.36286|||5
1486512400.50044|||5
1486512400.63593|||5
1486512400.77342|||5
1486512400.91091|||5
1486512401.04859|||5
1486512401.18606|||6
1486512401.3217|||5
1486512401.45631|||5
1486512401.59399|||5
1486512401.72961|||5
1486512401.86719|||5
1486512402.00485|||5
1486512402.14161|||5
1486512402.27936|||5
1486512402.41818|||5
1486512402.55454|||5
1486512402.69222|||5
1486512402.82994|||5
1486512402.96753|||5
1486512403.10298|||5
1486512403.22356|||5
1486512403.36117|||5
1486512403.49886|||5
1486512403.63828|||5
1486512403.63828|Client|ClientRead|1
1486512403.77342|||5
1486512403.91101|||5
1486512404.04875|||5
1486512404.18437|||5
1486512404.32191|||5
1486512404.45943|||5
1486512404.59715|||5
1486512404.73585|||5
1486512404.86791|||6
1486512405.00401|||5
1486512405.14172|||5
1486512405.27925|||5
1486512405.41686|||5
1486512405.55465|||5
1486512405.69026|||5
1486512405.82774|||5
1486512405.96322|||5
1486512406.09629|||5
1486512406.23385|||5
1486512406.37139|||5
1486512406.49918|||4
1486512406.49918|Client|ClientRead|1
1486512406.62418|||5
1486512406.75881|||5
1486512406.89643|||5
1486512407.03409|||5
1486512407.17132|||5
1486512407.30461|||5
1486512407.44285|||5
1486512407.57941|||5
1486512407.71703|||5
1486512407.85466|||5
1486512407.99113|||5
1486512408.11626|||5
1486512408.23396|Client|ClientRead|1
1486512408.23396|||4
1486512408.36462|||5
1486512408.50006|||5
1486512408.63664|||5
1486512408.77241|||5
1486512408.90883|||5
1486512409.04654|||5
1486512409.18215|||5
1486512409.31859|||5
1486512409.45619|||5
1486512409.5911|||6
1486512409.7306|||5
1486512409.86822|||5
1486512410.00583|||5
1486512410.1435|||5
1486512410.279|||5
1486512410.41553|||5
1486512410.55336|||5
1486512410.69091|||5
1486512410.825|||6
1486512410.9627|||5
1486512411.09819|||5
1486512411.23568|||5
1486512411.37336|||5
1486512411.51101|||5
1486512411.64561|||5
1486512411.78321|||5
1486512411.91802|||6
1486512412.05281|||5
1486512412.19022|||5
1486512412.32696|||5
1486512412.46464|||5
1486512412.60036|||5
1486512412.73673|||5
1486512412.87325|||5
1486512413.01107|||5
1486512413.14815|||5
1486512413.14815|Client|ClientRead|1
1486512413.28288|||5
1486512413.42064|||5
1486512413.55818|||5
1486512413.69573|||5
1486512413.83336|||5
1486512413.97102|||5
1486512414.10862|||5
1486512414.24606|||5
1486512414.38102|||5
1486512414.51862|||5
1486512414.65634|||5
1486512414.79405|||5
1486512414.93169|||5
1486512415.06614|||5
1486512415.20275|||5
1486512415.34041|||5
1486512415.47787|||5
1486512415.47787|Client|ClientRead|1
1486512415.61534|||5
1486512415.7531|||5
1486512415.89071|||5
1486512416.02936|||5
1486512416.16699|||5
1486512416.30488|||5
1486512416.44253|||5
1486512416.58026|||5
1486512416.71959|||5
1486512416.85279|||5
1486512416.98636|||5
1486512417.12386|||5
1486512417.26167|||5
1486512417.39627|||5
1486512417.53426|||5
1486512417.66997|||5
1486512417.80745|||5
1486512417.9426|||5
1486512418.07959|||5
1486512418.21722|||5
1486512418.35481|||5
1486512418.49238|||5
1486512418.63014|||5
1486512418.76774|||5
1486512418.90426|||5
1486512419.03476|||6
1486512419.17008|||5
1486512419.30766|||5
1486512419.44435|||5
1486512419.5821|||5
1486512419.71979|||5
1486512419.85738|||5
1486512419.99505|||5
1486512420.13257|||5
1486512420.26977|||6
1486512420.39979|||4
1486512420.39979|Client|ClientRead|1
1486512420.52955|||5
1486512420.66714|||5
1486512420.80475|||5
1486512420.9424|||5
1486512421.07998|||5
1486512421.21774|||5
1486512421.35434|||5
1486512421.4893|||6
1486512421.6274|||5
1486512421.76495|||5
1486512421.90243|||5
1486512422.04001|||5
1486512422.1777|||5
1486512422.31527|||5
1486512422.45288|||5
1486512422.59037|||5
1486512422.72754|||5
1486512422.86091|||5
1486512422.9987|||5
1486512423.13164|||5
1486512423.27025|||5
1486512423.4078|||5
1486512423.54548|||5
1486512423.68308|||5
1486512423.82057|||5
1486512423.95462|||5
1486512424.09028|||5
1486512424.22684|||5
1486512424.36157|||5
1486512424.49919|||5
1486512424.63585|||5
1486512424.7736|||5
1486512424.91119|||5
1486512425.04695|||6
1486512425.18372|||5
1486512425.32135|||5
1486512425.45684|||5
1486512425.59245|||5
1486512425.73018|||5
1486512425.86773|||5
1486512426.00333|||5
1486512426.14074|||6
1486512426.2714|Client|ClientRead|2
1486512426.2714|||3
1486512426.39637|||5
1486512426.53396|||5
1486512426.67178|||5
1486512426.80995|||5
1486512426.94752|||5
1486512427.08533|||5
1486512427.22199|||5
1486512427.35744|||5
1486512427.35744|Client|ClientRead|1
1486512427.49497|||5
1486512427.62659|Client|ClientRead|1
1486512427.62659|||4
1486512427.7513|||4
1486512427.7513|Client|ClientRead|1
1486512427.87626|Client|ClientRead|1
1486512427.87626|||4
1486512428.00374|||4
1486512428.00374|Client|ClientRead|1
1486512428.13077|||4
1486512428.13077|Client|ClientRead|1
1486512428.25693|||4
1486512428.25693|Client|ClientRead|1
1486512428.37813|||4
1486512428.37813|Client|ClientRead|1
1486512428.51192|||5
1486512428.64924|||5
1486512428.78656|||5
1486512428.92423|||5
1486512429.06091|||5
1486512429.19852|||5
1486512429.33631|||5
1486512429.47399|||5
1486512429.61149|||5
1486512429.74769|||5
1486512429.88512|||5
1486512430.02064|||5
1486512430.15833|||5
1486512430.29599|||5
1486512430.43533|||5
1486512430.57284|||5
1486512430.70946|||5
1486512430.84707|||5
1486512430.9808|||5
1486512431.11835|||5
1486512431.25611|||5
1486512431.39371|||5
1486512431.52748|||5
1486512431.66508|||5
1486512431.80276|||5
1486512431.93922|||5
1486512432.07534|||6
1486512432.21101|||5
1486512432.34845|||5
1486512432.48617|||5
1486512432.62185|||5
1486512432.75941|||5
1486512432.89492|||5
1486512433.03267|||5
1486512433.17023|||5
1486512433.30772|Client|ClientRead|1
1486512433.30772|||5
1486512433.4442|||5
1486512433.57974|||5
1486512433.71531|||5
1486512433.85298|||5
1486512433.99064|||5
1486512434.12825|||5
1486512434.26589|||5
1486512434.4036|||5
1486512434.54124|||5
1486512434.67861|||5
1486512434.81609|||5
1486512434.95367|||5
1486512435.09139|||5
1486512435.22888|||5
1486512435.36652|||5
1486512435.5021|||5
1486512435.63858|||5
1486512435.76968|||5
1486512435.89411|||5
1486512436.03164|||5
1486512436.16831|||5
1486512436.30497|||5
1486512436.44388|||5
1486512436.58153|||5
1486512436.71831|||5
1486512436.85649|Client|ClientRead|1
1486512436.85649|||5
1486512436.9913|||5
1486512437.12681|||5
1486512437.26457|||5
1486512437.40229|||5
1486512437.53811|||5
1486512437.6737|||5
1486512437.81023|||5
1486512437.948|||5
1486512438.08373|||5
1486512438.22159|||5
1486512438.35818|||5
1486512438.47242|||4
1486512438.47242|Client|ClientRead|1
1486512438.59509|||5
1486512438.73265|||5
1486512438.87025|||5
1486512439.00796|||5
1486512439.14562|||5
1486512439.28132|||5
1486512439.41875|||5
1486512439.55558|||5
1486512439.69307|||5
1486512439.83064|||5
1486512439.9663|||5
1486512440.10394|||5
1486512440.24168|||5
1486512440.37826|Client|ClientRead|1
1486512440.37826|||5
1486512440.514|||5
1486512440.64852|||5
1486512440.78614|||5
1486512440.92386|||5
1486512441.06133|||5
1486512441.19691|||5
1486512441.33447|||5
1486512441.47123|||5
1486512441.60886|||5
1486512441.74363|||5
1486512441.87927|||5
1486512442.01599|||5
1486512442.15369|||5
1486512442.29113|||5
1486512442.42886|||5
1486512442.56557|||5
1486512442.7031|||5
1486512442.84053|||5
1486512442.84053|Client|ClientRead|1
1486512442.97741|||5
1486512443.11396|||5
1486512443.25155|||5
1486512443.38939|||5
1486512443.52506|||5
1486512443.66277|||5
1486512443.80026|||5
1486512443.93797|||5
1486512444.07473|||6
1486512444.20789|||5
1486512444.34561|||5
1486512444.48327|||5
1486512444.62084|||5
1486512444.73743|Client|ClientRead|1
1486512444.73743|||4
1486512444.85694|Client|ClientRead|1
1486512444.85694|||4
1486512444.97954|Client|ClientRead|1
1486512444.97954|||4
1486512445.10102|||5
1486512445.23734|||5
1486512445.37466|||5
1486512445.51231|||5
1486512445.64979|||5
1486512445.78739|||5
1486512445.92502|||5
1486512446.06061|||5
1486512446.19818|||5
1486512446.33433|||5
1486512446.46821|||5
1486512446.59111|||5
1486512446.72894|||5
1486512446.86571|||5
1486512447.00132|||5
1486512447.1391|||5
1486512447.27667|||5
1486512447.41158|||4
1486512447.41158|Client|ClientRead|1
1486512447.53992|||5
1486512447.67409|||6
1486512447.81081|||5
1486512447.94734|Client|ClientRead|1
1486512447.94734|||4
1486512448.07904|||5
1486512448.21653|||5
1486512448.35427|||5
1486512448.49168|||5
1486512448.62636|||5
1486512448.76378|||5
1486512448.89916|||5
1486512449.03579|||5
1486512449.17341|||5
1486512449.3111|||5
1486512449.44867|||5
1486512449.58631|||5
1486512449.72388|||5
1486512449.86055|||5
1486512449.99891|||5
1486512450.13662|||5
1486512450.272|||5
1486512450.40749|||5
1486512450.54314|||5
1486512450.68074|||5
1486512450.819|||5
1486512450.95678|||5
1486512451.09505|||5
1486512451.23382|||5
1486512451.3714|||5
1486512451.5112|||5
1486512451.64899|||5
1486512451.78437|||5
1486512451.92208|||5
1486512452.05983|||5
1486512452.19756|||5
1486512452.33321|||5
1486512452.47094|||5
1486512452.60864|||5
1486512452.74625|||5
1486512452.88385|||5
1486512453.02151|||5
1486512453.15928|||5
1486512453.2969|||5
1486512453.43459|||5
1486512453.57027|||6
1486512453.70566|||5
1486512453.84132|||5
1486512453.97685|||5
1486512454.11452|||5
1486512454.25233|||5
1486512454.38793|||5
1486512454.52449|||5
1486512454.65998|||6
1486512454.79756|||6
1486512454.93524|||5
1486512455.07295|||5
1486512455.21059|||5
1486512455.349|||5
1486512455.48674|||5
1486512455.62428|||5
1486512455.76195|||5
1486512455.8994|||5
1486512456.03687|||5
1486512456.17452|||5
1486512456.31127|||5
1486512456.44691|||5
1486512456.58453|||5
1486512456.72016|||5
1486512456.8548|||5
1486512456.99033|||5
1486512457.12639|||6
1486512457.26417|||5
1486512457.3988|||5
1486512457.53449|Client|ClientRead|1
1486512457.53449|||4
1486512457.65805|||5
1486512457.7936|||5
1486512457.93125|||5
1486512458.06888|||5
1486512458.20654|||5
1486512458.33985|||5
1486512458.33985|Client|ClientRead|1
1486512458.47628|||5
1486512458.61408|||5
1486512458.75162|||5
1486512458.88917|||5
1486512459.02682|||5
1486512459.16443|||5
1486512459.30203|||5
1486512459.43956|||5
1486512459.56401|||4
1486512459.56401|Client|ClientRead|1
1486512459.69771|||5
1486512459.8332|||5
1486512459.97099|||5
1486512460.10855|||5
1486512460.24644|||5
1486512460.38402|||5
1486512460.51958|||5
1486512460.65691|||5
1486512460.79452|||5
1486512460.93201|||5
1486512461.06748|||5
1486512461.20303|||5
1486512461.34064|||5
1486512461.47726|||5
1486512461.615|||5
1486512461.75011|||5
1486512461.88785|||5
1486512462.02224|||5
1486512462.15785|||5
1486512462.29539|||5
1486512462.43296|||5
1486512462.5708|||5
1486512462.70646|||5
1486512462.84414|||5
1486512462.9818|||5
1486512463.11774|||5
1486512463.25538|||5
1486512463.393|||5
1486512463.52976|||5
1486512463.66726|||5
1486512463.80495|||5
1486512463.94269|||5
1486512464.07737|||5
1486512464.21294|||5
1486512464.35082|||5
1486512464.48846|||5
1486512464.62507|||5
1486512464.76176|||5
1486512464.89829|||5
1486512465.03489|||5
1486512465.17256|||5
1486512465.31031|||5
1486512465.44764|||5
1486512465.58505|||5
1486512465.72253|||5
1486512465.85832|||5
1486512465.99503|||5
1486512466.1328|||5
1486512466.26942|||5
1486512466.40706|||5
1486512466.54242|||6
1486512466.67883|||6
1486512466.81651|||5
1486512466.9543|||5
1486512467.09193|||5
1486512467.22757|||5
1486512467.36351|||5
1486512467.50128|||5
1486512467.63815|||5
1486512467.7764|||6
1486512467.91106|||5
1486512468.04669|||5
1486512468.18421|||5
1486512468.32173|||5
1486512468.45842|||5
1486512468.59621|||5
1486512468.73393|||5
1486512468.87168|||5
1486512469.00735|||5
1486512469.145|||5
1486512469.28252|||5
1486512469.42021|||5
1486512469.5578|||5
1486512469.69435|||5
1486512469.83214|||5
1486512469.96972|||5
1486512470.10738|||5
1486512470.24366|||5
1486512470.24366|Client|ClientRead|1
1486512470.37887|||5
1486512470.51436|||5
1486512470.65204|||5
1486512470.78766|||5
1486512470.92522|||5
1486512471.0629|||5
1486512471.20057|||5
1486512471.33619|||5
1486512471.47291|||5
1486512471.61047|||5
1486512471.74808|||5
1486512471.88778|||5
1486512472.01918|||5
1486512472.143|||5
1486512472.28097|||5
1486512472.41854|||5
1486512472.5537|||5
1486512472.5537|Client|ClientRead|1
1486512472.68865|||5
1486512472.82845|||5
1486512472.96633|||5
1486512473.10401|||5
1486512473.24167|||5
1486512473.37922|||5
1486512473.51696|||5
1486512473.65444|||5
1486512473.79207|||5
1486512473.92763|||5
1486512474.06523|||5
1486512474.20081|||5
1486512474.33794|||5
1486512474.47563|||5
1486512474.61316|||5
1486512474.75076|||5
1486512474.88768|||6
1486512475.02278|||5
1486512475.1599|||5
1486512475.29766|||5
1486512475.43321|||5
1486512475.5698|||5
1486512475.70654|||5
1486512475.84426|||5
1486512475.97967|||5
1486512476.11709|||5
1486512476.25291|||5
1486512476.39034|||5
1486512476.52593|||5
1486512476.66343|||5
1486512476.80126|||5
1486512476.93899|||5
1486512477.07664|||5
1486512477.21319|||5
1486512477.35039|Client|ClientRead|1
1486512477.35039|||5
1486512477.48755|||5
1486512477.62324|||5
1486512477.76072|||5
1486512477.89756|||5
1486512478.03426|||5
1486512478.17204|||5
1486512478.30959|||5
1486512478.44612|||5
1486512478.57909|||6
1486512478.71664|||5
1486512478.85232|||5
1486512478.98988|||5
1486512479.12564|||5
1486512479.26238|||5
1486512479.39723|||5
1486512479.53509|||5
1486512479.67274|||6
1486512479.80856|||6
1486512479.94628|||5
1486512480.0839|||5
1486512480.22145|||5
1486512480.35919|||5
1486512480.49686|||5
1486512480.63347|||5
1486512480.77114|||5
1486512480.90634|||6
1486512481.04368|||5
1486512481.17934|||5
1486512481.31714|||5
1486512481.45286|||5
1486512481.59057|||5
1486512481.72631|||5
1486512481.86397|||5
1486512482.00173|||5
1486512482.13738|||5
1486512482.27292|||5
1486512482.41061|||5
1486512482.54821|||5
1486512482.68596|||5
1486512482.82271|||5
1486512482.9583|||5
1486512483.09589|||5
1486512483.23098|||5
1486512483.36802|Client|ClientRead|1
1486512483.36802|||4
1486512483.49355|Client|ClientRead|1
1486512483.49355|||4
1486512483.61054|Client|ClientRead|1
1486512483.61054|||4
1486512483.72815|Client|ClientRead|1
1486512483.72815|||4
1486512483.84663|Client|ClientRead|1
1486512483.84663|||4
1486512483.97092|||4
1486512483.97092|Client|ClientRead|1
1486512484.10179|||5
1486512484.23945|||5
1486512484.37934|||5
1486512484.51586|||5
1486512484.65088|||5
1486512484.78856|||5
1486512484.92523|||5
1486512485.06285|||5
1486512485.19941|||5
1486512485.33691|||5
1486512485.47439|||5
1486512485.61156|||6
1486512485.74689|||5
1486512485.88426|||5
1486512486.02196|||5
1486512486.15978|||5
1486512486.29742|||5
1486512486.43501|||5
1486512486.57266|||5
1486512486.71023|||5
1486512486.84567|||5
1486512486.98022|||5
1486512487.11687|||5
1486512487.25352|||5
1486512487.39129|||5
1486512487.52926|||5
1486512487.66694|||5
1486512487.80473|||5
1486512487.94034|||5
1486512488.07584|||5
1486512488.20706|||4
1486512488.20706|Client|ClientRead|1
1486512488.33053|Client|ClientRead|2
1486512488.33053|||3
1486512488.4592|||4
1486512488.4592|Client|ClientRead|1
1486512488.58179|||5
1486512488.71063|||4
1486512488.71063|Client|ClientRead|1
1486512488.83198|||4
1486512488.83198|Client|ClientRead|1
1486512488.94344|Client|ClientRead|2
1486512488.94344|||3
1486512489.06433|||4
1486512489.06433|Client|ClientRead|1
1486512489.18549|||4
1486512489.18549|Client|ClientRead|1
1486512489.30993|||5
1486512489.44748|||5
1486512489.58636|||5
1486512489.72397|||5
1486512489.86169|||5
1486512489.99921|||5
1486512490.13697|||5
1486512490.27519|||5
1486512490.40557|||4
1486512490.40557|Client|ClientRead|1
1486512490.52603|||5
1486512490.66368|||5
1486512490.8021|||5
1486512490.93964|||5
1486512491.07541|||5
1486512491.21117|||5
1486512491.34671|||5
1486512491.48229|||5
1486512491.6186|Client|ClientRead|1
1486512491.6186|||5
1486512491.7542|||5
1486512491.89191|||5
1486512492.02968|||5
1486512492.16012|||5
1486512492.29776|||5
1486512492.43764|||5
1486512492.5732|||5
1486512492.71096|||5
1486512492.84651|||5
1486512492.98411|||5
1486512493.1219|||5
1486512493.25943|||5
1486512493.39398|||5
1486512493.53166|||5
1486512493.6694|||5
1486512493.80702|||5
1486512493.94647|||6
1486512494.08272|||5
1486512494.2204|||5
1486512494.35787|||5
1486512494.49566|||5
1486512494.6334|||5
1486512494.77123|||5
1486512494.90682|||5
1486512495.04446|||6
1486512495.18175|||5
1486512495.31723|||5
1486512495.45502|||5
1486512495.59268|||5
1486512495.72817|||5
1486512495.86579|||5
1486512496.00332|||5
1486512496.13997|||5
1486512496.2754|||5
1486512496.4128|||5
1486512496.55039|||5
1486512496.68815|||5
1486512496.82371|||5
1486512496.96068|||5
1486512497.09521|||5
1486512497.23095|||5
1486512497.36867|||5
1486512497.50283|||6
1486512497.63855|||5
1486512497.77646|||5
1486512497.91402|||5
1486512498.04867|||5
1486512498.18422|||4
1486512498.18422|Client|ClientRead|1
1486512498.30895|||5
1486512498.44662|||5
1486512498.5855|||5
1486512498.72308|||5
1486512498.85954|||5
1486512498.99713|||5
1486512499.13463|||5
1486512499.27123|||5
1486512499.40895|||5
1486512499.54561|||5
1486512499.68237|||5
1486512499.81964|||6
1486512499.95692|||5
1486512500.09433|||5
1486512500.23212|||5
1486512500.36966|||5
1486512500.5073|||5
1486512500.64186|||5
1486512500.77969|||5
1486512500.91737|||5
1486512501.04716|||4
1486512501.04716|Client|ClientRead|1
1486512501.16522|Client|ClientRead|1
1486512501.16522|||4
1486512501.28386|||4
1486512501.28386|Client|ClientRead|1
1486512501.41538|||5
1486512501.55328|||5
1486512501.69096|||5
1486512501.82865|||5
1486512501.9643|||5
1486512502.10239|||5
1486512502.24084|||6
1486512502.37538|||5
1486512502.51007|||5
1486512502.64579|||5
1486512502.78333|||5
1486512502.92116|||5
1486512503.05879|||5
1486512503.19635|||5
1486512503.33397|||5
1486512503.46796|||5
1486512503.60343|||5
1486512503.74107|||5
1486512503.8786|||5
1486512504.01624|||5
1486512504.1539|||5
1486512504.29155|||5
1486512504.42947|||5
1486512504.56689|||5
1486512504.69587|||4
1486512504.69587|Client|ClientRead|1
1486512504.82689|Client|ClientRead|1
1486512504.82689|||4
1486512504.9539|||5
1486512505.08204|||4
1486512505.08204|Client|ClientRead|1
1486512505.20257|||5
1486512505.33828|||5
1486512505.47599|||5
1486512505.61365|||5
1486512505.7491|||5
1486512505.88654|||5
1486512506.02205|||5
1486512506.15967|||5
1486512506.29421|||5
1486512506.43192|||5
1486512506.56948|||5
1486512506.7071|||5
1486512506.84472|||5
1486512506.98128|Client|ClientRead|1
1486512506.98128|||5
1486512507.11009|Client|ClientRead|1
1486512507.11009|||4
1486512507.23398|||5
1486512507.37166|||5
1486512507.50923|||5
1486512507.64668|||5
1486512507.7843|||5
1486512507.92194|||5
1486512508.05745|||5
1486512508.19421|||5
1486512508.19421|Client|ClientRead|1
1486512508.332|||5
1486512508.46855|||5
1486512508.60428|||5
1486512508.74199|||5
1486512508.87956|||5
1486512509.01739|||5
1486512509.15494|||5
1486512509.29209|||6
1486512509.42993|||5
1486512509.56562|||5
1486512509.69999|||5
1486512509.83786|||5
1486512509.97453|||5
1486512510.11233|||5
1486512510.24996|||5
1486512510.38669|||5
1486512510.52437|||5
1486512510.64409|||5
1486512510.78158|||5
1486512510.91708|||5
1486512511.05386|||5
1486512511.19139|||5
1486512511.32896|||5
1486512511.46671|||5
1486512511.60447|||5
1486512511.74206|||5
1486512511.87764|||5
1486512512.01537|||5
1486512512.15289|||5
1486512512.2907|||5
1486512512.4284|||5
1486512512.56599|||5
1486512512.7035|||5
1486512512.84115|||5
1486512512.97467|||5
1486512513.1103|||5
1486512513.24586|||5
1486512513.38046|||5
1486512513.51827|||5
1486512513.65604|||5
1486512513.79508|||5
1486512513.93267|||5
1486512514.06883|||5
1486512514.20613|||5
1486512514.34361|||5
1486512514.48132|||5
1486512514.61695|||5
1486512514.75255|||5
1486512514.89039|||5
1486512515.02704|||5
1486512515.1625|||6
1486512515.29897|||5
1486512515.43666|||5
1486512515.57559|||5
1486512515.71186|||5
1486512515.84848|||5
1486512515.98609|||5
1486512516.12395|||5
1486512516.26058|||5
1486512516.40024|||5
1486512516.53477|||5
1486512516.67041|||5
1486512516.80594|||5
1486512516.94368|||5
1486512517.08132|||5
1486512517.21898|||5
1486512517.35664|||5
1486512517.49417|||5
1486512517.6318|||5
1486512517.75792|Client|ClientRead|1
1486512517.75792|||4
1486512517.87448|Client|ClientRead|1
1486512517.87448|||4
1486512517.992|Client|ClientRead|1
1486512517.992|||4
1486512518.12565|||5
1486512518.2632|||5
1486512518.40215|||5
1486512518.53995|||5
1486512518.67759|||5
1486512518.81518|||5
1486512518.94879|||4
1486512518.94879|Client|ClientRead|1
1486512519.07635|||4
1486512519.07635|Client|ClientRead|1
1486512519.21045|||4
1486512519.21045|Client|ClientRead|1
1486512519.34341|Client|ClientRead|1
1486512519.34341|||4
1486512519.46784|Client|ClientRead|1
1486512519.46784|||4
1486512519.58618|Client|ClientRead|1
1486512519.58618|||4
1486512519.70159|Client|ClientRead|1
1486512519.70159|||4
1486512519.82847|||4
1486512519.82847|Client|ClientRead|1
1486512519.96836|||5
1486512520.10481|||5
1486512520.24235|||5
1486512520.3801|||5
1486512520.51779|||5
1486512520.65458|||5
1486512520.79211|||5
1486512520.92986|||5
1486512521.06722|||6
1486512521.20488|||5
1486512521.34116|||5
1486512521.47901|||5
1486512521.61665|||5
1486512521.75422|||5
1486512521.89199|||5
1486512522.02962|||5
1486512522.16655|||5
1486512522.3002|||6
1486512522.4379|||5
1486512522.57708|||5
1486512522.71474|||5
1486512522.85143|||5
1486512522.98905|||5
1486512523.12578|||5
1486512523.2634|||5
1486512523.4009|||5
1486512523.5311|||4
1486512523.5311|Client|ClientRead|1
1486512523.65912|||4
1486512523.65912|Client|ClientRead|1
1486512523.79091|Client|ClientRead|1
1486512523.79091|||4
1486512523.91598|||4
1486512523.91598|Client|ClientRead|1
1486512524.03731|||5
1486512524.17315|||5
1486512524.30149|Client|ClientRead|1
1486512524.30149|||4
1486512524.42722|||4
1486512524.42722|Client|ClientRead|1
1486512524.56407|||5
1486512524.69764|||5
1486512524.83414|||5
1486512524.97188|||5
1486512525.1095|||5
1486512525.24709|||5
1486512525.38477|||5
1486512525.52154|||5
1486512525.65933|||5
1486512525.79682|||5
1486512525.93464|||5
1486512526.07238|||5
1486512526.20995|||5
1486512526.34753|||5
1486512526.48418|||5
1486512526.62194|||5
1486512526.75954|||5
1486512526.8943|||5
1486512527.03054|||6
1486512527.16594|||5
1486512527.30159|||5
1486512527.43927|||5
1486512527.5747|||5
1486512527.71248|||5
1486512527.84796|||5
1486512527.9856|||5
1486512528.12185|Client|ClientRead|1
1486512528.12185|||5
1486512528.25704|||5
1486512528.39457|||5
1486512528.53025|||5
1486512528.66775|||5
1486512528.80608|||5
1486512528.94265|||5
1486512529.08032|||5
1486512529.21806|||5
1486512529.35241|||6
1486512529.48993|||5
1486512529.6275|||5
1486512529.76319|||5
1486512529.90096|||5
1486512530.03763|||5
1486512530.1753|||5
1486512530.31297|||5
1486512530.44953|||5
1486512530.58632|||5
1486512530.72369|||5
1486512530.86131|||5
1486512530.99891|||5
1486512531.13668|||5
1486512531.2742|||5
1486512531.41069|||5
1486512531.54628|||5
1486512531.684|||5
1486512531.82044|||5
1486512531.9581|||5
1486512532.09578|||5
1486512532.23134|||5
1486512532.3689|||5
1486512532.50667|||5
1486512532.6442|||5
1486512532.77976|||5
1486512532.91766|||5
1486512533.05522|||5
1486512533.1928|||5
1486512533.33047|||5
1486512533.47024|||5
1486512533.60782|||5
1486512533.74553|||5
1486512533.88336|||5
1486512534.02068|Client|ClientRead|1
1486512534.02068|||5
1486512534.14711|||4
1486512534.14711|Client|ClientRead|1
1486512534.27904|||5
1486512534.41365|||5
1486512534.54938|||5
1486512534.68709|||5
1486512534.82459|||5
1486512534.96297|||5
1486512535.09975|||5
1486512535.23516|||5
1486512535.37073|||5
1486512535.50854|||5
1486512535.64329|||5
1486512535.78119|||5
1486512535.91881|||5
1486512536.05642|||5
1486512536.19404|Client|ClientRead|1
1486512536.19404|||4
1486512536.31356|||5
1486512536.44894|||5
1486512536.58638|||5
1486512536.72095|||5
1486512536.85862|||5
1486512536.99634|||5
1486512537.13195|||5
1486512537.26877|||5
1486512537.40644|||5
1486512537.54416|||5
1486512537.6814|||5
1486512537.81758|||5
1486512537.95336|||5
1486512538.09107|||5
1486512538.22788|||5
1486512538.3656|||5
1486512538.50237|||5
1486512538.64001|||5
1486512538.77541|||5
1486512538.91244|Client|ClientRead|1
1486512538.91244|||4
1486512539.03668|||5
1486512539.17428|||5
1486512539.31186|||5
1486512539.44958|||5
1486512539.58763|||5
1486512539.72335|||5
1486512539.86101|||5
1486512539.99762|||5
1486512540.13161|||5
1486512540.26819|Client|ClientRead|1
1486512540.26819|||4
1486512540.40431|||5
1486512540.53983|||5
1486512540.67653|||5
1486512540.81419|||5
1486512540.95198|||5
1486512541.08748|||6
1486512541.22172|||6
1486512541.35231|||5
1486512541.47933|||5
1486512541.61156|||4
1486512541.61156|Client|ClientRead|1
1486512541.74148|Client|ClientRead|1
1486512541.74148|||4
1486512541.8774|||4
1486512541.8774|Client|ClientRead|1
1486512542.0092|Client|ClientRead|1
1486512542.0092|||4
1486512542.12464|||4
1486512542.12464|Client|ClientRead|1
1486512542.25258|||5
1486512542.25258|Client|ClientRead|1
1486512542.3871|||5
1486512542.52358|||5
1486512542.66129|||5
1486512542.79795|||5
1486512542.93568|||5
1486512543.07135|||5
1486512543.20908|||5
1486512543.33805|||5
1486512543.47452|||6
1486512543.6078|||5
1486512543.74543|||5
1486512543.88302|||5
1486512544.01968|||5
1486512544.15649|||5
1486512544.29411|||5
1486512544.43178|||5
1486512544.56944|||5
1486512544.7049|Client|ClientRead|1
1486512544.7049|||5
1486512544.84163|||5
1486512544.98014|||5
1486512545.11776|||5
1486512545.25551|||5
1486512545.39327|||5
1486512545.53105|||5
1486512545.66883|||5
1486512545.80659|||5
1486512545.94519|||5
1486512546.08354|||5
1486512546.22124|||5
1486512546.35689|||5
1486512546.49557|||5
1486512546.63336|||5
1486512546.771|||5
1486512546.90875|||5
1486512547.04043|||6
1486512547.1614|||4
1486512547.1614|Client|ClientRead|1
1486512547.28017|||4
1486512547.28017|Client|ClientRead|1
1486512547.39666|Client|ClientRead|1
1486512547.39666|||4
1486512547.51691|||4
1486512547.51691|Client|ClientRead|1
1486512547.64265|Client|ClientRead|1
1486512547.64265|||4
1486512547.7602|Client|ClientRead|1
1486512547.7602|||4
1486512547.87221|||4
1486512547.87221|Client|ClientRead|1
1486512547.99148|Client|ClientRead|1
1486512547.99148|||4
1486512548.10865|||4
1486512548.10865|Client|ClientRead|1
1486512548.2231|Client|ClientRead|1
1486512548.2231|||4
1486512548.34644|||4
1486512548.34644|Client|ClientRead|1
1486512548.46899|||4
1486512548.46899|Client|ClientRead|1
1486512548.59245|||4
1486512548.59245|Client|ClientRead|1
1486512548.71035|||4
1486512548.71035|Client|ClientRead|1
1486512548.83299|||4
1486512548.83299|Client|ClientRead|1
1486512548.9588|Client|ClientRead|1
1486512548.9588|||4
1486512549.08484|||4
1486512549.08484|Client|ClientRead|1
1486512549.21183|||5
1486512549.34913|||5
1486512549.48478|||5
1486512549.62236|||5
