 2017-02-08 18:37:55.17231+01 | 1486575475.17231 | pgbench_branches_pkey |            16384
 2017-02-08 18:37:55.17231+01 | 1486575475.17231 | pgbench_tellers_pkey  |            32768
 2017-02-08 18:37:55.17231+01 | 1486575475.17231 | pgbench_accounts_pkey |        112336896

 2017-02-08 18:37:56.244323+01 | 1486575476.24432 | pgbench_branches_pkey |            16384
 2017-02-08 18:37:56.244323+01 | 1486575476.24432 | pgbench_tellers_pkey  |            32768
 2017-02-08 18:37:56.244323+01 | 1486575476.24432 | pgbench_accounts_pkey |        112336896

 2017-02-08 18:37:57.306875+01 | 1486575477.30687 | pgbench_branches_pkey |            16384
 2017-02-08 18:37:57.306875+01 | 1486575477.30687 | pgbench_tellers_pkey  |            32768
 2017-02-08 18:37:57.306875+01 | 1486575477.30687 | pgbench_accounts_pkey |        112336896

 2017-02-08 18:37:58.374813+01 | 1486575478.37481 | pgbench_branches_pkey |            16384
 2017-02-08 18:37:58.374813+01 | 1486575478.37481 | pgbench_tellers_pkey  |            32768
 2017-02-08 18:37:58.374813+01 | 1486575478.37481 | pgbench_accounts_pkey |        112336896

 2017-02-08 18:37:59.439428+01 | 1486575479.43943 | pgbench_branches_pkey |            16384
 2017-02-08 18:37:59.439428+01 | 1486575479.43943 | pgbench_tellers_pkey  |            32768
 2017-02-08 18:37:59.439428+01 | 1486575479.43943 | pgbench_accounts_pkey |        112336896

 2017-02-08 18:38:00.503464+01 | 1486575480.50346 | pgbench_branches_pkey |            16384
 2017-02-08 18:38:00.503464+01 | 1486575480.50346 | pgbench_tellers_pkey  |            32768
 2017-02-08 18:38:00.503464+01 | 1486575480.50346 | pgbench_accounts_pkey |        112336896

 2017-02-08 18:38:01.570531+01 | 1486575481.57053 | pgbench_branches_pkey |            16384
 2017-02-08 18:38:01.570531+01 | 1486575481.57053 | pgbench_tellers_pkey  |            32768
 2017-02-08 18:38:01.570531+01 | 1486575481.57053 | pgbench_accounts_pkey |        112336896

 2017-02-08 18:38:02.637693+01 | 1486575482.63769 | pgbench_branches_pkey |            16384
 2017-02-08 18:38:02.637693+01 | 1486575482.63769 | pgbench_tellers_pkey  |            32768
 2017-02-08 18:38:02.637693+01 | 1486575482.63769 | pgbench_accounts_pkey |        112336896

 2017-02-08 18:38:03.703627+01 | 1486575483.70363 | pgbench_branches_pkey |            16384
 2017-02-08 18:38:03.703627+01 | 1486575483.70363 | pgbench_tellers_pkey  |            32768
 2017-02-08 18:38:03.703627+01 | 1486575483.70363 | pgbench_accounts_pkey |        112336896

 2017-02-08 18:38:04.768914+01 | 1486575484.76891 | pgbench_branches_pkey |            16384
 2017-02-08 18:38:04.768914+01 | 1486575484.76891 | pgbench_tellers_pkey  |            32768
 2017-02-08 18:38:04.768914+01 | 1486575484.76891 | pgbench_accounts_pkey |        112336896

 2017-02-08 18:38:05.833451+01 | 1486575485.83345 | pgbench_branches_pkey |            16384
 2017-02-08 18:38:05.833451+01 | 1486575485.83345 | pgbench_tellers_pkey  |            32768
 2017-02-08 18:38:05.833451+01 | 1486575485.83345 | pgbench_accounts_pkey |        112336896

 2017-02-08 18:38:06.911026+01 | 1486575486.91103 | pgbench_branches_pkey |            16384
 2017-02-08 18:38:06.911026+01 | 1486575486.91103 | pgbench_tellers_pkey  |            32768
 2017-02-08 18:38:06.911026+01 | 1486575486.91103 | pgbench_accounts_pkey |        112336896

 2017-02-08 18:38:07.977724+01 | 1486575487.97772 | pgbench_branches_pkey |            16384
 2017-02-08 18:38:07.977724+01 | 1486575487.97772 | pgbench_tellers_pkey  |            32768
 2017-02-08 18:38:07.977724+01 | 1486575487.97772 | pgbench_accounts_pkey |        112336896

 2017-02-08 18:38:09.034234+01 | 1486575489.03423 | pgbench_branches_pkey |            16384
 2017-02-08 18:38:09.034234+01 | 1486575489.03423 | pgbench_tellers_pkey  |            32768
 2017-02-08 18:38:09.034234+01 | 1486575489.03423 | pgbench_accounts_pkey |        112336896

 2017-02-08 18:38:10.100323+01 | 1486575490.10032 | pgbench_branches_pkey |            16384
 2017-02-08 18:38:10.100323+01 | 1486575490.10032 | pgbench_tellers_pkey  |            32768
 2017-02-08 18:38:10.100323+01 | 1486575490.10032 | pgbench_accounts_pkey |        112336896

 2017-02-08 18:38:11.180626+01 | 1486575491.18063 | pgbench_branches_pkey |            16384
 2017-02-08 18:38:11.180626+01 | 1486575491.18063 | pgbench_tellers_pkey  |            32768
 2017-02-08 18:38:11.180626+01 | 1486575491.18063 | pgbench_accounts_pkey |        112336896

 2017-02-08 18:38:12.248873+01 | 1486575492.24887 | pgbench_branches_pkey |            16384
 2017-02-08 18:38:12.248873+01 | 1486575492.24887 | pgbench_tellers_pkey  |            32768
 2017-02-08 18:38:12.248873+01 | 1486575492.24887 | pgbench_accounts_pkey |        112336896

 2017-02-08 18:38:13.312921+01 | 1486575493.31292 | pgbench_branches_pkey |            16384
 2017-02-08 18:38:13.312921+01 | 1486575493.31292 | pgbench_tellers_pkey  |            32768
 2017-02-08 18:38:13.312921+01 | 1486575493.31292 | pgbench_accounts_pkey |        112336896

 2017-02-08 18:38:14.373948+01 | 1486575494.37395 | pgbench_branches_pkey |            16384
 2017-02-08 18:38:14.373948+01 | 1486575494.37395 | pgbench_tellers_pkey  |            32768
 2017-02-08 18:38:14.373948+01 | 1486575494.37395 | pgbench_accounts_pkey |        112336896

 2017-02-08 18:38:15.444232+01 | 1486575495.44423 | pgbench_branches_pkey |            16384
 2017-02-08 18:38:15.444232+01 | 1486575495.44423 | pgbench_tellers_pkey  |            32768
 2017-02-08 18:38:15.444232+01 | 1486575495.44423 | pgbench_accounts_pkey |        112336896

 2017-02-08 18:38:16.517362+01 | 1486575496.51736 | pgbench_branches_pkey |            16384
 2017-02-08 18:38:16.517362+01 | 1486575496.51736 | pgbench_tellers_pkey  |            32768
 2017-02-08 18:38:16.517362+01 | 1486575496.51736 | pgbench_accounts_pkey |        112336896

 2017-02-08 18:38:17.57867+01 | 1486575497.57867 | pgbench_branches_pkey |            16384
 2017-02-08 18:38:17.57867+01 | 1486575497.57867 | pgbench_tellers_pkey  |            32768
 2017-02-08 18:38:17.57867+01 | 1486575497.57867 | pgbench_accounts_pkey |        112336896

 2017-02-08 18:38:18.641852+01 | 1486575498.64185 | pgbench_branches_pkey |            16384
 2017-02-08 18:38:18.641852+01 | 1486575498.64185 | pgbench_tellers_pkey  |            32768
 2017-02-08 18:38:18.641852+01 | 1486575498.64185 | pgbench_accounts_pkey |        112336896

 2017-02-08 18:38:19.696274+01 | 1486575499.69627 | pgbench_branches_pkey |            16384
 2017-02-08 18:38:19.696274+01 | 1486575499.69627 | pgbench_tellers_pkey  |            32768
 2017-02-08 18:38:19.696274+01 | 1486575499.69627 | pgbench_accounts_pkey |        112336896

 2017-02-08 18:38:20.759671+01 | 1486575500.75967 | pgbench_branches_pkey |            16384
 2017-02-08 18:38:20.759671+01 | 1486575500.75967 | pgbench_tellers_pkey  |            32768
 2017-02-08 18:38:20.759671+01 | 1486575500.75967 | pgbench_accounts_pkey |        112336896

 2017-02-08 18:38:21.838387+01 | 1486575501.83839 | pgbench_branches_pkey |            16384
 2017-02-08 18:38:21.838387+01 | 1486575501.83839 | pgbench_tellers_pkey  |            32768
 2017-02-08 18:38:21.838387+01 | 1486575501.83839 | pgbench_accounts_pkey |        112336896

 2017-02-08 18:38:22.911944+01 | 1486575502.91194 | pgbench_branches_pkey |            16384
 2017-02-08 18:38:22.911944+01 | 1486575502.91194 | pgbench_tellers_pkey  |            32768
 2017-02-08 18:38:22.911944+01 | 1486575502.91194 | pgbench_accounts_pkey |        112336896

 2017-02-08 18:38:23.981438+01 | 1486575503.98144 | pgbench_branches_pkey |            16384
 2017-02-08 18:38:23.981438+01 | 1486575503.98144 | pgbench_tellers_pkey  |            32768
 2017-02-08 18:38:23.981438+01 | 1486575503.98144 | pgbench_accounts_pkey |        112336896

 2017-02-08 18:38:25.058084+01 | 1486575505.05808 | pgbench_branches_pkey |            16384
 2017-02-08 18:38:25.058084+01 | 1486575505.05808 | pgbench_tellers_pkey  |            32768
 2017-02-08 18:38:25.058084+01 | 1486575505.05808 | pgbench_accounts_pkey |        112336896

 2017-02-08 18:38:26.118808+01 | 1486575506.11881 | pgbench_branches_pkey |            16384
 2017-02-08 18:38:26.118808+01 | 1486575506.11881 | pgbench_tellers_pkey  |            32768
 2017-02-08 18:38:26.118808+01 | 1486575506.11881 | pgbench_accounts_pkey |        112336896

 2017-02-08 18:38:27.1958+01 | 1486575507.1958 | pgbench_branches_pkey |            16384
 2017-02-08 18:38:27.1958+01 | 1486575507.1958 | pgbench_tellers_pkey  |            32768
 2017-02-08 18:38:27.1958+01 | 1486575507.1958 | pgbench_accounts_pkey |        112336896

 2017-02-08 18:38:28.253629+01 | 1486575508.25363 | pgbench_branches_pkey |            16384
 2017-02-08 18:38:28.253629+01 | 1486575508.25363 | pgbench_tellers_pkey  |            32768
 2017-02-08 18:38:28.253629+01 | 1486575508.25363 | pgbench_accounts_pkey |        112336896

 2017-02-08 18:38:29.313559+01 | 1486575509.31356 | pgbench_branches_pkey |            16384
 2017-02-08 18:38:29.313559+01 | 1486575509.31356 | pgbench_tellers_pkey  |            32768
 2017-02-08 18:38:29.313559+01 | 1486575509.31356 | pgbench_accounts_pkey |        112336896

 2017-02-08 18:38:30.377765+01 | 1486575510.37776 | pgbench_branches_pkey |            16384
 2017-02-08 18:38:30.377765+01 | 1486575510.37776 | pgbench_tellers_pkey  |            32768
 2017-02-08 18:38:30.377765+01 | 1486575510.37776 | pgbench_accounts_pkey |        112336896

 2017-02-08 18:38:31.458058+01 | 1486575511.45806 | pgbench_branches_pkey |            16384
 2017-02-08 18:38:31.458058+01 | 1486575511.45806 | pgbench_tellers_pkey  |            32768
 2017-02-08 18:38:31.458058+01 | 1486575511.45806 | pgbench_accounts_pkey |        112336896

 2017-02-08 18:38:32.526203+01 | 1486575512.5262 | pgbench_branches_pkey |            16384
 2017-02-08 18:38:32.526203+01 | 1486575512.5262 | pgbench_tellers_pkey  |            32768
 2017-02-08 18:38:32.526203+01 | 1486575512.5262 | pgbench_accounts_pkey |        112336896

 2017-02-08 18:38:33.595822+01 | 1486575513.59582 | pgbench_branches_pkey |            16384
 2017-02-08 18:38:33.595822+01 | 1486575513.59582 | pgbench_tellers_pkey  |            32768
 2017-02-08 18:38:33.595822+01 | 1486575513.59582 | pgbench_accounts_pkey |        112336896

 2017-02-08 18:38:34.659031+01 | 1486575514.65903 | pgbench_branches_pkey |            16384
 2017-02-08 18:38:34.659031+01 | 1486575514.65903 | pgbench_tellers_pkey  |            32768
 2017-02-08 18:38:34.659031+01 | 1486575514.65903 | pgbench_accounts_pkey |        112336896

 2017-02-08 18:38:35.727335+01 | 1486575515.72733 | pgbench_branches_pkey |            16384
 2017-02-08 18:38:35.727335+01 | 1486575515.72733 | pgbench_tellers_pkey  |            32768
 2017-02-08 18:38:35.727335+01 | 1486575515.72733 | pgbench_accounts_pkey |        112336896

 2017-02-08 18:38:36.798481+01 | 1486575516.79848 | pgbench_branches_pkey |            16384
 2017-02-08 18:38:36.798481+01 | 1486575516.79848 | pgbench_tellers_pkey  |            32768
 2017-02-08 18:38:36.798481+01 | 1486575516.79848 | pgbench_accounts_pkey |        112336896

 2017-02-08 18:38:37.861531+01 | 1486575517.86153 | pgbench_branches_pkey |            16384
 2017-02-08 18:38:37.861531+01 | 1486575517.86153 | pgbench_tellers_pkey  |            32768
 2017-02-08 18:38:37.861531+01 | 1486575517.86153 | pgbench_accounts_pkey |        112336896

 2017-02-08 18:38:38.945245+01 | 1486575518.94525 | pgbench_branches_pkey |            16384
 2017-02-08 18:38:38.945245+01 | 1486575518.94525 | pgbench_tellers_pkey  |            32768
 2017-02-08 18:38:38.945245+01 | 1486575518.94525 | pgbench_accounts_pkey |        112336896

 2017-02-08 18:38:40.012766+01 | 1486575520.01277 | pgbench_branches_pkey |            16384
 2017-02-08 18:38:40.012766+01 | 1486575520.01277 | pgbench_tellers_pkey  |            32768
 2017-02-08 18:38:40.012766+01 | 1486575520.01277 | pgbench_accounts_pkey |        112336896

 2017-02-08 18:38:41.081939+01 | 1486575521.08194 | pgbench_branches_pkey |            16384
 2017-02-08 18:38:41.081939+01 | 1486575521.08194 | pgbench_tellers_pkey  |            32768
 2017-02-08 18:38:41.081939+01 | 1486575521.08194 | pgbench_accounts_pkey |        112336896

 2017-02-08 18:38:42.146808+01 | 1486575522.14681 | pgbench_branches_pkey |            16384
 2017-02-08 18:38:42.146808+01 | 1486575522.14681 | pgbench_tellers_pkey  |            32768
 2017-02-08 18:38:42.146808+01 | 1486575522.14681 | pgbench_accounts_pkey |        112336896

 2017-02-08 18:38:43.219302+01 | 1486575523.2193 | pgbench_branches_pkey |            16384
 2017-02-08 18:38:43.219302+01 | 1486575523.2193 | pgbench_tellers_pkey  |            32768
 2017-02-08 18:38:43.219302+01 | 1486575523.2193 | pgbench_accounts_pkey |        112336896

 2017-02-08 18:38:44.284378+01 | 1486575524.28438 | pgbench_branches_pkey |            16384
 2017-02-08 18:38:44.284378+01 | 1486575524.28438 | pgbench_tellers_pkey  |            32768
 2017-02-08 18:38:44.284378+01 | 1486575524.28438 | pgbench_accounts_pkey |        112336896

 2017-02-08 18:38:45.358589+01 | 1486575525.35859 | pgbench_branches_pkey |            16384
 2017-02-08 18:38:45.358589+01 | 1486575525.35859 | pgbench_tellers_pkey  |            32768
 2017-02-08 18:38:45.358589+01 | 1486575525.35859 | pgbench_accounts_pkey |        112336896

 2017-02-08 18:38:46.417326+01 | 1486575526.41733 | pgbench_branches_pkey |            16384
 2017-02-08 18:38:46.417326+01 | 1486575526.41733 | pgbench_tellers_pkey  |            32768
 2017-02-08 18:38:46.417326+01 | 1486575526.41733 | pgbench_accounts_pkey |        112336896

 2017-02-08 18:38:47.471946+01 | 1486575527.47195 | pgbench_branches_pkey |            16384
 2017-02-08 18:38:47.471946+01 | 1486575527.47195 | pgbench_tellers_pkey  |            32768
 2017-02-08 18:38:47.471946+01 | 1486575527.47195 | pgbench_accounts_pkey |        112336896

 2017-02-08 18:38:48.553729+01 | 1486575528.55373 | pgbench_branches_pkey |            16384
 2017-02-08 18:38:48.553729+01 | 1486575528.55373 | pgbench_tellers_pkey  |            32768
 2017-02-08 18:38:48.553729+01 | 1486575528.55373 | pgbench_accounts_pkey |        112336896

 2017-02-08 18:38:49.624809+01 | 1486575529.62481 | pgbench_branches_pkey |            16384
 2017-02-08 18:38:49.624809+01 | 1486575529.62481 | pgbench_tellers_pkey  |            32768
 2017-02-08 18:38:49.624809+01 | 1486575529.62481 | pgbench_accounts_pkey |        112336896

 2017-02-08 18:38:50.685424+01 | 1486575530.68542 | pgbench_branches_pkey |            16384
 2017-02-08 18:38:50.685424+01 | 1486575530.68542 | pgbench_tellers_pkey  |            32768
 2017-02-08 18:38:50.685424+01 | 1486575530.68542 | pgbench_accounts_pkey |        112336896

 2017-02-08 18:38:51.752215+01 | 1486575531.75221 | pgbench_branches_pkey |            16384
 2017-02-08 18:38:51.752215+01 | 1486575531.75221 | pgbench_tellers_pkey  |            32768
 2017-02-08 18:38:51.752215+01 | 1486575531.75221 | pgbench_accounts_pkey |        112336896

 2017-02-08 18:38:52.818431+01 | 1486575532.81843 | pgbench_branches_pkey |            16384
 2017-02-08 18:38:52.818431+01 | 1486575532.81843 | pgbench_tellers_pkey  |            32768
 2017-02-08 18:38:52.818431+01 | 1486575532.81843 | pgbench_accounts_pkey |        112336896

 2017-02-08 18:38:53.882434+01 | 1486575533.88243 | pgbench_branches_pkey |            16384
 2017-02-08 18:38:53.882434+01 | 1486575533.88243 | pgbench_tellers_pkey  |            32768
 2017-02-08 18:38:53.882434+01 | 1486575533.88243 | pgbench_accounts_pkey |        112336896

 2017-02-08 18:38:54.941365+01 | 1486575534.94137 | pgbench_branches_pkey |            16384
 2017-02-08 18:38:54.941365+01 | 1486575534.94137 | pgbench_tellers_pkey  |            32768
 2017-02-08 18:38:54.941365+01 | 1486575534.94137 | pgbench_accounts_pkey |        112336896

 2017-02-08 18:38:56.008743+01 | 1486575536.00874 | pgbench_branches_pkey |            16384
 2017-02-08 18:38:56.008743+01 | 1486575536.00874 | pgbench_tellers_pkey  |            32768
 2017-02-08 18:38:56.008743+01 | 1486575536.00874 | pgbench_accounts_pkey |        112336896

 2017-02-08 18:38:57.079612+01 | 1486575537.07961 | pgbench_branches_pkey |            16384
 2017-02-08 18:38:57.079612+01 | 1486575537.07961 | pgbench_tellers_pkey  |            32768
 2017-02-08 18:38:57.079612+01 | 1486575537.07961 | pgbench_accounts_pkey |        112336896

 2017-02-08 18:38:58.157598+01 | 1486575538.1576 | pgbench_branches_pkey |            16384
 2017-02-08 18:38:58.157598+01 | 1486575538.1576 | pgbench_tellers_pkey  |            32768
 2017-02-08 18:38:58.157598+01 | 1486575538.1576 | pgbench_accounts_pkey |        112336896

 2017-02-08 18:38:59.232403+01 | 1486575539.2324 | pgbench_branches_pkey |            16384
 2017-02-08 18:38:59.232403+01 | 1486575539.2324 | pgbench_tellers_pkey  |            32768
 2017-02-08 18:38:59.232403+01 | 1486575539.2324 | pgbench_accounts_pkey |        112336896

 2017-02-08 18:39:00.295362+01 | 1486575540.29536 | pgbench_branches_pkey |            16384
 2017-02-08 18:39:00.295362+01 | 1486575540.29536 | pgbench_tellers_pkey  |            32768
 2017-02-08 18:39:00.295362+01 | 1486575540.29536 | pgbench_accounts_pkey |        112336896

 2017-02-08 18:39:01.35155+01 | 1486575541.35155 | pgbench_branches_pkey |            16384
 2017-02-08 18:39:01.35155+01 | 1486575541.35155 | pgbench_tellers_pkey  |            32768
 2017-02-08 18:39:01.35155+01 | 1486575541.35155 | pgbench_accounts_pkey |        112336896

 2017-02-08 18:39:02.416405+01 | 1486575542.4164 | pgbench_branches_pkey |            16384
 2017-02-08 18:39:02.416405+01 | 1486575542.4164 | pgbench_tellers_pkey  |            32768
 2017-02-08 18:39:02.416405+01 | 1486575542.4164 | pgbench_accounts_pkey |        112336896

 2017-02-08 18:39:03.484892+01 | 1486575543.48489 | pgbench_branches_pkey |            16384
 2017-02-08 18:39:03.484892+01 | 1486575543.48489 | pgbench_tellers_pkey  |            32768
 2017-02-08 18:39:03.484892+01 | 1486575543.48489 | pgbench_accounts_pkey |        112336896

 2017-02-08 18:39:04.548451+01 | 1486575544.54845 | pgbench_branches_pkey |            16384
 2017-02-08 18:39:04.548451+01 | 1486575544.54845 | pgbench_tellers_pkey  |            32768
 2017-02-08 18:39:04.548451+01 | 1486575544.54845 | pgbench_accounts_pkey |        112336896

 2017-02-08 18:39:05.629459+01 | 1486575545.62946 | pgbench_branches_pkey |            16384
 2017-02-08 18:39:05.629459+01 | 1486575545.62946 | pgbench_tellers_pkey  |            32768
 2017-02-08 18:39:05.629459+01 | 1486575545.62946 | pgbench_accounts_pkey |        112336896

 2017-02-08 18:39:06.703118+01 | 1486575546.70312 | pgbench_branches_pkey |            16384
 2017-02-08 18:39:06.703118+01 | 1486575546.70312 | pgbench_tellers_pkey  |            32768
 2017-02-08 18:39:06.703118+01 | 1486575546.70312 | pgbench_accounts_pkey |        112336896

 2017-02-08 18:39:07.75893+01 | 1486575547.75893 | pgbench_branches_pkey |            16384
 2017-02-08 18:39:07.75893+01 | 1486575547.75893 | pgbench_tellers_pkey  |            32768
 2017-02-08 18:39:07.75893+01 | 1486575547.75893 | pgbench_accounts_pkey |        112336896

 2017-02-08 18:39:08.816245+01 | 1486575548.81625 | pgbench_branches_pkey |            16384
 2017-02-08 18:39:08.816245+01 | 1486575548.81625 | pgbench_tellers_pkey  |            32768
 2017-02-08 18:39:08.816245+01 | 1486575548.81625 | pgbench_accounts_pkey |        112336896

 2017-02-08 18:39:09.900885+01 | 1486575549.90089 | pgbench_branches_pkey |            16384
 2017-02-08 18:39:09.900885+01 | 1486575549.90089 | pgbench_tellers_pkey  |            32768
 2017-02-08 18:39:09.900885+01 | 1486575549.90089 | pgbench_accounts_pkey |        112336896

 2017-02-08 18:39:10.96783+01 | 1486575550.96783 | pgbench_branches_pkey |            16384
 2017-02-08 18:39:10.96783+01 | 1486575550.96783 | pgbench_tellers_pkey  |            32768
 2017-02-08 18:39:10.96783+01 | 1486575550.96783 | pgbench_accounts_pkey |        112336896

 2017-02-08 18:39:12.043124+01 | 1486575552.04312 | pgbench_branches_pkey |            16384
 2017-02-08 18:39:12.043124+01 | 1486575552.04312 | pgbench_tellers_pkey  |            32768
 2017-02-08 18:39:12.043124+01 | 1486575552.04312 | pgbench_accounts_pkey |        112336896

 2017-02-08 18:39:13.115013+01 | 1486575553.11501 | pgbench_branches_pkey |            16384
 2017-02-08 18:39:13.115013+01 | 1486575553.11501 | pgbench_tellers_pkey  |            32768
 2017-02-08 18:39:13.115013+01 | 1486575553.11501 | pgbench_accounts_pkey |        112336896

 2017-02-08 18:39:14.193365+01 | 1486575554.19337 | pgbench_branches_pkey |            16384
 2017-02-08 18:39:14.193365+01 | 1486575554.19337 | pgbench_tellers_pkey  |            32768
 2017-02-08 18:39:14.193365+01 | 1486575554.19337 | pgbench_accounts_pkey |        112336896

 2017-02-08 18:39:15.275321+01 | 1486575555.27532 | pgbench_branches_pkey |            16384
 2017-02-08 18:39:15.275321+01 | 1486575555.27532 | pgbench_tellers_pkey  |            32768
 2017-02-08 18:39:15.275321+01 | 1486575555.27532 | pgbench_accounts_pkey |        112336896

 2017-02-08 18:39:16.343217+01 | 1486575556.34322 | pgbench_branches_pkey |            16384
 2017-02-08 18:39:16.343217+01 | 1486575556.34322 | pgbench_tellers_pkey  |            32768
 2017-02-08 18:39:16.343217+01 | 1486575556.34322 | pgbench_accounts_pkey |        112336896

 2017-02-08 18:39:17.40555+01 | 1486575557.40555 | pgbench_branches_pkey |            16384
 2017-02-08 18:39:17.40555+01 | 1486575557.40555 | pgbench_tellers_pkey  |            32768
 2017-02-08 18:39:17.40555+01 | 1486575557.40555 | pgbench_accounts_pkey |        112336896

 2017-02-08 18:39:18.486582+01 | 1486575558.48658 | pgbench_branches_pkey |            16384
 2017-02-08 18:39:18.486582+01 | 1486575558.48658 | pgbench_tellers_pkey  |            32768
 2017-02-08 18:39:18.486582+01 | 1486575558.48658 | pgbench_accounts_pkey |        112336896

 2017-02-08 18:39:19.555513+01 | 1486575559.55551 | pgbench_branches_pkey |            16384
 2017-02-08 18:39:19.555513+01 | 1486575559.55551 | pgbench_tellers_pkey  |            32768
 2017-02-08 18:39:19.555513+01 | 1486575559.55551 | pgbench_accounts_pkey |        112336896

 2017-02-08 18:39:20.619963+01 | 1486575560.61996 | pgbench_branches_pkey |            16384
 2017-02-08 18:39:20.619963+01 | 1486575560.61996 | pgbench_tellers_pkey  |            32768
 2017-02-08 18:39:20.619963+01 | 1486575560.61996 | pgbench_accounts_pkey |        112336896

 2017-02-08 18:39:21.692035+01 | 1486575561.69203 | pgbench_branches_pkey |            16384
 2017-02-08 18:39:21.692035+01 | 1486575561.69203 | pgbench_tellers_pkey  |            32768
 2017-02-08 18:39:21.692035+01 | 1486575561.69203 | pgbench_accounts_pkey |        112336896

 2017-02-08 18:39:22.759577+01 | 1486575562.75958 | pgbench_branches_pkey |            16384
 2017-02-08 18:39:22.759577+01 | 1486575562.75958 | pgbench_tellers_pkey  |            32768
 2017-02-08 18:39:22.759577+01 | 1486575562.75958 | pgbench_accounts_pkey |        112336896

 2017-02-08 18:39:23.825659+01 | 1486575563.82566 | pgbench_branches_pkey |            16384
 2017-02-08 18:39:23.825659+01 | 1486575563.82566 | pgbench_tellers_pkey  |            32768
 2017-02-08 18:39:23.825659+01 | 1486575563.82566 | pgbench_accounts_pkey |        112336896

 2017-02-08 18:39:24.89578+01 | 1486575564.89578 | pgbench_branches_pkey |            16384
 2017-02-08 18:39:24.89578+01 | 1486575564.89578 | pgbench_tellers_pkey  |            32768
 2017-02-08 18:39:24.89578+01 | 1486575564.89578 | pgbench_accounts_pkey |        112336896

 2017-02-08 18:39:25.968819+01 | 1486575565.96882 | pgbench_branches_pkey |            16384
 2017-02-08 18:39:25.968819+01 | 1486575565.96882 | pgbench_tellers_pkey  |            32768
 2017-02-08 18:39:25.968819+01 | 1486575565.96882 | pgbench_accounts_pkey |        112336896

 2017-02-08 18:39:27.029875+01 | 1486575567.02988 | pgbench_branches_pkey |            16384
 2017-02-08 18:39:27.029875+01 | 1486575567.02988 | pgbench_tellers_pkey  |            32768
 2017-02-08 18:39:27.029875+01 | 1486575567.02988 | pgbench_accounts_pkey |        112336896

 2017-02-08 18:39:28.097525+01 | 1486575568.09752 | pgbench_branches_pkey |            16384
 2017-02-08 18:39:28.097525+01 | 1486575568.09752 | pgbench_tellers_pkey  |            32768
 2017-02-08 18:39:28.097525+01 | 1486575568.09752 | pgbench_accounts_pkey |        112336896

 2017-02-08 18:39:29.162338+01 | 1486575569.16234 | pgbench_branches_pkey |            16384
 2017-02-08 18:39:29.162338+01 | 1486575569.16234 | pgbench_tellers_pkey  |            32768
 2017-02-08 18:39:29.162338+01 | 1486575569.16234 | pgbench_accounts_pkey |        112336896

 2017-02-08 18:39:30.231781+01 | 1486575570.23178 | pgbench_branches_pkey |            16384
 2017-02-08 18:39:30.231781+01 | 1486575570.23178 | pgbench_tellers_pkey  |            32768
 2017-02-08 18:39:30.231781+01 | 1486575570.23178 | pgbench_accounts_pkey |        112336896

 2017-02-08 18:39:31.30834+01 | 1486575571.30834 | pgbench_branches_pkey |            16384
 2017-02-08 18:39:31.30834+01 | 1486575571.30834 | pgbench_tellers_pkey  |            32768
 2017-02-08 18:39:31.30834+01 | 1486575571.30834 | pgbench_accounts_pkey |        112336896

 2017-02-08 18:39:32.367122+01 | 1486575572.36712 | pgbench_branches_pkey |            16384
 2017-02-08 18:39:32.367122+01 | 1486575572.36712 | pgbench_tellers_pkey  |            32768
 2017-02-08 18:39:32.367122+01 | 1486575572.36712 | pgbench_accounts_pkey |        112336896

 2017-02-08 18:39:33.425074+01 | 1486575573.42507 | pgbench_branches_pkey |            16384
 2017-02-08 18:39:33.425074+01 | 1486575573.42507 | pgbench_tellers_pkey  |            32768
 2017-02-08 18:39:33.425074+01 | 1486575573.42507 | pgbench_accounts_pkey |        112336896

 2017-02-08 18:39:34.491785+01 | 1486575574.49179 | pgbench_branches_pkey |            16384
 2017-02-08 18:39:34.491785+01 | 1486575574.49179 | pgbench_tellers_pkey  |            32768
 2017-02-08 18:39:34.491785+01 | 1486575574.49179 | pgbench_accounts_pkey |        112336896

 2017-02-08 18:39:35.552977+01 | 1486575575.55298 | pgbench_branches_pkey |            16384
 2017-02-08 18:39:35.552977+01 | 1486575575.55298 | pgbench_tellers_pkey  |            32768
 2017-02-08 18:39:35.552977+01 | 1486575575.55298 | pgbench_accounts_pkey |        112336896

 2017-02-08 18:39:36.625222+01 | 1486575576.62522 | pgbench_branches_pkey |            16384
 2017-02-08 18:39:36.625222+01 | 1486575576.62522 | pgbench_tellers_pkey  |            32768
 2017-02-08 18:39:36.625222+01 | 1486575576.62522 | pgbench_accounts_pkey |        112336896

 2017-02-08 18:39:37.710412+01 | 1486575577.71041 | pgbench_branches_pkey |            16384
 2017-02-08 18:39:37.710412+01 | 1486575577.71041 | pgbench_tellers_pkey  |            32768
 2017-02-08 18:39:37.710412+01 | 1486575577.71041 | pgbench_accounts_pkey |        112336896

 2017-02-08 18:39:38.763301+01 | 1486575578.7633 | pgbench_branches_pkey |            16384
 2017-02-08 18:39:38.763301+01 | 1486575578.7633 | pgbench_tellers_pkey  |            32768
 2017-02-08 18:39:38.763301+01 | 1486575578.7633 | pgbench_accounts_pkey |        112336896

 2017-02-08 18:39:39.827579+01 | 1486575579.82758 | pgbench_branches_pkey |            16384
 2017-02-08 18:39:39.827579+01 | 1486575579.82758 | pgbench_tellers_pkey  |            32768
 2017-02-08 18:39:39.827579+01 | 1486575579.82758 | pgbench_accounts_pkey |        112336896

 2017-02-08 18:39:40.89339+01 | 1486575580.89339 | pgbench_branches_pkey |            16384
 2017-02-08 18:39:40.89339+01 | 1486575580.89339 | pgbench_tellers_pkey  |            32768
 2017-02-08 18:39:40.89339+01 | 1486575580.89339 | pgbench_accounts_pkey |        112336896

 2017-02-08 18:39:41.970605+01 | 1486575581.9706 | pgbench_branches_pkey |            16384
 2017-02-08 18:39:41.970605+01 | 1486575581.9706 | pgbench_tellers_pkey  |            32768
 2017-02-08 18:39:41.970605+01 | 1486575581.9706 | pgbench_accounts_pkey |        112336896

 2017-02-08 18:39:43.036183+01 | 1486575583.03618 | pgbench_branches_pkey |            16384
 2017-02-08 18:39:43.036183+01 | 1486575583.03618 | pgbench_tellers_pkey  |            32768
 2017-02-08 18:39:43.036183+01 | 1486575583.03618 | pgbench_accounts_pkey |        112336896

 2017-02-08 18:39:44.091606+01 | 1486575584.09161 | pgbench_branches_pkey |            16384
 2017-02-08 18:39:44.091606+01 | 1486575584.09161 | pgbench_tellers_pkey  |            32768
 2017-02-08 18:39:44.091606+01 | 1486575584.09161 | pgbench_accounts_pkey |        112336896

 2017-02-08 18:39:45.165982+01 | 1486575585.16598 | pgbench_branches_pkey |            16384
 2017-02-08 18:39:45.165982+01 | 1486575585.16598 | pgbench_tellers_pkey  |            32768
 2017-02-08 18:39:45.165982+01 | 1486575585.16598 | pgbench_accounts_pkey |        112336896

 2017-02-08 18:39:46.231779+01 | 1486575586.23178 | pgbench_branches_pkey |            16384
 2017-02-08 18:39:46.231779+01 | 1486575586.23178 | pgbench_tellers_pkey  |            32768
 2017-02-08 18:39:46.231779+01 | 1486575586.23178 | pgbench_accounts_pkey |        112336896

 2017-02-08 18:39:47.287901+01 | 1486575587.2879 | pgbench_branches_pkey |            16384
 2017-02-08 18:39:47.287901+01 | 1486575587.2879 | pgbench_tellers_pkey  |            32768
 2017-02-08 18:39:47.287901+01 | 1486575587.2879 | pgbench_accounts_pkey |        112336896

 2017-02-08 18:39:48.348516+01 | 1486575588.34852 | pgbench_branches_pkey |            16384
 2017-02-08 18:39:48.348516+01 | 1486575588.34852 | pgbench_tellers_pkey  |            32768
 2017-02-08 18:39:48.348516+01 | 1486575588.34852 | pgbench_accounts_pkey |        112336896

 2017-02-08 18:39:49.414004+01 | 1486575589.414 | pgbench_branches_pkey |            16384
 2017-02-08 18:39:49.414004+01 | 1486575589.414 | pgbench_tellers_pkey  |            32768
 2017-02-08 18:39:49.414004+01 | 1486575589.414 | pgbench_accounts_pkey |        112336896

 2017-02-08 18:39:50.480771+01 | 1486575590.48077 | pgbench_branches_pkey |            16384
 2017-02-08 18:39:50.480771+01 | 1486575590.48077 | pgbench_tellers_pkey  |            32768
 2017-02-08 18:39:50.480771+01 | 1486575590.48077 | pgbench_accounts_pkey |        112336896

 2017-02-08 18:39:51.53999+01 | 1486575591.53999 | pgbench_branches_pkey |            16384
 2017-02-08 18:39:51.53999+01 | 1486575591.53999 | pgbench_tellers_pkey  |            32768
 2017-02-08 18:39:51.53999+01 | 1486575591.53999 | pgbench_accounts_pkey |        112336896

 2017-02-08 18:39:52.612046+01 | 1486575592.61205 | pgbench_branches_pkey |            16384
 2017-02-08 18:39:52.612046+01 | 1486575592.61205 | pgbench_tellers_pkey  |            32768
 2017-02-08 18:39:52.612046+01 | 1486575592.61205 | pgbench_accounts_pkey |        112336896

 2017-02-08 18:39:53.673754+01 | 1486575593.67375 | pgbench_branches_pkey |            16384
 2017-02-08 18:39:53.673754+01 | 1486575593.67375 | pgbench_tellers_pkey  |            32768
 2017-02-08 18:39:53.673754+01 | 1486575593.67375 | pgbench_accounts_pkey |        112336896

 2017-02-08 18:39:54.745969+01 | 1486575594.74597 | pgbench_branches_pkey |            16384
 2017-02-08 18:39:54.745969+01 | 1486575594.74597 | pgbench_tellers_pkey  |            32768
 2017-02-08 18:39:54.745969+01 | 1486575594.74597 | pgbench_accounts_pkey |        112336896

 2017-02-08 18:39:55.810535+01 | 1486575595.81053 | pgbench_branches_pkey |            16384
 2017-02-08 18:39:55.810535+01 | 1486575595.81053 | pgbench_tellers_pkey  |            32768
 2017-02-08 18:39:55.810535+01 | 1486575595.81053 | pgbench_accounts_pkey |        112336896

 2017-02-08 18:39:56.880246+01 | 1486575596.88025 | pgbench_branches_pkey |            16384
 2017-02-08 18:39:56.880246+01 | 1486575596.88025 | pgbench_tellers_pkey  |            32768
 2017-02-08 18:39:56.880246+01 | 1486575596.88025 | pgbench_accounts_pkey |        112336896

 2017-02-08 18:39:57.953348+01 | 1486575597.95335 | pgbench_branches_pkey |            16384
 2017-02-08 18:39:57.953348+01 | 1486575597.95335 | pgbench_tellers_pkey  |            32768
 2017-02-08 18:39:57.953348+01 | 1486575597.95335 | pgbench_accounts_pkey |        112336896

 2017-02-08 18:39:59.025284+01 | 1486575599.02528 | pgbench_branches_pkey |            16384
 2017-02-08 18:39:59.025284+01 | 1486575599.02528 | pgbench_tellers_pkey  |            32768
 2017-02-08 18:39:59.025284+01 | 1486575599.02528 | pgbench_accounts_pkey |        112336896

 2017-02-08 18:40:00.09794+01 | 1486575600.09794 | pgbench_branches_pkey |            16384
 2017-02-08 18:40:00.09794+01 | 1486575600.09794 | pgbench_tellers_pkey  |            32768
 2017-02-08 18:40:00.09794+01 | 1486575600.09794 | pgbench_accounts_pkey |        112336896

 2017-02-08 18:40:01.164219+01 | 1486575601.16422 | pgbench_branches_pkey |            16384
 2017-02-08 18:40:01.164219+01 | 1486575601.16422 | pgbench_tellers_pkey  |            32768
 2017-02-08 18:40:01.164219+01 | 1486575601.16422 | pgbench_accounts_pkey |        112336896

 2017-02-08 18:40:02.239734+01 | 1486575602.23973 | pgbench_branches_pkey |            16384
 2017-02-08 18:40:02.239734+01 | 1486575602.23973 | pgbench_tellers_pkey  |            32768
 2017-02-08 18:40:02.239734+01 | 1486575602.23973 | pgbench_accounts_pkey |        112336896

 2017-02-08 18:40:03.306975+01 | 1486575603.30697 | pgbench_branches_pkey |            16384
 2017-02-08 18:40:03.306975+01 | 1486575603.30697 | pgbench_tellers_pkey  |            32768
 2017-02-08 18:40:03.306975+01 | 1486575603.30697 | pgbench_accounts_pkey |        112336896

 2017-02-08 18:40:04.375836+01 | 1486575604.37584 | pgbench_branches_pkey |            16384
 2017-02-08 18:40:04.375836+01 | 1486575604.37584 | pgbench_tellers_pkey  |            32768
 2017-02-08 18:40:04.375836+01 | 1486575604.37584 | pgbench_accounts_pkey |        112336896

 2017-02-08 18:40:05.440485+01 | 1486575605.44049 | pgbench_branches_pkey |            16384
 2017-02-08 18:40:05.440485+01 | 1486575605.44049 | pgbench_tellers_pkey  |            32768
 2017-02-08 18:40:05.440485+01 | 1486575605.44049 | pgbench_accounts_pkey |        112336896

 2017-02-08 18:40:06.510552+01 | 1486575606.51055 | pgbench_branches_pkey |            16384
 2017-02-08 18:40:06.510552+01 | 1486575606.51055 | pgbench_tellers_pkey  |            32768
 2017-02-08 18:40:06.510552+01 | 1486575606.51055 | pgbench_accounts_pkey |        112336896

 2017-02-08 18:40:07.571066+01 | 1486575607.57107 | pgbench_branches_pkey |            16384
 2017-02-08 18:40:07.571066+01 | 1486575607.57107 | pgbench_tellers_pkey  |            32768
 2017-02-08 18:40:07.571066+01 | 1486575607.57107 | pgbench_accounts_pkey |        112336896

 2017-02-08 18:40:08.628169+01 | 1486575608.62817 | pgbench_branches_pkey |            16384
 2017-02-08 18:40:08.628169+01 | 1486575608.62817 | pgbench_tellers_pkey  |            32768
 2017-02-08 18:40:08.628169+01 | 1486575608.62817 | pgbench_accounts_pkey |        112336896

 2017-02-08 18:40:09.690721+01 | 1486575609.69072 | pgbench_branches_pkey |            16384
 2017-02-08 18:40:09.690721+01 | 1486575609.69072 | pgbench_tellers_pkey  |            32768
 2017-02-08 18:40:09.690721+01 | 1486575609.69072 | pgbench_accounts_pkey |        112336896

 2017-02-08 18:40:10.746747+01 | 1486575610.74675 | pgbench_branches_pkey |            16384
 2017-02-08 18:40:10.746747+01 | 1486575610.74675 | pgbench_tellers_pkey  |            32768
 2017-02-08 18:40:10.746747+01 | 1486575610.74675 | pgbench_accounts_pkey |        112336896

 2017-02-08 18:40:11.812525+01 | 1486575611.81253 | pgbench_branches_pkey |            16384
 2017-02-08 18:40:11.812525+01 | 1486575611.81253 | pgbench_tellers_pkey  |            32768
 2017-02-08 18:40:11.812525+01 | 1486575611.81253 | pgbench_accounts_pkey |        112336896

 2017-02-08 18:40:12.887988+01 | 1486575612.88799 | pgbench_branches_pkey |            16384
 2017-02-08 18:40:12.887988+01 | 1486575612.88799 | pgbench_tellers_pkey  |            32768
 2017-02-08 18:40:12.887988+01 | 1486575612.88799 | pgbench_accounts_pkey |        112336896

 2017-02-08 18:40:13.959796+01 | 1486575613.9598 | pgbench_branches_pkey |            16384
 2017-02-08 18:40:13.959796+01 | 1486575613.9598 | pgbench_tellers_pkey  |            32768
 2017-02-08 18:40:13.959796+01 | 1486575613.9598 | pgbench_accounts_pkey |        112336896

 2017-02-08 18:40:15.022507+01 | 1486575615.02251 | pgbench_branches_pkey |            16384
 2017-02-08 18:40:15.022507+01 | 1486575615.02251 | pgbench_tellers_pkey  |            32768
 2017-02-08 18:40:15.022507+01 | 1486575615.02251 | pgbench_accounts_pkey |        112336896

 2017-02-08 18:40:16.090225+01 | 1486575616.09022 | pgbench_branches_pkey |            16384
 2017-02-08 18:40:16.090225+01 | 1486575616.09022 | pgbench_tellers_pkey  |            32768
 2017-02-08 18:40:16.090225+01 | 1486575616.09022 | pgbench_accounts_pkey |        112336896

 2017-02-08 18:40:17.155944+01 | 1486575617.15594 | pgbench_branches_pkey |            16384
 2017-02-08 18:40:17.155944+01 | 1486575617.15594 | pgbench_tellers_pkey  |            32768
 2017-02-08 18:40:17.155944+01 | 1486575617.15594 | pgbench_accounts_pkey |        112336896

 2017-02-08 18:40:18.217069+01 | 1486575618.21707 | pgbench_branches_pkey |            16384
 2017-02-08 18:40:18.217069+01 | 1486575618.21707 | pgbench_tellers_pkey  |            32768
 2017-02-08 18:40:18.217069+01 | 1486575618.21707 | pgbench_accounts_pkey |        112336896

 2017-02-08 18:40:19.303456+01 | 1486575619.30346 | pgbench_branches_pkey |            16384
 2017-02-08 18:40:19.303456+01 | 1486575619.30346 | pgbench_tellers_pkey  |            32768
 2017-02-08 18:40:19.303456+01 | 1486575619.30346 | pgbench_accounts_pkey |        112336896

 2017-02-08 18:40:20.370542+01 | 1486575620.37054 | pgbench_branches_pkey |            16384
 2017-02-08 18:40:20.370542+01 | 1486575620.37054 | pgbench_tellers_pkey  |            32768
 2017-02-08 18:40:20.370542+01 | 1486575620.37054 | pgbench_accounts_pkey |        112336896

 2017-02-08 18:40:21.43874+01 | 1486575621.43874 | pgbench_branches_pkey |            16384
 2017-02-08 18:40:21.43874+01 | 1486575621.43874 | pgbench_tellers_pkey  |            32768
 2017-02-08 18:40:21.43874+01 | 1486575621.43874 | pgbench_accounts_pkey |        112336896

 2017-02-08 18:40:22.50868+01 | 1486575622.50868 | pgbench_branches_pkey |            16384
 2017-02-08 18:40:22.50868+01 | 1486575622.50868 | pgbench_tellers_pkey  |            32768
 2017-02-08 18:40:22.50868+01 | 1486575622.50868 | pgbench_accounts_pkey |        112336896

 2017-02-08 18:40:23.583844+01 | 1486575623.58384 | pgbench_branches_pkey |            16384
 2017-02-08 18:40:23.583844+01 | 1486575623.58384 | pgbench_tellers_pkey  |            32768
 2017-02-08 18:40:23.583844+01 | 1486575623.58384 | pgbench_accounts_pkey |        112336896

 2017-02-08 18:40:24.651+01 | 1486575624.651 | pgbench_branches_pkey |            16384
 2017-02-08 18:40:24.651+01 | 1486575624.651 | pgbench_tellers_pkey  |            32768
 2017-02-08 18:40:24.651+01 | 1486575624.651 | pgbench_accounts_pkey |        112336896

 2017-02-08 18:40:25.705859+01 | 1486575625.70586 | pgbench_branches_pkey |            16384
 2017-02-08 18:40:25.705859+01 | 1486575625.70586 | pgbench_tellers_pkey  |            32768
 2017-02-08 18:40:25.705859+01 | 1486575625.70586 | pgbench_accounts_pkey |        112336896

 2017-02-08 18:40:26.776199+01 | 1486575626.7762 | pgbench_branches_pkey |            16384
 2017-02-08 18:40:26.776199+01 | 1486575626.7762 | pgbench_tellers_pkey  |            32768
 2017-02-08 18:40:26.776199+01 | 1486575626.7762 | pgbench_accounts_pkey |        112336896

 2017-02-08 18:40:27.843686+01 | 1486575627.84369 | pgbench_branches_pkey |            16384
 2017-02-08 18:40:27.843686+01 | 1486575627.84369 | pgbench_tellers_pkey  |            32768
 2017-02-08 18:40:27.843686+01 | 1486575627.84369 | pgbench_accounts_pkey |        112336896

 2017-02-08 18:40:28.907118+01 | 1486575628.90712 | pgbench_branches_pkey |            16384
 2017-02-08 18:40:28.907118+01 | 1486575628.90712 | pgbench_tellers_pkey  |            32768
 2017-02-08 18:40:28.907118+01 | 1486575628.90712 | pgbench_accounts_pkey |        112336896

 2017-02-08 18:40:29.981563+01 | 1486575629.98156 | pgbench_branches_pkey |            16384
 2017-02-08 18:40:29.981563+01 | 1486575629.98156 | pgbench_tellers_pkey  |            32768
 2017-02-08 18:40:29.981563+01 | 1486575629.98156 | pgbench_accounts_pkey |        112336896

 2017-02-08 18:40:31.058985+01 | 1486575631.05898 | pgbench_branches_pkey |            16384
 2017-02-08 18:40:31.058985+01 | 1486575631.05898 | pgbench_tellers_pkey  |            32768
 2017-02-08 18:40:31.058985+01 | 1486575631.05898 | pgbench_accounts_pkey |        112336896

 2017-02-08 18:40:32.117242+01 | 1486575632.11724 | pgbench_branches_pkey |            16384
 2017-02-08 18:40:32.117242+01 | 1486575632.11724 | pgbench_tellers_pkey  |            32768
 2017-02-08 18:40:32.117242+01 | 1486575632.11724 | pgbench_accounts_pkey |        112336896

 2017-02-08 18:40:33.190306+01 | 1486575633.19031 | pgbench_branches_pkey |            16384
 2017-02-08 18:40:33.190306+01 | 1486575633.19031 | pgbench_tellers_pkey  |            32768
 2017-02-08 18:40:33.190306+01 | 1486575633.19031 | pgbench_accounts_pkey |        112336896

 2017-02-08 18:40:34.270284+01 | 1486575634.27028 | pgbench_branches_pkey |            16384
 2017-02-08 18:40:34.270284+01 | 1486575634.27028 | pgbench_tellers_pkey  |            32768
 2017-02-08 18:40:34.270284+01 | 1486575634.27028 | pgbench_accounts_pkey |        112336896

 2017-02-08 18:40:35.350698+01 | 1486575635.3507 | pgbench_branches_pkey |            16384
 2017-02-08 18:40:35.350698+01 | 1486575635.3507 | pgbench_tellers_pkey  |            32768
 2017-02-08 18:40:35.350698+01 | 1486575635.3507 | pgbench_accounts_pkey |        112336896

 2017-02-08 18:40:36.405975+01 | 1486575636.40598 | pgbench_branches_pkey |            16384
 2017-02-08 18:40:36.405975+01 | 1486575636.40598 | pgbench_tellers_pkey  |            32768
 2017-02-08 18:40:36.405975+01 | 1486575636.40598 | pgbench_accounts_pkey |        112336896

 2017-02-08 18:40:37.477861+01 | 1486575637.47786 | pgbench_branches_pkey |            16384
 2017-02-08 18:40:37.477861+01 | 1486575637.47786 | pgbench_tellers_pkey  |            32768
 2017-02-08 18:40:37.477861+01 | 1486575637.47786 | pgbench_accounts_pkey |        112336896

 2017-02-08 18:40:38.541689+01 | 1486575638.54169 | pgbench_branches_pkey |            16384
 2017-02-08 18:40:38.541689+01 | 1486575638.54169 | pgbench_tellers_pkey  |            32768
 2017-02-08 18:40:38.541689+01 | 1486575638.54169 | pgbench_accounts_pkey |        112336896

 2017-02-08 18:40:39.600619+01 | 1486575639.60062 | pgbench_branches_pkey |            16384
 2017-02-08 18:40:39.600619+01 | 1486575639.60062 | pgbench_tellers_pkey  |            32768
 2017-02-08 18:40:39.600619+01 | 1486575639.60062 | pgbench_accounts_pkey |        112336896

 2017-02-08 18:40:40.658568+01 | 1486575640.65857 | pgbench_branches_pkey |            16384
 2017-02-08 18:40:40.658568+01 | 1486575640.65857 | pgbench_tellers_pkey  |            32768
 2017-02-08 18:40:40.658568+01 | 1486575640.65857 | pgbench_accounts_pkey |        112336896

 2017-02-08 18:40:41.727789+01 | 1486575641.72779 | pgbench_branches_pkey |            16384
 2017-02-08 18:40:41.727789+01 | 1486575641.72779 | pgbench_tellers_pkey  |            32768
 2017-02-08 18:40:41.727789+01 | 1486575641.72779 | pgbench_accounts_pkey |        112336896

 2017-02-08 18:40:42.806355+01 | 1486575642.80635 | pgbench_branches_pkey |            16384
 2017-02-08 18:40:42.806355+01 | 1486575642.80635 | pgbench_tellers_pkey  |            32768
 2017-02-08 18:40:42.806355+01 | 1486575642.80635 | pgbench_accounts_pkey |        112336896

 2017-02-08 18:40:43.884224+01 | 1486575643.88422 | pgbench_branches_pkey |            16384
 2017-02-08 18:40:43.884224+01 | 1486575643.88422 | pgbench_tellers_pkey  |            32768
 2017-02-08 18:40:43.884224+01 | 1486575643.88422 | pgbench_accounts_pkey |        112336896

 2017-02-08 18:40:44.954715+01 | 1486575644.95472 | pgbench_branches_pkey |            16384
 2017-02-08 18:40:44.954715+01 | 1486575644.95472 | pgbench_tellers_pkey  |            32768
 2017-02-08 18:40:44.954715+01 | 1486575644.95472 | pgbench_accounts_pkey |        112336896

 2017-02-08 18:40:46.020562+01 | 1486575646.02056 | pgbench_branches_pkey |            16384
 2017-02-08 18:40:46.020562+01 | 1486575646.02056 | pgbench_tellers_pkey  |            32768
 2017-02-08 18:40:46.020562+01 | 1486575646.02056 | pgbench_accounts_pkey |        112336896

 2017-02-08 18:40:47.092215+01 | 1486575647.09222 | pgbench_branches_pkey |            16384
 2017-02-08 18:40:47.092215+01 | 1486575647.09222 | pgbench_tellers_pkey  |            32768
 2017-02-08 18:40:47.092215+01 | 1486575647.09222 | pgbench_accounts_pkey |        112336896

 2017-02-08 18:40:48.157113+01 | 1486575648.15711 | pgbench_branches_pkey |            16384
 2017-02-08 18:40:48.157113+01 | 1486575648.15711 | pgbench_tellers_pkey  |            32768
 2017-02-08 18:40:48.157113+01 | 1486575648.15711 | pgbench_accounts_pkey |        112336896

 2017-02-08 18:40:49.2304+01 | 1486575649.2304 | pgbench_branches_pkey |            16384
 2017-02-08 18:40:49.2304+01 | 1486575649.2304 | pgbench_tellers_pkey  |            32768
 2017-02-08 18:40:49.2304+01 | 1486575649.2304 | pgbench_accounts_pkey |        112336896

 2017-02-08 18:40:50.286681+01 | 1486575650.28668 | pgbench_branches_pkey |            16384
 2017-02-08 18:40:50.286681+01 | 1486575650.28668 | pgbench_tellers_pkey  |            32768
 2017-02-08 18:40:50.286681+01 | 1486575650.28668 | pgbench_accounts_pkey |        112336896

 2017-02-08 18:40:51.360345+01 | 1486575651.36034 | pgbench_branches_pkey |            16384
 2017-02-08 18:40:51.360345+01 | 1486575651.36034 | pgbench_tellers_pkey  |            32768
 2017-02-08 18:40:51.360345+01 | 1486575651.36034 | pgbench_accounts_pkey |        112336896

 2017-02-08 18:40:52.425044+01 | 1486575652.42504 | pgbench_branches_pkey |            16384
 2017-02-08 18:40:52.425044+01 | 1486575652.42504 | pgbench_tellers_pkey  |            32768
 2017-02-08 18:40:52.425044+01 | 1486575652.42504 | pgbench_accounts_pkey |        112336896

 2017-02-08 18:40:53.491784+01 | 1486575653.49178 | pgbench_branches_pkey |            16384
 2017-02-08 18:40:53.491784+01 | 1486575653.49178 | pgbench_tellers_pkey  |            32768
 2017-02-08 18:40:53.491784+01 | 1486575653.49178 | pgbench_accounts_pkey |        112336896

 2017-02-08 18:40:54.551391+01 | 1486575654.55139 | pgbench_branches_pkey |            16384
 2017-02-08 18:40:54.551391+01 | 1486575654.55139 | pgbench_tellers_pkey  |            32768
 2017-02-08 18:40:54.551391+01 | 1486575654.55139 | pgbench_accounts_pkey |        112336896

 2017-02-08 18:40:55.624728+01 | 1486575655.62473 | pgbench_branches_pkey |            16384
 2017-02-08 18:40:55.624728+01 | 1486575655.62473 | pgbench_tellers_pkey  |            32768
 2017-02-08 18:40:55.624728+01 | 1486575655.62473 | pgbench_accounts_pkey |        112336896

 2017-02-08 18:40:56.705727+01 | 1486575656.70573 | pgbench_branches_pkey |            16384
 2017-02-08 18:40:56.705727+01 | 1486575656.70573 | pgbench_tellers_pkey  |            32768
 2017-02-08 18:40:56.705727+01 | 1486575656.70573 | pgbench_accounts_pkey |        112336896

 2017-02-08 18:40:57.766461+01 | 1486575657.76646 | pgbench_branches_pkey |            16384
 2017-02-08 18:40:57.766461+01 | 1486575657.76646 | pgbench_tellers_pkey  |            32768
 2017-02-08 18:40:57.766461+01 | 1486575657.76646 | pgbench_accounts_pkey |        112336896

 2017-02-08 18:40:58.83562+01 | 1486575658.83562 | pgbench_branches_pkey |            16384
 2017-02-08 18:40:58.83562+01 | 1486575658.83562 | pgbench_tellers_pkey  |            32768
 2017-02-08 18:40:58.83562+01 | 1486575658.83562 | pgbench_accounts_pkey |        112336896

 2017-02-08 18:40:59.907698+01 | 1486575659.9077 | pgbench_branches_pkey |            16384
 2017-02-08 18:40:59.907698+01 | 1486575659.9077 | pgbench_tellers_pkey  |            32768
 2017-02-08 18:40:59.907698+01 | 1486575659.9077 | pgbench_accounts_pkey |        112336896

 2017-02-08 18:41:00.973017+01 | 1486575660.97302 | pgbench_branches_pkey |            16384
 2017-02-08 18:41:00.973017+01 | 1486575660.97302 | pgbench_tellers_pkey  |            32768
 2017-02-08 18:41:00.973017+01 | 1486575660.97302 | pgbench_accounts_pkey |        112336896

 2017-02-08 18:41:02.056843+01 | 1486575662.05684 | pgbench_branches_pkey |            16384
 2017-02-08 18:41:02.056843+01 | 1486575662.05684 | pgbench_tellers_pkey  |            32768
 2017-02-08 18:41:02.056843+01 | 1486575662.05684 | pgbench_accounts_pkey |        112336896

 2017-02-08 18:41:03.121734+01 | 1486575663.12173 | pgbench_branches_pkey |            16384
 2017-02-08 18:41:03.121734+01 | 1486575663.12173 | pgbench_tellers_pkey  |            32768
 2017-02-08 18:41:03.121734+01 | 1486575663.12173 | pgbench_accounts_pkey |        112336896

 2017-02-08 18:41:04.199657+01 | 1486575664.19966 | pgbench_branches_pkey |            16384
 2017-02-08 18:41:04.199657+01 | 1486575664.19966 | pgbench_tellers_pkey  |            32768
 2017-02-08 18:41:04.199657+01 | 1486575664.19966 | pgbench_accounts_pkey |        112336896

 2017-02-08 18:41:05.259446+01 | 1486575665.25945 | pgbench_branches_pkey |            16384
 2017-02-08 18:41:05.259446+01 | 1486575665.25945 | pgbench_tellers_pkey  |            32768
 2017-02-08 18:41:05.259446+01 | 1486575665.25945 | pgbench_accounts_pkey |        112336896

 2017-02-08 18:41:06.335819+01 | 1486575666.33582 | pgbench_branches_pkey |            16384
 2017-02-08 18:41:06.335819+01 | 1486575666.33582 | pgbench_tellers_pkey  |            32768
 2017-02-08 18:41:06.335819+01 | 1486575666.33582 | pgbench_accounts_pkey |        112336896

 2017-02-08 18:41:07.402383+01 | 1486575667.40238 | pgbench_branches_pkey |            16384
 2017-02-08 18:41:07.402383+01 | 1486575667.40238 | pgbench_tellers_pkey  |            32768
 2017-02-08 18:41:07.402383+01 | 1486575667.40238 | pgbench_accounts_pkey |        112336896

 2017-02-08 18:41:08.470502+01 | 1486575668.4705 | pgbench_branches_pkey |            16384
 2017-02-08 18:41:08.470502+01 | 1486575668.4705 | pgbench_tellers_pkey  |            32768
 2017-02-08 18:41:08.470502+01 | 1486575668.4705 | pgbench_accounts_pkey |        112336896

 2017-02-08 18:41:09.530292+01 | 1486575669.53029 | pgbench_branches_pkey |            16384
 2017-02-08 18:41:09.530292+01 | 1486575669.53029 | pgbench_tellers_pkey  |            32768
 2017-02-08 18:41:09.530292+01 | 1486575669.53029 | pgbench_accounts_pkey |        112336896

 2017-02-08 18:41:10.596912+01 | 1486575670.59691 | pgbench_branches_pkey |            16384
 2017-02-08 18:41:10.596912+01 | 1486575670.59691 | pgbench_tellers_pkey  |            32768
 2017-02-08 18:41:10.596912+01 | 1486575670.59691 | pgbench_accounts_pkey |        112336896

 2017-02-08 18:41:11.670457+01 | 1486575671.67046 | pgbench_branches_pkey |            16384
 2017-02-08 18:41:11.670457+01 | 1486575671.67046 | pgbench_tellers_pkey  |            32768
 2017-02-08 18:41:11.670457+01 | 1486575671.67046 | pgbench_accounts_pkey |        112336896

 2017-02-08 18:41:12.737556+01 | 1486575672.73756 | pgbench_branches_pkey |            16384
 2017-02-08 18:41:12.737556+01 | 1486575672.73756 | pgbench_tellers_pkey  |            32768
 2017-02-08 18:41:12.737556+01 | 1486575672.73756 | pgbench_accounts_pkey |        112336896

 2017-02-08 18:41:13.819959+01 | 1486575673.81996 | pgbench_branches_pkey |            16384
 2017-02-08 18:41:13.819959+01 | 1486575673.81996 | pgbench_tellers_pkey  |            32768
 2017-02-08 18:41:13.819959+01 | 1486575673.81996 | pgbench_accounts_pkey |        112336896

 2017-02-08 18:41:14.89566+01 | 1486575674.89566 | pgbench_branches_pkey |            16384
 2017-02-08 18:41:14.89566+01 | 1486575674.89566 | pgbench_tellers_pkey  |            32768
 2017-02-08 18:41:14.89566+01 | 1486575674.89566 | pgbench_accounts_pkey |        112336896

 2017-02-08 18:41:15.966797+01 | 1486575675.9668 | pgbench_branches_pkey |            16384
 2017-02-08 18:41:15.966797+01 | 1486575675.9668 | pgbench_tellers_pkey  |            32768
 2017-02-08 18:41:15.966797+01 | 1486575675.9668 | pgbench_accounts_pkey |        112336896

 2017-02-08 18:41:17.047929+01 | 1486575677.04793 | pgbench_branches_pkey |            16384
 2017-02-08 18:41:17.047929+01 | 1486575677.04793 | pgbench_tellers_pkey  |            32768
 2017-02-08 18:41:17.047929+01 | 1486575677.04793 | pgbench_accounts_pkey |        112336896

 2017-02-08 18:41:18.115848+01 | 1486575678.11585 | pgbench_branches_pkey |            16384
 2017-02-08 18:41:18.115848+01 | 1486575678.11585 | pgbench_tellers_pkey  |            32768
 2017-02-08 18:41:18.115848+01 | 1486575678.11585 | pgbench_accounts_pkey |        112336896

 2017-02-08 18:41:19.188912+01 | 1486575679.18891 | pgbench_branches_pkey |            16384
 2017-02-08 18:41:19.188912+01 | 1486575679.18891 | pgbench_tellers_pkey  |            32768
 2017-02-08 18:41:19.188912+01 | 1486575679.18891 | pgbench_accounts_pkey |        112336896

 2017-02-08 18:41:20.267592+01 | 1486575680.26759 | pgbench_branches_pkey |            16384
 2017-02-08 18:41:20.267592+01 | 1486575680.26759 | pgbench_tellers_pkey  |            32768
 2017-02-08 18:41:20.267592+01 | 1486575680.26759 | pgbench_accounts_pkey |        112336896

 2017-02-08 18:41:21.335891+01 | 1486575681.33589 | pgbench_branches_pkey |            16384
 2017-02-08 18:41:21.335891+01 | 1486575681.33589 | pgbench_tellers_pkey  |            32768
 2017-02-08 18:41:21.335891+01 | 1486575681.33589 | pgbench_accounts_pkey |        112336896

 2017-02-08 18:41:22.402688+01 | 1486575682.40269 | pgbench_branches_pkey |            16384
 2017-02-08 18:41:22.402688+01 | 1486575682.40269 | pgbench_tellers_pkey  |            32768
 2017-02-08 18:41:22.402688+01 | 1486575682.40269 | pgbench_accounts_pkey |        112336896

 2017-02-08 18:41:23.469503+01 | 1486575683.4695 | pgbench_branches_pkey |            16384
 2017-02-08 18:41:23.469503+01 | 1486575683.4695 | pgbench_tellers_pkey  |            32768
 2017-02-08 18:41:23.469503+01 | 1486575683.4695 | pgbench_accounts_pkey |        112336896

 2017-02-08 18:41:24.539089+01 | 1486575684.53909 | pgbench_branches_pkey |            16384
 2017-02-08 18:41:24.539089+01 | 1486575684.53909 | pgbench_tellers_pkey  |            32768
 2017-02-08 18:41:24.539089+01 | 1486575684.53909 | pgbench_accounts_pkey |        112336896

 2017-02-08 18:41:25.616171+01 | 1486575685.61617 | pgbench_branches_pkey |            16384
 2017-02-08 18:41:25.616171+01 | 1486575685.61617 | pgbench_tellers_pkey  |            32768
 2017-02-08 18:41:25.616171+01 | 1486575685.61617 | pgbench_accounts_pkey |        112336896

 2017-02-08 18:41:26.686659+01 | 1486575686.68666 | pgbench_branches_pkey |            16384
 2017-02-08 18:41:26.686659+01 | 1486575686.68666 | pgbench_tellers_pkey  |            32768
 2017-02-08 18:41:26.686659+01 | 1486575686.68666 | pgbench_accounts_pkey |        112336896

 2017-02-08 18:41:27.755275+01 | 1486575687.75528 | pgbench_branches_pkey |            16384
 2017-02-08 18:41:27.755275+01 | 1486575687.75528 | pgbench_tellers_pkey  |            32768
 2017-02-08 18:41:27.755275+01 | 1486575687.75528 | pgbench_accounts_pkey |        112336896

 2017-02-08 18:41:28.822953+01 | 1486575688.82295 | pgbench_branches_pkey |            16384
 2017-02-08 18:41:28.822953+01 | 1486575688.82295 | pgbench_tellers_pkey  |            32768
 2017-02-08 18:41:28.822953+01 | 1486575688.82295 | pgbench_accounts_pkey |        112336896

 2017-02-08 18:41:29.894871+01 | 1486575689.89487 | pgbench_branches_pkey |            16384
 2017-02-08 18:41:29.894871+01 | 1486575689.89487 | pgbench_tellers_pkey  |            32768
 2017-02-08 18:41:29.894871+01 | 1486575689.89487 | pgbench_accounts_pkey |        112336896

 2017-02-08 18:41:30.954945+01 | 1486575690.95495 | pgbench_branches_pkey |            16384
 2017-02-08 18:41:30.954945+01 | 1486575690.95495 | pgbench_tellers_pkey  |            32768
 2017-02-08 18:41:30.954945+01 | 1486575690.95495 | pgbench_accounts_pkey |        112336896

 2017-02-08 18:41:32.024746+01 | 1486575692.02475 | pgbench_branches_pkey |            16384
 2017-02-08 18:41:32.024746+01 | 1486575692.02475 | pgbench_tellers_pkey  |            32768
 2017-02-08 18:41:32.024746+01 | 1486575692.02475 | pgbench_accounts_pkey |        112336896

 2017-02-08 18:41:33.085114+01 | 1486575693.08511 | pgbench_branches_pkey |            16384
 2017-02-08 18:41:33.085114+01 | 1486575693.08511 | pgbench_tellers_pkey  |            32768
 2017-02-08 18:41:33.085114+01 | 1486575693.08511 | pgbench_accounts_pkey |        112336896

 2017-02-08 18:41:34.161702+01 | 1486575694.1617 | pgbench_branches_pkey |            16384
 2017-02-08 18:41:34.161702+01 | 1486575694.1617 | pgbench_tellers_pkey  |            32768
 2017-02-08 18:41:34.161702+01 | 1486575694.1617 | pgbench_accounts_pkey |        112336896

 2017-02-08 18:41:35.217402+01 | 1486575695.2174 | pgbench_branches_pkey |            16384
 2017-02-08 18:41:35.217402+01 | 1486575695.2174 | pgbench_tellers_pkey  |            32768
 2017-02-08 18:41:35.217402+01 | 1486575695.2174 | pgbench_accounts_pkey |        112336896

 2017-02-08 18:41:36.288967+01 | 1486575696.28897 | pgbench_branches_pkey |            16384
 2017-02-08 18:41:36.288967+01 | 1486575696.28897 | pgbench_tellers_pkey  |            32768
 2017-02-08 18:41:36.288967+01 | 1486575696.28897 | pgbench_accounts_pkey |        112336896

 2017-02-08 18:41:37.351609+01 | 1486575697.35161 | pgbench_branches_pkey |            16384
 2017-02-08 18:41:37.351609+01 | 1486575697.35161 | pgbench_tellers_pkey  |            32768
 2017-02-08 18:41:37.351609+01 | 1486575697.35161 | pgbench_accounts_pkey |        112336896

 2017-02-08 18:41:38.411659+01 | 1486575698.41166 | pgbench_branches_pkey |            16384
 2017-02-08 18:41:38.411659+01 | 1486575698.41166 | pgbench_tellers_pkey  |            32768
 2017-02-08 18:41:38.411659+01 | 1486575698.41166 | pgbench_accounts_pkey |        112336896

 2017-02-08 18:41:39.48654+01 | 1486575699.48654 | pgbench_branches_pkey |            16384
 2017-02-08 18:41:39.48654+01 | 1486575699.48654 | pgbench_tellers_pkey  |            32768
 2017-02-08 18:41:39.48654+01 | 1486575699.48654 | pgbench_accounts_pkey |        112336896

 2017-02-08 18:41:40.572448+01 | 1486575700.57245 | pgbench_branches_pkey |            16384
 2017-02-08 18:41:40.572448+01 | 1486575700.57245 | pgbench_tellers_pkey  |            32768
 2017-02-08 18:41:40.572448+01 | 1486575700.57245 | pgbench_accounts_pkey |        112336896

 2017-02-08 18:41:41.638032+01 | 1486575701.63803 | pgbench_branches_pkey |            16384
 2017-02-08 18:41:41.638032+01 | 1486575701.63803 | pgbench_tellers_pkey  |            32768
 2017-02-08 18:41:41.638032+01 | 1486575701.63803 | pgbench_accounts_pkey |        112336896

 2017-02-08 18:41:42.723235+01 | 1486575702.72323 | pgbench_branches_pkey |            16384
 2017-02-08 18:41:42.723235+01 | 1486575702.72323 | pgbench_tellers_pkey  |            32768
 2017-02-08 18:41:42.723235+01 | 1486575702.72323 | pgbench_accounts_pkey |        112336896

 2017-02-08 18:41:43.779457+01 | 1486575703.77946 | pgbench_branches_pkey |            16384
 2017-02-08 18:41:43.779457+01 | 1486575703.77946 | pgbench_tellers_pkey  |            32768
 2017-02-08 18:41:43.779457+01 | 1486575703.77946 | pgbench_accounts_pkey |        112336896

 2017-02-08 18:41:44.847793+01 | 1486575704.84779 | pgbench_branches_pkey |            16384
 2017-02-08 18:41:44.847793+01 | 1486575704.84779 | pgbench_tellers_pkey  |            32768
 2017-02-08 18:41:44.847793+01 | 1486575704.84779 | pgbench_accounts_pkey |        112336896

 2017-02-08 18:41:45.932285+01 | 1486575705.93229 | pgbench_branches_pkey |            16384
 2017-02-08 18:41:45.932285+01 | 1486575705.93229 | pgbench_tellers_pkey  |            32768
 2017-02-08 18:41:45.932285+01 | 1486575705.93229 | pgbench_accounts_pkey |        112336896

 2017-02-08 18:41:46.997904+01 | 1486575706.9979 | pgbench_branches_pkey |            16384
 2017-02-08 18:41:46.997904+01 | 1486575706.9979 | pgbench_tellers_pkey  |            32768
 2017-02-08 18:41:46.997904+01 | 1486575706.9979 | pgbench_accounts_pkey |        112336896

 2017-02-08 18:41:48.056626+01 | 1486575708.05663 | pgbench_branches_pkey |            16384
 2017-02-08 18:41:48.056626+01 | 1486575708.05663 | pgbench_tellers_pkey  |            32768
 2017-02-08 18:41:48.056626+01 | 1486575708.05663 | pgbench_accounts_pkey |        112336896

 2017-02-08 18:41:49.122645+01 | 1486575709.12264 | pgbench_branches_pkey |            16384
 2017-02-08 18:41:49.122645+01 | 1486575709.12264 | pgbench_tellers_pkey  |            32768
 2017-02-08 18:41:49.122645+01 | 1486575709.12264 | pgbench_accounts_pkey |        112336896

 2017-02-08 18:41:50.184763+01 | 1486575710.18476 | pgbench_branches_pkey |            16384
 2017-02-08 18:41:50.184763+01 | 1486575710.18476 | pgbench_tellers_pkey  |            32768
 2017-02-08 18:41:50.184763+01 | 1486575710.18476 | pgbench_accounts_pkey |        112336896

 2017-02-08 18:41:51.259799+01 | 1486575711.2598 | pgbench_branches_pkey |            16384
 2017-02-08 18:41:51.259799+01 | 1486575711.2598 | pgbench_tellers_pkey  |            32768
 2017-02-08 18:41:51.259799+01 | 1486575711.2598 | pgbench_accounts_pkey |        112336896

 2017-02-08 18:41:52.324784+01 | 1486575712.32478 | pgbench_branches_pkey |            16384
 2017-02-08 18:41:52.324784+01 | 1486575712.32478 | pgbench_tellers_pkey  |            32768
 2017-02-08 18:41:52.324784+01 | 1486575712.32478 | pgbench_accounts_pkey |        112336896

 2017-02-08 18:41:53.39928+01 | 1486575713.39928 | pgbench_branches_pkey |            16384
 2017-02-08 18:41:53.39928+01 | 1486575713.39928 | pgbench_tellers_pkey  |            32768
 2017-02-08 18:41:53.39928+01 | 1486575713.39928 | pgbench_accounts_pkey |        112336896

 2017-02-08 18:41:54.470104+01 | 1486575714.4701 | pgbench_branches_pkey |            16384
 2017-02-08 18:41:54.470104+01 | 1486575714.4701 | pgbench_tellers_pkey  |            32768
 2017-02-08 18:41:54.470104+01 | 1486575714.4701 | pgbench_accounts_pkey |        112336896

 2017-02-08 18:41:55.550788+01 | 1486575715.55079 | pgbench_branches_pkey |            16384
 2017-02-08 18:41:55.550788+01 | 1486575715.55079 | pgbench_tellers_pkey  |            32768
 2017-02-08 18:41:55.550788+01 | 1486575715.55079 | pgbench_accounts_pkey |        112336896

 2017-02-08 18:41:56.627437+01 | 1486575716.62744 | pgbench_branches_pkey |            16384
 2017-02-08 18:41:56.627437+01 | 1486575716.62744 | pgbench_tellers_pkey  |            32768
 2017-02-08 18:41:56.627437+01 | 1486575716.62744 | pgbench_accounts_pkey |        112336896

 2017-02-08 18:41:57.700103+01 | 1486575717.7001 | pgbench_branches_pkey |            16384
 2017-02-08 18:41:57.700103+01 | 1486575717.7001 | pgbench_tellers_pkey  |            32768
 2017-02-08 18:41:57.700103+01 | 1486575717.7001 | pgbench_accounts_pkey |        112336896

 2017-02-08 18:41:58.767664+01 | 1486575718.76766 | pgbench_branches_pkey |            16384
 2017-02-08 18:41:58.767664+01 | 1486575718.76766 | pgbench_tellers_pkey  |            32768
 2017-02-08 18:41:58.767664+01 | 1486575718.76766 | pgbench_accounts_pkey |        112336896

 2017-02-08 18:41:59.842304+01 | 1486575719.8423 | pgbench_branches_pkey |            16384
 2017-02-08 18:41:59.842304+01 | 1486575719.8423 | pgbench_tellers_pkey  |            32768
 2017-02-08 18:41:59.842304+01 | 1486575719.8423 | pgbench_accounts_pkey |        112336896

 2017-02-08 18:42:00.929588+01 | 1486575720.92959 | pgbench_branches_pkey |            16384
 2017-02-08 18:42:00.929588+01 | 1486575720.92959 | pgbench_tellers_pkey  |            32768
 2017-02-08 18:42:00.929588+01 | 1486575720.92959 | pgbench_accounts_pkey |        112336896

 2017-02-08 18:42:01.986776+01 | 1486575721.98678 | pgbench_branches_pkey |            16384
 2017-02-08 18:42:01.986776+01 | 1486575721.98678 | pgbench_tellers_pkey  |            32768
 2017-02-08 18:42:01.986776+01 | 1486575721.98678 | pgbench_accounts_pkey |        112336896

 2017-02-08 18:42:03.051135+01 | 1486575723.05114 | pgbench_branches_pkey |            16384
 2017-02-08 18:42:03.051135+01 | 1486575723.05114 | pgbench_tellers_pkey  |            32768
 2017-02-08 18:42:03.051135+01 | 1486575723.05114 | pgbench_accounts_pkey |        112336896

 2017-02-08 18:42:04.125921+01 | 1486575724.12592 | pgbench_branches_pkey |            16384
 2017-02-08 18:42:04.125921+01 | 1486575724.12592 | pgbench_tellers_pkey  |            32768
 2017-02-08 18:42:04.125921+01 | 1486575724.12592 | pgbench_accounts_pkey |        112336896

 2017-02-08 18:42:05.191841+01 | 1486575725.19184 | pgbench_branches_pkey |            16384
 2017-02-08 18:42:05.191841+01 | 1486575725.19184 | pgbench_tellers_pkey  |            32768
 2017-02-08 18:42:05.191841+01 | 1486575725.19184 | pgbench_accounts_pkey |        112336896

 2017-02-08 18:42:06.260309+01 | 1486575726.26031 | pgbench_branches_pkey |            16384
 2017-02-08 18:42:06.260309+01 | 1486575726.26031 | pgbench_tellers_pkey  |            32768
 2017-02-08 18:42:06.260309+01 | 1486575726.26031 | pgbench_accounts_pkey |        112336896

 2017-02-08 18:42:07.341701+01 | 1486575727.3417 | pgbench_branches_pkey |            16384
 2017-02-08 18:42:07.341701+01 | 1486575727.3417 | pgbench_tellers_pkey  |            32768
 2017-02-08 18:42:07.341701+01 | 1486575727.3417 | pgbench_accounts_pkey |        112336896

 2017-02-08 18:42:08.418791+01 | 1486575728.41879 | pgbench_branches_pkey |            16384
 2017-02-08 18:42:08.418791+01 | 1486575728.41879 | pgbench_tellers_pkey  |            32768
 2017-02-08 18:42:08.418791+01 | 1486575728.41879 | pgbench_accounts_pkey |        112336896

 2017-02-08 18:42:09.492483+01 | 1486575729.49248 | pgbench_branches_pkey |            16384
 2017-02-08 18:42:09.492483+01 | 1486575729.49248 | pgbench_tellers_pkey  |            32768
 2017-02-08 18:42:09.492483+01 | 1486575729.49248 | pgbench_accounts_pkey |        112336896

 2017-02-08 18:42:10.564045+01 | 1486575730.56404 | pgbench_branches_pkey |            16384
 2017-02-08 18:42:10.564045+01 | 1486575730.56404 | pgbench_tellers_pkey  |            32768
 2017-02-08 18:42:10.564045+01 | 1486575730.56404 | pgbench_accounts_pkey |        112336896

 2017-02-08 18:42:11.635585+01 | 1486575731.63559 | pgbench_branches_pkey |            16384
 2017-02-08 18:42:11.635585+01 | 1486575731.63559 | pgbench_tellers_pkey  |            32768
 2017-02-08 18:42:11.635585+01 | 1486575731.63559 | pgbench_accounts_pkey |        112336896

 2017-02-08 18:42:12.691361+01 | 1486575732.69136 | pgbench_branches_pkey |            16384
 2017-02-08 18:42:12.691361+01 | 1486575732.69136 | pgbench_tellers_pkey  |            32768
 2017-02-08 18:42:12.691361+01 | 1486575732.69136 | pgbench_accounts_pkey |        112336896

 2017-02-08 18:42:13.769818+01 | 1486575733.76982 | pgbench_branches_pkey |            16384
 2017-02-08 18:42:13.769818+01 | 1486575733.76982 | pgbench_tellers_pkey  |            32768
 2017-02-08 18:42:13.769818+01 | 1486575733.76982 | pgbench_accounts_pkey |        112336896

 2017-02-08 18:42:14.839995+01 | 1486575734.83999 | pgbench_branches_pkey |            16384
 2017-02-08 18:42:14.839995+01 | 1486575734.83999 | pgbench_tellers_pkey  |            32768
 2017-02-08 18:42:14.839995+01 | 1486575734.83999 | pgbench_accounts_pkey |        112336896

 2017-02-08 18:42:15.914916+01 | 1486575735.91492 | pgbench_branches_pkey |            16384
 2017-02-08 18:42:15.914916+01 | 1486575735.91492 | pgbench_tellers_pkey  |            32768
 2017-02-08 18:42:15.914916+01 | 1486575735.91492 | pgbench_accounts_pkey |        112336896

 2017-02-08 18:42:16.9812+01 | 1486575736.9812 | pgbench_branches_pkey |            16384
 2017-02-08 18:42:16.9812+01 | 1486575736.9812 | pgbench_tellers_pkey  |            32768
 2017-02-08 18:42:16.9812+01 | 1486575736.9812 | pgbench_accounts_pkey |        112336896

 2017-02-08 18:42:18.040051+01 | 1486575738.04005 | pgbench_branches_pkey |            16384
 2017-02-08 18:42:18.040051+01 | 1486575738.04005 | pgbench_tellers_pkey  |            32768
 2017-02-08 18:42:18.040051+01 | 1486575738.04005 | pgbench_accounts_pkey |        112336896

 2017-02-08 18:42:19.09834+01 | 1486575739.09834 | pgbench_branches_pkey |            16384
 2017-02-08 18:42:19.09834+01 | 1486575739.09834 | pgbench_tellers_pkey  |            32768
 2017-02-08 18:42:19.09834+01 | 1486575739.09834 | pgbench_accounts_pkey |        112336896

 2017-02-08 18:42:20.187135+01 | 1486575740.18713 | pgbench_branches_pkey |            16384
 2017-02-08 18:42:20.187135+01 | 1486575740.18713 | pgbench_tellers_pkey  |            32768
 2017-02-08 18:42:20.187135+01 | 1486575740.18713 | pgbench_accounts_pkey |        112336896

 2017-02-08 18:42:21.255857+01 | 1486575741.25586 | pgbench_branches_pkey |            16384
 2017-02-08 18:42:21.255857+01 | 1486575741.25586 | pgbench_tellers_pkey  |            32768
 2017-02-08 18:42:21.255857+01 | 1486575741.25586 | pgbench_accounts_pkey |        112336896

 2017-02-08 18:42:22.329194+01 | 1486575742.32919 | pgbench_branches_pkey |            16384
 2017-02-08 18:42:22.329194+01 | 1486575742.32919 | pgbench_tellers_pkey  |            32768
 2017-02-08 18:42:22.329194+01 | 1486575742.32919 | pgbench_accounts_pkey |        112336896

 2017-02-08 18:42:23.404515+01 | 1486575743.40452 | pgbench_branches_pkey |            16384
 2017-02-08 18:42:23.404515+01 | 1486575743.40452 | pgbench_tellers_pkey  |            32768
 2017-02-08 18:42:23.404515+01 | 1486575743.40452 | pgbench_accounts_pkey |        112336896

 2017-02-08 18:42:24.478222+01 | 1486575744.47822 | pgbench_branches_pkey |            16384
 2017-02-08 18:42:24.478222+01 | 1486575744.47822 | pgbench_tellers_pkey  |            32768
 2017-02-08 18:42:24.478222+01 | 1486575744.47822 | pgbench_accounts_pkey |        112336896

 2017-02-08 18:42:25.546925+01 | 1486575745.54693 | pgbench_branches_pkey |            16384
 2017-02-08 18:42:25.546925+01 | 1486575745.54693 | pgbench_tellers_pkey  |            32768
 2017-02-08 18:42:25.546925+01 | 1486575745.54693 | pgbench_accounts_pkey |        112336896

 2017-02-08 18:42:26.617407+01 | 1486575746.61741 | pgbench_branches_pkey |            16384
 2017-02-08 18:42:26.617407+01 | 1486575746.61741 | pgbench_tellers_pkey  |            32768
 2017-02-08 18:42:26.617407+01 | 1486575746.61741 | pgbench_accounts_pkey |        112336896

 2017-02-08 18:42:27.680879+01 | 1486575747.68088 | pgbench_branches_pkey |            16384
 2017-02-08 18:42:27.680879+01 | 1486575747.68088 | pgbench_tellers_pkey  |            32768
 2017-02-08 18:42:27.680879+01 | 1486575747.68088 | pgbench_accounts_pkey |        112336896

 2017-02-08 18:42:28.74457+01 | 1486575748.74457 | pgbench_branches_pkey |            16384
 2017-02-08 18:42:28.74457+01 | 1486575748.74457 | pgbench_tellers_pkey  |            32768
 2017-02-08 18:42:28.74457+01 | 1486575748.74457 | pgbench_accounts_pkey |        112336896

 2017-02-08 18:42:29.816672+01 | 1486575749.81667 | pgbench_branches_pkey |            16384
 2017-02-08 18:42:29.816672+01 | 1486575749.81667 | pgbench_tellers_pkey  |            32768
 2017-02-08 18:42:29.816672+01 | 1486575749.81667 | pgbench_accounts_pkey |        112336896

 2017-02-08 18:42:30.877493+01 | 1486575750.87749 | pgbench_branches_pkey |            16384
 2017-02-08 18:42:30.877493+01 | 1486575750.87749 | pgbench_tellers_pkey  |            32768
 2017-02-08 18:42:30.877493+01 | 1486575750.87749 | pgbench_accounts_pkey |        112336896

 2017-02-08 18:42:31.937604+01 | 1486575751.9376 | pgbench_branches_pkey |            16384
 2017-02-08 18:42:31.937604+01 | 1486575751.9376 | pgbench_tellers_pkey  |            32768
 2017-02-08 18:42:31.937604+01 | 1486575751.9376 | pgbench_accounts_pkey |        112336896

 2017-02-08 18:42:33.022042+01 | 1486575753.02204 | pgbench_branches_pkey |            16384
 2017-02-08 18:42:33.022042+01 | 1486575753.02204 | pgbench_tellers_pkey  |            32768
 2017-02-08 18:42:33.022042+01 | 1486575753.02204 | pgbench_accounts_pkey |        112336896

 2017-02-08 18:42:34.098433+01 | 1486575754.09843 | pgbench_branches_pkey |            16384
 2017-02-08 18:42:34.098433+01 | 1486575754.09843 | pgbench_tellers_pkey  |            32768
 2017-02-08 18:42:34.098433+01 | 1486575754.09843 | pgbench_accounts_pkey |        112336896

 2017-02-08 18:42:35.159584+01 | 1486575755.15958 | pgbench_branches_pkey |            16384
 2017-02-08 18:42:35.159584+01 | 1486575755.15958 | pgbench_tellers_pkey  |            32768
 2017-02-08 18:42:35.159584+01 | 1486575755.15958 | pgbench_accounts_pkey |        112336896

 2017-02-08 18:42:36.226594+01 | 1486575756.22659 | pgbench_branches_pkey |            16384
 2017-02-08 18:42:36.226594+01 | 1486575756.22659 | pgbench_tellers_pkey  |            32768
 2017-02-08 18:42:36.226594+01 | 1486575756.22659 | pgbench_accounts_pkey |        112336896

 2017-02-08 18:42:37.306366+01 | 1486575757.30637 | pgbench_branches_pkey |            16384
 2017-02-08 18:42:37.306366+01 | 1486575757.30637 | pgbench_tellers_pkey  |            32768
 2017-02-08 18:42:37.306366+01 | 1486575757.30637 | pgbench_accounts_pkey |        112336896

 2017-02-08 18:42:38.372969+01 | 1486575758.37297 | pgbench_branches_pkey |            16384
 2017-02-08 18:42:38.372969+01 | 1486575758.37297 | pgbench_tellers_pkey  |            32768
 2017-02-08 18:42:38.372969+01 | 1486575758.37297 | pgbench_accounts_pkey |        112336896

 2017-02-08 18:42:39.438505+01 | 1486575759.4385 | pgbench_branches_pkey |            16384
 2017-02-08 18:42:39.438505+01 | 1486575759.4385 | pgbench_tellers_pkey  |            32768
 2017-02-08 18:42:39.438505+01 | 1486575759.4385 | pgbench_accounts_pkey |        112336896

 2017-02-08 18:42:40.510987+01 | 1486575760.51099 | pgbench_branches_pkey |            16384
 2017-02-08 18:42:40.510987+01 | 1486575760.51099 | pgbench_tellers_pkey  |            32768
 2017-02-08 18:42:40.510987+01 | 1486575760.51099 | pgbench_accounts_pkey |        112336896

 2017-02-08 18:42:41.580861+01 | 1486575761.58086 | pgbench_branches_pkey |            16384
 2017-02-08 18:42:41.580861+01 | 1486575761.58086 | pgbench_tellers_pkey  |            32768
 2017-02-08 18:42:41.580861+01 | 1486575761.58086 | pgbench_accounts_pkey |        112336896

 2017-02-08 18:42:42.646758+01 | 1486575762.64676 | pgbench_branches_pkey |            16384
 2017-02-08 18:42:42.646758+01 | 1486575762.64676 | pgbench_tellers_pkey  |            32768
 2017-02-08 18:42:42.646758+01 | 1486575762.64676 | pgbench_accounts_pkey |        112336896

 2017-02-08 18:42:43.712888+01 | 1486575763.71289 | pgbench_branches_pkey |            16384
 2017-02-08 18:42:43.712888+01 | 1486575763.71289 | pgbench_tellers_pkey  |            32768
 2017-02-08 18:42:43.712888+01 | 1486575763.71289 | pgbench_accounts_pkey |        112336896

 2017-02-08 18:42:44.780984+01 | 1486575764.78098 | pgbench_branches_pkey |            16384
 2017-02-08 18:42:44.780984+01 | 1486575764.78098 | pgbench_tellers_pkey  |            32768
 2017-02-08 18:42:44.780984+01 | 1486575764.78098 | pgbench_accounts_pkey |        112336896

 2017-02-08 18:42:45.853891+01 | 1486575765.85389 | pgbench_branches_pkey |            16384
 2017-02-08 18:42:45.853891+01 | 1486575765.85389 | pgbench_tellers_pkey  |            32768
 2017-02-08 18:42:45.853891+01 | 1486575765.85389 | pgbench_accounts_pkey |        112336896

 2017-02-08 18:42:46.922969+01 | 1486575766.92297 | pgbench_branches_pkey |            16384
 2017-02-08 18:42:46.922969+01 | 1486575766.92297 | pgbench_tellers_pkey  |            32768
 2017-02-08 18:42:46.922969+01 | 1486575766.92297 | pgbench_accounts_pkey |        112336896

 2017-02-08 18:42:48.002436+01 | 1486575768.00244 | pgbench_branches_pkey |            16384
 2017-02-08 18:42:48.002436+01 | 1486575768.00244 | pgbench_tellers_pkey  |            32768
 2017-02-08 18:42:48.002436+01 | 1486575768.00244 | pgbench_accounts_pkey |        112336896

 2017-02-08 18:42:49.076415+01 | 1486575769.07642 | pgbench_branches_pkey |            16384
 2017-02-08 18:42:49.076415+01 | 1486575769.07642 | pgbench_tellers_pkey  |            32768
 2017-02-08 18:42:49.076415+01 | 1486575769.07642 | pgbench_accounts_pkey |        112336896

 2017-02-08 18:42:50.141502+01 | 1486575770.1415 | pgbench_branches_pkey |            16384
 2017-02-08 18:42:50.141502+01 | 1486575770.1415 | pgbench_tellers_pkey  |            32768
 2017-02-08 18:42:50.141502+01 | 1486575770.1415 | pgbench_accounts_pkey |        112336896

 2017-02-08 18:42:51.20119+01 | 1486575771.20119 | pgbench_branches_pkey |            16384
 2017-02-08 18:42:51.20119+01 | 1486575771.20119 | pgbench_tellers_pkey  |            32768
 2017-02-08 18:42:51.20119+01 | 1486575771.20119 | pgbench_accounts_pkey |        112336896

 2017-02-08 18:42:52.260948+01 | 1486575772.26095 | pgbench_branches_pkey |            16384
 2017-02-08 18:42:52.260948+01 | 1486575772.26095 | pgbench_tellers_pkey  |            32768
 2017-02-08 18:42:52.260948+01 | 1486575772.26095 | pgbench_accounts_pkey |        112336896

 2017-02-08 18:42:53.318721+01 | 1486575773.31872 | pgbench_branches_pkey |            16384
 2017-02-08 18:42:53.318721+01 | 1486575773.31872 | pgbench_tellers_pkey  |            32768
 2017-02-08 18:42:53.318721+01 | 1486575773.31872 | pgbench_accounts_pkey |        112336896

 2017-02-08 18:42:54.389734+01 | 1486575774.38973 | pgbench_branches_pkey |            16384
 2017-02-08 18:42:54.389734+01 | 1486575774.38973 | pgbench_tellers_pkey  |            32768
 2017-02-08 18:42:54.389734+01 | 1486575774.38973 | pgbench_accounts_pkey |        112336896

